{
  "totalItems": 919,
  "totalPages": 92,
  "currentPage": 32,
  "itemsOfPage": 10,
  "items": [
    {
      "id": 784,
      "identificationNumber": "P0100317G",
      "name": "Junta Administrativa de Alda",
      "scope": "ARABA/ÁLAVA",
      "address": "C/ Arnaska, 11 - 0117 Alda",
      "webPage": "https://www.contratacion.euskadi.eus",
      "publicationDate": "2021-01-27",
      "mainActivity": "Servicios públicos generales",
      "codNUTS": "ES211",
      "entities": [
        {
          "id": 1284,
          "name": "Junta Administrativa de Alda",
          "orgs": [
            {
              "id": 914310,
              "name": "Presidente ",
              "_links": {
                "self": {
                  "name": "Presidente ",
                  "href": "https://api.euskadi.eus/procurements/contracting-authorities/784/entities/1284/orgs/914310"
                }
              }
            }
          ],
          "_links": {
            "self": {
              "name": "Junta Administrativa de Alda",
              "href": "https://api.euskadi.eus/procurements/contracting-authorities/784/entities/1284"
            }
          }
        }
      ],
      "mainEntityOfPage": "https://www.contratacion.euskadi.eus/webkpe00-kpeperfi/es/contenidos/poder_adjudicador/poder784/es_doc/es_arch_poder784.html",
      "_links": {
        "self": {
          "name": "Junta Administrativa de Alda",
          "href": "https://api.euskadi.eus/procurements/contracting-authorities/784"
        }
      }
    },
    {
      "id": 782,
      "identificationNumber": "G20487930",
      "name": "Mancomunidad Saiaz",
      "scope": "GIPUZKOA",
      "address": "Bidania Gunea, 2 - 20496 Bidania Goiatz",
      "webPage": "https://www.saiaz.eus",
      "publicationDate": "2021-01-25",
      "mainActivity": "Protección social",
      "codNUTS": "ES212",
      "entities": [
        {
          "id": 1282,
          "name": "Mancomunidad Saiaz",
          "orgs": [
            {
              "id": 914308,
              "name": "Junta Rectora",
              "_links": {
                "self": {
                  "name": "Junta Rectora",
                  "href": "https://api.euskadi.eus/procurements/contracting-authorities/782/entities/1282/orgs/914308"
                }
              }
            }
          ],
          "_links": {
            "self": {
              "name": "Mancomunidad Saiaz",
              "href": "https://api.euskadi.eus/procurements/contracting-authorities/782/entities/1282"
            }
          }
        }
      ],
      "mainEntityOfPage": "https://www.contratacion.euskadi.eus/webkpe00-kpeperfi/es/contenidos/poder_adjudicador/poder782/es_doc/es_arch_poder782.html",
      "_links": {
        "self": {
          "name": "Mancomunidad Saiaz",
          "href": "https://api.euskadi.eus/procurements/contracting-authorities/782"
        }
      }
    },
    {
      "id": 781,
      "identificationNumber": "V95932125",
      "name": "Junta de Concertaciòn de la U.E. 4 Arana de Berango",
      "scope": "BIZKAIA",
      "address": "Marques del Puerto, 9 - 48008 Bilbao",
      "webPage": "https://www.contratacion.euskadi.eus",
      "publicationDate": "2021-01-21",
      "mainActivity": "Vivienda y servicios comunitarios",
      "codNUTS": "ES213",
      "entities": [
        {
          "id": 1281,
          "name": "Junta de Concertaciòn de la U.E. 4 Arana de Berango",
          "orgs": [
            {
              "id": 914307,
              "name": "Junta de Concertaciòn de la U.E. 4 Arana de Berango",
              "_links": {
                "self": {
                  "name": "Junta de Concertaciòn de la U.E. 4 Arana de Berango",
                  "href": "https://api.euskadi.eus/procurements/contracting-authorities/781/entities/1281/orgs/914307"
                }
              }
            }
          ],
          "_links": {
            "self": {
              "name": "Junta de Concertaciòn de la U.E. 4 Arana de Berango",
              "href": "https://api.euskadi.eus/procurements/contracting-authorities/781/entities/1281"
            }
          }
        }
      ],
      "mainEntityOfPage": "https://www.contratacion.euskadi.eus/webkpe00-kpeperfi/es/contenidos/poder_adjudicador/poder781/es_doc/es_arch_poder781.html",
      "_links": {
        "self": {
          "name": "Junta de Concertaciòn de la U.E. 4 Arana de Berango",
          "href": "https://api.euskadi.eus/procurements/contracting-authorities/781"
        }
      }
    },
    {
      "id": 779,
      "identificationNumber": "P0100147H",
      "name": "Junta Administrativa Ribabellosa",
      "scope": "ARABA/ÁLAVA",
      "address": "Plaza de los Fueros, 11 Bj - Ribabellosa",
      "webPage": "http://www.contratacion.euskadi.eus",
      "publicationDate": "2021-01-15",
      "mainActivity": "Servicios públicos generales",
      "codNUTS": "ES211",
      "entities": [
        {
          "id": 1279,
          "name": "Junta Administrativa Ribabellosa",
          "orgs": [
            {
              "id": 914305,
              "name": "Concejo de Ribabellosa",
              "_links": {
                "self": {
                  "name": "Concejo de Ribabellosa",
                  "href": "https://api.euskadi.eus/procurements/contracting-authorities/779/entities/1279/orgs/914305"
                }
              }
            }
          ],
          "_links": {
            "self": {
              "name": "Junta Administrativa Ribabellosa",
              "href": "https://api.euskadi.eus/procurements/contracting-authorities/779/entities/1279"
            }
          }
        }
      ],
      "mainEntityOfPage": "https://www.contratacion.euskadi.eus/webkpe00-kpeperfi/es/contenidos/poder_adjudicador/poder779/es_doc/es_arch_poder779.html",
      "_links": {
        "self": {
          "name": "Junta Administrativa Ribabellosa",
          "href": "https://api.euskadi.eus/procurements/contracting-authorities/779"
        }
      }
    },
    {
      "id": 777,
      "identificationNumber": "V95907176",
      "name": "Junta de Concertación U.E. 1 Etxebarri de Berango",
      "scope": "BIZKAIA",
      "address": "c/ Marqués del Puerto, nº9 - 48008 Bilbao",
      "webPage": "https://www.contratacion.euskadi.eus",
      "publicationDate": "2021-01-05",
      "mainActivity": "Vivienda y servicios comunitarios",
      "codNUTS": "ES213",
      "entities": [
        {
          "id": 1277,
          "name": "Junta de Concertación U.E. 1 Etxebarri de Berango",
          "orgs": [
            {
              "id": 914303,
              "name": "Junta de Concertación U.E. 1 Etxebarri de Berango",
              "_links": {
                "self": {
                  "name": "Junta de Concertación U.E. 1 Etxebarri de Berango",
                  "href": "https://api.euskadi.eus/procurements/contracting-authorities/777/entities/1277/orgs/914303"
                }
              }
            }
          ],
          "_links": {
            "self": {
              "name": "Junta de Concertación U.E. 1 Etxebarri de Berango",
              "href": "https://api.euskadi.eus/procurements/contracting-authorities/777/entities/1277"
            }
          }
        }
      ],
      "mainEntityOfPage": "https://www.contratacion.euskadi.eus/webkpe00-kpeperfi/es/contenidos/poder_adjudicador/poder777/es_doc/es_arch_poder777.html",
      "_links": {
        "self": {
          "name": "Junta de Concertación U.E. 1 Etxebarri de Berango",
          "href": "https://api.euskadi.eus/procurements/contracting-authorities/777"
        }
      }
    },
    {
      "id": 778,
      "identificationNumber": "P0100258C",
      "name": "Junta Administrativa Atiega",
      "scope": "ARABA/ÁLAVA",
      "address": "Barrio  Abajo s/n - Atiega. Añana",
      "webPage": "https://www.contratacion.euskadi.eus",
      "publicationDate": "2021-01-05",
      "mainActivity": "Servicios públicos generales",
      "codNUTS": "ES211",
      "entities": [
        {
          "id": 1278,
          "name": "Junta Administrativa Atiega",
          "orgs": [
            {
              "id": 914304,
              "name": "Concejo de Atiega",
              "_links": {
                "self": {
                  "name": "Concejo de Atiega",
                  "href": "https://api.euskadi.eus/procurements/contracting-authorities/778/entities/1278/orgs/914304"
                }
              }
            }
          ],
          "_links": {
            "self": {
              "name": "Junta Administrativa Atiega",
              "href": "https://api.euskadi.eus/procurements/contracting-authorities/778/entities/1278"
            }
          }
        }
      ],
      "mainEntityOfPage": "https://www.contratacion.euskadi.eus/webkpe00-kpeperfi/es/contenidos/poder_adjudicador/poder778/es_doc/es_arch_poder778.html",
      "_links": {
        "self": {
          "name": "Junta Administrativa Atiega",
          "href": "https://api.euskadi.eus/procurements/contracting-authorities/778"
        }
      }
    },
    {
      "id": 776,
      "identificationNumber": "P0100303G",
      "name": "Junta Administrativa Ullibarri-gamboa",
      "scope": "ARABA/ÁLAVA",
      "address": "Barrio Malatuaga, 2 - 01520 Ullibarri Gamboa",
      "webPage": "https://www.contratacion.euskadi.eus",
      "publicationDate": "2020-12-17",
      "mainActivity": "Servicios públicos generales",
      "codNUTS": "ES211",
      "entities": [
        {
          "id": 1276,
          "name": "Junta Administrativa Ullibarri-gamboa",
          "orgs": [
            {
              "id": 914302,
              "name": "Concejo de Ullibarri-Gamboa",
              "_links": {
                "self": {
                  "name": "Concejo de Ullibarri-Gamboa",
                  "href": "https://api.euskadi.eus/procurements/contracting-authorities/776/entities/1276/orgs/914302"
                }
              }
            }
          ],
          "_links": {
            "self": {
              "name": "Junta Administrativa Ullibarri-gamboa",
              "href": "https://api.euskadi.eus/procurements/contracting-authorities/776/entities/1276"
            }
          }
        }
      ],
      "mainEntityOfPage": "https://www.contratacion.euskadi.eus/webkpe00-kpeperfi/es/contenidos/poder_adjudicador/poder776/es_doc/es_arch_poder776.html",
      "_links": {
        "self": {
          "name": "Junta Administrativa Ullibarri-gamboa",
          "href": "https://api.euskadi.eus/procurements/contracting-authorities/776"
        }
      }
    },
    {
      "id": 775,
      "identificationNumber": "P0100184A",
      "name": "Junta Administrativa Urturi",
      "scope": "ARABA/ÁLAVA",
      "address": "Bernedo - Alava",
      "webPage": "https://www.contratacion.euskadi.eus",
      "publicationDate": "2020-12-14",
      "mainActivity": "Servicios públicos generales",
      "codNUTS": "ES211",
      "entities": [
        {
          "id": 1275,
          "name": "Junta Administrativa Urturi",
          "orgs": [
            {
              "id": 914301,
              "name": "Concejo de Urturi",
              "_links": {
                "self": {
                  "name": "Concejo de Urturi",
                  "href": "https://api.euskadi.eus/procurements/contracting-authorities/775/entities/1275/orgs/914301"
                }
              }
            }
          ],
          "_links": {
            "self": {
              "name": "Junta Administrativa Urturi",
              "href": "https://api.euskadi.eus/procurements/contracting-authorities/775/entities/1275"
            }
          }
        }
      ],
      "mainEntityOfPage": "https://www.contratacion.euskadi.eus/webkpe00-kpeperfi/es/contenidos/poder_adjudicador/poder775/es_doc/es_arch_poder775.html",
      "_links": {
        "self": {
          "name": "Junta Administrativa Urturi",
          "href": "https://api.euskadi.eus/procurements/contracting-authorities/775"
        }
      }
    },
    {
      "id": 774,
      "identificationNumber": "P0100027B",
      "name": "Junta Administrativa Oiardo",
      "scope": "ARABA/ÁLAVA",
      "address": "-",
      "webPage": "https://www.contratacion.euskadi.eus",
      "publicationDate": "2020-12-10",
      "mainActivity": "Servicios públicos generales",
      "codNUTS": "ES211",
      "entities": [
        {
          "id": 1274,
          "name": "Junta Administrativa Oiardo",
          "orgs": [
            {
              "id": 914300,
              "name": "Concejo de Oiardo",
              "_links": {
                "self": {
                  "name": "Concejo de Oiardo",
                  "href": "https://api.euskadi.eus/procurements/contracting-authorities/774/entities/1274/orgs/914300"
                }
              }
            }
          ],
          "_links": {
            "self": {
              "name": "Junta Administrativa Oiardo",
              "href": "https://api.euskadi.eus/procurements/contracting-authorities/774/entities/1274"
            }
          }
        }
      ],
      "mainEntityOfPage": "https://www.contratacion.euskadi.eus/webkpe00-kpeperfi/es/contenidos/poder_adjudicador/poder774/es_doc/es_arch_poder774.html",
      "_links": {
        "self": {
          "name": "Junta Administrativa Oiardo",
          "href": "https://api.euskadi.eus/procurements/contracting-authorities/774"
        }
      }
    },
    {
      "id": 97,
      "identificationNumber": "P0106100A",
      "name": "Ayuntamiento de Campezo",
      "scope": "ARABA/ÁLAVA",
      "address": "Plaza Samuel Picaza, 1. 01110 Campezo (Álava) ",
      "webPage": "http://www.campezo.eus",
      "publicationDate": "2020-12-03",
      "mainActivity": "Servicios públicos generales",
      "codNUTS": "ES211",
      "entities": [
        {
          "id": 448,
          "name": "Ayuntamiento de Campezo",
          "orgs": [
            {
              "id": 911475,
              "name": "Alcaldía",
              "_links": {
                "self": {
                  "name": "Alcaldía",
                  "href": "https://api.euskadi.eus/procurements/contracting-authorities/97/entities/448/orgs/911475"
                }
              }
            },
            {
              "id": 911476,
              "name": "Concejal Delegado de Urbanismo",
              "_links": {
                "self": {
                  "name": "Concejal Delegado de Urbanismo",
                  "href": "https://api.euskadi.eus/procurements/contracting-authorities/97/entities/448/orgs/911476"
                }
              }
            },
            {
              "id": 911477,
              "name": "Pleno",
              "_links": {
                "self": {
                  "name": "Pleno",
                  "href": "https://api.euskadi.eus/procurements/contracting-authorities/97/entities/448/orgs/911477"
                }
              }
            }
          ],
          "_links": {
            "self": {
              "name": "Ayuntamiento de Campezo",
              "href": "https://api.euskadi.eus/procurements/contracting-authorities/97/entities/448"
            }
          }
        }
      ],
      "mainEntityOfPage": "https://www.contratacion.euskadi.eus/webkpe00-kpeperfi/es/contenidos/poder_adjudicador/poder97/es_doc/es_arch_poder97.html",
      "_links": {
        "self": {
          "name": "Ayuntamiento de Campezo",
          "href": "https://api.euskadi.eus/procurements/contracting-authorities/97"
        }
      }
    }
  ]
}