{
  "totalItems": 919,
  "totalPages": 92,
  "currentPage": 71,
  "itemsOfPage": 10,
  "items": [
    {
      "id": 57,
      "identificationNumber": "P2007900J",
      "name": "Ayuntamiento de Bergara",
      "scope": "GIPUZKOA",
      "address": "San Martín de Agirre Plaza, 1. 20570 Bergara",
      "webPage": "http://www.bergara.net/",
      "publicationDate": "2019-10-03",
      "mainActivity": "Servicios públicos generales",
      "codNUTS": "ES212",
      "entities": [
        {
          "id": 357,
          "name": "Ayuntamiento de Bergara",
          "orgs": [
            {
              "id": 911230,
              "name": "Pleno",
              "_links": {
                "self": {
                  "name": "Pleno",
                  "href": "https://api.euskadi.eus/procurements/contracting-authorities/57/entities/357/orgs/911230"
                }
              }
            },
            {
              "id": 911229,
              "name": "Alcalde",
              "_links": {
                "self": {
                  "name": "Alcalde",
                  "href": "https://api.euskadi.eus/procurements/contracting-authorities/57/entities/357/orgs/911229"
                }
              }
            }
          ],
          "_links": {
            "self": {
              "name": "Ayuntamiento de Bergara",
              "href": "https://api.euskadi.eus/procurements/contracting-authorities/57/entities/357"
            }
          }
        }
      ],
      "mainEntityOfPage": "https://www.contratacion.euskadi.eus/webkpe00-kpeperfi/es/contenidos/poder_adjudicador/poder57/es_doc/es_arch_poder57.html",
      "_links": {
        "self": {
          "name": "Ayuntamiento de Bergara",
          "href": "https://api.euskadi.eus/procurements/contracting-authorities/57"
        }
      }
    },
    {
      "id": 76,
      "identificationNumber": "P7003106G",
      "name": "Fundación Pública San Andrés de Eibar",
      "scope": "GIPUZKOA",
      "address": "Legarre Kalea, 6. 20600 Eibar (Gipuzkoa) ",
      "webPage": "https://www.eibar.eus/eu",
      "publicationDate": "2019-10-03",
      "mainActivity": "Protección social",
      "codNUTS": "ES212",
      "entities": [
        {
          "id": 421,
          "name": "Fundación Pública San Andrés de Eibar",
          "orgs": [
            {
              "id": 911405,
              "name": "Junta de la Fundación San Andrés",
              "_links": {
                "self": {
                  "name": "Junta de la Fundación San Andrés",
                  "href": "https://api.euskadi.eus/procurements/contracting-authorities/76/entities/421/orgs/911405"
                }
              }
            }
          ],
          "_links": {
            "self": {
              "name": "Fundación Pública San Andrés de Eibar",
              "href": "https://api.euskadi.eus/procurements/contracting-authorities/76/entities/421"
            }
          }
        }
      ],
      "mainEntityOfPage": "https://www.contratacion.euskadi.eus/webkpe00-kpeperfi/es/contenidos/poder_adjudicador/poder76/es_doc/es_arch_poder76.html",
      "_links": {
        "self": {
          "name": "Fundación Pública San Andrés de Eibar",
          "href": "https://api.euskadi.eus/procurements/contracting-authorities/76"
        }
      }
    },
    {
      "id": 83,
      "identificationNumber": "A20656948",
      "name": "Bergarako Bihargitza 98",
      "scope": "GIPUZKOA",
      "address": "hirigintza@bergara.net",
      "webPage": "http://www.bergara.net",
      "publicationDate": "2019-10-03",
      "mainActivity": "Asuntos económicos y financieros",
      "codNUTS": "ES212",
      "entities": [
        {
          "id": 429,
          "name": "Bergarako Bihargitza 98",
          "orgs": [
            {
              "id": 911423,
              "name": "Consejo de Administración",
              "_links": {
                "self": {
                  "name": "Consejo de Administración",
                  "href": "https://api.euskadi.eus/procurements/contracting-authorities/83/entities/429/orgs/911423"
                }
              }
            },
            {
              "id": 911424,
              "name": "Presidente",
              "_links": {
                "self": {
                  "name": "Presidente",
                  "href": "https://api.euskadi.eus/procurements/contracting-authorities/83/entities/429/orgs/911424"
                }
              }
            }
          ],
          "_links": {
            "self": {
              "name": "Bergarako Bihargitza 98",
              "href": "https://api.euskadi.eus/procurements/contracting-authorities/83/entities/429"
            }
          }
        }
      ],
      "mainEntityOfPage": "https://www.contratacion.euskadi.eus/webkpe00-kpeperfi/es/contenidos/poder_adjudicador/poder83/es_doc/es_arch_poder83.html",
      "_links": {
        "self": {
          "name": "Bergarako Bihargitza 98",
          "href": "https://api.euskadi.eus/procurements/contracting-authorities/83"
        }
      }
    },
    {
      "id": 101,
      "identificationNumber": "P2003500B",
      "name": "Ayuntamiento de Eskoriatza",
      "scope": "GIPUZKOA",
      "address": "Fernando Eskoriatza plaza z/g. 20540 Eskoriatza (Gipuzkoa)",
      "webPage": "http://www.eskoriatza.net",
      "publicationDate": "2019-10-03",
      "mainActivity": "Servicios públicos generales",
      "codNUTS": "ES212",
      "entities": [
        {
          "id": 452,
          "name": "Ayuntamiento de Eskoriatza",
          "orgs": [
            {
              "id": 911486,
              "name": "Pleno",
              "_links": {
                "self": {
                  "name": "Pleno",
                  "href": "https://api.euskadi.eus/procurements/contracting-authorities/101/entities/452/orgs/911486"
                }
              }
            },
            {
              "id": 911485,
              "name": "Alcalde",
              "_links": {
                "self": {
                  "name": "Alcalde",
                  "href": "https://api.euskadi.eus/procurements/contracting-authorities/101/entities/452/orgs/911485"
                }
              }
            }
          ],
          "_links": {
            "self": {
              "name": "Ayuntamiento de Eskoriatza",
              "href": "https://api.euskadi.eus/procurements/contracting-authorities/101/entities/452"
            }
          }
        }
      ],
      "mainEntityOfPage": "https://www.contratacion.euskadi.eus/webkpe00-kpeperfi/es/contenidos/poder_adjudicador/poder101/es_doc/es_arch_poder101.html",
      "_links": {
        "self": {
          "name": "Ayuntamiento de Eskoriatza",
          "href": "https://api.euskadi.eus/procurements/contracting-authorities/101"
        }
      }
    },
    {
      "id": 105,
      "identificationNumber": "G20079703",
      "name": "Mancomunidad Comarcal de Debabarrena",
      "scope": "GIPUZKOA",
      "address": "Egigurentarren, 2 bajo. 20600 Eibar (Gipuzkoa)",
      "webPage": "http://www.debabarrena.eus",
      "publicationDate": "2019-10-03",
      "mainActivity": "Servicios públicos generales",
      "codNUTS": "ES212",
      "entities": [
        {
          "id": 456,
          "name": "Mancomunidad Comarcal de Debabarrena",
          "orgs": [
            {
              "id": 911492,
              "name": "Presidente",
              "_links": {
                "self": {
                  "name": "Presidente",
                  "href": "https://api.euskadi.eus/procurements/contracting-authorities/105/entities/456/orgs/911492"
                }
              }
            },
            {
              "id": 911494,
              "name": "Junta General",
              "_links": {
                "self": {
                  "name": "Junta General",
                  "href": "https://api.euskadi.eus/procurements/contracting-authorities/105/entities/456/orgs/911494"
                }
              }
            },
            {
              "id": 911493,
              "name": "Comisión de Gobierno",
              "_links": {
                "self": {
                  "name": "Comisión de Gobierno",
                  "href": "https://api.euskadi.eus/procurements/contracting-authorities/105/entities/456/orgs/911493"
                }
              }
            }
          ],
          "_links": {
            "self": {
              "name": "Mancomunidad Comarcal de Debabarrena",
              "href": "https://api.euskadi.eus/procurements/contracting-authorities/105/entities/456"
            }
          }
        }
      ],
      "mainEntityOfPage": "https://www.contratacion.euskadi.eus/webkpe00-kpeperfi/es/contenidos/poder_adjudicador/poder105/es_doc/es_arch_poder105.html",
      "_links": {
        "self": {
          "name": "Mancomunidad Comarcal de Debabarrena",
          "href": "https://api.euskadi.eus/procurements/contracting-authorities/105"
        }
      }
    },
    {
      "id": 109,
      "identificationNumber": "P2000001D",
      "name": "Mancomunidad Debagoiena",
      "scope": "GIPUZKOA",
      "address": "Nafarroa Etorbidea, 17. 20500 Arrasate (Gipuzkoa)",
      "webPage": "http://www.debagoiena.eus",
      "publicationDate": "2019-10-03",
      "mainActivity": "Medio ambiente",
      "codNUTS": "ES212",
      "entities": [
        {
          "id": 460,
          "name": "Mancomunidad Debagoiena ",
          "orgs": [
            {
              "id": 911502,
              "name": "Presidencia",
              "_links": {
                "self": {
                  "name": "Presidencia",
                  "href": "https://api.euskadi.eus/procurements/contracting-authorities/109/entities/460/orgs/911502"
                }
              }
            },
            {
              "id": 911501,
              "name": "Junta de Gobierno",
              "_links": {
                "self": {
                  "name": "Junta de Gobierno",
                  "href": "https://api.euskadi.eus/procurements/contracting-authorities/109/entities/460/orgs/911501"
                }
              }
            }
          ],
          "_links": {
            "self": {
              "name": "Mancomunidad Debagoiena ",
              "href": "https://api.euskadi.eus/procurements/contracting-authorities/109/entities/460"
            }
          }
        }
      ],
      "mainEntityOfPage": "https://www.contratacion.euskadi.eus/webkpe00-kpeperfi/es/contenidos/poder_adjudicador/poder109/es_doc/es_arch_poder109.html",
      "_links": {
        "self": {
          "name": "Mancomunidad Debagoiena",
          "href": "https://api.euskadi.eus/procurements/contracting-authorities/109"
        }
      }
    },
    {
      "id": 112,
      "identificationNumber": "B2004300F",
      "name": "Ayuntamiento de Hernani",
      "scope": "GIPUZKOA",
      "address": "Gudarien plaza, 1. 20120 Hernani (Gipuzkoa)",
      "webPage": "http://www.hernani.eus",
      "publicationDate": "2019-10-03",
      "mainActivity": "Servicios públicos generales",
      "codNUTS": "ES212",
      "entities": [
        {
          "id": 471,
          "name": "Hernaniko udaleko zerbitzu sozialak",
          "orgs": [
            {
              "id": 911539,
              "name": "Junta Rectora ",
              "_links": {
                "self": {
                  "name": "Junta Rectora ",
                  "href": "https://api.euskadi.eus/procurements/contracting-authorities/112/entities/471/orgs/911539"
                }
              }
            },
            {
              "id": 911540,
              "name": "Presidente",
              "_links": {
                "self": {
                  "name": "Presidente",
                  "href": "https://api.euskadi.eus/procurements/contracting-authorities/112/entities/471/orgs/911540"
                }
              }
            }
          ],
          "_links": {
            "self": {
              "name": "Hernaniko udaleko zerbitzu sozialak",
              "href": "https://api.euskadi.eus/procurements/contracting-authorities/112/entities/471"
            }
          }
        },
        {
          "id": 463,
          "name": "Ayuntamiento de Hernani",
          "orgs": [
            {
              "id": 911507,
              "name": "Pleno",
              "_links": {
                "self": {
                  "name": "Pleno",
                  "href": "https://api.euskadi.eus/procurements/contracting-authorities/112/entities/463/orgs/911507"
                }
              }
            },
            {
              "id": 911508,
              "name": "Junta de Gobierno Local ",
              "_links": {
                "self": {
                  "name": "Junta de Gobierno Local ",
                  "href": "https://api.euskadi.eus/procurements/contracting-authorities/112/entities/463/orgs/911508"
                }
              }
            },
            {
              "id": 911509,
              "name": "Alcalde",
              "_links": {
                "self": {
                  "name": "Alcalde",
                  "href": "https://api.euskadi.eus/procurements/contracting-authorities/112/entities/463/orgs/911509"
                }
              }
            }
          ],
          "_links": {
            "self": {
              "name": "Ayuntamiento de Hernani",
              "href": "https://api.euskadi.eus/procurements/contracting-authorities/112/entities/463"
            }
          }
        },
        {
          "id": 472,
          "name": "Entidad menor local de Ereñozu",
          "orgs": [
            {
              "id": 911541,
              "name": "Junta vecinal",
              "_links": {
                "self": {
                  "name": "Junta vecinal",
                  "href": "https://api.euskadi.eus/procurements/contracting-authorities/112/entities/472/orgs/911541"
                }
              }
            },
            {
              "id": 911542,
              "name": "Alcalde pedaneo",
              "_links": {
                "self": {
                  "name": "Alcalde pedaneo",
                  "href": "https://api.euskadi.eus/procurements/contracting-authorities/112/entities/472/orgs/911542"
                }
              }
            }
          ],
          "_links": {
            "self": {
              "name": "Entidad menor local de Ereñozu",
              "href": "https://api.euskadi.eus/procurements/contracting-authorities/112/entities/472"
            }
          }
        }
      ],
      "mainEntityOfPage": "https://www.contratacion.euskadi.eus/webkpe00-kpeperfi/es/contenidos/poder_adjudicador/poder112/es_doc/es_arch_poder112.html",
      "_links": {
        "self": {
          "name": "Ayuntamiento de Hernani",
          "href": "https://api.euskadi.eus/procurements/contracting-authorities/112"
        }
      }
    },
    {
      "id": 116,
      "identificationNumber": "P2004200H",
      "name": "Ayuntamiento de Getaria",
      "scope": "GIPUZKOA",
      "address": "Gudarien Enparantza, 1. 20808 Getaria (Gipuzkoa)",
      "webPage": "http://www.getaria.eus",
      "publicationDate": "2019-10-03",
      "mainActivity": "Servicios públicos generales",
      "codNUTS": "ES212",
      "entities": [
        {
          "id": 467,
          "name": "Ayuntamiento de Getaria",
          "orgs": [
            {
              "id": 911515,
              "name": "Alcaldía",
              "_links": {
                "self": {
                  "name": "Alcaldía",
                  "href": "https://api.euskadi.eus/procurements/contracting-authorities/116/entities/467/orgs/911515"
                }
              }
            },
            {
              "id": 911516,
              "name": "Ayuntamiento Pleno",
              "_links": {
                "self": {
                  "name": "Ayuntamiento Pleno",
                  "href": "https://api.euskadi.eus/procurements/contracting-authorities/116/entities/467/orgs/911516"
                }
              }
            }
          ],
          "_links": {
            "self": {
              "name": "Ayuntamiento de Getaria",
              "href": "https://api.euskadi.eus/procurements/contracting-authorities/116/entities/467"
            }
          }
        }
      ],
      "mainEntityOfPage": "https://www.contratacion.euskadi.eus/webkpe00-kpeperfi/es/contenidos/poder_adjudicador/poder116/es_doc/es_arch_poder116.html",
      "_links": {
        "self": {
          "name": "Ayuntamiento de Getaria",
          "href": "https://api.euskadi.eus/procurements/contracting-authorities/116"
        }
      }
    },
    {
      "id": 124,
      "identificationNumber": "G20392064",
      "name": "Mancomunidad Urola Kosta",
      "scope": "GIPUZKOA",
      "address": "Urdaneta bidea, 6. 20800 Zarautz (Gipuzkoa)",
      "webPage": "http://www.urolakosta.eus",
      "publicationDate": "2019-10-03",
      "mainActivity": "Medio ambiente",
      "codNUTS": "ES212",
      "entities": [
        {
          "id": 476,
          "name": "Mancomunidad Urola Kosta",
          "orgs": [
            {
              "id": 911549,
              "name": "Presidencia",
              "_links": {
                "self": {
                  "name": "Presidencia",
                  "href": "https://api.euskadi.eus/procurements/contracting-authorities/124/entities/476/orgs/911549"
                }
              }
            },
            {
              "id": 911550,
              "name": "Comisión Ejecutiva",
              "_links": {
                "self": {
                  "name": "Comisión Ejecutiva",
                  "href": "https://api.euskadi.eus/procurements/contracting-authorities/124/entities/476/orgs/911550"
                }
              }
            }
          ],
          "_links": {
            "self": {
              "name": "Mancomunidad Urola Kosta",
              "href": "https://api.euskadi.eus/procurements/contracting-authorities/124/entities/476"
            }
          }
        }
      ],
      "mainEntityOfPage": "https://www.contratacion.euskadi.eus/webkpe00-kpeperfi/es/contenidos/poder_adjudicador/poder124/es_doc/es_arch_poder124.html",
      "_links": {
        "self": {
          "name": "Mancomunidad Urola Kosta",
          "href": "https://api.euskadi.eus/procurements/contracting-authorities/124"
        }
      }
    },
    {
      "id": 127,
      "identificationNumber": "A20970208",
      "name": "Gipuzkoako Hondakinen Kudeaketa, S.A.U.",
      "scope": "GIPUZKOA",
      "address": "Polígono Ibaiondo 27, Edif. Orbegozo, 3ª Planta. 20120 Hernani (Gipuzkoa)",
      "webPage": "http://www.ghk.eus ",
      "publicationDate": "2019-10-03",
      "mainActivity": "Medio ambiente",
      "codNUTS": "ES212",
      "CPV": [
        {
          "name": "Incineradores de residuos"
        },
        {
          "name": "Servicios a empresas: legislación, mercadotecnia, asesoría, selección de personal, imprenta y seguridad"
        },
        {
          "name": "Servicios de alcantarillado, basura, limpieza y medio ambiente"
        },
        {
          "name": "Servicios de asesoramiento financiero"
        },
        {
          "name": "Servicios de asesoramiento y consultoría en ingeniería"
        },
        {
          "name": "Trabajos de construcción de plantas de incineración de residuos"
        },
        {
          "name": "Trabajos de construcción de vertederos de residuos"
        }
      ],
      "entities": [
        {
          "id": 479,
          "name": "Gipuzkoako Hondakinen Kudeaketa, S.A.U.",
          "orgs": [
            {
              "id": 911554,
              "name": "Consejo de Administración",
              "_links": {
                "self": {
                  "name": "Consejo de Administración",
                  "href": "https://api.euskadi.eus/procurements/contracting-authorities/127/entities/479/orgs/911554"
                }
              }
            }
          ],
          "_links": {
            "self": {
              "name": "Gipuzkoako Hondakinen Kudeaketa, S.A.U.",
              "href": "https://api.euskadi.eus/procurements/contracting-authorities/127/entities/479"
            }
          }
        }
      ],
      "mainEntityOfPage": "https://www.contratacion.euskadi.eus/webkpe00-kpeperfi/es/contenidos/poder_adjudicador/poder127/es_doc/es_arch_poder127.html",
      "_links": {
        "self": {
          "name": "Gipuzkoako Hondakinen Kudeaketa, S.A.U.",
          "href": "https://api.euskadi.eus/procurements/contracting-authorities/127"
        },
        "contractingAuthorities": [
          {
            "name": "Consorcio de Residuos de Gipuzkoa",
            "href": "https://api.euskadi.eus/procurements/contracting-authorities/17369"
          }
        ]
      }
    }
  ]
}