{
  "totalItems": 919,
  "totalPages": 92,
  "currentPage": 34,
  "itemsOfPage": 10,
  "items": [
    {
      "id": 762,
      "identificationNumber": "P0100203I",
      "name": "Junta Administrativa de San Román de Campezo",
      "scope": "ARABA/ÁLAVA",
      "address": "-",
      "webPage": "https://www.contratacion.euskadi.eus/",
      "publicationDate": "2020-10-23",
      "mainActivity": "Servicios públicos generales",
      "codNUTS": "ES211",
      "entities": [
        {
          "id": 1261,
          "name": "Junta Administrativa de San Román de Campezo",
          "orgs": [
            {
              "id": 914283,
              "name": "Junta Administrativa de San Román de Campezo",
              "_links": {
                "self": {
                  "name": "Junta Administrativa de San Román de Campezo",
                  "href": "https://api.euskadi.eus/procurements/contracting-authorities/762/entities/1261/orgs/914283"
                }
              }
            }
          ],
          "_links": {
            "self": {
              "name": "Junta Administrativa de San Román de Campezo",
              "href": "https://api.euskadi.eus/procurements/contracting-authorities/762/entities/1261"
            }
          }
        }
      ],
      "mainEntityOfPage": "https://www.contratacion.euskadi.eus/webkpe00-kpeperfi/es/contenidos/poder_adjudicador/poder762/es_doc/es_arch_poder762.html",
      "_links": {
        "self": {
          "name": "Junta Administrativa de San Román de Campezo",
          "href": "https://api.euskadi.eus/procurements/contracting-authorities/762"
        }
      }
    },
    {
      "id": 763,
      "identificationNumber": "P2003200I",
      "name": "Ayuntamiento de Elduain",
      "scope": "GIPUZKOA",
      "address": "-",
      "webPage": "https://www.contratacion.euskadi.eus",
      "publicationDate": "2020-10-23",
      "mainActivity": "Servicios públicos generales",
      "codNUTS": "ES212",
      "entities": [
        {
          "id": 1262,
          "name": "Ayuntamiento de Elduain",
          "orgs": [
            {
              "id": 914285,
              "name": "Pleno del Ayuntamiento",
              "_links": {
                "self": {
                  "name": "Pleno del Ayuntamiento",
                  "href": "https://api.euskadi.eus/procurements/contracting-authorities/763/entities/1262/orgs/914285"
                }
              }
            },
            {
              "id": 914284,
              "name": "Alcaldia",
              "_links": {
                "self": {
                  "name": "Alcaldia",
                  "href": "https://api.euskadi.eus/procurements/contracting-authorities/763/entities/1262/orgs/914284"
                }
              }
            }
          ],
          "_links": {
            "self": {
              "name": "Ayuntamiento de Elduain",
              "href": "https://api.euskadi.eus/procurements/contracting-authorities/763/entities/1262"
            }
          }
        }
      ],
      "mainEntityOfPage": "https://www.contratacion.euskadi.eus/webkpe00-kpeperfi/es/contenidos/poder_adjudicador/poder763/es_doc/es_arch_poder763.html",
      "_links": {
        "self": {
          "name": "Ayuntamiento de Elduain",
          "href": "https://api.euskadi.eus/procurements/contracting-authorities/763"
        }
      }
    },
    {
      "id": 141,
      "identificationNumber": "G20679049",
      "name": "Fundación Cristóbal Balenciaga",
      "scope": "GIPUZKOA",
      "address": "Parque Aldamar 6, 20808 Getaria (Gipuzkoa)",
      "webPage": "http://www.cristobalbalenciagamuseoa.com",
      "publicationDate": "2020-10-21",
      "mainActivity": "Ocio, cultura y religión",
      "codNUTS": "ES212",
      "entities": [
        {
          "id": 508,
          "name": "Fundación Cristóbal Balenciaga ",
          "orgs": [
            {
              "id": 911599,
              "name": "Director/a Gerente, Presidente del Patronato, Presidente del Comité Ejecutivo de firma mancomunada (mínimo 2 de ellos)",
              "_links": {
                "self": {
                  "name": "Director/a Gerente, Presidente del Patronato, Presidente del Comité Ejecutivo de firma mancomunada (",
                  "href": "https://api.euskadi.eus/procurements/contracting-authorities/141/entities/508/orgs/911599"
                }
              }
            },
            {
              "id": 911596,
              "name": "Presidente/a del Comité Ejecutivo",
              "_links": {
                "self": {
                  "name": "Presidente/a del Comité Ejecutivo",
                  "href": "https://api.euskadi.eus/procurements/contracting-authorities/141/entities/508/orgs/911596"
                }
              }
            },
            {
              "id": 911595,
              "name": "Presidente/a del Patronato",
              "_links": {
                "self": {
                  "name": "Presidente/a del Patronato",
                  "href": "https://api.euskadi.eus/procurements/contracting-authorities/141/entities/508/orgs/911595"
                }
              }
            },
            {
              "id": 911594,
              "name": "Director/a Gerente",
              "_links": {
                "self": {
                  "name": "Director/a Gerente",
                  "href": "https://api.euskadi.eus/procurements/contracting-authorities/141/entities/508/orgs/911594"
                }
              }
            },
            {
              "id": 911597,
              "name": "Comisión Ejecutiva",
              "_links": {
                "self": {
                  "name": "Comisión Ejecutiva",
                  "href": "https://api.euskadi.eus/procurements/contracting-authorities/141/entities/508/orgs/911597"
                }
              }
            },
            {
              "id": 911598,
              "name": "Patronato",
              "_links": {
                "self": {
                  "name": "Patronato",
                  "href": "https://api.euskadi.eus/procurements/contracting-authorities/141/entities/508/orgs/911598"
                }
              }
            }
          ],
          "_links": {
            "self": {
              "name": "Fundación Cristóbal Balenciaga ",
              "href": "https://api.euskadi.eus/procurements/contracting-authorities/141/entities/508"
            }
          }
        }
      ],
      "mainEntityOfPage": "https://www.contratacion.euskadi.eus/webkpe00-kpeperfi/es/contenidos/poder_adjudicador/poder141/es_doc/es_arch_poder141.html",
      "_links": {
        "self": {
          "name": "Fundación Cristóbal Balenciaga",
          "href": "https://api.euskadi.eus/procurements/contracting-authorities/141"
        }
      }
    },
    {
      "id": 761,
      "identificationNumber": "P0100136A",
      "name": "Junta Administrativa de Ondategi",
      "scope": "ARABA/ÁLAVA",
      "address": "-",
      "webPage": "https://www.contratacion.euskadi.eus",
      "publicationDate": "2020-10-16",
      "mainActivity": "Servicios públicos generales",
      "codNUTS": "ES211",
      "entities": [
        {
          "id": 1260,
          "name": "Junta Administrativa de Ondategi",
          "orgs": [
            {
              "id": 914282,
              "name": "Junta Administrativa de Ondategi",
              "_links": {
                "self": {
                  "name": "Junta Administrativa de Ondategi",
                  "href": "https://api.euskadi.eus/procurements/contracting-authorities/761/entities/1260/orgs/914282"
                }
              }
            }
          ],
          "_links": {
            "self": {
              "name": "Junta Administrativa de Ondategi",
              "href": "https://api.euskadi.eus/procurements/contracting-authorities/761/entities/1260"
            }
          }
        }
      ],
      "mainEntityOfPage": "https://www.contratacion.euskadi.eus/webkpe00-kpeperfi/es/contenidos/poder_adjudicador/poder761/es_doc/es_arch_poder761.html",
      "_links": {
        "self": {
          "name": "Junta Administrativa de Ondategi",
          "href": "https://api.euskadi.eus/procurements/contracting-authorities/761"
        }
      }
    },
    {
      "id": 760,
      "identificationNumber": "V95766176",
      "name": "JUNTA CONCERTACIÓN U.E. 7.1 SOPELANA",
      "scope": "BIZKAIA",
      "address": "-",
      "webPage": "https://www.contratacion.euskadi.eus/",
      "publicationDate": "2020-10-09",
      "mainActivity": "Asuntos económicos y financieros",
      "codNUTS": "ES213",
      "entities": [
        {
          "id": 1259,
          "name": "JUNTA CONCERTACIÓN U.E. 7.1 SOPELANA",
          "orgs": [
            {
              "id": 914281,
              "name": "JUNTA CONCERTACIÓN U.E. 7.1 SOPELANA",
              "_links": {
                "self": {
                  "name": "JUNTA CONCERTACIÓN U.E. 7.1 SOPELANA",
                  "href": "https://api.euskadi.eus/procurements/contracting-authorities/760/entities/1259/orgs/914281"
                }
              }
            }
          ],
          "_links": {
            "self": {
              "name": "JUNTA CONCERTACIÓN U.E. 7.1 SOPELANA",
              "href": "https://api.euskadi.eus/procurements/contracting-authorities/760/entities/1259"
            }
          }
        }
      ],
      "mainEntityOfPage": "https://www.contratacion.euskadi.eus/webkpe00-kpeperfi/es/contenidos/poder_adjudicador/poder760/es_doc/es_arch_poder760.html",
      "_links": {
        "self": {
          "name": "JUNTA CONCERTACIÓN U.E. 7.1 SOPELANA",
          "href": "https://api.euskadi.eus/procurements/contracting-authorities/760"
        }
      }
    },
    {
      "id": 468,
      "identificationNumber": "B75024182",
      "name": "Garbitania Zero Zabor S.L.",
      "scope": "GIPUZKOA",
      "address": "Lastaola poligonoa 3. A-12 eraikina. Ereñotzu auzoa. 20120 Hernani (Gipuzkoa)  ",
      "webPage": "http://www.garbitania.eus",
      "publicationDate": "2020-10-07",
      "mainActivity": "Medio ambiente",
      "codNUTS": "ES212",
      "CPV": [
        {
          "name": "Servicios relacionados con desperdicios y residuos"
        }
      ],
      "entities": [
        {
          "id": 917,
          "name": "Garbitania Zero Zabor S.L.",
          "orgs": [
            {
              "id": 912526,
              "name": "Consejo de Administración",
              "_links": {
                "self": {
                  "name": "Consejo de Administración",
                  "href": "https://api.euskadi.eus/procurements/contracting-authorities/468/entities/917/orgs/912526"
                }
              }
            }
          ],
          "_links": {
            "self": {
              "name": "Garbitania Zero Zabor S.L.",
              "href": "https://api.euskadi.eus/procurements/contracting-authorities/468/entities/917"
            }
          }
        }
      ],
      "mainEntityOfPage": "https://www.contratacion.euskadi.eus/webkpe00-kpeperfi/es/contenidos/poder_adjudicador/poder468/es_doc/es_arch_poder468.html",
      "_links": {
        "self": {
          "name": "Garbitania Zero Zabor S.L.",
          "href": "https://api.euskadi.eus/procurements/contracting-authorities/468"
        },
        "contractingAuthorities": [
          {
            "name": "Ayuntamiento de Astigarraga",
            "href": "https://api.euskadi.eus/procurements/contracting-authorities/17818"
          },
          {
            "name": "Ayuntamiento de Hernani",
            "href": "https://api.euskadi.eus/procurements/contracting-authorities/17439"
          },
          {
            "name": "Ayuntamiento de Usurbil",
            "href": "https://api.euskadi.eus/procurements/contracting-authorities/18644"
          }
        ]
      }
    },
    {
      "id": 759,
      "identificationNumber": "P0100188B",
      "name": "Junta Administrativa de Ozaeta",
      "scope": "ARABA/ÁLAVA",
      "address": "-",
      "webPage": "https://www.contratacion.euskadi.eus",
      "publicationDate": "2020-10-01",
      "mainActivity": "Servicios públicos generales",
      "codNUTS": "ES211",
      "entities": [
        {
          "id": 1258,
          "name": "Junta Administrativa de Ozaeta",
          "orgs": [
            {
              "id": 914280,
              "name": "Concejo de Ozaeta",
              "_links": {
                "self": {
                  "name": "Concejo de Ozaeta",
                  "href": "https://api.euskadi.eus/procurements/contracting-authorities/759/entities/1258/orgs/914280"
                }
              }
            }
          ],
          "_links": {
            "self": {
              "name": "Junta Administrativa de Ozaeta",
              "href": "https://api.euskadi.eus/procurements/contracting-authorities/759/entities/1258"
            }
          }
        }
      ],
      "mainEntityOfPage": "https://www.contratacion.euskadi.eus/webkpe00-kpeperfi/es/contenidos/poder_adjudicador/poder759/es_doc/es_arch_poder759.html",
      "_links": {
        "self": {
          "name": "Junta Administrativa de Ozaeta",
          "href": "https://api.euskadi.eus/procurements/contracting-authorities/759"
        }
      }
    },
    {
      "id": 758,
      "identificationNumber": "A01056084",
      "name": "CTV.CENTRO DE TRANSPORTE DE VITORIA SA.",
      "scope": "ARABA/ÁLAVA",
      "address": "-",
      "webPage": "http://www.ctvitoria.com",
      "publicationDate": "2020-09-25",
      "mainActivity": "Otra actividad",
      "alternativeActivity": "Transportes",
      "codNUTS": "ES211",
      "entities": [
        {
          "id": 1257,
          "name": "CTV.CENTRO DE TRANSPORTE DE VITORIA SA.",
          "orgs": [
            {
              "id": 914279,
              "name": "Gerencia",
              "_links": {
                "self": {
                  "name": "Gerencia",
                  "href": "https://api.euskadi.eus/procurements/contracting-authorities/758/entities/1257/orgs/914279"
                }
              }
            }
          ],
          "_links": {
            "self": {
              "name": "CTV.CENTRO DE TRANSPORTE DE VITORIA SA.",
              "href": "https://api.euskadi.eus/procurements/contracting-authorities/758/entities/1257"
            }
          }
        }
      ],
      "mainEntityOfPage": "https://www.contratacion.euskadi.eus/webkpe00-kpeperfi/es/contenidos/poder_adjudicador/poder758/es_doc/es_arch_poder758.html",
      "_links": {
        "self": {
          "name": "CTV.CENTRO DE TRANSPORTE DE VITORIA SA.",
          "href": "https://api.euskadi.eus/procurements/contracting-authorities/758"
        }
      }
    },
    {
      "id": 227,
      "identificationNumber": "A48256135",
      "name": "BASALAN  A.B, S.A, M.P",
      "scope": "BIZKAIA",
      "address": "Barrio Garaioltza, 26. 48196 Lezama (Bizkaia)",
      "webPage": "http://basalan.bizkaia.eus/",
      "publicationDate": "2020-09-15",
      "mainActivity": "Medio ambiente",
      "codNUTS": "ES213",
      "CPV": [
        {
          "name": "Productos de la agricultura, ganadería, pesca, silvicultura y productos afines"
        }
      ],
      "entities": [
        {
          "id": 674,
          "name": "BASALAN  A.B, S.A, M.P",
          "orgs": [
            {
              "id": 912067,
              "name": "Gerente ",
              "_links": {
                "self": {
                  "name": "Gerente ",
                  "href": "https://api.euskadi.eus/procurements/contracting-authorities/227/entities/674/orgs/912067"
                }
              }
            }
          ],
          "_links": {
            "self": {
              "name": "BASALAN  A.B, S.A, M.P",
              "href": "https://api.euskadi.eus/procurements/contracting-authorities/227/entities/674"
            }
          }
        }
      ],
      "mainEntityOfPage": "https://www.contratacion.euskadi.eus/webkpe00-kpeperfi/es/contenidos/poder_adjudicador/poder227/es_doc/es_arch_poder227.html",
      "_links": {
        "self": {
          "name": "BASALAN  A.B, S.A, M.P",
          "href": "https://api.euskadi.eus/procurements/contracting-authorities/227"
        },
        "contractingAuthorities": [
          {
            "name": "AZPIEGITURAK, S.A.M.P.",
            "href": "https://api.euskadi.eus/procurements/contracting-authorities/18381"
          },
          {
            "name": "Diputación Foral de Bizkaia",
            "href": "https://api.euskadi.eus/procurements/contracting-authorities/18269"
          }
        ]
      }
    },
    {
      "id": 360,
      "identificationNumber": "P4805100G",
      "name": "Ayuntamiento de Gorliz",
      "scope": "BIZKAIA",
      "address": "Eliz Plaza, s/n  48630 Gorliz (Bizkaia)",
      "webPage": "http://www.gorliz.eu",
      "publicationDate": "2020-09-07",
      "mainActivity": "Servicios públicos generales",
      "codNUTS": "ES213",
      "entities": [
        {
          "id": 812,
          "name": "Ayuntamiento de Gorliz",
          "orgs": [
            {
              "id": 912335,
              "name": "Alcaldía",
              "_links": {
                "self": {
                  "name": "Alcaldía",
                  "href": "https://api.euskadi.eus/procurements/contracting-authorities/360/entities/812/orgs/912335"
                }
              }
            },
            {
              "id": 912336,
              "name": "Junta de Gobierno ",
              "_links": {
                "self": {
                  "name": "Junta de Gobierno ",
                  "href": "https://api.euskadi.eus/procurements/contracting-authorities/360/entities/812/orgs/912336"
                }
              }
            },
            {
              "id": 912337,
              "name": "Pleno",
              "_links": {
                "self": {
                  "name": "Pleno",
                  "href": "https://api.euskadi.eus/procurements/contracting-authorities/360/entities/812/orgs/912337"
                }
              }
            }
          ],
          "_links": {
            "self": {
              "name": "Ayuntamiento de Gorliz",
              "href": "https://api.euskadi.eus/procurements/contracting-authorities/360/entities/812"
            }
          }
        }
      ],
      "mainEntityOfPage": "https://www.contratacion.euskadi.eus/webkpe00-kpeperfi/es/contenidos/poder_adjudicador/poder360/es_doc/es_arch_poder360.html",
      "_links": {
        "self": {
          "name": "Ayuntamiento de Gorliz",
          "href": "https://api.euskadi.eus/procurements/contracting-authorities/360"
        }
      }
    }
  ]
}