{
  "totalItems": 919,
  "totalPages": 92,
  "currentPage": 4,
  "itemsOfPage": 10,
  "items": [
    {
      "id": 27050,
      "identificationNumber": "G75035105",
      "name": "Zineuskadi",
      "scope": "GIPUZKOA",
      "address": "Plaza de las Cigarreras, 1 3º Planta",
      "webPage": "www.zineuskadi.eu",
      "publicationDate": "2025-07-03",
      "mainActivity": "Ocio, cultura y religión",
      "codNUTS": "ES212",
      "entities": [
        {
          "id": 27051,
          "name": "Asociación Zineuskadi",
          "orgs": [
            {
              "id": 27052,
              "name": "Asociación Zineuskadi",
              "_links": {
                "self": {
                  "name": "Asociación Zineuskadi",
                  "href": "https://api.euskadi.eus/procurements/contracting-authorities/27050/entities/27051/orgs/27052"
                }
              }
            }
          ],
          "_links": {
            "self": {
              "name": "Asociación Zineuskadi",
              "href": "https://api.euskadi.eus/procurements/contracting-authorities/27050/entities/27051"
            }
          }
        }
      ],
      "mainEntityOfPage": "https://www.contratacion.euskadi.eus/webkpe00-kpeperfi/es/contenidos/poder_adjudicador/poder27050/es_doc/index.html",
      "_links": {
        "self": {
          "name": "Zineuskadi",
          "href": "https://api.euskadi.eus/procurements/contracting-authorities/27050"
        }
      }
    },
    {
      "id": 25708,
      "identificationNumber": "G48499016",
      "name": "Asociación de Desarrollo Rural Enkarterrialde",
      "scope": "BIZKAIA",
      "address": "San Miguel, 1 – 48879 – Artzentales -Bizkaia",
      "webPage": "https://enkarterrialde.eus/",
      "publicationDate": "2025-06-19",
      "mainActivity": "Servicios públicos generales",
      "codNUTS": "ES213",
      "entities": [
        {
          "id": 25709,
          "name": "Asociación de Desarrollo Rural Enkarterrialde",
          "orgs": [
            {
              "id": 25710,
              "name": "Junta Directiva",
              "_links": {
                "self": {
                  "name": "Junta Directiva",
                  "href": "https://api.euskadi.eus/procurements/contracting-authorities/25708/entities/25709/orgs/25710"
                }
              }
            }
          ],
          "_links": {
            "self": {
              "name": "Asociación de Desarrollo Rural Enkarterrialde",
              "href": "https://api.euskadi.eus/procurements/contracting-authorities/25708/entities/25709"
            }
          }
        }
      ],
      "mainEntityOfPage": "https://www.contratacion.euskadi.eus/webkpe00-kpeperfi/es/contenidos/poder_adjudicador/poder25708/es_doc/index.html",
      "_links": {
        "self": {
          "name": "Asociación de Desarrollo Rural Enkarterrialde",
          "href": "https://api.euskadi.eus/procurements/contracting-authorities/25708"
        }
      }
    },
    {
      "id": 341,
      "identificationNumber": "A01103118",
      "name": "Alava Agencia de Desarrollo, S.A.",
      "scope": "ARABA/ÁLAVA",
      "address": "Landázuri, 15 bajo 01008 Vitoria-Gasteiz (Araba/Álava)",
      "webPage": "http://www.aad.eus",
      "publicationDate": "2025-06-05",
      "mainActivity": "Otra actividad",
      "alternativeActivity": "Promoción empresarial",
      "codNUTS": "ES211",
      "entities": [
        {
          "id": 793,
          "name": "Álava Agencia de Desarrollo, S.A.",
          "orgs": [
            {
              "id": 912287,
              "name": "Consejo de Administración",
              "_links": {
                "self": {
                  "name": "Consejo de Administración",
                  "href": "https://api.euskadi.eus/procurements/contracting-authorities/341/entities/793/orgs/912287"
                }
              }
            },
            {
              "id": 912286,
              "name": "Presidente/a del Consejo de Administración",
              "_links": {
                "self": {
                  "name": "Presidente/a del Consejo de Administración",
                  "href": "https://api.euskadi.eus/procurements/contracting-authorities/341/entities/793/orgs/912286"
                }
              }
            },
            {
              "id": 912285,
              "name": "Dirección-Gerencia",
              "_links": {
                "self": {
                  "name": "Dirección-Gerencia",
                  "href": "https://api.euskadi.eus/procurements/contracting-authorities/341/entities/793/orgs/912285"
                }
              }
            }
          ],
          "_links": {
            "self": {
              "name": "Álava Agencia de Desarrollo, S.A.",
              "href": "https://api.euskadi.eus/procurements/contracting-authorities/341/entities/793"
            }
          }
        }
      ],
      "mainEntityOfPage": "https://www.contratacion.euskadi.eus/webkpe00-kpeperfi/es/contenidos/poder_adjudicador/poder341/es_doc/index.html",
      "_links": {
        "self": {
          "name": "Alava Agencia de Desarrollo, S.A.",
          "href": "https://api.euskadi.eus/procurements/contracting-authorities/341"
        }
      }
    },
    {
      "id": 408,
      "identificationNumber": "G75020313",
      "name": "Asociación Instituto de Investigación Sanitaria Biogipuzkoa",
      "scope": "GIPUZKOA",
      "address": "Paseo Dr. Begiristain, s/n. 20014 Donostia/San Sebastián (Gipuzkoa)  ",
      "webPage": "http://www.biodonostia.org/",
      "publicationDate": "2025-05-23",
      "mainActivity": "Otra actividad",
      "alternativeActivity": "Ikerketa",
      "codNUTS": "ES212",
      "entities": [
        {
          "id": 859,
          "name": "Asociación Instituto de Investigación Sanitaria Biogipuzkoa",
          "orgs": [
            {
              "id": 25951,
              "name": "Directora IIS Biogipuzkoa y Director Innovación e Investigación Sanitarias de Departamento de Salud",
              "_links": {
                "self": {
                  "name": "Directora IIS Biogipuzkoa y Director Innovación e Investigación Sanitarias de Departamento de Salud",
                  "href": "https://api.euskadi.eus/procurements/contracting-authorities/408/entities/859/orgs/25951"
                }
              }
            },
            {
              "id": 27040,
              "name": "Coordinadora Científica",
              "_links": {
                "self": {
                  "name": "Coordinadora Científica",
                  "href": "https://api.euskadi.eus/procurements/contracting-authorities/408/entities/859/orgs/27040"
                }
              }
            },
            {
              "id": 25951,
              "name": "Directora IIS Biodonostia y Directora Innovación e Investigación Sanitarias de Departamento de Salud",
              "_links": {
                "self": {
                  "name": "Directora IIS Biodonostia y Directora Innovación e Investigación Sanitarias de Departamento de Salud",
                  "href": "https://api.euskadi.eus/procurements/contracting-authorities/408/entities/859/orgs/25951"
                }
              }
            },
            {
              "id": 912420,
              "name": "Directora",
              "_links": {
                "self": {
                  "name": "Directora",
                  "href": "https://api.euskadi.eus/procurements/contracting-authorities/408/entities/859/orgs/912420"
                }
              }
            }
          ],
          "_links": {
            "self": {
              "name": "Asociación Instituto de Investigación Sanitaria Biogipuzkoa",
              "href": "https://api.euskadi.eus/procurements/contracting-authorities/408/entities/859"
            }
          }
        }
      ],
      "mainEntityOfPage": "https://www.contratacion.euskadi.eus/webkpe00-kpeperfi/es/contenidos/poder_adjudicador/poder408/es_doc/index.html",
      "_links": {
        "self": {
          "name": "Asociación Instituto de Investigación Sanitaria Biogipuzkoa",
          "href": "https://api.euskadi.eus/procurements/contracting-authorities/408"
        }
      }
    },
    {
      "id": 395,
      "identificationNumber": "P4800048C",
      "name": "Ayuntamiento de Ziortza-Bolibar",
      "scope": "BIZKAIA",
      "address": "Simon Bolivar Plaza, 3. 48278 Ziortza-Bolibar (Bizkaia)",
      "webPage": "http://www.ziortza-bolibar.eus",
      "publicationDate": "2025-05-15",
      "mainActivity": "Servicios públicos generales",
      "codNUTS": "ES213",
      "entities": [
        {
          "id": 846,
          "name": "Ayuntamiento de Ziortza-Bolibar",
          "orgs": [
            {
              "id": 912394,
              "name": "Pleno",
              "_links": {
                "self": {
                  "name": "Pleno",
                  "href": "https://api.euskadi.eus/procurements/contracting-authorities/395/entities/846/orgs/912394"
                }
              }
            },
            {
              "id": 912393,
              "name": "Alcaldía",
              "_links": {
                "self": {
                  "name": "Alcaldía",
                  "href": "https://api.euskadi.eus/procurements/contracting-authorities/395/entities/846/orgs/912393"
                }
              }
            }
          ],
          "_links": {
            "self": {
              "name": "Ayuntamiento de Ziortza-Bolibar",
              "href": "https://api.euskadi.eus/procurements/contracting-authorities/395/entities/846"
            }
          }
        }
      ],
      "mainEntityOfPage": "https://www.contratacion.euskadi.eus/webkpe00-kpeperfi/es/contenidos/poder_adjudicador/poder395/es_doc/index.html",
      "_links": {
        "self": {
          "name": "Ayuntamiento de Ziortza-Bolibar",
          "href": "https://api.euskadi.eus/procurements/contracting-authorities/395"
        }
      }
    },
    {
      "id": 27030,
      "identificationNumber": "P0100331H",
      "name": "JUNTA ADMINISTRATIVA DE GOBEO",
      "scope": "ARABA/ÁLAVA",
      "address": "GOBEO 11",
      "webPage": "www.vitoria-gasteiz.org",
      "publicationDate": "2025-05-12",
      "mainActivity": "Servicios públicos generales",
      "codNUTS": "ES211",
      "entities": [
        {
          "id": 27031,
          "name": "JUNTA ADMINISTRATIVA DE GOBEO",
          "orgs": [
            {
              "id": 27032,
              "name": "CONCEJO DE GOBEO",
              "_links": {
                "self": {
                  "name": "CONCEJO DE GOBEO",
                  "href": "https://api.euskadi.eus/procurements/contracting-authorities/27030/entities/27031/orgs/27032"
                }
              }
            }
          ],
          "_links": {
            "self": {
              "name": "JUNTA ADMINISTRATIVA DE GOBEO",
              "href": "https://api.euskadi.eus/procurements/contracting-authorities/27030/entities/27031"
            }
          }
        }
      ],
      "mainEntityOfPage": "https://www.contratacion.euskadi.eus/webkpe00-kpeperfi/es/contenidos/poder_adjudicador/poder27030/es_doc/index.html",
      "_links": {
        "self": {
          "name": "JUNTA ADMINISTRATIVA DE GOBEO",
          "href": "https://api.euskadi.eus/procurements/contracting-authorities/27030"
        }
      }
    },
    {
      "id": 203,
      "identificationNumber": "Q4800695A",
      "name": "ORGANISMO AUTONOMO LOCAL GETXO KULTURA",
      "scope": "BIZKAIA",
      "address": "Villamonte A-8. 48991 Getxo (Bizkaia)",
      "webPage": "http://www.getxo.eus",
      "publicationDate": "2025-05-08",
      "mainActivity": "Servicios públicos generales",
      "codNUTS": "ES213",
      "entities": [
        {
          "id": 633,
          "name": "ORGANISMO AUTONOMO LOCAL GETXO KULTURA",
          "orgs": [
            {
              "id": 911970,
              "name": "Junta Rectora",
              "_links": {
                "self": {
                  "name": "Junta Rectora",
                  "href": "https://api.euskadi.eus/procurements/contracting-authorities/203/entities/633/orgs/911970"
                }
              }
            },
            {
              "id": 911969,
              "name": "Presidente",
              "_links": {
                "self": {
                  "name": "Presidente",
                  "href": "https://api.euskadi.eus/procurements/contracting-authorities/203/entities/633/orgs/911969"
                }
              }
            }
          ],
          "_links": {
            "self": {
              "name": "ORGANISMO AUTONOMO LOCAL GETXO KULTURA",
              "href": "https://api.euskadi.eus/procurements/contracting-authorities/203/entities/633"
            }
          }
        }
      ],
      "mainEntityOfPage": "https://www.contratacion.euskadi.eus/webkpe00-kpeperfi/es/contenidos/poder_adjudicador/poder203/es_doc/index.html",
      "_links": {
        "self": {
          "name": "ORGANISMO AUTONOMO LOCAL GETXO KULTURA",
          "href": "https://api.euskadi.eus/procurements/contracting-authorities/203"
        }
      }
    },
    {
      "id": 27024,
      "identificationNumber": "P0100034H",
      "name": "Junta Administrativa de Lubiano",
      "scope": "ARABA/ÁLAVA",
      "address": "Lubiano 1",
      "webPage": "https://www.vitoria-gasteiz.org/wb021/was/we001Action.do?idioma=es&accion=home&accionWe001=ficha",
      "publicationDate": "2025-04-23",
      "mainActivity": "Servicios públicos generales",
      "codNUTS": "ES211",
      "entities": [
        {
          "id": 27025,
          "name": "Junta Administrativa de Lubiano",
          "orgs": [
            {
              "id": 27026,
              "name": "Junta Administrativa de Lubiano",
              "_links": {
                "self": {
                  "name": "Junta Administrativa de Lubiano",
                  "href": "https://api.euskadi.eus/procurements/contracting-authorities/27024/entities/27025/orgs/27026"
                }
              }
            }
          ],
          "_links": {
            "self": {
              "name": "Junta Administrativa de Lubiano",
              "href": "https://api.euskadi.eus/procurements/contracting-authorities/27024/entities/27025"
            }
          }
        }
      ],
      "mainEntityOfPage": "https://www.contratacion.euskadi.eus/webkpe00-kpeperfi/es/contenidos/poder_adjudicador/poder27024/es_doc/index.html",
      "_links": {
        "self": {
          "name": "Junta Administrativa de Lubiano",
          "href": "https://api.euskadi.eus/procurements/contracting-authorities/27024"
        }
      }
    },
    {
      "id": 27011,
      "identificationNumber": "P0100298I",
      "name": "JUNTA ADMINISTRATIVA DE LABRAZA",
      "scope": "ARABA/ÁLAVA",
      "address": "Calle Concepción, nº 2, Labraza (Álava)",
      "webPage": "https://ayuntamientodeoyon.com/es/",
      "publicationDate": "2025-03-21",
      "mainActivity": "Servicios públicos generales",
      "codNUTS": "ES211",
      "entities": [
        {
          "id": 27012,
          "name": "JUNTA ADMINISTRATIVA DE LABRAZA",
          "orgs": [
            {
              "id": 27013,
              "name": "JUNTA ADMINISTRATIVA DE LABRAZA",
              "_links": {
                "self": {
                  "name": "JUNTA ADMINISTRATIVA DE LABRAZA",
                  "href": "https://api.euskadi.eus/procurements/contracting-authorities/27011/entities/27012/orgs/27013"
                }
              }
            }
          ],
          "_links": {
            "self": {
              "name": "JUNTA ADMINISTRATIVA DE LABRAZA",
              "href": "https://api.euskadi.eus/procurements/contracting-authorities/27011/entities/27012"
            }
          }
        }
      ],
      "mainEntityOfPage": "https://www.contratacion.euskadi.eus/webkpe00-kpeperfi/es/contenidos/poder_adjudicador/poder27011/es_doc/index.html",
      "_links": {
        "self": {
          "name": "JUNTA ADMINISTRATIVA DE LABRAZA",
          "href": "https://api.euskadi.eus/procurements/contracting-authorities/27011"
        }
      }
    },
    {
      "id": 17,
      "identificationNumber": "Q0100547I",
      "name": "Autoridad Vasca de Protección de Datos",
      "scope": "CAPV",
      "address": "Dirección",
      "webPage": "http://www.avpd.es",
      "publicationDate": "2025-03-21",
      "mainActivity": "Servicios públicos generales",
      "codNUTS": "ES21",
      "entities": [
        {
          "id": 195,
          "name": "Autoridad Vasca de Protección de Datos",
          "orgs": [
            {
              "id": 910955,
              "name": "Autoridad Vasca de Protección de Datos",
              "_links": {
                "self": {
                  "name": "Autoridad Vasca de Protección de Datos",
                  "href": "https://api.euskadi.eus/procurements/contracting-authorities/17/entities/195/orgs/910955"
                }
              }
            }
          ],
          "_links": {
            "self": {
              "name": "Autoridad Vasca de Protección de Datos",
              "href": "https://api.euskadi.eus/procurements/contracting-authorities/17/entities/195"
            }
          }
        }
      ],
      "mainEntityOfPage": "https://www.contratacion.euskadi.eus/webkpe00-kpeperfi/es/contenidos/poder_adjudicador/poder17/es_doc/index.html",
      "_links": {
        "self": {
          "name": "Autoridad Vasca de Protección de Datos",
          "href": "https://api.euskadi.eus/procurements/contracting-authorities/17"
        }
      }
    }
  ]
}