{
  "totalItems": 919,
  "totalPages": 92,
  "currentPage": 54,
  "itemsOfPage": 10,
  "items": [
    {
      "id": 454,
      "identificationNumber": "P9808003I",
      "name": "Mancomunidad Mungialde de Servicios Sociales",
      "scope": "BIZKAIA",
      "address": "Aita Elorriaga, 4 behea. 48100 Mungia (Bizkaia)",
      "webPage": "http://www.mungialde.eus",
      "publicationDate": "2019-10-07",
      "mainActivity": "Protección social",
      "codNUTS": "ES213",
      "entities": [
        {
          "id": 903,
          "name": "Mancomunidad Mungialde de Servicios Sociales",
          "orgs": [
            {
              "id": 912501,
              "name": "Presidente",
              "_links": {
                "self": {
                  "name": "Presidente",
                  "href": "https://api.euskadi.eus/procurements/contracting-authorities/454/entities/903/orgs/912501"
                }
              }
            },
            {
              "id": 912502,
              "name": "Asamblea General",
              "_links": {
                "self": {
                  "name": "Asamblea General",
                  "href": "https://api.euskadi.eus/procurements/contracting-authorities/454/entities/903/orgs/912502"
                }
              }
            }
          ],
          "_links": {
            "self": {
              "name": "Mancomunidad Mungialde de Servicios Sociales",
              "href": "https://api.euskadi.eus/procurements/contracting-authorities/454/entities/903"
            }
          }
        }
      ],
      "mainEntityOfPage": "https://www.contratacion.euskadi.eus/webkpe00-kpeperfi/es/contenidos/poder_adjudicador/poder454/es_doc/es_arch_poder454.html",
      "_links": {
        "self": {
          "name": "Mancomunidad Mungialde de Servicios Sociales",
          "href": "https://api.euskadi.eus/procurements/contracting-authorities/454"
        }
      }
    },
    {
      "id": 459,
      "identificationNumber": "P4803400C",
      "name": "Ayuntamiento de Durango",
      "scope": "BIZKAIA",
      "address": "Barrenkalea, 17. 48200 Durango (Bizkaia)  ",
      "webPage": "http://www.durango.eus",
      "publicationDate": "2019-10-07",
      "mainActivity": "Servicios públicos generales",
      "codNUTS": "ES213",
      "entities": [
        {
          "id": 908,
          "name": "Ayuntamiento de Durango",
          "orgs": [
            {
              "id": 912511,
              "name": "Junta de Gobierno",
              "_links": {
                "self": {
                  "name": "Junta de Gobierno",
                  "href": "https://api.euskadi.eus/procurements/contracting-authorities/459/entities/908/orgs/912511"
                }
              }
            },
            {
              "id": 912509,
              "name": "Alcaldía",
              "_links": {
                "self": {
                  "name": "Alcaldía",
                  "href": "https://api.euskadi.eus/procurements/contracting-authorities/459/entities/908/orgs/912509"
                }
              }
            },
            {
              "id": 912510,
              "name": "Pleno",
              "_links": {
                "self": {
                  "name": "Pleno",
                  "href": "https://api.euskadi.eus/procurements/contracting-authorities/459/entities/908/orgs/912510"
                }
              }
            }
          ],
          "_links": {
            "self": {
              "name": "Ayuntamiento de Durango",
              "href": "https://api.euskadi.eus/procurements/contracting-authorities/459/entities/908"
            }
          }
        }
      ],
      "mainEntityOfPage": "https://www.contratacion.euskadi.eus/webkpe00-kpeperfi/es/contenidos/poder_adjudicador/poder459/es_doc/es_arch_poder459.html",
      "_links": {
        "self": {
          "name": "Ayuntamiento de Durango",
          "href": "https://api.euskadi.eus/procurements/contracting-authorities/459"
        }
      }
    },
    {
      "id": 461,
      "identificationNumber": "P4800400F",
      "name": "Ayuntamiento de Amoroto",
      "scope": "BIZKAIA",
      "address": "Elexalde auzoa 1. 48289 Amoroto (Bizkaia)",
      "webPage": "http://www.amoroto.eus",
      "publicationDate": "2019-10-07",
      "mainActivity": "Servicios públicos generales",
      "codNUTS": "ES213",
      "entities": [
        {
          "id": 910,
          "name": "Ayuntamiento de Amoroto\t",
          "orgs": [
            {
              "id": 912513,
              "name": "Alcaldía ",
              "_links": {
                "self": {
                  "name": "Alcaldía ",
                  "href": "https://api.euskadi.eus/procurements/contracting-authorities/461/entities/910/orgs/912513"
                }
              }
            },
            {
              "id": 912514,
              "name": "Pleno Municipal",
              "_links": {
                "self": {
                  "name": "Pleno Municipal",
                  "href": "https://api.euskadi.eus/procurements/contracting-authorities/461/entities/910/orgs/912514"
                }
              }
            }
          ],
          "_links": {
            "self": {
              "name": "Ayuntamiento de Amoroto\t",
              "href": "https://api.euskadi.eus/procurements/contracting-authorities/461/entities/910"
            }
          }
        }
      ],
      "mainEntityOfPage": "https://www.contratacion.euskadi.eus/webkpe00-kpeperfi/es/contenidos/poder_adjudicador/poder461/es_doc/es_arch_poder461.html",
      "_links": {
        "self": {
          "name": "Ayuntamiento de Amoroto",
          "href": "https://api.euskadi.eus/procurements/contracting-authorities/461"
        }
      }
    },
    {
      "id": 465,
      "identificationNumber": "P9809502I",
      "name": "Euskaltegi Municipal de Santurtzi",
      "scope": "BIZKAIA",
      "address": "Joxemiel Barandiaran, 12. 48980 Santurtzi (Bizkaia)",
      "webPage": "http://www.santurtzieus.com",
      "publicationDate": "2019-10-07",
      "mainActivity": "Educación",
      "codNUTS": "ES213",
      "entities": [
        {
          "id": 914,
          "name": "Euskaltegi Municipal de Santurtzi",
          "orgs": [
            {
              "id": 912524,
              "name": "Consejo Rector",
              "_links": {
                "self": {
                  "name": "Consejo Rector",
                  "href": "https://api.euskadi.eus/procurements/contracting-authorities/465/entities/914/orgs/912524"
                }
              }
            },
            {
              "id": 912523,
              "name": "Presidencia ",
              "_links": {
                "self": {
                  "name": "Presidencia ",
                  "href": "https://api.euskadi.eus/procurements/contracting-authorities/465/entities/914/orgs/912523"
                }
              }
            }
          ],
          "_links": {
            "self": {
              "name": "Euskaltegi Municipal de Santurtzi",
              "href": "https://api.euskadi.eus/procurements/contracting-authorities/465/entities/914"
            }
          }
        }
      ],
      "mainEntityOfPage": "https://www.contratacion.euskadi.eus/webkpe00-kpeperfi/es/contenidos/poder_adjudicador/poder465/es_doc/es_arch_poder465.html",
      "_links": {
        "self": {
          "name": "Euskaltegi Municipal de Santurtzi",
          "href": "https://api.euskadi.eus/procurements/contracting-authorities/465"
        }
      }
    },
    {
      "id": 469,
      "identificationNumber": "P4807400I",
      "name": "Ayuntamiento de Mendexa",
      "scope": "BIZKAIA",
      "address": "Zelaia Auzoa,1. 48289 Mendexa (Bizkaia)",
      "webPage": "http://www.mendexa.net",
      "publicationDate": "2019-10-07",
      "mainActivity": "Servicios públicos generales",
      "codNUTS": "ES213",
      "entities": [
        {
          "id": 918,
          "name": "Ayuntamiento de Mendexa",
          "orgs": [
            {
              "id": 912528,
              "name": "Alcaldía ",
              "_links": {
                "self": {
                  "name": "Alcaldía ",
                  "href": "https://api.euskadi.eus/procurements/contracting-authorities/469/entities/918/orgs/912528"
                }
              }
            },
            {
              "id": 912529,
              "name": "Pleno",
              "_links": {
                "self": {
                  "name": "Pleno",
                  "href": "https://api.euskadi.eus/procurements/contracting-authorities/469/entities/918/orgs/912529"
                }
              }
            }
          ],
          "_links": {
            "self": {
              "name": "Ayuntamiento de Mendexa",
              "href": "https://api.euskadi.eus/procurements/contracting-authorities/469/entities/918"
            }
          }
        }
      ],
      "mainEntityOfPage": "https://www.contratacion.euskadi.eus/webkpe00-kpeperfi/es/contenidos/poder_adjudicador/poder469/es_doc/es_arch_poder469.html",
      "_links": {
        "self": {
          "name": "Ayuntamiento de Mendexa",
          "href": "https://api.euskadi.eus/procurements/contracting-authorities/469"
        }
      }
    },
    {
      "id": 473,
      "identificationNumber": "P9804101E",
      "name": "Instituto Municipal de Deportes de Ermua",
      "scope": "BIZKAIA",
      "address": "Diputazio, s/n. 48260 Ermua (bizkaia)",
      "webPage": "http://www.imdermua.com",
      "publicationDate": "2019-10-07",
      "mainActivity": "Ocio, cultura y religión",
      "codNUTS": "ES213",
      "entities": [
        {
          "id": 922,
          "name": "Instituto Municipal de Deportes de Ermua",
          "orgs": [
            {
              "id": 912536,
              "name": "Consejo Rector",
              "_links": {
                "self": {
                  "name": "Consejo Rector",
                  "href": "https://api.euskadi.eus/procurements/contracting-authorities/473/entities/922/orgs/912536"
                }
              }
            },
            {
              "id": 912535,
              "name": "Presidente",
              "_links": {
                "self": {
                  "name": "Presidente",
                  "href": "https://api.euskadi.eus/procurements/contracting-authorities/473/entities/922/orgs/912535"
                }
              }
            }
          ],
          "_links": {
            "self": {
              "name": "Instituto Municipal de Deportes de Ermua",
              "href": "https://api.euskadi.eus/procurements/contracting-authorities/473/entities/922"
            }
          }
        }
      ],
      "mainEntityOfPage": "https://www.contratacion.euskadi.eus/webkpe00-kpeperfi/es/contenidos/poder_adjudicador/poder473/es_doc/es_arch_poder473.html",
      "_links": {
        "self": {
          "name": "Instituto Municipal de Deportes de Ermua",
          "href": "https://api.euskadi.eus/procurements/contracting-authorities/473"
        }
      }
    },
    {
      "id": 476,
      "identificationNumber": "P4808900G",
      "name": "Ayuntamiento de Sukarrieta",
      "scope": "BIZKAIA",
      "address": "Ander Deuna Enparantza, 5. 48395 Sukarrieta (Bizkaia)",
      "webPage": "http://www.sukarrieta-pedernales.com",
      "publicationDate": "2019-10-07",
      "mainActivity": "Servicios públicos generales",
      "codNUTS": "ES213",
      "entities": [
        {
          "id": 925,
          "name": "Ayuntamiento de Sukarrieta",
          "orgs": [
            {
              "id": 912539,
              "name": "Alcaldía",
              "_links": {
                "self": {
                  "name": "Alcaldía",
                  "href": "https://api.euskadi.eus/procurements/contracting-authorities/476/entities/925/orgs/912539"
                }
              }
            }
          ],
          "_links": {
            "self": {
              "name": "Ayuntamiento de Sukarrieta",
              "href": "https://api.euskadi.eus/procurements/contracting-authorities/476/entities/925"
            }
          }
        }
      ],
      "mainEntityOfPage": "https://www.contratacion.euskadi.eus/webkpe00-kpeperfi/es/contenidos/poder_adjudicador/poder476/es_doc/es_arch_poder476.html",
      "_links": {
        "self": {
          "name": "Ayuntamiento de Sukarrieta",
          "href": "https://api.euskadi.eus/procurements/contracting-authorities/476"
        }
      }
    },
    {
      "id": 477,
      "identificationNumber": "P4800004F",
      "name": "Arratiako Udalen Mankomunitatea",
      "scope": "BIZKAIA",
      "address": "Elexalde kalea, 49. 48140 Igorre (Bizkaia)",
      "webPage": "http://www.arratia.eus",
      "publicationDate": "2019-10-07",
      "mainActivity": "Medio ambiente",
      "codNUTS": "ES213",
      "entities": [
        {
          "id": 926,
          "name": "Arratiako Udalen Mankomunitatea",
          "orgs": [
            {
              "id": 912540,
              "name": "Junta Plenaria",
              "_links": {
                "self": {
                  "name": "Junta Plenaria",
                  "href": "https://api.euskadi.eus/procurements/contracting-authorities/477/entities/926/orgs/912540"
                }
              }
            },
            {
              "id": 912542,
              "name": "Presidencia",
              "_links": {
                "self": {
                  "name": "Presidencia",
                  "href": "https://api.euskadi.eus/procurements/contracting-authorities/477/entities/926/orgs/912542"
                }
              }
            },
            {
              "id": 912541,
              "name": "Junta de Gobierno",
              "_links": {
                "self": {
                  "name": "Junta de Gobierno",
                  "href": "https://api.euskadi.eus/procurements/contracting-authorities/477/entities/926/orgs/912541"
                }
              }
            }
          ],
          "_links": {
            "self": {
              "name": "Arratiako Udalen Mankomunitatea",
              "href": "https://api.euskadi.eus/procurements/contracting-authorities/477/entities/926"
            }
          }
        }
      ],
      "mainEntityOfPage": "https://www.contratacion.euskadi.eus/webkpe00-kpeperfi/es/contenidos/poder_adjudicador/poder477/es_doc/es_arch_poder477.html",
      "_links": {
        "self": {
          "name": "Arratiako Udalen Mankomunitatea",
          "href": "https://api.euskadi.eus/procurements/contracting-authorities/477"
        }
      }
    },
    {
      "id": 479,
      "identificationNumber": "P4800021J",
      "name": "Arratiako Egoitza",
      "scope": "BIZKAIA",
      "address": "Ibarra, 17. 48141 Dima (Bizkaia) ",
      "webPage": "http://www.arratia.eus",
      "publicationDate": "2019-10-07",
      "mainActivity": "Protección social",
      "codNUTS": "ES213",
      "entities": [
        {
          "id": 927,
          "name": "Arratiako Egoitza ",
          "orgs": [
            {
              "id": 912544,
              "name": "Presidencia",
              "_links": {
                "self": {
                  "name": "Presidencia",
                  "href": "https://api.euskadi.eus/procurements/contracting-authorities/479/entities/927/orgs/912544"
                }
              }
            },
            {
              "id": 912543,
              "name": "Consejo Rector  ",
              "_links": {
                "self": {
                  "name": "Consejo Rector  ",
                  "href": "https://api.euskadi.eus/procurements/contracting-authorities/479/entities/927/orgs/912543"
                }
              }
            }
          ],
          "_links": {
            "self": {
              "name": "Arratiako Egoitza ",
              "href": "https://api.euskadi.eus/procurements/contracting-authorities/479/entities/927"
            }
          }
        }
      ],
      "mainEntityOfPage": "https://www.contratacion.euskadi.eus/webkpe00-kpeperfi/es/contenidos/poder_adjudicador/poder479/es_doc/es_arch_poder479.html",
      "_links": {
        "self": {
          "name": "Arratiako Egoitza",
          "href": "https://api.euskadi.eus/procurements/contracting-authorities/479"
        }
      }
    },
    {
      "id": 482,
      "identificationNumber": "V95638920",
      "name": "Junta de Concertación de la UE UER O78 de Gernika",
      "scope": "BIZKAIA",
      "address": "Junta de Concertación de la UE UER O78 de Gernika",
      "webPage": "http://www.contratación.euskadi.eus",
      "publicationDate": "2019-10-07",
      "mainActivity": "Vivienda y servicios comunitarios",
      "codNUTS": "ES213",
      "entities": [
        {
          "id": 930,
          "name": "Junta de Concertación de la UE UER O78 de Gernika",
          "orgs": [
            {
              "id": 912548,
              "name": "Junta de Concertación de la UE UER O78 de Gernika",
              "_links": {
                "self": {
                  "name": "Junta de Concertación de la UE UER O78 de Gernika",
                  "href": "https://api.euskadi.eus/procurements/contracting-authorities/482/entities/930/orgs/912548"
                }
              }
            }
          ],
          "_links": {
            "self": {
              "name": "Junta de Concertación de la UE UER O78 de Gernika",
              "href": "https://api.euskadi.eus/procurements/contracting-authorities/482/entities/930"
            }
          }
        }
      ],
      "mainEntityOfPage": "https://www.contratacion.euskadi.eus/webkpe00-kpeperfi/es/contenidos/poder_adjudicador/poder482/es_doc/es_arch_poder482.html",
      "_links": {
        "self": {
          "name": "Junta de Concertación de la UE UER O78 de Gernika",
          "href": "https://api.euskadi.eus/procurements/contracting-authorities/482"
        }
      }
    }
  ]
}