{
  "totalItems": 919,
  "totalPages": 92,
  "currentPage": 84,
  "itemsOfPage": 10,
  "items": [
    {
      "id": 618,
      "identificationNumber": "P0100185H",
      "name": "Junta Administrativa de Villafria",
      "scope": "ARABA/ÁLAVA",
      "address": "Barrio Villafría, s/n. 01118 Villafria. Bernedo. (Araba/Álava)",
      "webPage": "http://www.contratacion.euskadi.eus",
      "publicationDate": "2019-01-31",
      "mainActivity": "Servicios públicos generales",
      "codNUTS": "ES211",
      "entities": [
        {
          "id": 1069,
          "name": "Junta Administrativa de Villafria",
          "orgs": [
            {
              "id": 912790,
              "name": "Concejo de Villafría",
              "_links": {
                "self": {
                  "name": "Concejo de Villafría",
                  "href": "https://api.euskadi.eus/procurements/contracting-authorities/618/entities/1069/orgs/912790"
                }
              }
            }
          ],
          "_links": {
            "self": {
              "name": "Junta Administrativa de Villafria",
              "href": "https://api.euskadi.eus/procurements/contracting-authorities/618/entities/1069"
            }
          }
        }
      ],
      "mainEntityOfPage": "https://www.contratacion.euskadi.eus/webkpe00-kpeperfi/es/contenidos/poder_adjudicador/poder618/es_doc/es_arch_poder618.html",
      "_links": {
        "self": {
          "name": "Junta Administrativa de Villafria",
          "href": "https://api.euskadi.eus/procurements/contracting-authorities/618"
        }
      }
    },
    {
      "id": 613,
      "identificationNumber": "P0100088D",
      "name": "Junta Administrativa de Leciñana de la Oca",
      "scope": "ARABA/ÁLAVA",
      "address": "Mayor, 44. 01220 Leciñana de la Oca. Ribera Alta. (Araba/Álava)",
      "webPage": "http://www.contratacion.euskadi.eus",
      "publicationDate": "2019-01-28",
      "mainActivity": "Servicios públicos generales",
      "codNUTS": "ES211",
      "entities": [
        {
          "id": 1064,
          "name": "Junta Administrativa de Leciñana de la Oca",
          "orgs": [
            {
              "id": 912785,
              "name": "Concejo de Leciñana de la Oca",
              "_links": {
                "self": {
                  "name": "Concejo de Leciñana de la Oca",
                  "href": "https://api.euskadi.eus/procurements/contracting-authorities/613/entities/1064/orgs/912785"
                }
              }
            }
          ],
          "_links": {
            "self": {
              "name": "Junta Administrativa de Leciñana de la Oca",
              "href": "https://api.euskadi.eus/procurements/contracting-authorities/613/entities/1064"
            }
          }
        }
      ],
      "mainEntityOfPage": "https://www.contratacion.euskadi.eus/webkpe00-kpeperfi/es/contenidos/poder_adjudicador/poder613/es_doc/es_arch_poder613.html",
      "_links": {
        "self": {
          "name": "Junta Administrativa de Leciñana de la Oca",
          "href": "https://api.euskadi.eus/procurements/contracting-authorities/613"
        }
      }
    },
    {
      "id": 610,
      "identificationNumber": "P0100063G",
      "name": "Junta Administrativa de Sarria",
      "scope": "ARABA/ÁLAVA",
      "address": "Elizalde, 23. 01139 Sarria. Zuia (Araba/Álava)",
      "webPage": "http://www.contratacion.euskedi.eus",
      "publicationDate": "2019-01-16",
      "mainActivity": "Servicios públicos generales",
      "codNUTS": "ES211",
      "entities": [
        {
          "id": 1061,
          "name": "Junta Administrativa de Sarria",
          "orgs": [
            {
              "id": 912781,
              "name": "Concejo de Sarria ",
              "_links": {
                "self": {
                  "name": "Concejo de Sarria ",
                  "href": "https://api.euskadi.eus/procurements/contracting-authorities/610/entities/1061/orgs/912781"
                }
              }
            }
          ],
          "_links": {
            "self": {
              "name": "Junta Administrativa de Sarria",
              "href": "https://api.euskadi.eus/procurements/contracting-authorities/610/entities/1061"
            }
          }
        }
      ],
      "mainEntityOfPage": "https://www.contratacion.euskadi.eus/webkpe00-kpeperfi/es/contenidos/poder_adjudicador/poder610/es_doc/es_arch_poder610.html",
      "_links": {
        "self": {
          "name": "Junta Administrativa de Sarria",
          "href": "https://api.euskadi.eus/procurements/contracting-authorities/610"
        }
      }
    },
    {
      "id": 128,
      "identificationNumber": "A01025741",
      "name": "Centro para el ahorro y desarrollo energético y minero, S.A.",
      "scope": "CAPV",
      "address": "Alameda Urquijo 36, 1 planta. 48011 Bilbao (Bizkaia)",
      "webPage": "http://www.eve.eus",
      "publicationDate": "2019-01-11",
      "mainActivity": "Asuntos económicos y financieros",
      "codNUTS": "ES21",
      "entities": [
        {
          "id": 480,
          "name": "Centro para el ahorro y desarrollo energético y minero, S.A.",
          "orgs": [
            {
              "id": 911555,
              "name": "Administrador único",
              "_links": {
                "self": {
                  "name": "Administrador único",
                  "href": "https://api.euskadi.eus/procurements/contracting-authorities/128/entities/480/orgs/911555"
                }
              }
            }
          ],
          "_links": {
            "self": {
              "name": "Centro para el ahorro y desarrollo energético y minero, S.A.",
              "href": "https://api.euskadi.eus/procurements/contracting-authorities/128/entities/480"
            }
          }
        }
      ],
      "mainEntityOfPage": "https://www.contratacion.euskadi.eus/webkpe00-kpeperfi/es/contenidos/poder_adjudicador/poder128/es_doc/es_arch_poder128.html",
      "_links": {
        "self": {
          "name": "Centro para el ahorro y desarrollo energético y minero, S.A.",
          "href": "https://api.euskadi.eus/procurements/contracting-authorities/128"
        }
      }
    },
    {
      "id": 129,
      "identificationNumber": "A48149462",
      "name": "Sociedad de hidrocarburos de Euskadi, S.A.",
      "scope": "CAPV",
      "address": "Alameda Urquijo 36, 1 planta. 48011 Bilbao (Bizkaia)",
      "webPage": "http://www.eve.eus",
      "publicationDate": "2019-01-11",
      "mainActivity": "Asuntos económicos y financieros",
      "codNUTS": "ES21",
      "entities": [
        {
          "id": 481,
          "name": "Sociedad de hidrocarburos de Euskadi, S.A.",
          "orgs": [
            {
              "id": 911556,
              "name": "Apoderado (hasta 50.000¿)",
              "_links": {
                "self": {
                  "name": "Apoderado (hasta 50.000¿)",
                  "href": "https://api.euskadi.eus/procurements/contracting-authorities/129/entities/481/orgs/911556"
                }
              }
            },
            {
              "id": 911557,
              "name": "Presidente",
              "_links": {
                "self": {
                  "name": "Presidente",
                  "href": "https://api.euskadi.eus/procurements/contracting-authorities/129/entities/481/orgs/911557"
                }
              }
            }
          ],
          "_links": {
            "self": {
              "name": "Sociedad de hidrocarburos de Euskadi, S.A.",
              "href": "https://api.euskadi.eus/procurements/contracting-authorities/129/entities/481"
            }
          }
        }
      ],
      "mainEntityOfPage": "https://www.contratacion.euskadi.eus/webkpe00-kpeperfi/es/contenidos/poder_adjudicador/poder129/es_doc/es_arch_poder129.html",
      "_links": {
        "self": {
          "name": "Sociedad de hidrocarburos de Euskadi, S.A.",
          "href": "https://api.euskadi.eus/procurements/contracting-authorities/129"
        }
      }
    },
    {
      "id": 608,
      "identificationNumber": "P0100045D",
      "name": "Junta Administrativa de Apellaniz",
      "scope": "ARABA/ÁLAVA",
      "address": "Barrio Bengara 6 A. 01129 Apellaniz. Arraia-Maeztu. (Araba/Álava)",
      "webPage": "http://www.contratacion.euskadi.eus",
      "publicationDate": "2019-01-09",
      "mainActivity": "Servicios públicos generales",
      "codNUTS": "ES211",
      "entities": [
        {
          "id": 1059,
          "name": "Junta Administrativa de Apellaniz",
          "orgs": [
            {
              "id": 912779,
              "name": "Concejo de Apellaniz",
              "_links": {
                "self": {
                  "name": "Concejo de Apellaniz",
                  "href": "https://api.euskadi.eus/procurements/contracting-authorities/608/entities/1059/orgs/912779"
                }
              }
            }
          ],
          "_links": {
            "self": {
              "name": "Junta Administrativa de Apellaniz",
              "href": "https://api.euskadi.eus/procurements/contracting-authorities/608/entities/1059"
            }
          }
        }
      ],
      "mainEntityOfPage": "https://www.contratacion.euskadi.eus/webkpe00-kpeperfi/es/contenidos/poder_adjudicador/poder608/es_doc/es_arch_poder608.html",
      "_links": {
        "self": {
          "name": "Junta Administrativa de Apellaniz",
          "href": "https://api.euskadi.eus/procurements/contracting-authorities/608"
        }
      }
    },
    {
      "id": 607,
      "identificationNumber": "P0100217I",
      "name": "Junta Administrativa de Landa",
      "scope": "ARABA/ÁLAVA",
      "address": "Carretera Bergara, 4. Landa. 01520 Arrazua-Ubarrundia (Araba/Álava)",
      "webPage": "http://www.contratacion.euskadi.eus",
      "publicationDate": "2019-01-08",
      "mainActivity": "Servicios públicos generales",
      "codNUTS": "ES211",
      "entities": [
        {
          "id": 1058,
          "name": "Junta Administrativa de Landa",
          "orgs": [
            {
              "id": 912778,
              "name": "Concejo de Landa",
              "_links": {
                "self": {
                  "name": "Concejo de Landa",
                  "href": "https://api.euskadi.eus/procurements/contracting-authorities/607/entities/1058/orgs/912778"
                }
              }
            }
          ],
          "_links": {
            "self": {
              "name": "Junta Administrativa de Landa",
              "href": "https://api.euskadi.eus/procurements/contracting-authorities/607/entities/1058"
            }
          }
        }
      ],
      "mainEntityOfPage": "https://www.contratacion.euskadi.eus/webkpe00-kpeperfi/es/contenidos/poder_adjudicador/poder607/es_doc/es_arch_poder607.html",
      "_links": {
        "self": {
          "name": "Junta Administrativa de Landa",
          "href": "https://api.euskadi.eus/procurements/contracting-authorities/607"
        }
      }
    },
    {
      "id": 609,
      "identificationNumber": "P0100165J",
      "name": "Junta Administrativa de Llanteno",
      "scope": "ARABA/ÁLAVA",
      "address": "Barrio Pizparrutxi 35. 01478 Llanteno-Ayala (Araba/Álava)",
      "webPage": "http://www.contratacion.euskadi.eus",
      "publicationDate": "2019-01-08",
      "mainActivity": "Servicios públicos generales",
      "codNUTS": "ES211",
      "entities": [
        {
          "id": 1060,
          "name": "Junta Administrativa de Llanteno",
          "orgs": [
            {
              "id": 912780,
              "name": "Regidora-Presidenta",
              "_links": {
                "self": {
                  "name": "Regidora-Presidenta",
                  "href": "https://api.euskadi.eus/procurements/contracting-authorities/609/entities/1060/orgs/912780"
                }
              }
            }
          ],
          "_links": {
            "self": {
              "name": "Junta Administrativa de Llanteno",
              "href": "https://api.euskadi.eus/procurements/contracting-authorities/609/entities/1060"
            }
          }
        }
      ],
      "mainEntityOfPage": "https://www.contratacion.euskadi.eus/webkpe00-kpeperfi/es/contenidos/poder_adjudicador/poder609/es_doc/es_arch_poder609.html",
      "_links": {
        "self": {
          "name": "Junta Administrativa de Llanteno",
          "href": "https://api.euskadi.eus/procurements/contracting-authorities/609"
        }
      }
    },
    {
      "id": 282,
      "identificationNumber": "A01046937",
      "name": "Centro de Empresas e Innovación de Álava, S.A.",
      "scope": "ARABA/ÁLAVA",
      "address": "Parque Tecnológico de Álava. C/ Albert Einstein, 15 Edificio BIC. 01510 Miñano (Älava/Araba)",
      "webPage": "http://www.bicaraba.eus",
      "publicationDate": "2018-12-19",
      "mainActivity": "Otra actividad",
      "alternativeActivity": "Promoción empresarial",
      "codNUTS": "ES211",
      "entities": [
        {
          "id": 730,
          "name": "BIC Araba",
          "orgs": [
            {
              "id": 912772,
              "name": "Presidente",
              "_links": {
                "self": {
                  "name": "Presidente",
                  "href": "https://api.euskadi.eus/procurements/contracting-authorities/282/entities/730/orgs/912772"
                }
              }
            },
            {
              "id": 912167,
              "name": "Consejo de Administración",
              "_links": {
                "self": {
                  "name": "Consejo de Administración",
                  "href": "https://api.euskadi.eus/procurements/contracting-authorities/282/entities/730/orgs/912167"
                }
              }
            },
            {
              "id": 912166,
              "name": "Director",
              "_links": {
                "self": {
                  "name": "Director",
                  "href": "https://api.euskadi.eus/procurements/contracting-authorities/282/entities/730/orgs/912166"
                }
              }
            },
            {
              "id": 912771,
              "name": "Firma mancomunada de Consejeros ",
              "_links": {
                "self": {
                  "name": "Firma mancomunada de Consejeros ",
                  "href": "https://api.euskadi.eus/procurements/contracting-authorities/282/entities/730/orgs/912771"
                }
              }
            }
          ],
          "_links": {
            "self": {
              "name": "BIC Araba",
              "href": "https://api.euskadi.eus/procurements/contracting-authorities/282/entities/730"
            }
          }
        }
      ],
      "mainEntityOfPage": "https://www.contratacion.euskadi.eus/webkpe00-kpeperfi/es/contenidos/poder_adjudicador/poder282/es_doc/es_arch_poder282.html",
      "_links": {
        "self": {
          "name": "Centro de Empresas e Innovación de Álava, S.A.",
          "href": "https://api.euskadi.eus/procurements/contracting-authorities/282"
        }
      }
    },
    {
      "id": 547,
      "identificationNumber": "P0100159C",
      "name": "Junta Administrativa de Olabezar",
      "scope": "ARABA/ÁLAVA",
      "address": "Olabezar 29. 01479 Olabezar. Ayala-Aiala (Araba/Álava)",
      "webPage": "http://www.contratacion.euskadi.eus",
      "publicationDate": "2018-11-27",
      "mainActivity": "Servicios públicos generales",
      "codNUTS": "ES211",
      "entities": [
        {
          "id": 997,
          "name": "Junta Administrativa de Olabezar",
          "orgs": [
            {
              "id": 912655,
              "name": "Junta Administrativa",
              "_links": {
                "self": {
                  "name": "Junta Administrativa",
                  "href": "https://api.euskadi.eus/procurements/contracting-authorities/547/entities/997/orgs/912655"
                }
              }
            }
          ],
          "_links": {
            "self": {
              "name": "Junta Administrativa de Olabezar",
              "href": "https://api.euskadi.eus/procurements/contracting-authorities/547/entities/997"
            }
          }
        }
      ],
      "mainEntityOfPage": "https://www.contratacion.euskadi.eus/webkpe00-kpeperfi/es/contenidos/poder_adjudicador/poder547/es_doc/es_arch_poder547.html",
      "_links": {
        "self": {
          "name": "Junta Administrativa de Olabezar",
          "href": "https://api.euskadi.eus/procurements/contracting-authorities/547"
        }
      }
    }
  ]
}