{
  "totalItems": 919,
  "totalPages": 92,
  "currentPage": 16,
  "itemsOfPage": 10,
  "items": [
    {
      "id": 24629,
      "identificationNumber": "B95296513",
      "name": "Bilbao Exhibition Centre Solar, S.L., M.P.",
      "scope": "BIZKAIA",
      "address": "Ronda de Azkue, nº 1, 48902 - Barakaldo.",
      "webPage": "https://bilbaoexhibitioncentre.com/",
      "publicationDate": "2023-05-24",
      "mainActivity": "Servicios públicos generales",
      "codNUTS": "ES213",
      "entities": [
        {
          "id": 24640,
          "name": "Bilbao Exhibition Centre Solar, S.L., M.P. ",
          "orgs": [
            {
              "id": 24631,
              "name": "Consejo de Administración",
              "_links": {
                "self": {
                  "name": "Consejo de Administración",
                  "href": "https://api.euskadi.eus/procurements/contracting-authorities/24629/entities/24640/orgs/24631"
                }
              }
            }
          ],
          "_links": {
            "self": {
              "name": "Bilbao Exhibition Centre Solar, S.L., M.P. ",
              "href": "https://api.euskadi.eus/procurements/contracting-authorities/24629/entities/24640"
            }
          }
        }
      ],
      "mainEntityOfPage": "https://www.contratacion.euskadi.eus/webkpe00-kpeperfi/es/contenidos/poder_adjudicador/poder24629/es_doc/index.html",
      "_links": {
        "self": {
          "name": "Bilbao Exhibition Centre Solar, S.L., M.P.",
          "href": "https://api.euskadi.eus/procurements/contracting-authorities/24629"
        },
        "contractingAuthorities": [
          {
            "name": "Bilbao Exhibition Centre, S.A.",
            "href": "https://api.euskadi.eus/procurements/contracting-authorities/24807"
          }
        ]
      }
    },
    {
      "id": 26041,
      "identificationNumber": "G44974996",
      "name": "Robotekin – Asociación Vasca de Robótica y Automatización",
      "scope": "ARABA/ÁLAVA",
      "address": "Hermanos Elhuyar 4, Parque Tecnológico de Álava, Edificio Ada Lovelace (oficina 5) CP 01510 Vitoria-Gasteiz",
      "webPage": "https://robotekin.com/",
      "publicationDate": "2023-05-23",
      "mainActivity": "Otra actividad",
      "alternativeActivity": "Robótica y automatización",
      "codNUTS": "ES211",
      "entities": [
        {
          "id": 26042,
          "name": "Robotekin-Asociación Vasca de Robótica y Automatización",
          "orgs": [
            {
              "id": 26043,
              "name": "Junta Directiva ",
              "_links": {
                "self": {
                  "name": "Junta Directiva ",
                  "href": "https://api.euskadi.eus/procurements/contracting-authorities/26041/entities/26042/orgs/26043"
                }
              }
            }
          ],
          "_links": {
            "self": {
              "name": "Robotekin-Asociación Vasca de Robótica y Automatización",
              "href": "https://api.euskadi.eus/procurements/contracting-authorities/26041/entities/26042"
            }
          }
        }
      ],
      "mainEntityOfPage": "https://www.contratacion.euskadi.eus/webkpe00-kpeperfi/es/contenidos/poder_adjudicador/poder26041/es_doc/index.html",
      "_links": {
        "self": {
          "name": "Robotekin – Asociación Vasca de Robótica y Automatización",
          "href": "https://api.euskadi.eus/procurements/contracting-authorities/26041"
        }
      }
    },
    {
      "id": 26037,
      "identificationNumber": "P0100020G",
      "name": "Junta Administrativa de Ullibarri-Jauregi",
      "scope": "ARABA/ÁLAVA",
      "address": "Mendia 2, 01207 Ullibarri-Jauregi (Araba)",
      "webPage": "https://donemiliaga.eus/san-millan/pueblos/ullibarri-jauregi/",
      "publicationDate": "2023-05-22",
      "mainActivity": "Servicios públicos generales",
      "codNUTS": "ES211",
      "entities": [
        {
          "id": 26038,
          "name": "Junta Administrativa de Ullibarri-Jauregi",
          "orgs": [
            {
              "id": 26039,
              "name": "Concejo",
              "_links": {
                "self": {
                  "name": "Concejo",
                  "href": "https://api.euskadi.eus/procurements/contracting-authorities/26037/entities/26038/orgs/26039"
                }
              }
            }
          ],
          "_links": {
            "self": {
              "name": "Junta Administrativa de Ullibarri-Jauregi",
              "href": "https://api.euskadi.eus/procurements/contracting-authorities/26037/entities/26038"
            }
          }
        }
      ],
      "mainEntityOfPage": "https://www.contratacion.euskadi.eus/webkpe00-kpeperfi/es/contenidos/poder_adjudicador/poder26037/es_doc/index.html",
      "_links": {
        "self": {
          "name": "Junta Administrativa de Ullibarri-Jauregi",
          "href": "https://api.euskadi.eus/procurements/contracting-authorities/26037"
        }
      }
    },
    {
      "id": 655,
      "identificationNumber": "P4801000C",
      "name": "Ayuntamiento de Arrankudiaga-Zollo",
      "scope": "BIZKAIA",
      "address": "Arene auzoa, 1 - 48498 Arrankudiaga-Zollo (Bizkaia)",
      "webPage": "https://www.arrankudiaga-zollo.eus/",
      "publicationDate": "2023-05-16",
      "mainActivity": "Servicios públicos generales",
      "codNUTS": "ES213",
      "entities": [
        {
          "id": 1105,
          "name": "Ayuntamiento de Arrankudiaga-Zollo",
          "orgs": [
            {
              "id": 912842,
              "name": "Pleno de la Corporación ",
              "_links": {
                "self": {
                  "name": "Pleno de la Corporación ",
                  "href": "https://api.euskadi.eus/procurements/contracting-authorities/655/entities/1105/orgs/912842"
                }
              }
            },
            {
              "id": 912841,
              "name": "Alcaldía",
              "_links": {
                "self": {
                  "name": "Alcaldía",
                  "href": "https://api.euskadi.eus/procurements/contracting-authorities/655/entities/1105/orgs/912841"
                }
              }
            }
          ],
          "_links": {
            "self": {
              "name": "Ayuntamiento de Arrankudiaga-Zollo",
              "href": "https://api.euskadi.eus/procurements/contracting-authorities/655/entities/1105"
            }
          }
        }
      ],
      "mainEntityOfPage": "https://www.contratacion.euskadi.eus/webkpe00-kpeperfi/es/contenidos/poder_adjudicador/poder655/es_doc/index.html",
      "_links": {
        "self": {
          "name": "Ayuntamiento de Arrankudiaga-Zollo",
          "href": "https://api.euskadi.eus/procurements/contracting-authorities/655"
        }
      }
    },
    {
      "id": 449,
      "identificationNumber": "A20188884",
      "name": "San Sebastián Turismo-Donostia Turismoa S.A.",
      "scope": "GIPUZKOA",
      "address": "Boulevard, 8. 20003 Donostia/San Sebastián (Gipuzkoa)",
      "webPage": "http://www.sansebastianturismo.com",
      "publicationDate": "2023-05-02",
      "mainActivity": "Ocio, cultura y religión",
      "codNUTS": "ES212",
      "entities": [
        {
          "id": 899,
          "name": "San Sebastián Turismo-Donostia Turismoa S.A.",
          "orgs": [
            {
              "id": 912522,
              "name": "Director-Gerente",
              "_links": {
                "self": {
                  "name": "Director-Gerente",
                  "href": "https://api.euskadi.eus/procurements/contracting-authorities/449/entities/899/orgs/912522"
                }
              }
            },
            {
              "id": 912496,
              "name": "Consejo de Administración",
              "_links": {
                "self": {
                  "name": "Consejo de Administración",
                  "href": "https://api.euskadi.eus/procurements/contracting-authorities/449/entities/899/orgs/912496"
                }
              }
            }
          ],
          "_links": {
            "self": {
              "name": "San Sebastián Turismo-Donostia Turismoa S.A.",
              "href": "https://api.euskadi.eus/procurements/contracting-authorities/449/entities/899"
            }
          }
        }
      ],
      "mainEntityOfPage": "https://www.contratacion.euskadi.eus/webkpe00-kpeperfi/es/contenidos/poder_adjudicador/poder449/es_doc/index.html",
      "_links": {
        "self": {
          "name": "San Sebastián Turismo-Donostia Turismoa S.A.",
          "href": "https://api.euskadi.eus/procurements/contracting-authorities/449"
        },
        "contractingAuthorities": [
          {
            "name": "Ayuntamiento de Donostia/San Sebastián",
            "href": "https://api.euskadi.eus/procurements/contracting-authorities/24813"
          }
        ]
      }
    },
    {
      "id": 25488,
      "identificationNumber": "A48119432",
      "name": "BILBAOTIK, S.A.",
      "scope": "BIZKAIA",
      "address": "Paseo Campo Volantín, 1 bis (Bilbao)",
      "webPage": "https://www.bilbao.eus/cs/Satellite/transparencia/es/ambitos/entidades-municipales/bilbaotik",
      "publicationDate": "2023-04-27",
      "mainActivity": "Servicios públicos generales",
      "codNUTS": "ES213",
      "entities": [
        {
          "id": 25489,
          "name": "BILBAOTIK, S.A.",
          "orgs": [
            {
              "id": 25490,
              "name": "Dirección general, Presidencia",
              "_links": {
                "self": {
                  "name": "Dirección general, Presidencia",
                  "href": "https://api.euskadi.eus/procurements/contracting-authorities/25488/entities/25489/orgs/25490"
                }
              }
            }
          ],
          "_links": {
            "self": {
              "name": "BILBAOTIK, S.A.",
              "href": "https://api.euskadi.eus/procurements/contracting-authorities/25488/entities/25489"
            }
          }
        }
      ],
      "mainEntityOfPage": "https://www.contratacion.euskadi.eus/webkpe00-kpeperfi/es/contenidos/poder_adjudicador/poder25488/es_doc/index.html",
      "_links": {
        "self": {
          "name": "BILBAOTIK, S.A.",
          "href": "https://api.euskadi.eus/procurements/contracting-authorities/25488"
        },
        "contractingAuthorities": [
          {
            "name": "Ayuntamiento de Bilbao",
            "href": "https://api.euskadi.eus/procurements/contracting-authorities/25824"
          }
        ]
      }
    },
    {
      "id": 407,
      "identificationNumber": "G95756334",
      "name": "Asociación Instituto de Investigación Sanitaria Biobizkaia",
      "scope": "BIZKAIA",
      "address": "Plaza Cruces, s/n. 48903 Barakaldo (Bizkaia)",
      "webPage": "https://www.biocrucesbizkaia.org",
      "publicationDate": "2023-04-25",
      "mainActivity": "Otra actividad",
      "alternativeActivity": "Investigación",
      "codNUTS": "ES213",
      "entities": [
        {
          "id": 858,
          "name": "Asociación Instituto de Investigación Sanitaria Biobizkaia ",
          "orgs": [
            {
              "id": 912419,
              "name": "Director",
              "_links": {
                "self": {
                  "name": "Director",
                  "href": "https://api.euskadi.eus/procurements/contracting-authorities/407/entities/858/orgs/912419"
                }
              }
            }
          ],
          "_links": {
            "self": {
              "name": "Asociación Instituto de Investigación Sanitaria Biobizkaia ",
              "href": "https://api.euskadi.eus/procurements/contracting-authorities/407/entities/858"
            }
          }
        }
      ],
      "mainEntityOfPage": "https://www.contratacion.euskadi.eus/webkpe00-kpeperfi/es/contenidos/poder_adjudicador/poder407/es_doc/index.html",
      "_links": {
        "self": {
          "name": "Asociación Instituto de Investigación Sanitaria Biobizkaia",
          "href": "https://api.euskadi.eus/procurements/contracting-authorities/407"
        }
      }
    },
    {
      "id": 25990,
      "identificationNumber": "H95736278",
      "name": "Comunidad Txotena 12-14-16",
      "scope": "BIZKAIA",
      "address": "Txotena 12-14-16 - 48004 Bilbao (Bizkaia)",
      "webPage": "https://www.bilbao.eus/vvmm-sede/",
      "publicationDate": "2023-04-25",
      "mainActivity": "Vivienda y servicios comunitarios",
      "codNUTS": "ES213",
      "entities": [
        {
          "id": 25991,
          "name": "Comunidad Txotena 12-14-16",
          "orgs": [
            {
              "id": 25992,
              "name": "Junta de Comunidad ",
              "_links": {
                "self": {
                  "name": "Junta de Comunidad ",
                  "href": "https://api.euskadi.eus/procurements/contracting-authorities/25990/entities/25991/orgs/25992"
                }
              }
            }
          ],
          "_links": {
            "self": {
              "name": "Comunidad Txotena 12-14-16",
              "href": "https://api.euskadi.eus/procurements/contracting-authorities/25990/entities/25991"
            }
          }
        }
      ],
      "mainEntityOfPage": "https://www.contratacion.euskadi.eus/webkpe00-kpeperfi/es/contenidos/poder_adjudicador/poder25990/es_doc/index.html",
      "_links": {
        "self": {
          "name": "Comunidad Txotena 12-14-16",
          "href": "https://api.euskadi.eus/procurements/contracting-authorities/25990"
        }
      }
    },
    {
      "id": 25986,
      "identificationNumber": "H95410056",
      "name": "Comunidad Torreurizar 1-25",
      "scope": "BIZKAIA",
      "address": "Torreurizar 1-25 - 48012 Bilbao - Bizkaia",
      "webPage": "https://www.bilbao.eus/vvmm-sede/",
      "publicationDate": "2023-04-24",
      "mainActivity": "Vivienda y servicios comunitarios",
      "codNUTS": "ES213",
      "entities": [
        {
          "id": 25987,
          "name": "Comunidad Torreurizar 1-25",
          "orgs": [
            {
              "id": 25988,
              "name": "Junta de Comunidad",
              "_links": {
                "self": {
                  "name": "Junta de Comunidad",
                  "href": "https://api.euskadi.eus/procurements/contracting-authorities/25986/entities/25987/orgs/25988"
                }
              }
            }
          ],
          "_links": {
            "self": {
              "name": "Comunidad Torreurizar 1-25",
              "href": "https://api.euskadi.eus/procurements/contracting-authorities/25986/entities/25987"
            }
          }
        }
      ],
      "mainEntityOfPage": "https://www.contratacion.euskadi.eus/webkpe00-kpeperfi/es/contenidos/poder_adjudicador/poder25986/es_doc/index.html",
      "_links": {
        "self": {
          "name": "Comunidad Torreurizar 1-25",
          "href": "https://api.euskadi.eus/procurements/contracting-authorities/25986"
        }
      }
    },
    {
      "id": 139,
      "identificationNumber": "P0106200I",
      "name": "Ayuntamiento de Urkabustaiz",
      "scope": "ARABA/ÁLAVA",
      "address": "Godamiturri Nº 7-1ª Planta - 01440 Izarra - Araba",
      "webPage": "http://www.urkabustaiz.eus",
      "publicationDate": "2023-04-20",
      "mainActivity": "Servicios públicos generales",
      "codNUTS": "ES211",
      "entities": [
        {
          "id": 505,
          "name": "Ayuntamiento de Urkabustaiz",
          "orgs": [
            {
              "id": 911590,
              "name": "Alcalde",
              "_links": {
                "self": {
                  "name": "Alcalde",
                  "href": "https://api.euskadi.eus/procurements/contracting-authorities/139/entities/505/orgs/911590"
                }
              }
            },
            {
              "id": 913566,
              "name": "Junta de Gobierno Local",
              "_links": {
                "self": {
                  "name": "Junta de Gobierno Local",
                  "href": "https://api.euskadi.eus/procurements/contracting-authorities/139/entities/505/orgs/913566"
                }
              }
            },
            {
              "id": 911591,
              "name": "Pleno",
              "_links": {
                "self": {
                  "name": "Pleno",
                  "href": "https://api.euskadi.eus/procurements/contracting-authorities/139/entities/505/orgs/911591"
                }
              }
            }
          ],
          "_links": {
            "self": {
              "name": "Ayuntamiento de Urkabustaiz",
              "href": "https://api.euskadi.eus/procurements/contracting-authorities/139/entities/505"
            }
          }
        }
      ],
      "mainEntityOfPage": "https://www.contratacion.euskadi.eus/webkpe00-kpeperfi/es/contenidos/poder_adjudicador/poder139/es_doc/index.html",
      "_links": {
        "self": {
          "name": "Ayuntamiento de Urkabustaiz",
          "href": "https://api.euskadi.eus/procurements/contracting-authorities/139"
        }
      }
    }
  ]
}