{
  "totalItems": 919,
  "totalPages": 92,
  "currentPage": 25,
  "itemsOfPage": 10,
  "items": [
    {
      "id": 25135,
      "identificationNumber": "P0100016E",
      "name": "Junta Administrativa de Munain",
      "scope": "ARABA/ÁLAVA",
      "address": "Zadorra, s/n, Munain",
      "webPage": "https://donemiliaga.eus",
      "publicationDate": "2022-02-14",
      "mainActivity": "Servicios públicos generales",
      "codNUTS": "ES211",
      "entities": [
        {
          "id": 25136,
          "name": "Junta Administrativa de Munain",
          "orgs": [
            {
              "id": 25137,
              "name": "Junta Administrativa de Munain ",
              "_links": {
                "self": {
                  "name": "Junta Administrativa de Munain ",
                  "href": "https://api.euskadi.eus/procurements/contracting-authorities/25135/entities/25136/orgs/25137"
                }
              }
            }
          ],
          "_links": {
            "self": {
              "name": "Junta Administrativa de Munain",
              "href": "https://api.euskadi.eus/procurements/contracting-authorities/25135/entities/25136"
            }
          }
        }
      ],
      "mainEntityOfPage": "https://www.contratacion.euskadi.eus/webkpe00-kpeperfi/es/contenidos/poder_adjudicador/poder25135/es_doc/index.html",
      "_links": {
        "self": {
          "name": "Junta Administrativa de Munain",
          "href": "https://api.euskadi.eus/procurements/contracting-authorities/25135"
        }
      }
    },
    {
      "id": 25129,
      "identificationNumber": "B20003398",
      "name": "Sociedad Balneario La Perla del Océano, S.L.",
      "scope": "GIPUZKOA",
      "address": "San Roque 120, Edificio Etxe Zuri",
      "webPage": "https://la-perla.net/",
      "publicationDate": "2022-02-11",
      "mainActivity": "Ocio, cultura y religión",
      "codNUTS": "ES212",
      "entities": [
        {
          "id": 25130,
          "name": "Sociedad Balneario La Perla del Océano, S.L.",
          "orgs": [
            {
              "id": 25131,
              "name": "Sociedad Balneario La Perla del Océano, S.L.",
              "_links": {
                "self": {
                  "name": "Sociedad Balneario La Perla del Océano, S.L.",
                  "href": "https://api.euskadi.eus/procurements/contracting-authorities/25129/entities/25130/orgs/25131"
                }
              }
            }
          ],
          "_links": {
            "self": {
              "name": "Sociedad Balneario La Perla del Océano, S.L.",
              "href": "https://api.euskadi.eus/procurements/contracting-authorities/25129/entities/25130"
            }
          }
        }
      ],
      "mainEntityOfPage": "https://www.contratacion.euskadi.eus/webkpe00-kpeperfi/es/contenidos/poder_adjudicador/poder25129/es_doc/index.html",
      "_links": {
        "self": {
          "name": "Sociedad Balneario La Perla del Océano, S.L.",
          "href": "https://api.euskadi.eus/procurements/contracting-authorities/25129"
        }
      }
    },
    {
      "id": 24987,
      "identificationNumber": "P2000013I",
      "name": "Mancomunidad Urola Garaia",
      "scope": "GIPUZKOA",
      "address": "Patrizio Etxeberria, 3, entreplanta",
      "webPage": "https://www.urolagaraia.eus",
      "publicationDate": "2022-02-10",
      "mainActivity": "Servicios públicos generales",
      "codNUTS": "ES212",
      "entities": [
        {
          "id": 24994,
          "name": "Mancomunidad Urola Garaia",
          "orgs": [
            {
              "id": 24995,
              "name": "Presidente",
              "_links": {
                "self": {
                  "name": "Presidente",
                  "href": "https://api.euskadi.eus/procurements/contracting-authorities/24987/entities/24994/orgs/24995"
                }
              }
            }
          ],
          "_links": {
            "self": {
              "name": "Mancomunidad Urola Garaia",
              "href": "https://api.euskadi.eus/procurements/contracting-authorities/24987/entities/24994"
            }
          }
        }
      ],
      "mainEntityOfPage": "https://www.contratacion.euskadi.eus/webkpe00-kpeperfi/es/contenidos/poder_adjudicador/poder24987/es_doc/index.html",
      "_links": {
        "self": {
          "name": "Mancomunidad Urola Garaia",
          "href": "https://api.euskadi.eus/procurements/contracting-authorities/24987"
        }
      }
    },
    {
      "id": 24477,
      "identificationNumber": "V01416221",
      "name": "Junta de Concertación del Sector 17 ampliación San Prudencio Sur Vitoria-Gasteiz",
      "scope": "ARABA/ÁLAVA",
      "address": "Ramón y Cajal, 3 bajo",
      "webPage": "https://www.vitoria-gasteiz.org/docs/wb021/contenidosEstaticos/adjuntos/es/50/45/55045.pdf",
      "publicationDate": "2022-02-04",
      "mainActivity": "Servicios públicos generales",
      "codNUTS": "ES211",
      "entities": [
        {
          "id": 24478,
          "name": "Junta de Concertación del Sector 17 ampliación San Prudencio Sur Vitoria-Gasteiz",
          "orgs": [
            {
              "id": 24479,
              "name": "Junta de Concertación del Sector 17 ampliación San Prudencio Sur Vitoria-Gasteiz",
              "_links": {
                "self": {
                  "name": "Junta de Concertación del Sector 17 ampliación San Prudencio Sur Vitoria-Gasteiz",
                  "href": "https://api.euskadi.eus/procurements/contracting-authorities/24477/entities/24478/orgs/24479"
                }
              }
            }
          ],
          "_links": {
            "self": {
              "name": "Junta de Concertación del Sector 17 ampliación San Prudencio Sur Vitoria-Gasteiz",
              "href": "https://api.euskadi.eus/procurements/contracting-authorities/24477/entities/24478"
            }
          }
        }
      ],
      "mainEntityOfPage": "https://www.contratacion.euskadi.eus/webkpe00-kpeperfi/es/contenidos/poder_adjudicador/poder24477/es_doc/index.html",
      "_links": {
        "self": {
          "name": "Junta de Concertación del Sector 17 ampliación San Prudencio Sur Vitoria-Gasteiz",
          "href": "https://api.euskadi.eus/procurements/contracting-authorities/24477"
        }
      }
    },
    {
      "id": 24643,
      "identificationNumber": "V20986071",
      "name": "Junta de Concertación Área 16 Altzate",
      "scope": "GIPUZKOA",
      "address": "Portuetxe, nº 59 – bajo A ",
      "webPage": "https://www.urumeaberri.com/eu",
      "publicationDate": "2022-02-04",
      "mainActivity": "Servicios públicos generales",
      "codNUTS": "ES212",
      "entities": [
        {
          "id": 24644,
          "name": "Junta de Concertación Área 16 Altzate",
          "orgs": [
            {
              "id": 24645,
              "name": "Asamblea  General",
              "_links": {
                "self": {
                  "name": "Asamblea  General",
                  "href": "https://api.euskadi.eus/procurements/contracting-authorities/24643/entities/24644/orgs/24645"
                }
              }
            }
          ],
          "_links": {
            "self": {
              "name": "Junta de Concertación Área 16 Altzate",
              "href": "https://api.euskadi.eus/procurements/contracting-authorities/24643/entities/24644"
            }
          }
        }
      ],
      "mainEntityOfPage": "https://www.contratacion.euskadi.eus/webkpe00-kpeperfi/es/contenidos/poder_adjudicador/poder24643/es_doc/index.html",
      "_links": {
        "self": {
          "name": "Junta de Concertación Área 16 Altzate",
          "href": "https://api.euskadi.eus/procurements/contracting-authorities/24643"
        }
      }
    },
    {
      "id": 24634,
      "identificationNumber": "V20954640",
      "name": "Junta de Concertación de la Unidad de Ejecución 2 del Área RE.7 Gorostidi-Voith de Tolosa",
      "scope": "GIPUZKOA",
      "address": "Plaza Zaharra 6A",
      "webPage": "https://egoitza.gipuzkoa.eus/gao-bog/castell/bog/2008/02/08/c0801362.htm",
      "publicationDate": "2022-02-03",
      "mainActivity": "Servicios públicos generales",
      "codNUTS": "ES212",
      "entities": [
        {
          "id": 24635,
          "name": "Junta de Concertación de la Unidad de Ejecución 2 del Área RE.7 Gorostidi-Voith de Tolosa",
          "orgs": [
            {
              "id": 24636,
              "name": "Asamblea",
              "_links": {
                "self": {
                  "name": "Asamblea",
                  "href": "https://api.euskadi.eus/procurements/contracting-authorities/24634/entities/24635/orgs/24636"
                }
              }
            }
          ],
          "_links": {
            "self": {
              "name": "Junta de Concertación de la Unidad de Ejecución 2 del Área RE.7 Gorostidi-Voith de Tolosa",
              "href": "https://api.euskadi.eus/procurements/contracting-authorities/24634/entities/24635"
            }
          }
        }
      ],
      "mainEntityOfPage": "https://www.contratacion.euskadi.eus/webkpe00-kpeperfi/es/contenidos/poder_adjudicador/poder24634/es_doc/index.html",
      "_links": {
        "self": {
          "name": "Junta de Concertación de la Unidad de Ejecución 2 del Área RE.7 Gorostidi-Voith de Tolosa",
          "href": "https://api.euskadi.eus/procurements/contracting-authorities/24634"
        }
      }
    },
    {
      "id": 115,
      "identificationNumber": "G20662292",
      "name": "Fundación Donostia International Physics Center",
      "scope": "GIPUZKOA",
      "address": "Paseo Manuel de Lardizabal, 4. 20018 Donostia-San Sebastián (Gipuzkoa)",
      "webPage": "http://dipc.ehu.eus",
      "publicationDate": "2022-01-18",
      "mainActivity": "Otra actividad",
      "alternativeActivity": "Investigación",
      "codNUTS": "ES212",
      "entities": [
        {
          "id": 465,
          "name": "Fundación Donostia International Physics Center",
          "orgs": [
            {
              "id": 911520,
              "name": "Director",
              "_links": {
                "self": {
                  "name": "Director",
                  "href": "https://api.euskadi.eus/procurements/contracting-authorities/115/entities/465/orgs/911520"
                }
              }
            }
          ],
          "_links": {
            "self": {
              "name": "Fundación Donostia International Physics Center",
              "href": "https://api.euskadi.eus/procurements/contracting-authorities/115/entities/465"
            }
          }
        }
      ],
      "mainEntityOfPage": "https://www.contratacion.euskadi.eus/webkpe00-kpeperfi/es/contenidos/poder_adjudicador/poder115/es_doc/index.html",
      "_links": {
        "self": {
          "name": "Fundación Donostia International Physics Center",
          "href": "https://api.euskadi.eus/procurements/contracting-authorities/115"
        }
      }
    },
    {
      "id": 119,
      "identificationNumber": "G20588588",
      "name": "Fundación CIDETEC",
      "scope": "GIPUZKOA",
      "address": "Paseo Miramón, 196. 20014  Donostia-San Sebastián (Gipuzkoa)",
      "webPage": "http://www.cidetec.es",
      "publicationDate": "2022-01-13",
      "mainActivity": "Otra actividad",
      "alternativeActivity": "Investigación",
      "codNUTS": "ES212",
      "entities": [
        {
          "id": 469,
          "name": "Fundación CIDETEC  ",
          "orgs": [
            {
              "id": 911521,
              "name": "Patronato de la Fundación",
              "_links": {
                "self": {
                  "name": "Patronato de la Fundación",
                  "href": "https://api.euskadi.eus/procurements/contracting-authorities/119/entities/469/orgs/911521"
                }
              }
            },
            {
              "id": 911552,
              "name": "Director General de FUNDACIÓN CIDETEC",
              "_links": {
                "self": {
                  "name": "Director General de FUNDACIÓN CIDETEC",
                  "href": "https://api.euskadi.eus/procurements/contracting-authorities/119/entities/469/orgs/911552"
                }
              }
            }
          ],
          "_links": {
            "self": {
              "name": "Fundación CIDETEC  ",
              "href": "https://api.euskadi.eus/procurements/contracting-authorities/119/entities/469"
            }
          }
        }
      ],
      "mainEntityOfPage": "https://www.contratacion.euskadi.eus/webkpe00-kpeperfi/es/contenidos/poder_adjudicador/poder119/es_doc/index.html",
      "_links": {
        "self": {
          "name": "Fundación CIDETEC",
          "href": "https://api.euskadi.eus/procurements/contracting-authorities/119"
        }
      }
    },
    {
      "id": 450,
      "identificationNumber": "A48419329",
      "name": "Seed Capital de Bizkaia SGEIC, S.A.",
      "scope": "BIZKAIA",
      "address": "Sabino Arana 8, 5ª planta. 48013 Bilbao (Bizkaia)",
      "webPage": "http://www.seedcapitalbizkaia.eus/",
      "publicationDate": "2021-12-28",
      "mainActivity": "Asuntos económicos y financieros",
      "codNUTS": "ES213",
      "entities": [
        {
          "id": 900,
          "name": "Seed Capital de Bizkaia SGEIC, S.A.",
          "orgs": [
            {
              "id": 912497,
              "name": "Director-Gerente Seed Capital Bizkaia",
              "_links": {
                "self": {
                  "name": "Director-Gerente Seed Capital Bizkaia",
                  "href": "https://api.euskadi.eus/procurements/contracting-authorities/450/entities/900/orgs/912497"
                }
              }
            },
            {
              "id": 24616,
              "name": "Director-Gerente SCB y Presidente Comisión Ejecutiva SCB",
              "_links": {
                "self": {
                  "name": "Director-Gerente SCB y Presidente Comisión Ejecutiva SCB",
                  "href": "https://api.euskadi.eus/procurements/contracting-authorities/450/entities/900/orgs/24616"
                }
              }
            }
          ],
          "_links": {
            "self": {
              "name": "Seed Capital de Bizkaia SGEIC, S.A.",
              "href": "https://api.euskadi.eus/procurements/contracting-authorities/450/entities/900"
            }
          }
        }
      ],
      "mainEntityOfPage": "https://www.contratacion.euskadi.eus/webkpe00-kpeperfi/es/contenidos/poder_adjudicador/poder450/es_doc/index.html",
      "_links": {
        "self": {
          "name": "Seed Capital de Bizkaia SGEIC, S.A.",
          "href": "https://api.euskadi.eus/procurements/contracting-authorities/450"
        }
      }
    },
    {
      "id": 789,
      "identificationNumber": "A01159045",
      "name": "VIA, Promoción del Aeropuerto de Vitoria, S.A.",
      "scope": "ARABA/ÁLAVA",
      "address": "Dato, 38 - 01005 Vitoria-gasteiz",
      "webPage": "https://www.via.com.es",
      "publicationDate": "2021-12-27",
      "mainActivity": "Otra actividad",
      "alternativeActivity": "Promoción del Aeropuerto de Vitoria",
      "codNUTS": "ES211",
      "entities": [
        {
          "id": 1289,
          "name": "VIA, Promoción del Aeropuerto de Vitoria, S.A.",
          "orgs": [
            {
              "id": 914327,
              "name": "Consejo de Administración",
              "_links": {
                "self": {
                  "name": "Consejo de Administración",
                  "href": "https://api.euskadi.eus/procurements/contracting-authorities/789/entities/1289/orgs/914327"
                }
              }
            },
            {
              "id": 914328,
              "name": "Presidente",
              "_links": {
                "self": {
                  "name": "Presidente",
                  "href": "https://api.euskadi.eus/procurements/contracting-authorities/789/entities/1289/orgs/914328"
                }
              }
            },
            {
              "id": 914330,
              "name": "Miembro del Consejo de Administración",
              "_links": {
                "self": {
                  "name": "Miembro del Consejo de Administración",
                  "href": "https://api.euskadi.eus/procurements/contracting-authorities/789/entities/1289/orgs/914330"
                }
              }
            },
            {
              "id": 914329,
              "name": "Gerente",
              "_links": {
                "self": {
                  "name": "Gerente",
                  "href": "https://api.euskadi.eus/procurements/contracting-authorities/789/entities/1289/orgs/914329"
                }
              }
            }
          ],
          "_links": {
            "self": {
              "name": "VIA, Promoción del Aeropuerto de Vitoria, S.A.",
              "href": "https://api.euskadi.eus/procurements/contracting-authorities/789/entities/1289"
            }
          }
        }
      ],
      "mainEntityOfPage": "https://www.contratacion.euskadi.eus/webkpe00-kpeperfi/es/contenidos/poder_adjudicador/poder789/es_doc/index.html",
      "_links": {
        "self": {
          "name": "VIA, Promoción del Aeropuerto de Vitoria, S.A.",
          "href": "https://api.euskadi.eus/procurements/contracting-authorities/789"
        }
      }
    }
  ]
}