{
  "totalItems": 919,
  "totalPages": 92,
  "currentPage": 64,
  "itemsOfPage": 10,
  "items": [
    {
      "id": 323,
      "identificationNumber": "P2006100H",
      "name": "Ayuntamiento de Mutiloa",
      "scope": "GIPUZKOA",
      "address": "Herriko plaza, z/g. 20214 Mutiloa (Gipuzkoa)",
      "webPage": "http://www.mutiloa.eus",
      "publicationDate": "2019-10-04",
      "mainActivity": "Servicios públicos generales",
      "codNUTS": "ES212",
      "entities": [
        {
          "id": 772,
          "name": "Ayuntamiento de Mutiloa",
          "orgs": [
            {
              "id": 912246,
              "name": "Alcaldía",
              "_links": {
                "self": {
                  "name": "Alcaldía",
                  "href": "https://api.euskadi.eus/procurements/contracting-authorities/323/entities/772/orgs/912246"
                }
              }
            },
            {
              "id": 912247,
              "name": "Pleno",
              "_links": {
                "self": {
                  "name": "Pleno",
                  "href": "https://api.euskadi.eus/procurements/contracting-authorities/323/entities/772/orgs/912247"
                }
              }
            }
          ],
          "_links": {
            "self": {
              "name": "Ayuntamiento de Mutiloa",
              "href": "https://api.euskadi.eus/procurements/contracting-authorities/323/entities/772"
            }
          }
        }
      ],
      "mainEntityOfPage": "https://www.contratacion.euskadi.eus/webkpe00-kpeperfi/es/contenidos/poder_adjudicador/poder323/es_doc/es_arch_poder323.html",
      "_links": {
        "self": {
          "name": "Ayuntamiento de Mutiloa",
          "href": "https://api.euskadi.eus/procurements/contracting-authorities/323"
        }
      }
    },
    {
      "id": 333,
      "identificationNumber": "P0103800I",
      "name": "Ayuntamiento de Llodio",
      "scope": "ARABA/ÁLAVA",
      "address": "Herriko Plaza, z/g. 01400 Laudio/Llodio (Araba/Álava)",
      "webPage": "http://www.laudio.eus",
      "publicationDate": "2019-10-04",
      "mainActivity": "Servicios públicos generales",
      "codNUTS": "ES211",
      "entities": [
        {
          "id": 784,
          "name": "Ayuntamiento de Llodio",
          "orgs": [
            {
              "id": 912263,
              "name": "Alcalde-Presidente",
              "_links": {
                "self": {
                  "name": "Alcalde-Presidente",
                  "href": "https://api.euskadi.eus/procurements/contracting-authorities/333/entities/784/orgs/912263"
                }
              }
            },
            {
              "id": 912264,
              "name": "Pleno",
              "_links": {
                "self": {
                  "name": "Pleno",
                  "href": "https://api.euskadi.eus/procurements/contracting-authorities/333/entities/784/orgs/912264"
                }
              }
            },
            {
              "id": 912265,
              "name": "Junta de Gobierno Local ",
              "_links": {
                "self": {
                  "name": "Junta de Gobierno Local ",
                  "href": "https://api.euskadi.eus/procurements/contracting-authorities/333/entities/784/orgs/912265"
                }
              }
            }
          ],
          "_links": {
            "self": {
              "name": "Ayuntamiento de Llodio",
              "href": "https://api.euskadi.eus/procurements/contracting-authorities/333/entities/784"
            }
          }
        }
      ],
      "mainEntityOfPage": "https://www.contratacion.euskadi.eus/webkpe00-kpeperfi/es/contenidos/poder_adjudicador/poder333/es_doc/es_arch_poder333.html",
      "_links": {
        "self": {
          "name": "Ayuntamiento de Llodio",
          "href": "https://api.euskadi.eus/procurements/contracting-authorities/333"
        }
      }
    },
    {
      "id": 344,
      "identificationNumber": "A20214011",
      "name": "TXINZER",
      "scope": "GIPUZKOA",
      "address": "Barrio de Olaberria, 18. 20303 Irun (Gipuzkoa) ",
      "webPage": "http://www.txinzer.com",
      "publicationDate": "2019-10-04",
      "mainActivity": "Medio ambiente",
      "codNUTS": "ES212",
      "entities": [
        {
          "id": 796,
          "name": "Servicio de Txingudi-Txingudiko Zerbitzuak, S.A.",
          "orgs": [
            {
              "id": 912292,
              "name": "Directora-Gerente",
              "_links": {
                "self": {
                  "name": "Directora-Gerente",
                  "href": "https://api.euskadi.eus/procurements/contracting-authorities/344/entities/796/orgs/912292"
                }
              }
            }
          ],
          "_links": {
            "self": {
              "name": "Servicio de Txingudi-Txingudiko Zerbitzuak, S.A.",
              "href": "https://api.euskadi.eus/procurements/contracting-authorities/344/entities/796"
            }
          }
        }
      ],
      "mainEntityOfPage": "https://www.contratacion.euskadi.eus/webkpe00-kpeperfi/es/contenidos/poder_adjudicador/poder344/es_doc/es_arch_poder344.html",
      "_links": {
        "self": {
          "name": "TXINZER",
          "href": "https://api.euskadi.eus/procurements/contracting-authorities/344"
        }
      }
    },
    {
      "id": 346,
      "identificationNumber": "A20137329",
      "name": "Sociedad Urbanistica de Rehabilitación del Alto Deba S.A.",
      "scope": "GIPUZKOA",
      "address": "Nafarroa etorbidea, 17 behea. 20500 Arrasate (Gipuzkoa)",
      "webPage": "http://www.debagoiena.eus/es/suradesa",
      "publicationDate": "2019-10-04",
      "mainActivity": "Vivienda y servicios comunitarios",
      "codNUTS": "ES212",
      "entities": [
        {
          "id": 798,
          "name": "Sociedad Urbanistica de Rehabilitación del Alto Deba S.A.",
          "orgs": [
            {
              "id": 912294,
              "name": "Director",
              "_links": {
                "self": {
                  "name": "Director",
                  "href": "https://api.euskadi.eus/procurements/contracting-authorities/346/entities/798/orgs/912294"
                }
              }
            },
            {
              "id": 912293,
              "name": "Presidente",
              "_links": {
                "self": {
                  "name": "Presidente",
                  "href": "https://api.euskadi.eus/procurements/contracting-authorities/346/entities/798/orgs/912293"
                }
              }
            },
            {
              "id": 912295,
              "name": "Consejo de Administración",
              "_links": {
                "self": {
                  "name": "Consejo de Administración",
                  "href": "https://api.euskadi.eus/procurements/contracting-authorities/346/entities/798/orgs/912295"
                }
              }
            }
          ],
          "_links": {
            "self": {
              "name": "Sociedad Urbanistica de Rehabilitación del Alto Deba S.A.",
              "href": "https://api.euskadi.eus/procurements/contracting-authorities/346/entities/798"
            }
          }
        }
      ],
      "mainEntityOfPage": "https://www.contratacion.euskadi.eus/webkpe00-kpeperfi/es/contenidos/poder_adjudicador/poder346/es_doc/es_arch_poder346.html",
      "_links": {
        "self": {
          "name": "Sociedad Urbanistica de Rehabilitación del Alto Deba S.A.",
          "href": "https://api.euskadi.eus/procurements/contracting-authorities/346"
        }
      }
    },
    {
      "id": 349,
      "identificationNumber": "P2002700I",
      "name": "Ayuntamiento de Zerain",
      "scope": "GIPUZKOA",
      "address": "Zerain gunea, 1 (Ostatu plaza). 20214 Zerain (Gipuzkoa)",
      "webPage": "http://www.zerain.eus",
      "publicationDate": "2019-10-04",
      "mainActivity": "Servicios públicos generales",
      "codNUTS": "ES212",
      "entities": [
        {
          "id": 801,
          "name": "Ayuntamiento de Zerain",
          "orgs": [
            {
              "id": 912299,
              "name": "Pleno",
              "_links": {
                "self": {
                  "name": "Pleno",
                  "href": "https://api.euskadi.eus/procurements/contracting-authorities/349/entities/801/orgs/912299"
                }
              }
            },
            {
              "id": 912298,
              "name": "Alcaldia",
              "_links": {
                "self": {
                  "name": "Alcaldia",
                  "href": "https://api.euskadi.eus/procurements/contracting-authorities/349/entities/801/orgs/912298"
                }
              }
            }
          ],
          "_links": {
            "self": {
              "name": "Ayuntamiento de Zerain",
              "href": "https://api.euskadi.eus/procurements/contracting-authorities/349/entities/801"
            }
          }
        }
      ],
      "mainEntityOfPage": "https://www.contratacion.euskadi.eus/webkpe00-kpeperfi/es/contenidos/poder_adjudicador/poder349/es_doc/es_arch_poder349.html",
      "_links": {
        "self": {
          "name": "Ayuntamiento de Zerain",
          "href": "https://api.euskadi.eus/procurements/contracting-authorities/349"
        }
      }
    },
    {
      "id": 353,
      "identificationNumber": "P0103200B",
      "name": "Ayuntamiento de Lagrán",
      "scope": "ARABA/ÁLAVA",
      "address": "Herreria Kalea, 1, 01118 Lagran, Araba",
      "webPage": "http://www.lagran.org",
      "publicationDate": "2019-10-04",
      "mainActivity": "Servicios públicos generales",
      "codNUTS": "ES211",
      "entities": [
        {
          "id": 805,
          "name": "Ayuntamiento de Lagrán",
          "orgs": [
            {
              "id": 912302,
              "name": "Pleno",
              "_links": {
                "self": {
                  "name": "Pleno",
                  "href": "https://api.euskadi.eus/procurements/contracting-authorities/353/entities/805/orgs/912302"
                }
              }
            },
            {
              "id": 912301,
              "name": "Alcaldía",
              "_links": {
                "self": {
                  "name": "Alcaldía",
                  "href": "https://api.euskadi.eus/procurements/contracting-authorities/353/entities/805/orgs/912301"
                }
              }
            }
          ],
          "_links": {
            "self": {
              "name": "Ayuntamiento de Lagrán",
              "href": "https://api.euskadi.eus/procurements/contracting-authorities/353/entities/805"
            }
          }
        }
      ],
      "mainEntityOfPage": "https://www.contratacion.euskadi.eus/webkpe00-kpeperfi/es/contenidos/poder_adjudicador/poder353/es_doc/es_arch_poder353.html",
      "_links": {
        "self": {
          "name": "Ayuntamiento de Lagrán",
          "href": "https://api.euskadi.eus/procurements/contracting-authorities/353"
        }
      }
    },
    {
      "id": 354,
      "identificationNumber": "A01007376",
      "name": "Aguas Municipales de Vitoria-Gasteiz, S.A.U.",
      "scope": "ARABA/ÁLAVA",
      "address": "Puerto Rico,10. 01012 Vitoria-Gasteiz",
      "webPage": "http://www.amvisa.org",
      "publicationDate": "2019-10-04",
      "mainActivity": "Medio ambiente",
      "codNUTS": "ES211",
      "entities": [
        {
          "id": 806,
          "name": "Aguas Municipales de Vitoria-Gasteiz, S.A.U. ",
          "orgs": [
            {
              "id": 912303,
              "name": "Consejo de Administración",
              "_links": {
                "self": {
                  "name": "Consejo de Administración",
                  "href": "https://api.euskadi.eus/procurements/contracting-authorities/354/entities/806/orgs/912303"
                }
              }
            }
          ],
          "_links": {
            "self": {
              "name": "Aguas Municipales de Vitoria-Gasteiz, S.A.U. ",
              "href": "https://api.euskadi.eus/procurements/contracting-authorities/354/entities/806"
            }
          }
        }
      ],
      "mainEntityOfPage": "https://www.contratacion.euskadi.eus/webkpe00-kpeperfi/es/contenidos/poder_adjudicador/poder354/es_doc/es_arch_poder354.html",
      "_links": {
        "self": {
          "name": "Aguas Municipales de Vitoria-Gasteiz, S.A.U.",
          "href": "https://api.euskadi.eus/procurements/contracting-authorities/354"
        }
      }
    },
    {
      "id": 355,
      "identificationNumber": "P0106900D",
      "name": "Ayuntamiento de Yécora",
      "scope": "ARABA/ÁLAVA",
      "address": "Calle la Iglesia, 4.01322 Yécora (Araba/Álava)  ",
      "webPage": "http://www.ayuntamientodeyecora.com",
      "publicationDate": "2019-10-04",
      "mainActivity": "Servicios públicos generales",
      "codNUTS": "ES211",
      "entities": [
        {
          "id": 807,
          "name": "Ayuntamiento de Yécora",
          "orgs": [
            {
              "id": 912326,
              "name": "Pleno",
              "_links": {
                "self": {
                  "name": "Pleno",
                  "href": "https://api.euskadi.eus/procurements/contracting-authorities/355/entities/807/orgs/912326"
                }
              }
            },
            {
              "id": 912325,
              "name": "Alcaldía",
              "_links": {
                "self": {
                  "name": "Alcaldía",
                  "href": "https://api.euskadi.eus/procurements/contracting-authorities/355/entities/807/orgs/912325"
                }
              }
            }
          ],
          "_links": {
            "self": {
              "name": "Ayuntamiento de Yécora",
              "href": "https://api.euskadi.eus/procurements/contracting-authorities/355/entities/807"
            }
          }
        }
      ],
      "mainEntityOfPage": "https://www.contratacion.euskadi.eus/webkpe00-kpeperfi/es/contenidos/poder_adjudicador/poder355/es_doc/es_arch_poder355.html",
      "_links": {
        "self": {
          "name": "Ayuntamiento de Yécora",
          "href": "https://api.euskadi.eus/procurements/contracting-authorities/355"
        }
      }
    },
    {
      "id": 359,
      "identificationNumber": "P0105900E",
      "name": "Ayuntamiento de San Millán",
      "scope": "ARABA/ÁLAVA",
      "address": "Andia,9. 01208 Ordoñana (Araba/Álava)",
      "webPage": "http://www.donemiliaga.org",
      "publicationDate": "2019-10-04",
      "mainActivity": "Servicios públicos generales",
      "codNUTS": "ES211",
      "entities": [
        {
          "id": 811,
          "name": "Ayuntamiento de San Millán",
          "orgs": [
            {
              "id": 912333,
              "name": "Alcalde",
              "_links": {
                "self": {
                  "name": "Alcalde",
                  "href": "https://api.euskadi.eus/procurements/contracting-authorities/359/entities/811/orgs/912333"
                }
              }
            },
            {
              "id": 912334,
              "name": "Pleno",
              "_links": {
                "self": {
                  "name": "Pleno",
                  "href": "https://api.euskadi.eus/procurements/contracting-authorities/359/entities/811/orgs/912334"
                }
              }
            }
          ],
          "_links": {
            "self": {
              "name": "Ayuntamiento de San Millán",
              "href": "https://api.euskadi.eus/procurements/contracting-authorities/359/entities/811"
            }
          }
        }
      ],
      "mainEntityOfPage": "https://www.contratacion.euskadi.eus/webkpe00-kpeperfi/es/contenidos/poder_adjudicador/poder359/es_doc/es_arch_poder359.html",
      "_links": {
        "self": {
          "name": "Ayuntamiento de San Millán",
          "href": "https://api.euskadi.eus/procurements/contracting-authorities/359"
        }
      }
    },
    {
      "id": 361,
      "identificationNumber": "P0100900J",
      "name": "Ayuntamiento de Arratzua-Ubarrundia",
      "scope": "ARABA/ÁLAVA",
      "address": "Uribea, 12. 01520 Arratzua-Ubarrundia (Araba/Álava)",
      "webPage": "http://www.arratzua-ubarrundia.eus",
      "publicationDate": "2019-10-04",
      "mainActivity": "Servicios públicos generales",
      "codNUTS": "ES211",
      "entities": [
        {
          "id": 813,
          "name": "Ayuntamiento de Arratzua-Ubarrundia",
          "orgs": [
            {
              "id": 912339,
              "name": "Pleno",
              "_links": {
                "self": {
                  "name": "Pleno",
                  "href": "https://api.euskadi.eus/procurements/contracting-authorities/361/entities/813/orgs/912339"
                }
              }
            },
            {
              "id": 912338,
              "name": "Alcaldía",
              "_links": {
                "self": {
                  "name": "Alcaldía",
                  "href": "https://api.euskadi.eus/procurements/contracting-authorities/361/entities/813/orgs/912338"
                }
              }
            }
          ],
          "_links": {
            "self": {
              "name": "Ayuntamiento de Arratzua-Ubarrundia",
              "href": "https://api.euskadi.eus/procurements/contracting-authorities/361/entities/813"
            }
          }
        }
      ],
      "mainEntityOfPage": "https://www.contratacion.euskadi.eus/webkpe00-kpeperfi/es/contenidos/poder_adjudicador/poder361/es_doc/es_arch_poder361.html",
      "_links": {
        "self": {
          "name": "Ayuntamiento de Arratzua-Ubarrundia",
          "href": "https://api.euskadi.eus/procurements/contracting-authorities/361"
        }
      }
    }
  ]
}