{
  "totalItems": 919,
  "totalPages": 92,
  "currentPage": 11,
  "itemsOfPage": 10,
  "items": [
    {
      "id": 26568,
      "identificationNumber": "P0100332F",
      "name": "Junta Administrativa de Lekamaña",
      "scope": "ARABA/ÁLAVA",
      "address": "Lekamaña nº 1 - 01450 Lekamaña – Amurrio (Araba/Álava)",
      "webPage": "https://www.contratacion.euskadi.eus/KPELicitacion",
      "publicationDate": "2024-04-26",
      "mainActivity": "Servicios públicos generales",
      "codNUTS": "ES211",
      "entities": [
        {
          "id": 26569,
          "name": "Junta Administrativa de Lekamaña",
          "orgs": [
            {
              "id": 26570,
              "name": "Junta Administrativa de Lekamaña",
              "_links": {
                "self": {
                  "name": "Junta Administrativa de Lekamaña",
                  "href": "https://api.euskadi.eus/procurements/contracting-authorities/26568/entities/26569/orgs/26570"
                }
              }
            }
          ],
          "_links": {
            "self": {
              "name": "Junta Administrativa de Lekamaña",
              "href": "https://api.euskadi.eus/procurements/contracting-authorities/26568/entities/26569"
            }
          }
        }
      ],
      "mainEntityOfPage": "https://www.contratacion.euskadi.eus/webkpe00-kpeperfi/es/contenidos/poder_adjudicador/poder26568/es_doc/index.html",
      "_links": {
        "self": {
          "name": "Junta Administrativa de Lekamaña",
          "href": "https://api.euskadi.eus/procurements/contracting-authorities/26568"
        }
      }
    },
    {
      "id": 26564,
      "identificationNumber": "V75029694",
      "name": "Junta de Concertación de la Unidad de Ejecución 12.2-Torreaga de Zumaia",
      "scope": "GIPUZKOA",
      "address": "Ayuntamiento de Zumaia, Foruen Enparantza 1, 20750 Zumaia",
      "webPage": "https://www.contratacion.euskadi.eus/KPELicitacion",
      "publicationDate": "2024-04-25",
      "mainActivity": "Vivienda y servicios comunitarios",
      "codNUTS": "ES212",
      "entities": [
        {
          "id": 26565,
          "name": "Junta de Concertación de la Unidad de Ejecución 12.2-Torreaga de Zumaia",
          "orgs": [
            {
              "id": 26566,
              "name": "Asamblea de la Junta de Concertación",
              "_links": {
                "self": {
                  "name": "Asamblea de la Junta de Concertación",
                  "href": "https://api.euskadi.eus/procurements/contracting-authorities/26564/entities/26565/orgs/26566"
                }
              }
            }
          ],
          "_links": {
            "self": {
              "name": "Junta de Concertación de la Unidad de Ejecución 12.2-Torreaga de Zumaia",
              "href": "https://api.euskadi.eus/procurements/contracting-authorities/26564/entities/26565"
            }
          }
        }
      ],
      "mainEntityOfPage": "https://www.contratacion.euskadi.eus/webkpe00-kpeperfi/es/contenidos/poder_adjudicador/poder26564/es_doc/index.html",
      "_links": {
        "self": {
          "name": "Junta de Concertación de la Unidad de Ejecución 12.2-Torreaga de Zumaia",
          "href": "https://api.euskadi.eus/procurements/contracting-authorities/26564"
        }
      }
    },
    {
      "id": 26560,
      "identificationNumber": "P0100110F",
      "name": "Junta Administrativa de Txintxetru",
      "scope": "ARABA/ÁLAVA",
      "address": "Txintxetru - 01207  - Araba",
      "webPage": "https://www.contratacion.euskadi.eus/KPELicitacion",
      "publicationDate": "2024-04-23",
      "mainActivity": "Servicios públicos generales",
      "codNUTS": "ES211",
      "entities": [
        {
          "id": 26561,
          "name": "Junta Administrativa de Txintxetru",
          "orgs": [
            {
              "id": 26562,
              "name": "Junta Administrativa de Txintxetru",
              "_links": {
                "self": {
                  "name": "Junta Administrativa de Txintxetru",
                  "href": "https://api.euskadi.eus/procurements/contracting-authorities/26560/entities/26561/orgs/26562"
                }
              }
            }
          ],
          "_links": {
            "self": {
              "name": "Junta Administrativa de Txintxetru",
              "href": "https://api.euskadi.eus/procurements/contracting-authorities/26560/entities/26561"
            }
          }
        }
      ],
      "mainEntityOfPage": "https://www.contratacion.euskadi.eus/webkpe00-kpeperfi/es/contenidos/poder_adjudicador/poder26560/es_doc/index.html",
      "_links": {
        "self": {
          "name": "Junta Administrativa de Txintxetru",
          "href": "https://api.euskadi.eus/procurements/contracting-authorities/26560"
        }
      }
    },
    {
      "id": 26556,
      "identificationNumber": "V72483654",
      "name": "Junta de Concertación de la Unidad de Ejecución de la Actuación Integrada 2 del Área Mixta de Zorrot",
      "scope": "BIZKAIA",
      "address": "Don Diego López de Haro, 58, principal izquierda, 48011 Bilbao",
      "webPage": "https://www.contratacion.euskadi.eus/KPELicitacion",
      "publicationDate": "2024-04-22",
      "mainActivity": "Vivienda y servicios comunitarios",
      "codNUTS": "ES213",
      "entities": [
        {
          "id": 26557,
          "name": "Junta de Concertación de la Unidad de Ejecución de la Actuación Integrada 2 del Área Mixta de Zorrotzaurre",
          "orgs": [
            {
              "id": 26558,
              "name": "Junta de Concertación de la Unidad de Ejecución de la Actuación Integrada 2 del Área Mixta de Zorrotzaurre",
              "_links": {
                "self": {
                  "name": "Junta de Concertación de la Unidad de Ejecución de la Actuación Integrada 2 del Área Mixta de Zorrotzaurre",
                  "href": "https://api.euskadi.eus/procurements/contracting-authorities/26556/entities/26557/orgs/26558"
                }
              }
            }
          ],
          "_links": {
            "self": {
              "name": "Junta de Concertación de la Unidad de Ejecución de la Actuación Integrada 2 del Área Mixta de Zorrot",
              "href": "https://api.euskadi.eus/procurements/contracting-authorities/26556/entities/26557"
            }
          }
        }
      ],
      "mainEntityOfPage": "https://www.contratacion.euskadi.eus/webkpe00-kpeperfi/es/contenidos/poder_adjudicador/poder26556/es_doc/index.html",
      "_links": {
        "self": {
          "name": "Junta de Concertación de la Unidad de Ejecución de la Actuación Integrada 2 del Área Mixta de Zorrot",
          "href": "https://api.euskadi.eus/procurements/contracting-authorities/26556"
        }
      }
    },
    {
      "id": 26546,
      "identificationNumber": "P0100410J",
      "name": "Junta Administrativa de Urbina Eza",
      "scope": "ARABA/ÁLAVA",
      "address": "Urbina Eza, 5 - 01439, Kuartango, Araba",
      "webPage": "https://www.contratacion.euskadi.eus/KPELicitacion",
      "publicationDate": "2024-04-15",
      "mainActivity": "Servicios públicos generales",
      "codNUTS": "ES211",
      "entities": [
        {
          "id": 26547,
          "name": "Junta Administrativa de Urbina Eza",
          "orgs": [
            {
              "id": 26548,
              "name": "Junta Administrativa de Urbina Eza",
              "_links": {
                "self": {
                  "name": "Junta Administrativa de Urbina Eza",
                  "href": "https://api.euskadi.eus/procurements/contracting-authorities/26546/entities/26547/orgs/26548"
                }
              }
            }
          ],
          "_links": {
            "self": {
              "name": "Junta Administrativa de Urbina Eza",
              "href": "https://api.euskadi.eus/procurements/contracting-authorities/26546/entities/26547"
            }
          }
        }
      ],
      "mainEntityOfPage": "https://www.contratacion.euskadi.eus/webkpe00-kpeperfi/es/contenidos/poder_adjudicador/poder26546/es_doc/index.html",
      "_links": {
        "self": {
          "name": "Junta Administrativa de Urbina Eza",
          "href": "https://api.euskadi.eus/procurements/contracting-authorities/26546"
        }
      }
    },
    {
      "id": 26542,
      "identificationNumber": "P0100022C",
      "name": "Junta Administrativa de Sobrón",
      "scope": "ARABA/ÁLAVA",
      "address": "C/ La Presa, 8 - 01423 - Sobrón - Araba",
      "webPage": "https://www.contratacion.euskadi.eus/KPELicitacion",
      "publicationDate": "2024-04-15",
      "mainActivity": "Servicios públicos generales",
      "codNUTS": "ES211",
      "entities": [
        {
          "id": 26543,
          "name": "Junta Administrativa de Sobrón",
          "orgs": [
            {
              "id": 26544,
              "name": "Junta Administrativa de Sobrón",
              "_links": {
                "self": {
                  "name": "Junta Administrativa de Sobrón",
                  "href": "https://api.euskadi.eus/procurements/contracting-authorities/26542/entities/26543/orgs/26544"
                }
              }
            }
          ],
          "_links": {
            "self": {
              "name": "Junta Administrativa de Sobrón",
              "href": "https://api.euskadi.eus/procurements/contracting-authorities/26542/entities/26543"
            }
          }
        }
      ],
      "mainEntityOfPage": "https://www.contratacion.euskadi.eus/webkpe00-kpeperfi/es/contenidos/poder_adjudicador/poder26542/es_doc/index.html",
      "_links": {
        "self": {
          "name": "Junta Administrativa de Sobrón",
          "href": "https://api.euskadi.eus/procurements/contracting-authorities/26542"
        }
      }
    },
    {
      "id": 38,
      "identificationNumber": "Q0100571I",
      "name": "LANBIDE, Servicio Vasco de Empleo",
      "scope": "CAPV",
      "address": "Jose Atxotegi Kalea, 1",
      "webPage": "https://www.lanbide.euskadi.eus/",
      "publicationDate": "2024-04-15",
      "mainActivity": "Protección social",
      "codNUTS": "ES21",
      "entities": [
        {
          "id": 250,
          "name": "Lanbide",
          "orgs": [
            {
              "id": 911099,
              "name": "Director /a General de LANBIDE-Servicio Vasco de Empleo",
              "_links": {
                "self": {
                  "name": "Director /a General de LANBIDE-Servicio Vasco de Empleo",
                  "href": "https://api.euskadi.eus/procurements/contracting-authorities/38/entities/250/orgs/911099"
                }
              }
            }
          ],
          "_links": {
            "self": {
              "name": "Lanbide",
              "href": "https://api.euskadi.eus/procurements/contracting-authorities/38/entities/250"
            }
          }
        }
      ],
      "mainEntityOfPage": "https://www.contratacion.euskadi.eus/webkpe00-kpeperfi/es/contenidos/poder_adjudicador/poder38/es_doc/index.html",
      "_links": {
        "self": {
          "name": "LANBIDE, Servicio Vasco de Empleo",
          "href": "https://api.euskadi.eus/procurements/contracting-authorities/38"
        }
      }
    },
    {
      "id": 26535,
      "identificationNumber": "P4800055H",
      "name": "Ayuntamiento de Usansolo",
      "scope": "BIZKAIA",
      "address": "Ander Deuna, 29. 48960. Usansolo. Bizkaia",
      "webPage": "https://www.usansolo.eu/",
      "publicationDate": "2024-03-19",
      "mainActivity": "Servicios públicos generales",
      "codNUTS": "ES213",
      "entities": [
        {
          "id": 26536,
          "name": "Ayuntamiento de Usansolo",
          "orgs": [
            {
              "id": 26537,
              "name": "Alcaldía",
              "_links": {
                "self": {
                  "name": "Alcaldía",
                  "href": "https://api.euskadi.eus/procurements/contracting-authorities/26535/entities/26536/orgs/26537"
                }
              }
            },
            {
              "id": 26538,
              "name": "Junta de Gobierno Local",
              "_links": {
                "self": {
                  "name": "Junta de Gobierno Local",
                  "href": "https://api.euskadi.eus/procurements/contracting-authorities/26535/entities/26536/orgs/26538"
                }
              }
            },
            {
              "id": 26539,
              "name": "Pleno",
              "_links": {
                "self": {
                  "name": "Pleno",
                  "href": "https://api.euskadi.eus/procurements/contracting-authorities/26535/entities/26536/orgs/26539"
                }
              }
            }
          ],
          "_links": {
            "self": {
              "name": "Ayuntamiento de Usansolo",
              "href": "https://api.euskadi.eus/procurements/contracting-authorities/26535/entities/26536"
            }
          }
        }
      ],
      "mainEntityOfPage": "https://www.contratacion.euskadi.eus/webkpe00-kpeperfi/es/contenidos/poder_adjudicador/poder26535/es_doc/index.html",
      "_links": {
        "self": {
          "name": "Ayuntamiento de Usansolo",
          "href": "https://api.euskadi.eus/procurements/contracting-authorities/26535"
        }
      }
    },
    {
      "id": 720,
      "identificationNumber": "P2000030C",
      "name": "Entidad Local Menor de Itziar",
      "scope": "GIPUZKOA",
      "address": "Mutxiarte Kalea, 8. Itziar. 20829 Deba (Gipuzkoa)",
      "webPage": "https://www.contratacion.euskadi.eus/",
      "publicationDate": "2024-03-18",
      "mainActivity": "Servicios públicos generales",
      "codNUTS": "ES212",
      "entities": [
        {
          "id": 1198,
          "name": "Entidad Local Menor de Itziar",
          "orgs": [
            {
              "id": 913594,
              "name": "Alcaldía pedánea",
              "_links": {
                "self": {
                  "name": "Alcaldía pedánea",
                  "href": "https://api.euskadi.eus/procurements/contracting-authorities/720/entities/1198/orgs/913594"
                }
              }
            },
            {
              "id": 26534,
              "name": "Pleno de la entidad local menor de Itziar",
              "_links": {
                "self": {
                  "name": "Pleno de la entidad local menor de Itziar",
                  "href": "https://api.euskadi.eus/procurements/contracting-authorities/720/entities/1198/orgs/26534"
                }
              }
            }
          ],
          "_links": {
            "self": {
              "name": "Entidad Local Menor de Itziar",
              "href": "https://api.euskadi.eus/procurements/contracting-authorities/720/entities/1198"
            }
          }
        }
      ],
      "mainEntityOfPage": "https://www.contratacion.euskadi.eus/webkpe00-kpeperfi/es/contenidos/poder_adjudicador/poder720/es_doc/index.html",
      "_links": {
        "self": {
          "name": "Entidad Local Menor de Itziar",
          "href": "https://api.euskadi.eus/procurements/contracting-authorities/720"
        }
      }
    },
    {
      "id": 223,
      "identificationNumber": "A95584835",
      "name": "ZUGAZTEL, M. P., S. A.",
      "scope": "BIZKAIA",
      "address": "Islas Canarias, 21 3ª planta. 48015 Bilbao (Bizkaia)",
      "webPage": "http://www.zugaztel.bizkaia.eus",
      "publicationDate": "2024-03-12",
      "mainActivity": "Otra actividad",
      "alternativeActivity": "TICs",
      "codNUTS": "ES213",
      "CPV": [
        {
          "name": "Servicios de apoyo a los poderes públicos"
        }
      ],
      "entities": [
        {
          "id": 670,
          "name": "ZUGAZTEL, M. P., S. A.",
          "orgs": [
            {
              "id": 912617,
              "name": "Gerencia, concurriendo con Resp. Org. y Sistemas o con Resp. Serv. y Coordinación de Zugaztel MP SA",
              "_links": {
                "self": {
                  "name": "Gerencia, concurriendo con Resp. Org. y Sistemas o con Resp. Serv. y Coordinación de Zugaztel MP SA",
                  "href": "https://api.euskadi.eus/procurements/contracting-authorities/223/entities/670/orgs/912617"
                }
              }
            },
            {
              "id": 912059,
              "name": "Gerente/a",
              "_links": {
                "self": {
                  "name": "Gerente/a",
                  "href": "https://api.euskadi.eus/procurements/contracting-authorities/223/entities/670/orgs/912059"
                }
              }
            },
            {
              "id": 912617,
              "name": "Gerencia, concurriendo con la Subdirección de Zugaztel, M.P., S.A. ",
              "_links": {
                "self": {
                  "name": "Gerencia, concurriendo con la Subdirección de Zugaztel, M.P., S.A. ",
                  "href": "https://api.euskadi.eus/procurements/contracting-authorities/223/entities/670/orgs/912617"
                }
              }
            },
            {
              "id": 912059,
              "name": "Gerencia",
              "_links": {
                "self": {
                  "name": "Gerencia",
                  "href": "https://api.euskadi.eus/procurements/contracting-authorities/223/entities/670/orgs/912059"
                }
              }
            }
          ],
          "_links": {
            "self": {
              "name": "ZUGAZTEL, M. P., S. A.",
              "href": "https://api.euskadi.eus/procurements/contracting-authorities/223/entities/670"
            }
          }
        }
      ],
      "mainEntityOfPage": "https://www.contratacion.euskadi.eus/webkpe00-kpeperfi/es/contenidos/poder_adjudicador/poder223/es_doc/index.html",
      "_links": {
        "self": {
          "name": "ZUGAZTEL, M. P., S. A.",
          "href": "https://api.euskadi.eus/procurements/contracting-authorities/223"
        },
        "contractingAuthorities": [
          {
            "name": "BASALAN  A.B, S.A, M.P",
            "href": "https://api.euskadi.eus/procurements/contracting-authorities/18640"
          },
          {
            "name": "Diputación Foral de Bizkaia",
            "href": "https://api.euskadi.eus/procurements/contracting-authorities/18269"
          },
          {
            "name": "LANTIK",
            "href": "https://api.euskadi.eus/procurements/contracting-authorities/18505"
          }
        ]
      }
    }
  ]
}