{
  "totalItems": 919,
  "totalPages": 92,
  "currentPage": 40,
  "itemsOfPage": 10,
  "items": [
    {
      "id": 98,
      "identificationNumber": "A48177760",
      "name": "Gestión de Capital Riesgo del País Vasco, SGEIC, S.A.",
      "scope": "CAPV",
      "address": "Alameda de Urquijo, 36 2ª planta. 48011 Bilbao (Bizkaia)",
      "webPage": "http://www.gestioncapitalriesgo.com",
      "publicationDate": "2019-11-20",
      "mainActivity": "Asuntos económicos y financieros",
      "codNUTS": "ES21",
      "entities": [
        {
          "id": 449,
          "name": "Gestión de Capital Riesgo del País Vasco, SGEIC, S.A.",
          "orgs": [
            {
              "id": 911478,
              "name": "Director General",
              "_links": {
                "self": {
                  "name": "Director General",
                  "href": "https://api.euskadi.eus/procurements/contracting-authorities/98/entities/449/orgs/911478"
                }
              }
            }
          ],
          "_links": {
            "self": {
              "name": "Gestión de Capital Riesgo del País Vasco, SGEIC, S.A.",
              "href": "https://api.euskadi.eus/procurements/contracting-authorities/98/entities/449"
            }
          }
        },
        {
          "id": 1185,
          "name": "EZTEN Fondo de Capital Riesgo",
          "orgs": [
            {
              "id": 913567,
              "name": "Directora General",
              "_links": {
                "self": {
                  "name": "Directora General",
                  "href": "https://api.euskadi.eus/procurements/contracting-authorities/98/entities/1185/orgs/913567"
                }
              }
            }
          ],
          "_links": {
            "self": {
              "name": "EZTEN Fondo de Capital Riesgo",
              "href": "https://api.euskadi.eus/procurements/contracting-authorities/98/entities/1185"
            }
          }
        }
      ],
      "mainEntityOfPage": "https://www.contratacion.euskadi.eus/webkpe00-kpeperfi/es/contenidos/poder_adjudicador/poder98/es_doc/es_arch_poder98.html",
      "_links": {
        "self": {
          "name": "Gestión de Capital Riesgo del País Vasco, SGEIC, S.A.",
          "href": "https://api.euskadi.eus/procurements/contracting-authorities/98"
        }
      }
    },
    {
      "id": 182,
      "identificationNumber": "P0104900F",
      "name": "Ayuntamiento de Peñacerrada-Urizaharra",
      "scope": "ARABA/ÁLAVA",
      "address": "Plaza Fray Jacinto Martínez, 2.. 01212 Peñacerrada (Araba/Álava)",
      "webPage": "http://www.penacerrada-urizaharra.com",
      "publicationDate": "2019-11-15",
      "mainActivity": "Servicios públicos generales",
      "codNUTS": "ES211",
      "entities": [
        {
          "id": 611,
          "name": "Ayuntamiento de Peñacerrada-Urizaharra ",
          "orgs": [
            {
              "id": 911914,
              "name": "Pleno",
              "_links": {
                "self": {
                  "name": "Pleno",
                  "href": "https://api.euskadi.eus/procurements/contracting-authorities/182/entities/611/orgs/911914"
                }
              }
            },
            {
              "id": 911913,
              "name": "Alcalde",
              "_links": {
                "self": {
                  "name": "Alcalde",
                  "href": "https://api.euskadi.eus/procurements/contracting-authorities/182/entities/611/orgs/911913"
                }
              }
            }
          ],
          "_links": {
            "self": {
              "name": "Ayuntamiento de Peñacerrada-Urizaharra ",
              "href": "https://api.euskadi.eus/procurements/contracting-authorities/182/entities/611"
            }
          }
        }
      ],
      "mainEntityOfPage": "https://www.contratacion.euskadi.eus/webkpe00-kpeperfi/es/contenidos/poder_adjudicador/poder182/es_doc/es_arch_poder182.html",
      "_links": {
        "self": {
          "name": "Ayuntamiento de Peñacerrada-Urizaharra",
          "href": "https://api.euskadi.eus/procurements/contracting-authorities/182"
        }
      }
    },
    {
      "id": 305,
      "identificationNumber": "A48541957",
      "name": "Metro Bilbao, S.A.",
      "scope": "BIZKAIA",
      "address": "Navarra, 2. 48001 Bilbao (Bizkaia)",
      "webPage": "https://www.metrobilbao.eus/",
      "publicationDate": "2019-11-15",
      "mainActivity": "Otra actividad",
      "alternativeActivity": "Transportes",
      "codNUTS": "ES213",
      "entities": [
        {
          "id": 754,
          "name": "Metro Bilbao, S.A.",
          "orgs": [
            {
              "id": 912214,
              "name": "Consejo de Administración",
              "_links": {
                "self": {
                  "name": "Consejo de Administración",
                  "href": "https://api.euskadi.eus/procurements/contracting-authorities/305/entities/754/orgs/912214"
                }
              }
            }
          ],
          "_links": {
            "self": {
              "name": "Metro Bilbao, S.A.",
              "href": "https://api.euskadi.eus/procurements/contracting-authorities/305/entities/754"
            }
          }
        }
      ],
      "mainEntityOfPage": "https://www.contratacion.euskadi.eus/webkpe00-kpeperfi/es/contenidos/poder_adjudicador/poder305/es_doc/es_arch_poder305.html",
      "_links": {
        "self": {
          "name": "Metro Bilbao, S.A.",
          "href": "https://api.euskadi.eus/procurements/contracting-authorities/305"
        }
      }
    },
    {
      "id": 177,
      "identificationNumber": "G01019124",
      "name": "Instituto Foral de Bienestar Social",
      "scope": "ARABA/ÁLAVA",
      "address": "San Prudencio, 30. 4ªplanta. 01005 Vitoria-Gasteiz (Araba/Álava)",
      "webPage": "http://www.araba.eus",
      "publicationDate": "2019-11-13",
      "mainActivity": "Protección social",
      "codNUTS": "ES211",
      "entities": [
        {
          "id": 608,
          "name": "Instituto Foral de Bienestar Social",
          "orgs": [
            {
              "id": 911923,
              "name": "Presidencia Consejo de Administración",
              "_links": {
                "self": {
                  "name": "Presidencia Consejo de Administración",
                  "href": "https://api.euskadi.eus/procurements/contracting-authorities/177/entities/608/orgs/911923"
                }
              }
            },
            {
              "id": 912048,
              "name": "Diputada de Servicios Sociales",
              "_links": {
                "self": {
                  "name": "Diputada de Servicios Sociales",
                  "href": "https://api.euskadi.eus/procurements/contracting-authorities/177/entities/608/orgs/912048"
                }
              }
            },
            {
              "id": 911907,
              "name": "Consejo de Administración",
              "_links": {
                "self": {
                  "name": "Consejo de Administración",
                  "href": "https://api.euskadi.eus/procurements/contracting-authorities/177/entities/608/orgs/911907"
                }
              }
            },
            {
              "id": 911908,
              "name": "Dirección-Gerencia",
              "_links": {
                "self": {
                  "name": "Dirección-Gerencia",
                  "href": "https://api.euskadi.eus/procurements/contracting-authorities/177/entities/608/orgs/911908"
                }
              }
            }
          ],
          "_links": {
            "self": {
              "name": "Instituto Foral de Bienestar Social",
              "href": "https://api.euskadi.eus/procurements/contracting-authorities/177/entities/608"
            }
          }
        }
      ],
      "mainEntityOfPage": "https://www.contratacion.euskadi.eus/webkpe00-kpeperfi/es/contenidos/poder_adjudicador/poder177/es_doc/es_arch_poder177.html",
      "_links": {
        "self": {
          "name": "Instituto Foral de Bienestar Social",
          "href": "https://api.euskadi.eus/procurements/contracting-authorities/177"
        }
      }
    },
    {
      "id": 104,
      "identificationNumber": "G20998100",
      "name": "Fundación Basque Culinary Center",
      "scope": "GIPUZKOA",
      "address": "Pº Juan Avelino Barriola, 101. 20009 Donostia (Gipuzkoa)",
      "webPage": "http://www.bculinary.com",
      "publicationDate": "2019-11-12",
      "mainActivity": "Educación",
      "codNUTS": "ES212",
      "entities": [
        {
          "id": 455,
          "name": "Fundación Basque Culinary Center",
          "orgs": [
            {
              "id": 911491,
              "name": "Director General",
              "_links": {
                "self": {
                  "name": "Director General",
                  "href": "https://api.euskadi.eus/procurements/contracting-authorities/104/entities/455/orgs/911491"
                }
              }
            }
          ],
          "_links": {
            "self": {
              "name": "Fundación Basque Culinary Center",
              "href": "https://api.euskadi.eus/procurements/contracting-authorities/104/entities/455"
            }
          }
        },
        {
          "id": 602,
          "name": "Fundación Basque Culinary Center Hezkuntza",
          "orgs": [
            {
              "id": 911891,
              "name": "Director general",
              "_links": {
                "self": {
                  "name": "Director general",
                  "href": "https://api.euskadi.eus/procurements/contracting-authorities/104/entities/602/orgs/911891"
                }
              }
            }
          ],
          "_links": {
            "self": {
              "name": "Fundación Basque Culinary Center Hezkuntza",
              "href": "https://api.euskadi.eus/procurements/contracting-authorities/104/entities/602"
            }
          }
        }
      ],
      "mainEntityOfPage": "https://www.contratacion.euskadi.eus/webkpe00-kpeperfi/es/contenidos/poder_adjudicador/poder104/es_doc/es_arch_poder104.html",
      "_links": {
        "self": {
          "name": "Fundación Basque Culinary Center",
          "href": "https://api.euskadi.eus/procurements/contracting-authorities/104"
        }
      }
    },
    {
      "id": 707,
      "identificationNumber": "Q4800718A",
      "name": "Bilbao Zerbitzuak",
      "scope": "BIZKAIA",
      "address": "Santimami Auzoa, 4. 48170 Zamudio (Bizkaia) ",
      "webPage": "https://www.contratacion.euskadi.eus/",
      "publicationDate": "2019-11-06",
      "mainActivity": "Servicios públicos generales",
      "codNUTS": "ES213",
      "entities": [
        {
          "id": 1183,
          "name": "Bilbao Zerbitzuak",
          "orgs": [
            {
              "id": 913562,
              "name": "Dirección ",
              "_links": {
                "self": {
                  "name": "Dirección ",
                  "href": "https://api.euskadi.eus/procurements/contracting-authorities/707/entities/1183/orgs/913562"
                }
              }
            },
            {
              "id": 913563,
              "name": "Presidencia ",
              "_links": {
                "self": {
                  "name": "Presidencia ",
                  "href": "https://api.euskadi.eus/procurements/contracting-authorities/707/entities/1183/orgs/913563"
                }
              }
            },
            {
              "id": 913564,
              "name": "Consejo de Administración",
              "_links": {
                "self": {
                  "name": "Consejo de Administración",
                  "href": "https://api.euskadi.eus/procurements/contracting-authorities/707/entities/1183/orgs/913564"
                }
              }
            }
          ],
          "_links": {
            "self": {
              "name": "Bilbao Zerbitzuak",
              "href": "https://api.euskadi.eus/procurements/contracting-authorities/707/entities/1183"
            }
          }
        }
      ],
      "mainEntityOfPage": "https://www.contratacion.euskadi.eus/webkpe00-kpeperfi/es/contenidos/poder_adjudicador/poder707/es_doc/es_arch_poder707.html",
      "_links": {
        "self": {
          "name": "Bilbao Zerbitzuak",
          "href": "https://api.euskadi.eus/procurements/contracting-authorities/707"
        }
      }
    },
    {
      "id": 708,
      "identificationNumber": "V75021196",
      "name": "Junta de Concertación de la UE 32.1 del AREA AU-32 \"ERREKARTE I\" de Beasain",
      "scope": "GIPUZKOA",
      "address": "Pº de Lugaritz, 21. 20009 Donostia/San Sebastián (Gipuzkoa)",
      "webPage": "https://www.contratacion.euskadi.eus",
      "publicationDate": "2019-11-06",
      "mainActivity": "Vivienda y servicios comunitarios",
      "codNUTS": "ES212",
      "entities": [
        {
          "id": 1184,
          "name": "Junta de Concertación de la UE 32.1 del AREA AU-32 \"ERREKARTE I\" de Beasain",
          "orgs": [
            {
              "id": 913565,
              "name": "Asamblea General",
              "_links": {
                "self": {
                  "name": "Asamblea General",
                  "href": "https://api.euskadi.eus/procurements/contracting-authorities/708/entities/1184/orgs/913565"
                }
              }
            }
          ],
          "_links": {
            "self": {
              "name": "Junta de Concertación de la UE 32.1 del AREA AU-32 \"ERREKARTE I\" de Beasain",
              "href": "https://api.euskadi.eus/procurements/contracting-authorities/708/entities/1184"
            }
          }
        }
      ],
      "mainEntityOfPage": "https://www.contratacion.euskadi.eus/webkpe00-kpeperfi/es/contenidos/poder_adjudicador/poder708/es_doc/es_arch_poder708.html",
      "_links": {
        "self": {
          "name": "Junta de Concertación de la UE 32.1 del AREA AU-32 \"ERREKARTE I\" de Beasain",
          "href": "https://api.euskadi.eus/procurements/contracting-authorities/708"
        }
      }
    },
    {
      "id": 284,
      "identificationNumber": "P4800100B",
      "name": "Ayuntamiento de la Anteiglesia de Abadiño",
      "scope": "BIZKAIA",
      "address": "San Trokaz plaza, 1. 48220 Abadiño (Bizkaia)",
      "webPage": "http://www.abadino.org",
      "publicationDate": "2019-10-30",
      "mainActivity": "Servicios públicos generales",
      "codNUTS": "ES213",
      "entities": [
        {
          "id": 732,
          "name": "Ayuntamiento de la Anteiglesia de Abadiño",
          "orgs": [
            {
              "id": 912169,
              "name": "Alcaldía",
              "_links": {
                "self": {
                  "name": "Alcaldía",
                  "href": "https://api.euskadi.eus/procurements/contracting-authorities/284/entities/732/orgs/912169"
                }
              }
            },
            {
              "id": 912170,
              "name": "Pleno",
              "_links": {
                "self": {
                  "name": "Pleno",
                  "href": "https://api.euskadi.eus/procurements/contracting-authorities/284/entities/732/orgs/912170"
                }
              }
            }
          ],
          "_links": {
            "self": {
              "name": "Ayuntamiento de la Anteiglesia de Abadiño",
              "href": "https://api.euskadi.eus/procurements/contracting-authorities/284/entities/732"
            }
          }
        }
      ],
      "mainEntityOfPage": "https://www.contratacion.euskadi.eus/webkpe00-kpeperfi/es/contenidos/poder_adjudicador/poder284/es_doc/es_arch_poder284.html",
      "_links": {
        "self": {
          "name": "Ayuntamiento de la Anteiglesia de Abadiño",
          "href": "https://api.euskadi.eus/procurements/contracting-authorities/284"
        }
      }
    },
    {
      "id": 706,
      "identificationNumber": "P0100042A",
      "name": "Junta Administrativa de Egileta",
      "scope": "ARABA/ÁLAVA",
      "address": "Egileta. 01193 Alegria-Dulantzi (Araba/Álava)",
      "webPage": "https://www.contratacion.euskadi.eus",
      "publicationDate": "2019-10-30",
      "mainActivity": "Servicios públicos generales",
      "codNUTS": "ES211",
      "entities": [
        {
          "id": 1182,
          "name": "Junta Administrativa de Egileta ",
          "orgs": [
            {
              "id": 913561,
              "name": "Concejo de Egileta",
              "_links": {
                "self": {
                  "name": "Concejo de Egileta",
                  "href": "https://api.euskadi.eus/procurements/contracting-authorities/706/entities/1182/orgs/913561"
                }
              }
            }
          ],
          "_links": {
            "self": {
              "name": "Junta Administrativa de Egileta ",
              "href": "https://api.euskadi.eus/procurements/contracting-authorities/706/entities/1182"
            }
          }
        }
      ],
      "mainEntityOfPage": "https://www.contratacion.euskadi.eus/webkpe00-kpeperfi/es/contenidos/poder_adjudicador/poder706/es_doc/es_arch_poder706.html",
      "_links": {
        "self": {
          "name": "Junta Administrativa de Egileta",
          "href": "https://api.euskadi.eus/procurements/contracting-authorities/706"
        }
      }
    },
    {
      "id": 705,
      "identificationNumber": "G01053743",
      "name": "Comunidad de Regantes El Risco",
      "scope": "ARABA/ÁLAVA",
      "address": "Parque José Antonio Aguirre, bajo 5°. 01306 Lapuebla de Labarca (Araba/Álava)",
      "webPage": "https://www.contratacion.euskadi.eus",
      "publicationDate": "2019-10-28",
      "mainActivity": "Medio ambiente",
      "codNUTS": "ES211",
      "entities": [
        {
          "id": 1181,
          "name": "Comunidad de Regantes El Risco",
          "orgs": [
            {
              "id": 913560,
              "name": "Junta de Gobierno ",
              "_links": {
                "self": {
                  "name": "Junta de Gobierno ",
                  "href": "https://api.euskadi.eus/procurements/contracting-authorities/705/entities/1181/orgs/913560"
                }
              }
            }
          ],
          "_links": {
            "self": {
              "name": "Comunidad de Regantes El Risco",
              "href": "https://api.euskadi.eus/procurements/contracting-authorities/705/entities/1181"
            }
          }
        }
      ],
      "mainEntityOfPage": "https://www.contratacion.euskadi.eus/webkpe00-kpeperfi/es/contenidos/poder_adjudicador/poder705/es_doc/es_arch_poder705.html",
      "_links": {
        "self": {
          "name": "Comunidad de Regantes El Risco",
          "href": "https://api.euskadi.eus/procurements/contracting-authorities/705"
        }
      }
    }
  ]
}