{
  "totalItems": 919,
  "totalPages": 92,
  "currentPage": 69,
  "itemsOfPage": 10,
  "items": [
    {
      "id": 619,
      "identificationNumber": "A01361237",
      "name": "ARABAT, Vías de Álava S.A.",
      "scope": "ARABA/ÁLAVA",
      "address": "Vicente Goikoetxea 1, 1º oficina 4 01008 Vitoria-Gasteiz (Araba/Álava) ",
      "webPage": "http://www.arabat.org",
      "publicationDate": "2019-10-04",
      "mainActivity": "Otra actividad",
      "alternativeActivity": "Transportes ",
      "codNUTS": "ES211",
      "entities": [
        {
          "id": 1070,
          "name": "ARABAT, Vías de Álava S.A.",
          "orgs": [
            {
              "id": 912792,
              "name": "Consejo de Administración",
              "_links": {
                "self": {
                  "name": "Consejo de Administración",
                  "href": "https://api.euskadi.eus/procurements/contracting-authorities/619/entities/1070/orgs/912792"
                }
              }
            },
            {
              "id": 912791,
              "name": "Consejera-Delegada",
              "_links": {
                "self": {
                  "name": "Consejera-Delegada",
                  "href": "https://api.euskadi.eus/procurements/contracting-authorities/619/entities/1070/orgs/912791"
                }
              }
            },
            {
              "id": 26474,
              "name": "Director - Gerente ",
              "_links": {
                "self": {
                  "name": "Director - Gerente ",
                  "href": "https://api.euskadi.eus/procurements/contracting-authorities/619/entities/1070/orgs/26474"
                }
              }
            }
          ],
          "_links": {
            "self": {
              "name": "ARABAT, Vías de Álava S.A.",
              "href": "https://api.euskadi.eus/procurements/contracting-authorities/619/entities/1070"
            }
          }
        }
      ],
      "mainEntityOfPage": "https://www.contratacion.euskadi.eus/webkpe00-kpeperfi/es/contenidos/poder_adjudicador/poder619/es_doc/es_arch_poder619.html",
      "_links": {
        "self": {
          "name": "ARABAT, Vías de Álava S.A.",
          "href": "https://api.euskadi.eus/procurements/contracting-authorities/619"
        }
      }
    },
    {
      "id": 629,
      "identificationNumber": "P0105500C",
      "name": "Ayuntamiento de Añana",
      "scope": "ARABA/ÁLAVA",
      "address": "Plaza D. Miguel Díaz de Tuesta, s/n. 01426 Salinas de Añana. Añana (Araba/Álava)",
      "webPage": "http://www.añanagesaltzaudala.eus",
      "publicationDate": "2019-10-04",
      "mainActivity": "Servicios públicos generales",
      "codNUTS": "ES211",
      "entities": [
        {
          "id": 1080,
          "name": "Ayuntamiento de Añana",
          "orgs": [
            {
              "id": 912804,
              "name": "Alcaldía",
              "_links": {
                "self": {
                  "name": "Alcaldía",
                  "href": "https://api.euskadi.eus/procurements/contracting-authorities/629/entities/1080/orgs/912804"
                }
              }
            },
            {
              "id": 912805,
              "name": "Pleno",
              "_links": {
                "self": {
                  "name": "Pleno",
                  "href": "https://api.euskadi.eus/procurements/contracting-authorities/629/entities/1080/orgs/912805"
                }
              }
            }
          ],
          "_links": {
            "self": {
              "name": "Ayuntamiento de Añana",
              "href": "https://api.euskadi.eus/procurements/contracting-authorities/629/entities/1080"
            }
          }
        }
      ],
      "mainEntityOfPage": "https://www.contratacion.euskadi.eus/webkpe00-kpeperfi/es/contenidos/poder_adjudicador/poder629/es_doc/es_arch_poder629.html",
      "_links": {
        "self": {
          "name": "Ayuntamiento de Añana",
          "href": "https://api.euskadi.eus/procurements/contracting-authorities/629"
        }
      }
    },
    {
      "id": 638,
      "identificationNumber": "P0100277C",
      "name": "Junta Administrativa de Maturana",
      "scope": "ARABA/ÁLAVA",
      "address": "Sagasti zahar kalea,1. Maturana 01206 Barrundia (Araba/Álava)   ",
      "webPage": "http://www.contratacion.euskadi.eus",
      "publicationDate": "2019-10-04",
      "mainActivity": "Servicios públicos generales",
      "codNUTS": "ES211",
      "entities": [
        {
          "id": 1086,
          "name": "Junta Administrativa de Maturana",
          "orgs": [
            {
              "id": 912812,
              "name": "Concejo",
              "_links": {
                "self": {
                  "name": "Concejo",
                  "href": "https://api.euskadi.eus/procurements/contracting-authorities/638/entities/1086/orgs/912812"
                }
              }
            }
          ],
          "_links": {
            "self": {
              "name": "Junta Administrativa de Maturana",
              "href": "https://api.euskadi.eus/procurements/contracting-authorities/638/entities/1086"
            }
          }
        }
      ],
      "mainEntityOfPage": "https://www.contratacion.euskadi.eus/webkpe00-kpeperfi/es/contenidos/poder_adjudicador/poder638/es_doc/es_arch_poder638.html",
      "_links": {
        "self": {
          "name": "Junta Administrativa de Maturana",
          "href": "https://api.euskadi.eus/procurements/contracting-authorities/638"
        }
      }
    },
    {
      "id": 639,
      "identificationNumber": "P0100219E",
      "name": "Junta Administrativa de Lagrán",
      "scope": "ARABA/ÁLAVA",
      "address": "Avenida de Vitoria, 57.01118 Lagrán (Araba/Álava)",
      "webPage": "http://www.contratacion.euskadi.eus",
      "publicationDate": "2019-10-04",
      "mainActivity": "Servicios públicos generales",
      "codNUTS": "ES211",
      "entities": [
        {
          "id": 1087,
          "name": "Junta Administrativa de Lagrán",
          "orgs": [
            {
              "id": 912815,
              "name": "Asamblea vecinal del concejo abierto de Lagrán-Regidor-Presidente de Lagrán",
              "_links": {
                "self": {
                  "name": "Asamblea vecinal del concejo abierto de Lagrán-Regidor-Presidente de Lagrán",
                  "href": "https://api.euskadi.eus/procurements/contracting-authorities/639/entities/1087/orgs/912815"
                }
              }
            }
          ],
          "_links": {
            "self": {
              "name": "Junta Administrativa de Lagrán",
              "href": "https://api.euskadi.eus/procurements/contracting-authorities/639/entities/1087"
            }
          }
        }
      ],
      "mainEntityOfPage": "https://www.contratacion.euskadi.eus/webkpe00-kpeperfi/es/contenidos/poder_adjudicador/poder639/es_doc/es_arch_poder639.html",
      "_links": {
        "self": {
          "name": "Junta Administrativa de Lagrán",
          "href": "https://api.euskadi.eus/procurements/contracting-authorities/639"
        }
      }
    },
    {
      "id": 640,
      "identificationNumber": "P2007300C",
      "name": "Ayuntamiento de Leintz Gatzaga",
      "scope": "GIPUZKOA",
      "address": "Plaza San Miguel, 2. 20530 Leintz Gatzaga (Gipuzkoa)",
      "webPage": "http://www.leintzgatzaga.eus",
      "publicationDate": "2019-10-04",
      "mainActivity": "Servicios públicos generales",
      "codNUTS": "ES212",
      "entities": [
        {
          "id": 1088,
          "name": "Ayuntamiento de Leintz Gatzaga",
          "orgs": [
            {
              "id": 912816,
              "name": "Pleno",
              "_links": {
                "self": {
                  "name": "Pleno",
                  "href": "https://api.euskadi.eus/procurements/contracting-authorities/640/entities/1088/orgs/912816"
                }
              }
            },
            {
              "id": 912817,
              "name": "Alcaldia",
              "_links": {
                "self": {
                  "name": "Alcaldia",
                  "href": "https://api.euskadi.eus/procurements/contracting-authorities/640/entities/1088/orgs/912817"
                }
              }
            }
          ],
          "_links": {
            "self": {
              "name": "Ayuntamiento de Leintz Gatzaga",
              "href": "https://api.euskadi.eus/procurements/contracting-authorities/640/entities/1088"
            }
          }
        }
      ],
      "mainEntityOfPage": "https://www.contratacion.euskadi.eus/webkpe00-kpeperfi/es/contenidos/poder_adjudicador/poder640/es_doc/es_arch_poder640.html",
      "_links": {
        "self": {
          "name": "Ayuntamiento de Leintz Gatzaga",
          "href": "https://api.euskadi.eus/procurements/contracting-authorities/640"
        }
      }
    },
    {
      "id": 644,
      "identificationNumber": "G75203687",
      "name": "Fundación de Cambio Climático de Gipuzkoa",
      "scope": "GIPUZKOA",
      "address": "Plaza Gipuzkoa, s/n. 20004 Donostia/San Sebastián (Gipuzkoa)  ",
      "webPage": "http://www.naturklima.eus",
      "publicationDate": "2019-10-04",
      "mainActivity": "Medio ambiente",
      "codNUTS": "ES212",
      "entities": [
        {
          "id": 1093,
          "name": "Fundación de Cambio Climático de Gipuzkoa",
          "orgs": [
            {
              "id": 912823,
              "name": "Patronato - Fundación de Cambio Climático de Gipuzkoa",
              "_links": {
                "self": {
                  "name": "Patronato - Fundación de Cambio Climático de Gipuzkoa",
                  "href": "https://api.euskadi.eus/procurements/contracting-authorities/644/entities/1093/orgs/912823"
                }
              }
            }
          ],
          "_links": {
            "self": {
              "name": "Fundación de Cambio Climático de Gipuzkoa",
              "href": "https://api.euskadi.eus/procurements/contracting-authorities/644/entities/1093"
            }
          }
        }
      ],
      "mainEntityOfPage": "https://www.contratacion.euskadi.eus/webkpe00-kpeperfi/es/contenidos/poder_adjudicador/poder644/es_doc/es_arch_poder644.html",
      "_links": {
        "self": {
          "name": "Fundación de Cambio Climático de Gipuzkoa",
          "href": "https://api.euskadi.eus/procurements/contracting-authorities/644"
        }
      }
    },
    {
      "id": 645,
      "identificationNumber": "P0100012D",
      "name": "Junta Administrativa de Axpuru",
      "scope": "ARABA/ÁLAVA",
      "address": "Olabaso, 6. Axpuru. 01208 San Millán (Araba/Álava)",
      "webPage": "http://www.contratacion.euskadi.eus",
      "publicationDate": "2019-10-04",
      "mainActivity": "Servicios públicos generales",
      "codNUTS": "ES211",
      "entities": [
        {
          "id": 1094,
          "name": "Junta Administrativa de Axpuru",
          "orgs": [
            {
              "id": 912824,
              "name": "Concejo ",
              "_links": {
                "self": {
                  "name": "Concejo ",
                  "href": "https://api.euskadi.eus/procurements/contracting-authorities/645/entities/1094/orgs/912824"
                }
              }
            }
          ],
          "_links": {
            "self": {
              "name": "Junta Administrativa de Axpuru",
              "href": "https://api.euskadi.eus/procurements/contracting-authorities/645/entities/1094"
            }
          }
        }
      ],
      "mainEntityOfPage": "https://www.contratacion.euskadi.eus/webkpe00-kpeperfi/es/contenidos/poder_adjudicador/poder645/es_doc/es_arch_poder645.html",
      "_links": {
        "self": {
          "name": "Junta Administrativa de Axpuru",
          "href": "https://api.euskadi.eus/procurements/contracting-authorities/645"
        }
      }
    },
    {
      "id": 646,
      "identificationNumber": "P0100064E",
      "name": "Junta Administrativa de Bitoriano",
      "scope": "ARABA/ÁLAVA",
      "address": "Eskolako Plaza, 1. Bitoriano. 01139 Zuia (Araba/Álava)",
      "webPage": "http://www.contratacion.euskadi.eus",
      "publicationDate": "2019-10-04",
      "mainActivity": "Servicios públicos generales",
      "codNUTS": "ES211",
      "entities": [
        {
          "id": 1095,
          "name": "Junta Administrativa de Bitoriano",
          "orgs": [
            {
              "id": 912825,
              "name": "Concejo ",
              "_links": {
                "self": {
                  "name": "Concejo ",
                  "href": "https://api.euskadi.eus/procurements/contracting-authorities/646/entities/1095/orgs/912825"
                }
              }
            }
          ],
          "_links": {
            "self": {
              "name": "Junta Administrativa de Bitoriano",
              "href": "https://api.euskadi.eus/procurements/contracting-authorities/646/entities/1095"
            }
          }
        }
      ],
      "mainEntityOfPage": "https://www.contratacion.euskadi.eus/webkpe00-kpeperfi/es/contenidos/poder_adjudicador/poder646/es_doc/es_arch_poder646.html",
      "_links": {
        "self": {
          "name": "Junta Administrativa de Bitoriano",
          "href": "https://api.euskadi.eus/procurements/contracting-authorities/646"
        }
      }
    },
    {
      "id": 648,
      "identificationNumber": "P0105200J",
      "name": "Ayuntamiento de Erriberagoitia/Ribera Alta",
      "scope": "ARABA/ÁLAVA",
      "address": "Alava, 2. 01420 Pobes (Araba/Alava)",
      "webPage": "http://www.erriberagoitia.com",
      "publicationDate": "2019-10-04",
      "mainActivity": "Servicios públicos generales",
      "codNUTS": "ES211",
      "entities": [
        {
          "id": 1097,
          "name": "Ayuntamiento de Erriberagoitia/Ribera Alta",
          "orgs": [
            {
              "id": 912827,
              "name": "Pleno",
              "_links": {
                "self": {
                  "name": "Pleno",
                  "href": "https://api.euskadi.eus/procurements/contracting-authorities/648/entities/1097/orgs/912827"
                }
              }
            }
          ],
          "_links": {
            "self": {
              "name": "Ayuntamiento de Erriberagoitia/Ribera Alta",
              "href": "https://api.euskadi.eus/procurements/contracting-authorities/648/entities/1097"
            }
          }
        }
      ],
      "mainEntityOfPage": "https://www.contratacion.euskadi.eus/webkpe00-kpeperfi/es/contenidos/poder_adjudicador/poder648/es_doc/es_arch_poder648.html",
      "_links": {
        "self": {
          "name": "Ayuntamiento de Erriberagoitia/Ribera Alta",
          "href": "https://api.euskadi.eus/procurements/contracting-authorities/648"
        }
      }
    },
    {
      "id": 650,
      "identificationNumber": "P2006000J",
      "name": "Ayuntamiento de Mutriku",
      "scope": "GIPUZKOA",
      "address": "Txurruka Plaza, z/g. 20830 Mutriku (Gipuzkoa)",
      "webPage": "http://www.mutriku.eus",
      "publicationDate": "2019-10-04",
      "mainActivity": "Servicios públicos generales",
      "codNUTS": "ES212",
      "entities": [
        {
          "id": 1099,
          "name": "Ayuntamiento de Mutriku",
          "orgs": [
            {
              "id": 912828,
              "name": "Alcaldia",
              "_links": {
                "self": {
                  "name": "Alcaldia",
                  "href": "https://api.euskadi.eus/procurements/contracting-authorities/650/entities/1099/orgs/912828"
                }
              }
            }
          ],
          "_links": {
            "self": {
              "name": "Ayuntamiento de Mutriku",
              "href": "https://api.euskadi.eus/procurements/contracting-authorities/650/entities/1099"
            }
          }
        }
      ],
      "mainEntityOfPage": "https://www.contratacion.euskadi.eus/webkpe00-kpeperfi/es/contenidos/poder_adjudicador/poder650/es_doc/es_arch_poder650.html",
      "_links": {
        "self": {
          "name": "Ayuntamiento de Mutriku",
          "href": "https://api.euskadi.eus/procurements/contracting-authorities/650"
        }
      }
    }
  ]
}