{
  "totalItems": 919,
  "totalPages": 92,
  "currentPage": 58,
  "itemsOfPage": 10,
  "items": [
    {
      "id": 632,
      "identificationNumber": "A48454722",
      "name": "Gatikako Herri Sustapenak S.A.",
      "scope": "BIZKAIA",
      "address": "Barrio Garai, s/n. 48110 Gatika (Bizkaia)",
      "webPage": "http://www.gatika.eus",
      "publicationDate": "2019-10-07",
      "mainActivity": "Vivienda y servicios comunitarios",
      "codNUTS": "ES213",
      "entities": [
        {
          "id": 1082,
          "name": "Gatikako Herri Sustapenak S.A.",
          "orgs": [
            {
              "id": 912808,
              "name": "Consejo de Administración",
              "_links": {
                "self": {
                  "name": "Consejo de Administración",
                  "href": "https://api.euskadi.eus/procurements/contracting-authorities/632/entities/1082/orgs/912808"
                }
              }
            }
          ],
          "_links": {
            "self": {
              "name": "Gatikako Herri Sustapenak S.A.",
              "href": "https://api.euskadi.eus/procurements/contracting-authorities/632/entities/1082"
            }
          }
        }
      ],
      "mainEntityOfPage": "https://www.contratacion.euskadi.eus/webkpe00-kpeperfi/es/contenidos/poder_adjudicador/poder632/es_doc/es_arch_poder632.html",
      "_links": {
        "self": {
          "name": "Gatikako Herri Sustapenak S.A.",
          "href": "https://api.euskadi.eus/procurements/contracting-authorities/632"
        }
      }
    },
    {
      "id": 643,
      "identificationNumber": "V95485736",
      "name": "Mancomunidad de Servicios Uribe Butroe",
      "scope": "BIZKAIA",
      "address": "Erdigune, 68. 48112 Maruri-Jatabe (Bizkaia)",
      "webPage": "http://www.uribebutroe.eus",
      "publicationDate": "2019-10-07",
      "mainActivity": "Medio ambiente",
      "codNUTS": "ES213",
      "entities": [
        {
          "id": 1092,
          "name": "Mancomunidad de Servicios Uribe Butroe ",
          "orgs": [
            {
              "id": 912822,
              "name": "Presidente/a y Miembros de la junta de la Mancomunidad",
              "_links": {
                "self": {
                  "name": "Presidente/a y Miembros de la junta de la Mancomunidad",
                  "href": "https://api.euskadi.eus/procurements/contracting-authorities/643/entities/1092/orgs/912822"
                }
              }
            }
          ],
          "_links": {
            "self": {
              "name": "Mancomunidad de Servicios Uribe Butroe ",
              "href": "https://api.euskadi.eus/procurements/contracting-authorities/643/entities/1092"
            }
          }
        }
      ],
      "mainEntityOfPage": "https://www.contratacion.euskadi.eus/webkpe00-kpeperfi/es/contenidos/poder_adjudicador/poder643/es_doc/es_arch_poder643.html",
      "_links": {
        "self": {
          "name": "Mancomunidad de Servicios Uribe Butroe",
          "href": "https://api.euskadi.eus/procurements/contracting-authorities/643"
        }
      }
    },
    {
      "id": 664,
      "identificationNumber": "G95222949",
      "name": "Fundación Museo de la Paz. Gernika 1937",
      "scope": "BIZKAIA",
      "address": "Foru Plaza, 1. 48300 Gernika-Lumo (Bizkaia)",
      "webPage": "http://www.museodelapaz.org",
      "publicationDate": "2019-10-07",
      "mainActivity": "Ocio, cultura y religión",
      "codNUTS": "ES213",
      "entities": [
        {
          "id": 1114,
          "name": "Fundación Museo de la Paz. Gernika 1937",
          "orgs": [
            {
              "id": 912852,
              "name": "Patronato de la Fundación",
              "_links": {
                "self": {
                  "name": "Patronato de la Fundación",
                  "href": "https://api.euskadi.eus/procurements/contracting-authorities/664/entities/1114/orgs/912852"
                }
              }
            }
          ],
          "_links": {
            "self": {
              "name": "Fundación Museo de la Paz. Gernika 1937",
              "href": "https://api.euskadi.eus/procurements/contracting-authorities/664/entities/1114"
            }
          }
        }
      ],
      "mainEntityOfPage": "https://www.contratacion.euskadi.eus/webkpe00-kpeperfi/es/contenidos/poder_adjudicador/poder664/es_doc/es_arch_poder664.html",
      "_links": {
        "self": {
          "name": "Fundación Museo de la Paz. Gernika 1937",
          "href": "https://api.euskadi.eus/procurements/contracting-authorities/664"
        }
      }
    },
    {
      "id": 667,
      "identificationNumber": "Q4800646D",
      "name": "Delegación en Bizkaia de Loterías y Apuestas del Estado S.E.L.A.E.",
      "scope": "BIZKAIA",
      "address": "Diputación, 4. 48009 Bilbao (Bizkaia)",
      "webPage": "http://www.contratacion.euskadi.eus",
      "publicationDate": "2019-10-07",
      "mainActivity": "Asuntos económicos y financieros",
      "codNUTS": "ES213",
      "entities": [
        {
          "id": 1117,
          "name": "Delegación en Bizkaia de S.E.L.A.E.",
          "orgs": [
            {
              "id": 912855,
              "name": "Gerente",
              "_links": {
                "self": {
                  "name": "Gerente",
                  "href": "https://api.euskadi.eus/procurements/contracting-authorities/667/entities/1117/orgs/912855"
                }
              }
            }
          ],
          "_links": {
            "self": {
              "name": "Delegación en Bizkaia de S.E.L.A.E.",
              "href": "https://api.euskadi.eus/procurements/contracting-authorities/667/entities/1117"
            }
          }
        }
      ],
      "mainEntityOfPage": "https://www.contratacion.euskadi.eus/webkpe00-kpeperfi/es/contenidos/poder_adjudicador/poder667/es_doc/es_arch_poder667.html",
      "_links": {
        "self": {
          "name": "Delegación en Bizkaia de Loterías y Apuestas del Estado S.E.L.A.E.",
          "href": "https://api.euskadi.eus/procurements/contracting-authorities/667"
        }
      }
    },
    {
      "id": 682,
      "identificationNumber": "V95908315",
      "name": "Junta de Concertación de la UE UER-71 de Gernika-Lumo",
      "scope": "BIZKAIA",
      "address": "Lurgorri, 3-bajo. 48300 Gernika-Lumo (Bizkaia)",
      "webPage": "http://www.contratacion.euskadi.eus",
      "publicationDate": "2019-10-07",
      "mainActivity": "Vivienda y servicios comunitarios",
      "codNUTS": "ES213",
      "entities": [
        {
          "id": 1145,
          "name": "Junta de Concertación de la UE UER-71 de Gernika-Lumo",
          "orgs": [
            {
              "id": 913473,
              "name": "Asamblea General",
              "_links": {
                "self": {
                  "name": "Asamblea General",
                  "href": "https://api.euskadi.eus/procurements/contracting-authorities/682/entities/1145/orgs/913473"
                }
              }
            }
          ],
          "_links": {
            "self": {
              "name": "Junta de Concertación de la UE UER-71 de Gernika-Lumo",
              "href": "https://api.euskadi.eus/procurements/contracting-authorities/682/entities/1145"
            }
          }
        }
      ],
      "mainEntityOfPage": "https://www.contratacion.euskadi.eus/webkpe00-kpeperfi/es/contenidos/poder_adjudicador/poder682/es_doc/es_arch_poder682.html",
      "_links": {
        "self": {
          "name": "Junta de Concertación de la UE UER-71 de Gernika-Lumo",
          "href": "https://api.euskadi.eus/procurements/contracting-authorities/682"
        }
      }
    },
    {
      "id": 683,
      "identificationNumber": "G95551149",
      "name": "Junta de Concertación de la UE UER-77 de Gernika-Lumo",
      "scope": "BIZKAIA",
      "address": "Barrio Arana,18 bajo. 48300 Gernika-Lumo (Bizkaia)",
      "webPage": "http://www.contratacion.euskadi.eus",
      "publicationDate": "2019-10-07",
      "mainActivity": "Servicios públicos generales",
      "codNUTS": "ES213",
      "entities": [
        {
          "id": 1146,
          "name": "Junta de Concertación de la UE UER-77 de Gernika-Lumo",
          "orgs": [
            {
              "id": 913474,
              "name": "Asamblea General",
              "_links": {
                "self": {
                  "name": "Asamblea General",
                  "href": "https://api.euskadi.eus/procurements/contracting-authorities/683/entities/1146/orgs/913474"
                }
              }
            }
          ],
          "_links": {
            "self": {
              "name": "Junta de Concertación de la UE UER-77 de Gernika-Lumo",
              "href": "https://api.euskadi.eus/procurements/contracting-authorities/683/entities/1146"
            }
          }
        }
      ],
      "mainEntityOfPage": "https://www.contratacion.euskadi.eus/webkpe00-kpeperfi/es/contenidos/poder_adjudicador/poder683/es_doc/es_arch_poder683.html",
      "_links": {
        "self": {
          "name": "Junta de Concertación de la UE UER-77 de Gernika-Lumo",
          "href": "https://api.euskadi.eus/procurements/contracting-authorities/683"
        }
      }
    },
    {
      "id": 687,
      "identificationNumber": "V95964888",
      "name": "Entidad Urbanística Colaboradora de la Unidad de Ejecución del ámbito A 05 \"Lomi Power\" de Ermua",
      "scope": "BIZKAIA",
      "address": "Marqués de Valdespina, 1. 48620 Ermua (Bizkaia)",
      "webPage": "http://www.contratacion.euskadi.eus",
      "publicationDate": "2019-10-07",
      "mainActivity": "Otra actividad",
      "alternativeActivity": "Obras de urbanización ",
      "codNUTS": "ES213",
      "entities": [
        {
          "id": 1150,
          "name": "EUC AO5 Lomi Power",
          "orgs": [
            {
              "id": 913479,
              "name": "Asamblea General de la Entidad Urbanística",
              "_links": {
                "self": {
                  "name": "Asamblea General de la Entidad Urbanística",
                  "href": "https://api.euskadi.eus/procurements/contracting-authorities/687/entities/1150/orgs/913479"
                }
              }
            }
          ],
          "_links": {
            "self": {
              "name": "EUC AO5 Lomi Power",
              "href": "https://api.euskadi.eus/procurements/contracting-authorities/687/entities/1150"
            }
          }
        }
      ],
      "mainEntityOfPage": "https://www.contratacion.euskadi.eus/webkpe00-kpeperfi/es/contenidos/poder_adjudicador/poder687/es_doc/es_arch_poder687.html",
      "_links": {
        "self": {
          "name": "Entidad Urbanística Colaboradora de la Unidad de Ejecución del ámbito A 05 \"Lomi Power\" de Ermua",
          "href": "https://api.euskadi.eus/procurements/contracting-authorities/687"
        }
      }
    },
    {
      "id": 690,
      "identificationNumber": "P9800002I",
      "name": "Consorcio para la educación compensatoria de Bizkaia",
      "scope": "BIZKAIA",
      "address": "Asturias, 9-2º planta. 48015 Bilbao (Bizkaia)",
      "webPage": "http://www.oshekonbizkaia.eus",
      "publicationDate": "2019-10-07",
      "mainActivity": "Educación",
      "codNUTS": "ES213",
      "entities": [
        {
          "id": 1153,
          "name": "Consorcio para la educación compensatoria de Bizkaia",
          "orgs": [
            {
              "id": 913483,
              "name": "Presidenta",
              "_links": {
                "self": {
                  "name": "Presidenta",
                  "href": "https://api.euskadi.eus/procurements/contracting-authorities/690/entities/1153/orgs/913483"
                }
              }
            },
            {
              "id": 913484,
              "name": "Gerente",
              "_links": {
                "self": {
                  "name": "Gerente",
                  "href": "https://api.euskadi.eus/procurements/contracting-authorities/690/entities/1153/orgs/913484"
                }
              }
            },
            {
              "id": 913482,
              "name": "Junta de Gobierno",
              "_links": {
                "self": {
                  "name": "Junta de Gobierno",
                  "href": "https://api.euskadi.eus/procurements/contracting-authorities/690/entities/1153/orgs/913482"
                }
              }
            }
          ],
          "_links": {
            "self": {
              "name": "Consorcio para la educación compensatoria de Bizkaia",
              "href": "https://api.euskadi.eus/procurements/contracting-authorities/690/entities/1153"
            }
          }
        }
      ],
      "mainEntityOfPage": "https://www.contratacion.euskadi.eus/webkpe00-kpeperfi/es/contenidos/poder_adjudicador/poder690/es_doc/es_arch_poder690.html",
      "_links": {
        "self": {
          "name": "Consorcio para la educación compensatoria de Bizkaia",
          "href": "https://api.euskadi.eus/procurements/contracting-authorities/690"
        }
      }
    },
    {
      "id": 692,
      "identificationNumber": "A48457238",
      "name": "Teatro Barakaldo",
      "scope": "BIZKAIA",
      "address": "Elcano, 4. 48901 Barakaldo (Bizkaia)",
      "webPage": "http://www.teatrobarakaldo.com",
      "publicationDate": "2019-10-07",
      "mainActivity": "Ocio, cultura y religión",
      "codNUTS": "ES213",
      "entities": [
        {
          "id": 1165,
          "name": "Teatro Barakaldo",
          "orgs": [
            {
              "id": 913540,
              "name": "Director",
              "_links": {
                "self": {
                  "name": "Director",
                  "href": "https://api.euskadi.eus/procurements/contracting-authorities/692/entities/1165/orgs/913540"
                }
              }
            }
          ],
          "_links": {
            "self": {
              "name": "Teatro Barakaldo",
              "href": "https://api.euskadi.eus/procurements/contracting-authorities/692/entities/1165"
            }
          }
        }
      ],
      "mainEntityOfPage": "https://www.contratacion.euskadi.eus/webkpe00-kpeperfi/es/contenidos/poder_adjudicador/poder692/es_doc/es_arch_poder692.html",
      "_links": {
        "self": {
          "name": "Teatro Barakaldo",
          "href": "https://api.euskadi.eus/procurements/contracting-authorities/692"
        }
      }
    },
    {
      "id": 696,
      "identificationNumber": "G48409585",
      "name": "Asociación de Desarrollo Rural Gorbeialde",
      "scope": "BIZKAIA",
      "address": "Askatasun, 34-A. 48143 Areatza (Bizkaia)",
      "webPage": "http://www.gorbeialdea.com ",
      "publicationDate": "2019-10-07",
      "mainActivity": "Otra actividad",
      "alternativeActivity": "Promoción empresarial",
      "codNUTS": "ES213",
      "entities": [
        {
          "id": 1169,
          "name": "Asociación de Desarrollo Rural Gorbeialde",
          "orgs": [
            {
              "id": 913545,
              "name": "Junta directiva  ",
              "_links": {
                "self": {
                  "name": "Junta directiva  ",
                  "href": "https://api.euskadi.eus/procurements/contracting-authorities/696/entities/1169/orgs/913545"
                }
              }
            }
          ],
          "_links": {
            "self": {
              "name": "Asociación de Desarrollo Rural Gorbeialde",
              "href": "https://api.euskadi.eus/procurements/contracting-authorities/696/entities/1169"
            }
          }
        }
      ],
      "mainEntityOfPage": "https://www.contratacion.euskadi.eus/webkpe00-kpeperfi/es/contenidos/poder_adjudicador/poder696/es_doc/es_arch_poder696.html",
      "_links": {
        "self": {
          "name": "Asociación de Desarrollo Rural Gorbeialde",
          "href": "https://api.euskadi.eus/procurements/contracting-authorities/696"
        }
      }
    }
  ]
}