{
  "totalItems": 919,
  "totalPages": 92,
  "currentPage": 10,
  "itemsOfPage": 10,
  "items": [
    {
      "id": 26604,
      "identificationNumber": "A70948799",
      "name": "EUSKALMET-Agencia Vasca de Meteorología, S.A.",
      "scope": "ARABA/ÁLAVA",
      "address": "Portal de Foronda, 41, 01010, Vitoria-Gasteiz (Araba/Álava)",
      "webPage": "https://www.euskalmet.euskadi.eus/",
      "publicationDate": "2024-05-24",
      "mainActivity": "Medio ambiente",
      "codNUTS": "ES211",
      "entities": [
        {
          "id": 26605,
          "name": "EUSKALMET-Agencia Vasca de Meteorología, S.A.",
          "orgs": [
            {
              "id": 26606,
              "name": "Dirección ",
              "_links": {
                "self": {
                  "name": "Dirección ",
                  "href": "https://api.euskadi.eus/procurements/contracting-authorities/26604/entities/26605/orgs/26606"
                }
              }
            }
          ],
          "_links": {
            "self": {
              "name": "EUSKALMET-Agencia Vasca de Meteorología, S.A.",
              "href": "https://api.euskadi.eus/procurements/contracting-authorities/26604/entities/26605"
            }
          }
        }
      ],
      "mainEntityOfPage": "https://www.contratacion.euskadi.eus/webkpe00-kpeperfi/es/contenidos/poder_adjudicador/poder26604/es_doc/index.html",
      "_links": {
        "self": {
          "name": "EUSKALMET-Agencia Vasca de Meteorología, S.A.",
          "href": "https://api.euskadi.eus/procurements/contracting-authorities/26604"
        },
        "contractingAuthorities": [
          {
            "name": "Gobierno Vasco",
            "href": "https://api.euskadi.eus/procurements/contracting-authorities/16135"
          },
          {
            "name": "Gobierno Vasco",
            "href": "https://api.euskadi.eus/procurements/contracting-authorities/23041"
          },
          {
            "name": "Gobierno Vasco",
            "href": "https://api.euskadi.eus/procurements/contracting-authorities/25592"
          },
          {
            "name": "Gobierno Vasco",
            "href": "https://api.euskadi.eus/procurements/contracting-authorities/25998"
          },
          {
            "name": "Grupo Euskal Irrati Telebista",
            "href": "https://api.euskadi.eus/procurements/contracting-authorities/25674"
          }
        ]
      }
    },
    {
      "id": 64,
      "identificationNumber": "P2004500A",
      "name": "Ayuntamiento de Ibarra",
      "scope": "GIPUZKOA",
      "address": "Plaza San Bartolomé, 2. 20400 Ibarra (Gipuzkoa)",
      "webPage": "https://www.ibarra.eus/eu/udala",
      "publicationDate": "2024-05-23",
      "mainActivity": "Servicios públicos generales",
      "codNUTS": "ES212",
      "entities": [
        {
          "id": 364,
          "name": "Ayuntamiento de Ibarra",
          "orgs": [
            {
              "id": 911239,
              "name": "Junta de Gobierno Local",
              "_links": {
                "self": {
                  "name": "Junta de Gobierno Local",
                  "href": "https://api.euskadi.eus/procurements/contracting-authorities/64/entities/364/orgs/911239"
                }
              }
            },
            {
              "id": 911238,
              "name": "Alcalde",
              "_links": {
                "self": {
                  "name": "Alcalde",
                  "href": "https://api.euskadi.eus/procurements/contracting-authorities/64/entities/364/orgs/911238"
                }
              }
            },
            {
              "id": 911240,
              "name": "Pleno",
              "_links": {
                "self": {
                  "name": "Pleno",
                  "href": "https://api.euskadi.eus/procurements/contracting-authorities/64/entities/364/orgs/911240"
                }
              }
            }
          ],
          "_links": {
            "self": {
              "name": "Ayuntamiento de Ibarra",
              "href": "https://api.euskadi.eus/procurements/contracting-authorities/64/entities/364"
            }
          }
        }
      ],
      "mainEntityOfPage": "https://www.contratacion.euskadi.eus/webkpe00-kpeperfi/es/contenidos/poder_adjudicador/poder64/es_doc/index.html",
      "_links": {
        "self": {
          "name": "Ayuntamiento de Ibarra",
          "href": "https://api.euskadi.eus/procurements/contracting-authorities/64"
        }
      }
    },
    {
      "id": 765,
      "identificationNumber": "P2002200J",
      "name": "Ayuntamiento de Beizama",
      "scope": "GIPUZKOA",
      "address": "-",
      "webPage": "https://www.beizama.eus",
      "publicationDate": "2024-05-21",
      "mainActivity": "Servicios públicos generales",
      "codNUTS": "ES212",
      "entities": [
        {
          "id": 1264,
          "name": "Ayuntamiento de Beizama",
          "orgs": [
            {
              "id": 914287,
              "name": "Alcaldía",
              "_links": {
                "self": {
                  "name": "Alcaldía",
                  "href": "https://api.euskadi.eus/procurements/contracting-authorities/765/entities/1264/orgs/914287"
                }
              }
            },
            {
              "id": 26666,
              "name": "Pleno",
              "_links": {
                "self": {
                  "name": "Pleno",
                  "href": "https://api.euskadi.eus/procurements/contracting-authorities/765/entities/1264/orgs/26666"
                }
              }
            }
          ],
          "_links": {
            "self": {
              "name": "Ayuntamiento de Beizama",
              "href": "https://api.euskadi.eus/procurements/contracting-authorities/765/entities/1264"
            }
          }
        }
      ],
      "mainEntityOfPage": "https://www.contratacion.euskadi.eus/webkpe00-kpeperfi/es/contenidos/poder_adjudicador/poder765/es_doc/index.html",
      "_links": {
        "self": {
          "name": "Ayuntamiento de Beizama",
          "href": "https://api.euskadi.eus/procurements/contracting-authorities/765"
        }
      }
    },
    {
      "id": 729,
      "identificationNumber": "P0100038I",
      "name": "Junta Administrativa de Alegria-Dulantzi",
      "scope": "ARABA/ÁLAVA",
      "address": "Herriko Plaza, 1. 01240 Alegria-Dulantzi (Araba/Álava)",
      "webPage": "https://www.contratacion.euskadi.eus",
      "publicationDate": "2024-05-21",
      "mainActivity": "Servicios públicos generales",
      "codNUTS": "ES211",
      "entities": [
        {
          "id": 1206,
          "name": "Junta Administrativa de Alegria-Dulantzi ",
          "orgs": [
            {
              "id": 913612,
              "name": "Pleno",
              "_links": {
                "self": {
                  "name": "Pleno",
                  "href": "https://api.euskadi.eus/procurements/contracting-authorities/729/entities/1206/orgs/913612"
                }
              }
            }
          ],
          "_links": {
            "self": {
              "name": "Junta Administrativa de Alegria-Dulantzi ",
              "href": "https://api.euskadi.eus/procurements/contracting-authorities/729/entities/1206"
            }
          }
        }
      ],
      "mainEntityOfPage": "https://www.contratacion.euskadi.eus/webkpe00-kpeperfi/es/contenidos/poder_adjudicador/poder729/es_doc/index.html",
      "_links": {
        "self": {
          "name": "Junta Administrativa de Alegria-Dulantzi",
          "href": "https://api.euskadi.eus/procurements/contracting-authorities/729"
        }
      }
    },
    {
      "id": 637,
      "identificationNumber": "P0100320A",
      "name": "Junta Administrativa de Andollu",
      "scope": "ARABA/ÁLAVA",
      "address": "Única, 4. Andollu. 01193 Vitoria-Gasteiz (Araba/Álava)",
      "webPage": "http://www.contratacion.euskadi.eus",
      "publicationDate": "2024-05-21",
      "mainActivity": "Servicios públicos generales",
      "codNUTS": "ES211",
      "entities": [
        {
          "id": 1118,
          "name": "Junta Administrativa de Andollu",
          "orgs": [
            {
              "id": 912856,
              "name": "Asamblea vecinal",
              "_links": {
                "self": {
                  "name": "Asamblea vecinal",
                  "href": "https://api.euskadi.eus/procurements/contracting-authorities/637/entities/1118/orgs/912856"
                }
              }
            }
          ],
          "_links": {
            "self": {
              "name": "Junta Administrativa de Andollu",
              "href": "https://api.euskadi.eus/procurements/contracting-authorities/637/entities/1118"
            }
          }
        }
      ],
      "mainEntityOfPage": "https://www.contratacion.euskadi.eus/webkpe00-kpeperfi/es/contenidos/poder_adjudicador/poder637/es_doc/index.html",
      "_links": {
        "self": {
          "name": "Junta Administrativa de Andollu",
          "href": "https://api.euskadi.eus/procurements/contracting-authorities/637"
        }
      }
    },
    {
      "id": 588,
      "identificationNumber": "P0100287B",
      "name": "Junta Administrativa de Elorriaga",
      "scope": "ARABA/ÁLAVA",
      "address": "Elorriaga 20C. 01192 Elorriaga. Vitoria-Gasteiz (Araba/Álava)",
      "webPage": "http://www.contratacion.euskadi.eus",
      "publicationDate": "2024-05-21",
      "mainActivity": "Servicios públicos generales",
      "codNUTS": "ES211",
      "entities": [
        {
          "id": 1038,
          "name": "Junta Administrativa de Elorriaga",
          "orgs": [
            {
              "id": 912729,
              "name": "Concejo de Elorriaga",
              "_links": {
                "self": {
                  "name": "Concejo de Elorriaga",
                  "href": "https://api.euskadi.eus/procurements/contracting-authorities/588/entities/1038/orgs/912729"
                }
              }
            }
          ],
          "_links": {
            "self": {
              "name": "Junta Administrativa de Elorriaga",
              "href": "https://api.euskadi.eus/procurements/contracting-authorities/588/entities/1038"
            }
          }
        }
      ],
      "mainEntityOfPage": "https://www.contratacion.euskadi.eus/webkpe00-kpeperfi/es/contenidos/poder_adjudicador/poder588/es_doc/index.html",
      "_links": {
        "self": {
          "name": "Junta Administrativa de Elorriaga",
          "href": "https://api.euskadi.eus/procurements/contracting-authorities/588"
        }
      }
    },
    {
      "id": 26583,
      "identificationNumber": "G20780896",
      "name": "Fundación Elhuyar",
      "scope": "GIPUZKOA",
      "address": "Zelai handi 3. 20170 Usurbil - Gipuzkoa",
      "webPage": "https://www.elhuyar.eus",
      "publicationDate": "2024-05-15",
      "mainActivity": "Ocio, cultura y religión",
      "codNUTS": "ES212",
      "entities": [
        {
          "id": 26584,
          "name": "Fundación Elhuyar",
          "orgs": [
            {
              "id": 26585,
              "name": "Fundación Elhuyar",
              "_links": {
                "self": {
                  "name": "Fundación Elhuyar",
                  "href": "https://api.euskadi.eus/procurements/contracting-authorities/26583/entities/26584/orgs/26585"
                }
              }
            }
          ],
          "_links": {
            "self": {
              "name": "Fundación Elhuyar",
              "href": "https://api.euskadi.eus/procurements/contracting-authorities/26583/entities/26584"
            }
          }
        }
      ],
      "mainEntityOfPage": "https://www.contratacion.euskadi.eus/webkpe00-kpeperfi/es/contenidos/poder_adjudicador/poder26583/es_doc/index.html",
      "_links": {
        "self": {
          "name": "Fundación Elhuyar",
          "href": "https://api.euskadi.eus/procurements/contracting-authorities/26583"
        }
      }
    },
    {
      "id": 26579,
      "identificationNumber": "P0100213H",
      "name": "Junta Administrativa de Ibarguren",
      "scope": "ARABA/ÁLAVA",
      "address": "Calle San Martín, 4. 01260 Ibarguren. Aspárrena/ Álava",
      "webPage": "https://www.contratacion.euskadi.eus/KPELicitacion",
      "publicationDate": "2024-05-15",
      "mainActivity": "Servicios públicos generales",
      "codNUTS": "ES211",
      "entities": [
        {
          "id": 26580,
          "name": "Junta Administrativa de Ibarguren",
          "orgs": [
            {
              "id": 26581,
              "name": "Concejo de Ibarguren",
              "_links": {
                "self": {
                  "name": "Concejo de Ibarguren",
                  "href": "https://api.euskadi.eus/procurements/contracting-authorities/26579/entities/26580/orgs/26581"
                }
              }
            }
          ],
          "_links": {
            "self": {
              "name": "Junta Administrativa de Ibarguren",
              "href": "https://api.euskadi.eus/procurements/contracting-authorities/26579/entities/26580"
            }
          }
        }
      ],
      "mainEntityOfPage": "https://www.contratacion.euskadi.eus/webkpe00-kpeperfi/es/contenidos/poder_adjudicador/poder26579/es_doc/index.html",
      "_links": {
        "self": {
          "name": "Junta Administrativa de Ibarguren",
          "href": "https://api.euskadi.eus/procurements/contracting-authorities/26579"
        }
      }
    },
    {
      "id": 26575,
      "identificationNumber": "P0100220C",
      "name": "Junta Administrativa de Estarrona",
      "scope": "ARABA/ÁLAVA",
      "address": "Estarrona C.P. 01191 (Vitoria-Gasteiz, Álava/Araba)",
      "webPage": "https://www.contratacion.euskadi.eus/KPELicitacion",
      "publicationDate": "2024-05-07",
      "mainActivity": "Servicios públicos generales",
      "codNUTS": "ES211",
      "entities": [
        {
          "id": 26576,
          "name": "Junta Administrativa de Estarrona",
          "orgs": [
            {
              "id": 26577,
              "name": "Concejo de Estarrona",
              "_links": {
                "self": {
                  "name": "Concejo de Estarrona",
                  "href": "https://api.euskadi.eus/procurements/contracting-authorities/26575/entities/26576/orgs/26577"
                }
              }
            }
          ],
          "_links": {
            "self": {
              "name": "Junta Administrativa de Estarrona",
              "href": "https://api.euskadi.eus/procurements/contracting-authorities/26575/entities/26576"
            }
          }
        }
      ],
      "mainEntityOfPage": "https://www.contratacion.euskadi.eus/webkpe00-kpeperfi/es/contenidos/poder_adjudicador/poder26575/es_doc/index.html",
      "_links": {
        "self": {
          "name": "Junta Administrativa de Estarrona",
          "href": "https://api.euskadi.eus/procurements/contracting-authorities/26575"
        }
      }
    },
    {
      "id": 85,
      "identificationNumber": "P2001000E",
      "name": "Ayuntamiento de Andoain",
      "scope": "GIPUZKOA",
      "address": "Goiko Plaza, s/n. 20140 Andoain",
      "webPage": "https://www.andoain.eus",
      "publicationDate": "2024-04-30",
      "mainActivity": "Servicios públicos generales",
      "codNUTS": "ES212",
      "entities": [
        {
          "id": 430,
          "name": "Ayuntamiento de Andoain",
          "orgs": [
            {
              "id": 911430,
              "name": "Junta de Gobierno Local",
              "_links": {
                "self": {
                  "name": "Junta de Gobierno Local",
                  "href": "https://api.euskadi.eus/procurements/contracting-authorities/85/entities/430/orgs/911430"
                }
              }
            },
            {
              "id": 911428,
              "name": "Pleno Municipal",
              "_links": {
                "self": {
                  "name": "Pleno Municipal",
                  "href": "https://api.euskadi.eus/procurements/contracting-authorities/85/entities/430/orgs/911428"
                }
              }
            },
            {
              "id": 911447,
              "name": "Concejal/a Delegado/a",
              "_links": {
                "self": {
                  "name": "Concejal/a Delegado/a",
                  "href": "https://api.euskadi.eus/procurements/contracting-authorities/85/entities/430/orgs/911447"
                }
              }
            },
            {
              "id": 911446,
              "name": "Junta Rectora del Patronato Municipal de Deportes",
              "_links": {
                "self": {
                  "name": "Junta Rectora del Patronato Municipal de Deportes",
                  "href": "https://api.euskadi.eus/procurements/contracting-authorities/85/entities/430/orgs/911446"
                }
              }
            },
            {
              "id": 911429,
              "name": "Alcalde/sa",
              "_links": {
                "self": {
                  "name": "Alcalde/sa",
                  "href": "https://api.euskadi.eus/procurements/contracting-authorities/85/entities/430/orgs/911429"
                }
              }
            }
          ],
          "_links": {
            "self": {
              "name": "Ayuntamiento de Andoain",
              "href": "https://api.euskadi.eus/procurements/contracting-authorities/85/entities/430"
            }
          }
        }
      ],
      "mainEntityOfPage": "https://www.contratacion.euskadi.eus/webkpe00-kpeperfi/es/contenidos/poder_adjudicador/poder85/es_doc/index.html",
      "_links": {
        "self": {
          "name": "Ayuntamiento de Andoain",
          "href": "https://api.euskadi.eus/procurements/contracting-authorities/85"
        }
      }
    }
  ]
}