{
  "totalItems": 919,
  "totalPages": 92,
  "currentPage": 49,
  "itemsOfPage": 10,
  "items": [
    {
      "id": 332,
      "identificationNumber": "G95229142",
      "name": "Asociación Centro de Investigación Cooperativa en Biociencias-CIC bioGUNE",
      "scope": "BIZKAIA",
      "address": "Parque Científico y Tecnológico de Bizkaia, Edificio 801-A Planta 1ª. 48170 Zamudio (Bizkaia)",
      "webPage": "http://www.cicbiogune.es",
      "publicationDate": "2019-10-07",
      "mainActivity": "Otra actividad",
      "alternativeActivity": "Investigación",
      "codNUTS": "ES213",
      "entities": [
        {
          "id": 783,
          "name": "Asociación Centro de Investigación Cooperativa en Biociencias-CIC bioGUNE",
          "orgs": [
            {
              "id": 912262,
              "name": "Director General",
              "_links": {
                "self": {
                  "name": "Director General",
                  "href": "https://api.euskadi.eus/procurements/contracting-authorities/332/entities/783/orgs/912262"
                }
              }
            }
          ],
          "_links": {
            "self": {
              "name": "Asociación Centro de Investigación Cooperativa en Biociencias-CIC bioGUNE",
              "href": "https://api.euskadi.eus/procurements/contracting-authorities/332/entities/783"
            }
          }
        }
      ],
      "mainEntityOfPage": "https://www.contratacion.euskadi.eus/webkpe00-kpeperfi/es/contenidos/poder_adjudicador/poder332/es_doc/es_arch_poder332.html",
      "_links": {
        "self": {
          "name": "Asociación Centro de Investigación Cooperativa en Biociencias-CIC bioGUNE",
          "href": "https://api.euskadi.eus/procurements/contracting-authorities/332"
        }
      }
    },
    {
      "id": 334,
      "identificationNumber": "P4807500F",
      "name": "Ayuntamiento de Meñaka",
      "scope": "BIZKAIA",
      "address": "Elias Agirre plaza, 1. Mesterika auzoa. 48120 Meñaka (Bizkaia)",
      "webPage": "https://www.contratacion.euskadi.eus",
      "publicationDate": "2019-10-07",
      "mainActivity": "Servicios públicos generales",
      "codNUTS": "ES213",
      "entities": [
        {
          "id": 785,
          "name": "Ayuntamiento de Meñaka",
          "orgs": [
            {
              "id": 912266,
              "name": "Alcaldía ",
              "_links": {
                "self": {
                  "name": "Alcaldía ",
                  "href": "https://api.euskadi.eus/procurements/contracting-authorities/334/entities/785/orgs/912266"
                }
              }
            },
            {
              "id": 912267,
              "name": "Pleno",
              "_links": {
                "self": {
                  "name": "Pleno",
                  "href": "https://api.euskadi.eus/procurements/contracting-authorities/334/entities/785/orgs/912267"
                }
              }
            }
          ],
          "_links": {
            "self": {
              "name": "Ayuntamiento de Meñaka",
              "href": "https://api.euskadi.eus/procurements/contracting-authorities/334/entities/785"
            }
          }
        }
      ],
      "mainEntityOfPage": "https://www.contratacion.euskadi.eus/webkpe00-kpeperfi/es/contenidos/poder_adjudicador/poder334/es_doc/es_arch_poder334.html",
      "_links": {
        "self": {
          "name": "Ayuntamiento de Meñaka",
          "href": "https://api.euskadi.eus/procurements/contracting-authorities/334"
        }
      }
    },
    {
      "id": 337,
      "identificationNumber": "P9809501A",
      "name": "Instituto Municipal de Deportes de Santurtzi",
      "scope": "BIZKAIA",
      "address": "Pº Reina Victoria, s/n. 48980 Santurtzi (Bizkaia)",
      "webPage": "http://www.santurtzikirolak.eus",
      "publicationDate": "2019-10-07",
      "mainActivity": "Ocio, cultura y religión",
      "codNUTS": "ES213",
      "entities": [
        {
          "id": 788,
          "name": "Instituto Municipal de Deportes de Santurtzi.",
          "orgs": [
            {
              "id": 912272,
              "name": "Presidencia",
              "_links": {
                "self": {
                  "name": "Presidencia",
                  "href": "https://api.euskadi.eus/procurements/contracting-authorities/337/entities/788/orgs/912272"
                }
              }
            },
            {
              "id": 912273,
              "name": "Consejo Rector",
              "_links": {
                "self": {
                  "name": "Consejo Rector",
                  "href": "https://api.euskadi.eus/procurements/contracting-authorities/337/entities/788/orgs/912273"
                }
              }
            }
          ],
          "_links": {
            "self": {
              "name": "Instituto Municipal de Deportes de Santurtzi.",
              "href": "https://api.euskadi.eus/procurements/contracting-authorities/337/entities/788"
            }
          }
        }
      ],
      "mainEntityOfPage": "https://www.contratacion.euskadi.eus/webkpe00-kpeperfi/es/contenidos/poder_adjudicador/poder337/es_doc/es_arch_poder337.html",
      "_links": {
        "self": {
          "name": "Instituto Municipal de Deportes de Santurtzi",
          "href": "https://api.euskadi.eus/procurements/contracting-authorities/337"
        }
      }
    },
    {
      "id": 338,
      "identificationNumber": "P4802100J",
      "name": "Ayuntamiento de Bermeo",
      "scope": "BIZKAIA",
      "address": "Arana eta Goiri tar Sabinen enparantza z/g  48370 Bermeo (Bizkaia) ",
      "webPage": "http://www.bermeo.eus",
      "publicationDate": "2019-10-07",
      "mainActivity": "Servicios públicos generales",
      "codNUTS": "ES213",
      "entities": [
        {
          "id": 789,
          "name": "Ayuntamiento de Bermeo",
          "orgs": [
            {
              "id": 912274,
              "name": "Alcalde",
              "_links": {
                "self": {
                  "name": "Alcalde",
                  "href": "https://api.euskadi.eus/procurements/contracting-authorities/338/entities/789/orgs/912274"
                }
              }
            },
            {
              "id": 912276,
              "name": "Comisión de Gobierno",
              "_links": {
                "self": {
                  "name": "Comisión de Gobierno",
                  "href": "https://api.euskadi.eus/procurements/contracting-authorities/338/entities/789/orgs/912276"
                }
              }
            },
            {
              "id": 912275,
              "name": "Pleno",
              "_links": {
                "self": {
                  "name": "Pleno",
                  "href": "https://api.euskadi.eus/procurements/contracting-authorities/338/entities/789/orgs/912275"
                }
              }
            }
          ],
          "_links": {
            "self": {
              "name": "Ayuntamiento de Bermeo",
              "href": "https://api.euskadi.eus/procurements/contracting-authorities/338/entities/789"
            }
          }
        }
      ],
      "mainEntityOfPage": "https://www.contratacion.euskadi.eus/webkpe00-kpeperfi/es/contenidos/poder_adjudicador/poder338/es_doc/es_arch_poder338.html",
      "_links": {
        "self": {
          "name": "Ayuntamiento de Bermeo",
          "href": "https://api.euskadi.eus/procurements/contracting-authorities/338"
        }
      }
    },
    {
      "id": 342,
      "identificationNumber": "P4803500J",
      "name": "Ayuntamiento de Ea",
      "scope": "BIZKAIA",
      "address": "Donibane enparantza, 2. 48287 Ea (Bizkaia)",
      "webPage": "http://www.eakoudala.net",
      "publicationDate": "2019-10-07",
      "mainActivity": "Servicios públicos generales",
      "codNUTS": "ES213",
      "entities": [
        {
          "id": 794,
          "name": "Ayuntamiento de Ea",
          "orgs": [
            {
              "id": 912289,
              "name": "Pleno",
              "_links": {
                "self": {
                  "name": "Pleno",
                  "href": "https://api.euskadi.eus/procurements/contracting-authorities/342/entities/794/orgs/912289"
                }
              }
            },
            {
              "id": 912288,
              "name": "Alcaldía",
              "_links": {
                "self": {
                  "name": "Alcaldía",
                  "href": "https://api.euskadi.eus/procurements/contracting-authorities/342/entities/794/orgs/912288"
                }
              }
            }
          ],
          "_links": {
            "self": {
              "name": "Ayuntamiento de Ea",
              "href": "https://api.euskadi.eus/procurements/contracting-authorities/342/entities/794"
            }
          }
        }
      ],
      "mainEntityOfPage": "https://www.contratacion.euskadi.eus/webkpe00-kpeperfi/es/contenidos/poder_adjudicador/poder342/es_doc/es_arch_poder342.html",
      "_links": {
        "self": {
          "name": "Ayuntamiento de Ea",
          "href": "https://api.euskadi.eus/procurements/contracting-authorities/342"
        }
      }
    },
    {
      "id": 352,
      "identificationNumber": "P4804600G",
      "name": "Ayuntamiento de Gamiz-Fika",
      "scope": "BIZKAIA",
      "address": "Bº Ergoien, 62. 48113 Gamiz-Fika (Bizkaia)",
      "webPage": "http://www.gamiz-fika.eus",
      "publicationDate": "2019-10-07",
      "mainActivity": "Servicios públicos generales",
      "codNUTS": "ES213",
      "entities": [
        {
          "id": 804,
          "name": "Ayuntamiento de Gamiz-Fika",
          "orgs": [
            {
              "id": 912304,
              "name": "Alcadía",
              "_links": {
                "self": {
                  "name": "Alcadía",
                  "href": "https://api.euskadi.eus/procurements/contracting-authorities/352/entities/804/orgs/912304"
                }
              }
            },
            {
              "id": 912305,
              "name": "Pleno",
              "_links": {
                "self": {
                  "name": "Pleno",
                  "href": "https://api.euskadi.eus/procurements/contracting-authorities/352/entities/804/orgs/912305"
                }
              }
            }
          ],
          "_links": {
            "self": {
              "name": "Ayuntamiento de Gamiz-Fika",
              "href": "https://api.euskadi.eus/procurements/contracting-authorities/352/entities/804"
            }
          }
        }
      ],
      "mainEntityOfPage": "https://www.contratacion.euskadi.eus/webkpe00-kpeperfi/es/contenidos/poder_adjudicador/poder352/es_doc/es_arch_poder352.html",
      "_links": {
        "self": {
          "name": "Ayuntamiento de Gamiz-Fika",
          "href": "https://api.euskadi.eus/procurements/contracting-authorities/352"
        }
      }
    },
    {
      "id": 362,
      "identificationNumber": "A95344479",
      "name": "Sestao Bai, S.A.",
      "scope": "BIZKAIA",
      "address": "Iparragirre, 7. 48910 Sestao (Bizkaia)",
      "webPage": "http://www.sestaobai.net",
      "publicationDate": "2019-10-07",
      "mainActivity": "Otra actividad",
      "alternativeActivity": "Promoción empresarial",
      "codNUTS": "ES213",
      "entities": [
        {
          "id": 814,
          "name": "Sestao Bai, S.A. ",
          "orgs": [
            {
              "id": 912880,
              "name": "Director Gerente",
              "_links": {
                "self": {
                  "name": "Director Gerente",
                  "href": "https://api.euskadi.eus/procurements/contracting-authorities/362/entities/814/orgs/912880"
                }
              }
            },
            {
              "id": 912340,
              "name": "Consejo de Administración",
              "_links": {
                "self": {
                  "name": "Consejo de Administración",
                  "href": "https://api.euskadi.eus/procurements/contracting-authorities/362/entities/814/orgs/912340"
                }
              }
            }
          ],
          "_links": {
            "self": {
              "name": "Sestao Bai, S.A. ",
              "href": "https://api.euskadi.eus/procurements/contracting-authorities/362/entities/814"
            }
          }
        }
      ],
      "mainEntityOfPage": "https://www.contratacion.euskadi.eus/webkpe00-kpeperfi/es/contenidos/poder_adjudicador/poder362/es_doc/es_arch_poder362.html",
      "_links": {
        "self": {
          "name": "Sestao Bai, S.A.",
          "href": "https://api.euskadi.eus/procurements/contracting-authorities/362"
        }
      }
    },
    {
      "id": 363,
      "identificationNumber": "S9800001A",
      "name": "Juntas Generales de Bizkaia",
      "scope": "BIZKAIA",
      "address": "Hurtado de Amezaga, 6. 48008 Bilbao (Bizkaia)  ",
      "webPage": "http://www.jjggbizkaia.eus",
      "publicationDate": "2019-10-07",
      "mainActivity": "Otra actividad",
      "alternativeActivity": "Parlamento",
      "codNUTS": "ES213",
      "entities": [
        {
          "id": 815,
          "name": "Juntas Generales de Bizkaia",
          "orgs": [
            {
              "id": 912341,
              "name": "Mesa de las Juntas Generales de Bizkaia",
              "_links": {
                "self": {
                  "name": "Mesa de las Juntas Generales de Bizkaia",
                  "href": "https://api.euskadi.eus/procurements/contracting-authorities/363/entities/815/orgs/912341"
                }
              }
            }
          ],
          "_links": {
            "self": {
              "name": "Juntas Generales de Bizkaia",
              "href": "https://api.euskadi.eus/procurements/contracting-authorities/363/entities/815"
            }
          }
        }
      ],
      "mainEntityOfPage": "https://www.contratacion.euskadi.eus/webkpe00-kpeperfi/es/contenidos/poder_adjudicador/poder363/es_doc/es_arch_poder363.html",
      "_links": {
        "self": {
          "name": "Juntas Generales de Bizkaia",
          "href": "https://api.euskadi.eus/procurements/contracting-authorities/363"
        }
      }
    },
    {
      "id": 364,
      "identificationNumber": "P4800019D",
      "name": "Mancomunidad de Servicios de Uribe Kosta",
      "scope": "BIZKAIA",
      "address": "Gatzarrine, 2. 48600 Sopela (Bizkaia) ",
      "webPage": "http://www.uribekosta.eu",
      "publicationDate": "2019-10-07",
      "mainActivity": "Medio ambiente",
      "codNUTS": "ES213",
      "entities": [
        {
          "id": 816,
          "name": "Mancomunidad de Servicios de Uribe Kosta",
          "orgs": [
            {
              "id": 912342,
              "name": "Presidenta",
              "_links": {
                "self": {
                  "name": "Presidenta",
                  "href": "https://api.euskadi.eus/procurements/contracting-authorities/364/entities/816/orgs/912342"
                }
              }
            },
            {
              "id": 912344,
              "name": "Junta Plenaria",
              "_links": {
                "self": {
                  "name": "Junta Plenaria",
                  "href": "https://api.euskadi.eus/procurements/contracting-authorities/364/entities/816/orgs/912344"
                }
              }
            },
            {
              "id": 912343,
              "name": "Junta de Gobierno Local",
              "_links": {
                "self": {
                  "name": "Junta de Gobierno Local",
                  "href": "https://api.euskadi.eus/procurements/contracting-authorities/364/entities/816/orgs/912343"
                }
              }
            }
          ],
          "_links": {
            "self": {
              "name": "Mancomunidad de Servicios de Uribe Kosta",
              "href": "https://api.euskadi.eus/procurements/contracting-authorities/364/entities/816"
            }
          }
        }
      ],
      "mainEntityOfPage": "https://www.contratacion.euskadi.eus/webkpe00-kpeperfi/es/contenidos/poder_adjudicador/poder364/es_doc/es_arch_poder364.html",
      "_links": {
        "self": {
          "name": "Mancomunidad de Servicios de Uribe Kosta",
          "href": "https://api.euskadi.eus/procurements/contracting-authorities/364"
        }
      }
    },
    {
      "id": 365,
      "identificationNumber": "P9805301J",
      "name": "Escuela de Música \"Andrés Isasi\" de Getxo",
      "scope": "BIZKAIA",
      "address": "Las Mercedes, 6. 48930 Getxo (Bizkaia)",
      "webPage": "http://www.getxo.eus",
      "publicationDate": "2019-10-07",
      "mainActivity": "Educación",
      "codNUTS": "ES213",
      "entities": [
        {
          "id": 817,
          "name": "Escuela de Música \"Andrés Isasi\" de Getxo",
          "orgs": [
            {
              "id": 912345,
              "name": "Director ",
              "_links": {
                "self": {
                  "name": "Director ",
                  "href": "https://api.euskadi.eus/procurements/contracting-authorities/365/entities/817/orgs/912345"
                }
              }
            }
          ],
          "_links": {
            "self": {
              "name": "Escuela de Música \"Andrés Isasi\" de Getxo",
              "href": "https://api.euskadi.eus/procurements/contracting-authorities/365/entities/817"
            }
          }
        }
      ],
      "mainEntityOfPage": "https://www.contratacion.euskadi.eus/webkpe00-kpeperfi/es/contenidos/poder_adjudicador/poder365/es_doc/es_arch_poder365.html",
      "_links": {
        "self": {
          "name": "Escuela de Música \"Andrés Isasi\" de Getxo",
          "href": "https://api.euskadi.eus/procurements/contracting-authorities/365"
        }
      }
    }
  ]
}