{
  "totalItems": 919,
  "totalPages": 92,
  "currentPage": 36,
  "itemsOfPage": 10,
  "items": [
    {
      "id": 749,
      "identificationNumber": "P5100009I",
      "name": "Junta Administrativa de Gurendes - Quejo",
      "scope": "ARABA/ÁLAVA",
      "address": "Barrio Medio s/n - 01426 Gurendes",
      "webPage": "http://www.contratacion.euskadi.eus",
      "publicationDate": "2020-08-07",
      "mainActivity": "Servicios públicos generales",
      "codNUTS": "ES211",
      "entities": [
        {
          "id": 1226,
          "name": "Junta Administrativa de Gurendes-Quejo",
          "orgs": [
            {
              "id": 913642,
              "name": "Concejo de Gurendes-Quejo",
              "_links": {
                "self": {
                  "name": "Concejo de Gurendes-Quejo",
                  "href": "https://api.euskadi.eus/procurements/contracting-authorities/749/entities/1226/orgs/913642"
                }
              }
            }
          ],
          "_links": {
            "self": {
              "name": "Junta Administrativa de Gurendes-Quejo",
              "href": "https://api.euskadi.eus/procurements/contracting-authorities/749/entities/1226"
            }
          }
        }
      ],
      "mainEntityOfPage": "https://www.contratacion.euskadi.eus/webkpe00-kpeperfi/es/contenidos/poder_adjudicador/poder749/es_doc/es_arch_poder749.html",
      "_links": {
        "self": {
          "name": "Junta Administrativa de Gurendes - Quejo",
          "href": "https://api.euskadi.eus/procurements/contracting-authorities/749"
        }
      }
    },
    {
      "id": 750,
      "identificationNumber": "P0100270H",
      "name": "Junta Administrativa de Valluerca",
      "scope": "ARABA/ÁLAVA",
      "address": "-",
      "webPage": "https://www.contratacion.euskadi.eus",
      "publicationDate": "2020-08-07",
      "mainActivity": "Servicios públicos generales",
      "codNUTS": "ES211",
      "entities": [
        {
          "id": 1227,
          "name": "Junta Administrativa de Valluerca",
          "orgs": [
            {
              "id": 913643,
              "name": "Concejo de Valluerca",
              "_links": {
                "self": {
                  "name": "Concejo de Valluerca",
                  "href": "https://api.euskadi.eus/procurements/contracting-authorities/750/entities/1227/orgs/913643"
                }
              }
            }
          ],
          "_links": {
            "self": {
              "name": "Junta Administrativa de Valluerca",
              "href": "https://api.euskadi.eus/procurements/contracting-authorities/750/entities/1227"
            }
          }
        }
      ],
      "mainEntityOfPage": "https://www.contratacion.euskadi.eus/webkpe00-kpeperfi/es/contenidos/poder_adjudicador/poder750/es_doc/es_arch_poder750.html",
      "_links": {
        "self": {
          "name": "Junta Administrativa de Valluerca",
          "href": "https://api.euskadi.eus/procurements/contracting-authorities/750"
        }
      }
    },
    {
      "id": 751,
      "identificationNumber": "P0101900I",
      "name": "Junta Administrativa de Korres",
      "scope": "ARABA/ÁLAVA",
      "address": "-",
      "webPage": "http://www.contratacion.euskadi.eus",
      "publicationDate": "2020-08-07",
      "mainActivity": "Servicios públicos generales",
      "codNUTS": "ES211",
      "entities": [
        {
          "id": 1228,
          "name": "Junta Administrativa de Korres",
          "orgs": [
            {
              "id": 913644,
              "name": "Asamblea Vecinal del Concejo Abierto De Korres",
              "_links": {
                "self": {
                  "name": "Asamblea Vecinal del Concejo Abierto De Korres",
                  "href": "https://api.euskadi.eus/procurements/contracting-authorities/751/entities/1228/orgs/913644"
                }
              }
            },
            {
              "id": 913645,
              "name": "Regidor - Presidente de Korres",
              "_links": {
                "self": {
                  "name": "Regidor - Presidente de Korres",
                  "href": "https://api.euskadi.eus/procurements/contracting-authorities/751/entities/1228/orgs/913645"
                }
              }
            }
          ],
          "_links": {
            "self": {
              "name": "Junta Administrativa de Korres",
              "href": "https://api.euskadi.eus/procurements/contracting-authorities/751/entities/1228"
            }
          }
        }
      ],
      "mainEntityOfPage": "https://www.contratacion.euskadi.eus/webkpe00-kpeperfi/es/contenidos/poder_adjudicador/poder751/es_doc/es_arch_poder751.html",
      "_links": {
        "self": {
          "name": "Junta Administrativa de Korres",
          "href": "https://api.euskadi.eus/procurements/contracting-authorities/751"
        }
      }
    },
    {
      "id": 752,
      "identificationNumber": "P0100036C",
      "name": "Junta Administrativa de Onraita",
      "scope": "ARABA/ÁLAVA",
      "address": "-",
      "webPage": "http://www.contratacion.euskadi.eus",
      "publicationDate": "2020-08-07",
      "mainActivity": "Servicios públicos generales",
      "codNUTS": "ES211",
      "entities": [
        {
          "id": 1229,
          "name": "Junta Administrativa de Onraita",
          "orgs": [
            {
              "id": 913646,
              "name": "Asamblea Vecinal del Concejo Abierto de Onraita",
              "_links": {
                "self": {
                  "name": "Asamblea Vecinal del Concejo Abierto de Onraita",
                  "href": "https://api.euskadi.eus/procurements/contracting-authorities/752/entities/1229/orgs/913646"
                }
              }
            },
            {
              "id": 913647,
              "name": "Regidor - Presidente de Onraita",
              "_links": {
                "self": {
                  "name": "Regidor - Presidente de Onraita",
                  "href": "https://api.euskadi.eus/procurements/contracting-authorities/752/entities/1229/orgs/913647"
                }
              }
            }
          ],
          "_links": {
            "self": {
              "name": "Junta Administrativa de Onraita",
              "href": "https://api.euskadi.eus/procurements/contracting-authorities/752/entities/1229"
            }
          }
        }
      ],
      "mainEntityOfPage": "https://www.contratacion.euskadi.eus/webkpe00-kpeperfi/es/contenidos/poder_adjudicador/poder752/es_doc/es_arch_poder752.html",
      "_links": {
        "self": {
          "name": "Junta Administrativa de Onraita",
          "href": "https://api.euskadi.eus/procurements/contracting-authorities/752"
        }
      }
    },
    {
      "id": 753,
      "identificationNumber": "P0100197C",
      "name": "Junta Administrativa de Zuhatzu Kuartango",
      "scope": "ARABA/ÁLAVA",
      "address": "C/ Zuhatzu Kuartango 24 - 01430 ",
      "webPage": "http://www.contratacion.euskadi.eus",
      "publicationDate": "2020-08-07",
      "mainActivity": "Servicios públicos generales",
      "codNUTS": "ES211",
      "entities": [
        {
          "id": 1230,
          "name": "Junta Administrativa de Zuhatzu Kuartango",
          "orgs": [
            {
              "id": 913648,
              "name": "Concejo de Zuhatzu Kuartango",
              "_links": {
                "self": {
                  "name": "Concejo de Zuhatzu Kuartango",
                  "href": "https://api.euskadi.eus/procurements/contracting-authorities/753/entities/1230/orgs/913648"
                }
              }
            }
          ],
          "_links": {
            "self": {
              "name": "Junta Administrativa de Zuhatzu Kuartango",
              "href": "https://api.euskadi.eus/procurements/contracting-authorities/753/entities/1230"
            }
          }
        }
      ],
      "mainEntityOfPage": "https://www.contratacion.euskadi.eus/webkpe00-kpeperfi/es/contenidos/poder_adjudicador/poder753/es_doc/es_arch_poder753.html",
      "_links": {
        "self": {
          "name": "Junta Administrativa de Zuhatzu Kuartango",
          "href": "https://api.euskadi.eus/procurements/contracting-authorities/753"
        }
      }
    },
    {
      "id": 754,
      "identificationNumber": "P0100202A",
      "name": "Junta Administrativa de Quintana",
      "scope": "ARABA/ÁLAVA",
      "address": "C/ San Andres, 5 - Quintana",
      "webPage": "http://www.contratacion.euskadi.eus",
      "publicationDate": "2020-08-07",
      "mainActivity": "Servicios públicos generales",
      "codNUTS": "ES211",
      "entities": [
        {
          "id": 1231,
          "name": "Junta Administrativa de Quintana",
          "orgs": [
            {
              "id": 913649,
              "name": "Asamblea Concejo de Quintana",
              "_links": {
                "self": {
                  "name": "Asamblea Concejo de Quintana",
                  "href": "https://api.euskadi.eus/procurements/contracting-authorities/754/entities/1231/orgs/913649"
                }
              }
            }
          ],
          "_links": {
            "self": {
              "name": "Junta Administrativa de Quintana",
              "href": "https://api.euskadi.eus/procurements/contracting-authorities/754/entities/1231"
            }
          }
        }
      ],
      "mainEntityOfPage": "https://www.contratacion.euskadi.eus/webkpe00-kpeperfi/es/contenidos/poder_adjudicador/poder754/es_doc/es_arch_poder754.html",
      "_links": {
        "self": {
          "name": "Junta Administrativa de Quintana",
          "href": "https://api.euskadi.eus/procurements/contracting-authorities/754"
        }
      }
    },
    {
      "id": 741,
      "identificationNumber": "G20188652",
      "name": "Goierriko Landa Garapenerako \"Goimen\" Elkartea",
      "scope": "GIPUZKOA",
      "address": "-",
      "webPage": "https://www.contratacion.euskadi.eus/",
      "publicationDate": "2020-07-03",
      "mainActivity": "Otra actividad",
      "alternativeActivity": "Promoción empresarial",
      "codNUTS": "ES212",
      "entities": [
        {
          "id": 1220,
          "name": "Goierriko Landa Garapenerako \"Goimen\" Elkartea",
          "orgs": [
            {
              "id": 913636,
              "name": "Junta de Gobierno",
              "_links": {
                "self": {
                  "name": "Junta de Gobierno",
                  "href": "https://api.euskadi.eus/procurements/contracting-authorities/741/entities/1220/orgs/913636"
                }
              }
            }
          ],
          "_links": {
            "self": {
              "name": "Goierriko Landa Garapenerako \"Goimen\" Elkartea",
              "href": "https://api.euskadi.eus/procurements/contracting-authorities/741/entities/1220"
            }
          }
        }
      ],
      "mainEntityOfPage": "https://www.contratacion.euskadi.eus/webkpe00-kpeperfi/es/contenidos/poder_adjudicador/poder741/es_doc/es_arch_poder741.html",
      "_links": {
        "self": {
          "name": "Goierriko Landa Garapenerako \"Goimen\" Elkartea",
          "href": "https://api.euskadi.eus/procurements/contracting-authorities/741"
        }
      }
    },
    {
      "id": 742,
      "identificationNumber": "P0100170J",
      "name": "Junta Administrativa Costera",
      "scope": "ARABA/ÁLAVA",
      "address": "-",
      "webPage": "https://www.contratacion.euskadi.eus/",
      "publicationDate": "2020-07-03",
      "mainActivity": "Servicios públicos generales",
      "codNUTS": "ES211",
      "entities": [
        {
          "id": 1221,
          "name": "Junta Administrativa Costera",
          "orgs": [
            {
              "id": 913637,
              "name": "Concejo de Costera",
              "_links": {
                "self": {
                  "name": "Concejo de Costera",
                  "href": "https://api.euskadi.eus/procurements/contracting-authorities/742/entities/1221/orgs/913637"
                }
              }
            }
          ],
          "_links": {
            "self": {
              "name": "Junta Administrativa Costera",
              "href": "https://api.euskadi.eus/procurements/contracting-authorities/742/entities/1221"
            }
          }
        }
      ],
      "mainEntityOfPage": "https://www.contratacion.euskadi.eus/webkpe00-kpeperfi/es/contenidos/poder_adjudicador/poder742/es_doc/es_arch_poder742.html",
      "_links": {
        "self": {
          "name": "Junta Administrativa Costera",
          "href": "https://api.euskadi.eus/procurements/contracting-authorities/742"
        }
      }
    },
    {
      "id": 737,
      "identificationNumber": "A95257291",
      "name": "DURANGO ERAIKITZEN, S.A.",
      "scope": "BIZKAIA",
      "address": "Barrenkale 17, 2.solairua. 48200 Durango (Bizkaia)",
      "webPage": "https://www.contratacion.euskadi.eus",
      "publicationDate": "2020-06-10",
      "mainActivity": "Servicios públicos generales",
      "codNUTS": "ES213",
      "entities": [
        {
          "id": 1215,
          "name": "DURANGO ERAIKITZEN, S.A.",
          "orgs": [
            {
              "id": 913628,
              "name": "Presidenta ",
              "_links": {
                "self": {
                  "name": "Presidenta ",
                  "href": "https://api.euskadi.eus/procurements/contracting-authorities/737/entities/1215/orgs/913628"
                }
              }
            },
            {
              "id": 913627,
              "name": "Consejo de Administración ",
              "_links": {
                "self": {
                  "name": "Consejo de Administración ",
                  "href": "https://api.euskadi.eus/procurements/contracting-authorities/737/entities/1215/orgs/913627"
                }
              }
            }
          ],
          "_links": {
            "self": {
              "name": "DURANGO ERAIKITZEN, S.A.",
              "href": "https://api.euskadi.eus/procurements/contracting-authorities/737/entities/1215"
            }
          }
        }
      ],
      "mainEntityOfPage": "https://www.contratacion.euskadi.eus/webkpe00-kpeperfi/es/contenidos/poder_adjudicador/poder737/es_doc/es_arch_poder737.html",
      "_links": {
        "self": {
          "name": "DURANGO ERAIKITZEN, S.A.",
          "href": "https://api.euskadi.eus/procurements/contracting-authorities/737"
        }
      }
    },
    {
      "id": 48,
      "identificationNumber": "A48167902",
      "name": "NEIKER, Instituto Vasco de Investigación y Desarrollo Agrario, S.A.",
      "scope": "CAPV",
      "address": "Sonia Masip Moriarty",
      "webPage": "http://www.neiker.net/",
      "publicationDate": "2020-06-09",
      "mainActivity": "Otra actividad",
      "alternativeActivity": "Investigación",
      "codNUTS": "ES21",
      "entities": [
        {
          "id": 315,
          "name": "NEIKER, Instituto Vasco de Investigación y Desarrollo Agrario, S.A.",
          "orgs": [
            {
              "id": 911157,
              "name": "Directora General con la firma mancomunada del Presidente del Consejo de Administración",
              "_links": {
                "self": {
                  "name": "Directora General con la firma mancomunada del Presidente del Consejo de Administración",
                  "href": "https://api.euskadi.eus/procurements/contracting-authorities/48/entities/315/orgs/911157"
                }
              }
            },
            {
              "id": 911155,
              "name": "Director de Recursos de NEIKER",
              "_links": {
                "self": {
                  "name": "Director de Recursos de NEIKER",
                  "href": "https://api.euskadi.eus/procurements/contracting-authorities/48/entities/315/orgs/911155"
                }
              }
            },
            {
              "id": 911156,
              "name": "Directora General",
              "_links": {
                "self": {
                  "name": "Directora General",
                  "href": "https://api.euskadi.eus/procurements/contracting-authorities/48/entities/315/orgs/911156"
                }
              }
            }
          ],
          "_links": {
            "self": {
              "name": "NEIKER, Instituto Vasco de Investigación y Desarrollo Agrario, S.A.",
              "href": "https://api.euskadi.eus/procurements/contracting-authorities/48/entities/315"
            }
          }
        }
      ],
      "mainEntityOfPage": "https://www.contratacion.euskadi.eus/webkpe00-kpeperfi/es/contenidos/poder_adjudicador/poder48/es_doc/es_arch_poder48.html",
      "_links": {
        "self": {
          "name": "NEIKER, Instituto Vasco de Investigación y Desarrollo Agrario, S.A.",
          "href": "https://api.euskadi.eus/procurements/contracting-authorities/48"
        }
      }
    }
  ]
}