{
  "totalItems": 919,
  "totalPages": 92,
  "currentPage": 53,
  "itemsOfPage": 10,
  "items": [
    {
      "id": 425,
      "identificationNumber": "P4800013G",
      "name": "Mancomunidad de Servicios Sociales de Busturialdea",
      "scope": "BIZKAIA",
      "address": "Alondegia, 6-bajo. 48300 Gernika-Lumo (Bizkaia)",
      "webPage": "http://www.busturialdekomankomunitatea.org",
      "publicationDate": "2019-10-07",
      "mainActivity": "Protección social",
      "codNUTS": "ES213",
      "entities": [
        {
          "id": 876,
          "name": "Mancomunidad de Servicios Sociales de Busturialdea",
          "orgs": [
            {
              "id": 912455,
              "name": "Junta General",
              "_links": {
                "self": {
                  "name": "Junta General",
                  "href": "https://api.euskadi.eus/procurements/contracting-authorities/425/entities/876/orgs/912455"
                }
              }
            },
            {
              "id": 912453,
              "name": "Presidencia",
              "_links": {
                "self": {
                  "name": "Presidencia",
                  "href": "https://api.euskadi.eus/procurements/contracting-authorities/425/entities/876/orgs/912453"
                }
              }
            },
            {
              "id": 912454,
              "name": "Junta Permanente",
              "_links": {
                "self": {
                  "name": "Junta Permanente",
                  "href": "https://api.euskadi.eus/procurements/contracting-authorities/425/entities/876/orgs/912454"
                }
              }
            }
          ],
          "_links": {
            "self": {
              "name": "Mancomunidad de Servicios Sociales de Busturialdea",
              "href": "https://api.euskadi.eus/procurements/contracting-authorities/425/entities/876"
            }
          }
        }
      ],
      "mainEntityOfPage": "https://www.contratacion.euskadi.eus/webkpe00-kpeperfi/es/contenidos/poder_adjudicador/poder425/es_doc/es_arch_poder425.html",
      "_links": {
        "self": {
          "name": "Mancomunidad de Servicios Sociales de Busturialdea",
          "href": "https://api.euskadi.eus/procurements/contracting-authorities/425"
        }
      }
    },
    {
      "id": 426,
      "identificationNumber": "P4803800D",
      "name": "Ayuntamiento Elantxobe",
      "scope": "BIZKAIA",
      "address": "Nagusia 21 48310 Elantxobe (Bizkaia)",
      "webPage": "http://www.elantxobe.eu",
      "publicationDate": "2019-10-07",
      "mainActivity": "Servicios públicos generales",
      "codNUTS": "ES213",
      "entities": [
        {
          "id": 877,
          "name": "Ayuntamiento Elantxobe",
          "orgs": [
            {
              "id": 912457,
              "name": "Pleno",
              "_links": {
                "self": {
                  "name": "Pleno",
                  "href": "https://api.euskadi.eus/procurements/contracting-authorities/426/entities/877/orgs/912457"
                }
              }
            },
            {
              "id": 912456,
              "name": "Alcaldía",
              "_links": {
                "self": {
                  "name": "Alcaldía",
                  "href": "https://api.euskadi.eus/procurements/contracting-authorities/426/entities/877/orgs/912456"
                }
              }
            }
          ],
          "_links": {
            "self": {
              "name": "Ayuntamiento Elantxobe",
              "href": "https://api.euskadi.eus/procurements/contracting-authorities/426/entities/877"
            }
          }
        }
      ],
      "mainEntityOfPage": "https://www.contratacion.euskadi.eus/webkpe00-kpeperfi/es/contenidos/poder_adjudicador/poder426/es_doc/es_arch_poder426.html",
      "_links": {
        "self": {
          "name": "Ayuntamiento Elantxobe",
          "href": "https://api.euskadi.eus/procurements/contracting-authorities/426"
        }
      }
    },
    {
      "id": 427,
      "identificationNumber": "P4809200A",
      "name": "Ayuntamiento de Errigoiti",
      "scope": "BIZKAIA",
      "address": "Uria, 1. 48309 Errigoiti (Bizkaia)",
      "webPage": "http://www.errigoiti.net",
      "publicationDate": "2019-10-07",
      "mainActivity": "Servicios públicos generales",
      "codNUTS": "ES213",
      "entities": [
        {
          "id": 878,
          "name": "Ayuntamiento de Errigoiti",
          "orgs": [
            {
              "id": 912459,
              "name": "Corporación de Errigoiti",
              "_links": {
                "self": {
                  "name": "Corporación de Errigoiti",
                  "href": "https://api.euskadi.eus/procurements/contracting-authorities/427/entities/878/orgs/912459"
                }
              }
            },
            {
              "id": 912458,
              "name": "Alcaldesa",
              "_links": {
                "self": {
                  "name": "Alcaldesa",
                  "href": "https://api.euskadi.eus/procurements/contracting-authorities/427/entities/878/orgs/912458"
                }
              }
            }
          ],
          "_links": {
            "self": {
              "name": "Ayuntamiento de Errigoiti",
              "href": "https://api.euskadi.eus/procurements/contracting-authorities/427/entities/878"
            }
          }
        }
      ],
      "mainEntityOfPage": "https://www.contratacion.euskadi.eus/webkpe00-kpeperfi/es/contenidos/poder_adjudicador/poder427/es_doc/es_arch_poder427.html",
      "_links": {
        "self": {
          "name": "Ayuntamiento de Errigoiti",
          "href": "https://api.euskadi.eus/procurements/contracting-authorities/427"
        }
      }
    },
    {
      "id": 431,
      "identificationNumber": "P4802000B",
      "name": "Ayuntamiento de Berango",
      "scope": "BIZKAIA",
      "address": "Alexalde, 3. 48640 Berango (Bizkaia)",
      "webPage": "http://www.berango.net",
      "publicationDate": "2019-10-07",
      "mainActivity": "Servicios públicos generales",
      "codNUTS": "ES213",
      "entities": [
        {
          "id": 882,
          "name": "Ayuntamiento de Berango",
          "orgs": [
            {
              "id": 912466,
              "name": "Alcaldía",
              "_links": {
                "self": {
                  "name": "Alcaldía",
                  "href": "https://api.euskadi.eus/procurements/contracting-authorities/431/entities/882/orgs/912466"
                }
              }
            },
            {
              "id": 912467,
              "name": "Pleno",
              "_links": {
                "self": {
                  "name": "Pleno",
                  "href": "https://api.euskadi.eus/procurements/contracting-authorities/431/entities/882/orgs/912467"
                }
              }
            }
          ],
          "_links": {
            "self": {
              "name": "Ayuntamiento de Berango",
              "href": "https://api.euskadi.eus/procurements/contracting-authorities/431/entities/882"
            }
          }
        }
      ],
      "mainEntityOfPage": "https://www.contratacion.euskadi.eus/webkpe00-kpeperfi/es/contenidos/poder_adjudicador/poder431/es_doc/es_arch_poder431.html",
      "_links": {
        "self": {
          "name": "Ayuntamiento de Berango",
          "href": "https://api.euskadi.eus/procurements/contracting-authorities/431"
        }
      }
    },
    {
      "id": 432,
      "identificationNumber": "P4801300G",
      "name": "Ayuntamiento de Arrieta",
      "scope": "BIZKAIA",
      "address": "Barrio Libao, 14. 48114 Arrieta (Bizkaia)",
      "webPage": "http://www.arrieta-udala.net",
      "publicationDate": "2019-10-07",
      "mainActivity": "Servicios públicos generales",
      "codNUTS": "ES213",
      "entities": [
        {
          "id": 883,
          "name": "Ayuntamiento de Arrieta",
          "orgs": [
            {
              "id": 912468,
              "name": "Alcalde",
              "_links": {
                "self": {
                  "name": "Alcalde",
                  "href": "https://api.euskadi.eus/procurements/contracting-authorities/432/entities/883/orgs/912468"
                }
              }
            },
            {
              "id": 912469,
              "name": "Corporación",
              "_links": {
                "self": {
                  "name": "Corporación",
                  "href": "https://api.euskadi.eus/procurements/contracting-authorities/432/entities/883/orgs/912469"
                }
              }
            }
          ],
          "_links": {
            "self": {
              "name": "Ayuntamiento de Arrieta",
              "href": "https://api.euskadi.eus/procurements/contracting-authorities/432/entities/883"
            }
          }
        }
      ],
      "mainEntityOfPage": "https://www.contratacion.euskadi.eus/webkpe00-kpeperfi/es/contenidos/poder_adjudicador/poder432/es_doc/es_arch_poder432.html",
      "_links": {
        "self": {
          "name": "Ayuntamiento de Arrieta",
          "href": "https://api.euskadi.eus/procurements/contracting-authorities/432"
        }
      }
    },
    {
      "id": 433,
      "identificationNumber": "P4802200H",
      "name": "Ayuntamiento de Berriatua",
      "scope": "BIZKAIA",
      "address": "Herriko plaza, 1. 48710 Berriatua (Bizkaia)",
      "webPage": "http://www.berriatua.org",
      "publicationDate": "2019-10-07",
      "mainActivity": "Servicios públicos generales",
      "codNUTS": "ES213",
      "entities": [
        {
          "id": 884,
          "name": "Ayuntamiento de Berriatua",
          "orgs": [
            {
              "id": 912471,
              "name": "Pleno",
              "_links": {
                "self": {
                  "name": "Pleno",
                  "href": "https://api.euskadi.eus/procurements/contracting-authorities/433/entities/884/orgs/912471"
                }
              }
            },
            {
              "id": 912470,
              "name": "Alcaldía",
              "_links": {
                "self": {
                  "name": "Alcaldía",
                  "href": "https://api.euskadi.eus/procurements/contracting-authorities/433/entities/884/orgs/912470"
                }
              }
            }
          ],
          "_links": {
            "self": {
              "name": "Ayuntamiento de Berriatua",
              "href": "https://api.euskadi.eus/procurements/contracting-authorities/433/entities/884"
            }
          }
        }
      ],
      "mainEntityOfPage": "https://www.contratacion.euskadi.eus/webkpe00-kpeperfi/es/contenidos/poder_adjudicador/poder433/es_doc/es_arch_poder433.html",
      "_links": {
        "self": {
          "name": "Ayuntamiento de Berriatua",
          "href": "https://api.euskadi.eus/procurements/contracting-authorities/433"
        }
      }
    },
    {
      "id": 435,
      "identificationNumber": "P4801200I",
      "name": "Ayuntamiento de Arrazu",
      "scope": "BIZKAIA",
      "address": "Loiola auzoa, 2. 48383 Arratzu (Bizkaia)",
      "webPage": "http://www.arratzu.com",
      "publicationDate": "2019-10-07",
      "mainActivity": "Servicios públicos generales",
      "codNUTS": "ES213",
      "entities": [
        {
          "id": 885,
          "name": "Ayuntamiento de Arrazu",
          "orgs": [
            {
              "id": 912473,
              "name": "Pleno",
              "_links": {
                "self": {
                  "name": "Pleno",
                  "href": "https://api.euskadi.eus/procurements/contracting-authorities/435/entities/885/orgs/912473"
                }
              }
            },
            {
              "id": 912472,
              "name": "Alcaldía",
              "_links": {
                "self": {
                  "name": "Alcaldía",
                  "href": "https://api.euskadi.eus/procurements/contracting-authorities/435/entities/885/orgs/912472"
                }
              }
            }
          ],
          "_links": {
            "self": {
              "name": "Ayuntamiento de Arrazu",
              "href": "https://api.euskadi.eus/procurements/contracting-authorities/435/entities/885"
            }
          }
        }
      ],
      "mainEntityOfPage": "https://www.contratacion.euskadi.eus/webkpe00-kpeperfi/es/contenidos/poder_adjudicador/poder435/es_doc/es_arch_poder435.html",
      "_links": {
        "self": {
          "name": "Ayuntamiento de Arrazu",
          "href": "https://api.euskadi.eus/procurements/contracting-authorities/435"
        }
      }
    },
    {
      "id": 436,
      "identificationNumber": "P4811300E",
      "name": "Ayuntamiento de Atxondo",
      "scope": "BIZKAIA",
      "address": "Plaza Fueros , 1. 48292 Atxondo (Bizkaia)",
      "webPage": "http://www.atxondo.eus",
      "publicationDate": "2019-10-07",
      "mainActivity": "Servicios públicos generales",
      "codNUTS": "ES213",
      "entities": [
        {
          "id": 886,
          "name": "Ayuntamiento de Atxondo",
          "orgs": [
            {
              "id": 912475,
              "name": "Pleno",
              "_links": {
                "self": {
                  "name": "Pleno",
                  "href": "https://api.euskadi.eus/procurements/contracting-authorities/436/entities/886/orgs/912475"
                }
              }
            },
            {
              "id": 912474,
              "name": "Alcaldía",
              "_links": {
                "self": {
                  "name": "Alcaldía",
                  "href": "https://api.euskadi.eus/procurements/contracting-authorities/436/entities/886/orgs/912474"
                }
              }
            }
          ],
          "_links": {
            "self": {
              "name": "Ayuntamiento de Atxondo",
              "href": "https://api.euskadi.eus/procurements/contracting-authorities/436/entities/886"
            }
          }
        }
      ],
      "mainEntityOfPage": "https://www.contratacion.euskadi.eus/webkpe00-kpeperfi/es/contenidos/poder_adjudicador/poder436/es_doc/es_arch_poder436.html",
      "_links": {
        "self": {
          "name": "Ayuntamiento de Atxondo",
          "href": "https://api.euskadi.eus/procurements/contracting-authorities/436"
        }
      }
    },
    {
      "id": 446,
      "identificationNumber": "P4800008G",
      "name": "Mancomunidad de los Municipios Rurales del Lea",
      "scope": "BIZKAIA",
      "address": "Eleizalde Eguen, 3 &#8211; 48289 Gizaburuaga (Bizkaia)",
      "webPage": "http://www.leaibarra.com",
      "publicationDate": "2019-10-07",
      "mainActivity": "Servicios públicos generales",
      "codNUTS": "ES213",
      "entities": [
        {
          "id": 896,
          "name": "Mancomunidad de los Municipios Rurales del Lea",
          "orgs": [
            {
              "id": 912492,
              "name": "Junta de Gobierno",
              "_links": {
                "self": {
                  "name": "Junta de Gobierno",
                  "href": "https://api.euskadi.eus/procurements/contracting-authorities/446/entities/896/orgs/912492"
                }
              }
            }
          ],
          "_links": {
            "self": {
              "name": "Mancomunidad de los Municipios Rurales del Lea",
              "href": "https://api.euskadi.eus/procurements/contracting-authorities/446/entities/896"
            }
          }
        }
      ],
      "mainEntityOfPage": "https://www.contratacion.euskadi.eus/webkpe00-kpeperfi/es/contenidos/poder_adjudicador/poder446/es_doc/es_arch_poder446.html",
      "_links": {
        "self": {
          "name": "Mancomunidad de los Municipios Rurales del Lea",
          "href": "https://api.euskadi.eus/procurements/contracting-authorities/446"
        }
      }
    },
    {
      "id": 453,
      "identificationNumber": "G95686069",
      "name": "Fundación BCMaterials - Basque Center for Materials, Applications and Nanostructures",
      "scope": "BIZKAIA",
      "address": "Barrio Sarriena s/n, 48940 Leioa (Bizkaia)",
      "webPage": "http://www.bcmaterials.net",
      "publicationDate": "2019-10-07",
      "mainActivity": "Otra actividad",
      "alternativeActivity": "Investigación",
      "codNUTS": "ES213",
      "entities": [
        {
          "id": 902,
          "name": "Fundación BCMaterials",
          "orgs": [
            {
              "id": 912498,
              "name": "Gerente",
              "_links": {
                "self": {
                  "name": "Gerente",
                  "href": "https://api.euskadi.eus/procurements/contracting-authorities/453/entities/902/orgs/912498"
                }
              }
            }
          ],
          "_links": {
            "self": {
              "name": "Fundación BCMaterials",
              "href": "https://api.euskadi.eus/procurements/contracting-authorities/453/entities/902"
            }
          }
        }
      ],
      "mainEntityOfPage": "https://www.contratacion.euskadi.eus/webkpe00-kpeperfi/es/contenidos/poder_adjudicador/poder453/es_doc/es_arch_poder453.html",
      "_links": {
        "self": {
          "name": "Fundación BCMaterials - Basque Center for Materials, Applications and Nanostructures",
          "href": "https://api.euskadi.eus/procurements/contracting-authorities/453"
        }
      }
    }
  ]
}