{
  "totalItems": 919,
  "totalPages": 92,
  "currentPage": 87,
  "itemsOfPage": 10,
  "items": [
    {
      "id": 556,
      "identificationNumber": "P0100269J",
      "name": "Junta Administrativa de Luko",
      "scope": "ARABA/ÁLAVA",
      "address": "Ibaiartegi, 3. Luko 01510. Arrazua-Ubarrundia (Araba/Álava)",
      "webPage": "http://www.contratacion.euskadi.eus",
      "publicationDate": "2018-09-25",
      "mainActivity": "Servicios públicos generales",
      "codNUTS": "ES211",
      "entities": [
        {
          "id": 1006,
          "name": "Junta Administrativa de Luko",
          "orgs": [
            {
              "id": 912677,
              "name": "Segundo Vocal",
              "_links": {
                "self": {
                  "name": "Segundo Vocal",
                  "href": "https://api.euskadi.eus/procurements/contracting-authorities/556/entities/1006/orgs/912677"
                }
              }
            },
            {
              "id": 912675,
              "name": "Presidente",
              "_links": {
                "self": {
                  "name": "Presidente",
                  "href": "https://api.euskadi.eus/procurements/contracting-authorities/556/entities/1006/orgs/912675"
                }
              }
            },
            {
              "id": 912676,
              "name": "Primer Vocal",
              "_links": {
                "self": {
                  "name": "Primer Vocal",
                  "href": "https://api.euskadi.eus/procurements/contracting-authorities/556/entities/1006/orgs/912676"
                }
              }
            }
          ],
          "_links": {
            "self": {
              "name": "Junta Administrativa de Luko",
              "href": "https://api.euskadi.eus/procurements/contracting-authorities/556/entities/1006"
            }
          }
        }
      ],
      "mainEntityOfPage": "https://www.contratacion.euskadi.eus/webkpe00-kpeperfi/es/contenidos/poder_adjudicador/poder556/es_doc/es_arch_poder556.html",
      "_links": {
        "self": {
          "name": "Junta Administrativa de Luko",
          "href": "https://api.euskadi.eus/procurements/contracting-authorities/556"
        }
      }
    },
    {
      "id": 546,
      "identificationNumber": "P0100113J",
      "name": "Junta Administrativa de Gauna",
      "scope": "ARABA/ÁLAVA",
      "address": "Arriba, 47. 01193 Gauna-Iruraiz. Gauna (Araba/Álava)",
      "webPage": "http://www.contratacion.euskadi.eus",
      "publicationDate": "2018-09-12",
      "mainActivity": "Servicios públicos generales",
      "codNUTS": "ES211",
      "entities": [
        {
          "id": 996,
          "name": "Junta Administrativa de Gauna",
          "orgs": [
            {
              "id": 912654,
              "name": "Presidente",
              "_links": {
                "self": {
                  "name": "Presidente",
                  "href": "https://api.euskadi.eus/procurements/contracting-authorities/546/entities/996/orgs/912654"
                }
              }
            }
          ],
          "_links": {
            "self": {
              "name": "Junta Administrativa de Gauna",
              "href": "https://api.euskadi.eus/procurements/contracting-authorities/546/entities/996"
            }
          }
        }
      ],
      "mainEntityOfPage": "https://www.contratacion.euskadi.eus/webkpe00-kpeperfi/es/contenidos/poder_adjudicador/poder546/es_doc/es_arch_poder546.html",
      "_links": {
        "self": {
          "name": "Junta Administrativa de Gauna",
          "href": "https://api.euskadi.eus/procurements/contracting-authorities/546"
        }
      }
    },
    {
      "id": 550,
      "identificationNumber": "G48850127",
      "name": "Hobetuz Fundación Vasca para la Formación Profesional Continua",
      "scope": "CAPV",
      "address": "Gran Vía 35, 6º. 48009 Bilbao (Bizkaia)",
      "webPage": "http://www.hobetuz.eus",
      "publicationDate": "2018-09-12",
      "mainActivity": "Educación",
      "codNUTS": "ES21",
      "entities": [
        {
          "id": 1000,
          "name": "Hobetuz Fundación Vasca para la Formación Profesional Continua",
          "orgs": [
            {
              "id": 912659,
              "name": "Director",
              "_links": {
                "self": {
                  "name": "Director",
                  "href": "https://api.euskadi.eus/procurements/contracting-authorities/550/entities/1000/orgs/912659"
                }
              }
            }
          ],
          "_links": {
            "self": {
              "name": "Hobetuz Fundación Vasca para la Formación Profesional Continua",
              "href": "https://api.euskadi.eus/procurements/contracting-authorities/550/entities/1000"
            }
          }
        }
      ],
      "mainEntityOfPage": "https://www.contratacion.euskadi.eus/webkpe00-kpeperfi/es/contenidos/poder_adjudicador/poder550/es_doc/es_arch_poder550.html",
      "_links": {
        "self": {
          "name": "Hobetuz Fundación Vasca para la Formación Profesional Continua",
          "href": "https://api.euskadi.eus/procurements/contracting-authorities/550"
        }
      }
    },
    {
      "id": 545,
      "identificationNumber": "P0100111D",
      "name": "Junta Administrativa de Ollávarre",
      "scope": "ARABA/ÁLAVA",
      "address": "San Esteban, 1. 01428 Olabarri (Álava/Araba)",
      "webPage": "http://contratacion.euskadi.eus",
      "publicationDate": "2018-08-31",
      "mainActivity": "Servicios públicos generales",
      "codNUTS": "ES211",
      "entities": [
        {
          "id": 995,
          "name": "Junta Administrativa de Ollávarre",
          "orgs": [
            {
              "id": 912653,
              "name": "Asamblea Vecinal",
              "_links": {
                "self": {
                  "name": "Asamblea Vecinal",
                  "href": "https://api.euskadi.eus/procurements/contracting-authorities/545/entities/995/orgs/912653"
                }
              }
            }
          ],
          "_links": {
            "self": {
              "name": "Junta Administrativa de Ollávarre",
              "href": "https://api.euskadi.eus/procurements/contracting-authorities/545/entities/995"
            }
          }
        }
      ],
      "mainEntityOfPage": "https://www.contratacion.euskadi.eus/webkpe00-kpeperfi/es/contenidos/poder_adjudicador/poder545/es_doc/es_arch_poder545.html",
      "_links": {
        "self": {
          "name": "Junta Administrativa de Ollávarre",
          "href": "https://api.euskadi.eus/procurements/contracting-authorities/545"
        }
      }
    },
    {
      "id": 543,
      "identificationNumber": "P0100030F",
      "name": "Junta Administrativa de Izarra",
      "scope": "ARABA/ÁLAVA",
      "address": "Plaza Municipal. 01440 Izarra (Araba/Álava)",
      "webPage": "https://www.contratacion.euskadi.eus/inicio/",
      "publicationDate": "2018-08-29",
      "mainActivity": "Servicios públicos generales",
      "codNUTS": "ES211",
      "entities": [
        {
          "id": 993,
          "name": "Junta Administrativa de Izarra",
          "orgs": [
            {
              "id": 912649,
              "name": "Junta Administrativa",
              "_links": {
                "self": {
                  "name": "Junta Administrativa",
                  "href": "https://api.euskadi.eus/procurements/contracting-authorities/543/entities/993/orgs/912649"
                }
              }
            }
          ],
          "_links": {
            "self": {
              "name": "Junta Administrativa de Izarra",
              "href": "https://api.euskadi.eus/procurements/contracting-authorities/543/entities/993"
            }
          }
        }
      ],
      "mainEntityOfPage": "https://www.contratacion.euskadi.eus/webkpe00-kpeperfi/es/contenidos/poder_adjudicador/poder543/es_doc/es_arch_poder543.html",
      "_links": {
        "self": {
          "name": "Junta Administrativa de Izarra",
          "href": "https://api.euskadi.eus/procurements/contracting-authorities/543"
        }
      }
    },
    {
      "id": 542,
      "identificationNumber": "P0100062I",
      "name": "Junta Administrativa de Murgia",
      "scope": "ARABA/ÁLAVA",
      "address": "Palatu,4. 01130 Murgia (Araba/Álava)",
      "webPage": "https://www.contratacion.euskadi.eus/inicio/",
      "publicationDate": "2018-08-28",
      "mainActivity": "Servicios públicos generales",
      "codNUTS": "ES211",
      "entities": [
        {
          "id": 992,
          "name": "Junta Administrativa de Murgia",
          "orgs": [
            {
              "id": 912648,
              "name": "Junta Administrativa de Murgia",
              "_links": {
                "self": {
                  "name": "Junta Administrativa de Murgia",
                  "href": "https://api.euskadi.eus/procurements/contracting-authorities/542/entities/992/orgs/912648"
                }
              }
            }
          ],
          "_links": {
            "self": {
              "name": "Junta Administrativa de Murgia",
              "href": "https://api.euskadi.eus/procurements/contracting-authorities/542/entities/992"
            }
          }
        }
      ],
      "mainEntityOfPage": "https://www.contratacion.euskadi.eus/webkpe00-kpeperfi/es/contenidos/poder_adjudicador/poder542/es_doc/es_arch_poder542.html",
      "_links": {
        "self": {
          "name": "Junta Administrativa de Murgia",
          "href": "https://api.euskadi.eus/procurements/contracting-authorities/542"
        }
      }
    },
    {
      "id": 535,
      "identificationNumber": "P0100005H",
      "name": "Junta Administrativa del Real Valle de Laminoria",
      "scope": "ARABA/ÁLAVA",
      "address": "Santa Ana, 5. 01129 . Cicujano. Maeztu(Áraba/Álava)",
      "webPage": "http://www.contratacion.euskadi.eus",
      "publicationDate": "2018-08-22",
      "mainActivity": "Servicios públicos generales",
      "codNUTS": "ES211",
      "entities": [
        {
          "id": 985,
          "name": "Junta Administrativa del Real Valle de Laminoria",
          "orgs": [
            {
              "id": 912647,
              "name": "Concejo",
              "_links": {
                "self": {
                  "name": "Concejo",
                  "href": "https://api.euskadi.eus/procurements/contracting-authorities/535/entities/985/orgs/912647"
                }
              }
            }
          ],
          "_links": {
            "self": {
              "name": "Junta Administrativa del Real Valle de Laminoria",
              "href": "https://api.euskadi.eus/procurements/contracting-authorities/535/entities/985"
            }
          }
        }
      ],
      "mainEntityOfPage": "https://www.contratacion.euskadi.eus/webkpe00-kpeperfi/es/contenidos/poder_adjudicador/poder535/es_doc/es_arch_poder535.html",
      "_links": {
        "self": {
          "name": "Junta Administrativa del Real Valle de Laminoria",
          "href": "https://api.euskadi.eus/procurements/contracting-authorities/535"
        }
      }
    },
    {
      "id": 536,
      "identificationNumber": "P0100271F",
      "name": "Junta Administrativa de Artómaña",
      "scope": "ARABA/ÁLAVA",
      "address": "Artómaña s/n. Amurrio",
      "webPage": "http://www.contratacion.euskadi.eus",
      "publicationDate": "2018-08-20",
      "mainActivity": "Servicios públicos generales",
      "codNUTS": "ES211",
      "entities": [
        {
          "id": 986,
          "name": "Junta Administrativa Artómaña",
          "orgs": [
            {
              "id": 912633,
              "name": "Concejo",
              "_links": {
                "self": {
                  "name": "Concejo",
                  "href": "https://api.euskadi.eus/procurements/contracting-authorities/536/entities/986/orgs/912633"
                }
              }
            }
          ],
          "_links": {
            "self": {
              "name": "Junta Administrativa Artómaña",
              "href": "https://api.euskadi.eus/procurements/contracting-authorities/536/entities/986"
            }
          }
        }
      ],
      "mainEntityOfPage": "https://www.contratacion.euskadi.eus/webkpe00-kpeperfi/es/contenidos/poder_adjudicador/poder536/es_doc/es_arch_poder536.html",
      "_links": {
        "self": {
          "name": "Junta Administrativa de Artómaña",
          "href": "https://api.euskadi.eus/procurements/contracting-authorities/536"
        }
      }
    },
    {
      "id": 537,
      "identificationNumber": "P0100348B",
      "name": "Junta Administrativa de Artaza-Escota",
      "scope": "ARABA/ÁLAVA",
      "address": "Única. 01428 Artaza-Escota. Ribera Alta (Araba-Álava)",
      "webPage": "https://www.contratacion.euskadi.eus",
      "publicationDate": "2018-08-17",
      "mainActivity": "Servicios públicos generales",
      "codNUTS": "ES211",
      "entities": [
        {
          "id": 987,
          "name": "Junta Administrativa de Artaza-Escota",
          "orgs": [
            {
              "id": 912636,
              "name": "Concejo",
              "_links": {
                "self": {
                  "name": "Concejo",
                  "href": "https://api.euskadi.eus/procurements/contracting-authorities/537/entities/987/orgs/912636"
                }
              }
            }
          ],
          "_links": {
            "self": {
              "name": "Junta Administrativa de Artaza-Escota",
              "href": "https://api.euskadi.eus/procurements/contracting-authorities/537/entities/987"
            }
          }
        }
      ],
      "mainEntityOfPage": "https://www.contratacion.euskadi.eus/webkpe00-kpeperfi/es/contenidos/poder_adjudicador/poder537/es_doc/es_arch_poder537.html",
      "_links": {
        "self": {
          "name": "Junta Administrativa de Artaza-Escota",
          "href": "https://api.euskadi.eus/procurements/contracting-authorities/537"
        }
      }
    },
    {
      "id": 538,
      "identificationNumber": "P0100130D",
      "name": "Junta Administrativa de Eribe",
      "scope": "ARABA/ÁLAVA",
      "address": "Gorbea,1. 01138 Eribe. Cigoitia(Araba-Álava)",
      "webPage": "http://www.contratacion.euskadi.eus",
      "publicationDate": "2018-08-17",
      "mainActivity": "Servicios públicos generales",
      "codNUTS": "ES211",
      "entities": [
        {
          "id": 988,
          "name": "Junta Administrativa de Eribe",
          "orgs": [
            {
              "id": 912635,
              "name": "Regidor-Presidente",
              "_links": {
                "self": {
                  "name": "Regidor-Presidente",
                  "href": "https://api.euskadi.eus/procurements/contracting-authorities/538/entities/988/orgs/912635"
                }
              }
            },
            {
              "id": 912634,
              "name": "Asamblea vecinal",
              "_links": {
                "self": {
                  "name": "Asamblea vecinal",
                  "href": "https://api.euskadi.eus/procurements/contracting-authorities/538/entities/988/orgs/912634"
                }
              }
            }
          ],
          "_links": {
            "self": {
              "name": "Junta Administrativa de Eribe",
              "href": "https://api.euskadi.eus/procurements/contracting-authorities/538/entities/988"
            }
          }
        }
      ],
      "mainEntityOfPage": "https://www.contratacion.euskadi.eus/webkpe00-kpeperfi/es/contenidos/poder_adjudicador/poder538/es_doc/es_arch_poder538.html",
      "_links": {
        "self": {
          "name": "Junta Administrativa de Eribe",
          "href": "https://api.euskadi.eus/procurements/contracting-authorities/538"
        }
      }
    }
  ]
}