{
  "totalItems": 919,
  "totalPages": 92,
  "currentPage": 38,
  "itemsOfPage": 10,
  "items": [
    {
      "id": 723,
      "identificationNumber": "P0100006F",
      "name": "Junta Administrativa de Azaceta",
      "scope": "ARABA/ÁLAVA",
      "address": "Ebro, 13. Azazeta. 01128 Arraia-Maestu (Álava/Araba)",
      "webPage": "https://www.contratacion.euskadi.eus",
      "publicationDate": "2020-02-17",
      "mainActivity": "Servicios públicos generales",
      "codNUTS": "ES211",
      "entities": [
        {
          "id": 1201,
          "name": "Junta Administrativa de Azaceta",
          "orgs": [
            {
              "id": 913600,
              "name": "Asamblea vecinal ",
              "_links": {
                "self": {
                  "name": "Asamblea vecinal ",
                  "href": "https://api.euskadi.eus/procurements/contracting-authorities/723/entities/1201/orgs/913600"
                }
              }
            },
            {
              "id": 913601,
              "name": "Regidor-Presidente ",
              "_links": {
                "self": {
                  "name": "Regidor-Presidente ",
                  "href": "https://api.euskadi.eus/procurements/contracting-authorities/723/entities/1201/orgs/913601"
                }
              }
            }
          ],
          "_links": {
            "self": {
              "name": "Junta Administrativa de Azaceta",
              "href": "https://api.euskadi.eus/procurements/contracting-authorities/723/entities/1201"
            }
          }
        }
      ],
      "mainEntityOfPage": "https://www.contratacion.euskadi.eus/webkpe00-kpeperfi/es/contenidos/poder_adjudicador/poder723/es_doc/es_arch_poder723.html",
      "_links": {
        "self": {
          "name": "Junta Administrativa de Azaceta",
          "href": "https://api.euskadi.eus/procurements/contracting-authorities/723"
        }
      }
    },
    {
      "id": 21,
      "identificationNumber": "A95282216",
      "name": "ITELAZPI, S.A.",
      "scope": "CAPV",
      "address": "Edificio 101, Parque Tecnológico de Bizkaia. 48170 Zamudio (Bizkaia)",
      "webPage": "http://www.itelazpi.eus",
      "publicationDate": "2020-02-13",
      "mainActivity": "Otra actividad",
      "alternativeActivity": "Telecomunicaciones",
      "codNUTS": "ES21",
      "CPV": [
        {
          "name": "Servicios de telecomunicaciones"
        }
      ],
      "entities": [
        {
          "id": 200,
          "name": "ITELAZPI, S.A.",
          "orgs": [
            {
              "id": 910960,
              "name": "Consejo de Administración - ITELAZPI, S.A.",
              "_links": {
                "self": {
                  "name": "Consejo de Administración - ITELAZPI, S.A.",
                  "href": "https://api.euskadi.eus/procurements/contracting-authorities/21/entities/200/orgs/910960"
                }
              }
            },
            {
              "id": 910962,
              "name": "Director/a - ITELAZPI, S.A.",
              "_links": {
                "self": {
                  "name": "Director/a - ITELAZPI, S.A.",
                  "href": "https://api.euskadi.eus/procurements/contracting-authorities/21/entities/200/orgs/910962"
                }
              }
            },
            {
              "id": 910961,
              "name": "Dos Consejeros/as o un Consejero/a y Director/a - ITELAZPI, S.A.",
              "_links": {
                "self": {
                  "name": "Dos Consejeros/as o un Consejero/a y Director/a - ITELAZPI, S.A.",
                  "href": "https://api.euskadi.eus/procurements/contracting-authorities/21/entities/200/orgs/910961"
                }
              }
            }
          ],
          "_links": {
            "self": {
              "name": "ITELAZPI, S.A.",
              "href": "https://api.euskadi.eus/procurements/contracting-authorities/21/entities/200"
            }
          }
        }
      ],
      "mainEntityOfPage": "https://www.contratacion.euskadi.eus/webkpe00-kpeperfi/es/contenidos/poder_adjudicador/poder21/es_doc/es_arch_poder21.html",
      "_links": {
        "self": {
          "name": "ITELAZPI, S.A.",
          "href": "https://api.euskadi.eus/procurements/contracting-authorities/21"
        },
        "contractingAuthorities": [
          {
            "name": "Gobierno Vasco",
            "href": "https://api.euskadi.eus/procurements/contracting-authorities/16135"
          },
          {
            "name": "Grupo Euskal Irrati Telebista",
            "href": "https://api.euskadi.eus/procurements/contracting-authorities/23357"
          }
        ]
      }
    },
    {
      "id": 60,
      "identificationNumber": "P2009300A",
      "name": "Ayuntamiento de Mendaro",
      "scope": "GIPUZKOA",
      "address": "Herriko Enparantza, 1. 20850 Mendaro (Gipuzkoa)",
      "webPage": "http://www.mendaro.net/",
      "publicationDate": "2020-02-07",
      "mainActivity": "Servicios públicos generales",
      "codNUTS": "ES212",
      "entities": [
        {
          "id": 360,
          "name": "Ayuntamiento de Mendaro",
          "orgs": [
            {
              "id": 911233,
              "name": "Pleno",
              "_links": {
                "self": {
                  "name": "Pleno",
                  "href": "https://api.euskadi.eus/procurements/contracting-authorities/60/entities/360/orgs/911233"
                }
              }
            },
            {
              "id": 911232,
              "name": "Alcaldía ",
              "_links": {
                "self": {
                  "name": "Alcaldía ",
                  "href": "https://api.euskadi.eus/procurements/contracting-authorities/60/entities/360/orgs/911232"
                }
              }
            }
          ],
          "_links": {
            "self": {
              "name": "Ayuntamiento de Mendaro",
              "href": "https://api.euskadi.eus/procurements/contracting-authorities/60/entities/360"
            }
          }
        }
      ],
      "mainEntityOfPage": "https://www.contratacion.euskadi.eus/webkpe00-kpeperfi/es/contenidos/poder_adjudicador/poder60/es_doc/es_arch_poder60.html",
      "_links": {
        "self": {
          "name": "Ayuntamiento de Mendaro",
          "href": "https://api.euskadi.eus/procurements/contracting-authorities/60"
        }
      }
    },
    {
      "id": 414,
      "identificationNumber": "P4810200H",
      "name": "Ayuntamiento de Ubide",
      "scope": "BIZKAIA",
      "address": "Jon Deuna, 4. 48145 Ubide (Bizkaia) ",
      "webPage": "http://www.ubide.eus",
      "publicationDate": "2020-02-07",
      "mainActivity": "Servicios públicos generales",
      "codNUTS": "ES213",
      "entities": [
        {
          "id": 865,
          "name": "Ayuntamiento de Ubide",
          "orgs": [
            {
              "id": 912431,
              "name": "Alcalde ",
              "_links": {
                "self": {
                  "name": "Alcalde ",
                  "href": "https://api.euskadi.eus/procurements/contracting-authorities/414/entities/865/orgs/912431"
                }
              }
            },
            {
              "id": 913599,
              "name": "Pleno",
              "_links": {
                "self": {
                  "name": "Pleno",
                  "href": "https://api.euskadi.eus/procurements/contracting-authorities/414/entities/865/orgs/913599"
                }
              }
            }
          ],
          "_links": {
            "self": {
              "name": "Ayuntamiento de Ubide",
              "href": "https://api.euskadi.eus/procurements/contracting-authorities/414/entities/865"
            }
          }
        }
      ],
      "mainEntityOfPage": "https://www.contratacion.euskadi.eus/webkpe00-kpeperfi/es/contenidos/poder_adjudicador/poder414/es_doc/es_arch_poder414.html",
      "_links": {
        "self": {
          "name": "Ayuntamiento de Ubide",
          "href": "https://api.euskadi.eus/procurements/contracting-authorities/414"
        }
      }
    },
    {
      "id": 722,
      "identificationNumber": "P2007100G",
      "name": "Ayuntamiento de Errezil",
      "scope": "GIPUZKOA",
      "address": "San Martin, 18. 20737 Errezil (Gipuzkoa)",
      "webPage": "http://www.errezil.eus/",
      "publicationDate": "2020-02-06",
      "mainActivity": "Servicios públicos generales",
      "codNUTS": "ES212",
      "entities": [
        {
          "id": 1200,
          "name": "Ayuntamiento de Errezil",
          "orgs": [
            {
              "id": 913598,
              "name": "Pleno",
              "_links": {
                "self": {
                  "name": "Pleno",
                  "href": "https://api.euskadi.eus/procurements/contracting-authorities/722/entities/1200/orgs/913598"
                }
              }
            },
            {
              "id": 913597,
              "name": "Alcaldía ",
              "_links": {
                "self": {
                  "name": "Alcaldía ",
                  "href": "https://api.euskadi.eus/procurements/contracting-authorities/722/entities/1200/orgs/913597"
                }
              }
            }
          ],
          "_links": {
            "self": {
              "name": "Ayuntamiento de Errezil",
              "href": "https://api.euskadi.eus/procurements/contracting-authorities/722/entities/1200"
            }
          }
        }
      ],
      "mainEntityOfPage": "https://www.contratacion.euskadi.eus/webkpe00-kpeperfi/es/contenidos/poder_adjudicador/poder722/es_doc/es_arch_poder722.html",
      "_links": {
        "self": {
          "name": "Ayuntamiento de Errezil",
          "href": "https://api.euskadi.eus/procurements/contracting-authorities/722"
        }
      }
    },
    {
      "id": 721,
      "identificationNumber": "B75037275",
      "name": "Zubillaga Hiltegia S.L.",
      "scope": "GIPUZKOA",
      "address": "Zubillaga Auzoa Auzoa, 63. 20569 Oñati (Gipuzkoa)",
      "webPage": "https://zubillagahiltegia.com/",
      "publicationDate": "2020-02-03",
      "mainActivity": "Otra actividad",
      "alternativeActivity": "Ganaderia",
      "codNUTS": "ES212",
      "entities": [
        {
          "id": 1199,
          "name": "Zubillaga Hiltegia S.L.",
          "orgs": [
            {
              "id": 913596,
              "name": "Presidencia",
              "_links": {
                "self": {
                  "name": "Presidencia",
                  "href": "https://api.euskadi.eus/procurements/contracting-authorities/721/entities/1199/orgs/913596"
                }
              }
            },
            {
              "id": 913595,
              "name": "Consejo de Administración",
              "_links": {
                "self": {
                  "name": "Consejo de Administración",
                  "href": "https://api.euskadi.eus/procurements/contracting-authorities/721/entities/1199/orgs/913595"
                }
              }
            }
          ],
          "_links": {
            "self": {
              "name": "Zubillaga Hiltegia S.L.",
              "href": "https://api.euskadi.eus/procurements/contracting-authorities/721/entities/1199"
            }
          }
        }
      ],
      "mainEntityOfPage": "https://www.contratacion.euskadi.eus/webkpe00-kpeperfi/es/contenidos/poder_adjudicador/poder721/es_doc/es_arch_poder721.html",
      "_links": {
        "self": {
          "name": "Zubillaga Hiltegia S.L.",
          "href": "https://api.euskadi.eus/procurements/contracting-authorities/721"
        }
      }
    },
    {
      "id": 335,
      "identificationNumber": "P9809503G",
      "name": "Serantes Kultur aretoa",
      "scope": "BIZKAIA",
      "address": "Casa Torre Jauregia. Sabino Arana, 5. 48980 Santurtzi (Bizkaia)",
      "webPage": "https://www.serantes.com",
      "publicationDate": "2020-01-29",
      "mainActivity": "Ocio, cultura y religión",
      "codNUTS": "ES213",
      "entities": [
        {
          "id": 786,
          "name": "Serantes Kultur aretoa",
          "orgs": [
            {
              "id": 912269,
              "name": "Consejo Rector",
              "_links": {
                "self": {
                  "name": "Consejo Rector",
                  "href": "https://api.euskadi.eus/procurements/contracting-authorities/335/entities/786/orgs/912269"
                }
              }
            },
            {
              "id": 912268,
              "name": "Presidencia",
              "_links": {
                "self": {
                  "name": "Presidencia",
                  "href": "https://api.euskadi.eus/procurements/contracting-authorities/335/entities/786/orgs/912268"
                }
              }
            }
          ],
          "_links": {
            "self": {
              "name": "Serantes Kultur aretoa",
              "href": "https://api.euskadi.eus/procurements/contracting-authorities/335/entities/786"
            }
          }
        }
      ],
      "mainEntityOfPage": "https://www.contratacion.euskadi.eus/webkpe00-kpeperfi/es/contenidos/poder_adjudicador/poder335/es_doc/es_arch_poder335.html",
      "_links": {
        "self": {
          "name": "Serantes Kultur aretoa",
          "href": "https://api.euskadi.eus/procurements/contracting-authorities/335"
        }
      }
    },
    {
      "id": 718,
      "identificationNumber": "P9805503A",
      "name": "Organismo autónomo Casa de Cultura de Gernika-Lumo",
      "scope": "BIZKAIA",
      "address": "Foru plaza, 2. 48300 Gernika-Lumo (Bizkaia)",
      "webPage": "http://www.kulturagernika-lumo.eus",
      "publicationDate": "2020-01-29",
      "mainActivity": "Ocio, cultura y religión",
      "codNUTS": "ES213",
      "entities": [
        {
          "id": 1196,
          "name": "Organismo autónomo Casa de Cultura de Gernika-Lumo",
          "orgs": [
            {
              "id": 913591,
              "name": "Junta Rectora",
              "_links": {
                "self": {
                  "name": "Junta Rectora",
                  "href": "https://api.euskadi.eus/procurements/contracting-authorities/718/entities/1196/orgs/913591"
                }
              }
            }
          ],
          "_links": {
            "self": {
              "name": "Organismo autónomo Casa de Cultura de Gernika-Lumo",
              "href": "https://api.euskadi.eus/procurements/contracting-authorities/718/entities/1196"
            }
          }
        }
      ],
      "mainEntityOfPage": "https://www.contratacion.euskadi.eus/webkpe00-kpeperfi/es/contenidos/poder_adjudicador/poder718/es_doc/es_arch_poder718.html",
      "_links": {
        "self": {
          "name": "Organismo autónomo Casa de Cultura de Gernika-Lumo",
          "href": "https://api.euskadi.eus/procurements/contracting-authorities/718"
        }
      }
    },
    {
      "id": 719,
      "identificationNumber": "P0100700D",
      "name": "Ayuntamiento de Armiñón",
      "scope": "ARABA/ÁLAVA",
      "address": "Calle Real,1. 01220 Armiñón (Álava/Araba)",
      "webPage": "http://arminon.eus/",
      "publicationDate": "2020-01-29",
      "mainActivity": "Servicios públicos generales",
      "codNUTS": "ES211",
      "entities": [
        {
          "id": 1197,
          "name": "Ayuntamiento de Armiñón",
          "orgs": [
            {
              "id": 913592,
              "name": "Alcalde ",
              "_links": {
                "self": {
                  "name": "Alcalde ",
                  "href": "https://api.euskadi.eus/procurements/contracting-authorities/719/entities/1197/orgs/913592"
                }
              }
            },
            {
              "id": 913593,
              "name": "Pleno",
              "_links": {
                "self": {
                  "name": "Pleno",
                  "href": "https://api.euskadi.eus/procurements/contracting-authorities/719/entities/1197/orgs/913593"
                }
              }
            }
          ],
          "_links": {
            "self": {
              "name": "Ayuntamiento de Armiñón",
              "href": "https://api.euskadi.eus/procurements/contracting-authorities/719/entities/1197"
            }
          }
        }
      ],
      "mainEntityOfPage": "https://www.contratacion.euskadi.eus/webkpe00-kpeperfi/es/contenidos/poder_adjudicador/poder719/es_doc/es_arch_poder719.html",
      "_links": {
        "self": {
          "name": "Ayuntamiento de Armiñón",
          "href": "https://api.euskadi.eus/procurements/contracting-authorities/719"
        }
      }
    },
    {
      "id": 218,
      "identificationNumber": "A48119820",
      "name": "LANTIK",
      "scope": "BIZKAIA",
      "address": "Sabino Arana, 44. 48013 Bilbao (Bizkaia)",
      "webPage": "http://www.lantik.bizkaia.eus",
      "publicationDate": "2020-01-24",
      "mainActivity": "Otra actividad",
      "alternativeActivity": "Servicios Informáticos",
      "codNUTS": "ES213",
      "CPV": [
        {
          "name": "Servicios TI: consultoría, desarrollo de software, Internet y apoyo"
        }
      ],
      "entities": [
        {
          "id": 665,
          "name": "LANTIK ",
          "orgs": [
            {
              "id": 912046,
              "name": "Director-Gerente",
              "_links": {
                "self": {
                  "name": "Director-Gerente",
                  "href": "https://api.euskadi.eus/procurements/contracting-authorities/218/entities/665/orgs/912046"
                }
              }
            }
          ],
          "_links": {
            "self": {
              "name": "LANTIK ",
              "href": "https://api.euskadi.eus/procurements/contracting-authorities/218/entities/665"
            }
          }
        }
      ],
      "mainEntityOfPage": "https://www.contratacion.euskadi.eus/webkpe00-kpeperfi/es/contenidos/poder_adjudicador/poder218/es_doc/es_arch_poder218.html",
      "_links": {
        "self": {
          "name": "LANTIK",
          "href": "https://api.euskadi.eus/procurements/contracting-authorities/218"
        },
        "contractingAuthorities": [
          {
            "name": "BASALAN  A.B, S.A, M.P",
            "href": "https://api.euskadi.eus/procurements/contracting-authorities/18640"
          },
          {
            "name": "Diputación Foral de Bizkaia",
            "href": "https://api.euskadi.eus/procurements/contracting-authorities/18269"
          },
          {
            "name": "Instituto Foral de Asistencia Social de Bizkaia",
            "href": "https://api.euskadi.eus/procurements/contracting-authorities/18064"
          },
          {
            "name": "ZUGAZTEL, M. P., S. A.",
            "href": "https://api.euskadi.eus/procurements/contracting-authorities/18635"
          }
        ]
      }
    }
  ]
}