{
  "totalItems": 919,
  "totalPages": 92,
  "currentPage": 18,
  "itemsOfPage": 10,
  "items": [
    {
      "id": 591,
      "identificationNumber": "G48997159",
      "name": "INNOBASQUE, Agencia Vasca de la Innovación",
      "scope": "CAPV",
      "address": "Laida Bidea edificio 203. 48170 Zamudio (Bizkaia)",
      "webPage": "http://www.innobasque.eus",
      "publicationDate": "2023-03-15",
      "mainActivity": "Otra actividad",
      "alternativeActivity": "Innovación",
      "codNUTS": "ES21",
      "entities": [
        {
          "id": 1041,
          "name": "INNOBASQUE, Agencia Vasca de la Innovación",
          "orgs": [
            {
              "id": 912736,
              "name": "Comité de Dirección",
              "_links": {
                "self": {
                  "name": "Comité de Dirección",
                  "href": "https://api.euskadi.eus/procurements/contracting-authorities/591/entities/1041/orgs/912736"
                }
              }
            }
          ],
          "_links": {
            "self": {
              "name": "INNOBASQUE, Agencia Vasca de la Innovación",
              "href": "https://api.euskadi.eus/procurements/contracting-authorities/591/entities/1041"
            }
          }
        }
      ],
      "mainEntityOfPage": "https://www.contratacion.euskadi.eus/webkpe00-kpeperfi/es/contenidos/poder_adjudicador/poder591/es_doc/index.html",
      "_links": {
        "self": {
          "name": "INNOBASQUE, Agencia Vasca de la Innovación",
          "href": "https://api.euskadi.eus/procurements/contracting-authorities/591"
        }
      }
    },
    {
      "id": 25876,
      "identificationNumber": "P01001179A",
      "name": "Junta Administrativa de Goiuri-Ondona",
      "scope": "ARABA/ÁLAVA",
      "address": "Ondona, 4. Goiru Ondona. Urkabuztaiz CP. 01449. Araba",
      "webPage": "https://web.araba.eus/es/home",
      "publicationDate": "2023-03-06",
      "mainActivity": "Servicios públicos generales",
      "codNUTS": "ES211",
      "entities": [
        {
          "id": 25877,
          "name": "Junta Administrativa de Goiuri-Ondona",
          "orgs": [
            {
              "id": 25878,
              "name": "Concejo de Goiuri-Ondona",
              "_links": {
                "self": {
                  "name": "Concejo de Goiuri-Ondona",
                  "href": "https://api.euskadi.eus/procurements/contracting-authorities/25876/entities/25877/orgs/25878"
                }
              }
            }
          ],
          "_links": {
            "self": {
              "name": "Junta Administrativa de Goiuri-Ondona",
              "href": "https://api.euskadi.eus/procurements/contracting-authorities/25876/entities/25877"
            }
          }
        }
      ],
      "mainEntityOfPage": "https://www.contratacion.euskadi.eus/webkpe00-kpeperfi/es/contenidos/poder_adjudicador/poder25876/es_doc/index.html",
      "_links": {
        "self": {
          "name": "Junta Administrativa de Goiuri-Ondona",
          "href": "https://api.euskadi.eus/procurements/contracting-authorities/25876"
        }
      }
    },
    {
      "id": 158,
      "identificationNumber": "G95172433",
      "name": "Leartibai Fundazioa",
      "scope": "BIZKAIA",
      "address": "Xemein Etorbidea, 12-A Lea-Artibai Berrikuntza Gunea. 48270 Markina-Xemein",
      "webPage": "https://leartibaifundazioa.eus/",
      "publicationDate": "2023-02-28",
      "mainActivity": "Asuntos económicos y financieros",
      "codNUTS": "ES213",
      "entities": [
        {
          "id": 553,
          "name": "Leartibai Fundazioa",
          "orgs": [
            {
              "id": 911788,
              "name": "Patronato",
              "_links": {
                "self": {
                  "name": "Patronato",
                  "href": "https://api.euskadi.eus/procurements/contracting-authorities/158/entities/553/orgs/911788"
                }
              }
            }
          ],
          "_links": {
            "self": {
              "name": "Leartibai Fundazioa",
              "href": "https://api.euskadi.eus/procurements/contracting-authorities/158/entities/553"
            }
          }
        }
      ],
      "mainEntityOfPage": "https://www.contratacion.euskadi.eus/webkpe00-kpeperfi/es/contenidos/poder_adjudicador/poder158/es_doc/index.html",
      "_links": {
        "self": {
          "name": "Leartibai Fundazioa",
          "href": "https://api.euskadi.eus/procurements/contracting-authorities/158"
        }
      }
    },
    {
      "id": 25866,
      "identificationNumber": "P0100120E",
      "name": "Junta Administrativa de Armiñón",
      "scope": "ARABA/ÁLAVA",
      "address": "Calle Real 17 – 01220 Armiñon ",
      "webPage": "http://arminon.eus/",
      "publicationDate": "2023-02-27",
      "mainActivity": "Servicios públicos generales",
      "codNUTS": "ES211",
      "entities": [
        {
          "id": 25867,
          "name": "Junta Administrativa de Armiñón ",
          "orgs": [
            {
              "id": 25868,
              "name": "Junta Administrativa de Armiñón ",
              "_links": {
                "self": {
                  "name": "Junta Administrativa de Armiñón ",
                  "href": "https://api.euskadi.eus/procurements/contracting-authorities/25866/entities/25867/orgs/25868"
                }
              }
            }
          ],
          "_links": {
            "self": {
              "name": "Junta Administrativa de Armiñón ",
              "href": "https://api.euskadi.eus/procurements/contracting-authorities/25866/entities/25867"
            }
          }
        }
      ],
      "mainEntityOfPage": "https://www.contratacion.euskadi.eus/webkpe00-kpeperfi/es/contenidos/poder_adjudicador/poder25866/es_doc/index.html",
      "_links": {
        "self": {
          "name": "Junta Administrativa de Armiñón",
          "href": "https://api.euskadi.eus/procurements/contracting-authorities/25866"
        }
      }
    },
    {
      "id": 25859,
      "identificationNumber": "G95107744",
      "name": "Fundación Blas de Otero",
      "scope": "BIZKAIA",
      "address": "c/ Barrainkua, 5 (48009 Bilbao)",
      "webPage": "https://www.fundacionblasdeotero.org",
      "publicationDate": "2023-02-20",
      "mainActivity": "Ocio, cultura y religión",
      "codNUTS": "ES213",
      "entities": [
        {
          "id": 25860,
          "name": "Fundación Blas de Otero",
          "orgs": [
            {
              "id": 25861,
              "name": "Patronato",
              "_links": {
                "self": {
                  "name": "Patronato",
                  "href": "https://api.euskadi.eus/procurements/contracting-authorities/25859/entities/25860/orgs/25861"
                }
              }
            },
            {
              "id": 25862,
              "name": "Presidencia",
              "_links": {
                "self": {
                  "name": "Presidencia",
                  "href": "https://api.euskadi.eus/procurements/contracting-authorities/25859/entities/25860/orgs/25862"
                }
              }
            },
            {
              "id": 25863,
              "name": "Gerencia",
              "_links": {
                "self": {
                  "name": "Gerencia",
                  "href": "https://api.euskadi.eus/procurements/contracting-authorities/25859/entities/25860/orgs/25863"
                }
              }
            }
          ],
          "_links": {
            "self": {
              "name": "Fundación Blas de Otero",
              "href": "https://api.euskadi.eus/procurements/contracting-authorities/25859/entities/25860"
            }
          }
        }
      ],
      "mainEntityOfPage": "https://www.contratacion.euskadi.eus/webkpe00-kpeperfi/es/contenidos/poder_adjudicador/poder25859/es_doc/index.html",
      "_links": {
        "self": {
          "name": "Fundación Blas de Otero",
          "href": "https://api.euskadi.eus/procurements/contracting-authorities/25859"
        }
      }
    },
    {
      "id": 475,
      "identificationNumber": "A79365821",
      "name": "Tecnologías y Servicios Agrarios S.A., S.M.E., M.P.",
      "scope": "CAPV",
      "address": "Maldonado, 58. 28006 Madrid",
      "webPage": "http://www.tragsa.es",
      "publicationDate": "2023-02-15",
      "mainActivity": "Medio ambiente",
      "codNUTS": "ES300",
      "CPV": [
        {
          "name": "Servicios agrícolas"
        },
        {
          "name": "Servicios agrícolas, forestales, hortícolas, acuícolas y apícolas"
        }
      ],
      "entities": [
        {
          "id": 924,
          "name": "Tecnologías y Servicios Agrarios S.A., S.M.E., M.P.",
          "orgs": [
            {
              "id": 912538,
              "name": "Gerente",
              "_links": {
                "self": {
                  "name": "Gerente",
                  "href": "https://api.euskadi.eus/procurements/contracting-authorities/475/entities/924/orgs/912538"
                }
              }
            }
          ],
          "_links": {
            "self": {
              "name": "Tecnologías y Servicios Agrarios S.A., S.M.E., M.P.",
              "href": "https://api.euskadi.eus/procurements/contracting-authorities/475/entities/924"
            }
          }
        }
      ],
      "mainEntityOfPage": "https://www.contratacion.euskadi.eus/webkpe00-kpeperfi/es/contenidos/poder_adjudicador/poder475/es_doc/index.html",
      "_links": {
        "self": {
          "name": "Tecnologías y Servicios Agrarios S.A., S.M.E., M.P.",
          "href": "https://api.euskadi.eus/procurements/contracting-authorities/475"
        },
        "contractingAuthorities": [
          {
            "name": "Diputación Foral de Bizkaia",
            "href": "https://api.euskadi.eus/procurements/contracting-authorities/18269"
          },
          {
            "name": "Diputación Foral de Gipuzkoa",
            "href": "https://api.euskadi.eus/procurements/contracting-authorities/17263"
          },
          {
            "name": "Diputación Foral de Álava",
            "href": "https://api.euskadi.eus/procurements/contracting-authorities/17585"
          },
          {
            "name": "Gobierno Vasco",
            "href": "https://api.euskadi.eus/procurements/contracting-authorities/16135"
          },
          {
            "name": "HAZI Desarrollo Rural Litoral y Alimentario",
            "href": "https://api.euskadi.eus/procurements/contracting-authorities/17008"
          }
        ]
      }
    },
    {
      "id": 562,
      "identificationNumber": "G20448056",
      "name": "Fundación Cursos de Verano de la UPV/EHU",
      "scope": "CAPV",
      "address": "Mirakontxa pasealekua, 48. Miramar Jauregia. 20007 Donostia (Guipuzkoa)",
      "webPage": "http://www.uik.eus",
      "publicationDate": "2023-02-15",
      "mainActivity": "Ocio, cultura y religión",
      "codNUTS": "ES21",
      "CPV": [
        {
          "name": "Servicios de formación"
        }
      ],
      "entities": [
        {
          "id": 1012,
          "name": "Fundación Cursos de Verano de la UPV/EHU",
          "orgs": [
            {
              "id": 912686,
              "name": "Equipo de Dirección",
              "_links": {
                "self": {
                  "name": "Equipo de Dirección",
                  "href": "https://api.euskadi.eus/procurements/contracting-authorities/562/entities/1012/orgs/912686"
                }
              }
            }
          ],
          "_links": {
            "self": {
              "name": "Fundación Cursos de Verano de la UPV/EHU",
              "href": "https://api.euskadi.eus/procurements/contracting-authorities/562/entities/1012"
            }
          }
        }
      ],
      "mainEntityOfPage": "https://www.contratacion.euskadi.eus/webkpe00-kpeperfi/es/contenidos/poder_adjudicador/poder562/es_doc/index.html",
      "_links": {
        "self": {
          "name": "Fundación Cursos de Verano de la UPV/EHU",
          "href": "https://api.euskadi.eus/procurements/contracting-authorities/562"
        },
        "contractingAuthorities": [
          {
            "name": "UPV/EHU - Universidad del País Vasco",
            "href": "https://api.euskadi.eus/procurements/contracting-authorities/16317"
          }
        ]
      }
    },
    {
      "id": 25853,
      "identificationNumber": "G95138988 ",
      "name": "Fundación BilbaoArte",
      "scope": "BIZKAIA",
      "address": "Urazurrutia, 32. 48003 Bilbao, Bizkaia ",
      "webPage": "https://bilbaoarte.org/",
      "publicationDate": "2023-02-14",
      "mainActivity": "Ocio, cultura y religión",
      "codNUTS": "ES213",
      "entities": [
        {
          "id": 25854,
          "name": "Fundación BilbaoArte",
          "orgs": [
            {
              "id": 25855,
              "name": "Director",
              "_links": {
                "self": {
                  "name": "Director",
                  "href": "https://api.euskadi.eus/procurements/contracting-authorities/25853/entities/25854/orgs/25855"
                }
              }
            }
          ],
          "_links": {
            "self": {
              "name": "Fundación BilbaoArte",
              "href": "https://api.euskadi.eus/procurements/contracting-authorities/25853/entities/25854"
            }
          }
        }
      ],
      "mainEntityOfPage": "https://www.contratacion.euskadi.eus/webkpe00-kpeperfi/es/contenidos/poder_adjudicador/poder25853/es_doc/index.html",
      "_links": {
        "self": {
          "name": "Fundación BilbaoArte",
          "href": "https://api.euskadi.eus/procurements/contracting-authorities/25853"
        }
      }
    },
    {
      "id": 343,
      "identificationNumber": "A95530309",
      "name": "Bilbao Kirolak",
      "scope": "BIZKAIA",
      "address": "Navarra, 5-4ª planta. 48001 Bilbao (Bizkaia)",
      "webPage": "https://www.bilbaokirolak.com",
      "publicationDate": "2023-02-13",
      "mainActivity": "Ocio, cultura y religión",
      "codNUTS": "ES213",
      "entities": [
        {
          "id": 795,
          "name": "Bilbao Kirolak-Instituto Municipal de Deportes S.A.",
          "orgs": [
            {
              "id": 912290,
              "name": "Director General",
              "_links": {
                "self": {
                  "name": "Director General",
                  "href": "https://api.euskadi.eus/procurements/contracting-authorities/343/entities/795/orgs/912290"
                }
              }
            },
            {
              "id": 912291,
              "name": "Presidenta",
              "_links": {
                "self": {
                  "name": "Presidenta",
                  "href": "https://api.euskadi.eus/procurements/contracting-authorities/343/entities/795/orgs/912291"
                }
              }
            }
          ],
          "_links": {
            "self": {
              "name": "Bilbao Kirolak-Instituto Municipal de Deportes S.A.",
              "href": "https://api.euskadi.eus/procurements/contracting-authorities/343/entities/795"
            }
          }
        }
      ],
      "mainEntityOfPage": "https://www.contratacion.euskadi.eus/webkpe00-kpeperfi/es/contenidos/poder_adjudicador/poder343/es_doc/index.html",
      "_links": {
        "self": {
          "name": "Bilbao Kirolak",
          "href": "https://api.euskadi.eus/procurements/contracting-authorities/343"
        }
      }
    },
    {
      "id": 25848,
      "identificationNumber": "G48440978",
      "name": "Asociación de Desarrollo Rural Lea Artibai",
      "scope": "BIZKAIA",
      "address": "Xemein Hiribidea, 12a, 48270 Markina-Xemein, Bizkaia",
      "webPage": "https://leartibaifundazioa.eus/",
      "publicationDate": "2023-02-10",
      "mainActivity": "Servicios públicos generales",
      "codNUTS": "ES213",
      "entities": [
        {
          "id": 25849,
          "name": "Asociación de Desarrollo Rural Lea Artibai",
          "orgs": [
            {
              "id": 25850,
              "name": "Asociación de Desarrollo Rural Lea Artibai",
              "_links": {
                "self": {
                  "name": "Asociación de Desarrollo Rural Lea Artibai",
                  "href": "https://api.euskadi.eus/procurements/contracting-authorities/25848/entities/25849/orgs/25850"
                }
              }
            }
          ],
          "_links": {
            "self": {
              "name": "Asociación de Desarrollo Rural Lea Artibai",
              "href": "https://api.euskadi.eus/procurements/contracting-authorities/25848/entities/25849"
            }
          }
        }
      ],
      "mainEntityOfPage": "https://www.contratacion.euskadi.eus/webkpe00-kpeperfi/es/contenidos/poder_adjudicador/poder25848/es_doc/index.html",
      "_links": {
        "self": {
          "name": "Asociación de Desarrollo Rural Lea Artibai",
          "href": "https://api.euskadi.eus/procurements/contracting-authorities/25848"
        }
      }
    }
  ]
}