{
  "totalItems": 919,
  "totalPages": 92,
  "currentPage": 66,
  "itemsOfPage": 10,
  "items": [
    {
      "id": 429,
      "identificationNumber": "P0107000B",
      "name": "Ayuntamiento de Zalduondo",
      "scope": "ARABA/ÁLAVA",
      "address": "Barrio Arbin, 3. 01208 Zalduondo (Araba/Álava)",
      "webPage": "http://www.contratacion.euskadi.eus",
      "publicationDate": "2019-10-04",
      "mainActivity": "Servicios públicos generales",
      "codNUTS": "ES211",
      "entities": [
        {
          "id": 880,
          "name": "Ayuntamiento de Zalduondo",
          "orgs": [
            {
              "id": 912462,
              "name": "Alcaldía",
              "_links": {
                "self": {
                  "name": "Alcaldía",
                  "href": "https://api.euskadi.eus/procurements/contracting-authorities/429/entities/880/orgs/912462"
                }
              }
            },
            {
              "id": 912463,
              "name": "Pleno",
              "_links": {
                "self": {
                  "name": "Pleno",
                  "href": "https://api.euskadi.eus/procurements/contracting-authorities/429/entities/880/orgs/912463"
                }
              }
            }
          ],
          "_links": {
            "self": {
              "name": "Ayuntamiento de Zalduondo",
              "href": "https://api.euskadi.eus/procurements/contracting-authorities/429/entities/880"
            }
          }
        }
      ],
      "mainEntityOfPage": "https://www.contratacion.euskadi.eus/webkpe00-kpeperfi/es/contenidos/poder_adjudicador/poder429/es_doc/es_arch_poder429.html",
      "_links": {
        "self": {
          "name": "Ayuntamiento de Zalduondo",
          "href": "https://api.euskadi.eus/procurements/contracting-authorities/429"
        }
      }
    },
    {
      "id": 430,
      "identificationNumber": "P2007700D",
      "name": "Ayuntamiento de Urnieta",
      "scope": "GIPUZKOA",
      "address": "Plaza San Juan, 5. 20130 Urnieta (Gipuzkoa)",
      "webPage": "http://www.urnieta.eus",
      "publicationDate": "2019-10-04",
      "mainActivity": "Servicios públicos generales",
      "codNUTS": "ES212",
      "entities": [
        {
          "id": 881,
          "name": "Ayuntamiento de Urnieta",
          "orgs": [
            {
              "id": 912874,
              "name": "Alcalde",
              "_links": {
                "self": {
                  "name": "Alcalde",
                  "href": "https://api.euskadi.eus/procurements/contracting-authorities/430/entities/881/orgs/912874"
                }
              }
            },
            {
              "id": 912465,
              "name": "Pleno",
              "_links": {
                "self": {
                  "name": "Pleno",
                  "href": "https://api.euskadi.eus/procurements/contracting-authorities/430/entities/881/orgs/912465"
                }
              }
            },
            {
              "id": 912464,
              "name": "Junta de Gobierno Local",
              "_links": {
                "self": {
                  "name": "Junta de Gobierno Local",
                  "href": "https://api.euskadi.eus/procurements/contracting-authorities/430/entities/881/orgs/912464"
                }
              }
            }
          ],
          "_links": {
            "self": {
              "name": "Ayuntamiento de Urnieta",
              "href": "https://api.euskadi.eus/procurements/contracting-authorities/430/entities/881"
            }
          }
        }
      ],
      "mainEntityOfPage": "https://www.contratacion.euskadi.eus/webkpe00-kpeperfi/es/contenidos/poder_adjudicador/poder430/es_doc/es_arch_poder430.html",
      "_links": {
        "self": {
          "name": "Ayuntamiento de Urnieta",
          "href": "https://api.euskadi.eus/procurements/contracting-authorities/430"
        }
      }
    },
    {
      "id": 437,
      "identificationNumber": "P2007500H",
      "name": "Ayuntamiento de Segura",
      "scope": "GIPUZKOA",
      "address": "Laroizabal kalea, 5. 20214 Segura (Gipuzkoa)",
      "webPage": "http://www.segura.eus",
      "publicationDate": "2019-10-04",
      "mainActivity": "Servicios públicos generales",
      "codNUTS": "ES212",
      "entities": [
        {
          "id": 887,
          "name": "Ayuntamiento de Segura",
          "orgs": [
            {
              "id": 912476,
              "name": "Alcalde",
              "_links": {
                "self": {
                  "name": "Alcalde",
                  "href": "https://api.euskadi.eus/procurements/contracting-authorities/437/entities/887/orgs/912476"
                }
              }
            },
            {
              "id": 912477,
              "name": "Pleno",
              "_links": {
                "self": {
                  "name": "Pleno",
                  "href": "https://api.euskadi.eus/procurements/contracting-authorities/437/entities/887/orgs/912477"
                }
              }
            }
          ],
          "_links": {
            "self": {
              "name": "Ayuntamiento de Segura",
              "href": "https://api.euskadi.eus/procurements/contracting-authorities/437/entities/887"
            }
          }
        }
      ],
      "mainEntityOfPage": "https://www.contratacion.euskadi.eus/webkpe00-kpeperfi/es/contenidos/poder_adjudicador/poder437/es_doc/es_arch_poder437.html",
      "_links": {
        "self": {
          "name": "Ayuntamiento de Segura",
          "href": "https://api.euskadi.eus/procurements/contracting-authorities/437"
        }
      }
    },
    {
      "id": 438,
      "identificationNumber": "P2000005E",
      "name": "Parzonería General de Gipuzkoa y Álava",
      "scope": "GIPUZKOA",
      "address": "Laroizabal kalea, 5. 20214 Segura (Gipzukoa)",
      "webPage": "http://www.segura.eus",
      "publicationDate": "2019-10-04",
      "mainActivity": "Medio ambiente",
      "codNUTS": "ES212",
      "entities": [
        {
          "id": 888,
          "name": "Parzonería General de Gipuzkoa y Álava",
          "orgs": [
            {
              "id": 912479,
              "name": "Junta",
              "_links": {
                "self": {
                  "name": "Junta",
                  "href": "https://api.euskadi.eus/procurements/contracting-authorities/438/entities/888/orgs/912479"
                }
              }
            },
            {
              "id": 912478,
              "name": "Presidente",
              "_links": {
                "self": {
                  "name": "Presidente",
                  "href": "https://api.euskadi.eus/procurements/contracting-authorities/438/entities/888/orgs/912478"
                }
              }
            }
          ],
          "_links": {
            "self": {
              "name": "Parzonería General de Gipuzkoa y Álava",
              "href": "https://api.euskadi.eus/procurements/contracting-authorities/438/entities/888"
            }
          }
        }
      ],
      "mainEntityOfPage": "https://www.contratacion.euskadi.eus/webkpe00-kpeperfi/es/contenidos/poder_adjudicador/poder438/es_doc/es_arch_poder438.html",
      "_links": {
        "self": {
          "name": "Parzonería General de Gipuzkoa y Álava",
          "href": "https://api.euskadi.eus/procurements/contracting-authorities/438"
        }
      }
    },
    {
      "id": 458,
      "identificationNumber": "P0106500B",
      "name": "Ayuntamiento de Valle de Arana",
      "scope": "ARABA/ÁLAVA",
      "address": "Avenida Entzia, 52. 01117 Harana/Valle de Arana (Araba/Álava)",
      "webPage": "https://www.valledearana.eus",
      "publicationDate": "2019-10-04",
      "mainActivity": "Servicios públicos generales",
      "codNUTS": "ES211",
      "entities": [
        {
          "id": 907,
          "name": "Ayuntamiento de Valle de Arana",
          "orgs": [
            {
              "id": 912508,
              "name": "Pleno",
              "_links": {
                "self": {
                  "name": "Pleno",
                  "href": "https://api.euskadi.eus/procurements/contracting-authorities/458/entities/907/orgs/912508"
                }
              }
            },
            {
              "id": 912507,
              "name": "Alcaldía",
              "_links": {
                "self": {
                  "name": "Alcaldía",
                  "href": "https://api.euskadi.eus/procurements/contracting-authorities/458/entities/907/orgs/912507"
                }
              }
            }
          ],
          "_links": {
            "self": {
              "name": "Ayuntamiento de Valle de Arana",
              "href": "https://api.euskadi.eus/procurements/contracting-authorities/458/entities/907"
            }
          }
        }
      ],
      "mainEntityOfPage": "https://www.contratacion.euskadi.eus/webkpe00-kpeperfi/es/contenidos/poder_adjudicador/poder458/es_doc/es_arch_poder458.html",
      "_links": {
        "self": {
          "name": "Ayuntamiento de Valle de Arana",
          "href": "https://api.euskadi.eus/procurements/contracting-authorities/458"
        }
      }
    },
    {
      "id": 460,
      "identificationNumber": "A20326732",
      "name": "Azpeitia Berritzen S.A.",
      "scope": "GIPUZKOA",
      "address": "Plaza Nagusia, 5. 20730 Azpeitia (Gipzukoa)",
      "webPage": "http://www.azpeitia.eus",
      "publicationDate": "2019-10-04",
      "mainActivity": "Vivienda y servicios comunitarios",
      "codNUTS": "ES212",
      "entities": [
        {
          "id": 909,
          "name": "Azpeitia Berritzen S.A.",
          "orgs": [
            {
              "id": 912512,
              "name": "Consejo de Admnistración",
              "_links": {
                "self": {
                  "name": "Consejo de Admnistración",
                  "href": "https://api.euskadi.eus/procurements/contracting-authorities/460/entities/909/orgs/912512"
                }
              }
            }
          ],
          "_links": {
            "self": {
              "name": "Azpeitia Berritzen S.A.",
              "href": "https://api.euskadi.eus/procurements/contracting-authorities/460/entities/909"
            }
          }
        }
      ],
      "mainEntityOfPage": "https://www.contratacion.euskadi.eus/webkpe00-kpeperfi/es/contenidos/poder_adjudicador/poder460/es_doc/es_arch_poder460.html",
      "_links": {
        "self": {
          "name": "Azpeitia Berritzen S.A.",
          "href": "https://api.euskadi.eus/procurements/contracting-authorities/460"
        }
      }
    },
    {
      "id": 462,
      "identificationNumber": "P0101400J",
      "name": "Ayuntamiento de Barrundia",
      "scope": "ARABA/ÁLAVA",
      "address": "Boilar, 12. 01206 Barrundia (Araba/Álava)",
      "webPage": "http://www.barrundia.eus",
      "publicationDate": "2019-10-04",
      "mainActivity": "Servicios públicos generales",
      "codNUTS": "ES211",
      "entities": [
        {
          "id": 911,
          "name": "Ayuntamiento de Barrundia",
          "orgs": [
            {
              "id": 912516,
              "name": "Pleno",
              "_links": {
                "self": {
                  "name": "Pleno",
                  "href": "https://api.euskadi.eus/procurements/contracting-authorities/462/entities/911/orgs/912516"
                }
              }
            },
            {
              "id": 912515,
              "name": "Alcaldía ",
              "_links": {
                "self": {
                  "name": "Alcaldía ",
                  "href": "https://api.euskadi.eus/procurements/contracting-authorities/462/entities/911/orgs/912515"
                }
              }
            }
          ],
          "_links": {
            "self": {
              "name": "Ayuntamiento de Barrundia",
              "href": "https://api.euskadi.eus/procurements/contracting-authorities/462/entities/911"
            }
          }
        }
      ],
      "mainEntityOfPage": "https://www.contratacion.euskadi.eus/webkpe00-kpeperfi/es/contenidos/poder_adjudicador/poder462/es_doc/es_arch_poder462.html",
      "_links": {
        "self": {
          "name": "Ayuntamiento de Barrundia",
          "href": "https://api.euskadi.eus/procurements/contracting-authorities/462"
        }
      }
    },
    {
      "id": 463,
      "identificationNumber": "P0105700I",
      "name": "Ayuntamiento de Agurain",
      "scope": "ARABA/ÁLAVA",
      "address": "Zapatari, 15. 01200 Agurain/Salvatierra (Araba/Álava) ",
      "webPage": "http://www.agurain.eus",
      "publicationDate": "2019-10-04",
      "mainActivity": "Servicios públicos generales",
      "codNUTS": "ES211",
      "entities": [
        {
          "id": 912,
          "name": "Ayuntamiento de Agurain.",
          "orgs": [
            {
              "id": 912519,
              "name": "Alcalde",
              "_links": {
                "self": {
                  "name": "Alcalde",
                  "href": "https://api.euskadi.eus/procurements/contracting-authorities/463/entities/912/orgs/912519"
                }
              }
            },
            {
              "id": 912520,
              "name": "Pleno",
              "_links": {
                "self": {
                  "name": "Pleno",
                  "href": "https://api.euskadi.eus/procurements/contracting-authorities/463/entities/912/orgs/912520"
                }
              }
            },
            {
              "id": 912521,
              "name": "Junta de Gobierno Local",
              "_links": {
                "self": {
                  "name": "Junta de Gobierno Local",
                  "href": "https://api.euskadi.eus/procurements/contracting-authorities/463/entities/912/orgs/912521"
                }
              }
            }
          ],
          "_links": {
            "self": {
              "name": "Ayuntamiento de Agurain.",
              "href": "https://api.euskadi.eus/procurements/contracting-authorities/463/entities/912"
            }
          }
        }
      ],
      "mainEntityOfPage": "https://www.contratacion.euskadi.eus/webkpe00-kpeperfi/es/contenidos/poder_adjudicador/poder463/es_doc/es_arch_poder463.html",
      "_links": {
        "self": {
          "name": "Ayuntamiento de Agurain",
          "href": "https://api.euskadi.eus/procurements/contracting-authorities/463"
        }
      }
    },
    {
      "id": 471,
      "identificationNumber": "P0105800G",
      "name": "Ayuntamiento de Samaniego",
      "scope": "ARABA/ÁLAVA",
      "address": "Sor Felicias, 1. 01307 Samaniego (Araba/Álava)",
      "webPage": "http://www.ayuntamientosamaniego.com",
      "publicationDate": "2019-10-04",
      "mainActivity": "Servicios públicos generales",
      "codNUTS": "ES211",
      "entities": [
        {
          "id": 920,
          "name": "Ayuntamiento de Samaniego",
          "orgs": [
            {
              "id": 912533,
              "name": "Alcaldía",
              "_links": {
                "self": {
                  "name": "Alcaldía",
                  "href": "https://api.euskadi.eus/procurements/contracting-authorities/471/entities/920/orgs/912533"
                }
              }
            },
            {
              "id": 912682,
              "name": "Pleno",
              "_links": {
                "self": {
                  "name": "Pleno",
                  "href": "https://api.euskadi.eus/procurements/contracting-authorities/471/entities/920/orgs/912682"
                }
              }
            }
          ],
          "_links": {
            "self": {
              "name": "Ayuntamiento de Samaniego",
              "href": "https://api.euskadi.eus/procurements/contracting-authorities/471/entities/920"
            }
          }
        }
      ],
      "mainEntityOfPage": "https://www.contratacion.euskadi.eus/webkpe00-kpeperfi/es/contenidos/poder_adjudicador/poder471/es_doc/es_arch_poder471.html",
      "_links": {
        "self": {
          "name": "Ayuntamiento de Samaniego",
          "href": "https://api.euskadi.eus/procurements/contracting-authorities/471"
        }
      }
    },
    {
      "id": 472,
      "identificationNumber": "P0106600J",
      "name": "Ayuntamiento de Villabuena de Álava",
      "scope": "ARABA/ÁLAVA",
      "address": "Herreria, 15. 01307 Villabuena de Álava (Araba/Álava)",
      "webPage": "http://www.villabuenadealava.org",
      "publicationDate": "2019-10-04",
      "mainActivity": "Servicios públicos generales",
      "codNUTS": "ES211",
      "entities": [
        {
          "id": 921,
          "name": "Ayuntamiento de Villabuena de Álava",
          "orgs": [
            {
              "id": 912684,
              "name": "Pleno",
              "_links": {
                "self": {
                  "name": "Pleno",
                  "href": "https://api.euskadi.eus/procurements/contracting-authorities/472/entities/921/orgs/912684"
                }
              }
            },
            {
              "id": 912534,
              "name": "Alcaldía",
              "_links": {
                "self": {
                  "name": "Alcaldía",
                  "href": "https://api.euskadi.eus/procurements/contracting-authorities/472/entities/921/orgs/912534"
                }
              }
            }
          ],
          "_links": {
            "self": {
              "name": "Ayuntamiento de Villabuena de Álava",
              "href": "https://api.euskadi.eus/procurements/contracting-authorities/472/entities/921"
            }
          }
        }
      ],
      "mainEntityOfPage": "https://www.contratacion.euskadi.eus/webkpe00-kpeperfi/es/contenidos/poder_adjudicador/poder472/es_doc/es_arch_poder472.html",
      "_links": {
        "self": {
          "name": "Ayuntamiento de Villabuena de Álava",
          "href": "https://api.euskadi.eus/procurements/contracting-authorities/472"
        }
      }
    }
  ]
}