{
  "totalItems": 919,
  "totalPages": 92,
  "currentPage": 61,
  "itemsOfPage": 10,
  "items": [
    {
      "id": 108,
      "identificationNumber": "P2006300D",
      "name": "Ayuntamiento de Oñati",
      "scope": "GIPUZKOA",
      "address": "Foruen Enparantza, 1. 20560 Oñati (Gipuzkoa)",
      "webPage": "http://www.oñati.eus",
      "publicationDate": "2019-10-04",
      "mainActivity": "Servicios públicos generales",
      "codNUTS": "ES212",
      "entities": [
        {
          "id": 459,
          "name": "Ayuntamiento de Oñati",
          "orgs": [
            {
              "id": 911500,
              "name": "Alcalde",
              "_links": {
                "self": {
                  "name": "Alcalde",
                  "href": "https://api.euskadi.eus/procurements/contracting-authorities/108/entities/459/orgs/911500"
                }
              }
            },
            {
              "id": 911499,
              "name": "Pleno Municipal",
              "_links": {
                "self": {
                  "name": "Pleno Municipal",
                  "href": "https://api.euskadi.eus/procurements/contracting-authorities/108/entities/459/orgs/911499"
                }
              }
            }
          ],
          "_links": {
            "self": {
              "name": "Ayuntamiento de Oñati",
              "href": "https://api.euskadi.eus/procurements/contracting-authorities/108/entities/459"
            }
          }
        }
      ],
      "mainEntityOfPage": "https://www.contratacion.euskadi.eus/webkpe00-kpeperfi/es/contenidos/poder_adjudicador/poder108/es_doc/es_arch_poder108.html",
      "_links": {
        "self": {
          "name": "Ayuntamiento de Oñati",
          "href": "https://api.euskadi.eus/procurements/contracting-authorities/108"
        }
      }
    },
    {
      "id": 110,
      "identificationNumber": "A20925483",
      "name": "Oiartzungo Turismo Aukerak S.A.",
      "scope": "GIPUZKOA",
      "address": "Doneztebe enparantza, 1. 20180 Oiartzun (Gipuzkoa)",
      "webPage": "http://www.arditurri.com",
      "publicationDate": "2019-10-04",
      "mainActivity": "Ocio, cultura y religión",
      "codNUTS": "ES212",
      "entities": [
        {
          "id": 461,
          "name": "Oiartzungo Turismo Aukerak S.A.",
          "orgs": [
            {
              "id": 911503,
              "name": "Consejo de Administración",
              "_links": {
                "self": {
                  "name": "Consejo de Administración",
                  "href": "https://api.euskadi.eus/procurements/contracting-authorities/110/entities/461/orgs/911503"
                }
              }
            },
            {
              "id": 911504,
              "name": "Consejero Delegado",
              "_links": {
                "self": {
                  "name": "Consejero Delegado",
                  "href": "https://api.euskadi.eus/procurements/contracting-authorities/110/entities/461/orgs/911504"
                }
              }
            }
          ],
          "_links": {
            "self": {
              "name": "Oiartzungo Turismo Aukerak S.A.",
              "href": "https://api.euskadi.eus/procurements/contracting-authorities/110/entities/461"
            }
          }
        }
      ],
      "mainEntityOfPage": "https://www.contratacion.euskadi.eus/webkpe00-kpeperfi/es/contenidos/poder_adjudicador/poder110/es_doc/es_arch_poder110.html",
      "_links": {
        "self": {
          "name": "Oiartzungo Turismo Aukerak S.A.",
          "href": "https://api.euskadi.eus/procurements/contracting-authorities/110"
        }
      }
    },
    {
      "id": 113,
      "identificationNumber": "08902239C",
      "name": "Ayuntamiento de Urretxu",
      "scope": "GIPUZKOA",
      "address": "Plaza Iparraguirre, 20. 20700 Urretxu (Gipuzkoa)",
      "webPage": "http://www.urretxu.eus",
      "publicationDate": "2019-10-04",
      "mainActivity": "Servicios públicos generales",
      "codNUTS": "ES212",
      "entities": [
        {
          "id": 464,
          "name": "Ayuntamiento de Urretxu",
          "orgs": [
            {
              "id": 911512,
              "name": "Junta de Gobierno",
              "_links": {
                "self": {
                  "name": "Junta de Gobierno",
                  "href": "https://api.euskadi.eus/procurements/contracting-authorities/113/entities/464/orgs/911512"
                }
              }
            },
            {
              "id": 911511,
              "name": "Pleno",
              "_links": {
                "self": {
                  "name": "Pleno",
                  "href": "https://api.euskadi.eus/procurements/contracting-authorities/113/entities/464/orgs/911511"
                }
              }
            },
            {
              "id": 911510,
              "name": "Alcalde",
              "_links": {
                "self": {
                  "name": "Alcalde",
                  "href": "https://api.euskadi.eus/procurements/contracting-authorities/113/entities/464/orgs/911510"
                }
              }
            }
          ],
          "_links": {
            "self": {
              "name": "Ayuntamiento de Urretxu",
              "href": "https://api.euskadi.eus/procurements/contracting-authorities/113/entities/464"
            }
          }
        }
      ],
      "mainEntityOfPage": "https://www.contratacion.euskadi.eus/webkpe00-kpeperfi/es/contenidos/poder_adjudicador/poder113/es_doc/es_arch_poder113.html",
      "_links": {
        "self": {
          "name": "Ayuntamiento de Urretxu",
          "href": "https://api.euskadi.eus/procurements/contracting-authorities/113"
        }
      }
    },
    {
      "id": 117,
      "identificationNumber": "P2008600E",
      "name": "Ayuntamiento de Zumarraga",
      "scope": "GIPUZKOA",
      "address": "Plaza Euskadi, 1. 20700 Zumarraga (Gipuzkoa)",
      "webPage": "http://www.zumarraga.net",
      "publicationDate": "2019-10-04",
      "mainActivity": "Servicios públicos generales",
      "codNUTS": "ES212",
      "entities": [
        {
          "id": 468,
          "name": "Ayuntamiento de Zumarraga",
          "orgs": [
            {
              "id": 911517,
              "name": "Alcalde",
              "_links": {
                "self": {
                  "name": "Alcalde",
                  "href": "https://api.euskadi.eus/procurements/contracting-authorities/117/entities/468/orgs/911517"
                }
              }
            },
            {
              "id": 911518,
              "name": "Junta de Gobierno Local",
              "_links": {
                "self": {
                  "name": "Junta de Gobierno Local",
                  "href": "https://api.euskadi.eus/procurements/contracting-authorities/117/entities/468/orgs/911518"
                }
              }
            },
            {
              "id": 911519,
              "name": "Ayuntamiento-Pleno",
              "_links": {
                "self": {
                  "name": "Ayuntamiento-Pleno",
                  "href": "https://api.euskadi.eus/procurements/contracting-authorities/117/entities/468/orgs/911519"
                }
              }
            }
          ],
          "_links": {
            "self": {
              "name": "Ayuntamiento de Zumarraga",
              "href": "https://api.euskadi.eus/procurements/contracting-authorities/117/entities/468"
            }
          }
        }
      ],
      "mainEntityOfPage": "https://www.contratacion.euskadi.eus/webkpe00-kpeperfi/es/contenidos/poder_adjudicador/poder117/es_doc/es_arch_poder117.html",
      "_links": {
        "self": {
          "name": "Ayuntamiento de Zumarraga",
          "href": "https://api.euskadi.eus/procurements/contracting-authorities/117"
        }
      }
    },
    {
      "id": 121,
      "identificationNumber": "P0105300H",
      "name": "Ayuntamiento de Ribera Baja",
      "scope": "ARABA/ÁLAVA",
      "address": "Plaza San Martín, 1. 01213 Ribabellosa (Alava-Araba)",
      "webPage": "http://www.riberabaja.eus/es/",
      "publicationDate": "2019-10-04",
      "mainActivity": "Servicios públicos generales",
      "codNUTS": "ES211",
      "entities": [
        {
          "id": 473,
          "name": "Ayuntamiento de Ribera Baja",
          "orgs": [
            {
              "id": 911544,
              "name": "Pleno de la Corporación",
              "_links": {
                "self": {
                  "name": "Pleno de la Corporación",
                  "href": "https://api.euskadi.eus/procurements/contracting-authorities/121/entities/473/orgs/911544"
                }
              }
            },
            {
              "id": 911543,
              "name": "Alcaldía  ",
              "_links": {
                "self": {
                  "name": "Alcaldía  ",
                  "href": "https://api.euskadi.eus/procurements/contracting-authorities/121/entities/473/orgs/911543"
                }
              }
            }
          ],
          "_links": {
            "self": {
              "name": "Ayuntamiento de Ribera Baja",
              "href": "https://api.euskadi.eus/procurements/contracting-authorities/121/entities/473"
            }
          }
        }
      ],
      "mainEntityOfPage": "https://www.contratacion.euskadi.eus/webkpe00-kpeperfi/es/contenidos/poder_adjudicador/poder121/es_doc/es_arch_poder121.html",
      "_links": {
        "self": {
          "name": "Ayuntamiento de Ribera Baja",
          "href": "https://api.euskadi.eus/procurements/contracting-authorities/121"
        }
      }
    },
    {
      "id": 125,
      "identificationNumber": "P2000029E",
      "name": "Residencia Iturbide",
      "scope": "GIPUZKOA",
      "address": "Herriko plaza, 1. 20500 Arrasate/Mondragón (Gipuzkoa)",
      "webPage": "http://www.arrasate.eus",
      "publicationDate": "2019-10-04",
      "mainActivity": "Protección social",
      "codNUTS": "ES212",
      "entities": [
        {
          "id": 477,
          "name": "Residencia Iturbide",
          "orgs": [
            {
              "id": 911551,
              "name": "Residencia Iturbide",
              "_links": {
                "self": {
                  "name": "Residencia Iturbide",
                  "href": "https://api.euskadi.eus/procurements/contracting-authorities/125/entities/477/orgs/911551"
                }
              }
            }
          ],
          "_links": {
            "self": {
              "name": "Residencia Iturbide",
              "href": "https://api.euskadi.eus/procurements/contracting-authorities/125/entities/477"
            }
          }
        }
      ],
      "mainEntityOfPage": "https://www.contratacion.euskadi.eus/webkpe00-kpeperfi/es/contenidos/poder_adjudicador/poder125/es_doc/es_arch_poder125.html",
      "_links": {
        "self": {
          "name": "Residencia Iturbide",
          "href": "https://api.euskadi.eus/procurements/contracting-authorities/125"
        }
      }
    },
    {
      "id": 137,
      "identificationNumber": "P0107200H",
      "name": "Ayuntamiento de Zuia",
      "scope": "ARABA/ÁLAVA",
      "address": "Plaza del Ayuntamiento, 1. 01130 Murgia (Araba/Alava)",
      "webPage": "http://www.zuia.eus",
      "publicationDate": "2019-10-04",
      "mainActivity": "Servicios públicos generales",
      "codNUTS": "ES211",
      "entities": [
        {
          "id": 504,
          "name": "Ayuntamiento de Zuia",
          "orgs": [
            {
              "id": 911588,
              "name": "Pleno",
              "_links": {
                "self": {
                  "name": "Pleno",
                  "href": "https://api.euskadi.eus/procurements/contracting-authorities/137/entities/504/orgs/911588"
                }
              }
            },
            {
              "id": 911587,
              "name": "Alcalde",
              "_links": {
                "self": {
                  "name": "Alcalde",
                  "href": "https://api.euskadi.eus/procurements/contracting-authorities/137/entities/504/orgs/911587"
                }
              }
            }
          ],
          "_links": {
            "self": {
              "name": "Ayuntamiento de Zuia",
              "href": "https://api.euskadi.eus/procurements/contracting-authorities/137/entities/504"
            }
          }
        }
      ],
      "mainEntityOfPage": "https://www.contratacion.euskadi.eus/webkpe00-kpeperfi/es/contenidos/poder_adjudicador/poder137/es_doc/es_arch_poder137.html",
      "_links": {
        "self": {
          "name": "Ayuntamiento de Zuia",
          "href": "https://api.euskadi.eus/procurements/contracting-authorities/137"
        }
      }
    },
    {
      "id": 140,
      "identificationNumber": "A20479275",
      "name": "Parque Científico y Tecnológico de Gipuzkoa, S.A.",
      "scope": "GIPUZKOA",
      "address": "Paseo Mikeletegi, 53. 20009 Donostia-San Sebastián (Gipuzkoa)",
      "webPage": "http://www.parke.eus/gipuzkoa",
      "publicationDate": "2019-10-04",
      "mainActivity": "Asuntos económicos y financieros",
      "codNUTS": "ES212",
      "entities": [
        {
          "id": 507,
          "name": "Parque Científico y Tecnológico de Gipuzkoa",
          "orgs": [
            {
              "id": 912755,
              "name": "Gerencia",
              "_links": {
                "self": {
                  "name": "Gerencia",
                  "href": "https://api.euskadi.eus/procurements/contracting-authorities/140/entities/507/orgs/912755"
                }
              }
            },
            {
              "id": 911593,
              "name": "Consejo de Administración",
              "_links": {
                "self": {
                  "name": "Consejo de Administración",
                  "href": "https://api.euskadi.eus/procurements/contracting-authorities/140/entities/507/orgs/911593"
                }
              }
            },
            {
              "id": 912754,
              "name": "Dirección General",
              "_links": {
                "self": {
                  "name": "Dirección General",
                  "href": "https://api.euskadi.eus/procurements/contracting-authorities/140/entities/507/orgs/912754"
                }
              }
            }
          ],
          "_links": {
            "self": {
              "name": "Parque Científico y Tecnológico de Gipuzkoa",
              "href": "https://api.euskadi.eus/procurements/contracting-authorities/140/entities/507"
            }
          }
        }
      ],
      "mainEntityOfPage": "https://www.contratacion.euskadi.eus/webkpe00-kpeperfi/es/contenidos/poder_adjudicador/poder140/es_doc/es_arch_poder140.html",
      "_links": {
        "self": {
          "name": "Parque Científico y Tecnológico de Gipuzkoa, S.A.",
          "href": "https://api.euskadi.eus/procurements/contracting-authorities/140"
        }
      }
    },
    {
      "id": 145,
      "identificationNumber": "P0101000H",
      "name": "Ayuntamiento de Asparrena",
      "scope": "ARABA/ÁLAVA",
      "address": "Herriko enparantza,1. 01250 Araia (Araba/Álava)",
      "webPage": "http://www.asparrena.eus",
      "publicationDate": "2019-10-04",
      "mainActivity": "Servicios públicos generales",
      "codNUTS": "ES211",
      "entities": [
        {
          "id": 532,
          "name": "Ayuntamiento de Asparrena",
          "orgs": [
            {
              "id": 911681,
              "name": "Pleno Ayuntamiento",
              "_links": {
                "self": {
                  "name": "Pleno Ayuntamiento",
                  "href": "https://api.euskadi.eus/procurements/contracting-authorities/145/entities/532/orgs/911681"
                }
              }
            },
            {
              "id": 911680,
              "name": "Alcaldia",
              "_links": {
                "self": {
                  "name": "Alcaldia",
                  "href": "https://api.euskadi.eus/procurements/contracting-authorities/145/entities/532/orgs/911680"
                }
              }
            }
          ],
          "_links": {
            "self": {
              "name": "Ayuntamiento de Asparrena",
              "href": "https://api.euskadi.eus/procurements/contracting-authorities/145/entities/532"
            }
          }
        }
      ],
      "mainEntityOfPage": "https://www.contratacion.euskadi.eus/webkpe00-kpeperfi/es/contenidos/poder_adjudicador/poder145/es_doc/es_arch_poder145.html",
      "_links": {
        "self": {
          "name": "Ayuntamiento de Asparrena",
          "href": "https://api.euskadi.eus/procurements/contracting-authorities/145"
        }
      }
    },
    {
      "id": 149,
      "identificationNumber": "A20748042",
      "name": "Servicios Funerarios Donostia-San Sebastián, S.A.",
      "scope": "GIPUZKOA",
      "address": "Polloe Plaza, 2. 20012 Donostia-San Sebastián (Gipuzkoa)",
      "webPage": "http://www.polloe.eus",
      "publicationDate": "2019-10-04",
      "mainActivity": "Servicios públicos generales",
      "codNUTS": "ES212",
      "entities": [
        {
          "id": 544,
          "name": "Servicios Funerarios Donostia-San Sebastián, S.A.",
          "orgs": [
            {
              "id": 911736,
              "name": "Director gerente",
              "_links": {
                "self": {
                  "name": "Director gerente",
                  "href": "https://api.euskadi.eus/procurements/contracting-authorities/149/entities/544/orgs/911736"
                }
              }
            },
            {
              "id": 911738,
              "name": "Consejo de Administración",
              "_links": {
                "self": {
                  "name": "Consejo de Administración",
                  "href": "https://api.euskadi.eus/procurements/contracting-authorities/149/entities/544/orgs/911738"
                }
              }
            },
            {
              "id": 911737,
              "name": "Presidente del Consejo de Administración",
              "_links": {
                "self": {
                  "name": "Presidente del Consejo de Administración",
                  "href": "https://api.euskadi.eus/procurements/contracting-authorities/149/entities/544/orgs/911737"
                }
              }
            },
            {
              "id": 911739,
              "name": "Director Gerente y Presidente del Consejo de Administración, concurriendo conjuntamente",
              "_links": {
                "self": {
                  "name": "Director Gerente y Presidente del Consejo de Administración, concurriendo conjuntamente",
                  "href": "https://api.euskadi.eus/procurements/contracting-authorities/149/entities/544/orgs/911739"
                }
              }
            }
          ],
          "_links": {
            "self": {
              "name": "Servicios Funerarios Donostia-San Sebastián, S.A.",
              "href": "https://api.euskadi.eus/procurements/contracting-authorities/149/entities/544"
            }
          }
        }
      ],
      "mainEntityOfPage": "https://www.contratacion.euskadi.eus/webkpe00-kpeperfi/es/contenidos/poder_adjudicador/poder149/es_doc/es_arch_poder149.html",
      "_links": {
        "self": {
          "name": "Servicios Funerarios Donostia-San Sebastián, S.A.",
          "href": "https://api.euskadi.eus/procurements/contracting-authorities/149"
        }
      }
    }
  ]
}