{
  "totalItems": 919,
  "totalPages": 92,
  "currentPage": 31,
  "itemsOfPage": 10,
  "items": [
    {
      "id": 478,
      "identificationNumber": "A20463485",
      "name": "Gestión de Centrales del Añarbe, S.A.",
      "scope": "GIPUZKOA",
      "address": "Errotaburu pasealekua, 1-6. solairua. 20018 Donostia (Gipuzkoa)",
      "webPage": "http://www.gecasa.eus",
      "publicationDate": "2021-03-10",
      "mainActivity": "Otra actividad",
      "alternativeActivity": "Explotación de una central eléctrica",
      "codNUTS": "ES212",
      "entities": [
        {
          "id": 931,
          "name": "Gestión de Centrales del Añarbe, S.A.",
          "orgs": [
            {
              "id": 912549,
              "name": "Apoderado",
              "_links": {
                "self": {
                  "name": "Apoderado",
                  "href": "https://api.euskadi.eus/procurements/contracting-authorities/478/entities/931/orgs/912549"
                }
              }
            },
            {
              "id": 912553,
              "name": "Apoderado y Consejero apoderado",
              "_links": {
                "self": {
                  "name": "Apoderado y Consejero apoderado",
                  "href": "https://api.euskadi.eus/procurements/contracting-authorities/478/entities/931/orgs/912553"
                }
              }
            },
            {
              "id": 912554,
              "name": "Consejo de Administración",
              "_links": {
                "self": {
                  "name": "Consejo de Administración",
                  "href": "https://api.euskadi.eus/procurements/contracting-authorities/478/entities/931/orgs/912554"
                }
              }
            },
            {
              "id": 912550,
              "name": "Consejero apoderado",
              "_links": {
                "self": {
                  "name": "Consejero apoderado",
                  "href": "https://api.euskadi.eus/procurements/contracting-authorities/478/entities/931/orgs/912550"
                }
              }
            }
          ],
          "_links": {
            "self": {
              "name": "Gestión de Centrales del Añarbe, S.A.",
              "href": "https://api.euskadi.eus/procurements/contracting-authorities/478/entities/931"
            }
          }
        }
      ],
      "mainEntityOfPage": "https://www.contratacion.euskadi.eus/webkpe00-kpeperfi/es/contenidos/poder_adjudicador/poder478/es_doc/es_arch_poder478.html",
      "_links": {
        "self": {
          "name": "Gestión de Centrales del Añarbe, S.A.",
          "href": "https://api.euskadi.eus/procurements/contracting-authorities/478"
        }
      }
    },
    {
      "id": 791,
      "identificationNumber": "Q2000578A",
      "name": "Udalbiltza",
      "scope": "GIPUZKOA",
      "address": "Doneztebe Plaza, 1 - 20180 Oiartzun",
      "webPage": "https://www.udalbiltza.eus",
      "publicationDate": "2021-03-08",
      "mainActivity": "Servicios públicos generales",
      "codNUTS": "ES212",
      "entities": [
        {
          "id": 1291,
          "name": "Consorcio Udalbiltza",
          "orgs": [
            {
              "id": 914333,
              "name": "Consejo General",
              "_links": {
                "self": {
                  "name": "Consejo General",
                  "href": "https://api.euskadi.eus/procurements/contracting-authorities/791/entities/1291/orgs/914333"
                }
              }
            }
          ],
          "_links": {
            "self": {
              "name": "Consorcio Udalbiltza",
              "href": "https://api.euskadi.eus/procurements/contracting-authorities/791/entities/1291"
            }
          }
        }
      ],
      "mainEntityOfPage": "https://www.contratacion.euskadi.eus/webkpe00-kpeperfi/es/contenidos/poder_adjudicador/poder791/es_doc/es_arch_poder791.html",
      "_links": {
        "self": {
          "name": "Udalbiltza",
          "href": "https://api.euskadi.eus/procurements/contracting-authorities/791"
        }
      }
    },
    {
      "id": 790,
      "identificationNumber": "V86311230",
      "name": "Junta de Concertación UE-21 Parque Serralta en Barakaldo",
      "scope": "BIZKAIA",
      "address": "C/ Juan XXIII entreplanta derecha - Basauri",
      "webPage": "https://www.contratacion.euskadi.eus",
      "publicationDate": "2021-03-02",
      "mainActivity": "Vivienda y servicios comunitarios",
      "codNUTS": "ES213",
      "entities": [
        {
          "id": 1290,
          "name": "Junta de Concertación UE-21 Parque Serralta en Barakaldo",
          "orgs": [
            {
              "id": 914332,
              "name": "Junta de Concertación UE-21 Parque Serralta en Barakaldo",
              "_links": {
                "self": {
                  "name": "Junta de Concertación UE-21 Parque Serralta en Barakaldo",
                  "href": "https://api.euskadi.eus/procurements/contracting-authorities/790/entities/1290/orgs/914332"
                }
              }
            }
          ],
          "_links": {
            "self": {
              "name": "Junta de Concertación UE-21 Parque Serralta en Barakaldo",
              "href": "https://api.euskadi.eus/procurements/contracting-authorities/790/entities/1290"
            }
          }
        }
      ],
      "mainEntityOfPage": "https://www.contratacion.euskadi.eus/webkpe00-kpeperfi/es/contenidos/poder_adjudicador/poder790/es_doc/es_arch_poder790.html",
      "_links": {
        "self": {
          "name": "Junta de Concertación UE-21 Parque Serralta en Barakaldo",
          "href": "https://api.euskadi.eus/procurements/contracting-authorities/790"
        }
      }
    },
    {
      "id": 786,
      "identificationNumber": "A95211405",
      "name": "Urduliz Urbanismo Sozietatea, S.A.",
      "scope": "BIZKAIA",
      "address": "Elortza Plaza, 1 - 2garren solairua - 48610 Urduliz",
      "webPage": "http://www.urduliz.eus/",
      "publicationDate": "2021-02-15",
      "mainActivity": "Vivienda y servicios comunitarios",
      "codNUTS": "ES213",
      "entities": [
        {
          "id": 1286,
          "name": "Urduliz Urbanismo Sozietatea, S.A.",
          "orgs": [
            {
              "id": 914312,
              "name": "Consejo de Administración",
              "_links": {
                "self": {
                  "name": "Consejo de Administración",
                  "href": "https://api.euskadi.eus/procurements/contracting-authorities/786/entities/1286/orgs/914312"
                }
              }
            }
          ],
          "_links": {
            "self": {
              "name": "Urduliz Urbanismo Sozietatea, S.A.",
              "href": "https://api.euskadi.eus/procurements/contracting-authorities/786/entities/1286"
            }
          }
        }
      ],
      "mainEntityOfPage": "https://www.contratacion.euskadi.eus/webkpe00-kpeperfi/es/contenidos/poder_adjudicador/poder786/es_doc/es_arch_poder786.html",
      "_links": {
        "self": {
          "name": "Urduliz Urbanismo Sozietatea, S.A.",
          "href": "https://api.euskadi.eus/procurements/contracting-authorities/786"
        }
      }
    },
    {
      "id": 788,
      "identificationNumber": "P0100293J",
      "name": "Junta Administrativa de Miñano Menor",
      "scope": "ARABA/ÁLAVA",
      "address": "Miñao Menor, 2",
      "webPage": "https://www.contratacion.euskadi.eus",
      "publicationDate": "2021-02-10",
      "mainActivity": "Servicios públicos generales",
      "codNUTS": "ES211",
      "entities": [
        {
          "id": 1288,
          "name": "Junta Administrativa de Miñano Menor",
          "orgs": [
            {
              "id": 914326,
              "name": "Junta Administrativa de Miñano Menor",
              "_links": {
                "self": {
                  "name": "Junta Administrativa de Miñano Menor",
                  "href": "https://api.euskadi.eus/procurements/contracting-authorities/788/entities/1288/orgs/914326"
                }
              }
            }
          ],
          "_links": {
            "self": {
              "name": "Junta Administrativa de Miñano Menor",
              "href": "https://api.euskadi.eus/procurements/contracting-authorities/788/entities/1288"
            }
          }
        }
      ],
      "mainEntityOfPage": "https://www.contratacion.euskadi.eus/webkpe00-kpeperfi/es/contenidos/poder_adjudicador/poder788/es_doc/es_arch_poder788.html",
      "_links": {
        "self": {
          "name": "Junta Administrativa de Miñano Menor",
          "href": "https://api.euskadi.eus/procurements/contracting-authorities/788"
        }
      }
    },
    {
      "id": 787,
      "identificationNumber": "A95131447",
      "name": "Promoción Económica de Ermua, S.A.U.",
      "scope": "BIZKAIA",
      "address": "C/Marqués de Valdespina, 1 - bajo - 48260 Ermua",
      "webPage": "http://www.promosa.org/",
      "publicationDate": "2021-02-09",
      "mainActivity": "Otra actividad",
      "alternativeActivity": "Promoción Económica",
      "codNUTS": "ES213",
      "entities": [
        {
          "id": 1287,
          "name": "Promoción Económica de Ermua, S.A.U.",
          "orgs": [
            {
              "id": 914325,
              "name": "Consejo de Administración",
              "_links": {
                "self": {
                  "name": "Consejo de Administración",
                  "href": "https://api.euskadi.eus/procurements/contracting-authorities/787/entities/1287/orgs/914325"
                }
              }
            }
          ],
          "_links": {
            "self": {
              "name": "Promoción Económica de Ermua, S.A.U.",
              "href": "https://api.euskadi.eus/procurements/contracting-authorities/787/entities/1287"
            }
          }
        }
      ],
      "mainEntityOfPage": "https://www.contratacion.euskadi.eus/webkpe00-kpeperfi/es/contenidos/poder_adjudicador/poder787/es_doc/es_arch_poder787.html",
      "_links": {
        "self": {
          "name": "Promoción Económica de Ermua, S.A.U.",
          "href": "https://api.euskadi.eus/procurements/contracting-authorities/787"
        }
      }
    },
    {
      "id": 171,
      "identificationNumber": "P4801700H",
      "name": "Ayuntamiento de Barakaldo",
      "scope": "BIZKAIA",
      "address": "Herriko Plaza, 1. 48901 Barakaldo (Bizkaia)",
      "webPage": "http://www.barakaldo.eus",
      "publicationDate": "2021-02-02",
      "mainActivity": "Servicios públicos generales",
      "codNUTS": "ES213",
      "entities": [
        {
          "id": 598,
          "name": "Ayuntamiento de Barakaldo",
          "orgs": [
            {
              "id": 911885,
              "name": "Pleno",
              "_links": {
                "self": {
                  "name": "Pleno",
                  "href": "https://api.euskadi.eus/procurements/contracting-authorities/171/entities/598/orgs/911885"
                }
              }
            },
            {
              "id": 911884,
              "name": "Alcalde",
              "_links": {
                "self": {
                  "name": "Alcalde",
                  "href": "https://api.euskadi.eus/procurements/contracting-authorities/171/entities/598/orgs/911884"
                }
              }
            }
          ],
          "_links": {
            "self": {
              "name": "Ayuntamiento de Barakaldo",
              "href": "https://api.euskadi.eus/procurements/contracting-authorities/171/entities/598"
            }
          }
        }
      ],
      "mainEntityOfPage": "https://www.contratacion.euskadi.eus/webkpe00-kpeperfi/es/contenidos/poder_adjudicador/poder171/es_doc/es_arch_poder171.html",
      "_links": {
        "self": {
          "name": "Ayuntamiento de Barakaldo",
          "href": "https://api.euskadi.eus/procurements/contracting-authorities/171"
        }
      }
    },
    {
      "id": 452,
      "identificationNumber": "P4804700E",
      "name": "Ayuntamiento de Garai",
      "scope": "BIZKAIA",
      "address": "Bº San Migel, 20. 48200 Garai (Bizkaia)",
      "webPage": "http://www.garai-udala.eus",
      "publicationDate": "2021-02-02",
      "mainActivity": "Servicios públicos generales",
      "codNUTS": "ES213",
      "entities": [
        {
          "id": 901,
          "name": "Ayuntamiento de Garai ",
          "orgs": [
            {
              "id": 912499,
              "name": "Alcalde",
              "_links": {
                "self": {
                  "name": "Alcalde",
                  "href": "https://api.euskadi.eus/procurements/contracting-authorities/452/entities/901/orgs/912499"
                }
              }
            },
            {
              "id": 912500,
              "name": "Pleno",
              "_links": {
                "self": {
                  "name": "Pleno",
                  "href": "https://api.euskadi.eus/procurements/contracting-authorities/452/entities/901/orgs/912500"
                }
              }
            }
          ],
          "_links": {
            "self": {
              "name": "Ayuntamiento de Garai ",
              "href": "https://api.euskadi.eus/procurements/contracting-authorities/452/entities/901"
            }
          }
        }
      ],
      "mainEntityOfPage": "https://www.contratacion.euskadi.eus/webkpe00-kpeperfi/es/contenidos/poder_adjudicador/poder452/es_doc/es_arch_poder452.html",
      "_links": {
        "self": {
          "name": "Ayuntamiento de Garai",
          "href": "https://api.euskadi.eus/procurements/contracting-authorities/452"
        }
      }
    },
    {
      "id": 785,
      "identificationNumber": "A48534770",
      "name": "Puerto Deportivo El Abra-Getxo, S.A.",
      "scope": "BIZKAIA",
      "address": "Muelle de Arriluze, 1 - 1 Izq - 48990 Getxo",
      "webPage": "https://pdgetxo.eus/eu/",
      "publicationDate": "2021-01-29",
      "mainActivity": "Ocio, cultura y religión",
      "codNUTS": "ES213",
      "entities": [
        {
          "id": 1285,
          "name": "Puerto Deportivo El Abra-Getxo, S.A.",
          "orgs": [
            {
              "id": 914311,
              "name": "Consejo de Administración",
              "_links": {
                "self": {
                  "name": "Consejo de Administración",
                  "href": "https://api.euskadi.eus/procurements/contracting-authorities/785/entities/1285/orgs/914311"
                }
              }
            }
          ],
          "_links": {
            "self": {
              "name": "Puerto Deportivo El Abra-Getxo, S.A.",
              "href": "https://api.euskadi.eus/procurements/contracting-authorities/785/entities/1285"
            }
          }
        }
      ],
      "mainEntityOfPage": "https://www.contratacion.euskadi.eus/webkpe00-kpeperfi/es/contenidos/poder_adjudicador/poder785/es_doc/es_arch_poder785.html",
      "_links": {
        "self": {
          "name": "Puerto Deportivo El Abra-Getxo, S.A.",
          "href": "https://api.euskadi.eus/procurements/contracting-authorities/785"
        }
      }
    },
    {
      "id": 783,
      "identificationNumber": "P0100106D",
      "name": "Junta Administrativa de Virgala Mayor",
      "scope": "ARABA/ÁLAVA",
      "address": "C/ Nuestra Señora del Rosario s/n - Virgala Mayor",
      "webPage": "https://www.contratacion.euskadi.eus",
      "publicationDate": "2021-01-27",
      "mainActivity": "Servicios públicos generales",
      "codNUTS": "ES211",
      "entities": [
        {
          "id": 1283,
          "name": "Junta Administrativa de Virgala Mayor",
          "orgs": [
            {
              "id": 914309,
              "name": "Concejo de Virgala Mayor",
              "_links": {
                "self": {
                  "name": "Concejo de Virgala Mayor",
                  "href": "https://api.euskadi.eus/procurements/contracting-authorities/783/entities/1283/orgs/914309"
                }
              }
            }
          ],
          "_links": {
            "self": {
              "name": "Junta Administrativa de Virgala Mayor",
              "href": "https://api.euskadi.eus/procurements/contracting-authorities/783/entities/1283"
            }
          }
        }
      ],
      "mainEntityOfPage": "https://www.contratacion.euskadi.eus/webkpe00-kpeperfi/es/contenidos/poder_adjudicador/poder783/es_doc/es_arch_poder783.html",
      "_links": {
        "self": {
          "name": "Junta Administrativa de Virgala Mayor",
          "href": "https://api.euskadi.eus/procurements/contracting-authorities/783"
        }
      }
    }
  ]
}