{
  "totalItems": 919,
  "totalPages": 92,
  "currentPage": 42,
  "itemsOfPage": 10,
  "items": [
    {
      "id": 80,
      "identificationNumber": "P4810300F",
      "name": "Ayuntamiento de Urduliz",
      "scope": "BIZKAIA",
      "address": "Elortza Plaza, 1. 48610 Urduliz.",
      "webPage": "http://www.urduliz.eu",
      "publicationDate": "2019-10-07",
      "mainActivity": "Servicios públicos generales",
      "codNUTS": "ES213",
      "entities": [
        {
          "id": 426,
          "name": "Ayuntamiento de Urduliz",
          "orgs": [
            {
              "id": 911415,
              "name": "Alcalde",
              "_links": {
                "self": {
                  "name": "Alcalde",
                  "href": "https://api.euskadi.eus/procurements/contracting-authorities/80/entities/426/orgs/911415"
                }
              }
            },
            {
              "id": 911414,
              "name": "Pleno",
              "_links": {
                "self": {
                  "name": "Pleno",
                  "href": "https://api.euskadi.eus/procurements/contracting-authorities/80/entities/426/orgs/911414"
                }
              }
            }
          ],
          "_links": {
            "self": {
              "name": "Ayuntamiento de Urduliz",
              "href": "https://api.euskadi.eus/procurements/contracting-authorities/80/entities/426"
            }
          }
        }
      ],
      "mainEntityOfPage": "https://www.contratacion.euskadi.eus/webkpe00-kpeperfi/es/contenidos/poder_adjudicador/poder80/es_doc/es_arch_poder80.html",
      "_links": {
        "self": {
          "name": "Ayuntamiento de Urduliz",
          "href": "https://api.euskadi.eus/procurements/contracting-authorities/80"
        }
      }
    },
    {
      "id": 82,
      "identificationNumber": "B95600888",
      "name": "Sociedad Pública de Urbanismo y Vivienda BIDEBI BASAURI S.L",
      "scope": "BIZKAIA",
      "address": "Lehendakari Agirre, 61 bajo. 48970 Basauri (BIZKAIA)",
      "webPage": "http://bidebi.basauri.net",
      "publicationDate": "2019-10-07",
      "mainActivity": "Vivienda y servicios comunitarios",
      "codNUTS": "ES213",
      "entities": [
        {
          "id": 428,
          "name": "BIDEBI BASAURI S.L.",
          "orgs": [
            {
              "id": 911419,
              "name": "Director Gerente",
              "_links": {
                "self": {
                  "name": "Director Gerente",
                  "href": "https://api.euskadi.eus/procurements/contracting-authorities/82/entities/428/orgs/911419"
                }
              }
            },
            {
              "id": 911420,
              "name": "Presidente del Consejo de Administración",
              "_links": {
                "self": {
                  "name": "Presidente del Consejo de Administración",
                  "href": "https://api.euskadi.eus/procurements/contracting-authorities/82/entities/428/orgs/911420"
                }
              }
            },
            {
              "id": 911421,
              "name": "Consejo de Administración",
              "_links": {
                "self": {
                  "name": "Consejo de Administración",
                  "href": "https://api.euskadi.eus/procurements/contracting-authorities/82/entities/428/orgs/911421"
                }
              }
            }
          ],
          "_links": {
            "self": {
              "name": "BIDEBI BASAURI S.L.",
              "href": "https://api.euskadi.eus/procurements/contracting-authorities/82/entities/428"
            }
          }
        }
      ],
      "mainEntityOfPage": "https://www.contratacion.euskadi.eus/webkpe00-kpeperfi/es/contenidos/poder_adjudicador/poder82/es_doc/es_arch_poder82.html",
      "_links": {
        "self": {
          "name": "Sociedad Pública de Urbanismo y Vivienda BIDEBI BASAURI S.L",
          "href": "https://api.euskadi.eus/procurements/contracting-authorities/82"
        }
      }
    },
    {
      "id": 94,
      "identificationNumber": "A48177752",
      "name": "Parque Científico y Tecnológico de Bizkaia, S.A.",
      "scope": "BIZKAIA",
      "address": "Ibaizabal bidea, edificio101. 48170 Zamudio (Bizkaia)",
      "webPage": "http://www.parke.eus",
      "publicationDate": "2019-10-07",
      "mainActivity": "Asuntos económicos y financieros",
      "codNUTS": "ES213",
      "entities": [
        {
          "id": 446,
          "name": "Parque Científico y Tecnológico de Bizkaia",
          "orgs": [
            {
              "id": 911467,
              "name": "Dirección General",
              "_links": {
                "self": {
                  "name": "Dirección General",
                  "href": "https://api.euskadi.eus/procurements/contracting-authorities/94/entities/446/orgs/911467"
                }
              }
            },
            {
              "id": 911466,
              "name": "Consejo de administración",
              "_links": {
                "self": {
                  "name": "Consejo de administración",
                  "href": "https://api.euskadi.eus/procurements/contracting-authorities/94/entities/446/orgs/911466"
                }
              }
            },
            {
              "id": 911468,
              "name": "Gerencia",
              "_links": {
                "self": {
                  "name": "Gerencia",
                  "href": "https://api.euskadi.eus/procurements/contracting-authorities/94/entities/446/orgs/911468"
                }
              }
            }
          ],
          "_links": {
            "self": {
              "name": "Parque Científico y Tecnológico de Bizkaia",
              "href": "https://api.euskadi.eus/procurements/contracting-authorities/94/entities/446"
            }
          }
        }
      ],
      "mainEntityOfPage": "https://www.contratacion.euskadi.eus/webkpe00-kpeperfi/es/contenidos/poder_adjudicador/poder94/es_doc/es_arch_poder94.html",
      "_links": {
        "self": {
          "name": "Parque Científico y Tecnológico de Bizkaia, S.A.",
          "href": "https://api.euskadi.eus/procurements/contracting-authorities/94"
        }
      }
    },
    {
      "id": 152,
      "identificationNumber": "P4809100C",
      "name": "Ayuntamiento de Portugalete",
      "scope": "BIZKAIA",
      "address": "Plaza del Solar s/n",
      "webPage": "http://www.portugalete.org",
      "publicationDate": "2019-10-07",
      "mainActivity": "Servicios públicos generales",
      "codNUTS": "ES213",
      "entities": [
        {
          "id": 547,
          "name": "Ayuntamiento de Portugalete ",
          "orgs": [
            {
              "id": 911746,
              "name": "Alcalde",
              "_links": {
                "self": {
                  "name": "Alcalde",
                  "href": "https://api.euskadi.eus/procurements/contracting-authorities/152/entities/547/orgs/911746"
                }
              }
            },
            {
              "id": 911745,
              "name": "Junta de Gobierno",
              "_links": {
                "self": {
                  "name": "Junta de Gobierno",
                  "href": "https://api.euskadi.eus/procurements/contracting-authorities/152/entities/547/orgs/911745"
                }
              }
            },
            {
              "id": 911744,
              "name": "Pleno",
              "_links": {
                "self": {
                  "name": "Pleno",
                  "href": "https://api.euskadi.eus/procurements/contracting-authorities/152/entities/547/orgs/911744"
                }
              }
            }
          ],
          "_links": {
            "self": {
              "name": "Ayuntamiento de Portugalete ",
              "href": "https://api.euskadi.eus/procurements/contracting-authorities/152/entities/547"
            }
          }
        },
        {
          "id": 548,
          "name": "Escuela Municipal Infantil Txikitxu",
          "orgs": [
            {
              "id": 911747,
              "name": "Junta de Gobierno",
              "_links": {
                "self": {
                  "name": "Junta de Gobierno",
                  "href": "https://api.euskadi.eus/procurements/contracting-authorities/152/entities/548/orgs/911747"
                }
              }
            }
          ],
          "_links": {
            "self": {
              "name": "Escuela Municipal Infantil Txikitxu",
              "href": "https://api.euskadi.eus/procurements/contracting-authorities/152/entities/548"
            }
          }
        }
      ],
      "mainEntityOfPage": "https://www.contratacion.euskadi.eus/webkpe00-kpeperfi/es/contenidos/poder_adjudicador/poder152/es_doc/es_arch_poder152.html",
      "_links": {
        "self": {
          "name": "Ayuntamiento de Portugalete",
          "href": "https://api.euskadi.eus/procurements/contracting-authorities/152"
        }
      }
    },
    {
      "id": 155,
      "identificationNumber": "A48192983",
      "name": "Sociedad Urbanística de rehabilitación de Portugalete",
      "scope": "BIZKAIA",
      "address": "Santa María 1, 2º 48920 Portugalete (Bizkaia)",
      "webPage": "http://www.surposa.org",
      "publicationDate": "2019-10-07",
      "mainActivity": "Vivienda y servicios comunitarios",
      "codNUTS": "ES213",
      "entities": [
        {
          "id": 551,
          "name": "Sociedad Urbanística de Rehabilitación de Portugalete",
          "orgs": [
            {
              "id": 911763,
              "name": "Consejo de Administración",
              "_links": {
                "self": {
                  "name": "Consejo de Administración",
                  "href": "https://api.euskadi.eus/procurements/contracting-authorities/155/entities/551/orgs/911763"
                }
              }
            },
            {
              "id": 911762,
              "name": "Director-Gerente",
              "_links": {
                "self": {
                  "name": "Director-Gerente",
                  "href": "https://api.euskadi.eus/procurements/contracting-authorities/155/entities/551/orgs/911762"
                }
              }
            }
          ],
          "_links": {
            "self": {
              "name": "Sociedad Urbanística de Rehabilitación de Portugalete",
              "href": "https://api.euskadi.eus/procurements/contracting-authorities/155/entities/551"
            }
          }
        }
      ],
      "mainEntityOfPage": "https://www.contratacion.euskadi.eus/webkpe00-kpeperfi/es/contenidos/poder_adjudicador/poder155/es_doc/es_arch_poder155.html",
      "_links": {
        "self": {
          "name": "Sociedad Urbanística de rehabilitación de Portugalete",
          "href": "https://api.euskadi.eus/procurements/contracting-authorities/155"
        }
      }
    },
    {
      "id": 168,
      "identificationNumber": "A48068134",
      "name": "Deportiva Municipal de Portugalete, S.A.",
      "scope": "BIZKAIA",
      "address": "Miguel de Unamuno, 43. 48920 Portugalete (Bizkaia)",
      "webPage": "http://www.portukirolak.com",
      "publicationDate": "2019-10-07",
      "mainActivity": "Ocio, cultura y religión",
      "codNUTS": "ES213",
      "entities": [
        {
          "id": 595,
          "name": "DEMUPORSA",
          "orgs": [
            {
              "id": 911880,
              "name": "Por delegación : Presidente de la Deportiva Municipal de Portugalete",
              "_links": {
                "self": {
                  "name": "Por delegación : Presidente de la Deportiva Municipal de Portugalete",
                  "href": "https://api.euskadi.eus/procurements/contracting-authorities/168/entities/595/orgs/911880"
                }
              }
            },
            {
              "id": 911879,
              "name": "Consejo de Administración de la Deportiva Municipal de Portugalete",
              "_links": {
                "self": {
                  "name": "Consejo de Administración de la Deportiva Municipal de Portugalete",
                  "href": "https://api.euskadi.eus/procurements/contracting-authorities/168/entities/595/orgs/911879"
                }
              }
            }
          ],
          "_links": {
            "self": {
              "name": "DEMUPORSA",
              "href": "https://api.euskadi.eus/procurements/contracting-authorities/168/entities/595"
            }
          }
        }
      ],
      "mainEntityOfPage": "https://www.contratacion.euskadi.eus/webkpe00-kpeperfi/es/contenidos/poder_adjudicador/poder168/es_doc/es_arch_poder168.html",
      "_links": {
        "self": {
          "name": "Deportiva Municipal de Portugalete, S.A.",
          "href": "https://api.euskadi.eus/procurements/contracting-authorities/168"
        }
      }
    },
    {
      "id": 170,
      "identificationNumber": "B95145546",
      "name": "BEHARGINTZA TXORIERRI, S.L.",
      "scope": "BIZKAIA",
      "address": "Txorierri etorbidea, 46, Pabellón 13A. 48150 Sondika (Bizkaia)",
      "webPage": "http://www.somostxorierri.com",
      "publicationDate": "2019-10-07",
      "mainActivity": "Asuntos económicos y financieros",
      "codNUTS": "ES213",
      "entities": [
        {
          "id": 596,
          "name": "BEHARGINTZA TXORIERRI, S.L.",
          "orgs": [
            {
              "id": 912806,
              "name": "Gerente",
              "_links": {
                "self": {
                  "name": "Gerente",
                  "href": "https://api.euskadi.eus/procurements/contracting-authorities/170/entities/596/orgs/912806"
                }
              }
            },
            {
              "id": 911881,
              "name": "Consejo de administración",
              "_links": {
                "self": {
                  "name": "Consejo de administración",
                  "href": "https://api.euskadi.eus/procurements/contracting-authorities/170/entities/596/orgs/911881"
                }
              }
            }
          ],
          "_links": {
            "self": {
              "name": "BEHARGINTZA TXORIERRI, S.L.",
              "href": "https://api.euskadi.eus/procurements/contracting-authorities/170/entities/596"
            }
          }
        }
      ],
      "mainEntityOfPage": "https://www.contratacion.euskadi.eus/webkpe00-kpeperfi/es/contenidos/poder_adjudicador/poder170/es_doc/es_arch_poder170.html",
      "_links": {
        "self": {
          "name": "BEHARGINTZA TXORIERRI, S.L.",
          "href": "https://api.euskadi.eus/procurements/contracting-authorities/170"
        },
        "contractingAuthorities": [
          {
            "name": "Mancomunidad de Servicios del Txorierri",
            "href": "https://api.euskadi.eus/procurements/contracting-authorities/22850"
          }
        ]
      }
    },
    {
      "id": 173,
      "identificationNumber": "P4809400G",
      "name": "Ayuntamiento de Lezama",
      "scope": "BIZKAIA",
      "address": "Barrio de Aretxalde, 1. 48196 Lezama (Bizkaia)",
      "webPage": "http://www.lezama.org",
      "publicationDate": "2019-10-07",
      "mainActivity": "Servicios públicos generales",
      "codNUTS": "ES213",
      "entities": [
        {
          "id": 601,
          "name": "Ayuntamiento de Lezama",
          "orgs": [
            {
              "id": 911889,
              "name": "Pleno",
              "_links": {
                "self": {
                  "name": "Pleno",
                  "href": "https://api.euskadi.eus/procurements/contracting-authorities/173/entities/601/orgs/911889"
                }
              }
            },
            {
              "id": 911890,
              "name": "Alcalde",
              "_links": {
                "self": {
                  "name": "Alcalde",
                  "href": "https://api.euskadi.eus/procurements/contracting-authorities/173/entities/601/orgs/911890"
                }
              }
            }
          ],
          "_links": {
            "self": {
              "name": "Ayuntamiento de Lezama",
              "href": "https://api.euskadi.eus/procurements/contracting-authorities/173/entities/601"
            }
          }
        }
      ],
      "mainEntityOfPage": "https://www.contratacion.euskadi.eus/webkpe00-kpeperfi/es/contenidos/poder_adjudicador/poder173/es_doc/es_arch_poder173.html",
      "_links": {
        "self": {
          "name": "Ayuntamiento de Lezama",
          "href": "https://api.euskadi.eus/procurements/contracting-authorities/173"
        }
      }
    },
    {
      "id": 175,
      "identificationNumber": "P4804300D",
      "name": "Ayuntamiento de Fruiz",
      "scope": "BIZKAIA",
      "address": "Aldai auzoa, 90. 48116 Fruiz (Bizkaia)",
      "webPage": "http://www.fruiz.net",
      "publicationDate": "2019-10-07",
      "mainActivity": "Servicios públicos generales",
      "codNUTS": "ES213",
      "entities": [
        {
          "id": 604,
          "name": "Ayuntamiento de Fruiz",
          "orgs": [
            {
              "id": 911895,
              "name": "Alcalde",
              "_links": {
                "self": {
                  "name": "Alcalde",
                  "href": "https://api.euskadi.eus/procurements/contracting-authorities/175/entities/604/orgs/911895"
                }
              }
            },
            {
              "id": 911896,
              "name": "Pleno ",
              "_links": {
                "self": {
                  "name": "Pleno ",
                  "href": "https://api.euskadi.eus/procurements/contracting-authorities/175/entities/604/orgs/911896"
                }
              }
            }
          ],
          "_links": {
            "self": {
              "name": "Ayuntamiento de Fruiz",
              "href": "https://api.euskadi.eus/procurements/contracting-authorities/175/entities/604"
            }
          }
        }
      ],
      "mainEntityOfPage": "https://www.contratacion.euskadi.eus/webkpe00-kpeperfi/es/contenidos/poder_adjudicador/poder175/es_doc/es_arch_poder175.html",
      "_links": {
        "self": {
          "name": "Ayuntamiento de Fruiz",
          "href": "https://api.euskadi.eus/procurements/contracting-authorities/175"
        }
      }
    },
    {
      "id": 179,
      "identificationNumber": "P4805300C",
      "name": "Ayuntamiento de Getxo",
      "scope": "BIZKAIA",
      "address": "Fueros 6. 48992 Getxo (Bizkaia)",
      "webPage": "http://www.getxo.eus",
      "publicationDate": "2019-10-07",
      "mainActivity": "Servicios públicos generales",
      "codNUTS": "ES213",
      "entities": [
        {
          "id": 607,
          "name": "Ayuntamiento de Getxo",
          "orgs": [
            {
              "id": 911906,
              "name": "Pleno",
              "_links": {
                "self": {
                  "name": "Pleno",
                  "href": "https://api.euskadi.eus/procurements/contracting-authorities/179/entities/607/orgs/911906"
                }
              }
            },
            {
              "id": 911905,
              "name": "Junta de Gobierno",
              "_links": {
                "self": {
                  "name": "Junta de Gobierno",
                  "href": "https://api.euskadi.eus/procurements/contracting-authorities/179/entities/607/orgs/911905"
                }
              }
            },
            {
              "id": 911904,
              "name": "Alcalde",
              "_links": {
                "self": {
                  "name": "Alcalde",
                  "href": "https://api.euskadi.eus/procurements/contracting-authorities/179/entities/607/orgs/911904"
                }
              }
            }
          ],
          "_links": {
            "self": {
              "name": "Ayuntamiento de Getxo",
              "href": "https://api.euskadi.eus/procurements/contracting-authorities/179/entities/607"
            }
          }
        }
      ],
      "mainEntityOfPage": "https://www.contratacion.euskadi.eus/webkpe00-kpeperfi/es/contenidos/poder_adjudicador/poder179/es_doc/es_arch_poder179.html",
      "_links": {
        "self": {
          "name": "Ayuntamiento de Getxo",
          "href": "https://api.euskadi.eus/procurements/contracting-authorities/179"
        }
      }
    }
  ]
}