{
  "totalItems": 919,
  "totalPages": 92,
  "currentPage": 81,
  "itemsOfPage": 10,
  "items": [
    {
      "id": 677,
      "identificationNumber": "P0100175I",
      "name": "Junta Administrativa de Mendijur",
      "scope": "ARABA/ÁLAVA",
      "address": "Artekalea, 3. Mendijur. 01206 Barrundia. (Araba/Álava)",
      "webPage": "http://www.contratacion.euskadi.eus",
      "publicationDate": "2019-07-11",
      "mainActivity": "Servicios públicos generales",
      "codNUTS": "ES211",
      "entities": [
        {
          "id": 1127,
          "name": "Junta Administrativa de Mendijur",
          "orgs": [
            {
              "id": 912881,
              "name": "Concejo de Mendijur",
              "_links": {
                "self": {
                  "name": "Concejo de Mendijur",
                  "href": "https://api.euskadi.eus/procurements/contracting-authorities/677/entities/1127/orgs/912881"
                }
              }
            }
          ],
          "_links": {
            "self": {
              "name": "Junta Administrativa de Mendijur",
              "href": "https://api.euskadi.eus/procurements/contracting-authorities/677/entities/1127"
            }
          }
        }
      ],
      "mainEntityOfPage": "https://www.contratacion.euskadi.eus/webkpe00-kpeperfi/es/contenidos/poder_adjudicador/poder677/es_doc/es_arch_poder677.html",
      "_links": {
        "self": {
          "name": "Junta Administrativa de Mendijur",
          "href": "https://api.euskadi.eus/procurements/contracting-authorities/677"
        }
      }
    },
    {
      "id": 678,
      "identificationNumber": "P0100329B",
      "name": "Junta Administrativa de Baroja-Zumento",
      "scope": "ARABA/ÁLAVA",
      "address": "Real, 39. Baroja. 01211 Peñacerrada-Urizaharra (Araba/Álava)",
      "webPage": "http://www.contratacion.euskadi.eus",
      "publicationDate": "2019-07-11",
      "mainActivity": "Servicios públicos generales",
      "codNUTS": "ES211",
      "entities": [
        {
          "id": 1128,
          "name": "Junta Administrativa de Baroja-Zumento",
          "orgs": [
            {
              "id": 912882,
              "name": "Asamblea vecinal del concejo abierto de Baroja",
              "_links": {
                "self": {
                  "name": "Asamblea vecinal del concejo abierto de Baroja",
                  "href": "https://api.euskadi.eus/procurements/contracting-authorities/678/entities/1128/orgs/912882"
                }
              }
            },
            {
              "id": 912883,
              "name": "Regidor-Presidente de Baroja",
              "_links": {
                "self": {
                  "name": "Regidor-Presidente de Baroja",
                  "href": "https://api.euskadi.eus/procurements/contracting-authorities/678/entities/1128/orgs/912883"
                }
              }
            }
          ],
          "_links": {
            "self": {
              "name": "Junta Administrativa de Baroja-Zumento",
              "href": "https://api.euskadi.eus/procurements/contracting-authorities/678/entities/1128"
            }
          }
        }
      ],
      "mainEntityOfPage": "https://www.contratacion.euskadi.eus/webkpe00-kpeperfi/es/contenidos/poder_adjudicador/poder678/es_doc/es_arch_poder678.html",
      "_links": {
        "self": {
          "name": "Junta Administrativa de Baroja-Zumento",
          "href": "https://api.euskadi.eus/procurements/contracting-authorities/678"
        }
      }
    },
    {
      "id": 675,
      "identificationNumber": "V20999827",
      "name": "Instituto Vasco Etxepare",
      "scope": "CAPV",
      "address": "Plaza de las Cigarreras,1 Edificio Tabakalera, planta 3. 20012 Donostia-San Sebastián (Gipuzkoa)",
      "webPage": "http://www.etxepare.eus",
      "publicationDate": "2019-07-08",
      "mainActivity": "Ocio, cultura y religión",
      "codNUTS": "ES21",
      "entities": [
        {
          "id": 1126,
          "name": "Instituto Vasco Etxepare",
          "orgs": [
            {
              "id": 912879,
              "name": "Directora",
              "_links": {
                "self": {
                  "name": "Directora",
                  "href": "https://api.euskadi.eus/procurements/contracting-authorities/675/entities/1126/orgs/912879"
                }
              }
            }
          ],
          "_links": {
            "self": {
              "name": "Instituto Vasco Etxepare",
              "href": "https://api.euskadi.eus/procurements/contracting-authorities/675/entities/1126"
            }
          }
        }
      ],
      "mainEntityOfPage": "https://www.contratacion.euskadi.eus/webkpe00-kpeperfi/es/contenidos/poder_adjudicador/poder675/es_doc/es_arch_poder675.html",
      "_links": {
        "self": {
          "name": "Instituto Vasco Etxepare",
          "href": "https://api.euskadi.eus/procurements/contracting-authorities/675"
        }
      }
    },
    {
      "id": 672,
      "identificationNumber": "P0100279I",
      "name": "Junta Administrativa de Ilarratza",
      "scope": "ARABA/ÁLAVA",
      "address": "Ilarratza. 01192 Vitoria-Gasteiz (Araba/Álava)  ",
      "webPage": "http://www.contratacion.euskadi.eus",
      "publicationDate": "2019-07-03",
      "mainActivity": "Servicios públicos generales",
      "codNUTS": "ES211",
      "entities": [
        {
          "id": 1123,
          "name": "Junta Administrativa de Ilarratza",
          "orgs": [
            {
              "id": 912876,
              "name": "Concejo de Ilarratza",
              "_links": {
                "self": {
                  "name": "Concejo de Ilarratza",
                  "href": "https://api.euskadi.eus/procurements/contracting-authorities/672/entities/1123/orgs/912876"
                }
              }
            }
          ],
          "_links": {
            "self": {
              "name": "Junta Administrativa de Ilarratza",
              "href": "https://api.euskadi.eus/procurements/contracting-authorities/672/entities/1123"
            }
          }
        }
      ],
      "mainEntityOfPage": "https://www.contratacion.euskadi.eus/webkpe00-kpeperfi/es/contenidos/poder_adjudicador/poder672/es_doc/es_arch_poder672.html",
      "_links": {
        "self": {
          "name": "Junta Administrativa de Ilarratza",
          "href": "https://api.euskadi.eus/procurements/contracting-authorities/672"
        }
      }
    },
    {
      "id": 673,
      "identificationNumber": "V75214122",
      "name": "Consorcio Científico-Tecnológico Vasco",
      "scope": "CAPV",
      "address": "Kurutz-Gain Polígono Industrial, 10. 20850 Mendaro (Gipuzkoa) ",
      "webPage": "http://www.contratacion.euskadi.eus",
      "publicationDate": "2019-07-03",
      "mainActivity": "Otra actividad",
      "alternativeActivity": "Investigación",
      "codNUTS": "ES21",
      "entities": [
        {
          "id": 1124,
          "name": "BRTA",
          "orgs": [
            {
              "id": 912877,
              "name": "Director General",
              "_links": {
                "self": {
                  "name": "Director General",
                  "href": "https://api.euskadi.eus/procurements/contracting-authorities/673/entities/1124/orgs/912877"
                }
              }
            }
          ],
          "_links": {
            "self": {
              "name": "BRTA",
              "href": "https://api.euskadi.eus/procurements/contracting-authorities/673/entities/1124"
            }
          }
        }
      ],
      "mainEntityOfPage": "https://www.contratacion.euskadi.eus/webkpe00-kpeperfi/es/contenidos/poder_adjudicador/poder673/es_doc/es_arch_poder673.html",
      "_links": {
        "self": {
          "name": "Consorcio Científico-Tecnológico Vasco",
          "href": "https://api.euskadi.eus/procurements/contracting-authorities/673"
        }
      }
    },
    {
      "id": 674,
      "identificationNumber": "G95157368",
      "name": "Fundación Museo de la Minería del País Vasco",
      "scope": "CAPV",
      "address": "Barrio Campodiego, s/n. Gallarta 48500 Abanto-Zierbena (Bizkaia)",
      "webPage": "http://www.meatzaldea.eus",
      "publicationDate": "2019-07-03",
      "mainActivity": "Ocio, cultura y religión",
      "codNUTS": "ES21",
      "entities": [
        {
          "id": 1125,
          "name": "Fundación Museo de la Minería del País Vasco",
          "orgs": [
            {
              "id": 912878,
              "name": "Comisión ejecutiva",
              "_links": {
                "self": {
                  "name": "Comisión ejecutiva",
                  "href": "https://api.euskadi.eus/procurements/contracting-authorities/674/entities/1125/orgs/912878"
                }
              }
            }
          ],
          "_links": {
            "self": {
              "name": "Fundación Museo de la Minería del País Vasco",
              "href": "https://api.euskadi.eus/procurements/contracting-authorities/674/entities/1125"
            }
          }
        }
      ],
      "mainEntityOfPage": "https://www.contratacion.euskadi.eus/webkpe00-kpeperfi/es/contenidos/poder_adjudicador/poder674/es_doc/es_arch_poder674.html",
      "_links": {
        "self": {
          "name": "Fundación Museo de la Minería del País Vasco",
          "href": "https://api.euskadi.eus/procurements/contracting-authorities/674"
        }
      }
    },
    {
      "id": 671,
      "identificationNumber": "V01430271",
      "name": "Krispiñako 32. Sektoreko EUko Hitzarmen-Batzordea",
      "scope": "ARABA/ÁLAVA",
      "address": "Ramón y Cajal, 3 bajo. 01007 Vitoria-Gasteiz (Araba/Álava)",
      "webPage": "http://www.contratacion.euskadi.eus",
      "publicationDate": "2019-07-02",
      "mainActivity": "Vivienda y servicios comunitarios",
      "codNUTS": "ES211",
      "entities": [
        {
          "id": 1122,
          "name": "Junta de Concertación de la UE Sector 32 Crispijana  ",
          "orgs": [
            {
              "id": 912873,
              "name": "Asamblea General ",
              "_links": {
                "self": {
                  "name": "Asamblea General ",
                  "href": "https://api.euskadi.eus/procurements/contracting-authorities/671/entities/1122/orgs/912873"
                }
              }
            }
          ],
          "_links": {
            "self": {
              "name": "Junta de Concertación de la UE Sector 32 Crispijana  ",
              "href": "https://api.euskadi.eus/procurements/contracting-authorities/671/entities/1122"
            }
          }
        }
      ],
      "mainEntityOfPage": "https://www.contratacion.euskadi.eus/webkpe00-kpeperfi/es/contenidos/poder_adjudicador/poder671/es_doc/es_arch_poder671.html",
      "_links": {
        "self": {
          "name": "Krispiñako 32. Sektoreko EUko Hitzarmen-Batzordea",
          "href": "https://api.euskadi.eus/procurements/contracting-authorities/671"
        }
      }
    },
    {
      "id": 662,
      "identificationNumber": "P0100186F",
      "name": "Junta Administrativa de Elosu",
      "scope": "ARABA/ÁLAVA",
      "address": "Barrio de Ollerias, 7. Elosu. 01510 Legutiano (Araba/Älava)",
      "webPage": "http://www.contratacion.euskadi.eus",
      "publicationDate": "2019-06-20",
      "mainActivity": "Servicios públicos generales",
      "codNUTS": "ES211",
      "entities": [
        {
          "id": 1112,
          "name": "Junta Administrativa de Elosu",
          "orgs": [
            {
              "id": 912850,
              "name": "Concejo de Elosu",
              "_links": {
                "self": {
                  "name": "Concejo de Elosu",
                  "href": "https://api.euskadi.eus/procurements/contracting-authorities/662/entities/1112/orgs/912850"
                }
              }
            }
          ],
          "_links": {
            "self": {
              "name": "Junta Administrativa de Elosu",
              "href": "https://api.euskadi.eus/procurements/contracting-authorities/662/entities/1112"
            }
          }
        }
      ],
      "mainEntityOfPage": "https://www.contratacion.euskadi.eus/webkpe00-kpeperfi/es/contenidos/poder_adjudicador/poder662/es_doc/es_arch_poder662.html",
      "_links": {
        "self": {
          "name": "Junta Administrativa de Elosu",
          "href": "https://api.euskadi.eus/procurements/contracting-authorities/662"
        }
      }
    },
    {
      "id": 663,
      "identificationNumber": "P0100243E",
      "name": "Junta Administrativa de Urrunaga",
      "scope": "ARABA/ÁLAVA",
      "address": "Urarte, 4. Urrunaga. 01170. Legutio (Araba/Álava)",
      "webPage": "http://www.contratacion.euskadi.eus",
      "publicationDate": "2019-06-20",
      "mainActivity": "Servicios públicos generales",
      "codNUTS": "ES211",
      "entities": [
        {
          "id": 1113,
          "name": "Junta Administrativa de Urrunaga",
          "orgs": [
            {
              "id": 912851,
              "name": "Concejo de Urrunaga",
              "_links": {
                "self": {
                  "name": "Concejo de Urrunaga",
                  "href": "https://api.euskadi.eus/procurements/contracting-authorities/663/entities/1113/orgs/912851"
                }
              }
            }
          ],
          "_links": {
            "self": {
              "name": "Junta Administrativa de Urrunaga",
              "href": "https://api.euskadi.eus/procurements/contracting-authorities/663/entities/1113"
            }
          }
        }
      ],
      "mainEntityOfPage": "https://www.contratacion.euskadi.eus/webkpe00-kpeperfi/es/contenidos/poder_adjudicador/poder663/es_doc/es_arch_poder663.html",
      "_links": {
        "self": {
          "name": "Junta Administrativa de Urrunaga",
          "href": "https://api.euskadi.eus/procurements/contracting-authorities/663"
        }
      }
    },
    {
      "id": 661,
      "identificationNumber": "P0100319C",
      "name": "Junta Administrativa de Arroiabe",
      "scope": "ARABA/ÁLAVA",
      "address": "Plaza Mayor, s/n. Arroiabe. 01520 Arrazua Ubarrundia (Araba/Álava)",
      "webPage": "http://www.contratacion.euskadi.eus",
      "publicationDate": "2019-06-18",
      "mainActivity": "Servicios públicos generales",
      "codNUTS": "ES211",
      "entities": [
        {
          "id": 1111,
          "name": "Junta Administrativa de Arroiabe",
          "orgs": [
            {
              "id": 912849,
              "name": "Concejo de Arroiabe",
              "_links": {
                "self": {
                  "name": "Concejo de Arroiabe",
                  "href": "https://api.euskadi.eus/procurements/contracting-authorities/661/entities/1111/orgs/912849"
                }
              }
            }
          ],
          "_links": {
            "self": {
              "name": "Junta Administrativa de Arroiabe",
              "href": "https://api.euskadi.eus/procurements/contracting-authorities/661/entities/1111"
            }
          }
        }
      ],
      "mainEntityOfPage": "https://www.contratacion.euskadi.eus/webkpe00-kpeperfi/es/contenidos/poder_adjudicador/poder661/es_doc/es_arch_poder661.html",
      "_links": {
        "self": {
          "name": "Junta Administrativa de Arroiabe",
          "href": "https://api.euskadi.eus/procurements/contracting-authorities/661"
        }
      }
    }
  ]
}