{
  "totalItems": 919,
  "totalPages": 92,
  "currentPage": 35,
  "itemsOfPage": 10,
  "items": [
    {
      "id": 757,
      "identificationNumber": "A95300414",
      "name": "LESA",
      "scope": "ARABA/ÁLAVA",
      "address": "info@landakogunea.com",
      "webPage": "https://www.landakogunea.com",
      "publicationDate": "2020-08-25",
      "mainActivity": "Ocio, cultura y religión",
      "codNUTS": "ES211",
      "entities": [
        {
          "id": 1234,
          "name": "Landako Erakustazoka, S.A.",
          "orgs": [
            {
              "id": 913653,
              "name": "Presidenta",
              "_links": {
                "self": {
                  "name": "Presidenta",
                  "href": "https://api.euskadi.eus/procurements/contracting-authorities/757/entities/1234/orgs/913653"
                }
              }
            },
            {
              "id": 913652,
              "name": "Consejo de Administración",
              "_links": {
                "self": {
                  "name": "Consejo de Administración",
                  "href": "https://api.euskadi.eus/procurements/contracting-authorities/757/entities/1234/orgs/913652"
                }
              }
            }
          ],
          "_links": {
            "self": {
              "name": "Landako Erakustazoka, S.A.",
              "href": "https://api.euskadi.eus/procurements/contracting-authorities/757/entities/1234"
            }
          }
        }
      ],
      "mainEntityOfPage": "https://www.contratacion.euskadi.eus/webkpe00-kpeperfi/es/contenidos/poder_adjudicador/poder757/es_doc/es_arch_poder757.html",
      "_links": {
        "self": {
          "name": "LESA",
          "href": "https://api.euskadi.eus/procurements/contracting-authorities/757"
        }
      }
    },
    {
      "id": 756,
      "identificationNumber": "P0100007D",
      "name": "Junta Administrativa de Páganos",
      "scope": "ARABA/ÁLAVA",
      "address": "junta.paganos@gmail.com",
      "webPage": "https://www.contratacion.euskadi.eus",
      "publicationDate": "2020-08-24",
      "mainActivity": "Servicios públicos generales",
      "codNUTS": "ES211",
      "entities": [
        {
          "id": 1233,
          "name": "Junta Administrativa de Páganos",
          "orgs": [
            {
              "id": 913651,
              "name": "Junta Concejo",
              "_links": {
                "self": {
                  "name": "Junta Concejo",
                  "href": "https://api.euskadi.eus/procurements/contracting-authorities/756/entities/1233/orgs/913651"
                }
              }
            }
          ],
          "_links": {
            "self": {
              "name": "Junta Administrativa de Páganos",
              "href": "https://api.euskadi.eus/procurements/contracting-authorities/756/entities/1233"
            }
          }
        }
      ],
      "mainEntityOfPage": "https://www.contratacion.euskadi.eus/webkpe00-kpeperfi/es/contenidos/poder_adjudicador/poder756/es_doc/es_arch_poder756.html",
      "_links": {
        "self": {
          "name": "Junta Administrativa de Páganos",
          "href": "https://api.euskadi.eus/procurements/contracting-authorities/756"
        }
      }
    },
    {
      "id": 616,
      "identificationNumber": "G75204867",
      "name": "Fundación AdinBerri",
      "scope": "GIPUZKOA",
      "address": "Miramon Pasealekua 166 - 20014 Donosti",
      "webPage": "http://www.adinberri.eus",
      "publicationDate": "2020-08-19",
      "mainActivity": "Protección social",
      "codNUTS": "ES212",
      "entities": [
        {
          "id": 1067,
          "name": "Fundación AdinBerri",
          "orgs": [
            {
              "id": 912788,
              "name": "Patronato",
              "_links": {
                "self": {
                  "name": "Patronato",
                  "href": "https://api.euskadi.eus/procurements/contracting-authorities/616/entities/1067/orgs/912788"
                }
              }
            }
          ],
          "_links": {
            "self": {
              "name": "Fundación AdinBerri",
              "href": "https://api.euskadi.eus/procurements/contracting-authorities/616/entities/1067"
            }
          }
        }
      ],
      "mainEntityOfPage": "https://www.contratacion.euskadi.eus/webkpe00-kpeperfi/es/contenidos/poder_adjudicador/poder616/es_doc/es_arch_poder616.html",
      "_links": {
        "self": {
          "name": "Fundación AdinBerri",
          "href": "https://api.euskadi.eus/procurements/contracting-authorities/616"
        }
      }
    },
    {
      "id": 755,
      "identificationNumber": "B95559266",
      "name": "Meatzaldeko Behargintza",
      "scope": "BIZKAIA",
      "address": "Bilbao Etorb. 10-bajo - Euskaldunberri Enp. - 48530 Ortuella - Bizkaia",
      "webPage": "https://www.behargintza-zm.com",
      "publicationDate": "2020-08-11",
      "mainActivity": "Otra actividad",
      "alternativeActivity": "Promoción Empresarial",
      "codNUTS": "ES213",
      "entities": [
        {
          "id": 1232,
          "name": "Meatzaldeko Behargintza, S.L.",
          "orgs": [
            {
              "id": 913650,
              "name": "Consejero Delegado",
              "_links": {
                "self": {
                  "name": "Consejero Delegado",
                  "href": "https://api.euskadi.eus/procurements/contracting-authorities/755/entities/1232/orgs/913650"
                }
              }
            }
          ],
          "_links": {
            "self": {
              "name": "Meatzaldeko Behargintza, S.L.",
              "href": "https://api.euskadi.eus/procurements/contracting-authorities/755/entities/1232"
            }
          }
        }
      ],
      "mainEntityOfPage": "https://www.contratacion.euskadi.eus/webkpe00-kpeperfi/es/contenidos/poder_adjudicador/poder755/es_doc/es_arch_poder755.html",
      "_links": {
        "self": {
          "name": "Meatzaldeko Behargintza",
          "href": "https://api.euskadi.eus/procurements/contracting-authorities/755"
        }
      }
    },
    {
      "id": 738,
      "identificationNumber": "P0100234D",
      "name": "Junta Administrativa Jokano",
      "scope": "ARABA/ÁLAVA",
      "address": "01439 Jokano - Municipio Kuartango",
      "webPage": "http://www.contratacion.euskadi.eus",
      "publicationDate": "2020-08-07",
      "mainActivity": "Servicios públicos generales",
      "codNUTS": "ES211",
      "entities": [
        {
          "id": 1216,
          "name": "Junta Administrativa Jokano",
          "orgs": [
            {
              "id": 913629,
              "name": "Concejo de Jokano",
              "_links": {
                "self": {
                  "name": "Concejo de Jokano",
                  "href": "https://api.euskadi.eus/procurements/contracting-authorities/738/entities/1216/orgs/913629"
                }
              }
            }
          ],
          "_links": {
            "self": {
              "name": "Junta Administrativa Jokano",
              "href": "https://api.euskadi.eus/procurements/contracting-authorities/738/entities/1216"
            }
          }
        }
      ],
      "mainEntityOfPage": "https://www.contratacion.euskadi.eus/webkpe00-kpeperfi/es/contenidos/poder_adjudicador/poder738/es_doc/es_arch_poder738.html",
      "_links": {
        "self": {
          "name": "Junta Administrativa Jokano",
          "href": "https://api.euskadi.eus/procurements/contracting-authorities/738"
        }
      }
    },
    {
      "id": 739,
      "identificationNumber": "A20907101",
      "name": "Blaia - Servicios Funerarios Municipales de Irun, S.A.",
      "scope": "CAPV",
      "address": "Blaia Pasealekua, 30 - 20305 IRUN",
      "webPage": "http://www.irun.org",
      "publicationDate": "2020-08-07",
      "mainActivity": "Servicios públicos generales",
      "codNUTS": "ES21",
      "entities": [
        {
          "id": 1218,
          "name": "Blaia - Servicios Funerarios Municipales de Irun, S.A.",
          "orgs": [
            {
              "id": 913634,
              "name": "Presidencia",
              "_links": {
                "self": {
                  "name": "Presidencia",
                  "href": "https://api.euskadi.eus/procurements/contracting-authorities/739/entities/1218/orgs/913634"
                }
              }
            },
            {
              "id": 913633,
              "name": "Consejo de Administración",
              "_links": {
                "self": {
                  "name": "Consejo de Administración",
                  "href": "https://api.euskadi.eus/procurements/contracting-authorities/739/entities/1218/orgs/913633"
                }
              }
            }
          ],
          "_links": {
            "self": {
              "name": "Blaia - Servicios Funerarios Municipales de Irun, S.A.",
              "href": "https://api.euskadi.eus/procurements/contracting-authorities/739/entities/1218"
            }
          }
        }
      ],
      "mainEntityOfPage": "https://www.contratacion.euskadi.eus/webkpe00-kpeperfi/es/contenidos/poder_adjudicador/poder739/es_doc/es_arch_poder739.html",
      "_links": {
        "self": {
          "name": "Blaia - Servicios Funerarios Municipales de Irun, S.A.",
          "href": "https://api.euskadi.eus/procurements/contracting-authorities/739"
        }
      }
    },
    {
      "id": 740,
      "identificationNumber": "P0100268B",
      "name": "Junta Administrativa de Oleta",
      "scope": "ARABA/ÁLAVA",
      "address": "-",
      "webPage": "http://www.contratacion.euskadi.eus",
      "publicationDate": "2020-08-07",
      "mainActivity": "Servicios públicos generales",
      "codNUTS": "ES211",
      "entities": [
        {
          "id": 1219,
          "name": "Junta Administrativa Oleta",
          "orgs": [
            {
              "id": 913635,
              "name": "Concejo de Oleta",
              "_links": {
                "self": {
                  "name": "Concejo de Oleta",
                  "href": "https://api.euskadi.eus/procurements/contracting-authorities/740/entities/1219/orgs/913635"
                }
              }
            }
          ],
          "_links": {
            "self": {
              "name": "Junta Administrativa Oleta",
              "href": "https://api.euskadi.eus/procurements/contracting-authorities/740/entities/1219"
            }
          }
        }
      ],
      "mainEntityOfPage": "https://www.contratacion.euskadi.eus/webkpe00-kpeperfi/es/contenidos/poder_adjudicador/poder740/es_doc/es_arch_poder740.html",
      "_links": {
        "self": {
          "name": "Junta Administrativa de Oleta",
          "href": "https://api.euskadi.eus/procurements/contracting-authorities/740"
        }
      }
    },
    {
      "id": 743,
      "identificationNumber": "P0100013B",
      "name": "Junta Administrativa de Galarreta",
      "scope": "ARABA/ÁLAVA",
      "address": "-",
      "webPage": "http://www.contratacion.euskadi.eus",
      "publicationDate": "2020-08-07",
      "mainActivity": "Servicios públicos generales",
      "codNUTS": "ES211",
      "entities": [
        {
          "id": 1222,
          "name": "Junta Administrativa de Galarreta",
          "orgs": [
            {
              "id": 913638,
              "name": "Concejo de Galarreta",
              "_links": {
                "self": {
                  "name": "Concejo de Galarreta",
                  "href": "https://api.euskadi.eus/procurements/contracting-authorities/743/entities/1222/orgs/913638"
                }
              }
            }
          ],
          "_links": {
            "self": {
              "name": "Junta Administrativa de Galarreta",
              "href": "https://api.euskadi.eus/procurements/contracting-authorities/743/entities/1222"
            }
          }
        }
      ],
      "mainEntityOfPage": "https://www.contratacion.euskadi.eus/webkpe00-kpeperfi/es/contenidos/poder_adjudicador/poder743/es_doc/es_arch_poder743.html",
      "_links": {
        "self": {
          "name": "Junta Administrativa de Galarreta",
          "href": "https://api.euskadi.eus/procurements/contracting-authorities/743"
        }
      }
    },
    {
      "id": 745,
      "identificationNumber": "P0100229D",
      "name": "Junta Administrativa Marieta-Larrinzar",
      "scope": "ARABA/ÁLAVA",
      "address": "Urasandi 9, 01206 Marieta-Larrinzar",
      "webPage": "https://www.contratacion.euskadi.eus",
      "publicationDate": "2020-08-07",
      "mainActivity": "Servicios públicos generales",
      "codNUTS": "ES211",
      "entities": [
        {
          "id": 1224,
          "name": "Junta Administrativa Marieta-Larrinzar",
          "orgs": [
            {
              "id": 913641,
              "name": "Concejo de Marieta",
              "_links": {
                "self": {
                  "name": "Concejo de Marieta",
                  "href": "https://api.euskadi.eus/procurements/contracting-authorities/745/entities/1224/orgs/913641"
                }
              }
            }
          ],
          "_links": {
            "self": {
              "name": "Junta Administrativa Marieta-Larrinzar",
              "href": "https://api.euskadi.eus/procurements/contracting-authorities/745/entities/1224"
            }
          }
        }
      ],
      "mainEntityOfPage": "https://www.contratacion.euskadi.eus/webkpe00-kpeperfi/es/contenidos/poder_adjudicador/poder745/es_doc/es_arch_poder745.html",
      "_links": {
        "self": {
          "name": "Junta Administrativa Marieta-Larrinzar",
          "href": "https://api.euskadi.eus/procurements/contracting-authorities/745"
        }
      }
    },
    {
      "id": 748,
      "identificationNumber": "P0100057I",
      "name": "Junta Administrativa de Domaikia",
      "scope": "ARABA/ÁLAVA",
      "address": "-",
      "webPage": "http://www.contratacion.euskadi.eus",
      "publicationDate": "2020-08-07",
      "mainActivity": "Servicios públicos generales",
      "codNUTS": "ES211",
      "entities": [
        {
          "id": 1225,
          "name": "Junta Administrativa de Domaikia",
          "orgs": [
            {
              "id": 913640,
              "name": "Presidente de la Junta",
              "_links": {
                "self": {
                  "name": "Presidente de la Junta",
                  "href": "https://api.euskadi.eus/procurements/contracting-authorities/748/entities/1225/orgs/913640"
                }
              }
            }
          ],
          "_links": {
            "self": {
              "name": "Junta Administrativa de Domaikia",
              "href": "https://api.euskadi.eus/procurements/contracting-authorities/748/entities/1225"
            }
          }
        }
      ],
      "mainEntityOfPage": "https://www.contratacion.euskadi.eus/webkpe00-kpeperfi/es/contenidos/poder_adjudicador/poder748/es_doc/es_arch_poder748.html",
      "_links": {
        "self": {
          "name": "Junta Administrativa de Domaikia",
          "href": "https://api.euskadi.eus/procurements/contracting-authorities/748"
        }
      }
    }
  ]
}