{
  "totalItems": 919,
  "totalPages": 92,
  "currentPage": 55,
  "itemsOfPage": 10,
  "items": [
    {
      "id": 483,
      "identificationNumber": "P4808500E",
      "name": "Ayuntamiento de Otxandio",
      "scope": "BIZKAIA",
      "address": "Plaza Nagusia, 1. 48210 Otxandio (Bizkaia)",
      "webPage": "http://www.otxandio.eus",
      "publicationDate": "2019-10-07",
      "mainActivity": "Servicios públicos generales",
      "codNUTS": "ES213",
      "entities": [
        {
          "id": 932,
          "name": "Ayuntamiento de Otxandio",
          "orgs": [
            {
              "id": 912551,
              "name": "Alcaldía",
              "_links": {
                "self": {
                  "name": "Alcaldía",
                  "href": "https://api.euskadi.eus/procurements/contracting-authorities/483/entities/932/orgs/912551"
                }
              }
            },
            {
              "id": 912552,
              "name": "Pleno",
              "_links": {
                "self": {
                  "name": "Pleno",
                  "href": "https://api.euskadi.eus/procurements/contracting-authorities/483/entities/932/orgs/912552"
                }
              }
            }
          ],
          "_links": {
            "self": {
              "name": "Ayuntamiento de Otxandio",
              "href": "https://api.euskadi.eus/procurements/contracting-authorities/483/entities/932"
            }
          }
        }
      ],
      "mainEntityOfPage": "https://www.contratacion.euskadi.eus/webkpe00-kpeperfi/es/contenidos/poder_adjudicador/poder483/es_doc/es_arch_poder483.html",
      "_links": {
        "self": {
          "name": "Ayuntamiento de Otxandio",
          "href": "https://api.euskadi.eus/procurements/contracting-authorities/483"
        }
      }
    },
    {
      "id": 485,
      "identificationNumber": "V95740437",
      "name": "Junta de Concertación de la unidad de Ejecución 1 de la Actuación Integrada 1 del Área Mixta de Zorr",
      "scope": "BIZKAIA",
      "address": "Colón de Larreategui, 13 2º Dcha.48001 Bilbao (Bizkaia)",
      "webPage": "http://www.zorrotzaurre.com",
      "publicationDate": "2019-10-07",
      "mainActivity": "Vivienda y servicios comunitarios",
      "codNUTS": "ES213",
      "entities": [
        {
          "id": 933,
          "name": "Junta de Concertación de Zorrotzaurre",
          "orgs": [
            {
              "id": 912555,
              "name": "Junta de Concertación de la unidad de Ejecución 1 de la Actuación Integrada 1 del Área Mixta de Zorrotzaurre",
              "_links": {
                "self": {
                  "name": "Junta de Concertación de la unidad de Ejecución 1 de la Actuación Integrada 1 del Área Mixta de Zorr",
                  "href": "https://api.euskadi.eus/procurements/contracting-authorities/485/entities/933/orgs/912555"
                }
              }
            }
          ],
          "_links": {
            "self": {
              "name": "Junta de Concertación de Zorrotzaurre",
              "href": "https://api.euskadi.eus/procurements/contracting-authorities/485/entities/933"
            }
          }
        }
      ],
      "mainEntityOfPage": "https://www.contratacion.euskadi.eus/webkpe00-kpeperfi/es/contenidos/poder_adjudicador/poder485/es_doc/es_arch_poder485.html",
      "_links": {
        "self": {
          "name": "Junta de Concertación de la unidad de Ejecución 1 de la Actuación Integrada 1 del Área Mixta de Zorr",
          "href": "https://api.euskadi.eus/procurements/contracting-authorities/485"
        }
      }
    },
    {
      "id": 492,
      "identificationNumber": "A95250346",
      "name": "Learri",
      "scope": "BIZKAIA",
      "address": "Okamikako Industrialea, z/g. 48289 Gizaburuaga (Bizkaia)",
      "webPage": "http://www.contratacion.euskadi.eus",
      "publicationDate": "2019-10-07",
      "mainActivity": "Vivienda y servicios comunitarios",
      "codNUTS": "ES213",
      "CPV": [
        {
          "name": "Obras de ingeniería y trabajos de construcción"
        }
      ],
      "entities": [
        {
          "id": 941,
          "name": "Learri",
          "orgs": [
            {
              "id": 912567,
              "name": "Consejo de Adminsistración",
              "_links": {
                "self": {
                  "name": "Consejo de Adminsistración",
                  "href": "https://api.euskadi.eus/procurements/contracting-authorities/492/entities/941/orgs/912567"
                }
              }
            }
          ],
          "_links": {
            "self": {
              "name": "Learri",
              "href": "https://api.euskadi.eus/procurements/contracting-authorities/492/entities/941"
            }
          }
        }
      ],
      "mainEntityOfPage": "https://www.contratacion.euskadi.eus/webkpe00-kpeperfi/es/contenidos/poder_adjudicador/poder492/es_doc/es_arch_poder492.html",
      "_links": {
        "self": {
          "name": "Learri",
          "href": "https://api.euskadi.eus/procurements/contracting-authorities/492"
        },
        "contractingAuthorities": [
          {
            "name": "Ayuntamiento de Amoroto",
            "href": "https://api.euskadi.eus/procurements/contracting-authorities/18846"
          },
          {
            "name": "Ayuntamiento de Aulesti",
            "href": "https://api.euskadi.eus/procurements/contracting-authorities/19579"
          },
          {
            "name": "Ayuntamiento de Mendexa",
            "href": "https://api.euskadi.eus/procurements/contracting-authorities/19291"
          },
          {
            "name": "Ayuntamiento de Munitibar-Arbatzegi-Gerrikaitz",
            "href": "https://api.euskadi.eus/procurements/contracting-authorities/19640"
          },
          {
            "name": "Mancomunidad de los Municipios Rurales del Lea",
            "href": "https://api.euskadi.eus/procurements/contracting-authorities/19038"
          }
        ]
      }
    },
    {
      "id": 493,
      "identificationNumber": "P4805900J",
      "name": "Ayuntamiento de Ispaster",
      "scope": "BIZKAIA",
      "address": "Elexalde Auzoa, 9-1º. 48288 Ispaster (Bizkaia)",
      "webPage": "http://www.ispaster.net",
      "publicationDate": "2019-10-07",
      "mainActivity": "Servicios públicos generales",
      "codNUTS": "ES213",
      "entities": [
        {
          "id": 942,
          "name": "Ayuntamiento de Ispaster",
          "orgs": [
            {
              "id": 912568,
              "name": "Alcalde",
              "_links": {
                "self": {
                  "name": "Alcalde",
                  "href": "https://api.euskadi.eus/procurements/contracting-authorities/493/entities/942/orgs/912568"
                }
              }
            },
            {
              "id": 912569,
              "name": "Pleno",
              "_links": {
                "self": {
                  "name": "Pleno",
                  "href": "https://api.euskadi.eus/procurements/contracting-authorities/493/entities/942/orgs/912569"
                }
              }
            }
          ],
          "_links": {
            "self": {
              "name": "Ayuntamiento de Ispaster",
              "href": "https://api.euskadi.eus/procurements/contracting-authorities/493/entities/942"
            }
          }
        }
      ],
      "mainEntityOfPage": "https://www.contratacion.euskadi.eus/webkpe00-kpeperfi/es/contenidos/poder_adjudicador/poder493/es_doc/es_arch_poder493.html",
      "_links": {
        "self": {
          "name": "Ayuntamiento de Ispaster",
          "href": "https://api.euskadi.eus/procurements/contracting-authorities/493"
        }
      }
    },
    {
      "id": 494,
      "identificationNumber": "P2000017J",
      "name": "Udalerri Euskaldunen Mankomunitatea",
      "scope": "BIZKAIA",
      "address": "Donibane enparantza, 1, 1a. 48380 Aulesti (Bizkaia)",
      "webPage": "http://www.uema.eus",
      "publicationDate": "2019-10-07",
      "mainActivity": "Servicios públicos generales",
      "codNUTS": "ES213",
      "entities": [
        {
          "id": 943,
          "name": "Udalerri Euskaldunen Mankomunitatea",
          "orgs": [
            {
              "id": 912570,
              "name": "Junta Directiva",
              "_links": {
                "self": {
                  "name": "Junta Directiva",
                  "href": "https://api.euskadi.eus/procurements/contracting-authorities/494/entities/943/orgs/912570"
                }
              }
            }
          ],
          "_links": {
            "self": {
              "name": "Udalerri Euskaldunen Mankomunitatea",
              "href": "https://api.euskadi.eus/procurements/contracting-authorities/494/entities/943"
            }
          }
        }
      ],
      "mainEntityOfPage": "https://www.contratacion.euskadi.eus/webkpe00-kpeperfi/es/contenidos/poder_adjudicador/poder494/es_doc/es_arch_poder494.html",
      "_links": {
        "self": {
          "name": "Udalerri Euskaldunen Mankomunitatea",
          "href": "https://api.euskadi.eus/procurements/contracting-authorities/494"
        }
      }
    },
    {
      "id": 500,
      "identificationNumber": "P4800032G",
      "name": "Mancomunidad de Municipios de Lea Artibai",
      "scope": "BIZKAIA",
      "address": "Xemein Etorbidea,13. 48270 Markina-Xemein (Bizkaia)",
      "webPage": "http://www.lea-artibai.org",
      "publicationDate": "2019-10-07",
      "mainActivity": "Servicios públicos generales",
      "codNUTS": "ES213",
      "entities": [
        {
          "id": 949,
          "name": "Mancomunidad de Municipios de Lea Artibai",
          "orgs": [
            {
              "id": 912576,
              "name": "Junta General de la Mancomunidad de Lea Artibai",
              "_links": {
                "self": {
                  "name": "Junta General de la Mancomunidad de Lea Artibai",
                  "href": "https://api.euskadi.eus/procurements/contracting-authorities/500/entities/949/orgs/912576"
                }
              }
            }
          ],
          "_links": {
            "self": {
              "name": "Mancomunidad de Municipios de Lea Artibai",
              "href": "https://api.euskadi.eus/procurements/contracting-authorities/500/entities/949"
            }
          }
        }
      ],
      "mainEntityOfPage": "https://www.contratacion.euskadi.eus/webkpe00-kpeperfi/es/contenidos/poder_adjudicador/poder500/es_doc/es_arch_poder500.html",
      "_links": {
        "self": {
          "name": "Mancomunidad de Municipios de Lea Artibai",
          "href": "https://api.euskadi.eus/procurements/contracting-authorities/500"
        }
      }
    },
    {
      "id": 501,
      "identificationNumber": "G95543526",
      "name": "Basque Center for Applied Mathematics",
      "scope": "BIZKAIA",
      "address": "Alameda Mazarredo,14. 48009.Bilbao (Bizkaia)",
      "webPage": "http://www.bcamath.org",
      "publicationDate": "2019-10-07",
      "mainActivity": "Otra actividad",
      "alternativeActivity": "Investigación",
      "codNUTS": "ES213",
      "entities": [
        {
          "id": 950,
          "name": "Basque Center for Applied Mathematics",
          "orgs": [
            {
              "id": 912577,
              "name": "Director científico",
              "_links": {
                "self": {
                  "name": "Director científico",
                  "href": "https://api.euskadi.eus/procurements/contracting-authorities/501/entities/950/orgs/912577"
                }
              }
            },
            {
              "id": 912578,
              "name": "Gerente",
              "_links": {
                "self": {
                  "name": "Gerente",
                  "href": "https://api.euskadi.eus/procurements/contracting-authorities/501/entities/950/orgs/912578"
                }
              }
            }
          ],
          "_links": {
            "self": {
              "name": "Basque Center for Applied Mathematics",
              "href": "https://api.euskadi.eus/procurements/contracting-authorities/501/entities/950"
            }
          }
        }
      ],
      "mainEntityOfPage": "https://www.contratacion.euskadi.eus/webkpe00-kpeperfi/es/contenidos/poder_adjudicador/poder501/es_doc/es_arch_poder501.html",
      "_links": {
        "self": {
          "name": "Basque Center for Applied Mathematics",
          "href": "https://api.euskadi.eus/procurements/contracting-authorities/501"
        }
      }
    },
    {
      "id": 513,
      "identificationNumber": "B48710131",
      "name": "Tenedora Museo de Arte Moderno y Contemporáneo de Bilbao, S.L.",
      "scope": "BIZKAIA",
      "address": "Abandoibarra Etorbidea, 2. 48009. Bilbao (Bizkaia)",
      "webPage": "http://www.guggenheim-bilbao.eus",
      "publicationDate": "2019-10-07",
      "mainActivity": "Ocio, cultura y religión",
      "codNUTS": "ES213",
      "entities": [
        {
          "id": 962,
          "name": "Tenedora Museo de Arte Moderno y Contemporáneo de Bilbao, S.L.",
          "orgs": [
            {
              "id": 912597,
              "name": "Consejo de Administración",
              "_links": {
                "self": {
                  "name": "Consejo de Administración",
                  "href": "https://api.euskadi.eus/procurements/contracting-authorities/513/entities/962/orgs/912597"
                }
              }
            }
          ],
          "_links": {
            "self": {
              "name": "Tenedora Museo de Arte Moderno y Contemporáneo de Bilbao, S.L.",
              "href": "https://api.euskadi.eus/procurements/contracting-authorities/513/entities/962"
            }
          }
        }
      ],
      "mainEntityOfPage": "https://www.contratacion.euskadi.eus/webkpe00-kpeperfi/es/contenidos/poder_adjudicador/poder513/es_doc/es_arch_poder513.html",
      "_links": {
        "self": {
          "name": "Tenedora Museo de Arte Moderno y Contemporáneo de Bilbao, S.L.",
          "href": "https://api.euskadi.eus/procurements/contracting-authorities/513"
        }
      }
    },
    {
      "id": 514,
      "identificationNumber": "B48518617",
      "name": "Inmobiliaria Museo de Arte Moderno y Contemporáneo de Bilbao, S.L.",
      "scope": "BIZKAIA",
      "address": "Abandoibarra Etorbidea nº 2, 48009 Bilbao (Bizkaia)",
      "webPage": "http://www.guggenheim-bilbao.eus",
      "publicationDate": "2019-10-07",
      "mainActivity": "Ocio, cultura y religión",
      "codNUTS": "ES213",
      "entities": [
        {
          "id": 963,
          "name": "Inmobiliaria Museo de Arte Moderno y Contemporáneo de Bilbao, S.L.",
          "orgs": [
            {
              "id": 912598,
              "name": "Consejo de Administracion",
              "_links": {
                "self": {
                  "name": "Consejo de Administracion",
                  "href": "https://api.euskadi.eus/procurements/contracting-authorities/514/entities/963/orgs/912598"
                }
              }
            }
          ],
          "_links": {
            "self": {
              "name": "Inmobiliaria Museo de Arte Moderno y Contemporáneo de Bilbao, S.L.",
              "href": "https://api.euskadi.eus/procurements/contracting-authorities/514/entities/963"
            }
          }
        }
      ],
      "mainEntityOfPage": "https://www.contratacion.euskadi.eus/webkpe00-kpeperfi/es/contenidos/poder_adjudicador/poder514/es_doc/es_arch_poder514.html",
      "_links": {
        "self": {
          "name": "Inmobiliaria Museo de Arte Moderno y Contemporáneo de Bilbao, S.L.",
          "href": "https://api.euskadi.eus/procurements/contracting-authorities/514"
        }
      }
    },
    {
      "id": 515,
      "identificationNumber": "P4807300A",
      "name": "Ayuntamiento de Mendata",
      "scope": "BIZKAIA",
      "address": "Barrio Elexalde,1. 48382 Mendata (Bizkaia)",
      "webPage": "http://www.mendata.eus",
      "publicationDate": "2019-10-07",
      "mainActivity": "Servicios públicos generales",
      "codNUTS": "ES213",
      "entities": [
        {
          "id": 965,
          "name": "Ayuntamiento de Mendata",
          "orgs": [
            {
              "id": 912599,
              "name": "Pleno",
              "_links": {
                "self": {
                  "name": "Pleno",
                  "href": "https://api.euskadi.eus/procurements/contracting-authorities/515/entities/965/orgs/912599"
                }
              }
            }
          ],
          "_links": {
            "self": {
              "name": "Ayuntamiento de Mendata",
              "href": "https://api.euskadi.eus/procurements/contracting-authorities/515/entities/965"
            }
          }
        }
      ],
      "mainEntityOfPage": "https://www.contratacion.euskadi.eus/webkpe00-kpeperfi/es/contenidos/poder_adjudicador/poder515/es_doc/es_arch_poder515.html",
      "_links": {
        "self": {
          "name": "Ayuntamiento de Mendata",
          "href": "https://api.euskadi.eus/procurements/contracting-authorities/515"
        }
      }
    }
  ]
}