{
  "totalItems": 919,
  "totalPages": 92,
  "currentPage": 50,
  "itemsOfPage": 10,
  "items": [
    {
      "id": 368,
      "identificationNumber": "P4807200C",
      "name": "Ayuntamiento de Maruri-Jatabe",
      "scope": "BIZKAIA",
      "address": "Erdigune, 68. 48112 Maruri-Jatabe",
      "webPage": "http://www.maruri-jatabe.eus",
      "publicationDate": "2019-10-07",
      "mainActivity": "Servicios públicos generales",
      "codNUTS": "ES213",
      "entities": [
        {
          "id": 820,
          "name": "Ayuntamiento de Maruri-Jatabe",
          "orgs": [
            {
              "id": 912348,
              "name": "Alcalde",
              "_links": {
                "self": {
                  "name": "Alcalde",
                  "href": "https://api.euskadi.eus/procurements/contracting-authorities/368/entities/820/orgs/912348"
                }
              }
            },
            {
              "id": 912349,
              "name": "Pleno",
              "_links": {
                "self": {
                  "name": "Pleno",
                  "href": "https://api.euskadi.eus/procurements/contracting-authorities/368/entities/820/orgs/912349"
                }
              }
            }
          ],
          "_links": {
            "self": {
              "name": "Ayuntamiento de Maruri-Jatabe",
              "href": "https://api.euskadi.eus/procurements/contracting-authorities/368/entities/820"
            }
          }
        }
      ],
      "mainEntityOfPage": "https://www.contratacion.euskadi.eus/webkpe00-kpeperfi/es/contenidos/poder_adjudicador/poder368/es_doc/es_arch_poder368.html",
      "_links": {
        "self": {
          "name": "Ayuntamiento de Maruri-Jatabe",
          "href": "https://api.euskadi.eus/procurements/contracting-authorities/368"
        }
      }
    },
    {
      "id": 370,
      "identificationNumber": "P4806700C",
      "name": "Ayuntamiento de Lekeitio",
      "scope": "BIZKAIA",
      "address": "Gamarra kalea, 1. 48280 Lekeitio (Bizkaia)",
      "webPage": "http://www.lekeitio.eus",
      "publicationDate": "2019-10-07",
      "mainActivity": "Servicios públicos generales",
      "codNUTS": "ES213",
      "entities": [
        {
          "id": 822,
          "name": "Ayuntamiento de  Lekeitio",
          "orgs": [
            {
              "id": 912353,
              "name": "Junta de Gobierno",
              "_links": {
                "self": {
                  "name": "Junta de Gobierno",
                  "href": "https://api.euskadi.eus/procurements/contracting-authorities/370/entities/822/orgs/912353"
                }
              }
            },
            {
              "id": 912352,
              "name": "Alcaldía",
              "_links": {
                "self": {
                  "name": "Alcaldía",
                  "href": "https://api.euskadi.eus/procurements/contracting-authorities/370/entities/822/orgs/912352"
                }
              }
            },
            {
              "id": 912354,
              "name": "Pleno",
              "_links": {
                "self": {
                  "name": "Pleno",
                  "href": "https://api.euskadi.eus/procurements/contracting-authorities/370/entities/822/orgs/912354"
                }
              }
            }
          ],
          "_links": {
            "self": {
              "name": "Ayuntamiento de  Lekeitio",
              "href": "https://api.euskadi.eus/procurements/contracting-authorities/370/entities/822"
            }
          }
        }
      ],
      "mainEntityOfPage": "https://www.contratacion.euskadi.eus/webkpe00-kpeperfi/es/contenidos/poder_adjudicador/poder370/es_doc/es_arch_poder370.html",
      "_links": {
        "self": {
          "name": "Ayuntamiento de Lekeitio",
          "href": "https://api.euskadi.eus/procurements/contracting-authorities/370"
        }
      }
    },
    {
      "id": 371,
      "identificationNumber": "P4810400D",
      "name": "Ayuntamiento de Balmaseda",
      "scope": "BIZKAIA",
      "address": "Plaza San Severino, 1. 48800 Balmaseda (Bizkaia)",
      "webPage": "http://www.balmaseda.eus ",
      "publicationDate": "2019-10-07",
      "mainActivity": "Servicios públicos generales",
      "codNUTS": "ES213",
      "entities": [
        {
          "id": 826,
          "name": " Ayuntamiento de Balmaseda",
          "orgs": [
            {
              "id": 912361,
              "name": "Pleno",
              "_links": {
                "self": {
                  "name": "Pleno",
                  "href": "https://api.euskadi.eus/procurements/contracting-authorities/371/entities/826/orgs/912361"
                }
              }
            },
            {
              "id": 912360,
              "name": "Alcalde",
              "_links": {
                "self": {
                  "name": "Alcalde",
                  "href": "https://api.euskadi.eus/procurements/contracting-authorities/371/entities/826/orgs/912360"
                }
              }
            }
          ],
          "_links": {
            "self": {
              "name": " Ayuntamiento de Balmaseda",
              "href": "https://api.euskadi.eus/procurements/contracting-authorities/371/entities/826"
            }
          }
        }
      ],
      "mainEntityOfPage": "https://www.contratacion.euskadi.eus/webkpe00-kpeperfi/es/contenidos/poder_adjudicador/poder371/es_doc/es_arch_poder371.html",
      "_links": {
        "self": {
          "name": "Ayuntamiento de Balmaseda",
          "href": "https://api.euskadi.eus/procurements/contracting-authorities/371"
        }
      }
    },
    {
      "id": 377,
      "identificationNumber": "B95586970",
      "name": "Udaltalde 21 Nerbioi-Ibaizabal, S.L.",
      "scope": "BIZKAIA",
      "address": "Elexalde 18. 48498 Arrankudiaga (Bizkaia)",
      "webPage": "http://www.ut21.org",
      "publicationDate": "2019-10-07",
      "mainActivity": "Medio ambiente",
      "codNUTS": "ES213",
      "entities": [
        {
          "id": 829,
          "name": "Udaltalde 21 Nerbioi-Ibaizabal, S.L.",
          "orgs": [
            {
              "id": 912365,
              "name": "Administrador",
              "_links": {
                "self": {
                  "name": "Administrador",
                  "href": "https://api.euskadi.eus/procurements/contracting-authorities/377/entities/829/orgs/912365"
                }
              }
            }
          ],
          "_links": {
            "self": {
              "name": "Udaltalde 21 Nerbioi-Ibaizabal, S.L.",
              "href": "https://api.euskadi.eus/procurements/contracting-authorities/377/entities/829"
            }
          }
        }
      ],
      "mainEntityOfPage": "https://www.contratacion.euskadi.eus/webkpe00-kpeperfi/es/contenidos/poder_adjudicador/poder377/es_doc/es_arch_poder377.html",
      "_links": {
        "self": {
          "name": "Udaltalde 21 Nerbioi-Ibaizabal, S.L.",
          "href": "https://api.euskadi.eus/procurements/contracting-authorities/377"
        }
      }
    },
    {
      "id": 382,
      "identificationNumber": "P4800016J",
      "name": "Mancomunidad de Municipios de Las Encartaciones",
      "scope": "BIZKAIA",
      "address": "Barrio La Inmaculada,15. 48850 Aranguren-Zalla (Bizkaia)",
      "webPage": "http://www.enkarterri.eus",
      "publicationDate": "2019-10-07",
      "mainActivity": "Medio ambiente",
      "codNUTS": "ES213",
      "entities": [
        {
          "id": 834,
          "name": "Mancomunidad de Municipios de Las Encartaciones",
          "orgs": [
            {
              "id": 912372,
              "name": "Presidencia ",
              "_links": {
                "self": {
                  "name": "Presidencia ",
                  "href": "https://api.euskadi.eus/procurements/contracting-authorities/382/entities/834/orgs/912372"
                }
              }
            },
            {
              "id": 912373,
              "name": "Junta General",
              "_links": {
                "self": {
                  "name": "Junta General",
                  "href": "https://api.euskadi.eus/procurements/contracting-authorities/382/entities/834/orgs/912373"
                }
              }
            }
          ],
          "_links": {
            "self": {
              "name": "Mancomunidad de Municipios de Las Encartaciones",
              "href": "https://api.euskadi.eus/procurements/contracting-authorities/382/entities/834"
            }
          }
        }
      ],
      "mainEntityOfPage": "https://www.contratacion.euskadi.eus/webkpe00-kpeperfi/es/contenidos/poder_adjudicador/poder382/es_doc/es_arch_poder382.html",
      "_links": {
        "self": {
          "name": "Mancomunidad de Municipios de Las Encartaciones",
          "href": "https://api.euskadi.eus/procurements/contracting-authorities/382"
        }
      }
    },
    {
      "id": 383,
      "identificationNumber": "P4804500I",
      "name": "Ayuntamiento de Galdames",
      "scope": "BIZKAIA",
      "address": "Plaza San Pedro, 6. 48191 Galdames  (Bizkaia)",
      "webPage": "http://www.galdames.eus",
      "publicationDate": "2019-10-07",
      "mainActivity": "Servicios públicos generales",
      "codNUTS": "ES213",
      "entities": [
        {
          "id": 835,
          "name": "Ayuntamiento de Galdames",
          "orgs": [
            {
              "id": 912374,
              "name": "Junta de Gobierno ",
              "_links": {
                "self": {
                  "name": "Junta de Gobierno ",
                  "href": "https://api.euskadi.eus/procurements/contracting-authorities/383/entities/835/orgs/912374"
                }
              }
            },
            {
              "id": 912375,
              "name": "Pleno Municipal",
              "_links": {
                "self": {
                  "name": "Pleno Municipal",
                  "href": "https://api.euskadi.eus/procurements/contracting-authorities/383/entities/835/orgs/912375"
                }
              }
            }
          ],
          "_links": {
            "self": {
              "name": "Ayuntamiento de Galdames",
              "href": "https://api.euskadi.eus/procurements/contracting-authorities/383/entities/835"
            }
          }
        }
      ],
      "mainEntityOfPage": "https://www.contratacion.euskadi.eus/webkpe00-kpeperfi/es/contenidos/poder_adjudicador/poder383/es_doc/es_arch_poder383.html",
      "_links": {
        "self": {
          "name": "Ayuntamiento de Galdames",
          "href": "https://api.euskadi.eus/procurements/contracting-authorities/383"
        }
      }
    },
    {
      "id": 384,
      "identificationNumber": "P4809900F",
      "name": "Ayuntamiento de Sopela",
      "scope": "BIZKAIA",
      "address": "Sabino Arana, 1. 48600 Sopela (Bizkaia)",
      "webPage": "http://www.sopela.eus",
      "publicationDate": "2019-10-07",
      "mainActivity": "Vivienda y servicios comunitarios",
      "codNUTS": "ES213",
      "entities": [
        {
          "id": 836,
          "name": "Ayuntamiento de Sopela",
          "orgs": [
            {
              "id": 912376,
              "name": "Alcaldía",
              "_links": {
                "self": {
                  "name": "Alcaldía",
                  "href": "https://api.euskadi.eus/procurements/contracting-authorities/384/entities/836/orgs/912376"
                }
              }
            },
            {
              "id": 912377,
              "name": "Pleno",
              "_links": {
                "self": {
                  "name": "Pleno",
                  "href": "https://api.euskadi.eus/procurements/contracting-authorities/384/entities/836/orgs/912377"
                }
              }
            }
          ],
          "_links": {
            "self": {
              "name": "Ayuntamiento de Sopela",
              "href": "https://api.euskadi.eus/procurements/contracting-authorities/384/entities/836"
            }
          }
        }
      ],
      "mainEntityOfPage": "https://www.contratacion.euskadi.eus/webkpe00-kpeperfi/es/contenidos/poder_adjudicador/poder384/es_doc/es_arch_poder384.html",
      "_links": {
        "self": {
          "name": "Ayuntamiento de Sopela",
          "href": "https://api.euskadi.eus/procurements/contracting-authorities/384"
        }
      }
    },
    {
      "id": 386,
      "identificationNumber": "P4807000G",
      "name": "Ayuntamiento de Mañaria",
      "scope": "BIZKAIA",
      "address": "Ebaristo Bustinza Kirikiño, 10. 48212 Mañaria (Bizkaia)  ",
      "webPage": "http://www.mañaria.eus ",
      "publicationDate": "2019-10-07",
      "mainActivity": "Servicios públicos generales",
      "codNUTS": "ES213",
      "entities": [
        {
          "id": 837,
          "name": "Ayuntamiento de Mañaria",
          "orgs": [
            {
              "id": 912378,
              "name": "Alcalde",
              "_links": {
                "self": {
                  "name": "Alcalde",
                  "href": "https://api.euskadi.eus/procurements/contracting-authorities/386/entities/837/orgs/912378"
                }
              }
            },
            {
              "id": 912380,
              "name": "Pleno",
              "_links": {
                "self": {
                  "name": "Pleno",
                  "href": "https://api.euskadi.eus/procurements/contracting-authorities/386/entities/837/orgs/912380"
                }
              }
            },
            {
              "id": 912379,
              "name": "Teniente de alcalde",
              "_links": {
                "self": {
                  "name": "Teniente de alcalde",
                  "href": "https://api.euskadi.eus/procurements/contracting-authorities/386/entities/837/orgs/912379"
                }
              }
            }
          ],
          "_links": {
            "self": {
              "name": "Ayuntamiento de Mañaria",
              "href": "https://api.euskadi.eus/procurements/contracting-authorities/386/entities/837"
            }
          }
        }
      ],
      "mainEntityOfPage": "https://www.contratacion.euskadi.eus/webkpe00-kpeperfi/es/contenidos/poder_adjudicador/poder386/es_doc/es_arch_poder386.html",
      "_links": {
        "self": {
          "name": "Ayuntamiento de Mañaria",
          "href": "https://api.euskadi.eus/procurements/contracting-authorities/386"
        }
      }
    },
    {
      "id": 388,
      "identificationNumber": "P4808400H",
      "name": "Ayuntamiento de Nabarniz",
      "scope": "BIZKAIA",
      "address": "Elexalde auzoa, 14. 48312 Nabarniz (Bizkaia)",
      "webPage": "http://www.nabarniz.eus",
      "publicationDate": "2019-10-07",
      "mainActivity": "Servicios públicos generales",
      "codNUTS": "ES213",
      "entities": [
        {
          "id": 840,
          "name": "Ayuntamiento de Nabarniz",
          "orgs": [
            {
              "id": 912385,
              "name": "Pleno",
              "_links": {
                "self": {
                  "name": "Pleno",
                  "href": "https://api.euskadi.eus/procurements/contracting-authorities/388/entities/840/orgs/912385"
                }
              }
            },
            {
              "id": 912384,
              "name": "Alcaldía",
              "_links": {
                "self": {
                  "name": "Alcaldía",
                  "href": "https://api.euskadi.eus/procurements/contracting-authorities/388/entities/840/orgs/912384"
                }
              }
            }
          ],
          "_links": {
            "self": {
              "name": "Ayuntamiento de Nabarniz",
              "href": "https://api.euskadi.eus/procurements/contracting-authorities/388/entities/840"
            }
          }
        }
      ],
      "mainEntityOfPage": "https://www.contratacion.euskadi.eus/webkpe00-kpeperfi/es/contenidos/poder_adjudicador/poder388/es_doc/es_arch_poder388.html",
      "_links": {
        "self": {
          "name": "Ayuntamiento de Nabarniz",
          "href": "https://api.euskadi.eus/procurements/contracting-authorities/388"
        }
      }
    },
    {
      "id": 391,
      "identificationNumber": "P4807700B",
      "name": "Ayuntamiento de Morga",
      "scope": "BIZKAIA",
      "address": "Barrio Andra Mari, s/n. 48115 Morga (Bizkaia)  ",
      "webPage": "http://www.morga.eus",
      "publicationDate": "2019-10-07",
      "mainActivity": "Servicios públicos generales",
      "codNUTS": "ES213",
      "entities": [
        {
          "id": 842,
          "name": "Ayuntamiento de Morga",
          "orgs": [
            {
              "id": 912387,
              "name": "Pleno",
              "_links": {
                "self": {
                  "name": "Pleno",
                  "href": "https://api.euskadi.eus/procurements/contracting-authorities/391/entities/842/orgs/912387"
                }
              }
            },
            {
              "id": 912386,
              "name": "Alcaldia ",
              "_links": {
                "self": {
                  "name": "Alcaldia ",
                  "href": "https://api.euskadi.eus/procurements/contracting-authorities/391/entities/842/orgs/912386"
                }
              }
            }
          ],
          "_links": {
            "self": {
              "name": "Ayuntamiento de Morga",
              "href": "https://api.euskadi.eus/procurements/contracting-authorities/391/entities/842"
            }
          }
        }
      ],
      "mainEntityOfPage": "https://www.contratacion.euskadi.eus/webkpe00-kpeperfi/es/contenidos/poder_adjudicador/poder391/es_doc/es_arch_poder391.html",
      "_links": {
        "self": {
          "name": "Ayuntamiento de Morga",
          "href": "https://api.euskadi.eus/procurements/contracting-authorities/391"
        }
      }
    }
  ]
}