{
  "totalItems": 919,
  "totalPages": 92,
  "currentPage": 75,
  "itemsOfPage": 10,
  "items": [
    {
      "id": 524,
      "identificationNumber": "P7004501H",
      "name": "Mancomunidad de Tolosaldea",
      "scope": "GIPUZKOA",
      "address": "Plaza Zaharra 6. 20400 Tolosa (Gipuzkoa)",
      "webPage": "http://www.tolosaldekomankomunitatea.eus",
      "publicationDate": "2019-10-03",
      "mainActivity": "Servicios públicos generales",
      "codNUTS": "ES212",
      "entities": [
        {
          "id": 974,
          "name": "Mancomunidad de Tolosaldea",
          "orgs": [
            {
              "id": 912875,
              "name": "Presidente",
              "_links": {
                "self": {
                  "name": "Presidente",
                  "href": "https://api.euskadi.eus/procurements/contracting-authorities/524/entities/974/orgs/912875"
                }
              }
            },
            {
              "id": 912613,
              "name": "Asamblea",
              "_links": {
                "self": {
                  "name": "Asamblea",
                  "href": "https://api.euskadi.eus/procurements/contracting-authorities/524/entities/974/orgs/912613"
                }
              }
            }
          ],
          "_links": {
            "self": {
              "name": "Mancomunidad de Tolosaldea",
              "href": "https://api.euskadi.eus/procurements/contracting-authorities/524/entities/974"
            }
          }
        }
      ],
      "mainEntityOfPage": "https://www.contratacion.euskadi.eus/webkpe00-kpeperfi/es/contenidos/poder_adjudicador/poder524/es_doc/es_arch_poder524.html",
      "_links": {
        "self": {
          "name": "Mancomunidad de Tolosaldea",
          "href": "https://api.euskadi.eus/procurements/contracting-authorities/524"
        }
      }
    },
    {
      "id": 525,
      "identificationNumber": "G20096442",
      "name": "Mancomunidad Enirio-Aralar",
      "scope": "GIPUZKOA",
      "address": "Kale Nagusia,24. 20240 Ordizia (Gipuzkoa)",
      "webPage": "http://www.enirio-aralar.eus",
      "publicationDate": "2019-10-03",
      "mainActivity": "Servicios públicos generales",
      "codNUTS": "ES212",
      "entities": [
        {
          "id": 975,
          "name": "Mancomunidad Enirio-Aralar",
          "orgs": [
            {
              "id": 912616,
              "name": "Comisión Permanente",
              "_links": {
                "self": {
                  "name": "Comisión Permanente",
                  "href": "https://api.euskadi.eus/procurements/contracting-authorities/525/entities/975/orgs/912616"
                }
              }
            },
            {
              "id": 912615,
              "name": "Junta Rectora",
              "_links": {
                "self": {
                  "name": "Junta Rectora",
                  "href": "https://api.euskadi.eus/procurements/contracting-authorities/525/entities/975/orgs/912615"
                }
              }
            },
            {
              "id": 912614,
              "name": "Presidente",
              "_links": {
                "self": {
                  "name": "Presidente",
                  "href": "https://api.euskadi.eus/procurements/contracting-authorities/525/entities/975/orgs/912614"
                }
              }
            }
          ],
          "_links": {
            "self": {
              "name": "Mancomunidad Enirio-Aralar",
              "href": "https://api.euskadi.eus/procurements/contracting-authorities/525/entities/975"
            }
          }
        }
      ],
      "mainEntityOfPage": "https://www.contratacion.euskadi.eus/webkpe00-kpeperfi/es/contenidos/poder_adjudicador/poder525/es_doc/es_arch_poder525.html",
      "_links": {
        "self": {
          "name": "Mancomunidad Enirio-Aralar",
          "href": "https://api.euskadi.eus/procurements/contracting-authorities/525"
        }
      }
    },
    {
      "id": 527,
      "identificationNumber": "G75203067",
      "name": "Ziur Fundazioa",
      "scope": "GIPUZKOA",
      "address": "Zuatzu, edificio Urola, 1. 20018 Donostia/San Sebastián (Gipuzkoa)",
      "webPage": "http://www.contratacion.euskadi.eus",
      "publicationDate": "2019-10-03",
      "mainActivity": "Servicios públicos generales",
      "codNUTS": "ES212",
      "entities": [
        {
          "id": 977,
          "name": "Ziur Fundazioa",
          "orgs": [
            {
              "id": 912621,
              "name": "Patronato",
              "_links": {
                "self": {
                  "name": "Patronato",
                  "href": "https://api.euskadi.eus/procurements/contracting-authorities/527/entities/977/orgs/912621"
                }
              }
            }
          ],
          "_links": {
            "self": {
              "name": "Ziur Fundazioa",
              "href": "https://api.euskadi.eus/procurements/contracting-authorities/527/entities/977"
            }
          }
        }
      ],
      "mainEntityOfPage": "https://www.contratacion.euskadi.eus/webkpe00-kpeperfi/es/contenidos/poder_adjudicador/poder527/es_doc/es_arch_poder527.html",
      "_links": {
        "self": {
          "name": "Ziur Fundazioa",
          "href": "https://api.euskadi.eus/procurements/contracting-authorities/527"
        }
      }
    },
    {
      "id": 541,
      "identificationNumber": "A20471462",
      "name": "Gipuzkoako Urak",
      "scope": "GIPUZKOA",
      "address": "Portuetxe,16-1º. 20018 Donostia (Guipuzkoa)",
      "webPage": "https://www.gipuzkoakour.eus",
      "publicationDate": "2019-10-03",
      "mainActivity": "Medio ambiente",
      "codNUTS": "ES212",
      "entities": [
        {
          "id": 991,
          "name": "Gipuzkoako Urak",
          "orgs": [
            {
              "id": 912644,
              "name": "Consejo de Administración",
              "_links": {
                "self": {
                  "name": "Consejo de Administración",
                  "href": "https://api.euskadi.eus/procurements/contracting-authorities/541/entities/991/orgs/912644"
                }
              }
            },
            {
              "id": 912643,
              "name": "Director Gerente ",
              "_links": {
                "self": {
                  "name": "Director Gerente ",
                  "href": "https://api.euskadi.eus/procurements/contracting-authorities/541/entities/991/orgs/912643"
                }
              }
            },
            {
              "id": 912645,
              "name": "Presidente",
              "_links": {
                "self": {
                  "name": "Presidente",
                  "href": "https://api.euskadi.eus/procurements/contracting-authorities/541/entities/991/orgs/912645"
                }
              }
            }
          ],
          "_links": {
            "self": {
              "name": "Gipuzkoako Urak",
              "href": "https://api.euskadi.eus/procurements/contracting-authorities/541/entities/991"
            }
          }
        }
      ],
      "mainEntityOfPage": "https://www.contratacion.euskadi.eus/webkpe00-kpeperfi/es/contenidos/poder_adjudicador/poder541/es_doc/es_arch_poder541.html",
      "_links": {
        "self": {
          "name": "Gipuzkoako Urak",
          "href": "https://api.euskadi.eus/procurements/contracting-authorities/541"
        }
      }
    },
    {
      "id": 569,
      "identificationNumber": "A20180485",
      "name": "Iraurgi Lantzen S.A.",
      "scope": "GIPUZKOA",
      "address": "Intsausti Jauregia. Julio Urkixo Etorbidea, 25. 20720 Azkoitia (Gipuzkoa)",
      "webPage": "http://www.iraurgiberritzen.eus",
      "publicationDate": "2019-10-03",
      "mainActivity": "Servicios públicos generales",
      "codNUTS": "ES212",
      "entities": [
        {
          "id": 1019,
          "name": "Iraurgi Berritzen",
          "orgs": [
            {
              "id": 912695,
              "name": "Dirección",
              "_links": {
                "self": {
                  "name": "Dirección",
                  "href": "https://api.euskadi.eus/procurements/contracting-authorities/569/entities/1019/orgs/912695"
                }
              }
            },
            {
              "id": 912696,
              "name": "Consejo de Administración",
              "_links": {
                "self": {
                  "name": "Consejo de Administración",
                  "href": "https://api.euskadi.eus/procurements/contracting-authorities/569/entities/1019/orgs/912696"
                }
              }
            }
          ],
          "_links": {
            "self": {
              "name": "Iraurgi Berritzen",
              "href": "https://api.euskadi.eus/procurements/contracting-authorities/569/entities/1019"
            }
          }
        }
      ],
      "mainEntityOfPage": "https://www.contratacion.euskadi.eus/webkpe00-kpeperfi/es/contenidos/poder_adjudicador/poder569/es_doc/es_arch_poder569.html",
      "_links": {
        "self": {
          "name": "Iraurgi Lantzen S.A.",
          "href": "https://api.euskadi.eus/procurements/contracting-authorities/569"
        }
      }
    },
    {
      "id": 572,
      "identificationNumber": "G20148961",
      "name": "Consorcio Palacio Miramar",
      "scope": "GIPUZKOA",
      "address": "Pº Miraconcha,48. 20007 Donostia-San Sebastian (Gipuzkoa)",
      "webPage": "http://www.palaciomiramar.eus",
      "publicationDate": "2019-10-03",
      "mainActivity": "Servicios públicos generales",
      "codNUTS": "ES212",
      "entities": [
        {
          "id": 1022,
          "name": "Consorcio Palacio Miramar",
          "orgs": [
            {
              "id": 912700,
              "name": "Junta Rectora",
              "_links": {
                "self": {
                  "name": "Junta Rectora",
                  "href": "https://api.euskadi.eus/procurements/contracting-authorities/572/entities/1022/orgs/912700"
                }
              }
            }
          ],
          "_links": {
            "self": {
              "name": "Consorcio Palacio Miramar",
              "href": "https://api.euskadi.eus/procurements/contracting-authorities/572/entities/1022"
            }
          }
        }
      ],
      "mainEntityOfPage": "https://www.contratacion.euskadi.eus/webkpe00-kpeperfi/es/contenidos/poder_adjudicador/poder572/es_doc/es_arch_poder572.html",
      "_links": {
        "self": {
          "name": "Consorcio Palacio Miramar",
          "href": "https://api.euskadi.eus/procurements/contracting-authorities/572"
        }
      }
    },
    {
      "id": 577,
      "identificationNumber": "A20460747",
      "name": "Goierriko Ekiminena SA",
      "scope": "GIPUZKOA",
      "address": "Pol. Mallutz, Pab 18. 20240 Ordizia",
      "webPage": "http://www.www.goierri.eus",
      "publicationDate": "2019-10-03",
      "mainActivity": "Servicios públicos generales",
      "codNUTS": "ES212",
      "entities": [
        {
          "id": 1027,
          "name": "GOIEKI",
          "orgs": [
            {
              "id": 912708,
              "name": "Director Gerente",
              "_links": {
                "self": {
                  "name": "Director Gerente",
                  "href": "https://api.euskadi.eus/procurements/contracting-authorities/577/entities/1027/orgs/912708"
                }
              }
            }
          ],
          "_links": {
            "self": {
              "name": "GOIEKI",
              "href": "https://api.euskadi.eus/procurements/contracting-authorities/577/entities/1027"
            }
          }
        }
      ],
      "mainEntityOfPage": "https://www.contratacion.euskadi.eus/webkpe00-kpeperfi/es/contenidos/poder_adjudicador/poder577/es_doc/es_arch_poder577.html",
      "_links": {
        "self": {
          "name": "Goierriko Ekiminena SA",
          "href": "https://api.euskadi.eus/procurements/contracting-authorities/577"
        }
      }
    },
    {
      "id": 592,
      "identificationNumber": "G75017863",
      "name": "Fundación Gipuzkoako Parketxe Sarea",
      "scope": "GIPUZKOA",
      "address": "Ibaiondo Poligonoa,27-1º.oficina 1-5. 20120 Hernani (Gipuzkoa)",
      "webPage": "http://www.parketxesarea.org",
      "publicationDate": "2019-10-03",
      "mainActivity": "Ocio, cultura y religión",
      "codNUTS": "ES212",
      "entities": [
        {
          "id": 1042,
          "name": "Fundación Gipuzkoako Parketxe Sarea",
          "orgs": [
            {
              "id": 912738,
              "name": "Gerente",
              "_links": {
                "self": {
                  "name": "Gerente",
                  "href": "https://api.euskadi.eus/procurements/contracting-authorities/592/entities/1042/orgs/912738"
                }
              }
            }
          ],
          "_links": {
            "self": {
              "name": "Fundación Gipuzkoako Parketxe Sarea",
              "href": "https://api.euskadi.eus/procurements/contracting-authorities/592/entities/1042"
            }
          }
        }
      ],
      "mainEntityOfPage": "https://www.contratacion.euskadi.eus/webkpe00-kpeperfi/es/contenidos/poder_adjudicador/poder592/es_doc/es_arch_poder592.html",
      "_links": {
        "self": {
          "name": "Fundación Gipuzkoako Parketxe Sarea",
          "href": "https://api.euskadi.eus/procurements/contracting-authorities/592"
        }
      }
    },
    {
      "id": 617,
      "identificationNumber": "G75018705",
      "name": "Geogarapen, Asociación para la gestión del Geoparque de la Costa Vasca",
      "scope": "GIPUZKOA",
      "address": "Ifar kalea, 4 bajo. 20820 Deba (Gipuzkoa)",
      "webPage": "http://www.geoparkea.eus",
      "publicationDate": "2019-10-03",
      "mainActivity": "Medio ambiente",
      "codNUTS": "ES212",
      "entities": [
        {
          "id": 1068,
          "name": "Geogarapen, Asociación para la gestión del Geoparque de la Costa Vasca ",
          "orgs": [
            {
              "id": 912789,
              "name": "Junta Directiva",
              "_links": {
                "self": {
                  "name": "Junta Directiva",
                  "href": "https://api.euskadi.eus/procurements/contracting-authorities/617/entities/1068/orgs/912789"
                }
              }
            }
          ],
          "_links": {
            "self": {
              "name": "Geogarapen, Asociación para la gestión del Geoparque de la Costa Vasca ",
              "href": "https://api.euskadi.eus/procurements/contracting-authorities/617/entities/1068"
            }
          }
        }
      ],
      "mainEntityOfPage": "https://www.contratacion.euskadi.eus/webkpe00-kpeperfi/es/contenidos/poder_adjudicador/poder617/es_doc/es_arch_poder617.html",
      "_links": {
        "self": {
          "name": "Geogarapen, Asociación para la gestión del Geoparque de la Costa Vasca",
          "href": "https://api.euskadi.eus/procurements/contracting-authorities/617"
        }
      }
    },
    {
      "id": 630,
      "identificationNumber": "V20994083",
      "name": "Junta de Concertación de la Unidad de Ejecución UEB-Alarde del Ámbito 6.3.01 Olaketa Alarde. Agrup",
      "scope": "GIPUZKOA",
      "address": "Plaza José María Sert, 10 bajo. 20018 Donostia-San Sebastián (Gipuzkoa)",
      "webPage": "http://www.contratacion.euskadi.eus",
      "publicationDate": "2019-10-03",
      "mainActivity": "Vivienda y servicios comunitarios",
      "codNUTS": "ES212",
      "entities": [
        {
          "id": 1081,
          "name": "Junta de Concertación Ámbito 6.3.01 Alarde de Irun",
          "orgs": [
            {
              "id": 912807,
              "name": "Asamblea General",
              "_links": {
                "self": {
                  "name": "Asamblea General",
                  "href": "https://api.euskadi.eus/procurements/contracting-authorities/630/entities/1081/orgs/912807"
                }
              }
            }
          ],
          "_links": {
            "self": {
              "name": "Junta de Concertación Ámbito 6.3.01 Alarde de Irun",
              "href": "https://api.euskadi.eus/procurements/contracting-authorities/630/entities/1081"
            }
          }
        }
      ],
      "mainEntityOfPage": "https://www.contratacion.euskadi.eus/webkpe00-kpeperfi/es/contenidos/poder_adjudicador/poder630/es_doc/es_arch_poder630.html",
      "_links": {
        "self": {
          "name": "Junta de Concertación de la Unidad de Ejecución UEB-Alarde del Ámbito 6.3.01 Olaketa Alarde. Agrup",
          "href": "https://api.euskadi.eus/procurements/contracting-authorities/630"
        }
      }
    }
  ]
}