{
  "totalItems": 919,
  "totalPages": 92,
  "currentPage": 33,
  "itemsOfPage": 10,
  "items": [
    {
      "id": 773,
      "identificationNumber": "P0100283A",
      "name": "Junta Administrativa de Marinda",
      "scope": "ARABA/ÁLAVA",
      "address": "Santa Eulalia - Marinda",
      "webPage": "https://www.contratacion.euskadi.eus/",
      "publicationDate": "2020-12-02",
      "mainActivity": "Servicios públicos generales",
      "codNUTS": "ES211",
      "entities": [
        {
          "id": 1273,
          "name": "Junta Administrativa de Marinda",
          "orgs": [
            {
              "id": 914299,
              "name": "Presidente",
              "_links": {
                "self": {
                  "name": "Presidente",
                  "href": "https://api.euskadi.eus/procurements/contracting-authorities/773/entities/1273/orgs/914299"
                }
              }
            }
          ],
          "_links": {
            "self": {
              "name": "Junta Administrativa de Marinda",
              "href": "https://api.euskadi.eus/procurements/contracting-authorities/773/entities/1273"
            }
          }
        }
      ],
      "mainEntityOfPage": "https://www.contratacion.euskadi.eus/webkpe00-kpeperfi/es/contenidos/poder_adjudicador/poder773/es_doc/es_arch_poder773.html",
      "_links": {
        "self": {
          "name": "Junta Administrativa de Marinda",
          "href": "https://api.euskadi.eus/procurements/contracting-authorities/773"
        }
      }
    },
    {
      "id": 772,
      "identificationNumber": "V01575802",
      "name": "Junta de Concertación Curtidos",
      "scope": "ARABA/ÁLAVA",
      "address": "-",
      "webPage": "https://www.contratacion.euskadi.eus",
      "publicationDate": "2020-11-24",
      "mainActivity": "Vivienda y servicios comunitarios",
      "codNUTS": "ES211",
      "entities": [
        {
          "id": 1272,
          "name": "Junta de Concertación de la Unidad de Ejecución Discontinua UE 49.1 Curtidos-Harresi",
          "orgs": [
            {
              "id": 914297,
              "name": "Junta de Concertación de la Unidad de Ejecución discontinua UE49.1 Curtidos-Harresi",
              "_links": {
                "self": {
                  "name": "Junta de Concertación de la Unidad de Ejecución discontinua UE49.1 Curtidos-Harresi",
                  "href": "https://api.euskadi.eus/procurements/contracting-authorities/772/entities/1272/orgs/914297"
                }
              }
            }
          ],
          "_links": {
            "self": {
              "name": "Junta de Concertación de la Unidad de Ejecución Discontinua UE 49.1 Curtidos-Harresi",
              "href": "https://api.euskadi.eus/procurements/contracting-authorities/772/entities/1272"
            }
          }
        }
      ],
      "mainEntityOfPage": "https://www.contratacion.euskadi.eus/webkpe00-kpeperfi/es/contenidos/poder_adjudicador/poder772/es_doc/es_arch_poder772.html",
      "_links": {
        "self": {
          "name": "Junta de Concertación Curtidos",
          "href": "https://api.euskadi.eus/procurements/contracting-authorities/772"
        }
      }
    },
    {
      "id": 770,
      "identificationNumber": "P0100232H",
      "name": "Junta Administrativa Sendadiano",
      "scope": "ARABA/ÁLAVA",
      "address": "Calle única, s/n - Sendadiano",
      "webPage": "https://www.contratacion.euskadi.eus",
      "publicationDate": "2020-11-20",
      "mainActivity": "Servicios públicos generales",
      "codNUTS": "ES211",
      "entities": [
        {
          "id": 1270,
          "name": "Junta Administratriva Sendadiano",
          "orgs": [
            {
              "id": 914295,
              "name": "Concejo de Sendadiano",
              "_links": {
                "self": {
                  "name": "Concejo de Sendadiano",
                  "href": "https://api.euskadi.eus/procurements/contracting-authorities/770/entities/1270/orgs/914295"
                }
              }
            }
          ],
          "_links": {
            "self": {
              "name": "Junta Administratriva Sendadiano",
              "href": "https://api.euskadi.eus/procurements/contracting-authorities/770/entities/1270"
            }
          }
        }
      ],
      "mainEntityOfPage": "https://www.contratacion.euskadi.eus/webkpe00-kpeperfi/es/contenidos/poder_adjudicador/poder770/es_doc/es_arch_poder770.html",
      "_links": {
        "self": {
          "name": "Junta Administrativa Sendadiano",
          "href": "https://api.euskadi.eus/procurements/contracting-authorities/770"
        }
      }
    },
    {
      "id": 771,
      "identificationNumber": "P0100168D",
      "name": "Junta Administrativa de Agiñaga",
      "scope": "ARABA/ÁLAVA",
      "address": "-",
      "webPage": "https://www.contratacion.euskadi.eus",
      "publicationDate": "2020-11-20",
      "mainActivity": "Servicios públicos generales",
      "codNUTS": "ES211",
      "entities": [
        {
          "id": 1271,
          "name": "Junta Administrativa de Agiñaga",
          "orgs": [
            {
              "id": 914296,
              "name": "Junta Administrativa",
              "_links": {
                "self": {
                  "name": "Junta Administrativa",
                  "href": "https://api.euskadi.eus/procurements/contracting-authorities/771/entities/1271/orgs/914296"
                }
              }
            }
          ],
          "_links": {
            "self": {
              "name": "Junta Administrativa de Agiñaga",
              "href": "https://api.euskadi.eus/procurements/contracting-authorities/771/entities/1271"
            }
          }
        }
      ],
      "mainEntityOfPage": "https://www.contratacion.euskadi.eus/webkpe00-kpeperfi/es/contenidos/poder_adjudicador/poder771/es_doc/es_arch_poder771.html",
      "_links": {
        "self": {
          "name": "Junta Administrativa de Agiñaga",
          "href": "https://api.euskadi.eus/procurements/contracting-authorities/771"
        }
      }
    },
    {
      "id": 769,
      "identificationNumber": "P0100191F",
      "name": "Junta Administrativa Uzkiano",
      "scope": "ARABA/ÁLAVA",
      "address": "Carretera Uzkiano, s/n - 01449 Uzkiano - Urkabustaiz",
      "webPage": "https://www.contratacion.euskadi.eus",
      "publicationDate": "2020-11-18",
      "mainActivity": "Servicios públicos generales",
      "codNUTS": "ES211",
      "entities": [
        {
          "id": 1269,
          "name": "Junta Administrativa Uzkiano",
          "orgs": [
            {
              "id": 914294,
              "name": "Concejo de Uzkiano",
              "_links": {
                "self": {
                  "name": "Concejo de Uzkiano",
                  "href": "https://api.euskadi.eus/procurements/contracting-authorities/769/entities/1269/orgs/914294"
                }
              }
            }
          ],
          "_links": {
            "self": {
              "name": "Junta Administrativa Uzkiano",
              "href": "https://api.euskadi.eus/procurements/contracting-authorities/769/entities/1269"
            }
          }
        }
      ],
      "mainEntityOfPage": "https://www.contratacion.euskadi.eus/webkpe00-kpeperfi/es/contenidos/poder_adjudicador/poder769/es_doc/es_arch_poder769.html",
      "_links": {
        "self": {
          "name": "Junta Administrativa Uzkiano",
          "href": "https://api.euskadi.eus/procurements/contracting-authorities/769"
        }
      }
    },
    {
      "id": 768,
      "identificationNumber": "F48481923",
      "name": "Agintzari, Sociedad Cooperativa de Iniciativa Social",
      "scope": "BIZKAIA",
      "address": "Avda Madariaga, 1-4ª - 48014 Bilbao",
      "webPage": "https://www.agintzari.com",
      "publicationDate": "2020-11-17",
      "mainActivity": "Otra actividad",
      "alternativeActivity": "Servicios Sociales",
      "codNUTS": "ES213",
      "entities": [
        {
          "id": 1268,
          "name": "Agintzari, Sociedad Cooperativa de Iniciativa Social",
          "orgs": [
            {
              "id": 914293,
              "name": "Gerencia",
              "_links": {
                "self": {
                  "name": "Gerencia",
                  "href": "https://api.euskadi.eus/procurements/contracting-authorities/768/entities/1268/orgs/914293"
                }
              }
            }
          ],
          "_links": {
            "self": {
              "name": "Agintzari, Sociedad Cooperativa de Iniciativa Social",
              "href": "https://api.euskadi.eus/procurements/contracting-authorities/768/entities/1268"
            }
          }
        }
      ],
      "mainEntityOfPage": "https://www.contratacion.euskadi.eus/webkpe00-kpeperfi/es/contenidos/poder_adjudicador/poder768/es_doc/es_arch_poder768.html",
      "_links": {
        "self": {
          "name": "Agintzari, Sociedad Cooperativa de Iniciativa Social",
          "href": "https://api.euskadi.eus/procurements/contracting-authorities/768"
        }
      }
    },
    {
      "id": 288,
      "identificationNumber": "P2001900F",
      "name": "Ayuntamiento de Azpeitia",
      "scope": "GIPUZKOA",
      "address": "Plaza Nagusia, 5. 20730 Azpeitia (Gipuzkoa)",
      "webPage": "http://www.azpeitia.eus",
      "publicationDate": "2020-11-05",
      "mainActivity": "Servicios públicos generales",
      "codNUTS": "ES212",
      "entities": [
        {
          "id": 736,
          "name": "Ayuntamiento de Azpeitia",
          "orgs": [
            {
              "id": 912176,
              "name": "Pleno",
              "_links": {
                "self": {
                  "name": "Pleno",
                  "href": "https://api.euskadi.eus/procurements/contracting-authorities/288/entities/736/orgs/912176"
                }
              }
            },
            {
              "id": 912175,
              "name": "Alcaldía",
              "_links": {
                "self": {
                  "name": "Alcaldía",
                  "href": "https://api.euskadi.eus/procurements/contracting-authorities/288/entities/736/orgs/912175"
                }
              }
            }
          ],
          "_links": {
            "self": {
              "name": "Ayuntamiento de Azpeitia",
              "href": "https://api.euskadi.eus/procurements/contracting-authorities/288/entities/736"
            }
          }
        },
        {
          "id": 1267,
          "name": "Copropietarios Jose Artetxe Kalea 9-11-13-15",
          "orgs": [
            {
              "id": 914291,
              "name": "Presidente",
              "_links": {
                "self": {
                  "name": "Presidente",
                  "href": "https://api.euskadi.eus/procurements/contracting-authorities/288/entities/1267/orgs/914291"
                }
              }
            }
          ],
          "_links": {
            "self": {
              "name": "Copropietarios Jose Artetxe Kalea 9-11-13-15",
              "href": "https://api.euskadi.eus/procurements/contracting-authorities/288/entities/1267"
            }
          }
        }
      ],
      "mainEntityOfPage": "https://www.contratacion.euskadi.eus/webkpe00-kpeperfi/es/contenidos/poder_adjudicador/poder288/es_doc/es_arch_poder288.html",
      "_links": {
        "self": {
          "name": "Ayuntamiento de Azpeitia",
          "href": "https://api.euskadi.eus/procurements/contracting-authorities/288"
        }
      }
    },
    {
      "id": 766,
      "identificationNumber": "P0100222I",
      "name": "Comunidad de Yarto",
      "scope": "ARABA/ÁLAVA",
      "address": "Sendadiano, 8 - Kuartango",
      "webPage": "https://www.contratacion.euskadi.eus",
      "publicationDate": "2020-11-04",
      "mainActivity": "Otra actividad",
      "alternativeActivity": "Ganaderia",
      "codNUTS": "ES211",
      "entities": [
        {
          "id": 1265,
          "name": "Comunidad de Yarto",
          "orgs": [
            {
              "id": 914288,
              "name": "Presidente de la Comunidad de Yarto",
              "_links": {
                "self": {
                  "name": "Presidente de la Comunidad de Yarto",
                  "href": "https://api.euskadi.eus/procurements/contracting-authorities/766/entities/1265/orgs/914288"
                }
              }
            },
            {
              "id": 914289,
              "name": "Junta de la Comunidad de Yarto",
              "_links": {
                "self": {
                  "name": "Junta de la Comunidad de Yarto",
                  "href": "https://api.euskadi.eus/procurements/contracting-authorities/766/entities/1265/orgs/914289"
                }
              }
            }
          ],
          "_links": {
            "self": {
              "name": "Comunidad de Yarto",
              "href": "https://api.euskadi.eus/procurements/contracting-authorities/766/entities/1265"
            }
          }
        }
      ],
      "mainEntityOfPage": "https://www.contratacion.euskadi.eus/webkpe00-kpeperfi/es/contenidos/poder_adjudicador/poder766/es_doc/es_arch_poder766.html",
      "_links": {
        "self": {
          "name": "Comunidad de Yarto",
          "href": "https://api.euskadi.eus/procurements/contracting-authorities/766"
        }
      }
    },
    {
      "id": 331,
      "identificationNumber": "G20788840",
      "name": "Asociación Centro de Investigación Cooperativa en Biomateriales-CIC biomaGUNE",
      "scope": "GIPUZKOA",
      "address": "Paseo Miramón, 182. 20014 Donostia/San Sebastián (Gipuzkoa)",
      "webPage": "http://www.cicbiomagune.es",
      "publicationDate": "2020-11-02",
      "mainActivity": "Otra actividad",
      "alternativeActivity": "Investigación",
      "codNUTS": "ES212",
      "entities": [
        {
          "id": 782,
          "name": "Asociación Centro de Investigación Cooperativa en Biomateriales-CIC biomaGUNE",
          "orgs": [
            {
              "id": 912261,
              "name": "Director General",
              "_links": {
                "self": {
                  "name": "Director General",
                  "href": "https://api.euskadi.eus/procurements/contracting-authorities/331/entities/782/orgs/912261"
                }
              }
            }
          ],
          "_links": {
            "self": {
              "name": "Asociación Centro de Investigación Cooperativa en Biomateriales-CIC biomaGUNE",
              "href": "https://api.euskadi.eus/procurements/contracting-authorities/331/entities/782"
            }
          }
        }
      ],
      "mainEntityOfPage": "https://www.contratacion.euskadi.eus/webkpe00-kpeperfi/es/contenidos/poder_adjudicador/poder331/es_doc/es_arch_poder331.html",
      "_links": {
        "self": {
          "name": "Asociación Centro de Investigación Cooperativa en Biomateriales-CIC biomaGUNE",
          "href": "https://api.euskadi.eus/procurements/contracting-authorities/331"
        }
      }
    },
    {
      "id": 764,
      "identificationNumber": "V75232843",
      "name": "Junta de Concertación UE AI 124.01 ERREKATXU EIBAR",
      "scope": "GIPUZKOA",
      "address": "-",
      "webPage": "https://www.contratacion.euskadi.eus",
      "publicationDate": "2020-11-02",
      "mainActivity": "Vivienda y servicios comunitarios",
      "codNUTS": "ES212",
      "entities": [
        {
          "id": 1263,
          "name": "Junta de Concertación UE AI 124.01 ERREKATXU EIBAR",
          "orgs": [
            {
              "id": 914286,
              "name": "Asamblea General",
              "_links": {
                "self": {
                  "name": "Asamblea General",
                  "href": "https://api.euskadi.eus/procurements/contracting-authorities/764/entities/1263/orgs/914286"
                }
              }
            }
          ],
          "_links": {
            "self": {
              "name": "Junta de Concertación UE AI 124.01 ERREKATXU EIBAR",
              "href": "https://api.euskadi.eus/procurements/contracting-authorities/764/entities/1263"
            }
          }
        }
      ],
      "mainEntityOfPage": "https://www.contratacion.euskadi.eus/webkpe00-kpeperfi/es/contenidos/poder_adjudicador/poder764/es_doc/es_arch_poder764.html",
      "_links": {
        "self": {
          "name": "Junta de Concertación UE AI 124.01 ERREKATXU EIBAR",
          "href": "https://api.euskadi.eus/procurements/contracting-authorities/764"
        }
      }
    }
  ]
}