{
  "totalItems": 919,
  "totalPages": 92,
  "currentPage": 79,
  "itemsOfPage": 10,
  "items": [
    {
      "id": 300,
      "identificationNumber": "P2002100B",
      "name": "Ayuntamiento de Beasain",
      "scope": "GIPUZKOA",
      "address": "Loinazko San Martin plaza, 1. 20200 Beasain (Gipuzkoa)",
      "webPage": "http://www.beasain.eus",
      "publicationDate": "2019-10-02",
      "mainActivity": "Servicios públicos generales",
      "codNUTS": "ES212",
      "entities": [
        {
          "id": 748,
          "name": "Ayuntamiento de Beasain",
          "orgs": [
            {
              "id": 912203,
              "name": "Junta de Gobierno Local",
              "_links": {
                "self": {
                  "name": "Junta de Gobierno Local",
                  "href": "https://api.euskadi.eus/procurements/contracting-authorities/300/entities/748/orgs/912203"
                }
              }
            },
            {
              "id": 912201,
              "name": "Alcalde",
              "_links": {
                "self": {
                  "name": "Alcalde",
                  "href": "https://api.euskadi.eus/procurements/contracting-authorities/300/entities/748/orgs/912201"
                }
              }
            },
            {
              "id": 912202,
              "name": "Pleno",
              "_links": {
                "self": {
                  "name": "Pleno",
                  "href": "https://api.euskadi.eus/procurements/contracting-authorities/300/entities/748/orgs/912202"
                }
              }
            }
          ],
          "_links": {
            "self": {
              "name": "Ayuntamiento de Beasain",
              "href": "https://api.euskadi.eus/procurements/contracting-authorities/300/entities/748"
            }
          }
        },
        {
          "id": 749,
          "name": "Fundación Pública de Deportes de Beasain",
          "orgs": [
            {
              "id": 912204,
              "name": "Junta Rectora",
              "_links": {
                "self": {
                  "name": "Junta Rectora",
                  "href": "https://api.euskadi.eus/procurements/contracting-authorities/300/entities/749/orgs/912204"
                }
              }
            }
          ],
          "_links": {
            "self": {
              "name": "Fundación Pública de Deportes de Beasain",
              "href": "https://api.euskadi.eus/procurements/contracting-authorities/300/entities/749"
            }
          }
        }
      ],
      "mainEntityOfPage": "https://www.contratacion.euskadi.eus/webkpe00-kpeperfi/es/contenidos/poder_adjudicador/poder300/es_doc/es_arch_poder300.html",
      "_links": {
        "self": {
          "name": "Ayuntamiento de Beasain",
          "href": "https://api.euskadi.eus/procurements/contracting-authorities/300"
        }
      }
    },
    {
      "id": 318,
      "identificationNumber": "P2009400I",
      "name": "Ayuntamiento de Astigarraga",
      "scope": "GIPUZKOA",
      "address": "Foru Enparantza, 13. 20115 Astigarraga (Gipuzkoa)",
      "webPage": "http://www.astigarraga.eus",
      "publicationDate": "2019-10-02",
      "mainActivity": "Servicios públicos generales",
      "codNUTS": "ES212",
      "entities": [
        {
          "id": 767,
          "name": "Ayuntamiento de Astigarraga",
          "orgs": [
            {
              "id": 912239,
              "name": "Junta de Gobierno Local",
              "_links": {
                "self": {
                  "name": "Junta de Gobierno Local",
                  "href": "https://api.euskadi.eus/procurements/contracting-authorities/318/entities/767/orgs/912239"
                }
              }
            },
            {
              "id": 912237,
              "name": "Alcalde o Alcaldesa / Concejal delegad@",
              "_links": {
                "self": {
                  "name": "Alcalde o Alcaldesa / Concejal delegad@",
                  "href": "https://api.euskadi.eus/procurements/contracting-authorities/318/entities/767/orgs/912237"
                }
              }
            },
            {
              "id": 912238,
              "name": "Pleno",
              "_links": {
                "self": {
                  "name": "Pleno",
                  "href": "https://api.euskadi.eus/procurements/contracting-authorities/318/entities/767/orgs/912238"
                }
              }
            }
          ],
          "_links": {
            "self": {
              "name": "Ayuntamiento de Astigarraga",
              "href": "https://api.euskadi.eus/procurements/contracting-authorities/318/entities/767"
            }
          }
        },
        {
          "id": 1100,
          "name": "Astigarraga Lantzen S.A. ",
          "orgs": [
            {
              "id": 912830,
              "name": "Consejo de Administración ",
              "_links": {
                "self": {
                  "name": "Consejo de Administración ",
                  "href": "https://api.euskadi.eus/procurements/contracting-authorities/318/entities/1100/orgs/912830"
                }
              }
            },
            {
              "id": 912831,
              "name": "Junta General",
              "_links": {
                "self": {
                  "name": "Junta General",
                  "href": "https://api.euskadi.eus/procurements/contracting-authorities/318/entities/1100/orgs/912831"
                }
              }
            },
            {
              "id": 912829,
              "name": "Presidente",
              "_links": {
                "self": {
                  "name": "Presidente",
                  "href": "https://api.euskadi.eus/procurements/contracting-authorities/318/entities/1100/orgs/912829"
                }
              }
            }
          ],
          "_links": {
            "self": {
              "name": "Astigarraga Lantzen S.A. ",
              "href": "https://api.euskadi.eus/procurements/contracting-authorities/318/entities/1100"
            }
          }
        }
      ],
      "mainEntityOfPage": "https://www.contratacion.euskadi.eus/webkpe00-kpeperfi/es/contenidos/poder_adjudicador/poder318/es_doc/es_arch_poder318.html",
      "_links": {
        "self": {
          "name": "Ayuntamiento de Astigarraga",
          "href": "https://api.euskadi.eus/procurements/contracting-authorities/318"
        }
      }
    },
    {
      "id": 330,
      "identificationNumber": "G20988929",
      "name": "Basque Center on Cognition Brain and Language",
      "scope": "GIPUZKOA",
      "address": "Paseo Mikeletegi, 69. 20009 Donostia/San Sebastián (Gipuzkoa)",
      "webPage": "http://www.bcbl.eu",
      "publicationDate": "2019-10-02",
      "mainActivity": "Otra actividad",
      "alternativeActivity": "Investigación",
      "codNUTS": "ES212",
      "entities": [
        {
          "id": 781,
          "name": "Basque Center on Cognition Brain and Language",
          "orgs": [
            {
              "id": 912260,
              "name": "Junta Directiva ",
              "_links": {
                "self": {
                  "name": "Junta Directiva ",
                  "href": "https://api.euskadi.eus/procurements/contracting-authorities/330/entities/781/orgs/912260"
                }
              }
            }
          ],
          "_links": {
            "self": {
              "name": "Basque Center on Cognition Brain and Language",
              "href": "https://api.euskadi.eus/procurements/contracting-authorities/330/entities/781"
            }
          }
        }
      ],
      "mainEntityOfPage": "https://www.contratacion.euskadi.eus/webkpe00-kpeperfi/es/contenidos/poder_adjudicador/poder330/es_doc/es_arch_poder330.html",
      "_links": {
        "self": {
          "name": "Basque Center on Cognition Brain and Language",
          "href": "https://api.euskadi.eus/procurements/contracting-authorities/330"
        }
      }
    },
    {
      "id": 348,
      "identificationNumber": "S0100002E",
      "name": "Agencia de Calidad del Sistema Universitario Vasco",
      "scope": "ARABA/ÁLAVA",
      "address": "San Prudencio, 8 Bajo. 01005 Vitoria-Gasteiz (Araba/Álava) ",
      "webPage": "https://www.unibasq.eus",
      "publicationDate": "2019-10-02",
      "mainActivity": "Educación",
      "codNUTS": "ES211",
      "entities": [
        {
          "id": 800,
          "name": "Agencia de Calidad del Sistema Universitario Vasco",
          "orgs": [
            {
              "id": 912297,
              "name": "Director/a",
              "_links": {
                "self": {
                  "name": "Director/a",
                  "href": "https://api.euskadi.eus/procurements/contracting-authorities/348/entities/800/orgs/912297"
                }
              }
            }
          ],
          "_links": {
            "self": {
              "name": "Agencia de Calidad del Sistema Universitario Vasco",
              "href": "https://api.euskadi.eus/procurements/contracting-authorities/348/entities/800"
            }
          }
        }
      ],
      "mainEntityOfPage": "https://www.contratacion.euskadi.eus/webkpe00-kpeperfi/es/contenidos/poder_adjudicador/poder348/es_doc/es_arch_poder348.html",
      "_links": {
        "self": {
          "name": "Agencia de Calidad del Sistema Universitario Vasco",
          "href": "https://api.euskadi.eus/procurements/contracting-authorities/348"
        }
      }
    },
    {
      "id": 397,
      "identificationNumber": "S5100022B",
      "name": "ARARTEKO Defensoría del Pueblo del País Vasco",
      "scope": "CAPV",
      "address": "Prado, 9. 01005 Vitoria-Gasteiz (Araba/Álava)",
      "webPage": "http://www.ararteko.eus",
      "publicationDate": "2019-10-02",
      "mainActivity": "Otra actividad",
      "alternativeActivity": "Parlamento",
      "codNUTS": "ES21",
      "entities": [
        {
          "id": 848,
          "name": "ARARTEKO - Defensoría del Pueblo del Páis Vasco",
          "orgs": [
            {
              "id": 912398,
              "name": "Ararteko",
              "_links": {
                "self": {
                  "name": "Ararteko",
                  "href": "https://api.euskadi.eus/procurements/contracting-authorities/397/entities/848/orgs/912398"
                }
              }
            },
            {
              "id": 26663,
              "name": "Dirección de Relaciones Sociales, Estudios y Modernización",
              "_links": {
                "self": {
                  "name": "Dirección de Relaciones Sociales, Estudios y Modernización",
                  "href": "https://api.euskadi.eus/procurements/contracting-authorities/397/entities/848/orgs/26663"
                }
              }
            },
            {
              "id": 26664,
              "name": "Oficina de la Infancia y la Adolescencia",
              "_links": {
                "self": {
                  "name": "Oficina de la Infancia y la Adolescencia",
                  "href": "https://api.euskadi.eus/procurements/contracting-authorities/397/entities/848/orgs/26664"
                }
              }
            },
            {
              "id": 26665,
              "name": "Oficina de Asuntos Europeos e Internacionales",
              "_links": {
                "self": {
                  "name": "Oficina de Asuntos Europeos e Internacionales",
                  "href": "https://api.euskadi.eus/procurements/contracting-authorities/397/entities/848/orgs/26665"
                }
              }
            },
            {
              "id": 26661,
              "name": "Secretaría General",
              "_links": {
                "self": {
                  "name": "Secretaría General",
                  "href": "https://api.euskadi.eus/procurements/contracting-authorities/397/entities/848/orgs/26661"
                }
              }
            },
            {
              "id": 26662,
              "name": "Dirección de Gestión Presupuestaria y Económica, y de Administración, Personal y Mantenimiento",
              "_links": {
                "self": {
                  "name": "Dirección de Gestión Presupuestaria y Económica, y de Administración, Personal y Mantenimiento",
                  "href": "https://api.euskadi.eus/procurements/contracting-authorities/397/entities/848/orgs/26662"
                }
              }
            }
          ],
          "_links": {
            "self": {
              "name": "ARARTEKO - Defensoría del Pueblo del Páis Vasco",
              "href": "https://api.euskadi.eus/procurements/contracting-authorities/397/entities/848"
            }
          }
        }
      ],
      "mainEntityOfPage": "https://www.contratacion.euskadi.eus/webkpe00-kpeperfi/es/contenidos/poder_adjudicador/poder397/es_doc/es_arch_poder397.html",
      "_links": {
        "self": {
          "name": "ARARTEKO Defensoría del Pueblo del País Vasco",
          "href": "https://api.euskadi.eus/procurements/contracting-authorities/397"
        }
      }
    },
    {
      "id": 406,
      "identificationNumber": "G95646014",
      "name": "Asociación Centro de Excelencia Internacional en Investigación sobre Cronicidad Kronikgune",
      "scope": "CAPV",
      "address": "Ronda de Azkue, 1. Torre del BEC. 48902 Barakaldo (Bizkaia)",
      "webPage": "http://www.kronikgune.org",
      "publicationDate": "2019-10-02",
      "mainActivity": "Otra actividad",
      "alternativeActivity": "Investigación",
      "codNUTS": "ES21",
      "entities": [
        {
          "id": 857,
          "name": "Asociación Kronikgune",
          "orgs": [
            {
              "id": 912418,
              "name": "Director",
              "_links": {
                "self": {
                  "name": "Director",
                  "href": "https://api.euskadi.eus/procurements/contracting-authorities/406/entities/857/orgs/912418"
                }
              }
            }
          ],
          "_links": {
            "self": {
              "name": "Asociación Kronikgune",
              "href": "https://api.euskadi.eus/procurements/contracting-authorities/406/entities/857"
            }
          }
        }
      ],
      "mainEntityOfPage": "https://www.contratacion.euskadi.eus/webkpe00-kpeperfi/es/contenidos/poder_adjudicador/poder406/es_doc/es_arch_poder406.html",
      "_links": {
        "self": {
          "name": "Asociación Centro de Excelencia Internacional en Investigación sobre Cronicidad Kronikgune",
          "href": "https://api.euskadi.eus/procurements/contracting-authorities/406"
        }
      }
    },
    {
      "id": 520,
      "identificationNumber": "B01497932",
      "name": "Abastos Gestión, S.L.U.",
      "scope": "CAPV",
      "address": "Paduleta, 55 oficina 205. 01015 Vitoria- Gazteiz (Araba/Álava)  ",
      "webPage": "http://www.baika.es",
      "publicationDate": "2019-10-02",
      "mainActivity": "Servicios públicos generales",
      "codNUTS": "ES21",
      "entities": [
        {
          "id": 970,
          "name": "Abastos Gestión, S.L.U.",
          "orgs": [
            {
              "id": 912607,
              "name": "Administrador Único",
              "_links": {
                "self": {
                  "name": "Administrador Único",
                  "href": "https://api.euskadi.eus/procurements/contracting-authorities/520/entities/970/orgs/912607"
                }
              }
            }
          ],
          "_links": {
            "self": {
              "name": "Abastos Gestión, S.L.U.",
              "href": "https://api.euskadi.eus/procurements/contracting-authorities/520/entities/970"
            }
          }
        }
      ],
      "mainEntityOfPage": "https://www.contratacion.euskadi.eus/webkpe00-kpeperfi/es/contenidos/poder_adjudicador/poder520/es_doc/es_arch_poder520.html",
      "_links": {
        "self": {
          "name": "Abastos Gestión, S.L.U.",
          "href": "https://api.euskadi.eus/procurements/contracting-authorities/520"
        }
      }
    },
    {
      "id": 568,
      "identificationNumber": "G75125823",
      "name": "Asociación para la integración y validación de subsistemas eólicos mediante ensayos avanzados.",
      "scope": "CAPV",
      "address": "S. Vicente,8. Edificio Albia II,4ª.DptoB.Dcha. 48001 Bilbao (Bizkaia)",
      "webPage": "http://www.clusterenergia.com/windbox",
      "publicationDate": "2019-10-02",
      "mainActivity": "Servicios públicos generales",
      "codNUTS": "ES21",
      "entities": [
        {
          "id": 1018,
          "name": "WINDBOX",
          "orgs": [
            {
              "id": 912693,
              "name": "Junta Directiva",
              "_links": {
                "self": {
                  "name": "Junta Directiva",
                  "href": "https://api.euskadi.eus/procurements/contracting-authorities/568/entities/1018/orgs/912693"
                }
              }
            }
          ],
          "_links": {
            "self": {
              "name": "WINDBOX",
              "href": "https://api.euskadi.eus/procurements/contracting-authorities/568/entities/1018"
            }
          }
        }
      ],
      "mainEntityOfPage": "https://www.contratacion.euskadi.eus/webkpe00-kpeperfi/es/contenidos/poder_adjudicador/poder568/es_doc/es_arch_poder568.html",
      "_links": {
        "self": {
          "name": "Asociación para la integración y validación de subsistemas eólicos mediante ensayos avanzados.",
          "href": "https://api.euskadi.eus/procurements/contracting-authorities/568"
        }
      }
    },
    {
      "id": 590,
      "identificationNumber": "G01247915",
      "name": "Fundación Joven Orquesta de Euskal Herria",
      "scope": "ARABA/ÁLAVA",
      "address": "Donostia, 1. 01010 Vitoria-Gasteiz (Araba/Álava)",
      "webPage": "http://www.egofundazioa.org",
      "publicationDate": "2019-10-02",
      "mainActivity": "Ocio, cultura y religión",
      "codNUTS": "ES211",
      "entities": [
        {
          "id": 1040,
          "name": "Fundación Joven Orquesta de Euskal Herria",
          "orgs": [
            {
              "id": 912735,
              "name": "Director",
              "_links": {
                "self": {
                  "name": "Director",
                  "href": "https://api.euskadi.eus/procurements/contracting-authorities/590/entities/1040/orgs/912735"
                }
              }
            }
          ],
          "_links": {
            "self": {
              "name": "Fundación Joven Orquesta de Euskal Herria",
              "href": "https://api.euskadi.eus/procurements/contracting-authorities/590/entities/1040"
            }
          }
        }
      ],
      "mainEntityOfPage": "https://www.contratacion.euskadi.eus/webkpe00-kpeperfi/es/contenidos/poder_adjudicador/poder590/es_doc/es_arch_poder590.html",
      "_links": {
        "self": {
          "name": "Fundación Joven Orquesta de Euskal Herria",
          "href": "https://api.euskadi.eus/procurements/contracting-authorities/590"
        }
      }
    },
    {
      "id": 612,
      "identificationNumber": "P2001100C",
      "name": "Ayuntamiento de Anoeta",
      "scope": "GIPUZKOA",
      "address": "Herriko plaza, z/g. 20270 Anoeta (Gipuzkoa)",
      "webPage": "http://www.anoeta.eus",
      "publicationDate": "2019-10-02",
      "mainActivity": "Servicios públicos generales",
      "codNUTS": "ES212",
      "entities": [
        {
          "id": 1063,
          "name": "Ayuntamiento de Anoeta",
          "orgs": [
            {
              "id": 912784,
              "name": "Pleno",
              "_links": {
                "self": {
                  "name": "Pleno",
                  "href": "https://api.euskadi.eus/procurements/contracting-authorities/612/entities/1063/orgs/912784"
                }
              }
            },
            {
              "id": 912783,
              "name": "Alcaldia",
              "_links": {
                "self": {
                  "name": "Alcaldia",
                  "href": "https://api.euskadi.eus/procurements/contracting-authorities/612/entities/1063/orgs/912783"
                }
              }
            }
          ],
          "_links": {
            "self": {
              "name": "Ayuntamiento de Anoeta",
              "href": "https://api.euskadi.eus/procurements/contracting-authorities/612/entities/1063"
            }
          }
        }
      ],
      "mainEntityOfPage": "https://www.contratacion.euskadi.eus/webkpe00-kpeperfi/es/contenidos/poder_adjudicador/poder612/es_doc/es_arch_poder612.html",
      "_links": {
        "self": {
          "name": "Ayuntamiento de Anoeta",
          "href": "https://api.euskadi.eus/procurements/contracting-authorities/612"
        }
      }
    }
  ]
}