{
  "totalItems": 919,
  "totalPages": 92,
  "currentPage": 30,
  "itemsOfPage": 10,
  "items": [
    {
      "id": 795,
      "identificationNumber": "G01321124",
      "name": "Fundación Kaleidos.Red",
      "scope": "ARABA/ÁLAVA",
      "address": "Fray Zacarías Martínez, 3 - 01001 Vitoria-Gasteiz",
      "webPage": "https://www.kaleidosred.org",
      "publicationDate": "2021-04-20",
      "mainActivity": "Servicios públicos generales",
      "codNUTS": "ES211",
      "entities": [
        {
          "id": 1295,
          "name": "Fundación Kaleidos.Red",
          "orgs": [
            {
              "id": 914341,
              "name": "Patronato Fundación Kaleidos.Red",
              "_links": {
                "self": {
                  "name": "Patronato Fundación Kaleidos.Red",
                  "href": "https://api.euskadi.eus/procurements/contracting-authorities/795/entities/1295/orgs/914341"
                }
              }
            }
          ],
          "_links": {
            "self": {
              "name": "Fundación Kaleidos.Red",
              "href": "https://api.euskadi.eus/procurements/contracting-authorities/795/entities/1295"
            }
          }
        }
      ],
      "mainEntityOfPage": "https://www.contratacion.euskadi.eus/webkpe00-kpeperfi/es/contenidos/poder_adjudicador/poder795/es_doc/es_arch_poder795.html",
      "_links": {
        "self": {
          "name": "Fundación Kaleidos.Red",
          "href": "https://api.euskadi.eus/procurements/contracting-authorities/795"
        }
      }
    },
    {
      "id": 796,
      "identificationNumber": "G48233944",
      "name": "Asociación de Desarrollo Rural Urkiola",
      "scope": "BIZKAIA",
      "address": "Margarita Maturana, 7 - 48240 Berriz",
      "webPage": "https://urkiolalandagarapena.eus/",
      "publicationDate": "2021-04-20",
      "mainActivity": "Otra actividad",
      "alternativeActivity": "Promoción empresarial",
      "codNUTS": "ES213",
      "entities": [
        {
          "id": 1296,
          "name": "Asociación de Desarrollo Rural Urkiola",
          "orgs": [
            {
              "id": 914342,
              "name": "Junta Directiva",
              "_links": {
                "self": {
                  "name": "Junta Directiva",
                  "href": "https://api.euskadi.eus/procurements/contracting-authorities/796/entities/1296/orgs/914342"
                }
              }
            }
          ],
          "_links": {
            "self": {
              "name": "Asociación de Desarrollo Rural Urkiola",
              "href": "https://api.euskadi.eus/procurements/contracting-authorities/796/entities/1296"
            }
          }
        }
      ],
      "mainEntityOfPage": "https://www.contratacion.euskadi.eus/webkpe00-kpeperfi/es/contenidos/poder_adjudicador/poder796/es_doc/es_arch_poder796.html",
      "_links": {
        "self": {
          "name": "Asociación de Desarrollo Rural Urkiola",
          "href": "https://api.euskadi.eus/procurements/contracting-authorities/796"
        }
      }
    },
    {
      "id": 797,
      "identificationNumber": "G87291621",
      "name": "Asociación Red Innpulso-Red de Ciudades de la Ciencia y la Innovación",
      "scope": "BIZKAIA",
      "address": "Marqués de Valdespina, 1 - 48260 Ermua",
      "webPage": "https://www.redinnpulso.net",
      "publicationDate": "2021-04-20",
      "mainActivity": "Otra actividad",
      "alternativeActivity": "Ciencia e innovación",
      "codNUTS": "ES213",
      "entities": [
        {
          "id": 1297,
          "name": "Asociación Red Innpulso-Red de Ciudades de la Ciencia y la Innovación",
          "orgs": [
            {
              "id": 914343,
              "name": "Consejo Rector",
              "_links": {
                "self": {
                  "name": "Consejo Rector",
                  "href": "https://api.euskadi.eus/procurements/contracting-authorities/797/entities/1297/orgs/914343"
                }
              }
            }
          ],
          "_links": {
            "self": {
              "name": "Asociación Red Innpulso-Red de Ciudades de la Ciencia y la Innovación",
              "href": "https://api.euskadi.eus/procurements/contracting-authorities/797/entities/1297"
            }
          }
        }
      ],
      "mainEntityOfPage": "https://www.contratacion.euskadi.eus/webkpe00-kpeperfi/es/contenidos/poder_adjudicador/poder797/es_doc/es_arch_poder797.html",
      "_links": {
        "self": {
          "name": "Asociación Red Innpulso-Red de Ciudades de la Ciencia y la Innovación",
          "href": "https://api.euskadi.eus/procurements/contracting-authorities/797"
        }
      }
    },
    {
      "id": 219,
      "identificationNumber": "P4809700J",
      "name": "Ayuntamiento de Sestao",
      "scope": "BIZKAIA",
      "address": "Plaza del Kasko, s/n. 48910 Sestao (Bizkaia)",
      "webPage": "http://www.sestao.eus",
      "publicationDate": "2021-04-08",
      "mainActivity": "Servicios públicos generales",
      "codNUTS": "ES213",
      "entities": [
        {
          "id": 666,
          "name": "Ayuntamiento de Sestao",
          "orgs": [
            {
              "id": 912050,
              "name": "Alcalde",
              "_links": {
                "self": {
                  "name": "Alcalde",
                  "href": "https://api.euskadi.eus/procurements/contracting-authorities/219/entities/666/orgs/912050"
                }
              }
            },
            {
              "id": 914337,
              "name": "Pleno",
              "_links": {
                "self": {
                  "name": "Pleno",
                  "href": "https://api.euskadi.eus/procurements/contracting-authorities/219/entities/666/orgs/914337"
                }
              }
            },
            {
              "id": 914338,
              "name": "Junta de Gobierno Local",
              "_links": {
                "self": {
                  "name": "Junta de Gobierno Local",
                  "href": "https://api.euskadi.eus/procurements/contracting-authorities/219/entities/666/orgs/914338"
                }
              }
            }
          ],
          "_links": {
            "self": {
              "name": "Ayuntamiento de Sestao",
              "href": "https://api.euskadi.eus/procurements/contracting-authorities/219/entities/666"
            }
          }
        }
      ],
      "mainEntityOfPage": "https://www.contratacion.euskadi.eus/webkpe00-kpeperfi/es/contenidos/poder_adjudicador/poder219/es_doc/es_arch_poder219.html",
      "_links": {
        "self": {
          "name": "Ayuntamiento de Sestao",
          "href": "https://api.euskadi.eus/procurements/contracting-authorities/219"
        }
      }
    },
    {
      "id": 794,
      "identificationNumber": "V75229443",
      "name": "Junta de Concertación \"Porcelanas Bidasoa\"",
      "scope": "GIPUZKOA",
      "address": "635745014",
      "webPage": "https://www.contratacion.euskadi.eus",
      "publicationDate": "2021-03-29",
      "mainActivity": "Vivienda y servicios comunitarios",
      "codNUTS": "ES212",
      "entities": [
        {
          "id": 1294,
          "name": "Junta de Concertación de la Unidad de Ejecución \"1.3.01 Porcelanas Bidasoa de Irun",
          "orgs": [
            {
              "id": 914336,
              "name": "Junta de Concertación de la Unidad de Ejecución \"1.3.01 Porcelanas Bidasoa de Irun",
              "_links": {
                "self": {
                  "name": "Junta de Concertación de la Unidad de Ejecución \"1.3.01 Porcelanas Bidasoa de Irun",
                  "href": "https://api.euskadi.eus/procurements/contracting-authorities/794/entities/1294/orgs/914336"
                }
              }
            }
          ],
          "_links": {
            "self": {
              "name": "Junta de Concertación de la Unidad de Ejecución \"1.3.01 Porcelanas Bidasoa de Irun",
              "href": "https://api.euskadi.eus/procurements/contracting-authorities/794/entities/1294"
            }
          }
        }
      ],
      "mainEntityOfPage": "https://www.contratacion.euskadi.eus/webkpe00-kpeperfi/es/contenidos/poder_adjudicador/poder794/es_doc/es_arch_poder794.html",
      "_links": {
        "self": {
          "name": "Junta de Concertación \"Porcelanas Bidasoa\"",
          "href": "https://api.euskadi.eus/procurements/contracting-authorities/794"
        }
      }
    },
    {
      "id": 793,
      "identificationNumber": "G01321413",
      "name": "Comunidad de Las Rasas",
      "scope": "ARABA/ÁLAVA",
      "address": "Pza Fray Jacinto Martinez, 2 - Peñacerrada",
      "webPage": "https://www.penacerrada-urizaharra.eus",
      "publicationDate": "2021-03-25",
      "mainActivity": "Otra actividad",
      "alternativeActivity": "Administración y uso sostenible de los montes",
      "codNUTS": "ES211",
      "entities": [
        {
          "id": 1293,
          "name": "Comunidad de Montes Las Rasas de Laño, Pipaón y Peñacerrada",
          "orgs": [
            {
              "id": 914335,
              "name": "Junta de la Comunidad",
              "_links": {
                "self": {
                  "name": "Junta de la Comunidad",
                  "href": "https://api.euskadi.eus/procurements/contracting-authorities/793/entities/1293/orgs/914335"
                }
              }
            }
          ],
          "_links": {
            "self": {
              "name": "Comunidad de Montes Las Rasas de Laño, Pipaón y Peñacerrada",
              "href": "https://api.euskadi.eus/procurements/contracting-authorities/793/entities/1293"
            }
          }
        }
      ],
      "mainEntityOfPage": "https://www.contratacion.euskadi.eus/webkpe00-kpeperfi/es/contenidos/poder_adjudicador/poder793/es_doc/es_arch_poder793.html",
      "_links": {
        "self": {
          "name": "Comunidad de Las Rasas",
          "href": "https://api.euskadi.eus/procurements/contracting-authorities/793"
        }
      }
    },
    {
      "id": 792,
      "identificationNumber": "P0100205D",
      "name": "Consierra de Arcena",
      "scope": "ARABA/ÁLAVA",
      "address": "C/Iorrabido, 10 - Valdegovia",
      "webPage": "https://www.contratacion.euskadi.eus",
      "publicationDate": "2021-03-24",
      "mainActivity": "Medio ambiente",
      "codNUTS": "ES211",
      "entities": [
        {
          "id": 1292,
          "name": "Consierra de Arcena",
          "orgs": [
            {
              "id": 914334,
              "name": "Consierra de Arcena",
              "_links": {
                "self": {
                  "name": "Consierra de Arcena",
                  "href": "https://api.euskadi.eus/procurements/contracting-authorities/792/entities/1292/orgs/914334"
                }
              }
            }
          ],
          "_links": {
            "self": {
              "name": "Consierra de Arcena",
              "href": "https://api.euskadi.eus/procurements/contracting-authorities/792/entities/1292"
            }
          }
        }
      ],
      "mainEntityOfPage": "https://www.contratacion.euskadi.eus/webkpe00-kpeperfi/es/contenidos/poder_adjudicador/poder792/es_doc/es_arch_poder792.html",
      "_links": {
        "self": {
          "name": "Consierra de Arcena",
          "href": "https://api.euskadi.eus/procurements/contracting-authorities/792"
        }
      }
    },
    {
      "id": 73,
      "identificationNumber": "G01413459",
      "name": "Fundación Ikerbasque",
      "scope": "CAPV",
      "address": "Plaza Euskadi, 5 . 48009 Bilbao (Bizkaia)",
      "webPage": "http://www.ikerbasque.net",
      "publicationDate": "2021-03-15",
      "mainActivity": "Otra actividad",
      "alternativeActivity": "Investigación",
      "codNUTS": "ES21",
      "entities": [
        {
          "id": 418,
          "name": "Fundación Ikerbasque",
          "orgs": [
            {
              "id": 911408,
              "name": "Comisión ejecutiva",
              "_links": {
                "self": {
                  "name": "Comisión ejecutiva",
                  "href": "https://api.euskadi.eus/procurements/contracting-authorities/73/entities/418/orgs/911408"
                }
              }
            },
            {
              "id": 911400,
              "name": "Gerencia",
              "_links": {
                "self": {
                  "name": "Gerencia",
                  "href": "https://api.euskadi.eus/procurements/contracting-authorities/73/entities/418/orgs/911400"
                }
              }
            }
          ],
          "_links": {
            "self": {
              "name": "Fundación Ikerbasque",
              "href": "https://api.euskadi.eus/procurements/contracting-authorities/73/entities/418"
            }
          }
        }
      ],
      "mainEntityOfPage": "https://www.contratacion.euskadi.eus/webkpe00-kpeperfi/es/contenidos/poder_adjudicador/poder73/es_doc/es_arch_poder73.html",
      "_links": {
        "self": {
          "name": "Fundación Ikerbasque",
          "href": "https://api.euskadi.eus/procurements/contracting-authorities/73"
        }
      }
    },
    {
      "id": 205,
      "identificationNumber": "Q2000587B",
      "name": "Kabia (Organismo Autónomo de la Diputación Foral De Gipuzkoa)",
      "scope": "GIPUZKOA",
      "address": "Miramon Pasealekua, 166 - 20014 DONOSTIA",
      "webPage": "http://www.kabia.eus",
      "publicationDate": "2021-03-10",
      "mainActivity": "Protección social",
      "codNUTS": "ES212",
      "entities": [
        {
          "id": 635,
          "name": "Kabia",
          "orgs": [
            {
              "id": 27102,
              "name": "Vicepresidencia",
              "_links": {
                "self": {
                  "name": "Vicepresidencia",
                  "href": "https://api.euskadi.eus/procurements/contracting-authorities/205/entities/635/orgs/27102"
                }
              }
            },
            {
              "id": 911975,
              "name": "Gerencia",
              "_links": {
                "self": {
                  "name": "Gerencia",
                  "href": "https://api.euskadi.eus/procurements/contracting-authorities/205/entities/635/orgs/911975"
                }
              }
            },
            {
              "id": 911973,
              "name": "Junta de Gobierno",
              "_links": {
                "self": {
                  "name": "Junta de Gobierno",
                  "href": "https://api.euskadi.eus/procurements/contracting-authorities/205/entities/635/orgs/911973"
                }
              }
            },
            {
              "id": 911974,
              "name": "Presidencia",
              "_links": {
                "self": {
                  "name": "Presidencia",
                  "href": "https://api.euskadi.eus/procurements/contracting-authorities/205/entities/635/orgs/911974"
                }
              }
            },
            {
              "id": 27102,
              "name": "Lehendakariordea",
              "_links": {
                "self": {
                  "name": "Lehendakariordea",
                  "href": "https://api.euskadi.eus/procurements/contracting-authorities/205/entities/635/orgs/27102"
                }
              }
            },
            {
              "id": 911975,
              "name": "Gerencia",
              "_links": {
                "self": {
                  "name": "Gerencia",
                  "href": "https://api.euskadi.eus/procurements/contracting-authorities/205/entities/635/orgs/911975"
                }
              }
            },
            {
              "id": 911973,
              "name": "Junta de Gobierno",
              "_links": {
                "self": {
                  "name": "Junta de Gobierno",
                  "href": "https://api.euskadi.eus/procurements/contracting-authorities/205/entities/635/orgs/911973"
                }
              }
            },
            {
              "id": 911974,
              "name": "Presidenta",
              "_links": {
                "self": {
                  "name": "Presidenta",
                  "href": "https://api.euskadi.eus/procurements/contracting-authorities/205/entities/635/orgs/911974"
                }
              }
            }
          ],
          "_links": {
            "self": {
              "name": "Kabia",
              "href": "https://api.euskadi.eus/procurements/contracting-authorities/205/entities/635"
            }
          }
        }
      ],
      "mainEntityOfPage": "https://www.contratacion.euskadi.eus/webkpe00-kpeperfi/es/contenidos/poder_adjudicador/poder205/es_doc/es_arch_poder205.html",
      "_links": {
        "self": {
          "name": "Kabia (Organismo Autónomo de la Diputación Foral De Gipuzkoa)",
          "href": "https://api.euskadi.eus/procurements/contracting-authorities/205"
        }
      }
    },
    {
      "id": 340,
      "identificationNumber": "A20538039",
      "name": "AGASA",
      "scope": "GIPUZKOA",
      "address": "Errotaburu pasealekua, 1-6. solairua. 20018 Donostia/San Sebastián (Gipuzkoa)",
      "webPage": "http://www.agasa.eus",
      "publicationDate": "2021-03-10",
      "mainActivity": "Medio ambiente",
      "codNUTS": "ES212",
      "entities": [
        {
          "id": 792,
          "name": "Aguas del Añarbe-Añarbeko Urak, S.A.",
          "orgs": [
            {
              "id": 912283,
              "name": "Presidencia",
              "_links": {
                "self": {
                  "name": "Presidencia",
                  "href": "https://api.euskadi.eus/procurements/contracting-authorities/340/entities/792/orgs/912283"
                }
              }
            },
            {
              "id": 912282,
              "name": "Director Gerente",
              "_links": {
                "self": {
                  "name": "Director Gerente",
                  "href": "https://api.euskadi.eus/procurements/contracting-authorities/340/entities/792/orgs/912282"
                }
              }
            },
            {
              "id": 912284,
              "name": "Consejo de Administración",
              "_links": {
                "self": {
                  "name": "Consejo de Administración",
                  "href": "https://api.euskadi.eus/procurements/contracting-authorities/340/entities/792/orgs/912284"
                }
              }
            }
          ],
          "_links": {
            "self": {
              "name": "Aguas del Añarbe-Añarbeko Urak, S.A.",
              "href": "https://api.euskadi.eus/procurements/contracting-authorities/340/entities/792"
            }
          }
        }
      ],
      "mainEntityOfPage": "https://www.contratacion.euskadi.eus/webkpe00-kpeperfi/es/contenidos/poder_adjudicador/poder340/es_doc/es_arch_poder340.html",
      "_links": {
        "self": {
          "name": "AGASA",
          "href": "https://api.euskadi.eus/procurements/contracting-authorities/340"
        }
      }
    }
  ]
}