{
  "totalItems": 919,
  "totalPages": 92,
  "currentPage": 74,
  "itemsOfPage": 10,
  "items": [
    {
      "id": 380,
      "identificationNumber": "A20736773",
      "name": "Sociedad Pública de Vivienda de Irun, S.A.U.",
      "scope": "GIPUZKOA",
      "address": "Iglesia, 6 bajo. /20302 Irun (Gipuzkoa)  ",
      "webPage": "http://www.irun.org/irunvi",
      "publicationDate": "2019-10-03",
      "mainActivity": "Vivienda y servicios comunitarios",
      "codNUTS": "ES212",
      "CPV": [
        {
          "name": "Servicios relacionados con viviendas"
        }
      ],
      "entities": [
        {
          "id": 832,
          "name": "Sociedad Pública de Vivienda de Irun, S.A.U.",
          "orgs": [
            {
              "id": 912369,
              "name": "Consejo de Administración ",
              "_links": {
                "self": {
                  "name": "Consejo de Administración ",
                  "href": "https://api.euskadi.eus/procurements/contracting-authorities/380/entities/832/orgs/912369"
                }
              }
            },
            {
              "id": 912368,
              "name": "Directora-Gerente",
              "_links": {
                "self": {
                  "name": "Directora-Gerente",
                  "href": "https://api.euskadi.eus/procurements/contracting-authorities/380/entities/832/orgs/912368"
                }
              }
            }
          ],
          "_links": {
            "self": {
              "name": "Sociedad Pública de Vivienda de Irun, S.A.U.",
              "href": "https://api.euskadi.eus/procurements/contracting-authorities/380/entities/832"
            }
          }
        }
      ],
      "mainEntityOfPage": "https://www.contratacion.euskadi.eus/webkpe00-kpeperfi/es/contenidos/poder_adjudicador/poder380/es_doc/es_arch_poder380.html",
      "_links": {
        "self": {
          "name": "Sociedad Pública de Vivienda de Irun, S.A.U.",
          "href": "https://api.euskadi.eus/procurements/contracting-authorities/380"
        },
        "contractingAuthorities": [
          {
            "name": "Ayuntamiento de Irun ",
            "href": "https://api.euskadi.eus/procurements/contracting-authorities/18397"
          }
        ]
      }
    },
    {
      "id": 403,
      "identificationNumber": "A20421053",
      "name": "Agencia de Desarrollo del Bidasoa, S.A.",
      "scope": "GIPUZKOA",
      "address": "Hendaia, 8. Palacio Ducoureau Jauregia. 20301 Irun (Gipuzkoa)",
      "webPage": "http://www.bidasoa-activa.com",
      "publicationDate": "2019-10-03",
      "mainActivity": "Asuntos económicos y financieros",
      "codNUTS": "ES212",
      "CPV": [
        {
          "name": "Productos de la agricultura, ganadería, pesca, silvicultura y productos afines"
        },
        {
          "name": "Servicios a empresas: legislación, mercadotecnia, asesoría, selección de personal, imprenta y seguridad"
        },
        {
          "name": "Servicios de enseñanza para adultos y otros servicios de enseñanza"
        },
        {
          "name": "Servicios de formación"
        }
      ],
      "entities": [
        {
          "id": 854,
          "name": "Agencia de Desarrollo del Bidasoa, S.A.",
          "orgs": [
            {
              "id": 912411,
              "name": "Consejo de Administración",
              "_links": {
                "self": {
                  "name": "Consejo de Administración",
                  "href": "https://api.euskadi.eus/procurements/contracting-authorities/403/entities/854/orgs/912411"
                }
              }
            },
            {
              "id": 912409,
              "name": "Directora Gerente",
              "_links": {
                "self": {
                  "name": "Directora Gerente",
                  "href": "https://api.euskadi.eus/procurements/contracting-authorities/403/entities/854/orgs/912409"
                }
              }
            },
            {
              "id": 912412,
              "name": "Junta General",
              "_links": {
                "self": {
                  "name": "Junta General",
                  "href": "https://api.euskadi.eus/procurements/contracting-authorities/403/entities/854/orgs/912412"
                }
              }
            },
            {
              "id": 912410,
              "name": "Presidente",
              "_links": {
                "self": {
                  "name": "Presidente",
                  "href": "https://api.euskadi.eus/procurements/contracting-authorities/403/entities/854/orgs/912410"
                }
              }
            }
          ],
          "_links": {
            "self": {
              "name": "Agencia de Desarrollo del Bidasoa, S.A.",
              "href": "https://api.euskadi.eus/procurements/contracting-authorities/403/entities/854"
            }
          }
        }
      ],
      "mainEntityOfPage": "https://www.contratacion.euskadi.eus/webkpe00-kpeperfi/es/contenidos/poder_adjudicador/poder403/es_doc/es_arch_poder403.html",
      "_links": {
        "self": {
          "name": "Agencia de Desarrollo del Bidasoa, S.A.",
          "href": "https://api.euskadi.eus/procurements/contracting-authorities/403"
        },
        "contractingAuthorities": [
          {
            "name": "Ayuntamiento de Hondarribia",
            "href": "https://api.euskadi.eus/procurements/contracting-authorities/17467"
          },
          {
            "name": "Ayuntamiento de Irun ",
            "href": "https://api.euskadi.eus/procurements/contracting-authorities/18397"
          }
        ]
      }
    },
    {
      "id": 413,
      "identificationNumber": "G75064121",
      "name": "Fundación Arma Plaza",
      "scope": "GIPUZKOA",
      "address": "Pampinot ,16. 20280 Hondarribia (Gipuzkoa)",
      "webPage": "http://www.armaplaza.eus",
      "publicationDate": "2019-10-03",
      "mainActivity": "Ocio, cultura y religión",
      "codNUTS": "ES212",
      "entities": [
        {
          "id": 864,
          "name": "Fundación Arma Plaza",
          "orgs": [
            {
              "id": 912430,
              "name": "Patronato",
              "_links": {
                "self": {
                  "name": "Patronato",
                  "href": "https://api.euskadi.eus/procurements/contracting-authorities/413/entities/864/orgs/912430"
                }
              }
            }
          ],
          "_links": {
            "self": {
              "name": "Fundación Arma Plaza",
              "href": "https://api.euskadi.eus/procurements/contracting-authorities/413/entities/864"
            }
          }
        }
      ],
      "mainEntityOfPage": "https://www.contratacion.euskadi.eus/webkpe00-kpeperfi/es/contenidos/poder_adjudicador/poder413/es_doc/es_arch_poder413.html",
      "_links": {
        "self": {
          "name": "Fundación Arma Plaza",
          "href": "https://api.euskadi.eus/procurements/contracting-authorities/413"
        }
      }
    },
    {
      "id": 445,
      "identificationNumber": "B20873410",
      "name": "Majori Kiroldegia S.L",
      "scope": "GIPUZKOA",
      "address": "Gernikako Arbolaren pasealekua, 3. 20240 Ordizia (Gipuzkoa)  ",
      "webPage": "http://www.majori-kiroldegia.com",
      "publicationDate": "2019-10-03",
      "mainActivity": "Ocio, cultura y religión",
      "codNUTS": "ES212",
      "entities": [
        {
          "id": 895,
          "name": "Majori Kiroldegia S.L.",
          "orgs": [
            {
              "id": 912491,
              "name": "Consejo Administración",
              "_links": {
                "self": {
                  "name": "Consejo Administración",
                  "href": "https://api.euskadi.eus/procurements/contracting-authorities/445/entities/895/orgs/912491"
                }
              }
            }
          ],
          "_links": {
            "self": {
              "name": "Majori Kiroldegia S.L.",
              "href": "https://api.euskadi.eus/procurements/contracting-authorities/445/entities/895"
            }
          }
        }
      ],
      "mainEntityOfPage": "https://www.contratacion.euskadi.eus/webkpe00-kpeperfi/es/contenidos/poder_adjudicador/poder445/es_doc/es_arch_poder445.html",
      "_links": {
        "self": {
          "name": "Majori Kiroldegia S.L",
          "href": "https://api.euskadi.eus/procurements/contracting-authorities/445"
        }
      }
    },
    {
      "id": 447,
      "identificationNumber": "A20432365",
      "name": "Kulturnieta, S.A.",
      "scope": "GIPUZKOA",
      "address": "San Juan Plaza, z/g. 20130 Urnieta (Gipuzkoa)  ",
      "webPage": "http://www.urnieta.eus",
      "publicationDate": "2019-10-03",
      "mainActivity": "Ocio, cultura y religión",
      "codNUTS": "ES212",
      "entities": [
        {
          "id": 897,
          "name": "Kulturnieta, S.A.",
          "orgs": [
            {
              "id": 912493,
              "name": "Consejo de Administración",
              "_links": {
                "self": {
                  "name": "Consejo de Administración",
                  "href": "https://api.euskadi.eus/procurements/contracting-authorities/447/entities/897/orgs/912493"
                }
              }
            }
          ],
          "_links": {
            "self": {
              "name": "Kulturnieta, S.A.",
              "href": "https://api.euskadi.eus/procurements/contracting-authorities/447/entities/897"
            }
          }
        }
      ],
      "mainEntityOfPage": "https://www.contratacion.euskadi.eus/webkpe00-kpeperfi/es/contenidos/poder_adjudicador/poder447/es_doc/es_arch_poder447.html",
      "_links": {
        "self": {
          "name": "Kulturnieta, S.A.",
          "href": "https://api.euskadi.eus/procurements/contracting-authorities/447"
        }
      }
    },
    {
      "id": 464,
      "identificationNumber": "G20923629",
      "name": "Ingurugiro Etxea Fundazioa",
      "scope": "GIPUZKOA",
      "address": "Foru Ibilbidea, 18. 20730 Azpeitia (Gipuzkoa)",
      "webPage": "http://www.azpeitia.eus",
      "publicationDate": "2019-10-03",
      "mainActivity": "Medio ambiente",
      "codNUTS": "ES212",
      "entities": [
        {
          "id": 913,
          "name": "Ingurugiro Etxea Fundazioa",
          "orgs": [
            {
              "id": 912517,
              "name": "Presidencia",
              "_links": {
                "self": {
                  "name": "Presidencia",
                  "href": "https://api.euskadi.eus/procurements/contracting-authorities/464/entities/913/orgs/912517"
                }
              }
            }
          ],
          "_links": {
            "self": {
              "name": "Ingurugiro Etxea Fundazioa",
              "href": "https://api.euskadi.eus/procurements/contracting-authorities/464/entities/913"
            }
          }
        }
      ],
      "mainEntityOfPage": "https://www.contratacion.euskadi.eus/webkpe00-kpeperfi/es/contenidos/poder_adjudicador/poder464/es_doc/es_arch_poder464.html",
      "_links": {
        "self": {
          "name": "Ingurugiro Etxea Fundazioa",
          "href": "https://api.euskadi.eus/procurements/contracting-authorities/464"
        }
      }
    },
    {
      "id": 470,
      "identificationNumber": "S2033001E",
      "name": "Juntas Generales de Gipuzkoa",
      "scope": "GIPUZKOA",
      "address": "Paseo Miramon, 164. 2014 Donostia-San Sesbastián (Gipuzkoa)",
      "webPage": "http://www.bngipuzkoa.eus",
      "publicationDate": "2019-10-03",
      "mainActivity": "Otra actividad",
      "alternativeActivity": "Parlamento",
      "codNUTS": "ES212",
      "entities": [
        {
          "id": 919,
          "name": "Juntas Generales de Gipuzkoa",
          "orgs": [
            {
              "id": 912530,
              "name": "Mesa de las Juntas Generales de Gipuzkoa",
              "_links": {
                "self": {
                  "name": "Mesa de las Juntas Generales de Gipuzkoa",
                  "href": "https://api.euskadi.eus/procurements/contracting-authorities/470/entities/919/orgs/912530"
                }
              }
            }
          ],
          "_links": {
            "self": {
              "name": "Juntas Generales de Gipuzkoa",
              "href": "https://api.euskadi.eus/procurements/contracting-authorities/470/entities/919"
            }
          }
        }
      ],
      "mainEntityOfPage": "https://www.contratacion.euskadi.eus/webkpe00-kpeperfi/es/contenidos/poder_adjudicador/poder470/es_doc/es_arch_poder470.html",
      "_links": {
        "self": {
          "name": "Juntas Generales de Gipuzkoa",
          "href": "https://api.euskadi.eus/procurements/contracting-authorities/470"
        }
      }
    },
    {
      "id": 481,
      "identificationNumber": "A20098349",
      "name": "DEBEGESA-Sociedad para el Desarrollo Económico de Debabarrena",
      "scope": "GIPUZKOA",
      "address": "Pol. Ind. Azitain, 3 Bis. 20600 Eibar (Gipuzkoa)",
      "webPage": "http://www.debegesa.eus",
      "publicationDate": "2019-10-03",
      "mainActivity": "Vivienda y servicios comunitarios",
      "codNUTS": "ES212",
      "entities": [
        {
          "id": 929,
          "name": "DEBEGESA-Sociedad para el Desarrollo Económico de Debabarrena",
          "orgs": [
            {
              "id": 912547,
              "name": "Dirección General",
              "_links": {
                "self": {
                  "name": "Dirección General",
                  "href": "https://api.euskadi.eus/procurements/contracting-authorities/481/entities/929/orgs/912547"
                }
              }
            }
          ],
          "_links": {
            "self": {
              "name": "DEBEGESA-Sociedad para el Desarrollo Económico de Debabarrena",
              "href": "https://api.euskadi.eus/procurements/contracting-authorities/481/entities/929"
            }
          }
        }
      ],
      "mainEntityOfPage": "https://www.contratacion.euskadi.eus/webkpe00-kpeperfi/es/contenidos/poder_adjudicador/poder481/es_doc/es_arch_poder481.html",
      "_links": {
        "self": {
          "name": "DEBEGESA-Sociedad para el Desarrollo Económico de Debabarrena",
          "href": "https://api.euskadi.eus/procurements/contracting-authorities/481"
        }
      }
    },
    {
      "id": 497,
      "identificationNumber": "V20973517",
      "name": "Junta de Concertación UE CE.05.1 \"San Bartolomé",
      "scope": "GIPUZKOA",
      "address": "Estella-Lizarra, 11 bajo. 20008 Donostia-San Sebastian (Guipuzkoa)",
      "webPage": "http://www.san-bartolome.com",
      "publicationDate": "2019-10-03",
      "mainActivity": "Vivienda y servicios comunitarios",
      "codNUTS": "ES212",
      "entities": [
        {
          "id": 946,
          "name": "Junta de Concertación UE CE.05.1 \"San Bartolomé\" ",
          "orgs": [
            {
              "id": 912573,
              "name": "Asamblea General",
              "_links": {
                "self": {
                  "name": "Asamblea General",
                  "href": "https://api.euskadi.eus/procurements/contracting-authorities/497/entities/946/orgs/912573"
                }
              }
            }
          ],
          "_links": {
            "self": {
              "name": "Junta de Concertación UE CE.05.1 \"San Bartolomé\" ",
              "href": "https://api.euskadi.eus/procurements/contracting-authorities/497/entities/946"
            }
          }
        }
      ],
      "mainEntityOfPage": "https://www.contratacion.euskadi.eus/webkpe00-kpeperfi/es/contenidos/poder_adjudicador/poder497/es_doc/es_arch_poder497.html",
      "_links": {
        "self": {
          "name": "Junta de Concertación UE CE.05.1 \"San Bartolomé",
          "href": "https://api.euskadi.eus/procurements/contracting-authorities/497"
        }
      }
    },
    {
      "id": 511,
      "identificationNumber": "P2003900D",
      "name": "Ayuntamiento de Gabiria",
      "scope": "GIPUZKOA",
      "address": "Gabiria gunea, 2. 20217 Gabiria (Gipuzkoa)",
      "webPage": "http://www.gabiria.eus",
      "publicationDate": "2019-10-03",
      "mainActivity": "Servicios públicos generales",
      "codNUTS": "ES212",
      "entities": [
        {
          "id": 960,
          "name": "Ayuntamiento de Gabiria",
          "orgs": [
            {
              "id": 912595,
              "name": "Pleno",
              "_links": {
                "self": {
                  "name": "Pleno",
                  "href": "https://api.euskadi.eus/procurements/contracting-authorities/511/entities/960/orgs/912595"
                }
              }
            },
            {
              "id": 912594,
              "name": "Alcalde",
              "_links": {
                "self": {
                  "name": "Alcalde",
                  "href": "https://api.euskadi.eus/procurements/contracting-authorities/511/entities/960/orgs/912594"
                }
              }
            }
          ],
          "_links": {
            "self": {
              "name": "Ayuntamiento de Gabiria",
              "href": "https://api.euskadi.eus/procurements/contracting-authorities/511/entities/960"
            }
          }
        }
      ],
      "mainEntityOfPage": "https://www.contratacion.euskadi.eus/webkpe00-kpeperfi/es/contenidos/poder_adjudicador/poder511/es_doc/es_arch_poder511.html",
      "_links": {
        "self": {
          "name": "Ayuntamiento de Gabiria",
          "href": "https://api.euskadi.eus/procurements/contracting-authorities/511"
        }
      }
    }
  ]
}