{
  "totalItems": 919,
  "totalPages": 92,
  "currentPage": 70,
  "itemsOfPage": 10,
  "items": [
    {
      "id": 654,
      "identificationNumber": "P2002900E",
      "name": "Ayuntamiento de Zizurkil",
      "scope": "GIPUZKOA",
      "address": "Hernandorena kalea, 6. 20159 Zizurkil (Gipuzkoa)",
      "webPage": "http://www.zizurkil.eus",
      "publicationDate": "2019-10-04",
      "mainActivity": "Servicios públicos generales",
      "codNUTS": "ES212",
      "entities": [
        {
          "id": 1104,
          "name": "Ayuntamiento de Zizurkil",
          "orgs": [
            {
              "id": 912839,
              "name": "Alcaldía",
              "_links": {
                "self": {
                  "name": "Alcaldía",
                  "href": "https://api.euskadi.eus/procurements/contracting-authorities/654/entities/1104/orgs/912839"
                }
              }
            },
            {
              "id": 912840,
              "name": "Pleno",
              "_links": {
                "self": {
                  "name": "Pleno",
                  "href": "https://api.euskadi.eus/procurements/contracting-authorities/654/entities/1104/orgs/912840"
                }
              }
            }
          ],
          "_links": {
            "self": {
              "name": "Ayuntamiento de Zizurkil",
              "href": "https://api.euskadi.eus/procurements/contracting-authorities/654/entities/1104"
            }
          }
        }
      ],
      "mainEntityOfPage": "https://www.contratacion.euskadi.eus/webkpe00-kpeperfi/es/contenidos/poder_adjudicador/poder654/es_doc/es_arch_poder654.html",
      "_links": {
        "self": {
          "name": "Ayuntamiento de Zizurkil",
          "href": "https://api.euskadi.eus/procurements/contracting-authorities/654"
        }
      }
    },
    {
      "id": 656,
      "identificationNumber": "A20498457",
      "name": "Agencia de desarrollo comarcal de Urola Garaia, S.A.",
      "scope": "GIPUZKOA",
      "address": "Patrizio Etxeberria, 3 entreplanta. 20230 Legazpi (Gipuzkoa)",
      "webPage": "http://www.uggasa.eus",
      "publicationDate": "2019-10-04",
      "mainActivity": "Otra actividad",
      "alternativeActivity": "Promoción empresarial",
      "codNUTS": "ES212",
      "entities": [
        {
          "id": 1106,
          "name": "Agencia de desarrollo comarcal de Urola Garaia, S.A.",
          "orgs": [
            {
              "id": 912844,
              "name": "Consejo de administración",
              "_links": {
                "self": {
                  "name": "Consejo de administración",
                  "href": "https://api.euskadi.eus/procurements/contracting-authorities/656/entities/1106/orgs/912844"
                }
              }
            },
            {
              "id": 912843,
              "name": "Gerencia",
              "_links": {
                "self": {
                  "name": "Gerencia",
                  "href": "https://api.euskadi.eus/procurements/contracting-authorities/656/entities/1106/orgs/912843"
                }
              }
            }
          ],
          "_links": {
            "self": {
              "name": "Agencia de desarrollo comarcal de Urola Garaia, S.A.",
              "href": "https://api.euskadi.eus/procurements/contracting-authorities/656/entities/1106"
            }
          }
        }
      ],
      "mainEntityOfPage": "https://www.contratacion.euskadi.eus/webkpe00-kpeperfi/es/contenidos/poder_adjudicador/poder656/es_doc/es_arch_poder656.html",
      "_links": {
        "self": {
          "name": "Agencia de desarrollo comarcal de Urola Garaia, S.A.",
          "href": "https://api.euskadi.eus/procurements/contracting-authorities/656"
        }
      }
    },
    {
      "id": 665,
      "identificationNumber": "A20084646",
      "name": "Sociedad promotora de la zona aduanera de Irun, S.A. (ZAISA)",
      "scope": "GIPUZKOA",
      "address": "Plaza de Euskadi, 8&#8211;7º derecha. 20305 Irun (Gipuzkoa) ",
      "webPage": "http://www.zaisa.com",
      "publicationDate": "2019-10-04",
      "mainActivity": "Otra actividad",
      "alternativeActivity": "Transportes",
      "codNUTS": "ES212",
      "entities": [
        {
          "id": 1115,
          "name": "Sociedad promotora de la zona aduanera de Irun, S.A. (ZAISA)",
          "orgs": [
            {
              "id": 912853,
              "name": "Consejo de Administración",
              "_links": {
                "self": {
                  "name": "Consejo de Administración",
                  "href": "https://api.euskadi.eus/procurements/contracting-authorities/665/entities/1115/orgs/912853"
                }
              }
            }
          ],
          "_links": {
            "self": {
              "name": "Sociedad promotora de la zona aduanera de Irun, S.A. (ZAISA)",
              "href": "https://api.euskadi.eus/procurements/contracting-authorities/665/entities/1115"
            }
          }
        }
      ],
      "mainEntityOfPage": "https://www.contratacion.euskadi.eus/webkpe00-kpeperfi/es/contenidos/poder_adjudicador/poder665/es_doc/es_arch_poder665.html",
      "_links": {
        "self": {
          "name": "Sociedad promotora de la zona aduanera de Irun, S.A. (ZAISA)",
          "href": "https://api.euskadi.eus/procurements/contracting-authorities/665"
        }
      }
    },
    {
      "id": 666,
      "identificationNumber": "P0100182E",
      "name": "Junta Administrativa de Angostina",
      "scope": "ARABA/ÁLAVA",
      "address": "Heredia, 4 bajo. Angostina. 01118 Bernedo (Araba/Álava)",
      "webPage": "http://www.contratacion.euskadi.eus",
      "publicationDate": "2019-10-04",
      "mainActivity": "Servicios públicos generales",
      "codNUTS": "ES211",
      "entities": [
        {
          "id": 1116,
          "name": "Junta Administrativa de Angostina ",
          "orgs": [
            {
              "id": 912854,
              "name": "Concejo de Angostina ",
              "_links": {
                "self": {
                  "name": "Concejo de Angostina ",
                  "href": "https://api.euskadi.eus/procurements/contracting-authorities/666/entities/1116/orgs/912854"
                }
              }
            }
          ],
          "_links": {
            "self": {
              "name": "Junta Administrativa de Angostina ",
              "href": "https://api.euskadi.eus/procurements/contracting-authorities/666/entities/1116"
            }
          }
        }
      ],
      "mainEntityOfPage": "https://www.contratacion.euskadi.eus/webkpe00-kpeperfi/es/contenidos/poder_adjudicador/poder666/es_doc/es_arch_poder666.html",
      "_links": {
        "self": {
          "name": "Junta Administrativa de Angostina",
          "href": "https://api.euskadi.eus/procurements/contracting-authorities/666"
        }
      }
    },
    {
      "id": 668,
      "identificationNumber": "V01572072",
      "name": "Junta de Concertación de la Unidad de Ejecución 2 de Murguía, en el municipio Zuia",
      "scope": "ARABA/ÁLAVA",
      "address": "Ramón y Cajal, 3, bajo. 01007 Vitoria-Gasteiz (Araba/Álava)",
      "webPage": "http://www.contratacion.euskadi.eus",
      "publicationDate": "2019-10-04",
      "mainActivity": "Vivienda y servicios comunitarios",
      "codNUTS": "ES211",
      "entities": [
        {
          "id": 1119,
          "name": "Junta de Concertación UE-2 Murguía ",
          "orgs": [
            {
              "id": 912857,
              "name": "Asamblea General ",
              "_links": {
                "self": {
                  "name": "Asamblea General ",
                  "href": "https://api.euskadi.eus/procurements/contracting-authorities/668/entities/1119/orgs/912857"
                }
              }
            }
          ],
          "_links": {
            "self": {
              "name": "Junta de Concertación UE-2 Murguía ",
              "href": "https://api.euskadi.eus/procurements/contracting-authorities/668/entities/1119"
            }
          }
        }
      ],
      "mainEntityOfPage": "https://www.contratacion.euskadi.eus/webkpe00-kpeperfi/es/contenidos/poder_adjudicador/poder668/es_doc/es_arch_poder668.html",
      "_links": {
        "self": {
          "name": "Junta de Concertación de la Unidad de Ejecución 2 de Murguía, en el municipio Zuia",
          "href": "https://api.euskadi.eus/procurements/contracting-authorities/668"
        }
      }
    },
    {
      "id": 684,
      "identificationNumber": "P0102900H",
      "name": "Ayuntamiento de Iruraiz-Gauna",
      "scope": "ARABA/ÁLAVA",
      "address": "Única, 4. 01193 Azilu. Iruraiz-Gauna (Araba/Álava)",
      "webPage": "http://www.iruraiz-gauna.com",
      "publicationDate": "2019-10-04",
      "mainActivity": "Servicios públicos generales",
      "codNUTS": "ES211",
      "entities": [
        {
          "id": 1147,
          "name": "Ayuntamiento de Iruraiz-Gauna",
          "orgs": [
            {
              "id": 913476,
              "name": "Pleno del ayuntamiento",
              "_links": {
                "self": {
                  "name": "Pleno del ayuntamiento",
                  "href": "https://api.euskadi.eus/procurements/contracting-authorities/684/entities/1147/orgs/913476"
                }
              }
            },
            {
              "id": 913475,
              "name": "Alcalde",
              "_links": {
                "self": {
                  "name": "Alcalde",
                  "href": "https://api.euskadi.eus/procurements/contracting-authorities/684/entities/1147/orgs/913475"
                }
              }
            }
          ],
          "_links": {
            "self": {
              "name": "Ayuntamiento de Iruraiz-Gauna",
              "href": "https://api.euskadi.eus/procurements/contracting-authorities/684/entities/1147"
            }
          }
        }
      ],
      "mainEntityOfPage": "https://www.contratacion.euskadi.eus/webkpe00-kpeperfi/es/contenidos/poder_adjudicador/poder684/es_doc/es_arch_poder684.html",
      "_links": {
        "self": {
          "name": "Ayuntamiento de Iruraiz-Gauna",
          "href": "https://api.euskadi.eus/procurements/contracting-authorities/684"
        }
      }
    },
    {
      "id": 686,
      "identificationNumber": "A20166476",
      "name": "Azkoitia Lantzen, S.A.",
      "scope": "GIPUZKOA",
      "address": "Herriko Enparantza, z/g. 20720 Azkoitia (Gipuzkoa)",
      "webPage": "https://azkoitia.eus",
      "publicationDate": "2019-10-04",
      "mainActivity": "Vivienda y servicios comunitarios",
      "codNUTS": "ES212",
      "entities": [
        {
          "id": 1149,
          "name": "Azkoitia Lantzen, S.A.",
          "orgs": [
            {
              "id": 913478,
              "name": "Consejo de Administración",
              "_links": {
                "self": {
                  "name": "Consejo de Administración",
                  "href": "https://api.euskadi.eus/procurements/contracting-authorities/686/entities/1149/orgs/913478"
                }
              }
            }
          ],
          "_links": {
            "self": {
              "name": "Azkoitia Lantzen, S.A.",
              "href": "https://api.euskadi.eus/procurements/contracting-authorities/686/entities/1149"
            }
          }
        }
      ],
      "mainEntityOfPage": "https://www.contratacion.euskadi.eus/webkpe00-kpeperfi/es/contenidos/poder_adjudicador/poder686/es_doc/es_arch_poder686.html",
      "_links": {
        "self": {
          "name": "Azkoitia Lantzen, S.A.",
          "href": "https://api.euskadi.eus/procurements/contracting-authorities/686"
        }
      }
    },
    {
      "id": 6,
      "identificationNumber": "P2003100A",
      "name": "Ayuntamiento de Eibar",
      "scope": "GIPUZKOA",
      "address": "Plaza de Untzaga -1, 20600  Eibar",
      "webPage": "http://www.eibar.es",
      "publicationDate": "2019-10-03",
      "mainActivity": "Servicios públicos generales",
      "codNUTS": "ES212",
      "entities": [
        {
          "id": 179,
          "name": "Ayuntamiento de Eibar",
          "orgs": [
            {
              "id": 910943,
              "name": "Junta de Gobierno del Ayuntamiento de Eibar",
              "_links": {
                "self": {
                  "name": "Junta de Gobierno del Ayuntamiento de Eibar",
                  "href": "https://api.euskadi.eus/procurements/contracting-authorities/6/entities/179/orgs/910943"
                }
              }
            },
            {
              "id": 910942,
              "name": "Alcalde del Ayuntamiento de Eibar",
              "_links": {
                "self": {
                  "name": "Alcalde del Ayuntamiento de Eibar",
                  "href": "https://api.euskadi.eus/procurements/contracting-authorities/6/entities/179/orgs/910942"
                }
              }
            },
            {
              "id": 910944,
              "name": "Pleno del Ayuntamiento de Eibar",
              "_links": {
                "self": {
                  "name": "Pleno del Ayuntamiento de Eibar",
                  "href": "https://api.euskadi.eus/procurements/contracting-authorities/6/entities/179/orgs/910944"
                }
              }
            }
          ],
          "_links": {
            "self": {
              "name": "Ayuntamiento de Eibar",
              "href": "https://api.euskadi.eus/procurements/contracting-authorities/6/entities/179"
            }
          }
        },
        {
          "id": 182,
          "name": "Patronato Municipal de instalaciones deportivas de Eibar",
          "orgs": [
            {
              "id": 910946,
              "name": "Consejo Ejecutivo Permanente del Patronato Municipal de Instalaciones Deportivas",
              "_links": {
                "self": {
                  "name": "Consejo Ejecutivo Permanente del Patronato Municipal de Instalaciones Deportivas",
                  "href": "https://api.euskadi.eus/procurements/contracting-authorities/6/entities/182/orgs/910946"
                }
              }
            },
            {
              "id": 910947,
              "name": "Consejo Rector del Patronato Municipal de Instalaciones Deportivas",
              "_links": {
                "self": {
                  "name": "Consejo Rector del Patronato Municipal de Instalaciones Deportivas",
                  "href": "https://api.euskadi.eus/procurements/contracting-authorities/6/entities/182/orgs/910947"
                }
              }
            },
            {
              "id": 910945,
              "name": "Presidente del Patronato Municipal de Instalaciones Deportivas de Eibar",
              "_links": {
                "self": {
                  "name": "Presidente del Patronato Municipal de Instalaciones Deportivas de Eibar",
                  "href": "https://api.euskadi.eus/procurements/contracting-authorities/6/entities/182/orgs/910945"
                }
              }
            }
          ],
          "_links": {
            "self": {
              "name": "Patronato Municipal de instalaciones deportivas de Eibar",
              "href": "https://api.euskadi.eus/procurements/contracting-authorities/6/entities/182"
            }
          }
        },
        {
          "id": 183,
          "name": "Fundación Pública de asistencia a domicilio de Eibar",
          "orgs": [
            {
              "id": 910948,
              "name": "Consejo Rector de la Fundación Pública de Asistencia a Domicilio de Eibar",
              "_links": {
                "self": {
                  "name": "Consejo Rector de la Fundación Pública de Asistencia a Domicilio de Eibar",
                  "href": "https://api.euskadi.eus/procurements/contracting-authorities/6/entities/183/orgs/910948"
                }
              }
            }
          ],
          "_links": {
            "self": {
              "name": "Fundación Pública de asistencia a domicilio de Eibar",
              "href": "https://api.euskadi.eus/procurements/contracting-authorities/6/entities/183"
            }
          }
        },
        {
          "id": 184,
          "name": "Patronato de la escuela pública de música Juan Bautista Gisasola de Eibar",
          "orgs": [
            {
              "id": 910949,
              "name": "Consejo Rector de la Escuela Pública de Música Juan Bautista Gisasola de Eibar",
              "_links": {
                "self": {
                  "name": "Consejo Rector de la Escuela Pública de Música Juan Bautista Gisasola de Eibar",
                  "href": "https://api.euskadi.eus/procurements/contracting-authorities/6/entities/184/orgs/910949"
                }
              }
            }
          ],
          "_links": {
            "self": {
              "name": "Patronato de la escuela pública de música Juan Bautista Gisasola de Eibar",
              "href": "https://api.euskadi.eus/procurements/contracting-authorities/6/entities/184"
            }
          }
        },
        {
          "id": 185,
          "name": "Fundación Pública San Andrés de la ciudad de Eibar",
          "orgs": [
            {
              "id": 910951,
              "name": "Junta de la Fundación San Andrés de la Ciudad de Eibar",
              "_links": {
                "self": {
                  "name": "Junta de la Fundación San Andrés de la Ciudad de Eibar",
                  "href": "https://api.euskadi.eus/procurements/contracting-authorities/6/entities/185/orgs/910951"
                }
              }
            }
          ],
          "_links": {
            "self": {
              "name": "Fundación Pública San Andrés de la ciudad de Eibar",
              "href": "https://api.euskadi.eus/procurements/contracting-authorities/6/entities/185"
            }
          }
        },
        {
          "id": 186,
          "name": "Fundación para la alfabetización y euskaldunización de adultos de Eibar",
          "orgs": [
            {
              "id": 910950,
              "name": "Consejo Rector de la Fundación para la alfabetización y Euskaldunización de adultos de Eibar",
              "_links": {
                "self": {
                  "name": "Consejo Rector de la Fundación para la alfabetización y Euskaldunización de adultos de Eibar",
                  "href": "https://api.euskadi.eus/procurements/contracting-authorities/6/entities/186/orgs/910950"
                }
              }
            }
          ],
          "_links": {
            "self": {
              "name": "Fundación para la alfabetización y euskaldunización de adultos de Eibar",
              "href": "https://api.euskadi.eus/procurements/contracting-authorities/6/entities/186"
            }
          }
        }
      ],
      "mainEntityOfPage": "https://www.contratacion.euskadi.eus/webkpe00-kpeperfi/es/contenidos/poder_adjudicador/poder6/es_doc/es_arch_poder6.html",
      "_links": {
        "self": {
          "name": "Ayuntamiento de Eibar",
          "href": "https://api.euskadi.eus/procurements/contracting-authorities/6"
        }
      }
    },
    {
      "id": 29,
      "identificationNumber": "P2004400D",
      "name": "Ayuntamiento de Hernialde",
      "scope": "GIPUZKOA",
      "address": "Mª Jose Aguirre Murua",
      "webPage": "http://hernialde.org",
      "publicationDate": "2019-10-03",
      "mainActivity": "Servicios públicos generales",
      "codNUTS": "ES212",
      "entities": [
        {
          "id": 215,
          "name": "Ayuntamiento de Hernialde",
          "orgs": [
            {
              "id": 910983,
              "name": "Alcalde",
              "_links": {
                "self": {
                  "name": "Alcalde",
                  "href": "https://api.euskadi.eus/procurements/contracting-authorities/29/entities/215/orgs/910983"
                }
              }
            },
            {
              "id": 910984,
              "name": "Pleno ",
              "_links": {
                "self": {
                  "name": "Pleno ",
                  "href": "https://api.euskadi.eus/procurements/contracting-authorities/29/entities/215/orgs/910984"
                }
              }
            }
          ],
          "_links": {
            "self": {
              "name": "Ayuntamiento de Hernialde",
              "href": "https://api.euskadi.eus/procurements/contracting-authorities/29/entities/215"
            }
          }
        }
      ],
      "mainEntityOfPage": "https://www.contratacion.euskadi.eus/webkpe00-kpeperfi/es/contenidos/poder_adjudicador/poder29/es_doc/es_arch_poder29.html",
      "_links": {
        "self": {
          "name": "Ayuntamiento de Hernialde",
          "href": "https://api.euskadi.eus/procurements/contracting-authorities/29"
        }
      }
    },
    {
      "id": 56,
      "identificationNumber": "Q2000551H",
      "name": "Mancomunidad de Servicios Aiztondo",
      "scope": "GIPUZKOA",
      "address": "Muñoa kalea 36, behea. 20159 Zizurkil",
      "webPage": "https://www.contratacion.euskadi.eus",
      "publicationDate": "2019-10-03",
      "mainActivity": "Protección social",
      "codNUTS": "ES212",
      "entities": [
        {
          "id": 342,
          "name": "Mancomunidad de Servicios Aiztondo",
          "orgs": [
            {
              "id": 911214,
              "name": "Junta Administrativa",
              "_links": {
                "self": {
                  "name": "Junta Administrativa",
                  "href": "https://api.euskadi.eus/procurements/contracting-authorities/56/entities/342/orgs/911214"
                }
              }
            }
          ],
          "_links": {
            "self": {
              "name": "Mancomunidad de Servicios Aiztondo",
              "href": "https://api.euskadi.eus/procurements/contracting-authorities/56/entities/342"
            }
          }
        }
      ],
      "mainEntityOfPage": "https://www.contratacion.euskadi.eus/webkpe00-kpeperfi/es/contenidos/poder_adjudicador/poder56/es_doc/es_arch_poder56.html",
      "_links": {
        "self": {
          "name": "Mancomunidad de Servicios Aiztondo",
          "href": "https://api.euskadi.eus/procurements/contracting-authorities/56"
        }
      }
    }
  ]
}