{
  "totalItems": 919,
  "totalPages": 92,
  "currentPage": 26,
  "itemsOfPage": 10,
  "items": [
    {
      "id": 24609,
      "identificationNumber": "P4810015B ",
      "name": "Mancomunidad Enkarterriko Udal Euskaltegia",
      "scope": "BIZKAIA",
      "address": "Lusa Auzoa, 3 ",
      "webPage": "https://enkarterrikoue.eus/",
      "publicationDate": "2021-12-22",
      "mainActivity": "Servicios públicos generales",
      "codNUTS": "ES213",
      "entities": [
        {
          "id": 24610,
          "name": "Mancomunidad Enkarterriko Udal Euskaltegia ",
          "orgs": [
            {
              "id": 24611,
              "name": "Presidente, Junta",
              "_links": {
                "self": {
                  "name": "Presidente, Junta",
                  "href": "https://api.euskadi.eus/procurements/contracting-authorities/24609/entities/24610/orgs/24611"
                }
              }
            }
          ],
          "_links": {
            "self": {
              "name": "Mancomunidad Enkarterriko Udal Euskaltegia ",
              "href": "https://api.euskadi.eus/procurements/contracting-authorities/24609/entities/24610"
            }
          }
        }
      ],
      "mainEntityOfPage": "https://www.contratacion.euskadi.eus/webkpe00-kpeperfi/es/contenidos/poder_adjudicador/poder24609/es_doc/index.html",
      "_links": {
        "self": {
          "name": "Mancomunidad Enkarterriko Udal Euskaltegia",
          "href": "https://api.euskadi.eus/procurements/contracting-authorities/24609"
        }
      }
    },
    {
      "id": 24519,
      "identificationNumber": "P0100263C",
      "name": "Junta Administrativa de Tertanga",
      "scope": "ARABA/ÁLAVA",
      "address": "Tertanga, barrio Mendia 11",
      "webPage": "http://www.araba.eus/Botha/Boletines/2021/055/2021_055_01690_C.pdf",
      "publicationDate": "2021-12-22",
      "mainActivity": "Servicios públicos generales",
      "codNUTS": "ES211",
      "entities": [
        {
          "id": 24520,
          "name": "Junta Administrativa de Tertanga",
          "orgs": [
            {
              "id": 24521,
              "name": "Junta Administrativa de Tertanga",
              "_links": {
                "self": {
                  "name": "Junta Administrativa de Tertanga",
                  "href": "https://api.euskadi.eus/procurements/contracting-authorities/24519/entities/24520/orgs/24521"
                }
              }
            }
          ],
          "_links": {
            "self": {
              "name": "Junta Administrativa de Tertanga",
              "href": "https://api.euskadi.eus/procurements/contracting-authorities/24519/entities/24520"
            }
          }
        }
      ],
      "mainEntityOfPage": "https://www.contratacion.euskadi.eus/webkpe00-kpeperfi/es/contenidos/poder_adjudicador/poder24519/es_doc/index.html",
      "_links": {
        "self": {
          "name": "Junta Administrativa de Tertanga",
          "href": "https://api.euskadi.eus/procurements/contracting-authorities/24519"
        }
      }
    },
    {
      "id": 24601,
      "identificationNumber": "G20854428",
      "name": "Fundación Ekain",
      "scope": "GIPUZKOA",
      "address": "Udaletxea, Foru Plaza z/g ",
      "webPage": "https://www.ekainberri.eus/fundacion-ekain",
      "publicationDate": "2021-12-20",
      "mainActivity": "Servicios públicos generales",
      "codNUTS": "ES212",
      "entities": [
        {
          "id": 24602,
          "name": "Fundación Ekain",
          "orgs": [
            {
              "id": 24603,
              "name": "Patronato de la Fundación ",
              "_links": {
                "self": {
                  "name": "Patronato de la Fundación ",
                  "href": "https://api.euskadi.eus/procurements/contracting-authorities/24601/entities/24602/orgs/24603"
                }
              }
            }
          ],
          "_links": {
            "self": {
              "name": "Fundación Ekain",
              "href": "https://api.euskadi.eus/procurements/contracting-authorities/24601/entities/24602"
            }
          }
        }
      ],
      "mainEntityOfPage": "https://www.contratacion.euskadi.eus/webkpe00-kpeperfi/es/contenidos/poder_adjudicador/poder24601/es_doc/index.html",
      "_links": {
        "self": {
          "name": "Fundación Ekain",
          "href": "https://api.euskadi.eus/procurements/contracting-authorities/24601"
        }
      }
    },
    {
      "id": 24589,
      "identificationNumber": "Q2000620A",
      "name": "Consorcio de Innovación Lingüística Badalab",
      "scope": "GIPUZKOA",
      "address": "Orereta Kalea, 7 Jautarkol Plaza z/g (Torrekua eraikina- edificio Torrekua)",
      "webPage": "https://www.badalab.eus/eu/",
      "publicationDate": "2021-11-16",
      "mainActivity": "Servicios públicos generales",
      "codNUTS": "ES212",
      "entities": [
        {
          "id": 24590,
          "name": "Badalab ",
          "orgs": [
            {
              "id": 24591,
              "name": "Badalab",
              "_links": {
                "self": {
                  "name": "Badalab",
                  "href": "https://api.euskadi.eus/procurements/contracting-authorities/24589/entities/24590/orgs/24591"
                }
              }
            }
          ],
          "_links": {
            "self": {
              "name": "Badalab ",
              "href": "https://api.euskadi.eus/procurements/contracting-authorities/24589/entities/24590"
            }
          }
        }
      ],
      "mainEntityOfPage": "https://www.contratacion.euskadi.eus/webkpe00-kpeperfi/es/contenidos/poder_adjudicador/poder24589/es_doc/index.html",
      "_links": {
        "self": {
          "name": "Consorcio de Innovación Lingüística Badalab",
          "href": "https://api.euskadi.eus/procurements/contracting-authorities/24589"
        }
      }
    },
    {
      "id": 24580,
      "identificationNumber": "A20769667",
      "name": "Agencia para la Renovación Urbana de  la Bahía de Pasaia, Badia Berri, S.A.",
      "scope": "GIPUZKOA",
      "address": "Astigarragako bidea 2,2",
      "webPage": "https://badiaberri.eus/",
      "publicationDate": "2021-11-16",
      "mainActivity": "Servicios públicos generales",
      "codNUTS": "ES212",
      "entities": [
        {
          "id": 24581,
          "name": "Badia Berri S.A.",
          "orgs": [
            {
              "id": 24582,
              "name": "Oarsoaldea, S.A.",
              "_links": {
                "self": {
                  "name": "Oarsoaldea, S.A.",
                  "href": "https://api.euskadi.eus/procurements/contracting-authorities/24580/entities/24581/orgs/24582"
                }
              }
            }
          ],
          "_links": {
            "self": {
              "name": "Badia Berri S.A.",
              "href": "https://api.euskadi.eus/procurements/contracting-authorities/24580/entities/24581"
            }
          }
        }
      ],
      "mainEntityOfPage": "https://www.contratacion.euskadi.eus/webkpe00-kpeperfi/es/contenidos/poder_adjudicador/poder24580/es_doc/index.html",
      "_links": {
        "self": {
          "name": "Agencia para la Renovación Urbana de  la Bahía de Pasaia, Badia Berri, S.A.",
          "href": "https://api.euskadi.eus/procurements/contracting-authorities/24580"
        }
      }
    },
    {
      "id": 24575,
      "identificationNumber": "P0100112B",
      "name": "Junta Administrativa de Trespuentes",
      "scope": "ARABA/ÁLAVA",
      "address": "Santa Catalina, 8 (Trespuentes)",
      "webPage": "https://www.irunadeoca.com/ayuntamiento-iruna-de-oca/trespuentes-tresponde-junta-administrativa-de-iruna-de-oca/",
      "publicationDate": "2021-11-08",
      "mainActivity": "Servicios públicos generales",
      "codNUTS": "ES211",
      "entities": [
        {
          "id": 24576,
          "name": "Junta Administrativa de Trespuentes",
          "orgs": [
            {
              "id": 24577,
              "name": "Junta Administrativa de Trespuentes",
              "_links": {
                "self": {
                  "name": "Junta Administrativa de Trespuentes",
                  "href": "https://api.euskadi.eus/procurements/contracting-authorities/24575/entities/24576/orgs/24577"
                }
              }
            }
          ],
          "_links": {
            "self": {
              "name": "Junta Administrativa de Trespuentes",
              "href": "https://api.euskadi.eus/procurements/contracting-authorities/24575/entities/24576"
            }
          }
        }
      ],
      "mainEntityOfPage": "https://www.contratacion.euskadi.eus/webkpe00-kpeperfi/es/contenidos/poder_adjudicador/poder24575/es_doc/index.html",
      "_links": {
        "self": {
          "name": "Junta Administrativa de Trespuentes",
          "href": "https://api.euskadi.eus/procurements/contracting-authorities/24575"
        }
      }
    },
    {
      "id": 24566,
      "identificationNumber": "P0100058G",
      "name": "Junta Administrativa de Guillerna",
      "scope": "ARABA/ÁLAVA",
      "address": "Gustinza, 4 (Guillerna)",
      "webPage": "https://www.araba.eus/botha/Busquedas/Resultado.aspx?File=Boletines/2019/089/2019_089_02506_C.xml&hl=junta;administrativa;de;guillerna",
      "publicationDate": "2021-11-02",
      "mainActivity": "Servicios públicos generales",
      "codNUTS": "ES211",
      "entities": [
        {
          "id": 24567,
          "name": "Junta Administrativa de Guillerna",
          "orgs": [
            {
              "id": 24568,
              "name": "Junta Administrativa de Guillerna",
              "_links": {
                "self": {
                  "name": "Junta Administrativa de Guillerna",
                  "href": "https://api.euskadi.eus/procurements/contracting-authorities/24566/entities/24567/orgs/24568"
                }
              }
            }
          ],
          "_links": {
            "self": {
              "name": "Junta Administrativa de Guillerna",
              "href": "https://api.euskadi.eus/procurements/contracting-authorities/24566/entities/24567"
            }
          }
        }
      ],
      "mainEntityOfPage": "https://www.contratacion.euskadi.eus/webkpe00-kpeperfi/es/contenidos/poder_adjudicador/poder24566/es_doc/index.html",
      "_links": {
        "self": {
          "name": "Junta Administrativa de Guillerna",
          "href": "https://api.euskadi.eus/procurements/contracting-authorities/24566"
        }
      }
    },
    {
      "id": 304,
      "identificationNumber": "P2009500F",
      "name": "Ayuntamiento de Lasarte-Oria",
      "scope": "GIPUZKOA",
      "address": "Kale Nagusia, 22. 20160 Lasarte-Oria (Gipuzkoa)",
      "webPage": "http://www.lasarte-oria.eus",
      "publicationDate": "2021-10-26",
      "mainActivity": "Servicios públicos generales",
      "codNUTS": "ES212",
      "entities": [
        {
          "id": 753,
          "name": "Ayuntamiento de Lasarte-Oria ",
          "orgs": [
            {
              "id": 912213,
              "name": "Alcaldía",
              "_links": {
                "self": {
                  "name": "Alcaldía",
                  "href": "https://api.euskadi.eus/procurements/contracting-authorities/304/entities/753/orgs/912213"
                }
              }
            },
            {
              "id": 24563,
              "name": "Pleno",
              "_links": {
                "self": {
                  "name": "Pleno",
                  "href": "https://api.euskadi.eus/procurements/contracting-authorities/304/entities/753/orgs/24563"
                }
              }
            }
          ],
          "_links": {
            "self": {
              "name": "Ayuntamiento de Lasarte-Oria ",
              "href": "https://api.euskadi.eus/procurements/contracting-authorities/304/entities/753"
            }
          }
        }
      ],
      "mainEntityOfPage": "https://www.contratacion.euskadi.eus/webkpe00-kpeperfi/es/contenidos/poder_adjudicador/poder304/es_doc/index.html",
      "_links": {
        "self": {
          "name": "Ayuntamiento de Lasarte-Oria",
          "href": "https://api.euskadi.eus/procurements/contracting-authorities/304"
        }
      }
    },
    {
      "id": 24559,
      "identificationNumber": "A01413269",
      "name": "Amurrio Bidean SAU",
      "scope": "ARABA/ÁLAVA",
      "address": "Plaza Juan de Urrutia s/n",
      "webPage": "http://www.amurriobidean.org",
      "publicationDate": "2021-10-25",
      "mainActivity": "Servicios públicos generales",
      "codNUTS": "ES211",
      "entities": [
        {
          "id": 24560,
          "name": "Amurrio Bidean SAU",
          "orgs": [
            {
              "id": 24561,
              "name": "Amurrio Bidean SAU",
              "_links": {
                "self": {
                  "name": "Amurrio Bidean SAU",
                  "href": "https://api.euskadi.eus/procurements/contracting-authorities/24559/entities/24560/orgs/24561"
                }
              }
            }
          ],
          "_links": {
            "self": {
              "name": "Amurrio Bidean SAU",
              "href": "https://api.euskadi.eus/procurements/contracting-authorities/24559/entities/24560"
            }
          }
        }
      ],
      "mainEntityOfPage": "https://www.contratacion.euskadi.eus/webkpe00-kpeperfi/es/contenidos/poder_adjudicador/poder24559/es_doc/index.html",
      "_links": {
        "self": {
          "name": "Amurrio Bidean SAU",
          "href": "https://api.euskadi.eus/procurements/contracting-authorities/24559"
        }
      }
    },
    {
      "id": 24555,
      "identificationNumber": "P0100099A",
      "name": "Junta Administrativa de Bernedo",
      "scope": "ARABA/ÁLAVA",
      "address": "Castillo Plaza, 1",
      "webPage": "https://www.bernedo.org/?lang=eu",
      "publicationDate": "2021-10-25",
      "mainActivity": "Servicios públicos generales",
      "codNUTS": "ES211",
      "entities": [
        {
          "id": 24556,
          "name": "Junta Administrativa de Bernedo",
          "orgs": [
            {
              "id": 24557,
              "name": "Junta Administrativa de Bernedo",
              "_links": {
                "self": {
                  "name": "Junta Administrativa de Bernedo",
                  "href": "https://api.euskadi.eus/procurements/contracting-authorities/24555/entities/24556/orgs/24557"
                }
              }
            }
          ],
          "_links": {
            "self": {
              "name": "Junta Administrativa de Bernedo",
              "href": "https://api.euskadi.eus/procurements/contracting-authorities/24555/entities/24556"
            }
          }
        }
      ],
      "mainEntityOfPage": "https://www.contratacion.euskadi.eus/webkpe00-kpeperfi/es/contenidos/poder_adjudicador/poder24555/es_doc/index.html",
      "_links": {
        "self": {
          "name": "Junta Administrativa de Bernedo",
          "href": "https://api.euskadi.eus/procurements/contracting-authorities/24555"
        }
      }
    }
  ]
}