{
  "totalItems": 919,
  "totalPages": 92,
  "currentPage": 47,
  "itemsOfPage": 10,
  "items": [
    {
      "id": 291,
      "identificationNumber": "P4808600C",
      "name": "Ayuntamiento de Ondarroa",
      "scope": "BIZKAIA",
      "address": "Musika Plaza, z.g, 40700 Ondarroa (Bizkaia)",
      "webPage": "http://www.ondarroa.eus",
      "publicationDate": "2019-10-07",
      "mainActivity": "Servicios públicos generales",
      "codNUTS": "ES213",
      "entities": [
        {
          "id": 739,
          "name": "Ayuntamiento de Ondarroa ",
          "orgs": [
            {
              "id": 912182,
              "name": "Pleno",
              "_links": {
                "self": {
                  "name": "Pleno",
                  "href": "https://api.euskadi.eus/procurements/contracting-authorities/291/entities/739/orgs/912182"
                }
              }
            },
            {
              "id": 912180,
              "name": "Alcaldía",
              "_links": {
                "self": {
                  "name": "Alcaldía",
                  "href": "https://api.euskadi.eus/procurements/contracting-authorities/291/entities/739/orgs/912180"
                }
              }
            },
            {
              "id": 912181,
              "name": "Junta de Gobierno",
              "_links": {
                "self": {
                  "name": "Junta de Gobierno",
                  "href": "https://api.euskadi.eus/procurements/contracting-authorities/291/entities/739/orgs/912181"
                }
              }
            }
          ],
          "_links": {
            "self": {
              "name": "Ayuntamiento de Ondarroa ",
              "href": "https://api.euskadi.eus/procurements/contracting-authorities/291/entities/739"
            }
          }
        }
      ],
      "mainEntityOfPage": "https://www.contratacion.euskadi.eus/webkpe00-kpeperfi/es/contenidos/poder_adjudicador/poder291/es_doc/es_arch_poder291.html",
      "_links": {
        "self": {
          "name": "Ayuntamiento de Ondarroa",
          "href": "https://api.euskadi.eus/procurements/contracting-authorities/291"
        }
      }
    },
    {
      "id": 292,
      "identificationNumber": "P4809000E",
      "name": "Ayuntamiento de Plentzia",
      "scope": "BIZKAIA",
      "address": "Plaza del astillero, s/n. 48630 Plentzia (Bizkaia)",
      "webPage": "http://www.plentzia.eus",
      "publicationDate": "2019-10-07",
      "mainActivity": "Servicios públicos generales",
      "codNUTS": "ES213",
      "entities": [
        {
          "id": 740,
          "name": "Ayuntamiento de Plentzia",
          "orgs": [
            {
              "id": 912184,
              "name": "PLENO",
              "_links": {
                "self": {
                  "name": "PLENO",
                  "href": "https://api.euskadi.eus/procurements/contracting-authorities/292/entities/740/orgs/912184"
                }
              }
            },
            {
              "id": 912183,
              "name": "Alcaldía",
              "_links": {
                "self": {
                  "name": "Alcaldía",
                  "href": "https://api.euskadi.eus/procurements/contracting-authorities/292/entities/740/orgs/912183"
                }
              }
            }
          ],
          "_links": {
            "self": {
              "name": "Ayuntamiento de Plentzia",
              "href": "https://api.euskadi.eus/procurements/contracting-authorities/292/entities/740"
            }
          }
        }
      ],
      "mainEntityOfPage": "https://www.contratacion.euskadi.eus/webkpe00-kpeperfi/es/contenidos/poder_adjudicador/poder292/es_doc/es_arch_poder292.html",
      "_links": {
        "self": {
          "name": "Ayuntamiento de Plentzia",
          "href": "https://api.euskadi.eus/procurements/contracting-authorities/292"
        }
      }
    },
    {
      "id": 294,
      "identificationNumber": "P4806500G",
      "name": "Ayuntamiento de Lemoa",
      "scope": "BIZKAIA",
      "address": "Arraibi,1. 48330 Lemoa (Bizkaia)",
      "webPage": "http://www.lemoa.net ",
      "publicationDate": "2019-10-07",
      "mainActivity": "Servicios públicos generales",
      "codNUTS": "ES213",
      "entities": [
        {
          "id": 742,
          "name": "Ayuntamiento de Lemoa",
          "orgs": [
            {
              "id": 912187,
              "name": "Alcaldía ",
              "_links": {
                "self": {
                  "name": "Alcaldía ",
                  "href": "https://api.euskadi.eus/procurements/contracting-authorities/294/entities/742/orgs/912187"
                }
              }
            },
            {
              "id": 912188,
              "name": "Pleno",
              "_links": {
                "self": {
                  "name": "Pleno",
                  "href": "https://api.euskadi.eus/procurements/contracting-authorities/294/entities/742/orgs/912188"
                }
              }
            }
          ],
          "_links": {
            "self": {
              "name": "Ayuntamiento de Lemoa",
              "href": "https://api.euskadi.eus/procurements/contracting-authorities/294/entities/742"
            }
          }
        }
      ],
      "mainEntityOfPage": "https://www.contratacion.euskadi.eus/webkpe00-kpeperfi/es/contenidos/poder_adjudicador/poder294/es_doc/es_arch_poder294.html",
      "_links": {
        "self": {
          "name": "Ayuntamiento de Lemoa",
          "href": "https://api.euskadi.eus/procurements/contracting-authorities/294"
        }
      }
    },
    {
      "id": 296,
      "identificationNumber": "P4804800C",
      "name": "Ayuntamiento de Gatika",
      "scope": "BIZKAIA",
      "address": "Barrio Garai, s/n 48110 Gatika (Bizkaia)",
      "webPage": "http://www.gatika.net",
      "publicationDate": "2019-10-07",
      "mainActivity": "Servicios públicos generales",
      "codNUTS": "ES213",
      "entities": [
        {
          "id": 744,
          "name": "Ayuntamiento de Gatika",
          "orgs": [
            {
              "id": 912191,
              "name": "Pleno",
              "_links": {
                "self": {
                  "name": "Pleno",
                  "href": "https://api.euskadi.eus/procurements/contracting-authorities/296/entities/744/orgs/912191"
                }
              }
            },
            {
              "id": 912190,
              "name": "Alacladía",
              "_links": {
                "self": {
                  "name": "Alacladía",
                  "href": "https://api.euskadi.eus/procurements/contracting-authorities/296/entities/744/orgs/912190"
                }
              }
            }
          ],
          "_links": {
            "self": {
              "name": "Ayuntamiento de Gatika",
              "href": "https://api.euskadi.eus/procurements/contracting-authorities/296/entities/744"
            }
          }
        }
      ],
      "mainEntityOfPage": "https://www.contratacion.euskadi.eus/webkpe00-kpeperfi/es/contenidos/poder_adjudicador/poder296/es_doc/es_arch_poder296.html",
      "_links": {
        "self": {
          "name": "Ayuntamiento de Gatika",
          "href": "https://api.euskadi.eus/procurements/contracting-authorities/296"
        }
      }
    },
    {
      "id": 298,
      "identificationNumber": "P4806600E",
      "name": "Ayuntamiento de Lemoiz",
      "scope": "BIZKAIA",
      "address": "Barrio Urizar, 56. 48620 Lemoiz (Bizkaia)",
      "webPage": "http://www.lemoiz.eu",
      "publicationDate": "2019-10-07",
      "mainActivity": "Servicios públicos generales",
      "codNUTS": "ES213",
      "entities": [
        {
          "id": 746,
          "name": "Ayuntamiento de Lemoiz",
          "orgs": [
            {
              "id": 912196,
              "name": "Pleno",
              "_links": {
                "self": {
                  "name": "Pleno",
                  "href": "https://api.euskadi.eus/procurements/contracting-authorities/298/entities/746/orgs/912196"
                }
              }
            },
            {
              "id": 912194,
              "name": "Alcalde",
              "_links": {
                "self": {
                  "name": "Alcalde",
                  "href": "https://api.euskadi.eus/procurements/contracting-authorities/298/entities/746/orgs/912194"
                }
              }
            },
            {
              "id": 912195,
              "name": "Junta de Gobierno Local",
              "_links": {
                "self": {
                  "name": "Junta de Gobierno Local",
                  "href": "https://api.euskadi.eus/procurements/contracting-authorities/298/entities/746/orgs/912195"
                }
              }
            }
          ],
          "_links": {
            "self": {
              "name": "Ayuntamiento de Lemoiz",
              "href": "https://api.euskadi.eus/procurements/contracting-authorities/298/entities/746"
            }
          }
        }
      ],
      "mainEntityOfPage": "https://www.contratacion.euskadi.eus/webkpe00-kpeperfi/es/contenidos/poder_adjudicador/poder298/es_doc/es_arch_poder298.html",
      "_links": {
        "self": {
          "name": "Ayuntamiento de Lemoiz",
          "href": "https://api.euskadi.eus/procurements/contracting-authorities/298"
        }
      }
    },
    {
      "id": 299,
      "identificationNumber": "P4800300H",
      "name": "Ayuntamiento de Amorebieta-Etxano",
      "scope": "BIZKAIA",
      "address": "Herriko Plaza s/n. 48340 Amorebieta-Etxano (Bizkaia)",
      "webPage": "https://www.amorebieta-etxano.eus",
      "publicationDate": "2019-10-07",
      "mainActivity": "Servicios públicos generales",
      "codNUTS": "ES213",
      "entities": [
        {
          "id": 747,
          "name": "Ayuntamiento de Amorebieta-Etxano",
          "orgs": [
            {
              "id": 912199,
              "name": "Pleno de la Corporación",
              "_links": {
                "self": {
                  "name": "Pleno de la Corporación",
                  "href": "https://api.euskadi.eus/procurements/contracting-authorities/299/entities/747/orgs/912199"
                }
              }
            },
            {
              "id": 912200,
              "name": "Junta de Gobierno",
              "_links": {
                "self": {
                  "name": "Junta de Gobierno",
                  "href": "https://api.euskadi.eus/procurements/contracting-authorities/299/entities/747/orgs/912200"
                }
              }
            },
            {
              "id": 912198,
              "name": "Alcaldía",
              "_links": {
                "self": {
                  "name": "Alcaldía",
                  "href": "https://api.euskadi.eus/procurements/contracting-authorities/299/entities/747/orgs/912198"
                }
              }
            }
          ],
          "_links": {
            "self": {
              "name": "Ayuntamiento de Amorebieta-Etxano",
              "href": "https://api.euskadi.eus/procurements/contracting-authorities/299/entities/747"
            }
          }
        }
      ],
      "mainEntityOfPage": "https://www.contratacion.euskadi.eus/webkpe00-kpeperfi/es/contenidos/poder_adjudicador/poder299/es_doc/es_arch_poder299.html",
      "_links": {
        "self": {
          "name": "Ayuntamiento de Amorebieta-Etxano",
          "href": "https://api.euskadi.eus/procurements/contracting-authorities/299"
        }
      }
    },
    {
      "id": 301,
      "identificationNumber": "P4803900B",
      "name": "Ayuntamiento de Elorrio",
      "scope": "BIZKAIA",
      "address": "Herriko Plaza, s/n, 48230 Elorrio ( Bizkaia )",
      "webPage": "http://www.elorrio.eus",
      "publicationDate": "2019-10-07",
      "mainActivity": "Servicios públicos generales",
      "codNUTS": "ES213",
      "entities": [
        {
          "id": 750,
          "name": "Ayuntamiento de Elorrio",
          "orgs": [
            {
              "id": 912206,
              "name": "Pleno",
              "_links": {
                "self": {
                  "name": "Pleno",
                  "href": "https://api.euskadi.eus/procurements/contracting-authorities/301/entities/750/orgs/912206"
                }
              }
            },
            {
              "id": 912207,
              "name": "Junta de Gobierno Local",
              "_links": {
                "self": {
                  "name": "Junta de Gobierno Local",
                  "href": "https://api.euskadi.eus/procurements/contracting-authorities/301/entities/750/orgs/912207"
                }
              }
            },
            {
              "id": 912205,
              "name": "Alcaldía",
              "_links": {
                "self": {
                  "name": "Alcaldía",
                  "href": "https://api.euskadi.eus/procurements/contracting-authorities/301/entities/750/orgs/912205"
                }
              }
            }
          ],
          "_links": {
            "self": {
              "name": "Ayuntamiento de Elorrio",
              "href": "https://api.euskadi.eus/procurements/contracting-authorities/301/entities/750"
            }
          }
        }
      ],
      "mainEntityOfPage": "https://www.contratacion.euskadi.eus/webkpe00-kpeperfi/es/contenidos/poder_adjudicador/poder301/es_doc/es_arch_poder301.html",
      "_links": {
        "self": {
          "name": "Ayuntamiento de Elorrio",
          "href": "https://api.euskadi.eus/procurements/contracting-authorities/301"
        }
      }
    },
    {
      "id": 302,
      "identificationNumber": "P4804200F",
      "name": "Ayuntamiento de Forua",
      "scope": "BIZKAIA",
      "address": "Bº Elexalde, 1. 48393 Forua (Bizkaia)",
      "webPage": "http://forua.net",
      "publicationDate": "2019-10-07",
      "mainActivity": "Servicios públicos generales",
      "codNUTS": "ES213",
      "entities": [
        {
          "id": 751,
          "name": "Ayuntamiento de Forua",
          "orgs": [
            {
              "id": 912208,
              "name": "Alcaldía",
              "_links": {
                "self": {
                  "name": "Alcaldía",
                  "href": "https://api.euskadi.eus/procurements/contracting-authorities/302/entities/751/orgs/912208"
                }
              }
            },
            {
              "id": 912209,
              "name": "Pleno",
              "_links": {
                "self": {
                  "name": "Pleno",
                  "href": "https://api.euskadi.eus/procurements/contracting-authorities/302/entities/751/orgs/912209"
                }
              }
            }
          ],
          "_links": {
            "self": {
              "name": "Ayuntamiento de Forua",
              "href": "https://api.euskadi.eus/procurements/contracting-authorities/302/entities/751"
            }
          }
        }
      ],
      "mainEntityOfPage": "https://www.contratacion.euskadi.eus/webkpe00-kpeperfi/es/contenidos/poder_adjudicador/poder302/es_doc/es_arch_poder302.html",
      "_links": {
        "self": {
          "name": "Ayuntamiento de Forua",
          "href": "https://api.euskadi.eus/procurements/contracting-authorities/302"
        }
      }
    },
    {
      "id": 303,
      "identificationNumber": "P4811000A",
      "name": "Ayuntamiento de Zamudio",
      "scope": "BIZKAIA",
      "address": "Sabino Arana Plaza, 1. 48170 Zamudio (Bizkaia)",
      "webPage": "http://www.zamudiokoudala.net",
      "publicationDate": "2019-10-07",
      "mainActivity": "Servicios públicos generales",
      "codNUTS": "ES213",
      "entities": [
        {
          "id": 752,
          "name": "Ayuntamiento de Zamudio",
          "orgs": [
            {
              "id": 912210,
              "name": "Alcaldía",
              "_links": {
                "self": {
                  "name": "Alcaldía",
                  "href": "https://api.euskadi.eus/procurements/contracting-authorities/303/entities/752/orgs/912210"
                }
              }
            },
            {
              "id": 912212,
              "name": "Junta de Gobierno Local",
              "_links": {
                "self": {
                  "name": "Junta de Gobierno Local",
                  "href": "https://api.euskadi.eus/procurements/contracting-authorities/303/entities/752/orgs/912212"
                }
              }
            },
            {
              "id": 912211,
              "name": "Pleno",
              "_links": {
                "self": {
                  "name": "Pleno",
                  "href": "https://api.euskadi.eus/procurements/contracting-authorities/303/entities/752/orgs/912211"
                }
              }
            }
          ],
          "_links": {
            "self": {
              "name": "Ayuntamiento de Zamudio",
              "href": "https://api.euskadi.eus/procurements/contracting-authorities/303/entities/752"
            }
          }
        }
      ],
      "mainEntityOfPage": "https://www.contratacion.euskadi.eus/webkpe00-kpeperfi/es/contenidos/poder_adjudicador/poder303/es_doc/es_arch_poder303.html",
      "_links": {
        "self": {
          "name": "Ayuntamiento de Zamudio",
          "href": "https://api.euskadi.eus/procurements/contracting-authorities/303"
        }
      }
    },
    {
      "id": 306,
      "identificationNumber": "P4801800F",
      "name": "Ayuntamiento de Barrika",
      "scope": "BIZKAIA",
      "address": "Udaletxeko bidea,6. 48650 Barrika (Bizkaia)",
      "webPage": "http://www.barrika.eus",
      "publicationDate": "2019-10-07",
      "mainActivity": "Servicios públicos generales",
      "codNUTS": "ES213",
      "entities": [
        {
          "id": 755,
          "name": "Ayuntamiento de Barrika",
          "orgs": [
            {
              "id": 912215,
              "name": "Alcalde",
              "_links": {
                "self": {
                  "name": "Alcalde",
                  "href": "https://api.euskadi.eus/procurements/contracting-authorities/306/entities/755/orgs/912215"
                }
              }
            },
            {
              "id": 912216,
              "name": "Pleno",
              "_links": {
                "self": {
                  "name": "Pleno",
                  "href": "https://api.euskadi.eus/procurements/contracting-authorities/306/entities/755/orgs/912216"
                }
              }
            }
          ],
          "_links": {
            "self": {
              "name": "Ayuntamiento de Barrika",
              "href": "https://api.euskadi.eus/procurements/contracting-authorities/306/entities/755"
            }
          }
        }
      ],
      "mainEntityOfPage": "https://www.contratacion.euskadi.eus/webkpe00-kpeperfi/es/contenidos/poder_adjudicador/poder306/es_doc/es_arch_poder306.html",
      "_links": {
        "self": {
          "name": "Ayuntamiento de Barrika",
          "href": "https://api.euskadi.eus/procurements/contracting-authorities/306"
        }
      }
    }
  ]
}