{
  "totalItems": 919,
  "totalPages": 92,
  "currentPage": 17,
  "itemsOfPage": 10,
  "items": [
    {
      "id": 25956,
      "identificationNumber": "P0100163E",
      "name": "Junta Administrativa de Menoio",
      "scope": "ARABA/ÁLAVA",
      "address": "Mendía, 9 - 01477 - Menoio, Araba",
      "webPage": "https://www.aiarakoudala.eus/es/municipio/juntas-administrativas",
      "publicationDate": "2023-04-12",
      "mainActivity": "Servicios públicos generales",
      "codNUTS": "ES211",
      "entities": [
        {
          "id": 25957,
          "name": "Junta Administrativa de Menoio",
          "orgs": [
            {
              "id": 25958,
              "name": "Junta Administrativa de Menoio",
              "_links": {
                "self": {
                  "name": "Junta Administrativa de Menoio",
                  "href": "https://api.euskadi.eus/procurements/contracting-authorities/25956/entities/25957/orgs/25958"
                }
              }
            }
          ],
          "_links": {
            "self": {
              "name": "Junta Administrativa de Menoio",
              "href": "https://api.euskadi.eus/procurements/contracting-authorities/25956/entities/25957"
            }
          }
        }
      ],
      "mainEntityOfPage": "https://www.contratacion.euskadi.eus/webkpe00-kpeperfi/es/contenidos/poder_adjudicador/poder25956/es_doc/index.html",
      "_links": {
        "self": {
          "name": "Junta Administrativa de Menoio",
          "href": "https://api.euskadi.eus/procurements/contracting-authorities/25956"
        }
      }
    },
    {
      "id": 25952,
      "identificationNumber": "P0100131B",
      "name": "Junta Administrativa de Gopegi",
      "scope": "ARABA/ÁLAVA",
      "address": "Amaiur 3 - 01138 - Gopegi, Zigoitia, Araba",
      "webPage": "https://www.araba.eus/",
      "publicationDate": "2023-04-11",
      "mainActivity": "Servicios públicos generales",
      "codNUTS": "ES211",
      "entities": [
        {
          "id": 25953,
          "name": "Junta Administrativa de Gopegi",
          "orgs": [
            {
              "id": 25954,
              "name": "Junta Administrativa de Gopegi",
              "_links": {
                "self": {
                  "name": "Junta Administrativa de Gopegi",
                  "href": "https://api.euskadi.eus/procurements/contracting-authorities/25952/entities/25953/orgs/25954"
                }
              }
            }
          ],
          "_links": {
            "self": {
              "name": "Junta Administrativa de Gopegi",
              "href": "https://api.euskadi.eus/procurements/contracting-authorities/25952/entities/25953"
            }
          }
        }
      ],
      "mainEntityOfPage": "https://www.contratacion.euskadi.eus/webkpe00-kpeperfi/es/contenidos/poder_adjudicador/poder25952/es_doc/index.html",
      "_links": {
        "self": {
          "name": "Junta Administrativa de Gopegi",
          "href": "https://api.euskadi.eus/procurements/contracting-authorities/25952"
        }
      }
    },
    {
      "id": 25942,
      "identificationNumber": "A95369849",
      "name": "Centro Azkuna de Sociedad y Cultura Contemporánea S.A.",
      "scope": "BIZKAIA",
      "address": "Plaza Arriquibar nº4, 48010 Bilbao (Bizkaia) ",
      "webPage": "https://www.azkunazentroa.eus/",
      "publicationDate": "2023-04-03",
      "mainActivity": "Ocio, cultura y religión",
      "codNUTS": "ES213",
      "entities": [
        {
          "id": 25943,
          "name": "Centro Azkuna de Sociedad y Cultura Contemporánea S.A.",
          "orgs": [
            {
              "id": 25944,
              "name": "Dirección General ",
              "_links": {
                "self": {
                  "name": "Dirección General ",
                  "href": "https://api.euskadi.eus/procurements/contracting-authorities/25942/entities/25943/orgs/25944"
                }
              }
            },
            {
              "id": 25945,
              "name": "Presidencia del Consejo de Administración",
              "_links": {
                "self": {
                  "name": "Presidencia del Consejo de Administración",
                  "href": "https://api.euskadi.eus/procurements/contracting-authorities/25942/entities/25943/orgs/25945"
                }
              }
            },
            {
              "id": 25946,
              "name": "Consejo de Administración",
              "_links": {
                "self": {
                  "name": "Consejo de Administración",
                  "href": "https://api.euskadi.eus/procurements/contracting-authorities/25942/entities/25943/orgs/25946"
                }
              }
            }
          ],
          "_links": {
            "self": {
              "name": "Centro Azkuna de Sociedad y Cultura Contemporánea S.A.",
              "href": "https://api.euskadi.eus/procurements/contracting-authorities/25942/entities/25943"
            }
          }
        }
      ],
      "mainEntityOfPage": "https://www.contratacion.euskadi.eus/webkpe00-kpeperfi/es/contenidos/poder_adjudicador/poder25942/es_doc/index.html",
      "_links": {
        "self": {
          "name": "Centro Azkuna de Sociedad y Cultura Contemporánea S.A.",
          "href": "https://api.euskadi.eus/procurements/contracting-authorities/25942"
        }
      }
    },
    {
      "id": 181,
      "identificationNumber": "P0102200C",
      "name": "Ayuntamiento de Elburgo",
      "scope": "ARABA/ÁLAVA",
      "address": "Avda. Burgelu 17, 01192- Elburgo, Araba",
      "webPage": "http://www.elburgo-burgelu.eus",
      "publicationDate": "2023-04-03",
      "mainActivity": "Servicios públicos generales",
      "codNUTS": "ES211",
      "entities": [
        {
          "id": 610,
          "name": "Ayuntamiento de Elburgo",
          "orgs": [
            {
              "id": 911911,
              "name": "Alcalde ",
              "_links": {
                "self": {
                  "name": "Alcalde ",
                  "href": "https://api.euskadi.eus/procurements/contracting-authorities/181/entities/610/orgs/911911"
                }
              }
            },
            {
              "id": 911912,
              "name": "Pleno",
              "_links": {
                "self": {
                  "name": "Pleno",
                  "href": "https://api.euskadi.eus/procurements/contracting-authorities/181/entities/610/orgs/911912"
                }
              }
            }
          ],
          "_links": {
            "self": {
              "name": "Ayuntamiento de Elburgo",
              "href": "https://api.euskadi.eus/procurements/contracting-authorities/181/entities/610"
            }
          }
        }
      ],
      "mainEntityOfPage": "https://www.contratacion.euskadi.eus/webkpe00-kpeperfi/es/contenidos/poder_adjudicador/poder181/es_doc/index.html",
      "_links": {
        "self": {
          "name": "Ayuntamiento de Elburgo",
          "href": "https://api.euskadi.eus/procurements/contracting-authorities/181"
        }
      }
    },
    {
      "id": 24596,
      "identificationNumber": "Q0100611C",
      "name": "AUKERAK - Agencia Vasca de Reinserción Social",
      "scope": "CAPV",
      "address": "Beato Tomás De Zumarraga, 67 – 2ª pl.",
      "webPage": "https://www.legegunea.euskadi.eus/eli/es-pv/l/2021/09/30/3/dof/spa/html/webleg00-contfich/es/",
      "publicationDate": "2023-03-30",
      "mainActivity": "Servicios públicos generales",
      "codNUTS": "ES21",
      "CPV": [
        {
          "name": "Servicios de formación"
        }
      ],
      "entities": [
        {
          "id": 24597,
          "name": "AUKERAK",
          "orgs": [
            {
              "id": 24598,
              "name": "DIRECTOR",
              "_links": {
                "self": {
                  "name": "DIRECTOR",
                  "href": "https://api.euskadi.eus/procurements/contracting-authorities/24596/entities/24597/orgs/24598"
                }
              }
            }
          ],
          "_links": {
            "self": {
              "name": "AUKERAK",
              "href": "https://api.euskadi.eus/procurements/contracting-authorities/24596/entities/24597"
            }
          }
        }
      ],
      "mainEntityOfPage": "https://www.contratacion.euskadi.eus/webkpe00-kpeperfi/es/contenidos/poder_adjudicador/poder24596/es_doc/index.html",
      "_links": {
        "self": {
          "name": "AUKERAK - Agencia Vasca de Reinserción Social",
          "href": "https://api.euskadi.eus/procurements/contracting-authorities/24596"
        },
        "contractingAuthorities": [
          {
            "name": "Gobierno Vasco",
            "href": "https://api.euskadi.eus/procurements/contracting-authorities/16135"
          },
          {
            "name": "LANBIDE, Servicio Vasco de Empleo",
            "href": "https://api.euskadi.eus/procurements/contracting-authorities/18951"
          }
        ]
      }
    },
    {
      "id": 25924,
      "identificationNumber": "A02773422",
      "name": "Enargi Araba SA",
      "scope": "ARABA/ÁLAVA",
      "address": "Plaza de la Provincia s/n – 01001 – Vitoria-Gasteiz",
      "webPage": "https://irekia.araba.eus/es/enargi",
      "publicationDate": "2023-03-27",
      "mainActivity": "Otra actividad",
      "alternativeActivity": "Producción y comercialización de energía mediante instalaciones que utilicen fuentes renovables",
      "codNUTS": "ES211",
      "entities": [
        {
          "id": 25925,
          "name": "Enargi Araba SA",
          "orgs": [
            {
              "id": 25926,
              "name": "Consejo de Administración",
              "_links": {
                "self": {
                  "name": "Consejo de Administración",
                  "href": "https://api.euskadi.eus/procurements/contracting-authorities/25924/entities/25925/orgs/25926"
                }
              }
            }
          ],
          "_links": {
            "self": {
              "name": "Enargi Araba SA",
              "href": "https://api.euskadi.eus/procurements/contracting-authorities/25924/entities/25925"
            }
          }
        }
      ],
      "mainEntityOfPage": "https://www.contratacion.euskadi.eus/webkpe00-kpeperfi/es/contenidos/poder_adjudicador/poder25924/es_doc/index.html",
      "_links": {
        "self": {
          "name": "Enargi Araba SA",
          "href": "https://api.euskadi.eus/procurements/contracting-authorities/25924"
        }
      }
    },
    {
      "id": 25916,
      "identificationNumber": "G01115377",
      "name": "Comunidad de Regantes de Izua Elburgo",
      "scope": "ARABA/ÁLAVA",
      "address": "Calle Elburgo",
      "webPage": "http://www.elburgo-burgelu.eus/",
      "publicationDate": "2023-03-24",
      "mainActivity": "Medio ambiente",
      "codNUTS": "ES211",
      "entities": [
        {
          "id": 25917,
          "name": "Comunidad de Regantes de Izua Elburgo",
          "orgs": [
            {
              "id": 25918,
              "name": "Junta Administrativa de Izua Elburgo",
              "_links": {
                "self": {
                  "name": "Junta Administrativa de Izua Elburgo",
                  "href": "https://api.euskadi.eus/procurements/contracting-authorities/25916/entities/25917/orgs/25918"
                }
              }
            }
          ],
          "_links": {
            "self": {
              "name": "Comunidad de Regantes de Izua Elburgo",
              "href": "https://api.euskadi.eus/procurements/contracting-authorities/25916/entities/25917"
            }
          }
        }
      ],
      "mainEntityOfPage": "https://www.contratacion.euskadi.eus/webkpe00-kpeperfi/es/contenidos/poder_adjudicador/poder25916/es_doc/index.html",
      "_links": {
        "self": {
          "name": "Comunidad de Regantes de Izua Elburgo",
          "href": "https://api.euskadi.eus/procurements/contracting-authorities/25916"
        }
      }
    },
    {
      "id": 25902,
      "identificationNumber": "A01126309",
      "name": "OSATEK, S.A.",
      "scope": "BIZKAIA",
      "address": "Alameda de Urquijo, 36 5ª planta. 48011 Bilbao (Bizkaia)",
      "webPage": "https://www.osakidetza.euskadi.eus/servicios-osatek/-/osatek-portada/",
      "publicationDate": "2023-03-23",
      "mainActivity": "Salud",
      "codNUTS": "ES213",
      "entities": [
        {
          "id": 25903,
          "name": "OSATEK, S.A.",
          "orgs": [
            {
              "id": 25904,
              "name": "Director Gerente",
              "_links": {
                "self": {
                  "name": "Director Gerente",
                  "href": "https://api.euskadi.eus/procurements/contracting-authorities/25902/entities/25903/orgs/25904"
                }
              }
            }
          ],
          "_links": {
            "self": {
              "name": "OSATEK, S.A.",
              "href": "https://api.euskadi.eus/procurements/contracting-authorities/25902/entities/25903"
            }
          }
        }
      ],
      "mainEntityOfPage": "https://www.contratacion.euskadi.eus/webkpe00-kpeperfi/es/contenidos/poder_adjudicador/poder25902/es_doc/index.html",
      "_links": {
        "self": {
          "name": "OSATEK, S.A.",
          "href": "https://api.euskadi.eus/procurements/contracting-authorities/25902"
        },
        "contractingAuthorities": [
          {
            "name": "Gobierno Vasco",
            "href": "https://api.euskadi.eus/procurements/contracting-authorities/16135"
          },
          {
            "name": "OSAKIDETZA - Servicio Vasco de Salud ",
            "href": "https://api.euskadi.eus/procurements/contracting-authorities/23204"
          }
        ]
      }
    },
    {
      "id": 25896,
      "identificationNumber": "H95703237",
      "name": "Mancomunidad de Propietarios Santutxu 41bis a 63",
      "scope": "BIZKAIA",
      "address": "Santutxu 41bis -63 48004 - Bilbao (Bizkaia)",
      "webPage": "https://www.bilbao.eus/servlet/Satellite?pagename=PC_PerfilContratante/Page/PC_LicitacionesHome&idioma=cast&c=Page&cid=10045679",
      "publicationDate": "2023-03-20",
      "mainActivity": "Vivienda y servicios comunitarios",
      "codNUTS": "ES213",
      "entities": [
        {
          "id": 25897,
          "name": "Mancomunidad de Propietarios Santutxu 41bis a 63",
          "orgs": [
            {
              "id": 25898,
              "name": "Junta de propietarios",
              "_links": {
                "self": {
                  "name": "Junta de propietarios",
                  "href": "https://api.euskadi.eus/procurements/contracting-authorities/25896/entities/25897/orgs/25898"
                }
              }
            }
          ],
          "_links": {
            "self": {
              "name": "Mancomunidad de Propietarios Santutxu 41bis a 63",
              "href": "https://api.euskadi.eus/procurements/contracting-authorities/25896/entities/25897"
            }
          }
        }
      ],
      "mainEntityOfPage": "https://www.contratacion.euskadi.eus/webkpe00-kpeperfi/es/contenidos/poder_adjudicador/poder25896/es_doc/index.html",
      "_links": {
        "self": {
          "name": "Mancomunidad de Propietarios Santutxu 41bis a 63",
          "href": "https://api.euskadi.eus/procurements/contracting-authorities/25896"
        }
      }
    },
    {
      "id": 25892,
      "identificationNumber": "A95292942",
      "name": "Euskotren Participaciones SAU",
      "scope": "BIZKAIA",
      "address": "Cl. Atxuri,6 48006 Bilbao ",
      "webPage": "https://www.euskotren.eus/",
      "publicationDate": "2023-03-20",
      "mainActivity": "Asuntos económicos y financieros",
      "codNUTS": "ES213",
      "entities": [
        {
          "id": 25893,
          "name": "Euskotren Participaciones SAU",
          "orgs": [
            {
              "id": 25894,
              "name": "Euskotren Participaciones SAU",
              "_links": {
                "self": {
                  "name": "Euskotren Participaciones SAU",
                  "href": "https://api.euskadi.eus/procurements/contracting-authorities/25892/entities/25893/orgs/25894"
                }
              }
            }
          ],
          "_links": {
            "self": {
              "name": "Euskotren Participaciones SAU",
              "href": "https://api.euskadi.eus/procurements/contracting-authorities/25892/entities/25893"
            }
          }
        }
      ],
      "mainEntityOfPage": "https://www.contratacion.euskadi.eus/webkpe00-kpeperfi/es/contenidos/poder_adjudicador/poder25892/es_doc/index.html",
      "_links": {
        "self": {
          "name": "Euskotren Participaciones SAU",
          "href": "https://api.euskadi.eus/procurements/contracting-authorities/25892"
        }
      }
    }
  ]
}