{
  "totalItems": 919,
  "totalPages": 92,
  "currentPage": 72,
  "itemsOfPage": 10,
  "items": [
    {
      "id": 133,
      "identificationNumber": "P2003300G",
      "name": "Ayuntamiento de Elgoibar",
      "scope": "GIPUZKOA",
      "address": "Kalegoen Plaza, z/g. 20870 Elgoibar (Gipuzkoa)  ",
      "webPage": "http://www.elgoibar.eus",
      "publicationDate": "2019-10-03",
      "mainActivity": "Servicios públicos generales",
      "codNUTS": "ES212",
      "entities": [
        {
          "id": 485,
          "name": "Ayuntamiento de Elgoibar",
          "orgs": [
            {
              "id": 911564,
              "name": "Junta de Gobierno Local ",
              "_links": {
                "self": {
                  "name": "Junta de Gobierno Local ",
                  "href": "https://api.euskadi.eus/procurements/contracting-authorities/133/entities/485/orgs/911564"
                }
              }
            },
            {
              "id": 911563,
              "name": "Pleno Municipal ",
              "_links": {
                "self": {
                  "name": "Pleno Municipal ",
                  "href": "https://api.euskadi.eus/procurements/contracting-authorities/133/entities/485/orgs/911563"
                }
              }
            },
            {
              "id": 911565,
              "name": "Alcaldesa ",
              "_links": {
                "self": {
                  "name": "Alcaldesa ",
                  "href": "https://api.euskadi.eus/procurements/contracting-authorities/133/entities/485/orgs/911565"
                }
              }
            }
          ],
          "_links": {
            "self": {
              "name": "Ayuntamiento de Elgoibar",
              "href": "https://api.euskadi.eus/procurements/contracting-authorities/133/entities/485"
            }
          }
        },
        {
          "id": 486,
          "name": "Patronato Municipal de Deportes de Elgoibar",
          "orgs": [
            {
              "id": 911566,
              "name": "Junta Rectora del Patronato Municipal de Deportes",
              "_links": {
                "self": {
                  "name": "Junta Rectora del Patronato Municipal de Deportes",
                  "href": "https://api.euskadi.eus/procurements/contracting-authorities/133/entities/486/orgs/911566"
                }
              }
            },
            {
              "id": 911567,
              "name": "Presidente del Patronato Municipal de Deportes",
              "_links": {
                "self": {
                  "name": "Presidente del Patronato Municipal de Deportes",
                  "href": "https://api.euskadi.eus/procurements/contracting-authorities/133/entities/486/orgs/911567"
                }
              }
            }
          ],
          "_links": {
            "self": {
              "name": "Patronato Municipal de Deportes de Elgoibar",
              "href": "https://api.euskadi.eus/procurements/contracting-authorities/133/entities/486"
            }
          }
        }
      ],
      "mainEntityOfPage": "https://www.contratacion.euskadi.eus/webkpe00-kpeperfi/es/contenidos/poder_adjudicador/poder133/es_doc/es_arch_poder133.html",
      "_links": {
        "self": {
          "name": "Ayuntamiento de Elgoibar",
          "href": "https://api.euskadi.eus/procurements/contracting-authorities/133"
        }
      }
    },
    {
      "id": 134,
      "identificationNumber": "G20960183",
      "name": "Consorcio de Residuos de Gipuzkoa",
      "scope": "GIPUZKOA",
      "address": "Polígono Ibaiondo, 27 (Edif. Orbegozo) 3ª Planta. 20120 Hernani (Gipuzkoa)",
      "webPage": "http://www.ghk.eus",
      "publicationDate": "2019-10-03",
      "mainActivity": "Medio ambiente",
      "codNUTS": "ES212",
      "entities": [
        {
          "id": 487,
          "name": "Consorcio de Residuos de Gipuzkoa",
          "orgs": [
            {
              "id": 911568,
              "name": "Asamblea General del Consorcio de Residuos de Gipuzkoa",
              "_links": {
                "self": {
                  "name": "Asamblea General del Consorcio de Residuos de Gipuzkoa",
                  "href": "https://api.euskadi.eus/procurements/contracting-authorities/134/entities/487/orgs/911568"
                }
              }
            }
          ],
          "_links": {
            "self": {
              "name": "Consorcio de Residuos de Gipuzkoa",
              "href": "https://api.euskadi.eus/procurements/contracting-authorities/134/entities/487"
            }
          }
        }
      ],
      "mainEntityOfPage": "https://www.contratacion.euskadi.eus/webkpe00-kpeperfi/es/contenidos/poder_adjudicador/poder134/es_doc/es_arch_poder134.html",
      "_links": {
        "self": {
          "name": "Consorcio de Residuos de Gipuzkoa",
          "href": "https://api.euskadi.eus/procurements/contracting-authorities/134"
        }
      }
    },
    {
      "id": 135,
      "identificationNumber": "P2003700H",
      "name": "Ayuntamiento de Hondarribia",
      "scope": "GIPUZKOA",
      "address": "Kale Nagusia, 20. 20280 Hondarribia (Gipuzkoa)",
      "webPage": "http://www.hondarribia.eus",
      "publicationDate": "2019-10-03",
      "mainActivity": "Servicios públicos generales",
      "codNUTS": "ES212",
      "entities": [
        {
          "id": 488,
          "name": "Ayuntamiento de Hondarribia",
          "orgs": [
            {
              "id": 911569,
              "name": "Pleno",
              "_links": {
                "self": {
                  "name": "Pleno",
                  "href": "https://api.euskadi.eus/procurements/contracting-authorities/135/entities/488/orgs/911569"
                }
              }
            },
            {
              "id": 911570,
              "name": "Junta Local Gobierno",
              "_links": {
                "self": {
                  "name": "Junta Local Gobierno",
                  "href": "https://api.euskadi.eus/procurements/contracting-authorities/135/entities/488/orgs/911570"
                }
              }
            },
            {
              "id": 911572,
              "name": "Alcaldía",
              "_links": {
                "self": {
                  "name": "Alcaldía",
                  "href": "https://api.euskadi.eus/procurements/contracting-authorities/135/entities/488/orgs/911572"
                }
              }
            }
          ],
          "_links": {
            "self": {
              "name": "Ayuntamiento de Hondarribia",
              "href": "https://api.euskadi.eus/procurements/contracting-authorities/135/entities/488"
            }
          }
        },
        {
          "id": 489,
          "name": "Hondarribia Lantzen, S.A.",
          "orgs": [
            {
              "id": 912836,
              "name": "Junta universal de accionistas",
              "_links": {
                "self": {
                  "name": "Junta universal de accionistas",
                  "href": "https://api.euskadi.eus/procurements/contracting-authorities/135/entities/489/orgs/912836"
                }
              }
            },
            {
              "id": 911571,
              "name": "Consejo de Administración",
              "_links": {
                "self": {
                  "name": "Consejo de Administración",
                  "href": "https://api.euskadi.eus/procurements/contracting-authorities/135/entities/489/orgs/911571"
                }
              }
            }
          ],
          "_links": {
            "self": {
              "name": "Hondarribia Lantzen, S.A.",
              "href": "https://api.euskadi.eus/procurements/contracting-authorities/135/entities/489"
            }
          }
        }
      ],
      "mainEntityOfPage": "https://www.contratacion.euskadi.eus/webkpe00-kpeperfi/es/contenidos/poder_adjudicador/poder135/es_doc/es_arch_poder135.html",
      "_links": {
        "self": {
          "name": "Ayuntamiento de Hondarribia",
          "href": "https://api.euskadi.eus/procurements/contracting-authorities/135"
        }
      }
    },
    {
      "id": 162,
      "identificationNumber": "Q2000553D",
      "name": "DonostiaTIK",
      "scope": "GIPUZKOA",
      "address": "Txomin Agirre, 6. 20018 Donostia/San Sebastián (Gipuzkoa) ",
      "webPage": "http://donostia.eus",
      "publicationDate": "2019-10-03",
      "mainActivity": "Otra actividad",
      "alternativeActivity": "TICs",
      "codNUTS": "ES212",
      "CPV": [
        {
          "name": "Servicios TI: consultoría, desarrollo de software, Internet y apoyo"
        }
      ],
      "entities": [
        {
          "id": 557,
          "name": "DonostiaTIK",
          "orgs": [
            {
              "id": 911779,
              "name": "Gerente",
              "_links": {
                "self": {
                  "name": "Gerente",
                  "href": "https://api.euskadi.eus/procurements/contracting-authorities/162/entities/557/orgs/911779"
                }
              }
            },
            {
              "id": 911778,
              "name": "Consejo Rector",
              "_links": {
                "self": {
                  "name": "Consejo Rector",
                  "href": "https://api.euskadi.eus/procurements/contracting-authorities/162/entities/557/orgs/911778"
                }
              }
            }
          ],
          "_links": {
            "self": {
              "name": "DonostiaTIK",
              "href": "https://api.euskadi.eus/procurements/contracting-authorities/162/entities/557"
            }
          }
        }
      ],
      "mainEntityOfPage": "https://www.contratacion.euskadi.eus/webkpe00-kpeperfi/es/contenidos/poder_adjudicador/poder162/es_doc/es_arch_poder162.html",
      "_links": {
        "self": {
          "name": "DonostiaTIK",
          "href": "https://api.euskadi.eus/procurements/contracting-authorities/162"
        },
        "contractingAuthorities": [
          {
            "name": "Ayuntamiento de Donostia/San Sebastián",
            "href": "https://api.euskadi.eus/procurements/contracting-authorities/16941"
          },
          {
            "name": "Ciudad Deportiva Anoeta, S.A.",
            "href": "https://api.euskadi.eus/procurements/contracting-authorities/20267"
          },
          {
            "name": "Donostia Kultura",
            "href": "https://api.euskadi.eus/procurements/contracting-authorities/17567"
          },
          {
            "name": "Entidad Pública Empresarial de Vivienda, Donostiako Etxegintza",
            "href": "https://api.euskadi.eus/procurements/contracting-authorities/18439"
          },
          {
            "name": "Escuela Municipal de Música y Danza de Donostia",
            "href": "https://api.euskadi.eus/procurements/contracting-authorities/17580"
          },
          {
            "name": "Fundación Cristina Enea",
            "href": "https://api.euskadi.eus/procurements/contracting-authorities/17650"
          },
          {
            "name": "Patronato Municipal de Deportes de Donostia/San Sebastián",
            "href": "https://api.euskadi.eus/procurements/contracting-authorities/17481"
          },
          {
            "name": "Servicios Funerarios Donostia-San Sebastián, S.A.",
            "href": "https://api.euskadi.eus/procurements/contracting-authorities/16934"
          },
          {
            "name": "Sociedad Fomento de San Sebastián, S.A.",
            "href": "https://api.euskadi.eus/procurements/contracting-authorities/17427"
          }
        ]
      }
    },
    {
      "id": 165,
      "identificationNumber": "Q2000541I",
      "name": "Donostia Kultura",
      "scope": "GIPUZKOA",
      "address": "Reina Regente, 8. 20003 Donostia/San Sebastián (Gipuzkoa)",
      "webPage": "http://www.donostiakultura.eus",
      "publicationDate": "2019-10-03",
      "mainActivity": "Ocio, cultura y religión",
      "codNUTS": "ES212",
      "entities": [
        {
          "id": 560,
          "name": "Donostia Kultura",
          "orgs": [
            {
              "id": 911782,
              "name": "Director gerente ",
              "_links": {
                "self": {
                  "name": "Director gerente ",
                  "href": "https://api.euskadi.eus/procurements/contracting-authorities/165/entities/560/orgs/911782"
                }
              }
            },
            {
              "id": 912833,
              "name": "Concejal delegado de Cultura y Euskara ",
              "_links": {
                "self": {
                  "name": "Concejal delegado de Cultura y Euskara ",
                  "href": "https://api.euskadi.eus/procurements/contracting-authorities/165/entities/560/orgs/912833"
                }
              }
            }
          ],
          "_links": {
            "self": {
              "name": "Donostia Kultura",
              "href": "https://api.euskadi.eus/procurements/contracting-authorities/165/entities/560"
            }
          }
        },
        {
          "id": 561,
          "name": "Victoria Eugenia Antzokia ",
          "orgs": [
            {
              "id": 911784,
              "name": "Gerente",
              "_links": {
                "self": {
                  "name": "Gerente",
                  "href": "https://api.euskadi.eus/procurements/contracting-authorities/165/entities/561/orgs/911784"
                }
              }
            },
            {
              "id": 912835,
              "name": "Concejal delegado de Cultura y Euskara",
              "_links": {
                "self": {
                  "name": "Concejal delegado de Cultura y Euskara",
                  "href": "https://api.euskadi.eus/procurements/contracting-authorities/165/entities/561/orgs/912835"
                }
              }
            }
          ],
          "_links": {
            "self": {
              "name": "Victoria Eugenia Antzokia ",
              "href": "https://api.euskadi.eus/procurements/contracting-authorities/165/entities/561"
            }
          }
        },
        {
          "id": 562,
          "name": "San Telmo Museoa",
          "orgs": [
            {
              "id": 911786,
              "name": "Gerente",
              "_links": {
                "self": {
                  "name": "Gerente",
                  "href": "https://api.euskadi.eus/procurements/contracting-authorities/165/entities/562/orgs/911786"
                }
              }
            },
            {
              "id": 912834,
              "name": "Concejal delegado de Cultura y Euskara",
              "_links": {
                "self": {
                  "name": "Concejal delegado de Cultura y Euskara",
                  "href": "https://api.euskadi.eus/procurements/contracting-authorities/165/entities/562/orgs/912834"
                }
              }
            }
          ],
          "_links": {
            "self": {
              "name": "San Telmo Museoa",
              "href": "https://api.euskadi.eus/procurements/contracting-authorities/165/entities/562"
            }
          }
        }
      ],
      "mainEntityOfPage": "https://www.contratacion.euskadi.eus/webkpe00-kpeperfi/es/contenidos/poder_adjudicador/poder165/es_doc/es_arch_poder165.html",
      "_links": {
        "self": {
          "name": "Donostia Kultura",
          "href": "https://api.euskadi.eus/procurements/contracting-authorities/165"
        }
      }
    },
    {
      "id": 166,
      "identificationNumber": "Q2000543E",
      "name": "Escuela Municipal de Música y Danza de Donostia",
      "scope": "GIPUZKOA",
      "address": "Atotxako zelaia plaza, 3. 20012 Donostia/San Sebastián (Gipuzkoa)",
      "webPage": "http://www.donostiaeskola.eus",
      "publicationDate": "2019-10-03",
      "mainActivity": "Ocio, cultura y religión",
      "codNUTS": "ES212",
      "entities": [
        {
          "id": 572,
          "name": "Escuela Municipal de Música y Danza de Donostia",
          "orgs": [
            {
              "id": 911791,
              "name": "Gerente",
              "_links": {
                "self": {
                  "name": "Gerente",
                  "href": "https://api.euskadi.eus/procurements/contracting-authorities/166/entities/572/orgs/911791"
                }
              }
            },
            {
              "id": 911792,
              "name": "Consejo rector",
              "_links": {
                "self": {
                  "name": "Consejo rector",
                  "href": "https://api.euskadi.eus/procurements/contracting-authorities/166/entities/572/orgs/911792"
                }
              }
            }
          ],
          "_links": {
            "self": {
              "name": "Escuela Municipal de Música y Danza de Donostia",
              "href": "https://api.euskadi.eus/procurements/contracting-authorities/166/entities/572"
            }
          }
        }
      ],
      "mainEntityOfPage": "https://www.contratacion.euskadi.eus/webkpe00-kpeperfi/es/contenidos/poder_adjudicador/poder166/es_doc/es_arch_poder166.html",
      "_links": {
        "self": {
          "name": "Escuela Municipal de Música y Danza de Donostia",
          "href": "https://api.euskadi.eus/procurements/contracting-authorities/166"
        }
      }
    },
    {
      "id": 169,
      "identificationNumber": "Q2000542G",
      "name": "Patronato Municipal de Deportes de Donostia/San Sebastián",
      "scope": "GIPUZKOA",
      "address": "Paseo de Anoeta, 18. 20014 Donostia/San Sebastián (Gipzukoa)",
      "webPage": "http://www.donostia.eus",
      "publicationDate": "2019-10-03",
      "mainActivity": "Ocio, cultura y religión",
      "codNUTS": "ES212",
      "entities": [
        {
          "id": 597,
          "name": "Patronato Municipal de Deportes de Donostia/San Sebastián",
          "orgs": [
            {
              "id": 911882,
              "name": "Gerencia",
              "_links": {
                "self": {
                  "name": "Gerencia",
                  "href": "https://api.euskadi.eus/procurements/contracting-authorities/169/entities/597/orgs/911882"
                }
              }
            },
            {
              "id": 912531,
              "name": "Concejal Delegado de Deportes y Juventud",
              "_links": {
                "self": {
                  "name": "Concejal Delegado de Deportes y Juventud",
                  "href": "https://api.euskadi.eus/procurements/contracting-authorities/169/entities/597/orgs/912531"
                }
              }
            },
            {
              "id": 912532,
              "name": "Consejo Rector",
              "_links": {
                "self": {
                  "name": "Consejo Rector",
                  "href": "https://api.euskadi.eus/procurements/contracting-authorities/169/entities/597/orgs/912532"
                }
              }
            }
          ],
          "_links": {
            "self": {
              "name": "Patronato Municipal de Deportes de Donostia/San Sebastián",
              "href": "https://api.euskadi.eus/procurements/contracting-authorities/169/entities/597"
            }
          }
        }
      ],
      "mainEntityOfPage": "https://www.contratacion.euskadi.eus/webkpe00-kpeperfi/es/contenidos/poder_adjudicador/poder169/es_doc/es_arch_poder169.html",
      "_links": {
        "self": {
          "name": "Patronato Municipal de Deportes de Donostia/San Sebastián",
          "href": "https://api.euskadi.eus/procurements/contracting-authorities/169"
        }
      }
    },
    {
      "id": 209,
      "identificationNumber": "G20854410",
      "name": "Fundación Filmoteca Vasca",
      "scope": "GIPUZKOA",
      "address": "Tabakalera, Plaza de las Cigarreras, 1 (2ª planta) 20012 Donostia(Gipuzkoa)",
      "webPage": "http://www.filmotecavasca.com",
      "publicationDate": "2019-10-03",
      "mainActivity": "Ocio, cultura y religión",
      "codNUTS": "ES212",
      "entities": [
        {
          "id": 657,
          "name": "Filmoteca Vasca",
          "orgs": [
            {
              "id": 912038,
              "name": "Director",
              "_links": {
                "self": {
                  "name": "Director",
                  "href": "https://api.euskadi.eus/procurements/contracting-authorities/209/entities/657/orgs/912038"
                }
              }
            },
            {
              "id": 912143,
              "name": "Patronato de la Fundación",
              "_links": {
                "self": {
                  "name": "Patronato de la Fundación",
                  "href": "https://api.euskadi.eus/procurements/contracting-authorities/209/entities/657/orgs/912143"
                }
              }
            }
          ],
          "_links": {
            "self": {
              "name": "Filmoteca Vasca",
              "href": "https://api.euskadi.eus/procurements/contracting-authorities/209/entities/657"
            }
          }
        }
      ],
      "mainEntityOfPage": "https://www.contratacion.euskadi.eus/webkpe00-kpeperfi/es/contenidos/poder_adjudicador/poder209/es_doc/es_arch_poder209.html",
      "_links": {
        "self": {
          "name": "Fundación Filmoteca Vasca",
          "href": "https://api.euskadi.eus/procurements/contracting-authorities/209"
        }
      }
    },
    {
      "id": 228,
      "identificationNumber": "P2000025C",
      "name": "Mancomunidad Bideberri",
      "scope": "GIPUZKOA",
      "address": "Herriko Plaza, 8. 20577 Antzuola (Gipuzkoa)",
      "webPage": "http://www.antzuola.com",
      "publicationDate": "2019-10-03",
      "mainActivity": "Protección social",
      "codNUTS": "ES212",
      "entities": [
        {
          "id": 675,
          "name": "Mancomunidad Bideberri",
          "orgs": [
            {
              "id": 912070,
              "name": "Junta de Gobierno",
              "_links": {
                "self": {
                  "name": "Junta de Gobierno",
                  "href": "https://api.euskadi.eus/procurements/contracting-authorities/228/entities/675/orgs/912070"
                }
              }
            },
            {
              "id": 912069,
              "name": "Presidente-Presidenta",
              "_links": {
                "self": {
                  "name": "Presidente-Presidenta",
                  "href": "https://api.euskadi.eus/procurements/contracting-authorities/228/entities/675/orgs/912069"
                }
              }
            }
          ],
          "_links": {
            "self": {
              "name": "Mancomunidad Bideberri",
              "href": "https://api.euskadi.eus/procurements/contracting-authorities/228/entities/675"
            }
          }
        }
      ],
      "mainEntityOfPage": "https://www.contratacion.euskadi.eus/webkpe00-kpeperfi/es/contenidos/poder_adjudicador/poder228/es_doc/es_arch_poder228.html",
      "_links": {
        "self": {
          "name": "Mancomunidad Bideberri",
          "href": "https://api.euskadi.eus/procurements/contracting-authorities/228"
        }
      }
    },
    {
      "id": 239,
      "identificationNumber": "Q7050001B",
      "name": "Fundación Uliazpi",
      "scope": "GIPUZKOA",
      "address": "Oihenart Kalea, 2, 20018 Donostia",
      "webPage": "http://www.uliazpi.eus",
      "publicationDate": "2019-10-03",
      "mainActivity": "Protección social",
      "codNUTS": "ES212",
      "entities": [
        {
          "id": 687,
          "name": "Fundación Uliazpi",
          "orgs": [
            {
              "id": 912088,
              "name": "Vicepresidente",
              "_links": {
                "self": {
                  "name": "Vicepresidente",
                  "href": "https://api.euskadi.eus/procurements/contracting-authorities/239/entities/687/orgs/912088"
                }
              }
            },
            {
              "id": 912086,
              "name": "Junta de Gobierno",
              "_links": {
                "self": {
                  "name": "Junta de Gobierno",
                  "href": "https://api.euskadi.eus/procurements/contracting-authorities/239/entities/687/orgs/912086"
                }
              }
            },
            {
              "id": 912087,
              "name": "Presidente",
              "_links": {
                "self": {
                  "name": "Presidente",
                  "href": "https://api.euskadi.eus/procurements/contracting-authorities/239/entities/687/orgs/912087"
                }
              }
            }
          ],
          "_links": {
            "self": {
              "name": "Fundación Uliazpi",
              "href": "https://api.euskadi.eus/procurements/contracting-authorities/239/entities/687"
            }
          }
        }
      ],
      "mainEntityOfPage": "https://www.contratacion.euskadi.eus/webkpe00-kpeperfi/es/contenidos/poder_adjudicador/poder239/es_doc/es_arch_poder239.html",
      "_links": {
        "self": {
          "name": "Fundación Uliazpi",
          "href": "https://api.euskadi.eus/procurements/contracting-authorities/239"
        }
      }
    }
  ]
}