{
  "totalItems": 919,
  "totalPages": 92,
  "currentPage": 88,
  "itemsOfPage": 10,
  "items": [
    {
      "id": 539,
      "identificationNumber": "P0100107B",
      "name": "Junta Administrativa de Quintanilla de la Ribera",
      "scope": "ARABA/ÁLAVA",
      "address": "La Fuente,10. 01213 Quintanilla de la Ribera. Ribera Baja (Araba/Álava) ",
      "webPage": "https://www.contratacion.euskadi.eus/inicio/",
      "publicationDate": "2018-08-17",
      "mainActivity": "Servicios públicos generales",
      "codNUTS": "ES211",
      "entities": [
        {
          "id": 989,
          "name": "Junta Administrativa de Quintanilla de la Ribera",
          "orgs": [
            {
              "id": 912637,
              "name": "Junta Administrativa de Quintanilla de la Ribera",
              "_links": {
                "self": {
                  "name": "Junta Administrativa de Quintanilla de la Ribera",
                  "href": "https://api.euskadi.eus/procurements/contracting-authorities/539/entities/989/orgs/912637"
                }
              }
            }
          ],
          "_links": {
            "self": {
              "name": "Junta Administrativa de Quintanilla de la Ribera",
              "href": "https://api.euskadi.eus/procurements/contracting-authorities/539/entities/989"
            }
          }
        }
      ],
      "mainEntityOfPage": "https://www.contratacion.euskadi.eus/webkpe00-kpeperfi/es/contenidos/poder_adjudicador/poder539/es_doc/es_arch_poder539.html",
      "_links": {
        "self": {
          "name": "Junta Administrativa de Quintanilla de la Ribera",
          "href": "https://api.euskadi.eus/procurements/contracting-authorities/539"
        }
      }
    },
    {
      "id": 528,
      "identificationNumber": "P0100054F",
      "name": "Junta Administrativa de Bergüenda",
      "scope": "ARABA/ÁLAVA",
      "address": "Calle la fuente 3. 01423 Bergüenda (Araba/Álava)",
      "webPage": "http://www.contratacion.euskadi.eus",
      "publicationDate": "2018-08-16",
      "mainActivity": "Servicios públicos generales",
      "codNUTS": "ES211",
      "entities": [
        {
          "id": 978,
          "name": "Junta Administrativa de Bergüenda",
          "orgs": [
            {
              "id": 912622,
              "name": "Presidente de Junta",
              "_links": {
                "self": {
                  "name": "Presidente de Junta",
                  "href": "https://api.euskadi.eus/procurements/contracting-authorities/528/entities/978/orgs/912622"
                }
              }
            }
          ],
          "_links": {
            "self": {
              "name": "Junta Administrativa de Bergüenda",
              "href": "https://api.euskadi.eus/procurements/contracting-authorities/528/entities/978"
            }
          }
        }
      ],
      "mainEntityOfPage": "https://www.contratacion.euskadi.eus/webkpe00-kpeperfi/es/contenidos/poder_adjudicador/poder528/es_doc/es_arch_poder528.html",
      "_links": {
        "self": {
          "name": "Junta Administrativa de Bergüenda",
          "href": "https://api.euskadi.eus/procurements/contracting-authorities/528"
        }
      }
    },
    {
      "id": 531,
      "identificationNumber": "P0100171H",
      "name": "Junta Administrativa de Etxegoien",
      "scope": "ARABA/ÁLAVA",
      "address": "Paseo Babio 12. 01470 Etxegoien, Aiara (Álava/Araba)",
      "webPage": "http://www.contratacion.euskadi.eus",
      "publicationDate": "2018-08-07",
      "mainActivity": "Servicios públicos generales",
      "codNUTS": "ES211",
      "entities": [
        {
          "id": 981,
          "name": "Junta Administrativa de Etxegoien",
          "orgs": [
            {
              "id": 912627,
              "name": "Junta Administrativa",
              "_links": {
                "self": {
                  "name": "Junta Administrativa",
                  "href": "https://api.euskadi.eus/procurements/contracting-authorities/531/entities/981/orgs/912627"
                }
              }
            }
          ],
          "_links": {
            "self": {
              "name": "Junta Administrativa de Etxegoien",
              "href": "https://api.euskadi.eus/procurements/contracting-authorities/531/entities/981"
            }
          }
        }
      ],
      "mainEntityOfPage": "https://www.contratacion.euskadi.eus/webkpe00-kpeperfi/es/contenidos/poder_adjudicador/poder531/es_doc/es_arch_poder531.html",
      "_links": {
        "self": {
          "name": "Junta Administrativa de Etxegoien",
          "href": "https://api.euskadi.eus/procurements/contracting-authorities/531"
        }
      }
    },
    {
      "id": 533,
      "identificationNumber": "P0100377A",
      "name": "Consorcio de Aguas Mendi-Haran",
      "scope": "ARABA/ÁLAVA",
      "address": "Alava, 2. 01420 POBES (Álava/Araba) ",
      "webPage": "http://mendiharanurkidetza.eus/eu/",
      "publicationDate": "2018-08-07",
      "mainActivity": "Servicios públicos generales",
      "codNUTS": "ES211",
      "entities": [
        {
          "id": 983,
          "name": "Consorcio de Aguas Mendi-Haran",
          "orgs": [
            {
              "id": 912629,
              "name": "Junta de Gobierno",
              "_links": {
                "self": {
                  "name": "Junta de Gobierno",
                  "href": "https://api.euskadi.eus/procurements/contracting-authorities/533/entities/983/orgs/912629"
                }
              }
            }
          ],
          "_links": {
            "self": {
              "name": "Consorcio de Aguas Mendi-Haran",
              "href": "https://api.euskadi.eus/procurements/contracting-authorities/533/entities/983"
            }
          }
        }
      ],
      "mainEntityOfPage": "https://www.contratacion.euskadi.eus/webkpe00-kpeperfi/es/contenidos/poder_adjudicador/poder533/es_doc/es_arch_poder533.html",
      "_links": {
        "self": {
          "name": "Consorcio de Aguas Mendi-Haran",
          "href": "https://api.euskadi.eus/procurements/contracting-authorities/533"
        }
      }
    },
    {
      "id": 530,
      "identificationNumber": "P0100172F",
      "name": "Junta Administrativa de Erbi",
      "scope": "ARABA/ÁLAVA",
      "address": "Erbi. 01477 Aiara (Álava/Araba)",
      "webPage": "http://www.contratacion.euskadi.eus",
      "publicationDate": "2018-08-02",
      "mainActivity": "Servicios públicos generales",
      "codNUTS": "ES211",
      "entities": [
        {
          "id": 980,
          "name": "Junta Administrativa de Erbi",
          "orgs": [
            {
              "id": 912626,
              "name": "Junta Administrativa",
              "_links": {
                "self": {
                  "name": "Junta Administrativa",
                  "href": "https://api.euskadi.eus/procurements/contracting-authorities/530/entities/980/orgs/912626"
                }
              }
            }
          ],
          "_links": {
            "self": {
              "name": "Junta Administrativa de Erbi",
              "href": "https://api.euskadi.eus/procurements/contracting-authorities/530/entities/980"
            }
          }
        }
      ],
      "mainEntityOfPage": "https://www.contratacion.euskadi.eus/webkpe00-kpeperfi/es/contenidos/poder_adjudicador/poder530/es_doc/es_arch_poder530.html",
      "_links": {
        "self": {
          "name": "Junta Administrativa de Erbi",
          "href": "https://api.euskadi.eus/procurements/contracting-authorities/530"
        }
      }
    },
    {
      "id": 523,
      "identificationNumber": "P0100253D",
      "name": "Junta Administrativa de Durana",
      "scope": "ARABA/ÁLAVA",
      "address": "La Landa, 2. 01520 Durana. Arratsua-Ubarrundia. (Araba/Álava)",
      "webPage": "http://www.contratacion.euskadi.eus",
      "publicationDate": "2018-07-30",
      "mainActivity": "Servicios públicos generales",
      "codNUTS": "ES211",
      "entities": [
        {
          "id": 973,
          "name": "Junta Administrativa de Durana",
          "orgs": [
            {
              "id": 912611,
              "name": "Asamblea Vecinal",
              "_links": {
                "self": {
                  "name": "Asamblea Vecinal",
                  "href": "https://api.euskadi.eus/procurements/contracting-authorities/523/entities/973/orgs/912611"
                }
              }
            },
            {
              "id": 912612,
              "name": "Regidor presidente",
              "_links": {
                "self": {
                  "name": "Regidor presidente",
                  "href": "https://api.euskadi.eus/procurements/contracting-authorities/523/entities/973/orgs/912612"
                }
              }
            }
          ],
          "_links": {
            "self": {
              "name": "Junta Administrativa de Durana",
              "href": "https://api.euskadi.eus/procurements/contracting-authorities/523/entities/973"
            }
          }
        }
      ],
      "mainEntityOfPage": "https://www.contratacion.euskadi.eus/webkpe00-kpeperfi/es/contenidos/poder_adjudicador/poder523/es_doc/es_arch_poder523.html",
      "_links": {
        "self": {
          "name": "Junta Administrativa de Durana",
          "href": "https://api.euskadi.eus/procurements/contracting-authorities/523"
        }
      }
    },
    {
      "id": 529,
      "identificationNumber": "P5100006E",
      "name": "Cuadrilla de Añana",
      "scope": "ARABA/ÁLAVA",
      "address": "Pza. de los Fueros, 11. 01213 Rivabellosa (Araba/Álava)",
      "webPage": "http://www.cuadrilladeanana.es/es/ ",
      "publicationDate": "2018-07-30",
      "mainActivity": "Servicios públicos generales",
      "codNUTS": "ES211",
      "entities": [
        {
          "id": 979,
          "name": "Cuadrilla de Añana",
          "orgs": [
            {
              "id": 912624,
              "name": "Junta",
              "_links": {
                "self": {
                  "name": "Junta",
                  "href": "https://api.euskadi.eus/procurements/contracting-authorities/529/entities/979/orgs/912624"
                }
              }
            },
            {
              "id": 912625,
              "name": "Presidente",
              "_links": {
                "self": {
                  "name": "Presidente",
                  "href": "https://api.euskadi.eus/procurements/contracting-authorities/529/entities/979/orgs/912625"
                }
              }
            }
          ],
          "_links": {
            "self": {
              "name": "Cuadrilla de Añana",
              "href": "https://api.euskadi.eus/procurements/contracting-authorities/529/entities/979"
            }
          }
        }
      ],
      "mainEntityOfPage": "https://www.contratacion.euskadi.eus/webkpe00-kpeperfi/es/contenidos/poder_adjudicador/poder529/es_doc/es_arch_poder529.html",
      "_links": {
        "self": {
          "name": "Cuadrilla de Añana",
          "href": "https://api.euskadi.eus/procurements/contracting-authorities/529"
        }
      }
    },
    {
      "id": 521,
      "identificationNumber": "P0100242G",
      "name": "Junta Administrativa de Urarte",
      "scope": "ARABA/ÁLAVA",
      "address": "Real, 31. 01216 Urarte (Araba/Álava)",
      "webPage": "http://www.contratacion.euskadi.eus",
      "publicationDate": "2018-07-18",
      "mainActivity": "Servicios públicos generales",
      "codNUTS": "ES211",
      "entities": [
        {
          "id": 971,
          "name": "Junta Administrativa de Urarte",
          "orgs": [
            {
              "id": 912608,
              "name": "Presidente",
              "_links": {
                "self": {
                  "name": "Presidente",
                  "href": "https://api.euskadi.eus/procurements/contracting-authorities/521/entities/971/orgs/912608"
                }
              }
            }
          ],
          "_links": {
            "self": {
              "name": "Junta Administrativa de Urarte",
              "href": "https://api.euskadi.eus/procurements/contracting-authorities/521/entities/971"
            }
          }
        }
      ],
      "mainEntityOfPage": "https://www.contratacion.euskadi.eus/webkpe00-kpeperfi/es/contenidos/poder_adjudicador/poder521/es_doc/es_arch_poder521.html",
      "_links": {
        "self": {
          "name": "Junta Administrativa de Urarte",
          "href": "https://api.euskadi.eus/procurements/contracting-authorities/521"
        }
      }
    },
    {
      "id": 506,
      "identificationNumber": "G01029503",
      "name": "EUDEL-Asociación de Municipios Vascos",
      "scope": "CAPV",
      "address": "Plaza del Ensanche, 5. 48009. Bilbao (Bizkaia)",
      "webPage": "http://www.eudel.eus",
      "publicationDate": "2018-07-13",
      "mainActivity": "Servicios públicos generales",
      "codNUTS": "ES21",
      "entities": [
        {
          "id": 955,
          "name": "EUDEL",
          "orgs": [
            {
              "id": 912584,
              "name": "Director/a",
              "_links": {
                "self": {
                  "name": "Director/a",
                  "href": "https://api.euskadi.eus/procurements/contracting-authorities/506/entities/955/orgs/912584"
                }
              }
            },
            {
              "id": 912585,
              "name": "Presidente",
              "_links": {
                "self": {
                  "name": "Presidente",
                  "href": "https://api.euskadi.eus/procurements/contracting-authorities/506/entities/955/orgs/912585"
                }
              }
            },
            {
              "id": 912586,
              "name": "Comisión Ejecutiva",
              "_links": {
                "self": {
                  "name": "Comisión Ejecutiva",
                  "href": "https://api.euskadi.eus/procurements/contracting-authorities/506/entities/955/orgs/912586"
                }
              }
            }
          ],
          "_links": {
            "self": {
              "name": "EUDEL",
              "href": "https://api.euskadi.eus/procurements/contracting-authorities/506/entities/955"
            }
          }
        }
      ],
      "mainEntityOfPage": "https://www.contratacion.euskadi.eus/webkpe00-kpeperfi/es/contenidos/poder_adjudicador/poder506/es_doc/es_arch_poder506.html",
      "_links": {
        "self": {
          "name": "EUDEL-Asociación de Municipios Vascos",
          "href": "https://api.euskadi.eus/procurements/contracting-authorities/506"
        }
      }
    },
    {
      "id": 508,
      "identificationNumber": "P0100306J",
      "name": "Junta Administrativa de Villodas",
      "scope": "ARABA/ÁLAVA",
      "address": "La Plaza,22. 01195. Villodas. Iruña de Oca (Araba/Álava)",
      "webPage": "http://www.contratacion.euscadi.eus",
      "publicationDate": "2018-07-13",
      "mainActivity": "Servicios públicos generales",
      "codNUTS": "ES211",
      "entities": [
        {
          "id": 957,
          "name": "Junta Administrativa de Villodas",
          "orgs": [
            {
              "id": 912589,
              "name": "Pleno",
              "_links": {
                "self": {
                  "name": "Pleno",
                  "href": "https://api.euskadi.eus/procurements/contracting-authorities/508/entities/957/orgs/912589"
                }
              }
            }
          ],
          "_links": {
            "self": {
              "name": "Junta Administrativa de Villodas",
              "href": "https://api.euskadi.eus/procurements/contracting-authorities/508/entities/957"
            }
          }
        }
      ],
      "mainEntityOfPage": "https://www.contratacion.euskadi.eus/webkpe00-kpeperfi/es/contenidos/poder_adjudicador/poder508/es_doc/es_arch_poder508.html",
      "_links": {
        "self": {
          "name": "Junta Administrativa de Villodas",
          "href": "https://api.euskadi.eus/procurements/contracting-authorities/508"
        }
      }
    }
  ]
}