{
  "totalItems": 919,
  "totalPages": 92,
  "currentPage": 41,
  "itemsOfPage": 10,
  "items": [
    {
      "id": 704,
      "identificationNumber": "A48897508",
      "name": "Centro de Desarrollo Empresarial Margen Izquierda, S.A.",
      "scope": "BIZKAIA",
      "address": "Avda Altos Hornos de Vizcaya, 33. 48901 Barakaldo (Bizkaia)",
      "webPage": "http://bicezkerraldea.eus/",
      "publicationDate": "2019-10-22",
      "mainActivity": "Otra actividad",
      "alternativeActivity": "Promoción empresarial",
      "codNUTS": "ES213",
      "entities": [
        {
          "id": 1180,
          "name": "Centro de Desarrollo Empresarial Margen Izquierda, S.A.",
          "orgs": [
            {
              "id": 913557,
              "name": "Director Gerente",
              "_links": {
                "self": {
                  "name": "Director Gerente",
                  "href": "https://api.euskadi.eus/procurements/contracting-authorities/704/entities/1180/orgs/913557"
                }
              }
            },
            {
              "id": 913559,
              "name": "Consejo Administración",
              "_links": {
                "self": {
                  "name": "Consejo Administración",
                  "href": "https://api.euskadi.eus/procurements/contracting-authorities/704/entities/1180/orgs/913559"
                }
              }
            },
            {
              "id": 913558,
              "name": "Mancomunado Director Gerente y Presidente del Consejo Administración ",
              "_links": {
                "self": {
                  "name": "Mancomunado Director Gerente y Presidente del Consejo Administración ",
                  "href": "https://api.euskadi.eus/procurements/contracting-authorities/704/entities/1180/orgs/913558"
                }
              }
            }
          ],
          "_links": {
            "self": {
              "name": "Centro de Desarrollo Empresarial Margen Izquierda, S.A.",
              "href": "https://api.euskadi.eus/procurements/contracting-authorities/704/entities/1180"
            }
          }
        }
      ],
      "mainEntityOfPage": "https://www.contratacion.euskadi.eus/webkpe00-kpeperfi/es/contenidos/poder_adjudicador/poder704/es_doc/es_arch_poder704.html",
      "_links": {
        "self": {
          "name": "Centro de Desarrollo Empresarial Margen Izquierda, S.A.",
          "href": "https://api.euskadi.eus/procurements/contracting-authorities/704"
        }
      }
    },
    {
      "id": 703,
      "identificationNumber": "P0100251H",
      "name": "Junta Administrativa de Berganzo",
      "scope": "ARABA/ÁLAVA",
      "address": "Real, 24. Berganzo 01212 Zambrana (Araba/Álava)",
      "webPage": "http://www.contratacion.euskedi.eus",
      "publicationDate": "2019-10-16",
      "mainActivity": "Servicios públicos generales",
      "codNUTS": "ES211",
      "entities": [
        {
          "id": 1179,
          "name": "Junta Administrativa de Berganzo",
          "orgs": [
            {
              "id": 913556,
              "name": "Concejo de Berganzo",
              "_links": {
                "self": {
                  "name": "Concejo de Berganzo",
                  "href": "https://api.euskadi.eus/procurements/contracting-authorities/703/entities/1179/orgs/913556"
                }
              }
            }
          ],
          "_links": {
            "self": {
              "name": "Junta Administrativa de Berganzo",
              "href": "https://api.euskadi.eus/procurements/contracting-authorities/703/entities/1179"
            }
          }
        }
      ],
      "mainEntityOfPage": "https://www.contratacion.euskadi.eus/webkpe00-kpeperfi/es/contenidos/poder_adjudicador/poder703/es_doc/es_arch_poder703.html",
      "_links": {
        "self": {
          "name": "Junta Administrativa de Berganzo",
          "href": "https://api.euskadi.eus/procurements/contracting-authorities/703"
        }
      }
    },
    {
      "id": 702,
      "identificationNumber": "V75207407",
      "name": "Junta de Concertación de la UE AIU 48 Illarramendi del PGOU de Andoain",
      "scope": "GIPUZKOA",
      "address": "Bazkardo Plaza, 6. 20140 Andoain (Gipuzkoa)",
      "webPage": "http://www.contratacion.euskadi.eus",
      "publicationDate": "2019-10-14",
      "mainActivity": "Vivienda y servicios comunitarios",
      "codNUTS": "ES212",
      "entities": [
        {
          "id": 1178,
          "name": "Junta de Concertación de la UE AIU 48 Illarramendi del PGOU de Andoain",
          "orgs": [
            {
              "id": 913555,
              "name": "Asamblea General",
              "_links": {
                "self": {
                  "name": "Asamblea General",
                  "href": "https://api.euskadi.eus/procurements/contracting-authorities/702/entities/1178/orgs/913555"
                }
              }
            }
          ],
          "_links": {
            "self": {
              "name": "Junta de Concertación de la UE AIU 48 Illarramendi del PGOU de Andoain",
              "href": "https://api.euskadi.eus/procurements/contracting-authorities/702/entities/1178"
            }
          }
        }
      ],
      "mainEntityOfPage": "https://www.contratacion.euskadi.eus/webkpe00-kpeperfi/es/contenidos/poder_adjudicador/poder702/es_doc/es_arch_poder702.html",
      "_links": {
        "self": {
          "name": "Junta de Concertación de la UE AIU 48 Illarramendi del PGOU de Andoain",
          "href": "https://api.euskadi.eus/procurements/contracting-authorities/702"
        }
      }
    },
    {
      "id": 701,
      "identificationNumber": "P0100104I",
      "name": "Junta Administrativa de Legutio",
      "scope": "ARABA/ÁLAVA",
      "address": "Plazuela de la Unión,  7. Legutio. 01170 Legutiano (Araba/Álava)",
      "webPage": "http://www.contratacion.euskadi.eus",
      "publicationDate": "2019-10-11",
      "mainActivity": "Servicios públicos generales",
      "codNUTS": "ES211",
      "entities": [
        {
          "id": 1177,
          "name": "Junta Administrativa de Legutio",
          "orgs": [
            {
              "id": 913554,
              "name": "Concejo de Legutio",
              "_links": {
                "self": {
                  "name": "Concejo de Legutio",
                  "href": "https://api.euskadi.eus/procurements/contracting-authorities/701/entities/1177/orgs/913554"
                }
              }
            }
          ],
          "_links": {
            "self": {
              "name": "Junta Administrativa de Legutio",
              "href": "https://api.euskadi.eus/procurements/contracting-authorities/701/entities/1177"
            }
          }
        }
      ],
      "mainEntityOfPage": "https://www.contratacion.euskadi.eus/webkpe00-kpeperfi/es/contenidos/poder_adjudicador/poder701/es_doc/es_arch_poder701.html",
      "_links": {
        "self": {
          "name": "Junta Administrativa de Legutio",
          "href": "https://api.euskadi.eus/procurements/contracting-authorities/701"
        }
      }
    },
    {
      "id": 695,
      "identificationNumber": "G95658688",
      "name": "EUSKAMPUS Fundazioa",
      "scope": "CAPV",
      "address": "Edificio Rectorado/Errektorego Eraikina. Barrio Sarriena Auzoa 48940 Leioa (Bizkaia) ",
      "webPage": "http://www.euskampus.eu",
      "publicationDate": "2019-10-10",
      "mainActivity": "Otra actividad",
      "alternativeActivity": "Investigación ",
      "codNUTS": "ES21",
      "entities": [
        {
          "id": 1174,
          "name": "SINNERGIAK",
          "orgs": [
            {
              "id": 913551,
              "name": "Director ejecutivo ",
              "_links": {
                "self": {
                  "name": "Director ejecutivo ",
                  "href": "https://api.euskadi.eus/procurements/contracting-authorities/695/entities/1174/orgs/913551"
                }
              }
            }
          ],
          "_links": {
            "self": {
              "name": "SINNERGIAK",
              "href": "https://api.euskadi.eus/procurements/contracting-authorities/695/entities/1174"
            }
          }
        },
        {
          "id": 1168,
          "name": "EUSKAMPUS Fundazioa",
          "orgs": [
            {
              "id": 913544,
              "name": "Director ejecutivo  ",
              "_links": {
                "self": {
                  "name": "Director ejecutivo  ",
                  "href": "https://api.euskadi.eus/procurements/contracting-authorities/695/entities/1168/orgs/913544"
                }
              }
            }
          ],
          "_links": {
            "self": {
              "name": "EUSKAMPUS Fundazioa",
              "href": "https://api.euskadi.eus/procurements/contracting-authorities/695/entities/1168"
            }
          }
        },
        {
          "id": 1173,
          "name": "Agirre Lehendakaria Center",
          "orgs": [
            {
              "id": 913550,
              "name": "Director ejecutivo ",
              "_links": {
                "self": {
                  "name": "Director ejecutivo ",
                  "href": "https://api.euskadi.eus/procurements/contracting-authorities/695/entities/1173/orgs/913550"
                }
              }
            }
          ],
          "_links": {
            "self": {
              "name": "Agirre Lehendakaria Center",
              "href": "https://api.euskadi.eus/procurements/contracting-authorities/695/entities/1173"
            }
          }
        },
        {
          "id": 1175,
          "name": "UCC+i",
          "orgs": [
            {
              "id": 913552,
              "name": "Director ejecutivo ",
              "_links": {
                "self": {
                  "name": "Director ejecutivo ",
                  "href": "https://api.euskadi.eus/procurements/contracting-authorities/695/entities/1175/orgs/913552"
                }
              }
            }
          ],
          "_links": {
            "self": {
              "name": "UCC+i",
              "href": "https://api.euskadi.eus/procurements/contracting-authorities/695/entities/1175"
            }
          }
        }
      ],
      "mainEntityOfPage": "https://www.contratacion.euskadi.eus/webkpe00-kpeperfi/es/contenidos/poder_adjudicador/poder695/es_doc/es_arch_poder695.html",
      "_links": {
        "self": {
          "name": "EUSKAMPUS Fundazioa",
          "href": "https://api.euskadi.eus/procurements/contracting-authorities/695"
        }
      }
    },
    {
      "id": 700,
      "identificationNumber": "P0100249B",
      "name": "Junta Administrativa de Mendibil",
      "scope": "ARABA/ÁLAVA",
      "address": "Carretera Bergara, 7. Mendibil. 01520 Arrazua Ubarrundia (Araba/Álava)",
      "webPage": "http://www.contratacion.euskadi.eus",
      "publicationDate": "2019-10-10",
      "mainActivity": "Servicios públicos generales",
      "codNUTS": "ES211",
      "entities": [
        {
          "id": 1176,
          "name": "Junta Administrativa de Mendibil",
          "orgs": [
            {
              "id": 913553,
              "name": "Concejo de Mendibil",
              "_links": {
                "self": {
                  "name": "Concejo de Mendibil",
                  "href": "https://api.euskadi.eus/procurements/contracting-authorities/700/entities/1176/orgs/913553"
                }
              }
            }
          ],
          "_links": {
            "self": {
              "name": "Junta Administrativa de Mendibil",
              "href": "https://api.euskadi.eus/procurements/contracting-authorities/700/entities/1176"
            }
          }
        }
      ],
      "mainEntityOfPage": "https://www.contratacion.euskadi.eus/webkpe00-kpeperfi/es/contenidos/poder_adjudicador/poder700/es_doc/es_arch_poder700.html",
      "_links": {
        "self": {
          "name": "Junta Administrativa de Mendibil",
          "href": "https://api.euskadi.eus/procurements/contracting-authorities/700"
        }
      }
    },
    {
      "id": 626,
      "identificationNumber": "P0100002E",
      "name": "Junta Administrativa de Armentia",
      "scope": "ARABA/ÁLAVA",
      "address": "Camino Armentia, 36 bajo. 01007 Vitoria-Gasteiz (Araba/Álava)",
      "webPage": "http://www.contratacion.euskadi.eus",
      "publicationDate": "2019-10-09",
      "mainActivity": "Servicios públicos generales",
      "codNUTS": "ES211",
      "entities": [
        {
          "id": 1077,
          "name": "Junta Administrativa de Armentia",
          "orgs": [
            {
              "id": 912801,
              "name": "Presidente",
              "_links": {
                "self": {
                  "name": "Presidente",
                  "href": "https://api.euskadi.eus/procurements/contracting-authorities/626/entities/1077/orgs/912801"
                }
              }
            },
            {
              "id": 913549,
              "name": "Concejo de Armentia",
              "_links": {
                "self": {
                  "name": "Concejo de Armentia",
                  "href": "https://api.euskadi.eus/procurements/contracting-authorities/626/entities/1077/orgs/913549"
                }
              }
            }
          ],
          "_links": {
            "self": {
              "name": "Junta Administrativa de Armentia",
              "href": "https://api.euskadi.eus/procurements/contracting-authorities/626/entities/1077"
            }
          }
        }
      ],
      "mainEntityOfPage": "https://www.contratacion.euskadi.eus/webkpe00-kpeperfi/es/contenidos/poder_adjudicador/poder626/es_doc/es_arch_poder626.html",
      "_links": {
        "self": {
          "name": "Junta Administrativa de Armentia",
          "href": "https://api.euskadi.eus/procurements/contracting-authorities/626"
        }
      }
    },
    {
      "id": 44,
      "identificationNumber": "A01300706",
      "name": "ALOKABIDE - Sociedad de Alquiler S.A.",
      "scope": "CAPV",
      "address": "-",
      "webPage": "http://www.alokabide.euskadi.eus",
      "publicationDate": "2019-10-07",
      "mainActivity": "Vivienda y servicios comunitarios",
      "codNUTS": "ES21",
      "CPV": [
        {
          "name": "Servicios relacionados con viviendas"
        }
      ],
      "entities": [
        {
          "id": 311,
          "name": "ALOKABIDE - Sociedad de Alquiler S.A.",
          "orgs": [
            {
              "id": 911140,
              "name": "Director General de ALOKABIDE",
              "_links": {
                "self": {
                  "name": "Director General de ALOKABIDE",
                  "href": "https://api.euskadi.eus/procurements/contracting-authorities/44/entities/311/orgs/911140"
                }
              }
            },
            {
              "id": 911139,
              "name": "Consejo de Administración de ALOKABIDE",
              "_links": {
                "self": {
                  "name": "Consejo de Administración de ALOKABIDE",
                  "href": "https://api.euskadi.eus/procurements/contracting-authorities/44/entities/311/orgs/911139"
                }
              }
            }
          ],
          "_links": {
            "self": {
              "name": "ALOKABIDE - Sociedad de Alquiler S.A.",
              "href": "https://api.euskadi.eus/procurements/contracting-authorities/44/entities/311"
            }
          }
        }
      ],
      "mainEntityOfPage": "https://www.contratacion.euskadi.eus/webkpe00-kpeperfi/es/contenidos/poder_adjudicador/poder44/es_doc/es_arch_poder44.html",
      "_links": {
        "self": {
          "name": "ALOKABIDE - Sociedad de Alquiler S.A.",
          "href": "https://api.euskadi.eus/procurements/contracting-authorities/44"
        },
        "contractingAuthorities": [
          {
            "name": "Gobierno Vasco",
            "href": "https://api.euskadi.eus/procurements/contracting-authorities/16135"
          },
          {
            "name": "VISESA - Vivienda y Suelo de Euskadi, S.A.",
            "href": "https://api.euskadi.eus/procurements/contracting-authorities/16581"
          }
        ]
      }
    },
    {
      "id": 49,
      "identificationNumber": "F48086243",
      "name": "Escuela de Formación Profesional Comarcal de Lea Artibai, Soc. Coop.",
      "scope": "BIZKAIA",
      "address": "Escuela de Formación Profesional Comarcal de Lea Artibai, Soc. Coop.",
      "webPage": "http://www.leartik.com",
      "publicationDate": "2019-10-07",
      "mainActivity": "Educación",
      "codNUTS": "ES213",
      "entities": [
        {
          "id": 316,
          "name": "Escuela de Formación Profesional de Lea Artibai",
          "orgs": [
            {
              "id": 911158,
              "name": "Director/Directora de la Escuela de Formación Profesional de Lea Artibai",
              "_links": {
                "self": {
                  "name": "Director/Directora de la Escuela de Formación Profesional de Lea Artibai",
                  "href": "https://api.euskadi.eus/procurements/contracting-authorities/49/entities/316/orgs/911158"
                }
              }
            }
          ],
          "_links": {
            "self": {
              "name": "Escuela de Formación Profesional de Lea Artibai",
              "href": "https://api.euskadi.eus/procurements/contracting-authorities/49/entities/316"
            }
          }
        }
      ],
      "mainEntityOfPage": "https://www.contratacion.euskadi.eus/webkpe00-kpeperfi/es/contenidos/poder_adjudicador/poder49/es_doc/es_arch_poder49.html",
      "_links": {
        "self": {
          "name": "Escuela de Formación Profesional Comarcal de Lea Artibai, Soc. Coop.",
          "href": "https://api.euskadi.eus/procurements/contracting-authorities/49"
        }
      }
    },
    {
      "id": 71,
      "identificationNumber": "A95378014",
      "name": "Sociedad encargada de la regeneración Socio urbanística de la parte baja de Sestao",
      "scope": "BIZKAIA",
      "address": "Plaza Los Tres Concejos 1-bajo. 48910 Sestao",
      "webPage": "http://www.sestaoberri2010.com",
      "publicationDate": "2019-10-07",
      "mainActivity": "Vivienda y servicios comunitarios",
      "codNUTS": "ES213",
      "entities": [
        {
          "id": 416,
          "name": "SESTAO BERRI 2010, S.A.",
          "orgs": [
            {
              "id": 911396,
              "name": "Responsables de Proceso, Proyecto, Promoción o Responsable de Obra, según el caso y competencias, y Responsable del proceso de gestión de activos",
              "_links": {
                "self": {
                  "name": "Responsables de Proceso, Proyecto, Promoción o Responsable de Obra, según el caso y competencias, y ",
                  "href": "https://api.euskadi.eus/procurements/contracting-authorities/71/entities/416/orgs/911396"
                }
              }
            },
            {
              "id": 911395,
              "name": "Director General, previa autorización del Consejo de Administración",
              "_links": {
                "self": {
                  "name": "Director General, previa autorización del Consejo de Administración",
                  "href": "https://api.euskadi.eus/procurements/contracting-authorities/71/entities/416/orgs/911395"
                }
              }
            },
            {
              "id": 911393,
              "name": "Director General y Responsable del proceso 4",
              "_links": {
                "self": {
                  "name": "Director General y Responsable del proceso 4",
                  "href": "https://api.euskadi.eus/procurements/contracting-authorities/71/entities/416/orgs/911393"
                }
              }
            },
            {
              "id": 911397,
              "name": "Responsables de Proceso, Proyecto, según el caso y competencias, y Responsable del proceso de gestión de activos",
              "_links": {
                "self": {
                  "name": "Responsables de Proceso, Proyecto, según el caso y competencias, y Responsable del proceso de gestió",
                  "href": "https://api.euskadi.eus/procurements/contracting-authorities/71/entities/416/orgs/911397"
                }
              }
            },
            {
              "id": 911394,
              "name": "Director General y Responsable del proceso de gestión de activos",
              "_links": {
                "self": {
                  "name": "Director General y Responsable del proceso de gestión de activos",
                  "href": "https://api.euskadi.eus/procurements/contracting-authorities/71/entities/416/orgs/911394"
                }
              }
            },
            {
              "id": 911392,
              "name": "Consejo de Administración ",
              "_links": {
                "self": {
                  "name": "Consejo de Administración ",
                  "href": "https://api.euskadi.eus/procurements/contracting-authorities/71/entities/416/orgs/911392"
                }
              }
            }
          ],
          "_links": {
            "self": {
              "name": "SESTAO BERRI 2010, S.A.",
              "href": "https://api.euskadi.eus/procurements/contracting-authorities/71/entities/416"
            }
          }
        }
      ],
      "mainEntityOfPage": "https://www.contratacion.euskadi.eus/webkpe00-kpeperfi/es/contenidos/poder_adjudicador/poder71/es_doc/es_arch_poder71.html",
      "_links": {
        "self": {
          "name": "Sociedad encargada de la regeneración Socio urbanística de la parte baja de Sestao",
          "href": "https://api.euskadi.eus/procurements/contracting-authorities/71"
        }
      }
    }
  ]
}