{
  "totalItems": 919,
  "totalPages": 92,
  "currentPage": 90,
  "itemsOfPage": 10,
  "items": [
    {
      "id": 488,
      "identificationNumber": "P0100399E",
      "name": "Parzoneria de Entzia",
      "scope": "ARABA/ÁLAVA",
      "address": "Zapatari, 15. 01200 Agurain (Araba/Álava)",
      "webPage": "http://www.agurain.eus",
      "publicationDate": "2018-06-15",
      "mainActivity": "Medio ambiente",
      "codNUTS": "ES211",
      "entities": [
        {
          "id": 936,
          "name": "Parzoneria de Entzia ",
          "orgs": [
            {
              "id": 912560,
              "name": "Presidencia ",
              "_links": {
                "self": {
                  "name": "Presidencia ",
                  "href": "https://api.euskadi.eus/procurements/contracting-authorities/488/entities/936/orgs/912560"
                }
              }
            },
            {
              "id": 912563,
              "name": "Asamblea General",
              "_links": {
                "self": {
                  "name": "Asamblea General",
                  "href": "https://api.euskadi.eus/procurements/contracting-authorities/488/entities/936/orgs/912563"
                }
              }
            }
          ],
          "_links": {
            "self": {
              "name": "Parzoneria de Entzia ",
              "href": "https://api.euskadi.eus/procurements/contracting-authorities/488/entities/936"
            }
          }
        }
      ],
      "mainEntityOfPage": "https://www.contratacion.euskadi.eus/webkpe00-kpeperfi/es/contenidos/poder_adjudicador/poder488/es_doc/es_arch_poder488.html",
      "_links": {
        "self": {
          "name": "Parzoneria de Entzia",
          "href": "https://api.euskadi.eus/procurements/contracting-authorities/488"
        }
      }
    },
    {
      "id": 489,
      "identificationNumber": "P0100139E",
      "name": "Junta Administrativa de Nanclares de la Oca",
      "scope": "ARABA/ÁLAVA",
      "address": "Lehendakari J.A. Aguirre, 3. 01230 Nanclares de la Oca (Araba/Álava)",
      "webPage": "https://www.irunadeoca.com/juntas-administrativas-o-concejos-de-iruna-de-oca/",
      "publicationDate": "2018-06-15",
      "mainActivity": "Servicios públicos generales",
      "codNUTS": "ES211",
      "entities": [
        {
          "id": 938,
          "name": "Junta Administrativa de Nanclares de la Oca",
          "orgs": [
            {
              "id": 912562,
              "name": "Concejo",
              "_links": {
                "self": {
                  "name": "Concejo",
                  "href": "https://api.euskadi.eus/procurements/contracting-authorities/489/entities/938/orgs/912562"
                }
              }
            }
          ],
          "_links": {
            "self": {
              "name": "Junta Administrativa de Nanclares de la Oca",
              "href": "https://api.euskadi.eus/procurements/contracting-authorities/489/entities/938"
            }
          }
        }
      ],
      "mainEntityOfPage": "https://www.contratacion.euskadi.eus/webkpe00-kpeperfi/es/contenidos/poder_adjudicador/poder489/es_doc/es_arch_poder489.html",
      "_links": {
        "self": {
          "name": "Junta Administrativa de Nanclares de la Oca",
          "href": "https://api.euskadi.eus/procurements/contracting-authorities/489"
        }
      }
    },
    {
      "id": 486,
      "identificationNumber": "P0100363A",
      "name": "Consorcio de Aguas de Rioja Alavesa",
      "scope": "ARABA/ÁLAVA",
      "address": "Avenida Diputación, s/n. 01300 Laguardia (Áraba/Älava)  ",
      "webPage": "http://www.consorcioaguasriojaalavesa.com",
      "publicationDate": "2018-06-14",
      "mainActivity": "Medio ambiente",
      "codNUTS": "ES211",
      "entities": [
        {
          "id": 934,
          "name": "Consorcio de Aguas de Rioja Alavesa ",
          "orgs": [
            {
              "id": 912557,
              "name": "Asamblea General",
              "_links": {
                "self": {
                  "name": "Asamblea General",
                  "href": "https://api.euskadi.eus/procurements/contracting-authorities/486/entities/934/orgs/912557"
                }
              }
            },
            {
              "id": 912558,
              "name": "Presidente",
              "_links": {
                "self": {
                  "name": "Presidente",
                  "href": "https://api.euskadi.eus/procurements/contracting-authorities/486/entities/934/orgs/912558"
                }
              }
            },
            {
              "id": 912556,
              "name": "Asamblea General y/o Presidente",
              "_links": {
                "self": {
                  "name": "Asamblea General y/o Presidente",
                  "href": "https://api.euskadi.eus/procurements/contracting-authorities/486/entities/934/orgs/912556"
                }
              }
            }
          ],
          "_links": {
            "self": {
              "name": "Consorcio de Aguas de Rioja Alavesa ",
              "href": "https://api.euskadi.eus/procurements/contracting-authorities/486/entities/934"
            }
          }
        }
      ],
      "mainEntityOfPage": "https://www.contratacion.euskadi.eus/webkpe00-kpeperfi/es/contenidos/poder_adjudicador/poder486/es_doc/es_arch_poder486.html",
      "_links": {
        "self": {
          "name": "Consorcio de Aguas de Rioja Alavesa",
          "href": "https://api.euskadi.eus/procurements/contracting-authorities/486"
        }
      }
    },
    {
      "id": 61,
      "identificationNumber": "A01052539",
      "name": "Centro de Cálculo de Álava, S.A.",
      "scope": "ARABA/ÁLAVA",
      "address": "Plaza de la provincia s/n. 01001 Vitoria-Gasteiz",
      "webPage": "http://www.ccasa.es/",
      "publicationDate": "2018-05-30",
      "mainActivity": "Otra actividad",
      "alternativeActivity": "TIC",
      "codNUTS": "ES211",
      "CPV": [
        {
          "name": "Servicios TI: consultoría, desarrollo de software, Internet y apoyo"
        }
      ],
      "entities": [
        {
          "id": 361,
          "name": "Centro de Cálculo de Álava, S.A.",
          "orgs": [
            {
              "id": 911234,
              "name": "Centro de Cálculo de Álava, S.A.",
              "_links": {
                "self": {
                  "name": "Centro de Cálculo de Álava, S.A.",
                  "href": "https://api.euskadi.eus/procurements/contracting-authorities/61/entities/361/orgs/911234"
                }
              }
            }
          ],
          "_links": {
            "self": {
              "name": "Centro de Cálculo de Álava, S.A.",
              "href": "https://api.euskadi.eus/procurements/contracting-authorities/61/entities/361"
            }
          }
        }
      ],
      "mainEntityOfPage": "https://www.contratacion.euskadi.eus/webkpe00-kpeperfi/es/contenidos/poder_adjudicador/poder61/es_doc/es_arch_poder61.html",
      "_links": {
        "self": {
          "name": "Centro de Cálculo de Álava, S.A.",
          "href": "https://api.euskadi.eus/procurements/contracting-authorities/61"
        },
        "contractingAuthorities": [
          {
            "name": "Alava Agencia de Desarrollo, S.A.",
            "href": "https://api.euskadi.eus/procurements/contracting-authorities/18665"
          },
          {
            "name": "Bomberos Forales de Álava",
            "href": "https://api.euskadi.eus/procurements/contracting-authorities/18109"
          },
          {
            "name": "Diputación Foral de Álava",
            "href": "https://api.euskadi.eus/procurements/contracting-authorities/17585"
          },
          {
            "name": "Fundación Artium de Álava",
            "href": "https://api.euskadi.eus/procurements/contracting-authorities/17746"
          },
          {
            "name": "Fundación Catedral Santa María",
            "href": "https://api.euskadi.eus/procurements/contracting-authorities/18797"
          },
          {
            "name": "INDESA 2010 S.L.",
            "href": "https://api.euskadi.eus/procurements/contracting-authorities/17775"
          },
          {
            "name": "Instituto Foral de Bienestar Social",
            "href": "https://api.euskadi.eus/procurements/contracting-authorities/17667"
          },
          {
            "name": "Instituto Foral de la Juventud de Alava",
            "href": "https://api.euskadi.eus/procurements/contracting-authorities/17661"
          },
          {
            "name": "Juntas Generales de Álava",
            "href": "https://api.euskadi.eus/procurements/contracting-authorities/18564"
          }
        ]
      }
    },
    {
      "id": 466,
      "identificationNumber": "G01307354",
      "name": "Consorcio Escolar Junta Económica de Centros Escolares de Campezo",
      "scope": "ARABA/ÁLAVA",
      "address": "Plaza Samuel Picaza, 1. 01110 Campezo (Araba/Álava)",
      "webPage": "http://www.campezo.eus",
      "publicationDate": "2018-05-21",
      "mainActivity": "Educación",
      "codNUTS": "ES211",
      "entities": [
        {
          "id": 915,
          "name": "Consorcio Escolar Junta Económica de Centros Escolares de Campezo",
          "orgs": [
            {
              "id": 912525,
              "name": "Presidencia",
              "_links": {
                "self": {
                  "name": "Presidencia",
                  "href": "https://api.euskadi.eus/procurements/contracting-authorities/466/entities/915/orgs/912525"
                }
              }
            }
          ],
          "_links": {
            "self": {
              "name": "Consorcio Escolar Junta Económica de Centros Escolares de Campezo",
              "href": "https://api.euskadi.eus/procurements/contracting-authorities/466/entities/915"
            }
          }
        }
      ],
      "mainEntityOfPage": "https://www.contratacion.euskadi.eus/webkpe00-kpeperfi/es/contenidos/poder_adjudicador/poder466/es_doc/es_arch_poder466.html",
      "_links": {
        "self": {
          "name": "Consorcio Escolar Junta Económica de Centros Escolares de Campezo",
          "href": "https://api.euskadi.eus/procurements/contracting-authorities/466"
        }
      }
    },
    {
      "id": 456,
      "identificationNumber": "P0100286D",
      "name": "Junta Administrativa de Arcaute",
      "scope": "ARABA/ÁLAVA",
      "address": "Arcaute, 31. 01192 Arcaute (Araba/Álava)",
      "webPage": "http://arkaute.org/",
      "publicationDate": "2018-05-16",
      "mainActivity": "Servicios públicos generales",
      "codNUTS": "ES211",
      "entities": [
        {
          "id": 905,
          "name": "Junta Administrativa de Arcaute",
          "orgs": [
            {
              "id": 912518,
              "name": "Junta Administrativa de Arcaute",
              "_links": {
                "self": {
                  "name": "Junta Administrativa de Arcaute",
                  "href": "https://api.euskadi.eus/procurements/contracting-authorities/456/entities/905/orgs/912518"
                }
              }
            }
          ],
          "_links": {
            "self": {
              "name": "Junta Administrativa de Arcaute",
              "href": "https://api.euskadi.eus/procurements/contracting-authorities/456/entities/905"
            }
          }
        }
      ],
      "mainEntityOfPage": "https://www.contratacion.euskadi.eus/webkpe00-kpeperfi/es/contenidos/poder_adjudicador/poder456/es_doc/es_arch_poder456.html",
      "_links": {
        "self": {
          "name": "Junta Administrativa de Arcaute",
          "href": "https://api.euskadi.eus/procurements/contracting-authorities/456"
        }
      }
    },
    {
      "id": 310,
      "identificationNumber": "G01241876",
      "name": "Fundación Centro de Investigación Cooperativa en Energías Alternativas-CIC ENERGIGUNE",
      "scope": "ARABA/ÁLAVA",
      "address": "Albert Einstein 48. 01510 Vitoria-Gasteiz (Álava) ",
      "webPage": "http://www.cicenergigune.com",
      "publicationDate": "2018-05-15",
      "mainActivity": "Otra actividad",
      "alternativeActivity": "Investigación",
      "codNUTS": "ES211",
      "entities": [
        {
          "id": 759,
          "name": "Fundación CIC ENERGIGUNE",
          "orgs": [
            {
              "id": 912224,
              "name": "Director General",
              "_links": {
                "self": {
                  "name": "Director General",
                  "href": "https://api.euskadi.eus/procurements/contracting-authorities/310/entities/759/orgs/912224"
                }
              }
            }
          ],
          "_links": {
            "self": {
              "name": "Fundación CIC ENERGIGUNE",
              "href": "https://api.euskadi.eus/procurements/contracting-authorities/310/entities/759"
            }
          }
        }
      ],
      "mainEntityOfPage": "https://www.contratacion.euskadi.eus/webkpe00-kpeperfi/es/contenidos/poder_adjudicador/poder310/es_doc/es_arch_poder310.html",
      "_links": {
        "self": {
          "name": "Fundación Centro de Investigación Cooperativa en Energías Alternativas-CIC ENERGIGUNE",
          "href": "https://api.euskadi.eus/procurements/contracting-authorities/310"
        }
      }
    },
    {
      "id": 455,
      "identificationNumber": "G95500559",
      "name": "Fundación Basque Team Fundazioa",
      "scope": "CAPV",
      "address": "Avda. Los Chopos, s/n. 48992 Getxo (Bizkaia)",
      "webPage": "http://www.basqueteam.eus",
      "publicationDate": "2018-05-11",
      "mainActivity": "Ocio, cultura y religión",
      "codNUTS": "ES21",
      "entities": [
        {
          "id": 904,
          "name": "Fundación Basque Team Fundazioa",
          "orgs": [
            {
              "id": 912504,
              "name": "Director",
              "_links": {
                "self": {
                  "name": "Director",
                  "href": "https://api.euskadi.eus/procurements/contracting-authorities/455/entities/904/orgs/912504"
                }
              }
            },
            {
              "id": 912503,
              "name": "Coordinadora",
              "_links": {
                "self": {
                  "name": "Coordinadora",
                  "href": "https://api.euskadi.eus/procurements/contracting-authorities/455/entities/904/orgs/912503"
                }
              }
            },
            {
              "id": 912505,
              "name": "Coordinadora y director",
              "_links": {
                "self": {
                  "name": "Coordinadora y director",
                  "href": "https://api.euskadi.eus/procurements/contracting-authorities/455/entities/904/orgs/912505"
                }
              }
            }
          ],
          "_links": {
            "self": {
              "name": "Fundación Basque Team Fundazioa",
              "href": "https://api.euskadi.eus/procurements/contracting-authorities/455/entities/904"
            }
          }
        }
      ],
      "mainEntityOfPage": "https://www.contratacion.euskadi.eus/webkpe00-kpeperfi/es/contenidos/poder_adjudicador/poder455/es_doc/es_arch_poder455.html",
      "_links": {
        "self": {
          "name": "Fundación Basque Team Fundazioa",
          "href": "https://api.euskadi.eus/procurements/contracting-authorities/455"
        }
      }
    },
    {
      "id": 263,
      "identificationNumber": "P0100364I",
      "name": "Fundación Catedral Santa María",
      "scope": "ARABA/ÁLAVA",
      "address": "Cuchillería, 93. 01001 Vitoria-Gasteiz (Araba/Álava)",
      "webPage": "http://www.catedralvitoria.eus",
      "publicationDate": "2018-04-26",
      "mainActivity": "Ocio, cultura y religión",
      "codNUTS": "ES211",
      "entities": [
        {
          "id": 711,
          "name": "Fundación Catedral Santa María",
          "orgs": [
            {
              "id": 912131,
              "name": "Presidente y Vocal apoderados",
              "_links": {
                "self": {
                  "name": "Presidente y Vocal apoderados",
                  "href": "https://api.euskadi.eus/procurements/contracting-authorities/263/entities/711/orgs/912131"
                }
              }
            },
            {
              "id": 912646,
              "name": "Apoderado",
              "_links": {
                "self": {
                  "name": "Apoderado",
                  "href": "https://api.euskadi.eus/procurements/contracting-authorities/263/entities/711/orgs/912646"
                }
              }
            }
          ],
          "_links": {
            "self": {
              "name": "Fundación Catedral Santa María",
              "href": "https://api.euskadi.eus/procurements/contracting-authorities/263/entities/711"
            }
          }
        }
      ],
      "mainEntityOfPage": "https://www.contratacion.euskadi.eus/webkpe00-kpeperfi/es/contenidos/poder_adjudicador/poder263/es_doc/es_arch_poder263.html",
      "_links": {
        "self": {
          "name": "Fundación Catedral Santa María",
          "href": "https://api.euskadi.eus/procurements/contracting-authorities/263"
        }
      }
    },
    {
      "id": 443,
      "identificationNumber": "P5100003B",
      "name": "Cuadrilla de la Llanada Alavesa",
      "scope": "ARABA/ÁLAVA",
      "address": "Plaza Senda de Langarika, 4 01200 Agurain (Álava/araba)",
      "webPage": "http://www.cuadrillasalvatierra.org",
      "publicationDate": "2018-04-25",
      "mainActivity": "Servicios públicos generales",
      "codNUTS": "ES211",
      "entities": [
        {
          "id": 893,
          "name": "Cuadrilla de la Llanada Alavesa",
          "orgs": [
            {
              "id": 912486,
              "name": "Presidencia",
              "_links": {
                "self": {
                  "name": "Presidencia",
                  "href": "https://api.euskadi.eus/procurements/contracting-authorities/443/entities/893/orgs/912486"
                }
              }
            },
            {
              "id": 912487,
              "name": "Junta de Cuadrilla",
              "_links": {
                "self": {
                  "name": "Junta de Cuadrilla",
                  "href": "https://api.euskadi.eus/procurements/contracting-authorities/443/entities/893/orgs/912487"
                }
              }
            }
          ],
          "_links": {
            "self": {
              "name": "Cuadrilla de la Llanada Alavesa",
              "href": "https://api.euskadi.eus/procurements/contracting-authorities/443/entities/893"
            }
          }
        }
      ],
      "mainEntityOfPage": "https://www.contratacion.euskadi.eus/webkpe00-kpeperfi/es/contenidos/poder_adjudicador/poder443/es_doc/es_arch_poder443.html",
      "_links": {
        "self": {
          "name": "Cuadrilla de la Llanada Alavesa",
          "href": "https://api.euskadi.eus/procurements/contracting-authorities/443"
        }
      }
    }
  ]
}