{
  "totalItems": 919,
  "totalPages": 92,
  "currentPage": 46,
  "itemsOfPage": 10,
  "items": [
    {
      "id": 264,
      "identificationNumber": "P4801400E",
      "name": "Ayuntamiento de Arrigorriaga",
      "scope": "BIZKAIA",
      "address": "Paseo Urgoiti, 57. 48480 Arrigorriaga (Bizkaia)",
      "webPage": "http://www.arrigorriaga.eus",
      "publicationDate": "2019-10-07",
      "mainActivity": "Servicios públicos generales",
      "codNUTS": "ES213",
      "entities": [
        {
          "id": 712,
          "name": "Ayuntamiento de Arrigorriaga ",
          "orgs": [
            {
              "id": 912132,
              "name": "Alcalde",
              "_links": {
                "self": {
                  "name": "Alcalde",
                  "href": "https://api.euskadi.eus/procurements/contracting-authorities/264/entities/712/orgs/912132"
                }
              }
            },
            {
              "id": 912133,
              "name": "Pleno",
              "_links": {
                "self": {
                  "name": "Pleno",
                  "href": "https://api.euskadi.eus/procurements/contracting-authorities/264/entities/712/orgs/912133"
                }
              }
            }
          ],
          "_links": {
            "self": {
              "name": "Ayuntamiento de Arrigorriaga ",
              "href": "https://api.euskadi.eus/procurements/contracting-authorities/264/entities/712"
            }
          }
        }
      ],
      "mainEntityOfPage": "https://www.contratacion.euskadi.eus/webkpe00-kpeperfi/es/contenidos/poder_adjudicador/poder264/es_doc/es_arch_poder264.html",
      "_links": {
        "self": {
          "name": "Ayuntamiento de Arrigorriaga",
          "href": "https://api.euskadi.eus/procurements/contracting-authorities/264"
        }
      }
    },
    {
      "id": 269,
      "identificationNumber": "G48108203",
      "name": "Consorcio de Transportes de Bizkaia",
      "scope": "BIZKAIA",
      "address": "Ugasko, 5 bis. 48014 Bilbao (Bizkaia)",
      "webPage": "http://www.ctb.eus",
      "publicationDate": "2019-10-07",
      "mainActivity": "Otra actividad",
      "alternativeActivity": "Transportes",
      "codNUTS": "ES213",
      "entities": [
        {
          "id": 717,
          "name": "Consorcio de Transportes de Bizkaia",
          "orgs": [
            {
              "id": 912140,
              "name": "Director Gerente",
              "_links": {
                "self": {
                  "name": "Director Gerente",
                  "href": "https://api.euskadi.eus/procurements/contracting-authorities/269/entities/717/orgs/912140"
                }
              }
            },
            {
              "id": 912141,
              "name": "Comisión ejecutiva",
              "_links": {
                "self": {
                  "name": "Comisión ejecutiva",
                  "href": "https://api.euskadi.eus/procurements/contracting-authorities/269/entities/717/orgs/912141"
                }
              }
            },
            {
              "id": 912142,
              "name": "Consejo general",
              "_links": {
                "self": {
                  "name": "Consejo general",
                  "href": "https://api.euskadi.eus/procurements/contracting-authorities/269/entities/717/orgs/912142"
                }
              }
            }
          ],
          "_links": {
            "self": {
              "name": "Consorcio de Transportes de Bizkaia",
              "href": "https://api.euskadi.eus/procurements/contracting-authorities/269/entities/717"
            }
          }
        }
      ],
      "mainEntityOfPage": "https://www.contratacion.euskadi.eus/webkpe00-kpeperfi/es/contenidos/poder_adjudicador/poder269/es_doc/es_arch_poder269.html",
      "_links": {
        "self": {
          "name": "Consorcio de Transportes de Bizkaia",
          "href": "https://api.euskadi.eus/procurements/contracting-authorities/269"
        }
      }
    },
    {
      "id": 274,
      "identificationNumber": "P4801900D",
      "name": "Ayuntamiento de Basauri",
      "scope": "BIZKAIA",
      "address": "Kareaga Goikoa, 52. 48970 Basauri (Bizkaia)",
      "webPage": "http://www.basauri.net",
      "publicationDate": "2019-10-07",
      "mainActivity": "Servicios públicos generales",
      "codNUTS": "ES213",
      "entities": [
        {
          "id": 722,
          "name": "Ayuntamiento de Basauri",
          "orgs": [
            {
              "id": 912150,
              "name": "Alcalde",
              "_links": {
                "self": {
                  "name": "Alcalde",
                  "href": "https://api.euskadi.eus/procurements/contracting-authorities/274/entities/722/orgs/912150"
                }
              }
            },
            {
              "id": 912151,
              "name": "Pleno",
              "_links": {
                "self": {
                  "name": "Pleno",
                  "href": "https://api.euskadi.eus/procurements/contracting-authorities/274/entities/722/orgs/912151"
                }
              }
            }
          ],
          "_links": {
            "self": {
              "name": "Ayuntamiento de Basauri",
              "href": "https://api.euskadi.eus/procurements/contracting-authorities/274/entities/722"
            }
          }
        }
      ],
      "mainEntityOfPage": "https://www.contratacion.euskadi.eus/webkpe00-kpeperfi/es/contenidos/poder_adjudicador/poder274/es_doc/es_arch_poder274.html",
      "_links": {
        "self": {
          "name": "Ayuntamiento de Basauri",
          "href": "https://api.euskadi.eus/procurements/contracting-authorities/274"
        }
      }
    },
    {
      "id": 275,
      "identificationNumber": "B95178141",
      "name": "Behargintza Basauri-Etxebarri, S.L.",
      "scope": "BIZKAIA",
      "address": "Baskonia kalea, 1.  48970 Basauri (Bizkaia)",
      "webPage": "http://www.behargintza.eus",
      "publicationDate": "2019-10-07",
      "mainActivity": "Otra actividad",
      "alternativeActivity": "Promoción empresarial",
      "codNUTS": "ES213",
      "entities": [
        {
          "id": 723,
          "name": "Behargintza Basauri-Etxebarri, S.L.",
          "orgs": [
            {
              "id": 912152,
              "name": "Presidente y Secretario del Consejo de Administración",
              "_links": {
                "self": {
                  "name": "Presidente y Secretario del Consejo de Administración",
                  "href": "https://api.euskadi.eus/procurements/contracting-authorities/275/entities/723/orgs/912152"
                }
              }
            }
          ],
          "_links": {
            "self": {
              "name": "Behargintza Basauri-Etxebarri, S.L.",
              "href": "https://api.euskadi.eus/procurements/contracting-authorities/275/entities/723"
            }
          }
        }
      ],
      "mainEntityOfPage": "https://www.contratacion.euskadi.eus/webkpe00-kpeperfi/es/contenidos/poder_adjudicador/poder275/es_doc/es_arch_poder275.html",
      "_links": {
        "self": {
          "name": "Behargintza Basauri-Etxebarri, S.L.",
          "href": "https://api.euskadi.eus/procurements/contracting-authorities/275"
        }
      }
    },
    {
      "id": 276,
      "identificationNumber": "G48117378",
      "name": "Casa de Cultura  de Basauri",
      "scope": "BIZKAIA",
      "address": "Nagusia, 2. 48970 Basauri (Bizkaia)",
      "webPage": "http://socialantzokia.eus/ ",
      "publicationDate": "2019-10-07",
      "mainActivity": "Ocio, cultura y religión",
      "codNUTS": "ES213",
      "entities": [
        {
          "id": 724,
          "name": "Casa de Cultura  de Basauri",
          "orgs": [
            {
              "id": 912154,
              "name": "Consejo Rector",
              "_links": {
                "self": {
                  "name": "Consejo Rector",
                  "href": "https://api.euskadi.eus/procurements/contracting-authorities/276/entities/724/orgs/912154"
                }
              }
            },
            {
              "id": 912153,
              "name": "Presidente",
              "_links": {
                "self": {
                  "name": "Presidente",
                  "href": "https://api.euskadi.eus/procurements/contracting-authorities/276/entities/724/orgs/912153"
                }
              }
            }
          ],
          "_links": {
            "self": {
              "name": "Casa de Cultura  de Basauri",
              "href": "https://api.euskadi.eus/procurements/contracting-authorities/276/entities/724"
            }
          }
        }
      ],
      "mainEntityOfPage": "https://www.contratacion.euskadi.eus/webkpe00-kpeperfi/es/contenidos/poder_adjudicador/poder276/es_doc/es_arch_poder276.html",
      "_links": {
        "self": {
          "name": "Casa de Cultura  de Basauri",
          "href": "https://api.euskadi.eus/procurements/contracting-authorities/276"
        }
      }
    },
    {
      "id": 277,
      "identificationNumber": "P9801902I",
      "name": "Euskaltegi Municipal de Basauri",
      "scope": "BIZKAIA",
      "address": "Urbi, 33. 48970 Basauri (Bizkaia) ",
      "webPage": "http://euskaltegia.basauri.eus/ ",
      "publicationDate": "2019-10-07",
      "mainActivity": "Ocio, cultura y religión",
      "codNUTS": "ES213",
      "entities": [
        {
          "id": 725,
          "name": "Euskaltegi Municipal de Basauri",
          "orgs": [
            {
              "id": 912155,
              "name": "Presidente",
              "_links": {
                "self": {
                  "name": "Presidente",
                  "href": "https://api.euskadi.eus/procurements/contracting-authorities/277/entities/725/orgs/912155"
                }
              }
            },
            {
              "id": 912156,
              "name": "Consejo Rector",
              "_links": {
                "self": {
                  "name": "Consejo Rector",
                  "href": "https://api.euskadi.eus/procurements/contracting-authorities/277/entities/725/orgs/912156"
                }
              }
            }
          ],
          "_links": {
            "self": {
              "name": "Euskaltegi Municipal de Basauri",
              "href": "https://api.euskadi.eus/procurements/contracting-authorities/277/entities/725"
            }
          }
        }
      ],
      "mainEntityOfPage": "https://www.contratacion.euskadi.eus/webkpe00-kpeperfi/es/contenidos/poder_adjudicador/poder277/es_doc/es_arch_poder277.html",
      "_links": {
        "self": {
          "name": "Euskaltegi Municipal de Basauri",
          "href": "https://api.euskadi.eus/procurements/contracting-authorities/277"
        }
      }
    },
    {
      "id": 278,
      "identificationNumber": "P9801901A",
      "name": "Instituto del Deporte de Basauri",
      "scope": "BIZKAIA",
      "address": "Polideportivo Artunduaga ; Barrio Artunduaga s/n  48970 Bassauri (Bizkaia)",
      "webPage": "http://www.basaurikirolak.eus/",
      "publicationDate": "2019-10-07",
      "mainActivity": "Ocio, cultura y religión",
      "codNUTS": "ES213",
      "entities": [
        {
          "id": 726,
          "name": "Instituto del Deporte de Basauri",
          "orgs": [
            {
              "id": 912158,
              "name": "Consejo Rector",
              "_links": {
                "self": {
                  "name": "Consejo Rector",
                  "href": "https://api.euskadi.eus/procurements/contracting-authorities/278/entities/726/orgs/912158"
                }
              }
            },
            {
              "id": 912157,
              "name": "Presidente",
              "_links": {
                "self": {
                  "name": "Presidente",
                  "href": "https://api.euskadi.eus/procurements/contracting-authorities/278/entities/726/orgs/912157"
                }
              }
            }
          ],
          "_links": {
            "self": {
              "name": "Instituto del Deporte de Basauri",
              "href": "https://api.euskadi.eus/procurements/contracting-authorities/278/entities/726"
            }
          }
        }
      ],
      "mainEntityOfPage": "https://www.contratacion.euskadi.eus/webkpe00-kpeperfi/es/contenidos/poder_adjudicador/poder278/es_doc/es_arch_poder278.html",
      "_links": {
        "self": {
          "name": "Instituto del Deporte de Basauri",
          "href": "https://api.euskadi.eus/procurements/contracting-authorities/278"
        }
      }
    },
    {
      "id": 281,
      "identificationNumber": "P4804400B",
      "name": "Ayuntamiento de Galdakao",
      "scope": "BIZKAIA",
      "address": "Kurtzeko Plaza, 1. 48960 Galdakao (Bizkaia)",
      "webPage": "http://www.galdakao.eus",
      "publicationDate": "2019-10-07",
      "mainActivity": "Servicios públicos generales",
      "codNUTS": "ES213",
      "entities": [
        {
          "id": 729,
          "name": "Ayuntamiento de Galdakao",
          "orgs": [
            {
              "id": 912165,
              "name": "Pleno",
              "_links": {
                "self": {
                  "name": "Pleno",
                  "href": "https://api.euskadi.eus/procurements/contracting-authorities/281/entities/729/orgs/912165"
                }
              }
            },
            {
              "id": 912164,
              "name": "Alcalde",
              "_links": {
                "self": {
                  "name": "Alcalde",
                  "href": "https://api.euskadi.eus/procurements/contracting-authorities/281/entities/729/orgs/912164"
                }
              }
            }
          ],
          "_links": {
            "self": {
              "name": "Ayuntamiento de Galdakao",
              "href": "https://api.euskadi.eus/procurements/contracting-authorities/281/entities/729"
            }
          }
        }
      ],
      "mainEntityOfPage": "https://www.contratacion.euskadi.eus/webkpe00-kpeperfi/es/contenidos/poder_adjudicador/poder281/es_doc/es_arch_poder281.html",
      "_links": {
        "self": {
          "name": "Ayuntamiento de Galdakao",
          "href": "https://api.euskadi.eus/procurements/contracting-authorities/281"
        }
      }
    },
    {
      "id": 285,
      "identificationNumber": "P4809600B",
      "name": "Ayuntamiento de Ortuella",
      "scope": "BIZKAIA",
      "address": "Catalina Gibaja, 10. 48530 Ortuella (Bizkaia)",
      "webPage": "http://www.ortuella.eus",
      "publicationDate": "2019-10-07",
      "mainActivity": "Servicios públicos generales",
      "codNUTS": "ES213",
      "entities": [
        {
          "id": 733,
          "name": "Ayuntamiento de Ortuella",
          "orgs": [
            {
              "id": 912171,
              "name": "Alcalde",
              "_links": {
                "self": {
                  "name": "Alcalde",
                  "href": "https://api.euskadi.eus/procurements/contracting-authorities/285/entities/733/orgs/912171"
                }
              }
            },
            {
              "id": 912197,
              "name": "Pleno Municipal",
              "_links": {
                "self": {
                  "name": "Pleno Municipal",
                  "href": "https://api.euskadi.eus/procurements/contracting-authorities/285/entities/733/orgs/912197"
                }
              }
            }
          ],
          "_links": {
            "self": {
              "name": "Ayuntamiento de Ortuella",
              "href": "https://api.euskadi.eus/procurements/contracting-authorities/285/entities/733"
            }
          }
        }
      ],
      "mainEntityOfPage": "https://www.contratacion.euskadi.eus/webkpe00-kpeperfi/es/contenidos/poder_adjudicador/poder285/es_doc/es_arch_poder285.html",
      "_links": {
        "self": {
          "name": "Ayuntamiento de Ortuella",
          "href": "https://api.euskadi.eus/procurements/contracting-authorities/285"
        }
      }
    },
    {
      "id": 289,
      "identificationNumber": "P9808302E",
      "name": "FORLAN",
      "scope": "BIZKAIA",
      "address": "Cendeja 21, edif. Meatzari 2ª planta. 48550 Muskiz (Bizkaia)  ",
      "webPage": "http://www.forlan.org",
      "publicationDate": "2019-10-07",
      "mainActivity": "Otra actividad",
      "alternativeActivity": "Promoción empresarial",
      "codNUTS": "ES213",
      "entities": [
        {
          "id": 737,
          "name": "FORLAN",
          "orgs": [
            {
              "id": 912177,
              "name": "Consejo Rector",
              "_links": {
                "self": {
                  "name": "Consejo Rector",
                  "href": "https://api.euskadi.eus/procurements/contracting-authorities/289/entities/737/orgs/912177"
                }
              }
            }
          ],
          "_links": {
            "self": {
              "name": "FORLAN",
              "href": "https://api.euskadi.eus/procurements/contracting-authorities/289/entities/737"
            }
          }
        }
      ],
      "mainEntityOfPage": "https://www.contratacion.euskadi.eus/webkpe00-kpeperfi/es/contenidos/poder_adjudicador/poder289/es_doc/es_arch_poder289.html",
      "_links": {
        "self": {
          "name": "FORLAN",
          "href": "https://api.euskadi.eus/procurements/contracting-authorities/289"
        }
      }
    }
  ]
}