{
  "totalItems": 919,
  "totalPages": 92,
  "currentPage": 22,
  "itemsOfPage": 10,
  "items": [
    {
      "id": 25471,
      "identificationNumber": "G20448049",
      "name": "Asociación de Desarrollo Rural de las comarcas de Donostialea-Bidasoa BEHEMENDI",
      "scope": "GIPUZKOA",
      "address": "Ibaiondo Poligonoa, 27 – 2. Solairua – 2.7 Bulegoa",
      "webPage": "https://www.donostialdea.eus/behemendi/",
      "publicationDate": "2022-05-19",
      "mainActivity": "Servicios públicos generales",
      "codNUTS": "ES212",
      "entities": [
        {
          "id": 25472,
          "name": "A.D.R. BEHEMENDI",
          "orgs": [
            {
              "id": 25473,
              "name": "Junta de Gobierno",
              "_links": {
                "self": {
                  "name": "Junta de Gobierno",
                  "href": "https://api.euskadi.eus/procurements/contracting-authorities/25471/entities/25472/orgs/25473"
                }
              }
            }
          ],
          "_links": {
            "self": {
              "name": "A.D.R. BEHEMENDI",
              "href": "https://api.euskadi.eus/procurements/contracting-authorities/25471/entities/25472"
            }
          }
        }
      ],
      "mainEntityOfPage": "https://www.contratacion.euskadi.eus/webkpe00-kpeperfi/es/contenidos/poder_adjudicador/poder25471/es_doc/index.html",
      "_links": {
        "self": {
          "name": "Asociación de Desarrollo Rural de las comarcas de Donostialea-Bidasoa BEHEMENDI",
          "href": "https://api.euskadi.eus/procurements/contracting-authorities/25471"
        },
        "contractingAuthorities": [
          {
            "name": "Ayuntamiento de Errenteria",
            "href": "https://api.euskadi.eus/procurements/contracting-authorities/24848"
          }
        ]
      }
    },
    {
      "id": 25573,
      "identificationNumber": "P2000800I",
      "name": "Ayuntamiento de Altzo",
      "scope": "GIPUZKOA",
      "address": "Altzo-Muino auzoa, 73. 20268 Altzo (Gipuzkoa)",
      "webPage": "http://www.altzo.eus",
      "publicationDate": "2022-05-11",
      "mainActivity": "Servicios públicos generales",
      "codNUTS": "ES212",
      "entities": [
        {
          "id": 964,
          "name": "Ayuntamiento de Altzo",
          "orgs": [
            {
              "id": 25571,
              "name": "Ayuntamiento de Altzo",
              "_links": {
                "self": {
                  "name": "Ayuntamiento de Altzo",
                  "href": "https://api.euskadi.eus/procurements/contracting-authorities/25573/entities/964/orgs/25571"
                }
              }
            }
          ],
          "_links": {
            "self": {
              "name": "Ayuntamiento de Altzo",
              "href": "https://api.euskadi.eus/procurements/contracting-authorities/25573/entities/964"
            }
          }
        }
      ],
      "mainEntityOfPage": "https://www.contratacion.euskadi.eus/webkpe00-kpeperfi/es/contenidos/poder_adjudicador/poder25573/es_doc/index.html",
      "_links": {
        "self": {
          "name": "Ayuntamiento de Altzo",
          "href": "https://api.euskadi.eus/procurements/contracting-authorities/25573"
        }
      }
    },
    {
      "id": 126,
      "identificationNumber": "G20903449",
      "name": "Centro de Investigación Cooperativa en Nanociencias CIC nanoGUNE",
      "scope": "CAPV",
      "address": "Tolosa hiribidea, 76. 20018 Donostia-San Sebastián (Gipuzkoa)",
      "webPage": "http://www.nanogune.eu",
      "publicationDate": "2022-05-11",
      "mainActivity": "Otra actividad",
      "alternativeActivity": "Investigación",
      "codNUTS": "ES21",
      "entities": [
        {
          "id": 478,
          "name": "CIC nanoGUNE ",
          "orgs": [
            {
              "id": 911553,
              "name": "Director",
              "_links": {
                "self": {
                  "name": "Director",
                  "href": "https://api.euskadi.eus/procurements/contracting-authorities/126/entities/478/orgs/911553"
                }
              }
            }
          ],
          "_links": {
            "self": {
              "name": "CIC nanoGUNE ",
              "href": "https://api.euskadi.eus/procurements/contracting-authorities/126/entities/478"
            }
          }
        }
      ],
      "mainEntityOfPage": "https://www.contratacion.euskadi.eus/webkpe00-kpeperfi/es/contenidos/poder_adjudicador/poder126/es_doc/index.html",
      "_links": {
        "self": {
          "name": "Centro de Investigación Cooperativa en Nanociencias CIC nanoGUNE",
          "href": "https://api.euskadi.eus/procurements/contracting-authorities/126"
        }
      }
    },
    {
      "id": 25566,
      "identificationNumber": "G95341517",
      "name": "Asociación Mendibile Jauregia",
      "scope": "BIZKAIA",
      "address": "Bº Mendibile 42 - 48940 Leioa (Bizkaia)",
      "webPage": "https://www.mendibilejauregia.com/",
      "publicationDate": "2022-05-10",
      "mainActivity": "Ocio, cultura y religión",
      "codNUTS": "ES213",
      "entities": [
        {
          "id": 25567,
          "name": "Asociación Mendibile Jauregia",
          "orgs": [
            {
              "id": 25568,
              "name": "Asociación Mendibile Jauregia",
              "_links": {
                "self": {
                  "name": "Asociación Mendibile Jauregia",
                  "href": "https://api.euskadi.eus/procurements/contracting-authorities/25566/entities/25567/orgs/25568"
                }
              }
            }
          ],
          "_links": {
            "self": {
              "name": "Asociación Mendibile Jauregia",
              "href": "https://api.euskadi.eus/procurements/contracting-authorities/25566/entities/25567"
            }
          }
        }
      ],
      "mainEntityOfPage": "https://www.contratacion.euskadi.eus/webkpe00-kpeperfi/es/contenidos/poder_adjudicador/poder25566/es_doc/index.html",
      "_links": {
        "self": {
          "name": "Asociación Mendibile Jauregia",
          "href": "https://api.euskadi.eus/procurements/contracting-authorities/25566"
        }
      }
    },
    {
      "id": 25554,
      "identificationNumber": "P9801701E",
      "name": "Organismo autónomo municipal “Barakaldoko Euskara Udal Erakundea”",
      "scope": "BIZKAIA",
      "address": "Bizkaia, 2 – 48901 Barakaldo",
      "webPage": "https://www.barakaldo.eus/portal/web/euskaltegi",
      "publicationDate": "2022-05-04",
      "mainActivity": "Educación",
      "codNUTS": "ES213",
      "entities": [
        {
          "id": 25555,
          "name": "Organismo autónomo municipal “Barakaldoko Euskara Udal Erakundea”",
          "orgs": [
            {
              "id": 25556,
              "name": "Presidente",
              "_links": {
                "self": {
                  "name": "Presidente",
                  "href": "https://api.euskadi.eus/procurements/contracting-authorities/25554/entities/25555/orgs/25556"
                }
              }
            },
            {
              "id": 25565,
              "name": "Consejo de Dirección ",
              "_links": {
                "self": {
                  "name": "Consejo de Dirección ",
                  "href": "https://api.euskadi.eus/procurements/contracting-authorities/25554/entities/25555/orgs/25565"
                }
              }
            }
          ],
          "_links": {
            "self": {
              "name": "Organismo autónomo municipal “Barakaldoko Euskara Udal Erakundea”",
              "href": "https://api.euskadi.eus/procurements/contracting-authorities/25554/entities/25555"
            }
          }
        }
      ],
      "mainEntityOfPage": "https://www.contratacion.euskadi.eus/webkpe00-kpeperfi/es/contenidos/poder_adjudicador/poder25554/es_doc/index.html",
      "_links": {
        "self": {
          "name": "Organismo autónomo municipal “Barakaldoko Euskara Udal Erakundea”",
          "href": "https://api.euskadi.eus/procurements/contracting-authorities/25554"
        }
      }
    },
    {
      "id": 25558,
      "identificationNumber": "Q4800731D",
      "name": "Bilbao Ekintza, E.P.E.L.",
      "scope": "BIZKAIA",
      "address": "C/ Navarra, 5. 48001 Bilbao  ",
      "webPage": "https://www.bilbaoekintza.eus/",
      "publicationDate": "2022-05-04",
      "mainActivity": "Servicios públicos generales",
      "codNUTS": "ES213",
      "entities": [
        {
          "id": 25559,
          "name": "Bilbao Ekintza, E.P.E.L.",
          "orgs": [
            {
              "id": 25560,
              "name": "Consejo de administración",
              "_links": {
                "self": {
                  "name": "Consejo de administración",
                  "href": "https://api.euskadi.eus/procurements/contracting-authorities/25558/entities/25559/orgs/25560"
                }
              }
            },
            {
              "id": 25561,
              "name": "Presidencia",
              "_links": {
                "self": {
                  "name": "Presidencia",
                  "href": "https://api.euskadi.eus/procurements/contracting-authorities/25558/entities/25559/orgs/25561"
                }
              }
            },
            {
              "id": 25562,
              "name": "Gerencia o Dirección General",
              "_links": {
                "self": {
                  "name": "Gerencia o Dirección General",
                  "href": "https://api.euskadi.eus/procurements/contracting-authorities/25558/entities/25559/orgs/25562"
                }
              }
            }
          ],
          "_links": {
            "self": {
              "name": "Bilbao Ekintza, E.P.E.L.",
              "href": "https://api.euskadi.eus/procurements/contracting-authorities/25558/entities/25559"
            }
          }
        }
      ],
      "mainEntityOfPage": "https://www.contratacion.euskadi.eus/webkpe00-kpeperfi/es/contenidos/poder_adjudicador/poder25558/es_doc/index.html",
      "_links": {
        "self": {
          "name": "Bilbao Ekintza, E.P.E.L.",
          "href": "https://api.euskadi.eus/procurements/contracting-authorities/25558"
        }
      }
    },
    {
      "id": 25550,
      "identificationNumber": "A48004832",
      "name": "Funicular de Artxanda S.A.",
      "scope": "BIZKAIA",
      "address": "Carretera de Artxanda a Santo Domingo 27, 48015 Bilbao",
      "webPage": "https://funicularartxanda.bilbao.eus/",
      "publicationDate": "2022-05-03",
      "mainActivity": "Ocio, cultura y religión",
      "codNUTS": "ES213",
      "entities": [
        {
          "id": 25551,
          "name": "Funicular de Artxanda S.A.",
          "orgs": [
            {
              "id": 25552,
              "name": "Funicular de Artxanda S.A.",
              "_links": {
                "self": {
                  "name": "Funicular de Artxanda S.A.",
                  "href": "https://api.euskadi.eus/procurements/contracting-authorities/25550/entities/25551/orgs/25552"
                }
              }
            }
          ],
          "_links": {
            "self": {
              "name": "Funicular de Artxanda S.A.",
              "href": "https://api.euskadi.eus/procurements/contracting-authorities/25550/entities/25551"
            }
          }
        }
      ],
      "mainEntityOfPage": "https://www.contratacion.euskadi.eus/webkpe00-kpeperfi/es/contenidos/poder_adjudicador/poder25550/es_doc/index.html",
      "_links": {
        "self": {
          "name": "Funicular de Artxanda S.A.",
          "href": "https://api.euskadi.eus/procurements/contracting-authorities/25550"
        }
      }
    },
    {
      "id": 25546,
      "identificationNumber": "V09818956",
      "name": "Junta de Concertación del subámbito 24.1 Iurramendi Pasealekua del PGOU de Tolosa",
      "scope": "GIPUZKOA",
      "address": "Paseo Lugaritz nº21 - 20018 – Donostia",
      "webPage": "https://www.sukia.com/",
      "publicationDate": "2022-05-02",
      "mainActivity": "Servicios públicos generales",
      "codNUTS": "ES212",
      "entities": [
        {
          "id": 25547,
          "name": "Junta de Concertación del subámbito 24.1 Iurramendi Pasealekua del PGOU de Tolosa",
          "orgs": [
            {
              "id": 25548,
              "name": "Junta de Concertación del subámbito 24.1 Iurramendi Pasealekua del PGOU de Tolosa",
              "_links": {
                "self": {
                  "name": "Junta de Concertación del subámbito 24.1 Iurramendi Pasealekua del PGOU de Tolosa",
                  "href": "https://api.euskadi.eus/procurements/contracting-authorities/25546/entities/25547/orgs/25548"
                }
              }
            }
          ],
          "_links": {
            "self": {
              "name": "Junta de Concertación del subámbito 24.1 Iurramendi Pasealekua del PGOU de Tolosa",
              "href": "https://api.euskadi.eus/procurements/contracting-authorities/25546/entities/25547"
            }
          }
        }
      ],
      "mainEntityOfPage": "https://www.contratacion.euskadi.eus/webkpe00-kpeperfi/es/contenidos/poder_adjudicador/poder25546/es_doc/index.html",
      "_links": {
        "self": {
          "name": "Junta de Concertación del subámbito 24.1 Iurramendi Pasealekua del PGOU de Tolosa",
          "href": "https://api.euskadi.eus/procurements/contracting-authorities/25546"
        }
      }
    },
    {
      "id": 393,
      "identificationNumber": "P2008100F",
      "name": "Ayuntamiento de Villabona",
      "scope": "GIPUZKOA",
      "address": "Erreboteko plaza z/g - 20150 Villabona (Gipuzkoa)",
      "webPage": "http://www.villabona.eus",
      "publicationDate": "2022-04-29",
      "mainActivity": "Servicios públicos generales",
      "codNUTS": "ES212",
      "entities": [
        {
          "id": 844,
          "name": "Ayuntamiento de Villabona",
          "orgs": [
            {
              "id": 912391,
              "name": "Pleno",
              "_links": {
                "self": {
                  "name": "Pleno",
                  "href": "https://api.euskadi.eus/procurements/contracting-authorities/393/entities/844/orgs/912391"
                }
              }
            },
            {
              "id": 912390,
              "name": "Alcaldía",
              "_links": {
                "self": {
                  "name": "Alcaldía",
                  "href": "https://api.euskadi.eus/procurements/contracting-authorities/393/entities/844/orgs/912390"
                }
              }
            }
          ],
          "_links": {
            "self": {
              "name": "Ayuntamiento de Villabona",
              "href": "https://api.euskadi.eus/procurements/contracting-authorities/393/entities/844"
            }
          }
        }
      ],
      "mainEntityOfPage": "https://www.contratacion.euskadi.eus/webkpe00-kpeperfi/es/contenidos/poder_adjudicador/poder393/es_doc/index.html",
      "_links": {
        "self": {
          "name": "Ayuntamiento de Villabona",
          "href": "https://api.euskadi.eus/procurements/contracting-authorities/393"
        }
      }
    },
    {
      "id": 233,
      "identificationNumber": "P0104300I",
      "name": "Ayuntamiento de Iruña de Oca",
      "scope": "ARABA/ÁLAVA",
      "address": "Parque Lehendakari J.A. Aguirre, 1. 01230 Iruña de Oca (Áraba/Álava)",
      "webPage": "http://www.irunadeoca.com",
      "publicationDate": "2022-04-19",
      "mainActivity": "Servicios públicos generales",
      "codNUTS": "ES211",
      "entities": [
        {
          "id": 681,
          "name": "Ayuntamiento de Iruña de Oca ",
          "orgs": [
            {
              "id": 912081,
              "name": "Alcalde",
              "_links": {
                "self": {
                  "name": "Alcalde",
                  "href": "https://api.euskadi.eus/procurements/contracting-authorities/233/entities/681/orgs/912081"
                }
              }
            },
            {
              "id": 912082,
              "name": "Junta de Gobierno Local",
              "_links": {
                "self": {
                  "name": "Junta de Gobierno Local",
                  "href": "https://api.euskadi.eus/procurements/contracting-authorities/233/entities/681/orgs/912082"
                }
              }
            },
            {
              "id": 25536,
              "name": "Pleno",
              "_links": {
                "self": {
                  "name": "Pleno",
                  "href": "https://api.euskadi.eus/procurements/contracting-authorities/233/entities/681/orgs/25536"
                }
              }
            }
          ],
          "_links": {
            "self": {
              "name": "Ayuntamiento de Iruña de Oca ",
              "href": "https://api.euskadi.eus/procurements/contracting-authorities/233/entities/681"
            }
          }
        }
      ],
      "mainEntityOfPage": "https://www.contratacion.euskadi.eus/webkpe00-kpeperfi/es/contenidos/poder_adjudicador/poder233/es_doc/index.html",
      "_links": {
        "self": {
          "name": "Ayuntamiento de Iruña de Oca",
          "href": "https://api.euskadi.eus/procurements/contracting-authorities/233"
        }
      }
    }
  ]
}