{
  "totalItems": 919,
  "totalPages": 92,
  "currentPage": 48,
  "itemsOfPage": 10,
  "items": [
    {
      "id": 307,
      "identificationNumber": "P4807600D",
      "name": "Ayuntamiento de Ugao-Miraballes",
      "scope": "BIZKAIA",
      "address": "Herriaren Enparantza, s/n, 48490 Ugao-Miraballes  ( Bizkaia )",
      "webPage": "http://www.ugao-miraballes.net",
      "publicationDate": "2019-10-07",
      "mainActivity": "Servicios públicos generales",
      "codNUTS": "ES213",
      "entities": [
        {
          "id": 756,
          "name": "Ayuntamiento de Ugao-Miraballes",
          "orgs": [
            {
              "id": 912217,
              "name": "Alcaldía",
              "_links": {
                "self": {
                  "name": "Alcaldía",
                  "href": "https://api.euskadi.eus/procurements/contracting-authorities/307/entities/756/orgs/912217"
                }
              }
            },
            {
              "id": 912218,
              "name": "Pleno",
              "_links": {
                "self": {
                  "name": "Pleno",
                  "href": "https://api.euskadi.eus/procurements/contracting-authorities/307/entities/756/orgs/912218"
                }
              }
            }
          ],
          "_links": {
            "self": {
              "name": "Ayuntamiento de Ugao-Miraballes",
              "href": "https://api.euskadi.eus/procurements/contracting-authorities/307/entities/756"
            }
          }
        }
      ],
      "mainEntityOfPage": "https://www.contratacion.euskadi.eus/webkpe00-kpeperfi/es/contenidos/poder_adjudicador/poder307/es_doc/es_arch_poder307.html",
      "_links": {
        "self": {
          "name": "Ayuntamiento de Ugao-Miraballes",
          "href": "https://api.euskadi.eus/procurements/contracting-authorities/307"
        }
      }
    },
    {
      "id": 309,
      "identificationNumber": "P4809300I",
      "name": "Ayuntamiento de Valle de Trápaga-Trapagaran",
      "scope": "BIZKAIA",
      "address": "Lauaxeta Plaza 1. 48510 Valle de Trápaga-Trapagaran (Bizkaia)",
      "webPage": "http://www.trapagaran.net",
      "publicationDate": "2019-10-07",
      "mainActivity": "Servicios públicos generales",
      "codNUTS": "ES213",
      "entities": [
        {
          "id": 758,
          "name": "Ayuntamiento de Valle de Trápaga-Trapagaran",
          "orgs": [
            {
              "id": 912223,
              "name": "Junta de Gobierno Local",
              "_links": {
                "self": {
                  "name": "Junta de Gobierno Local",
                  "href": "https://api.euskadi.eus/procurements/contracting-authorities/309/entities/758/orgs/912223"
                }
              }
            },
            {
              "id": 912221,
              "name": "Alcalde",
              "_links": {
                "self": {
                  "name": "Alcalde",
                  "href": "https://api.euskadi.eus/procurements/contracting-authorities/309/entities/758/orgs/912221"
                }
              }
            },
            {
              "id": 912222,
              "name": "Pleno",
              "_links": {
                "self": {
                  "name": "Pleno",
                  "href": "https://api.euskadi.eus/procurements/contracting-authorities/309/entities/758/orgs/912222"
                }
              }
            }
          ],
          "_links": {
            "self": {
              "name": "Ayuntamiento de Valle de Trápaga-Trapagaran",
              "href": "https://api.euskadi.eus/procurements/contracting-authorities/309/entities/758"
            }
          }
        }
      ],
      "mainEntityOfPage": "https://www.contratacion.euskadi.eus/webkpe00-kpeperfi/es/contenidos/poder_adjudicador/poder309/es_doc/es_arch_poder309.html",
      "_links": {
        "self": {
          "name": "Ayuntamiento de Valle de Trápaga-Trapagaran",
          "href": "https://api.euskadi.eus/procurements/contracting-authorities/309"
        }
      }
    },
    {
      "id": 313,
      "identificationNumber": "P4806300B",
      "name": "Ayuntamiento de Laukiz",
      "scope": "BIZKAIA",
      "address": "Plaza Lauaxeta, s/n. 48111 Laukiz (Bizkaia)",
      "webPage": "http://www.laukiz.eus",
      "publicationDate": "2019-10-07",
      "mainActivity": "Servicios públicos generales",
      "codNUTS": "ES213",
      "entities": [
        {
          "id": 762,
          "name": "Ayuntamiento de Laukiz",
          "orgs": [
            {
              "id": 912229,
              "name": "Pleno",
              "_links": {
                "self": {
                  "name": "Pleno",
                  "href": "https://api.euskadi.eus/procurements/contracting-authorities/313/entities/762/orgs/912229"
                }
              }
            },
            {
              "id": 912228,
              "name": "Alcalde",
              "_links": {
                "self": {
                  "name": "Alcalde",
                  "href": "https://api.euskadi.eus/procurements/contracting-authorities/313/entities/762/orgs/912228"
                }
              }
            }
          ],
          "_links": {
            "self": {
              "name": "Ayuntamiento de Laukiz",
              "href": "https://api.euskadi.eus/procurements/contracting-authorities/313/entities/762"
            }
          }
        }
      ],
      "mainEntityOfPage": "https://www.contratacion.euskadi.eus/webkpe00-kpeperfi/es/contenidos/poder_adjudicador/poder313/es_doc/es_arch_poder313.html",
      "_links": {
        "self": {
          "name": "Ayuntamiento de Laukiz",
          "href": "https://api.euskadi.eus/procurements/contracting-authorities/313"
        }
      }
    },
    {
      "id": 319,
      "identificationNumber": "Q4800628B",
      "name": "Instituto Tutelar de Bizkaia",
      "scope": "BIZKAIA",
      "address": "Rekalde Zumarkalea, 18. 3.solairua. 48009 Bilbao (Bizkaia)",
      "webPage": "http://www.tutoretza.bizkaia.eus",
      "publicationDate": "2019-10-07",
      "mainActivity": "Protección social",
      "codNUTS": "ES213",
      "entities": [
        {
          "id": 768,
          "name": "Instituto Tutelar de Bizkaia",
          "orgs": [
            {
              "id": 912240,
              "name": "Gerencia",
              "_links": {
                "self": {
                  "name": "Gerencia",
                  "href": "https://api.euskadi.eus/procurements/contracting-authorities/319/entities/768/orgs/912240"
                }
              }
            }
          ],
          "_links": {
            "self": {
              "name": "Instituto Tutelar de Bizkaia",
              "href": "https://api.euskadi.eus/procurements/contracting-authorities/319/entities/768"
            }
          }
        }
      ],
      "mainEntityOfPage": "https://www.contratacion.euskadi.eus/webkpe00-kpeperfi/es/contenidos/poder_adjudicador/poder319/es_doc/es_arch_poder319.html",
      "_links": {
        "self": {
          "name": "Instituto Tutelar de Bizkaia",
          "href": "https://api.euskadi.eus/procurements/contracting-authorities/319"
        }
      }
    },
    {
      "id": 320,
      "identificationNumber": "P4802900C",
      "name": "Ayuntamiento de Zeberio",
      "scope": "BIZKAIA",
      "address": "Barrio Zubialde, 10. 48499 Zeberio (Bizkaia)",
      "webPage": "http://www.zeberio.net",
      "publicationDate": "2019-10-07",
      "mainActivity": "Servicios públicos generales",
      "codNUTS": "ES213",
      "entities": [
        {
          "id": 769,
          "name": "Ayuntamiento de Zeberio",
          "orgs": [
            {
              "id": 912241,
              "name": "Alcaldía",
              "_links": {
                "self": {
                  "name": "Alcaldía",
                  "href": "https://api.euskadi.eus/procurements/contracting-authorities/320/entities/769/orgs/912241"
                }
              }
            },
            {
              "id": 912242,
              "name": "Pleno",
              "_links": {
                "self": {
                  "name": "Pleno",
                  "href": "https://api.euskadi.eus/procurements/contracting-authorities/320/entities/769/orgs/912242"
                }
              }
            }
          ],
          "_links": {
            "self": {
              "name": "Ayuntamiento de Zeberio",
              "href": "https://api.euskadi.eus/procurements/contracting-authorities/320/entities/769"
            }
          }
        }
      ],
      "mainEntityOfPage": "https://www.contratacion.euskadi.eus/webkpe00-kpeperfi/es/contenidos/poder_adjudicador/poder320/es_doc/es_arch_poder320.html",
      "_links": {
        "self": {
          "name": "Ayuntamiento de Zeberio",
          "href": "https://api.euskadi.eus/procurements/contracting-authorities/320"
        }
      }
    },
    {
      "id": 321,
      "identificationNumber": "P4805400A",
      "name": "Ayuntamiento de Güeñes",
      "scope": "BIZKAIA",
      "address": "Enkarterri, 5. 48840 Güeñes (Bizkaia)",
      "webPage": "http://www.guenes.net",
      "publicationDate": "2019-10-07",
      "mainActivity": "Servicios públicos generales",
      "codNUTS": "ES213",
      "entities": [
        {
          "id": 770,
          "name": "Ayuntamiento de Güeñes",
          "orgs": [
            {
              "id": 912243,
              "name": "Junta de Gobierno",
              "_links": {
                "self": {
                  "name": "Junta de Gobierno",
                  "href": "https://api.euskadi.eus/procurements/contracting-authorities/321/entities/770/orgs/912243"
                }
              }
            },
            {
              "id": 912244,
              "name": "Pleno",
              "_links": {
                "self": {
                  "name": "Pleno",
                  "href": "https://api.euskadi.eus/procurements/contracting-authorities/321/entities/770/orgs/912244"
                }
              }
            }
          ],
          "_links": {
            "self": {
              "name": "Ayuntamiento de Güeñes",
              "href": "https://api.euskadi.eus/procurements/contracting-authorities/321/entities/770"
            }
          }
        }
      ],
      "mainEntityOfPage": "https://www.contratacion.euskadi.eus/webkpe00-kpeperfi/es/contenidos/poder_adjudicador/poder321/es_doc/es_arch_poder321.html",
      "_links": {
        "self": {
          "name": "Ayuntamiento de Güeñes",
          "href": "https://api.euskadi.eus/procurements/contracting-authorities/321"
        }
      }
    },
    {
      "id": 324,
      "identificationNumber": "G95686051",
      "name": "Achucarro Basque Center for Neuroscience Fundazioa",
      "scope": "BIZKAIA",
      "address": "Parque Científico de la UPV/EHU, Edif. Sede. Sarriena auzoa, z/g. 48940 Leioa (Bizkaia)",
      "webPage": "http://www.achucarro.org",
      "publicationDate": "2019-10-07",
      "mainActivity": "Otra actividad",
      "alternativeActivity": "Investigación",
      "codNUTS": "ES213",
      "entities": [
        {
          "id": 775,
          "name": "Achucarro Basque Center for Neuroscience Fundazioa",
          "orgs": [
            {
              "id": 912250,
              "name": "Comité de Contratación",
              "_links": {
                "self": {
                  "name": "Comité de Contratación",
                  "href": "https://api.euskadi.eus/procurements/contracting-authorities/324/entities/775/orgs/912250"
                }
              }
            }
          ],
          "_links": {
            "self": {
              "name": "Achucarro Basque Center for Neuroscience Fundazioa",
              "href": "https://api.euskadi.eus/procurements/contracting-authorities/324/entities/775"
            }
          }
        }
      ],
      "mainEntityOfPage": "https://www.contratacion.euskadi.eus/webkpe00-kpeperfi/es/contenidos/poder_adjudicador/poder324/es_doc/es_arch_poder324.html",
      "_links": {
        "self": {
          "name": "Achucarro Basque Center for Neuroscience Fundazioa",
          "href": "https://api.euskadi.eus/procurements/contracting-authorities/324"
        }
      }
    },
    {
      "id": 325,
      "identificationNumber": "P4812700E",
      "name": "Ayuntamiento de Ajangiz",
      "scope": "BIZKAIA",
      "address": "Mendieta auzoa, z.g. 48320 Ajangiz (Bizkaia)  ",
      "webPage": "http://www.ajangiz.eus",
      "publicationDate": "2019-10-07",
      "mainActivity": "Servicios públicos generales",
      "codNUTS": "ES213",
      "entities": [
        {
          "id": 776,
          "name": "Ayuntamiento de Ajangiz",
          "orgs": [
            {
              "id": 912252,
              "name": "Pleno",
              "_links": {
                "self": {
                  "name": "Pleno",
                  "href": "https://api.euskadi.eus/procurements/contracting-authorities/325/entities/776/orgs/912252"
                }
              }
            },
            {
              "id": 912251,
              "name": "Alcaldía",
              "_links": {
                "self": {
                  "name": "Alcaldía",
                  "href": "https://api.euskadi.eus/procurements/contracting-authorities/325/entities/776/orgs/912251"
                }
              }
            }
          ],
          "_links": {
            "self": {
              "name": "Ayuntamiento de Ajangiz",
              "href": "https://api.euskadi.eus/procurements/contracting-authorities/325/entities/776"
            }
          }
        }
      ],
      "mainEntityOfPage": "https://www.contratacion.euskadi.eus/webkpe00-kpeperfi/es/contenidos/poder_adjudicador/poder325/es_doc/es_arch_poder325.html",
      "_links": {
        "self": {
          "name": "Ayuntamiento de Ajangiz",
          "href": "https://api.euskadi.eus/procurements/contracting-authorities/325"
        }
      }
    },
    {
      "id": 326,
      "identificationNumber": "P4802300F",
      "name": "Ayuntamiento de Berriz",
      "scope": "BIZKAIA",
      "address": "Iturritza, 51. 48240 Berriz (Bizkaia)",
      "webPage": "http://www.berriz.org",
      "publicationDate": "2019-10-07",
      "mainActivity": "Servicios públicos generales",
      "codNUTS": "ES213",
      "entities": [
        {
          "id": 777,
          "name": "Ayuntamiento de Berriz",
          "orgs": [
            {
              "id": 912254,
              "name": "Pleno",
              "_links": {
                "self": {
                  "name": "Pleno",
                  "href": "https://api.euskadi.eus/procurements/contracting-authorities/326/entities/777/orgs/912254"
                }
              }
            },
            {
              "id": 912253,
              "name": "Alcaldía ",
              "_links": {
                "self": {
                  "name": "Alcaldía ",
                  "href": "https://api.euskadi.eus/procurements/contracting-authorities/326/entities/777/orgs/912253"
                }
              }
            }
          ],
          "_links": {
            "self": {
              "name": "Ayuntamiento de Berriz",
              "href": "https://api.euskadi.eus/procurements/contracting-authorities/326/entities/777"
            }
          }
        }
      ],
      "mainEntityOfPage": "https://www.contratacion.euskadi.eus/webkpe00-kpeperfi/es/contenidos/poder_adjudicador/poder326/es_doc/es_arch_poder326.html",
      "_links": {
        "self": {
          "name": "Ayuntamiento de Berriz",
          "href": "https://api.euskadi.eus/procurements/contracting-authorities/326"
        }
      }
    },
    {
      "id": 327,
      "identificationNumber": "A95104832",
      "name": "Udal Sareak S.A.",
      "scope": "BIZKAIA",
      "address": "Uribitarte, 8-1º. 48001 Bilbao (Bizkaia)",
      "webPage": "http://www.udalsareak.com",
      "publicationDate": "2019-10-07",
      "mainActivity": "Medio ambiente",
      "codNUTS": "ES213",
      "entities": [
        {
          "id": 778,
          "name": "Udal Sareak S.A.",
          "orgs": [
            {
              "id": 912255,
              "name": "Consejo de Administración",
              "_links": {
                "self": {
                  "name": "Consejo de Administración",
                  "href": "https://api.euskadi.eus/procurements/contracting-authorities/327/entities/778/orgs/912255"
                }
              }
            },
            {
              "id": 912740,
              "name": "Gerente",
              "_links": {
                "self": {
                  "name": "Gerente",
                  "href": "https://api.euskadi.eus/procurements/contracting-authorities/327/entities/778/orgs/912740"
                }
              }
            },
            {
              "id": 912739,
              "name": "Adjunto gerente",
              "_links": {
                "self": {
                  "name": "Adjunto gerente",
                  "href": "https://api.euskadi.eus/procurements/contracting-authorities/327/entities/778/orgs/912739"
                }
              }
            }
          ],
          "_links": {
            "self": {
              "name": "Udal Sareak S.A.",
              "href": "https://api.euskadi.eus/procurements/contracting-authorities/327/entities/778"
            }
          }
        }
      ],
      "mainEntityOfPage": "https://www.contratacion.euskadi.eus/webkpe00-kpeperfi/es/contenidos/poder_adjudicador/poder327/es_doc/es_arch_poder327.html",
      "_links": {
        "self": {
          "name": "Udal Sareak S.A.",
          "href": "https://api.euskadi.eus/procurements/contracting-authorities/327"
        }
      }
    }
  ]
}