{
  "totalItems": 919,
  "totalPages": 92,
  "currentPage": 86,
  "itemsOfPage": 10,
  "items": [
    {
      "id": 593,
      "identificationNumber": "P0100224E",
      "name": "Junta Administrativa de Audikana",
      "scope": "ARABA/ÁLAVA",
      "address": "Audikana. 01206 (Araba/Álava)",
      "webPage": "http://www.contratacion.euskadi.eus",
      "publicationDate": "2018-11-15",
      "mainActivity": "Servicios públicos generales",
      "codNUTS": "ES211",
      "entities": [
        {
          "id": 1043,
          "name": "Junta Administrativa de Audikana",
          "orgs": [
            {
              "id": 912741,
              "name": "Concejo de Audikana",
              "_links": {
                "self": {
                  "name": "Concejo de Audikana",
                  "href": "https://api.euskadi.eus/procurements/contracting-authorities/593/entities/1043/orgs/912741"
                }
              }
            }
          ],
          "_links": {
            "self": {
              "name": "Junta Administrativa de Audikana",
              "href": "https://api.euskadi.eus/procurements/contracting-authorities/593/entities/1043"
            }
          }
        }
      ],
      "mainEntityOfPage": "https://www.contratacion.euskadi.eus/webkpe00-kpeperfi/es/contenidos/poder_adjudicador/poder593/es_doc/es_arch_poder593.html",
      "_links": {
        "self": {
          "name": "Junta Administrativa de Audikana",
          "href": "https://api.euskadi.eus/procurements/contracting-authorities/593"
        }
      }
    },
    {
      "id": 595,
      "identificationNumber": "P0100210D",
      "name": "Junta Administrativa de Arriola",
      "scope": "ARABA/ÁLAVA",
      "address": "Arriola. 01208 Asparrena (Araba/Álava)",
      "webPage": "http://www.contratacion.euskadi.eus",
      "publicationDate": "2018-11-15",
      "mainActivity": "Servicios públicos generales",
      "codNUTS": "ES211",
      "entities": [
        {
          "id": 1045,
          "name": "Junta Administrativa de Arriola",
          "orgs": [
            {
              "id": 912746,
              "name": "Concejo de Arriola",
              "_links": {
                "self": {
                  "name": "Concejo de Arriola",
                  "href": "https://api.euskadi.eus/procurements/contracting-authorities/595/entities/1045/orgs/912746"
                }
              }
            }
          ],
          "_links": {
            "self": {
              "name": "Junta Administrativa de Arriola",
              "href": "https://api.euskadi.eus/procurements/contracting-authorities/595/entities/1045"
            }
          }
        }
      ],
      "mainEntityOfPage": "https://www.contratacion.euskadi.eus/webkpe00-kpeperfi/es/contenidos/poder_adjudicador/poder595/es_doc/es_arch_poder595.html",
      "_links": {
        "self": {
          "name": "Junta Administrativa de Arriola",
          "href": "https://api.euskadi.eus/procurements/contracting-authorities/595"
        }
      }
    },
    {
      "id": 596,
      "identificationNumber": "P0100324C",
      "name": "Junta Administrativa de Betoño",
      "scope": "ARABA/ÁLAVA",
      "address": "Betoño 70. 01013. Betoño. Vitoria-Gasteiz (Araba/Álava)",
      "webPage": "http://www.contratacion.euskadi.eus",
      "publicationDate": "2018-11-15",
      "mainActivity": "Servicios públicos generales",
      "codNUTS": "ES211",
      "entities": [
        {
          "id": 1046,
          "name": "Junta Administrativa de Betoño",
          "orgs": [
            {
              "id": 912747,
              "name": "Concejo de Betoño",
              "_links": {
                "self": {
                  "name": "Concejo de Betoño",
                  "href": "https://api.euskadi.eus/procurements/contracting-authorities/596/entities/1046/orgs/912747"
                }
              }
            }
          ],
          "_links": {
            "self": {
              "name": "Junta Administrativa de Betoño",
              "href": "https://api.euskadi.eus/procurements/contracting-authorities/596/entities/1046"
            }
          }
        }
      ],
      "mainEntityOfPage": "https://www.contratacion.euskadi.eus/webkpe00-kpeperfi/es/contenidos/poder_adjudicador/poder596/es_doc/es_arch_poder596.html",
      "_links": {
        "self": {
          "name": "Junta Administrativa de Betoño",
          "href": "https://api.euskadi.eus/procurements/contracting-authorities/596"
        }
      }
    },
    {
      "id": 148,
      "identificationNumber": "A01128974",
      "name": "Parque Tecnológico de Álava, S.A.",
      "scope": "ARABA/ÁLAVA",
      "address": "Hermanos Lumiere, 11. 01510 Vitoria-Gasteiz (Álava)",
      "webPage": "http://www.parke.eus/alava",
      "publicationDate": "2018-11-13",
      "mainActivity": "Asuntos económicos y financieros",
      "codNUTS": "ES211",
      "entities": [
        {
          "id": 543,
          "name": "Parque Tecnológico de Álava, S.A.",
          "orgs": [
            {
              "id": 912757,
              "name": "Gerencia",
              "_links": {
                "self": {
                  "name": "Gerencia",
                  "href": "https://api.euskadi.eus/procurements/contracting-authorities/148/entities/543/orgs/912757"
                }
              }
            },
            {
              "id": 912756,
              "name": "Dirección General",
              "_links": {
                "self": {
                  "name": "Dirección General",
                  "href": "https://api.euskadi.eus/procurements/contracting-authorities/148/entities/543/orgs/912756"
                }
              }
            },
            {
              "id": 911742,
              "name": "Consejo de Administración",
              "_links": {
                "self": {
                  "name": "Consejo de Administración",
                  "href": "https://api.euskadi.eus/procurements/contracting-authorities/148/entities/543/orgs/911742"
                }
              }
            }
          ],
          "_links": {
            "self": {
              "name": "Parque Tecnológico de Álava, S.A.",
              "href": "https://api.euskadi.eus/procurements/contracting-authorities/148/entities/543"
            }
          }
        }
      ],
      "mainEntityOfPage": "https://www.contratacion.euskadi.eus/webkpe00-kpeperfi/es/contenidos/poder_adjudicador/poder148/es_doc/es_arch_poder148.html",
      "_links": {
        "self": {
          "name": "Parque Tecnológico de Álava, S.A.",
          "href": "https://api.euskadi.eus/procurements/contracting-authorities/148"
        }
      }
    },
    {
      "id": 586,
      "identificationNumber": "P0100387J",
      "name": "Junta Administrativa de Molinilla",
      "scope": "ARABA/ÁLAVA",
      "address": "Iglesia de Molinilla. 01213. Molinilla. Lantarón (Araba/Álava)",
      "webPage": "http://www.contratacion.euskadi.eus",
      "publicationDate": "2018-11-05",
      "mainActivity": "Servicios públicos generales",
      "codNUTS": "ES211",
      "entities": [
        {
          "id": 1036,
          "name": "Junta Administrativa de Molinilla",
          "orgs": [
            {
              "id": 912725,
              "name": "Presidente",
              "_links": {
                "self": {
                  "name": "Presidente",
                  "href": "https://api.euskadi.eus/procurements/contracting-authorities/586/entities/1036/orgs/912725"
                }
              }
            }
          ],
          "_links": {
            "self": {
              "name": "Junta Administrativa de Molinilla",
              "href": "https://api.euskadi.eus/procurements/contracting-authorities/586/entities/1036"
            }
          }
        }
      ],
      "mainEntityOfPage": "https://www.contratacion.euskadi.eus/webkpe00-kpeperfi/es/contenidos/poder_adjudicador/poder586/es_doc/es_arch_poder586.html",
      "_links": {
        "self": {
          "name": "Junta Administrativa de Molinilla",
          "href": "https://api.euskadi.eus/procurements/contracting-authorities/586"
        }
      }
    },
    {
      "id": 570,
      "identificationNumber": "P2005800D",
      "name": "Ayuntamiento de Lizartza",
      "scope": "GIPUZKOA",
      "address": "Askatasunaren Plaza, 1. 20490 Lizartza (Gipuzkoa)",
      "webPage": "http://www.lizartza.eus",
      "publicationDate": "2018-10-26",
      "mainActivity": "Servicios públicos generales",
      "codNUTS": "ES212",
      "entities": [
        {
          "id": 1020,
          "name": "Ayuntamiento de Lizartza",
          "orgs": [
            {
              "id": 912698,
              "name": "Pleno del Ayuntamiento",
              "_links": {
                "self": {
                  "name": "Pleno del Ayuntamiento",
                  "href": "https://api.euskadi.eus/procurements/contracting-authorities/570/entities/1020/orgs/912698"
                }
              }
            },
            {
              "id": 912697,
              "name": "Alcaldía",
              "_links": {
                "self": {
                  "name": "Alcaldía",
                  "href": "https://api.euskadi.eus/procurements/contracting-authorities/570/entities/1020/orgs/912697"
                }
              }
            }
          ],
          "_links": {
            "self": {
              "name": "Ayuntamiento de Lizartza",
              "href": "https://api.euskadi.eus/procurements/contracting-authorities/570/entities/1020"
            }
          }
        }
      ],
      "mainEntityOfPage": "https://www.contratacion.euskadi.eus/webkpe00-kpeperfi/es/contenidos/poder_adjudicador/poder570/es_doc/es_arch_poder570.html",
      "_links": {
        "self": {
          "name": "Ayuntamiento de Lizartza",
          "href": "https://api.euskadi.eus/procurements/contracting-authorities/570"
        }
      }
    },
    {
      "id": 571,
      "identificationNumber": "Q4800713B",
      "name": "Instituto Vasco de Finanzas",
      "scope": "CAPV",
      "address": "Donostia-San Sebastián,1. 01010 Vitoria-Gasteiz (Araba/Álava)",
      "webPage": "http://www.ivf-fei.euskadi.eus",
      "publicationDate": "2018-10-26",
      "mainActivity": "Servicios públicos generales",
      "codNUTS": "ES21",
      "entities": [
        {
          "id": 1021,
          "name": "Instituto Vasco de Finanzas",
          "orgs": [
            {
              "id": 912699,
              "name": "Director",
              "_links": {
                "self": {
                  "name": "Director",
                  "href": "https://api.euskadi.eus/procurements/contracting-authorities/571/entities/1021/orgs/912699"
                }
              }
            }
          ],
          "_links": {
            "self": {
              "name": "Instituto Vasco de Finanzas",
              "href": "https://api.euskadi.eus/procurements/contracting-authorities/571/entities/1021"
            }
          }
        }
      ],
      "mainEntityOfPage": "https://www.contratacion.euskadi.eus/webkpe00-kpeperfi/es/contenidos/poder_adjudicador/poder571/es_doc/es_arch_poder571.html",
      "_links": {
        "self": {
          "name": "Instituto Vasco de Finanzas",
          "href": "https://api.euskadi.eus/procurements/contracting-authorities/571"
        }
      }
    },
    {
      "id": 565,
      "identificationNumber": "P0100173D",
      "name": "Junta Administrativa de Izoria",
      "scope": "ARABA/ÁLAVA",
      "address": "Izoria. 01479 Ayala (Araba/Álava)",
      "webPage": "http://www.contratacion.euskadi.eus",
      "publicationDate": "2018-10-15",
      "mainActivity": "Servicios públicos generales",
      "codNUTS": "ES211",
      "entities": [
        {
          "id": 1015,
          "name": "Junta Administrativa de Izoria",
          "orgs": [
            {
              "id": 912690,
              "name": "Junta Administrativa",
              "_links": {
                "self": {
                  "name": "Junta Administrativa",
                  "href": "https://api.euskadi.eus/procurements/contracting-authorities/565/entities/1015/orgs/912690"
                }
              }
            }
          ],
          "_links": {
            "self": {
              "name": "Junta Administrativa de Izoria",
              "href": "https://api.euskadi.eus/procurements/contracting-authorities/565/entities/1015"
            }
          }
        }
      ],
      "mainEntityOfPage": "https://www.contratacion.euskadi.eus/webkpe00-kpeperfi/es/contenidos/poder_adjudicador/poder565/es_doc/es_arch_poder565.html",
      "_links": {
        "self": {
          "name": "Junta Administrativa de Izoria",
          "href": "https://api.euskadi.eus/procurements/contracting-authorities/565"
        }
      }
    },
    {
      "id": 563,
      "identificationNumber": "P0100307H",
      "name": "Junta Administrativa de Baranbio",
      "scope": "ARABA/ÁLAVA",
      "address": "Askantxu,41. 01450 Baranbio. Amurrio (Araba/álava)",
      "webPage": "http://www.contratacion.euskadi.eus",
      "publicationDate": "2018-10-09",
      "mainActivity": "Servicios públicos generales",
      "codNUTS": "ES211",
      "entities": [
        {
          "id": 1013,
          "name": "Junta Administrativa de Baranbio",
          "orgs": [
            {
              "id": 912687,
              "name": "Asamblea Vecinal",
              "_links": {
                "self": {
                  "name": "Asamblea Vecinal",
                  "href": "https://api.euskadi.eus/procurements/contracting-authorities/563/entities/1013/orgs/912687"
                }
              }
            },
            {
              "id": 912688,
              "name": "Regidor Presidente",
              "_links": {
                "self": {
                  "name": "Regidor Presidente",
                  "href": "https://api.euskadi.eus/procurements/contracting-authorities/563/entities/1013/orgs/912688"
                }
              }
            }
          ],
          "_links": {
            "self": {
              "name": "Junta Administrativa de Baranbio",
              "href": "https://api.euskadi.eus/procurements/contracting-authorities/563/entities/1013"
            }
          }
        }
      ],
      "mainEntityOfPage": "https://www.contratacion.euskadi.eus/webkpe00-kpeperfi/es/contenidos/poder_adjudicador/poder563/es_doc/es_arch_poder563.html",
      "_links": {
        "self": {
          "name": "Junta Administrativa de Baranbio",
          "href": "https://api.euskadi.eus/procurements/contracting-authorities/563"
        }
      }
    },
    {
      "id": 560,
      "identificationNumber": "P0100010H",
      "name": "Junta Administrativa de Lezama",
      "scope": "ARABA/ÁLAVA",
      "address": "Lezama,12. 01450 Lezama (Áraba/Álava))",
      "webPage": "http://www.contratacion.euskadi.eus",
      "publicationDate": "2018-10-04",
      "mainActivity": "Servicios públicos generales",
      "codNUTS": "ES211",
      "entities": [
        {
          "id": 1010,
          "name": "Junta Administrativa de Lezama",
          "orgs": [
            {
              "id": 912681,
              "name": "Presidente",
              "_links": {
                "self": {
                  "name": "Presidente",
                  "href": "https://api.euskadi.eus/procurements/contracting-authorities/560/entities/1010/orgs/912681"
                }
              }
            }
          ],
          "_links": {
            "self": {
              "name": "Junta Administrativa de Lezama",
              "href": "https://api.euskadi.eus/procurements/contracting-authorities/560/entities/1010"
            }
          }
        }
      ],
      "mainEntityOfPage": "https://www.contratacion.euskadi.eus/webkpe00-kpeperfi/es/contenidos/poder_adjudicador/poder560/es_doc/es_arch_poder560.html",
      "_links": {
        "self": {
          "name": "Junta Administrativa de Lezama",
          "href": "https://api.euskadi.eus/procurements/contracting-authorities/560"
        }
      }
    }
  ]
}