{
  "totalItems": 919,
  "totalPages": 92,
  "currentPage": 76,
  "itemsOfPage": 10,
  "items": [
    {
      "id": 635,
      "identificationNumber": "V20944641",
      "name": "Junta de Concertación de la UE 13/02B de la UI 13/02 Gaztaño-Berri de Errenteria. Agrupación de Inte",
      "scope": "GIPUZKOA",
      "address": "Pº de Lugaritz, 21. 20018 Donostia/San Sebastián (Gipuzkoa)",
      "webPage": "http://www.contratacion.euskadi.eus",
      "publicationDate": "2019-10-03",
      "mainActivity": "Vivienda y servicios comunitarios",
      "codNUTS": "ES212",
      "entities": [
        {
          "id": 1085,
          "name": "Junta de Concertación de la UI 13/02 Gaztaño-Berri de Errenteria",
          "orgs": [
            {
              "id": 912811,
              "name": "Asamblea General",
              "_links": {
                "self": {
                  "name": "Asamblea General",
                  "href": "https://api.euskadi.eus/procurements/contracting-authorities/635/entities/1085/orgs/912811"
                }
              }
            }
          ],
          "_links": {
            "self": {
              "name": "Junta de Concertación de la UI 13/02 Gaztaño-Berri de Errenteria",
              "href": "https://api.euskadi.eus/procurements/contracting-authorities/635/entities/1085"
            }
          }
        }
      ],
      "mainEntityOfPage": "https://www.contratacion.euskadi.eus/webkpe00-kpeperfi/es/contenidos/poder_adjudicador/poder635/es_doc/es_arch_poder635.html",
      "_links": {
        "self": {
          "name": "Junta de Concertación de la UE 13/02B de la UI 13/02 Gaztaño-Berri de Errenteria. Agrupación de Inte",
          "href": "https://api.euskadi.eus/procurements/contracting-authorities/635"
        }
      }
    },
    {
      "id": 641,
      "identificationNumber": "V75086306",
      "name": "Junta de Concertación UE PK.02 KARABEL de Hernani. Agrupación de Interés Urbanístico",
      "scope": "GIPUZKOA",
      "address": "Pº de Lugaritz, 21-Edificio Sukia. 20009 Donostia/San Sebastián (Gipuzkoa)",
      "webPage": "http://www.contratacion.euskadi.eus",
      "publicationDate": "2019-10-03",
      "mainActivity": "Vivienda y servicios comunitarios",
      "codNUTS": "ES212",
      "entities": [
        {
          "id": 1089,
          "name": "Junta de Concertación UE PK.02 KARABEL de Hernani",
          "orgs": [
            {
              "id": 912818,
              "name": "Asamblea General",
              "_links": {
                "self": {
                  "name": "Asamblea General",
                  "href": "https://api.euskadi.eus/procurements/contracting-authorities/641/entities/1089/orgs/912818"
                }
              }
            }
          ],
          "_links": {
            "self": {
              "name": "Junta de Concertación UE PK.02 KARABEL de Hernani",
              "href": "https://api.euskadi.eus/procurements/contracting-authorities/641/entities/1089"
            }
          }
        }
      ],
      "mainEntityOfPage": "https://www.contratacion.euskadi.eus/webkpe00-kpeperfi/es/contenidos/poder_adjudicador/poder641/es_doc/es_arch_poder641.html",
      "_links": {
        "self": {
          "name": "Junta de Concertación UE PK.02 KARABEL de Hernani. Agrupación de Interés Urbanístico",
          "href": "https://api.euskadi.eus/procurements/contracting-authorities/641"
        }
      }
    },
    {
      "id": 651,
      "identificationNumber": "V75047431",
      "name": "Junta de Concertación de la U.E.19.1-Larreategi de Lazkao",
      "scope": "GIPUZKOA",
      "address": "Avda. Julio Urquijo, 28-bajo. 20720 Azkoitia (Gipuzkoa)",
      "webPage": "http://www.contratacion.euskadi.eus",
      "publicationDate": "2019-10-03",
      "mainActivity": "Vivienda y servicios comunitarios",
      "codNUTS": "ES212",
      "entities": [
        {
          "id": 1101,
          "name": "Junta de Concertación de la U.E.19.1-Larreategi de Lazkao",
          "orgs": [
            {
              "id": 912832,
              "name": "Asamblea",
              "_links": {
                "self": {
                  "name": "Asamblea",
                  "href": "https://api.euskadi.eus/procurements/contracting-authorities/651/entities/1101/orgs/912832"
                }
              }
            }
          ],
          "_links": {
            "self": {
              "name": "Junta de Concertación de la U.E.19.1-Larreategi de Lazkao",
              "href": "https://api.euskadi.eus/procurements/contracting-authorities/651/entities/1101"
            }
          }
        }
      ],
      "mainEntityOfPage": "https://www.contratacion.euskadi.eus/webkpe00-kpeperfi/es/contenidos/poder_adjudicador/poder651/es_doc/es_arch_poder651.html",
      "_links": {
        "self": {
          "name": "Junta de Concertación de la U.E.19.1-Larreategi de Lazkao",
          "href": "https://api.euskadi.eus/procurements/contracting-authorities/651"
        }
      }
    },
    {
      "id": 698,
      "identificationNumber": "P0100140C",
      "name": "Junta Administrativa de Montevite",
      "scope": "ARABA/ÁLAVA",
      "address": "Oteros, 10. Montevite. 01428 Iruña de Oca (Araba/Álava)",
      "webPage": "http://www.contratacion.euskadi.eus",
      "publicationDate": "2019-10-03",
      "mainActivity": "Servicios públicos generales",
      "codNUTS": "ES211",
      "entities": [
        {
          "id": 1171,
          "name": "Junta Administrativa de Montevite ",
          "orgs": [
            {
              "id": 913547,
              "name": "Concejo de Montevite ",
              "_links": {
                "self": {
                  "name": "Concejo de Montevite ",
                  "href": "https://api.euskadi.eus/procurements/contracting-authorities/698/entities/1171/orgs/913547"
                }
              }
            }
          ],
          "_links": {
            "self": {
              "name": "Junta Administrativa de Montevite ",
              "href": "https://api.euskadi.eus/procurements/contracting-authorities/698/entities/1171"
            }
          }
        }
      ],
      "mainEntityOfPage": "https://www.contratacion.euskadi.eus/webkpe00-kpeperfi/es/contenidos/poder_adjudicador/poder698/es_doc/es_arch_poder698.html",
      "_links": {
        "self": {
          "name": "Junta Administrativa de Montevite",
          "href": "https://api.euskadi.eus/procurements/contracting-authorities/698"
        }
      }
    },
    {
      "id": 23,
      "identificationNumber": "P2009700B",
      "name": "Ayuntamiento de Baliarrain",
      "scope": "GIPUZKOA",
      "address": "Andra Mari Zeruratzearen enparantza 9. 20259 Baliarrain (Gipuzkoa)",
      "webPage": "http://www.baliarrain.net",
      "publicationDate": "2019-10-02",
      "mainActivity": "Servicios públicos generales",
      "codNUTS": "ES212",
      "entities": [
        {
          "id": 204,
          "name": "Ayuntamiento de Baliarrain",
          "orgs": [
            {
              "id": 910970,
              "name": "Alcalde",
              "_links": {
                "self": {
                  "name": "Alcalde",
                  "href": "https://api.euskadi.eus/procurements/contracting-authorities/23/entities/204/orgs/910970"
                }
              }
            },
            {
              "id": 910971,
              "name": "Pleno Municipal",
              "_links": {
                "self": {
                  "name": "Pleno Municipal",
                  "href": "https://api.euskadi.eus/procurements/contracting-authorities/23/entities/204/orgs/910971"
                }
              }
            }
          ],
          "_links": {
            "self": {
              "name": "Ayuntamiento de Baliarrain",
              "href": "https://api.euskadi.eus/procurements/contracting-authorities/23/entities/204"
            }
          }
        },
        {
          "id": 208,
          "name": "Ayuntamiento de Baliarrain",
          "_links": {
            "self": {
              "name": "Ayuntamiento de Baliarrain",
              "href": "https://api.euskadi.eus/procurements/contracting-authorities/23/entities/208"
            }
          }
        }
      ],
      "mainEntityOfPage": "https://www.contratacion.euskadi.eus/webkpe00-kpeperfi/es/contenidos/poder_adjudicador/poder23/es_doc/es_arch_poder23.html",
      "_links": {
        "self": {
          "name": "Ayuntamiento de Baliarrain",
          "href": "https://api.euskadi.eus/procurements/contracting-authorities/23"
        }
      }
    },
    {
      "id": 25,
      "identificationNumber": "P2000100D",
      "name": "Ayuntamiento de Abaltzisketa",
      "scope": "GIPUZKOA",
      "address": "San Juan Enparantza, z/g. 20269 Abaltzisketa (Gipuzkoa)",
      "webPage": "http://www.abaltzisketa.eus",
      "publicationDate": "2019-10-02",
      "mainActivity": "Servicios públicos generales",
      "codNUTS": "ES212",
      "entities": [
        {
          "id": 207,
          "name": "Ayuntamiento de Abaltzisketa",
          "orgs": [
            {
              "id": 910975,
              "name": "Pleno Municipal",
              "_links": {
                "self": {
                  "name": "Pleno Municipal",
                  "href": "https://api.euskadi.eus/procurements/contracting-authorities/25/entities/207/orgs/910975"
                }
              }
            },
            {
              "id": 910974,
              "name": "Alcalde",
              "_links": {
                "self": {
                  "name": "Alcalde",
                  "href": "https://api.euskadi.eus/procurements/contracting-authorities/25/entities/207/orgs/910974"
                }
              }
            }
          ],
          "_links": {
            "self": {
              "name": "Ayuntamiento de Abaltzisketa",
              "href": "https://api.euskadi.eus/procurements/contracting-authorities/25/entities/207"
            }
          }
        },
        {
          "id": 210,
          "name": "Ayuntamiento de Abaltzisketa",
          "_links": {
            "self": {
              "name": "Ayuntamiento de Abaltzisketa",
              "href": "https://api.euskadi.eus/procurements/contracting-authorities/25/entities/210"
            }
          }
        }
      ],
      "mainEntityOfPage": "https://www.contratacion.euskadi.eus/webkpe00-kpeperfi/es/contenidos/poder_adjudicador/poder25/es_doc/es_arch_poder25.html",
      "_links": {
        "self": {
          "name": "Ayuntamiento de Abaltzisketa",
          "href": "https://api.euskadi.eus/procurements/contracting-authorities/25"
        }
      }
    },
    {
      "id": 27,
      "identificationNumber": "P2000200B",
      "name": "Ayuntamiento de Aduna",
      "scope": "GIPUZKOA",
      "address": "Herriko plaza, 1 20150 Aduna (Gipuzkoa)",
      "webPage": "http://www.aduna.eus",
      "publicationDate": "2019-10-02",
      "mainActivity": "Servicios públicos generales",
      "codNUTS": "ES212",
      "entities": [
        {
          "id": 212,
          "name": "Ayuntamiento de Aduna",
          "orgs": [
            {
              "id": 910981,
              "name": "Pleno",
              "_links": {
                "self": {
                  "name": "Pleno",
                  "href": "https://api.euskadi.eus/procurements/contracting-authorities/27/entities/212/orgs/910981"
                }
              }
            },
            {
              "id": 910977,
              "name": "Alcalde",
              "_links": {
                "self": {
                  "name": "Alcalde",
                  "href": "https://api.euskadi.eus/procurements/contracting-authorities/27/entities/212/orgs/910977"
                }
              }
            }
          ],
          "_links": {
            "self": {
              "name": "Ayuntamiento de Aduna",
              "href": "https://api.euskadi.eus/procurements/contracting-authorities/27/entities/212"
            }
          }
        }
      ],
      "mainEntityOfPage": "https://www.contratacion.euskadi.eus/webkpe00-kpeperfi/es/contenidos/poder_adjudicador/poder27/es_doc/es_arch_poder27.html",
      "_links": {
        "self": {
          "name": "Ayuntamiento de Aduna",
          "href": "https://api.euskadi.eus/procurements/contracting-authorities/27"
        }
      }
    },
    {
      "id": 28,
      "identificationNumber": "P2000600C",
      "name": "Ayuntamiento de Alkiza",
      "scope": "GIPUZKOA",
      "address": "Ane Gómez Urteaga",
      "webPage": "http://www.alkiza.net",
      "publicationDate": "2019-10-02",
      "mainActivity": "Servicios públicos generales",
      "codNUTS": "ES212",
      "entities": [
        {
          "id": 214,
          "name": "Ayuntamiento de Alkiza",
          "orgs": [
            {
              "id": 910982,
              "name": "Pleno",
              "_links": {
                "self": {
                  "name": "Pleno",
                  "href": "https://api.euskadi.eus/procurements/contracting-authorities/28/entities/214/orgs/910982"
                }
              }
            },
            {
              "id": 910980,
              "name": "Alcalde",
              "_links": {
                "self": {
                  "name": "Alcalde",
                  "href": "https://api.euskadi.eus/procurements/contracting-authorities/28/entities/214/orgs/910980"
                }
              }
            }
          ],
          "_links": {
            "self": {
              "name": "Ayuntamiento de Alkiza",
              "href": "https://api.euskadi.eus/procurements/contracting-authorities/28/entities/214"
            }
          }
        }
      ],
      "mainEntityOfPage": "https://www.contratacion.euskadi.eus/webkpe00-kpeperfi/es/contenidos/poder_adjudicador/poder28/es_doc/es_arch_poder28.html",
      "_links": {
        "self": {
          "name": "Ayuntamiento de Alkiza",
          "href": "https://api.euskadi.eus/procurements/contracting-authorities/28"
        }
      }
    },
    {
      "id": 31,
      "identificationNumber": "P2002500C",
      "name": "Ayuntamiento de Berrobi",
      "scope": "GIPUZKOA",
      "address": "Ana Larrarte",
      "webPage": "http://www.berrobi.net",
      "publicationDate": "2019-10-02",
      "mainActivity": "Servicios públicos generales",
      "codNUTS": "ES212",
      "entities": [
        {
          "id": 218,
          "name": "Ayuntamiento de Berrobi",
          "orgs": [
            {
              "id": 910988,
              "name": "Alcalde",
              "_links": {
                "self": {
                  "name": "Alcalde",
                  "href": "https://api.euskadi.eus/procurements/contracting-authorities/31/entities/218/orgs/910988"
                }
              }
            },
            {
              "id": 910987,
              "name": "Pleno ayuntamiento",
              "_links": {
                "self": {
                  "name": "Pleno ayuntamiento",
                  "href": "https://api.euskadi.eus/procurements/contracting-authorities/31/entities/218/orgs/910987"
                }
              }
            }
          ],
          "_links": {
            "self": {
              "name": "Ayuntamiento de Berrobi",
              "href": "https://api.euskadi.eus/procurements/contracting-authorities/31/entities/218"
            }
          }
        }
      ],
      "mainEntityOfPage": "https://www.contratacion.euskadi.eus/webkpe00-kpeperfi/es/contenidos/poder_adjudicador/poder31/es_doc/es_arch_poder31.html",
      "_links": {
        "self": {
          "name": "Ayuntamiento de Berrobi",
          "href": "https://api.euskadi.eus/procurements/contracting-authorities/31"
        }
      }
    },
    {
      "id": 34,
      "identificationNumber": "P2008800A",
      "name": "Ayuntamiento de Bidania-Goiatz",
      "scope": "GIPUZKOA",
      "address": "Bidania gunea, 2. 20496 Bidania-Goiatz (Gipuzkoa)",
      "webPage": "http://www.bidegoian.net",
      "publicationDate": "2019-10-02",
      "mainActivity": "Servicios públicos generales",
      "codNUTS": "ES212",
      "entities": [
        {
          "id": 220,
          "name": "Ayuntamiento de Bidania-Goiatz",
          "orgs": [
            {
              "id": 910992,
              "name": "Pleno",
              "_links": {
                "self": {
                  "name": "Pleno",
                  "href": "https://api.euskadi.eus/procurements/contracting-authorities/34/entities/220/orgs/910992"
                }
              }
            },
            {
              "id": 910991,
              "name": "Alcalde",
              "_links": {
                "self": {
                  "name": "Alcalde",
                  "href": "https://api.euskadi.eus/procurements/contracting-authorities/34/entities/220/orgs/910991"
                }
              }
            }
          ],
          "_links": {
            "self": {
              "name": "Ayuntamiento de Bidania-Goiatz",
              "href": "https://api.euskadi.eus/procurements/contracting-authorities/34/entities/220"
            }
          }
        }
      ],
      "mainEntityOfPage": "https://www.contratacion.euskadi.eus/webkpe00-kpeperfi/es/contenidos/poder_adjudicador/poder34/es_doc/es_arch_poder34.html",
      "_links": {
        "self": {
          "name": "Ayuntamiento de Bidania-Goiatz",
          "href": "https://api.euskadi.eus/procurements/contracting-authorities/34"
        }
      }
    }
  ]
}