{
  "totalItems": 919,
  "totalPages": 92,
  "currentPage": 85,
  "itemsOfPage": 10,
  "items": [
    {
      "id": 598,
      "identificationNumber": "P0100125D",
      "name": "Junta Administrativa de Berricano",
      "scope": "ARABA/ÁLAVA",
      "address": "Nagusia, 2. 01138 Berrikano. Zigoitia (Araba/Álava)",
      "webPage": "http://www.contratacion.euskadi.eus",
      "publicationDate": "2018-11-20",
      "mainActivity": "Servicios públicos generales",
      "codNUTS": "ES211",
      "entities": [
        {
          "id": 1049,
          "name": "Junta Administrativa de Berricano",
          "orgs": [
            {
              "id": 912759,
              "name": "Asamblea Vecinal del Concejo de Berricano",
              "_links": {
                "self": {
                  "name": "Asamblea Vecinal del Concejo de Berricano",
                  "href": "https://api.euskadi.eus/procurements/contracting-authorities/598/entities/1049/orgs/912759"
                }
              }
            }
          ],
          "_links": {
            "self": {
              "name": "Junta Administrativa de Berricano",
              "href": "https://api.euskadi.eus/procurements/contracting-authorities/598/entities/1049"
            }
          }
        }
      ],
      "mainEntityOfPage": "https://www.contratacion.euskadi.eus/webkpe00-kpeperfi/es/contenidos/poder_adjudicador/poder598/es_doc/es_arch_poder598.html",
      "_links": {
        "self": {
          "name": "Junta Administrativa de Berricano",
          "href": "https://api.euskadi.eus/procurements/contracting-authorities/598"
        }
      }
    },
    {
      "id": 567,
      "identificationNumber": "P0100087F",
      "name": "Junta Administrativa de Lasierra",
      "scope": "ARABA/ÁLAVA",
      "address": "Lasierra, 24. 010000. Lasierra. Ribera Alta (Araba/Álava)",
      "webPage": "http://www.contratacion.euskadi.eus",
      "publicationDate": "2018-11-15",
      "mainActivity": "Servicios públicos generales",
      "codNUTS": "ES211",
      "entities": [
        {
          "id": 1017,
          "name": "Junta Administrativa de Lasierra",
          "orgs": [
            {
              "id": 912694,
              "name": "Concejo de Lasierra",
              "_links": {
                "self": {
                  "name": "Concejo de Lasierra",
                  "href": "https://api.euskadi.eus/procurements/contracting-authorities/567/entities/1017/orgs/912694"
                }
              }
            }
          ],
          "_links": {
            "self": {
              "name": "Junta Administrativa de Lasierra",
              "href": "https://api.euskadi.eus/procurements/contracting-authorities/567/entities/1017"
            }
          }
        }
      ],
      "mainEntityOfPage": "https://www.contratacion.euskadi.eus/webkpe00-kpeperfi/es/contenidos/poder_adjudicador/poder567/es_doc/es_arch_poder567.html",
      "_links": {
        "self": {
          "name": "Junta Administrativa de Lasierra",
          "href": "https://api.euskadi.eus/procurements/contracting-authorities/567"
        }
      }
    },
    {
      "id": 574,
      "identificationNumber": "P0100077G",
      "name": "Junta Administrativa de Villanueva de Valdegovía",
      "scope": "ARABA/ÁLAVA",
      "address": "Arquitecto Jesús Guinea, 18. 01426 Villanueva de Valdegovía",
      "webPage": "http://www.contratacion.euskadi.eus",
      "publicationDate": "2018-11-15",
      "mainActivity": "Servicios públicos generales",
      "codNUTS": "ES211",
      "entities": [
        {
          "id": 1024,
          "name": "Junta Administrativa de Villanueva de Valdegovía",
          "orgs": [
            {
              "id": 912702,
              "name": "Concejo de Villanueva de Valdegovia",
              "_links": {
                "self": {
                  "name": "Concejo de Villanueva de Valdegovia",
                  "href": "https://api.euskadi.eus/procurements/contracting-authorities/574/entities/1024/orgs/912702"
                }
              }
            }
          ],
          "_links": {
            "self": {
              "name": "Junta Administrativa de Villanueva de Valdegovía",
              "href": "https://api.euskadi.eus/procurements/contracting-authorities/574/entities/1024"
            }
          }
        }
      ],
      "mainEntityOfPage": "https://www.contratacion.euskadi.eus/webkpe00-kpeperfi/es/contenidos/poder_adjudicador/poder574/es_doc/es_arch_poder574.html",
      "_links": {
        "self": {
          "name": "Junta Administrativa de Villanueva de Valdegovía",
          "href": "https://api.euskadi.eus/procurements/contracting-authorities/574"
        }
      }
    },
    {
      "id": 575,
      "identificationNumber": "P0100322G",
      "name": "Junta Administrativa de Anda",
      "scope": "ARABA/ÁLAVA",
      "address": "Anda,7. 01439 Kuartango (Araba/Álava)",
      "webPage": "http://contratacion.euskadi.eus",
      "publicationDate": "2018-11-15",
      "mainActivity": "Servicios públicos generales",
      "codNUTS": "ES211",
      "entities": [
        {
          "id": 1025,
          "name": "Junta Administrativa de Anda",
          "orgs": [
            {
              "id": 912706,
              "name": "Concejo de Anda",
              "_links": {
                "self": {
                  "name": "Concejo de Anda",
                  "href": "https://api.euskadi.eus/procurements/contracting-authorities/575/entities/1025/orgs/912706"
                }
              }
            }
          ],
          "_links": {
            "self": {
              "name": "Junta Administrativa de Anda",
              "href": "https://api.euskadi.eus/procurements/contracting-authorities/575/entities/1025"
            }
          }
        }
      ],
      "mainEntityOfPage": "https://www.contratacion.euskadi.eus/webkpe00-kpeperfi/es/contenidos/poder_adjudicador/poder575/es_doc/es_arch_poder575.html",
      "_links": {
        "self": {
          "name": "Junta Administrativa de Anda",
          "href": "https://api.euskadi.eus/procurements/contracting-authorities/575"
        }
      }
    },
    {
      "id": 578,
      "identificationNumber": "P0100411H",
      "name": "Junta Administrativa de Villanañe",
      "scope": "ARABA/ÁLAVA",
      "address": "Plaza del Mercado. 01426 Villanañe (Araba/Álava)",
      "webPage": "http://www.contratacion.euskadi.eus",
      "publicationDate": "2018-11-15",
      "mainActivity": "Servicios públicos generales",
      "codNUTS": "ES211",
      "entities": [
        {
          "id": 1028,
          "name": "Junta Administrativa de Villanañe",
          "orgs": [
            {
              "id": 912709,
              "name": "Concejo de Villanañe",
              "_links": {
                "self": {
                  "name": "Concejo de Villanañe",
                  "href": "https://api.euskadi.eus/procurements/contracting-authorities/578/entities/1028/orgs/912709"
                }
              }
            }
          ],
          "_links": {
            "self": {
              "name": "Junta Administrativa de Villanañe",
              "href": "https://api.euskadi.eus/procurements/contracting-authorities/578/entities/1028"
            }
          }
        }
      ],
      "mainEntityOfPage": "https://www.contratacion.euskadi.eus/webkpe00-kpeperfi/es/contenidos/poder_adjudicador/poder578/es_doc/es_arch_poder578.html",
      "_links": {
        "self": {
          "name": "Junta Administrativa de Villanañe",
          "href": "https://api.euskadi.eus/procurements/contracting-authorities/578"
        }
      }
    },
    {
      "id": 579,
      "identificationNumber": "P0100025F",
      "name": "Junta Administrativa de Corro",
      "scope": "ARABA/ÁLAVA",
      "address": "Real,s/n. 01427. Corro (Araba/Álava)",
      "webPage": "http://www.contratacion.euskadi.eus",
      "publicationDate": "2018-11-15",
      "mainActivity": "Servicios públicos generales",
      "codNUTS": "ES211",
      "entities": [
        {
          "id": 1029,
          "name": "Junta Administrativa de Corro",
          "orgs": [
            {
              "id": 912712,
              "name": "Concejo de Corro",
              "_links": {
                "self": {
                  "name": "Concejo de Corro",
                  "href": "https://api.euskadi.eus/procurements/contracting-authorities/579/entities/1029/orgs/912712"
                }
              }
            }
          ],
          "_links": {
            "self": {
              "name": "Junta Administrativa de Corro",
              "href": "https://api.euskadi.eus/procurements/contracting-authorities/579/entities/1029"
            }
          }
        }
      ],
      "mainEntityOfPage": "https://www.contratacion.euskadi.eus/webkpe00-kpeperfi/es/contenidos/poder_adjudicador/poder579/es_doc/es_arch_poder579.html",
      "_links": {
        "self": {
          "name": "Junta Administrativa de Corro",
          "href": "https://api.euskadi.eus/procurements/contracting-authorities/579"
        }
      }
    },
    {
      "id": 580,
      "identificationNumber": "P0100102C",
      "name": "Junta Administrativa de Espejo",
      "scope": "ARABA/ÁLAVA",
      "address": "Carretera Bilbao 59 A. 01423 Espejo (Araba/Álava)",
      "webPage": "http://www.contratacion.euskadi.eus",
      "publicationDate": "2018-11-15",
      "mainActivity": "Servicios públicos generales",
      "codNUTS": "ES211",
      "entities": [
        {
          "id": 1030,
          "name": "Junta Administrativa de Espejo",
          "orgs": [
            {
              "id": 912715,
              "name": "Concejo de Espejo",
              "_links": {
                "self": {
                  "name": "Concejo de Espejo",
                  "href": "https://api.euskadi.eus/procurements/contracting-authorities/580/entities/1030/orgs/912715"
                }
              }
            }
          ],
          "_links": {
            "self": {
              "name": "Junta Administrativa de Espejo",
              "href": "https://api.euskadi.eus/procurements/contracting-authorities/580/entities/1030"
            }
          }
        }
      ],
      "mainEntityOfPage": "https://www.contratacion.euskadi.eus/webkpe00-kpeperfi/es/contenidos/poder_adjudicador/poder580/es_doc/es_arch_poder580.html",
      "_links": {
        "self": {
          "name": "Junta Administrativa de Espejo",
          "href": "https://api.euskadi.eus/procurements/contracting-authorities/580"
        }
      }
    },
    {
      "id": 581,
      "identificationNumber": "P0100150B",
      "name": "Junta Administrativa de Tuesta",
      "scope": "ARABA/ÁLAVA",
      "address": "Real s/n. 01423. Espejo (Araba/Álava)",
      "webPage": "http://contratacion.euskadi.eus",
      "publicationDate": "2018-11-15",
      "mainActivity": "Servicios públicos generales",
      "codNUTS": "ES211",
      "entities": [
        {
          "id": 1031,
          "name": "Junta Administrativa de Tuesta",
          "orgs": [
            {
              "id": 912718,
              "name": "Concejo de Tuesta",
              "_links": {
                "self": {
                  "name": "Concejo de Tuesta",
                  "href": "https://api.euskadi.eus/procurements/contracting-authorities/581/entities/1031/orgs/912718"
                }
              }
            }
          ],
          "_links": {
            "self": {
              "name": "Junta Administrativa de Tuesta",
              "href": "https://api.euskadi.eus/procurements/contracting-authorities/581/entities/1031"
            }
          }
        }
      ],
      "mainEntityOfPage": "https://www.contratacion.euskadi.eus/webkpe00-kpeperfi/es/contenidos/poder_adjudicador/poder581/es_doc/es_arch_poder581.html",
      "_links": {
        "self": {
          "name": "Junta Administrativa de Tuesta",
          "href": "https://api.euskadi.eus/procurements/contracting-authorities/581"
        }
      }
    },
    {
      "id": 582,
      "identificationNumber": "P5190001G",
      "name": "Junta Administrativa de Zerio",
      "scope": "ARABA/ÁLAVA",
      "address": "Zerio s/n. 01192. Zerio. (Araba/Álava)",
      "webPage": "http://www.contratacion.euskadi.eus",
      "publicationDate": "2018-11-15",
      "mainActivity": "Servicios públicos generales",
      "codNUTS": "ES211",
      "entities": [
        {
          "id": 1032,
          "name": "Junta Administrativa de Zerio",
          "orgs": [
            {
              "id": 912721,
              "name": "Concejo de Zerio",
              "_links": {
                "self": {
                  "name": "Concejo de Zerio",
                  "href": "https://api.euskadi.eus/procurements/contracting-authorities/582/entities/1032/orgs/912721"
                }
              }
            }
          ],
          "_links": {
            "self": {
              "name": "Junta Administrativa de Zerio",
              "href": "https://api.euskadi.eus/procurements/contracting-authorities/582/entities/1032"
            }
          }
        }
      ],
      "mainEntityOfPage": "https://www.contratacion.euskadi.eus/webkpe00-kpeperfi/es/contenidos/poder_adjudicador/poder582/es_doc/es_arch_poder582.html",
      "_links": {
        "self": {
          "name": "Junta Administrativa de Zerio",
          "href": "https://api.euskadi.eus/procurements/contracting-authorities/582"
        }
      }
    },
    {
      "id": 583,
      "identificationNumber": "P0100273B",
      "name": "Junta Administrativa de Mendoza",
      "scope": "ARABA/ÁLAVA",
      "address": "Mendoza 34. 01191 Mendoza (Araba/Álava)",
      "webPage": "http://www.contratacion.euskadi.eus",
      "publicationDate": "2018-11-15",
      "mainActivity": "Servicios públicos generales",
      "codNUTS": "ES211",
      "entities": [
        {
          "id": 1033,
          "name": "Junta Administrativa de Mendoza",
          "orgs": [
            {
              "id": 912722,
              "name": "Concejo de Mendoza",
              "_links": {
                "self": {
                  "name": "Concejo de Mendoza",
                  "href": "https://api.euskadi.eus/procurements/contracting-authorities/583/entities/1033/orgs/912722"
                }
              }
            }
          ],
          "_links": {
            "self": {
              "name": "Junta Administrativa de Mendoza",
              "href": "https://api.euskadi.eus/procurements/contracting-authorities/583/entities/1033"
            }
          }
        }
      ],
      "mainEntityOfPage": "https://www.contratacion.euskadi.eus/webkpe00-kpeperfi/es/contenidos/poder_adjudicador/poder583/es_doc/es_arch_poder583.html",
      "_links": {
        "self": {
          "name": "Junta Administrativa de Mendoza",
          "href": "https://api.euskadi.eus/procurements/contracting-authorities/583"
        }
      }
    }
  ]
}