{
  "totalItems": 919,
  "totalPages": 92,
  "currentPage": 13,
  "itemsOfPage": 10,
  "items": [
    {
      "id": 26431,
      "identificationNumber": "P0100218G",
      "name": "Junta Administrativa de Bóveda",
      "scope": "ARABA/ÁLAVA",
      "address": "San Pelayo Kalea, 15, 01427 Bóveda, Araba",
      "webPage": "https://www.valdegovia.eus/es/juntas-administrativas/boveda",
      "publicationDate": "2023-12-13",
      "mainActivity": "Servicios públicos generales",
      "codNUTS": "ES211",
      "entities": [
        {
          "id": 26432,
          "name": "Junta Administrativa de Bóveda",
          "orgs": [
            {
              "id": 26433,
              "name": "Concejo de Bóveda",
              "_links": {
                "self": {
                  "name": "Concejo de Bóveda",
                  "href": "https://api.euskadi.eus/procurements/contracting-authorities/26431/entities/26432/orgs/26433"
                }
              }
            }
          ],
          "_links": {
            "self": {
              "name": "Junta Administrativa de Bóveda",
              "href": "https://api.euskadi.eus/procurements/contracting-authorities/26431/entities/26432"
            }
          }
        }
      ],
      "mainEntityOfPage": "https://www.contratacion.euskadi.eus/webkpe00-kpeperfi/es/contenidos/poder_adjudicador/poder26431/es_doc/index.html",
      "_links": {
        "self": {
          "name": "Junta Administrativa de Bóveda",
          "href": "https://api.euskadi.eus/procurements/contracting-authorities/26431"
        }
      }
    },
    {
      "id": 26424,
      "identificationNumber": "G01113901",
      "name": "Comunidad de Regantes de Los Planos",
      "scope": "ARABA/ÁLAVA",
      "address": "C/Arriba, 8 - 01216 Bernedo (Araba)",
      "webPage": "https://oconsc.es",
      "publicationDate": "2023-11-17",
      "mainActivity": "Medio ambiente",
      "codNUTS": "ES211",
      "entities": [
        {
          "id": 26425,
          "name": "Comunidad de Regantes de Los Planos ",
          "orgs": [
            {
              "id": 26426,
              "name": "Junta Administrativa de Comunidad de Regantes de Los Planos ",
              "_links": {
                "self": {
                  "name": "Junta Administrativa de Comunidad de Regantes de Los Planos ",
                  "href": "https://api.euskadi.eus/procurements/contracting-authorities/26424/entities/26425/orgs/26426"
                }
              }
            }
          ],
          "_links": {
            "self": {
              "name": "Comunidad de Regantes de Los Planos ",
              "href": "https://api.euskadi.eus/procurements/contracting-authorities/26424/entities/26425"
            }
          }
        }
      ],
      "mainEntityOfPage": "https://www.contratacion.euskadi.eus/webkpe00-kpeperfi/es/contenidos/poder_adjudicador/poder26424/es_doc/index.html",
      "_links": {
        "self": {
          "name": "Comunidad de Regantes de Los Planos",
          "href": "https://api.euskadi.eus/procurements/contracting-authorities/26424"
        }
      }
    },
    {
      "id": 24605,
      "identificationNumber": "P4800054A",
      "name": "Mancomunidad de Servicios Nerbioi-Ibaizabal",
      "scope": "BIZKAIA",
      "address": "Elexalde, 18",
      "webPage": "http://www.nerbioi-ibaizabal.eus/",
      "publicationDate": "2023-11-16",
      "mainActivity": "Servicios públicos generales",
      "codNUTS": "ES213",
      "entities": [
        {
          "id": 24606,
          "name": "Mancomunidad de Servicios Nerbioi-Ibaizabal",
          "orgs": [
            {
              "id": 24607,
              "name": "Alcaldía / Pleno",
              "_links": {
                "self": {
                  "name": "Alcaldía / Pleno",
                  "href": "https://api.euskadi.eus/procurements/contracting-authorities/24605/entities/24606/orgs/24607"
                }
              }
            }
          ],
          "_links": {
            "self": {
              "name": "Mancomunidad de Servicios Nerbioi-Ibaizabal",
              "href": "https://api.euskadi.eus/procurements/contracting-authorities/24605/entities/24606"
            }
          }
        }
      ],
      "mainEntityOfPage": "https://www.contratacion.euskadi.eus/webkpe00-kpeperfi/es/contenidos/poder_adjudicador/poder24605/es_doc/index.html",
      "_links": {
        "self": {
          "name": "Mancomunidad de Servicios Nerbioi-Ibaizabal",
          "href": "https://api.euskadi.eus/procurements/contracting-authorities/24605"
        }
      }
    },
    {
      "id": 190,
      "identificationNumber": "P2001800H",
      "name": "Ayuntamiento de Azkoitia",
      "scope": "GIPUZKOA",
      "address": "Herriko enparantza, s/n. 20720 Azkoitia (Gipuzkoa)",
      "webPage": "http://www.azkoitia.eus",
      "publicationDate": "2023-11-14",
      "mainActivity": "Servicios públicos generales",
      "codNUTS": "ES212",
      "entities": [
        {
          "id": 620,
          "name": "Ayuntamiento de Azkoitia",
          "orgs": [
            {
              "id": 911932,
              "name": "Pleno",
              "_links": {
                "self": {
                  "name": "Pleno",
                  "href": "https://api.euskadi.eus/procurements/contracting-authorities/190/entities/620/orgs/911932"
                }
              }
            },
            {
              "id": 911934,
              "name": "Concejal/a",
              "_links": {
                "self": {
                  "name": "Concejal/a",
                  "href": "https://api.euskadi.eus/procurements/contracting-authorities/190/entities/620/orgs/911934"
                }
              }
            },
            {
              "id": 911935,
              "name": "Delegado/a",
              "_links": {
                "self": {
                  "name": "Delegado/a",
                  "href": "https://api.euskadi.eus/procurements/contracting-authorities/190/entities/620/orgs/911935"
                }
              }
            },
            {
              "id": 911933,
              "name": "Alcalde",
              "_links": {
                "self": {
                  "name": "Alcalde",
                  "href": "https://api.euskadi.eus/procurements/contracting-authorities/190/entities/620/orgs/911933"
                }
              }
            },
            {
              "id": 26422,
              "name": "Junta de Gobierno Local",
              "_links": {
                "self": {
                  "name": "Junta de Gobierno Local",
                  "href": "https://api.euskadi.eus/procurements/contracting-authorities/190/entities/620/orgs/26422"
                }
              }
            }
          ],
          "_links": {
            "self": {
              "name": "Ayuntamiento de Azkoitia",
              "href": "https://api.euskadi.eus/procurements/contracting-authorities/190/entities/620"
            }
          }
        },
        {
          "id": 1047,
          "name": "Instituto Zubiaurre-Elkargune",
          "orgs": [
            {
              "id": 912751,
              "name": "Consejo Rector",
              "_links": {
                "self": {
                  "name": "Consejo Rector",
                  "href": "https://api.euskadi.eus/procurements/contracting-authorities/190/entities/1047/orgs/912751"
                }
              }
            },
            {
              "id": 912750,
              "name": "Presidente",
              "_links": {
                "self": {
                  "name": "Presidente",
                  "href": "https://api.euskadi.eus/procurements/contracting-authorities/190/entities/1047/orgs/912750"
                }
              }
            }
          ],
          "_links": {
            "self": {
              "name": "Instituto Zubiaurre-Elkargune",
              "href": "https://api.euskadi.eus/procurements/contracting-authorities/190/entities/1047"
            }
          }
        }
      ],
      "mainEntityOfPage": "https://www.contratacion.euskadi.eus/webkpe00-kpeperfi/es/contenidos/poder_adjudicador/poder190/es_doc/index.html",
      "_links": {
        "self": {
          "name": "Ayuntamiento de Azkoitia",
          "href": "https://api.euskadi.eus/procurements/contracting-authorities/190"
        }
      }
    },
    {
      "id": 26418,
      "identificationNumber": "Q0100620D",
      "name": "Agencia Vasca de Ciberseguridad (Cyberzaintza)",
      "scope": "ARABA/ÁLAVA",
      "address": "Postal: Parque Tecnológico de Álava - Edificio E7 Calle Albert Einstein, 46, 305, Vitoria, 01510, ES",
      "webPage": "https://www.ciberseguridad.eus/",
      "publicationDate": "2023-11-13",
      "mainActivity": "Otra actividad",
      "alternativeActivity": "Ciberseguridad ",
      "codNUTS": "ES211",
      "entities": [
        {
          "id": 26419,
          "name": "Cyberzaintza",
          "orgs": [
            {
              "id": 26420,
              "name": "Director General",
              "_links": {
                "self": {
                  "name": "Director General",
                  "href": "https://api.euskadi.eus/procurements/contracting-authorities/26418/entities/26419/orgs/26420"
                }
              }
            }
          ],
          "_links": {
            "self": {
              "name": "Cyberzaintza",
              "href": "https://api.euskadi.eus/procurements/contracting-authorities/26418/entities/26419"
            }
          }
        }
      ],
      "mainEntityOfPage": "https://www.contratacion.euskadi.eus/webkpe00-kpeperfi/es/contenidos/poder_adjudicador/poder26418/es_doc/index.html",
      "_links": {
        "self": {
          "name": "Agencia Vasca de Ciberseguridad (Cyberzaintza)",
          "href": "https://api.euskadi.eus/procurements/contracting-authorities/26418"
        }
      }
    },
    {
      "id": 26408,
      "identificationNumber": "V16995714",
      "name": "Junta de Concertación de la U.E. del A.U. 2 Txantxil Soroa de Aizarnazabal",
      "scope": "GIPUZKOA",
      "address": "Herriko Plaza, 1, 20749 Aizarnazabal, Gipuzkoa",
      "webPage": "https://www.aizarnazabal.eus/eu/a-u-2-txantil-soroa",
      "publicationDate": "2023-10-31",
      "mainActivity": "Vivienda y servicios comunitarios",
      "codNUTS": "ES212",
      "entities": [
        {
          "id": 26409,
          "name": "Junta de Concertación de la U.E. del A.U. 2 Txantxil Soroa de Aizarnazabal",
          "orgs": [
            {
              "id": 26410,
              "name": "Asamblea de la Junta de Concertación",
              "_links": {
                "self": {
                  "name": "Asamblea de la Junta de Concertación",
                  "href": "https://api.euskadi.eus/procurements/contracting-authorities/26408/entities/26409/orgs/26410"
                }
              }
            }
          ],
          "_links": {
            "self": {
              "name": "Junta de Concertación de la U.E. del A.U. 2 Txantxil Soroa de Aizarnazabal",
              "href": "https://api.euskadi.eus/procurements/contracting-authorities/26408/entities/26409"
            }
          }
        }
      ],
      "mainEntityOfPage": "https://www.contratacion.euskadi.eus/webkpe00-kpeperfi/es/contenidos/poder_adjudicador/poder26408/es_doc/index.html",
      "_links": {
        "self": {
          "name": "Junta de Concertación de la U.E. del A.U. 2 Txantxil Soroa de Aizarnazabal",
          "href": "https://api.euskadi.eus/procurements/contracting-authorities/26408"
        }
      }
    },
    {
      "id": 26403,
      "identificationNumber": "P0100017C",
      "name": "Junta Administrativa de Okariz",
      "scope": "ARABA/ÁLAVA",
      "address": "Karafioste nº1 - 01207, Ocáriz San Millán/Donemiliaga, Álava",
      "webPage": "https://donemiliaga.eus/san-millan/pueblos/okariz/",
      "publicationDate": "2023-10-26",
      "mainActivity": "Servicios públicos generales",
      "codNUTS": "ES211",
      "entities": [
        {
          "id": 26404,
          "name": "Junta Administrativa de Okariz",
          "orgs": [
            {
              "id": 26405,
              "name": "Junta Administrativa de Okariz",
              "_links": {
                "self": {
                  "name": "Junta Administrativa de Okariz",
                  "href": "https://api.euskadi.eus/procurements/contracting-authorities/26403/entities/26404/orgs/26405"
                }
              }
            }
          ],
          "_links": {
            "self": {
              "name": "Junta Administrativa de Okariz",
              "href": "https://api.euskadi.eus/procurements/contracting-authorities/26403/entities/26404"
            }
          }
        }
      ],
      "mainEntityOfPage": "https://www.contratacion.euskadi.eus/webkpe00-kpeperfi/es/contenidos/poder_adjudicador/poder26403/es_doc/index.html",
      "_links": {
        "self": {
          "name": "Junta Administrativa de Okariz",
          "href": "https://api.euskadi.eus/procurements/contracting-authorities/26403"
        }
      }
    },
    {
      "id": 246,
      "identificationNumber": "P4808700A",
      "name": "Ayuntamiento de Orduña",
      "scope": "BIZKAIA",
      "address": "Foru Plaza, 1. 48460 Urduña/Orduña (Bizkaia)",
      "webPage": "http://www.urduna.com",
      "publicationDate": "2023-10-26",
      "mainActivity": "Servicios públicos generales",
      "codNUTS": "ES213",
      "entities": [
        {
          "id": 773,
          "name": "Urduñako Arkupea S.L.",
          "orgs": [
            {
              "id": 912248,
              "name": "Administrador único",
              "_links": {
                "self": {
                  "name": "Administrador único",
                  "href": "https://api.euskadi.eus/procurements/contracting-authorities/246/entities/773/orgs/912248"
                }
              }
            }
          ],
          "_links": {
            "self": {
              "name": "Urduñako Arkupea S.L.",
              "href": "https://api.euskadi.eus/procurements/contracting-authorities/246/entities/773"
            }
          }
        },
        {
          "id": 774,
          "name": "Urduñederra, Urduña Ederra S.L.",
          "orgs": [
            {
              "id": 912249,
              "name": "Consejo de Administración",
              "_links": {
                "self": {
                  "name": "Consejo de Administración",
                  "href": "https://api.euskadi.eus/procurements/contracting-authorities/246/entities/774/orgs/912249"
                }
              }
            }
          ],
          "_links": {
            "self": {
              "name": "Urduñederra, Urduña Ederra S.L.",
              "href": "https://api.euskadi.eus/procurements/contracting-authorities/246/entities/774"
            }
          }
        },
        {
          "id": 694,
          "name": "Ayuntamiento de Orduña",
          "orgs": [
            {
              "id": 912102,
              "name": "Alcaldía",
              "_links": {
                "self": {
                  "name": "Alcaldía",
                  "href": "https://api.euskadi.eus/procurements/contracting-authorities/246/entities/694/orgs/912102"
                }
              }
            },
            {
              "id": 912103,
              "name": "Pleno",
              "_links": {
                "self": {
                  "name": "Pleno",
                  "href": "https://api.euskadi.eus/procurements/contracting-authorities/246/entities/694/orgs/912103"
                }
              }
            }
          ],
          "_links": {
            "self": {
              "name": "Ayuntamiento de Orduña",
              "href": "https://api.euskadi.eus/procurements/contracting-authorities/246/entities/694"
            }
          }
        }
      ],
      "mainEntityOfPage": "https://www.contratacion.euskadi.eus/webkpe00-kpeperfi/es/contenidos/poder_adjudicador/poder246/es_doc/index.html",
      "_links": {
        "self": {
          "name": "Ayuntamiento de Orduña",
          "href": "https://api.euskadi.eus/procurements/contracting-authorities/246"
        }
      }
    },
    {
      "id": 26398,
      "identificationNumber": "G01251321",
      "name": "Comunidad de Regantes LANVI",
      "scope": "ARABA/ÁLAVA",
      "address": "C. El Horno, 1, 01308 Lanciego, Álava",
      "webPage": "https://comunidaddereganteslanvi.wordpress.com/",
      "publicationDate": "2023-10-26",
      "mainActivity": "Medio ambiente",
      "codNUTS": "ES211",
      "entities": [
        {
          "id": 26399,
          "name": "Comunidad de Regantes LANVI",
          "orgs": [
            {
              "id": 26400,
              "name": "Junta Administrativa de la Comunidad de Regantes LANVI",
              "_links": {
                "self": {
                  "name": "Junta Administrativa de la Comunidad de Regantes LANVI",
                  "href": "https://api.euskadi.eus/procurements/contracting-authorities/26398/entities/26399/orgs/26400"
                }
              }
            }
          ],
          "_links": {
            "self": {
              "name": "Comunidad de Regantes LANVI",
              "href": "https://api.euskadi.eus/procurements/contracting-authorities/26398/entities/26399"
            }
          }
        }
      ],
      "mainEntityOfPage": "https://www.contratacion.euskadi.eus/webkpe00-kpeperfi/es/contenidos/poder_adjudicador/poder26398/es_doc/index.html",
      "_links": {
        "self": {
          "name": "Comunidad de Regantes LANVI",
          "href": "https://api.euskadi.eus/procurements/contracting-authorities/26398"
        }
      }
    },
    {
      "id": 26394,
      "identificationNumber": "G01152453",
      "name": "Comunidad de Regantes Mendilucia",
      "scope": "ARABA/ÁLAVA",
      "address": "Plaza Fray Jacinto, 2 - 01212- Peñacerrada (Alava)",
      "webPage": "https://www.contratacion.euskadi.eus/KPELicitacion",
      "publicationDate": "2023-10-23",
      "mainActivity": "Medio ambiente",
      "codNUTS": "ES211",
      "entities": [
        {
          "id": 26395,
          "name": "Comunidad de Regantes Mendilucia",
          "orgs": [
            {
              "id": 26396,
              "name": "Comunidad de Regantes Mendilucia",
              "_links": {
                "self": {
                  "name": "Comunidad de Regantes Mendilucia",
                  "href": "https://api.euskadi.eus/procurements/contracting-authorities/26394/entities/26395/orgs/26396"
                }
              }
            }
          ],
          "_links": {
            "self": {
              "name": "Comunidad de Regantes Mendilucia",
              "href": "https://api.euskadi.eus/procurements/contracting-authorities/26394/entities/26395"
            }
          }
        }
      ],
      "mainEntityOfPage": "https://www.contratacion.euskadi.eus/webkpe00-kpeperfi/es/contenidos/poder_adjudicador/poder26394/es_doc/index.html",
      "_links": {
        "self": {
          "name": "Comunidad de Regantes Mendilucia",
          "href": "https://api.euskadi.eus/procurements/contracting-authorities/26394"
        }
      }
    }
  ]
}