{
  "totalItems": 919,
  "totalPages": 92,
  "currentPage": 23,
  "itemsOfPage": 10,
  "items": [
    {
      "id": 25532,
      "identificationNumber": "P0100019I",
      "name": "Junta Administrativa de San Román de San Millán",
      "scope": "ARABA/ÁLAVA",
      "address": "Mayor, 5 01207 San Román De San Millán (Álava) ",
      "webPage": "https://donemiliaga.eus/",
      "publicationDate": "2022-04-13",
      "mainActivity": "Servicios públicos generales",
      "codNUTS": "ES211",
      "entities": [
        {
          "id": 25533,
          "name": "Junta Administrativa de San Román de San Millán",
          "orgs": [
            {
              "id": 25534,
              "name": "Junta Administrativa de San Román de San Millán",
              "_links": {
                "self": {
                  "name": "Junta Administrativa de San Román de San Millán",
                  "href": "https://api.euskadi.eus/procurements/contracting-authorities/25532/entities/25533/orgs/25534"
                }
              }
            }
          ],
          "_links": {
            "self": {
              "name": "Junta Administrativa de San Román de San Millán",
              "href": "https://api.euskadi.eus/procurements/contracting-authorities/25532/entities/25533"
            }
          }
        }
      ],
      "mainEntityOfPage": "https://www.contratacion.euskadi.eus/webkpe00-kpeperfi/es/contenidos/poder_adjudicador/poder25532/es_doc/index.html",
      "_links": {
        "self": {
          "name": "Junta Administrativa de San Román de San Millán",
          "href": "https://api.euskadi.eus/procurements/contracting-authorities/25532"
        }
      }
    },
    {
      "id": 25528,
      "identificationNumber": "A95090411",
      "name": "Zierbena Portua, S.A.",
      "scope": "BIZKAIA",
      "address": "El Puerto, s/n – Edificio  Multiservicios / 48508 Zierbena",
      "webPage": "https://www.zierbena.net/",
      "publicationDate": "2022-04-12",
      "mainActivity": "Otra actividad",
      "alternativeActivity": "Gestión del puerto de Zierbana",
      "codNUTS": "ES213",
      "entities": [
        {
          "id": 25529,
          "name": "Zierbena Portua, S.A.",
          "orgs": [
            {
              "id": 25530,
              "name": "Consejo de Administración",
              "_links": {
                "self": {
                  "name": "Consejo de Administración",
                  "href": "https://api.euskadi.eus/procurements/contracting-authorities/25528/entities/25529/orgs/25530"
                }
              }
            }
          ],
          "_links": {
            "self": {
              "name": "Zierbena Portua, S.A.",
              "href": "https://api.euskadi.eus/procurements/contracting-authorities/25528/entities/25529"
            }
          }
        }
      ],
      "mainEntityOfPage": "https://www.contratacion.euskadi.eus/webkpe00-kpeperfi/es/contenidos/poder_adjudicador/poder25528/es_doc/index.html",
      "_links": {
        "self": {
          "name": "Zierbena Portua, S.A.",
          "href": "https://api.euskadi.eus/procurements/contracting-authorities/25528"
        }
      }
    },
    {
      "id": 185,
      "identificationNumber": "P2007200E",
      "name": "Ayuntamiento de Errenteria",
      "scope": "GIPUZKOA",
      "address": "Herriko enparantza, s/n. 20100 Errenteria (Gipuzkoa)",
      "webPage": "http://www.errenteria.eus",
      "publicationDate": "2022-04-11",
      "mainActivity": "Servicios públicos generales",
      "codNUTS": "ES212",
      "entities": [
        {
          "id": 615,
          "name": "Ayuntamiento de Errenteria",
          "orgs": [
            {
              "id": 911921,
              "name": "Junta de Gobierno Local",
              "_links": {
                "self": {
                  "name": "Junta de Gobierno Local",
                  "href": "https://api.euskadi.eus/procurements/contracting-authorities/185/entities/615/orgs/911921"
                }
              }
            },
            {
              "id": 911922,
              "name": "Alcalde-Presidente",
              "_links": {
                "self": {
                  "name": "Alcalde-Presidente",
                  "href": "https://api.euskadi.eus/procurements/contracting-authorities/185/entities/615/orgs/911922"
                }
              }
            },
            {
              "id": 911920,
              "name": "Pleno",
              "_links": {
                "self": {
                  "name": "Pleno",
                  "href": "https://api.euskadi.eus/procurements/contracting-authorities/185/entities/615/orgs/911920"
                }
              }
            }
          ],
          "_links": {
            "self": {
              "name": "Ayuntamiento de Errenteria",
              "href": "https://api.euskadi.eus/procurements/contracting-authorities/185/entities/615"
            }
          }
        },
        {
          "id": 791,
          "name": "Patronato Municipal de Música Errenteria Musikal",
          "orgs": [
            {
              "id": 912281,
              "name": "Junta del Patronato",
              "_links": {
                "self": {
                  "name": "Junta del Patronato",
                  "href": "https://api.euskadi.eus/procurements/contracting-authorities/185/entities/791/orgs/912281"
                }
              }
            },
            {
              "id": 912280,
              "name": "Presidencia",
              "_links": {
                "self": {
                  "name": "Presidencia",
                  "href": "https://api.euskadi.eus/procurements/contracting-authorities/185/entities/791/orgs/912280"
                }
              }
            }
          ],
          "_links": {
            "self": {
              "name": "Patronato Municipal de Música Errenteria Musikal",
              "href": "https://api.euskadi.eus/procurements/contracting-authorities/185/entities/791"
            }
          }
        }
      ],
      "mainEntityOfPage": "https://www.contratacion.euskadi.eus/webkpe00-kpeperfi/es/contenidos/poder_adjudicador/poder185/es_doc/index.html",
      "_links": {
        "self": {
          "name": "Ayuntamiento de Errenteria",
          "href": "https://api.euskadi.eus/procurements/contracting-authorities/185"
        }
      }
    },
    {
      "id": 25523,
      "identificationNumber": "G0114065",
      "name": "Comunidad de Regantes de Arrato",
      "scope": "ARABA/ÁLAVA",
      "address": "Plaza Simón Bolivar, 14 bajo  01003 Vitoria-Gasteiz",
      "webPage": "https://www.uaga.eus/",
      "publicationDate": "2022-04-08",
      "mainActivity": "Servicios públicos generales",
      "codNUTS": "ES211",
      "entities": [
        {
          "id": 25524,
          "name": "Comunidad de Regantes de Arrato",
          "orgs": [
            {
              "id": 25525,
              "name": "Junta Administrativa de la Comunidad de Regantes de Arrato",
              "_links": {
                "self": {
                  "name": "Junta Administrativa de la Comunidad de Regantes de Arrato",
                  "href": "https://api.euskadi.eus/procurements/contracting-authorities/25523/entities/25524/orgs/25525"
                }
              }
            }
          ],
          "_links": {
            "self": {
              "name": "Comunidad de Regantes de Arrato",
              "href": "https://api.euskadi.eus/procurements/contracting-authorities/25523/entities/25524"
            }
          }
        }
      ],
      "mainEntityOfPage": "https://www.contratacion.euskadi.eus/webkpe00-kpeperfi/es/contenidos/poder_adjudicador/poder25523/es_doc/index.html",
      "_links": {
        "self": {
          "name": "Comunidad de Regantes de Arrato",
          "href": "https://api.euskadi.eus/procurements/contracting-authorities/25523"
        }
      }
    },
    {
      "id": 25518,
      "identificationNumber": "V95977716",
      "name": "Junta de Concertación UEI.2",
      "scope": "BIZKAIA",
      "address": "Aita San Miguel 4, 48215 Iurreta",
      "webPage": "https://www.iurreta.eus/",
      "publicationDate": "2022-04-08",
      "mainActivity": "Servicios públicos generales",
      "codNUTS": "ES213",
      "entities": [
        {
          "id": 25519,
          "name": "Junta de Concertación UEI.2",
          "orgs": [
            {
              "id": 25520,
              "name": "Presidencia de la Junta de Concertación",
              "_links": {
                "self": {
                  "name": "Presidencia de la Junta de Concertación",
                  "href": "https://api.euskadi.eus/procurements/contracting-authorities/25518/entities/25519/orgs/25520"
                }
              }
            }
          ],
          "_links": {
            "self": {
              "name": "Junta de Concertación UEI.2",
              "href": "https://api.euskadi.eus/procurements/contracting-authorities/25518/entities/25519"
            }
          }
        }
      ],
      "mainEntityOfPage": "https://www.contratacion.euskadi.eus/webkpe00-kpeperfi/es/contenidos/poder_adjudicador/poder25518/es_doc/index.html",
      "_links": {
        "self": {
          "name": "Junta de Concertación UEI.2",
          "href": "https://api.euskadi.eus/procurements/contracting-authorities/25518"
        }
      }
    },
    {
      "id": 25512,
      "identificationNumber": "P0100302I",
      "name": "Junta Administrativa de Bolívar",
      "scope": "ARABA/ÁLAVA",
      "address": "c/ Única, 7, 01194 Bolivar",
      "webPage": "https://www.vitoria-gasteiz.org/wb021/was/contenidoAction.do?idioma=es&uid=u_4e9996a6_163d3559d75__7f45",
      "publicationDate": "2022-04-05",
      "mainActivity": "Servicios públicos generales",
      "codNUTS": "ES211",
      "entities": [
        {
          "id": 25513,
          "name": "Junta Administrativa de Bolívar",
          "orgs": [
            {
              "id": 25514,
              "name": "Junta Administrativa de Bolívar",
              "_links": {
                "self": {
                  "name": "Junta Administrativa de Bolívar",
                  "href": "https://api.euskadi.eus/procurements/contracting-authorities/25512/entities/25513/orgs/25514"
                }
              }
            }
          ],
          "_links": {
            "self": {
              "name": "Junta Administrativa de Bolívar",
              "href": "https://api.euskadi.eus/procurements/contracting-authorities/25512/entities/25513"
            }
          }
        }
      ],
      "mainEntityOfPage": "https://www.contratacion.euskadi.eus/webkpe00-kpeperfi/es/contenidos/poder_adjudicador/poder25512/es_doc/index.html",
      "_links": {
        "self": {
          "name": "Junta Administrativa de Bolívar",
          "href": "https://api.euskadi.eus/procurements/contracting-authorities/25512"
        }
      }
    },
    {
      "id": 287,
      "identificationNumber": "Q4800712D",
      "name": "OAL Viviendas Municipales de Bilbao",
      "scope": "BIZKAIA",
      "address": "Navarra, 5-5º. 48001 Bilbao (Bizkaia)",
      "webPage": "http://www.bilbao.eus/viviendasBilbao/",
      "publicationDate": "2022-04-04",
      "mainActivity": "Vivienda y servicios comunitarios",
      "codNUTS": "ES213",
      "entities": [
        {
          "id": 735,
          "name": "OAL Viviendas Municipales de Bilbao",
          "orgs": [
            {
              "id": 912174,
              "name": "Presidente",
              "_links": {
                "self": {
                  "name": "Presidente",
                  "href": "https://api.euskadi.eus/procurements/contracting-authorities/287/entities/735/orgs/912174"
                }
              }
            },
            {
              "id": 912173,
              "name": "Consejo de Dirección de Viviendas Municipales de Bilbao",
              "_links": {
                "self": {
                  "name": "Consejo de Dirección de Viviendas Municipales de Bilbao",
                  "href": "https://api.euskadi.eus/procurements/contracting-authorities/287/entities/735/orgs/912173"
                }
              }
            }
          ],
          "_links": {
            "self": {
              "name": "OAL Viviendas Municipales de Bilbao",
              "href": "https://api.euskadi.eus/procurements/contracting-authorities/287/entities/735"
            }
          }
        }
      ],
      "mainEntityOfPage": "https://www.contratacion.euskadi.eus/webkpe00-kpeperfi/es/contenidos/poder_adjudicador/poder287/es_doc/index.html",
      "_links": {
        "self": {
          "name": "OAL Viviendas Municipales de Bilbao",
          "href": "https://api.euskadi.eus/procurements/contracting-authorities/287"
        }
      }
    },
    {
      "id": 25499,
      "identificationNumber": "482011205",
      "name": "Centro de Actividades Culturales Teatro Arriaga S.A.",
      "scope": "BIZKAIA",
      "address": "Plaza Arriaga, 1 – 48005 - Bilbao",
      "webPage": "https://www.teatroarriaga.eus/",
      "publicationDate": "2022-04-04",
      "mainActivity": "Ocio, cultura y religión",
      "codNUTS": "ES213",
      "entities": [
        {
          "id": 25500,
          "name": "C.A.C. Teatro Arriaga S.A.",
          "orgs": [
            {
              "id": 25501,
              "name": "Gerente",
              "_links": {
                "self": {
                  "name": "Gerente",
                  "href": "https://api.euskadi.eus/procurements/contracting-authorities/25499/entities/25500/orgs/25501"
                }
              }
            },
            {
              "id": 25503,
              "name": "Consejo de administración",
              "_links": {
                "self": {
                  "name": "Consejo de administración",
                  "href": "https://api.euskadi.eus/procurements/contracting-authorities/25499/entities/25500/orgs/25503"
                }
              }
            },
            {
              "id": 25502,
              "name": "Presidente",
              "_links": {
                "self": {
                  "name": "Presidente",
                  "href": "https://api.euskadi.eus/procurements/contracting-authorities/25499/entities/25500/orgs/25502"
                }
              }
            }
          ],
          "_links": {
            "self": {
              "name": "C.A.C. Teatro Arriaga S.A.",
              "href": "https://api.euskadi.eus/procurements/contracting-authorities/25499/entities/25500"
            }
          }
        }
      ],
      "mainEntityOfPage": "https://www.contratacion.euskadi.eus/webkpe00-kpeperfi/es/contenidos/poder_adjudicador/poder25499/es_doc/index.html",
      "_links": {
        "self": {
          "name": "Centro de Actividades Culturales Teatro Arriaga S.A.",
          "href": "https://api.euskadi.eus/procurements/contracting-authorities/25499"
        }
      }
    },
    {
      "id": 25495,
      "identificationNumber": "P4800034C",
      "name": "Bilbao Musika OAL",
      "scope": "BIZKAIA",
      "address": "Sorkunde 8, 48006 Bilbao",
      "webPage": "https://www.bilbaomusika.eus/",
      "publicationDate": "2022-04-04",
      "mainActivity": "Educación",
      "codNUTS": "ES213",
      "entities": [
        {
          "id": 25496,
          "name": "Bilbao Musika OAL",
          "orgs": [
            {
              "id": 25497,
              "name": "Directora Gerente de Bilbao Musika",
              "_links": {
                "self": {
                  "name": "Directora Gerente de Bilbao Musika",
                  "href": "https://api.euskadi.eus/procurements/contracting-authorities/25495/entities/25496/orgs/25497"
                }
              }
            }
          ],
          "_links": {
            "self": {
              "name": "Bilbao Musika OAL",
              "href": "https://api.euskadi.eus/procurements/contracting-authorities/25495/entities/25496"
            }
          }
        }
      ],
      "mainEntityOfPage": "https://www.contratacion.euskadi.eus/webkpe00-kpeperfi/es/contenidos/poder_adjudicador/poder25495/es_doc/index.html",
      "_links": {
        "self": {
          "name": "Bilbao Musika OAL",
          "href": "https://api.euskadi.eus/procurements/contracting-authorities/25495"
        }
      }
    },
    {
      "id": 156,
      "identificationNumber": "F95815114",
      "name": "Leartiker S.Coop.",
      "scope": "BIZKAIA",
      "address": "Xemein Etorbidea, 12-A, Lea-Artibai Berrikuntza Gunea. 48270 Markina-Xemein",
      "webPage": "http://www.leartiker.com",
      "publicationDate": "2022-03-31",
      "mainActivity": "Servicios públicos generales",
      "codNUTS": "ES213",
      "entities": [
        {
          "id": 25492,
          "name": "Leartiker S.Coop",
          "orgs": [
            {
              "id": 25493,
              "name": "Leartiker S.Coop",
              "_links": {
                "self": {
                  "name": "Leartiker S.Coop",
                  "href": "https://api.euskadi.eus/procurements/contracting-authorities/156/entities/25492/orgs/25493"
                }
              }
            }
          ],
          "_links": {
            "self": {
              "name": "Leartiker S.Coop",
              "href": "https://api.euskadi.eus/procurements/contracting-authorities/156/entities/25492"
            }
          }
        }
      ],
      "mainEntityOfPage": "https://www.contratacion.euskadi.eus/webkpe00-kpeperfi/es/contenidos/poder_adjudicador/poder156/es_doc/index.html",
      "_links": {
        "self": {
          "name": "Leartiker S.Coop.",
          "href": "https://api.euskadi.eus/procurements/contracting-authorities/156"
        }
      }
    }
  ]
}