{
  "totalItems": 919,
  "totalPages": 92,
  "currentPage": 92,
  "itemsOfPage": 9,
  "items": [
    {
      "id": 366,
      "identificationNumber": "S0133001H",
      "name": "Parlamento Vasco",
      "scope": "CAPV",
      "address": "Becerro de Bengoa Kalea, s/n, 01005 Gasteiz, Araba",
      "webPage": "http://www.legebiltzarra.eus",
      "publicationDate": "2018-03-28",
      "mainActivity": "Otra actividad",
      "alternativeActivity": "Parlamento",
      "codNUTS": "ES21",
      "entities": [
        {
          "id": 818,
          "name": "Parlamento Vasco ",
          "orgs": [
            {
              "id": 912346,
              "name": "Mesa del Parlamento Vasco",
              "_links": {
                "self": {
                  "name": "Mesa del Parlamento Vasco",
                  "href": "https://api.euskadi.eus/procurements/contracting-authorities/366/entities/818/orgs/912346"
                }
              }
            }
          ],
          "_links": {
            "self": {
              "name": "Parlamento Vasco ",
              "href": "https://api.euskadi.eus/procurements/contracting-authorities/366/entities/818"
            }
          }
        }
      ],
      "mainEntityOfPage": "https://www.contratacion.euskadi.eus/webkpe00-kpeperfi/es/contenidos/poder_adjudicador/poder366/es_doc/es_arch_poder366.html",
      "_links": {
        "self": {
          "name": "Parlamento Vasco",
          "href": "https://api.euskadi.eus/procurements/contracting-authorities/366"
        }
      }
    },
    {
      "id": 369,
      "identificationNumber": "Q5150011D",
      "name": "Conservatorio Municipal de Danza José Uruñuela",
      "scope": "ARABA/ÁLAVA",
      "address": "Plaza de las Provincias Vascongadas, 8. 01002 Vitoria-Gasteiz (Araba/Álava)",
      "webPage": "http://www.vitoria-gasteiz.org/cmdanza",
      "publicationDate": "2018-03-28",
      "mainActivity": "Educación",
      "codNUTS": "ES211",
      "entities": [
        {
          "id": 821,
          "name": "Conservatorio Municipal de Danza José Uruñuela",
          "orgs": [
            {
              "id": 912350,
              "name": "Consejo Rector",
              "_links": {
                "self": {
                  "name": "Consejo Rector",
                  "href": "https://api.euskadi.eus/procurements/contracting-authorities/369/entities/821/orgs/912350"
                }
              }
            },
            {
              "id": 912351,
              "name": "Presidente del Consejo Rector",
              "_links": {
                "self": {
                  "name": "Presidente del Consejo Rector",
                  "href": "https://api.euskadi.eus/procurements/contracting-authorities/369/entities/821/orgs/912351"
                }
              }
            }
          ],
          "_links": {
            "self": {
              "name": "Conservatorio Municipal de Danza José Uruñuela",
              "href": "https://api.euskadi.eus/procurements/contracting-authorities/369/entities/821"
            }
          }
        }
      ],
      "mainEntityOfPage": "https://www.contratacion.euskadi.eus/webkpe00-kpeperfi/es/contenidos/poder_adjudicador/poder369/es_doc/es_arch_poder369.html",
      "_links": {
        "self": {
          "name": "Conservatorio Municipal de Danza José Uruñuela",
          "href": "https://api.euskadi.eus/procurements/contracting-authorities/369"
        }
      }
    },
    {
      "id": 373,
      "identificationNumber": "G20302105",
      "name": "Fundación para la Formación Técnica en Máquina-Herramienta",
      "scope": "GIPUZKOA",
      "address": "Azkue Auzoa, 1. 20870 Elgoibar (Gipuzkoa)",
      "webPage": "http://www.imh.eus",
      "publicationDate": "2018-03-28",
      "mainActivity": "Educación",
      "codNUTS": "ES212",
      "entities": [
        {
          "id": 823,
          "name": "Fundación para la Formación Técnica en Máquina-Herramienta",
          "orgs": [
            {
              "id": 912355,
              "name": "Director-Gerente",
              "_links": {
                "self": {
                  "name": "Director-Gerente",
                  "href": "https://api.euskadi.eus/procurements/contracting-authorities/373/entities/823/orgs/912355"
                }
              }
            }
          ],
          "_links": {
            "self": {
              "name": "Fundación para la Formación Técnica en Máquina-Herramienta",
              "href": "https://api.euskadi.eus/procurements/contracting-authorities/373/entities/823"
            }
          }
        }
      ],
      "mainEntityOfPage": "https://www.contratacion.euskadi.eus/webkpe00-kpeperfi/es/contenidos/poder_adjudicador/poder373/es_doc/es_arch_poder373.html",
      "_links": {
        "self": {
          "name": "Fundación para la Formación Técnica en Máquina-Herramienta",
          "href": "https://api.euskadi.eus/procurements/contracting-authorities/373"
        }
      }
    },
    {
      "id": 375,
      "identificationNumber": "G01169507",
      "name": "Escuela Municipal de Música Luis Aramburu",
      "scope": "ARABA/ÁLAVA",
      "address": "Correría 108, bajo. 01001 Vitoria-Gasteiz (Araba/Álava) ",
      "webPage": "http://www.vitoria-gasteiz.org/luisaramburu",
      "publicationDate": "2018-03-28",
      "mainActivity": "Educación",
      "codNUTS": "ES211",
      "entities": [
        {
          "id": 825,
          "name": "Escuela Municipal de Música Luis Aramburu",
          "orgs": [
            {
              "id": 912359,
              "name": "Presidente del Consejo Rector",
              "_links": {
                "self": {
                  "name": "Presidente del Consejo Rector",
                  "href": "https://api.euskadi.eus/procurements/contracting-authorities/375/entities/825/orgs/912359"
                }
              }
            },
            {
              "id": 912358,
              "name": "Consejo Rector",
              "_links": {
                "self": {
                  "name": "Consejo Rector",
                  "href": "https://api.euskadi.eus/procurements/contracting-authorities/375/entities/825/orgs/912358"
                }
              }
            }
          ],
          "_links": {
            "self": {
              "name": "Escuela Municipal de Música Luis Aramburu",
              "href": "https://api.euskadi.eus/procurements/contracting-authorities/375/entities/825"
            }
          }
        }
      ],
      "mainEntityOfPage": "https://www.contratacion.euskadi.eus/webkpe00-kpeperfi/es/contenidos/poder_adjudicador/poder375/es_doc/es_arch_poder375.html",
      "_links": {
        "self": {
          "name": "Escuela Municipal de Música Luis Aramburu",
          "href": "https://api.euskadi.eus/procurements/contracting-authorities/375"
        }
      }
    },
    {
      "id": 231,
      "identificationNumber": "35769504L",
      "name": "Tolosa Lantzen, S.A., tiene como objeto gestionar, mantener y construir instals dptvas de Tolosa",
      "scope": "GIPUZKOA",
      "address": "asier bakaikoa",
      "webPage": "http://www.tolosa.eus",
      "mainActivity": "Servicios públicos generales",
      "codNUTS": "ES212",
      "entities": [
        {
          "id": 678,
          "name": "Tolosa Lantzen, S.A., entidad pública municipal del Ayuntamiento de Tolosa",
          "_links": {
            "self": {
              "name": "Tolosa Lantzen, S.A., entidad pública municipal del Ayuntamiento de Tolosa",
              "href": "https://api.euskadi.eus/procurements/contracting-authorities/231/entities/678"
            }
          }
        }
      ],
      "mainEntityOfPage": "https://www.contratacion.euskadi.eus/webkpe00-kpeperfi/es/contenidos/poder_adjudicador/poder231/es_doc/es_arch_poder231.html",
      "_links": {
        "self": {
          "name": "Tolosa Lantzen, S.A., tiene como objeto gestionar, mantener y construir instals dptvas de Tolosa",
          "href": "https://api.euskadi.eus/procurements/contracting-authorities/231"
        }
      }
    },
    {
      "id": 311,
      "identificationNumber": "44158757E",
      "name": "AYUNTAMIENTO DE ANOETA",
      "scope": "GIPUZKOA",
      "address": "PELLO ODRIOZOLA ZUBIZARRETA",
      "webPage": "http://www.anoeta.eus",
      "mainActivity": "Servicios públicos generales",
      "codNUTS": "ES212",
      "entities": [
        {
          "id": 760,
          "name": "AYUNTAMIENTO DE ANOETA",
          "_links": {
            "self": {
              "name": "AYUNTAMIENTO DE ANOETA",
              "href": "https://api.euskadi.eus/procurements/contracting-authorities/311/entities/760"
            }
          }
        }
      ],
      "mainEntityOfPage": "https://www.contratacion.euskadi.eus/webkpe00-kpeperfi/es/contenidos/poder_adjudicador/poder311/es_doc/es_arch_poder311.html",
      "_links": {
        "self": {
          "name": "AYUNTAMIENTO DE ANOETA",
          "href": "https://api.euskadi.eus/procurements/contracting-authorities/311"
        }
      }
    },
    {
      "id": 25934,
      "identificationNumber": "G72868631",
      "name": "BSTK FUNDAZIOA",
      "scope": "GIPUZKOA",
      "address": "Gipuzkoa Plaza z/g (Gipuzkoako Foru Aldundiaren Foru Jauregia), 20004  Donostia/San Sebastián",
      "webPage": "https://www.gipuzkoa.eus/eu/web/landagarapena/basotik-fundazioa",
      "mainActivity": "Medio ambiente",
      "codNUTS": "ES212",
      "entities": [
        {
          "id": 25935,
          "name": "BSTK FUNDAZIOA",
          "orgs": [
            {
              "id": 25936,
              "name": "Patronato de BSTK Fundazioa",
              "_links": {
                "self": {
                  "name": "Patronato de BSTK Fundazioa",
                  "href": "https://api.euskadi.eus/procurements/contracting-authorities/25934/entities/25935/orgs/25936"
                }
              }
            },
            {
              "id": 25938,
              "name": "Director General de BSTK Fundazioa",
              "_links": {
                "self": {
                  "name": "Director General de BSTK Fundazioa",
                  "href": "https://api.euskadi.eus/procurements/contracting-authorities/25934/entities/25935/orgs/25938"
                }
              }
            }
          ],
          "_links": {
            "self": {
              "name": "BSTK FUNDAZIOA",
              "href": "https://api.euskadi.eus/procurements/contracting-authorities/25934/entities/25935"
            }
          }
        }
      ],
      "_links": {
        "self": {
          "name": "BSTK FUNDAZIOA",
          "href": "https://api.euskadi.eus/procurements/contracting-authorities/25934"
        }
      }
    },
    {
      "id": 26125,
      "identificationNumber": "P0100177E",
      "name": "Junta Administrativa Amarita",
      "scope": "ARABA/ÁLAVA",
      "address": "Centro social de Amarita. 01520 Amarita - Arrazua-Ubarrundia - Alava",
      "webPage": "https://www.vitoria-gasteiz.org/wb021/was/contenidoAction.do?idioma=es&uid=u_4e9996a6_163d3559d75__7f16",
      "mainActivity": "Servicios públicos generales",
      "codNUTS": "ES211",
      "entities": [
        {
          "id": 26126,
          "name": "Junta Administrativa Amarita",
          "orgs": [
            {
              "id": 26127,
              "name": "Concejo Amarita",
              "_links": {
                "self": {
                  "name": "Concejo Amarita",
                  "href": "https://api.euskadi.eus/procurements/contracting-authorities/26125/entities/26126/orgs/26127"
                }
              }
            }
          ],
          "_links": {
            "self": {
              "name": "Junta Administrativa Amarita",
              "href": "https://api.euskadi.eus/procurements/contracting-authorities/26125/entities/26126"
            }
          }
        }
      ],
      "_links": {
        "self": {
          "name": "Junta Administrativa Amarita",
          "href": "https://api.euskadi.eus/procurements/contracting-authorities/26125"
        }
      }
    },
    {
      "id": 26479,
      "identificationNumber": "V75045633",
      "name": "Junta de Concertación del Ámbito Z.1.4 Eizaga Berri 2 de Zumarraga",
      "scope": "GIPUZKOA",
      "address": "Plaza de Euskadi, 1. Ayuntamiento 20700 Zumárraga",
      "webPage": "https://www.contratacion.euskadi.eus/KPELicitacion",
      "mainActivity": "Vivienda y servicios comunitarios",
      "codNUTS": "ES212",
      "entities": [
        {
          "id": 26480,
          "name": "Junta de Concertación del Ámbito Z.1.4 Eizaga Berri 2 de Zumarraga",
          "orgs": [
            {
              "id": 26481,
              "name": "Junta de Concertación del Ámbito Z.1.4 Eizaga Berri 2 de Zumarraga",
              "_links": {
                "self": {
                  "name": "Junta de Concertación del Ámbito Z.1.4 Eizaga Berri 2 de Zumarraga",
                  "href": "https://api.euskadi.eus/procurements/contracting-authorities/26479/entities/26480/orgs/26481"
                }
              }
            }
          ],
          "_links": {
            "self": {
              "name": "Junta de Concertación del Ámbito Z.1.4 Eizaga Berri 2 de Zumarraga",
              "href": "https://api.euskadi.eus/procurements/contracting-authorities/26479/entities/26480"
            }
          }
        }
      ],
      "_links": {
        "self": {
          "name": "Junta de Concertación del Ámbito Z.1.4 Eizaga Berri 2 de Zumarraga",
          "href": "https://api.euskadi.eus/procurements/contracting-authorities/26479"
        }
      }
    }
  ]
}