{
  "totalItems": 919,
  "totalPages": 92,
  "currentPage": 62,
  "itemsOfPage": 10,
  "items": [
    {
      "id": 151,
      "identificationNumber": "16253732T",
      "name": "Ayuntamiento de Kuartango",
      "scope": "ARABA/ÁLAVA",
      "address": "01430  Zuhatzu Kuartango (Araba/Álava)",
      "webPage": "http://www.kuartango.eus",
      "publicationDate": "2019-10-04",
      "mainActivity": "Servicios públicos generales",
      "codNUTS": "ES211",
      "entities": [
        {
          "id": 546,
          "name": "Ayuntamiento de Kuartango",
          "orgs": [
            {
              "id": 911743,
              "name": "Pleno",
              "_links": {
                "self": {
                  "name": "Pleno",
                  "href": "https://api.euskadi.eus/procurements/contracting-authorities/151/entities/546/orgs/911743"
                }
              }
            }
          ],
          "_links": {
            "self": {
              "name": "Ayuntamiento de Kuartango",
              "href": "https://api.euskadi.eus/procurements/contracting-authorities/151/entities/546"
            }
          }
        }
      ],
      "mainEntityOfPage": "https://www.contratacion.euskadi.eus/webkpe00-kpeperfi/es/contenidos/poder_adjudicador/poder151/es_doc/es_arch_poder151.html",
      "_links": {
        "self": {
          "name": "Ayuntamiento de Kuartango",
          "href": "https://api.euskadi.eus/procurements/contracting-authorities/151"
        }
      }
    },
    {
      "id": 159,
      "identificationNumber": "A20762233",
      "name": "Tabakalera - Centro Internacional de Cultura Contemporánea",
      "scope": "GIPUZKOA",
      "address": "Plaza de las Cigarreras, 1. 20012 Donostia/san Sebastián (Gipuzkoa)",
      "webPage": "http://www.tabakalera.eu",
      "publicationDate": "2019-10-04",
      "mainActivity": "Ocio, cultura y religión",
      "codNUTS": "ES212",
      "entities": [
        {
          "id": 554,
          "name": "Tabakalera - Centro Internacional de Cultura Contemporánea",
          "orgs": [
            {
              "id": 911768,
              "name": "Gerencia y/o Director de Cultura",
              "_links": {
                "self": {
                  "name": "Gerencia y/o Director de Cultura",
                  "href": "https://api.euskadi.eus/procurements/contracting-authorities/159/entities/554/orgs/911768"
                }
              }
            },
            {
              "id": 911771,
              "name": "Consejo de Administración",
              "_links": {
                "self": {
                  "name": "Consejo de Administración",
                  "href": "https://api.euskadi.eus/procurements/contracting-authorities/159/entities/554/orgs/911771"
                }
              }
            },
            {
              "id": 911770,
              "name": "Consejo ejecutivo",
              "_links": {
                "self": {
                  "name": "Consejo ejecutivo",
                  "href": "https://api.euskadi.eus/procurements/contracting-authorities/159/entities/554/orgs/911770"
                }
              }
            },
            {
              "id": 911769,
              "name": "Gerencia y/o Director de Cultura, Presidente ó Vicepresidente del Consejo de Administración",
              "_links": {
                "self": {
                  "name": "Gerencia y/o Director de Cultura, Presidente ó Vicepresidente del Consejo de Administración",
                  "href": "https://api.euskadi.eus/procurements/contracting-authorities/159/entities/554/orgs/911769"
                }
              }
            }
          ],
          "_links": {
            "self": {
              "name": "Tabakalera - Centro Internacional de Cultura Contemporánea",
              "href": "https://api.euskadi.eus/procurements/contracting-authorities/159/entities/554"
            }
          }
        }
      ],
      "mainEntityOfPage": "https://www.contratacion.euskadi.eus/webkpe00-kpeperfi/es/contenidos/poder_adjudicador/poder159/es_doc/es_arch_poder159.html",
      "_links": {
        "self": {
          "name": "Tabakalera - Centro Internacional de Cultura Contemporánea",
          "href": "https://api.euskadi.eus/procurements/contracting-authorities/159"
        }
      }
    },
    {
      "id": 161,
      "identificationNumber": "P2008500G",
      "name": "Ayuntamiento de Zarautz",
      "scope": "GIPUZKOA",
      "address": "Kale Nagusia, 29. 20800 Zarautz",
      "webPage": "http://www.zarautz.eus",
      "publicationDate": "2019-10-04",
      "mainActivity": "Servicios públicos generales",
      "codNUTS": "ES212",
      "entities": [
        {
          "id": 556,
          "name": "Ayuntamiento de Zarautz",
          "orgs": [
            {
              "id": 911775,
              "name": "Alcalde",
              "_links": {
                "self": {
                  "name": "Alcalde",
                  "href": "https://api.euskadi.eus/procurements/contracting-authorities/161/entities/556/orgs/911775"
                }
              }
            },
            {
              "id": 911776,
              "name": "Junta de Gobierno Local ",
              "_links": {
                "self": {
                  "name": "Junta de Gobierno Local ",
                  "href": "https://api.euskadi.eus/procurements/contracting-authorities/161/entities/556/orgs/911776"
                }
              }
            },
            {
              "id": 911777,
              "name": "Pleno",
              "_links": {
                "self": {
                  "name": "Pleno",
                  "href": "https://api.euskadi.eus/procurements/contracting-authorities/161/entities/556/orgs/911777"
                }
              }
            }
          ],
          "_links": {
            "self": {
              "name": "Ayuntamiento de Zarautz",
              "href": "https://api.euskadi.eus/procurements/contracting-authorities/161/entities/556"
            }
          }
        }
      ],
      "mainEntityOfPage": "https://www.contratacion.euskadi.eus/webkpe00-kpeperfi/es/contenidos/poder_adjudicador/poder161/es_doc/es_arch_poder161.html",
      "_links": {
        "self": {
          "name": "Ayuntamiento de Zarautz",
          "href": "https://api.euskadi.eus/procurements/contracting-authorities/161"
        }
      }
    },
    {
      "id": 183,
      "identificationNumber": "P2005300E",
      "name": "Ayuntamiento de Lazkao",
      "scope": "GIPUZKOA",
      "address": "20210 Lazkao (Gipuzkoa)",
      "webPage": "http://www.lazkao.eus",
      "publicationDate": "2019-10-04",
      "mainActivity": "Servicios públicos generales",
      "codNUTS": "ES212",
      "entities": [
        {
          "id": 612,
          "name": "Ayuntamiento de Lazkao",
          "orgs": [
            {
              "id": 911917,
              "name": "Junta de Gobierno Local",
              "_links": {
                "self": {
                  "name": "Junta de Gobierno Local",
                  "href": "https://api.euskadi.eus/procurements/contracting-authorities/183/entities/612/orgs/911917"
                }
              }
            },
            {
              "id": 911916,
              "name": "Pleno",
              "_links": {
                "self": {
                  "name": "Pleno",
                  "href": "https://api.euskadi.eus/procurements/contracting-authorities/183/entities/612/orgs/911916"
                }
              }
            },
            {
              "id": 911915,
              "name": "Alcalde",
              "_links": {
                "self": {
                  "name": "Alcalde",
                  "href": "https://api.euskadi.eus/procurements/contracting-authorities/183/entities/612/orgs/911915"
                }
              }
            }
          ],
          "_links": {
            "self": {
              "name": "Ayuntamiento de Lazkao",
              "href": "https://api.euskadi.eus/procurements/contracting-authorities/183/entities/612"
            }
          }
        },
        {
          "id": 613,
          "name": "Lazkao Lantzen S.A.",
          "orgs": [
            {
              "id": 911918,
              "name": "Consejo de Administración",
              "_links": {
                "self": {
                  "name": "Consejo de Administración",
                  "href": "https://api.euskadi.eus/procurements/contracting-authorities/183/entities/613/orgs/911918"
                }
              }
            }
          ],
          "_links": {
            "self": {
              "name": "Lazkao Lantzen S.A.",
              "href": "https://api.euskadi.eus/procurements/contracting-authorities/183/entities/613"
            }
          }
        }
      ],
      "mainEntityOfPage": "https://www.contratacion.euskadi.eus/webkpe00-kpeperfi/es/contenidos/poder_adjudicador/poder183/es_doc/es_arch_poder183.html",
      "_links": {
        "self": {
          "name": "Ayuntamiento de Lazkao",
          "href": "https://api.euskadi.eus/procurements/contracting-authorities/183"
        }
      }
    },
    {
      "id": 184,
      "identificationNumber": "P2008200D",
      "name": "Ayuntamiento de Ordizia",
      "scope": "GIPUZKOA",
      "address": "Kale Nagusia, 24. 20240 Ordizia (Gipuzkoa) ",
      "webPage": "http://www.ordizia.eus",
      "publicationDate": "2019-10-04",
      "mainActivity": "Servicios públicos generales",
      "codNUTS": "ES212",
      "entities": [
        {
          "id": 614,
          "name": "Ayuntamiento de Ordizia",
          "orgs": [
            {
              "id": 911919,
              "name": "Alcaldía",
              "_links": {
                "self": {
                  "name": "Alcaldía",
                  "href": "https://api.euskadi.eus/procurements/contracting-authorities/184/entities/614/orgs/911919"
                }
              }
            }
          ],
          "_links": {
            "self": {
              "name": "Ayuntamiento de Ordizia",
              "href": "https://api.euskadi.eus/procurements/contracting-authorities/184/entities/614"
            }
          }
        }
      ],
      "mainEntityOfPage": "https://www.contratacion.euskadi.eus/webkpe00-kpeperfi/es/contenidos/poder_adjudicador/poder184/es_doc/es_arch_poder184.html",
      "_links": {
        "self": {
          "name": "Ayuntamiento de Ordizia",
          "href": "https://api.euskadi.eus/procurements/contracting-authorities/184"
        }
      }
    },
    {
      "id": 194,
      "identificationNumber": "P2005500J",
      "name": "Ayuntamiento de Legazpi",
      "scope": "GIPUZKOA",
      "address": "Euskal Herria plaza, 1. 20230 Legazpi (Gipuzkoa)",
      "webPage": "http://www.legazpi.eus",
      "publicationDate": "2019-10-04",
      "mainActivity": "Servicios públicos generales",
      "codNUTS": "ES212",
      "entities": [
        {
          "id": 624,
          "name": "Ayuntamiento de Legazpi",
          "orgs": [
            {
              "id": 911942,
              "name": "Pleno",
              "_links": {
                "self": {
                  "name": "Pleno",
                  "href": "https://api.euskadi.eus/procurements/contracting-authorities/194/entities/624/orgs/911942"
                }
              }
            },
            {
              "id": 911941,
              "name": "Alcaldia",
              "_links": {
                "self": {
                  "name": "Alcaldia",
                  "href": "https://api.euskadi.eus/procurements/contracting-authorities/194/entities/624/orgs/911941"
                }
              }
            },
            {
              "id": 911943,
              "name": "Junta de Gobierno",
              "_links": {
                "self": {
                  "name": "Junta de Gobierno",
                  "href": "https://api.euskadi.eus/procurements/contracting-authorities/194/entities/624/orgs/911943"
                }
              }
            }
          ],
          "_links": {
            "self": {
              "name": "Ayuntamiento de Legazpi",
              "href": "https://api.euskadi.eus/procurements/contracting-authorities/194/entities/624"
            }
          }
        }
      ],
      "mainEntityOfPage": "https://www.contratacion.euskadi.eus/webkpe00-kpeperfi/es/contenidos/poder_adjudicador/poder194/es_doc/es_arch_poder194.html",
      "_links": {
        "self": {
          "name": "Ayuntamiento de Legazpi",
          "href": "https://api.euskadi.eus/procurements/contracting-authorities/194"
        }
      }
    },
    {
      "id": 195,
      "identificationNumber": "P0103900G",
      "name": "Ayuntamiento de Arraia-Maeztu",
      "scope": "ARABA/ÁLAVA",
      "address": "Estación, 13. 01120 Maeztu (Araba-Älava)",
      "webPage": "http://www.arraia-maeztu.eus",
      "publicationDate": "2019-10-04",
      "mainActivity": "Servicios públicos generales",
      "codNUTS": "ES211",
      "entities": [
        {
          "id": 625,
          "name": "Ayuntamiento de Arraia-Maeztu",
          "orgs": [
            {
              "id": 911945,
              "name": "Alcalde",
              "_links": {
                "self": {
                  "name": "Alcalde",
                  "href": "https://api.euskadi.eus/procurements/contracting-authorities/195/entities/625/orgs/911945"
                }
              }
            },
            {
              "id": 911946,
              "name": "Pleno",
              "_links": {
                "self": {
                  "name": "Pleno",
                  "href": "https://api.euskadi.eus/procurements/contracting-authorities/195/entities/625/orgs/911946"
                }
              }
            }
          ],
          "_links": {
            "self": {
              "name": "Ayuntamiento de Arraia-Maeztu",
              "href": "https://api.euskadi.eus/procurements/contracting-authorities/195/entities/625"
            }
          }
        }
      ],
      "mainEntityOfPage": "https://www.contratacion.euskadi.eus/webkpe00-kpeperfi/es/contenidos/poder_adjudicador/poder195/es_doc/es_arch_poder195.html",
      "_links": {
        "self": {
          "name": "Ayuntamiento de Arraia-Maeztu",
          "href": "https://api.euskadi.eus/procurements/contracting-authorities/195"
        }
      }
    },
    {
      "id": 198,
      "identificationNumber": "P2006700E",
      "name": "Ayuntamiento de Ormaiztegi",
      "scope": "GIPUZKOA",
      "address": "Muxika Egurastokia, 1. 20216 Ormaitegi (Gipuzkoa)",
      "webPage": "http://www.ormaiztegi.eus",
      "publicationDate": "2019-10-04",
      "mainActivity": "Servicios públicos generales",
      "codNUTS": "ES212",
      "entities": [
        {
          "id": 628,
          "name": "Ayuntamiento de Ormaiztegi",
          "orgs": [
            {
              "id": 911950,
              "name": "Alcaldía",
              "_links": {
                "self": {
                  "name": "Alcaldía",
                  "href": "https://api.euskadi.eus/procurements/contracting-authorities/198/entities/628/orgs/911950"
                }
              }
            }
          ],
          "_links": {
            "self": {
              "name": "Ayuntamiento de Ormaiztegi",
              "href": "https://api.euskadi.eus/procurements/contracting-authorities/198/entities/628"
            }
          }
        }
      ],
      "mainEntityOfPage": "https://www.contratacion.euskadi.eus/webkpe00-kpeperfi/es/contenidos/poder_adjudicador/poder198/es_doc/es_arch_poder198.html",
      "_links": {
        "self": {
          "name": "Ayuntamiento de Ormaiztegi",
          "href": "https://api.euskadi.eus/procurements/contracting-authorities/198"
        }
      }
    },
    {
      "id": 220,
      "identificationNumber": "P2005600H",
      "name": "Ayuntamiento de Legorreta",
      "scope": "GIPUZKOA",
      "address": "Kale Nagusia, 12. 20250 Legorreta (Gipuzkoa)",
      "webPage": "http://www.legorreta.eus",
      "publicationDate": "2019-10-04",
      "mainActivity": "Servicios públicos generales",
      "codNUTS": "ES212",
      "entities": [
        {
          "id": 667,
          "name": "Ayuntamiento de Legorreta",
          "orgs": [
            {
              "id": 912052,
              "name": "Pleno",
              "_links": {
                "self": {
                  "name": "Pleno",
                  "href": "https://api.euskadi.eus/procurements/contracting-authorities/220/entities/667/orgs/912052"
                }
              }
            },
            {
              "id": 912051,
              "name": "Alcaldesa",
              "_links": {
                "self": {
                  "name": "Alcaldesa",
                  "href": "https://api.euskadi.eus/procurements/contracting-authorities/220/entities/667/orgs/912051"
                }
              }
            }
          ],
          "_links": {
            "self": {
              "name": "Ayuntamiento de Legorreta",
              "href": "https://api.euskadi.eus/procurements/contracting-authorities/220/entities/667"
            }
          }
        }
      ],
      "mainEntityOfPage": "https://www.contratacion.euskadi.eus/webkpe00-kpeperfi/es/contenidos/poder_adjudicador/poder220/es_doc/es_arch_poder220.html",
      "_links": {
        "self": {
          "name": "Ayuntamiento de Legorreta",
          "href": "https://api.euskadi.eus/procurements/contracting-authorities/220"
        }
      }
    },
    {
      "id": 242,
      "identificationNumber": "P2007800B",
      "name": "Ayuntamiento de Usurbil",
      "scope": "GIPUZKOA",
      "address": "Joxe Martin Sagardia Plaza, z/g. 20170 Usurbil (Gipuzkoa)",
      "webPage": "http://www.usurbil.eus",
      "publicationDate": "2019-10-04",
      "mainActivity": "Servicios públicos generales",
      "codNUTS": "ES212",
      "entities": [
        {
          "id": 690,
          "name": "Ayuntamiento de Usurbil",
          "orgs": [
            {
              "id": 912096,
              "name": "Junta de Gobierno Local",
              "_links": {
                "self": {
                  "name": "Junta de Gobierno Local",
                  "href": "https://api.euskadi.eus/procurements/contracting-authorities/242/entities/690/orgs/912096"
                }
              }
            },
            {
              "id": 912095,
              "name": "Pleno",
              "_links": {
                "self": {
                  "name": "Pleno",
                  "href": "https://api.euskadi.eus/procurements/contracting-authorities/242/entities/690/orgs/912095"
                }
              }
            },
            {
              "id": 912094,
              "name": "Alcalde",
              "_links": {
                "self": {
                  "name": "Alcalde",
                  "href": "https://api.euskadi.eus/procurements/contracting-authorities/242/entities/690/orgs/912094"
                }
              }
            }
          ],
          "_links": {
            "self": {
              "name": "Ayuntamiento de Usurbil",
              "href": "https://api.euskadi.eus/procurements/contracting-authorities/242/entities/690"
            }
          }
        }
      ],
      "mainEntityOfPage": "https://www.contratacion.euskadi.eus/webkpe00-kpeperfi/es/contenidos/poder_adjudicador/poder242/es_doc/es_arch_poder242.html",
      "_links": {
        "self": {
          "name": "Ayuntamiento de Usurbil",
          "href": "https://api.euskadi.eus/procurements/contracting-authorities/242"
        }
      }
    }
  ]
}