{
  "totalItems": 919,
  "totalPages": 92,
  "currentPage": 52,
  "itemsOfPage": 10,
  "items": [
    {
      "id": 411,
      "identificationNumber": "P4807900H",
      "name": "Ayuntamiento de Mundaka",
      "scope": "BIZKAIA",
      "address": "Lehendakari Agirre, 1. 48360 Mundaka (Bizkaia)",
      "webPage": "http://wwwmundaka.org",
      "publicationDate": "2019-10-07",
      "mainActivity": "Servicios públicos generales",
      "codNUTS": "ES213",
      "entities": [
        {
          "id": 862,
          "name": "Ayuntamiento de Mundaka",
          "orgs": [
            {
              "id": 912426,
              "name": "Alcaldía",
              "_links": {
                "self": {
                  "name": "Alcaldía",
                  "href": "https://api.euskadi.eus/procurements/contracting-authorities/411/entities/862/orgs/912426"
                }
              }
            },
            {
              "id": 912427,
              "name": "Pleno",
              "_links": {
                "self": {
                  "name": "Pleno",
                  "href": "https://api.euskadi.eus/procurements/contracting-authorities/411/entities/862/orgs/912427"
                }
              }
            }
          ],
          "_links": {
            "self": {
              "name": "Ayuntamiento de Mundaka",
              "href": "https://api.euskadi.eus/procurements/contracting-authorities/411/entities/862"
            }
          }
        }
      ],
      "mainEntityOfPage": "https://www.contratacion.euskadi.eus/webkpe00-kpeperfi/es/contenidos/poder_adjudicador/poder411/es_doc/es_arch_poder411.html",
      "_links": {
        "self": {
          "name": "Ayuntamiento de Mundaka",
          "href": "https://api.euskadi.eus/procurements/contracting-authorities/411"
        }
      }
    },
    {
      "id": 412,
      "identificationNumber": "P4803100I",
      "name": "Ayuntamiento de Kortezubi",
      "scope": "BIZKAIA",
      "address": "Barrio Enderika 4,1º. 48315 Kortezubi   ",
      "webPage": "http://www.kortezubi.eus",
      "publicationDate": "2019-10-07",
      "mainActivity": "Servicios públicos generales",
      "codNUTS": "ES213",
      "entities": [
        {
          "id": 863,
          "name": "Ayuntamiento de Kortezubi",
          "orgs": [
            {
              "id": 912429,
              "name": "Pleno",
              "_links": {
                "self": {
                  "name": "Pleno",
                  "href": "https://api.euskadi.eus/procurements/contracting-authorities/412/entities/863/orgs/912429"
                }
              }
            },
            {
              "id": 912428,
              "name": "Alcalde ",
              "_links": {
                "self": {
                  "name": "Alcalde ",
                  "href": "https://api.euskadi.eus/procurements/contracting-authorities/412/entities/863/orgs/912428"
                }
              }
            }
          ],
          "_links": {
            "self": {
              "name": "Ayuntamiento de Kortezubi",
              "href": "https://api.euskadi.eus/procurements/contracting-authorities/412/entities/863"
            }
          }
        }
      ],
      "mainEntityOfPage": "https://www.contratacion.euskadi.eus/webkpe00-kpeperfi/es/contenidos/poder_adjudicador/poder412/es_doc/es_arch_poder412.html",
      "_links": {
        "self": {
          "name": "Ayuntamiento de Kortezubi",
          "href": "https://api.euskadi.eus/procurements/contracting-authorities/412"
        }
      }
    },
    {
      "id": 415,
      "identificationNumber": "P4804000J",
      "name": "Ayuntamiento de Ereño",
      "scope": "BIZKAIA",
      "address": "Elexalde, 10, 48313 Ereño (Bizkaia)",
      "webPage": "http://www.ereno.org",
      "publicationDate": "2019-10-07",
      "mainActivity": "Servicios públicos generales",
      "codNUTS": "ES213",
      "entities": [
        {
          "id": 866,
          "name": "Ayuntamiento de Ereño",
          "orgs": [
            {
              "id": 912433,
              "name": "Pleno",
              "_links": {
                "self": {
                  "name": "Pleno",
                  "href": "https://api.euskadi.eus/procurements/contracting-authorities/415/entities/866/orgs/912433"
                }
              }
            },
            {
              "id": 912432,
              "name": "Alcaldía",
              "_links": {
                "self": {
                  "name": "Alcaldía",
                  "href": "https://api.euskadi.eus/procurements/contracting-authorities/415/entities/866/orgs/912432"
                }
              }
            }
          ],
          "_links": {
            "self": {
              "name": "Ayuntamiento de Ereño",
              "href": "https://api.euskadi.eus/procurements/contracting-authorities/415/entities/866"
            }
          }
        }
      ],
      "mainEntityOfPage": "https://www.contratacion.euskadi.eus/webkpe00-kpeperfi/es/contenidos/poder_adjudicador/poder415/es_doc/es_arch_poder415.html",
      "_links": {
        "self": {
          "name": "Ayuntamiento de Ereño",
          "href": "https://api.euskadi.eus/procurements/contracting-authorities/415"
        }
      }
    },
    {
      "id": 416,
      "identificationNumber": "P4804100H",
      "name": "Ayuntamiento de Ermua",
      "scope": "BIZKAIA",
      "address": "Marqués de Valdespina,  1. 48260 Ermua (Bizkaia)",
      "webPage": "http://www.ermua.es ",
      "publicationDate": "2019-10-07",
      "mainActivity": "Servicios públicos generales",
      "codNUTS": "ES213",
      "entities": [
        {
          "id": 867,
          "name": "Ayuntamiento de Ermua",
          "orgs": [
            {
              "id": 912435,
              "name": "Pleno",
              "_links": {
                "self": {
                  "name": "Pleno",
                  "href": "https://api.euskadi.eus/procurements/contracting-authorities/416/entities/867/orgs/912435"
                }
              }
            },
            {
              "id": 912434,
              "name": "Alcalde-Presidente ",
              "_links": {
                "self": {
                  "name": "Alcalde-Presidente ",
                  "href": "https://api.euskadi.eus/procurements/contracting-authorities/416/entities/867/orgs/912434"
                }
              }
            }
          ],
          "_links": {
            "self": {
              "name": "Ayuntamiento de Ermua",
              "href": "https://api.euskadi.eus/procurements/contracting-authorities/416/entities/867"
            }
          }
        }
      ],
      "mainEntityOfPage": "https://www.contratacion.euskadi.eus/webkpe00-kpeperfi/es/contenidos/poder_adjudicador/poder416/es_doc/es_arch_poder416.html",
      "_links": {
        "self": {
          "name": "Ayuntamiento de Ermua",
          "href": "https://api.euskadi.eus/procurements/contracting-authorities/416"
        }
      }
    },
    {
      "id": 417,
      "identificationNumber": "P4802500A",
      "name": "Ayuntamiento de Busturia",
      "scope": "BIZKAIA",
      "address": "Axpe, 1, 48350 Busturia (Bizkaia)",
      "webPage": "http://www.busturia.org",
      "publicationDate": "2019-10-07",
      "mainActivity": "Servicios públicos generales",
      "codNUTS": "ES213",
      "entities": [
        {
          "id": 868,
          "name": "Ayuntamiento de Busturia",
          "orgs": [
            {
              "id": 912438,
              "name": "Pleno",
              "_links": {
                "self": {
                  "name": "Pleno",
                  "href": "https://api.euskadi.eus/procurements/contracting-authorities/417/entities/868/orgs/912438"
                }
              }
            },
            {
              "id": 912437,
              "name": "Junta de Gobierno",
              "_links": {
                "self": {
                  "name": "Junta de Gobierno",
                  "href": "https://api.euskadi.eus/procurements/contracting-authorities/417/entities/868/orgs/912437"
                }
              }
            },
            {
              "id": 912436,
              "name": "Alcaldía",
              "_links": {
                "self": {
                  "name": "Alcaldía",
                  "href": "https://api.euskadi.eus/procurements/contracting-authorities/417/entities/868/orgs/912436"
                }
              }
            }
          ],
          "_links": {
            "self": {
              "name": "Ayuntamiento de Busturia",
              "href": "https://api.euskadi.eus/procurements/contracting-authorities/417/entities/868"
            }
          }
        }
      ],
      "mainEntityOfPage": "https://www.contratacion.euskadi.eus/webkpe00-kpeperfi/es/contenidos/poder_adjudicador/poder417/es_doc/es_arch_poder417.html",
      "_links": {
        "self": {
          "name": "Ayuntamiento de Busturia",
          "href": "https://api.euskadi.eus/procurements/contracting-authorities/417"
        }
      }
    },
    {
      "id": 419,
      "identificationNumber": "P4812800C",
      "name": "Ayuntamiento de Zierbena",
      "scope": "BIZKAIA",
      "address": "Barrio La Cuesta, 1. 48508 Zierbena (Bizkaia)",
      "webPage": "http://www.zierbena.net",
      "publicationDate": "2019-10-07",
      "mainActivity": "Servicios públicos generales",
      "codNUTS": "ES213",
      "entities": [
        {
          "id": 870,
          "name": "Ayuntamiento de Zierbena",
          "orgs": [
            {
              "id": 912440,
              "name": "Alcalde",
              "_links": {
                "self": {
                  "name": "Alcalde",
                  "href": "https://api.euskadi.eus/procurements/contracting-authorities/419/entities/870/orgs/912440"
                }
              }
            },
            {
              "id": 912442,
              "name": "Junta de Gobierno Local",
              "_links": {
                "self": {
                  "name": "Junta de Gobierno Local",
                  "href": "https://api.euskadi.eus/procurements/contracting-authorities/419/entities/870/orgs/912442"
                }
              }
            },
            {
              "id": 912441,
              "name": "Pleno",
              "_links": {
                "self": {
                  "name": "Pleno",
                  "href": "https://api.euskadi.eus/procurements/contracting-authorities/419/entities/870/orgs/912441"
                }
              }
            }
          ],
          "_links": {
            "self": {
              "name": "Ayuntamiento de Zierbena",
              "href": "https://api.euskadi.eus/procurements/contracting-authorities/419/entities/870"
            }
          }
        }
      ],
      "mainEntityOfPage": "https://www.contratacion.euskadi.eus/webkpe00-kpeperfi/es/contenidos/poder_adjudicador/poder419/es_doc/es_arch_poder419.html",
      "_links": {
        "self": {
          "name": "Ayuntamiento de Zierbena",
          "href": "https://api.euskadi.eus/procurements/contracting-authorities/419"
        }
      }
    },
    {
      "id": 420,
      "identificationNumber": "P4812400B",
      "name": "Ayuntamiento de la Anteiglesia de Erandio",
      "scope": "BIZKAIA",
      "address": "Irailaren, 23a plaza. 48950 Erandio (Bizkaia)",
      "webPage": "http://www.erandio.eus",
      "publicationDate": "2019-10-07",
      "mainActivity": "Servicios públicos generales",
      "codNUTS": "ES213",
      "entities": [
        {
          "id": 871,
          "name": "Ayuntamiento de la Anteiglesia de Erandio",
          "orgs": [
            {
              "id": 912443,
              "name": "Alcaldía",
              "_links": {
                "self": {
                  "name": "Alcaldía",
                  "href": "https://api.euskadi.eus/procurements/contracting-authorities/420/entities/871/orgs/912443"
                }
              }
            },
            {
              "id": 912444,
              "name": "Pleno",
              "_links": {
                "self": {
                  "name": "Pleno",
                  "href": "https://api.euskadi.eus/procurements/contracting-authorities/420/entities/871/orgs/912444"
                }
              }
            }
          ],
          "_links": {
            "self": {
              "name": "Ayuntamiento de la Anteiglesia de Erandio",
              "href": "https://api.euskadi.eus/procurements/contracting-authorities/420/entities/871"
            }
          }
        }
      ],
      "mainEntityOfPage": "https://www.contratacion.euskadi.eus/webkpe00-kpeperfi/es/contenidos/poder_adjudicador/poder420/es_doc/es_arch_poder420.html",
      "_links": {
        "self": {
          "name": "Ayuntamiento de la Anteiglesia de Erandio",
          "href": "https://api.euskadi.eus/procurements/contracting-authorities/420"
        }
      }
    },
    {
      "id": 421,
      "identificationNumber": "P4800036H",
      "name": "Residencia Municipal Santurtzi",
      "scope": "BIZKAIA",
      "address": "Barrio el Villar, 55. 48980 Santurtzi.(Bizkaia)",
      "webPage": "http://www.residencia-santurtzi.eus",
      "publicationDate": "2019-10-07",
      "mainActivity": "Protección social",
      "codNUTS": "ES213",
      "entities": [
        {
          "id": 872,
          "name": "Residencia Municipal Santurtzi",
          "orgs": [
            {
              "id": 912446,
              "name": "Consejo Rector",
              "_links": {
                "self": {
                  "name": "Consejo Rector",
                  "href": "https://api.euskadi.eus/procurements/contracting-authorities/421/entities/872/orgs/912446"
                }
              }
            },
            {
              "id": 912445,
              "name": "Presidencia ",
              "_links": {
                "self": {
                  "name": "Presidencia ",
                  "href": "https://api.euskadi.eus/procurements/contracting-authorities/421/entities/872/orgs/912445"
                }
              }
            }
          ],
          "_links": {
            "self": {
              "name": "Residencia Municipal Santurtzi",
              "href": "https://api.euskadi.eus/procurements/contracting-authorities/421/entities/872"
            }
          }
        }
      ],
      "mainEntityOfPage": "https://www.contratacion.euskadi.eus/webkpe00-kpeperfi/es/contenidos/poder_adjudicador/poder421/es_doc/es_arch_poder421.html",
      "_links": {
        "self": {
          "name": "Residencia Municipal Santurtzi",
          "href": "https://api.euskadi.eus/procurements/contracting-authorities/421"
        }
      }
    },
    {
      "id": 422,
      "identificationNumber": "P4810000B",
      "name": "Ayuntamiento de Sopuerta",
      "scope": "BIZKAIA",
      "address": "Mercadillo 48. 48190.Sopuerta (Bizkaia)",
      "webPage": "http://www.sopuerta.biz",
      "publicationDate": "2019-10-07",
      "mainActivity": "Servicios públicos generales",
      "codNUTS": "ES213",
      "entities": [
        {
          "id": 873,
          "name": "Ayuntamiento de Sopuerta",
          "orgs": [
            {
              "id": 912447,
              "name": "Alcaldía",
              "_links": {
                "self": {
                  "name": "Alcaldía",
                  "href": "https://api.euskadi.eus/procurements/contracting-authorities/422/entities/873/orgs/912447"
                }
              }
            },
            {
              "id": 912448,
              "name": "Pleno",
              "_links": {
                "self": {
                  "name": "Pleno",
                  "href": "https://api.euskadi.eus/procurements/contracting-authorities/422/entities/873/orgs/912448"
                }
              }
            }
          ],
          "_links": {
            "self": {
              "name": "Ayuntamiento de Sopuerta",
              "href": "https://api.euskadi.eus/procurements/contracting-authorities/422/entities/873"
            }
          }
        }
      ],
      "mainEntityOfPage": "https://www.contratacion.euskadi.eus/webkpe00-kpeperfi/es/contenidos/poder_adjudicador/poder422/es_doc/es_arch_poder422.html",
      "_links": {
        "self": {
          "name": "Ayuntamiento de Sopuerta",
          "href": "https://api.euskadi.eus/procurements/contracting-authorities/422"
        }
      }
    },
    {
      "id": 423,
      "identificationNumber": "P4808100D",
      "name": "Ayuntamiento de Aulesti",
      "scope": "BIZKAIA",
      "address": "Donibane enparantza, 1. 48380 Aulesti (Bizkaia) ",
      "webPage": "http://www.aulesti.eus",
      "publicationDate": "2019-10-07",
      "mainActivity": "Servicios públicos generales",
      "codNUTS": "ES213",
      "entities": [
        {
          "id": 874,
          "name": "Ayuntamiento de Aulesti",
          "orgs": [
            {
              "id": 912449,
              "name": "Alcaldía",
              "_links": {
                "self": {
                  "name": "Alcaldía",
                  "href": "https://api.euskadi.eus/procurements/contracting-authorities/423/entities/874/orgs/912449"
                }
              }
            },
            {
              "id": 912450,
              "name": "Pleno",
              "_links": {
                "self": {
                  "name": "Pleno",
                  "href": "https://api.euskadi.eus/procurements/contracting-authorities/423/entities/874/orgs/912450"
                }
              }
            }
          ],
          "_links": {
            "self": {
              "name": "Ayuntamiento de Aulesti",
              "href": "https://api.euskadi.eus/procurements/contracting-authorities/423/entities/874"
            }
          }
        }
      ],
      "mainEntityOfPage": "https://www.contratacion.euskadi.eus/webkpe00-kpeperfi/es/contenidos/poder_adjudicador/poder423/es_doc/es_arch_poder423.html",
      "_links": {
        "self": {
          "name": "Ayuntamiento de Aulesti",
          "href": "https://api.euskadi.eus/procurements/contracting-authorities/423"
        }
      }
    }
  ]
}