{
  "totalItems": 919,
  "totalPages": 92,
  "currentPage": 56,
  "itemsOfPage": 10,
  "items": [
    {
      "id": 516,
      "identificationNumber": "P4800043D",
      "name": "Euskaltegi Municipal de Ermua",
      "scope": "BIZKAIA",
      "address": "Goienkale, z/g-2. (Edificio Teresa Murga). 48260 Ermua (Bizkaia)",
      "webPage": "http://www.ermua.es/pags/euskaltegia/eu_index.asp",
      "publicationDate": "2019-10-07",
      "mainActivity": "Educación",
      "codNUTS": "ES213",
      "entities": [
        {
          "id": 966,
          "name": "Fundación Pública Euskaltegi Municipal de Ermua",
          "orgs": [
            {
              "id": 912600,
              "name": "Junta de Gobierno",
              "_links": {
                "self": {
                  "name": "Junta de Gobierno",
                  "href": "https://api.euskadi.eus/procurements/contracting-authorities/516/entities/966/orgs/912600"
                }
              }
            }
          ],
          "_links": {
            "self": {
              "name": "Fundación Pública Euskaltegi Municipal de Ermua",
              "href": "https://api.euskadi.eus/procurements/contracting-authorities/516/entities/966"
            }
          }
        }
      ],
      "mainEntityOfPage": "https://www.contratacion.euskadi.eus/webkpe00-kpeperfi/es/contenidos/poder_adjudicador/poder516/es_doc/es_arch_poder516.html",
      "_links": {
        "self": {
          "name": "Euskaltegi Municipal de Ermua",
          "href": "https://api.euskadi.eus/procurements/contracting-authorities/516"
        }
      }
    },
    {
      "id": 518,
      "identificationNumber": "P4811100I",
      "name": "Ayuntamiento de Zaratamo",
      "scope": "BIZKAIA",
      "address": "Elexalde 16, 48480 Zaratamo (Bizkaia)",
      "webPage": "http://www.zaratamo.com",
      "publicationDate": "2019-10-07",
      "mainActivity": "Servicios públicos generales",
      "codNUTS": "ES213",
      "entities": [
        {
          "id": 968,
          "name": "Ayuntamiento de Zaratamo",
          "orgs": [
            {
              "id": 912604,
              "name": "Alcaldía",
              "_links": {
                "self": {
                  "name": "Alcaldía",
                  "href": "https://api.euskadi.eus/procurements/contracting-authorities/518/entities/968/orgs/912604"
                }
              }
            },
            {
              "id": 912605,
              "name": "Pleno",
              "_links": {
                "self": {
                  "name": "Pleno",
                  "href": "https://api.euskadi.eus/procurements/contracting-authorities/518/entities/968/orgs/912605"
                }
              }
            }
          ],
          "_links": {
            "self": {
              "name": "Ayuntamiento de Zaratamo",
              "href": "https://api.euskadi.eus/procurements/contracting-authorities/518/entities/968"
            }
          }
        }
      ],
      "mainEntityOfPage": "https://www.contratacion.euskadi.eus/webkpe00-kpeperfi/es/contenidos/poder_adjudicador/poder518/es_doc/es_arch_poder518.html",
      "_links": {
        "self": {
          "name": "Ayuntamiento de Zaratamo",
          "href": "https://api.euskadi.eus/procurements/contracting-authorities/518"
        }
      }
    },
    {
      "id": 519,
      "identificationNumber": "P9800003G",
      "name": "Consorcio de Aguas de Busturialdea",
      "scope": "BIZKAIA",
      "address": "Portuondo bide 7. 48395 Sukarrieta (Bizkaia)",
      "webPage": "http://www.busturialdekoura.org",
      "publicationDate": "2019-10-07",
      "mainActivity": "Servicios públicos generales",
      "codNUTS": "ES213",
      "entities": [
        {
          "id": 969,
          "name": "Consorcio de Aguas de Busturialdea",
          "orgs": [
            {
              "id": 912606,
              "name": "Comisión Ejecutiva",
              "_links": {
                "self": {
                  "name": "Comisión Ejecutiva",
                  "href": "https://api.euskadi.eus/procurements/contracting-authorities/519/entities/969/orgs/912606"
                }
              }
            }
          ],
          "_links": {
            "self": {
              "name": "Consorcio de Aguas de Busturialdea",
              "href": "https://api.euskadi.eus/procurements/contracting-authorities/519/entities/969"
            }
          }
        }
      ],
      "mainEntityOfPage": "https://www.contratacion.euskadi.eus/webkpe00-kpeperfi/es/contenidos/poder_adjudicador/poder519/es_doc/es_arch_poder519.html",
      "_links": {
        "self": {
          "name": "Consorcio de Aguas de Busturialdea",
          "href": "https://api.euskadi.eus/procurements/contracting-authorities/519"
        }
      }
    },
    {
      "id": 526,
      "identificationNumber": "P4810100J",
      "name": "Ayuntamiento de Trucíos",
      "scope": "BIZKAIA",
      "address": "Avda. Lehendakari Agirre, 51. 48880 Trucíos/Turtzioz (Bizkaia)",
      "webPage": "http://www.turtzioz.org",
      "publicationDate": "2019-10-07",
      "mainActivity": "Servicios públicos generales",
      "codNUTS": "ES213",
      "entities": [
        {
          "id": 976,
          "name": "Ayuntamiento de Trucíos",
          "orgs": [
            {
              "id": 912618,
              "name": "Alcalde",
              "_links": {
                "self": {
                  "name": "Alcalde",
                  "href": "https://api.euskadi.eus/procurements/contracting-authorities/526/entities/976/orgs/912618"
                }
              }
            },
            {
              "id": 912620,
              "name": "Junta de Gobierno Local",
              "_links": {
                "self": {
                  "name": "Junta de Gobierno Local",
                  "href": "https://api.euskadi.eus/procurements/contracting-authorities/526/entities/976/orgs/912620"
                }
              }
            },
            {
              "id": 912619,
              "name": "Pleno ",
              "_links": {
                "self": {
                  "name": "Pleno ",
                  "href": "https://api.euskadi.eus/procurements/contracting-authorities/526/entities/976/orgs/912619"
                }
              }
            }
          ],
          "_links": {
            "self": {
              "name": "Ayuntamiento de Trucíos",
              "href": "https://api.euskadi.eus/procurements/contracting-authorities/526/entities/976"
            }
          }
        }
      ],
      "mainEntityOfPage": "https://www.contratacion.euskadi.eus/webkpe00-kpeperfi/es/contenidos/poder_adjudicador/poder526/es_doc/es_arch_poder526.html",
      "_links": {
        "self": {
          "name": "Ayuntamiento de Trucíos",
          "href": "https://api.euskadi.eus/procurements/contracting-authorities/526"
        }
      }
    },
    {
      "id": 534,
      "identificationNumber": "P4808200B",
      "name": "Ayuntamiento de Murueta",
      "scope": "BIZKAIA",
      "address": "Barrio Larrabe, 27. 48394 Murueta (Bizkaia)",
      "webPage": "http://www.murueta.es",
      "publicationDate": "2019-10-07",
      "mainActivity": "Servicios públicos generales",
      "codNUTS": "ES213",
      "entities": [
        {
          "id": 984,
          "name": "Ayuntamiento de Murueta",
          "orgs": [
            {
              "id": 912639,
              "name": "Pleno",
              "_links": {
                "self": {
                  "name": "Pleno",
                  "href": "https://api.euskadi.eus/procurements/contracting-authorities/534/entities/984/orgs/912639"
                }
              }
            },
            {
              "id": 912638,
              "name": "Alcalde",
              "_links": {
                "self": {
                  "name": "Alcalde",
                  "href": "https://api.euskadi.eus/procurements/contracting-authorities/534/entities/984/orgs/912638"
                }
              }
            }
          ],
          "_links": {
            "self": {
              "name": "Ayuntamiento de Murueta",
              "href": "https://api.euskadi.eus/procurements/contracting-authorities/534/entities/984"
            }
          }
        }
      ],
      "mainEntityOfPage": "https://www.contratacion.euskadi.eus/webkpe00-kpeperfi/es/contenidos/poder_adjudicador/poder534/es_doc/es_arch_poder534.html",
      "_links": {
        "self": {
          "name": "Ayuntamiento de Murueta",
          "href": "https://api.euskadi.eus/procurements/contracting-authorities/534"
        }
      }
    },
    {
      "id": 540,
      "identificationNumber": "B95534947",
      "name": "Abanto-Zierbena Zerbitzuak, S.L.",
      "scope": "BIZKAIA",
      "address": "Plaza Bizkaia, 3 trasera. 48500 Abanto-Zierbena (Bizkaia)",
      "webPage": "http://www.a-zz.net",
      "publicationDate": "2019-10-07",
      "mainActivity": "Servicios públicos generales",
      "codNUTS": "ES213",
      "entities": [
        {
          "id": 990,
          "name": "Abanto-Zierbena Zerbitzuak, S.L.",
          "orgs": [
            {
              "id": 912641,
              "name": "Consejo de Administración",
              "_links": {
                "self": {
                  "name": "Consejo de Administración",
                  "href": "https://api.euskadi.eus/procurements/contracting-authorities/540/entities/990/orgs/912641"
                }
              }
            },
            {
              "id": 912642,
              "name": "Gerencia",
              "_links": {
                "self": {
                  "name": "Gerencia",
                  "href": "https://api.euskadi.eus/procurements/contracting-authorities/540/entities/990/orgs/912642"
                }
              }
            },
            {
              "id": 912640,
              "name": "Junta General",
              "_links": {
                "self": {
                  "name": "Junta General",
                  "href": "https://api.euskadi.eus/procurements/contracting-authorities/540/entities/990/orgs/912640"
                }
              }
            }
          ],
          "_links": {
            "self": {
              "name": "Abanto-Zierbena Zerbitzuak, S.L.",
              "href": "https://api.euskadi.eus/procurements/contracting-authorities/540/entities/990"
            }
          }
        }
      ],
      "mainEntityOfPage": "https://www.contratacion.euskadi.eus/webkpe00-kpeperfi/es/contenidos/poder_adjudicador/poder540/es_doc/es_arch_poder540.html",
      "_links": {
        "self": {
          "name": "Abanto-Zierbena Zerbitzuak, S.L.",
          "href": "https://api.euskadi.eus/procurements/contracting-authorities/540"
        }
      }
    },
    {
      "id": 548,
      "identificationNumber": "G95442232",
      "name": "Fundación AIC Automotive Intelligence Center",
      "scope": "BIZKAIA",
      "address": "Parque Empresarial Boroa, P2A-4. Barrio Gumuzio, s/n. 48340 Amorebieta-Etxano (Bizkaia)",
      "webPage": "http://www.aicenter.eu",
      "publicationDate": "2019-10-07",
      "mainActivity": "Otra actividad",
      "alternativeActivity": "Investigación",
      "codNUTS": "ES213",
      "entities": [
        {
          "id": 998,
          "name": "Fundación AIC",
          "orgs": [
            {
              "id": 912660,
              "name": "Comisión Ejecutiva",
              "_links": {
                "self": {
                  "name": "Comisión Ejecutiva",
                  "href": "https://api.euskadi.eus/procurements/contracting-authorities/548/entities/998/orgs/912660"
                }
              }
            }
          ],
          "_links": {
            "self": {
              "name": "Fundación AIC",
              "href": "https://api.euskadi.eus/procurements/contracting-authorities/548/entities/998"
            }
          }
        }
      ],
      "mainEntityOfPage": "https://www.contratacion.euskadi.eus/webkpe00-kpeperfi/es/contenidos/poder_adjudicador/poder548/es_doc/es_arch_poder548.html",
      "_links": {
        "self": {
          "name": "Fundación AIC Automotive Intelligence Center",
          "href": "https://api.euskadi.eus/procurements/contracting-authorities/548"
        }
      }
    },
    {
      "id": 551,
      "identificationNumber": "A95228698",
      "name": "Taller Usoa Lantegia, S.A.U.",
      "scope": "BIZKAIA",
      "address": "Zumalakarregi, 10. 48903 Barakaldo (Bizkaia)",
      "webPage": "https://wwww.usoa.es",
      "publicationDate": "2019-10-07",
      "mainActivity": "Protección social",
      "codNUTS": "ES213",
      "entities": [
        {
          "id": 1001,
          "name": "Taller Usoa Lantegia, S.A.U.",
          "orgs": [
            {
              "id": 912661,
              "name": "Director Gerente",
              "_links": {
                "self": {
                  "name": "Director Gerente",
                  "href": "https://api.euskadi.eus/procurements/contracting-authorities/551/entities/1001/orgs/912661"
                }
              }
            }
          ],
          "_links": {
            "self": {
              "name": "Taller Usoa Lantegia, S.A.U.",
              "href": "https://api.euskadi.eus/procurements/contracting-authorities/551/entities/1001"
            }
          }
        }
      ],
      "mainEntityOfPage": "https://www.contratacion.euskadi.eus/webkpe00-kpeperfi/es/contenidos/poder_adjudicador/poder551/es_doc/es_arch_poder551.html",
      "_links": {
        "self": {
          "name": "Taller Usoa Lantegia, S.A.U.",
          "href": "https://api.euskadi.eus/procurements/contracting-authorities/551"
        },
        "contractingAuthorities": [
          {
            "name": "Barakaldo Kirolak",
            "href": "https://api.euskadi.eus/procurements/contracting-authorities/17516"
          }
        ]
      }
    },
    {
      "id": 552,
      "identificationNumber": "P4802700G",
      "name": "Ayuntamiento de Artea",
      "scope": "BIZKAIA",
      "address": "Herriko plaza,1. 48142 Artea (Bizkaia)",
      "webPage": "http://www.artea-udala.eus",
      "publicationDate": "2019-10-07",
      "mainActivity": "Servicios públicos generales",
      "codNUTS": "ES213",
      "entities": [
        {
          "id": 1002,
          "name": "Ayuntamiento de Artea",
          "orgs": [
            {
              "id": 912662,
              "name": "Pleno",
              "_links": {
                "self": {
                  "name": "Pleno",
                  "href": "https://api.euskadi.eus/procurements/contracting-authorities/552/entities/1002/orgs/912662"
                }
              }
            },
            {
              "id": 912663,
              "name": "Alcalde",
              "_links": {
                "self": {
                  "name": "Alcalde",
                  "href": "https://api.euskadi.eus/procurements/contracting-authorities/552/entities/1002/orgs/912663"
                }
              }
            }
          ],
          "_links": {
            "self": {
              "name": "Ayuntamiento de Artea",
              "href": "https://api.euskadi.eus/procurements/contracting-authorities/552/entities/1002"
            }
          }
        }
      ],
      "mainEntityOfPage": "https://www.contratacion.euskadi.eus/webkpe00-kpeperfi/es/contenidos/poder_adjudicador/poder552/es_doc/es_arch_poder552.html",
      "_links": {
        "self": {
          "name": "Ayuntamiento de Artea",
          "href": "https://api.euskadi.eus/procurements/contracting-authorities/552"
        }
      }
    },
    {
      "id": 553,
      "identificationNumber": "P4800600A",
      "name": "Ayuntamiento de Arakaldo",
      "scope": "BIZKAIA",
      "address": "Elexalde, 3. 48498 Arakaldo (Bizkaia)",
      "webPage": "http://www.arakaldo.org",
      "publicationDate": "2019-10-07",
      "mainActivity": "Servicios públicos generales",
      "codNUTS": "ES213",
      "entities": [
        {
          "id": 1003,
          "name": "Ayuntamiento de Arakaldo",
          "orgs": [
            {
              "id": 912664,
              "name": "Alcalde",
              "_links": {
                "self": {
                  "name": "Alcalde",
                  "href": "https://api.euskadi.eus/procurements/contracting-authorities/553/entities/1003/orgs/912664"
                }
              }
            },
            {
              "id": 912665,
              "name": "Pleno",
              "_links": {
                "self": {
                  "name": "Pleno",
                  "href": "https://api.euskadi.eus/procurements/contracting-authorities/553/entities/1003/orgs/912665"
                }
              }
            }
          ],
          "_links": {
            "self": {
              "name": "Ayuntamiento de Arakaldo",
              "href": "https://api.euskadi.eus/procurements/contracting-authorities/553/entities/1003"
            }
          }
        }
      ],
      "mainEntityOfPage": "https://www.contratacion.euskadi.eus/webkpe00-kpeperfi/es/contenidos/poder_adjudicador/poder553/es_doc/es_arch_poder553.html",
      "_links": {
        "self": {
          "name": "Ayuntamiento de Arakaldo",
          "href": "https://api.euskadi.eus/procurements/contracting-authorities/553"
        }
      }
    }
  ]
}