{
  "totalItems": 9042,
  "totalPages": 905,
  "currentPage": 356,
  "itemsOfPage": 10,
  "items": [
    {
      "name": "PSIKER ESTUDIOS E INTERVENCION PSICOTERAPEUTICA Y EDUCATIVA, S.L.",
      "registrationNumber": "10177",
      "identificationNumber": "B75075309",
      "address": "Plaza Cedro (20016) 2-1ºB",
      "location": {
        "postalCode": "20016",
        "municipality": "Donostia / San Sebastián",
        "county": "Gipuzkoa",
        "municipalityId": "069",
        "countyId": "20"
      },
      "economicActivities": [
        {
          "id": "1.942.9",
          "name": "Otros servicios sanitarios sin internados, no clasificados",
          "_links": {
            "self": {
              "name": "Otros servicios sanitarios sin internados, no clasificados",
              "href": "https://api.euskadi.eus/procurements/companies/economic-activities/1.942.9"
            }
          }
        },
        {
          "id": "1.952",
          "name": "Asistencia y servicios sociales en centros no residenciales",
          "_links": {
            "self": {
              "name": "Asistencia y servicios sociales en centros no residenciales",
              "href": "https://api.euskadi.eus/procurements/companies/economic-activities/1.952"
            }
          }
        }
      ],
      "certificateStartDate": "2025-05-16",
      "certificateEndDate": "2025-11-15",
      "object": "PSICOTERAPIA, PSICOLOGÍA E INTERVENCIÓN EDUCATIVA.",
      "mainEntityOfPage": "https://www.contratacion.euskadi.eus/webkpe00-kperoc/es/ac71aBusquedaRegistrosWar/empresa/10177",
      "_links": {
        "self": {
          "name": "PSIKER ESTUDIOS E INTERVENCION PSICOTERAPEUTICA Y EDUCATIVA, S.L.",
          "href": "https://api.euskadi.eus/procurements/companies/10177"
        }
      }
    },
    {
      "name": "SOLUCIONES INTEGRALES MANTENIMIENTO ASESORIA Y GESTION, S.L.",
      "registrationNumber": "08154",
      "identificationNumber": "B01438894",
      "address": "Calle Kapelamendi 1 pB 35 (01013)",
      "location": {
        "postalCode": "01013",
        "municipality": "Vitoria-Gasteiz",
        "county": "Araba/Álava",
        "municipalityId": "059",
        "countyId": "01"
      },
      "economicActivities": [
        {
          "id": "1.501.3",
          "name": "Albañilería y pequeños trabajos de construcción en general",
          "_links": {
            "self": {
              "name": "Albañilería y pequeños trabajos de construcción en general",
              "href": "https://api.euskadi.eus/procurements/companies/economic-activities/1.501.3"
            }
          }
        }
      ],
      "certificateStartDate": "2025-05-15",
      "certificateEndDate": "2025-11-15",
      "object": "LA COORDINACIÓN DE GREMIOS DE LA CONSTRUCCIÓN. LA REALIZACIÓN POR CUENTA PROPIA O AJENA DE CONSTRUCCIONES E INSTALACIONES PARA USO RESIDENCIAL O INDUSTRIAL Y SU REPARACIÓN Y CONSERVACIÓN. LA GESTIÓN DE RESIDUOS ASÍ COMO LA RECUPERACIÓN DE PRODUCTOS. EXPLOTACIÓN DE INFRAESTRUCTURAS Y REDES DE COMUNICACIÓN, PARA TRANSMISIÓN DE VOZ, DATOS E IMÁGENES. EL DISEÑO, IMPLANTACIÓN Y APLICACIÓN DE UN PLAN DE PREVENCIÓN DE RIESGOS LABORALES QUE PERMITA LA INTEGRACIÓN DE LA PREVENCIÓN EN LA EMPRESA. LA EVALUACIÓN DE LOS FACTORES DE RIESGO QUE PUEDAN AFECTAR A LA SEGURIDAD Y SALUD DE LOS TRABAJADORES.",
      "mainEntityOfPage": "https://www.contratacion.euskadi.eus/webkpe00-kperoc/es/ac71aBusquedaRegistrosWar/empresa/08154",
      "_links": {
        "self": {
          "name": "SOLUCIONES INTEGRALES MANTENIMIENTO ASESORIA Y GESTION, S.L.",
          "href": "https://api.euskadi.eus/procurements/companies/08154"
        }
      }
    },
    {
      "name": "FYC SAINZ, S.L.",
      "registrationNumber": "09916",
      "identificationNumber": "B55442487",
      "address": "BARRIO IBAIONDO 5-1º",
      "location": {
        "postalCode": "48860",
        "municipality": "Zalla",
        "county": "Bizkaia",
        "municipalityId": "096",
        "countyId": "48"
      },
      "economicActivities": [
        {
          "id": "1.504.2",
          "name": "Instalaciones de fontanería",
          "_links": {
            "self": {
              "name": "Instalaciones de fontanería",
              "href": "https://api.euskadi.eus/procurements/companies/economic-activities/1.504.2"
            }
          }
        }
      ],
      "certificateStartDate": "2025-05-14",
      "certificateEndDate": "2025-11-11",
      "object": "ACTIVIDAD PRINCIPAL: FONTANERÍA, INSTALACIONES DE SISTEMAS DE CALEFACCIÓN Y AIRE ACONDICIONADO. CNAE: 4322. OTRAS ACTIVIDADES: CONSTRUCCIÓN DE EDIFICIOS RESIDENCIALES. CNAE: 4121. CONSTRUCCIÓN DE EDIFICIOS NO RESIDENCIALES. CNAE: 4122.",
      "mainEntityOfPage": "https://www.contratacion.euskadi.eus/webkpe00-kperoc/es/ac71aBusquedaRegistrosWar/empresa/09916",
      "_links": {
        "self": {
          "name": "FYC SAINZ, S.L.",
          "href": "https://api.euskadi.eus/procurements/companies/09916"
        }
      }
    },
    {
      "name": "OZENKI SOINUA ARGIA S.L.L.",
      "registrationNumber": "07135",
      "identificationNumber": "B95450151",
      "address": "Barrio Ballonti 25B",
      "location": {
        "postalCode": "48920",
        "municipality": "Portugalete",
        "county": "Bizkaia",
        "municipalityId": "078",
        "countyId": "48"
      },
      "economicActivities": [
        {
          "id": "1.843.9",
          "name": "Otros servicios técnicos n.c.o.p",
          "_links": {
            "self": {
              "name": "Otros servicios técnicos n.c.o.p",
              "href": "https://api.euskadi.eus/procurements/companies/economic-activities/1.843.9"
            }
          }
        },
        {
          "id": "1.965.2",
          "name": "Espectáculos al aire libre (excepto los taurinos)",
          "_links": {
            "self": {
              "name": "Espectáculos al aire libre (excepto los taurinos)",
              "href": "https://api.euskadi.eus/procurements/companies/economic-activities/1.965.2"
            }
          }
        }
      ],
      "certificateStartDate": "2025-05-13",
      "certificateEndDate": "2025-11-13",
      "object": "DAR SERVICIOS TÉCNICOS AL ESPECTÁCULO, TALES COMO SONORIZACIÓN, ILUMINACIÓN Y MONTAJE DE ESCENARIOS",
      "mainEntityOfPage": "https://www.contratacion.euskadi.eus/webkpe00-kperoc/es/ac71aBusquedaRegistrosWar/empresa/07135",
      "_links": {
        "self": {
          "name": "OZENKI SOINUA ARGIA S.L.L.",
          "href": "https://api.euskadi.eus/procurements/companies/07135"
        }
      }
    },
    {
      "name": "INSTALACIONES ELECTRICAS MUSKIZ, S. COOP.",
      "registrationNumber": "10173",
      "identificationNumber": "F48264733",
      "address": "POL. IND SANTELICES PAB 5 PARC A PTA IZDA",
      "location": {
        "postalCode": "48550",
        "municipality": "Muskiz",
        "county": "Bizkaia",
        "municipalityId": "071",
        "countyId": "48"
      },
      "economicActivities": [
        {
          "id": "1.504.12",
          "name": "Instalaciones eléctricas en toda clase de edificios",
          "_links": {
            "self": {
              "name": "Instalaciones eléctricas en toda clase de edificios",
              "href": "https://api.euskadi.eus/procurements/companies/economic-activities/1.504.12"
            }
          }
        }
      ],
      "certificateStartDate": "2025-05-13",
      "certificateEndDate": "2025-11-12",
      "object": "LA INSTALACIÓN ELÉCTRICA, YA SEA INDUSTRIAL, RÚSTICA Y URBANA Y SU PUESTA EN FUNCIONAMIENTO, MANTENIMIENTO DE LAS MISMAS Y SUS REPARACIONES, ASÍ COMO LAS ACTIVIDADES AUXILIARES Y COMPLEMENTARIAS NECESARIAS. PARA CONSEGUIR EL OBJETO CITADO TODOS LOS SOCIOS TRABAJADORES DE LA COOPERATIVA DEDICARÁN SU PERSONAL TRABAJO.",
      "mainEntityOfPage": "https://www.contratacion.euskadi.eus/webkpe00-kperoc/es/ac71aBusquedaRegistrosWar/empresa/10173",
      "_links": {
        "self": {
          "name": "INSTALACIONES ELECTRICAS MUSKIZ, S. COOP.",
          "href": "https://api.euskadi.eus/procurements/companies/10173"
        }
      }
    },
    {
      "name": "UNAVETS HEALTHCARE, S.L.",
      "registrationNumber": "09309",
      "identificationNumber": "B88499504",
      "address": "Calle Francisco Silvela 42 28028 Madrid",
      "location": {
        "postalCode": "28028",
        "municipality": "Madrid",
        "county": "Madrid",
        "municipalityId": "079",
        "countyId": "28"
      },
      "economicActivities": [
        {
          "id": "1.659.7",
          "name": "Venta al por menor de semillas, abonos, flores, plantas y pequeños animales",
          "_links": {
            "self": {
              "name": "Venta al por menor de semillas, abonos, flores, plantas y pequeños animales",
              "href": "https://api.euskadi.eus/procurements/companies/economic-activities/1.659.7"
            }
          }
        },
        {
          "id": "1.945",
          "name": "Consultas y clínicas veterinarias",
          "_links": {
            "self": {
              "name": "Consultas y clínicas veterinarias",
              "href": "https://api.euskadi.eus/procurements/companies/economic-activities/1.945"
            }
          }
        }
      ],
      "certificateStartDate": "2025-05-12",
      "certificateEndDate": "2025-10-30",
      "object": "LA INTERMEDIACIÓN EN LA PRESTACIÓN DE SERVICIOS VETERINARIOS INCLUYENDO, ENTRE OTROS, LA GESTIÓN DE (I) HOSPITALES Y CLÍNICAS VETERINARIAS, (II) SERVICIOS DE TRASLADO DE MASCOTAS Y PRODUCTOS, (III) CENTRAL DE COMPRAS DE MATERIAL VETERINARIO, (IV) TIENDAS DE PRODUCTOS ZOOSANITARIOS Y ACCESORIOS, (V) IGUALAS DE VETERINARIAS DE ASISTENCIA A MASCOTAS, Y (VI) CENTRO DE FORMACIÓN.",
      "mainEntityOfPage": "https://www.contratacion.euskadi.eus/webkpe00-kperoc/es/ac71aBusquedaRegistrosWar/empresa/09309",
      "_links": {
        "self": {
          "name": "UNAVETS HEALTHCARE, S.L.",
          "href": "https://api.euskadi.eus/procurements/companies/09309"
        }
      }
    },
    {
      "name": "IGNACIO MARUGAN HERNANDEZ",
      "registrationNumber": "09651",
      "identificationNumber": "09022500Z",
      "address": "C/ SANDOVAL 13 4A",
      "location": {
        "postalCode": "28010",
        "municipality": "Madrid",
        "county": "Madrid",
        "municipalityId": "079",
        "countyId": "28"
      },
      "economicActivities": [
        {
          "id": "1.659.4",
          "name": "Venta al por menor de libros, periódicos y artículos de papelería y escritorio",
          "_links": {
            "self": {
              "name": "Venta al por menor de libros, periódicos y artículos de papelería y escritorio",
              "href": "https://api.euskadi.eus/procurements/companies/economic-activities/1.659.4"
            }
          }
        },
        {
          "id": "2.751",
          "name": "Profesionales de la publicidad, relaciones públicas y similares",
          "_links": {
            "self": {
              "name": "Profesionales de la publicidad, relaciones públicas y similares",
              "href": "https://api.euskadi.eus/procurements/companies/economic-activities/2.751"
            }
          }
        }
      ],
      "certificateStartDate": "2025-05-12",
      "certificateEndDate": "2025-11-11",
      "object": "VENTA AL POR MENOR DE LIBROS, PERIÓDICOS Y ARTÍCULOS DE PAPELERÍA Y ESCRITORIO. PROFESIONALES DE LA PUBLICIDAD, RELACIONES PÚBLICAS Y SIMILARES.",
      "mainEntityOfPage": "https://www.contratacion.euskadi.eus/webkpe00-kperoc/es/ac71aBusquedaRegistrosWar/empresa/09651",
      "_links": {
        "self": {
          "name": "IGNACIO MARUGAN HERNANDEZ",
          "href": "https://api.euskadi.eus/procurements/companies/09651"
        }
      }
    },
    {
      "name": "HRC INGENIERIA, S.L.",
      "registrationNumber": "10171",
      "identificationNumber": "B70742135",
      "address": "Paseo de Beloka 1, 2º ctro",
      "location": {
        "postalCode": "20009",
        "municipality": "Donostia / San Sebastián",
        "county": "Gipuzkoa",
        "municipalityId": "069",
        "countyId": "20"
      },
      "economicActivities": [
        {
          "id": "1.843.1",
          "name": "Servicios técnicos de ingeniería",
          "_links": {
            "self": {
              "name": "Servicios técnicos de ingeniería",
              "href": "https://api.euskadi.eus/procurements/companies/economic-activities/1.843.1"
            }
          }
        }
      ],
      "certificateStartDate": "2025-05-12",
      "certificateEndDate": "2025-09-25",
      "object": "LA INTERMEDIACIÓN EN LA COORDINACIÓN Y CONTRATACIÓN PARA EL ESTUDIO Y REDACCIÓN DE TODA CLASE DE PROYECTOS Y DICTÁMENES TÉCNICOS Y DE INGENIERÍA, A TODO TIPO DE EMPRESAS Y PARTICULARES TANTO EN EL TERRITORIO NACIONAL COMO INTERNACIONAL.",
      "mainEntityOfPage": "https://www.contratacion.euskadi.eus/webkpe00-kperoc/es/ac71aBusquedaRegistrosWar/empresa/10171",
      "_links": {
        "self": {
          "name": "HRC INGENIERIA, S.L.",
          "href": "https://api.euskadi.eus/procurements/companies/10171"
        }
      }
    },
    {
      "name": "BORTZAIORIZ TEJEDA DONNAY",
      "registrationNumber": "10170",
      "identificationNumber": "44141493P",
      "address": "BIZKAIA KALEA 11 2C",
      "location": {
        "postalCode": "20800",
        "municipality": "Zarautz",
        "county": "Gipuzkoa",
        "municipalityId": "079",
        "countyId": "20"
      },
      "economicActivities": [
        {
          "id": "2.411",
          "name": "Arquitectos",
          "_links": {
            "self": {
              "name": "Arquitectos",
              "href": "https://api.euskadi.eus/procurements/companies/economic-activities/2.411"
            }
          }
        }
      ],
      "certificateStartDate": "2025-05-12",
      "certificateEndDate": "2025-11-10",
      "object": "ARQUITECTOS.",
      "mainEntityOfPage": "https://www.contratacion.euskadi.eus/webkpe00-kperoc/es/ac71aBusquedaRegistrosWar/empresa/10170",
      "_links": {
        "self": {
          "name": "BORTZAIORIZ TEJEDA DONNAY",
          "href": "https://api.euskadi.eus/procurements/companies/10170"
        }
      }
    },
    {
      "name": "ASOCIACIÓN KONPONDU PARA LA DEFENSA LEGAL",
      "registrationNumber": "06673",
      "identificationNumber": "G95469102",
      "address": "PAGAZAURTUNDUA6-3A",
      "location": {
        "postalCode": "48980",
        "municipality": "Santurtzi",
        "county": "Bizkaia",
        "municipalityId": "082",
        "countyId": "48"
      },
      "economicActivities": [
        {
          "id": "1.934",
          "name": "Enseñanza fuera de establecimiento permanente",
          "_links": {
            "self": {
              "name": "Enseñanza fuera de establecimiento permanente",
              "href": "https://api.euskadi.eus/procurements/companies/economic-activities/1.934"
            }
          }
        }
      ],
      "certificateStartDate": "2025-05-12",
      "certificateEndDate": "2025-10-02",
      "object": "LA DEFENSA LEGAL Y PRESTACIÓN DE SERVICIOS JURÍDICOS A PARTICULARES: ACTUACIONES E INTERVENCIONES EN TODAS LAS ÁREAS DEL DERECHO, PARA LA PROTECCIÓN Y DEFENSA DE LOS DERECHOS E INTERESES DE LOS PARTICULARES.",
      "mainEntityOfPage": "https://www.contratacion.euskadi.eus/webkpe00-kperoc/es/ac71aBusquedaRegistrosWar/empresa/06673",
      "_links": {
        "self": {
          "name": "ASOCIACIÓN KONPONDU PARA LA DEFENSA LEGAL",
          "href": "https://api.euskadi.eus/procurements/companies/06673"
        }
      }
    }
  ]
}