{
  "totalItems": 9042,
  "totalPages": 905,
  "currentPage": 604,
  "itemsOfPage": 10,
  "items": [
    {
      "name": "VALENTÍN GÓMEZ JUEZ",
      "registrationNumber": "06392",
      "identificationNumber": "13135774Z",
      "address": "AVDA. OMECILLO, Nº 10 - VILLANAÑE",
      "location": {
        "postalCode": "01426",
        "municipality": "Valdegovía/Gaubea",
        "county": "Araba/Álava",
        "municipalityId": "055",
        "countyId": "01"
      },
      "economicActivities": [
        {
          "id": "2.778",
          "name": "Diplomados en biblioteconomía y documentación",
          "_links": {
            "self": {
              "name": "Diplomados en biblioteconomía y documentación",
              "href": "https://api.euskadi.eus/procurements/companies/economic-activities/2.778"
            }
          }
        }
      ],
      "certificateStartDate": "2019-07-22",
      "certificateEndDate": "2019-10-03",
      "object": "GESTION DE BIBLIOTECA MUNICIPAL Y PROMOCIÓN Y DESARROLLO DE ACTIVIDADES SOCIO-CULTURALES",
      "mainEntityOfPage": "https://www.contratacion.euskadi.eus/webkpe00-kperoc/es/ac71aBusquedaRegistrosWar/empresa/06392",
      "_links": {
        "self": {
          "name": "VALENTÍN GÓMEZ JUEZ",
          "href": "https://api.euskadi.eus/procurements/companies/06392"
        }
      }
    },
    {
      "name": "ESTUDIO ARQUITECTURA BASA, S.L.",
      "registrationNumber": "06388",
      "identificationNumber": "B01346485",
      "address": "CALLE ANDALUCIA 10-12 BAJO TRASERA",
      "location": {
        "postalCode": "01003",
        "municipality": "Vitoria-Gasteiz",
        "county": "Araba/Álava",
        "municipalityId": "059",
        "countyId": "01"
      },
      "economicActivities": [
        {
          "id": "1.843.2",
          "name": "Servicios técnicos de arquitectura y urbanismo",
          "_links": {
            "self": {
              "name": "Servicios técnicos de arquitectura y urbanismo",
              "href": "https://api.euskadi.eus/procurements/companies/economic-activities/1.843.2"
            }
          }
        }
      ],
      "certificateStartDate": "2019-07-19",
      "certificateEndDate": "2019-11-30",
      "object": "LA REDACCIÓN DE PROYECTOS DE EDIFICACIÓN, DEMOLICIÓN, ACTIVIDAD E INSTALACIONES. REDACCIÓN DE TODO TIPO DE PLANES DE URBANISMO, PROYECTOS DE URBANIZACIÓN, REPARCELACIÓN Y COMPENSACIÓN. INTERMEDIACIÓN EN LA PROMOCIÓN DE EDIFICIOS Y CUALESQUIERA OTROS INMUEBLES",
      "mainEntityOfPage": "https://www.contratacion.euskadi.eus/webkpe00-kperoc/es/ac71aBusquedaRegistrosWar/empresa/06388",
      "_links": {
        "self": {
          "name": "ESTUDIO ARQUITECTURA BASA, S.L.",
          "href": "https://api.euskadi.eus/procurements/companies/06388"
        }
      }
    },
    {
      "name": "INFORMATICA DEL ESTE, S.L.",
      "registrationNumber": "06387",
      "identificationNumber": "B96446125",
      "address": "C/ Camino Peñarrocha N3  Esc D 1º Piso",
      "location": {
        "postalCode": "46023",
        "municipality": "València",
        "county": "Valencia/València",
        "municipalityId": "250",
        "countyId": "46"
      },
      "economicActivities": [
        {
          "id": "1.845",
          "name": "Explotación electrónica por cuenta de terceros",
          "_links": {
            "self": {
              "name": "Explotación electrónica por cuenta de terceros",
              "href": "https://api.euskadi.eus/procurements/companies/economic-activities/1.845"
            }
          }
        }
      ],
      "certificateStartDate": "2019-07-18",
      "certificateEndDate": "2019-12-21",
      "object": "A)EL ANÁLISIS, DESARROLLO Y EXPLOTACIÓN DE APLICACIONES INFORMÁTICAS DE TODA CLASE, SU INSTALACIÓN, CONSERVACIÓN, MANTENIMIENTO Y DISTRIBUCIÓN COMERCIAL. EL ESTUDIO, PROMOCIÓN, DIRECCIÓN Y CONCURRENCIA Y, EN SU CASO, PROMOCIÓN, DESARROLLO Y EXPLOTACIÓN, BIEN EN PROPIEDAD, CONCESIÓN, ARRIENDO Y CUALQUIER OTRO TÍTULO, DE PROYECTOS O APLICACIONES INFORMÁTICAS. LA INVESTIGACIÓN, DESARROLLO Y PRODUCCIÓN DE EQUIPOS INFORMÁTICOS Y ELECTRÓNICOS, SU REPRESENTACIÓN Y COMERCIALIZACIÓN Y CUANTAS ACTIVIDADES ANEJAS O COMPLEMENTARIAS, EN SU MÁS AMPLIO SENTIDO, HAGAN REFERENCIA DIRECTA O INDIRECTAMENTE AL CAMPO DE LA INFORMÁTICA Y LAS TELECOMUNICACIONES Y AL LOGRO Y MEJOR EFECTIVIDAD DE TODOS LOS FINES EXPRESADOS. B) Y LA PRESTACIÓN DE TODA CLASE DE SERVICIOS Y ASESORAMIENTO SOBRE PLANES Y PROYECTOS INFORMÁTICOS O AFINES. LLEVAR LA REPRESENTACIÓN DE CUALQUIER FIRMA COMERCIAL O PATENTE, LLEVAR LA REPRESENTACIÓN, MANDATO O COMISIÓN QUE LE CONFÍE CUALQUIER PERSONA, FÍSICA O JURÍDICA, ESPAÑOLA O EXTRANJERA, DE ACUERDO CON LAS DISPOSICIONES LEGALES QUE RIJAN LA MATERIA, INTERESARSE Y PARTICIPAR EN TODA CLASE DE COMPAÑÍA MERCANTILES O CIVILES Y NEGOCIOS, INCLUSO EN FORMA DE APARCERÍA INDUSTRIAL, NACIONALES O EXTRANJERAS QUE ESTÉN CONSTITUIDAS O SE CONSTITUYAN EN EL FUTURO, Y EN TAL CASO, CONCURRIR A SU CONSTITUCIÓN COMO SOCIO FUNDADOR\r\n",
      "mainEntityOfPage": "https://www.contratacion.euskadi.eus/webkpe00-kperoc/es/ac71aBusquedaRegistrosWar/empresa/06387",
      "_links": {
        "self": {
          "name": "INFORMATICA DEL ESTE, S.L.",
          "href": "https://api.euskadi.eus/procurements/companies/06387"
        }
      }
    },
    {
      "name": "ALAVESA DE TELECOMUNICACIONES Y ELECTRICIDAD, S.L.",
      "registrationNumber": "05256",
      "identificationNumber": "B01513431",
      "address": "C/ PALENCIA, Nº 10 BAJO ",
      "location": {
        "postalCode": "01002",
        "municipality": "Vitoria-Gasteiz",
        "county": "Araba/Álava",
        "municipalityId": "059",
        "countyId": "01"
      },
      "economicActivities": [
        {
          "id": "1.504.1",
          "name": "Instalaciones eléctricas en general",
          "_links": {
            "self": {
              "name": "Instalaciones eléctricas en general",
              "href": "https://api.euskadi.eus/procurements/companies/economic-activities/1.504.1"
            }
          }
        }
      ],
      "certificateStartDate": "2019-07-17",
      "certificateEndDate": "2020-01-17",
      "object": "1.- CONSTRUCCIÓN, INSTALACIONES Y MANTENIMIENTO; 2.- COMERCIO AL POR MAYOR Y AL POR MENOR. DISTRIBUCIÓN COMERCIAL. IMPORTACIÓN Y EXPORTACIÓN; 3.- ACTIVIDADES INMOBILIARIAS; 4.- INTERMEDIACIÓN EN ACTIVIDADES PROFESIONALES; 5.- INDUSTRIAS MANUFACTURERAS Y TEXTILES; 6.- TURISMO, HOSTELERÍA Y RESTAURACIÓN; 7.- PRESTACIÓN DE SERVICIOS. ACTIVIDADES DE GESTIÓN Y ADMINISTRACIÓN. SERVICIOS EDUCATIVOS, SANITARIOS, DE OCIO Y ENTRETENIMIENTO; 8.- TRANSPORTE Y ALMACENAMIENTO; 9.- INFORMACIÓN Y COMUNICACIONES; 10.- AGRICULTURA, GANADERÍA Y PESCA; 11.- INFORMÁTICA, TELECOMUNICACIONES Y OFIMÁTICA; 12.- ENERGÍAS ALTERNATIVAS; 13.- COMPRAVENTA Y REPARACIÓN DE VEHÍCULOS. REPARACIÓN Y MANTENIMIENTO DE INSTALACIONES Y MAQUINARIA; 14.- INVESTIGACIÓN, DESARROLLO E INNOVACIÓN; 15.- ACTIVIDADES CIENTÍFICAS Y TÉCNICAS",
      "mainEntityOfPage": "https://www.contratacion.euskadi.eus/webkpe00-kperoc/es/ac71aBusquedaRegistrosWar/empresa/05256",
      "_links": {
        "self": {
          "name": "ALAVESA DE TELECOMUNICACIONES Y ELECTRICIDAD, S.L.",
          "href": "https://api.euskadi.eus/procurements/companies/05256"
        }
      }
    },
    {
      "name": "JOSE LUIS LARRINAGA GOMEZ",
      "registrationNumber": "05951",
      "identificationNumber": "14251479N",
      "address": "ALAMEDA DE URQUIJO 94 7º IZQ",
      "location": {
        "postalCode": "48013",
        "municipality": "Bilbao",
        "county": "Bizkaia",
        "municipalityId": "020",
        "countyId": "48"
      },
      "economicActivities": [
        {
          "id": "1.973.1",
          "name": "Servicios fotográficos",
          "_links": {
            "self": {
              "name": "Servicios fotográficos",
              "href": "https://api.euskadi.eus/procurements/companies/economic-activities/1.973.1"
            }
          }
        }
      ],
      "certificateStartDate": "2019-07-16",
      "certificateEndDate": "2020-01-15",
      "object": "PRODUCTORA DE VIDEO EN BILBAO. GRABACIONES DE VIDEO DE TODO TIPO DE EVENTOS DE LA ESCENA SOCIAL, ECONOMICA, O ACADEMICA DEL PAIS VASCO",
      "mainEntityOfPage": "https://www.contratacion.euskadi.eus/webkpe00-kperoc/es/ac71aBusquedaRegistrosWar/empresa/05951",
      "_links": {
        "self": {
          "name": "JOSE LUIS LARRINAGA GOMEZ",
          "href": "https://api.euskadi.eus/procurements/companies/05951"
        }
      }
    },
    {
      "name": "SERVICIOS INTEGRALES CONTROLADOS, S.L.",
      "registrationNumber": "06381",
      "identificationNumber": "B82092677",
      "address": "c/ Cerezos 10",
      "location": {
        "postalCode": "28703",
        "municipality": "San Sebastián de los Reyes",
        "county": "Madrid",
        "municipalityId": "134",
        "countyId": "28"
      },
      "economicActivities": [
        {
          "id": "1.849.6",
          "name": "Servicios de colocación y suministro de personal",
          "_links": {
            "self": {
              "name": "Servicios de colocación y suministro de personal",
              "href": "https://api.euskadi.eus/procurements/companies/economic-activities/1.849.6"
            }
          }
        }
      ],
      "certificateStartDate": "2019-07-16",
      "certificateEndDate": "2019-10-08",
      "object": "LOS SERVICIOS DE CONSERJERÍA, CONTROL DE ACCESOS, JARDINERÍA, LIMPIEZA Y MANTENIMIENTO DE INMUEBLES, EMPRESAS Y COMUNIDADES Y LA COMPRA, VENTA Y EXPLOTACIÓN DE TODA CLASE DE INMUEBLES",
      "mainEntityOfPage": "https://www.contratacion.euskadi.eus/webkpe00-kperoc/es/ac71aBusquedaRegistrosWar/empresa/06381",
      "_links": {
        "self": {
          "name": "SERVICIOS INTEGRALES CONTROLADOS, S.L.",
          "href": "https://api.euskadi.eus/procurements/companies/06381"
        }
      }
    },
    {
      "name": "VIAJES AMAIA SOCIEDAD ANONIMA",
      "registrationNumber": "01284",
      "identificationNumber": "A48246060",
      "address": "CAPITÁN ZUBIAUR, 14 BAJO",
      "location": {
        "postalCode": "48370",
        "municipality": "Bermeo",
        "county": "Bizkaia",
        "municipalityId": "017",
        "countyId": "48"
      },
      "economicActivities": [
        {
          "id": "1.755",
          "name": "Agencias de viajes",
          "_links": {
            "self": {
              "name": "Agencias de viajes",
              "href": "https://api.euskadi.eus/procurements/companies/economic-activities/1.755"
            }
          }
        }
      ],
      "certificateStartDate": "2019-07-12",
      "certificateEndDate": "2020-01-04",
      "classification": [
        {
          "id": "S",
          "name": "Servicios",
          "groups": [
            {
              "id": "U",
              "subgroups": [
                {
                  "id": "04",
                  "name": "Agencias de viajes",
                  "categories": [
                    {
                      "id": "3",
                      "name": "Desde 300.001 Hasta 600.000",
                      "_links": {
                        "self": {
                          "name": "Desde 300.001 Hasta 600.000",
                          "href": "https://api.euskadi.eus/procurements/companies/types/S/categories/3"
                        }
                      }
                    }
                  ],
                  "_links": {
                    "self": {
                      "name": "Agencias de viajes",
                      "href": "https://api.euskadi.eus/procurements/companies/types/S/groups/U/subgroups/04"
                    }
                  }
                }
              ],
              "_links": {
                "self": {
                  "href": "https://api.euskadi.eus/procurements/companies/types/S/groups/U"
                }
              }
            }
          ],
          "_links": {
            "self": {
              "name": "Servicios",
              "href": "https://api.euskadi.eus/procurements/companies/types/S"
            }
          }
        }
      ],
      "object": "LA MEDIACIÓN EN LA VENTA DE BILLETES Y RESERVA DE PLAZAS EN TODA CLASE DE MEDIOS DE TRANSPORTE, LA RESERVA DE HABITACIONES Y SERVICIOS  EN LAS EMPRESAS TURÍSTICAS, ESTABLECIMIENTOS HOTELEROS Y DEMÁS ALOJAMIENTOS TURÍSTICOS. LA ORGANIZACIÓN, VENTA Y REALIZACIÓN DE SERVICIOS COMBINADOS Y VIAJES &quot;A FORFAIT&quot; O BAJO EL SISTEMA DE &quot;PAQUETES TURÍSTICOS&quot;, INCLUYENDO LA RECEPCIÓN, ASISTENCIA Y TRASLADO DE LOS CLIENTES. LA ACTUACIÓN POR DELEGACIÓN Y CORRESPONSALÍA Y COMO REPRESENTANTE, EN GENERAL, DE OTRAS AGENCIAS DE VIAJES NACIONALES O EXTRANJERAS PARA LA PRESTACIÓN EN SU NOMBRE Y A LA CLIENTELA DE ÉSTAS, DE CUALQUIERA DE LOS SERVICIOS ENUMERADOS ANTERIORMENTE, CON LAS LIMITACIONES LEGALMENTE ESTABLECIDAS. FACILITAR INFORMACIÓN, NOTICIAS Y PROPAGANDA A LOS FINES ANTES SEÑALADOS. CUALQUIER  OTRA ACTIVIDAD QUE SEA PRESUPUESTO O CONSECUENCIA O ESTÉ DIRECTAMENTE RELACIONADA CON LAS ANTERIORES, Y CUYA REALIZACIÓN SEA LEGALMENTE PERMITIDA  ",
      "mainEntityOfPage": "https://www.contratacion.euskadi.eus/webkpe00-kperoc/es/ac71aBusquedaRegistrosWar/empresa/01284",
      "_links": {
        "self": {
          "name": "VIAJES AMAIA SOCIEDAD ANONIMA",
          "href": "https://api.euskadi.eus/procurements/companies/01284"
        }
      }
    },
    {
      "name": "GALDER DE LA FUENTE MAGAÑA",
      "registrationNumber": "06369",
      "identificationNumber": "14259959M",
      "address": "ALAMEDA SAN MAMES 37,5. DPTO 1",
      "location": {
        "postalCode": "48010",
        "municipality": "Bilbao",
        "county": "Bizkaia",
        "municipalityId": "020",
        "countyId": "48"
      },
      "economicActivities": [
        {
          "id": "2.411",
          "name": "Arquitectos",
          "_links": {
            "self": {
              "name": "Arquitectos",
              "href": "https://api.euskadi.eus/procurements/companies/economic-activities/2.411"
            }
          }
        }
      ],
      "certificateStartDate": "2019-07-12",
      "certificateEndDate": "2020-01-05",
      "object": "ARQUITECTO",
      "mainEntityOfPage": "https://www.contratacion.euskadi.eus/webkpe00-kperoc/es/ac71aBusquedaRegistrosWar/empresa/06369",
      "_links": {
        "self": {
          "name": "GALDER DE LA FUENTE MAGAÑA",
          "href": "https://api.euskadi.eus/procurements/companies/06369"
        }
      }
    },
    {
      "name": "JOSÉ MIGUEL ALMANDOZ SÁNCHEZ-GUARDAMINO",
      "registrationNumber": "06370",
      "identificationNumber": "15977146N",
      "address": "Resurreción Maria de Azkue 1, 2E",
      "location": {
        "postalCode": "20018",
        "municipality": "Donostia / San Sebastián",
        "county": "Gipuzkoa",
        "municipalityId": "069",
        "countyId": "20"
      },
      "economicActivities": [
        {
          "id": "1.912",
          "name": "Servicios forestales",
          "_links": {
            "self": {
              "name": "Servicios forestales",
              "href": "https://api.euskadi.eus/procurements/companies/economic-activities/1.912"
            }
          }
        }
      ],
      "certificateStartDate": "2019-07-12",
      "certificateEndDate": "2020-01-08",
      "object": "LOS SERVICIOS FORESTALES",
      "mainEntityOfPage": "https://www.contratacion.euskadi.eus/webkpe00-kperoc/es/ac71aBusquedaRegistrosWar/empresa/06370",
      "_links": {
        "self": {
          "name": "JOSÉ MIGUEL ALMANDOZ SÁNCHEZ-GUARDAMINO",
          "href": "https://api.euskadi.eus/procurements/companies/06370"
        }
      }
    },
    {
      "name": "ITSAK, S.L.",
      "registrationNumber": "04351",
      "identificationNumber": "B95500112",
      "address": "C/HENAO 4 1º B",
      "location": {
        "postalCode": "48009",
        "municipality": "Bilbao",
        "county": "Bizkaia",
        "municipalityId": "020",
        "countyId": "48"
      },
      "economicActivities": [
        {
          "id": "1.847",
          "name": "Servicios de consultoría",
          "_links": {
            "self": {
              "name": "Servicios de consultoría",
              "href": "https://api.euskadi.eus/procurements/companies/economic-activities/1.847"
            }
          }
        },
        {
          "id": "1.934",
          "name": "Enseñanza fuera de establecimiento permanente",
          "_links": {
            "self": {
              "name": "Enseñanza fuera de establecimiento permanente",
              "href": "https://api.euskadi.eus/procurements/companies/economic-activities/1.934"
            }
          }
        }
      ],
      "certificateStartDate": "2019-07-11",
      "certificateEndDate": "2020-01-03",
      "object": "EL SERVICIO DE AUDITORÍA, CONSULTORÍA, ASESORAMIENTO E INGENIERÍA EN TODOS LOS ÁMBITOS RELACIONADOS CON LA EMPRESA Y LA ADMINISTRACIÓN PÚBLICA. LA REALIZACIÓN DE AUDITORÍAS DE SEGURIDAD VIAL, DE SALUD Y SEGURIDAD EN EL TRABAJO Y CUALQUIER OTRA AUDITORÍA CUMPLIENDO CON LA TITULACIÓN EXIGIDA PARA SU EJERCICIO",
      "mainEntityOfPage": "https://www.contratacion.euskadi.eus/webkpe00-kperoc/es/ac71aBusquedaRegistrosWar/empresa/04351",
      "_links": {
        "self": {
          "name": "ITSAK, S.L.",
          "href": "https://api.euskadi.eus/procurements/companies/04351"
        }
      }
    }
  ]
}