{
  "totalItems": 9042,
  "totalPages": 905,
  "currentPage": 784,
  "itemsOfPage": 10,
  "items": [
    {
      "name": "ASCENSORES CENIA, S.L. Unipersonal",
      "registrationNumber": "01474",
      "identificationNumber": "A20030516",
      "address": "C/ AVENIDA MADRE CÁNDIDA, Nº 11.",
      "location": {
        "postalCode": "20140",
        "municipality": "Andoain",
        "county": "Gipuzkoa",
        "municipalityId": "009",
        "countyId": "20"
      },
      "economicActivities": [
        {
          "id": "1.325.4",
          "name": "Construcción de maquinaria de elevación y manipulación",
          "_links": {
            "self": {
              "name": "Construcción de maquinaria de elevación y manipulación",
              "href": "https://api.euskadi.eus/procurements/companies/economic-activities/1.325.4"
            }
          }
        },
        {
          "id": "1.504.6",
          "name": "Montaje e instalación de aparatos elevadores de cualquier clase",
          "_links": {
            "self": {
              "name": "Montaje e instalación de aparatos elevadores de cualquier clase",
              "href": "https://api.euskadi.eus/procurements/companies/economic-activities/1.504.6"
            }
          }
        },
        {
          "id": "1.692",
          "name": "Reparación de maquinaria industrial",
          "_links": {
            "self": {
              "name": "Reparación de maquinaria industrial",
              "href": "https://api.euskadi.eus/procurements/companies/economic-activities/1.692"
            }
          }
        },
        {
          "id": "1.699",
          "name": "Otras reparaciones n.c.o.p",
          "_links": {
            "self": {
              "name": "Otras reparaciones n.c.o.p",
              "href": "https://api.euskadi.eus/procurements/companies/economic-activities/1.699"
            }
          }
        }
      ],
      "certificateStartDate": "2005-11-09",
      "certificateEndDate": "2006-04-10",
      "object": "EL INDUSTRIAL Y COMERCIAL QUE SE RELACIONE CON TODO LO CONCERNIENTE A LOS APARATOS ELEVADORES, DE CUALQUIER TIPO Y APLICACIÓN, SIN DETERMINACIÓN DE SISTEMAS NI FUERZAS CAUSANTES, CON EXTENSIÓN TAMBIÉN A TODO LO QUE CONSTITUYA TRASLACIÓN CONTINUA DE PERSONAS U OBJETOS, EN CUALQUIER SENTIDO, ASCENDENTE, DESCENDENTE U HORIZONTAL",
      "mainEntityOfPage": "https://www.contratacion.euskadi.eus/webkpe00-kperoc/es/ac71aBusquedaRegistrosWar/empresa/01474",
      "_links": {
        "self": {
          "name": "ASCENSORES CENIA, S.L. Unipersonal",
          "href": "https://api.euskadi.eus/procurements/companies/01474"
        }
      }
    },
    {
      "name": "LUMINOSOS REGUI, S.A.",
      "registrationNumber": "01636",
      "identificationNumber": "A01019256",
      "address": "CTRA. MURGIA, KM. 5",
      "location": {
        "postalCode": "01196",
        "municipality": "Vitoria-Gasteiz",
        "county": "Araba/Álava",
        "municipalityId": "059",
        "countyId": "01"
      },
      "economicActivities": [
        {
          "id": "1.346",
          "name": "Fabricación de lámparas y material de alumbrado",
          "_links": {
            "self": {
              "name": "Fabricación de lámparas y material de alumbrado",
              "href": "https://api.euskadi.eus/procurements/companies/economic-activities/1.346"
            }
          }
        },
        {
          "id": "1.504.1",
          "name": "Instalaciones eléctricas en general",
          "_links": {
            "self": {
              "name": "Instalaciones eléctricas en general",
              "href": "https://api.euskadi.eus/procurements/companies/economic-activities/1.504.1"
            }
          }
        },
        {
          "id": "1.843.1",
          "name": "Servicios técnicos de ingeniería",
          "_links": {
            "self": {
              "name": "Servicios técnicos de ingeniería",
              "href": "https://api.euskadi.eus/procurements/companies/economic-activities/1.843.1"
            }
          }
        }
      ],
      "certificateStartDate": "2005-11-09",
      "certificateEndDate": "2006-04-04",
      "object": "LA FABRICACIÓN, MONTAJE, COMERCIALIZACIÓN, VENTA E INSTALACIÓN DE TODA CLASE DE ANUNCIOS Y RÓTULOS LUMINOSOS, DE NEÓN, FLUORESCENTES, DE PLÁSTICOS MOLDEADOS, DE ACERO INOXIDABLE, LATÓN, ETC. ASÍ COMO CUALQUIER OTRA ACTIVIDAD DIRECTA O INDIRECTAMENTE RELACIONADA CON DICHOS FINES",
      "mainEntityOfPage": "https://www.contratacion.euskadi.eus/webkpe00-kperoc/es/ac71aBusquedaRegistrosWar/empresa/01636",
      "_links": {
        "self": {
          "name": "LUMINOSOS REGUI, S.A.",
          "href": "https://api.euskadi.eus/procurements/companies/01636"
        }
      }
    },
    {
      "name": "CENTRO DE NEGOCIOS SEAVI, S.L.",
      "registrationNumber": "03101",
      "identificationNumber": "B01239490",
      "address": "PORTAL DEL REY,20 - BAJO",
      "location": {
        "postalCode": "01001",
        "municipality": "Vitoria-Gasteiz",
        "county": "Araba/Álava",
        "municipalityId": "059",
        "countyId": "01"
      },
      "economicActivities": [
        {
          "id": "1.849.2",
          "name": "Servicios mecanográficos, taquigráficos, de reproducción de escritos",
          "_links": {
            "self": {
              "name": "Servicios mecanográficos, taquigráficos, de reproducción de escritos",
              "href": "https://api.euskadi.eus/procurements/companies/economic-activities/1.849.2"
            }
          }
        },
        {
          "id": "1.999",
          "name": "Otros servicios n.c.o.p",
          "_links": {
            "self": {
              "name": "Otros servicios n.c.o.p",
              "href": "https://api.euskadi.eus/procurements/companies/economic-activities/1.999"
            }
          }
        }
      ],
      "certificateStartDate": "2005-11-04",
      "certificateEndDate": "2006-03-29",
      "object": "LA PRESTACIÓN DE SERVICIOS ADMINISTRATIVOS Y DOMICILIACIÓN SOCIAL A TODA CLASE DE EMPRESAS Y PARTICULARES. LA ADQUISICIÓN, VENTA Y EXPLOTACIÓN, MEDIANTE ARRENDAMIENTO O CUALQUIER OTRA FORMA JURÍDICA, DE BIENES INMUEBLES, PROPIOS O AJENOS A LA SOCIEDAD",
      "mainEntityOfPage": "https://www.contratacion.euskadi.eus/webkpe00-kperoc/es/ac71aBusquedaRegistrosWar/empresa/03101",
      "_links": {
        "self": {
          "name": "CENTRO DE NEGOCIOS SEAVI, S.L.",
          "href": "https://api.euskadi.eus/procurements/companies/03101"
        }
      }
    },
    {
      "name": "OSIATIS, S.A.",
      "registrationNumber": "01468",
      "identificationNumber": "A28816379",
      "address": "C/ ARAGONESES, Nº 7 - A.",
      "location": {
        "postalCode": "28108",
        "municipality": "Alcobendas",
        "county": "Madrid",
        "municipalityId": "006",
        "countyId": "28"
      },
      "economicActivities": [
        {
          "id": "1.659.2",
          "name": "Venta al por menor de muebles de oficina y máquinas y equipos de oficina",
          "_links": {
            "self": {
              "name": "Venta al por menor de muebles de oficina y máquinas y equipos de oficina",
              "href": "https://api.euskadi.eus/procurements/companies/economic-activities/1.659.2"
            }
          }
        },
        {
          "id": "1.691.9",
          "name": "Reparación de otros bienes de consumo n.c.o.p",
          "_links": {
            "self": {
              "name": "Reparación de otros bienes de consumo n.c.o.p",
              "href": "https://api.euskadi.eus/procurements/companies/economic-activities/1.691.9"
            }
          }
        }
      ],
      "certificateStartDate": "2005-11-02",
      "certificateEndDate": "2006-03-14",
      "object": "EL MANTENIMIENTO, RECONSTRUCCIÓN, INSTALACIÓN Y MODIFICACIÓN DE TODA CLASE DE COMPONENTES INTEGRADOS EN EL CAMPO DE LA INGENIERÍA, ELECTRÓNICA Y LA INFORMÁTICA, ASÍ COMO LA FABRICACIÓN Y COMPRAVENTA DE LOS MISMOS",
      "mainEntityOfPage": "https://www.contratacion.euskadi.eus/webkpe00-kperoc/es/ac71aBusquedaRegistrosWar/empresa/01468",
      "_links": {
        "self": {
          "name": "OSIATIS, S.A.",
          "href": "https://api.euskadi.eus/procurements/companies/01468"
        }
      }
    },
    {
      "name": "HOSPIFER, S.L.",
      "registrationNumber": "02960",
      "identificationNumber": "B61158333",
      "address": "AV. VIRGEN DEL PILAR, Nº 33",
      "location": {
        "postalCode": "08320",
        "municipality": "Masnou, El",
        "county": "Barcelona",
        "municipalityId": "118",
        "countyId": "08"
      },
      "economicActivities": [
        {
          "id": "1.659.3",
          "name": "Venta al por menor de aparatos médicos, ortopédicos, ópticos y fotográficos",
          "_links": {
            "self": {
              "name": "Venta al por menor de aparatos médicos, ortopédicos, ópticos y fotográficos",
              "href": "https://api.euskadi.eus/procurements/companies/economic-activities/1.659.3"
            }
          }
        }
      ],
      "certificateStartDate": "2005-10-25",
      "certificateEndDate": "2006-04-14",
      "object": "LA PRESTACIÓN ONEROSA DE LOS SIGUIENTES SERVICIOS O ACTIVIDADES: COMERCIALIZACIÓN Y VENTA DE PRODUCTOS AUXILIARES  O COMPLEMENTARIOS DEL MANTENIMIENTO DE INSTALACIONES HOSPITALARIAS Y DE APARATOS E INSTRUMENTOS MÉDICOS DE CUALQUIER TIPO. QUEDA EXPRESAMENTE EXCLUÍDO DEL OBJETO SOCIAL LA MEDIACIÓN O VENTA DE BIENES, SUSTANCIAS O SERVICIOS CUYA DISTRIBUCIÓN O TRÁFICO ESTÉ LEGALMENTE RESERVADO A LAS OFICINAS DE FARMACIA LEGALMENTE ESTABLECIDAS",
      "mainEntityOfPage": "https://www.contratacion.euskadi.eus/webkpe00-kperoc/es/ac71aBusquedaRegistrosWar/empresa/02960",
      "_links": {
        "self": {
          "name": "HOSPIFER, S.L.",
          "href": "https://api.euskadi.eus/procurements/companies/02960"
        }
      }
    },
    {
      "name": "SERVICIOS UNIFICADOS AUXILIARES DE ASISTENCIA Y MANTENIMIENTO, S.L.",
      "registrationNumber": "02615",
      "identificationNumber": "B20623914",
      "address": "AVDA. BERA-BERA, 31",
      "location": {
        "postalCode": "20009",
        "municipality": "Donostia / San Sebastián",
        "county": "Gipuzkoa",
        "municipalityId": "069",
        "countyId": "20"
      },
      "economicActivities": [
        {
          "id": "1.849.6",
          "name": "Servicios de colocación y suministro de personal",
          "_links": {
            "self": {
              "name": "Servicios de colocación y suministro de personal",
              "href": "https://api.euskadi.eus/procurements/companies/economic-activities/1.849.6"
            }
          }
        },
        {
          "id": "1.952",
          "name": "Asistencia y servicios sociales en centros no residenciales",
          "_links": {
            "self": {
              "name": "Asistencia y servicios sociales en centros no residenciales",
              "href": "https://api.euskadi.eus/procurements/companies/economic-activities/1.952"
            }
          }
        }
      ],
      "certificateStartDate": "2005-10-18",
      "certificateEndDate": "2006-02-28",
      "object": "A) LA PRESTACIÓN DE SERVICIOS DE REPARTO DE MATERIALES Y CUSTODIA DE OBJETOS Y DOCUMENTACIÓN COMERCIAL Y CONTABLE, ASÍ COMO RECOGIDA DE EFECTOS Y RECIBOS; B) PRESTACIÓN DE SERVICIOS DE ASISTENCIA AUXILIAR A CONGRESOS, FERIAS, CONVENCIONES, INAUGURACIONES, EVENTOS DEPORTIVOS, SOCIALESO Y CULTURALES, EXPOSICIONES, CONFERENCIAS INTERNACIONALES, JUNTAS GENERALES DE ACCIONISTAS, RECEPCIONES Y OTROS ACTOS SIMILARES, MEDIANTE AZAFATAS, PERSONAL DE TAQUILLERÍA Y OTRO PERSONAL IDÓNEO; C) PRESTACIÓN DE SERVICIOS INFORMÁTICOS Y DE ASESORÍA Y GESTIÓN A PERSONAS FÍSICAS Y JURÍDICAS; D) ARRENDAMIENTO DE SERVICIO DE CONDUCTORES; E) INSTALACIÓN DE EQUIPOS Y MAQUINARIA YLIMPIEZA DE LOCALES E INSTALACIONES; F) PRESTACIÓN DE SERVICIOS DE MANTENIMIENTO Y CREACIÓN DE JARDINES; G) PRESTACIÓN DE SERVICIOS AUXILIARES SANITARIOS Y PARA-SANITARIOS; H) PRESTACIÓN DE SERVICIOS DE PUBLICIDAD DIRECTA, FRANQUEO Y CURSO POR CORREO, DE IMPRESOS PUBLICITARIOS POR CUENTA DE SUS CLIENTES.\r\nI) LECTURA DE CONTADORES DE TODO TIPO DE FUIDOS CONSUMIBLES Y CONTROL DE EXISTENCIAS EN CUALQUIER TIPO DE ALMACENES; J) PRESTACIÓN DE SERVICIOS DE PREVENCIÓN Y LUCHA CONTRA INCENDIOS EN GENERAL; K) CONTROL Y MANTENIMIENTO DE EDIFICIOS, DE INSTALACIONES Y DE CASAS DE CAMPO MEDIANTE PERSONAL DE CELADURÍA, PORTERÍA, CONSERJERÍA Y TELEFONISTAS; L) CONTROL Y MANTENIMIENTO DE SISTEMAS ELECTRÓNICOS, ASÍ COMO ATENCIÓN EN CENTRALES DE ALARMAS PANELES DE CONTROL, CUARTOS DE CONTROL Y AFINES.",
      "mainEntityOfPage": "https://www.contratacion.euskadi.eus/webkpe00-kperoc/es/ac71aBusquedaRegistrosWar/empresa/02615",
      "_links": {
        "self": {
          "name": "SERVICIOS UNIFICADOS AUXILIARES DE ASISTENCIA Y MANTENIMIENTO, S.L.",
          "href": "https://api.euskadi.eus/procurements/companies/02615"
        }
      }
    },
    {
      "name": "USHUAIA CONSULTING, S.L.",
      "registrationNumber": "03083",
      "identificationNumber": "B20771739",
      "address": "PLAZA. ANZARÁN, 4. ENTRLO.",
      "location": {
        "postalCode": "20301",
        "municipality": "Irun",
        "county": "Gipuzkoa",
        "municipalityId": "045",
        "countyId": "20"
      },
      "economicActivities": [
        {
          "id": "1.844",
          "name": "Servicios de publicidad, relaciones públicas y similares",
          "_links": {
            "self": {
              "name": "Servicios de publicidad, relaciones públicas y similares",
              "href": "https://api.euskadi.eus/procurements/companies/economic-activities/1.844"
            }
          }
        }
      ],
      "certificateStartDate": "2005-10-10",
      "certificateEndDate": "2006-03-14",
      "object": "LA PRESTACIÓN DE SERVICIOS Y ESTUDIOS DE PUBLICIDAD, RELACIONES PÚBLICAS, PROMOCIÓN DE VENTAS PUBLICITARIAS Y MARKETING DIRECTO, Y EN GENERAL EL ASESORAMIENTO EN MATERIA DE PROMOCIÓN PUBLICITARIA, DE IMAGEN Y VENTAS.",
      "mainEntityOfPage": "https://www.contratacion.euskadi.eus/webkpe00-kperoc/es/ac71aBusquedaRegistrosWar/empresa/03083",
      "_links": {
        "self": {
          "name": "USHUAIA CONSULTING, S.L.",
          "href": "https://api.euskadi.eus/procurements/companies/03083"
        }
      }
    },
    {
      "name": "THALES INFORMATION SYSTEMS BILBAO, S.A. (Sociedad Unipersonal)",
      "registrationNumber": "01961",
      "identificationNumber": "A48458111",
      "address": "PLAZA SAGRADO CORAZÓN DE JESÚS, 5-8",
      "location": {
        "postalCode": "48011",
        "municipality": "Bilbao",
        "county": "Bizkaia",
        "municipalityId": "020",
        "countyId": "48"
      },
      "economicActivities": [
        {
          "id": "1.659.2",
          "name": "Venta al por menor de muebles de oficina y máquinas y equipos de oficina",
          "_links": {
            "self": {
              "name": "Venta al por menor de muebles de oficina y máquinas y equipos de oficina",
              "href": "https://api.euskadi.eus/procurements/companies/economic-activities/1.659.2"
            }
          }
        },
        {
          "id": "1.845",
          "name": "Explotación electrónica por cuenta de terceros",
          "_links": {
            "self": {
              "name": "Explotación electrónica por cuenta de terceros",
              "href": "https://api.euskadi.eus/procurements/companies/economic-activities/1.845"
            }
          }
        },
        {
          "id": "1.932.2",
          "name": "Enseñanza de formación y perfeccionamiento profesional superior",
          "_links": {
            "self": {
              "name": "Enseñanza de formación y perfeccionamiento profesional superior",
              "href": "https://api.euskadi.eus/procurements/companies/economic-activities/1.932.2"
            }
          }
        }
      ],
      "certificateStartDate": "2005-10-06",
      "certificateEndDate": "2001-12-14",
      "object": "LA REALIZACIÓN DE ESTUDIOS, TRABAJOS Y APLICACIONES INFORMÁTICAS, LA APROBACIÓN DE TODA GAMA DE SERVICIOS RELACIONADOS CON EL PROCESAMIENTO DE LA INFORMACIÓN, TALES COMO ANÁLISIS FUNCIONAL, ANÁLISIS ORGÁNICO, PROGRAMACIÓN, GRABACIÓN; LA SELECCIÓN Y FORMACIÓN DE PERSONAL INFORMÁTICO; EL ASESORAMIENTO INFORMÁTICO DE EMPRESAS, ORGANISMOS E INSTITUCIONES, ASÍ COMO LA REALIZACIÓN DE CHEQUEOS, AUDITORÍAS, REVISIONES; CUALQUIER OTRA ACTIVIDAD DE CARÁCTER INFORMÁTICO, YA SEA DENTRO DEL ÁREA DEL ¿HARDWARE¿ COMO DENTRO DEL ÁREA DEL ¿SOFTWARE¿, ASÍ COMO A TODAS LAS TAREAS Y SERVICIOS RELACIONADOS CON LA ORGANIZACIÓN DE EMPRESAS",
      "mainEntityOfPage": "https://www.contratacion.euskadi.eus/webkpe00-kperoc/es/ac71aBusquedaRegistrosWar/empresa/01961",
      "_links": {
        "self": {
          "name": "THALES INFORMATION SYSTEMS BILBAO, S.A. (Sociedad Unipersonal)",
          "href": "https://api.euskadi.eus/procurements/companies/01961"
        }
      }
    },
    {
      "name": "TASFOR PROYECTA, S.L.",
      "registrationNumber": "03078",
      "identificationNumber": "B48864227",
      "address": "PORTUETXE, 83-2º. OF. 15",
      "location": {
        "postalCode": "20018",
        "municipality": "Donostia / San Sebastián",
        "county": "Gipuzkoa",
        "municipalityId": "069",
        "countyId": "20"
      },
      "economicActivities": [
        {
          "id": "1.849.9",
          "name": "Otros servicios independientes n.c.o.p",
          "_links": {
            "self": {
              "name": "Otros servicios independientes n.c.o.p",
              "href": "https://api.euskadi.eus/procurements/companies/economic-activities/1.849.9"
            }
          }
        }
      ],
      "certificateStartDate": "2005-10-03",
      "certificateEndDate": "2006-03-19",
      "object": "LA PRESTACIÓN DE SERVICIOS DE ASESORAMIENTO, CONSULTORÍA, ORGANIZACIÓN Y DESARROLLO DE EMPRESAS",
      "mainEntityOfPage": "https://www.contratacion.euskadi.eus/webkpe00-kperoc/es/ac71aBusquedaRegistrosWar/empresa/03078",
      "_links": {
        "self": {
          "name": "TASFOR PROYECTA, S.L.",
          "href": "https://api.euskadi.eus/procurements/companies/03078"
        }
      }
    },
    {
      "name": "DOMINION TECNOLOGÍAS DE LA INFORMACIÓN, S.A.",
      "registrationNumber": "02115",
      "identificationNumber": "A95002234",
      "address": "C/ ELCANO, 9 -6ª PLANTA 6-7",
      "location": {
        "postalCode": "48008",
        "municipality": "Bilbao",
        "county": "Bizkaia",
        "municipalityId": "020",
        "countyId": "48"
      },
      "economicActivities": [
        {
          "id": "1.845",
          "name": "Explotación electrónica por cuenta de terceros",
          "_links": {
            "self": {
              "name": "Explotación electrónica por cuenta de terceros",
              "href": "https://api.euskadi.eus/procurements/companies/economic-activities/1.845"
            }
          }
        },
        {
          "id": "1.932.1",
          "name": "Enseñanza de formación y perfeccionamiento profesional no superior",
          "_links": {
            "self": {
              "name": "Enseñanza de formación y perfeccionamiento profesional no superior",
              "href": "https://api.euskadi.eus/procurements/companies/economic-activities/1.932.1"
            }
          }
        }
      ],
      "certificateStartDate": "2005-09-14",
      "certificateEndDate": "2006-02-01",
      "object": "\r\na) EL DESARROLLO, REALIZACIÓN Y COMERCIALIZACIÓN DE SISTEMAS INFORMÁTICOS; LA ACTIVIDAD INFORMÁTICA EN GENERAL Y LA PRESTACIÓN DE TODA CLASE DE SERVICIOS CON ELLA RELACIONADOS, INCLUIDOS LA ENSEÑANZA DE MATERIAS RELATIVAS A LA INFORMÁTICA, LA FORMACIÓN DE PERSONAL ESPECIALISTA, LA LLEVANZA DE CONTABILIDADES, LA REALIZACIÓN DE ANÁLISIS, CONSULTORÍA, PROYECTOS Y ESTUDIOS DE TODO GÉNERO, ASÍ COMO LA CONFECCIÓN, APLICACIÓN Y COMERCIALIZACIÓN DE PROGRAMAS.\r\n\r\nb) LA COMPRA, VENTA, IMPORTACIÓN, EXPORTACIÓN Y COMERCIALIZACIÓN EN GENERAL DE MICROORDENADORES, ORDENADORES, MÁQUINAS Y ELEMENTOS QUE CON ELLO SE RELACIONEN, ASÍ COMO SU REPARACIÓN Y MANTENIMIENTO; LA PRESTACIÓN DE ASISTENCIA Y DE AQUELLOS SERVICIOS PRECISOS O CONVENIENTES PARA UNA ADECUADA UTILIZACIÓN O RENDIMIENTO DE TODOS LOS EQUIPOS INFORMÁTICOS.\r\n\r\nc) Y, LA REPRESENTACIÓN COMO AGENTE, DISTRIBUIDOR, COMISIONISTA, DELEGADO O CUALQUIER OTRA FORMA DE MEDIACIÓN MERCANTIL, DE TODA CLASE DE EMPRESAS NACIONALES O EXTRANJERAS, RELACIONADAS CON LA INFORMÁTICA, ASÍ COMO LA EXPLOTACIÓN DE PATENTES, MÉTODOS, PROCEDIMIENTOS O ESTUDIOS Y DERECHOS INCLUIDOS EN EL ÁMBITO DE LA PROPIEDAD INDUSTRIAL RELACIONADOS CON EL FIN PRINCIPAL DE LA INFORMÁTICA",
      "mainEntityOfPage": "https://www.contratacion.euskadi.eus/webkpe00-kperoc/es/ac71aBusquedaRegistrosWar/empresa/02115",
      "_links": {
        "self": {
          "name": "DOMINION TECNOLOGÍAS DE LA INFORMACIÓN, S.A.",
          "href": "https://api.euskadi.eus/procurements/companies/02115"
        }
      }
    }
  ]
}