{
  "totalItems": 9042,
  "totalPages": 905,
  "currentPage": 448,
  "itemsOfPage": 10,
  "items": [
    {
      "name": "MIGUEL ASCASIBAR ERRASTI",
      "registrationNumber": "08928",
      "identificationNumber": "15375422Z",
      "address": "EGIGURENTARREN, 12 - 1 ",
      "location": {
        "postalCode": "20600",
        "municipality": "Eibar",
        "county": "Gipuzkoa",
        "municipalityId": "030",
        "countyId": "20"
      },
      "economicActivities": [
        {
          "id": "2.899",
          "name": "Otros profesionales",
          "_links": {
            "self": {
              "name": "Otros profesionales",
              "href": "https://api.euskadi.eus/procurements/companies/economic-activities/2.899"
            }
          }
        }
      ],
      "certificateStartDate": "2023-09-12",
      "certificateEndDate": "2024-03-12",
      "object": "OTROS PROFESIONALES.",
      "mainEntityOfPage": "https://www.contratacion.euskadi.eus/webkpe00-kperoc/es/ac71aBusquedaRegistrosWar/empresa/08928",
      "_links": {
        "self": {
          "name": "MIGUEL ASCASIBAR ERRASTI",
          "href": "https://api.euskadi.eus/procurements/companies/08928"
        }
      }
    },
    {
      "name": "ALTIA CONSULTORES, S.A.",
      "registrationNumber": "04515",
      "identificationNumber": "A15456585",
      "address": "C/ VULCANO, Nº 3. ICARIA III",
      "location": {
        "postalCode": "15172",
        "municipality": "Oleiros",
        "county": "Coruña, A",
        "municipalityId": "058",
        "countyId": "15"
      },
      "economicActivities": [
        {
          "id": "1.845",
          "name": "Explotación electrónica por cuenta de terceros",
          "_links": {
            "self": {
              "name": "Explotación electrónica por cuenta de terceros",
              "href": "https://api.euskadi.eus/procurements/companies/economic-activities/1.845"
            }
          }
        }
      ],
      "certificateStartDate": "2023-09-11",
      "certificateEndDate": "2024-03-11",
      "object": "1. SERVICIOS DE ASESORAMIENTO Y CONSULTORÍA EN MATERIA DE PLANIFICACIÓN TECNOLÓGICA, CALIDAD, ORGANIZACIÓN Y SISTEMAS DE INFORMACIÓN, MEJORA, RACIONALIZACIÓN Y CAMBIO DE LA GESTIÓN DE CONTINGENCIAS Y MANTENIMIENTO DEL NEGOCIO. 2. ANÁLISIS, DISEÑO, CONSTRUCCIÓN, PRUEBAS, INTEGRACIÓN, IMPLANTACIÓN Y MANTENIMIENTO DE SISTEMAS DE INFORMACIÓN EN SU MÁS AMPLIO SENTIDO. 3. SERVICIOS DE PUESTA EN FUNCIONAMIENTO, SEGUIMIENTO, EXPLOTACIÓN, GESTIÓN Y CONTROL DE EQUIPOS Y SISTEMAS INFORMÁTICOS Y DE INFRAESTRUCTURAS TELEMÁTICAS. 4. CAPTURA, GRABACIÓN Y GESTIÓN DE DATOS POR MEDIOS ELECTRÓICOS, INFORMÁTICOS Y TELEMÁTICOS. 5. ACTIVIDADES DE FORMACIÓN PRESENCIAL, A DISTANCIA U ON-LINE EN MATERIA DE PLANIFICACIIÓN Y ORGANIZACIÓN TECNOLÓGICA, SEGURIDAD INFORMÁTICA, METODOLOGÍAS, ANÁLISIS, DISEÑO Y PROGRAMACIÓN Y PRODUCTOS Y SOLUCIONES PROPIAS O DE TERCEROS, INCLUYENDO LA PREPARACIÓN Y DISTRIBUCIÓN DEL MATERIAL DIDÁCTICO RELACIONADO CON DICHAS ACTIVIDADES DE FORMACIÓN. 6. GESTIÓN EXTERNA DE TODOS O PARTE DE LOS PROCESOS INFORMÁTICOS DE TODO TIPO DE EMPRESAS E INSTITUCIONES PÚBLICAS Y PRIVADAS. 7. SUMINISTRO, IMPLANTACIÓN, INTEGRACIÓN Y MANTENIMIENTO DE SOLUCIONES INFORMÁTICAS PROPIAS Y DE TERCEROS, INCLUYENDO LA VENTA, CESIÓN, LICENCIA Y ARRENDAMIENTO DE DERECHOS DE PROPIEDAD INTELECTUAL E INDUSTRIAL SOBRE ELSOFTWARE DE BASE O DE APLICACIÓN. 8. SUMINISTRO, MANTENIMIENTO Y REPARACIÓN DE INFRAESTRUCTURAS E INSTALACIONES TECNOLÓGICAS TALES COMO EQUIPOS DE CAPTURA, PROCESAMIENTO, ALMACENAMIENTO, TRANSMISIÓN, RECEPCIÓN Y REPRODUCCIÓN DE LA INFORMACIÓN. 9. ACTIVIDADES RELACIONADAS CON INTERNET, CONECTIVIDAD, CORREO ELECTRÓNICO, REGISTRO DE DOMINIOS, COMERCIO ELECTRÓNICO Y CUSTODIA DE INFORMACIÓN. SERVICIOS DE ALOJAMIENTO WEB (COLOCATION, HOUSING, HOSTING DEDICADO, HOSTING VIRTUAL), SERVICIOS GESTIONADOS DE EXPLOTACIÓN, ADMINISTRACIÓN Y MANTENIMIENTO DE SISTEMAS DE INFORMACIÓN (INFRAESTRUCTURA HARDWARE, SISTEMAS OPERATIVOS, BASES DE DATOS Y APLICACIONES INFORMÁTICAS), COMUNICACIONES DE DATOS Y SOPORTE A USUARIOS EN RELACIÓN A ESTOS SERVICIOS",
      "mainEntityOfPage": "https://www.contratacion.euskadi.eus/webkpe00-kperoc/es/ac71aBusquedaRegistrosWar/empresa/04515",
      "_links": {
        "self": {
          "name": "ALTIA CONSULTORES, S.A.",
          "href": "https://api.euskadi.eus/procurements/companies/04515"
        }
      }
    },
    {
      "name": "GURA NEURO & MARKETING, S.L.",
      "registrationNumber": "06798",
      "identificationNumber": "B20988754",
      "address": "Paseo Salamana, 11, 6º",
      "location": {
        "postalCode": "20003",
        "municipality": "Donostia / San Sebastián",
        "county": "Gipuzkoa",
        "municipalityId": "069",
        "countyId": "20"
      },
      "economicActivities": [
        {
          "id": "1.847",
          "name": "Servicios de consultoría",
          "_links": {
            "self": {
              "name": "Servicios de consultoría",
              "href": "https://api.euskadi.eus/procurements/companies/economic-activities/1.847"
            }
          }
        },
        {
          "id": "1.932.1",
          "name": "Enseñanza de formación y perfeccionamiento profesional no superior",
          "_links": {
            "self": {
              "name": "Enseñanza de formación y perfeccionamiento profesional no superior",
              "href": "https://api.euskadi.eus/procurements/companies/economic-activities/1.932.1"
            }
          }
        }
      ],
      "certificateStartDate": "2023-09-11",
      "certificateEndDate": "2024-03-11",
      "object": "LA INVESTIGACIÓN DE MERCADO Y CONSULTORÍA A EMPRESAS E INSTITUCIONES PÚBLICAS Y PRIVADAS EN RELACIÓN CON EL MARKETING, LA COMERCIALIZACIÓN, ESTUDIOS SOCIALES Y CULTURALES",
      "mainEntityOfPage": "https://www.contratacion.euskadi.eus/webkpe00-kperoc/es/ac71aBusquedaRegistrosWar/empresa/06798",
      "_links": {
        "self": {
          "name": "GURA NEURO & MARKETING, S.L.",
          "href": "https://api.euskadi.eus/procurements/companies/06798"
        }
      }
    },
    {
      "name": "AIDA SOUND, S.L.",
      "registrationNumber": "06649",
      "identificationNumber": "B48927578",
      "address": "CL IGELTZERA, 6 - J 8",
      "location": {
        "postalCode": "48610",
        "municipality": "Urduliz",
        "county": "Bizkaia",
        "municipalityId": "089",
        "countyId": "48"
      },
      "economicActivities": [
        {
          "id": "1.615.4",
          "name": "Venta al por mayor de aparatos y material radioeléctrico y electrónico",
          "_links": {
            "self": {
              "name": "Venta al por mayor de aparatos y material radioeléctrico y electrónico",
              "href": "https://api.euskadi.eus/procurements/companies/economic-activities/1.615.4"
            }
          }
        }
      ],
      "certificateStartDate": "2023-09-09",
      "certificateEndDate": "2024-03-09",
      "object": "LA VENTA Y DISTRIBUCIÓN POR CUALQUIER MEDIO DE COMERCIALIZACIÓN, EN ESPAÑA Y EN EL EXTRANJERO, DE TODA CLASE DE PRODUCTOS VIDEOGRÁFICOS, FONOGRÁFICOS, LIBROS, REVISTAS, PERIÓDICOS Y TEXTILES",
      "mainEntityOfPage": "https://www.contratacion.euskadi.eus/webkpe00-kperoc/es/ac71aBusquedaRegistrosWar/empresa/06649",
      "_links": {
        "self": {
          "name": "AIDA SOUND, S.L.",
          "href": "https://api.euskadi.eus/procurements/companies/06649"
        }
      }
    },
    {
      "name": "GUSTAVO MARCOS CANCELAS",
      "registrationNumber": "08316",
      "identificationNumber": "35303026G",
      "address": "Rúa de Lisboa, 20B-5D",
      "location": {
        "postalCode": "15707",
        "municipality": "Santiago de Compostela",
        "county": "Coruña, A",
        "municipalityId": "078",
        "countyId": "15"
      },
      "economicActivities": [
        {
          "id": "2.826",
          "name": "Personal docente de enseñanzas diversas",
          "_links": {
            "self": {
              "name": "Personal docente de enseñanzas diversas",
              "href": "https://api.euskadi.eus/procurements/companies/economic-activities/2.826"
            }
          }
        },
        {
          "id": "2.899",
          "name": "Otros profesionales",
          "_links": {
            "self": {
              "name": "Otros profesionales",
              "href": "https://api.euskadi.eus/procurements/companies/economic-activities/2.899"
            }
          }
        }
      ],
      "certificateStartDate": "2023-09-08",
      "certificateEndDate": "2024-03-08",
      "object": "PERSONAL DOCENTE DE ENSEÑANZAS DIVERSAS. OTROS PROFESIONALES.",
      "mainEntityOfPage": "https://www.contratacion.euskadi.eus/webkpe00-kperoc/es/ac71aBusquedaRegistrosWar/empresa/08316",
      "_links": {
        "self": {
          "name": "GUSTAVO MARCOS CANCELAS",
          "href": "https://api.euskadi.eus/procurements/companies/08316"
        }
      }
    },
    {
      "name": "MEDIAPOST SPAIN, S.L.",
      "registrationNumber": "08301",
      "identificationNumber": "B85543304",
      "address": "Polígona Aparkabisa, nave 3, módulo H",
      "location": {
        "postalCode": "48510",
        "municipality": "Valle de Trápaga-Trapagaran",
        "county": "Bizkaia",
        "municipalityId": "080",
        "countyId": "48"
      },
      "economicActivities": [
        {
          "id": "1.849.5",
          "name": "Servicios de recadería y reparto y manipulación de correspondencia",
          "_links": {
            "self": {
              "name": "Servicios de recadería y reparto y manipulación de correspondencia",
              "href": "https://api.euskadi.eus/procurements/companies/economic-activities/1.849.5"
            }
          }
        }
      ],
      "certificateStartDate": "2023-09-06",
      "certificateEndDate": "2024-03-06",
      "object": "- LA REALIZACIÓN DE TRABAJOS DE CONSULTORÍA DE MARKETING, VENTAS Y LOGÍSTICA EN TODO TIPO DE SECTORES Y EMPRESAS. - LA PRESTACIÓN DE SERVICIOS DE PUBLICIDAD, DISTRIBUCIÓN DE FOLLETOS PUBLICITARIOS, SERVICIOS DE MENSAJERÍA EN GENERAL, ASÍ COMO SERVICIOS DE RELACIONES PÚBLICAS. - LA CREACIÓN, DESARROLLO Y EJECUCIÓN DE TODO TIPO DE CAMPAÑAS DE PROMOCIONES Y/O MARKETING DIRECTO Y MARKETING TELEFÓNICO A CUALQUIER TIPO DE EMPRESAS. - EL ALMACENAJE, MANIPULACIÓN Y POSTERIOR DISTRIBUCIÓN DE CUALQUIER TIPO DE PROMOCIÓN COMERCIAL, ASÍ COMO DE CUALQUIER OTRO PRODUCTO. - LA CREACIÓN, MANTENIMIENTO Y MODIFICACIÓN DE BASES DE DATOS DE SUS CLIENTES SEGÚN LAS CONDICIONES ESTABLECIDAS EN LA LEY. - ELABORACIÓN Y EJECUCIÓN DE ESTUDIOS DE INVESTIGACIÓN COMERCIAL. - LA INTERMEDIACIÓN DE TODO TIPO DE TRANSPORTE, TANTO A NIVEL NACIONAL COMO INTERNACIONAL. - EL FRANQUEO DE TODOS LOS PRODUCTOS POSTALES, NACIONALES E INTERNACIONALES POR CUENTA DE SUS CLIENTES SEGÚN LAS CONDICIONES DE LA LEY POSTAL. - LA COMPRA, VENTA Y DISTRIBUCIÓN DE CUALQUIER OBJETO MATERIAL, NACIONAL O DE IMPORTACIÓN QUE PUEDA SER SUSCEPTIBLE DE SER OFRECIDO COMO REGALO DE EMPRESA, TANTO AL POR MAYOR COMO AL POR MENOR. - DESARROLLO DE ACTIVIDADES DE VENTA A DISTANCIA Y CORREO ELECTRÓNICO. - DESEMPEÑO Y EJECUCIÓN DE TODA CLASE DE ACTIVIDADES PARA LOS DEPARTAMENTOS DE MARKETING DE LAS EMPRESAS, ASÍ COMO LOS SERVICIOS DEMANDADOS POR LAS MISMAS.",
      "mainEntityOfPage": "https://www.contratacion.euskadi.eus/webkpe00-kperoc/es/ac71aBusquedaRegistrosWar/empresa/08301",
      "_links": {
        "self": {
          "name": "MEDIAPOST SPAIN, S.L.",
          "href": "https://api.euskadi.eus/procurements/companies/08301"
        }
      }
    },
    {
      "name": "MAPERGLAS, S.L.",
      "registrationNumber": "08037",
      "identificationNumber": "B60238094",
      "address": "C/Fisica,3 - Pol. Ind. La Ferreria",
      "location": {
        "postalCode": "08110",
        "municipality": "Montcada i Reixac",
        "county": "Barcelona",
        "municipalityId": "125",
        "countyId": "08"
      },
      "economicActivities": [
        {
          "id": "1.314.2",
          "name": "Fabricación de estructuras metálicas",
          "_links": {
            "self": {
              "name": "Fabricación de estructuras metálicas",
              "href": "https://api.euskadi.eus/procurements/companies/economic-activities/1.314.2"
            }
          }
        },
        {
          "id": "1.504.1",
          "name": "Instalaciones eléctricas en general",
          "_links": {
            "self": {
              "name": "Instalaciones eléctricas en general",
              "href": "https://api.euskadi.eus/procurements/companies/economic-activities/1.504.1"
            }
          }
        },
        {
          "id": "1.505.5",
          "name": "Carpintería y cerrajería",
          "_links": {
            "self": {
              "name": "Carpintería y cerrajería",
              "href": "https://api.euskadi.eus/procurements/companies/economic-activities/1.505.5"
            }
          }
        }
      ],
      "certificateStartDate": "2023-09-06",
      "certificateEndDate": "2024-03-06",
      "object": "LA CONSTRUCCIÓN Y MONTAJE DE ESTRUCTURAS METÁLICAS, FIJAS Y MÓVILES. LA FORMACIÓN DE CUBIERTAS CON MATERIALES TRANSPARENTES O TRASLÚCIDOS, COMO VIDRIO, METACRILATO, POLICARBONATO, POLIÉSTER, ETC. LA VENTA Y COMERCIALIZACIÓN DE PERFILERÍA DESTINADA AL MONTAJE DE CUBIERTAS Y CERRAMIENTOS. Y LA CONSTRUCCIÓN Y VENTA DE LUCERNARIOS NORMALIZADOS PARA LA FORMACIÓN DE CUBIERTAS.",
      "mainEntityOfPage": "https://www.contratacion.euskadi.eus/webkpe00-kperoc/es/ac71aBusquedaRegistrosWar/empresa/08037",
      "_links": {
        "self": {
          "name": "MAPERGLAS, S.L.",
          "href": "https://api.euskadi.eus/procurements/companies/08037"
        }
      }
    },
    {
      "name": "ZUZENDUZ MOBILITY, S.L.",
      "registrationNumber": "08327",
      "identificationNumber": "B75221465",
      "address": "ASTIGARRAGAKO BIDEA, 2-5ºIZ-2ª",
      "location": {
        "postalCode": "20180",
        "municipality": "Oiartzun",
        "county": "Gipuzkoa",
        "municipalityId": "063",
        "countyId": "20"
      },
      "economicActivities": [
        {
          "id": "1.659.3",
          "name": "Venta al por menor de aparatos médicos, ortopédicos, ópticos y fotográficos",
          "_links": {
            "self": {
              "name": "Venta al por menor de aparatos médicos, ortopédicos, ópticos y fotográficos",
              "href": "https://api.euskadi.eus/procurements/companies/economic-activities/1.659.3"
            }
          }
        }
      ],
      "certificateStartDate": "2023-09-05",
      "certificateEndDate": "2024-03-05",
      "object": "EL COMERCIO DE PRODUCTOS DE ORTOPEDIA, ASÍ COMO TODO TIPO DE ACTIVIDADES RELACIONADAS CON LA ORTOPEDIA EN GENERAL.",
      "mainEntityOfPage": "https://www.contratacion.euskadi.eus/webkpe00-kperoc/es/ac71aBusquedaRegistrosWar/empresa/08327",
      "_links": {
        "self": {
          "name": "ZUZENDUZ MOBILITY, S.L.",
          "href": "https://api.euskadi.eus/procurements/companies/08327"
        }
      }
    },
    {
      "name": "KOLMAR PINTURA E IMPERMEABILIZACIONES SOCIEDAD LIMITADA",
      "registrationNumber": "08613",
      "identificationNumber": "B95933016",
      "address": "C/EUSKALHERRIA Nº 3-2º A",
      "location": {
        "postalCode": "48450",
        "municipality": "Etxebarri",
        "county": "Bizkaia",
        "municipalityId": "029",
        "countyId": "48"
      },
      "economicActivities": [
        {
          "id": "1.501.3",
          "name": "Albañilería y pequeños trabajos de construcción en general",
          "_links": {
            "self": {
              "name": "Albañilería y pequeños trabajos de construcción en general",
              "href": "https://api.euskadi.eus/procurements/companies/economic-activities/1.501.3"
            }
          }
        },
        {
          "id": "1.505.6",
          "name": "Pintura, revestimientos y terminación y decoración de locales",
          "_links": {
            "self": {
              "name": "Pintura, revestimientos y terminación y decoración de locales",
              "href": "https://api.euskadi.eus/procurements/companies/economic-activities/1.505.6"
            }
          }
        }
      ],
      "certificateStartDate": "2023-09-05",
      "certificateEndDate": "2024-02-23",
      "object": "LA EJECUCIÓN, DESARROLLO, DIRECCIÓN Y PLANIFICACIÓN DE TRABAJOS DE PINTURA DECORATIVA E INDUSTRIAL. LA EJECUCIÓN, DESARROLLO, DIRECCIÓN Y PLANIFICACIÓN DE TRABAJOS DE REVESTIMIENTOS LIGEROS EN PAREDES Y SUELOS. LA EJECUCIÓN, DESARROLLO, DIRECCIÓN Y PLANIFICACIÓN DE IMPERMEABILIZACIONES. LA EJECUCIÓN, DESARROLLO, DIRECCIÓN, PLANIFICACIÓN, FABRICACIÓN Y COLOCACIÓN DE PAVIMENTOS DECORATIVOS E INDUSTRIALES. LA EJECUCIÓN, DESARROLLO, DIRECCIÓN Y PLANIFICACIÓN DE IGNIFUGACIONES. LA EJECUCIÓN, DESARROLLO, DIRECCIÓN Y PLANIFICACIÓN PARA LA PROTECCIÓN DEL HORMIGÓN. LA EJECUCIÓN, DESARROLLO, DIRECCIÓN Y PLANIFICACIÓN DE TRABAJOS DE ALBAÑILERÍA.",
      "mainEntityOfPage": "https://www.contratacion.euskadi.eus/webkpe00-kperoc/es/ac71aBusquedaRegistrosWar/empresa/08613",
      "_links": {
        "self": {
          "name": "KOLMAR PINTURA E IMPERMEABILIZACIONES SOCIEDAD LIMITADA",
          "href": "https://api.euskadi.eus/procurements/companies/08613"
        }
      }
    },
    {
      "name": "IRISMEDIA AGENCIA DE MEDIOS, S.L.",
      "registrationNumber": "08922",
      "identificationNumber": "B84584705",
      "address": "c/ Albasanz 15, edificio A, Planta 3",
      "location": {
        "postalCode": "28037",
        "municipality": "Madrid",
        "county": "Madrid",
        "municipalityId": "079",
        "countyId": "28"
      },
      "economicActivities": [
        {
          "id": "1.844",
          "name": "Servicios de publicidad, relaciones públicas y similares",
          "_links": {
            "self": {
              "name": "Servicios de publicidad, relaciones públicas y similares",
              "href": "https://api.euskadi.eus/procurements/companies/economic-activities/1.844"
            }
          }
        }
      ],
      "certificateStartDate": "2023-09-05",
      "certificateEndDate": "2024-03-05",
      "object": "A LA CREACIÓN, PROYECCIÓN Y EJECUCIÓN DE CAMPAÑAS PUBLICITARIAS A TRAVÉS DE TODOS LOS MEDIOS DE DIFUSIÓN; ESTRATEGIA, PLANIFICACIÓN Y COMPRA DE ESPACIOS PUBLICITARIOS; ASESORÍA DE MEDIOS; ORGANIZACIÓN DE EVENTOS; RELACIONES PÚBLICAS Y MARKETING DIRECTO. ",
      "mainEntityOfPage": "https://www.contratacion.euskadi.eus/webkpe00-kperoc/es/ac71aBusquedaRegistrosWar/empresa/08922",
      "_links": {
        "self": {
          "name": "IRISMEDIA AGENCIA DE MEDIOS, S.L.",
          "href": "https://api.euskadi.eus/procurements/companies/08922"
        }
      }
    }
  ]
}