{
  "totalItems": 9042,
  "totalPages": 905,
  "currentPage": 872,
  "itemsOfPage": 10,
  "items": [
    {
      "name": "JUAN CARLOS LINARES VILLALAIN",
      "registrationNumber": "04755",
      "identificationNumber": "16260984F",
      "address": "C/MAYOR, 28 1º",
      "location": {
        "postalCode": "01200",
        "municipality": "Agurain/Salvatierra",
        "county": "Araba/Álava",
        "municipalityId": "051",
        "countyId": "01"
      },
      "object": ".",
      "mainEntityOfPage": "https://www.contratacion.euskadi.eus/webkpe00-kperoc/es/ac71aBusquedaRegistrosWar/empresa/04755",
      "_links": {
        "self": {
          "name": "JUAN CARLOS LINARES VILLALAIN",
          "href": "https://api.euskadi.eus/procurements/companies/04755"
        }
      }
    },
    {
      "name": "ATEBUR, S.L.",
      "registrationNumber": "04756",
      "identificationNumber": "B95556924",
      "address": "BLAS DE OTERO, 25",
      "location": {
        "postalCode": "48014",
        "municipality": "Bilbao",
        "county": "Bizkaia",
        "municipalityId": "020",
        "countyId": "48"
      },
      "object": ".",
      "mainEntityOfPage": "https://www.contratacion.euskadi.eus/webkpe00-kperoc/es/ac71aBusquedaRegistrosWar/empresa/04756",
      "_links": {
        "self": {
          "name": "ATEBUR, S.L.",
          "href": "https://api.euskadi.eus/procurements/companies/04756"
        }
      }
    },
    {
      "name": "INGENIERIA ELECTRICA EXA, S.L.",
      "registrationNumber": "04775",
      "identificationNumber": "B48713457",
      "address": "C/MEZO, 32",
      "location": {
        "postalCode": "48950",
        "municipality": "Erandio",
        "county": "Bizkaia",
        "municipalityId": "902",
        "countyId": "48"
      },
      "object": ".",
      "mainEntityOfPage": "https://www.contratacion.euskadi.eus/webkpe00-kperoc/es/ac71aBusquedaRegistrosWar/empresa/04775",
      "_links": {
        "self": {
          "name": "INGENIERIA ELECTRICA EXA, S.L.",
          "href": "https://api.euskadi.eus/procurements/companies/04775"
        }
      }
    },
    {
      "name": "BIKAILAN CONSTRUCCIONES Y REFORMAS, S.L.L.",
      "registrationNumber": "04776",
      "identificationNumber": "B95350500",
      "address": "GERNICA, 62 - 6º C",
      "location": {
        "postalCode": "48970",
        "municipality": "Basauri",
        "county": "Bizkaia",
        "municipalityId": "015",
        "countyId": "48"
      },
      "object": ".",
      "mainEntityOfPage": "https://www.contratacion.euskadi.eus/webkpe00-kperoc/es/ac71aBusquedaRegistrosWar/empresa/04776",
      "_links": {
        "self": {
          "name": "BIKAILAN CONSTRUCCIONES Y REFORMAS, S.L.L.",
          "href": "https://api.euskadi.eus/procurements/companies/04776"
        }
      }
    },
    {
      "name": "VIAJES ARTAZA",
      "registrationNumber": "04777",
      "identificationNumber": "B01271311",
      "address": "Arriba, s/n",
      "location": {
        "postalCode": "01119",
        "municipality": "Bernedo",
        "county": "Araba/Álava",
        "municipalityId": "016",
        "countyId": "01"
      },
      "object": ".",
      "mainEntityOfPage": "https://www.contratacion.euskadi.eus/webkpe00-kperoc/es/ac71aBusquedaRegistrosWar/empresa/04777",
      "_links": {
        "self": {
          "name": "VIAJES ARTAZA",
          "href": "https://api.euskadi.eus/procurements/companies/04777"
        }
      }
    },
    {
      "name": "POLICLINICA GIPUZKOA, S.A.",
      "registrationNumber": "04780",
      "identificationNumber": "A20034047",
      "address": "PASEO MIRAMON, 174",
      "location": {
        "postalCode": "20014",
        "municipality": "Donostia / San Sebastián",
        "county": "Gipuzkoa",
        "municipalityId": "069",
        "countyId": "20"
      },
      "object": ".",
      "mainEntityOfPage": "https://www.contratacion.euskadi.eus/webkpe00-kperoc/es/ac71aBusquedaRegistrosWar/empresa/04780",
      "_links": {
        "self": {
          "name": "POLICLINICA GIPUZKOA, S.A.",
          "href": "https://api.euskadi.eus/procurements/companies/04780"
        }
      }
    },
    {
      "name": "CENTRO MEDICO URBIETA, S.L.",
      "registrationNumber": "04781",
      "identificationNumber": "B20194627",
      "address": "C/URBIETA, 58 BAJO",
      "location": {
        "postalCode": "20006",
        "municipality": "Donostia / San Sebastián",
        "county": "Gipuzkoa",
        "municipalityId": "069",
        "countyId": "20"
      },
      "object": ".",
      "mainEntityOfPage": "https://www.contratacion.euskadi.eus/webkpe00-kperoc/es/ac71aBusquedaRegistrosWar/empresa/04781",
      "_links": {
        "self": {
          "name": "CENTRO MEDICO URBIETA, S.L.",
          "href": "https://api.euskadi.eus/procurements/companies/04781"
        }
      }
    },
    {
      "name": "CANDIDO MARTIN ALVAREZ",
      "registrationNumber": "04793",
      "identificationNumber": "15890879H",
      "address": "IDIAZABAL, 12 1º",
      "location": {
        "postalCode": "20130",
        "municipality": "Urnieta",
        "county": "Gipuzkoa",
        "municipalityId": "072",
        "countyId": "20"
      },
      "object": ".",
      "mainEntityOfPage": "https://www.contratacion.euskadi.eus/webkpe00-kperoc/es/ac71aBusquedaRegistrosWar/empresa/04793",
      "_links": {
        "self": {
          "name": "CANDIDO MARTIN ALVAREZ",
          "href": "https://api.euskadi.eus/procurements/companies/04793"
        }
      }
    },
    {
      "name": "VICTOR MANUEL ELVIRA",
      "registrationNumber": "04803",
      "identificationNumber": "70930758K",
      "address": "C/OLABARRI, 28 A 3ºC",
      "location": {
        "postalCode": "48140",
        "municipality": "Igorre",
        "county": "Bizkaia",
        "municipalityId": "094",
        "countyId": "48"
      },
      "object": ".",
      "mainEntityOfPage": "https://www.contratacion.euskadi.eus/webkpe00-kperoc/es/ac71aBusquedaRegistrosWar/empresa/04803",
      "_links": {
        "self": {
          "name": "VICTOR MANUEL ELVIRA",
          "href": "https://api.euskadi.eus/procurements/companies/04803"
        }
      }
    },
    {
      "name": "FUNDACION ONKOLOGIKOA FUNDAZIOA",
      "registrationNumber": "04804",
      "identificationNumber": "G75023184",
      "address": "Pº DR. BEGUIRISTAIN, 121",
      "location": {
        "postalCode": "20014",
        "municipality": "Donostia / San Sebastián",
        "county": "Gipuzkoa",
        "municipalityId": "069",
        "countyId": "20"
      },
      "object": ".",
      "mainEntityOfPage": "https://www.contratacion.euskadi.eus/webkpe00-kperoc/es/ac71aBusquedaRegistrosWar/empresa/04804",
      "_links": {
        "self": {
          "name": "FUNDACION ONKOLOGIKOA FUNDAZIOA",
          "href": "https://api.euskadi.eus/procurements/companies/04804"
        }
      }
    }
  ]
}