{
  "totalItems": 9042,
  "totalPages": 905,
  "currentPage": 584,
  "itemsOfPage": 10,
  "items": [
    {
      "name": "FERNANDO DÍEZ CANTERO",
      "registrationNumber": "06807",
      "identificationNumber": "71278745C",
      "address": "Calle Arlanza N°14",
      "location": {
        "postalCode": "09002",
        "municipality": "Burgos",
        "county": "Burgos",
        "municipalityId": "059",
        "countyId": "09"
      },
      "economicActivities": [
        {
          "id": "2.411",
          "name": "Arquitectos",
          "_links": {
            "self": {
              "name": "Arquitectos",
              "href": "https://api.euskadi.eus/procurements/companies/economic-activities/2.411"
            }
          }
        },
        {
          "id": "2.421",
          "name": "Arquitectos técnicos y aparejadores",
          "_links": {
            "self": {
              "name": "Arquitectos técnicos y aparejadores",
              "href": "https://api.euskadi.eus/procurements/companies/economic-activities/2.421"
            }
          }
        }
      ],
      "certificateStartDate": "2020-02-04",
      "certificateEndDate": "2020-04-25",
      "object": "ARQUITECTOS Y ARQUITECTOS TECNICOS Y APAREJADORES",
      "mainEntityOfPage": "https://www.contratacion.euskadi.eus/webkpe00-kperoc/es/ac71aBusquedaRegistrosWar/empresa/06807",
      "_links": {
        "self": {
          "name": "FERNANDO DÍEZ CANTERO",
          "href": "https://api.euskadi.eus/procurements/companies/06807"
        }
      }
    },
    {
      "name": "PROTECCIÓN GERIÁTRICA 2005, S.L.",
      "registrationNumber": "06808",
      "identificationNumber": "B53977013",
      "address": "Calle Vicente Blasco Ibáñez, 18 bajo",
      "location": {
        "postalCode": "03201",
        "municipality": "Elx/Elche",
        "county": "Alicante/Alacant",
        "municipalityId": "065",
        "countyId": "03"
      },
      "economicActivities": [
        {
          "id": "1.952",
          "name": "Asistencia y servicios sociales en centros no residenciales",
          "_links": {
            "self": {
              "name": "Asistencia y servicios sociales en centros no residenciales",
              "href": "https://api.euskadi.eus/procurements/companies/economic-activities/1.952"
            }
          }
        }
      ],
      "certificateStartDate": "2020-02-04",
      "certificateEndDate": "2020-04-24",
      "object": "A) LA REALIZACIÓN DE ACTIVIDADES DE FORMACIÓN, ASESORAMIENTO, ESTUDIO, INVESTIGACIÓN Y FORMULACIÓN DE PROYECTOS Y, EN GENERAL, LA PRESTACIÓN DE TODA CLASE DE SERVICIOS EN EL ÁMBITO GERONTOLÓGICO Y DE AYUDA A DOMICILIO TANTO PARA NIÑOS, JÓVENES, DISMINUIDOS FÍSICOS Y PSÍQUICOS COMO DE ANCIANOS, ASÍ COMO LA COMERCIALIZACIÓN DE TODA CLASE DE PRODUCTOS RELACIONADOS CON LAS ACTIVIDADES RESEÑADAS. B) LIMPIEZA GENERAL DE EDIFICIOS. C) OTRAS ACTIVIDADES DE LIMPIEZA INDUSTRIAL Y DE EDIFICIOS. D) ASISTENCIA EN ESTABLECIMIENTOS RESIDENCIALES CON CUIDADOS SANITARIOS. E) ASISTENCIA EN ESTABLECIMIENTOS RESIDENCIALES PARA PERSONAS CON DISCAPACIDAD INTELECTUAL, ENFERMEDAD MENTAL Y DROGODEPENDENCIA. F) ASISTENCIA EN ESTABLECIMIENTOS RESIDENCIALES PARA PERSONAS MAYORES. G) ASISTENCIA EN ESTABLECIMIENTOS RESIDENCIALES PARA PERSONAS CON DISCAPACIDAD FÍSICA. H) OTRAS ACTIVIDADES DE ASISTENCIA EN ESTABLECIMIENTOS RESIDENCIALES. I) ACTIVIDADES DE SERVICIOS SOCIALES SIN ALOJAMIENTO PARA PERSONAS MAYORES. J) ACTIVIDADES DE SERVICIOS SOCIALES SIN ALOJAMIENTO PARA PERSONAS CON DISCAPACIDAD. K) ACTIVIDADES DE CUIDADO DIURNO DE NIÑOS. L) OTRAS ACTIVIDADES DE SERVICIOS SOCIALES SIN ALOJAMIENTO N.C.O.P.",
      "mainEntityOfPage": "https://www.contratacion.euskadi.eus/webkpe00-kperoc/es/ac71aBusquedaRegistrosWar/empresa/06808",
      "_links": {
        "self": {
          "name": "PROTECCIÓN GERIÁTRICA 2005, S.L.",
          "href": "https://api.euskadi.eus/procurements/companies/06808"
        }
      }
    },
    {
      "name": "LTAKT PROJECT & PROCESS, S.L.",
      "registrationNumber": "06797",
      "identificationNumber": "B95815494",
      "address": "Gernika 9 3d",
      "location": {
        "postalCode": "48960",
        "municipality": "Galdakao",
        "county": "Bizkaia",
        "municipalityId": "036",
        "countyId": "48"
      },
      "economicActivities": [
        {
          "id": "1.847",
          "name": "Servicios de consultoría",
          "_links": {
            "self": {
              "name": "Servicios de consultoría",
              "href": "https://api.euskadi.eus/procurements/companies/economic-activities/1.847"
            }
          }
        },
        {
          "id": "1.934",
          "name": "Enseñanza fuera de establecimiento permanente",
          "_links": {
            "self": {
              "name": "Enseñanza fuera de establecimiento permanente",
              "href": "https://api.euskadi.eus/procurements/companies/economic-activities/1.934"
            }
          }
        }
      ],
      "certificateStartDate": "2020-01-31",
      "certificateEndDate": "2020-07-10",
      "object": "LA PRESTACIÓN DE SERVICIOS. LAS ACTIVIDADES DE GESTIÓN Y ADMINISTRACIÓN. LOS SERVICIOS EDUCATIVOS, SANITARIOS, DE OCIO Y ENTRETENIMIENTO. EL CNAE DE LA ACTIVIDAD PRINCIPAL ES EL 7022-OTRAS ACTIVIDADES DE CONSULTORÍA DE GESTIÓN EMPRESARIAL",
      "mainEntityOfPage": "https://www.contratacion.euskadi.eus/webkpe00-kperoc/es/ac71aBusquedaRegistrosWar/empresa/06797",
      "_links": {
        "self": {
          "name": "LTAKT PROJECT & PROCESS, S.L.",
          "href": "https://api.euskadi.eus/procurements/companies/06797"
        }
      }
    },
    {
      "name": "FUNDACIÓ BOSCH I GIMPERA",
      "registrationNumber": "06800",
      "identificationNumber": "G08906653",
      "address": "BALDIRI REIXAC, 4-6",
      "location": {
        "postalCode": "08028",
        "municipality": "Barcelona",
        "county": "Barcelona",
        "municipalityId": "019",
        "countyId": "08"
      },
      "economicActivities": [
        {
          "id": "1.932.2",
          "name": "Enseñanza de formación y perfeccionamiento profesional superior",
          "_links": {
            "self": {
              "name": "Enseñanza de formación y perfeccionamiento profesional superior",
              "href": "https://api.euskadi.eus/procurements/companies/economic-activities/1.932.2"
            }
          }
        },
        {
          "id": "1.966.9",
          "name": "Otros servicios culturales n.c.o.p",
          "_links": {
            "self": {
              "name": "Otros servicios culturales n.c.o.p",
              "href": "https://api.euskadi.eus/procurements/companies/economic-activities/1.966.9"
            }
          }
        },
        {
          "id": "1.999",
          "name": "Otros servicios n.c.o.p",
          "_links": {
            "self": {
              "name": "Otros servicios n.c.o.p",
              "href": "https://api.euskadi.eus/procurements/companies/economic-activities/1.999"
            }
          }
        }
      ],
      "certificateStartDate": "2020-01-31",
      "certificateEndDate": "2020-03-25",
      "object": "1.LA FUNDACIÓN, COMO CENTRO DE TRANSFERENCIA DE CONOCIMIENTO, TECNOLOGÍA E INNOVACIÓN DE LA UNIVERSIDAD DE BARCELONA, TIENE POR OBJETO LA PROMOCIÓN, LA DIFUSIÓN, LA TRANSMISIÓN, PRINCIPALMENTE EN EL MARCO DE CATALUÑA, Y LA INVESTIGACIÓN EN TODOS LOS ÁMBITOS RELACIONADOS CON LAS ÁREAS DE CONOCIMIENTO DE LA UNIVERSIDAD DE BARCELONA Y EL SERVICIO A LA SOCIEDAD EN LA QUE SE INSERTA. 2. PARA LA CONSECUCIÓN DE SU FIN FUNDACIONAL, LA FUNDACIÓN DESARROLLA LAS ACTIVIDADES QUE, SIN CARÁCTER EXHAUSTIVO, SE ENUMERAN A CONTINUACIÓN:  A) RECORDAR LA PERSONA Y LA OBRA DEL PROFESOR PERE BOSCH Y GIMPERA, RECTOR QUE FUE DE LA UNIVERSIDAD DE BARCELONA, ASÍ COMO HONRAR LA MEMORIA DEL PROFESORADO QUE A LO LARGO DE LA HISTORIA HA COMBATIDO POR LA LIBERTAD Y LA DEMOCRACIA. B) PROMOVER, PROMOCIONA Y GESTIONAR ACTIVIDADES CIENTÍFICAS, TÉCNICAS Y ARTÍSTICAS CON LAS EMPRESAS Y LAS DEMÁS INSTITUCIONES, PÚBLICAS O PRIVADAS, Y QUE HAN DE LLEVAR A CABO PERSONAS, GRUPOS, INSTITUCIONES, CENTROS U OTRAS UNIDADES ORGÁNICAS DE LA UNIVERSIDAD DE BARCELONA, PRESTANDO ASESORAMIENTO TÉCNICO Y SOPORTE LEGAL PARA EJECUTAR ESTAS ACTIVIDADES, QUE PODRÁN LLEVARSE A CABO EN COLABORACIÓN CON OTROS CENTROS DE INVESTIGACIÓN Y TECNOLÓGICOS. C) COLABORAR EN LA CREACIÓN, EL ESTABLECIMIENTO Y LA GESTIÓN DE UNIDADES, CONSORCIOS DE INVESTIGACIÓN COLABORATIVA, ENTIDADES O CENTROS DESTINADOS A LA INVESTIGACIÓN Y, EN GENERAL, EN TODAS AQUELLAS ACTIVIDADES QUE PUEDAN CONTRIBUIR A ALCANZAR LOS OBJETIVOS PRINCIPALES DE LA FUNDACIÓN. D) POTENCIAR LA TRANSFERENCIA DE CONOCIMIENTO, TECNOLOGÍA E INNOVACIÓN DE LA UNIVERSIDAD DE BARCELONA MEDIANTE: I) LA PARTICIPACIÓN EN LA INVESTIGACIÓN COLABORATIVA; II) LA UTILIZACIÓN, DIFUSIÓN Y COMERCIALIZACIÓN DE LOS RESULTADOS DE LA INVESTIGACIÓN; III) EL APOYO EN LA ELABORACIÓN DE ESTUDIOS, LA FORMACIÓN ESPECÍFICA DERIVADA DE LOS ESTUDIOS, LA EVALUACIÓN DEL NEGOCIO, LA PROMOCIÓN Y LA GESTIÓN DE REDES DE REFERENCIA Y LA GESTIÓN DE CONTRATOS Y DE PROGRAMAS, TANTO A ESCALA NACIONAL COMO INTERNACIONAL. E) FOMENTAR LA CULTURA EMPRENDEDORA DENTRO DEL ENTORNO DEL GRUPO UB, DE ACUERDO CON LA POLÍTICA DE PROTECCIÓN Y COMERCIALIZACIÓN DE LA UNIVERSIDAD DE BARCELONA. ASESORAR EN EL PROCESO DE VALORACIÓN, AL OBJETO DE ACERCAR LA TECNOLOGÍA AL MERCADO Y EN EL PROCESO DE COMERCIALIZACIÓN DE LA PROPIEDAD INTELECTUAL E INDUSTRIAL, TANTO A TRAVÉS DE CESIÓN O DE LICENCIA A FAVOR DE UNA EMPRESA YA ESTABLECIDA, COMO A UNA EMPRESA DERIVADA (SPIN-OFF) DE RECIENTE CREACIÓN O A UNA INSTITUCIÓN. PARTICIPAR EN EL SEGUIMIENTO DE LAS PATENTES OBJETO DE LICENCIA Y DE CESIÓN ASÍ COMO EN EL DE LAS EMPRESAS PARTICIPADAS POR LA UNIVERSIDAD DE BARCELONA, DE CONFORMIDAD CON LA NORMATIVA VIGENTE. G) PROMOCIONAR, FOMENTAR, COORDINAR, PARTICIPAR Y DESARROLLAR TAREAS, TRABAJOS, ASESORAMIENTO, INVESTIGACIONES Y OTRAS ACTIVIDADES DE CUALQUIER NATURALEZA, DE ACUERDO CON LA POLÍTICA INTERNACIONAL DE LA UNIVERSIDAD DE BARCELONA. H) ALLEGAR FONDOS, RECURRIENDO INCLUSO A LA FINANCIACIÓN EXTERNA, PARA LA UTILIZACIÓN DE LOS MISMOS EN LA PROMOCIÓN Y LA FINANCIACIÓN DE LOS OBJETIVOS DE LA FUNDACIÓN. I) COLABORAR Y COORDINARSE CON OTRAS ENTIDADES DEL GRUPO UB QUE LLEVEN A CABO ACTIVIDADES ENCUADRADAS EN LA FUNCIÓN DE TRANSFERENCIA DE CONOCIMIENTO, TECNOLOGÍA E INNOVACIÓN\r\n\r\n",
      "mainEntityOfPage": "https://www.contratacion.euskadi.eus/webkpe00-kperoc/es/ac71aBusquedaRegistrosWar/empresa/06800",
      "_links": {
        "self": {
          "name": "FUNDACIÓ BOSCH I GIMPERA",
          "href": "https://api.euskadi.eus/procurements/companies/06800"
        }
      }
    },
    {
      "name": "MEDIA CREATIVA 2020, S.L.",
      "registrationNumber": "06793",
      "identificationNumber": "B95770525",
      "address": "Puente de Deustu 11 4º A",
      "location": {
        "postalCode": "48014",
        "municipality": "Bilbao",
        "county": "Bizkaia",
        "municipalityId": "020",
        "countyId": "48"
      },
      "economicActivities": [
        {
          "id": "1.849.9",
          "name": "Otros servicios independientes n.c.o.p",
          "_links": {
            "self": {
              "name": "Otros servicios independientes n.c.o.p",
              "href": "https://api.euskadi.eus/procurements/companies/economic-activities/1.849.9"
            }
          }
        },
        {
          "id": "1.932.1",
          "name": "Enseñanza de formación y perfeccionamiento profesional no superior",
          "_links": {
            "self": {
              "name": "Enseñanza de formación y perfeccionamiento profesional no superior",
              "href": "https://api.euskadi.eus/procurements/companies/economic-activities/1.932.1"
            }
          }
        }
      ],
      "certificateStartDate": "2020-01-30",
      "certificateEndDate": "2020-07-16",
      "object": "-SERVICIOS DE INTERNACIONALIZACIÓN, APOYO A LA GESTIÓN, INNOVACIÓN Y DESARROLLO EMPRESARIAL, COMUNICACIÓN Y NETWORKING, DESARROLLO Y EVALUACIÓN DE PROYECTOS. -DISEÑAR, DESARROLLAR Y PROMOVER ACTUACIONES Y PROGRAMAS PARA LA MEJORA CUALITATIVA DEL TRABAJO CON JÓVENES Y CON CUALQUIER OTRO COLECTIVO VULNERABLE, ENTRE LOS QUE SE INCLUIRÍAN MUJERES, PERSONAS INMIGRANTES, PERSONAS CON DISCAPACIDAD Y MAYORES DE 50 AÑOS. -IMPULSAR Y FOMENTAR EL DESARROLLO DE COMPETENCIAS, TALES COMO EL EMPRENDIZAJE, LA COMPETENCIA DIGITAL, LA MULTICULTURALIDAD EN TODOS LOS ÁMBITOS DE LA EDUCACIÓN Y LA FORMACIÓN, A TRAVÉS DE HERRAMIENTAS Y ENFOQUES PEDAGÓGICOS INNOVADORES. -DISEÑAR, ORGANIZAR, IMPARTIR Y EVALUAR CURSOS, SEMINARIOS, SESIONES DE TRABAJO Y TODA CLASE DE MANIFESTACIONES ANÁLOGAS RELACIONADAS CON LA FORMACIÓN Y LAS NECESIDADES DE CUALIFICACIÓN, PARA TODO TIPO DE FORMATOS, INCLUYENDO EL DESARROLLO DE ACCIONES PARA EL DIAGNÓSTICO DE NECESIDADES FORMATIVAS, ASÍ COMO EL DISEÑO E IMPARTICIÓN DE PROGRAMAS DE ORIENTACIÓN SOCIO-LABORAL. -REALIZAR ACTIVIDADES DE INVESTIGACIÓN, DESARROLLO, INNOVACIÓN, PRODUCCIÓN, MANTENIMIENTO Y/O COMERCIALIZACIÓN DE SOFTWARE EDUCATIVO Y DE GESTIÓN. DENTRO DE ESTE TIPO DE DESARROLLOS SE ENGLOBA LA PRODUCCIÓN DE APLICACIONES, JUEGOS, VIDEOJUEGOS EDUCATIVOS, SERIOUS GAMES, SIMULADORES, PROYECTOS Y HERRAMIENTAS DE GAMIFICACIÓN Y FORMACIÓN, Y CUALQUIER OTRO DE CARÁCTER ANÁLOGO, PARA TODO TIPO DE FORMATOS Y CONTENIDOS, ASÍ COMO LOS PROCESOS DE INVESTIGACIÓN Y DESARROLLO NECESARIOS PARA LA PRODUCCIÓN DE LOS MISMOS",
      "mainEntityOfPage": "https://www.contratacion.euskadi.eus/webkpe00-kperoc/es/ac71aBusquedaRegistrosWar/empresa/06793",
      "_links": {
        "self": {
          "name": "MEDIA CREATIVA 2020, S.L.",
          "href": "https://api.euskadi.eus/procurements/companies/06793"
        }
      }
    },
    {
      "name": "PORPOL, S. COOP.",
      "registrationNumber": "06794",
      "identificationNumber": "F01036201",
      "address": "Beato Tomás de Zumárraga, 98, 3º, A",
      "location": {
        "postalCode": "01009",
        "municipality": "Vitoria-Gasteiz",
        "county": "Araba/Álava",
        "municipalityId": "059",
        "countyId": "01"
      },
      "economicActivities": [
        {
          "id": "1.933.9",
          "name": "Otras actividades de enseñanza tales como idiomas, mecanografía",
          "_links": {
            "self": {
              "name": "Otras actividades de enseñanza tales como idiomas, mecanografía",
              "href": "https://api.euskadi.eus/procurements/companies/economic-activities/1.933.9"
            }
          }
        },
        {
          "id": "3.019",
          "name": "Otras actividades relacionadas con el cine, el teatro y el circo",
          "_links": {
            "self": {
              "name": "Otras actividades relacionadas con el cine, el teatro y el circo",
              "href": "https://api.euskadi.eus/procurements/companies/economic-activities/3.019"
            }
          }
        }
      ],
      "certificateStartDate": "2020-01-30",
      "certificateEndDate": "2020-04-09",
      "object": "EL SERVICIO A EMPRESAS EN CUANTO A ALQUILER DE MATERIAL ELÉCTRICO Y DE SONIDO,  DISEÑO Y CONSTRUCCIÓN DE ESCENOGRAFÍAS, ATREZZO Y VESTUARIO, TALLERES DE MATERIAS ESCÉNICAS, PRODUCCIÓN, PROMOCIÓN Y DISTRIBUCIÓN DE ESPECTÁCULOS, SERVICIOS DE ANIMACIÓN CULTURAL, ORGANIZACIÓN DE FESTIVALES Y MUESTRAS. EN LA REALIZACIÓN DE ESTE OBJETO IMPLICARÁN TODOS LOS SOCIOS TRABAJADORES Y SU PERSONAL DE TRABAJO",
      "mainEntityOfPage": "https://www.contratacion.euskadi.eus/webkpe00-kperoc/es/ac71aBusquedaRegistrosWar/empresa/06794",
      "_links": {
        "self": {
          "name": "PORPOL, S. COOP.",
          "href": "https://api.euskadi.eus/procurements/companies/06794"
        }
      }
    },
    {
      "name": "IMPAOR, S.A.",
      "registrationNumber": "06792",
      "identificationNumber": "A79335758",
      "address": "Calle Rio Ebro, 2",
      "location": {
        "postalCode": "28110",
        "municipality": "Algete",
        "county": "Madrid",
        "municipalityId": "009",
        "countyId": "28"
      },
      "economicActivities": [
        {
          "id": "1.474.1",
          "name": "Impresión de textos o imágenes por cualquier procedimiento",
          "_links": {
            "self": {
              "name": "Impresión de textos o imágenes por cualquier procedimiento",
              "href": "https://api.euskadi.eus/procurements/companies/economic-activities/1.474.1"
            }
          }
        },
        {
          "id": "1.474.2",
          "name": "Impresión de prensa diaria por cualquier procedimiento",
          "_links": {
            "self": {
              "name": "Impresión de prensa diaria por cualquier procedimiento",
              "href": "https://api.euskadi.eus/procurements/companies/economic-activities/1.474.2"
            }
          }
        },
        {
          "id": "1.474.3",
          "name": "Reproducción de textos por multicopistas, fotocopias, etc",
          "_links": {
            "self": {
              "name": "Reproducción de textos por multicopistas, fotocopias, etc",
              "href": "https://api.euskadi.eus/procurements/companies/economic-activities/1.474.3"
            }
          }
        }
      ],
      "certificateStartDate": "2020-01-29",
      "certificateEndDate": "2020-07-10",
      "object": "LA MANIPULACIÓN, FABRICACIÓN Y COMERCIALIZACIÓN DE PAPEL PARA SERVICIOS INFORMÁTICOS",
      "mainEntityOfPage": "https://www.contratacion.euskadi.eus/webkpe00-kperoc/es/ac71aBusquedaRegistrosWar/empresa/06792",
      "_links": {
        "self": {
          "name": "IMPAOR, S.A.",
          "href": "https://api.euskadi.eus/procurements/companies/06792"
        }
      }
    },
    {
      "name": "SUSANA SEGURA LARREA",
      "registrationNumber": "06791",
      "identificationNumber": "30584245H",
      "address": "Alameda de Urquijo, Nº 69, 3º izda.",
      "location": {
        "postalCode": "48013",
        "municipality": "Bilbao",
        "county": "Bizkaia",
        "municipalityId": "020",
        "countyId": "48"
      },
      "economicActivities": [
        {
          "id": "2.826",
          "name": "Personal docente de enseñanzas diversas",
          "_links": {
            "self": {
              "name": "Personal docente de enseñanzas diversas",
              "href": "https://api.euskadi.eus/procurements/companies/economic-activities/2.826"
            }
          }
        }
      ],
      "certificateStartDate": "2020-01-28",
      "certificateEndDate": "2020-05-07",
      "object": "PERSONAL DOCENTE DE ENSEÑANZAS DIVERSAS",
      "mainEntityOfPage": "https://www.contratacion.euskadi.eus/webkpe00-kperoc/es/ac71aBusquedaRegistrosWar/empresa/06791",
      "_links": {
        "self": {
          "name": "SUSANA SEGURA LARREA",
          "href": "https://api.euskadi.eus/procurements/companies/06791"
        }
      }
    },
    {
      "name": "TEMPEL, S.A.",
      "registrationNumber": "06790",
      "identificationNumber": "A08526345",
      "address": "Calle Cobalto 4",
      "location": {
        "postalCode": "08907",
        "municipality": "Hospitalet de Llobregat, L'",
        "county": "Barcelona",
        "municipalityId": "101",
        "countyId": "08"
      },
      "economicActivities": [
        {
          "id": "1.615.4",
          "name": "Venta al por mayor de aparatos y material radioeléctrico y electrónico",
          "_links": {
            "self": {
              "name": "Venta al por mayor de aparatos y material radioeléctrico y electrónico",
              "href": "https://api.euskadi.eus/procurements/companies/economic-activities/1.615.4"
            }
          }
        }
      ],
      "certificateStartDate": "2020-01-27",
      "certificateEndDate": "2020-06-23",
      "object": "LA COMERCIALIZACIÓN DE TODA CLASE DE ÚTILES, APARATOS Y EQUIPOS DEL RAMO DE LA ELECTRÓNICA Y LA INFORMÁTICA, ASÍ COMO LA DE SUS ELEMENTOS ACCESORIOS O AUXILIARES, CON DESTINO A INSTRUMENTOS DE RADIO, TELEVISIÓN, TELEFONÍA, CINE, FOTOGRAFÍA, ALTA FIDELIDAD, ETC. PODRÁ LA SOCIEDAD INTERESARSE EN LOS NEGOCIOS DE OTRAS EMPRESAS DEL SECTOR, EN CUALQUIERA DE LAS FORMAS VÁLIDAS PARA ELLO, CON EXPRESA CITA DE LA SUSCRIPCIÓN O COMPRA DE ACCIONES. PODRÁ IGUALMENTE IMPORTAR Y EXPORTAR TODA CLASE DE PRODUCTOS, CUALQUIERA QUE SEA LA NATURALEZA DE LOS MISMOS",
      "mainEntityOfPage": "https://www.contratacion.euskadi.eus/webkpe00-kperoc/es/ac71aBusquedaRegistrosWar/empresa/06790",
      "_links": {
        "self": {
          "name": "TEMPEL, S.A.",
          "href": "https://api.euskadi.eus/procurements/companies/06790"
        }
      }
    },
    {
      "name": "BORJA OSÉS GARCÍA",
      "registrationNumber": "06789",
      "identificationNumber": "30635248F",
      "address": "PARQUE TECNOLÓGICO DE BIZKAIA, EDIFICIO 101 - OFICINA 109 ",
      "location": {
        "postalCode": "48170",
        "municipality": "Zamudio",
        "county": "Bizkaia",
        "municipalityId": "905",
        "countyId": "48"
      },
      "economicActivities": [
        {
          "id": "2.731",
          "name": "Abogados",
          "_links": {
            "self": {
              "name": "Abogados",
              "href": "https://api.euskadi.eus/procurements/companies/economic-activities/2.731"
            }
          }
        }
      ],
      "certificateStartDate": "2020-01-21",
      "certificateEndDate": "2020-07-16",
      "object": "ABOGADOS",
      "mainEntityOfPage": "https://www.contratacion.euskadi.eus/webkpe00-kperoc/es/ac71aBusquedaRegistrosWar/empresa/06789",
      "_links": {
        "self": {
          "name": "BORJA OSÉS GARCÍA",
          "href": "https://api.euskadi.eus/procurements/companies/06789"
        }
      }
    }
  ]
}