{
  "totalItems": 9042,
  "totalPages": 905,
  "currentPage": 492,
  "itemsOfPage": 10,
  "items": [
    {
      "name": "ASOCIACIÓN EMAÚS EKOLABORA",
      "registrationNumber": "05800",
      "identificationNumber": "G75131524",
      "address": "CALLE GURUTZEGI, 16",
      "location": {
        "postalCode": "20018",
        "municipality": "Donostia / San Sebastián",
        "county": "Gipuzkoa",
        "municipalityId": "069",
        "countyId": "20"
      },
      "economicActivities": [
        {
          "id": "1.849.7",
          "name": "Servicios de gestión administrativa",
          "_links": {
            "self": {
              "name": "Servicios de gestión administrativa",
              "href": "https://api.euskadi.eus/procurements/companies/economic-activities/1.849.7"
            }
          }
        }
      ],
      "certificateStartDate": "2022-08-03",
      "certificateEndDate": "2023-01-28",
      "object": "A. PRESTACIÓN DE SRVICIOS A LA ENTIDAES SOCIADAS. B. ACTIVIDADES DE INTERLOCUCIÓN Y DE REPRESENACIÓN, EN SU CASO, DE LAS ENTIDADES ASOCIADAS ANTE LAS ADMINISTRACIONES PÚBLICAS Y OTRAS ENTIDADES SOCIALES Y/O PRIVADAS. C. CREACIÓN DE DISPOSITIVOS DE PROMOCIÓN, ORIENTACIÓN, FORMACIÓN, ASESORAMIENTO, ESTUDIO, ASISTENCIA TÉCNICA Y DIFUSIÓN DE PROGRAMAS PARA LA INCLUSIÓN SOCIAL Y LABORAL, EMPRESAS DE ECONOMÍA SOLIDARIA Y PROYECTOS DE SENSIBILIZACIÓN Y EDUCACIÓN PARA LA SOSTENIBILIDAD Y DE COOPERACIÓN. D. ACTIVIDADES DE DIFUSIÓN, SENSIBILIZACIÓN Y DINAMIZACIÓN SOCIAL.E. ACTIVIDADES DE FORMACIÓN, JORNADAS, CURSOS, SEMINARIOS, ETC. F. ACTIVIDADES DE ELABORACIÓN Y PARTICIPACIÓN EN ESTUDIO DE INVESTIGACIÓN. G. ACTIVIDADES DE PROPUESTAS, PRESENTACIÓN DE ACTUACIONES E INTERCAMBIO DE INFORMACIÓN, TANTO CON LAS DISTINTAS ADMINISTRACIONES PÚBLICAS COMO CON OTRAS ENTIDADES PRIVADAS. H. ACTIVIDADES DE TRABAJO EN RED. I. ELABORACIÓN Y EJECUCIÓN DE PROGRAMAS Y PROYECTOS. J. CUALQUIER OTRA ACTIVIDAD QUE PROMOCIONE, FORMENTE Y CONSOLIDE LAS ENTIDADES SOCIAS Y LAS ORGANIZACIONES EN LAS QUE PARTICIPE",
      "mainEntityOfPage": "https://www.contratacion.euskadi.eus/webkpe00-kperoc/es/ac71aBusquedaRegistrosWar/empresa/05800",
      "_links": {
        "self": {
          "name": "ASOCIACIÓN EMAÚS EKOLABORA",
          "href": "https://api.euskadi.eus/procurements/companies/05800"
        }
      }
    },
    {
      "name": "ALBERTO GARCÍA LARRAÑAGA",
      "registrationNumber": "06640",
      "identificationNumber": "72399407F",
      "address": "Calle Autonomia Nº19 1º B",
      "location": {
        "postalCode": "48550",
        "municipality": "Muskiz",
        "county": "Bizkaia",
        "municipalityId": "071",
        "countyId": "48"
      },
      "economicActivities": [
        {
          "id": "1.859",
          "name": "Alquiler de otros bienes muebles n.c.o.p. (sin personal permanente)",
          "_links": {
            "self": {
              "name": "Alquiler de otros bienes muebles n.c.o.p. (sin personal permanente)",
              "href": "https://api.euskadi.eus/procurements/companies/economic-activities/1.859"
            }
          }
        },
        {
          "id": "1.966.9",
          "name": "Otros servicios culturales n.c.o.p",
          "_links": {
            "self": {
              "name": "Otros servicios culturales n.c.o.p",
              "href": "https://api.euskadi.eus/procurements/companies/economic-activities/1.966.9"
            }
          }
        }
      ],
      "certificateStartDate": "2022-08-03",
      "certificateEndDate": "2023-01-31",
      "object": "OTROS SERVICIOS CULTURALES. ALQUILER DE OTROS BIENES MUEBLES N.C.O.P.",
      "mainEntityOfPage": "https://www.contratacion.euskadi.eus/webkpe00-kperoc/es/ac71aBusquedaRegistrosWar/empresa/06640",
      "_links": {
        "self": {
          "name": "ALBERTO GARCÍA LARRAÑAGA",
          "href": "https://api.euskadi.eus/procurements/companies/06640"
        }
      }
    },
    {
      "name": "ASOCIACIÓN GIPUZKOAKO KONTSUMITZAILEEN BATASUNA/UNIÓN DE CONSUMIDORES DE GIPUZKOA-UCE",
      "registrationNumber": "08068",
      "identificationNumber": "G20165288",
      "address": "CALLE IDIAKEZ 2, 1º",
      "location": {
        "postalCode": "20004",
        "municipality": "Donostia / San Sebastián",
        "county": "Gipuzkoa",
        "municipalityId": "069",
        "countyId": "20"
      },
      "economicActivities": [
        {
          "id": "1.999",
          "name": "Otros servicios n.c.o.p",
          "_links": {
            "self": {
              "name": "Otros servicios n.c.o.p",
              "href": "https://api.euskadi.eus/procurements/companies/economic-activities/1.999"
            }
          }
        }
      ],
      "certificateStartDate": "2022-08-03",
      "certificateEndDate": "2023-01-06",
      "object": "LA DEFENSA, PROMOCIÓN Y REPRESENTACIÓN DE LOS LEGÍTIMOS DERECHOS E INTERESES INDIVIDUALES Y COLECTIVOS DE LOS CONSUMIDORES Y USUARIOS, ASÍ COMO LA FORMACIÓN E INFORMACIÓN DE ÉSTOS.",
      "mainEntityOfPage": "https://www.contratacion.euskadi.eus/webkpe00-kperoc/es/ac71aBusquedaRegistrosWar/empresa/08068",
      "_links": {
        "self": {
          "name": "ASOCIACIÓN GIPUZKOAKO KONTSUMITZAILEEN BATASUNA/UNIÓN DE CONSUMIDORES DE GIPUZKOA-UCE",
          "href": "https://api.euskadi.eus/procurements/companies/08068"
        }
      }
    },
    {
      "name": "RADIOTRANS, S.A.",
      "registrationNumber": "08077",
      "identificationNumber": "A80318389",
      "address": "Avda. Juan Caramuel 17",
      "location": {
        "postalCode": "28919",
        "municipality": "Leganés",
        "county": "Madrid",
        "municipalityId": "074",
        "countyId": "28"
      },
      "economicActivities": [
        {
          "id": "1.615.4",
          "name": "Venta al por mayor de aparatos y material radioeléctrico y electrónico",
          "_links": {
            "self": {
              "name": "Venta al por mayor de aparatos y material radioeléctrico y electrónico",
              "href": "https://api.euskadi.eus/procurements/companies/economic-activities/1.615.4"
            }
          }
        }
      ],
      "certificateStartDate": "2022-08-03",
      "certificateEndDate": "2023-01-06",
      "object": "A) LA CONSULTORÍA, PROYECTOS, CONSTRUCCIÓN, IMPORTACIÓN, EXPORTACIÓN, INSTALACIÓN, REPARACIÓN Y MANTENIMIENTO DE SISTEMAS, EQUIPOS Y COMPONENTES DE COMUNICACIÓN, EN PARTICULAR, SISTEMAS DE EMISIÓN, TRANSMISIÓN Y RECEPCIÓN DE SEÑALES DE AUDIO, VÍDEO, TELEFONÍA Y DATOS, ASÍ COMO LA PRESTACIÓN DE ASISTENCIA TÉCNICAS A DICHOS SISTEMAS DE TELECOMUNICACIÓN A TRAVÉS DE PROFESIONALES CON TITULACIÓN SUFICIENTE. TODO ELLOS CON ESPECIAL INCIDENCIA EN EL ÁMBITO INTERNACIONAL. CÓDIGO CNAE DE ESTE OBJETO PRINCIPAL ES EL 4652 (COMERCIO AL POR MAYOR DE EQUIPOS ELECTRÓNICOS Y DE TELECOMUNICACIONES Y SUS COMPONENTES). B) LA PRESTACIÓN DE SERVICIOS DE TELECOMUNICACIONES MEDIANTE LA EXPLOTACIÓN DE REDES O LA REVENTA DEL SERVICIO TELEFÓNICO, TELEFONÍA MÓVIL, FIJA, INTERNET Y TELEVISIÓN Y EL DESARROLLO DE APLICACIONES INFORMÁTICAS. C) LA DIRECCIÓN Y EJECUCIÓN DE TODA CLASE DE OBRAS, INSTALACIONES, MONTAJES Y MANTENIMIENTOS RELACIONADOS CON LA ELECTRÓNICA, DE SISTEMAS Y REDES DE COMUNICACIONES TELEFÓNICAS, TELEGRÁFICAS, SEÑALIZACIÓN, S.O.S, PROTECCIÓN CIVIL, DEFENSA Y TRÁFICO Y TRANSMISIÓN Y UTILIZACIÓN DE VOZ Y DATOS, MEDIDAS Y SEÑALES, ASÍ COMO DE PROPAGACIÓN, EMISIÓN, REPETICIÓN Y RECEPCIÓN DE ONDAS DE CUALESQUIERA CLASES, DE ANTENAS, REPETIDORES, RADIO-ENLACE, AYUDA A LA NAVEGACIÓN, EQUIPOS Y ELEMENTOS NECESARIOS PARA LA EJECUCIÓN DE TALES OBRAS, MONTAJES E INSTALACIONES. D) LA PRESTACIÓN Y COMERCIALIZACIÓN DE TODO TIPO DE OBRAS SERVICIOS Y ACTIVIDADES PROPIAS O RELACIONADAS CON O A TRAVÉS DE RED INFORMÁTICA. E) EL ASESORAMIENTO Y CONSULTA EN EL ÁREA INFORMÁTICA DE LAS TELECOMUNICACIONES. EL ANÁLISIS DE EMPRESAS Y LA COLABORACIÓN TÉCNICA DE SOFTWARE Y HARDWARE. LA APLICACIÓN Y ENSEÑANZA SOBRE APLICACIONES INFORMÁTICAS Y DE TELECOMUNICACIONES. F) EL ASESORAMIENTO EN MATERIA DE PLANIFICACIÓN ESTRATÉGICA Y OPERATIVA. LA ORGANIZACIÓN DE MEDIOS HUMANOS Y MATERIALES Y LA REALIZACIÓN DE ESTUDIOS E INFORMES EMPRESARIALES Y EL ASESORAMIENTO Y CONSULTORÍA PARA LA EXPLOTACIÓN DE EMPRESAS OPERADORAS EN TELECOMUNICACIONES Y ESTRATEGIA DE NEGOCIO. G) LA PRESTACIÓN DE SERVICIOS A TERCEROS DE ESTUDIOS, PROYECTOS Y ASESORAMIENTOS TÉCNICOS Y DE INVERSIÓN EN MATERIA DE TELECOMUNICACIONES Y APLICACIONES INFORMÁTICAS. SE INCLUYE EXPRESAMENTE EN ESTE APARTADO LOS SERVICIOS DE APOYO A LA GESTIÓN. H) EN ESPECIAL, LA PRESTACIÓN Y COMERCIALIZACIÓN DE SERVICIOS PROFESIONALES DE COMUNICACIONES EN GENERAL, DE COMUNICACIONES INTERPROFESIONALES INDEPENDIENTE DE LA NUMERACIÓN, PRESTADO SOBRE LA RED DE UN TERCER OPERADOR DE COMUNICACIONES ELECTRÓNICAS, ENTRE OTROS, POR LA PRESTACIÓN DE TODO TIPO DE SERVICIOS DE VENTA, ARRENDAMIENTO Y COMERCIALIZACIÓN DE EQUIPOS Y SERVICIOS DE COMUNICACIONES YA SEAN O NO CALIFICADOS DE COMUNICACIONES ELECTRÓNICAS EN LOS TÉRMINOS DEL ANEXO II. 35 DE LA LEY 9/2014, DE 9 DE MAYO, GENERAL DE TELECOMUNICACIONES, ASÍ COMO LO PREVISTO EN DIRECTIVA (UE) 2018/1972 DEL PARLAMENTO EUROPEO Y DEL CONSEJO DE 11 DE DICIEMBRE DE 2018 POR LA QUE SE ESTABLECE EL CÓDIGO EUROPEO DE LAS COMUNICACIONES ELECTRÓNICAS.",
      "mainEntityOfPage": "https://www.contratacion.euskadi.eus/webkpe00-kperoc/es/ac71aBusquedaRegistrosWar/empresa/08077",
      "_links": {
        "self": {
          "name": "RADIOTRANS, S.A.",
          "href": "https://api.euskadi.eus/procurements/companies/08077"
        }
      }
    },
    {
      "name": "SEÑALIZACIONES EDER, S.A.",
      "registrationNumber": "01859",
      "identificationNumber": "A48620181",
      "address": "ARITZ BIDEA, 101",
      "location": {
        "postalCode": "48100",
        "municipality": "Mungia",
        "county": "Bizkaia",
        "municipalityId": "069",
        "countyId": "48"
      },
      "economicActivities": [
        {
          "id": "1.506.0",
          "name": "Instalaciones de andamios, cimbras, encofrados, etc",
          "_links": {
            "self": {
              "name": "Instalaciones de andamios, cimbras, encofrados, etc",
              "href": "https://api.euskadi.eus/procurements/companies/economic-activities/1.506.0"
            }
          }
        }
      ],
      "certificateStartDate": "2022-08-03",
      "certificateEndDate": "2023-01-07",
      "object": "LA CONTRATACIÓN Y SUBCONTRATACIÓN DE TRABAJOS DE SEÑALIZACIÓN HORIZONTAL Y VERTICAL, LA COMPRA-VENTA, EXPORTACIÓN, IMPORTACIÓN Y COMERCIALIZACIÓN DE MATERIALES DE SEÑALIZACIÓN, TANTO POR CUENTA PROPIA COMO AJENA, TANTO EN OBRA PÚBLICA COMO EN PRIVADA",
      "mainEntityOfPage": "https://www.contratacion.euskadi.eus/webkpe00-kperoc/es/ac71aBusquedaRegistrosWar/empresa/01859",
      "_links": {
        "self": {
          "name": "SEÑALIZACIONES EDER, S.A.",
          "href": "https://api.euskadi.eus/procurements/companies/01859"
        }
      }
    },
    {
      "name": "MARIA ISABEL MORENO MARTINEZ",
      "registrationNumber": "08125",
      "identificationNumber": "15366683S",
      "address": "Calle Erguin, 3",
      "location": {
        "postalCode": "20500",
        "municipality": "Arrasate / Mondragón",
        "county": "Gipuzkoa",
        "municipalityId": "055",
        "countyId": "20"
      },
      "economicActivities": [
        {
          "id": "1.673.2",
          "name": "Otros cafés y bares",
          "_links": {
            "self": {
              "name": "Otros cafés y bares",
              "href": "https://api.euskadi.eus/procurements/companies/economic-activities/1.673.2"
            }
          }
        }
      ],
      "certificateStartDate": "2022-08-03",
      "certificateEndDate": "2023-01-30",
      "mainEntityOfPage": "https://www.contratacion.euskadi.eus/webkpe00-kperoc/es/ac71aBusquedaRegistrosWar/empresa/08125",
      "_links": {
        "self": {
          "name": "MARIA ISABEL MORENO MARTINEZ",
          "href": "https://api.euskadi.eus/procurements/companies/08125"
        }
      }
    },
    {
      "name": "WEMA CORP., S.L.",
      "registrationNumber": "08081",
      "identificationNumber": "B71380075",
      "address": "Santos Angel Ochandategui 2, 3B",
      "location": {
        "postalCode": "31012",
        "municipality": "Pamplona/Iruña",
        "county": "Navarra",
        "municipalityId": "201",
        "countyId": "31"
      },
      "economicActivities": [
        {
          "id": "1.933.9",
          "name": "Otras actividades de enseñanza tales como idiomas, mecanografía",
          "_links": {
            "self": {
              "name": "Otras actividades de enseñanza tales como idiomas, mecanografía",
              "href": "https://api.euskadi.eus/procurements/companies/economic-activities/1.933.9"
            }
          }
        }
      ],
      "certificateStartDate": "2022-08-03",
      "certificateEndDate": "2023-01-03",
      "object": "LA INTERMEDIACIÓN EN LA PRESTACIÓN DE LOS SERVICIOS RELACIONADOS CON LA EDUCACIÓN Y LAS ACTIVIDADES RELACIONADAS CON LA MISMA. (ACTIVIDAD PRINCIPAL, CÓDIGO CNAE 8559: OTRA EDUCACIÓN N.C.O.P.). LA ELABORACIÓN, COMPRA, VENTA, COMERCIALIZACIÓN Y DISTRIBUCIÓN AL POR MAYOR Y AL POR MENOR, DE TODA CLASE DE PRODUCTOS RELACIONADOS CON LA EDUCACIÓN.",
      "mainEntityOfPage": "https://www.contratacion.euskadi.eus/webkpe00-kperoc/es/ac71aBusquedaRegistrosWar/empresa/08081",
      "_links": {
        "self": {
          "name": "WEMA CORP., S.L.",
          "href": "https://api.euskadi.eus/procurements/companies/08081"
        }
      }
    },
    {
      "name": "SUMINISTROS GERIHOTEL, S.L.",
      "registrationNumber": "08110",
      "identificationNumber": "B91975573",
      "address": "AVDA. PRINICPE DE ASTURIAS, 17 - OF. 6",
      "location": {
        "postalCode": "41500",
        "municipality": "Alcalá de Guadaíra",
        "county": "Sevilla",
        "municipalityId": "004",
        "countyId": "41"
      },
      "economicActivities": [
        {
          "id": "1.504.8",
          "name": "Montajes metálicos e instalaciones industriales completas",
          "_links": {
            "self": {
              "name": "Montajes metálicos e instalaciones industriales completas",
              "href": "https://api.euskadi.eus/procurements/companies/economic-activities/1.504.8"
            }
          }
        },
        {
          "id": "1.505.5",
          "name": "Carpintería y cerrajería",
          "_links": {
            "self": {
              "name": "Carpintería y cerrajería",
              "href": "https://api.euskadi.eus/procurements/companies/economic-activities/1.505.5"
            }
          }
        },
        {
          "id": "1.613.1",
          "name": "Venta al por mayor de productos textiles, confección calzado y artículos cuero",
          "_links": {
            "self": {
              "name": "Venta al por mayor de productos textiles, confección calzado y artículos cuero",
              "href": "https://api.euskadi.eus/procurements/companies/economic-activities/1.613.1"
            }
          }
        },
        {
          "id": "1.615.2",
          "name": "Venta al por mayor de muebles",
          "_links": {
            "self": {
              "name": "Venta al por mayor de muebles",
              "href": "https://api.euskadi.eus/procurements/companies/economic-activities/1.615.2"
            }
          }
        },
        {
          "id": "1.619.2",
          "name": "Venta al por mayor de aparatos e instrumentos médicos, ortopédicos, ópticos",
          "_links": {
            "self": {
              "name": "Venta al por mayor de aparatos e instrumentos médicos, ortopédicos, ópticos",
              "href": "https://api.euskadi.eus/procurements/companies/economic-activities/1.619.2"
            }
          }
        },
        {
          "id": "1.631",
          "name": "Intermediarios del comercio",
          "_links": {
            "self": {
              "name": "Intermediarios del comercio",
              "href": "https://api.euskadi.eus/procurements/companies/economic-activities/1.631"
            }
          }
        },
        {
          "id": "1.844",
          "name": "Servicios de publicidad, relaciones públicas y similares",
          "_links": {
            "self": {
              "name": "Servicios de publicidad, relaciones públicas y similares",
              "href": "https://api.euskadi.eus/procurements/companies/economic-activities/1.844"
            }
          }
        }
      ],
      "certificateStartDate": "2022-08-03",
      "certificateEndDate": "2023-01-27",
      "object": "1. CONSTRUCCIÓN, INSTALACIONES Y MANTENIMIENTO. 2.  COMERCIO AL POR MAYOR Y AL POR MENOR.  DISTRIBUCIÓN COMERCIAL. IMPORTACIÓN Y EXPORTACIÓN. 3. TURISMO, HOSTELERÍA Y RESTAURACIÓN. 4. TRANSPORTE Y ALMACENAMIENTO. 5. INFORMACIÓN Y COMUNICACIONES. 6. INFORMÁTICA, TELECOMUNICACIONES Y OFIMÁTICA. 7. ENERGÍAS ALTERNATIVAS. 8. COMPRAVENTA Y REPARACIÓN DE VEHÍCULOS. REPARACIÓN Y MANTENIMIENTO DE INSTALACIONES Y MAQUINARIA. 9. INVESTIGACIÓN, DESARROLLO E INNOVACIÓN. 10. ACTIVIDADES CIENTÍFICAS Y TÉCNICAS. 11. EL COMERCIO AL POR MAYOR Y MENOR DE EQUIPOS DE DESCANSO COMPLETOS, MOBILIARIO, MOBILIARIO URBANO, EQUIPAMIENTOS DE HOTELES. INSTALACIÓN, TRANSPORTE Y DISTRIBUCIÓN DE LOS CITADOS EQUIPOS, ARTÍCULOS Y MOBILIARIO. ",
      "mainEntityOfPage": "https://www.contratacion.euskadi.eus/webkpe00-kperoc/es/ac71aBusquedaRegistrosWar/empresa/08110",
      "_links": {
        "self": {
          "name": "SUMINISTROS GERIHOTEL, S.L.",
          "href": "https://api.euskadi.eus/procurements/companies/08110"
        }
      }
    },
    {
      "name": "CARPINTERIA PERIANES Y CALLEJA SL",
      "registrationNumber": "08234",
      "identificationNumber": "B01553494",
      "address": "Calle Portal de Gamarra, 44",
      "location": {
        "postalCode": "01013",
        "municipality": "Vitoria-Gasteiz",
        "county": "Araba/Álava",
        "municipalityId": "059",
        "countyId": "01"
      },
      "economicActivities": [
        {
          "id": "1.314.1",
          "name": "Carpintería metálica",
          "_links": {
            "self": {
              "name": "Carpintería metálica",
              "href": "https://api.euskadi.eus/procurements/companies/economic-activities/1.314.1"
            }
          }
        }
      ],
      "certificateStartDate": "2022-08-03",
      "certificateEndDate": "2023-01-27",
      "object": "LA FABRICACIÓN, CONSTRUCCIÓN, MONTAJE, MANTENIMIENTO Y COMERCIALIZACIÓN DE TODO TIPO DE CARPINTERÍA METÁLICA DE ALUMINIO, PVC, HIERRO, COBRE, LATÓN, BRONCE Y ACERO INOXIDABLE, PARA SER EMPLEADOS EN LA CONSTRUCCIÓN, INDUSTRIA, SECTOR AGRARIO, DECORACIÓN Y HOGAR. CONSIDERÁNDOSE COMO CARPINTERÍA METÁLICA LOS TRABAJOS DE PUERTAS Y REJAS DE HIERRO, MAMPARAS, CERRAMIENTOS, ESCALERAS, BARANDILLAS, CELOSÍAS, VENTANAS, TOLDOS, PERSIANAS Y TRABAJOS COMO CONSTRUCCIONES DE ESTRUCTURAS METÁLICAS Y NAVES INDUSTRIALES. LA INTERMEDIACIÓN, ORGANIZACIÓN Y COORDINACIÓN DE GREMIOS DE LA CONSTRUCCIÓN. LA COMPRAVENTA, ARRENDAMIENTO, ADMINISTRACIÓN, GESTIÓN Y EXPLOTACIÓN DE TODO TIPO DE BIENES INMUEBLES POR CUALQUIER TITULO. LA PROMOCIÓN Y REALIZACIÓN DE TODA CLASE DE ORAS DE CONSTRUCCIÓN, MEJORA, CONSERVACIÓN, RESTAURACIÓN, REHABILITACIÓN, TANTO PRIVADAS COMO PUBLICAS, POR CUENTA PROPIA O AJENA. LA REALIZACIÓN DE OBRAS Y CONSTRUCCIONES DE TODO TIPO, CONTRATAS DE OBRAS PÚBLICAS O PARTICULARES, CONTRATOS DE EJECUCIÓN DE OBRAS Y SERVICIOS, LA ADQUISICIÓN, USO, ARRENDAMIENTO, VENTA Y ENAJENACIÓN DE FINCAS, TERRENOS, LOCALES Y SOLARES, SU PARCELACIÓN Y URBANIZACIÓN, LA PROMOCIÓN Y CONSTITUCIÓN DE COMUNIDADES DE PROPIETARIOS O CUALQUIER OTRA FORMA DE ASOCIACIÓN O SOCIEDADES CON FINES DE EDIFICACIÓN Y URBANIZACIÓN.",
      "mainEntityOfPage": "https://www.contratacion.euskadi.eus/webkpe00-kperoc/es/ac71aBusquedaRegistrosWar/empresa/08234",
      "_links": {
        "self": {
          "name": "CARPINTERIA PERIANES Y CALLEJA SL",
          "href": "https://api.euskadi.eus/procurements/companies/08234"
        }
      }
    },
    {
      "name": "LANDA-OCHANDIANO ARQUITECTOS, S.L.",
      "registrationNumber": "07681",
      "identificationNumber": "B01305655",
      "address": "Iruña Kalea, 12, 2d",
      "location": {
        "postalCode": "48014",
        "municipality": "Elorrio",
        "county": "Bizkaia",
        "municipalityId": "032",
        "countyId": "48"
      },
      "economicActivities": [
        {
          "id": "1.843.2",
          "name": "Servicios técnicos de arquitectura y urbanismo",
          "_links": {
            "self": {
              "name": "Servicios técnicos de arquitectura y urbanismo",
              "href": "https://api.euskadi.eus/procurements/companies/economic-activities/1.843.2"
            }
          }
        }
      ],
      "certificateStartDate": "2022-08-03",
      "certificateEndDate": "2023-01-27",
      "object": "LA PRESTACIÓN DE SERVICIOS PROPIOS DE LA ACTIVIDAD DE LA ARQUITECTURA. COMPRAVENTA, ALQUILER, ARRENDAMIENTO, CONSTRUCCIÓN Y PROMOCIÓN DE TODA CLASE DE INMUEBLES. COMPRAVENTA E INTERMEDIACIÓN EN TODA CLASE DE OPERACIONES RELACIONADAS CON MATERIAL DE CONSTRUCCIÓN, DECORACIÓN, ETC. ASESORAMIENTO A EMPRESAS O PARTICULARES EN MATERIAS RELACIONADAS CON LA CONSTRUCCIÓN O LA EDIFICACIÓN",
      "mainEntityOfPage": "https://www.contratacion.euskadi.eus/webkpe00-kperoc/es/ac71aBusquedaRegistrosWar/empresa/07681",
      "_links": {
        "self": {
          "name": "LANDA-OCHANDIANO ARQUITECTOS, S.L.",
          "href": "https://api.euskadi.eus/procurements/companies/07681"
        }
      }
    }
  ]
}