{
  "totalItems": 9042,
  "totalPages": 905,
  "currentPage": 15,
  "itemsOfPage": 10,
  "items": [
    {
      "name": "PROMOCIONES ASAETXE, S.L.",
      "registrationNumber": "07583",
      "identificationNumber": "B20853750",
      "address": "Calle Txofre,9 6ºA",
      "location": {
        "postalCode": "20001",
        "municipality": "Donostia / San Sebastián",
        "county": "Gipuzkoa",
        "municipalityId": "069",
        "countyId": "20"
      },
      "economicActivities": [
        {
          "id": "1.501.3",
          "name": "Albañilería y pequeños trabajos de construcción en general",
          "_links": {
            "self": {
              "name": "Albañilería y pequeños trabajos de construcción en general",
              "href": "https://api.euskadi.eus/procurements/companies/economic-activities/1.501.3"
            }
          }
        }
      ],
      "certificateStartDate": "2026-02-05",
      "certificateEndDate": "2026-07-29",
      "object": "LA PROMOCIÓN DE TODO TIPO DE EDIFICACIONES; OBRAS DE CONSTRUCCIÓN EN GENERAL Y LA COMPRAVENTA Y ARRENDAMIENTO DE TERRENOS, SOLARES Y TODO TIPO DE BIENES INMUEBLES",
      "mainEntityOfPage": "https://www.contratacion.euskadi.eus/webkpe00-kperoc/es/ac71aBusquedaRegistrosWar/empresa/07583",
      "_links": {
        "self": {
          "name": "PROMOCIONES ASAETXE, S.L.",
          "href": "https://api.euskadi.eus/procurements/companies/07583"
        }
      }
    },
    {
      "name": "BOMBAS E INSTALACIONES GONZÁLEZ, S.L.",
      "registrationNumber": "07268",
      "identificationNumber": "B75108639",
      "address": "C/ Perkaiztegi nº 8 - 3 B",
      "location": {
        "postalCode": "20120",
        "municipality": "Hernani",
        "county": "Gipuzkoa",
        "municipalityId": "040",
        "countyId": "20"
      },
      "economicActivities": [
        {
          "id": "1.504.2",
          "name": "Instalaciones de fontanería",
          "_links": {
            "self": {
              "name": "Instalaciones de fontanería",
              "href": "https://api.euskadi.eus/procurements/companies/economic-activities/1.504.2"
            }
          }
        },
        {
          "id": "1.615.3",
          "name": "Venta al por mayor de aparatos electrodomésticos y ferretería",
          "_links": {
            "self": {
              "name": "Venta al por mayor de aparatos electrodomésticos y ferretería",
              "href": "https://api.euskadi.eus/procurements/companies/economic-activities/1.615.3"
            }
          }
        }
      ],
      "certificateStartDate": "2026-02-05",
      "certificateEndDate": "2026-07-28",
      "object": "TODA CLASE  DE ACTIVIDADES RELATIVAS A LA VENTA E INSTALACIÓN DE EQUIPOS DE BOMBEO HIDRÁULICO",
      "mainEntityOfPage": "https://www.contratacion.euskadi.eus/webkpe00-kperoc/es/ac71aBusquedaRegistrosWar/empresa/07268",
      "_links": {
        "self": {
          "name": "BOMBAS E INSTALACIONES GONZÁLEZ, S.L.",
          "href": "https://api.euskadi.eus/procurements/companies/07268"
        }
      }
    },
    {
      "name": "HEDAPEN GLOBAL SERVICES, S.L.",
      "registrationNumber": "08606",
      "identificationNumber": "B95522082",
      "address": "Parque Científico y Tecnológico de Bizkaia, Ibaizabal bidea 101",
      "location": {
        "postalCode": "48170",
        "municipality": "Zamudio",
        "county": "Bizkaia",
        "municipalityId": "905",
        "countyId": "48"
      },
      "economicActivities": [
        {
          "id": "1.849.3",
          "name": "Servicios de traducción y similares",
          "_links": {
            "self": {
              "name": "Servicios de traducción y similares",
              "href": "https://api.euskadi.eus/procurements/companies/economic-activities/1.849.3"
            }
          }
        },
        {
          "id": "1.849.9",
          "name": "Otros servicios independientes n.c.o.p",
          "_links": {
            "self": {
              "name": "Otros servicios independientes n.c.o.p",
              "href": "https://api.euskadi.eus/procurements/companies/economic-activities/1.849.9"
            }
          }
        }
      ],
      "certificateStartDate": "2026-02-05",
      "certificateEndDate": "2026-06-18",
      "object": "1. LA EXPLOTACIÓN DE SERVICIOS GLOBALES DE APOYO A LA CAPACITACIÓN Y PROYECCIÓN DE ORGANIZACIONES, PROMOVIENDO LA RELACIÓN A LARGO PLAZO/ESTABLE CON SOCIOS ESTRATÉGICOS. EN DEFINITIVA, PROPORCIONA SERVICIOS DE APOYO A LA EXPANSIÓN E INNOVACIÓN DE ORGANIZACIONES Y A LA PROMOCIÓN (CULTURA INFORMATIVA Y PLAN DE COMUNICACIÓN) DE LAS MISMAS. 2. LA COMPRA, CESIÓN, TENENCIA, DISFRUTE, ADMINISTRACIÓN, GESTIÓN Y NEGOCIACIÓN EN GENERAL DE TODA CLASE DE TÍTULOS Y VALORES MOBILIARIOS, COTIZADOS EN BOLSA O NO, SIN INCIDIR EN LAS OPERACIONES A QUE SE REFIERE LA LEY 46/1984, DE INVERSIONES COLECTIVAS. 3. LA PROMOCIÓN Y CONSTRUCCIÓN DE TODA CLASE DE OBRAS, TANTO PROPIAS COMO PARA TERCEROS, YA SEAN ÉSTAS PÚBLICAS COMO PRIVADAS Y, EN ESPECIAL, LA REDACCIÓN DE PROYECTOS Y ELABORACIÓN DE ESTUDIOS, CONSTRUCCIÓN, DECORACIÓN, USO, ARRENDAMIENTO Y VENTA DE EDIFICACIONES, LIBRES Y DE PROTECCIÓN OFICIAL, ASÍ COMO LA ADQUISICIÓN DE TERRENOS Y FINCAS, SU PARCELACIÓN Y URBANIZACIÓN, USO, ARRENDAMIENTO Y VENTA DE LAS MISMAS, Y ALLANAMIENTOS, DESMONTES, CIMENTACIONES Y ENCOFRADOS DE TODAS CLASES. 4. EL ALMACENAMIENTO, DEPÓSITO, DISTRIBUCIÓN, IMPORTACIÓN, EXPORTACIÓN Y COMERCIALIZACIÓN EN GENERAL DE MERCANCÍAS, PRODUCTOS Y MATERIALES DE CONSTRUCCIÓN, Y DE MAQUINARIA INDUSTRIAL. 5. EL MANTENIMIENTO, REHABILITACIÓN Y ACONDICIONAMIENTO DE EDIFICIOS.",
      "mainEntityOfPage": "https://www.contratacion.euskadi.eus/webkpe00-kperoc/es/ac71aBusquedaRegistrosWar/empresa/08606",
      "_links": {
        "self": {
          "name": "HEDAPEN GLOBAL SERVICES, S.L.",
          "href": "https://api.euskadi.eus/procurements/companies/08606"
        }
      }
    },
    {
      "name": "BALEUKO, S.L.",
      "registrationNumber": "02092",
      "identificationNumber": "B48565832",
      "address": "ASKATASUN ETORBIDEA, 23 BAJO",
      "location": {
        "postalCode": "48200",
        "municipality": "Durango",
        "county": "Bizkaia",
        "municipalityId": "027",
        "countyId": "48"
      },
      "economicActivities": [
        {
          "id": "1.961.1",
          "name": "Producción de películas cinematográficas (incluso vídeos)",
          "_links": {
            "self": {
              "name": "Producción de películas cinematográficas (incluso vídeos)",
              "href": "https://api.euskadi.eus/procurements/companies/economic-activities/1.961.1"
            }
          }
        },
        {
          "id": "1.965.4",
          "name": "Empresas de espectáculos",
          "_links": {
            "self": {
              "name": "Empresas de espectáculos",
              "href": "https://api.euskadi.eus/procurements/companies/economic-activities/1.965.4"
            }
          }
        },
        {
          "id": "1.989.2",
          "name": "Servicios de organización de congresos, asambleas y similares",
          "_links": {
            "self": {
              "name": "Servicios de organización de congresos, asambleas y similares",
              "href": "https://api.euskadi.eus/procurements/companies/economic-activities/1.989.2"
            }
          }
        }
      ],
      "certificateStartDate": "2026-02-05",
      "certificateEndDate": "2026-08-02",
      "classification": [
        {
          "id": "S",
          "name": "Servicios",
          "groups": [
            {
              "id": "L",
              "subgroups": [
                {
                  "id": "05",
                  "name": "Organización y promoción de congresos, ferias y exposiciones",
                  "categories": [
                    {
                      "id": "4",
                      "name": "Desde 600.001 Hasta 1.1200.000",
                      "_links": {
                        "self": {
                          "name": "Desde 600.001 Hasta 1.1200.000",
                          "href": "https://api.euskadi.eus/procurements/companies/types/S/categories/4"
                        }
                      }
                    }
                  ],
                  "_links": {
                    "self": {
                      "name": "Organización y promoción de congresos, ferias y exposiciones",
                      "href": "https://api.euskadi.eus/procurements/companies/types/S/groups/L/subgroups/05"
                    }
                  }
                }
              ],
              "_links": {
                "self": {
                  "href": "https://api.euskadi.eus/procurements/companies/types/S/groups/L"
                }
              }
            }
          ],
          "_links": {
            "self": {
              "name": "Servicios",
              "href": "https://api.euskadi.eus/procurements/companies/types/S"
            }
          }
        }
      ],
      "object": "LA PRESTACIÓN DE SERVICIOS DE PUBLICIDAD, MEDIANTE ANUNCIOS, CARTELES, FOLLETOS Y PELÍCULAS PUBLICITARIAS, A TRAVÉS DE LA PRENSA, RADIO, TELEVISIÓN, PUBLICIDAD AÉREA U OTROS MEDIOS PUBLICITARIOS; ESTUDIOS DE PUBLICIDAD; RELACIONES PÚBLICAS, PROMOCIÓN DE VENTAS PUBLICITARIAS, REGALOS Y RECLAMOS PUBLICITARIOS; Y LA PRODUCCIÓN Y COMERCIALIZACIÓN DE PELÍCULAS CINEMATOGRÁFICAS Y VÍDEOS. ORGANIZACIÓN Y PROMOCIÓN DE CONGRESOS, FERIAS Y EXPOSICIONES; ESTUDIO, ORGANIZACIÓN, PROGRAMACIÓN, REALIZACIÓN Y EJECUCIÓN AL AIRE LIBRE O EN LOCALES CERRADOS DE ESPECTÁCULOS CINEMATOGRÁFICOS, TEATRALES, DE DANZA, MÚSICA, DEPORTIVOS, CULTURALES Y CUALQUIER OTRO DE ANÁLOGA NATURALEZA DESTINADOS AL ENTRETENIMIENTO Y EL OCIO.",
      "mainEntityOfPage": "https://www.contratacion.euskadi.eus/webkpe00-kperoc/es/ac71aBusquedaRegistrosWar/empresa/02092",
      "_links": {
        "self": {
          "name": "BALEUKO, S.L.",
          "href": "https://api.euskadi.eus/procurements/companies/02092"
        }
      }
    },
    {
      "name": "ALANOR ZERBITZUAK, S.L.",
      "registrationNumber": "08354",
      "identificationNumber": "B42911826",
      "address": "C/Lorenzo Areilza, nº 10, 2ºA",
      "location": {
        "postalCode": "48993",
        "municipality": "Getxo",
        "county": "Bizkaia",
        "municipalityId": "044",
        "countyId": "48"
      },
      "economicActivities": [
        {
          "id": "1.692",
          "name": "Reparación de maquinaria industrial",
          "_links": {
            "self": {
              "name": "Reparación de maquinaria industrial",
              "href": "https://api.euskadi.eus/procurements/companies/economic-activities/1.692"
            }
          }
        }
      ],
      "certificateStartDate": "2026-02-05",
      "certificateEndDate": "2026-07-13",
      "object": "A) PRESTACIÓN DE SERVICIOS DE MANTENIMIENTO, REPARACIÓN E INSTALACIÓN DE TODO TIPO DE MAQUINARIA. B) PRESTACIÓN DE SERVICIOS DE CONSULTORÍA Y ASESORAMIENTO DE EMPRESAS, CLUBES DEPORTIVOS Y PARTICULARES, EN EL ÁMBITO DEL DEPORTE. C) LA ADQUISICIÓN, TENENCIA, DIRECCIÓN Y GESTIÓN DE ACCIONES O PARTICIPACIONES SOCIALES, Y DEMÁS ACTIVOS MOBILIARIOS, CON FINALIDAD DE DIRIGIR Y ASESORAR A SOCIEDADES PARTICIPADAS, APLICANDO LA ORDENACIÓN DE MEDIOS MATERIALES Y PERSONALES POR CUENTA PROPIA, ASÍ COMO LA COLOCACIÓN DE RECURSOS FINANCIEROS DERIVADOS DE LAS MISMAS.",
      "mainEntityOfPage": "https://www.contratacion.euskadi.eus/webkpe00-kperoc/es/ac71aBusquedaRegistrosWar/empresa/08354",
      "_links": {
        "self": {
          "name": "ALANOR ZERBITZUAK, S.L.",
          "href": "https://api.euskadi.eus/procurements/companies/08354"
        }
      }
    },
    {
      "name": "ELECTRO VIZCAYA, S.A.",
      "registrationNumber": "06397",
      "identificationNumber": "A48115000",
      "address": "Maria Diaz de Haro, 57",
      "location": {
        "postalCode": "48010",
        "municipality": "Bilbao",
        "county": "Bizkaia",
        "municipalityId": "020",
        "countyId": "48"
      },
      "economicActivities": [
        {
          "id": "1.617.9",
          "name": "Venta al por mayor interindustrial de otros productos n.c.o.p",
          "_links": {
            "self": {
              "name": "Venta al por mayor interindustrial de otros productos n.c.o.p",
              "href": "https://api.euskadi.eus/procurements/companies/economic-activities/1.617.9"
            }
          }
        }
      ],
      "certificateStartDate": "2026-02-05",
      "certificateEndDate": "2026-07-30",
      "object": "LA COMPRAVENTA AL POR MAYOR Y ALMACENAJE DE TODA CLASE DE MATERIAL ELÉCTRICO Y ELECTRÓNICO, ASÍ COMO LAS OPERACIONES DE LÍCITO COMERCIO RELACIONADAS CON EL MISMO",
      "mainEntityOfPage": "https://www.contratacion.euskadi.eus/webkpe00-kperoc/es/ac71aBusquedaRegistrosWar/empresa/06397",
      "_links": {
        "self": {
          "name": "ELECTRO VIZCAYA, S.A.",
          "href": "https://api.euskadi.eus/procurements/companies/06397"
        }
      }
    },
    {
      "name": "PANIFICADORA AMAYA, S.A.",
      "registrationNumber": "09978",
      "identificationNumber": "A31010010",
      "address": "POLIGONO ONDARRIA, PAB. 6",
      "location": {
        "postalCode": "31800",
        "municipality": "Altsasu/Alsasua",
        "county": "Navarra",
        "municipalityId": "010",
        "countyId": "31"
      },
      "economicActivities": [
        {
          "id": "1.419.1",
          "name": "Industria del pan y de la bollería",
          "_links": {
            "self": {
              "name": "Industria del pan y de la bollería",
              "href": "https://api.euskadi.eus/procurements/companies/economic-activities/1.419.1"
            }
          }
        },
        {
          "id": "1.419.2",
          "name": "Industrias de la bollería, pastelería y galletas",
          "_links": {
            "self": {
              "name": "Industrias de la bollería, pastelería y galletas",
              "href": "https://api.euskadi.eus/procurements/companies/economic-activities/1.419.2"
            }
          }
        },
        {
          "id": "1.644.2",
          "name": "Despachos de pan, panes especiales y bollería",
          "_links": {
            "self": {
              "name": "Despachos de pan, panes especiales y bollería",
              "href": "https://api.euskadi.eus/procurements/companies/economic-activities/1.644.2"
            }
          }
        },
        {
          "id": "1.647.1",
          "name": "Venta al por menor de productos alimenticios y bebidas con vendedor",
          "_links": {
            "self": {
              "name": "Venta al por menor de productos alimenticios y bebidas con vendedor",
              "href": "https://api.euskadi.eus/procurements/companies/economic-activities/1.647.1"
            }
          }
        }
      ],
      "certificateStartDate": "2026-02-05",
      "certificateEndDate": "2026-08-05",
      "object": "A).-ELABORACIÓN Y VENTA DE HARINA, PAN, CEREALES PANIFICABLES, SU COMERCIO Y EXPLOTACIÓN. B).- ELABORACIÓN Y VENTA DE PRODUCTOS DE PASTELERÍA Y REPOSTERÍA.",
      "mainEntityOfPage": "https://www.contratacion.euskadi.eus/webkpe00-kperoc/es/ac71aBusquedaRegistrosWar/empresa/09978",
      "_links": {
        "self": {
          "name": "PANIFICADORA AMAYA, S.A.",
          "href": "https://api.euskadi.eus/procurements/companies/09978"
        }
      }
    },
    {
      "name": "BARATZE TROBIKA, S.L.",
      "registrationNumber": "06780",
      "identificationNumber": "B95541587",
      "address": "POL. TROBIKA - LARRAGANE BIDEA, 1",
      "location": {
        "postalCode": "48100",
        "municipality": "Mungia",
        "county": "Bizkaia",
        "municipalityId": "069",
        "countyId": "48"
      },
      "economicActivities": [
        {
          "id": "1.654.5",
          "name": "Venta al por menor de toda clase de maquinaría",
          "_links": {
            "self": {
              "name": "Venta al por menor de toda clase de maquinaría",
              "href": "https://api.euskadi.eus/procurements/companies/economic-activities/1.654.5"
            }
          }
        },
        {
          "id": "1.692",
          "name": "Reparación de maquinaria industrial",
          "_links": {
            "self": {
              "name": "Reparación de maquinaria industrial",
              "href": "https://api.euskadi.eus/procurements/companies/economic-activities/1.692"
            }
          }
        }
      ],
      "certificateStartDate": "2026-02-05",
      "certificateEndDate": "2026-07-29",
      "object": "LA COMPRAVENTA AL POR MENOR DE TODA CLASE DE MAQUINARIA AGRÍCOLA Y MAQUINARIA Y ÚTILES DE JARDINERÍA, ASÍ COMO EL MANTENIMIENTO DE DICHA MAQUINARIA",
      "mainEntityOfPage": "https://www.contratacion.euskadi.eus/webkpe00-kperoc/es/ac71aBusquedaRegistrosWar/empresa/06780",
      "_links": {
        "self": {
          "name": "BARATZE TROBIKA, S.L.",
          "href": "https://api.euskadi.eus/procurements/companies/06780"
        }
      }
    },
    {
      "name": "YTANTOS GRAFF, S.L.",
      "registrationNumber": "03032",
      "identificationNumber": "B20791406",
      "address": "PORTUETXE, 23 B EDIFI. CEMEI 4º OFICINA 4",
      "location": {
        "postalCode": "20018",
        "municipality": "Donostia / San Sebastián",
        "county": "Gipuzkoa",
        "municipalityId": "069",
        "countyId": "20"
      },
      "economicActivities": [
        {
          "id": "1.844",
          "name": "Servicios de publicidad, relaciones públicas y similares",
          "_links": {
            "self": {
              "name": "Servicios de publicidad, relaciones públicas y similares",
              "href": "https://api.euskadi.eus/procurements/companies/economic-activities/1.844"
            }
          }
        }
      ],
      "certificateStartDate": "2026-02-05",
      "certificateEndDate": "2026-07-25",
      "object": "LA PRESTACIÓN DE SERVICIOS DE PUBLICIDAD, MEDIANTE ANUNCIOS, CARTELES, FOLLETOS, PELÍCULAS PUBLICITARIAS, ETC.,  A TRAVÉS DE DISTINTOS MEDIOS, PRENSA, RADIO, TELEVISIÓN, PUBLICIDAD AÉREA, REDES INFORMATIVAS Y DE TELECOMUNICACIONES, SISTEMAS MULTIMEDIA U OTROS MEDIOS. IGUALMENTE COMO AGENCIA DE PUBLICIDAD, AÉREA, REDES INFORMÁTICAS Y DE DE TELECOMUNICACIONES, SISTEMAS MULTIMEDIA U OTROS MEDIOS. IGUALMENTE COMO AGENCIA DE PUBLICIDAD A LA CREACIÓN Y DIFUSIÓN DE ANUNCIOS O CAMPAÑAS DE INFORMACIÓN PUBLICITARIAS, PUBLICIDAD EXTERIOR, PUBLICIDAD DIRECTA Y MARKETING DIRECTO, DISTRIBUIDORES Y CENTRALES DE COMPRAS, ESTUDIOS DE PUBLICIDAD, ETC. TAMBIÉN DEDICACIÓN A LAS RELACIONES PÚBLICAS, PROMOCIÓN DE VENTAS PUBLICITARIAS, REGALOS Y RECLAMOS PUBLICITARIOS Y, EN GENERAL CUALQUIER SERVICIO INDEPENDIENTE DE PUBLICIDAD. ADEMÁS LLEVARÁ A CABO ACTIVIDADES EMPRESARIALES DE ARTES GRÁFICAS Y SUS ACTIVIDADES ANEXAS, LA EDICIÓN DE REVISTAS, PERIÓDICOS, LIBROS Y OTRAS EDICIONES",
      "mainEntityOfPage": "https://www.contratacion.euskadi.eus/webkpe00-kperoc/es/ac71aBusquedaRegistrosWar/empresa/03032",
      "_links": {
        "self": {
          "name": "YTANTOS GRAFF, S.L.",
          "href": "https://api.euskadi.eus/procurements/companies/03032"
        }
      }
    },
    {
      "name": "URIKER S.L",
      "registrationNumber": "05617",
      "identificationNumber": "B48473516",
      "address": "PARQUE TECNOLIGOC EDIF 205 BAJO ",
      "location": {
        "postalCode": "48170",
        "municipality": "Zamudio",
        "county": "Bizkaia",
        "municipalityId": "905",
        "countyId": "48"
      },
      "economicActivities": [
        {
          "id": "1.843.9",
          "name": "Otros servicios técnicos n.c.o.p",
          "_links": {
            "self": {
              "name": "Otros servicios técnicos n.c.o.p",
              "href": "https://api.euskadi.eus/procurements/companies/economic-activities/1.843.9"
            }
          }
        }
      ],
      "certificateStartDate": "2026-02-05",
      "certificateEndDate": "2026-07-29",
      "object": "LAS ACTIVIDADES DE LABORATORIO DE ANÁLISIS Y ESTUDIOS MEDIOAMBIENTALES, CURSOS DE FORMACIÓN Y ASISTENCIA TÉCNICA, ASÍ COMO EL ASESORAMIENTO EN DICHOS TEMAS MEDIOAMBIENTALES. LOS SERVICIOS DE MANTENIMIENTO DE LAS REDES DE AGUAS, TANTO DE ABASTECIMIENTO COMO DE SANEAMIENTO, ASÍ COMO EL MANTENIMIENTO DE ESTACIONES DEPURADORAS, EN MATERIA DE CONTROLES ANALÍTICOS EN SUS ASPECTOS QUÍMICOS, FÍSICOS Y MICROBIOLÓGICOS, ASÍ COMO A LOS SERVICIOS DE CONTROL DE AGUAS DE CUALQUIER TIPO (DE PROCESO, ABASTECIMIENTO, VERTIDO, ETC.), LAS EMISIONES ATMOSFÉRICAS, EL CONTROL Y CARACTERIZACIÓN DE RESIDUOS, TIERRAS O SÓLIDOS, A CUALQUIER TIPO DE ENTIDAD PÚBLICA O PRIVADA",
      "mainEntityOfPage": "https://www.contratacion.euskadi.eus/webkpe00-kperoc/es/ac71aBusquedaRegistrosWar/empresa/05617",
      "_links": {
        "self": {
          "name": "URIKER S.L",
          "href": "https://api.euskadi.eus/procurements/companies/05617"
        }
      }
    }
  ]
}