{
  "totalItems": 9042,
  "totalPages": 905,
  "currentPage": 700,
  "itemsOfPage": 10,
  "items": [
    {
      "name": "ENTRETENIMIENTO AUTOMÓVILES DE VIZCAYA, S.A.U.",
      "registrationNumber": "03134",
      "identificationNumber": "A48045629",
      "address": "Bº ARRIANDI, 12",
      "location": {
        "postalCode": "48215",
        "municipality": "Iurreta",
        "county": "Bizkaia",
        "municipalityId": "910",
        "countyId": "48"
      },
      "economicActivities": [
        {
          "id": "1.615.1",
          "name": "Venta al por mayor de vehículos, motocicletas, bicicletas y sus accesorios",
          "_links": {
            "self": {
              "name": "Venta al por mayor de vehículos, motocicletas, bicicletas y sus accesorios",
              "href": "https://api.euskadi.eus/procurements/companies/economic-activities/1.615.1"
            }
          }
        },
        {
          "id": "1.691.2",
          "name": "Reparación de vehículos automóviles, bicicletas y otros vehículos",
          "_links": {
            "self": {
              "name": "Reparación de vehículos automóviles, bicicletas y otros vehículos",
              "href": "https://api.euskadi.eus/procurements/companies/economic-activities/1.691.2"
            }
          }
        },
        {
          "id": "1.751.5",
          "name": "Engrase y lavado de vehículos",
          "_links": {
            "self": {
              "name": "Engrase y lavado de vehículos",
              "href": "https://api.euskadi.eus/procurements/companies/economic-activities/1.751.5"
            }
          }
        }
      ],
      "certificateStartDate": "2012-03-26",
      "certificateEndDate": "2012-01-27",
      "object": "LA EXPLOTACIÓN DE UN NEGOCIO DE VENTA DE TODA CLASE DE VEHÍCULOS NUEVOS Y USADOS, DE ACEITES Y LUBRICANTES, NEUMÁTICOS, PIEZAS DE RECAMBIO, ACCESORIOS, ARTÍCULOS RELACIONADOS CON LOS VEHÍCULOS, PORDUCTOS DE BOUTIQUE Y PRODUCTOS INDUSTRIALES PARA PROFESIONALES DE LA AUTOMOCIÓN, LA REPARACIÓN Y MANTENIMIENTO INTEGRAL DE TODA CLASE DE VEHÍCULOS, INCLUYENDO SU LIMPIEZA Y REACONDICIONAMIENTO, LA TRANSFORMACIÓN DE VEHÍCULOS, EL TRANSPORTE DE MERCANCÍAS Y VEHÍCULOS PROPIOS Y AJENOS, LA PRESTACIÓN DE SERVICIOS DE GESTIÓN, ADMINISTRACIÓN E INFORMÁTICOS A OTRAS EMPRESAS, EL ALQUILER DE TODA CLASE DE VEHÍCULOS EN TODAS SUS  MODALIDADES Y LA VENTA Y ALQUILER DE INMUEBLES, MAQUINARIA, UTILLAJE Y HERRAMINTA Y LA REALIZACIÓN  POR CUENTA PROPIA O AJENA DE ACTIVIDADES DE AGENCIA DE SEGUROS, SOMETIDAS A LA LEGISLACIÓN ESPECÍFICA DE MEDIACIÓN DE SEGUROS PRIVADOS",
      "mainEntityOfPage": "https://www.contratacion.euskadi.eus/webkpe00-kperoc/es/ac71aBusquedaRegistrosWar/empresa/03134",
      "_links": {
        "self": {
          "name": "ENTRETENIMIENTO AUTOMÓVILES DE VIZCAYA, S.A.U.",
          "href": "https://api.euskadi.eus/procurements/companies/03134"
        }
      }
    },
    {
      "name": "ACOMETIDAS Y TENDIDOS, S.L.",
      "registrationNumber": "03766",
      "identificationNumber": "B01300540",
      "address": "C/PADULETA., 55. OFICINA 205",
      "location": {
        "postalCode": "01015",
        "municipality": "Legutio",
        "county": "Araba/Álava",
        "municipalityId": "058",
        "countyId": "01"
      },
      "economicActivities": [
        {
          "id": "1.504.1",
          "name": "Instalaciones eléctricas en general",
          "_links": {
            "self": {
              "name": "Instalaciones eléctricas en general",
              "href": "https://api.euskadi.eus/procurements/companies/economic-activities/1.504.1"
            }
          }
        },
        {
          "id": "1.504.7",
          "name": "Instalaciones telefónicas, telegráficas, televisión, etc",
          "_links": {
            "self": {
              "name": "Instalaciones telefónicas, telegráficas, televisión, etc",
              "href": "https://api.euskadi.eus/procurements/companies/economic-activities/1.504.7"
            }
          }
        }
      ],
      "certificateStartDate": "2012-03-22",
      "certificateEndDate": "2012-09-07",
      "object": "LA PREPARACIÓN Y REALIZACIÓN DE LOS TRABAJOS NECESARIOS PARA EL DESARROLLO E INSTALACIÓN DE CANALIZACIONES DE OBRA CIVIL, E INSTALACIONES DE REDES DE CUALQUIER NATURALEZA",
      "mainEntityOfPage": "https://www.contratacion.euskadi.eus/webkpe00-kperoc/es/ac71aBusquedaRegistrosWar/empresa/03766",
      "_links": {
        "self": {
          "name": "ACOMETIDAS Y TENDIDOS, S.L.",
          "href": "https://api.euskadi.eus/procurements/companies/03766"
        }
      }
    },
    {
      "name": "KROTEST LABORATORIOS, S.L.",
      "registrationNumber": "04702",
      "identificationNumber": "B95630695",
      "address": "C/ LUIS BRIÑAS, 35 BJ",
      "location": {
        "postalCode": "48013",
        "municipality": "Bilbao",
        "county": "Bizkaia",
        "municipalityId": "020",
        "countyId": "48"
      },
      "economicActivities": [
        {
          "id": "1.619.2",
          "name": "Venta al por mayor de aparatos e instrumentos médicos, ortopédicos, ópticos",
          "_links": {
            "self": {
              "name": "Venta al por mayor de aparatos e instrumentos médicos, ortopédicos, ópticos",
              "href": "https://api.euskadi.eus/procurements/companies/economic-activities/1.619.2"
            }
          }
        }
      ],
      "certificateStartDate": "2012-03-22",
      "certificateEndDate": "2012-09-09",
      "object": "COMERCIO AL POR MAYOR Y MENOR DE TODO TIPO DE APARATOS DE INSTRUMENTOS MÉDICOS, ORTOPÉDICOS, ÓPTICOS Y FOROGRÁFICOS. APARATOS E INSTRUMENTOS DE MEDICIN, CIRUGÍA, ODONTOLOGÍA Y VETERINARIA, YA SEAN ORTOPÉDICOS, ÓPTICOS  FOTOGRÁFICOS Y CINEMATOGRÁFICOS. REACTIVOS PARA CONTRO DE CALIDAD ALIMENTARIA. Y CUALQUIER OTRO REACTIVO UTILIZADO EN MEDICINA Y LABORATORIOS MÉDICOS QUIRÚRGICOS. COMERCIO AL POR MAYOR Y MENOR DE MOBILIARIO MÉDICO Y LABORATORO. LA PROMOCIÓN, COMPRA, URBANIZACIÓN, EDIFICACIÓN, VENTA, ENAJENACIÓN Y ALQUILER DE TODO TIPO DE INMUEBLES, YA SEA DE PARCELAS URBANIZADAS O NO, EDIFICIOS COMPLETOS, PISOS, LOCALES, CHALETS, APARTAMENTOS, GARAJES, EDIFICIOS COMERCIALES O INDUSTRIALES, O CUALQUIER OTRO TIPO DE FINCAS, TANTO RÚSTICAS COMO URBANAS",
      "mainEntityOfPage": "https://www.contratacion.euskadi.eus/webkpe00-kperoc/es/ac71aBusquedaRegistrosWar/empresa/04702",
      "_links": {
        "self": {
          "name": "KROTEST LABORATORIOS, S.L.",
          "href": "https://api.euskadi.eus/procurements/companies/04702"
        }
      }
    },
    {
      "name": "TELECOMUNICACIÓN, ELECTRÓNICA Y CONMUTACIÓN, S.A.",
      "registrationNumber": "01595",
      "identificationNumber": "A28166007",
      "address": "C/ RONDA DE EUROPA, Nº 5.",
      "location": {
        "postalCode": "28760",
        "municipality": "Tres Cantos",
        "county": "Madrid",
        "municipalityId": "903",
        "countyId": "28"
      },
      "economicActivities": [
        {
          "id": "1.504.1",
          "name": "Instalaciones eléctricas en general",
          "_links": {
            "self": {
              "name": "Instalaciones eléctricas en general",
              "href": "https://api.euskadi.eus/procurements/companies/economic-activities/1.504.1"
            }
          }
        },
        {
          "id": "1.615.4",
          "name": "Venta al por mayor de aparatos y material radioeléctrico y electrónico",
          "_links": {
            "self": {
              "name": "Venta al por mayor de aparatos y material radioeléctrico y electrónico",
              "href": "https://api.euskadi.eus/procurements/companies/economic-activities/1.615.4"
            }
          }
        }
      ],
      "certificateStartDate": "2012-03-15",
      "certificateEndDate": "2012-07-31",
      "object": "FABRICACIÓN, DISTRIBUCIÓN, VENTAS E INSTALACIONES DE ACCESORIOS, COMPONENTES Y EQUIPOS RECEPTORES Y EMISORES DE TELEVISIÓN, DE TIPO CENTRALIZADO E INDIVIDUAL. FABRICACIÓN, DISTRIBUCIÓN, VENTAS E INSTALACIÓN DE CABLES Y CONDUCTORES ESPECIALES PARA APLICACIONES, RADIO ELÉCTRICOS E INDUSTRIALES. FABRICACIÓN, DISTRIBUCIÓN, VENTAS E INSTALACIONES DE ANTENAS EMISORAS Y RECEPTORAS, COLECTIVAS E INDIVIDUALES, Y TODO TIPO DE ACCESORIOS PARA LAS MISMAS. FABRICACIÓN, DISTRIBUCIÓN, VENTA E INSTALACIONES DE TODO TIPO DE PRODUCTOS DE TELECOMUNICACIÓN Y ELECTRÓNICA. EXPLOTACIÓN, EN RÉGIMEN DE ALQUILER , DE LOS EQUIPOS Y APARATOS DE LA SOCIEDAD. FABRICACIÓN, DESARROLLO, COMERCIALIZACIÓN Y MANTENIMIENTO DE APARATOS Y SISTEMAS DE SEGURIDAD, EN PARTICULAR MEDIANTE LA INSTALACIÓN Y MANTENIMIENTO DE SISTEMAS FÍSICOS, ELECTRÓNICOS, VISUALES, ACÚSTICOS O INSTRUMENTALES DE VIGILANCIA Y PROTECCIÓN Y, ESPECIALMENTE, CON LA CONEXIÓN A CENTROS DE RECEPCIÓN DE ALARMAS. EL ASESORAMIENTO Y PLANIFICACIÓN DE INSTALACIONES DE SEGURIDAD, ASÍ COMO LA INSTALACIÓN Y PUESTA EN FUNCIONAMIENTO DE CENTRALES DE ALARMA. LA PRODUCCIÓN DE SOFTWARE, HARDWARE Y LA CREACIÓN, DISTRIBUCIÓN Y DIFUSIÓN DE BASES DE DATOS, PROYECTOS DE INGENIERÍA DE INVESTIGACIÓN Y DE DESARROLLO",
      "mainEntityOfPage": "https://www.contratacion.euskadi.eus/webkpe00-kperoc/es/ac71aBusquedaRegistrosWar/empresa/01595",
      "_links": {
        "self": {
          "name": "TELECOMUNICACIÓN, ELECTRÓNICA Y CONMUTACIÓN, S.A.",
          "href": "https://api.euskadi.eus/procurements/companies/01595"
        }
      }
    },
    {
      "name": "PAVIMENTOS INDUSTRIALES PAVINSA, S.L.",
      "registrationNumber": "04239",
      "identificationNumber": "B48800791",
      "address": "HENAO 38, BAJO",
      "location": {
        "postalCode": "48009",
        "county": "Bizkaia",
        "municipalityId": "0-1",
        "countyId": "48"
      },
      "economicActivities": [
        {
          "id": "1.503.4",
          "name": "Elaboración de obra en piedra natural",
          "_links": {
            "self": {
              "name": "Elaboración de obra en piedra natural",
              "href": "https://api.euskadi.eus/procurements/companies/economic-activities/1.503.4"
            }
          }
        },
        {
          "id": "1.653.4",
          "name": "Venta al por menor de material de construcción y mobiliario de saneamiento",
          "_links": {
            "self": {
              "name": "Venta al por menor de material de construcción y mobiliario de saneamiento",
              "href": "https://api.euskadi.eus/procurements/companies/economic-activities/1.653.4"
            }
          }
        }
      ],
      "certificateStartDate": "2012-03-15",
      "certificateEndDate": "2012-08-03",
      "object": "LA COLOCACIÓN DE PIEDRA DE MAMPOSTERÍA Y LA INSTALACIÓN Y REALIZACIÓN DE SOLADOS Y PAVIMENTOS DE TODAS CLASES Y EN CUALQUIER TIPO DE OBRA.",
      "mainEntityOfPage": "https://www.contratacion.euskadi.eus/webkpe00-kperoc/es/ac71aBusquedaRegistrosWar/empresa/04239",
      "_links": {
        "self": {
          "name": "PAVIMENTOS INDUSTRIALES PAVINSA, S.L.",
          "href": "https://api.euskadi.eus/procurements/companies/04239"
        }
      }
    },
    {
      "name": "NASIPA, S.L.",
      "registrationNumber": "02327",
      "identificationNumber": "B31499577",
      "address": "C/ ANTONIO MACHADO, 35 BAJO",
      "location": {
        "postalCode": "01000",
        "municipality": "Vitoria-Gasteiz",
        "county": "Araba/Álava",
        "municipalityId": "059",
        "countyId": "01"
      },
      "economicActivities": [
        {
          "id": "1.501.1",
          "name": "Construcción completa, reparación y conservación de edificaciones",
          "_links": {
            "self": {
              "name": "Construcción completa, reparación y conservación de edificaciones",
              "href": "https://api.euskadi.eus/procurements/companies/economic-activities/1.501.1"
            }
          }
        },
        {
          "id": "1.833.1",
          "name": "Promoción de terrenos",
          "_links": {
            "self": {
              "name": "Promoción de terrenos",
              "href": "https://api.euskadi.eus/procurements/companies/economic-activities/1.833.1"
            }
          }
        },
        {
          "id": "1.833.2",
          "name": "Promoción de edificaciones",
          "_links": {
            "self": {
              "name": "Promoción de edificaciones",
              "href": "https://api.euskadi.eus/procurements/companies/economic-activities/1.833.2"
            }
          }
        }
      ],
      "certificateStartDate": "2012-03-14",
      "certificateEndDate": "2012-08-08",
      "object": "LA COMPRA Y VENTA DE SOLARES Y TERRENOS, LA PROMOCIÓN Y CONSTRUCCIÓN DE EDIFICIOS Y VIVIENDAS, LA REALIZACIÓN DE TODO TIPO DE EXCAVACIONES Y MOVIMIENTOS DE TIERRA, LA EJECUCIÓN DE OBRAS CIVILES, OBRAS PÚBLICAS Y OBRAS PRIVADAS Y LA PRESTACIÓN DE SEVICIOS EN ORDEN AL MANTENIMIENTO Y CONSERVACIÓN DE CUALESQUIERA BIENES INMUEBLES, ASÍ COMO EL ARRENDAMIENTO U OTRAS FORMAS DE EXPLOTACIÓN DE ESOS MISMOS BIENES, YA MEDIANTE ACTUACIÓN DIRECTA DE LA COMPAÑÍA,  YA MEDIANTE OTRAS PERSONAS FÍSICAS O JURÍDICAS CON LAS QUE CONTRATE LA EJECUCIÓN  O REALIZACIÓN DE TALES SERVICIOS",
      "mainEntityOfPage": "https://www.contratacion.euskadi.eus/webkpe00-kperoc/es/ac71aBusquedaRegistrosWar/empresa/02327",
      "_links": {
        "self": {
          "name": "NASIPA, S.L.",
          "href": "https://api.euskadi.eus/procurements/companies/02327"
        }
      }
    },
    {
      "name": "RAFAEL GAZTELU BEGOÑA",
      "registrationNumber": "02853",
      "identificationNumber": "14782816A",
      "address": "CAMINO DE IBARSUSI, 19",
      "location": {
        "postalCode": "48004",
        "municipality": "Bilbao",
        "county": "Bizkaia",
        "municipalityId": "020",
        "countyId": "48"
      },
      "economicActivities": [
        {
          "id": "1.619.7",
          "name": "Venta al por mayor de instrumentos de precisión, medida y similares",
          "_links": {
            "self": {
              "name": "Venta al por mayor de instrumentos de precisión, medida y similares",
              "href": "https://api.euskadi.eus/procurements/companies/economic-activities/1.619.7"
            }
          }
        }
      ],
      "certificateStartDate": "2012-03-14",
      "certificateEndDate": "2012-08-15",
      "object": "COMERCIO AL POR MAYOR DE INSTRUMENTOS DE PRECISIÓN, MEDIDA Y SIMILARES",
      "mainEntityOfPage": "https://www.contratacion.euskadi.eus/webkpe00-kperoc/es/ac71aBusquedaRegistrosWar/empresa/02853",
      "_links": {
        "self": {
          "name": "RAFAEL GAZTELU BEGOÑA",
          "href": "https://api.euskadi.eus/procurements/companies/02853"
        }
      }
    },
    {
      "name": "OBERTHUR TECHNOLOGIES IBÉRICA, S.A.U.",
      "registrationNumber": "04431",
      "identificationNumber": "A61397311",
      "address": "BIAL UNO, 10-11 (POLG. IND. CANMASCARÓ)",
      "location": {
        "postalCode": "08756",
        "municipality": "Cervelló",
        "county": "Barcelona",
        "municipalityId": "068",
        "countyId": "08"
      },
      "economicActivities": [
        {
          "id": "1.482.2",
          "name": "Fabricación de artículos acabados de materias plásticas",
          "_links": {
            "self": {
              "name": "Fabricación de artículos acabados de materias plásticas",
              "href": "https://api.euskadi.eus/procurements/companies/economic-activities/1.482.2"
            }
          }
        }
      ],
      "certificateStartDate": "2012-03-13",
      "certificateEndDate": "2012-08-23",
      "object": "LA FABRICACIÓN, PERSONALIZACIÓN Y COMERCIALIZACIÓN DE SOPORTES DE INFORMACIÓN Y, EN PARTICULAR, TARJETAS DE PLÁSTICO, TARJETAS CON MICROPROCESADORES, TARJETAS CON CHIPS DE MEMORIA Y DEMÁS FORMAS DE TRATAMIENTO DE INFORMACIÓN RELACIONADAS CON LAS ANTERIORES. EL DISEÑO, FABRICACIÓN Y COMERCIALIZACIÓN DE TERMINALES Y SISTEMAS DE INFORMACIÓN RELATIVOS A DOCUMENTOS Y TARJETAS DE SEGURIDAD Y AUTENTIFICACIÓN. LA PRODUCCIÓN E IMPRESIÓN DE TODO TIPO DE DOCUMENTOS DE ALTA SEGURIDAD. EL ASEGURAMIENTO DE MEDIOS DE TRANSPORTE DE LOS PRODUCTOS ANTERIORMENTE INDICADOS, INCLUYENDO LA LOCALIZACIÓN DE CONTENEDORES POR RADIO O SATÉLITE. LA ELABORACIÓN DE ESTUDIOS, SERVICIOS Y ASESORAMIENTO PARA LA SEGURIDAD Y PROCESAMIENTO DE DATOS. LA DISTRIBUCIÓN A TRAVÉS DE MEDIOS DE TRANSPORTE SEGURO, EQUIPADOS CON SISTEMAS ELECTRÓNICOS, INFORMÁTICOS, QUÍMICOS Y/O PIROTÉCNICOS. LA FORMACIÓ DE USUARIOS FINALES DE LOS PRODUCTOS MENCIONAODS ASÍ COMO EL MANTENIMIENTO Y ACTUALIZACIÓN CONTÍNUA DE LOS DIFERENTES SISTEMAS. Y, EN GENERAL, CUALESQUIERA OTRA SOPERACIONES INDUSTRIALES, COMERCIALES O FIANCIERAS RELATIVAS A BIENES MUEBLES O ACTIVOS, DIRECTA O INDIRECTAMENTE RELACIONADOS CON EL OBJETO SOCIAL, Y CAPACES DE FACILITAR LA EXPANSIÓN O EL DESARROLLO DEL MISMO",
      "mainEntityOfPage": "https://www.contratacion.euskadi.eus/webkpe00-kperoc/es/ac71aBusquedaRegistrosWar/empresa/04431",
      "_links": {
        "self": {
          "name": "OBERTHUR TECHNOLOGIES IBÉRICA, S.A.U.",
          "href": "https://api.euskadi.eus/procurements/companies/04431"
        }
      }
    },
    {
      "name": "BUSINESS & MEDIA ADVISORS, S.L.",
      "registrationNumber": "04509",
      "identificationNumber": "B95337598",
      "address": "AVDA. MADARIAGA, 1 - 1º - DPTO. 4",
      "location": {
        "postalCode": "48014",
        "municipality": "Bilbao",
        "county": "Bizkaia",
        "municipalityId": "020",
        "countyId": "48"
      },
      "economicActivities": [
        {
          "id": "1.844",
          "name": "Servicios de publicidad, relaciones públicas y similares",
          "_links": {
            "self": {
              "name": "Servicios de publicidad, relaciones públicas y similares",
              "href": "https://api.euskadi.eus/procurements/companies/economic-activities/1.844"
            }
          }
        },
        {
          "id": "1.845",
          "name": "Explotación electrónica por cuenta de terceros",
          "_links": {
            "self": {
              "name": "Explotación electrónica por cuenta de terceros",
              "href": "https://api.euskadi.eus/procurements/companies/economic-activities/1.845"
            }
          }
        }
      ],
      "certificateStartDate": "2012-03-13",
      "certificateEndDate": "2012-07-30",
      "object": "LA PRESTACIÓN DE SERVICIOS DE ASESORAMIENTO Y CONSULTORÍA GLOBAL, ESTRATEGIA COMERCIAL Y DE NEGOCIO RELACIONADOS CON INTERNET, EL OFRECIMIENTO DE SISTEMAS Y/O SERVICIOS INTERACTIVOS DE GRAN DIFUSIÓN, BAJO MARCAS PROPIAS O AJENAS MEDIANTE LICENCIA, LA ADMINISTRACIÓN DE PUBLICIDAD \"ON LINE\" A CUALESQUIERA PERSONAS FÍSICAS O JURÍDICAS RELACIONADAS CON LA INDUSTRIA DE LOS PRESTADORES DE SERVICIOS DE INTERNET DE SISTEMAS, ASÍ COMO LA PRESTACIÓN DE SERVICIOS A SOCIEDADES DE LA SOCIEDAD DE LA INFORMACIÓN.\r\n\r\nASÍMISMO EL ANÁLISIS, DISEÑO, CREACIÓN, FABRICACIÓN, DESARROLLO, IMPLANTACIÓN, PROGRAMACIÓN Y COMERCIALIZACIÓN DE ESTUDIOS, TRABAJOS, APLICACIONES, PROGRAMAS Y SOLUCIONES INFORMÁTICAS.\r\n\r\nLA PRESTACIÓN DE TODA CLASE DE SERVICIOS DE PLANIFICACIÓN, PROMOCIÓN, ADMINISTRACIÓN, GESTIÓN, REPRESENTACIÓN Y ASESORAMIENTO ECONÓMICO, FINANCIERO, TRIBUTARIO, JURÍDICO, CONTABLE EN SU MÁS AMPLIA ACEPCIÓN, A TODA CLASE DE EMPRESAS Y ADMINISTRACIONES PÚBLICAS, Y LA PRESTACIÓN DE SERVICIOS DE ASESORAMIENTO PROFESIONAL RELACIONADAS CON LA EMPRESA Y/O LA ADMINISTRACIÓN, MEDIANTE LA CONTRATACIÓN EN SU CASO DE PERSONAL HABILITADO LEGALMENTE PARA EL EJERCICIO DE TALES ACTIVIDADES, CUANDO SEA LEGALMENTE PRECEPTIVO.\r\n\r\nLA SUSCRIPCIÓN O ADQUISICIÓN POR CUALQUIER MEDIO LÍCITO Y LA TENENCIA, ADMINISTRACIÓN Y ENAJENACIÓN DE ACCIONES Y PARTICIPACIONES EN EL ACTIVO DE LA SOCIEDAD DE TODA CLASE, CIVILES, MERCANTILES, INDUSTRIAS, COOPERATIVAS Y MUTUALIDADES, ASI COMO DE BONOS, OBLIGACIONES SIMPLES O HIPOTECARIAS Y CUALQUIER OTRA CLASE DE TÍTULOS O VALORES INMOBILIARIOS, COTIZADOS O NO EN BOLSA. ",
      "mainEntityOfPage": "https://www.contratacion.euskadi.eus/webkpe00-kperoc/es/ac71aBusquedaRegistrosWar/empresa/04509",
      "_links": {
        "self": {
          "name": "BUSINESS & MEDIA ADVISORS, S.L.",
          "href": "https://api.euskadi.eus/procurements/companies/04509"
        }
      }
    },
    {
      "name": "APPEND SILGO Y ASOCIADOS, S.L.",
      "registrationNumber": "02967",
      "identificationNumber": "B01179886",
      "address": "C/ PARAGUAY, 23 BAJO ",
      "location": {
        "postalCode": "01012",
        "municipality": "Vitoria-Gasteiz",
        "county": "Araba/Álava",
        "municipalityId": "059",
        "countyId": "01"
      },
      "economicActivities": [
        {
          "id": "1.846",
          "name": "Empresas de estudios de mercado",
          "_links": {
            "self": {
              "name": "Empresas de estudios de mercado",
              "href": "https://api.euskadi.eus/procurements/companies/economic-activities/1.846"
            }
          }
        },
        {
          "id": "1.989.2",
          "name": "Servicios de organización de congresos, asambleas y similares",
          "_links": {
            "self": {
              "name": "Servicios de organización de congresos, asambleas y similares",
              "href": "https://api.euskadi.eus/procurements/companies/economic-activities/1.989.2"
            }
          }
        },
        {
          "id": "2.722",
          "name": "Gestores administrativos",
          "_links": {
            "self": {
              "name": "Gestores administrativos",
              "href": "https://api.euskadi.eus/procurements/companies/economic-activities/2.722"
            }
          }
        }
      ],
      "certificateStartDate": "2012-03-12",
      "certificateEndDate": "2012-08-23",
      "object": "LA PRESTACIÓN DE SERVICIOS DEL ÁREA DE MARKETING; ESTUDIOS DE MERCADO; ENCUESTAS Y SONDEOS DE OPINIÓN; SERVICIOS TÉCNICOS DE INVESTIGACIÓN OPERATIVA; ASESORAMIENTO, ORGANIZACIÓN Y TRATAMIENTO DE LA INFORMACIÓN; ASESORAMIENTO Y ORGANIZACIÓN DE INFORMÁTICA Y SERVICIOS DE DIFUSIÓN DE PUBLICIDAD Y SOBRE CUALQUIER MATERIA, ORGANIZAR CURSOS, JORNADAS Y SEMINARIOS DESTINADOS A FORMACIÓN DE PERSONAL",
      "mainEntityOfPage": "https://www.contratacion.euskadi.eus/webkpe00-kperoc/es/ac71aBusquedaRegistrosWar/empresa/02967",
      "_links": {
        "self": {
          "name": "APPEND SILGO Y ASOCIADOS, S.L.",
          "href": "https://api.euskadi.eus/procurements/companies/02967"
        }
      }
    }
  ]
}