{
  "totalItems": 9042,
  "totalPages": 905,
  "currentPage": 619,
  "itemsOfPage": 10,
  "items": [
    {
      "name": "MARTA ARANA IGARZA",
      "registrationNumber": "06013",
      "identificationNumber": "30580498C",
      "address": "Dolores Ibarruri nº 9 lonja",
      "location": {
        "postalCode": "48012",
        "municipality": "Bilbao",
        "county": "Bizkaia",
        "municipalityId": "020",
        "countyId": "48"
      },
      "economicActivities": [
        {
          "id": "2.776",
          "name": "Doctores y licenciados en ciencias políticas y sociales",
          "_links": {
            "self": {
              "name": "Doctores y licenciados en ciencias políticas y sociales",
              "href": "https://api.euskadi.eus/procurements/companies/economic-activities/2.776"
            }
          }
        }
      ],
      "certificateStartDate": "2019-01-17",
      "certificateEndDate": "2019-04-10",
      "object": "LA PRESTACIÓN DE SERVICIOS PROFESIONALES PROPIOS DE UNN CENTRO  DE PSICOLOGÍA, PSICOMOTRICIDAD, FISIOTERAPIA Y LOGOPEDIA",
      "mainEntityOfPage": "https://www.contratacion.euskadi.eus/webkpe00-kperoc/es/ac71aBusquedaRegistrosWar/empresa/06013",
      "_links": {
        "self": {
          "name": "MARTA ARANA IGARZA",
          "href": "https://api.euskadi.eus/procurements/companies/06013"
        }
      }
    },
    {
      "name": "JUAN RAMON SAUBER SOCIEDAD LIMITADA",
      "registrationNumber": "06014",
      "identificationNumber": "B48303671",
      "address": "CALLE ANTSONEKOA - P.I.IGELTZERA",
      "location": {
        "postalCode": "48610",
        "municipality": "Urduliz",
        "county": "Bizkaia",
        "municipalityId": "089",
        "countyId": "48"
      },
      "economicActivities": [
        {
          "id": "1.614.2",
          "name": "Venta al por mayor de productos de perfumería, droguería, higiene y belleza",
          "_links": {
            "self": {
              "name": "Venta al por mayor de productos de perfumería, droguería, higiene y belleza",
              "href": "https://api.euskadi.eus/procurements/companies/economic-activities/1.614.2"
            }
          }
        }
      ],
      "certificateStartDate": "2019-01-17",
      "certificateEndDate": "2019-04-02",
      "object": "LA COMPRA-VENTA Y DISTRIBUCIÓN DE PRODUCTOS RELACIONADOS CON LA LIMPIEZA GENERAL, INCLUSO INDUSTRIAL, PERFUMERÍA,DROGUERÍA, COSMÉTICOS Y ARTÍCULOS DE REGALO",
      "mainEntityOfPage": "https://www.contratacion.euskadi.eus/webkpe00-kperoc/es/ac71aBusquedaRegistrosWar/empresa/06014",
      "_links": {
        "self": {
          "name": "JUAN RAMON SAUBER SOCIEDAD LIMITADA",
          "href": "https://api.euskadi.eus/procurements/companies/06014"
        }
      }
    },
    {
      "name": "AMEVISA, S.A.",
      "registrationNumber": "03167",
      "identificationNumber": "A28838555",
      "address": "CTRA. TORREJÓN-AJALVIR, KM. 5, 200",
      "location": {
        "postalCode": "28864",
        "municipality": "Ajalvir",
        "county": "Madrid",
        "municipalityId": "002",
        "countyId": "28"
      },
      "economicActivities": [
        {
          "id": "1.619.2",
          "name": "Venta al por mayor de aparatos e instrumentos médicos, ortopédicos, ópticos",
          "_links": {
            "self": {
              "name": "Venta al por mayor de aparatos e instrumentos médicos, ortopédicos, ópticos",
              "href": "https://api.euskadi.eus/procurements/companies/economic-activities/1.619.2"
            }
          }
        }
      ],
      "certificateStartDate": "2019-01-14",
      "certificateEndDate": "2019-06-11",
      "object": "LA COMERCIALIZACIÓN DE TODA CLASE DE PRODUCTOS FARMACÉUTICOS, SANITARIOS NO FARMACÉUTICOS, PARA SU VENTA AL POR MAYOR Y AL POR MENOR, LA IMPORTACIÓN O EXPORTACIÓN DE DICHOS PRODUCTOS Y SU FABRICACIÓN  ",
      "mainEntityOfPage": "https://www.contratacion.euskadi.eus/webkpe00-kperoc/es/ac71aBusquedaRegistrosWar/empresa/03167",
      "_links": {
        "self": {
          "name": "AMEVISA, S.A.",
          "href": "https://api.euskadi.eus/procurements/companies/03167"
        }
      }
    },
    {
      "name": "PINTURAS AGUADO, S.L.",
      "registrationNumber": "06008",
      "identificationNumber": "B20609665",
      "address": "CL MATEO ERROTA, Nº7, PABELLON 7-B DEL POLÍGONO 27",
      "location": {
        "postalCode": "20014",
        "municipality": "Donostia / San Sebastián",
        "county": "Gipuzkoa",
        "municipalityId": "069",
        "countyId": "20"
      },
      "economicActivities": [
        {
          "id": "1.504.1",
          "name": "Instalaciones eléctricas en general",
          "_links": {
            "self": {
              "name": "Instalaciones eléctricas en general",
              "href": "https://api.euskadi.eus/procurements/companies/economic-activities/1.504.1"
            }
          }
        },
        {
          "id": "1.505.6",
          "name": "Pintura, revestimientos y terminación y decoración de locales",
          "_links": {
            "self": {
              "name": "Pintura, revestimientos y terminación y decoración de locales",
              "href": "https://api.euskadi.eus/procurements/companies/economic-activities/1.505.6"
            }
          }
        }
      ],
      "certificateStartDate": "2019-01-14",
      "certificateEndDate": "2019-04-26",
      "object": "REALIZACIÓN Y ELABORACIÓN DE PROYECTOS Y TRABAJOS DE PINTURA DE TODO TIPO DE INMUEBLES, EDIFICIOS,VIVIENDAS, PABELLONES, TANTO FACHADAS COMO INTERIORES. LA ELABORACIÓN Y COMERCIALIZACIÓN DE PRODUCTOS RELACIONADOS CON LA ACTIVIDAD ANTERIOR. INSTALACIONES ELÉCTRICAS DE CUALQUIER TIPO, VENTA, ELABORACIÓN Y COMERCIALIZACIÓN DE MATERIAL ELÉCTRICO.",
      "mainEntityOfPage": "https://www.contratacion.euskadi.eus/webkpe00-kperoc/es/ac71aBusquedaRegistrosWar/empresa/06008",
      "_links": {
        "self": {
          "name": "PINTURAS AGUADO, S.L.",
          "href": "https://api.euskadi.eus/procurements/companies/06008"
        }
      }
    },
    {
      "name": "AVORIS RETAIL DIVISION, S.L.",
      "registrationNumber": "04959",
      "identificationNumber": "B07012107",
      "address": "C/ José Rover Motta, 27",
      "location": {
        "postalCode": "07006",
        "municipality": "Palma",
        "county": "Balears, Illes",
        "municipalityId": "040",
        "countyId": "07"
      },
      "economicActivities": [
        {
          "id": "1.755",
          "name": "Agencias de viajes",
          "_links": {
            "self": {
              "name": "Agencias de viajes",
              "href": "https://api.euskadi.eus/procurements/companies/economic-activities/1.755"
            }
          }
        },
        {
          "id": "1.755.1",
          "name": "Servicios a otros agencias de viajes",
          "_links": {
            "self": {
              "name": "Servicios a otros agencias de viajes",
              "href": "https://api.euskadi.eus/procurements/companies/economic-activities/1.755.1"
            }
          }
        },
        {
          "id": "1.755.2",
          "name": "Servicios prestados al público por las agencias de viajes",
          "_links": {
            "self": {
              "name": "Servicios prestados al público por las agencias de viajes",
              "href": "https://api.euskadi.eus/procurements/companies/economic-activities/1.755.2"
            }
          }
        }
      ],
      "certificateStartDate": "2019-01-09",
      "certificateEndDate": "2019-02-10",
      "object": "LA DEDICACIÓN PROFESIONAL Y COMERCIAL EN EXCLUSIVIDAD AL EJERCCIO DE ACTIVIDADES DE MEDIACIÓN Y ORGANIZACIÓN DE SERVICIOS TURÍSTICOS, PUDIENDO UTILIZAR MEDIOS PROPIOS EN LA PRESTACIÓN DE LOS MISMOS Y DESARROLLAR TODAS LAS ACTIVIDADES QUE LE SEAN PROPIAS SEGÚN LA REGLAMENTACIÓN QUE REGULA DICHA FUNCIÓN EMPRESARIAL,",
      "mainEntityOfPage": "https://www.contratacion.euskadi.eus/webkpe00-kperoc/es/ac71aBusquedaRegistrosWar/empresa/04959",
      "_links": {
        "self": {
          "name": "AVORIS RETAIL DIVISION, S.L.",
          "href": "https://api.euskadi.eus/procurements/companies/04959"
        }
      }
    },
    {
      "name": "SPINBIZ COMPANY, S.L.",
      "registrationNumber": "06003",
      "identificationNumber": "B84413426",
      "address": "MADROÑOS, 1",
      "location": {
        "postalCode": "28140",
        "municipality": "Fuente el Saz de Jarama",
        "county": "Madrid",
        "municipalityId": "059",
        "countyId": "28"
      },
      "economicActivities": [
        {
          "id": "1.845",
          "name": "Explotación electrónica por cuenta de terceros",
          "_links": {
            "self": {
              "name": "Explotación electrónica por cuenta de terceros",
              "href": "https://api.euskadi.eus/procurements/companies/economic-activities/1.845"
            }
          }
        }
      ],
      "certificateStartDate": "2019-01-09",
      "certificateEndDate": "2019-05-07",
      "object": "LA ELABORACIÓN, COMPRA, VENTA, CONSULTORÍA, FORMACIÓN, DISTRIBUCIÓN, GESTIÓN, IMPORTACIÓN Y EXPORTACIÓN DE PROGRAMAS, EQUIPOS INFORMÁTICOS Y DE TELECOMUNICACIONES",
      "mainEntityOfPage": "https://www.contratacion.euskadi.eus/webkpe00-kperoc/es/ac71aBusquedaRegistrosWar/empresa/06003",
      "_links": {
        "self": {
          "name": "SPINBIZ COMPANY, S.L.",
          "href": "https://api.euskadi.eus/procurements/companies/06003"
        }
      }
    },
    {
      "name": "LEVENGER S.L.",
      "registrationNumber": "06004",
      "identificationNumber": "B31558315",
      "address": "ALDE ZAHARRA 24",
      "location": {
        "postalCode": "31870",
        "municipality": "Lekunberri",
        "county": "Navarra",
        "municipalityId": "908",
        "countyId": "31"
      },
      "economicActivities": [
        {
          "id": "1.504.3",
          "name": "Instalaciones de frío, calor y acondicionamiento de aire",
          "_links": {
            "self": {
              "name": "Instalaciones de frío, calor y acondicionamiento de aire",
              "href": "https://api.euskadi.eus/procurements/companies/economic-activities/1.504.3"
            }
          }
        },
        {
          "id": "1.617.9",
          "name": "Venta al por mayor interindustrial de otros productos n.c.o.p",
          "_links": {
            "self": {
              "name": "Venta al por mayor interindustrial de otros productos n.c.o.p",
              "href": "https://api.euskadi.eus/procurements/companies/economic-activities/1.617.9"
            }
          }
        },
        {
          "id": "1.843.1",
          "name": "Servicios técnicos de ingeniería",
          "_links": {
            "self": {
              "name": "Servicios técnicos de ingeniería",
              "href": "https://api.euskadi.eus/procurements/companies/economic-activities/1.843.1"
            }
          }
        }
      ],
      "certificateStartDate": "2019-01-09",
      "certificateEndDate": "2019-05-08",
      "object": "LA VENTA DE MAQUINARIA AL POR MAYOR (COGENERACIÓN). LA INSTALACIÓN DE COGENERACIÓN, CALDERAS DE BIOMASA Y BIOGÁS, INSTALACIONES ELÉCTRICAS DE CENTRALES DE PRODUCCIÓN DE ENERGÍA, INSTALACIÓN DE CENTRALES DE PRODUCCIÓN DE ENERGÍA, PLANTAS DE BIOMASA, MICROTURBINAS HIDRAÚLICAS, LÍNEAS DE PRODUCCIÓN DE PELLETS, SEGUIDORES SOLARES, CALDERAS DE PIROLISIS Y GASIFICACIÓN. ESTUDIOS DE VIABILIDAD, ASESORÍA DE INGENIERÍA BÁSICA Y DE DETALLE, GESTIÓN DE COMPRAS, MONTAJES, INSTALACIONES Y MANTENIMIENTO MECÁNICO DE PLANTAS",
      "mainEntityOfPage": "https://www.contratacion.euskadi.eus/webkpe00-kperoc/es/ac71aBusquedaRegistrosWar/empresa/06004",
      "_links": {
        "self": {
          "name": "LEVENGER S.L.",
          "href": "https://api.euskadi.eus/procurements/companies/06004"
        }
      }
    },
    {
      "name": "TRATAMIENTO, ACONDICIONAMIENTO DE LADERAS Y OBRAS, S.A.",
      "registrationNumber": "05999",
      "identificationNumber": "A64966179",
      "address": "C/ Doctor Trueta, 13",
      "location": {
        "postalCode": "08005",
        "municipality": "Barcelona",
        "county": "Barcelona",
        "municipalityId": "019",
        "countyId": "08"
      },
      "economicActivities": [
        {
          "id": "1.501.2",
          "name": "Construcción completa, reparación y conservación obras civiles",
          "_links": {
            "self": {
              "name": "Construcción completa, reparación y conservación obras civiles",
              "href": "https://api.euskadi.eus/procurements/companies/economic-activities/1.501.2"
            }
          }
        },
        {
          "id": "1.911",
          "name": "Servicios agrícolas y ganaderos",
          "_links": {
            "self": {
              "name": "Servicios agrícolas y ganaderos",
              "href": "https://api.euskadi.eus/procurements/companies/economic-activities/1.911"
            }
          }
        },
        {
          "id": "1.912",
          "name": "Servicios forestales",
          "_links": {
            "self": {
              "name": "Servicios forestales",
              "href": "https://api.euskadi.eus/procurements/companies/economic-activities/1.912"
            }
          }
        }
      ],
      "certificateStartDate": "2019-01-07",
      "certificateEndDate": "2019-03-03",
      "object": "A) LA GESTIÓN, EJECUCIÓN, CONSERVACIÓN Y MANTENIMIENTO DE TODO TIPO DE CONSTRUCCIONES Y OBRAS CIVILES Y EN PARTICULAR LAS OBRAS DE TRATAMIENTO, PROTECCIÓN Y ESTABILIZACIÓN DE TALUDES, CAUCES Y MÁRGENES. B) LA GESTIÓN, EJECUCIÓN, CONSERVACIÓN Y MANTENIMIENTO DE TODO TIPO DE JARDINES, PARQUES Y ESPACIOS VERDES. C) LA EJECUCIÓN DE TODAS LAS ACTIVIDADES QUE SEAN PREPARATORIAS (TALES COMO ESTUDIOS, PROYECTOS Y PRESUPUESTOS) ACCESORIAS O COMPLEMENTARIAS DE LAS ACTIVIDADES ANTERIORES, AUN REALIZÁNDOLAS CON INDEPENDENCIA DE ÉSTAS",
      "mainEntityOfPage": "https://www.contratacion.euskadi.eus/webkpe00-kperoc/es/ac71aBusquedaRegistrosWar/empresa/05999",
      "_links": {
        "self": {
          "name": "TRATAMIENTO, ACONDICIONAMIENTO DE LADERAS Y OBRAS, S.A.",
          "href": "https://api.euskadi.eus/procurements/companies/05999"
        }
      }
    },
    {
      "name": "SISTEMAS DIGITALES Y DE TELECOMUNICACIONES TELWIND, S.L.",
      "registrationNumber": "03365",
      "identificationNumber": "B95444212",
      "address": "C/ RIBERA DE AXPE, 11-EDIF. D2, 101",
      "location": {
        "postalCode": "48950",
        "municipality": "Erandio",
        "county": "Bizkaia",
        "municipalityId": "902",
        "countyId": "48"
      },
      "economicActivities": [
        {
          "id": "1.844",
          "name": "Servicios de publicidad, relaciones públicas y similares",
          "_links": {
            "self": {
              "name": "Servicios de publicidad, relaciones públicas y similares",
              "href": "https://api.euskadi.eus/procurements/companies/economic-activities/1.844"
            }
          }
        }
      ],
      "certificateStartDate": "2019-01-04",
      "certificateEndDate": "2019-05-08",
      "object": "a) LA PROMOCIÓN, DIFUSIÓN Y VENTA DE TODO TIPO DE PRODUCTOS O SERVICIOS, REALIZACIÓN O EMISIÓN DE ENTREVISTAS PERSONALIZADAS, RECEPCIÓN Y CLASIFICACIÓN DE LLAMADAS Y CONTACTOS CON CLIENTES EN ENTORNOS MULTIMEDIA Y LOS DIFERENTES SERVICIOS DE ATENCIÓN A CLIENTE, TODO ELLO, REALIZADO POR VÍA TELEFÓNICA, POR MEDIOS TELEMÁTICOS, POR APLICACIÓN DE TECNOLOGÍA DIGITAL O POR CUALQUIER OTRO MEDIO ELECTRÓNICO. B) LA PROMOCIÓN, GESTIÓN Y DESARROLLO DE EMPRESAS Y NEGOCIOS; LA PROMOCIÓN, FINANCIACIÓN, ASESORAMIENTO, ESTUDIO, GESTIÓN Y EJECUCIÓN DE TODA CLASE DE INVERSIONES EN BIENES MUEBLES E INMUEBLES O VALORES MOBILIARIOS, LA PROMOCIÓN, FINANCIACIÓN, GESTIÓN Y EJECUCIÓN DE PROYECTOS INMOBILIARIOS Y DE CONSTRUCCIÓN Y LA COMPRAVENTA DE TERRENOS, SOLARES Y EDIFICIOS, LA ADQUISICIÓN, VENTA, CESIÓN, INVERSIÓN, TENENCIA, DISFRUTE, ADMINISTRACIÓN, GESTIÓN ESTUDIOS Y NEGOCIACIÓN EN GENERAL DE TODA CLASE  DE VALORES MOBILIARIOS, COTIZADOS EN BOLSA Y OTROS MERCADOS, O NO , TANTO NACIONALES COMO EXTRANJEROS, POR CUNETA PROPIA, CON EXCEPCIÓN DE LA INTERMEDIACIÓN, Y DEJANDO SIEMPRE FUERA LAS ACIRVIDADES OBJETO DE LA LEGISLACIÓN DE INSTITUCIONES DE INVERSIÓN COLECTIVA  Y DEL MERCADO DE VALORES; LA DIRECCIÓN Y GESTIÓN DE VALORES REPRESENTATIVOS DE ENTIDADES RESIDENTES EN TERRITORIO ESPAÑOL, QUE DETERMINEN UN PORCENTAJE DE PARTICIPACIONES, IGUAL O SUPERIOR AL CINCO POR CIENTO.",
      "mainEntityOfPage": "https://www.contratacion.euskadi.eus/webkpe00-kperoc/es/ac71aBusquedaRegistrosWar/empresa/03365",
      "_links": {
        "self": {
          "name": "SISTEMAS DIGITALES Y DE TELECOMUNICACIONES TELWIND, S.L.",
          "href": "https://api.euskadi.eus/procurements/companies/03365"
        }
      }
    },
    {
      "name": "ELÉCTRICAS ASMOTUR URIARTE, S.L.",
      "registrationNumber": "03285",
      "identificationNumber": "B48833412",
      "address": "C/Villamonte, B-2",
      "location": {
        "postalCode": "48991",
        "municipality": "Getxo",
        "county": "Bizkaia",
        "municipalityId": "044",
        "countyId": "48"
      },
      "economicActivities": [
        {
          "id": "1.504.11",
          "name": "Instalaciones eléctricas en general, redes telegráficas, telefonía, tv, etc",
          "_links": {
            "self": {
              "name": "Instalaciones eléctricas en general, redes telegráficas, telefonía, tv, etc",
              "href": "https://api.euskadi.eus/procurements/companies/economic-activities/1.504.11"
            }
          }
        }
      ],
      "certificateStartDate": "2018-12-28",
      "certificateEndDate": "2019-05-05",
      "object": "LA  REALIZACIÓN DE PROYECTOS, MONTAJES, MANTENIMIENTO Y DIRECCIÓN DE INSTALACIONES ELÉCTRICAS DE BAJA Y MEDIA TENSIÓN",
      "mainEntityOfPage": "https://www.contratacion.euskadi.eus/webkpe00-kperoc/es/ac71aBusquedaRegistrosWar/empresa/03285",
      "_links": {
        "self": {
          "name": "ELÉCTRICAS ASMOTUR URIARTE, S.L.",
          "href": "https://api.euskadi.eus/procurements/companies/03285"
        }
      }
    }
  ]
}