{
  "totalItems": 9042,
  "totalPages": 905,
  "currentPage": 306,
  "itemsOfPage": 10,
  "items": [
    {
      "name": "ENELEN HEALTH&CARE, S.L.",
      "registrationNumber": "09012",
      "identificationNumber": "B09784703",
      "address": "Calle Arturo Campion , Nº 1",
      "location": {
        "postalCode": "48015",
        "municipality": "Bilbao",
        "county": "Bizkaia",
        "municipalityId": "020",
        "countyId": "48"
      },
      "economicActivities": [
        {
          "id": "1.614.1",
          "name": "Venta al por mayor de productos farmacéuticos y medicamentos",
          "_links": {
            "self": {
              "name": "Venta al por mayor de productos farmacéuticos y medicamentos",
              "href": "https://api.euskadi.eus/procurements/companies/economic-activities/1.614.1"
            }
          }
        }
      ],
      "certificateStartDate": "2025-09-02",
      "certificateEndDate": "2026-03-02",
      "object": "A. COMERCIO AL POR MAYOR O MENOR DE PRODUCTOS FARMACÉUTICOS, MEDICAMENTOS, PERFUMERÍA, DROGUERÍA, HIGIENE Y BELLEZA. B. - COMERCIO AL POR MAYOR O MENOS DE CUALQUIER PRODUCTO SANITARIO O ZOOSANITARIO. C. - LA CREACIÓN Y/O FABRICACIÓN DE PRODUCTOS RELACIONADOS CON LOS PUNTOS A Y B Y SU DISTRIBUCIÓN. D. - COMERCIO AL POR MAYOR Y POR MENOR DE VEHÍCULOS, MOTOCICLETAS Y SUS ACCESORIOS. E. - COMERCIO AL POR MAYOR Y POR MENOR DE MUEBLES, APARATOS ELECTRODOMÉSTICOS Y FERRETERÍA. F. - COMERCIO AL POR MAYOR Y POR MENOR DE TODA CLASE DE PRODUCTOS TEXTILES, DE CONFECCIÓN, CALZADO Y ARTÍCULOS DE CUERO. G. - ALQUILER DE BIENES MUEBLES, MAQUINARIA Y BIENES INMUEBLES DE CUALQUIER TIPO DE NATURALEZA.",
      "mainEntityOfPage": "https://www.contratacion.euskadi.eus/webkpe00-kperoc/es/ac71aBusquedaRegistrosWar/empresa/09012",
      "_links": {
        "self": {
          "name": "ENELEN HEALTH&CARE, S.L.",
          "href": "https://api.euskadi.eus/procurements/companies/09012"
        }
      }
    },
    {
      "name": "LUIS MARIA ARCE ASENSIO",
      "registrationNumber": "10092",
      "identificationNumber": "30611330D",
      "address": "BARRIO LANDAGUTXI 4",
      "location": {
        "postalCode": "48144",
        "municipality": "Zeanuri",
        "county": "Bizkaia",
        "municipalityId": "024",
        "countyId": "48"
      },
      "economicActivities": [
        {
          "id": "2.776",
          "name": "Doctores y licenciados en ciencias políticas y sociales",
          "_links": {
            "self": {
              "name": "Doctores y licenciados en ciencias políticas y sociales",
              "href": "https://api.euskadi.eus/procurements/companies/economic-activities/2.776"
            }
          }
        }
      ],
      "certificateStartDate": "2025-09-02",
      "certificateEndDate": "2026-03-02",
      "object": "DOCTORES Y LICENCIADOS EN CIENCIAS POLÍTICAS Y SOCIALES.",
      "mainEntityOfPage": "https://www.contratacion.euskadi.eus/webkpe00-kperoc/es/ac71aBusquedaRegistrosWar/empresa/10092",
      "_links": {
        "self": {
          "name": "LUIS MARIA ARCE ASENSIO",
          "href": "https://api.euskadi.eus/procurements/companies/10092"
        }
      }
    },
    {
      "name": "MENDIBIL ASOCIACION PEDAGOGICA",
      "registrationNumber": "08414",
      "identificationNumber": "G20432118",
      "address": "Avenida Letxumborro 58",
      "location": {
        "postalCode": "20305",
        "municipality": "Irun",
        "county": "Gipuzkoa",
        "municipalityId": "045",
        "countyId": "20"
      },
      "economicActivities": [
        {
          "id": "1.931.1",
          "name": "Guardería y enseñanza de educación infantil, exclusivamente",
          "_links": {
            "self": {
              "name": "Guardería y enseñanza de educación infantil, exclusivamente",
              "href": "https://api.euskadi.eus/procurements/companies/economic-activities/1.931.1"
            }
          }
        },
        {
          "id": "1.932.1",
          "name": "Enseñanza de formación y perfeccionamiento profesional no superior",
          "_links": {
            "self": {
              "name": "Enseñanza de formación y perfeccionamiento profesional no superior",
              "href": "https://api.euskadi.eus/procurements/companies/economic-activities/1.932.1"
            }
          }
        },
        {
          "id": "1.952",
          "name": "Asistencia y servicios sociales en centros no residenciales",
          "_links": {
            "self": {
              "name": "Asistencia y servicios sociales en centros no residenciales",
              "href": "https://api.euskadi.eus/procurements/companies/economic-activities/1.952"
            }
          }
        }
      ],
      "certificateStartDate": "2025-09-02",
      "certificateEndDate": "2026-03-02",
      "object": "LOS FINES DE ESTA ASOCIACIÓN SON: INTEGRACIÓN SOCIO LABORAL DE PERSONAS CON ESPECIALES DIFICULTADES. POSIBILITAR EL ACCESO AL EMPLEO NORMALIZADO DE COLECTIVOS CON ESPECIALES DIFICULTADES, TRAS UN PERIODO DE ACOMPAÑAMIENTO Y A TRAVÉS DEL DESEMPEÑO DE UN PUESTO DE TRABAJO, ADEMÁS DE OFRECER SERVICIOS DE CALIDAD CON LOS RECURSOS HUMANOS Y TÉCNICOS NECESARIOS. CONSEGUIR UNA EDUCACIÓN QUE POTENCIE EL DESARROLLO INTEGRAL DE CADA PERSONA, AL MARGEN DE ESTEREOTIPOS DE GÉNERO ADQUIRIDOS. ESTIMULAR A LOS ALUMNOS/AS EN EL DESARROLLO DE SUS PROPIAS CAPACIDADES, LA ASUNCIÓN DE ACTITUDES Y VALORES PARA SU IDENTIDAD PERSONAL. ELABORACIÓN Y DESARROLLO DE PROYECTOS SOCIO-EDUCATIVOS. DESARROLLO DE PROYECTOS DE EDUCACIÓN INFANTIL Y JUVENIL. APOYO ESCOLAR IMPARTICIÓN DE FORMACIÓN PROFESIONAL DE GRADO MEDIO Y SUPERIOR. DISEÑO E IMPLANTACIÓN DE PROYECTOS DE FORMACIÓN / EMPLEO. FORMACIÓN DE PROFESIONALES DE Y EN DISTINTOS ÁMBITOS, INCENTIVANDO LA FORMACIÓN A LO LARGO DE LA VIDA. ELABORACIÓN Y DESARROLLO DE PROGRAMAS COMUNITARIOS DE INTERCAMBIO DE JÓVENES Y PROFESIONALES EN FORMACIÓN TEÓRICO-PRÁCTICA. DESARROLLAR E IMPARTIR TODO TIPO DE FORMACIÓN PARA EL EMPLEO, CONTENIDA, EN ALTERNANCIA, OCUPACIONAL...PROMOVER PROGRAMAS DE PRÁCTICAS PROFESIONALES PARA NUESTROS ALUMNOS Y OTRAS PERSONAS INTERESADAS. PLANIFICACIÓN Y DESARROLLO DE ACCIONES SOCIO-CULTURALES Y RECREATIVAS. FOMENTAR LA REALIZACIÓN DE NUEVAS PRÁCTICAS EN EL TRABAJO CON COLECTIVOS DE RIESGO O DEPENDENCIA. DESARROLLAR ACTIVIDADES PROPIAS DE LAS AGENCIAS DE COLOCACIÓN DE ACUERDO CON LA LEGISLACIÓN VIGENTE. DESARROLLAR ACTIVIDADES DE INTERMEDIACIÓN LABORAL, PROPORCIONANDO A LAS PERSONAS TRABAJADORAS UN EMPLEO ADECUADO A SUS CARACTERÍSTICAS Y FACILITAR A LOS EMPLEADORES LAS PERSONAS TRABAJADORAS MÁS APROPIADAS A SUS REQUERIMIENTOS Y NECESIDADES. PROMOVER LA CREACIÓN DE EMPRESAS DE INSERCIÓN, PREFERENTEMENTE DE ECONOMÍA SOCIAL O SOLIDARIA, EN LAS QUE PARTICIPEN COLECTIVOS EN RIESGO DE EXCLUSIÓN. PROMOVER ACTUACIONES QUE FAVOREZCAN LA FORMACIÓN PROFESIONAL, LA INSERCIÓN LABORAL Y LA CREACIÓN DE EMPLEO A FAVOR DE PERSONAS CON DISCAPACIDAD, FOMENTANDO LA CREACIÓN DE PUESTOS DE TRABAJO PARA LAS MISMAS, Y FINALMENTE, SU INTEGRACIÓN EN EL MERCADO DE TRABAJO. PROMOVER Y DESARROLLAR TODA CLASE DE ACCIONES ENCAMINADAS A LA PREVENCIÓN Y ELIMINACIÓN DE CUALQUIER CAUSA DE EXCLUSIÓN, MARGINACIÓN O DESIGUALDAD, PROMOVIENDO ESPECIALMENTE LA IGUALDAD DE MUJERES Y HOMBRES EN TODOS LOS ÁMBITOS DE LA SOCIEDAD. CONTRIBUIR A LA PREVENCIÓN Y ELIMINACIÓN DE LAS CAUSAS DE MARGINACIÓN SOCIAL Y DE DESIGUALDAD, ASÍ COMO PROMOVER Y FAVORECER LA INTEGRACIÓN SOCIAL Y LABORAL Y EL LIBRE DESARROLLO DE LAS PERSONAS Y COLECTIVOS EN SITUACIÓN O RIESGO DE EXCLUSIÓN. DESARROLLAR DESTREZAS QUE CAPACITEN AL PROFESORADO PARA ELIMINAR LOS SESGOS SEXISTAS TANTO EN EL CURRÍCULO EXPLÍCITO COMO EN EL OCULTO. COLABORAR CON ENTIDADES PÚBLICAS Y/O PRIVADAS PARA EL DESARROLLO DE SUS FINES FUNDACIONALES, EN CUALQUIERA DE SUS FASES, O EN TODAS ELLAS, TANTO EN EL TERRITORIO NACIONAL COMO EN EL ÁMBITO INTERNACIONAL Y, PRINCIPALMENTE, EN AQUELLAS REGIONES Y/O PAÍSES EMPOBRECIDOS Y/O EN VÍAS DE DESARROLLO. DESARROLLAR SERVICIOS DE ASISTENCIA A LA TERCERA EDAD Y PERSONAS DEPENDIENTES CON EL FIN DE MEJORAR SU CALIDAD DE VIDA. DESARROLLAR SERVICIOS DE PROTECCIÓN Y PROXIMIDAD A LA FAMILIA, INFANCIA Y JUVENTUD CON EL FIN DE MEJORAR SU CALIDAD DE VIDA. PROMOVER INVESTIGACIONES TENDENTES A MEJORAR LAS PRÁCTICAS PROFESIONALES Y LA CALIDAD DE LOS SERVICIOS EN LAS PERSONAS EN SITUACIÓN DE DEPENDENCIA. PROMOCIONAR DE TODO TIPO DE INICIATIVAS QUE TENGAN COMO FINALIDAD MEJORAR Y POTENCIAR LOS SERVICIOS DE PROXIMIDAD COMUNITARIOS: ACTIVIDADES DE FORMACIÓN, EMPLEO, INVESTIGACIÓN, DIFUSIÓN, ETC. PROMOVER ACTIVIDADES DE ORIENTACIÓN, INTEGRACIÓN SOCIO LABORAL, EMPLEO E INVESTIGACIÓN SOCIAL. DESARROLLAR SERVICIOS DE ASISTENCIA A LA TERCERA EDAD Y PERSONAS DEPENDIENTES CON EL FIN DE MEJORAR SU CALIDAD DE VIDA. DESARROLLAR SERVICIOS DE PROTECCIÓN, ASISTENCIA Y PROXIMIDAD A LA FAMILIA, INFANCIA Y JUVENTUD CON EL FIN DE MEJORAR SU CALIDAD DE VIDA. PROMOVER INVESTIGACIONES TENDENTES A MEJORAR LAS PRÁCTICAS PROFESIONALES Y LA CALIDAD DE LOS SERVICIOS A LAS PERSONAS EN SITUACIÓN DE EXCLUSIÓN O DEPENDENCIA. PROMOVER PROYECTOS DE ASESORAMIENTO A ENTIDADES PÚBLICAS O PRIVADAS QUE COADYUVEN EL LOGRO DEL FIN FUNDACIONAL, O CREAR LOS CONDICIONANTES JURÍDICOS O FÍSICOS, PARA QUE SE FACILITEN LOS MEDIOS PARA SU CUMPLIMIENTO. DESARROLLAR PROGRAMAS DE ASESORAMIENTO, MOTIVACIÓN Y ORIENTACIÓN LABORAL Y SOCIAL. REALIZAR TODO TIPO DE ACCIONES ENCAMINADAS A LA PROMOCIÓN LABORAL, FOMENTANDO ESPECIALMENTE EL AUTOEMPLEO, LAS EMPRESAS DE ECONOMÍA SOCIAL, LOS CENTROS ESPECIALES DE EMPLEO Y LAS EMPRESAS DE INSERCIÓN. PROMOVER, DISEÑAR, ORGANIZAR Y GESTIONAR PLANES FORMATIVOS EN EL ÁMBITO PROFESIONAL Y OCUPACIONAL. ANALIZAR NECESIDADES, REALIZAR PLANES DE VIABILIDAD, IMPLANTAR PROCESOS Y/O ADMINISTRAR Y GESTIONAR PROYECTOS ENCAMINADOS A LA FORMACIÓN, PROFESIONALIZACIÓN, INSERCIÓN LABORAL Y SOCIAL, CRECIMIENTO PERSONAL, ETC. PROMOVER CAMPAÑAS DE SENSIBILIZACIÓN CIUDADANA Y DE INFORMACIÓN QUE EXTIENDA SOCIALMENTE LOS SERVICIOS DE PROXIMIDAD COMUNITARIOS Y SU CALIDAD, ASÍ COMO CAMPAÑAS QUE SENSIBILICEN SOBRE INSERCIÓN DE COLECTIVOS DE DIFÍCIL INSERCIÓN. REALIZAR ESTUDIOS  DE MERCADO PARA ENTIDADES PÚBLICAS O PRIVADAS QUE FACILITEN LA CREACIÓN DE EMPRESAS CUYO OBJETIVO SEA LA INSERCIÓN DE LOS COLECTIVOS YA MENCIONADOS. EJERCER FUNCIONES DE ASESORÍA EN ENTIDADES PARTICULARES Y PÚBLICAS. PROMOVER TODO TIPO DE INICIATIVAS QUE TENGAN COMO FINALIDAD MEJORAR Y POTENCIAR LOS SERVICIOS DE PROXIMIDAD COMUNITARIOS: ACTIVIDADES DE FORMACIÓN, EMPLEO, INVESTIGACIÓN, DIFUSIÓN, ETC.\n",
      "mainEntityOfPage": "https://www.contratacion.euskadi.eus/webkpe00-kperoc/es/ac71aBusquedaRegistrosWar/empresa/08414",
      "_links": {
        "self": {
          "name": "MENDIBIL ASOCIACION PEDAGOGICA",
          "href": "https://api.euskadi.eus/procurements/companies/08414"
        }
      }
    },
    {
      "name": "DOKU, S.L.",
      "registrationNumber": "02526",
      "identificationNumber": "B20513719",
      "address": "CAMINO PORTUETXE, 18-2ºB (IGARA)",
      "location": {
        "postalCode": "20018",
        "municipality": "Donostia / San Sebastián",
        "county": "Gipuzkoa",
        "municipalityId": "069",
        "countyId": "20"
      },
      "economicActivities": [
        {
          "id": "1.476.1",
          "name": "Edición de libros",
          "_links": {
            "self": {
              "name": "Edición de libros",
              "href": "https://api.euskadi.eus/procurements/companies/economic-activities/1.476.1"
            }
          }
        },
        {
          "id": "1.476.2",
          "name": "Edición de periódicos y revistas",
          "_links": {
            "self": {
              "name": "Edición de periódicos y revistas",
              "href": "https://api.euskadi.eus/procurements/companies/economic-activities/1.476.2"
            }
          }
        },
        {
          "id": "1.659.4",
          "name": "Venta al por menor de libros, periódicos y artículos de papelería y escritorio",
          "_links": {
            "self": {
              "name": "Venta al por menor de libros, periódicos y artículos de papelería y escritorio",
              "href": "https://api.euskadi.eus/procurements/companies/economic-activities/1.659.4"
            }
          }
        },
        {
          "id": "1.849.2",
          "name": "Servicios mecanográficos, taquigráficos, de reproducción de escritos",
          "_links": {
            "self": {
              "name": "Servicios mecanográficos, taquigráficos, de reproducción de escritos",
              "href": "https://api.euskadi.eus/procurements/companies/economic-activities/1.849.2"
            }
          }
        },
        {
          "id": "1.849.3",
          "name": "Servicios de traducción y similares",
          "_links": {
            "self": {
              "name": "Servicios de traducción y similares",
              "href": "https://api.euskadi.eus/procurements/companies/economic-activities/1.849.3"
            }
          }
        },
        {
          "id": "1.861.2",
          "name": "Alquiler de locales industriales y otros alquileres n.c.o.p",
          "_links": {
            "self": {
              "name": "Alquiler de locales industriales y otros alquileres n.c.o.p",
              "href": "https://api.euskadi.eus/procurements/companies/economic-activities/1.861.2"
            }
          }
        }
      ],
      "certificateStartDate": "2025-09-02",
      "certificateEndDate": "2026-03-02",
      "object": "1) SERVICIOS DE INFORMACIÓN, DOCUMENTACIÓN Y GESTIÓN DE ARCHIVOS.\n2) SERVICIOS DE EDICIÓN DE PUBLICACIONES.\n3) SERVICIOS DE TRADUCCIÓN E INTERPRETACIÓN\n",
      "mainEntityOfPage": "https://www.contratacion.euskadi.eus/webkpe00-kperoc/es/ac71aBusquedaRegistrosWar/empresa/02526",
      "_links": {
        "self": {
          "name": "DOKU, S.L.",
          "href": "https://api.euskadi.eus/procurements/companies/02526"
        }
      }
    },
    {
      "name": "BASTOS MEDICAL, S.L.",
      "registrationNumber": "03579",
      "identificationNumber": "B61566006",
      "address": "C/ COLLSEROLA S/N",
      "location": {
        "postalCode": "08272",
        "municipality": "Sant Fruitós de Bages",
        "county": "Barcelona",
        "municipalityId": "213",
        "countyId": "08"
      },
      "economicActivities": [
        {
          "id": "1.652.1",
          "name": "Farmacias",
          "_links": {
            "self": {
              "name": "Farmacias",
              "href": "https://api.euskadi.eus/procurements/companies/economic-activities/1.652.1"
            }
          }
        },
        {
          "id": "1.665",
          "name": "Venta al por menor por correo o catálogo de productos diversos",
          "_links": {
            "self": {
              "name": "Venta al por menor por correo o catálogo de productos diversos",
              "href": "https://api.euskadi.eus/procurements/companies/economic-activities/1.665"
            }
          }
        }
      ],
      "certificateStartDate": "2025-09-02",
      "certificateEndDate": "2026-03-02",
      "object": "EL COMERCIO AL POR MAYOR, MENOR Y POR CATÁLOGO, DE PRODUCTOS MÉDICO-SANITARIOS, DE HIGIENE PERSONAL, EQUIPAMIENTOS HOSPITALARIOS, PRODUCTOS VETERINARIOS, PRODUCTOS DE ESTÉTICA Y DE PREVENCIÓN DE RIESGOS LABORALES, ASÍ COMO LA FABRICACIÓN DE DICHOS PRODUCTOS",
      "mainEntityOfPage": "https://www.contratacion.euskadi.eus/webkpe00-kperoc/es/ac71aBusquedaRegistrosWar/empresa/03579",
      "_links": {
        "self": {
          "name": "BASTOS MEDICAL, S.L.",
          "href": "https://api.euskadi.eus/procurements/companies/03579"
        }
      }
    },
    {
      "name": "BAIERREFORMAK, S.L.",
      "registrationNumber": "09534",
      "identificationNumber": "B75083154",
      "address": "Calle Olaberria 7, 2º izqda",
      "location": {
        "postalCode": "20215",
        "municipality": "Zegama",
        "county": "Gipuzkoa",
        "municipalityId": "025",
        "countyId": "20"
      },
      "economicActivities": [
        {
          "id": "1.501.1",
          "name": "Construcción completa, reparación y conservación de edificaciones",
          "_links": {
            "self": {
              "name": "Construcción completa, reparación y conservación de edificaciones",
              "href": "https://api.euskadi.eus/procurements/companies/economic-activities/1.501.1"
            }
          }
        },
        {
          "id": "1.504.2",
          "name": "Instalaciones de fontanería",
          "_links": {
            "self": {
              "name": "Instalaciones de fontanería",
              "href": "https://api.euskadi.eus/procurements/companies/economic-activities/1.504.2"
            }
          }
        }
      ],
      "certificateStartDate": "2025-09-02",
      "certificateEndDate": "2026-03-02",
      "object": "LA PRESTACIÓN DE TODO TIPO DE SERVICIOS RELACIONADOS CON LA DECORACIÓN Y CONSTRUCCIÓN EN GENERAL, TALES COMO LA VENTA DE MATERIAL DE CONSTRUCCIÓN Y MOBILIARIO DE DECORACIÓN, REHABILITACIÓN Y EDIFICACIÓN DE VIVIENDAS Y EDIFICIOS.",
      "mainEntityOfPage": "https://www.contratacion.euskadi.eus/webkpe00-kperoc/es/ac71aBusquedaRegistrosWar/empresa/09534",
      "_links": {
        "self": {
          "name": "BAIERREFORMAK, S.L.",
          "href": "https://api.euskadi.eus/procurements/companies/09534"
        }
      }
    },
    {
      "name": "GOIURI KOOP ELK TXIKIA",
      "registrationNumber": "10309",
      "identificationNumber": "F01828862",
      "address": "ELBARRENA AUZOA, 2",
      "location": {
        "postalCode": "20247",
        "municipality": "Zaldibia",
        "county": "Gipuzkoa",
        "municipalityId": "078",
        "countyId": "20"
      },
      "economicActivities": [
        {
          "id": "1.501.1",
          "name": "Construcción completa, reparación y conservación de edificaciones",
          "_links": {
            "self": {
              "name": "Construcción completa, reparación y conservación de edificaciones",
              "href": "https://api.euskadi.eus/procurements/companies/economic-activities/1.501.1"
            }
          }
        }
      ],
      "certificateStartDate": "2025-09-02",
      "certificateEndDate": "2026-03-02",
      "object": "LA CONSTRUCCIÓN EN GENERAL.",
      "mainEntityOfPage": "https://www.contratacion.euskadi.eus/webkpe00-kperoc/es/ac71aBusquedaRegistrosWar/empresa/10309",
      "_links": {
        "self": {
          "name": "GOIURI KOOP ELK TXIKIA",
          "href": "https://api.euskadi.eus/procurements/companies/10309"
        }
      }
    },
    {
      "name": "NYMIZ SOFTWARE COMPANY, S.L.",
      "registrationNumber": "09007",
      "identificationNumber": "B95987319",
      "address": "Calle Grn Vía Don Diego López de Haro,1, 7ª(Edificio Bat)",
      "location": {
        "postalCode": "48001",
        "municipality": "Bilbao",
        "county": "Bizkaia",
        "municipalityId": "020",
        "countyId": "48"
      },
      "economicActivities": [
        {
          "id": "1.845",
          "name": "Explotación electrónica por cuenta de terceros",
          "_links": {
            "self": {
              "name": "Explotación electrónica por cuenta de terceros",
              "href": "https://api.euskadi.eus/procurements/companies/economic-activities/1.845"
            }
          }
        }
      ],
      "certificateStartDate": "2025-09-02",
      "certificateEndDate": "2026-02-28",
      "object": "1. EL OBJETO SOCIAL DE LA SOCIEDAD ES LA PROGRAMACIÓN, CONSULTORÍA Y OTRAS ACTIVIDADES RELACIONADAS CON LA INFORMÁTICA, ACTIVIDADES DE PROGRAMACIÓN INFORMÁTICA, ACTIVIDADES DE CONSULTORÍA INFORMÁTICA, GESTIÓN DE RECURSOS INFORMÁTICOS Y OTROS SERVICIOS RELACIONADOS CON LAS TECNOLOGÍAS DE LA INFORMACIÓN Y LA INFORMÁTICA. 2. SERVICIOS DE INFORMACIÓN. PROCESOS DE DATOS, HOSTING Y ACTIVIDADES RELACIONADAS, PORTALES WEB, OTROS SERVICIOS DE INFORMACIÓN Y ACTIVIDADES DE LAS AGENCIAS DE NOTICIAS.",
      "mainEntityOfPage": "https://www.contratacion.euskadi.eus/webkpe00-kperoc/es/ac71aBusquedaRegistrosWar/empresa/09007",
      "_links": {
        "self": {
          "name": "NYMIZ SOFTWARE COMPANY, S.L.",
          "href": "https://api.euskadi.eus/procurements/companies/09007"
        }
      }
    },
    {
      "name": "ARTELATZ INGURUMEN ZERBITZUAK, S.L.",
      "registrationNumber": "05746",
      "identificationNumber": "B20959995",
      "address": "IZASKUNGO ALDAPA, 3-1.EZK.",
      "location": {
        "postalCode": "20400",
        "municipality": "Tolosa",
        "county": "Gipuzkoa",
        "municipalityId": "071",
        "countyId": "20"
      },
      "economicActivities": [
        {
          "id": "1.844",
          "name": "Servicios de publicidad, relaciones públicas y similares",
          "_links": {
            "self": {
              "name": "Servicios de publicidad, relaciones públicas y similares",
              "href": "https://api.euskadi.eus/procurements/companies/economic-activities/1.844"
            }
          }
        },
        {
          "id": "1.934",
          "name": "Enseñanza fuera de establecimiento permanente",
          "_links": {
            "self": {
              "name": "Enseñanza fuera de establecimiento permanente",
              "href": "https://api.euskadi.eus/procurements/companies/economic-activities/1.934"
            }
          }
        }
      ],
      "certificateStartDate": "2025-09-02",
      "certificateEndDate": "2026-03-02",
      "object": "LA EDUCACIÓN, INVESTIGACIÓN, ASESORAMIENTO, ANÁLISIS DIVULGACIÓN, DESARROLLO, EJECUCIÓN Y PROTECCIÓN EN MATERIAS MEDIOAMBIENTALES, ASISTENCIALES, EDUCATIVAS, CULTURALES, ASÍ COMO ACTIVIDADES DE COMUNICACIÓN, DISEÑO GRÁFICO Y PUBLICIDAD, CONTRATACIÓN, TRANSPORTE, COMERCIALIZACIÓN, INSTALACIÓN, MANTENIMIENTO, SUMINISTRO, EN EL ÁMBITO NACIONAL E INTERNACIONAL DE TODO TIPO DE PRODUCTOS MANUFACTURADOS, EN PARTICULAR LOS RELACIONADOS CON ACTIVIDADES MEDIOAMBIENTALES Y LOS NEGOCIOS JURÍDICOS NECESARIOS PARA EL DESARROLLO Y FIN DE LOS MISMOS",
      "mainEntityOfPage": "https://www.contratacion.euskadi.eus/webkpe00-kperoc/es/ac71aBusquedaRegistrosWar/empresa/05746",
      "_links": {
        "self": {
          "name": "ARTELATZ INGURUMEN ZERBITZUAK, S.L.",
          "href": "https://api.euskadi.eus/procurements/companies/05746"
        }
      }
    },
    {
      "name": "ARKI-TECNICAS KOOP. ELK. TXIKIA",
      "registrationNumber": "09214",
      "identificationNumber": "F06956403",
      "address": "CALLE JOSÉ ERBINA 13 - BAJO",
      "location": {
        "postalCode": "01005",
        "municipality": "Vitoria-Gasteiz",
        "county": "Araba/Álava",
        "municipalityId": "059",
        "countyId": "01"
      },
      "economicActivities": [
        {
          "id": "1.843.2",
          "name": "Servicios técnicos de arquitectura y urbanismo",
          "_links": {
            "self": {
              "name": "Servicios técnicos de arquitectura y urbanismo",
              "href": "https://api.euskadi.eus/procurements/companies/economic-activities/1.843.2"
            }
          }
        }
      ],
      "certificateStartDate": "2025-09-02",
      "certificateEndDate": "2026-02-28",
      "object": "LA GESTIÓN INTEGRAL DE PROYECTOS DE OBRA, TODAS LAS PROPIAS DE LA ARQUITECTURA TÉCNICA, GESTIÓN DE COOPERATIVAS DE VIVIENDAS; CONSULTORÍAS EN ALTA EFICIENCIA ENERGÉTICA DE EDIFICIOS PASSIVHAUS Y REHABILITACIONES ENERGÉTICAS ENERPHIT, HACIENDO CONSTAR QUE PARA EL EJERCICIO DE SU ACTIVIDAD LABORAL DENTRO DE LA COOPERATIVA NO NECESITAN ESTAR COLEGIADOS NI PERTENECER A NINGÚN COLEGIO PROFESIONAL.",
      "mainEntityOfPage": "https://www.contratacion.euskadi.eus/webkpe00-kperoc/es/ac71aBusquedaRegistrosWar/empresa/09214",
      "_links": {
        "self": {
          "name": "ARKI-TECNICAS KOOP. ELK. TXIKIA",
          "href": "https://api.euskadi.eus/procurements/companies/09214"
        }
      }
    }
  ]
}