{
  "totalItems": 9042,
  "totalPages": 905,
  "currentPage": 777,
  "itemsOfPage": 10,
  "items": [
    {
      "name": "THYSSENKRUPP ELEVADORES, S.A.",
      "registrationNumber": "02162",
      "identificationNumber": "A46001897",
      "address": "C/ CONDADO DE TREVIÑO, Nº 2.",
      "location": {
        "postalCode": "28033",
        "municipality": "Madrid",
        "county": "Madrid",
        "municipalityId": "079",
        "countyId": "28"
      },
      "economicActivities": [
        {
          "id": "1.325.4",
          "name": "Construcción de maquinaria de elevación y manipulación",
          "_links": {
            "self": {
              "name": "Construcción de maquinaria de elevación y manipulación",
              "href": "https://api.euskadi.eus/procurements/companies/economic-activities/1.325.4"
            }
          }
        },
        {
          "id": "1.501.3",
          "name": "Albañilería y pequeños trabajos de construcción en general",
          "_links": {
            "self": {
              "name": "Albañilería y pequeños trabajos de construcción en general",
              "href": "https://api.euskadi.eus/procurements/companies/economic-activities/1.501.3"
            }
          }
        },
        {
          "id": "1.504.6",
          "name": "Montaje e instalación de aparatos elevadores de cualquier clase",
          "_links": {
            "self": {
              "name": "Montaje e instalación de aparatos elevadores de cualquier clase",
              "href": "https://api.euskadi.eus/procurements/companies/economic-activities/1.504.6"
            }
          }
        },
        {
          "id": "1.507",
          "name": "Construcción, reparación y conservación de toda clase obras",
          "_links": {
            "self": {
              "name": "Construcción, reparación y conservación de toda clase obras",
              "href": "https://api.euskadi.eus/procurements/companies/economic-activities/1.507"
            }
          }
        },
        {
          "id": "1.843.1",
          "name": "Servicios técnicos de ingeniería",
          "_links": {
            "self": {
              "name": "Servicios técnicos de ingeniería",
              "href": "https://api.euskadi.eus/procurements/companies/economic-activities/1.843.1"
            }
          }
        }
      ],
      "certificateStartDate": "2006-10-09",
      "certificateEndDate": "2006-08-13",
      "object": "\r\n\r\n1º. EL INDUSTRIAL Y COMERCIAL QUE SE RELACIONE CON TODO LO CONCERNIENTE A LOS APARATOS ELEVADORES, DE CUALQUIER TIPPO Y APLICACIÓN, SIN DETERMINACIÓN DE SISTEMAS NI FUERZAS CAUSANTES, CON EXTENSIÓN TAMBIÉN A TODO LO QUE CONSTITUYA TRASLACIÓN CONTINUA DE PERSONAS U OBJETOS, EN CUALQUIER SENTIDO, ASCENDENTE, DESCENDENTE U HORIZONTAL.\r\n\r\n2º. LA ELABORACIÓN DE ESTUDIOS E INFORMES, QUE TENGAN POR OBJETO EL ANÁLISIS DE LA VIABILIDAD, TRÁFICO, IDONEIDAD Y COSTE, DE LA FABRICACIÓN, INSTALACIÓN Y MANTENIMIENTO DE APARATOS ELEVADORES.\r\n\r\n3º. LA ELABORACIÓN DE PROYECTOS, CON O SIN SU CONSIGUIENTE DIRECCIÓN DE OBRAS, RELATIVOS A INSTALACIONES INDUSTRIALES, TANTO PRINCIPALES COMO ACCESORIAS.\r\n\r\n4º. LA PRESTACIÓN DE SERVICIOS DE CONSERVACIÓN Y MANTENIMIENTO DE BIENES INMUEBLES, CON O SIN APORTACIÓN DE MATERIALES.\r\n\r\n5º. EL MANTENIMIENTO Y CONSERVACIÓN DE EQUIPOS E INSTALACIONES INDUSTRIALES, TANTO PRINCIPALES COMO ACCESORIAS",
      "mainEntityOfPage": "https://www.contratacion.euskadi.eus/webkpe00-kperoc/es/ac71aBusquedaRegistrosWar/empresa/02162",
      "_links": {
        "self": {
          "name": "THYSSENKRUPP ELEVADORES, S.A.",
          "href": "https://api.euskadi.eus/procurements/companies/02162"
        }
      }
    },
    {
      "name": "CLINICA MATERNAL NTRA. SRA. LA ESPERANZA, S.A.",
      "registrationNumber": "02898",
      "identificationNumber": "A01006790",
      "address": "C/ LA ESPERANZA, 3. BAJO",
      "location": {
        "postalCode": "01001",
        "municipality": "Vitoria-Gasteiz",
        "county": "Araba/Álava",
        "municipalityId": "059",
        "countyId": "01"
      },
      "economicActivities": [
        {
          "id": "1.682",
          "name": "Servicio de hospedaje en hostales y pensiones",
          "_links": {
            "self": {
              "name": "Servicio de hospedaje en hostales y pensiones",
              "href": "https://api.euskadi.eus/procurements/companies/economic-activities/1.682"
            }
          }
        },
        {
          "id": "1.941.2",
          "name": "Hospitales especializados (quirúrgicos, maternidades, psiquiátricos)",
          "_links": {
            "self": {
              "name": "Hospitales especializados (quirúrgicos, maternidades, psiquiátricos)",
              "href": "https://api.euskadi.eus/procurements/companies/economic-activities/1.941.2"
            }
          }
        }
      ],
      "certificateStartDate": "2006-10-04",
      "certificateEndDate": "2007-02-28",
      "object": "TANTO DIRECTAMENTE COMO DE FORMA INDIRECTA, MEDIANTE LA TITULARIDAD DE ACCIONES O PARTICIPACIONES EN SOCIEDADES CON OBJETO IDÉNTICO, EXPLOTACIÓN DE UNA CLÍNICA MATERNAL Y DEMÁS ACTIVIDADES RELACIONADAS DIRECTAMENTE CON EL EJERCICIO DE LA MEDICINA",
      "mainEntityOfPage": "https://www.contratacion.euskadi.eus/webkpe00-kperoc/es/ac71aBusquedaRegistrosWar/empresa/02898",
      "_links": {
        "self": {
          "name": "CLINICA MATERNAL NTRA. SRA. LA ESPERANZA, S.A.",
          "href": "https://api.euskadi.eus/procurements/companies/02898"
        }
      }
    },
    {
      "name": "ENYCA SEGURIDAD, S.A.",
      "registrationNumber": "03255",
      "identificationNumber": "A93623608",
      "address": "AVDA LA CERRADA Nº 37 MALIAÑO",
      "location": {
        "postalCode": "39600",
        "municipality": "Camargo",
        "county": "Cantabria",
        "municipalityId": "016",
        "countyId": "39"
      },
      "economicActivities": [
        {
          "id": "1.504.1",
          "name": "Instalaciones eléctricas en general",
          "_links": {
            "self": {
              "name": "Instalaciones eléctricas en general",
              "href": "https://api.euskadi.eus/procurements/companies/economic-activities/1.504.1"
            }
          }
        },
        {
          "id": "1.504.7",
          "name": "Instalaciones telefónicas, telegráficas, televisión, etc",
          "_links": {
            "self": {
              "name": "Instalaciones telefónicas, telegráficas, televisión, etc",
              "href": "https://api.euskadi.eus/procurements/companies/economic-activities/1.504.7"
            }
          }
        }
      ],
      "certificateStartDate": "2006-10-03",
      "certificateEndDate": "2007-03-13",
      "object": "LA INSTALACIÓN Y  MANTENIMIENTO DE APARATOS, DISPOSITIVOS Y SISTEMAS DE SEGURIDAD CONTRA ROBO, INSTRUSIÓN Y PROTECCIÓN CONTRA INCENDIOS; LA PLANIFICACIÓN Y ASESORAMIENTO DE LAS ACTIVIDADES DE SEGURIDAD CONTEMPLADAS EN LA LEY DE SEGURIDAD PRIVADA",
      "mainEntityOfPage": "https://www.contratacion.euskadi.eus/webkpe00-kperoc/es/ac71aBusquedaRegistrosWar/empresa/03255",
      "_links": {
        "self": {
          "name": "ENYCA SEGURIDAD, S.A.",
          "href": "https://api.euskadi.eus/procurements/companies/03255"
        }
      }
    },
    {
      "name": "ELECTRICIDAD HERMOSA SOCIEDAD ANONIMA",
      "registrationNumber": "03256",
      "identificationNumber": "A48091706",
      "address": "C/ SOLLUBE 5-7",
      "location": {
        "postalCode": "48002",
        "municipality": "Bilbao",
        "county": "Bizkaia",
        "municipalityId": "020",
        "countyId": "48"
      },
      "economicActivities": [
        {
          "id": "1.504.1",
          "name": "Instalaciones eléctricas en general",
          "_links": {
            "self": {
              "name": "Instalaciones eléctricas en general",
              "href": "https://api.euskadi.eus/procurements/companies/economic-activities/1.504.1"
            }
          }
        }
      ],
      "certificateStartDate": "2006-10-03",
      "certificateEndDate": "2007-01-05",
      "object": "INSTALACIONES ELECTRICAS AT Y BT, DE TELECOMUNICACIONES Y COMPLEMENTARIAS. ",
      "mainEntityOfPage": "https://www.contratacion.euskadi.eus/webkpe00-kperoc/es/ac71aBusquedaRegistrosWar/empresa/03256",
      "_links": {
        "self": {
          "name": "ELECTRICIDAD HERMOSA SOCIEDAD ANONIMA",
          "href": "https://api.euskadi.eus/procurements/companies/03256"
        }
      }
    },
    {
      "name": "CONSTRUCCIONES PÚBLICAS COPRISA, S.A.",
      "registrationNumber": "02621",
      "identificationNumber": "A26019307",
      "address": "PZA. IRIBAR, 2-2º OFIC. 2. EDIFICIO ARAGI II",
      "location": {
        "postalCode": "20018",
        "municipality": "Donostia / San Sebastián",
        "county": "Gipuzkoa",
        "municipalityId": "069",
        "countyId": "20"
      },
      "economicActivities": [
        {
          "id": "1.501.2",
          "name": "Construcción completa, reparación y conservación obras civiles",
          "_links": {
            "self": {
              "name": "Construcción completa, reparación y conservación obras civiles",
              "href": "https://api.euskadi.eus/procurements/companies/economic-activities/1.501.2"
            }
          }
        }
      ],
      "certificateStartDate": "2006-10-02",
      "certificateEndDate": "2007-03-14",
      "object": "EJECUCIÓN DE CUALQUIER CLASE DE OBRAS, TANTO PARA PARTICULARES COMO PARA ORGANISMOS OFICIALES DEL ESTADO, PROVINCIA O MUNICIPIO, O CUALQUIERA OTRA ENTIDAD PÚBLICA O PRIVADA.\r\n\r\nCOMPRA-VENTA DE SOLARES Y TERRENOS URBANOS Ó RÚSTICOS, SU URBANIZACIÓN Y PARCELACIÓN, PROMOCIÓN DE EDIFICIOS DE TODA CLASE, ASÍ COMO EL ARRENDAMIENTO Y VENTA DE LOS MISMOS, YA SEA EN BLOQUE O POR PARTES IGUALES.\r\n\r\nTODAS LAS ACTIVIDADES RELACIONADAS CON LOS ANTERIORMENTE RESEÑADOS, PODRÁN SER DESARROLLADOS POR LA SOCIEDAD TOTAL O PARCIALMENTE  DE MODO INDIRECTO MEDIANTE LA TITULARIDAD DE ACCIONES O PARTICIPACIONES EN SOCIEDADES CON OBJETO IDÉNTICO O ANÁLOGO    ",
      "mainEntityOfPage": "https://www.contratacion.euskadi.eus/webkpe00-kperoc/es/ac71aBusquedaRegistrosWar/empresa/02621",
      "_links": {
        "self": {
          "name": "CONSTRUCCIONES PÚBLICAS COPRISA, S.A.",
          "href": "https://api.euskadi.eus/procurements/companies/02621"
        }
      }
    },
    {
      "name": "NU COMUNICACIÓN, S.L.L.",
      "registrationNumber": "02811",
      "identificationNumber": "B20696167",
      "address": "PASEO COLÓN, 46",
      "location": {
        "postalCode": "20002",
        "municipality": "Donostia / San Sebastián",
        "county": "Gipuzkoa",
        "municipalityId": "069",
        "countyId": "20"
      },
      "economicActivities": [
        {
          "id": "1.844",
          "name": "Servicios de publicidad, relaciones públicas y similares",
          "_links": {
            "self": {
              "name": "Servicios de publicidad, relaciones públicas y similares",
              "href": "https://api.euskadi.eus/procurements/companies/economic-activities/1.844"
            }
          }
        }
      ],
      "certificateStartDate": "2006-09-21",
      "certificateEndDate": "2007-01-14",
      "object": "LA ACTIVIDAD DE AGENCIA DE PUBLICIDAD Y COMUNICACIÓN, ASÍ COMO TODOS AQUELLOS SERVICIOS RELACIONADOS CON LA PUBLICIDAD. LA SOCIEDAD PODRÁ REALIZAR SU OBJETO SOCIAL BIEN DIRECTAMENTE, BIEN MEDIANTE SU PARTICIPACIÓN EN OTRAS SOCIEDADES MERCANTILES. LA SOCIEDAD NO DESARROLLARÁ NINGUNA ACTIVIDAD PARA LA QUE LAS LEYES EXIJAN CONDICIONES O LIMITACIONES ESPECÍFICAS, EN TANTO NO DÉ EXACTO CUMPLIMIENTO A LAS MISMAS.",
      "mainEntityOfPage": "https://www.contratacion.euskadi.eus/webkpe00-kperoc/es/ac71aBusquedaRegistrosWar/empresa/02811",
      "_links": {
        "self": {
          "name": "NU COMUNICACIÓN, S.L.L.",
          "href": "https://api.euskadi.eus/procurements/companies/02811"
        }
      }
    },
    {
      "name": "BASTEAN, S.L.",
      "registrationNumber": "03244",
      "identificationNumber": "B95351664",
      "address": "PZA SAGRADO CORAZÓN 4, 1º PTA 10",
      "location": {
        "postalCode": "48011",
        "municipality": "Bilbao",
        "county": "Bizkaia",
        "municipalityId": "020",
        "countyId": "48"
      },
      "economicActivities": [
        {
          "id": "1.501.2",
          "name": "Construcción completa, reparación y conservación obras civiles",
          "_links": {
            "self": {
              "name": "Construcción completa, reparación y conservación obras civiles",
              "href": "https://api.euskadi.eus/procurements/companies/economic-activities/1.501.2"
            }
          }
        }
      ],
      "certificateStartDate": "2006-09-14",
      "certificateEndDate": "2007-01-03",
      "object": "LA PRESTACIÓN DE SERVICIOS ADMINISTRATIVOS, SERVICIOS ESPECIALIZADOS, DE HIGIENIZACIÓN, DESIFNECCIÓN, DESRATIZACIÓN Y DESINSECTACIÓN, ATENCIÓN Y MANEJO DE INSTALACIONES DE SEGURIDAD PREVENCIÓN DE INCENDIOS FORESTALES, REPOBLACIONES FORESTALES Y SERVICIOS DE PROTECCIÓN DE ESPECIES; SERVICIOS CUALIFICADOS DE RESTAURACIÓN DE OBRAS DE ARTE; SERVICIOS DE CONSERVACIÓN Y MANTENIMIENTO DE BIENES INMUEBLES; MANTENIMIENTO DE DEPURADORAS; SERVICIOS DE MANTENIMIENTO Y REPARACIÓN DE EQUIPOS E INSTALACIONES, EN ESPECIAL, ELÉCTRICAS, ELECTRÓNICAS, FONTANERÍA, CONDUCCIONES DE AGUA Y GAS, CALEFACCIÓN Y AIRE ACONDICIONADO, ELECTROMEDICINA, DE SEGURIDAD Y CONTRA INCENDIOS, EQUIPOS Y MAQUINARIA DE OFICINA, DE APARATOS ELEVADORES Y DE TRASLACIÓN HORIZONTAL; SERVICIOS DE MANTENIMIENTO Y REPARACIÓN DE MQUINARIA; INSTALACIÓN , EN GENERAL, DE TODO TIPO; SERVICIOS DE TRANSPORTE; SERVICIO DE TRATAMIENTO DE RESIDUOS Y DESECHOS; SERVICIOS DE CONTENIDO, EN ESPECIAL, SERVICIOS DE PUBLICIDAD, DE RADIO, TELEVISIÓN Y AGENCIA DE NOTICIAS; SERVICIOS GENERALES DE LIMPIEZA, LAVANDERÍA Y TINTE, ALMACENAJE Y AGENCIA DE VIAJES; SERVICIOS DE TECNOLOGÍAS DE LA INFORMACIÓN Y COMUNICACIONES Y, SERVICIOS DE TELECOMUNICACIONES; MANTENIMIENTO Y CONCESIÓN DE APARCAMIENTOS PÚBLICOS O PRIVADOS, MANTENIMIENTO DE ESTACIONES Y ANDENES DE FERROCARRILES Y METRO, MANTENIMIENTO DE RÍOS Y CAUCES, TODOS AQUELLOS TRABAJOS RELACIONADOS CON EL MEDIO AMBIENTE DEL GOBIERNO VASCO, MANTENIMIENTO DE EDIFICIOS DEL GOBIERNO VASCO; MANTENIMIENTO DE HOSPITALES, GESTIÓN, MANTENIMIENTO Y EXPLOTACIÓN DE RESIDENCIAS GERIÁTRICAS, SERVICIO DE AYUDAS A DOMICILIO, GESTIÓN, MANTENIMIENTO Y EXPLOTACIÓN DE RESIDENCIA INFANTILES ",
      "mainEntityOfPage": "https://www.contratacion.euskadi.eus/webkpe00-kperoc/es/ac71aBusquedaRegistrosWar/empresa/03244",
      "_links": {
        "self": {
          "name": "BASTEAN, S.L.",
          "href": "https://api.euskadi.eus/procurements/companies/03244"
        }
      }
    },
    {
      "name": "I-TEC GESTIÓN E INNNOVACIÓN TECNOLÓGICA, S.L.",
      "registrationNumber": "02693",
      "identificationNumber": "B20686218",
      "address": "PARQUE EMPRESARIAL  ZUATZU. EDIF. ONDARRETA PL. 2",
      "location": {
        "postalCode": "20018",
        "municipality": "Donostia / San Sebastián",
        "county": "Gipuzkoa",
        "municipalityId": "069",
        "countyId": "20"
      },
      "economicActivities": [
        {
          "id": "1.847",
          "name": "Servicios de consultoría",
          "_links": {
            "self": {
              "name": "Servicios de consultoría",
              "href": "https://api.euskadi.eus/procurements/companies/economic-activities/1.847"
            }
          }
        }
      ],
      "certificateStartDate": "2006-09-13",
      "certificateEndDate": "2007-01-07",
      "object": "CONSULTORÍA EN GESTIÓN DE LA INNOVACIÓN DE LA ACTIVIDAD EMPRESARIAL, EN TODOS SUS ASPECTOS Y, CENTRADA SOBRE TODO EN LA INNOVACIÓN TECNOLÓGICA. ENTRE SUS ACTIVIDADES BÁSICAS FIGURAN: A) REALIZACIÓN DE DIAGNÓSTICOS TECNOLÓGICOS; B) ASISTENCIA A LA DETERMINACÓN DE LA ESTRATEGIA TECNOLÓGICA, DEFINICIÓN Y PROGRAMACIÓN DE PROYECTOS DE I+D, Y SU EVOLUCIÓN FINANCIERA; C) ASISTENCIA EN EL ESTABLECIMIENTO DE CONTACTOS CON CENTROS TECNOLÓGICOS O LABORATORIOS; D) ASISTENCIA EN PROYECTOS DE DESARROLLO TECNOLÓGICO CON PROVEEDORES, CLIENTES,..; E) BÚSQUEDA DE LA INFORMACIÓN TÉCNICA NECESARIA PARA LA REALIZACIÓN DE PROYECTOS TECNOLÓGICOS; BIBLIOGRAFÍA Y PATENTES; F) ANALISIS DE LAS DIVERSAS FUENTES DE FINANCIACIÓN Y ELABORACIÓN DE MEMORIAS O DOCUMENTOS DE PROYECTOS DE I+D, PARA SOLICITAR AYUDAS FINANCIERAS ANTE LAS DISTINTAS ADMINISTRACIONES PÚBLICAS, REGIONALES, NACIONALES O COMUNITARIAS; G) EL SEGUIMIENTO DE LOS DESARROLLOS TECNOLÓGICOS FUERA DE LA EMPRESA; H) EL ANÁLISIS, EVALUACIÓN Y PLANIFICACIÓN DE LAS CAPACIDADES TECNOLÓGICAS INTERNAS; I) LA OPTIMIZACIÓN EN LA EXPLOTACIÓN DE LA TECNOLOGÍA, MEDIANTE SU COMERCIALIZACIÓN VÍA PRODUCTOS Y PROCESOS; J) LA PROTECCIÓN DE RECURSOS TECNOLÓGICOS DE LA EMPRESA Y SU PROPIEDAD INDUSTRIAL",
      "mainEntityOfPage": "https://www.contratacion.euskadi.eus/webkpe00-kperoc/es/ac71aBusquedaRegistrosWar/empresa/02693",
      "_links": {
        "self": {
          "name": "I-TEC GESTIÓN E INNNOVACIÓN TECNOLÓGICA, S.L.",
          "href": "https://api.euskadi.eus/procurements/companies/02693"
        }
      }
    },
    {
      "name": "PROFIT GESTIÓN INFORMÁTICA, S.A.",
      "registrationNumber": "02719",
      "identificationNumber": "A78878717",
      "address": "SAN JOAQUIN, 1",
      "location": {
        "postalCode": "28230",
        "municipality": "Rozas de Madrid, Las",
        "county": "Madrid",
        "municipalityId": "127",
        "countyId": "28"
      },
      "economicActivities": [
        {
          "id": "1.845",
          "name": "Explotación electrónica por cuenta de terceros",
          "_links": {
            "self": {
              "name": "Explotación electrónica por cuenta de terceros",
              "href": "https://api.euskadi.eus/procurements/companies/economic-activities/1.845"
            }
          }
        }
      ],
      "certificateStartDate": "2006-09-08",
      "certificateEndDate": "2007-01-13",
      "object": "LA PRESTACIÓN DE SERVICIOS DE CONSULTORÍA DE ALTO NIVEL EN LAS ÁREAS RELACIONADAS CON LA UTILIZACIÓN DE LA TECNOLOGÍA DE LA INFORMACIÓN EN SU MÁS AMPLIA ACEPCIÓN. ESTOS SERVICIOS PUEDEN ABARCAR LAS SIGUIENTES ÁREAS DE ACTIVIDAD:\r\nA. ESTUDIOS DE OPORTUNIDAD CON OBJETO DE RESOLVER DETERMINADA PROBLEMÁTICA EMPRESARIAL CON UN ENFOQUE DE MÁXIMA RENTABILIDAD ECONÓMICA POR EL USO ADECUADO DE LAS TECNOLOGÍAS DE LA INFORMACIÓN.\r\nB. ESTUDIOS DE ESTRATEGIA EMPRESARIAL ANALIZANDO EL POSICIONAMIENTO GLOBAL O EN DETERMINADAS ÁREAS DE NEGOCIO DE UNA EMPRESA CON RELACIÓN A SU COMPETENCIA CON DETALLE DE LOS PROYECTOS CUYA REALIZACIÓN SUMINISTRARÍA AL CLIENTE VENTAJAS COMPETITIVAS. DICHOS PROYECTOS UTILIZARÍAN LAS TECNOLOGÍAS DE LA INFORMACIÓN DE LA MANERA MÁS ADECUADA PARA LOGRAR DICHO OBJETIVO.\r\nC. EJECUCIÓN E IMPLANTACIÓN DE LOS PROYECTOS RECOMENDADOS UTILIZANDO AL MÁXIMO LOS RECURSOS MATERIALES Y HUMANOS DE LOS QUE DISPONGA EL CLIENTE. PARA LOS CASOS EN LOS QUE DICHOS RECURSOS, RESULTEN INSUFICIENTES, PROFIT GESTIÓN INFORMÁTICA, S.A. LOS COMPLEMENTARÁ CON RECURSOS PROPIOS O SUBCONTRATADOS PERO ASUMIENDO, EN CUALQUIER CASO, RESPONSABILIDAD COMPLETA SOBRE EL PROYECTO.\r\n- LA PRESTACIÓN DE SERVICIOS DE GESTIÓN DEL PERSONAL INFORMÁTICO DEL CLIENTE. DICHOS SERVICIOS PUEDEN CUBRIR LAS SIGUIENTES ÁREAS DE ACTIVIDAD:\r\nA. REVISIÓN DE LA IDONEIDAD DE LA ESTRUCTURA HUMANA ASIGNADA A LA FUNCIÓN DE LAS TECNOLOGÍAS DE LA INFORMACIÓN. LAS CONCLUSIONES DE DICHA REVISIÓN PUEDEN SER,\r\n-PROPUESTAS DE RESPONSABILIZARSE COMPLETAMENTE DE DICHA GESTIÓN.\r\n-PROPUESTAS DE CONTRATACIONES EXTERNAS PARA LAS FUNCIONES EN LAS QUE LA ACTUAL DOTACIÓN NO ES ADECUADA. POSIBILIDAD DE RESPONSABILIZARSE COMPLETAMENTE DE DICHA GESTIÓN.\r\n-PROPUESTAS PARA LA RECOLOCACIÓN EN EL MERCADO EXTERNO DE LOS EXCEDENTES. POSIBILIDAD DE RESPONSABILIZARSE COMPLETAMENTE DE DICHA GESTIÓN.\r\nB. REVISIÓN DE LOS PROCEDIMIENTOS DE RELACIÓN DE LA FUNCIÓN RESPONSABLE DE LAS TECNOLOGÍAS DE LA INFORMACIÓN CON LAS RESTANTES FUNCIONES DE LA COMPAÑÍA.\r\nC. FORMACIÓN DE PERSONAL.\r\nLAS ACCIONES ANTERIORMENTE ENUMERADAS PUEDEN SER COMPLEMENTADAS CON PLANES GLOBALES DE FORMACIÓN QUE PUEDEN AFECTAR DESDE LOS NIVELES GERENCIALES DE LA EMPRESA A LAS ÁREAS MÁS ESPECIALIZADAS EN EL MANEJO DE LAS TECNOLOGÍAS DE LA INFORMACIÓN.\r\n-PRESTACIÓN DIRECTA DE SERVICIOS INFORMÁTICOS.\r\nPROFIT GESTIÓN INFORMÁTICA, S.A. COMPLEMENTARÁ LAS ACCIONES ANTERIORMENTE CITADAS CON LA PRESTACIÓN DIRECTA DE SERVICIOS INFORMÁTICOS EN ÁREAS QUE RESULTEN SUBSIDIARIAS DE LAS ANTERIORES. SE CITAN EN CONCRETO:\r\n-TODAS LAS ACTIVIDADES RELACIONADAS CON LA PRESTACIÓN DE SERVICIOS DE FORMACIÓN INFORMÁTICA, INCLUYENDO LA ENSEÑANZA ASISTIDA POR ORDENADOR.\r\n-PRESTACIÓN DE SERVICIOS DE CENTRO DE CÁLCULO EN ACTIVIDADES DE VALOR AÑADIDO GLOBAL COMO PUEDEN SER LAS REDES DE VALOR AÑADIDO O LOS CENTRO DE BACKUP.\r\nLA SOCIEDAD  PODRÁ PARTICIPAR EN EL CAPITAL DE TODO TIPO DE SOCIEDADES Y EMPRESAS O AGRUPACIONES DE INTERÉS ECONÓMICO, SUSCRIBIR LAS INVERSIONES FINANCIERAS QUE ESTIME OPORTUNAS, CONTRIBUIR A LA FINANCIACIÓN DE NEGOCIOS, PRESTAR AVALES Y ADQUIRIR Y EXPLOTAR BIENES INMUEBLES, TODO ELLO DENTRO O FUERA DE ESPAÑA Y, EN TODO CASO, CON EXCLUSIÓN DE ACTIVIDADES PROPIAS DE LAS SOCIEDADES Y AGENCIAS DE VALORES, DE LAS SOCIEDADES DE INVERSIÓN COLECTIVA Y DE LAS SOCIEDADES DE FINANCIACIÓN O DE CUALESQUIERA OTRAS QUE REQUIERAN LA APLICACIÓN DE UN RÉGIMEN LEGAL SINGULAR E IMPERATIVO",
      "mainEntityOfPage": "https://www.contratacion.euskadi.eus/webkpe00-kperoc/es/ac71aBusquedaRegistrosWar/empresa/02719",
      "_links": {
        "self": {
          "name": "PROFIT GESTIÓN INFORMÁTICA, S.A.",
          "href": "https://api.euskadi.eus/procurements/companies/02719"
        }
      }
    },
    {
      "name": "CONSTRUCCIONES SAGARMIÑA, S.A.",
      "registrationNumber": "01407",
      "identificationNumber": "A20180493",
      "address": "C/ SAN AGUSTÍN, Nº 11 - BAJO.",
      "location": {
        "postalCode": "20830",
        "municipality": "Mutriku",
        "county": "Gipuzkoa",
        "municipalityId": "056",
        "countyId": "20"
      },
      "economicActivities": [
        {
          "id": "1.501.1",
          "name": "Construcción completa, reparación y conservación de edificaciones",
          "_links": {
            "self": {
              "name": "Construcción completa, reparación y conservación de edificaciones",
              "href": "https://api.euskadi.eus/procurements/companies/economic-activities/1.501.1"
            }
          }
        }
      ],
      "certificateStartDate": "2006-08-24",
      "certificateEndDate": "2007-02-03",
      "object": "LA PROMOCIÓN URBANÍSTICA DE TERRENOS O SOLARES, LA COMPRA Y VENTA DE LOS MISMOS, LA CONSTRUCCIÓN DE EDIFICIOS, Y LA VENTA DE LOS ASÍ CONSTRUIDOS",
      "mainEntityOfPage": "https://www.contratacion.euskadi.eus/webkpe00-kperoc/es/ac71aBusquedaRegistrosWar/empresa/01407",
      "_links": {
        "self": {
          "name": "CONSTRUCCIONES SAGARMIÑA, S.A.",
          "href": "https://api.euskadi.eus/procurements/companies/01407"
        }
      }
    }
  ]
}