{
  "totalItems": 9042,
  "totalPages": 905,
  "currentPage": 310,
  "itemsOfPage": 10,
  "items": [
    {
      "name": "I2M SOLUCIONES TECNICAS, S.L.",
      "registrationNumber": "09828",
      "identificationNumber": "B86774593",
      "address": "Pol.Ind.La Sendilla Av Las Palmeras 16 nave D8",
      "location": {
        "postalCode": "28350",
        "municipality": "Ciempozuelos",
        "county": "Madrid",
        "municipalityId": "040",
        "countyId": "28"
      },
      "economicActivities": [
        {
          "id": "1.615.3",
          "name": "Venta al por mayor de aparatos electrodomésticos y ferretería",
          "_links": {
            "self": {
              "name": "Venta al por mayor de aparatos electrodomésticos y ferretería",
              "href": "https://api.euskadi.eus/procurements/companies/economic-activities/1.615.3"
            }
          }
        },
        {
          "id": "1.617.9",
          "name": "Venta al por mayor interindustrial de otros productos n.c.o.p",
          "_links": {
            "self": {
              "name": "Venta al por mayor interindustrial de otros productos n.c.o.p",
              "href": "https://api.euskadi.eus/procurements/companies/economic-activities/1.617.9"
            }
          }
        },
        {
          "id": "1.843.1",
          "name": "Servicios técnicos de ingeniería",
          "_links": {
            "self": {
              "name": "Servicios técnicos de ingeniería",
              "href": "https://api.euskadi.eus/procurements/companies/economic-activities/1.843.1"
            }
          }
        }
      ],
      "certificateStartDate": "2025-08-31",
      "certificateEndDate": "2026-02-28",
      "object": "1. CONSTRUCCIÓN, INSTALACIONES Y MANTENIMIENTO. 2. COMERCIO AL POR MAYOR Y AL POR MENOR, DISTRIBUCIÓN COMERCIAL, IMPORTACIÓN Y EXPORTACIÓN DE SUMINISTROS INDUSTRIALES. 3. ACTIVIDADES INMOBILIARIAS. 5. INDUSTRIAS MANUFACTURERAS Y TEXTILES. 6. TURISMO, HOSTELERÍA Y RESTAURACIÓN. 7. PRESTACIÓN DE SERVICIOS. ACTIVIDADES DE GESTIÓN Y ADMINISTRACIÓN. SERVICIOS EDUCATIVOS, SANITARIOS, DE OCIO Y ENTRETENIMIENTO. 8. TRANSPORTE Y ALMACENAMIENTO. 9. INFORMACIÓN Y COMUNICACIONES. 10. AGRICULTURA, GANADERÍA Y PESCA. 11. INFORMÁTICA, TELECOMUNICACIONES Y OFIMÁTICA. 12. ENERGÍAS ALTERNATIVAS. 13. COMPRAVENTA Y REPARACIÓN DE VEHÍCULOS. REPARACIÓN Y MANTENIMIENTO DE INSTALACIONES Y MAQUINARIA. 14. INVESTIGACIÓN, DESARROLLO E INNOVACIÓN. 15. ACTIVIDADES CIENTÍFICAS Y TÉCNICAS.",
      "mainEntityOfPage": "https://www.contratacion.euskadi.eus/webkpe00-kperoc/es/ac71aBusquedaRegistrosWar/empresa/09828",
      "_links": {
        "self": {
          "name": "I2M SOLUCIONES TECNICAS, S.L.",
          "href": "https://api.euskadi.eus/procurements/companies/09828"
        }
      }
    },
    {
      "name": "DEXPU 2013 S.L.",
      "registrationNumber": "08145",
      "identificationNumber": "B95721338",
      "address": "Bº AHEDO Nº 32",
      "location": {
        "postalCode": "48891",
        "municipality": "Karrantza Harana/Valle de Carranza",
        "county": "Bizkaia",
        "municipalityId": "022",
        "countyId": "48"
      },
      "economicActivities": [
        {
          "id": "1.502.2",
          "name": "Consolidación y preparación de terrenos para la construcción de edificaciones",
          "_links": {
            "self": {
              "name": "Consolidación y preparación de terrenos para la construcción de edificaciones",
              "href": "https://api.euskadi.eus/procurements/companies/economic-activities/1.502.2"
            }
          }
        },
        {
          "id": "1.911",
          "name": "Servicios agrícolas y ganaderos",
          "_links": {
            "self": {
              "name": "Servicios agrícolas y ganaderos",
              "href": "https://api.euskadi.eus/procurements/companies/economic-activities/1.911"
            }
          }
        }
      ],
      "certificateStartDate": "2025-08-30",
      "certificateEndDate": "2026-02-28",
      "object": "ACTIVIDADES AGRÍCOLAS, GANADERAS Y FORESTALES. CONSOLIDACION Y PREPARACION DE TERRENOS.",
      "mainEntityOfPage": "https://www.contratacion.euskadi.eus/webkpe00-kperoc/es/ac71aBusquedaRegistrosWar/empresa/08145",
      "_links": {
        "self": {
          "name": "DEXPU 2013 S.L.",
          "href": "https://api.euskadi.eus/procurements/companies/08145"
        }
      }
    },
    {
      "name": "SUMINISTROS INDUSTRIALES BELLO, S.A.",
      "registrationNumber": "08680",
      "identificationNumber": "A24082786",
      "address": "FONTANILLOS, S.N.",
      "location": {
        "postalCode": "24010",
        "municipality": "San Andrés del Rabanedo",
        "county": "León",
        "municipalityId": "142",
        "countyId": "24"
      },
      "economicActivities": [
        {
          "id": "1.613.3",
          "name": "Venta al por mayor de prendas exteriores de vestir",
          "_links": {
            "self": {
              "name": "Venta al por mayor de prendas exteriores de vestir",
              "href": "https://api.euskadi.eus/procurements/companies/economic-activities/1.613.3"
            }
          }
        },
        {
          "id": "1.617.9",
          "name": "Venta al por mayor interindustrial de otros productos n.c.o.p",
          "_links": {
            "self": {
              "name": "Venta al por mayor interindustrial de otros productos n.c.o.p",
              "href": "https://api.euskadi.eus/procurements/companies/economic-activities/1.617.9"
            }
          }
        }
      ],
      "certificateStartDate": "2025-08-30",
      "certificateEndDate": "2026-02-28",
      "object": "EL COMERCIO AL POR MENOR DE MAQUINARIA NUEVA Y USADA PARA TODA CLASE DE APLICACIÓNES, DE ACCESORIOS Y APARATOS DE CALEFACCIÓN Y REFRIGERACIÓN DE TODAS CLASES, DE CÁMARAS FRIGORÍFICAS DE USO INDUSTRIAL, DE INSTALACIONES COMPLETAS DE MAQUINARIA Y RIEGOS Y APARATOS CIENTÍFICOS Y APARATOS CIENTÍFICOS Y DE MEDIDA DE APLICACIÓN INDUSTRIAL Y AGRÍCOLA; DE ACCESORIOS Y PIEZAS DE RECAMBIO PARA VEHÍCULOS, ARTÍCULOS DE DEPORTE EN SU MÁS AMPLIO SENTIDO. VENTA DE TODO TIPO DE MATERIALES RELACIONADOS CON EL EQUIPAMIENTO DE PROTECCIÓN INDIVIDUAL Y PARA TODO TIPO DE APLICACIONES, LABORALES, PRIVADAS O PÚBLICAS. VENTA DE TODO TIPO DE MATERIALES RELACIONADOS CON LA SEGURIDAD DE PERSONAS, INMUEBLES, VEHÍCULOS DE MODO PROFESIONAL O LÚDICO EN SUS MÁS VARIADOS CAMPOS DE APLICACIÓN, DESDE EL VESTUARIO Y UNIFORMIDAD HASTA HERRAMIENTAS Y ACCESORIOS PARA ELLO. VENTA DE TODO TIPO DE MAQUINARIA Y HERRAMIENTA PARA CUALQUIER USO PROFESIONAL O PARTICULAR, Y EN TODAS SUS VARIANTES POSIBLES, JUNTO CON SUS RECAMBIOS Y ACCESORIOS.",
      "mainEntityOfPage": "https://www.contratacion.euskadi.eus/webkpe00-kperoc/es/ac71aBusquedaRegistrosWar/empresa/08680",
      "_links": {
        "self": {
          "name": "SUMINISTROS INDUSTRIALES BELLO, S.A.",
          "href": "https://api.euskadi.eus/procurements/companies/08680"
        }
      }
    },
    {
      "name": "BERDIN ALAVA, S. L.",
      "registrationNumber": "08781",
      "identificationNumber": "B01321975",
      "address": "Canal de Santo Tomas, 1",
      "location": {
        "postalCode": "01013",
        "municipality": "Vitoria-Gasteiz",
        "county": "Araba/Álava",
        "municipalityId": "059",
        "countyId": "01"
      },
      "economicActivities": [
        {
          "id": "1.615.3",
          "name": "Venta al por mayor de aparatos electrodomésticos y ferretería",
          "_links": {
            "self": {
              "name": "Venta al por mayor de aparatos electrodomésticos y ferretería",
              "href": "https://api.euskadi.eus/procurements/companies/economic-activities/1.615.3"
            }
          }
        }
      ],
      "certificateStartDate": "2025-08-30",
      "certificateEndDate": "2026-02-28",
      "object": "LA COMPRA-VENTA Y NONTAJE DE MATERIAL ELÉCTRICO E INSTALACIONES DE ESTA ÍNDOLE Y CUANTAS ACTIVIDADES ESTÉN DIRECTA O INDIRECTAMENTE RELACIONADAS CON EL INDICADO OBJETO. LA COMPRA-VENTA, ALQUILER Y URBANIZACIÓN DE TERRENOS Y SOLARES. LA COMPRA-VENTA ALQUILER, PROMOCIÓN Y CONSTRUCCIÓN DE EDIFICIOS DE USO INDUSTRIAL, COMERCIAL Y RESIDENCIAL. LA COMPRA-VENTA AL POR MAYOR Y/O AL POR MENOR DE MAQUINARIA Y VEHÍCULOS Y DE TODA CLASE DE PRODUCTOS DE USO INDUSTRIAL Y/O DOMÉSTICO, ASÍ COMO LA REPRESENTACIÓN Y VENTA A COMISIÓN DE LOS MISMOS. LA REALIZACIÓN DE OPERACIONES DE COMISIÓN Y CORRETAJE. LA PRESTACIÓN DE SERVICIOS DE ASESORAMIENTO EN LA GESTIÓN, DIRECCIÓN Y ADMINISTRACIÓN DE EMPRESAS. EL ASESORAMIENTO A EMPRESAS, INDUSTRIALES Y COMERCIANTES EN EL ESTABLECIMIENTO DE ACTIVIDADES TRANSFORMADORAS Y EN LA REALIZACIÓN DE OPERACIONES COMERCIALES.",
      "mainEntityOfPage": "https://www.contratacion.euskadi.eus/webkpe00-kperoc/es/ac71aBusquedaRegistrosWar/empresa/08781",
      "_links": {
        "self": {
          "name": "BERDIN ALAVA, S. L.",
          "href": "https://api.euskadi.eus/procurements/companies/08781"
        }
      }
    },
    {
      "name": "AUTONERVIÓN, S.A.",
      "registrationNumber": "00071",
      "identificationNumber": "A48054076",
      "address": "C/ CTRA. BARAKALDO - TRAPAGARÁN, Km. 9,200.",
      "location": {
        "postalCode": "48910",
        "municipality": "Sestao",
        "county": "Bizkaia",
        "municipalityId": "084",
        "countyId": "48"
      },
      "economicActivities": [
        {
          "id": "1.615.1",
          "name": "Venta al por mayor de vehículos, motocicletas, bicicletas y sus accesorios",
          "_links": {
            "self": {
              "name": "Venta al por mayor de vehículos, motocicletas, bicicletas y sus accesorios",
              "href": "https://api.euskadi.eus/procurements/companies/economic-activities/1.615.1"
            }
          }
        },
        {
          "id": "1.691.2",
          "name": "Reparación de vehículos automóviles, bicicletas y otros vehículos",
          "_links": {
            "self": {
              "name": "Reparación de vehículos automóviles, bicicletas y otros vehículos",
              "href": "https://api.euskadi.eus/procurements/companies/economic-activities/1.691.2"
            }
          }
        },
        {
          "id": "1.722",
          "name": "Transporte de mercancías por carretera",
          "_links": {
            "self": {
              "name": "Transporte de mercancías por carretera",
              "href": "https://api.euskadi.eus/procurements/companies/economic-activities/1.722"
            }
          }
        },
        {
          "id": "1.854.1",
          "name": "Alquiler de automóviles sin conductor",
          "_links": {
            "self": {
              "name": "Alquiler de automóviles sin conductor",
              "href": "https://api.euskadi.eus/procurements/companies/economic-activities/1.854.1"
            }
          }
        }
      ],
      "certificateStartDate": "2025-08-29",
      "certificateEndDate": "2026-02-27",
      "object": "LA REPRESENTACIÓN, PROMOCIÓN, COMERCIALIZACIÓN Y VENTA DE CUALQUIER TIPO DE VEHÍCULOS  Y MARCA; ASÍ COMO DE CUALQUIER TIPO DE PRODUCTOS DE LAS MISMAS. LA VENTA, COMPRA Y ALQUILER, CON O SIN CONDUCTOR, DE VEHÍCULOS NUEVOS, USADOS O DE OCASIÓN, DE CUALQUIER MARCA, TANTO TURISMOS COMO VEHÍCULOS COMERCIALES O INDUSTRIALES, YA SEAN DE TRACCIÓN MECÁNICA O ELÉCTRICA. LA COMPRA Y VENTA DE PIEZAS DE RECAMBIOS Y ACCESORIOS PARA VEHÍCULOS DE CUALQUIER MARCA O MODELO. LA REPARACIÓN, PUESTA A PUNTO, REVISIÓN, ENGRASE, LAVADO Y MANTENIMIENTO DE VEHÍCULOS, ASÍ COMO SU GUARDA O ALMACENAMIENTO Y CUSTODIA EN SUS INSTALACIONES. LA PRESTACIÓN DE SERVICIO DE ASISTENCIA EN CARRETERA A VEHÍCULOS, SU TRANSPORTE Y REMOLQUE MEDIANTE GRÚAS DE CUALQUIER TIPO DE VEHÍCULOS. LA COMPRA, VENTA, ARRENDAMIENTO, CESIÓN O CUALQUIER OTRO RIPO DE EXPLOTACIÓN DE ESTACIONES DE SERVICIO DE CARBURANTE Y SUMINISTRO DE GASOLINA, GASÓLEOS, ACEITES Y GRASAS DERIVADOS DEL PETRÓLEO. LA EXPLOTACIÓN DE LAS TIENDAS UBICADAS EN ESTAS INSTALACIONES PARA LAS VENTAS DE MERCADERÍAS Y PRODUCTOS PERECEDEROS, ASÍ COMO LAS INSTALACIONES ANEXAS A ESTAS EXPLOTACIONES TALES COMO TÚNELES DE LAVADO, CAFETERÍA Y RESTAURANTE. LA CONSTRUCCIÓN, PROMOCIÓN, COMPRA, VENTA, TENENCIA, ALQUILER, PARCELACIÓN, URBANIZACIÓN Y EXPLOTACIÓN DE BIENES INMUEBLES, PUDIENDO PROCEDER A LA EDIFICACIÓN DE LOS MISMOS Y A SU ENAJENACIÓN, DE FORMA ÍNTEGRA O PARCIAL, O EN RÉGIMEN DE PROPIEDAD HORIZONTAL. LA COMPRA, TENENCIA, ADMINISTRACIÓN, PERMUTA Y VENTA DE TODA CLASE DE VALORES MOBILIARIOS, TANTO PÚBLICOS COMO PRIVADOS. LAS ACTIVIDADES COMPRENDIDAS EN EL PUNTO ANTERIOR ÚNICAMENTE PODRÁN SER DESARROLLADAS POR LA SOCIEDAD POR CUENTA PROPIA Y CON EXCEPCIÓN DE LA INTERMEDIACIÓN, Y DEJANDO SIEMPRE FUERA LAS ACTIVIDADES PROPIAS DE LAS INSTITUCIONES DE INVERSIÓN COLECTIVA Y DE MERCADO DE VALORES Y DEMÁS SOCIEDADES DE CARTERA SOMETIDAS A LA LEGISLACIÓN ESPECIAL. LA SOCIEDAD PODRÁ DESARROLLAR SU OBJETO SOCIAL DIRECTAMENTE, PUDIENDO ASIMISMO REALIZARLO, TOTAL O PARCIALMENTE DE MODO INDIRECTO, MEDIANTE LA TITULARIDAD DE ACCIONES O DE PARTICIPACIONES EN SOCIEDADES CUYO OBJETO SEA IDÉNTICO O ANÁLOGO",
      "mainEntityOfPage": "https://www.contratacion.euskadi.eus/webkpe00-kperoc/es/ac71aBusquedaRegistrosWar/empresa/00071",
      "_links": {
        "self": {
          "name": "AUTONERVIÓN, S.A.",
          "href": "https://api.euskadi.eus/procurements/companies/00071"
        }
      }
    },
    {
      "name": "JANINDU, S.L.",
      "registrationNumber": "09034",
      "identificationNumber": "B95424248",
      "address": "ARITZ BIDEA, 75 (POLÍGONO BELAKO -C/Eneperi, 13-)",
      "location": {
        "postalCode": "48100",
        "municipality": "Mungia",
        "county": "Bizkaia",
        "municipalityId": "069",
        "countyId": "48"
      },
      "economicActivities": [
        {
          "id": "1.504.5",
          "name": "Montaje e instalación de cocinas de todo tipo y clase",
          "_links": {
            "self": {
              "name": "Montaje e instalación de cocinas de todo tipo y clase",
              "href": "https://api.euskadi.eus/procurements/companies/economic-activities/1.504.5"
            }
          }
        },
        {
          "id": "1.692",
          "name": "Reparación de maquinaria industrial",
          "_links": {
            "self": {
              "name": "Reparación de maquinaria industrial",
              "href": "https://api.euskadi.eus/procurements/companies/economic-activities/1.692"
            }
          }
        }
      ],
      "certificateStartDate": "2025-08-29",
      "certificateEndDate": "2026-02-28",
      "object": "LA INSTALACIÓN, REPARACIÓN Y MANTENIMIENTO DE APARATOS ELÉCTRICOS, ELECTRÓNICOS Y ELECTRODOMÉSTICOS COMO COCINAS, FREIDORAS, LAVAVAJILLAS, HORNOS Y SIMILARES, TANTO PARA USO INDUSTRIAL COMO DOMÉSTICO. (CNAE 3314). TAMBIÉN TIENE POR OBJETO: LA INSTALACIÓN COMPLETA, REPARACIÓN Y MANTENIMIENTO DE CÁMARAS FRIGORÍFICAS, COCINAS INDUSTRIALES, INSTALACIONES TÉCNICAS SIMPLES O COMPLEJAS, PARA LA FABRICACIÓN, ELABORACIÓN, CONSERVACIÓN Y TRANSPORTE DE COMIDAS PRECOCINADAS, O PREPARADOS ALIMENTICIOS DESTINADOS A LA PRESTACIÓN DEL SERVICIO DE CATERING POR LA PROPIA SOCIEDAD O POR TERCEROS. TAMBIÉN INCLUYE LA COMPRA Y VENTA DE APARATOS ELÉCTRICOS, ELECTRÓNICOS Y ELECTRODOMÉSTICOS, COCINAS INDUSTRIALES, CÁMARAS FRIGORÍFICAS, E INSTALACIONES SIMPLES O COMPLEJAS PARA FABRICACIÓN, ELABORACIÓN, CONSERVACIÓN Y TRANSPORTE DE    ALIMENTOS, TANTO PARA SU VENTA AL DETALLE, COMO AL POR MAYOR, Y LA COMERCIALIZACIÓN DE ESTOS BIENES Y EL UTILLAJE Y MOBILIARIO RELACIONADO CON LA HOSTELERÍA, YA SEA NUEVO O USADO. LA EXPLOTACIÓN, DE MANERA DIRECTA O INDIRECTA, INCLUSO POR MEDIO DEL ARRENDAMIENTO, DE NEGOCIOS DE HOSTELERÍA Y HOSPEDAJE, TALES COMO BARES, TABERNAS, CAFETERÍAS, FONDAS, HOTELES Y CASAS DE COMIDA DE CUALQUIER CATEGORÍA Y CONDICIÓN. PRESTACIÓN DE SERVICIOS DE CATERING Y ELABORACIÓN DE COMIDAS PARA SER CONSUMIDAS IN SITU O PARA SER TRANSPORTADAS, SERVIDAS Y CONSUMIDAS EN CENTROS ESCOLARES, HOSPITALES, CENTROS DE TRABAJO O DOMICILIOS PARTICULARES. EL ARRENDAMIENTO O CESIÓN POR TIEMPO DETERMINADO DE INSTALACIONES COMPLEJAS COMO COCINAS INDUSTRIALES Y SIMILARES, PARA LA ELABORACIÓN DE ALIMENTOS EN LOS CITADOS CENTROS. PRESTACIÓN DE SERVICIOS ACCESORIOS RELACIONADOS CON LA HOSTELERÍA TALES COMO LA CELEBRACIÓN DE EVENTOS GASTRONÓMICOS, PRESTACIONES DE SERVICIOS DE BARMAN, CAMAREROS DE MESA Y SIMILARES EN TODO TIPO DE EVENTOS, FIESTAS, CELEBRACIONES O CONMEMORACIONES, UTILIZANDO PRODUCTOS DE ELABORACIÓN PROPIA O DE TERCEROS, ASÍ COMO LA CESIÓN DEL PERSONAL NECESARIO PARA LA PRESTACIÓN DE LOS CITADOS SERVICIOS. SERVICIO DE LIMPIEZA Y MANTENIMIENTO DE ESTABLECIMIENTOS INDUSTRIALES, OFICINAS, EMPRESAS, HOSPITALES, CENTROS ESCOLARES, RESIDENCIAS, VIALES DE USO PÚBLICO, PARQUES O JARDINES, PISCINAS, EDIFICIOS PÚBLICOS, EDIFICIOS HISTÓRICOS O SINGULARES, INSTALACIONES DEPORTIVAS Y ESTADIOS, COMUNIDADES DE PROPIETARIOS, ENTRE OTROS, ASÍ COMO LA RECOGIDA Y TRANSPORTES DE RESIDUOS A LOS CENTROS DE RECOGIDA PARA SU TRATAMIENTO. LA PLANTACIÓN, REPLANTACIÓN, PODA DE ÁRBOLES, RIEGO, VIGILANCIA, REPARACIÓN Y MANTENIMIENTO INTEGRAL DE JARDINES PÚBLICOS O PRIVADOS, Y CUALQUIER ACTIVIDAD ACCESORIA A LAS ANTERIORES RELACIONADAS CON LA JARDINERÍA, TALES COMO LA INSTALACIÓN, DECORACIÓN Y ORNATO DE PARQUES, JARDINES Y VIALES, CON FLORES O PLANTAS, O CON OTROS ELEMENTOS DE CUALQUIER CONDICIÓN.\n.",
      "mainEntityOfPage": "https://www.contratacion.euskadi.eus/webkpe00-kperoc/es/ac71aBusquedaRegistrosWar/empresa/09034",
      "_links": {
        "self": {
          "name": "JANINDU, S.L.",
          "href": "https://api.euskadi.eus/procurements/companies/09034"
        }
      }
    },
    {
      "name": "LOPETEGUI ANAIAK SL",
      "registrationNumber": "09031",
      "identificationNumber": "B20563284",
      "address": "AUZKO TXIKIA 23 CASA ETXE BERRI",
      "location": {
        "postalCode": "20400",
        "municipality": "Tolosa",
        "county": "Gipuzkoa",
        "municipalityId": "071",
        "countyId": "20"
      },
      "economicActivities": [
        {
          "id": "1.501.1",
          "name": "Construcción completa, reparación y conservación de edificaciones",
          "_links": {
            "self": {
              "name": "Construcción completa, reparación y conservación de edificaciones",
              "href": "https://api.euskadi.eus/procurements/companies/economic-activities/1.501.1"
            }
          }
        }
      ],
      "certificateStartDate": "2025-08-29",
      "certificateEndDate": "2026-02-28",
      "object": "LA CONSTRUCCION COMPLETA, REPARACION Y CONSERVACION DE EDIFICACIONES.",
      "mainEntityOfPage": "https://www.contratacion.euskadi.eus/webkpe00-kperoc/es/ac71aBusquedaRegistrosWar/empresa/09031",
      "_links": {
        "self": {
          "name": "LOPETEGUI ANAIAK SL",
          "href": "https://api.euskadi.eus/procurements/companies/09031"
        }
      }
    },
    {
      "name": "PLAYAS CANTABRICO BALEARES, S.L.",
      "registrationNumber": "08287",
      "identificationNumber": "B20858981",
      "address": "Martindegi Auzoa, 14",
      "location": {
        "postalCode": "20120",
        "municipality": "Hernani",
        "county": "Gipuzkoa",
        "municipalityId": "040",
        "countyId": "20"
      },
      "economicActivities": [
        {
          "id": "1.849.9",
          "name": "Otros servicios independientes n.c.o.p",
          "_links": {
            "self": {
              "name": "Otros servicios independientes n.c.o.p",
              "href": "https://api.euskadi.eus/procurements/companies/economic-activities/1.849.9"
            }
          }
        },
        {
          "id": "1.859",
          "name": "Alquiler de otros bienes muebles n.c.o.p. (sin personal permanente)",
          "_links": {
            "self": {
              "name": "Alquiler de otros bienes muebles n.c.o.p. (sin personal permanente)",
              "href": "https://api.euskadi.eus/procurements/companies/economic-activities/1.859"
            }
          }
        },
        {
          "id": "1.861.2",
          "name": "Alquiler de locales industriales y otros alquileres n.c.o.p",
          "_links": {
            "self": {
              "name": "Alquiler de locales industriales y otros alquileres n.c.o.p",
              "href": "https://api.euskadi.eus/procurements/companies/economic-activities/1.861.2"
            }
          }
        }
      ],
      "certificateStartDate": "2025-08-29",
      "certificateEndDate": "2026-02-28",
      "object": "LA COMPRA, VENTA, PERMUTA, ALQUILER, CESIÓN Y/O EXPLOTACIÓN EN CUALESQUIERA OTRAS FORMAS DE TODO TIPO DE MOBILIARIO Y ARTÍCULOS DE PLAYA, ASÍ COMO LA PRESTACIÓN DE SERVICIOS DE MONTAJE Y DESMONTAJE RELACIONADOS CON LOS MISMOS, YA SEA EN FORMA DIRECTA Y PLENA O EN COLABORACIÓN, PARTICIPACIÓN O ASOCIACIÓN CON OTRAS PERSONAS O ENTIDADES, PRIVADAS O PÚBLICAS, NACIONALES O EXTRANJERAS. LA COMPRA, VENTA, PERMUTA, ALQUILER, CESIÓN Y/O EXPLOTACIÓN EN CUALESQUIERA OTRAS FORMAS DE TODAS CLASE DE EQUIPOS Y EQUIPAMIENTOS PARA LA PRÁCTICA DE DEPORTES ACUÁTICOS Y SUBACUÁTICOS, ASÍ COMO LA PRESTACIÓN DE TODA CLASE DE SERVICIOS RELACIONADOS CON DICHAS ACTIVIDADES, INCLUIDOS PERO NO LIMITADOS A, LA ORGANIZACIÓN Y/O IMPARTICIÓN DE CURSOS DE APRENDIZAJE, LA PRESTACIÓN DE SERVICIOS DE MONITOR Y LA ORGANIZACIÓN DE EXCURSIONES Y VISITAS GUIADAS, YA SEA EN FORMA DIRECTA Y PLENA O EN COLABORACIÓN, PARTICIPACIÓN O ASOCIACIÓN CON OTRAS PERSONAS O ENTIDADES, PRIVADAS O PÚBLICAS, NACIONALES O EXTRANJERAS. LA COMPRA, VENTA, PERMUTA, ALQUILER, CESIÓN Y/O EXPLOTACIÓN EN CUALESQUIERA OTRAS FORMAS DE TODA CLASE DE EMBARCACIONES DE RECREO, CON O SIN TRIPULACIÓN, YA SEA EN FORMA DIRECTA Y PLENA O EN COLABORACIÓN, PARTICIPACIÓN O ASOCIACIÓN CON OTRAS PERSONAS O ENTIDADES, PRIVADAS O PÚBLICAS, NACIONALES O EXTRANJERAS. LA PRESTACIÓN DE SERVICIOS DE BAR Y RESTAURANTE EN RÉGIMEN DE CONCESIÓN, ARRENDAMIENTO O EN CUALESQUIERA OTRAS FORMAS EN PLAYAS, PUERTOS, PASEOS MARÍTIMOS Y DEMÁS LUGARES DE INTERÉS TURÍSTICO; YA SEA EN FORMA DIRECTA Y PLENA O EN COLABORACIÓN, PARTICIPACIÓN O ASOCIACIÓN CON OTRAS PERSONAS O ENTIDADES, PRIVADAS O PÚBLICAS, NACIONALES O EXTRANJERAS. LA PRODUCCIÓN Y MONTAJE DE INSTALACIONES Y SERVICIOS RECREATIVOS Y CULTURALES. TAMBIÉN CONSTITUIRÁ SU OBJETO LA FABRICACIÓN DE ESTRUCTURAS METÁLICAS. EL ALQUILER DE LOCALES INDUSTRIALES Y OTROS ALQUILERES.",
      "mainEntityOfPage": "https://www.contratacion.euskadi.eus/webkpe00-kperoc/es/ac71aBusquedaRegistrosWar/empresa/08287",
      "_links": {
        "self": {
          "name": "PLAYAS CANTABRICO BALEARES, S.L.",
          "href": "https://api.euskadi.eus/procurements/companies/08287"
        }
      }
    },
    {
      "name": "VLAI ARCHIVOS Y BIBLIOTECAS SL",
      "registrationNumber": "06124",
      "identificationNumber": "B95253076",
      "address": "Berangoeta Bidea n 10",
      "location": {
        "postalCode": "48640",
        "municipality": "Berango",
        "county": "Bizkaia",
        "municipalityId": "016",
        "countyId": "48"
      },
      "economicActivities": [
        {
          "id": "1.849.9",
          "name": "Otros servicios independientes n.c.o.p",
          "_links": {
            "self": {
              "name": "Otros servicios independientes n.c.o.p",
              "href": "https://api.euskadi.eus/procurements/companies/economic-activities/1.849.9"
            }
          }
        }
      ],
      "certificateStartDate": "2025-08-29",
      "certificateEndDate": "2026-02-22",
      "object": "LA GESTIÓN DE LA INFORMACIÓN EN EL ÁMBITO DE LA ADMINISTRACIÓN PÚBLICA Y DE LA EMPRESA PRIVADA. GESTIÓN DE ARCHIVOS: ORDENACIÓN, CLASIFICACIÓN, SELECCIÓN Y DESCRIPCIÓN DE LA DOCUMENTACIÓN; DISEÑO, PROGRAMACIÓN Y GESTIÓN DE BASES DE DATOS PARA SU TRATAMIENTO INFORMÁTICO; DISEÑO Y TRATAMIENTO DE ESPACIOS DESTINADOS A ARCHIVO; FORMACIÓN DE PERSONAL. GESTIÓN DE BIBLIOTECAS Y DOCUMENTACIÓN: CATALOGACIÓN, SELECCIÓN Y ORDENACIÓN DE FONDOS BIBLIOGRÁFICOS Y/O DOCUMENTALES; INSTALACIÓN Y GESTIÓN DE PROGRAMAS COMERCIALES PARA SU TRATAMIENTO INFORMÁTICO; DISEÑO Y TRATAMIENTO DE ESPACIOS DESTINADOS A BIBLIOTECA Y/O CENTRO DE DOCUMENTACIÓN; FORMACIÓN DE PERSONAL; CURSOS DE FORMACIÓN AVANZADA EN GESTIÓN DE LA INFORMACIÓN; CONSULTORÍA",
      "mainEntityOfPage": "https://www.contratacion.euskadi.eus/webkpe00-kperoc/es/ac71aBusquedaRegistrosWar/empresa/06124",
      "_links": {
        "self": {
          "name": "VLAI ARCHIVOS Y BIBLIOTECAS SL",
          "href": "https://api.euskadi.eus/procurements/companies/06124"
        }
      }
    },
    {
      "name": "SEIGAR BOST, S.L.",
      "registrationNumber": "06226",
      "identificationNumber": "B75046177",
      "address": "AVDA A. JOSE ELOSEGUI, 249",
      "location": {
        "postalCode": "20015",
        "municipality": "Donostia / San Sebastián",
        "county": "Gipuzkoa",
        "municipalityId": "069",
        "countyId": "20"
      },
      "economicActivities": [
        {
          "id": "1.316.2",
          "name": "Fabricación de artículos de ferretería y cerrajería",
          "_links": {
            "self": {
              "name": "Fabricación de artículos de ferretería y cerrajería",
              "href": "https://api.euskadi.eus/procurements/companies/economic-activities/1.316.2"
            }
          }
        },
        {
          "id": "1.653.2",
          "name": "Venta al por menor de material y aparatos eléctricos, electrodomésticos y cocina",
          "_links": {
            "self": {
              "name": "Venta al por menor de material y aparatos eléctricos, electrodomésticos y cocina",
              "href": "https://api.euskadi.eus/procurements/companies/economic-activities/1.653.2"
            }
          }
        }
      ],
      "certificateStartDate": "2025-08-29",
      "certificateEndDate": "2026-02-27",
      "object": "LA SOCIEDAD TIENE COMO OBJETO LA FABRICACIÓN, VENTA Y ALQUILER DE DISPOSITIVOS ELECTRÓNICOS DE CONTROL DE IDENTIFICACIÓN Y ACCESO A CONTENEDORES Y APARATOS DE TODO TIPÒ, ASÍ COMO DE CONTENEDORES,  CUBRECONTENEDORES, MÁQUINAS EXPENDEDORAS DE BOLSAS Y OTROS ELEMENTOS SIMILARES Y DE PRODUCTOS COMPLEMENTARIOS A ESA ACTIVIDAD, COMO SOFTWARE DE GESTIÓN, TARJETAS ELECTRÓNICAS DE USUARIO, ETC.",
      "mainEntityOfPage": "https://www.contratacion.euskadi.eus/webkpe00-kperoc/es/ac71aBusquedaRegistrosWar/empresa/06226",
      "_links": {
        "self": {
          "name": "SEIGAR BOST, S.L.",
          "href": "https://api.euskadi.eus/procurements/companies/06226"
        }
      }
    }
  ]
}