{
  "totalItems": 9042,
  "totalPages": 905,
  "currentPage": 581,
  "itemsOfPage": 10,
  "items": [
    {
      "name": "RANDSTAD CONSULTORES Y SOLUCIONES DE RECURSOS HUMANOS, S.L.",
      "registrationNumber": "06881",
      "identificationNumber": "B81500043",
      "address": "C/Vía de los Poblados, 9",
      "location": {
        "postalCode": "28033",
        "municipality": "Madrid",
        "county": "Madrid",
        "municipalityId": "079",
        "countyId": "28"
      },
      "economicActivities": [
        {
          "id": "1.849.9",
          "name": "Otros servicios independientes n.c.o.p",
          "_links": {
            "self": {
              "name": "Otros servicios independientes n.c.o.p",
              "href": "https://api.euskadi.eus/procurements/companies/economic-activities/1.849.9"
            }
          }
        }
      ],
      "certificateStartDate": "2020-03-03",
      "certificateEndDate": "2020-08-20",
      "object": "LA PRESTACIÓN A TERCERAS PERSONAS, FÍSICAS O JURÍDICAS, PÚBLICAS O PRIVADAS, DE SERVICIOS DE ASESORAMIENTO, CONSULTORÍA, ASISTENCIA Y DESARROLLO DE ACTIVIDADES DE GESTIÓN Y ORGANIZACIÓN EMPRESARIAL, ESTUDIOS DE MERCADO, ECONÓMICOS Y DE \"MARKETING\", ADMINISTRATIVOS Y CONTABLES Y LA REALIZACIÓN DE CURSOS Y FORMACIÓN DE PERSONAL; EL DESARROLLO, LA EJECUCIÓN, SUPERVISIÓN Y/O MANTENIMIENTO DE PROYECTOS INDUSTRIALES, INFORMÁTICOS, DE OBRAS DE CONSTRUCCIÓN, INGENIERÍA Y TRANSPORTE; LA PRESTACIÓN DE SERVICIOS DE HOSTELERÍA Y COCINA; LA ORGANIZACIÓN Y ASISTENCIA TÉCNICA PARA LA REALIZACIÓN DE FERIAS, CONGRESOS Y EXPOSICIONES; Y LA PRESTACIÓN DE SERVICIOS DE ASISTENCIA SOCIAL Y SANITARIA\r\n",
      "mainEntityOfPage": "https://www.contratacion.euskadi.eus/webkpe00-kperoc/es/ac71aBusquedaRegistrosWar/empresa/06881",
      "_links": {
        "self": {
          "name": "RANDSTAD CONSULTORES Y SOLUCIONES DE RECURSOS HUMANOS, S.L.",
          "href": "https://api.euskadi.eus/procurements/companies/06881"
        }
      }
    },
    {
      "name": "RH PAMPLONA REFORMAS HABILITACIONES Y MAS S.L.",
      "registrationNumber": "06875",
      "identificationNumber": "B71341622",
      "address": "POLIGONO INDUSTRIAL MUTILVA BAJA CALLE D - NAVE 13",
      "location": {
        "postalCode": "31192",
        "municipality": "Aranguren",
        "county": "Navarra",
        "municipalityId": "023",
        "countyId": "31"
      },
      "economicActivities": [
        {
          "id": "1.501.1",
          "name": "Construcción completa, reparación y conservación de edificaciones",
          "_links": {
            "self": {
              "name": "Construcción completa, reparación y conservación de edificaciones",
              "href": "https://api.euskadi.eus/procurements/companies/economic-activities/1.501.1"
            }
          }
        }
      ],
      "certificateStartDate": "2020-03-02",
      "certificateEndDate": "2020-08-23",
      "object": "OTRAS ACTIVIDADES DE CONSTRUCCIÓN ESPECIALIZADA (CENAE: 4399). Y, ADEMÁS, TIENE POR OBJETO: ACTIVIDADES INMOBILIARIAS, INCLUYENDO EL ALQUILER NO FINANCIERO, REHABILITACIÓN Y PROMOCIÓN INMOBILIARIA. CONSTRUCCIÓN, INSTALACIONES Y MANTENIMIENTO",
      "mainEntityOfPage": "https://www.contratacion.euskadi.eus/webkpe00-kperoc/es/ac71aBusquedaRegistrosWar/empresa/06875",
      "_links": {
        "self": {
          "name": "RH PAMPLONA REFORMAS HABILITACIONES Y MAS S.L.",
          "href": "https://api.euskadi.eus/procurements/companies/06875"
        }
      }
    },
    {
      "name": "CONTROL TÉCNICO Y PREVENCIÓN DE RIESGOS, S.A.",
      "registrationNumber": "06876",
      "identificationNumber": "A59545202",
      "address": "CALLE NESTARES, 20, 1ª PLANTA",
      "location": {
        "postalCode": "28045",
        "municipality": "Madrid",
        "county": "Madrid",
        "municipalityId": "079",
        "countyId": "28"
      },
      "economicActivities": [
        {
          "id": "1.843.2",
          "name": "Servicios técnicos de arquitectura y urbanismo",
          "_links": {
            "self": {
              "name": "Servicios técnicos de arquitectura y urbanismo",
              "href": "https://api.euskadi.eus/procurements/companies/economic-activities/1.843.2"
            }
          }
        },
        {
          "id": "1.843.9",
          "name": "Otros servicios técnicos n.c.o.p",
          "_links": {
            "self": {
              "name": "Otros servicios técnicos n.c.o.p",
              "href": "https://api.euskadi.eus/procurements/companies/economic-activities/1.843.9"
            }
          }
        }
      ],
      "certificateStartDate": "2020-03-02",
      "certificateEndDate": "2020-08-03",
      "object": "LA REALIZACIÓN DE TODA CLASE DE ACTIVIDADES DE CONTROL TÉCNICO DE LA CONSTRUCCIÓN RELACIONADAS CON LA SEGURIDAD Y LA CALIDAD, TANTO A NIVEL DE PROYECTO COMO DE EJECUCIÓN Y USO. TAMBIÉN SE PODRÁ DEDICAR A CUALQUIER ACTIVIDAD RELACIONADA CON LA CALIDAD Y SEGURIDAD EN EL SECTOR DE LA CONSTRUCCIÓN Y DE LAS OBRAS PÚBLICAS",
      "mainEntityOfPage": "https://www.contratacion.euskadi.eus/webkpe00-kperoc/es/ac71aBusquedaRegistrosWar/empresa/06876",
      "_links": {
        "self": {
          "name": "CONTROL TÉCNICO Y PREVENCIÓN DE RIESGOS, S.A.",
          "href": "https://api.euskadi.eus/procurements/companies/06876"
        }
      }
    },
    {
      "name": "BRUKER ESPAÑOLA, S.A.",
      "registrationNumber": "06872",
      "identificationNumber": "A28315539",
      "address": "Calle Marie Curie mº 5  - Edif. Alfa",
      "location": {
        "postalCode": "28521",
        "municipality": "Rivas-Vaciamadrid",
        "county": "Madrid",
        "municipalityId": "123",
        "countyId": "28"
      },
      "economicActivities": [
        {
          "id": "1.619.7",
          "name": "Venta al por mayor de instrumentos de precisión, medida y similares",
          "_links": {
            "self": {
              "name": "Venta al por mayor de instrumentos de precisión, medida y similares",
              "href": "https://api.euskadi.eus/procurements/companies/economic-activities/1.619.7"
            }
          }
        }
      ],
      "certificateStartDate": "2020-02-28",
      "certificateEndDate": "2020-05-14",
      "object": "LA IMPORTACIÓN, LA EXPORTACIÓN Y EL COMERCIO EN TODAS SUS FORMAS, INCLUSO EL ALQUILER Y EL MANTENIMIENTO DE EQUIPOS, EN NOMBRE PROPIO Y POR CUENTA DE TERCEROS, DE INSTRUMENTOS DE\r\nPRECISIÓN, MATERIAL DE INVESTIGACIÓN Y DE LABORATORIOS, ANÁLISIS, MEDIDA, CONTROL, CÁLCULO,\r\nPROGRAMACIÓN Y PROCESO DE DATOS Y DEMÁS ACTIVIDADES ANÁLOGAS RELACIONADAS CON LA ELECTRÓNICA\r\nINDUSTRIAL Y CIENTÍFICA, EN TODAS SUS APLICACIONES, INCLUIDAS LAS RELATIVAS A LA INDUSTRIA\r\nAERONÁUTICA, LA INVESTIGACIÓN SUBMARINA, LA GEOLÓGICA Y LA OCEANOGRÁFICA, ASÍ COMO LA DISTRIBUCIÓN\r\nDE PRODUCTOS SANITARIOS PARA DIAGNÓSTICO IN VITRO. IGUALMENTE PODRÁ LA SOCIEDAD ADQUIRIR,\r\nEXPLOTAR Y ENAJENAR BIENES INMUEBLES",
      "mainEntityOfPage": "https://www.contratacion.euskadi.eus/webkpe00-kperoc/es/ac71aBusquedaRegistrosWar/empresa/06872",
      "_links": {
        "self": {
          "name": "BRUKER ESPAÑOLA, S.A.",
          "href": "https://api.euskadi.eus/procurements/companies/06872"
        }
      }
    },
    {
      "name": "TOTEM SEGURIDAD, S.A.U.",
      "registrationNumber": "03249",
      "identificationNumber": "A20635629",
      "address": "Zirkuitu Ibilbidea 2, Pol. Industrialdea Pab. 8",
      "location": {
        "postalCode": "20160",
        "municipality": "Lasarte-Oria",
        "county": "Gipuzkoa",
        "municipalityId": "902",
        "countyId": "20"
      },
      "economicActivities": [
        {
          "id": "1.504.1",
          "name": "Instalaciones eléctricas en general",
          "_links": {
            "self": {
              "name": "Instalaciones eléctricas en general",
              "href": "https://api.euskadi.eus/procurements/companies/economic-activities/1.504.1"
            }
          }
        }
      ],
      "certificateStartDate": "2020-02-27",
      "certificateEndDate": "2020-08-24",
      "object": "INSTALACIONES Y MANTENIMIENTO DE APARATOS, DISPOSITIVOS Y SISTEMAS DE SEGURIDAD",
      "mainEntityOfPage": "https://www.contratacion.euskadi.eus/webkpe00-kperoc/es/ac71aBusquedaRegistrosWar/empresa/03249",
      "_links": {
        "self": {
          "name": "TOTEM SEGURIDAD, S.A.U.",
          "href": "https://api.euskadi.eus/procurements/companies/03249"
        }
      }
    },
    {
      "name": "KEMEN CONSULTING, S.L.",
      "registrationNumber": "05461",
      "identificationNumber": "B75045898",
      "address": "PASEO DE FRANCIA Nº 6 - 2º",
      "location": {
        "postalCode": "20012",
        "municipality": "Donostia / San Sebastián",
        "county": "Gipuzkoa",
        "municipalityId": "069",
        "countyId": "20"
      },
      "economicActivities": [
        {
          "id": "1.842",
          "name": "Servicios financieros y contables",
          "_links": {
            "self": {
              "name": "Servicios financieros y contables",
              "href": "https://api.euskadi.eus/procurements/companies/economic-activities/1.842"
            }
          }
        },
        {
          "id": "1.847",
          "name": "Servicios de consultoría",
          "_links": {
            "self": {
              "name": "Servicios de consultoría",
              "href": "https://api.euskadi.eus/procurements/companies/economic-activities/1.847"
            }
          }
        }
      ],
      "certificateStartDate": "2020-02-27",
      "certificateEndDate": "2020-08-14",
      "object": "ASESORAMIENTO ECONÓMICO, FINANCIERO, LABORAL, LEGAL Y FISCAL ASÍ COMO TODA CLASE DE ESTUDIOS DE ANÁLISIS ECONÓMICOS Y FINANCIEROS Y VALORACIONES DE EMPRESAS",
      "mainEntityOfPage": "https://www.contratacion.euskadi.eus/webkpe00-kperoc/es/ac71aBusquedaRegistrosWar/empresa/05461",
      "_links": {
        "self": {
          "name": "KEMEN CONSULTING, S.L.",
          "href": "https://api.euskadi.eus/procurements/companies/05461"
        }
      }
    },
    {
      "name": "AREÑOS, S.A.",
      "registrationNumber": "02333",
      "identificationNumber": "A47060926",
      "address": "C7 EMBAJADORES, Nº 4",
      "location": {
        "postalCode": "47013",
        "municipality": "Valladolid",
        "county": "Valladolid",
        "municipalityId": "186",
        "countyId": "47"
      },
      "economicActivities": [
        {
          "id": "1.619.2",
          "name": "Venta al por mayor de aparatos e instrumentos médicos, ortopédicos, ópticos",
          "_links": {
            "self": {
              "name": "Venta al por mayor de aparatos e instrumentos médicos, ortopédicos, ópticos",
              "href": "https://api.euskadi.eus/procurements/companies/economic-activities/1.619.2"
            }
          }
        }
      ],
      "certificateStartDate": "2020-02-26",
      "certificateEndDate": "2020-08-05",
      "object": "LA IMPORTACIÓN, EXPORTACIÓN, COMPRAVENTA, COMERCIALIZACIÓN Y EMBALAJE, VENTA AL POR MAYOR Y MENOR, ASÍ COMO LA PRESTACIÓN DE SERVICIOS DE REPRESENTACIÓN A COMISIÓN, DE TODA CLASE DE PRODUCTOS Y APARATOS O INSTRUMENTOS MÉDICOS Y MÉDICO-QUIRÚRGICOS Y DE INVESTIGACIÓN Y SUS PIEZAS DE RECAMBIO, BIEN POR SI MISMA O MEDIANTE CONCESIONES COMERCIALES A TERCEROS.\r\n\r\nLA PRESTACIÓN, GESTIÓN, ORGANIZACIÓN Y DESARROLLO DE TODA CLASE DE ACTIVIDADES EMPRESARIALES Y DE SERVICIOS RELACIONADOS CON ASESORAMIENTOS, PLANIFICACIÓN, ASISTENCIA TÉCNICA, REPRESENTACIONES, MEDIACIONES, COLABORACIONES Y ENCARGOS DE TODA ÍNDOLE, CONFECCIÓN Y COMERCIALIZACIÓN DE ESTUDIOS Y DOCUMENTACIÓN SOBRE TEMAS DE MATERIA COMERCIAL, LABORAL, TRIBUTARIA, ECONÓMICO FINANCIERA, INMOBILIARIA, INFORMÁTICA Y CUALQUIER OTRO ASESORAMIENTO A PERSONAS FÍSICAS O JURÍDICAS, BIEN DIRECTAMENTE O A COMISIÓN.\r\n\r\nLA CREACIÓN, PROMOCIÓN, EXPLOTACIÓN, ARRENDAMIENTO, ADMINISTRACIÓN, SUSCRIPCIÓN Y COMPRA DE ACCIONES, PARTICIPACIONES, TÍTULOS Y DERECHOS DE TODA CLASE DE SOCIEDADES, ASÍ COMO LA PARTICIPACIÓN DIRECTA O INDIRECTA, BAJO CUALQUIER FORMA EN LAS OPERACIONES FINANCIERAS, COMERCIALES, INDUSTRIALES QUE PUEDAN RELACIONARSE O NO, CON EL OBJETO DE LA SOCIEDAD.\r\n\r\nADQUIRIR, POSEER, ADMINISTRAR, PIGNORAR, VENDER O DISPONER EN CUALQUIER FORMA, DE TODA CLASE DE FINCAS RÚSTICAS, SU SEGREGACIÓN, DIVISIÓN, AGRUPACIÓN, PARCELACIÓN Y URBANIZACIÓN.\r\n\r\nLA COMPRA, VENTA Y PROMOCIÓN DE URBANIZACIONES ASÍ COMO TODO TIPO DE INMUEBLES, CON O SIN AYUDA OFICIAL, DESTINADOS A VIVIENDAS, OFICINAS Y LOCALES COMERCIALES, PARA EXPLOTARLOS EN FORMA DE ARRIENDO O VENDERLOS POR PISOS, PLANTAS O INMUEBLES ÍNTEGROS, PUDIENDO  A TAL EFECTO ADQUIRIR TERRENOS O SOLARES, APORTARLOS A SOCIEDADES, COOPERATIVAS Y COMUNIDADES DE CONSTRUCCIÓN, CONTRATAR OBRAS, DECLARACIOINES DE OBRA NUEVA O DE EDIFICACIÓN, ACTOS  DE DESLINDE Y CONSTITUCIONES EN RÉGIMEN DE PROPIEDAD HORIZONTAL, CONCERTAR ANTICIPOS Y PRÉSTAMOS, SIMPLES  O HIPOTECARIOS, EN CUALES QUIERA ENTIDADES DE CRÉDITO, CAJAS DE AHORRO, BANCO HIPOTECARIO DE ESPAÑA Y DEMÁS ORGANISMOS SIMILARES, INCLUSO LA BANCA EXTRANJERA, CON LA FINALIDAD DE EDIFICAR, SOLICITAR LAS EXENCIONES Y BONIFICACIONES TRIBUTARIAS QUE, POR RAZÓN DE URBANISMO Y VIVIENDA SE ESTABLECEN, O PUEDAN ESTABLECERSE, EN LA LEGISLACIÓN FISCAL Y DEL SUELO, ASÍ COMO LOS BENEFICIOS TRIBUTARIOS EN MATERIA DE URBANIZACIONES Y, EN GENERAL, ADQUIRIR, ENAJENAR Y APORTAR, REHABILITAR, RECONSTRUIR INMUEBLES, HIPOTECARLOS Y GRAVARLOS EN CUALQUIER FORMA, PUDIENDO PARA ELLO, CONTRATAR CON EL ESTADO, COMUNIDADES AUTÓNOMAS, PROVINCIAS, MUNICIPIOS Y DEMÁS ENTIDADES OFICIALES.\r\nY, MÁS GENÉRICAMENTE, TODAS LAS OPERACIONES COMERCIALES, INDUSTRIALES, MOBILIARIAS, INMOBILIARIAS, Y FINANCIERAS QUE SE RELACIONAN DE FORMA DIRECTA CON EL OBJETO DESCRITO EN EL PARRAFO ANTERIOR, O QUE, INDIRECTAMENTE, PUEDAN FAVORECER SU DESARROLLO.\r\n\r\nLA EXPLOTACIÓN DE TODA CLASE DE NEGOCIOS RELACIONADOS CON LA HOSTELERÍA, LA COMERCIALIZACIÓN Y VENTA AL POR MAYOR Y MENOR DE ARTÍCULOS DE IMPRENTA, PAPELERÍA, PRENSA Y LIBROS, GOLOSINAS Y BARATIJAS MEDIANTE LA INSTALACIÓN  DE LOCALES O ESTABLECIMIENTOS ADECUADOS A DICHOS FINES.\r\n\r\nLA IMPORTACIÓN, EXPORTACIÓN, DISTRIBUCIÓN, COMERCIALIZACIÓN, EXPLOTACIÓN Y VENTA AL POR MAYOR Y MENOR, DE ARTÍCULOS DE ALIMENTACIÓN, CONSERVAS, HELADOS, BEBIDAS Y LICORES, Y CUALQUIER PRODUCTO RELACIONADO CON LA DROGUERÍA, PERFUMERÍA, BAZAR, LIMPIEZA, FERRETERÍA, REGALOS Y OTROS AFINES, ASÍ COMO TODO TIPO DE CONFECCIÓN, ZAPATERÍA Y COMPLEMENTOS, PUDIENDO CONCERTAR FRANQUICIAS CON OTRAS EMPRESAS PARA LA UTILIZACIÓN DE IMAGEN, MARCAS Y TÉCNICAS COMERCIALES, MEDIANTE LA INSTALACIÓN DE LOCALES O ESTABLECIMIENTOS ADECUADOS A DICHOS FINES             ",
      "mainEntityOfPage": "https://www.contratacion.euskadi.eus/webkpe00-kperoc/es/ac71aBusquedaRegistrosWar/empresa/02333",
      "_links": {
        "self": {
          "name": "AREÑOS, S.A.",
          "href": "https://api.euskadi.eus/procurements/companies/02333"
        }
      }
    },
    {
      "name": "ELIANCE HELICOPTER GLOBAL SERVICES, S.L.",
      "registrationNumber": "06866",
      "identificationNumber": "B08125940",
      "address": "Ctra. Barrio de la Fortuna, s/n. Aeropuerto Cuatro Vientos, Sector C. Hangar 3",
      "location": {
        "postalCode": "28054",
        "municipality": "Madrid",
        "county": "Madrid",
        "municipalityId": "079",
        "countyId": "28"
      },
      "economicActivities": [
        {
          "id": "1.699",
          "name": "Otras reparaciones n.c.o.p",
          "_links": {
            "self": {
              "name": "Otras reparaciones n.c.o.p",
              "href": "https://api.euskadi.eus/procurements/companies/economic-activities/1.699"
            }
          }
        },
        {
          "id": "1.721.4",
          "name": "Transporte sanitario en ambulancias",
          "_links": {
            "self": {
              "name": "Transporte sanitario en ambulancias",
              "href": "https://api.euskadi.eus/procurements/companies/economic-activities/1.721.4"
            }
          }
        },
        {
          "id": "1.742.1",
          "name": "Transporte aéreo nacional de viajeros (servicios no regulares)",
          "_links": {
            "self": {
              "name": "Transporte aéreo nacional de viajeros (servicios no regulares)",
              "href": "https://api.euskadi.eus/procurements/companies/economic-activities/1.742.1"
            }
          }
        },
        {
          "id": "1.742.2",
          "name": "Transporte aéreo nacional de mercancías (servicios no regulares)",
          "_links": {
            "self": {
              "name": "Transporte aéreo nacional de mercancías (servicios no regulares)",
              "href": "https://api.euskadi.eus/procurements/companies/economic-activities/1.742.2"
            }
          }
        },
        {
          "id": "1.933.1",
          "name": "Enseñanza de conducción de vehículos terrestres, acuáticos, etc",
          "_links": {
            "self": {
              "name": "Enseñanza de conducción de vehículos terrestres, acuáticos, etc",
              "href": "https://api.euskadi.eus/procurements/companies/economic-activities/1.933.1"
            }
          }
        }
      ],
      "certificateStartDate": "2020-02-26",
      "certificateEndDate": "2020-08-18",
      "object": "LA GESTIÓN, OPERACIÓN Y MANTENIMIENTO DE HELICÓPTEROS PROPIOS O DE TERCEROS; REALIZANDO CON ELLOS TRANSPORTE PÚBLICO DE PASAJEROS, MERCANCÍAS Y TRABAJOS AEREOS EN CUALQUIERA DE SUS MODALIDADES; LA FORMACIÓN DE PILOTOS Y PERSONAL TÉCNICO EN EL ÁMBITO DE LA AVIACIÓN Y ACTIVIDADES COMPLEMENTARIAS",
      "mainEntityOfPage": "https://www.contratacion.euskadi.eus/webkpe00-kperoc/es/ac71aBusquedaRegistrosWar/empresa/06866",
      "_links": {
        "self": {
          "name": "ELIANCE HELICOPTER GLOBAL SERVICES, S.L.",
          "href": "https://api.euskadi.eus/procurements/companies/06866"
        }
      }
    },
    {
      "name": "EKIA INTERVENCIÓN PSICOSOCIAL, S.L.",
      "registrationNumber": "06863",
      "identificationNumber": "B75001404",
      "address": "Akarregi 10 oficina 102 ",
      "location": {
        "postalCode": "20120",
        "municipality": "Hernani",
        "county": "Gipuzkoa",
        "municipalityId": "040",
        "countyId": "20"
      },
      "economicActivities": [
        {
          "id": "1.952",
          "name": "Asistencia y servicios sociales en centros no residenciales",
          "_links": {
            "self": {
              "name": "Asistencia y servicios sociales en centros no residenciales",
              "href": "https://api.euskadi.eus/procurements/companies/economic-activities/1.952"
            }
          }
        }
      ],
      "certificateStartDate": "2020-02-25",
      "certificateEndDate": "2020-08-13",
      "object": "-LA PRESTACIÓN DE SERVICIOS DE ASISTENCIA Y SERVICIOS SOCIALES PARA NIÑOS, JÓVENES Y ADULTOS. -LA INVESTIGACIÓN Y DESARROLLO DE ESTUDIOS PARA EL DESARROLLO INDIVIDUAL Y FAMILIAR, PROFESIONAL Y/O SOCIAL. - LA REALIZACIÓN DE ESTUDIOS, DIAGNÓSTICO Y TRATAMIENTO PSICOLÓGICOS, PEDAGÓGICOS Y SOCIOLÓGICOS. - LA SELECCIÓN DE PERSONAL. - LA PSICOLOGÍA CLÍNICA",
      "mainEntityOfPage": "https://www.contratacion.euskadi.eus/webkpe00-kperoc/es/ac71aBusquedaRegistrosWar/empresa/06863",
      "_links": {
        "self": {
          "name": "EKIA INTERVENCIÓN PSICOSOCIAL, S.L.",
          "href": "https://api.euskadi.eus/procurements/companies/06863"
        }
      }
    },
    {
      "name": "FITSHOP IBERICA SL",
      "registrationNumber": "06251",
      "identificationNumber": "B67087866",
      "address": "C/Joaquim Molins, 5 - 4º Puerta 2",
      "location": {
        "postalCode": "08028",
        "municipality": "Barcelona",
        "county": "Barcelona",
        "municipalityId": "019",
        "countyId": "08"
      },
      "economicActivities": [
        {
          "id": "1.659.6",
          "name": "Venta al por menor de juguetes, artículos de deporte",
          "_links": {
            "self": {
              "name": "Venta al por menor de juguetes, artículos de deporte",
              "href": "https://api.euskadi.eus/procurements/companies/economic-activities/1.659.6"
            }
          }
        }
      ],
      "certificateStartDate": "2020-02-24",
      "certificateEndDate": "2020-04-24",
      "object": "EL COMERCIO DE ARTICULOS DE DEPORTE, APARATOS DE FITNESS, PRENDAS DEPORTIVAS Y OTROS ARTICULOS PARECIDOS, EN ESPECIAL DISTRIBUCION POR INTERNET, EN TIENDAS ESTABLECIDAS Y SERVICIOS EXTERIORES QUE ESTEN RELACIONADOS CON LA ACTIVIDAD DEPORTIVA",
      "mainEntityOfPage": "https://www.contratacion.euskadi.eus/webkpe00-kperoc/es/ac71aBusquedaRegistrosWar/empresa/06251",
      "_links": {
        "self": {
          "name": "FITSHOP IBERICA SL",
          "href": "https://api.euskadi.eus/procurements/companies/06251"
        }
      }
    }
  ]
}