{
  "totalItems": 9042,
  "totalPages": 905,
  "currentPage": 866,
  "itemsOfPage": 10,
  "items": [
    {
      "name": "LUCAS ARANDIA, S.L.",
      "registrationNumber": "04297",
      "identificationNumber": "B20317129",
      "address": "C/ BIDEBERRIETA, 7-B. PISO 3",
      "location": {
        "postalCode": "20260",
        "municipality": "Alegia",
        "county": "Gipuzkoa",
        "municipalityId": "005",
        "countyId": "20"
      },
      "object": ".",
      "mainEntityOfPage": "https://www.contratacion.euskadi.eus/webkpe00-kperoc/es/ac71aBusquedaRegistrosWar/empresa/04297",
      "_links": {
        "self": {
          "name": "LUCAS ARANDIA, S.L.",
          "href": "https://api.euskadi.eus/procurements/companies/04297"
        }
      }
    },
    {
      "name": "MANSEVI, MANTENIMIENTO Y SEÑALIZACIÓN VIAL, S.L.",
      "registrationNumber": "04298",
      "identificationNumber": "B95560082",
      "address": "GREGORIO LA REVILLA, 27-2º",
      "location": {
        "postalCode": "48010",
        "municipality": "Bilbao",
        "county": "Bizkaia",
        "municipalityId": "020",
        "countyId": "48"
      },
      "object": ".",
      "mainEntityOfPage": "https://www.contratacion.euskadi.eus/webkpe00-kperoc/es/ac71aBusquedaRegistrosWar/empresa/04298",
      "_links": {
        "self": {
          "name": "MANSEVI, MANTENIMIENTO Y SEÑALIZACIÓN VIAL, S.L.",
          "href": "https://api.euskadi.eus/procurements/companies/04298"
        }
      }
    },
    {
      "name": "ALDETUR, S.L.",
      "registrationNumber": "04300",
      "identificationNumber": "B48206197",
      "address": "C/ GANETA, 9",
      "location": {
        "postalCode": "48014",
        "municipality": "Bilbao",
        "county": "Bizkaia",
        "municipalityId": "020",
        "countyId": "48"
      },
      "object": "pte",
      "mainEntityOfPage": "https://www.contratacion.euskadi.eus/webkpe00-kperoc/es/ac71aBusquedaRegistrosWar/empresa/04300",
      "_links": {
        "self": {
          "name": "ALDETUR, S.L.",
          "href": "https://api.euskadi.eus/procurements/companies/04300"
        }
      }
    },
    {
      "name": "GRUPO EUROPEO DE PROTECCIÓN, S.L.",
      "registrationNumber": "04312",
      "identificationNumber": "B20990479",
      "address": "C/ PORTUETXE, 25-BAJO",
      "location": {
        "postalCode": "20018",
        "municipality": "Donostia / San Sebastián",
        "county": "Gipuzkoa",
        "municipalityId": "069",
        "countyId": "20"
      },
      "object": ".",
      "mainEntityOfPage": "https://www.contratacion.euskadi.eus/webkpe00-kperoc/es/ac71aBusquedaRegistrosWar/empresa/04312",
      "_links": {
        "self": {
          "name": "GRUPO EUROPEO DE PROTECCIÓN, S.L.",
          "href": "https://api.euskadi.eus/procurements/companies/04312"
        }
      }
    },
    {
      "name": "JOSÉ GÁRATE FERNANDEZ, FONTANERÍA GÁRATE",
      "registrationNumber": "04336",
      "identificationNumber": "34087384G",
      "address": "ANDONAEGUI 2, BAJO",
      "location": {
        "postalCode": "20110",
        "municipality": "Pasaia",
        "county": "Gipuzkoa",
        "municipalityId": "064",
        "countyId": "20"
      },
      "object": ".",
      "mainEntityOfPage": "https://www.contratacion.euskadi.eus/webkpe00-kperoc/es/ac71aBusquedaRegistrosWar/empresa/04336",
      "_links": {
        "self": {
          "name": "JOSÉ GÁRATE FERNANDEZ, FONTANERÍA GÁRATE",
          "href": "https://api.euskadi.eus/procurements/companies/04336"
        }
      }
    },
    {
      "name": "PEDRO MARÍA HURTADO GONZÁLEZ",
      "registrationNumber": "04441",
      "identificationNumber": "11919518K",
      "address": "Bº MANZANAR 1- BAJO 1",
      "location": {
        "postalCode": "48540",
        "municipality": "Abanto y Ciérvana-Abanto Zierbena",
        "county": "Bizkaia",
        "municipalityId": "002",
        "countyId": "48"
      },
      "classification": [
        {
          "id": "S",
          "name": "Servicios",
          "groups": [
            {
              "id": "R",
              "subgroups": [
                {
                  "id": "09",
                  "name": "Servicios de mensajería, correspondencia y distribución",
                  "categories": [
                    {
                      "id": "2",
                      "name": "Desde 150.001 Hasta 300.000",
                      "_links": {
                        "self": {
                          "name": "Desde 150.001 Hasta 300.000",
                          "href": "https://api.euskadi.eus/procurements/companies/types/S/categories/2"
                        }
                      }
                    }
                  ],
                  "_links": {
                    "self": {
                      "name": "Servicios de mensajería, correspondencia y distribución",
                      "href": "https://api.euskadi.eus/procurements/companies/types/S/groups/R/subgroups/09"
                    }
                  }
                }
              ],
              "_links": {
                "self": {
                  "href": "https://api.euskadi.eus/procurements/companies/types/S/groups/R"
                }
              }
            }
          ],
          "_links": {
            "self": {
              "name": "Servicios",
              "href": "https://api.euskadi.eus/procurements/companies/types/S"
            }
          }
        }
      ],
      "object": "pte",
      "mainEntityOfPage": "https://www.contratacion.euskadi.eus/webkpe00-kperoc/es/ac71aBusquedaRegistrosWar/empresa/04441",
      "_links": {
        "self": {
          "name": "PEDRO MARÍA HURTADO GONZÁLEZ",
          "href": "https://api.euskadi.eus/procurements/companies/04441"
        }
      }
    },
    {
      "name": "AUTOBUSES GARAIGORDOBIL, S.L.",
      "registrationNumber": "04446",
      "identificationNumber": "B01236678",
      "address": "PLAZA LA UNION Nº 13",
      "location": {
        "postalCode": "01170",
        "municipality": "Legutio",
        "county": "Araba/Álava",
        "municipalityId": "058",
        "countyId": "01"
      },
      "object": ".",
      "mainEntityOfPage": "https://www.contratacion.euskadi.eus/webkpe00-kperoc/es/ac71aBusquedaRegistrosWar/empresa/04446",
      "_links": {
        "self": {
          "name": "AUTOBUSES GARAIGORDOBIL, S.L.",
          "href": "https://api.euskadi.eus/procurements/companies/04446"
        }
      }
    },
    {
      "name": "KAREX SERVICE GROUP, S.L.",
      "registrationNumber": "04447",
      "identificationNumber": "B95466546",
      "address": "C/ KAREABI, Nº 3-3º",
      "location": {
        "postalCode": "48610",
        "municipality": "Urduliz",
        "county": "Bizkaia",
        "municipalityId": "089",
        "countyId": "48"
      },
      "object": "pte",
      "mainEntityOfPage": "https://www.contratacion.euskadi.eus/webkpe00-kperoc/es/ac71aBusquedaRegistrosWar/empresa/04447",
      "_links": {
        "self": {
          "name": "KAREX SERVICE GROUP, S.L.",
          "href": "https://api.euskadi.eus/procurements/companies/04447"
        }
      }
    },
    {
      "name": "SERVICIO LIGERO DE TRANSPORTE DE PAQUETES 2002, S.L.",
      "registrationNumber": "04448",
      "identificationNumber": "B95017687",
      "address": "C/MONTE GABIKA, 4-BAJO",
      "location": {
        "postalCode": "48003",
        "municipality": "Bilbao",
        "county": "Bizkaia",
        "municipalityId": "020",
        "countyId": "48"
      },
      "object": ".",
      "mainEntityOfPage": "https://www.contratacion.euskadi.eus/webkpe00-kperoc/es/ac71aBusquedaRegistrosWar/empresa/04448",
      "_links": {
        "self": {
          "name": "SERVICIO LIGERO DE TRANSPORTE DE PAQUETES 2002, S.L.",
          "href": "https://api.euskadi.eus/procurements/companies/04448"
        }
      }
    },
    {
      "name": "MUNDI BILBAO MENSAJEROS, S.A.L.",
      "registrationNumber": "04449",
      "identificationNumber": "A48449946",
      "address": "C/SAN VICENTE, 3-BAJO",
      "location": {
        "postalCode": "48001",
        "municipality": "Bilbao",
        "county": "Bizkaia",
        "municipalityId": "020",
        "countyId": "48"
      },
      "object": "pte",
      "mainEntityOfPage": "https://www.contratacion.euskadi.eus/webkpe00-kperoc/es/ac71aBusquedaRegistrosWar/empresa/04449",
      "_links": {
        "self": {
          "name": "MUNDI BILBAO MENSAJEROS, S.A.L.",
          "href": "https://api.euskadi.eus/procurements/companies/04449"
        }
      }
    }
  ]
}