{
  "totalItems": 9042,
  "totalPages": 905,
  "currentPage": 749,
  "itemsOfPage": 10,
  "items": [
    {
      "name": "OTZARRETA COMUNICACIÓN, S.A.",
      "registrationNumber": "03821",
      "identificationNumber": "A20090957",
      "address": "AVDA. BIZKAIA, S/N",
      "location": {
        "postalCode": "20800",
        "municipality": "Zarautz",
        "county": "Gipuzkoa",
        "municipalityId": "079",
        "countyId": "20"
      },
      "economicActivities": [
        {
          "id": "1.474.1",
          "name": "Impresión de textos o imágenes por cualquier procedimiento",
          "_links": {
            "self": {
              "name": "Impresión de textos o imágenes por cualquier procedimiento",
              "href": "https://api.euskadi.eus/procurements/companies/economic-activities/1.474.1"
            }
          }
        }
      ],
      "certificateStartDate": "2009-03-03",
      "certificateEndDate": "2009-08-20",
      "object": "LA REALIZACIÓN DE TODAS LAS ACTIVIDADES QUE ESTÉN RELACIONADAS CON LAS ARTES GRÁFICAS EN GENERAL, Y LAS COMPLEMENTARIAS O ANEJAS QUE FUEREN NECESARIAS PARA LA REALIZACIÓN DE DICHO OBJETO PRINCIPAL",
      "mainEntityOfPage": "https://www.contratacion.euskadi.eus/webkpe00-kperoc/es/ac71aBusquedaRegistrosWar/empresa/03821",
      "_links": {
        "self": {
          "name": "OTZARRETA COMUNICACIÓN, S.A.",
          "href": "https://api.euskadi.eus/procurements/companies/03821"
        }
      }
    },
    {
      "name": "JOHNSON CONTROLS ESPAÑA, S.L.",
      "registrationNumber": "02173",
      "identificationNumber": "B79121612",
      "address": "C/ FRANCISCO REMIRO, Nº 2 - EDIFICIO: E.",
      "location": {
        "postalCode": "28028",
        "municipality": "Madrid",
        "county": "Madrid",
        "municipalityId": "079",
        "countyId": "28"
      },
      "economicActivities": [
        {
          "id": "1.504.1",
          "name": "Instalaciones eléctricas en general",
          "_links": {
            "self": {
              "name": "Instalaciones eléctricas en general",
              "href": "https://api.euskadi.eus/procurements/companies/economic-activities/1.504.1"
            }
          }
        },
        {
          "id": "1.615.4",
          "name": "Venta al por mayor de aparatos y material radioeléctrico y electrónico",
          "_links": {
            "self": {
              "name": "Venta al por mayor de aparatos y material radioeléctrico y electrónico",
              "href": "https://api.euskadi.eus/procurements/companies/economic-activities/1.615.4"
            }
          }
        }
      ],
      "certificateStartDate": "2009-02-26",
      "certificateEndDate": "2009-07-22",
      "object": "\r\n\r\n(I) EL DISEÑO, FABRICACIÓN, INSTALACIÓN, COMPRAVENTA, SUBCONTRATACIÓN Y REPRESENTACIÓN DE EQUIPOS Y SISTEMAS RELACIONADOS CON LA PROTECCIÓN CONTRA INCENDIOS Y EL CONTROL DE ACCESOS Y EL CONTROL DE PRESENCIA, TANTO EN LA EDIFICACIÓN COMO EN LA INDUSTRIA, ASÍ COMO TODO ACTO RELACIONADO O NECESARIO PARA LA REALIZACIÓN DE DICHAS ACTIVIDADES.\r\n\r\n(II) EL DISEÑO, FABRICACIÓN, INSTALACIÓN, COMPRAVENTA, SUBCONTRATACIÓN Y REPRESENTACIÓN DE EQUIPOS Y SISTEMAS RELACIONADOS CON LAS INSTALACIONES MECÁNICAS, ELÉCTRICAS, INFORMÁTICAS Y ELECTRÓNICAS, TANTO EN LA EDIFICACIÓN COMO EN LA INDUSTRIA, ASÍ COMO TODO ACTO RELACIONADO O NECESARIO PARA LA REALIZACIÓN DE DICHAS ACTIVIDADES.\r\n\r\n(III) LA PRESTACIÓN DE SERVICIOS, DIRECTAMENTE O SUBCONTRATADOS, RELACIONADOS CON LA GESTIÓN, REHABILITACIÓN, EXPLOTACIÓN, OPERACIÓN Y MANTENIMIENTO DE LOS EQUIPOS, SISTEMAS E INSTALACIONES INDICADOS EN (I) Y (II), ASÍ COMO TODO ACTO RELACIONADO O NECESARIO PARA LA REALIZACIÓN DE DICHAS ACTIVIDADES.\r\n\r\n(IV) LA PRESTACIÓN DE SERVICIOS, DIRECTAMENTE O SUBCONTRATADOS, RELACIONADOS CON LA GESTIÓN, REHABILITACIÓN, EXPLOTACIÓN, OPERACIÓN Y MANTENIMIENTO DE LOS PROPIOS EDIFICIOS O INDUSTRIAS Y DE SUS TERRITORIOS ANEXOS, ASÍ COMO TODO ACTO RELACIONADO O NECESARIO PARA LA REALIZACIÓN DE DICHAS ACTIVIDADES.\r\n\r\n(V) LA PRESTACIÓN DE SERVICIOS, DIRECTAMENTE O SUBCONTRATADOS, RELACIONADOS CON LAS FUNCIONES CONSIDERADAS COMO AUXILIARES CON RESPECTO A LOS NEGOCIOS DESARROLLADOS EN LOS EDIFICIOS O EN LAS INDUSTRIAS, INCLUIDOS PERO NO LIMITADOS A LOS SERVICIOS DE RECEPCIÓN, COMUNICACIONES, DESINSECCIÓN, DESINFECCIÓN, LIMPIEZA, JARDINERÍA, CONSERJERÍA Y MENSAJERÍA, ASÍ COMO TODO ACTO RELACIONADO O NECESARIO PARA LA REALIZACIÓN DE DICHAS ACTIVIDADES",
      "mainEntityOfPage": "https://www.contratacion.euskadi.eus/webkpe00-kperoc/es/ac71aBusquedaRegistrosWar/empresa/02173",
      "_links": {
        "self": {
          "name": "JOHNSON CONTROLS ESPAÑA, S.L.",
          "href": "https://api.euskadi.eus/procurements/companies/02173"
        }
      }
    },
    {
      "name": "GRB VIDEO INDUSTRIAL, S.L.",
      "registrationNumber": "03163",
      "identificationNumber": "B95185989",
      "address": "JULIO URQUIJO, 1 - BIS 1º",
      "location": {
        "postalCode": "48014",
        "municipality": "Bilbao",
        "county": "Bizkaia",
        "municipalityId": "020",
        "countyId": "48"
      },
      "economicActivities": [
        {
          "id": "1.355.2",
          "name": "Edición de soportes grabados de sonido, vídeo y de informática",
          "_links": {
            "self": {
              "name": "Edición de soportes grabados de sonido, vídeo y de informática",
              "href": "https://api.euskadi.eus/procurements/companies/economic-activities/1.355.2"
            }
          }
        }
      ],
      "certificateStartDate": "2009-02-26",
      "certificateEndDate": "2009-08-13",
      "object": "LA  GRABACIÓN DE VÍDEOS INDUSTRIALES, COMERCIALES, DE FORMACIÓN E INSTITUCIONALES.\r\n",
      "mainEntityOfPage": "https://www.contratacion.euskadi.eus/webkpe00-kperoc/es/ac71aBusquedaRegistrosWar/empresa/03163",
      "_links": {
        "self": {
          "name": "GRB VIDEO INDUSTRIAL, S.L.",
          "href": "https://api.euskadi.eus/procurements/companies/03163"
        }
      }
    },
    {
      "name": "GRUPO DE ARQUITECTURA Y MEDIO AMBIENTE, S.A.",
      "registrationNumber": "01244",
      "identificationNumber": "A01112085",
      "address": "C/ JOAQUÍN COLLAR, Nº 4 - BAJO.",
      "location": {
        "postalCode": "01002",
        "municipality": "Vitoria-Gasteiz",
        "county": "Araba/Álava",
        "municipalityId": "059",
        "countyId": "01"
      },
      "economicActivities": [
        {
          "id": "1.843.2",
          "name": "Servicios técnicos de arquitectura y urbanismo",
          "_links": {
            "self": {
              "name": "Servicios técnicos de arquitectura y urbanismo",
              "href": "https://api.euskadi.eus/procurements/companies/economic-activities/1.843.2"
            }
          }
        }
      ],
      "certificateStartDate": "2009-02-19",
      "certificateEndDate": "2009-07-30",
      "object": "LA REALIZACIÓN DE TODA CLASE DE TRABAJOS Y SERVICIOS DE PROMOCIÓN, PLANIFICACIÓN, CONTROL Y EJECUCIÓN DE OBRAS Y PROYECTOS, ASÍ COMO LA FORMULACIÓN, PROGRAMACIÓN Y EJECUCIÓN DE PLANES URBANÍSTICOS Y TODA CLASE DE SERVICIOS DIRIGIDOS A LA MEJORA DEL MEDIO AMBIENTE Y AL DESARROLLO DE LA CALIDAD INTEGRAL DEL MEDIO NATURAL; Y ASIMISMO LA EXPLOTACIÓN DE CUALQUIER TIPO DE INSTALACIONES Y LA PRESTACIÓN DE TODA CLASE DE SERVICIOS A EMPRESAS PRIVADAS O PÚBLICAS, INCLUSO EL ASESORAMIENTO, CONSULTA E INFORMACIÓN SOBRE ACTIVIDADES INDUSTRIALES Y ECONÓMICAS EN GENERAL; Y, DE OTRA PARTE, LA ADQUISICIÓN Y TRANSMISIÓN, POR CUALQUIER CLASE DE TÍTULO, Y SU ARRENDAMIENTO Y EXPLOTACIÓN DE TODA CLASE DE INMUEBLES Y FINCAS URBANAS Y URBANIZABLES, Y LA PROMOCIÓN, DISEÑO, PLANEAMIENTO Y EDIFICACIÓN DE LOS MISMOS. EL ÁMBITO TERRITORIAL DE LAS ACTIVIDADES DE LA SOCIEDAD SE EXTENDERÁ A TODO EL TERRITORIO DEL ESTADO ESPAÑOL E INCLUSO AL EXTRANJERO",
      "mainEntityOfPage": "https://www.contratacion.euskadi.eus/webkpe00-kperoc/es/ac71aBusquedaRegistrosWar/empresa/01244",
      "_links": {
        "self": {
          "name": "GRUPO DE ARQUITECTURA Y MEDIO AMBIENTE, S.A.",
          "href": "https://api.euskadi.eus/procurements/companies/01244"
        }
      }
    },
    {
      "name": "HEREDEROS DE CLAUDIO ÁLVAREZ SARRÍA, S.L.",
      "registrationNumber": "01925",
      "identificationNumber": "B48234280",
      "address": "C/ DR. LUIS BILBAO LÍBANO, Nº 10 - 2º B",
      "location": {
        "postalCode": "48940",
        "municipality": "Leioa",
        "county": "Bizkaia",
        "municipalityId": "054",
        "countyId": "48"
      },
      "economicActivities": [
        {
          "id": "1.501.1",
          "name": "Construcción completa, reparación y conservación de edificaciones",
          "_links": {
            "self": {
              "name": "Construcción completa, reparación y conservación de edificaciones",
              "href": "https://api.euskadi.eus/procurements/companies/economic-activities/1.501.1"
            }
          }
        },
        {
          "id": "1.912",
          "name": "Servicios forestales",
          "_links": {
            "self": {
              "name": "Servicios forestales",
              "href": "https://api.euskadi.eus/procurements/companies/economic-activities/1.912"
            }
          }
        },
        {
          "id": "1.921.1",
          "name": "Servicios de limpieza en calles, vías públicas y jardines",
          "_links": {
            "self": {
              "name": "Servicios de limpieza en calles, vías públicas y jardines",
              "href": "https://api.euskadi.eus/procurements/companies/economic-activities/1.921.1"
            }
          }
        },
        {
          "id": "1.922.1",
          "name": "Servicios de limpieza de interiores",
          "_links": {
            "self": {
              "name": "Servicios de limpieza de interiores",
              "href": "https://api.euskadi.eus/procurements/companies/economic-activities/1.922.1"
            }
          }
        },
        {
          "id": "1.971.1",
          "name": "Tinte, limpieza en seco, lavado y planchado de ropas",
          "_links": {
            "self": {
              "name": "Tinte, limpieza en seco, lavado y planchado de ropas",
              "href": "https://api.euskadi.eus/procurements/companies/economic-activities/1.971.1"
            }
          }
        }
      ],
      "certificateStartDate": "2009-02-16",
      "certificateEndDate": "2009-07-12",
      "object": "LA CONTRATACIÓN DE TRABAJOS MECÁNICOS Y MECANIZACIÓN DE TODA CLASE DE PIEZAS, ASÍ COMO EL MANTENIMIENTO DE EQUIPOS E INSTALACIONES TÉCNICAS. PROMOCIÓN Y CONSTRUCCIÓN DE TODO TIPO DE OBRAS Y EDIFICIOS. LIMPIEZA, MANTENIMIENTO Y CONSERVACIÓN DE CALLES, PLAZAS, CAMINOS, PARQUES Y JARDINES U OTRAS VÍAS PÚBLICAS Y PRIVADAS, ASÍ COMO LA DE TODA CLASE DE EDIFICIOS Y LOCALES, INCLUYENDO SERVICIOS DE LAVANDERÍA, RECOGIDA Y RECICLAJE DE TODO TIPO DE RESIDUOS, DESINFECCIÓN, DESINFECTACIÓN Y DESRATIZACIÓN. SERVICIOS DE INFORMACIÓN, PUBLICIDAD, ADMINISTRTIVOS Y DE COMUNICACIÓN. PRESTACIÓN DE SERVICIOS SOCIALES, EXCEPTO SANITARIOS",
      "mainEntityOfPage": "https://www.contratacion.euskadi.eus/webkpe00-kperoc/es/ac71aBusquedaRegistrosWar/empresa/01925",
      "_links": {
        "self": {
          "name": "HEREDEROS DE CLAUDIO ÁLVAREZ SARRÍA, S.L.",
          "href": "https://api.euskadi.eus/procurements/companies/01925"
        }
      }
    },
    {
      "name": "ALBISA ENGINEERING FOR LANGUAGE AND ELECTRONIC DOCUMENTS, S.L.",
      "registrationNumber": "02812",
      "identificationNumber": "B82310665",
      "address": "C/RAMÓN GÓMEZ DE LA SERNA, 149-BAJO B",
      "location": {
        "postalCode": "28035",
        "municipality": "Madrid",
        "county": "Madrid",
        "municipalityId": "079",
        "countyId": "28"
      },
      "economicActivities": [
        {
          "id": "1.619.9",
          "name": "Venta al por mayor de otros productos n.c.o.p",
          "_links": {
            "self": {
              "name": "Venta al por mayor de otros productos n.c.o.p",
              "href": "https://api.euskadi.eus/procurements/companies/economic-activities/1.619.9"
            }
          }
        },
        {
          "id": "1.845",
          "name": "Explotación electrónica por cuenta de terceros",
          "_links": {
            "self": {
              "name": "Explotación electrónica por cuenta de terceros",
              "href": "https://api.euskadi.eus/procurements/companies/economic-activities/1.845"
            }
          }
        },
        {
          "id": "1.849.3",
          "name": "Servicios de traducción y similares",
          "_links": {
            "self": {
              "name": "Servicios de traducción y similares",
              "href": "https://api.euskadi.eus/procurements/companies/economic-activities/1.849.3"
            }
          }
        },
        {
          "id": "1.932.1",
          "name": "Enseñanza de formación y perfeccionamiento profesional no superior",
          "_links": {
            "self": {
              "name": "Enseñanza de formación y perfeccionamiento profesional no superior",
              "href": "https://api.euskadi.eus/procurements/companies/economic-activities/1.932.1"
            }
          }
        },
        {
          "id": "1.933.9",
          "name": "Otras actividades de enseñanza tales como idiomas, mecanografía",
          "_links": {
            "self": {
              "name": "Otras actividades de enseñanza tales como idiomas, mecanografía",
              "href": "https://api.euskadi.eus/procurements/companies/economic-activities/1.933.9"
            }
          }
        }
      ],
      "certificateStartDate": "2009-02-16",
      "certificateEndDate": "2009-07-23",
      "object": "LA PRESTACIÓN DE LOS SIGUIENTES SERVICIOS:\r\n\r\nTRADUCCIÓN DE DOCUMENTOS.\r\nLOCALIZACIÓN DE SOFTWARE Y MULTIMEDIA\r\nDESK TOP PUBLISHING\r\nPROCESAMIENTO (ELECTRÓNICO) DE INFORMACIÓN E INTEGRACIÓN DE PROCESOS, APLICANDO TECNOLOGÍAS DE \"LENGUAGE ENGINEERING\", GESTIÓN DE DOCUMENTOS Y PUBLICACIÓN COMO SOPORTE DE PROCESOS DE DOCUMENTACIÓN MULTILINGÜE, TODO ELLO ORIENTADO A OFRECER AL CLIENTE SOLUCIONES GLOBALES EN EL PROCESO DE GENERACIÓN, PROCESAMIENTO Y DISTRIBUCIÓN DE INFORMACIÓN, ADAPTADO A LAS EXIGENCIAS  DE LOS MERCADOS LOCALES CORRESPONDIENTES. ",
      "mainEntityOfPage": "https://www.contratacion.euskadi.eus/webkpe00-kperoc/es/ac71aBusquedaRegistrosWar/empresa/02812",
      "_links": {
        "self": {
          "name": "ALBISA ENGINEERING FOR LANGUAGE AND ELECTRONIC DOCUMENTS, S.L.",
          "href": "https://api.euskadi.eus/procurements/companies/02812"
        }
      }
    },
    {
      "name": "EXCAVACIONES CESAR ALVAREZ, S.L.",
      "registrationNumber": "03798",
      "identificationNumber": "B20547311",
      "address": "AMAROZ, 29",
      "location": {
        "postalCode": "20400",
        "municipality": "Tolosa",
        "county": "Gipuzkoa",
        "municipalityId": "071",
        "countyId": "20"
      },
      "economicActivities": [
        {
          "id": "1.501.2",
          "name": "Construcción completa, reparación y conservación obras civiles",
          "_links": {
            "self": {
              "name": "Construcción completa, reparación y conservación obras civiles",
              "href": "https://api.euskadi.eus/procurements/companies/economic-activities/1.501.2"
            }
          }
        },
        {
          "id": "1.502.1",
          "name": "Demoliciones y derribos en general",
          "_links": {
            "self": {
              "name": "Demoliciones y derribos en general",
              "href": "https://api.euskadi.eus/procurements/companies/economic-activities/1.502.1"
            }
          }
        },
        {
          "id": "1.502.2",
          "name": "Consolidación y preparación de terrenos para la construcción de edificaciones",
          "_links": {
            "self": {
              "name": "Consolidación y preparación de terrenos para la construcción de edificaciones",
              "href": "https://api.euskadi.eus/procurements/companies/economic-activities/1.502.2"
            }
          }
        }
      ],
      "certificateStartDate": "2009-02-10",
      "certificateEndDate": "2009-08-03",
      "object": "LA EXCAVACIÓN DE TERRENOS Y ALQUILER DE MAQUINARIA Y EQUIPO PARA LA CONSTRUCCIÓN Y OBRA CIVIL. Y EL TRANSPORTE PÚBLICO DE MERCANCIAS POR CARRETERA, NACIONAL E INTERNACIONAL, ASÍ COMO LAS ACTIVIDADES DE MEDIACIÓN DERIVADAS DEL TRANSPORTE COMO AGENCIAS DE TRANSPORTES Y ALMACENISTAS CONSIGNATARIO",
      "mainEntityOfPage": "https://www.contratacion.euskadi.eus/webkpe00-kperoc/es/ac71aBusquedaRegistrosWar/empresa/03798",
      "_links": {
        "self": {
          "name": "EXCAVACIONES CESAR ALVAREZ, S.L.",
          "href": "https://api.euskadi.eus/procurements/companies/03798"
        }
      }
    },
    {
      "name": "ONDARRA, S.A.",
      "registrationNumber": "00019",
      "identificationNumber": "A48008981",
      "address": "C/ EGAÑA, Nº 17 - 6º.",
      "location": {
        "postalCode": "48010",
        "municipality": "Bilbao",
        "county": "Bizkaia",
        "municipalityId": "020",
        "countyId": "48"
      },
      "economicActivities": [
        {
          "id": "1.501.1",
          "name": "Construcción completa, reparación y conservación de edificaciones",
          "_links": {
            "self": {
              "name": "Construcción completa, reparación y conservación de edificaciones",
              "href": "https://api.euskadi.eus/procurements/companies/economic-activities/1.501.1"
            }
          }
        },
        {
          "id": "1.501.2",
          "name": "Construcción completa, reparación y conservación obras civiles",
          "_links": {
            "self": {
              "name": "Construcción completa, reparación y conservación obras civiles",
              "href": "https://api.euskadi.eus/procurements/companies/economic-activities/1.501.2"
            }
          }
        }
      ],
      "certificateStartDate": "2009-02-04",
      "certificateEndDate": "2009-07-30",
      "object": "DISEÑO, EJECUCIÓN Y CONSTRUCCIÓN DE OBRA PÚBLICA Y PRIVADA: MOVIMIENTO DE TIERRAS Y PERFORACIONES; PUENTES, VIADUCTOS Y GRANDES ESTRUCTURAS; EDIFICACIONES Y DEMOLICIONES; OBRAS DE FERROCARRILES; OBRAS HIDRÁULICAS, MARÍTIMAS Y DE VIALES, PISTAS, AUTOPISTAS Y AUTOVÍAS; CONSTRUCCIÓN DE OLEODUCTOS Y GASEODUCTOS; INSTALACIONES ELÉCTRICAS DE ALUMBRADOS, ILUMINACIONES Y BALIZAMIENTOS LUMINOSOS, CENTRALES DE PRODUCCIÓN DE ENERGÍA, LÍNEAS ELÉCTRICAS DE TRANSPORTE, CENTROS DE TRANSFORMACIÓN E INTERCONEXIÓN SUBESTACIONES, DISTRIBUCIONES DE ALTA Y BAJA TENSIÓN, CENTROS DE TRANSFORMACIÓN Y DISTRIBUCIÓN DE ALTA Y BAJA TENSIÓN, TELECOMUNICACIONES E INSTALACIONES RADIOELÉCTRICAS E INSTALACIONES ELÉCTRICAS; INSTALACIONES MECÁNICAS DE ELEVADORES O TRANSPORTADORAS, DE VENTILACIÓN, CALEFACCIÓN Y CLIMATIZACIÓN, FRIGORÍFICAS, SANITARIAS Y DE FONTANERÍA; CIMENTACIONES ESPECIALES; SONDEOS INYECCIONES Y PILOTAJES; TABLESTACADOS; PINTURAS Y METALIZACIONES; ORNAMENTACIONES Y DECORACIONES; JARDINERÍA Y PLANTACIONES; MONUMENTOS HISTÓRICO-ARTÍSTICOS, RESTAURACIÓN DE BIENES INMUEBLES; ESTACIONES DE TRATAMIENTO DE AGUAS; INSTALACIONES CONTRA INCENDIOS. LA PROMOCIÓN E INTERMEDIACIÓN INMOBILIARIA. LA CONTRATACIÓN DE OBRAS PÚBLICAS O PRIVADAS ¿LLAVE EN MANO¿. MANTENIMIENTOS DE OBRAS PÚBLICAS O PRIVADAS. LA PRESTACIÓN DE SERVICIOS A OTRAS EMPRESAS RELATIVOS AL ÁREA DE CONSTRUCCIÓN Y PROMOCIÓN",
      "mainEntityOfPage": "https://www.contratacion.euskadi.eus/webkpe00-kperoc/es/ac71aBusquedaRegistrosWar/empresa/00019",
      "_links": {
        "self": {
          "name": "ONDARRA, S.A.",
          "href": "https://api.euskadi.eus/procurements/companies/00019"
        }
      }
    },
    {
      "name": "MUNITOR ASOCIADOS, S.L.",
      "registrationNumber": "03569",
      "identificationNumber": "B95294609",
      "address": "BIDEBARRI BEDEA 2, B5 C",
      "location": {
        "postalCode": "48640",
        "municipality": "Berango",
        "county": "Bizkaia",
        "municipalityId": "016",
        "countyId": "48"
      },
      "economicActivities": [
        {
          "id": "1.843.1",
          "name": "Servicios técnicos de ingeniería",
          "_links": {
            "self": {
              "name": "Servicios técnicos de ingeniería",
              "href": "https://api.euskadi.eus/procurements/companies/economic-activities/1.843.1"
            }
          }
        }
      ],
      "certificateStartDate": "2009-01-30",
      "certificateEndDate": "2009-07-26",
      "object": "LA PRESTACIÓN DE SERVICIOS Y APOYO TÉCNICO A TODO TIPO DE EMPRESAS, BIEN SEAN PERSONALES, INDIVIDUALES O JURÍDICAS, PÚBLICAS O PRIVADAS EN MATERIA DE ORGANIZACIÓN, ESTRUCTURACIÓN, FINANCIACIÓN, COMERCIALIZACIÓN, FABRICACIÓN, FISCAL, LABORAL Y SOCIAL. TAMBIÉN SE DESARROLLARÁN ESTUDIOS Y MONOGRAFÍAS SOBRE TEMAS ECONÓMICO-SOCIALES DE ÁMBITO PROVINCIAL O ESTATAL, BIEN DE CARÁCTER SECTORIAL O GENERAL DE LA ECONOMÍA.  LA PROMOCIÓN Y EJECUCIÓN, COMPLETA O POR RAMOS, DE TODA CLASE DE OBRAS DE CONSTRUCCIÓN, URBANIZACIÓN Y SERVICIOS, REPARACIÓN Y CONSERVACIÓN, POR CUENTA PROPIA O AJENA, DE VIVIENDAS Y LOCALES COMERCIALES O INDUSTRIALES, E INCLUSO DE VIVIENDAS DE PROTECCIÓN OFICIAL. LA COMPRA-VENTA Y ALQUILER DE EDIFICACIONES, EN SU TOTALIDAD, POR PARTES O POR PISOS, BIEN DE VIVIENDAS, LOCALES INDUSTRIALES, DE OFICINAS, APARCAMIENTOS, GARAJES, CONSTRUÍDAS O NO PARA TAL FIN; PROCEDER A LA CONSTRUCCIÓN DE EDIFICACIONES EN GENERAL, BIEN DIRECTAMENTE O POR MEDIO DE SUBCONTRATISTAS O DESTAJISTAS. LA ADQUISICIÓN Y ENAJENACIÓN, POR CUALQUIER TÍTULO, DE FINCAS URBANAS Y RÚSTICAS, YA SEAN TIERRAS, SOLARES Y EDIFICIOS, Y LA INTERMEDIACIÓN, ADMINISTRACIÓN, TENENCIA, EXPLOTACIÓN Y ARRENDAMIENTO, YA SEA ACTIVO O PASIVO, DE TALES BIENES Y SU VENTA TAOTAL O PARCIAL, Y PROCEDER A SU APROVECHAMIENTO, URBANO, INDUSTRIAL O CUALQUIER OTRO. LA URBANIZACIÓN Y PARCELACIÓN DE TERRENOS, CONFORME A LOS PLANES DE ORDENACIÓN URBANÍSTICA, APROBADOS POR LAS AUTORIDADES COMPETENTES EN LOS POLÍGONOS Y ZONAS DE ACTUACIÓN QUE, AL EFECTO, SEAN DESIGNADOS, Y LA REPARCELACIÓN DE DICHOS TERRENOS URBANÍSTICOS Y, EN SU CASO, LA EDIFICACIÓN Y VENTA DE LOS MISMOS O DE LAS EDIFICACIONES Y OBRAS DE URBANIZACIÓN Y SERVICIOS, A CUYO EFECTO PODRÁ FORMAR PARTE DE ASOCIACIONES DE PROPIETARIOS, EMPRESAS MIXTAS Y ENTIDADES URBANÍSTICAS COLABORADORAS, QUE PUEDAN REGLAMENTARSE A LOS EXPRESADOS FINES. LA PARESTACIÓN DE SERVICIOS DE MEDIACIÓN Y GESTIÓN PARA LA REALIZACIÓN DE ESTUDIOS DE ARQUITECTURA, INGENIERÍA, TÉCNICOS, PERITACIONES Y TASACIONES DE CONSTRUCCIÓN Y DE INSTALACIONES. TRABAJOS PROFESIONALES EN EDIFICACIÓN E INDUSTRIA, PROYECTOS DE ARQUITECTURA E INGENIERÍA. PLANES  DE ESTUDIOS DE SEGURIDAD, CONTROL Y SEGUIMIENTO DE LOS MISMOS. ESTUDIOS GEOTÉCNICOS Y GEOLÓGICOS. TRABAJOS, PROYECTOS Y ESTUDIOS HIDRÁULICOS, ESTRUCTURALES, DE TRANSPORTE Y TRATAMIENTO DE RESIDUOS, DE TRANSPORTE, URBANISMO, ASÍ COMO CUALQUIER ACTIVIDAD PROPIA DE LA INGENIERÍA. DESLINDES Y MEDICIONES EN TERRENOS, SOLARES, EDIFICIOS E INSTALACIONES, CLASIFICACIÓN DE TERRENOS, TRABAJOS TOPOGRÁFICOS. CONTROL Y DIRECCIÓN DE OBRAS DE EDIFICACIÓN, CIVILES E INDUSTRIALES. TODO POR CUENTA PROPIA O DE TERCEROS. SI LAS DISPOSICIONES LEGALES EXIGIERAN PARA ALGUNA DE LAS ACTIVIDADES COMPRENDIDAS EN EL OBJETO SOCIAL ALGÚN TÍTULO PROFESIONAL O AUTORIZACIÓN ADMINISTRATIVA, O LA INSCRIPCIÓN EN REGISTROS PÚBLICOS, DICHAS ACTIVIDADES DEBERÁN REALIZARSE POR MEDIO DE PERSONA QUE OSTENTE LA REFERIDA TITULACIÓN Y, EN SU CASO, NO PODRÁN INICIARSE ANTES DE QUE SE HAYAN CUMPLIDO LOS REQUISITOS ADMINISTRATIVOS EXIGIDOS",
      "mainEntityOfPage": "https://www.contratacion.euskadi.eus/webkpe00-kperoc/es/ac71aBusquedaRegistrosWar/empresa/03569",
      "_links": {
        "self": {
          "name": "MUNITOR ASOCIADOS, S.L.",
          "href": "https://api.euskadi.eus/procurements/companies/03569"
        }
      }
    },
    {
      "name": "STRATEUS, S.L.",
      "registrationNumber": "02779",
      "identificationNumber": "B95230504",
      "address": "C/ERCILLA, 16-2º",
      "location": {
        "postalCode": "48009",
        "municipality": "Bilbao",
        "county": "Bizkaia",
        "municipalityId": "020",
        "countyId": "48"
      },
      "economicActivities": [
        {
          "id": "1.847",
          "name": "Servicios de consultoría",
          "_links": {
            "self": {
              "name": "Servicios de consultoría",
              "href": "https://api.euskadi.eus/procurements/companies/economic-activities/1.847"
            }
          }
        }
      ],
      "certificateStartDate": "2009-01-29",
      "certificateEndDate": "2009-07-26",
      "object": "LA PRESTACIÓN DE SERVICIOS DE CONSULTORÍA  ESTRATÉGICA Y DE NEGOCIOS, ASESORANDO A LAS EMPRESAS E INSTITUCIONES EN EL DISEÑO E IMPLANTACIÓN DE ACCIONES ESTRATÉGICAS CONCRETAS, INCLUYENDO EN SU CASO LA DIRECCIÓN EN LA GESTIÓN Y PROMOCIÓN DE LAS INICIATIVAS QUE SE HUBIERAN DE CONSTITUIR, CON EL OBJETIVO DE CONTRIBUIR A SU DESARROLLO, BIEN A TRAVÉS DE LA GENERACIÓN DE UN NUEVO NEGOCIO, O BIEN A TRAVÉS DE LA MEJORA DE EFICIENCIA Y RACIONALIZACIÓN DE SUS COSTES, EN EL ÁMBITO DE LA UNIÓN EUROPEA",
      "mainEntityOfPage": "https://www.contratacion.euskadi.eus/webkpe00-kperoc/es/ac71aBusquedaRegistrosWar/empresa/02779",
      "_links": {
        "self": {
          "name": "STRATEUS, S.L.",
          "href": "https://api.euskadi.eus/procurements/companies/02779"
        }
      }
    }
  ]
}