{
  "totalItems": 9042,
  "totalPages": 905,
  "currentPage": 764,
  "itemsOfPage": 10,
  "items": [
    {
      "name": "LAINCO, S.A.",
      "registrationNumber": "03539",
      "identificationNumber": "A08290348",
      "address": "AVDA. BIZET, 8-12",
      "location": {
        "postalCode": "08191",
        "municipality": "Rubí",
        "county": "Barcelona",
        "municipalityId": "184",
        "countyId": "08"
      },
      "economicActivities": [
        {
          "id": "1.254.2",
          "name": "Fabricación de especialidades y otros productos farmacéuticos",
          "_links": {
            "self": {
              "name": "Fabricación de especialidades y otros productos farmacéuticos",
              "href": "https://api.euskadi.eus/procurements/companies/economic-activities/1.254.2"
            }
          }
        }
      ],
      "certificateStartDate": "2008-03-25",
      "certificateEndDate": "2008-08-07",
      "object": "LA INVESTIGACIÓN, FABRICACIÓN Y VENTA DE PRODUCTOS QUÍMICOS, FARMACEÚTICOS Y QUIMICOS AGRÍCOLAS",
      "mainEntityOfPage": "https://www.contratacion.euskadi.eus/webkpe00-kperoc/es/ac71aBusquedaRegistrosWar/empresa/03539",
      "_links": {
        "self": {
          "name": "LAINCO, S.A.",
          "href": "https://api.euskadi.eus/procurements/companies/03539"
        }
      }
    },
    {
      "name": "AZ-7 CONTROL Y MANTENIMIENTO, S.L.",
      "registrationNumber": "02147",
      "identificationNumber": "B95001202",
      "address": "C/ AZETA, Nº 7 - ENTREPLANTA.",
      "location": {
        "postalCode": "48920",
        "municipality": "Portugalete",
        "county": "Bizkaia",
        "municipalityId": "078",
        "countyId": "48"
      },
      "economicActivities": [
        {
          "id": "1.849.4",
          "name": "Servicios de custodia, seguridad y protección",
          "_links": {
            "self": {
              "name": "Servicios de custodia, seguridad y protección",
              "href": "https://api.euskadi.eus/procurements/companies/economic-activities/1.849.4"
            }
          }
        }
      ],
      "certificateStartDate": "2008-03-12",
      "certificateEndDate": "2008-02-20",
      "object": "INFORMACIÓN DE ACCESOS A EDIFICIOS Y/O INSTALACIONES EN GENERAL. LA CUSTODIA Y COMPROBACIÓN DEL ESTADO Y FUNCIONAMIENTO DE LAS INSTALACIONES EN GENERAL Y, DE GESTIÓN AUXILIAR DE EDIFICIOS O INMUEBLES, REALIZADOS POR PORTEROS CONSERJES Y CONTROLADORES. Y EN GENERAL LA COMPROBACIÓN Y CONTROL DEL ESTADO DE CALDERAS E INSTALACIONES GENERALES PARA GARANTIZAR SU FUNCIONAMIENTO Y SEGURIDAD FÍSICAS. EL CONTROL DE TRÁNSITO EN ZONAS RESERVADAS O DE CIRCULACIÓN RESTRINGIDA, EN EL INTERIOR DE FÁBRICAS, PLANTAS DE PRODUCCIÓN DE ENERGÍA, CENTROS DE PROCESO DE DATOS, ÁREAS COMERCIALES Y SIMILARES. LAS TAREAS DE RECEPCIÓN, COMPROBACIÓN DE VISITANTES Y ORIENTACIÓN DE LOS MISMO, ASÍ COMO LAS DE CONTROL DE ENTRADAS, TIKETS O CARNETS PRIVADOS, EN CUALQUIER CLASE DE EDIFICIOS O INMUEBLES, MEDIANTE AZAFATAS, TELEFONISTAS, PORTEROS, CONSERJES O CONTROLADORES. LIMPIEZAS GENERALES Y DE MANTENIMIENTOS EN EDIFICIOS PÚBLICOS Y PRIVADOS. LABORES DE JARDINERÍA Y REPOBLAMIENTO EN PARQUES Y JARDINES, PÚBLICOS Y PRIVADOS. LAS PROPIAS DEL ALMACENAMIENTO, CARGA Y DESCARGA EN ALMACENES E INSTALACIONES EN GENERAL. LA CLASIFICACIÓN Y DISTRIBUCIÓN DE CORRESPONDENCIA, VALIJAS Y PAQUETERÍA, ENCOMENDADAS POR ORGANISMOS PÚBLICOS O PRIVADOS, QUE NO SUPONGAN EN NINGÚN CASO EL TRANSPORTE, MANIPULACIÓN O DISTRIBUCIÓN DE EFECTIVO. LA ASISTENCIA TÉCNICA DE APARATOS MECÁNICOS, ELÉCTRICOS O ELECTRÓNICOS EN GRANDES SUPERFICIES, ESTABLECIMIENTOS COMERCIALES, INCLUSO FINANCIEROS, QUE NO SUPONGAN MANIPULACIÓN DE INSTALACIONES DE SEGURIDAD",
      "mainEntityOfPage": "https://www.contratacion.euskadi.eus/webkpe00-kperoc/es/ac71aBusquedaRegistrosWar/empresa/02147",
      "_links": {
        "self": {
          "name": "AZ-7 CONTROL Y MANTENIMIENTO, S.L.",
          "href": "https://api.euskadi.eus/procurements/companies/02147"
        }
      }
    },
    {
      "name": "GAURKO IZADI SERVICIOS TERCERA EDAD, S. COOP",
      "registrationNumber": "03531",
      "identificationNumber": "F95343141",
      "address": "Bº ASTUI 14",
      "location": {
        "postalCode": "48142",
        "municipality": "Artea",
        "county": "Bizkaia",
        "municipalityId": "023",
        "countyId": "48"
      },
      "economicActivities": [
        {
          "id": "1.951",
          "name": "Asistencia y servicios sociales en centros residenciales",
          "_links": {
            "self": {
              "name": "Asistencia y servicios sociales en centros residenciales",
              "href": "https://api.euskadi.eus/procurements/companies/economic-activities/1.951"
            }
          }
        }
      ],
      "certificateStartDate": "2008-02-29",
      "certificateEndDate": "2008-06-17",
      "object": "LA GESTIÓN Y PRESTACIÓN DE ASISTENCIA Y CUIDADOS A LOS ANCIANOS, MEDIANTE LA FACILITACIÓN DE COMPAÑÍA  A LOS MISMOS Y BAJO SU SUPERVISIÓN Y VIGILANCIA, YA SEA EN RESIDENCIAS, HOSPITALES O CENTROS SIMILARES E INCLUSO A DOMICILIO; EL FAVORECIMIENTO DE ACTIVIDADES LÚDICAS POR PARTE DE LAS PERSONAS MAYORES; LA DINAMIZACIÓN DE LAS MISMAS; LA PRESTACIÓN DE CUIDADOS, COMPAÑÍA , CURA Y CONSUELO EN GENERAL Y ESPECIALMENTE EN CASO DE ENFERMEDAD; LA AYUDA EN LAS TAREAS DIARIAS DE AUTOHIGIENE, VESTIMENTA Y CUALQUIER OTRA RELACIONADA CON LA FALTA DE HABILIDAD DE LA PERSONA MAYOR PARA VALERSE POR SÍ MISMA, ASÍ COMO EL FAVORECIMEINTOS DE LA INTEGRACIÓN SOCIAL DE LAS PERSONAS DE EDAD AVANZADA. IGUALMENTE PODRÁ LA SOCIEDAD REALIZAR ACTOS JURÍDICOS EN NOMBRE DE LOS ANCIANOS, TALES COMO EL COBRO DE SU PENSIÓN Y OTRAS INDEMNIZACIÓN, LA APERTURA, CANCELACIÓN Y MODIFICACIÓN DE DEPÓSITOS, CUENTAS CORRIENTES Y OTROS NEGOCIOS BANCARIOS , Y LA REPRESENTACIÓN, DEFENSA Y GESTIÓN DE ASUNTOS E INTERESES DE LOS ANCIANOS ANTE ORGANISMOS PÚBLICOS O PRIVADOS, SALVO QUE ALGUNA DE ESTAS ACTIVIDADES ESTUVIERAN PROHIBIDAS POR LEY O SUJETAS A REGULACIÓN ESPECIAL",
      "mainEntityOfPage": "https://www.contratacion.euskadi.eus/webkpe00-kperoc/es/ac71aBusquedaRegistrosWar/empresa/03531",
      "_links": {
        "self": {
          "name": "GAURKO IZADI SERVICIOS TERCERA EDAD, S. COOP",
          "href": "https://api.euskadi.eus/procurements/companies/03531"
        }
      }
    },
    {
      "name": "C.T.P. KORMAN, S.L.",
      "registrationNumber": "02383",
      "identificationNumber": "B20525978",
      "address": "AMA KANDIDA, S/N (CENTRO DE EMPRESAS DENAC, PAB. 204)",
      "location": {
        "postalCode": "20000",
        "municipality": "Andoain",
        "county": "Gipuzkoa",
        "municipalityId": "009",
        "countyId": "20"
      },
      "economicActivities": [
        {
          "id": "1.506.0",
          "name": "Instalaciones de andamios, cimbras, encofrados, etc",
          "_links": {
            "self": {
              "name": "Instalaciones de andamios, cimbras, encofrados, etc",
              "href": "https://api.euskadi.eus/procurements/companies/economic-activities/1.506.0"
            }
          }
        },
        {
          "id": "1.843.1",
          "name": "Servicios técnicos de ingeniería",
          "_links": {
            "self": {
              "name": "Servicios técnicos de ingeniería",
              "href": "https://api.euskadi.eus/procurements/companies/economic-activities/1.843.1"
            }
          }
        }
      ],
      "certificateStartDate": "2008-02-26",
      "certificateEndDate": "2008-07-28",
      "object": "LAS ACTIVIDADES QUE SEGUIDAMENTE SE DETALLAN, QUE PODRÁN SER REALIZADAS POR LA SOCIEDAD, YA  DIRECTAMENTE, YA INDIRECTAMENTE, INCLUSO MEDIANTE SU PARTICIPACIÓN EN OTRAS SOCIEDADES DE OBJETO IDÉNTICO O ANÁLOGO:\r\n-LA REALIZACIÓN DE ESTUDIOS Y PLANES DE SEGURIDAD ASÍ COMO SU SEGUIMIENTO Y GESTIÓN.\r\n\r\n-CONSULTORÍA, FORMACIÓN Y ASESORAMIENTO TÉCNICO EN SEGURIDAD, SALUD LABORAL Y CONDICIONES DE TRABAJO.\r\n\r\n-ESTUDIOS Y PROYECTOS ADEMÁS DE LA GESTIÓN DE LOS MISMOS EN EL ÁMBITO DE LA ARQUITECTURA Y DE LA INGENIERÍA.\r\n\r\n  ",
      "mainEntityOfPage": "https://www.contratacion.euskadi.eus/webkpe00-kperoc/es/ac71aBusquedaRegistrosWar/empresa/02383",
      "_links": {
        "self": {
          "name": "C.T.P. KORMAN, S.L.",
          "href": "https://api.euskadi.eus/procurements/companies/02383"
        }
      }
    },
    {
      "name": "GARBIKAT, S.L.",
      "registrationNumber": "03306",
      "identificationNumber": "B95322434",
      "address": "C/ELORRI, Nº 13-2º D",
      "location": {
        "postalCode": "48991",
        "municipality": "Getxo",
        "county": "Bizkaia",
        "municipalityId": "044",
        "countyId": "48"
      },
      "economicActivities": [
        {
          "id": "1.922",
          "name": "Servicios de limpieza",
          "_links": {
            "self": {
              "name": "Servicios de limpieza",
              "href": "https://api.euskadi.eus/procurements/companies/economic-activities/1.922"
            }
          }
        }
      ],
      "certificateStartDate": "2008-02-26",
      "certificateEndDate": "2008-07-09",
      "object": "LA LIMPIEZA INTEGRAL, MANTENIMIENTO Y CONSERVACIÓN DE EDIFICIOS, LOCALES COMERCIALES E INDUSTRIALES, COMUNIDADES DE PROPIETARIOS, GARAJES, COLEGIOS Y RESIDENCIAS",
      "mainEntityOfPage": "https://www.contratacion.euskadi.eus/webkpe00-kperoc/es/ac71aBusquedaRegistrosWar/empresa/03306",
      "_links": {
        "self": {
          "name": "GARBIKAT, S.L.",
          "href": "https://api.euskadi.eus/procurements/companies/03306"
        }
      }
    },
    {
      "name": "PINTURAS IRU DOMÍNGUEZ, S.L.",
      "registrationNumber": "03440",
      "identificationNumber": "B20766747",
      "address": "ARABA KALEA, 8",
      "location": {
        "postalCode": "20800",
        "municipality": "Zarautz",
        "county": "Gipuzkoa",
        "municipalityId": "079",
        "countyId": "20"
      },
      "economicActivities": [
        {
          "id": "1.505.6",
          "name": "Pintura, revestimientos y terminación y decoración de locales",
          "_links": {
            "self": {
              "name": "Pintura, revestimientos y terminación y decoración de locales",
              "href": "https://api.euskadi.eus/procurements/companies/economic-activities/1.505.6"
            }
          }
        }
      ],
      "certificateStartDate": "2008-02-19",
      "certificateEndDate": "2008-07-23",
      "object": "LA VENTA MENOR DE PINTURAS, PAPELES PINTADOS Y ELEMENTOS DECORATIVOS. EL PINTADO, TERMINACIÓN Y DECORACIÓN DE EDIFICIOS, LOCALES Y CUALQUIER OTRO TIPO DE CONSTRUCCIÓN",
      "mainEntityOfPage": "https://www.contratacion.euskadi.eus/webkpe00-kperoc/es/ac71aBusquedaRegistrosWar/empresa/03440",
      "_links": {
        "self": {
          "name": "PINTURAS IRU DOMÍNGUEZ, S.L.",
          "href": "https://api.euskadi.eus/procurements/companies/03440"
        }
      }
    },
    {
      "name": "FLASH IMPRESIÓN, S.L.",
      "registrationNumber": "01918",
      "identificationNumber": "B48822662",
      "address": "C/ DOCTOR ENTRECANALES, Nº 8 - 1º.",
      "location": {
        "postalCode": "48002",
        "municipality": "Bilbao",
        "county": "Bizkaia",
        "municipalityId": "020",
        "countyId": "48"
      },
      "economicActivities": [
        {
          "id": "1.474",
          "name": "Artes gráficas (impresión gráfica)",
          "_links": {
            "self": {
              "name": "Artes gráficas (impresión gráfica)",
              "href": "https://api.euskadi.eus/procurements/companies/economic-activities/1.474"
            }
          }
        }
      ],
      "certificateStartDate": "2008-02-18",
      "certificateEndDate": "2008-07-25",
      "object": "LA FABRICACIÓN Y VENTA DE TODO TIPO DE IMPRESOS COMERCIALES, PROSPECTOS, FOLLETOS, CATÁLOGOS, CALENDARIOS, EDICIONES EN HUECO, OFFSET, TIPOGRAFÍA, SERIGRAFÍA, ASÍ COMO CON CUALESQUIERA OTRAS TÉCNICAS GRÁFICAS EN ORDEN A LA REPRODUCCIÓN MECÁNICA POR TODOS LOS MEDIOS IDÓNEOS, INCLUÍDOS LOS MEDIOS INFORMÁTICOS. LA REALIZACIÓN DE TRABAJOS DE ENCUADERNACIÓN, POR CUALQUIER TIPO DE MEDIO Y DE TODO TIPO DE DISEÑOS, MAQUETAS Y ESTUDIOS PUBLICITARIOS, INCLUÍDOS LOS DE DIBUJO Y DELINEACIÓN. Y LO RELACIONADO CON LA ACTIVIDAD EDITORIAL SIN LIMITACIÓN ALGUNA. DEL MISMO MODO PODRÁ ADQUIRIR, ENAJENAR, ARRENDAR Y ALQUILAR CUALQUIER TIPO DE MAQUINARIA, UTENSILIOS, OBJETOS O MATERIALES PROPIOS DE LAS ARTES GRÁFICAS EN GENERAL, INCLUYENDO TODAS LAS MODALIDADES DEL ARTE DE LA REPRODUCCIÓN GRÁFICA, Y TODO ELLO, SIN LIMITACIÓN ALGUNA. EN ORDEN A LOS TRABAJOS DE DISTRIBUCIÓN, COMERCIALIZACIÓN, DIFUSIÓN Y ENTREGA, PODRÁ, MEDIANTE SUS PROPIOS VEHÍCULOS, DEDICARSE AL TRANSPORTE QUE DEMANDE SUS NECESIDADES RELATIVAS A LOS ASPECTOS ANTES MENCIONADOS. POR ÚLTIMO, TAMBIÉN CONSTITUYE EL OBJETO SOCIAL, TODO TIPO DE MECANIZACIÓN, RESPECTO DEL PAPEL CONTINUO, MANIPULADOS, CARTONAJES, FOTOGRAFÍAS Y FOTOCOMPOSICIÓN, Y MATERIAS ADHESIVAS. ASÍ MISMO, TODO LO RELATIVO A LA COMERCIALIZACIÓN Y VENTA DE ARTÍCULOS DE OFICINA (EXCEPTO MUEBLES), INCLUÍDAS MÁQUINAS DE ESCRIBIR Y MATERIAL INFORMÁTICO, AL IGUAL QUE TODO TIPO DE MATERIALES DE INSTRUCCIÓN Y ENSEÑANZA. PARA LA REALIZACIÓN DE DICHOS FINES SOCIALES, PODRÁ LA SOCIEDAD ADQUIRIR Y ENAJENAR BIENES DE CUALQUIER NATURALEZA Y REALIZAR ACTOS Y FORMALIZAR CONTRATOS DE CUALQUIER ÍNDOLE, CIVIL O MERCANTIL, SIN LIMITACIÓN ALGUNA. IGUALMENTE PODRÁ EFECTUAR TODO TIPO DE IMPORTACIONES Y EXPORTACIONES QUE EL PRESENTE OBJETO DEMANDARE, TAMBIÉN SIN LIMITACIÓN ALGUNA",
      "mainEntityOfPage": "https://www.contratacion.euskadi.eus/webkpe00-kperoc/es/ac71aBusquedaRegistrosWar/empresa/01918",
      "_links": {
        "self": {
          "name": "FLASH IMPRESIÓN, S.L.",
          "href": "https://api.euskadi.eus/procurements/companies/01918"
        }
      }
    },
    {
      "name": "INCOTEL INGENIERIA Y CONSULTORIA, S.A.",
      "registrationNumber": "02436",
      "identificationNumber": "A48957682",
      "address": "GRAN VIA, 38-6º",
      "location": {
        "postalCode": "48009",
        "municipality": "Bilbao",
        "county": "Bizkaia",
        "municipalityId": "020",
        "countyId": "48"
      },
      "economicActivities": [
        {
          "id": "1.843.1",
          "name": "Servicios técnicos de ingeniería",
          "_links": {
            "self": {
              "name": "Servicios técnicos de ingeniería",
              "href": "https://api.euskadi.eus/procurements/companies/economic-activities/1.843.1"
            }
          }
        },
        {
          "id": "1.845",
          "name": "Explotación electrónica por cuenta de terceros",
          "_links": {
            "self": {
              "name": "Explotación electrónica por cuenta de terceros",
              "href": "https://api.euskadi.eus/procurements/companies/economic-activities/1.845"
            }
          }
        }
      ],
      "certificateStartDate": "2008-02-08",
      "certificateEndDate": "2008-06-10",
      "object": "LA REALIZACIÓN DE ESTUDIOS, PROYECTOS, INFORMES Y PROGRAMAS RELACIONADOS CON LAS TELECOMUNICACIONES.\r\nEL DISEÑO, FABRICACIÓN Y VENTA, IMPORTACIÓN Y EXPORTACIÓN DE TODA CLASE DE EQUIPOS ELECTRÓNICOS Y DE TELECOMUNICACIÓN.\r\nLA REALIZACIÓN DE INSTALACIONES ELECTRÓNICAS Y DE TELECOMUNICACIONES POR CABLE, SATÉLITE O CUALQUIER OTRO MEDIO QUE LA TÉCNICA PERMITA.\r\nLA PRESTACIÓN DE SERVICIOS DE MANTENIMIENTO Y ASISTENCIA TÉCNICA DE INSTALACIONES  DE EQUIPOS ELECTRÓNICOS O DE TELECOMUNICACIÓN.\r\nLA PRESTACIÓN DE SERVICIOS DE CONSULTORÍA EN TECNOLOGÍA DE LA INFORMACIÓN, INCLUYENDO LA REALIZACIÓN DE INFORMES Y ESTUDIOS RELACIONADOS CON LAS TELECOMUNICACIONES, Y LA ORGANIZACIÓN DE CURSOS DE TÉCNICAS AUDIOVISUALES Y DE TELECOMUNICACIÓN.\r\nLA PRESTACIÓN DE SERVICIOS DE TELECOMUNICACIÓN.\r\nLAS ACTIVIDADES INTEGRANTES DEL OBJETO SOCIAL PODRÁN SER DESARROLLADAS POR LA SOCIEDAD, TOTAL O PARCIALMENTE, DE MODO INDIRECTO, MEDIANTE LA TITULARIDAD DE ACCIONES O PARTICIPACIONES EN OTRAS SOCIEDADES CON OBJETO IDÉNTICO O ANÁLOGO.\r\nLA SOCIEDAD NO DESARROLLARÁ NINGUNA ACTIVIDAD PARA LA QUE LAS LEYES, EN ESPECIAL LAS REFERENTES AL MERCADO DE VALORES, EXIJAN CONDICIONES O LIMITACIONES ESPECÍFICAS EN TANTO NO SE DÉ EXACTO CUMPLIMIENTO A LAS MISMAS. ",
      "mainEntityOfPage": "https://www.contratacion.euskadi.eus/webkpe00-kperoc/es/ac71aBusquedaRegistrosWar/empresa/02436",
      "_links": {
        "self": {
          "name": "INCOTEL INGENIERIA Y CONSULTORIA, S.A.",
          "href": "https://api.euskadi.eus/procurements/companies/02436"
        }
      }
    },
    {
      "name": "TARAZAGA COMUNICACIÓN, S.L.",
      "registrationNumber": "02481",
      "identificationNumber": "B48977748",
      "address": "C/ BASERRIA, 7",
      "location": {
        "postalCode": "48990",
        "municipality": "Getxo",
        "county": "Bizkaia",
        "municipalityId": "044",
        "countyId": "48"
      },
      "economicActivities": [
        {
          "id": "1.844",
          "name": "Servicios de publicidad, relaciones públicas y similares",
          "_links": {
            "self": {
              "name": "Servicios de publicidad, relaciones públicas y similares",
              "href": "https://api.euskadi.eus/procurements/companies/economic-activities/1.844"
            }
          }
        }
      ],
      "certificateStartDate": "2008-02-08",
      "certificateEndDate": "2008-06-13",
      "object": "LA REALIZACIÓN DE TODO TIPO DE TRABAJOS RELACIONADOS CON LA CONSULTORÍA EN MATERIA DE COMUNICACIÓN, ASÍ COMO EL DESARROLLO DE LA ACTIVIDAD DE AGENCIA DE RELACIONES PÚBLICAS",
      "mainEntityOfPage": "https://www.contratacion.euskadi.eus/webkpe00-kperoc/es/ac71aBusquedaRegistrosWar/empresa/02481",
      "_links": {
        "self": {
          "name": "TARAZAGA COMUNICACIÓN, S.L.",
          "href": "https://api.euskadi.eus/procurements/companies/02481"
        }
      }
    },
    {
      "name": "ALFREDO GONZÁLEZ ROJAS (MOTOCICLETAS TITO)",
      "registrationNumber": "00226",
      "identificationNumber": "14206944M",
      "address": "C/ GREGORIO DE LA REVILLA, Nº 29 - 31.",
      "location": {
        "postalCode": "48010",
        "municipality": "Bilbao",
        "county": "Bizkaia",
        "municipalityId": "020",
        "countyId": "48"
      },
      "economicActivities": [
        {
          "id": "1.654.1",
          "name": "Venta al por menor de vehículos terrestres",
          "_links": {
            "self": {
              "name": "Venta al por menor de vehículos terrestres",
              "href": "https://api.euskadi.eus/procurements/companies/economic-activities/1.654.1"
            }
          }
        },
        {
          "id": "1.654.2",
          "name": "Venta al por menor de accesorios, piezas de recambio de vehículos terrestres",
          "_links": {
            "self": {
              "name": "Venta al por menor de accesorios, piezas de recambio de vehículos terrestres",
              "href": "https://api.euskadi.eus/procurements/companies/economic-activities/1.654.2"
            }
          }
        },
        {
          "id": "1.691.2",
          "name": "Reparación de vehículos automóviles, bicicletas y otros vehículos",
          "_links": {
            "self": {
              "name": "Reparación de vehículos automóviles, bicicletas y otros vehículos",
              "href": "https://api.euskadi.eus/procurements/companies/economic-activities/1.691.2"
            }
          }
        }
      ],
      "certificateStartDate": "2008-02-04",
      "certificateEndDate": "2008-05-20",
      "object": "VENTA Y REPARACIÓN DE CICLOMOTORES, MOTOCICLETAS Y SUS ACCESORIOS",
      "mainEntityOfPage": "https://www.contratacion.euskadi.eus/webkpe00-kperoc/es/ac71aBusquedaRegistrosWar/empresa/00226",
      "_links": {
        "self": {
          "name": "ALFREDO GONZÁLEZ ROJAS (MOTOCICLETAS TITO)",
          "href": "https://api.euskadi.eus/procurements/companies/00226"
        }
      }
    }
  ]
}