{
  "totalItems": 9042,
  "totalPages": 905,
  "currentPage": 834,
  "itemsOfPage": 10,
  "items": [
    {
      "name": "PROSERTEK, S.L.",
      "registrationNumber": "01368",
      "identificationNumber": "B48244537",
      "address": "C/ CRISTÓBAL MELLO, Nº 18 - 3º DCHA.",
      "location": {
        "postalCode": "48920",
        "municipality": "Portugalete",
        "county": "Bizkaia",
        "municipalityId": "078",
        "countyId": "48"
      },
      "economicActivities": [
        {
          "id": "1.501.2",
          "name": "Construcción completa, reparación y conservación obras civiles",
          "_links": {
            "self": {
              "name": "Construcción completa, reparación y conservación obras civiles",
              "href": "https://api.euskadi.eus/procurements/companies/economic-activities/1.501.2"
            }
          }
        },
        {
          "id": "1.843.1",
          "name": "Servicios técnicos de ingeniería",
          "_links": {
            "self": {
              "name": "Servicios técnicos de ingeniería",
              "href": "https://api.euskadi.eus/procurements/companies/economic-activities/1.843.1"
            }
          }
        }
      ],
      "certificateStartDate": "1998-10-05",
      "certificateEndDate": "1999-02-12",
      "object": "ESTUDIO, INVESTIGACION, PROMOCION, ASESORAMIENTO Y EJECUCION DE TODA CLASE DE PROYECTOS Y SERVICIOS TECNICOS PARA TODA CLASE DE INDUSTRIAS Y, EN ESPECIAL, DE INGENIERIA NAVAL Y CIVIL. EJECUCION Y MANTENIMIENTO DE INSTALACIONES ELECTRICAS EN GENERAL, EN ALTA, BAJA Y MEDIA TENSION, INSTALACIONES DE TELECOMUNICACION, INSTALACIONES ELECTRONICAS E INSTALACIONES DE SISTEMAS DE SEÑALIZACION Y BALIZAMIENTO DE PUERTOS, AEROPUERTOS Y CARRETERAS; INSTALACIONES DE SEGURIDAD Y CONTRA INCENDIOS. EJECUCION Y MANTENIMIENTO DE INSTALACIONES MECANICAS EN GENERAL, INSTALACIONES DE FONTANERIA, INSTALACIONES FRIGORIFICAS, INSTALACIONES DE CALEFACCION, VENTILACION Y CLIMATIZACION, INSTALACIONES ELEVADORAS Y TRANSPORTADORAS; E INSTALACIONES DE TRATAMIENTO DE AGUAS DE TODO TIPO. CONSTRUCCION COMPLETA, REPARACION Y CONSERVACION DE EDIFICACIONES Y OBRAS CIVILES. CONTRATAR OBRAS Y SERVICIOS CON CUALQUIER ORGANISMO DE LAS ADMINISTRACIONES PUBLICAS Y CON TODA CLASE DE ENTIDADES Y PARTICULARES. REDACCION Y CONFECCION DE PROYECTOS TECNICOS DE TODO TIPO, DIRECCION DE OBRA Y CONTROL DE CALIDAD, REALIZACION DE ESTUDIOS E INFORMES Y ASESORAMIENTO TECNICO. CONSTITUCION, EN CONCURRENCIA CON OTRAS PERSONAS, DE TODA CLASE DE SOCIEDADES, MERCANTILES, CIVILES O ASOCIARSE CON CUALESQUIERA OTRAS CONSTITUIDAS O QUE SE CONSTITUYAN EN LO SUCESIVO, CON IDENTICO O ANALOGO OBJETO SOCIAL, PARTICIPANDO EN LAS MISMAS, CUALQUIERA QUE SEA LA FORMA QUE ADOPTE LA PARTICIPACION",
      "mainEntityOfPage": "https://www.contratacion.euskadi.eus/webkpe00-kperoc/es/ac71aBusquedaRegistrosWar/empresa/01368",
      "_links": {
        "self": {
          "name": "PROSERTEK, S.L.",
          "href": "https://api.euskadi.eus/procurements/companies/01368"
        }
      }
    },
    {
      "name": "DADE DIAGNÓSTICOS, S.L.",
      "registrationNumber": "01444",
      "identificationNumber": "B96313218",
      "address": "C/ DEL'S GREMIS, Nº 7",
      "location": {
        "postalCode": "46014",
        "municipality": "València",
        "county": "Valencia/València",
        "municipalityId": "250",
        "countyId": "46"
      },
      "economicActivities": [
        {
          "id": "1.614.1",
          "name": "Venta al por mayor de productos farmacéuticos y medicamentos",
          "_links": {
            "self": {
              "name": "Venta al por mayor de productos farmacéuticos y medicamentos",
              "href": "https://api.euskadi.eus/procurements/companies/economic-activities/1.614.1"
            }
          }
        },
        {
          "id": "1.619.2",
          "name": "Venta al por mayor de aparatos e instrumentos médicos, ortopédicos, ópticos",
          "_links": {
            "self": {
              "name": "Venta al por mayor de aparatos e instrumentos médicos, ortopédicos, ópticos",
              "href": "https://api.euskadi.eus/procurements/companies/economic-activities/1.619.2"
            }
          }
        }
      ],
      "certificateStartDate": "1998-10-05",
      "certificateEndDate": "1998-06-04",
      "object": "LA FABRICACION, COMERCIALIZACION, IMPORTACION, EXPORTACION Y DISTRIBUCION DE APARATOS, DISPOSITIVOS Y REACTIVOS PARA ANALISIS CLINICOS, DE DIAGNOSTICOS Y DE CUALESQUIERA OTROS PRODUCTOS DE USO HOSPITALARIO, ASI COMO DE OTROS PRODUCTOS COMPLEMENTARIOS A LOS ANTERIORES, CON EXPRESA INCLUSION DE REPARACIONES E INFORMATICA PARA GESTION HOSPITALARIA",
      "mainEntityOfPage": "https://www.contratacion.euskadi.eus/webkpe00-kperoc/es/ac71aBusquedaRegistrosWar/empresa/01444",
      "_links": {
        "self": {
          "name": "DADE DIAGNÓSTICOS, S.L.",
          "href": "https://api.euskadi.eus/procurements/companies/01444"
        }
      }
    },
    {
      "name": "FRANCISCO MANUEL SÁNCHEZ TOCÓN",
      "registrationNumber": "01510",
      "identificationNumber": "31982630A",
      "address": "Pº DE BERA-BERA, Nº 49 - 1º B",
      "location": {
        "postalCode": "20009",
        "municipality": "Donostia / San Sebastián",
        "county": "Gipuzkoa",
        "municipalityId": "069",
        "countyId": "20"
      },
      "economicActivities": [
        {
          "id": "1.721.3",
          "name": "Transporte de viajeros por carretera",
          "_links": {
            "self": {
              "name": "Transporte de viajeros por carretera",
              "href": "https://api.euskadi.eus/procurements/companies/economic-activities/1.721.3"
            }
          }
        }
      ],
      "certificateStartDate": "1998-10-02",
      "certificateEndDate": "1995-12-30",
      "object": "TRANSPORTE DE VIAJEROS POR CARRETERA",
      "mainEntityOfPage": "https://www.contratacion.euskadi.eus/webkpe00-kperoc/es/ac71aBusquedaRegistrosWar/empresa/01510",
      "_links": {
        "self": {
          "name": "FRANCISCO MANUEL SÁNCHEZ TOCÓN",
          "href": "https://api.euskadi.eus/procurements/companies/01510"
        }
      }
    },
    {
      "name": "GOROSTI LORE, S.L.",
      "registrationNumber": "02024",
      "identificationNumber": "B20631776",
      "address": "GELTOKI KALEA, Nº 19 - 3º C",
      "location": {
        "postalCode": "20160",
        "municipality": "Lasarte-Oria",
        "county": "Gipuzkoa",
        "municipalityId": "902",
        "countyId": "20"
      },
      "economicActivities": [
        {
          "id": "1.911",
          "name": "Servicios agrícolas y ganaderos",
          "_links": {
            "self": {
              "name": "Servicios agrícolas y ganaderos",
              "href": "https://api.euskadi.eus/procurements/companies/economic-activities/1.911"
            }
          }
        },
        {
          "id": "1.921.2",
          "name": "Servicios de recogida de basuras y desechos",
          "_links": {
            "self": {
              "name": "Servicios de recogida de basuras y desechos",
              "href": "https://api.euskadi.eus/procurements/companies/economic-activities/1.921.2"
            }
          }
        }
      ],
      "certificateStartDate": "1998-10-02",
      "certificateEndDate": "1999-01-30",
      "object": "EL MANTENIMIENTO, LIMPIEZA, OBRAS, DISEÑOS Y PROYECTOS DE JARDINERÍA",
      "mainEntityOfPage": "https://www.contratacion.euskadi.eus/webkpe00-kperoc/es/ac71aBusquedaRegistrosWar/empresa/02024",
      "_links": {
        "self": {
          "name": "GOROSTI LORE, S.L.",
          "href": "https://api.euskadi.eus/procurements/companies/02024"
        }
      }
    },
    {
      "name": "ACADEMIA LACUNZA, S.A.",
      "registrationNumber": "02029",
      "identificationNumber": "A20196630",
      "address": "C/ MORAZA, Nº 5 - BAJO",
      "location": {
        "postalCode": "20006",
        "municipality": "Donostia / San Sebastián",
        "county": "Gipuzkoa",
        "municipalityId": "069",
        "countyId": "20"
      },
      "economicActivities": [
        {
          "id": "1.933.9",
          "name": "Otras actividades de enseñanza tales como idiomas, mecanografía",
          "_links": {
            "self": {
              "name": "Otras actividades de enseñanza tales como idiomas, mecanografía",
              "href": "https://api.euskadi.eus/procurements/companies/economic-activities/1.933.9"
            }
          }
        }
      ],
      "certificateStartDate": "1998-10-02",
      "certificateEndDate": "1999-01-28",
      "object": "LA ENSEÑANZA DE IDIOMAS; FORMACIÓN DE PROFESORES; CREACIÓN DE EXÁMENES DE IDIOMAS Y PARTICIPACIÓN EN LOS MISMOS; PROMOCIÓN Y VENTA DE CURSOS DE IDIOMAS EN ESPAÑA O EN EL EXTRANJERO; PRODUCCIÓN, EDICIÓN Y VENTA DE LIBROS, CASSETTES Y MATERIALES DIDÁCTICOS; TRABAJOS DE TRADUCCIÓN, INTERPRETACIÓN Y ASESORAMIENTO LINGÜÍSTICO",
      "mainEntityOfPage": "https://www.contratacion.euskadi.eus/webkpe00-kperoc/es/ac71aBusquedaRegistrosWar/empresa/02029",
      "_links": {
        "self": {
          "name": "ACADEMIA LACUNZA, S.A.",
          "href": "https://api.euskadi.eus/procurements/companies/02029"
        }
      }
    },
    {
      "name": "TAPICERÍAS GASTEIZ, S.L.",
      "registrationNumber": "02031",
      "identificationNumber": "B01227693",
      "address": "C/ IRUÑA-PAMPLONA, Nº 13 - BAJO",
      "location": {
        "postalCode": "01010",
        "municipality": "Vitoria-Gasteiz",
        "county": "Araba/Álava",
        "municipalityId": "059",
        "countyId": "01"
      },
      "economicActivities": [
        {
          "id": "1.437.1",
          "name": "Fabricación de alfombras y tapices",
          "_links": {
            "self": {
              "name": "Fabricación de alfombras y tapices",
              "href": "https://api.euskadi.eus/procurements/companies/economic-activities/1.437.1"
            }
          }
        }
      ],
      "certificateStartDate": "1998-10-02",
      "certificateEndDate": "1999-01-06",
      "object": "LA REALIZACIÓN DE TRABAJOS DE TAPICERÍA Y TEXTIL HOGAR. COMPRAVENTA DE TODOS LOS MATERIALES NECESARIOS PARA LA REALIZACIÓN DE DICHAS ACTIVIDADES",
      "mainEntityOfPage": "https://www.contratacion.euskadi.eus/webkpe00-kperoc/es/ac71aBusquedaRegistrosWar/empresa/02031",
      "_links": {
        "self": {
          "name": "TAPICERÍAS GASTEIZ, S.L.",
          "href": "https://api.euskadi.eus/procurements/companies/02031"
        }
      }
    },
    {
      "name": "CONSTRUCCIONES ROMI, S.L.",
      "registrationNumber": "01003",
      "identificationNumber": "B01027192",
      "address": "C/ PERÚ, Nº 1 - BAJO.",
      "location": {
        "postalCode": "01012",
        "municipality": "Vitoria-Gasteiz",
        "county": "Araba/Álava",
        "municipalityId": "059",
        "countyId": "01"
      },
      "economicActivities": [
        {
          "id": "1.501.1",
          "name": "Construcción completa, reparación y conservación de edificaciones",
          "_links": {
            "self": {
              "name": "Construcción completa, reparación y conservación de edificaciones",
              "href": "https://api.euskadi.eus/procurements/companies/economic-activities/1.501.1"
            }
          }
        }
      ],
      "certificateStartDate": "1998-09-17",
      "certificateEndDate": "1999-03-04",
      "object": "LA CONSTRUCCION DE OBRAS DE EDIFICACION URBANA, INDUSTRIAL, URBANIZACION, SANEAMIENTO, MOVIMIENTO DE TIERRAS Y LOS TRABAJOS,  FABRICACIONES Y NEGOCIOS RELACIONADOS CON LA CONSTRUCCION. LOS TRABAJOS DE REPARACION Y CONSERVACION DE LAS OBRAS RELACIONADAS ANTERIORMENTE. PROMOCION DE TODA CLASE DE EDIFICACIONES, REPARACIONES, URBANIZACION DEL SUELO, COMPRA Y VENTA DE PARCELAS Y EDIFICIOS",
      "mainEntityOfPage": "https://www.contratacion.euskadi.eus/webkpe00-kperoc/es/ac71aBusquedaRegistrosWar/empresa/01003",
      "_links": {
        "self": {
          "name": "CONSTRUCCIONES ROMI, S.L.",
          "href": "https://api.euskadi.eus/procurements/companies/01003"
        }
      }
    },
    {
      "name": "ARIN ETXEGINTZA, S.L.",
      "registrationNumber": "01874",
      "identificationNumber": "B20532578",
      "address": "BARRIO UGALDETXO. CASERIO MENDIBIL.",
      "location": {
        "postalCode": "20180",
        "municipality": "Oiartzun",
        "county": "Gipuzkoa",
        "municipalityId": "063",
        "countyId": "20"
      },
      "economicActivities": [
        {
          "id": "1.501.1",
          "name": "Construcción completa, reparación y conservación de edificaciones",
          "_links": {
            "self": {
              "name": "Construcción completa, reparación y conservación de edificaciones",
              "href": "https://api.euskadi.eus/procurements/companies/economic-activities/1.501.1"
            }
          }
        }
      ],
      "certificateStartDate": "1998-09-14",
      "certificateEndDate": "1999-03-10",
      "object": "PROMOCION, CONSTRUCCION Y COMPRAVENTA DE EDIFICACIONES Y SOLARES Y LA REALIZACION Y EJECUCION DE TODA CLASE DE OBRAS, TRABAJOS Y REPARACIONES DE LA CONSTRUCCION",
      "mainEntityOfPage": "https://www.contratacion.euskadi.eus/webkpe00-kperoc/es/ac71aBusquedaRegistrosWar/empresa/01874",
      "_links": {
        "self": {
          "name": "ARIN ETXEGINTZA, S.L.",
          "href": "https://api.euskadi.eus/procurements/companies/01874"
        }
      }
    },
    {
      "name": "PUBLISAL CARAT, S.A.",
      "registrationNumber": "00252",
      "identificationNumber": "A48079099",
      "address": "C/ COLÓN DE LARREATEGI, Nº 43 - 1º DCHA.",
      "location": {
        "postalCode": "48011",
        "municipality": "Bilbao",
        "county": "Bizkaia",
        "municipalityId": "020",
        "countyId": "48"
      },
      "economicActivities": [
        {
          "id": "1.844",
          "name": "Servicios de publicidad, relaciones públicas y similares",
          "_links": {
            "self": {
              "name": "Servicios de publicidad, relaciones públicas y similares",
              "href": "https://api.euskadi.eus/procurements/companies/economic-activities/1.844"
            }
          }
        }
      ],
      "certificateStartDate": "1998-08-28",
      "certificateEndDate": "1998-02-06",
      "object": "CREAR, PROYECTAR, EJECUTAR O DISTRIBUIR CAMPAÑAS DE PUBLICIDAD A TRAVES DE CUALQUIER MEDIO DE DIFUSION",
      "mainEntityOfPage": "https://www.contratacion.euskadi.eus/webkpe00-kperoc/es/ac71aBusquedaRegistrosWar/empresa/00252",
      "_links": {
        "self": {
          "name": "PUBLISAL CARAT, S.A.",
          "href": "https://api.euskadi.eus/procurements/companies/00252"
        }
      }
    },
    {
      "name": "NORTE DE COMUNICACIÓN, N.C., S.A.",
      "registrationNumber": "01408",
      "identificationNumber": "A48442461",
      "address": "C/ GRAN VÍA, Nº 38 - 3º",
      "location": {
        "postalCode": "48009",
        "municipality": "Bilbao",
        "county": "Bizkaia",
        "municipalityId": "020",
        "countyId": "48"
      },
      "economicActivities": [
        {
          "id": "1.844",
          "name": "Servicios de publicidad, relaciones públicas y similares",
          "_links": {
            "self": {
              "name": "Servicios de publicidad, relaciones públicas y similares",
              "href": "https://api.euskadi.eus/procurements/companies/economic-activities/1.844"
            }
          }
        }
      ],
      "certificateStartDate": "1998-08-28",
      "certificateEndDate": "1998-03-24",
      "object": "LA INVESTIGACION, PLANIFICACION, COMPRA Y DISTRIBUCION, POR CUENTA PROPIA O DE TERCEROS, DE UNIDADES DE ESPACIO O TIEMPO PUBLICITARIO DE CUALQUIER SOPORTE O MEDIO DE COMUNICACION. LA IDEACION, PRODUCCION, PROGRAMACION O EJECUCION, POR CUENTA PROPIA O DE TERCEROS, DE PROYECTOS DE CAMPAÑAS PUBLICITARIAS, DE UNA PARTE DE LAS MISMAS O DE CUALQUIER OTRO ELEMENTO PUBLICITARIO. LA PROMOCION Y MEDIACION EN ACTIVIDADES DE PATROCINIO, MECENAZGO Y SPONSORING",
      "mainEntityOfPage": "https://www.contratacion.euskadi.eus/webkpe00-kperoc/es/ac71aBusquedaRegistrosWar/empresa/01408",
      "_links": {
        "self": {
          "name": "NORTE DE COMUNICACIÓN, N.C., S.A.",
          "href": "https://api.euskadi.eus/procurements/companies/01408"
        }
      }
    }
  ]
}