{
  "totalItems": 9042,
  "totalPages": 905,
  "currentPage": 387,
  "itemsOfPage": 10,
  "items": [
    {
      "name": "TARTEKA MEDIA KOOP. ELK. TXIKIA",
      "registrationNumber": "09544",
      "identificationNumber": "F01542414",
      "address": "Kale Nagusia 29. Local comercial.",
      "location": {
        "postalCode": "01200",
        "municipality": "Agurain/Salvatierra",
        "county": "Araba/Álava",
        "municipalityId": "051",
        "countyId": "01"
      },
      "economicActivities": [
        {
          "id": "1.845",
          "name": "Explotación electrónica por cuenta de terceros",
          "_links": {
            "self": {
              "name": "Explotación electrónica por cuenta de terceros",
              "href": "https://api.euskadi.eus/procurements/companies/economic-activities/1.845"
            }
          }
        }
      ],
      "certificateStartDate": "2024-10-03",
      "certificateEndDate": "2025-04-03",
      "object": "EL DISEÑO Y DESARROLLO WEB (WORDPRESS, DRUPAL, E-LEARNING), E-COMMERCE (MAGENTO, PRESTASHOP, WOOCOMMERCE). POSICIONAMIENTO EN BUSCADORES (SEO) Y MARKETING DIGITAL. ELABORACIÓN DE MATERIAL MULTIMEDIA, DISEÑO Y DESARROLLO DE PUBLICACIONES GRÁFICAS. DESARROLLO DE IMAGEN E IDENTIDAD CORPORTATIVA. DISEÑO PBULICITARIO DE CAMPAÑAS Y PIEZAS PUBLICITARIAS, DISEÑO DE PACKAGING.",
      "mainEntityOfPage": "https://www.contratacion.euskadi.eus/webkpe00-kperoc/es/ac71aBusquedaRegistrosWar/empresa/09544",
      "_links": {
        "self": {
          "name": "TARTEKA MEDIA KOOP. ELK. TXIKIA",
          "href": "https://api.euskadi.eus/procurements/companies/09544"
        }
      }
    },
    {
      "name": "INDRA BUSINESS CONSULTING, S.L.",
      "registrationNumber": "04680",
      "identificationNumber": "B82627019",
      "address": "Roc Boronat 133, Plantas 9 y 10",
      "location": {
        "postalCode": "08017",
        "municipality": "Barcelona",
        "county": "Barcelona",
        "municipalityId": "019",
        "countyId": "08"
      },
      "economicActivities": [
        {
          "id": "1.845",
          "name": "Explotación electrónica por cuenta de terceros",
          "_links": {
            "self": {
              "name": "Explotación electrónica por cuenta de terceros",
              "href": "https://api.euskadi.eus/procurements/companies/economic-activities/1.845"
            }
          }
        }
      ],
      "certificateStartDate": "2024-10-03",
      "certificateEndDate": "2025-04-02",
      "object": "A) LA INSTALACIÓN , MATENIMIENTO Y OPERACIÓN DE DOMINIOS VIRTUALES EN INTERNET, MEDIANTE SERVIDORES PROPIOS O AJENOS, CREACIÓN DISEÑO DE PÁINAS DE DICHOS DOMINIOS, COMERCIALIZACIÓN DE CONEXIONES A SERVIDORES A INTERNET, ASÍ COMO LA COMUNICACION, MEDIANTE DICHOS SERVIDORES, DE LAS TRANSACCIONES DE COMERCIO ELECTRÓNICO, SIRVIENDO DE SOPORTE ELECTRÓNICO A LAS MISMAS. B) LA IMPORTACIÓN, EXPORTACIÓN, COMERCIALIZACIÓN, DISTRIBUCIÓN, INVESTIGACIÓN Y DESARROLLO DE SISTEMAS, PROGRAMAS E INFORMACIÓN PARA EQUIPOS DE PROCESOS DE DATOS, REPRODUCIDOS BAJO CUALQUIER MEDIO Y CONOCIDOS COMO SOFTWARE, TANTO LOS CREADOS A MEDIDA SEGÚN LAS NECESIDADES DEL USUARIO, COMO LOS PAQUETES HABITUALES EN EL MERCADO, ASÍ COMO SU INSTALACIÓN, MANTENIMIENTO Y ACTUALIZACIONES, EL ENSAMBLAJE DE ORDENADORES, PERIFÉRICOS, ACCESORIOS Y DEMÁS ELEMENTOS CONOCIDOS COMO HARDWARE, ASÍ COMO COMPONENTES Y APARATOS ELECTRÓNICOS. C) LA PRESTACIÓN DE CURSOS DE INSTRUCCIÓN, FORMACIÓN ENTRENAMIENTO Y PERFECCIONAMIENTO SOBRE EL USO DE PROGRAMAS INFORMÁTICOS. D) LA PRESTACIÓN DE SERVICIOS DE ASISTENCIA TÉCNICA, REPARACIÓN, ASESORAMIENTO DE COMPRA Y UTILIZACIÓN DE PROGRAMAS DE ORDENADOR Y ORDENADORES. E) IMPORTACIÓN, EXPORTACIÓN, COMERCIALIZACIÓN, DISTRIBUCIÓN Y VENTA, TANTO COMO MAYORISTA  COMO MINORISTA, DE MANUALES, FOLLETOS, LIBROS Y CUALQUIER OTRO TIPO DE DOCUMENTOS PARA LA INFORMACÓN E INSTRUCCIÓN SOBRE EL USO DE PRODUCTOS, PROGRAMAS INFORMÁTICOS Y/O ORDENADORES. F) EL DISEÑO INDUSTRIAL, PRODUCCIÓN DE MEDIOS DE COMUNICACIÓN INTERACTIVA, DISEÑO Y ARTES GRÁFICAS, PRODUCCIÓN  Y COMERCIALIZACIÓN DE AUDIOVISUALES. G) EL DISEÑO Y DESARROLLO DE APLICACIONES INFORMÁTICAS, DISEÑO Y EJECUCIÓN DE PROYECTOS DE INGENIERÍA INFORMÁTICA Y CONSULTORÍA. H) ADQUISICIÓN, ENAJENACIÓN Y ADMINISTRACIÓN  DE BIENES INMUEBLES ",
      "mainEntityOfPage": "https://www.contratacion.euskadi.eus/webkpe00-kperoc/es/ac71aBusquedaRegistrosWar/empresa/04680",
      "_links": {
        "self": {
          "name": "INDRA BUSINESS CONSULTING, S.L.",
          "href": "https://api.euskadi.eus/procurements/companies/04680"
        }
      }
    },
    {
      "name": "ACADEMIA LACUNZA, S.L.",
      "registrationNumber": "09301",
      "identificationNumber": "B20196630",
      "address": "Moraza 5, bajo",
      "location": {
        "postalCode": "20007",
        "municipality": "Donostia / San Sebastián",
        "county": "Gipuzkoa",
        "municipalityId": "069",
        "countyId": "20"
      },
      "economicActivities": [
        {
          "id": "1.933.9",
          "name": "Otras actividades de enseñanza tales como idiomas, mecanografía",
          "_links": {
            "self": {
              "name": "Otras actividades de enseñanza tales como idiomas, mecanografía",
              "href": "https://api.euskadi.eus/procurements/companies/economic-activities/1.933.9"
            }
          }
        }
      ],
      "certificateStartDate": "2024-10-02",
      "certificateEndDate": "2025-04-02",
      "object": "LA ENSEÑANZA DE IDIOMAS; FORMACIÓN DE PROFESORES; CREACIÓN DE EXÁMENES DE IDIOMAS Y PARTICIPACIÓN EN LOS MISMOS; PROMOCIÓN Y VENTA DE CURSOS DE IDIOMAS EN ESPAÑA O EN EL EXTRANJERO; PRODUCCIÓN, EDICIÓN Y VENTA DE LIBROS, CASSETTES Y MATERIALES DIDÁCTICOS; TRABAJOS DE TRADUCCIÓN, INTERPRETACIÓN Y ASESORAMIENTO LINGÜÍSTICO.",
      "mainEntityOfPage": "https://www.contratacion.euskadi.eus/webkpe00-kperoc/es/ac71aBusquedaRegistrosWar/empresa/09301",
      "_links": {
        "self": {
          "name": "ACADEMIA LACUNZA, S.L.",
          "href": "https://api.euskadi.eus/procurements/companies/09301"
        }
      }
    },
    {
      "name": "CONSTRUCCIONES ELGUEA, S.L.",
      "registrationNumber": "01543",
      "identificationNumber": "B20077616",
      "address": "C/ ALCALDE JOSÉ ELÓSEGUI, Nº 66 - BAJO.",
      "location": {
        "postalCode": "20015",
        "municipality": "Donostia / San Sebastián",
        "county": "Gipuzkoa",
        "municipalityId": "069",
        "countyId": "20"
      },
      "economicActivities": [
        {
          "id": "1.501.1",
          "name": "Construcción completa, reparación y conservación de edificaciones",
          "_links": {
            "self": {
              "name": "Construcción completa, reparación y conservación de edificaciones",
              "href": "https://api.euskadi.eus/procurements/companies/economic-activities/1.501.1"
            }
          }
        }
      ],
      "certificateStartDate": "2024-10-02",
      "certificateEndDate": "2025-04-02",
      "object": "1.- EL NEGOCIO DE LA CONSTRUCCIÓN DE OBRAS PÚBLICAS Y PRIVADAS MEDIANTE CONTRATA CON LA ADMINISTRACIÓN DEL ESTADO, PROVINCIA, MUNICIPIO, ORGANISMOS PÚBLICOS, ENTIDADES PRIVADAS Y PARTICULARES.\r\n\r\n2.- LA PROMOCIÓN DE OBRA PROPIA, BIEN POR EJECUCIÓN DIRECTA O MEDIANTE CONTRATA, TANTO LA ACOGIDA AL RÉGIMEN DE PROTECCIÓN OFICIAL COMO DE OTRA CLASE PARA SU VENTA O PARA APROVECHAMIENTO DIRECTO",
      "mainEntityOfPage": "https://www.contratacion.euskadi.eus/webkpe00-kperoc/es/ac71aBusquedaRegistrosWar/empresa/01543",
      "_links": {
        "self": {
          "name": "CONSTRUCCIONES ELGUEA, S.L.",
          "href": "https://api.euskadi.eus/procurements/companies/01543"
        }
      }
    },
    {
      "name": "JULIA CANO BLASCO",
      "registrationNumber": "09015",
      "identificationNumber": "48573316F",
      "address": "CALLE GANDÍA 17, BAJO DCHA.",
      "location": {
        "postalCode": "46007",
        "municipality": "València",
        "county": "Valencia/València",
        "municipalityId": "250",
        "countyId": "46"
      },
      "economicActivities": [
        {
          "id": "1.843.2",
          "name": "Servicios técnicos de arquitectura y urbanismo",
          "_links": {
            "self": {
              "name": "Servicios técnicos de arquitectura y urbanismo",
              "href": "https://api.euskadi.eus/procurements/companies/economic-activities/1.843.2"
            }
          }
        }
      ],
      "certificateStartDate": "2024-10-02",
      "certificateEndDate": "2025-04-02",
      "object": "SERVICIOS TÉCNICOS DE ARQUITECTURA Y URBANISMO.",
      "mainEntityOfPage": "https://www.contratacion.euskadi.eus/webkpe00-kperoc/es/ac71aBusquedaRegistrosWar/empresa/09015",
      "_links": {
        "self": {
          "name": "JULIA CANO BLASCO",
          "href": "https://api.euskadi.eus/procurements/companies/09015"
        }
      }
    },
    {
      "name": "ARKTELIER ARQUITECTOS, S.L.",
      "registrationNumber": "09538",
      "identificationNumber": "B75075846",
      "address": "Paseo Errondo 5 bajo.",
      "location": {
        "postalCode": "20010",
        "municipality": "Donostia / San Sebastián",
        "county": "Gipuzkoa",
        "municipalityId": "069",
        "countyId": "20"
      },
      "economicActivities": [
        {
          "id": "1.843.2",
          "name": "Servicios técnicos de arquitectura y urbanismo",
          "_links": {
            "self": {
              "name": "Servicios técnicos de arquitectura y urbanismo",
              "href": "https://api.euskadi.eus/procurements/companies/economic-activities/1.843.2"
            }
          }
        }
      ],
      "certificateStartDate": "2024-10-02",
      "certificateEndDate": "2025-04-02",
      "object": "LA ACTIVIDAD PROPIA DEL EJERCICIO DE LA PROFESIÓN DE ARQUITECTO.",
      "mainEntityOfPage": "https://www.contratacion.euskadi.eus/webkpe00-kperoc/es/ac71aBusquedaRegistrosWar/empresa/09538",
      "_links": {
        "self": {
          "name": "ARKTELIER ARQUITECTOS, S.L.",
          "href": "https://api.euskadi.eus/procurements/companies/09538"
        }
      }
    },
    {
      "name": "INSTALMANT SERVICIOS DEL AGUA S.L.",
      "registrationNumber": "05764",
      "identificationNumber": "B71065130",
      "address": "POLIG LA BARRENA C/CANAL IMPERIAL DE ARAGON S/N",
      "location": {
        "postalCode": "31500",
        "municipality": "Tudela",
        "county": "Navarra",
        "municipalityId": "232",
        "countyId": "31"
      },
      "economicActivities": [
        {
          "id": "1.504.1",
          "name": "Instalaciones eléctricas en general",
          "_links": {
            "self": {
              "name": "Instalaciones eléctricas en general",
              "href": "https://api.euskadi.eus/procurements/companies/economic-activities/1.504.1"
            }
          }
        },
        {
          "id": "1.504.2",
          "name": "Instalaciones de fontanería",
          "_links": {
            "self": {
              "name": "Instalaciones de fontanería",
              "href": "https://api.euskadi.eus/procurements/companies/economic-activities/1.504.2"
            }
          }
        }
      ],
      "certificateStartDate": "2024-10-02",
      "certificateEndDate": "2025-04-02",
      "object": "INSTALACIONES Y MANTENIIENTO DE FONTANERIA, CALEFACCIÓN, AIRE ACONDICIONADO, GAS Y TRATAMIENTOS DEL AGUA",
      "mainEntityOfPage": "https://www.contratacion.euskadi.eus/webkpe00-kperoc/es/ac71aBusquedaRegistrosWar/empresa/05764",
      "_links": {
        "self": {
          "name": "INSTALMANT SERVICIOS DEL AGUA S.L.",
          "href": "https://api.euskadi.eus/procurements/companies/05764"
        }
      }
    },
    {
      "name": "BUNT PLANET S.L.",
      "registrationNumber": "04871",
      "identificationNumber": "B20707139",
      "address": "ZUATZU KALEA 9, PLANTA 3, LOCAL 3",
      "location": {
        "postalCode": "20018",
        "municipality": "Donostia / San Sebastián",
        "county": "Gipuzkoa",
        "municipalityId": "069",
        "countyId": "20"
      },
      "economicActivities": [
        {
          "id": "1.845",
          "name": "Explotación electrónica por cuenta de terceros",
          "_links": {
            "self": {
              "name": "Explotación electrónica por cuenta de terceros",
              "href": "https://api.euskadi.eus/procurements/companies/economic-activities/1.845"
            }
          }
        },
        {
          "id": "1.861.2",
          "name": "Alquiler de locales industriales y otros alquileres n.c.o.p",
          "_links": {
            "self": {
              "name": "Alquiler de locales industriales y otros alquileres n.c.o.p",
              "href": "https://api.euskadi.eus/procurements/companies/economic-activities/1.861.2"
            }
          }
        },
        {
          "id": "1.932.2",
          "name": "Enseñanza de formación y perfeccionamiento profesional superior",
          "_links": {
            "self": {
              "name": "Enseñanza de formación y perfeccionamiento profesional superior",
              "href": "https://api.euskadi.eus/procurements/companies/economic-activities/1.932.2"
            }
          }
        }
      ],
      "certificateStartDate": "2024-10-02",
      "certificateEndDate": "2024-09-06",
      "object": "DISEÑO, FABRICACIÓN Y COMERCIALIZACIÓN DE SOFTWARE",
      "mainEntityOfPage": "https://www.contratacion.euskadi.eus/webkpe00-kperoc/es/ac71aBusquedaRegistrosWar/empresa/04871",
      "_links": {
        "self": {
          "name": "BUNT PLANET S.L.",
          "href": "https://api.euskadi.eus/procurements/companies/04871"
        }
      }
    },
    {
      "name": "ARNADUY INGENIERIA, S.A.",
      "registrationNumber": "03246",
      "identificationNumber": "A80480759",
      "address": "AVDA. DE EUROPA, 34. EDIF. B",
      "location": {
        "postalCode": "28023",
        "municipality": "Madrid",
        "county": "Madrid",
        "municipalityId": "079",
        "countyId": "28"
      },
      "economicActivities": [
        {
          "id": "1.843.1",
          "name": "Servicios técnicos de ingeniería",
          "_links": {
            "self": {
              "name": "Servicios técnicos de ingeniería",
              "href": "https://api.euskadi.eus/procurements/companies/economic-activities/1.843.1"
            }
          }
        }
      ],
      "certificateStartDate": "2024-10-01",
      "certificateEndDate": "2025-04-01",
      "object": "LA REALIZACIÓN DE ESTUDIOS Y PROYECTOS DE CONSULTORÍA E INGENIERÍA, INCLUYENDO, SI FUERA NECESARIO, EL DESARROLLO Y SUMINISTRO DE EQUIPOS Y LA EJECUCIÓN DE LAS INSTALACIONES.",
      "mainEntityOfPage": "https://www.contratacion.euskadi.eus/webkpe00-kperoc/es/ac71aBusquedaRegistrosWar/empresa/03246",
      "_links": {
        "self": {
          "name": "ARNADUY INGENIERIA, S.A.",
          "href": "https://api.euskadi.eus/procurements/companies/03246"
        }
      }
    },
    {
      "name": "TINKO INGENIERITZA, S.L.",
      "registrationNumber": "06822",
      "identificationNumber": "B75013896",
      "address": "C/ ALAI Nº4 8ºB",
      "location": {
        "postalCode": "20750",
        "municipality": "Zumaia",
        "county": "Gipuzkoa",
        "municipalityId": "081",
        "countyId": "20"
      },
      "economicActivities": [
        {
          "id": "1.843.1",
          "name": "Servicios técnicos de ingeniería",
          "_links": {
            "self": {
              "name": "Servicios técnicos de ingeniería",
              "href": "https://api.euskadi.eus/procurements/companies/economic-activities/1.843.1"
            }
          }
        }
      ],
      "certificateStartDate": "2024-10-01",
      "certificateEndDate": "2025-04-01",
      "object": "LOS SERVICIOS TÉCNICOS DE INGENIERÍA Y ARQUITECTURA, SERVICIOS DE CONSULTORÍA, INTERMEDIARIO DE COMERCIO, PRESTACIÓN DE SERVICIOS DE ESTUDIO Y ANÁLISIS DE PROCESOS PARA SU TRATAMIENTO MECÁNICO, DE PROGRAMACIÓN PARA EQUIPOS ELECTRÓNICOS Y VENTA DE PROGRAMAS",
      "mainEntityOfPage": "https://www.contratacion.euskadi.eus/webkpe00-kperoc/es/ac71aBusquedaRegistrosWar/empresa/06822",
      "_links": {
        "self": {
          "name": "TINKO INGENIERITZA, S.L.",
          "href": "https://api.euskadi.eus/procurements/companies/06822"
        }
      }
    }
  ]
}