{
  "totalItems": 9042,
  "totalPages": 905,
  "currentPage": 703,
  "itemsOfPage": 10,
  "items": [
    {
      "name": "POLIURETANOS AZKORRA, S.L.",
      "registrationNumber": "04491",
      "identificationNumber": "B95601290",
      "address": "ELORIZA 4, BAJO IZDA",
      "location": {
        "postalCode": "48610",
        "municipality": "Urduliz",
        "county": "Bizkaia",
        "municipalityId": "089",
        "countyId": "48"
      },
      "economicActivities": [
        {
          "id": "1.505.4",
          "name": "Colocación y aislamiento fónicos, térmicos y acústicos",
          "_links": {
            "self": {
              "name": "Colocación y aislamiento fónicos, térmicos y acústicos",
              "href": "https://api.euskadi.eus/procurements/companies/economic-activities/1.505.4"
            }
          }
        }
      ],
      "certificateStartDate": "2012-01-31",
      "certificateEndDate": "2012-07-03",
      "object": "LA REALIZACIÓN DE TODO TIPO DE EDIFICACIONES DE AISLAMIENTOS TÉRMINOS, IGNÍFUGOS Y ACÚSTICOS: LA IMPERMEABILIZACIÓN DE LAS MISMAS, Y EL QUITADO DE HUMEDADES QUE PUEDIERAN EXISTIR",
      "mainEntityOfPage": "https://www.contratacion.euskadi.eus/webkpe00-kperoc/es/ac71aBusquedaRegistrosWar/empresa/04491",
      "_links": {
        "self": {
          "name": "POLIURETANOS AZKORRA, S.L.",
          "href": "https://api.euskadi.eus/procurements/companies/04491"
        }
      }
    },
    {
      "name": "ARK-GASTEIZ, S.L.",
      "registrationNumber": "02661",
      "identificationNumber": "B01304120",
      "address": "MANUEL IRADIER, Nº 40 -BAJO",
      "location": {
        "postalCode": "01005",
        "municipality": "Vitoria-Gasteiz",
        "county": "Araba/Álava",
        "municipalityId": "059",
        "countyId": "01"
      },
      "economicActivities": [
        {
          "id": "1.843.1",
          "name": "Servicios técnicos de ingeniería",
          "_links": {
            "self": {
              "name": "Servicios técnicos de ingeniería",
              "href": "https://api.euskadi.eus/procurements/companies/economic-activities/1.843.1"
            }
          }
        },
        {
          "id": "1.843.2",
          "name": "Servicios técnicos de arquitectura y urbanismo",
          "_links": {
            "self": {
              "name": "Servicios técnicos de arquitectura y urbanismo",
              "href": "https://api.euskadi.eus/procurements/companies/economic-activities/1.843.2"
            }
          }
        },
        {
          "id": "1.843.9",
          "name": "Otros servicios técnicos n.c.o.p",
          "_links": {
            "self": {
              "name": "Otros servicios técnicos n.c.o.p",
              "href": "https://api.euskadi.eus/procurements/companies/economic-activities/1.843.9"
            }
          }
        }
      ],
      "certificateStartDate": "2012-01-26",
      "certificateEndDate": "2012-07-11",
      "object": "LA REDACCIÓN DE TODO TIPO DE DOCUMENTOS, EXPEDIENTES E INSTRUMENTOS DE ORDENACIÓN DEL TERRITORIO Y URBANISMO PREVISTOS EN LAS LEYES AUTONÓMICAS Y ESTATALES; ASÍ COMO LOS INSTRUMENTOS DE DESARROLLO DE LA PLANIFICACIÓN URBANÍSTICA SUPERIOR.\r\nLA REALIZACIÓN DE PROYECTOS, DIRECCIÓN E INSPECCIÓN DE OBRA, ASÍ COMO LA COORDINACIÓN DE LA SEGURIDAD DE CUALQUIER RAMA DE LA INGENIERÍA SUPERIOR Y TÉCNICA Y ARQUITECTURA SUPERIOR Y TÉCNICA.\r\nLA ELABORACIÓN DE PROYECTOS, LA DIRECCIÓN E INSPECCIÓN DE OBRA, ASÍ COMO LA COORDINACIÓN DE SEGURIDAD Y SALUD RELACIONADOS CON EL MEDIO AMBIENTE, LA ACTIVIDAD INDUSTRIAL, AGRÍCOLA Y GANADERA.\r\nCUALQUIER OTRA ACTIVIDAD RELACIONADA CON LAS ACTIVIDADES PROFESIONALES DE LAS INGENIERÍA Y LA ARQUITECTURA EN GENERAL.\r\nLA ADQUISICIÓN, URBANIZACIÓN, PARCELACIÓN, CONSTRUCCIÓN, EDIFICACIÓN, CONSTITUCIÓN EN PROPIEDAD HORIZONTAL, REFORMA, AMPLIACIÓN, EXPLOTACIÓN DIRECTA O INDIRECTA, ENAJENACIÓN Y EN GENERAL, TODA ACTIVIDAD RELATIVA A BIENES INMUEBLES, ASÍ RÚSTICOS COMO URBANOS Y LA REALIZACIÓN DE OBRAS PÚBLICAS Y TODA SUERTE DE INVERSIONES Y PROMOCIONES RELACIONADAS CON EL RAMO DE LA CONSTRUCCIÓN, ACUDIENDO A SUBASTA Y CONTRATACIONES PÚBLICAS Y PRIVADAS",
      "mainEntityOfPage": "https://www.contratacion.euskadi.eus/webkpe00-kperoc/es/ac71aBusquedaRegistrosWar/empresa/02661",
      "_links": {
        "self": {
          "name": "ARK-GASTEIZ, S.L.",
          "href": "https://api.euskadi.eus/procurements/companies/02661"
        }
      }
    },
    {
      "name": "ALBAÑILERÍA Y CONSTRUCCIONES VALPO, S.L.",
      "registrationNumber": "03455",
      "identificationNumber": "B01110683",
      "address": "C/ Madre Teresa de Calcuta, 7-9",
      "location": {
        "postalCode": "01008",
        "municipality": "Vitoria-Gasteiz",
        "county": "Araba/Álava",
        "municipalityId": "059",
        "countyId": "01"
      },
      "economicActivities": [
        {
          "id": "1.501.1",
          "name": "Construcción completa, reparación y conservación de edificaciones",
          "_links": {
            "self": {
              "name": "Construcción completa, reparación y conservación de edificaciones",
              "href": "https://api.euskadi.eus/procurements/companies/economic-activities/1.501.1"
            }
          }
        },
        {
          "id": "1.501.2",
          "name": "Construcción completa, reparación y conservación obras civiles",
          "_links": {
            "self": {
              "name": "Construcción completa, reparación y conservación obras civiles",
              "href": "https://api.euskadi.eus/procurements/companies/economic-activities/1.501.2"
            }
          }
        },
        {
          "id": "1.833.1",
          "name": "Promoción de terrenos",
          "_links": {
            "self": {
              "name": "Promoción de terrenos",
              "href": "https://api.euskadi.eus/procurements/companies/economic-activities/1.833.1"
            }
          }
        },
        {
          "id": "1.833.2",
          "name": "Promoción de edificaciones",
          "_links": {
            "self": {
              "name": "Promoción de edificaciones",
              "href": "https://api.euskadi.eus/procurements/companies/economic-activities/1.833.2"
            }
          }
        }
      ],
      "certificateStartDate": "2012-01-18",
      "certificateEndDate": "2012-07-10",
      "object": "ADQUISICIÓN, URBANIZACIÓN, PARCELACIÓN, CONSTRUCCIÓN, EDIFICACIÓN, CONSTITUCIÓN EN PROPIEDAD HORIZONTAL, REFORMA, AMPLIACIÓN, EXPLOTACIÓN DIRECTA O INDIRECTAMENTE, ENAJENACIÓN Y, EN GENERAL, TODA ACTIVIDAD RELATIVA A BIENES INMUEBLES, ASÍ RUSTICOS COMO URBANOS, LA REALIZACIÓN DE OBRAS TANTO PÚBLICAS COMO PRIVADAS Y TODA SUERTE DE INVERSIONES Y PROMOCIONES RELACIONADAS CON EL RAMO DE LA CONSTRUCCIÓN",
      "mainEntityOfPage": "https://www.contratacion.euskadi.eus/webkpe00-kperoc/es/ac71aBusquedaRegistrosWar/empresa/03455",
      "_links": {
        "self": {
          "name": "ALBAÑILERÍA Y CONSTRUCCIONES VALPO, S.L.",
          "href": "https://api.euskadi.eus/procurements/companies/03455"
        }
      }
    },
    {
      "name": "EQUIPAMIENTOS Y MATERIALES DEPORTIVOS, S.L..",
      "registrationNumber": "03061",
      "identificationNumber": "B50143635",
      "address": "POL.IND.RIO GALLEGO II, CALLE R Nº8-16",
      "location": {
        "postalCode": "50840",
        "municipality": "San Mateo de Gállego",
        "county": "Zaragoza",
        "municipalityId": "235",
        "countyId": "50"
      },
      "economicActivities": [
        {
          "id": "1.316.9",
          "name": "Fabricación de otros artículos acabados en metales n.c.o.p",
          "_links": {
            "self": {
              "name": "Fabricación de otros artículos acabados en metales n.c.o.p",
              "href": "https://api.euskadi.eus/procurements/companies/economic-activities/1.316.9"
            }
          }
        }
      ],
      "certificateStartDate": "2012-01-16",
      "certificateEndDate": "2012-06-23",
      "object": "LA FABRICACIÓN Y COMERCIALIZACIÓN DE ARTÍCULOS DEPORTIVOS; CONSTRUCCIÓN Y ACONDICIONAMIENTO DE TODA CLASE  DE COMPLEJOS DEPORTIVOS; FABRIACIÓN Y COMERCIALIZACIÓN DE CERRAJERÍA, SOLDADURA, CARPINTERÍA METÁLICA Y DE MADERA, ESTRUCTURAS METÁLICAS, REMOLQUES, CALDERERÍA. IMPORTACIÓN  Y EXPORTACIÓN DE LOS PRODUCTOS RELACIONADOS ANTERIORMENTE",
      "mainEntityOfPage": "https://www.contratacion.euskadi.eus/webkpe00-kperoc/es/ac71aBusquedaRegistrosWar/empresa/03061",
      "_links": {
        "self": {
          "name": "EQUIPAMIENTOS Y MATERIALES DEPORTIVOS, S.L..",
          "href": "https://api.euskadi.eus/procurements/companies/03061"
        }
      }
    },
    {
      "name": "BIKUMA GLOBAL SERVICES, S.L.",
      "registrationNumber": "04747",
      "identificationNumber": "B95640629",
      "address": "CTRA. BASURTO - KASTREXANA, 70",
      "location": {
        "postalCode": "48002",
        "municipality": "Bilbao",
        "county": "Bizkaia",
        "municipalityId": "020",
        "countyId": "48"
      },
      "economicActivities": [
        {
          "id": "1.845",
          "name": "Explotación electrónica por cuenta de terceros",
          "_links": {
            "self": {
              "name": "Explotación electrónica por cuenta de terceros",
              "href": "https://api.euskadi.eus/procurements/companies/economic-activities/1.845"
            }
          }
        }
      ],
      "certificateStartDate": "2012-01-16",
      "certificateEndDate": "2012-05-02",
      "object": "SERVICIOS DE CONSULTORÍA TECNOLÓGICA, DISEÑO GRÁFICO, DESARROLLO DE APLICACIONES E INTEGRACIÓN DE SISTEMAS. COMPRA, VENTA, IMPORTACIÓN Y EXPORTACIÓN DE MATERIAL INFORMÁTICO",
      "mainEntityOfPage": "https://www.contratacion.euskadi.eus/webkpe00-kperoc/es/ac71aBusquedaRegistrosWar/empresa/04747",
      "_links": {
        "self": {
          "name": "BIKUMA GLOBAL SERVICES, S.L.",
          "href": "https://api.euskadi.eus/procurements/companies/04747"
        }
      }
    },
    {
      "name": "COMERCIAL DE TELECOMUNICACIONES, S.A.",
      "registrationNumber": "00733",
      "identificationNumber": "A01036516",
      "address": "PORTAL DE GAMARRA, 36. PABELLÓN 26.",
      "location": {
        "postalCode": "01013",
        "municipality": "Vitoria-Gasteiz",
        "county": "Araba/Álava",
        "municipalityId": "059",
        "countyId": "01"
      },
      "economicActivities": [
        {
          "id": "1.504.7",
          "name": "Instalaciones telefónicas, telegráficas, televisión, etc",
          "_links": {
            "self": {
              "name": "Instalaciones telefónicas, telegráficas, televisión, etc",
              "href": "https://api.euskadi.eus/procurements/companies/economic-activities/1.504.7"
            }
          }
        },
        {
          "id": "1.615.4",
          "name": "Venta al por mayor de aparatos y material radioeléctrico y electrónico",
          "_links": {
            "self": {
              "name": "Venta al por mayor de aparatos y material radioeléctrico y electrónico",
              "href": "https://api.euskadi.eus/procurements/companies/economic-activities/1.615.4"
            }
          }
        },
        {
          "id": "1.619.2",
          "name": "Venta al por mayor de aparatos e instrumentos médicos, ortopédicos, ópticos",
          "_links": {
            "self": {
              "name": "Venta al por mayor de aparatos e instrumentos médicos, ortopédicos, ópticos",
              "href": "https://api.euskadi.eus/procurements/companies/economic-activities/1.619.2"
            }
          }
        }
      ],
      "certificateStartDate": "2012-01-12",
      "certificateEndDate": "2012-05-02",
      "object": "LA COMPRAVENTA, COMERCIALIZACION, INSTALACION Y MANTENIMIENTO DE TODA CLASE DE MATERIALES Y APARATOS DESTINADOS A LAS TELECOMUNICACIONES, POR TELEFONÍA, TÉLEX, FAX., ASI COMO LOS DE PRODUCCION DE FRÍO Y DE CALOR, ASÍ COMO DE SISTEMAS ANTIINTRUSIÓN, TALES COMO CENTRALES INTERIORES Y EXTERIORES, SIRENAS EXTERIORES, INFRARROJJOS PASIVOS, MICROONDAS, BARRERAS INFRARROJAS, DETECTORES ULTRASONIDOS, TRANSMISORES TELEFÓNICOS, PUENTES DE ALIMENTACIÓN, CAJETINES, MONITORES CCTV 8, TELECÁMARAS DE TV., VÍDEO-PORTEROS, CERRADURAS DE SEGURIDAD Y CONTACTOS; SISTEMAS ANTIFUEGO, TALES COMO SIRENAS EXTERIORES, EXTINTORES, EXTINTORES DE POLVO ABCE, EXTEIRTORES DE POLVO ABE, QUÍMICO, EXTINTORES DE NIEVE CARBÓNICA, EXTINTORES AUTOMÁTICOS, SPRINKLER, EXTINTORES DE HALÓN, ARMARIOS METÁLICOS, EQUIPOS DE MANGUERAS Y MATERIAL DIVERSO, COMO LANZAS DE CHORRO, VÁLVULAS, DEVANERAS, BIFURCACIONES Y RACORES, HIDRANTES, CABINAS PARA HIDRANTES Y MAERIAL ACCESORIO Y SPRINKLERS, SISTEMAS DE INTERCOMUONICACIONS, TALES COMO SISTEMAS MONO CANAL DE TIPO TELEFÓNICO, COMBINADO DE TIPO TELEFÓNICO Y/O ALTA VOZ, SISTEMAS DE INTERCOMUNICACIÓN PARA APLICACIONES ESPECIALES, SISTEMAS RCX POR MICRO PROCESADOR, AMPLIFICADORES, ALTAVOCES, ATENIADORES, ALTAVOCES DE COLUMNAS ACÚSICAS, MICRÓFONOS Y EQUIPOS COMPLEMENTARIOS. EL SERVICIO DE ORIENTACIÓN Y SUMINISTRO DE LAS AYUDAS TÉCNICAS PARA DISCAPACITADOS; SU COMPRA, VENTA, COMERCIALIZACIÓN, INSTALACIÓN Y MANTENIMIENTO",
      "mainEntityOfPage": "https://www.contratacion.euskadi.eus/webkpe00-kperoc/es/ac71aBusquedaRegistrosWar/empresa/00733",
      "_links": {
        "self": {
          "name": "COMERCIAL DE TELECOMUNICACIONES, S.A.",
          "href": "https://api.euskadi.eus/procurements/companies/00733"
        }
      }
    },
    {
      "name": "KAHLOMEDIA, S. COOP.",
      "registrationNumber": "04592",
      "identificationNumber": "F95378816",
      "address": "C/ BERASTEGUI 1, 1º IZDA",
      "location": {
        "postalCode": "48001",
        "municipality": "Bilbao",
        "county": "Bizkaia",
        "municipalityId": "020",
        "countyId": "48"
      },
      "economicActivities": [
        {
          "id": "1.844",
          "name": "Servicios de publicidad, relaciones públicas y similares",
          "_links": {
            "self": {
              "name": "Servicios de publicidad, relaciones públicas y similares",
              "href": "https://api.euskadi.eus/procurements/companies/economic-activities/1.844"
            }
          }
        }
      ],
      "certificateStartDate": "2012-01-12",
      "certificateEndDate": "2012-06-09",
      "object": "EL OBJETO DE ESTA SOCIEDAD COOPERATIVA ES LA PRESTACION DE SERVICIOS RELACIONADOS CON LA CREACIÓN, PLANIFICACIÓN, EJECUCIÓN Y DISTRIBUCIÓN DE CAMPAÑAS PUBLICITARIAS, ASÍ COMO LA PRESTACIÓN DE SERVICIOS EDITORIALES Y GRÁFICOS",
      "mainEntityOfPage": "https://www.contratacion.euskadi.eus/webkpe00-kperoc/es/ac71aBusquedaRegistrosWar/empresa/04592",
      "_links": {
        "self": {
          "name": "KAHLOMEDIA, S. COOP.",
          "href": "https://api.euskadi.eus/procurements/companies/04592"
        }
      }
    },
    {
      "name": "SPORTKIDE, S.L.",
      "registrationNumber": "04746",
      "identificationNumber": "B95653796",
      "address": "NICOLÁS ALKORTA, 2  PLT. 3 - DPTO. 9",
      "location": {
        "postalCode": "48003",
        "municipality": "Bilbao",
        "county": "Bizkaia",
        "municipalityId": "020",
        "countyId": "48"
      },
      "economicActivities": [
        {
          "id": "1.967.1",
          "name": "Instalaciones deportivas",
          "_links": {
            "self": {
              "name": "Instalaciones deportivas",
              "href": "https://api.euskadi.eus/procurements/companies/economic-activities/1.967.1"
            }
          }
        }
      ],
      "certificateStartDate": "2012-01-12",
      "certificateEndDate": "2012-04-30",
      "object": "-ASESORAMIENTO, GESTIÓN, ORGANIZACIÓN, REALIZACIÓN Y DESARROLLO DE ACTIVIDADES DEPORTIVAS Y CULTURALES. -GESTIÓN DE INSTALACIONES DEPORTIVAS, PISCINAS, POLIDEPORTIVOS, CANCHAS DEPORTIVAS, CONTROL DE ACCESO A INSTALACIONES, MANTENIMIENTO Y CONTROL, SUPERVISIÓN DE INSTALACIONES DEPORTIVAS O DE OCIO, LABORES DE JARDINERÍA Y CUIDADO DE EXTERIORES E INTERIORES, LIMPIEZA, MONITORADO, TANTO PARA INSTITUCIONES PÚBLICAS COMO PRIVADAS. - ASESORAMIENTO, GESTIÓN, ORGANIZACIÓN, REALIZACIÓN Y DESARROLLO DE ACTIVIDADES EDUCATIVAS Y FORMATIVAS EN CENTROS EDUCATIVOS, COMEDORES ESCOLARES, COLONIAS URBANAS, DEPORTIVAS, CAMPUS DE IDIOMAS, ACTIVIDADES EXTRAESCOLARES CULTURALES, EDUCAIVAS, FORMATIVAS O DEPORTIVAS EN EL ÁMBITO ESCOLAR, MUNICIPAL, DE TIEMPO LIBRE, VOLUNTARIADO SOCIAL, ORGANIZACIÓN, PROMOCIÓN Y REALIZACIÓN DE ACTIVIDADES DE DEPORTE ESCOLAR, VIAJES CULTURALES, EDUCATIVOS, MEDIOAMBIENTALES O DE NATURALEZA DIRIGIDA A LA COMUNIDAD EDUCATIVA TANTO PARA ORGANISMOS PÚBLICOS COMO PRIVADOS. -IMPORTACIÓN, EXPORTACIÓN Y COMERCIALIZACIÓN, EN GENERAL, DE MATERIAL Y COMPLEMENTOS DEPORTIVOS",
      "mainEntityOfPage": "https://www.contratacion.euskadi.eus/webkpe00-kperoc/es/ac71aBusquedaRegistrosWar/empresa/04746",
      "_links": {
        "self": {
          "name": "SPORTKIDE, S.L.",
          "href": "https://api.euskadi.eus/procurements/companies/04746"
        }
      }
    },
    {
      "name": "TRANSITIA CONCESIONES, S.L.",
      "registrationNumber": "04057",
      "identificationNumber": "B95572525",
      "address": "ALAMEDA RECALDE 36-8º PISO",
      "location": {
        "postalCode": "48009",
        "municipality": "Bilbao",
        "county": "Bizkaia",
        "municipalityId": "020",
        "countyId": "48"
      },
      "economicActivities": [
        {
          "id": "1.501.3",
          "name": "Albañilería y pequeños trabajos de construcción en general",
          "_links": {
            "self": {
              "name": "Albañilería y pequeños trabajos de construcción en general",
              "href": "https://api.euskadi.eus/procurements/companies/economic-activities/1.501.3"
            }
          }
        },
        {
          "id": "1.849.7",
          "name": "Servicios de gestión administrativa",
          "_links": {
            "self": {
              "name": "Servicios de gestión administrativa",
              "href": "https://api.euskadi.eus/procurements/companies/economic-activities/1.849.7"
            }
          }
        }
      ],
      "certificateStartDate": "2012-01-11",
      "certificateEndDate": "2012-05-21",
      "object": "1.- LA ELABORACIÓN DE PROYECTOS, CONSTRUCCIÓN, GESTIÓN, EXPLOTACIÓN, CONSERVACIÓN Y MANTENIMIENTO DE TODO TIPO DE CONCESIONES DE INFRAESTRUCTURAS, TANTO DE TRANSPORTE, COMO DE OBRA PÚBLICA O DE SERVICIO PÚBLICO.  2.- LA CONTRATACIÓN, GESTIÓN Y EJECUCIÓN DE TODA CLASE DE CONSTRUCCIONES Y OBRAS EN SU MÁS AMPLIO SENTIDO, TANTO PÚBLICAS COMO PRIVADAS, ASÍ COMO LA PRESTACIÓN DE SERVICIOS.  3.- LA ADQUISICIÓN, ENAJENACIÓN, PROMOCIÓN Y EXPLOTACIÓN DE TODO TIPO DE SOLARES, TERRENOS Y EDIFICIOS, YA SEAN RÚSTICOS, URBANOS O INDUSTRIALES.   4.- LA REALIZACIÓN DE PROYECTOS, PROMOCIÓN, CONSTITUCIÓN Y PARTICIPACIÓN EN OTRAS SOCIEDADES Y EMPRESAS MEDIANTE LA SUSCRIPCIÓN, ADQUISICIÓN Y POSESIÓN DE ACCIONES, PARTICIPACIONES Y CUALESQUIERA OTROS TÍTULOS Y VALORES, ASÍ COMO TODA CLASE DE NEGOCIONES RELACIONADOS CON LA COMPRAVENTA Y SUSCRIPCIÓN DE VALORES MOBILIARIOS, TANTO DE RENTA FIJA COMO VARIABLE, POR CUENTA PROPIA, EXCLUYENDO LA INTERMEDIACIÓN FINANCIERA Y LA CAPTACIÓN DE AHORRO PÚBLICO Y LAS ACTIVIDADES PROPIAS DE LAS INSTITUCIONES DE INVERSIÓN COLECTIVA Y DE LOS MIEMBROS DE LAS BOLSAS DE VALORES.  5.- LA TITULARIDAD DE TODA CLASE DE CONCESIONES, AUTORIZACIONES Y LICENCIAS ADMINISTRATIVAS DE OBRAS, SERVICIOS Y MIXTAS, DEL ESTADO, COMUNIDADES AUTÓNOMAS, PROVINCIAS, MUNICIPIOS, ORGANISMOS AUTÓNOMOS, ENTIDADES AUTÓNOMAS O CUALQUIER OTRO ORGANISMO O EMPRESA PÚBLICA O PRIVADA.   6.- LA PARTICIPACIÓN EN CONCURSOS Y SUBASTAS QUE SE CONVOQUEN Y RESUELVAN POR PARTE DE CUALESQUIERA PERSONAS FÍSICAS O JURÍDICAS, PÚBLICAS O PRIVADAS, U ORGANISMOS, CUYA FINALIDAD SEA LA ADJUDICACIÓN DE OBRAS O CONTRATOS CUYO CONTENIDO ESTÉ INCLUÍDO O SE RELACIONE CON EL OBJETO SOCIAL PREVISTO EN ESTE ARTÍCULO.   7.- LA CONSTRUCCIÓN, GESTIÓN O EXPLOTACIÓN DE CUALQUIER EDIFICACIÓN, INSTALACIÓN, ESTRUCTURA, OBRA CIVIL U OTROS ELEMENTOS RELACIONADOS CON EL SECTOR DEL TRANSPORTE DE PERSONAS Y/O MERCANCÍAS DE CUALQUIER MODALIDAD Y POR CUALQUIER MEDIO TERRESTRE, MARÍTIMO O AÉREO.",
      "mainEntityOfPage": "https://www.contratacion.euskadi.eus/webkpe00-kperoc/es/ac71aBusquedaRegistrosWar/empresa/04057",
      "_links": {
        "self": {
          "name": "TRANSITIA CONCESIONES, S.L.",
          "href": "https://api.euskadi.eus/procurements/companies/04057"
        }
      }
    },
    {
      "name": "FAMMILIA ESTUDIO S.L.",
      "registrationNumber": "04673",
      "identificationNumber": "B20950499",
      "address": "SAN FRANCISCO 17 - 2 DCHA",
      "location": {
        "postalCode": "20400",
        "municipality": "Tolosa",
        "county": "Gipuzkoa",
        "municipalityId": "071",
        "countyId": "20"
      },
      "economicActivities": [
        {
          "id": "1.844",
          "name": "Servicios de publicidad, relaciones públicas y similares",
          "_links": {
            "self": {
              "name": "Servicios de publicidad, relaciones públicas y similares",
              "href": "https://api.euskadi.eus/procurements/companies/economic-activities/1.844"
            }
          }
        }
      ],
      "certificateStartDate": "2012-01-02",
      "certificateEndDate": "2012-06-23",
      "object": "LA PRESTACIÓN DE SERVICIOS DE PUBLICIDAD A LAS EMPRESAS; ASÍ COMO LA CREACIÓN DE CAMPAÑAS DE INFORMACIÓN PUBLICITARIA; CREACIÓN Y MANTENIMIENTO DE IMAGEN CORPORATIVA",
      "mainEntityOfPage": "https://www.contratacion.euskadi.eus/webkpe00-kperoc/es/ac71aBusquedaRegistrosWar/empresa/04673",
      "_links": {
        "self": {
          "name": "FAMMILIA ESTUDIO S.L.",
          "href": "https://api.euskadi.eus/procurements/companies/04673"
        }
      }
    }
  ]
}