{
  "totalItems": 9042,
  "totalPages": 905,
  "currentPage": 242,
  "itemsOfPage": 10,
  "items": [
    {
      "name": "COMERCIAL FERGASOR, S.L.",
      "registrationNumber": "09884",
      "identificationNumber": "B95316550",
      "address": "Pol. Ind. Asua Berri pab. 101-102",
      "location": {
        "postalCode": "48950",
        "municipality": "Erandio",
        "county": "Bizkaia",
        "municipalityId": "902",
        "countyId": "48"
      },
      "economicActivities": [
        {
          "id": "1.501.1",
          "name": "Construcción completa, reparación y conservación de edificaciones",
          "_links": {
            "self": {
              "name": "Construcción completa, reparación y conservación de edificaciones",
              "href": "https://api.euskadi.eus/procurements/companies/economic-activities/1.501.1"
            }
          }
        },
        {
          "id": "1.505.6",
          "name": "Pintura, revestimientos y terminación y decoración de locales",
          "_links": {
            "self": {
              "name": "Pintura, revestimientos y terminación y decoración de locales",
              "href": "https://api.euskadi.eus/procurements/companies/economic-activities/1.505.6"
            }
          }
        }
      ],
      "certificateStartDate": "2025-09-30",
      "certificateEndDate": "2026-03-30",
      "object": "LA COMPRAVENTA AL POR MAYOR Y MENOR DE PINTURAS LÍQUIDAS, EN POLVO, PARA LA INDUSTRIA Y COMERCIO, TANTO EN EL EXTERIOR COMO EN EL INTERIOR, ASÍ COMO EL SUMINISTRO, INTERMEDIACIÓN Y ALMACENAJE DE PINTURAS.",
      "mainEntityOfPage": "https://www.contratacion.euskadi.eus/webkpe00-kperoc/es/ac71aBusquedaRegistrosWar/empresa/09884",
      "_links": {
        "self": {
          "name": "COMERCIAL FERGASOR, S.L.",
          "href": "https://api.euskadi.eus/procurements/companies/09884"
        }
      }
    },
    {
      "name": "GASSO CIMNE INERGY SL",
      "registrationNumber": "06873",
      "identificationNumber": "B65869273",
      "address": "C/ Terol 51-55 1r esquerra",
      "location": {
        "postalCode": "08012",
        "municipality": "Barcelona",
        "county": "Barcelona",
        "municipalityId": "019",
        "countyId": "08"
      },
      "economicActivities": [
        {
          "id": "1.849.9",
          "name": "Otros servicios independientes n.c.o.p",
          "_links": {
            "self": {
              "name": "Otros servicios independientes n.c.o.p",
              "href": "https://api.euskadi.eus/procurements/companies/economic-activities/1.849.9"
            }
          }
        }
      ],
      "certificateStartDate": "2025-09-30",
      "certificateEndDate": "2026-03-30",
      "object": "EL DESARROLLO Y MANTENIMIENTO DE APLICACIONES INFORMÁTICAS, CONSULTORÍA Y AUDITORÍA EN EL SECTOR ENERGÉTICO",
      "mainEntityOfPage": "https://www.contratacion.euskadi.eus/webkpe00-kperoc/es/ac71aBusquedaRegistrosWar/empresa/06873",
      "_links": {
        "self": {
          "name": "GASSO CIMNE INERGY SL",
          "href": "https://api.euskadi.eus/procurements/companies/06873"
        }
      }
    },
    {
      "name": "ALAIN BASTIDA SASIAIN",
      "registrationNumber": "05916",
      "identificationNumber": "44128075E",
      "address": "PEREZ ARREGI PLAZA Nº 9",
      "location": {
        "postalCode": "20730",
        "municipality": "Azpeitia",
        "county": "Gipuzkoa",
        "municipalityId": "018",
        "countyId": "20"
      },
      "economicActivities": [
        {
          "id": "2.421",
          "name": "Arquitectos técnicos y aparejadores",
          "_links": {
            "self": {
              "name": "Arquitectos técnicos y aparejadores",
              "href": "https://api.euskadi.eus/procurements/companies/economic-activities/2.421"
            }
          }
        }
      ],
      "certificateStartDate": "2025-09-30",
      "certificateEndDate": "2026-03-30",
      "object": "ARQUITECTO TECNICO",
      "mainEntityOfPage": "https://www.contratacion.euskadi.eus/webkpe00-kperoc/es/ac71aBusquedaRegistrosWar/empresa/05916",
      "_links": {
        "self": {
          "name": "ALAIN BASTIDA SASIAIN",
          "href": "https://api.euskadi.eus/procurements/companies/05916"
        }
      }
    },
    {
      "name": "GAURSA ARABAUTO S.L.",
      "registrationNumber": "05317",
      "identificationNumber": "B01503051",
      "address": "PORTAL DE GAMARRA, 49",
      "location": {
        "postalCode": "01013",
        "municipality": "Vitoria-Gasteiz",
        "county": "Araba/Álava",
        "municipalityId": "059",
        "countyId": "01"
      },
      "economicActivities": [
        {
          "id": "1.615.1",
          "name": "Venta al por mayor de vehículos, motocicletas, bicicletas y sus accesorios",
          "_links": {
            "self": {
              "name": "Venta al por mayor de vehículos, motocicletas, bicicletas y sus accesorios",
              "href": "https://api.euskadi.eus/procurements/companies/economic-activities/1.615.1"
            }
          }
        },
        {
          "id": "1.691.2",
          "name": "Reparación de vehículos automóviles, bicicletas y otros vehículos",
          "_links": {
            "self": {
              "name": "Reparación de vehículos automóviles, bicicletas y otros vehículos",
              "href": "https://api.euskadi.eus/procurements/companies/economic-activities/1.691.2"
            }
          }
        }
      ],
      "certificateStartDate": "2025-09-30",
      "certificateEndDate": "2026-03-30",
      "object": "LA EXPLOTACIÓN DE UN NEGOCIO DE VENTA DE TODA CLASE DE VEHÍCULOS NUEVOS Y USADOS, DE ACEITES Y LUBRICANTES, NEUMÁTICOS, PIEZAS DE RECAMBIO, ACCESORIOS, ARTÍCULOS RELACIONADOS CON LOS VEHÍCULOS, PRODUCTOS DE BOUTIQUE Y PRODUCTOS INDUSTRIALES PARA PROFESIONALES DE LA AUTOMOCIÓN, LA REPARACIÓN Y MANTENIMIENTO INTEGRAL DE TODA CLASE DE VEHÍCULOS, INCLUYENDO SU LIMPIEZA Y REACONDICIONAMIENTO, LA TRANSFORMACIÓN DE VEHÍCULOS, EL TRANSPORTE DE MERCANCÍAS Y VEHÍCULOS PROPIOS Y AJENOS, LA PRESTACIÓN DE SERVICIOS DE GESTIÓN, ADMINISTRACIÓN E INFORMÁTICOS A OTRAS EMPRESAS, EL ALQUILER DE TODA CLASE DE VEHÍCULOS EN TODAS SUS MODALIDADES Y LA VENTA Y ALQUILER DE INMUEBLES, MAQUINARIA, UTILLAJE Y HERRAMIENTA Y LA REALIZACIÓN POR CUENTA PROPIA O AJENA DE ACTIVIDADES DE AGENCIA DE SEGUROS, SOMETIDAS A LA LEGISLACIÓN ESPECÍFICA DE MEDIACIÓN DE SEGUROS PRIVADOS",
      "mainEntityOfPage": "https://www.contratacion.euskadi.eus/webkpe00-kperoc/es/ac71aBusquedaRegistrosWar/empresa/05317",
      "_links": {
        "self": {
          "name": "GAURSA ARABAUTO S.L.",
          "href": "https://api.euskadi.eus/procurements/companies/05317"
        }
      }
    },
    {
      "name": "ANA MARIA MARTIN CARRILLO",
      "registrationNumber": "09330",
      "identificationNumber": "14257867Y",
      "address": "Aixeona, 1, 9e",
      "location": {
        "postalCode": "48004",
        "municipality": "Bilbao",
        "county": "Bizkaia",
        "municipalityId": "020",
        "countyId": "48"
      },
      "economicActivities": [
        {
          "id": "2.826",
          "name": "Personal docente de enseñanzas diversas",
          "_links": {
            "self": {
              "name": "Personal docente de enseñanzas diversas",
              "href": "https://api.euskadi.eus/procurements/companies/economic-activities/2.826"
            }
          }
        },
        {
          "id": "2.841",
          "name": "Naturópatas, acupuntores y otros profesionales parasanitarios",
          "_links": {
            "self": {
              "name": "Naturópatas, acupuntores y otros profesionales parasanitarios",
              "href": "https://api.euskadi.eus/procurements/companies/economic-activities/2.841"
            }
          }
        }
      ],
      "certificateStartDate": "2025-09-30",
      "certificateEndDate": "2026-03-30",
      "object": "NATURÓPATAS, ACUPUNTORES Y OTROS PROFESIONALES PARASANITARIOS.",
      "mainEntityOfPage": "https://www.contratacion.euskadi.eus/webkpe00-kperoc/es/ac71aBusquedaRegistrosWar/empresa/09330",
      "_links": {
        "self": {
          "name": "ANA MARIA MARTIN CARRILLO",
          "href": "https://api.euskadi.eus/procurements/companies/09330"
        }
      }
    },
    {
      "name": "INVERSIONES ESPASANDIN, S.L.",
      "registrationNumber": "09881",
      "identificationNumber": "B42900712",
      "address": "C/ Reyes de Navarra 38 Bj, Vitoria",
      "location": {
        "postalCode": "01013",
        "municipality": "Vitoria-Gasteiz",
        "county": "Araba/Álava",
        "municipalityId": "059",
        "countyId": "01"
      },
      "economicActivities": [
        {
          "id": "1.972.1",
          "name": "Servicios de peluquería de señoras y caballeros",
          "_links": {
            "self": {
              "name": "Servicios de peluquería de señoras y caballeros",
              "href": "https://api.euskadi.eus/procurements/companies/economic-activities/1.972.1"
            }
          }
        }
      ],
      "certificateStartDate": "2025-09-30",
      "certificateEndDate": "2026-03-30",
      "object": "EXPLOTACIÓN DE UN NEGOCIO DE PELUQUERÍA Y SALÓN DE BELLEZA. COMPRAVENTA Y ARRENDAMIENTO DE TODO TIPO EDIFICACIONES.",
      "mainEntityOfPage": "https://www.contratacion.euskadi.eus/webkpe00-kperoc/es/ac71aBusquedaRegistrosWar/empresa/09881",
      "_links": {
        "self": {
          "name": "INVERSIONES ESPASANDIN, S.L.",
          "href": "https://api.euskadi.eus/procurements/companies/09881"
        }
      }
    },
    {
      "name": "NORMICRO, S.L.",
      "registrationNumber": "03576",
      "identificationNumber": "B48797583",
      "address": "C/ KANDELAZUBIETA, 35",
      "location": {
        "postalCode": "48940",
        "municipality": "Leioa",
        "county": "Bizkaia",
        "municipalityId": "054",
        "countyId": "48"
      },
      "economicActivities": [
        {
          "id": "1.659.2",
          "name": "Venta al por menor de muebles de oficina y máquinas y equipos de oficina",
          "_links": {
            "self": {
              "name": "Venta al por menor de muebles de oficina y máquinas y equipos de oficina",
              "href": "https://api.euskadi.eus/procurements/companies/economic-activities/1.659.2"
            }
          }
        },
        {
          "id": "1.722",
          "name": "Transporte de mercancías por carretera",
          "_links": {
            "self": {
              "name": "Transporte de mercancías por carretera",
              "href": "https://api.euskadi.eus/procurements/companies/economic-activities/1.722"
            }
          }
        },
        {
          "id": "1.845",
          "name": "Explotación electrónica por cuenta de terceros",
          "_links": {
            "self": {
              "name": "Explotación electrónica por cuenta de terceros",
              "href": "https://api.euskadi.eus/procurements/companies/economic-activities/1.845"
            }
          }
        }
      ],
      "certificateStartDate": "2025-09-30",
      "certificateEndDate": "2026-03-29",
      "classification": [
        {
          "id": "S",
          "name": "Servicios",
          "groups": [
            {
              "id": "V",
              "subgroups": [
                {
                  "id": "03",
                  "name": "Servicios de mtto. y reparación equipos e instalaciones informáticos y telecomun",
                  "categories": [
                    {
                      "id": "5",
                      "name": "Mas de 1.200.000",
                      "_links": {
                        "self": {
                          "name": "Mas de 1.200.000",
                          "href": "https://api.euskadi.eus/procurements/companies/types/S/categories/5"
                        }
                      }
                    }
                  ],
                  "_links": {
                    "self": {
                      "name": "Servicios de mtto. y reparación equipos e instalaciones informáticos y telecomun",
                      "href": "https://api.euskadi.eus/procurements/companies/types/S/groups/V/subgroups/03"
                    }
                  }
                }
              ],
              "_links": {
                "self": {
                  "href": "https://api.euskadi.eus/procurements/companies/types/S/groups/V"
                }
              }
            }
          ],
          "_links": {
            "self": {
              "name": "Servicios",
              "href": "https://api.euskadi.eus/procurements/companies/types/S"
            }
          }
        }
      ],
      "object": "EL MANTENIMIENTO Y REPARACIÓN DE EQUIPOS INFORMÁTICOS Y DE ARTÍCULOS ELÉCTRICOS DE USO PERSONAL EN EL HOGAR. TAMBIÉN LA INSTALACIÓN, EL ALMACENAJE Y TRANSPORTE POR CARRETERA DE LOS EQUIPOS INFORMÁTICOS Y ARTÍCULOS ELÉCTRICOS DE SUS CLIENTES O DE TERCEROS.",
      "mainEntityOfPage": "https://www.contratacion.euskadi.eus/webkpe00-kperoc/es/ac71aBusquedaRegistrosWar/empresa/03576",
      "_links": {
        "self": {
          "name": "NORMICRO, S.L.",
          "href": "https://api.euskadi.eus/procurements/companies/03576"
        }
      }
    },
    {
      "name": "ESTUDIOS E INGENIERÍA TÉCNICA GETXO, S.L.",
      "registrationNumber": "04330",
      "identificationNumber": "B48986855",
      "address": "C/ SARRI Nº6, LONJA Dcha",
      "location": {
        "postalCode": "48993",
        "municipality": "Getxo",
        "county": "Bizkaia",
        "municipalityId": "044",
        "countyId": "48"
      },
      "economicActivities": [
        {
          "id": "1.843.1",
          "name": "Servicios técnicos de ingeniería",
          "_links": {
            "self": {
              "name": "Servicios técnicos de ingeniería",
              "href": "https://api.euskadi.eus/procurements/companies/economic-activities/1.843.1"
            }
          }
        }
      ],
      "certificateStartDate": "2025-09-30",
      "certificateEndDate": "2026-03-26",
      "object": "EL DISEÑO Y PROYECTO DE INGENIERÍA EN GENERAL: MAQUINA HERRAMIENTA, MÁQUINA ESPECIAL, OBRA CIVIL, ESTRUCTURA METÁLICA Y DEMÁS ANÁLOGOS.",
      "mainEntityOfPage": "https://www.contratacion.euskadi.eus/webkpe00-kperoc/es/ac71aBusquedaRegistrosWar/empresa/04330",
      "_links": {
        "self": {
          "name": "ESTUDIOS E INGENIERÍA TÉCNICA GETXO, S.L.",
          "href": "https://api.euskadi.eus/procurements/companies/04330"
        }
      }
    },
    {
      "name": "ESTUDIO BELA ARQUITECTURA, S.L.",
      "registrationNumber": "10359",
      "identificationNumber": "B22567812",
      "address": "Calle Nicolas Alcorta 7, 12D",
      "location": {
        "postalCode": "48003",
        "municipality": "Bilbao",
        "county": "Bizkaia",
        "municipalityId": "020",
        "countyId": "48"
      },
      "economicActivities": [
        {
          "id": "1.843.2",
          "name": "Servicios técnicos de arquitectura y urbanismo",
          "_links": {
            "self": {
              "name": "Servicios técnicos de arquitectura y urbanismo",
              "href": "https://api.euskadi.eus/procurements/companies/economic-activities/1.843.2"
            }
          }
        }
      ],
      "certificateStartDate": "2025-09-30",
      "certificateEndDate": "2026-03-27",
      "object": "LOS SERVICIOS TÉCNICOS DE ARQUITECTURA.",
      "mainEntityOfPage": "https://www.contratacion.euskadi.eus/webkpe00-kperoc/es/ac71aBusquedaRegistrosWar/empresa/10359",
      "_links": {
        "self": {
          "name": "ESTUDIO BELA ARQUITECTURA, S.L.",
          "href": "https://api.euskadi.eus/procurements/companies/10359"
        }
      }
    },
    {
      "name": "LLAGUNO CONSTRUCCIONES Y CONTRATAS, S.L.",
      "registrationNumber": "10358",
      "identificationNumber": "B95138426",
      "address": "BARRIO ENTRAMBOSRÍOS 31",
      "location": {
        "postalCode": "48879",
        "municipality": "Artzentales",
        "county": "Bizkaia",
        "municipalityId": "008",
        "countyId": "48"
      },
      "economicActivities": [
        {
          "id": "1.501.1",
          "name": "Construcción completa, reparación y conservación de edificaciones",
          "_links": {
            "self": {
              "name": "Construcción completa, reparación y conservación de edificaciones",
              "href": "https://api.euskadi.eus/procurements/companies/economic-activities/1.501.1"
            }
          }
        }
      ],
      "certificateStartDate": "2025-09-30",
      "certificateEndDate": "2026-03-27",
      "object": "1.- LA PROMOCIÓN, CONSTRUCCIÓN, COMPRA, VENTA, ARRENDAMIENTO Y COMERCIALIZACIÓN EN GENERAL DE TODA CLASE DE EDIFICACIONES, TERRENOS, SOLARES, FINCAS RÚSTICAS Y URBANAS; LA EDIFICACIÓN, URBANIZACIÓN, EXCAVACIÓN, CIMENTACIÓN Y DERRIBO, BIEN POR CUENTA PROPIA COMO AJENA, ASÍ COMO LA ENAJENACIÓN, VENTA, ARRIENDO O EXPLOTACIÓN, EN CUALQUIER FORMA DE TODA CLASE DE INMUEBLES, EDIFICIOS, PISOS, APARTAMENTOS, LOCALES COMERCIALES O INDUSTRIALES, OFICINAS Y HOTELES O ESTABLECIMIENTOS DE HOSTELERÍA EN GENERAL. 2.- TODA CLASE DE OPERACIONES INMOBILIARIAS SOBRE FINCAS RÚSTICAS Y URBANAS, PROMOCIÓN DE CONTRATOS O REALIZACIONES DE PARCELACIONES, URBANIZACIONES, CONSTRUCCIONES Y OBRAS PRIVADAS O PÚBLICAS, LA VENTA, HIPOTECA, ARRENDAMIENTO, TRANSFORMACIÓN, MEJORA, ADMINISTRACIÓN, PUESTA EN EXPLOTACIÓN Y LA EXPLOTACIÓN MISMA, DE FINCAS RÚSTICAS Y URBANAS, LA ORGANIZACIÓN, PROMOCIÓN, ASESORAMIENTO, Y GESTIÓN EN SU CASO DE SOCIEDADES, COOPERATIVAS, COMUNIDADES, ENTIDADES, GRUPOS O EMPRESAS PARTICULARES ORIENTADAS A LA CONSTRUCCIÓN O URBANIZACIÓN, LA PLANIFICACIÓN Y ESTUDIO DE MERCADOS EN MATERIA INMOBILIARIA. 3.- LA ADMINISTRACIÓN DE FINCAS Y COMUNIDADES, TANTO DE PROPIETARIOS COMO DE AUTOPROMOTORES, ASÍ COMO LA PRESTACIÓN DE TODA CLASE DE SERVICIOS RELACIONADOS CON EL ÁMBITO INMOBILIARIO, ARQUITECTÓNICO, DE TÉCNICA DE LA CONSTRUCCIÓN E INGENIERÍA EN GENERAL, POR MEDIO DE LA FORMULACIÓN, DESARROLLO Y PUESTA EN  MARCHA DE ESTUDIOS, ACTUACIONES Y PROYECTOS. 4.- LA GESTIÓN, DIRECCIÓN Y EJECUCIÓN POR CUENTA PROPIA O AJENA DE TODA CLASE DE CONSTRUCCIONES, INSTALACIONES, REFORMAS, REHABILITACIONES, DECORACIONES Y OBRAS DE RESTAURACIÓN EXTERNA E INTERNA DE ESTRUCTURAS Y REVESTIMIENTOS DE EDIFICIOS Y MONUMENTOS; LIMPIEZA, IMPERMEABILIZACIÓN, TRATAMIENTO, PINTURA, RECONSTRUCCIÓN Y LA IMPLANTACIÓN, CUIDADO Y MANTENIMIENTO DE JARDINES Y EXPLOTACIONES FORESTALES. LA SUPERVISIÓN Y CONTROL DE OBRAS, ASÍ COMO LA COORDINACIÓN DE GREMIOS, EL ASESORAMIENTO Y LA ASISTENCIA TÉCNICA EN TODO CUANTO SE RELACIONE CON EL CAMPO DE LA CONSTRUCCIÓN DE EDIFICIOS Y DE LAS OBRAS PÚBLICAS O CIVILES. 5.- LA COMPRA, VENTA, DE TODA CLASE DE MATERIALES DE LA CONSTRUCCIÓN Y/O DECORATIVOS, ASÍ COMO DE CUALESQUIERA INSTALACIONES, ELEMENTOS O SERVICIOS DE LAS EDIFICACIONES; LA IMPORTACIÓN, EXPORTACIÓN, REPRESENTACIÓN, DISTRIBUCIÓN, EXPLOTACIÓN Y COMERCIALIZACIÓN DE PRODUCTOS ELABORADOS Y SEMIELABORADOS, ARTÍCULOS, BIENES, MERCADERÍAS, EQUIPOS INDUSTRIALES MAQUINARIA, HERRAMIENTAS, UTILLAJES, REPUESTOS Y ACCESORIOS, ALIMENTOS DE CONSUMO HUMANO Y ANIMAL.",
      "mainEntityOfPage": "https://www.contratacion.euskadi.eus/webkpe00-kperoc/es/ac71aBusquedaRegistrosWar/empresa/10358",
      "_links": {
        "self": {
          "name": "LLAGUNO CONSTRUCCIONES Y CONTRATAS, S.L.",
          "href": "https://api.euskadi.eus/procurements/companies/10358"
        }
      }
    }
  ]
}