{
  "totalItems": 9042,
  "totalPages": 905,
  "currentPage": 112,
  "itemsOfPage": 10,
  "items": [
    {
      "name": "AUTOCARES URPA, S.L.",
      "registrationNumber": "03900",
      "identificationNumber": "B20380127",
      "address": "BARRIO UBILLUTS, POLIGONO 55, ED. 9. Nº 4 ",
      "location": {
        "postalCode": "20140",
        "municipality": "Andoain",
        "county": "Gipuzkoa",
        "municipalityId": "009",
        "countyId": "20"
      },
      "economicActivities": [
        {
          "id": "1.721.3",
          "name": "Transporte de viajeros por carretera",
          "_links": {
            "self": {
              "name": "Transporte de viajeros por carretera",
              "href": "https://api.euskadi.eus/procurements/companies/economic-activities/1.721.3"
            }
          }
        }
      ],
      "certificateStartDate": "2025-12-17",
      "certificateEndDate": "2026-06-07",
      "classification": [
        {
          "id": "S",
          "name": "Servicios",
          "groups": [
            {
              "id": "R",
              "subgroups": [
                {
                  "id": "01",
                  "name": "Transporte de viajeros por carretera",
                  "categories": [
                    {
                      "id": "5",
                      "name": "Mas de 1.200.000",
                      "_links": {
                        "self": {
                          "name": "Mas de 1.200.000",
                          "href": "https://api.euskadi.eus/procurements/companies/types/S/categories/5"
                        }
                      }
                    }
                  ],
                  "_links": {
                    "self": {
                      "name": "Transporte de viajeros por carretera",
                      "href": "https://api.euskadi.eus/procurements/companies/types/S/groups/R/subgroups/01"
                    }
                  }
                }
              ],
              "_links": {
                "self": {
                  "href": "https://api.euskadi.eus/procurements/companies/types/S/groups/R"
                }
              }
            }
          ],
          "_links": {
            "self": {
              "name": "Servicios",
              "href": "https://api.euskadi.eus/procurements/companies/types/S"
            }
          }
        }
      ],
      "object": "LA REALIZACIÓN DE SERVICIOS DE TRANSPORTE EN GENERAL, Y MUY ESPECIALMENTE EL TRANSPORTE DE VIAJEROS EN TODAS SUS MODALIDADES (LINEA REGULAR, SERVICIOS DISCRECIONALES, ESCOLAR, TURÍSTICO, DE EMPRESAS, ETC.)",
      "mainEntityOfPage": "https://www.contratacion.euskadi.eus/webkpe00-kperoc/es/ac71aBusquedaRegistrosWar/empresa/03900",
      "_links": {
        "self": {
          "name": "AUTOCARES URPA, S.L.",
          "href": "https://api.euskadi.eus/procurements/companies/03900"
        }
      }
    },
    {
      "name": "CIPHERBIT, S.L.",
      "registrationNumber": "09178",
      "identificationNumber": "B01644558",
      "address": "CALLE MARIE CURIE 19",
      "location": {
        "postalCode": "28521",
        "municipality": "Rivas-Vaciamadrid",
        "county": "Madrid",
        "municipalityId": "123",
        "countyId": "28"
      },
      "economicActivities": [
        {
          "id": "1.845",
          "name": "Explotación electrónica por cuenta de terceros",
          "_links": {
            "self": {
              "name": "Explotación electrónica por cuenta de terceros",
              "href": "https://api.euskadi.eus/procurements/companies/economic-activities/1.845"
            }
          }
        }
      ],
      "certificateStartDate": "2025-12-17",
      "certificateEndDate": "2026-05-27",
      "object": "EL ASESORAMIENTO, DISEÑO, DESARROLLO, FORMACIÓN, FABRICACIÓN, COMERCIALIZACIÓN Y MANTENIMIENTO DE PRODUCTOS Y SERVICIOS EN LAS ÁREAS DE LA TECNOLOGÍA EN CIFRA Y SEGURIDAD NACIONAL, CIBERDEFENSA, CIBERSEGURIDAD, COMUNICACIONES SEGURAS Y PROTECCIÓN DE COMUNICACIONES CRÍTICAS.",
      "mainEntityOfPage": "https://www.contratacion.euskadi.eus/webkpe00-kperoc/es/ac71aBusquedaRegistrosWar/empresa/09178",
      "_links": {
        "self": {
          "name": "CIPHERBIT, S.L.",
          "href": "https://api.euskadi.eus/procurements/companies/09178"
        }
      }
    },
    {
      "name": "IZASA SCIENTIFIC, S.L.",
      "registrationNumber": "05412",
      "identificationNumber": "B66350281",
      "address": "Calle Jesús Serra Santamans, 5",
      "location": {
        "postalCode": "08174",
        "municipality": "Sant Cugat del Vallès",
        "county": "Barcelona",
        "municipalityId": "205",
        "countyId": "08"
      },
      "economicActivities": [
        {
          "id": "1.699",
          "name": "Otras reparaciones n.c.o.p",
          "_links": {
            "self": {
              "name": "Otras reparaciones n.c.o.p",
              "href": "https://api.euskadi.eus/procurements/companies/economic-activities/1.699"
            }
          }
        }
      ],
      "certificateStartDate": "2025-12-17",
      "certificateEndDate": "2026-06-09",
      "object": "LA REPRESENTACIÓN, DISTRIBUCIÓN, IMPORTACIÓN, EXPORTACIÓN Y REPARACIÓN DE EQUIPOS, MATERIAL CIENTÍFICO, SISTEMAS INFORMÁTICOS Y PROGRAMAS DE LABORATORIO CERRADOS Y A MEDIDA, ASÍ COMO SUS PERIFÉRICOS, DESTINADOS A CENTROS DE INVESTIGACIÓN, MEDIO AMBIENTE Y AL CONTROL DE CALIDAD INDUSTRIAL. ASIMISMO, LAS ACTIVIDADES INTEGRANTES DEL OBJETO SOCIAL PODRÁN DESARROLLARSE POR LA SOCIEDAD TOTAL O PARCIALMENTE, DE MODO INDIRECTO, MEDIANTE LA TITULARIDAD DE ACCIONES O PARTICIPACIONES SOCIALES EN SOCIEDADES CON OBJETO IDÉNTICO O ANÁLOGO",
      "mainEntityOfPage": "https://www.contratacion.euskadi.eus/webkpe00-kperoc/es/ac71aBusquedaRegistrosWar/empresa/05412",
      "_links": {
        "self": {
          "name": "IZASA SCIENTIFIC, S.L.",
          "href": "https://api.euskadi.eus/procurements/companies/05412"
        }
      }
    },
    {
      "name": "DISEÑO Y SERVICIOS INDUSTRIALES ONIN, S.L.",
      "registrationNumber": "09095",
      "identificationNumber": "B31552136",
      "address": "PLAZA ZAHARRA 5-BEHEA",
      "location": {
        "postalCode": "31770",
        "municipality": "Lesaka",
        "county": "Navarra",
        "municipalityId": "153",
        "countyId": "31"
      },
      "economicActivities": [
        {
          "id": "1.613.9",
          "name": "Venta al por mayor de accesorios del vestido y otros productos textiles",
          "_links": {
            "self": {
              "name": "Venta al por mayor de accesorios del vestido y otros productos textiles",
              "href": "https://api.euskadi.eus/procurements/companies/economic-activities/1.613.9"
            }
          }
        },
        {
          "id": "1.651.2",
          "name": "Venta al por menor de prendas de ropa para el vestido y tocado",
          "_links": {
            "self": {
              "name": "Venta al por menor de prendas de ropa para el vestido y tocado",
              "href": "https://api.euskadi.eus/procurements/companies/economic-activities/1.651.2"
            }
          }
        },
        {
          "id": "1.861.1",
          "name": "Alquiler de viviendas",
          "_links": {
            "self": {
              "name": "Alquiler de viviendas",
              "href": "https://api.euskadi.eus/procurements/companies/economic-activities/1.861.1"
            }
          }
        },
        {
          "id": "1.989.2",
          "name": "Servicios de organización de congresos, asambleas y similares",
          "_links": {
            "self": {
              "name": "Servicios de organización de congresos, asambleas y similares",
              "href": "https://api.euskadi.eus/procurements/companies/economic-activities/1.989.2"
            }
          }
        }
      ],
      "certificateStartDate": "2025-12-17",
      "certificateEndDate": "2026-06-01",
      "object": "A) LA ACTIVIDAD DE UNA OFICINA DE DISEÑO EN GENERAL. B) EL DISEÑO, CONSTRUCCIÓN Y COMERCIALIZACIÓN DE MAQUINARIA PARA MANIPULACIÓN DE PRODUCTOS PULVERULENTOS Y ÁRIDOS EN GENERAL. C) EL DISEÑO, CONSTRUCCIÓN Y COMERCIALIZACIÓN DE ESTRUCTURAS METÁLICAS. D) LA PRESTACIÓN DE SERVICIOS AUXILIARES A LA INDUSTRIA SIDERÚRGICA EN GENERAL. E) EL MANTENIMIENTO INTEGRAL PREVENTIVO A LA INDUSTRIA EN GENERAL.",
      "mainEntityOfPage": "https://www.contratacion.euskadi.eus/webkpe00-kperoc/es/ac71aBusquedaRegistrosWar/empresa/09095",
      "_links": {
        "self": {
          "name": "DISEÑO Y SERVICIOS INDUSTRIALES ONIN, S.L.",
          "href": "https://api.euskadi.eus/procurements/companies/09095"
        }
      }
    },
    {
      "name": "FELIX RAFAEL VARON HERNANDEZ",
      "registrationNumber": "09189",
      "identificationNumber": "13303113M",
      "address": "C/LOS HERRÁN, 21, 2 IZDA",
      "location": {
        "postalCode": "01002",
        "municipality": "Vitoria-Gasteiz",
        "county": "Araba/Álava",
        "municipalityId": "059",
        "countyId": "01"
      },
      "economicActivities": [
        {
          "id": "2.775",
          "name": "Doctores y licenciados en filosofía y letras",
          "_links": {
            "self": {
              "name": "Doctores y licenciados en filosofía y letras",
              "href": "https://api.euskadi.eus/procurements/companies/economic-activities/2.775"
            }
          }
        }
      ],
      "certificateStartDate": "2025-12-17",
      "certificateEndDate": "2026-06-08",
      "object": "DOCTORES Y LICENCIADOS EN FILOSOFÍA Y LETRAS.",
      "mainEntityOfPage": "https://www.contratacion.euskadi.eus/webkpe00-kperoc/es/ac71aBusquedaRegistrosWar/empresa/09189",
      "_links": {
        "self": {
          "name": "FELIX RAFAEL VARON HERNANDEZ",
          "href": "https://api.euskadi.eus/procurements/companies/09189"
        }
      }
    },
    {
      "name": "Iñigo Lizari Illarramendi",
      "registrationNumber": "05983",
      "identificationNumber": "34102749M",
      "address": "C/Portuetxe 63-2º-B (Edificio Bonea)",
      "location": {
        "postalCode": "20018",
        "municipality": "Donostia / San Sebastián",
        "county": "Gipuzkoa",
        "municipalityId": "069",
        "countyId": "20"
      },
      "economicActivities": [
        {
          "id": "2.731",
          "name": "Abogados",
          "_links": {
            "self": {
              "name": "Abogados",
              "href": "https://api.euskadi.eus/procurements/companies/economic-activities/2.731"
            }
          }
        }
      ],
      "certificateStartDate": "2025-12-17",
      "certificateEndDate": "2026-06-07",
      "object": "ABOGACÍA",
      "mainEntityOfPage": "https://www.contratacion.euskadi.eus/webkpe00-kperoc/es/ac71aBusquedaRegistrosWar/empresa/05983",
      "_links": {
        "self": {
          "name": "Iñigo Lizari Illarramendi",
          "href": "https://api.euskadi.eus/procurements/companies/05983"
        }
      }
    },
    {
      "name": "BOSTON SCIENTIFIC IBÉRICA, S.A.",
      "registrationNumber": "02249",
      "identificationNumber": "A80401821",
      "address": "C/ RIBERA DEL LOIRA,38. EDIF. 4- 1ª PLTA.",
      "location": {
        "postalCode": "28042",
        "municipality": "Madrid",
        "county": "Madrid",
        "municipalityId": "079",
        "countyId": "28"
      },
      "economicActivities": [
        {
          "id": "1.619.2",
          "name": "Venta al por mayor de aparatos e instrumentos médicos, ortopédicos, ópticos",
          "_links": {
            "self": {
              "name": "Venta al por mayor de aparatos e instrumentos médicos, ortopédicos, ópticos",
              "href": "https://api.euskadi.eus/procurements/companies/economic-activities/1.619.2"
            }
          }
        },
        {
          "id": "1.843.9",
          "name": "Otros servicios técnicos n.c.o.p",
          "_links": {
            "self": {
              "name": "Otros servicios técnicos n.c.o.p",
              "href": "https://api.euskadi.eus/procurements/companies/economic-activities/1.843.9"
            }
          }
        }
      ],
      "certificateStartDate": "2025-12-17",
      "certificateEndDate": "2026-05-30",
      "object": "LA COMERCIALIZACIÓN DE TODA CLASE DE PRÓTESIS E INSTRUMENTAL MÉDICO",
      "mainEntityOfPage": "https://www.contratacion.euskadi.eus/webkpe00-kperoc/es/ac71aBusquedaRegistrosWar/empresa/02249",
      "_links": {
        "self": {
          "name": "BOSTON SCIENTIFIC IBÉRICA, S.A.",
          "href": "https://api.euskadi.eus/procurements/companies/02249"
        }
      }
    },
    {
      "name": "ARTE Y CALIDAD EN PAPEL ARTEPAPEL, S.A.",
      "registrationNumber": "08610",
      "identificationNumber": "A48796544",
      "address": "PAE ASUARAN EDIFICIO ENEKURI 3",
      "location": {
        "postalCode": "48950",
        "municipality": "Erandio",
        "county": "Bizkaia",
        "municipalityId": "902",
        "countyId": "48"
      },
      "economicActivities": [
        {
          "id": "1.619.4",
          "name": "Venta al por mayor de productos de papel y cartón",
          "_links": {
            "self": {
              "name": "Venta al por mayor de productos de papel y cartón",
              "href": "https://api.euskadi.eus/procurements/companies/economic-activities/1.619.4"
            }
          }
        }
      ],
      "certificateStartDate": "2025-12-17",
      "certificateEndDate": "2026-06-09",
      "object": "A) LA COMPRA, VENTA, ALMACENAMIENTO, DEPÓSITO, FABRICACIÓN, TRANSFORMACIÓN, DISTRIBUCIÓN, IMPORTACIÓN Y EXPORTACIÓN DE TODA CLASE DE PRODUCTOS DE PAPEL Y CARTÓN. B) LA COMERCIALIZACIÓN, MANTENIMIENTO Y REPARACIÓN DE TODA CLASE DE APARATOS INFORMÁTICOS Y EQUIPAMIENTO DE OFICINA. C) EL DESEMPEÑO DE COMISIONES Y REPRESENTACIONES EN RELACIÓN AL OBJETO SOCIAL INDICADO EN LOS APARTADOS ANTERIORES.",
      "mainEntityOfPage": "https://www.contratacion.euskadi.eus/webkpe00-kperoc/es/ac71aBusquedaRegistrosWar/empresa/08610",
      "_links": {
        "self": {
          "name": "ARTE Y CALIDAD EN PAPEL ARTEPAPEL, S.A.",
          "href": "https://api.euskadi.eus/procurements/companies/08610"
        }
      }
    },
    {
      "name": "MARIA ISABEL MARTIN MARTIN",
      "registrationNumber": "07054",
      "identificationNumber": "30568570Y",
      "address": "ARBOLANTXA KALEA 8 1º IZDA",
      "location": {
        "postalCode": "48170",
        "municipality": "Zamudio",
        "county": "Bizkaia",
        "municipalityId": "905",
        "countyId": "48"
      },
      "economicActivities": [
        {
          "id": "1.659.4",
          "name": "Venta al por menor de libros, periódicos y artículos de papelería y escritorio",
          "_links": {
            "self": {
              "name": "Venta al por menor de libros, periódicos y artículos de papelería y escritorio",
              "href": "https://api.euskadi.eus/procurements/companies/economic-activities/1.659.4"
            }
          }
        }
      ],
      "certificateStartDate": "2025-12-17",
      "certificateEndDate": "2026-06-10",
      "object": "VENTA AL POR MENOR DE LIBROS, PERIÓDICOS Y ARTÍCULOS DE PAPELERÍA Y ESCRITORIO",
      "mainEntityOfPage": "https://www.contratacion.euskadi.eus/webkpe00-kperoc/es/ac71aBusquedaRegistrosWar/empresa/07054",
      "_links": {
        "self": {
          "name": "MARIA ISABEL MARTIN MARTIN",
          "href": "https://api.euskadi.eus/procurements/companies/07054"
        }
      }
    },
    {
      "name": "WORLD TALENT ADVERTISING AND COMMUNICATIONS, S.L.",
      "registrationNumber": "09172",
      "identificationNumber": "B84672344",
      "address": "Miguel Yuste, 23 - 4ª",
      "location": {
        "postalCode": "28037",
        "municipality": "Madrid",
        "county": "Madrid",
        "municipalityId": "079",
        "countyId": "28"
      },
      "economicActivities": [
        {
          "id": "1.844",
          "name": "Servicios de publicidad, relaciones públicas y similares",
          "_links": {
            "self": {
              "name": "Servicios de publicidad, relaciones públicas y similares",
              "href": "https://api.euskadi.eus/procurements/companies/economic-activities/1.844"
            }
          }
        }
      ],
      "certificateStartDate": "2025-12-17",
      "certificateEndDate": "2026-06-10",
      "object": "A) LA REALIZACIÓN, CREACIÓN, DISEÑO, EJECUCIÓN Y DISTRIBUCIÓN DE TODO TIPO DE CAMPAÑAS PUBLICITARIAS O DE PROPAGANDA A TRAVÉS DE LOS MEDIOS DE COMUNICACIÓN Y DIFUSIÓN (CNAE 7311). Y ADEMÁS: B) LOS SERVICIOS DE ASESORAMIENTO Y PRODUCCIÓN EN MATERIA DE PUBLICIDAD, IMAGEN, IDENTIDAD CORPORATIVA Y DISEÑO, ASÍ COMO LA ORGANIZACIÓN DE TODO TIPO DE ACTIVIDADES Y EVENTOS DE PROMOCIÓN PARA NEGOCIOS Y PERSONAS FÍSICAS O JURÍDICAS. C) LA FORMACIÓN EN GENERAL, O LA ESPECÍFICA, RELACIONADA CON LA CAPACITACIÓN PROFESIONAL Y LA DIGITALIZACIÓN, TANTO EN ENTORNOS PRESENCIALES, COMO VIRTUALES.",
      "mainEntityOfPage": "https://www.contratacion.euskadi.eus/webkpe00-kperoc/es/ac71aBusquedaRegistrosWar/empresa/09172",
      "_links": {
        "self": {
          "name": "WORLD TALENT ADVERTISING AND COMMUNICATIONS, S.L.",
          "href": "https://api.euskadi.eus/procurements/companies/09172"
        }
      }
    }
  ]
}