{
  "totalItems": 9042,
  "totalPages": 905,
  "currentPage": 560,
  "itemsOfPage": 10,
  "items": [
    {
      "name": "VALMMA SOLUCIONES, S.L.",
      "registrationNumber": "07260",
      "identificationNumber": "B49304645",
      "address": "C/LA ARTIGA C.V. C/ EL TRILLO, 16 P. I. LA HINIESTA AMPLIACIÓN",
      "location": {
        "postalCode": "49024",
        "municipality": "Zamora",
        "county": "Zamora",
        "municipalityId": "275",
        "countyId": "49"
      },
      "economicActivities": [
        {
          "id": "1.615.2",
          "name": "Venta al por mayor de muebles",
          "_links": {
            "self": {
              "name": "Venta al por mayor de muebles",
              "href": "https://api.euskadi.eus/procurements/companies/economic-activities/1.615.2"
            }
          }
        }
      ],
      "certificateStartDate": "2020-09-23",
      "certificateEndDate": "2021-01-06",
      "object": "1. LA COMPRAVENTA Y EL ARRENDAMIENTO NO FINANCIERO DE MÁQUINAS, MOBILIARIO Y ENSERES DE OFICINA, SU INSTALACIÓN Y REPARACIÓN, INCLUIDO TODO TIPO DE SISTEMAS INFORMÁTICOS. 2. LA CONTRATACIÓN Y EJECUCIÓN DE OBRAS DE CONSTRUCCIÓN DE TODA CLASE DE EDIFICACIONES, CAMINOS, CARRETERAS Y OBRAS HIDRÁULICAS, ASÍ COMO LA REALIZACIÓN DE CUALESQUIERA OBRAS PÚBLICAS O PRIVADAS, POR CUENTA PROPIA O AJENA, POR ENCARGO, ADJUDICACIÓN DIRECTA, CONCURSO, SUBASTA, ADMINISTRACIÓN O CUALQUIER OTRA FORMA DE CONTRATACIÓN, Y LA EXPLOTACIÓN DE TODA CLASE DE INDUSTRIAS RELACIONADAS CON EL RAMO DE LA CONSTRUCCIÓN. 3. LA REALIZACIÓN DE ESTUDIOS E INFORMES DE CARÁCTER TÉCNICO, SOCIOECONÓMICO Y FINANCIERO EN EL ÁMBITO DE LA INGENIERÍA Y LA ARQUITECTURA. EN PARTICULAR EN LOS CAMPOS DE OBRAS PÚBLICAS, EDIFICACIÓN, URBANISMO, ORDENACIÓN DEL TERRITORIO, MEDIO AMBIENTE, AGRICULTURA, TURISMO, ENERGÍA Y TELECOMUNICACIONES. 4. LA REALIZACIÓN DE PROYECTOS, DIRECCIÓN Y CONTROL DE OBRAS, EL CONTROL DE CALIDAD, LA PROGRAMACIÓN Y COORDINACIÓN DE ACTIVIDADES EN LOS CAMPOS REFERIDOS EN LOS PUNTOS 1 Y 2 PRECEDENTES. 5. LA PROMOCIÓN, GESTIÓN E INTERMEDIACIÓN DE TODA CLASE DE INSTALACIONES, OBRAS, EDIFICIOS, INFRAESTRUCTURAS, Y, EN GENERAL, TODO TIPO DE INMUEBLES. 6. LA PRESTACIÓN DE TODO TIPO DE SERVICIOS PROPIOS DE LAS CONCESIONES ADMINISTRATIVAS, TANTO DE OBRA, DE SERVICIO O DE DOMINIO PÚBLICO RELACIONADOS CON LOS ANTERIORES. 7. LA ADQUISICIÓN, ADMINISTRACIÓN, PARCELACIÓN Y URBANIZACIÓN DE TERRENOS, PREDIOS O SOLARES, CONSTRUCCIÓN O REHABILITACIÓN, PROMOCIÓN, EXPLOTACIÓN, ARRENDAMIENTO NO FINANCIERO, COMPRA, VENTA Y ENAJENACIÓN EN GENERAL DE TODA CLASE DE INMUEBLES, TANTO RÚSTICOS COMO URBANOS, INCLUIDOS LOS DE USO INDUSTRIAL, YA SEA PARA SI O PARA TERCEROS. 8. LA INTERMEDIACIÓN EN LA COMPRAVENTA Y EXPORTACIÓN DE MATERIAS PRIMAS, MERCADERÍAS Y SERVICIOS, CON EXCLUSIÓN DE CUALQUIER OPERACIÓN SUJETA A LEGISLACIÓN ESPECIAL. 9. LA COMPRAVENTA, IMPORTACIÓN Y EXPORTACIÓN DE MATERIAS PRIMAS, MERCADERÍAS Y SERVICIOS, CON EXCLUSIÓN DE CUALQUIER OPERACIÓN SUJETA A LEGISLACIÓN ESPECIAL, INCLUSO POR MEDIOS ELECTRÓNICOS O INTERNET. 10. LA COMPRAVENTA DE ESTABLECIMIENTOS MERCANTILES. 11. LA COMPRAVENTA DE TÍTULOS VALORES DE RENTA FIJA Y/O VARIABLES DE CUALQUIER CLASE, ESTÉN O NO ACEPTADOS A COTIZACIÓN EN LAS BOLSAS DE COMERCIO OFICIALMENTE AUTORIZADAS, EXCLUYÉNDOSE EXPRESAMENTE LAS RESERVADAS A INSTITUCIONES DE INVERSIÓN COLECTIVA Y TODAS AQUELLAS ACTIVIDADES SOMETIDAS A LA LEGISLACIÓN ESPECIAL DE LA LEY DE MERCADO DE VALORES, ASÍ COMO LA DE LA COMPRAVENTA, SUSCRIPCIÓN, ADMINISTRACIÓN Y ADQUISICIÓN DERIVATIVA DE PARTICIPACIONES SOCIALES POR CUENTA PROPIA",
      "mainEntityOfPage": "https://www.contratacion.euskadi.eus/webkpe00-kperoc/es/ac71aBusquedaRegistrosWar/empresa/07260",
      "_links": {
        "self": {
          "name": "VALMMA SOLUCIONES, S.L.",
          "href": "https://api.euskadi.eus/procurements/companies/07260"
        }
      }
    },
    {
      "name": "SISTEMAS DE INDENTIFICACIÓN Y MECANISMOS, S.L.",
      "registrationNumber": "07246",
      "identificationNumber": "B81960288",
      "address": "C/ Tomás Bretón, 50-52",
      "location": {
        "postalCode": "28045",
        "municipality": "Madrid",
        "county": "Madrid",
        "municipalityId": "079",
        "countyId": "28"
      },
      "economicActivities": [
        {
          "id": "1.615.4",
          "name": "Venta al por mayor de aparatos y material radioeléctrico y electrónico",
          "_links": {
            "self": {
              "name": "Venta al por mayor de aparatos y material radioeléctrico y electrónico",
              "href": "https://api.euskadi.eus/procurements/companies/economic-activities/1.615.4"
            }
          }
        }
      ],
      "certificateStartDate": "2020-09-21",
      "certificateEndDate": "2021-01-06",
      "object": "1. IMPORTACIÓN , DISTRIBUCIÓN Y COMERCIALIZACIÓN DE SISTEMAS DE IDENTIFICACIÓN Y MECANISMOS DE CONTROL. 2. INSTALACIÓN, MANTENIMIENTO Y REPARACIÓN DE SISTEMAS DE IDENTIFICACIÓN Y MECANISMOS DE CONTROL. 3. DESARROLLO DE APLICACIONES INFORMÁTICOS",
      "mainEntityOfPage": "https://www.contratacion.euskadi.eus/webkpe00-kperoc/es/ac71aBusquedaRegistrosWar/empresa/07246",
      "_links": {
        "self": {
          "name": "SISTEMAS DE INDENTIFICACIÓN Y MECANISMOS, S.L.",
          "href": "https://api.euskadi.eus/procurements/companies/07246"
        }
      }
    },
    {
      "name": "IDOI CONSTRUCCION SOSTENIBLE, S.L.",
      "registrationNumber": "07247",
      "identificationNumber": "B71304406",
      "address": "Calle Río Arga Nº8-2ºB",
      "location": {
        "postalCode": "31014",
        "municipality": "Pamplona/Iruña",
        "county": "Navarra",
        "municipalityId": "201",
        "countyId": "31"
      },
      "economicActivities": [
        {
          "id": "1.501.2",
          "name": "Construcción completa, reparación y conservación obras civiles",
          "_links": {
            "self": {
              "name": "Construcción completa, reparación y conservación obras civiles",
              "href": "https://api.euskadi.eus/procurements/companies/economic-activities/1.501.2"
            }
          }
        }
      ],
      "certificateStartDate": "2020-09-21",
      "certificateEndDate": "2021-02-24",
      "object": "-LA CONSTRUCCIÓN DE EDIFICIOS RESIDENCIALES Y NO RESIDENCIALES. ES SU ACTIVIDAD PRINCIPAL CON CÓDIGO CNAE 41.20. - EL ESTUDIO, ASESORAMIENTO Y GESTIÓN EN LA CONSTRUCCIÓN DE CARRETERAS, PUENTES Y TÚNELES. INSTALACIÓN DE REDES ELÉCTRICAS Y TELECOMUNICACIONES Y OBRAS HIDRÁULICAS. - LAS ACTIVIDADES DE CONSTRUCCIÓN ESPECIALIZADA EN DEMOLICIÓN Y PREPARACIÓN DE TERRENOS, INSTALACIONES ELÉCTRICAS, INSTALACIONES DE FONTANERÍA Y OTRAS RELACIONADAS CON LA CONSTRUCCIÓN. 1)ACABADOS DE EDIFICIOS, REVOCAMIENTOS, INSTALACIONES DE CARPINTERÍA, ACABADOS DE SUELOS, PAREDES, PINTURA, ACRISTALAMIENTOS Y OTROS ACABADOS DE INMUEBLES. 2)Y OTRAS ACTIVIDADES DE CONSTRUCCIÓN ESPECIALIZADA COMO CONSTRUCCIÓN DE CUBIERTAS",
      "mainEntityOfPage": "https://www.contratacion.euskadi.eus/webkpe00-kperoc/es/ac71aBusquedaRegistrosWar/empresa/07247",
      "_links": {
        "self": {
          "name": "IDOI CONSTRUCCION SOSTENIBLE, S.L.",
          "href": "https://api.euskadi.eus/procurements/companies/07247"
        }
      }
    },
    {
      "name": "SINERGIA SOLUCIONES, S.L.",
      "registrationNumber": "07249",
      "identificationNumber": "B84129634",
      "address": "AVD. HERMANOS GRANDA, 1",
      "location": {
        "postalCode": "28022",
        "municipality": "Madrid",
        "county": "Madrid",
        "municipalityId": "079",
        "countyId": "28"
      },
      "economicActivities": [
        {
          "id": "1.504.1",
          "name": "Instalaciones eléctricas en general",
          "_links": {
            "self": {
              "name": "Instalaciones eléctricas en general",
              "href": "https://api.euskadi.eus/procurements/companies/economic-activities/1.504.1"
            }
          }
        }
      ],
      "certificateStartDate": "2020-09-21",
      "certificateEndDate": "2021-02-26",
      "object": "A) LA REPRESENTACIÓN, COMERCIALIZACIÓN, DESARROLLO, MONTAJE, INSTALACIÓN Y MANTENIMINENTO DE TODO TIPO DE SISTEMAS ELÉCTRICOS, ELECTRÓNICOS E INFORMÁTICOS (HARDWARE Y SOFTWARE), ASÍ COMO LA EJECUCIÓN DE LAS INSTALACIONES NECESARIAS PARA SU IMPLANTACIÓN, CONCESIÓN, PUESTA EN FUNCIONAMIENTO, EXPLOTACIÓN Y MANTENIMIENTO DE LOS MISMOS. B) LA COMPRA, VENTA Y ARRENDAMIENTO EN GENERAL, DE TODA CLASE DE FINCAS, RÚSTICAS Y URBANAS",
      "mainEntityOfPage": "https://www.contratacion.euskadi.eus/webkpe00-kperoc/es/ac71aBusquedaRegistrosWar/empresa/07249",
      "_links": {
        "self": {
          "name": "SINERGIA SOLUCIONES, S.L.",
          "href": "https://api.euskadi.eus/procurements/companies/07249"
        }
      }
    },
    {
      "name": "EKAIA EKO-GESTIÓN, S.C.",
      "registrationNumber": "07251",
      "identificationNumber": "J01508464",
      "address": "GAULIPERRA ,9. Narbaiza",
      "location": {
        "postalCode": "01208",
        "municipality": "San Millán/Donemiliaga",
        "county": "Araba/Álava",
        "municipalityId": "053",
        "countyId": "01"
      },
      "economicActivities": [
        {
          "id": "1.911",
          "name": "Servicios agrícolas y ganaderos",
          "_links": {
            "self": {
              "name": "Servicios agrícolas y ganaderos",
              "href": "https://api.euskadi.eus/procurements/companies/economic-activities/1.911"
            }
          }
        }
      ],
      "certificateStartDate": "2020-09-21",
      "certificateEndDate": "2021-03-17",
      "object": "LA EXPLOTACIÓN DE UNA ACTIVIDAD DE PRODUCCIÓN DE COMPOSTAJE Y SU VENTA, UBICADA EN EL LUGAR SEÑALADO COMO DOMICILIO SOCIAL, ASÍ COMO EN DOMICILIOS PARTICULARES Y UBICACIONES ASIGNADAS POR LAS DIFERENTES ADMINISTRACIONES TANTO LOCALES, PROVINCIALES COMO AUTONÓMICAS. TAMBIÉN SERÁ OBJETO SOCIAL DE LA SOCIEDAD CIVIL EL SERVICIO DE ASESORAMIENTO Y SUPERVISIÓN A PARTICULARES, EMPRESAS Y ADMINISTRACIONES PUBLICAS DE LAS LABORES DE PRODUCCIÓN DE COMPOST. ASIMISMO, LA SOCIEDAD CIVIL PODRÁ DEDICARSE A IMPARTIR TALLERES Y CURSOS FORMATIVOS Y PEDAGÓGICOS RELACIONADOS CON EL COMPOSTAJE",
      "mainEntityOfPage": "https://www.contratacion.euskadi.eus/webkpe00-kperoc/es/ac71aBusquedaRegistrosWar/empresa/07251",
      "_links": {
        "self": {
          "name": "EKAIA EKO-GESTIÓN, S.C.",
          "href": "https://api.euskadi.eus/procurements/companies/07251"
        }
      }
    },
    {
      "name": "ANULACIONES SEPTICAS MUNGIA S.L.",
      "registrationNumber": "07254",
      "identificationNumber": "B95029781",
      "address": "POLIGONO PINOA PARC. 2C NAVE 4",
      "location": {
        "postalCode": "48170",
        "municipality": "Zamudio",
        "county": "Bizkaia",
        "municipalityId": "905",
        "countyId": "48"
      },
      "economicActivities": [
        {
          "id": "1.501.3",
          "name": "Albañilería y pequeños trabajos de construcción en general",
          "_links": {
            "self": {
              "name": "Albañilería y pequeños trabajos de construcción en general",
              "href": "https://api.euskadi.eus/procurements/companies/economic-activities/1.501.3"
            }
          }
        }
      ],
      "certificateStartDate": "2020-09-21",
      "certificateEndDate": "2020-12-26",
      "object": "LA PROMOCIÓN, CONSTRUCCIÓN, REHABILITACIÓN, REPARACIÓN, POR CUENTA PROPIA O AJENA, DE TODA CLASE DE OBRAS, URBANIZACIONES, EDIFICIOS Y CONSTRUCCIONES, TANTO PÚBLICAS COMO PRIVADAS. LA ANULACIÓN DE POZOS SÉPTICOS. EL TRANSPORTE DE TODO TIPO DE MERCANCÍAS CON CONTENEDORES",
      "mainEntityOfPage": "https://www.contratacion.euskadi.eus/webkpe00-kperoc/es/ac71aBusquedaRegistrosWar/empresa/07254",
      "_links": {
        "self": {
          "name": "ANULACIONES SEPTICAS MUNGIA S.L.",
          "href": "https://api.euskadi.eus/procurements/companies/07254"
        }
      }
    },
    {
      "name": "ORIO PRODUKZIOAK, S.A.",
      "registrationNumber": "02813",
      "identificationNumber": "A20188413",
      "address": "FRANCISCO GRANDMONTAGNE, 1  EDIF. ZURRIOLA, BAJO  LOCAL 6",
      "location": {
        "postalCode": "20018",
        "municipality": "Donostia / San Sebastián",
        "county": "Gipuzkoa",
        "municipalityId": "069",
        "countyId": "20"
      },
      "economicActivities": [
        {
          "id": "1.961.1",
          "name": "Producción de películas cinematográficas (incluso vídeos)",
          "_links": {
            "self": {
              "name": "Producción de películas cinematográficas (incluso vídeos)",
              "href": "https://api.euskadi.eus/procurements/companies/economic-activities/1.961.1"
            }
          }
        }
      ],
      "certificateStartDate": "2020-09-20",
      "certificateEndDate": "2021-03-20",
      "object": "LA CREACIÓN Y DESARROLLO DE ARGUMENTOS E IDEAS Y LA PRODUCCIÓN Y COMERCIALIZACIÓN SOBRE MEDIOS AUDIOVISUALES",
      "mainEntityOfPage": "https://www.contratacion.euskadi.eus/webkpe00-kperoc/es/ac71aBusquedaRegistrosWar/empresa/02813",
      "_links": {
        "self": {
          "name": "ORIO PRODUKZIOAK, S.A.",
          "href": "https://api.euskadi.eus/procurements/companies/02813"
        }
      }
    },
    {
      "name": "MOBEI EQUIPAMIENTO INTEGRAL, S.L.",
      "registrationNumber": "07053",
      "identificationNumber": "B95789608",
      "address": "C/ Manuel Allende, 2, 1º 48010",
      "location": {
        "postalCode": "48010",
        "municipality": "Bilbao",
        "county": "Bizkaia",
        "municipalityId": "020",
        "countyId": "48"
      },
      "economicActivities": [
        {
          "id": "1.653.1",
          "name": "Venta al por menor de muebles (excepto los de oficina)",
          "_links": {
            "self": {
              "name": "Venta al por menor de muebles (excepto los de oficina)",
              "href": "https://api.euskadi.eus/procurements/companies/economic-activities/1.653.1"
            }
          }
        }
      ],
      "certificateStartDate": "2020-09-18",
      "certificateEndDate": "2021-03-17",
      "object": "-LA FABRICACIÓN, INSTALACIÓN, MONTAJE Y REPARACIÓN DE MOBILIARIO EN GENERAL Y SU VENTA AL POR MAYOR Y POR MENOR DE MATERIAL DE EQUIPAMIENTO PARA EL COMERCIO E INDUSTRIA. -REFORMA Y DECORACIÓN DE TODO TIPO DE VIVIENDAS, LOCALES E INMUEBLES, ASÍ COMO LA VENTA DE TODO TIPO DE MOBILIARIO Y LA REALIZACIÓN DE PROYECTOS Y DECORACIÓN DE INTERIORES",
      "mainEntityOfPage": "https://www.contratacion.euskadi.eus/webkpe00-kperoc/es/ac71aBusquedaRegistrosWar/empresa/07053",
      "_links": {
        "self": {
          "name": "MOBEI EQUIPAMIENTO INTEGRAL, S.L.",
          "href": "https://api.euskadi.eus/procurements/companies/07053"
        }
      }
    },
    {
      "name": "CONSTRUCCIONES LA CARRASCA S.L",
      "registrationNumber": "07245",
      "identificationNumber": "B03249356",
      "address": "VICENTE CERVERA 116",
      "location": {
        "postalCode": "03680",
        "municipality": "Aspe",
        "county": "Alicante/Alacant",
        "municipalityId": "019",
        "countyId": "03"
      },
      "economicActivities": [
        {
          "id": "1.501.3",
          "name": "Albañilería y pequeños trabajos de construcción en general",
          "_links": {
            "self": {
              "name": "Albañilería y pequeños trabajos de construcción en general",
              "href": "https://api.euskadi.eus/procurements/companies/economic-activities/1.501.3"
            }
          }
        }
      ],
      "certificateStartDate": "2020-09-18",
      "certificateEndDate": "2021-02-19",
      "object": "A) LA ACTIVIDAD O REALIZACIÓN DE TODA CLASE DE ALBAÑILERÍA Y CONSTRUCCIÓN; Y B) LA FABRICACIÓN, MONTAJE, MANTENIMIENTO Y REPARACIÓN DE PARQUES INFANTILES",
      "mainEntityOfPage": "https://www.contratacion.euskadi.eus/webkpe00-kperoc/es/ac71aBusquedaRegistrosWar/empresa/07245",
      "_links": {
        "self": {
          "name": "CONSTRUCCIONES LA CARRASCA S.L",
          "href": "https://api.euskadi.eus/procurements/companies/07245"
        }
      }
    },
    {
      "name": "HIBERUS DIGITAL BUSINESS, S.L.U.",
      "registrationNumber": "07244",
      "identificationNumber": "B99537755",
      "address": "Paseo Isabel la Católica 6",
      "location": {
        "postalCode": "50009",
        "municipality": "Zaragoza",
        "county": "Zaragoza",
        "municipalityId": "297",
        "countyId": "50"
      },
      "economicActivities": [
        {
          "id": "1.845",
          "name": "Explotación electrónica por cuenta de terceros",
          "_links": {
            "self": {
              "name": "Explotación electrónica por cuenta de terceros",
              "href": "https://api.euskadi.eus/procurements/companies/economic-activities/1.845"
            }
          }
        }
      ],
      "certificateStartDate": "2020-09-17",
      "certificateEndDate": "2021-01-10",
      "object": "DISEÑO, INVESTIGACIÓN, DESARROLLO, PROGRAMACIÓN, FABRICACIÓN, EXPLOTACIÓN, SUMINISTRO, MANTENIMIENTO, REPARACIÓN, INSTALACIÓN, MONTAJE, DISTRIBUCIÓN, REPRESENTACIÓN, EXPORTACIÓN E IMPORTACIÓN, PUBLICACIÓN, COMERCIALIZACIÓN Y DISTRIBUCIÓN COMERCIAL, COMPRA Y VENTA AL POR MAYOR Y AL POR MENOR DE SOFTWARE, APLICACIONES INFORMÁTICAS Y MULTIMEDIA REALIZADAS EN CUALQUIER SOPORTE, MÓVILES, EQUIPOS INFORMÁTICOS, ELECTRÓNICOS DE TELECOMUNICACIÓN, TELEFONÍA, SONIDO, IMAGEN, ORDENADORES, PROGRAMAS INFORMÁTICOS, ASÍ COMO TODO TIPO DE PRODUCTOS INFORMÁTICOS, DISEÑOS WEB, DISEÑOS GRÁFICOS, OFIMÁTICOS Y CONSUMIBLES Y TODO ELLO RELACIONADO EN EL ENTORNO DE LAS TECNOLOGÍAS DE LA INFORMACIÓN; LABORES DE CONSULTORÍA, ASESORÍA Y DESARROLLO DE PROYECTOS DE INTERNET, FORMACIÓN, INSTRUCCIÓN Y ENSEÑANZA EN TECNOLOGÍAS DE LA INFORMACIÓN E INTERNET. ORGANIZACIÓN DE CURSOS, CURSILLOS, COLOQUIOS Y SEMINARIOS DE TEMAS RELACIONADOS CON LO ANTERIORMENTE EXPUESTO",
      "mainEntityOfPage": "https://www.contratacion.euskadi.eus/webkpe00-kperoc/es/ac71aBusquedaRegistrosWar/empresa/07244",
      "_links": {
        "self": {
          "name": "HIBERUS DIGITAL BUSINESS, S.L.U.",
          "href": "https://api.euskadi.eus/procurements/companies/07244"
        }
      }
    }
  ]
}