{
  "totalItems": 9042,
  "totalPages": 905,
  "currentPage": 570,
  "itemsOfPage": 10,
  "items": [
    {
      "name": "SORKUNTZAREN LURRALDEA SORLAND, S.L.",
      "registrationNumber": "07103",
      "identificationNumber": "B95958252",
      "address": "txanporta plaza 4",
      "location": {
        "postalCode": "48220",
        "municipality": "Abadiño",
        "county": "Bizkaia",
        "municipalityId": "001",
        "countyId": "48"
      },
      "economicActivities": [
        {
          "id": "1.844",
          "name": "Servicios de publicidad, relaciones públicas y similares",
          "_links": {
            "self": {
              "name": "Servicios de publicidad, relaciones públicas y similares",
              "href": "https://api.euskadi.eus/procurements/companies/economic-activities/1.844"
            }
          }
        }
      ],
      "certificateStartDate": "2020-06-18",
      "certificateEndDate": "2020-12-05",
      "object": "A) ASESORAMIENTO Y CONSULTORÍA EN COMUNICACIÓN. OFRECER TODO TIPO DE SERVICIOS RELACIONADOS CON LA COMUNICACIÓN, UTILIZANDO TODO TIPO DE SOPORTES PARA DESARROLLAR EL SERVICIO: PAPEL, TV, RADIO, INTERNET, NUEVAS TECNOLOGÍAS, ETC, DESARROLLAR Y DISEÑAR ESTRATEGIAS DE COMUNICACIÓN A ORGANISMO E INSTITUCIONES PÚBLICAS, EMPRESAS PRIVADAS, Y EN GENERAL PARA CUALQUIER ENTIDAD O INICIATIVA CONCRETA. SERVICIOS DE RELACIONES PÚBLICAS Y PUBLICIDAD, UTILIZANDO PARA ELLO, LOS RECURSOS TANTO TÉCNICOS COMO PERSONALES NECESARIOS. B) DESARROLLO DE ESTRATEGIAS COMERCIALES EN RELACIÓN A PRODUCTOS Y SERVICIOS DE CUALQUIER PERSONA JURÍDICA O FÍSICA. C) LA PRODUCCIÓN, EDICIÓN Y DISTRIBUCIÓN EN CUALQUIER FORMATO AUDIOVISUAL O MEDIO DE COMUNICACIÓN DE CUALQUIER TIPO Y LA PRODUCCIÓN, EDICIÓN Y DISTRIBUCIÓN CINEMATOGRÁFICA. D) LA EXPLOTACIÓN DE SERVICIOS DE TELECOMUNICACIONES, INCLUIDOS LOS DE TELEVISIÓN, RADIO, TELEFONÍA, TRANSMISIÓN DE DATOS Y CUALESQUIERA OTROS MEDIOS ELECTRÓNICOS, TODOS ELLOS EN CUALQUIERA DE SUS MODALIDADES. E) LA PRODUCCIÓN Y SUMINISTRO DE INFORMACIÓN POR MEDIOS TELEMÁTICOS, INFORMÁTICOS, O CUALQUIER OTRO SOPORTE MULTIMEDIA. F) LA PRODUCCIÓN, CONTRATACIÓN Y COMERCIALIZACIÓN DE TODO TIPO DE SERVICIOS INTERACTIVOS. G) LA REALIZACIÓN DE ACTIVIDADES EN INTERNET, INCLUIDA LA CREACIÓN, DESARROLLO Y EXPLOTACIÓN DE PORTALES, ASÍ COMO EL SUMINISTRO DE SERVICIOS DE INFORMACIÓN, FORMACIÓN Y COMERCIO ELECTRÓNICO. H) LA ADQUISICIÓN, ALQUILER, VENTA, PRODUCCIÓN, TRANSMISIÓN Y COMERCIALIZACIÓN DE CUALQUIER TIPO DE OBRAS SONORAS O AUDIOVISUALES, EN CUALQUIERA DE SUS MODALIDADES. J) LA ORGANIZACIÓN Y TRANSMISIÓN DE ACONTECIMIENTOS CULTURALES, DEPORTIVOS Y ESPECTÁCULOS, ASÍ COMO LA ADQUISICIÓN, CESIÓN Y COMERCIALIZACIÓN DE DERECHOS SOBRE LOS MISMOS. M) LA EXPLOTACIÓN POR CUENTA PROPIA O AJENA DE ESPACIOS PUBLICITARIOS. N) LA PRESTACIÓN Y COMERCIALIZACIÓN DE OTROS SERVICIOS CULTURALES, DE OCIO, ENTRETENIMIENTO Y ESPARCIMIENTO. O) LA REALIZACIÓN DE ESTUDIOS Y ANÁLISIS DE MEDICIÓN DE AUDIENCIAS DE MEDIOS DE COMUNICACIÓN, YA SEAN ESOS PROPIOS O AJENOS. P) LA PRESTACIÓN Y COMERCIALIZACIÓN DE SERVICIOS DE ASESORAMIENTO EN MATERIAS DE INFORMACIÓN, PUBLICIDAD, CULTURA, OCIO, ENTRETENIMIENTO Y ORGANIZACIÓN DE CUALQUIER TIPO DE ACONTECIMIENTOS",
      "mainEntityOfPage": "https://www.contratacion.euskadi.eus/webkpe00-kperoc/es/ac71aBusquedaRegistrosWar/empresa/07103",
      "_links": {
        "self": {
          "name": "SORKUNTZAREN LURRALDEA SORLAND, S.L.",
          "href": "https://api.euskadi.eus/procurements/companies/07103"
        }
      }
    },
    {
      "name": "MYTRA CONTROL, S.L.",
      "registrationNumber": "07105",
      "identificationNumber": "B87090999",
      "address": "C/PUNTO NET 4 1B",
      "location": {
        "postalCode": "28805",
        "municipality": "Alcalá de Henares",
        "county": "Madrid",
        "municipalityId": "005",
        "countyId": "28"
      },
      "economicActivities": [
        {
          "id": "1.843.1",
          "name": "Servicios técnicos de ingeniería",
          "_links": {
            "self": {
              "name": "Servicios técnicos de ingeniería",
              "href": "https://api.euskadi.eus/procurements/companies/economic-activities/1.843.1"
            }
          }
        },
        {
          "id": "1.845",
          "name": "Explotación electrónica por cuenta de terceros",
          "_links": {
            "self": {
              "name": "Explotación electrónica por cuenta de terceros",
              "href": "https://api.euskadi.eus/procurements/companies/economic-activities/1.845"
            }
          }
        }
      ],
      "certificateStartDate": "2020-06-18",
      "certificateEndDate": "2020-12-01",
      "object": "OTRAS INSTALACIONES EN OBRAS DE CONSTRUCCIÓN. INSTALACIONES ELÉCTRICAS. FABRICACIÓN DE OTRA MAQUINARIA PARA USOS ESPECÍFICOS N.C.O.P. SERVICIOS TÉCNICO DE INGENIERÍA Y OTRAS ACTIVIDADES RELACIONADAS CON EL ASESORAMIENTO TÉCNICO. LA ACTIVIDAD PRINCIPAL Y FUNDAMENTAL DE LA SOCIEDAD SERÁ INSTALACIONES ELÉCTRICAS",
      "mainEntityOfPage": "https://www.contratacion.euskadi.eus/webkpe00-kperoc/es/ac71aBusquedaRegistrosWar/empresa/07105",
      "_links": {
        "self": {
          "name": "MYTRA CONTROL, S.L.",
          "href": "https://api.euskadi.eus/procurements/companies/07105"
        }
      }
    },
    {
      "name": "FRANCISCO JAVIER EGUÍLUZ GUTIÉRREZ-BARQUÍN",
      "registrationNumber": "07106",
      "identificationNumber": "78870420Q",
      "address": "Marzana 14, S-A",
      "location": {
        "postalCode": "48003",
        "municipality": "Bilbao",
        "county": "Bizkaia",
        "municipalityId": "020",
        "countyId": "48"
      },
      "economicActivities": [
        {
          "id": "2.411",
          "name": "Arquitectos",
          "_links": {
            "self": {
              "name": "Arquitectos",
              "href": "https://api.euskadi.eus/procurements/companies/economic-activities/2.411"
            }
          }
        }
      ],
      "certificateStartDate": "2020-06-18",
      "certificateEndDate": "2020-10-21",
      "object": "ARQUITECTOS",
      "mainEntityOfPage": "https://www.contratacion.euskadi.eus/webkpe00-kperoc/es/ac71aBusquedaRegistrosWar/empresa/07106",
      "_links": {
        "self": {
          "name": "FRANCISCO JAVIER EGUÍLUZ GUTIÉRREZ-BARQUÍN",
          "href": "https://api.euskadi.eus/procurements/companies/07106"
        }
      }
    },
    {
      "name": "CARYOSA HYGIENIC SOLUTIONS, SL",
      "registrationNumber": "07109",
      "identificationNumber": "B65005498",
      "address": "Rda. general Mitre, 139",
      "location": {
        "postalCode": "08022",
        "municipality": "Barcelona",
        "county": "Barcelona",
        "municipalityId": "019",
        "countyId": "08"
      },
      "economicActivities": [
        {
          "id": "1.615.3",
          "name": "Venta al por mayor de aparatos electrodomésticos y ferretería",
          "_links": {
            "self": {
              "name": "Venta al por mayor de aparatos electrodomésticos y ferretería",
              "href": "https://api.euskadi.eus/procurements/companies/economic-activities/1.615.3"
            }
          }
        },
        {
          "id": "1.619.2",
          "name": "Venta al por mayor de aparatos e instrumentos médicos, ortopédicos, ópticos",
          "_links": {
            "self": {
              "name": "Venta al por mayor de aparatos e instrumentos médicos, ortopédicos, ópticos",
              "href": "https://api.euskadi.eus/procurements/companies/economic-activities/1.619.2"
            }
          }
        },
        {
          "id": "1.859",
          "name": "Alquiler de otros bienes muebles n.c.o.p. (sin personal permanente)",
          "_links": {
            "self": {
              "name": "Alquiler de otros bienes muebles n.c.o.p. (sin personal permanente)",
              "href": "https://api.euskadi.eus/procurements/companies/economic-activities/1.859"
            }
          }
        },
        {
          "id": "1.931.5",
          "name": "Enseñanza de educación superior",
          "_links": {
            "self": {
              "name": "Enseñanza de educación superior",
              "href": "https://api.euskadi.eus/procurements/companies/economic-activities/1.931.5"
            }
          }
        }
      ],
      "certificateStartDate": "2020-06-18",
      "certificateEndDate": "2020-12-08",
      "object": "LA IMPORTACIÓN, MARKETING Y DISTRIBUCIÓN DE SECADORES DE MANOS Y OTROS PRODUCTOS RELACIONADOS CON LA HIGIENE Y BIENESTAR EN DIFERENTES MERCADOS",
      "mainEntityOfPage": "https://www.contratacion.euskadi.eus/webkpe00-kperoc/es/ac71aBusquedaRegistrosWar/empresa/07109",
      "_links": {
        "self": {
          "name": "CARYOSA HYGIENIC SOLUTIONS, SL",
          "href": "https://api.euskadi.eus/procurements/companies/07109"
        }
      }
    },
    {
      "name": "ARTELIS RESTAURACIÓN Y CONSERVACIÓN, S.L.",
      "registrationNumber": "06688",
      "identificationNumber": "B95926614",
      "address": "CALLE BILBAO 4 2ºB ",
      "location": {
        "postalCode": "48960",
        "municipality": "Galdakao",
        "county": "Bizkaia",
        "municipalityId": "036",
        "countyId": "48"
      },
      "economicActivities": [
        {
          "id": "1.999",
          "name": "Otros servicios n.c.o.p",
          "_links": {
            "self": {
              "name": "Otros servicios n.c.o.p",
              "href": "https://api.euskadi.eus/procurements/companies/economic-activities/1.999"
            }
          }
        }
      ],
      "certificateStartDate": "2020-06-17",
      "certificateEndDate": "2020-11-12",
      "object": "A) LA RESTAURACIÓN OBRAS DE ARTE Y FACHADAS SINGULARES,Y FACHADAS EN GENERAL. B) LA EJECUCIÓN, COMPLETA O POR TRAMOS, DE TODA CLASE DE OBRAS DE CONSTRUCCIÓN Y REPARACIÓN Ó CONSERVACIÓN DE TODA CLASE DE VIVIENDAS Y EDIFICIOS Y DE SUS DISTINTOS ELEMENTOS E INSTALACIONES POR CUENTA PROPIA O AJENA, INCLUIDOS TRABAJOS DE ALBAÑILERÍA, FONTANERÍA, INSTALACIONES DE CALEFACCIÓN, CARPINTERÍA DE MADERA Y METÁLICA, INSTALACIÓN Y MONTAJE DE VENTANAS, INSTALACIONES ELÉCTRICAS EN GENERAL Y DE TELEVISIÓN Y DECORACIÓN INTEGRAL",
      "mainEntityOfPage": "https://www.contratacion.euskadi.eus/webkpe00-kperoc/es/ac71aBusquedaRegistrosWar/empresa/06688",
      "_links": {
        "self": {
          "name": "ARTELIS RESTAURACIÓN Y CONSERVACIÓN, S.L.",
          "href": "https://api.euskadi.eus/procurements/companies/06688"
        }
      }
    },
    {
      "name": "BETTINA MELCHER KAHLERT",
      "registrationNumber": "07099",
      "identificationNumber": "X0981486F",
      "address": "Calle Irulegui 20",
      "location": {
        "postalCode": "31192",
        "municipality": "Aranguren",
        "county": "Navarra",
        "municipalityId": "023",
        "countyId": "31"
      },
      "economicActivities": [
        {
          "id": "2.411",
          "name": "Arquitectos",
          "_links": {
            "self": {
              "name": "Arquitectos",
              "href": "https://api.euskadi.eus/procurements/companies/economic-activities/2.411"
            }
          }
        }
      ],
      "certificateStartDate": "2020-06-17",
      "certificateEndDate": "2020-11-13",
      "object": "Arquitecta especialista en rehabilitación y arquitectura sostenible.",
      "mainEntityOfPage": "https://www.contratacion.euskadi.eus/webkpe00-kperoc/es/ac71aBusquedaRegistrosWar/empresa/07099",
      "_links": {
        "self": {
          "name": "BETTINA MELCHER KAHLERT",
          "href": "https://api.euskadi.eus/procurements/companies/07099"
        }
      }
    },
    {
      "name": "IÑAKI ANSOLA URIGUEN",
      "registrationNumber": "07096",
      "identificationNumber": "15379540S",
      "address": "San Andres pasealekua, 3-5º esk.",
      "location": {
        "postalCode": "20600",
        "municipality": "Eibar",
        "county": "Gipuzkoa",
        "municipalityId": "030",
        "countyId": "20"
      },
      "economicActivities": [
        {
          "id": "2.411",
          "name": "Arquitectos",
          "_links": {
            "self": {
              "name": "Arquitectos",
              "href": "https://api.euskadi.eus/procurements/companies/economic-activities/2.411"
            }
          }
        }
      ],
      "certificateStartDate": "2020-06-16",
      "certificateEndDate": "2020-11-11",
      "object": "ARQUITECTO",
      "mainEntityOfPage": "https://www.contratacion.euskadi.eus/webkpe00-kperoc/es/ac71aBusquedaRegistrosWar/empresa/07096",
      "_links": {
        "self": {
          "name": "IÑAKI ANSOLA URIGUEN",
          "href": "https://api.euskadi.eus/procurements/companies/07096"
        }
      }
    },
    {
      "name": "CANTABRANA JIMENEZ INGENIEROS, S.L.",
      "registrationNumber": "07091",
      "identificationNumber": "B26350934",
      "address": "C/ CABALLERIAS Nº 31-33 1º F",
      "location": {
        "postalCode": "26001",
        "municipality": "Logroño",
        "county": "Rioja, La",
        "municipalityId": "089",
        "countyId": "26"
      },
      "economicActivities": [
        {
          "id": "1.843.1",
          "name": "Servicios técnicos de ingeniería",
          "_links": {
            "self": {
              "name": "Servicios técnicos de ingeniería",
              "href": "https://api.euskadi.eus/procurements/companies/economic-activities/1.843.1"
            }
          }
        }
      ],
      "certificateStartDate": "2020-06-15",
      "certificateEndDate": "2020-11-12",
      "object": "A) PROYECTO, DIRECCIÓN, EJECUCIÓN Y MANTENIMIENTO DE INSTALACIONES INDUSTRIALES, URBANAS Y DOMÉSTICAS DE GAS, AGUA, COMBUSTIBLES SÓLIDOS O LÍQUIDOS, ELECTRICIDAD, COMUNICACIONES Y CLIMATIZACIÓN; PRODUCCIÓN, DISTRIBUCIÓN, VENTA Y COMERCIALIZACIÓN DE ENERGÍA, PRODUCTOS ENERGÉTICOS DE TODA CLASE; Y APARATOS Y EQUIPOS RELACIONADOS CON LAS ACTIVIDADES ANTERIORES; Y EN GENERAL, CUALQUIER TRABAJO QUE QUEDE COMPRENDIDO, ENUMERADO O CLASIFICADO EN LO DISPUESTO POR EL DECRETO DE 18 DE SEPTIEMBRE DE 1935, PUBLICADO EN LA &#8220;GACETA DE MADRID&#8221; NÚMERO 263, DE 20 DE SEPTIEMBRE DE 1935. B) LA PROMOCIÓN, URBANIZACIÓN, CONSTRUCCIÓN, EXPLOTACIÓN EN CUALQUIER FORMA, INCLUSO EN ARRENDAMIENTO, GESTIÓN, ASESORAMIENTO, Y TODAS LAS ACTIVIDADES INDUSTRIALES, COMERCIALES O DE SERVICIOS, QUE SIN LIMITACIÓN ALGUNA SEAN POSIBLES EN RELACIÓN CON TODA CLASE DE TERRENOS Y EDIFICACIONES DESTINADAS A CUALQUIER USO, EFECTUANDO TODAS LAS TRANSACCIONES QUE CONDUZCAN A ELLO\r\n",
      "mainEntityOfPage": "https://www.contratacion.euskadi.eus/webkpe00-kperoc/es/ac71aBusquedaRegistrosWar/empresa/07091",
      "_links": {
        "self": {
          "name": "CANTABRANA JIMENEZ INGENIEROS, S.L.",
          "href": "https://api.euskadi.eus/procurements/companies/07091"
        }
      }
    },
    {
      "name": "LUIS MANUEL PACHECO PEREIRA",
      "registrationNumber": "07093",
      "identificationNumber": "X2296234Y",
      "address": "SANTA CRUZ, 5 1ª A",
      "location": {
        "postalCode": "20550",
        "municipality": "Aretxabaleta",
        "county": "Gipuzkoa",
        "municipalityId": "013",
        "countyId": "20"
      },
      "economicActivities": [
        {
          "id": "1.501.3",
          "name": "Albañilería y pequeños trabajos de construcción en general",
          "_links": {
            "self": {
              "name": "Albañilería y pequeños trabajos de construcción en general",
              "href": "https://api.euskadi.eus/procurements/companies/economic-activities/1.501.3"
            }
          }
        }
      ],
      "certificateStartDate": "2020-06-15",
      "certificateEndDate": "2020-11-14",
      "object": "ALBAÑILERIA Y PEQUEÑOS TRABAJOS EN CONSTRUCCION EN GENERAL",
      "mainEntityOfPage": "https://www.contratacion.euskadi.eus/webkpe00-kperoc/es/ac71aBusquedaRegistrosWar/empresa/07093",
      "_links": {
        "self": {
          "name": "LUIS MANUEL PACHECO PEREIRA",
          "href": "https://api.euskadi.eus/procurements/companies/07093"
        }
      }
    },
    {
      "name": "URTZI ALZOLA, S.L.",
      "registrationNumber": "07090",
      "identificationNumber": "B01360007",
      "address": "TELESFORO ARANZADI 1-1ºC",
      "location": {
        "postalCode": "01009",
        "municipality": "Vitoria-Gasteiz",
        "county": "Araba/Álava",
        "municipalityId": "059",
        "countyId": "01"
      },
      "economicActivities": [
        {
          "id": "1.654.5",
          "name": "Venta al por menor de toda clase de maquinaría",
          "_links": {
            "self": {
              "name": "Venta al por menor de toda clase de maquinaría",
              "href": "https://api.euskadi.eus/procurements/companies/economic-activities/1.654.5"
            }
          }
        },
        {
          "id": "1.852",
          "name": "Alquiler de maquinaria y equipo para la construcción",
          "_links": {
            "self": {
              "name": "Alquiler de maquinaria y equipo para la construcción",
              "href": "https://api.euskadi.eus/procurements/companies/economic-activities/1.852"
            }
          }
        }
      ],
      "certificateStartDate": "2020-06-12",
      "certificateEndDate": "2020-12-01",
      "object": "LA COMPRAVENTA Y ALQUILER DE MAQUINARIA PARA LA CONSTRUCCIÓN",
      "mainEntityOfPage": "https://www.contratacion.euskadi.eus/webkpe00-kperoc/es/ac71aBusquedaRegistrosWar/empresa/07090",
      "_links": {
        "self": {
          "name": "URTZI ALZOLA, S.L.",
          "href": "https://api.euskadi.eus/procurements/companies/07090"
        }
      }
    }
  ]
}