{
  "totalItems": 9042,
  "totalPages": 905,
  "currentPage": 425,
  "itemsOfPage": 10,
  "items": [
    {
      "name": "WEB DREAMS, S.L.",
      "registrationNumber": "09041",
      "identificationNumber": "B22237846",
      "address": "PASEO RAMON Y CAJAL 3 PRAL. OF. A Y B",
      "location": {
        "postalCode": "22001",
        "municipality": "Huesca",
        "county": "Huesca",
        "municipalityId": "125",
        "countyId": "22"
      },
      "economicActivities": [
        {
          "id": "1.845",
          "name": "Explotación electrónica por cuenta de terceros",
          "_links": {
            "self": {
              "name": "Explotación electrónica por cuenta de terceros",
              "href": "https://api.euskadi.eus/procurements/companies/economic-activities/1.845"
            }
          }
        }
      ],
      "certificateStartDate": "2024-05-01",
      "certificateEndDate": "2024-11-01",
      "object": "SERVICIOS DE ESTUDIO Y ANÁLISIS DE PROCESOS PARA SU TRATAMIENTO MECÁNICO, DE PROGRAMACIÓN PARA EQUIPOS ELECTRÓNICOS, DE REGISTRO DE DATOS EN SOPORTES DE ENTRADA PARA ORDENADORES, ASÍ COMO LA VENTA DE PROGRAMAS, EL PROCESO DE DATOS POR CUENTA DE TERCEROS Y OTROS SERVICIOS INDEPENDIENTES DE ELABORACIÓN DE DATOS Y TABULACIÓN.",
      "mainEntityOfPage": "https://www.contratacion.euskadi.eus/webkpe00-kperoc/es/ac71aBusquedaRegistrosWar/empresa/09041",
      "_links": {
        "self": {
          "name": "WEB DREAMS, S.L.",
          "href": "https://api.euskadi.eus/procurements/companies/09041"
        }
      }
    },
    {
      "name": "SITTA SILLERIA DE OFICINA, S.L.L.",
      "registrationNumber": "05065",
      "identificationNumber": "B95690665",
      "address": "C/ Bolinaga, nº 7",
      "location": {
        "postalCode": "48180",
        "municipality": "Loiu",
        "county": "Bizkaia",
        "municipalityId": "903",
        "countyId": "48"
      },
      "economicActivities": [
        {
          "id": "1.316.6",
          "name": "Fabricación de mobiliario metálico",
          "_links": {
            "self": {
              "name": "Fabricación de mobiliario metálico",
              "href": "https://api.euskadi.eus/procurements/companies/economic-activities/1.316.6"
            }
          }
        },
        {
          "id": "1.615.2",
          "name": "Venta al por mayor de muebles",
          "_links": {
            "self": {
              "name": "Venta al por mayor de muebles",
              "href": "https://api.euskadi.eus/procurements/companies/economic-activities/1.615.2"
            }
          }
        }
      ],
      "certificateStartDate": "2024-05-01",
      "certificateEndDate": "2024-11-01",
      "object": "COMPRAVENTA, MONTAJE, TAPIZADO, REPARACIÓN Y DISEÑO DE SILLAS DE OFICINA Y DE TODO TIPO DE MOBILIARIO DE OFICINA",
      "mainEntityOfPage": "https://www.contratacion.euskadi.eus/webkpe00-kperoc/es/ac71aBusquedaRegistrosWar/empresa/05065",
      "_links": {
        "self": {
          "name": "SITTA SILLERIA DE OFICINA, S.L.L.",
          "href": "https://api.euskadi.eus/procurements/companies/05065"
        }
      }
    },
    {
      "name": "ARBESKO EGOITZA, S.L.",
      "registrationNumber": "08679",
      "identificationNumber": "B10996080",
      "address": "Zuatzu 1, Edificio Ulia, 1 planta 4 Local",
      "location": {
        "postalCode": "20018",
        "municipality": "Donostia / San Sebastián",
        "county": "Gipuzkoa",
        "municipalityId": "069",
        "countyId": "20"
      },
      "economicActivities": [
        {
          "id": "1.501.1",
          "name": "Construcción completa, reparación y conservación de edificaciones",
          "_links": {
            "self": {
              "name": "Construcción completa, reparación y conservación de edificaciones",
              "href": "https://api.euskadi.eus/procurements/companies/economic-activities/1.501.1"
            }
          }
        }
      ],
      "certificateStartDate": "2024-04-30",
      "certificateEndDate": "2024-10-30",
      "object": "INVERTIR, PROMOVER, GESTIONAR, CONSTRUIR Y EXPLOTAR RESIDENCIAS PARA PERSONAS MAYORES, PERSONAS CON DISCAPACIDAD Y VIVIENDAS TUTELADAS, CUALQUIERA QUE SEA SU MODALIDAD EN LOS TÉRMINOS QUE SE RECOJA EN LA NORMATIVA VIGENTE Y ESPECIALMENTE EN MODELOS DE CONCESIÓN DE DOMINIO PÚBLICO. SE COMPRENDE ASIMISMO EN EL OBJETO DE LA SOCIEDAD LA PRESTACIÓN DE SERVICIOS DE ASISTENCIA SOCIAL Y SANITARIA MEDIANTE PERSONAL CUALIFICADO (MÉDICOS, PSICÓLOGOS, PEDAGOGOS, ENFERMEROS, ASISTENTES SOCIALES, FISIOTERAPEUTAS, TERAPEUTAS OCUPACIONALES, ETC.) A LOS SIGUIENTES COLECTIVOS: PERSONAS MAYORES, MINUSVÁLIDOS, FAMILIAS, INFANCIA, MUJERES SOLITARIAS CON CARGAS FAMILIARES NO COMPARTIDAS, DISCAPACITADOS FÍSICOS Y PSÍQUICOS Y PERSONAS O GRUPOS DE POBLACIÓN EN SITUACIÓN DE NECESIDAD, MEDIANTE LA REALIZACIÓN DE TODOS O PARTE DE LOS SERVICIOS Y PRESTACIONES ECONÓMICAS INCLUIDAS EN EL CATÁLOGO DEL SISTEMA VASCO DE SERVICIOS SOCIALES DE LA COMUNIDAD AUTÓNOMA DEL PAÍS VASCO.",
      "mainEntityOfPage": "https://www.contratacion.euskadi.eus/webkpe00-kperoc/es/ac71aBusquedaRegistrosWar/empresa/08679",
      "_links": {
        "self": {
          "name": "ARBESKO EGOITZA, S.L.",
          "href": "https://api.euskadi.eus/procurements/companies/08679"
        }
      }
    },
    {
      "name": "VYGON, S.A.",
      "registrationNumber": "03485",
      "identificationNumber": "A28536480",
      "address": "C/CIUDAD DE SEVILLA, 34",
      "location": {
        "postalCode": "46988",
        "municipality": "Paterna",
        "county": "Valencia/València",
        "municipalityId": "190",
        "countyId": "46"
      },
      "economicActivities": [
        {
          "id": "1.619.2",
          "name": "Venta al por mayor de aparatos e instrumentos médicos, ortopédicos, ópticos",
          "_links": {
            "self": {
              "name": "Venta al por mayor de aparatos e instrumentos médicos, ortopédicos, ópticos",
              "href": "https://api.euskadi.eus/procurements/companies/economic-activities/1.619.2"
            }
          }
        }
      ],
      "certificateStartDate": "2024-04-30",
      "certificateEndDate": "2024-10-30",
      "object": "LA FABRICACIÓN Y DISTRIBUCIÓN DE MATERIAL MÉDICO-QUIRÚRGICO, FABRICADO CON LA TÉCNICA DE VIGON, S.A. DE FRANCIA Y SUS FILIALES Y FÁBRICAS PROPIAS EN OTROS PAÍSES INCLUSO ESPAÑA, IMPORTACIÓN Y EXPORTACIÓN Y DEMÁS ACTIVIDADES DE LÍCITO COMERCIO VINCULADAS AL OBJETO SOCIAL ENUNCIADO",
      "mainEntityOfPage": "https://www.contratacion.euskadi.eus/webkpe00-kperoc/es/ac71aBusquedaRegistrosWar/empresa/03485",
      "_links": {
        "self": {
          "name": "VYGON, S.A.",
          "href": "https://api.euskadi.eus/procurements/companies/03485"
        }
      }
    },
    {
      "name": "AINARA GARCÍA AGUILERA",
      "registrationNumber": "09038",
      "identificationNumber": "45671817G",
      "address": "LANZAGORTA 12 BAJO IZDA",
      "location": {
        "postalCode": "48860",
        "municipality": "Zalla",
        "county": "Bizkaia",
        "municipalityId": "096",
        "countyId": "48"
      },
      "economicActivities": [
        {
          "id": "2.411",
          "name": "Arquitectos",
          "_links": {
            "self": {
              "name": "Arquitectos",
              "href": "https://api.euskadi.eus/procurements/companies/economic-activities/2.411"
            }
          }
        },
        {
          "id": "2.432",
          "name": "Decoradores-diseñadores de interiores",
          "_links": {
            "self": {
              "name": "Decoradores-diseñadores de interiores",
              "href": "https://api.euskadi.eus/procurements/companies/economic-activities/2.432"
            }
          }
        }
      ],
      "certificateStartDate": "2024-04-29",
      "certificateEndDate": "2024-10-29",
      "object": "ARQUITECTOS. DECORADORES-DISEÑADORES DE INTERIORES.",
      "mainEntityOfPage": "https://www.contratacion.euskadi.eus/webkpe00-kperoc/es/ac71aBusquedaRegistrosWar/empresa/09038",
      "_links": {
        "self": {
          "name": "AINARA GARCÍA AGUILERA",
          "href": "https://api.euskadi.eus/procurements/companies/09038"
        }
      }
    },
    {
      "name": "LIMPIEZAS TXUKUN GARBIKETAK, S.L.",
      "registrationNumber": "08030",
      "identificationNumber": "B75037101",
      "address": "CL SAN PEDRO, Nº 9 (LOCALES 3 y 4)",
      "location": {
        "postalCode": "20304",
        "municipality": "Irun",
        "county": "Gipuzkoa",
        "municipalityId": "045",
        "countyId": "20"
      },
      "economicActivities": [
        {
          "id": "1.652.2",
          "name": "Venta al por menor de productos de droguería y productos para decoración",
          "_links": {
            "self": {
              "name": "Venta al por menor de productos de droguería y productos para decoración",
              "href": "https://api.euskadi.eus/procurements/companies/economic-activities/1.652.2"
            }
          }
        },
        {
          "id": "1.922.1",
          "name": "Servicios de limpieza de interiores",
          "_links": {
            "self": {
              "name": "Servicios de limpieza de interiores",
              "href": "https://api.euskadi.eus/procurements/companies/economic-activities/1.922.1"
            }
          }
        }
      ],
      "certificateStartDate": "2024-04-27",
      "certificateEndDate": "2024-10-27",
      "object": "SERVICIOS DE LIMPIEZA E HIGIENIZACIÓN DE NAVES INDUSTRIALES, COMERCIOS Y VIVIENDAS.",
      "mainEntityOfPage": "https://www.contratacion.euskadi.eus/webkpe00-kperoc/es/ac71aBusquedaRegistrosWar/empresa/08030",
      "_links": {
        "self": {
          "name": "LIMPIEZAS TXUKUN GARBIKETAK, S.L.",
          "href": "https://api.euskadi.eus/procurements/companies/08030"
        }
      }
    },
    {
      "name": "MARCOS IVAN TOLEDO COBOS",
      "registrationNumber": "08074",
      "identificationNumber": "X3889493D",
      "address": "C/ ZAMAKOLA, 51 12º IZDA-IZDA",
      "location": {
        "postalCode": "48003",
        "municipality": "Bilbao",
        "county": "Bizkaia",
        "municipalityId": "020",
        "countyId": "48"
      },
      "economicActivities": [
        {
          "id": "1.912",
          "name": "Servicios forestales",
          "_links": {
            "self": {
              "name": "Servicios forestales",
              "href": "https://api.euskadi.eus/procurements/companies/economic-activities/1.912"
            }
          }
        }
      ],
      "certificateStartDate": "2024-04-26",
      "certificateEndDate": "2024-10-26",
      "object": "SERVICIOS FORESTALES.",
      "mainEntityOfPage": "https://www.contratacion.euskadi.eus/webkpe00-kperoc/es/ac71aBusquedaRegistrosWar/empresa/08074",
      "_links": {
        "self": {
          "name": "MARCOS IVAN TOLEDO COBOS",
          "href": "https://api.euskadi.eus/procurements/companies/08074"
        }
      }
    },
    {
      "name": "PEZESTUDIO, S.C.",
      "registrationNumber": "07139",
      "identificationNumber": "J86616653",
      "address": "Plaza de la Cantera, nº5, 2º",
      "location": {
        "postalCode": "48003",
        "municipality": "Bilbao",
        "county": "Bizkaia",
        "municipalityId": "020",
        "countyId": "48"
      },
      "economicActivities": [
        {
          "id": "1.843.2",
          "name": "Servicios técnicos de arquitectura y urbanismo",
          "_links": {
            "self": {
              "name": "Servicios técnicos de arquitectura y urbanismo",
              "href": "https://api.euskadi.eus/procurements/companies/economic-activities/1.843.2"
            }
          }
        },
        {
          "id": "1.934",
          "name": "Enseñanza fuera de establecimiento permanente",
          "_links": {
            "self": {
              "name": "Enseñanza fuera de establecimiento permanente",
              "href": "https://api.euskadi.eus/procurements/companies/economic-activities/1.934"
            }
          }
        },
        {
          "id": "1.966.9",
          "name": "Otros servicios culturales n.c.o.p",
          "_links": {
            "self": {
              "name": "Otros servicios culturales n.c.o.p",
              "href": "https://api.euskadi.eus/procurements/companies/economic-activities/1.966.9"
            }
          }
        }
      ],
      "certificateStartDate": "2024-04-26",
      "certificateEndDate": "2024-10-26",
      "object": "1) LLEVAR A CABO LOS TRABAJOS QUE SEAN PROPIOS DE LAS ACTIVIDADES DE DISEÑO, ARQUITECTURA Y URBANISMO Y TRABAJOS RELACIONADOS CON LAS REFERIDAS ACTIVIDADES, ASÍ COMO SU DIRECCIÓN Y GESTIÓN. 2) LA ASUNCIÓN POR PARTE DE LA SOCIEDAD, EN REPRESENTACIÓN DE LOS CLIENTES Y POR CUENTA DE LOS MISMOS, DE LAS ACTIVIDADES DE GESTIÓN, ASESORÍA Y ADMINISTRACIÓN QUE TENGAN RELACIÓN Y SEAN COMPATIBLES CON LAS MISIONES PROFESIONALES ENCARGADAS",
      "mainEntityOfPage": "https://www.contratacion.euskadi.eus/webkpe00-kperoc/es/ac71aBusquedaRegistrosWar/empresa/07139",
      "_links": {
        "self": {
          "name": "PEZESTUDIO, S.C.",
          "href": "https://api.euskadi.eus/procurements/companies/07139"
        }
      }
    },
    {
      "name": "VICENTE JOSÉ AGUILAR CARBAJOSA",
      "registrationNumber": "07528",
      "identificationNumber": "16275874Q",
      "address": "Buelvar de Salburua, 8 - 2º A",
      "location": {
        "postalCode": "01002",
        "municipality": "Vitoria-Gasteiz",
        "county": "Araba/Álava",
        "municipalityId": "059",
        "countyId": "01"
      },
      "economicActivities": [
        {
          "id": "1.501.1",
          "name": "Construcción completa, reparación y conservación de edificaciones",
          "_links": {
            "self": {
              "name": "Construcción completa, reparación y conservación de edificaciones",
              "href": "https://api.euskadi.eus/procurements/companies/economic-activities/1.501.1"
            }
          }
        },
        {
          "id": "1.849.9",
          "name": "Otros servicios independientes n.c.o.p",
          "_links": {
            "self": {
              "name": "Otros servicios independientes n.c.o.p",
              "href": "https://api.euskadi.eus/procurements/companies/economic-activities/1.849.9"
            }
          }
        }
      ],
      "certificateStartDate": "2024-04-26",
      "certificateEndDate": "2024-10-25",
      "object": "OTROS SERVICIOS INDEPENDIENTES N.C.O.P.",
      "mainEntityOfPage": "https://www.contratacion.euskadi.eus/webkpe00-kperoc/es/ac71aBusquedaRegistrosWar/empresa/07528",
      "_links": {
        "self": {
          "name": "VICENTE JOSÉ AGUILAR CARBAJOSA",
          "href": "https://api.euskadi.eus/procurements/companies/07528"
        }
      }
    },
    {
      "name": "A.F.C & ASOCIADOS SERVICIOS JURIDICOS, S.L.",
      "registrationNumber": "08746",
      "identificationNumber": "B95186490",
      "address": "CALLE LUIS BILBAO LIBANO 28 1ºA-B ",
      "location": {
        "postalCode": "48940",
        "municipality": "Leioa",
        "county": "Bizkaia",
        "municipalityId": "054",
        "countyId": "48"
      },
      "economicActivities": [
        {
          "id": "1.834",
          "name": "Servicios relativos a la propiedad inmobiliaria e industrial",
          "_links": {
            "self": {
              "name": "Servicios relativos a la propiedad inmobiliaria e industrial",
              "href": "https://api.euskadi.eus/procurements/companies/economic-activities/1.834"
            }
          }
        },
        {
          "id": "1.841",
          "name": "Servicios jurídicos",
          "_links": {
            "self": {
              "name": "Servicios jurídicos",
              "href": "https://api.euskadi.eus/procurements/companies/economic-activities/1.841"
            }
          }
        }
      ],
      "certificateStartDate": "2024-04-26",
      "certificateEndDate": "2024-10-23",
      "object": "A) LA ACTIVIDAD PROPIA DE LOS ABOGADOS. B) LA ACTIVIDAD PROPIA DE LOS ADMINISTRADORES DE FINCAS.",
      "mainEntityOfPage": "https://www.contratacion.euskadi.eus/webkpe00-kperoc/es/ac71aBusquedaRegistrosWar/empresa/08746",
      "_links": {
        "self": {
          "name": "A.F.C & ASOCIADOS SERVICIOS JURIDICOS, S.L.",
          "href": "https://api.euskadi.eus/procurements/companies/08746"
        }
      }
    }
  ]
}