{
  "totalItems": 9042,
  "totalPages": 905,
  "currentPage": 627,
  "itemsOfPage": 10,
  "items": [
    {
      "name": "CEDYC, S. COOP.",
      "registrationNumber": "03123",
      "identificationNumber": "F95284873",
      "address": "GRAN VÍA, 74 -2º izda.",
      "location": {
        "postalCode": "48011",
        "municipality": "Bilbao",
        "county": "Bizkaia",
        "municipalityId": "020",
        "countyId": "48"
      },
      "economicActivities": [
        {
          "id": "1.847",
          "name": "Servicios de consultoría",
          "_links": {
            "self": {
              "name": "Servicios de consultoría",
              "href": "https://api.euskadi.eus/procurements/companies/economic-activities/1.847"
            }
          }
        }
      ],
      "certificateStartDate": "2018-08-12",
      "certificateEndDate": "2019-02-11",
      "object": "EL OBJETO DE ESTA SOCIEDAD COOPERATIVA ES LA PRESTACIÓN DE SERVICIOS DE CONSULTORÍA INFORMÁTICA, ESPECIALMENTE LOS ENCUADRADOS Y RELACIONADOS CON LAS DENOMINADAS TECNOLOGÍAS DE LA INFORMACIÓN Y COMUNICACIÓN (TIC´s), ASÍ COMO LA ELABORACIÓN Y LA IMPLANTACIÓN DE PROGRAMAS INFORMÁTICOS, TANTO A MEDIDA COMO ESTANDARIZADOS, LA IMPARTICIÓN DE LA FORMACIÓN PRECISA PARA LOS USUARIOS DE SUS PROGRAMAS O SERVICIOS ODE CONSULTORÍA INFORMÁTICA, SERVICIOS ENTRE LOS CUALES SE INCLUYEN LA FIRMA ELECTRÓNICA, MEDIDAS Y PRODUCTOS DE SEGURIDAD PARA EL USO DE LAS TIC´s Y LA COMERCIALIZACIÓN DE TODO TIPO DE EQUIPOS, PROGRAMAS Y PRODUCTOS INFORMÁTICOS, LOS CUALES SE COMERCIALIZARAN POR CUALQUIERA DE LAS DIFERENTES MODALIDADES INCLUIDA EL RENTING INFORMÁTICO ",
      "mainEntityOfPage": "https://www.contratacion.euskadi.eus/webkpe00-kperoc/es/ac71aBusquedaRegistrosWar/empresa/03123",
      "_links": {
        "self": {
          "name": "CEDYC, S. COOP.",
          "href": "https://api.euskadi.eus/procurements/companies/03123"
        }
      }
    },
    {
      "name": "INSTALACIONES ELÉCTRICAS SCORPIO, S.A.",
      "registrationNumber": "04674",
      "identificationNumber": "A48961494",
      "address": "Barrio Elotxelerri, calle Nafarroa, bloque nº 2",
      "location": {
        "postalCode": "48180",
        "municipality": "Loiu",
        "county": "Bizkaia",
        "municipalityId": "903",
        "countyId": "48"
      },
      "economicActivities": [
        {
          "id": "1.504.11",
          "name": "Instalaciones eléctricas en general, redes telegráficas, telefonía, tv, etc",
          "_links": {
            "self": {
              "name": "Instalaciones eléctricas en general, redes telegráficas, telefonía, tv, etc",
              "href": "https://api.euskadi.eus/procurements/companies/economic-activities/1.504.11"
            }
          }
        }
      ],
      "certificateStartDate": "2018-08-08",
      "certificateEndDate": "2019-02-05",
      "object": "LA ELABORACIÓN DE ESTUDIOS, PROYECTOS, ASESORAMIENTO, MONTAJE Y MANTENIMIENTO REFERIDO A TODA CLASE DE INSTALACIONES ELÉCTRICAS, TANTO PÚBLICAS COMO PRIVADAS. LA COMERCIALIZACIÓN, MONTAJE, DISEÑO, FABRICACIÓN, CONSTRUCCIÓN, ESTUDIOS TÉCNICOS, INFORMES Y ASISTENCIA TÉCNICA DE TODA CLASE DE APARATOS Y COMPONENTES ELÉCTRICOS Y ELCTRÓNICOS. ASÍ COMO LA ADQUISICIÓN, EXPLOTACIÓN Y ENAJENACIÓN DE BIENES INMUEBLES",
      "mainEntityOfPage": "https://www.contratacion.euskadi.eus/webkpe00-kperoc/es/ac71aBusquedaRegistrosWar/empresa/04674",
      "_links": {
        "self": {
          "name": "INSTALACIONES ELÉCTRICAS SCORPIO, S.A.",
          "href": "https://api.euskadi.eus/procurements/companies/04674"
        }
      }
    },
    {
      "name": "EITBNET, S.A.",
      "registrationNumber": "02916",
      "identificationNumber": "A95267936",
      "address": "C/ CAPUCHINOS DE BASURTO",
      "location": {
        "postalCode": "48013",
        "municipality": "Bilbao",
        "county": "Bizkaia",
        "municipalityId": "020",
        "countyId": "48"
      },
      "economicActivities": [
        {
          "id": "1.845",
          "name": "Explotación electrónica por cuenta de terceros",
          "_links": {
            "self": {
              "name": "Explotación electrónica por cuenta de terceros",
              "href": "https://api.euskadi.eus/procurements/companies/economic-activities/1.845"
            }
          }
        }
      ],
      "certificateStartDate": "2018-07-30",
      "certificateEndDate": "2018-12-11",
      "object": "1) LA PRODUCCIÓN, REPRODUCCIÓN, PUBLICACIÓN, COMPRA, VENTA, EXPLOTACIÓN COMERCIAL Y DISTRIBUCIÓN DE CONTENIDOS PARA LA SOCIEDAD DE LA INFORMACIÓN Y ESPECIALMENTE LOS INTERACTIVOS, MULTIMEDIA Y EN RED PARA LOS NUEVOS SOPORTES DE COMUNICACIÓN Y SERVICIO.\r\n\r\n2) LA PUESTA EN MARCHA Y MANTENIMIENTO DE CANALES DE COMUNICACIÓN Y DE SERVICIO EN ESTOS NUEVOS SOPORTES REPRESENTADOS HOY POR LA TELEVISIÓN DIGITAL, TELETEXTO, INTERNET Y TELEFONÍA MÓVIL Y EN UN FUTURO POR LOS QUE EL DESARROLLO TECNOLÓGICO HAGA POSIBLE.\r\n\r\n3) LA COLABORACIÓN CON CENTROS TECNOLÓGICOS EN PROYECTOS DE INNOVACIÓN  EN ESTE MISMO ÁMBITO.\r\n\r\n4) LA PARTICIPACIÓN EN PROYECTOS EMPRESARIALES Y EN ALIANZAS DE CARÁCTER ESTRATÉGICO QUE CONTRIBUYAN AL DESARROLLO DEL SECTOR AUDIOVISUAL VASCO Y A LA APERTURA DEL SECTOR HACIA OTROS MERCADOS.\r\nQUEDAN EXCLUÍDAS DEL OBJETO SOCIAL TODAS AQUELLAS ACTIVIDADES PARA CUYO EJERCICIO LA LEY EXIJA REQUISITOS ESPECIALES QUE NO QUEDEN CUMPLIDOS POR ESTA SOCIEDAD\r\n",
      "mainEntityOfPage": "https://www.contratacion.euskadi.eus/webkpe00-kperoc/es/ac71aBusquedaRegistrosWar/empresa/02916",
      "_links": {
        "self": {
          "name": "EITBNET, S.A.",
          "href": "https://api.euskadi.eus/procurements/companies/02916"
        }
      }
    },
    {
      "name": "CONSTRUCCIONES LEGASKO, S.L.",
      "registrationNumber": "02253",
      "identificationNumber": "B48591424",
      "address": "C/ Uribitarte, nº 22-4º C-D",
      "location": {
        "postalCode": "48001",
        "municipality": "Bilbao",
        "county": "Bizkaia",
        "municipalityId": "020",
        "countyId": "48"
      },
      "economicActivities": [
        {
          "id": "1.501.1",
          "name": "Construcción completa, reparación y conservación de edificaciones",
          "_links": {
            "self": {
              "name": "Construcción completa, reparación y conservación de edificaciones",
              "href": "https://api.euskadi.eus/procurements/companies/economic-activities/1.501.1"
            }
          }
        },
        {
          "id": "1.501.2",
          "name": "Construcción completa, reparación y conservación obras civiles",
          "_links": {
            "self": {
              "name": "Construcción completa, reparación y conservación obras civiles",
              "href": "https://api.euskadi.eus/procurements/companies/economic-activities/1.501.2"
            }
          }
        },
        {
          "id": "1.504.3",
          "name": "Instalaciones de frío, calor y acondicionamiento de aire",
          "_links": {
            "self": {
              "name": "Instalaciones de frío, calor y acondicionamiento de aire",
              "href": "https://api.euskadi.eus/procurements/companies/economic-activities/1.504.3"
            }
          }
        },
        {
          "id": "1.861.2",
          "name": "Alquiler de locales industriales y otros alquileres n.c.o.p",
          "_links": {
            "self": {
              "name": "Alquiler de locales industriales y otros alquileres n.c.o.p",
              "href": "https://api.euskadi.eus/procurements/companies/economic-activities/1.861.2"
            }
          }
        }
      ],
      "certificateStartDate": "2018-07-27",
      "certificateEndDate": "2019-01-04",
      "object": "LA CONSTRUCCIÓN Y EL NEGOCIO INMOBILIARIO EN GENERAL; EFECTUAR TODA CLASE DE CONSTRUCCIONES, EDIFICACIONES Y OBRAS, TANTO PÚBLICAS COMO PRIVADAS, Y SOBRE TODA CLASE DE BIENES INMUEBLES; ADQUIRIR, ADMINISTRAR Y ENAJENAR TODA CLASE DE FINCAS RÚSTICAS Y URBANAS, MATERIALES, MAQUINARIA, OBJETOS Y VEHÍCULOS DE MOTOR RELACIONADOS CON LA INDUSTRIA DE LA CONSTRUCCIÓN Y DE OBRAS, TANTO PÚBLICAS COMO PRIVADAS",
      "mainEntityOfPage": "https://www.contratacion.euskadi.eus/webkpe00-kperoc/es/ac71aBusquedaRegistrosWar/empresa/02253",
      "_links": {
        "self": {
          "name": "CONSTRUCCIONES LEGASKO, S.L.",
          "href": "https://api.euskadi.eus/procurements/companies/02253"
        }
      }
    },
    {
      "name": "ASOCIACION BCAM-BASQUE CENTER FOR APPLIED MATHEMATICS",
      "registrationNumber": "05824",
      "identificationNumber": "G95543526",
      "address": "Alameda Mazarredo, 14",
      "location": {
        "postalCode": "48009",
        "municipality": "Bilbao",
        "county": "Bizkaia",
        "municipalityId": "020",
        "countyId": "48"
      },
      "economicActivities": [
        {
          "id": "1.936",
          "name": "Investigación científica y técnica",
          "_links": {
            "self": {
              "name": "Investigación científica y técnica",
              "href": "https://api.euskadi.eus/procurements/companies/economic-activities/1.936"
            }
          }
        }
      ],
      "certificateStartDate": "2018-07-27",
      "certificateEndDate": "2018-11-24",
      "object": "INVESTIGACIÓN CIENTÍFICA DE EXCELENCIA Y DIMENSIÓN INTERNACIONAL, DE CARÁCTER INTERDISCIPLINAR EN MATEMÁTICAS Y ÁREAS AFINES, PRESTANDO ESPECIAL ATENCIÓN A LOS ASPECTOS MÁS APLICADOS Y COMPUTACIONALES, QUE SERÁN ESPECIFICADAS EN EL PROGRAMA DE INVESTIGACIÓN Y VIGENTE EN CADA MOMENTO. FORMACIÓN DE ALTO NIVEL EN ASPECTOS RELACIONADOS CON LAS MATERIAS DESARROLLADAS EN EL PROGRAMA DE INVESTIGACIÓN VIGENTE EN CADA MOMENTO. DIFUSIÓN Y TRANSFERENCIA DE CONOCIMIENTO SOBRE TEMAS RELACIONADOS CON LAS MATEMÁTICAS PARA SU APROVECHAMIENTO POR LOS SOCIOS Y LA SOCIEDAD, EN GENERAL. AUMENTAR EL IMPACTO DE LOS RESULTADOS DE LA INVESTIGACIÓN TANTO EN EL ÁMBITO ACADÉMICO-CIENTÍFICO, COMO TECNOLÓGICO Y SOCIAL. ACTUAR COMO OBSERVATORIO DE LA INVESTIGACIÓN EN SUS CAMPOS DE ACTIVIDAD Y REALIZAR LABORES DE PROSPECTIVA. ESTIMULAR LA PARTICIPACIÓN DE LA SOCIEDAD CIVIL, MOVILIZANDO SUS RECURSOS EN BENEFICIO DE UNIVERSIDADES, ORGANISMOS PÚBLICOS DE INVESTIGACIÓN Y CENTROS DE INNOVACIÓN Y TECNOLOGÍA DE COMUNIDAD AUTÓNOMA DEL PAÍS VASCO. ESTIMULAR LA VOCACIÓN DE LOS JÓVENES HACIA LA INVESTIGACIÓN MATEMÁTICA. ASESORAR EN LA CREACIÓN DE NUEVAS EMPRESAS. SELECCIONAR Y CONTRATAR A UN DIRECTOR CIENTÍFICO QUE SERÁ EL RESPONSABLE DEL PROGRAMA DE INVESTIGACIÓN, SEGÚN SE INDICA EN LOS ARTÍCULOS 27 Y 28 DE ESTOS ESTATUTOS. DESARROLLAR ACTIVIDADES ECONÓMICAS DE TODO TIPO, ENCAMINADAS A LA REALIZACIÓN DE SUS FINES O A ALLEGAR RECURSOS CON ESE OBJETIVO. ADQUIRIR Y POSEER BIENES DE TODAS CLASES Y POR CUALQUIER TÍTULO, ASÍ COMO CELEBRAR ACTOS Y CONTRATOS DE TODO GÉNERO. ESTABLECER REDES DE COLABORACIÓN CON ENTIDADES QUE COMPARTAN OBJETIVOS FUNDACIONALES DE LA ASOCIACIÓN. INTERNACIONALIZACIÓN DE ACTIVIDADES POR INTERCAMBIO CON GRUPOS DE INVESTIGACIÓN EXTRANJEROS, USO COMPARTIDO DE INSTALACIONES Y PARTICIPACIÓN CONJUNTA EN PROGRAMAS Y PROYECTOS INTERNACIONALES, PRINCIPALMENTE DEL PROGRAMA MARCO DE LA UNIÓN EUROPEA Y DE LA EUROPEAN SCIENCE FOUNDATION. COLABORAR CON LOS SECTORES PÚBLICO Y PRIVADO, PARA CANALIZAR LAS NECESIDADES EMPRESARIALES Y SOCIALES MEDIANTE LA PUESTA EN MARCHA DE PROGRAMAS Y PROYECTOS CIENTÍFICO-TECNOLÓGICOS ESTRATÉGICOS. CONCEDER BECAS Y AYUDAS A INVESTIGADORES CALIFICADOS COMO EXCELENTES Y ESPECIALIZADOS EN LAS ÁREAS DE INVESTIGACIÓN DEL CENTRO. EJERCITAR TODA CLASE DE ACCIONES CONFORME A LAS LEYES O A SUS ESTATUTOS",
      "mainEntityOfPage": "https://www.contratacion.euskadi.eus/webkpe00-kperoc/es/ac71aBusquedaRegistrosWar/empresa/05824",
      "_links": {
        "self": {
          "name": "ASOCIACION BCAM-BASQUE CENTER FOR APPLIED MATHEMATICS",
          "href": "https://api.euskadi.eus/procurements/companies/05824"
        }
      }
    },
    {
      "name": "ELECTRIFICACIONES RIOJANAS, S. A.",
      "registrationNumber": "04863",
      "identificationNumber": "A26013656",
      "address": "POLÍGONO INDUSTRIAL EL PRADO, PARCELAS G7 - G8",
      "location": {
        "postalCode": "01320",
        "municipality": "Oyón-Oion",
        "county": "Araba/Álava",
        "municipalityId": "043",
        "countyId": "01"
      },
      "economicActivities": [
        {
          "id": "1.151.4",
          "name": "Producción de energía no especificada en otros epígrafes",
          "_links": {
            "self": {
              "name": "Producción de energía no especificada en otros epígrafes",
              "href": "https://api.euskadi.eus/procurements/companies/economic-activities/1.151.4"
            }
          }
        },
        {
          "id": "1.504.1",
          "name": "Instalaciones eléctricas en general",
          "_links": {
            "self": {
              "name": "Instalaciones eléctricas en general",
              "href": "https://api.euskadi.eus/procurements/companies/economic-activities/1.504.1"
            }
          }
        },
        {
          "id": "1.504.3",
          "name": "Instalaciones de frío, calor y acondicionamiento de aire",
          "_links": {
            "self": {
              "name": "Instalaciones de frío, calor y acondicionamiento de aire",
              "href": "https://api.euskadi.eus/procurements/companies/economic-activities/1.504.3"
            }
          }
        },
        {
          "id": "1.653.2",
          "name": "Venta al por menor de material y aparatos eléctricos, electrodomésticos y cocina",
          "_links": {
            "self": {
              "name": "Venta al por menor de material y aparatos eléctricos, electrodomésticos y cocina",
              "href": "https://api.euskadi.eus/procurements/companies/economic-activities/1.653.2"
            }
          }
        }
      ],
      "certificateStartDate": "2018-07-22",
      "certificateEndDate": "2019-01-22",
      "object": "LA REALIZACIÓN DE TODO TIPO DE PROYECTOS, INSTALACIONES Y MONTAJES ELÉCTRICOS DE ALTA Y BAJA TENSIÓN, INCLUIDA OBRA CIVIL. LA REALIZACIÓN DE CONSULTORÍA ESPECIALIZADA EN MATERIA DE SUMINISTRO ELÉCTRICO, AHORRO ENERGÉTICO, MEDICIONES Y PRUEBAS DE LABORATORIO. LA PRODUCCIÓN Y VENTA DE ENERGÍA ELÉCTRIA OBTENIDA A TRAVÉS DEL APROVECHAMIENTO DE FUENTES DE ENERGÍA RENOVABLES, COMO LA SOLAR. LA COMPRA Y VENTA DE INMUEBLES DE TODAS CLASES, URBANOS O RÚSTICOS, SU URBANIZACIÓN Y PARCELACIÓN ASÍ COMO SU ARRENDAMIENTO. LA PROMOCIÓN DE EDIFICIOS Y ARRENDAMIENTO DE LOS MISMOS, YA SEA EN BLOQUES O EN PARTES. LA REALIZACIÓN EN GENERAL DE INSTALACIONES Y MANTENIMIENTOS DE FONTANERÍA, SANEAMIENTO, CONDUCCIONES Y CANALIZACIONES DE AGUA, AIRE ACONDICIONADO, GAS, CALEFACCIÓN, AIRE ACONDICIONADO, FRIGORÍFICOS, INSTALACIONES TÉRMICAS DE ENERGÍA SOLAR, GEOTÉRMICAS, DE BIOMASA Y CUALQUIER OTRA ENERGÍA RENOVABLE, DE PROTECCIÓN CONTRA INCENDIOS E INSTLACIONES INDUSTRIALES, INCLUYENDO LA COMPRA, VENTA Y LA DISTRIBUCIÓN DE LOS MATERIALES Y ELEMENTOS PRECISOS PARA ELLO",
      "mainEntityOfPage": "https://www.contratacion.euskadi.eus/webkpe00-kperoc/es/ac71aBusquedaRegistrosWar/empresa/04863",
      "_links": {
        "self": {
          "name": "ELECTRIFICACIONES RIOJANAS, S. A.",
          "href": "https://api.euskadi.eus/procurements/companies/04863"
        }
      }
    },
    {
      "name": "ACTYLAB S.L.",
      "registrationNumber": "05820",
      "identificationNumber": "B26413351",
      "address": "GENERAL URRUTIA , 8 2º-B",
      "location": {
        "postalCode": "26005",
        "municipality": "Logroño",
        "county": "Rioja, La",
        "municipalityId": "089",
        "countyId": "26"
      },
      "economicActivities": [
        {
          "id": "1.659.2",
          "name": "Venta al por menor de muebles de oficina y máquinas y equipos de oficina",
          "_links": {
            "self": {
              "name": "Venta al por menor de muebles de oficina y máquinas y equipos de oficina",
              "href": "https://api.euskadi.eus/procurements/companies/economic-activities/1.659.2"
            }
          }
        }
      ],
      "certificateStartDate": "2018-07-20",
      "certificateEndDate": "2018-10-23",
      "object": "COMPRAVENTA AL MAYOR  Y  MENOR DE APARATOS DE FISICA, QUIMICA Y LABORATORIO, SUS COMPONENTES, ASI  COMO PRODUCTOS O SUSTANCIAS RELACIONADASCON DICHO MERCADO,  ASI COMO LA INTERMEDIACION EN LAS CITADAS  OPERACIONES DE COMPRAVENTA. ",
      "mainEntityOfPage": "https://www.contratacion.euskadi.eus/webkpe00-kperoc/es/ac71aBusquedaRegistrosWar/empresa/05820",
      "_links": {
        "self": {
          "name": "ACTYLAB S.L.",
          "href": "https://api.euskadi.eus/procurements/companies/05820"
        }
      }
    },
    {
      "name": "EMAUS MOVILIDAD SOSTENIBLE, S.L.",
      "registrationNumber": "05822",
      "identificationNumber": "B95530598",
      "address": "POLIGONO INDUSTRIAL ERROTATXU, 5 ",
      "location": {
        "postalCode": "48993",
        "municipality": "Getxo",
        "county": "Bizkaia",
        "municipalityId": "044",
        "countyId": "48"
      },
      "economicActivities": [
        {
          "id": "1.691.2",
          "name": "Reparación de vehículos automóviles, bicicletas y otros vehículos",
          "_links": {
            "self": {
              "name": "Reparación de vehículos automóviles, bicicletas y otros vehículos",
              "href": "https://api.euskadi.eus/procurements/companies/economic-activities/1.691.2"
            }
          }
        }
      ],
      "certificateStartDate": "2018-07-20",
      "certificateEndDate": "2018-11-04",
      "object": "LA INSERCIÓN SOCIOLABORAL DE PERSONAS EN SITUACIÓN O RIESGO DE EXCLUSIÓN SOCIAL, INCLUYENDO PERSONAS CON DISPCAPACIDAD, DE ACUERDO A LA NORMATIVA VIGENTE Y DENTRO DE LLA, EL DECRETO 305/2000 DE 26 DE DICIEMBRE POR EL QUE SE REGULAN LAS EMPRESAS DE INSERCIÓN  Y AL CAPÍTULO II DE LA LEY 12/1998, CONTRA LA EXCLUSION SOCIAL QUE PROMUEVE LA INTEGRACIÓN SOCIAL DE PERSONAS Y COLECTIVOS QUESUFRAN CUALQUIER CLASE DE EXCLUSIÓN SOCIAL A TRAVÉS DE LOS CONVENIOS DE INSERCIÓN U OTRAS QUE LAS SUSTITUYAN, AMPLÍEN O MODIFIQUEN Y QUE COMPRENDEN SIN ÁNIMO EXHAUSTIVO LAS SIGUIENTES ACCIONES Y OBJETIVOS: - LA FORMACIÓN DIRIGIDA AL APRENDIZAJE DE UNA DETERMINADA ACTIVIDAD PROFESIONAL Y A LA ADECUACIÓN DEL NIVEL FORMATIVO REGLADO  O LAS COMPETENCIAS PROFESIONALES A LAS EXIGENCIAS DEL MERCADO LABORAL. &#8211; EL ESTABLECIMIENTO DE UNAS ACTITUDES Y APTITUDES DESTINADAS A LA ADQUISICIÓN DE HÁBITOS SOCIALES Y DE TRABAJO. &#8211; UN SERVICIO DE ACOMPAÑAMIENTO SOCIAL, ENCAMINADO A SATISFACER O RESOLVER PROBLEMÁTICAS Y DE CONVVIVENCIA QUE IMPIDEN O DIFULTAN EL NORMAL DESARROLLO DEL PROCESO DE ADAPTACIÓN SOCIAL Y LABORAL. EJERCICIO COMO PROMOTORA, CONSULTORA, EJECUTORA Y/O GESTORA DE TODO TIPO DE PROGRAMAS, ACTIVIDADES E INICIATIVAS EN LOS CAMPOS LIGADOS DE CONTENIDO SOCIAL, CULTURAL, EDUCATIVO, MEDIOAMBIENTAL, DESARROLLO COMUNITARIO, COOPERACIÓN PARA EL DESARROLLO INTERTERRITORIAL E INTERNACIONAL, INSERCIÓN LABORAL, FORMACIÓN Y ORIENTACIÓN PARA EL EMPLEO, INLUÍDA LA FORMACIÓN PROFESIONAL. LA INVESTIGACIÓN, DESARROLLO, EJECUCIÓN, EXPLOTACIÓN Y GESTIÓN INTEGRAL DE SOLUCIONES, SERVICIOS Y PRODUCTOS INCULADOS A LA MOVILIDAD SOSTENIBLE, INCLUYENDO SIN ÁNIMO EXHAUSTIVO, SISTEMAS Y SERICIOS DE MOVILIDAD CICLABLE, VEHÍCULOS ELÉCTRICOS LIGEROS O NO, PLATAFORMAS DE INTERMODALIDAD Y MULTIMODALIDAD, ESTACIONES INTERMODALES SOSTENIBLES ASÍ COMO SUS COMPONENTES Y CUALQUIER OTRO SERVICIO QUE PROMUEVA EL TRANSPORTE SOSTENIBLE ASÍ COMO LAS ACTIVIDADES RELACIONADAS CON SU MANTENIMIENTO. PROMOCIÓN YGESTIÓN DE CUALQUIER ACTIVIDAD QUE TENGA POR FINALIDAD EL FOMENTO DE LA MOVILIDAD SOTENIBLE MEDIANTE CAMPAÑAS DE SENSIBILIZACIÓN, FERIAS, CONGRESOS, CONFERENCIAS, CHARLAS, SEMINARIOS Y CUALESQUIERA OTROS ACTOS SIMILARES. ELABORACIÓN Y EJECUCIÓN DE TODA CLASE DE ESTUDIOS, ENCUESTAS, PROYECTOS, INVESTIGACIONES Y PLARES VINCULADOS A LA MOVILIDAD SOSTENIBLE Y ÁREAS RELACIONADAS; Y ENTRE ELLOSLAELABORACIÓN DE PLANES DE MOVILIDAD URBANA SOSTENIBLE. ASESORAMIENTO, CONSULTORÍA FORMACIÓN Y ORIENTACIÓN EN CUESTIONES DE MOVILIDAD SOSTENIBLE Y OTRAS ÁREAS RELACIONADAS. EL DESARROLLO Y TESTIÓN DE CUALQUIER TIPO DE SERVICIO CUYA FINALIDAD SEA LA DEFENSA MEDIOAMBIENTAL, INCLUYENDO ENTRE OTRAS Y SIN ÁNIMO EXHAUSTIVO, LA GESTIÓN DE RESIDUOS SÓLIDOS URBANOS &#8211;INCLUÍDA LA RECUPERACIÓN DE ESTOS A TRAVÉS DE LA VENTA DE PRODUCTOS DE SEGUNDA MANO-, LA LOGÍSTICA INTREAL &#8211; INCLUÍDO EL TRANSPORTE, MONTAJE Y DESMONTAJE DE MOBILIARIO Y ESTRUCTURAS, DISTRIBUCIÓN, REPARTO, ALMACENAJE, GESTIÓN DE STOCKS, INVESTARIOS, RECEPCIÓN DE PEDIDOS, MACHANDISING, CO-PACKAGING. LAS ACTIVIDADES DE LA SOCIEDAD SERÁN EN TODO CASO SIN ÁNIMO DE LUCRO COMPROMETIÉNDOSE A APLICAR LOS EXCEDENTES DISPONIBLES OBTENIDOS EN CADA EJERCICIO A LA MEJORA O AMPLIACIÓN DE SUS ESTRUCTURAS PRODUCTIVAS O AL DESARROLLO DE ACTIVIDADES RELACIONADAS CON LA INSERCIÓN SOCIOLABORAL SIN QUE EN NINGÚN CASO SE PRODUZCAN REPARTOS DE BENEFICIOS. LAS ACTIVIDADES QUE INTEGRAN EL OBJETO SOCIAL PODRÁN DESARROLLARSE EN COLABORACIÓN CON ORGANISMO, ENTIDADES Y ADMINISTRACIONES PÚBLICAS Y/O PRIVADAS DE AMBITO LOCAL, AUTONÓMICO, NACIONAL E INTERNACIONAL",
      "mainEntityOfPage": "https://www.contratacion.euskadi.eus/webkpe00-kperoc/es/ac71aBusquedaRegistrosWar/empresa/05822",
      "_links": {
        "self": {
          "name": "EMAUS MOVILIDAD SOSTENIBLE, S.L.",
          "href": "https://api.euskadi.eus/procurements/companies/05822"
        }
      }
    },
    {
      "name": "INGENIERÍA, ESTUDIOS Y PROYECTOS NIP, S.A.",
      "registrationNumber": "01038",
      "identificationNumber": "A28457984",
      "address": "C/ JAVIER FERRERO, 10",
      "location": {
        "postalCode": "28002",
        "municipality": "Madrid",
        "county": "Madrid",
        "municipalityId": "079",
        "countyId": "28"
      },
      "economicActivities": [
        {
          "id": "1.501.1",
          "name": "Construcción completa, reparación y conservación de edificaciones",
          "_links": {
            "self": {
              "name": "Construcción completa, reparación y conservación de edificaciones",
              "href": "https://api.euskadi.eus/procurements/companies/economic-activities/1.501.1"
            }
          }
        },
        {
          "id": "1.504.1",
          "name": "Instalaciones eléctricas en general",
          "_links": {
            "self": {
              "name": "Instalaciones eléctricas en general",
              "href": "https://api.euskadi.eus/procurements/companies/economic-activities/1.504.1"
            }
          }
        },
        {
          "id": "1.504.3",
          "name": "Instalaciones de frío, calor y acondicionamiento de aire",
          "_links": {
            "self": {
              "name": "Instalaciones de frío, calor y acondicionamiento de aire",
              "href": "https://api.euskadi.eus/procurements/companies/economic-activities/1.504.3"
            }
          }
        },
        {
          "id": "1.617.8",
          "name": "Venta al por mayor de máquinas y material de oficina",
          "_links": {
            "self": {
              "name": "Venta al por mayor de máquinas y material de oficina",
              "href": "https://api.euskadi.eus/procurements/companies/economic-activities/1.617.8"
            }
          }
        },
        {
          "id": "1.843.1",
          "name": "Servicios técnicos de ingeniería",
          "_links": {
            "self": {
              "name": "Servicios técnicos de ingeniería",
              "href": "https://api.euskadi.eus/procurements/companies/economic-activities/1.843.1"
            }
          }
        },
        {
          "id": "1.843.5",
          "name": "Servicios técnicos de delineación",
          "_links": {
            "self": {
              "name": "Servicios técnicos de delineación",
              "href": "https://api.euskadi.eus/procurements/companies/economic-activities/1.843.5"
            }
          }
        },
        {
          "id": "1.845",
          "name": "Explotación electrónica por cuenta de terceros",
          "_links": {
            "self": {
              "name": "Explotación electrónica por cuenta de terceros",
              "href": "https://api.euskadi.eus/procurements/companies/economic-activities/1.845"
            }
          }
        }
      ],
      "certificateStartDate": "2018-07-18",
      "certificateEndDate": "2018-12-04",
      "object": "1.-TRABAJOS DE CONSULTORÍA, ASISTENCIA TÉCNICA, COMERCIAL, PROFESIONAL E INFORMÁTICA INCLUYÉNDOSE ENTRE OTRAS ACTIVIDADES LA REALIZACIÓN DE ESTUDIOS, INFORMES, PROYECTOS, AUDITORÍAS, TOMA DE DATOS Y ENCUESTAS, TIPOGRAFÍA Y CARTOGRAFÍA, SUPERVISIÓN Y DIRECCIÓN DE OBRA, ELABORACIÓN DE CENSOS E INVENTARIOS, SERVICIOS DE MANTENIMIENTO, ELABORACIÓN DE MANUALES Y EDICIÓN DE DOCUMENTOS, Y EN GENERAL CUALQUIER OTRA ANÁLOGA REALIZADA POR PROFESIONALES PROPIOS O CONTRATADOS POR LA SOCIEDAD.\r\n\r\n2.-LA EJECUCIÓN Y MANTENIMIENTO DE OBRAS E INSTALACIONES PREVIAMENTE PROYECTADOS POR ELLA O POR OTROS, ASÍ COMO LA FABRICACIÓN Y SUMINISTRO DE MATERIAL INFORMÁTICO, ELÉCTRICO, ELECTRÓNICO Y DE EQUIPOS INDUSTRIALES DE FABRICACIÓN PROPIA O AJENA.\r\n\r\n3.-LA INTERVENCIÓN Y ELABORACIÓN DE INFORMES Y CONSULTORÍA EN PREVENCIÓN DE RIESGOS LABORALES ASÍ COMO LA INVESTIGACIÓN Y ASESORAMIENTO TÉCNICO EN DICHA MATERIA. LA  FORMACIÓN EN MATERIA DE SEGURIDAD Y SALUD ASÍ COMO SU COORDINACIÓN EN FASE DE PROYECTOS Y EJECUCIÓN DE OBRA Y LA REDACCIÓN DE ESTUDIOS AL RESPECTO\r\n\r\n4.-SERVICIO DE COMUNICACIÓN DE VOZ Y/O DATOS, ALQUILER DE CIRCUITOS PARA LA TRANSMISIÓN DE VOZ Y/O DATOS, LA PROVISIÓN DE LOS MEDIOS TÉCNICOS Y HUMANOS NECESARIOS PARA QUE LOS USUARIOS FINALES DE LAS REDES DE TELECOMUNICACIONES ACCEDAN Y TENGAN PRESENCIA EN INTERNET Y OTROS SERVICIOS DE VALOR AÑADIDO SOBRE REDES DE TELECOMUNICACIONES.\r\n\r\n5.-TRABAJOS ASOCIADOS A LA PUESTA EN FUNCIONAMIENTO, EL SEGUIMIENTO, LA GESTIÓN Y CONTROL DE EQUIPOS Y SISTEMAS INFORMÁTICOS Y DE LAS INFRAESTRUCTURAS TELEMÁTICAS, NECESARIAS PARA LA ADECUADA EXPLOTACIÓN DE PROGRAMAS Y APLICACIONES INFORMÁTICAS",
      "mainEntityOfPage": "https://www.contratacion.euskadi.eus/webkpe00-kperoc/es/ac71aBusquedaRegistrosWar/empresa/01038",
      "_links": {
        "self": {
          "name": "INGENIERÍA, ESTUDIOS Y PROYECTOS NIP, S.A.",
          "href": "https://api.euskadi.eus/procurements/companies/01038"
        }
      }
    },
    {
      "name": "CASA CANTERA, S.L.",
      "registrationNumber": "01804",
      "identificationNumber": "B48459036",
      "address": "C/ GENERAL CONCHA, Nº 24.",
      "location": {
        "postalCode": "48010",
        "municipality": "Bilbao",
        "county": "Bizkaia",
        "municipalityId": "020",
        "countyId": "48"
      },
      "economicActivities": [
        {
          "id": "1.613.4",
          "name": "Venta al por mayor de calzado, peletería, artículos de cuero, marroquinería",
          "_links": {
            "self": {
              "name": "Venta al por mayor de calzado, peletería, artículos de cuero, marroquinería",
              "href": "https://api.euskadi.eus/procurements/companies/economic-activities/1.613.4"
            }
          }
        }
      ],
      "certificateStartDate": "2018-07-17",
      "certificateEndDate": "2018-12-14",
      "object": "EL ALMACENAMIENTO, LA COMERCIALIZACIÓN, LA COMPRAVENTA, IMPORTACIÓN Y EXPORTACIÓN DE CALZADO Y DE ARTÍCULOS DE COMPLEMENTO",
      "mainEntityOfPage": "https://www.contratacion.euskadi.eus/webkpe00-kperoc/es/ac71aBusquedaRegistrosWar/empresa/01804",
      "_links": {
        "self": {
          "name": "CASA CANTERA, S.L.",
          "href": "https://api.euskadi.eus/procurements/companies/01804"
        }
      }
    }
  ]
}