{
  "totalItems": 9042,
  "totalPages": 905,
  "currentPage": 186,
  "itemsOfPage": 10,
  "items": [
    {
      "name": "TIPI GARA, S. COOP. PEQUEÑA",
      "registrationNumber": "06258",
      "identificationNumber": "F95767737",
      "address": "Uribitarte 18, 5B",
      "location": {
        "postalCode": "48001",
        "municipality": "Bilbao",
        "county": "Bizkaia",
        "municipalityId": "020",
        "countyId": "48"
      },
      "economicActivities": [
        {
          "id": "1.659.4",
          "name": "Venta al por menor de libros, periódicos y artículos de papelería y escritorio",
          "_links": {
            "self": {
              "name": "Venta al por menor de libros, periódicos y artículos de papelería y escritorio",
              "href": "https://api.euskadi.eus/procurements/companies/economic-activities/1.659.4"
            }
          }
        },
        {
          "id": "1.843.2",
          "name": "Servicios técnicos de arquitectura y urbanismo",
          "_links": {
            "self": {
              "name": "Servicios técnicos de arquitectura y urbanismo",
              "href": "https://api.euskadi.eus/procurements/companies/economic-activities/1.843.2"
            }
          }
        },
        {
          "id": "1.849.9",
          "name": "Otros servicios independientes n.c.o.p",
          "_links": {
            "self": {
              "name": "Otros servicios independientes n.c.o.p",
              "href": "https://api.euskadi.eus/procurements/companies/economic-activities/1.849.9"
            }
          }
        },
        {
          "id": "1.934",
          "name": "Enseñanza fuera de establecimiento permanente",
          "_links": {
            "self": {
              "name": "Enseñanza fuera de establecimiento permanente",
              "href": "https://api.euskadi.eus/procurements/companies/economic-activities/1.934"
            }
          }
        }
      ],
      "certificateStartDate": "2025-10-29",
      "certificateEndDate": "2026-04-29",
      "object": "ES LA PRESTACIÓN DE SERVICIOS DE DISEÑO, MEDIACIÓN Y CO-CREACIÓN. ENTRE LOS SERVICIOS DESTACAN: DISEÑO. APLICACIÓN DE PROCESOS DE DISEÑO PARA INVESTIGAR, IDEAR Y GENERAR SERVICIOS INNOVADORES CENTRADOS EN LAS PERSONAS USUARIAS Y LA CIUDADANÍA. DISEÑO, RENOVACIÓN E IMPLEMENTACIÓN DE SERVICIOS PÚBLICOS. INVESTIGACIÓN DE NECESIDADES Y TENDENCIAS. DISEÑO Y PLANIFICACIÓN ESTRATÉGICA. DISEÑO INCLUSIVO Y CRÍTICO. IMPLEMENTACIÓN Y EVALUACIÓN DE PROTOTIPOS Y PILOTOS. CO-CREACIÓN. PROCESO DE CREATIVIDAD Y CONSENSO COLECTIVO PARA LA CREACIÓN DE ALGO COMÚN, YA SEA UN ESPACIO, PRODUCTO, SERVICIO O ESTRATEGIA. PROCESOS DE CO-CREACIÓN. PLANEAMIENTO PARTICIPATIVO. DISEÑO CON LAS PERSONAS USUARIAS. ECOSISTEMAS COLABORATIVOS. ADMINISTRACIÓN ABIERTA Y TRANSPARENCIA. INVESTIGACIÓN PARTICIPATIVA. FORMACIÓN Y METODOLOGÍAS. MEDIACIÓN. GESTIÓN DE NUEVAS RELACIONES Y DIÁLOGOS ENTRE DIVERSOS AGENTES Y CONTEXTOS, DONDE SE FOMENTAN PROCESOS CULTURALES CRÍTICOS CON LOS MEDIOS Y LENGUAJES PROPIOS DE CADA COLECTIVO U ORGANIZACIÓN. PROGRAMAS EDUCATIVOS Y PEDAGOGÍAS SOCIALES. CONTEXTOS PARA EL EMPODERAMIENTO Y APRENDIZAJE COLECTIVO. MEDIACIÓN CULTURAL PARTICIPATIVA. MEDIACIÓN DE EQUIPOS Y PROYECTOS. TRANSFERENCIA E HIBRIDACIÓN",
      "mainEntityOfPage": "https://www.contratacion.euskadi.eus/webkpe00-kperoc/es/ac71aBusquedaRegistrosWar/empresa/06258",
      "_links": {
        "self": {
          "name": "TIPI GARA, S. COOP. PEQUEÑA",
          "href": "https://api.euskadi.eus/procurements/companies/06258"
        }
      }
    },
    {
      "name": "RCS CONSULTORIA Y SEGURIDAD, S.L.",
      "registrationNumber": "07997",
      "identificationNumber": "B09500752",
      "address": "Avda. San Pablo, 2. Oficina 106",
      "location": {
        "postalCode": "28229",
        "municipality": "Villanueva del Pardillo",
        "county": "Madrid",
        "municipalityId": "177",
        "countyId": "28"
      },
      "economicActivities": [
        {
          "id": "1.843.2",
          "name": "Servicios técnicos de arquitectura y urbanismo",
          "_links": {
            "self": {
              "name": "Servicios técnicos de arquitectura y urbanismo",
              "href": "https://api.euskadi.eus/procurements/companies/economic-activities/1.843.2"
            }
          }
        }
      ],
      "certificateStartDate": "2025-10-29",
      "certificateEndDate": "2026-04-29",
      "object": "ACTIVIDADES DE INGENIERÍA, ARQUITECTURA, SEGURIDAD Y SALUD, EN EL ÁMBITO DE LA CONSTRUCCIÓN. (CNAE 7490 OTRAS ACTIVIDADES DE INGENIERÍA NCOP).",
      "mainEntityOfPage": "https://www.contratacion.euskadi.eus/webkpe00-kperoc/es/ac71aBusquedaRegistrosWar/empresa/07997",
      "_links": {
        "self": {
          "name": "RCS CONSULTORIA Y SEGURIDAD, S.L.",
          "href": "https://api.euskadi.eus/procurements/companies/07997"
        }
      }
    },
    {
      "name": "ASOCIACION PARA LA REINSERCION SOCIAL ERROAK",
      "registrationNumber": "04544",
      "identificationNumber": "G20181319",
      "address": "Pº DE BIZKAIA, 15-16 BAJO",
      "location": {
        "postalCode": "20010",
        "municipality": "Donostia / San Sebastián",
        "county": "Gipuzkoa",
        "municipalityId": "069",
        "countyId": "20"
      },
      "economicActivities": [
        {
          "id": "1.932.1",
          "name": "Enseñanza de formación y perfeccionamiento profesional no superior",
          "_links": {
            "self": {
              "name": "Enseñanza de formación y perfeccionamiento profesional no superior",
              "href": "https://api.euskadi.eus/procurements/companies/economic-activities/1.932.1"
            }
          }
        },
        {
          "id": "1.999",
          "name": "Otros servicios n.c.o.p",
          "_links": {
            "self": {
              "name": "Otros servicios n.c.o.p",
              "href": "https://api.euskadi.eus/procurements/companies/economic-activities/1.999"
            }
          }
        }
      ],
      "certificateStartDate": "2025-10-29",
      "certificateEndDate": "2026-04-29",
      "object": "LA PLENA INSERVION SOCIAL DE PERSONAS Y GRUPOS EN SITUACIÓN DE EXCLUSIÓN SOCIAL, O EN RIESGO DE ESTARLO, ATENDIENDO DE MODO PREFERENTE A LOS SIGUIENTES COLECTIVOS: INFANCIA Y JUVENTUD, MUJERES, INMIGRANTES, PERSONAS CON DISCAPACIDAD, POBLACIÓN DESEMPLEADA, Y PERSONAS EN SITUACIÓN DE EXCLUSIÓN O RIESGO DE EXCLUSIÓN. PARA LA CONSECUCIÓN DE DICHOS FINES SE LLEVARÁN A CABO, PREVIO EL CUMPLIMIENTO DE LOS REQUISITOS LEGALES ESTABLECIDOS, LAS SIGUIENTES ACTIVIDADES: SERVICIOS Y ACCIONES PARA LA ACOGIDA, INFORMACIÓN, ORIENTACIÓN, ACOMPAÑAMIENTO Y FORMACIÓN DE DICHAS PERSONAS O GRUPOS; SERVICIOS Y ACCIONES PARA LA INTERMEDIACIÓN LABORAL, PARA EL AUTOEMPLEO Y PARA LA CREACIÓN DE EMPRESAS DE INSERVIÓN, ENTRE OTRAS; ESTUDIOS E INVESTIGACIONES SOBRE DICHAS PERSONAS Y GRUPOS, Y SOBRE LOS SERVICIOS Y ACCIONES DESCRITAS; SERVICIOS Y ACCIONES ESPECÍFICAS DE INCORPORACIÓN SOCIAL Y FORMACIÓN DE TRABAJADORES EN RIESGO DE EXCLUSIÓN, TALES COMO MUJERES, PERSONAS CON DISCAPACIDAD Y MAYORES DE 45 AÑOS; SERVICIOS Y ACCIONES PARA EL ASESORAMIENTO DE ENTIDADES PARTICULARES Y PÚBLICAS QUE, DIRECTA O INDIRECTAMENTE, PUEDAN APORTAR SUS POSIBILIDADES AL FIN DE ESTA ASOCIACIÓN. SIN PERJUICIO DE LAS ACTIVIDADES DESCRITAS EN EL APARTADO ANTERIOR, LA ASOCIACIÓN, PARA EL CUMPLIMIENTO DE SUS FINES TAMBIÉN PODRÁ DESARROLLAR ACTIVIDADES ECONÓMICAS DE TODO TIPO, ENCAMINADAS A LA REALIZACIÓN DE SUS FINES O A ALLEGAR RECURSOS CON ESE OBJETIVO; ADQUIRIR Y POSEER BIENES DE TODAS CLASES Y POR CUALQUIER TÍTULOS, ASÍ COMO CELEBRAR ACTOS Y CONTRATOS DE TODO GÉNERO; EJERCITAR TODA CLASE DE ACCIONES CONFORME A LAS LEYES O A SUS ESTATUTOS",
      "mainEntityOfPage": "https://www.contratacion.euskadi.eus/webkpe00-kperoc/es/ac71aBusquedaRegistrosWar/empresa/04544",
      "_links": {
        "self": {
          "name": "ASOCIACION PARA LA REINSERCION SOCIAL ERROAK",
          "href": "https://api.euskadi.eus/procurements/companies/04544"
        }
      }
    },
    {
      "name": "PENTA COMUNIDAD, S.L.",
      "registrationNumber": "09923",
      "identificationNumber": "B75322610",
      "address": "Avenida Ribera de Axpe, numero 11, local l-102 (edificio a)",
      "location": {
        "postalCode": "48950",
        "municipality": "Erandio",
        "county": "Bizkaia",
        "municipalityId": "902",
        "countyId": "48"
      },
      "economicActivities": [
        {
          "id": "1.843.1",
          "name": "Servicios técnicos de ingeniería",
          "_links": {
            "self": {
              "name": "Servicios técnicos de ingeniería",
              "href": "https://api.euskadi.eus/procurements/companies/economic-activities/1.843.1"
            }
          }
        }
      ],
      "certificateStartDate": "2025-10-29",
      "certificateEndDate": "2026-04-29",
      "object": "ACTIVIDAD PRINCIPAL: 71.12 / SERVICIOS TÉCNICOS DE INGENIERÍA Y OTRAS ACTIVIDADES RELACIONADAS CON EL ASESORAMIENTO TÉCNICO.",
      "mainEntityOfPage": "https://www.contratacion.euskadi.eus/webkpe00-kperoc/es/ac71aBusquedaRegistrosWar/empresa/09923",
      "_links": {
        "self": {
          "name": "PENTA COMUNIDAD, S.L.",
          "href": "https://api.euskadi.eus/procurements/companies/09923"
        }
      }
    },
    {
      "name": "AUROVITAS SPAIN, S.A.",
      "registrationNumber": "04599",
      "identificationNumber": "A85104875",
      "address": "AVDA. DE BURGOS, 16 D",
      "location": {
        "postalCode": "28036",
        "municipality": "Madrid",
        "county": "Madrid",
        "municipalityId": "079",
        "countyId": "28"
      },
      "economicActivities": [
        {
          "id": "1.614.1",
          "name": "Venta al por mayor de productos farmacéuticos y medicamentos",
          "_links": {
            "self": {
              "name": "Venta al por mayor de productos farmacéuticos y medicamentos",
              "href": "https://api.euskadi.eus/procurements/companies/economic-activities/1.614.1"
            }
          }
        },
        {
          "id": "1.614.2",
          "name": "Venta al por mayor de productos de perfumería, droguería, higiene y belleza",
          "_links": {
            "self": {
              "name": "Venta al por mayor de productos de perfumería, droguería, higiene y belleza",
              "href": "https://api.euskadi.eus/procurements/companies/economic-activities/1.614.2"
            }
          }
        },
        {
          "id": "1.631",
          "name": "Intermediarios del comercio",
          "_links": {
            "self": {
              "name": "Intermediarios del comercio",
              "href": "https://api.euskadi.eus/procurements/companies/economic-activities/1.631"
            }
          }
        }
      ],
      "certificateStartDate": "2025-10-29",
      "certificateEndDate": "2026-04-29",
      "object": "LA FABRICACIÓN, IMPORTACIÓN, EXPORTACIÓN, VENTA Y PROMOCIÓN  DE PRODUCTOS FARMACÉUTICOS Y MATERIAS",
      "mainEntityOfPage": "https://www.contratacion.euskadi.eus/webkpe00-kperoc/es/ac71aBusquedaRegistrosWar/empresa/04599",
      "_links": {
        "self": {
          "name": "AUROVITAS SPAIN, S.A.",
          "href": "https://api.euskadi.eus/procurements/companies/04599"
        }
      }
    },
    {
      "name": "ARCI FOREST, S.L.",
      "registrationNumber": "10175",
      "identificationNumber": "B13774237",
      "address": "Calle Julio Maeso, 2",
      "location": {
        "postalCode": "20014",
        "municipality": "Donostia / San Sebastián",
        "county": "Gipuzkoa",
        "municipalityId": "069",
        "countyId": "20"
      },
      "economicActivities": [
        {
          "id": "1.911",
          "name": "Servicios agrícolas y ganaderos",
          "_links": {
            "self": {
              "name": "Servicios agrícolas y ganaderos",
              "href": "https://api.euskadi.eus/procurements/companies/economic-activities/1.911"
            }
          }
        },
        {
          "id": "1.912",
          "name": "Servicios forestales",
          "_links": {
            "self": {
              "name": "Servicios forestales",
              "href": "https://api.euskadi.eus/procurements/companies/economic-activities/1.912"
            }
          }
        }
      ],
      "certificateStartDate": "2025-10-29",
      "certificateEndDate": "2026-04-29",
      "object": "EL DESARROLLO DE LAS ACTIVIDADES CORRESPONDIENTES A LOS SIGUIENTES CÓDIGOS Y DESCRIPCIONES DE LA CLASIFICACIÓN NACIONAL DE ACTIVIDADES ECONÓMICAS: ACTIVIDAD PRINCIPAL: 0240.- SERVICIOS DE APOYO A LA SILVICULTURA. OTRAS ACTIVIDADES: 0210.- SILVICULTURA Y OTRAS ACTIVIDADES FORESTALES.",
      "mainEntityOfPage": "https://www.contratacion.euskadi.eus/webkpe00-kperoc/es/ac71aBusquedaRegistrosWar/empresa/10175",
      "_links": {
        "self": {
          "name": "ARCI FOREST, S.L.",
          "href": "https://api.euskadi.eus/procurements/companies/10175"
        }
      }
    },
    {
      "name": "UHINA MATT, S.L.",
      "registrationNumber": "09641",
      "identificationNumber": "B20928347",
      "address": "Abendaño kalea, 5, trasera.",
      "location": {
        "postalCode": "20800",
        "municipality": "Zarautz",
        "county": "Gipuzkoa",
        "municipalityId": "079",
        "countyId": "20"
      },
      "economicActivities": [
        {
          "id": "1.843.9",
          "name": "Otros servicios técnicos n.c.o.p",
          "_links": {
            "self": {
              "name": "Otros servicios técnicos n.c.o.p",
              "href": "https://api.euskadi.eus/procurements/companies/economic-activities/1.843.9"
            }
          }
        },
        {
          "id": "1.849.9",
          "name": "Otros servicios independientes n.c.o.p",
          "_links": {
            "self": {
              "name": "Otros servicios independientes n.c.o.p",
              "href": "https://api.euskadi.eus/procurements/companies/economic-activities/1.849.9"
            }
          }
        },
        {
          "id": "1.859",
          "name": "Alquiler de otros bienes muebles n.c.o.p. (sin personal permanente)",
          "_links": {
            "self": {
              "name": "Alquiler de otros bienes muebles n.c.o.p. (sin personal permanente)",
              "href": "https://api.euskadi.eus/procurements/companies/economic-activities/1.859"
            }
          }
        }
      ],
      "certificateStartDate": "2025-10-29",
      "certificateEndDate": "2026-04-29",
      "object": "ALQUILER Y MONTAJE DE TODO TIPO DE EQUIPOS DE SONIDO, AUDIOVISUALES, TANTO EN EXTERIORES COMO INTERIORES, ASÍ COMO LA PREPARACIÓN E INSTALACIÓN DE LOS MISMOS PARA EVENTOS DEPORTIVOS, CULTURALES Y DE CUALQUIER OTRA ÍNDOLE.",
      "mainEntityOfPage": "https://www.contratacion.euskadi.eus/webkpe00-kperoc/es/ac71aBusquedaRegistrosWar/empresa/09641",
      "_links": {
        "self": {
          "name": "UHINA MATT, S.L.",
          "href": "https://api.euskadi.eus/procurements/companies/09641"
        }
      }
    },
    {
      "name": "HOSPITAL CLINIC DE BARCELONA",
      "registrationNumber": "09926",
      "identificationNumber": "Q0802070C",
      "address": "CL Villarroel, 170",
      "location": {
        "postalCode": "08036",
        "municipality": "Barcelona",
        "county": "Barcelona",
        "municipalityId": "019",
        "countyId": "08"
      },
      "economicActivities": [
        {
          "id": "1.652.1",
          "name": "Farmacias",
          "_links": {
            "self": {
              "name": "Farmacias",
              "href": "https://api.euskadi.eus/procurements/companies/economic-activities/1.652.1"
            }
          }
        },
        {
          "id": "1.931.5",
          "name": "Enseñanza de educación superior",
          "_links": {
            "self": {
              "name": "Enseñanza de educación superior",
              "href": "https://api.euskadi.eus/procurements/companies/economic-activities/1.931.5"
            }
          }
        },
        {
          "id": "1.936",
          "name": "Investigación científica y técnica",
          "_links": {
            "self": {
              "name": "Investigación científica y técnica",
              "href": "https://api.euskadi.eus/procurements/companies/economic-activities/1.936"
            }
          }
        },
        {
          "id": "1.941.1",
          "name": "Hospitales generales",
          "_links": {
            "self": {
              "name": "Hospitales generales",
              "href": "https://api.euskadi.eus/procurements/companies/economic-activities/1.941.1"
            }
          }
        },
        {
          "id": "1.961.1",
          "name": "Producción de películas cinematográficas (incluso vídeos)",
          "_links": {
            "self": {
              "name": "Producción de películas cinematográficas (incluso vídeos)",
              "href": "https://api.euskadi.eus/procurements/companies/economic-activities/1.961.1"
            }
          }
        }
      ],
      "certificateStartDate": "2025-10-29",
      "certificateEndDate": "2026-04-29",
      "object": "LA REALIZACIÓN DE ACTIVIDADES SANITARIAS Y SOCIOSANITARIAS AL SERVICIO DE LOS CIUDADANOS, ASÍ COMO DOCENTES, DE INVESTIGACIÓN E INNOVACIÓN SANITARIA Y, EN CONCRETO, DAR CUMPLIMIENTO DE FORMA PRIORITARIA A LA ACTIVIDAD QUE SE LE ENCARGUE EN EL MARCO DEL SISTEMA DE SALUD DE COBERTURA PÚBLICA POR PARTE DEL SERVICIO CATALÁN DE LA SALUD, AL AMPARO DE LO QUE ESTABLECE LA LEY DE ORDENACIÓN SANITARIA DE CATALUÑA.",
      "mainEntityOfPage": "https://www.contratacion.euskadi.eus/webkpe00-kperoc/es/ac71aBusquedaRegistrosWar/empresa/09926",
      "_links": {
        "self": {
          "name": "HOSPITAL CLINIC DE BARCELONA",
          "href": "https://api.euskadi.eus/procurements/companies/09926"
        }
      }
    },
    {
      "name": "AZ PROCESOS PARTICIPATIVOS",
      "registrationNumber": "05724",
      "identificationNumber": "B01395433",
      "address": "C/ LANDAZURI, 9-1º DCHA",
      "location": {
        "postalCode": "01008",
        "municipality": "Vitoria-Gasteiz",
        "county": "Araba/Álava",
        "municipalityId": "059",
        "countyId": "01"
      },
      "economicActivities": [
        {
          "id": "1.847",
          "name": "Servicios de consultoría",
          "_links": {
            "self": {
              "name": "Servicios de consultoría",
              "href": "https://api.euskadi.eus/procurements/companies/economic-activities/1.847"
            }
          }
        },
        {
          "id": "1.933.9",
          "name": "Otras actividades de enseñanza tales como idiomas, mecanografía",
          "_links": {
            "self": {
              "name": "Otras actividades de enseñanza tales como idiomas, mecanografía",
              "href": "https://api.euskadi.eus/procurements/companies/economic-activities/1.933.9"
            }
          }
        },
        {
          "id": "1.999",
          "name": "Otros servicios n.c.o.p",
          "_links": {
            "self": {
              "name": "Otros servicios n.c.o.p",
              "href": "https://api.euskadi.eus/procurements/companies/economic-activities/1.999"
            }
          }
        }
      ],
      "certificateStartDate": "2025-10-29",
      "certificateEndDate": "2026-04-29",
      "object": "LA REALIZACIÓN DE ACTIVIDADES CULTURALES Y FORMATIVAS, QUE MEDIANTE METODOLOGÍAS LÚDICAS Y CREATIVAS, INVOLUCREN A LOS DISTINTOS AGENTES SOCIALES EN PROCESOS DE TRANSFORMACIÓN SOCIAL",
      "mainEntityOfPage": "https://www.contratacion.euskadi.eus/webkpe00-kperoc/es/ac71aBusquedaRegistrosWar/empresa/05724",
      "_links": {
        "self": {
          "name": "AZ PROCESOS PARTICIPATIVOS",
          "href": "https://api.euskadi.eus/procurements/companies/05724"
        }
      }
    },
    {
      "name": "ANAME, S.L.",
      "registrationNumber": "06601",
      "identificationNumber": "B79255659",
      "address": "C/ LA RIOJA, 1-A",
      "location": {
        "postalCode": "28693",
        "municipality": "Quijorna",
        "county": "Madrid",
        "municipalityId": "119",
        "countyId": "28"
      },
      "economicActivities": [
        {
          "id": "1.619.7",
          "name": "Venta al por mayor de instrumentos de precisión, medida y similares",
          "_links": {
            "self": {
              "name": "Venta al por mayor de instrumentos de precisión, medida y similares",
              "href": "https://api.euskadi.eus/procurements/companies/economic-activities/1.619.7"
            }
          }
        }
      ],
      "certificateStartDate": "2025-10-29",
      "certificateEndDate": "2026-04-29",
      "object": "LA FABRICACIÓN, ASÍ COMO LA COMERCIALIZACIÓN, INCLUSIVE LA IMPORTACIÓN Y EXPORTACIÓN, DE TODO TIPO DE APARATOS, MAQUINARIA Y MATERIAL, TANTO CIENTÍFICO Y DE LABORATORIO",
      "mainEntityOfPage": "https://www.contratacion.euskadi.eus/webkpe00-kperoc/es/ac71aBusquedaRegistrosWar/empresa/06601",
      "_links": {
        "self": {
          "name": "ANAME, S.L.",
          "href": "https://api.euskadi.eus/procurements/companies/06601"
        }
      }
    }
  ]
}