{
  "totalItems": 9042,
  "totalPages": 905,
  "currentPage": 773,
  "itemsOfPage": 10,
  "items": [
    {
      "name": "CONSTRUCCIONES LANDETANE, S.L.",
      "registrationNumber": "03349",
      "identificationNumber": "B95036901",
      "address": "B. GARAIOLTZA (CS OJANGUREN) 142",
      "location": {
        "postalCode": "48196",
        "municipality": "Lezama",
        "county": "Bizkaia",
        "municipalityId": "081",
        "countyId": "48"
      },
      "economicActivities": [
        {
          "id": "1.501.3",
          "name": "Albañilería y pequeños trabajos de construcción en general",
          "_links": {
            "self": {
              "name": "Albañilería y pequeños trabajos de construcción en general",
              "href": "https://api.euskadi.eus/procurements/companies/economic-activities/1.501.3"
            }
          }
        }
      ],
      "certificateStartDate": "2007-04-19",
      "certificateEndDate": "2007-08-09",
      "object": "A) LA REALIZACIÓN DE TRABAJOS DE ALBAÑILERÍA, LA EJECUCIÓN COMPLETA O PARCIAL DE TODA CLASE DE OBRAS DE MEJORA, CONSERVACIÓN, REPARACIÓN Y REFORMA DE EDIFICIOS DE CUALQUIER CLASE, ASÍ COMO, DE ARQUITECTURA INTERIOR Y DECORACIÓN, DIRECTAMENTE O MEDIANTE SUBCONTRATACIÓN. B) LA COMERCIALIZACIÓN, MEDIANTE REPRESENTACIÓN, DELEGACIÓN O INTERMEDIACIÓN, DE TODA CLASE DE ARTÍCULOS, PROPIOS DE LA INDUSTRIA DE LA CONSTRUCCIÓN, CARPINTERÍA, EBANISTERÍA Y DECORACIÓN.",
      "mainEntityOfPage": "https://www.contratacion.euskadi.eus/webkpe00-kperoc/es/ac71aBusquedaRegistrosWar/empresa/03349",
      "_links": {
        "self": {
          "name": "CONSTRUCCIONES LANDETANE, S.L.",
          "href": "https://api.euskadi.eus/procurements/companies/03349"
        }
      }
    },
    {
      "name": "EXCAVACIONES BARANDA, S.A.",
      "registrationNumber": "00842",
      "identificationNumber": "A48161087",
      "address": "POL. IND. EL CAMPILLO PAR. A-G.",
      "location": {
        "postalCode": "48500",
        "municipality": "Abanto y Ciérvana-Abanto Zierbena",
        "county": "Bizkaia",
        "municipalityId": "002",
        "countyId": "48"
      },
      "economicActivities": [
        {
          "id": "1.507",
          "name": "Construcción, reparación y conservación de toda clase obras",
          "_links": {
            "self": {
              "name": "Construcción, reparación y conservación de toda clase obras",
              "href": "https://api.euskadi.eus/procurements/companies/economic-activities/1.507"
            }
          }
        }
      ],
      "certificateStartDate": "2007-04-18",
      "certificateEndDate": "2007-09-26",
      "object": "LA CONSTRUCCION, REPARACION Y CONSERVACION DE EDIFICACIONES URBANAS, INDUSTRIALES, RUSTICAS Y OBRAS PUBLICAS, CONSOLIDACION Y REPARACION DE TERRENOS, DEMOLICIONES, PERFORACIONES PARA ALUMBRAMIENTO DE AGUAS, CIMENTACIONES, PAVIMENTACIONES Y OBRAS DE JARDINERIA. PREPARACION Y MONTAJE DE ESTRUCTURAS, CUBIERTAS, POSTES, TORRES METALICAS, CARRILES, COMPUERTAS, GRUAS",
      "mainEntityOfPage": "https://www.contratacion.euskadi.eus/webkpe00-kperoc/es/ac71aBusquedaRegistrosWar/empresa/00842",
      "_links": {
        "self": {
          "name": "EXCAVACIONES BARANDA, S.A.",
          "href": "https://api.euskadi.eus/procurements/companies/00842"
        }
      }
    },
    {
      "name": "FEDERAL SIGNAL VAMA, S.A.",
      "registrationNumber": "01439",
      "identificationNumber": "A07231954",
      "address": "C/ DOCTOR FERRÁN, Nº 7",
      "location": {
        "postalCode": "08339",
        "municipality": "Vilassar de Dalt",
        "county": "Barcelona",
        "municipalityId": "214",
        "countyId": "08"
      },
      "economicActivities": [
        {
          "id": "1.353",
          "name": "Fabricación de aparatos y equipo electrónico de señalización, control",
          "_links": {
            "self": {
              "name": "Fabricación de aparatos y equipo electrónico de señalización, control",
              "href": "https://api.euskadi.eus/procurements/companies/economic-activities/1.353"
            }
          }
        },
        {
          "id": "1.482.2",
          "name": "Fabricación de artículos acabados de materias plásticas",
          "_links": {
            "self": {
              "name": "Fabricación de artículos acabados de materias plásticas",
              "href": "https://api.euskadi.eus/procurements/companies/economic-activities/1.482.2"
            }
          }
        }
      ],
      "certificateStartDate": "2007-04-17",
      "certificateEndDate": "2007-09-01",
      "object": "LA COMPRA, VENTA, FABRICACIÓN, IMPORTACIÓN, EXPORTACIÓN Y REPRESENTACIÓN DE MATERIAL DE AUTOMÓVIL, MATERIAL DE SEGURIDAD, PROTECCIÓN, SEÑALIZACIÓN EN GENERAL, VEHÍCULOS BLINDADOS Y TODO TIPO DE MATERIAL DE CARACTERÍSTICAS SIMILARES TANTO ELECTRÓNICO COMO MECÁNICO. LA COMPRA, VENTA, FABRICACIÓN Y REPRESENTACIÓN DE ELEMENTOS PARA LA SEÑALIZACIÓN DE OBRAS U OTROS AUXILIARES O RELACIONADOS CON LA CONSTRUCCIÓN Y REALIZACIÓN DE PROYECTOS DE INGENIERÍA E INSTALACIONES QUE SE DERIVEN O RELACIONEN CON LA DESCRITA ACTIVIDAD",
      "mainEntityOfPage": "https://www.contratacion.euskadi.eus/webkpe00-kperoc/es/ac71aBusquedaRegistrosWar/empresa/01439",
      "_links": {
        "self": {
          "name": "FEDERAL SIGNAL VAMA, S.A.",
          "href": "https://api.euskadi.eus/procurements/companies/01439"
        }
      }
    },
    {
      "name": "IMPRENTA ABADIÑO, S.L.L.",
      "registrationNumber": "03348",
      "identificationNumber": "B95305843",
      "address": "AVDA. MURUETA, 1",
      "location": {
        "postalCode": "48220",
        "municipality": "Abadiño",
        "county": "Bizkaia",
        "municipalityId": "001",
        "countyId": "48"
      },
      "economicActivities": [
        {
          "id": "1.474",
          "name": "Artes gráficas (impresión gráfica)",
          "_links": {
            "self": {
              "name": "Artes gráficas (impresión gráfica)",
              "href": "https://api.euskadi.eus/procurements/companies/economic-activities/1.474"
            }
          }
        }
      ],
      "certificateStartDate": "2007-04-03",
      "certificateEndDate": "2007-08-06",
      "object": "LA IMPRESIÓN, COMPOSICIÓN Y REPRODUCCIÓN DE TEXTOS O IMÁGENES POR CUALQUIER PROCEDIMIENTO O SISTEMA, ASÍ COMO OTRAS ACTIVIDADES ANEXAS A LAS ARTES GRÁFICAS, TALES COMO LA ENCUADERNACIÓN. LA FABRICACIÓN DE GOMAS, CAUCHOS Y RODILLOS PARA IMPRESIÓN, LA GRALVONITIPIA Y LA GALVONOPLÁSTICA",
      "mainEntityOfPage": "https://www.contratacion.euskadi.eus/webkpe00-kperoc/es/ac71aBusquedaRegistrosWar/empresa/03348",
      "_links": {
        "self": {
          "name": "IMPRENTA ABADIÑO, S.L.L.",
          "href": "https://api.euskadi.eus/procurements/companies/03348"
        }
      }
    },
    {
      "name": "APLICACIONES DEL CADAGUA, S.A.L.",
      "registrationNumber": "02564",
      "identificationNumber": "A48545875",
      "address": "CTRA. BILBAO-BALMASEDA, KM. 9 \"ELKARTEGIA MOD. 33\"",
      "location": {
        "postalCode": "48000",
        "municipality": "Alonsotegi",
        "county": "Bizkaia",
        "municipalityId": "912",
        "countyId": "48"
      },
      "economicActivities": [
        {
          "id": "1.313",
          "name": "Tratamiento y recubrimiento de los metales",
          "_links": {
            "self": {
              "name": "Tratamiento y recubrimiento de los metales",
              "href": "https://api.euskadi.eus/procurements/companies/economic-activities/1.313"
            }
          }
        }
      ],
      "certificateStartDate": "2007-03-29",
      "certificateEndDate": "2004-11-14",
      "object": "EL TRATAMIENTO Y APLICACIÓN DE TODO TIPO DE PINTURAS, EN TODA CLASE DE  SUPERFICIES, TANTO EN INDUSTRIA COMO EN CONSTRUCCIÓN.",
      "mainEntityOfPage": "https://www.contratacion.euskadi.eus/webkpe00-kperoc/es/ac71aBusquedaRegistrosWar/empresa/02564",
      "_links": {
        "self": {
          "name": "APLICACIONES DEL CADAGUA, S.A.L.",
          "href": "https://api.euskadi.eus/procurements/companies/02564"
        }
      }
    },
    {
      "name": "FONTANERÍA LECUSAN, S.L.",
      "registrationNumber": "03290",
      "identificationNumber": "B48215693",
      "address": "P.E. UDONDO.AV. AUTONOMÍA ETORBIDEA, 2A. PAB. 4 C",
      "location": {
        "postalCode": "48940",
        "municipality": "Leioa",
        "county": "Bizkaia",
        "municipalityId": "054",
        "countyId": "48"
      },
      "economicActivities": [
        {
          "id": "1.504.2",
          "name": "Instalaciones de fontanería",
          "_links": {
            "self": {
              "name": "Instalaciones de fontanería",
              "href": "https://api.euskadi.eus/procurements/companies/economic-activities/1.504.2"
            }
          }
        }
      ],
      "certificateStartDate": "2007-03-26",
      "certificateEndDate": "2007-09-07",
      "object": "LA EJECUCIÓN DE TRABAJOS DE FONTANERÍA Y ACTIVIDADES ANEXAS, ASÍ COMO LA VENTA E INSTALACIÓN DE APARATOS SANITARIOS.\r\nSI LAS DISPOSICIONES LEGALES EXIGIESEN PARA EL EJERCICIO DE ALGUNA DE LAS ACTIVIDADES COMPRENDIDAS EN EL OBJETO SOCIAL ALGÚN TÍTULO PROFESIONAL O AUTORIZACIÓN ADMINISTRATIVA, O LA INSCRIPCIÓN EN  REGISTROS PÚBLICOS, DICHAS ACTIVIDADES DEBERÁN REALIZARSE POR MEDIO DE PERSONA QUE OSTENTE LA REQUERIDA TITULACIÓN, Y EN SU CASO, NO PODRÁN INICIARSE ANTES DE QUE SE HAYAN CUMPLIDO LOS REQUISITOS ADMINISTRATIVOS EXIGIDOS.\r\nLAS ACTIVIDADES INTEGRANTES DEL OBJETO SOCIAL PODRÁN SER DESARROLLADAS POR LA SOCIEDAD DE MODO INDIRECTO, MEDIANTE SU PARTICIPACIÓN EN SOCIEDADES O ENTIDADES CON DISTINTA PERSONALIDAD JURÍDICA ",
      "mainEntityOfPage": "https://www.contratacion.euskadi.eus/webkpe00-kperoc/es/ac71aBusquedaRegistrosWar/empresa/03290",
      "_links": {
        "self": {
          "name": "FONTANERÍA LECUSAN, S.L.",
          "href": "https://api.euskadi.eus/procurements/companies/03290"
        }
      }
    },
    {
      "name": "LABORATORIOS GELOS, S.L.",
      "registrationNumber": "02521",
      "identificationNumber": "B62655774",
      "address": "C/ JOAN XXIII, 10",
      "location": {
        "postalCode": "08950",
        "municipality": "Esplugues de Llobregat",
        "county": "Barcelona",
        "municipalityId": "077",
        "countyId": "08"
      },
      "economicActivities": [
        {
          "id": "1.254.2",
          "name": "Fabricación de especialidades y otros productos farmacéuticos",
          "_links": {
            "self": {
              "name": "Fabricación de especialidades y otros productos farmacéuticos",
              "href": "https://api.euskadi.eus/procurements/companies/economic-activities/1.254.2"
            }
          }
        }
      ],
      "certificateStartDate": "2007-03-23",
      "certificateEndDate": "2007-08-12",
      "object": "LA PREPARACIÓN Y VENTA DE ESPECIALIDADES FARMACÉUTICAS",
      "mainEntityOfPage": "https://www.contratacion.euskadi.eus/webkpe00-kperoc/es/ac71aBusquedaRegistrosWar/empresa/02521",
      "_links": {
        "self": {
          "name": "LABORATORIOS GELOS, S.L.",
          "href": "https://api.euskadi.eus/procurements/companies/02521"
        }
      }
    },
    {
      "name": "EUSKO TRAVEL, S.L.",
      "registrationNumber": "03340",
      "identificationNumber": "B48840987",
      "address": "C/ AXULAR Nº 2, 1º",
      "location": {
        "postalCode": "48000",
        "municipality": "Portugalete",
        "county": "Bizkaia",
        "municipalityId": "078",
        "countyId": "48"
      },
      "economicActivities": [
        {
          "id": "1.721.3",
          "name": "Transporte de viajeros por carretera",
          "_links": {
            "self": {
              "name": "Transporte de viajeros por carretera",
              "href": "https://api.euskadi.eus/procurements/companies/economic-activities/1.721.3"
            }
          }
        }
      ],
      "certificateStartDate": "2007-03-20",
      "certificateEndDate": "2007-08-22",
      "object": "EL TRANSPORTE PÚBLICO DE VIAJEROS Y MERCANCIAS POR CARRETERA. LA ADQUISICIÓN, EXPLOTACIÓN Y ENAJENACIÓN DE BIENES INMUEBLES.",
      "mainEntityOfPage": "https://www.contratacion.euskadi.eus/webkpe00-kperoc/es/ac71aBusquedaRegistrosWar/empresa/03340",
      "_links": {
        "self": {
          "name": "EUSKO TRAVEL, S.L.",
          "href": "https://api.euskadi.eus/procurements/companies/03340"
        }
      }
    },
    {
      "name": "MONTAJES Y CONSTRUCCIONES DILO, S.L.",
      "registrationNumber": "01909",
      "identificationNumber": "B48525554",
      "address": "C/ TRAVESÍA JUAN SEBASTIÁN ELCANO, Nº 18 - BAJO.",
      "location": {
        "postalCode": "48960",
        "municipality": "Galdakao",
        "county": "Bizkaia",
        "municipalityId": "036",
        "countyId": "48"
      },
      "economicActivities": [
        {
          "id": "1.315",
          "name": "Construcción de grandes depósitos y calderería gruesa",
          "_links": {
            "self": {
              "name": "Construcción de grandes depósitos y calderería gruesa",
              "href": "https://api.euskadi.eus/procurements/companies/economic-activities/1.315"
            }
          }
        },
        {
          "id": "1.504.3",
          "name": "Instalaciones de frío, calor y acondicionamiento de aire",
          "_links": {
            "self": {
              "name": "Instalaciones de frío, calor y acondicionamiento de aire",
              "href": "https://api.euskadi.eus/procurements/companies/economic-activities/1.504.3"
            }
          }
        },
        {
          "id": "1.504.8",
          "name": "Montajes metálicos e instalaciones industriales completas",
          "_links": {
            "self": {
              "name": "Montajes metálicos e instalaciones industriales completas",
              "href": "https://api.euskadi.eus/procurements/companies/economic-activities/1.504.8"
            }
          }
        }
      ],
      "certificateStartDate": "2007-03-16",
      "certificateEndDate": "2007-09-02",
      "object": "LA CONSTRUCCIÓN, MONTAJE Y MANTENIMIENTO DE INSTALACIONES INDUSTRIALES",
      "mainEntityOfPage": "https://www.contratacion.euskadi.eus/webkpe00-kperoc/es/ac71aBusquedaRegistrosWar/empresa/01909",
      "_links": {
        "self": {
          "name": "MONTAJES Y CONSTRUCCIONES DILO, S.L.",
          "href": "https://api.euskadi.eus/procurements/companies/01909"
        }
      }
    },
    {
      "name": "AUDIHISPANA, S.A.",
      "registrationNumber": "01125",
      "identificationNumber": "A08914830",
      "address": "AVDA. PAU CASALS, Nº 13-15, 8º",
      "location": {
        "postalCode": "08021",
        "municipality": "Barcelona",
        "county": "Barcelona",
        "municipalityId": "019",
        "countyId": "08"
      },
      "economicActivities": [
        {
          "id": "1.842",
          "name": "Servicios financieros y contables",
          "_links": {
            "self": {
              "name": "Servicios financieros y contables",
              "href": "https://api.euskadi.eus/procurements/companies/economic-activities/1.842"
            }
          }
        }
      ],
      "certificateStartDate": "2007-03-14",
      "certificateEndDate": "2007-08-14",
      "object": "LA REALIZACIÓN POR MEDIO DE LOS PROFESIONALES TITULARES CORRESPONDIENTES, DE ESTUDIOS, INFORMES Y DICTÁMENES RELACIONADOS CON EL EXAMEN DE DOCUMENTOS Y CONTABILIDADES MERCANTILES; ASESORAMIENTO SOBRE APLICACIÓN Y MEJORA DE SISTEMAS DE ADMINISTRACIÓN, CONTROL INTERNO Y CONTABILIDAD; VALORACIÓN DE EMPRESAS; PROSPECCIÓN Y VALORACIÓN DE MERCADOS, Y ASESORAMIENTOS SOBRE INVERSIÓN Y RENTABILIZACIÓN DE ACTIVOS FINANCIEROS Y DE OTRO TIPO Y MINORIZACIÓN DE COSTES EN LAS EMPRESAS",
      "mainEntityOfPage": "https://www.contratacion.euskadi.eus/webkpe00-kperoc/es/ac71aBusquedaRegistrosWar/empresa/01125",
      "_links": {
        "self": {
          "name": "AUDIHISPANA, S.A.",
          "href": "https://api.euskadi.eus/procurements/companies/01125"
        }
      }
    }
  ]
}