{
  "totalItems": 9042,
  "totalPages": 905,
  "currentPage": 400,
  "itemsOfPage": 10,
  "items": [
    {
      "name": "JOSE JAVIER JIMENO GOICOECHEA",
      "registrationNumber": "09232",
      "identificationNumber": "72436110W",
      "address": "ESTROPALARI KALEA 28 4ºA",
      "location": {
        "postalCode": "20810",
        "municipality": "Orio",
        "county": "Gipuzkoa",
        "municipalityId": "061",
        "countyId": "20"
      },
      "economicActivities": [
        {
          "id": "1.505.6",
          "name": "Pintura, revestimientos y terminación y decoración de locales",
          "_links": {
            "self": {
              "name": "Pintura, revestimientos y terminación y decoración de locales",
              "href": "https://api.euskadi.eus/procurements/companies/economic-activities/1.505.6"
            }
          }
        },
        {
          "id": "1.659.2",
          "name": "Venta al por menor de muebles de oficina y máquinas y equipos de oficina",
          "_links": {
            "self": {
              "name": "Venta al por menor de muebles de oficina y máquinas y equipos de oficina",
              "href": "https://api.euskadi.eus/procurements/companies/economic-activities/1.659.2"
            }
          }
        }
      ],
      "certificateStartDate": "2024-08-23",
      "certificateEndDate": "2025-02-22",
      "object": "VENTA AL POR MENOR DE MUEBLES DE OFICINA Y MÁQUINAS Y EQUIPOS DE OFICINA. PINTURA, REVESTIMIENTOS Y TERMINACIÓN Y DECORACIÓN DE LOCALES.",
      "mainEntityOfPage": "https://www.contratacion.euskadi.eus/webkpe00-kperoc/es/ac71aBusquedaRegistrosWar/empresa/09232",
      "_links": {
        "self": {
          "name": "JOSE JAVIER JIMENO GOICOECHEA",
          "href": "https://api.euskadi.eus/procurements/companies/09232"
        }
      }
    },
    {
      "name": "DIJITALIDADEA SL",
      "registrationNumber": "06350",
      "identificationNumber": "B20910691",
      "address": "MIITXELENA 65, BEHEA",
      "location": {
        "postalCode": "20800",
        "municipality": "Zarautz",
        "county": "Gipuzkoa",
        "municipalityId": "079",
        "countyId": "20"
      },
      "economicActivities": [
        {
          "id": "1.476.1",
          "name": "Edición de libros",
          "_links": {
            "self": {
              "name": "Edición de libros",
              "href": "https://api.euskadi.eus/procurements/companies/economic-activities/1.476.1"
            }
          }
        },
        {
          "id": "1.843.9",
          "name": "Otros servicios técnicos n.c.o.p",
          "_links": {
            "self": {
              "name": "Otros servicios técnicos n.c.o.p",
              "href": "https://api.euskadi.eus/procurements/companies/economic-activities/1.843.9"
            }
          }
        },
        {
          "id": "1.844",
          "name": "Servicios de publicidad, relaciones públicas y similares",
          "_links": {
            "self": {
              "name": "Servicios de publicidad, relaciones públicas y similares",
              "href": "https://api.euskadi.eus/procurements/companies/economic-activities/1.844"
            }
          }
        },
        {
          "id": "1.934",
          "name": "Enseñanza fuera de establecimiento permanente",
          "_links": {
            "self": {
              "name": "Enseñanza fuera de establecimiento permanente",
              "href": "https://api.euskadi.eus/procurements/companies/economic-activities/1.934"
            }
          }
        },
        {
          "id": "1.962.1",
          "name": "Distribución y venta de películas",
          "_links": {
            "self": {
              "name": "Distribución y venta de películas",
              "href": "https://api.euskadi.eus/procurements/companies/economic-activities/1.962.1"
            }
          }
        }
      ],
      "certificateStartDate": "2024-08-21",
      "certificateEndDate": "2025-02-21",
      "object": "-LA DIGITALIZACIÓN DE FONDOS LITERARIOS Y DE PRENSA. - LA EDICIÓN Y PUBLICACIÓN EN INTERNET DE FONDOS LITERARIOS Y DE PRENSA; -LA REALIZACIÓN DE TRABAJOS MULTIMEDIA. -LA CREACIÓN DE INSTRUMENTOS Y HERRAMIENTAS INFORMÁTICAS Y DE INTERNET. -MANTENIMIENTO TÉCNICO DE SERVICIOS DE INTERNET",
      "mainEntityOfPage": "https://www.contratacion.euskadi.eus/webkpe00-kperoc/es/ac71aBusquedaRegistrosWar/empresa/06350",
      "_links": {
        "self": {
          "name": "DIJITALIDADEA SL",
          "href": "https://api.euskadi.eus/procurements/companies/06350"
        }
      }
    },
    {
      "name": "FOREST PIONEER, S.L.",
      "registrationNumber": "09457",
      "identificationNumber": "B20963823",
      "address": "Polígono Bidaurre Ureder, Ventas Auzoa 45B – Bajo 6A",
      "location": {
        "postalCode": "20305",
        "municipality": "Irun",
        "county": "Gipuzkoa",
        "municipalityId": "045",
        "countyId": "20"
      },
      "economicActivities": [
        {
          "id": "1.321.1",
          "name": "Construcción de máquinas agrícolas",
          "_links": {
            "self": {
              "name": "Construcción de máquinas agrícolas",
              "href": "https://api.euskadi.eus/procurements/companies/economic-activities/1.321.1"
            }
          }
        },
        {
          "id": "1.617.6",
          "name": "Venta al por mayor de maquinaria agrícola",
          "_links": {
            "self": {
              "name": "Venta al por mayor de maquinaria agrícola",
              "href": "https://api.euskadi.eus/procurements/companies/economic-activities/1.617.6"
            }
          }
        },
        {
          "id": "1.843.9",
          "name": "Otros servicios técnicos n.c.o.p",
          "_links": {
            "self": {
              "name": "Otros servicios técnicos n.c.o.p",
              "href": "https://api.euskadi.eus/procurements/companies/economic-activities/1.843.9"
            }
          }
        }
      ],
      "certificateStartDate": "2024-08-21",
      "certificateEndDate": "2025-02-21",
      "object": "VENTA DE MAQUINARIA AGRÍCOLA Y FORESTAL (ACTIVIDAD PRINCIPAL); FABRICACIÓN MAQUINARIA AGRÍCOLA Y FORESTAL; VENTA Y REPARACIÓN DE VEHÍCULOS FORESTALES, ASÍ COMO EL COMERCIO DE SUS REPUESTOS Y ACCESORIOS.",
      "mainEntityOfPage": "https://www.contratacion.euskadi.eus/webkpe00-kperoc/es/ac71aBusquedaRegistrosWar/empresa/09457",
      "_links": {
        "self": {
          "name": "FOREST PIONEER, S.L.",
          "href": "https://api.euskadi.eus/procurements/companies/09457"
        }
      }
    },
    {
      "name": "EDAFOTEC SOLUCIONES BASADAS EN LA NATURALEZA, S.L.",
      "registrationNumber": "09223",
      "identificationNumber": "B27701028",
      "address": "Rúa Maria Berdiales 7 ",
      "location": {
        "postalCode": "36203",
        "municipality": "Vigo",
        "county": "Pontevedra",
        "municipalityId": "057",
        "countyId": "36"
      },
      "economicActivities": [
        {
          "id": "1.843.1",
          "name": "Servicios técnicos de ingeniería",
          "_links": {
            "self": {
              "name": "Servicios técnicos de ingeniería",
              "href": "https://api.euskadi.eus/procurements/companies/economic-activities/1.843.1"
            }
          }
        }
      ],
      "certificateStartDate": "2024-08-21",
      "certificateEndDate": "2025-02-21",
      "object": "1.- PRESTACIÓN DE SERVICIOS A OTRAS EMPRESAS. 2.- GESTIÓN Y DIRECCIÓN DE TODO TIPO DE EMPRESAS. 3.- FORMACIÓN Y ESTUDIOS DE MERCADO A TODO TIPO DE EMPRESAS Y PERSONAS. 4.- FORMACIÓN Y ESTUDIOS DE MERCADO, GESTIÓN Y DESARROLLO DE TÉCNICAS DE I+D+I, INCLUYENDO ELABORACIÓN, DESARROLLO Y TRAMITACIÓN DE PROYECTOS NACIONALES E INTERNACIONALES. 5.- EL ASESORAMIENTO TÉCNICO, DIRECCIÓN Y FORMACIÓN DE PERSONAL DE EMPRESAS. 6.- CELEBRAR ACUERDOS Y CONVENIOS DE COLABORACIÓN DE CENTROS TECNOLÓGICOS, UNIVERSIDADES Y EMPRESAS. 7.- ASESORAMIENTO, DIAGNÓSTICO DE LA SITUACIÓN Y REQUISITOS LEGALES DE GESTIÓN EN MATERIA DE MEDIO AMBIENTE. 8.- LA INTERMEDIACIÓN EN SERVICIOS DE INGENIERÍA Y CONSULTORÍA. 9.- TRATAMIENTO Y GESTIÓN DE RESIDUOS NO PELIGROSOS.",
      "mainEntityOfPage": "https://www.contratacion.euskadi.eus/webkpe00-kperoc/es/ac71aBusquedaRegistrosWar/empresa/09223",
      "_links": {
        "self": {
          "name": "EDAFOTEC SOLUCIONES BASADAS EN LA NATURALEZA, S.L.",
          "href": "https://api.euskadi.eus/procurements/companies/09223"
        }
      }
    },
    {
      "name": "ESPECTÁCULOS TOMAS TODO PARA EL OCIO Y LA DIVERSIÓN, S.L.",
      "registrationNumber": "09456",
      "identificationNumber": "B26328765",
      "address": "PASEO DEL CIDACOS Nº35",
      "location": {
        "postalCode": "26560",
        "municipality": "Autol",
        "county": "Rioja, La",
        "municipalityId": "021",
        "countyId": "26"
      },
      "economicActivities": [
        {
          "id": "1.965.4",
          "name": "Empresas de espectáculos",
          "_links": {
            "self": {
              "name": "Empresas de espectáculos",
              "href": "https://api.euskadi.eus/procurements/companies/economic-activities/1.965.4"
            }
          }
        },
        {
          "id": "1.982.4",
          "name": "Otras atracciones propias de ferias y verbena fuera de establecimiento",
          "_links": {
            "self": {
              "name": "Otras atracciones propias de ferias y verbena fuera de establecimiento",
              "href": "https://api.euskadi.eus/procurements/companies/economic-activities/1.982.4"
            }
          }
        }
      ],
      "certificateStartDate": "2024-08-21",
      "certificateEndDate": "2025-02-21",
      "object": "1.- LA EXPLOTACIÓN DE RECINTOS FERIALES Y PARQUES DE ATRACCIONES INFANTILES, EN LOCALES PROPIOS O ARRENDADOS, O CONCEDIENDO SU EXPLOTACIÓN A TERCERAS PERSONAS Y CUALQUIER ACTIVIDAD RELACIONADA CON EL OCIO. - 2.- LA EXPLOTACIÓN, ARRENDAMIENTO Y CESIÓN POR CUALQUIER FORMA VÁLIDA EN DERECHO, DE TODO TIPO DE ATRACCIONES Y JUEGOS PARA FERIAS Y PARQUES DE RECREO, ASÍ COMO TODO EL MATERIAL Y UTILLAJE, PRECISO PARA SU FUNCIONAMIENTO.",
      "mainEntityOfPage": "https://www.contratacion.euskadi.eus/webkpe00-kperoc/es/ac71aBusquedaRegistrosWar/empresa/09456",
      "_links": {
        "self": {
          "name": "ESPECTÁCULOS TOMAS TODO PARA EL OCIO Y LA DIVERSIÓN, S.L.",
          "href": "https://api.euskadi.eus/procurements/companies/09456"
        }
      }
    },
    {
      "name": "BERACIVIL, S.L.",
      "registrationNumber": "09428",
      "identificationNumber": "B01534031",
      "address": "Poligono Lacorzanilla 1",
      "location": {
        "postalCode": "01211",
        "municipality": "Berantevilla",
        "county": "Araba/Álava",
        "municipalityId": "014",
        "countyId": "01"
      },
      "economicActivities": [
        {
          "id": "1.507",
          "name": "Construcción, reparación y conservación de toda clase obras",
          "_links": {
            "self": {
              "name": "Construcción, reparación y conservación de toda clase obras",
              "href": "https://api.euskadi.eus/procurements/companies/economic-activities/1.507"
            }
          }
        }
      ],
      "certificateStartDate": "2024-08-21",
      "certificateEndDate": "2025-02-21",
      "object": "A) - LA CONSTRUCCIÓN DE OBRAS PÚBLICAS EN GENERAL, Y EN PARTICULAR, MOVIMIENTOS DE TIERRAS, RELLENOS COMPACTALES, CIMENTACIONES, AFIRMADOS, RIEGOS ASFÁLTICOS, FABRICACIÓN Y EMPLEO DE AGLOMERADOS, CONDUCCIÓN DE AGUAS Y SANEAMIENTOS DE TODA CLASE, CANALIZACIONES, ESTRUCTURAS DE HORMIGÓN ARMADO Y METÁLICAS, FABRICACIÓN DE MATERIALES PARA LA CONSTRUCCIÓN EN GENERAL, IMPERMEABILIZACIONES, CONSTRUCCIÓN DE CARRETERAS, EXPLOTACIÓN DE CANTERAS Y FABRICACIÓN DE HORMIGONES Y PRODUCTOS ASFÁLTICOS. B) LA TENENCIA, PROMOCIÓN, CONSTRUCCIÓN, COMPRA, VENTA, ARRENDAMIENTO Y COMERCIALIZACIÓN EN GENERAL DE TODA CLASE DE EDIFICACIONES, TERRENOS, SOLARES, FINCAS RÚSTICAS Y URBANAS, INSTALACIONES ELÉCTRICAS Y DE FONTANERÍA; LA ENAJENACIÓN, VENTA, ARRIENDO O EXPLOTACIÓN EN CUALQUIER FORMA DE TODA CLASE DE INMUEBLES, EDIFICIOS, PISOS, APARTAMENTOS, LOCALES COMERCIALES O INDUSTRIALES, OFICINAS Y HOTELES O ESTABLECIMIENTOS DE HOSTELERÍA EN GENERAL. LA ADQUISICIÓN, CESIÓN, TENENCIA, DISFRUTE, ADMINISTRACIÓN, GESTIÓN Y NEGOCIACIÓN EN GENERAL, POR Y A FAVOR DE LA SOCIEDAD, DE TÍTULOS, VALORES, ACCIONES, BONOS, OBLIGACIONES, PATENTES, MARCAS, RÓTULOS, NOMBRES COMERCIALES Y TODA CLASE DE PERTENENCIAS DE PROPIEDAD INDUSTRIAL O INTELECTUAL, TODO ELLO, SIN INCIDIR EN LAS ACTIVIDADES U OPERACIONES REGULADAS POR LA LEGISLACIÓN DE INSTITUCIONES DE INVERSIÓN COLECTIVA Y LA LEY DEL MERCADO DE VALORES. C) LA CONSTITUCIÓN, CON LA CONCURRENCIA DE OTRAS PERSONAS, DE TODA CLASE DE SOCIEDADES MERCANTILES, ASÍ COMO LA PARTICIPACIÓN EN OTRAS YA CONSTITUIDAS, PUDIENDO OSTENTAR EN TODAS ELLAS CARGOS DE ADMINISTRACIÓN, DIRECCIÓN O CONTROL, MEDIANTE LA OPORTUNA DELEGACIÓN EN PERSONA FÍSICA. D) LA REALIZACIÓN DE ESTUDIOS ECONÓMICOS, CONTABLES Y FINANCIEROS DE TODO TIPO DE SECTORES Y EMPRESAS, EL DESEMPEÑO Y EJECUCIÓN DE TODA CLASE DE ENCARGOS Y REPRESENTACIONES DE CONFIANZA QUE SE LE CONFIERAN Y CUANTOS ACTOS IMPLIQUEN GESTIÓN A NOMBRE E INTERESES DE TERCEROS EN LA VIDA ECONÓMICA O MERCANTIL, INCLUSO ASUMIENDO LA REPRESENTACIÓN DE GRUPOS DE ACCIONISTAS, PARTÍCIPES U OBLIGACIONES Y LA INTERVENCIÓN, MEDIACIÓN O PARTICIPACIÓN EN FUSIONES O ABSORCIONES DE EMPRESAS. E) EL DESARROLLO Y EJECUCIÓN DE LAS ACTIVIDADES CARACTERÍSTICAS DEL TRANSPORTE PÚBLICO DE PERSONAS, VIAJEROS, MERCANCÍAS Y EQUIPAJES POR CARRETERA, EN TODA CLASE DE VEHÍCULOS, POR CUENTA PROPIA Y AJENA.",
      "mainEntityOfPage": "https://www.contratacion.euskadi.eus/webkpe00-kperoc/es/ac71aBusquedaRegistrosWar/empresa/09428",
      "_links": {
        "self": {
          "name": "BERACIVIL, S.L.",
          "href": "https://api.euskadi.eus/procurements/companies/09428"
        }
      }
    },
    {
      "name": "SERVICIOS LIBERY 2020, S.L.",
      "registrationNumber": "07037",
      "identificationNumber": "B24733495",
      "address": "CALLE MEDIO, NUM 5",
      "location": {
        "postalCode": "24199",
        "municipality": "Villaturiel",
        "county": "León",
        "municipalityId": "227",
        "countyId": "24"
      },
      "economicActivities": [
        {
          "id": "1.721.3",
          "name": "Transporte de viajeros por carretera",
          "_links": {
            "self": {
              "name": "Transporte de viajeros por carretera",
              "href": "https://api.euskadi.eus/procurements/companies/economic-activities/1.721.3"
            }
          }
        }
      ],
      "certificateStartDate": "2024-08-21",
      "certificateEndDate": "2025-02-19",
      "object": "-TRANSPORTE PÚBLICO DE VIAJEROS POR CARRETERA. EL TRANSPORTE DE VIAJEROS POR LÍNEA REGULAR. EL TRANSPORTE DE VIAJEROS DISCRECIONAL. -EL SERVICIO DE TAXI. - LA HOSTELERÍA, BARES Y SIMILARES EN LOCALES PROPIOA O AJENOS, ASÍ COMO LAS OPERACIONES COMERCIALES, INDUSTRIALES Y FINANCIERAS CON ELLO RELACIONADAS. - EXPLOTACIÓN DE MÁQUINAS RECREATIVAS. - REPARACIÓN DE TODA CLASE DE VEHÍCULOS Y MAQUINARIA, TANTO PROPIOS COMO DE TERCEROS. - TRANSPORTE PÚBLICO DE MERCANCÍAS POR CARRETERA. MONTAJE Y DESMONTAJE DE GRADAS MÓVILES, DE TODO TIPO, TANTO PROPIAS COMO DE TERCEROS APTAS PARA LA REALIZACIÓN DE CUALQUIER EVENTO DEPORTIVO, LÚDICO Y CULTURAL. MONTAJE Y DESMONTAJE DE ESCENARIOS DE TODO TIPO, TANTO PROPIOS COMO DE PROPIEDAD DE TERCEROS. DISCOTECA MÓVIL. SERVICIOS DE TRANSPORTE PÚBLICO DE VIAJEROS EN VEHÍCULOS LIMUSINE. ACTIVIDAD DE PUBLICIDAD MÓVIL DE TODO TIPO. COMPRAVENTA DE VEHÍCULOS DE TODO TIPO. ORGANIZACIÓN DE TODO TIPO DE EVENTOS DEPORTIVOS, LÚDICOS Y CULTURALES. MONTAJE Y DESMONTAJE DE TODO TIPO DE ESTRUCTURAS, TANTO PROPIAS COMO DE TERCEROS. - COMPRAVENTA Y ALQUILER DE INMUEBLES. - ALQUILER DE TRASTEROS. - ALQUILER DE FURGONETAS SIN CONDUCTOR. - ALQUILER DE PARKING PARA CARAVANAS\n. ",
      "mainEntityOfPage": "https://www.contratacion.euskadi.eus/webkpe00-kperoc/es/ac71aBusquedaRegistrosWar/empresa/07037",
      "_links": {
        "self": {
          "name": "SERVICIOS LIBERY 2020, S.L.",
          "href": "https://api.euskadi.eus/procurements/companies/07037"
        }
      }
    },
    {
      "name": "S.E.C. SERVICIOS Y EQUIPOS CANINOS, S.L.",
      "registrationNumber": "02944",
      "identificationNumber": "B48836779",
      "address": "C/ GATZARRIÑE, S/N",
      "location": {
        "postalCode": "48600",
        "municipality": "Sopela",
        "county": "Bizkaia",
        "municipalityId": "085",
        "countyId": "48"
      },
      "economicActivities": [
        {
          "id": "1.659.7",
          "name": "Venta al por menor de semillas, abonos, flores, plantas y pequeños animales",
          "_links": {
            "self": {
              "name": "Venta al por menor de semillas, abonos, flores, plantas y pequeños animales",
              "href": "https://api.euskadi.eus/procurements/companies/economic-activities/1.659.7"
            }
          }
        },
        {
          "id": "1.979.4",
          "name": "Adiestramiento de animales y otros servicios de atención de animales",
          "_links": {
            "self": {
              "name": "Adiestramiento de animales y otros servicios de atención de animales",
              "href": "https://api.euskadi.eus/procurements/companies/economic-activities/1.979.4"
            }
          }
        },
        {
          "id": "1.999",
          "name": "Otros servicios n.c.o.p",
          "_links": {
            "self": {
              "name": "Otros servicios n.c.o.p",
              "href": "https://api.euskadi.eus/procurements/companies/economic-activities/1.999"
            }
          }
        }
      ],
      "certificateStartDate": "2024-08-20",
      "certificateEndDate": "2025-02-20",
      "object": "LA FORMACIÓN A PARTICULARES, EMPRESAS, ESTAMENTOS, CENTROS PÚBLICOS, COMUNIDADES, ASOCIACIONES, INSTITUCIONES Y EN GENERAL A TODO EL COLECTIVO SOCIAL, DE CONOCIMIENTO, MANEJO E INTERELACIÓN CON LOS ANIMALES Y ELMEDIO AMBIENTE. LA COLABORACIÓN Y APOYO DE ASOCIACIONES NO LUCRATIVAS QUE POTENCIEN EL CORRECTO ENTENDIMIENTO ENTRE LAS PERSONAS, ANIMALES Y EL MEDIO NATURAL, CUYOS OBJETIVOS COINCIDAN CON LOS FINES DE ESTA SOCIEDAD. LA PREPARACIÓN Y ORGANIZACIÓ DE EVENTOS, CONCURSOS Y EXPOSICIONES QUE POTENCIEN EL CONOCIMIENTO DEL MUNDO ANIMAL, A TODA CLASE DE PERSONAS FÍSICAS O JURÍDICAS. LA REPRODUCCIÓN, CRIANZA, CUIDADO, EXPLOTACIÓN, COMPRA-VENTA, IMPORTACIÓN Y EXPORTACIÓN, ASÍ COMO DISTRIBUCIÓN Y COMERCIALIZACIÓN DE TODA CLASE DE ANIMALES Y PLANTAS ASÍ COMO EL ADIESTRAMIENTO DE ANIMALES PARA COMPAÑÍA Y DEFENSA. LA EXPLOTACIÓN EN RÉGIMENDE HOTEL PARA ANIMALES DOMÉSTICOS. EL ALMACENAMIENTO, COMPRA-VENTA, IMPORTACIÓN, EXPORTACIÓN Y DISTRIBUCIÓN DE TODO TIPO DE PRODUCTOS, ACCESORIOS Y MATERIAS PRIMAS, MATERIALES Y DERIVADOS, RELACIONADOS CON LA ALIMENTACIÓN, CUIDADO, ASEO, DESINSECTACIÓN Y DESINFECCIÓN PARA ANIMALES, ASÍ COMO PRODUCTOS ZOOSANITARIOS. LA REALIZACIÓN DE TODO TIPO DE SERVICIOS VINCULADOS CON LOS ANIMALES Y PLANTAS, DESTINADOS A PARTICULARES, EMPRESAS, ESTAMENTOS, CENTROS PÚBLICOS, COMUNIDADES, ASOCIACIONES, INSTITUCIONES Y, EN GENERAL,A TODO EL COLECTIVO SOCIAL, SIN EXCEPTUAR LOS DE PELUQUERÍA, LIMPIEZA Y ASEO",
      "mainEntityOfPage": "https://www.contratacion.euskadi.eus/webkpe00-kperoc/es/ac71aBusquedaRegistrosWar/empresa/02944",
      "_links": {
        "self": {
          "name": "S.E.C. SERVICIOS Y EQUIPOS CANINOS, S.L.",
          "href": "https://api.euskadi.eus/procurements/companies/02944"
        }
      }
    },
    {
      "name": "MAESWELL SERVICIOS ENERGETICOS, S.L.",
      "registrationNumber": "09213",
      "identificationNumber": "B44766772",
      "address": "CL ARBOLEDA 18 EX342",
      "location": {
        "postalCode": "28031",
        "municipality": "Madrid",
        "county": "Madrid",
        "municipalityId": "079",
        "countyId": "28"
      },
      "economicActivities": [
        {
          "id": "1.843.1",
          "name": "Servicios técnicos de ingeniería",
          "_links": {
            "self": {
              "name": "Servicios técnicos de ingeniería",
              "href": "https://api.euskadi.eus/procurements/companies/economic-activities/1.843.1"
            }
          }
        }
      ],
      "certificateStartDate": "2024-08-19",
      "certificateEndDate": "2025-02-19",
      "object": "LA ORGANIZACIÓN DE LOS MEDIOS MATERIALES Y HUMANOS, COMO SOCIEDAD DE MEDIOS, PARA EL EJERCICIO DE LAS SIGUIENTES ACTIVIDADES: - SERVICIOS DE AUDITORÍA ENERGÉTICA Y DE INSPECCIÓN DE EFICIENCIA ENERGÉTICA EN EDIFICIOS. -OFICINA TÉCNICA DESTINADA A LA INGENIERÍA DE INSTALACIONES TÉRMICAS, ELÉCTRICAS Y MECÁNICAS PARA EL DESARROLLO DE PROYECTOS ENERGÉTICOS Y A LA IMPLANTACIÓN DE MEDIDAS DE AHORRO ENERGÉTICO.",
      "mainEntityOfPage": "https://www.contratacion.euskadi.eus/webkpe00-kperoc/es/ac71aBusquedaRegistrosWar/empresa/09213",
      "_links": {
        "self": {
          "name": "MAESWELL SERVICIOS ENERGETICOS, S.L.",
          "href": "https://api.euskadi.eus/procurements/companies/09213"
        }
      }
    },
    {
      "name": "PN PRECAST, S.L.",
      "registrationNumber": "09216",
      "identificationNumber": "B06547350",
      "address": "AVDA DEL ROBLE 35",
      "location": {
        "postalCode": "06490",
        "municipality": "Puebla de la Calzada",
        "county": "Badajoz",
        "municipalityId": "103",
        "countyId": "06"
      },
      "economicActivities": [
        {
          "id": "1.617.9",
          "name": "Venta al por mayor interindustrial de otros productos n.c.o.p",
          "_links": {
            "self": {
              "name": "Venta al por mayor interindustrial de otros productos n.c.o.p",
              "href": "https://api.euskadi.eus/procurements/companies/economic-activities/1.617.9"
            }
          }
        }
      ],
      "certificateStartDate": "2024-08-19",
      "certificateEndDate": "2025-02-19",
      "object": "EL DESARROLLO, DISEÑO, PRODUCCIÓN, REPARACIÓN, MANTENIMIENTO Y COMERCIALIZACIÓN DE PRODUCTOS Y MAQUINARIA INDUSTRIAL. TANTO LOS DESTINADOS AL CONSUMO EN LOS PROCESOS DE PRODUCCIÓN, DE SEGURIDAD E HIGIENE O DE PROTECCIÓN DEL MEDIO AMBIENTE, COMO LOS RELATIVOS A EQUIPOS DE PRODUCCIÓN, O PARTES Y COMPONENTES DE ÉSTOS. DICHO OBJETO SE DEBERÁ COMPRENDER EN SENTIDO AMPLIO Y SIN CARÁCTER RESTRICTIVO Y SE ENTENDERÁ EXTENSIBLE A CUALQUIER PRODUCTO DE USO INDUSTRIAL QUE PUDIERE SER NECESARIO PARA SATISFACER CUALESQUIERA DE LAS NECESIDADES QUE LAS INDUSTRIAS PUEDAN TENER PARA APLICARLO EN CUALQUIERA DE LOS USOS, PRESENTES O FUTUROS, QUE PUEDAN REQUERIRSE. ",
      "mainEntityOfPage": "https://www.contratacion.euskadi.eus/webkpe00-kperoc/es/ac71aBusquedaRegistrosWar/empresa/09216",
      "_links": {
        "self": {
          "name": "PN PRECAST, S.L.",
          "href": "https://api.euskadi.eus/procurements/companies/09216"
        }
      }
    }
  ]
}