{
  "totalItems": 9042,
  "totalPages": 905,
  "currentPage": 875,
  "itemsOfPage": 10,
  "items": [
    {
      "name": "TALLERES MECÁNICOS DE GUERNICA, S.A.",
      "registrationNumber": "04966",
      "identificationNumber": "A48083810",
      "address": "Bº KURTZERO, 77",
      "location": {
        "postalCode": "48392",
        "municipality": "Muxika",
        "county": "Bizkaia",
        "municipalityId": "067",
        "countyId": "48"
      },
      "object": ".",
      "mainEntityOfPage": "https://www.contratacion.euskadi.eus/webkpe00-kperoc/es/ac71aBusquedaRegistrosWar/empresa/04966",
      "_links": {
        "self": {
          "name": "TALLERES MECÁNICOS DE GUERNICA, S.A.",
          "href": "https://api.euskadi.eus/procurements/companies/04966"
        }
      }
    },
    {
      "name": "AUTOMÓVILES BERASATEGUI, S.L.",
      "registrationNumber": "04967",
      "identificationNumber": "B48427256",
      "address": "POLÍGONO UGALDEGUREN II - ZONA EC 1",
      "location": {
        "postalCode": "48170",
        "municipality": "Zamudio",
        "county": "Bizkaia",
        "municipalityId": "905",
        "countyId": "48"
      },
      "object": "Reparación de vehiculos",
      "mainEntityOfPage": "https://www.contratacion.euskadi.eus/webkpe00-kperoc/es/ac71aBusquedaRegistrosWar/empresa/04967",
      "_links": {
        "self": {
          "name": "AUTOMÓVILES BERASATEGUI, S.L.",
          "href": "https://api.euskadi.eus/procurements/companies/04967"
        }
      }
    },
    {
      "name": "EIBAR MOTOR, S.L.",
      "registrationNumber": "04968",
      "identificationNumber": "B20158986",
      "address": "C/ OTAOLA, 17",
      "location": {
        "postalCode": "20600",
        "municipality": "Eibar",
        "county": "Gipuzkoa",
        "municipalityId": "030",
        "countyId": "20"
      },
      "object": ".",
      "mainEntityOfPage": "https://www.contratacion.euskadi.eus/webkpe00-kperoc/es/ac71aBusquedaRegistrosWar/empresa/04968",
      "_links": {
        "self": {
          "name": "EIBAR MOTOR, S.L.",
          "href": "https://api.euskadi.eus/procurements/companies/04968"
        }
      }
    },
    {
      "name": "MOTOR VITORIA, S.A.",
      "registrationNumber": "04969",
      "identificationNumber": "A01047091",
      "address": "ALTO DE ARMENTIA, 4",
      "location": {
        "postalCode": "01007",
        "municipality": "Vitoria-Gasteiz",
        "county": "Araba/Álava",
        "municipalityId": "059",
        "countyId": "01"
      },
      "object": ".",
      "mainEntityOfPage": "https://www.contratacion.euskadi.eus/webkpe00-kperoc/es/ac71aBusquedaRegistrosWar/empresa/04969",
      "_links": {
        "self": {
          "name": "MOTOR VITORIA, S.A.",
          "href": "https://api.euskadi.eus/procurements/companies/04969"
        }
      }
    },
    {
      "name": "AUTOMOVILES GALINDO, S.A.",
      "registrationNumber": "04971",
      "identificationNumber": "A48803282",
      "address": "Vega de Galindo s/n",
      "location": {
        "postalCode": "48910",
        "municipality": "Sestao",
        "county": "Bizkaia",
        "municipalityId": "084",
        "countyId": "48"
      },
      "object": "Reparación de vehículos a motor, taller mecánico y de chapa y pintura, la compra, venta, almacenamiento, comercialización, importación y exportación de vehículos a motor y sus accesorios, tanto en marcas nacionales como extranjeras.",
      "mainEntityOfPage": "https://www.contratacion.euskadi.eus/webkpe00-kperoc/es/ac71aBusquedaRegistrosWar/empresa/04971",
      "_links": {
        "self": {
          "name": "AUTOMOVILES GALINDO, S.A.",
          "href": "https://api.euskadi.eus/procurements/companies/04971"
        }
      }
    },
    {
      "name": "KEP-AUTO, S.L.",
      "registrationNumber": "04972",
      "identificationNumber": "B20325239",
      "address": "AVENIDA DE TOLOSA, 184",
      "location": {
        "postalCode": "20018",
        "municipality": "Donostia / San Sebastián",
        "county": "Gipuzkoa",
        "municipalityId": "069",
        "countyId": "20"
      },
      "object": ".",
      "mainEntityOfPage": "https://www.contratacion.euskadi.eus/webkpe00-kperoc/es/ac71aBusquedaRegistrosWar/empresa/04972",
      "_links": {
        "self": {
          "name": "KEP-AUTO, S.L.",
          "href": "https://api.euskadi.eus/procurements/companies/04972"
        }
      }
    },
    {
      "name": "BOSTEGIN, S.R.L.",
      "registrationNumber": "04974",
      "identificationNumber": "B95540258",
      "address": "ESTARTETXE, 5",
      "location": {
        "postalCode": "48940",
        "municipality": "Leioa",
        "county": "Bizkaia",
        "municipalityId": "054",
        "countyId": "48"
      },
      "object": ".",
      "mainEntityOfPage": "https://www.contratacion.euskadi.eus/webkpe00-kperoc/es/ac71aBusquedaRegistrosWar/empresa/04974",
      "_links": {
        "self": {
          "name": "BOSTEGIN, S.R.L.",
          "href": "https://api.euskadi.eus/procurements/companies/04974"
        }
      }
    },
    {
      "name": "TACOMI, S.A.",
      "registrationNumber": "04975",
      "identificationNumber": "A48281620",
      "address": "POLÍGONO NEINVER, C/ ARESTI, 7",
      "location": {
        "postalCode": "48007",
        "municipality": "Derio",
        "county": "Bizkaia",
        "municipalityId": "901",
        "countyId": "48"
      },
      "object": ".",
      "mainEntityOfPage": "https://www.contratacion.euskadi.eus/webkpe00-kperoc/es/ac71aBusquedaRegistrosWar/empresa/04975",
      "_links": {
        "self": {
          "name": "TACOMI, S.A.",
          "href": "https://api.euskadi.eus/procurements/companies/04975"
        }
      }
    },
    {
      "name": "EVOLERS ENTERPRISE, S.L.",
      "registrationNumber": "04984",
      "identificationNumber": "B01498625",
      "address": "C/ ALBERT EINSTEIN, 15 PARQUE TECNOLÓGICO DE ALAVA (MIÑANO)",
      "location": {
        "postalCode": "01510",
        "municipality": "Vitoria-Gasteiz",
        "county": "Araba/Álava",
        "municipalityId": "059",
        "countyId": "01"
      },
      "object": ".",
      "mainEntityOfPage": "https://www.contratacion.euskadi.eus/webkpe00-kperoc/es/ac71aBusquedaRegistrosWar/empresa/04984",
      "_links": {
        "self": {
          "name": "EVOLERS ENTERPRISE, S.L.",
          "href": "https://api.euskadi.eus/procurements/companies/04984"
        }
      }
    },
    {
      "name": "TUBERIAS UNSASA 210, S.L.",
      "registrationNumber": "04995",
      "identificationNumber": "B95538674",
      "address": "BARRIO SANGRONIZ, 38 PABELLÓN 1",
      "location": {
        "postalCode": "48150",
        "municipality": "Sondika",
        "county": "Bizkaia",
        "municipalityId": "904",
        "countyId": "48"
      },
      "object": ".",
      "mainEntityOfPage": "https://www.contratacion.euskadi.eus/webkpe00-kperoc/es/ac71aBusquedaRegistrosWar/empresa/04995",
      "_links": {
        "self": {
          "name": "TUBERIAS UNSASA 210, S.L.",
          "href": "https://api.euskadi.eus/procurements/companies/04995"
        }
      }
    }
  ]
}