{
  "totalItems": 9042,
  "totalPages": 905,
  "currentPage": 878,
  "itemsOfPage": 10,
  "items": [
    {
      "name": "IBARRAKO UZTURPE, SOC. COOP.",
      "registrationNumber": "05208",
      "identificationNumber": "F20190195",
      "address": "Julián Gayarre, 21 - 1º Dcha.",
      "location": {
        "postalCode": "20400",
        "municipality": "Ibarra",
        "county": "Gipuzkoa",
        "municipalityId": "042",
        "countyId": "20"
      },
      "classification": [
        {
          "id": "S",
          "name": "Servicios",
          "groups": [
            {
              "id": "U",
              "subgroups": [
                {
                  "id": "01",
                  "name": "Servicios de limpieza ",
                  "categories": [
                    {
                      "id": "1",
                      "name": "Desde 0 Hasta 150.000",
                      "_links": {
                        "self": {
                          "name": "Desde 0 Hasta 150.000",
                          "href": "https://api.euskadi.eus/procurements/companies/types/S/categories/1"
                        }
                      }
                    }
                  ],
                  "_links": {
                    "self": {
                      "name": "Servicios de limpieza ",
                      "href": "https://api.euskadi.eus/procurements/companies/types/S/groups/U/subgroups/01"
                    }
                  }
                }
              ],
              "_links": {
                "self": {
                  "href": "https://api.euskadi.eus/procurements/companies/types/S/groups/U"
                }
              }
            }
          ],
          "_links": {
            "self": {
              "name": "Servicios",
              "href": "https://api.euskadi.eus/procurements/companies/types/S"
            }
          }
        }
      ],
      "object": "Servicios de limpieza",
      "mainEntityOfPage": "https://www.contratacion.euskadi.eus/webkpe00-kperoc/es/ac71aBusquedaRegistrosWar/empresa/05208",
      "_links": {
        "self": {
          "name": "IBARRAKO UZTURPE, SOC. COOP.",
          "href": "https://api.euskadi.eus/procurements/companies/05208"
        }
      }
    },
    {
      "name": "CONSTRUCCIONES Y OBRAS CADAVID, S.L.",
      "registrationNumber": "05217",
      "identificationNumber": "B95692646",
      "address": "Zamácola, 7 Lonja 3",
      "location": {
        "postalCode": "48003",
        "municipality": "Bilbao",
        "county": "Bizkaia",
        "municipalityId": "020",
        "countyId": "48"
      },
      "object": "-",
      "mainEntityOfPage": "https://www.contratacion.euskadi.eus/webkpe00-kperoc/es/ac71aBusquedaRegistrosWar/empresa/05217",
      "_links": {
        "self": {
          "name": "CONSTRUCCIONES Y OBRAS CADAVID, S.L.",
          "href": "https://api.euskadi.eus/procurements/companies/05217"
        }
      }
    },
    {
      "name": "RENOVA NORTE, S.L.",
      "registrationNumber": "05221",
      "identificationNumber": "B95640082",
      "address": "Alameda Serralta 16-Pabellón",
      "location": {
        "postalCode": "48903",
        "municipality": "Barakaldo",
        "county": "Bizkaia",
        "municipalityId": "013",
        "countyId": "48"
      },
      "object": "-",
      "mainEntityOfPage": "https://www.contratacion.euskadi.eus/webkpe00-kperoc/es/ac71aBusquedaRegistrosWar/empresa/05221",
      "_links": {
        "self": {
          "name": "RENOVA NORTE, S.L.",
          "href": "https://api.euskadi.eus/procurements/companies/05221"
        }
      }
    },
    {
      "name": ".JOSE MARIA ALBERDI JIMENEZ",
      "registrationNumber": "05228",
      "identificationNumber": "15916315Q",
      "address": "AVENIDA DE TOLOSA 79 BAJO",
      "location": {
        "postalCode": "20018",
        "municipality": "Donostia / San Sebastián",
        "county": "Gipuzkoa",
        "municipalityId": "069",
        "countyId": "20"
      },
      "economicActivities": [
        {
          "id": "2.111",
          "name": "Doctores y licenciados en ciencias físicas, geofísicas, geológicas",
          "_links": {
            "self": {
              "name": "Doctores y licenciados en ciencias físicas, geofísicas, geológicas",
              "href": "https://api.euskadi.eus/procurements/companies/economic-activities/2.111"
            }
          }
        }
      ],
      "object": ".DOCTORES Y LICENCIADOS EN CIENCIAS FISICAS, GEOFISIC, GEOL.",
      "mainEntityOfPage": "https://www.contratacion.euskadi.eus/webkpe00-kperoc/es/ac71aBusquedaRegistrosWar/empresa/05228",
      "_links": {
        "self": {
          "name": ".JOSE MARIA ALBERDI JIMENEZ",
          "href": "https://api.euskadi.eus/procurements/companies/05228"
        }
      }
    },
    {
      "name": "HEGOAK, S.L.",
      "registrationNumber": "05230",
      "identificationNumber": "B48488423",
      "address": "Zancoeta, 5",
      "location": {
        "postalCode": "48013",
        "municipality": "Bilbao",
        "county": "Bizkaia",
        "municipalityId": "020",
        "countyId": "48"
      },
      "object": "-",
      "mainEntityOfPage": "https://www.contratacion.euskadi.eus/webkpe00-kperoc/es/ac71aBusquedaRegistrosWar/empresa/05230",
      "_links": {
        "self": {
          "name": "HEGOAK, S.L.",
          "href": "https://api.euskadi.eus/procurements/companies/05230"
        }
      }
    },
    {
      "name": "SIPREX PREVENCIÓN, S.L.",
      "registrationNumber": "05236",
      "identificationNumber": "B20844304",
      "address": "Avda. Salis, 30 - B",
      "location": {
        "postalCode": "20304",
        "municipality": "Irun",
        "county": "Gipuzkoa",
        "municipalityId": "045",
        "countyId": "20"
      },
      "object": "servicios de prevención, incendios, accidente",
      "mainEntityOfPage": "https://www.contratacion.euskadi.eus/webkpe00-kperoc/es/ac71aBusquedaRegistrosWar/empresa/05236",
      "_links": {
        "self": {
          "name": "SIPREX PREVENCIÓN, S.L.",
          "href": "https://api.euskadi.eus/procurements/companies/05236"
        }
      }
    },
    {
      "name": "OBRAS Y SERVICIOS EOBIETA, S.L.",
      "registrationNumber": "05240",
      "identificationNumber": "B01514405",
      "address": "General Alava, 4 - 2º",
      "location": {
        "postalCode": "01005",
        "municipality": "Vitoria-Gasteiz",
        "county": "Araba/Álava",
        "municipalityId": "059",
        "countyId": "01"
      },
      "object": "-",
      "mainEntityOfPage": "https://www.contratacion.euskadi.eus/webkpe00-kperoc/es/ac71aBusquedaRegistrosWar/empresa/05240",
      "_links": {
        "self": {
          "name": "OBRAS Y SERVICIOS EOBIETA, S.L.",
          "href": "https://api.euskadi.eus/procurements/companies/05240"
        }
      }
    },
    {
      "name": "CONSTRUCCIONES ARRIGORRIAGA, S.L.",
      "registrationNumber": "05242",
      "identificationNumber": "B48195093",
      "address": "El Progreso, s/n",
      "location": {
        "postalCode": "48480",
        "municipality": "Arrigorriaga",
        "county": "Bizkaia",
        "municipalityId": "011",
        "countyId": "48"
      },
      "object": "Construcción, promoción y urbanización de toda clase de terrenos, edificios industriales y de viviendas; la compra y venta de terrenos, viviendas y locales y en general todo aquello que directa o indirectamente se relacione con los fines enunciados.",
      "mainEntityOfPage": "https://www.contratacion.euskadi.eus/webkpe00-kperoc/es/ac71aBusquedaRegistrosWar/empresa/05242",
      "_links": {
        "self": {
          "name": "CONSTRUCCIONES ARRIGORRIAGA, S.L.",
          "href": "https://api.euskadi.eus/procurements/companies/05242"
        }
      }
    },
    {
      "name": "LANDU JARDINERIA S.L.",
      "registrationNumber": "05251",
      "identificationNumber": "B20798468",
      "address": "San Pedro 5-5º D",
      "location": {
        "postalCode": "20540",
        "municipality": "Eskoriatza",
        "county": "Gipuzkoa",
        "municipalityId": "034",
        "countyId": "20"
      },
      "object": "jardineria y servicios similares",
      "mainEntityOfPage": "https://www.contratacion.euskadi.eus/webkpe00-kperoc/es/ac71aBusquedaRegistrosWar/empresa/05251",
      "_links": {
        "self": {
          "name": "LANDU JARDINERIA S.L.",
          "href": "https://api.euskadi.eus/procurements/companies/05251"
        }
      }
    },
    {
      "name": "ARDITURRI BIDANIA S.L.",
      "registrationNumber": "05279",
      "identificationNumber": "B75025312",
      "address": "Astigarragako Bidea nº 2 planta 5 of. 5",
      "location": {
        "postalCode": "20180",
        "municipality": "Oiartzun",
        "county": "Gipuzkoa",
        "municipalityId": "063",
        "countyId": "20"
      },
      "object": "Promocion, compra, venta y alquiler, asi como construccion de  todo tipo de inmuebles",
      "mainEntityOfPage": "https://www.contratacion.euskadi.eus/webkpe00-kperoc/es/ac71aBusquedaRegistrosWar/empresa/05279",
      "_links": {
        "self": {
          "name": "ARDITURRI BIDANIA S.L.",
          "href": "https://api.euskadi.eus/procurements/companies/05279"
        }
      }
    }
  ]
}