{
  "totalItems": 9042,
  "totalPages": 905,
  "currentPage": 786,
  "itemsOfPage": 10,
  "items": [
    {
      "name": "SESTRA, S.A.",
      "registrationNumber": "01352",
      "identificationNumber": "A20145108",
      "address": "C/ AMA KANDIDA, S/N.",
      "location": {
        "postalCode": "20140",
        "municipality": "Andoain",
        "county": "Gipuzkoa",
        "municipalityId": "009",
        "countyId": "20"
      },
      "economicActivities": [
        {
          "id": "1.843.1",
          "name": "Servicios técnicos de ingeniería",
          "_links": {
            "self": {
              "name": "Servicios técnicos de ingeniería",
              "href": "https://api.euskadi.eus/procurements/companies/economic-activities/1.843.1"
            }
          }
        }
      ],
      "certificateStartDate": "2005-06-27",
      "certificateEndDate": "2005-06-20",
      "object": "LA EXPLOTACIÓN DE UN NEGOCIO DEDICADO A ACTIVIDADES DE INGENIERÍA, INFRAESTRUCTURA, ARQUITECTURA Y URBANISMO, EDIFICACIONES INDUSTRIALES, PROMOCIÓN INMOBILIARIA, ASESORÍA TÉCNICA Y SERVICIOS",
      "mainEntityOfPage": "https://www.contratacion.euskadi.eus/webkpe00-kperoc/es/ac71aBusquedaRegistrosWar/empresa/01352",
      "_links": {
        "self": {
          "name": "SESTRA, S.A.",
          "href": "https://api.euskadi.eus/procurements/companies/01352"
        }
      }
    },
    {
      "name": "ALMEVAN, S.L. UNIPERSONAL",
      "registrationNumber": "02928",
      "identificationNumber": "B84070689",
      "address": "MADROÑO, 6 - NAVE 33 (PG. IND. LA MINA NORTE)",
      "location": {
        "postalCode": "28770",
        "municipality": "Colmenar Viejo",
        "county": "Madrid",
        "municipalityId": "045",
        "countyId": "28"
      },
      "economicActivities": [
        {
          "id": "1.659.3",
          "name": "Venta al por menor de aparatos médicos, ortopédicos, ópticos y fotográficos",
          "_links": {
            "self": {
              "name": "Venta al por menor de aparatos médicos, ortopédicos, ópticos y fotográficos",
              "href": "https://api.euskadi.eus/procurements/companies/economic-activities/1.659.3"
            }
          }
        }
      ],
      "certificateStartDate": "2005-06-27",
      "certificateEndDate": "2016-07-15",
      "object": "LA FABRICACIÓN, COMERCIALIZACIÓN, DISTRIBUCIÓN, ALQUILER, ALMACENAJE, COMPRAVENTA AL POR MAYOR Y AL DETALLE, IMPORTACIÓN Y EXPORTACIÓN DE TODO TIPO DE APARATOS ELECTRÓNICOS, ELÉCTRICOS MAGNÉTICOS Y MECÁNICOS O SIMILARES, CON SUS ACCESORIOS  CORRESPONDIENTES, PARA TODO TIPO DE APLICACIONES, INCLUIDO EL CAMPO DE LA MEDICINA, ASÍ COMO LA REPARACIÓN, EL MANTENIMIENTO Y EL ASESORAMIENTO  SOBRE EL USO DE LOS MISMOS.\r\nLAS INDICADAS ACTIVIDADES  PUEDEN SER DESARROLLADAS POR LA SOCIEDAD TOTAL O PARCIALMENTE, TANTO DE MODO DIRECTO COMO INDIRECTO Y EN ESTE SEGUNDO CASO, TAMBIÉN MEDIANTE SU PARTICIPACIÓN EN OTRAS SOCIEDADES CON OBJETO IDÉNTICO O ANÁLOGO.\r\nQUEDAN EXCLUÍDAS TODAS AQUELLAS ACTIVIDADES PARA CUYO EJERCICIO LA LEY EXIJA  REQUISITOS ESPECIALES QUE NO QUEDEN CUMPLIDOS POR ESTA SOCIEDAD    ",
      "mainEntityOfPage": "https://www.contratacion.euskadi.eus/webkpe00-kperoc/es/ac71aBusquedaRegistrosWar/empresa/02928",
      "_links": {
        "self": {
          "name": "ALMEVAN, S.L. UNIPERSONAL",
          "href": "https://api.euskadi.eus/procurements/companies/02928"
        }
      }
    },
    {
      "name": "EMPRESA DE TRANSFORMACIÓN AGRARIA, S.A.",
      "registrationNumber": "01660",
      "identificationNumber": "A28476208",
      "address": "C/ AGUSTÍN DE BETHENCOURT, Nº 17.",
      "location": {
        "postalCode": "28003",
        "municipality": "Madrid",
        "county": "Madrid",
        "municipalityId": "079",
        "countyId": "28"
      },
      "economicActivities": [
        {
          "id": "1.507",
          "name": "Construcción, reparación y conservación de toda clase obras",
          "_links": {
            "self": {
              "name": "Construcción, reparación y conservación de toda clase obras",
              "href": "https://api.euskadi.eus/procurements/companies/economic-activities/1.507"
            }
          }
        },
        {
          "id": "1.911",
          "name": "Servicios agrícolas y ganaderos",
          "_links": {
            "self": {
              "name": "Servicios agrícolas y ganaderos",
              "href": "https://api.euskadi.eus/procurements/companies/economic-activities/1.911"
            }
          }
        },
        {
          "id": "1.912",
          "name": "Servicios forestales",
          "_links": {
            "self": {
              "name": "Servicios forestales",
              "href": "https://api.euskadi.eus/procurements/companies/economic-activities/1.912"
            }
          }
        }
      ],
      "certificateStartDate": "2005-06-24",
      "certificateEndDate": "2005-11-30",
      "object": "LA EJECUCIÓN DE PLANES DE MEJORA FORZOSA DE FINCAS RÚSTICAS. LA ADQUISICIÓN DE FINCAS RÚSTICAS PARA SU TRANSFORMACIÓN Y MEJORA CON FINES DEMOSTRATIVOS, ASÍ COMO LA EXPLOTACIÓN Y ENAJENACIÓN DE LAS MISMAS CONFORME A LO DISPUESTO EN LAS NORMAS SOBRE REFORMA Y DESARROLLO AGRARIO, ASÍ COMO FORESTAL Y DE CONSERVACIÓN DE LA NATURALEZA. LA ADMINISTRACIÓN Y GESTIÓN DE FINCAS O EXPLOTACIONES DE CARÁCTER AGRARIO Y FORESTAL VINCULADAS AL ÁMBITO DE ACTUACIÓN DEL PATRIMONIO DEL ESTADO, EL INSTITUTO NACIONAL DE REFORMA Y DESARROLLO AGRARIO, DEL INSTITUTO NACIONAL PARA LA CONSERVACIÓN DE LA NATURALEZA, DE LAS COMUNIDADES AUTÓNOMAS, ASÍ COMO DE ENTIDADES PÚBLICAS O PRIVADAS QUE SE ENTREGUEN A LA EMPRESA CON TAL FIN. LA ELABORACIÓN A INSTANCIA DE PARTICULARES, CORPORACIONES LOCALES, COMUNIDADES AUTÓNOMAS Y OTRAS ENTIDADES U ORGANISMOS PÚBLICOS, DE ESTUDIOS, PLANES, PROYECTOS Y, EN GENERAL, LA REALIZACIÓN DE TODAS LAS ACTIVIDADES DE ASISTENCIA TÉCNICA, EN MATERIA AGRARIA Y FORESTAL, MEJORA DEL MEDIO RURAL, CONSERVACIÓN DE LA NATURALEZA Y ACUICULTURA. LA REALIZACIÓN DE ACTIVIDADES QUE TIENDAN A LA PROMOCIÓN Y DESARROLLO DE NUEVAS TECNOLOGÍAS RELACIONADAS CON LOS COMETIDOS DE LA EMPRESA. LA EJECUCIÓN DE OBRAS Y ACTIVIDADES DE CARÁCTER AGRARIO Y FORESTAL DE MEJORA Y EQUIPAMIENTO DEL MEDIO RURAL, DE CONSERVACIÓN DE LA NATURALEZA O DE ACUICULTURA, A INSTANCIA DE PARTICULARES, CORPORACIONES LOCALES, COMUNIDADES AUTÓNOMAS Y OTRAS ENTIDADES U ORGANISMOS PÚBLICOS. LA REALIZACIÓN A TÍTULO OBLIGATORIO POR ORDEN DEL INSTITUTO NACIONAL DE REFORMA Y DESARROLLO AGRARIO, DEL INSTITUTO NACIONAL PARA LA CONSERVACIÓN DE LA NATURALEZA O DE LAS COMUNIDADES AUTÓNOMAS, Y BAJO EL RÉGIMEN DEL ARTÍCULO 60 APARTADO 1) DE LA VIGENTE LEY DE CONTRATOS DEL ESTADO, DE LAS ACTUACIONES QUE, TENIENDO TAL CARÁCTER Y ESTANDO INCLUIDAS EN EL PRESENTE ARTÍCULO, QUEDEN RECOGIDAS EN LOS CONVENIOS SUSCRITOS CON DICHAS ENTIDADES PÚBLICAS",
      "mainEntityOfPage": "https://www.contratacion.euskadi.eus/webkpe00-kperoc/es/ac71aBusquedaRegistrosWar/empresa/01660",
      "_links": {
        "self": {
          "name": "EMPRESA DE TRANSFORMACIÓN AGRARIA, S.A.",
          "href": "https://api.euskadi.eus/procurements/companies/01660"
        }
      }
    },
    {
      "name": "LANIER ESPAÑA, S.A.",
      "registrationNumber": "02261",
      "identificationNumber": "A78347739",
      "address": "C/ ALBACETE, 1",
      "location": {
        "postalCode": "28027",
        "municipality": "Madrid",
        "county": "Madrid",
        "municipalityId": "079",
        "countyId": "28"
      },
      "economicActivities": [
        {
          "id": "1.659.2",
          "name": "Venta al por menor de muebles de oficina y máquinas y equipos de oficina",
          "_links": {
            "self": {
              "name": "Venta al por menor de muebles de oficina y máquinas y equipos de oficina",
              "href": "https://api.euskadi.eus/procurements/companies/economic-activities/1.659.2"
            }
          }
        }
      ],
      "certificateStartDate": "2005-06-24",
      "certificateEndDate": "2005-11-30",
      "object": "EL DISEÑO, FABRICACIÓN, COMPRAVENTA, ARRENDAMIENTO, INSTALACIÓN Y MANTENIMIETO DE TODO TIPO DE MÁQUINAS COPIADORAS Y DE FACSÍMILES Y LOS REPUESTOS Y SUMINISTROS PARA LOS MISMOS Y EL OTORGAMIENTO DE LICENCIAS SOBRE DERECHOS DE PROPIEDAD INDUSTRIAL",
      "mainEntityOfPage": "https://www.contratacion.euskadi.eus/webkpe00-kperoc/es/ac71aBusquedaRegistrosWar/empresa/02261",
      "_links": {
        "self": {
          "name": "LANIER ESPAÑA, S.A.",
          "href": "https://api.euskadi.eus/procurements/companies/02261"
        }
      }
    },
    {
      "name": "VEXTER OUTSOURCING, S.A.",
      "registrationNumber": "03039",
      "identificationNumber": "A79492286",
      "address": "C/ARAGÓN, 2-3ª PLANTA",
      "location": {
        "postalCode": "48015",
        "municipality": "Bilbao",
        "county": "Bizkaia",
        "municipalityId": "020",
        "countyId": "48"
      },
      "economicActivities": [
        {
          "id": "1.849.9",
          "name": "Otros servicios independientes n.c.o.p",
          "_links": {
            "self": {
              "name": "Otros servicios independientes n.c.o.p",
              "href": "https://api.euskadi.eus/procurements/companies/economic-activities/1.849.9"
            }
          }
        }
      ],
      "certificateStartDate": "2005-06-24",
      "certificateEndDate": "2005-11-27",
      "object": "A) PRESTACIÓN A INSTITUCIONES, EMPRESAS Y TERCEROS EN GENERAL DE SERVICIOS CONTABLES Y ADMINISTRATIVOS, DE TODA ÍNDOLE CON O SIN CESIÓN DE USO DE LOS ELEMENTOS MATERIALES Y PERSONALES PRECISOS PARA SU EJECUCIÓN.\r\n\r\nB) ASESORAMIENTO Y PRESTACIÓN DE SERVICIOS A INSTITUCIONES Y EMPRESAS, PÚBLICAS O PRIVADAS, EN MATERIA DE SELECCIÓN, PROVISIÓN REESTRUCTURACIÓN Y FORMACIÓN DEL PERSONAL, VALORACIÓN DE PUESTO DE TRABAJO Y, EN GENERAL, DE CUALQUIER ACTUACIÓN CONDUCENTE A MEJORAR LA PRODUCTIVIDAD O ECONOMÍA DE COSTES DE AQUELLAS MEDIANTE UNA ADECUADA ORDENACIÓN DE SUS MEDIOS PERSONALES  ",
      "mainEntityOfPage": "https://www.contratacion.euskadi.eus/webkpe00-kperoc/es/ac71aBusquedaRegistrosWar/empresa/03039",
      "_links": {
        "self": {
          "name": "VEXTER OUTSOURCING, S.A.",
          "href": "https://api.euskadi.eus/procurements/companies/03039"
        }
      }
    },
    {
      "name": "TECNOLOGÍAS DIGITALES AUDIOVISUALES, S.L.",
      "registrationNumber": "02955",
      "identificationNumber": "B92214741",
      "address": "C/ SEVERO OCHOA, 10 -1º",
      "location": {
        "postalCode": "29590",
        "municipality": "Málaga",
        "county": "Málaga",
        "municipalityId": "067",
        "countyId": "29"
      },
      "economicActivities": [
        {
          "id": "1.845",
          "name": "Explotación electrónica por cuenta de terceros",
          "_links": {
            "self": {
              "name": "Explotación electrónica por cuenta de terceros",
              "href": "https://api.euskadi.eus/procurements/companies/economic-activities/1.845"
            }
          }
        }
      ],
      "certificateStartDate": "2005-06-02",
      "certificateEndDate": "2005-10-25",
      "object": "EL DESARROLLO DESDE ANDALUCÍA DEL SECTOR DE LAS NUEVAS TECNOLOGÍAS DE LA INFORMACIÓN MEDIANTE LA INVESTIGACIÓN, DESARROLLO, ELABORACIÓN, COMERCIALIZACIÓN Y DISTRIBUCIÓN DE PRODUCTOS TECNOLÓGICOS, ASÍ COMO DESARROLLAR Y APLICAR TECNOLOGÍAS AUDIOVISUALES DESTINADAS ESENCIALMENTE  A LAS NUEVAS TECNOLOGÍAS DE LA INFORMACIÓN.\r\nDICHAS ACTIVIDADES PODRÁN SER REALIZADAS POR LA SOCIEDAD TOTAL O PARCIALMENTE, DE MODO INDIRECTO, MEDIANTE LA TITULARIDAD DE ACCIONES O PARTICIPACIONES SOCIALES EN SOCIEDADES CON OBJETO ANÁLOGO O IDÉNTICO.\r\n\r\nQUEDAN EXCLUÍDAS DEL OBJETO SOCIAL TODAS AQUELLAS ACTIVIDADES PARA CUYO EJERCICIO LA LEY EXIJA REQUISITOS ESPECIALES QUE NO QUEDEN CUMPLIDOS POR ESTA SOCIEDAD.\r\n",
      "mainEntityOfPage": "https://www.contratacion.euskadi.eus/webkpe00-kperoc/es/ac71aBusquedaRegistrosWar/empresa/02955",
      "_links": {
        "self": {
          "name": "TECNOLOGÍAS DIGITALES AUDIOVISUALES, S.L.",
          "href": "https://api.euskadi.eus/procurements/companies/02955"
        }
      }
    },
    {
      "name": "BANATU, S.L.",
      "registrationNumber": "02893",
      "identificationNumber": "B48657357",
      "address": "ARTEAGA, 1",
      "location": {
        "postalCode": "48970",
        "municipality": "Basauri",
        "county": "Bizkaia",
        "municipalityId": "015",
        "countyId": "48"
      },
      "economicActivities": [
        {
          "id": "1.756.1",
          "name": "Agencias de transporte, transitarios",
          "_links": {
            "self": {
              "name": "Agencias de transporte, transitarios",
              "href": "https://api.euskadi.eus/procurements/companies/economic-activities/1.756.1"
            }
          }
        }
      ],
      "certificateStartDate": "2005-05-25",
      "certificateEndDate": "2005-10-11",
      "object": "LA EXPLOTACIÓN DEL NEGOCIO DE TRANSPORTE, EN ESPECIAL POR CARRETERA, Y AUXILIARIAS DEL TRANSPORTE, DEPÓSITOS, CLASIFICACIÓN DE DOCUMENTOS Y MERCANCÍAS, TRASLADOS Y ALMACENAJES Y OTROS TRATAMIENTOS PREVIOS AL EFECTO DE MERCANCÍAS EN GENERAL. ",
      "mainEntityOfPage": "https://www.contratacion.euskadi.eus/webkpe00-kperoc/es/ac71aBusquedaRegistrosWar/empresa/02893",
      "_links": {
        "self": {
          "name": "BANATU, S.L.",
          "href": "https://api.euskadi.eus/procurements/companies/02893"
        }
      }
    },
    {
      "name": "MENFORSÁN PLAGAS, S.A.",
      "registrationNumber": "01994",
      "identificationNumber": "A48842322",
      "address": "C/ AVENIDA PINOA, Nº 17.",
      "location": {
        "postalCode": "48170",
        "municipality": "Zamudio",
        "county": "Bizkaia",
        "municipalityId": "905",
        "countyId": "48"
      },
      "economicActivities": [
        {
          "id": "1.921.3",
          "name": "Exterminio de animales dañinos y desinfección",
          "_links": {
            "self": {
              "name": "Exterminio de animales dañinos y desinfección",
              "href": "https://api.euskadi.eus/procurements/companies/economic-activities/1.921.3"
            }
          }
        }
      ],
      "certificateStartDate": "2005-05-18",
      "certificateEndDate": "2005-10-12",
      "object": "FABRICACIÓN, COMERCIALIZACIÓN, COMPRA-VENTA DE PRODUCTO DE HIGIENIZACIÓN DE AMBIENTES, DE PERFUMERÍA Y PRODUCTOS QUÍMICOS, TANTO EN EXPORTACIÓN COMO DE IMPORTACIÓN, TRATAMIENTO DE PLAGAS DE INSECTOS, ROEDORES, ETC., LIMPIEZA DE PLAYAS Y RESTAURACIÓN DE EDIFICIOS",
      "mainEntityOfPage": "https://www.contratacion.euskadi.eus/webkpe00-kperoc/es/ac71aBusquedaRegistrosWar/empresa/01994",
      "_links": {
        "self": {
          "name": "MENFORSÁN PLAGAS, S.A.",
          "href": "https://api.euskadi.eus/procurements/companies/01994"
        }
      }
    },
    {
      "name": "XYZ INGENIEROS TOPOGRAFICOS, S.L.",
      "registrationNumber": "02248",
      "identificationNumber": "B01291731",
      "address": "C/ ALFREDO DONNAY, 4 BAJO",
      "location": {
        "postalCode": "01000",
        "municipality": "Vitoria-Gasteiz",
        "county": "Araba/Álava",
        "municipalityId": "059",
        "countyId": "01"
      },
      "economicActivities": [
        {
          "id": "1.843.4",
          "name": "Servicios técnicos de topografía",
          "_links": {
            "self": {
              "name": "Servicios técnicos de topografía",
              "href": "https://api.euskadi.eus/procurements/companies/economic-activities/1.843.4"
            }
          }
        }
      ],
      "certificateStartDate": "2005-05-11",
      "certificateEndDate": "2005-10-26",
      "object": "EL ESTUDIO DE LA TIERRA, ELABORACION DE CARTOGRAFIA, PLANOS Y MAPAS; SEGUIMIENTO Y CONTROL GEOMETRICO DE OBRAS PUBLICAS Y PRIVADAS; PRESTACION DE SERVICIOS DE TRATAMIENTOS ANALITICOS DE INFORMACION CARTOGRAFICA Y DE DIBUJO ASISTIDO POR ORDENADOR; ESTABLECIMIENTO DE REDES GEODESICAS; IMPORTACION, EXPORTACION Y COMERCIALIZACION DE INSTRUMENTOS DE DIBUJO, MEDIDA. ",
      "mainEntityOfPage": "https://www.contratacion.euskadi.eus/webkpe00-kperoc/es/ac71aBusquedaRegistrosWar/empresa/02248",
      "_links": {
        "self": {
          "name": "XYZ INGENIEROS TOPOGRAFICOS, S.L.",
          "href": "https://api.euskadi.eus/procurements/companies/02248"
        }
      }
    },
    {
      "name": "EUSKOTOP, S.A.L.",
      "registrationNumber": "02447",
      "identificationNumber": "A48234322",
      "address": "C/ IDORSOLO, 13 . EDIFICIO SAN ISIDRO, 1 DPTO. 1",
      "location": {
        "postalCode": "48160",
        "municipality": "Sondika",
        "county": "Bizkaia",
        "municipalityId": "904",
        "countyId": "48"
      },
      "economicActivities": [
        {
          "id": "1.843.1",
          "name": "Servicios técnicos de ingeniería",
          "_links": {
            "self": {
              "name": "Servicios técnicos de ingeniería",
              "href": "https://api.euskadi.eus/procurements/companies/economic-activities/1.843.1"
            }
          }
        }
      ],
      "certificateStartDate": "2005-05-10",
      "certificateEndDate": "2005-10-08",
      "object": "LA INGENIERÍA TOPOGRÁFICA, EL ESTUDIO, MEDICIÓN, DESCRIPCIÓN Y DELINEACIÓN DE TERRENOS, LEVANTAMIENTO DE PLANOS",
      "mainEntityOfPage": "https://www.contratacion.euskadi.eus/webkpe00-kperoc/es/ac71aBusquedaRegistrosWar/empresa/02447",
      "_links": {
        "self": {
          "name": "EUSKOTOP, S.A.L.",
          "href": "https://api.euskadi.eus/procurements/companies/02447"
        }
      }
    }
  ]
}