{
  "totalItems": 9042,
  "totalPages": 905,
  "currentPage": 684,
  "itemsOfPage": 10,
  "items": [
    {
      "name": "KUDEAKETA ZERBITZUAK, S.L.",
      "registrationNumber": "03626",
      "identificationNumber": "B95376646",
      "address": "ARABA, Nº 2. POL. LEGUIZAMON",
      "location": {
        "postalCode": "48450",
        "municipality": "Etxebarri",
        "county": "Bizkaia",
        "municipalityId": "029",
        "countyId": "48"
      },
      "economicActivities": [
        {
          "id": "1.845",
          "name": "Explotación electrónica por cuenta de terceros",
          "_links": {
            "self": {
              "name": "Explotación electrónica por cuenta de terceros",
              "href": "https://api.euskadi.eus/procurements/companies/economic-activities/1.845"
            }
          }
        },
        {
          "id": "1.849.9",
          "name": "Otros servicios independientes n.c.o.p",
          "_links": {
            "self": {
              "name": "Otros servicios independientes n.c.o.p",
              "href": "https://api.euskadi.eus/procurements/companies/economic-activities/1.849.9"
            }
          }
        }
      ],
      "certificateStartDate": "2013-04-15",
      "certificateEndDate": "2013-05-05",
      "object": "1.- LA INTERVENCIÓN SOCIOLABORAL PARA LA GENERACIÓN DE OPORTUNIDADES LABORALES PARA PERSONAS CON DISCAPACIDAD, A TRAVÉS DE LA GESTIÓN DE ACTIVIDADES Y SERVICIOS. 2.- LA PRESTAICÓN DE SERVICIOS INFORMÁTICOS, OFIMÁTICOS Y ADMINISTRATIVOS, SERVICIOS DE FACTURACIÓN Y OTRAS ACTIVIDADES AUXILIARES DE GESTIÓN, OUTSOURCING O EXTERNALIZACIÓN DE SERVICIOS AUXILIARES E INDUSTRIALES, DIGITALIZACIÓN Y TRATAMIENTO DE TEXTOS Y DOCUMENTOS EN DIFERENTES SOPORTES, GRABACIÓN DE DATOS, PERFORACIÓN, TELEASISTENCIA Y TELEMARKETING, ASÍ COMO LA DESTRUCCIÓN CONFIDENCIAL DE DOCUMENTOS Y OTROS SOPORTES MAGNÉTICOS. 3.- LA RESPRESENTACIÓN COMO AGENTE, DISTRIBUIDOR, COMISIONISTA, DELEGADO O CUALQUIER OTRA FORMA DE MEDIACIÓN MERCANTIL DE TODA CLASE DE EMPRESAS, NACIONALES O EXTRANJERAS, EN ESPECIAL, DE AQUÉLLAS QUE SE RELACIONEN, DIRECTA O INDIRECTAMENTE, CON LA INFORMÁTICA, ASÍ COMO LA EXPLOTACIÓN DE PATENTES, MÉTODOS, PROCEDIMIENTOS O ESTUDIOS Y, EN GENERAL, DE DEREHCOS INCLUÍDOS EN EL ÁMBITO DE LA PROPIEDAD INDUSTRIAL",
      "mainEntityOfPage": "https://www.contratacion.euskadi.eus/webkpe00-kperoc/es/ac71aBusquedaRegistrosWar/empresa/03626",
      "_links": {
        "self": {
          "name": "KUDEAKETA ZERBITZUAK, S.L.",
          "href": "https://api.euskadi.eus/procurements/companies/03626"
        }
      }
    },
    {
      "name": "SERVIGESPLAN, S.L.",
      "registrationNumber": "04917",
      "identificationNumber": "B82545674",
      "address": "INFANTA MERCEDES, 61 - 1º B",
      "location": {
        "postalCode": "28020",
        "municipality": "Madrid",
        "county": "Madrid",
        "municipalityId": "079",
        "countyId": "28"
      },
      "economicActivities": [
        {
          "id": "1.849.6",
          "name": "Servicios de colocación y suministro de personal",
          "_links": {
            "self": {
              "name": "Servicios de colocación y suministro de personal",
              "href": "https://api.euskadi.eus/procurements/companies/economic-activities/1.849.6"
            }
          }
        }
      ],
      "certificateStartDate": "2013-04-15",
      "certificateEndDate": "2013-09-04",
      "object": "1. LA GETIÓN DE TODA CLASE DE NEGOCIOS O EMPRESAS ESPECIALMENTE LAS RELACIONADAS OCN EL OBJETO SOCIAL. 2. LA CONTRATACIÓN CON ORGANISMOS DEL ESTADO, AUTONÓMICOS, PROVINCIALES Y MUNICIPALES DE TODA CLASE DE OBRAS O SERVICIOS, ASÍ COMO EL SUMINISTRO DE BIENES MATERIALES Y PRODUCTOS, PARA TODA CLASE DE ACTIVIDADES COMERCIALES. 3. EL MANTENIMIENTO INTEGRAL DE OFICINAS Y SERVICIOS DE LIMPIEZA EN GENERAL. 4. LA REALIZACIÓN DE SERVICIOS DE GUARDE´RIA, AZAFATAS, MENSAJERÍA, CELADORES, CONSERJERÍA, REPARTO Y CORRESPONDENCIA. 5. LA IMPORTACIÓN Y EXPORTACIÓN DE TODA CLASE DE EQUIPO,PRODUCTOS Y MATERIAS PRIMAS PARA LA INDUSTRIA Y EL COMERCIO EN GENERAL. 6. EL ESTUDIO DE IMAGEN Y DE MERCADO, MARKETING Y RELACIONES PÚBLICAS. 7. COMPRAVENTA DE SOLARES, TERRENOS Y TODA CLASE DE FINCAS RÚSTICAS, URBANAS, PISOS LOCALES, APARTAMENTOS E INMUEBLES. 8. LA PRESTACIÓN A TERCEROS DE TODA CLASE DE ENCARGOS Y RECADOS TALES COMO MENSAJERÍA, PAQUETERÍA, CHAUFFER, OBTENCIÓN DE BILLETES, PRESENTACIÓN A TERCEROS DE TODA CLASE DE SERVICIOS CULTURALES. 9. LA ORGANIZACIÓN DE FERIAS, CONGRESOS, EXPOSICIONES Y CONVECCIONES, NACIONALES E INTERNACIONALES, INCLUYÉNDOSE ENTRE ELLAS LA RECEPCIÓN Y ACOMPAÑAMIENTO DE VIAJEROS Y PRESTACIÓN DE INTÉRPRETES, LA ORGANIZACIÓN DE ACTOS SOCIALES Y LOS SERVICIOS DE SECRETARÍA Y TRADUCCIÓN",
      "mainEntityOfPage": "https://www.contratacion.euskadi.eus/webkpe00-kperoc/es/ac71aBusquedaRegistrosWar/empresa/04917",
      "_links": {
        "self": {
          "name": "SERVIGESPLAN, S.L.",
          "href": "https://api.euskadi.eus/procurements/companies/04917"
        }
      }
    },
    {
      "name": "CARLSON WAGONLIT ESPAÑA, S.L.U.",
      "registrationNumber": "03386",
      "identificationNumber": "B81861304",
      "address": "C/ PRINCESA, 3-4º",
      "location": {
        "postalCode": "28008",
        "municipality": "Madrid",
        "county": "Madrid",
        "municipalityId": "079",
        "countyId": "28"
      },
      "economicActivities": [
        {
          "id": "1.755",
          "name": "Agencias de viajes",
          "_links": {
            "self": {
              "name": "Agencias de viajes",
              "href": "https://api.euskadi.eus/procurements/companies/economic-activities/1.755"
            }
          }
        },
        {
          "id": "1.989.2",
          "name": "Servicios de organización de congresos, asambleas y similares",
          "_links": {
            "self": {
              "name": "Servicios de organización de congresos, asambleas y similares",
              "href": "https://api.euskadi.eus/procurements/companies/economic-activities/1.989.2"
            }
          }
        }
      ],
      "certificateStartDate": "2013-04-11",
      "certificateEndDate": "2013-09-27",
      "object": "EL QUE ES PROPIO DE LAS AGENCIAS DE VIAJES MAYORISTAS Y MINORISTAS, ES DECIR, EL EJERCICIO DE TODA CLASE DE ACTIVIDADES MERCANTILES DE MEDIACIÓN, DIRIGIDAS A PONER LOS BIENES Y SERVICIOS TURÍSTICOS A DISPOSICIÓN DE QUIENES DESEEN UTILIZARLOS, DESARROLLANDO A TAL EFECTO LAS FUNCIONES RECOGIDAS EN EL ARTÍCULO 2 DEL D3ECRETO 99/1996 DE 27 DE JUNIO DE LA CONSEJERÍA DE ECONOMÍA Y EMPLEO DE LA COMUNIDAD DE MADRID, POR EL QUE SE REGULA EL EJERCICIO DE LAS ACTVIDADES PROPIAS DE LAS AGENCIAS DE VIAJES Y DE LA LEGISLACIÓN COMPLEMENTARIA QUE AFECTE O PUEDA AFECTAR  EN EL FUTURO A DICHA ACTIVIDAD, INCLUIDA LA ORGANIZACIÓN Y ASISTENCIA TÉCNICA EN CONGRESOS, CONVENCIONES, FERIAS, ASAMBLEAS O ACTOS SIMILARES",
      "mainEntityOfPage": "https://www.contratacion.euskadi.eus/webkpe00-kperoc/es/ac71aBusquedaRegistrosWar/empresa/03386",
      "_links": {
        "self": {
          "name": "CARLSON WAGONLIT ESPAÑA, S.L.U.",
          "href": "https://api.euskadi.eus/procurements/companies/03386"
        }
      }
    },
    {
      "name": "PROSEGUR COMPAÑIA DE SEGURIDAD, S.A.",
      "registrationNumber": "04368",
      "identificationNumber": "A28430882",
      "address": "PAJARITOS, 24",
      "location": {
        "postalCode": "28007",
        "municipality": "Madrid",
        "county": "Madrid",
        "municipalityId": "079",
        "countyId": "28"
      },
      "economicActivities": [
        {
          "id": "1.849.4",
          "name": "Servicios de custodia, seguridad y protección",
          "_links": {
            "self": {
              "name": "Servicios de custodia, seguridad y protección",
              "href": "https://api.euskadi.eus/procurements/companies/economic-activities/1.849.4"
            }
          }
        }
      ],
      "certificateStartDate": "2013-04-10",
      "certificateEndDate": "2013-09-01",
      "object": "A) VIGILANCIA Y PROTECCIÓN DE BIENES, ESTABLECIMIENTOS, ESPECTÁCULOS, CERTÁMENES O CONVENCIONES. B) LA PROTECCIÓN DE PERSONAS DETERMINADAS, PREVIA LA AUTORIZACIÓN CORRESPONDIENTE. C) EL DEPÓSITO, CUSTODIA, RECUENTO Y CLASIFICACIÓN DE MONEDAS Y BILLETES, TÍTULOS, VALORES Y DEMÁS OBJETOS QUE, POR SU VALOR ECONÓMICO Y EXPECTATIVAS QUE GENEREN, O POR SU PELIGROSIDAD, PUEDAN REQUERIR PROTECCIÓN ESPECIAL, SIN PERJUICIO DE LAS ACTIVIDADEES PROPIAS DE LAS ENTIDADES FINANCIERAS. D) EL TRANSPORTE Y DISTRIBUCIÓN DE LOS OBJETOS A QUE SE REFIERE EL APARTADO ANTERIOR A ATRAVÉS DE LOS DISTINTOS MEDIOIS, REALIZÁNDOLOS, EN SU CASO, MEDIANTE VEHÍCULOS CUYAS CARACTERÍSTICAS SEAN DETERMINADAS POR EL MINISTERIO DEL INTERIOR, DE FORMA QUE NO PUEDAN CONFUNDIRSE CON LOS DE LAS FUERZAS ARMADAS NI CON LOS DE LAS FUERZAS Y CUERPOS DE LA SEGURIDAD. E) INSTALACIÓN Y MANTENIMIENTO DE APARATOS, DISPOSITIVOS Y SISTEMAS DE SEGURIDAD. E) INSTALACIÓN Y  MANTENIMIENTO DE APARATOS, DISPOSITIVOS Y SISTEMAS DE SEGURIDAD. F) EXPLOTACIÓN DE CENTRALES PARA LA RECEPCIÓN, VERIFICACIÓN Y TRANSMISIÓN DE LAS SEÑALES DE ALARMAS Y SU COMUNICACIÓN A LAS FUERZAS Y CUERPOS DE SEGURIDAD, ASÍ COMO PRESTACIÓN DE SERVICIOS DE RESPUESTA CUYA REALIZACIÓN NO SEA DE LA COMPETENCIA DE DICHAS FUERZAS Y CUERPOS. G) PLANIFICACIÓN Y ASESORAMIENTO DE LAS ACTIVIDADES PROPIAS DE LAS EMPRESAS DE SEGURIDAD. H) PRESTACIÓN DE SERVICIOS DE VIGILANCIA Y PROTECCIÓN DE LA PROPIEDAD RURALMEDIANTE GUARDAS PARTICULARES DEL CAMPO",
      "mainEntityOfPage": "https://www.contratacion.euskadi.eus/webkpe00-kperoc/es/ac71aBusquedaRegistrosWar/empresa/04368",
      "_links": {
        "self": {
          "name": "PROSEGUR COMPAÑIA DE SEGURIDAD, S.A.",
          "href": "https://api.euskadi.eus/procurements/companies/04368"
        }
      }
    },
    {
      "name": "GESTION URBANISTICA ARTECU S.L.",
      "registrationNumber": "04708",
      "identificationNumber": "B95508552",
      "address": "Idorsolo Kalea, nº 15 bajo dpto.3",
      "location": {
        "postalCode": "48160",
        "municipality": "Derio",
        "county": "Bizkaia",
        "municipalityId": "901",
        "countyId": "48"
      },
      "economicActivities": [
        {
          "id": "1.501.1",
          "name": "Construcción completa, reparación y conservación de edificaciones",
          "_links": {
            "self": {
              "name": "Construcción completa, reparación y conservación de edificaciones",
              "href": "https://api.euskadi.eus/procurements/companies/economic-activities/1.501.1"
            }
          }
        }
      ],
      "certificateStartDate": "2013-04-08",
      "certificateEndDate": "2013-10-03",
      "object": "CONSTRUCCIÓN  DE EDIFICACIONES Y DE CUALQUIER CLASE DE OBRA PÚBLICA O CIVIL, ASÍ COMO SERVICIOS AUXILIARES A LA CONSTRUCCIÓN, EJECUCIÓN DE TODA CLASE DE OBRAS, INSTALACIONES PRIVADAS, PÚBLICAS O INDUSTRIALES, ASÍ COMO LA PRESTACIÓN Y REALIZACIÓN DE SERVICIOS DE REPARACIÓN, LIMPIEZA, MANTENIMIENTO, REFORMA O MEJORA DE LAS INSTALACIONES  Y CONDUCCIONES ANTES MENCIONADAS. LA REALIZACIÓN DE PROYECTOS Y EN GENERAL DESARROLLAR EN TODOS SUS CAMPOS, TODA CLASE DE ACTIVIDADADES INMOBILIARIAS DE PROMOCIÓN, DE CONSTRUCCIÓN, DE REALIZACIÓN DE OBRAS, YA SEAN PÚBLICAS O CIVILES; LA ADQUISICIÓN, COMERCIALIZACIÓN, VENTA, ARRIENDO Y EXPLOTACIÓN DE TODO TIPO DE INMUEBLES, RÚSTICOS O URBANOS, TERRENOS, SOLARES, EDIFICIOS, APARTAMENTOS, VIVIENDAS, LOCALES, HOTELES, OFICINAS, CHALETS, ETC, LA REALIZACIÓN DE PROYECTOS DE EDIFICACIÓN; LAS CIMENTACIONES, EXCAVACIONES Y DERRIBOS DE TODA NATURALEZA. LA PRESTACIÓN DE TODO TIPO DE SERVICIOS Y GESTIÓN  DE EDIFICACIONES E INDUSTRIAS; ASÍ COMO TODAS AQUELLAS RELACIONADAS CON LOS SERVICIOS PROFESIONALES DE ARQUITECTURA E INGENIERÍA, LA DIRECCIÓN FACULTATIVA DE OBRA Y CUALESQUIERA OTROS SERVICIOS DE CARÁCTER TÉCNICO. LA REALIZACIÓN DE ESTUDIOS Y PROYECTOS PARA RESTAURAR, DECORAR, AMUEBLAR TODO TIPO DE EDIFICIOS, LOCALES Y VIVIENDAS.  EL ESTUDIO Y RESOLUCIÓN DE TODAS CUANTAS GESTIONES TÉCNICAS Y DE CUALQUIER ORDEN, RELACIONADAS CON EL OBJETO Y OBJETOS PRINCIPALES, PUEDEN PLANTEARSE.  LA TENDENCIA DE BIENES, TANTO INMUEBLES COMO MUEBLES O VALORES MOBILIARIOS, PUDIENDO OBTENER DE LOS MISMOS RENDIMIENTOS SUSCEPTIBLES DE UNA BUENA ADMINISTRACIÓN.",
      "mainEntityOfPage": "https://www.contratacion.euskadi.eus/webkpe00-kperoc/es/ac71aBusquedaRegistrosWar/empresa/04708",
      "_links": {
        "self": {
          "name": "GESTION URBANISTICA ARTECU S.L.",
          "href": "https://api.euskadi.eus/procurements/companies/04708"
        }
      }
    },
    {
      "name": "HOSPAL, S.A.",
      "registrationNumber": "00692",
      "identificationNumber": "A08463507",
      "address": "C/ Josep Pla, 2. Edif. Torres Diagonal Litoral-B2-7ª pl.",
      "location": {
        "postalCode": "08019",
        "municipality": "Barcelona",
        "county": "Barcelona",
        "municipalityId": "019",
        "countyId": "08"
      },
      "economicActivities": [
        {
          "id": "1.619.2",
          "name": "Venta al por mayor de aparatos e instrumentos médicos, ortopédicos, ópticos",
          "_links": {
            "self": {
              "name": "Venta al por mayor de aparatos e instrumentos médicos, ortopédicos, ópticos",
              "href": "https://api.euskadi.eus/procurements/companies/economic-activities/1.619.2"
            }
          }
        }
      ],
      "certificateStartDate": "2013-03-26",
      "certificateEndDate": "2013-08-20",
      "object": "LA FABRICACIÓN Y VENTA, INCLUÍDAS EXPORTACIÓN E IMPORTACIÓN, DE MATERIAL MÉDICO Y HOSPITALARIO DE TODA ÍNDOLE, Y DE TODOS LOS PRODUCTOS RELACIONADOS CON EL MISMO, ASÍ COMO A LA PRESTACIÓN DE SERVICIOS CON EL MATERIAL DE ESTE TIPO",
      "mainEntityOfPage": "https://www.contratacion.euskadi.eus/webkpe00-kperoc/es/ac71aBusquedaRegistrosWar/empresa/00692",
      "_links": {
        "self": {
          "name": "HOSPAL, S.A.",
          "href": "https://api.euskadi.eus/procurements/companies/00692"
        }
      }
    },
    {
      "name": "INNOGENETICS DIAGNÓSTICA IBERIA, S.L.U.",
      "registrationNumber": "03191",
      "identificationNumber": "B63929368",
      "address": "C/TARRAGONA, 161- PLANTA 14",
      "location": {
        "postalCode": "08014",
        "municipality": "Barcelona",
        "county": "Barcelona",
        "municipalityId": "019",
        "countyId": "08"
      },
      "economicActivities": [
        {
          "id": "1.619.7",
          "name": "Venta al por mayor de instrumentos de precisión, medida y similares",
          "_links": {
            "self": {
              "name": "Venta al por mayor de instrumentos de precisión, medida y similares",
              "href": "https://api.euskadi.eus/procurements/companies/economic-activities/1.619.7"
            }
          }
        }
      ],
      "certificateStartDate": "2013-03-26",
      "certificateEndDate": "2013-08-12",
      "object": "A) LA FABRICACIÓN, COMPRA, VENTA, COMERCIALIZACIÓN, DISTRIBUCIÓN, IMPORTACIÓN Y EXPORTACIÓN, EN SU PROPIO NOMBRE O POR CUENTA DE TERCEROS, DE PRODUCTOS QUÍMICOS, BIOLÓGICOS Y/O BIOTECNOLÓGICOS, ESPECIALMENTE PARA PROCEDIMIENTOS DE DIAGNÓSTICA; ASÍ COMO DE PRODUCTOS QUE SE DERIVEN O ESTÉN ESTRICTAMENTE RELACIONADOS CON LOS CITADOS MÁS ARRIBA, Y CUALESQUIERA OTROS PRODUCTOS Y/O APARATOS DESTINADOS A SUPLIR  LAS  CARENCIAS Y NECESIDADES DEL CUERPO HUMANO.  ASÍMISMO, CUALESQUIERA ACTIVIDADES O TRANSACCIONES FINANCIERAS O MERCANTILES, Y/O CUALESQUIERA ACTIVIDADES RELACIONADAS CON LA COMPRA, VENTA Y ALQUILER DE ACTIVOS Y EQUIPOS, TANTO MATERIALES COMO INMATERIALES, NECESARIOS O CONVENIENTES PARA LA CONSECUCIÓN DEL OBJETO SOCIAL",
      "mainEntityOfPage": "https://www.contratacion.euskadi.eus/webkpe00-kperoc/es/ac71aBusquedaRegistrosWar/empresa/03191",
      "_links": {
        "self": {
          "name": "INNOGENETICS DIAGNÓSTICA IBERIA, S.L.U.",
          "href": "https://api.euskadi.eus/procurements/companies/03191"
        }
      }
    },
    {
      "name": "ALDANA, S.A.",
      "registrationNumber": "01017",
      "identificationNumber": "A48171581",
      "address": "C/ CARRETERA BILBAO - GALDÁCANO, Nº 18 - 1º IZDA.",
      "location": {
        "postalCode": "48004",
        "municipality": "Bilbao",
        "county": "Bizkaia",
        "municipalityId": "020",
        "countyId": "48"
      },
      "economicActivities": [
        {
          "id": "1.615.4",
          "name": "Venta al por mayor de aparatos y material radioeléctrico y electrónico",
          "_links": {
            "self": {
              "name": "Venta al por mayor de aparatos y material radioeléctrico y electrónico",
              "href": "https://api.euskadi.eus/procurements/companies/economic-activities/1.615.4"
            }
          }
        }
      ],
      "certificateStartDate": "2013-03-25",
      "certificateEndDate": "2013-09-04",
      "object": "LA VENTA Y DISTRIBUCIÓN DE PRODUCTOS FOTOGRÁFICOS. PARA LA REALIZACIÓN DEL FIN SOCIAL, TENDRÁ LA SOCIEDAD PLENA CAPACIDAD JURÍDICA, PUDIENDO POR CONSIGUIENTE REALIZAR ACTOS Y FORMALIZAR CONTRATOS DE CUALQUIER ÍNDOLE, CIVIL O MERCANTIL, INCLUSO NEGOCIOS DE ADQUISICIÓN Y DISPOSICIÓN DE BIENES DE CUALQUIER CLASE O NATURALEZA",
      "mainEntityOfPage": "https://www.contratacion.euskadi.eus/webkpe00-kperoc/es/ac71aBusquedaRegistrosWar/empresa/01017",
      "_links": {
        "self": {
          "name": "ALDANA, S.A.",
          "href": "https://api.euskadi.eus/procurements/companies/01017"
        }
      }
    },
    {
      "name": "FERIA INTERNACIONAL DE MUESTRAS DE BILBAO / BILBOKO NAZIOARTEKO ERAKUSTAZOKA",
      "registrationNumber": "01086",
      "identificationNumber": "Q4873003J",
      "address": "C/ PLAZA PEDRO MARÍA BASTERRECHEA, S/N.",
      "location": {
        "postalCode": "48013",
        "municipality": "Bilbao",
        "county": "Bizkaia",
        "municipalityId": "020",
        "countyId": "48"
      },
      "economicActivities": [
        {
          "id": "1.861.2",
          "name": "Alquiler de locales industriales y otros alquileres n.c.o.p",
          "_links": {
            "self": {
              "name": "Alquiler de locales industriales y otros alquileres n.c.o.p",
              "href": "https://api.euskadi.eus/procurements/companies/economic-activities/1.861.2"
            }
          }
        }
      ],
      "certificateStartDate": "2013-03-22",
      "certificateEndDate": "2004-03-30",
      "object": "LA PROMOCION Y EXPANSION COMERCIAL E INDUSTRIAL, DE MODO PARTICULAR EN SU VERTIENTE EXPORTADORA, A TRAVES DE LA ORGANIZACION PERIODICA DE FERIAS Y CERTAMENES U OTRAS MANIFESTACIONES COMERCIALES, SIN FIN DE LUCRO. ASIMISMO PODRA PARTICIPAR EN LOS ORGANISMOS Y ENTIDADES ADECUADAS, DE AMBITO ESTATAL O INTERNACIONAL, SIN PERJUICIO DE LAS COMPETENCIAS EXCLUSIVAS DE LA CAMARA OFICIAL DE COMERCIO, INDUSTRIA Y NAVEGACION DE BILBAO. LA FERIA PODRA CEDER SUS INSTALACIONES Y SERVICIOS PARA LA CELEBRACION DE CONGRESOS, CONVENIOS, EXPOSICIONES Y OTRAS MANIFESTACIONES Y ACTIVIDADES, PREFERIBLEMENTE DE CARACTER ECONOMICO Y CULTURAL, Y DE CONFORMIDAD CON LA LEGISLACION VIGENTE. ES TAMBIEN OBJETO DE LA FERIA LA CONSTRUCCION, PRIMER ESTABLECIMIENTO Y POSTERIOR AMPLIACION, REFORMA, MEJORA, MANTENIMIENTO, CONSERVACION Y REPARACION DEL MARCO MATERIAL MAS ADECUADO QUE POSIBILITE LA CONSECUCION DE SUS FINES, NO PERSIGUIENDO EN SU EJECUCION NINGUN ANIMO DE LUCRO",
      "mainEntityOfPage": "https://www.contratacion.euskadi.eus/webkpe00-kperoc/es/ac71aBusquedaRegistrosWar/empresa/01086",
      "_links": {
        "self": {
          "name": "FERIA INTERNACIONAL DE MUESTRAS DE BILBAO / BILBOKO NAZIOARTEKO ERAKUSTAZOKA",
          "href": "https://api.euskadi.eus/procurements/companies/01086"
        }
      }
    },
    {
      "name": "FUNDACIÓN PÚBLICA MUNICIPAL TALLER \"USOA\" LANTEGIA",
      "registrationNumber": "01386",
      "identificationNumber": "Q9855009H",
      "address": "C/ ZUMALAKARREGI, Nº 10.",
      "location": {
        "postalCode": "48903",
        "municipality": "Barakaldo",
        "county": "Bizkaia",
        "municipalityId": "013",
        "countyId": "48"
      },
      "economicActivities": [
        {
          "id": "1.453",
          "name": "Confección en serie de toda clase de prendas de vestir",
          "_links": {
            "self": {
              "name": "Confección en serie de toda clase de prendas de vestir",
              "href": "https://api.euskadi.eus/procurements/companies/economic-activities/1.453"
            }
          }
        },
        {
          "id": "1.911",
          "name": "Servicios agrícolas y ganaderos",
          "_links": {
            "self": {
              "name": "Servicios agrícolas y ganaderos",
              "href": "https://api.euskadi.eus/procurements/companies/economic-activities/1.911"
            }
          }
        }
      ],
      "certificateStartDate": "2013-03-22",
      "certificateEndDate": "2003-02-14",
      "object": "PROMOCIÓN DE LA INTEGRACIÓN LABORAL Y SOCIAL DEL DEFICIENTE MENTAL. SENSIBILIZACIÓN EN EL MAYOR GRADO POSIBLE DE LOS CIUDADANOS EN TORNO A ESTAS CUESTIONES",
      "mainEntityOfPage": "https://www.contratacion.euskadi.eus/webkpe00-kperoc/es/ac71aBusquedaRegistrosWar/empresa/01386",
      "_links": {
        "self": {
          "name": "FUNDACIÓN PÚBLICA MUNICIPAL TALLER \"USOA\" LANTEGIA",
          "href": "https://api.euskadi.eus/procurements/companies/01386"
        }
      }
    }
  ]
}