{
  "totalItems": 9042,
  "totalPages": 905,
  "currentPage": 763,
  "itemsOfPage": 10,
  "items": [
    {
      "name": "IGNACIO QUEMADA SAENZ-BADILLOS",
      "registrationNumber": "03550",
      "identificationNumber": "16538307L",
      "address": "PZA GIPUZKOA 8, 3º",
      "location": {
        "postalCode": "20004",
        "municipality": "Donostia / San Sebastián",
        "county": "Gipuzkoa",
        "municipalityId": "069",
        "countyId": "20"
      },
      "economicActivities": [
        {
          "id": "2.411",
          "name": "Arquitectos",
          "_links": {
            "self": {
              "name": "Arquitectos",
              "href": "https://api.euskadi.eus/procurements/companies/economic-activities/2.411"
            }
          }
        }
      ],
      "certificateStartDate": "2008-04-24",
      "certificateEndDate": "2008-07-08",
      "object": "PRESTACIÓN DE SERVICIOS PROFESIONALES EN LOS CAMPOS DE LA ARQUITECTURA Y EL URBANISMO",
      "mainEntityOfPage": "https://www.contratacion.euskadi.eus/webkpe00-kperoc/es/ac71aBusquedaRegistrosWar/empresa/03550",
      "_links": {
        "self": {
          "name": "IGNACIO QUEMADA SAENZ-BADILLOS",
          "href": "https://api.euskadi.eus/procurements/companies/03550"
        }
      }
    },
    {
      "name": "ATOS ORIGIN, SOCIEDAD ANONIMA ESPAÑOLA",
      "registrationNumber": "01282",
      "identificationNumber": "A28240752",
      "address": "C/ ALBARRACÍN, Nº 25.",
      "location": {
        "postalCode": "28037",
        "municipality": "Madrid",
        "county": "Madrid",
        "municipalityId": "079",
        "countyId": "28"
      },
      "economicActivities": [
        {
          "id": "1.845",
          "name": "Explotación electrónica por cuenta de terceros",
          "_links": {
            "self": {
              "name": "Explotación electrónica por cuenta de terceros",
              "href": "https://api.euskadi.eus/procurements/companies/economic-activities/1.845"
            }
          }
        }
      ],
      "certificateStartDate": "2008-04-18",
      "certificateEndDate": "2008-09-03",
      "object": "EL ESTUDIO, DESARROLLO, APLICACIÓN Y COMERCIALIZACIÓN DE LA INFORMÁTICA EN TODOS SUS ASPECTOS. LA GESTIÓN DE CENTROS DE PROCESO DE DATOS Y LA VENTA, EXPLOTACIÓN Y ARRENDAMIENTO DE SUS SERVICIOS. EL ESTABLECIMIENTO DE ESPECIFICACIONES Y REALIZACIÓN DE PROYECTOS PARA EL SUMINISTRO DE EQUIPOS INFORMÁTICOS E INSTALACIONES, INTEGRANDO TANTO LOS PROGRAMAS COMO LOS EQUIPOS DE DIVERSO ORIGEN O PROCEDENCIA. LA INVESTIGACIÓN, INGENIERÍA, DISEÑO, DESARROLLO, INTEGRACIÓN, COMERCIALIZACIÓN, FABRICACIÓN Y/O REALIZACIÓN, INSTALACIÓN, GARANTÍA, MANTENIMIENTO, REPARACIÓN Y PRESTACIÓN DE SERVICIOS EN LOS SIGUIENTES ÁMBITOS:\r\n\r\na) LA EXPLOTACIÓN DE SERVICIOS DE TELECOMUNICACIÓN Y EN ESPECIAL LA DE SERVICIOS DE VALOR AÑADIDO.\r\n\r\nb) PROYECTOS PARA SISTEMAS DE INFORMACIÓN Y SISTEMAS EXPERTOS PARA INDUSTRIA DE INFORMÁTICA, TELEMÁTICA, MICROELECTRÓNICA, ELECTRÓNICA, ROBÓTICA, ELECTRICIDAD, TELEGRAFÍA, RADIO-DIFUSIÓN, TELEVISIÓN Y SEÑALIZACIÓN, POR LOS PROCEDIMIENTOS O MÉTODOS ACTUALES O POR CUALESQUIERA OTROS QUE PUEDAN DESCUBRIRSE EN LO SUCESIVO. LAS ACTIVIDADES DE IMPORTACIÓN Y EXPORTACIÓN RELACIONADAS CON LOS PRODUCTOS Y SERVICIOS MENCIONADOS CONTEMPLADOS EN LOS APARTADOS ANTERIORES. ADEMÁS LA SOCIEDAD PODRÁ REALIZAR TODA CLASE DE ACTIVIDADES RELACIONADAS CON LA ASESORÍA Y CONSULTORÍA, LA ORGANIZACIÓN EN TODAS SUS FORMAS, LAS TÉCNICAS DE DIRECCIÓN, LA FORMACIÓN, LA SELECCIÓN, EL PERFECCIONAMIENTO Y LA PRESTACIÓN DE SERVICIOS DE PERSONAL, LA REALIZACIÓN DE ESTUDIOS ECONÓMICOS, FINANCIEROS, COMERCIALES Y TÉCNICOS. LAS REVISIONES CONTABLES, LA INVESTIGACIÓN OPERATIVA Y LA MATEMÁTICA APLICADA. TODA CLASE DE ACTIVIDADES DE CONSULTA Y ESTUDIOS DE INGENIERÍA EN TODAS SUS FORMAS.  LA PROVISIÓN DE SERVICIOS DE GESTIÓN DE PROCESOS DE NEGOCIO Y DE GESTIÓN DE INFRAESTRUCTURAS",
      "mainEntityOfPage": "https://www.contratacion.euskadi.eus/webkpe00-kperoc/es/ac71aBusquedaRegistrosWar/empresa/01282",
      "_links": {
        "self": {
          "name": "ATOS ORIGIN, SOCIEDAD ANONIMA ESPAÑOLA",
          "href": "https://api.euskadi.eus/procurements/companies/01282"
        }
      }
    },
    {
      "name": "KEINU, S.L.",
      "registrationNumber": "02587",
      "identificationNumber": "B48521223",
      "address": "Bº GARBE, 14 BIS",
      "location": {
        "postalCode": "48140",
        "municipality": "Igorre",
        "county": "Bizkaia",
        "municipalityId": "094",
        "countyId": "48"
      },
      "economicActivities": [
        {
          "id": "1.476.1",
          "name": "Edición de libros",
          "_links": {
            "self": {
              "name": "Edición de libros",
              "href": "https://api.euskadi.eus/procurements/companies/economic-activities/1.476.1"
            }
          }
        },
        {
          "id": "1.476.9",
          "name": "Otras ediciones n.c.o.p",
          "_links": {
            "self": {
              "name": "Otras ediciones n.c.o.p",
              "href": "https://api.euskadi.eus/procurements/companies/economic-activities/1.476.9"
            }
          }
        },
        {
          "id": "1.615.9",
          "name": "Venta al por mayor de otros artículos de consumo duradero n.c.o.p",
          "_links": {
            "self": {
              "name": "Venta al por mayor de otros artículos de consumo duradero n.c.o.p",
              "href": "https://api.euskadi.eus/procurements/companies/economic-activities/1.615.9"
            }
          }
        },
        {
          "id": "1.652.4",
          "name": "Venta al por menor de plantas y hierbas en herbolarios",
          "_links": {
            "self": {
              "name": "Venta al por menor de plantas y hierbas en herbolarios",
              "href": "https://api.euskadi.eus/procurements/companies/economic-activities/1.652.4"
            }
          }
        },
        {
          "id": "1.844",
          "name": "Servicios de publicidad, relaciones públicas y similares",
          "_links": {
            "self": {
              "name": "Servicios de publicidad, relaciones públicas y similares",
              "href": "https://api.euskadi.eus/procurements/companies/economic-activities/1.844"
            }
          }
        },
        {
          "id": "1.861.2",
          "name": "Alquiler de locales industriales y otros alquileres n.c.o.p",
          "_links": {
            "self": {
              "name": "Alquiler de locales industriales y otros alquileres n.c.o.p",
              "href": "https://api.euskadi.eus/procurements/companies/economic-activities/1.861.2"
            }
          }
        },
        {
          "id": "1.961.1",
          "name": "Producción de películas cinematográficas (incluso vídeos)",
          "_links": {
            "self": {
              "name": "Producción de películas cinematográficas (incluso vídeos)",
              "href": "https://api.euskadi.eus/procurements/companies/economic-activities/1.961.1"
            }
          }
        },
        {
          "id": "1.972.2",
          "name": "Salones e institutos de belleza y gabinetes de estética",
          "_links": {
            "self": {
              "name": "Salones e institutos de belleza y gabinetes de estética",
              "href": "https://api.euskadi.eus/procurements/companies/economic-activities/1.972.2"
            }
          }
        }
      ],
      "certificateStartDate": "2008-04-18",
      "certificateEndDate": "2008-08-11",
      "object": "LA GRABACIÓN Y EDICIÓN DE TODA CLASE DE DISCOS, CINTAS MAGNETOFÓNICAS, CASSETES, COMPACT DISK, CINE, VÍDEOS Y DEMÁS SOPORTES PARA OBRAS MUSICALES Y VISUALES, LA PUBLICACIÓN DE SUS TEXTOS, CARTELES, POSTER Y DEMÁS COMPLEMENTOS ESCRITOS, GRÁFICOS O AUDIOVISUALES DE LA INDUSTRIA DISCOGRÁFICA; LA IMPORTACIÓN, EXPORTACIÓN  Y COMERCIALIZACIÓN DE SUS PRODUCTOS, ASÍ COMO DE LOS PRODUCIDOS POR OTRAS EMPRESAS DISCOGRÁFICAS.  ",
      "mainEntityOfPage": "https://www.contratacion.euskadi.eus/webkpe00-kperoc/es/ac71aBusquedaRegistrosWar/empresa/02587",
      "_links": {
        "self": {
          "name": "KEINU, S.L.",
          "href": "https://api.euskadi.eus/procurements/companies/02587"
        }
      }
    },
    {
      "name": "DICOESTUDIOS, S.L.",
      "registrationNumber": "03546",
      "identificationNumber": "B01331578",
      "address": "LANDAKO, 4-BAJO",
      "location": {
        "postalCode": "01470",
        "municipality": "Amurrio",
        "county": "Araba/Álava",
        "municipalityId": "002",
        "countyId": "01"
      },
      "economicActivities": [
        {
          "id": "1.833.2",
          "name": "Promoción de edificaciones",
          "_links": {
            "self": {
              "name": "Promoción de edificaciones",
              "href": "https://api.euskadi.eus/procurements/companies/economic-activities/1.833.2"
            }
          }
        }
      ],
      "certificateStartDate": "2008-04-15",
      "certificateEndDate": "2008-07-04",
      "object": "LA ADQUISICIÓN Y ENAJENACIÓN DE TERRENOS SOLARES, EDIFICIOS, FINCAS RÚSTICAS Y URBANAS; LA REFORMA, EDIFICACIÓN, URBANIZACIÓN Y CONSTRUCCIÓN, REALIZACIÓN DE SU PARCELACIÓN, URBANIZACIÓN Y EDIFICACIÓN; LA COMPRA, VENTA, ARRENDAMIENTO Y REHABILITACIÓN DE LONJAS Y LOCALES COMERCIALES, PABELLONES INDUSTRIALES Y CUALQUIER OTRO BIEN INMUEBLE",
      "mainEntityOfPage": "https://www.contratacion.euskadi.eus/webkpe00-kperoc/es/ac71aBusquedaRegistrosWar/empresa/03546",
      "_links": {
        "self": {
          "name": "DICOESTUDIOS, S.L.",
          "href": "https://api.euskadi.eus/procurements/companies/03546"
        }
      }
    },
    {
      "name": "INSTALACIONES ELÉCTRICAS ALONSO, S.L.",
      "registrationNumber": "01341",
      "identificationNumber": "B01018464",
      "address": "C/ PARAGUAY, Nº 24 - BAJO.",
      "location": {
        "postalCode": "01012",
        "municipality": "Vitoria-Gasteiz",
        "county": "Araba/Álava",
        "municipalityId": "059",
        "countyId": "01"
      },
      "economicActivities": [
        {
          "id": "1.504.1",
          "name": "Instalaciones eléctricas en general",
          "_links": {
            "self": {
              "name": "Instalaciones eléctricas en general",
              "href": "https://api.euskadi.eus/procurements/companies/economic-activities/1.504.1"
            }
          }
        },
        {
          "id": "1.504.7",
          "name": "Instalaciones telefónicas, telegráficas, televisión, etc",
          "_links": {
            "self": {
              "name": "Instalaciones telefónicas, telegráficas, televisión, etc",
              "href": "https://api.euskadi.eus/procurements/companies/economic-activities/1.504.7"
            }
          }
        },
        {
          "id": "1.653.2",
          "name": "Venta al por menor de material y aparatos eléctricos, electrodomésticos y cocina",
          "_links": {
            "self": {
              "name": "Venta al por menor de material y aparatos eléctricos, electrodomésticos y cocina",
              "href": "https://api.euskadi.eus/procurements/companies/economic-activities/1.653.2"
            }
          }
        }
      ],
      "certificateStartDate": "2008-04-10",
      "certificateEndDate": "2008-09-03",
      "object": "TODA CLASE DE INSTALACIONES ELÉCTRICAS Y LA VENTA DE TODO TIPO DE APARATOS ELECTRODOMÉSTICOS",
      "mainEntityOfPage": "https://www.contratacion.euskadi.eus/webkpe00-kperoc/es/ac71aBusquedaRegistrosWar/empresa/01341",
      "_links": {
        "self": {
          "name": "INSTALACIONES ELÉCTRICAS ALONSO, S.L.",
          "href": "https://api.euskadi.eus/procurements/companies/01341"
        }
      }
    },
    {
      "name": "J.P.C. INGENIEROS, S.A.L.",
      "registrationNumber": "01147",
      "identificationNumber": "A48415194",
      "address": "C/ VILLA DE PLENCIA, Nº 18 - BAJO.",
      "location": {
        "postalCode": "48930",
        "municipality": "Getxo",
        "county": "Bizkaia",
        "municipalityId": "044",
        "countyId": "48"
      },
      "economicActivities": [
        {
          "id": "1.843.1",
          "name": "Servicios técnicos de ingeniería",
          "_links": {
            "self": {
              "name": "Servicios técnicos de ingeniería",
              "href": "https://api.euskadi.eus/procurements/companies/economic-activities/1.843.1"
            }
          }
        }
      ],
      "certificateStartDate": "2008-04-03",
      "certificateEndDate": "2008-08-25",
      "object": "LA CONFECCIÓN DE ESTUDIOS, PROYECTOS Y DIRECCIÓN DE OBRAS CIVILES E INDUSTRIALES, Y EN GENERAL CUANTO SEA PREPARATORIO, AUXILIAR, CONSECUENCIA O SE RELACIONE DIRECTA O INDIRECTAMENTE CON EL EJERCICIO DE LAS ACTIVIDADES PROPIAS DE UNA EMPRESA DE INGENIERÍA CIVIL E INDUSTRIAL. LA CONSTRUCCIÓN DE TODA CLASE DE OBRAS, TANTO PÚBLICAS COMO PRIVADAS, BIEN CON EL CARÁCTER DE PROMOTOR O BIEN POR CUENTA AJENA. LA ADQUISICIÓN, USO, ARRENDAMIENTO Y ENAJENACIÓN, POR CUALQUIER TÍTULO, DE VIVIENDAS, LOCALES Y EDIFICACIONES DE TODO GÉNERO. LA ADQUISICIÓN, USO, ARRENDAMIENTO Y ENAJENACIÓN, POR CUALQUIER TÍTULO, DE TERRENOS PARA SU URBANIZACIÓN Y PARCELACIÓN, Y TODO LO QUE CON ELLO TENGA O GUARDE RELACIÓN DIRECTA O INDIRECTAMENTE. LA COMERCIALIZACIÓN Y VENTA DE ORDENADORES Y DESARROLLO DE PROGRAMAS PARA DICHOS ORDENADORES, ASÍ COMO TODO LO QUE CON ELLO TENGA RELACIÓN DIRECTA O INDIRECTAMENTE. Y, POR ÚLTIMO, LA INTERMEDIACIÓN Y REPRESENTACIÓN COMERCIAL",
      "mainEntityOfPage": "https://www.contratacion.euskadi.eus/webkpe00-kperoc/es/ac71aBusquedaRegistrosWar/empresa/01147",
      "_links": {
        "self": {
          "name": "J.P.C. INGENIEROS, S.A.L.",
          "href": "https://api.euskadi.eus/procurements/companies/01147"
        }
      }
    },
    {
      "name": "ALTUNA EL PRUEBAS",
      "registrationNumber": "03297",
      "identificationNumber": "B72101017",
      "address": "C/ KALEA",
      "location": {
        "postalCode": "20080",
        "municipality": "Donostia / San Sebastián",
        "county": "Gipuzkoa",
        "municipalityId": "069",
        "countyId": "20"
      },
      "economicActivities": [
        {
          "id": "1.844",
          "name": "Servicios de publicidad, relaciones públicas y similares",
          "_links": {
            "self": {
              "name": "Servicios de publicidad, relaciones públicas y similares",
              "href": "https://api.euskadi.eus/procurements/companies/economic-activities/1.844"
            }
          }
        }
      ],
      "certificateStartDate": "2008-04-01",
      "certificateEndDate": "2008-09-25",
      "object": "SUS LABORES",
      "mainEntityOfPage": "https://www.contratacion.euskadi.eus/webkpe00-kperoc/es/ac71aBusquedaRegistrosWar/empresa/03297",
      "_links": {
        "self": {
          "name": "ALTUNA EL PRUEBAS",
          "href": "https://api.euskadi.eus/procurements/companies/03297"
        }
      }
    },
    {
      "name": "BEHATOKI ESTUDIOS SOCIOLÓGICOS Y DE MERCADO, S.L.",
      "registrationNumber": "02179",
      "identificationNumber": "B95013694",
      "address": "C/ Colón de Larreátegui, nº 17-1º izda.-izda.",
      "location": {
        "postalCode": "48001",
        "municipality": "Bilbao",
        "county": "Bizkaia",
        "municipalityId": "020",
        "countyId": "48"
      },
      "economicActivities": [
        {
          "id": "1.846",
          "name": "Empresas de estudios de mercado",
          "_links": {
            "self": {
              "name": "Empresas de estudios de mercado",
              "href": "https://api.euskadi.eus/procurements/companies/economic-activities/1.846"
            }
          }
        }
      ],
      "certificateStartDate": "2008-03-31",
      "certificateEndDate": "2008-08-05",
      "object": "REALIZAR SERVICIOS DE CONSULTORÍA QUE ATIENDAN A LAS DIFERENTES DEMANDAS DE ASESORAMIENTO E INVESTIGACIÓN ORIGINADAS EN LAS ÁREAS DE ESTUDIOS SOCIODEMOGRÁFICOS, INVESTIGACIÓN DE MERCADO, RECURSOS HUMANOS Y NECESIDADES FORMATIVAS, ESTUDIOS DE OPINIÓN Y PREVISIÓN DEL COMPORTAMIENTO ELECTORAL, Y NÚCLEOS DE INTERVENCIÓN PARTICIPATIVA (N.I.P.)",
      "mainEntityOfPage": "https://www.contratacion.euskadi.eus/webkpe00-kperoc/es/ac71aBusquedaRegistrosWar/empresa/02179",
      "_links": {
        "self": {
          "name": "BEHATOKI ESTUDIOS SOCIOLÓGICOS Y DE MERCADO, S.L.",
          "href": "https://api.euskadi.eus/procurements/companies/02179"
        }
      }
    },
    {
      "name": "SEGURIDAD VIGILANCIA Y CONTROL, S.L.",
      "registrationNumber": "01367",
      "identificationNumber": "B01102193",
      "address": "C/ BARRACHI, Nº 8-BAJO.",
      "location": {
        "postalCode": "01013",
        "municipality": "Vitoria-Gasteiz",
        "county": "Araba/Álava",
        "municipalityId": "059",
        "countyId": "01"
      },
      "economicActivities": [
        {
          "id": "1.351.2",
          "name": "Fabricación de aparatos y equipo de radiocomunicación, radiodifusión",
          "_links": {
            "self": {
              "name": "Fabricación de aparatos y equipo de radiocomunicación, radiodifusión",
              "href": "https://api.euskadi.eus/procurements/companies/economic-activities/1.351.2"
            }
          }
        },
        {
          "id": "1.504.1",
          "name": "Instalaciones eléctricas en general",
          "_links": {
            "self": {
              "name": "Instalaciones eléctricas en general",
              "href": "https://api.euskadi.eus/procurements/companies/economic-activities/1.504.1"
            }
          }
        },
        {
          "id": "1.849.4",
          "name": "Servicios de custodia, seguridad y protección",
          "_links": {
            "self": {
              "name": "Servicios de custodia, seguridad y protección",
              "href": "https://api.euskadi.eus/procurements/companies/economic-activities/1.849.4"
            }
          }
        },
        {
          "id": "1.921.7",
          "name": "Servicios de protección contra incendios y accidentes",
          "_links": {
            "self": {
              "name": "Servicios de protección contra incendios y accidentes",
              "href": "https://api.euskadi.eus/procurements/companies/economic-activities/1.921.7"
            }
          }
        }
      ],
      "certificateStartDate": "2008-03-27",
      "certificateEndDate": "2008-07-28",
      "object": "LA VIGILANCIA Y PROTECCIÓN DE BIENES, ESTABLECIMIENTOS, ESPECTÁCULOS, CERTÁMENES O CONVENCIONES CON ÁMBITO AUTONÓMICO; LA INSTALACIÓN Y MANTENIMIENTO DE APARATOS, DISPOSITIVOS Y SISTEMAS DE SEGURIDAD CON ÁMBITO NACIONAL Y LA EXPLOTACIÓN DE CENTRALES PARA LA RECEPCIÓN, VERIFICACIÓN Y TRANSMISIÓN DE LAS SEÑALES DE ALARMAS Y SU COMUNICACIÓN A LAS FUERZAS Y CUERPOS DE SEGURIDAD, ASÍ COMO PRESTACIÓN DE SERVICIOS DE RESPUESTA CUYA REALIZACIÓN NO SEA COMPETENCIA DE DICHAS FUERZAS Y CUERPOS",
      "mainEntityOfPage": "https://www.contratacion.euskadi.eus/webkpe00-kperoc/es/ac71aBusquedaRegistrosWar/empresa/01367",
      "_links": {
        "self": {
          "name": "SEGURIDAD VIGILANCIA Y CONTROL, S.L.",
          "href": "https://api.euskadi.eus/procurements/companies/01367"
        }
      }
    },
    {
      "name": "PRONOA 2001, S.L.",
      "registrationNumber": "03062",
      "identificationNumber": "B48966600",
      "address": "CR/ BASURTO-KASTREXANA, 23-4º D",
      "location": {
        "postalCode": "48008",
        "municipality": "Bilbao",
        "county": "Bizkaia",
        "municipalityId": "020",
        "countyId": "48"
      },
      "economicActivities": [
        {
          "id": "1.501.1",
          "name": "Construcción completa, reparación y conservación de edificaciones",
          "_links": {
            "self": {
              "name": "Construcción completa, reparación y conservación de edificaciones",
              "href": "https://api.euskadi.eus/procurements/companies/economic-activities/1.501.1"
            }
          }
        },
        {
          "id": "1.501.3",
          "name": "Albañilería y pequeños trabajos de construcción en general",
          "_links": {
            "self": {
              "name": "Albañilería y pequeños trabajos de construcción en general",
              "href": "https://api.euskadi.eus/procurements/companies/economic-activities/1.501.3"
            }
          }
        }
      ],
      "certificateStartDate": "2008-03-25",
      "certificateEndDate": "2008-08-22",
      "object": "LA CONSTRUCCIÓN, EJECUCIÓN, PROMOCIÓN, COMPRA Y VENTA DE TODA CLASE DE EDIFICIOS E INMUEBLES, SU ACONDICIONAMIENTO, URBANIZACIÓN, PARCELACIÓN. IGUALMENTE LA EJECUCIÓN COMPLETA, CONSERVACIÓN Y MANTENIMIENTO DE TODO TIPO DE OBRA DE EDIFICACIÓN Y ASÍ COMO CUALQUIER CLASE DE OBRAS CIVILES Y DE TODO TIPO DE INSTALACIONES TANTO PÚBLICAS COMO PRIVADAS Y POR CUENTA PROPIA O DE TERCERO.",
      "mainEntityOfPage": "https://www.contratacion.euskadi.eus/webkpe00-kperoc/es/ac71aBusquedaRegistrosWar/empresa/03062",
      "_links": {
        "self": {
          "name": "PRONOA 2001, S.L.",
          "href": "https://api.euskadi.eus/procurements/companies/03062"
        }
      }
    }
  ]
}