{
  "totalItems": 9042,
  "totalPages": 905,
  "currentPage": 603,
  "itemsOfPage": 10,
  "items": [
    {
      "name": "ENEA ESTRATEGIAS PARA LA SOSTENIBILIDAD, S.L.",
      "registrationNumber": "03965",
      "identificationNumber": "B20889903",
      "address": "PILOTEGI BIDEA 2, OFICINA 204",
      "location": {
        "postalCode": "20018",
        "municipality": "Donostia / San Sebastián",
        "county": "Gipuzkoa",
        "municipalityId": "069",
        "countyId": "20"
      },
      "economicActivities": [
        {
          "id": "1.847",
          "name": "Servicios de consultoría",
          "_links": {
            "self": {
              "name": "Servicios de consultoría",
              "href": "https://api.euskadi.eus/procurements/companies/economic-activities/1.847"
            }
          }
        },
        {
          "id": "1.932.2",
          "name": "Enseñanza de formación y perfeccionamiento profesional superior",
          "_links": {
            "self": {
              "name": "Enseñanza de formación y perfeccionamiento profesional superior",
              "href": "https://api.euskadi.eus/procurements/companies/economic-activities/1.932.2"
            }
          }
        },
        {
          "id": "1.936.9",
          "name": "Otras investigaciones científicas y técnicas n.c.o.p",
          "_links": {
            "self": {
              "name": "Otras investigaciones científicas y técnicas n.c.o.p",
              "href": "https://api.euskadi.eus/procurements/companies/economic-activities/1.936.9"
            }
          }
        }
      ],
      "certificateStartDate": "2019-08-06",
      "certificateEndDate": "2020-02-06",
      "object": "ASESORAMIENTO A ORGANIZACIONES (EMPRESAS PRIVADAS Y/O ADMINISTRACIONES PÚBLICAS) EN TEMAS RELACIONADOS CON EL MEDIO AMBIENTE Y EL DESARROLLO SOSTENIBLE",
      "mainEntityOfPage": "https://www.contratacion.euskadi.eus/webkpe00-kperoc/es/ac71aBusquedaRegistrosWar/empresa/03965",
      "_links": {
        "self": {
          "name": "ENEA ESTRATEGIAS PARA LA SOSTENIBILIDAD, S.L.",
          "href": "https://api.euskadi.eus/procurements/companies/03965"
        }
      }
    },
    {
      "name": "RODO, S. COOP.",
      "registrationNumber": "01006",
      "identificationNumber": "F01031467",
      "address": "C/ Paduleta, 49. Pol. Industrial de Júndiz",
      "location": {
        "postalCode": "01015",
        "municipality": "Vitoria-Gasteiz",
        "county": "Araba/Álava",
        "municipalityId": "059",
        "countyId": "01"
      },
      "economicActivities": [
        {
          "id": "1.501.2",
          "name": "Construcción completa, reparación y conservación obras civiles",
          "_links": {
            "self": {
              "name": "Construcción completa, reparación y conservación obras civiles",
              "href": "https://api.euskadi.eus/procurements/companies/economic-activities/1.501.2"
            }
          }
        },
        {
          "id": "1.502.2",
          "name": "Consolidación y preparación de terrenos para la construcción de edificaciones",
          "_links": {
            "self": {
              "name": "Consolidación y preparación de terrenos para la construcción de edificaciones",
              "href": "https://api.euskadi.eus/procurements/companies/economic-activities/1.502.2"
            }
          }
        },
        {
          "id": "1.502.3",
          "name": "Consolidación y preparación de terrenos para la realización de obras civiles",
          "_links": {
            "self": {
              "name": "Consolidación y preparación de terrenos para la realización de obras civiles",
              "href": "https://api.euskadi.eus/procurements/companies/economic-activities/1.502.3"
            }
          }
        },
        {
          "id": "1.912",
          "name": "Servicios forestales",
          "_links": {
            "self": {
              "name": "Servicios forestales",
              "href": "https://api.euskadi.eus/procurements/companies/economic-activities/1.912"
            }
          }
        }
      ],
      "certificateStartDate": "2019-08-05",
      "certificateEndDate": "2020-02-05",
      "object": "LA REALIZACIÓN DE TODO TIPO DE OBRAS Y TRABAJOS DE DESMONTE, APERTURA DE PISTAS FORESTALES, LIMPIEZA DE MONTES, PASTIZALES, LEVANTAMIENTO Y EXCAVACIONES",
      "mainEntityOfPage": "https://www.contratacion.euskadi.eus/webkpe00-kperoc/es/ac71aBusquedaRegistrosWar/empresa/01006",
      "_links": {
        "self": {
          "name": "RODO, S. COOP.",
          "href": "https://api.euskadi.eus/procurements/companies/01006"
        }
      }
    },
    {
      "name": "CAHNOS, S.L. DISTRIBUIDORA PRODUCTOS SANITARIOS",
      "registrationNumber": "01285",
      "identificationNumber": "B80179344",
      "address": "C/ PLAZA VIRGEN DE LA CAPILLA, Nº 4.",
      "location": {
        "postalCode": "28034",
        "municipality": "Madrid",
        "county": "Madrid",
        "municipalityId": "079",
        "countyId": "28"
      },
      "economicActivities": [
        {
          "id": "1.619.2",
          "name": "Venta al por mayor de aparatos e instrumentos médicos, ortopédicos, ópticos",
          "_links": {
            "self": {
              "name": "Venta al por mayor de aparatos e instrumentos médicos, ortopédicos, ópticos",
              "href": "https://api.euskadi.eus/procurements/companies/economic-activities/1.619.2"
            }
          }
        }
      ],
      "certificateStartDate": "2019-08-03",
      "certificateEndDate": "2020-02-03",
      "object": "DISTRIBUCIÓN EN EL SECTOR SANITARIO DE MATERIALES HOSPITALARIOS Y SANITARIOS, DE ÓPTICA, VÍDEO DIGITAL, DE FOTOGRAFÍA Y CONSUMIBLES HOSPITALARIOS EN GENERAL",
      "mainEntityOfPage": "https://www.contratacion.euskadi.eus/webkpe00-kperoc/es/ac71aBusquedaRegistrosWar/empresa/01285",
      "_links": {
        "self": {
          "name": "CAHNOS, S.L. DISTRIBUIDORA PRODUCTOS SANITARIOS",
          "href": "https://api.euskadi.eus/procurements/companies/01285"
        }
      }
    },
    {
      "name": "DOCAPI SERVICIOS GENERALES INMOBILIARIOS, S.L.",
      "registrationNumber": "03928",
      "identificationNumber": "B48976989",
      "address": "BARRIO ALTAMIRA Nº36-BJ",
      "location": {
        "postalCode": "48002",
        "municipality": "Bilbao",
        "county": "Bizkaia",
        "municipalityId": "020",
        "countyId": "48"
      },
      "economicActivities": [
        {
          "id": "1.501.1",
          "name": "Construcción completa, reparación y conservación de edificaciones",
          "_links": {
            "self": {
              "name": "Construcción completa, reparación y conservación de edificaciones",
              "href": "https://api.euskadi.eus/procurements/companies/economic-activities/1.501.1"
            }
          }
        }
      ],
      "certificateStartDate": "2019-07-31",
      "certificateEndDate": "2020-01-28",
      "object": "pte",
      "mainEntityOfPage": "https://www.contratacion.euskadi.eus/webkpe00-kperoc/es/ac71aBusquedaRegistrosWar/empresa/03928",
      "_links": {
        "self": {
          "name": "DOCAPI SERVICIOS GENERALES INMOBILIARIOS, S.L.",
          "href": "https://api.euskadi.eus/procurements/companies/03928"
        }
      }
    },
    {
      "name": "QUALITY DUAL, S.L.",
      "registrationNumber": "05845",
      "identificationNumber": "B97158661",
      "address": "Calle Alacreus, 35",
      "location": {
        "postalCode": "46025",
        "municipality": "València",
        "county": "Valencia/València",
        "municipalityId": "250",
        "countyId": "46"
      },
      "economicActivities": [
        {
          "id": "1.615.2",
          "name": "Venta al por mayor de muebles",
          "_links": {
            "self": {
              "name": "Venta al por mayor de muebles",
              "href": "https://api.euskadi.eus/procurements/companies/economic-activities/1.615.2"
            }
          }
        },
        {
          "id": "1.619.2",
          "name": "Venta al por mayor de aparatos e instrumentos médicos, ortopédicos, ópticos",
          "_links": {
            "self": {
              "name": "Venta al por mayor de aparatos e instrumentos médicos, ortopédicos, ópticos",
              "href": "https://api.euskadi.eus/procurements/companies/economic-activities/1.619.2"
            }
          }
        },
        {
          "id": "1.922",
          "name": "Servicios de limpieza",
          "_links": {
            "self": {
              "name": "Servicios de limpieza",
              "href": "https://api.euskadi.eus/procurements/companies/economic-activities/1.922"
            }
          }
        }
      ],
      "certificateStartDate": "2019-07-31",
      "certificateEndDate": "2020-01-23",
      "object": "LA LIMPIEZA DE VEHÍCULOS, JARDINES, VÍAS PUBLICAS Y EDIFICIOS. LA VENTA Y DISTRIBUCIÓN DE TELEFONÍA MÓVIL. LA REFORMA INTEGRAL DE VIVIENDAS. LA PROMOCIÓN DE NAVES INDUSTRIALES Y VIVIENDAS. LA PRESTACIÓN DE SERVICIOS DE CUIDADO Y ATENCIÓN GERIÁTRICAS DISTRIBUCIÓN MOBILIARIO Y EQUIPAMIENTO FITOSANITARIO",
      "mainEntityOfPage": "https://www.contratacion.euskadi.eus/webkpe00-kperoc/es/ac71aBusquedaRegistrosWar/empresa/05845",
      "_links": {
        "self": {
          "name": "QUALITY DUAL, S.L.",
          "href": "https://api.euskadi.eus/procurements/companies/05845"
        }
      }
    },
    {
      "name": "QUALITY DUAL INTEGRA, S.L.U.",
      "registrationNumber": "05884",
      "identificationNumber": "B98910904",
      "address": "Calle Fuente Podrida, 19 - bajo",
      "location": {
        "postalCode": "46011",
        "municipality": "València",
        "county": "Valencia/València",
        "municipalityId": "250",
        "countyId": "46"
      },
      "economicActivities": [
        {
          "id": "1.615.2",
          "name": "Venta al por mayor de muebles",
          "_links": {
            "self": {
              "name": "Venta al por mayor de muebles",
              "href": "https://api.euskadi.eus/procurements/companies/economic-activities/1.615.2"
            }
          }
        },
        {
          "id": "1.619.2",
          "name": "Venta al por mayor de aparatos e instrumentos médicos, ortopédicos, ópticos",
          "_links": {
            "self": {
              "name": "Venta al por mayor de aparatos e instrumentos médicos, ortopédicos, ópticos",
              "href": "https://api.euskadi.eus/procurements/companies/economic-activities/1.619.2"
            }
          }
        },
        {
          "id": "1.849.9",
          "name": "Otros servicios independientes n.c.o.p",
          "_links": {
            "self": {
              "name": "Otros servicios independientes n.c.o.p",
              "href": "https://api.euskadi.eus/procurements/companies/economic-activities/1.849.9"
            }
          }
        },
        {
          "id": "1.922",
          "name": "Servicios de limpieza",
          "_links": {
            "self": {
              "name": "Servicios de limpieza",
              "href": "https://api.euskadi.eus/procurements/companies/economic-activities/1.922"
            }
          }
        },
        {
          "id": "1.979.9",
          "name": "Otros servicios personales n.c.o.p",
          "_links": {
            "self": {
              "name": "Otros servicios personales n.c.o.p",
              "href": "https://api.euskadi.eus/procurements/companies/economic-activities/1.979.9"
            }
          }
        }
      ],
      "certificateStartDate": "2019-07-31",
      "certificateEndDate": "2020-01-23",
      "object": "A) LA REFORMA INTEGRA DE LOCALES; B) LA PRESTACIÓN DE ATENCIÓN GERIÁTRICA; C) LA DISTRIBUCIÓN DE MUEBLES Y EQUIPAMIENTO FITOSANITARIO; D) LA INTEGRACIÓN LABORAL DE LOS TRABAJADORES CON DIVERSIDAD FUNCIONAL QUE TENGA EN PLANTILLA, EN LA EMPRESA ORDINARIA, UTILIZANDO PARA ELLO UN PROCESO PREVIO DE ITINERARIO DE INSERCIÓN; E) ACTIVIDADES DE LIMPIEZA INDUSTRIAL Y DE EDIFICIOS (CNAE 8122); F) OTROS SERVICIOS PERSONALES N.C.O.P., DE SERVICIOS DE CONSERJERÍA, GARAJISTAS, CONTROL DE ACCESOS, PEQUEÑOS MANTENIMIENTOS.(CNAE 9609); G) JARDINERÍA (CNAE 8130). H) INTERMEDIACIÓN DEL COMERCIO DE PRODUCTOS DIVERSOS (CNAE 4619); I) OTRAS ACTIVIDADES DE APOYO A LAS EMPRESAS, N.C.O.P. (CNAE 8299); J) OTRAS ACTIVIDADES DE CONSULTORÍA DE GESTIÓN EMPRESARIAL (CNAE 7022)",
      "mainEntityOfPage": "https://www.contratacion.euskadi.eus/webkpe00-kperoc/es/ac71aBusquedaRegistrosWar/empresa/05884",
      "_links": {
        "self": {
          "name": "QUALITY DUAL INTEGRA, S.L.U.",
          "href": "https://api.euskadi.eus/procurements/companies/05884"
        }
      }
    },
    {
      "name": "VETASI ESPAÑA, S.L.",
      "registrationNumber": "06396",
      "identificationNumber": "B87916607",
      "address": "Monteragon, 9 - 2º",
      "location": {
        "postalCode": "28033",
        "municipality": "Madrid",
        "county": "Madrid",
        "municipalityId": "079",
        "countyId": "28"
      },
      "economicActivities": [
        {
          "id": "1.845",
          "name": "Explotación electrónica por cuenta de terceros",
          "_links": {
            "self": {
              "name": "Explotación electrónica por cuenta de terceros",
              "href": "https://api.euskadi.eus/procurements/companies/economic-activities/1.845"
            }
          }
        }
      ],
      "certificateStartDate": "2019-07-29",
      "certificateEndDate": "2019-12-14",
      "object": "LA IMPLEMENTACIÓN EFICAZ DE SISTEMAS PARA PARA LA GESTION DE ACTIVOS Y MANTENIMIENTO (WORK & ENTERPRISE ASSET MANAGEMENT-EAM), DE SERVICIOS DE TECNOLOGÍAS DE LA INFORMACIÓN (IT SERVICE MANAGEMENT - ITSM), Y DE LA GESTIÓN DE INSTALACIONES (FACILITY MANAGEMENT - IWMS), APORTANDO SOLUCIONES INTEGRADAS, INCLUYENDO LA GESTIÓN DE MANTENIMIENTO, ACTIVOS, ALMACÉN Y COMPRAS, ASÍ COMO LA INTEGRACIÓN CON OTROS SISTEMAS CORPORATIVOS, TODO REALIZADA CON EL SISTEMA DE PLANIFICACIÓN ÁGIL Y ALINEADA CON TECNOLOGÍAS DE INDUSTRIA 4.0.",
      "mainEntityOfPage": "https://www.contratacion.euskadi.eus/webkpe00-kperoc/es/ac71aBusquedaRegistrosWar/empresa/06396",
      "_links": {
        "self": {
          "name": "VETASI ESPAÑA, S.L.",
          "href": "https://api.euskadi.eus/procurements/companies/06396"
        }
      }
    },
    {
      "name": "BIZKAIA TRATAMENDUAK, S.L.",
      "registrationNumber": "06399",
      "identificationNumber": "B95896270",
      "address": "Aperribai kalea, 17 behea",
      "location": {
        "postalCode": "48960",
        "municipality": "Galdakao",
        "county": "Bizkaia",
        "municipalityId": "036",
        "countyId": "48"
      },
      "economicActivities": [
        {
          "id": "1.501.3",
          "name": "Albañilería y pequeños trabajos de construcción en general",
          "_links": {
            "self": {
              "name": "Albañilería y pequeños trabajos de construcción en general",
              "href": "https://api.euskadi.eus/procurements/companies/economic-activities/1.501.3"
            }
          }
        },
        {
          "id": "1.921.3",
          "name": "Exterminio de animales dañinos y desinfección",
          "_links": {
            "self": {
              "name": "Exterminio de animales dañinos y desinfección",
              "href": "https://api.euskadi.eus/procurements/companies/economic-activities/1.921.3"
            }
          }
        }
      ],
      "certificateStartDate": "2019-07-29",
      "certificateEndDate": "2020-01-10",
      "object": "EL DESARROLLO DE LAS ACTIVIDADES CORRESPONDIENTES A LOS SIGUIENTES CÓDIGOS Y DESCRIPCIONES DE LA CLASIFICACIÓN NACIONAL DE ACTIVIDADES ECONÓMICAS: ACTIVIDAD PRINCIPAL: 1610 ASERRADO Y CEPILLADO DE LA MADERA. OTRAS ACTIVIDADES: \r\n4759 COMERCIO AL POR MENOR DE MUEBLES, APARATOS DE ILUMINACIÓN Y OTROS ARTÍCULOS DE USO DOMÉSTICO EN ESTABLECIMIENTOS ESPECIALIZADOS; 3109, FABRICACIÓN DE OTROS MUEBLES; 8110 SERVICIOS INTEGRALES A EDIFICIOS E INSTALACIONES; 4613, INTERMEDIARIOS DEL COMERCIO DE LA MADERA Y MATERIALES DE CONSTRUCCIÓN; 4110 PROMOCIÓN INMOBILIARIA; 6832, GESTIÓN Y ADMINISTRACIÓN DE LA PROPIEDAD INMOBILIARIA; 4615 INTERMEDIARIOS DEL COMERCIO DE MUEBLES, ARTÍCULOS PARA EL HOGAR Y FERRETERÍA; 4121 CONSTRUCCIÓN DE EDIFICIOS RESIDENCIALES; 4399 OTRAS ACTIVIDADES DE CONSTRUCCIÓN ESPECIALIZADA N.C.O.P.; 4618 INTERMEDIARIOS DEL COMERCIO ESPECIALIZADOS EN LA VENTA DE OTROS PRODUCTOS ESPECÍFICOS; 6810 COMPRAVENTA DE BIENES INMOBILIARIOS POR CUENTA PROPIA; 4665 COMERCIO AL POR MAYOR DE MUEBLES DE OFICINA; 4673 COMERCIO AL POR MAYOR DE MADERA, MATERIALES DE CONSTRUCCIÓN Y APARATOS SANITARIOS; 6820, ALQUILER DE BIENES INMOBILIARIOS POR CUENTA PROPIA; 6831 AGENTES DE LA PROPIEDAD INMOBILIARIA; 4619 INTERMEDIARIOS DEL COMERCIO DE PRODUCTOS DIVERSOS; 4647 COMERCIO AL POR MAYOR DE MUEBLES, ALFOMBRAS Y APARATOS DE ILUMINACIÓN;  4649, COMERCIO AL POR MAYOR DE OTROS ARTÍCULOS DE USO DOMÉSTICOS; 4122 CONSTRUCCIÓN DE EDIFICIOS NO RESIDENCIALES;  8129 OTRAS ACTIVIDADES DE LIMPIEZA; 3821 TRATAMIENTO Y ELIMINACIÓN DE RESIDUOS NO PELIGROSOS; 1629 FABRICACIÓN DE OTROS PRODUCTOS DE MADERA, ARTÍCULOS DE CORCHO, CESTERÍA Y ESPARTERÍA; 1621 FABRICACIÓN DE CHAPAS Y TABLEROS DE MADERA;  1622 FABRICACIÓN DE SUELOS DE MADERA ENSAMBLADOS;  1623 FABRICACIÓN DE OTRAS ESTRUCTURAS DE MADERA Y PIEZAS DE CARPINTERÍA Y EBANISTERÍA PARA LA CONSTRUCCIÓN; 1624 FABRICACIÓN DE ENVASES Y EMBALAJES DE MADERA",
      "mainEntityOfPage": "https://www.contratacion.euskadi.eus/webkpe00-kperoc/es/ac71aBusquedaRegistrosWar/empresa/06399",
      "_links": {
        "self": {
          "name": "BIZKAIA TRATAMENDUAK, S.L.",
          "href": "https://api.euskadi.eus/procurements/companies/06399"
        }
      }
    },
    {
      "name": "JUVÁZQUEZ, S.L.",
      "registrationNumber": "01815",
      "identificationNumber": "B28931202",
      "address": "C/ ELECTRICIDAD, Nº 29.POLÍGONO IND. SAN JOSÉ DE VALDERAS.",
      "location": {
        "postalCode": "28918",
        "municipality": "Leganés",
        "county": "Madrid",
        "municipalityId": "074",
        "countyId": "28"
      },
      "economicActivities": [
        {
          "id": "1.619.2",
          "name": "Venta al por mayor de aparatos e instrumentos médicos, ortopédicos, ópticos",
          "_links": {
            "self": {
              "name": "Venta al por mayor de aparatos e instrumentos médicos, ortopédicos, ópticos",
              "href": "https://api.euskadi.eus/procurements/companies/economic-activities/1.619.2"
            }
          }
        }
      ],
      "certificateStartDate": "2019-07-27",
      "certificateEndDate": "2020-01-27",
      "object": "LA FABRICACIÓN, VENTA, ADQUISICIÓN, INCLUSO EXPORTACIÓN E IMPORTACIÓN, COMERCIALIZACIÓN Y DISTRIBUCIÓN POR CUENTA PROPIA O DE TERCEROS, DENTRO DEL TERRITORIO NACIONAL Y EN EL EXTRANJERO DE APARATOS, PRODUCTOS QUÍMICOS INDUSTRIALES, ARTÍCULOS Y MATERIAL DE TODA CLASE DE USO HOSPITALARIO, SANITARIO Y QUÍMICO-INDUSTRIAL NO FARMACÉUTICO, ASÍ COMO DE MATERIALES, OBJETOS Y PRODUCTOS DE PLÁSTICO",
      "mainEntityOfPage": "https://www.contratacion.euskadi.eus/webkpe00-kperoc/es/ac71aBusquedaRegistrosWar/empresa/01815",
      "_links": {
        "self": {
          "name": "JUVÁZQUEZ, S.L.",
          "href": "https://api.euskadi.eus/procurements/companies/01815"
        }
      }
    },
    {
      "name": "IZERTIS, S.L.",
      "registrationNumber": "05446",
      "identificationNumber": "B33845009",
      "address": "AVDA. JARDÍN BOTÁNICO,  1345 (PARQ. CIENT. TECN. ZONA INTRA)",
      "location": {
        "postalCode": "33203",
        "municipality": "Gijón",
        "county": "Asturias",
        "municipalityId": "024",
        "countyId": "33"
      },
      "economicActivities": [
        {
          "id": "1.659.2",
          "name": "Venta al por menor de muebles de oficina y máquinas y equipos de oficina",
          "_links": {
            "self": {
              "name": "Venta al por menor de muebles de oficina y máquinas y equipos de oficina",
              "href": "https://api.euskadi.eus/procurements/companies/economic-activities/1.659.2"
            }
          }
        },
        {
          "id": "1.843.9",
          "name": "Otros servicios técnicos n.c.o.p",
          "_links": {
            "self": {
              "name": "Otros servicios técnicos n.c.o.p",
              "href": "https://api.euskadi.eus/procurements/companies/economic-activities/1.843.9"
            }
          }
        },
        {
          "id": "1.861.2",
          "name": "Alquiler de locales industriales y otros alquileres n.c.o.p",
          "_links": {
            "self": {
              "name": "Alquiler de locales industriales y otros alquileres n.c.o.p",
              "href": "https://api.euskadi.eus/procurements/companies/economic-activities/1.861.2"
            }
          }
        },
        {
          "id": "1.932.1",
          "name": "Enseñanza de formación y perfeccionamiento profesional no superior",
          "_links": {
            "self": {
              "name": "Enseñanza de formación y perfeccionamiento profesional no superior",
              "href": "https://api.euskadi.eus/procurements/companies/economic-activities/1.932.1"
            }
          }
        }
      ],
      "certificateStartDate": "2019-07-22",
      "certificateEndDate": "2020-01-08",
      "object": "LA FABRICACIÓN Y VENTA AL POR MAYOR Y POR MENOR, DE EQUIPOS INFORMÁTICOS, ASÍ COMO LA PRESTACIÓN DE SERVICIOS INFORMÁTICOS Y TÉCNICOS DE INFORMÁTICA",
      "mainEntityOfPage": "https://www.contratacion.euskadi.eus/webkpe00-kperoc/es/ac71aBusquedaRegistrosWar/empresa/05446",
      "_links": {
        "self": {
          "name": "IZERTIS, S.L.",
          "href": "https://api.euskadi.eus/procurements/companies/05446"
        }
      }
    }
  ]
}