{
  "totalItems": 9042,
  "totalPages": 905,
  "currentPage": 320,
  "itemsOfPage": 10,
  "items": [
    {
      "name": "CEI FORMACIÓN Y ASESORAMIENTO EMPRESARIAL, S.L.U.",
      "registrationNumber": "06507",
      "identificationNumber": "B20308169",
      "address": "Calle Zubieta 54",
      "location": {
        "postalCode": "20007",
        "municipality": "Donostia / San Sebastián",
        "county": "Gipuzkoa",
        "municipalityId": "069",
        "countyId": "20"
      },
      "economicActivities": [
        {
          "id": "1.849.9",
          "name": "Otros servicios independientes n.c.o.p",
          "_links": {
            "self": {
              "name": "Otros servicios independientes n.c.o.p",
              "href": "https://api.euskadi.eus/procurements/companies/economic-activities/1.849.9"
            }
          }
        },
        {
          "id": "1.861.2",
          "name": "Alquiler de locales industriales y otros alquileres n.c.o.p",
          "_links": {
            "self": {
              "name": "Alquiler de locales industriales y otros alquileres n.c.o.p",
              "href": "https://api.euskadi.eus/procurements/companies/economic-activities/1.861.2"
            }
          }
        },
        {
          "id": "1.932.1",
          "name": "Enseñanza de formación y perfeccionamiento profesional no superior",
          "_links": {
            "self": {
              "name": "Enseñanza de formación y perfeccionamiento profesional no superior",
              "href": "https://api.euskadi.eus/procurements/companies/economic-activities/1.932.1"
            }
          }
        },
        {
          "id": "1.934",
          "name": "Enseñanza fuera de establecimiento permanente",
          "_links": {
            "self": {
              "name": "Enseñanza fuera de establecimiento permanente",
              "href": "https://api.euskadi.eus/procurements/companies/economic-activities/1.934"
            }
          }
        }
      ],
      "certificateStartDate": "2025-08-25",
      "certificateEndDate": "2026-02-22",
      "object": "LAS ACTIVIDADES DE SERVICIOS INFORMÁTICOS, FORMACIÓN Y ASESORAMIENTO EMPRESARIAL",
      "mainEntityOfPage": "https://www.contratacion.euskadi.eus/webkpe00-kperoc/es/ac71aBusquedaRegistrosWar/empresa/06507",
      "_links": {
        "self": {
          "name": "CEI FORMACIÓN Y ASESORAMIENTO EMPRESARIAL, S.L.U.",
          "href": "https://api.euskadi.eus/procurements/companies/06507"
        }
      }
    },
    {
      "name": "CEI ZERBITZUAK, S.L.",
      "registrationNumber": "09441",
      "identificationNumber": "B56579832",
      "address": "CALLE ZUBIETA 54 BAJO",
      "location": {
        "postalCode": "20007",
        "municipality": "Donostia / San Sebastián",
        "county": "Gipuzkoa",
        "municipalityId": "069",
        "countyId": "20"
      },
      "economicActivities": [
        {
          "id": "1.849.9",
          "name": "Otros servicios independientes n.c.o.p",
          "_links": {
            "self": {
              "name": "Otros servicios independientes n.c.o.p",
              "href": "https://api.euskadi.eus/procurements/companies/economic-activities/1.849.9"
            }
          }
        },
        {
          "id": "1.932.1",
          "name": "Enseñanza de formación y perfeccionamiento profesional no superior",
          "_links": {
            "self": {
              "name": "Enseñanza de formación y perfeccionamiento profesional no superior",
              "href": "https://api.euskadi.eus/procurements/companies/economic-activities/1.932.1"
            }
          }
        },
        {
          "id": "1.934",
          "name": "Enseñanza fuera de establecimiento permanente",
          "_links": {
            "self": {
              "name": "Enseñanza fuera de establecimiento permanente",
              "href": "https://api.euskadi.eus/procurements/companies/economic-activities/1.934"
            }
          }
        }
      ],
      "certificateStartDate": "2025-08-25",
      "certificateEndDate": "2026-02-22",
      "object": "LAS ACTIVIDADES DE SERVICIOS INFORMÁTICOS, FORMACIÓN Y ASESORAMIENTO EMPRESARIAL.",
      "mainEntityOfPage": "https://www.contratacion.euskadi.eus/webkpe00-kperoc/es/ac71aBusquedaRegistrosWar/empresa/09441",
      "_links": {
        "self": {
          "name": "CEI ZERBITZUAK, S.L.",
          "href": "https://api.euskadi.eus/procurements/companies/09441"
        }
      }
    },
    {
      "name": "MICHELENA ARTES GRÁFICAS, S.L.",
      "registrationNumber": "02268",
      "identificationNumber": "B20499133",
      "address": "Pº UBARBURU, 54. PABELLÓN 4",
      "location": {
        "postalCode": "20115",
        "municipality": "Astigarraga",
        "county": "Gipuzkoa",
        "municipalityId": "903",
        "countyId": "20"
      },
      "economicActivities": [
        {
          "id": "1.474.1",
          "name": "Impresión de textos o imágenes por cualquier procedimiento",
          "_links": {
            "self": {
              "name": "Impresión de textos o imágenes por cualquier procedimiento",
              "href": "https://api.euskadi.eus/procurements/companies/economic-activities/1.474.1"
            }
          }
        },
        {
          "id": "1.476.1",
          "name": "Edición de libros",
          "_links": {
            "self": {
              "name": "Edición de libros",
              "href": "https://api.euskadi.eus/procurements/companies/economic-activities/1.476.1"
            }
          }
        }
      ],
      "certificateStartDate": "2025-08-25",
      "certificateEndDate": "2026-02-23",
      "classification": [
        {
          "id": "S",
          "name": "Servicios",
          "groups": [
            {
              "id": "M",
              "subgroups": [
                {
                  "id": "04",
                  "name": "Artes gráficas",
                  "categories": [
                    {
                      "id": "2",
                      "name": "Desde 150.001 Hasta 300.000",
                      "_links": {
                        "self": {
                          "name": "Desde 150.001 Hasta 300.000",
                          "href": "https://api.euskadi.eus/procurements/companies/types/S/categories/2"
                        }
                      }
                    }
                  ],
                  "_links": {
                    "self": {
                      "name": "Artes gráficas",
                      "href": "https://api.euskadi.eus/procurements/companies/types/S/groups/M/subgroups/04"
                    }
                  }
                }
              ],
              "_links": {
                "self": {
                  "href": "https://api.euskadi.eus/procurements/companies/types/S/groups/M"
                }
              }
            }
          ],
          "_links": {
            "self": {
              "name": "Servicios",
              "href": "https://api.euskadi.eus/procurements/companies/types/S"
            }
          }
        }
      ],
      "object": "INDUSTRIA GRÁFICA: PREIMPRESIÓN, IMPRESIÓN Y ENCUADERNACIÓN",
      "mainEntityOfPage": "https://www.contratacion.euskadi.eus/webkpe00-kperoc/es/ac71aBusquedaRegistrosWar/empresa/02268",
      "_links": {
        "self": {
          "name": "MICHELENA ARTES GRÁFICAS, S.L.",
          "href": "https://api.euskadi.eus/procurements/companies/02268"
        }
      }
    },
    {
      "name": "TREBEKI COMBINING EFFORTS S.L.",
      "registrationNumber": "05662",
      "identificationNumber": "B95338752",
      "address": "C/ JUAN DE AJURIAGUERRA Nº 6-1º IZDA",
      "location": {
        "postalCode": "48009",
        "municipality": "Bilbao",
        "county": "Bizkaia",
        "municipalityId": "020",
        "countyId": "48"
      },
      "economicActivities": [
        {
          "id": "1.841",
          "name": "Servicios jurídicos",
          "_links": {
            "self": {
              "name": "Servicios jurídicos",
              "href": "https://api.euskadi.eus/procurements/companies/economic-activities/1.841"
            }
          }
        }
      ],
      "certificateStartDate": "2025-08-25",
      "certificateEndDate": "2026-02-19",
      "object": "A) EL ASESORAMIENTO JURÍDICO DE TODO TIPO, TANTO A PERSONAS FÍSICAS COMO A JURÍDICAS, ASÍ COMO LA CONSULTORÍA EMPRESARIAL EN TODAS SUS VERTIENTES. B) LA ADMINISTRACIÓN, CESIÓN, INVERSIÓN, TENENCIA Y DISFRUTE, GESTIÓN, ADQUISICIÓN Y ENAJENACIÓN DE TODA CLASE DE BIENES, YA SEAN MUEBLES O INMUEBLES, SIEMPRE QUE NO INCIDA EN ACTIVIDADES REGULADAS POR LA LEGISLACIÓN ESPECIAL",
      "mainEntityOfPage": "https://www.contratacion.euskadi.eus/webkpe00-kperoc/es/ac71aBusquedaRegistrosWar/empresa/05662",
      "_links": {
        "self": {
          "name": "TREBEKI COMBINING EFFORTS S.L.",
          "href": "https://api.euskadi.eus/procurements/companies/05662"
        }
      }
    },
    {
      "name": "SIT EXPEDICION ARTE Y SEGURIDAD, S.L.",
      "registrationNumber": "06775",
      "identificationNumber": "B28324176",
      "address": "CALLE RIOJA, 5",
      "location": {
        "postalCode": "28823",
        "municipality": "Coslada",
        "county": "Madrid",
        "municipalityId": "049",
        "countyId": "28"
      },
      "economicActivities": [
        {
          "id": "1.722",
          "name": "Transporte de mercancías por carretera",
          "_links": {
            "self": {
              "name": "Transporte de mercancías por carretera",
              "href": "https://api.euskadi.eus/procurements/companies/economic-activities/1.722"
            }
          }
        },
        {
          "id": "1.756.1",
          "name": "Agencias de transporte, transitarios",
          "_links": {
            "self": {
              "name": "Agencias de transporte, transitarios",
              "href": "https://api.euskadi.eus/procurements/companies/economic-activities/1.756.1"
            }
          }
        },
        {
          "id": "1.757",
          "name": "Servicio de mudanzas",
          "_links": {
            "self": {
              "name": "Servicio de mudanzas",
              "href": "https://api.euskadi.eus/procurements/companies/economic-activities/1.757"
            }
          }
        }
      ],
      "certificateStartDate": "2025-08-25",
      "certificateEndDate": "2026-08-04",
      "object": "A) LA VIGILANCIA Y PROTECCIÓN DE BIENES, ESTABLECIMIENTOS, EVENTOS, ESPECTÁCULOS, CERTÁMENES Y/O CONVENCIONES. B) LA PROTECCIÓN DE PERSONAS DETERMINADAS, CON LA CORRESPONDIENTE AUTORIZACIÓN PREVIA. C) EL DEPÓSITO, CUSTODIA, RECUENTO Y CLASIFICACIÓN DE MONEDAS Y BILLETES, TÍTULOS, VALORES Y DEMÁS OBJETOS QUE, POR SU VALOR ECONÓMICO Y EXPECTATIVAS QUE GENEREN, O POR SU PELIGROSIDAD, PUEDAN REQUERIR PROTECCIÓN ESPECIAL, SIN PERJUICIO DE LAS ACTIVIDADES PROPIAS DE LAS ENTIDADES FINANCIERAS. D) EL TRANSPORTE Y LA DISTRIBUCIÓN DE LOS OBJETOS A QUE SE REFIERE EL PUNTO ANTERIOR A TRAVÉS DE LOS DISTINTOS MEDIOS MEDIANTE VEHÍCULOS APROPIADOS A TALES FINES, CUYAS CARACTERÍSTICAS HABRÁN DE SER DETERMINADAS POR EL MINISTERIO DEL INTERIOR, DE MANERA QUE NO PUEDAN CONFUNDIRSE CON LOS DE LAS FUERZAS ARMADAS NI CON LOS DE LAS FUERZAS Y CUERPOS DE LA SEGURIDAD. E) LA INSTALACIÓN Y EL MANTENIMIENTO DE APARATOS, DISPOSITIVOS Y  SISTEMAS DE SEGURIDAD. F) LA EXPLOTACIÓN DE CENTRALES PARA LA RECEPCIÓN, VERIFICACIÓN Y TRANSMISIÓN DE LAS SEÑALES DE ALARMA Y SU COMUNICACIÓN A LAS FUERZAS  Y CUERPOS DE SEGURIDAD, ASÍ COMO LA PRESTACIÓN DE SERVICIOS DE RESPUESTA CUYA REALIZACIÓN NO SEA DE LA COMPETENCIA DE DICHAS FUERZAS Y CUERPOS. G) EL ASESORAMIENTO Y LA PLANIFICACIÓN DE LAS ACTIVIDADES INHERENTES A LAS EMPRESAS DE SEGURIDAD. ADEMÁS H) EL TRANSPORTE (CNAE 4941) Y DEPÓSITO (CNAE 5210) DE OBRAS DE ARTE Y LAS ACTIVIDADES AUXILIARES Y COMPLEMENTARIAS DE AMBOS (CNAE 5221), COMO LA MANIPULACIÓN Y ELABORACIÓN DE CAJAS Y EMBALAJES PARA LA DEBIDA PROTECCIÓN DE LAS OBRAS DE ARTE (CNAE 5224) Y LAS OPERACIONES ANEJAS A LAS MISMAS, LA CARGA Y DESCARGA DE OBRAS DE ARTE Y LAS OPERACIONES ANEJAS A LAS MISMAS, Y LA CONSERVACIÓN DE OBRAS DE ARTE Y LAS OPERACIONES ANEJAS A LAS MISMAS (CNAE 5229)",
      "mainEntityOfPage": "https://www.contratacion.euskadi.eus/webkpe00-kperoc/es/ac71aBusquedaRegistrosWar/empresa/06775",
      "_links": {
        "self": {
          "name": "SIT EXPEDICION ARTE Y SEGURIDAD, S.L.",
          "href": "https://api.euskadi.eus/procurements/companies/06775"
        }
      }
    },
    {
      "name": "METALCARI, S.L.",
      "registrationNumber": "08388",
      "identificationNumber": "B48632046",
      "address": "Pozo Pando,s/n",
      "location": {
        "postalCode": "48920",
        "municipality": "Portugalete",
        "county": "Bizkaia",
        "municipalityId": "078",
        "countyId": "48"
      },
      "economicActivities": [
        {
          "id": "1.314.2",
          "name": "Fabricación de estructuras metálicas",
          "_links": {
            "self": {
              "name": "Fabricación de estructuras metálicas",
              "href": "https://api.euskadi.eus/procurements/companies/economic-activities/1.314.2"
            }
          }
        },
        {
          "id": "1.468.5",
          "name": "Actividades anexas a la industria del mueble (acabado, barnizado,...)",
          "_links": {
            "self": {
              "name": "Actividades anexas a la industria del mueble (acabado, barnizado,...)",
              "href": "https://api.euskadi.eus/procurements/companies/economic-activities/1.468.5"
            }
          }
        },
        {
          "id": "1.504.2",
          "name": "Instalaciones de fontanería",
          "_links": {
            "self": {
              "name": "Instalaciones de fontanería",
              "href": "https://api.euskadi.eus/procurements/companies/economic-activities/1.504.2"
            }
          }
        },
        {
          "id": "1.653.1",
          "name": "Venta al por menor de muebles (excepto los de oficina)",
          "_links": {
            "self": {
              "name": "Venta al por menor de muebles (excepto los de oficina)",
              "href": "https://api.euskadi.eus/procurements/companies/economic-activities/1.653.1"
            }
          }
        }
      ],
      "certificateStartDate": "2025-08-25",
      "certificateEndDate": "2026-02-18",
      "object": "LA FABRICACIÓN Y TRANSFORMACIÓN DE PRODUCTOS Y ELEMENTOS METÁLICOS PARA EDIFICIOS, Y PIEZAS DE HOJALATERÍA, FONTANERÍA Y CARPINTERÍA METÁLICA, ASÍ COMO LOS SERVICIOS E INSTALACIONES DE FONTANERÍA.",
      "mainEntityOfPage": "https://www.contratacion.euskadi.eus/webkpe00-kperoc/es/ac71aBusquedaRegistrosWar/empresa/08388",
      "_links": {
        "self": {
          "name": "METALCARI, S.L.",
          "href": "https://api.euskadi.eus/procurements/companies/08388"
        }
      }
    },
    {
      "name": "JOSTARI SERVICIOS CULTURALES Y DEPORTIVOS, S.L.",
      "registrationNumber": "07915",
      "identificationNumber": "B01561059",
      "address": "Iglesia San Juan 13",
      "location": {
        "postalCode": "01213",
        "municipality": "Ribera Baja/Erriberabeitia",
        "county": "Araba/Álava",
        "municipalityId": "047",
        "countyId": "01"
      },
      "economicActivities": [
        {
          "id": "1.967.2",
          "name": "Escuelas y servicios de perfeccionamiento del deporte",
          "_links": {
            "self": {
              "name": "Escuelas y servicios de perfeccionamiento del deporte",
              "href": "https://api.euskadi.eus/procurements/companies/economic-activities/1.967.2"
            }
          }
        }
      ],
      "certificateStartDate": "2025-08-25",
      "certificateEndDate": "2026-07-23",
      "object": "- DEPORTIVAS, CULTURALES DE OCIO Y ENTRETENIMIENTO Y TURÍSTICAS. ASESORAMIENTO A INSTITUCIONES PÚBLICAS EN CUESTIONES RELACIONADAS CON LA PUESTA EN VALOR DEL PATRIMONIO HISTÓRICO, ARQUITECTÓNICO, CULTURAL E INMATERIAL; ASESORAMIENTO EN POLÍTICAS TURÍSTICAS; ASESORAMIENTO CULTURAL Y DEPORTIVO PARA ASOCIACIONES DE MADRES Y PADRES DE ALUMNOS (AMPAS) E INSTITUCIONES PÚBLICAS; GESTIÓN DE ESPACIOS; GESTIÓN Y DISTRIBUCIÓN DE EQUIPAMIENTO Y MATERIAL DEPORTIVO Y CULTURAL; GESTIÓN DE ACTIVIDADES EXTRAESCOLARES Y ORGANIZACIÓN DE EVENTOS",
      "mainEntityOfPage": "https://www.contratacion.euskadi.eus/webkpe00-kperoc/es/ac71aBusquedaRegistrosWar/empresa/07915",
      "_links": {
        "self": {
          "name": "JOSTARI SERVICIOS CULTURALES Y DEPORTIVOS, S.L.",
          "href": "https://api.euskadi.eus/procurements/companies/07915"
        }
      }
    },
    {
      "name": "W.M. BLOSS, S.A.",
      "registrationNumber": "00381",
      "identificationNumber": "A08451056",
      "address": "CONCILIO DE TRENTO, 37-39",
      "location": {
        "postalCode": "08018",
        "municipality": "Barcelona",
        "county": "Barcelona",
        "municipalityId": "019",
        "countyId": "08"
      },
      "economicActivities": [
        {
          "id": "1.619.2",
          "name": "Venta al por mayor de aparatos e instrumentos médicos, ortopédicos, ópticos",
          "_links": {
            "self": {
              "name": "Venta al por mayor de aparatos e instrumentos médicos, ortopédicos, ópticos",
              "href": "https://api.euskadi.eus/procurements/companies/economic-activities/1.619.2"
            }
          }
        }
      ],
      "certificateStartDate": "2025-08-25",
      "certificateEndDate": "2026-02-25",
      "object": "LA IMPORTACIÓN Y EXPORTACIÓN, VENTA Y DISTRIBUCIÓN DE APARATOS, ELEMENTOS Y EQUIPOS DESTINADOS A LA MEDICINA Y CIRUGÍA EN GENERAL, Y, EN ESPECIAL, A LA OFTALMOLOGÍA; ASÍ COMO LA REPRESENTACIÓN EN ESPAÑA Y PORTUGAL DE FIRMAS EXTRANJERAS, FABRICANTES DE TALES EQUIPOS, APARATOS Y ELEMENTOS",
      "mainEntityOfPage": "https://www.contratacion.euskadi.eus/webkpe00-kperoc/es/ac71aBusquedaRegistrosWar/empresa/00381",
      "_links": {
        "self": {
          "name": "W.M. BLOSS, S.A.",
          "href": "https://api.euskadi.eus/procurements/companies/00381"
        }
      }
    },
    {
      "name": "USTED ESTA AQUI, S.L.",
      "registrationNumber": "09546",
      "identificationNumber": "B72572993",
      "address": "C\\ MARIA VICTORIA URIBE LASO 4 BJ",
      "location": {
        "postalCode": "48012",
        "municipality": "Bilbao",
        "county": "Bizkaia",
        "municipalityId": "020",
        "countyId": "48"
      },
      "economicActivities": [
        {
          "id": "1.504.11",
          "name": "Instalaciones eléctricas en general, redes telegráficas, telefonía, tv, etc",
          "_links": {
            "self": {
              "name": "Instalaciones eléctricas en general, redes telegráficas, telefonía, tv, etc",
              "href": "https://api.euskadi.eus/procurements/companies/economic-activities/1.504.11"
            }
          }
        },
        {
          "id": "1.504.12",
          "name": "Instalaciones eléctricas en toda clase de edificios",
          "_links": {
            "self": {
              "name": "Instalaciones eléctricas en toda clase de edificios",
              "href": "https://api.euskadi.eus/procurements/companies/economic-activities/1.504.12"
            }
          }
        },
        {
          "id": "1.843.1",
          "name": "Servicios técnicos de ingeniería",
          "_links": {
            "self": {
              "name": "Servicios técnicos de ingeniería",
              "href": "https://api.euskadi.eus/procurements/companies/economic-activities/1.843.1"
            }
          }
        }
      ],
      "certificateStartDate": "2025-08-24",
      "certificateEndDate": "2026-02-24",
      "object": "EL DESARROLLO DE LAS ACTIVIDADES CORRESPONDIENTES A LOS SIGUIENTES CÓDIGOS Y DESCRIPCIONES DE CLASIFICACIÓN NACIONAL DE ACTIVIDADES ECONÓMICAS: ACTIVIDAD PRINCIPAL: 7112 / SERVICIOS TÉCNICOS DE INGENIERÍA Y OTRAS ACTIVIDADES RELACIONADAS CON EL ASESORAMIENTO TÉCNICO. OTRAS ACTIVIDADES: 4321 / INSTALACIONES ELÉCTRICAS. SI ALGUNA DE LAS ACTIVIDADES ELEGIDAS FUERE DE CARÁCTER PROFESIONAL, LA SOCIEDAD LA EJERCERÁ COMO MERA INTERMEDIADORA ENTRE EL PROFESIONAL PRESTADOR DEL SERVICIO Y EL CONSUMIDOR.",
      "mainEntityOfPage": "https://www.contratacion.euskadi.eus/webkpe00-kperoc/es/ac71aBusquedaRegistrosWar/empresa/09546",
      "_links": {
        "self": {
          "name": "USTED ESTA AQUI, S.L.",
          "href": "https://api.euskadi.eus/procurements/companies/09546"
        }
      }
    },
    {
      "name": "NOAL DECORACION Y EQUIPAMIENTO DE OFICINAS, S.L.",
      "registrationNumber": "08022",
      "identificationNumber": "B42880666",
      "address": "Oceano Atlantico 35, 4ºB",
      "location": {
        "postalCode": "01010",
        "municipality": "Vitoria-Gasteiz",
        "county": "Araba/Álava",
        "municipalityId": "059",
        "countyId": "01"
      },
      "economicActivities": [
        {
          "id": "1.659.2",
          "name": "Venta al por menor de muebles de oficina y máquinas y equipos de oficina",
          "_links": {
            "self": {
              "name": "Venta al por menor de muebles de oficina y máquinas y equipos de oficina",
              "href": "https://api.euskadi.eus/procurements/companies/economic-activities/1.659.2"
            }
          }
        }
      ],
      "certificateStartDate": "2025-08-24",
      "certificateEndDate": "2026-02-24",
      "object": "-LA COMPRAVENTA DE TERRENOS Y TODA CLASE DE INMUEBLES, ASÍ COMO SU EXPLOTACIÓN DIRECTA, O EN COMISIÓN, O ARRENDAMIENTO A TERCEROS A SU VENTA. LA REALIZACIÓN DE OBRAS CIVILES, PÚBLICAS Y PRIVADAS, BIEN POR EJECUCIÓN INDIRECTA O POR CONTRATA, TANTO PARA SU APROVECHAMIENTO PROPIO COMO PARA SU COMERCIALIZACIÓN Y VENTA. PODRÁ CONTRATAR LAS MISMAS CON TODA CLASE DE PERSONAS FÍSICAS, JURÍDICAS O ENTIDADES PÚBLICAS DE CARÁCTER ESTATAL, EUROPEA, PROVINCIAL MUNICIPAL O AUTONÓMICO. -DISEÑO, ELABORACIÓN, EJECUCIÓN Y CONSULTORÍA DE PROYECTOS PARA DISEÑO DE INTERIORES DE OFICINA, HOGAR Y OTROS ESPACIOS. -COMERCIO AL POR MENOR O MAYOR, POR CORRESPONDENCIA O INTERNET. -LA COMERCIALIZACIÓN, COMPRA, VENTA, TANTO AL POR MAYOR COMO AL POR MENOR, FABRICACIÓN, DISEÑO, RESTAURACIÓN, DISTRIBUCIÓN, INSTALACIÓN, IMPORTACIÓN, EXPORTACIÓN, SUMINISTRO, REPARACIÓN, ATENCIÓN POSVENTA, MONTAJE DE TODO TIPO DE MOBILIARIO, (DE OFICINA, EXTERIORES Y HOGAR) COMPLEMENTOS DE MOBILIARIO, ELEMENTOS DE COMPARTIMENTACIONES Y COLECTIVIDADES (ALFOMBRAS, APARATOS DE ILUMINACIÓN, MOQUETAS, REVESTIMIENTOS DE PAREDES, TECHOS Y SUELOS, MAQUINARIA, EQUIPOS DE OFICINA, ARTÍCULOS DE OFICINA, EXTERIORES Y HOGAR). -PARA INTERVENIR EN TODA CLASE DE CONCURSO, SUBASTAS Y LICITACIONES, REALIZANDO PROPOSICIONES Y PUJAS Y EJERCITANDO LOS DERECHOS DE TANTEO Y RETRACTO, CONCURSAR, ASÍ COMO ACUDIR A SUBASTAS Y LICITACIONES, RESPECTO A CUALQUIER PERSONA FÍSICA, JURÍDICA O PÚBLICA, INCLUSO DEL ESTADO, COMUNIDAD EUROPEA, COMUNIDADES AUTÓNOMAS, LA PROVINCIA Y EL MUNICIPIO, ASÍ COMO ORGANISMOS DEL ESTADO, DE LA COMUNIDAD EUROPEA Y DE LAS COMUNIDADES AUTÓNOMAS, ASÍ COMO EN TODO AQUELLO QUE DIRECTA O INDIRECTAMENTE, GUARDE RELACIÓN CON LO INDICADO. -COMPRAVENTA DE TODO TIPO DE ACTIVOS FINANCIEROS, ACCIONES O PARTICIPACIONES EN SOCIEDADES, ASÍ COMO LA GESTIÓN DE PATRIMONIOS. -LA ADQUISICIÓN, TENENCIA, ADMINISTRACIÓN, DISFRUTE Y ENAJENACIÓN DE VALORES MOBILIARIOS, CRÉDITOS Y DERECHOS, ACCIONES Y PARTICIPACIONES SOCIALES, BONOS Y OBLIGACIONES, SEAN DEL ESTADO, CORPORACIONES LOCALES, COTIZADAS EN BOLSA, POR CUENTA PROPIA O CON EXCEPCIÓN DE LA INTERMEDIACIÓN Y DEJANDO SIEMPRE FUERA LAS ACTIVIDADES OBJETO DE LA LEGISLACIÓN DE INSTITUCIONES DE INVERSIÓN COLECTIVO Y MERCADO DE VALORES. -LA ADQUISICIÓN, TENENCIA ADMINISTRACIÓN Y EXPLOTACIÓN EN FORMA DE ARRIENDO, SUBARRIENDO, TRASPASO O CESIÓN, DE TODA CLASE DE VIVIENDAS, LOCALES INDUSTRIALES Y DE NEGOCIOS, GARAJES , EN GENERAL, DE TODA CLASE DE INMUEBLES, TANTO URBANOS COMO RÚSTICOS, ASÍ COMO BIENES MUEBLES, MAQUINARIA Y VEHÍCULOS, INDUSTRIAS O NEGOCIOS, EMPRESAS O ESTABLECIMIENTOS MERCANTILES, Y DE TODA CLASE DE CESIÓN POR PRECIO DEL USO O DISFRUTE DE TODA CLASE DE CESIÓN POR PRECIO DEL USO O DISFRUTE DE TODA CLASE DE BIENES Y DERECHOS, INCLUSO DE PROPIEDAD INTELECTUAL. ",
      "mainEntityOfPage": "https://www.contratacion.euskadi.eus/webkpe00-kperoc/es/ac71aBusquedaRegistrosWar/empresa/08022",
      "_links": {
        "self": {
          "name": "NOAL DECORACION Y EQUIPAMIENTO DE OFICINAS, S.L.",
          "href": "https://api.euskadi.eus/procurements/companies/08022"
        }
      }
    }
  ]
}