{
  "totalItems": 9042,
  "totalPages": 905,
  "currentPage": 412,
  "itemsOfPage": 10,
  "items": [
    {
      "name": "IQUIMESA SERVICIOS SANITARIOS, S.L.",
      "registrationNumber": "03520",
      "identificationNumber": "B01118595",
      "address": "BEATO TOMAS DE ZUMARRAGA, 10",
      "location": {
        "postalCode": "01008",
        "municipality": "Vitoria-Gasteiz",
        "county": "Araba/Álava",
        "municipalityId": "059",
        "countyId": "01"
      },
      "economicActivities": [
        {
          "id": "1.861.2",
          "name": "Alquiler de locales industriales y otros alquileres n.c.o.p",
          "_links": {
            "self": {
              "name": "Alquiler de locales industriales y otros alquileres n.c.o.p",
              "href": "https://api.euskadi.eus/procurements/companies/economic-activities/1.861.2"
            }
          }
        },
        {
          "id": "1.941.1",
          "name": "Hospitales generales",
          "_links": {
            "self": {
              "name": "Hospitales generales",
              "href": "https://api.euskadi.eus/procurements/companies/economic-activities/1.941.1"
            }
          }
        },
        {
          "id": "1.942.1",
          "name": "Consultorios médicos, centros de socorro sanitarios y urgencias",
          "_links": {
            "self": {
              "name": "Consultorios médicos, centros de socorro sanitarios y urgencias",
              "href": "https://api.euskadi.eus/procurements/companies/economic-activities/1.942.1"
            }
          }
        }
      ],
      "certificateStartDate": "2024-07-10",
      "certificateEndDate": "2025-01-10",
      "object": "LA SOCIEDAD TIENE POR OBJETO: A) LA ADQUISICIÓN, ARRENDAMIENTO O EXPLOTACIÓN POR CUALQUIER OTRO TÍTULO, Y DISPOSICIÓN DE BIENES INMUEBLES. B) PRESTACIÓN DE ASISTENCIA SANITARIA CON MEDIOS DE DIAGNÓSTICO, ASISTENCIA AMBULATORIA Y URGENCIAS. LAS ACTIVIDADES INTEGRANTES DEL OBJETO SOCIAL PODRÁN SER DESARROLLADAS POR LA SOCIEDAD, TOTAL O PARCIALMENTE, DE MODO INDIRECTO, MEDIANTE SU PARTICIPACIÓN EN SOCIEDADES CON IDÉNTICO O ANÁLOGO OBJETO. LA SOCIEDAD NO DESARROLLARÁ NINGUNA ACTIVIDAD PARA CUYO EJERCICIO LA LEY EXIJA CONDICIONES O LIMITACIONES ESPECÍFICAS, EN TANTO NO DÉ EXACTO CUMPLIMIENTO A LAS MISMAS.",
      "mainEntityOfPage": "https://www.contratacion.euskadi.eus/webkpe00-kperoc/es/ac71aBusquedaRegistrosWar/empresa/03520",
      "_links": {
        "self": {
          "name": "IQUIMESA SERVICIOS SANITARIOS, S.L.",
          "href": "https://api.euskadi.eus/procurements/companies/03520"
        }
      }
    },
    {
      "name": "DLAV LAB, S.L.",
      "registrationNumber": "08881",
      "identificationNumber": "B71470413",
      "address": "Tvs. Pico de Ori 1, bajo A",
      "location": {
        "postalCode": "31006",
        "municipality": "Pamplona/Iruña",
        "county": "Navarra",
        "municipalityId": "201",
        "countyId": "31"
      },
      "economicActivities": [
        {
          "id": "1.501.1",
          "name": "Construcción completa, reparación y conservación de edificaciones",
          "_links": {
            "self": {
              "name": "Construcción completa, reparación y conservación de edificaciones",
              "href": "https://api.euskadi.eus/procurements/companies/economic-activities/1.501.1"
            }
          }
        },
        {
          "id": "1.843.9",
          "name": "Otros servicios técnicos n.c.o.p",
          "_links": {
            "self": {
              "name": "Otros servicios técnicos n.c.o.p",
              "href": "https://api.euskadi.eus/procurements/companies/economic-activities/1.843.9"
            }
          }
        }
      ],
      "certificateStartDate": "2024-07-10",
      "certificateEndDate": "2025-01-10",
      "object": "1.- LA REALIZACIÓN DE TODA CLASE DE TRABAJOS RELACIONADOS CON EL TERRITORIO, EL URBANISMO, EL PAISAJE, LOS ESTUDIOS URBANOS, LA EDIFICACIÓN, LA REPARACIÓN, LA CONSTRUCCIÓN, LAS REFORMAS, REHABILITACIÓN Y MANTENIMIENTO DE EDIFICIOS, VIVIENDAS, LOCALES COMERCIALES Y NAVES INDUSTRIALES Y AGRÍCOLAS, YA SEAN DE CARÁCTER PÚBLICO O PRIVADO. ESTAS ACTIVIDADES SE PODRÁN REALIZAR BIEN EN NOMBRE PROPIO O AJENO, COMO MEDIADOR O COORDINADOR EN LAS ACTIVIDADES DESCRITAS. LA ACTIVIDAD QUE CONSTITUYE EL OBJETO SOCIAL, RELACIONADA EN EL APARTADO ANTERIOR, TIENE ASIGNADA EL SIGUIENTE CÓDIGO DE CLASIFICACIÓN NACIONAL DE ACTIVIDADES ECONÓMICAS O CNAE: - 4399 (OTRAS ACTIVIDADES DE CONSTRUCCIÓN ESPECIALIZADA N.C.O.P.). ESTOS TRABAJOS SE REALIZARÁN TENIENDO COMO PUNTO DE REFERENCIA LA IGUALDAD, LA ECOLOGÍA, LA COOPERACIÓN, LA SENSIBILIZACIÓN, EL DISEÑO, LA ILUSTRACIÓN, LA INVESTIGACIÓN, LA FORMACIÓN, LA ACCIÓN SOCIAL Y LA INCIDENCIA POLÍTICA, EN FOMENTO DEL ESPÍRITU DE SOLIDARIDAD Y DE AYUDA MUTUA ENTRE LAS ASOCIADAS FAVORECIENDO UNA CONCIENCIA COOPERATIVA. 2.- FOMENTAR LA RESPONSABILIDAD SOCIAL DE LOS Y LAS PROFESIONALES DEL ÁMBITO DE LA EDIFICACIÓN Y EL URBANISMO, PROMOVIENDO PRÁCTICAS E INTERESES SOCIALES POR ENCIMA DE LA ESPECULACIÓN DEL MERCADO. 3.- PROMOVER LA ÉTICA EN LA PROFESIÓN IMPULSANDO ESPECIALMENTE LA COOPERACIÓN CON PROCESOS DE MERCADO ÉTICO, ECONOMÍA CIRCULAR, Y CON ENTIDADES QUE TRABAJEN POR LA IGUALDAD Y LA JUSTICIA SOCIAL. 4.- IDENTIFICAR, PROMOVER Y TRABAJAR JUNTO CON LAS INSTITUCIONES PÚBLICAS, ORGANIZACIONES MULTILATERALES Y SECTOR PRIVADO EN POLÍTICAS, PROGRAMAS, Y SISTEMAS SOCIOECONÓMICOS COMPROMETIDOS CON LA ERRADICACIÓN DE LAS DESIGUALDADES SOCIALES Y LA EXCLUSIÓN URBANA. 5.- FOMENTAR EL DESARROLLO DE UNA PLANIFICACIÓN URBANA Y DE ORDENACIÓN TERRITORIAL A ESCALA HUMANA Y DE CARÁCTER SOSTENIBLE. 6.- FACILITAR EL USO DE TECNOLOGÍAS APROPIADAS, MATERIALES, MANO DE OBRA ADECUADOS A LOS VALORES E IDENTIDADES CULTURALES DE CADA SITUACIÓN RESPETANDO EL MEDIO AMBIENTE. 7.- COMPARTIR CONOCIMIENTOS, PROMOVER EL DIÁLOGO, REFLEXIÓN, Y EL CODISEÑO, ASÍ COMO SENSIBILIZAR Y COLABORAR PARA EL DESARROLLO DE LA PRODUCCIÓN SOCIAL DEL HÁBITAT. 8.- REALIZAR Y APOYAR LA PRÁCTICA DE PROCESOS PARTICIPATIVOS, DEMOCRÁTICOS, SOCIALES, MULTICULTURALES, INTERDISCIPLINARES Y CON PERSPECTIVA DE GÉNERO, EN LA CONSTITUCIÓN DE COMUNIDADES COMO UNIDADES DE DESARROLLO. 9.- FOMENTAR LA INCORPORACIÓN DE LA PERSPECTIVA DE GÉNERO EN PROCESOS RELACIONADOS CON EL URBANISMO, LA VIVIENDA Y LAS ESTRATEGIAS AMBIENTALES QUE AFECTEN AL PAISAJE Y EL TERRITORIO.",
      "mainEntityOfPage": "https://www.contratacion.euskadi.eus/webkpe00-kperoc/es/ac71aBusquedaRegistrosWar/empresa/08881",
      "_links": {
        "self": {
          "name": "DLAV LAB, S.L.",
          "href": "https://api.euskadi.eus/procurements/companies/08881"
        }
      }
    },
    {
      "name": "GURE ABOKATUAK S.L.P.",
      "registrationNumber": "06035",
      "identificationNumber": "B01553387",
      "address": "pasaje de las antillas nº 2- 1º, despacho nº 2",
      "location": {
        "postalCode": "01012",
        "municipality": "Vitoria-Gasteiz",
        "county": "Araba/Álava",
        "municipalityId": "059",
        "countyId": "01"
      },
      "economicActivities": [
        {
          "id": "1.841",
          "name": "Servicios jurídicos",
          "_links": {
            "self": {
              "name": "Servicios jurídicos",
              "href": "https://api.euskadi.eus/procurements/companies/economic-activities/1.841"
            }
          }
        }
      ],
      "certificateStartDate": "2024-07-10",
      "certificateEndDate": "2025-01-10",
      "object": "LA PRESTACIÓN DE SERVICIOSO PROPIOS DEL EJERCICIO PROFESIONAL DE LA ABOGACÍA, ENTENDIÉNDOSE COMPRENDIDO DENTRO DEL MISMO ACTIVIDADES TALES COMO LA DIRECCIÓN Y DIFENSA DE PERSONAS FÍSICAS O JURÍDICAS, EMPRESAS, ADMINISTRACIONES PÚBLICAS, TERRITORIALES E INSTITUCIONALES, AYUNTAMIENTOS, ASOCIACIONES, FUNDACIONES, BANCOS, CAJAS DE AHORRO, ETC., EN TODA CLASE DE PROCEDIMIENTOS JUDICIALES Y EXTRAJUDICIALES",
      "mainEntityOfPage": "https://www.contratacion.euskadi.eus/webkpe00-kperoc/es/ac71aBusquedaRegistrosWar/empresa/06035",
      "_links": {
        "self": {
          "name": "GURE ABOKATUAK S.L.P.",
          "href": "https://api.euskadi.eus/procurements/companies/06035"
        }
      }
    },
    {
      "name": "BOOK LEGAL BILBAO, S.L",
      "registrationNumber": "06349",
      "identificationNumber": "B95803110",
      "address": "Plaza Circular Nº4 Planta 8",
      "location": {
        "postalCode": "48001",
        "municipality": "Bilbao",
        "county": "Bizkaia",
        "municipalityId": "020",
        "countyId": "48"
      },
      "economicActivities": [
        {
          "id": "1.841",
          "name": "Servicios jurídicos",
          "_links": {
            "self": {
              "name": "Servicios jurídicos",
              "href": "https://api.euskadi.eus/procurements/companies/economic-activities/1.841"
            }
          }
        }
      ],
      "certificateStartDate": "2024-07-10",
      "certificateEndDate": "2025-01-07",
      "object": "ORGANIZACIÓN DE MEDIOS PARA EL ASESORAMIENTO Y CONSULTORÍA EN MATERIA MERCANTIL, JURÍDICA, ADMINISTRATIVA, LABORAL, INMOBILIARIA Y DE SEGUROS",
      "mainEntityOfPage": "https://www.contratacion.euskadi.eus/webkpe00-kperoc/es/ac71aBusquedaRegistrosWar/empresa/06349",
      "_links": {
        "self": {
          "name": "BOOK LEGAL BILBAO, S.L",
          "href": "https://api.euskadi.eus/procurements/companies/06349"
        }
      }
    },
    {
      "name": "LIMPIEZAS BASAURI, S.L.",
      "registrationNumber": "04676",
      "identificationNumber": "B48451587",
      "address": "BEHENABARRE, NAVE 7",
      "location": {
        "postalCode": "48450",
        "municipality": "Etxebarri",
        "county": "Bizkaia",
        "municipalityId": "029",
        "countyId": "48"
      },
      "economicActivities": [
        {
          "id": "1.922",
          "name": "Servicios de limpieza",
          "_links": {
            "self": {
              "name": "Servicios de limpieza",
              "href": "https://api.euskadi.eus/procurements/companies/economic-activities/1.922"
            }
          }
        }
      ],
      "certificateStartDate": "2024-07-10",
      "certificateEndDate": "2025-01-07",
      "object": "LA LIMPIEZA INDUSTRIAL Y DE TODO TIPO DE LOCALES, EDIFICIOS, URBANIZACIONES Y SANEAMIENTOS; Y LA LIMPIEZA, DESINFECCIÓN Y DESINFECTACIÓN EN GENERAL",
      "mainEntityOfPage": "https://www.contratacion.euskadi.eus/webkpe00-kperoc/es/ac71aBusquedaRegistrosWar/empresa/04676",
      "_links": {
        "self": {
          "name": "LIMPIEZAS BASAURI, S.L.",
          "href": "https://api.euskadi.eus/procurements/companies/04676"
        }
      }
    },
    {
      "name": "CAMBIO ENERGETICO, S.L.",
      "registrationNumber": "06514",
      "identificationNumber": "B10481216",
      "address": "AVD. VIRGEN DE ARGEME, 37",
      "location": {
        "postalCode": "10800",
        "municipality": "Coria",
        "county": "Cáceres",
        "municipalityId": "067",
        "countyId": "10"
      },
      "economicActivities": [
        {
          "id": "1.504.1",
          "name": "Instalaciones eléctricas en general",
          "_links": {
            "self": {
              "name": "Instalaciones eléctricas en general",
              "href": "https://api.euskadi.eus/procurements/companies/economic-activities/1.504.1"
            }
          }
        },
        {
          "id": "1.617.9",
          "name": "Venta al por mayor interindustrial de otros productos n.c.o.p",
          "_links": {
            "self": {
              "name": "Venta al por mayor interindustrial de otros productos n.c.o.p",
              "href": "https://api.euskadi.eus/procurements/companies/economic-activities/1.617.9"
            }
          }
        }
      ],
      "certificateStartDate": "2024-07-09",
      "certificateEndDate": "2025-01-09",
      "object": "1-VENTA Y SUMINISTRO DE TODA CLASE DE PRODUCTOS RELACIONADOS CON LAS INSTALACIONES ELÉCTRICAS, LAS ENERGÍAS RENOVABLES Y LA EFICIENCIA ENERGÉTICA, CON DESTINO TANTO AL MERCADO ESPAÑOL COMO LA EXPORTACIÓN. 2-PRESTACIÓN DE SERVICIOS ENERGÉTICOS CON EL FIN DE OPTIMIZAR LA EFICIENCIA ENERGÉTICA DE LAS INSTALACIONES O LOCALES DE LOS USUARIOS. 3- EJECUCIÓN, OPERACIÓN Y MANTENIMIENTO DE INSTALACIONES DE PRODUCCIÓN ENERGÉTICA, TANTO ELÉCTRICAS COMO DE CALOR, MEDIANTE EL USO DE ENERGÍAS RENOVABLES. 4- PRESTACIÓN DE LOS SERVICIOS DE INGENIERIA TÉCNICA QUE SEAN NECESARIOS PARA EL DISEÑO Y ELABORACIÓN DE LAS MEMORIAS TÉCNICAS, PROYECTOS O INFORMES DE IMPACTO AMBIENTAL O DE OTRO TIPO, REQUERIDOS PARA LA LEGALIZACIÓN DE LAS INSTALACIONES EJECUTADAS POR LA PROPIA SOCIEDAD O QUE LA ENCARGUEN SUS CLIENTES",
      "mainEntityOfPage": "https://www.contratacion.euskadi.eus/webkpe00-kperoc/es/ac71aBusquedaRegistrosWar/empresa/06514",
      "_links": {
        "self": {
          "name": "CAMBIO ENERGETICO, S.L.",
          "href": "https://api.euskadi.eus/procurements/companies/06514"
        }
      }
    },
    {
      "name": "ASP ENERGIA SOLAR FOTOVOLTAICA 2021, S.L.",
      "registrationNumber": "09705",
      "identificationNumber": "B72874902",
      "address": "Calle Luis Junceda Fernandez, 4",
      "location": {
        "postalCode": "33710",
        "municipality": "Navia",
        "county": "Asturias",
        "municipalityId": "041",
        "countyId": "33"
      },
      "economicActivities": [
        {
          "id": "1.843.1",
          "name": "Servicios técnicos de ingeniería",
          "_links": {
            "self": {
              "name": "Servicios técnicos de ingeniería",
              "href": "https://api.euskadi.eus/procurements/companies/economic-activities/1.843.1"
            }
          }
        }
      ],
      "certificateStartDate": "2024-07-09",
      "certificateEndDate": "2025-01-09",
      "object": "SERVICIOS TÉCNICOS DE INGENIERÍA Y OTRAS ACTIVIDADES RELACIONADAS CON EL ASESORAMIENTO TÉCNICO. LAS INSTALACIONES ELÉCTRICAS. COMERCIO Y REPRESENTACIÓN DE LOS MATERIALES, CONSUMOS, REPUESTOS Y ACCESORIOS NECESARIOS PARA ELLAS.",
      "mainEntityOfPage": "https://www.contratacion.euskadi.eus/webkpe00-kperoc/es/ac71aBusquedaRegistrosWar/empresa/09705",
      "_links": {
        "self": {
          "name": "ASP ENERGIA SOLAR FOTOVOLTAICA 2021, S.L.",
          "href": "https://api.euskadi.eus/procurements/companies/09705"
        }
      }
    },
    {
      "name": "TRABAJOS VERTICALES FACTOR 2 S.L.",
      "registrationNumber": "05670",
      "identificationNumber": "B01313154",
      "address": "C/Pintor Obdulio López de Uralde 15",
      "location": {
        "postalCode": "01008",
        "municipality": "Vitoria-Gasteiz",
        "county": "Araba/Álava",
        "municipalityId": "059",
        "countyId": "01"
      },
      "economicActivities": [
        {
          "id": "1.505.1",
          "name": "Revestimientos exteriores e interiores de todas clases",
          "_links": {
            "self": {
              "name": "Revestimientos exteriores e interiores de todas clases",
              "href": "https://api.euskadi.eus/procurements/companies/economic-activities/1.505.1"
            }
          }
        },
        {
          "id": "1.653.1",
          "name": "Venta al por menor de muebles (excepto los de oficina)",
          "_links": {
            "self": {
              "name": "Venta al por menor de muebles (excepto los de oficina)",
              "href": "https://api.euskadi.eus/procurements/companies/economic-activities/1.653.1"
            }
          }
        }
      ],
      "certificateStartDate": "2024-07-08",
      "certificateEndDate": "2025-01-08",
      "object": "PROMOCIÓN, EDIFICACIÓN, REPARACIÓN, CONSTRUCCIÓN DE EDIFICIOS, OBRA CIVIL Y TRABAJOS DE CONSTRUCCIÓN EN GENERAL",
      "mainEntityOfPage": "https://www.contratacion.euskadi.eus/webkpe00-kperoc/es/ac71aBusquedaRegistrosWar/empresa/05670",
      "_links": {
        "self": {
          "name": "TRABAJOS VERTICALES FACTOR 2 S.L.",
          "href": "https://api.euskadi.eus/procurements/companies/05670"
        }
      }
    },
    {
      "name": "VETERUM ARQUEOLOGOS, S.L.",
      "registrationNumber": "08877",
      "identificationNumber": "B44600161",
      "address": "Avenida Molinillo 6",
      "location": {
        "postalCode": "40400",
        "municipality": "Espinar, El",
        "county": "Segovia",
        "municipalityId": "076",
        "countyId": "40"
      },
      "economicActivities": [
        {
          "id": "1.936",
          "name": "Investigación científica y técnica",
          "_links": {
            "self": {
              "name": "Investigación científica y técnica",
              "href": "https://api.euskadi.eus/procurements/companies/economic-activities/1.936"
            }
          }
        }
      ],
      "certificateStartDate": "2024-07-08",
      "certificateEndDate": "2025-01-08",
      "object": "EL DESARROLLO DE LAS ACTIVIDADES CORRESPONDIENTES A LOS SIGUIENTES CÓDIGOS Y DESCRIPCIONES DE CLASIFICACIÓN NACIONAL DE ACTIVIDADES ECONÓMICAS: ACTIVIDAD PRINCIPAL: 72.20 / INVESTIGACIÓN Y DESARROLLO EXPERIMENTAL EN CIENCIAS SOCIALES Y HUMANIDADES. OTRAS ACTIVIDADES: 91.03 / GESTIÓN DE LUGARES Y EDIFICIOS HISTÓRICOS, 74.90 / OTRAS ACTIVIDADES PROFESIONALES, CIENTÍFICAS Y TÉCNICAS, 91.02 / ACTIVIDADES DE MUSEOS, 85.52 / EDUCACIÓN CULTURAL, 91.04 / ACTIVIDADES DE LOS JARDINES BOTÁNICOS, PARQUES ZOOLÓGICOS Y RESERVAS NATURALES.",
      "mainEntityOfPage": "https://www.contratacion.euskadi.eus/webkpe00-kperoc/es/ac71aBusquedaRegistrosWar/empresa/08877",
      "_links": {
        "self": {
          "name": "VETERUM ARQUEOLOGOS, S.L.",
          "href": "https://api.euskadi.eus/procurements/companies/08877"
        }
      }
    },
    {
      "name": "ASESORAMIENTO EN PROCEDIMIENTO SANCIONADOR, S.L.",
      "registrationNumber": "03516",
      "identificationNumber": "B95463758",
      "address": "PLAZA JOSÉ RAMÓN AKETXE, 5 1º D",
      "location": {
        "postalCode": "48940",
        "municipality": "Leioa",
        "county": "Bizkaia",
        "municipalityId": "054",
        "countyId": "48"
      },
      "economicActivities": [
        {
          "id": "1.849.1",
          "name": "Cobros de deudas y confección de facturas",
          "_links": {
            "self": {
              "name": "Cobros de deudas y confección de facturas",
              "href": "https://api.euskadi.eus/procurements/companies/economic-activities/1.849.1"
            }
          }
        }
      ],
      "certificateStartDate": "2024-07-06",
      "certificateEndDate": "2025-01-06",
      "object": "EL ASESORAMIENTO, ASISTENCIA TÉCNICA, CONSULTORÍA Y COLABORACIÓN EN LA GESTIÓN Y TRAMITACIÓN DE LOS SIGUIENTES PROCEDIMIENTOS: SANCIONADOR DE LA INDISCIPLINA VIAL, DE LA SEGURIDAD Y EDUCACIÓN VIAL; DE GESTIÓN Y RECAUDATORIO DE LAS DEUDAS E INGRESOS DE DERECHO PÚBLICO DE CARÁCTER TRIBUTARIO O NO, EN SUS PERÍODOS VOLUNTARIO Y EJECUTIVO; INSPECTOR Y ADMINISTRATIVO EN GENERAL, DE LAS ADMINISTRACIONES PÚBLICAS EN TODOS SUS NIVELES MUNICIPAL, AUTONÓMICO Y ESTATAL, ASÍ COMO LA PRESTACIÓN DE LAS MISMA ASISTENCIA Y COLABORACIÓN EN LA GESTIÓN FINANCIERA, PATRIMONIAL, ORGANIZATIVA, DE VIGILANCIA, URBANÍSTICA Y DE PERSONAS, Y PARA LA COMERCIALIZACIÓN DE BIENES, EQUIPOS Y ACCESORIOS RELACIONADOS CON LA SEGURIDAD, EL CONTROL DEL TRÁFICO DE VEHÍCULOS Y CON LA DISCIPLINA VIAL",
      "mainEntityOfPage": "https://www.contratacion.euskadi.eus/webkpe00-kperoc/es/ac71aBusquedaRegistrosWar/empresa/03516",
      "_links": {
        "self": {
          "name": "ASESORAMIENTO EN PROCEDIMIENTO SANCIONADOR, S.L.",
          "href": "https://api.euskadi.eus/procurements/companies/03516"
        }
      }
    }
  ]
}