{
  "totalItems": 9042,
  "totalPages": 905,
  "currentPage": 746,
  "itemsOfPage": 10,
  "items": [
    {
      "name": "JANSOLO, S.L.",
      "registrationNumber": "03882",
      "identificationNumber": "B95151205",
      "address": "CAMPO VOLANTÍN, Nº 24-7º. DPTO. 1",
      "location": {
        "postalCode": "48007",
        "municipality": "Bilbao",
        "county": "Bizkaia",
        "municipalityId": "020",
        "countyId": "48"
      },
      "economicActivities": [
        {
          "id": "1.844",
          "name": "Servicios de publicidad, relaciones públicas y similares",
          "_links": {
            "self": {
              "name": "Servicios de publicidad, relaciones públicas y similares",
              "href": "https://api.euskadi.eus/procurements/companies/economic-activities/1.844"
            }
          }
        }
      ],
      "certificateStartDate": "2009-05-12",
      "certificateEndDate": "2009-09-06",
      "object": "LA PRESTACIÓN DE SERVICIOS GLOBALES DE COMUNICACIÓN Y PUBLICIDAD.",
      "mainEntityOfPage": "https://www.contratacion.euskadi.eus/webkpe00-kperoc/es/ac71aBusquedaRegistrosWar/empresa/03882",
      "_links": {
        "self": {
          "name": "JANSOLO, S.L.",
          "href": "https://api.euskadi.eus/procurements/companies/03882"
        }
      }
    },
    {
      "name": "PERFORACIONES JOCAL, S.L.",
      "registrationNumber": "03887",
      "identificationNumber": "B31116833",
      "address": "NUEVO POLIGONO EZCABARTE C/S 2, 4, 6",
      "location": {
        "postalCode": "31194",
        "municipality": "Ezcabarte",
        "county": "Navarra",
        "municipalityId": "101",
        "countyId": "31"
      },
      "economicActivities": [
        {
          "id": "1.501.1",
          "name": "Construcción completa, reparación y conservación de edificaciones",
          "_links": {
            "self": {
              "name": "Construcción completa, reparación y conservación de edificaciones",
              "href": "https://api.euskadi.eus/procurements/companies/economic-activities/1.501.1"
            }
          }
        },
        {
          "id": "1.501.2",
          "name": "Construcción completa, reparación y conservación obras civiles",
          "_links": {
            "self": {
              "name": "Construcción completa, reparación y conservación obras civiles",
              "href": "https://api.euskadi.eus/procurements/companies/economic-activities/1.501.2"
            }
          }
        },
        {
          "id": "1.502.6",
          "name": "Perforaciones para alumbramientos de aguas",
          "_links": {
            "self": {
              "name": "Perforaciones para alumbramientos de aguas",
              "href": "https://api.euskadi.eus/procurements/companies/economic-activities/1.502.6"
            }
          }
        }
      ],
      "certificateStartDate": "2009-05-05",
      "certificateEndDate": "2009-08-13",
      "object": "1. LA REALIZACIÓN, POR CUENTA PROPIA O AJENA, ESTUDIO Y PROMOCIÓN DE TODA CLASE DE OBRAS DE CONSTRUCCIÓN, REPARACIÓN, MEJORA Y CONSERVACIÓN , TANTO PÚBLICAS COMO PRIVADAS, INCLUYENDO TODA CLASE DE CONSTRUCCIONES INDUSTRIALES, OBRAS CIVILES, URBANIZACIONES Y CARRETERAS. 2. EL ESTUDIO DE TERRENOS Y REALIZACIÓN DE SONDEOS, CIMENTACIONES, INYECCIONES, PILOTAJES Y SONDEOS PARA CAPTACIONES DE AGUAS SUBTERRÁNEAS. 3. EL ESTUDIO, PROMOCIÓN Y REALIZACIÓN DE PLANES DE REPARCELACIÓN Y POLÍGONOS INDUSTRIALES. LA CONSTRUCCIÓN COMPLETA Y REPARACIÓN DE TODA CLASE DE INMUEBLES, LA VENTA DE EDIFICIOS COMPLETOS Y VIVIENDAS Y LOCALES Y LA REALIZACIÓN DE TODA CLASE DE ACTIVIDADES INMOBILIARIAS. 4. EL TRANSPORTE, EN SERVICIO PÚBLICO DISCRECIONAL, POR CARRETERA, DE TODA CLASE DE MERCANCÍAS, PRODUCTOSO Y MATERIAS. 5. LA REALIZACIÓN DE TRABAJOS DE INSTALACIONES Y OBRAS ELÉCTRICAS DE TODO TIPO, ASÍ COMO DE REDES TELEFÓNICAS, TELEFONÍA SIN HILOS Y TELEVISIÓN, DE FONTANERÍA DE FRÍO, CALOR Y ACONDICIONAMIENTO DE AIRE, ASÍ COMO MONTAJES METÁLICOS Y DE INSTALACIONES INDUSTRIALES COMPLETAS. 6. LAS ACTIVIDADES DE EXPLOTACIÓN AGRARIA. 7. LAS ACTIVIDADES DE ALQUILER NO FINANCIERO, DE MAQUINARIA INDUSTRIAL PARA LA CONSTRUCCIÓN",
      "mainEntityOfPage": "https://www.contratacion.euskadi.eus/webkpe00-kperoc/es/ac71aBusquedaRegistrosWar/empresa/03887",
      "_links": {
        "self": {
          "name": "PERFORACIONES JOCAL, S.L.",
          "href": "https://api.euskadi.eus/procurements/companies/03887"
        }
      }
    },
    {
      "name": "ESTARTETXE 2003 PROMOCIONES SL",
      "registrationNumber": "03886",
      "identificationNumber": "B95272563",
      "address": "C/ ESTARTETXE, 5 - DP 320",
      "location": {
        "postalCode": "48940",
        "municipality": "Leioa",
        "county": "Bizkaia",
        "municipalityId": "054",
        "countyId": "48"
      },
      "economicActivities": [
        {
          "id": "1.501.1",
          "name": "Construcción completa, reparación y conservación de edificaciones",
          "_links": {
            "self": {
              "name": "Construcción completa, reparación y conservación de edificaciones",
              "href": "https://api.euskadi.eus/procurements/companies/economic-activities/1.501.1"
            }
          }
        },
        {
          "id": "1.833.2",
          "name": "Promoción de edificaciones",
          "_links": {
            "self": {
              "name": "Promoción de edificaciones",
              "href": "https://api.euskadi.eus/procurements/companies/economic-activities/1.833.2"
            }
          }
        }
      ],
      "certificateStartDate": "2009-05-04",
      "certificateEndDate": "2009-08-10",
      "object": "A) LA PROMOCION Y EJECUCION, COMPLETA O POR RAMOS, DE TODA CLASE DE OBRAS DE CONSTRUCCION, URBANIZACION Y SERVICIOS, REPARACION Y CONSERVACION, POR CUENTA PROPIA O AJENA, DE VIVIENDAS Y LOCALES COMERCIALES O INDUSTRIALES, E INCLUSO DE VIVIENDAS DE PROTECCION OFICIAL. B) LA COMPRAVENTA Y ALQUILER DE EDIFICACIONES EN SU TOTALIDAD, POR PARTES O POR PISOS, BIEN DE VIVIENDAS, LOCALES INDUSTRIALES, DE OFICINAS, APARCAMIENTOS, GARAGES, CONSTRUÍDAS O NO PARA TAL FIN; PROCEDER A LA CONSTRUCCIÓN DE EDIFICACIONES EN GENERAL, BIEN DIRECTAMENTE O POR MEDIO DE SUBCONTRATISTAS O DESTAJISTAS; C) LA ADQUISICIÓN Y ENAJENACIÓN, POR CUALQUIER TÍTULO, DE FINCAS URBANAS Y RÚSTICAS, YA SEAN TIERRAS, SOLARES Y EDIFICIOS, Y LA INTERMEDIACIÓN, ADMINISTRACIÓN, TENENCIA, EXPLOTACIÓN Y ARRENDAMIENTO, YA SEA ACTIVO O PASIVO DE TALES BIENES, Y SU VENTA TOTAL O PARCIAL, Y PROCEDER A SU APROVECHAMIENTO URBANO, INDUSTRIAL O CUALQUIER OTRO; D) LA URBANIZACIÓN Y PARCELACIÓN DE TERRENOS, CONFORME A LOS PLANES DE ORDENACIÓN URBANÍSTICA, APROBADOS POR LAS AUTORIDADES COMPETENTES, EN LOS POLÍGONOS Y ZONAS DE ACTUACIÓN QUE, AL EFECTO SEAN DESIGNADOS Y LA REPARCELACIÓN DE DICHOS TERRENOS URGBANÍSTICOS Y, EN SU CASO, LA EDIFICACIÓN Y VENTA DE LOS MISMOS O DE LAS EDIFICACIONES Y OBRAS DE URBANIZACIÓN Y SERVICIOS, ACUYO EFECTO PODRÁ FORMAR PARTE DE ASOCIACIONES DE PROPIETARIOS, EMPRESAS MIXTAS Y ENTIDADES URBANÍSTICAS COLABORADORAS QUE PUEDAN REGLAMENTARSE A LOS EXPRESADOS FINES",
      "mainEntityOfPage": "https://www.contratacion.euskadi.eus/webkpe00-kperoc/es/ac71aBusquedaRegistrosWar/empresa/03886",
      "_links": {
        "self": {
          "name": "ESTARTETXE 2003 PROMOCIONES SL",
          "href": "https://api.euskadi.eus/procurements/companies/03886"
        }
      }
    },
    {
      "name": "BRISTOL-MYERS SQUIBB, S.A.",
      "registrationNumber": "03426",
      "identificationNumber": "A28042463",
      "address": "C/ ALMANSA, 101",
      "location": {
        "postalCode": "28040",
        "municipality": "Madrid",
        "county": "Madrid",
        "municipalityId": "079",
        "countyId": "28"
      },
      "economicActivities": [
        {
          "id": "1.614.1",
          "name": "Venta al por mayor de productos farmacéuticos y medicamentos",
          "_links": {
            "self": {
              "name": "Venta al por mayor de productos farmacéuticos y medicamentos",
              "href": "https://api.euskadi.eus/procurements/companies/economic-activities/1.614.1"
            }
          }
        }
      ],
      "certificateStartDate": "2009-04-23",
      "certificateEndDate": "2009-10-14",
      "object": "LA FABRICACIÓN, CIRCULACIÓN, DISTRIBUCIÓN, EXPORTACIÓN Y ALMACENAMIENTO DE MEDICAMENTOS, PRODUCTOS NUTRICIONALES Y PRODUCTOS DE HIGIENE Y COSMÉTICOS, ASÍ COMO LA PRESTACIÓN DE SERVICIOS ADMINISTRATIVOS, COMERCIALES Y DE GESTIÓN A OTRAS ENTIDADES DE SU MISMO GIRO O TRÁFICO SOCIAL",
      "mainEntityOfPage": "https://www.contratacion.euskadi.eus/webkpe00-kperoc/es/ac71aBusquedaRegistrosWar/empresa/03426",
      "_links": {
        "self": {
          "name": "BRISTOL-MYERS SQUIBB, S.A.",
          "href": "https://api.euskadi.eus/procurements/companies/03426"
        }
      }
    },
    {
      "name": "KONDIA M.E. TALDEA, S.L.U",
      "registrationNumber": "03863",
      "identificationNumber": "B20049615",
      "address": "C/ SAN ANTOLIN, 1",
      "location": {
        "postalCode": "20870",
        "municipality": "Elgoibar",
        "county": "Gipuzkoa",
        "municipalityId": "032",
        "countyId": "20"
      },
      "economicActivities": [
        {
          "id": "1.322.1",
          "name": "Construcción de máquinas para trabajar los metales",
          "_links": {
            "self": {
              "name": "Construcción de máquinas para trabajar los metales",
              "href": "https://api.euskadi.eus/procurements/companies/economic-activities/1.322.1"
            }
          }
        }
      ],
      "certificateStartDate": "2009-04-21",
      "certificateEndDate": "2009-08-02",
      "object": "LA FABRICACIÓN, REPARACIÓN, TRANSFORMACIÓN, COMERCIALIZACIÓN, VENTA, IMPORTACIÓN Y EXPORTACIÓN DE MAQUINARIA INDUSTRIAL Y MÁQUINA-HERRAMIENTA, SUS ACCESORIOS Y REPUESTOS, HERRAMIENTA DE INDUSTRIA Y MINERÍA, ARTÍCULOS DE FERRETERÍA, HERRERÍA, FUMISTERÍA, CONSTRUCCIONES METÁLICAS, PIECERÍA DE TODAS CLASES, CALDERERÍA, UTENSILIOS DOMÉSTICOS, MUEBLES, OBJETOS METÁLICOS DE TODAS CLASES, TRABAJO MECÁNICO DEL HIERRO Y OTROS METALES, ASÍ COMO CUALQUIER OTRA ACTIVIDAD DE LÍCITO COMERCIO DIRECTAMENTE RELACIONADA CON LAS ANTERIORES",
      "mainEntityOfPage": "https://www.contratacion.euskadi.eus/webkpe00-kperoc/es/ac71aBusquedaRegistrosWar/empresa/03863",
      "_links": {
        "self": {
          "name": "KONDIA M.E. TALDEA, S.L.U",
          "href": "https://api.euskadi.eus/procurements/companies/03863"
        }
      }
    },
    {
      "name": "INSTALACIONES ELECTRICAS ARGIA, S.L.",
      "registrationNumber": "03865",
      "identificationNumber": "B95110052",
      "address": "PG/ INDUSTRIAL ARTUNDUAGA, CL 7. PAB. 23",
      "location": {
        "postalCode": "48970",
        "municipality": "Basauri",
        "county": "Bizkaia",
        "municipalityId": "015",
        "countyId": "48"
      },
      "economicActivities": [
        {
          "id": "1.504.1",
          "name": "Instalaciones eléctricas en general",
          "_links": {
            "self": {
              "name": "Instalaciones eléctricas en general",
              "href": "https://api.euskadi.eus/procurements/companies/economic-activities/1.504.1"
            }
          }
        }
      ],
      "certificateStartDate": "2009-04-21",
      "certificateEndDate": "2009-08-20",
      "object": "A). LAS INSTALACIONES ELÉCTRICAS. B). LAS INSTALACIONES DE REDES TELEGRÁFICAS, TELEFÓNICAS, TELEFONÍA SIN HILOS Y TELEVISIÓN. C). LA VENTA DE MATERIAL ELÉCTICO. D). EL COMERCIO DE MATERIAL Y APARATOS ELÉCTRICOS, ELECTRÓNICOS, ELECTRODOMÉSTICOS Y OTROS APARATOS DE USO DOMÉSTICO, ACCIONADOS CON OTRO TIPO DE ENERGÍA DISTINTA DE LA ELÉCTRICA. E). LA INSTALACIÓN Y REPARACIÓN DE APARATOS ELÉCTRICOS, ELECTRÓNICOS, ELECTRODOMÉSTICOS Y OTROS APARATOS DE USO DOMÉSTICO, ACCIONADOS CON OTRO TIPO DE ENERGÍA DISTINTA DE LA ELÉCTRICA. F) . INSTALACIONES DOMÓTICAS Y DE ACUMULADORES ELÉCTRICOS",
      "mainEntityOfPage": "https://www.contratacion.euskadi.eus/webkpe00-kperoc/es/ac71aBusquedaRegistrosWar/empresa/03865",
      "_links": {
        "self": {
          "name": "INSTALACIONES ELECTRICAS ARGIA, S.L.",
          "href": "https://api.euskadi.eus/procurements/companies/03865"
        }
      }
    },
    {
      "name": "ANIMAX ESTUDIO, S.L.",
      "registrationNumber": "03866",
      "identificationNumber": "B20849782",
      "address": "PORTUETXE 45A-PLANTA 4º. OFICINA 3",
      "location": {
        "postalCode": "20018",
        "municipality": "Donostia / San Sebastián",
        "county": "Gipuzkoa",
        "municipalityId": "069",
        "countyId": "20"
      },
      "economicActivities": [
        {
          "id": "1.845",
          "name": "Explotación electrónica por cuenta de terceros",
          "_links": {
            "self": {
              "name": "Explotación electrónica por cuenta de terceros",
              "href": "https://api.euskadi.eus/procurements/companies/economic-activities/1.845"
            }
          }
        }
      ],
      "certificateStartDate": "2009-04-21",
      "certificateEndDate": "2009-09-30",
      "object": "EL DISEÑO Y PRESENTACIÓN DE PROYECTOS, ASÍ COMO LA PUBLICIDAD Y EL COMERCIO AL POR MENOR DE MÁQUINAS Y EQUIPOS DE OFICINA",
      "mainEntityOfPage": "https://www.contratacion.euskadi.eus/webkpe00-kperoc/es/ac71aBusquedaRegistrosWar/empresa/03866",
      "_links": {
        "self": {
          "name": "ANIMAX ESTUDIO, S.L.",
          "href": "https://api.euskadi.eus/procurements/companies/03866"
        }
      }
    },
    {
      "name": "IBAIA ENERGÍA, S.L.",
      "registrationNumber": "03574",
      "identificationNumber": "B20943668",
      "address": "J.M. ITURRIOZ, Nº 26",
      "location": {
        "postalCode": "20200",
        "municipality": "Beasain",
        "county": "Gipuzkoa",
        "municipalityId": "019",
        "countyId": "20"
      },
      "economicActivities": [
        {
          "id": "1.151.1",
          "name": "Producción de energía hidroeléctrica",
          "_links": {
            "self": {
              "name": "Producción de energía hidroeléctrica",
              "href": "https://api.euskadi.eus/procurements/companies/economic-activities/1.151.1"
            }
          }
        },
        {
          "id": "1.151.4",
          "name": "Producción de energía no especificada en otros epígrafes",
          "_links": {
            "self": {
              "name": "Producción de energía no especificada en otros epígrafes",
              "href": "https://api.euskadi.eus/procurements/companies/economic-activities/1.151.4"
            }
          }
        },
        {
          "id": "1.843.1",
          "name": "Servicios técnicos de ingeniería",
          "_links": {
            "self": {
              "name": "Servicios técnicos de ingeniería",
              "href": "https://api.euskadi.eus/procurements/companies/economic-activities/1.843.1"
            }
          }
        }
      ],
      "certificateStartDate": "2009-04-20",
      "certificateEndDate": "2009-10-15",
      "object": "LA GENERAICÓN Y POSTERIOR VENTA DE ENERGÍA ELÉCTRICA Y DESARROLLOS EN INGENIERÍA, CONSTRUCCIÓN Y MANTENIMIENTO DE NUEVAS FUENTES DE ENERGÍAS RENOVABLES",
      "mainEntityOfPage": "https://www.contratacion.euskadi.eus/webkpe00-kperoc/es/ac71aBusquedaRegistrosWar/empresa/03574",
      "_links": {
        "self": {
          "name": "IBAIA ENERGÍA, S.L.",
          "href": "https://api.euskadi.eus/procurements/companies/03574"
        }
      }
    },
    {
      "name": "EDEX, S. COOP.",
      "registrationNumber": "00229",
      "identificationNumber": "F48161103",
      "address": "C/ PARTICULAR DE INDAUTXU, Nº 2 - 1º IZDA.",
      "location": {
        "postalCode": "48011",
        "municipality": "Bilbao",
        "county": "Bizkaia",
        "municipalityId": "020",
        "countyId": "48"
      },
      "economicActivities": [
        {
          "id": "1.942.9",
          "name": "Otros servicios sanitarios sin internados, no clasificados",
          "_links": {
            "self": {
              "name": "Otros servicios sanitarios sin internados, no clasificados",
              "href": "https://api.euskadi.eus/procurements/companies/economic-activities/1.942.9"
            }
          }
        },
        {
          "id": "1.961.1",
          "name": "Producción de películas cinematográficas (incluso vídeos)",
          "_links": {
            "self": {
              "name": "Producción de películas cinematográficas (incluso vídeos)",
              "href": "https://api.euskadi.eus/procurements/companies/economic-activities/1.961.1"
            }
          }
        },
        {
          "id": "1.999",
          "name": "Otros servicios n.c.o.p",
          "_links": {
            "self": {
              "name": "Otros servicios n.c.o.p",
              "href": "https://api.euskadi.eus/procurements/companies/economic-activities/1.999"
            }
          }
        }
      ],
      "certificateStartDate": "2009-04-15",
      "certificateEndDate": "2009-09-10",
      "object": "a) EJERCER COMO CONSULTORA, PRESTADORA DE SERVICIOS Y GESTORA DE TODO TIPO DE PROGRAMAS E INICIATIVAS EN LOS CAMPOS LIGADOS DE CONTENIDO SOCIAL, CULTURAL, EDUCATIVO, RECREATIVO, TURÍSTICO, FESTIVO, DE CONSUMO, DE OCIO, SANITARIO, ARTÍSTICO, MEDIO AMBIENTAL, DE INTERVENCIÓN Y DESARROLLO COMUNITARIOS, DE COOPERACIÓN INTERTERRITORIAL O INTERNACIONAL PARA EL DESARROLLO, DE INSERCIÓN LABORAL, DE FORMACIÓN PARA EL EMPLEO, DE PROMOCIÓN, ASESORAMIENTO E INFORMACIÓN Y ATENCIÓN A LA INFANCIA, LA JUVENTUD, LA MUJER Y LA TERCERA EDAD, DE ATENCIÓN, TRATAMIENTO, REINSERCIÓN Y PREVENCIÓN DE DROGODEPENDENCIAS, DE DESARROLLO SOCIAL Y PLANIFICACIÓN DEMOGRÁFICO Y URBANA, Y, EN GENERAL, TODAS AQUELLAS ÁREAS QUE, LIGADAS A LAS CIENCIAS HUMANAS, CONTRIBUYEN A ENRIQUECER LA DIMENSIÓN SOCIAL Y CULTURAL DE LOS INDIVIDUOS Y LA COMUNIDAD EN SU MÁS AMPLIA CONSIDERACIÓN. b) REALIZAR INVESTIGACIÓN, ANÁLISIS PROSPECTIVOS, ESTUDIOS DE CAMPO, TRABAJOS ESTADÍSTICOS ASÍ COMO ESTRATEGIAS Y PLANES DE ASESORAMIENTO, DIFUSIÓN, DIVULGACIÓN Y COMUNICACIÓN EN CUALQUIERA DE LAS ÁREAS RELACIONADAS EN EL PUNTO a). c) PLANIFICAR, ORGANIZAR O EVALUAR TODO TIPO DE EVENTOS E INICIATIVAS RELACIONADAS CON LOS MISMOS ÁMBITOS, TALES COMO CONGRESOS, CERTAMENES, EXPOSICIONES, EDICIONES, PUBLICACIONES, CURSOS, SEMINARIOS, FERIAS, ENCUENTROS, BECAS, CONCURSOS, ACCIONES FORMATIVAS, JORNADAS FESTIVAS Y LAS DE SU SIMILAR NATURALEZA. d) CREAR, COMPILAR, EDITAR Y DISTRIBUIR PROGRAMAS, MATERIALES, RECURSOS DE APOYO Y, EN GENERAL, TODO TIPO DE DOCUMENTOS Y MATERIAL GRÁFICO, RELACIONADO CON LAS MATERIAS ESPECIFICADAS EN EL PUNTO a), REALIZADAS SOBRE CUALQUIER SOPORTE AUDIOVISUAL, IMPRESO, INFORMÁTICO, O CUALQUIER OTRO SISTEMA DE EDIFICIÓN O REPRODUCCIÓN. e) EJERCER LA GESTIÓN PARCIAL O INTEGRAL DE PROGRAMAS, SERVICIOS, EQUIPAMIENTOS E INSTALACIONES EN LOS ÁMBITOS SEÑALADOS EN EL PUNTO a), DESARROLLANDO LAS TAREAS DE GERENCIA, DIRECCIÓN, ANIMACIÓN, ASESORAMIENTO TÉCNICO, ADMINISTRACIÓN, CONSERJERÍA, ATENCIÓN AL PÚBLICO, VIGILANCIA, LIMPIEZA Y MANTENIMIENTO. f) DESARROLLAR INICIATIVAS DE COLABORACIÓN CON LOS ORGANISMOS DE LAS NACIONES UNIDAS, LA ADMINISTRACIÓN DE LA COMUNIDAD EUROPEA, ESTATAL, AUTONÓMICA, PROVINCIAL O MUNICIPAL ENCARGADAS DE LA ACCIÓN SOCIAL Y CULTURAL; DEL DESARROLLO COMUNITARIO; DEL MEDIO AMBIENTE Y LA ECOLOGÍA; DE LA INVESTIGACIÓN; LA CULTURAL Y LAS ARTES; DE INSTITUCIONES DE EDUCACIÓN Y RENOVACIÓN PEDAGÓGICA; DE LA SANIDAD; DE LA COOPERACIÓN PARA EL DESARROLLO; DE LA EDUCACIÓN PARA LA SALUD Y LA PREVENCIÓN, EL TRATAMIENTO Y LA REINSERCIÓN DE LAS DROGODEPENDENCIAS; DE LA PROMOCIÓN DE LA INFANCIA, LA JUVENTUD, LA MUJER O LA TERCERA EDAD; DEL ÁMBITO LABORAL Y DE FORMACIÓN; DE ATENCIÓN E INSERCIÓN DE INDIVIDUOS Y COLECTIVOS EN SITUACIÓN DE ¿DESVENTAJA SOCIAL¿. g) ADQUIRIR POR CUALQUIER TÍTULO FINCAS RÚSTICAS Y URBANAS, CONSTRUIR ESTAS, ASÍ COMO LA TENENCIA, EXPLOTACIÓN Y ARRENDAMIENTO DE TALES BIENES O SU VENTA TOTAL O PARCIAL. h) CONCURRIR SOLA O CON CUALESQUIERA OTRAS PERSONAS FÍSICAS O JURÍDICAS A LA CONSTITUCIÓN DE CUALQUIER GÉNERO DE SOCIEDADES, FEDERACIÓN, ACUERDO, ASOCIACIÓN O UNIÓN, INCLUÍDAS LAS DE CARÁCTER MERCANTIL, ASÍ COMO PARTICIPAR EN OTRAS YA CONSTITUÍDAS O DE NUEVA CONSTITUCIÓN, OSTENTANDO EN ELLAS CARGOS DE ADMINISTRACIÓN, DIRECCIÓN O CONTROL, MEDIANTE LA OPORTUNA DELEGACIÓN EN PERSONA FÍSICA. i) ADQUIRIR Y POSEER, POR CUALQUIER TÍTULO VÁLIDO LEGALMENTE, BIENES Y DERECHOS DE TODO TIPO Y NATURALEZA RELACIONADOS CON LA GESTIÓN ORDINARIA DE LA COOPERATIVA O CON LOS ÁMBITOS DE SU INTERVENCIÓN SEÑALADOS EN LOS PUNTOS PRECEDENTES",
      "mainEntityOfPage": "https://www.contratacion.euskadi.eus/webkpe00-kperoc/es/ac71aBusquedaRegistrosWar/empresa/00229",
      "_links": {
        "self": {
          "name": "EDEX, S. COOP.",
          "href": "https://api.euskadi.eus/procurements/companies/00229"
        }
      }
    },
    {
      "name": "IBÉRICA DE ESTUDIOS E INGENIERÍA, S.A. (IBERINSA)",
      "registrationNumber": "00309",
      "identificationNumber": "A28091338",
      "address": "ANABEL SEGURA, 11 - EDIF. D",
      "location": {
        "postalCode": "28108",
        "municipality": "Alcobendas",
        "county": "Madrid",
        "municipalityId": "006",
        "countyId": "28"
      },
      "economicActivities": [
        {
          "id": "1.843.1",
          "name": "Servicios técnicos de ingeniería",
          "_links": {
            "self": {
              "name": "Servicios técnicos de ingeniería",
              "href": "https://api.euskadi.eus/procurements/companies/economic-activities/1.843.1"
            }
          }
        }
      ],
      "certificateStartDate": "2009-04-15",
      "certificateEndDate": "2009-10-01",
      "object": "LA REALIZACIÓN, DE ESTUDIOS Y PROYECTOS DE INGENIERÍA Y CONSTRUCCIÓN, EN GENERAL, ASÍ COMO LA PRESTACIÓN DE SERVICIOS DE ASESORAMIENTO Y ASISTENCIA EN LA EJECUCIÓN, GESTIÓN, ADMINISTRACIÓN Y EXPLOTACIÓN DE TODO TIPO DE OBRAS Y CONCESIONES. LA PRESTACIÓN DE LOS SERVICIOS DE ASESORAMIENTO, CONTROL E INSPECCIÓN PROPIOS DE LOS LABORATORIOS PARA CONTROL DE CALIDAD DE LA EDIFICACIÓN Y, EN GENERAL, DE TODA CLASE DE OBRAS Y CONSTRUCCIONES. LA FABRICACIÓN, COMERCIALIZACIÓN, INSTALACIÓN, MANTENIMIENTO Y EXPLOTACIÓN EN CUALQUIER FORMA, DE SISTEMAS DE PROTECCIÓN, DETECCIÓN Y ALARMAS CONTRA INCENDIOS, ROBOS, ATRACOS Y, EN GENERAL, DE SISTEMAS RELACIONADOS DIRECTA O INDIRECTAMENTE CON LA PROTECCIÓN DE PROPIEDADES O VIDAS HUMANAS. LA PRESTACIÓN DE SERVICIOS DE ASESORAMIENTO, PROYECCIÓN, PLANIFICACIÓN, INSTALACIÓN, MANTENIMIENTO Y REPARACIÓN DE SISTEMAS DE SEGURIDAD EN GENERAL, ASÍ COMO DE TODO TIPO DE INSTALACIONES, PLANTAS Y EQUIPOS INDUSTRIALES. LA PRESTACIÓN DE SERVICIOS DE ASESORAMIENTO ECONÓMICO, FINANCIERO Y CONTABLE, Y DE ADMINISTRACIÓN Y GESTIÓN DE PATRIMONIOS, SALVO CUANDO PARA ELLO SE EXIJAN REQUISITOS ESPECIALES LEGALES O REGLAMENTARIOS. LA PROMOCIÓN INMOBILIARIA Y LA EXPLOTACIÓN, POR CUALQUIER TITULO, DE BIENES INMUEBLES DE NATURALEZA RÚSTICA, INDUSTRIAL O URBANA. LA ADQUISICIÓN, ADMINISTRACIÓN, TENENCIA, ENAJENACIÓN Y, EN GENERAL, LA REALIZACIÓN DE TODA CLASE DE OPERACIONES CON VALORES MOBILIARIOS, POR CUENTA PROPIA O DE TERCEROS, SIN LIMITACIÓN ALGUNA SALVO CUANDO SE EXIJAN REQUISITOS ESPECIALES LEGALES O REGLAMENTARIOS",
      "mainEntityOfPage": "https://www.contratacion.euskadi.eus/webkpe00-kperoc/es/ac71aBusquedaRegistrosWar/empresa/00309",
      "_links": {
        "self": {
          "name": "IBÉRICA DE ESTUDIOS E INGENIERÍA, S.A. (IBERINSA)",
          "href": "https://api.euskadi.eus/procurements/companies/00309"
        }
      }
    }
  ]
}