{
  "totalItems": 9042,
  "totalPages": 905,
  "currentPage": 771,
  "itemsOfPage": 10,
  "items": [
    {
      "name": "GAMBRO, S.A.",
      "registrationNumber": "00969",
      "identificationNumber": "A28687085",
      "address": "AVENIDA DE LA INDUSTRIA, 16",
      "location": {
        "postalCode": "28000",
        "municipality": "Coslada",
        "county": "Madrid",
        "municipalityId": "049",
        "countyId": "28"
      },
      "economicActivities": [
        {
          "id": "1.619.2",
          "name": "Venta al por mayor de aparatos e instrumentos médicos, ortopédicos, ópticos",
          "_links": {
            "self": {
              "name": "Venta al por mayor de aparatos e instrumentos médicos, ortopédicos, ópticos",
              "href": "https://api.euskadi.eus/procurements/companies/economic-activities/1.619.2"
            }
          }
        },
        {
          "id": "1.699",
          "name": "Otras reparaciones n.c.o.p",
          "_links": {
            "self": {
              "name": "Otras reparaciones n.c.o.p",
              "href": "https://api.euskadi.eus/procurements/companies/economic-activities/1.699"
            }
          }
        }
      ],
      "certificateStartDate": "2007-06-28",
      "certificateEndDate": "2007-11-02",
      "object": "LA IMPORTACIÓN, COMERCIALIZACIÓN Y VENTA DE DIALIZADORES O CUALQUIER OTRO MATERIAL MÉDICO-QUIRÚRGICO, ASÍ COMO LA PRESTACIÓN DE ASISTENCIA TÉCNICA RELACIONADA CON LOS MISMOS",
      "mainEntityOfPage": "https://www.contratacion.euskadi.eus/webkpe00-kperoc/es/ac71aBusquedaRegistrosWar/empresa/00969",
      "_links": {
        "self": {
          "name": "GAMBRO, S.A.",
          "href": "https://api.euskadi.eus/procurements/companies/00969"
        }
      }
    },
    {
      "name": "TORRAS VALENTÍ, S.A.",
      "registrationNumber": "00428",
      "identificationNumber": "A08051526",
      "address": "COLONIA GALOBART",
      "location": {
        "postalCode": "08270",
        "municipality": "Navarcles",
        "county": "Barcelona",
        "municipalityId": "140",
        "countyId": "08"
      },
      "economicActivities": [
        {
          "id": "1.254.2",
          "name": "Fabricación de especialidades y otros productos farmacéuticos",
          "_links": {
            "self": {
              "name": "Fabricación de especialidades y otros productos farmacéuticos",
              "href": "https://api.euskadi.eus/procurements/companies/economic-activities/1.254.2"
            }
          }
        },
        {
          "id": "1.431.3",
          "name": "Tejido de algodón y sus mezclas",
          "_links": {
            "self": {
              "name": "Tejido de algodón y sus mezclas",
              "href": "https://api.euskadi.eus/procurements/companies/economic-activities/1.431.3"
            }
          }
        },
        {
          "id": "1.436",
          "name": "Acabado de textiles",
          "_links": {
            "self": {
              "name": "Acabado de textiles",
              "href": "https://api.euskadi.eus/procurements/companies/economic-activities/1.436"
            }
          }
        }
      ],
      "certificateStartDate": "2007-06-26",
      "certificateEndDate": "2007-11-23",
      "object": "LA FABRICACIÓN, COMERCIALIZACIÓN Y VENTA DE LOS SIGUIENTES PRODUCTOS:\r\n\r\na) MATERIAL SANITARIO PARA CURAS, PROTECCIÓN, LIMPIEZA Y DESINFECCIÓN, TALES COMO: GASA HIDROFILA, VENDAJES, APÓSITOS EN GENERAL, JABONES, CREMAS HIDRATANTES, SOLUCIONES DESINFECTANTES Y ANTISÉPTICAS, ETC.\r\n\r\nb) MATERIAL PARA VESTIMENTA Y PROTECCIÓN DEL PERSONAL MÉDICO-SANITARIO, TALES COMO: BATAS, CUBRE-CABEZAS, GUANTES, ETC.\r\n\r\nc) INSTRUMENTOS Y APARATOS QUIRÚRGICOS, MÉDICOS, ODONTOLÓGICOS Y VETERINARIOS TALES COMO: PINZAS, BISTURÍS, SONDAS, CATETERS, ETC.\r\n\r\nd) IMPORTACIÓN Y EXPORTACIÓN DE TODA CLASE DE MERCADERÍAS MÉDICO-SANITARIAS Y TEXTILES, ASÍ COMO SU DISTRIBUCIÓN Y COMERCIALIZACIÓN DIRECTA O A TRAVÉS DE TERCERAS PERSONAS.\r\n\r\ne) LOS ARTÍCULOS COMPRENDIDOS EN EL OBJETO SOCIAL, PODRÁN SUMINISTRARSE INDIVIDUALMENTE O EN CONJUNTOS O AGRUPACIONES PREPARADOS PARA INTERVENCIONES ESPECÍFICAS. TAMBIÉN PODRÁN EXPEDIRSE CON EL ACABADO FINAL DE ESTERILIZACIÓN",
      "mainEntityOfPage": "https://www.contratacion.euskadi.eus/webkpe00-kperoc/es/ac71aBusquedaRegistrosWar/empresa/00428",
      "_links": {
        "self": {
          "name": "TORRAS VALENTÍ, S.A.",
          "href": "https://api.euskadi.eus/procurements/companies/00428"
        }
      }
    },
    {
      "name": "CARLSON WAGONLIT ESPAÑA, S.A. Sociedad Unipersonal",
      "registrationNumber": "02088",
      "identificationNumber": "A81861304",
      "address": "C/ CONDESA DE VENADITO, Nº 1 - 7º.",
      "location": {
        "postalCode": "28027",
        "municipality": "Madrid",
        "county": "Madrid",
        "municipalityId": "079",
        "countyId": "28"
      },
      "economicActivities": [
        {
          "id": "1.755",
          "name": "Agencias de viajes",
          "_links": {
            "self": {
              "name": "Agencias de viajes",
              "href": "https://api.euskadi.eus/procurements/companies/economic-activities/1.755"
            }
          }
        }
      ],
      "certificateStartDate": "2007-06-25",
      "certificateEndDate": "2007-03-07",
      "object": "EL QUE ES PROPIO DE LAS AGENCIAS DE VIAJES MAYORISTAS Y MINORISTAS, ES DECIR, EL EJERCICIO DE TODA CLASE DE ACTIVIDADES MERCANTILES DE MEDIACIÓN, DIRIGIDAS A PONER LOS BIENES Y SERVICIOS TURÍSTICOS A DISPOSICIÓN DE QUIENES DESEEN UTILIZARLOS, DESARROLLANDO A TAL EFECTO LAS FUNCIONES RECOGIDAS EN EL ARTÍCULO 2 DEL DECRETO 99/1996 DE 27 DE JUNIO, DE LA CONSEJERÍA DE ECONOMÍA Y EMPLEO DE LA COMUNIDAD DE MADRID, POR EL QUE SE REGULA EL EJERCICIO DE ACTIVIDADES PROPIAS DE LAS AGENCIAS DE VIAJES Y DE LA LEGISLACIÓN COMPLEMENTARIA QUE AFECTE O PUEDA AFECTAR EN EL FUTURO A DICHA ACTIVIDAD, INCLUIDA LA ORGANIZACIÓN Y ASISTENCIA TÉCNICA EN CONGRESOS, CONVENCIONES, FERIAS, ASAMBLEAS O ACTOS SIMILARES",
      "mainEntityOfPage": "https://www.contratacion.euskadi.eus/webkpe00-kperoc/es/ac71aBusquedaRegistrosWar/empresa/02088",
      "_links": {
        "self": {
          "name": "CARLSON WAGONLIT ESPAÑA, S.A. Sociedad Unipersonal",
          "href": "https://api.euskadi.eus/procurements/companies/02088"
        }
      }
    },
    {
      "name": "KOMA ZERBITZU KULTURALAK, S.L.",
      "registrationNumber": "03385",
      "identificationNumber": "B20678173",
      "address": "AVDA DE MADRID 16, 1º - 1º",
      "location": {
        "postalCode": "20011",
        "municipality": "Donostia / San Sebastián",
        "county": "Gipuzkoa",
        "municipalityId": "069",
        "countyId": "20"
      },
      "economicActivities": [
        {
          "id": "1.966.9",
          "name": "Otros servicios culturales n.c.o.p",
          "_links": {
            "self": {
              "name": "Otros servicios culturales n.c.o.p",
              "href": "https://api.euskadi.eus/procurements/companies/economic-activities/1.966.9"
            }
          }
        }
      ],
      "certificateStartDate": "2007-06-22",
      "certificateEndDate": "2007-11-22",
      "object": "LA GESTIÓN Y REALIZACIÓN DE ACTIVIDADES CULTURALES, TURÍSTICAS, CONGRESUALES Y EDUCATIVAS. DENTRO DE TAL OBJETO PODRÁ DESARROLLAR LAS SIGUIENTES ACTIVIDADES: ACTIVIDADES MUSEÍSTICAS (DPTO DE CATALOGACIÓN, DPTO. DE EXPOSICIONES Y DPTO. DE DIFUSIÓN Y PUBLICACIONES); PROYECTOS DE REHABILITACIÓN CULTURAL; ASESORAMIENTO CULTURAL EXTERNO; DISEÑO Y GESTIÓN DE RUTAS CULTURALES Y VISITAS GUIADAS; GESTIÓN DE ACTIVIDADES; GESTIÓN DE ACTIVIDADES EXTRAEXCOLARES (CAMPAMENTOS DE VERANO, ACTIVIDADES CONCRETAS EN LOS COLEGIOS, UNIVERSIDADES, ETC...); ELABORACIÓN DE MATERIAL DIDÁCTICO; SECTOR CONGRESOS Y ACOMPAÑANTES; ELABORACIÓN DE INFORMES; LABORES DE DOCUMENTACIÓN E INFORMACIÓN EXTERNA; GETIÓN DE MUSEOS, ARCHIVOS, BIBLIOTECA, FOTOTECAS, MEDIATECAS, CENTROS DE DE DOCUMENTACIÓN, ETC....; EXCAVACIONES ARQUEOLÓGICAS Y DIFUSIÓN DEL PATRIMONIO; RECONSTRUCCIÓN Y REHABILITACIÓN DEL PATRIMONIO CULTURAL",
      "mainEntityOfPage": "https://www.contratacion.euskadi.eus/webkpe00-kperoc/es/ac71aBusquedaRegistrosWar/empresa/03385",
      "_links": {
        "self": {
          "name": "KOMA ZERBITZU KULTURALAK, S.L.",
          "href": "https://api.euskadi.eus/procurements/companies/03385"
        }
      }
    },
    {
      "name": "MIKEL ISPIZUA TELLECHEA (ImásG-Instalaciones Técnicas y Deportivas)",
      "registrationNumber": "03196",
      "identificationNumber": "30558030T",
      "address": "LEHENDAKARI AGUIRE, 11-1º. DPTO. 17",
      "location": {
        "postalCode": "48014",
        "municipality": "Bilbao",
        "county": "Bizkaia",
        "municipalityId": "020",
        "countyId": "48"
      },
      "economicActivities": [
        {
          "id": "1.503.1",
          "name": "Preparación y montaje de estructuras y cubiertas en edificaciones",
          "_links": {
            "self": {
              "name": "Preparación y montaje de estructuras y cubiertas en edificaciones",
              "href": "https://api.euskadi.eus/procurements/companies/economic-activities/1.503.1"
            }
          }
        },
        {
          "id": "1.617.4",
          "name": "Venta al por mayor de materiales de construcción, vidrio y artículos instalación",
          "_links": {
            "self": {
              "name": "Venta al por mayor de materiales de construcción, vidrio y artículos instalación",
              "href": "https://api.euskadi.eus/procurements/companies/economic-activities/1.617.4"
            }
          }
        }
      ],
      "certificateStartDate": "2007-06-18",
      "certificateEndDate": "2007-10-25",
      "mainEntityOfPage": "https://www.contratacion.euskadi.eus/webkpe00-kperoc/es/ac71aBusquedaRegistrosWar/empresa/03196",
      "_links": {
        "self": {
          "name": "MIKEL ISPIZUA TELLECHEA (ImásG-Instalaciones Técnicas y Deportivas)",
          "href": "https://api.euskadi.eus/procurements/companies/03196"
        }
      }
    },
    {
      "name": "ASTABURUAGA, S.A.",
      "registrationNumber": "02647",
      "identificationNumber": "A01029214",
      "address": "LARRAGANA, 1",
      "location": {
        "postalCode": "01013",
        "municipality": "Vitoria-Gasteiz",
        "county": "Araba/Álava",
        "municipalityId": "059",
        "countyId": "01"
      },
      "economicActivities": [
        {
          "id": "1.316.6",
          "name": "Fabricación de mobiliario metálico",
          "_links": {
            "self": {
              "name": "Fabricación de mobiliario metálico",
              "href": "https://api.euskadi.eus/procurements/companies/economic-activities/1.316.6"
            }
          }
        }
      ],
      "certificateStartDate": "2007-06-13",
      "certificateEndDate": "2007-11-22",
      "object": "LA FABRICACIÓN DE TODO TIPO  DE CAMAS METÁLICAS, ARTICULADAS, HIGIÉNICAS, FIJAS, LITERAS, MESAS MÉTÁLICAS, CARROS METÁLICOS DE ARRASTR Y DEMÁS PRODUCTOS SIMILARES; FABRICACIÓN DE PRODUCTOS DE FERRETERÍA EN GENERAL Y CUANTO ES CONCERNIENTE A LA FABRICACIÓN Y SIMILARES, ASÍ COMO LA MECANIZACIÓN DE TODO TIPO DE PIEZAS Y CUANTAS ACTIVIDADES DERIVADAS  O COMPLEMENTARIAS DE LAS ANTERIORES ACUERDEN LOS ÓRGANOS ADMINISTRATIVOS DE LA SOCIEDAD. ",
      "mainEntityOfPage": "https://www.contratacion.euskadi.eus/webkpe00-kperoc/es/ac71aBusquedaRegistrosWar/empresa/02647",
      "_links": {
        "self": {
          "name": "ASTABURUAGA, S.A.",
          "href": "https://api.euskadi.eus/procurements/companies/02647"
        }
      }
    },
    {
      "name": "NETSIGNIA PROYECTOS, S.L.",
      "registrationNumber": "03301",
      "identificationNumber": "B95309191",
      "address": "HENAO, 4 - 3ª PLANTA A-B",
      "location": {
        "postalCode": "48009",
        "municipality": "Bilbao",
        "county": "Bizkaia",
        "municipalityId": "020",
        "countyId": "48"
      },
      "economicActivities": [
        {
          "id": "1.845",
          "name": "Explotación electrónica por cuenta de terceros",
          "_links": {
            "self": {
              "name": "Explotación electrónica por cuenta de terceros",
              "href": "https://api.euskadi.eus/procurements/companies/economic-activities/1.845"
            }
          }
        }
      ],
      "certificateStartDate": "2007-06-13",
      "certificateEndDate": "2007-11-03",
      "object": "-EL DISEÑO, FABRICACIÓN Y DESARROLLO DE PRODUCTOS DE COMPONENTES INFORMÁTICOS.\r\n-LA PRESTACIÓN DE SERVICIOS, CONSULTORÍA, MANTENIMIENTO, AUDITORÍA DE ASESORAMIENTO Y FORMACIÓN, RELACIONADOS CON EL ÁREA DE LA TECNOLOGÍA Y DE LOS SISTEMAS ORGANIZATIVOS, ADMINISTRATIVOS, INDUSTRIALES O FINANCIEROS DE LAS EMPRESAS Y ENTIDADES CON LAS QUE COLABORE.\r\n-LA CAPTACIÓN, REALIZACIÓN  Y DESARROLLO DE PROYECTOS INFORMÁTICOS A MEDIDA; REALIZACIÓN, GESTIÓN Y MANTENIMIENTO DE PÁGINAS WEB; GESTIÓN DE REDES.\r\n-LA DISTRIBUCIÓN Y CANALIZACIÓN DE PRODUCTOS Y COMPONENTES DE SOFTWARE Y HARDWARE.\r\n-LA INVESTIGACIÓN DE NUEVOS PRODUCTOS, MERCADOS Y SISTEMAS INFORMÁTICOS.\r\n-LA PRESTACIÓN DE PERSONAL ESPECIALIZADO.\r\n-LA PROMOCIÓN DE PROFESIONALES, EMPRESAS E INSTITUCIONES EN EL CAMPO DE LAS TECNOLOGÍAS INFORMÁTICAS.\r\n-EL FOMENTO DEL EMPLEO A DISCAPACITADOS FÍSICOS Y MENTALES.\r\n-LA INVESTIGACIÓN, DESARROLLO Y COMERCIALIZACIÓN DE PRODUCTOS DE LAS TECNOLOGÍAS INFORMÁTICAS ORIENTADAS AL USO Y EMPLEO POR DISCAPACITADOS FÍSICOS Y MENTALES.\r\n-LA INGENIERÍA DE PROCESOS INDUSTRIALES DONDE SEAN APLICABLES LAS TECNOLOGÍAS INFORMÁTICAS.\r\n-EL NEGOCIO INMOBILIARIO EN GENERAL, EXCLUÍDO EL ARRENDAMIENTO FINANCIERO ",
      "mainEntityOfPage": "https://www.contratacion.euskadi.eus/webkpe00-kperoc/es/ac71aBusquedaRegistrosWar/empresa/03301",
      "_links": {
        "self": {
          "name": "NETSIGNIA PROYECTOS, S.L.",
          "href": "https://api.euskadi.eus/procurements/companies/03301"
        }
      }
    },
    {
      "name": "TRATAMIENTOS ESPECÍFICOS CURATIVOS DE LA MADERA, S.L.",
      "registrationNumber": "03355",
      "identificationNumber": "B48404735",
      "address": "Bº BILLELA, S/N",
      "location": {
        "postalCode": "48100",
        "municipality": "Mungia",
        "county": "Bizkaia",
        "municipalityId": "069",
        "countyId": "48"
      },
      "economicActivities": [
        {
          "id": "1.921.3",
          "name": "Exterminio de animales dañinos y desinfección",
          "_links": {
            "self": {
              "name": "Exterminio de animales dañinos y desinfección",
              "href": "https://api.euskadi.eus/procurements/companies/economic-activities/1.921.3"
            }
          }
        }
      ],
      "certificateStartDate": "2007-06-07",
      "certificateEndDate": "2007-10-13",
      "object": "LA FABRICACIÓN, COMERCIALIZACIÓN, INCLUSO EXPORTACIÓN E IMPORTACIÓN Y APLICACIÓN DE PRODUCTOS PESTICIDAS",
      "mainEntityOfPage": "https://www.contratacion.euskadi.eus/webkpe00-kperoc/es/ac71aBusquedaRegistrosWar/empresa/03355",
      "_links": {
        "self": {
          "name": "TRATAMIENTOS ESPECÍFICOS CURATIVOS DE LA MADERA, S.L.",
          "href": "https://api.euskadi.eus/procurements/companies/03355"
        }
      }
    },
    {
      "name": "CLAR REHABILITACIÓN, S.L.",
      "registrationNumber": "03382",
      "identificationNumber": "B78441946",
      "address": "POL.IND.LOS OLIVOS. C/INNOVACIÓN, 11",
      "location": {
        "postalCode": "28906",
        "municipality": "Getafe",
        "county": "Madrid",
        "municipalityId": "065",
        "countyId": "28"
      },
      "economicActivities": [
        {
          "id": "1.501.1",
          "name": "Construcción completa, reparación y conservación de edificaciones",
          "_links": {
            "self": {
              "name": "Construcción completa, reparación y conservación de edificaciones",
              "href": "https://api.euskadi.eus/procurements/companies/economic-activities/1.501.1"
            }
          }
        }
      ],
      "certificateStartDate": "2007-06-05",
      "certificateEndDate": "2007-10-20",
      "object": "A) LA REHABILITACIÓN DE TODO TIPO DE INMUEBLES, SUS REVESTIMIENTOS Y DEMÁS ACABADOS DE OBRAS. B) LA CONSTRUCCIÓN COMPLETA DE TIPO DE OBRAS E INSTALACIONES, ASÍ COMO LA REPARACIÓN,  CONSERVACIÓN Y MANTENIMIIENTO DE LAS MISMAS, Y EN PARTICULAR LAS INSTALACIONES ELÉCTRICAS, FONTANERÍA, INSTALACIONES DE CALEFACCIÓN, CLIMATIZACIÓN Y AGUA CALIENTE SANITARIA, YA FUERA PARA LA ADIMINISTRACIÓN PÚBLICA, EMPRESAS Y PARTICULARES. C) LA REALIZACIÓN, CONFECCIÓN DE OFERTAS Y PRESUPUESTOS DE OBRAS PARA SU EJECUCIÓN EN RÉGIMEN DE ADJUDICACIÓN DIRECTA, CONCURSO O SUBASTA PARA CON ORGANISMOS PÚBLICOS, SEAN ÉSTOS DE CARÁCTER ESTATAL, AUTONÓMICO, PROVINCIAL, LOCAL O PARAESTATAL. D) LA ELABORACIÓN DE PROYECTOS Y DIRECCIÓN DE OBRA  PARA TODO TIPO DE OBRAS Y CONSTRUCCIONES. E) LA COMPRAVENTA, CONSTRUCCIÓN, URBANIZACIÓN, PROMOCIÓN Y EXPLOTACIÓN DE TODA CLASE DE BIENES INMUEBLES",
      "mainEntityOfPage": "https://www.contratacion.euskadi.eus/webkpe00-kperoc/es/ac71aBusquedaRegistrosWar/empresa/03382",
      "_links": {
        "self": {
          "name": "CLAR REHABILITACIÓN, S.L.",
          "href": "https://api.euskadi.eus/procurements/companies/03382"
        }
      }
    },
    {
      "name": "ARCADIO D. DE CORCUERA, S.A.",
      "registrationNumber": "00235",
      "identificationNumber": "A48000806",
      "address": "C/ IPARRAGUIRRE, Nº 39 - 43.",
      "location": {
        "postalCode": "48011",
        "municipality": "Bilbao",
        "county": "Bizkaia",
        "municipalityId": "020",
        "countyId": "48"
      },
      "economicActivities": [
        {
          "id": "1.617.5",
          "name": "Venta al por mayor de maquinaria para la madera y el metal",
          "_links": {
            "self": {
              "name": "Venta al por mayor de maquinaria para la madera y el metal",
              "href": "https://api.euskadi.eus/procurements/companies/economic-activities/1.617.5"
            }
          }
        }
      ],
      "certificateStartDate": "2007-05-31",
      "certificateEndDate": "2007-09-20",
      "object": "COMPRA-VENTA DE TODA CLASE DE MAQUINARIA, ACCESORIOS Y HERRAMIENTAS",
      "mainEntityOfPage": "https://www.contratacion.euskadi.eus/webkpe00-kperoc/es/ac71aBusquedaRegistrosWar/empresa/00235",
      "_links": {
        "self": {
          "name": "ARCADIO D. DE CORCUERA, S.A.",
          "href": "https://api.euskadi.eus/procurements/companies/00235"
        }
      }
    }
  ]
}