{
  "totalItems": 9042,
  "totalPages": 905,
  "currentPage": 388,
  "itemsOfPage": 10,
  "items": [
    {
      "name": "NABERAN SAREAK, S.L.",
      "registrationNumber": "09275",
      "identificationNumber": "B20961959",
      "address": "Mutrikuko Industrialdea 15",
      "location": {
        "postalCode": "20830",
        "municipality": "Mutriku",
        "county": "Gipuzkoa",
        "municipalityId": "056",
        "countyId": "20"
      },
      "economicActivities": [
        {
          "id": "1.439.1",
          "name": "Cordelería",
          "_links": {
            "self": {
              "name": "Cordelería",
              "href": "https://api.euskadi.eus/procurements/companies/economic-activities/1.439.1"
            }
          }
        }
      ],
      "certificateStartDate": "2024-09-30",
      "certificateEndDate": "2025-03-30",
      "object": "LA FABRICACIÓN DE APAREJOS DE PESCA Y TODO TIPO DE ELEMENTOS QUE CONSTITUYEN LOS EQUIPOS DE PESCA Y LA ADQUISICIÓN Y ENAJENACIÓN DE BIENES MUEBLES SUSCEPTIBLES DE CONVERTIRSE EN EQUIPAMIENTOS DE PESCA, ASÍ COMO DE BIENES INMUEBLES Y LA TENENCIA Y ADQUISICIÓN DE VALORES, SIN INCIDIR EN ACTIVIDADES ESPECIALMENTE REGULADAS.\n",
      "mainEntityOfPage": "https://www.contratacion.euskadi.eus/webkpe00-kperoc/es/ac71aBusquedaRegistrosWar/empresa/09275",
      "_links": {
        "self": {
          "name": "NABERAN SAREAK, S.L.",
          "href": "https://api.euskadi.eus/procurements/companies/09275"
        }
      }
    },
    {
      "name": "AGILENT TECHNOLOGIES SPAIN, S.L.",
      "registrationNumber": "06801",
      "identificationNumber": "B86907128",
      "address": "PARQUE EMPRESARIAL ALVIA, C/JOSE ECHEGARAY 8, EDIFICIO 3, PLANTA 1",
      "location": {
        "postalCode": "28232",
        "municipality": "Rozas de Madrid, Las",
        "county": "Madrid",
        "municipalityId": "127",
        "countyId": "28"
      },
      "economicActivities": [
        {
          "id": "1.615.4",
          "name": "Venta al por mayor de aparatos y material radioeléctrico y electrónico",
          "_links": {
            "self": {
              "name": "Venta al por mayor de aparatos y material radioeléctrico y electrónico",
              "href": "https://api.euskadi.eus/procurements/companies/economic-activities/1.615.4"
            }
          }
        },
        {
          "id": "1.616.6",
          "name": "Venta al por mayor de productos químicos industriales",
          "_links": {
            "self": {
              "name": "Venta al por mayor de productos químicos industriales",
              "href": "https://api.euskadi.eus/procurements/companies/economic-activities/1.616.6"
            }
          }
        },
        {
          "id": "1.659.3",
          "name": "Venta al por menor de aparatos médicos, ortopédicos, ópticos y fotográficos",
          "_links": {
            "self": {
              "name": "Venta al por menor de aparatos médicos, ortopédicos, ópticos y fotográficos",
              "href": "https://api.euskadi.eus/procurements/companies/economic-activities/1.659.3"
            }
          }
        },
        {
          "id": "1.699",
          "name": "Otras reparaciones n.c.o.p",
          "_links": {
            "self": {
              "name": "Otras reparaciones n.c.o.p",
              "href": "https://api.euskadi.eus/procurements/companies/economic-activities/1.699"
            }
          }
        },
        {
          "id": "1.843.1",
          "name": "Servicios técnicos de ingeniería",
          "_links": {
            "self": {
              "name": "Servicios técnicos de ingeniería",
              "href": "https://api.euskadi.eus/procurements/companies/economic-activities/1.843.1"
            }
          }
        },
        {
          "id": "1.849.7",
          "name": "Servicios de gestión administrativa",
          "_links": {
            "self": {
              "name": "Servicios de gestión administrativa",
              "href": "https://api.euskadi.eus/procurements/companies/economic-activities/1.849.7"
            }
          }
        },
        {
          "id": "1.859",
          "name": "Alquiler de otros bienes muebles n.c.o.p. (sin personal permanente)",
          "_links": {
            "self": {
              "name": "Alquiler de otros bienes muebles n.c.o.p. (sin personal permanente)",
              "href": "https://api.euskadi.eus/procurements/companies/economic-activities/1.859"
            }
          }
        }
      ],
      "certificateStartDate": "2024-09-30",
      "certificateEndDate": "2025-03-30",
      "object": "LA INVESTIGACIÓN, DESARROLLO, DISEÑO, FABRICACIÓN, COMPROBACIÓN, MONTAJE, PERSONALIZACIÓN, OTORGAMIENTO DE LICENCIAS, COMERCIALIZACIÓN, PROMOCIÓN, VENTA, DISTRIBUCIÓN, MANTENIMIENTO Y REPARACIÓN DE PRODUCTOS, INSTRUMENTOS, SISTEMAS, REACTIVOS, COMPONENTES, INSUMOS Y SOFTWARE RELACIONADO PARA LA IDENTIFICACIÓN, CUANTIFICACIÓN Y ANÁLISIS DE LAS PROPIEDADES FÍSICAS Y BIOLÓGICAS DE SUSTANCIAS Y PRODUCTOS Y LA PRESTACIÓN DE CUALESQUIERA SERVICIOS RELACIONADOS CON LO ANTERIOR, INCLUYENDO SERVICIOS DE ASISTENCIA INICIAL, OPERACIÓN, INSTRUCCIÓN, CUMPLIMIENTO Y OTROS SERVICIOS DE SOPORTE",
      "mainEntityOfPage": "https://www.contratacion.euskadi.eus/webkpe00-kperoc/es/ac71aBusquedaRegistrosWar/empresa/06801",
      "_links": {
        "self": {
          "name": "AGILENT TECHNOLOGIES SPAIN, S.L.",
          "href": "https://api.euskadi.eus/procurements/companies/06801"
        }
      }
    },
    {
      "name": "PAGOA CONSULTORAS, S.L.",
      "registrationNumber": "09827",
      "identificationNumber": "B75042895",
      "address": "AV IPARRALDE 43",
      "location": {
        "postalCode": "20302",
        "municipality": "Irun",
        "county": "Gipuzkoa",
        "municipalityId": "045",
        "countyId": "20"
      },
      "economicActivities": [
        {
          "id": "1.842",
          "name": "Servicios financieros y contables",
          "_links": {
            "self": {
              "name": "Servicios financieros y contables",
              "href": "https://api.euskadi.eus/procurements/companies/economic-activities/1.842"
            }
          }
        },
        {
          "id": "1.849.9",
          "name": "Otros servicios independientes n.c.o.p",
          "_links": {
            "self": {
              "name": "Otros servicios independientes n.c.o.p",
              "href": "https://api.euskadi.eus/procurements/companies/economic-activities/1.849.9"
            }
          }
        },
        {
          "id": "1.861.2",
          "name": "Alquiler de locales industriales y otros alquileres n.c.o.p",
          "_links": {
            "self": {
              "name": "Alquiler de locales industriales y otros alquileres n.c.o.p",
              "href": "https://api.euskadi.eus/procurements/companies/economic-activities/1.861.2"
            }
          }
        }
      ],
      "certificateStartDate": "2024-09-30",
      "certificateEndDate": "2025-03-20",
      "object": "ASESORÍA FISCAL, LABORAL, CONTABLE E INMOBILIARIA TRANSFRONTERIZA PARA PERSONAS FÍSICAS Y EMPRESAS.",
      "mainEntityOfPage": "https://www.contratacion.euskadi.eus/webkpe00-kperoc/es/ac71aBusquedaRegistrosWar/empresa/09827",
      "_links": {
        "self": {
          "name": "PAGOA CONSULTORAS, S.L.",
          "href": "https://api.euskadi.eus/procurements/companies/09827"
        }
      }
    },
    {
      "name": "ASGES SERVICIOS DE ADMINISTRACIÓN Y GESTIÓN, S.L.",
      "registrationNumber": "07870",
      "identificationNumber": "B48491849",
      "address": "C/ Alameda Recalde 36-8º",
      "location": {
        "postalCode": "48009",
        "municipality": "Bilbao",
        "county": "Bizkaia",
        "municipalityId": "020",
        "countyId": "48"
      },
      "economicActivities": [
        {
          "id": "1.842",
          "name": "Servicios financieros y contables",
          "_links": {
            "self": {
              "name": "Servicios financieros y contables",
              "href": "https://api.euskadi.eus/procurements/companies/economic-activities/1.842"
            }
          }
        },
        {
          "id": "1.849.7",
          "name": "Servicios de gestión administrativa",
          "_links": {
            "self": {
              "name": "Servicios de gestión administrativa",
              "href": "https://api.euskadi.eus/procurements/companies/economic-activities/1.849.7"
            }
          }
        }
      ],
      "certificateStartDate": "2024-09-27",
      "certificateEndDate": "2025-03-23",
      "object": "A)PRESTACIÓN DE SERVICIOS DE AUDITORIA, REVISIÓN, CENSURA, VERIFICACIÓN Y ANÁLISIS EN GENERAL DE CUENTAS, ESTADOS FINANCIEROS Y CUALQUIER OTRA INFORMACIÓN DE ÍNDOLE CONTABLE, ECONÓMICA, FINANCIERA, LEGAL, MERCANTIL O FISCAL MEDIANTE LA UTILIZACIÓN DE LAS TÉCNICAS DE REVISIÓN Y VERIFICACIÓN IDÓNEAS. B) ASESORAMIENTO DE EMPRESAS, TANTO CONTABLE COMO ECONÓMICO FISCAL, JURÍDICO, FINANCIERO, MERCANTIL O DE CUALQUIER OTRO TIPO, EL ESTUDIO , ANÁLISIS, INVESTIGACIÓN, PROMOCIÓN Y PRESTACIÓN DE TODA CLASE DE SERVICIOS DE ASISTENCIA Y GESTIÓN TÉCNICA, ADMINISTRATIVA Y COMERCIAL, ASÍ COMO DE CONSULTORÍA, ORGANIZACIÓN, PLANIFICACIÓN, INFORMATIZACIÓN Y MECANIZACIÓN Y CUALQUIER OTRO TIPO DE SERVICIO RELACIONADO CON SISTEMAS DE INFORMACIÓN, CONTROL Y GESTIÓN. C) LA LLEVANZA DE LIBROS OFICIALES, CONTABILIDADES Y OTROS SERVICIOS ADMINISTRATIVOS A EMPRESAS. LA CONFECCIÓN DE NÓMINAS Y ASESORAMIENTO EN TEMAS LABORALES Y FINANCIEROS, TANTO A PERSONAS FÍSICAS COMO JURÍDICAS. D) LA GESTIÓN Y TRAMITACIÓN DE DOCUMENTOS ANTE TODO TIPO DE OFICINAS PÚBLICAS Y PRIVADAS. E) LA ADQUISICIÓN Y ENAJENACIÓN, POR CUALQUIER TÍTULO DE MOBILIARIO Y EQUIPOS Y APLICACIONES INFORMÁTICOS Y LA EXPLOTACIÓN, CESIÓN Y ARRENDAMIENTO, YA SEA ACTIVO O PASIVO, DE TALES BIENES Y SU VENTA TOTAL O PARCIAL. G) LA PROMOCIÓN, MEDIACIÓN Y ASESORAMIENTO PREPARATORIO DE LA FORMALIZACIÓN DE CONTRATOS DE SEGUROS PRIVADOS ENTRE PERSONAS FÍSICAS O JURÍDICAS Y ENTIDADES ASEGURADORAS LEGALMENTE AUTORIZADAS",
      "mainEntityOfPage": "https://www.contratacion.euskadi.eus/webkpe00-kperoc/es/ac71aBusquedaRegistrosWar/empresa/07870",
      "_links": {
        "self": {
          "name": "ASGES SERVICIOS DE ADMINISTRACIÓN Y GESTIÓN, S.L.",
          "href": "https://api.euskadi.eus/procurements/companies/07870"
        }
      }
    },
    {
      "name": "OPTIMA FACILITY SERVICES, S.L.",
      "registrationNumber": "08282",
      "identificationNumber": "B60124831",
      "address": "Can Pi 15",
      "location": {
        "postalCode": "08908",
        "municipality": "Hospitalet de Llobregat, L'",
        "county": "Barcelona",
        "municipalityId": "101",
        "countyId": "08"
      },
      "economicActivities": [
        {
          "id": "1.922",
          "name": "Servicios de limpieza",
          "_links": {
            "self": {
              "name": "Servicios de limpieza",
              "href": "https://api.euskadi.eus/procurements/companies/economic-activities/1.922"
            }
          }
        },
        {
          "id": "1.922.1",
          "name": "Servicios de limpieza de interiores",
          "_links": {
            "self": {
              "name": "Servicios de limpieza de interiores",
              "href": "https://api.euskadi.eus/procurements/companies/economic-activities/1.922.1"
            }
          }
        }
      ],
      "certificateStartDate": "2024-09-27",
      "certificateEndDate": "2025-03-25",
      "object": "(A) LA PRESTACIÓN DE SERVICIOS DE LIMPIEZA, MANTENIMIENTO Y CONSERVACIÓN DE BIENES MUEBLES, INMUEBLES E INSTALACIONES, TODO ELLO EN EL SENTIDO MÁS AMPLIO POSIBLE, LO QUE INCLUYE INSTALACIONES INDUSTRIALES, HOSPITALARIAS Y GRANDES SUPERFICIES, ASÍ COMO VÍAS URBANAS, PARQUES Y JARDINES. (B) LA PRESTACIÓN DE CUALQUIER SERVICIO RELACIONADO CON LA ACTIVIDAD DE CATERING, DESDE LA FABRICACIÓN Y CONFECCIÓN DE PRODUCTOS ALIMENTARIOS, HASTA LA EXPEDICIÓN DE LAS MISMAS. (C) LA PRESTACIÓN DE CUALQUIER SERVICIO RELACIONADO CON LA ACTIVIDAD DE LOGÍSTICA, Y EN ESPECIAL EL ALMACENAMIENTO, TRANSPORTE Y DISTRIBUCIÓN DE BIENES. (D) LA PRESTACIÓN DE SERVICIOS DE INSPECCIÓN Y CONTROL DE CALIDAD, ASÍ COMO LA EFECTUACIÓN INSPECCIONES TÉCNICAS. (E) LA PRESTACIÓN DE SERVICIOS EN LÍNEAS DE PRODUCCIÓN Y CADENAS DE MONTAJE EN INSTALACIONES FÁBRICAS E INDUSTRIALES EN GENERAL, INCLUSO ROBÓTICAS, ASÍ COMO EN LÍNEAS DE ALMACENAMIENTO DE GRANDES SUPERFICIES DE VENTA. (F) LA PRESTACIÓN DE SERVICIOS DE CONTROL DE PLAGAS Y DE SANIDAD AMBIENTAL EN GENERAL, INCLUYENDO PERO SIN LIMITARSE A LOS SERVICIOS DE DESINSECTACIÓN, DESRODENTIZACIÓN Y DESRATIZACIÓN, Y DESINFECCIÓN DE MICROORGANISMOS.",
      "mainEntityOfPage": "https://www.contratacion.euskadi.eus/webkpe00-kperoc/es/ac71aBusquedaRegistrosWar/empresa/08282",
      "_links": {
        "self": {
          "name": "OPTIMA FACILITY SERVICES, S.L.",
          "href": "https://api.euskadi.eus/procurements/companies/08282"
        }
      }
    },
    {
      "name": "REHABILITACIONES Y OBRAS KUBER, S.L.",
      "registrationNumber": "08727",
      "identificationNumber": "B20862512",
      "address": "Telleriarte diseminados 16 Pab. 6",
      "location": {
        "postalCode": "20230",
        "municipality": "Legazpi",
        "county": "Gipuzkoa",
        "municipalityId": "051",
        "countyId": "20"
      },
      "economicActivities": [
        {
          "id": "1.501.1",
          "name": "Construcción completa, reparación y conservación de edificaciones",
          "_links": {
            "self": {
              "name": "Construcción completa, reparación y conservación de edificaciones",
              "href": "https://api.euskadi.eus/procurements/companies/economic-activities/1.501.1"
            }
          }
        },
        {
          "id": "1.861.2",
          "name": "Alquiler de locales industriales y otros alquileres n.c.o.p",
          "_links": {
            "self": {
              "name": "Alquiler de locales industriales y otros alquileres n.c.o.p",
              "href": "https://api.euskadi.eus/procurements/companies/economic-activities/1.861.2"
            }
          }
        }
      ],
      "certificateStartDate": "2024-09-26",
      "certificateEndDate": "2025-03-22",
      "object": "LA CONSTRUCCIÓN COMPLETA, REPARACIÓN Y CONSERVACIÓN DE TODA CLASE DE OBRAS, EDIFICACIONES, OBRAS CIVILES; ALBAÑILERÍA Y PEQUEÑOS TRABAJOS DE CONSTRUCCIÓN EN GENERAL; DEMOLICIONES Y DERRIBOS EN GENERAL; CONSOLIDACIÓN Y PREPARACIÓN DE TERRENOS PARA LA CONSTRUCCIÓN; CIMENTACIONES Y PAVIMENTACIONES PARA LA CONSTRUCCIÓN; REVESTIMIENTOS EXTERNOS E INTERIORES DE TODAS CLASES Y EN TODO TIPO DE OBRAS; SOLADOS- Y PAVIMENTOS DE TODAS CLASES Y EN CUALQUIER TIPO DE OBRAS; CARPINTERÍA Y CERRAJERÍA; MONTAJE E INSTALACIÓN DE COCINAS DE TODO TIPO Y CLASE, CON TODOS SUS ACCESORIOS.",
      "mainEntityOfPage": "https://www.contratacion.euskadi.eus/webkpe00-kperoc/es/ac71aBusquedaRegistrosWar/empresa/08727",
      "_links": {
        "self": {
          "name": "REHABILITACIONES Y OBRAS KUBER, S.L.",
          "href": "https://api.euskadi.eus/procurements/companies/08727"
        }
      }
    },
    {
      "name": "VERSIA TECNOLOGIAS EMERGENTES, S.L.",
      "registrationNumber": "05736",
      "identificationNumber": "B95906319",
      "address": "C/ IBAIBE 27 2º EDIFICIO GARVE III",
      "location": {
        "postalCode": "48902",
        "municipality": "Barakaldo",
        "county": "Bizkaia",
        "municipalityId": "013",
        "countyId": "48"
      },
      "economicActivities": [
        {
          "id": "1.845",
          "name": "Explotación electrónica por cuenta de terceros",
          "_links": {
            "self": {
              "name": "Explotación electrónica por cuenta de terceros",
              "href": "https://api.euskadi.eus/procurements/companies/economic-activities/1.845"
            }
          }
        }
      ],
      "certificateStartDate": "2024-09-26",
      "certificateEndDate": "2025-03-26",
      "object": "EL ESTUDIO Y VALIDACIÓN DE LA NUEVAS TECNOLOGÍAS EMERGENTES, ASÍ COMO LA EJECUCIÓN DE PROYECTOS DE INNOVACIÓN PARA LA CREACIÓN DE NUEVOS MODELOS DE NEGOCIO",
      "mainEntityOfPage": "https://www.contratacion.euskadi.eus/webkpe00-kperoc/es/ac71aBusquedaRegistrosWar/empresa/05736",
      "_links": {
        "self": {
          "name": "VERSIA TECNOLOGIAS EMERGENTES, S.L.",
          "href": "https://api.euskadi.eus/procurements/companies/05736"
        }
      }
    },
    {
      "name": "EKAITZ URIBE RUS",
      "registrationNumber": "09823",
      "identificationNumber": "72446673P",
      "address": "Kalkutako eres Plaza 3, 6.b",
      "location": {
        "postalCode": "20012",
        "municipality": "Donostia / San Sebastián",
        "county": "Gipuzkoa",
        "municipalityId": "069",
        "countyId": "20"
      },
      "economicActivities": [
        {
          "id": "2.411",
          "name": "Arquitectos",
          "_links": {
            "self": {
              "name": "Arquitectos",
              "href": "https://api.euskadi.eus/procurements/companies/economic-activities/2.411"
            }
          }
        }
      ],
      "certificateStartDate": "2024-09-26",
      "certificateEndDate": "2025-03-23",
      "object": "ARQUITECTOS.",
      "mainEntityOfPage": "https://www.contratacion.euskadi.eus/webkpe00-kperoc/es/ac71aBusquedaRegistrosWar/empresa/09823",
      "_links": {
        "self": {
          "name": "EKAITZ URIBE RUS",
          "href": "https://api.euskadi.eus/procurements/companies/09823"
        }
      }
    },
    {
      "name": "FARMABAN, S.A.",
      "registrationNumber": "05939",
      "identificationNumber": "A60211653",
      "address": "POL. IND. SAN ANNA. C/vilella de Claret, 6",
      "location": {
        "postalCode": "08272",
        "municipality": "Sant Fruitós de Bages",
        "county": "Barcelona",
        "municipalityId": "213",
        "countyId": "08"
      },
      "economicActivities": [
        {
          "id": "1.254.2",
          "name": "Fabricación de especialidades y otros productos farmacéuticos",
          "_links": {
            "self": {
              "name": "Fabricación de especialidades y otros productos farmacéuticos",
              "href": "https://api.euskadi.eus/procurements/companies/economic-activities/1.254.2"
            }
          }
        },
        {
          "id": "1.614.1",
          "name": "Venta al por mayor de productos farmacéuticos y medicamentos",
          "_links": {
            "self": {
              "name": "Venta al por mayor de productos farmacéuticos y medicamentos",
              "href": "https://api.euskadi.eus/procurements/companies/economic-activities/1.614.1"
            }
          }
        }
      ],
      "certificateStartDate": "2024-09-25",
      "certificateEndDate": "2025-03-20",
      "object": "LA FABRICACIÓN, COMERCIALIZACIÓN, DISTRIBUCIÓN, REPRESENTACIÓN, EXPORTACIÓN E IMPORTACIÓN DE PRODUCTOS HOSPITALARIOS",
      "mainEntityOfPage": "https://www.contratacion.euskadi.eus/webkpe00-kperoc/es/ac71aBusquedaRegistrosWar/empresa/05939",
      "_links": {
        "self": {
          "name": "FARMABAN, S.A.",
          "href": "https://api.euskadi.eus/procurements/companies/05939"
        }
      }
    },
    {
      "name": "CBT, COMUNICACIÓN MULTIMEDIA, S.L.",
      "registrationNumber": "02506",
      "identificationNumber": "B48810345",
      "address": "AVDA. ZUGAZARTE, 8-1º",
      "location": {
        "postalCode": "48930",
        "municipality": "Getxo",
        "county": "Bizkaia",
        "municipalityId": "044",
        "countyId": "48"
      },
      "economicActivities": [
        {
          "id": "1.844",
          "name": "Servicios de publicidad, relaciones públicas y similares",
          "_links": {
            "self": {
              "name": "Servicios de publicidad, relaciones públicas y similares",
              "href": "https://api.euskadi.eus/procurements/companies/economic-activities/1.844"
            }
          }
        },
        {
          "id": "1.845",
          "name": "Explotación electrónica por cuenta de terceros",
          "_links": {
            "self": {
              "name": "Explotación electrónica por cuenta de terceros",
              "href": "https://api.euskadi.eus/procurements/companies/economic-activities/1.845"
            }
          }
        }
      ],
      "certificateStartDate": "2024-09-25",
      "certificateEndDate": "2025-03-25",
      "object": "EL DISEÑO, COMERCIALIZACIÓN Y/O PUESTA A LA VENTA DE SOLUCIONES EN EL CAMPO DE LA COMUNICACIÓN PARA EMPRESAS Y ORGANISMOS A TRAVÉS DE CUALQUIER SOPORTE COMO PAPEL, AUDIO, VÍDEO, ETC. ASÍ COMO LA PRESTACIÓN DE SERVICIOS TÉCNICOS DE ARQUITECTURA E INGENIERÍA EN EN RELACIÓN CON EL ASESORAMIENTO TÉCNICO DE EMPRESAS.\n\nLA COMERCIALIZACIÓN DE APARATOS DE INFORMÁTICA Y COMUNICACIÓN, TALES COMO ORDENADORES, IMPRESORAS, ETC. ",
      "mainEntityOfPage": "https://www.contratacion.euskadi.eus/webkpe00-kperoc/es/ac71aBusquedaRegistrosWar/empresa/02506",
      "_links": {
        "self": {
          "name": "CBT, COMUNICACIÓN MULTIMEDIA, S.L.",
          "href": "https://api.euskadi.eus/procurements/companies/02506"
        }
      }
    }
  ]
}