{
  "totalItems": 9042,
  "totalPages": 905,
  "currentPage": 234,
  "itemsOfPage": 10,
  "items": [
    {
      "name": "CONNIVEL,14 S.L.",
      "registrationNumber": "07041",
      "identificationNumber": "B01527282",
      "address": "KATXITURRI Nº 19",
      "location": {
        "postalCode": "01240",
        "municipality": "Alegría-Dulantzi",
        "county": "Araba/Álava",
        "municipalityId": "001",
        "countyId": "01"
      },
      "economicActivities": [
        {
          "id": "1.501.1",
          "name": "Construcción completa, reparación y conservación de edificaciones",
          "_links": {
            "self": {
              "name": "Construcción completa, reparación y conservación de edificaciones",
              "href": "https://api.euskadi.eus/procurements/companies/economic-activities/1.501.1"
            }
          }
        },
        {
          "id": "1.833.2",
          "name": "Promoción de edificaciones",
          "_links": {
            "self": {
              "name": "Promoción de edificaciones",
              "href": "https://api.euskadi.eus/procurements/companies/economic-activities/1.833.2"
            }
          }
        }
      ],
      "certificateStartDate": "2025-10-06",
      "certificateEndDate": "2026-03-30",
      "object": "LA INTERMEDIACIÓN EN TEMAS INMOBILIARIOS, LA ADQUISICIÓN, URBANIZACIÓN, PARCELACIÓN, EXCAVACIÓN, CONSTRUCCIÓN, EDIFICACIÓN, CONSTITUCIÓN EN PROPIEDAD HORIZONTAL, REFORMA, AMPLIACIÓN, EXPLOTACIÓN DIRECTA E INDIRECTA, ENAJENACIÓN Y,EN GENERAL , TODA ACTIVIDAD RELACIONADA CON BIENES INMUEBLES, ASÍ RÚSTICOS COMO URBANOS Y LA REALIZACIÓN DE OBRAS PÚBLICAS Y TODA SUERTE DE INVERSIONES Y PROMOCIONES RELACIONADAS CON LA RAMA DE LA CONSTRUCCIÓN. LA COMPRAVENTA DE SOLARES Y BIENES INMUEBLES. LA COMPRAVENTA, INSTALACIÓN Y COMERCIALIZACIÓN DE MOBILIARIO Y COMPLEMENTOS PARA JARDÍN",
      "mainEntityOfPage": "https://www.contratacion.euskadi.eus/webkpe00-kperoc/es/ac71aBusquedaRegistrosWar/empresa/07041",
      "_links": {
        "self": {
          "name": "CONNIVEL,14 S.L.",
          "href": "https://api.euskadi.eus/procurements/companies/07041"
        }
      }
    },
    {
      "name": "BELENGRAF, S.A.",
      "registrationNumber": "01992",
      "identificationNumber": "A43218106",
      "address": "POLÍGONO INDUSTRIAL. C/ CURTIDORS, Nº 34. ",
      "location": {
        "postalCode": "43800",
        "municipality": "Valls",
        "county": "Tarragona",
        "municipalityId": "161",
        "countyId": "43"
      },
      "economicActivities": [
        {
          "id": "1.474",
          "name": "Artes gráficas (impresión gráfica)",
          "_links": {
            "self": {
              "name": "Artes gráficas (impresión gráfica)",
              "href": "https://api.euskadi.eus/procurements/companies/economic-activities/1.474"
            }
          }
        }
      ],
      "certificateStartDate": "2025-10-06",
      "certificateEndDate": "2026-03-29",
      "object": "COMERCIO EN GENERAL, EN TODAS SUS MANIFESTACIONES, DE COMPRA, POSESIÓN, ALMACENAJE, VENTA AL POR MAYOR Y MENOR, IMPORTACIÓN, EXPORTACIÓN TY REEXPORTACIÓN, ASÍ COMO CUALESQUIERA OTRAS TRANSACCIONES DE OPERACIONES REALIZADAS CON PAPEL.\r\nIMPRESIÓN EN DIFERENTES FORMAS EN PAPEL CONTINUO Y HOJA CORTADA EN TODA CLASE DE DOCUMENTOS, DESDE DISEÑO Y FOTOCOMPOSICIÓN HAST SU VENTA Y COMERCIALIZACIÓN    ",
      "mainEntityOfPage": "https://www.contratacion.euskadi.eus/webkpe00-kperoc/es/ac71aBusquedaRegistrosWar/empresa/01992",
      "_links": {
        "self": {
          "name": "BELENGRAF, S.A.",
          "href": "https://api.euskadi.eus/procurements/companies/01992"
        }
      }
    },
    {
      "name": "AYESA INGENIERIA Y ARQUITECTURA, SAU",
      "registrationNumber": "04008",
      "identificationNumber": "A41015322",
      "address": "Calle Marie Curie, 2",
      "location": {
        "postalCode": "41092",
        "municipality": "Sevilla",
        "county": "Sevilla",
        "municipalityId": "091",
        "countyId": "41"
      },
      "economicActivities": [
        {
          "id": "1.507",
          "name": "Construcción, reparación y conservación de toda clase obras",
          "_links": {
            "self": {
              "name": "Construcción, reparación y conservación de toda clase obras",
              "href": "https://api.euskadi.eus/procurements/companies/economic-activities/1.507"
            }
          }
        },
        {
          "id": "1.843.1",
          "name": "Servicios técnicos de ingeniería",
          "_links": {
            "self": {
              "name": "Servicios técnicos de ingeniería",
              "href": "https://api.euskadi.eus/procurements/companies/economic-activities/1.843.1"
            }
          }
        },
        {
          "id": "1.845",
          "name": "Explotación electrónica por cuenta de terceros",
          "_links": {
            "self": {
              "name": "Explotación electrónica por cuenta de terceros",
              "href": "https://api.euskadi.eus/procurements/companies/economic-activities/1.845"
            }
          }
        }
      ],
      "certificateStartDate": "2025-10-06",
      "certificateEndDate": "2026-04-04",
      "object": "LA REALIZACIÓN Y DESEMPEÑO CON LA INTERVENCIÓN DE LOS TITULADOS PRECISOS, DE TODAS AQUELLAS ACTIVIDADES QUE GUARDAN RELACIÓN CON EL EJERCICIO DE LA INGENIERÍA EN TODAS SUS RAMAS Y SECTORES O CON CUALQUIER OTRA ACTIVIDAD TÉCNICA ESPECIFICA. ENTRE SUS OPERACIONES SE COMPRENDEN LAS SIGUIENTES: LA REALIZACIÓN DE ESTUDIOS Y REDACCIÓN DE PROYECTOS, LA DIRECCIÓN, CONTROL Y EJECUCIÓN DE OBRAS E INSTALACIONES, ASÍ COMO SU MANTENIMIENTO, LA PRESTACIÓN DE ASESORAMIENTOS, ASISTENCIAS, INFORMES O DICTÁMENES; LA SOLICITUD, OBTENCIÓN Y EXPLOTACIÓN, O CESIÓN EN SU CASO, DE CONCESIONES Y PATENTES; LA REALIZACIÓN DIRECTA, GESTIÓN O ADMINISTRACIÓN DE CUALQUIER CLASE DE OBRAS Y FABRICACIONES; LA REALIZACIÓN DE ENSAYOS DE LABORATORIO DE MEDIO AMBIENTE E INGENIERÍA CIVIL, CONTROL DE CALIDAD DE OBRAS DE EDIFICACIÓN Y CIVILES, DESARROLLO, APLICACIÓN Y COMERCIALIZACIÓN DE SISTEMAS INFORMÁTICOS, LA APLICACIÓN, DESARROLLO O EXPLOTACIÓN, EN CUALQUIER FORMA, DE PROCEDIMIENTOS ESPECIALES DE FABRICACIÓN Y OTROS CUALESQUIERA MÉTODOS PRODUCTIVOS; EL DESARROLLO DE ACTIVIDADES DE TASACIÓN PREVISTAS EN LA LEY 2/81 DE REGULARIZACIÓN DEL MERCADO HIPOTECARIO\n",
      "mainEntityOfPage": "https://www.contratacion.euskadi.eus/webkpe00-kperoc/es/ac71aBusquedaRegistrosWar/empresa/04008",
      "_links": {
        "self": {
          "name": "AYESA INGENIERIA Y ARQUITECTURA, SAU",
          "href": "https://api.euskadi.eus/procurements/companies/04008"
        }
      }
    },
    {
      "name": "AMAGOIA ALEMÁN MÉNDEZ",
      "registrationNumber": "10368",
      "identificationNumber": "44140093B",
      "address": "MIRACRUZ 17A ENTREPLANTA IZQUIERDA",
      "location": {
        "postalCode": "20001",
        "municipality": "Donostia / San Sebastián",
        "county": "Gipuzkoa",
        "municipalityId": "069",
        "countyId": "20"
      },
      "economicActivities": [
        {
          "id": "2.776",
          "name": "Doctores y licenciados en ciencias políticas y sociales",
          "_links": {
            "self": {
              "name": "Doctores y licenciados en ciencias políticas y sociales",
              "href": "https://api.euskadi.eus/procurements/companies/economic-activities/2.776"
            }
          }
        },
        {
          "id": "2.777",
          "name": "Especialistas en asuntos de personal y análisis profesional",
          "_links": {
            "self": {
              "name": "Especialistas en asuntos de personal y análisis profesional",
              "href": "https://api.euskadi.eus/procurements/companies/economic-activities/2.777"
            }
          }
        }
      ],
      "certificateStartDate": "2025-10-06",
      "certificateEndDate": "2026-04-02",
      "object": "DOCTORES Y LICENCIADOS EN CIENCIAS POLÍTICAS Y SOCIALES. ESPECIALISTAS EN ASUNTOS DE PERSONAL Y ANÁLISIS PROFESIONAL.",
      "mainEntityOfPage": "https://www.contratacion.euskadi.eus/webkpe00-kperoc/es/ac71aBusquedaRegistrosWar/empresa/10368",
      "_links": {
        "self": {
          "name": "AMAGOIA ALEMÁN MÉNDEZ",
          "href": "https://api.euskadi.eus/procurements/companies/10368"
        }
      }
    },
    {
      "name": "LABORATORIOS RUBIÓ, S.A.",
      "registrationNumber": "07045",
      "identificationNumber": "A08222465",
      "address": "C/ INDUSTRIA, 29 (POLÍGONO INDUSTRIAL COMTE SERT)",
      "location": {
        "postalCode": "08755",
        "municipality": "Castellbisbal",
        "county": "Barcelona",
        "municipalityId": "054",
        "countyId": "08"
      },
      "economicActivities": [
        {
          "id": "1.254.2",
          "name": "Fabricación de especialidades y otros productos farmacéuticos",
          "_links": {
            "self": {
              "name": "Fabricación de especialidades y otros productos farmacéuticos",
              "href": "https://api.euskadi.eus/procurements/companies/economic-activities/1.254.2"
            }
          }
        },
        {
          "id": "1.614.1",
          "name": "Venta al por mayor de productos farmacéuticos y medicamentos",
          "_links": {
            "self": {
              "name": "Venta al por mayor de productos farmacéuticos y medicamentos",
              "href": "https://api.euskadi.eus/procurements/companies/economic-activities/1.614.1"
            }
          }
        }
      ],
      "certificateStartDate": "2025-10-06",
      "certificateEndDate": "2026-04-06",
      "object": "LA ELABORACIÓN, TRANSFORMACIÓN, VENTA Y COMERCIALIZACIÓN DE PRODUCTOS QUÍMICOS, FARMACÉUTICOS, BIOQUÍMICOS, DIETÉTICOS, AROMÁTICOS, ALIMENTICIOS, DE VETERINARIA Y DE COSMÉTICOS Y PERFUMERÍA PROPIOS Y DE TERCEROS; LA ELABORACIÓN, TRANSFORMACIÓN, VENTA Y COMERCIALIZACIÓN DE MATERIAS PRIMAS, PROPIAS Y DE TERCEROS, DE UTILIDAD PARA LAS INDUSTRIAS QUE ELABOREN O TRANSFORMEN DICHOS PRODUCTOS O LOS QUE SEAN DE LOS MISMOS, COMPLEMENTARIOS O SIMILARES. LA FABRICACIÓN, VENTA Y COMERCIALIZACIÓN DE MATERIAL MÉDICO QUIRÚRGICO Y APARATOS ORTOPÉDICOS",
      "mainEntityOfPage": "https://www.contratacion.euskadi.eus/webkpe00-kperoc/es/ac71aBusquedaRegistrosWar/empresa/07045",
      "_links": {
        "self": {
          "name": "LABORATORIOS RUBIÓ, S.A.",
          "href": "https://api.euskadi.eus/procurements/companies/07045"
        }
      }
    },
    {
      "name": "MEDICINA ANALÍTICA CONSUMIBLES MAC, S.A.",
      "registrationNumber": "00559",
      "identificationNumber": "A48279723",
      "address": "C/ TXORI HERRI, Nº 46. POLÍGONO BERRETEAGA, P 5, MÓD.: 6-7.",
      "location": {
        "postalCode": "48150",
        "municipality": "Sondika",
        "county": "Bizkaia",
        "municipalityId": "904",
        "countyId": "48"
      },
      "economicActivities": [
        {
          "id": "1.619.2",
          "name": "Venta al por mayor de aparatos e instrumentos médicos, ortopédicos, ópticos",
          "_links": {
            "self": {
              "name": "Venta al por mayor de aparatos e instrumentos médicos, ortopédicos, ópticos",
              "href": "https://api.euskadi.eus/procurements/companies/economic-activities/1.619.2"
            }
          }
        }
      ],
      "certificateStartDate": "2025-10-05",
      "certificateEndDate": "2026-04-05",
      "object": "LA FABRICACIÓN, DISTRIBUCIÓN, REPARACIÓN, COMERCIALIZACIÓN Y VENTA DE APARATOS DE ELECTRO-MEDICINA, RAYOS X, ESTERILIZACIÓN, MATERIAL MÉDICO-QUIRÚRGICO Y DE LABORATORIOS, Y VETERINARIO, MATERIAL DESECHABLE Y MOBILIARIO CLÍNICO, MATERIAL DE ESTÉTICA Y ACUPUNTURA",
      "mainEntityOfPage": "https://www.contratacion.euskadi.eus/webkpe00-kperoc/es/ac71aBusquedaRegistrosWar/empresa/00559",
      "_links": {
        "self": {
          "name": "MEDICINA ANALÍTICA CONSUMIBLES MAC, S.A.",
          "href": "https://api.euskadi.eus/procurements/companies/00559"
        }
      }
    },
    {
      "name": "ARQUIMART MADRID, S.L.",
      "registrationNumber": "09100",
      "identificationNumber": "B88032412",
      "address": "MALDONADO, 31 1ºA",
      "location": {
        "postalCode": "28006",
        "municipality": "Madrid",
        "county": "Madrid",
        "municipalityId": "079",
        "countyId": "28"
      },
      "economicActivities": [
        {
          "id": "1.501.1",
          "name": "Construcción completa, reparación y conservación de edificaciones",
          "_links": {
            "self": {
              "name": "Construcción completa, reparación y conservación de edificaciones",
              "href": "https://api.euskadi.eus/procurements/companies/economic-activities/1.501.1"
            }
          }
        }
      ],
      "certificateStartDate": "2025-10-05",
      "certificateEndDate": "2026-04-05",
      "object": "EL DISEÑO Y LA REALIZACIÓN DE OBRAS CIVILES, LA FABRICACIÓN, COMPRA-VENTA E INSTALACIÓN DE DIVISIONES DE INTERIORES, MUEBLES Y ELEMENTOS EN GENERAL PARA EQUIPAMIENTO DE EDIFICIOS Y LOCALES DE CUALQUIER USO.",
      "mainEntityOfPage": "https://www.contratacion.euskadi.eus/webkpe00-kperoc/es/ac71aBusquedaRegistrosWar/empresa/09100",
      "_links": {
        "self": {
          "name": "ARQUIMART MADRID, S.L.",
          "href": "https://api.euskadi.eus/procurements/companies/09100"
        }
      }
    },
    {
      "name": "ASIALINK CONSULTING, S.L.",
      "registrationNumber": "09885",
      "identificationNumber": "B84614973",
      "address": "PASEO DEL OLMO, 30",
      "location": {
        "postalCode": "28012",
        "municipality": "Madrid",
        "county": "Madrid",
        "municipalityId": "079",
        "countyId": "28"
      },
      "economicActivities": [
        {
          "id": "1.611",
          "name": "Venta al por mayor de toda clase de mercancías",
          "_links": {
            "self": {
              "name": "Venta al por mayor de toda clase de mercancías",
              "href": "https://api.euskadi.eus/procurements/companies/economic-activities/1.611"
            }
          }
        },
        {
          "id": "1.612.6",
          "name": "Venta al por mayor de bebidas y tabaco",
          "_links": {
            "self": {
              "name": "Venta al por mayor de bebidas y tabaco",
              "href": "https://api.euskadi.eus/procurements/companies/economic-activities/1.612.6"
            }
          }
        },
        {
          "id": "1.645",
          "name": "Venta al por menor de vinos y bebidas de todas clases",
          "_links": {
            "self": {
              "name": "Venta al por menor de vinos y bebidas de todas clases",
              "href": "https://api.euskadi.eus/procurements/companies/economic-activities/1.645"
            }
          }
        },
        {
          "id": "1.755",
          "name": "Agencias de viajes",
          "_links": {
            "self": {
              "name": "Agencias de viajes",
              "href": "https://api.euskadi.eus/procurements/companies/economic-activities/1.755"
            }
          }
        },
        {
          "id": "1.844",
          "name": "Servicios de publicidad, relaciones públicas y similares",
          "_links": {
            "self": {
              "name": "Servicios de publicidad, relaciones públicas y similares",
              "href": "https://api.euskadi.eus/procurements/companies/economic-activities/1.844"
            }
          }
        },
        {
          "id": "1.849.3",
          "name": "Servicios de traducción y similares",
          "_links": {
            "self": {
              "name": "Servicios de traducción y similares",
              "href": "https://api.euskadi.eus/procurements/companies/economic-activities/1.849.3"
            }
          }
        },
        {
          "id": "1.849.9",
          "name": "Otros servicios independientes n.c.o.p",
          "_links": {
            "self": {
              "name": "Otros servicios independientes n.c.o.p",
              "href": "https://api.euskadi.eus/procurements/companies/economic-activities/1.849.9"
            }
          }
        },
        {
          "id": "1.934",
          "name": "Enseñanza fuera de establecimiento permanente",
          "_links": {
            "self": {
              "name": "Enseñanza fuera de establecimiento permanente",
              "href": "https://api.euskadi.eus/procurements/companies/economic-activities/1.934"
            }
          }
        },
        {
          "id": "1.989.2",
          "name": "Servicios de organización de congresos, asambleas y similares",
          "_links": {
            "self": {
              "name": "Servicios de organización de congresos, asambleas y similares",
              "href": "https://api.euskadi.eus/procurements/companies/economic-activities/1.989.2"
            }
          }
        }
      ],
      "certificateStartDate": "2025-10-05",
      "certificateEndDate": "2026-04-05",
      "object": "- LA CONSULTORÍA A TERCEROS DE COMERCIO EXTERIOR E INVERSIONES. - LA PROMOCIÓN DE EMPRESAS E INSTITUCIONES EN EL ÁMBITO TURÍSTICO. - LA ORGANIZACIÓN DE EVENTOS, LOGÍSTICA INTEGRAL Y VIAJES DE EMPRESAS Y PARTICULARES. - EN EL SECTOR LINGÜÍSTICO: LA ENSEÑANZA Y FORMACIÓN NO REGLADA EN INSTITUCIONES PÚBLICAS O PRIVADAS O DOMICILIOS PARTICULARES, DE TODO TIPO DE IDIOMAS; EL DISEÑO Y REALIZACIÓN DE CURSOS DE FORMACIÓN; LA PRESTACIÓN DE SERVICIOS DE TRADUCCIÓN E INTERPRETACIÓN; LA INTERMEDIACIÓN Y CONTRATACIÓN DE CURSOS EN EL EXTRANJERO Y LA EDICIÓN, COMERCIALIZACIÓN Y DISTRIBUCIÓN DE MATERIAL DIDÁCTICO EN CUALQUIER SOPORTE. - MARKETING Y COMUNICACIONES.",
      "mainEntityOfPage": "https://www.contratacion.euskadi.eus/webkpe00-kperoc/es/ac71aBusquedaRegistrosWar/empresa/09885",
      "_links": {
        "self": {
          "name": "ASIALINK CONSULTING, S.L.",
          "href": "https://api.euskadi.eus/procurements/companies/09885"
        }
      }
    },
    {
      "name": "ONTEX ID S.A.",
      "registrationNumber": "06364",
      "identificationNumber": "A60617875",
      "address": "P.I Nicomedes García, C/Fresno s/n",
      "location": {
        "postalCode": "40140",
        "municipality": "Valverde del Majano",
        "county": "Segovia",
        "municipalityId": "216",
        "countyId": "40"
      },
      "economicActivities": [
        {
          "id": "1.614.2",
          "name": "Venta al por mayor de productos de perfumería, droguería, higiene y belleza",
          "_links": {
            "self": {
              "name": "Venta al por mayor de productos de perfumería, droguería, higiene y belleza",
              "href": "https://api.euskadi.eus/procurements/companies/economic-activities/1.614.2"
            }
          }
        }
      ],
      "certificateStartDate": "2025-10-05",
      "certificateEndDate": "2026-04-05",
      "object": "IMPORTACIÓN, PRODUCCIÓN Y VENTA DE TODO ARTÍCULO DE HIGIENE",
      "mainEntityOfPage": "https://www.contratacion.euskadi.eus/webkpe00-kperoc/es/ac71aBusquedaRegistrosWar/empresa/06364",
      "_links": {
        "self": {
          "name": "ONTEX ID S.A.",
          "href": "https://api.euskadi.eus/procurements/companies/06364"
        }
      }
    },
    {
      "name": "FERNANDO MARIA GUTIERREZ HERNANDO",
      "registrationNumber": "09895",
      "identificationNumber": "30559682L",
      "address": "Calle Ciudadela (48002), 2",
      "location": {
        "postalCode": "48002",
        "municipality": "Bilbao",
        "county": "Bizkaia",
        "municipalityId": "020",
        "countyId": "48"
      },
      "economicActivities": [
        {
          "id": "1.614.2",
          "name": "Venta al por mayor de productos de perfumería, droguería, higiene y belleza",
          "_links": {
            "self": {
              "name": "Venta al por mayor de productos de perfumería, droguería, higiene y belleza",
              "href": "https://api.euskadi.eus/procurements/companies/economic-activities/1.614.2"
            }
          }
        }
      ],
      "certificateStartDate": "2025-10-04",
      "certificateEndDate": "2026-04-04",
      "object": "VENTA AL POR MAYOR DE PRODUCTOS DE PERFUMERÍA, DROGUERÍA, HIGIENE Y BELLEZA.",
      "mainEntityOfPage": "https://www.contratacion.euskadi.eus/webkpe00-kperoc/es/ac71aBusquedaRegistrosWar/empresa/09895",
      "_links": {
        "self": {
          "name": "FERNANDO MARIA GUTIERREZ HERNANDO",
          "href": "https://api.euskadi.eus/procurements/companies/09895"
        }
      }
    }
  ]
}