{
  "totalItems": 9042,
  "totalPages": 905,
  "currentPage": 69,
  "itemsOfPage": 10,
  "items": [
    {
      "name": "IBERHOSPITEX, S.A.",
      "registrationNumber": "00415",
      "identificationNumber": "A08630063",
      "address": "C/ AVENIDA DE CATALUNYA, Nº 4.",
      "location": {
        "postalCode": "08185",
        "municipality": "Lliçà de Vall",
        "county": "Barcelona",
        "municipalityId": "108",
        "countyId": "08"
      },
      "economicActivities": [
        {
          "id": "1.392.1",
          "name": "Fabricación de material médico-quirúrgico",
          "_links": {
            "self": {
              "name": "Fabricación de material médico-quirúrgico",
              "href": "https://api.euskadi.eus/procurements/companies/economic-activities/1.392.1"
            }
          }
        }
      ],
      "certificateStartDate": "2026-01-20",
      "certificateEndDate": "2026-07-07",
      "object": "LA COMPRA Y VENTA, TRANSFORMACIÓN, CONFECCIÓN, COMERCIALIZACIÓN Y SUMINISTRO DE TODA CLASE DE ARTÍCULOS DE UTILIDAD MÉDICA, HOSPITALARIA O SANITARIA DE CUALQUIER ÍNDOLE",
      "mainEntityOfPage": "https://www.contratacion.euskadi.eus/webkpe00-kperoc/es/ac71aBusquedaRegistrosWar/empresa/00415",
      "_links": {
        "self": {
          "name": "IBERHOSPITEX, S.A.",
          "href": "https://api.euskadi.eus/procurements/companies/00415"
        }
      }
    },
    {
      "name": "CARPINTERIA METALICA JESUS PEREZ, S.L.",
      "registrationNumber": "10001",
      "identificationNumber": "B20512992",
      "address": "poligono industrial  itziar parcela Q",
      "location": {
        "postalCode": "20829",
        "municipality": "Deba",
        "county": "Gipuzkoa",
        "municipalityId": "029",
        "countyId": "20"
      },
      "economicActivities": [
        {
          "id": "1.314.1",
          "name": "Carpintería metálica",
          "_links": {
            "self": {
              "name": "Carpintería metálica",
              "href": "https://api.euskadi.eus/procurements/companies/economic-activities/1.314.1"
            }
          }
        },
        {
          "id": "1.861.2",
          "name": "Alquiler de locales industriales y otros alquileres n.c.o.p",
          "_links": {
            "self": {
              "name": "Alquiler de locales industriales y otros alquileres n.c.o.p",
              "href": "https://api.euskadi.eus/procurements/companies/economic-activities/1.861.2"
            }
          }
        },
        {
          "id": "3.039",
          "name": "Otras actividades relacionadas con la música n.c.o.p",
          "_links": {
            "self": {
              "name": "Otras actividades relacionadas con la música n.c.o.p",
              "href": "https://api.euskadi.eus/procurements/companies/economic-activities/3.039"
            }
          }
        }
      ],
      "certificateStartDate": "2026-01-20",
      "certificateEndDate": "2026-07-02",
      "object": "LA REALIZACIÓN DE TRABAJOS PROPIOS DE CARPINTERÍA METÁLICA.",
      "mainEntityOfPage": "https://www.contratacion.euskadi.eus/webkpe00-kperoc/es/ac71aBusquedaRegistrosWar/empresa/10001",
      "_links": {
        "self": {
          "name": "CARPINTERIA METALICA JESUS PEREZ, S.L.",
          "href": "https://api.euskadi.eus/procurements/companies/10001"
        }
      }
    },
    {
      "name": "CRAVAN CONSERVACIÓN Y RESTAURACIÓN, S.C",
      "registrationNumber": "06646",
      "identificationNumber": "J01425958",
      "address": "Cantón de la Soledad nº 5, 1º",
      "location": {
        "postalCode": "01001",
        "municipality": "Vitoria-Gasteiz",
        "county": "Araba/Álava",
        "municipalityId": "059",
        "countyId": "01"
      },
      "economicActivities": [
        {
          "id": "1.691.9",
          "name": "Reparación de otros bienes de consumo n.c.o.p",
          "_links": {
            "self": {
              "name": "Reparación de otros bienes de consumo n.c.o.p",
              "href": "https://api.euskadi.eus/procurements/companies/economic-activities/1.691.9"
            }
          }
        }
      ],
      "certificateStartDate": "2026-01-20",
      "certificateEndDate": "2026-06-30",
      "object": "SERVICIOS DE RESTAURACIÓNDE OBRAS DE ARTE",
      "mainEntityOfPage": "https://www.contratacion.euskadi.eus/webkpe00-kperoc/es/ac71aBusquedaRegistrosWar/empresa/06646",
      "_links": {
        "self": {
          "name": "CRAVAN CONSERVACIÓN Y RESTAURACIÓN, S.C",
          "href": "https://api.euskadi.eus/procurements/companies/06646"
        }
      }
    },
    {
      "name": "EKAIN ABOKATUAK, S.A.",
      "registrationNumber": "01120",
      "identificationNumber": "A01037423",
      "address": "C/ HERRERÍA, Nº 28 - BAJO",
      "location": {
        "postalCode": "01001",
        "municipality": "Vitoria-Gasteiz",
        "county": "Araba/Álava",
        "municipalityId": "059",
        "countyId": "01"
      },
      "economicActivities": [
        {
          "id": "1.843.9",
          "name": "Otros servicios técnicos n.c.o.p",
          "_links": {
            "self": {
              "name": "Otros servicios técnicos n.c.o.p",
              "href": "https://api.euskadi.eus/procurements/companies/economic-activities/1.843.9"
            }
          }
        }
      ],
      "certificateStartDate": "2026-01-20",
      "certificateEndDate": "2026-07-07",
      "object": "LA PRESTACIÓN MULTIDISCIPLINAR DE SERVICIOS TÉCNICOS EN GENERAL Y, EN TODO CASO, SU CORRECTA ARTICULACIÓN JURÍDICA, DIRIGIDOS A CUALQUIER PARTICULAR, GRUPO, ASOCIACIÓN, O ENTE, Y CON ESPECIAL VOCACIÓN DE ASISTENCIA EN TODO LO RELACIONADO CON LA ACTIVIDAD DE LA ADMINISTRACIÓN PÚBLICA EN GENERAL Y LA DE LOS ENTES LOCALES EN PARTICULAR",
      "mainEntityOfPage": "https://www.contratacion.euskadi.eus/webkpe00-kperoc/es/ac71aBusquedaRegistrosWar/empresa/01120",
      "_links": {
        "self": {
          "name": "EKAIN ABOKATUAK, S.A.",
          "href": "https://api.euskadi.eus/procurements/companies/01120"
        }
      }
    },
    {
      "name": "ASOCIACIÓN DE PERMACULTURA KIRIBILORE PERMAKULTURA ELKARTEA",
      "registrationNumber": "06770",
      "identificationNumber": "G01489590",
      "address": "c/ PABLO NERUDA 3 4ºB",
      "location": {
        "postalCode": "01009",
        "municipality": "Vitoria-Gasteiz",
        "county": "Araba/Álava",
        "municipalityId": "059",
        "countyId": "01"
      },
      "economicActivities": [
        {
          "id": "1.355.2",
          "name": "Edición de soportes grabados de sonido, vídeo y de informática",
          "_links": {
            "self": {
              "name": "Edición de soportes grabados de sonido, vídeo y de informática",
              "href": "https://api.euskadi.eus/procurements/companies/economic-activities/1.355.2"
            }
          }
        },
        {
          "id": "1.911",
          "name": "Servicios agrícolas y ganaderos",
          "_links": {
            "self": {
              "name": "Servicios agrícolas y ganaderos",
              "href": "https://api.euskadi.eus/procurements/companies/economic-activities/1.911"
            }
          }
        },
        {
          "id": "1.933.9",
          "name": "Otras actividades de enseñanza tales como idiomas, mecanografía",
          "_links": {
            "self": {
              "name": "Otras actividades de enseñanza tales como idiomas, mecanografía",
              "href": "https://api.euskadi.eus/procurements/companies/economic-activities/1.933.9"
            }
          }
        },
        {
          "id": "1.965.4",
          "name": "Empresas de espectáculos",
          "_links": {
            "self": {
              "name": "Empresas de espectáculos",
              "href": "https://api.euskadi.eus/procurements/companies/economic-activities/1.965.4"
            }
          }
        },
        {
          "id": "1.999",
          "name": "Otros servicios n.c.o.p",
          "_links": {
            "self": {
              "name": "Otros servicios n.c.o.p",
              "href": "https://api.euskadi.eus/procurements/companies/economic-activities/1.999"
            }
          }
        }
      ],
      "certificateStartDate": "2026-01-20",
      "certificateEndDate": "2026-06-27",
      "object": "-DAR A CONOCER LA PERMACULTURA, TENIENDO EN CUENTA SUS TRES PRINCIPIOS  BÁSICOS: EL CUIDADO DE LA TIERRA, EL CUIDADO DE LAS PERSONAS Y EL REPARTO DE LOS RECURSOS Y LAS CAPACIDADES. -FOMENTAR EL CUIDADO DE LA TIERRA, CUIDANDO DE TODAS LAS COSAS VIVIENTES Y NO VIVIENTES: SUELOS, ESPECIES Y SUS VARIEDADES, ATMOSFERA, BOSQUES, MICROHÁBITATS, ANIMALES Y AGUAS. -PROMOVER EL CUIDADO DE LA GENTE, POTENCIANDO LA AYUDA MUTUA ENTRE LA GENTE Y LAS COMUNIDADES Y TENIENDO EN CUENTA LAS NECESIDADES BÁSICAS DE ALIMENTO, ABRIGO, EDUCACIÓN, TRABAJO SATISFACTORIO, CONTACTO HUMANO Y CONVIVENCIA. -FOMENTAR EL REPARTO EQUITATIVO DE LOS RECURSOS Y DE LAS CAPACIDADES COMO EL TIEMPO, EL DINERO Y LA ENERGÍA QUE AYUDEN A CONSEGUIR LOS DOS ANTERIORES OBJETIVOS Y AYUDEN TAMBIÉN A EXTENDER LAS INFLUENCIAS Y ENERGÍAS EN AYUDAR A OTROS A LOGRAR LO MISMO. -POTENCIAR EL CONOCIMIENTO Y LA PRÁCTICA DE  LA PERMACULTURA, SIENDO CONSCIENTES DE QUE, AL SER UN CONCEPTO HOLÍSTICO, DEBERÍA AUNAR LOS SIGUIENTES DOMINIOS DE ACCIÓN PERMACULTURAL: MANEJO DE LA TIERRA Y LA NATURALEZA, AMBIENTES CONSTRUIDOS, HERRAMIENTAS Y TECNOLOGÍA, EDUCACIÓN Y CULTURA, BIENESTAR FÍSICO Y ESPIRITUAL, ECONOMÍA Y FINANZAS, TENENCIA DE LA TIERRA Y GOBIERNO COMUNITARIO. -PROMOVER LA CULTURA SOSTENIBLE PARA DISEÑAR, ESTABLECER, MANEJAR Y MEJORAR TODOS LOS ESFUERZOS QUE LOS INDIVIDUOS, LOS HOGARES Y LAS COMUNIDADES REALIZAN HACIA UN FUTURO SOSTENIBLE",
      "mainEntityOfPage": "https://www.contratacion.euskadi.eus/webkpe00-kperoc/es/ac71aBusquedaRegistrosWar/empresa/06770",
      "_links": {
        "self": {
          "name": "ASOCIACIÓN DE PERMACULTURA KIRIBILORE PERMAKULTURA ELKARTEA",
          "href": "https://api.euskadi.eus/procurements/companies/06770"
        }
      }
    },
    {
      "name": "WORKÖHOLICS, S.L.",
      "registrationNumber": "04774",
      "identificationNumber": "B95569356",
      "address": "PLAZA DE LA CANTERA, 5  PLANTA 4  MODULO 10",
      "location": {
        "postalCode": "48000",
        "municipality": "Bilbao",
        "county": "Bizkaia",
        "municipalityId": "020",
        "countyId": "48"
      },
      "economicActivities": [
        {
          "id": "1.844",
          "name": "Servicios de publicidad, relaciones públicas y similares",
          "_links": {
            "self": {
              "name": "Servicios de publicidad, relaciones públicas y similares",
              "href": "https://api.euskadi.eus/procurements/companies/economic-activities/1.844"
            }
          }
        }
      ],
      "certificateStartDate": "2026-01-20",
      "certificateEndDate": "2026-06-26",
      "object": "-LA PRESTACIÓN DE TODA CLASE DE SERVICIOS DE COMUNICACIÓN ORIENTADOS A LA PROMOCIÓN DE LAS ENTIDADES TANTO PÚBLICAS COMO PRIVADAS ASÍ COMO SUS PRODUCTOS Y/O SERVICIOS. -LA CREACIÓN, PRODUCCIÓN, EDICIÓN Y GESTIÓN DE PIEZAS DE COMUNICACIÓN EN LAS DIFERENTES MODALIDADES YA SEAN IMPRESAS, BAJO SOPORTE WEB O AUDIOVISUALES, ASÍ COMO LA PRESTACIÓN DE SERVICIOS PROFESIONALES A TERCEROS. -LAS ACTIVIDADES PROPIAS DE UNA PRODUCTORA AUDIOVISUAL ,QUE COMPRENDEN: LA REALIZACIÓN, PRODUCCIÓN, EDICIÓN Y COMERCIALIZACIÓN DE CUALQUIER TIPO DE PRODUCTO AUDIOVISUAL",
      "mainEntityOfPage": "https://www.contratacion.euskadi.eus/webkpe00-kperoc/es/ac71aBusquedaRegistrosWar/empresa/04774",
      "_links": {
        "self": {
          "name": "WORKÖHOLICS, S.L.",
          "href": "https://api.euskadi.eus/procurements/companies/04774"
        }
      }
    },
    {
      "name": "INTENANCE CAPITAL, S.L.",
      "registrationNumber": "05128",
      "identificationNumber": "B95575429",
      "address": "Parque Tecnológico de Bizkaia. C/ Astondo Bidea. Edif.612",
      "location": {
        "postalCode": "48160",
        "municipality": "Derio",
        "county": "Bizkaia",
        "municipalityId": "901",
        "countyId": "48"
      },
      "economicActivities": [
        {
          "id": "1.504.11",
          "name": "Instalaciones eléctricas en general, redes telegráficas, telefonía, tv, etc",
          "_links": {
            "self": {
              "name": "Instalaciones eléctricas en general, redes telegráficas, telefonía, tv, etc",
              "href": "https://api.euskadi.eus/procurements/companies/economic-activities/1.504.11"
            }
          }
        },
        {
          "id": "1.692",
          "name": "Reparación de maquinaria industrial",
          "_links": {
            "self": {
              "name": "Reparación de maquinaria industrial",
              "href": "https://api.euskadi.eus/procurements/companies/economic-activities/1.692"
            }
          }
        },
        {
          "id": "1.843.1",
          "name": "Servicios técnicos de ingeniería",
          "_links": {
            "self": {
              "name": "Servicios técnicos de ingeniería",
              "href": "https://api.euskadi.eus/procurements/companies/economic-activities/1.843.1"
            }
          }
        }
      ],
      "certificateStartDate": "2026-01-20",
      "certificateEndDate": "2026-07-04",
      "object": "-EL ESTUDIO, CONSULTORÍA, PROYECTOS, SERVICIOS DE ASISTENCIA TÉCNIA, MANTENIMIENTO, REPARACIÓN Y CONSERVACIÓN DE TUBERÍAS Y CONDUCTORES, DE VÍAS, EDIFICIOS Y DEMÁS INMUEBLES, DE APARATOS E INSTALACIONES ELÉCTRICAS Y ELECTRÓNICAS, DE MAQUINARIA INDUSTRIAL Y DE INSTALACIONES INDUSTRIALES EN GENERAL",
      "mainEntityOfPage": "https://www.contratacion.euskadi.eus/webkpe00-kperoc/es/ac71aBusquedaRegistrosWar/empresa/05128",
      "_links": {
        "self": {
          "name": "INTENANCE CAPITAL, S.L.",
          "href": "https://api.euskadi.eus/procurements/companies/05128"
        }
      }
    },
    {
      "name": "KULTUR SOLEIL S.COOP.PEQUEÑA",
      "registrationNumber": "06917",
      "identificationNumber": "F01542216",
      "address": "Cerro de Estibaliz s/n",
      "location": {
        "postalCode": "01193",
        "municipality": "Vitoria-Gasteiz",
        "county": "Araba/Álava",
        "municipalityId": "059",
        "countyId": "01"
      },
      "economicActivities": [
        {
          "id": "1.476.1",
          "name": "Edición de libros",
          "_links": {
            "self": {
              "name": "Edición de libros",
              "href": "https://api.euskadi.eus/procurements/companies/economic-activities/1.476.1"
            }
          }
        },
        {
          "id": "1.966.9",
          "name": "Otros servicios culturales n.c.o.p",
          "_links": {
            "self": {
              "name": "Otros servicios culturales n.c.o.p",
              "href": "https://api.euskadi.eus/procurements/companies/economic-activities/1.966.9"
            }
          }
        },
        {
          "id": "1.989.2",
          "name": "Servicios de organización de congresos, asambleas y similares",
          "_links": {
            "self": {
              "name": "Servicios de organización de congresos, asambleas y similares",
              "href": "https://api.euskadi.eus/procurements/companies/economic-activities/1.989.2"
            }
          }
        }
      ],
      "certificateStartDate": "2026-01-20",
      "certificateEndDate": "2026-07-07",
      "object": "LA CREACIÓN Y GESTIÓN DE DIVERSAS ACTIVIDADES Y ACCIONES CULTURALES. ENTRE ELLAS SE ENCUENTRAN, LA EDICIÓN, PUBLICACIÓN Y DISTRIBUCIÓN DE LIBROS CON LOS SELLOS SANS SOLEIL EDICIONES Y ÁLAVA MEDIEVAL EDICIONES; LA FORMACIÓN MEDIANTE CURSOS PRESENCIALES Y A DISTANCIA DE TEMÁTICAS VARIADAS VINCULADAS A LA CULTURA Y EL PATRIMONIO; EL ESTUDIO, LA INVESTIGACIÓN Y LA DIVULGACIÓN DEL PATRIMONIO POR MEDIO DE INICIATIVAS TURÍSTICAS Y CULTURALES DESARROLLADAS POR ALAVA MEDIEVAL/ERDI AROKO ARABA; LA ASISTENCIA TÉCNICA Y/O GESTIÓN DE PROYECTOS Y SERVICIOS DE CARÁCTER TURÍSTICO Y/O CULTURAL; LA GESTIÓN, DIRECCIÓN Y EXPLOTACIÓN DE NEGOCIOS DE HOSTELERÍA; LA COORDINACIÓN, GESTIÓN Y DESARROLLO DE EVENTOS FESTIVOS COMO FERIAS Y MERCADOS; LA REALIZACIÓN DE SERVICIOS DE DISEÑO DE MARCA, DISEÑO EDITORIAL Y OTROS SERVICIOS DE DISEÑO GRÁFICO.",
      "mainEntityOfPage": "https://www.contratacion.euskadi.eus/webkpe00-kperoc/es/ac71aBusquedaRegistrosWar/empresa/06917",
      "_links": {
        "self": {
          "name": "KULTUR SOLEIL S.COOP.PEQUEÑA",
          "href": "https://api.euskadi.eus/procurements/companies/06917"
        }
      }
    },
    {
      "name": "KLIDAT SERVICIOS DE CLIENTE Y CIUDAD, S.L.",
      "registrationNumber": "06698",
      "identificationNumber": "B75201459",
      "address": "TXALAKA PASEALEKUA",
      "location": {
        "postalCode": "20115",
        "municipality": "Astigarraga",
        "county": "Gipuzkoa",
        "municipalityId": "903",
        "countyId": "20"
      },
      "economicActivities": [
        {
          "id": "1.504.3",
          "name": "Instalaciones de frío, calor y acondicionamiento de aire",
          "_links": {
            "self": {
              "name": "Instalaciones de frío, calor y acondicionamiento de aire",
              "href": "https://api.euskadi.eus/procurements/companies/economic-activities/1.504.3"
            }
          }
        }
      ],
      "certificateStartDate": "2026-01-20",
      "certificateEndDate": "2026-07-07",
      "object": "-EL SUMINISTRO E INSTALACIÓN, LECTURA, MANTENIMIENTO Y ALQUILER DE CONTADORES DE AGUA FRÍA Y CALIENTE. -LA FACTURACIÓN DE CONSUMOS ASÍ COMO SU REPARTO Y EL ASESORAMIENTO INTEGRAL. - INSPECCIÓN DE ACTIVIDADES Y GESTIÓN DE DATOS. - SERVICIOS DE ASESORAMIENTO Y GESTIÓN DE DATOS RELACIONADOS CON EL DESARROLLO DE LAS CIUDADES INTELIGENTES",
      "mainEntityOfPage": "https://www.contratacion.euskadi.eus/webkpe00-kperoc/es/ac71aBusquedaRegistrosWar/empresa/06698",
      "_links": {
        "self": {
          "name": "KLIDAT SERVICIOS DE CLIENTE Y CIUDAD, S.L.",
          "href": "https://api.euskadi.eus/procurements/companies/06698"
        }
      }
    },
    {
      "name": "INARAQUA, S.L.",
      "registrationNumber": "09780",
      "identificationNumber": "B55496491",
      "address": "POLIGONO ATXUKARRO 2, 1º B ",
      "location": {
        "postalCode": "48480",
        "municipality": "Arrigorriaga",
        "county": "Bizkaia",
        "municipalityId": "011",
        "countyId": "48"
      },
      "economicActivities": [
        {
          "id": "1.501.2",
          "name": "Construcción completa, reparación y conservación obras civiles",
          "_links": {
            "self": {
              "name": "Construcción completa, reparación y conservación obras civiles",
              "href": "https://api.euskadi.eus/procurements/companies/economic-activities/1.501.2"
            }
          }
        }
      ],
      "certificateStartDate": "2026-01-20",
      "certificateEndDate": "2026-07-20",
      "classification": [
        {
          "id": "O",
          "name": "Obras",
          "groups": [
            {
              "id": "E",
              "name": "HIDRAULICAS",
              "subgroups": [
                {
                  "id": "01",
                  "name": "ABASTECIMIENTOS Y SANEAMIENTOS",
                  "categories": [
                    {
                      "id": "1",
                      "name": "Desde 0 Hasta 150.000",
                      "_links": {
                        "self": {
                          "name": "Desde 0 Hasta 150.000",
                          "href": "https://api.euskadi.eus/procurements/companies/types/O/categories/1"
                        }
                      }
                    }
                  ],
                  "_links": {
                    "self": {
                      "name": "ABASTECIMIENTOS Y SANEAMIENTOS",
                      "href": "https://api.euskadi.eus/procurements/companies/types/O/groups/E/subgroups/01"
                    }
                  }
                },
                {
                  "id": "04",
                  "name": "ACEQUIAS Y DESAGÜES",
                  "categories": [
                    {
                      "id": "1",
                      "name": "Desde 0 Hasta 150.000",
                      "_links": {
                        "self": {
                          "name": "Desde 0 Hasta 150.000",
                          "href": "https://api.euskadi.eus/procurements/companies/types/O/categories/1"
                        }
                      }
                    }
                  ],
                  "_links": {
                    "self": {
                      "name": "ACEQUIAS Y DESAGÜES",
                      "href": "https://api.euskadi.eus/procurements/companies/types/O/groups/E/subgroups/04"
                    }
                  }
                },
                {
                  "id": "05",
                  "name": "DEFENSAS DE MARGENES Y ENCAUZAMIENTOS",
                  "categories": [
                    {
                      "id": "1",
                      "name": "Desde 0 Hasta 150.000",
                      "_links": {
                        "self": {
                          "name": "Desde 0 Hasta 150.000",
                          "href": "https://api.euskadi.eus/procurements/companies/types/O/categories/1"
                        }
                      }
                    }
                  ],
                  "_links": {
                    "self": {
                      "name": "DEFENSAS DE MARGENES Y ENCAUZAMIENTOS",
                      "href": "https://api.euskadi.eus/procurements/companies/types/O/groups/E/subgroups/05"
                    }
                  }
                },
                {
                  "id": "07",
                  "name": "OBRAS HIDRAULICAS SIN CUALIFICACION ESPECIFICA",
                  "categories": [
                    {
                      "id": "1",
                      "name": "Desde 0 Hasta 150.000",
                      "_links": {
                        "self": {
                          "name": "Desde 0 Hasta 150.000",
                          "href": "https://api.euskadi.eus/procurements/companies/types/O/categories/1"
                        }
                      }
                    }
                  ],
                  "_links": {
                    "self": {
                      "name": "OBRAS HIDRAULICAS SIN CUALIFICACION ESPECIFICA",
                      "href": "https://api.euskadi.eus/procurements/companies/types/O/groups/E/subgroups/07"
                    }
                  }
                }
              ],
              "_links": {
                "self": {
                  "name": "HIDRAULICAS",
                  "href": "https://api.euskadi.eus/procurements/companies/types/O/groups/E"
                }
              }
            }
          ],
          "_links": {
            "self": {
              "name": "Obras",
              "href": "https://api.euskadi.eus/procurements/companies/types/O"
            }
          }
        }
      ],
      "object": "- CONSTRUCCIONES Y SERVICIOS DE EXPLOTACIÓN DE OBRAS HIDRÁULICAS Y OBRA CIVIL (CNAE 4291) QUE CORRESPONDE A LA ACTIVIDAD PRINCIPAL DE LA SOCIEDAD. - LA CAPTACIÓN, DEPURACIÓN Y DISTRIBUCIÓN DE AGUA (CNAE 3600).",
      "mainEntityOfPage": "https://www.contratacion.euskadi.eus/webkpe00-kperoc/es/ac71aBusquedaRegistrosWar/empresa/09780",
      "_links": {
        "self": {
          "name": "INARAQUA, S.L.",
          "href": "https://api.euskadi.eus/procurements/companies/09780"
        }
      }
    }
  ]
}