{
  "totalItems": 9042,
  "totalPages": 905,
  "currentPage": 727,
  "itemsOfPage": 10,
  "items": [
    {
      "name": "GRUPO EYERRE, S.L.",
      "registrationNumber": "01782",
      "identificationNumber": "B48436125",
      "address": "C/ JUAN DE GARAY, Nº 3- ENTREPLANTA.",
      "location": {
        "postalCode": "48003",
        "municipality": "Bilbao",
        "county": "Bizkaia",
        "municipalityId": "020",
        "countyId": "48"
      },
      "economicActivities": [
        {
          "id": "1.501.1",
          "name": "Construcción completa, reparación y conservación de edificaciones",
          "_links": {
            "self": {
              "name": "Construcción completa, reparación y conservación de edificaciones",
              "href": "https://api.euskadi.eus/procurements/companies/economic-activities/1.501.1"
            }
          }
        }
      ],
      "certificateStartDate": "2010-06-18",
      "certificateEndDate": "2010-12-07",
      "object": "EL PROYECTO, DIRECCIÓN, CONTRATACIÓN, SUBCONTRATACIÓN, DECORACIÓN, PROMOCIÓN Y COORDINACIÓN DE OBRAS DE CONSTRUCCIÓN, TANTO DE REFORMA COMO DE NUEVA PLANTA, DE TODO TIPO DE EDIFICACIONES, ASÍ COMO LA REPRESENTACIÓN Y COMERCIALIZACIÓN DE MATERIALES Y ELEMENTOS DE CONSTRUCCIÓN",
      "mainEntityOfPage": "https://www.contratacion.euskadi.eus/webkpe00-kperoc/es/ac71aBusquedaRegistrosWar/empresa/01782",
      "_links": {
        "self": {
          "name": "GRUPO EYERRE, S.L.",
          "href": "https://api.euskadi.eus/procurements/companies/01782"
        }
      }
    },
    {
      "name": "BERRILAN 2000 SLP",
      "registrationNumber": "03822",
      "identificationNumber": "B20698866",
      "address": "AVDA. AMA KANDIDA. POL. DENAK, PAB. 204",
      "location": {
        "postalCode": "20140",
        "municipality": "Andoain",
        "county": "Gipuzkoa",
        "municipalityId": "009",
        "countyId": "20"
      },
      "economicActivities": [
        {
          "id": "1.843.2",
          "name": "Servicios técnicos de arquitectura y urbanismo",
          "_links": {
            "self": {
              "name": "Servicios técnicos de arquitectura y urbanismo",
              "href": "https://api.euskadi.eus/procurements/companies/economic-activities/1.843.2"
            }
          }
        }
      ],
      "certificateStartDate": "2010-06-18",
      "certificateEndDate": "2010-11-11",
      "object": "LA ACTIVIDAD PROPIA DE LOS PROFESIONALES DE ARQUITECTURA E INGENIERIA",
      "mainEntityOfPage": "https://www.contratacion.euskadi.eus/webkpe00-kperoc/es/ac71aBusquedaRegistrosWar/empresa/03822",
      "_links": {
        "self": {
          "name": "BERRILAN 2000 SLP",
          "href": "https://api.euskadi.eus/procurements/companies/03822"
        }
      }
    },
    {
      "name": "SERVICIO POSTAL VASCO EUSKORREO, S.L.",
      "registrationNumber": "02627",
      "identificationNumber": "B48456412",
      "address": "KANDELAZUBIETA, 21- BJ",
      "location": {
        "postalCode": "48940",
        "municipality": "Leioa",
        "county": "Bizkaia",
        "municipalityId": "054",
        "countyId": "48"
      },
      "economicActivities": [
        {
          "id": "1.849.5",
          "name": "Servicios de recadería y reparto y manipulación de correspondencia",
          "_links": {
            "self": {
              "name": "Servicios de recadería y reparto y manipulación de correspondencia",
              "href": "https://api.euskadi.eus/procurements/companies/economic-activities/1.849.5"
            }
          }
        }
      ],
      "certificateStartDate": "2010-06-17",
      "certificateEndDate": "2010-11-07",
      "object": "LA PRESTACIÓN DE TODA CLASE DE SERVICIOS RELACIONADOS  CON LA CORRESPONDENCIA, COMO LA PREPARACIÓN DE CARTAS Y SOBRES, ASÍ COMO SU DISTRIBUCIÓN Y REPARTO EN GENERAL ",
      "mainEntityOfPage": "https://www.contratacion.euskadi.eus/webkpe00-kperoc/es/ac71aBusquedaRegistrosWar/empresa/02627",
      "_links": {
        "self": {
          "name": "SERVICIO POSTAL VASCO EUSKORREO, S.L.",
          "href": "https://api.euskadi.eus/procurements/companies/02627"
        }
      }
    },
    {
      "name": "ARKAITZA, S.A.",
      "registrationNumber": "03548",
      "identificationNumber": "A31106875",
      "address": "HAMARRETXETA Nº 4 BAJO",
      "location": {
        "postalCode": "20110",
        "municipality": "Pasaia",
        "county": "Gipuzkoa",
        "municipalityId": "064",
        "countyId": "20"
      },
      "economicActivities": [
        {
          "id": "1.501.2",
          "name": "Construcción completa, reparación y conservación obras civiles",
          "_links": {
            "self": {
              "name": "Construcción completa, reparación y conservación obras civiles",
              "href": "https://api.euskadi.eus/procurements/companies/economic-activities/1.501.2"
            }
          }
        }
      ],
      "certificateStartDate": "2010-06-16",
      "certificateEndDate": "2010-11-24",
      "object": "A) LA EXPLOTACIÓN DE CANTERAS Y MINAS DE TODA CLASE DE MINERALES, SU MANIPULACIÓN , TRANSFORMACIÓN Y COMERCIALIZACIÓN DE DICHOS PRODUCTOS EN ESTADO NATURAL Y TRANFORMADOS, DE OTROS SIMILARES, DE LAS MATERIAS PRIMAS, AUXILIARES, ACCESORIAS Y LOS ELEMENTOS NECESARIOS PARA SU EXTRACCIÓN, TRANSFORMACIÓN Y TRANSPORTE. B) LA FABRICACIÓN DE HORMIGONES Y AGLOMERADO; LA COMERCIALIZACIÓN DE DICHOS PRODUCTOS, SIMILARES, MATERIAS PRIMAS, AUXILIARES, ACCESORIAS Y LOS ELEMENTOS NECESARIOS PARA SU FABRICACIÓN Y TRANSPORTE. C) LA COMERCIALIZACIÓN DE TERRENOS RÚSTICOS Y URBANOS E INMUEBLES, CUALQUIERA QUE SEA SU SITUACIÓN Y DESTINO; LA EJECUCIÓN DE TRABAJOS DE: EXCAVACIÓN, RELLENO, NIVELACIÓN, EXPLANACIÓN, IRRIGACIÓN, SANEAMIENTO Y DEMOLICIÓN. D) LAS ACTIVIDADES Y OPERACIONES DE: PROMOCIÓN URBANICACIÓN, CONSTRUCCIÓN, REFORMA, MATENIMIENTO, CONSERVACIÓN DE EDIFICIOS, VIVIENDAS, CHALETS, LOCALES Y NAVES COMERCIALES E INDUSTRIALES, URBANIZACIONES; LA EXPLOTACIÓN Y COMERCIALIZACIÓN DE LOS MISMOS, DE LAS MATERIAS PRIMAS, AUXILIARES, ACCESORIAS Y LOS ELEMENTOS NECESARIOS PARA SU EJECUCIÓN. E) LA REALIZACIÓN DE TOADA CLASE DE ACTIVIDADES INMOBILIARIAS",
      "mainEntityOfPage": "https://www.contratacion.euskadi.eus/webkpe00-kperoc/es/ac71aBusquedaRegistrosWar/empresa/03548",
      "_links": {
        "self": {
          "name": "ARKAITZA, S.A.",
          "href": "https://api.euskadi.eus/procurements/companies/03548"
        }
      }
    },
    {
      "name": "INGENIERÍA DE OBRAS PÚBLICAS, S.A. (INGESA)",
      "registrationNumber": "00884",
      "identificationNumber": "A20068219",
      "address": "C/ PASEO UBARBURU, nº 100 (NAVE 17). PARCELA 22",
      "location": {
        "postalCode": "20014",
        "municipality": "Donostia / San Sebastián",
        "county": "Gipuzkoa",
        "municipalityId": "069",
        "countyId": "20"
      },
      "economicActivities": [
        {
          "id": "1.501.2",
          "name": "Construcción completa, reparación y conservación obras civiles",
          "_links": {
            "self": {
              "name": "Construcción completa, reparación y conservación obras civiles",
              "href": "https://api.euskadi.eus/procurements/companies/economic-activities/1.501.2"
            }
          }
        }
      ],
      "certificateStartDate": "2010-06-15",
      "certificateEndDate": "2010-10-12",
      "object": "LA REPARACIÓN, CONSERVACIÓN, MANTENIMIENTO Y CONSTRUCCIÓN DE OBRAS PÚBLICAS Y PRIVADAS, DE URBANIZACIONES, EDIFICACIONES E INMUEBLES DE CUALQUIER TIPO, ASÍ COMO EL MANTENIMIENTO Y CONSERVACIÓN DE SERVICIOS E INSTALACIONES DE CUALQUIER ÍNDOLE. LA PROMOCIÓN Y CONSTRUCCIÓN DE EDIFICIOS EN RÉGIMEN DE VIVIENDAS LIBRE O DE PROTECCIÓN OFICIAL Y LA COMPRAVENTA Y ALQUILER DE LOS MISMOS, DE FINCAS RÚSTICAS Y URBANAS Y DE PARCELAS URBANIZADAS O NO. LA PROYECCIÓN DE PARCELACIONES Y DE REPARCELACIONES Y LA CONSTITUCIÓN DE FINCAS URBANAS EN RÉGIMEN DE PROPIEDAD HORIZONTAL. LA TRANSFORMACIÓN DE FINCAS RÚSTICAS EN URBANAS MEDIANTE LA REDACCIÓN DE LOS CORRESPONDIENTES PLANES DE ORDENACIÓN. LA PROMOCIÓN, REALIZACIÓN Y EJECUCIÓN DE PROYECTOS Y OBRAS DE URBANIZACIÓN, DE IMPLANTACIÓN DE CULTIVOS Y DE MEJORAMIENTO DE TRANSFORMACIÓN DE FINCAS. LA REALIZACIÓN DE PROYECTOS, INFORMES Y PERITAJES. LAS DIRECCIONES DE OBRAS. LA COMPRAVENTA Y ALQUILER DE TERRENOS Y EDIFICIOS. LA CONSTRUCCIÓN DE OBRAS INDUSTRIALES, HERRERÍA Y CUALQUIER OTRAS ACTIVIDADES QUE SEAN PREPARATORIAS, SIMILARES, DERIVADAS Y COMPLEMENTARIAS DE CUANTO ANTERIORMENTE SE INDICA. LA ADQUISICIÓN, TENENCIA Y TRANSMISIÓN DE ACCIONES, OBLIGACIONES Y CUALQUIERA OTRA CLASE DE TÍTULOS VALORES. LA PARTICIPACIÓN EN SOCIEDADES, COMUNIDADES O ASOCIACIONES DE CUALQUIER TIPO QUE VENGAN DEDICADOS A LAS ACTIVIDADES AGRÍCOLAS, INMOBILIARIAS O DE NEGOCIACIÓN DE VALORES MOBILIARIOS",
      "mainEntityOfPage": "https://www.contratacion.euskadi.eus/webkpe00-kperoc/es/ac71aBusquedaRegistrosWar/empresa/00884",
      "_links": {
        "self": {
          "name": "INGENIERÍA DE OBRAS PÚBLICAS, S.A. (INGESA)",
          "href": "https://api.euskadi.eus/procurements/companies/00884"
        }
      }
    },
    {
      "name": "MARJU 2006, S.L.",
      "registrationNumber": "03302",
      "identificationNumber": "B95401485",
      "address": "Bº. RALERA, 59",
      "location": {
        "postalCode": "48530",
        "municipality": "Ortuella",
        "county": "Bizkaia",
        "municipalityId": "083",
        "countyId": "48"
      },
      "economicActivities": [
        {
          "id": "1.501.3",
          "name": "Albañilería y pequeños trabajos de construcción en general",
          "_links": {
            "self": {
              "name": "Albañilería y pequeños trabajos de construcción en general",
              "href": "https://api.euskadi.eus/procurements/companies/economic-activities/1.501.3"
            }
          }
        }
      ],
      "certificateStartDate": "2010-06-14",
      "certificateEndDate": "2010-11-21",
      "object": "LA REALIZACIÓN DIRECTA O INDIRECTA DE OBRAS DE ALBAÑILERÍA Y TRABAJOS DE CONSTRUCCIÓN, REPARACIÓN Y CONSERVACICÓN DE OBRAS EN GENERAL, REFORMAS DE PISOS Y LOCALES, ACABADOS DE OBRAS, SOLADOS Y PAVIMENTOS, AISLAMIENTO E IMPERMEABILIZACIÓN, TERMINACIÓN Y DECORACIÓN DE EDIFICIOS Y LOCALES; INSTALACIONES DE TODO TIPO: ELÉCTRICAS, DE FONTANERÍA, DE GASES Y LÍQUIDOS, FRÍO Y CALOR; MONTAJES METÁLICOS E INSTALACIONES; ASÍ COMO OBRAS DE FERRALLADO.\r\nLA COMPRAVENTA Y EL ARRENDAMIENTO  DE TERRENOS E INMUEBLES ",
      "mainEntityOfPage": "https://www.contratacion.euskadi.eus/webkpe00-kperoc/es/ac71aBusquedaRegistrosWar/empresa/03302",
      "_links": {
        "self": {
          "name": "MARJU 2006, S.L.",
          "href": "https://api.euskadi.eus/procurements/companies/03302"
        }
      }
    },
    {
      "name": "AMETSAK ERAIKITZEN, S.L.",
      "registrationNumber": "03922",
      "identificationNumber": "B95465514",
      "address": "ZURBARANBARRI, Nº 25-5º DCHA.",
      "location": {
        "postalCode": "48007",
        "municipality": "Bilbao",
        "county": "Bizkaia",
        "municipalityId": "020",
        "countyId": "48"
      },
      "economicActivities": [
        {
          "id": "1.501.1",
          "name": "Construcción completa, reparación y conservación de edificaciones",
          "_links": {
            "self": {
              "name": "Construcción completa, reparación y conservación de edificaciones",
              "href": "https://api.euskadi.eus/procurements/companies/economic-activities/1.501.1"
            }
          }
        },
        {
          "id": "1.501.2",
          "name": "Construcción completa, reparación y conservación obras civiles",
          "_links": {
            "self": {
              "name": "Construcción completa, reparación y conservación obras civiles",
              "href": "https://api.euskadi.eus/procurements/companies/economic-activities/1.501.2"
            }
          }
        },
        {
          "id": "1.502.2",
          "name": "Consolidación y preparación de terrenos para la construcción de edificaciones",
          "_links": {
            "self": {
              "name": "Consolidación y preparación de terrenos para la construcción de edificaciones",
              "href": "https://api.euskadi.eus/procurements/companies/economic-activities/1.502.2"
            }
          }
        }
      ],
      "certificateStartDate": "2010-06-14",
      "certificateEndDate": "2010-11-10",
      "object": "EL DESARROLLO DE ACTIVIDADES RELACIONADAS CON LA CONSOLIDACIÓ Y PREPARACIÓN DE TERRENOS, DEMOLICIONES, PERFORACIONES, CIMENTACIONES Y PAVIMENTACIONES, PARA LA CONSTRUCCIÓN DE TODO TIPO DE EDIFICACIONES Y OBRAS CIVILES, INCLUIDOS SISTEMAS DE AGOTAMIENTO Y DRAGADOS O PERFORACIONES PARA ALUMBRAMIENTO DE AGUAS, MEDIANTE UTILIZACIÓN DE TODO TIO DE MAQUINARIA PROPIA O AJENA. LA CONSTRUCCIÓN COMPLETA, REPARACIÓN, Y CONSERVACIÓN DE INMUEBLES, YA SEA POR SI MISMA O A TRAVÉS DE TERCEROS, LA COORDINACIÓN DE GREMIOS DEL SECTOR DE CONSTRUCCIÓN, PINTURA, FONTANERÍA, CALEFACCIÓN, NEUMÁTICA, ACONDICIONAMIENTO DE TUBERÍAS DE AIRE, GAS O AGUA, CARPINTERÍA, CUIERTAS O IMPERMEABILIZACIONES PARA OBRAS PUBLICAS O PRIVADAS. LA PRESTACIÓN DE SERVICIOS DE ARRENDAMIENTO DE MAQUINARIA DE CONSTRUCCIÓN Y OBRAS CIVILES, TALES COMO EXCAVADORAS, RETROPALAS MIXTAS, CARGADORAS, MINICARGADORAS, GRÚAS, TANTO A PARTICULARES COMO A ADMINISTRACIONES.",
      "mainEntityOfPage": "https://www.contratacion.euskadi.eus/webkpe00-kperoc/es/ac71aBusquedaRegistrosWar/empresa/03922",
      "_links": {
        "self": {
          "name": "AMETSAK ERAIKITZEN, S.L.",
          "href": "https://api.euskadi.eus/procurements/companies/03922"
        }
      }
    },
    {
      "name": "LANDATA INGENIERÍA, S.A. Unipersonal",
      "registrationNumber": "01096",
      "identificationNumber": "A48239099",
      "address": "C/ GRAN VÍA, Nº 45-1º",
      "location": {
        "postalCode": "48011",
        "municipality": "Bilbao",
        "county": "Bizkaia",
        "municipalityId": "020",
        "countyId": "48"
      },
      "economicActivities": [
        {
          "id": "1.355.1",
          "name": "Fabricación de receptores de radio y televisión y reproducción",
          "_links": {
            "self": {
              "name": "Fabricación de receptores de radio y televisión y reproducción",
              "href": "https://api.euskadi.eus/procurements/companies/economic-activities/1.355.1"
            }
          }
        },
        {
          "id": "1.504.1",
          "name": "Instalaciones eléctricas en general",
          "_links": {
            "self": {
              "name": "Instalaciones eléctricas en general",
              "href": "https://api.euskadi.eus/procurements/companies/economic-activities/1.504.1"
            }
          }
        },
        {
          "id": "1.615.4",
          "name": "Venta al por mayor de aparatos y material radioeléctrico y electrónico",
          "_links": {
            "self": {
              "name": "Venta al por mayor de aparatos y material radioeléctrico y electrónico",
              "href": "https://api.euskadi.eus/procurements/companies/economic-activities/1.615.4"
            }
          }
        },
        {
          "id": "1.617.9",
          "name": "Venta al por mayor interindustrial de otros productos n.c.o.p",
          "_links": {
            "self": {
              "name": "Venta al por mayor interindustrial de otros productos n.c.o.p",
              "href": "https://api.euskadi.eus/procurements/companies/economic-activities/1.617.9"
            }
          }
        },
        {
          "id": "1.843.1",
          "name": "Servicios técnicos de ingeniería",
          "_links": {
            "self": {
              "name": "Servicios técnicos de ingeniería",
              "href": "https://api.euskadi.eus/procurements/companies/economic-activities/1.843.1"
            }
          }
        },
        {
          "id": "1.845",
          "name": "Explotación electrónica por cuenta de terceros",
          "_links": {
            "self": {
              "name": "Explotación electrónica por cuenta de terceros",
              "href": "https://api.euskadi.eus/procurements/companies/economic-activities/1.845"
            }
          }
        }
      ],
      "certificateStartDate": "2010-06-10",
      "certificateEndDate": "2010-11-04",
      "object": "LA PRESTACIÓN DE TODA CLASE DE SERVICIOS RELACIONADOS CON LA INFORMÁTICA Y LAS TELECOMUNICACIONES, TALES COMO INGENIERÍA, CONSULTORÍA Y ASESORAMIENTO, IMPLANTACIÓN E INTEGRACIÓN DE SISTEMAS, PRODUCTOS Y SERVICIOS, DESARROLLO DE SOFTWARE Y FORMACIÓN. TAMBIÉN PODRÁ DEDICARSE AL DISEÑO, FABRICACIÓN, COMERCIALIZACIÓN Y MANTENIMIENTO DE LOS EQUIPOS Y SISTEMAS RELACIONADOS CON LOS SERVICIOS DESCRITOS",
      "mainEntityOfPage": "https://www.contratacion.euskadi.eus/webkpe00-kperoc/es/ac71aBusquedaRegistrosWar/empresa/01096",
      "_links": {
        "self": {
          "name": "LANDATA INGENIERÍA, S.A. Unipersonal",
          "href": "https://api.euskadi.eus/procurements/companies/01096"
        }
      }
    },
    {
      "name": "ECONORTE SONDIKA, S.A.",
      "registrationNumber": "03797",
      "identificationNumber": "A48738488",
      "address": "IBERRE KALEA, 9 - MODULO 1",
      "location": {
        "postalCode": "48150",
        "municipality": "Sondika",
        "county": "Bizkaia",
        "municipalityId": "904",
        "countyId": "48"
      },
      "economicActivities": [
        {
          "id": "1.314.1",
          "name": "Carpintería metálica",
          "_links": {
            "self": {
              "name": "Carpintería metálica",
              "href": "https://api.euskadi.eus/procurements/companies/economic-activities/1.314.1"
            }
          }
        },
        {
          "id": "1.319.1",
          "name": "Mecánica general",
          "_links": {
            "self": {
              "name": "Mecánica general",
              "href": "https://api.euskadi.eus/procurements/companies/economic-activities/1.319.1"
            }
          }
        }
      ],
      "certificateStartDate": "2010-06-10",
      "certificateEndDate": "2010-11-30",
      "object": "LA CARPINTERÍA METÁLICA. FABRICACIÓN DE TODO TIPO DE ESTRUCTURAS METÁLICAS, COMO PUERTAS, VENTANAS, MUEBLES DE COCINA Y BAÑO, ETC., EN ALUMINIO. MECANIZACIÓN DE PIEZAS Y TALLER DE CALDERERÍA. ASÍ COMO LA VENTA AL POR MAYOR O MENOR, INCLUSO IMPORTACIÓN Y EXPORTACIÓN DE DICHOS PRODUCTOS, INCLUSO DE AZULEJOS, BALDOSAS, TERRAZO Y TODO TIPO DE MATERIALES DE CONSTRUCCIÓN",
      "mainEntityOfPage": "https://www.contratacion.euskadi.eus/webkpe00-kperoc/es/ac71aBusquedaRegistrosWar/empresa/03797",
      "_links": {
        "self": {
          "name": "ECONORTE SONDIKA, S.A.",
          "href": "https://api.euskadi.eus/procurements/companies/03797"
        }
      }
    },
    {
      "name": "JOSE COLLADO, S.A.",
      "registrationNumber": "00423",
      "identificationNumber": "A08611444",
      "address": "C/ COSTA RICA, 35-37",
      "location": {
        "postalCode": "08027",
        "municipality": "Barcelona",
        "county": "Barcelona",
        "municipalityId": "019",
        "countyId": "08"
      },
      "economicActivities": [
        {
          "id": "1.252.2",
          "name": "Fabricación de plaguicidas",
          "_links": {
            "self": {
              "name": "Fabricación de plaguicidas",
              "href": "https://api.euskadi.eus/procurements/companies/economic-activities/1.252.2"
            }
          }
        }
      ],
      "certificateStartDate": "2010-06-07",
      "certificateEndDate": "2010-11-20",
      "object": "LA ELABORACION, FABRICACION, DESTILACION Y RECTIFICACION DE ESENCIAS Y SUS APLICACIONES COMO ANTISEPTICOS, BACTERICIDAS E INSECTICIDAS, ASI COMO PROFILACTICOS, PUDIENDO COMERCIALIZAR LOS PRODUCTOS OBTENIDOS; ASÍ COMO REPRESENTACIÓN DE PRODUCTOS Y MARCAS NACIONALES Y EXTRANJEROS RELACIONADOS CON EL OBJETO SOCIAL",
      "mainEntityOfPage": "https://www.contratacion.euskadi.eus/webkpe00-kperoc/es/ac71aBusquedaRegistrosWar/empresa/00423",
      "_links": {
        "self": {
          "name": "JOSE COLLADO, S.A.",
          "href": "https://api.euskadi.eus/procurements/companies/00423"
        }
      }
    }
  ]
}