{
  "totalItems": 9042,
  "totalPages": 905,
  "currentPage": 659,
  "itemsOfPage": 10,
  "items": [
    {
      "name": "IMPRENTA AUSÍN, S.L.",
      "registrationNumber": "05382",
      "identificationNumber": "B48084115",
      "address": "ITURRIZA, 11",
      "location": {
        "postalCode": "48003",
        "municipality": "Bilbao",
        "county": "Bizkaia",
        "municipalityId": "020",
        "countyId": "48"
      },
      "economicActivities": [
        {
          "id": "1.474",
          "name": "Artes gráficas (impresión gráfica)",
          "_links": {
            "self": {
              "name": "Artes gráficas (impresión gráfica)",
              "href": "https://api.euskadi.eus/procurements/companies/economic-activities/1.474"
            }
          }
        }
      ],
      "certificateStartDate": "2015-06-18",
      "certificateEndDate": "2015-10-13",
      "object": "LA COMPOSICIÓN, REPRODUCCIÓN, GRABADO E IMPRESIÓN EN UNO O MÁS COLORES Y POR CUALQUIER SISTEMA, SOBRE PAPEL, CARTÓN, TELA, PLÁSTICO, PELÍCULAS O CUALQUIER OTRA MATERIA, DE TODA CLASE DE CARACTERES, DIBUJOS O IMÁGENES. LA ENCUADERNACIÓN, MANUAL O MECANIZADA, EN CUALQUIERA DE SUS FORMAS. LAS INDUSTRIAS AUXILIARES O COMPLEMENTARIAS, TALES COMO ESTEREOTIPIA, GALVANOITIPIA Y GALVANOPLASTIA, FABRICADOS DE GOMA Y CAUCHO, FABRICACIÓN DE RODILLOS VULCANIZADOS. LOS MANIPULADOS DE PAPEL Y CARTÓN DE TODA CLASE, ASÍ COMO LA FABRICACIÓN DE ENVASES, EMBALAJES Y OTROS TRANSFORMADOS Y COMPLEJOS DE LAS ANTEDICHAS MATERIAS. LA EDICIÓN DE LIBROS, FOLLETOS, FASCÍCULOS, COMICS Y REVISTAS, PERIÓDICAS O NO, QUE NO ESTÉN EXPRESAMENTE INCLUIDAS DE ACUERDO CON LA LEGISLACIÓN VIGENTE EN EL ÁMBITO DE LAS EMPRESAS DE PRENSA. ALQUILER, COMPRA, VENTA E INSTALACIÓN DE INMUEBLES; BIENES MUEBLES, MAQUINARIA Y ELEMENTOS QUE INTERVIENEN EN LAS ACTIVIDADES CITADAS ANTERIORMENTE",
      "mainEntityOfPage": "https://www.contratacion.euskadi.eus/webkpe00-kperoc/es/ac71aBusquedaRegistrosWar/empresa/05382",
      "_links": {
        "self": {
          "name": "IMPRENTA AUSÍN, S.L.",
          "href": "https://api.euskadi.eus/procurements/companies/05382"
        }
      }
    },
    {
      "name": "GRÁFICAS INGUGOM, S.A.",
      "registrationNumber": "00742",
      "identificationNumber": "A48179568",
      "address": "POLÍGONO UGALDEGUREN, I.  PABELLÓN 9 - AVDA. RÍO ASUA",
      "location": {
        "postalCode": "48170",
        "municipality": "Zamudio",
        "county": "Bizkaia",
        "municipalityId": "905",
        "countyId": "48"
      },
      "economicActivities": [
        {
          "id": "1.474",
          "name": "Artes gráficas (impresión gráfica)",
          "_links": {
            "self": {
              "name": "Artes gráficas (impresión gráfica)",
              "href": "https://api.euskadi.eus/procurements/companies/economic-activities/1.474"
            }
          }
        }
      ],
      "certificateStartDate": "2015-06-17",
      "certificateEndDate": "2015-04-03",
      "object": "LA IMPRESIÓN DE TEXTOS O IMÁGENES POR CUALQUIER SISTEMA O PROCEDIMIENTO; REALIZACIÓN DE LIBROS, FOLLETOS, CATÁLOGOS, IMPRESOS, ADHESIVOS, ETIQUETAS, RÓTULOS, CAJAS DE CARTONCILLO Y MICROONDULADO EN TODAS LAS TÉCNICAS GRÁFICAS; ENCUADERNACIÓN Y MANIPULACIÓN DE PAPEL Y CARTÓN EN GENERAL, ASÍ COMO TODOS LOS TRABAJOS RELACIONADOS CON LAS ARTES GRÁFICAS",
      "mainEntityOfPage": "https://www.contratacion.euskadi.eus/webkpe00-kperoc/es/ac71aBusquedaRegistrosWar/empresa/00742",
      "_links": {
        "self": {
          "name": "GRÁFICAS INGUGOM, S.A.",
          "href": "https://api.euskadi.eus/procurements/companies/00742"
        }
      }
    },
    {
      "name": "INGENIEROS ASESORES SA",
      "registrationNumber": "04683",
      "identificationNumber": "A33062407",
      "address": "PARQUE TECNOLOGICO DE ASTURIAS 39",
      "location": {
        "postalCode": "33428",
        "municipality": "Llanera",
        "county": "Asturias",
        "municipalityId": "035",
        "countyId": "33"
      },
      "economicActivities": [
        {
          "id": "1.391.8",
          "name": "Fabricación de accesorios, partes y piezas de instrum. y aparatos de medida",
          "_links": {
            "self": {
              "name": "Fabricación de accesorios, partes y piezas de instrum. y aparatos de medida",
              "href": "https://api.euskadi.eus/procurements/companies/economic-activities/1.391.8"
            }
          }
        },
        {
          "id": "1.654.5",
          "name": "Venta al por menor de toda clase de maquinaría",
          "_links": {
            "self": {
              "name": "Venta al por menor de toda clase de maquinaría",
              "href": "https://api.euskadi.eus/procurements/companies/economic-activities/1.654.5"
            }
          }
        },
        {
          "id": "1.659.2",
          "name": "Venta al por menor de muebles de oficina y máquinas y equipos de oficina",
          "_links": {
            "self": {
              "name": "Venta al por menor de muebles de oficina y máquinas y equipos de oficina",
              "href": "https://api.euskadi.eus/procurements/companies/economic-activities/1.659.2"
            }
          }
        },
        {
          "id": "1.692",
          "name": "Reparación de maquinaria industrial",
          "_links": {
            "self": {
              "name": "Reparación de maquinaria industrial",
              "href": "https://api.euskadi.eus/procurements/companies/economic-activities/1.692"
            }
          }
        },
        {
          "id": "1.843.9",
          "name": "Otros servicios técnicos n.c.o.p",
          "_links": {
            "self": {
              "name": "Otros servicios técnicos n.c.o.p",
              "href": "https://api.euskadi.eus/procurements/companies/economic-activities/1.843.9"
            }
          }
        },
        {
          "id": "1.845",
          "name": "Explotación electrónica por cuenta de terceros",
          "_links": {
            "self": {
              "name": "Explotación electrónica por cuenta de terceros",
              "href": "https://api.euskadi.eus/procurements/companies/economic-activities/1.845"
            }
          }
        }
      ],
      "certificateStartDate": "2015-06-15",
      "certificateEndDate": "2015-11-18",
      "object": "LA REALIZACIÓN DE SERVICIOS MEDIO-AMBIENTALES. DISEÑO, REPRESENTACIÓN, FABRICACIÓN, SUMINISTRO, INSTALACIÓN Y MANTENIMIENTO DE MONITORES E INSTRUMENTACIÓN. SERVICIOS TÉCNICOS A LA CONSTRUCCIÓN",
      "mainEntityOfPage": "https://www.contratacion.euskadi.eus/webkpe00-kperoc/es/ac71aBusquedaRegistrosWar/empresa/04683",
      "_links": {
        "self": {
          "name": "INGENIEROS ASESORES SA",
          "href": "https://api.euskadi.eus/procurements/companies/04683"
        }
      }
    },
    {
      "name": "Ruben de Miguel Arquitectos S.L.P",
      "registrationNumber": "05380",
      "identificationNumber": "B95272597",
      "address": "Muelle de Olabeaga, 7",
      "location": {
        "postalCode": "48013",
        "municipality": "Bilbao",
        "county": "Bizkaia",
        "municipalityId": "020",
        "countyId": "48"
      },
      "economicActivities": [
        {
          "id": "2.411",
          "name": "Arquitectos",
          "_links": {
            "self": {
              "name": "Arquitectos",
              "href": "https://api.euskadi.eus/procurements/companies/economic-activities/2.411"
            }
          }
        }
      ],
      "certificateStartDate": "2015-06-15",
      "certificateEndDate": "2015-11-05",
      "object": "LA ACTIVIDAD PROPIA DEL EJERCICIO DE LA ARQUITECTURA",
      "mainEntityOfPage": "https://www.contratacion.euskadi.eus/webkpe00-kperoc/es/ac71aBusquedaRegistrosWar/empresa/05380",
      "_links": {
        "self": {
          "name": "Ruben de Miguel Arquitectos S.L.P",
          "href": "https://api.euskadi.eus/procurements/companies/05380"
        }
      }
    },
    {
      "name": "SERVICIOS RENOVADOS DE ALIMENTACIÓN, S.A.",
      "registrationNumber": "01749",
      "identificationNumber": "A50372267",
      "address": "C/ CASTILLA, Nº 8 - 10 BAJOS.",
      "location": {
        "postalCode": "50009",
        "municipality": "Zaragoza",
        "county": "Zaragoza",
        "municipalityId": "297",
        "countyId": "50"
      },
      "economicActivities": [
        {
          "id": "1.644.4",
          "name": "Venta al por menor de helados",
          "_links": {
            "self": {
              "name": "Venta al por menor de helados",
              "href": "https://api.euskadi.eus/procurements/companies/economic-activities/1.644.4"
            }
          }
        },
        {
          "id": "1.646.4",
          "name": "Venta al por menor de tabaco en establecimientos mercantiles",
          "_links": {
            "self": {
              "name": "Venta al por menor de tabaco en establecimientos mercantiles",
              "href": "https://api.euskadi.eus/procurements/companies/economic-activities/1.646.4"
            }
          }
        },
        {
          "id": "1.671.5",
          "name": "Restaurante un tenedor",
          "_links": {
            "self": {
              "name": "Restaurante un tenedor",
              "href": "https://api.euskadi.eus/procurements/companies/economic-activities/1.671.5"
            }
          }
        },
        {
          "id": "1.673.2",
          "name": "Otros cafés y bares",
          "_links": {
            "self": {
              "name": "Otros cafés y bares",
              "href": "https://api.euskadi.eus/procurements/companies/economic-activities/1.673.2"
            }
          }
        },
        {
          "id": "1.677.9",
          "name": "Otros servicios de alimentación propios de la restauración",
          "_links": {
            "self": {
              "name": "Otros servicios de alimentación propios de la restauración",
              "href": "https://api.euskadi.eus/procurements/companies/economic-activities/1.677.9"
            }
          }
        }
      ],
      "certificateStartDate": "2015-06-05",
      "certificateEndDate": "2015-11-05",
      "object": "LA PRESTACIÓN DE TODO TIPO DE SERVICIOS RELACIONADOS CON LOS NEGOCIOS DE ALIMENTACIÓN Y HOSTELERÍA, DIRECTAMENTE O A TRAVÉS DE TERCERAS PERSONAS. LA PRESTACIÓN DE TODO TIPO DE SERVICIOS FORMATIVOS Y ACTIVIDADES RECREATIVAS",
      "mainEntityOfPage": "https://www.contratacion.euskadi.eus/webkpe00-kperoc/es/ac71aBusquedaRegistrosWar/empresa/01749",
      "_links": {
        "self": {
          "name": "SERVICIOS RENOVADOS DE ALIMENTACIÓN, S.A.",
          "href": "https://api.euskadi.eus/procurements/companies/01749"
        }
      }
    },
    {
      "name": "FERRETERIA Y SUMINISTROS INDUSTRIALES ONDIZ, S.A.",
      "registrationNumber": "02975",
      "identificationNumber": "A48164222",
      "address": "ASTINTZE, 22",
      "location": {
        "postalCode": "48160",
        "municipality": "Derio",
        "county": "Bizkaia",
        "municipalityId": "901",
        "countyId": "48"
      },
      "economicActivities": [
        {
          "id": "1.615.3",
          "name": "Venta al por mayor de aparatos electrodomésticos y ferretería",
          "_links": {
            "self": {
              "name": "Venta al por mayor de aparatos electrodomésticos y ferretería",
              "href": "https://api.euskadi.eus/procurements/companies/economic-activities/1.615.3"
            }
          }
        },
        {
          "id": "1.652.2",
          "name": "Venta al por menor de productos de droguería y productos para decoración",
          "_links": {
            "self": {
              "name": "Venta al por menor de productos de droguería y productos para decoración",
              "href": "https://api.euskadi.eus/procurements/companies/economic-activities/1.652.2"
            }
          }
        },
        {
          "id": "1.653.3",
          "name": "Venta al por menor de artículos de menaje, ferretería, adorno, regalo",
          "_links": {
            "self": {
              "name": "Venta al por menor de artículos de menaje, ferretería, adorno, regalo",
              "href": "https://api.euskadi.eus/procurements/companies/economic-activities/1.653.3"
            }
          }
        }
      ],
      "certificateStartDate": "2015-06-05",
      "certificateEndDate": "2015-11-18",
      "object": "LA COMPRA, VENTA, ALMACENAJE, TRANSPORTE Y DISTRIBUCIÓN, INSTALACIÓN Y MANTENIMIENTO DE TODA CLASE DE HERRAMIENTAS, MAQUINARIA, EN TODO O POR PIEZAS, ÚTILES Y ENSERES DE TIPO INDUSTRIAL O DOMÉSTICO, BRICOLAGE, CARPINTERÍA METÁLICA Y DE MADERA",
      "mainEntityOfPage": "https://www.contratacion.euskadi.eus/webkpe00-kperoc/es/ac71aBusquedaRegistrosWar/empresa/02975",
      "_links": {
        "self": {
          "name": "FERRETERIA Y SUMINISTROS INDUSTRIALES ONDIZ, S.A.",
          "href": "https://api.euskadi.eus/procurements/companies/02975"
        }
      }
    },
    {
      "name": "DECORSA OBRAS, S.L.",
      "registrationNumber": "05377",
      "identificationNumber": "B95366746",
      "address": "BRUNO MARURICIO ZABALA, 45 LONJA",
      "location": {
        "postalCode": "48003",
        "municipality": "Bilbao",
        "county": "Bizkaia",
        "municipalityId": "020",
        "countyId": "48"
      },
      "economicActivities": [
        {
          "id": "1.501.1",
          "name": "Construcción completa, reparación y conservación de edificaciones",
          "_links": {
            "self": {
              "name": "Construcción completa, reparación y conservación de edificaciones",
              "href": "https://api.euskadi.eus/procurements/companies/economic-activities/1.501.1"
            }
          }
        },
        {
          "id": "1.834",
          "name": "Servicios relativos a la propiedad inmobiliaria e industrial",
          "_links": {
            "self": {
              "name": "Servicios relativos a la propiedad inmobiliaria e industrial",
              "href": "https://api.euskadi.eus/procurements/companies/economic-activities/1.834"
            }
          }
        }
      ],
      "certificateStartDate": "2015-06-03",
      "certificateEndDate": "2015-09-30",
      "object": "LA PROMOCIÓN, CONSTUCCIÓN, COMPRA, VENTA, ARRENDAMIENTO Y COMERCIALIZACIÓN EN GENERAL, DE TODA CLASE DE EDIFICACIONES, TERRENOS, SOLARES, FINCAS RÚSTICAS Y URBANAS; LA EDIFICACIÓN, URBANIZACIÓN, EXCAVACIÓN, CIMENTACIÓN Y DERRIBO, BIEN POR CUENTA PROPIA COMO AJENA, ASÍ COMO LA ENAJENACIÓN, VENTA, ARRIENDO O EXPLOTACIÓN, EN CUALQUIER FORMA, DE TODA CLASE DE INMUEBELS, EDIFICIOS, PISOS, APARTEMENTOS, LOCALES COMERCIALES O INDUSTRIALES, OFICINAS Y OTELES O ESTABLECIMIENTOS DE HOSTELERÍA EN GENERAL. TODA CLASE DE OPERACONES NMOBILIARIAS SOBRE FINCAS RÚSTICAS Y URBANAS, PROMOCIÓN DE CONTRATOS O REALIZACIONES DE PARCELACIONES, URBANIZACIONES, CONSTRUCCIONES Y OBRAS PRIVADAS O PÚBLICAS, LA VENTA, HIPOTECA, ARRENDAMIENTO, TRANSFORMACIÓN, MEJORA, ADMINISTRACIÓN, PUESTA EN EXPLOTACIÓN Y LA EXPLOTACIÓN MISMA, DE FINCAS RÚSTICAS Y URBANAS, LA ORGANIZACIÓN, PROMOCIÓN, ASESORAMEINTO, Y GESTIÓN, EN SU CASO, DE SOCIEDADES, COOPERATIVAS, COMUNIDADES, ENTIDADES, GRUPOS O EMPRESAS PARTICULARES ORIENTADAS A LA CONSTRUCCIÓN O URBANIZACIÓN, LA PLANIFICACIÓN Y ESTUDIO DE MERCADOS EN MATERIA INMOBILIARIA. LA ADMINISTRACIÓN DE FINCAS Y COMUNIDADES, TANTO DE PROPIETARIOS COMO DE AUTOPROMOTORES, ASÍ COMO LA PRESTACIÓN DE TODA CLASE DE SERVICIOS RELACIONADOS CON EL ÁMBITO INMOBILIARIO, ARQUITECTÓNICO, DE TÉCNICA DE LA  CONSTRUCCIÓN E INGENIERÍA EN GENERAL, POR MEDIO DE LA FORMULACIÓN, DESARROLLO Y PUESTA EN MARCHA DE ESTUDIOS, ACTUACIONES Y PROYECTOS. LA GESTIÓN, DIRECCIÓN Y EJECUCIÓN POR CUENTA PROPIA O AJENA, DE TODA CLASE DE CONSTRUCCIONES, INSTALACIONES, REFORMAS, REHABILITACIONES, DECORACIONES Y OBRAS DE RESTAURACIÓN EXTERNA E INTERNA DE ESTRUCTURAS Y REVESTIMIENTOS DE EDIFICIOS Y MONUMENTOS; LIMPIEZA, IMPERMEABIIZACIÓN, TRATAMIENTO, PUNTURA, RECONSTUCCIÓN Y LA IMPLANTACIÓN, CUIDADO Y MANTENIMIENTO DE JARDINES Y EXPLOTACIONES FORESTALES. LA SUPERVISIÓN Y CONTROL DE OBRAS, ASÍ COMO LA COORDINACIÓN DE GREMIOS, EL ASESORAMIENTO Y LA ASISTENCIA TÉCNICA EN TODO CUANTO SE RELACIONE CON EL CAMPO DE LA CONSTRUCCIÓN DE EDIFICIOS Y DE LAS OBRAS PÚBLICAS O CIVILES. LA COMPRA, VENTA DE TODA CLASE DE MATERIALES DE LA CONSTURCCIÓN Y/O DECORATIVOS, ASÍ COMO CUALESQUIERA INSTALACINES, ELEMENTOS O SERVICIOS DE LAS EFIFICACIONES, LA IMPORTACIÓN, EXPORTACIÓN, REPRESENTACIÓN, DISTRIBUCIÓN, EXPLOTACIÓON Y COMERCIALIZAICÓN DE PRODUCTOS ELABORADOS Y SEMIELABORADOS, ARTÍCULOS, BIENES, MERCADERÍAS EQUIPOS INDUSTRIALES, MAQUINARIA, HERRAMIENTAS, UTILLAJES, REPUESTOS Y ACCESORIOS, ALIMENTO DE CONSUMO HUMANO Y ANIMAL. LA ADQUISICIÓN, CESIÓN, TENENCIA, DISFRUTE, ADMINISTRACIÓN, GESTIÓN Y NEGOCIACIÓN EN GENERAL DE VALORES MOBILIARIOS E INMUEBLES; TODO ELLO SIN INCIDIR EN LAS ACTIVIDADES U OPERACIONES REGULADAS POR LA LEGISLACIÓN DE INSTITUCIONES DE INVERSIÓN COLECTIVA Y LEY DE MERCADO DE VALORES",
      "mainEntityOfPage": "https://www.contratacion.euskadi.eus/webkpe00-kperoc/es/ac71aBusquedaRegistrosWar/empresa/05377",
      "_links": {
        "self": {
          "name": "DECORSA OBRAS, S.L.",
          "href": "https://api.euskadi.eus/procurements/companies/05377"
        }
      }
    },
    {
      "name": "GANADOS OLDEKO, S.L.",
      "registrationNumber": "05288",
      "identificationNumber": "B48694699",
      "address": "POL. IND. GRANADA/PARC. M-6",
      "location": {
        "postalCode": "48530",
        "municipality": "Ortuella",
        "county": "Bizkaia",
        "municipalityId": "083",
        "countyId": "48"
      },
      "economicActivities": [
        {
          "id": "1.612.4",
          "name": "Venta al por mayor de carnes, huevos, aves y caza",
          "_links": {
            "self": {
              "name": "Venta al por mayor de carnes, huevos, aves y caza",
              "href": "https://api.euskadi.eus/procurements/companies/economic-activities/1.612.4"
            }
          }
        }
      ],
      "certificateStartDate": "2015-05-27",
      "certificateEndDate": "2015-11-26",
      "object": "LA COMPRA, VENTA, IMPORTACIÓN Y EXPORTACIÓN DE TODA CLASE DE GANADO, AVES Y PRODUCTOS CÁRNICOS, AL POR MAYOR Y AL DETALLE, ASÍ COMO SUS DERIVADOS Y DESPOJOS, SALCHICHAS, HAMBURGUESAS Y MORCILLAS, LA COMPRA, VENTA, IMPORTACIÓN Y EXPORTACIÓN DE CHACINERÍAS SECAS, EMBUTIDOS, JAMONES, FOIE-GRAS Y PATÉS, ASÍ COMO LA ELABORACIÓN, MANIPULACIÓN Y EMPAQUETAMIENTO DE DICHOS PRODUCTOS",
      "mainEntityOfPage": "https://www.contratacion.euskadi.eus/webkpe00-kperoc/es/ac71aBusquedaRegistrosWar/empresa/05288",
      "_links": {
        "self": {
          "name": "GANADOS OLDEKO, S.L.",
          "href": "https://api.euskadi.eus/procurements/companies/05288"
        }
      }
    },
    {
      "name": "ALCIBAR, S.L.",
      "registrationNumber": "05373",
      "identificationNumber": "B20051827",
      "address": "BARRIO TXERLOIE, 5",
      "location": {
        "postalCode": "20720",
        "municipality": "Azkoitia",
        "county": "Gipuzkoa",
        "municipalityId": "017",
        "countyId": "20"
      },
      "economicActivities": [
        {
          "id": "1.654.1",
          "name": "Venta al por menor de vehículos terrestres",
          "_links": {
            "self": {
              "name": "Venta al por menor de vehículos terrestres",
              "href": "https://api.euskadi.eus/procurements/companies/economic-activities/1.654.1"
            }
          }
        },
        {
          "id": "1.691.2",
          "name": "Reparación de vehículos automóviles, bicicletas y otros vehículos",
          "_links": {
            "self": {
              "name": "Reparación de vehículos automóviles, bicicletas y otros vehículos",
              "href": "https://api.euskadi.eus/procurements/companies/economic-activities/1.691.2"
            }
          }
        },
        {
          "id": "1.861.2",
          "name": "Alquiler de locales industriales y otros alquileres n.c.o.p",
          "_links": {
            "self": {
              "name": "Alquiler de locales industriales y otros alquileres n.c.o.p",
              "href": "https://api.euskadi.eus/procurements/companies/economic-activities/1.861.2"
            }
          }
        }
      ],
      "certificateStartDate": "2015-05-25",
      "certificateEndDate": "2015-10-15",
      "object": "LA COMPRA, VENTA, ALQUILER O EXPLOTACIÓN EN CUALQUIER FORMA DE VEHÍCULOS AUTOMÓVILES, NUEVOS O DE SEGUNDA MANO, ASÍ COMO SUS ACCESORIOS Y RECAMBIOS. LA ACTIVIDAD DE TALLER DE REPARACIÓN DE AUTOMÓVILES, MECÁNICA, ELÉCTRICA, CARROCERÍA, TAPICERÍA Y SIMILARES. LA ACTIVIDAD DE AUTOESCUELA. OPERACIONES DE IMPORTACIÓN O EXPORTACIÓN DE MERCANCÍAS. LA REALIZACIÓN DE LOS DENOMINADOS CONTRATOS DE LEASING",
      "mainEntityOfPage": "https://www.contratacion.euskadi.eus/webkpe00-kperoc/es/ac71aBusquedaRegistrosWar/empresa/05373",
      "_links": {
        "self": {
          "name": "ALCIBAR, S.L.",
          "href": "https://api.euskadi.eus/procurements/companies/05373"
        }
      }
    },
    {
      "name": "BTC-ASOCIACIÓN PARA LA INVESTIGACIÓN DE COMBUSTIBLES CONVENCIONALES Y RENOVABLES",
      "registrationNumber": "02728",
      "identificationNumber": "G95242053",
      "address": "ALAMEDA RECALDE Nº 27-5º",
      "location": {
        "postalCode": "48009",
        "municipality": "Bilbao",
        "county": "Bizkaia",
        "municipalityId": "020",
        "countyId": "48"
      },
      "economicActivities": [
        {
          "id": "1.936.9",
          "name": "Otras investigaciones científicas y técnicas n.c.o.p",
          "_links": {
            "self": {
              "name": "Otras investigaciones científicas y técnicas n.c.o.p",
              "href": "https://api.euskadi.eus/procurements/companies/economic-activities/1.936.9"
            }
          }
        }
      ],
      "certificateStartDate": "2015-05-19",
      "certificateEndDate": "2015-10-08",
      "object": "EL FIN DE LA ASOCIACIÓN ES EL DESARROLLO DE ACTIVIDADES TECNOLÓGICAS EN EL SECTOR DE LOS COMBUSTIBLES, LOS PRODUCTOS ENERGÉTICOS, LA PETROQUÍMICA Y EL MEDIO AMBIENTE, Y CONCRETAMENTE LA PRESTACIÓN DE SERVICIOS TECNOLÓGICOS CONSISTENTES EN: COMPROBAR, A SOLICITUD EFECTUADA CON CARÁCTER VOLUNTARIO, QUE LOS PRODUCTOS  CUMPLEN CON LAS NORMAS O ESPECIFICACIONES TÉCNICAS QUE LES SON DE APLICACIÓN; ESTABLECER LA CONFORMIDAD, SOLICITADA CON CARÁCTER VOLUNTARIO, DE UN PRODUCTO, PROCESO O EQUIPO A LOS REQUISITOS DEFINIDOS EN NORMAS, REGLAMENTOS O ESPECIFICACIONES TÉCNICAS. ASIMISMO, LA ASOCIACIÓN PODRÁ LLEVAR A EFECTO PROGRAMAS DE INVESTIGACION Y DESARROLLO TECNOLÓGICO Y PRESTARÁ SERVICIOS TECNOLÓGICOS Y DE ASISTENCIA TÉCNICA, EN TODO CASO ASOCIADOS A LAS ACTIVIDADES PREVISTAS EN EL APARTADO ANTERIOR. SIN PERJUICIO DE LAS ACTIVIDADES DESCRITAS EN LOS APARTADOS ANTERIORES, LA ASOCIACIÓN, PARA EL CUMPLIMIENTO DE SUS FINES PODRÁ: DESARROLLAR ACTIVIDADES ECONÓMICAS DE TODO TIPO, ENCAMINADAS A LA REALIZACIÓN DE SUS FINES O A ALLEGAR RECURSOS CON ESE OBJETIVO; ADQUIRIR Y POSEER BIENES DE TODAS CLASES Y POR CUALQUIER TÍTULO, ASÍ COMO CELEBRAR ACTOS Y CONTRATOS DE TODO GÉNERO; EJERCITAR TODA CLASE DE ACCIONES CONFORME A LAS LEYES O A SUS ESTATUTOS ",
      "mainEntityOfPage": "https://www.contratacion.euskadi.eus/webkpe00-kperoc/es/ac71aBusquedaRegistrosWar/empresa/02728",
      "_links": {
        "self": {
          "name": "BTC-ASOCIACIÓN PARA LA INVESTIGACIÓN DE COMBUSTIBLES CONVENCIONALES Y RENOVABLES",
          "href": "https://api.euskadi.eus/procurements/companies/02728"
        }
      }
    }
  ]
}