{
  "totalItems": 9042,
  "totalPages": 905,
  "currentPage": 437,
  "itemsOfPage": 10,
  "items": [
    {
      "name": "MIGUEL ANGEL RUIZ BARBERO",
      "registrationNumber": "09028",
      "identificationNumber": "14256959H",
      "address": "ANDALUZIA KALEA, 14",
      "location": {
        "postalCode": "48450",
        "municipality": "Etxebarri",
        "county": "Bizkaia",
        "municipalityId": "029",
        "countyId": "48"
      },
      "economicActivities": [
        {
          "id": "1.673.2",
          "name": "Otros cafés y bares",
          "_links": {
            "self": {
              "name": "Otros cafés y bares",
              "href": "https://api.euskadi.eus/procurements/companies/economic-activities/1.673.2"
            }
          }
        }
      ],
      "certificateStartDate": "2023-11-09",
      "certificateEndDate": "2024-05-09",
      "object": "OTROS CAFES Y BARES.",
      "mainEntityOfPage": "https://www.contratacion.euskadi.eus/webkpe00-kperoc/es/ac71aBusquedaRegistrosWar/empresa/09028",
      "_links": {
        "self": {
          "name": "MIGUEL ANGEL RUIZ BARBERO",
          "href": "https://api.euskadi.eus/procurements/companies/09028"
        }
      }
    },
    {
      "name": "OUTSOURCING GROUP DESARROLLO, S.L.",
      "registrationNumber": "08483",
      "identificationNumber": "B47742341",
      "address": "AVENIDA DEL EURO 7 EDIF. C OFICINA 108",
      "location": {
        "postalCode": "47009",
        "municipality": "Valladolid",
        "county": "Valladolid",
        "municipalityId": "186",
        "countyId": "47"
      },
      "economicActivities": [
        {
          "id": "1.843.1",
          "name": "Servicios técnicos de ingeniería",
          "_links": {
            "self": {
              "name": "Servicios técnicos de ingeniería",
              "href": "https://api.euskadi.eus/procurements/companies/economic-activities/1.843.1"
            }
          }
        },
        {
          "id": "1.849.9",
          "name": "Otros servicios independientes n.c.o.p",
          "_links": {
            "self": {
              "name": "Otros servicios independientes n.c.o.p",
              "href": "https://api.euskadi.eus/procurements/companies/economic-activities/1.849.9"
            }
          }
        },
        {
          "id": "1.961.1",
          "name": "Producción de películas cinematográficas (incluso vídeos)",
          "_links": {
            "self": {
              "name": "Producción de películas cinematográficas (incluso vídeos)",
              "href": "https://api.euskadi.eus/procurements/companies/economic-activities/1.961.1"
            }
          }
        }
      ],
      "certificateStartDate": "2023-11-07",
      "certificateEndDate": "2024-05-07",
      "object": "1. CONSTRUCCIÓN, INSTALACIONES Y MANTENIMIENTO. 2. COMERCIO AL POR MAYOR Y AL POR MENOR. DISTRIBUCIÓN COMERCIAL. IMPORTACIÓN Y EXPORTACIÓN. 3. ACTIVIDADES INMOBILIARIAS. 4. ACTIVIDADES PROFESIONALES, MEDIANTE INTERMEDIACIÓN DE PERSONAL TITULADO. 5. INDUSTRIAS MANUFACTURERAS Y TEXTILES. 6. TURISMO, HOSTELERÍA Y RESTAURACIÓN. 7. PRESTACIÓN DE SERVICIOS. ACTIVIDADES DE GESTIÓN Y ADMINISTRACIÓN. SERVICIOS EDUCATIVOS, SANITARIOS, DE OCIO Y ENTRETENIMIENTO. 8. TRANSPORTE Y ALMACENAMIENTO. 9. INFORMACIÓN Y COMUNICACIONES. 10. AGRICULTURA, GANADERÍA Y PESCA. 11. INFORMÁTICA, TELECOMUNICACIONES Y OFIMÁTICA. 12. ENERGÍAS ALTERNATIVAS. 13. COMPRAVENTA Y REPARACIÓN DE VEHÍCULOS. REPARACIÓN Y MENTENIMIENTO DE INSTALCIONES Y MAQUINARIA. 14. INVESTIGACIÓN, DESARROLLO E INNOVACIÓN. 15. ACTIVIDADES CIENTÍFICAS Y TÉCNICAS.\n",
      "mainEntityOfPage": "https://www.contratacion.euskadi.eus/webkpe00-kperoc/es/ac71aBusquedaRegistrosWar/empresa/08483",
      "_links": {
        "self": {
          "name": "OUTSOURCING GROUP DESARROLLO, S.L.",
          "href": "https://api.euskadi.eus/procurements/companies/08483"
        }
      }
    },
    {
      "name": "ARGOS CONSULTING NETWORK, S.L.",
      "registrationNumber": "08052",
      "identificationNumber": "B83294801",
      "address": "Gran Via nº 41, 1º izquierda, despacho 2",
      "location": {
        "postalCode": "50006",
        "municipality": "Zaragoza",
        "county": "Zaragoza",
        "municipalityId": "297",
        "countyId": "50"
      },
      "economicActivities": [
        {
          "id": "1.846",
          "name": "Empresas de estudios de mercado",
          "_links": {
            "self": {
              "name": "Empresas de estudios de mercado",
              "href": "https://api.euskadi.eus/procurements/companies/economic-activities/1.846"
            }
          }
        }
      ],
      "certificateStartDate": "2023-11-06",
      "certificateEndDate": "2024-05-06",
      "object": "1. PRESENTAR Y PROMOCIONAR EN ESPAÑA UNA RED DE CONSULTORÍA INTERNACIONAL COMERCIAL. 2. DAR PUBLICIDAD GENERAL A DICHA RED A TRAVÉS DE CUALQUIER MEDIO LEGAL DISPONIBLE, POR EJEMPLO Y SIN LIMITARSE A: (A) INTERNET, (B) PARTICIPACIÓN EN FERIAS APROPIADAS, (C) PUBLICACIÓN DE FOLLETOS, (D) MAILINGS, (E) ANUNCIOS PUBLICITARIOS. 3. CAPTACIÓN DE EMPRESAS Y ORGANISMOS OFICIALES ESPAÑOLES COMO NUEVOS CLIENTES PARA DICHA RED. 4. REPRESENTACIÓN OFICIAL DE LA RED Y NEGOCIACIONES EN SU NOMBRE CON QUIEN CORRESPONDA. 5. CONSULTORÍA COMERCIAL PARA EMPRESA Y ORGANISMOS OFICIALES, DESARROLLANDO PARA LOS MISMOS ACTIVIDADES COMO LAS SIGUIENTES: (A) BÚSQUEDA DE CLIENTES Y AGENTES COMERCIALES, (B) INVESTIGACIONES DE MERCADO (C) ASESORAMIENTO GENERAL SOBRE MERCADOS (D) APOYO Y COLABORACIÓN EN ACCIONES COMERCIALES (E) REPRESENTACIÓN COMERCIAL DE LAS MISMAS EMPRESAS. 6. IMPORTACIÓN Y EXPORTACIÓN DE: (A) PRODUCTOS ALIMENTICIOS Y BEBIDAS ALCOHÓLICAS Y REFRESCANTES (B) MUEBLES Y ARTÍCULOS DE DECORACIÓN, HOGAR Y MENAJE. (C) ROPA, ACCESORIOS DE MODA Y JOYERÍA. (D) LIBROS, PUBLICACIONES Y SOFTWARE (E) PLÁSTICOS, PRODUCTOS QUÍMICOS, MEDICAMENTOS, COSMÉTICOS, ARTÍCULOS DE ASEO Y DE LIMPIEZA. (F) APARATOS ELÉCTRICOS Y ELECTRODOMÉSTICOS (G) ORDENADORES, IMPRESORAS, APARATOS PERIFERALES Y PRODUCTOS COMPLEMENTARIOS DE INFORMÁTICA. (H) MAQUINARIA, INCLUYENDO MAQUINARIA AGRÍCOLA Y MÁQUINAS-HERRAMIENTA. (I) VEHÍCULOS. (J) CÁMARAS DE FOTOS Y MATERIAL ÓPTICO. (K) RELOJES Y MAQUINARIA DE PRECISIÓN (L) MINERALES Y MATERIALES DE CONSTRUCCIÓN.",
      "mainEntityOfPage": "https://www.contratacion.euskadi.eus/webkpe00-kperoc/es/ac71aBusquedaRegistrosWar/empresa/08052",
      "_links": {
        "self": {
          "name": "ARGOS CONSULTING NETWORK, S.L.",
          "href": "https://api.euskadi.eus/procurements/companies/08052"
        }
      }
    },
    {
      "name": "AJA&IRADI GESTION, S.L.",
      "registrationNumber": "08755",
      "identificationNumber": "B42725267",
      "address": "UNTZAGA PLAZA 7",
      "location": {
        "postalCode": "20600",
        "municipality": "Eibar",
        "county": "Gipuzkoa",
        "municipalityId": "030",
        "countyId": "20"
      },
      "economicActivities": [
        {
          "id": "1.834",
          "name": "Servicios relativos a la propiedad inmobiliaria e industrial",
          "_links": {
            "self": {
              "name": "Servicios relativos a la propiedad inmobiliaria e industrial",
              "href": "https://api.euskadi.eus/procurements/companies/economic-activities/1.834"
            }
          }
        },
        {
          "id": "1.849.7",
          "name": "Servicios de gestión administrativa",
          "_links": {
            "self": {
              "name": "Servicios de gestión administrativa",
              "href": "https://api.euskadi.eus/procurements/companies/economic-activities/1.849.7"
            }
          }
        }
      ],
      "certificateStartDate": "2023-11-06",
      "certificateEndDate": "2024-05-06",
      "object": "INTERMEDIACIÓN EN LA PRESTACIÓN DE SERVICIOS DE ADMINISTRACIÓN DE FINCAS, GESTORÍA ADMINISTRATIVA, SERVICIOS DE CONTABILIDAD, TENEDURÍA DE LIBROS, ASESORAMIENTO FISCAL ECONÓMICO Y FINANCIERA Y DE OTROS SERVICIOS INDEPENDIENTES DE ASESORAMIENTO FISCAL Y CONTABLE. CNAE 7490.",
      "mainEntityOfPage": "https://www.contratacion.euskadi.eus/webkpe00-kperoc/es/ac71aBusquedaRegistrosWar/empresa/08755",
      "_links": {
        "self": {
          "name": "AJA&IRADI GESTION, S.L.",
          "href": "https://api.euskadi.eus/procurements/companies/08755"
        }
      }
    },
    {
      "name": "AISLAMIENTOS JMR, S.L.",
      "registrationNumber": "08489",
      "identificationNumber": "B75186494",
      "address": "Txonta Kalea, 27, Bajo",
      "location": {
        "postalCode": "20600",
        "municipality": "Eibar",
        "county": "Gipuzkoa",
        "municipalityId": "030",
        "countyId": "20"
      },
      "economicActivities": [
        {
          "id": "1.501.1",
          "name": "Construcción completa, reparación y conservación de edificaciones",
          "_links": {
            "self": {
              "name": "Construcción completa, reparación y conservación de edificaciones",
              "href": "https://api.euskadi.eus/procurements/companies/economic-activities/1.501.1"
            }
          }
        }
      ],
      "certificateStartDate": "2023-11-06",
      "certificateEndDate": "2024-05-06",
      "object": "CONSTRUCCION",
      "mainEntityOfPage": "https://www.contratacion.euskadi.eus/webkpe00-kperoc/es/ac71aBusquedaRegistrosWar/empresa/08489",
      "_links": {
        "self": {
          "name": "AISLAMIENTOS JMR, S.L.",
          "href": "https://api.euskadi.eus/procurements/companies/08489"
        }
      }
    },
    {
      "name": "ZEROLYNX, S.L.",
      "registrationNumber": "08502",
      "identificationNumber": "B88028931",
      "address": "C/FRAGUA 1, 1-5, ESC 3",
      "location": {
        "postalCode": "28933",
        "municipality": "Móstoles",
        "county": "Madrid",
        "municipalityId": "092",
        "countyId": "28"
      },
      "economicActivities": [
        {
          "id": "1.849.9",
          "name": "Otros servicios independientes n.c.o.p",
          "_links": {
            "self": {
              "name": "Otros servicios independientes n.c.o.p",
              "href": "https://api.euskadi.eus/procurements/companies/economic-activities/1.849.9"
            }
          }
        }
      ],
      "certificateStartDate": "2023-11-06",
      "certificateEndDate": "2024-05-06",
      "object": "ACTIVIDADES DE PROGRAMACIÓN INFORMÁTICA. ACTIVIDADES DE CONSULTORÍA INFORMÁTICA. GESTIÓN DE RECURSOS INFORMÁTICOS. OTROS SERVICIOS RELACIONADOS CON LAS TECNOLOGÍAS DE LA INFORMACIÓN Y LA INFORMÁTICA.",
      "mainEntityOfPage": "https://www.contratacion.euskadi.eus/webkpe00-kperoc/es/ac71aBusquedaRegistrosWar/empresa/08502",
      "_links": {
        "self": {
          "name": "ZEROLYNX, S.L.",
          "href": "https://api.euskadi.eus/procurements/companies/08502"
        }
      }
    },
    {
      "name": "DAVID LOPEZ DE ARBINA RUIZ DE EGUINO",
      "registrationNumber": "09286",
      "identificationNumber": "72744115Z",
      "address": "SAN JUAN 3",
      "location": {
        "postalCode": "01207",
        "municipality": "San Millán/Donemiliaga",
        "county": "Araba/Álava",
        "municipalityId": "053",
        "countyId": "01"
      },
      "certificateStartDate": "2023-11-06",
      "certificateEndDate": "2024-05-03",
      "object": "ACTIVIDADES AGRÍCOLAS Y GANADERAS DEPENDIENTES.",
      "mainEntityOfPage": "https://www.contratacion.euskadi.eus/webkpe00-kperoc/es/ac71aBusquedaRegistrosWar/empresa/09286",
      "_links": {
        "self": {
          "name": "DAVID LOPEZ DE ARBINA RUIZ DE EGUINO",
          "href": "https://api.euskadi.eus/procurements/companies/09286"
        }
      }
    },
    {
      "name": "LASANAVAL OTN, S.L.",
      "registrationNumber": "08737",
      "identificationNumber": "B20841144",
      "address": "PLAZA DEL CEDRO 2, BAJO &apos;LASA&apos;",
      "location": {
        "postalCode": "20016",
        "municipality": "Donostia / San Sebastián",
        "county": "Gipuzkoa",
        "municipalityId": "069",
        "countyId": "20"
      },
      "economicActivities": [
        {
          "id": "1.843.1",
          "name": "Servicios técnicos de ingeniería",
          "_links": {
            "self": {
              "name": "Servicios técnicos de ingeniería",
              "href": "https://api.euskadi.eus/procurements/companies/economic-activities/1.843.1"
            }
          }
        }
      ],
      "certificateStartDate": "2023-11-04",
      "certificateEndDate": "2024-05-03",
      "object": "LA REALIZACIÓN DE PROYECTOS DE CONSTRUCCIÓN Y REFORMA DE BUQUES Y EMBARCACIONES DE TODO TIPO; ASÍ COMO LA REDACCIÓN DE ESTUDIOS RELACIONADOS CON LA CONSTRUCCIÓN, REFORMA Y REPARACIÓN DE NAVES; EL ASESORAMIENTO Y CUALESQUIERA ACTIVIDADES DE TODO TIPO TÉCNICO REFERENTE A BUQUES Y EMBARCACIONES EN GENERAL.",
      "mainEntityOfPage": "https://www.contratacion.euskadi.eus/webkpe00-kperoc/es/ac71aBusquedaRegistrosWar/empresa/08737",
      "_links": {
        "self": {
          "name": "LASANAVAL OTN, S.L.",
          "href": "https://api.euskadi.eus/procurements/companies/08737"
        }
      }
    },
    {
      "name": "BEREIN SERVICIOS INTEGRALES, S.L.",
      "registrationNumber": "06938",
      "identificationNumber": "B01536598",
      "address": "ALKARANA AUZOA, 8 BAJO",
      "location": {
        "postalCode": "01206",
        "municipality": "Barrundia",
        "county": "Araba/Álava",
        "municipalityId": "013",
        "countyId": "01"
      },
      "economicActivities": [
        {
          "id": "1.501.3",
          "name": "Albañilería y pequeños trabajos de construcción en general",
          "_links": {
            "self": {
              "name": "Albañilería y pequeños trabajos de construcción en general",
              "href": "https://api.euskadi.eus/procurements/companies/economic-activities/1.501.3"
            }
          }
        },
        {
          "id": "1.912",
          "name": "Servicios forestales",
          "_links": {
            "self": {
              "name": "Servicios forestales",
              "href": "https://api.euskadi.eus/procurements/companies/economic-activities/1.912"
            }
          }
        },
        {
          "id": "1.921.1",
          "name": "Servicios de limpieza en calles, vías públicas y jardines",
          "_links": {
            "self": {
              "name": "Servicios de limpieza en calles, vías públicas y jardines",
              "href": "https://api.euskadi.eus/procurements/companies/economic-activities/1.921.1"
            }
          }
        }
      ],
      "certificateStartDate": "2023-11-02",
      "certificateEndDate": "2024-05-02",
      "object": "A) SERVICIOS FORESTALES. B) CONSTRUCCIÓN COMPLETA, REPARACIÓN Y CONSERVACIÓN DE EDIFICACIONES Y OBRAS CIVILES, LA PROMOCIÓN Y COMERCIALIZACIÓN DE ESTOS. C) ALBAÑILERÍA Y PEQUEÑOS TRABAJOS DE CONSTRUCCIÓN EN GENERAL. D) INSTALACIONES DE FONTANERÍA Y DE SISTEMAS DE CONDUCCIÓN, DISTRIBUCIÓN Y EVACUACIÓN DE AGUA FRÍA Y CALIENTE. LAS INSTALACIONES Y OBRAS REFERIDAS PODRÁN SER REALIZADAS CON ENTIDADES PRIVADAS O PÚBLICAS, ESTATALES, AUTONÓMICAS, PROVINCIALES O MUNICIPALES. E) LA PROMOCIÓN DE TERRENOS Y EDIFICACIONES. F) LA INTERMEDIACIÓN EN LA COMPRA, VENTA O ARRENDAMIENTO NO FINANCIERO DE TERRENOS, ASÍ COMO EN LA COMPRA, VENTA, CONSTRUCCIÓN O ARRENDAMIENTO NO FINANCIERO DE INMUEBLES O PARTE DE INMUEBLES, NO ASUMIENDO RIESGOS PROPIOS Y OPERANDO POR CUENTA DE TERCEROS. G) EL ALQUILER (EXCEPTUANDO EL ARRENDAMIENTO FINANCIERO) DE BIENES INMUEBLES DE NATURALEZA RÚSTICA O URBANA. H) ACTIVIDADES DE JARDINERÍA. I) LA EXPLOTACIÓN DE TODA CLASE DE NEGOCIOS DE HOSTELERÍA, INCLUIDOS LOS SERVICIOS DE ALOJAMIENTO Y HOSPEDAJE EN SU MÁS AMPLIO CONCEPTO",
      "mainEntityOfPage": "https://www.contratacion.euskadi.eus/webkpe00-kperoc/es/ac71aBusquedaRegistrosWar/empresa/06938",
      "_links": {
        "self": {
          "name": "BEREIN SERVICIOS INTEGRALES, S.L.",
          "href": "https://api.euskadi.eus/procurements/companies/06938"
        }
      }
    },
    {
      "name": "EQUILIQUA BRANDING  COMUNICACION  COMMUNITY, S.L..",
      "registrationNumber": "09057",
      "identificationNumber": "B01483742",
      "address": "CALLE POSTAS 51, ESCALERA 1, PISO 2, DCHA",
      "location": {
        "postalCode": "01003",
        "municipality": "Vitoria-Gasteiz",
        "county": "Araba/Álava",
        "municipalityId": "059",
        "countyId": "01"
      },
      "economicActivities": [
        {
          "id": "1.844",
          "name": "Servicios de publicidad, relaciones públicas y similares",
          "_links": {
            "self": {
              "name": "Servicios de publicidad, relaciones públicas y similares",
              "href": "https://api.euskadi.eus/procurements/companies/economic-activities/1.844"
            }
          }
        },
        {
          "id": "1.932.1",
          "name": "Enseñanza de formación y perfeccionamiento profesional no superior",
          "_links": {
            "self": {
              "name": "Enseñanza de formación y perfeccionamiento profesional no superior",
              "href": "https://api.euskadi.eus/procurements/companies/economic-activities/1.932.1"
            }
          }
        }
      ],
      "certificateStartDate": "2023-11-01",
      "certificateEndDate": "2024-05-01",
      "object": "LA PUBLICIDAD, EL MARKETING, E COMMERCE, LA COMERCIALIZACION DE PRODUCTOS DE CONSUMO, ASESORIA E INFORMACION DE EMPRESAS; COMPRAVENTA Y ALQUILER DE INMUEBLES, URBANIZACION, PARCELACION, CONSTRUCCION, EDFICACION, CONSTITUCION EN PROPIEDAD HORIZONTAL, REFORMA, AMPLIACIÓN, EXPLOTACION DIRECTA O INDIRECTA Y, EN GENERAL TODA ACTIVIDAD RELATIVA A BIENES INMUEBLES ASI RUSTICOS COMO URBANOS.",
      "mainEntityOfPage": "https://www.contratacion.euskadi.eus/webkpe00-kperoc/es/ac71aBusquedaRegistrosWar/empresa/09057",
      "_links": {
        "self": {
          "name": "EQUILIQUA BRANDING  COMUNICACION  COMMUNITY, S.L..",
          "href": "https://api.euskadi.eus/procurements/companies/09057"
        }
      }
    }
  ]
}