{
  "totalItems": 9042,
  "totalPages": 905,
  "currentPage": 566,
  "itemsOfPage": 10,
  "items": [
    {
      "name": "NAVITAS INGENIEROS, S.L.P.",
      "registrationNumber": "07164",
      "identificationNumber": "B95651832",
      "address": "LA CERRADA 3 4º H",
      "location": {
        "postalCode": "48980",
        "municipality": "Santurtzi",
        "county": "Bizkaia",
        "municipalityId": "082",
        "countyId": "48"
      },
      "economicActivities": [
        {
          "id": "1.315",
          "name": "Construcción de grandes depósitos y calderería gruesa",
          "_links": {
            "self": {
              "name": "Construcción de grandes depósitos y calderería gruesa",
              "href": "https://api.euskadi.eus/procurements/companies/economic-activities/1.315"
            }
          }
        },
        {
          "id": "1.504.11",
          "name": "Instalaciones eléctricas en general, redes telegráficas, telefonía, tv, etc",
          "_links": {
            "self": {
              "name": "Instalaciones eléctricas en general, redes telegráficas, telefonía, tv, etc",
              "href": "https://api.euskadi.eus/procurements/companies/economic-activities/1.504.11"
            }
          }
        },
        {
          "id": "1.843.1",
          "name": "Servicios técnicos de ingeniería",
          "_links": {
            "self": {
              "name": "Servicios técnicos de ingeniería",
              "href": "https://api.euskadi.eus/procurements/companies/economic-activities/1.843.1"
            }
          }
        }
      ],
      "certificateStartDate": "2020-07-14",
      "certificateEndDate": "2020-12-24",
      "object": "LOS SERVICIOS DE INGENIERÍA, PROYECTOS Y GESTIÓN DE OBRAS, GESTIÓN ENERGÉTICA, AUDITORÍAS ENERGÉTICAS, PROMOCIÓN, CONSTRUCCIÓN Y COMERCIALIZACIÓN DE INSTALACIONES, OBRAS DE CONSTRUCCIÓN RESIDENCIAL, URBANA E INDUSTRIAL, SERVICIOS DE GESTIÓN DE ARCHIVOS Y GESTIÓN MEDIOAMBIENTAL",
      "mainEntityOfPage": "https://www.contratacion.euskadi.eus/webkpe00-kperoc/es/ac71aBusquedaRegistrosWar/empresa/07164",
      "_links": {
        "self": {
          "name": "NAVITAS INGENIEROS, S.L.P.",
          "href": "https://api.euskadi.eus/procurements/companies/07164"
        }
      }
    },
    {
      "name": "COLECTIVO PEDAGÓGICO ADARRA PEDAGOGI ERAKUNDEA",
      "registrationNumber": "07166",
      "identificationNumber": "G48169171",
      "address": "Mitxel Labegerie 2, 3º dpto 3",
      "location": {
        "postalCode": "48005",
        "municipality": "Bilbao",
        "county": "Bizkaia",
        "municipalityId": "020",
        "countyId": "48"
      },
      "economicActivities": [
        {
          "id": "1.932.2",
          "name": "Enseñanza de formación y perfeccionamiento profesional superior",
          "_links": {
            "self": {
              "name": "Enseñanza de formación y perfeccionamiento profesional superior",
              "href": "https://api.euskadi.eus/procurements/companies/economic-activities/1.932.2"
            }
          }
        }
      ],
      "certificateStartDate": "2020-07-14",
      "certificateEndDate": "2020-12-23",
      "object": "1. PROMOVER EL MOVIMIENTO DE RENOVACIÓN PEDAGÓGICA EN LA COMUNIDAD AUTÓNOMA VASCA Y LA COMUNIDAD FORAL DE NAVARRA, ASÍ COMO COORDINAR A LAS ENTIDADES, GRUPOS Y PERSONAS INTERESADAS EN LA RENOVACIÓN PEDAGÓGICA. 2. PROMOVER TODO TIPO DE INICIATIVAS PARA LA FORMACIÓN DEL PROFESORADO DE TODOS LOS NIVELES EDUCATIVOS, ASÍ COMO PARA LA RENOVACIÓN CIENTÍFICA, PEDAGÓGICA Y DIDÁCTICA DE LOS MISMOS. 3. BUSCAR UNA LÍNEA PEDAGÓGICA ACORDE CON EL MODELO ESCOLAR DENOMINADO ESCUELA PÚBLICA VASCA, DEMOCRÁTICA, PLURAL, INTEGRADORA DE LA DIVERSIDAD, COEDUCADORA, SUPERADORA DE LAS DESIGUALDADES E INTEGRADA EN EL MEDIO DEL ALUMNO CON ESPECIAL RELACIÓN A LA LENGUA Y CULTURA VASCA SIEMPRE EN CLAVE INTERCULTURAL, ASÍ COMO EXTENDER EN EL PROFESORADO, LA COMUNIDAD EDUCATIVA Y EN CUALQUIER OTRO ESTAMENTO INTERESADO EN LA ENSEÑANZA, LOS PRINCIPIOS QUE LA FUNDAMENTAN. 4. PROMOVER Y APOYAR LAS INICIATIVAS DE EXPERIMENTACIÓN E INNOVACIÓN PEDAGÓGICA. 5. PROMOCIONAR LA ESTRUCTURA ORGANIZATIVA, LOS MEDIOS DOCUMENTALES Y TODO TIPO DE RECURSOS NECESARIOS PARA EL LOGRO DE LOS FINES ANTERIORES. 6. RELACIONARSE CON INSTITUCIONES CON FINES SIMILARES O EN ALGUNAS MANERAS RELACIONADAS CON LOS DE ESTA ASOCIACIÓN DENTRO DE SU ÁMBITO TERRITORIAL Y FUERA DEL MISMO, ESPECIALMENTE CON LOS MOVIMIENTOS ESTATALES E INTERNACIONALES DE RENOVACIÓN PEDAGÓGICA. PARA EL CUMPLIMIENTO DE ESTOS FINES SE PODRÁN ORGANIZAR Y PROMOVER LAS SIGUIENTES ACTIVIDADES: 1. CURSOS SOBRE TEMAS DE CARÁCTER CULTURAL, CIENTÍFICO, PEDAGÓGICO Y DIDÁCTICO PARA PROFESORES, ESTUDIANTES DE CENTROS UNIVERSITARIOS Y PERSONAS INTERESADAS EN LA EDUCACIÓN. 2. JORNADAS PEDAGÓGICAS, CONGRESOS, SIMPOSIUMS, CONFERENCIAS, SEMINARIOS, ENCUENTROS, CERTÁMENES Y CUALQUIER OTRO MODO DE INTERCOMUNICACIÓN Y EXPANSIÓN DE TEMAS RELACIONADOS CON LOS FINES DE ESTA ASOCIACIÓN. 3. GRUPOS ESTABLES DE TRABAJO Y ESTUDIO, COMISIONES DE CARÁCTER TRANSITORIO O PERMANENTE. 4. PUBLICACIONES PERIÓDICAS Y ESPORÁDICAS CONFECCIONADAS POR LOS Y LAS ASOCIADAS Y EXTENSIÓN DE PUBLICACIONES RECOGIDAS DE OTRAS PERSONAS Y ENTIDADES, ASÍ COMO CUALQUIER MATERIAL QUE PUEDA SER DE UTILIDAD EN EL CAMPO EDUCATIVO. 5. DIRECCIÓN, ASESORAMIENTO Y CUALQUIER CLASE DE PARTICIPACIÓN Y COLABORACIÓN EN CENTROS DE ENSEÑANZA DE CUALQUIER NIVEL EDUCATIVO, ASÍ COMO CREACIÓN DE CENTROS DE ENSEÑANZA, DEJANDO A SALVO LO QUE DETERMINE LA LEGISLACIÓN VIGENTE. 6. COLABORACIÓN CON LA ADMINISTRACIÓN EDUCATIVA ESTATAL, AUTONÓMICA Y TERRITORIAL Y LOS SERVICIOS DE FORMACIÓN Y DE APOYO AL PROFESORADO EN SU LABOR DOCENTE Y DE INNOVACIÓN EDUCATIVA, CON LOS CENTROS UNIVERSITARIOS, LOS SINDICATOS DE ENSEÑANZA Y LAS FEDERACIONES Y ASOCIACIONES DE PADRES DE ALUMNOS EN SUS ACTIVIDADES RELACIONADAS CON LA FORMACIÓN PEDAGÓGICA DE SUS AFILIADOS, ETC.\r\n\r\n",
      "mainEntityOfPage": "https://www.contratacion.euskadi.eus/webkpe00-kperoc/es/ac71aBusquedaRegistrosWar/empresa/07166",
      "_links": {
        "self": {
          "name": "COLECTIVO PEDAGÓGICO ADARRA PEDAGOGI ERAKUNDEA",
          "href": "https://api.euskadi.eus/procurements/companies/07166"
        }
      }
    },
    {
      "name": "ERABE INGENIARITZA ETA ARKITEKTURA, S.L.",
      "registrationNumber": "05756",
      "identificationNumber": "B75165357",
      "address": "José Antonio Agirre Plaza, 4 - Behea, ezk.",
      "location": {
        "postalCode": "20730",
        "municipality": "Azpeitia",
        "county": "Gipuzkoa",
        "municipalityId": "018",
        "countyId": "20"
      },
      "economicActivities": [
        {
          "id": "1.843.1",
          "name": "Servicios técnicos de ingeniería",
          "_links": {
            "self": {
              "name": "Servicios técnicos de ingeniería",
              "href": "https://api.euskadi.eus/procurements/companies/economic-activities/1.843.1"
            }
          }
        },
        {
          "id": "1.843.2",
          "name": "Servicios técnicos de arquitectura y urbanismo",
          "_links": {
            "self": {
              "name": "Servicios técnicos de arquitectura y urbanismo",
              "href": "https://api.euskadi.eus/procurements/companies/economic-activities/1.843.2"
            }
          }
        }
      ],
      "certificateStartDate": "2020-07-13",
      "certificateEndDate": "2021-01-11",
      "object": "SERVICIOS TÉCNICOS DE INGENIERÍA, DELINEACIÓN Y ARQUITECTURA SIN CONSTITUIR SOCIEDAD PROFESIONAL; LOS SERVICIOS DE CONSULTORÍA E INTERMEDIACIÓN DE COMERCIO; LA CONSTRUCCIÓN, REPARACIÓN Y CONSERVACIÓN DE EDIFICIOS, INSTALACIONES Y MAQUINARIA; EL COMERCIO AL POR MAYOR Y AL POR MENOR , ASÍ COMO EL ALQUILER DE ARÍCULOS DE CONSUMO DURADERO; LA ENSEÑANZA NO REGLADA DE FORMACIÓN Y PERFECCIONAMIENTO PROFESIONAL",
      "mainEntityOfPage": "https://www.contratacion.euskadi.eus/webkpe00-kperoc/es/ac71aBusquedaRegistrosWar/empresa/05756",
      "_links": {
        "self": {
          "name": "ERABE INGENIARITZA ETA ARKITEKTURA, S.L.",
          "href": "https://api.euskadi.eus/procurements/companies/05756"
        }
      }
    },
    {
      "name": "ESTUDIOS Y SERVICIOS DE MOVILIDAD Y GESTION DE INFRAESTRUCTURAS S.L.",
      "registrationNumber": "07161",
      "identificationNumber": "B86654969",
      "address": "C/ CAVANILLES 5, 3-A",
      "location": {
        "postalCode": "28007",
        "municipality": "Madrid",
        "county": "Madrid",
        "municipalityId": "079",
        "countyId": "28"
      },
      "economicActivities": [
        {
          "id": "1.843.1",
          "name": "Servicios técnicos de ingeniería",
          "_links": {
            "self": {
              "name": "Servicios técnicos de ingeniería",
              "href": "https://api.euskadi.eus/procurements/companies/economic-activities/1.843.1"
            }
          }
        }
      ],
      "certificateStartDate": "2020-07-13",
      "certificateEndDate": "2020-12-02",
      "object": "1.- CONSTRUCCIÓN, INSTALACIONES Y MANTENIMIENTO. 2.- COMERCIO AL POR MAYOR Y AL POR MENOR, DISTRIBUCIÓN COMERCIAL, IMPORTACIÓN Y EXPORTACIÓN. 3.- ACTIVIDADES INMOBILIARIAS., 4.- INTERMEDIACIÓN EN ACTIVIDADES PROFESIONALES. 5.- INDUSTRIAS MANUFACTURERAS Y TEXTILES. 6.- TURISMO, HOSTELERÍA Y RESTAURACIÓN. 7.- PRESTACIÓN DE SERVICIOS -ESPECIALMENTE LOS SERVICIOS DE CONSULTORÍA EMPRESARIAL-, ACTIVIDADES DE GESTIÓN Y ADMINISTRACIÓN. SERVICIOS EDUCATIVOS SANITARIOS, DE OCIO Y ENTRETENIMIENTO. 8.- TRANSPORTE Y ALMACENAMIENTO. 9.- INFORMACIÓN Y COMUNICACIONES. 10.- AGRICULTURA, GANADERÍA Y PESCA. 11.- INFORMÁTICA, TELECOMUNICACIONES Y OFIMÁTICA. 12.- ENERGÍAS ALTERNATIVAS. 13.- COMPRAVENTA Y REPARACIÓN DE VEHÍCULOS. REPARACIÓN Y MANTENIMIENTO DE INSTALACIONES Y MAQUINARIA. 14.- INVESTIGACIÓN, DESARROLLO E INNOVACIÓN. 15.- ACTIVIDADES CIENTÍFICAS Y TÉCNICAS. 16.- REDACCIÓN YSUPERVISIÓN DE PROYECTOS Y SUPERVISIÓN DE OBRAS Y PRESTACIÓN DE SERVICIOS RELACIONADOS CON LA MOVILIDAD Y LA GESTIÓN DE LA INFRAESTRUCTURAS",
      "mainEntityOfPage": "https://www.contratacion.euskadi.eus/webkpe00-kperoc/es/ac71aBusquedaRegistrosWar/empresa/07161",
      "_links": {
        "self": {
          "name": "ESTUDIOS Y SERVICIOS DE MOVILIDAD Y GESTION DE INFRAESTRUCTURAS S.L.",
          "href": "https://api.euskadi.eus/procurements/companies/07161"
        }
      }
    },
    {
      "name": "BALGORZA SNA, S.L.",
      "registrationNumber": "02806",
      "identificationNumber": "B01353895",
      "address": "C/ ZORROSTEA, 10-INTERIOR",
      "location": {
        "postalCode": "01010",
        "municipality": "Vitoria-Gasteiz",
        "county": "Araba/Álava",
        "municipalityId": "059",
        "countyId": "01"
      },
      "economicActivities": [
        {
          "id": "1.249",
          "name": "Industrias de otros productos minerales no metálicos n.c.o.p",
          "_links": {
            "self": {
              "name": "Industrias de otros productos minerales no metálicos n.c.o.p",
              "href": "https://api.euskadi.eus/procurements/companies/economic-activities/1.249"
            }
          }
        },
        {
          "id": "1.505.1",
          "name": "Revestimientos exteriores e interiores de todas clases",
          "_links": {
            "self": {
              "name": "Revestimientos exteriores e interiores de todas clases",
              "href": "https://api.euskadi.eus/procurements/companies/economic-activities/1.505.1"
            }
          }
        },
        {
          "id": "1.505.2",
          "name": "Solados y pavimentos de todas clases en cualquier tipo de obra",
          "_links": {
            "self": {
              "name": "Solados y pavimentos de todas clases en cualquier tipo de obra",
              "href": "https://api.euskadi.eus/procurements/companies/economic-activities/1.505.2"
            }
          }
        }
      ],
      "certificateStartDate": "2020-07-10",
      "certificateEndDate": "2021-01-10",
      "object": "LA FABRICACIÓN Y COMERCIALIZACIÓN DE PRODUCTOS ASFÁLTICOS ASÍ COMO LA REALIZACIÓN DE OBRAS PÚBLICAS EN GENERAL Y EN PARTICULAR, MOVIMIENTOS DE TIERRAS, CIMENTACIONES, AFIRMADOS, RIEGOS ASFÁLTICOS, FABRICACIÓN Y EMPLEO DE AGLOMERADOS, SANEAMIENTO, CONDUCCIONES DE AGUA, CANALIZACIONES EN GENERAL Y EN ESPECIAL CANALIZACIONES DE GAS, ESTRUCTURAS DE HORMIGÓN ARMADO Y METÁLICAS, FABRICACIÓN DE MATERIALES PARA LA CONSTRUCCIÓN, IMPERMEABILIZACIONES, CONSTRUCCIÓN DE CARRETERAS, EXPLOTACIÓN DE CANTERAS Y FABRICACIÓN DE HORMIGONES, ASÍ COMO LA CONSTRUCCIÓN Y PROMOCIÓN DE VIVIENDAS, PABELLONES INDUSTRIALES Y CUALESQUIERA OTRAS OBRAS DE CARÁCTER PÚBLICO Y PRIVADO Y EL TRNASPORTE PÚBLICO EN GENERAL ",
      "mainEntityOfPage": "https://www.contratacion.euskadi.eus/webkpe00-kperoc/es/ac71aBusquedaRegistrosWar/empresa/02806",
      "_links": {
        "self": {
          "name": "BALGORZA SNA, S.L.",
          "href": "https://api.euskadi.eus/procurements/companies/02806"
        }
      }
    },
    {
      "name": "SECTOR M.D., S.L.",
      "registrationNumber": "02451",
      "identificationNumber": "B48580120",
      "address": "TORRELARRAGOITI P6, A-1, PAB.9",
      "location": {
        "postalCode": "48170",
        "municipality": "Zamudio",
        "county": "Bizkaia",
        "municipalityId": "905",
        "countyId": "48"
      },
      "economicActivities": [
        {
          "id": "1.659.4",
          "name": "Venta al por menor de libros, periódicos y artículos de papelería y escritorio",
          "_links": {
            "self": {
              "name": "Venta al por menor de libros, periódicos y artículos de papelería y escritorio",
              "href": "https://api.euskadi.eus/procurements/companies/economic-activities/1.659.4"
            }
          }
        },
        {
          "id": "1.722",
          "name": "Transporte de mercancías por carretera",
          "_links": {
            "self": {
              "name": "Transporte de mercancías por carretera",
              "href": "https://api.euskadi.eus/procurements/companies/economic-activities/1.722"
            }
          }
        },
        {
          "id": "1.849.5",
          "name": "Servicios de recadería y reparto y manipulación de correspondencia",
          "_links": {
            "self": {
              "name": "Servicios de recadería y reparto y manipulación de correspondencia",
              "href": "https://api.euskadi.eus/procurements/companies/economic-activities/1.849.5"
            }
          }
        }
      ],
      "certificateStartDate": "2020-07-09",
      "certificateEndDate": "2021-01-08",
      "object": "EL REPARTO, ENTREGA Y VENTA AL POR MENOR DE TODO TIPO DE PRODUCTOS QUE PUEDAN SER REQUERIDOS POR LOS CLIENTES, ESPECIALMENTE DE SUSCRIPCIONES DOMICILIARIAS DE PUBLICACIONES, PERIÓDICOS Y COLECCIONES EN SOPORTES TALES COMO CD-ROM, CINTAS MAGNETOSCÓPICAS, MAGNETOFÓNICAS, COMPAC-DISC; REPARTO Y MANIPULACIÓN DE CORRESPONDIENCIA NO DIRECCIONADA; EL SERVICIO DE RECADERÍA Y MENSAJERÍA Y SERVICIOS AUXILIARES DE MANIPULACIÓN DE PUBLICACIONES.",
      "mainEntityOfPage": "https://www.contratacion.euskadi.eus/webkpe00-kperoc/es/ac71aBusquedaRegistrosWar/empresa/02451",
      "_links": {
        "self": {
          "name": "SECTOR M.D., S.L.",
          "href": "https://api.euskadi.eus/procurements/companies/02451"
        }
      }
    },
    {
      "name": "TECNICA DE INGENIERIA RSA S.L.",
      "registrationNumber": "06283",
      "identificationNumber": "B20462883",
      "address": "Barrio la Florida 144",
      "location": {
        "postalCode": "20120",
        "municipality": "Hernani",
        "county": "Gipuzkoa",
        "municipalityId": "040",
        "countyId": "20"
      },
      "economicActivities": [
        {
          "id": "1.922",
          "name": "Servicios de limpieza",
          "_links": {
            "self": {
              "name": "Servicios de limpieza",
              "href": "https://api.euskadi.eus/procurements/companies/economic-activities/1.922"
            }
          }
        }
      ],
      "certificateStartDate": "2020-07-09",
      "certificateEndDate": "2020-08-05",
      "object": "LA COMPRA, VENTA Y MANTENIMIENTO DE EXTINTORES Y ALARMAS DE FUEGO Y ROBO",
      "mainEntityOfPage": "https://www.contratacion.euskadi.eus/webkpe00-kperoc/es/ac71aBusquedaRegistrosWar/empresa/06283",
      "_links": {
        "self": {
          "name": "TECNICA DE INGENIERIA RSA S.L.",
          "href": "https://api.euskadi.eus/procurements/companies/06283"
        }
      }
    },
    {
      "name": "AIDE RAMIREZ AMPUDIA",
      "registrationNumber": "06810",
      "identificationNumber": "72402835P",
      "address": "COSME ECHEVARRIETA 13, 5º DCHA",
      "location": {
        "postalCode": "48009",
        "municipality": "Bilbao",
        "county": "Bizkaia",
        "municipalityId": "020",
        "countyId": "48"
      },
      "economicActivities": [
        {
          "id": "2.411",
          "name": "Arquitectos",
          "_links": {
            "self": {
              "name": "Arquitectos",
              "href": "https://api.euskadi.eus/procurements/companies/economic-activities/2.411"
            }
          }
        }
      ],
      "certificateStartDate": "2020-07-09",
      "certificateEndDate": "2021-01-08",
      "object": "ARQUITECTURA",
      "mainEntityOfPage": "https://www.contratacion.euskadi.eus/webkpe00-kperoc/es/ac71aBusquedaRegistrosWar/empresa/06810",
      "_links": {
        "self": {
          "name": "AIDE RAMIREZ AMPUDIA",
          "href": "https://api.euskadi.eus/procurements/companies/06810"
        }
      }
    },
    {
      "name": "SACYR CONSERVACIÓN, S.A.",
      "registrationNumber": "07153",
      "identificationNumber": "A30627947",
      "address": "AVENIDA PARTENON 16-18",
      "location": {
        "postalCode": "28042",
        "municipality": "Madrid",
        "county": "Madrid",
        "municipalityId": "079",
        "countyId": "28"
      },
      "economicActivities": [
        {
          "id": "1.501.2",
          "name": "Construcción completa, reparación y conservación obras civiles",
          "_links": {
            "self": {
              "name": "Construcción completa, reparación y conservación obras civiles",
              "href": "https://api.euskadi.eus/procurements/companies/economic-activities/1.501.2"
            }
          }
        },
        {
          "id": "1.911",
          "name": "Servicios agrícolas y ganaderos",
          "_links": {
            "self": {
              "name": "Servicios agrícolas y ganaderos",
              "href": "https://api.euskadi.eus/procurements/companies/economic-activities/1.911"
            }
          }
        }
      ],
      "certificateStartDate": "2020-07-09",
      "certificateEndDate": "2020-12-02",
      "object": "A) LA PLANIFICACIÓN, PROYECCIÓN, CONSTRUCCIÓN, CONSERVACIÓN, MANTENIMIENTO, FINANCIACIÓN Y EXPLOTACIÓN, POR SÍ O POR TERCEROS, DE AUTOPISTAS, AUTOVÍAS, VÍAS RÁPIDAS, CARRETERAS CONVENCIONALES, PUENTES Y TÚNELES, Y DE SUS RESPECTIVAS INSTALACIONES Y ELEMENTOS ACCESORIOS, TALES COMO ÁREAS DE PEAJE, DE CONTROL, DE MANTENIMIENTO Y DE SERVICIO, ESTACIONES DE SERVICIO, GASOLINERAS, TALLERES DE MONTAJE Y REPARACIÓN, APARCAMIENTOS, RESTAURANTES, CAFETERÍAS, BARES, HOTELES, MOTELES, CENTROS DE TRANSPORTE Y DEMÁS ESTABLECIMIENTOS DE DESCANSO, ESPARCIMIENTO O SERVICIO DESTINADOS A LA COBERTURA DE LAS NECESIDADES DE LOS USUARIOS DE LAS CITADAS VÍAS Y DEL TRÁFICO QUE DISCURRA POR LAS MISMAS. B) EXPLOTACIÓN, CONSERVACIÓN Y PRESTACIÓN DE TODO TIPO DE SERVICIOS RELACIONADOS CON LA INFRAESTRUCTURA DEL TRANSPORTE URBANO E INTERURBANO, YA SEA POR VÍA TERRESTRE, MARÍTIMA O AÉREA, ASÍ COMO LA EXPLOTACIÓN Y GESTIÓN DE TODA CLASE DE OBRAS Y SERVICIOS COMPLEMENTARIOS QUE PUEDAN OFRECERSE EN LAS ÁREAS DE INFLUENCIA DE INFRAESTRUCTURAS Y OBRAS, PÚBLICAS Y PRIVADAS. C) LA CONSERVACIÓN Y MANTENIMIENTO DE CARRETERAS, PUENTES, PRESAS, EDIFICIOS, PUERTOS, AEROPUERTOS, VÍAS FÉRREAS Y EN GENERAL DE CUALQUIER TIPO DE INFRAESTRUCTURAS. D) LA EJECUCIÓN DE TODO TIPO DE OBRAS, CON O SIN SUMINISTRO DE MATERIALES, ASÍ COMO LA PRESTACIÓN DE SERVICIOS EN ORDEN A LA CONSERVACIÓN, MANTENIMIENTO Y EXPLOTACIÓN AUTOPISTAS, AUTOVÍAS, CARRETERAS Y, EN GENERAL, TODO TIPO DE VÍAS PÚBLICAS Y PRIVADAS Y DE CUALQUIER OTRO TIPO DE OBRAS. E) LA TITULARIDAD DE TODA CLASE DE CONCESIONES, AUTORIZACIONES Y LICENCIAS ADMINISTRATIVAS DE OBRAS, SERVICIOS Y MIXTAS DEL ESTADO, COMUNIDADES AUTÓNOMAS, PROVINCIAS, MUNICIPIOS, ORGANISMOS AUTÓNOMOS, ENTIDADES AUTÓNOMAS, Y, EN GENERAL, DE CUALQUIER ESTADO O ADMINISTRACIÓN PÚBLICA EXTRANJEROS, ORGANISMOS E INSTITUCIONES INTERNACIONALES. F) LA PRODUCCIÓN Y VENTA DE PLANTAS LEÑOSAS Y VIVACES MICROPROPAGADAS, Y PLANTAS ORNAMENTALES, LA INVESTIGACIÓN EN LABORATORIOS PARA EL MEJORAMIENTO DE PLANTAS HORTÍCOLAS Y FRUTÍCOLAS Y CUALQUIER OTRA ACTIVIDAD CONEXA, DEPENDIENTE O RELACIONADA DIRECTA O INDIRECTAMENTE CON LAS ANTERIORES. G) LA IMPORTACIÓN Y EXPORTACIÓN DE PLANTAS. H) LA EJECUCIÓN DE TODA CLASE DE OBRAS PÚBLICAS Y PRIVADAS, PROMOCIÓN Y CONSTRUCCIÓN DE EDIFICACIONES Y ASESORAMIENTO TÉCNICO EN MATERIA DE EJECUCIÓN DE OBRAS. I) EL ASESORAMIENTO TÉCNICO ECONÓMICO DE EXPLOTACIONES AGRARIAS, REDACCIÓN Y EJECUCIÓN DE PROYECTOS, ESTUDIOS MEDIOAMBIENTALES, Y EN GENERAL TODO LO RELACIONADO CON LA AGRICULTURA Y MEDIO AMBIENTE. J) LA COMERCIALIZACIÓN E INSTALACIÓN DE SISTEMAS DE RIEGO EN TODAS SUS MODALIDADES\r\n",
      "mainEntityOfPage": "https://www.contratacion.euskadi.eus/webkpe00-kperoc/es/ac71aBusquedaRegistrosWar/empresa/07153",
      "_links": {
        "self": {
          "name": "SACYR CONSERVACIÓN, S.A.",
          "href": "https://api.euskadi.eus/procurements/companies/07153"
        }
      }
    },
    {
      "name": "AYSCOM DATATEC, S.L",
      "registrationNumber": "07154",
      "identificationNumber": "B88034913",
      "address": "CALLE MANUEL TOVAR 36 1PL",
      "location": {
        "postalCode": "28034",
        "municipality": "Madrid",
        "county": "Madrid",
        "municipalityId": "079",
        "countyId": "28"
      },
      "economicActivities": [
        {
          "id": "1.615.4",
          "name": "Venta al por mayor de aparatos y material radioeléctrico y electrónico",
          "_links": {
            "self": {
              "name": "Venta al por mayor de aparatos y material radioeléctrico y electrónico",
              "href": "https://api.euskadi.eus/procurements/companies/economic-activities/1.615.4"
            }
          }
        }
      ],
      "certificateStartDate": "2020-07-09",
      "certificateEndDate": "2020-12-19",
      "object": "LA COMPRAVENTA AL POR MENOR Y POR MAYOR, IMPORTACIÓN, EXPORTACIÓN Y DISTRIBUCIÓN DE EQUIPOS ELECTRÓNICOS DE TEST Y MEDIDA",
      "mainEntityOfPage": "https://www.contratacion.euskadi.eus/webkpe00-kperoc/es/ac71aBusquedaRegistrosWar/empresa/07154",
      "_links": {
        "self": {
          "name": "AYSCOM DATATEC, S.L",
          "href": "https://api.euskadi.eus/procurements/companies/07154"
        }
      }
    }
  ]
}