{
  "totalItems": 9042,
  "totalPages": 905,
  "currentPage": 860,
  "itemsOfPage": 10,
  "items": [
    {
      "name": "ISTEDOA, S.L.",
      "registrationNumber": "03942",
      "identificationNumber": "B20497913",
      "address": "URDANETA-POLIDEPORTIVO ISPILLA",
      "location": {
        "postalCode": "20700",
        "municipality": "Zumarraga",
        "county": "Gipuzkoa",
        "municipalityId": "080",
        "countyId": "20"
      },
      "object": "pte",
      "mainEntityOfPage": "https://www.contratacion.euskadi.eus/webkpe00-kperoc/es/ac71aBusquedaRegistrosWar/empresa/03942",
      "_links": {
        "self": {
          "name": "ISTEDOA, S.L.",
          "href": "https://api.euskadi.eus/procurements/companies/03942"
        }
      }
    },
    {
      "name": "GERNIKA BIDAIAK, S.L.",
      "registrationNumber": "03944",
      "identificationNumber": "B95334249",
      "address": "C/ SAN BARTOLOMÉ 8, 2º-D",
      "location": {
        "postalCode": "48300",
        "municipality": "Gernika-Lumo",
        "county": "Bizkaia",
        "municipalityId": "046",
        "countyId": "48"
      },
      "object": "pte",
      "mainEntityOfPage": "https://www.contratacion.euskadi.eus/webkpe00-kperoc/es/ac71aBusquedaRegistrosWar/empresa/03944",
      "_links": {
        "self": {
          "name": "GERNIKA BIDAIAK, S.L.",
          "href": "https://api.euskadi.eus/procurements/companies/03944"
        }
      }
    },
    {
      "name": "EXCURSIONES ARTIBAI, S.L.",
      "registrationNumber": "03945",
      "identificationNumber": "B48437735",
      "address": "C/ RIBERA, 65",
      "location": {
        "postalCode": "48710",
        "municipality": "Berriatua",
        "county": "Bizkaia",
        "municipalityId": "018",
        "countyId": "48"
      },
      "object": "pte",
      "mainEntityOfPage": "https://www.contratacion.euskadi.eus/webkpe00-kperoc/es/ac71aBusquedaRegistrosWar/empresa/03945",
      "_links": {
        "self": {
          "name": "EXCURSIONES ARTIBAI, S.L.",
          "href": "https://api.euskadi.eus/procurements/companies/03945"
        }
      }
    },
    {
      "name": "CONSTRUCCIONES HEREDEROS DE BARRIO, S.L.",
      "registrationNumber": "03959",
      "identificationNumber": "B01260561",
      "address": "CALLE COSCOJAL, 2",
      "location": {
        "postalCode": "01309",
        "municipality": "Elvillar/Bilar",
        "county": "Araba/Álava",
        "municipalityId": "023",
        "countyId": "01"
      },
      "object": "pte",
      "mainEntityOfPage": "https://www.contratacion.euskadi.eus/webkpe00-kperoc/es/ac71aBusquedaRegistrosWar/empresa/03959",
      "_links": {
        "self": {
          "name": "CONSTRUCCIONES HEREDEROS DE BARRIO, S.L.",
          "href": "https://api.euskadi.eus/procurements/companies/03959"
        }
      }
    },
    {
      "name": "HACHE DOS O 2007, S.L.U.",
      "registrationNumber": "03962",
      "identificationNumber": "B20931820",
      "address": "BIDEBARRIETA 39, 4º D",
      "location": {
        "postalCode": "20600",
        "municipality": "Eibar",
        "county": "Gipuzkoa",
        "municipalityId": "030",
        "countyId": "20"
      },
      "object": "pte",
      "mainEntityOfPage": "https://www.contratacion.euskadi.eus/webkpe00-kperoc/es/ac71aBusquedaRegistrosWar/empresa/03962",
      "_links": {
        "self": {
          "name": "HACHE DOS O 2007, S.L.U.",
          "href": "https://api.euskadi.eus/procurements/companies/03962"
        }
      }
    },
    {
      "name": "AUTOPISTAS DE BIZKAIA - BIZKAIKO AUTOPISTAK, S.A.",
      "registrationNumber": "03970",
      "identificationNumber": "A95249199",
      "address": "CAPUCHINOS DE BASURTO, Nº6 - 4º",
      "location": {
        "postalCode": "48013",
        "municipality": "Bilbao",
        "county": "Bizkaia",
        "municipalityId": "020",
        "countyId": "48"
      },
      "object": "pte",
      "mainEntityOfPage": "https://www.contratacion.euskadi.eus/webkpe00-kperoc/es/ac71aBusquedaRegistrosWar/empresa/03970",
      "_links": {
        "self": {
          "name": "AUTOPISTAS DE BIZKAIA - BIZKAIKO AUTOPISTAK, S.A.",
          "href": "https://api.euskadi.eus/procurements/companies/03970"
        }
      }
    },
    {
      "name": "CASEMA P.I.C., S.L.",
      "registrationNumber": "03971",
      "identificationNumber": "B01395094",
      "address": "GASTEIZBIDEA, 57",
      "location": {
        "postalCode": "01240",
        "municipality": "Alegría-Dulantzi",
        "county": "Araba/Álava",
        "municipalityId": "001",
        "countyId": "01"
      },
      "object": "pte",
      "mainEntityOfPage": "https://www.contratacion.euskadi.eus/webkpe00-kperoc/es/ac71aBusquedaRegistrosWar/empresa/03971",
      "_links": {
        "self": {
          "name": "CASEMA P.I.C., S.L.",
          "href": "https://api.euskadi.eus/procurements/companies/03971"
        }
      }
    },
    {
      "name": "V. G. OBRAS Y SERVICIOS INMOBILIARIOS SOCIEDAD LIMITADA",
      "registrationNumber": "03973",
      "identificationNumber": "B48306864",
      "address": "RIBERA DE AXPE Nº 11 B  3º DPTO 312",
      "location": {
        "postalCode": "48950",
        "municipality": "Erandio",
        "county": "Bizkaia",
        "municipalityId": "902",
        "countyId": "48"
      },
      "classification": [
        {
          "id": "O",
          "name": "Obras",
          "groups": [
            {
              "id": "C",
              "name": "EDIFICACIONES",
              "subgroups": [
                {
                  "id": "01",
                  "name": "DEMOLICIONES",
                  "categories": [
                    {
                      "id": "2",
                      "name": "Desde 150.001 Hasta 360.000",
                      "_links": {
                        "self": {
                          "name": "Desde 150.001 Hasta 360.000",
                          "href": "https://api.euskadi.eus/procurements/companies/types/O/categories/2"
                        }
                      }
                    }
                  ],
                  "_links": {
                    "self": {
                      "name": "DEMOLICIONES",
                      "href": "https://api.euskadi.eus/procurements/companies/types/O/groups/C/subgroups/01"
                    }
                  }
                },
                {
                  "id": "02",
                  "name": "ESTRUCTURAS DE FABRICA U HORMIGÓN",
                  "categories": [
                    {
                      "id": "2",
                      "name": "Desde 150.001 Hasta 360.000",
                      "_links": {
                        "self": {
                          "name": "Desde 150.001 Hasta 360.000",
                          "href": "https://api.euskadi.eus/procurements/companies/types/O/categories/2"
                        }
                      }
                    }
                  ],
                  "_links": {
                    "self": {
                      "name": "ESTRUCTURAS DE FABRICA U HORMIGÓN",
                      "href": "https://api.euskadi.eus/procurements/companies/types/O/groups/C/subgroups/02"
                    }
                  }
                },
                {
                  "id": "03",
                  "name": "ESTRUCTURAS METALICAS",
                  "categories": [
                    {
                      "id": "2",
                      "name": "Desde 150.001 Hasta 360.000",
                      "_links": {
                        "self": {
                          "name": "Desde 150.001 Hasta 360.000",
                          "href": "https://api.euskadi.eus/procurements/companies/types/O/categories/2"
                        }
                      }
                    }
                  ],
                  "_links": {
                    "self": {
                      "name": "ESTRUCTURAS METALICAS",
                      "href": "https://api.euskadi.eus/procurements/companies/types/O/groups/C/subgroups/03"
                    }
                  }
                },
                {
                  "id": "04",
                  "name": "ALBAÑILERIA, REVOCOS Y REVESTIDOS",
                  "categories": [
                    {
                      "id": "3",
                      "name": "Desde 360.001 Hasta 840.000",
                      "_links": {
                        "self": {
                          "name": "Desde 360.001 Hasta 840.000",
                          "href": "https://api.euskadi.eus/procurements/companies/types/O/categories/3"
                        }
                      }
                    }
                  ],
                  "_links": {
                    "self": {
                      "name": "ALBAÑILERIA, REVOCOS Y REVESTIDOS",
                      "href": "https://api.euskadi.eus/procurements/companies/types/O/groups/C/subgroups/04"
                    }
                  }
                },
                {
                  "id": "06",
                  "name": "PAVIMENTOS, SOLADOS Y ALICATADOS",
                  "categories": [
                    {
                      "id": "2",
                      "name": "Desde 150.001 Hasta 360.000",
                      "_links": {
                        "self": {
                          "name": "Desde 150.001 Hasta 360.000",
                          "href": "https://api.euskadi.eus/procurements/companies/types/O/categories/2"
                        }
                      }
                    }
                  ],
                  "_links": {
                    "self": {
                      "name": "PAVIMENTOS, SOLADOS Y ALICATADOS",
                      "href": "https://api.euskadi.eus/procurements/companies/types/O/groups/C/subgroups/06"
                    }
                  }
                },
                {
                  "id": "07",
                  "name": "AISLAMIENTOS E IMPERMEABILIZACIONES",
                  "categories": [
                    {
                      "id": "3",
                      "name": "Desde 360.001 Hasta 840.000",
                      "_links": {
                        "self": {
                          "name": "Desde 360.001 Hasta 840.000",
                          "href": "https://api.euskadi.eus/procurements/companies/types/O/categories/3"
                        }
                      }
                    }
                  ],
                  "_links": {
                    "self": {
                      "name": "AISLAMIENTOS E IMPERMEABILIZACIONES",
                      "href": "https://api.euskadi.eus/procurements/companies/types/O/groups/C/subgroups/07"
                    }
                  }
                },
                {
                  "id": "08",
                  "name": "CARPINTERIA DE MADERA",
                  "categories": [
                    {
                      "id": "1",
                      "name": "Desde 0 Hasta 150.000",
                      "_links": {
                        "self": {
                          "name": "Desde 0 Hasta 150.000",
                          "href": "https://api.euskadi.eus/procurements/companies/types/O/categories/1"
                        }
                      }
                    }
                  ],
                  "_links": {
                    "self": {
                      "name": "CARPINTERIA DE MADERA",
                      "href": "https://api.euskadi.eus/procurements/companies/types/O/groups/C/subgroups/08"
                    }
                  }
                },
                {
                  "id": "09",
                  "name": "CARPINTERIA METALICA",
                  "categories": [
                    {
                      "id": "2",
                      "name": "Desde 150.001 Hasta 360.000",
                      "_links": {
                        "self": {
                          "name": "Desde 150.001 Hasta 360.000",
                          "href": "https://api.euskadi.eus/procurements/companies/types/O/categories/2"
                        }
                      }
                    }
                  ],
                  "_links": {
                    "self": {
                      "name": "CARPINTERIA METALICA",
                      "href": "https://api.euskadi.eus/procurements/companies/types/O/groups/C/subgroups/09"
                    }
                  }
                }
              ],
              "_links": {
                "self": {
                  "name": "EDIFICACIONES",
                  "href": "https://api.euskadi.eus/procurements/companies/types/O/groups/C"
                }
              }
            }
          ],
          "_links": {
            "self": {
              "name": "Obras",
              "href": "https://api.euskadi.eus/procurements/companies/types/O"
            }
          }
        }
      ],
      "object": "A. La adquisición, tenencia, disfrute, explotación y enajenación de toda clase de fincas rústicas o urbanas, cualquiera que fuera. su naturaleza.\nB. La promoción, construcción, rehabilitación y reparación, por cuenta propia o ajena, de toda clase de obras, urbanizaciones, edificios y construcciones, tanto públicos como privados. \nC. La administración, asesoramiento, gestión de actuaciones urbanísticas y prestación de servicio de todo tipo con relación a bienes inmuebles, según convenga a su aprovechamiento agrícola, forestal, urbano, industrial o de cualquier otra naturaleza.\nD. La asistencia, gestión, dirección, administración, promoción, intervención y participación en empresas o en su creación, constitución o desarrollo.\nE. La promoción, estudio y desarrollo de productos y actividades industriales, comerciales y de distribución, en empresas propias o participadas, y explotación o cesión de cánones o royalties y derechos de propiedad industrial.\nF. Los servicios de mediación, gestión, representación y Comercio interior y exterior, almacenamiento, arrendamiento y, en general, la comercialización y distribución de toda clase de productos.\nG. La adquisición, tenencia, disfrute, administración y enajenación de toda clase de títulos como valores mobiliarios, activos financieros, derechos valores, cuotas o participaciones en empresas individuales o sociales por cuenta propia y con excepción de la intermediación, no incluyéndose en ningún caso en la actividad objeto de la legislación de instituciones de inversión colectiva y de mercado de valores.\n\nLa relación de las actividades que integran el objeto social podrás realizarse, total o parcialmente, por la propia sociedad directamente o bien mediante participación en otras sociedades o entidades con o sin personalidad jurídica. \nLa sociedad no realizará ninguna de las actividades sujetas a autorización especial y legislación especial.\n",
      "mainEntityOfPage": "https://www.contratacion.euskadi.eus/webkpe00-kperoc/es/ac71aBusquedaRegistrosWar/empresa/03973",
      "_links": {
        "self": {
          "name": "V. G. OBRAS Y SERVICIOS INMOBILIARIOS SOCIEDAD LIMITADA",
          "href": "https://api.euskadi.eus/procurements/companies/03973"
        }
      }
    },
    {
      "name": "JOSE ZUBIATE BERRIOZABAL",
      "registrationNumber": "03975",
      "identificationNumber": "14775071D",
      "address": "BARRIO ZENITA 18",
      "location": {
        "postalCode": "48320",
        "municipality": "Elorrio",
        "county": "Bizkaia",
        "municipalityId": "032",
        "countyId": "48"
      },
      "object": "pte",
      "mainEntityOfPage": "https://www.contratacion.euskadi.eus/webkpe00-kperoc/es/ac71aBusquedaRegistrosWar/empresa/03975",
      "_links": {
        "self": {
          "name": "JOSE ZUBIATE BERRIOZABAL",
          "href": "https://api.euskadi.eus/procurements/companies/03975"
        }
      }
    },
    {
      "name": "HIJOS DE ERRO, S.L.",
      "registrationNumber": "03977",
      "identificationNumber": "B01109412",
      "address": "FUEROS 18, 3º",
      "location": {
        "postalCode": "01200",
        "municipality": "Agurain/Salvatierra",
        "county": "Araba/Álava",
        "municipalityId": "051",
        "countyId": "01"
      },
      "object": "pte",
      "mainEntityOfPage": "https://www.contratacion.euskadi.eus/webkpe00-kperoc/es/ac71aBusquedaRegistrosWar/empresa/03977",
      "_links": {
        "self": {
          "name": "HIJOS DE ERRO, S.L.",
          "href": "https://api.euskadi.eus/procurements/companies/03977"
        }
      }
    }
  ]
}