{
  "totalItems": 9042,
  "totalPages": 905,
  "currentPage": 371,
  "itemsOfPage": 10,
  "items": [
    {
      "name": "SEPROGIN SISTEMAS DE SEGURIDAD, S.A.",
      "registrationNumber": "08004",
      "identificationNumber": "A95636734",
      "address": "Pol. Ind. Legizamon C/Gipuzkoa Pab. C9",
      "location": {
        "postalCode": "48450",
        "municipality": "Etxebarri",
        "county": "Bizkaia",
        "municipalityId": "029",
        "countyId": "48"
      },
      "economicActivities": [
        {
          "id": "1.504.12",
          "name": "Instalaciones eléctricas en toda clase de edificios",
          "_links": {
            "self": {
              "name": "Instalaciones eléctricas en toda clase de edificios",
              "href": "https://api.euskadi.eus/procurements/companies/economic-activities/1.504.12"
            }
          }
        }
      ],
      "certificateStartDate": "2025-02-13",
      "certificateEndDate": "2025-08-13",
      "object": "A) LA FABRICACIÓN, COMERCIALIZACIÓN, INSTALACIÓN, REPARACIÓN Y MANTENIMIENTO DE SISTEMAS DE PROTECCIÓN CONTRA INCENDIOS. B) LA INSTALACIÓN Y MANTENIMIENTO DE APARATOS, DISPOSITIVOS Y SISTEMAS DE SEGURIDAD.",
      "mainEntityOfPage": "https://www.contratacion.euskadi.eus/webkpe00-kperoc/es/ac71aBusquedaRegistrosWar/empresa/08004",
      "_links": {
        "self": {
          "name": "SEPROGIN SISTEMAS DE SEGURIDAD, S.A.",
          "href": "https://api.euskadi.eus/procurements/companies/08004"
        }
      }
    },
    {
      "name": "ADRIAN MEDIAVILLA MARTIN",
      "registrationNumber": "08371",
      "identificationNumber": "72889717A",
      "address": "C/LANDAKO nº30, 2ºB",
      "location": {
        "postalCode": "01470",
        "municipality": "Amurrio",
        "county": "Araba/Álava",
        "municipalityId": "002",
        "countyId": "01"
      },
      "economicActivities": [
        {
          "id": "2.321",
          "name": "Ingenieros técnicos industriales y textiles, ayudantes",
          "_links": {
            "self": {
              "name": "Ingenieros técnicos industriales y textiles, ayudantes",
              "href": "https://api.euskadi.eus/procurements/companies/economic-activities/2.321"
            }
          }
        }
      ],
      "certificateStartDate": "2025-02-13",
      "certificateEndDate": "2025-08-13",
      "object": "INGENIEROS TÉCNICOS INDUSTRIALES Y TEXTILES, AYUDANTES.",
      "mainEntityOfPage": "https://www.contratacion.euskadi.eus/webkpe00-kperoc/es/ac71aBusquedaRegistrosWar/empresa/08371",
      "_links": {
        "self": {
          "name": "ADRIAN MEDIAVILLA MARTIN",
          "href": "https://api.euskadi.eus/procurements/companies/08371"
        }
      }
    },
    {
      "name": "PRODUCTOS FAVESAN, S.A.",
      "registrationNumber": "03269",
      "identificationNumber": "A45063583",
      "address": "CR PORTILLO - NOVES KM 3",
      "location": {
        "postalCode": "45519",
        "municipality": "Novés",
        "county": "Toledo",
        "municipalityId": "118",
        "countyId": "45"
      },
      "economicActivities": [
        {
          "id": "1.254.2",
          "name": "Fabricación de especialidades y otros productos farmacéuticos",
          "_links": {
            "self": {
              "name": "Fabricación de especialidades y otros productos farmacéuticos",
              "href": "https://api.euskadi.eus/procurements/companies/economic-activities/1.254.2"
            }
          }
        }
      ],
      "certificateStartDate": "2025-02-12",
      "certificateEndDate": "2025-08-06",
      "object": "LA FABRICACIÓN DE TEJIDOS SIN TEJER (PAPEL CELULOSA) Y DERIVADOS DE DICHO PRODUCTO DEL ALGODÓN, ASÍ COMO CONFECCIÓN Y MANIPULACIÓN DE PRODUCTOS SANITARIOS",
      "mainEntityOfPage": "https://www.contratacion.euskadi.eus/webkpe00-kperoc/es/ac71aBusquedaRegistrosWar/empresa/03269",
      "_links": {
        "self": {
          "name": "PRODUCTOS FAVESAN, S.A.",
          "href": "https://api.euskadi.eus/procurements/companies/03269"
        }
      }
    },
    {
      "name": "AMANDA JANDULA RODRIGUEZ",
      "registrationNumber": "10021",
      "identificationNumber": "44571557H",
      "address": "Salvador Echeandia N6 1C",
      "location": {
        "postalCode": "20304",
        "municipality": "Irun",
        "county": "Gipuzkoa",
        "municipalityId": "045",
        "countyId": "20"
      },
      "economicActivities": [
        {
          "id": "1.973.1",
          "name": "Servicios fotográficos",
          "_links": {
            "self": {
              "name": "Servicios fotográficos",
              "href": "https://api.euskadi.eus/procurements/companies/economic-activities/1.973.1"
            }
          }
        },
        {
          "id": "2.826",
          "name": "Personal docente de enseñanzas diversas",
          "_links": {
            "self": {
              "name": "Personal docente de enseñanzas diversas",
              "href": "https://api.euskadi.eus/procurements/companies/economic-activities/2.826"
            }
          }
        },
        {
          "id": "2.899",
          "name": "Otros profesionales",
          "_links": {
            "self": {
              "name": "Otros profesionales",
              "href": "https://api.euskadi.eus/procurements/companies/economic-activities/2.899"
            }
          }
        }
      ],
      "certificateStartDate": "2025-02-12",
      "certificateEndDate": "2025-08-07",
      "object": "OTROS PROFESIONALES. SERVICIOS FOTOGRÁFICOS. PERSONAL DOCENTE DE ENSEÑANZAS DIVERSAS.",
      "mainEntityOfPage": "https://www.contratacion.euskadi.eus/webkpe00-kperoc/es/ac71aBusquedaRegistrosWar/empresa/10021",
      "_links": {
        "self": {
          "name": "AMANDA JANDULA RODRIGUEZ",
          "href": "https://api.euskadi.eus/procurements/companies/10021"
        }
      }
    },
    {
      "name": "EXPLOTACIONES FORESTALES JIMÉNEZ ARABA, S.L.",
      "registrationNumber": "03232",
      "identificationNumber": "B01395326",
      "address": "DOMINGO BELTRÁN 23, 3º IZDA",
      "location": {
        "postalCode": "01012",
        "municipality": "Vitoria-Gasteiz",
        "county": "Araba/Álava",
        "municipalityId": "059",
        "countyId": "01"
      },
      "economicActivities": [
        {
          "id": "1.912",
          "name": "Servicios forestales",
          "_links": {
            "self": {
              "name": "Servicios forestales",
              "href": "https://api.euskadi.eus/procurements/companies/economic-activities/1.912"
            }
          }
        }
      ],
      "certificateStartDate": "2025-02-11",
      "certificateEndDate": "2025-07-25",
      "object": "EXPLOTACIONES FORESTALES Y PREVENCIÓN DE INCENDIOS",
      "mainEntityOfPage": "https://www.contratacion.euskadi.eus/webkpe00-kperoc/es/ac71aBusquedaRegistrosWar/empresa/03232",
      "_links": {
        "self": {
          "name": "EXPLOTACIONES FORESTALES JIMÉNEZ ARABA, S.L.",
          "href": "https://api.euskadi.eus/procurements/companies/03232"
        }
      }
    },
    {
      "name": "AUTOCARES BELINTXON, S.L.",
      "registrationNumber": "04229",
      "identificationNumber": "B20461166",
      "address": "MAKURREN KALEA, Nº 11, POL. 107",
      "location": {
        "postalCode": "20100",
        "municipality": "Lezo",
        "county": "Gipuzkoa",
        "municipalityId": "053",
        "countyId": "20"
      },
      "economicActivities": [
        {
          "id": "1.721.3",
          "name": "Transporte de viajeros por carretera",
          "_links": {
            "self": {
              "name": "Transporte de viajeros por carretera",
              "href": "https://api.euskadi.eus/procurements/companies/economic-activities/1.721.3"
            }
          }
        }
      ],
      "certificateStartDate": "2025-02-11",
      "certificateEndDate": "2025-07-29",
      "object": "EL TRANSPORTE DE VIAJEROS POR CARRETERA, TANTO NACIONAL COMO INTERNACIONAL",
      "mainEntityOfPage": "https://www.contratacion.euskadi.eus/webkpe00-kperoc/es/ac71aBusquedaRegistrosWar/empresa/04229",
      "_links": {
        "self": {
          "name": "AUTOCARES BELINTXON, S.L.",
          "href": "https://api.euskadi.eus/procurements/companies/04229"
        }
      }
    },
    {
      "name": "IGARLE, S.L.",
      "registrationNumber": "10015",
      "identificationNumber": "B20480059",
      "address": "Calle Zuatzu",
      "location": {
        "postalCode": "20018",
        "municipality": "Donostia / San Sebastián",
        "county": "Gipuzkoa",
        "municipalityId": "069",
        "countyId": "20"
      },
      "economicActivities": [
        {
          "id": "1.845",
          "name": "Explotación electrónica por cuenta de terceros",
          "_links": {
            "self": {
              "name": "Explotación electrónica por cuenta de terceros",
              "href": "https://api.euskadi.eus/procurements/companies/economic-activities/1.845"
            }
          }
        }
      ],
      "certificateStartDate": "2025-02-10",
      "certificateEndDate": "2025-08-06",
      "object": "LA PRESTACIÓN DE SERVICIOS DE ESTUDIO Y ANÁLISIS DE PROCESOS PARA SU TRATAMIENTO MECÁNICO, DE PROGRAMACIÓN, INFORMÁTICA, DE REGISTRO DE DATOS EN SOPORTES DE ENTRADA PARA ORDENADORES, LA VENTA DE PROGRAMAS, EL PROCESO DE DATOS POR CUENTA DE TERCEROS Y OTROS SERVICIOS INDEPENDIENTES DE ELABORACIÓN DE DATOS Y TABULACIÓN, ASÍ COMO OTRAS ACTIVIDADES ANÁLOGAS Y COMPLEMENTARIAS A LA PROGRAMACIÓN Y ANÁLISIS INFORMÁTICOS.",
      "mainEntityOfPage": "https://www.contratacion.euskadi.eus/webkpe00-kperoc/es/ac71aBusquedaRegistrosWar/empresa/10015",
      "_links": {
        "self": {
          "name": "IGARLE, S.L.",
          "href": "https://api.euskadi.eus/procurements/companies/10015"
        }
      }
    },
    {
      "name": "BIM SURVEY-INGENIERIA Y ARQUITECTURA, S.L.",
      "registrationNumber": "06849",
      "identificationNumber": "B01581446",
      "address": "Hermanos Lumiere, 11, of 16",
      "location": {
        "postalCode": "01510",
        "municipality": "Vitoria-Gasteiz",
        "county": "Araba/Álava",
        "municipalityId": "059",
        "countyId": "01"
      },
      "economicActivities": [
        {
          "id": "1.843.1",
          "name": "Servicios técnicos de ingeniería",
          "_links": {
            "self": {
              "name": "Servicios técnicos de ingeniería",
              "href": "https://api.euskadi.eus/procurements/companies/economic-activities/1.843.1"
            }
          }
        },
        {
          "id": "1.843.2",
          "name": "Servicios técnicos de arquitectura y urbanismo",
          "_links": {
            "self": {
              "name": "Servicios técnicos de arquitectura y urbanismo",
              "href": "https://api.euskadi.eus/procurements/companies/economic-activities/1.843.2"
            }
          }
        }
      ],
      "certificateStartDate": "2025-02-10",
      "certificateEndDate": "2025-07-31",
      "object": "LA REDACCIÓN DE PLANES URBANÍSTICOS, INFORMES Y PROYECTOS, ASÍ COMO EL DESEMPEÑO DE LAS LABORES DE DIRECCIÓN DE OBRA, JEFATURA DE OBRA Y ASISTENCIAS TÉCNICAS EN LOS SIGUIENTES ÁMBITOS: - INGENIERÍA. - ARQUITECTURA. - URBANISMO. - MEDIO AMBIENTE. - GEOTECNIA. - TOPOGRAFÍA. - CONSTRUCCIÓN. - PLANES DE ACCESIBILIDAD. - PERITAJES. ADEMÁS DE ELLO, COMO EMPRESA TECNOLÓGICA, EL OBJETO SOCIAL TAMBIÉN ENGLOBA LA IMPLANTACIÓN DE NUEVAS TECNOLOGÍAS EN OTRAS EMPRESAS REALIZANDO ASESORAMIENTO TÉCNICO, ACCIONES DE FORMACIÓN Y CONSULTORÍA TÉCNICA PARA EL DESARROLLO DE NUEVOS PROCESOS EN LA CONSTRUCCIÓN E INDUSTRIA 4.0",
      "mainEntityOfPage": "https://www.contratacion.euskadi.eus/webkpe00-kperoc/es/ac71aBusquedaRegistrosWar/empresa/06849",
      "_links": {
        "self": {
          "name": "BIM SURVEY-INGENIERIA Y ARQUITECTURA, S.L.",
          "href": "https://api.euskadi.eus/procurements/companies/06849"
        }
      }
    },
    {
      "name": "HERNANDEZ ZABALETA ANA BELEN",
      "registrationNumber": "09763",
      "identificationNumber": "13304018J",
      "address": "CALLE NORTE , NUM 4 - 5º D .09200 MIRANDA DE EBRO (BURGOS)",
      "location": {
        "postalCode": "09200",
        "municipality": "Miranda de Ebro",
        "county": "Burgos",
        "municipalityId": "219",
        "countyId": "09"
      },
      "economicActivities": [
        {
          "id": "2.899",
          "name": "Otros profesionales",
          "_links": {
            "self": {
              "name": "Otros profesionales",
              "href": "https://api.euskadi.eus/procurements/companies/economic-activities/2.899"
            }
          }
        }
      ],
      "certificateStartDate": "2025-02-07",
      "certificateEndDate": "2025-08-07",
      "object": "OTROS PROFESIONALES RELACIONADOS CON SERVICIOS.",
      "mainEntityOfPage": "https://www.contratacion.euskadi.eus/webkpe00-kperoc/es/ac71aBusquedaRegistrosWar/empresa/09763",
      "_links": {
        "self": {
          "name": "HERNANDEZ ZABALETA ANA BELEN",
          "href": "https://api.euskadi.eus/procurements/companies/09763"
        }
      }
    },
    {
      "name": "BINARY SOUL, S.L.",
      "registrationNumber": "07233",
      "identificationNumber": "B95756813",
      "address": "Carretera Bilbao Galdakao 10, 2 planta módulo 11, Binary Soul",
      "location": {
        "postalCode": "48004",
        "municipality": "Bilbao",
        "county": "Bizkaia",
        "municipalityId": "020",
        "countyId": "48"
      },
      "economicActivities": [
        {
          "id": "1.845",
          "name": "Explotación electrónica por cuenta de terceros",
          "_links": {
            "self": {
              "name": "Explotación electrónica por cuenta de terceros",
              "href": "https://api.euskadi.eus/procurements/companies/economic-activities/1.845"
            }
          }
        }
      ],
      "certificateStartDate": "2025-02-06",
      "certificateEndDate": "2025-07-25",
      "object": "1. EL DISEÑO, DESARROLLO Y PROGRAMACIÓN DE VIDEOJUEGOS, APLICACIONES INTERACTIVAS Y SOLUCIONES SOFTWARE INNOVADORAS CON UN FUERTE COMPONENTE SOCIAL Y DE TRABAJO COLABORATIVO. 2. LA PRESTACIÓN DE SERVICIOS DE EDUCACIÓN, FORMACIÓN, TELEFORMACIÓN Y CONSULTORÍA EN MATERIA INFORMÁTICA. 3. SERVICIOS DE IMPLANTACIÓN Y DESARROLLO DE SOLUCIONES INFORMÁTICAS Y DE SOFTWARE PROPIOS Y/O DESARROLLADOS CON TERCEROS. 4. VENTA Y ARRENDAMIENTO DE PROGRAMAS, EQUIPOS Y PRODUCTOS INFORMÁTICOS Y DE APOYO PARA CUALQUIER TIPO DE SOLUCIÓN TECNOLÓGICA. 5. LA ADQUISICIÓN, TENENCIA, DISFRUTE, ENAJENACIÓN Y PERMUTA DE TODA CLASE DE TÍTULOS, VALORES MOBILIARIOS, ACTIVOS FINANCIEROS, DERECHOS, VALORES, CUOTAS O PARTICIPACIONES EN EMPRESAS INDIVIDUALES O SOCIALES POR CUENTA AJENA, CON EXCEPCIÓN DE LA INTERMEDIACIÓN, Y DE LAS ACTIVIDADES REGULADAS POR LAS INSTITUCIONES DE INVERSIÓN COLECTIVA Y DEL MERCADO DE VALORES. 6. LA COMPRAVENTA, ARRENDAMIENTO Y EXPLOTACIÓN DE TODA CLASE DE BIENES INMUEBLES Y MUEBLES. 7. LAS ACTIVIDADES INTEGRANTES DEL OBJETO SOCIAL PODRÁ SER DESARROLLADAS POR LA SOCIEDAD, TOTAL O PARCIALMENTE, DE MODO INDIRECTO, MEDIANTE LA TITULARIDAD DE PARTICIPACIONES SOCIALES EN OTRAS SOCIEDADES CON OBJETO IDÉNTICO O ANÁLOGO. LA SOCIEDAD NO DESARROLLARÁ NINGUNA ACTIVIDAD PARA LA QUE LAS LEYES EXIJAN CONDICIONES O LIMITACIONES ESPECÍFICAS EN TANTO NO SE DÉ EXACTO CUMPLIMIENTO DE LAS MISMAS. EL CNAE DE LA ACTIVIDAD PRINCIPAL PERTENECE AL GRUPO 6201 ACTIVIDADES  DE PROGRAMACIÓN INFORMÁTICA",
      "mainEntityOfPage": "https://www.contratacion.euskadi.eus/webkpe00-kperoc/es/ac71aBusquedaRegistrosWar/empresa/07233",
      "_links": {
        "self": {
          "name": "BINARY SOUL, S.L.",
          "href": "https://api.euskadi.eus/procurements/companies/07233"
        }
      }
    }
  ]
}