{
  "totalItems": 9042,
  "totalPages": 905,
  "currentPage": 280,
  "itemsOfPage": 10,
  "items": [
    {
      "name": "ESTUDIOS DE MÚSICA INTERCLABE, S.L.",
      "registrationNumber": "08147",
      "identificationNumber": "B48527717",
      "address": "Herriko Plaza 1",
      "location": {
        "postalCode": "48142",
        "municipality": "Artea",
        "county": "Bizkaia",
        "municipalityId": "023",
        "countyId": "48"
      },
      "economicActivities": [
        {
          "id": "1.933.9",
          "name": "Otras actividades de enseñanza tales como idiomas, mecanografía",
          "_links": {
            "self": {
              "name": "Otras actividades de enseñanza tales como idiomas, mecanografía",
              "href": "https://api.euskadi.eus/procurements/companies/economic-activities/1.933.9"
            }
          }
        }
      ],
      "certificateStartDate": "2025-09-13",
      "certificateEndDate": "2026-03-13",
      "object": "LA ENSEÑANZA, PROMOCIÓN Y DIFUSIÓN DE LA MÚSICA.",
      "mainEntityOfPage": "https://www.contratacion.euskadi.eus/webkpe00-kperoc/es/ac71aBusquedaRegistrosWar/empresa/08147",
      "_links": {
        "self": {
          "name": "ESTUDIOS DE MÚSICA INTERCLABE, S.L.",
          "href": "https://api.euskadi.eus/procurements/companies/08147"
        }
      }
    },
    {
      "name": "LANKOPI, S.A.L.",
      "registrationNumber": "01452",
      "identificationNumber": "A48147706",
      "address": "C/ COLÓN DE LARREÁTEGUI, Nº 16",
      "location": {
        "postalCode": "48001",
        "municipality": "Bilbao",
        "county": "Bizkaia",
        "municipalityId": "020",
        "countyId": "48"
      },
      "economicActivities": [
        {
          "id": "1.475",
          "name": "Actividades anexas a las artes gráficas",
          "_links": {
            "self": {
              "name": "Actividades anexas a las artes gráficas",
              "href": "https://api.euskadi.eus/procurements/companies/economic-activities/1.475"
            }
          }
        },
        {
          "id": "1.659.2",
          "name": "Venta al por menor de muebles de oficina y máquinas y equipos de oficina",
          "_links": {
            "self": {
              "name": "Venta al por menor de muebles de oficina y máquinas y equipos de oficina",
              "href": "https://api.euskadi.eus/procurements/companies/economic-activities/1.659.2"
            }
          }
        },
        {
          "id": "1.659.4",
          "name": "Venta al por menor de libros, periódicos y artículos de papelería y escritorio",
          "_links": {
            "self": {
              "name": "Venta al por menor de libros, periódicos y artículos de papelería y escritorio",
              "href": "https://api.euskadi.eus/procurements/companies/economic-activities/1.659.4"
            }
          }
        },
        {
          "id": "1.659.9",
          "name": "Venta al por menor de otros productos no especificados en esta agrupación",
          "_links": {
            "self": {
              "name": "Venta al por menor de otros productos no especificados en esta agrupación",
              "href": "https://api.euskadi.eus/procurements/companies/economic-activities/1.659.9"
            }
          }
        },
        {
          "id": "1.861.2",
          "name": "Alquiler de locales industriales y otros alquileres n.c.o.p",
          "_links": {
            "self": {
              "name": "Alquiler de locales industriales y otros alquileres n.c.o.p",
              "href": "https://api.euskadi.eus/procurements/companies/economic-activities/1.861.2"
            }
          }
        },
        {
          "id": "1.973.3",
          "name": "Servicios de copias de documentos con máquina fotocopiadora",
          "_links": {
            "self": {
              "name": "Servicios de copias de documentos con máquina fotocopiadora",
              "href": "https://api.euskadi.eus/procurements/companies/economic-activities/1.973.3"
            }
          }
        }
      ],
      "certificateStartDate": "2025-09-13",
      "certificateEndDate": "2026-03-13",
      "classification": [
        {
          "id": "S",
          "name": "Servicios",
          "groups": [
            {
              "id": "M",
              "subgroups": [
                {
                  "id": "04",
                  "name": "Artes gráficas",
                  "categories": [
                    {
                      "id": "3",
                      "name": "Desde 300.001 Hasta 600.000",
                      "_links": {
                        "self": {
                          "name": "Desde 300.001 Hasta 600.000",
                          "href": "https://api.euskadi.eus/procurements/companies/types/S/categories/3"
                        }
                      }
                    }
                  ],
                  "_links": {
                    "self": {
                      "name": "Artes gráficas",
                      "href": "https://api.euskadi.eus/procurements/companies/types/S/groups/M/subgroups/04"
                    }
                  }
                }
              ],
              "_links": {
                "self": {
                  "href": "https://api.euskadi.eus/procurements/companies/types/S/groups/M"
                }
              }
            }
          ],
          "_links": {
            "self": {
              "name": "Servicios",
              "href": "https://api.euskadi.eus/procurements/companies/types/S"
            }
          }
        }
      ],
      "object": "LA COMPRA, VENTA, ALMACENAMIENTO, DEPÓSITO Y DISTRIBUCIÓN DE MÁQUINAS, MERCANCÍAS, PRODUCTOS, ARTÍCULOS Y MATERIAS DE TODAS CLASES, RELACIONADAS CON LA COPISTERÍA, REPRODUCCIÓN, Y COMUNICACIÓN GRÁFICA. LOS SERVICIOS DE MEDIACIÓN CON BIENES PROPIOS O AJENOS, ASÍ COMO LOS DE CONSIGNACIÓN, REPRESENTACIÓN Y GESTIÓN, INCLUSO DE TODA CLASE DE SUMINISTROS DE PRODUCTOS EN GENERAL, NACIONALES Y EXTRANJEROS Y LAS ACTIVIDADES DE IMPORTACIÓN Y EXPORTACIÓN. TODAS LAS OPERACIONES RELACIONADAS CON LA INDUSTRIA DE LA IMPRENTA, LITOGRAFÍA, ENCUADERNACIÓN Y NEGOCIOS EDITORIALES U OTROS ANÁLOGOS O RELACIONADOS CON LA MISMA. TODAS LAS OPERACIONES COMERCIALES O INDUSTRIALES QUE SE REFIERAN DIRECTA O INDIRECTAMENTE, EN TODO O EN PARTE, AL OBJETO SOCIAL, COMPRENDIDO EN TODOS Y CADA UNO DE LOS PRECEDENTES APARTADOS, O QUE SEAN SUSCEPTIBLES DE FACILITAR O FAVORECER SU REALIZACIÓN. ACTIVIDADES ANEXAS A LAS ARTES GRÁFICAS. COMERCIO AL POR MENOR DE LIBROS, PERIÓDICOS, ARTÍCULOS DE PAPELERÍA Y ESCRITORIO Y ARTÍCULOS DE DIBUJO Y BELLAS ARTES. COMERCIO AL POR MENOR DE MUEBLES DE OFICINA Y DE MÁQUINAS Y EQUIPOS DE OFICINA. COMERCIO AL POR MENOR DE REGALOS Y MERCHANDISING. ALQUILER DE LOCALES",
      "mainEntityOfPage": "https://www.contratacion.euskadi.eus/webkpe00-kperoc/es/ac71aBusquedaRegistrosWar/empresa/01452",
      "_links": {
        "self": {
          "name": "LANKOPI, S.A.L.",
          "href": "https://api.euskadi.eus/procurements/companies/01452"
        }
      }
    },
    {
      "name": "SASOIA EDUCACION PARA LA SALUD Y PREVENCION DE DROGODEPENDENCIAS, S.L.",
      "registrationNumber": "06263",
      "identificationNumber": "B95055737",
      "address": "POLIGONO ALIENDALDE, 11-1ºD",
      "location": {
        "postalCode": "48200",
        "municipality": "Durango",
        "county": "Bizkaia",
        "municipalityId": "027",
        "countyId": "48"
      },
      "economicActivities": [
        {
          "id": "1.476.1",
          "name": "Edición de libros",
          "_links": {
            "self": {
              "name": "Edición de libros",
              "href": "https://api.euskadi.eus/procurements/companies/economic-activities/1.476.1"
            }
          }
        },
        {
          "id": "1.934",
          "name": "Enseñanza fuera de establecimiento permanente",
          "_links": {
            "self": {
              "name": "Enseñanza fuera de establecimiento permanente",
              "href": "https://api.euskadi.eus/procurements/companies/economic-activities/1.934"
            }
          }
        }
      ],
      "certificateStartDate": "2025-09-13",
      "certificateEndDate": "2026-03-13",
      "object": " LA PRESTACIÓN DE LOS SERVICIOS EDUCATIVOS DE ENSEÑANZA NO REGLADA, CONSISTENTES EN LA EJECUCIÓN DE PROGRAMAS EDUCATIVOS ORIENTADOS A LA EDUCACIÓN PARA LA SALUD Y LA DE PREVENCIÓN DE LAS DROGODEPENDENCIAS",
      "mainEntityOfPage": "https://www.contratacion.euskadi.eus/webkpe00-kperoc/es/ac71aBusquedaRegistrosWar/empresa/06263",
      "_links": {
        "self": {
          "name": "SASOIA EDUCACION PARA LA SALUD Y PREVENCION DE DROGODEPENDENCIAS, S.L.",
          "href": "https://api.euskadi.eus/procurements/companies/06263"
        }
      }
    },
    {
      "name": "ANGEL SOTA VITORIA",
      "registrationNumber": "05566",
      "identificationNumber": "16034312T",
      "address": "C/ Etxebarri, nº 21-2º C",
      "location": {
        "postalCode": "48600",
        "municipality": "Sopela",
        "county": "Bizkaia",
        "municipalityId": "085",
        "countyId": "48"
      },
      "economicActivities": [
        {
          "id": "1.721.2",
          "name": "Transporte por autotaxis",
          "_links": {
            "self": {
              "name": "Transporte por autotaxis",
              "href": "https://api.euskadi.eus/procurements/companies/economic-activities/1.721.2"
            }
          }
        }
      ],
      "certificateStartDate": "2025-09-13",
      "certificateEndDate": "2026-02-28",
      "object": "TRANSPORTE POR AUTOTAXIS",
      "mainEntityOfPage": "https://www.contratacion.euskadi.eus/webkpe00-kperoc/es/ac71aBusquedaRegistrosWar/empresa/05566",
      "_links": {
        "self": {
          "name": "ANGEL SOTA VITORIA",
          "href": "https://api.euskadi.eus/procurements/companies/05566"
        }
      }
    },
    {
      "name": "IRUNTEL, S.L.",
      "registrationNumber": "10330",
      "identificationNumber": "B20853719",
      "address": "Calle Blas de Lezo 20 local 5",
      "location": {
        "postalCode": "20301",
        "municipality": "Irun",
        "county": "Gipuzkoa",
        "municipalityId": "045",
        "countyId": "20"
      },
      "economicActivities": [
        {
          "id": "1.653.2",
          "name": "Venta al por menor de material y aparatos eléctricos, electrodomésticos y cocina",
          "_links": {
            "self": {
              "name": "Venta al por menor de material y aparatos eléctricos, electrodomésticos y cocina",
              "href": "https://api.euskadi.eus/procurements/companies/economic-activities/1.653.2"
            }
          }
        }
      ],
      "certificateStartDate": "2025-09-12",
      "certificateEndDate": "2026-03-12",
      "object": "LA INDUSTRIA Y EL COMERCIO DE TODA CLASE DE MÁQUINAS, APARATOS, MATERIALES, PARA EL RAMO DE LAS TELECOMUNICACIONES.",
      "mainEntityOfPage": "https://www.contratacion.euskadi.eus/webkpe00-kperoc/es/ac71aBusquedaRegistrosWar/empresa/10330",
      "_links": {
        "self": {
          "name": "IRUNTEL, S.L.",
          "href": "https://api.euskadi.eus/procurements/companies/10330"
        }
      }
    },
    {
      "name": "SIGNOS PUBLICIDAD Y COMUNICACIÓN,S.L.",
      "registrationNumber": "07151",
      "identificationNumber": "B20545893",
      "address": "Pokopandegi Bidea Nº 9, 3º, Oficina 16",
      "location": {
        "postalCode": "20018",
        "municipality": "Donostia / San Sebastián",
        "county": "Gipuzkoa",
        "municipalityId": "069",
        "countyId": "20"
      },
      "economicActivities": [
        {
          "id": "1.844",
          "name": "Servicios de publicidad, relaciones públicas y similares",
          "_links": {
            "self": {
              "name": "Servicios de publicidad, relaciones públicas y similares",
              "href": "https://api.euskadi.eus/procurements/companies/economic-activities/1.844"
            }
          }
        }
      ],
      "certificateStartDate": "2025-09-12",
      "certificateEndDate": "2026-03-12",
      "object": "PRESTAR SERVICIOS DE PUBLICIDAD EN CUALQUIER MEDIO Y RELACIONES PÚBLICAS",
      "mainEntityOfPage": "https://www.contratacion.euskadi.eus/webkpe00-kperoc/es/ac71aBusquedaRegistrosWar/empresa/07151",
      "_links": {
        "self": {
          "name": "SIGNOS PUBLICIDAD Y COMUNICACIÓN,S.L.",
          "href": "https://api.euskadi.eus/procurements/companies/07151"
        }
      }
    },
    {
      "name": "CITYPOGRAPHY, S.L.",
      "registrationNumber": "08636",
      "identificationNumber": "B95649158",
      "address": "RODRIGUEZ ARIAS, 27 7º IZQUIERDA",
      "location": {
        "postalCode": "48011",
        "municipality": "Bilbao",
        "county": "Bizkaia",
        "municipalityId": "020",
        "countyId": "48"
      },
      "economicActivities": [
        {
          "id": "1.844",
          "name": "Servicios de publicidad, relaciones públicas y similares",
          "_links": {
            "self": {
              "name": "Servicios de publicidad, relaciones públicas y similares",
              "href": "https://api.euskadi.eus/procurements/companies/economic-activities/1.844"
            }
          }
        }
      ],
      "certificateStartDate": "2025-09-12",
      "certificateEndDate": "2026-03-12",
      "object": "1. DISEÑO Y COMUNICACIÓN MULTIDISCIPLINAR, ESPECIALIZADO EN VARIOS CAMPOS RELACIONADOS CON LA PUBLICIDAD, EL DISEÑO GRÁFICO, EL DISEÑO WEB Y LA PRODUCCIÓN FOTOGRÁFICA. 2. ASESORAMIENTO EN DISEÑO, MARKETING Y E-MARKETING. 3. ACTIVIDADES DE DISEÑO ESPECIALIZADO, EN EL QUE SE INCLUYEN EL DISEÑO INDUSTRIAL, EL DISEÑO GRÁFICO, EL DISEÑO DE MODA Y EL DISEÑO DE INTERIORES. 4. AGENCIA DE PUBLICIDAD. 5. ADQUIRIR, ENAJENAR Y ARRENDAR BIENES INMUEBLES (CONCRETAMENTE LOS DETERMINADOS EN EL ARTÍCULO 334.1 DEL CÓDIGO CIVIL), ACCIONES Y PARTICIPACIONES SOCIALES, OBLIGACIONES, BONOS DE CAJA, CERTIFICADOS DE DEPÓSITO Y PAGARÉS DE TODA CLASE DE EMPRESAS O NEGOCIOS.",
      "mainEntityOfPage": "https://www.contratacion.euskadi.eus/webkpe00-kperoc/es/ac71aBusquedaRegistrosWar/empresa/08636",
      "_links": {
        "self": {
          "name": "CITYPOGRAPHY, S.L.",
          "href": "https://api.euskadi.eus/procurements/companies/08636"
        }
      }
    },
    {
      "name": "SENDO EJECUCIÓN Y MANTENIMIENTO DE SENDERISMO HOMOLOGADO S.L.",
      "registrationNumber": "06241",
      "identificationNumber": "B95170510",
      "address": "Barrio Likona, número 30, Villa Itsaso Aldegi",
      "location": {
        "postalCode": "48289",
        "municipality": "Mendexa",
        "county": "Bizkaia",
        "municipalityId": "063",
        "countyId": "48"
      },
      "economicActivities": [
        {
          "id": "1.684",
          "name": "Servicios de hospedaje en hoteles-apartamentos",
          "_links": {
            "self": {
              "name": "Servicios de hospedaje en hoteles-apartamentos",
              "href": "https://api.euskadi.eus/procurements/companies/economic-activities/1.684"
            }
          }
        },
        {
          "id": "1.843.1",
          "name": "Servicios técnicos de ingeniería",
          "_links": {
            "self": {
              "name": "Servicios técnicos de ingeniería",
              "href": "https://api.euskadi.eus/procurements/companies/economic-activities/1.843.1"
            }
          }
        },
        {
          "id": "1.911",
          "name": "Servicios agrícolas y ganaderos",
          "_links": {
            "self": {
              "name": "Servicios agrícolas y ganaderos",
              "href": "https://api.euskadi.eus/procurements/companies/economic-activities/1.911"
            }
          }
        }
      ],
      "certificateStartDate": "2025-09-12",
      "certificateEndDate": "2026-03-12",
      "object": "- LA PRESTACIÓN DE TODA CLASE DE SERVICIOS DE DESARROLLO RURAL. - LA GESTIÓN, ADMINISTRACIÓN Y PROMOCIÓN DE ACTIVIDADES TURÍSTICAS Y RECREATIVAS RELACIONADAS CON EL MEDIO RURAL. - LA ELABORACIÓN Y EJECUCIÓN DE PROYECTOS PARA LA ADECUACIÓN Y ADAPTACIÓN DE LOS TERRENOS A LAS ACTIVIDADES DE DESARROLLO RURAL",
      "mainEntityOfPage": "https://www.contratacion.euskadi.eus/webkpe00-kperoc/es/ac71aBusquedaRegistrosWar/empresa/06241",
      "_links": {
        "self": {
          "name": "SENDO EJECUCIÓN Y MANTENIMIENTO DE SENDERISMO HOMOLOGADO S.L.",
          "href": "https://api.euskadi.eus/procurements/companies/06241"
        }
      }
    },
    {
      "name": "NIRCO, S.L.",
      "registrationNumber": "05193",
      "identificationNumber": "B58786096",
      "address": "Puerto de Navafria nº 12",
      "location": {
        "postalCode": "28935",
        "county": "Madrid",
        "countyId": "28"
      },
      "economicActivities": [
        {
          "id": "1.619.7",
          "name": "Venta al por mayor de instrumentos de precisión, medida y similares",
          "_links": {
            "self": {
              "name": "Venta al por mayor de instrumentos de precisión, medida y similares",
              "href": "https://api.euskadi.eus/procurements/companies/economic-activities/1.619.7"
            }
          }
        }
      ],
      "certificateStartDate": "2025-09-12",
      "certificateEndDate": "2026-03-12",
      "object": "LA COMERCIALIZACIÓN, FABRICACIÓN, VENTA DE REACTIVOS Y PRODUCTOS PARA ANÁLISIS, MATERIAL FUNGIBLE DE LABORATORIO Y APARATOS DE INSTRUMENTACIÓN MÉDICO QUIRÚRGICOS, COMPONENTES ÓPTICOS, FILTROS DE TODA CLASE DE INSTRUMENTOS PARA MEDIDA Y CONTROL, LA PRESTACIÓN DE SERVICIOS DE ASISTENCIA TÉCNICA Y MANTENIMIENTO Y EL ESTUDIO Y DESARROLLO DE PRODUCTOS MODELOS, PROCEDIMIENTOS, SISTEMAS Y MÉTODOS DE FABRICACIÓN, UTILLAJE, ACCESORIOS, DISEÑOS, MODELOS Y MARCAS",
      "mainEntityOfPage": "https://www.contratacion.euskadi.eus/webkpe00-kperoc/es/ac71aBusquedaRegistrosWar/empresa/05193",
      "_links": {
        "self": {
          "name": "NIRCO, S.L.",
          "href": "https://api.euskadi.eus/procurements/companies/05193"
        }
      }
    },
    {
      "name": "IKER ORRANTIA AHEDO",
      "registrationNumber": "07098",
      "identificationNumber": "14613129X",
      "address": "ORIXE 56 8A",
      "location": {
        "postalCode": "48015",
        "municipality": "Bilbao",
        "county": "Bizkaia",
        "municipalityId": "020",
        "countyId": "48"
      },
      "economicActivities": [
        {
          "id": "2.411",
          "name": "Arquitectos",
          "_links": {
            "self": {
              "name": "Arquitectos",
              "href": "https://api.euskadi.eus/procurements/companies/economic-activities/2.411"
            }
          }
        }
      ],
      "certificateStartDate": "2025-09-12",
      "certificateEndDate": "2026-03-12",
      "object": "ARQUITECTOS",
      "mainEntityOfPage": "https://www.contratacion.euskadi.eus/webkpe00-kperoc/es/ac71aBusquedaRegistrosWar/empresa/07098",
      "_links": {
        "self": {
          "name": "IKER ORRANTIA AHEDO",
          "href": "https://api.euskadi.eus/procurements/companies/07098"
        }
      }
    }
  ]
}