{
  "totalItems": 9042,
  "totalPages": 905,
  "currentPage": 725,
  "itemsOfPage": 10,
  "items": [
    {
      "name": "AKORDE GESTIÓN DE COMUNICACIÓN Y EVENTOS, S.L.",
      "registrationNumber": "03648",
      "identificationNumber": "B20904850",
      "address": "C/AVENIDA DE MADRID, 7-1º C",
      "location": {
        "postalCode": "20011",
        "municipality": "Donostia / San Sebastián",
        "county": "Gipuzkoa",
        "municipalityId": "069",
        "countyId": "20"
      },
      "economicActivities": [
        {
          "id": "1.844",
          "name": "Servicios de publicidad, relaciones públicas y similares",
          "_links": {
            "self": {
              "name": "Servicios de publicidad, relaciones públicas y similares",
              "href": "https://api.euskadi.eus/procurements/companies/economic-activities/1.844"
            }
          }
        }
      ],
      "certificateStartDate": "2010-08-18",
      "certificateEndDate": "2011-02-06",
      "object": "LA ORGANIZACIÓN DE EVENTOS Y CONGRESOS, Y LA PRESTACIÓN DE SERVICIOS DE PUBLICIDAD, COMUNICACIÓN Y RELACIONES PÚBLICAS",
      "mainEntityOfPage": "https://www.contratacion.euskadi.eus/webkpe00-kperoc/es/ac71aBusquedaRegistrosWar/empresa/03648",
      "_links": {
        "self": {
          "name": "AKORDE GESTIÓN DE COMUNICACIÓN Y EVENTOS, S.L.",
          "href": "https://api.euskadi.eus/procurements/companies/03648"
        }
      }
    },
    {
      "name": "INGECLIMA, S.L.",
      "registrationNumber": "02846",
      "identificationNumber": "B48228522",
      "address": "DR. DÍAZ ENPARANTZA, 39 A - 2º ",
      "location": {
        "postalCode": "48002",
        "municipality": "Bilbao",
        "county": "Bizkaia",
        "municipalityId": "020",
        "countyId": "48"
      },
      "economicActivities": [
        {
          "id": "1.504.3",
          "name": "Instalaciones de frío, calor y acondicionamiento de aire",
          "_links": {
            "self": {
              "name": "Instalaciones de frío, calor y acondicionamiento de aire",
              "href": "https://api.euskadi.eus/procurements/companies/economic-activities/1.504.3"
            }
          }
        },
        {
          "id": "1.843.1",
          "name": "Servicios técnicos de ingeniería",
          "_links": {
            "self": {
              "name": "Servicios técnicos de ingeniería",
              "href": "https://api.euskadi.eus/procurements/companies/economic-activities/1.843.1"
            }
          }
        }
      ],
      "certificateStartDate": "2010-08-11",
      "certificateEndDate": "2010-05-24",
      "object": "A) LA CONSTRUCCIÓN, COLOCACIÓN Y REPARACIÓN DE INSTALACIONES DE FRÍO, CALOR, ACONDICIONAMIENTO DE AIRE, VENTILACIÓN, AISLAMIENTOS ACÚSTICOS Y TÉRMICOS EN GENERAL.\r\nB) LA IMPORTACIÓN Y EXPORTACIÓN DE TODA CLASE DE PRODUCTOS O BIENES, ASÍ COMO LA REPRESENTACIÓN COMO AGENTE, COMISIONISTA, DELEGADO O CUALQUIER OTRA FORMA DE MEDIACIÓN MERCANTIL DE TODA CLASE DE EMPRESAS NACIONALES Y EXTRANJERAS; EL ASESORAMIENTO EN SUS DIVERSOS ASPECTOS DE TODAS LAS OPERACIONES DE COMERCIO EXTERIOR; LA INTRODUCCIÓN , REGISTRO, EXPLOTACIÓN Y CONCESIÓN DE ASISTENCIAS TÉCNICAS, LICENCIAS DE PATENTES  Y DEMÁS PRIVILEGIOS COMPRENDIDOS NE EL ESTATUTO DE LA PROPIEDAD INDUSTRIAL, PUDIENDO  TAMBIÉN DEDICARSE A LA COMERCIALIZACIÓN EN GENERAL DE TODA CLASE DE PRODUCTOS INDUSTRIALES, NAVALES, AGRÍCOLAS, QUÍMICOS Y MATERIAS PRIMAS, ASÍ COMO LA EXPLOTACIÓN DE MÉTODOS O PROCEDIMIENTOS DE TRABAJOS INDUSTRIALES. ",
      "mainEntityOfPage": "https://www.contratacion.euskadi.eus/webkpe00-kperoc/es/ac71aBusquedaRegistrosWar/empresa/02846",
      "_links": {
        "self": {
          "name": "INGECLIMA, S.L.",
          "href": "https://api.euskadi.eus/procurements/companies/02846"
        }
      }
    },
    {
      "name": "ESTANTERÍAS EUN, S.A.",
      "registrationNumber": "00876",
      "identificationNumber": "A20046058",
      "address": "BARRIO ARRIARAN, S/N.",
      "location": {
        "postalCode": "20200",
        "municipality": "Beasain",
        "county": "Gipuzkoa",
        "municipalityId": "019",
        "countyId": "20"
      },
      "economicActivities": [
        {
          "id": "1.316.6",
          "name": "Fabricación de mobiliario metálico",
          "_links": {
            "self": {
              "name": "Fabricación de mobiliario metálico",
              "href": "https://api.euskadi.eus/procurements/companies/economic-activities/1.316.6"
            }
          }
        }
      ],
      "certificateStartDate": "2010-08-09",
      "certificateEndDate": "2011-01-15",
      "object": "LA FABRICACIÓN, TRANSFORMACIÓN Y VENTA DE CALDERERÍA FINA Y SUS DERIVADOS",
      "mainEntityOfPage": "https://www.contratacion.euskadi.eus/webkpe00-kperoc/es/ac71aBusquedaRegistrosWar/empresa/00876",
      "_links": {
        "self": {
          "name": "ESTANTERÍAS EUN, S.A.",
          "href": "https://api.euskadi.eus/procurements/companies/00876"
        }
      }
    },
    {
      "name": "SVRNE MUTUA DE SEGUROS Y REASEGUROS A PRIMA FIJA",
      "registrationNumber": "02186",
      "identificationNumber": "G48083521",
      "address": "C/ CARDENAL GARDOQUI, 1",
      "location": {
        "postalCode": "48008",
        "municipality": "Bilbao",
        "county": "Bizkaia",
        "municipalityId": "020",
        "countyId": "48"
      },
      "economicActivities": [
        {
          "id": "1.821.3",
          "name": "Entidades aseguradoras de seguros mixtos de vida y capitalización",
          "_links": {
            "self": {
              "name": "Entidades aseguradoras de seguros mixtos de vida y capitalización",
              "href": "https://api.euskadi.eus/procurements/companies/economic-activities/1.821.3"
            }
          }
        }
      ],
      "certificateStartDate": "2010-08-09",
      "certificateEndDate": "2011-01-07",
      "object": "EJERCER UNA ACTIVIDAD ASEGURADORA DE CARÁCTER MUTUAL Y VOLUNTARIA, EN LOS RAMOS DE VIDA Y ACCIDENTES Y ENFERMEDAD, ENCAMINADA EN EL CAMPO DE LA PREVISIÓN A PROTEGER A SUS MUTUALISTAS Y BENEFICIARIOS CONTRA CIRCUNSTANCIAS O ACONTECIMIENTOS DE CARÁCTER FORTUITO Y PREVISIBLE, MEDIANTE EL COBRO DE LAS CORRESPONDIENTES PRIMAS Y DERRAMAS. SVRNE TIENE TAMBIÉN COMO OBJETO LA REALIZACIÓN DE TODO TIPO DE OPERACIONES RELATIVAS A PLANES Y FONDOS DE PENSIONES, INCLUYENDO EXPRESAMENTE ENTRE ESTOS EL PODER SER PROMOTORA DE PLANES Y FONDOS Y ENTIDAD GESTORA DE FONDOS DE PENSIONES. IGUALMENTE PODRÁ CEDER Y ACEPTAR REASEGUROS. ASIMISMO, PODRÁ REALIZAR CUALQUIER OTRA OPERACIÓN DE LAS PERMITIDAS POR LA LEY, ENTRE ELLAS LAS DE CAPITALIZACIÓN Y GESTIÓN DE FONDOS COLECTIVOS DE JUBILACIÓN, ASÍ COMO LAS PREPARATORIAS Y COMPLEMENTARIAS DE TODAS ELLAS",
      "mainEntityOfPage": "https://www.contratacion.euskadi.eus/webkpe00-kperoc/es/ac71aBusquedaRegistrosWar/empresa/02186",
      "_links": {
        "self": {
          "name": "SVRNE MUTUA DE SEGUROS Y REASEGUROS A PRIMA FIJA",
          "href": "https://api.euskadi.eus/procurements/companies/02186"
        }
      }
    },
    {
      "name": "AVANZIT INSTALACIONES E INGENIERÍA, S.L.",
      "registrationNumber": "03671",
      "identificationNumber": "B23451271",
      "address": "POL. INDUST. EL GUADIEL-PARC. 146",
      "location": {
        "postalCode": "23210",
        "municipality": "Guarromán",
        "county": "Jaén",
        "municipalityId": "039",
        "countyId": "23"
      },
      "economicActivities": [
        {
          "id": "1.504.1",
          "name": "Instalaciones eléctricas en general",
          "_links": {
            "self": {
              "name": "Instalaciones eléctricas en general",
              "href": "https://api.euskadi.eus/procurements/companies/economic-activities/1.504.1"
            }
          }
        }
      ],
      "certificateStartDate": "2010-08-09",
      "certificateEndDate": "2011-01-14",
      "object": "1.- LA PRESTACIÓN DE SERVICIOS PROFESIONALES PARA LA REALIZACIÓN DE OBRAS, ESTUDIOS, PROYECTOS Y MANTENIMIENTO DE CARÁCTER INDUSTRIAL, Y ALQUILER Y VENTA DE HERRAMIENTAS, UTILLAJE Y TODA CLASE DE MEDIOS Y RECURSOS DE LOGÍSTICA Y TRANSPORTE PARA EL DESARROLLO DE LAS ACTIVIDADES ENUMERADAS CON LOS NÚMEROS 1, 2, 3 Y 4.\r\n2.- LA PRESTACIÓN DE SERVICIOS PROFESIONALES PARA EL ESTUDIO, DESARROLLO Y COMERCIALIZACIÓN DE SERVICIOS E INSTALACIONES ELÉCTRICAS, TELECOMUNICACIONES E INFORMÁTICAS.\r\n3.- COMPRA, VENTA, ADMINISTRACIÓN, ARRENDAMIENTO Y EXPLOTACIÓN DE FINCAS RÚSTICAS Y URBANAS.\r\n4.- LICITACIÓN DE OBRAS TANTO PÚBLICAS COMO PRIVADAS",
      "mainEntityOfPage": "https://www.contratacion.euskadi.eus/webkpe00-kperoc/es/ac71aBusquedaRegistrosWar/empresa/03671",
      "_links": {
        "self": {
          "name": "AVANZIT INSTALACIONES E INGENIERÍA, S.L.",
          "href": "https://api.euskadi.eus/procurements/companies/03671"
        }
      }
    },
    {
      "name": "RATIOPHARM ESPAÑA, S.A.",
      "registrationNumber": "03690",
      "identificationNumber": "A79347134",
      "address": "AVENIDA DE BURGOS, 16",
      "location": {
        "postalCode": "28036",
        "municipality": "Madrid",
        "county": "Madrid",
        "municipalityId": "079",
        "countyId": "28"
      },
      "economicActivities": [
        {
          "id": "1.614.1",
          "name": "Venta al por mayor de productos farmacéuticos y medicamentos",
          "_links": {
            "self": {
              "name": "Venta al por mayor de productos farmacéuticos y medicamentos",
              "href": "https://api.euskadi.eus/procurements/companies/economic-activities/1.614.1"
            }
          }
        }
      ],
      "certificateStartDate": "2010-08-09",
      "certificateEndDate": "2011-01-05",
      "object": "A) LA COMERCIALIZACIÓN, DISTRIBUCIÓN, IMPORTACIÓN Y EXPORTACIÓN DE PRODUCTOS QUÍMICOS, FARMACÉUTICOS, DITETÉTICOS, HIGIÉNICO-COSMÉTICOS, DE ALIMENTACIÓN Y SIMILARES.\r\nB) LA ACTIVIDAD DE DESARROLLO, INVESTIGACIÓN Y PRODUCCIÓN EN RELACIÓN CON LOS SECTORES MENCIONADOS.\r\nC) LA PARTICIPACIÓN EN CUALESQUIERA OTRAS EMPRESAS, EN ESPECIAL DE AQUÉLLAS DE IGUALES O SEMEJANTE CARÁCTER, INCLUYENDO, ASIMISMO, LA ACEPTACIÓN DE LA GESTIÓN DE SUS NEGOCIOS Y/O SU REPRESENTACIÓN",
      "mainEntityOfPage": "https://www.contratacion.euskadi.eus/webkpe00-kperoc/es/ac71aBusquedaRegistrosWar/empresa/03690",
      "_links": {
        "self": {
          "name": "RATIOPHARM ESPAÑA, S.A.",
          "href": "https://api.euskadi.eus/procurements/companies/03690"
        }
      }
    },
    {
      "name": "TECDOA, S.L.",
      "registrationNumber": "03106",
      "identificationNumber": "B01370709",
      "address": "MIÑANO MAYOR. ED.CEIA.C/ALBERT EINSTEIN 15.OF.218-220",
      "location": {
        "postalCode": "01510",
        "municipality": "Vitoria-Gasteiz",
        "county": "Araba/Álava",
        "municipalityId": "059",
        "countyId": "01"
      },
      "economicActivities": [
        {
          "id": "1.843.1",
          "name": "Servicios técnicos de ingeniería",
          "_links": {
            "self": {
              "name": "Servicios técnicos de ingeniería",
              "href": "https://api.euskadi.eus/procurements/companies/economic-activities/1.843.1"
            }
          }
        }
      ],
      "certificateStartDate": "2010-08-04",
      "certificateEndDate": "2010-11-26",
      "object": "A) INGENIERÍA DOMÓTICA: ACTIVIDAD CONSISTENTE EN EL DISEÑO, DESARROLLO, IMPLANTACIÓN, INSTALACIÓN Y MANTENIMIENTO DE SISTEMAS INTELIGENTES PARA SU UTILIZACIÓN TANTO EN INSTALACIONES EMPRESARIALES COMO RESIDENCIALES; B) CONSULTORÍA TECNOLÓGICA EN EMPRESAS DEL SECTOR DE LA CONSTRUCCIÓN",
      "mainEntityOfPage": "https://www.contratacion.euskadi.eus/webkpe00-kperoc/es/ac71aBusquedaRegistrosWar/empresa/03106",
      "_links": {
        "self": {
          "name": "TECDOA, S.L.",
          "href": "https://api.euskadi.eus/procurements/companies/03106"
        }
      }
    },
    {
      "name": "MONTAJES LOM, S.A.",
      "registrationNumber": "00088",
      "identificationNumber": "A48145882",
      "address": "AVDA. LEHENDAKARI AGUIRRE, Nº 11 - 3º",
      "location": {
        "postalCode": "48014",
        "municipality": "Bilbao",
        "county": "Bizkaia",
        "municipalityId": "020",
        "countyId": "48"
      },
      "economicActivities": [
        {
          "id": "1.501.1",
          "name": "Construcción completa, reparación y conservación de edificaciones",
          "_links": {
            "self": {
              "name": "Construcción completa, reparación y conservación de edificaciones",
              "href": "https://api.euskadi.eus/procurements/companies/economic-activities/1.501.1"
            }
          }
        }
      ],
      "certificateStartDate": "2010-08-02",
      "certificateEndDate": "2011-01-05",
      "object": "LA PROYECCIÓN Y REALIZACIÓN, EN TODO O EN PARTE, POR MEDIOS PROPIOS O AJENOS, DE TODA CLASE DE MONTAJES, OBRAS, INSTALACIONES Y CONSTRUCCIONES TANTO EN EL ÁMBITO INMOBILIARIO E INDUSTRIAL O CONSTRUCTIVO TANTO DE LA EMPRESA PRIVADA COMO DE LOS ORGANISMOS DE LA ADMINISTRACIÓN ESTATAL, ENTES AUTÓNOMOS O CUALESQUIERA OTROS; LA PROYECCIÓN, REALIZACIÓN Y PRESTACIÓN DE TODA CLASE DE INSTALACIONES Y SERVICIOS QUE DE UN MODO DIRECTO O INDIRECTO SE RELACIONAN CON EL MONTAJE, ACABADO, MODIFICACIÓN Y MEJORA EDIFICACIONES E INSTALACIONES INDUSTRIALES Y ADEMÁS TODA LA ACTIVIDAD PROPIA DEL ÁMBITO INMOBILIARIO O QUE CON ELLAS RELACIONE, INCLUÍDOS LOS SERVICIOS DE ASESORAMIENTO Y CONTROL",
      "mainEntityOfPage": "https://www.contratacion.euskadi.eus/webkpe00-kperoc/es/ac71aBusquedaRegistrosWar/empresa/00088",
      "_links": {
        "self": {
          "name": "MONTAJES LOM, S.A.",
          "href": "https://api.euskadi.eus/procurements/companies/00088"
        }
      }
    },
    {
      "name": "DIDAKTIKER, S.A.",
      "registrationNumber": "02019",
      "identificationNumber": "A48481782",
      "address": "C/ PARTICULAR DE COSTA, 12-14  - 3º IZDA.",
      "location": {
        "postalCode": "48010",
        "municipality": "Bilbao",
        "county": "Bizkaia",
        "municipalityId": "020",
        "countyId": "48"
      },
      "economicActivities": [
        {
          "id": "1.845",
          "name": "Explotación electrónica por cuenta de terceros",
          "_links": {
            "self": {
              "name": "Explotación electrónica por cuenta de terceros",
              "href": "https://api.euskadi.eus/procurements/companies/economic-activities/1.845"
            }
          }
        }
      ],
      "certificateStartDate": "2010-08-02",
      "certificateEndDate": "2011-01-06",
      "object": "LA INVESTIGACIÓN DE SOFTWARE EN GENERAL, LA PROGRAMACIÓN, EL DISEÑO, DESARROLLO, IMPLEMENTACIÓN, COMERCIALIZACIÓN E INDUSTRIALIZACIÓN, EN TODAS SUS FORMAS, COMPRAVENTA Y ALQUILER  DE APLICACIONES, PROGRAMAS, COMPONENTES Y EQUIPOS INFORMÁTICOS;  LA  FORMACIÓN PROFESIONAL Y CULTURAL SOBRE LA INFORMÁTICA EN GENERAL; Y A TALES FINES, LA ADQUISICIÓN, EXPLOTACIÓN Y ENAJENACIÓN DE BIENES INMUEBLES",
      "mainEntityOfPage": "https://www.contratacion.euskadi.eus/webkpe00-kperoc/es/ac71aBusquedaRegistrosWar/empresa/02019",
      "_links": {
        "self": {
          "name": "DIDAKTIKER, S.A.",
          "href": "https://api.euskadi.eus/procurements/companies/02019"
        }
      }
    },
    {
      "name": "IBARRETA INSTALACIONES, S.L.",
      "registrationNumber": "02838",
      "identificationNumber": "B95024444",
      "address": "CAMINO ZUBILETA, 27",
      "location": {
        "postalCode": "48903",
        "municipality": "Barakaldo",
        "county": "Bizkaia",
        "municipalityId": "013",
        "countyId": "48"
      },
      "economicActivities": [
        {
          "id": "1.314.1",
          "name": "Carpintería metálica",
          "_links": {
            "self": {
              "name": "Carpintería metálica",
              "href": "https://api.euskadi.eus/procurements/companies/economic-activities/1.314.1"
            }
          }
        },
        {
          "id": "1.504.1",
          "name": "Instalaciones eléctricas en general",
          "_links": {
            "self": {
              "name": "Instalaciones eléctricas en general",
              "href": "https://api.euskadi.eus/procurements/companies/economic-activities/1.504.1"
            }
          }
        },
        {
          "id": "1.504.3",
          "name": "Instalaciones de frío, calor y acondicionamiento de aire",
          "_links": {
            "self": {
              "name": "Instalaciones de frío, calor y acondicionamiento de aire",
              "href": "https://api.euskadi.eus/procurements/companies/economic-activities/1.504.3"
            }
          }
        }
      ],
      "certificateStartDate": "2010-08-02",
      "certificateEndDate": "2011-01-02",
      "object": "TRANSFORMACIONES Y CONSTRUCCIONES METÁLICAS. REALIZACIÓN DE TODO TIPO DE OBRAS, PINTURA Y ACONDICIONAMIENTO DE LOCALES. INSTALACIÓN, MANTENIMIENTO Y REPARACIÓN DE SISTEMAS DE CALEFACCIÓN, GAS, FONTANERÍA, HOJALATERÍA, AIRE ACONDICIONADO Y ELECTRICIDAD.\r\nLAS ACTIVIDADES ENUMERADAS PODRÁN SER TAMBIÉN SER DESARROLLADAS POR LA SOCIEDAD, TOTAL O PARCIALMENTE, DE MODO INDIRECTO, MEDIANTE LA PARTICIPACIÓN EN OTRAS SOCIEDADES CON OBJETO ANÁLOGO. ",
      "mainEntityOfPage": "https://www.contratacion.euskadi.eus/webkpe00-kperoc/es/ac71aBusquedaRegistrosWar/empresa/02838",
      "_links": {
        "self": {
          "name": "IBARRETA INSTALACIONES, S.L.",
          "href": "https://api.euskadi.eus/procurements/companies/02838"
        }
      }
    }
  ]
}