{
  "totalItems": 9042,
  "totalPages": 905,
  "currentPage": 363,
  "itemsOfPage": 10,
  "items": [
    {
      "name": "LEICA MICROSISTEMAS, S.L.",
      "registrationNumber": "05499",
      "identificationNumber": "B58521147",
      "address": "C/ Plaza Europa, nº 41-43, 4ª PLANTA",
      "location": {
        "postalCode": "08908",
        "municipality": "Hospitalet de Llobregat, L'",
        "county": "Barcelona",
        "municipalityId": "101",
        "countyId": "08"
      },
      "economicActivities": [
        {
          "id": "1.619.2",
          "name": "Venta al por mayor de aparatos e instrumentos médicos, ortopédicos, ópticos",
          "_links": {
            "self": {
              "name": "Venta al por mayor de aparatos e instrumentos médicos, ortopédicos, ópticos",
              "href": "https://api.euskadi.eus/procurements/companies/economic-activities/1.619.2"
            }
          }
        }
      ],
      "certificateStartDate": "2025-03-31",
      "certificateEndDate": "2025-09-25",
      "object": "EL MANTENIMIENTO, REPRESENTACIÓN, IMPORTACIÓN, EXPORTACIÓN, DISTRIBUCIÓN, FABRICACIÓN, MONTAJE, ALQUILER, COMERCIALIZACIÓN, ASÍ COMO PRESTACIÓN DE SERVICIOS INFORMÁTICOS RELACIONADOS CON TODA CLASE DE MAQUINARIA, INSTRUMENTOS, ELEMENTOS Y COMPLEMENTOS DESTINADOS A LA ANALÍTICA, CONTROL, MEDICIÓN O INVESTIGACIÓN TANTO MÉDICA COMO INDUSTRIAL, CIENTÍFICA, DOCENTE ASÍ COMO PRODUCTOS DE TOPOGRAFÍA, INGENIERÍA Y FOTOGRAFÍA. ASIMISMO LA SOCIEDAD PODRÁ VENDER ASISTENCIA TÉCNICA EN RELACIÓN A LOS PRODUCTOS SEÑALADOS ANTERIORMENTE; Y LA PRESTACIÓN DE SERVICIOS DE ASESORAMIENTO, ESTUDIO Y GESTIÓN TÉCNICA Y ECONÓMICA A TERCERAS PERSONAS, FÍSICAS Y/O JURÍDICAS, YA SEAN ESPAÑOLAS O EXTRANJERAS, EMITIENDO INFORMES, REALIZANDO ESTUDIOS DE MERCADO, ORGANIZACIÓN ADMINISTRATIVA, TRABAJOS DE CONTABILIDAD, FACTURACIÓN Y CORRESPONDENCIA",
      "mainEntityOfPage": "https://www.contratacion.euskadi.eus/webkpe00-kperoc/es/ac71aBusquedaRegistrosWar/empresa/05499",
      "_links": {
        "self": {
          "name": "LEICA MICROSISTEMAS, S.L.",
          "href": "https://api.euskadi.eus/procurements/companies/05499"
        }
      }
    },
    {
      "name": "INVASORES DEL ESPACIO MOBILIARIO S.L.",
      "registrationNumber": "05857",
      "identificationNumber": "B95725180",
      "address": "Barrio Soscaño 60 Karrantza Harana",
      "location": {
        "postalCode": "48891",
        "municipality": "Karrantza Harana/Valle de Carranza",
        "county": "Bizkaia",
        "municipalityId": "022",
        "countyId": "48"
      },
      "economicActivities": [
        {
          "id": "1.659.2",
          "name": "Venta al por menor de muebles de oficina y máquinas y equipos de oficina",
          "_links": {
            "self": {
              "name": "Venta al por menor de muebles de oficina y máquinas y equipos de oficina",
              "href": "https://api.euskadi.eus/procurements/companies/economic-activities/1.659.2"
            }
          }
        }
      ],
      "certificateStartDate": "2025-03-31",
      "certificateEndDate": "2025-09-22",
      "object": "LA COMERCIALIZACIÓN, COMPRA, VENTA Y DISTRIBUCIÓN DE MOBILIARIO PARA OFICINAS Y COLECTIVIDADES CON MEDIOS PROPIOS O SUBCONTRATADOS",
      "mainEntityOfPage": "https://www.contratacion.euskadi.eus/webkpe00-kperoc/es/ac71aBusquedaRegistrosWar/empresa/05857",
      "_links": {
        "self": {
          "name": "INVASORES DEL ESPACIO MOBILIARIO S.L.",
          "href": "https://api.euskadi.eus/procurements/companies/05857"
        }
      }
    },
    {
      "name": "UNAIARENA, S.L.",
      "registrationNumber": "08359",
      "identificationNumber": "B01380179",
      "address": "C/Aranzabal 9 Oficinas nº1",
      "location": {
        "postalCode": "01008",
        "municipality": "Vitoria-Gasteiz",
        "county": "Araba/Álava",
        "municipalityId": "059",
        "countyId": "01"
      },
      "economicActivities": [
        {
          "id": "1.832.1",
          "name": "Agencias de seguros y corredurías de seguros",
          "_links": {
            "self": {
              "name": "Agencias de seguros y corredurías de seguros",
              "href": "https://api.euskadi.eus/procurements/companies/economic-activities/1.832.1"
            }
          }
        }
      ],
      "certificateStartDate": "2025-03-31",
      "certificateEndDate": "2025-09-20",
      "object": "LA AGENCIA DE SEGUROS (AGENTE EXCLUSIVO). ACTUAR COMO AGENTE FINANCIERO DE UNA EMPRESA DE SERVICIOS DE INVERSIÓN, EN LOS TÉRMINOS ESTABLECIDOS EN EL REAL DECRETO LEGISLATIVO 4/2015, DE 23 DE OCTUBRE, POR EL QUE SE APRUEBA EL TEXTO REFUNDIDO DE LA LEY DEL MERCADO DE VALORES Y LA NORMATIVA QUE LO DESARROLLA, CON SUJECIÓN A LOS REQUISITOS PREVISTOS EN LOS ARTÍCULOS 25 Y SIGUIENTES 14.1 H), 14.1 E) Y 15.3 DEL  REAL DECRETO 217/2008, DE 15 DE FEBRERO SOBRE EL RÉGIMEN JURÍDICO DE LAS EMPRESAS DE SERVICIOS DE INVERSIÓN Y DE LAS DEMÁS ENTIDADES QUE PRESTAN SERVICIOS DE INVERSIÓN.",
      "mainEntityOfPage": "https://www.contratacion.euskadi.eus/webkpe00-kperoc/es/ac71aBusquedaRegistrosWar/empresa/08359",
      "_links": {
        "self": {
          "name": "UNAIARENA, S.L.",
          "href": "https://api.euskadi.eus/procurements/companies/08359"
        }
      }
    },
    {
      "name": "GRABACIONES VITORIA, S.L.",
      "registrationNumber": "09856",
      "identificationNumber": "B01039866",
      "address": "Calle Basoa (01012) número 6",
      "location": {
        "postalCode": "01012",
        "municipality": "Vitoria-Gasteiz",
        "county": "Araba/Álava",
        "municipalityId": "059",
        "countyId": "01"
      },
      "economicActivities": [
        {
          "id": "1.474",
          "name": "Artes gráficas (impresión gráfica)",
          "_links": {
            "self": {
              "name": "Artes gráficas (impresión gráfica)",
              "href": "https://api.euskadi.eus/procurements/companies/economic-activities/1.474"
            }
          }
        }
      ],
      "certificateStartDate": "2025-03-31",
      "certificateEndDate": "2025-09-30",
      "object": "LA FABRICACIÓN DE ARTÍCULOS DE PLÁSTICO, LA FABRICACIÓN DE PLACAS, RÓTULOS Y LETREROS METÁLICOS Y GRABACIÓN SOBRE LOS MATERIALES MENCIONADOS Y ALUMINIO.",
      "mainEntityOfPage": "https://www.contratacion.euskadi.eus/webkpe00-kperoc/es/ac71aBusquedaRegistrosWar/empresa/09856",
      "_links": {
        "self": {
          "name": "GRABACIONES VITORIA, S.L.",
          "href": "https://api.euskadi.eus/procurements/companies/09856"
        }
      }
    },
    {
      "name": "ARAIZ HUARTE ASOCIADOS, S.L.",
      "registrationNumber": "09524",
      "identificationNumber": "B31797194",
      "address": "CALLE LARRAZKO 93, OFICINA 105",
      "location": {
        "postalCode": "31013",
        "municipality": "Ansoáin/Antsoain",
        "county": "Navarra",
        "municipalityId": "016",
        "countyId": "31"
      },
      "economicActivities": [
        {
          "id": "1.843.2",
          "name": "Servicios técnicos de arquitectura y urbanismo",
          "_links": {
            "self": {
              "name": "Servicios técnicos de arquitectura y urbanismo",
              "href": "https://api.euskadi.eus/procurements/companies/economic-activities/1.843.2"
            }
          }
        }
      ],
      "certificateStartDate": "2025-03-31",
      "certificateEndDate": "2025-09-30",
      "object": "LA PRESTACIÓN DE SERVICIOS PROFESIONALES EN EL CAMPO DE LOS ARQUITECTOS, MEDIANTE EL CONCURSO DE LOS PROFESIONALES LEGALMENTE CAPACITADOS.",
      "mainEntityOfPage": "https://www.contratacion.euskadi.eus/webkpe00-kperoc/es/ac71aBusquedaRegistrosWar/empresa/09524",
      "_links": {
        "self": {
          "name": "ARAIZ HUARTE ASOCIADOS, S.L.",
          "href": "https://api.euskadi.eus/procurements/companies/09524"
        }
      }
    },
    {
      "name": "A PLUS FIELD MARKETING, S.L.",
      "registrationNumber": "10109",
      "identificationNumber": "B84448505",
      "address": "CALLE TARRAGONA Nº 30 LOCAL",
      "location": {
        "postalCode": "28045",
        "municipality": "Madrid",
        "county": "Madrid",
        "municipalityId": "079",
        "countyId": "28"
      },
      "economicActivities": [
        {
          "id": "1.844",
          "name": "Servicios de publicidad, relaciones públicas y similares",
          "_links": {
            "self": {
              "name": "Servicios de publicidad, relaciones públicas y similares",
              "href": "https://api.euskadi.eus/procurements/companies/economic-activities/1.844"
            }
          }
        }
      ],
      "certificateStartDate": "2025-03-31",
      "certificateEndDate": "2025-09-30",
      "object": "A) .- LA FORMACIÓN, CONTRATACIÓN Y ORGANIZACIÓN DE SERVICIOS DE AZAFATAS DE TIERRA, DE CONGRESOS Y EVENTOS, INTÉRPRETES, GUÍAS TURÍSTICOS, MODELOS Y AZAFATAS DE PROMOTORAS EN GRANDES SUPERFICIES. B) .- LA IMPORTACIÓN, EXPORTACIÓN, FABRICACIÓN, COMERCIALIZACIÓN, DISTRIBUCIÓN, DESARROLLO, MANTENIMIENTO, ALQUILER Y VENTA DE EQUIPOS Y COMPONENTES INFORMÁTICOS, OFIMÁTICOS, ELECTRÓNICOS, DE INGENIERÍA Y MATERIAL DE OFICINA. C) .- EL DESARROLLO DE SISTEMAS Y APLICACIONES INFORMÁTICAS, SU DISTRIBUCIÓN, COMERCIALIZACIÓN, MANTENIMIENTO, ALQUILER Y VENTA. D) .- LA CREACIÓN, IMPORTACIÓN Y EXPORTACIÓN, COMERCIALIZACIÓN, DISTRIBUCIÓN, DESARROLLO, MANTENIMIENTO Y VENTA DE SOFTWARE. E) .- LA PRESTACIÓN DE SERVICIOS EN EL ÁMBITO DEL CORREO ELECTRÓNICO E INTERNET. F) .- LA COMERCIALIZACIÓN Y VENTA POR CATÁLOGO DE PRODUCTOS Y BIENES DE CONSUMO. G) .- LA CREACIÓN Y DIFUSIÓN DE ANUNCIOS, CAMPAÑAS DE INFORMACIÓN PUBLICITARIA, PROPAGANDA ELECTORAL, COMUNICACIÓN INSTITUCIONAL O PÚBLICA, PUBLICIDAD DIRECTA, EXTERIOR, MARKETING DIRECTO, ESTUDIOS DE PUBLICIDAD, TELEMARKETING. H) .- LAS RELACIONES PÚBLICAS , PROMOCIÓN DE VENTAS PUBLICITARIAS, REGALOS Y RECLAMOS PUBLICITARIOS Y SERVICIOS DE PUBLICIDAD. I) .- Y LA ADQUISICIÓN, EXPLOTACIÓN Y ENAJENACIÓN DE BIENES INMUEBLES.",
      "mainEntityOfPage": "https://www.contratacion.euskadi.eus/webkpe00-kperoc/es/ac71aBusquedaRegistrosWar/empresa/10109",
      "_links": {
        "self": {
          "name": "A PLUS FIELD MARKETING, S.L.",
          "href": "https://api.euskadi.eus/procurements/companies/10109"
        }
      }
    },
    {
      "name": "HIRIGINTZA TEKNIKARIAK SL",
      "registrationNumber": "04947",
      "identificationNumber": "B95103537",
      "address": "MUSICO SARASATE 6 -LOCAL",
      "location": {
        "postalCode": "48014",
        "municipality": "Bilbao",
        "county": "Bizkaia",
        "municipalityId": "020",
        "countyId": "48"
      },
      "economicActivities": [
        {
          "id": "1.843.2",
          "name": "Servicios técnicos de arquitectura y urbanismo",
          "_links": {
            "self": {
              "name": "Servicios técnicos de arquitectura y urbanismo",
              "href": "https://api.euskadi.eus/procurements/companies/economic-activities/1.843.2"
            }
          }
        },
        {
          "id": "1.861.2",
          "name": "Alquiler de locales industriales y otros alquileres n.c.o.p",
          "_links": {
            "self": {
              "name": "Alquiler de locales industriales y otros alquileres n.c.o.p",
              "href": "https://api.euskadi.eus/procurements/companies/economic-activities/1.861.2"
            }
          }
        }
      ],
      "certificateStartDate": "2025-03-28",
      "certificateEndDate": "2025-09-28",
      "object": "EL EJERCICIO DE LAS ACTIVIDADES PROFESIONALES PROPIAS DE LOS TITULADOS UNIVERSITARIOS HABILITADOS PARA EL EJERCICIO DE LA PROFESIÓN REGULADA DE ARQUITECTO, ARQUITECTO TÉCNICO Y ABOGACÍA",
      "mainEntityOfPage": "https://www.contratacion.euskadi.eus/webkpe00-kperoc/es/ac71aBusquedaRegistrosWar/empresa/04947",
      "_links": {
        "self": {
          "name": "HIRIGINTZA TEKNIKARIAK SL",
          "href": "https://api.euskadi.eus/procurements/companies/04947"
        }
      }
    },
    {
      "name": "CÁMARA OFICIAL DE COMERCIO, INDUSTRIA Y NAVEGACIÓN DE GIPUZKOA",
      "registrationNumber": "02887",
      "identificationNumber": "Q2073001F",
      "address": "AVDA. TOLOSA 75",
      "location": {
        "postalCode": "20018",
        "municipality": "Donostia / San Sebastián",
        "county": "Gipuzkoa",
        "municipalityId": "069",
        "countyId": "20"
      },
      "economicActivities": [
        {
          "id": "1.841",
          "name": "Servicios jurídicos",
          "_links": {
            "self": {
              "name": "Servicios jurídicos",
              "href": "https://api.euskadi.eus/procurements/companies/economic-activities/1.841"
            }
          }
        },
        {
          "id": "1.845",
          "name": "Explotación electrónica por cuenta de terceros",
          "_links": {
            "self": {
              "name": "Explotación electrónica por cuenta de terceros",
              "href": "https://api.euskadi.eus/procurements/companies/economic-activities/1.845"
            }
          }
        },
        {
          "id": "1.846",
          "name": "Empresas de estudios de mercado",
          "_links": {
            "self": {
              "name": "Empresas de estudios de mercado",
              "href": "https://api.euskadi.eus/procurements/companies/economic-activities/1.846"
            }
          }
        },
        {
          "id": "1.847",
          "name": "Servicios de consultoría",
          "_links": {
            "self": {
              "name": "Servicios de consultoría",
              "href": "https://api.euskadi.eus/procurements/companies/economic-activities/1.847"
            }
          }
        },
        {
          "id": "1.861.2",
          "name": "Alquiler de locales industriales y otros alquileres n.c.o.p",
          "_links": {
            "self": {
              "name": "Alquiler de locales industriales y otros alquileres n.c.o.p",
              "href": "https://api.euskadi.eus/procurements/companies/economic-activities/1.861.2"
            }
          }
        },
        {
          "id": "1.933.9",
          "name": "Otras actividades de enseñanza tales como idiomas, mecanografía",
          "_links": {
            "self": {
              "name": "Otras actividades de enseñanza tales como idiomas, mecanografía",
              "href": "https://api.euskadi.eus/procurements/companies/economic-activities/1.933.9"
            }
          }
        },
        {
          "id": "1.989.2",
          "name": "Servicios de organización de congresos, asambleas y similares",
          "_links": {
            "self": {
              "name": "Servicios de organización de congresos, asambleas y similares",
              "href": "https://api.euskadi.eus/procurements/companies/economic-activities/1.989.2"
            }
          }
        }
      ],
      "certificateStartDate": "2025-03-26",
      "certificateEndDate": "2025-09-17",
      "object": "servicios a empresas",
      "mainEntityOfPage": "https://www.contratacion.euskadi.eus/webkpe00-kperoc/es/ac71aBusquedaRegistrosWar/empresa/02887",
      "_links": {
        "self": {
          "name": "CÁMARA OFICIAL DE COMERCIO, INDUSTRIA Y NAVEGACIÓN DE GIPUZKOA",
          "href": "https://api.euskadi.eus/procurements/companies/02887"
        }
      }
    },
    {
      "name": "ALBERTO LOIDI LIZASO",
      "registrationNumber": "08335",
      "identificationNumber": "44145026E",
      "address": "CL IRIBAR 5 PABELLON F4",
      "location": {
        "postalCode": "20018",
        "municipality": "Donostia / San Sebastián",
        "county": "Gipuzkoa",
        "municipalityId": "069",
        "countyId": "20"
      },
      "economicActivities": [
        {
          "id": "1.656",
          "name": "Venta al por menor de bienes usados",
          "_links": {
            "self": {
              "name": "Venta al por menor de bienes usados",
              "href": "https://api.euskadi.eus/procurements/companies/economic-activities/1.656"
            }
          }
        },
        {
          "id": "1.691.9",
          "name": "Reparación de otros bienes de consumo n.c.o.p",
          "_links": {
            "self": {
              "name": "Reparación de otros bienes de consumo n.c.o.p",
              "href": "https://api.euskadi.eus/procurements/companies/economic-activities/1.691.9"
            }
          }
        },
        {
          "id": "1.859",
          "name": "Alquiler de otros bienes muebles n.c.o.p. (sin personal permanente)",
          "_links": {
            "self": {
              "name": "Alquiler de otros bienes muebles n.c.o.p. (sin personal permanente)",
              "href": "https://api.euskadi.eus/procurements/companies/economic-activities/1.859"
            }
          }
        }
      ],
      "certificateStartDate": "2025-03-26",
      "certificateEndDate": "2025-08-16",
      "object": "REPARACIÓN DE OTROS BIENES DE CONSUMO. VENTA AL POR MENOR DE BIENES USADOS. ALQUILER DE OTROS BIENES MUEBLES.",
      "mainEntityOfPage": "https://www.contratacion.euskadi.eus/webkpe00-kperoc/es/ac71aBusquedaRegistrosWar/empresa/08335",
      "_links": {
        "self": {
          "name": "ALBERTO LOIDI LIZASO",
          "href": "https://api.euskadi.eus/procurements/companies/08335"
        }
      }
    },
    {
      "name": "ITSASONTSI, S.L.",
      "registrationNumber": "10102",
      "identificationNumber": "B95945937",
      "address": "PLAZA DE LA CONVIVENCIA Nº 10",
      "location": {
        "postalCode": "48001",
        "municipality": "Bilbao",
        "county": "Bizkaia",
        "municipalityId": "020",
        "countyId": "48"
      },
      "economicActivities": [
        {
          "id": "1.671.5",
          "name": "Restaurante un tenedor",
          "_links": {
            "self": {
              "name": "Restaurante un tenedor",
              "href": "https://api.euskadi.eus/procurements/companies/economic-activities/1.671.5"
            }
          }
        }
      ],
      "certificateStartDate": "2025-03-26",
      "certificateEndDate": "2025-09-21",
      "object": "EL DESARROLLO, EXPLOTACIÓN Y GESTIÓN DE LAS ACTIVIDADES PROPIAS DE UN ESTABLECIMIENTO HOSTELERO, LA PRESTACIÓN DE SERVICIOS DE COMIDA A CLIENTES, Y A SERVICIO DE MESA, BIEN CONSUMIENDO LA COMIDA EN EL MISMO LOCAL, LLEVÁNDOSELA O A DOMICILIO.",
      "mainEntityOfPage": "https://www.contratacion.euskadi.eus/webkpe00-kperoc/es/ac71aBusquedaRegistrosWar/empresa/10102",
      "_links": {
        "self": {
          "name": "ITSASONTSI, S.L.",
          "href": "https://api.euskadi.eus/procurements/companies/10102"
        }
      }
    }
  ]
}