{
  "totalItems": 9042,
  "totalPages": 905,
  "currentPage": 110,
  "itemsOfPage": 10,
  "items": [
    {
      "name": "ANDER IGLESIAS CUADRADO",
      "registrationNumber": "07177",
      "identificationNumber": "78942096R",
      "address": "C/BARROETA ALDAMAR Nº4, DPTO.35",
      "location": {
        "postalCode": "48001",
        "municipality": "Bilbao",
        "county": "Bizkaia",
        "municipalityId": "020",
        "countyId": "48"
      },
      "economicActivities": [
        {
          "id": "2.411",
          "name": "Arquitectos",
          "_links": {
            "self": {
              "name": "Arquitectos",
              "href": "https://api.euskadi.eus/procurements/companies/economic-activities/2.411"
            }
          }
        },
        {
          "id": "2.421",
          "name": "Arquitectos técnicos y aparejadores",
          "_links": {
            "self": {
              "name": "Arquitectos técnicos y aparejadores",
              "href": "https://api.euskadi.eus/procurements/companies/economic-activities/2.421"
            }
          }
        }
      ],
      "certificateStartDate": "2025-12-18",
      "certificateEndDate": "2026-05-24",
      "object": "ARQUITECTOS. ARQUITECTOS TÉCNICOS Y APAREJADORES.",
      "mainEntityOfPage": "https://www.contratacion.euskadi.eus/webkpe00-kperoc/es/ac71aBusquedaRegistrosWar/empresa/07177",
      "_links": {
        "self": {
          "name": "ANDER IGLESIAS CUADRADO",
          "href": "https://api.euskadi.eus/procurements/companies/07177"
        }
      }
    },
    {
      "name": "BORJA VILLAREJO PEREZ",
      "registrationNumber": "07176",
      "identificationNumber": "78946016B",
      "address": "LUIS LUCIANO BONAPARTE N30 10F",
      "location": {
        "postalCode": "48004",
        "municipality": "Bilbao",
        "county": "Bizkaia",
        "municipalityId": "020",
        "countyId": "48"
      },
      "economicActivities": [
        {
          "id": "2.411",
          "name": "Arquitectos",
          "_links": {
            "self": {
              "name": "Arquitectos",
              "href": "https://api.euskadi.eus/procurements/companies/economic-activities/2.411"
            }
          }
        },
        {
          "id": "2.421",
          "name": "Arquitectos técnicos y aparejadores",
          "_links": {
            "self": {
              "name": "Arquitectos técnicos y aparejadores",
              "href": "https://api.euskadi.eus/procurements/companies/economic-activities/2.421"
            }
          }
        }
      ],
      "certificateStartDate": "2025-12-18",
      "certificateEndDate": "2026-06-03",
      "object": "ARQUITECTOS TÉCNICOS Y APAREJADORES",
      "mainEntityOfPage": "https://www.contratacion.euskadi.eus/webkpe00-kperoc/es/ac71aBusquedaRegistrosWar/empresa/07176",
      "_links": {
        "self": {
          "name": "BORJA VILLAREJO PEREZ",
          "href": "https://api.euskadi.eus/procurements/companies/07176"
        }
      }
    },
    {
      "name": "PAUL ALBERDI ECHEBARRIA",
      "registrationNumber": "07140",
      "identificationNumber": "78937992Z",
      "address": "C/BARROETA ALDAMAR Nº4, DPTO.35",
      "location": {
        "postalCode": "48001",
        "municipality": "Bilbao",
        "county": "Bizkaia",
        "municipalityId": "020",
        "countyId": "48"
      },
      "economicActivities": [
        {
          "id": "2.411",
          "name": "Arquitectos",
          "_links": {
            "self": {
              "name": "Arquitectos",
              "href": "https://api.euskadi.eus/procurements/companies/economic-activities/2.411"
            }
          }
        },
        {
          "id": "2.421",
          "name": "Arquitectos técnicos y aparejadores",
          "_links": {
            "self": {
              "name": "Arquitectos técnicos y aparejadores",
              "href": "https://api.euskadi.eus/procurements/companies/economic-activities/2.421"
            }
          }
        }
      ],
      "certificateStartDate": "2025-12-18",
      "certificateEndDate": "2026-06-03",
      "object": "ARQUITECTOS TÉCNICOS Y APAREJADORES",
      "mainEntityOfPage": "https://www.contratacion.euskadi.eus/webkpe00-kperoc/es/ac71aBusquedaRegistrosWar/empresa/07140",
      "_links": {
        "self": {
          "name": "PAUL ALBERDI ECHEBARRIA",
          "href": "https://api.euskadi.eus/procurements/companies/07140"
        }
      }
    },
    {
      "name": "ADN AUDITORS AND BOOKKEEPERS, S. L. P.",
      "registrationNumber": "08608",
      "identificationNumber": "B95712907",
      "address": "COLÓN DE LARREATEGUI, 26-5º C",
      "location": {
        "postalCode": "48009",
        "municipality": "Bilbao",
        "county": "Bizkaia",
        "municipalityId": "020",
        "countyId": "48"
      },
      "economicActivities": [
        {
          "id": "1.842",
          "name": "Servicios financieros y contables",
          "_links": {
            "self": {
              "name": "Servicios financieros y contables",
              "href": "https://api.euskadi.eus/procurements/companies/economic-activities/1.842"
            }
          }
        }
      ],
      "certificateStartDate": "2025-12-18",
      "certificateEndDate": "2026-06-04",
      "object": "EL EJERCICIO DE LA ACTIVIDAD PROFESIONAL DE AUDITORÍA DE CUENTAS Y EL EJERCICIO DE LA ACTIVIDAD PROFESIONAL DE ECONOMISTA. ",
      "mainEntityOfPage": "https://www.contratacion.euskadi.eus/webkpe00-kperoc/es/ac71aBusquedaRegistrosWar/empresa/08608",
      "_links": {
        "self": {
          "name": "ADN AUDITORS AND BOOKKEEPERS, S. L. P.",
          "href": "https://api.euskadi.eus/procurements/companies/08608"
        }
      }
    },
    {
      "name": "AJURIAGUERRA 3 SOCIEDAD DE GESTIÓN URBANÍSTICA, S.L.P.",
      "registrationNumber": "04682",
      "identificationNumber": "B48947642",
      "address": "Alameda Mazarredo, 63-1º dcha.",
      "location": {
        "postalCode": "48009",
        "municipality": "Bilbao",
        "county": "Bizkaia",
        "municipalityId": "020",
        "countyId": "48"
      },
      "economicActivities": [
        {
          "id": "1.843.2",
          "name": "Servicios técnicos de arquitectura y urbanismo",
          "_links": {
            "self": {
              "name": "Servicios técnicos de arquitectura y urbanismo",
              "href": "https://api.euskadi.eus/procurements/companies/economic-activities/1.843.2"
            }
          }
        }
      ],
      "certificateStartDate": "2025-12-18",
      "certificateEndDate": "2026-06-07",
      "object": "LA ACTIVIDAD PROPIA DE LOS PROFESIONALES DE LA ARQUITECTURA",
      "mainEntityOfPage": "https://www.contratacion.euskadi.eus/webkpe00-kperoc/es/ac71aBusquedaRegistrosWar/empresa/04682",
      "_links": {
        "self": {
          "name": "AJURIAGUERRA 3 SOCIEDAD DE GESTIÓN URBANÍSTICA, S.L.P.",
          "href": "https://api.euskadi.eus/procurements/companies/04682"
        }
      }
    },
    {
      "name": "EXCAVACIONES EKIN SL",
      "registrationNumber": "03437",
      "identificationNumber": "B20392163",
      "address": "CASERIO BERROSUETA GOENA (BARRIO LOIOLA)",
      "location": {
        "postalCode": "20730",
        "municipality": "Azpeitia",
        "county": "Gipuzkoa",
        "municipalityId": "018",
        "countyId": "20"
      },
      "economicActivities": [
        {
          "id": "1.501.2",
          "name": "Construcción completa, reparación y conservación obras civiles",
          "_links": {
            "self": {
              "name": "Construcción completa, reparación y conservación obras civiles",
              "href": "https://api.euskadi.eus/procurements/companies/economic-activities/1.501.2"
            }
          }
        },
        {
          "id": "1.502.3",
          "name": "Consolidación y preparación de terrenos para la realización de obras civiles",
          "_links": {
            "self": {
              "name": "Consolidación y preparación de terrenos para la realización de obras civiles",
              "href": "https://api.euskadi.eus/procurements/companies/economic-activities/1.502.3"
            }
          }
        }
      ],
      "certificateStartDate": "2025-12-18",
      "certificateEndDate": "2026-05-30",
      "object": "LA REALIZACIÓN DE TODO TIPO DE TRABAJOS DE EXCAVACIÓN, CONSTRUCCIÓN Y REHABILITACIÓN DE EDIFICIOS RESIDENCIALES, INDUSTRIALES Y COMERCIALES O DE CUALQUIER OTRA CLASE DE USO, ASÍ COMO LA REALIZACIÓN Ó EJECUCIÓN DE TODO TIPO DE TRABAJO RELACIONADOS CON LA CONSTRUCCIÓN EN SU SENTIDO MÁS AMPLIO O GENÉRICO Y LA COMPRAVENTA DE BIENES INMUEBLES",
      "mainEntityOfPage": "https://www.contratacion.euskadi.eus/webkpe00-kperoc/es/ac71aBusquedaRegistrosWar/empresa/03437",
      "_links": {
        "self": {
          "name": "EXCAVACIONES EKIN SL",
          "href": "https://api.euskadi.eus/procurements/companies/03437"
        }
      }
    },
    {
      "name": "SERVICIOS AUXILIARES LAGUARDIA S.C.",
      "registrationNumber": "10236",
      "identificationNumber": "J01581511",
      "address": "c/mayor nº55-1º",
      "location": {
        "postalCode": "01300",
        "municipality": "Laguardia",
        "county": "Araba/Álava",
        "municipalityId": "031",
        "countyId": "01"
      },
      "economicActivities": [
        {
          "id": "1.999",
          "name": "Otros servicios n.c.o.p",
          "_links": {
            "self": {
              "name": "Otros servicios n.c.o.p",
              "href": "https://api.euskadi.eus/procurements/companies/economic-activities/1.999"
            }
          }
        }
      ],
      "certificateStartDate": "2025-12-18",
      "certificateEndDate": "2026-05-28",
      "object": "OTROS SERVICIOS TÉCNICOS N.C.O.P.",
      "mainEntityOfPage": "https://www.contratacion.euskadi.eus/webkpe00-kperoc/es/ac71aBusquedaRegistrosWar/empresa/10236",
      "_links": {
        "self": {
          "name": "SERVICIOS AUXILIARES LAGUARDIA S.C.",
          "href": "https://api.euskadi.eus/procurements/companies/10236"
        }
      }
    },
    {
      "name": "BASQUE CULINARY CENTER FUNDAZIOA",
      "registrationNumber": "06220",
      "identificationNumber": "G20998100",
      "address": "Paseo Juan Avelino Barriola, 101",
      "location": {
        "postalCode": "20009",
        "municipality": "Donostia / San Sebastián",
        "county": "Gipuzkoa",
        "municipalityId": "069",
        "countyId": "20"
      },
      "economicActivities": [
        {
          "id": "1.151.4",
          "name": "Producción de energía no especificada en otros epígrafes",
          "_links": {
            "self": {
              "name": "Producción de energía no especificada en otros epígrafes",
              "href": "https://api.euskadi.eus/procurements/companies/economic-activities/1.151.4"
            }
          }
        },
        {
          "id": "1.631",
          "name": "Intermediarios del comercio",
          "_links": {
            "self": {
              "name": "Intermediarios del comercio",
              "href": "https://api.euskadi.eus/procurements/companies/economic-activities/1.631"
            }
          }
        },
        {
          "id": "1.659.4",
          "name": "Venta al por menor de libros, periódicos y artículos de papelería y escritorio",
          "_links": {
            "self": {
              "name": "Venta al por menor de libros, periódicos y artículos de papelería y escritorio",
              "href": "https://api.euskadi.eus/procurements/companies/economic-activities/1.659.4"
            }
          }
        },
        {
          "id": "1.849.9",
          "name": "Otros servicios independientes n.c.o.p",
          "_links": {
            "self": {
              "name": "Otros servicios independientes n.c.o.p",
              "href": "https://api.euskadi.eus/procurements/companies/economic-activities/1.849.9"
            }
          }
        },
        {
          "id": "1.861.2",
          "name": "Alquiler de locales industriales y otros alquileres n.c.o.p",
          "_links": {
            "self": {
              "name": "Alquiler de locales industriales y otros alquileres n.c.o.p",
              "href": "https://api.euskadi.eus/procurements/companies/economic-activities/1.861.2"
            }
          }
        },
        {
          "id": "1.936.9",
          "name": "Otras investigaciones científicas y técnicas n.c.o.p",
          "_links": {
            "self": {
              "name": "Otras investigaciones científicas y técnicas n.c.o.p",
              "href": "https://api.euskadi.eus/procurements/companies/economic-activities/1.936.9"
            }
          }
        },
        {
          "id": "1.989.2",
          "name": "Servicios de organización de congresos, asambleas y similares",
          "_links": {
            "self": {
              "name": "Servicios de organización de congresos, asambleas y similares",
              "href": "https://api.euskadi.eus/procurements/companies/economic-activities/1.989.2"
            }
          }
        }
      ],
      "certificateStartDate": "2025-12-18",
      "certificateEndDate": "2026-06-08",
      "object": "LA FORMACIÓN Y LA INVESTIGACIÓN, LA INNOVACIÓN Y LA TRANSFERENCIA DE CONOCIMIENTO Y TECNOLOGÍA EN LAS DIFERENTES ÁREAS DE LAS CIENCIAS GASTRONÓMICAS, GENERANDO PROCESOS DE INVESTIGACIÓN COLABORATIVA ENTRE UNIVERSIDADES, CENTROS TECNOLÓGICOS, EMPRESAS Y ORGANISMOS PÚBLICOS, PARA DESARROLLAR UNA RED CAPAZ DE GENERAR Y TRANSFERIR CONOCIMIENTO, ASÍ COMO LA PROMOCIÓN TURÍSTICA Y ATRACCIÓN DE VISITANTES MEDIANTE EL IMPULSO DEL DESARROLLO GASTRONÓMICO. TODO ELLO CON LOS SIGUIENTES PRINCIPALES OBJETIVOS: GARANTIZAR LA CONTINUIDAD DE LA COCINA VASCA COMO POLO DE ALTA COCINA Y DE INNOVACIÓN EN EL FUTURO, GENERANDO CONOCIMIENTO DE ALTO NIVEL Y FORMACIÓN DE PROFESINALES CUALIFICADOS. PARA ELLO SE IMPLANTARÁ UNA OFERTA FORMATIVA AMPLIA INTEGRADA POR UNA TITULACIÓN UNIVERSITARIA OFICIAL, UNA OFERTA DE POSTGRADOS, ASÍ COMO UNA OFERTA DE FORMACIÓN CONTINUA. GENERAR UN DESARROLLO SOSTENIBLE EN CULTURA GASTRONÓMICA, EDUCACIÓN ALIMENTARIA Y TENDENCIAS DE LA ALIMENTACIÓN. PROMOVER LA INVESTIGACIÓN Y TRANSFERENCIA DE CONOCIMIENTOS EN LOS PROFESIONALES DE LA ALTA COCINA Y LOS SECTORES EMPRESARIALES Y DEL CONOCIMIENTO RELACIONADOS DIRECTA E INDIRECTAMENTE CON LA GASTRONOMÍA (TECNOLOGÍAS DE LA ALIMENTACIÓN, NUTRICIÓN, ALIMENTACIÓN FUNCIONAL, EDITORIAL, EQUIPAMIENTO, AGROALIMENTARIO, ETC.), FOMENTANDO A SU VEZ LAS SINERGIAS ENTRE ELLOS",
      "mainEntityOfPage": "https://www.contratacion.euskadi.eus/webkpe00-kperoc/es/ac71aBusquedaRegistrosWar/empresa/06220",
      "_links": {
        "self": {
          "name": "BASQUE CULINARY CENTER FUNDAZIOA",
          "href": "https://api.euskadi.eus/procurements/companies/06220"
        }
      }
    },
    {
      "name": "JON AZCOITIA ECHEZARRA",
      "registrationNumber": "08739",
      "identificationNumber": "44685465F",
      "address": "C/BOLIVIA, 23-6ºC",
      "location": {
        "postalCode": "01009",
        "municipality": "Vitoria-Gasteiz",
        "county": "Araba/Álava",
        "municipalityId": "059",
        "countyId": "01"
      },
      "economicActivities": [
        {
          "id": "2.411",
          "name": "Arquitectos",
          "_links": {
            "self": {
              "name": "Arquitectos",
              "href": "https://api.euskadi.eus/procurements/companies/economic-activities/2.411"
            }
          }
        }
      ],
      "certificateStartDate": "2025-12-18",
      "certificateEndDate": "2026-06-09",
      "object": "SERVICIOS TÉCNICOS DE ARQUITECTURA.",
      "mainEntityOfPage": "https://www.contratacion.euskadi.eus/webkpe00-kperoc/es/ac71aBusquedaRegistrosWar/empresa/08739",
      "_links": {
        "self": {
          "name": "JON AZCOITIA ECHEZARRA",
          "href": "https://api.euskadi.eus/procurements/companies/08739"
        }
      }
    },
    {
      "name": "SASOI ERAIKUNTZAK, S.L.",
      "registrationNumber": "05741",
      "identificationNumber": "B31544075",
      "address": "CALLE LEKU-EDER Nº 16 BAJO",
      "location": {
        "postalCode": "31791",
        "municipality": "Sunbilla",
        "county": "Navarra",
        "municipalityId": "226",
        "countyId": "31"
      },
      "economicActivities": [
        {
          "id": "1.501.2",
          "name": "Construcción completa, reparación y conservación obras civiles",
          "_links": {
            "self": {
              "name": "Construcción completa, reparación y conservación obras civiles",
              "href": "https://api.euskadi.eus/procurements/companies/economic-activities/1.501.2"
            }
          }
        },
        {
          "id": "1.507",
          "name": "Construcción, reparación y conservación de toda clase obras",
          "_links": {
            "self": {
              "name": "Construcción, reparación y conservación de toda clase obras",
              "href": "https://api.euskadi.eus/procurements/companies/economic-activities/1.507"
            }
          }
        },
        {
          "id": "1.722",
          "name": "Transporte de mercancías por carretera",
          "_links": {
            "self": {
              "name": "Transporte de mercancías por carretera",
              "href": "https://api.euskadi.eus/procurements/companies/economic-activities/1.722"
            }
          }
        }
      ],
      "certificateStartDate": "2025-12-18",
      "certificateEndDate": "2026-05-30",
      "object": "LAS EXCAVACIONES, DESMONTES, MOVIMIENTOS DE TIERRAS Y EXPLANACIONES, PARA TODO TIPO DE OBRAS PÚBLICAS O PRIVADAS. LA PROMOCIÓN, CONSTRUCCIÓN Y REALIZACIÓN DE TODA CLASE DE OBRAS PÚBLICAS O PRIVADAS. EL TRANSPORTE PÚBLICO POR CARRETERA, EN RÉGIMEN REGULAR O DISCRECIONAL, DE ÍNDOLE NACIONAL O INTERNACIONAL, DE TODA CLASE DE BIENES. Y LA REALIZACIÓN DE TODA CLASE DE ACTIVIDADES INMOBILIARIAS.",
      "mainEntityOfPage": "https://www.contratacion.euskadi.eus/webkpe00-kperoc/es/ac71aBusquedaRegistrosWar/empresa/05741",
      "_links": {
        "self": {
          "name": "SASOI ERAIKUNTZAK, S.L.",
          "href": "https://api.euskadi.eus/procurements/companies/05741"
        }
      }
    }
  ]
}