{
  "totalItems": 9042,
  "totalPages": 905,
  "currentPage": 518,
  "itemsOfPage": 10,
  "items": [
    {
      "name": "EDUARDO SALVADOR BEASOAIN DE PAULORENA",
      "registrationNumber": "07846",
      "identificationNumber": "44626277K",
      "address": "Calle Dublin, 32 4ºI",
      "location": {
        "postalCode": "31600",
        "municipality": "Burlada/Burlata",
        "county": "Navarra",
        "municipalityId": "060",
        "countyId": "31"
      },
      "economicActivities": [
        {
          "id": "2.826",
          "name": "Personal docente de enseñanzas diversas",
          "_links": {
            "self": {
              "name": "Personal docente de enseñanzas diversas",
              "href": "https://api.euskadi.eus/procurements/companies/economic-activities/2.826"
            }
          }
        }
      ],
      "certificateStartDate": "2021-08-24",
      "certificateEndDate": "2021-12-01",
      "object": "PERSONAL DOCENTE DE ENSEÑANZAS DIVERSAS",
      "mainEntityOfPage": "https://www.contratacion.euskadi.eus/webkpe00-kperoc/es/ac71aBusquedaRegistrosWar/empresa/07846",
      "_links": {
        "self": {
          "name": "EDUARDO SALVADOR BEASOAIN DE PAULORENA",
          "href": "https://api.euskadi.eus/procurements/companies/07846"
        }
      }
    },
    {
      "name": "VIAJES ECUADOR, S.A.",
      "registrationNumber": "00326",
      "identificationNumber": "A48028179",
      "address": "CARRETERA EL ARENAL A LLUCMAJOR KM. 21,5",
      "location": {
        "postalCode": "07620",
        "municipality": "Llucmajor",
        "county": "Balears, Illes",
        "municipalityId": "031",
        "countyId": "07"
      },
      "economicActivities": [
        {
          "id": "1.755",
          "name": "Agencias de viajes",
          "_links": {
            "self": {
              "name": "Agencias de viajes",
              "href": "https://api.euskadi.eus/procurements/companies/economic-activities/1.755"
            }
          }
        },
        {
          "id": "1.755.2",
          "name": "Servicios prestados al público por las agencias de viajes",
          "_links": {
            "self": {
              "name": "Servicios prestados al público por las agencias de viajes",
              "href": "https://api.euskadi.eus/procurements/companies/economic-activities/1.755.2"
            }
          }
        }
      ],
      "certificateStartDate": "2021-08-24",
      "certificateEndDate": "2022-01-01",
      "object": "EL PROPIO DE LAS AGENCIAS DE VIAJES MAYORISTAS Y MINORISTAS, ES DECIR, EL EJERCICIO DE TODA CLASE DE ACTIVIDADES MERCANTILES DE MEDIACIÓN, DIRIGIDAS A PONER LOS BIENES Y SERVICIOS TURÍSTICOS A DISPOSICIÓN DE QUIENES DESEEN UTILIZARLOS, DESARROLLANDO A TAL EFECTO LAS FUNCIONES RECOGIDAS EN LA NORMATIVA REGULADORA DE LAS AGENCIAS DE VIAJES. (CÓDIGO CNAE 7911). LA REPRESENTACIÓN EN CALIDAD DE AGENTE, COMISIONISTA, INTERMEDIARIO, REPRESENTANTE O MANDATARIO DE TODA CLASE DE EMPRESAS O NEGOCIOS. LA COMISIÓN Y DISTRIBUCIÓN DE TODO TIPO DE PRODUCTOS, SERVICIOS Y ACCESORIOS ",
      "mainEntityOfPage": "https://www.contratacion.euskadi.eus/webkpe00-kperoc/es/ac71aBusquedaRegistrosWar/empresa/00326",
      "_links": {
        "self": {
          "name": "VIAJES ECUADOR, S.A.",
          "href": "https://api.euskadi.eus/procurements/companies/00326"
        }
      }
    },
    {
      "name": "I C BILBAO SERVICIOS LINGUISTICOS SL",
      "registrationNumber": "06187",
      "identificationNumber": "B48997316",
      "address": "LEHENDAKARIA AGUIRRE, 11 LJ 1",
      "location": {
        "postalCode": "48014",
        "municipality": "Bilbao",
        "county": "Bizkaia",
        "municipalityId": "020",
        "countyId": "48"
      },
      "economicActivities": [
        {
          "id": "1.847",
          "name": "Servicios de consultoría",
          "_links": {
            "self": {
              "name": "Servicios de consultoría",
              "href": "https://api.euskadi.eus/procurements/companies/economic-activities/1.847"
            }
          }
        },
        {
          "id": "1.849.3",
          "name": "Servicios de traducción y similares",
          "_links": {
            "self": {
              "name": "Servicios de traducción y similares",
              "href": "https://api.euskadi.eus/procurements/companies/economic-activities/1.849.3"
            }
          }
        },
        {
          "id": "1.933.9",
          "name": "Otras actividades de enseñanza tales como idiomas, mecanografía",
          "_links": {
            "self": {
              "name": "Otras actividades de enseñanza tales como idiomas, mecanografía",
              "href": "https://api.euskadi.eus/procurements/companies/economic-activities/1.933.9"
            }
          }
        },
        {
          "id": "1.989.2",
          "name": "Servicios de organización de congresos, asambleas y similares",
          "_links": {
            "self": {
              "name": "Servicios de organización de congresos, asambleas y similares",
              "href": "https://api.euskadi.eus/procurements/companies/economic-activities/1.989.2"
            }
          }
        }
      ],
      "certificateStartDate": "2021-08-23",
      "certificateEndDate": "2022-02-12",
      "object": "SERVICIOS LINGUISTICOS, PEDAGÓGICOS, TRADUCCIÓN Y TURISMO A EMPRESAS Y PARTICULARES",
      "mainEntityOfPage": "https://www.contratacion.euskadi.eus/webkpe00-kperoc/es/ac71aBusquedaRegistrosWar/empresa/06187",
      "_links": {
        "self": {
          "name": "I C BILBAO SERVICIOS LINGUISTICOS SL",
          "href": "https://api.euskadi.eus/procurements/companies/06187"
        }
      }
    },
    {
      "name": "BELARMENDI MENDIKO NEKAZARITZA, S.L.",
      "registrationNumber": "05811",
      "identificationNumber": "B20781365",
      "address": "Alkiza plaza 3",
      "location": {
        "postalCode": "20494",
        "municipality": "Alkiza",
        "county": "Gipuzkoa",
        "municipalityId": "006",
        "countyId": "20"
      },
      "economicActivities": [
        {
          "id": "1.911",
          "name": "Servicios agrícolas y ganaderos",
          "_links": {
            "self": {
              "name": "Servicios agrícolas y ganaderos",
              "href": "https://api.euskadi.eus/procurements/companies/economic-activities/1.911"
            }
          }
        }
      ],
      "certificateStartDate": "2021-08-20",
      "certificateEndDate": "2022-02-18",
      "object": "LA PRESTACIÓN DE SERVICIOS AGRARIOS, GANADEROS, FORESTALES O DE CONSERVACIÓN MEDIOAMBIENTAL, ASÍ COMO LA UTILIZACIÓN DE MAQUINARIA AGRÍCOLA Y LA PRESTACIÓN DE SERVICIOS DE LA MISMA",
      "mainEntityOfPage": "https://www.contratacion.euskadi.eus/webkpe00-kperoc/es/ac71aBusquedaRegistrosWar/empresa/05811",
      "_links": {
        "self": {
          "name": "BELARMENDI MENDIKO NEKAZARITZA, S.L.",
          "href": "https://api.euskadi.eus/procurements/companies/05811"
        }
      }
    },
    {
      "name": "DEALER MACHINES, S.L.",
      "registrationNumber": "07842",
      "identificationNumber": "B75230334",
      "address": "ZUBILLAGA AUZOA, 37 - 3º I",
      "location": {
        "postalCode": "20560",
        "municipality": "Oñati",
        "county": "Gipuzkoa",
        "municipalityId": "059",
        "countyId": "20"
      },
      "economicActivities": [
        {
          "id": "1.631",
          "name": "Intermediarios del comercio",
          "_links": {
            "self": {
              "name": "Intermediarios del comercio",
              "href": "https://api.euskadi.eus/procurements/companies/economic-activities/1.631"
            }
          }
        }
      ],
      "certificateStartDate": "2021-08-20",
      "certificateEndDate": "2022-02-05",
      "object": "LA COMPRA VENTA MAYOR Y MENOR DE MAQUINARIA DE USO Y APLICACIÓN INDUSTRIAL, EL SERVICIO DE REPARACIÓN Y MANTENIMIENTO DE MAQUINARIA Y EL ALQUILER DE LOCALES Y/O ESTABLECIMIENTOS COMERCIALES O INDUSTRIALES",
      "mainEntityOfPage": "https://www.contratacion.euskadi.eus/webkpe00-kperoc/es/ac71aBusquedaRegistrosWar/empresa/07842",
      "_links": {
        "self": {
          "name": "DEALER MACHINES, S.L.",
          "href": "https://api.euskadi.eus/procurements/companies/07842"
        }
      }
    },
    {
      "name": "FUNDACIÓN CRISTÓBAL BALENCIAGA - CRISTOBAL BALENCIAGA FUNDAZIOA",
      "registrationNumber": "07841",
      "identificationNumber": "G20679049",
      "address": "PARQUE ALDAMAR 6",
      "location": {
        "postalCode": "20808",
        "municipality": "Getaria",
        "county": "Gipuzkoa",
        "municipalityId": "039",
        "countyId": "20"
      },
      "economicActivities": [
        {
          "id": "1.966.1",
          "name": "Bibliotecas y museos",
          "_links": {
            "self": {
              "name": "Bibliotecas y museos",
              "href": "https://api.euskadi.eus/procurements/companies/economic-activities/1.966.1"
            }
          }
        }
      ],
      "certificateStartDate": "2021-08-19",
      "certificateEndDate": "2021-12-27",
      "object": "PROMOVER, DIFUNDIR Y POTENCIAR LA TRASCENDENCIA QUE LA PERSONA Y PERSONALIDAD DEL MODISTO-CREADOR DON CRISTÓBAL BALENCIAGA EIZAGUIRRE, NATURAL DE GETARIA, HA TENIDO EN EL MUNDO DE LA MODA, LA ALTA COSTURA Y EL DISEÑO DEL VESTIDO, DESDE LA PERSPECTIVA DE SU APORTACIÓN ARTÍSTICA, ADEMÁS DE TÉCNICA Y EMPRESARIAL. PARA LA CONSECUCIÓN DE LOS FINES MENCIONADOS EN EL PÁRRAFO ANTERIOR, LA FUNDACIÓN REALIZARÁ, ENTRE OTRAS, LAS SIGUIENTES ACTIVIDADES: 1. LA GESTIÓN Y DESARROLLO DEL MUSEO BALENCIAGA, QUE ESTARÁ UBICADO EN LA VILLA DE GETARIA. 2. LA RECUPERACIÓN Y ACONDICIONAMIENTO DE LA CASA NATAL DE CRISTÓBAL BALENCIAGA EIZAGIRRE, SITA EN LA VILLA DE GETARIA, COMO LUGAR DE ENCUENTRO DE LAS RAÍCES DEL DISEÑADOR. 3. LA CREACIÓN DE UN CENTRO INTERNACIONAL DE DISEÑO EN LA ALTA COSTURA. 4. LA CONSTITUCIÓN DE UN CENTRO DE DOCUMENTACIÓN Y ARCHIVO BIBLIOGRÁFICO, QUE RECOJA LOS FONDOS PUBLICADOS SOBRE LA OBRA DE BALENCIAGA, Y SOBRE LA MODA Y LA ALTA COSTURA EN GENERAL. 5. LA PROMOCIÓN, CONCESIÓN DE BECAS DE ESTUDIO E INVESTIGACIÓN Y REALIZACIÓN DE CURSOS EN LOS CAMPOS ARTÍSTICOS Y DE TRATAMIENTO INDUSTRIAL DE LOS TEJIDOS E INDUSTRIA AUXILIAR DE LA MODA. 6.\tLA CONVOCATORIA, OTORGAMIENTO Y CONCESIÓN DE LOS PREMIOS INTERNACIONALES CRISTÓBAL BALENCIAGA, OTORGADOS POR UN JURADO CONSTITUIDO POR PERSONAS DE INEQUÍVOCO PRESTIGIO EN EL CAMPO DE LA MODA Y DE LA ALTA COSTURA. 7. LA EDICIÓN DE PUBLICACIONES Y MEMORIA ANUAL, ASÍ COMO LA CREACIÓN DE UNA PÁGINA WEB, QUE PERMITAN DAR A CONOCER LAS ACTIVIDADES DE LA FUNDACIÓN. 8. LA DIRECCIÓN, CONTROL Y PRESENTACIÓN DE EXPOSICIONES ITINERANTES SOBRE BALENCIAGA Y LA MODA. 9. EL DESARROLLO DE ACTIVIDADES DIRIGIDAS A LA PROMOCIÓN TURÍSTICA, ASÍ COMO LA CAPTACIÓN DE LOS FONDOS ECONÓMICOS NECESARIOS PARA LLEVAR A CABO TODAS SUS ACTIVIDADES. 10. OTRAS QUE PUEDAN SURGIR EN RELACIÓN CON LOS FINES DE LA FUNDACIÓN",
      "mainEntityOfPage": "https://www.contratacion.euskadi.eus/webkpe00-kperoc/es/ac71aBusquedaRegistrosWar/empresa/07841",
      "_links": {
        "self": {
          "name": "FUNDACIÓN CRISTÓBAL BALENCIAGA - CRISTOBAL BALENCIAGA FUNDAZIOA",
          "href": "https://api.euskadi.eus/procurements/companies/07841"
        }
      }
    },
    {
      "name": "SERVICIOS Y OBRAS DEL NORTE, S.A.",
      "registrationNumber": "07840",
      "identificationNumber": "A39044912",
      "address": "Avenida de Castañeda, 7",
      "location": {
        "postalCode": "39005",
        "municipality": "Santander",
        "county": "Cantabria",
        "municipalityId": "075",
        "countyId": "39"
      },
      "economicActivities": [
        {
          "id": "1.507",
          "name": "Construcción, reparación y conservación de toda clase obras",
          "_links": {
            "self": {
              "name": "Construcción, reparación y conservación de toda clase obras",
              "href": "https://api.euskadi.eus/procurements/companies/economic-activities/1.507"
            }
          }
        }
      ],
      "certificateStartDate": "2021-08-18",
      "certificateEndDate": "2022-01-29",
      "object": "1º.- LA PROMOCIÓN Y EJECUCIÓN DE OBRAS PÚBLICAS Y PRIVADAS DE CUALQUIER CLASE Y CONSTRUCCIONES EN GENERAL, FABRICACIÓN DE TODO TIPO DE MATERIALES PARA LA CONSTRUCCIÓN Y EXPLOTACIÓN DE CANTERAS. 2º.- EL DISEÑO, CONSTRUCCIÓN, EJECUCIÓN, EXPLOTACIÓN, GESTIÓN, ADMINISTRACIÓN Y CONSERVACIÓN DE INFRAESTRUCTURAS Y DE OBRAS PÚBLICAS Y PRIVADAS YA SEA DIRECTAMENTE O SEA A TRAVÉS DE LA PARTICIPACIÓN EN SOCIEDADES, AGRUPACIONES, CONSORCIOS O CUALQUIERA OTRA ANÁLOGA FIGURA JURÍDICA LEGALMENTE PERMITIDA. 3º.- EXPLOTACIÓN Y GESTIÓN DE TODA CLASE DE OBRAS Y SERVICIOS COMPLEMENTARIOS QUE PUEDAN OFRECERSE EN LAS ÁREAS DE INFLUENCIA DE INFRAESTRUCTURAS Y OBRAS PÚBLICAS Y PRIVADAS. 4º.- LA TITULARIDAD DE TODA CLASE DE CONCESIONES, SUBCONCESIONES, AUTORIZACIONES Y LICENCIAS ADMINISTRATIVAS DE OBRAS, SERVICIOS Y MIXTAS DEL ESTADO, COMUNIDADES AUTÓNOMAS, PROVINCIAS, MUNICIPIOS, ORGANISMOS Y ENTIDADES AUTÓNOMAS. 5º.- PRESTACIÓN DE SERVICIOS RELACIONADOS CON LA CONSERVACIÓN, REPARACIÓN, MANTENIMIENTO DE MONTES Y JARDINES ASÍ COMO SANEAMIENTO, LIMPIEZA EN GENERAL Y LIMPIEZA DE TODA CLASE DE OBRAS E INSTALACIONES Y SERVICIOS, TANTO ENTIDADES PÚBLICAS COMO PRIVADAS. 6º.- PRESTACIÓN DE SERVICIOS PROPIOS DE LA ACTIVIDAD DE LA INGENIERÍA, TALES COMO LA REALIZACIÓN DE PROYECTOS, ESTUDIOS E INFORMES. 7º.- PRESTACIÓN DE SERVICIOS RELACIONADOS CON EL MEDIO AMBIENTE Y GESTIÓN INTEGRAL DE BASURAS, TANTO EN LO QUE SE REFIERE A SU RECOGIDA COMO A SU DEPURACIÓN, TRANSFORMACIÓN Y TRATAMIENTO.",
      "mainEntityOfPage": "https://www.contratacion.euskadi.eus/webkpe00-kperoc/es/ac71aBusquedaRegistrosWar/empresa/07840",
      "_links": {
        "self": {
          "name": "SERVICIOS Y OBRAS DEL NORTE, S.A.",
          "href": "https://api.euskadi.eus/procurements/companies/07840"
        }
      }
    },
    {
      "name": "LABORATORIOS BIOKIBANK 2012, S.L.",
      "registrationNumber": "07838",
      "identificationNumber": "B01504133",
      "address": "Parque Tecnológico de Álava  C/Ferdinand Zeppelin, 5A",
      "location": {
        "postalCode": "01510",
        "municipality": "Vitoria-Gasteiz",
        "county": "Araba/Álava",
        "municipalityId": "059",
        "countyId": "01"
      },
      "economicActivities": [
        {
          "id": "1.942.9",
          "name": "Otros servicios sanitarios sin internados, no clasificados",
          "_links": {
            "self": {
              "name": "Otros servicios sanitarios sin internados, no clasificados",
              "href": "https://api.euskadi.eus/procurements/companies/economic-activities/1.942.9"
            }
          }
        }
      ],
      "certificateStartDate": "2021-08-17",
      "certificateEndDate": "2022-01-17",
      "object": "A) BANCO DE SEMEN. B) LABORATORIO DE ANÁLISIS CLÍNICOS DE INFERTILIDAD. C) ACTIVIDADES DE INVESTIGACIÓN Y DESARROLLO EN PROCEDIMIENTOS DE INFERTILIDAD",
      "mainEntityOfPage": "https://www.contratacion.euskadi.eus/webkpe00-kperoc/es/ac71aBusquedaRegistrosWar/empresa/07838",
      "_links": {
        "self": {
          "name": "LABORATORIOS BIOKIBANK 2012, S.L.",
          "href": "https://api.euskadi.eus/procurements/companies/07838"
        }
      }
    },
    {
      "name": "OSO POLITA RECORDS, SOCIEDAD LIMITADA",
      "registrationNumber": "07835",
      "identificationNumber": "B95923512",
      "address": "CAMINO VENTOSA 46-1D",
      "location": {
        "postalCode": "48013",
        "municipality": "Bilbao",
        "county": "Bizkaia",
        "municipalityId": "020",
        "countyId": "48"
      },
      "economicActivities": [
        {
          "id": "1.476.9",
          "name": "Otras ediciones n.c.o.p",
          "_links": {
            "self": {
              "name": "Otras ediciones n.c.o.p",
              "href": "https://api.euskadi.eus/procurements/companies/economic-activities/1.476.9"
            }
          }
        }
      ],
      "certificateStartDate": "2021-08-16",
      "certificateEndDate": "2022-02-05",
      "object": "A) PRODUCTORA MUSICAL, PRODUCTORA AUDIOVISUAL, COMPAÑÍA DISCOGRÁFICA, EDITORIAL, GESTIÓN DE DERECHOS DE AUTOR, FABRICACIÓN, DISTRIBUCIÓN Y VENTA DE CONTENIDO MUSICAL O AUDIOVISUAL: CDS, DVDS O CUALQUIER OTRO SOPORTE QUE FIJE CONTENIDO MUSICAL O AUDIOVISUAL. ASÍ COMO SERÁ OBJETO DE LA SOCIEDAD TODAS LAS ACTIVIDADES QUE FUERAN NECESARIAS PARA LA CONSECUCIÓN DE LAS ACTIVIDADES CITADAS ANTERIORMENTE. B) LA PROMOCIÓN, PREPARACIÓN, CONTRATACIÓN DE ARTISTAS DE CUALQUIER GÉNERO Y GESTIÓN Y DESARROLLO DE TODO TIPO DE FESTIVALES, EVENTOS, CONCIERTOS, GALAS Y CONCURSOS MUSICALES, TANTO EN ESPAÑA COMO EN EL EXTRANJERO, ASÍ COMO EL MARKETING DE LAS MISMAS. C) LA GRABACIÓN, ORGANIZACIÓN Y DISTRIBUCIÓN DE OBRAS MUSICALES Y ESPECTÁCULOS EN GENERAL, SOBRE LOS QUE TENGA DERECHO DE EXPLOTACIÓN O QUE SEAN PROPIAS DE ALGUNO DE SUS COMPONENTES, PREVIA LA CORRESPONDIENTE AUTORIZACIÓN DEL MISMO A LA SOCIEDAD, A TRAVÉS DE CUALQUIER MEDIO DE REPRODUCCIÓN, DIGITALES O AUDIOVISUALES, SIEMPRE CON ARREGLO A LAS NORMAS LEGALES ESPECÍFICAS QUE PUDIERAN AFECTAR A ESTA MATERIA. D) LA GESTIÓN, EXPLOTACIÓN Y ALQUILER DE ESTUDIOS DE GRABACIÓN DE SONIDO. E) LA REPRESENTACIÓN ARTÍSTICA Y DE ARTISTAS. F) LA VENTA, ARRENDAMIENTO, USUFRUCTO O CESIÓN O TRANSMISIÓN POR CUALQUIER OTRO TÍTULO JURÍDICO DE CUALQUIER TIPO DE MATERIAL DE SONIDO, EQUIPAMIENTO AUDIOVISUAL Y DE ESPECTÁCULOS, ASÍ COMO DE INSTRUMENTOS MUSICALES Y LAS ÁREAS CONEXAS CON LAS ANTERIORES. G) LA EXPLOTACIÓN Y GESTIÓN DE LOS DERECHOS DE AUTOR INHERENTES A LA PROPIEDAD INTELECTUAL DE COMPOSICIONES ARTÍSTICAS EN GENERAL DE LAS QUE SEA TITULAR CUALQUIERA DE LOS MIEMBROS DE LA SOCIEDAD PREVIA LA CORRESPONDIENTE AUTORIZACIÓN DEL MISMO A LA SOCIEDAD O QUE SEA OBRA COLECTIVA PERTENECIENTE A LA MISMA. H) LA GESTIÓN DE SPONSORS. I) LA EXPLOTACIÓN DE BARRAS DE HOSTELERÍA, CONCIERTOS, EVENTOS MUSICALES Y ESPECTÁCULOS, GRABACIÓN DE DISCOS, CDS Y TODO LO RELACIONADO CON DICHOS EVENTOS MUSICALES, ASÍ COMO EL ALQUILER, VENTA Y EXPLOTACIÓN DE LAS MISMAS, TANTO EN EL ESTADO ESPAÑOL, COMUNIDADES AUTÓNOMAS O EN EL EXTRANJERO. J) LA INTERMEDIACIÓN COMERCIAL EN GENERAL, CREACIÓN, EXPLOTACIÓN DE PÁGINAS WEBS Y PORTALES DE INTERNET, REGISTRO DE DOMINIOS, VENTA DE EQUIPOS INFORMÁTICOS Y OFIMÁTICA. K) EL ALMACENAMIENTO, LOGÍSTICA, DISTRIBUCIÓN DE MERCANCÍAS Y LA IMPORTACIÓN Y EXPORTACIÓN DE MERCANCÍAS. L) ACTIVIDADES PROPIAS DEL RAMO DE LA ENSEÑANZA",
      "mainEntityOfPage": "https://www.contratacion.euskadi.eus/webkpe00-kperoc/es/ac71aBusquedaRegistrosWar/empresa/07835",
      "_links": {
        "self": {
          "name": "OSO POLITA RECORDS, SOCIEDAD LIMITADA",
          "href": "https://api.euskadi.eus/procurements/companies/07835"
        }
      }
    },
    {
      "name": "XERIDIA, S.L.",
      "registrationNumber": "07005",
      "identificationNumber": "B24458002",
      "address": "AV. PADRE ISLA, 16",
      "location": {
        "postalCode": "24002",
        "municipality": "León",
        "county": "León",
        "municipalityId": "089",
        "countyId": "24"
      },
      "economicActivities": [
        {
          "id": "1.845",
          "name": "Explotación electrónica por cuenta de terceros",
          "_links": {
            "self": {
              "name": "Explotación electrónica por cuenta de terceros",
              "href": "https://api.euskadi.eus/procurements/companies/economic-activities/1.845"
            }
          }
        },
        {
          "id": "1.861.2",
          "name": "Alquiler de locales industriales y otros alquileres n.c.o.p",
          "_links": {
            "self": {
              "name": "Alquiler de locales industriales y otros alquileres n.c.o.p",
              "href": "https://api.euskadi.eus/procurements/companies/economic-activities/1.861.2"
            }
          }
        }
      ],
      "certificateStartDate": "2021-08-13",
      "certificateEndDate": "2022-02-12",
      "object": "LOS PROYECTOS DE CONSULTORÍA Y DESARROLLO INFORMÁTICO. LA INSTALACIÓN Y VENTA DE MATERIAL INFORMÁTICO. EL DESARROLLO Y DISEÑO DE PÁGINAS WEB, PUBLICIDAD E IMAGEN CORPORATIVA. LA FORMACIÓN EN EL AMITO INFORMÁTICO. ALQUILER DE LOCALES INDUSTRIALES Y VIVIENDAS",
      "mainEntityOfPage": "https://www.contratacion.euskadi.eus/webkpe00-kperoc/es/ac71aBusquedaRegistrosWar/empresa/07005",
      "_links": {
        "self": {
          "name": "XERIDIA, S.L.",
          "href": "https://api.euskadi.eus/procurements/companies/07005"
        }
      }
    }
  ]
}