{
  "totalItems": 9042,
  "totalPages": 905,
  "currentPage": 879,
  "itemsOfPage": 10,
  "items": [
    {
      "name": "ARATZ GARBITZAILEAK S.L.",
      "registrationNumber": "05283",
      "identificationNumber": "B20929857",
      "address": "EUSKALERRIA 18",
      "location": {
        "postalCode": "20730",
        "municipality": "Azpeitia",
        "county": "Gipuzkoa",
        "municipalityId": "018",
        "countyId": "20"
      },
      "object": "SERVICIO DE LIMPIEZA DE EDIFICIOS",
      "mainEntityOfPage": "https://www.contratacion.euskadi.eus/webkpe00-kperoc/es/ac71aBusquedaRegistrosWar/empresa/05283",
      "_links": {
        "self": {
          "name": "ARATZ GARBITZAILEAK S.L.",
          "href": "https://api.euskadi.eus/procurements/companies/05283"
        }
      }
    },
    {
      "name": "AHEL EFFICIENCY S.L.",
      "registrationNumber": "05285",
      "identificationNumber": "B95724571",
      "address": "AVDA. ALTOS HORNOS DE BIZKAIA 33 MOD I-14 EDIF. CEDEMI",
      "location": {
        "postalCode": "48902",
        "municipality": "Barakaldo",
        "county": "Bizkaia",
        "municipalityId": "013",
        "countyId": "48"
      },
      "object": ".",
      "mainEntityOfPage": "https://www.contratacion.euskadi.eus/webkpe00-kperoc/es/ac71aBusquedaRegistrosWar/empresa/05285",
      "_links": {
        "self": {
          "name": "AHEL EFFICIENCY S.L.",
          "href": "https://api.euskadi.eus/procurements/companies/05285"
        }
      }
    },
    {
      "name": "KOLDO AUTO S.L.",
      "registrationNumber": "05309",
      "identificationNumber": "B48895148",
      "address": "POLIGONO INDUSTRIALDEA 6-4",
      "location": {
        "postalCode": "01400",
        "municipality": "Laudio/Llodio",
        "county": "Araba/Álava",
        "municipalityId": "036",
        "countyId": "01"
      },
      "object": "REPARACION Y VENTA DE VEHICULOS",
      "mainEntityOfPage": "https://www.contratacion.euskadi.eus/webkpe00-kperoc/es/ac71aBusquedaRegistrosWar/empresa/05309",
      "_links": {
        "self": {
          "name": "KOLDO AUTO S.L.",
          "href": "https://api.euskadi.eus/procurements/companies/05309"
        }
      }
    },
    {
      "name": "GOIKOAUTO S.A.",
      "registrationNumber": "05313",
      "identificationNumber": "A20153664",
      "address": "AMASORRAIN 1",
      "location": {
        "postalCode": "20018",
        "municipality": "Donostia / San Sebastián",
        "county": "Gipuzkoa",
        "municipalityId": "069",
        "countyId": "20"
      },
      "object": "reparacion de vehiculos",
      "mainEntityOfPage": "https://www.contratacion.euskadi.eus/webkpe00-kperoc/es/ac71aBusquedaRegistrosWar/empresa/05313",
      "_links": {
        "self": {
          "name": "GOIKOAUTO S.A.",
          "href": "https://api.euskadi.eus/procurements/companies/05313"
        }
      }
    },
    {
      "name": "GURUTZE KARROZERIA S. COOP. PEQ.",
      "registrationNumber": "05315",
      "identificationNumber": "F75103440",
      "address": "OTARREAGA 4",
      "location": {
        "postalCode": "20400",
        "municipality": "Ibarra",
        "county": "Gipuzkoa",
        "municipalityId": "042",
        "countyId": "20"
      },
      "object": "REPARACION Y MANTENIMIENTO DE VEHICULOS",
      "mainEntityOfPage": "https://www.contratacion.euskadi.eus/webkpe00-kperoc/es/ac71aBusquedaRegistrosWar/empresa/05315",
      "_links": {
        "self": {
          "name": "GURUTZE KARROZERIA S. COOP. PEQ.",
          "href": "https://api.euskadi.eus/procurements/companies/05315"
        }
      }
    },
    {
      "name": "EUSKAL DEALER S.L.",
      "registrationNumber": "05327",
      "identificationNumber": "B95421228",
      "address": "Ribera de Erandio 5",
      "location": {
        "postalCode": "48950",
        "municipality": "Erandio",
        "county": "Bizkaia",
        "municipalityId": "902",
        "countyId": "48"
      },
      "object": "reparacion y venta de vehiculos",
      "mainEntityOfPage": "https://www.contratacion.euskadi.eus/webkpe00-kperoc/es/ac71aBusquedaRegistrosWar/empresa/05327",
      "_links": {
        "self": {
          "name": "EUSKAL DEALER S.L.",
          "href": "https://api.euskadi.eus/procurements/companies/05327"
        }
      }
    },
    {
      "name": "AUTO REPARACIONES GAMARRA S.L.",
      "registrationNumber": "05351",
      "identificationNumber": "B01054675",
      "address": "AVDA.  CANTABRICO Nº 2",
      "location": {
        "postalCode": "01013",
        "municipality": "Vitoria-Gasteiz",
        "county": "Araba/Álava",
        "municipalityId": "059",
        "countyId": "01"
      },
      "object": "ADQUISICION, REPARACION Y ENAJENACION DE TODA CLASE DE VEHICULOS Y MAQUINARIA",
      "mainEntityOfPage": "https://www.contratacion.euskadi.eus/webkpe00-kperoc/es/ac71aBusquedaRegistrosWar/empresa/05351",
      "_links": {
        "self": {
          "name": "AUTO REPARACIONES GAMARRA S.L.",
          "href": "https://api.euskadi.eus/procurements/companies/05351"
        }
      }
    },
    {
      "name": "COOPERATIVA INDUSTRIAL CARROCERA ALAVESA",
      "registrationNumber": "05353",
      "identificationNumber": "F01006535",
      "address": "MIRAVALLES 12-14 POL. IND. BETOÑO",
      "location": {
        "postalCode": "01013",
        "municipality": "Vitoria-Gasteiz",
        "county": "Araba/Álava",
        "municipalityId": "059",
        "countyId": "01"
      },
      "object": "REPARACION VEHICULOS",
      "mainEntityOfPage": "https://www.contratacion.euskadi.eus/webkpe00-kperoc/es/ac71aBusquedaRegistrosWar/empresa/05353",
      "_links": {
        "self": {
          "name": "COOPERATIVA INDUSTRIAL CARROCERA ALAVESA",
          "href": "https://api.euskadi.eus/procurements/companies/05353"
        }
      }
    },
    {
      "name": "AGAL MOTOR COMERCIAL S.L.",
      "registrationNumber": "05357",
      "identificationNumber": "B95042123",
      "address": "JOSE VARA 7",
      "location": {
        "postalCode": "48903",
        "municipality": "Barakaldo",
        "county": "Bizkaia",
        "municipalityId": "013",
        "countyId": "48"
      },
      "object": "venta y reparacion vehiculos",
      "mainEntityOfPage": "https://www.contratacion.euskadi.eus/webkpe00-kperoc/es/ac71aBusquedaRegistrosWar/empresa/05357",
      "_links": {
        "self": {
          "name": "AGAL MOTOR COMERCIAL S.L.",
          "href": "https://api.euskadi.eus/procurements/companies/05357"
        }
      }
    },
    {
      "name": "VIP AGUINAGA S.L.",
      "registrationNumber": "05359",
      "identificationNumber": "B48951792",
      "address": "PARQUE EMPRESARIAL BOROA, PARCELA 2A-3",
      "location": {
        "postalCode": "48340",
        "municipality": "Amorebieta-Etxano",
        "county": "Bizkaia",
        "municipalityId": "003",
        "countyId": "48"
      },
      "classification": [
        {
          "id": "S",
          "name": "Servicios",
          "groups": [
            {
              "id": "Q",
              "subgroups": [
                {
                  "id": "02",
                  "name": "Mantenimiento y reparación de vehículos",
                  "categories": [
                    {
                      "id": "3",
                      "name": "Desde 300.001 Hasta 600.000",
                      "_links": {
                        "self": {
                          "name": "Desde 300.001 Hasta 600.000",
                          "href": "https://api.euskadi.eus/procurements/companies/types/S/categories/3"
                        }
                      }
                    }
                  ],
                  "_links": {
                    "self": {
                      "name": "Mantenimiento y reparación de vehículos",
                      "href": "https://api.euskadi.eus/procurements/companies/types/S/groups/Q/subgroups/02"
                    }
                  }
                }
              ],
              "_links": {
                "self": {
                  "href": "https://api.euskadi.eus/procurements/companies/types/S/groups/Q"
                }
              }
            }
          ],
          "_links": {
            "self": {
              "name": "Servicios",
              "href": "https://api.euskadi.eus/procurements/companies/types/S"
            }
          }
        }
      ],
      "object": "venta y reparacion de vehiculos",
      "mainEntityOfPage": "https://www.contratacion.euskadi.eus/webkpe00-kperoc/es/ac71aBusquedaRegistrosWar/empresa/05359",
      "_links": {
        "self": {
          "name": "VIP AGUINAGA S.L.",
          "href": "https://api.euskadi.eus/procurements/companies/05359"
        }
      }
    }
  ]
}