{
  "totalItems": 9042,
  "totalPages": 905,
  "currentPage": 699,
  "itemsOfPage": 10,
  "items": [
    {
      "name": "VADILLO ASESORES CORREDURIA DE SEGUROS, S.L.",
      "registrationNumber": "02792",
      "identificationNumber": "B01057447",
      "address": "AVDA. GASTEIZ, Nº 82-BAJO",
      "location": {
        "postalCode": "01012",
        "municipality": "Vitoria-Gasteiz",
        "county": "Araba/Álava",
        "municipalityId": "059",
        "countyId": "01"
      },
      "economicActivities": [
        {
          "id": "1.832.1",
          "name": "Agencias de seguros y corredurías de seguros",
          "_links": {
            "self": {
              "name": "Agencias de seguros y corredurías de seguros",
              "href": "https://api.euskadi.eus/procurements/companies/economic-activities/1.832.1"
            }
          }
        }
      ],
      "certificateStartDate": "2012-04-25",
      "certificateEndDate": "2012-10-10",
      "object": "LA  REALIZACIÓN DE ACTIVIDADES DE CORREDURÍA DE SEGUROS, CON EXPRESO SOMETIMIENTO  A LA LEGISLACIÓN ESPECÍFICA DE MEDIACIÓN DE SEGUROS PRIVADOS, DE CONFORMIDAD CON LO PREVISTO EN EL ARTÍCULO 15.3 a) DE LA LEY 9/92, DE 30 DE ABRIL, DE MEDIACIÓN DE SEGUROS PRIVADOS\r\n  ",
      "mainEntityOfPage": "https://www.contratacion.euskadi.eus/webkpe00-kperoc/es/ac71aBusquedaRegistrosWar/empresa/02792",
      "_links": {
        "self": {
          "name": "VADILLO ASESORES CORREDURIA DE SEGUROS, S.L.",
          "href": "https://api.euskadi.eus/procurements/companies/02792"
        }
      }
    },
    {
      "name": "GURBISA SERVICIOS AUXILIARES, S.L.",
      "registrationNumber": "03854",
      "identificationNumber": "B95379681",
      "address": "IPARAGUIRRE 64, ENTREPLANTA D",
      "location": {
        "postalCode": "48012",
        "municipality": "Bilbao",
        "county": "Bizkaia",
        "municipalityId": "020",
        "countyId": "48"
      },
      "economicActivities": [
        {
          "id": "1.501.2",
          "name": "Construcción completa, reparación y conservación obras civiles",
          "_links": {
            "self": {
              "name": "Construcción completa, reparación y conservación obras civiles",
              "href": "https://api.euskadi.eus/procurements/companies/economic-activities/1.501.2"
            }
          }
        },
        {
          "id": "1.849.4",
          "name": "Servicios de custodia, seguridad y protección",
          "_links": {
            "self": {
              "name": "Servicios de custodia, seguridad y protección",
              "href": "https://api.euskadi.eus/procurements/companies/economic-activities/1.849.4"
            }
          }
        },
        {
          "id": "1.849.9",
          "name": "Otros servicios independientes n.c.o.p",
          "_links": {
            "self": {
              "name": "Otros servicios independientes n.c.o.p",
              "href": "https://api.euskadi.eus/procurements/companies/economic-activities/1.849.9"
            }
          }
        },
        {
          "id": "1.922.1",
          "name": "Servicios de limpieza de interiores",
          "_links": {
            "self": {
              "name": "Servicios de limpieza de interiores",
              "href": "https://api.euskadi.eus/procurements/companies/economic-activities/1.922.1"
            }
          }
        }
      ],
      "certificateStartDate": "2012-04-25",
      "certificateEndDate": "2012-08-28",
      "object": "LA PRESTACIÓN DE SERVICIOS DE LIMPIEZA, PORTERÍA Y JARDINERÍA, ASÍ COMO EL MANTENIMIENTO DE EDIFICIOS, DE LOCALES COMERCIALES E INDUSTRIALES Y DE SUS INSTALACIONES ESTÉN YA OCNSTRUÍDOS COMO EN CONSTRUCCIÓN, Y AQUELLAS ACCESORIAS Y AUXILIARES DE LAS CITADAS",
      "mainEntityOfPage": "https://www.contratacion.euskadi.eus/webkpe00-kperoc/es/ac71aBusquedaRegistrosWar/empresa/03854",
      "_links": {
        "self": {
          "name": "GURBISA SERVICIOS AUXILIARES, S.L.",
          "href": "https://api.euskadi.eus/procurements/companies/03854"
        }
      }
    },
    {
      "name": "ITURRALDE Y SAGÜES, S.L.",
      "registrationNumber": "04801",
      "identificationNumber": "B31526387",
      "address": "Avda. Sancho el Fuerte, 49 bajo",
      "location": {
        "postalCode": "31007",
        "municipality": "Pamplona/Iruña",
        "county": "Navarra",
        "municipalityId": "201",
        "countyId": "31"
      },
      "economicActivities": [
        {
          "id": "1.843.1",
          "name": "Servicios técnicos de ingeniería",
          "_links": {
            "self": {
              "name": "Servicios técnicos de ingeniería",
              "href": "https://api.euskadi.eus/procurements/companies/economic-activities/1.843.1"
            }
          }
        }
      ],
      "certificateStartDate": "2012-04-25",
      "certificateEndDate": "2012-08-17",
      "object": "PRESTAR TODA CLASE DE SERVICIOS DE ASESORAMIENTO, ASÍ COMO DE GESTIÓN, PROMOCIÓN E INTERMEDIACIÓN EN LA REALIZACIÓN DE PROYECTOS Y DIRECCIONES TÉCNICAS Y ECONÓMICAS DE TODO TIPO DE OBRAS E INSTALACIONES DE LA INGENERÍA Y/O ARQUITECTURA; LA CONSTRUCCIÓN Y/O COORDINACIÓN DE CUALQUIER TIPO DE OBRAS O INSTALACIONES; LA COMPRA, VENTA Y/O ALQUILER DE INMUEBLES Y SOLARES; LA GESTIÓN Y PROMOCIÓN INMOBILIARIA; EL MANTENIMIENTO DE CUALQUIER TIPO DE EDIFICACIÓN O INDUSTRIA; LOS ESTUDIOS DE ORGANIZACIÓN, VIABILIDAD ECONÓMICA O CUALQUIER OTRO TIPO DE ANÁLISIS O DE ASESORAMIENTO SIMILAR; EL ESTUDIO, ANÁLISIS Y VENTA DE TODO LO RELACIONADO CON LA INFORMÁTICA; LA REALIZACIÓN DE TRABAJOS DE TOPOGRAFÍA, MECANOGRAFÍA Y REPROGRAFÍA; LAS REPRESENTACIONES COMERCIALES O TÉCNICAS DE CURSOS DE FORMACIÓN Y ENSEÑANZA; LA PROMOCIÓN, DESARROLLO, CONSTRUCCIÓN Y VENTA DE CUALQUIER TIPO DE NOVEDAD TÉCNICA Y/O COMERCIAL; LA ACTIVIDAD RELACIONADA CON EL REGISTRO DE LA PROPIEDAD INDUSTRIAL O INTELECTUAL; LA ORGANIZACIÓN DE FERIAS, CONGRESOS, EXPOSICIONES O SIMILARES; EL DISEÑO Y FABRICACIÓN DE MAQUETAS Y/O JUEGOS",
      "mainEntityOfPage": "https://www.contratacion.euskadi.eus/webkpe00-kperoc/es/ac71aBusquedaRegistrosWar/empresa/04801",
      "_links": {
        "self": {
          "name": "ITURRALDE Y SAGÜES, S.L.",
          "href": "https://api.euskadi.eus/procurements/companies/04801"
        }
      }
    },
    {
      "name": "EYPAR, S.A.",
      "registrationNumber": "04735",
      "identificationNumber": "A59441253",
      "address": "CTRA. Nº 547, KM. 44",
      "location": {
        "postalCode": "15800",
        "municipality": "Melide",
        "county": "Coruña, A",
        "municipalityId": "046",
        "countyId": "15"
      },
      "economicActivities": [
        {
          "id": "1.316.6",
          "name": "Fabricación de mobiliario metálico",
          "_links": {
            "self": {
              "name": "Fabricación de mobiliario metálico",
              "href": "https://api.euskadi.eus/procurements/companies/economic-activities/1.316.6"
            }
          }
        }
      ],
      "certificateStartDate": "2012-04-24",
      "certificateEndDate": "2012-10-12",
      "object": "LA FABRICACIÓN Y COMERCIALIZACIÓN DE MOBILIARIO DE OFICINA EN GENERAL, ASI COMO LA REPRESENTACIÓN DE LOS MISMOS PRODUCTOS REALIZADOS POR OTROS INDUSTRIALES NACIONALES O EXTRANJEROS",
      "mainEntityOfPage": "https://www.contratacion.euskadi.eus/webkpe00-kperoc/es/ac71aBusquedaRegistrosWar/empresa/04735",
      "_links": {
        "self": {
          "name": "EYPAR, S.A.",
          "href": "https://api.euskadi.eus/procurements/companies/04735"
        }
      }
    },
    {
      "name": "DATACLOUD NORTE, S.L.",
      "registrationNumber": "04797",
      "identificationNumber": "B95662649",
      "address": "PS LANDABARRI BIDEA Nº 2-BJ",
      "location": {
        "postalCode": "48940",
        "municipality": "Leioa",
        "county": "Bizkaia",
        "municipalityId": "054",
        "countyId": "48"
      },
      "economicActivities": [
        {
          "id": "1.849.9",
          "name": "Otros servicios independientes n.c.o.p",
          "_links": {
            "self": {
              "name": "Otros servicios independientes n.c.o.p",
              "href": "https://api.euskadi.eus/procurements/companies/economic-activities/1.849.9"
            }
          }
        }
      ],
      "certificateStartDate": "2012-04-16",
      "certificateEndDate": "2012-08-24",
      "object": "EL DISEÑO, PRODUCCIÓN E IMPLANTACIÓN DE SOFTWARE Y SISTEMAS INFORMÁTICOS, FIRMA DIGITAL, SEGURIDAD INFORMÁTICA. LA INSTALACIÓN Y MANTENIMIENTO DE EQUIPOS INFORMÁTICOS. ALMACENAMIENTO Y CUSTODIA DE INFORMACIÓN RELATIVA A SERVIDORES INFORMÁTICOS. GESTIÓN DOCUMENTAL. EL DESARROLLO Y DISTRIBUCIÓN DE SOFTWARE, SISTEMAS Y DISPOSITIVOS ELECTRÓNICOS. LA REALIZACIÓN DE PROYECTOS, INSTALACIONES Y MONTAJES TÉCNICOS DE TELEFONÍA, COMUNICACIONES, IMAGEN, SONIDO, LUMINOTECNIA, CONSULTORÍA INFORMÁTICA Y ELECTRÓNICA. LA GESTIÓN DE RECURSOS HUMANOS. LA FORMACIÓN EN TEMAS TÉCNICOS MONOGRÁFICOS",
      "mainEntityOfPage": "https://www.contratacion.euskadi.eus/webkpe00-kperoc/es/ac71aBusquedaRegistrosWar/empresa/04797",
      "_links": {
        "self": {
          "name": "DATACLOUD NORTE, S.L.",
          "href": "https://api.euskadi.eus/procurements/companies/04797"
        }
      }
    },
    {
      "name": "3 SEGMENTOS, S.L.",
      "registrationNumber": "04696",
      "identificationNumber": "B20895371",
      "address": "Avda. de Zarauz, 53-55, bajo",
      "location": {
        "postalCode": "20018",
        "municipality": "Donostia / San Sebastián",
        "county": "Gipuzkoa",
        "municipalityId": "069",
        "countyId": "20"
      },
      "economicActivities": [
        {
          "id": "1.505.5",
          "name": "Carpintería y cerrajería",
          "_links": {
            "self": {
              "name": "Carpintería y cerrajería",
              "href": "https://api.euskadi.eus/procurements/companies/economic-activities/1.505.5"
            }
          }
        },
        {
          "id": "1.659.2",
          "name": "Venta al por menor de muebles de oficina y máquinas y equipos de oficina",
          "_links": {
            "self": {
              "name": "Venta al por menor de muebles de oficina y máquinas y equipos de oficina",
              "href": "https://api.euskadi.eus/procurements/companies/economic-activities/1.659.2"
            }
          }
        }
      ],
      "certificateStartDate": "2012-04-12",
      "certificateEndDate": "2012-09-08",
      "object": "LA COMERCIALIZACIÓN AL POR MAYOR Y AL POR MENOR DE MATERIALES PARA INSTALACIÓN INTEGRAL DE EMPRESAS",
      "mainEntityOfPage": "https://www.contratacion.euskadi.eus/webkpe00-kperoc/es/ac71aBusquedaRegistrosWar/empresa/04696",
      "_links": {
        "self": {
          "name": "3 SEGMENTOS, S.L.",
          "href": "https://api.euskadi.eus/procurements/companies/04696"
        }
      }
    },
    {
      "name": "AERO-FERR GUIPUZCOA DISTRIBUCIONES, S.L.",
      "registrationNumber": "04675",
      "identificationNumber": "B20766861",
      "address": "AVDA. REKALDE, 1",
      "location": {
        "postalCode": "20018",
        "municipality": "Donostia / San Sebastián",
        "county": "Gipuzkoa",
        "municipalityId": "069",
        "countyId": "20"
      },
      "economicActivities": [
        {
          "id": "1.849.5",
          "name": "Servicios de recadería y reparto y manipulación de correspondencia",
          "_links": {
            "self": {
              "name": "Servicios de recadería y reparto y manipulación de correspondencia",
              "href": "https://api.euskadi.eus/procurements/companies/economic-activities/1.849.5"
            }
          }
        }
      ],
      "certificateStartDate": "2012-04-11",
      "certificateEndDate": "2012-08-28",
      "object": "LA AGENCIA DE TRANSPORTE, RECADEROS, TRANSPORTISTAS, DISTRIBUIDORES Y ALMACENISTAS",
      "mainEntityOfPage": "https://www.contratacion.euskadi.eus/webkpe00-kperoc/es/ac71aBusquedaRegistrosWar/empresa/04675",
      "_links": {
        "self": {
          "name": "AERO-FERR GUIPUZCOA DISTRIBUCIONES, S.L.",
          "href": "https://api.euskadi.eus/procurements/companies/04675"
        }
      }
    },
    {
      "name": "SERUS GESTION INTEGRAL",
      "registrationNumber": "04453",
      "identificationNumber": "B95551008",
      "address": "ELCANO Nº14 ENTREPLANTA",
      "location": {
        "postalCode": "48008",
        "municipality": "Bilbao",
        "county": "Bizkaia",
        "municipalityId": "020",
        "countyId": "48"
      },
      "economicActivities": [
        {
          "id": "1.843.4",
          "name": "Servicios técnicos de topografía",
          "_links": {
            "self": {
              "name": "Servicios técnicos de topografía",
              "href": "https://api.euskadi.eus/procurements/companies/economic-activities/1.843.4"
            }
          }
        }
      ],
      "certificateStartDate": "2012-04-04",
      "certificateEndDate": "2012-09-20",
      "object": "LA REALIZACIÓN DE TRABAJOS DE OFICINA DESTINADOS A LA GESTIÓN CATASTRAL. CONFECCIÓN Y ACTUALIZACIÓN DE INVENTARIOS Y VALORACIONES DE BIENES INMUEBLES RÚSTICOS Y URBANOS, REALIZANDO PARA ELLO TODAS LAS GESTIONES NECESARIAS. REALIZACIÓN DE SERVICIOS DE TOPOGRAFÍA Y CARTOGRAFÍA",
      "mainEntityOfPage": "https://www.contratacion.euskadi.eus/webkpe00-kperoc/es/ac71aBusquedaRegistrosWar/empresa/04453",
      "_links": {
        "self": {
          "name": "SERUS GESTION INTEGRAL",
          "href": "https://api.euskadi.eus/procurements/companies/04453"
        }
      }
    },
    {
      "name": "GAURSA AUTOAK, S.A.U.",
      "registrationNumber": "03135",
      "identificationNumber": "A48855274",
      "address": "Bº ARRIAUNDI, 12 ",
      "location": {
        "postalCode": "48215",
        "municipality": "Iurreta",
        "county": "Bizkaia",
        "municipalityId": "910",
        "countyId": "48"
      },
      "economicActivities": [
        {
          "id": "1.615.1",
          "name": "Venta al por mayor de vehículos, motocicletas, bicicletas y sus accesorios",
          "_links": {
            "self": {
              "name": "Venta al por mayor de vehículos, motocicletas, bicicletas y sus accesorios",
              "href": "https://api.euskadi.eus/procurements/companies/economic-activities/1.615.1"
            }
          }
        },
        {
          "id": "1.691.2",
          "name": "Reparación de vehículos automóviles, bicicletas y otros vehículos",
          "_links": {
            "self": {
              "name": "Reparación de vehículos automóviles, bicicletas y otros vehículos",
              "href": "https://api.euskadi.eus/procurements/companies/economic-activities/1.691.2"
            }
          }
        },
        {
          "id": "1.722",
          "name": "Transporte de mercancías por carretera",
          "_links": {
            "self": {
              "name": "Transporte de mercancías por carretera",
              "href": "https://api.euskadi.eus/procurements/companies/economic-activities/1.722"
            }
          }
        }
      ],
      "certificateStartDate": "2012-03-27",
      "certificateEndDate": "2012-07-19",
      "object": "LA EXPLOTACIÓN DE UN NEGOCIO DE VENTA DE TODA CLASE DE VEHÍCULOS NUEVOS Y USADOS, DE ACEITES Y LUBRICANTES, NEUMÁTICOS, PIEZAS DE RECAMBIO, ACCESORIOS, ARTÍCULOS RELACIONADOS CON LOS VEHÍCULOS, PRODUCTOS DE BOUTIQUE Y PRODUCTOS INDUSTRIALES PARA PROFESIONALES DE LA AUTOMOCIÓN, LA REPARACIÓN Y MANTENIMIENTO INTEGRAL DE TODA CLASE DE VEHÍCULOS, INCLUYENDO SU LIMPIEZA Y REACONDICIONAMIENTO, LA TRANSFORMACIÓN DE VEHÍCULOS, EL TRANSPORTE DE MERCANCÍAS Y VEHÍCULOS PROPIOS Y AJENOS, LA PRESTACIÓN DE SERVICIOS DE GESTIÓN, ADMINISTRACIÓN E INFORMÁTICOS A OTRAS EMPRESAS, EL ALQUILER DE TODA CLASE DE VEHÍCULOS EN TODAS SUS MODALIDADES Y LA VENTA Y ALQUILER DE INMUEBLES, MAQUINARIA, UTILLAJE Y HERRAMIENTO Y LA REALIZACIÓN POR CUENTA PROPIA O AJENA DE ACTIVIDADES DE AGENCIA DE SEGUROS, SOMETIDAS A LA LEGISLACIÓN  ESPECÍFICA DE MEDIACIÓN DE SEGUROS PRIVADOS",
      "mainEntityOfPage": "https://www.contratacion.euskadi.eus/webkpe00-kperoc/es/ac71aBusquedaRegistrosWar/empresa/03135",
      "_links": {
        "self": {
          "name": "GAURSA AUTOAK, S.A.U.",
          "href": "https://api.euskadi.eus/procurements/companies/03135"
        }
      }
    },
    {
      "name": "INGETEK SISTEMAS, S.A.",
      "registrationNumber": "02427",
      "identificationNumber": "A48837959",
      "address": "C/RIBERA DE DEUSTO, 70",
      "location": {
        "postalCode": "48014",
        "municipality": "Bilbao",
        "county": "Bizkaia",
        "municipalityId": "020",
        "countyId": "48"
      },
      "economicActivities": [
        {
          "id": "1.353",
          "name": "Fabricación de aparatos y equipo electrónico de señalización, control",
          "_links": {
            "self": {
              "name": "Fabricación de aparatos y equipo electrónico de señalización, control",
              "href": "https://api.euskadi.eus/procurements/companies/economic-activities/1.353"
            }
          }
        }
      ],
      "certificateStartDate": "2012-03-26",
      "certificateEndDate": "2012-08-22",
      "object": "A) LA FABRICACIÓN, SUMINISTRO, DISEÑO, REPRESENTACIÓN, COMERCIALIZACIÓN E INSTALACIÓN DE EQUIPOS Y SISTEMAS DE REGULACIÓN Y CONTROL DE PROCESOS TANTO INDUSTRIALES COMO EN EDIFICACIÓN Y DE LOS PERTINENTES COMPONENTES, SISTEMAS DE SEGURIDAD, SISTEMAS DE INCENDIOS, CIRCUITO CERRADO DE TELEVISIÓN, CONTROL DE ACCESOS Y SISTEMAS DE MEGAFONÍA E INTERFONÍA; B) IMPORTACIÓN Y EXPORTACIÓN DE PRODUCTOS INDUSTRIALES; ASI COMO LA ADQUISICIÓN, EXPLOTACIÓN Y ENAJENACIÓN DE BIENES INMUEBLES",
      "mainEntityOfPage": "https://www.contratacion.euskadi.eus/webkpe00-kperoc/es/ac71aBusquedaRegistrosWar/empresa/02427",
      "_links": {
        "self": {
          "name": "INGETEK SISTEMAS, S.A.",
          "href": "https://api.euskadi.eus/procurements/companies/02427"
        }
      }
    }
  ]
}