{
  "totalItems": 9042,
  "totalPages": 905,
  "currentPage": 91,
  "itemsOfPage": 10,
  "items": [
    {
      "name": "PKF ATTEST LEGAL Y FISCAL, S.L.",
      "registrationNumber": "07943",
      "identificationNumber": "B95256541",
      "address": "c/ Alameda Recalde 36 - 8º",
      "location": {
        "postalCode": "48009",
        "municipality": "Bilbao",
        "county": "Bizkaia",
        "municipalityId": "020",
        "countyId": "48"
      },
      "economicActivities": [
        {
          "id": "1.841",
          "name": "Servicios jurídicos",
          "_links": {
            "self": {
              "name": "Servicios jurídicos",
              "href": "https://api.euskadi.eus/procurements/companies/economic-activities/1.841"
            }
          }
        }
      ],
      "certificateStartDate": "2026-01-12",
      "certificateEndDate": "2026-06-11",
      "object": "LA PRESTACIÓN DE TODA CLASE DE SERVICIOS Y ASESORAMIENTO A EMPRESAS O PERSONAS FÍSICAS, CONTABLES, FISCALES, JURÍDICAS, DE ADMINISTRACIÓN Y GESTIÓN EN SUS MÁS AMPLIOS TÉRMINOS. LA PRESTACIÓN DE SERVICIOS DE ASESORAMIENTO Y ASISTENCIA EN PROCEDIMIENTOS CONCURSALES EN TODAS LAS FASES DEL MISMO, OCUPANDO, EN SU CASO, EL CARGO DE ADMINISTRADOR CONCURSAL.",
      "mainEntityOfPage": "https://www.contratacion.euskadi.eus/webkpe00-kperoc/es/ac71aBusquedaRegistrosWar/empresa/07943",
      "_links": {
        "self": {
          "name": "PKF ATTEST LEGAL Y FISCAL, S.L.",
          "href": "https://api.euskadi.eus/procurements/companies/07943"
        }
      }
    },
    {
      "name": "SUQUISA, S.L.U",
      "registrationNumber": "03303",
      "identificationNumber": "B48242002",
      "address": "POLIGONO UGALDEGUREN II. PARCELA 15. NAVES 10-11",
      "location": {
        "postalCode": "48170",
        "municipality": "Zamudio",
        "county": "Bizkaia",
        "municipalityId": "905",
        "countyId": "48"
      },
      "economicActivities": [
        {
          "id": "1.614.2",
          "name": "Venta al por mayor de productos de perfumería, droguería, higiene y belleza",
          "_links": {
            "self": {
              "name": "Venta al por mayor de productos de perfumería, droguería, higiene y belleza",
              "href": "https://api.euskadi.eus/procurements/companies/economic-activities/1.614.2"
            }
          }
        }
      ],
      "certificateStartDate": "2026-01-12",
      "certificateEndDate": "2026-06-20",
      "object": "LA ELABORACIÓN, DISTRIBUCIÓN Y COMERCIALIZACIÓN DE TODA CLASE DE ARTÍCULOS DE LIMPIEZA E HIGIENE",
      "mainEntityOfPage": "https://www.contratacion.euskadi.eus/webkpe00-kperoc/es/ac71aBusquedaRegistrosWar/empresa/03303",
      "_links": {
        "self": {
          "name": "SUQUISA, S.L.U",
          "href": "https://api.euskadi.eus/procurements/companies/03303"
        }
      }
    },
    {
      "name": "QUAVITAE SERVICIOS ASISTENCIALES, S.A.",
      "registrationNumber": "07725",
      "identificationNumber": "A80106842",
      "address": "AVDA GENERAL PERON 36, 4A",
      "location": {
        "postalCode": "28020",
        "municipality": "Madrid",
        "county": "Madrid",
        "municipalityId": "079",
        "countyId": "28"
      },
      "economicActivities": [
        {
          "id": "1.951",
          "name": "Asistencia y servicios sociales en centros residenciales",
          "_links": {
            "self": {
              "name": "Asistencia y servicios sociales en centros residenciales",
              "href": "https://api.euskadi.eus/procurements/companies/economic-activities/1.951"
            }
          }
        },
        {
          "id": "1.952",
          "name": "Asistencia y servicios sociales en centros no residenciales",
          "_links": {
            "self": {
              "name": "Asistencia y servicios sociales en centros no residenciales",
              "href": "https://api.euskadi.eus/procurements/companies/economic-activities/1.952"
            }
          }
        }
      ],
      "certificateStartDate": "2026-01-12",
      "certificateEndDate": "2026-06-08",
      "object": "GESTIÓN Y PRESTACIÓN DIRECTA E INDIRECTA DE TODO TIPO DE SERVICIOS ASISTENCIALES, SOCIALES, SANITARIOS Y OTROS DE NATURALEZA ANÁLOGA O COMPLEMENTARIA DIRIGIDOS A LA TERCERA EDAD, LA INFANCIA Y PERSONAS CON DISCAPACIDAD Y/O DEPENDENCIA, INCLUYENDO ASESORAMIENTO Y GESTIÓN DE TRÁMITES A REALIZAR ANTE ORGANISMOS PÚBLICOS Y PRIVADOS QUE PUDIERAN REQUERIR. FORMACIÓN TÉCNICA DE LOS RECURSOS HUMANOS NECESARIOS PARA LA PRESTACIÓN DE LOS REFERIDOS SERVICIOS. GESTIÓN Y PRESTACIÓN DIRECTA E INDIRECTA DE TODO TIPO SERVICIOS ASISTENCIALES, SOCIALES, SANITARIOS, EDUCATIVOS, DE OCIO Y OTROS DE NATURALEZA ANÁLOGA O COMPLEMENTARIA, EN EL DOMICILIO: ATENCIÓN DOMICILIARIA, COMIDAS, LAVANDERÍA, LIMPIEZA. GESTIÓN Y ATENCIÓN DE CENTRALITAS TELEFÓNICAS Y RECEPCIÓN DE LLAMADAS. TODAS AQUELLAS ACTIVIDADES RELACIONADAS CON LA INFORMACIÓN, FORMACIÓN, INVESTIGACIÓN Y ASESORAMIENTO. CREACIÓN, PUESTA EN MARCHA Y DESARROLLO DE TODAS AQUELLAS PRESTACIONES, TANTO EN EL CAMPO SANITARIO, COMO SOCIAL, TURÍSTICO, RECREATIVO Y DE OCIO, QUE TENGA COMO OBJETO AUMENTAR EL BIENESTAR, LA PROTECCIÓN, LA SEGURIDAD Y LA CALIDAD DE VIDA DE LAS PERSONAS. COMPRAR, VENDER, CONSTRUIR, PROMOVER O PARTICIPAR EN LA PROMOCIÓN, ASÍ COMO EXPLOTAR, POR CUALQUIER TÍTULO, BIENES INMUEBLES. PRESTACIÓN DE SERVICIOS AUXILIARES PARA TRABAJOS ADMINISTRATIVOS DE ARCHIVO Y SIMILARES, TALES COMO LOS TRABAJOS ADMINISTRATIVOS DE DISTRIBUCIÓN Y ARCHIVO DE PUBLICACIONES Y OTROS DOCUMENTOS, ASÍ COMO REALIZACIONES DE FOTOCOPIAS, COPIAS DE PLANOS Y FRANQUEO DE CORRESPONDENCIA",
      "mainEntityOfPage": "https://www.contratacion.euskadi.eus/webkpe00-kperoc/es/ac71aBusquedaRegistrosWar/empresa/07725",
      "_links": {
        "self": {
          "name": "QUAVITAE SERVICIOS ASISTENCIALES, S.A.",
          "href": "https://api.euskadi.eus/procurements/companies/07725"
        }
      }
    },
    {
      "name": "CARPAS IBARRA S.L.",
      "registrationNumber": "06200",
      "identificationNumber": "B95099388",
      "address": "olako bidea nº 6",
      "location": {
        "postalCode": "48150",
        "municipality": "Sondika",
        "county": "Bizkaia",
        "municipalityId": "904",
        "countyId": "48"
      },
      "economicActivities": [
        {
          "id": "1.859",
          "name": "Alquiler de otros bienes muebles n.c.o.p. (sin personal permanente)",
          "_links": {
            "self": {
              "name": "Alquiler de otros bienes muebles n.c.o.p. (sin personal permanente)",
              "href": "https://api.euskadi.eus/procurements/companies/economic-activities/1.859"
            }
          }
        }
      ],
      "certificateStartDate": "2026-01-12",
      "certificateEndDate": "2026-06-22",
      "object": "EL ALQUILER, MONTAJE Y TRANSPORTE DE CARPAS Y SANITARIOS",
      "mainEntityOfPage": "https://www.contratacion.euskadi.eus/webkpe00-kperoc/es/ac71aBusquedaRegistrosWar/empresa/06200",
      "_links": {
        "self": {
          "name": "CARPAS IBARRA S.L.",
          "href": "https://api.euskadi.eus/procurements/companies/06200"
        }
      }
    },
    {
      "name": "INGURULAN, S.L.",
      "registrationNumber": "07949",
      "identificationNumber": "B75196055",
      "address": "IRIGOIEN 29",
      "location": {
        "postalCode": "20160",
        "municipality": "Donostia / San Sebastián",
        "county": "Gipuzkoa",
        "municipalityId": "069",
        "countyId": "20"
      },
      "economicActivities": [
        {
          "id": "1.843.9",
          "name": "Otros servicios técnicos n.c.o.p",
          "_links": {
            "self": {
              "name": "Otros servicios técnicos n.c.o.p",
              "href": "https://api.euskadi.eus/procurements/companies/economic-activities/1.843.9"
            }
          }
        }
      ],
      "certificateStartDate": "2026-01-12",
      "certificateEndDate": "2026-06-21",
      "object": "- SERVICIOS DE ASISTENCIA TÉCNICA, INDUSTRIAL, ENERGÍA, ASÍ COMO LA INSPECCIÓN, SUPERVISIÓN Y CONTROL TÉCNICOS. - COMPRAVENTA Y ALQUILER DE INMUEBLES. - TRABAJOS DE ALBAÑILERÍA Y RELACIONADOS CON LA CONSTRUCCIÓN. - CONSTRUCCIÓN DE INMUEBLES Y PROMOCIÓN INMOBILIARIA. - REPARACIÓN Y CONSERVACIÓN DE MAQUINARIA, APARATOS ELÉCTRICOS Y ELECTRÓNICOS. - RECOGIDA Y TRATAMIENTO DE MATERIALES USADOS, RESIDUOS Y ENSERES DE USO DOMÉSTICO E INDUSTRIAL PARA SU RECICLADO Y OBTENCIÓN, DISTRIBUCIÓN Y COMERCIALIZACIÓN DE ENERGÍAS.",
      "mainEntityOfPage": "https://www.contratacion.euskadi.eus/webkpe00-kperoc/es/ac71aBusquedaRegistrosWar/empresa/07949",
      "_links": {
        "self": {
          "name": "INGURULAN, S.L.",
          "href": "https://api.euskadi.eus/procurements/companies/07949"
        }
      }
    },
    {
      "name": "AMENTIA SOLUCIONES, S.L.",
      "registrationNumber": "07040",
      "identificationNumber": "B85218246",
      "address": "Calle los Llanos, 7",
      "location": {
        "postalCode": "28470",
        "municipality": "Cercedilla",
        "county": "Madrid",
        "municipalityId": "038",
        "countyId": "28"
      },
      "economicActivities": [
        {
          "id": "1.755",
          "name": "Agencias de viajes",
          "_links": {
            "self": {
              "name": "Agencias de viajes",
              "href": "https://api.euskadi.eus/procurements/companies/economic-activities/1.755"
            }
          }
        },
        {
          "id": "1.967.2",
          "name": "Escuelas y servicios de perfeccionamiento del deporte",
          "_links": {
            "self": {
              "name": "Escuelas y servicios de perfeccionamiento del deporte",
              "href": "https://api.euskadi.eus/procurements/companies/economic-activities/1.967.2"
            }
          }
        },
        {
          "id": "1.999",
          "name": "Otros servicios n.c.o.p",
          "_links": {
            "self": {
              "name": "Otros servicios n.c.o.p",
              "href": "https://api.euskadi.eus/procurements/companies/economic-activities/1.999"
            }
          }
        }
      ],
      "certificateStartDate": "2026-01-12",
      "certificateEndDate": "2026-06-21",
      "object": "1.- LA FORMACIÓN DE CONDUCTORES, LA ELABORACIÓN Y DIFUSIÓN DE CONTENIDOS DE SEGURIDAD VIAL Y AUTOMÓVIL. 2.- LOS SERVICIOS DE COMUNICACIÓN Y RELACIONES PÚBLICAS. 3.,- EL DISEÑO Y ELABORACIÓN DE CONTENIDOS EN FORMATO DIGITAL. 4.- LA COMPRA, VENTA, PROMOCIÓN Y ALQUILER DE TERRENOS, VIVIENDAS, LOCALES Y NAVES COMERCIALES. 5.- LA ORGANIZACIÓN Y GUIADO DE ACTIVIDADES DE TURISMO DE NATURALEZA. 6.- EDUCACIÓN DEPORTIVA, RECREATIVA Y CULTURAL. 7.- ACTIVIDADES AUXILIARES A LA EDUCACIÓN. 8.- ACTIVIDADES DE LOS JARDINES BOTÁNICOS, PARQUES ZOOLÓGICOS Y RESERVAS NATURALES. 9.- GESTIÓN DE INSTALACIONES DEPORTIVAS. 10.- OTRAS ACTIVIDADES RECREATIVAS Y DE ENTRETENIMIENTO. 11.- ACTIVIDADES DE MANNTENIMIENTO FÍSICO. 12.- COMPRA, VENTA Y ALQUILER DE ARTÍCULOS DE OCIO Y DEPORTIVOS. 13.- ACTIVIDADES DE LAS AGENCIAS DE VIAJES. 14.- EDICIÓN DE PUBLICACIONES NO PERIÓDICAS. 15.- EL ALQUILER DE VEHÍCULOS-AUTOMÓVILES, CON Y SIN CONDUCTOR, LA COMPRA-VENTA, ENTRETENIMIENTO Y REPARACIÓN DE LOS MISMOS Y DE SUS ELEMENTOS ACCESORIOS. 16.- LOS SERVICIOS DE MASAJE MANUAL, TRATAMIENTOS DE ESTÉTICA Y SPA, ASÍ COMO LA COMERCIALIZACIÓN DE PRODUCTOS RELACIONADOS CON TALES SERVICIOS ",
      "mainEntityOfPage": "https://www.contratacion.euskadi.eus/webkpe00-kperoc/es/ac71aBusquedaRegistrosWar/empresa/07040",
      "_links": {
        "self": {
          "name": "AMENTIA SOLUCIONES, S.L.",
          "href": "https://api.euskadi.eus/procurements/companies/07040"
        }
      }
    },
    {
      "name": "BALRRIA S.G.P.,S.L.",
      "registrationNumber": "06882",
      "identificationNumber": "B95744744",
      "address": "POL. UGARTEALDE Nº15",
      "location": {
        "postalCode": "48510",
        "municipality": "Valle de Trápaga-Trapagaran",
        "county": "Bizkaia",
        "municipalityId": "080",
        "countyId": "48"
      },
      "economicActivities": [
        {
          "id": "1.501.3",
          "name": "Albañilería y pequeños trabajos de construcción en general",
          "_links": {
            "self": {
              "name": "Albañilería y pequeños trabajos de construcción en general",
              "href": "https://api.euskadi.eus/procurements/companies/economic-activities/1.501.3"
            }
          }
        },
        {
          "id": "1.504.11",
          "name": "Instalaciones eléctricas en general, redes telegráficas, telefonía, tv, etc",
          "_links": {
            "self": {
              "name": "Instalaciones eléctricas en general, redes telegráficas, telefonía, tv, etc",
              "href": "https://api.euskadi.eus/procurements/companies/economic-activities/1.504.11"
            }
          }
        },
        {
          "id": "1.849.9",
          "name": "Otros servicios independientes n.c.o.p",
          "_links": {
            "self": {
              "name": "Otros servicios independientes n.c.o.p",
              "href": "https://api.euskadi.eus/procurements/companies/economic-activities/1.849.9"
            }
          }
        }
      ],
      "certificateStartDate": "2026-01-12",
      "certificateEndDate": "2026-06-14",
      "object": "REPARACIÓN DE MAQUINARIA. REPARACIÓN DE EQUIPOS ELECTRÓNICOS Y OPTICOS. REPARACIÓN DE EQUIPOS ELÉCTRICOS. REPARACIÓN Y MANTENIMIENTO NAVAL. REPARACIÓN Y MANTENIMIENTO AERONAÚTICO Y ESPACIAL. \r\nREPARACIÓN Y MANTENIMIENTO DE OTRO MATERIAL DE TRANSPORTE. REPARACIÓN DE OTROS EQUIPOS. INSTALACIÓN DE MÁQUINAS Y EQUIPOS INDUSTRIALES. CONSTRUCCIÓN DE REDES PARA FLUIDOS. CONSTRUCCIÓN DE REDES ELÉCTRICAS Y TELECOMUNICACIONES. INSTALACIONES ELÉCTRICAS. FONTANERÍA, INSTALACIONES DE SISTEMAS DE CALEFACCIÓN Y AIRE ACONDICIONADO. OTRAS INSTALACIONES DE OBRA DE CONSTRUCCIÓN. REVOCAMIENTO. INSTALACIÓN DE CARPINTERÍA. REVESTIMIENTO DE SUELOS Y PAREDES. PINTURA Y ACRISTALAMIENTO. OTRO ACABADO DE EDIFICIOS. OTRAS ACTIVIDADES DE CONSTRUCCION ESPECIALIZADA N.C.O.P. SERVICIOS TÉCNICOS DE INGENIERÍA Y OTRAS ACTIVIDADES RELACIONADAS CON EL ASESORAMIENTO TÉCNICO. ENSAYOS Y ANÁLISIS TÉCNICOS. ACTIVIDADES DE DISEÑO ESPECIALIZADO. ALQUILER DE OTRA MAQUINARIA, EQUIPOS Y BIENES TANGIBLES N.C.O.P. SERVICIOS INTEGRALES A EDIFICIOS E INSTALACIONES. LIMPIEZA GENERAL DE EDIFICIOS. OTRAS ACTIVIDADES DE LIMPIEZA INDUSTRIAL Y EDIFICIOS. OTRAS ACTIVIDADES DE LIMPIEZA \r\n",
      "mainEntityOfPage": "https://www.contratacion.euskadi.eus/webkpe00-kperoc/es/ac71aBusquedaRegistrosWar/empresa/06882",
      "_links": {
        "self": {
          "name": "BALRRIA S.G.P.,S.L.",
          "href": "https://api.euskadi.eus/procurements/companies/06882"
        }
      }
    },
    {
      "name": "ARIMA SOFTWARE DESIGN S.L",
      "registrationNumber": "06386",
      "identificationNumber": "B75091801",
      "address": "Paseo Mikeletegi 69, planta 4",
      "location": {
        "postalCode": "20009",
        "municipality": "Donostia / San Sebastián",
        "county": "Gipuzkoa",
        "municipalityId": "069",
        "countyId": "20"
      },
      "economicActivities": [
        {
          "id": "1.845",
          "name": "Explotación electrónica por cuenta de terceros",
          "_links": {
            "self": {
              "name": "Explotación electrónica por cuenta de terceros",
              "href": "https://api.euskadi.eus/procurements/companies/economic-activities/1.845"
            }
          }
        }
      ],
      "certificateStartDate": "2026-01-12",
      "certificateEndDate": "2026-06-21",
      "object": "LOS SERVICIOS INFORMÁTICOS DE CONSULTORÍA Y DESARROLLO DE LOS MISMOS ASÍ COMO TODA CLASE DE PRODUCTOS DERIVADOS O RELACIONADOS",
      "mainEntityOfPage": "https://www.contratacion.euskadi.eus/webkpe00-kperoc/es/ac71aBusquedaRegistrosWar/empresa/06386",
      "_links": {
        "self": {
          "name": "ARIMA SOFTWARE DESIGN S.L",
          "href": "https://api.euskadi.eus/procurements/companies/06386"
        }
      }
    },
    {
      "name": "JOSUE LENNIN RIOS SANCHEZ",
      "registrationNumber": "10500",
      "identificationNumber": "Y4179884Q",
      "address": "Plaza Luis Echevarria",
      "location": {
        "postalCode": "48004",
        "municipality": "Bilbao",
        "county": "Bizkaia",
        "municipalityId": "020",
        "countyId": "48"
      },
      "economicActivities": [
        {
          "id": "2.726",
          "name": "Graduados sociales",
          "_links": {
            "self": {
              "name": "Graduados sociales",
              "href": "https://api.euskadi.eus/procurements/companies/economic-activities/2.726"
            }
          }
        }
      ],
      "certificateStartDate": "2026-01-12",
      "certificateEndDate": "2026-07-09",
      "object": "GRADUADOS SOCIALES.",
      "mainEntityOfPage": "https://www.contratacion.euskadi.eus/webkpe00-kperoc/es/ac71aBusquedaRegistrosWar/empresa/10500",
      "_links": {
        "self": {
          "name": "JOSUE LENNIN RIOS SANCHEZ",
          "href": "https://api.euskadi.eus/procurements/companies/10500"
        }
      }
    },
    {
      "name": "MARIA PAULA DOMANICO",
      "registrationNumber": "09207",
      "identificationNumber": "X4415717Q",
      "address": "Calle Santo Kristobarren,2",
      "location": {
        "postalCode": "31800",
        "municipality": "Altsasu/Alsasua",
        "county": "Navarra",
        "municipalityId": "010",
        "countyId": "31"
      },
      "economicActivities": [
        {
          "id": "1.932.1",
          "name": "Enseñanza de formación y perfeccionamiento profesional no superior",
          "_links": {
            "self": {
              "name": "Enseñanza de formación y perfeccionamiento profesional no superior",
              "href": "https://api.euskadi.eus/procurements/companies/economic-activities/1.932.1"
            }
          }
        }
      ],
      "certificateStartDate": "2026-01-12",
      "certificateEndDate": "2026-06-20",
      "object": "ENSEÑANZA DE FORMACIÓN Y PERFECCIONAMIENTO PROFESIONAL NO SUPERIOR.",
      "mainEntityOfPage": "https://www.contratacion.euskadi.eus/webkpe00-kperoc/es/ac71aBusquedaRegistrosWar/empresa/09207",
      "_links": {
        "self": {
          "name": "MARIA PAULA DOMANICO",
          "href": "https://api.euskadi.eus/procurements/companies/09207"
        }
      }
    }
  ]
}