{
  "totalItems": 9042,
  "totalPages": 905,
  "currentPage": 299,
  "itemsOfPage": 10,
  "items": [
    {
      "name": "ODIGO IBERIA, S.L.",
      "registrationNumber": "09833",
      "identificationNumber": "B72782790",
      "address": "C/ PEDRO DE VALDIVIA, Nº 10, 3º-2ª",
      "location": {
        "postalCode": "28006",
        "municipality": "Madrid",
        "county": "Madrid",
        "municipalityId": "079",
        "countyId": "28"
      },
      "economicActivities": [
        {
          "id": "1.845",
          "name": "Explotación electrónica por cuenta de terceros",
          "_links": {
            "self": {
              "name": "Explotación electrónica por cuenta de terceros",
              "href": "https://api.euskadi.eus/procurements/companies/economic-activities/1.845"
            }
          }
        }
      ],
      "certificateStartDate": "2025-09-05",
      "certificateEndDate": "2026-02-28",
      "object": "LA PRESTACIÓN DE SERVICIOS INFORMÁTICOS Y DE TELECOMUNICACIONES, DE VOZ Y DATOS, DE ASESORAMIENTO, CONSULTORÍA Y DESARROLLO DE SOLUCIONES PARA CENTROS DE ATENCIÓN AL CLIENTE, QUE SE DIRIJAN O CONSISTAN EN TRATAR, ALMACENAR Y SUMINISTRAR INFORMACIÓN A LOS USUARIOS. ENTRE LOS SERVICIOS, SE INCLUYE LA VENTA AL POR MAYOR Y AL POR MENOR, EL ALQUILER, IMPORTACIÓN Y EXPORTACIÓN DE SOFTWARE, DE TODA CLASE DE ARTÍCULOS DE INFORMÁTICA ELECTRÓNICA Y LAS COMUNICACIONES, ASÍ COMO ENSAMBLAJE E INSTALACIONES DE DICHOS ARTÍCULOS DE INFORMÁTICA.",
      "mainEntityOfPage": "https://www.contratacion.euskadi.eus/webkpe00-kperoc/es/ac71aBusquedaRegistrosWar/empresa/09833",
      "_links": {
        "self": {
          "name": "ODIGO IBERIA, S.L.",
          "href": "https://api.euskadi.eus/procurements/companies/09833"
        }
      }
    },
    {
      "name": "ASOCIACIÓN DE MALABARISTAS Y ARTISTAS DE CIRCO ZIRKOZAURRE",
      "registrationNumber": "10318",
      "identificationNumber": "G95682050",
      "address": "Ribera Deustu",
      "location": {
        "postalCode": "48014",
        "municipality": "Bilbao",
        "county": "Bizkaia",
        "municipalityId": "020",
        "countyId": "48"
      },
      "economicActivities": [
        {
          "id": "1.933.9",
          "name": "Otras actividades de enseñanza tales como idiomas, mecanografía",
          "_links": {
            "self": {
              "name": "Otras actividades de enseñanza tales como idiomas, mecanografía",
              "href": "https://api.euskadi.eus/procurements/companies/economic-activities/1.933.9"
            }
          }
        },
        {
          "id": "1.965.4",
          "name": "Empresas de espectáculos",
          "_links": {
            "self": {
              "name": "Empresas de espectáculos",
              "href": "https://api.euskadi.eus/procurements/companies/economic-activities/1.965.4"
            }
          }
        },
        {
          "id": "3.019",
          "name": "Otras actividades relacionadas con el cine, el teatro y el circo",
          "_links": {
            "self": {
              "name": "Otras actividades relacionadas con el cine, el teatro y el circo",
              "href": "https://api.euskadi.eus/procurements/companies/economic-activities/3.019"
            }
          }
        }
      ],
      "certificateStartDate": "2025-09-05",
      "certificateEndDate": "2026-03-04",
      "object": "TODO LO RELATIVO A LA DIFUSIÓN DEL CIRCO Y DE LAS ARTES ESCÉNICAS, MUESTRA, ENTRENO, FORMACIÓN, APRENDIZAJE. PARA LA CONSECUCIÓN DE DICHOS FINES SE LLEVARÁN A CABO, PREVIO EL CUMPLIMIENTO DE LOS REQUISITOS LEGALES ESTABLECIDOS, LAS SIGUIENTES ACTIVIDADES: TODAS LAS ACTIVIDADES QUE DIFUNDAN EL CIRCO Y LAS ARTES  ESCÉNICAS.",
      "mainEntityOfPage": "https://www.contratacion.euskadi.eus/webkpe00-kperoc/es/ac71aBusquedaRegistrosWar/empresa/10318",
      "_links": {
        "self": {
          "name": "ASOCIACIÓN DE MALABARISTAS Y ARTISTAS DE CIRCO ZIRKOZAURRE",
          "href": "https://api.euskadi.eus/procurements/companies/10318"
        }
      }
    },
    {
      "name": "MUNDUZ MUNDU KOOP. ELK. TXIKIA DE INICIATIVA SOCIAL",
      "registrationNumber": "08411",
      "identificationNumber": "F95826293",
      "address": "C/ Pelota 2",
      "location": {
        "postalCode": "48005",
        "municipality": "Bilbao",
        "county": "Bizkaia",
        "municipalityId": "020",
        "countyId": "48"
      },
      "economicActivities": [
        {
          "id": "1.847",
          "name": "Servicios de consultoría",
          "_links": {
            "self": {
              "name": "Servicios de consultoría",
              "href": "https://api.euskadi.eus/procurements/companies/economic-activities/1.847"
            }
          }
        },
        {
          "id": "1.936",
          "name": "Investigación científica y técnica",
          "_links": {
            "self": {
              "name": "Investigación científica y técnica",
              "href": "https://api.euskadi.eus/procurements/companies/economic-activities/1.936"
            }
          }
        }
      ],
      "certificateStartDate": "2025-09-05",
      "certificateEndDate": "2026-02-26",
      "object": "FOMENTAR LA SOLIDARIDAD Y LA COOPERACIÓN ENTRE LOS PUEBLOS Y LAS PERSONAS EN LA CONSECUCIÓN DE UN DESARROLLO HUMANO, Y PARA ELLO ACOMPAÑAR, APOYAR Y RESPETAR PROCESOS DE COLECTIVOS, ORGANIZACIONES POPULARES Y COMUNIDADES QUE BUSQUEN UN FUTURO MÁS JUSTO Y DIGNO PARA TODAS/OS. PARA LA CONSECUCIÓN DE SUS FINES PUEDE REALIZAR LAS SIGUIENTES ACTIVIDADES FUNDAMENTALES: A) REALIZAR PROYECTOS DE COOPERACIÓN AL DESARROLLO Y ACCIÓN HUMANITARIA. B) APOYAR TAREAS DE PROMOCIÓN Y DEFENSA DE LOS DERECHOS HUMANOS. C) APOYAR ECONÓMICAMENTE A LAS ORGANIZACIONES DEL SUR Y DEL NORTE. D)SENSIBILIZAR Y FORMAR SOBRE LA PROBLEMÁTICA NORTE – SUR. E) FOMENTAR LA IGUALDAD DE OPORTUNIDADES Y LA EQUIDAD DE GÉNERO. F) REALIZAR PROYECTOS DE INTERVENCIÓN SOCIAL. G) PRESTAR SERVICIOS DE CONSULTORÍA Y ASESORÍA ESPECIALIZADA. H) REALIZAR ESTUDIOS E INVESTIGACIONES.",
      "mainEntityOfPage": "https://www.contratacion.euskadi.eus/webkpe00-kperoc/es/ac71aBusquedaRegistrosWar/empresa/08411",
      "_links": {
        "self": {
          "name": "MUNDUZ MUNDU KOOP. ELK. TXIKIA DE INICIATIVA SOCIAL",
          "href": "https://api.euskadi.eus/procurements/companies/08411"
        }
      }
    },
    {
      "name": "ANASA ESTUDIO, S.L.",
      "registrationNumber": "10317",
      "identificationNumber": "B95599445",
      "address": "c/ Cosme Echevarrieta nº13 - bajo Dcha.",
      "location": {
        "postalCode": "48009",
        "municipality": "Bilbao",
        "county": "Bizkaia",
        "municipalityId": "020",
        "countyId": "48"
      },
      "economicActivities": [
        {
          "id": "1.843.2",
          "name": "Servicios técnicos de arquitectura y urbanismo",
          "_links": {
            "self": {
              "name": "Servicios técnicos de arquitectura y urbanismo",
              "href": "https://api.euskadi.eus/procurements/companies/economic-activities/1.843.2"
            }
          }
        }
      ],
      "certificateStartDate": "2025-09-05",
      "certificateEndDate": "2026-03-05",
      "object": "LA ACTIVIDAD PROPIA DEL EJERCICIO PROFESIONAL DE LA ARQUITECTURA Y URBANISMO.",
      "mainEntityOfPage": "https://www.contratacion.euskadi.eus/webkpe00-kperoc/es/ac71aBusquedaRegistrosWar/empresa/10317",
      "_links": {
        "self": {
          "name": "ANASA ESTUDIO, S.L.",
          "href": "https://api.euskadi.eus/procurements/companies/10317"
        }
      }
    },
    {
      "name": "GEOLAN BEASAIN, S.L.",
      "registrationNumber": "02098",
      "identificationNumber": "B20599163",
      "address": "NBF eraikina, Arranomendia 5, 1.2. bulegoa",
      "location": {
        "postalCode": "20240",
        "municipality": "Ordizia",
        "county": "Gipuzkoa",
        "municipalityId": "076",
        "countyId": "20"
      },
      "economicActivities": [
        {
          "id": "1.843.3",
          "name": "Servicios técnicos de prospecciones y estudios geológicos",
          "_links": {
            "self": {
              "name": "Servicios técnicos de prospecciones y estudios geológicos",
              "href": "https://api.euskadi.eus/procurements/companies/economic-activities/1.843.3"
            }
          }
        },
        {
          "id": "1.933.9",
          "name": "Otras actividades de enseñanza tales como idiomas, mecanografía",
          "_links": {
            "self": {
              "name": "Otras actividades de enseñanza tales como idiomas, mecanografía",
              "href": "https://api.euskadi.eus/procurements/companies/economic-activities/1.933.9"
            }
          }
        }
      ],
      "certificateStartDate": "2025-09-05",
      "certificateEndDate": "2026-03-05",
      "object": "CONSULTORÍA E INGENIERÍA MEDIOAMBIENTAL, PRESTACIÓN DE SERVICIOS EN MATERIAS AMBIENTALES, SISTEMAS DE GESTIÓN, EFICIENCIA ENERGÉTICA, SEGURIDAD Y FORMACIÓN EN LOS CAMPOS Y FUNCIONES QUE A CONTINUACIÓN SE DETALLAN: - CONSULTORÍA, REDACCIÓN DE PROYECTOS, ESTUDIOS, CERTIFICACIONES, TRAMITACIONES, LEGALIZACIONES, AUDITORÍAS, DIAGNÓSTICOS, SEGUIMIENTO Y CONTROL, INSPECCIONES, PERITACIONES E INFORMES EN MATERIAS AMBIENTALES, TALES COMO ACTIVIDAD, RESIDUOS, AIRE, AGUA, SUELO, RUIDO, CONTAMINACIÓN, RIESGOS, PAISAJE, FAUNA Y FLORA, ESPACIOS PROTEGIDOS, HÁBITATS, ETC. - CONSULTORÍA, AUDITORÍA, EVALUACIÓN, DIAGNÓSTICOS E IMPLANTACIÓN DE SISTEMAS DE GESTIÓN. - CONSULTORÍA , REDACCIÓN DE PROYECTOS, ESTUDIOS, CERTIFICADOS, DIAGNÓSTICOS, AUDITORÍAS E INFORMES EN MATERIA DE ENERGÍA. - CONSULTORÍA, REDACCIÓN DE PROYECTOS, CERTIFICADOS, AUDITORÍAS, DIAGNÓSTICOS, ESTUDIOS, TRAMITACIONES, LEGALIZACIONES E INFORMES EN MATERIA DE SEGURIDAD EN TEMAS DE INCENDIOS, ALMACENAMIENTOS, RIESGOS DE PRODUCTOS QUÍMICOS, EMERGENCIAS, TRANSPORTE DE MERCANCÍAS PELIGROSAS, MEDIDAS DE PREVENCIÓN Y CORRECCIÓN, RIESGOS EN EL TRABAJO, ETC. - IMPARTICIÓN DE FORMACIÓN REGLADA, NO REGLADA, ON-LINE Y/O PRESENCIAL EN MATERIAS AMBIENTALES, SISTEMAS DE GESTIÓN, EFICIENCIA ENERGÉTICA Y SEGURIDAD.",
      "mainEntityOfPage": "https://www.contratacion.euskadi.eus/webkpe00-kperoc/es/ac71aBusquedaRegistrosWar/empresa/02098",
      "_links": {
        "self": {
          "name": "GEOLAN BEASAIN, S.L.",
          "href": "https://api.euskadi.eus/procurements/companies/02098"
        }
      }
    },
    {
      "name": "GREINER BIO-ONE ESPAÑA,  S.A.",
      "registrationNumber": "03060",
      "identificationNumber": "A81664492",
      "address": "AVDA. DE SOMOSIERRA, Nº22, PL. 2ª. NAVE G",
      "location": {
        "postalCode": "28703",
        "municipality": "San Sebastián de los Reyes",
        "county": "Madrid",
        "municipalityId": "134",
        "countyId": "28"
      },
      "economicActivities": [
        {
          "id": "1.619.2",
          "name": "Venta al por mayor de aparatos e instrumentos médicos, ortopédicos, ópticos",
          "_links": {
            "self": {
              "name": "Venta al por mayor de aparatos e instrumentos médicos, ortopédicos, ópticos",
              "href": "https://api.euskadi.eus/procurements/companies/economic-activities/1.619.2"
            }
          }
        }
      ],
      "certificateStartDate": "2025-09-05",
      "certificateEndDate": "2026-03-05",
      "object": "LA IMPORTACIÓN, EXPORTACIÓN, COMERCIALIZACIÓN Y DISTRIBUCIÓN DE PRODUCTOS Y MAQUINARIA FARMACÉUTICOS, HOSPITALARIOS Y VETERINARIOS Y LA ASISTENCIA Y SERVICIOS TÉCNICOS DE LOS MISMOS. ASIMISMO CONSTITUYE EL OBJETO SOCIAL EL IMPARTIR POR CUENTA PROPIA O DE TERCEROS, CURSOS DE FORMACIÓN Y PERFECCIONAMIENTO EN CUALQUIER ÁREA DE FORMACIÓN O ENSEÑANZA TANTO POR CONTRATACIÓN CON LA ADMINISTRACIÓN PÚBLICA COMO POR LA EMPRESA PRIVADA, CONTRATACIÓN DE PROFESORADO, ALQUILER DE AULAS, EQUIPOS INFORMÁTICOS, MOBILIARIO Y TODO TIPO DE MATERIAL PEDAGÓGICO O DOCENTE BÁSICO O DE APOYO, DIRECTAMENTE RELACIONADO CON ESTA ACTIVIDAD.\n",
      "mainEntityOfPage": "https://www.contratacion.euskadi.eus/webkpe00-kperoc/es/ac71aBusquedaRegistrosWar/empresa/03060",
      "_links": {
        "self": {
          "name": "GREINER BIO-ONE ESPAÑA,  S.A.",
          "href": "https://api.euskadi.eus/procurements/companies/03060"
        }
      }
    },
    {
      "name": "DRIVEN FOR RESPONSABILITY SOLUTIONS, S.L.",
      "registrationNumber": "10316",
      "identificationNumber": "B75704866",
      "address": "Avenida Cervantes, 51 - edificio 10 - 5º Dpto 7",
      "location": {
        "postalCode": "48970",
        "municipality": "Basauri",
        "county": "Bizkaia",
        "municipalityId": "015",
        "countyId": "48"
      },
      "economicActivities": [
        {
          "id": "1.843.1",
          "name": "Servicios técnicos de ingeniería",
          "_links": {
            "self": {
              "name": "Servicios técnicos de ingeniería",
              "href": "https://api.euskadi.eus/procurements/companies/economic-activities/1.843.1"
            }
          }
        }
      ],
      "certificateStartDate": "2025-09-05",
      "certificateEndDate": "2026-03-05",
      "object": "A) LA REALIZACIÓN DE TRABAJOS DE INGENIERÍA Y CONSULTORÍA EN MATERIA DE SOSTENIBILIDAD. B) LA PRESTACIÓN DE SERVICIOS RELACIONADOS CON LA PREPARACIÓN, IMPARTICIÓN Y DIFUSIÓN DE JORNADAS, CURSOS DE CARÁCTER FORMATIVO. C) LA REALIZACIÓN DE ESTUDIOS, ANÁLISIS DE CONTEXTO O SIMILARES RELACIONADOS CON ASPECTOS LIGADOS AL REPORTING EN MATERIA DE SOSTENIBILIDAD. D) Y LA PRESTACIÓN DE SERVICIOS PROFESIONALES LEGALES, ESTUDIOS, INFORMES Y ASESORAMIENTO ECONÓMICO, QUE SE REALIZARÁN A TRAVÉS DE LOS PROFESIONALES CON TITULACIÓN ADECUADA Y MEDIANTE OBTENCIÓN DE LOS PERMISOS ADMINISTRATIVOS CORRESPONDIENTES EN SU CASO.",
      "mainEntityOfPage": "https://www.contratacion.euskadi.eus/webkpe00-kperoc/es/ac71aBusquedaRegistrosWar/empresa/10316",
      "_links": {
        "self": {
          "name": "DRIVEN FOR RESPONSABILITY SOLUTIONS, S.L.",
          "href": "https://api.euskadi.eus/procurements/companies/10316"
        }
      }
    },
    {
      "name": "NTT SPAIN INTELLIGENT TECHNOLOGIES AND SERVICES, S.L.",
      "registrationNumber": "07871",
      "identificationNumber": "B62174842",
      "address": "Calle Méndez Álvaro, número 56, plana 3ª y 4ª",
      "location": {
        "postalCode": "28045",
        "municipality": "Madrid",
        "county": "Madrid",
        "municipalityId": "079",
        "countyId": "28"
      },
      "economicActivities": [
        {
          "id": "1.617.8",
          "name": "Venta al por mayor de máquinas y material de oficina",
          "_links": {
            "self": {
              "name": "Venta al por mayor de máquinas y material de oficina",
              "href": "https://api.euskadi.eus/procurements/companies/economic-activities/1.617.8"
            }
          }
        },
        {
          "id": "1.691.9",
          "name": "Reparación de otros bienes de consumo n.c.o.p",
          "_links": {
            "self": {
              "name": "Reparación de otros bienes de consumo n.c.o.p",
              "href": "https://api.euskadi.eus/procurements/companies/economic-activities/1.691.9"
            }
          }
        },
        {
          "id": "1.845",
          "name": "Explotación electrónica por cuenta de terceros",
          "_links": {
            "self": {
              "name": "Explotación electrónica por cuenta de terceros",
              "href": "https://api.euskadi.eus/procurements/companies/economic-activities/1.845"
            }
          }
        }
      ],
      "certificateStartDate": "2025-09-05",
      "certificateEndDate": "2026-03-05",
      "object": "LA COMPRA, VENTA, ASISTENCIA Y MANTENIMIENTO RELATIVO DE HARDWARE, Y EN CONCRETO PRODUCTOS RELACIONADOS CON REDES INFORMÁTICAS; LA COMPRA, VENTA, MANTENIMIENTO, DISTRIBUCIÓN Y LICENCIA DE PRODUCTOS DE SOFTWARE Y EN CONCRETO SOFTWARE RELACIONADO CON REDES INFORMÁTICAS; LA PRESTACIÓN DE SERVICIOS DE ASESORÍA Y CONSULTORÍA INFORMÁTICAS; LAS ACTIVIDADES DE FABRICACIÓN, DISTRIBUCIÓN, COMPRA, VENTA, ALQUILER, EXPORTACIÓN, IMPORTACIÓN, MONTAJE, CONSERVACIÓN, MANTENIMIENTO Y COMERCIALIZACIÓN EN GENERAL DE TODA CLASE DE MATERIA, APARATOS E INSTALACIONES DE TELECOMUNICACIÓN, DE TRANSMISIÓN DE DATOS Y DE AUTOMATISMOS Y SISTEMAS DE INFORMÁTICA.",
      "mainEntityOfPage": "https://www.contratacion.euskadi.eus/webkpe00-kperoc/es/ac71aBusquedaRegistrosWar/empresa/07871",
      "_links": {
        "self": {
          "name": "NTT SPAIN INTELLIGENT TECHNOLOGIES AND SERVICES, S.L.",
          "href": "https://api.euskadi.eus/procurements/companies/07871"
        }
      }
    },
    {
      "name": "ISIS THOT, S.L.",
      "registrationNumber": "07349",
      "identificationNumber": "B81140238",
      "address": "Calle Gobelas, 25-27 Modulo A - Planta 1ª",
      "location": {
        "postalCode": "28023",
        "municipality": "Madrid",
        "county": "Madrid",
        "municipalityId": "079",
        "countyId": "28"
      },
      "economicActivities": [
        {
          "id": "1.617.8",
          "name": "Venta al por mayor de máquinas y material de oficina",
          "_links": {
            "self": {
              "name": "Venta al por mayor de máquinas y material de oficina",
              "href": "https://api.euskadi.eus/procurements/companies/economic-activities/1.617.8"
            }
          }
        },
        {
          "id": "1.845",
          "name": "Explotación electrónica por cuenta de terceros",
          "_links": {
            "self": {
              "name": "Explotación electrónica por cuenta de terceros",
              "href": "https://api.euskadi.eus/procurements/companies/economic-activities/1.845"
            }
          }
        }
      ],
      "certificateStartDate": "2025-09-05",
      "certificateEndDate": "2026-03-01",
      "object": "ADQUISICIÓN, EXPLOTACIÓN Y ENAJENACIÓN DE BIENES INMUEBLES. PROMOCIÓN DE TODA CLASE DE OBRAS DE URBANIZACIÓN Y CONSTRUCCIÓN. LA EJECUCIÓN, POR CUENTA PROPIA O DE TERCEROS, DIRECTAMENTE O MEDIANTE SUBCONTRATAS, DE TODA CLASE DE OBRAS PÚBLICAS O PRIVADAS, TALES COMO CONSTRUCCIÓN DE EDIFICIOS, URBANIZACIONES, OBRAS DE INFRAESTRUCTURA E INSTALACIONES INTERIORES. ADQUISICIÓN, AGRUPACIÓN, PARCELACIÓN Y VENTA DE SOLARES Y TERRENOS. LA PRESTACIÓN DE SERVICIOS PROFESIONALES PARA LA REALIZACIÓN DE PROYECTOS EN EL ÁMBITO EMPRESARIAL, ORGANIZATIVO, COMERCIAL Y DE RECURSOS, DESARROLLANDO PARA ELLO LAS SIGUIENTES ACTIVIDADES: 1.- PROYECTOS DE SISTEMAS DE INFORMACÓN, QUE INCLUYE ASESORÍA, SERVICIOS, COMERCIALIZACIÓN E INSTALACIÓN DE MATERIAL INFORMÁTICO. 2.- PROYECTOS DE SEGURIDAD DE INFORMACIÓN. 3.- PROYECTOS PARA COMERCIALIZACIÓN E INSTALACIÓN DE PRODUCTOS INFORMÁTICOS. 4.- PROYECTOS DE ASESORÍA, FORMACIÓN Y ENTRENAMIENTO DE SISTEMAS INFORMÁTICOS.",
      "mainEntityOfPage": "https://www.contratacion.euskadi.eus/webkpe00-kperoc/es/ac71aBusquedaRegistrosWar/empresa/07349",
      "_links": {
        "self": {
          "name": "ISIS THOT, S.L.",
          "href": "https://api.euskadi.eus/procurements/companies/07349"
        }
      }
    },
    {
      "name": "ITZIAR AMESTOY ALONSO",
      "registrationNumber": "10093",
      "identificationNumber": "72749845V",
      "address": "Otazu 16,",
      "location": {
        "postalCode": "01194",
        "municipality": "Vitoria-Gasteiz",
        "county": "Araba/Álava",
        "municipalityId": "059",
        "countyId": "01"
      },
      "economicActivities": [
        {
          "id": "2.777",
          "name": "Especialistas en asuntos de personal y análisis profesional",
          "_links": {
            "self": {
              "name": "Especialistas en asuntos de personal y análisis profesional",
              "href": "https://api.euskadi.eus/procurements/companies/economic-activities/2.777"
            }
          }
        },
        {
          "id": "2.824",
          "name": "Profesores de formación y perfeccionamiento profesional",
          "_links": {
            "self": {
              "name": "Profesores de formación y perfeccionamiento profesional",
              "href": "https://api.euskadi.eus/procurements/companies/economic-activities/2.824"
            }
          }
        },
        {
          "id": "2.841",
          "name": "Naturópatas, acupuntores y otros profesionales parasanitarios",
          "_links": {
            "self": {
              "name": "Naturópatas, acupuntores y otros profesionales parasanitarios",
              "href": "https://api.euskadi.eus/procurements/companies/economic-activities/2.841"
            }
          }
        }
      ],
      "certificateStartDate": "2025-09-05",
      "certificateEndDate": "2026-03-03",
      "object": "ESPECIALISTAS EN ASUNTOS DE PERSONAL Y ANÁLISIS PROFESIONAL. PROFESORES DE FORMACIÓN Y PERFECCIONAMIENTO PROFESIONAL. NATURÓPATAS, ACUPUNTORES Y OTROS PROFESIONALES PARASANITARIOS.",
      "mainEntityOfPage": "https://www.contratacion.euskadi.eus/webkpe00-kperoc/es/ac71aBusquedaRegistrosWar/empresa/10093",
      "_links": {
        "self": {
          "name": "ITZIAR AMESTOY ALONSO",
          "href": "https://api.euskadi.eus/procurements/companies/10093"
        }
      }
    }
  ]
}