{
  "totalItems": 9042,
  "totalPages": 905,
  "currentPage": 553,
  "itemsOfPage": 10,
  "items": [
    {
      "name": "CERO RESIDUOS ORGÁNICOS",
      "registrationNumber": "07361",
      "identificationNumber": "G88304803",
      "address": "CALLE SÁNCHEZ PACHECO 40 1ºA",
      "location": {
        "postalCode": "28002",
        "municipality": "Madrid",
        "county": "Madrid",
        "municipalityId": "079",
        "countyId": "28"
      },
      "economicActivities": [
        {
          "id": "1.849.9",
          "name": "Otros servicios independientes n.c.o.p",
          "_links": {
            "self": {
              "name": "Otros servicios independientes n.c.o.p",
              "href": "https://api.euskadi.eus/procurements/companies/economic-activities/1.849.9"
            }
          }
        }
      ],
      "certificateStartDate": "2020-11-12",
      "certificateEndDate": "2021-04-21",
      "object": "LA ASOCIACIÓN REALIZARÁ LAS SIGUIENTES ACTIVIDADES: ASESORAMIENTO, CONSULTA, GESTIÓN Y CAPACITACIÓN. ACTIVIDADES DE CONCIENCIACIÓN Y SENSIBILIZACIÓN AMBIENTAL. INVESTIGACIÓN, DESARROLLO E INNOVACIÓN. FORMACIÓN, DISEÑO Y CONSTRUCCIÓN. TODAS AQUELLAS TAREAS NECESARIAS PARA EL CUMPLIMIENTO DE LOS FINES POR LOS CUALES SE CONSTITUYE ESTA ASOCIACIÓN",
      "mainEntityOfPage": "https://www.contratacion.euskadi.eus/webkpe00-kperoc/es/ac71aBusquedaRegistrosWar/empresa/07361",
      "_links": {
        "self": {
          "name": "CERO RESIDUOS ORGÁNICOS",
          "href": "https://api.euskadi.eus/procurements/companies/07361"
        }
      }
    },
    {
      "name": "DIGITAL SUPPLY CHAIN, S.L.",
      "registrationNumber": "07362",
      "identificationNumber": "B70603485",
      "address": "Edificio Quercus IP, Rua Letonia 2, B1.6 Polígono Empresarial Costa Vella",
      "location": {
        "postalCode": "15707",
        "municipality": "Santiago de Compostela",
        "county": "Coruña, A",
        "municipalityId": "078",
        "countyId": "15"
      },
      "economicActivities": [
        {
          "id": "1.354",
          "name": "Fabricación de componentes electrónicos y circuitos integrados",
          "_links": {
            "self": {
              "name": "Fabricación de componentes electrónicos y circuitos integrados",
              "href": "https://api.euskadi.eus/procurements/companies/economic-activities/1.354"
            }
          }
        },
        {
          "id": "1.614.2",
          "name": "Venta al por mayor de productos de perfumería, droguería, higiene y belleza",
          "_links": {
            "self": {
              "name": "Venta al por mayor de productos de perfumería, droguería, higiene y belleza",
              "href": "https://api.euskadi.eus/procurements/companies/economic-activities/1.614.2"
            }
          }
        },
        {
          "id": "1.615.4",
          "name": "Venta al por mayor de aparatos y material radioeléctrico y electrónico",
          "_links": {
            "self": {
              "name": "Venta al por mayor de aparatos y material radioeléctrico y electrónico",
              "href": "https://api.euskadi.eus/procurements/companies/economic-activities/1.615.4"
            }
          }
        },
        {
          "id": "1.845",
          "name": "Explotación electrónica por cuenta de terceros",
          "_links": {
            "self": {
              "name": "Explotación electrónica por cuenta de terceros",
              "href": "https://api.euskadi.eus/procurements/companies/economic-activities/1.845"
            }
          }
        }
      ],
      "certificateStartDate": "2020-11-12",
      "certificateEndDate": "2021-03-22",
      "object": "ACTIVIDADES DE CONSULTORÍA INFORMÁTICA. COMERCIO AL POR MAYOR DE ORDENADORES, EQUIPOS PERIFÉRICOS Y PROGRAMAS INFORMÁTICOS. COMERCIO AL POR MAYOR DE EQUIPOS ELECTRÓNICOS Y DE TELECOMUNICACIONES Y SUS COMPONENTES. GESTIÓN DE RECURSOS INFORMÁTICOS. FABRICACIÓN DE CIRCUITOS IMPRESOS ENSAMBLADOS. ACTIVIDADES DE PROGRAMACIÓN INFORMÁTICA",
      "mainEntityOfPage": "https://www.contratacion.euskadi.eus/webkpe00-kperoc/es/ac71aBusquedaRegistrosWar/empresa/07362",
      "_links": {
        "self": {
          "name": "DIGITAL SUPPLY CHAIN, S.L.",
          "href": "https://api.euskadi.eus/procurements/companies/07362"
        }
      }
    },
    {
      "name": "AUTOESCUELA MIKEL, S.L.",
      "registrationNumber": "07355",
      "identificationNumber": "B48301261",
      "address": "C/ SANTUTXU, 41",
      "location": {
        "postalCode": "48004",
        "municipality": "Bilbao",
        "county": "Bizkaia",
        "municipalityId": "020",
        "countyId": "48"
      },
      "economicActivities": [
        {
          "id": "1.933.1",
          "name": "Enseñanza de conducción de vehículos terrestres, acuáticos, etc",
          "_links": {
            "self": {
              "name": "Enseñanza de conducción de vehículos terrestres, acuáticos, etc",
              "href": "https://api.euskadi.eus/procurements/companies/economic-activities/1.933.1"
            }
          }
        }
      ],
      "certificateStartDate": "2020-11-11",
      "certificateEndDate": "2021-05-04",
      "object": "LA ENSEÑANZA DE LA CONDUCCIÓN DE CUALESQUIERA VEHÍCULOS A MOTOR",
      "mainEntityOfPage": "https://www.contratacion.euskadi.eus/webkpe00-kperoc/es/ac71aBusquedaRegistrosWar/empresa/07355",
      "_links": {
        "self": {
          "name": "AUTOESCUELA MIKEL, S.L.",
          "href": "https://api.euskadi.eus/procurements/companies/07355"
        }
      }
    },
    {
      "name": "MARTINEZ & LILLO, S.L.P.",
      "registrationNumber": "07356",
      "identificationNumber": "B98420912",
      "address": "CALLE CERVANTES 11 BAJO",
      "location": {
        "postalCode": "46650",
        "municipality": "Canals",
        "county": "Valencia/València",
        "municipalityId": "081",
        "countyId": "46"
      },
      "economicActivities": [
        {
          "id": "1.832.1",
          "name": "Agencias de seguros y corredurías de seguros",
          "_links": {
            "self": {
              "name": "Agencias de seguros y corredurías de seguros",
              "href": "https://api.euskadi.eus/procurements/companies/economic-activities/1.832.1"
            }
          }
        },
        {
          "id": "1.841",
          "name": "Servicios jurídicos",
          "_links": {
            "self": {
              "name": "Servicios jurídicos",
              "href": "https://api.euskadi.eus/procurements/companies/economic-activities/1.841"
            }
          }
        },
        {
          "id": "1.842",
          "name": "Servicios financieros y contables",
          "_links": {
            "self": {
              "name": "Servicios financieros y contables",
              "href": "https://api.euskadi.eus/procurements/companies/economic-activities/1.842"
            }
          }
        }
      ],
      "certificateStartDate": "2020-11-11",
      "certificateEndDate": "2021-04-20",
      "object": "EL EJERCICIO DE LA ACTIVIDAD PROFESIONAL DE GESTORÍA ADMINISTRATIVA",
      "mainEntityOfPage": "https://www.contratacion.euskadi.eus/webkpe00-kperoc/es/ac71aBusquedaRegistrosWar/empresa/07356",
      "_links": {
        "self": {
          "name": "MARTINEZ & LILLO, S.L.P.",
          "href": "https://api.euskadi.eus/procurements/companies/07356"
        }
      }
    },
    {
      "name": "GRUPO DE SISTEMAS GLOBALES EN PREVENCIÓN, S.L.",
      "registrationNumber": "07359",
      "identificationNumber": "B63745848",
      "address": "C/ Roger de Llúria 116 2-3 Barcelona ",
      "location": {
        "postalCode": "08037",
        "municipality": "Barcelona",
        "county": "Barcelona",
        "municipalityId": "019",
        "countyId": "08"
      },
      "economicActivities": [
        {
          "id": "1.849.9",
          "name": "Otros servicios independientes n.c.o.p",
          "_links": {
            "self": {
              "name": "Otros servicios independientes n.c.o.p",
              "href": "https://api.euskadi.eus/procurements/companies/economic-activities/1.849.9"
            }
          }
        }
      ],
      "certificateStartDate": "2020-11-11",
      "certificateEndDate": "2021-03-11",
      "object": "LA DISTRIBUCIÓN Y COMERCIALIZACIÓN DE SERVICIOS A EMPRESAS PRINCIPALMENTE EN LAS ÁREAS DE PREVENCIÓN DE RIESGOS LABORALES, PROTECCIÓN DEL MEDIO AMBIENTE, PROTECCIÓN DE DATOS, ASESORÍA FISCAL Y LABORAL TRABAJANDO CON MEDIOS PROPIOS Y/O MEDIANTE LA COLABORACIÓN DE EMPRESAS Y PROFESIONALES INDEPENDIENTES. TAMBIÉN TENDRÁ POR OBJETO LA GESTIÓN DE LA SEGURIDAD, ENTENDIDA EN SU AMPLIA ACEPCIÓN, Y LA PREVENCIÓN, EN EL ÁMBITO LABORAL, TANTO POR LO QUE SE REFIERE A HIGIENE, SEGURIDAD, ERGONOMÍA, PSICOSOCIOLOGÍA, COMO POR LO QUE SE REFIERE A MEDICINA DEL TRABAJO, EN EL ÁMBITO MEDIOAMBIENTAL, TANTO EXTERNA COMO INTERNA DE LOS CENTROS DE TRABAJO, EN EL ÁMBITO DE LA MOVILIDAD Y TRANSPORTE, TANTO VIARIO COMO MARÍTIMO, FLUVIAL O AÉREO, ASÍ COMO EN EL ÁMBITO DE LA SALUD, TANTO POR LO QUE SE REFIERE A LA CALIDAD DE VIDA COMO LO RELATIVO AL BIENESTAR DE LAS PERSONAS. LAS TAREAS A REALIZAR CONTEMPLAN ASPECTOS DE ORGANIZACIÓN Y PLANIFICACIÓN EN PREVENCIÓN Y SEGURIDAD, ASPECTOS DE EVALUACIÓN DE RIESGOS, TANTO DE PLANES GENERALES COMO DE PROYECTOS CONCRETOS, ASPECTOS DE ESTUDIO, INVESTIGACIÓN Y RECONSTRUCCIÓN, TANTO DE ACCIDENTES ESPECÍFICOS COMO DE ANÁLISIS DE CAUSAS; ASPECTOS DE EDUCACIÓN Y FORMACIÓN, TANTO DE MATERIAS REGLAMENTARIAMENTE ESTABLECIDAS COMO LAS QUE EN CADA CASO SE REQUIERA APLICAR, Y ASPECTOS DE DOTACIÓN Y SUMINISTRO DE RECURSOS, EQUIPOS, INSTRUMENTOS Y MÁQUINAS QUE SEA PRECISO IMPLEMENTAR EN LOS PROCESOS PRODUCTIVOS EN QUE INTERVENGA",
      "mainEntityOfPage": "https://www.contratacion.euskadi.eus/webkpe00-kperoc/es/ac71aBusquedaRegistrosWar/empresa/07359",
      "_links": {
        "self": {
          "name": "GRUPO DE SISTEMAS GLOBALES EN PREVENCIÓN, S.L.",
          "href": "https://api.euskadi.eus/procurements/companies/07359"
        }
      }
    },
    {
      "name": "BUFETE NAVARRO ASOCIADOS LABORAL, S.L.P.",
      "registrationNumber": "07351",
      "identificationNumber": "B97737084",
      "address": "CL LAGASCA Nº56 1",
      "location": {
        "postalCode": "28005",
        "municipality": "Madrid",
        "county": "Madrid",
        "municipalityId": "079",
        "countyId": "28"
      },
      "economicActivities": [
        {
          "id": "1.841",
          "name": "Servicios jurídicos",
          "_links": {
            "self": {
              "name": "Servicios jurídicos",
              "href": "https://api.euskadi.eus/procurements/companies/economic-activities/1.841"
            }
          }
        }
      ],
      "certificateStartDate": "2020-11-10",
      "certificateEndDate": "2021-04-22",
      "object": "EL EJERCICIO EN COMÚN DE LA ACTIVIDAD PROFESIONAL DE LA ABOGACÍA",
      "mainEntityOfPage": "https://www.contratacion.euskadi.eus/webkpe00-kperoc/es/ac71aBusquedaRegistrosWar/empresa/07351",
      "_links": {
        "self": {
          "name": "BUFETE NAVARRO ASOCIADOS LABORAL, S.L.P.",
          "href": "https://api.euskadi.eus/procurements/companies/07351"
        }
      }
    },
    {
      "name": "DRONEGAN, S.L.",
      "registrationNumber": "07352",
      "identificationNumber": "B75227942",
      "address": "ZUATSU KALEA 1, ED. ULIA, PL.1 OF. 8",
      "location": {
        "postalCode": "20018",
        "municipality": "Donostia / San Sebastián",
        "county": "Gipuzkoa",
        "municipalityId": "069",
        "countyId": "20"
      },
      "economicActivities": [
        {
          "id": "1.753.9",
          "name": "Otros servicios anexos al transporte aéreo n.c.o.p",
          "_links": {
            "self": {
              "name": "Otros servicios anexos al transporte aéreo n.c.o.p",
              "href": "https://api.euskadi.eus/procurements/companies/economic-activities/1.753.9"
            }
          }
        }
      ],
      "certificateStartDate": "2020-11-10",
      "certificateEndDate": "2021-04-27",
      "object": "LA OPERACIÓN, USO, MANEJO Y PILOTAJE DE DRONES AÉREOS COMO OPERADORA AÉREA, Y DENTRO DE ESTA ACTIVIDAD OPERADORA, LA FOTOGRAFÍA Y FOTOGRAMETRÍA AÉREA POR MEDIO DE DRONES; FA FORMACIÓN DE PILOTOS DE DRONES; E1 DISEÑO, FABRICACIÓN Y DESARROLLO DE MODELOS DE DRONES; LAS OPERACIONES DE BÚSQUEDA Y RESCATE; LA REALIZACIÓN DE INSPECCIONES Y ESTUDIOS TÉCNICOS, COMERCIALIZACIÓN DE DRONES Y COMPONENTES DE DESPIECE, Y EN GENERAL, TODO TIPO DE SERVICIOS QUE PUEDAN SER PRESTADOS POR UNA MERCANTIL OPERADORA DE DRONES; Y, FINALMENTE, LA COLABORACIÓN CON LAS FUERZAS DE SEGURIDAD DEL ESTADO",
      "mainEntityOfPage": "https://www.contratacion.euskadi.eus/webkpe00-kperoc/es/ac71aBusquedaRegistrosWar/empresa/07352",
      "_links": {
        "self": {
          "name": "DRONEGAN, S.L.",
          "href": "https://api.euskadi.eus/procurements/companies/07352"
        }
      }
    },
    {
      "name": "TIK TAK FILM STUDIO KOOP. ELK. TXIKIA",
      "registrationNumber": "06420",
      "identificationNumber": "F01571652",
      "address": "C/Las Escuelas 10, oficina 2",
      "location": {
        "postalCode": "01001",
        "municipality": "Vitoria-Gasteiz",
        "county": "Araba/Álava",
        "municipalityId": "059",
        "countyId": "01"
      },
      "economicActivities": [
        {
          "id": "1.961.1",
          "name": "Producción de películas cinematográficas (incluso vídeos)",
          "_links": {
            "self": {
              "name": "Producción de películas cinematográficas (incluso vídeos)",
              "href": "https://api.euskadi.eus/procurements/companies/economic-activities/1.961.1"
            }
          }
        },
        {
          "id": "1.966.9",
          "name": "Otros servicios culturales n.c.o.p",
          "_links": {
            "self": {
              "name": "Otros servicios culturales n.c.o.p",
              "href": "https://api.euskadi.eus/procurements/companies/economic-activities/1.966.9"
            }
          }
        }
      ],
      "certificateStartDate": "2020-11-09",
      "certificateEndDate": "2021-05-06",
      "object": "LA REALIZACIÓN DE PRODUCCIONES DE CONTENIDOS AUDIOVISUALES, CON ESPECIALIZACIÓN EN ANIMACIÓN STOP MOTION Y VFX",
      "mainEntityOfPage": "https://www.contratacion.euskadi.eus/webkpe00-kperoc/es/ac71aBusquedaRegistrosWar/empresa/06420",
      "_links": {
        "self": {
          "name": "TIK TAK FILM STUDIO KOOP. ELK. TXIKIA",
          "href": "https://api.euskadi.eus/procurements/companies/06420"
        }
      }
    },
    {
      "name": "SACINE EQUIPAMIENTOS INDUSTRIALES, S.L.",
      "registrationNumber": "07350",
      "identificationNumber": "B95464194",
      "address": "UGALDE 23",
      "location": {
        "postalCode": "48012",
        "municipality": "Bilbao",
        "county": "Bizkaia",
        "municipalityId": "020",
        "countyId": "48"
      },
      "economicActivities": [
        {
          "id": "1.617.9",
          "name": "Venta al por mayor interindustrial de otros productos n.c.o.p",
          "_links": {
            "self": {
              "name": "Venta al por mayor interindustrial de otros productos n.c.o.p",
              "href": "https://api.euskadi.eus/procurements/companies/economic-activities/1.617.9"
            }
          }
        }
      ],
      "certificateStartDate": "2020-11-09",
      "certificateEndDate": "2021-04-21",
      "object": "EL COMERCIO MAYORISTA Y MINORISTA DE TODO TIPO DE EQUIPAMIENTOS INDUSTRIALES Y COMERCIALES, INCLUSO SU IMPORTACIÓN Y EXPORTACIÓN. EL MONTAJE DE DICHOS EQUIPAMIENTOS; EL ASESORAMIENTO, GESTIÓN, LA PROMOCIÓN, VENTA, INSTALACIÓN, PUESTA EN MARCHA Y MANTENIMIENTO DE TODO TIPO DE EQUIPAMIENTOS INDUSTRIALES",
      "mainEntityOfPage": "https://www.contratacion.euskadi.eus/webkpe00-kperoc/es/ac71aBusquedaRegistrosWar/empresa/07350",
      "_links": {
        "self": {
          "name": "SACINE EQUIPAMIENTOS INDUSTRIALES, S.L.",
          "href": "https://api.euskadi.eus/procurements/companies/07350"
        }
      }
    },
    {
      "name": "PENINSULA CORPORATE INNOVATION, S.L.",
      "registrationNumber": "06590",
      "identificationNumber": "B66585613",
      "address": "Plaza Pau Vila, 1",
      "location": {
        "postalCode": "08039",
        "municipality": "Barcelona",
        "county": "Barcelona",
        "municipalityId": "019",
        "countyId": "08"
      },
      "economicActivities": [
        {
          "id": "1.849.9",
          "name": "Otros servicios independientes n.c.o.p",
          "_links": {
            "self": {
              "name": "Otros servicios independientes n.c.o.p",
              "href": "https://api.euskadi.eus/procurements/companies/economic-activities/1.849.9"
            }
          }
        },
        {
          "id": "1.861.2",
          "name": "Alquiler de locales industriales y otros alquileres n.c.o.p",
          "_links": {
            "self": {
              "name": "Alquiler de locales industriales y otros alquileres n.c.o.p",
              "href": "https://api.euskadi.eus/procurements/companies/economic-activities/1.861.2"
            }
          }
        },
        {
          "id": "1.933.9",
          "name": "Otras actividades de enseñanza tales como idiomas, mecanografía",
          "_links": {
            "self": {
              "name": "Otras actividades de enseñanza tales como idiomas, mecanografía",
              "href": "https://api.euskadi.eus/procurements/companies/economic-activities/1.933.9"
            }
          }
        }
      ],
      "certificateStartDate": "2020-11-08",
      "certificateEndDate": "2021-05-08",
      "object": "1. LA INFORMÁTICA, TELECOMUNICACIONES Y OFIMÁTICA. 2. LA INVESTIGACIÓN, DESARROLLO E INNOVACIÓN. 3. LAS ACTIVIDADES CIENTÍFICAS Y TÉCNICAS",
      "mainEntityOfPage": "https://www.contratacion.euskadi.eus/webkpe00-kperoc/es/ac71aBusquedaRegistrosWar/empresa/06590",
      "_links": {
        "self": {
          "name": "PENINSULA CORPORATE INNOVATION, S.L.",
          "href": "https://api.euskadi.eus/procurements/companies/06590"
        }
      }
    }
  ]
}