{
  "totalItems": 9042,
  "totalPages": 905,
  "currentPage": 843,
  "itemsOfPage": 10,
  "items": [
    {
      "name": "CONSTRUCCIONES BIZKALDE, S.L.",
      "registrationNumber": "02550",
      "identificationNumber": "B48999353",
      "address": "C/ BUENOS AIRES, 12 - 1º",
      "location": {
        "postalCode": "48001",
        "municipality": "Bilbao",
        "county": "Bizkaia",
        "municipalityId": "020",
        "countyId": "48"
      },
      "object": "construcción",
      "mainEntityOfPage": "https://www.contratacion.euskadi.eus/webkpe00-kperoc/es/ac71aBusquedaRegistrosWar/empresa/02550",
      "_links": {
        "self": {
          "name": "CONSTRUCCIONES BIZKALDE, S.L.",
          "href": "https://api.euskadi.eus/procurements/companies/02550"
        }
      }
    },
    {
      "name": "BETI GORANTZ, S.L.",
      "registrationNumber": "02569",
      "identificationNumber": "B95166328",
      "address": "C/ BAILÉN, 5 -SOT. IZ.",
      "location": {
        "postalCode": "48003",
        "municipality": "Bilbao",
        "county": "Bizkaia",
        "municipalityId": "020",
        "countyId": "48"
      },
      "object": "ENSEÑANZA-EDUCACIÓN INFANTIL",
      "mainEntityOfPage": "https://www.contratacion.euskadi.eus/webkpe00-kperoc/es/ac71aBusquedaRegistrosWar/empresa/02569",
      "_links": {
        "self": {
          "name": "BETI GORANTZ, S.L.",
          "href": "https://api.euskadi.eus/procurements/companies/02569"
        }
      }
    },
    {
      "name": "BIZKAIKO ZABOR  BERZIKLATEGIA, S.L.",
      "registrationNumber": "02571",
      "identificationNumber": "B48907885",
      "address": "POLÍGONO INDUSTRIAL ZUBIETA",
      "location": {
        "postalCode": "48340",
        "municipality": "Amorebieta-Etxano",
        "county": "Bizkaia",
        "municipalityId": "003",
        "countyId": "48"
      },
      "object": "PENDIENTE",
      "mainEntityOfPage": "https://www.contratacion.euskadi.eus/webkpe00-kperoc/es/ac71aBusquedaRegistrosWar/empresa/02571",
      "_links": {
        "self": {
          "name": "BIZKAIKO ZABOR  BERZIKLATEGIA, S.L.",
          "href": "https://api.euskadi.eus/procurements/companies/02571"
        }
      }
    },
    {
      "name": "SIEMSA NORTE, S.A.",
      "registrationNumber": "02572",
      "identificationNumber": "A48482087",
      "address": "PUERTO REAL BIDEA, 1",
      "location": {
        "postalCode": "48950",
        "municipality": "Erandio",
        "county": "Bizkaia",
        "municipalityId": "902",
        "countyId": "48"
      },
      "object": ".",
      "mainEntityOfPage": "https://www.contratacion.euskadi.eus/webkpe00-kperoc/es/ac71aBusquedaRegistrosWar/empresa/02572",
      "_links": {
        "self": {
          "name": "SIEMSA NORTE, S.A.",
          "href": "https://api.euskadi.eus/procurements/companies/02572"
        }
      }
    },
    {
      "name": "JOSÉ IGNACIO ANGUIANO LÓPEZ DE MUNAIN",
      "registrationNumber": "02593",
      "identificationNumber": "16261681Z",
      "address": "C/ FCO. JAVIER LANDABURU, 58 - 2 I",
      "location": {
        "postalCode": "01010",
        "municipality": "Vitoria-Gasteiz",
        "county": "Araba/Álava",
        "municipalityId": "059",
        "countyId": "01"
      },
      "object": "Cualquiera",
      "mainEntityOfPage": "https://www.contratacion.euskadi.eus/webkpe00-kperoc/es/ac71aBusquedaRegistrosWar/empresa/02593",
      "_links": {
        "self": {
          "name": "JOSÉ IGNACIO ANGUIANO LÓPEZ DE MUNAIN",
          "href": "https://api.euskadi.eus/procurements/companies/02593"
        }
      }
    },
    {
      "name": "PABLO MATEOS GIL",
      "registrationNumber": "02594",
      "identificationNumber": "16302143L",
      "address": "C/ RAFAEL ALBERTI, 22 -4D",
      "location": {
        "postalCode": "01010",
        "municipality": "Vitoria-Gasteiz",
        "county": "Araba/Álava",
        "municipalityId": "059",
        "countyId": "01"
      },
      "object": "culaquiera\r\n",
      "mainEntityOfPage": "https://www.contratacion.euskadi.eus/webkpe00-kperoc/es/ac71aBusquedaRegistrosWar/empresa/02594",
      "_links": {
        "self": {
          "name": "PABLO MATEOS GIL",
          "href": "https://api.euskadi.eus/procurements/companies/02594"
        }
      }
    },
    {
      "name": "QUAVITAE BIZI-KALITATE, S.L.",
      "registrationNumber": "02595",
      "identificationNumber": "B01286525",
      "address": "DIPUTACIÓN FORAL, 4",
      "location": {
        "postalCode": "01001",
        "municipality": "Vitoria-Gasteiz",
        "county": "Araba/Álava",
        "municipalityId": "059",
        "countyId": "01"
      },
      "object": "11",
      "mainEntityOfPage": "https://www.contratacion.euskadi.eus/webkpe00-kperoc/es/ac71aBusquedaRegistrosWar/empresa/02595",
      "_links": {
        "self": {
          "name": "QUAVITAE BIZI-KALITATE, S.L.",
          "href": "https://api.euskadi.eus/procurements/companies/02595"
        }
      }
    },
    {
      "name": "CLÍNICA GUIMÓN, S.A.",
      "registrationNumber": "02623",
      "identificationNumber": "A48257828",
      "address": "C/ MANUEL ALLENDE, 24",
      "location": {
        "postalCode": "48010",
        "municipality": "Bilbao",
        "county": "Bizkaia",
        "municipalityId": "020",
        "countyId": "48"
      },
      "object": "HOSPITAL ESPECIALIZADOI",
      "mainEntityOfPage": "https://www.contratacion.euskadi.eus/webkpe00-kperoc/es/ac71aBusquedaRegistrosWar/empresa/02623",
      "_links": {
        "self": {
          "name": "CLÍNICA GUIMÓN, S.A.",
          "href": "https://api.euskadi.eus/procurements/companies/02623"
        }
      }
    },
    {
      "name": "GOURMET COMEDORES, S.L.",
      "registrationNumber": "02624",
      "identificationNumber": "B48522866",
      "address": "AVDA. DE LOS CHOPOS, S/N (POLIDEPORTIVO FADURA)",
      "location": {
        "postalCode": "48990",
        "municipality": "Getxo",
        "county": "Bizkaia",
        "municipalityId": "044",
        "countyId": "48"
      },
      "object": "11",
      "mainEntityOfPage": "https://www.contratacion.euskadi.eus/webkpe00-kperoc/es/ac71aBusquedaRegistrosWar/empresa/02624",
      "_links": {
        "self": {
          "name": "GOURMET COMEDORES, S.L.",
          "href": "https://api.euskadi.eus/procurements/companies/02624"
        }
      }
    },
    {
      "name": "PRODUCCIONES EMBI, S.L.",
      "registrationNumber": "02625",
      "identificationNumber": "B95179040",
      "address": "C/ RODRÍGUEZ ARIAS, 61 -ENTREPLANTA IZDA.",
      "location": {
        "postalCode": "48013",
        "municipality": "Bilbao",
        "county": "Bizkaia",
        "municipalityId": "020",
        "countyId": "48"
      },
      "object": "pte",
      "mainEntityOfPage": "https://www.contratacion.euskadi.eus/webkpe00-kperoc/es/ac71aBusquedaRegistrosWar/empresa/02625",
      "_links": {
        "self": {
          "name": "PRODUCCIONES EMBI, S.L.",
          "href": "https://api.euskadi.eus/procurements/companies/02625"
        }
      }
    }
  ]
}