{
  "totalItems": 9042,
  "totalPages": 905,
  "currentPage": 296,
  "itemsOfPage": 10,
  "items": [
    {
      "name": "ECLAT LIMPIEZA, S.A.",
      "registrationNumber": "01371",
      "identificationNumber": "A20436085",
      "address": "P.E.ZUATZU.Zuatzu kalea nº 6. Ed. Bidasoa, pl.2. Ofic.3",
      "location": {
        "postalCode": "20018",
        "municipality": "Donostia / San Sebastián",
        "county": "Gipuzkoa",
        "municipalityId": "069",
        "countyId": "20"
      },
      "economicActivities": [
        {
          "id": "1.922",
          "name": "Servicios de limpieza",
          "_links": {
            "self": {
              "name": "Servicios de limpieza",
              "href": "https://api.euskadi.eus/procurements/companies/economic-activities/1.922"
            }
          }
        },
        {
          "id": "1.922.1",
          "name": "Servicios de limpieza de interiores",
          "_links": {
            "self": {
              "name": "Servicios de limpieza de interiores",
              "href": "https://api.euskadi.eus/procurements/companies/economic-activities/1.922.1"
            }
          }
        }
      ],
      "certificateStartDate": "2025-09-08",
      "certificateEndDate": "2026-03-04",
      "object": "LA LIMPIEZA Y MANTENIMIENTO EN GENERAL DE TODO TIPO DE EDIFICIOS, VIVIENDAS, LOCALES Y OFICINAS, LA REALIZACIÓN DE ESTUDIOS Y PROYECTOS DE INGENIERÍA, PROYECTOS DE OBRA, INSTALACIONES INDUSTRIALES Y ELÉCTRICAS.",
      "mainEntityOfPage": "https://www.contratacion.euskadi.eus/webkpe00-kperoc/es/ac71aBusquedaRegistrosWar/empresa/01371",
      "_links": {
        "self": {
          "name": "ECLAT LIMPIEZA, S.A.",
          "href": "https://api.euskadi.eus/procurements/companies/01371"
        }
      }
    },
    {
      "name": "ALTAN PHARMACEUTICALS, S.A.",
      "registrationNumber": "03499",
      "identificationNumber": "A82001801",
      "address": "COLQUIDE, 6. PORTAL 2, PLANTA 1ª , 1º F",
      "location": {
        "postalCode": "28231",
        "municipality": "Rozas de Madrid, Las",
        "county": "Madrid",
        "municipalityId": "127",
        "countyId": "28"
      },
      "economicActivities": [
        {
          "id": "1.254.2",
          "name": "Fabricación de especialidades y otros productos farmacéuticos",
          "_links": {
            "self": {
              "name": "Fabricación de especialidades y otros productos farmacéuticos",
              "href": "https://api.euskadi.eus/procurements/companies/economic-activities/1.254.2"
            }
          }
        },
        {
          "id": "1.614.1",
          "name": "Venta al por mayor de productos farmacéuticos y medicamentos",
          "_links": {
            "self": {
              "name": "Venta al por mayor de productos farmacéuticos y medicamentos",
              "href": "https://api.euskadi.eus/procurements/companies/economic-activities/1.614.1"
            }
          }
        },
        {
          "id": "1.936",
          "name": "Investigación científica y técnica",
          "_links": {
            "self": {
              "name": "Investigación científica y técnica",
              "href": "https://api.euskadi.eus/procurements/companies/economic-activities/1.936"
            }
          }
        }
      ],
      "certificateStartDate": "2025-09-08",
      "certificateEndDate": "2026-03-02",
      "object": "LA TITULARIDAD, ADQUISICIÓN, ALMACENAMIENTO Y COMERCIALIZACIÓN DE PRODUCTOS Y ESPECIALIDADES FARMACÉUTICAS ASÍ COMO LA ADQUISICIÓN, EXPLOTACIÓN Y ENAJENACIÓN DE BIENES INMUEBLES",
      "mainEntityOfPage": "https://www.contratacion.euskadi.eus/webkpe00-kperoc/es/ac71aBusquedaRegistrosWar/empresa/03499",
      "_links": {
        "self": {
          "name": "ALTAN PHARMACEUTICALS, S.A.",
          "href": "https://api.euskadi.eus/procurements/companies/03499"
        }
      }
    },
    {
      "name": "NEIKER-INSTITUTO VASCO DE INVESTIGACIÓN Y DESARROLLO AGRARIO, S.A.",
      "registrationNumber": "03046",
      "identificationNumber": "A48167902",
      "address": "BERREAGA, 1. PARQUE TECNOLÓGICO ZAMUDIO. PAB. 812",
      "location": {
        "postalCode": "48160",
        "municipality": "Derio",
        "county": "Bizkaia",
        "municipalityId": "901",
        "countyId": "48"
      },
      "economicActivities": [
        {
          "id": "1.936",
          "name": "Investigación científica y técnica",
          "_links": {
            "self": {
              "name": "Investigación científica y técnica",
              "href": "https://api.euskadi.eus/procurements/companies/economic-activities/1.936"
            }
          }
        }
      ],
      "certificateStartDate": "2025-09-08",
      "certificateEndDate": "2026-03-04",
      "object": "1º DESARROLLAR ACTIVIDADES DE INVESTIGACIÓN Y REALIZAR ESTUDIOS EN MATERIA DE CIENCIAS AGRARIAS, ACUÁTICAS, AMBIENTALES Y EN GENERAL DE LOS RECURSOS NATURALES, ASÍC OMO EN TECNOLOGÍA AGRARIA, PESQUERA Y ALIMENTARIA; 2º PRESTAR ASESORAMIENTO TÉCNICO A LAS ADMINISTRACIONES PÚBLICAS, A LAS EMPRESAS, EXPLOTACIONES E INDUSTRIAS DE LOS SECTORES AGRARIO, PESQUERO Y ALIMENTARIO; 3º ESTABLECER LOS PROCESOS DE FORMACIÓN, CAPACITACIÓN Y ESPECIALIZACIÓN PROFESIONAL QUE PERMITAN LA ASIMILACIÓN Y APLICACIÓN DE NUEVAS TÉCNICAS Y TECNOLOGÍAS EN LOS SECTORES AGRARIO, PESQUERO Y ALIMENTARIO; 4º DESARROLLAR ACTIVIDADES DE CONTROL, SEGUIMIENTO Y EVALUACIÓN DE LA CALIDAD Y EL CUMPLIMIENTO DE LAS NORMAS Y REQUISITOS TÉCNICOS EN LAS ACTIVIDADES  DE PRODUCCIÓN, TRANSFORMACIÓN Y COMERCIALIZACIÓN DE PRODUCTOS AGRARIOS, PESQUEROS Y ALIMENTARIOS; 5º DESARROLLAR ACTIVIDADES DE PROMOCIÓN Y PUBLICIDAD DE PRODUCTOS AGRARIOS, PESQUEROS Y ALIMENTARIOS; 6º PARA EL CUMPLIMIENTO DE SU OBJETO SOCIAL, LA SOCIEDAD PODRÁ PARTICIPAR EN EL CAPITAL SOCIAL DE EMPRESAS DE PARTICULAR INTERÉS EN LAS CONDICIONES QUE EN CADA CASO SE DETERMINEN.\n",
      "mainEntityOfPage": "https://www.contratacion.euskadi.eus/webkpe00-kperoc/es/ac71aBusquedaRegistrosWar/empresa/03046",
      "_links": {
        "self": {
          "name": "NEIKER-INSTITUTO VASCO DE INVESTIGACIÓN Y DESARROLLO AGRARIO, S.A.",
          "href": "https://api.euskadi.eus/procurements/companies/03046"
        }
      }
    },
    {
      "name": "ADRIAN DE MERICIS PRIETO",
      "registrationNumber": "10320",
      "identificationNumber": "72743609Z",
      "address": "los herran 18, 3c",
      "location": {
        "postalCode": "01004",
        "municipality": "Vitoria-Gasteiz",
        "county": "Araba/Álava",
        "municipalityId": "059",
        "countyId": "01"
      },
      "economicActivities": [
        {
          "id": "1.999",
          "name": "Otros servicios n.c.o.p",
          "_links": {
            "self": {
              "name": "Otros servicios n.c.o.p",
              "href": "https://api.euskadi.eus/procurements/companies/economic-activities/1.999"
            }
          }
        }
      ],
      "certificateStartDate": "2025-09-08",
      "certificateEndDate": "2026-03-06",
      "object": "OTROS SERVICIOS N.C.O.P.",
      "mainEntityOfPage": "https://www.contratacion.euskadi.eus/webkpe00-kperoc/es/ac71aBusquedaRegistrosWar/empresa/10320",
      "_links": {
        "self": {
          "name": "ADRIAN DE MERICIS PRIETO",
          "href": "https://api.euskadi.eus/procurements/companies/10320"
        }
      }
    },
    {
      "name": "MUGA ARQUITECTURA, S. COOP. PEQUEÑA",
      "registrationNumber": "06415",
      "identificationNumber": "F95885950",
      "address": "CALLE LA SALVE, 15, BAJO DCHA",
      "location": {
        "postalCode": "48007",
        "municipality": "Bilbao",
        "county": "Bizkaia",
        "municipalityId": "020",
        "countyId": "48"
      },
      "economicActivities": [
        {
          "id": "1.843.2",
          "name": "Servicios técnicos de arquitectura y urbanismo",
          "_links": {
            "self": {
              "name": "Servicios técnicos de arquitectura y urbanismo",
              "href": "https://api.euskadi.eus/procurements/companies/economic-activities/1.843.2"
            }
          }
        }
      ],
      "certificateStartDate": "2025-09-08",
      "certificateEndDate": "2026-03-02",
      "object": "LA PRESTACIÓN DE SERVICIOS DE TRABAJOS EN EL ÁMBITO DE LA CONSTRUCCIÓN, ARQUITECTURA Y COORDINACIÓN DE GREMIOS, DE ACUERDO CON EL INTERÉS DEL PROMOTOR Y EN EL MARCO DE LA NORMATIVA APLICABLE, HACIENDO CONSTAR QUE PARA EL EJERCICIO DE LA ACTIVIDAD LABORAL DENTRO DE LA COOPERATIVA NO SE NECESITA ESTAR COLEGIADO NI PERTENECER A NINGÚN COLEGIO PROFESIONAL. OFRECER ASISTENCIA TÉCNICA Y GRÁFICA A OTRAS EMPRESAS.",
      "mainEntityOfPage": "https://www.contratacion.euskadi.eus/webkpe00-kperoc/es/ac71aBusquedaRegistrosWar/empresa/06415",
      "_links": {
        "self": {
          "name": "MUGA ARQUITECTURA, S. COOP. PEQUEÑA",
          "href": "https://api.euskadi.eus/procurements/companies/06415"
        }
      }
    },
    {
      "name": "APLICACIONES ELECTRONICAS QUASAR, S.A.",
      "registrationNumber": "09091",
      "identificationNumber": "A28620649",
      "address": "C/ MARGARITA SALAS, 24",
      "location": {
        "postalCode": "28919",
        "municipality": "Leganés",
        "county": "Madrid",
        "municipalityId": "074",
        "countyId": "28"
      },
      "economicActivities": [
        {
          "id": "1.351.2",
          "name": "Fabricación de aparatos y equipo de radiocomunicación, radiodifusión",
          "_links": {
            "self": {
              "name": "Fabricación de aparatos y equipo de radiocomunicación, radiodifusión",
              "href": "https://api.euskadi.eus/procurements/companies/economic-activities/1.351.2"
            }
          }
        },
        {
          "id": "1.504.7",
          "name": "Instalaciones telefónicas, telegráficas, televisión, etc",
          "_links": {
            "self": {
              "name": "Instalaciones telefónicas, telegráficas, televisión, etc",
              "href": "https://api.euskadi.eus/procurements/companies/economic-activities/1.504.7"
            }
          }
        }
      ],
      "certificateStartDate": "2025-09-08",
      "certificateEndDate": "2026-03-08",
      "object": "EL DESARROLLO, FABRICACIÓN, COMERCIALIZACIÓN Y ALQUILER DE SISTEMAS Y EQUIPOS ELECTRÓNICOS E INFORMÁTICOS Y DE SISTEMAS Y APLICACIONES INFORMÁTICAS.",
      "mainEntityOfPage": "https://www.contratacion.euskadi.eus/webkpe00-kperoc/es/ac71aBusquedaRegistrosWar/empresa/09091",
      "_links": {
        "self": {
          "name": "APLICACIONES ELECTRONICAS QUASAR, S.A.",
          "href": "https://api.euskadi.eus/procurements/companies/09091"
        }
      }
    },
    {
      "name": "INSTALACIONES DE CONTROL BACTERIOLOGICO, S. L.",
      "registrationNumber": "07497",
      "identificationNumber": "B95364378",
      "address": "POLG. AURRERA MANZ. 3 PAB. 79",
      "location": {
        "postalCode": "48510",
        "municipality": "Valle de Trápaga-Trapagaran",
        "county": "Bizkaia",
        "municipalityId": "080",
        "countyId": "48"
      },
      "economicActivities": [
        {
          "id": "1.921.4",
          "name": "Servicios de alcantarillado, evacuación y depuración de aguas residuales",
          "_links": {
            "self": {
              "name": "Servicios de alcantarillado, evacuación y depuración de aguas residuales",
              "href": "https://api.euskadi.eus/procurements/companies/economic-activities/1.921.4"
            }
          }
        }
      ],
      "certificateStartDate": "2025-09-07",
      "certificateEndDate": "2026-03-07",
      "object": "A) INSTALACIÓN DE SISTEMAS DE TRATAMIENTO, DEPURACIÓN, RECUPERACIÓN, ANÁLISIS Y CONTROL DEL AGUA. SISTEMAS DE DESINFECCIÓN GENERAL DE ANTIINCRUSTANTES ELECTRÓNICO. FILTROS DE AGUA ELECTRÓNICOS Y TODO LO RELACIONADO CON LA DEPURACIÓN DE LÍQUIDOS Y ELEMENTOS. B) LA INSTALACIÓN Y VENTA DE EQUIPOS DE FILTRACIÓN DE AGUA, PLANTAS PURIFICADORAS, ASÍ COMO SUAVIZACIÓN, ÓSMOSIS INVERSA, OZONO Y ULTRAVIOLETA, PARA PRODUCCIÓN PURIFICADA. C) LA GESTIÓN DEL CICLO INTEGRAL DEL AGUA, CAPTACIÓN, TRANSPORTE, TRABAJOS TÉCNICOS, GESTIÓN DE CLIENTES Y FACTURACIÓN. D) EL MANTENIMIENTO, REPARACIÓN, COLOCACIÓN, REVISIÓN Y CONTROL DE LOS EQUIPOS. E) LA COMPRA Y VENTA DE TODO TIPO DE EQUIPOS DE MÁQUINAS E INDUSTRIALES, PRODUCTOS INDUSTRIALES Y QUÍMICOS Y LA REPRESENTACIÓN DE TODOS ESTOS PRODUCTOS EN LA ZONA DE LA COMUNIDAD ECONÓMICA EUROPEA",
      "mainEntityOfPage": "https://www.contratacion.euskadi.eus/webkpe00-kperoc/es/ac71aBusquedaRegistrosWar/empresa/07497",
      "_links": {
        "self": {
          "name": "INSTALACIONES DE CONTROL BACTERIOLOGICO, S. L.",
          "href": "https://api.euskadi.eus/procurements/companies/07497"
        }
      }
    },
    {
      "name": "VIALINE GESTIÓN, SOCIEDAD LIMITADA",
      "registrationNumber": "07831",
      "identificationNumber": "B39761788",
      "address": "AVDA. PALENCIA 1",
      "location": {
        "postalCode": "39300",
        "municipality": "Torrelavega",
        "county": "Cantabria",
        "municipalityId": "087",
        "countyId": "39"
      },
      "economicActivities": [
        {
          "id": "1.849.7",
          "name": "Servicios de gestión administrativa",
          "_links": {
            "self": {
              "name": "Servicios de gestión administrativa",
              "href": "https://api.euskadi.eus/procurements/companies/economic-activities/1.849.7"
            }
          }
        }
      ],
      "certificateStartDate": "2025-09-07",
      "certificateEndDate": "2026-03-07",
      "object": "- LA PRESTACIÓN DE ASESORAMIENTO: GESTIÓN CONTABLE, TRIBUTARIO, JURÍDICO, ECONÓMICO, ADMINISTRATIVO Y DE CUALQUIER OTRO TIPO RELACIONADO CON EMPRESAS MERCANTILES O ADMINISTRACIONES PÚBLICAS. - LA GESTIÓN Y TRAMITACIÓN DE RECURSOS FRENTE A SANCIONES ADMINISTRATIVAS. LA INTERMEDIACIÓN Y COORDINACIÓN EN LA PRESTACIÓN DE SERVICIOS DE ASESORAMIENTO EN MATERIA DE TRÁFICO. - LA REALIZACIÓN DE TODA CLASE DE ACTIVIDADES INMOBILIARIAS. - LA INSTALACIÓN Y MANTENIMIENTO DE APARATOS DE TELECOMUNICACIONES, SISTEMAS DE SEGURIDAD CONTRA ROBO E INTRUSIÓN, CIRCUITO CERRADO DE TELEVISIÓN, CONTROL DE ACCESOS, SISTEMAS ELECTRÓNICO Y SISTEMAS DE DETECCIÓN DE INCENDIOS Y ACCIDENTE. - LA PRESTACIÓN DE TODA CLASE DE SERVICIOS RELACIONADOS CON LA INFORMÁTICA Y LA ELECTRÓNICA, TALES COMO PROGRAMACIÓN, ASESORAMIENTO INFORMÁTICO, VENTA, REPARACIÓN Y MANTENIMIENTO DE EQUIPOS INFORMÁTICOS Y SOFTWARE. - INSTALACIONES TÉRMICAS EN EDIFICACIÓN, CLIMATIZACIÓN, AIRE ACONDICIONADO, CALEFACCIÓN, FONTANERÍA E INSTALACIONES ELÉCTRICAS DE BAJA TENSIÓN. - LA PRESTACIÓN DE SERVICIOS DE ESTUDIO Y ANÁLISIS DE PROCESOS PARA SU TRATAMIENTO MECÁNICO, DE PROGRAMACIÓN PARA EQUIPOS ELECTRÓNICOS, DE REGISTRO DE DATOS EN SOPORTES DE ENTRADA PARA ORDENADORES, ASÍ COMO LA VENTA DE PROGRAMAS, EL PROCESO DE DATOS POR CUENTA DE TERCEROS Y OTROS SERVICIOS INDEPENDIENTES DE ELABORACIÓN DE DATOS Y FABULACIÓN. - LA COMPRA, VENTA, IMPORTACIÓN, EXPORTACIÓN, DISTRIBUCIÓN, ALMACENAMIENTO, FABRICACIÓN, COMERCIALIZACIÓN, INVESTIGACIÓN, INGENIERÍA, DISEÑO, DESARROLLO, INTEGRACIÓN, REALIZACIÓN, INSTALACIÓN, GARANTÍA, MANTENIMIENTO, REPARACIÓN Y PRESTACIÓN DE SERVICIOS DE PROYECTOS DE INGENIERÍA DE SISTEMAS ELECTRÓNICO E INFORMÁTICOS; APLICACIONES DE SISTEMAS DE ELECTRÓNICA E INFORMÁTICA; PROYECTOS RELACIONADOS CON EL SISTEMAS DE CONTROL EN TIEMPO REAL, YA SEA TERRESTRE, MARÍTIMO O AÉREO; PROYECTOS DE SISTEMAS DE CONTROL RELACIONADOS EN COMPLEJOS HIDROELÉCTRICOS, PETROQUÍMICOS, ENERGÉTICOS E INDUSTRIALES EN GENERAL Y DE CUALQUIER CLASE; PROYECTOS RELACIONADOS CON LA ROBÓTICA Y AUTOMATIZACIÓN INDUSTRIAL, SISTEMAS DE ENSAYOS DE MOTORES Y NACIONALIZACIÓN DE LA PRODUCCIÓN; SISTEMAS Y PRODUCTOS REFERIDOS AL DISEÑO Y FABRICACIÓN ASISTIDA POR ORDENADOR, PROYECTOS Y SISTEMAS DE SIMULACIÓN, PRESENTACIÓN DE DATOS, INFORMACIÓN E   IMÁGENES; VALOR AÑADIDO INFORMÁTICOS Y DE TELECOMUNICACIONES. - EL COMERCIO AL POR MENOR DE MATERIAL Y APARATOS ELÉCTRICOS, ELECTRÓNICOS Y OTROS APARATOS DE USO DOMÉSTICO ACCIONADOS POR OTRO TIPO DE ENERGÍA DISTINTA DE LA ELÉCTRICA, Y MÁS CONCRETAMENTE TELÉFONOS FIJOS Y MÓVILES, Y ACCESORIOS DE TELEFONÍA MÓVIL. - DENTRO DEL COMERCIO TAMBIÉN SE VENDERÁN ARTÍCULOS DESTINADOS A LA SEGURIDAD, TALES COMO ALARMAS, CAJAS FUERTES, DETECTORES Y SENSORES. - LA MEDIACIÓN CON OPERADORES TELEFÓNICOS, ASÍ COMO LA RECARGA DE SALDO EN LOS TELÉFONOS MÓVILES DE PREPAGO. - EL TRABAJO DE INSTALACIONES ELÉCTRICAS EN GENERAL, INSTALACIONES DE REDES TELEGRÁFICAS, TELEFONÍA SIN HILOS Y TELEVISIÓN, EN LA CUAL SE HARÁ LA INSTALACIÓN Y MANTENIMIENTO DE APARATOS, DISPOSITIVOS Y SISTEMAS DE SEGURIDAD, TANTO DE ROBOS COMO DE INCENDIOS. - LA ORGANIZACIÓN E IMPARTICIÓN DE CURSOS DE FORMACIÓN PROFESIONAL. - LA ORGANIZACIÓN, TRAMITACIÓN Y/O IMPARTICIÓN DE CURSOS DE FORMACIÓN. ORGANIZACIÓN Y GESTIÓN DE INTERCAMBIOS DE SERVICIOS DE TRANSPORTE PÚBLICO DISCRECIONAL DE PERSONAS O MERCANCÍAS, UTILIZANDO CUALQUIER TIPO DE GESTIÓN DE EQUIPOS COMERCIALES. LA GESTIÓN, EL TRATAMIENTO Y EL CONTROL DE DATOS E INFORMACIÓN TRATADOS A TRAVÉS DE MEDIOS ELECTRÓNICOS. LA GESTIÓN DE SERVICIOS EN LAS ÁREAS DE ADMINISTRACIÓN FINANCIERA. GESTIÓN DE SERVICIOS DE FORMACIÓN Y SELECCIÓN. - LA PRESTACIÓN DE TODA CLASE DE SERVICIOS DE MEDIACIÓN, GESTIÓN Y ASESORÍA, LEGALMENTE PERMITIDOS Y RELACIONADOS CON LA SALUD, ASÍ COMO PRESTACIÓN DE SERVICIOS DE PREVENCIÓN DE RIESGOS LABORALES",
      "mainEntityOfPage": "https://www.contratacion.euskadi.eus/webkpe00-kperoc/es/ac71aBusquedaRegistrosWar/empresa/07831",
      "_links": {
        "self": {
          "name": "VIALINE GESTIÓN, SOCIEDAD LIMITADA",
          "href": "https://api.euskadi.eus/procurements/companies/07831"
        }
      }
    },
    {
      "name": "BILBAO DESIGN HUB, S.L.",
      "registrationNumber": "07527",
      "identificationNumber": "B95985982",
      "address": "Calle Licenciado Poza 55 - 7ª planta",
      "location": {
        "postalCode": "48013",
        "municipality": "Bilbao",
        "county": "Bizkaia",
        "municipalityId": "020",
        "countyId": "48"
      },
      "economicActivities": [
        {
          "id": "1.474",
          "name": "Artes gráficas (impresión gráfica)",
          "_links": {
            "self": {
              "name": "Artes gráficas (impresión gráfica)",
              "href": "https://api.euskadi.eus/procurements/companies/economic-activities/1.474"
            }
          }
        },
        {
          "id": "1.843.2",
          "name": "Servicios técnicos de arquitectura y urbanismo",
          "_links": {
            "self": {
              "name": "Servicios técnicos de arquitectura y urbanismo",
              "href": "https://api.euskadi.eus/procurements/companies/economic-activities/1.843.2"
            }
          }
        },
        {
          "id": "1.843.9",
          "name": "Otros servicios técnicos n.c.o.p",
          "_links": {
            "self": {
              "name": "Otros servicios técnicos n.c.o.p",
              "href": "https://api.euskadi.eus/procurements/companies/economic-activities/1.843.9"
            }
          }
        },
        {
          "id": "1.844",
          "name": "Servicios de publicidad, relaciones públicas y similares",
          "_links": {
            "self": {
              "name": "Servicios de publicidad, relaciones públicas y similares",
              "href": "https://api.euskadi.eus/procurements/companies/economic-activities/1.844"
            }
          }
        }
      ],
      "certificateStartDate": "2025-09-07",
      "certificateEndDate": "2026-03-07",
      "object": "CNAE: 7410.- ACTIVIDADES DE DISEÑO ESPECIALIZADO. OTRAS ACTIVIDADES: CNAE: 7311.-AGENCIAS DE PUBLICIDAD. CNAE: 7111.- SERVICIOS TÉCNICOS DE ARQUITECTURA",
      "mainEntityOfPage": "https://www.contratacion.euskadi.eus/webkpe00-kperoc/es/ac71aBusquedaRegistrosWar/empresa/07527",
      "_links": {
        "self": {
          "name": "BILBAO DESIGN HUB, S.L.",
          "href": "https://api.euskadi.eus/procurements/companies/07527"
        }
      }
    },
    {
      "name": "SERVIAZUA, S.L.",
      "registrationNumber": "09291",
      "identificationNumber": "B95779542",
      "address": "CL EUSKALHERRIA, 6",
      "location": {
        "postalCode": "48160",
        "municipality": "Derio",
        "county": "Bizkaia",
        "municipalityId": "901",
        "countyId": "48"
      },
      "economicActivities": [
        {
          "id": "1.756",
          "name": "Intermediarios del transporte",
          "_links": {
            "self": {
              "name": "Intermediarios del transporte",
              "href": "https://api.euskadi.eus/procurements/companies/economic-activities/1.756"
            }
          }
        }
      ],
      "certificateStartDate": "2025-09-07",
      "certificateEndDate": "2026-03-07",
      "object": "LA COMERCIALIZACIÓN DE SERVICIOS Y PRODUCTOS, ENTRE LOS QUE SE INCLUYEN LA ACTIVIDAD DE TRANSPORTE PROPIA O DE TERCEROS, POSTAL, DISEÑO GRÁFICO E IMPRESIÓN, EMBALAJE, PAPELERÍA Y MATERIAL INFORMÁTICO Y TELEFONÍA.",
      "mainEntityOfPage": "https://www.contratacion.euskadi.eus/webkpe00-kperoc/es/ac71aBusquedaRegistrosWar/empresa/09291",
      "_links": {
        "self": {
          "name": "SERVIAZUA, S.L.",
          "href": "https://api.euskadi.eus/procurements/companies/09291"
        }
      }
    }
  ]
}