{
  "totalItems": 9042,
  "totalPages": 905,
  "currentPage": 268,
  "itemsOfPage": 10,
  "items": [
    {
      "name": "RUBÉN BERRUETA GONZÁLEZ",
      "registrationNumber": "06994",
      "identificationNumber": "15391604G",
      "address": "Berrio-Otxoa nº11-2º",
      "location": {
        "postalCode": "48230",
        "municipality": "Elorrio",
        "county": "Bizkaia",
        "municipalityId": "032",
        "countyId": "48"
      },
      "economicActivities": [
        {
          "id": "1.659.7",
          "name": "Venta al por menor de semillas, abonos, flores, plantas y pequeños animales",
          "_links": {
            "self": {
              "name": "Venta al por menor de semillas, abonos, flores, plantas y pequeños animales",
              "href": "https://api.euskadi.eus/procurements/companies/economic-activities/1.659.7"
            }
          }
        },
        {
          "id": "1.979.4",
          "name": "Adiestramiento de animales y otros servicios de atención de animales",
          "_links": {
            "self": {
              "name": "Adiestramiento de animales y otros servicios de atención de animales",
              "href": "https://api.euskadi.eus/procurements/companies/economic-activities/1.979.4"
            }
          }
        },
        {
          "id": "2.826",
          "name": "Personal docente de enseñanzas diversas",
          "_links": {
            "self": {
              "name": "Personal docente de enseñanzas diversas",
              "href": "https://api.euskadi.eus/procurements/companies/economic-activities/2.826"
            }
          }
        }
      ],
      "certificateStartDate": "2025-09-18",
      "certificateEndDate": "2026-03-18",
      "object": "ADIESTRAMIENTO DE ANIMALES Y OTROS SERVICIOS DE ATENCIONES A ANIMALES DOMÉSTICOS",
      "mainEntityOfPage": "https://www.contratacion.euskadi.eus/webkpe00-kperoc/es/ac71aBusquedaRegistrosWar/empresa/06994",
      "_links": {
        "self": {
          "name": "RUBÉN BERRUETA GONZÁLEZ",
          "href": "https://api.euskadi.eus/procurements/companies/06994"
        }
      }
    },
    {
      "name": "PREVENCONTROL, S.A.",
      "registrationNumber": "08255",
      "identificationNumber": "A62071097",
      "address": "Carrer Sant Pau, 25",
      "location": {
        "postalCode": "08221",
        "municipality": "Terrassa",
        "county": "Barcelona",
        "municipalityId": "279",
        "countyId": "08"
      },
      "economicActivities": [
        {
          "id": "1.843.6",
          "name": "Inspección Técnica de Vehículos",
          "_links": {
            "self": {
              "name": "Inspección Técnica de Vehículos",
              "href": "https://api.euskadi.eus/procurements/companies/economic-activities/1.843.6"
            }
          }
        },
        {
          "id": "1.843.9",
          "name": "Otros servicios técnicos n.c.o.p",
          "_links": {
            "self": {
              "name": "Otros servicios técnicos n.c.o.p",
              "href": "https://api.euskadi.eus/procurements/companies/economic-activities/1.843.9"
            }
          }
        },
        {
          "id": "1.942.1",
          "name": "Consultorios médicos, centros de socorro sanitarios y urgencias",
          "_links": {
            "self": {
              "name": "Consultorios médicos, centros de socorro sanitarios y urgencias",
              "href": "https://api.euskadi.eus/procurements/companies/economic-activities/1.942.1"
            }
          }
        }
      ],
      "certificateStartDate": "2025-09-18",
      "certificateEndDate": "2026-03-18",
      "object": "LA PRESTACIÓN DE SERVICIOS DE PREVENCIÓN, EVALUACIONES LABORALES EN EMPRESAS, LA RECONSTRUCCIÓN DE ACCIDENTES LABORALES Y DE TRÁFICO, ESTUDIOS DE INGENIERÍA DEL TRÁFICO, ESTUDIOS DE PREVENCIÓN EN MATERIA DE SEGURIDAD VIARIA, ESTUDIOS ESTADÍSTICOS, ASESORAMIENTO PARA LA OBTENCIÓN DE CERTIFICADOS DE CALIDAD ISO, EDICIÓN DE REVISTAS ESPECIALIZADAS, ESTUDIOS MEDIOAMBIENTALES E IMPARTICIÓN DE FORMACIÓN EN TODOS LOS APARTADOS ANTERIORES QUE SE REALIZARÁN A TRAVÉS DE LOS CORRESPONDIENTES PROFESIONALES TITULADOS; LA CREACIÓN, GESTIÓN Y EXPLOTACIÓN DE SOFTWARE DE CUALQUIER CLASE Y, EN ESPECIAL, DE SOFTWARE RELACIONADO CON LAS ACTIVIDADES DESCRITAS EN EL PRESENTE ARTÍCULO; LA PRESTACIÓN Y EXPLOTACIÓN DE SERVICIOS Y TECNOLOGÍAS DE LA INFORMACIÓN Y LAS COMUNICACIONES; LA CREACIÓN, GESTIÓN Y EXPLOTACIÓN DE MATERIAL E-LEARNING; LA CREACIÓN, GESTIÓN Y EXPLOTACIÓN DE MATERIAL MULTIMEDIA DE CUALQUIER CLASE Y EN CUALQUIER SOPORTE, EN ESPECIAL LA CREACIÓN Y GRABACIÓN DE VÍDEOS EN CUALQUIER LENGUA, EN CUALQUIER FORMATO, SOBRE CUALQUIER ACTIVIDAD RELACIONADA DIRECTA O INDIRECTAMENTE CON EL OBJETO SOCIAL AQUÍ DESCRITO Y, EN ESPECIAL, LA CREACIÓN Y GRABACIÓN DE VÍDEOS EN ESPAÑOL, EUSKERA, GALLEGO Y CATALÁN, EN FORMATO MP4 Y SOBRE RIESGOS ESPECÍFICOS Y MEDIDAS PREVENTIVAS.",
      "mainEntityOfPage": "https://www.contratacion.euskadi.eus/webkpe00-kperoc/es/ac71aBusquedaRegistrosWar/empresa/08255",
      "_links": {
        "self": {
          "name": "PREVENCONTROL, S.A.",
          "href": "https://api.euskadi.eus/procurements/companies/08255"
        }
      }
    },
    {
      "name": "XILEMA PROGRAMAS, SLU",
      "registrationNumber": "06666",
      "identificationNumber": "B71239727",
      "address": "Río Arga 32, bajo",
      "location": {
        "postalCode": "31014",
        "municipality": "Pamplona/Iruña",
        "county": "Navarra",
        "municipalityId": "201",
        "countyId": "31"
      },
      "economicActivities": [
        {
          "id": "1.951",
          "name": "Asistencia y servicios sociales en centros residenciales",
          "_links": {
            "self": {
              "name": "Asistencia y servicios sociales en centros residenciales",
              "href": "https://api.euskadi.eus/procurements/companies/economic-activities/1.951"
            }
          }
        }
      ],
      "certificateStartDate": "2025-09-18",
      "certificateEndDate": "2026-03-12",
      "object": "ASISTENCIA E INCLUSIÓN SOCIAL DE LAS PERSONAS, FAMILIAS Y GRUPOS Y LA COOPERACIÓN INTERNACIONAL AL DESARROLLO, CON ESPECIAL ATENCIÓN Y CUIDADO A LAS REALIDADES DE MAYOR VULNERABILIDAD, FRAGILIDAD Y DESVENTAJA SOCIAL, MEDIANTE EL DESARROLLO DE ACTIVIDADES DE SERVICIOS SOCIALES CON Y SIN ALOJAMIENTO. LA PRESTACIÓN DE SERVICIOS Y DESARROLLO DE PROGRAMAS, PSICOSOCIALES Y EDUCATIVOS, PARA LA PROMOCIÓN DEL DESARROLLO INTEGRAL DE LAS PERSONAS. LA PRESTACIÓN DE SERVICIOS DE TERAPIAS Y LA GESTIÓN Y DESARROLLO DE PROGRAMAS DE ACCIÓN TERAPÉUTICA. GESTIÓN DE SERVICIOS, PROGRAMAS, Y CENTROS DE ASESORAMIENTO, CONSULTORÍA Y FORMACIÓN A PERSONAS, GRUPO, E INSTITUCIONES Y EMPRESAS DE NATURALEZA PÚBLICA O PRIVADA, EN RELACIÓN CON SERVICIOS DE ASISTENCIA SOCIAL",
      "mainEntityOfPage": "https://www.contratacion.euskadi.eus/webkpe00-kperoc/es/ac71aBusquedaRegistrosWar/empresa/06666",
      "_links": {
        "self": {
          "name": "XILEMA PROGRAMAS, SLU",
          "href": "https://api.euskadi.eus/procurements/companies/06666"
        }
      }
    },
    {
      "name": "EXTINVIT, S.L.",
      "registrationNumber": "10337",
      "identificationNumber": "B04951059",
      "address": "Avenida Los Huetos",
      "location": {
        "postalCode": "01010",
        "municipality": "Vitoria-Gasteiz",
        "county": "Araba/Álava",
        "municipalityId": "059",
        "countyId": "01"
      },
      "economicActivities": [
        {
          "id": "1.504.1",
          "name": "Instalaciones eléctricas en general",
          "_links": {
            "self": {
              "name": "Instalaciones eléctricas en general",
              "href": "https://api.euskadi.eus/procurements/companies/economic-activities/1.504.1"
            }
          }
        }
      ],
      "certificateStartDate": "2025-09-18",
      "certificateEndDate": "2026-03-18",
      "object": "TANTO DIRECTAMENTE COMO DE FORMA INDIRECTA, MEDIANTE LA TITULARIDAD DE ACCIONES O PARTICIPACIONES EN SOCIEDADES CON OBJETO IDÉNTICO O ANÁLOGO: INSTALACIÓN Y MANTENIMIENTO DE SISTEMAS, APARATOS Y DISPOSITIVOS DE SEGURIDAD Y DE PROTECCIÓN CONTRA INCENDIOS. -SERVICIOS DE INSTALACIONES ELÉCTRICAS Y SU MANTENIMIENTO. -SERVICIOS INTEGRALES A EDIFICIOS E INSTALACIONES. COMBINACIÓN DE SERVICIOS COMO LOS DE MANTENIMIENTO, REFORMAS, LIMPIEZA GENERAL DEL INTERIOR Y EXTERIOR DE INSTALACIONES, REALIZACIÓN DE REPARACIONES MENORES, PROTECCIÓN Y/O SEGURIDAD. - DIRECCIÓN Y EJECUCIÓN DE TODA CLASE DE OBRAS, MONTAJES, INSTALACIONES Y MANTENIMIENTO DE: FONTANERÍA, CALEFACCIÓN, PLACAS SOLARES, SISTEMAS CONTRA INCENDIOS, AGUA CALIENTE, SANITARIAS, AIRE ACONDICIONADO, COLECTORES, EQUIPOS Y CONDUCCIONES DE VENTILACIÓN, GAS, SISTEMAS DE ASPERSIÓN AUTOMÁTICA CONTRA INCENDIOS, EXTINTORES Y SU MANTENIMIENTO, ASÍ COMO CUALQUIER TIPO DE ACTOS Y OPERACIONES INDUSTRIALES, COMERCIALES Y FINANCIERAS QUE DIRECTA O INDIRECTAMENTE TENGA RELACIÓN CON LAS MISMAS. - DIRECCIÓN Y EJECUCIÓN DE TODA CLASE DE OBRAS, MONTAJES, INSTALACIONES Y MANTENIMIENTO DE OBRAS HIDRÁULICAS PARA APROVECHAR, ALMACENAR, ELEVAR, IMPULSAR O DISTRIBUIR AGUA, SU CANALIZACIÓN, TRANSPORTE Y DISTRIBUCIÓN INCLUYENDO INSTALACIONES DE TRATAMIENTO DE AGUAS Y GASES. -ENSAYOS Y ANÁLISIS TÉCNICOS (FÍSICOS, QUÍMICOS Y OTROS ENSAYOS ANALÍTICOS) DE TODO TIPO DE MATERIALES Y PRODUCTOS. -SERVICIOS DE COORDINACIÓN Y EJECUCIÓN DE TODA CLASE DE OBRAS, INSTALACIONES Y MANTENIMIENTO EN PLANTAS INDUSTRIALES, ESTACIONES DE SERVICIO Y ESTABLECIMIENTOS COMERCIALES O DE SERVICIOS EN GENERAL. SERVICIOS PRESTADOS TANTO DE FORMA DIRECTA COMO MEDIANTE LA CONTRATACIÓN DE TERCEROS. -CONSTRUCCIÓN DE REDES PARA FLUIDOS. CONSTRUCCIÓN DE REDES DE DISTRIBUCIÓN PARA EL TRANSPORTE DE FLUIDOS. -REPARACIÓN DE MAQUINARIA INDUSTRIAL. -OTRAS INSTALACIONES EN OBRAS DE CONSTRUCCIÓN. - COMERCIO AL POR MAYOR Y/O AL POR MENOR DE ALARMAS CONTRA INCENDIOS Y ROBOS. -SERVICIOS DE SISTEMAS DE SEGURIDAD, COMO ALARMAS CONTRA INCENDIOS, INCLUIDA SU COMERCIALIZACIÓN, INSTALACIÓN Y SU MANTENIMIENTO. -GESTIÓN Y ADMINISTRACIÓN DE LA PROPIEDAD INMOBILIARIA. -ALQUILER DE MAQUINARIA Y EQUIPO PARA LA CONSTRUCCIÓN E INGENIERÍA CIVIL. -SERVICIOS DE ALQUILER Y ARRENDAMIENTO DE BIENES TANGIBLES E INTANGIBLES NO FINANCIEROS. -LA COMPRAVENTA O PERMUTA, ADMINISTRACIÓN, GESTIÓN Y EXPLOTACIÓN DE TODO TIPO DE SOLARES, TERRENOS Y BIENES INMUEBLES, SEAN ESTOS RÚSTICOS O URBANOS. -LA PRESTACIÓN DE SERVICIOS DE GESTIÓN Y ADMINISTRACIÓN DE LAS EMPRESAS PARTICIPADAS, Y EN ESPECIAL, LAS DEL GRUPO EMPRESARIAL. LA ADQUISICIÓN, TENENCIA, DISFRUTE Y ADMINISTRACIÓN DE VALORES MOBILIARIOS Y CUALESQUIERA OTROS ACTIVOS FINANCIEROS, POR CUENTA PROPIA, EN TODO TIPO DE SOCIEDADES. - ACTIVIDADES INMOBILIARIAS. COMPRENDE EL EJERCICIO COMO ARRENDADOR, AGENTE O INTERMEDIARIO EN UNA O VARIAS DE LAS ACTIVIDADES COMO LO SON: VENTA O ADQUISICIÓN DE PROPIEDAD INMOBILIARIA, ALQUILER DE PROPIEDAD INMOBILIARIA, PROVISIÓN DE OTROS SERVICIOS RELACIONADOS CON LA PROPIEDAD INMOBILIARIA COMO LA TASACIÓN DE ÉSTA O EL EJERCICIO COMO AGENTE INMOBILIARIO FIDUCIARIO. LAS ACTIVIDADES DE ESTA SECCIÓN PUEDEN LLEVARSE A CABO CON BIENES PROPIOS O ARRENDADOS, POR CUENTA DE TERCEROS.",
      "mainEntityOfPage": "https://www.contratacion.euskadi.eus/webkpe00-kperoc/es/ac71aBusquedaRegistrosWar/empresa/10337",
      "_links": {
        "self": {
          "name": "EXTINVIT, S.L.",
          "href": "https://api.euskadi.eus/procurements/companies/10337"
        }
      }
    },
    {
      "name": "CUBICA MULTIMEDIA, S.L.",
      "registrationNumber": "10336",
      "identificationNumber": "B41863572",
      "address": "C/ Austria, 6 Bl.4 - 1ºD",
      "location": {
        "postalCode": "41012",
        "municipality": "Sevilla",
        "county": "Sevilla",
        "municipalityId": "091",
        "countyId": "41"
      },
      "economicActivities": [
        {
          "id": "1.474",
          "name": "Artes gráficas (impresión gráfica)",
          "_links": {
            "self": {
              "name": "Artes gráficas (impresión gráfica)",
              "href": "https://api.euskadi.eus/procurements/companies/economic-activities/1.474"
            }
          }
        },
        {
          "id": "1.845",
          "name": "Explotación electrónica por cuenta de terceros",
          "_links": {
            "self": {
              "name": "Explotación electrónica por cuenta de terceros",
              "href": "https://api.euskadi.eus/procurements/companies/economic-activities/1.845"
            }
          }
        },
        {
          "id": "1.989.2",
          "name": "Servicios de organización de congresos, asambleas y similares",
          "_links": {
            "self": {
              "name": "Servicios de organización de congresos, asambleas y similares",
              "href": "https://api.euskadi.eus/procurements/companies/economic-activities/1.989.2"
            }
          }
        },
        {
          "id": "1.999",
          "name": "Otros servicios n.c.o.p",
          "_links": {
            "self": {
              "name": "Otros servicios n.c.o.p",
              "href": "https://api.euskadi.eus/procurements/companies/economic-activities/1.999"
            }
          }
        }
      ],
      "certificateStartDate": "2025-09-18",
      "certificateEndDate": "2026-03-18",
      "object": "EL DESARROLLO DE HERRAMIENTAS DE COMUNICACIÓN OFF/ON LINE, DISEÑO WEB, MARKETING DIGITAL, PROGRAMACIÓN DE SOFTWARE Y DESARROLLO DE HERRAMIENTAS Y SOFTWARE DIGITAL.",
      "mainEntityOfPage": "https://www.contratacion.euskadi.eus/webkpe00-kperoc/es/ac71aBusquedaRegistrosWar/empresa/10336",
      "_links": {
        "self": {
          "name": "CUBICA MULTIMEDIA, S.L.",
          "href": "https://api.euskadi.eus/procurements/companies/10336"
        }
      }
    },
    {
      "name": "NATURALEZA ENCENDIDA, S.L.",
      "registrationNumber": "10335",
      "identificationNumber": "B05316237",
      "address": "CALLE SANTA ENGRACIA 31, 7",
      "location": {
        "postalCode": "28010",
        "municipality": "Madrid",
        "county": "Madrid",
        "municipalityId": "079",
        "countyId": "28"
      },
      "economicActivities": [
        {
          "id": "1.965.4",
          "name": "Empresas de espectáculos",
          "_links": {
            "self": {
              "name": "Empresas de espectáculos",
              "href": "https://api.euskadi.eus/procurements/companies/economic-activities/1.965.4"
            }
          }
        }
      ],
      "certificateStartDate": "2025-09-18",
      "certificateEndDate": "2026-03-18",
      "object": "1. LA CREACIÓN Y DESARROLLO DE NUEVOS PROYECTOS Y PRODUCTOS ARTÍSTICOS Y CULTURALES PARA SU EXPLOTACIÓN POR SI MISMA O TERCEROS ASÍ COMO LA ADQUISICIÓN, GESTIÓN Y EXPLOTACIÓN DE DERECHOS DE PROPIEDAD INTELECTUAL PERTENECIENTES  A AUTORES O DERECHOHABIENTES DE OBRAS, ENTRE OTRAS, LITERARIAS, DRAMÁTICAS, MUSICALES, DRAMÁTICO-MUSICALES, DE VARIEDADES, DE SHOWS, AUDIOVISUALES O GRÁFICAS. 2. EL ASESORAMIENTO EN RELACIÓN CON EVENTOS O ACONTECIMIENTOS CULTURALES, AUDIOVISUALES, DEPORTIVOS, MUSICALES O DE CUALQUIER OTRO TIPO. 3. LA CELEBRACIÓN DE CONTRATOS DE EDICIÓN LITERARIA, MUSICAL, DRAMÁTICA, DRAMÁTICO-MUSICAL, COREOGRÁFICA Y SINFÓNICA. CELEBRACIÓN DE CONTRATOS CON LA ADMINISTRACIÓN, PARA LA EXPLOTACIÓN DE ESPACIOS Y PROYECTOS. 4. LA CREACIÓN, ADQUISICIÓN, COMERCIALIZACIÓN Y EXPLOTACIÓN EN CUALQUIER FORMA, DIRECTA O INDIRECTAMENTE, DE MARCAS, PATENTES Y CUALQUIER OTRO TIPO DE DERECHOS DE PROPIEDAD INDUSTRIAL, INTELECTUAL O DE IMAGEN, ASÍ COMO DE CUALESQUIERA OBJETOS, MODELOS O MÉTODOS SUSCEPTIBLES DE SERVIR SOPORTE PARA LA EXPLOTACIÓN DE LOS DERECHOS ANTERIORES. 5. LA COMERCIALIZACIÓN Y VENTA DE LOS REFERIDOS DERECHOS PARA PROMOVER LA ELABORACIÓN DE TODO TIPO DE ESPECTÁCULOS Y/O OBRAS TANTO EN ESPAÑA COMO EN EL EXTRANJERO, EN TODA CLASE DE SOPORTES Y RECINTOS.",
      "mainEntityOfPage": "https://www.contratacion.euskadi.eus/webkpe00-kperoc/es/ac71aBusquedaRegistrosWar/empresa/10335",
      "_links": {
        "self": {
          "name": "NATURALEZA ENCENDIDA, S.L.",
          "href": "https://api.euskadi.eus/procurements/companies/10335"
        }
      }
    },
    {
      "name": "TELEFÓNICA SOLUCIONES DE INFORMÁTICA Y COMUNICACIONES DE ESPAÑA, S.A.U.",
      "registrationNumber": "05246",
      "identificationNumber": "A78053147",
      "address": "RONDA COMUNICACIÓN, S/N - ED. NORTE 2",
      "location": {
        "postalCode": "28050",
        "municipality": "Madrid",
        "county": "Madrid",
        "municipalityId": "079",
        "countyId": "28"
      },
      "economicActivities": [
        {
          "id": "1.504.1",
          "name": "Instalaciones eléctricas en general",
          "_links": {
            "self": {
              "name": "Instalaciones eléctricas en general",
              "href": "https://api.euskadi.eus/procurements/companies/economic-activities/1.504.1"
            }
          }
        },
        {
          "id": "1.769",
          "name": "Otros servicios de telecomunicaciones",
          "_links": {
            "self": {
              "name": "Otros servicios de telecomunicaciones",
              "href": "https://api.euskadi.eus/procurements/companies/economic-activities/1.769"
            }
          }
        },
        {
          "id": "1.845",
          "name": "Explotación electrónica por cuenta de terceros",
          "_links": {
            "self": {
              "name": "Explotación electrónica por cuenta de terceros",
              "href": "https://api.euskadi.eus/procurements/companies/economic-activities/1.845"
            }
          }
        }
      ],
      "certificateStartDate": "2025-09-18",
      "certificateEndDate": "2026-03-01",
      "object": "LA PRESTACIÓN Y EXPLOTACIÓN DE SEVICIOS DE COMUNICACIONES Y TELECOMUNICACIONES, NACIONALES E INTERNACIONALES, LA EXPLOTACIÓN DE REDES DE COMUNICACIONES Y TELECOMUNICACIONES, LA PRESTACIÓN Y EXPLOTACIÓN DE SERVICIOS Y TECNOLOGÍAS DE LA INFORMACIÓN Y LAS COMUNICACIONES Y LA CREACIÓN, GESTIÓN Y EXPLOTACIÓN DE CONTENIDOS AUDIOVISUALES INTERACTIVOS Y MULTIMEDIA. LA REALIZACIÓN DE DICHAS ACTIVIDADES COMPRENDE LA CREACIÓN, DISEÑO, ANÁLISIS, SUMINISTRO E INSTALACIÓN, CONSERVACIÓN, INTEGRACIÓN, INTERCONEXIÓN, GESTIÓN, MANTENIMIENTO, ADMINISTRACIÓN, TRATAMIENTO Y CUALESQUIERA OTRAS ACTIVIDADES NO INCLUIDAS EN LA ENUMERACIÓN PRECEDENTE RESPECTO DE TOCA CLASE DE REDES PÚBLICAS O PRIVADAS DE COMUNICACIONES Y TELECOMUNICACIONES, SISTEMAS, PROGRAMAS Y BASES DE DATOS INCLUYENDO, EN SU CASO, LOS EQUIPOS O SISTEMAS TERMINALES CONECTADOS A LAS REDES, ASÍ COMO LA CREACIÓN, DESARROLLO, INTEGRACIÓN, ACCESO, COMERCIALIZACIÓN, OPERACIÓN Y GESTIÓN DE LOS EQUIPOS, SISTEMAS, PROCESOS, PROGRAMAS Y BASES DE DATOS EN SU SENTIDO MÁS AMPLIO. INCLUYENDO TANTO ELEMENTOS DE SOFTWARE COMO HARDWARE O EL CONJUNTO DE LOS MISMOS, PARA LA PRESTACIÓN DE SERVICIOS DE TELECOMUNICACIONES Y LA EXPLOTACIÓN DE LAS REDES DE TELECOMUNICACIONES. DEL MISMO MODO, LA REALIZACIÓN DE DICHAS ACTIVIDADES COMPRENDE LA ELABORAICÓN, COMERCIALIZACIÓN, PROMOCIÓN, DISTRIBUCIÓN, COORDINACIÓN Y DIRECCIÓN DE PROYECTOS, SU INSTALACIÓN, LA PRESTACIÓN DE SERVICIOS DE SOPORTE Y ASISTENCIA TÉCNICA, MANTENIMIENTO, CONSULTORÍA, FORMACIÓN Y MARKETING, ASÍ COMO LA EJECUCIÓN, PRESTACIÓN Y EXPLOTACIÓN DE TODA CLASE DE ACTOS, PRODUCTOS Y SERVICIOS AUXILIARES O COMPLEMENTARIOS. LA COMPAÑÍA REALIZARÁ TAMBIÉN ACTIVIDADES EN EL ÁREA DE SERVICIOS DE TELECOMUNICACIONES, PRINCIPALMENTE, LOS DE VALOR AÑADIDO QUE SEAN POSIBLES CON REDES PRIVADAS O SISTEMAS SIMILARES COMO, POR EJEMPLO, LA CREACIÓN, DESARROLLO Y GESTIÓN DE MERCADOS ELECTRÓNICOS DE TODO TIPO, O LOS DE OBTENCIÓN, TRANSMISIÓN, ARCHIVO Y GESTIÓN DE INFORMACIÓN, DATOS, MENSAJES O DOCUMENTOS. PRINCIPALMENTE MERCANTILES, POR MEDIOS ELECTRÓNICOS, INCLUYENDO LOS SERVICIOS DE TRANSMISIÓN O TRANSFERENCIA, COMPENSACIÓN O CUALQUIER OTRA FORMA DE PAGO, ASÍ COMO CUALESQUIERA OTRAS OPERACIONES MERCANTILES QUE SE PUEDAN REALIZAR POR MEDIOS ELECTRÓNICOS. ASIMISMO LA COMPAÑÍA PODRÁ PRESTAR LOS SERVICIOS DE COMERCIALIZACIÓN DE ENERGÍA ELÉCTRICA, ES DECIR, LA COMPRA Y VENTA DE ENERGÍA ELÉCTRICA SIN LIMITACIÓN O RESERVA ALGUNA, ASÍ COMO LA PRESTACIÓN DE SERVICIOS ENERGÉTICOS. LA PRESTACIÓN DE ESTOS SERVICIOS COMPRENDE: 1.- LA ELABORACIÓN, COMERCIALIZACÓN, PROMOCIÓN, DISTRIBUCIÓN, COORDINACIÓN Y DIRECCIÓN DE LOS PROYECTOS DE VENTA DES SOLUCIONES DE AHORRO ENERGÉTICO. 2.- LA GESTIÓN Y OPTIMIZACIÓN DE LOS RECURSOS ENERGÉTICOS. 3.- EL DISEÑO, PLANIFICACIÓN, FINANCIACIÓN, INSTALACIÓN Y MANTENIMIENTO DE INSTALACIONES DE AHORRO ENERGÉTICO. 4.- LA GESTIÓN DE LA ENERGÍA. 5.- LA PRESTACIÓN DE SERVICIOS DE SOPORTE, ASISTENCIA TÉCNICA, CONSULTORÍA, FORMACIÓN Y MARKETING. 6.- CUALESQUIERA OTRAS ACTIVIDADES NO INCLUIDAS EN LA NUMERAICÓN PRECEDENTE RELACIONADAS CON LA MEJORA DE LA EFICIENCIA ENERGÉTICA.",
      "mainEntityOfPage": "https://www.contratacion.euskadi.eus/webkpe00-kperoc/es/ac71aBusquedaRegistrosWar/empresa/05246",
      "_links": {
        "self": {
          "name": "TELEFÓNICA SOLUCIONES DE INFORMÁTICA Y COMUNICACIONES DE ESPAÑA, S.A.U.",
          "href": "https://api.euskadi.eus/procurements/companies/05246"
        }
      }
    },
    {
      "name": "REHABILITACIONES Y REFORMAS CAPELO, S.L.",
      "registrationNumber": "07920",
      "identificationNumber": "B95510475",
      "address": "ZEHARKALE 10 BAJO",
      "location": {
        "postalCode": "48260",
        "municipality": "Ermua",
        "county": "Bizkaia",
        "municipalityId": "034",
        "countyId": "48"
      },
      "economicActivities": [
        {
          "id": "1.501.1",
          "name": "Construcción completa, reparación y conservación de edificaciones",
          "_links": {
            "self": {
              "name": "Construcción completa, reparación y conservación de edificaciones",
              "href": "https://api.euskadi.eus/procurements/companies/economic-activities/1.501.1"
            }
          }
        }
      ],
      "certificateStartDate": "2025-09-18",
      "certificateEndDate": "2026-03-16",
      "object": "LA CONSTRUCCIÓN DE EDIFICACIONES, OBRAS Y REFORMAS DE ALBAÑILERÍA",
      "mainEntityOfPage": "https://www.contratacion.euskadi.eus/webkpe00-kperoc/es/ac71aBusquedaRegistrosWar/empresa/07920",
      "_links": {
        "self": {
          "name": "REHABILITACIONES Y REFORMAS CAPELO, S.L.",
          "href": "https://api.euskadi.eus/procurements/companies/07920"
        }
      }
    },
    {
      "name": "ICADOS INNOVACION Y TECNOLOGIA, S.L.",
      "registrationNumber": "08020",
      "identificationNumber": "B85006088",
      "address": "calle mar negro, 30",
      "location": {
        "postalCode": "28760",
        "municipality": "Tres Cantos",
        "county": "Madrid",
        "municipalityId": "903",
        "countyId": "28"
      },
      "economicActivities": [
        {
          "id": "1.849.9",
          "name": "Otros servicios independientes n.c.o.p",
          "_links": {
            "self": {
              "name": "Otros servicios independientes n.c.o.p",
              "href": "https://api.euskadi.eus/procurements/companies/economic-activities/1.849.9"
            }
          }
        }
      ],
      "certificateStartDate": "2025-09-18",
      "certificateEndDate": "2026-03-17",
      "object": "EL DESARROLLO DE ACTIVIDADES DE INVESTIGACIÓN QUE CONDUZCAN A LA CREACIÓN DE PRODUCTOS DE INNOVACIÓN TECNOLÓGICA EN LOS CAMPOS DE ACTUACIÓN DE LA SOCIEDAD. LA PRESTACIÓN DE SERVICIOS DE CONSULTORÍA EMPRESARIAL Y ASISTENCIA TÉCNICA EN EL DESARROLLO E IMPLANTACIÓN DE PRODUCTOS INFORMÁTICOS DE HARDWARE Y SOFTWARE DESARROLLADOS POR LA PROPIA SOCIEDAD O ADQUIRIDOS A TERCEROS. EL ASESORAMIENTO Y MANTENIMIENTO DE PROYECTOS INFORMÁTICOS Y DE TECNOLOGÍA. LOS SERVICIOS DE FORMACIÓN EN ÁREAS DE GESTIÓN EMPRESARIAL Y TECNOLOGÍA.",
      "mainEntityOfPage": "https://www.contratacion.euskadi.eus/webkpe00-kperoc/es/ac71aBusquedaRegistrosWar/empresa/08020",
      "_links": {
        "self": {
          "name": "ICADOS INNOVACION Y TECNOLOGIA, S.L.",
          "href": "https://api.euskadi.eus/procurements/companies/08020"
        }
      }
    },
    {
      "name": "BEL EDAD DE ARTZINIEGA, S.L.",
      "registrationNumber": "03079",
      "identificationNumber": "B01324490",
      "address": "PUERTA DE LA VILLA, 2",
      "location": {
        "postalCode": "01474",
        "municipality": "Artziniega",
        "county": "Araba/Álava",
        "municipalityId": "004",
        "countyId": "01"
      },
      "economicActivities": [
        {
          "id": "1.951",
          "name": "Asistencia y servicios sociales en centros residenciales",
          "_links": {
            "self": {
              "name": "Asistencia y servicios sociales en centros residenciales",
              "href": "https://api.euskadi.eus/procurements/companies/economic-activities/1.951"
            }
          }
        }
      ],
      "certificateStartDate": "2025-09-17",
      "certificateEndDate": "2026-03-08",
      "object": "LA GESTIÓN, EXPLOTACIÓN, INSTALACIÓN Y PROMOCIÓN DE CENTROS ASISTENCIALES PARA PERSONAS DE LA TERCERA EDAD, ENFERMOS CRÓNICOS, PERSONAS QUE NO PUEDEN VALERSE POR SÍ MISMAS Y SERVICIOS COMPLEMENTARIOS PRESTADOS A ESTOS COLECTIVOS, ASÍ COMO EL DESARROLLO Y EXPLOTACIÓN DE PROYECTOS RELACIONADOS CON RESIDENCIAS DE ANCIANOS, VIVIENDAS COMUNITARIAS, PRESTACIÓN DE SERVICIOS SOCIALES Y ACTIVIDADES AFINES ",
      "mainEntityOfPage": "https://www.contratacion.euskadi.eus/webkpe00-kperoc/es/ac71aBusquedaRegistrosWar/empresa/03079",
      "_links": {
        "self": {
          "name": "BEL EDAD DE ARTZINIEGA, S.L.",
          "href": "https://api.euskadi.eus/procurements/companies/03079"
        }
      }
    }
  ]
}