{
  "totalItems": 9042,
  "totalPages": 905,
  "currentPage": 596,
  "itemsOfPage": 10,
  "items": [
    {
      "name": "TALLERES CHAPIME, S.COOP.LTDA.",
      "registrationNumber": "06538",
      "identificationNumber": "F20172011",
      "address": "SAN ANDRES AUZOA, 5",
      "location": {
        "postalCode": "20500",
        "municipality": "Arrasate / Mondragón",
        "county": "Gipuzkoa",
        "municipalityId": "055",
        "countyId": "20"
      },
      "economicActivities": [
        {
          "id": "1.654.1",
          "name": "Venta al por menor de vehículos terrestres",
          "_links": {
            "self": {
              "name": "Venta al por menor de vehículos terrestres",
              "href": "https://api.euskadi.eus/procurements/companies/economic-activities/1.654.1"
            }
          }
        },
        {
          "id": "1.691.2",
          "name": "Reparación de vehículos automóviles, bicicletas y otros vehículos",
          "_links": {
            "self": {
              "name": "Reparación de vehículos automóviles, bicicletas y otros vehículos",
              "href": "https://api.euskadi.eus/procurements/companies/economic-activities/1.691.2"
            }
          }
        }
      ],
      "certificateStartDate": "2019-10-10",
      "certificateEndDate": "2020-03-18",
      "object": "LA COMPRAVENTA Y REPARACIÓN DE VEHÍCULOS NUEVOS Y DE OCASIÓN",
      "mainEntityOfPage": "https://www.contratacion.euskadi.eus/webkpe00-kperoc/es/ac71aBusquedaRegistrosWar/empresa/06538",
      "_links": {
        "self": {
          "name": "TALLERES CHAPIME, S.COOP.LTDA.",
          "href": "https://api.euskadi.eus/procurements/companies/06538"
        }
      }
    },
    {
      "name": "CONSULTORIA Y COMUNICACIONES DEL PAIS VASCO, S.L.",
      "registrationNumber": "03612",
      "identificationNumber": "B20640116",
      "address": "PORTUETXE, 57 - 1 A",
      "location": {
        "postalCode": "20018",
        "municipality": "Donostia / San Sebastián",
        "county": "Gipuzkoa",
        "municipalityId": "069",
        "countyId": "20"
      },
      "economicActivities": [
        {
          "id": "1.659.2",
          "name": "Venta al por menor de muebles de oficina y máquinas y equipos de oficina",
          "_links": {
            "self": {
              "name": "Venta al por menor de muebles de oficina y máquinas y equipos de oficina",
              "href": "https://api.euskadi.eus/procurements/companies/economic-activities/1.659.2"
            }
          }
        },
        {
          "id": "1.845",
          "name": "Explotación electrónica por cuenta de terceros",
          "_links": {
            "self": {
              "name": "Explotación electrónica por cuenta de terceros",
              "href": "https://api.euskadi.eus/procurements/companies/economic-activities/1.845"
            }
          }
        }
      ],
      "certificateStartDate": "2019-10-09",
      "certificateEndDate": "2020-04-03",
      "object": "A) LA REALIZACIÓN DE OPERACIONES PROPIAS DEL MERCADO INMOBILIARIO; B) LA REALIZACIÓN DE TODO TIPO DE ACTIVIDADES RELACIONADAS CON LOS SERVICIOS INFORMÁTICOS Y LAS COMUNICACIONES, VENTA Y DISTRIBUCIÓN DE ORDENADORES (HARDWARE) Y PROGRAMAS (SOFTWARE) Y SUS CORRESPONDIENTES RECAMBIOS Y REPUESTOS, ASÍ COMO EL MATERIAL AUXILIAR O COMPLEMENTARIO PARA LOS MISMOS; C) LA CONSULTORÍA, EL DESARROLLO Y LA PROGRAMACIÓN INFORMÁTICA; D) LA INTEGRACIÓN DE SISTEMAS Y LAS AUDITORÍAS INFORMÁTICAS",
      "mainEntityOfPage": "https://www.contratacion.euskadi.eus/webkpe00-kperoc/es/ac71aBusquedaRegistrosWar/empresa/03612",
      "_links": {
        "self": {
          "name": "CONSULTORIA Y COMUNICACIONES DEL PAIS VASCO, S.L.",
          "href": "https://api.euskadi.eus/procurements/companies/03612"
        }
      }
    },
    {
      "name": "NEW BUSINESS INTELLIGENCE COMPANY S.L.",
      "registrationNumber": "06532",
      "identificationNumber": "B99035446",
      "address": "Plaza Antonio Beltrán Martínez 1",
      "location": {
        "postalCode": "50002",
        "municipality": "Zaragoza",
        "county": "Zaragoza",
        "municipalityId": "297",
        "countyId": "50"
      },
      "economicActivities": [
        {
          "id": "1.845",
          "name": "Explotación electrónica por cuenta de terceros",
          "_links": {
            "self": {
              "name": "Explotación electrónica por cuenta de terceros",
              "href": "https://api.euskadi.eus/procurements/companies/economic-activities/1.845"
            }
          }
        }
      ],
      "certificateStartDate": "2019-10-09",
      "certificateEndDate": "2020-01-10",
      "object": "1. EL DESARROLLO DE SISTEMAS DE GESTIÓN INFORMÁTICA ESTÁNDAR PARA SU DISTRIBUCIÓN Y COMERCIALIZACIÓN, BIEN DIRECTAMENTE, BIEN A TRAVÉS DE TERCEROS, ASÍ COMO LA CREACIÓN DE PATENTES Y MARCAS PROPIAS RELACIONADAS CON LAS TECNOLOGÍAS DE LA INFORMACIÓN. 2. LA REPRESENTACIÓN, EN CUALQUIERA DE SUS MODALIDADES MERCANTILES, DE EMPRESAS Y DE SUS PRODUCTOS, EN EL ÁMBITO DE LAS TECNOLOGÍAS DE LA INFORMACIÓN. 3. EL DISEÑO, DESARROLLO E IMPLANTACIÓN DE PROYECTOS INFORMÁTICOS PROPIOS O DE TERCEROS, ASÍ COMO LA PRESTACIÓN DE SERVICIOS PROFESIONALES RELACIONADOS CON LAS TECNOLOGÍAS DE LA INFORMACIÓN",
      "mainEntityOfPage": "https://www.contratacion.euskadi.eus/webkpe00-kperoc/es/ac71aBusquedaRegistrosWar/empresa/06532",
      "_links": {
        "self": {
          "name": "NEW BUSINESS INTELLIGENCE COMPANY S.L.",
          "href": "https://api.euskadi.eus/procurements/companies/06532"
        }
      }
    },
    {
      "name": "ADW EUROPE, S.L.",
      "registrationNumber": "06529",
      "identificationNumber": "B95004248",
      "address": "PI Lebario, Ed Amboto ofi 8 - 10",
      "location": {
        "postalCode": "48220",
        "municipality": "Abadiño",
        "county": "Bizkaia",
        "municipalityId": "001",
        "countyId": "48"
      },
      "economicActivities": [
        {
          "id": "1.617.8",
          "name": "Venta al por mayor de máquinas y material de oficina",
          "_links": {
            "self": {
              "name": "Venta al por mayor de máquinas y material de oficina",
              "href": "https://api.euskadi.eus/procurements/companies/economic-activities/1.617.8"
            }
          }
        },
        {
          "id": "1.845",
          "name": "Explotación electrónica por cuenta de terceros",
          "_links": {
            "self": {
              "name": "Explotación electrónica por cuenta de terceros",
              "href": "https://api.euskadi.eus/procurements/companies/economic-activities/1.845"
            }
          }
        }
      ],
      "certificateStartDate": "2019-10-08",
      "certificateEndDate": "2020-02-29",
      "object": "LA VENTA DE SERVICIOS DE PROGRAMACIÓN A MEDIDA, TRADUCCIONES Y OTROS SERVICIOS RELACIONADOS CON LA INFORMÁTICA",
      "mainEntityOfPage": "https://www.contratacion.euskadi.eus/webkpe00-kperoc/es/ac71aBusquedaRegistrosWar/empresa/06529",
      "_links": {
        "self": {
          "name": "ADW EUROPE, S.L.",
          "href": "https://api.euskadi.eus/procurements/companies/06529"
        }
      }
    },
    {
      "name": "PRESENCIA BY MA SL",
      "registrationNumber": "06530",
      "identificationNumber": "B75036970",
      "address": "Calle José María Busca Isusi, 8",
      "location": {
        "postalCode": "20015",
        "municipality": "Donostia / San Sebastián",
        "county": "Gipuzkoa",
        "municipalityId": "069",
        "countyId": "20"
      },
      "economicActivities": [
        {
          "id": "1.844",
          "name": "Servicios de publicidad, relaciones públicas y similares",
          "_links": {
            "self": {
              "name": "Servicios de publicidad, relaciones públicas y similares",
              "href": "https://api.euskadi.eus/procurements/companies/economic-activities/1.844"
            }
          }
        },
        {
          "id": "1.989.2",
          "name": "Servicios de organización de congresos, asambleas y similares",
          "_links": {
            "self": {
              "name": "Servicios de organización de congresos, asambleas y similares",
              "href": "https://api.euskadi.eus/procurements/companies/economic-activities/1.989.2"
            }
          }
        }
      ],
      "certificateStartDate": "2019-10-08",
      "certificateEndDate": "2020-03-26",
      "object": "LA ORGANIZACIÓN Y GESTIÓN INTEGRAL DE TODA CLASE DE REUNIONES, CONVENCIONES, CONFERENCIAS, SIMPOSIOS, FERIAS, EXPOSICIONES, CERTÁMENES, CONGRESOS Y EVENTOS EN GENERAL, SEA CUAL SEA SU CARÁCTER (NACIONAL O INTERNACIONAL, PÚBLICO O PRIVADO, DIVULGATIVO, CIENTÍFICO O ARTÍSTICO) Y SU LUGAR DE CELEBRACIÓN. LA PLANIFICACIÓN Y PROMOCIÓN DE TODA CLASE DE REUNIONES, CONFERENCIAS, SIMPOSIOS, FERIAS, EXPOSICIONES, CERTÁMENES, CONGRESOS Y EVENTOS, EN GENERAL, SEA CUAL SEA SU CARÁCTER (NACIONAL O INTERNACIONAL, PÚBLICO O PRIVADO, DIVULGATIVO, CIENTÍFICO O ARTÍSTICO) Y SU LUGAR DE CELEBRACIÓN. EL DISEÑO, LA PLANIFICACIÓN, PROMOCIÓN Y EJECUCIÓN DE ACCIONES RELACIONADAS CON LA GESTIÓN CULTURAL, SEA CUAL SEA SU CARÁCTER (NACIONAL O INTERNACIONAL, PÚBLICO O PRIVADO) Y SU LUGAR DE CELEBRACIÓN. LA PROMOCIÓN Y GESTIÓN INTEGRAL DE TODAS LAS ACTIVIDADES RELACIONADAS CON EL \"MARKETING\" Y CON LA COMUNICACIÓN, INCLUIDAS LAS RELACIONES EXTERNAS, PRENSA Y RELACIONES PÚBLICAS, ASÍ COMO TODOS LOS ASPECTOS PUBLICITARIOS Y DE PATROCINIO Y ESPONSORIZACIÓN RELATIVOS A LOS EVENTOS RESEÑADOS EN LOS PUNTOS 1 Y 2 ANTERIORES, PUDIENDO CONTRATAR, A ESTOS EFECTOS, LOS SERVICIOS PROFESIONALES NECESARIOS PARA ELLO. LA GESTIÓN INTEGRAL DE TODOS LOS EXTREMOS RELATIVOS A SEDES, EDIFICIOS, ESPACIOS, UBICACIONES Y, EN GENERAL, LOCALES EN LOS QUE PUEDAN LLEGAR A CELEBRARSE CUALQUIERA DE LOS EVENTOS Y ACTIVIDADES QUE SE HA RESEÑADO EN LOS PUNTOS ANTERIORES",
      "mainEntityOfPage": "https://www.contratacion.euskadi.eus/webkpe00-kperoc/es/ac71aBusquedaRegistrosWar/empresa/06530",
      "_links": {
        "self": {
          "name": "PRESENCIA BY MA SL",
          "href": "https://api.euskadi.eus/procurements/companies/06530"
        }
      }
    },
    {
      "name": "JUAN CARLOS AGÜERO BASOCO",
      "registrationNumber": "05972",
      "identificationNumber": "30658882C",
      "address": "DOCTOR AREILZA, 62 - 6º IZDA",
      "location": {
        "postalCode": "48010",
        "municipality": "Bilbao",
        "county": "Bizkaia",
        "municipalityId": "020",
        "countyId": "48"
      },
      "economicActivities": [
        {
          "id": "1.856.1",
          "name": "Alquiler de bienes de consumo",
          "_links": {
            "self": {
              "name": "Alquiler de bienes de consumo",
              "href": "https://api.euskadi.eus/procurements/companies/economic-activities/1.856.1"
            }
          }
        }
      ],
      "certificateStartDate": "2019-10-03",
      "certificateEndDate": "2020-03-26",
      "object": "ALQUILER EQUIPOS DE BIENES DE CONSUMO",
      "mainEntityOfPage": "https://www.contratacion.euskadi.eus/webkpe00-kperoc/es/ac71aBusquedaRegistrosWar/empresa/05972",
      "_links": {
        "self": {
          "name": "JUAN CARLOS AGÜERO BASOCO",
          "href": "https://api.euskadi.eus/procurements/companies/05972"
        }
      }
    },
    {
      "name": "GERNIKA XXI, S.L.",
      "registrationNumber": "06517",
      "identificationNumber": "B20820585",
      "address": "PRIM, 9 BEHEA",
      "location": {
        "postalCode": "20005",
        "municipality": "Donostia / San Sebastián",
        "county": "Gipuzkoa",
        "municipalityId": "069",
        "countyId": "20"
      },
      "economicActivities": [
        {
          "id": "1.849.3",
          "name": "Servicios de traducción y similares",
          "_links": {
            "self": {
              "name": "Servicios de traducción y similares",
              "href": "https://api.euskadi.eus/procurements/companies/economic-activities/1.849.3"
            }
          }
        },
        {
          "id": "1.933.9",
          "name": "Otras actividades de enseñanza tales como idiomas, mecanografía",
          "_links": {
            "self": {
              "name": "Otras actividades de enseñanza tales como idiomas, mecanografía",
              "href": "https://api.euskadi.eus/procurements/companies/economic-activities/1.933.9"
            }
          }
        }
      ],
      "certificateStartDate": "2019-10-03",
      "certificateEndDate": "2019-11-09",
      "object": "1) LA PRESTACIÓN DE SERVICIOS DE EDUCACIÓN, ENSEÑANZA, FORMACIÓN Y LA IMPARTICIÓN DE CLASES DE EUSKARA, Y EN EUSKARA DE CUALQUIER MATERIA DE ENSEÑANZA. 2) LA FORMACIÓN Y CAPACITACIÓN DE PROFESORES PARA LA IMPARTICIÓN DE CLASES DE EUSKARA, Y EN EUSKARA DE CUALQUIER MATERIA DE ENSEÑANZA. 3) LA CONTRATACIÓN DE PROFESORADO PARA IMPARTIR ENSEÑANZA EN LAS MATERIAS SEÑALADAS, YA SEA EN LAS CLASES Y/O CURSOS ORGANIZADOS POR LA PROPIA SOCIEDAD, O BIEN SEA EN LAS CLASES Y/O CURSOS ORGANIZADAS EN COLABORACIÓN CON PERSONAS Y/O ENTIDADES DE SIMILAR FIN SOCIAL. 4) LA REALIZACIÓN DE TRABAJOS Y SERVICIOS DE TRADUCCIÓN. 5) LA CREACIÓN, EDICIÓN, PUBLICACIÓN, DISTRIBUCIÓN Y COMERCIALIZACIÓN POR CUALQUIER MEDIO TÉCNICO DE MATERIALES DE INSTRUCCIÓN Y ENSEÑANZA, DISCOS, CASETTES, CD-ROM, COMPACT DISC, DISKETTES Y SISTEMAS Y PROGRAMAS INFORMÁTICOS RELACIONADOS CON LA ENSEÑANZA DEL EUSKARA, Y EN EUSKARA DE CUALQUIER MATERIA DE ENSEÑANZA. 6) IMPULSAR LA CREACIÓN DE BIBLIOTECAS FONOTECAS Y VIDEOTECAS, ORGANIZAR SESIONES DE CINE Y VÍDEO CON CARÁCTER DE ENSEÑANZA O CULTURALES EN GENERAL; ASÍ COMO TODO TIPO DE ENCUENTROS, EXPOSICIONES, ACTOS, EXCURSIONES Y JORNADAS DE CARÁCTER CULTURAL Y/O RELACIONADOS CON LA ENSEÑANZA Y PROMOCIÓN DEL EUSKARA",
      "mainEntityOfPage": "https://www.contratacion.euskadi.eus/webkpe00-kperoc/es/ac71aBusquedaRegistrosWar/empresa/06517",
      "_links": {
        "self": {
          "name": "GERNIKA XXI, S.L.",
          "href": "https://api.euskadi.eus/procurements/companies/06517"
        }
      }
    },
    {
      "name": "ORKOLAN, S.L.",
      "registrationNumber": "01358",
      "identificationNumber": "B20090486",
      "address": "PORTUETXE, EDIF.ARAGI -3º 0FIC. 1",
      "location": {
        "postalCode": "20018",
        "municipality": "Donostia / San Sebastián",
        "county": "Gipuzkoa",
        "municipalityId": "069",
        "countyId": "20"
      },
      "economicActivities": [
        {
          "id": "1.845",
          "name": "Explotación electrónica por cuenta de terceros",
          "_links": {
            "self": {
              "name": "Explotación electrónica por cuenta de terceros",
              "href": "https://api.euskadi.eus/procurements/companies/economic-activities/1.845"
            }
          }
        }
      ],
      "certificateStartDate": "2019-10-02",
      "certificateEndDate": "2020-03-06",
      "object": "TODO LO REFERENTE AL PROCESAMIENTO DE DATOS, GRABACIÓN, PROGRAMACIÓN, PREPARACIÓN DE PROGRAMAS O DE CUALQUIER OTRO SISTEMA INFORMÁTICO. LA VENTA, ALQUILER, INSTALACIÓN, ADIESTRAMIENTO, PUESTA EN MARCHA, SUMINISTRO DE MATERIALES DE EQUIPOS CIBERNÉTICOS. LA ADMINISTRACIÓN, ASESORAMIENTO, TRABAJOS ESPECIALES O DE CUALQUIER TIPO DE EMPRESAS DE TODA ÍNDOLE TANTO PRIVADAS COMO PÚBLICAS. TODAS ESTAS ACTIVIDADES REFERIDAS A CUALQUIER TIPO DE ORGANISMO TANTO PÚBLICO COMO PRIVADO, PERSONAS, TANTO FÍSICAS COMO JURÍDICAS, ORGANISMOS DEL ESTADO, COMUNIDADES AUTÓNOMAS, PROVINCIAS Y LOCALES",
      "mainEntityOfPage": "https://www.contratacion.euskadi.eus/webkpe00-kperoc/es/ac71aBusquedaRegistrosWar/empresa/01358",
      "_links": {
        "self": {
          "name": "ORKOLAN, S.L.",
          "href": "https://api.euskadi.eus/procurements/companies/01358"
        }
      }
    },
    {
      "name": "VIRTUALWARE 2007, S.A.",
      "registrationNumber": "03888",
      "identificationNumber": "A95291613",
      "address": "P.I. ARTUNDUAGA, C/ USANSUAGA Nº 5",
      "location": {
        "postalCode": "48970",
        "municipality": "Basauri",
        "county": "Bizkaia",
        "municipalityId": "015",
        "countyId": "48"
      },
      "economicActivities": [
        {
          "id": "1.845",
          "name": "Explotación electrónica por cuenta de terceros",
          "_links": {
            "self": {
              "name": "Explotación electrónica por cuenta de terceros",
              "href": "https://api.euskadi.eus/procurements/companies/economic-activities/1.845"
            }
          }
        }
      ],
      "certificateStartDate": "2019-10-02",
      "certificateEndDate": "2020-03-23",
      "object": "A) EL DESARROLLO DE SOFTWARE; B) LA CONSULTORÍA DE SEGURIDAD; C)LA CONSULTORÍA Y SISTEMAS DE TELECOMUNICACIONES; D) SERVICIOS INFORMÁTICOS; E)MODELADO EN TRES DIMENSIONES; F) SERVICIOS DE DELINEACIÓN; G) CONSULTORÍA TECNOLÓGICA; H) ALQUILER DE SISTEMAS DE PROYECCIÓN; I) FORMACIÓN EN MATERIAS TECNOLÓGICAS ",
      "mainEntityOfPage": "https://www.contratacion.euskadi.eus/webkpe00-kperoc/es/ac71aBusquedaRegistrosWar/empresa/03888",
      "_links": {
        "self": {
          "name": "VIRTUALWARE 2007, S.A.",
          "href": "https://api.euskadi.eus/procurements/companies/03888"
        }
      }
    },
    {
      "name": "IBIL GESTOR DE CARGA DE VEHÍCULO ELÉCTRICO, S.A.",
      "registrationNumber": "06510",
      "identificationNumber": "A95625042",
      "address": "Torre Bec, c/Ronda de Azkue 1, planta 14 (Ibil)",
      "location": {
        "postalCode": "48902",
        "municipality": "Barakaldo",
        "county": "Bizkaia",
        "municipalityId": "013",
        "countyId": "48"
      },
      "economicActivities": [
        {
          "id": "1.655.4",
          "name": "Servicios de recarga energética para vehículos eléctricos en el ámbito privado",
          "_links": {
            "self": {
              "name": "Servicios de recarga energética para vehículos eléctricos en el ámbito privado",
              "href": "https://api.euskadi.eus/procurements/companies/economic-activities/1.655.4"
            }
          }
        },
        {
          "id": "1.655.5",
          "name": "Servicios de recarga energética para vehículos eléctricos en el ámbito público",
          "_links": {
            "self": {
              "name": "Servicios de recarga energética para vehículos eléctricos en el ámbito público",
              "href": "https://api.euskadi.eus/procurements/companies/economic-activities/1.655.5"
            }
          }
        }
      ],
      "certificateStartDate": "2019-10-02",
      "certificateEndDate": "2020-01-16",
      "object": "A) EL DISEÑO, CONSTRUCCIÓN, EXPLOTACIÓN, OPERACIÓN Y MANTENIMIENTO DE UNA INFRAESTRUCTURA DE PUNTOS DE RECARGA DE VEHÍCULO ELÉCTRICO EN LOS ÁMBITOS VINCULADO Y PÚBLICO, ENTENDIENDO COMO INFRAESTRUCTURA VINCULADA AQUELLA QUE ESTÁ ASOCIADO A UN VEHÍCULO ELÉCTRICO CONCRETO Y CUYA UBICACIÓN ES LA DEL APARCAMIENTO DEL PROPIETARIO O USUARIO DEL MISMO, Y POR INFRAESTRUCTURA PÚBLICA AQUELLA QUE PRESTA SERVICIOS DE RECARGA EN EMPLAZAMIENTOS PÚBLICOS ABIERTOS A TODOS LOS USUARIOS. B) LA OPERACIÓN COMO GESTOR DE CARTA DEL SISTEMA ELÉCTRICO SEGÚN LA DEFINICIÓN QUE DE ESTE AGENTE DEL SECTOR SE HACE EN LA LEY 54/1997, DE 27 DE NOVIEMBRE, DEL SECTOR ELÉCTRICO, CON CAPACIDAD PARA VENDER Y COMPRAR ENERGÍA ELÉCTRICA. C) LA COMERCIALIZACIÓN DE SERVICIOS DE RECARGA DE VEHÍCULOS ELÉCTRICOS. D) LA COMERCIALIZACIÓN DE SERVICIOS DE VALOR AÑADIDO ASOCIADOS A LA ACTIVIDAD PRINCIPAL, TALES COMO SERVICIOS DE ASESORAMIENTO EN MOVILIDAD ELÉCTRICA, SERVICIOS DE INFORMACIÓN EN TIEMPO REAL SOBRE PUNTOS DE RECARGA DISPONIBLES, ETC. E) LA IMPLANTACIÓN Y OPERACIÓN DE UN SISTEMA DE CARSHARING ELÉCTRICO, ENTENDIENDO POR CARSHARING UN CONCEPTO DE MOVILIDAD SOSTENIBLE EN EL QUE LOS USUARIOS COMPARTEN DE FORMA FLEXIBLE Y EFICAZ, EL USO DE UNA FLOTA DE VEHÍCULOS GESTIONADOS POR LA EMPRESA DE LA QUE SON CLIENTES. F) ACTIVIDADES DE DIFUSIÓN Y FORMACIÓN RELACIONADOS CON LA ACTIVIDAD PRINCIPAL",
      "mainEntityOfPage": "https://www.contratacion.euskadi.eus/webkpe00-kperoc/es/ac71aBusquedaRegistrosWar/empresa/06510",
      "_links": {
        "self": {
          "name": "IBIL GESTOR DE CARGA DE VEHÍCULO ELÉCTRICO, S.A.",
          "href": "https://api.euskadi.eus/procurements/companies/06510"
        }
      }
    }
  ]
}