{
  "totalItems": 9042,
  "totalPages": 905,
  "currentPage": 464,
  "itemsOfPage": 10,
  "items": [
    {
      "name": "GARAZI RAMOS ÁLAMOS",
      "registrationNumber": "06823",
      "identificationNumber": "78956703A",
      "address": "C/Quintana nº7 4A",
      "location": {
        "postalCode": "48007",
        "municipality": "Bilbao",
        "county": "Bizkaia",
        "municipalityId": "020",
        "countyId": "48"
      },
      "economicActivities": [
        {
          "id": "2.751",
          "name": "Profesionales de la publicidad, relaciones públicas y similares",
          "_links": {
            "self": {
              "name": "Profesionales de la publicidad, relaciones públicas y similares",
              "href": "https://api.euskadi.eus/procurements/companies/economic-activities/2.751"
            }
          }
        }
      ],
      "certificateStartDate": "2023-03-28",
      "certificateEndDate": "2023-09-17",
      "object": "PROFESIONALES DE LA PUBLICIDAD",
      "mainEntityOfPage": "https://www.contratacion.euskadi.eus/webkpe00-kperoc/es/ac71aBusquedaRegistrosWar/empresa/06823",
      "_links": {
        "self": {
          "name": "GARAZI RAMOS ÁLAMOS",
          "href": "https://api.euskadi.eus/procurements/companies/06823"
        }
      }
    },
    {
      "name": "MIKEL AINGERU RICO GONZÁLEZ",
      "registrationNumber": "08927",
      "identificationNumber": "16049971L",
      "address": "Calle Villamonte (48991) C2 - 2º izq.",
      "location": {
        "postalCode": "48991",
        "municipality": "Getxo",
        "county": "Bizkaia",
        "municipalityId": "044",
        "countyId": "48"
      },
      "economicActivities": [
        {
          "id": "2.322",
          "name": "Técnicos en artes gráficas",
          "_links": {
            "self": {
              "name": "Técnicos en artes gráficas",
              "href": "https://api.euskadi.eus/procurements/companies/economic-activities/2.322"
            }
          }
        }
      ],
      "certificateStartDate": "2023-03-23",
      "certificateEndDate": "2023-09-02",
      "object": "TÉCNICOS EN ARTES GRÁFICAS",
      "mainEntityOfPage": "https://www.contratacion.euskadi.eus/webkpe00-kperoc/es/ac71aBusquedaRegistrosWar/empresa/08927",
      "_links": {
        "self": {
          "name": "MIKEL AINGERU RICO GONZÁLEZ",
          "href": "https://api.euskadi.eus/procurements/companies/08927"
        }
      }
    },
    {
      "name": "ADESIO, S. COOP. PEQUEÑA",
      "registrationNumber": "08926",
      "identificationNumber": "F95984910",
      "address": "C/ Fernandez del Campo 29, 6ºD",
      "location": {
        "postalCode": "48010",
        "municipality": "Bilbao",
        "county": "Bizkaia",
        "municipalityId": "020",
        "countyId": "48"
      },
      "economicActivities": [
        {
          "id": "1.847",
          "name": "Servicios de consultoría",
          "_links": {
            "self": {
              "name": "Servicios de consultoría",
              "href": "https://api.euskadi.eus/procurements/companies/economic-activities/1.847"
            }
          }
        },
        {
          "id": "1.934",
          "name": "Enseñanza fuera de establecimiento permanente",
          "_links": {
            "self": {
              "name": "Enseñanza fuera de establecimiento permanente",
              "href": "https://api.euskadi.eus/procurements/companies/economic-activities/1.934"
            }
          }
        }
      ],
      "certificateStartDate": "2023-03-23",
      "certificateEndDate": "2023-09-22",
      "object": "ASESORAMIENTO Y CONSULTORÍA ESPECIALIZADA EN TECNOLOGÍA SOCIAL Y HUMANA; ASÍ COMO SERVICIOS A LAS EMPRESAS, ORGANISMOS Y PARTICULARES Y ACTIVIDADES DE FORMACIÓN. ASÍ MISMO, REALIZARÁ ACTIVIDADES DE CREACIÓN, DESARROLLO, DISTRIBUCIÓN Y COMERCIALIZACIÓN DE SOLUCIONES LÚDICAS DE TECNOLOGÍA SOCIAL, INCLUYENDO VIDEOJUEGOS Y APLICACIONES INFORMÁTICAS.",
      "mainEntityOfPage": "https://www.contratacion.euskadi.eus/webkpe00-kperoc/es/ac71aBusquedaRegistrosWar/empresa/08926",
      "_links": {
        "self": {
          "name": "ADESIO, S. COOP. PEQUEÑA",
          "href": "https://api.euskadi.eus/procurements/companies/08926"
        }
      }
    },
    {
      "name": "JOANA URIARTE ACHA",
      "registrationNumber": "08303",
      "identificationNumber": "30692340J",
      "address": "Gipuzkoa 17A 3A",
      "location": {
        "postalCode": "20800",
        "municipality": "Zarautz",
        "county": "Gipuzkoa",
        "municipalityId": "079",
        "countyId": "20"
      },
      "economicActivities": [
        {
          "id": "2.751",
          "name": "Profesionales de la publicidad, relaciones públicas y similares",
          "_links": {
            "self": {
              "name": "Profesionales de la publicidad, relaciones públicas y similares",
              "href": "https://api.euskadi.eus/procurements/companies/economic-activities/2.751"
            }
          }
        }
      ],
      "certificateStartDate": "2023-03-22",
      "certificateEndDate": "2023-09-22",
      "object": "PROFESIONALES DE LA PUBLICIDAD, RELACIONES PÚBLICAS Y SIMILARES.",
      "mainEntityOfPage": "https://www.contratacion.euskadi.eus/webkpe00-kperoc/es/ac71aBusquedaRegistrosWar/empresa/08303",
      "_links": {
        "self": {
          "name": "JOANA URIARTE ACHA",
          "href": "https://api.euskadi.eus/procurements/companies/08303"
        }
      }
    },
    {
      "name": "NEREA BERMEJO OLAIZOLA",
      "registrationNumber": "08924",
      "identificationNumber": "44561641S",
      "address": "Calle Txikillo",
      "location": {
        "postalCode": "20304",
        "municipality": "Irun",
        "county": "Gipuzkoa",
        "municipalityId": "045",
        "countyId": "20"
      },
      "economicActivities": [
        {
          "id": "2.861",
          "name": "Pintores, escultores, ceramistas, artesanos, artistas y similares",
          "_links": {
            "self": {
              "name": "Pintores, escultores, ceramistas, artesanos, artistas y similares",
              "href": "https://api.euskadi.eus/procurements/companies/economic-activities/2.861"
            }
          }
        }
      ],
      "certificateStartDate": "2023-03-21",
      "certificateEndDate": "2023-09-21",
      "object": "PINTORES, ESCULTORES, CERAMISTAS, ARTESANOS, ARTISTAS Y SIMILARES.",
      "mainEntityOfPage": "https://www.contratacion.euskadi.eus/webkpe00-kperoc/es/ac71aBusquedaRegistrosWar/empresa/08924",
      "_links": {
        "self": {
          "name": "NEREA BERMEJO OLAIZOLA",
          "href": "https://api.euskadi.eus/procurements/companies/08924"
        }
      }
    },
    {
      "name": "ANER ANSORENA MARQUIEGUI",
      "registrationNumber": "08614",
      "identificationNumber": "73119249H",
      "address": "ARALAR KALEA 10 BAJO",
      "location": {
        "postalCode": "31870",
        "municipality": "Lekunberri",
        "county": "Navarra",
        "municipalityId": "908",
        "countyId": "31"
      },
      "economicActivities": [
        {
          "id": "1.861.2",
          "name": "Alquiler de locales industriales y otros alquileres n.c.o.p",
          "_links": {
            "self": {
              "name": "Alquiler de locales industriales y otros alquileres n.c.o.p",
              "href": "https://api.euskadi.eus/procurements/companies/economic-activities/1.861.2"
            }
          }
        }
      ],
      "certificateStartDate": "2023-03-20",
      "certificateEndDate": "2023-09-19",
      "object": "PROFESIONALES DE LA PUBLICIDAD, RELACIONES PÚBLICAS Y SIMILARES.",
      "mainEntityOfPage": "https://www.contratacion.euskadi.eus/webkpe00-kperoc/es/ac71aBusquedaRegistrosWar/empresa/08614",
      "_links": {
        "self": {
          "name": "ANER ANSORENA MARQUIEGUI",
          "href": "https://api.euskadi.eus/procurements/companies/08614"
        }
      }
    },
    {
      "name": "JORGE RIERA GARCIA-MONEDERO",
      "registrationNumber": "08919",
      "identificationNumber": "53616858V",
      "address": "Calle del Príncipe 9, 5ºB",
      "location": {
        "postalCode": "28012",
        "municipality": "Madrid",
        "county": "Madrid",
        "municipalityId": "079",
        "countyId": "28"
      },
      "economicActivities": [
        {
          "id": "1.973.1",
          "name": "Servicios fotográficos",
          "_links": {
            "self": {
              "name": "Servicios fotográficos",
              "href": "https://api.euskadi.eus/procurements/companies/economic-activities/1.973.1"
            }
          }
        }
      ],
      "certificateStartDate": "2023-03-20",
      "certificateEndDate": "2023-09-17",
      "object": "SERVICIOS FOTOGRÁFICOS.",
      "mainEntityOfPage": "https://www.contratacion.euskadi.eus/webkpe00-kperoc/es/ac71aBusquedaRegistrosWar/empresa/08919",
      "_links": {
        "self": {
          "name": "JORGE RIERA GARCIA-MONEDERO",
          "href": "https://api.euskadi.eus/procurements/companies/08919"
        }
      }
    },
    {
      "name": "IBON ASTOBIZA BARRERA",
      "registrationNumber": "08252",
      "identificationNumber": "16061820T",
      "address": "Calle Mendieta (48600)1",
      "location": {
        "postalCode": "48600",
        "municipality": "Sopela",
        "county": "Bizkaia",
        "municipalityId": "085",
        "countyId": "48"
      },
      "economicActivities": [
        {
          "id": "1.659.6",
          "name": "Venta al por menor de juguetes, artículos de deporte",
          "_links": {
            "self": {
              "name": "Venta al por menor de juguetes, artículos de deporte",
              "href": "https://api.euskadi.eus/procurements/companies/economic-activities/1.659.6"
            }
          }
        },
        {
          "id": "1.681",
          "name": "Servicios de hospedaje en hoteles y moteles",
          "_links": {
            "self": {
              "name": "Servicios de hospedaje en hoteles y moteles",
              "href": "https://api.euskadi.eus/procurements/companies/economic-activities/1.681"
            }
          }
        },
        {
          "id": "1.932.1",
          "name": "Enseñanza de formación y perfeccionamiento profesional no superior",
          "_links": {
            "self": {
              "name": "Enseñanza de formación y perfeccionamiento profesional no superior",
              "href": "https://api.euskadi.eus/procurements/companies/economic-activities/1.932.1"
            }
          }
        },
        {
          "id": "1.967.2",
          "name": "Escuelas y servicios de perfeccionamiento del deporte",
          "_links": {
            "self": {
              "name": "Escuelas y servicios de perfeccionamiento del deporte",
              "href": "https://api.euskadi.eus/procurements/companies/economic-activities/1.967.2"
            }
          }
        }
      ],
      "certificateStartDate": "2023-03-16",
      "certificateEndDate": "2023-08-20",
      "object": "ESCUELAS Y SERVICIOS DE PERFECCIONAMIENTO DEL DEPORTE. VENTA AL POR MENOR DE JUGUETES, ARTÍCULOS DE DEPORTE. SERVICIOS DE HOSPEDAJE EN HOTELES Y MOTELES . ENSEÑANZA DE FORMACIÓN Y PERFECCIONAMIENTO PROFESIONAL NO SUPERIOR.",
      "mainEntityOfPage": "https://www.contratacion.euskadi.eus/webkpe00-kperoc/es/ac71aBusquedaRegistrosWar/empresa/08252",
      "_links": {
        "self": {
          "name": "IBON ASTOBIZA BARRERA",
          "href": "https://api.euskadi.eus/procurements/companies/08252"
        }
      }
    },
    {
      "name": "ELENA RODRIGUEZ LABORRA",
      "registrationNumber": "08915",
      "identificationNumber": "16060341Q",
      "address": "Ángel Etorbidea, 20",
      "location": {
        "postalCode": "48993",
        "municipality": "Getxo",
        "county": "Bizkaia",
        "municipalityId": "044",
        "countyId": "48"
      },
      "economicActivities": [
        {
          "id": "2.411",
          "name": "Arquitectos",
          "_links": {
            "self": {
              "name": "Arquitectos",
              "href": "https://api.euskadi.eus/procurements/companies/economic-activities/2.411"
            }
          }
        }
      ],
      "certificateStartDate": "2023-03-16",
      "certificateEndDate": "2023-08-28",
      "object": "ARQUITECTOS.",
      "mainEntityOfPage": "https://www.contratacion.euskadi.eus/webkpe00-kperoc/es/ac71aBusquedaRegistrosWar/empresa/08915",
      "_links": {
        "self": {
          "name": "ELENA RODRIGUEZ LABORRA",
          "href": "https://api.euskadi.eus/procurements/companies/08915"
        }
      }
    },
    {
      "name": "THALES ESPAÑA G.R.P., S.A.",
      "registrationNumber": "04324",
      "identificationNumber": "A78634979",
      "address": "C.E.Pq.Norte, Ed.Alamo.SERRANO GALVACHE, 56. Att: Miguel Moratal",
      "location": {
        "postalCode": "28033",
        "municipality": "Madrid",
        "county": "Madrid",
        "municipalityId": "079",
        "countyId": "28"
      },
      "economicActivities": [
        {
          "id": "1.754.1",
          "name": "Depósitos y almacenes generales",
          "_links": {
            "self": {
              "name": "Depósitos y almacenes generales",
              "href": "https://api.euskadi.eus/procurements/companies/economic-activities/1.754.1"
            }
          }
        },
        {
          "id": "1.845",
          "name": "Explotación electrónica por cuenta de terceros",
          "_links": {
            "self": {
              "name": "Explotación electrónica por cuenta de terceros",
              "href": "https://api.euskadi.eus/procurements/companies/economic-activities/1.845"
            }
          }
        }
      ],
      "certificateStartDate": "2023-03-14",
      "certificateEndDate": "2023-09-13",
      "object": "A) INGENIERÍA, DISEÑO, FABRICACIÓN, IMPORTACIÓN, COMPRAVENTA, COMERCIALIZACION, SUMINISTRO, EXPORTACIÓN, ARRENDAMIENTO, INSTALACIÓN, INTEGRACIÓN, PUESTA A PUNTO Y EN SERVICIO DE TODO TIPO DE SOLUCIONES, SISTEMAS, EQUIPOS Y PRODUCTOS, ASI COMO DE CUALQUIER PARTE O COMPONENTE DE LOS MISMOS,\n* DE SEÑALIZACION FERROVIARIA,\n*DE TELECOMUNICACIONES, INFORMÁTICOS, MECÁNICOS, ELECTRÓNICOS, RADIOELECTRICOS, OPTICOS Y ELECTRICOS, INCLUIDOS LOS DESTINADOS A EQUIPAR VEHÍCULOS AUTOMOTORES, BUQUES Y AERONAVES,\n*MECANICOS ELEVADORES Y TRANSPORTADORES, \n*DE VENTILACION, CALEFACCION, FONTANERIA Y SANITARIOS EN TODAS SUS VERSIONES; LAS INSTALACIONES ELECTRICAS DE ALTA Y BAJA TENSION Y LAS SOLUCIONES, SISTEMAS, EQUIPOS Y PRODUCTOS COMPLEMENTARIOS DE LOS ANTERIORES EN LAS AREAS DE ALARMA, VIDEO VIGILANCIA, SEÑALIZACIONES, CONTRAINCENDIOS Y CLIMATIZACION Y COMPRENDIENDO CABLEADOS ESTRUCTURADOS, TRABAJOS PREPARATORIOS Y DEFINITIVOS DE INFRAESTRUCTURAS Y CONSTRUCCION DE EDIFICACIONES, OBRA CIVIL Y OBRAS PUBLICAS, TANTO ACCESORIAS COMO COMPLEMENTARIAS Y AUXILIARES DE LAS CITADAS SOLUCIONES, SISTEMAS, EQUIPOS Y PRODUCTOS, ASÍ COMO EL MANTENIMIENTO Y REPARACION DE LAS OBRAS.\n\nB) LA PRESTACION DE TODO TIPO DE SERVICIOS, COMPRENDIENDO LOS SERVICIOS INFORMATICOS Y LOS SERVICIOS DE ASESORAMIENTO, CONSULTORÍA, ASISTENCIA TÉCNICA, DOCUMENTACIÓN, FORMACIÓN, REPARACIÓN, MANTENIMIENTO Y OPERACIÓN RELACIONADOS CON LAS SOLUCIONES, SISTEMAS, EQUIPOS Y PRODUCTOS ANTERIORMENTE ENUMERADOS, INCLUIDOS BUQUES Y AERONAVES, HAYAN SIDO SUMINISTRADOS O NO POR LA SOCIEDAD.\n\nY TODO ELLO EN CUALQUIER SECTOR O AMBITO DE ACTIVIDAD, TANTO EN ESPAÑA COMO EN EL EXTRANJERO.\n\nLAS ACTIVIDADES DE INGENIERIA SERAN LLEVADAS A CABO POR PERSONAL DEBIDAMENTE CUALIFICADO. QUEDAN EXCLUIDAS, EN TODO CASO, LAS ACTIVIDADES PARA CUYO EJERCICIO LA LEY EXIJA REQUISITOS ESPECIALES QUE NO SEAN CUMPLIDOS POR LA SOCIEDAD.\n\nLAS ACTIVIDADES ENUMERADAS COMO INTEGRANTES DEL OBJETO SOCIAL PODRÁN TAMBIEN SER DESARROLLADAS, DE MODO INDIRECTO, MEDIANTE LA PARTICIPACIÓN EN OTRAS SOCIEDADES, CON OBJETO IDÉNTICO O ANÁLOGO.",
      "mainEntityOfPage": "https://www.contratacion.euskadi.eus/webkpe00-kperoc/es/ac71aBusquedaRegistrosWar/empresa/04324",
      "_links": {
        "self": {
          "name": "THALES ESPAÑA G.R.P., S.A.",
          "href": "https://api.euskadi.eus/procurements/companies/04324"
        }
      }
    }
  ]
}