{
  "totalItems": 9042,
  "totalPages": 905,
  "currentPage": 329,
  "itemsOfPage": 10,
  "items": [
    {
      "name": "ACTIVA PARQUES Y JARDINES, S.L.",
      "registrationNumber": "09478",
      "identificationNumber": "B47689203",
      "address": "C/ LOS INGLESES 41",
      "location": {
        "postalCode": "47155",
        "municipality": "Santovenia de Pisuerga",
        "county": "Valladolid",
        "municipalityId": "155",
        "countyId": "47"
      },
      "economicActivities": [
        {
          "id": "1.911",
          "name": "Servicios agrícolas y ganaderos",
          "_links": {
            "self": {
              "name": "Servicios agrícolas y ganaderos",
              "href": "https://api.euskadi.eus/procurements/companies/economic-activities/1.911"
            }
          }
        }
      ],
      "certificateStartDate": "2025-08-11",
      "certificateEndDate": "2026-02-11",
      "object": "A) LAS SIGUIENTES ACTIVIDADES RELACIONADAS CON PARQUES Y JARDINES: - RECUPERACIÓN DE ESPACIOS DEGRADADOS (AUTOVÍAS, VERTEDEROS, ETC.). - RESTITUCIÓN DEL PAISAJE DE OBRAS CIVILES. - MUROS VERDES. - ÁREAS RECREATIVAS Y DEPORTIVAS (CAMPOS DE FÚTBOL, DE GOLF, ETC.) - MANTENIMIENTO Y CONSERVACIÓN DE ZONAS VERDES. - CORRECCIÓN HIDROLÓGICA-FORESTAL. - RECUPERACIÓN DE MÁRGENES DE RÍOS Y HUMEDALES. - ACUICULTURA. - RIEGO DE ZONAS VERDES. - RIEGO DE EXPLOTACIONES AGRÍCOLAS. - TRATAMIENTO DE AGUAS. - PREPARACIÓN DEL TERRENO, SUBSOLADOS, ETC. - PLANTACIONES. - MANTENIMIENTO Y REPOSICIÓN DE MARRAS. - DESBROCES, CLAREOS Y PODAS DE ZONAS ARBOLADAS. - TRATAMIENTOS FITOSANITARIOS. - ELECTROSOLDADURA. - CANALIZACIÓN DE FUNDICIÓN - HIDRANTES. - POZOS Y PERFORACIONES. - FUENTES ORNAMENTALES. - ESTANQUES Y LAGOS. - BANCOS DE MADERA, PAPELERAS, JARDINERAS, ETC. - MADERA TRATADA. - PÉRGOLAS, CENADORES. - PUENTES Y PASARELAS. - POSTES DE MADERA, CERRAMIENTOS Y VALLADOS. - VENTA Y SUMINISTRO DE CÉSPED SINTÉTICO. - INSTALACIONES DE CÉSPED SINTÉTICO PARA INSTALACIONES DEPORTIVAS DE PADEL, FÚTBOL, - GREENS SINTÉTICOS, PISCINAS Y JARDINES. B) LAS SIGUIENTES ACTIVIDADES RELACIONADAS CON LA AGRICULTURA: - LA PRESTACIÓN DE TODO TIPO DE SERVICIOS TÉCNICOS Y PROFESIONALES EN MATERIA AGRÍCOLA, SILVÍCOLA Y AGROINDUSTRIAL, LA SIEMBRA, CULTIVO, REPRODUCCIÓN, CORTE, COMERCIALIZACIÓN, PROCESAMIENTO, TRANSFORMACIÓN, PRODUCCIÓN, SUMINISTRO, DISTRIBUCIÓN, ALMACENAMIENTO, IMPORTACIÓN Y EXPORTACIÓN, DE TODO TIPO ÁRBOLES, PLANTAS MEDICINALES U ORNAMENTALES, SEMILLAS, Y TODA CLASE DE MATERIAS PRIMAS Y MERCANCÍAS RELACIONADAS CON LA AGRICULTURA, SILVICULTURA Y SUS DERIVADOS, LA COMPRAVENTA, Y SU COMERCIALIZACIÓN TANTO, LA EXPORTACIÓN DE SUS PRODUCTOS Y SUBPRODUCTOS Y LA IMPORTACIÓN DE INSUMOS NECESARIOS PARA SU OBJETO SOCIAL. - LA PRESTACIÓN DE SERVICIOS PROFESIONALES RELACIONADOS CON EL DISEÑO, EDIFICACIÓN Y CONSTRUCCIÓN DE INSTALACIONES AGRÍCOLAS Y GANADERAS, CERCAS, EMPARRADOS, CABLE-VÍAS, SISTEMAS DE RIEGO, EMPAQUES, CÁMARAS DE REFRIGERACIÓN, ARMADORA DE CAJAS DE EMPAQUE, CORRALES DE ENGORDE, ABREVADEROS, SILOS, CANALES DE RIEGO, CARGADORES, ASPERSORES, LA ADQUISICIÓN Y VENTA DE MAQUINARIA Y EQUIPO RELACIONADO CON EL OBJETO ANTERIOR - LA PROMOCIÓN, DESARROLLO, EDIFICACIÓN, CONSTRUCCIÓN DE BODEGAS, SILOS, RANCHOS, NAVES DE USO AGRÍCOLA Y GANADERO, EDIFICIOS DE USO TURÍSTICOS E INDUSTRIALES DE CARÁCTER AGRICOLAFORESTAL. - PRESTAR SERVICIOS DE CAPACITACIÓN Y ADIESTRAMIENTO EN LAS DISCIPLINAS Y TÉCNICAS DE CARÁCTER AGRÍCOLA-FORESTAL. - LA ELABORACIÓN DE TODO TIPO DE AUDITORÍAS, ESTUDIOS, ORGANIZACIONES Y REORGANIZACIONES A INSTITUCIONES PRIVADAS Y PÚBLICAS; FORMULACIÓN DE PROYECTOS DE INVERSIÓN INDUSTRIALES, TURÍSTICOS, AGRÍCOLAS Y DE SERVICIOS. - LA INVESTIGACIÓN CIENTÍFICA Y DESARROLLO DE TECNOLOGÍA EN LAS DIVERSAS MATERIAS QUE CONSTITUYEN EL OBJETO DE LA SOCIEDAD. - LA REALIZACIÓN DE TRABAJOS AGRÍCOLAS Y/O FORESTALES, TODO LOS RELACIONADO CON CORTAS, PODAS, REPOBLACIONES, DESBROCES, MEJORAS DE SUPERFICIES, TRATAMIENTOS AGROSILVÍCOLAS, MEJORAS DE RIBERAS, TRABAJOS A TERCEROS CON O SIN MAQUINARIAS, TRATAMIENTOS FITOSANITARIOS, ABONADOS, SIEMBRAS, ARRENDAMIENTOS DE EQUIPOS Y UTENSILIOS AGRÍCOLAS, DISEÑO Y CONSTRUCCIÓN DE EMPARRADOS Y CUALQUIER OTRO TRABAJO DE TIPO AGRICOLAFORESTAL, RELACIONADO CON ESTA ACTIVIDAD. C) SUMINISTRO, INSTALACIÓN Y MANTENIMIENTO DE: - EQUIPAMIENTO PARA TERRENOS DE JUEGO; MOBILIARIO INFANTIL; MOBILIARIO URBANO (BANCOS, PAPELERAS, FUENTES, MESAS DE PICNIC, JARDINERAS); MOBILIARIO CANINO; MOBILIARIO BIOSALUDABLE Y DE CALISTENIA; TIROLINAS-JUEGOS ACROBÁTICOS; EQUIPAMIENTO PARA TERRENOS DE JUEGOS ACUÁTICOS; ETC. - PAVIMENTOS FLEXIBLES; PAVIMENTO CONTINUO DE CAUCHO ARIPAQ; PAVIMENTO ECOLÓGICO. - SEÑALIZACIÓN; INSTALACIÓN DE SEÑALIZACIÓN VIARIA - SISTEMAS DE ALUMBRADO Y SEÑALIZACIÓN; ALUMBRADOS, ILUMINACIONES Y BALIZAMIENTOS LUMINOSOS O INSTALACIONES ELÉCTRICAS SIN CUALIFICACIÓN ESPECÍFICA - CANALIZACIONES DE AGUAS PLUVIALES. - ACEQUIAS Y DESAGÜES D) EXPLANACIÓN, CONSTRUCCIÓN, MANTENIMIENTO Y REPARACIÓN DE INSTALACIONES DE ÁREAS DEPORTIVAS (PISTAS DEPORTIVAS, PISTAS DE SKATE, ROCÓDROMOS, CAMPOS DE GOLF, CAMPOS DE TENIS Y PÁDEL, FRONTONES, ETC) E) EXPLANACIÓN Y LIMPIEZA DE TERRENO; EXPLANACIÓN PARA INSTALACIONES RECREATIVAS F) TRABAJOS DE ORDENACIÓN DEL TERRENO G) TRABAJOS DE PAISAJISMO EN ZONAS DEPORTIVAS Y RECREATIVAS; TRABAJOS DE MEJORAMIENTO DEL MEDIO AMBIENTE H) ALBAÑILERÍA EN GENERAL; ALBAÑILERÍA, REVOCOS Y REVESTIDOS; COLOCACIÓN DE ADOQUINADO. I) TRABAJOS GENERALES DE CONSTRUCCIÓN DE INMUEBLES Y OBRAS DE INGENIERÍA CIVIL; PAVIMENTACIÓN, BORDILLOS DE HORMIGÓN Y GRANITO; ENCOFRADOS; SOLADOS Y ALICATADOS; CIMENTACIÓN; SOLERAS DE HORMIGÓN. J) CONSTRUCCIÓN DE PISTAS PARA BICICLETAS; CONSTRUCCIÓN DE CAMINOS PEATONALES K) DEMOLICIÓN DE INMUEBLES, EXCAVACIÓN Y MOVIMIENTO DE TIERRAS; DESMONTES VACIADOS; EXPLANACIONES; TERRAPLENES; CAPAS Y BASES Y SUBBASES GRANULARES. L) FONTANERÍA. M) TRABAJOS DE PINTURA N) TRABAJOS DE TENDIDO DE CAÑERÍAS DE DESAGÜE O) ESTRUCTURAS METÁLICAS (VALLADOS, CUBIERTAS); CONSTRUCCIÓN DE CUBIERTAS Y ESTRUCTURAS DE CERRAMIENTO; COLOCACIÓN DE CUBIERTAS METÁLICAS; SOLDADURA P) CARPINTERÍA METÁLICA; PÉRGOLAS; CERRAJERÍA METÁLICA Q) INSTALACIÓN DE BARANDILLAS, PASAMANOS METÁLICOS-MADERA R) CARPINTERÍA DE MADERA (PASARELAS, PUENTES, PÉRGOLAS, VALLADO) S) ABASTECIMIENTOS Y SANEAMIENTOS HIDRÁULICOS  T) OBRAS HIDRÁULICAS SIN CUALIFICACIÓN ESPECÍFICA; TRABAJOS DE DRENAJE Y DE SUPERFICIE; TRABAJOS DE CONSTRUCCIÓN DE MUELLES Y ESCOLLERAS U) OBRAS VIALES SIN CUALIFICACIÓN ESPECÍFICA V) TRABAJOS DE REESTRUCTURACIÓN.",
      "mainEntityOfPage": "https://www.contratacion.euskadi.eus/webkpe00-kperoc/es/ac71aBusquedaRegistrosWar/empresa/09478",
      "_links": {
        "self": {
          "name": "ACTIVA PARQUES Y JARDINES, S.L.",
          "href": "https://api.euskadi.eus/procurements/companies/09478"
        }
      }
    },
    {
      "name": "INTERKIDE S. COOP. PEQUEÑA",
      "registrationNumber": "09032",
      "identificationNumber": "F44826345",
      "address": "Cotillo, 16 -1º A, 48980 Santurtzi (Bizkaia)",
      "location": {
        "postalCode": "48980",
        "municipality": "Santurtzi",
        "county": "Bizkaia",
        "municipalityId": "082",
        "countyId": "48"
      },
      "economicActivities": [
        {
          "id": "1.847",
          "name": "Servicios de consultoría",
          "_links": {
            "self": {
              "name": "Servicios de consultoría",
              "href": "https://api.euskadi.eus/procurements/companies/economic-activities/1.847"
            }
          }
        }
      ],
      "certificateStartDate": "2025-08-11",
      "certificateEndDate": "2026-02-11",
      "object": "ASESORAMIENTO INTEGRAL COMERCIAL DE LOS POSIBLES NUEVOS PRODUCTOS PIVOTANTES DE EMPRESAS DEL SECTOR INDUSTRIAL, ASÍ COMO SU ALINEAMIENTO CON LOS ODS. FORMACIÓN EN PROCESOS COMERCIALES E INTERNACIONALIZACIÓN, PLANES INCLUSIVOS DE IGUALDAD, GESTIÓN DE RESIDUOS, DESARROLLO SOSTENIBLE Y UTILIZACIÓN DE ENERGÍAS LIMPIAS.",
      "mainEntityOfPage": "https://www.contratacion.euskadi.eus/webkpe00-kperoc/es/ac71aBusquedaRegistrosWar/empresa/09032",
      "_links": {
        "self": {
          "name": "INTERKIDE S. COOP. PEQUEÑA",
          "href": "https://api.euskadi.eus/procurements/companies/09032"
        }
      }
    },
    {
      "name": "ELKARKIDE, S.L.",
      "registrationNumber": "08940",
      "identificationNumber": "B31347081",
      "address": "P. I Mocholi, C/ Río Elorz 7",
      "location": {
        "postalCode": "31110",
        "municipality": "Noáin (Valle de Elorz)/Noain (Elortzibar)",
        "county": "Navarra",
        "municipalityId": "088",
        "countyId": "31"
      },
      "economicActivities": [
        {
          "id": "1.505.5",
          "name": "Carpintería y cerrajería",
          "_links": {
            "self": {
              "name": "Carpintería y cerrajería",
              "href": "https://api.euskadi.eus/procurements/companies/economic-activities/1.505.5"
            }
          }
        },
        {
          "id": "1.691.2",
          "name": "Reparación de vehículos automóviles, bicicletas y otros vehículos",
          "_links": {
            "self": {
              "name": "Reparación de vehículos automóviles, bicicletas y otros vehículos",
              "href": "https://api.euskadi.eus/procurements/companies/economic-activities/1.691.2"
            }
          }
        },
        {
          "id": "1.722",
          "name": "Transporte de mercancías por carretera",
          "_links": {
            "self": {
              "name": "Transporte de mercancías por carretera",
              "href": "https://api.euskadi.eus/procurements/companies/economic-activities/1.722"
            }
          }
        },
        {
          "id": "1.849.5",
          "name": "Servicios de recadería y reparto y manipulación de correspondencia",
          "_links": {
            "self": {
              "name": "Servicios de recadería y reparto y manipulación de correspondencia",
              "href": "https://api.euskadi.eus/procurements/companies/economic-activities/1.849.5"
            }
          }
        },
        {
          "id": "1.911",
          "name": "Servicios agrícolas y ganaderos",
          "_links": {
            "self": {
              "name": "Servicios agrícolas y ganaderos",
              "href": "https://api.euskadi.eus/procurements/companies/economic-activities/1.911"
            }
          }
        },
        {
          "id": "1.921.2",
          "name": "Servicios de recogida de basuras y desechos",
          "_links": {
            "self": {
              "name": "Servicios de recogida de basuras y desechos",
              "href": "https://api.euskadi.eus/procurements/companies/economic-activities/1.921.2"
            }
          }
        },
        {
          "id": "1.952",
          "name": "Asistencia y servicios sociales en centros no residenciales",
          "_links": {
            "self": {
              "name": "Asistencia y servicios sociales en centros no residenciales",
              "href": "https://api.euskadi.eus/procurements/companies/economic-activities/1.952"
            }
          }
        },
        {
          "id": "1.999",
          "name": "Otros servicios n.c.o.p",
          "_links": {
            "self": {
              "name": "Otros servicios n.c.o.p",
              "href": "https://api.euskadi.eus/procurements/companies/economic-activities/1.999"
            }
          }
        }
      ],
      "certificateStartDate": "2025-08-11",
      "certificateEndDate": "2026-02-11",
      "object": "A.- LA CREACIÓN, PROMOCIÓN, GESTIÓN Y DESARROLLO DE TODO TIPO DE CENTROS, SERVICIOS Y PROGRAMAS DEDICADOS A LA REHABILITACIÓN, RECUPERACIÓN E INTEGRACIÓN SOCIAL DE DISMINUIDOS Y ENFERMOS MENTALES. B.- APOYO Y ASESORAMIENTO A ENTIDADES INCLUIDAS EN EL ÁMBITO DE ACTUACIÓN ANTERIORMENTE CITADO. C.- SECUNDAR LA LABOR CIENTÍFICA Y TERAPÉUTICA QUE DESARROLLEN LAS CORPORACIONES PÚBLICAS, ASOCIACIONES Y CUALQUIER TIPO DE ENTIDAD, ASÍ COMO LA REALIZACIÓN DE PROYECTOS DE INVESTIGACIÓN. D.- LA INCORPORACIÓN SOCIOLABORAL DE PERSONAS EN SITUACIÓN DE EXCLUSIÓN SOCIAL. E.- Y, EN GENERAL, LA PRESTACIÓN DE TODOS AQUELLOS SERVICIOS TENDENTES A MEJORAR LA CALIDAD DE VIDA DE DISMINUIDOS Y ENFERMOS MENTALES.",
      "mainEntityOfPage": "https://www.contratacion.euskadi.eus/webkpe00-kperoc/es/ac71aBusquedaRegistrosWar/empresa/08940",
      "_links": {
        "self": {
          "name": "ELKARKIDE, S.L.",
          "href": "https://api.euskadi.eus/procurements/companies/08940"
        }
      }
    },
    {
      "name": "AMAIA ZABALUA DORRONSORO",
      "registrationNumber": "09204",
      "identificationNumber": "44332170S",
      "address": "Zaldizurreta Kalea, 1-5-D",
      "location": {
        "postalCode": "20200",
        "municipality": "Beasain",
        "county": "Gipuzkoa",
        "municipalityId": "019",
        "countyId": "20"
      },
      "economicActivities": [
        {
          "id": "2.751",
          "name": "Profesionales de la publicidad, relaciones públicas y similares",
          "_links": {
            "self": {
              "name": "Profesionales de la publicidad, relaciones públicas y similares",
              "href": "https://api.euskadi.eus/procurements/companies/economic-activities/2.751"
            }
          }
        },
        {
          "id": "2.799",
          "name": "Otros profesionales relacionados con actividades de seguros y de alquileres",
          "_links": {
            "self": {
              "name": "Otros profesionales relacionados con actividades de seguros y de alquileres",
              "href": "https://api.euskadi.eus/procurements/companies/economic-activities/2.799"
            }
          }
        },
        {
          "id": "2.826",
          "name": "Personal docente de enseñanzas diversas",
          "_links": {
            "self": {
              "name": "Personal docente de enseñanzas diversas",
              "href": "https://api.euskadi.eus/procurements/companies/economic-activities/2.826"
            }
          }
        }
      ],
      "certificateStartDate": "2025-08-11",
      "certificateEndDate": "2026-01-30",
      "object": "PERSONAL DOCENTE DE ENSEÑANZAS DIVERSAS. OTROS PROFESIONALES RELACIONADOS CON ACTIVIDADES DE SEGUROS Y DE ALQUILERES.  PROFESIONALES DE LA PUBLICIDAD, RELACIONES PÚBLICAS Y SIMILARES.",
      "mainEntityOfPage": "https://www.contratacion.euskadi.eus/webkpe00-kperoc/es/ac71aBusquedaRegistrosWar/empresa/09204",
      "_links": {
        "self": {
          "name": "AMAIA ZABALUA DORRONSORO",
          "href": "https://api.euskadi.eus/procurements/companies/09204"
        }
      }
    },
    {
      "name": "COMSA, S.A.",
      "registrationNumber": "01857",
      "identificationNumber": "A08031098",
      "address": "C/ VIRIATO, Nº 47. EDIF. NUMANCIA - 1",
      "location": {
        "postalCode": "08014",
        "municipality": "Barcelona",
        "county": "Barcelona",
        "municipalityId": "019",
        "countyId": "08"
      },
      "economicActivities": [
        {
          "id": "1.507",
          "name": "Construcción, reparación y conservación de toda clase obras",
          "_links": {
            "self": {
              "name": "Construcción, reparación y conservación de toda clase obras",
              "href": "https://api.euskadi.eus/procurements/companies/economic-activities/1.507"
            }
          }
        }
      ],
      "certificateStartDate": "2025-08-11",
      "certificateEndDate": "2026-02-11",
      "object": "a) LA EJECUCIÓN DE OBRAS PÚBLICAS Y PRIVADAS DE CUALQUIER CLASE, TANTO CIVILES O DE CUALQUIER OTRO TIPO, ESPECIALMENTE INFRAESTRUCTURAS, NIVELACIONES DE TERRENOS, DESMONTES, TENDIDOS DE LÍNEAS ELÉCTRICAS, TELEFÓNICAS, FÉRREAS, CARRETERAS O DE OTRA ÍNDOLE. CONSTRUCCIÓN Y REPARACIÓN DE TODO TIPO DE EDIFICACIONES TANTO RÚSTICAS COMO URBANAS, DE CARÁCTER INDUSTRIAL, VIVIENDA, COMERCIAL U OFICINAS, Y EN GENERAL, EN SUS DIVERSOS ASPECTOS, TODO EL RAMO DE LA CONSTRUCCIÓN. b) LA PRESTACIÓN DE TODA CLASE DE SERVICIOS TÉCNICOS DE INGENIERÍA INDUSTRIAL Y CIVIL, REDACCIÓN Y ELABORACIÓN DE PROYECTOS, CÁLCULOS Y ENSAYOS PARA LA ACTIVIDAD DE LA CONSTRUCCIÓN PRIVADA Y OBRA PÚBLICA, LA PRÁCTICA DE CUALESQUIERA ACTIVIDADES DE LEVANTAMIENTO DE PLANOS, FOTOGRAMETRÍA, EJECUCIÓN DE MAQUETAS Y MODELOS, DELINEACIÓN, MEDICIÓN, VALORACIÓN DE PROYECTOS Y OBRAS, ELABORACIÓN DE DICTÁMENES, INFORMES, PERITAJES Y CONTROL DE CALIDADES Y TODO ELLO CON RELACIÓN A EMPRESAS, ORGANISMOS O PARTICULARES. c) LA COMPRAVENTA, FABRICACIÓN, PRODUCCIÓN, IMPORTACIÓN Y EXPORTACIÓN DE MAQUINARIA AGRÍCOLA E INDUSTRIAL Y DE BIENES DE EQUIPO, ASÍ COMO DE SUS DIVERSOS ELEMENTOS Y MATERIA PRIMA NECESARIA PARA SU PRODUCCIÓN. d) LA ADQUISICIÓN, URBANIZACIÓN, PARCELACIÓN, CONSTRUCCIÓN, AMPLIACIÓN Y REFORMA DE TODA CLASE DE BIENES INMUEBLES, TANTO RÚSTICOS COMO URBANOS Y SU EXPLOTACIÓN DIRECTA O INDIRECTA. e) EL TRANSPORTE DE PERSONAS, MERCANCÍAS Y GANADO POR VÍAS FÉRREAS, CARRETERAS Y VÍAS FLUVIALES. f) LA REALIZACIÓN DE TODO TIPO DE SERVICIOS PÚBLICOS Y PRIVADOS DE LIMPIEZA, EN PARTICULAR LA RECOGIDA, TRANSPORTE, TRATAMIENTO, VALORIZACIÓN Y ELIMINACIÓN DE TODO TIPO DE RESIDUOS, INCLUÍDOS LOS INDUSTRIALE SY MUNICIPALEES; LA LIMPIEZA, RIEGO Y BARRIDO DE CALLES, VIALES PÚBLICOS Y PRIVADOS, Y PLAYA; LA CONSERVACIÓN Y MANTENIMIENTO DE MOBILIARIO URBANO Y DE SISTEMAS DE ILUMINACIÓN; LA OPERACIÓN, LIMPIEZA Y MANTENIMIENTO DE SISTEMAS DE DISTRIBUCIÓN DE AGUAS Y DE ALCANTARILLADO, LA LIMPIEZA DE FACHADAS; LA CONSERVACIÓN Y MANTENIMIENTO DE JARDINES Y DE TODO TIPO DE ESPACIOS PÚBLICOS",
      "mainEntityOfPage": "https://www.contratacion.euskadi.eus/webkpe00-kperoc/es/ac71aBusquedaRegistrosWar/empresa/01857",
      "_links": {
        "self": {
          "name": "COMSA, S.A.",
          "href": "https://api.euskadi.eus/procurements/companies/01857"
        }
      }
    },
    {
      "name": "IÑAKI SALDIAS SOLIS",
      "registrationNumber": "09196",
      "identificationNumber": "44672617Q",
      "address": "Calle Cubo (01001) 1, BAJO DCHA",
      "location": {
        "postalCode": "01001",
        "municipality": "Vitoria-Gasteiz",
        "county": "Araba/Álava",
        "municipalityId": "059",
        "countyId": "01"
      },
      "economicActivities": [
        {
          "id": "1.611",
          "name": "Venta al por mayor de toda clase de mercancías",
          "_links": {
            "self": {
              "name": "Venta al por mayor de toda clase de mercancías",
              "href": "https://api.euskadi.eus/procurements/companies/economic-activities/1.611"
            }
          }
        },
        {
          "id": "1.659.9",
          "name": "Venta al por menor de otros productos no especificados en esta agrupación",
          "_links": {
            "self": {
              "name": "Venta al por menor de otros productos no especificados en esta agrupación",
              "href": "https://api.euskadi.eus/procurements/companies/economic-activities/1.659.9"
            }
          }
        },
        {
          "id": "1.848.2",
          "name": "SERVICIOS DE OFICINA FLEXIBLE, \"COWORKING\" Y CENTROS DE NEGOCIOS",
          "_links": {
            "self": {
              "name": "SERVICIOS DE OFICINA FLEXIBLE, \"COWORKING\" Y CENTROS DE NEGOCIOS",
              "href": "https://api.euskadi.eus/procurements/companies/economic-activities/1.848.2"
            }
          }
        },
        {
          "id": "2.751",
          "name": "Profesionales de la publicidad, relaciones públicas y similares",
          "_links": {
            "self": {
              "name": "Profesionales de la publicidad, relaciones públicas y similares",
              "href": "https://api.euskadi.eus/procurements/companies/economic-activities/2.751"
            }
          }
        },
        {
          "id": "2.765",
          "name": "Grabadores informáticos",
          "_links": {
            "self": {
              "name": "Grabadores informáticos",
              "href": "https://api.euskadi.eus/procurements/companies/economic-activities/2.765"
            }
          }
        }
      ],
      "certificateStartDate": "2025-08-11",
      "certificateEndDate": "2026-02-10",
      "object": "PROFESIONALES DE LA PUBLICIDAD, RELACIONES PÚBLICAS Y SIMILARES.",
      "mainEntityOfPage": "https://www.contratacion.euskadi.eus/webkpe00-kperoc/es/ac71aBusquedaRegistrosWar/empresa/09196",
      "_links": {
        "self": {
          "name": "IÑAKI SALDIAS SOLIS",
          "href": "https://api.euskadi.eus/procurements/companies/09196"
        }
      }
    },
    {
      "name": "AMBIENTE ET ODORA, S.L.",
      "registrationNumber": "08000",
      "identificationNumber": "B01654524",
      "address": "Calle Uribitarte 6 (48001)",
      "location": {
        "postalCode": "48001",
        "municipality": "Bilbao",
        "county": "Bizkaia",
        "municipalityId": "020",
        "countyId": "48"
      },
      "economicActivities": [
        {
          "id": "1.476.2",
          "name": "Edición de periódicos y revistas",
          "_links": {
            "self": {
              "name": "Edición de periódicos y revistas",
              "href": "https://api.euskadi.eus/procurements/companies/economic-activities/1.476.2"
            }
          }
        },
        {
          "id": "1.843.1",
          "name": "Servicios técnicos de ingeniería",
          "_links": {
            "self": {
              "name": "Servicios técnicos de ingeniería",
              "href": "https://api.euskadi.eus/procurements/companies/economic-activities/1.843.1"
            }
          }
        },
        {
          "id": "1.932.2",
          "name": "Enseñanza de formación y perfeccionamiento profesional superior",
          "_links": {
            "self": {
              "name": "Enseñanza de formación y perfeccionamiento profesional superior",
              "href": "https://api.euskadi.eus/procurements/companies/economic-activities/1.932.2"
            }
          }
        },
        {
          "id": "1.989.2",
          "name": "Servicios de organización de congresos, asambleas y similares",
          "_links": {
            "self": {
              "name": "Servicios de organización de congresos, asambleas y similares",
              "href": "https://api.euskadi.eus/procurements/companies/economic-activities/1.989.2"
            }
          }
        }
      ],
      "certificateStartDate": "2025-08-11",
      "certificateEndDate": "2026-02-01",
      "object": "CONSULTORÍA, PROMOCIÓN, PUBLICIDAD MEDIOAMBIENTAL, ORGANIZACIÓN DE EVENTOS Y, EN GENERAL, TODA ACTIVIDAD RELACIONADA CON EL MEDIOAMBIENTE, CON ESPECIAL FOCO EN EL OLOR.",
      "mainEntityOfPage": "https://www.contratacion.euskadi.eus/webkpe00-kperoc/es/ac71aBusquedaRegistrosWar/empresa/08000",
      "_links": {
        "self": {
          "name": "AMBIENTE ET ODORA, S.L.",
          "href": "https://api.euskadi.eus/procurements/companies/08000"
        }
      }
    },
    {
      "name": "IZAN INTERVENCIÓN FAMILIAR Y COMUNITARIA, S.L.",
      "registrationNumber": "05743",
      "identificationNumber": "B20943213",
      "address": "Calle Antonio María Labaien, nº 14-2ª planta, oficina 2A",
      "location": {
        "postalCode": "20009",
        "municipality": "Donostia / San Sebastián",
        "county": "Gipuzkoa",
        "municipalityId": "069",
        "countyId": "20"
      },
      "economicActivities": [
        {
          "id": "1.942.9",
          "name": "Otros servicios sanitarios sin internados, no clasificados",
          "_links": {
            "self": {
              "name": "Otros servicios sanitarios sin internados, no clasificados",
              "href": "https://api.euskadi.eus/procurements/companies/economic-activities/1.942.9"
            }
          }
        },
        {
          "id": "1.952",
          "name": "Asistencia y servicios sociales en centros no residenciales",
          "_links": {
            "self": {
              "name": "Asistencia y servicios sociales en centros no residenciales",
              "href": "https://api.euskadi.eus/procurements/companies/economic-activities/1.952"
            }
          }
        }
      ],
      "certificateStartDate": "2025-08-10",
      "certificateEndDate": "2026-02-10",
      "object": "LA PROTECCIÓN DE PERSONAS MENORES DE EDAD MEDIANTE LA PRESTACIÓN DE SERVICIOS DE PSICOLOGÍA CLÍNICA, ASESORAMIENTO Y PLANIFICACIÓN DE TRATAMIENTOS PSICOTERAPÉUTICOS EN TODO TIPO DE PATOLOGÍAS RELACIONADAS CON LA SALUD MENTAL Y SERVICIOS DE ORIENTACIÓN Y ATENCIÓN PSICOLÓGICA, TODO ELLO A PARTICULARES Y A FAMILIAS",
      "mainEntityOfPage": "https://www.contratacion.euskadi.eus/webkpe00-kperoc/es/ac71aBusquedaRegistrosWar/empresa/05743",
      "_links": {
        "self": {
          "name": "IZAN INTERVENCIÓN FAMILIAR Y COMUNITARIA, S.L.",
          "href": "https://api.euskadi.eus/procurements/companies/05743"
        }
      }
    },
    {
      "name": "DISTRIBUCIONES DE EQUIPAMIENTOS MÉDICOS, EMERGENCIAS Y RESCATES DIEMER, S.L.",
      "registrationNumber": "07945",
      "identificationNumber": "B48904668",
      "address": "C/Zubiete 44, pol.ind Isasi entreplanta Nave 4",
      "location": {
        "postalCode": "48192",
        "municipality": "Gordexola",
        "county": "Bizkaia",
        "municipalityId": "042",
        "countyId": "48"
      },
      "economicActivities": [
        {
          "id": "1.619.2",
          "name": "Venta al por mayor de aparatos e instrumentos médicos, ortopédicos, ópticos",
          "_links": {
            "self": {
              "name": "Venta al por mayor de aparatos e instrumentos médicos, ortopédicos, ópticos",
              "href": "https://api.euskadi.eus/procurements/companies/economic-activities/1.619.2"
            }
          }
        }
      ],
      "certificateStartDate": "2025-08-10",
      "certificateEndDate": "2026-07-26",
      "object": "1.- EL COMERCIO MAYOR Y MENOR, EXPORTACIÓN, IMPORTACIÓN, ALMACENAMIENTO Y DISTRIBUCIÓN DE APARATOS E INSTRUMENTOS Y MATERIALES MÉDICOS Y HOSPITALARIOS, ORTOPÉDICOS, ÓPTICOS Y FOTOGRÁFICOS, ASÍ COMO DE MATERIAL INFORMÁTICO, INCLUIDA LA PROGRAMACIÓN Y MATERIAL DE OFICINA, ALCOHOLÍMETROS MÓVILES O EN MÁQUINAS FIJAS Y OTRAS MÁQUINAS EXPENDEDORAS PARA SERVICIOS DE TIPO MÉDICO U HOSPITALARIOS. 2.- SOPORTE TÉCNICO, INCLUIDA FABRICACIÓN Y REPARACIÓN, DE EQUIPOS ELECTRO MÉDICOS, DE DIAGNÓSTICO PARA LABORATORIOS, LA SALUD Y BIENESTAR. 3.- EDITORIALES INFORMÁTICOS, SUMINISTROS DE MATERIAL SANITARIO Y SERVICIOS DESTINADOS A LOS OPERADORES MÉDICOS, HOSPITALARIOS Y SANIDAD EN GENERAL POR UN PORTAL ESPECÍFICO DE INTERNET. 4.- COMERCIO ON LINE Y COMERCIALIZACIÓN, INTERMEDIACIÓN, ALMACENAMIENTO, EXPORTACIÓN E IMPORTACIÓN DE PRODUCTOS DE HIGIENE PERSONAL SIMILARES. 5.- PRESTACIONES DE SERVICIOS AÉREOS CON RPAS, TALES COMO TRABAJOS AÉREOS DE FOTOGRAMETRÍA, INSPECCIÓN DE ESTRUCTURAS Y EDIFICIOS, INSPECCIÓN EN LÍNEAS ELÉCTRICAS, INVESTIGACIÓN Y AGRICULTURA DE PRESIÓN. 6.- PRESTACIÓN DE SERVICIOS MULTIMEDIA, FILMACIÓN, FOTOGRAFÍA Y ANIMACIÓN MEDIANTE TODO TIPO DE EQUIPOS. 7.- COMERCIO AL POR MAYOR Y AL POR MENOR, DISTRIBUCIÓN Y COMERCIALIZACIÓN, IMPORTACIÓN Y EXPORTACIÓN, INCLUIDAS ACTIVIDADES DE GESTIÓN, DEMOSTRACIÓN Y ADMINISTRACIÓN, DE SERVICIOS EDUCATIVOS RELACIONADOS CON CUALQUIER TIPO DE ACTIVIDADES SANITARIAS Y DE RESCATE, OCIO Y ENTRETENIMIENTO",
      "mainEntityOfPage": "https://www.contratacion.euskadi.eus/webkpe00-kperoc/es/ac71aBusquedaRegistrosWar/empresa/07945",
      "_links": {
        "self": {
          "name": "DISTRIBUCIONES DE EQUIPAMIENTOS MÉDICOS, EMERGENCIAS Y RESCATES DIEMER, S.L.",
          "href": "https://api.euskadi.eus/procurements/companies/07945"
        }
      }
    },
    {
      "name": "HEALTH CARE SERVICES S. COOP. PEQUEÑA",
      "registrationNumber": "09511",
      "identificationNumber": "F06904015",
      "address": "JOSE ANTONIO LOIDI BIZKARRONDO 19, BAJO C",
      "location": {
        "postalCode": "20304",
        "municipality": "Irun",
        "county": "Gipuzkoa",
        "municipalityId": "045",
        "countyId": "20"
      },
      "economicActivities": [
        {
          "id": "1.942.1",
          "name": "Consultorios médicos, centros de socorro sanitarios y urgencias",
          "_links": {
            "self": {
              "name": "Consultorios médicos, centros de socorro sanitarios y urgencias",
              "href": "https://api.euskadi.eus/procurements/companies/economic-activities/1.942.1"
            }
          }
        }
      ],
      "certificateStartDate": "2025-08-09",
      "certificateEndDate": "2026-02-09",
      "object": "PRESTACIÓN DE SERVICIOS DE ENFERMERÍA, FISIOTERAPIA, TERAPIA OCUPACIONAL, ACTIVIDADES FORMATIVAS, NUTRICIÓN, APOYO Y/O AYUDA DOMICILIARIA, PSICOLOGÍA Y PREVENTIVOS, HACIENDO CONSTAR QUE PARA EL EJERCICIO DE SU ACTIVIDAD LABORAL DENTRO DE LA COOPERATIVA LA MAYORÍA DE LOS SOCIOS NO NECESITAN ESTAR COLEGIADOS NI PERTENECER A NINGÚN COLEGIO PROFESIONAL.",
      "mainEntityOfPage": "https://www.contratacion.euskadi.eus/webkpe00-kperoc/es/ac71aBusquedaRegistrosWar/empresa/09511",
      "_links": {
        "self": {
          "name": "HEALTH CARE SERVICES S. COOP. PEQUEÑA",
          "href": "https://api.euskadi.eus/procurements/companies/09511"
        }
      }
    }
  ]
}