{
  "totalItems": 9042,
  "totalPages": 905,
  "currentPage": 654,
  "itemsOfPage": 10,
  "items": [
    {
      "name": "ADPV ADVERTISING PROVIDER, S.L.",
      "registrationNumber": "05454",
      "identificationNumber": "B95668422",
      "address": "Ercilla 26, 1ºDcha",
      "location": {
        "postalCode": "48011",
        "municipality": "Bilbao",
        "county": "Bizkaia",
        "municipalityId": "020",
        "countyId": "48"
      },
      "economicActivities": [
        {
          "id": "1.844",
          "name": "Servicios de publicidad, relaciones públicas y similares",
          "_links": {
            "self": {
              "name": "Servicios de publicidad, relaciones públicas y similares",
              "href": "https://api.euskadi.eus/procurements/companies/economic-activities/1.844"
            }
          }
        }
      ],
      "certificateStartDate": "2015-12-16",
      "certificateEndDate": "2016-05-10",
      "object": "LA CREACIÓN, SEGUIMIENTO Y PUBLICACIÓN, DIVULGACIÓN, PROMULGACIÓN Y PROPAGANDA DE ANUNCIOS, SPORTS, CAMPAÑAS PUBLICITARIAS Y MARKETING, ASÍ COMO EL ASESORAMIENTO Y CONSULTORÍA EN MATERIA DE INFORMÁTICA A TRAVÉS DE INTERNET.",
      "mainEntityOfPage": "https://www.contratacion.euskadi.eus/webkpe00-kperoc/es/ac71aBusquedaRegistrosWar/empresa/05454",
      "_links": {
        "self": {
          "name": "ADPV ADVERTISING PROVIDER, S.L.",
          "href": "https://api.euskadi.eus/procurements/companies/05454"
        }
      }
    },
    {
      "name": "CONSULTORES HOBEST, S.L.",
      "registrationNumber": "02212",
      "identificationNumber": "B48806806",
      "address": "ERREKABEA, 2 - 1. A",
      "location": {
        "postalCode": "20280",
        "municipality": "Hondarribia",
        "county": "Gipuzkoa",
        "municipalityId": "036",
        "countyId": "20"
      },
      "economicActivities": [
        {
          "id": "1.847",
          "name": "Servicios de consultoría",
          "_links": {
            "self": {
              "name": "Servicios de consultoría",
              "href": "https://api.euskadi.eus/procurements/companies/economic-activities/1.847"
            }
          }
        }
      ],
      "certificateStartDate": "2015-12-10",
      "certificateEndDate": "2016-05-19",
      "object": "LA FORMACIÓN DE CUADROS DE RECURSOS HUMANOS Y DE PERSONAL AL SERVICIO DE ENTIDADES, ORGANIZACIONES Y ASOCIACIONES PÚBLICAS Y PRIVADAS, PUDIENDO TAMBIÉN DESARROLLAR TALES ACTIVIDADES DE CARA A LA CIUDADANÍA EN GENERAL, EN EL SUPUESTO DE QUE LOS DESTINATARIOS DEL SERVICIO NO SE HALLAREN ENCUADRADOS EN UNA DE AQUELLAS. TAMBIÉN TENDRÁ COMO OBJETO EL ASESORAMIENTO INTEGRAL A TODO TIPO DE PERSONAS, ENTIDADES, ORGANIZACIONES Y ASOCIACIONES, CON INDEPENDENCIA DE SU CONFIGURACIÓN JURÍDICA PARTICULAR",
      "mainEntityOfPage": "https://www.contratacion.euskadi.eus/webkpe00-kperoc/es/ac71aBusquedaRegistrosWar/empresa/02212",
      "_links": {
        "self": {
          "name": "CONSULTORES HOBEST, S.L.",
          "href": "https://api.euskadi.eus/procurements/companies/02212"
        }
      }
    },
    {
      "name": "EUROCOP SECURITY SYSTEMS, S.L.",
      "registrationNumber": "05450",
      "identificationNumber": "B84137470",
      "address": "PASEO CARLOS III, 24",
      "location": {
        "postalCode": "28200",
        "municipality": "San Lorenzo de El Escorial",
        "county": "Madrid",
        "municipalityId": "131",
        "countyId": "28"
      },
      "economicActivities": [
        {
          "id": "1.845",
          "name": "Explotación electrónica por cuenta de terceros",
          "_links": {
            "self": {
              "name": "Explotación electrónica por cuenta de terceros",
              "href": "https://api.euskadi.eus/procurements/companies/economic-activities/1.845"
            }
          }
        }
      ],
      "certificateStartDate": "2015-11-30",
      "certificateEndDate": "2016-04-14",
      "object": "LA DISTRIBUCIÓN Y VENTA DE ORDENADORES DE CUALQUIER CLASE O TIPO, YA SEAN NACIONALES O EXTRANJEROS, PERIFÉRICOS Y DE CUALQUIER CLASE DE MATERIAL DE OFICINAS. DESARROLLO DE PROGRAMAS Y DISTRIBUCIÓN DE PROGRAMAS AJENOS. SERVICIOS DE CONSULTING A EMPRESAS Y ENTIDADES PÚBLICAS. SERVICIO DE CENTRO DE CÁLCULO, GRABACIÓN Y PROGRAMACIÓN. IMPORTACIÓN Y EXPORTACIÓN DE ORDENADORES Y PERIFÉRICOS Y PROGRAMAS DE APLICACIÓN. SERVICIOS DE GESTIÓN Y TRAMITACIÓN DE EXPEDIENTES SANCIONADORES DE MULTAS DE TRÁFICO, ORDENANZA REGULADORAS DE APARCAMIENTO, INFRACCIONES URBANÍSTICAS Y ORDENANZAS MUNICIPALES, EN CUANTO A PARTE ADMINISTRATIVA, CONTESTACIÓN DE RECURSOS, DEFENSA JUDICIAL, PROPUESTAS DE RESOLUCIONES PARA ADMINISTRACIONES PÚBLICAS, ORGANISMOS AUTÓNOMOS, EMPRESAS Y PARTICULARES. SERVICIOS DE RECAUDACIÓN VOLUNTARIA Y EJECUTIVA. SERVICIOS DE TRAMITACIÓN DE EXPEDIENTES EN VÍA EJECUTIVA PARA LA ADMINISTRACIÓN PUBLICA. SERVICIOS DE CONSULTORÍA, ASESORAMIENTO, DIRECCIÓN, GESTIÓN, MEDIACIÓN Y ADMINISTRACIÓN DE TODO TIPO DE EMPRESAS Y ENTIDADES PÚBLICAS. SERVICIOS DE AUDITORIA INFORMÁTICA. LA REALIZACIÓN, COMERCIALIZACIÓN Y PRESTACIÓN DE TODO TIPO DE CURSOS, CURSILLOS Y CONFERENCIAS EN MATERIAS RELACIONADAS CON LA ADMINISTRACIÓN Y GESTIÓN DE EMPRESAS. SERVICIOS INFORMÁTICOS, SISTEMAS INFORMÁTICOS DE INFORMACIÓN GEOGRÁFICA, CENTRO DE CÁLCULO, GRABACIÓN, DIGITALIZACIÓN Y PROGRAMACIÓN. ADQUISICIÓN, ENAJENACIÓN Y COMERCIALIZACIÓN DE PRODUCTOS INFORMÁTICOS Y DE OFIMÁTICA, TANTO SOFTWARE COMO HARDWARE PROPIOS Y DE TERCEROS. SERVICIOS DE MANTENIMIENTO DE INSTALACIONES INFORMÁTICAS. LA REALIZACIÓN, COMERCIALIZACIÓN Y PRESTACIÓN DE TODO TIPO DE CURSOS, CURSILLOS Y CONFERENCIAS EN MATERIAS RELACIONADAS CON EL MANEJO DE HERRAMIENTAS Y APLICACIONES INFORMÁTICAS. LA IMPORTACIÓN Y EXPORTACIÓN DE HARDWARE Y SOFTWARE. LA COMPRA Y VENTA DE BIENES INMUEBLES\r\n\r\n",
      "mainEntityOfPage": "https://www.contratacion.euskadi.eus/webkpe00-kperoc/es/ac71aBusquedaRegistrosWar/empresa/05450",
      "_links": {
        "self": {
          "name": "EUROCOP SECURITY SYSTEMS, S.L.",
          "href": "https://api.euskadi.eus/procurements/companies/05450"
        }
      }
    },
    {
      "name": "LABORATORIOS MACRIMASA-PHARMA, S.A.",
      "registrationNumber": "04749",
      "identificationNumber": "A17869090",
      "address": "C/ SEQUIA 7, 3º",
      "location": {
        "postalCode": "17001",
        "municipality": "Girona",
        "county": "Girona",
        "municipalityId": "079",
        "countyId": "17"
      },
      "economicActivities": [
        {
          "id": "1.619.2",
          "name": "Venta al por mayor de aparatos e instrumentos médicos, ortopédicos, ópticos",
          "_links": {
            "self": {
              "name": "Venta al por mayor de aparatos e instrumentos médicos, ortopédicos, ópticos",
              "href": "https://api.euskadi.eus/procurements/companies/economic-activities/1.619.2"
            }
          }
        }
      ],
      "certificateStartDate": "2015-11-26",
      "certificateEndDate": "2015-06-08",
      "object": "LA INVESTIGACIÓN, FABRICACIÓN, FORMULACIÓN, DESARROLLO, ALMACENAMIENTO, MEDIACIÓN, COMERCIALIZACIÓN, DISTRIBUCIÓN Y TRANSPORTE, TANTO A NIVEL NACIONAL COMO INTERNACIONAL, DE TODA CLASE DE MEDICAMENTOS, PRODUCTOS SANITARIOS Y PRODUCTOS FARMACÉUTICOS, INCLUYENDO TANTO LAS ESPECIALIDADES HUMANAS Y ANIMAL, ASÍ COMO PRODUCTOS DESTINADOS A PARAFARMACIA, DROGUERÍAS Y PERFUMERÍA Y COSMÉTICA; EL SUMINISTRO DE EQUIPAMIENTOS Y SERVICIOS A LAS OFICINAS, ALMACENES Y EMPRESAS FARMECÉUTICAS-SANITARIAS, ASÍ COMO A SU PERSONAL",
      "mainEntityOfPage": "https://www.contratacion.euskadi.eus/webkpe00-kperoc/es/ac71aBusquedaRegistrosWar/empresa/04749",
      "_links": {
        "self": {
          "name": "LABORATORIOS MACRIMASA-PHARMA, S.A.",
          "href": "https://api.euskadi.eus/procurements/companies/04749"
        }
      }
    },
    {
      "name": "ACTIVIDADES LOGÍSTICAS VASCAS, S.L.",
      "registrationNumber": "05448",
      "identificationNumber": "B95567830",
      "address": "Pol.Ind.Torrelarragoiti P7B-Edif.A.Pab.A1.1-A-1.7",
      "location": {
        "postalCode": "48170",
        "municipality": "Zamudio",
        "county": "Bizkaia",
        "municipalityId": "905",
        "countyId": "48"
      },
      "economicActivities": [
        {
          "id": "1.756",
          "name": "Intermediarios del transporte",
          "_links": {
            "self": {
              "name": "Intermediarios del transporte",
              "href": "https://api.euskadi.eus/procurements/companies/economic-activities/1.756"
            }
          }
        },
        {
          "id": "1.849.5",
          "name": "Servicios de recadería y reparto y manipulación de correspondencia",
          "_links": {
            "self": {
              "name": "Servicios de recadería y reparto y manipulación de correspondencia",
              "href": "https://api.euskadi.eus/procurements/companies/economic-activities/1.849.5"
            }
          }
        }
      ],
      "certificateStartDate": "2015-11-23",
      "certificateEndDate": "2016-04-08",
      "object": "A) LA PRESTACIÓN DE SERVICIOS DE MENSAJERÍA, RECADERÍA, REPARTO, DISTRIBUCIÓN, MANIPULACIÓN, EMBALAJE, IMPORTACIÓN Y EXPORTACIÓN DE TODO TIPO DE PRODUCTO, ARTÍCULO Y CORRESPONDENCIA, ASÍ COMO EL DEPÓSITO Y ALMACENAMIENTO DE MERCANCÍAS AJENAS Y LA PRESTACIÓN DEL SERVICIOS DE LOGÍSTICA Y ASESORAMIENTO A TERCEROS RELACIONADO CON TODO ELLO. B) COMO AGENCIA DE TRANSPORTE, LA PRESTACIÓN DE SERVICIOS DE TRANSPORTE, MENSAJERÍA Y PAQUETERÍA, NACIONAL O INTERNACIONAL, TERRESTRE, MARÍTIMO O AÉREO. C) LA COMPRA, VENTA, ARRENDAMIENTO Y EXPLOTACIÓN DE BIENES INMUEBLES. D) LA COMPRA Y VENTA DE VEHÍCULOS DE TODO TIPO, TANTO TURISMOS COMO INDUSTRIALES, TRAMITANDO Y CONSIGUIENDO HOMOLOGACIONES DE CABINAS DE CARGA Y DE ELEMENTOS TRACTORES, ASÍ COMO LA REPARACIÓN Y MANTENIMIENTO DE LOS MISMOS. E) ADQUISICIÓN DE TÍTULOS VALORES, ACCIONES Y PARTICIPACIONES DE OTRAS ENTIDADES TANTO DE COTIZACIÓN EN BOLSA, COMO LAS QUE NO LO ESTÉN, ASÍ QUE A LA ADMINISTRACIÓN DE CARTERAS DE INVERSIÓN CON SOPORTE DE BIENES MUEBLES E INMUEBLES DE CUALQUIER TIPO, SIN INCIDIR EN LAS ACTIVIDADES REGULADAS POR LA LEY DEL MERCADO DE VALORES Y EN LAS PROPIAS DE LAS INSTITUCIONES DE INVERSIÓN COLECTIVA. F) EL TRANSPORTE DE PASAJEROS, TANTO EN GRUPOS COMO DE FORMA INDIVIDUAL. G) LA LLEVANZA DE GESTIÓN DE ARCHIVOS, SU ALMACENAMIENTO Y LOGÍSTICA",
      "mainEntityOfPage": "https://www.contratacion.euskadi.eus/webkpe00-kperoc/es/ac71aBusquedaRegistrosWar/empresa/05448",
      "_links": {
        "self": {
          "name": "ACTIVIDADES LOGÍSTICAS VASCAS, S.L.",
          "href": "https://api.euskadi.eus/procurements/companies/05448"
        }
      }
    },
    {
      "name": "ELKARZERBI SLU",
      "registrationNumber": "05439",
      "identificationNumber": "B95759213",
      "address": "Estartetxe, 5 dpto. 212",
      "location": {
        "postalCode": "48940",
        "municipality": "Leioa",
        "county": "Bizkaia",
        "municipalityId": "054",
        "countyId": "48"
      },
      "economicActivities": [
        {
          "id": "1.849.9",
          "name": "Otros servicios independientes n.c.o.p",
          "_links": {
            "self": {
              "name": "Otros servicios independientes n.c.o.p",
              "href": "https://api.euskadi.eus/procurements/companies/economic-activities/1.849.9"
            }
          }
        }
      ],
      "certificateStartDate": "2015-11-16",
      "certificateEndDate": "2016-03-24",
      "object": "A) LA PRESTACIÓN DE SERVICIO DE AZAFATAS, GUARDERÍA, ORDENANZA, CUIDADO Y ASISTENCIA A LAS EMPRESAS Y A LAS PERSONAS, PARA CONVENCIONES, VIAJES, COMEDORES, FIESTAS, JORNADAS DE ESTUDIOS Y SEMINARIOS. B). LA PRESTACIÓN DE SERVICIOS DE ASISTENCIA, ASESORAMIENTO Y GESTIÓN COMERCIAL, ADMINISTRATIVO, DE COMERCIO EXTERIOR, ECONÓMICO-FINANCIERO, LABORAL Y JURÍDICO EN GENERAL PARA TERCERAS PERSONAS; LA REALIZACIÓN DE INFORMES COMERCIALES, TÉCNICOS E INDUSTRIALES, LA REALIZACIÓN Y DIRECCIÓN DE ESTUDIOS Y PROSPECCIONES DE MERCADOS Y DE CARÁCTER ESTADÍSTICO; Y EL ESTUDIO Y GESTIÓN DE SISTEMAS EMPRESARIALES PARA ADECUAR LOS MEDIOS PRODUCTIVOS A LAS NECESIDADES DEL MERCADO. C). LA CONSERVACIÓN, MANTENIMIENTO Y LIMPIEZA DE VÍAS, EDIFICIOS, LOCALES Y OTROS INMUEBLES, Y LA REALIZACIÓN DE AISLAMIENTOS E IMPERMEABILIZACIONES; LA APLICACIÓN DE PINTURAS, Y LA REALIZACIÓN DE REVESTIMIENTOS INTERIORES CON PAPEL, TEJIDOS Y PLÁSTICOS. D). LA INTERMEDIACIÓN EN EL COMERCIO COMO AGENTE, COMISIONISTA, DELEGADO O MEDIANTE CUALQUIER OTRA FORMA DE MEDIACIÓN MERCANTIL, DE TODA CLASE DE EMPRESAS NACIONALES Y EXTRANJERAS, Y DE PRODUCTOS. E). LA EXPLOTACIÓN DEL NEGOCIO DE TRANSPORTE, EN CUALQUIER MODALIDAD Y SUS SERVICIOS COMPLEMENTARIOS, COMO CARGAS Y DESCARGAS, RECOGIDAS, REPARTOS, ALMACENAJES, MANIOBRAS, CONSIGNACIONES, AGENCIA DE TRANSPORTE, GESTIÓN DE ADUANAS, IMPORTACIÓN Y EXPORTACIÓN, FLETAMIENTOS, MANIPULADOR DE CONTENEDORES, VEHÍCULOS, MERCANCIAS Y OBJETOS",
      "mainEntityOfPage": "https://www.contratacion.euskadi.eus/webkpe00-kperoc/es/ac71aBusquedaRegistrosWar/empresa/05439",
      "_links": {
        "self": {
          "name": "ELKARZERBI SLU",
          "href": "https://api.euskadi.eus/procurements/companies/05439"
        }
      }
    },
    {
      "name": "ELECTROMECANICAS PASAIA, S.L.",
      "registrationNumber": "02900",
      "identificationNumber": "B20096848",
      "address": "POL. IND. TXIRRITA MALEO, PAB. 7 C",
      "location": {
        "postalCode": "20100",
        "municipality": "Errenteria",
        "county": "Gipuzkoa",
        "municipalityId": "067",
        "countyId": "20"
      },
      "economicActivities": [
        {
          "id": "1.504.1",
          "name": "Instalaciones eléctricas en general",
          "_links": {
            "self": {
              "name": "Instalaciones eléctricas en general",
              "href": "https://api.euskadi.eus/procurements/companies/economic-activities/1.504.1"
            }
          }
        }
      ],
      "certificateStartDate": "2015-11-11",
      "certificateEndDate": "2016-05-11",
      "object": "REPARACIONES Y MONTAJES ELÉCTRICOS, ELECTRÓNICOS, NAVALES E INDUSTRIALES, EN GENERAL, ASÍ COMO LA COMERCIALIZACIÓN Y ENAJENACIÓN DE SUS TRABAJOS",
      "mainEntityOfPage": "https://www.contratacion.euskadi.eus/webkpe00-kperoc/es/ac71aBusquedaRegistrosWar/empresa/02900",
      "_links": {
        "self": {
          "name": "ELECTROMECANICAS PASAIA, S.L.",
          "href": "https://api.euskadi.eus/procurements/companies/02900"
        }
      }
    },
    {
      "name": "ORTHOCONCEPT S.A.",
      "registrationNumber": "03664",
      "identificationNumber": "A78384989",
      "address": "AYALA, 94 DUPLICADO,3Dº",
      "location": {
        "postalCode": "28001",
        "municipality": "Madrid",
        "county": "Madrid",
        "municipalityId": "079",
        "countyId": "28"
      },
      "economicActivities": [
        {
          "id": "1.619.2",
          "name": "Venta al por mayor de aparatos e instrumentos médicos, ortopédicos, ópticos",
          "_links": {
            "self": {
              "name": "Venta al por mayor de aparatos e instrumentos médicos, ortopédicos, ópticos",
              "href": "https://api.euskadi.eus/procurements/companies/economic-activities/1.619.2"
            }
          }
        }
      ],
      "certificateStartDate": "2015-11-10",
      "certificateEndDate": "2016-05-10",
      "object": "LA COMERCIALIZACIÓN DE APARATOS, INSTRUMENTOS, INSTALACIONES Y SUMINISTROS MÉDICOS, ELECTROMÉDICOS, SANITARIOS, FARMACÉUTICOS Y DE LABORATORIO, ASÍ COMO SU ALQUILER, IMPORTACIÓN Y EXPORTACIÓN, DISTRIBUCIÓN, REPRESENTACIÓN Y ALMACENAJE",
      "mainEntityOfPage": "https://www.contratacion.euskadi.eus/webkpe00-kperoc/es/ac71aBusquedaRegistrosWar/empresa/03664",
      "_links": {
        "self": {
          "name": "ORTHOCONCEPT S.A.",
          "href": "https://api.euskadi.eus/procurements/companies/03664"
        }
      }
    },
    {
      "name": "BIBOAQUA SL",
      "registrationNumber": "05436",
      "identificationNumber": "B26463646",
      "address": "Plaza Europa nº9 escalera 4 5ºT7",
      "location": {
        "postalCode": "26500",
        "municipality": "Calahorra",
        "county": "Rioja, La",
        "municipalityId": "036",
        "countyId": "26"
      },
      "economicActivities": [
        {
          "id": "1.501.1",
          "name": "Construcción completa, reparación y conservación de edificaciones",
          "_links": {
            "self": {
              "name": "Construcción completa, reparación y conservación de edificaciones",
              "href": "https://api.euskadi.eus/procurements/companies/economic-activities/1.501.1"
            }
          }
        }
      ],
      "certificateStartDate": "2015-11-06",
      "certificateEndDate": "2016-03-30",
      "object": "A) CONTRATACIÓN, GESTIÓN,  CONSTRUCCIÓN, EJECUCIÓN Y PRESTACIÓN DE SERVICIOS RELACIONADOS CON INSTALACIONES Y SERVICIOS DE CAPTACIÓN, TRATAMIENTO, DISTRIBUCIÓN Y VERTIDO DE AGUAS. B) CONTRATACIÓN, GESTIÓN, CONSTRUCCIÓN, EJECUCIÓN Y PRESTACIÓN DE SERVICIOS RELACIONADOS CON CUALQUIER TIPO DE OBRA CIVIL",
      "mainEntityOfPage": "https://www.contratacion.euskadi.eus/webkpe00-kperoc/es/ac71aBusquedaRegistrosWar/empresa/05436",
      "_links": {
        "self": {
          "name": "BIBOAQUA SL",
          "href": "https://api.euskadi.eus/procurements/companies/05436"
        }
      }
    },
    {
      "name": "GUPOST, S.A. PUBLICIDAD DIRECTA",
      "registrationNumber": "00657",
      "identificationNumber": "A20158218",
      "address": "C/ CAMINO DE ILLARRA, Nº 4.",
      "location": {
        "postalCode": "20009",
        "municipality": "Donostia / San Sebastián",
        "county": "Gipuzkoa",
        "municipalityId": "069",
        "countyId": "20"
      },
      "economicActivities": [
        {
          "id": "1.844",
          "name": "Servicios de publicidad, relaciones públicas y similares",
          "_links": {
            "self": {
              "name": "Servicios de publicidad, relaciones públicas y similares",
              "href": "https://api.euskadi.eus/procurements/companies/economic-activities/1.844"
            }
          }
        },
        {
          "id": "1.849.9",
          "name": "Otros servicios independientes n.c.o.p",
          "_links": {
            "self": {
              "name": "Otros servicios independientes n.c.o.p",
              "href": "https://api.euskadi.eus/procurements/companies/economic-activities/1.849.9"
            }
          }
        }
      ],
      "certificateStartDate": "2015-10-26",
      "certificateEndDate": "2015-09-05",
      "object": "LAS ACTIVIDADES Y SERVICIOS CORRESPONDIENTES A UN OPERADOR DE MARKETING DIRECTO Y PROMOCIONAL: SOLUCIONES GRÁFICAS DE FORMA DIGITAL Y OFFSET, PERSONALIZACIÓN DE DOCUMENTOS CON IMPRESIÓN LÁSER E INKJET, MANIPULADOS Y MECANIZADOS (PLEGADOS, EMBOLSADOS, RETRACTILADOS, ENSOBRADOS, ETIQUETADOS, ENTUBADOS, GUILLOTINADOS), TRATAMIENTOS POSTALES PARA DEPÓSITO EN OPERADORES LOGÍSTICOS, DISTRIBUCIÓN Y TRATAMIENTO DE BASES DE DATOS (NORMALIZACIÓN, DEDUPLICACIÓN, ENRIQUECIMIENTO, GEOMARKETING, ALBERGUE, ETC.), CONTACT CENTER (ENVÍO Y RECEPCIÓN DE SMS Y E-MAILS), COORDINACIÓN DE CAMPAÑAS PROMOCIONALES MULTICANALES, PACKAGING Y MANIPULADOS DIVERSOS, EXTERNALIZACIÓN DE SERVICIOS DIVERSOS A ENTIDADES FINANCIERAS Y LA ADMINISTRACIÓN PÚBLICA (BILLING, SERVICIOS AUXILIARES PARA TRABAJOS ADMINISTRATIVOS, SERVICIOS DE ARCHIVO, BIBLIOTECA, CUSTODIA DE DOCUMENTOS; SERVICIOS DE ATENCIÓN E INFORMACIÓN PRESENCIAL; CONTROL DE ACCESO O ALMACENAJE, TRATAMIENTO DOCUMENTAL DE DOCUMENTACIÓN HISTÓRICA Y ADMINISTRATIVA, ELABORACIÓN DE INFORMES DE CAMPAÑAS Y TODAS AQUELLAS ACTIVIDADES RELACIONADAS CON ESTE OBJETO SOCIAL, QUE SERVIRÁN DE MEDIO PARA LA INTEGRACIÓN LABORAL Y SOCIAL DE PERSONAS AFECTADAS POR UNA MINUSVALÍA. CON ESTA FINALIDAD PROMOVERÁ SU RECONOCIMIENTO COMO CENTRO ESPECIAL DE EMPLEO SEGÚN LO PREVISTO EN LA LEY DE INTEGRACIÓN SOCIAL DE MINUSVÁLIDOS Y DEMÁS NORMATIVA DE APLICACIÓN; O CUALQUIER OTRO TIPO DE FORMA IDÓNEA DE PROMOCIÓN LABORAL DE PERSONAS CON MINUSVALÍA QUE PUDIERA CREARSE EN EL FUTURO",
      "mainEntityOfPage": "https://www.contratacion.euskadi.eus/webkpe00-kperoc/es/ac71aBusquedaRegistrosWar/empresa/00657",
      "_links": {
        "self": {
          "name": "GUPOST, S.A. PUBLICIDAD DIRECTA",
          "href": "https://api.euskadi.eus/procurements/companies/00657"
        }
      }
    }
  ]
}