{
  "totalItems": 9042,
  "totalPages": 905,
  "currentPage": 845,
  "itemsOfPage": 10,
  "items": [
    {
      "name": "NERVIÓN CLIMA, S.L.",
      "registrationNumber": "02695",
      "identificationNumber": "B95233474",
      "address": "C/ ALONSO ALLENDE, 21",
      "location": {
        "postalCode": "48920",
        "municipality": "Portugalete",
        "county": "Bizkaia",
        "municipalityId": "078",
        "countyId": "48"
      },
      "object": "el suyo",
      "mainEntityOfPage": "https://www.contratacion.euskadi.eus/webkpe00-kperoc/es/ac71aBusquedaRegistrosWar/empresa/02695",
      "_links": {
        "self": {
          "name": "NERVIÓN CLIMA, S.L.",
          "href": "https://api.euskadi.eus/procurements/companies/02695"
        }
      }
    },
    {
      "name": "MIRUBUSTAN, S.L.",
      "registrationNumber": "02696",
      "identificationNumber": "B20712006",
      "address": "POLÍGONO LEIZOTZ-PARCELA i -nº 10",
      "location": {
        "postalCode": "20140",
        "municipality": "Andoain",
        "county": "Gipuzkoa",
        "municipalityId": "009",
        "countyId": "20"
      },
      "object": "RESTAURACION PATRIMONIO CULTURAL",
      "mainEntityOfPage": "https://www.contratacion.euskadi.eus/webkpe00-kperoc/es/ac71aBusquedaRegistrosWar/empresa/02696",
      "_links": {
        "self": {
          "name": "MIRUBUSTAN, S.L.",
          "href": "https://api.euskadi.eus/procurements/companies/02696"
        }
      }
    },
    {
      "name": "ZINTZO ALBAITARIAK, S.L.",
      "registrationNumber": "02715",
      "identificationNumber": "B95256038",
      "address": "C/ GIPUZKOA, 13 ENT. IZDA.",
      "location": {
        "postalCode": "48960",
        "municipality": "Galdakao",
        "county": "Bizkaia",
        "municipalityId": "036",
        "countyId": "48"
      },
      "object": "11",
      "mainEntityOfPage": "https://www.contratacion.euskadi.eus/webkpe00-kperoc/es/ac71aBusquedaRegistrosWar/empresa/02715",
      "_links": {
        "self": {
          "name": "ZINTZO ALBAITARIAK, S.L.",
          "href": "https://api.euskadi.eus/procurements/companies/02715"
        }
      }
    },
    {
      "name": "ARGUIA KALITATEA 2002. S.L.",
      "registrationNumber": "02740",
      "identificationNumber": "B95233607",
      "address": "C/ ARANDIA 2-B",
      "location": {
        "postalCode": "48480",
        "municipality": "Arrigorriaga",
        "county": "Bizkaia",
        "municipalityId": "011",
        "countyId": "48"
      },
      "object": "PENDIENTE",
      "mainEntityOfPage": "https://www.contratacion.euskadi.eus/webkpe00-kperoc/es/ac71aBusquedaRegistrosWar/empresa/02740",
      "_links": {
        "self": {
          "name": "ARGUIA KALITATEA 2002. S.L.",
          "href": "https://api.euskadi.eus/procurements/companies/02740"
        }
      }
    },
    {
      "name": "IKERLORA JARDINERÍA Y VIVEROS, S.L.",
      "registrationNumber": "02742",
      "identificationNumber": "B20665477",
      "address": "CO. ALTZIBAR",
      "location": {
        "postalCode": "20217",
        "municipality": "Gabiria",
        "county": "Gipuzkoa",
        "municipalityId": "038",
        "countyId": "20"
      },
      "economicActivities": [
        {
          "id": "1.911",
          "name": "Servicios agrícolas y ganaderos",
          "_links": {
            "self": {
              "name": "Servicios agrícolas y ganaderos",
              "href": "https://api.euskadi.eus/procurements/companies/economic-activities/1.911"
            }
          }
        }
      ],
      "classification": [
        {
          "id": "S",
          "name": "Servicios",
          "groups": [
            {
              "id": "O",
              "subgroups": [
                {
                  "id": "06",
                  "name": "Conservación y mantenimiento de montes y jardines",
                  "categories": [
                    {
                      "id": "3",
                      "name": "Desde 300.001 Hasta 600.000",
                      "_links": {
                        "self": {
                          "name": "Desde 300.001 Hasta 600.000",
                          "href": "https://api.euskadi.eus/procurements/companies/types/S/categories/3"
                        }
                      }
                    }
                  ],
                  "_links": {
                    "self": {
                      "name": "Conservación y mantenimiento de montes y jardines",
                      "href": "https://api.euskadi.eus/procurements/companies/types/S/groups/O/subgroups/06"
                    }
                  }
                }
              ],
              "_links": {
                "self": {
                  "href": "https://api.euskadi.eus/procurements/companies/types/S/groups/O"
                }
              }
            }
          ],
          "_links": {
            "self": {
              "name": "Servicios",
              "href": "https://api.euskadi.eus/procurements/companies/types/S"
            }
          }
        }
      ],
      "object": "Empresa de jardinería y restauración ambiental, limpieza de montes, caminos y espacios verdes.",
      "mainEntityOfPage": "https://www.contratacion.euskadi.eus/webkpe00-kperoc/es/ac71aBusquedaRegistrosWar/empresa/02742",
      "_links": {
        "self": {
          "name": "IKERLORA JARDINERÍA Y VIVEROS, S.L.",
          "href": "https://api.euskadi.eus/procurements/companies/02742"
        }
      }
    },
    {
      "name": "KINSAN ZUMARRAGA, S.A.",
      "registrationNumber": "02745",
      "identificationNumber": "A20497285",
      "address": "POLÍGONO ARGIXAO, 46",
      "location": {
        "postalCode": "20700",
        "municipality": "Zumarraga",
        "county": "Gipuzkoa",
        "municipalityId": "080",
        "countyId": "20"
      },
      "object": "1",
      "mainEntityOfPage": "https://www.contratacion.euskadi.eus/webkpe00-kperoc/es/ac71aBusquedaRegistrosWar/empresa/02745",
      "_links": {
        "self": {
          "name": "KINSAN ZUMARRAGA, S.A.",
          "href": "https://api.euskadi.eus/procurements/companies/02745"
        }
      }
    },
    {
      "name": "KONPOSGUNE, S.L.",
      "registrationNumber": "02765",
      "identificationNumber": "B20652962",
      "address": "Bº ANTIGUO ASERRADERO",
      "location": {
        "postalCode": "20124",
        "municipality": "Zerain",
        "county": "Gipuzkoa",
        "municipalityId": "026",
        "countyId": "20"
      },
      "object": "pendiente",
      "mainEntityOfPage": "https://www.contratacion.euskadi.eus/webkpe00-kperoc/es/ac71aBusquedaRegistrosWar/empresa/02765",
      "_links": {
        "self": {
          "name": "KONPOSGUNE, S.L.",
          "href": "https://api.euskadi.eus/procurements/companies/02765"
        }
      }
    },
    {
      "name": "PLAN B ANUNCIOS Y ESTRATEGIAS, S.L.",
      "registrationNumber": "02772",
      "identificationNumber": "B20823324",
      "address": "C/ ARRETXENE, 4 BAJO",
      "location": {
        "postalCode": "20100",
        "municipality": "Lezo",
        "county": "Gipuzkoa",
        "municipalityId": "053",
        "countyId": "20"
      },
      "object": "pendiente",
      "mainEntityOfPage": "https://www.contratacion.euskadi.eus/webkpe00-kperoc/es/ac71aBusquedaRegistrosWar/empresa/02772",
      "_links": {
        "self": {
          "name": "PLAN B ANUNCIOS Y ESTRATEGIAS, S.L.",
          "href": "https://api.euskadi.eus/procurements/companies/02772"
        }
      }
    },
    {
      "name": "T.S.M., S.L.",
      "registrationNumber": "02774",
      "identificationNumber": "B48267058",
      "address": "POLÍGONO INDUSTRIAL EL CAMPILLO, 15",
      "location": {
        "postalCode": "48500",
        "municipality": "Abanto y Ciérvana-Abanto Zierbena",
        "county": "Bizkaia",
        "municipalityId": "002",
        "countyId": "48"
      },
      "object": "PENDIENTE",
      "mainEntityOfPage": "https://www.contratacion.euskadi.eus/webkpe00-kperoc/es/ac71aBusquedaRegistrosWar/empresa/02774",
      "_links": {
        "self": {
          "name": "T.S.M., S.L.",
          "href": "https://api.euskadi.eus/procurements/companies/02774"
        }
      }
    },
    {
      "name": "LIMPIEZAS INDUSTRIALES XOILAN, S.L.",
      "registrationNumber": "02784",
      "identificationNumber": "B20593729",
      "address": "IGARONDO, 1 BAJO",
      "location": {
        "postalCode": "20400",
        "municipality": "Tolosa",
        "county": "Gipuzkoa",
        "municipalityId": "071",
        "countyId": "20"
      },
      "object": "1",
      "mainEntityOfPage": "https://www.contratacion.euskadi.eus/webkpe00-kperoc/es/ac71aBusquedaRegistrosWar/empresa/02784",
      "_links": {
        "self": {
          "name": "LIMPIEZAS INDUSTRIALES XOILAN, S.L.",
          "href": "https://api.euskadi.eus/procurements/companies/02784"
        }
      }
    }
  ]
}