{
  "totalItems": 9042,
  "totalPages": 905,
  "currentPage": 722,
  "itemsOfPage": 10,
  "items": [
    {
      "name": "EMTE NORTE, S.L.",
      "registrationNumber": "03309",
      "identificationNumber": "B95420550",
      "address": "POL.IND. LARRONDO. PABELLÓN B-01",
      "location": {
        "postalCode": "48180",
        "municipality": "Loiu",
        "county": "Bizkaia",
        "municipalityId": "903",
        "countyId": "48"
      },
      "economicActivities": [
        {
          "id": "1.504.1",
          "name": "Instalaciones eléctricas en general",
          "_links": {
            "self": {
              "name": "Instalaciones eléctricas en general",
              "href": "https://api.euskadi.eus/procurements/companies/economic-activities/1.504.1"
            }
          }
        }
      ],
      "certificateStartDate": "2010-11-03",
      "certificateEndDate": "2011-04-04",
      "object": "- EL DISEÑO Y LA EJECUCIÓN DE TODO TIPO DE OBRAS PÚBLICAS Y PRIVADAS EN LOS CAMPOS DE LA EDIFICACIÓN, (RESIDENCIAL, EDIFICIOS PÚBLICOS, INDUSTRIALES Y AGROPECUARIOS) Y LAS OBRAS CIVILES, (PRESAS, CANALES, CONDUCCIONES, PUERTOS, AUTOPISTAS, AUTOVÍAS, PISTAS DE ATERRIZAJE, FERROCARRILES, TÚNELES, URBANIZACIÓN, INFRAESTRUCTURAS VIALES Y MARÍTIMAS).\r\n- EL DISEÑO Y LA REALIZACIÓN DE TODO TIPO DE INSTALACIONES ELECTROMECÁNICAS ASOCIADAS A LA EDIFICACIÓN Y A LAS OBRAS CIVILES, INCLUYENDO LAS INSTALACIONES DE ELECTRICIDAD, MECÁNICAS, DE CLIMATIZACIÓN, ELECTRÓNICAS, DE TELECOMUNICACIONES Y DE FLUIDOS.\r\n- LA PRESTACIÓN DE TODO TIPO DE SERVICIOS DE MANTENIMIENTO INTEGRAL, CONSERVACIÓN Y EXPLOTACIÓN DE BIENES INMUEBLES (EDIFICIOS - CARRETERAS Y VÍAS PÚBLICAS, REDES DE AGUA, ALCANTARILLADO, ELÉCTRICAS, ALUMBRADO, COMUNICACIONES Y ELECTRÓNICAS -ESTACIONES DEPURADORAS Y DE TRATAMIENTO DE AGUAS- MOBILIARIO URBANO - MONTES Y JARDINES - MONUMENTOS Y EDIFICIOS SINGULARES - APARCAMIENTOS - INFRAESTRUCTURAS MARÍTIMAS - INFRAESTRUCTURAS FERROVIARIAS Y DE TRANSPORTES EN GENERAL).\r\n- LA PROMOCIÓN, DISEÑO, CONSTRUCCIÓN Y EXPLOTACIÓN DE TODO TIPO DE PLANTAS E INSTALACIONES ASOCIADAS A LA RECOGIDA, TRATAMIENTO Y DEPOSICIÓN DE RESIDUOS Y TRATAMIENTO DE AGUAS.\r\n- LA PROMOCIÓN, DISEÑO, CONSTRUCCIÓN Y EXPLOTACIÓN DE PLANTAS DE PRODUCCIÓN DE ENERGÍA Y SUS REDES DE DISTRIBUCIÓN, INCLUYENDO PLANTAS DE PRODUCCIÓN EÓLICA DE BIOMASA Y DE COGENERACIÓN.\r\n- LA PRESTACIÓN DE SERVICIOS DE INGENIERIA Y/O ASISTENCIA TÉCNICA TANTO A ORGANISMOS PÚBLICOS COMO PRIVADOS EN LOS CAMPOS ANTERIORMENTE RESEÑADOS.",
      "mainEntityOfPage": "https://www.contratacion.euskadi.eus/webkpe00-kperoc/es/ac71aBusquedaRegistrosWar/empresa/03309",
      "_links": {
        "self": {
          "name": "EMTE NORTE, S.L.",
          "href": "https://api.euskadi.eus/procurements/companies/03309"
        }
      }
    },
    {
      "name": "INFOPOLIS 2000, S.L.",
      "registrationNumber": "02352",
      "identificationNumber": "B95057626",
      "address": "AITA PATXI, 4-4 D",
      "location": {
        "postalCode": "48015",
        "municipality": "Bilbao",
        "county": "Bizkaia",
        "municipalityId": "020",
        "countyId": "48"
      },
      "economicActivities": [
        {
          "id": "1.849.9",
          "name": "Otros servicios independientes n.c.o.p",
          "_links": {
            "self": {
              "name": "Otros servicios independientes n.c.o.p",
              "href": "https://api.euskadi.eus/procurements/companies/economic-activities/1.849.9"
            }
          }
        }
      ],
      "certificateStartDate": "2010-10-27",
      "certificateEndDate": "2011-04-19",
      "object": "A) LA PRESTACIÓN DE TODA CLASE DE SERVICIOS DE TRATAMIENTO Y GESTIÓN DE LA INFORMACIÓN, LA CREACIÓN, PUBLICACIÓN Y EDICIÓN DE BASES DE DATOS, CONTENIDOS, BIBLIOTECAS VIRTUALES, CREACIÓN DE PÁGINAS WEB, LA TELEFORMACIÓN O FORMACIÓN A TRAVÉS DE INTERNET, LA TRADUCCIÓN DE TEXTOS, LA ACTUALIZACIÓN DE DOCUMENTOS, DE CUALQUIER NATURALEZA (VOZ, IMAGEN, TEXTO, ...ETC) Y TODO ELLO SOBRE CUALQUIER TIPO DE SOPORTE INFORMÁTICO, DIGITAL O ELECTRÓNICO.\r\n\r\nB) LA PRESTACIÓN DE SERVICIOS DE ASESORAMIENTO, CONSULTORÍA Y CAPACITACIÓN EN TRATAMIENTO INFORMÁTICO DE DATOS Y GESTIÓN DEL CONOCIMIENTO Y DESARROLLO Y DISEÑO DE APLICACIONES DE SOFTWARE.\r\n\r\nC) LA CESIÓN DE USO DE TODA CLASE DE DERECHOS Y LICENCIAS SOBRE PROGRAMAS Y SOFTWARE Y LA PRESTACIÓN DEL SERVICIO TÉCNICO DE MANTENIIMIENTO Y ASESORÍA O CONSULTORÍA SOBRE SU USO O GESTIÓN.",
      "mainEntityOfPage": "https://www.contratacion.euskadi.eus/webkpe00-kperoc/es/ac71aBusquedaRegistrosWar/empresa/02352",
      "_links": {
        "self": {
          "name": "INFOPOLIS 2000, S.L.",
          "href": "https://api.euskadi.eus/procurements/companies/02352"
        }
      }
    },
    {
      "name": "GIZERBITEK, S.L.",
      "registrationNumber": "03508",
      "identificationNumber": "B95314811",
      "address": "AVDA. MADARIAGA, 22-6º C",
      "location": {
        "postalCode": "48014",
        "municipality": "Bilbao",
        "county": "Bizkaia",
        "municipalityId": "020",
        "countyId": "48"
      },
      "economicActivities": [
        {
          "id": "1.845",
          "name": "Explotación electrónica por cuenta de terceros",
          "_links": {
            "self": {
              "name": "Explotación electrónica por cuenta de terceros",
              "href": "https://api.euskadi.eus/procurements/companies/economic-activities/1.845"
            }
          }
        }
      ],
      "certificateStartDate": "2010-10-27",
      "certificateEndDate": "2011-03-29",
      "object": "A) LA FABRICACIÓN, ELABORACIÓN, DISTRIBUCIÓN, COMERCIALIZACIÓN Y VENTA DE PRODUCTOS DE CONSUMO AL PÚBLICO O MINORISTAS, ESPECIALMENTE DE PRODUCTOS DE BISUTERÍA, JOYERÍA Y COMPLEMENTOS DE VESTIR, Y DE PRODUCTOS DE COSMÉTICA Y NATURALES. B) LA FABRICACIÓN, ELABORACIÓN, DISTRIBUCIÓN Y VENTA DE TODO TIPO DE PRODUCTOS RELACIONADOS CON LA TECNOLOGÍA, LA INFROMÁTICA O LAS COMUNICACIONES. C) LA PUBLICACIÓN Y EDICIÓN DE LIBROS Y TEXTOS Y LA PRESTACIÓN DE SERVICIOS CULTURALES; LA EDICIÓN, PUBLICACIÓN Y VENTA DE LIBROS, REVISTAS Y PERIÓDICOS, TODO ELLO RELACIONADO CON LA TECNOLOGÍA, LA INFORMÁTICA O LAS COMUNICACIONES",
      "mainEntityOfPage": "https://www.contratacion.euskadi.eus/webkpe00-kperoc/es/ac71aBusquedaRegistrosWar/empresa/03508",
      "_links": {
        "self": {
          "name": "GIZERBITEK, S.L.",
          "href": "https://api.euskadi.eus/procurements/companies/03508"
        }
      }
    },
    {
      "name": "EXTECSA NOVOTEC, S.A.",
      "registrationNumber": "04455",
      "identificationNumber": "A95509238",
      "address": "BARRIO EL CRUCERO 20-BAJO",
      "location": {
        "postalCode": "48550",
        "municipality": "Muskiz",
        "county": "Bizkaia",
        "municipalityId": "071",
        "countyId": "48"
      },
      "economicActivities": [
        {
          "id": "1.502.2",
          "name": "Consolidación y preparación de terrenos para la construcción de edificaciones",
          "_links": {
            "self": {
              "name": "Consolidación y preparación de terrenos para la construcción de edificaciones",
              "href": "https://api.euskadi.eus/procurements/companies/economic-activities/1.502.2"
            }
          }
        },
        {
          "id": "1.502.3",
          "name": "Consolidación y preparación de terrenos para la realización de obras civiles",
          "_links": {
            "self": {
              "name": "Consolidación y preparación de terrenos para la realización de obras civiles",
              "href": "https://api.euskadi.eus/procurements/companies/economic-activities/1.502.3"
            }
          }
        }
      ],
      "certificateStartDate": "2010-10-26",
      "certificateEndDate": "2011-03-09",
      "object": "A) LA EJECUCIÓN POR CUENTA PROPIA O AJENA DE TODA CLASE DE OBRAS Y CONSTRUCCIONES, Y ESPECIALMENTE LA REALIZACIÓN DE TRABAJOS DE EXCAVACIÓN, EXPLANACIÓN, MOVIMIENTO DE TIERRAS, PERFORACIÓN DE TÚNELES, REALIZACIÓN DE RELLENOS Y DE OBRAS DE CONSOLIDACIÓN Y PREPARACIÓN DE TERRENOS PARA LA CONSTRUCCIÓN DE CUALQUIER CLASE DE EDIFICACIÓN, INFRAESTRUCTURAS U OBRAS CIVILES; ASÍ COMO LA REALIZACIÓN DE LAS ACTVIDADES DE TRANSPORTE COMPLEMENTARIAS DE LAS ANTERIORMENTE CITADAS. B) LA ADQUISICIÓN, TRANSMISIÓN, CESIÓN, TENENCIA Y DISFRUTE EN GENERAL DE TODA CLASE DE TÍTULOS Y VALORES MOBILIARIOS, PARTICIPACIONES SOCIALES, PRODUCTOS FINANCIEROS, DERECHOS, OPCIONES Y FUTUROS, TODO ELLO SIN INCIDIR EN LAS OPERACIONES REGULADAS POR LA LEY DEL MERCADO DE VALORES 24/1988 DE 28 DE JULIO, Y LAS DISPOSICIONES QUE LA DESARROLLAN. C) LA PRESTACIÓN DE SERVICIOS DE ASESORAMIENTO Y GESTIÓN ECONÓMICA, FINANCIERA, ADMINISTRATIVA, TÉCNICA Y DE PROMOCIÓN DE NEGOCIO DE EMPRESAS CONSTRUCTORAS Y, ESPECÍFICAMENTE DE LAS DEDICADAS A LAS ACTIVIDADES DE EXCAVACIÓN Y PREPARACIÓN DE TERRENOS",
      "mainEntityOfPage": "https://www.contratacion.euskadi.eus/webkpe00-kperoc/es/ac71aBusquedaRegistrosWar/empresa/04455",
      "_links": {
        "self": {
          "name": "EXTECSA NOVOTEC, S.A.",
          "href": "https://api.euskadi.eus/procurements/companies/04455"
        }
      }
    },
    {
      "name": "MAYUSCULA PUBLICACIONES, S.L.",
      "registrationNumber": "03417",
      "identificationNumber": "B48553333",
      "address": "PGNO TORRELARRAGOITI VIAL AP-5-A2",
      "location": {
        "postalCode": "48016",
        "municipality": "Bilbao",
        "county": "Bizkaia",
        "municipalityId": "020",
        "countyId": "48"
      },
      "economicActivities": [
        {
          "id": "1.844",
          "name": "Servicios de publicidad, relaciones públicas y similares",
          "_links": {
            "self": {
              "name": "Servicios de publicidad, relaciones públicas y similares",
              "href": "https://api.euskadi.eus/procurements/companies/economic-activities/1.844"
            }
          }
        }
      ],
      "certificateStartDate": "2010-10-25",
      "certificateEndDate": "2011-04-18",
      "object": "LA EDICIÓN Y PRODUCCIÓN DE TODO TIPO DE PUBLICACIONES ESCRITAS, ESPECIALMENTE DE REVISTAS. LA CONFECCIÓN DE GUÍAS, DE MAPAS TURÍSTICOS Y DE POBLACIONES. LA PRESTACIÓN DE SERVICIOS DE PUBLICIDAD Y MARKETING, TANTO INTERIORES COMO EXTERIORES, EJERCIDA POR Y EN CUALQUIER MEDIO DE DIFUSIÓN AUDIOVISUAL. LA PRESTACIÓN DE SERVICIOS PARA LA DIRECCIÓN, PRODUCCIÓN, GUIÓN Y PRESENTACIÓN DE PROGRAMAS PUBLICITARIOS, CULTURALES, RECREATIVOS Y MUSICALES, EMITIDOS A TRAVÉS DE LOS MEDIOS DE DIFUSIÓN DE IMAGEN Y SONIDO; TAMBIÉN SE PRESTARÁN ESTOS SERVICIOS BAJO CUALQUIER CONTRATO, EN ACTUACIONES EN DIRECTO EN CINES, TEATROS O LOCALES HABILITADOS AL EFECTO",
      "mainEntityOfPage": "https://www.contratacion.euskadi.eus/webkpe00-kperoc/es/ac71aBusquedaRegistrosWar/empresa/03417",
      "_links": {
        "self": {
          "name": "MAYUSCULA PUBLICACIONES, S.L.",
          "href": "https://api.euskadi.eus/procurements/companies/03417"
        }
      }
    },
    {
      "name": "DEDO MULTIMEDIA, S.A.",
      "registrationNumber": "02935",
      "identificationNumber": "A20712857",
      "address": "EASO, 31 -2º IZDA.",
      "location": {
        "postalCode": "20006",
        "municipality": "Donostia / San Sebastián",
        "county": "Gipuzkoa",
        "municipalityId": "069",
        "countyId": "20"
      },
      "economicActivities": [
        {
          "id": "1.845",
          "name": "Explotación electrónica por cuenta de terceros",
          "_links": {
            "self": {
              "name": "Explotación electrónica por cuenta de terceros",
              "href": "https://api.euskadi.eus/procurements/companies/economic-activities/1.845"
            }
          }
        }
      ],
      "certificateStartDate": "2010-10-21",
      "certificateEndDate": "2011-03-24",
      "object": "LA PRESTACIÓN DE SERVICIOS DE INFORMÁTICA; LA COMPRAVENTA DE SERVICIOS Y EQUIPOS INFORMÁTICOS; LA REALIZACIÓN DE CR-ROMS INTERACTIVOS, SERVICIOS DE DISEÑO Y REALIZACIÓN DE PÁGINAS WEB",
      "mainEntityOfPage": "https://www.contratacion.euskadi.eus/webkpe00-kperoc/es/ac71aBusquedaRegistrosWar/empresa/02935",
      "_links": {
        "self": {
          "name": "DEDO MULTIMEDIA, S.A.",
          "href": "https://api.euskadi.eus/procurements/companies/02935"
        }
      }
    },
    {
      "name": "DOMINION TECNOLOGÍAS, S.L.U.",
      "registrationNumber": "03124",
      "identificationNumber": "B95102174",
      "address": "JOSEFA VALCÁRCEL, 3 - 5 ",
      "location": {
        "postalCode": "28027",
        "municipality": "Madrid",
        "county": "Madrid",
        "municipalityId": "079",
        "countyId": "28"
      },
      "economicActivities": [
        {
          "id": "1.504.1",
          "name": "Instalaciones eléctricas en general",
          "_links": {
            "self": {
              "name": "Instalaciones eléctricas en general",
              "href": "https://api.euskadi.eus/procurements/companies/economic-activities/1.504.1"
            }
          }
        },
        {
          "id": "1.617.8",
          "name": "Venta al por mayor de máquinas y material de oficina",
          "_links": {
            "self": {
              "name": "Venta al por mayor de máquinas y material de oficina",
              "href": "https://api.euskadi.eus/procurements/companies/economic-activities/1.617.8"
            }
          }
        },
        {
          "id": "1.663.9",
          "name": "Venta al por menor de otra clase de mercancías fuera de establecimiento",
          "_links": {
            "self": {
              "name": "Venta al por menor de otra clase de mercancías fuera de establecimiento",
              "href": "https://api.euskadi.eus/procurements/companies/economic-activities/1.663.9"
            }
          }
        },
        {
          "id": "1.843.1",
          "name": "Servicios técnicos de ingeniería",
          "_links": {
            "self": {
              "name": "Servicios técnicos de ingeniería",
              "href": "https://api.euskadi.eus/procurements/companies/economic-activities/1.843.1"
            }
          }
        },
        {
          "id": "1.845",
          "name": "Explotación electrónica por cuenta de terceros",
          "_links": {
            "self": {
              "name": "Explotación electrónica por cuenta de terceros",
              "href": "https://api.euskadi.eus/procurements/companies/economic-activities/1.845"
            }
          }
        },
        {
          "id": "1.932.1",
          "name": "Enseñanza de formación y perfeccionamiento profesional no superior",
          "_links": {
            "self": {
              "name": "Enseñanza de formación y perfeccionamiento profesional no superior",
              "href": "https://api.euskadi.eus/procurements/companies/economic-activities/1.932.1"
            }
          }
        }
      ],
      "certificateStartDate": "2010-10-20",
      "certificateEndDate": "2011-02-10",
      "object": "A) LA INVESTIGACIÓN, PROYECTO, DESARROLLO, ASESORÍA, FABRICACIÓN, SUMINISTRO, INSTALACIÓN, MONTAJE Y OPERACION DE TODA CLASE DE EQUIPOS, SISTEMAS Y PROGRAMAS INFORMÁTICOS Y  DE TELECOMUNICACIONES PARA COMUNICACIÓN DE VOZ, DATOS, IMÁGENES O CUALQUIER OTRO TIPO DE NFORMACIÓN.\r\n\r\nB) A SU VEZ EL ESTUDIO, DEFINICIÓN DE PROYECTOS DE INGENIERÍA DE TELECOMUNICACIÓN Y SU EJECUCIÓN, COMERCIALIZACIÓN, ALMACENAJE, EXPORTACIÓN, REPARACIÓN, FORMACIÓN, ADMINISTRACIÓN, MANTENIMIENTO O ASISTENCIA DE LOS PRODUCTOS OFRECIDOS POR LA SOCIEDAD, ASÍ COMO DE SUS ELEMENTOS AUXILIARES, Y DE LOS SERVICIOS PROPORCIONADOS POR LA MISMA O RELACIONADOS CON SUS ACTIVIDADES.\r\n\r\nC) EL DESARROLLO, REALIZACIÓN Y COMERCIALIZACIÓN DE SISTEMAS INFORMÁTICOS; LA ACTIVIDAD INFORMÁTICA EN GENERAL Y LA PRESTACIÓN DE TODA CLASE DE SERVICIOS EN ELLA RELACIONADA, INCLUIDOS LA ENSEÑANZA DE MATERIAS RELATIVAS A LA INFORMÁTICA, LA FORMACIÓN DE PERSONAL ESPECIALISTA, LA LLEVANZA DE CONTABILIDADES, LA REALIZACIÓN DE ANÁLISIS, CONSULTORÍA, PROYECTOS Y ESTUDIOS DE TODO GÉNERO, ASÍ COMO LA CONFECCIÓN, APLICACIÓN Y COMERCIALIZACIÓN DE PROGRAMAS.\r\n\r\nD) LA COMPRA, VENTA, IMPORTACIÓN Y EXPORTACIÓN Y COMERCIALIZACIÓN EN GENERAL DE MICROORDENADORES, ORDENADORES, MÁQUINAS Y ELEMENTOS RELACIONADOS CON LA INFORMÁTICA Y LAS TELECOMUNICACIONES, ASÍ COMO SU REPARACIÓN Y MANTENIMIENTO; LA PRESTACIÓN DE ASISTENCIA Y DE AQUELLOS SERVICIOS PRECISOS O CONVENIENTES PARA SU ADECUADA UTILIZACIÓN O RENDIMIENTO  DE TODOS LOS EQUIPOS INFORMÁTICOS. ASIMISMO, LA REALIZACIÓN DE ACTIVIDADES CONSULTORAS Y PROMOTORAS RELACIONADAS  CON LOS PRODUCTOS COMERCIALIZADOS.\r\n\r\nE) LA PRESTACIÓN DE SERVICIOS DE INTERNET Y DE COMUNICACIÓN TANTO DE VOZ COMO DE DATOS, ASÍ COMO LA REALIZACIÓN DE ESTUDIOS, TRABAJOS Y APLICACIONES INFORMÁTICAS, LA APROBACIÓN DE TODA GAMA DE SERVICIOS RELACIONADOS CON EL PROCEDIMIENTO DE LA INFORMACIÓN, TALES COMO ANÁLISIS FUNCIONAL, ANÁLISIS ORGÁNICO, PROGRAMACIÓN, GRABACIÓN, ETC.\r\n\r\nF) LA SELECCIÓN Y FORMACIÓN DE PERSONAL INFORMÁTICO, ASESORAMIENTO A EMPRESAS, ORGANISMOS E INSTITUCIONES, ESTUDIOS, INVESTIGACIÓN, PROMOCIÓN Y PRESTACIÓN DE TODO TIPO DE SERVICIOS DE ASISTENCIA Y GESTIÓN TÉCNICA, ADMINISTRATIVA, COMERCIAL, CONTABLE, FINANCIERA, ECONÓMICA, FISCAL Y JURÍDICA.\r\n\r\nG) LA LLEVANZA DE CONTABILIDADES, LA REALIZACIÓN DE ANÁLISIS, CONSULTORÍA, PROYECTOS Y ESTUDIOS DE TODO GÉNERO, ASÍ COMO LA CONFECCIÓN, APLICACIÓN Y COMERCIALIZACIÓN DE PROGRAMAS.\r\n\r\nH) LA REPRESENTACIÓN COMO AGENTE, DISTRIBUIDOR, COMISIONISTA, DELEGADO O CUALQUIER OTRA FORMA DE MEDIACIÓN MERCANTIL, DE TODA CLASE DE EMPRESAS NACIONALES O EXTRANJERAS, RELACIONADAS CON LA INFORMÁTICA, ASÍ COMO LA EXPLOTACIÓN DE PATENTES, MÉTODOS, PROCEDIMIENTOS O ESTUDIOS Y DERECHOS INCLUIDOS EN EL ÁMBITO DE LA PROPIEDAD INDUSTRIAL RELACIONADOS CON EL FIN PRINCIPAL DE LA INFORMÁTICA.\r\n\r\nI) LA PRESTACIÓN  DE SERVICIOS DE ASESORAMIENTO A EMPRESAS EN LAS ÁREAS DE RECURSOS HUMANOS, DE TECNOLOGÍA DE LA INFORMACIÓN (INFORMÁTICA) Y FORMACIÓN ASÍ COMO LAS ÁREAS DE GESTIÓN PROPIA DE UNA COMPAÑÍA  ",
      "mainEntityOfPage": "https://www.contratacion.euskadi.eus/webkpe00-kperoc/es/ac71aBusquedaRegistrosWar/empresa/03124",
      "_links": {
        "self": {
          "name": "DOMINION TECNOLOGÍAS, S.L.U.",
          "href": "https://api.euskadi.eus/procurements/companies/03124"
        }
      }
    },
    {
      "name": "CONINPE CONSULTORES INFORMÁTICOS, S.L.",
      "registrationNumber": "03159",
      "identificationNumber": "B95385936",
      "address": "AVDA. SABINO ARANA, 51 - ENTREPLANTA",
      "location": {
        "postalCode": "48013",
        "municipality": "Bilbao",
        "county": "Bizkaia",
        "municipalityId": "020",
        "countyId": "48"
      },
      "economicActivities": [
        {
          "id": "1.330.2",
          "name": "Instalación de máquinas de oficina y ordenadores",
          "_links": {
            "self": {
              "name": "Instalación de máquinas de oficina y ordenadores",
              "href": "https://api.euskadi.eus/procurements/companies/economic-activities/1.330.2"
            }
          }
        }
      ],
      "certificateStartDate": "2010-10-20",
      "certificateEndDate": "2011-03-27",
      "object": "1.- LA CONSULTORÍA INFORMÁTICA, DESARROLLO DE SOFTWARE, PROGRAMACIÓN, ANÁLISIS INFORMÁTICOS, COMERCIALIZACIÓN DE ORDENADORES E IMPLANTACIÓN DE TODO TIPO DE CURSOS DIRIGIDOS A LA EMPRESA PÚBLICA Y PRIVADA; 2.- LA ADQUISICIÓN, TENENCIA, ADMINISTRACIÓN Y EXPLOTACIÓN EN FORMA DE ARRIENDO, SUBARRIENDO, TRASPASO O CESIÓN, DE TODA CLASE DE INMUEBLES, TANTO  URBANOS COMO RÚSTICOS, ASÍ COMO DE BIENES MUEBLES, MAQUNARIA Y VEHÍCULOS, INDUSTRIAS, NEGOCIOS, EMPRESAS O ESTABLECIMIENTOS MERCANTILES, Y TODA CLASE DE CESIÓN POR PRECIO DEL USO O DISFRUTE DE TODA CLASE DE BIENES Y DERECHOS, INCLUSO DE PROPIEDAD INTELECTUAL O INDUSTRIAL",
      "mainEntityOfPage": "https://www.contratacion.euskadi.eus/webkpe00-kperoc/es/ac71aBusquedaRegistrosWar/empresa/03159",
      "_links": {
        "self": {
          "name": "CONINPE CONSULTORES INFORMÁTICOS, S.L.",
          "href": "https://api.euskadi.eus/procurements/companies/03159"
        }
      }
    },
    {
      "name": "TALLERES ANGEL FRADEJAS, S.L.",
      "registrationNumber": "04398",
      "identificationNumber": "B95087706",
      "address": "CASTILLA-LEON, 3 LJ",
      "location": {
        "postalCode": "48901",
        "municipality": "Barakaldo",
        "county": "Bizkaia",
        "municipalityId": "013",
        "countyId": "48"
      },
      "economicActivities": [
        {
          "id": "1.314.1",
          "name": "Carpintería metálica",
          "_links": {
            "self": {
              "name": "Carpintería metálica",
              "href": "https://api.euskadi.eus/procurements/companies/economic-activities/1.314.1"
            }
          }
        },
        {
          "id": "1.653.5",
          "name": "Venta al por menor de puertas y ventanas, persianas, molduras, marcos",
          "_links": {
            "self": {
              "name": "Venta al por menor de puertas y ventanas, persianas, molduras, marcos",
              "href": "https://api.euskadi.eus/procurements/companies/economic-activities/1.653.5"
            }
          }
        }
      ],
      "certificateStartDate": "2010-10-19",
      "certificateEndDate": "2011-03-02",
      "object": "LA CARPINTERÍA METÁLICA: INSTALACIÓN, FABRICACIÓN Y VENTA",
      "mainEntityOfPage": "https://www.contratacion.euskadi.eus/webkpe00-kperoc/es/ac71aBusquedaRegistrosWar/empresa/04398",
      "_links": {
        "self": {
          "name": "TALLERES ANGEL FRADEJAS, S.L.",
          "href": "https://api.euskadi.eus/procurements/companies/04398"
        }
      }
    },
    {
      "name": "PROYECTOS PCN, S.L.",
      "registrationNumber": "04406",
      "identificationNumber": "B95578183",
      "address": "PLAZA VENEZUELA 1, BAJO DERECHA",
      "location": {
        "postalCode": "48001",
        "municipality": "Bilbao",
        "county": "Bizkaia",
        "municipalityId": "020",
        "countyId": "48"
      },
      "economicActivities": [
        {
          "id": "1.501.1",
          "name": "Construcción completa, reparación y conservación de edificaciones",
          "_links": {
            "self": {
              "name": "Construcción completa, reparación y conservación de edificaciones",
              "href": "https://api.euskadi.eus/procurements/companies/economic-activities/1.501.1"
            }
          }
        }
      ],
      "certificateStartDate": "2010-10-19",
      "certificateEndDate": "2011-04-05",
      "object": "A) LA ELABORACIÓN, COMERCIALIZACIÓN Y REALIZACIÓN DE TODA CLASE DE ESTUDIOS Y PROYECTO PARA RESTAURAR, DECORAR Y AMUEBLAR TODO TIPO DE EDIFICIOS, LOCALES Y VIVIENDAS. B) LA REPRESENTACIÓN, COMERCIALIZACIÓN Y VENTA DE MATERIALES DESTINADOS A LA CONSTRUCCIÓN DE LO QUE SE ESPECIFICA EN EL APARTADO PRECEDENTE, DESTINADO A LA CARPINTERÍA, ALBAÑILERÍA, FONTANERÍA, CARPINTERÍA-METÁLICA Y DE HORMIGÓN Y ELECTRICIDAD Y, REPRESENTACIONES Y ACTIVIDADES DE MEDIACIÓN, TANTO PARA LA INDUSTRIA COMO PARA EL COMERCIO, INCLUÍDOS LOS SERVICIOS, TANTO TÉCNICOS COMO DE ASISTENCIA, ALMACENISTA, MAYORISTAS, EXCLUSIVISTA, CON SU IMPORTACIÓN Y EXPORTACIÓN. C) EL ESTUDIO Y RESOLUCIÓN DE TODAS CUANTAS CUESTIONES TÉNICAS Y DE CUALQUIER ORDEN, RELACIONADAS CON EL OBJETO Y OBJETOS PRINCIPALES PUEDAN PLANTEARSE",
      "mainEntityOfPage": "https://www.contratacion.euskadi.eus/webkpe00-kperoc/es/ac71aBusquedaRegistrosWar/empresa/04406",
      "_links": {
        "self": {
          "name": "PROYECTOS PCN, S.L.",
          "href": "https://api.euskadi.eus/procurements/companies/04406"
        }
      }
    }
  ]
}