{
  "totalItems": 9042,
  "totalPages": 905,
  "currentPage": 737,
  "itemsOfPage": 10,
  "items": [
    {
      "name": "EXTREMIANA SISTEMAS, S.L.",
      "registrationNumber": "03020",
      "identificationNumber": "B95273538",
      "address": "MENDIPE, 12",
      "location": {
        "postalCode": "48002",
        "municipality": "Bilbao",
        "county": "Bizkaia",
        "municipalityId": "020",
        "countyId": "48"
      },
      "economicActivities": [
        {
          "id": "1.504.1",
          "name": "Instalaciones eléctricas en general",
          "_links": {
            "self": {
              "name": "Instalaciones eléctricas en general",
              "href": "https://api.euskadi.eus/procurements/companies/economic-activities/1.504.1"
            }
          }
        }
      ],
      "certificateStartDate": "2009-12-29",
      "certificateEndDate": "2010-05-03",
      "object": "LA INSTALACIÓN Y MANTENIMIENTO DE APARATOS, DISPOSITIVOS Y SISTEMAS DE SEGURIDAD Y CONTRA INCENDIOS",
      "mainEntityOfPage": "https://www.contratacion.euskadi.eus/webkpe00-kperoc/es/ac71aBusquedaRegistrosWar/empresa/03020",
      "_links": {
        "self": {
          "name": "EXTREMIANA SISTEMAS, S.L.",
          "href": "https://api.euskadi.eus/procurements/companies/03020"
        }
      }
    },
    {
      "name": "TECNOCOM NORTE, TELECOMUNICACIONES Y ENERGÍA, S.L.",
      "registrationNumber": "03459",
      "identificationNumber": "B95058566",
      "address": "AVDA. MADARIAGA, Nº 1- 4º izda.",
      "location": {
        "postalCode": "48014",
        "municipality": "Bilbao",
        "county": "Bizkaia",
        "municipalityId": "020",
        "countyId": "48"
      },
      "economicActivities": [
        {
          "id": "1.631",
          "name": "Intermediarios del comercio",
          "_links": {
            "self": {
              "name": "Intermediarios del comercio",
              "href": "https://api.euskadi.eus/procurements/companies/economic-activities/1.631"
            }
          }
        },
        {
          "id": "1.845",
          "name": "Explotación electrónica por cuenta de terceros",
          "_links": {
            "self": {
              "name": "Explotación electrónica por cuenta de terceros",
              "href": "https://api.euskadi.eus/procurements/companies/economic-activities/1.845"
            }
          }
        }
      ],
      "certificateStartDate": "2009-12-28",
      "certificateEndDate": "2010-05-02",
      "object": "A) LA COMPRAVENTA Y DISTRIBUCIÓN DE PRODUCTOS INFORMÁTICOS Y DE TELECOMUNICACIÓN, TANTO DE ORDENADORES Y SUS ACCESORIOS, COMO DE PROGRAMAS INFORMÁTICOS. B) LA PRESTACIÓN Y DESARROLLO DE SERVICIOS TELEMÁTICOS, TELECOMUNICACIONES Y DE CONSULTORÍA, A TRAVÉS DE PROFESIONALES TITULADOS AL EFECTO. C) LA IMPORTACIÓN DE TODA CLASE DE CURSOS Y SEMINARIOS DE FORMACIÓN TECNOLÓGICA DE LA INFORMACIÓN. D) LA INSTALACIÓN DE PRODUCTOS INFORMÁTICOS, DE TELECOMUNICACIÓN Y SU MANTENIMIENTO.",
      "mainEntityOfPage": "https://www.contratacion.euskadi.eus/webkpe00-kperoc/es/ac71aBusquedaRegistrosWar/empresa/03459",
      "_links": {
        "self": {
          "name": "TECNOCOM NORTE, TELECOMUNICACIONES Y ENERGÍA, S.L.",
          "href": "https://api.euskadi.eus/procurements/companies/03459"
        }
      }
    },
    {
      "name": "CONSTRUCCIONES ION VIRGALA, S.A.",
      "registrationNumber": "00272",
      "identificationNumber": "A01018357",
      "address": "C/ JOSÉ MARÍA IPARRAGUIRRE, Nº 12-bajo",
      "location": {
        "postalCode": "01006",
        "municipality": "Vitoria-Gasteiz",
        "county": "Araba/Álava",
        "municipalityId": "059",
        "countyId": "01"
      },
      "economicActivities": [
        {
          "id": "1.501.1",
          "name": "Construcción completa, reparación y conservación de edificaciones",
          "_links": {
            "self": {
              "name": "Construcción completa, reparación y conservación de edificaciones",
              "href": "https://api.euskadi.eus/procurements/companies/economic-activities/1.501.1"
            }
          }
        }
      ],
      "certificateStartDate": "2009-12-23",
      "certificateEndDate": "2010-04-06",
      "object": "OBRAS PÚBLICAS EN GENERAL, ASÍ COMO LA COMPRA Y VENTA DE INMUEBLES, Y CONSTRUCCIÓN Y PROMOCIÓN DE VIVIENDAS Y PABELLONES INDUSTRIALES Y CUALQUIER OBRA DE CARÁCTER PRIVADO",
      "mainEntityOfPage": "https://www.contratacion.euskadi.eus/webkpe00-kperoc/es/ac71aBusquedaRegistrosWar/empresa/00272",
      "_links": {
        "self": {
          "name": "CONSTRUCCIONES ION VIRGALA, S.A.",
          "href": "https://api.euskadi.eus/procurements/companies/00272"
        }
      }
    },
    {
      "name": "ARTEA RESTAURACIÓN, S.L.",
      "registrationNumber": "04332",
      "identificationNumber": "B95325106",
      "address": "AVDA. ENEKURI, S/N",
      "location": {
        "postalCode": "48950",
        "municipality": "Erandio",
        "county": "Bizkaia",
        "municipalityId": "902",
        "countyId": "48"
      },
      "economicActivities": [
        {
          "id": "1.501.1",
          "name": "Construcción completa, reparación y conservación de edificaciones",
          "_links": {
            "self": {
              "name": "Construcción completa, reparación y conservación de edificaciones",
              "href": "https://api.euskadi.eus/procurements/companies/economic-activities/1.501.1"
            }
          }
        }
      ],
      "certificateStartDate": "2009-12-23",
      "certificateEndDate": "2010-02-18",
      "object": "-) LA RESTAURACIÓN Y ELABORACIÓN DE OBRAS DE ARTE MUEBLES E INMUEBLES, LA REALIZACIÓN ESTUDIOS PREVIOS, INFORMES Y PROYECTOS DE RESTAURACIÓN, Y CUALQUIER OTRO TRABAJO, FACULTADO POR LA TITULACIÓN DE LOS SOCIOS, ARQUITECTO Y LICENCIADA EN BELLAS ARTES ESPECIALISTA EN RESTAURACIÓN, EN TEMAS RELACIONADOS CON LA ARQUITECTURA DE LA RESTAURACIÓN, CONSTRUCCIÓN Y DECORACIÓN, ASÍ COMO LAS ACTIVIDADES DE GESTIÓN, COORDINACIÓN Y ADMINISTRACIÓN DE LOS ASUNTOS RELACIONADOS CON EL OBJETO SOCIAL.\r\n-) LA EXPLOTACIÓN DE LOS DERECHOS DE LA PROPIEDAD INTELECTUAL O INDUSTRIAL DERIVADOS DE LAS ACTIVIDADES ENUMERADAS EN EL APARTADO ANTERIOR.",
      "mainEntityOfPage": "https://www.contratacion.euskadi.eus/webkpe00-kperoc/es/ac71aBusquedaRegistrosWar/empresa/04332",
      "_links": {
        "self": {
          "name": "ARTEA RESTAURACIÓN, S.L.",
          "href": "https://api.euskadi.eus/procurements/companies/04332"
        }
      }
    },
    {
      "name": "CESOIN SEIDOR, S.A.",
      "registrationNumber": "03836",
      "identificationNumber": "A39042999",
      "address": "REINA VICTORIA, 39",
      "location": {
        "postalCode": "39004",
        "municipality": "Santander",
        "county": "Cantabria",
        "municipalityId": "075",
        "countyId": "39"
      },
      "economicActivities": [
        {
          "id": "1.659.2",
          "name": "Venta al por menor de muebles de oficina y máquinas y equipos de oficina",
          "_links": {
            "self": {
              "name": "Venta al por menor de muebles de oficina y máquinas y equipos de oficina",
              "href": "https://api.euskadi.eus/procurements/companies/economic-activities/1.659.2"
            }
          }
        }
      ],
      "certificateStartDate": "2009-12-21",
      "certificateEndDate": "2009-11-22",
      "object": "LA COMPRA, VENTA, ARRENDAMIENTO Y COMERCIALIZACIÓN DE TODO TIPO DE ORDENADORES, MÁQUINAS Y ACCESORIOS COMPLEMENTARIOS DE LOS MISMOS Y PROGRAMAS INFORMÁTICOS.\r\nLA PRESTACIÓN DE SERVICIOS DE ANÁLISIS Y PROGRAMACIÓN INFORMÁTICA Y LA DE CONSERVACIÓN Y MANTENIMIENTO TÉCNICO DE PROGRAMAS, ORDENADORES Y SUS MÁQUINAS Y ACCESORIOS COMPLEMENTARIOS.\r\nLA COMPRA, VENTA Y COMERCIALIZACIÓN DE MATERIAL Y MOBILIARIO DE OFICINA",
      "mainEntityOfPage": "https://www.contratacion.euskadi.eus/webkpe00-kperoc/es/ac71aBusquedaRegistrosWar/empresa/03836",
      "_links": {
        "self": {
          "name": "CESOIN SEIDOR, S.A.",
          "href": "https://api.euskadi.eus/procurements/companies/03836"
        }
      }
    },
    {
      "name": "EKITEL OBRAS Y REFORMAS, S.L.",
      "registrationNumber": "02305",
      "identificationNumber": "B20680773",
      "address": "POLÍGONO INDUSTRIAL ANZIZAR, 1",
      "location": {
        "postalCode": "20200",
        "municipality": "Beasain",
        "county": "Gipuzkoa",
        "municipalityId": "019",
        "countyId": "20"
      },
      "economicActivities": [
        {
          "id": "1.501.1",
          "name": "Construcción completa, reparación y conservación de edificaciones",
          "_links": {
            "self": {
              "name": "Construcción completa, reparación y conservación de edificaciones",
              "href": "https://api.euskadi.eus/procurements/companies/economic-activities/1.501.1"
            }
          }
        }
      ],
      "certificateStartDate": "2009-12-18",
      "certificateEndDate": "2010-05-19",
      "object": "CONSTRUCCIONES, OBRAS Y REFORMAS EN EDIFICACIONES",
      "mainEntityOfPage": "https://www.contratacion.euskadi.eus/webkpe00-kperoc/es/ac71aBusquedaRegistrosWar/empresa/02305",
      "_links": {
        "self": {
          "name": "EKITEL OBRAS Y REFORMAS, S.L.",
          "href": "https://api.euskadi.eus/procurements/companies/02305"
        }
      }
    },
    {
      "name": "ARRONA HERMANOS SL",
      "registrationNumber": "04318",
      "identificationNumber": "B20067310",
      "address": "Mª ETXETXIKI, 7",
      "location": {
        "postalCode": "20800",
        "municipality": "Zarautz",
        "county": "Gipuzkoa",
        "municipalityId": "079",
        "countyId": "20"
      },
      "economicActivities": [
        {
          "id": "1.463.4",
          "name": "Elementos estructurales y construcciones prefabricadas de madera",
          "_links": {
            "self": {
              "name": "Elementos estructurales y construcciones prefabricadas de madera",
              "href": "https://api.euskadi.eus/procurements/companies/economic-activities/1.463.4"
            }
          }
        },
        {
          "id": "1.653.1",
          "name": "Venta al por menor de muebles (excepto los de oficina)",
          "_links": {
            "self": {
              "name": "Venta al por menor de muebles (excepto los de oficina)",
              "href": "https://api.euskadi.eus/procurements/companies/economic-activities/1.653.1"
            }
          }
        },
        {
          "id": "1.653.3",
          "name": "Venta al por menor de artículos de menaje, ferretería, adorno, regalo",
          "_links": {
            "self": {
              "name": "Venta al por menor de artículos de menaje, ferretería, adorno, regalo",
              "href": "https://api.euskadi.eus/procurements/companies/economic-activities/1.653.3"
            }
          }
        }
      ],
      "certificateStartDate": "2009-12-18",
      "certificateEndDate": "2010-04-15",
      "object": "LA FABRICACIÓN DE ARTÍCULOS DE CARPINTERÍA ",
      "mainEntityOfPage": "https://www.contratacion.euskadi.eus/webkpe00-kperoc/es/ac71aBusquedaRegistrosWar/empresa/04318",
      "_links": {
        "self": {
          "name": "ARRONA HERMANOS SL",
          "href": "https://api.euskadi.eus/procurements/companies/04318"
        }
      }
    },
    {
      "name": "APLICACIONES ELECTRIICAS IZARAK, S.L.",
      "registrationNumber": "04326",
      "identificationNumber": "B95340576",
      "address": "Bº ASTOLA Nº 12",
      "location": {
        "postalCode": "48220",
        "municipality": "Abadiño",
        "county": "Bizkaia",
        "municipalityId": "001",
        "countyId": "48"
      },
      "economicActivities": [
        {
          "id": "1.504.1",
          "name": "Instalaciones eléctricas en general",
          "_links": {
            "self": {
              "name": "Instalaciones eléctricas en general",
              "href": "https://api.euskadi.eus/procurements/companies/economic-activities/1.504.1"
            }
          }
        }
      ],
      "certificateStartDate": "2009-12-18",
      "certificateEndDate": "2010-01-22",
      "object": "LA INSTALACIÓN, MANTENIMIENTO Y REPARACIÓN DE TODO TIPO DE INSTALACIONES ELÉCTRICAS Y ELECTRÓNICAS INDUSTRIALES Y DOMÉSTICAS",
      "mainEntityOfPage": "https://www.contratacion.euskadi.eus/webkpe00-kperoc/es/ac71aBusquedaRegistrosWar/empresa/04326",
      "_links": {
        "self": {
          "name": "APLICACIONES ELECTRIICAS IZARAK, S.L.",
          "href": "https://api.euskadi.eus/procurements/companies/04326"
        }
      }
    },
    {
      "name": "CONSTRUCCIONES DUMBOA, S.A.",
      "registrationNumber": "02465",
      "identificationNumber": "A20135935",
      "address": "AVDA. LETXUNBORRO, 92 EDIF. EZKORTZA , OF 3",
      "location": {
        "postalCode": "20303",
        "municipality": "Irun",
        "county": "Gipuzkoa",
        "municipalityId": "045",
        "countyId": "20"
      },
      "economicActivities": [
        {
          "id": "1.507",
          "name": "Construcción, reparación y conservación de toda clase obras",
          "_links": {
            "self": {
              "name": "Construcción, reparación y conservación de toda clase obras",
              "href": "https://api.euskadi.eus/procurements/companies/economic-activities/1.507"
            }
          }
        }
      ],
      "certificateStartDate": "2009-12-11",
      "certificateEndDate": "2010-05-09",
      "object": "LA CONSTRUCCIÓN DE  VIVIENDAS, URBANIZACIONES, ALBAÑILERÍA, COMPRA-VENTA DE MAQUINARIA DE URBANISMO Y CONSTRUCCIÓN, Y CUALQUIER OTRA ACTIVIDAD QUE TENGA COMO OBJETO O SE RELACIONE CON LO ANTERIOR.",
      "mainEntityOfPage": "https://www.contratacion.euskadi.eus/webkpe00-kperoc/es/ac71aBusquedaRegistrosWar/empresa/02465",
      "_links": {
        "self": {
          "name": "CONSTRUCCIONES DUMBOA, S.A.",
          "href": "https://api.euskadi.eus/procurements/companies/02465"
        }
      }
    },
    {
      "name": "QUALIGEN, S.L.",
      "registrationNumber": "04304",
      "identificationNumber": "B64280167",
      "address": "AVDA. BARCELONA, 69",
      "location": {
        "postalCode": "08970",
        "municipality": "Sant Joan Despí",
        "county": "Barcelona",
        "municipalityId": "217",
        "countyId": "08"
      },
      "economicActivities": [
        {
          "id": "1.614.1",
          "name": "Venta al por mayor de productos farmacéuticos y medicamentos",
          "_links": {
            "self": {
              "name": "Venta al por mayor de productos farmacéuticos y medicamentos",
              "href": "https://api.euskadi.eus/procurements/companies/economic-activities/1.614.1"
            }
          }
        }
      ],
      "certificateStartDate": "2009-12-10",
      "certificateEndDate": "2010-03-08",
      "object": "LA COMERCIALIZACIÓN AL MAYOR Y AL DETALLE; LA IMPORTACIÓN Y LA EXPORTACIÓN; Y CUALESQUIERA OTRAS FORMAS DE EXPLOTACIÓN DE TODAS LAS FORMAS RELACIONADAS DE ALGUNA FORMA CON LA INDUSTRIA FARMACEÚTICA Y QUÍMICA, TANTO ORGÁNICA COMO INORGÁNICA, YA SEAN PRODUCTOS BÁSICOS, DERIVADOS, TRANSFORMADOS, SUBPRODUCTOS, MAQUINARIA O ACCESORIOS.",
      "mainEntityOfPage": "https://www.contratacion.euskadi.eus/webkpe00-kperoc/es/ac71aBusquedaRegistrosWar/empresa/04304",
      "_links": {
        "self": {
          "name": "QUALIGEN, S.L.",
          "href": "https://api.euskadi.eus/procurements/companies/04304"
        }
      }
    }
  ]
}