{
  "totalItems": 9042,
  "totalPages": 905,
  "currentPage": 398,
  "itemsOfPage": 10,
  "items": [
    {
      "name": "GRAFICAS SESTAO, S.L.",
      "registrationNumber": "06999",
      "identificationNumber": "B95338810",
      "address": "DOCTOR FLEMING, 5",
      "location": {
        "postalCode": "48910",
        "municipality": "Sestao",
        "county": "Bizkaia",
        "municipalityId": "084",
        "countyId": "48"
      },
      "economicActivities": [
        {
          "id": "1.474",
          "name": "Artes gráficas (impresión gráfica)",
          "_links": {
            "self": {
              "name": "Artes gráficas (impresión gráfica)",
              "href": "https://api.euskadi.eus/procurements/companies/economic-activities/1.474"
            }
          }
        },
        {
          "id": "1.843.9",
          "name": "Otros servicios técnicos n.c.o.p",
          "_links": {
            "self": {
              "name": "Otros servicios técnicos n.c.o.p",
              "href": "https://api.euskadi.eus/procurements/companies/economic-activities/1.843.9"
            }
          }
        },
        {
          "id": "1.844",
          "name": "Servicios de publicidad, relaciones públicas y similares",
          "_links": {
            "self": {
              "name": "Servicios de publicidad, relaciones públicas y similares",
              "href": "https://api.euskadi.eus/procurements/companies/economic-activities/1.844"
            }
          }
        }
      ],
      "certificateStartDate": "2024-08-30",
      "certificateEndDate": "2025-02-28",
      "object": "LA IMPRESIÓN DE TEXTOS E IMÁGENES Y COMPOSICIÓN DE LOS MISMOS POR CUALQUIER PROCEDIMIENTO O SISTEMA. ACTIVIDADES DE ENCUADERNACIÓN Y EDICIÓN Y TODAS AQUELLAS CONEXAS CON LAS ARTES GRÁFICAS",
      "mainEntityOfPage": "https://www.contratacion.euskadi.eus/webkpe00-kperoc/es/ac71aBusquedaRegistrosWar/empresa/06999",
      "_links": {
        "self": {
          "name": "GRAFICAS SESTAO, S.L.",
          "href": "https://api.euskadi.eus/procurements/companies/06999"
        }
      }
    },
    {
      "name": "TÜV RHEINLAND IBERICA INSPECTION, CERTIFICATION & TESTING, S.A.",
      "registrationNumber": "09472",
      "identificationNumber": "A59555466",
      "address": "Parc de negocis mas Blau, C/ Garrotxa Nº 10-12",
      "location": {
        "postalCode": "08820",
        "municipality": "Prat de Llobregat, El",
        "county": "Barcelona",
        "municipalityId": "169",
        "countyId": "08"
      },
      "economicActivities": [
        {
          "id": "1.843.1",
          "name": "Servicios técnicos de ingeniería",
          "_links": {
            "self": {
              "name": "Servicios técnicos de ingeniería",
              "href": "https://api.euskadi.eus/procurements/companies/economic-activities/1.843.1"
            }
          }
        },
        {
          "id": "1.932.1",
          "name": "Enseñanza de formación y perfeccionamiento profesional no superior",
          "_links": {
            "self": {
              "name": "Enseñanza de formación y perfeccionamiento profesional no superior",
              "href": "https://api.euskadi.eus/procurements/companies/economic-activities/1.932.1"
            }
          }
        }
      ],
      "certificateStartDate": "2024-08-30",
      "certificateEndDate": "2025-02-28",
      "object": "COLABORAR CON LA ADMINISTRACIÓN PÚBLICA EN EL EJERCICIO DE LAS COMPETENCIAS QUE LE CORRESPONDEN EN ATENCIÓN A LA VIGILANCIA DEL CUMPLIMIENTO DE LA REGLAMENTACIÓN SOBRE MÁQUINAS, INSTRUMENTOS, APARATOS, EQUIPOS E INSTALACIONES INDUSTRIALES, DEL COMERCIO, EL HOGAR E INSTALACIONES DE OCIO, DENTRO DEL ÁMBITO DE LA SEGURIDAD, CALIDAD, MEDIO AMBIENTE Y NORMATIVA INDUSTRIAL; SOBRE VEHÍCULOS Y OTRAS UNIDADES DE TRANSPORTE; SOBRE LAS TÉCNICAS ENERGÉTICAS; SOBRE LA PREVENCIÓN DE RIESGOS LABORALES, SOBRE LA SEGURIDAD Y CALIDAD DE PRODUCTOS, SISTEMAS E INSTALACIONES; SOBRE LA CONSTRUCCIÓN PARA LA OBTENCIÓN DE LAS PÓLIZAS DE SEGUROS DECENALES Y OTROS CONTROLES Y CERTIFICADOS; Y EN CONCRETO, EN TODO LO RELATIVO A LAS TAREAS DE INSPECCIÓN, REVISIÓN, VERIFICACIÓN, HOMOLOGACIÓN, CERTIFICACIÓN, CONTROL Y ENSAYOS TÉCNICOS Y REGLAMENTARIOS, Y OFRECER ASIMISMO LOS MISMOS SERVICIOS A LOS FABRICANTES, ESTABLECIMIENTOS PÚBLICOS Y PRIVADOS DE INDUSTRIA, COMERCIO Y SERVICIOS, EMPRESAS, ESTAMENTOS OFICIALES, ENTIDADES O PERSONAS Y LA FORMACIÓN EN GENERAL. LA HOMOLOGACIÓN, VERIFICACIÓN, REVISIÓN, CONTROL TÉCNICO E INSPECCIÓN DE EMBARCACIONES DE RECREO Y/O SUS PARTES Y EQUIPOS. PARTICIPAR EN LA PROTECCIÓN DEL SER HUMANO, MEDIO AMBIENTE Y MEDIOS MATERIALES FRENTE A LOS EFECTOS NEGATIVOS DE LAS INSTALACIONES DE APARATOS TÉCNICOS DE TODA CLASE. INSPECCIÓN Y CONTROL METROLÓGICO. ASIMISMO TIENE POR OBJETO LA ADQUISICIÓN, EXPLOTACIÓN, TENENCIA Y VENTA DE TODA CLASE DE BIENES MUEBLES RELACIONADOS CON EL OBJETO SOCIAL E INMUEBLES.",
      "mainEntityOfPage": "https://www.contratacion.euskadi.eus/webkpe00-kperoc/es/ac71aBusquedaRegistrosWar/empresa/09472",
      "_links": {
        "self": {
          "name": "TÜV RHEINLAND IBERICA INSPECTION, CERTIFICATION & TESTING, S.A.",
          "href": "https://api.euskadi.eus/procurements/companies/09472"
        }
      }
    },
    {
      "name": "RAFAEL LAMBARRI ARES",
      "registrationNumber": "09771",
      "identificationNumber": "30577564F",
      "address": "Tertanga, 14 A",
      "location": {
        "postalCode": "01468",
        "municipality": "Amurrio",
        "county": "Araba/Álava",
        "municipalityId": "002",
        "countyId": "01"
      },
      "economicActivities": [
        {
          "id": "1.657",
          "name": "Venta al por menor de instrumentos musicales y sus accesorios",
          "_links": {
            "self": {
              "name": "Venta al por menor de instrumentos musicales y sus accesorios",
              "href": "https://api.euskadi.eus/procurements/companies/economic-activities/1.657"
            }
          }
        },
        {
          "id": "1.965.4",
          "name": "Empresas de espectáculos",
          "_links": {
            "self": {
              "name": "Empresas de espectáculos",
              "href": "https://api.euskadi.eus/procurements/companies/economic-activities/1.965.4"
            }
          }
        }
      ],
      "certificateStartDate": "2024-08-30",
      "certificateEndDate": "2025-02-27",
      "object": "VENTA AL POR MENOR DE INSTRUMENTOS MUSICALES Y SUS ACCESORIOS. EMPRESAS DE ESPECTÁCULOS.",
      "mainEntityOfPage": "https://www.contratacion.euskadi.eus/webkpe00-kperoc/es/ac71aBusquedaRegistrosWar/empresa/09771",
      "_links": {
        "self": {
          "name": "RAFAEL LAMBARRI ARES",
          "href": "https://api.euskadi.eus/procurements/companies/09771"
        }
      }
    },
    {
      "name": "MARINA GETXO PORT, S.A.",
      "registrationNumber": "08672",
      "identificationNumber": "A10929750",
      "address": "Muelle de Arriluze ",
      "location": {
        "postalCode": "48992",
        "municipality": "Getxo",
        "county": "Bizkaia",
        "municipalityId": "044",
        "countyId": "48"
      },
      "economicActivities": [
        {
          "id": "1.967.1",
          "name": "Instalaciones deportivas",
          "_links": {
            "self": {
              "name": "Instalaciones deportivas",
              "href": "https://api.euskadi.eus/procurements/companies/economic-activities/1.967.1"
            }
          }
        }
      ],
      "certificateStartDate": "2024-08-29",
      "certificateEndDate": "2025-02-28",
      "object": "- GESTIÓN DE TODO TIPO DE INSTALACIONES DEPORTIVAS. - CONSTRUCCIÓN, EJECUCIÓN, REPARACIÓN Y MANTENIMIENTO DE OBRAS EN INSTALACIONES NÁUTICAS Y DEPORTIVAS PÚBLICAS O PRIVADAS.",
      "mainEntityOfPage": "https://www.contratacion.euskadi.eus/webkpe00-kperoc/es/ac71aBusquedaRegistrosWar/empresa/08672",
      "_links": {
        "self": {
          "name": "MARINA GETXO PORT, S.A.",
          "href": "https://api.euskadi.eus/procurements/companies/08672"
        }
      }
    },
    {
      "name": "ARGIXAO SERVICIOS DE MANTENIMIENTO, S.L.",
      "registrationNumber": "08358",
      "identificationNumber": "B20644340",
      "address": "C/ LABEAGA 39 6º",
      "location": {
        "postalCode": "20700",
        "municipality": "Urretxu",
        "county": "Gipuzkoa",
        "municipalityId": "077",
        "countyId": "20"
      },
      "economicActivities": [
        {
          "id": "1.849.9",
          "name": "Otros servicios independientes n.c.o.p",
          "_links": {
            "self": {
              "name": "Otros servicios independientes n.c.o.p",
              "href": "https://api.euskadi.eus/procurements/companies/economic-activities/1.849.9"
            }
          }
        }
      ],
      "certificateStartDate": "2024-08-29",
      "certificateEndDate": "2025-02-28",
      "object": "LA EXPLOTACIÓN, MANTENIMIENTO, CONSERVACIÓN Y LIMPIEZA DE EDIFICIOS, LOCALES E INSTALACIONES DEPORTIVAS, LA PRESTACIÓN DE SERVICIOS DE JARDINERÍA, HORTICULTURA, ALBAÑILERÍA, FONTANERÍA, ELECTRICIDAD, LIMPIEZA, ASISTENCIA DOMICILIARIA Y LA COMPRAVENTA Y ARRENDAMIENTO DE BIENES MUEBLES E INMUEBLES.",
      "mainEntityOfPage": "https://www.contratacion.euskadi.eus/webkpe00-kperoc/es/ac71aBusquedaRegistrosWar/empresa/08358",
      "_links": {
        "self": {
          "name": "ARGIXAO SERVICIOS DE MANTENIMIENTO, S.L.",
          "href": "https://api.euskadi.eus/procurements/companies/08358"
        }
      }
    },
    {
      "name": "BARATZE SOSTENIBLE, S.L.",
      "registrationNumber": "09769",
      "identificationNumber": "B47606579",
      "address": "CALLE PIRITA 28",
      "location": {
        "postalCode": "47012",
        "municipality": "Valladolid",
        "county": "Valladolid",
        "municipalityId": "186",
        "countyId": "47"
      },
      "economicActivities": [
        {
          "id": "1.504.1",
          "name": "Instalaciones eléctricas en general",
          "_links": {
            "self": {
              "name": "Instalaciones eléctricas en general",
              "href": "https://api.euskadi.eus/procurements/companies/economic-activities/1.504.1"
            }
          }
        },
        {
          "id": "1.504.3",
          "name": "Instalaciones de frío, calor y acondicionamiento de aire",
          "_links": {
            "self": {
              "name": "Instalaciones de frío, calor y acondicionamiento de aire",
              "href": "https://api.euskadi.eus/procurements/companies/economic-activities/1.504.3"
            }
          }
        },
        {
          "id": "1.504.7",
          "name": "Instalaciones telefónicas, telegráficas, televisión, etc",
          "_links": {
            "self": {
              "name": "Instalaciones telefónicas, telegráficas, televisión, etc",
              "href": "https://api.euskadi.eus/procurements/companies/economic-activities/1.504.7"
            }
          }
        },
        {
          "id": "1.843.1",
          "name": "Servicios técnicos de ingeniería",
          "_links": {
            "self": {
              "name": "Servicios técnicos de ingeniería",
              "href": "https://api.euskadi.eus/procurements/companies/economic-activities/1.843.1"
            }
          }
        }
      ],
      "certificateStartDate": "2024-08-29",
      "certificateEndDate": "2025-02-28",
      "object": "LA PRESTACIÓN DE SERVICIOS DE ORGANIZACIÓN DE CONGRESOS, ASAMBLEAS O SIMILARES. PROMOVER, PROYECTAR, CONSTRUIR Y EXPLOTAR INSTALACIONES ENERGÉTICAS DE FUENTE RENOVABLE.",
      "mainEntityOfPage": "https://www.contratacion.euskadi.eus/webkpe00-kperoc/es/ac71aBusquedaRegistrosWar/empresa/09769",
      "_links": {
        "self": {
          "name": "BARATZE SOSTENIBLE, S.L.",
          "href": "https://api.euskadi.eus/procurements/companies/09769"
        }
      }
    },
    {
      "name": "ARMISEN CARE SOLUTIONS, S.L.",
      "registrationNumber": "09768",
      "identificationNumber": "B71432355",
      "address": "calle esquiroz 22 bajo",
      "location": {
        "postalCode": "31007",
        "municipality": "Pamplona/Iruña",
        "county": "Navarra",
        "municipalityId": "201",
        "countyId": "31"
      },
      "economicActivities": [
        {
          "id": "1.653.1",
          "name": "Venta al por menor de muebles (excepto los de oficina)",
          "_links": {
            "self": {
              "name": "Venta al por menor de muebles (excepto los de oficina)",
              "href": "https://api.euskadi.eus/procurements/companies/economic-activities/1.653.1"
            }
          }
        }
      ],
      "certificateStartDate": "2024-08-29",
      "certificateEndDate": "2025-02-28",
      "object": "- COMPRAVENTA, DISTRIBUCIÓN, IMPORTACIÓN, EXPORTACIÓN Y ALQUILER DE CAMAS ARTICULADAS Y DEMÁS PRODUCTOS ACCESORIOS, ASÍ COMO DE CUALESQUIERA PRODUCTOS ORTOPÉDICOS, MÉDICOS Y SANITARIOS Y DE AYUDAS TÉCNICAS Y SOLUCIONES TECNOLÓGICAS (A TÍTULO ENUNCIATIVO, MOBILIARIO, MESILLAS, SILLONES, GRÚAS DE TRANSFERENCIA,…).",
      "mainEntityOfPage": "https://www.contratacion.euskadi.eus/webkpe00-kperoc/es/ac71aBusquedaRegistrosWar/empresa/09768",
      "_links": {
        "self": {
          "name": "ARMISEN CARE SOLUTIONS, S.L.",
          "href": "https://api.euskadi.eus/procurements/companies/09768"
        }
      }
    },
    {
      "name": "KARL STORZ ENDOSCOPIA IBERICA, S.A.",
      "registrationNumber": "03732",
      "identificationNumber": "A78936606",
      "address": "PARQUE EMP. SAN FERNANDO. EDIF. MUNICH.",
      "location": {
        "postalCode": "28830",
        "municipality": "Madrid",
        "county": "Madrid",
        "municipalityId": "079",
        "countyId": "28"
      },
      "economicActivities": [
        {
          "id": "1.619.2",
          "name": "Venta al por mayor de aparatos e instrumentos médicos, ortopédicos, ópticos",
          "_links": {
            "self": {
              "name": "Venta al por mayor de aparatos e instrumentos médicos, ortopédicos, ópticos",
              "href": "https://api.euskadi.eus/procurements/companies/economic-activities/1.619.2"
            }
          }
        }
      ],
      "certificateStartDate": "2024-08-28",
      "certificateEndDate": "2025-02-28",
      "object": "LA IMPORTACIÓN, FABRICACIÓN Y DISTRIBUCIÓN DE EQUIPOS MÉDICOS Y TÉCNICOS DE TODO TIPO.\nPODRÁ TAMBIÉN REALIZAR CUALQUIER OTRA OPERACIÓN DE FABRICACIÓN, ENSAMBLAJE Y DISTRIBUCIÓN DE ELEMENTOS RELACIONADOS CON EL OBJETO PRINCIPAL. PODRÁ ASISMISMO ADQUIRIRI, EXPLOTAR, ADMINISTRAR Y ENAJENAR BIENES INMUEBLES Y DERECHOS DE PROPIEDAD INTELECTUAL E INDUSTRIAL",
      "mainEntityOfPage": "https://www.contratacion.euskadi.eus/webkpe00-kperoc/es/ac71aBusquedaRegistrosWar/empresa/03732",
      "_links": {
        "self": {
          "name": "KARL STORZ ENDOSCOPIA IBERICA, S.A.",
          "href": "https://api.euskadi.eus/procurements/companies/03732"
        }
      }
    },
    {
      "name": "ARAGÓN ALQUILER DE MAQUINARIA, S.A.",
      "registrationNumber": "01808",
      "identificationNumber": "A48157127",
      "address": "POLÍGONO INDUSTRIAL EL ARBOL. PARCELA 4.",
      "location": {
        "postalCode": "48980",
        "municipality": "Santurtzi",
        "county": "Bizkaia",
        "municipalityId": "082",
        "countyId": "48"
      },
      "economicActivities": [
        {
          "id": "1.507",
          "name": "Construcción, reparación y conservación de toda clase obras",
          "_links": {
            "self": {
              "name": "Construcción, reparación y conservación de toda clase obras",
              "href": "https://api.euskadi.eus/procurements/companies/economic-activities/1.507"
            }
          }
        },
        {
          "id": "1.722",
          "name": "Transporte de mercancías por carretera",
          "_links": {
            "self": {
              "name": "Transporte de mercancías por carretera",
              "href": "https://api.euskadi.eus/procurements/companies/economic-activities/1.722"
            }
          }
        },
        {
          "id": "1.852",
          "name": "Alquiler de maquinaria y equipo para la construcción",
          "_links": {
            "self": {
              "name": "Alquiler de maquinaria y equipo para la construcción",
              "href": "https://api.euskadi.eus/procurements/companies/economic-activities/1.852"
            }
          }
        },
        {
          "id": "1.932.1",
          "name": "Enseñanza de formación y perfeccionamiento profesional no superior",
          "_links": {
            "self": {
              "name": "Enseñanza de formación y perfeccionamiento profesional no superior",
              "href": "https://api.euskadi.eus/procurements/companies/economic-activities/1.932.1"
            }
          }
        }
      ],
      "certificateStartDate": "2024-08-28",
      "certificateEndDate": "2025-02-26",
      "object": "EL ALQUILER DE MAQUINARIA, EN GENERAL; TRANSPORTE DE MERCANCÍAS, PROPIAS Y/O AJENAS; COMPRA Y VENTA Y REPARACIÓN DE MAQUINARIA; PROMOCIÓN Y CONSTRUCCIÓN DE OBRA CIVIL Y DE CUALQUIER TIPO DE EDIFICACIÓN, ASÍ COMO LA VENTA DE LOS ELEMENTOS RESULTANTES DE LAS REFERIDAS EDIFICACIONES. LA URBANIZACIÓN Y PARCELACIÓN DE TERRENOS, CONFORME A LOS PLANES DE ORDENACIÓN URBANÍSTICA, APROBADOS POR LAS AUTORIDADES COMPETENTES EN LOS POLÍGONOS Y ZONAS DE ACTUACIÓN QUE, AL EFECTO, SEAN DESIGNADOS, Y LA REPARCELACIÓN DE DICHOS TERRENOS URBANÍSTICOS Y, EN SU CASO, LA EDIFICACIÓN Y VENTA DE LOS MISMOS O DE LAS EDIFICACIONES Y OBRAS DE URBANIZACIÓN Y SERVICIOS A CUYO EFECTO, PODRÁ FORMAR PARTE DE ASOCIACIONES DE PROPIETARIOS, EMPRESAS MIXTAS Y ENTIDADES URBANÍSTICAS COLABORADORAS, QUE PUEDAN REGLAMENTARSE, A LOS EXPRESADOS FINES",
      "mainEntityOfPage": "https://www.contratacion.euskadi.eus/webkpe00-kperoc/es/ac71aBusquedaRegistrosWar/empresa/01808",
      "_links": {
        "self": {
          "name": "ARAGÓN ALQUILER DE MAQUINARIA, S.A.",
          "href": "https://api.euskadi.eus/procurements/companies/01808"
        }
      }
    },
    {
      "name": "AJL OPHTHALMIC, S.A.",
      "registrationNumber": "02808",
      "identificationNumber": "A48464788",
      "address": "PARQUE TECNOLÓGICO DE ALAVA, E-3. MIÑANO",
      "location": {
        "postalCode": "01510",
        "municipality": "Vitoria-Gasteiz",
        "county": "Araba/Álava",
        "municipalityId": "059",
        "countyId": "01"
      },
      "economicActivities": [
        {
          "id": "1.393.1",
          "name": "Instrumentos ópticos, material fotográfico y cinematográfico",
          "_links": {
            "self": {
              "name": "Instrumentos ópticos, material fotográfico y cinematográfico",
              "href": "https://api.euskadi.eus/procurements/companies/economic-activities/1.393.1"
            }
          }
        }
      ],
      "certificateStartDate": "2024-08-27",
      "certificateEndDate": "2025-02-27",
      "object": "A) LA FABRICACIÓN, COMERCIALIZACIÓN, DISTRIBUCIÓN, REPRESENTACIÓN, COMPRA Y VENTA DE TODA CLASE DE MATERIALES, PRODUCTOS Y EQUIPOS RELACIONADOS CON LA MEDICINA Y CUALQUIER OTRA OPERACIÓN, INDUSTRIAL O MERCANTIL RELACIONADA DIRECTA O INDIRECTAMENTE CON LAS ANTERIORES; B) EL ESTUDIO, INVESTIGACIÓN, PROMOCIÓN Y PRESTACIÓN DE TODA CLASE DE SERVICIOS DE DIRECCIÓN, GESTIÓN Y ASESORAMIENTOS TÉCNICOS, COMERCIAL, MERCANTIL, FISCAL, FINANCIERO, CONTABLE Y DE CUALQUIER OTRA ESPECIE O NATURALEZA A PERSONAL FÍSICAS, JURÍDICAS, SOCIEDADES Y EMPRESAS PÚBLICAS O PRIVADAS, ASÍ COMO A LA REALIZACIÓN DE ESTUDIOS, PROYECTOS Y ASESORAMIENTOS TÉCNICOS REALIZADO TODO ELLO POR PERSONAS CON LA PRECEPTIVA TITULACIÓN; C) LA ADQUISICIÓN Y TENENCIA POR CUALQUIER TÍTULO DE TODA CLASE DE VALORES MOBILIARIOS E INMOBILIARIOS, TERRENOS, RÚSTICAS Y EDIFICIOS, SU ENAJENACÓN Y ARRENDAMIENTO, SIN INCIDIR EN LAS OPERACIONES A QUE SE REFIERE LA LEY 46/84 DE INVERSIONES COLECTIVAS Y CON EXCLUSIÓN DE LAS ACTIVIDADES REGULADAS POR LA LEY DEL MERCADO DE VALORES; D) LA PROMOCIÓN O PARTICIPACIÓN EN OTRAS COMPAÑÍAS O NEGOCIOS, ASÍ COMO LA ADQUISICIÓN, POSESIÓN Y ENAJENACIÓN DE TODA CLASE DE BIENES ",
      "mainEntityOfPage": "https://www.contratacion.euskadi.eus/webkpe00-kperoc/es/ac71aBusquedaRegistrosWar/empresa/02808",
      "_links": {
        "self": {
          "name": "AJL OPHTHALMIC, S.A.",
          "href": "https://api.euskadi.eus/procurements/companies/02808"
        }
      }
    }
  ]
}