{
  "totalItems": 9042,
  "totalPages": 905,
  "currentPage": 787,
  "itemsOfPage": 10,
  "items": [
    {
      "name": "OKANDI INGENIERÍA, S.L.",
      "registrationNumber": "01419",
      "identificationNumber": "B01044981",
      "address": "C/ MANUEL IRADIER, Nº 40 - bajo.",
      "location": {
        "postalCode": "01005",
        "municipality": "Vitoria-Gasteiz",
        "county": "Araba/Álava",
        "municipalityId": "059",
        "countyId": "01"
      },
      "economicActivities": [
        {
          "id": "1.843.9",
          "name": "Otros servicios técnicos n.c.o.p",
          "_links": {
            "self": {
              "name": "Otros servicios técnicos n.c.o.p",
              "href": "https://api.euskadi.eus/procurements/companies/economic-activities/1.843.9"
            }
          }
        }
      ],
      "certificateStartDate": "2005-05-05",
      "certificateEndDate": "2005-10-25",
      "object": "LA PRESTACIÓN DE TODA CLASE DE SERVICIOS PROPIOS DEL ASESORAMIENTO TÉCNICO Y JURÍDICO, CON ACTUACIONES EXTRAJUDICIALES EN MATERIA CONTRACTUAL, ASOCIACIONES Y SOCIEDADES, SUCESORIAS, HIPOTECARIAS Y DEMÁS RAMAS DEL DERECHO, ASESORAMIENTO PARA LA DEFENSA JURÍDICA EN TODA CLASE DE PROCEDIMIENTOS ANTE LA JURISDICCIÓN CIVIL, PENAL, ADMINISTRATIVA, DEL TRABAJO, MILITAR Y DE MARINA, ECLESIÁSTICA, ECONÓMICO-ADMINISTRATIVA Y DE CONTRABANDO, GESTIONES ASIMISMO DE ASESORAMIENTO RELACIONADAS CON TALES ACTUACIONES PROFESIONALES ANTE JUZGADOS Y TRIBUNALES, AUTORIDADES Y DEPENDENCIAS DE LAS ADMINISTRACIONES PÚBLICAS, ESTATAL, AUTONÓMICA, PROVINCIAL Y LOCAL, ORGANISMOS AUTÓNOMOS O DE CUALQUIER OTRO ORDEN, NOTARÍAS, REGISTROS, AUDITORÍA DE OBRAS, RELACIÓN DE VALORACIONES, PRESUPUESTOS, PROYECTOS, ETC. DE LA MISMA RAMA DE INGENIERÍA CIVIL, ARQUITECTURA E INGENIERÍA TÉCNICA EN TODAS SUS RAMAS. ASIMISMO ES OBJETO DE LA SOCIEDAD LA ORDENACIÓN, URBANIZACIÓN, PARCELACIÓN, PROMOCIÓN, CONSTRUCCIÓN, ADQUISICIÓN, VENTA, CESIÓN, PERMUTA Y EXPLOTACIÓN POR CUALQUIER TÍTULO DE TODA CLASE DE TERRENOS SOLARES, OBRAS, VIVIENDAS, LOCALES, PABELLONES E INMUEBLES",
      "mainEntityOfPage": "https://www.contratacion.euskadi.eus/webkpe00-kperoc/es/ac71aBusquedaRegistrosWar/empresa/01419",
      "_links": {
        "self": {
          "name": "OKANDI INGENIERÍA, S.L.",
          "href": "https://api.euskadi.eus/procurements/companies/01419"
        }
      }
    },
    {
      "name": "TECNOLOGÍAS DE LA INFORMACIÓN SAN SEBASTIÁN, S.A.L.",
      "registrationNumber": "01650",
      "identificationNumber": "A20502449",
      "address": "C/ SAN MARTÍN, Nº 30 - PRINCIPAL.",
      "location": {
        "postalCode": "20005",
        "municipality": "Donostia / San Sebastián",
        "county": "Gipuzkoa",
        "municipalityId": "069",
        "countyId": "20"
      },
      "economicActivities": [
        {
          "id": "1.845",
          "name": "Explotación electrónica por cuenta de terceros",
          "_links": {
            "self": {
              "name": "Explotación electrónica por cuenta de terceros",
              "href": "https://api.euskadi.eus/procurements/companies/economic-activities/1.845"
            }
          }
        },
        {
          "id": "1.932.1",
          "name": "Enseñanza de formación y perfeccionamiento profesional no superior",
          "_links": {
            "self": {
              "name": "Enseñanza de formación y perfeccionamiento profesional no superior",
              "href": "https://api.euskadi.eus/procurements/companies/economic-activities/1.932.1"
            }
          }
        }
      ],
      "certificateStartDate": "2005-05-05",
      "certificateEndDate": "2005-10-25",
      "object": "LA ACTIVIDAD DE CONSULTORÍA, ENSEÑANZA Y FORMACIÓN EN EL ÁMBITO DE LAS NUEVAS TECNOLOGÍAS; LA PROGRAMACIÓN, ANÁLISIS Y SERVICIOS INFORMÁTICOS, INCLUYENDO EL ESTUDIO Y ANÁLISIS DE PROCESOS PARA SU TRATAMIENTO MECÁNICO, DE PROGRAMACIÓN INFORMÁTICA, DE REGISTRO DE DATOS EN SOPORTES DE ENTRADA PARA ORDENADORES, LA VENTA DE PROGRAMAS, ASÍ COMO OTRAS ACTIVIDADES ANÁLOGAS Y COMPLEMENTARIAS A LA PROGRAMACIÓN, ANÁLISIS Y SERVICIOS INFORMÁTICOS. Y LA VENTA AL POR MENOR DE MUEBLES DE OFICINA, MÁQUINAS Y EQUIPOS DE OFICINA, INCLUYENDO EQUIPOS INFORMÁTICOS",
      "mainEntityOfPage": "https://www.contratacion.euskadi.eus/webkpe00-kperoc/es/ac71aBusquedaRegistrosWar/empresa/01650",
      "_links": {
        "self": {
          "name": "TECNOLOGÍAS DE LA INFORMACIÓN SAN SEBASTIÁN, S.A.L.",
          "href": "https://api.euskadi.eus/procurements/companies/01650"
        }
      }
    },
    {
      "name": "ALAES XXI, S.L.",
      "registrationNumber": "02926",
      "identificationNumber": "B83676759",
      "address": "C/ JOSÉ ECHEGARAY, 14",
      "location": {
        "postalCode": "28230",
        "municipality": "Rozas de Madrid, Las",
        "county": "Madrid",
        "municipalityId": "127",
        "countyId": "28"
      },
      "economicActivities": [
        {
          "id": "1.843.3",
          "name": "Servicios técnicos de prospecciones y estudios geológicos",
          "_links": {
            "self": {
              "name": "Servicios técnicos de prospecciones y estudios geológicos",
              "href": "https://api.euskadi.eus/procurements/companies/economic-activities/1.843.3"
            }
          }
        }
      ],
      "certificateStartDate": "2005-04-27",
      "certificateEndDate": "2005-10-25",
      "object": "LA REALIZACIÓN DE ESTUDIOS HIDROGRÁFICOS, BATIMETRÍAS, DESARROLLOS MEDIOAMBIENTALES Y SISTEMAS DE INFORMACIÓN GEOGRÁFICA",
      "mainEntityOfPage": "https://www.contratacion.euskadi.eus/webkpe00-kperoc/es/ac71aBusquedaRegistrosWar/empresa/02926",
      "_links": {
        "self": {
          "name": "ALAES XXI, S.L.",
          "href": "https://api.euskadi.eus/procurements/companies/02926"
        }
      }
    },
    {
      "name": "ETXEKO JANARIAK, S.L.",
      "registrationNumber": "02423",
      "identificationNumber": "B20537262",
      "address": "PASEO DE TXALAKA, 7. PABELLONES 10, 11, 12, 19 Y 20",
      "location": {
        "postalCode": "20115",
        "municipality": "Astigarraga",
        "county": "Gipuzkoa",
        "municipalityId": "903",
        "countyId": "20"
      },
      "economicActivities": [
        {
          "id": "1.677.9",
          "name": "Otros servicios de alimentación propios de la restauración",
          "_links": {
            "self": {
              "name": "Otros servicios de alimentación propios de la restauración",
              "href": "https://api.euskadi.eus/procurements/companies/economic-activities/1.677.9"
            }
          }
        }
      ],
      "certificateStartDate": "2005-04-13",
      "certificateEndDate": "2005-09-02",
      "object": "LA ACTIVIDAD DENOMINADA \"CATERING\", EN LA QUE SE INCLUYEN LA PREPARACIÓN, SUMINISTRO DE COMIDA, SERVICIO DE LA MISMA Y LIMPIEZA DE INSTALACIONES Y ENSERES, ASÍ COMO EL CUIDADO Y LA ASISTENCIA A LOS NIÑOS EN EL COMEDOR ESCOLAR, PATIO Y OTRAS DEPENDENCIAS, ADEMÁS DE PREPARACIÓN Y ENVASADO DE PLATOS COCINADOS CON DESTINO A LOS MERCADOS NACIONAL E INTERNACIONAL ",
      "mainEntityOfPage": "https://www.contratacion.euskadi.eus/webkpe00-kperoc/es/ac71aBusquedaRegistrosWar/empresa/02423",
      "_links": {
        "self": {
          "name": "ETXEKO JANARIAK, S.L.",
          "href": "https://api.euskadi.eus/procurements/companies/02423"
        }
      }
    },
    {
      "name": "EIKI SISTEMAS, S.L.",
      "registrationNumber": "02549",
      "identificationNumber": "B01257559",
      "address": "KAPELAMENDI, 1 PAB. 67",
      "location": {
        "postalCode": "01013",
        "municipality": "Vitoria-Gasteiz",
        "county": "Araba/Álava",
        "municipalityId": "059",
        "countyId": "01"
      },
      "economicActivities": [
        {
          "id": "1.845",
          "name": "Explotación electrónica por cuenta de terceros",
          "_links": {
            "self": {
              "name": "Explotación electrónica por cuenta de terceros",
              "href": "https://api.euskadi.eus/procurements/companies/economic-activities/1.845"
            }
          }
        }
      ],
      "certificateStartDate": "2005-04-01",
      "certificateEndDate": "2005-09-22",
      "object": "EL DESARROLLO, COMERCIALIZACIÓN, COMPRAVENTA Y MANTENIMIENTO DE SOFTWARE, HARDWARE Y TELECOMUNICACIONES, ASÍ COMO LA PRESTACIÓN DE SERVICIOS DE ESTUDIO Y ANÁLISIS DE PROCESOS PARA SU TRATAMIENTO MECÁNICO, DE PROGRAMACIÓN PARA EQUIPOS ELECTRÓNICOS, DE REGISTRO DE DATOS  EN SOPORTES DE ENTRADA PARA ORDENADORES, ASÍ COMO LA VENTA DE PROGRAMAS, EL PROCESO DE DATOS POR CUENTA DE TERCEROS  Y OTROS SERVICIOS INDEPENDIENTES DE ELABORACIÓN DE DATOS Y TABULACIÓN.\r\n\r\nLAS ACTIVIDADES ENUMERADAS PODRÁN TAMBIÉN SER DESARROLLADAS POR LA SOCIEDAD, TOTL O PARCIALMENTE, DE MODO INDIRECTO, MEDIANTE LA PARTICIPACIÓN  EN OTRAS SOCIEDADES CON OBJETO ANÁLOGO ",
      "mainEntityOfPage": "https://www.contratacion.euskadi.eus/webkpe00-kperoc/es/ac71aBusquedaRegistrosWar/empresa/02549",
      "_links": {
        "self": {
          "name": "EIKI SISTEMAS, S.L.",
          "href": "https://api.euskadi.eus/procurements/companies/02549"
        }
      }
    },
    {
      "name": "AYSER DESARROLLOS INFORMÁTICOS, S.L.",
      "registrationNumber": "02994",
      "identificationNumber": "B01304419",
      "address": "POSTAS, 1",
      "location": {
        "postalCode": "01001",
        "municipality": "Vitoria-Gasteiz",
        "county": "Araba/Álava",
        "municipalityId": "059",
        "countyId": "01"
      },
      "economicActivities": [
        {
          "id": "1.845",
          "name": "Explotación electrónica por cuenta de terceros",
          "_links": {
            "self": {
              "name": "Explotación electrónica por cuenta de terceros",
              "href": "https://api.euskadi.eus/procurements/companies/economic-activities/1.845"
            }
          }
        }
      ],
      "certificateStartDate": "2005-03-14",
      "certificateEndDate": "2005-08-07",
      "object": "TANTO DIRECTAMENTE COMO DE FORMA INDIRECTA, MEDIANTE LA TITULARIDAD DE ACCIONES O PARTICIPACIONES EN SOCIEDADES CON OBJETO IDÉNTICO, LA INVESTIGACIÓN, DESARROLLO Y COMERCIALIZACION DE APLICACIONES INFORMÁTICAS Y OTROS ELEMENTOS AFINES ",
      "mainEntityOfPage": "https://www.contratacion.euskadi.eus/webkpe00-kperoc/es/ac71aBusquedaRegistrosWar/empresa/02994",
      "_links": {
        "self": {
          "name": "AYSER DESARROLLOS INFORMÁTICOS, S.L.",
          "href": "https://api.euskadi.eus/procurements/companies/02994"
        }
      }
    },
    {
      "name": "PHILIPS IBÉRICA, S.A.",
      "registrationNumber": "02128",
      "identificationNumber": "A28017143",
      "address": "C/ MARTÍNEZ VILLERGAS, Nº 49.",
      "location": {
        "postalCode": "28027",
        "municipality": "Madrid",
        "county": "Madrid",
        "municipalityId": "079",
        "countyId": "28"
      },
      "economicActivities": [
        {
          "id": "1.504.1",
          "name": "Instalaciones eléctricas en general",
          "_links": {
            "self": {
              "name": "Instalaciones eléctricas en general",
              "href": "https://api.euskadi.eus/procurements/companies/economic-activities/1.504.1"
            }
          }
        },
        {
          "id": "1.619.2",
          "name": "Venta al por mayor de aparatos e instrumentos médicos, ortopédicos, ópticos",
          "_links": {
            "self": {
              "name": "Venta al por mayor de aparatos e instrumentos médicos, ortopédicos, ópticos",
              "href": "https://api.euskadi.eus/procurements/companies/economic-activities/1.619.2"
            }
          }
        },
        {
          "id": "1.843.9",
          "name": "Otros servicios técnicos n.c.o.p",
          "_links": {
            "self": {
              "name": "Otros servicios técnicos n.c.o.p",
              "href": "https://api.euskadi.eus/procurements/companies/economic-activities/1.843.9"
            }
          }
        }
      ],
      "certificateStartDate": "2005-03-11",
      "certificateEndDate": "2005-08-15",
      "object": "a) LA FABRICACIÓN DE TODA CLASE DE EQUIPOS, PRODUCTOS Y ARTÍCULOS, ASÍ COMO SUS COMPONENTES, ELEMENTOS INTEGRANTES Y MATERIAS PRIMAS, RELACIONADOS CON EL CAMPO DE LAS APLICACIONES ELÉCTRICAS Y ELECTRÓNICAS ASÍ COMO DEL ALUMBRADO, TANTO DOMÉSTICO, COMO PÚBLICO O PROFESIONAL.\r\n\r\nb) LA COMERCIALIZACIÓN DE UNIDADES, ARTÍCULOS Y MERCADERÍAS, ASÍ COMO DE SUS ELEMENTOS INTEGRANTES, SEMIPRODUCTOS Y PRIMERAS MATERIAS CORRESPONDIENTE, EN TODA SU VARIEDAD Y EXTENSIÓN, A CUANTO SEA RELATIVO A MATERIAL ELÉCTRICO Y A LA ELECTRÓNICA.\r\n\r\nc) LA COMERCIALIZACIÓN DE TODA CLASE DE COMPONENTES, PIEZAS, CONJUNTOS, PRODUCTOS Y EQUIPOS, MECÁNICOS, ELÉCTRICOS O ELECTRÓNICOS, EN LOS CAMPOS DE LA INSTRUMENTACIÓN ELECTRÓNICA (INCLUYENDO EN EL MISMO LOS SISTEMAS DE COMUNICACIÓN Y SEGURIDAD) Y DE LA ELECTROMEDICINA, ASÍ COMO LA REALIZACIÓN DE TODA CLASE DE INSTALACIONES ELÉCTRICAS Y ELECTRÓNICAS.\r\n\r\nd) LA PRESTACIÓN DE SERVICIOS DE INSTALACIÓN Y PRESTACIÓN DE LA ASISTENCIA TÉCNICA POST-VENTA DE LOS PRODUCTOS MENCIONADOS EN LOS APARTADOS ANTERIORES.\r\n\r\ne) LA PRESTACIÓN DE TODA CLASE DE SERVICIOS DE ASESORAMIENTO Y ORGANIZACIÓN DE LAS EMPRESAS, ASÍ COMO LA INTERMEDIACIÓN EN NEGOCIOS MERCANTILES Y A LA EXPLOTACIÓN DE INMUEBLES, TANTO EN RÉGIMEN DE PROMOCIÓN COMO DE COMPRAVENTA O ARRENDAMIENTO\r\n\r\nf) LA PRESTACIÓN DE SERVICIOS DE TECNOLOGÍAS DE LA INFORMACIÓN Y DE COMUNICACIONES, Y EN PARTICULAR, LOS SIGUIENTES: I) SERVICIOS DE CAPTURA DE INFORMACIÓN POR MEDIOS ELECTRÓNICOS, INFORMÁTICOS Y TELEMÁTICOS; II) SERVICIOS DE DESARROLLO Y MANTENIMIENTO DE PROGRAMAS DE ORDENADOR;  Y III) SERVICIOS DE MANTENIMIENTO Y REPARACIÓN DE EQUIPOS E INSTALACIONES INFORMÁTICOS Y DE TELECOMUNICACIONES",
      "mainEntityOfPage": "https://www.contratacion.euskadi.eus/webkpe00-kperoc/es/ac71aBusquedaRegistrosWar/empresa/02128",
      "_links": {
        "self": {
          "name": "PHILIPS IBÉRICA, S.A.",
          "href": "https://api.euskadi.eus/procurements/companies/02128"
        }
      }
    },
    {
      "name": "PINTURAS JARA, S.A.",
      "registrationNumber": "00824",
      "identificationNumber": "A01017532",
      "address": "C/ CARRETERA DE ZURBANO, Nº 7.",
      "location": {
        "postalCode": "01013",
        "municipality": "Vitoria-Gasteiz",
        "county": "Araba/Álava",
        "municipalityId": "059",
        "countyId": "01"
      },
      "economicActivities": [
        {
          "id": "1.505.3",
          "name": "Preparación y colocación de solados y pavimentos de madera",
          "_links": {
            "self": {
              "name": "Preparación y colocación de solados y pavimentos de madera",
              "href": "https://api.euskadi.eus/procurements/companies/economic-activities/1.505.3"
            }
          }
        },
        {
          "id": "1.505.6",
          "name": "Pintura, revestimientos y terminación y decoración de locales",
          "_links": {
            "self": {
              "name": "Pintura, revestimientos y terminación y decoración de locales",
              "href": "https://api.euskadi.eus/procurements/companies/economic-activities/1.505.6"
            }
          }
        }
      ],
      "certificateStartDate": "2005-03-07",
      "certificateEndDate": "2005-08-24",
      "object": "LA COMPRA Y VENTA DE PINTURAS Y ESMALTES EN GENERAL, SU APLICACIÓN TANTO INDUSTRIAL COMO DECORATIVO Y EN GENERAL CUALQUIER OTRA ACTIVIDAD DE LÍCITO COMERCIO QUE TENGA RELACIÓN DIRECTA O INDIRECTA CON LO ANTERIOR",
      "mainEntityOfPage": "https://www.contratacion.euskadi.eus/webkpe00-kperoc/es/ac71aBusquedaRegistrosWar/empresa/00824",
      "_links": {
        "self": {
          "name": "PINTURAS JARA, S.A.",
          "href": "https://api.euskadi.eus/procurements/companies/00824"
        }
      }
    },
    {
      "name": "BIENVENIDO GIL, S.L.",
      "registrationNumber": "01103",
      "identificationNumber": "B50001874",
      "address": "C/ F-OESTE, GRUPO QUEJIDO, Nº 100. POLÍGONO MALPICA.",
      "location": {
        "postalCode": "50057",
        "municipality": "Zaragoza",
        "county": "Zaragoza",
        "municipalityId": "297",
        "countyId": "50"
      },
      "economicActivities": [
        {
          "id": "1.615.4",
          "name": "Venta al por mayor de aparatos y material radioeléctrico y electrónico",
          "_links": {
            "self": {
              "name": "Venta al por mayor de aparatos y material radioeléctrico y electrónico",
              "href": "https://api.euskadi.eus/procurements/companies/economic-activities/1.615.4"
            }
          }
        }
      ],
      "certificateStartDate": "2005-03-07",
      "certificateEndDate": "2005-08-02",
      "object": "LA COMPRAVENTA, AL POR MAYOR Y AL DETALL, EL DISEÑO, FABRICACIÓN, INSTALACIÓN, MANTENIMIENTO, CONSULTORÍA, INGENIERÍA DE TODA CLASE DE APARATOS Y SISTEMAS AUDIOVISUALES, ELECTRÓNICOS, INFORMÁTICOS INCLUSO PROGRAMAS Y DE TELECOMUNICACIONES. FORMACIÓN DE PERSONAL PARA MANEJO Y CONOCIMIENTO DE TODO LO ANTERIOR. FABRICACIÓN, DESARROLLO, COMERCIALIZACIÓN Y MANTENIMIENTO DE APARATOS Y SISTEMAS DE SEGURIDAD, EN PARTICULAR MEDIANTE LA INSTALACIÓN Y MANTENIMIENTO DE SISTEMAS FÍSICOS, ELECTRÓNICOS, VISUALES, ACÚSTICOS O INSTRUMENTALES DE VIGILANCIA Y PROTECCIÓN, Y ESPECIALMENTE CON LA CONEXIÓN A CENTROS DE RECEPCIÓN DE ALARMAS. ASESORAMIENTO Y PLANIFICACIÓN DE INSTALACIONES DE SEGURIDAD POR TODO EL TERRITORIO NACIONAL",
      "mainEntityOfPage": "https://www.contratacion.euskadi.eus/webkpe00-kperoc/es/ac71aBusquedaRegistrosWar/empresa/01103",
      "_links": {
        "self": {
          "name": "BIENVENIDO GIL, S.L.",
          "href": "https://api.euskadi.eus/procurements/companies/01103"
        }
      }
    },
    {
      "name": "ASOCIACIÓN PARA EL FOMENTO DE LA MEDIACIÓN EN EUSKADI",
      "registrationNumber": "02795",
      "identificationNumber": "G01289800",
      "address": "AVDA. GASTEIZ, Nº 82 - BAJO",
      "location": {
        "postalCode": "01012",
        "municipality": "Vitoria-Gasteiz",
        "county": "Araba/Álava",
        "municipalityId": "059",
        "countyId": "01"
      },
      "economicActivities": [
        {
          "id": "1.934",
          "name": "Enseñanza fuera de establecimiento permanente",
          "_links": {
            "self": {
              "name": "Enseñanza fuera de establecimiento permanente",
              "href": "https://api.euskadi.eus/procurements/companies/economic-activities/1.934"
            }
          }
        }
      ],
      "certificateStartDate": "2005-02-24",
      "certificateEndDate": "2005-07-03",
      "object": "1) FOMENTAR LA MEDIACIÓN.\r\n2) ORDENAR DENTRO DE SU ÁMBITO LA ACTIVIDAD DE MEDIACIÓN DE SUS MIEMBROS VELANDO POR EL CUMPLIMIENTO DEL CÓDIGO ÉTICO DEL MEDIADOR Y BENEFICIO DE LA COMUNIDAD MEDIADORA.\r\n3) PROMOCIÓ DE LA FORMACIÓN DE FORMADORES EN MEDIACIÓN.\r\n\r\nPARA ALCANZAR ESTOS FINES, LA ASOCIACIÓN DESARROLLARÁ LAS SIGUIENTES ACTIVIDADES: \r\nORGANIZACIÓN DE CURSOS Y SEMINARIOS DE MEDIACIÓN.\r\nPUBLICACIÓN DE PROGRAMAS, CARPETAS, MONOGRAFÍAS Y CUALQUIER TIPO DE PUBLICACIÓN RELACIONADA CON EL ÁMBITO UNIVERSITARIO DEDICADAS A LA MEDIACIÓN.\r\nCOLABORAR CON ENTIDADES, INSTITUCIONES, SEMINARIOS, ETC. UNIVERSITARIOS O PARAUNIVERSITARIOS RELACIONADOS CON LA MEDIACIÓN.\r\nORGANIZAR CURSOS DE POSTGRADO DE MEDIACIÓN.\r\nCREACIÓN DE UN CENTRO DE MEDIACIÓN PARA LA RESOLUCIÓN ALTERNATIVA DE CONFLICTOS, ASÍ COMO UN REGISTRO DE MEDIACIÓN PARA LA INSCRIPCIÓN Y POSTERIOR ARCHIVO DE LAS MISMAS.\r\n   ",
      "mainEntityOfPage": "https://www.contratacion.euskadi.eus/webkpe00-kperoc/es/ac71aBusquedaRegistrosWar/empresa/02795",
      "_links": {
        "self": {
          "name": "ASOCIACIÓN PARA EL FOMENTO DE LA MEDIACIÓN EN EUSKADI",
          "href": "https://api.euskadi.eus/procurements/companies/02795"
        }
      }
    }
  ]
}