{
  "totalItems": 9042,
  "totalPages": 905,
  "currentPage": 874,
  "itemsOfPage": 10,
  "items": [
    {
      "name": "TRANSPORTES ASOTRANS, S.A.",
      "registrationNumber": "04922",
      "identificationNumber": "A48441778",
      "address": "POLÍGONO EL CAMPILLO / PARCELA 32",
      "location": {
        "postalCode": "48500",
        "municipality": "Abanto y Ciérvana-Abanto Zierbena",
        "county": "Bizkaia",
        "municipalityId": "002",
        "countyId": "48"
      },
      "object": ".",
      "mainEntityOfPage": "https://www.contratacion.euskadi.eus/webkpe00-kperoc/es/ac71aBusquedaRegistrosWar/empresa/04922",
      "_links": {
        "self": {
          "name": "TRANSPORTES ASOTRANS, S.A.",
          "href": "https://api.euskadi.eus/procurements/companies/04922"
        }
      }
    },
    {
      "name": "MARGEN 3, S.L.",
      "registrationNumber": "04923",
      "identificationNumber": "B48528962",
      "address": "ALAMEDA DE MAZARREDO, 47 - 1º / DEP. 4",
      "location": {
        "postalCode": "48009",
        "municipality": "Bilbao",
        "county": "Bizkaia",
        "municipalityId": "020",
        "countyId": "48"
      },
      "object": ".",
      "mainEntityOfPage": "https://www.contratacion.euskadi.eus/webkpe00-kperoc/es/ac71aBusquedaRegistrosWar/empresa/04923",
      "_links": {
        "self": {
          "name": "MARGEN 3, S.L.",
          "href": "https://api.euskadi.eus/procurements/companies/04923"
        }
      }
    },
    {
      "name": "ONIN 1i MOLINA Y ASOCIADOS S.L.",
      "registrationNumber": "04924",
      "identificationNumber": "B95622338",
      "address": "C/Marzana, 16 Entpta.Izda.",
      "location": {
        "postalCode": "48003",
        "municipality": "Bilbao",
        "county": "Bizkaia",
        "municipalityId": "020",
        "countyId": "48"
      },
      "object": ".",
      "mainEntityOfPage": "https://www.contratacion.euskadi.eus/webkpe00-kperoc/es/ac71aBusquedaRegistrosWar/empresa/04924",
      "_links": {
        "self": {
          "name": "ONIN 1i MOLINA Y ASOCIADOS S.L.",
          "href": "https://api.euskadi.eus/procurements/companies/04924"
        }
      }
    },
    {
      "name": "GALDARE NETWORK, S.L.",
      "registrationNumber": "04949",
      "identificationNumber": "B95511762",
      "address": "BARRIO ZUBIETA, 17 - MODULO B-C",
      "location": {
        "postalCode": "48330",
        "municipality": "Lemoa",
        "county": "Bizkaia",
        "municipalityId": "055",
        "countyId": "48"
      },
      "object": ".",
      "mainEntityOfPage": "https://www.contratacion.euskadi.eus/webkpe00-kperoc/es/ac71aBusquedaRegistrosWar/empresa/04949",
      "_links": {
        "self": {
          "name": "GALDARE NETWORK, S.L.",
          "href": "https://api.euskadi.eus/procurements/companies/04949"
        }
      }
    },
    {
      "name": "GRÁFICAS IRUDI, S.L.",
      "registrationNumber": "04951",
      "identificationNumber": "B01139621",
      "address": "CARRETERA CONTRASTA, 20",
      "location": {
        "postalCode": "01110",
        "municipality": "Campezo/Kanpezu",
        "county": "Araba/Álava",
        "municipalityId": "017",
        "countyId": "01"
      },
      "object": ".",
      "mainEntityOfPage": "https://www.contratacion.euskadi.eus/webkpe00-kperoc/es/ac71aBusquedaRegistrosWar/empresa/04951",
      "_links": {
        "self": {
          "name": "GRÁFICAS IRUDI, S.L.",
          "href": "https://api.euskadi.eus/procurements/companies/04951"
        }
      }
    },
    {
      "name": "LORELAN, S. COOP. LTDA.",
      "registrationNumber": "04952",
      "identificationNumber": "F20441374",
      "address": "BRO. ERROTABARRI, S/N",
      "location": {
        "postalCode": "20550",
        "municipality": "Aretxabaleta",
        "county": "Gipuzkoa",
        "municipalityId": "013",
        "countyId": "20"
      },
      "object": ".",
      "mainEntityOfPage": "https://www.contratacion.euskadi.eus/webkpe00-kperoc/es/ac71aBusquedaRegistrosWar/empresa/04952",
      "_links": {
        "self": {
          "name": "LORELAN, S. COOP. LTDA.",
          "href": "https://api.euskadi.eus/procurements/companies/04952"
        }
      }
    },
    {
      "name": "CALDERERÍA ANDUEZA, S.L.",
      "registrationNumber": "04961",
      "identificationNumber": "B20602405",
      "address": "BLAS DE LEZO, 28 - 1º C",
      "location": {
        "postalCode": "20305",
        "municipality": "Irun",
        "county": "Gipuzkoa",
        "municipalityId": "045",
        "countyId": "20"
      },
      "object": ".",
      "mainEntityOfPage": "https://www.contratacion.euskadi.eus/webkpe00-kperoc/es/ac71aBusquedaRegistrosWar/empresa/04961",
      "_links": {
        "self": {
          "name": "CALDERERÍA ANDUEZA, S.L.",
          "href": "https://api.euskadi.eus/procurements/companies/04961"
        }
      }
    },
    {
      "name": "CONSTRUCCIONES CEYMA, S.L.",
      "registrationNumber": "04962",
      "identificationNumber": "B20084224",
      "address": "PASEO TXALAKA, 4 - 1º",
      "location": {
        "postalCode": "20115",
        "municipality": "Astigarraga",
        "county": "Gipuzkoa",
        "municipalityId": "903",
        "countyId": "20"
      },
      "object": "Construcción, mantenimiento y reparación de toda clase de obras",
      "mainEntityOfPage": "https://www.contratacion.euskadi.eus/webkpe00-kperoc/es/ac71aBusquedaRegistrosWar/empresa/04962",
      "_links": {
        "self": {
          "name": "CONSTRUCCIONES CEYMA, S.L.",
          "href": "https://api.euskadi.eus/procurements/companies/04962"
        }
      }
    },
    {
      "name": "LAUDIO MOTOR, S.A.",
      "registrationNumber": "04963",
      "identificationNumber": "A01058171",
      "address": "C/ GOIENURI, 26",
      "location": {
        "postalCode": "01400",
        "municipality": "Laudio/Llodio",
        "county": "Araba/Álava",
        "municipalityId": "036",
        "countyId": "01"
      },
      "object": "mantenimiento y reparación de vehiculos",
      "mainEntityOfPage": "https://www.contratacion.euskadi.eus/webkpe00-kperoc/es/ac71aBusquedaRegistrosWar/empresa/04963",
      "_links": {
        "self": {
          "name": "LAUDIO MOTOR, S.A.",
          "href": "https://api.euskadi.eus/procurements/companies/04963"
        }
      }
    },
    {
      "name": "GARAJE YAS, S.A.",
      "registrationNumber": "04964",
      "identificationNumber": "A01015965",
      "address": "C/ IRITXUSI, 1",
      "location": {
        "postalCode": "01470",
        "municipality": "Amurrio",
        "county": "Araba/Álava",
        "municipalityId": "002",
        "countyId": "01"
      },
      "object": ".",
      "mainEntityOfPage": "https://www.contratacion.euskadi.eus/webkpe00-kperoc/es/ac71aBusquedaRegistrosWar/empresa/04964",
      "_links": {
        "self": {
          "name": "GARAJE YAS, S.A.",
          "href": "https://api.euskadi.eus/procurements/companies/04964"
        }
      }
    }
  ]
}