{
  "totalItems": 9042,
  "totalPages": 905,
  "currentPage": 563,
  "itemsOfPage": 10,
  "items": [
    {
      "name": "URBAN TECHNOLOGY, S.L.",
      "registrationNumber": "07228",
      "identificationNumber": "B90164443",
      "address": "Pol. Ind. Calonge. Calle Aviación nº59 1º Mod.14",
      "location": {
        "postalCode": "41007",
        "municipality": "Sevilla",
        "county": "Sevilla",
        "municipalityId": "091",
        "countyId": "41"
      },
      "economicActivities": [
        {
          "id": "1.631",
          "name": "Intermediarios del comercio",
          "_links": {
            "self": {
              "name": "Intermediarios del comercio",
              "href": "https://api.euskadi.eus/procurements/companies/economic-activities/1.631"
            }
          }
        },
        {
          "id": "1.843.9",
          "name": "Otros servicios técnicos n.c.o.p",
          "_links": {
            "self": {
              "name": "Otros servicios técnicos n.c.o.p",
              "href": "https://api.euskadi.eus/procurements/companies/economic-activities/1.843.9"
            }
          }
        }
      ],
      "certificateStartDate": "2020-08-17",
      "certificateEndDate": "2021-01-06",
      "object": "REPRESENTACIÓN, COMERCIALIZACIÓN, DISTRIBUCIÓN Y FABRICACIÓN DE TODO TIPO DE PRODUCTOS INDUSTRIALES, ESPECIALMENTE CON LAS MEDIDAS CONTRA-INCENDIO, MEDIO-AMBIENTE Y GESTIÓN DE RESIDUOS DE TODO TIPO, ASÍ COMO LA PRESTACIÓN DE SERVICIOS, ASESORAMIENTO Y CONSULTORÍA EN SECTORES INDUSTRIALES PÚBLICOS Y PRIVADOS, ESPECIALMENTE EN LOS ÁMBITOS RESEÑADOS. EL ASESORAMIENTO DE EMPRESAS EN EL ÁMBITO NACIONAL E INTERNACIONAL, ESPECIALMENTE A EQUIPOS DE DIRECCIÓN, ALTA DIRECCIÓN Y CONSEJOS DE ADMINISTRACIÓN, DESARROLLANDO PARA LAS MISMAS ACTIVIDADES DE PROMOCIÓN, GESTIÓN, OPTIMIZACIÓN Y EJECUCCIÓN EN SUS ACTIVIDADES Y OPERACIONES EN LAS ÁREAS DE DIRECCIÓN, FINANCIERA (QUEDANDO EXCLUIDA DE DICHA ACTIVIDAD LAS PROPIAS DE LAS SOCIEDADES DE INVERSIONES ESTABLECIDAS EN EL ART. 63 DE LA LEY DE MERCADO DE VALORES), COMERCIAL, EXPANSIÓN INTERNACIONAL, LOGÍSTICA Y PRODUCCIÓN. EL DESARROLLO DE FUNCIONES DE OPERADOR LOGÍSTICO PARA SECTORES INDUSTRIALES PÚBLICOS Y PRIVADOS. EL DESARROLLO DE FUNCIONES DE MANTENIMIENTO Y PRESTACIÓN DE SERVICIO TÉCNICO POSTVENTA EN TODO TIPO DE PRODUCTOS INDUSTRIALES, ESPECIALMENTE EN LOS ÁMBITOS MENCIONADOS. C.N.A.E. ACTIVIDAD PRINCIPAL: 4619. INTERMEDIARIOS DEL COMERCIO DE PRODUCTOS DIVERSOS",
      "mainEntityOfPage": "https://www.contratacion.euskadi.eus/webkpe00-kperoc/es/ac71aBusquedaRegistrosWar/empresa/07228",
      "_links": {
        "self": {
          "name": "URBAN TECHNOLOGY, S.L.",
          "href": "https://api.euskadi.eus/procurements/companies/07228"
        }
      }
    },
    {
      "name": "BSN MEDICAL, S.L.",
      "registrationNumber": "05201",
      "identificationNumber": "B62495882",
      "address": "Calle Fructuos Gelabert, 6-8 6ª planta Edificio Conata 2",
      "location": {
        "postalCode": "08970",
        "municipality": "Sant Joan Despí",
        "county": "Barcelona",
        "municipalityId": "217",
        "countyId": "08"
      },
      "economicActivities": [
        {
          "id": "1.614.1",
          "name": "Venta al por mayor de productos farmacéuticos y medicamentos",
          "_links": {
            "self": {
              "name": "Venta al por mayor de productos farmacéuticos y medicamentos",
              "href": "https://api.euskadi.eus/procurements/companies/economic-activities/1.614.1"
            }
          }
        }
      ],
      "certificateStartDate": "2020-08-12",
      "certificateEndDate": "2021-01-30",
      "object": "LA DISTRIBUCIÓN Y COMERCIO, INCLUSO POR REPRESENTACIÓN, DE TODA CLASE DE PRODUCTOS COSMÉTICOS, HIGIÉNICOS, APÓSITOS, VENDAJES, ESPARADRAPOS Y ADHESIVOS, TEXTILES Y PLÁSTICOS Y ANTESÉPTICOS, BACTERICIDAS Y EN GENERAL CUALQUIER PRODUCTO SANITARIO Y/U HOSPITALARIO",
      "mainEntityOfPage": "https://www.contratacion.euskadi.eus/webkpe00-kperoc/es/ac71aBusquedaRegistrosWar/empresa/05201",
      "_links": {
        "self": {
          "name": "BSN MEDICAL, S.L.",
          "href": "https://api.euskadi.eus/procurements/companies/05201"
        }
      }
    },
    {
      "name": "EDP COMERCIALIZADORA SAU",
      "registrationNumber": "05802",
      "identificationNumber": "A95000295",
      "address": "C/ General Concha, 20",
      "location": {
        "postalCode": "48010",
        "municipality": "Bilbao",
        "county": "Bizkaia",
        "municipalityId": "020",
        "countyId": "48"
      },
      "economicActivities": [
        {
          "id": "1.504.11",
          "name": "Instalaciones eléctricas en general, redes telegráficas, telefonía, tv, etc",
          "_links": {
            "self": {
              "name": "Instalaciones eléctricas en general, redes telegráficas, telefonía, tv, etc",
              "href": "https://api.euskadi.eus/procurements/companies/economic-activities/1.504.11"
            }
          }
        },
        {
          "id": "1.504.3",
          "name": "Instalaciones de frío, calor y acondicionamiento de aire",
          "_links": {
            "self": {
              "name": "Instalaciones de frío, calor y acondicionamiento de aire",
              "href": "https://api.euskadi.eus/procurements/companies/economic-activities/1.504.3"
            }
          }
        },
        {
          "id": "1.616.6",
          "name": "Venta al por mayor de productos químicos industriales",
          "_links": {
            "self": {
              "name": "Venta al por mayor de productos químicos industriales",
              "href": "https://api.euskadi.eus/procurements/companies/economic-activities/1.616.6"
            }
          }
        },
        {
          "id": "1.619.9",
          "name": "Venta al por mayor de otros productos n.c.o.p",
          "_links": {
            "self": {
              "name": "Venta al por mayor de otros productos n.c.o.p",
              "href": "https://api.euskadi.eus/procurements/companies/economic-activities/1.619.9"
            }
          }
        },
        {
          "id": "1.631",
          "name": "Intermediarios del comercio",
          "_links": {
            "self": {
              "name": "Intermediarios del comercio",
              "href": "https://api.euskadi.eus/procurements/companies/economic-activities/1.631"
            }
          }
        },
        {
          "id": "1.655.2",
          "name": "Venta al por menor de gases combustibles de todas clases",
          "_links": {
            "self": {
              "name": "Venta al por menor de gases combustibles de todas clases",
              "href": "https://api.euskadi.eus/procurements/companies/economic-activities/1.655.2"
            }
          }
        },
        {
          "id": "1.655.3",
          "name": "Venta al por menor de carburantes para el surtido de vehículos",
          "_links": {
            "self": {
              "name": "Venta al por menor de carburantes para el surtido de vehículos",
              "href": "https://api.euskadi.eus/procurements/companies/economic-activities/1.655.3"
            }
          }
        },
        {
          "id": "1.659.9",
          "name": "Venta al por menor de otros productos no especificados en esta agrupación",
          "_links": {
            "self": {
              "name": "Venta al por menor de otros productos no especificados en esta agrupación",
              "href": "https://api.euskadi.eus/procurements/companies/economic-activities/1.659.9"
            }
          }
        },
        {
          "id": "1.843.9",
          "name": "Otros servicios técnicos n.c.o.p",
          "_links": {
            "self": {
              "name": "Otros servicios técnicos n.c.o.p",
              "href": "https://api.euskadi.eus/procurements/companies/economic-activities/1.843.9"
            }
          }
        },
        {
          "id": "1.849.7",
          "name": "Servicios de gestión administrativa",
          "_links": {
            "self": {
              "name": "Servicios de gestión administrativa",
              "href": "https://api.euskadi.eus/procurements/companies/economic-activities/1.849.7"
            }
          }
        }
      ],
      "certificateStartDate": "2020-08-12",
      "certificateEndDate": "2021-01-24",
      "object": "LA ADQUISICIÓN DE GAS NATURAL PARA SU VENTA A CONSUMIDORES CUALIFICADOS O COMERCIALIZADORES, ACCEDIENDO A LAS INSTALACIONES DE TRANSPORTE, REGASIFICACIÓN, ALMACENAMIENTO Y DISTRIBUCIÓN DE TERCEROS",
      "mainEntityOfPage": "https://www.contratacion.euskadi.eus/webkpe00-kperoc/es/ac71aBusquedaRegistrosWar/empresa/05802",
      "_links": {
        "self": {
          "name": "EDP COMERCIALIZADORA SAU",
          "href": "https://api.euskadi.eus/procurements/companies/05802"
        }
      }
    },
    {
      "name": "SUMINISTROS DE IMAGEN, S.L.",
      "registrationNumber": "02403",
      "identificationNumber": "B48847636",
      "address": "C/ JON ARROSPIDE 17-3º. DPTO. 12",
      "location": {
        "postalCode": "48014",
        "municipality": "Bilbao",
        "county": "Bizkaia",
        "municipalityId": "020",
        "countyId": "48"
      },
      "economicActivities": [
        {
          "id": "1.844",
          "name": "Servicios de publicidad, relaciones públicas y similares",
          "_links": {
            "self": {
              "name": "Servicios de publicidad, relaciones públicas y similares",
              "href": "https://api.euskadi.eus/procurements/companies/economic-activities/1.844"
            }
          }
        }
      ],
      "certificateStartDate": "2020-08-05",
      "certificateEndDate": "2021-02-04",
      "object": "LA  PRODUCCIÓN DE ACTOS CULTURALES, EXPOSICIONES, MUESTRAS AUDIOVISUALES, CICLOS DE CONFERENCIAS, PUBLICACIONES, CURSOS Y, EN GENERAL, ACTIVIDADES DE DIFUSIÓN, PROMOCIÓN Y CONSOLIDACIÓN DE PRODUCCIONES CULTURALES, INFORMATIVAS Y DE COMUNICACIÓN ",
      "mainEntityOfPage": "https://www.contratacion.euskadi.eus/webkpe00-kperoc/es/ac71aBusquedaRegistrosWar/empresa/02403",
      "_links": {
        "self": {
          "name": "SUMINISTROS DE IMAGEN, S.L.",
          "href": "https://api.euskadi.eus/procurements/companies/02403"
        }
      }
    },
    {
      "name": "ALTROTE PRODUCCIONES, S.L.",
      "registrationNumber": "04993",
      "identificationNumber": "B95643219",
      "address": "IRUÑA 1 - BIS 3º  - DPTO. 16",
      "location": {
        "postalCode": "48014",
        "municipality": "Bilbao",
        "county": "Bizkaia",
        "municipalityId": "020",
        "countyId": "48"
      },
      "economicActivities": [
        {
          "id": "1.501.3",
          "name": "Albañilería y pequeños trabajos de construcción en general",
          "_links": {
            "self": {
              "name": "Albañilería y pequeños trabajos de construcción en general",
              "href": "https://api.euskadi.eus/procurements/companies/economic-activities/1.501.3"
            }
          }
        },
        {
          "id": "1.844",
          "name": "Servicios de publicidad, relaciones públicas y similares",
          "_links": {
            "self": {
              "name": "Servicios de publicidad, relaciones públicas y similares",
              "href": "https://api.euskadi.eus/procurements/companies/economic-activities/1.844"
            }
          }
        }
      ],
      "certificateStartDate": "2020-08-04",
      "certificateEndDate": "2021-02-03",
      "object": "A) ORGANIZACIÓN DE ACTOS PÚBLICOS, CONVOCATORIAS DE PRENSA, CONVENCIONES PROFESIONALES, PRESENTACIÓN DE PRODUCTOS, GALAS DE VARIEDADES, DESFILES DE MODA. EVENTOS DEPORTIVOS, CULTURALES Y ESPECTÁCULOS EN SUS MÁS AMPLIOS TÉRMINOS. B) PRODUCCIÓN DE PROGRAMAS DE TELEVISIÓN Y RADIO (INFORMATIVOS, DEBATES, INFANTILES, EDUCATIVOS, MÚSICA EN DIRECTO, CONCURSOS, SERIES DE FICCIÓN Y SIMILARES). OBRAS DE TEATRO, MUSICALES EN DIRECTO. VIDEOS CORPORATIVOS, COMERCIALES, PROMOCIONALES, INDUSTRIALES, INSTITUCIONALES. CERTÁMENES DE BELLEZA. ANUNCIOS DE PRENSA. C) REPRESNTACIONES TEATRALES. ORGANIZACIÓN, PRODUCCIÓN, GESTIÓN, DISEÑO Y MONTAJE DE ESPECTÁCULOS PÚBLICOS OA DESARROLLAR EN RECINTOS CERRADOS O ABIERTOS, TALES COMO GALAS, CONCIERTOS, CONVENCIONES, OBRAS TEATRALES, DE DANZA. D) REALIZACIÓN DE: PROYECTOS DE IMAGEN Y MARKETIN. ESTUDIOS Y ESTRATEGIAS DE MERCADO RELACIONADOS CON LA IMAGEN. E) REPRESENTACIÓN Y CONTRATACIÓN DE: ACTORES, MÚSICOS, MODELOS, MISES, PRESENTADORES DE TELEVISIÓN, GIGURACIÓN, BAILARINES, PINTORES, ESCULTORES, FOTÓGRAFOS, PUBLICITARIOS, AZAFATAS, HUMORISTAS, MAGOS, NIÑOS, ANIMALES, DEPORTISTAS, PROFESIONALES TÉCNICOS, REALIZADORES, PRODUCTORES, DIRECTORES, GUIONISTAS, PELUQUEROS, MAQUILLADORES. F) FORMACIÓN DE: MODELOS, MISES, AZAFATAS, FIGURACIÓN, IMAGEN, PRESENTADORES DE TELEVISIÓN, REPORTEROS DE TELEVISIÓN, CURSOS DE PROTOCOLO, IMAGEN, DICCIÓN ESTUDIO DEL COMPORTAMIENTO INDIVIDUALIZADO, FOTOGENIA, PASARELA, HÁBITOS HUMANOS. G)DISEÑO GRÁFICO Y PUBLICITARIO, DISEÑO INDUSTRIAL, EDICIÓN E IMPRESIÓN DE TODO TIPO DE DOCUMENTOS. H) PROYECTOS DE MARKETING Y ASESORAMIENTO DE IMAGEN. I) SUMINISTRO DE EQUIPOS Y MATERIALES PARA TODO TIPO DE INSTALACIONES. J) MONTAJE, VENTA Y DISTRIBUCIÓN DE EQUIPOS DE SONIDO E ILUMINACIÓN. K) SUMINISTRO DE MATERIAL PUBLICITARIO Y DE REGALOS DE EMPRESA Y MERCHANDISING. L) ORGANIZACIÓN DE TODO TIPO DE EVENTOS, CHARLAS, JORNADAS, CONCIERTOS, EXPOSICIONES, ETC. M) ORGANIZACIÓN Y GESTIÓN ECONÓMICA DE EVENTOS CULTURALES  Y FESTIVOS. N) LA PROMOCIÓN, GESTIÓN ADMINISTRACIÓN Y ASESORAMIENTO DE ACTIVIDADES CULTURALES, DEPORTIVAS Y RECREATIVAS, INCLUSO LAS PATROCINADAS O PROPICIADAS POR AYUNTAMIENTOS, DIPUTACIONES, ASOCIACIONES, COMISIONES DE FIESTAS Y CUALQUIER OTRA ENTIDAD Y ORGANISMOS PÚBLICO O PRIVADO, TANTO EN LOCALES CERRADOS COMO AL AIRE LIBRE. O) REALIZACIÓN DE CAMPAÑAS DE PUBLICIDAD. P) ASESORAMIENTO DE IMAGEN CORPORATIVA. Q) ESTILISMO: PERSONALIZADO, PROGRAMAS DE TELEVISIÓN. UNIFORMES DE EMPRESA, PROFESIONALES INDIVIDUALES. R) GESTIÓN DE PATROCINIO Y PROMOCIÓN. S) ORGANIZACIÓN, MONTAJE Y SUMINISTRO DE TODO TIPO DE SERVICIOS DE CATERING (COCTAIL, LUNCH, COMIDAS). T) PRESTACIÓN POR MEDIOS PROPIOS O AJENOS A TRAVÉS DE PERSONAL ESPECIALIZADO, DE LOS SIGUIENTES SERVICIOS: REALIZACIÓN DE TODA CLASE DE SERVICIOS Y MONTAJES A LA INDUSTRIA EN GENERAL. SERVICIOS DE FOTÓGRAFO Y OPERADOR DE CÁMARA. ACTUACIONES MUSICALES, DE DANZA, TEATRO OY ANIMACIÓN GENERAL. FOTOCOMPOSICIÓN; AUTOEDICIÓN, REPROGRAFÍA E IMPRENTA. EDICIÓN DE MATERIAL IMPRESO O EN CUALQUIER OTRA TECNOLOGÍA (CDROM, SOFTWARE, CINTAS, MAQUETAS, ETC). INSTALACIÓN Y MONTAJE DE STNADS PARA LA CELEBRACIÓN DE CERTÁMENES Y EVENTOS. U) LA GESTIÓN, DE FORMA DIRECTA O INDIRECTA, DE INSTALACIONES  O ESPACIOS DEPORTIVOS, COMO CAMPOS DE GOLF, POLIDEPORTIVOS, ETC., ARTICULANDO LOS MEDIOS MATERIALES Y PERSONALES PARA ELLO. V) LA REPRESENTACIÓN EN TERRITORIO NACIONAL DE EMPRESAS INTERNACIONALES, SU IMPLANTACIÓN Y DESARROLLO. W) ADQUISICIÓN, CESIÓN, TENENCIA, DISFRUTE, ADMINISTRACIÓN, GETIÓN Y NEGOCIACIÓN EN GENERAL DE VALORES MOBILIARIOS, INMUEBLES Y PARTICIPACIONES SOCIALES. X) LA ADQUISICIÓN, TENENCIA Y ADMINISTRACIÓN DE VALORES, ACCIONES O PARTICIPACIONES EN SOCIEDADES CIVILES O MERCANTILES. Y) CONSTITUCIÓN  CON LA CONCURRENCIA DE OTRAS PERSONAS DE TODA CLASE DE SOCIEDADES MERCANTILES, DE OBJETO IDÉNTICO O ANÁLOGO, LA PARTICIPACIÓN EN OTRAS CONSTITUIDAS, PUDIENDO OSTENTAR EN TODAS ELLAS CARGOS DE ADMINISTRACIÓN, DIRECCIÓN O CONTROL MEDIANTE LA OPORTUNA DELEGACIÓN EN PERSONA FÍSICA. Z) ADQUISICIÓN Y ENAJENACIÓN POR CUALQUIER TÍTULO DE FINCAS RÚSTICAS Y URBANAS, YA SEAN TIERRAS, SOLARES, EDIFICIOS O SUS PARTES DETERMINADAS, LA CONSTRUCCIÓN DE ÉSTOS, Y LA TENENCIA, EXPLOTACIÓN Y ARRENDAMIENTO, YA SEA ACTIVO O PARCIAL, SEGÚN CONVENGA. AA) ARRENDAMIENTO Y CUALQUIER OTRA FÓRMULA DE CESIÓN, USO O DISFRUTE QUE ABARQUE TODO O PARTE DE LOS EPÍGRAFES ANTERIORES",
      "mainEntityOfPage": "https://www.contratacion.euskadi.eus/webkpe00-kperoc/es/ac71aBusquedaRegistrosWar/empresa/04993",
      "_links": {
        "self": {
          "name": "ALTROTE PRODUCCIONES, S.L.",
          "href": "https://api.euskadi.eus/procurements/companies/04993"
        }
      }
    },
    {
      "name": "TECHFRIENDLY S.L.",
      "registrationNumber": "06454",
      "identificationNumber": "B95886206",
      "address": "Avda Altos Hornos de Vizcaya,33",
      "location": {
        "postalCode": "48901",
        "municipality": "Barakaldo",
        "county": "Bizkaia",
        "municipalityId": "013",
        "countyId": "48"
      },
      "economicActivities": [
        {
          "id": "1.845",
          "name": "Explotación electrónica por cuenta de terceros",
          "_links": {
            "self": {
              "name": "Explotación electrónica por cuenta de terceros",
              "href": "https://api.euskadi.eus/procurements/companies/economic-activities/1.845"
            }
          }
        }
      ],
      "certificateStartDate": "2020-07-31",
      "certificateEndDate": "2021-01-30",
      "object": "EL DISEÑO, DESARROLLO, CONSTRUCCIÓN Y VENTA DE SISTEMA SOFTWARE Y HARDWARE. LA INTERMEDIACIÓN EN LA PRESTACIÓN DE SERVICIOS AVANZADOS DE ANÁLISIS DE DATOS, CAPACITACIÓN E INNOVACIÓN, ASÍ COMO ASESORAMIENTO OPERACIONAL Y ESTRATÉGICO",
      "mainEntityOfPage": "https://www.contratacion.euskadi.eus/webkpe00-kperoc/es/ac71aBusquedaRegistrosWar/empresa/06454",
      "_links": {
        "self": {
          "name": "TECHFRIENDLY S.L.",
          "href": "https://api.euskadi.eus/procurements/companies/06454"
        }
      }
    },
    {
      "name": "AMPER SISTEMAS, S.A.",
      "registrationNumber": "07213",
      "identificationNumber": "A19024249",
      "address": "VIRGILIO, 2 EDIFICIO 4",
      "location": {
        "postalCode": "28223",
        "municipality": "Pozuelo de Alarcón",
        "county": "Madrid",
        "municipalityId": "115",
        "countyId": "28"
      },
      "economicActivities": [
        {
          "id": "1.615.4",
          "name": "Venta al por mayor de aparatos y material radioeléctrico y electrónico",
          "_links": {
            "self": {
              "name": "Venta al por mayor de aparatos y material radioeléctrico y electrónico",
              "href": "https://api.euskadi.eus/procurements/companies/economic-activities/1.615.4"
            }
          }
        },
        {
          "id": "1.843.9",
          "name": "Otros servicios técnicos n.c.o.p",
          "_links": {
            "self": {
              "name": "Otros servicios técnicos n.c.o.p",
              "href": "https://api.euskadi.eus/procurements/companies/economic-activities/1.843.9"
            }
          }
        }
      ],
      "certificateStartDate": "2020-07-30",
      "certificateEndDate": "2020-12-01",
      "object": "LA IMPORTACIÓN, EXPORTACIÓN, COMPRA Y VENTA DE MATERIAL ELECTRÓNICO, ELECTROMECÁNICO, MUEBLES DE OFICINA, ACCESORIOS, ESTUDIO Y FABRICACIÓN DE APARATOS Y SISTEMAS ELECTRÓNICOS EN GENERAL, ANÁLISIS Y PROGRAMACIÓN DE PROBLEMAS PARA APLICACIONES DE ORDENADOR, COMPRA, VENTA IMPORTACIÓN, EXPORTACIÓN DE ORDENADORES Y APARATOS ANEJOS, ALQUILER DE MATERIAL ELECTRÓNICO Y ESTABLECIMIENTO Y ADMINISTRACIÓN DE CONTRATOS DE MANTENIMIENTO PARA DICHO MATERIAL ",
      "mainEntityOfPage": "https://www.contratacion.euskadi.eus/webkpe00-kperoc/es/ac71aBusquedaRegistrosWar/empresa/07213",
      "_links": {
        "self": {
          "name": "AMPER SISTEMAS, S.A.",
          "href": "https://api.euskadi.eus/procurements/companies/07213"
        }
      }
    },
    {
      "name": "ELITTORAL ESTUDIOS DE INGENIERÍA COSTERA Y OCEANOGRÁFICA, S.L.",
      "registrationNumber": "07215",
      "identificationNumber": "B35961051",
      "address": "URB CUESTA LA GRAMMA, NUM. 18",
      "location": {
        "postalCode": "35310",
        "municipality": "Santa Brígida",
        "county": "Palmas, Las",
        "municipalityId": "021",
        "countyId": "35"
      },
      "economicActivities": [
        {
          "id": "1.615.4",
          "name": "Venta al por mayor de aparatos y material radioeléctrico y electrónico",
          "_links": {
            "self": {
              "name": "Venta al por mayor de aparatos y material radioeléctrico y electrónico",
              "href": "https://api.euskadi.eus/procurements/companies/economic-activities/1.615.4"
            }
          }
        },
        {
          "id": "1.843.1",
          "name": "Servicios técnicos de ingeniería",
          "_links": {
            "self": {
              "name": "Servicios técnicos de ingeniería",
              "href": "https://api.euskadi.eus/procurements/companies/economic-activities/1.843.1"
            }
          }
        }
      ],
      "certificateStartDate": "2020-07-30",
      "certificateEndDate": "2020-12-15",
      "object": "LAS ACTIVIDADES AGRÍCOLA, GANADERA, FORESTAL, PESQUERA, INDUSTRIAL, DE CONSTRUCCIÓN, COMERCIAL, TURÍSTICA, DE TRANSPORTES, COMUNICACIONES, DE INTERMEDIACIÓN Y DE SERVICIOS EN GENERAL",
      "mainEntityOfPage": "https://www.contratacion.euskadi.eus/webkpe00-kperoc/es/ac71aBusquedaRegistrosWar/empresa/07215",
      "_links": {
        "self": {
          "name": "ELITTORAL ESTUDIOS DE INGENIERÍA COSTERA Y OCEANOGRÁFICA, S.L.",
          "href": "https://api.euskadi.eus/procurements/companies/07215"
        }
      }
    },
    {
      "name": "VILLAFAÑE & ASOCIADOS CONSULTORES, S.L.",
      "registrationNumber": "07216",
      "identificationNumber": "B83185470",
      "address": "Paseo de la Castellana, 139 - 5ª Planta",
      "location": {
        "postalCode": "28020",
        "municipality": "Madrid",
        "county": "Madrid",
        "municipalityId": "079",
        "countyId": "28"
      },
      "economicActivities": [
        {
          "id": "1.846",
          "name": "Empresas de estudios de mercado",
          "_links": {
            "self": {
              "name": "Empresas de estudios de mercado",
              "href": "https://api.euskadi.eus/procurements/companies/economic-activities/1.846"
            }
          }
        }
      ],
      "certificateStartDate": "2020-07-30",
      "certificateEndDate": "2020-12-22",
      "object": "GESTIÓN DE LA IMAGEN Y LA COMUNICACIÓN EMPRESARIAL E INSTITUCIONAL",
      "mainEntityOfPage": "https://www.contratacion.euskadi.eus/webkpe00-kperoc/es/ac71aBusquedaRegistrosWar/empresa/07216",
      "_links": {
        "self": {
          "name": "VILLAFAÑE & ASOCIADOS CONSULTORES, S.L.",
          "href": "https://api.euskadi.eus/procurements/companies/07216"
        }
      }
    },
    {
      "name": "VITEL, S.A",
      "registrationNumber": "04504",
      "identificationNumber": "A28872133",
      "address": "Calle Fernando Rey, 1",
      "location": {
        "postalCode": "28223",
        "municipality": "Pozuelo de Alarcón",
        "county": "Madrid",
        "municipalityId": "115",
        "countyId": "28"
      },
      "economicActivities": [
        {
          "id": "1.504.1",
          "name": "Instalaciones eléctricas en general",
          "_links": {
            "self": {
              "name": "Instalaciones eléctricas en general",
              "href": "https://api.euskadi.eus/procurements/companies/economic-activities/1.504.1"
            }
          }
        },
        {
          "id": "1.615.4",
          "name": "Venta al por mayor de aparatos y material radioeléctrico y electrónico",
          "_links": {
            "self": {
              "name": "Venta al por mayor de aparatos y material radioeléctrico y electrónico",
              "href": "https://api.euskadi.eus/procurements/companies/economic-activities/1.615.4"
            }
          }
        }
      ],
      "certificateStartDate": "2020-07-29",
      "certificateEndDate": "2021-01-01",
      "object": "1.- VENTA, ALQUILER, MANTENIMIENTO, DESARROLLO, REPARAICÓN, FABRICACIÓN, EXPLOTACIÓN Y CONTROL DE MATEIRALES, PRODUCTOS, EQUIPOS Y PROGRAMAS INFORMÁTICOS, CINEMATOGRÁFICOS, AUDIOVISUALES Y DE TELECOMUNICACIÓN, ASÍ COMO INSTALACIONES ELÉCTRICAS Y ELECTRÓNICAS. 2.- LA PRODUCCIÓN DE PELÍCULAS, VÍDEOS, DISCOS Y CUALESQUIERA OTROS PRODUCTOS AUDIOVISUALES DE CUALQUIER TIPO Y FORMA DE SOPORTE. 3.- LA PRESTACIÓN DE SERVICIOS DE CAPTURA Y DISTRIBUCIÓN DE INFORMAICÓN POR MEDIOS ELECTRÓNICOS, INFORMÁTICOS Y TELEMÁTICOS. 4.- PRESTACIÓN DE SERVICIOS DE ASESORÍA GENERAL, CONSULTORÍA, ASISTENCIA TÉCNICA, DIRECCIÓN FACULTATIVA, INGENIERÍA, ASÍ COMO TODAS LAS ACTIVIDADES RELACIONADAS CON EL TRATAMIENTO DE PRODUCTOS, EQUIPOS, PRODUCTOS INFORMÁTICOS, CINEMATOGRÁFICOS, AUDIOVISUALES Y DE TELECOMUNICACIÓN, ASÍ COMO DE INSTALACIONES ELÉCTRICAS Y ELECTRÓNICAS. 5.- ESTUDIO, ASESORAMIENTO, CONCEPCIÓN, DISEÑO, DESARROLLO, EJECUCIÓN, MANTENIMIENTO, COMERCIALIZACIÓN, EXPLOTACIÓN Y GESTIÓN DE PROEYCTOS DE OCIO, CULTURA, ENTRETENIMIENTO, EDUCACIÓN, EVENTOS, TECNOLÓGICOS, ESPECTÁCULOS Y DE CUALQUIER OTRA ÍNDOLE SIMILAR O AFIN A LOS ANTERIORES, YA FUERE DE CARÁCTER TEMPORAL Y/O PERMANENTE",
      "mainEntityOfPage": "https://www.contratacion.euskadi.eus/webkpe00-kperoc/es/ac71aBusquedaRegistrosWar/empresa/04504",
      "_links": {
        "self": {
          "name": "VITEL, S.A",
          "href": "https://api.euskadi.eus/procurements/companies/04504"
        }
      }
    }
  ]
}