{
  "totalItems": 9042,
  "totalPages": 905,
  "currentPage": 93,
  "itemsOfPage": 10,
  "items": [
    {
      "name": "MONTAJES INDUSTRIALES GOIKOLAN, S.L.",
      "registrationNumber": "08325",
      "identificationNumber": "B09865023",
      "address": "POLIGONO INDUSTRIAL LA VEGA Nº10 - Q",
      "location": {
        "postalCode": "48300",
        "municipality": "Gernika-Lumo",
        "county": "Bizkaia",
        "municipalityId": "046",
        "countyId": "48"
      },
      "economicActivities": [
        {
          "id": "1.503.1",
          "name": "Preparación y montaje de estructuras y cubiertas en edificaciones",
          "_links": {
            "self": {
              "name": "Preparación y montaje de estructuras y cubiertas en edificaciones",
              "href": "https://api.euskadi.eus/procurements/companies/economic-activities/1.503.1"
            }
          }
        }
      ],
      "certificateStartDate": "2026-01-09",
      "certificateEndDate": "2026-06-12",
      "object": "LA COORDINACIÓN DE GREMIOS PARA LA CONSTRUCCIÓN DE NAVES INDUSTRIALES. EL MANTENIMIENTO DE PABELLONES INDUSTRIALES. EL SUMINISTRO Y MONTAJE DE MATERIALES INDUSTRIALES. EL MANTENIMIENTO, REPARACIÓN Y SUSTITUCIÓN DE CUBIERTAS Y TEJADOS.",
      "mainEntityOfPage": "https://www.contratacion.euskadi.eus/webkpe00-kperoc/es/ac71aBusquedaRegistrosWar/empresa/08325",
      "_links": {
        "self": {
          "name": "MONTAJES INDUSTRIALES GOIKOLAN, S.L.",
          "href": "https://api.euskadi.eus/procurements/companies/08325"
        }
      }
    },
    {
      "name": "ESSITY SPAIN, S.L.",
      "registrationNumber": "07669",
      "identificationNumber": "B28451383",
      "address": "Carretera de Valls a Puigpelat, km.2",
      "location": {
        "postalCode": "08970",
        "municipality": "Puigpelat",
        "county": "Tarragona",
        "municipalityId": "119",
        "countyId": "43"
      },
      "economicActivities": [
        {
          "id": "1.472",
          "name": "Fabricación de papel y cartón",
          "_links": {
            "self": {
              "name": "Fabricación de papel y cartón",
              "href": "https://api.euskadi.eus/procurements/companies/economic-activities/1.472"
            }
          }
        },
        {
          "id": "1.473.4",
          "name": "Fabricación de artículos de decoración de uso doméstico, papel y cartón",
          "_links": {
            "self": {
              "name": "Fabricación de artículos de decoración de uso doméstico, papel y cartón",
              "href": "https://api.euskadi.eus/procurements/companies/economic-activities/1.473.4"
            }
          }
        }
      ],
      "certificateStartDate": "2026-01-09",
      "certificateEndDate": "2026-06-02",
      "object": "LA FABRICACIÓN, IMPORTACIÓN, EXPORTACIÓN, REPRESENTACIÓN, DISTRIBUCIÓN, VENTA MAYOR Y MENOR Y COMERCIALIZACIÓN DE TODO TIPO DE PRODUCTOS HIGIÉNICOS, PRODUCTOS SANITARIOS, COSMÉTICOS, BIOCIDAS, TEXTILES Y PLÁSTICOS PARA SU UTILIZACIÓN EN EL ÁMBITO DOMÉSTICO, INDUSTRIAL Y PROFESIONAL, ASÍ COMO EN EL SECTOR SANITARIO Y SOCIAL",
      "mainEntityOfPage": "https://www.contratacion.euskadi.eus/webkpe00-kperoc/es/ac71aBusquedaRegistrosWar/empresa/07669",
      "_links": {
        "self": {
          "name": "ESSITY SPAIN, S.L.",
          "href": "https://api.euskadi.eus/procurements/companies/07669"
        }
      }
    },
    {
      "name": "TANDEM ARKITEKTURA HIRIGINTZA BULEGOA, S.L.P.",
      "registrationNumber": "07159",
      "identificationNumber": "B95541082",
      "address": "MUELLE TOMÁS OLABARRI Nº 4 1º DCHA.",
      "location": {
        "postalCode": "48930",
        "municipality": "Getxo",
        "county": "Bizkaia",
        "municipalityId": "044",
        "countyId": "48"
      },
      "economicActivities": [
        {
          "id": "1.843.2",
          "name": "Servicios técnicos de arquitectura y urbanismo",
          "_links": {
            "self": {
              "name": "Servicios técnicos de arquitectura y urbanismo",
              "href": "https://api.euskadi.eus/procurements/companies/economic-activities/1.843.2"
            }
          }
        },
        {
          "id": "1.861.2",
          "name": "Alquiler de locales industriales y otros alquileres n.c.o.p",
          "_links": {
            "self": {
              "name": "Alquiler de locales industriales y otros alquileres n.c.o.p",
              "href": "https://api.euskadi.eus/procurements/companies/economic-activities/1.861.2"
            }
          }
        }
      ],
      "certificateStartDate": "2026-01-09",
      "certificateEndDate": "2026-06-15",
      "object": "LA ACTIVIDAD PROPIA DE LOS PROFESIONALES DE LA ARQUITECTURA\r\n",
      "mainEntityOfPage": "https://www.contratacion.euskadi.eus/webkpe00-kperoc/es/ac71aBusquedaRegistrosWar/empresa/07159",
      "_links": {
        "self": {
          "name": "TANDEM ARKITEKTURA HIRIGINTZA BULEGOA, S.L.P.",
          "href": "https://api.euskadi.eus/procurements/companies/07159"
        }
      }
    },
    {
      "name": "ANTA INGENIERÍA CIVIL, S.L.P.",
      "registrationNumber": "04309",
      "identificationNumber": "B20995304",
      "address": "Paseo Miqueletes, 1. 4F",
      "location": {
        "postalCode": "20009",
        "municipality": "Donostia / San Sebastián",
        "county": "Gipuzkoa",
        "municipalityId": "069",
        "countyId": "20"
      },
      "economicActivities": [
        {
          "id": "1.843.1",
          "name": "Servicios técnicos de ingeniería",
          "_links": {
            "self": {
              "name": "Servicios técnicos de ingeniería",
              "href": "https://api.euskadi.eus/procurements/companies/economic-activities/1.843.1"
            }
          }
        }
      ],
      "certificateStartDate": "2026-01-09",
      "certificateEndDate": "2026-06-09",
      "object": "EL EJERCICIO COMÚN DE LA ACTIVIDAD PROFESIONA DE: INGENIERÍA DE CAMINOS, CANALES Y PUERTOS",
      "mainEntityOfPage": "https://www.contratacion.euskadi.eus/webkpe00-kperoc/es/ac71aBusquedaRegistrosWar/empresa/04309",
      "_links": {
        "self": {
          "name": "ANTA INGENIERÍA CIVIL, S.L.P.",
          "href": "https://api.euskadi.eus/procurements/companies/04309"
        }
      }
    },
    {
      "name": "MUEBLES ARUN, S.L.",
      "registrationNumber": "02819",
      "identificationNumber": "B20610713",
      "address": "KARMELO ETXEGARAI, 3",
      "location": {
        "postalCode": "20018",
        "municipality": "Donostia / San Sebastián",
        "county": "Gipuzkoa",
        "municipalityId": "069",
        "countyId": "20"
      },
      "economicActivities": [
        {
          "id": "1.653.1",
          "name": "Venta al por menor de muebles (excepto los de oficina)",
          "_links": {
            "self": {
              "name": "Venta al por menor de muebles (excepto los de oficina)",
              "href": "https://api.euskadi.eus/procurements/companies/economic-activities/1.653.1"
            }
          }
        },
        {
          "id": "1.659.3",
          "name": "Venta al por menor de aparatos médicos, ortopédicos, ópticos y fotográficos",
          "_links": {
            "self": {
              "name": "Venta al por menor de aparatos médicos, ortopédicos, ópticos y fotográficos",
              "href": "https://api.euskadi.eus/procurements/companies/economic-activities/1.659.3"
            }
          }
        }
      ],
      "certificateStartDate": "2026-01-09",
      "certificateEndDate": "2026-06-18",
      "object": "LA EXPLOTACIÓN DE UN NEGOCIO DE COMERCIALIZACIÓN, DISTRIBUCIÓN, EXPORTACIÓN, IMPORTACIÓN, REPRESENTACIÓN Y VENTA DE MUEBLES, ARTÍCULOS DE DECORACIÓN Y DE REGALO, ASÍ COMO DE ACCESORIOS Y COMPLEMENTOS DE LOS MISMOS Y LA COMERCIALIZACIÓN, IMPORTACIÓN, EXPORTACIÓN, DISTRIBUCIÓN DE ELEMENTOS E INSTRUMENTOS ORTOPÉDICOS, DE REHABILIACIÓN, DE GERATRÍA, SISTEMAS DE TRASLADO PARA MOVILIDAD REDUCIDA Y LA VENTA DE MOBILIARIO ADAPTADO A PERSONAS MAYORES PARA EL EQUIPAMIENTO RESIDENCIAL Y PARA USO DOMÉSTICO",
      "mainEntityOfPage": "https://www.contratacion.euskadi.eus/webkpe00-kperoc/es/ac71aBusquedaRegistrosWar/empresa/02819",
      "_links": {
        "self": {
          "name": "MUEBLES ARUN, S.L.",
          "href": "https://api.euskadi.eus/procurements/companies/02819"
        }
      }
    },
    {
      "name": "TTUR TTUR EUSKALTZALEON BILGUNEA KULTUR ELKARTEA",
      "registrationNumber": "08311",
      "identificationNumber": "G20883047",
      "address": "Mendiburu kalea 14, Landetxe eraikina 2. solairua",
      "location": {
        "postalCode": "20180",
        "municipality": "Oiartzun",
        "county": "Gipuzkoa",
        "municipalityId": "063",
        "countyId": "20"
      },
      "economicActivities": [
        {
          "id": "1.966.9",
          "name": "Otros servicios culturales n.c.o.p",
          "_links": {
            "self": {
              "name": "Otros servicios culturales n.c.o.p",
              "href": "https://api.euskadi.eus/procurements/companies/economic-activities/1.966.9"
            }
          }
        }
      ],
      "certificateStartDate": "2026-01-09",
      "certificateEndDate": "2026-06-14",
      "object": "ELKARTEAREN AZKEN HELBURUA OIARTZUNEN EUSKARA NORMALTZATZEA DA, HORRETARAKO BITARTEKO HELBURU NAGUSIAK HAUEK IZANIK: A) EUSKARAREN ERABILPENA ERAGINGO DUEN DINAMIKA SOZIALA SORTZEA, HONAKO HELBURU ZEHATZ HAUEKIN; - OIARTZUNEN EUSKARAZ BIZI AHAL IZATEKO BERTAKO EUSKALTZALEEN ETA EUSKALGINTZAKO ERAKUNDEEN ELKARLANA BIDERATZEA, OIARTZUNGO BIZITZA EUSKALDUNTZEARI INDARRA EMANEZ. - EUSKAL HARROTASUN SANO ETA SAKONA SORTZEA, ERA BEREAN, BERTAN BIZI DIREN ERDALDUNEI AGERIAN JARRIZ NOLA EGIATAN, PRAKTIKAN, EUSKALDUNGOAK EUSKARA MAITE ETA ESTIMATZEN DUEN.  - EUSKALTZALEAK BILTZEA, HONEK EUSKALDUNGOA ANIMA ETA ERDALDUNGOA ERAKAR DEZAN, OIARTZUNEN EUSKARAZ BIZI AHAL IZATEKO. - EUSKARA IKASTEN ARI DIRENEI EUSKARA ERABILTZEKO AUKERA ESKAINTZEA. - EUSKARAREKIKO DUGUN JARRERAZ HAUSNARKETA AUTOKRITIKOA BIDERATZEA. - OIARTZUNEN EUSKARAZ BIZITZEA OZTOPA DEZAKETEN BALDINTZAPENAK AZTERTZEA ETA HORIETAZ SAKONTZEA. - EUSKARAREN ERABILPENA BULTZATZEARREN SENSIBILIZAZIO-KANPAINAK BURUTZEA. - EUSKARAREN NORMALIZAZIORAKO EGITASMO BERRIAK DISEINATU ETA GARATZEA. BAKARKA ZEIN BESTE ERAKUNDEEKIN ELKARLANEAN. - ERDALDUNGOARENGAN ERAGITEA EUSKARARENGANAKO JOERA POSITIBOA IZAN DEZAN ETA IKASTERA BULTZATZEA EDO BERE ARDURAPEKOAK IKASTEKO BIDEAN JARTZERA BULTZATZEA. B) EUSKAL KULTURA INDARTZEA, HELBURUA HONAKO ARLO HAUEK URRATZEA IZANIK: - LITERATURA SUSTATZEA. - HAURRENTZAKO EKINTZAK ANTOLATZEA. - JARDUERA PUNTUALAK BURUTZEA: BERTSO-SAIOAK, KANTALDIAK, DANTZALDIAK. - IKASTAROAK ANTOLATZEA: BERTSOLARITZA, ANTZERKIGINTZA, EUSKAL ESKULANGINTZA, JOLAS ETA KANTU IKASTAROAK, MOTIBAZIO SAIOAK... - EUSKARAZKO KOMUNIKABIDEAK SUSTATZEA.  - ELKARTEAREN HELBURUEKIN BAT DATOZEN EGITASMOAK.",
      "mainEntityOfPage": "https://www.contratacion.euskadi.eus/webkpe00-kperoc/es/ac71aBusquedaRegistrosWar/empresa/08311",
      "_links": {
        "self": {
          "name": "TTUR TTUR EUSKALTZALEON BILGUNEA KULTUR ELKARTEA",
          "href": "https://api.euskadi.eus/procurements/companies/08311"
        }
      }
    },
    {
      "name": "4 BADIA MANTENTZE SERBITZUAK, S.L.U.",
      "registrationNumber": "07217",
      "identificationNumber": "B75121194",
      "address": "LAMISINGO ITURRIA, 1 Oficina 205",
      "location": {
        "postalCode": "20305",
        "municipality": "Irun",
        "county": "Gipuzkoa",
        "municipalityId": "045",
        "countyId": "20"
      },
      "economicActivities": [
        {
          "id": "1.501.1",
          "name": "Construcción completa, reparación y conservación de edificaciones",
          "_links": {
            "self": {
              "name": "Construcción completa, reparación y conservación de edificaciones",
              "href": "https://api.euskadi.eus/procurements/companies/economic-activities/1.501.1"
            }
          }
        },
        {
          "id": "1.501.2",
          "name": "Construcción completa, reparación y conservación obras civiles",
          "_links": {
            "self": {
              "name": "Construcción completa, reparación y conservación obras civiles",
              "href": "https://api.euskadi.eus/procurements/companies/economic-activities/1.501.2"
            }
          }
        }
      ],
      "certificateStartDate": "2026-01-09",
      "certificateEndDate": "2026-06-18",
      "object": "EL MANTENIMIENTO URBANO PÚBLICO Y PRIVADO",
      "mainEntityOfPage": "https://www.contratacion.euskadi.eus/webkpe00-kperoc/es/ac71aBusquedaRegistrosWar/empresa/07217",
      "_links": {
        "self": {
          "name": "4 BADIA MANTENTZE SERBITZUAK, S.L.U.",
          "href": "https://api.euskadi.eus/procurements/companies/07217"
        }
      }
    },
    {
      "name": "CANON ESPAÑA, S.A.",
      "registrationNumber": "00700",
      "identificationNumber": "A28122125",
      "address": "AVDA. DE EUROPA 6",
      "location": {
        "postalCode": "28108",
        "municipality": "Alcobendas",
        "county": "Madrid",
        "municipalityId": "006",
        "countyId": "28"
      },
      "economicActivities": [
        {
          "id": "1.615.4",
          "name": "Venta al por mayor de aparatos y material radioeléctrico y electrónico",
          "_links": {
            "self": {
              "name": "Venta al por mayor de aparatos y material radioeléctrico y electrónico",
              "href": "https://api.euskadi.eus/procurements/companies/economic-activities/1.615.4"
            }
          }
        },
        {
          "id": "1.617.8",
          "name": "Venta al por mayor de máquinas y material de oficina",
          "_links": {
            "self": {
              "name": "Venta al por mayor de máquinas y material de oficina",
              "href": "https://api.euskadi.eus/procurements/companies/economic-activities/1.617.8"
            }
          }
        },
        {
          "id": "1.619.2",
          "name": "Venta al por mayor de aparatos e instrumentos médicos, ortopédicos, ópticos",
          "_links": {
            "self": {
              "name": "Venta al por mayor de aparatos e instrumentos médicos, ortopédicos, ópticos",
              "href": "https://api.euskadi.eus/procurements/companies/economic-activities/1.619.2"
            }
          }
        },
        {
          "id": "1.619.4",
          "name": "Venta al por mayor de productos de papel y cartón",
          "_links": {
            "self": {
              "name": "Venta al por mayor de productos de papel y cartón",
              "href": "https://api.euskadi.eus/procurements/companies/economic-activities/1.619.4"
            }
          }
        },
        {
          "id": "1.845",
          "name": "Explotación electrónica por cuenta de terceros",
          "_links": {
            "self": {
              "name": "Explotación electrónica por cuenta de terceros",
              "href": "https://api.euskadi.eus/procurements/companies/economic-activities/1.845"
            }
          }
        },
        {
          "id": "1.853",
          "name": "Alquiler de maquinaria y equipo contable de oficina y cálculo",
          "_links": {
            "self": {
              "name": "Alquiler de maquinaria y equipo contable de oficina y cálculo",
              "href": "https://api.euskadi.eus/procurements/companies/economic-activities/1.853"
            }
          }
        }
      ],
      "certificateStartDate": "2026-01-09",
      "certificateEndDate": "2026-06-03",
      "object": "LA IMPORTACIÓN, VENTA Y REPRESENTACIÓN DE MAQUINARIA EN GENERAL, Y ESPECIALMENTE PARA OFICINAS Y COMERCIOS",
      "mainEntityOfPage": "https://www.contratacion.euskadi.eus/webkpe00-kperoc/es/ac71aBusquedaRegistrosWar/empresa/00700",
      "_links": {
        "self": {
          "name": "CANON ESPAÑA, S.A.",
          "href": "https://api.euskadi.eus/procurements/companies/00700"
        }
      }
    },
    {
      "name": "TECNICOS DE MAQUINARIA ESCENICA, S.L.",
      "registrationNumber": "06068",
      "identificationNumber": "B95068037",
      "address": "UGASKO, 5 - 14D",
      "location": {
        "postalCode": "48014",
        "municipality": "Bilbao",
        "county": "Bizkaia",
        "municipalityId": "020",
        "countyId": "48"
      },
      "economicActivities": [
        {
          "id": "1.965.4",
          "name": "Empresas de espectáculos",
          "_links": {
            "self": {
              "name": "Empresas de espectáculos",
              "href": "https://api.euskadi.eus/procurements/companies/economic-activities/1.965.4"
            }
          }
        }
      ],
      "certificateStartDate": "2026-01-09",
      "certificateEndDate": "2026-06-12",
      "object": "LA   PRESTACIÓN  DE  TODO   TIPO   DE  SERVICIOS  Y  ACTIVIDADES  DE  CARÁCTER TÉCNICO DESARROLLADAS  EN  LOCALES   DESTINADOS  A  TODO   TIPO   DE  ESPECTÁCULOS  DE  CARÁCTER ARTÍSTICO, Y MUSICAL. LA FORMACIÓN TÉCNICA  A CARGO DE LA EMPRESA DE FUTUROS  EMPLEADOS. EL DESARROLLO Y FIRMA  DE PROYECTOS DE INGENIERÍA. LA  PROMOCIÓN,   CONSTRUCCIÓN,   COMPRA,  VENTA,   ARRENDAMIENTO,   Y COMERCIALIZACIÓN    EN GENERAL   DE   TODA    CLASE    DE   EDIFICACIONES,    TERRENOS,   SOLARES,   FINCAS     RÚSTICAS   Y  URBANAS; LA EDIFICACIÓN, URBANIZACIÓN, EXCAVACIÓN, CIMENTACIÓN Y DERRIBO, BIEN  POR  CUENTA  PROPIA  COMO AJENA,  ASÍ COMO  LA ENAJENACIÓN, VENTA,  ARRIENDO O EXPLOTACIÓN, EN CUALQUIER FORMA  DE TODA CLASE   DE  INMUEBLES,  EDIFICIOS,  PISOS,   APARTAMENTOS, LOCALES  COMERCIALES O  INDUSTRIALES, OFICINAS Y HOTELES O ESTABLECIMIENTOS DE HOSTELERÍA EN GENERAL. TODA   CLASE   DE   OPERACIONES  INMOBILIARIAS  SOBRE   FINCAS    RÚSTICAS  Y   URBANAS, PROMOCIÓN DE CONTRATOS O REALIZACIONES DE PARCELACIONES, URBANIZACIONES, CONSTRUCCIONES Y OBRAS   PRIVADAS  O  PÚBLICAS,  LA  VENTA,   HIPOTECA, ARRENDAMIENTO, TRANSFORMACIÓN,  MEJORA, ADMINISTRACIÓN, PUESTA  EN EXPLOTACIÓN Y LA EXPLOTACIÓN MISMA, DE FINCAS  RÚSTICAS Y URBANAS, LA   ORGANIZACIÓN,   PROMOCIÓN,  ASESORAMIENTO,  Y   GESTIÓN   EN   SU   CASO   DE   SOCIEDADES, COOPERATIVAS,  COMUNIDADES, ENTIDADES, GRUPOS  O  EMPRESAS PARTICULARES ORIENTADAS A  LA CONSTRUCCIÓN O URBANIZACIÓN, LA PLANIFICACIÓN Y ESTUDIO DE MERCADOS EN MATERIA INMOBILIARIA. LA  GESTIÓN,  DIRECCIÓN Y  EJECUCIÓN POR  CUENTA   PROPIA   O  AJENA  DE TODA   CLASE  DE CONSTRUCCIONES, INSTALACIONES, REFORMAS, REHABILITACIONES, DECORACIONES Y OBRAS  DE RESTAURACIÓN EXTERNA E INTERNA DE ESTRUCTURAS Y REVESTIMIENTOS DE EDIFICIOS Y MONUMENTOS,\r\nLIMPIEZA,  IMPERMEABILIZACIÓN,  TRATAMIENTO,  PINTURA,  RECONSTRUCCIÓN,   Y   LA   IMPLANTACIÓN, CUIDADO Y  MANTENIMIENTO  DE JARDINES Y EXPLOTACIONES FORESTALES. LA SUPERVISIÓN Y CONTROL DE OBRAS,  ASÍ COMO  LA COORDINACIÓN DE GREMIOS, EL ASESORAMIENTO Y LA ASISTENCIA TÉCNICA.EN TODO   CUANTO   SE  RELACIONE CON  EL  CAMPO  DE  LA  CONSTRUCCIÓN  DE  EDIFICIOS  Y  DE  LAS  OBRAS PÚBLICAS O CIVILES. ADQUISICIÓN,   TENENCIA,  DISFRUTE,   ADMINISTRACIÓN   Y   ENAJENACIÓN     DE   VALORES MOBILIARIOS DE RENTA FIJA O VARIABLE, EMITIDOS POR TODA CLASE DE EMPRESAS, POR CUENTA  PROPIA  Y CON EXCEPCIÓN DE LA INTENNEDIACIÓN, QUEDANDO FUERA  LAS ACTIVIDADES OBJETO  DE LA LEGISLACIÓN DE INSTITUCIONES DE INVERSIÓN COLECTIVA Y DE MERCADO DE VALORES. PRESTACIÓN DE SERVICIOS DE ASESORAMIENTO CONTABLE, ECONÓMICO, FINANCIERO, COMERCIAL, ADMINISTRATIVO Y  TRIBUTARIO\r\n\r\n\r\n",
      "mainEntityOfPage": "https://www.contratacion.euskadi.eus/webkpe00-kperoc/es/ac71aBusquedaRegistrosWar/empresa/06068",
      "_links": {
        "self": {
          "name": "TECNICOS DE MAQUINARIA ESCENICA, S.L.",
          "href": "https://api.euskadi.eus/procurements/companies/06068"
        }
      }
    },
    {
      "name": "AISILAN XXI, S.L.",
      "registrationNumber": "03220",
      "identificationNumber": "B95193827",
      "address": "PLAZA EUSKAL HERRIA, 1 BAJO",
      "location": {
        "postalCode": "48340",
        "municipality": "Amorebieta-Etxano",
        "county": "Bizkaia",
        "municipalityId": "003",
        "countyId": "48"
      },
      "economicActivities": [
        {
          "id": "1.934",
          "name": "Enseñanza fuera de establecimiento permanente",
          "_links": {
            "self": {
              "name": "Enseñanza fuera de establecimiento permanente",
              "href": "https://api.euskadi.eus/procurements/companies/economic-activities/1.934"
            }
          }
        },
        {
          "id": "1.963.1",
          "name": "Exhibición de películas cinematográficas y vídeos en cines",
          "_links": {
            "self": {
              "name": "Exhibición de películas cinematográficas y vídeos en cines",
              "href": "https://api.euskadi.eus/procurements/companies/economic-activities/1.963.1"
            }
          }
        },
        {
          "id": "1.965.1",
          "name": "Espectáculos en salas y locales (excepto los taurinos)",
          "_links": {
            "self": {
              "name": "Espectáculos en salas y locales (excepto los taurinos)",
              "href": "https://api.euskadi.eus/procurements/companies/economic-activities/1.965.1"
            }
          }
        },
        {
          "id": "1.966.9",
          "name": "Otros servicios culturales n.c.o.p",
          "_links": {
            "self": {
              "name": "Otros servicios culturales n.c.o.p",
              "href": "https://api.euskadi.eus/procurements/companies/economic-activities/1.966.9"
            }
          }
        }
      ],
      "certificateStartDate": "2026-01-09",
      "certificateEndDate": "2026-06-15",
      "object": "ORGANIZACIÓN Y GESTIÓN DE COLONIAS Y CAMPAMENTOS EN CUALQUIER ÉPOCA DEL AÑO.\r\nORGANIZACIÓN DE PARQUES DE OCIO.\r\nALQUILER Y MONTAJE DE ELEMENTOS HINCHABLES Y ATRACCIONES MECÁNICAS.\r\nORGANIZACIÓN Y GESTIÓN DE SALIDAS, EXCURSIONES, VIAJES DE ESTUDIO, ACTIVIDADES EXTRAESCOLARES Y FIESTAS.\r\nGESTIÓN INTEGRAL DE CENTROS INFANTILES Y JUVENILES, ASÍ COMO CENTRO DE DÍA PARA DISMINUIDOS Y TERCERA EDAD.\r\nORGANIZACIÓN Y DESARROLLO DE ACTIVIDADES FÍSICAS, DEPORTIVAS, CULTURALES Y DE OCIO ACTIVO; ACATIVIDADES DE AVENTURA.\r\nGESTIÓN DE ALBERGUES.\r\nORGANIZACIÓN Y GESTIÓN DE EVENTOS DEPORTIVOS.\r\nORGANIZACIÓN DE CHARLAS Y JORNADAS EDUCATIVAS.\r\nGESTIÓN DE INSTALACIONES DEPORTIVAS.\r\nASESORAMIENTO TÉCNICO EN MATERIA DE ACTIVIDADES E INSTALACIONES.\r\nY A CUALQUIER OTRA ACTIVIDAD, SERVICIO O INICIATIVA SIMILAR A LAS ANTERIORMENTE CITADAS  ",
      "mainEntityOfPage": "https://www.contratacion.euskadi.eus/webkpe00-kperoc/es/ac71aBusquedaRegistrosWar/empresa/03220",
      "_links": {
        "self": {
          "name": "AISILAN XXI, S.L.",
          "href": "https://api.euskadi.eus/procurements/companies/03220"
        }
      }
    }
  ]
}