{
  "totalItems": 9042,
  "totalPages": 905,
  "currentPage": 670,
  "itemsOfPage": 10,
  "items": [
    {
      "name": "SABAI ARKITEKTOAK, S.L.",
      "registrationNumber": "02723",
      "identificationNumber": "B20775011",
      "address": "EUSKADI ETORBIDEA, 53 - 2º DCHA. A ",
      "location": {
        "postalCode": "20110",
        "municipality": "Pasaia",
        "county": "Gipuzkoa",
        "municipalityId": "064",
        "countyId": "20"
      },
      "economicActivities": [
        {
          "id": "1.843.2",
          "name": "Servicios técnicos de arquitectura y urbanismo",
          "_links": {
            "self": {
              "name": "Servicios técnicos de arquitectura y urbanismo",
              "href": "https://api.euskadi.eus/procurements/companies/economic-activities/1.843.2"
            }
          }
        }
      ],
      "certificateStartDate": "2014-06-23",
      "certificateEndDate": "2014-12-16",
      "object": "LA ACTIVIDAD PROPIA DEL EJERCICIO DE LA ARQUITECTURA",
      "mainEntityOfPage": "https://www.contratacion.euskadi.eus/webkpe00-kperoc/es/ac71aBusquedaRegistrosWar/empresa/02723",
      "_links": {
        "self": {
          "name": "SABAI ARKITEKTOAK, S.L.",
          "href": "https://api.euskadi.eus/procurements/companies/02723"
        }
      }
    },
    {
      "name": "JUAN LUIS MAZÓN RUIZ",
      "registrationNumber": "03192",
      "identificationNumber": "16265886X",
      "address": "C/ LANDAZURI, 13 - 1ºIZDA.",
      "location": {
        "postalCode": "01009",
        "municipality": "Vitoria-Gasteiz",
        "county": "Araba/Álava",
        "municipalityId": "059",
        "countyId": "01"
      },
      "economicActivities": [
        {
          "id": "1.501.1",
          "name": "Construcción completa, reparación y conservación de edificaciones",
          "_links": {
            "self": {
              "name": "Construcción completa, reparación y conservación de edificaciones",
              "href": "https://api.euskadi.eus/procurements/companies/economic-activities/1.501.1"
            }
          }
        },
        {
          "id": "1.501.2",
          "name": "Construcción completa, reparación y conservación obras civiles",
          "_links": {
            "self": {
              "name": "Construcción completa, reparación y conservación obras civiles",
              "href": "https://api.euskadi.eus/procurements/companies/economic-activities/1.501.2"
            }
          }
        }
      ],
      "certificateStartDate": "2014-06-23",
      "certificateEndDate": "2014-12-12",
      "object": "DEMOLICIONES, ESTRUCTURAS DE FÁBRICA U HORMIGÓN; ESTRUCTURAS METÁLICAS; ALBAÑILERÍA Y REVESTIMIENTOS; CARPINTERÍA Y MARMOLERÍA; PAVIMENTOS, SOLADOS Y ALICATADOS; AISLAMIENTOS E IMPERMEABILIZACIÓN, CARPINTERÍA DE MADERA Y CARPINTERÍA METÁLICA",
      "mainEntityOfPage": "https://www.contratacion.euskadi.eus/webkpe00-kperoc/es/ac71aBusquedaRegistrosWar/empresa/03192",
      "_links": {
        "self": {
          "name": "JUAN LUIS MAZÓN RUIZ",
          "href": "https://api.euskadi.eus/procurements/companies/03192"
        }
      }
    },
    {
      "name": "ON GLOBAL LANGUAGE MARKETING, S.L.",
      "registrationNumber": "04819",
      "identificationNumber": "B01422351",
      "address": "C/NUEVA DENTRO, 33-A BAJO",
      "location": {
        "postalCode": "01001",
        "municipality": "Vitoria-Gasteiz",
        "county": "Araba/Álava",
        "municipalityId": "059",
        "countyId": "01"
      },
      "economicActivities": [
        {
          "id": "1.844",
          "name": "Servicios de publicidad, relaciones públicas y similares",
          "_links": {
            "self": {
              "name": "Servicios de publicidad, relaciones públicas y similares",
              "href": "https://api.euskadi.eus/procurements/companies/economic-activities/1.844"
            }
          }
        },
        {
          "id": "1.849.3",
          "name": "Servicios de traducción y similares",
          "_links": {
            "self": {
              "name": "Servicios de traducción y similares",
              "href": "https://api.euskadi.eus/procurements/companies/economic-activities/1.849.3"
            }
          }
        },
        {
          "id": "1.933.9",
          "name": "Otras actividades de enseñanza tales como idiomas, mecanografía",
          "_links": {
            "self": {
              "name": "Otras actividades de enseñanza tales como idiomas, mecanografía",
              "href": "https://api.euskadi.eus/procurements/companies/economic-activities/1.933.9"
            }
          }
        }
      ],
      "certificateStartDate": "2014-06-20",
      "certificateEndDate": "2014-12-11",
      "object": "LA TRADUCCIÓN, INTERPRETACIÓN Y MAQUETACIÓN DE DOCUMENTOS PÚBLICOS Y PRIVADOS Y DE TEXTOS LEGALES, PRESTACIÓN DE SERVICIOS DE TRADUCCIÓN SIMULTÁNEA, ENSEÑANZA DE IDIOMAS Y DEMÁS SERVICIOS LINGÜISTICOS",
      "mainEntityOfPage": "https://www.contratacion.euskadi.eus/webkpe00-kperoc/es/ac71aBusquedaRegistrosWar/empresa/04819",
      "_links": {
        "self": {
          "name": "ON GLOBAL LANGUAGE MARKETING, S.L.",
          "href": "https://api.euskadi.eus/procurements/companies/04819"
        }
      }
    },
    {
      "name": "EXCOR MEDICAL DEVICES, S.L.",
      "registrationNumber": "03667",
      "identificationNumber": "B63800734",
      "address": "C/SARNENYA, 224-226. LOCAL 2",
      "location": {
        "postalCode": "08013",
        "municipality": "Barcelona",
        "county": "Barcelona",
        "municipalityId": "019",
        "countyId": "08"
      },
      "economicActivities": [
        {
          "id": "1.614.1",
          "name": "Venta al por mayor de productos farmacéuticos y medicamentos",
          "_links": {
            "self": {
              "name": "Venta al por mayor de productos farmacéuticos y medicamentos",
              "href": "https://api.euskadi.eus/procurements/companies/economic-activities/1.614.1"
            }
          }
        }
      ],
      "certificateStartDate": "2014-06-18",
      "certificateEndDate": "2014-12-04",
      "object": "A) LA FORMACIÓN, ORIENTACIÓN Y ANÁLISIS PROFESIONAL, COMERCIAL Y EMPRESARIAL, ASÍ COMO EL COMERCIO AL POR MAYOR Y AL POR MENOR DE PRODUCTOS MÉDICO QUIRÚRGICOS Y DE APARATOS Y MATERIAL SANITARIO EN GENERAL. B) EL DESARROLLO DE PROGRAMAS DE INVESTIGACIÓN MÉDICA Y DE GESTIÓN EN LA EMPRESA, ASÍ COMO EL DESARROLLO TECNOLÓGICO DENTRO DEL ÁMBITO SANITARIO Y DE LA EMPRESA, MEDIANTE PROYECTOS DE \"I+D\". C) LA PROMOCIÓN DE LA INVESTIGACIÓN Y EL DESARROLLO TECNOLÓGICO DE LOS ESTUDIOS Y LA ENSEÑANZA EN EL ÁMBITO SANITARIO Y DE LA EMPRESA. D) PRESTACIÓN DE SERVICIOS, ASESORÍA, SOPORTE PROFESIONAL Y TECNOLÓGICO A TERCEROS EN EL CAMPO DE LA GESTIÓN EMPRESARIAL. E) LA ORGANIZACIÓN DE CONGRESOS Y JORNADAS PROFESIONALES",
      "mainEntityOfPage": "https://www.contratacion.euskadi.eus/webkpe00-kperoc/es/ac71aBusquedaRegistrosWar/empresa/03667",
      "_links": {
        "self": {
          "name": "EXCOR MEDICAL DEVICES, S.L.",
          "href": "https://api.euskadi.eus/procurements/companies/03667"
        }
      }
    },
    {
      "name": "EXCAVACIONES Y TRANSPORTES BESAIDE, S.A.",
      "registrationNumber": "03905",
      "identificationNumber": "A20056974",
      "address": "URIBARRI ETORBIDEA, 45",
      "location": {
        "postalCode": "20500",
        "municipality": "Arrasate / Mondragón",
        "county": "Gipuzkoa",
        "municipalityId": "055",
        "countyId": "20"
      },
      "economicActivities": [
        {
          "id": "1.501.1",
          "name": "Construcción completa, reparación y conservación de edificaciones",
          "_links": {
            "self": {
              "name": "Construcción completa, reparación y conservación de edificaciones",
              "href": "https://api.euskadi.eus/procurements/companies/economic-activities/1.501.1"
            }
          }
        },
        {
          "id": "1.501.2",
          "name": "Construcción completa, reparación y conservación obras civiles",
          "_links": {
            "self": {
              "name": "Construcción completa, reparación y conservación obras civiles",
              "href": "https://api.euskadi.eus/procurements/companies/economic-activities/1.501.2"
            }
          }
        },
        {
          "id": "1.502.3",
          "name": "Consolidación y preparación de terrenos para la realización de obras civiles",
          "_links": {
            "self": {
              "name": "Consolidación y preparación de terrenos para la realización de obras civiles",
              "href": "https://api.euskadi.eus/procurements/companies/economic-activities/1.502.3"
            }
          }
        },
        {
          "id": "1.722",
          "name": "Transporte de mercancías por carretera",
          "_links": {
            "self": {
              "name": "Transporte de mercancías por carretera",
              "href": "https://api.euskadi.eus/procurements/companies/economic-activities/1.722"
            }
          }
        }
      ],
      "certificateStartDate": "2014-06-11",
      "certificateEndDate": "2014-12-11",
      "object": "DESMONTE, EXCAVACIONES Y EXPLANACIONES DE TERRENOS, CONSTRUCCIONES DE PISTAS FORESTALES, COMINOS Y CARRETERAS, Y LAS ACTIVIDADES INMOBILIARIAS RELATIVAS A BIENES DE NATURALEZA URBANA Y RÚSTICA, Y LA ACTIVIDAD DE TRNASPORTE PÚBLICO DE MERCANCIAS; CONSTRUCCIÓN EN GENERAL DE TODO TIPO DE OBRAS, TANTO DE EDIFICACIÓN COMO DE OBRAS PÚBLICAS; INSTALACIONES EN GENERAL DE TODO TIPO; CONSERVACIÓN Y MANTENIMIENTO DE TODO TIPO DE BIENES-INMUEBLES; LIMPIEZA E HIGIENIZACIÓN EN GENERAL; MANTENIMIENTO Y REPARAICÓN DE EQUIPOS E INSTALACIONES EN GENERAL; SERVICIOS DE INFORMACIÓN, PUBLICIDAD, ADMINISTRATIVOS Y COMUNICACIONES; RESTAURACIÓN DE OBRAS DE ARTE; SERVICIOS Y MANTENIMIENTO E INCINERACIÓN DE RESIDUOS Y DESECHOS; SERVICIOS EN GENERAL DE TODO TIPO DE TRANSPORTES",
      "mainEntityOfPage": "https://www.contratacion.euskadi.eus/webkpe00-kperoc/es/ac71aBusquedaRegistrosWar/empresa/03905",
      "_links": {
        "self": {
          "name": "EXCAVACIONES Y TRANSPORTES BESAIDE, S.A.",
          "href": "https://api.euskadi.eus/procurements/companies/03905"
        }
      }
    },
    {
      "name": "VADILLO ASESORES CONSULTORÍA DE NEGOCIOS, S.L.",
      "registrationNumber": "02791",
      "identificationNumber": "B01133529",
      "address": "AVDA. GASTEIZ, Nº 82-BAJO",
      "location": {
        "postalCode": "01012",
        "municipality": "Vitoria-Gasteiz",
        "county": "Araba/Álava",
        "municipalityId": "059",
        "countyId": "01"
      },
      "economicActivities": [
        {
          "id": "1.842",
          "name": "Servicios financieros y contables",
          "_links": {
            "self": {
              "name": "Servicios financieros y contables",
              "href": "https://api.euskadi.eus/procurements/companies/economic-activities/1.842"
            }
          }
        }
      ],
      "certificateStartDate": "2014-06-09",
      "certificateEndDate": "2014-12-05",
      "object": "LA ACTIVIDAD PROFESIONAL LIBRE E INDEPENDIENTE DIRIGIDA AL CONSEJO, RESOLUCIÓN Y PRESTACIÓN DE SERVICIOS TANTO A PARTICULARES COMO EMPRESARIOS INDIVIDUALES O PERSONAS JURÍDICAS EN EL ÁMBITO DE  LA:\r\n\r\nFORMACIÓN Y RECURSOS HUMANOS.\r\nGESTIÓN Y ASESORAMIENTO LABORAL.\r\nGESTIÓN Y ASESORAMIENTO ADMINISTRATIVOS.\r\nGSTIÓN Y ASESORAMIENTO FISCAL.\r\nGESTIÓN Y ASESORAMIENTO URBANÍSTICO.\r\nGESTIÓN Y ASESORAMIENTO CONTABLE.\r\nGESTIÓN DE DIRECCIÓN DE EMPRESAS.\r\nTENDRÁ POR OBJETO ACTUAR HABITUALMENTE EN LA NEGOCIACIÓN O FORMALIZACIÓN DE OPERACIONES TÍPICAS DE LA ACTIVIDAD DE UNA ENTIDAD DE CRÉDITO, EN NOMBRE Y POR CUENTA DE ÉSTA, CON EL CARÁCTER DE AGENTE DE ENTIDAD DE CRÉDITO, EN LAS CONDICIONES Y CON LOS REQUISITOS ESTABLECIDOS EN EL ARTÍCULO 22 DEL REAL DECRETO 1245/95, DE 14 DE JULIO Y EN LAS NORMAS QUE LO DESARROLLEN O, EN SU CASO, LO SUSTITUYAN.\r\n\r\nLA ENUMERACIÓN  DE LAS ACTIVIDADES SOCIALES ESPECIFICADAS NO PRESUPONE EL INMEDIATO DESENVOLVIMIENTO DE TODAS ELLAS, NI LA SIMULTANEIDAD DE LAS MISMAS, SI NO LA POSIBILIDAD DE SU EJERCICIO CONDICIONADO A LAS CIRCUNSTANCIAS LIBREMENTE APRECIADAS POR LA ADMINISTRACIÓN SOCIAL, EN SU CASO, QUE PODRÁ INICIAR O NO TALES ACTIVIDADES, ASÍ COMO SUSPENDERLAS Y REEMPRENDERLAS CUANDO, A SU JUICIO, LO REQUIERA EL INTERÉS SOCIAL\r\n   ",
      "mainEntityOfPage": "https://www.contratacion.euskadi.eus/webkpe00-kperoc/es/ac71aBusquedaRegistrosWar/empresa/02791",
      "_links": {
        "self": {
          "name": "VADILLO ASESORES CONSULTORÍA DE NEGOCIOS, S.L.",
          "href": "https://api.euskadi.eus/procurements/companies/02791"
        }
      }
    },
    {
      "name": "LANDETA BURDIN LANAK, S.A.L.",
      "registrationNumber": "05204",
      "identificationNumber": "A20701439",
      "address": "ÁREA ANARDI, 9 - LASAO AUZOA",
      "location": {
        "postalCode": "20730",
        "municipality": "Azpeitia",
        "county": "Gipuzkoa",
        "municipalityId": "018",
        "countyId": "20"
      },
      "economicActivities": [
        {
          "id": "1.314.1",
          "name": "Carpintería metálica",
          "_links": {
            "self": {
              "name": "Carpintería metálica",
              "href": "https://api.euskadi.eus/procurements/companies/economic-activities/1.314.1"
            }
          }
        },
        {
          "id": "1.314.2",
          "name": "Fabricación de estructuras metálicas",
          "_links": {
            "self": {
              "name": "Fabricación de estructuras metálicas",
              "href": "https://api.euskadi.eus/procurements/companies/economic-activities/1.314.2"
            }
          }
        },
        {
          "id": "1.315.2",
          "name": "Grandes depósitos metálicos y otros productos de calderería",
          "_links": {
            "self": {
              "name": "Grandes depósitos metálicos y otros productos de calderería",
              "href": "https://api.euskadi.eus/procurements/companies/economic-activities/1.315.2"
            }
          }
        }
      ],
      "certificateStartDate": "2014-06-09",
      "certificateEndDate": "2014-10-03",
      "object": "A) REALIZACIÓN DE TRABAJOS DE CALDERERÍA, EXCLUYENDO LA CALDERERÍA DENOMINADA PESADA; B) REALIZACIÓN DE TRABAJOS DE MECÁNICA GENERAL, ENTENDIENDO POR ÉSTOS LOS QUE SUPONGAN LA APLICACIÓN DE DIVERSOS PROCEDIMIENTOS DE TRANSOFMRACIÓN DE METALES MEDIANTE MÁQUINAS HERRAMIENTAS, EJECUTADOS POR ENCARGO O SEGÚN PLANOS APORTADOS POR EMPRESAS DE CONSTRUCCIÓN DE MAQUINARIA Y MATERIAL MECÁNICO; C) REPARACIÓN DE TODO TIPO DE MAQUINARIA; D) REALIZACIÓN  DE TRABAJOS DE SOLDADURA, HERRADO Y FORJADO; E) FABRICACIÓN DE HERRAMIENTAS Y ARTÍCULOS ACABADOS EN METALES; F) MONTAJE DE TODO TIPO DE MAQUINARIA",
      "mainEntityOfPage": "https://www.contratacion.euskadi.eus/webkpe00-kperoc/es/ac71aBusquedaRegistrosWar/empresa/05204",
      "_links": {
        "self": {
          "name": "LANDETA BURDIN LANAK, S.A.L.",
          "href": "https://api.euskadi.eus/procurements/companies/05204"
        }
      }
    },
    {
      "name": "CANAL PC INFORMÁTICA, S.R.L.",
      "registrationNumber": "02778",
      "identificationNumber": "B48984629",
      "address": "ALAMEDA DOCTOR AREILZA, Nº 33-BAJO",
      "location": {
        "postalCode": "48010",
        "municipality": "Bilbao",
        "county": "Bizkaia",
        "municipalityId": "020",
        "countyId": "48"
      },
      "economicActivities": [
        {
          "id": "1.659.2",
          "name": "Venta al por menor de muebles de oficina y máquinas y equipos de oficina",
          "_links": {
            "self": {
              "name": "Venta al por menor de muebles de oficina y máquinas y equipos de oficina",
              "href": "https://api.euskadi.eus/procurements/companies/economic-activities/1.659.2"
            }
          }
        },
        {
          "id": "1.845",
          "name": "Explotación electrónica por cuenta de terceros",
          "_links": {
            "self": {
              "name": "Explotación electrónica por cuenta de terceros",
              "href": "https://api.euskadi.eus/procurements/companies/economic-activities/1.845"
            }
          }
        }
      ],
      "certificateStartDate": "2014-06-06",
      "certificateEndDate": "2014-10-15",
      "object": "LA COMPRAVENTA DE TODO TIPO DE PRODUCTOS, COMPONENTES Y EQUIPOS INFORMÁTICOS Y OFIMÁTICOS, ASÍ COMO LA INSTALACIÓN, MONTAJE Y REPARACIÓN DE LOS MISMOS, Y SU DISTRIBUCIÓN, TANTO AL POR MAYOR COMO AL MENOR.\r\nTALES ACTIVIDADES PODRÁN SER DESARROLLADAS POR LA SOCIEDAD EN FORMA DIRECTA, O BIEN EN CUALESQUIERA OTRAS FORMAS ADMITIDAS EN DERECHO, COMO LA PARTICIPACIÓN EN CALIDAD DE SOCIO EN OTRAS ENTIDADES DE OBJETO IDÉNTICO O ANÁLOGO",
      "mainEntityOfPage": "https://www.contratacion.euskadi.eus/webkpe00-kperoc/es/ac71aBusquedaRegistrosWar/empresa/02778",
      "_links": {
        "self": {
          "name": "CANAL PC INFORMÁTICA, S.R.L.",
          "href": "https://api.euskadi.eus/procurements/companies/02778"
        }
      }
    },
    {
      "name": "CONSTRUCCIONES LAUKI, S.A.",
      "registrationNumber": "00703",
      "identificationNumber": "A48254429",
      "address": "ESTARTETXE, Nº 5-5ª PLANTA. DPTO. 507",
      "location": {
        "postalCode": "48940",
        "municipality": "Leioa",
        "county": "Bizkaia",
        "municipalityId": "054",
        "countyId": "48"
      },
      "economicActivities": [
        {
          "id": "1.507",
          "name": "Construcción, reparación y conservación de toda clase obras",
          "_links": {
            "self": {
              "name": "Construcción, reparación y conservación de toda clase obras",
              "href": "https://api.euskadi.eus/procurements/companies/economic-activities/1.507"
            }
          }
        }
      ],
      "certificateStartDate": "2014-06-05",
      "certificateEndDate": "2014-11-26",
      "object": "LA EJECUCIÓN Y CONSTRUCCIÓN DE TODA CLASE DE OBRAS PÚBLICAS Y PRIVADAS; LA PROMOCIÓN O EXPLOTACIÓN EN ARRENDAMIENTO O VENTA DE VIVIENDAS, LOCALES Y EDIFICIOS INDUSTRIALES Y CUALESQUIERA OBRAS ACCESORIAS DE LA CONSTRUCCIÓN",
      "mainEntityOfPage": "https://www.contratacion.euskadi.eus/webkpe00-kperoc/es/ac71aBusquedaRegistrosWar/empresa/00703",
      "_links": {
        "self": {
          "name": "CONSTRUCCIONES LAUKI, S.A.",
          "href": "https://api.euskadi.eus/procurements/companies/00703"
        }
      }
    },
    {
      "name": "SISTEMAS DE REPARACIÓN Y PROTECCIÓN DE HORMIGÓN S.L.U.",
      "registrationNumber": "04785",
      "identificationNumber": "B39604038",
      "address": "Pol.Ind.Ugarte fase 1 pab.B21-B22",
      "location": {
        "postalCode": "48480",
        "municipality": "Zaratamo",
        "county": "Bizkaia",
        "municipalityId": "097",
        "countyId": "48"
      },
      "economicActivities": [
        {
          "id": "1.501.3",
          "name": "Albañilería y pequeños trabajos de construcción en general",
          "_links": {
            "self": {
              "name": "Albañilería y pequeños trabajos de construcción en general",
              "href": "https://api.euskadi.eus/procurements/companies/economic-activities/1.501.3"
            }
          }
        }
      ],
      "certificateStartDate": "2014-06-03",
      "certificateEndDate": "2014-12-02",
      "object": "A) LA ACTIVIDAD DE TRABAJOS DE ALBAÑILERÍA, REPARACIÓN Y CONSERVACIÓN DE EDIFICIOS Y OBRAS PÚBLICAS, REFUERZO DE ESTRUCTURAS DE TODO TIPO, LAVADO DE EDIFICIOS Y OTRAS OBRAS, DRENAJES DE TODO TIPO, TODO TIPO DE PINTURAS, ESTUDIO Y REALIZACIÓN DE PROYECTOS URBANÍSTICOS, OBRAS NUEVAS DE EDIFICACIÓN URBANA, SANEAMIENTO, ABASTECIMIENTO DE AGUAS, EXCAVACIONES, MOVIMIENTO DE TIERRAS Y SIMILARES, FONTANERÍA, EBANISTERÍA, ELECTRICIDAD, DECORACIÓN DE EDIFICIOS Y LOCALES, CARPINTERÍA METÁLICA DE P.V.C. Y DE MADERA, COMPRAVENTA, CONSTRUCCIÓN, INSTALACIÓN Y MANTENIMIENTO DE ESTRUCTURAS DE CUALQUIER CLASE. B) LA COMPRAVENTA, ADMINISTRACIÓN, ARRIENDO, PROMOCIÓN, EJECUCIÓN Y, EN GENERAL, EXPLOTACIÓN ECONÓMICA POR CUALQUIERA DE LAS FORMAS ADMITIDAS EN DERECHO, POR CUENTA PROPIO O AJENA, DE TODA CLASE DE SOLARES, TERRENOS, OBRAS, CONSTRUCCIONES, INMUEBLES, VIVIENDAS, LOCALES COMERCIALES O INDUSTRIALES.",
      "mainEntityOfPage": "https://www.contratacion.euskadi.eus/webkpe00-kperoc/es/ac71aBusquedaRegistrosWar/empresa/04785",
      "_links": {
        "self": {
          "name": "SISTEMAS DE REPARACIÓN Y PROTECCIÓN DE HORMIGÓN S.L.U.",
          "href": "https://api.euskadi.eus/procurements/companies/04785"
        }
      }
    }
  ]
}