{
  "totalItems": 9042,
  "totalPages": 905,
  "currentPage": 720,
  "itemsOfPage": 10,
  "items": [
    {
      "name": "ERREFORMAK HORMAN, S.L.",
      "registrationNumber": "03422",
      "identificationNumber": "B20768677",
      "address": "SAN JUAN 11 BIS",
      "location": {
        "postalCode": "20600",
        "municipality": "Eibar",
        "county": "Gipuzkoa",
        "municipalityId": "030",
        "countyId": "20"
      },
      "economicActivities": [
        {
          "id": "1.501.1",
          "name": "Construcción completa, reparación y conservación de edificaciones",
          "_links": {
            "self": {
              "name": "Construcción completa, reparación y conservación de edificaciones",
              "href": "https://api.euskadi.eus/procurements/companies/economic-activities/1.501.1"
            }
          }
        }
      ],
      "certificateStartDate": "2010-12-02",
      "certificateEndDate": "2011-05-17",
      "object": "A) LA CONSTRUCCIÓN COMPLETA, LA CONSERVACIÓN Y REPARACIÓN DE EDIFICIOS. B) LA PRESTACIÓN DE SERVICIOS TÉCNICOS RELACIONADOS CON LA CONSTRUCCIÓN",
      "mainEntityOfPage": "https://www.contratacion.euskadi.eus/webkpe00-kperoc/es/ac71aBusquedaRegistrosWar/empresa/03422",
      "_links": {
        "self": {
          "name": "ERREFORMAK HORMAN, S.L.",
          "href": "https://api.euskadi.eus/procurements/companies/03422"
        }
      }
    },
    {
      "name": "GERO MOBEL, S.L.",
      "registrationNumber": "03058",
      "identificationNumber": "B01380609",
      "address": "C/ UZBINA, 31 (POL. IND. JUNDIZ)",
      "location": {
        "postalCode": "01015",
        "municipality": "Vitoria-Gasteiz",
        "county": "Araba/Álava",
        "municipalityId": "059",
        "countyId": "01"
      },
      "economicActivities": [
        {
          "id": "1.653.1",
          "name": "Venta al por menor de muebles (excepto los de oficina)",
          "_links": {
            "self": {
              "name": "Venta al por menor de muebles (excepto los de oficina)",
              "href": "https://api.euskadi.eus/procurements/companies/economic-activities/1.653.1"
            }
          }
        }
      ],
      "certificateStartDate": "2010-12-01",
      "certificateEndDate": "2011-05-29",
      "object": "LA FABRICACIÓN, DISTRIBUCIÓN Y COMERCIALIZACIÓN DE MOBILIBARIO ADAPTADO A LAS NECESIDADES DE CENTROS, RESIDENCIAS O CUALQUIER OTRO TIPO DE INMUEBLES DESTINADOS A LAS PERSONAS DE LA TERCERA EDAD, PERSONAS CON MINUSVALÍAS O CUALQUIER OTRO TIPO DE ANOMALÍA FÍSICA QUE REQUIERA DE ESTE TIPO DE MOBILIARIO",
      "mainEntityOfPage": "https://www.contratacion.euskadi.eus/webkpe00-kperoc/es/ac71aBusquedaRegistrosWar/empresa/03058",
      "_links": {
        "self": {
          "name": "GERO MOBEL, S.L.",
          "href": "https://api.euskadi.eus/procurements/companies/03058"
        }
      }
    },
    {
      "name": "AZKA 2002, S.L.",
      "registrationNumber": "03805",
      "identificationNumber": "B95204319",
      "address": "POL. USILA. CALLE 1, Nº 8, NAVE 13",
      "location": {
        "postalCode": "48490",
        "municipality": "Ugao-Miraballes",
        "county": "Bizkaia",
        "municipalityId": "065",
        "countyId": "48"
      },
      "economicActivities": [
        {
          "id": "1.501.1",
          "name": "Construcción completa, reparación y conservación de edificaciones",
          "_links": {
            "self": {
              "name": "Construcción completa, reparación y conservación de edificaciones",
              "href": "https://api.euskadi.eus/procurements/companies/economic-activities/1.501.1"
            }
          }
        },
        {
          "id": "1.501.2",
          "name": "Construcción completa, reparación y conservación obras civiles",
          "_links": {
            "self": {
              "name": "Construcción completa, reparación y conservación obras civiles",
              "href": "https://api.euskadi.eus/procurements/companies/economic-activities/1.501.2"
            }
          }
        }
      ],
      "certificateStartDate": "2010-12-01",
      "certificateEndDate": "2011-05-02",
      "object": "LA CONSTRUCCIÓN, REPARACIÓN Y CONSERVACIÓN DE BIENES INMUEBLES, ASÍ COMO REALIZACIÓN DE OBRAS Y CONSTRUCCIONES DE TODO TIPO, PÚBLICAS Y PRIVADAS, BIEN POR EJECUCIÓN DIRECTA O POR CONTRATA, TANTO PARA SU APROVECHAMIENTO PROPIO COMO PARA SU COMERCIALIZACIÓN Y VENTA",
      "mainEntityOfPage": "https://www.contratacion.euskadi.eus/webkpe00-kperoc/es/ac71aBusquedaRegistrosWar/empresa/03805",
      "_links": {
        "self": {
          "name": "AZKA 2002, S.L.",
          "href": "https://api.euskadi.eus/procurements/companies/03805"
        }
      }
    },
    {
      "name": "G.T.S. ELECTRÓNICA, S.L.",
      "registrationNumber": "04531",
      "identificationNumber": "B80773112",
      "address": "DOCTOR SEVERO OCHOA 41, NAVE D",
      "location": {
        "postalCode": "28100",
        "municipality": "Alcobendas",
        "county": "Madrid",
        "municipalityId": "006",
        "countyId": "28"
      },
      "economicActivities": [
        {
          "id": "1.501.1",
          "name": "Construcción completa, reparación y conservación de edificaciones",
          "_links": {
            "self": {
              "name": "Construcción completa, reparación y conservación de edificaciones",
              "href": "https://api.euskadi.eus/procurements/companies/economic-activities/1.501.1"
            }
          }
        },
        {
          "id": "1.504.1",
          "name": "Instalaciones eléctricas en general",
          "_links": {
            "self": {
              "name": "Instalaciones eléctricas en general",
              "href": "https://api.euskadi.eus/procurements/companies/economic-activities/1.504.1"
            }
          }
        }
      ],
      "certificateStartDate": "2010-12-01",
      "certificateEndDate": "2011-04-27",
      "object": "A).- LA INSTALACIÓN, MANTENIMIENTO Y EXPLOTACIÓN DE GALERÍAS DE TIRO.\r\n\r\nB).- LA INSTALACIÓN Y MANTENIMIENTO DE APARATOS, DISPOSITIVOS Y SISTEMAS DE SEGURIDAD MEDIANTE LA FABRICACIÓN, DESARROLLO, COMERCIALIZACIÓN Y MANTENIMIENTO DE APARATOS Y SISTEMAS DE SEGURIDAD, EN PARTICULAR, MEDIANTE LA INSTALACIÓN Y MANTENIMIENTO DE SISTEMAS FÍSICOS, ELECTRÓNICOS, VISUALES, ACÚSTICOS O INSTRUMENTALES DE VIGILANCIA Y PROTECCIÓN, Y ESPECIALMENTE CON LA CONEXIÓN A CENTROS DE RECEPCIÓN Y ALARMA.\r\n\r\nC).- EXPLOTACIÓN DE CENTRALES PARA LA RECEPCIÓN, VERIFICACIÓN Y TRANSMISIÓN DE LAS SEÑALES DE ALARMA Y SU COMUNICACIÓN A LAS FUERZAS Y CUERPOS DE SEGURIDAD, ASÍ COMO LA PRESTACIÓN DE SERVICIOS DE RESPUESTA CUYA REALIZACIÓN NO SEA DE LA COMPETENCIA DE DICHAS FUERZAS Y CUERPOS.\r\n\r\n",
      "mainEntityOfPage": "https://www.contratacion.euskadi.eus/webkpe00-kperoc/es/ac71aBusquedaRegistrosWar/empresa/04531",
      "_links": {
        "self": {
          "name": "G.T.S. ELECTRÓNICA, S.L.",
          "href": "https://api.euskadi.eus/procurements/companies/04531"
        }
      }
    },
    {
      "name": "URBANISTI ARABA, S.L.",
      "registrationNumber": "03993",
      "identificationNumber": "B01405497",
      "address": "LA ESTACIÓN, S/N. ALBENIZ",
      "location": {
        "postalCode": "01208",
        "municipality": "Asparrena",
        "county": "Araba/Álava",
        "municipalityId": "009",
        "countyId": "01"
      },
      "economicActivities": [
        {
          "id": "1.501.3",
          "name": "Albañilería y pequeños trabajos de construcción en general",
          "_links": {
            "self": {
              "name": "Albañilería y pequeños trabajos de construcción en general",
              "href": "https://api.euskadi.eus/procurements/companies/economic-activities/1.501.3"
            }
          }
        }
      ],
      "certificateStartDate": "2010-11-29",
      "certificateEndDate": "2011-05-11",
      "object": "LA ADQUISICIÓN Y ENAJENACIÓN DE BIENES INMUEBLES. LA CONSTRUCCIÓN, PROMOCIÓN, ADMINISTRACIÓN, URBANIZACIÓN Y PARCELACÓN DE TERRENOS, EDIFICIOS, VIVIENDAS, LOCALES, INSTALACIONES INDUSTRIALES Y COMERCIALES Y TODA CLASE DE OBRAS",
      "mainEntityOfPage": "https://www.contratacion.euskadi.eus/webkpe00-kperoc/es/ac71aBusquedaRegistrosWar/empresa/03993",
      "_links": {
        "self": {
          "name": "URBANISTI ARABA, S.L.",
          "href": "https://api.euskadi.eus/procurements/companies/03993"
        }
      }
    },
    {
      "name": "EXCAVACIONES SUBIDE, S.L.",
      "registrationNumber": "02980",
      "identificationNumber": "B48721443",
      "address": "Plentzia Bidea, 13-Nave, 3. Dpto. B",
      "location": {
        "postalCode": "48100",
        "municipality": "Mungia",
        "county": "Bizkaia",
        "municipalityId": "069",
        "countyId": "48"
      },
      "economicActivities": [
        {
          "id": "1.501.1",
          "name": "Construcción completa, reparación y conservación de edificaciones",
          "_links": {
            "self": {
              "name": "Construcción completa, reparación y conservación de edificaciones",
              "href": "https://api.euskadi.eus/procurements/companies/economic-activities/1.501.1"
            }
          }
        },
        {
          "id": "1.501.2",
          "name": "Construcción completa, reparación y conservación obras civiles",
          "_links": {
            "self": {
              "name": "Construcción completa, reparación y conservación obras civiles",
              "href": "https://api.euskadi.eus/procurements/companies/economic-activities/1.501.2"
            }
          }
        },
        {
          "id": "1.502.2",
          "name": "Consolidación y preparación de terrenos para la construcción de edificaciones",
          "_links": {
            "self": {
              "name": "Consolidación y preparación de terrenos para la construcción de edificaciones",
              "href": "https://api.euskadi.eus/procurements/companies/economic-activities/1.502.2"
            }
          }
        },
        {
          "id": "1.504.2",
          "name": "Instalaciones de fontanería",
          "_links": {
            "self": {
              "name": "Instalaciones de fontanería",
              "href": "https://api.euskadi.eus/procurements/companies/economic-activities/1.504.2"
            }
          }
        },
        {
          "id": "1.852",
          "name": "Alquiler de maquinaria y equipo para la construcción",
          "_links": {
            "self": {
              "name": "Alquiler de maquinaria y equipo para la construcción",
              "href": "https://api.euskadi.eus/procurements/companies/economic-activities/1.852"
            }
          }
        }
      ],
      "certificateStartDate": "2010-11-25",
      "certificateEndDate": "2011-04-27",
      "object": "A) EXCAVACIONES Y TRANSPORTE DE MERCANCÍAS, AGENCIA DE MERCANCÍAS TANTO DE CARGA COMPLETA COMO FRACCIONADA, ALMACENAJE Y DISTRIBUCIÓN DE LOS MISMOS, SERVICIO DE REPARACIÓN Y MANTENIMIENTO DE VEHÍCULOS, TANTO PROPIO COMO AJENOS.\nB) LA PROMOCIÓN Y EJECUCIÓN COMPLETA O POR RAMOS DE TODA CLASE DE OBRAS DE CONSTRUCCIÓN, URBANIZACIÓN Y SERVICIOS, REPARACIÓN Y CONSERVACIÓN",
      "mainEntityOfPage": "https://www.contratacion.euskadi.eus/webkpe00-kperoc/es/ac71aBusquedaRegistrosWar/empresa/02980",
      "_links": {
        "self": {
          "name": "EXCAVACIONES SUBIDE, S.L.",
          "href": "https://api.euskadi.eus/procurements/companies/02980"
        }
      }
    },
    {
      "name": "CAPGEMINI, S.L.U.",
      "registrationNumber": "04526",
      "identificationNumber": "B08377715",
      "address": "C/ ANABEL SEGURA, 14",
      "location": {
        "postalCode": "28108",
        "municipality": "Alcobendas",
        "county": "Madrid",
        "municipalityId": "006",
        "countyId": "28"
      },
      "economicActivities": [
        {
          "id": "1.845",
          "name": "Explotación electrónica por cuenta de terceros",
          "_links": {
            "self": {
              "name": "Explotación electrónica por cuenta de terceros",
              "href": "https://api.euskadi.eus/procurements/companies/economic-activities/1.845"
            }
          }
        }
      ],
      "certificateStartDate": "2010-11-23",
      "certificateEndDate": "2011-03-30",
      "object": "A) PROPORCIONAR A LAS EMPRESAS PÚBLICAS Y PRIVADAS O A LOS PARTICULARES, ASISTENCIA Y SERVICIOS TÉCNICOS EN EL TERRENO DE LA INFORMÁTICA EN GENERAL; EFECTUAR TODA CLASE DE ESTUDIOS Y TRABAJOS DE ANÁLISIS Y PROGRAMACIÓN; ELABORAR CUALESQUIERA PROYECTOS DE INSTALACIONES Y FUNCIONAMIENTO DE ORDENADORES Y SISTEMAS DE INFORMÁTICA, PROPORCIONANDO O NO LOS APARATOS Y ENSERES NECESARIOS POR VENTA, ALQUILER O CUALESQUIERA OTRO NEGOCIO JURÍDICO; ORGANIZAR Y PROGRAMAR CIRCUITOS; FORMAR, PROPORCIONAR Y SELECCIONAR AGENTES, OPERARIOS Y PERSONAL PARA EL SERVICIO DE LOS CLIENTES EN LAS OPERACIONES MENCIONADAS; EXPLOTAR POR SÍ MISMA O EN PARTICIPACIÓN CONJUNTOS INFORMÁTICOS PARA EL USO INTERNO O COMERCIAL; ACTUAR COMO OFICINA DE SERVICIOS, DIRECTAMENTE O COMO INTERMEDIARIA, SOBRE TODO TIPO DE ORDENADORES; PROYECTAR, REALIZAR Y COMERCIALIZAR CURSOS TÉCNICOS U OTRAS FORMAS DE EDUCACIÓN PARA INSTRUCCIÓN DE PERSONAL, RECICLAJE E INFORMACIÓN; REUNIR, DIFUNDIR Y PUBLICAR TODO GÉNERO DE TEXTOS, DOCUMENTACIÓN, MATERIALES E INFORMACIÓN DE ORDEN CIENTÍFICO, TÉCNICO O PRÁCTICO EN MATERIA DE INFORMÁTICA; ESTUDIAR Y ELABORAR INFORMES, ESTUDIOS, PLANES , ANTEPROYECTOS, PROYECTOS DE CARÁCTER TÉCNICO, ORGANIZATIVO, ECONÓMICO SOCIAL, ASÍ COMO LA DIRECCIÓN, SUPERVISIÓN, CONTROL DE MANTENIMIENTO DE INSTALACIONES Y DE LA IMPLANTACIÓN DE SISTEMAS ORGANIZATIVOS. B) LA PRESTACIÓN DE SERVICIOS DE ASESORAMIENTO Y CONSULTORÍA SOBRE PLANIFICAICÓN ESTRATÉGICA Y ADAPTACIÓN AL CAMBIO TECNOLÓGICO, ASÍ COMO DE PLANIFICACIÓN DE LA GESTIÓN Y ORGANIZACIÓN DE EMPRESAS. C) ASISTIR EN LA GESTIÓN Y DESARROLLO DE EMPRESAS, PRESTAR SERVICIOS TÉCNICOS, U ASESORAR EN LAS TECNOLOGÍAS DE LA INFORMACIÓN Y, EN PARTICULAR, EN LOS SECTORES DE LAS TELECOMUNICACIONES, MEDIOS DE COMUNICACIÓN (MEDIA) Y REDES DE COMUNICACIÓN (NETWORK); DISEÑAR Y SUMINISTRAR SISTEMAS Y CONJUNTOS INFORMÁTICOS, DESARROLLO ESPECÍFICO DE SOFTWARE, ENTREGA DE APLICACIONES DE INFORMACIÓN TECNOLÓGICA BASADA EN LOS PRODUCTOS DE SOFTWARE (SUMINISTRADOS POR TERCERAS PERSONAS O PERTENECIENTES A LA SOCIEDAD), INTEGRACIÓN DE SISTEMAS DE HARDWARE, CANALES DE COMUNICACIÓN, SOFTWARE ESPECÍFICO, REDES DE COMUNICACIÓN Y OTROS PRODUCTOS, ETC..",
      "mainEntityOfPage": "https://www.contratacion.euskadi.eus/webkpe00-kperoc/es/ac71aBusquedaRegistrosWar/empresa/04526",
      "_links": {
        "self": {
          "name": "CAPGEMINI, S.L.U.",
          "href": "https://api.euskadi.eus/procurements/companies/04526"
        }
      }
    },
    {
      "name": "INIKER NET SOLUTIONS, S.A.",
      "registrationNumber": "02281",
      "identificationNumber": "A20676490",
      "address": "P.E.ZUATZU. C/FRANCISCO GRANDMONTAGNE 1.ED.ZURRIOLA 2º-L. 1",
      "location": {
        "postalCode": "20018",
        "municipality": "Donostia / San Sebastián",
        "county": "Gipuzkoa",
        "municipalityId": "069",
        "countyId": "20"
      },
      "economicActivities": [
        {
          "id": "1.845",
          "name": "Explotación electrónica por cuenta de terceros",
          "_links": {
            "self": {
              "name": "Explotación electrónica por cuenta de terceros",
              "href": "https://api.euskadi.eus/procurements/companies/economic-activities/1.845"
            }
          }
        }
      ],
      "certificateStartDate": "2010-11-22",
      "certificateEndDate": "2011-04-15",
      "object": "LA PRESTACIÓN DE SERVICIOS INFORMÁTICOS A TERCEROS. EL DESARROLLO Y ASESORAMIENTO EN EL SOFTWARE DE GESTIÓN EMPRESARIAL, ABARCANDO TODAS LAS TRANSACCIONES COMERCIALES QUE LA EMPRESA REALICE, TOMANDO COMO BASE LA TECNOLOGÍA INTERNET. ",
      "mainEntityOfPage": "https://www.contratacion.euskadi.eus/webkpe00-kperoc/es/ac71aBusquedaRegistrosWar/empresa/02281",
      "_links": {
        "self": {
          "name": "INIKER NET SOLUTIONS, S.A.",
          "href": "https://api.euskadi.eus/procurements/companies/02281"
        }
      }
    },
    {
      "name": "DIAGNISCAN, S.A.",
      "registrationNumber": "00576",
      "identificationNumber": "A08438731",
      "address": "C/ VILADOMAT, Nº 162.",
      "location": {
        "postalCode": "08015",
        "municipality": "Barcelona",
        "county": "Barcelona",
        "municipalityId": "019",
        "countyId": "08"
      },
      "economicActivities": [
        {
          "id": "1.619.2",
          "name": "Venta al por mayor de aparatos e instrumentos médicos, ortopédicos, ópticos",
          "_links": {
            "self": {
              "name": "Venta al por mayor de aparatos e instrumentos médicos, ortopédicos, ópticos",
              "href": "https://api.euskadi.eus/procurements/companies/economic-activities/1.619.2"
            }
          }
        }
      ],
      "certificateStartDate": "2010-11-19",
      "certificateEndDate": "2011-05-03",
      "object": "A) EL DISEÑO, FABRICACIÓN, COMERCIALIZACIÓN, IMPORTACIÓN, EXPORTACIÓN, CONSERVACIÓN, REPARACIÓN, MONTAJE E INSTALACIÓN DE: TODO TIPO DE APARATOS, EQUIPOS ACCESORIOS Y COMPLEMENTOS, ASÍ COMO MATERIALES Y PRODUCTOS DE USO HOSPITALARIO, DE INVESTIGACIÓN, LABORATORIO Y/O ELECTROMEDICINA. SISTEMAS DE AUTOMATIZACIÓN (ROBOTIZACIÓN). SISTEMAS INFORMÁTICOS Y PROGRAMAS DE LABORATORIO Y DE HOSPITAL, CERRADOS  Y A MEDIDA, ASÍ COMO DE SUS PERIFÉRICOS. B) LA REPRESENTACIÓN EN ESPAÑA DE FIRMAS NACIONALES Y EXTRANJERAS. C) EL ENVASADO Y PREPARACIÓN DE REACTIVOS QUÍMICOS",
      "mainEntityOfPage": "https://www.contratacion.euskadi.eus/webkpe00-kperoc/es/ac71aBusquedaRegistrosWar/empresa/00576",
      "_links": {
        "self": {
          "name": "DIAGNISCAN, S.A.",
          "href": "https://api.euskadi.eus/procurements/companies/00576"
        }
      }
    },
    {
      "name": "PROYECTOS Y DIRECCIONES TÉCNICAS URA, S.A.",
      "registrationNumber": "01898",
      "identificationNumber": "A78517984",
      "address": "C/ MAURICIO LEGENDRE, 31 ",
      "location": {
        "postalCode": "28046",
        "municipality": "Madrid",
        "county": "Madrid",
        "municipalityId": "079",
        "countyId": "28"
      },
      "economicActivities": [
        {
          "id": "1.843.1",
          "name": "Servicios técnicos de ingeniería",
          "_links": {
            "self": {
              "name": "Servicios técnicos de ingeniería",
              "href": "https://api.euskadi.eus/procurements/companies/economic-activities/1.843.1"
            }
          }
        }
      ],
      "certificateStartDate": "2010-11-19",
      "certificateEndDate": "2011-05-04",
      "object": "LA REALIZACIÓN DE PROYECTOS Y DIRECCIÓN TÉCNICA Y ASISTENCIA EN EL CAMPO DE LA INGENIERÍA",
      "mainEntityOfPage": "https://www.contratacion.euskadi.eus/webkpe00-kperoc/es/ac71aBusquedaRegistrosWar/empresa/01898",
      "_links": {
        "self": {
          "name": "PROYECTOS Y DIRECCIONES TÉCNICAS URA, S.A.",
          "href": "https://api.euskadi.eus/procurements/companies/01898"
        }
      }
    }
  ]
}