{
  "totalItems": 9042,
  "totalPages": 905,
  "currentPage": 145,
  "itemsOfPage": 10,
  "items": [
    {
      "name": "TUBOSTUDIO, S.L.",
      "registrationNumber": "04868",
      "identificationNumber": "B20910998",
      "address": "C/Xarlengo nº 18",
      "location": {
        "postalCode": "20305",
        "municipality": "Irun",
        "county": "Gipuzkoa",
        "municipalityId": "045",
        "countyId": "20"
      },
      "economicActivities": [
        {
          "id": "1.843.9",
          "name": "Otros servicios técnicos n.c.o.p",
          "_links": {
            "self": {
              "name": "Otros servicios técnicos n.c.o.p",
              "href": "https://api.euskadi.eus/procurements/companies/economic-activities/1.843.9"
            }
          }
        },
        {
          "id": "1.921.1",
          "name": "Servicios de limpieza en calles, vías públicas y jardines",
          "_links": {
            "self": {
              "name": "Servicios de limpieza en calles, vías públicas y jardines",
              "href": "https://api.euskadi.eus/procurements/companies/economic-activities/1.921.1"
            }
          }
        },
        {
          "id": "1.922.2",
          "name": "Servicios especializados de limpiezas (cristales, chimeneas)",
          "_links": {
            "self": {
              "name": "Servicios especializados de limpiezas (cristales, chimeneas)",
              "href": "https://api.euskadi.eus/procurements/companies/economic-activities/1.922.2"
            }
          }
        }
      ],
      "certificateStartDate": "2025-11-21",
      "certificateEndDate": "2026-05-10",
      "object": "LA INGENIERÍA Y ESTUDIO DE LA INSTALACIÓN,  MANTENIMIENTO Y REPARACIÓN DE TODO TIPO  DE TUBERÍAS, ASÍ COMO DE TODAS LAS TAREAS ANEXAS NECESARIAS PARA SU BUEN FUNCIONAMIENTO,  INCLUIDAS LA FORMACIÓN DE INSTALADORES Y EL SUMINISTRO DE LOS MATERIALES NECESARIOS",
      "mainEntityOfPage": "https://www.contratacion.euskadi.eus/webkpe00-kperoc/es/ac71aBusquedaRegistrosWar/empresa/04868",
      "_links": {
        "self": {
          "name": "TUBOSTUDIO, S.L.",
          "href": "https://api.euskadi.eus/procurements/companies/04868"
        }
      }
    },
    {
      "name": "COPROLINOR, S.L.",
      "registrationNumber": "01693",
      "identificationNumber": "B48501282",
      "address": "Polígono Industrial La Tejera. Pabellón nº 3 C y D",
      "location": {
        "postalCode": "48460",
        "municipality": "Urduña/Orduña",
        "county": "Bizkaia",
        "municipalityId": "074",
        "countyId": "48"
      },
      "economicActivities": [
        {
          "id": "1.614.2",
          "name": "Venta al por mayor de productos de perfumería, droguería, higiene y belleza",
          "_links": {
            "self": {
              "name": "Venta al por mayor de productos de perfumería, droguería, higiene y belleza",
              "href": "https://api.euskadi.eus/procurements/companies/economic-activities/1.614.2"
            }
          }
        },
        {
          "id": "1.652.2",
          "name": "Venta al por menor de productos de droguería y productos para decoración",
          "_links": {
            "self": {
              "name": "Venta al por menor de productos de droguería y productos para decoración",
              "href": "https://api.euskadi.eus/procurements/companies/economic-activities/1.652.2"
            }
          }
        }
      ],
      "certificateStartDate": "2025-11-21",
      "certificateEndDate": "2026-04-15",
      "object": "LA COMPRA-VENTA, AL POR MAYOR O MENOR, LA FABRICACIÓN, IMPORTACIÓN, EXPORTACIÓN, DISTRIBUCIÓN, REPRESENTACIÓN ALMACENAMIENTO Y COMERCIALIZACIÓN, POR CUENTA PROPIA O DE TERCEROS, DE TODA CLASE DE PRODUCTOS Y ARTÍCULOS DE LIMPIEZA Y ACCESORIOS, MAQUINARIA, EQUIPOS, REPUESTOS, LÍQUIDOS Y CELULOSAS PARA LA INDUSTRIA Y EL HOGAR. LA DESINFECCIÓN, DESRATIZACIÓN Y DESINSECTACIÓN, EN TODA CLASE DE LOCALES, COMERCIALES O INDUSTRIALES Y VIVIENDAS",
      "mainEntityOfPage": "https://www.contratacion.euskadi.eus/webkpe00-kperoc/es/ac71aBusquedaRegistrosWar/empresa/01693",
      "_links": {
        "self": {
          "name": "COPROLINOR, S.L.",
          "href": "https://api.euskadi.eus/procurements/companies/01693"
        }
      }
    },
    {
      "name": "NETTARO CONSULTING, S.L.",
      "registrationNumber": "07328",
      "identificationNumber": "B86555265",
      "address": "Calle Cidro 2, Planta 2, Oficina 3",
      "location": {
        "postalCode": "28044",
        "municipality": "Madrid",
        "county": "Madrid",
        "municipalityId": "079",
        "countyId": "28"
      },
      "economicActivities": [
        {
          "id": "1.843.9",
          "name": "Otros servicios técnicos n.c.o.p",
          "_links": {
            "self": {
              "name": "Otros servicios técnicos n.c.o.p",
              "href": "https://api.euskadi.eus/procurements/companies/economic-activities/1.843.9"
            }
          }
        },
        {
          "id": "1.845",
          "name": "Explotación electrónica por cuenta de terceros",
          "_links": {
            "self": {
              "name": "Explotación electrónica por cuenta de terceros",
              "href": "https://api.euskadi.eus/procurements/companies/economic-activities/1.845"
            }
          }
        }
      ],
      "certificateStartDate": "2025-11-21",
      "certificateEndDate": "2026-05-20",
      "object": "- COMERCIO AL POR MAYOR Y AL POR MENOR. DISTRIBUCIÓN COMERCIAL. IMPORTACIÓN Y EXPORTACIÓN.- ACTIVIDADES PROFESIONALES. - PRESTACIÓN DE SERVICIOS. ACTIVIDADES DE GESTIÓN Y ADMINISTRACIÓN. SERVICIOS EDUCATIVOS, SANITARIOS, DE OCIO Y ENTRETENIMIENTO. - INFORMACIÓN Y COMUNICACIONES. - INFORMÁTICA, TELECOMUNICACIONES Y OFIMÁTICA. - ENERGIAS ALTERNATIVAS. - INVESTIGACIÓN, DESARROLLO E INNOVACIÓN. - ACTIVIDADES CIENTÍFICAS Y TÉCNICAS",
      "mainEntityOfPage": "https://www.contratacion.euskadi.eus/webkpe00-kperoc/es/ac71aBusquedaRegistrosWar/empresa/07328",
      "_links": {
        "self": {
          "name": "NETTARO CONSULTING, S.L.",
          "href": "https://api.euskadi.eus/procurements/companies/07328"
        }
      }
    },
    {
      "name": "AON IBERIA CORREDURÍA DE SEGUROS Y REASEGUROS, S.A.",
      "registrationNumber": "03265",
      "identificationNumber": "A28109247",
      "address": "C/ Velázquez, 86D",
      "location": {
        "postalCode": "28006",
        "municipality": "Madrid",
        "county": "Madrid",
        "municipalityId": "079",
        "countyId": "28"
      },
      "economicActivities": [
        {
          "id": "1.832.1",
          "name": "Agencias de seguros y corredurías de seguros",
          "_links": {
            "self": {
              "name": "Agencias de seguros y corredurías de seguros",
              "href": "https://api.euskadi.eus/procurements/companies/economic-activities/1.832.1"
            }
          }
        },
        {
          "id": "1.842",
          "name": "Servicios financieros y contables",
          "_links": {
            "self": {
              "name": "Servicios financieros y contables",
              "href": "https://api.euskadi.eus/procurements/companies/economic-activities/1.842"
            }
          }
        }
      ],
      "certificateStartDate": "2025-11-21",
      "certificateEndDate": "2026-05-14",
      "object": "LA CORREDURIA DE SEGUROS, MEDIANDO ENTRE ASEGURADORES Y ASEGURADOS POR LA CONTRATACIÓN DE TODA CLASE DE RIESGOS ASEGURABLES, POR ENTIDADES O COMPAÑÍAS ASEGURADORAS LEGALMENTE ESTABLECIDAS, Y, EN CONSECUENCIA, SERÁN OBJETO DE SU MEDIACIÓN LOS SEGUROS DE RIESGO MARÍTIMO Y TERRESTRE, INCENDIOS, ACCIDENTES, VIDA, ETC. Y CUANTAS COMBINACIONES Y CLASES DE SEGUROS SEAN ADMITIDOS EN LA LEGISLACIÓN EN CADA MOMENTO VIGENTE, PODRÁ ASIMISMO, FACILITAR A LOS ASEGURADOS Y A LAS ENTIDADES ASEGURADORAS CUANTOS INFORMES Y ASESORAMIENTOS SEAN PRECISOS PARA LA DEFENSA DE SUS INTERESES, TANTO EN LO QUE SE REFIERE AL ESTUDIO DE RIESGOS ASEGURABLES COMO AL ESTUDIO DE LOS RIESGOS ASEGURABLES COMO AL ESTUDIO DE LOS SINIESTROS HASTA SU LIQUIDACIÓN, TODO ELLO, CON SUJECIÓN A LO DISPUESTO EN LA LEY 30/1995 DE 8 DE NOVIEMBRE, SOBRE ORDENACÓN Y SUPERVISIÓN DE LOS SEGUROS PRIVADOS, EN LA LEY 9/1992, DE 30 DE ABRIL, DE MEDIACIÓN DE SEGUROS PRIVADOS Y DEMÁS DISPOSICIONES LEGALES QUE REGULEN O PUEDAN REGULAR LA ACTIVIDAD. TAMBIÉN PODRÁ REALIZAR ACTIVIDADES DE CONSULTORÍA Y ASESORAMIENTO EN MATERIA DE SEGUROS.",
      "mainEntityOfPage": "https://www.contratacion.euskadi.eus/webkpe00-kperoc/es/ac71aBusquedaRegistrosWar/empresa/03265",
      "_links": {
        "self": {
          "name": "AON IBERIA CORREDURÍA DE SEGUROS Y REASEGUROS, S.A.",
          "href": "https://api.euskadi.eus/procurements/companies/03265"
        }
      }
    },
    {
      "name": "PUNTODIS, ACCESIBLE SOLULTIONS IN SIG-WRITTING, S.L.",
      "registrationNumber": "03149",
      "identificationNumber": "B95341178",
      "address": "POLIGONO IGELTZERA, PABELLÓN B4",
      "location": {
        "postalCode": "48610",
        "municipality": "Urduliz",
        "county": "Bizkaia",
        "municipalityId": "089",
        "countyId": "48"
      },
      "economicActivities": [
        {
          "id": "1.316.9",
          "name": "Fabricación de otros artículos acabados en metales n.c.o.p",
          "_links": {
            "self": {
              "name": "Fabricación de otros artículos acabados en metales n.c.o.p",
              "href": "https://api.euskadi.eus/procurements/companies/economic-activities/1.316.9"
            }
          }
        },
        {
          "id": "1.653.4",
          "name": "Venta al por menor de material de construcción y mobiliario de saneamiento",
          "_links": {
            "self": {
              "name": "Venta al por menor de material de construcción y mobiliario de saneamiento",
              "href": "https://api.euskadi.eus/procurements/companies/economic-activities/1.653.4"
            }
          }
        },
        {
          "id": "1.845",
          "name": "Explotación electrónica por cuenta de terceros",
          "_links": {
            "self": {
              "name": "Explotación electrónica por cuenta de terceros",
              "href": "https://api.euskadi.eus/procurements/companies/economic-activities/1.845"
            }
          }
        },
        {
          "id": "1.847",
          "name": "Servicios de consultoría",
          "_links": {
            "self": {
              "name": "Servicios de consultoría",
              "href": "https://api.euskadi.eus/procurements/companies/economic-activities/1.847"
            }
          }
        },
        {
          "id": "1.934",
          "name": "Enseñanza fuera de establecimiento permanente",
          "_links": {
            "self": {
              "name": "Enseñanza fuera de establecimiento permanente",
              "href": "https://api.euskadi.eus/procurements/companies/economic-activities/1.934"
            }
          }
        },
        {
          "id": "1.989.2",
          "name": "Servicios de organización de congresos, asambleas y similares",
          "_links": {
            "self": {
              "name": "Servicios de organización de congresos, asambleas y similares",
              "href": "https://api.euskadi.eus/procurements/companies/economic-activities/1.989.2"
            }
          }
        }
      ],
      "certificateStartDate": "2025-11-21",
      "certificateEndDate": "2026-05-13",
      "object": "EL DISEÑO, FABRICACIÓN Y COMERCIALIZACIÓN DE TODO TIPO DE PRODUCTOS RELACIONADOS CON LA ACCESIBILIDAD.\r\nSEÑALIZACIÓN BRAILLE, SEÑALIZACIÓN DE EMERGENCIA Y SEÑALIZACIÓN INFORMATIVA. DISEÑO, FABRICACIÓN Y DISTRIBUCIÓN DE SEÑALÉTICA ACCESIBLE. NONTAJE Y DESMONTAJE DE ELEMENTOS PREFABRICADOS. DESARROLLO DE PRODUCTOS Y SERVICIOS DE TECNOLOGÍAS DE LA INFORMACIÓN Y LA COMUNICACIÓN LIGADOS A LA ACCESIBILIDAD\r\n",
      "mainEntityOfPage": "https://www.contratacion.euskadi.eus/webkpe00-kperoc/es/ac71aBusquedaRegistrosWar/empresa/03149",
      "_links": {
        "self": {
          "name": "PUNTODIS, ACCESIBLE SOLULTIONS IN SIG-WRITTING, S.L.",
          "href": "https://api.euskadi.eus/procurements/companies/03149"
        }
      }
    },
    {
      "name": "LYRECO ESPAÑA, S.A.",
      "registrationNumber": "04415",
      "identificationNumber": "A79206223",
      "address": "CTRA. HOSPITALET 147-149",
      "location": {
        "postalCode": "08940",
        "municipality": "Cornellà de Llobregat",
        "county": "Barcelona",
        "municipalityId": "073",
        "countyId": "08"
      },
      "economicActivities": [
        {
          "id": "1.612.9",
          "name": "Venta al por mayor de otros productos alimenticios, helados de todas clases",
          "_links": {
            "self": {
              "name": "Venta al por mayor de otros productos alimenticios, helados de todas clases",
              "href": "https://api.euskadi.eus/procurements/companies/economic-activities/1.612.9"
            }
          }
        },
        {
          "id": "1.613.1",
          "name": "Venta al por mayor de productos textiles, confección calzado y artículos cuero",
          "_links": {
            "self": {
              "name": "Venta al por mayor de productos textiles, confección calzado y artículos cuero",
              "href": "https://api.euskadi.eus/procurements/companies/economic-activities/1.613.1"
            }
          }
        },
        {
          "id": "1.614.2",
          "name": "Venta al por mayor de productos de perfumería, droguería, higiene y belleza",
          "_links": {
            "self": {
              "name": "Venta al por mayor de productos de perfumería, droguería, higiene y belleza",
              "href": "https://api.euskadi.eus/procurements/companies/economic-activities/1.614.2"
            }
          }
        },
        {
          "id": "1.617.8",
          "name": "Venta al por mayor de máquinas y material de oficina",
          "_links": {
            "self": {
              "name": "Venta al por mayor de máquinas y material de oficina",
              "href": "https://api.euskadi.eus/procurements/companies/economic-activities/1.617.8"
            }
          }
        },
        {
          "id": "1.619.5",
          "name": "Venta al por mayor de artículos de papelería y escritorios",
          "_links": {
            "self": {
              "name": "Venta al por mayor de artículos de papelería y escritorios",
              "href": "https://api.euskadi.eus/procurements/companies/economic-activities/1.619.5"
            }
          }
        },
        {
          "id": "1.849.9",
          "name": "Otros servicios independientes n.c.o.p",
          "_links": {
            "self": {
              "name": "Otros servicios independientes n.c.o.p",
              "href": "https://api.euskadi.eus/procurements/companies/economic-activities/1.849.9"
            }
          }
        }
      ],
      "certificateStartDate": "2025-11-21",
      "certificateEndDate": "2026-05-08",
      "object": "PRESTACIÓN DE SERVICIOS PARA EL APROVISIONAMIENTO DE TODO TIPO DE PRODUCTOS RELACIONADOS CON EL ENTORNO LABORAL. NEGOCIO, TRANSFORMACIÓN, VENTA Y DISTRIBUCIÓN DE PAPELERÍA, MOBILIARIO DE OFICINA, OBJETOS DE ESCRITORIO, IMPRESOS, EMBALAJES, PRODUCTOS ADHESIVOS, ARTES GRÁFICAS Y CUALESQUIERA OTROS ARTÍCULOS DE CARACTERÍSTICAS SIMILARES, INCLUYENDO EQUIPOS INFORMÁTICOS, SU MANTENIMIENTO Y REPARACIÓN. DISTRIBUCIÓN Y VENTA DE TODO TIPO DE ROPA Y COMPLEMENTOS DE EQUIPAMIENTO LABORAL, INCLUIDO CALZADO, EQUIPOS DE PROTECCIÓN LABORAL Y DE PROTECCIÓN INDIVIDUALIZADA. COMERCIO DE PRODUCTOS DE PERFUMERÍA, CATERING E HIGIENE. SERVICIOS DE ALMACENAJE, TRANSPORTE, CARGA Y DESCARGA DE MERCANCÍA. LA REALIZACIÓN DE TODO TIPO DE ACTIVIDADES DE IMPORTACIÓN-EXPORTACIÓN RELACIONADAS CON LAS ACTIVIDADES ANTERIORES",
      "mainEntityOfPage": "https://www.contratacion.euskadi.eus/webkpe00-kperoc/es/ac71aBusquedaRegistrosWar/empresa/04415",
      "_links": {
        "self": {
          "name": "LYRECO ESPAÑA, S.A.",
          "href": "https://api.euskadi.eus/procurements/companies/04415"
        }
      }
    },
    {
      "name": "EDUCALIA OCIO EDUCATIVO, S.L.",
      "registrationNumber": "07872",
      "identificationNumber": "B95787123",
      "address": "LEHENDAKARI AGIRRE, 11 - 6º",
      "location": {
        "postalCode": "48014",
        "municipality": "Bilbao",
        "county": "Bizkaia",
        "municipalityId": "020",
        "countyId": "48"
      },
      "economicActivities": [
        {
          "id": "1.849.9",
          "name": "Otros servicios independientes n.c.o.p",
          "_links": {
            "self": {
              "name": "Otros servicios independientes n.c.o.p",
              "href": "https://api.euskadi.eus/procurements/companies/economic-activities/1.849.9"
            }
          }
        },
        {
          "id": "1.934",
          "name": "Enseñanza fuera de establecimiento permanente",
          "_links": {
            "self": {
              "name": "Enseñanza fuera de establecimiento permanente",
              "href": "https://api.euskadi.eus/procurements/companies/economic-activities/1.934"
            }
          }
        }
      ],
      "certificateStartDate": "2025-11-21",
      "certificateEndDate": "2026-05-20",
      "object": "ASESORAMIENTO, GESTIÓN, ORGANIZACIÓN, CONSULTORÍA, REALIZACIÓN Y DESARROLLO DE ACTIVIDADES DEPORTIVAS, TURÍSTICAS, EDUCATIVAS, DE OCIO, TIEMPO LIBRE, CULTURALES, ARTÍSTICAS Y DE COMUNICACIÓN, EN TODOS SUS CAMPOS, EXPRESIÓN Y DISCIPLINAS, TANTO PARA INSTITUCIONES PÚBLICAS COMO PRIVADAS, INCLUYENDO EL: ASESORAMIENTO, GESTIÓN, ORGANIZACIÓN, CONSULTORÍA, REALIZACIÓN Y DESARROLLO DE ACTIVIDADES EDUCATIVAS Y FORMATIVAS EN CENTROS EDUCATIVOS, COMEDORES ESCOLARES, COLONIAS URBANAS, DEPORTIVAS, CAMPUS DE IDIOMAS, ACTIVIDADES EXTRAESCOLARES CULTURALES, EDUCATIVAS, FORMATIVAS O DEPORTIVAS EN EL ÁMBITO ESCOLAR, MUNICIPAL, DE TIEMPO LIBRE, VOLUNTARIADO SOCIAL, ORGANIZACIÓN, PROMOCIÓN Y REALIZACIÓN DE ACTIVIDADES DE DEPORTE ESCOLAR, VIAJES CULTURALES, EDUCATIVOS, MEDIAMBIENTALES O DE NATURALEZA DIRIGIDA A LA COMUNIDAD EDUCATIVA TANTO PARA ORGANISMOS PÚBLICOS COMO PRIVADOS. ASESORAMIENTO, GESTIÓN, ORGANIZACIÓN, CONSULTORÍA, REALIZACIÓN Y DESARROLLO DE ACTIVIDADES DEPORTIVAS, CARRERAS, EVENTOS RELACIONADOS CON EL DEPORTE O LA PRACTICA DE ACTIVIDAD FÍSICA, GESTIÓN DE INSTALACIONES DEPORTIVAS, PISCINAS, POLIDEPORTIVOS, CANCHAS DEPORTIVAS, CONTROL DE ACCESO A INSTALACIONES, MANTENIMIENTO Y CONTROL, SUPERVISIÓN DE INSTALACIONES DEPORTIVAS O DE OCIO, LABORES DE JARDINERÍA Y CUIDADO DE EXTERIORES E INTERIORES, LIMPIEZA, MONITORADO, TANTO PARA INSTITUCIONES PÚBLICAS COMO PRIVADAS. ASESORAMIENTO, GESTIÓN, ORGANIZACIÓN, CONSULTORÍA, REALIZACIÓN Y DESARROLLO DE ACTIVIDADES RELACIONADAS CON LAS ACTIVIDADES TURÍSTICAS, LOS DEPORTES DE AVENTURA, ACTIVIDADES DE INTERPRETACIÓN DE LA NATURALEZA, ACOMPAÑAMIENTO Y GUIADO TURÍSTICO, ACTIVIDADES RELACIONADAS CON EL TURISMO ACTIVO, TURISMO CULTURAL Y DE NATURALEZA Y VIAJES. ORGANIZACIÓN Y ACOMPAÑAMIENTO EN VIAJES CULTURALES Y DE NATURALEZA. DESARROLLO Y PLANIFICACIÓN DE CAMPAÑAS Y PLANES ESTRATÉGICOS TURÍSTICOS Y CULTURALES. GESTIÓN, DINAMIZACIÓN Y ATENCIÓN AL PÚBLICO EN OFICINAS DE INFORMACIÓN TURÍSTICA, CENTRPS DE INTERPRETACIÓN, PARQUES NATURALES, PARQUES URBANOS Y PERIURBANOS, CENTROS DE ALQUILER O CESIÓN DE EQUIPAMIENTO TURÍSTICO Y DEPORTIVO TANTO PARA INSTITUCIONES PÚBLICAS COMO PRIVADAS. GESTIÓN, MANTENIMIENTO Y EXPLOTACIÓN DE ALBERGUES JUVENILES Y ALOJAMIENTOS ANÁLOGOS. ASESORAMIENTO, GESTIÓN, ORGANIZACIÓN, CONSULTORÍA, REALIZACIÓN Y DESARROLLO DE ACTIVIDADES RELACIONADAS CON EVENTOS CULTURALES, DEPORTIVOS O SOCIALES, CONCIERTOS, INSTALACIÓN DE CARPAS, ACTUACIONES DE TEATRO, ARTE URBANO, EXPOSICIONES, CAMPAÑAS DE DINAMIZACIÓN INFANTIL, JUVENIL Y DE ADULTOS EN INSTALACIONES PÚBLICAS O PRIVADAS. GESTIÓN, SERVICIO Y MANTENIMIENTO DE BIBLIOTECAS, ARCHIVOS, MUSEOS, CENTROS DE INTERPRETACIÓN, EXPOSICIONES, CASAS DE CULTURA, CINES, CENTROS CÍVICOS, TEATROS, ARCHIVOS, LUDOTECAS, LOCALES JUVENILES, OFICINAS DE INFORMACIÓN JUVENIL, SALAS DE CONCIERTOS, LOCALES DE ENSAYO TANTO PARA INSTITUCIONES PÚBLICAS COMO PRIVADAS. ASESORAMIENTO, GESTIÓN, ORGANIZACIÓN, CONSULTORÍA, REALIZACIÓN Y DESARROLLO DE ACTIVIDADES RELACIONADAS CON FERIAS, CONGRESOS, EXPOSICIONES, PROMOCIONES Y SERVICIOS DE PUBLICIDAD Y COMUNICACIÓN, CONCIERTOS, AUDICIONES, CONTRATACIÓN DE ARTISTAS, MÚSICOS, ESCULTORES Y OTRAS EXPRESIONES ARTÍSTICAS, PROMOCIÓN Y DIFUSIÓN DE SU OBRA, ORGANIZACIÓN DE GIRAS, CONCIERTOS Y EXPOSICIONES, INVESTIGACIÓN HISTÓRICA, GESTIÓN Y DIFUSIÓN DOCUMENTAL",
      "mainEntityOfPage": "https://www.contratacion.euskadi.eus/webkpe00-kperoc/es/ac71aBusquedaRegistrosWar/empresa/07872",
      "_links": {
        "self": {
          "name": "EDUCALIA OCIO EDUCATIVO, S.L.",
          "href": "https://api.euskadi.eus/procurements/companies/07872"
        }
      }
    },
    {
      "name": "CARPINTERIA METALICA LAN-LEKU, SOCIEDAD LIMITADA",
      "registrationNumber": "07407",
      "identificationNumber": "B48910814",
      "address": "POLIGONO TROBIKA, LARRAGANE BIDEA 4",
      "location": {
        "postalCode": "48100",
        "municipality": "Mungia",
        "county": "Bizkaia",
        "municipalityId": "069",
        "countyId": "48"
      },
      "economicActivities": [
        {
          "id": "1.314.1",
          "name": "Carpintería metálica",
          "_links": {
            "self": {
              "name": "Carpintería metálica",
              "href": "https://api.euskadi.eus/procurements/companies/economic-activities/1.314.1"
            }
          }
        },
        {
          "id": "1.505.5",
          "name": "Carpintería y cerrajería",
          "_links": {
            "self": {
              "name": "Carpintería y cerrajería",
              "href": "https://api.euskadi.eus/procurements/companies/economic-activities/1.505.5"
            }
          }
        }
      ],
      "certificateStartDate": "2025-11-21",
      "certificateEndDate": "2026-05-20",
      "classification": [
        {
          "id": "O",
          "name": "Obras",
          "groups": [
            {
              "id": "C",
              "name": "EDIFICACIONES",
              "subgroups": [
                {
                  "id": "09",
                  "name": "CARPINTERIA METALICA",
                  "categories": [
                    {
                      "id": "5",
                      "name": "Desde 2.400.001 Hasta 5.000.000",
                      "_links": {
                        "self": {
                          "name": "Desde 2.400.001 Hasta 5.000.000",
                          "href": "https://api.euskadi.eus/procurements/companies/types/O/categories/5"
                        }
                      }
                    }
                  ],
                  "_links": {
                    "self": {
                      "name": "CARPINTERIA METALICA",
                      "href": "https://api.euskadi.eus/procurements/companies/types/O/groups/C/subgroups/09"
                    }
                  }
                }
              ],
              "_links": {
                "self": {
                  "name": "EDIFICACIONES",
                  "href": "https://api.euskadi.eus/procurements/companies/types/O/groups/C"
                }
              }
            }
          ],
          "_links": {
            "self": {
              "name": "Obras",
              "href": "https://api.euskadi.eus/procurements/companies/types/O"
            }
          }
        }
      ],
      "object": "LA COMPRA, VENTA, IMPORTACIÓN, EXPORTACIÓN, DISTRIBUCIÓN, ALMACENAMIENTO, FABRICACIÓN, CONSTRUCCIÓN, MONTAJE, RESTAURACIÓN, INSTALACIÓN Y COMERCIALIZACIÓN DE ARTÍCULOS DE CARPINTERÍA METÁLICA Y EL FORRADO DE FACHADAS",
      "mainEntityOfPage": "https://www.contratacion.euskadi.eus/webkpe00-kperoc/es/ac71aBusquedaRegistrosWar/empresa/07407",
      "_links": {
        "self": {
          "name": "CARPINTERIA METALICA LAN-LEKU, SOCIEDAD LIMITADA",
          "href": "https://api.euskadi.eus/procurements/companies/07407"
        }
      }
    },
    {
      "name": "SERVICIOS AGRARIOS Y EXCAVACION ETXEBARRIA, S.L.",
      "registrationNumber": "08054",
      "identificationNumber": "B95251005",
      "address": "Barrio Igartua 39",
      "location": {
        "postalCode": "48110",
        "municipality": "Gatika",
        "county": "Bizkaia",
        "municipalityId": "040",
        "countyId": "48"
      },
      "economicActivities": [
        {
          "id": "1.502.3",
          "name": "Consolidación y preparación de terrenos para la realización de obras civiles",
          "_links": {
            "self": {
              "name": "Consolidación y preparación de terrenos para la realización de obras civiles",
              "href": "https://api.euskadi.eus/procurements/companies/economic-activities/1.502.3"
            }
          }
        }
      ],
      "certificateStartDate": "2025-11-21",
      "certificateEndDate": "2026-05-17",
      "object": "-SERVICIOS AGRARIOS CON MAQUINARIA, TALES COMO TRABAJOS CON TRACTOR, RIEGO, PREPARACIÓN DE LA TIERRA, REALIZACIÓN DE PISTAS Y CAMINOS. -SERVICIOS DE JARDINERÍA, PREPARACIÓN DE TIERRAS, CERRAMIENTO DE FINCAS, FABRICACIÓN Y VENTA DE SUBSTRATOS ORGÁNICOS, VENTA DE TIERRAS, RECICLAJE DE PRODUCTOS ORGÁNICOS. -EXCAVACIONES, CONSOLIDACIÓN Y PREPARACIÓN DE TERRENOS, TRANSPORTES DE MATERIALES DE TODO TIPO, DERRIBOS Y DEMOLICIONES, CONSTRUCCIÓN DE ESCOLLERAS, ENCOFRADOS, MUROS DE HORMIGÓN, CIMENTACIONES Y CUALQUIER ACTIVIDAD RELACIONADA CON LA CONSTRUCCIÓN DE OBRAS CIVILES O PARTICULARES. -LA ADQUISICIÓN Y ENAJENACIÓN, POR CUALQUIER TÍTULO, DE FINCAS RÚSTICAS Y URBANAS, YA SEAN TIERRAS, SOLARES Y EDIFICIOS, LA CONSTRUCCIÓN DE ÉSTOS, LA ADMINISTRACIÓN, TENENCIA, EXPLOTACIÓN Y ARRENDAMIENTO, YA SEA ACTIVO O PASIVO, DE TALES BIENES Y SU VENTA, TOTAL O PARCIAL, SEGÚN CONVENGA PARA SU APROVECHAMIENTO AGRÍCOLA, FORESTAL, URBANO, INDUSTRIAL O CUALQUIER OTRO, ASÍ COMO LA REALIZACIÓN DE TODO TIPO DE OBRAS Y REFORMAS. -LA COMPRAVENTA, IMPORTACIÓN Y EXPORTACIÓN DE TODA CLASE DE PRODUCTOS ALIMENTICIOS Y DE BEBIDAS, ASÍ COMO SU ELABORACIÓN, TRANSFORMACIÓN, FABRICACIÓN O DISTRIBUCIÓN.",
      "mainEntityOfPage": "https://www.contratacion.euskadi.eus/webkpe00-kperoc/es/ac71aBusquedaRegistrosWar/empresa/08054",
      "_links": {
        "self": {
          "name": "SERVICIOS AGRARIOS Y EXCAVACION ETXEBARRIA, S.L.",
          "href": "https://api.euskadi.eus/procurements/companies/08054"
        }
      }
    },
    {
      "name": "LABORATORIO ARAGÓ, S.L.",
      "registrationNumber": "04551",
      "identificationNumber": "B08651481",
      "address": "SALVADOR MUNDI 11",
      "location": {
        "postalCode": "08017",
        "municipality": "Barcelona",
        "county": "Barcelona",
        "municipalityId": "019",
        "countyId": "08"
      },
      "economicActivities": [
        {
          "id": "1.392.1",
          "name": "Fabricación de material médico-quirúrgico",
          "_links": {
            "self": {
              "name": "Fabricación de material médico-quirúrgico",
              "href": "https://api.euskadi.eus/procurements/companies/economic-activities/1.392.1"
            }
          }
        }
      ],
      "certificateStartDate": "2025-11-21",
      "certificateEndDate": "2026-05-19",
      "object": "LA FABRICACIÓN, COMERCIALIZACIÓN, IMPORTACIÓN, EXPORTACIÓN Y AGRUPACIÓN DE TODO TIPO DE PRODUCTOS SANITARIOS, Y SUS ACCESORIOS, INCLUIDA LA FABRICACIÓN DE SUTURAS QUIRÚRGICAS, MATERIALES DE UN SOLO USO Y APÓSITOS, DE USO HUMANO Y VETERINARIO",
      "mainEntityOfPage": "https://www.contratacion.euskadi.eus/webkpe00-kperoc/es/ac71aBusquedaRegistrosWar/empresa/04551",
      "_links": {
        "self": {
          "name": "LABORATORIO ARAGÓ, S.L.",
          "href": "https://api.euskadi.eus/procurements/companies/04551"
        }
      }
    }
  ]
}