{
  "totalItems": 9042,
  "totalPages": 905,
  "currentPage": 429,
  "itemsOfPage": 10,
  "items": [
    {
      "name": "BOKEN HUB, S.L.",
      "registrationNumber": "09477",
      "identificationNumber": "B75235358",
      "address": "C/ Fuenterrabia 50 Bajo",
      "location": {
        "postalCode": "20005",
        "municipality": "Donostia / San Sebastián",
        "county": "Gipuzkoa",
        "municipalityId": "069",
        "countyId": "20"
      },
      "economicActivities": [
        {
          "id": "1.653.2",
          "name": "Venta al por menor de material y aparatos eléctricos, electrodomésticos y cocina",
          "_links": {
            "self": {
              "name": "Venta al por menor de material y aparatos eléctricos, electrodomésticos y cocina",
              "href": "https://api.euskadi.eus/procurements/companies/economic-activities/1.653.2"
            }
          }
        },
        {
          "id": "1.844",
          "name": "Servicios de publicidad, relaciones públicas y similares",
          "_links": {
            "self": {
              "name": "Servicios de publicidad, relaciones públicas y similares",
              "href": "https://api.euskadi.eus/procurements/companies/economic-activities/1.844"
            }
          }
        },
        {
          "id": "1.845",
          "name": "Explotación electrónica por cuenta de terceros",
          "_links": {
            "self": {
              "name": "Explotación electrónica por cuenta de terceros",
              "href": "https://api.euskadi.eus/procurements/companies/economic-activities/1.845"
            }
          }
        }
      ],
      "certificateStartDate": "2024-03-15",
      "certificateEndDate": "2024-09-12",
      "object": "1-LA EXPLOTACIÓN DE MEDIOS DE COMUNICACIÓN EN SOPORTES INFORMÁTICOS E INTERACTIVOS, EN CUALQUIERA DE SUS MODALIDADES Y EN INTERNET. 2- LA PRODUCCIÓN, COMPRA, VENTA, ALQUILER, EDICIÓN, REPRODUCCIÓN, IMPORTACIÓN, EXPORTACIÓN, DISTRIBUCIÓN, EXHIBICIÓN, FINANCIACIÓN DE TODA CLASE DE OBRAS AUDIOVISUALES, EN CUALQUIERA DE SUS MODALIDADES Y CUALQUIERA QUE SEA SU SOPORTE TÉCNICO, SUSCEPTIBLES DE SU DIFUSIÓN CINEMATOGRÁFICA, TELEVISIVA, EN VIDEO O POR CUALQUIER OTRO MEDIO AUDIOVISUAL. 3- LA REALIZACIÓN DE ACTIVIDADES Y LA PRESTACIÓN DE SERVICIOS, ESTUDIOS, ANÁLISIS, PROMOCIÓN, PROGRAMACIÓN, PROCESO DE DATOS E INFORMES, POR CUALQUIER PROCEDIMIENTO, RELACIONADOS CON CUALQUIER ACTIVIDAD DE COMUNICACIÓN. 4- LA ELABORACIÓN DE ESTUDIOS, INFORMES O ANÁLISIS DE CUALQUIER CLASE EN RELACIÓN CON EMPRESAS, MEDIOS Y SISTEMAS DE COMUNICACIÓN, Y ESPECIALMENTE SOBRE TELEVISIÓN, VIDEO, CINE Y MULTIMEDIA. 5- LAS TAREAS DE INTERMEDIACIÓN EN LOS MERCADOS DE DERECHOS DE PROPIEDAD INTELECTUAL O INDUSTRIAL DE CUALQUIER CLASE, ASÍ COMO EN CUALESQUIERA ACTIVIDADES RELACIONADAS DIRECTA O INDIRECTAMENTE CON LA PUBLICIDAD, EL MARKETING, EL MERCHANDISING Y OTRAS ACTIVIDADES COMERCIALES. 6- LA REALIZACIÓN Y EJECUCIÓN DE PROYECTOS PUBLICITARIOS Y LAS TAREAS RELACIONADAS CON LA CONTRATACIÓN, MEDIACIÓN Y DIFUSIÓN DE MENSAJES PUBLICITARIOS EN CUALQUIERA DE SUS FORMAS POSIBLES. 7- LA ADQUISICIÓN Y EXPLOTACIÓN POR CUENTA PROPIA O AJENA DE TODO TIPO DE EQUIPOS, APARATOS, ELEMENTOS, INSTALACIONES Y PROCEDIMIENTOS TÉCNICOS RELACIONADOS CON LAS ACTIVIDADES ANTERIORES, INCLUYENDO LA LICENCIA DE PATENTES O ASISTENCIA DE TECNOLOGÍA. 8- LA PRESTACIÓN DE SERVICIOS DE ESTUDIO Y ANÁLISIS DE PROCESOS Y DATOS PARA SU TRATAMIENTO MECÁNICO, DE PROGRAMACIÓN PARA EQUIPOS ELECTRÓNICOS, DE REGISTRO DE DATOS EN SOPORTES DE ENTRADA PARA ORDENADORES ASÍ COMO LA VENTA DE PROGRAMAS, EL PROCESO DE DATOS POR CUENTA DE TERCEROS Y OTROS SERVICIOS INDEPENDIENTE DE LA ELABORACIÓN DE DATOS Y TABULACIÓN. 9- LA CONSULTORÍA, CREACIÓN, PRODUCCIÓN, GESTIÓN Y COMERCIALIZACIÓN DE PRODUCTOS RELACIONADOS CON LA CARTELERÍA DIGITAL, EL DISEÑO DE ESPACIOS Y PRODUCTOS DE ENTRETENIMIENTO CON CÁMARAS Y SENSORES DE MOVIMIENTO, TANTO PARA DISPOSITIVOS MÓVILES, SISTEMAS DE CARTELERÍA DIGITAL COMO PARA CUALQUIER DISPOSITIVO. 10- ORGANIZACIÓN DE EXPOSICIONES, FERIAS, CONGRESOS Y STANDS. FABRICACIÓN DE STANDS, TARIMAS, ESCENARIOS Y ESCAPARATES. 11- EL DISEÑO, ROTULACIÓN E IMPRESIÓN DE TEXTOS E IMÁGENES POR CUALQUIER PROCEDIMIENTO, SOBRE TODO TIPO DE SOPORTES, CARTELES, PANCARTAS, PANELES, VEHÍCULOS, STANDS, LONAS Y SEÑALIZACIONES.",
      "mainEntityOfPage": "https://www.contratacion.euskadi.eus/webkpe00-kperoc/es/ac71aBusquedaRegistrosWar/empresa/09477",
      "_links": {
        "self": {
          "name": "BOKEN HUB, S.L.",
          "href": "https://api.euskadi.eus/procurements/companies/09477"
        }
      }
    },
    {
      "name": "MARIAN MARTINEZ URRUCHI",
      "registrationNumber": "09473",
      "identificationNumber": "18601867L",
      "address": "C/ LA PLAYA, 10",
      "location": {
        "postalCode": "01423",
        "municipality": "Lantarón",
        "county": "Araba/Álava",
        "municipalityId": "902",
        "countyId": "01"
      },
      "economicActivities": [
        {
          "id": "2.826",
          "name": "Personal docente de enseñanzas diversas",
          "_links": {
            "self": {
              "name": "Personal docente de enseñanzas diversas",
              "href": "https://api.euskadi.eus/procurements/companies/economic-activities/2.826"
            }
          }
        },
        {
          "id": "2.861",
          "name": "Pintores, escultores, ceramistas, artesanos, artistas y similares",
          "_links": {
            "self": {
              "name": "Pintores, escultores, ceramistas, artesanos, artistas y similares",
              "href": "https://api.euskadi.eus/procurements/companies/economic-activities/2.861"
            }
          }
        }
      ],
      "certificateStartDate": "2024-03-14",
      "certificateEndDate": "2024-09-12",
      "object": "PINTORES, ESCULTORES, CERAMISTAS, ARTESANOS, ARTISTAS Y SIMILARES.  PERSONAL DOCENTE DE ENSEÑANZAS DIVERSAS.",
      "mainEntityOfPage": "https://www.contratacion.euskadi.eus/webkpe00-kperoc/es/ac71aBusquedaRegistrosWar/empresa/09473",
      "_links": {
        "self": {
          "name": "MARIAN MARTINEZ URRUCHI",
          "href": "https://api.euskadi.eus/procurements/companies/09473"
        }
      }
    },
    {
      "name": "MEATZALDE INSTALACIONES, S.L.",
      "registrationNumber": "09226",
      "identificationNumber": "B95933859",
      "address": "Grupo Ramon Rubial, 1 lonja",
      "location": {
        "postalCode": "48510",
        "municipality": "Valle de Trápaga-Trapagaran",
        "county": "Bizkaia",
        "municipalityId": "080",
        "countyId": "48"
      },
      "economicActivities": [
        {
          "id": "1.501.3",
          "name": "Albañilería y pequeños trabajos de construcción en general",
          "_links": {
            "self": {
              "name": "Albañilería y pequeños trabajos de construcción en general",
              "href": "https://api.euskadi.eus/procurements/companies/economic-activities/1.501.3"
            }
          }
        }
      ],
      "certificateStartDate": "2024-03-13",
      "certificateEndDate": "2024-09-06",
      "object": "FONTANERÍA, INSTALACIONES DE FONTANERÍA, DE SISTEMAS DE CALEFACCIÓN Y AIRE ACONDICIONADO. INSTALACIÓN, REPARACIÓN Y MANTENIMIENTO DE LOS MISMOS.",
      "mainEntityOfPage": "https://www.contratacion.euskadi.eus/webkpe00-kperoc/es/ac71aBusquedaRegistrosWar/empresa/09226",
      "_links": {
        "self": {
          "name": "MEATZALDE INSTALACIONES, S.L.",
          "href": "https://api.euskadi.eus/procurements/companies/09226"
        }
      }
    },
    {
      "name": "DAVID SÁNCHEZ BELLIDO",
      "registrationNumber": "07175",
      "identificationNumber": "44974387A",
      "address": "Avenida de Madrid nº 15. 9ºB",
      "location": {
        "postalCode": "20011",
        "municipality": "Donostia / San Sebastián",
        "county": "Gipuzkoa",
        "municipalityId": "069",
        "countyId": "20"
      },
      "economicActivities": [
        {
          "id": "2.411",
          "name": "Arquitectos",
          "_links": {
            "self": {
              "name": "Arquitectos",
              "href": "https://api.euskadi.eus/procurements/companies/economic-activities/2.411"
            }
          }
        }
      ],
      "certificateStartDate": "2024-03-11",
      "certificateEndDate": "2024-08-14",
      "object": "ARQUITECTOS",
      "mainEntityOfPage": "https://www.contratacion.euskadi.eus/webkpe00-kperoc/es/ac71aBusquedaRegistrosWar/empresa/07175",
      "_links": {
        "self": {
          "name": "DAVID SÁNCHEZ BELLIDO",
          "href": "https://api.euskadi.eus/procurements/companies/07175"
        }
      }
    },
    {
      "name": "COLOPLAST, PRODUCTOS MÉDICOS, S.A.",
      "registrationNumber": "00438",
      "identificationNumber": "A28899003",
      "address": "CONDESA DE VENADITO, 5º - 4º",
      "location": {
        "postalCode": "28027",
        "municipality": "Madrid",
        "county": "Madrid",
        "municipalityId": "079",
        "countyId": "28"
      },
      "economicActivities": [
        {
          "id": "1.614.1",
          "name": "Venta al por mayor de productos farmacéuticos y medicamentos",
          "_links": {
            "self": {
              "name": "Venta al por mayor de productos farmacéuticos y medicamentos",
              "href": "https://api.euskadi.eus/procurements/companies/economic-activities/1.614.1"
            }
          }
        }
      ],
      "certificateStartDate": "2024-03-07",
      "certificateEndDate": "2024-08-31",
      "object": "a) LA FABRICACIÓN, MONTAJE, REPARACIÓN, IMPORTACIÓN, EXPORTACIÓN, VENTA Y COMERCIALIZACIÓN DE APARATOS DE USO HOSPITALARIO Y OTROS PRODUCTOS RELACIONADOS. b) LA OBTENCIÓN Y PRESTACIÓN DE TODO TIPO DE SERVICIOS Y ASISTENCIA TÉCNICA RELACIONADOS CON PROYECTOS INDUSTRIALES Y COMERCIALES RELATIVOS A LOS PRODUCTOS MENCIONADOS EN EL PÁRRAFO a) ANTERIOR, ASÍ COMO LA ADQUISICIÓN, CESIÓN, VENTA Y EXPLOTACIÓN DE DERECHOS DE PROPIEDAD INDUSTRIAL E INTELECTUAL, Y c) LA REALIZACIÓN DE TODO TIPO DE ACTIVIDADES COMERCIALES O FINANCIERAS, SERVICIOS Y OPERACIONES QUE ESTÉN DIRECTAMENTE RELACIONADOS CON LAS ACTIVIDADES MENCIONADAS",
      "mainEntityOfPage": "https://www.contratacion.euskadi.eus/webkpe00-kperoc/es/ac71aBusquedaRegistrosWar/empresa/00438",
      "_links": {
        "self": {
          "name": "COLOPLAST, PRODUCTOS MÉDICOS, S.A.",
          "href": "https://api.euskadi.eus/procurements/companies/00438"
        }
      }
    },
    {
      "name": "MONICA GARCIA MARTINEZ",
      "registrationNumber": "09462",
      "identificationNumber": "16067023M",
      "address": "CL ARANGOITI, 1 - 3",
      "location": {
        "postalCode": "48840",
        "municipality": "Güeñes",
        "county": "Bizkaia",
        "municipalityId": "045",
        "countyId": "48"
      },
      "economicActivities": [
        {
          "id": "1.722",
          "name": "Transporte de mercancías por carretera",
          "_links": {
            "self": {
              "name": "Transporte de mercancías por carretera",
              "href": "https://api.euskadi.eus/procurements/companies/economic-activities/1.722"
            }
          }
        }
      ],
      "certificateStartDate": "2024-03-07",
      "certificateEndDate": "2024-09-07",
      "object": "TRANSPORTE DE MERCANCÍAS POR CARRETERA.",
      "mainEntityOfPage": "https://www.contratacion.euskadi.eus/webkpe00-kperoc/es/ac71aBusquedaRegistrosWar/empresa/09462",
      "_links": {
        "self": {
          "name": "MONICA GARCIA MARTINEZ",
          "href": "https://api.euskadi.eus/procurements/companies/09462"
        }
      }
    },
    {
      "name": "EMPRENDE SOLUCIONES Y SERVICIOS 33, S.L.",
      "registrationNumber": "09461",
      "identificationNumber": "B76345594",
      "address": "AVDA. RAFAEL CABRERA, 7",
      "location": {
        "postalCode": "35002",
        "municipality": "Palmas de Gran Canaria, Las",
        "county": "Palmas, Las",
        "municipalityId": "016",
        "countyId": "35"
      },
      "economicActivities": [
        {
          "id": "1.614.1",
          "name": "Venta al por mayor de productos farmacéuticos y medicamentos",
          "_links": {
            "self": {
              "name": "Venta al por mayor de productos farmacéuticos y medicamentos",
              "href": "https://api.euskadi.eus/procurements/companies/economic-activities/1.614.1"
            }
          }
        },
        {
          "id": "1.615.3",
          "name": "Venta al por mayor de aparatos electrodomésticos y ferretería",
          "_links": {
            "self": {
              "name": "Venta al por mayor de aparatos electrodomésticos y ferretería",
              "href": "https://api.euskadi.eus/procurements/companies/economic-activities/1.615.3"
            }
          }
        },
        {
          "id": "1.832.9",
          "name": "Otros servicios auxiliares de seguros n.c.o.p",
          "_links": {
            "self": {
              "name": "Otros servicios auxiliares de seguros n.c.o.p",
              "href": "https://api.euskadi.eus/procurements/companies/economic-activities/1.832.9"
            }
          }
        }
      ],
      "certificateStartDate": "2024-03-07",
      "certificateEndDate": "2024-09-05",
      "object": "COMO ACTIVIDAD PRINCIPAL: 1.- COMERCIO AL POR MAYOR DE PRODUCTOS FARMACÉUTICOS. OTRAS ACTIVIDADES: 2.- EQUIPAMIENTO Y ARTÍCULOS MÉDICOS, FARMACÉUTICOS Y DE HIGIENE PERSONAL. - COMERCIO AL POR MAYOR DE FERRETERÍA, FONTANERÍA Y CALEFACCIÓN. - COMERCIO AL POR MAYOR DE ELECTRODOMÉSTICOS. - ACTIVIDADES HOSPITALARIAS. - ACTIVIDADES DE MEDICINA GENERAL. - ACTIVIDADES DE MEDICINA ESPECIALIZADA. - OTRAS ACTIVIDADES SANITARIAS, INCLUYENDO EL TRANSPORTE SANITARIO EN AMBULANCIAS. ESTABLECIMIENTOS DE BEBIDAS. OTRAS ACTIVIDADES DE APOYO A LAS EMPRESAS. COMERCIO AL POR MAYOR DE MUEBLES, ALFOMBRAS Y APARATOS DE ILUMINACIÓN. - COMERCIO AL POR MENOR DE ORDENADORES, EQUIPOS PERIFÉRICOS Y PROGRAMAS INFORMÁTICOS EN ESTABLECIMIENTOS ESPECIALIZADOS. COMERCIO AL POR MAYOR DE PRENDAS DE VESTIR Y CALZADO. - PROMOCIÓN INMOBILIARIA. - CONSTRUCCIÓN DE EDIFICIOS RESIDENCIALES. - CONSTRUCCIÓN DE EDIFICIOS NO RESIDENCIALES. HOTELES Y ALOJAMIENTOS SIMILARES. - ALOJAMIENTOS TURÍSTICOS Y OTROS ALOJAMIENTOS DE CORTA ESTANCIA. - ALQUILER DE BIENES INMOBILIARIOS POR CUENTA PROPIA. - AGENTES DE LA PROPIEDAD INMOBILIARIA. - GESTIÓN Y ADMINISTRACIÓN DE LA PROPIEDAD INMOBILIARIA.",
      "mainEntityOfPage": "https://www.contratacion.euskadi.eus/webkpe00-kperoc/es/ac71aBusquedaRegistrosWar/empresa/09461",
      "_links": {
        "self": {
          "name": "EMPRENDE SOLUCIONES Y SERVICIOS 33, S.L.",
          "href": "https://api.euskadi.eus/procurements/companies/09461"
        }
      }
    },
    {
      "name": "ULMA MEDICAL TECHNOLOGIES S. COOP.",
      "registrationNumber": "08682",
      "identificationNumber": "F75010462",
      "address": "Garagaltza Auzoa 51",
      "location": {
        "postalCode": "20560",
        "municipality": "Oñati",
        "county": "Gipuzkoa",
        "municipalityId": "059",
        "countyId": "20"
      },
      "economicActivities": [
        {
          "id": "1.843.1",
          "name": "Servicios técnicos de ingeniería",
          "_links": {
            "self": {
              "name": "Servicios técnicos de ingeniería",
              "href": "https://api.euskadi.eus/procurements/companies/economic-activities/1.843.1"
            }
          }
        }
      ],
      "certificateStartDate": "2024-03-01",
      "certificateEndDate": "2024-08-28",
      "object": "LA IMPORTACIÓN, FABRICACIÓN, AGRUPACIÓN Y COMERCIALIZACIÓN DE PRODUCTOS Y SERVICIOS SANITARIOS.",
      "mainEntityOfPage": "https://www.contratacion.euskadi.eus/webkpe00-kperoc/es/ac71aBusquedaRegistrosWar/empresa/08682",
      "_links": {
        "self": {
          "name": "ULMA MEDICAL TECHNOLOGIES S. COOP.",
          "href": "https://api.euskadi.eus/procurements/companies/08682"
        }
      }
    },
    {
      "name": "ARTEMAN KOMUNIKAZIOA KOOP. E.",
      "registrationNumber": "07192",
      "identificationNumber": "F20813051",
      "address": "Basabe Poligonoa EO4",
      "location": {
        "postalCode": "20550",
        "municipality": "Aretxabaleta",
        "county": "Gipuzkoa",
        "municipalityId": "013",
        "countyId": "20"
      },
      "economicActivities": [
        {
          "id": "1.844",
          "name": "Servicios de publicidad, relaciones públicas y similares",
          "_links": {
            "self": {
              "name": "Servicios de publicidad, relaciones públicas y similares",
              "href": "https://api.euskadi.eus/procurements/companies/economic-activities/1.844"
            }
          }
        },
        {
          "id": "1.961.1",
          "name": "Producción de películas cinematográficas (incluso vídeos)",
          "_links": {
            "self": {
              "name": "Producción de películas cinematográficas (incluso vídeos)",
              "href": "https://api.euskadi.eus/procurements/companies/economic-activities/1.961.1"
            }
          }
        }
      ],
      "certificateStartDate": "2024-02-29",
      "certificateEndDate": "2024-08-28",
      "object": "- HERRITARREK, TALDEEK, ENPRESEK, ERAKUNDE PUBLIKOEK... DITUZTEN KOMUNIKAZIO-BEHARRAK EUSKARAZ ASETZEKO ERA GUZTIETAKO ZERBITZUAK SORTU ETA KUDEATZEA. - PUBLIZITATE ESKAINTZA OSOAK EGITEA, ERA GUZTIETAKO EUSKARRI ETA BITARTEKOEZ: PRENTSA, IKUS-ENTZUNEZKO, LIBURUXKA, DIPTIKO, PANEL ETA MERCHANDISING. - KOMUNIKAZIO EKINTZAK PROPOSATU, GAUZATU ETA KUDEATZEA; AURKEZPEN EKITALDIAK ETA WEB ORRIEN KUDEAKETA. - BEZEROEN ETA PRODUKZIO-ETXE EDO HEDABIDEEN ARTEAN ERA GUZTIETAKO BITARTEKARITZA LAN KOMERTZIALAK BURUTZEA. - ERA GUZTIETAKO SORTZE-LANAK EGITEA: IRUDI KORPORATIBOAK, TELEBISTA ETA IRRATI BIDEZKO GRABAKETAK. - ORO HAR, PUBLIZITATE NAHIZ KOMUNIKAZIO ARLOEKIN ZERIKUSIA IZAN DEZAKETEN EKINTZAK",
      "mainEntityOfPage": "https://www.contratacion.euskadi.eus/webkpe00-kperoc/es/ac71aBusquedaRegistrosWar/empresa/07192",
      "_links": {
        "self": {
          "name": "ARTEMAN KOMUNIKAZIOA KOOP. E.",
          "href": "https://api.euskadi.eus/procurements/companies/07192"
        }
      }
    },
    {
      "name": "GIMENO GRAFIC ESTUDI, S.L.",
      "registrationNumber": "08632",
      "identificationNumber": "B98848625",
      "address": "C/CADIRERS Nº3 POLIGONO INDUSTRIAL D&apos;OBRADORS",
      "location": {
        "postalCode": "46110",
        "municipality": "Godella",
        "county": "Valencia/València",
        "municipalityId": "135",
        "countyId": "46"
      },
      "economicActivities": [
        {
          "id": "1.844",
          "name": "Servicios de publicidad, relaciones públicas y similares",
          "_links": {
            "self": {
              "name": "Servicios de publicidad, relaciones públicas y similares",
              "href": "https://api.euskadi.eus/procurements/companies/economic-activities/1.844"
            }
          }
        }
      ],
      "certificateStartDate": "2024-02-27",
      "certificateEndDate": "2024-08-26",
      "object": "LA REALIZACIÓN DE DISEÑOS COMERCIALES DE TODA CLASE DE COMUNICACIÓN VISUAL, EDICIÓN DE TODA CLASE DE TRABAJOS DE ARTES GRÁFICAS, PUBLICIDAD, DECORACIÓN E INTERIORISMO.",
      "mainEntityOfPage": "https://www.contratacion.euskadi.eus/webkpe00-kperoc/es/ac71aBusquedaRegistrosWar/empresa/08632",
      "_links": {
        "self": {
          "name": "GIMENO GRAFIC ESTUDI, S.L.",
          "href": "https://api.euskadi.eus/procurements/companies/08632"
        }
      }
    }
  ]
}