{
  "totalItems": 9042,
  "totalPages": 905,
  "currentPage": 624,
  "itemsOfPage": 10,
  "items": [
    {
      "name": "EUSKOTOUR KOOPERATIBA EKARTE TXIKIA",
      "registrationNumber": "05902",
      "identificationNumber": "F75145433",
      "address": "Avd Loiola 29, 5ºizda",
      "location": {
        "postalCode": "20730",
        "municipality": "Azpeitia",
        "county": "Gipuzkoa",
        "municipalityId": "018",
        "countyId": "20"
      },
      "economicActivities": [
        {
          "id": "1.755",
          "name": "Agencias de viajes",
          "_links": {
            "self": {
              "name": "Agencias de viajes",
              "href": "https://api.euskadi.eus/procurements/companies/economic-activities/1.755"
            }
          }
        }
      ],
      "certificateStartDate": "2018-10-23",
      "certificateEndDate": "2018-11-24",
      "object": "REALIZACIÓN DE ACTIVIDAD DE AGENCIA DE VIAJE ONLINE Y ORGANIZACIÓN DE EVENTOS",
      "mainEntityOfPage": "https://www.contratacion.euskadi.eus/webkpe00-kperoc/es/ac71aBusquedaRegistrosWar/empresa/05902",
      "_links": {
        "self": {
          "name": "EUSKOTOUR KOOPERATIBA EKARTE TXIKIA",
          "href": "https://api.euskadi.eus/procurements/companies/05902"
        }
      }
    },
    {
      "name": "EXCAVACIONES Y CONSTRUCCIONES ZAMUDIO, S.L.",
      "registrationNumber": "05894",
      "identificationNumber": "B95371092",
      "address": "Plaza Agirre Lehendakari, 2",
      "location": {
        "postalCode": "48170",
        "municipality": "Zamudio",
        "county": "Bizkaia",
        "municipalityId": "905",
        "countyId": "48"
      },
      "economicActivities": [
        {
          "id": "1.502.2",
          "name": "Consolidación y preparación de terrenos para la construcción de edificaciones",
          "_links": {
            "self": {
              "name": "Consolidación y preparación de terrenos para la construcción de edificaciones",
              "href": "https://api.euskadi.eus/procurements/companies/economic-activities/1.502.2"
            }
          }
        },
        {
          "id": "1.502.3",
          "name": "Consolidación y preparación de terrenos para la realización de obras civiles",
          "_links": {
            "self": {
              "name": "Consolidación y preparación de terrenos para la realización de obras civiles",
              "href": "https://api.euskadi.eus/procurements/companies/economic-activities/1.502.3"
            }
          }
        },
        {
          "id": "1.617.4",
          "name": "Venta al por mayor de materiales de construcción, vidrio y artículos instalación",
          "_links": {
            "self": {
              "name": "Venta al por mayor de materiales de construcción, vidrio y artículos instalación",
              "href": "https://api.euskadi.eus/procurements/companies/economic-activities/1.617.4"
            }
          }
        }
      ],
      "certificateStartDate": "2018-10-16",
      "certificateEndDate": "2018-12-26",
      "object": "1 TODO TIPO DE LABORES DE EXCAVACIÓN TANTO PARA LA CONSTRUCCIÓN COMO PARA CUALQUIER OTRO TIPO DE TRABAJO EN LOS QUE HAYA QUE PRESTAR SERVICIOS DE PROFUNDIZACIÓN EN TIERRA O PARA LA FORMALIZACIÓN DE TÚNELES. 2- PODRÁ ASIMISMO REALIZAR CUALQUIER TIPO DE LABORES DE ACONDICIONAMIENTO DE SUELOS ASÍ COMO LA CREACIÓN Y CONSTRUCCIÓN DE LOS MISMOS. 3. PODRÁ ASIMISMO DEDICARSE A LOS ANÁLISIS Y ESTUDIOS DE SUELOS, A LA REALIZACIÓN DE SONDAS Y TODO TIPO DE PRUEBAS RELACIONADAS CON LA ESTABILIDAD DEL SUELO ASÍ COMO LA REALIZACIÓN DE ESTUDIOS Y CONSTRUCCIÓN DE ELEMENTOS DE CONTENCIÓN DEL MISMO. 4. PODRÁ APORTAR O ALQUILAR TODO TIPO DE MAQUINARIA DEDICADA A ESTE MISMO OBJETO SOCIAL. 5. LA GESTIÓN, PROMOCIÓN Y COMERCIALIZACIÓN DE NEGOCIOS Y EMPRESAS INDUSTRIALES. 6. LA COMPRAVENTA Y ARRENDAMIENTO DE TODA CLASE DE VIVIENDAS, LOCALES COMERCIALES Y PABELLONES INDUSTRIALES. 7. LA CONSTRUCCIÓN DE EDIFICIOS PARA VIVIENDAS, PABELLONES INDUSTRIALES, LOCALES DE NEGOCIOS O VIVIENDAS UNIFAMILIARES Y LA REFORMA Y REHABILITACIÓNDE INTERIORES, EXTERIORES O INTEGRALES. 8. LA COMPRA, VENTA, IMPORTACIÓN, EXPORTACIÓN Y COMERCIALIZACIÓN DE TODA CLASE DE MATERIALES PARA LA CONSTRUCCIÓN DE EDIFICIOS , VIVIENDAS, PABELLONES INDUSTRIALES, VIVIENDAS UNIFAMILIARES, REFORMAS Y REHABILITACIÓN DE INTERIORES, EXTERIORES O INTEGRALES. 9. LA ADQUISICIÓN, CESIÓN, ENAJENACIÓN, TENENCIA, ARRENDAMIENTO Y DISFRUTE GENERAL DE TODA CLASE DE VALORES MOBILIARIOS TANTO PÚBLICOS COMO PRIVADOS, NACIONALES Y EXTRANJEROS, TODO ELLO SIEMPRE QUE LO REALICE LA SOCIEDAD POR CUENTA PROPIA Y CON EXCEPCIÓN DE LA INTERMEDIACIÓN, QUEDANDO SIEMPRE EXCLUIDAS LAS ACTIVIDADES OBJETO DE LA LEGISLACIÓN DE INSTITUCIONES DE INVERSIÓN COLECTIVA Y DE MERCADOS DE VALORES",
      "mainEntityOfPage": "https://www.contratacion.euskadi.eus/webkpe00-kperoc/es/ac71aBusquedaRegistrosWar/empresa/05894",
      "_links": {
        "self": {
          "name": "EXCAVACIONES Y CONSTRUCCIONES ZAMUDIO, S.L.",
          "href": "https://api.euskadi.eus/procurements/companies/05894"
        }
      }
    },
    {
      "name": "COLT ESPAÑA,S.A.",
      "registrationNumber": "05892",
      "identificationNumber": "A58923285",
      "address": "AVDA. DE LA GRANVÍA, 179",
      "location": {
        "postalCode": "08908",
        "municipality": "Hospitalet de Llobregat, L'",
        "county": "Barcelona",
        "municipalityId": "101",
        "countyId": "08"
      },
      "economicActivities": [
        {
          "id": "1.504.1",
          "name": "Instalaciones eléctricas en general",
          "_links": {
            "self": {
              "name": "Instalaciones eléctricas en general",
              "href": "https://api.euskadi.eus/procurements/companies/economic-activities/1.504.1"
            }
          }
        }
      ],
      "certificateStartDate": "2018-10-15",
      "certificateEndDate": "2019-03-03",
      "object": "LA FABRICACIÓN, COMERCIALIZACIÓN, INSTALACIÓN Y ESTUDIO DE TODO TIPO DE EQUIPOS RELACIONADOS CON VENTILACIÓN, DEFENSA CONTRA INCENDIOS, CALEFACCIÓN INDUSTRIAL, ILUMINACIÓN, PROTECCIÓN SOLAR Y DE UNA MANERA GENERAL, TODO CUANTO PUEDA MEJORAR LAS CONDICIONES AMBIENTALES DE TRABAJO",
      "mainEntityOfPage": "https://www.contratacion.euskadi.eus/webkpe00-kperoc/es/ac71aBusquedaRegistrosWar/empresa/05892",
      "_links": {
        "self": {
          "name": "COLT ESPAÑA,S.A.",
          "href": "https://api.euskadi.eus/procurements/companies/05892"
        }
      }
    },
    {
      "name": "NEUMATICOS ARRIAGA",
      "registrationNumber": "05893",
      "identificationNumber": "A01024033",
      "address": "ARTAPADURA 2",
      "location": {
        "postalCode": "01013",
        "municipality": "Vitoria-Gasteiz",
        "county": "Araba/Álava",
        "municipalityId": "059",
        "countyId": "01"
      },
      "economicActivities": [
        {
          "id": "1.151.4",
          "name": "Producción de energía no especificada en otros epígrafes",
          "_links": {
            "self": {
              "name": "Producción de energía no especificada en otros epígrafes",
              "href": "https://api.euskadi.eus/procurements/companies/economic-activities/1.151.4"
            }
          }
        },
        {
          "id": "1.654.6",
          "name": "Venta al por menor de cubiertas, bandas y cámaras de aire",
          "_links": {
            "self": {
              "name": "Venta al por menor de cubiertas, bandas y cámaras de aire",
              "href": "https://api.euskadi.eus/procurements/companies/economic-activities/1.654.6"
            }
          }
        }
      ],
      "certificateStartDate": "2018-10-15",
      "certificateEndDate": "2018-12-19",
      "object": "EL COMERCIO DE NEUMÁTICOS, ACCESORIOS, VEHÍCULOS, BANDAS O BANDAJES, CAMARAS DE AIRE, ACEITES Y GRASAS LUBRICANTES, PIEZAS DE RECAMBIO Y DEMÁS ARTÍCULOS RELACIONADOS CON LA LOCOMOCIÓN, REPARACIÓN GENERAL DE VEHÍCULOS, NEUMÁTICOS Y CÁMARAS, ASÍ COMO LA GUARDA Y CUSTODIA DE VEHÍCULOS, LAVADO Y ENGRASES DE LOS MISMOS, Y EL TRANSPORTE DE TODA CLASE DE MERCANCÍAS POR CARRETERA, TANTO POR ESPAÑA COMO POR EL EXTRANJERO, CON ÁMBITO MUNDIAL",
      "mainEntityOfPage": "https://www.contratacion.euskadi.eus/webkpe00-kperoc/es/ac71aBusquedaRegistrosWar/empresa/05893",
      "_links": {
        "self": {
          "name": "NEUMATICOS ARRIAGA",
          "href": "https://api.euskadi.eus/procurements/companies/05893"
        }
      }
    },
    {
      "name": "KULTURBIDE GESTIÓN SOCIOCULTURAL, S.L.",
      "registrationNumber": "03825",
      "identificationNumber": "B01433259",
      "address": "BARRATXI, 37-A. PABELLÓN 20",
      "location": {
        "postalCode": "01013",
        "municipality": "Vitoria-Gasteiz",
        "county": "Araba/Álava",
        "municipalityId": "059",
        "countyId": "01"
      },
      "economicActivities": [
        {
          "id": "1.968.2",
          "name": "Organización de espectáculos deportivos",
          "_links": {
            "self": {
              "name": "Organización de espectáculos deportivos",
              "href": "https://api.euskadi.eus/procurements/companies/economic-activities/1.968.2"
            }
          }
        }
      ],
      "certificateStartDate": "2018-10-11",
      "certificateEndDate": "2019-03-21",
      "object": "- EL ASESORAMIENTO, REALIZACIÓN Y DESARROLLO DE ACTIVIDADES RELACIONADAS CON DEPORTES DE AVENTURA Y RIESGO, LA PRESTACIÓN DE SERVICIOS DE GUÍA DEPORTIVO, ASÍ COMO REALIZACIÓN Y DESARROLLO DE ACTOS LÚDICOS Y DEPORTIVOS.\r\n- LA REALIZACIÓN Y DESARROLLO DE ACTIVIDADES EDUCATIVAS Y CULTURALES EN COMEDORES ESCOLARES, COLONIAS ESCOLARES Y OTRAS ACTIVIDADES DE TIPO EXTRAESCOLAR ORGANIZADAS TANTO POR INSTITUCIONES PÚBLICAS COMO PRIVADAS",
      "mainEntityOfPage": "https://www.contratacion.euskadi.eus/webkpe00-kperoc/es/ac71aBusquedaRegistrosWar/empresa/03825",
      "_links": {
        "self": {
          "name": "KULTURBIDE GESTIÓN SOCIOCULTURAL, S.L.",
          "href": "https://api.euskadi.eus/procurements/companies/03825"
        }
      }
    },
    {
      "name": "DIONISIO ORMAZABAL, SA",
      "registrationNumber": "05885",
      "identificationNumber": "A20087631",
      "address": "Avda. Navarra,2",
      "location": {
        "postalCode": "20400",
        "municipality": "Tolosa",
        "county": "Gipuzkoa",
        "municipalityId": "071",
        "countyId": "20"
      },
      "economicActivities": [
        {
          "id": "1.617.4",
          "name": "Venta al por mayor de materiales de construcción, vidrio y artículos instalación",
          "_links": {
            "self": {
              "name": "Venta al por mayor de materiales de construcción, vidrio y artículos instalación",
              "href": "https://api.euskadi.eus/procurements/companies/economic-activities/1.617.4"
            }
          }
        },
        {
          "id": "1.653.4",
          "name": "Venta al por menor de material de construcción y mobiliario de saneamiento",
          "_links": {
            "self": {
              "name": "Venta al por menor de material de construcción y mobiliario de saneamiento",
              "href": "https://api.euskadi.eus/procurements/companies/economic-activities/1.653.4"
            }
          }
        }
      ],
      "certificateStartDate": "2018-10-11",
      "certificateEndDate": "2018-11-30",
      "object": "COMPRA-VENTA DE MATERIALES DE CONSTRUCCIÓN Y SANEAMIENTO",
      "mainEntityOfPage": "https://www.contratacion.euskadi.eus/webkpe00-kperoc/es/ac71aBusquedaRegistrosWar/empresa/05885",
      "_links": {
        "self": {
          "name": "DIONISIO ORMAZABAL, SA",
          "href": "https://api.euskadi.eus/procurements/companies/05885"
        }
      }
    },
    {
      "name": "PILAR ANSOTEGI ABECIA",
      "registrationNumber": "05887",
      "identificationNumber": "16303545H",
      "address": "SANTA MARÍA 13",
      "location": {
        "postalCode": "09294",
        "municipality": "Puebla de Arganzón, La",
        "county": "Burgos",
        "municipalityId": "276",
        "countyId": "09"
      },
      "economicActivities": [
        {
          "id": "1.922",
          "name": "Servicios de limpieza",
          "_links": {
            "self": {
              "name": "Servicios de limpieza",
              "href": "https://api.euskadi.eus/procurements/companies/economic-activities/1.922"
            }
          }
        }
      ],
      "certificateStartDate": "2018-10-11",
      "certificateEndDate": "2019-03-17",
      "object": "SERVICIOS DE LIMPIEZA",
      "mainEntityOfPage": "https://www.contratacion.euskadi.eus/webkpe00-kperoc/es/ac71aBusquedaRegistrosWar/empresa/05887",
      "_links": {
        "self": {
          "name": "PILAR ANSOTEGI ABECIA",
          "href": "https://api.euskadi.eus/procurements/companies/05887"
        }
      }
    },
    {
      "name": "APAREJO OFICINA TÉCNICA, S.L.",
      "registrationNumber": "05888",
      "identificationNumber": "B47489273",
      "address": "C/ Almendrera, 16 bajo",
      "location": {
        "postalCode": "47195",
        "municipality": "Arroyo de la Encomienda",
        "county": "Valladolid",
        "municipalityId": "010",
        "countyId": "47"
      },
      "economicActivities": [
        {
          "id": "1.501.3",
          "name": "Albañilería y pequeños trabajos de construcción en general",
          "_links": {
            "self": {
              "name": "Albañilería y pequeños trabajos de construcción en general",
              "href": "https://api.euskadi.eus/procurements/companies/economic-activities/1.501.3"
            }
          }
        },
        {
          "id": "1.834",
          "name": "Servicios relativos a la propiedad inmobiliaria e industrial",
          "_links": {
            "self": {
              "name": "Servicios relativos a la propiedad inmobiliaria e industrial",
              "href": "https://api.euskadi.eus/procurements/companies/economic-activities/1.834"
            }
          }
        },
        {
          "id": "1.842",
          "name": "Servicios financieros y contables",
          "_links": {
            "self": {
              "name": "Servicios financieros y contables",
              "href": "https://api.euskadi.eus/procurements/companies/economic-activities/1.842"
            }
          }
        },
        {
          "id": "1.843.1",
          "name": "Servicios técnicos de ingeniería",
          "_links": {
            "self": {
              "name": "Servicios técnicos de ingeniería",
              "href": "https://api.euskadi.eus/procurements/companies/economic-activities/1.843.1"
            }
          }
        },
        {
          "id": "1.843.2",
          "name": "Servicios técnicos de arquitectura y urbanismo",
          "_links": {
            "self": {
              "name": "Servicios técnicos de arquitectura y urbanismo",
              "href": "https://api.euskadi.eus/procurements/companies/economic-activities/1.843.2"
            }
          }
        },
        {
          "id": "1.861.2",
          "name": "Alquiler de locales industriales y otros alquileres n.c.o.p",
          "_links": {
            "self": {
              "name": "Alquiler de locales industriales y otros alquileres n.c.o.p",
              "href": "https://api.euskadi.eus/procurements/companies/economic-activities/1.861.2"
            }
          }
        }
      ],
      "certificateStartDate": "2018-10-11",
      "certificateEndDate": "2019-02-14",
      "object": "A) LA INTERMEDIACIÓN EN LA COMPRAVENTA O ARRENDAMIENTO DE TERRENOS, SOLARES, SUPERFICIES, ASÍ COMO EN LA COMPRAVENTA, CONSTRUCCIÓN O ARRENDAMIENTOS DE INMUEBLES, PARTE DE LOS MISMOS O SUS INSTALACIONES. NO ASUMIENDO RIESGOS PROPIOS Y OPERANDO POR CUENTA DE TERCEROS. B) LA PRESTACIÓN DE SERVICIOS A EMPRESAS EN MATERIA FISCAL, ECONÓMICA, CONTABLE Y FINANCIERA. C) LA PRESTACIÓN DE SERVICIOS DE NATURALEZA TÉCNICA EN TODAS LAS RAMAS DE LA INGENIERÍA,  ASÍ COMO DE ARQUITECTURA Y URBANISMO, Y LA NUEVA EDIFICACIÓN, INCLUYÉNDOSE TAMBIÉN LAS ACTIVIDADES DE PROTECCIÓN, REFORMA, MEJORA E INSPECCIÓN DE EDIFICIOS TANTO HISTÓRICOS O NO. D) CONSTRUCCIÓN COMPLETA, REPARACIÓN Y CONSERVACIÓN DE INSTALACIONES Y EDIFICIOS",
      "mainEntityOfPage": "https://www.contratacion.euskadi.eus/webkpe00-kperoc/es/ac71aBusquedaRegistrosWar/empresa/05888",
      "_links": {
        "self": {
          "name": "APAREJO OFICINA TÉCNICA, S.L.",
          "href": "https://api.euskadi.eus/procurements/companies/05888"
        }
      }
    },
    {
      "name": "BIOLOGÍA Y TÉCNICA DE LA RADIACIÓN, S.L.",
      "registrationNumber": "05883",
      "identificationNumber": "B83248765",
      "address": "CERRO DE LOS PERDIGONES, 1 LOCAL 1",
      "location": {
        "postalCode": "28224",
        "municipality": "Pozuelo de Alarcón",
        "county": "Madrid",
        "municipalityId": "115",
        "countyId": "28"
      },
      "economicActivities": [
        {
          "id": "1.631",
          "name": "Intermediarios del comercio",
          "_links": {
            "self": {
              "name": "Intermediarios del comercio",
              "href": "https://api.euskadi.eus/procurements/companies/economic-activities/1.631"
            }
          }
        },
        {
          "id": "1.699",
          "name": "Otras reparaciones n.c.o.p",
          "_links": {
            "self": {
              "name": "Otras reparaciones n.c.o.p",
              "href": "https://api.euskadi.eus/procurements/companies/economic-activities/1.699"
            }
          }
        }
      ],
      "certificateStartDate": "2018-10-09",
      "certificateEndDate": "2018-12-21",
      "object": "LA COMPRA, VENTA, COMERCIALIZACIÓN, MANTENIMIENTO, REPARACIÓN, IMPORTACIÓN Y EXPORTACIÓN POR SÍ O POR CUENTA DE TERCEROS, DE EQUIPOS Y SISTEMAS DE MEDIDA, DE CONTROL DE CALIDAD, CÁLCULO, SISTEMAS INFORMÁTICOS, SISTEMAS DE EMISIÓN DE RADIACIONES IONIZANTES TANTO PARA EL CAMPO MÉDICO COMO PARA EL INDUSTRIAL; Y DE MAQUINARIA INDUSTRIA Y DE PRECISIÓN",
      "mainEntityOfPage": "https://www.contratacion.euskadi.eus/webkpe00-kperoc/es/ac71aBusquedaRegistrosWar/empresa/05883",
      "_links": {
        "self": {
          "name": "BIOLOGÍA Y TÉCNICA DE LA RADIACIÓN, S.L.",
          "href": "https://api.euskadi.eus/procurements/companies/05883"
        }
      }
    },
    {
      "name": "MICROFLUX, S.A.",
      "registrationNumber": "01335",
      "identificationNumber": "A58116104",
      "address": "C/ AUSIAS MARCH, 124 LOCAL 4",
      "location": {
        "postalCode": "08013",
        "municipality": "Barcelona",
        "county": "Barcelona",
        "municipalityId": "019",
        "countyId": "08"
      },
      "economicActivities": [
        {
          "id": "1.619.2",
          "name": "Venta al por mayor de aparatos e instrumentos médicos, ortopédicos, ópticos",
          "_links": {
            "self": {
              "name": "Venta al por mayor de aparatos e instrumentos médicos, ortopédicos, ópticos",
              "href": "https://api.euskadi.eus/procurements/companies/economic-activities/1.619.2"
            }
          }
        }
      ],
      "certificateStartDate": "2018-10-06",
      "certificateEndDate": "2019-04-06",
      "object": "LA DISTRIBUCIÓN Y VENTA, BIEN POR CUENTA PROPIA O POR CUENTA DE TERCEROS, DE TODO TIPO DE PRODUCTOS FARMACÉUTICOS, MEDICINAS Y MATERIAL SANITARIO EN GENERAL. LA VENTA E INSTALACIÓN DE MATERIAL CLÍNICO, Y APARATOS E INSTRUMENTAL MÉDICO SANITARIO",
      "mainEntityOfPage": "https://www.contratacion.euskadi.eus/webkpe00-kperoc/es/ac71aBusquedaRegistrosWar/empresa/01335",
      "_links": {
        "self": {
          "name": "MICROFLUX, S.A.",
          "href": "https://api.euskadi.eus/procurements/companies/01335"
        }
      }
    }
  ]
}