{
  "totalItems": 9042,
  "totalPages": 905,
  "currentPage": 207,
  "itemsOfPage": 10,
  "items": [
    {
      "name": "ETXABE ODRIOZOLA ERAIKUNTZAK, S.L.",
      "registrationNumber": "10396",
      "identificationNumber": "B70985700",
      "address": "GALARTZA INDUSTRIALDEA 2B, LOCAL A",
      "location": {
        "postalCode": "48277",
        "municipality": "Etxebarria",
        "county": "Bizkaia",
        "municipalityId": "030",
        "countyId": "48"
      },
      "economicActivities": [
        {
          "id": "1.507",
          "name": "Construcción, reparación y conservación de toda clase obras",
          "_links": {
            "self": {
              "name": "Construcción, reparación y conservación de toda clase obras",
              "href": "https://api.euskadi.eus/procurements/companies/economic-activities/1.507"
            }
          }
        }
      ],
      "certificateStartDate": "2025-10-20",
      "certificateEndDate": "2026-04-15",
      "object": "A- LAS ACTIVIDADES PROPIAS DE LA CONSTRUCCIÓN POR CUENTA PROPIA O AJENA, EN ESPECIAL LA PROMOCIÓN, CONSTRUCCIÓN, REPARACIÓN, REHABILITACIÓN, RESTAURACIÓN, REFORMA, ACABADO Y CONSERVACIÓN DE EDIFICIOS Y VIVIENDAS, OBRAS PÚBLICAS Y CUALQUIER TIPO DE OBRA EN GENERAL, ASÍ COMO TRABAJOS DE ALBAÑILERÍA, TRABAJOS EN YESO Y ESCAYOLA Y TRABAJOS DE REVESTIMIENTOS INTERIORES Y EXTERIORES, INCLUYENDO TRABAJOS DE CONSOLIDACIÓN DE TERRENOS Y ARREGLO DE CAMINOS. B- DEMOLICIÓN Y RETIRADA DE ESCOMBROS ASÍ COMO CUALQUIER MATERIAL RESIDUAL DE LAS ACTIVIDADES DESCRITAS. C- ELABORACIÓN DE TODO TIPO DE ESTUDIOS, INFORMES Y PROYECTOS Y LA CELEBRACIÓN DE CONTRATOS SOBRE LAS ACTIVIDADES INDICADAS, ASÍ COMO LA SUPERVISIÓN, DIRECCIÓN Y ASESORAMIENTO EN SU EJECUCIÓN. D- COMPRAVENTA Y/O ALQUILER DE LOCALES, OFICINAS O INMUEBLES EN GENERAL, ASÍ COMO BIENES MUEBLES, DESTINADOS A LA ACTIVIDAD DESCRITAS. E- SUBCONTRATA DE EMPRESAS Y/O AUTÓNOMOS PARA LA REALIZACIÓN DE ACTIVIDADES DESCRITAS. F- TRANSPORTE DE MATERIALES Y HERRAMIENTAS DIRECTA O INDIRECTAMENTE RELACIONADAS CON LAS ACTIVIDADES DESCRITAS. ",
      "mainEntityOfPage": "https://www.contratacion.euskadi.eus/webkpe00-kperoc/es/ac71aBusquedaRegistrosWar/empresa/10396",
      "_links": {
        "self": {
          "name": "ETXABE ODRIOZOLA ERAIKUNTZAK, S.L.",
          "href": "https://api.euskadi.eus/procurements/companies/10396"
        }
      }
    },
    {
      "name": "EQUI STUDIO, S. COOP. PEQUEÑA",
      "registrationNumber": "08161",
      "identificationNumber": "F95866943",
      "address": "Plaza Nueva 5 3 Izda. Dpto. 1",
      "location": {
        "postalCode": "48005",
        "municipality": "Bilbao",
        "county": "Bizkaia",
        "municipalityId": "020",
        "countyId": "48"
      },
      "economicActivities": [
        {
          "id": "1.843.2",
          "name": "Servicios técnicos de arquitectura y urbanismo",
          "_links": {
            "self": {
              "name": "Servicios técnicos de arquitectura y urbanismo",
              "href": "https://api.euskadi.eus/procurements/companies/economic-activities/1.843.2"
            }
          }
        },
        {
          "id": "1.843.9",
          "name": "Otros servicios técnicos n.c.o.p",
          "_links": {
            "self": {
              "name": "Otros servicios técnicos n.c.o.p",
              "href": "https://api.euskadi.eus/procurements/companies/economic-activities/1.843.9"
            }
          }
        }
      ],
      "certificateStartDate": "2025-10-20",
      "certificateEndDate": "2026-04-15",
      "object": "A) PRESTACIÓN DE SERVICIOS DE ARQUITECTURA TÉCNICA, ASÍ COMO EL DISEÑO DE TODO TIPO DE BIENES MUEBLES E INMUEBLES. B) LA COMERCIALIZACIÓN Y VENTA DE MUEBLES, ARTÍCULOS DE DECORACIÓN, ELECTRODOMÉSTICOS Y APARATOS ELECTRÓNICOS Y CUALQUIER EQUIPAMIENTO AUXILIAR. C) LA REFORMA INTEGRAL DE ESPACIOS Y LA EJECUCIÓN DE CUALQUIER TIPO DE OBRAS DE INTERIORISMO, DECORACIÓN, EQUIPAMIENTO EXTERIOR E INTERIOR. D) LA CONTRATACIÓN Y REALIZACIÓN DE TODA CLASE DE OBRAS DE CONSTRUCCIÓN O REFORMA, ABASTECIMIENTO DE AGUAS, SANEAMIENTO URBANIZACIÓN Y PLANIFICACIÓN POR CUENTA PROPIA O AJENA. E) LA CONSTRUCCIÓN, REFORMA, REHABILITACIÓN, GESTIÓN Y COMPRA VENTA DE TODO TIPO DE EDIFICIOS, LOCALES COMERCIALES, ALMACENES Y NAVES INDUSTRIALES ADEMÁS DE MAQUINARIA Y VEHÍCULOS TERRESTRES, ASÍ COMO EL ARRENDAMIENTO DE LOS MISMOS. F) COORDINACIÓN EN LA PRESTACIÓN DE SERVICIOS DE REALIZACIÓN DE PROYECTOS DE OBRAS. G) LA PRODUCCIÓN, EXHIBICIÓN, EDICIÓN, MONTAJE, PROMOCIÓN, POSTPRODUCCIÓN, VENTA Y DISTRIBUCIÓN Y EXPLOTACIÓN EN GENERAL DE CUALQUIER TIPO DE MEDIO SOPORTE AUDIOVISUAL, GRABACIONES Y REALIZACIONES CINEMATOGRÁFICAS, AUDIOVISUALES Y MUSICALES Y OTRAS PUBLICACIONES EN SOPORTE PAPEL QUE EXISTAN EN LA ACTUALIDAD O EN EL FUTURO. H) LA PRESTACIÓN DE SERVICIOS DE PUBLICIDAD Y MERCADOTÉCNICA, ASÍ COMO LA ORGANIZACIÓN Y CREACIÓN DE EVENTOS. I) EL DESARROLLO DE ACTIVIDADES DE INVESTIGACIÓN CIENTÍFICA, DE FORMACIÓN EMPRESARIAL Y PROFESIONAL A TRAVÉS DE CONFERENCIAS, SEMINARIOS, MANUALES, LIBROS Y CUALQUIER OTRO MEDIO AUDIOVISUAL, LA PUBLICACIÓN DE APLICACIONES INFORMÁTICAS, BASES DE DATOS Y OTRAS HERRAMIENTAS INFORMÁTICAS RELACIONADAS CON LA ACTIVIDAD DE LA ARQUITECTURA Y EL DISEÑO.",
      "mainEntityOfPage": "https://www.contratacion.euskadi.eus/webkpe00-kperoc/es/ac71aBusquedaRegistrosWar/empresa/08161",
      "_links": {
        "self": {
          "name": "EQUI STUDIO, S. COOP. PEQUEÑA",
          "href": "https://api.euskadi.eus/procurements/companies/08161"
        }
      }
    },
    {
      "name": "CIANOPLAN, S.L.",
      "registrationNumber": "03793",
      "identificationNumber": "B95546701",
      "address": "VILLA DE PLENCIA 6",
      "location": {
        "postalCode": "48930",
        "municipality": "Getxo",
        "county": "Bizkaia",
        "municipalityId": "044",
        "countyId": "48"
      },
      "economicActivities": [
        {
          "id": "1.474",
          "name": "Artes gráficas (impresión gráfica)",
          "_links": {
            "self": {
              "name": "Artes gráficas (impresión gráfica)",
              "href": "https://api.euskadi.eus/procurements/companies/economic-activities/1.474"
            }
          }
        },
        {
          "id": "1.659.9",
          "name": "Venta al por menor de otros productos no especificados en esta agrupación",
          "_links": {
            "self": {
              "name": "Venta al por menor de otros productos no especificados en esta agrupación",
              "href": "https://api.euskadi.eus/procurements/companies/economic-activities/1.659.9"
            }
          }
        },
        {
          "id": "1.845",
          "name": "Explotación electrónica por cuenta de terceros",
          "_links": {
            "self": {
              "name": "Explotación electrónica por cuenta de terceros",
              "href": "https://api.euskadi.eus/procurements/companies/economic-activities/1.845"
            }
          }
        }
      ],
      "certificateStartDate": "2025-10-20",
      "certificateEndDate": "2026-04-15",
      "object": "LA REPRODUCCIÓN DE TEXTOS O IMÁGENES POR PROCEDIMIENTOS TALES COMO MULTICOPISTA, FOTOCOPIAS, POR PROCEDIMIENTOS FOTOGRÁFICOS O ELECTROESTÁTICOS, SISTEMAS DE REPRODUCCIÓN DE PLANOS, ETC.; ASÍ COMO LA COMERCIALIZACIÓN, EN SU MÁS AMPLIO SENTIDO, DE MATERIAL PARA OFICINAS COMERCIALES Y TÉCNICAS",
      "mainEntityOfPage": "https://www.contratacion.euskadi.eus/webkpe00-kperoc/es/ac71aBusquedaRegistrosWar/empresa/03793",
      "_links": {
        "self": {
          "name": "CIANOPLAN, S.L.",
          "href": "https://api.euskadi.eus/procurements/companies/03793"
        }
      }
    },
    {
      "name": "ASIER OSMA CARRILLO",
      "registrationNumber": "08788",
      "identificationNumber": "78953791N",
      "address": "CALLE DOCTOR DIAZ EMPARANZA Nº 1-B - 2ºA ",
      "location": {
        "postalCode": "48002",
        "municipality": "Bilbao",
        "county": "Bizkaia",
        "municipalityId": "020",
        "countyId": "48"
      },
      "economicActivities": [
        {
          "id": "2.826",
          "name": "Personal docente de enseñanzas diversas",
          "_links": {
            "self": {
              "name": "Personal docente de enseñanzas diversas",
              "href": "https://api.euskadi.eus/procurements/companies/economic-activities/2.826"
            }
          }
        }
      ],
      "certificateStartDate": "2025-10-20",
      "certificateEndDate": "2026-04-15",
      "object": "PERSONAL DOCENTE DE ENSEÑANZAS DIVERSAS.",
      "mainEntityOfPage": "https://www.contratacion.euskadi.eus/webkpe00-kperoc/es/ac71aBusquedaRegistrosWar/empresa/08788",
      "_links": {
        "self": {
          "name": "ASIER OSMA CARRILLO",
          "href": "https://api.euskadi.eus/procurements/companies/08788"
        }
      }
    },
    {
      "name": "ELECTRICIDAD ARGI-OLA, S.L.",
      "registrationNumber": "03053",
      "identificationNumber": "B48485098",
      "address": "IBARRA KALEA 19, PAB4",
      "location": {
        "postalCode": "48300",
        "municipality": "Gernika-Lumo",
        "county": "Bizkaia",
        "municipalityId": "046",
        "countyId": "48"
      },
      "economicActivities": [
        {
          "id": "1.504.12",
          "name": "Instalaciones eléctricas en toda clase de edificios",
          "_links": {
            "self": {
              "name": "Instalaciones eléctricas en toda clase de edificios",
              "href": "https://api.euskadi.eus/procurements/companies/economic-activities/1.504.12"
            }
          }
        }
      ],
      "certificateStartDate": "2025-10-20",
      "certificateEndDate": "2026-04-15",
      "classification": [
        {
          "id": "O",
          "name": "Obras",
          "groups": [
            {
              "id": "I",
              "name": "INSTALACIONES ELÉCTRICAS",
              "subgroups": [
                {
                  "id": "01",
                  "name": "Alumbrados, iluminaciones y balizamientos",
                  "categories": [
                    {
                      "id": "3",
                      "name": "Desde 360.001 Hasta 840.000",
                      "_links": {
                        "self": {
                          "name": "Desde 360.001 Hasta 840.000",
                          "href": "https://api.euskadi.eus/procurements/companies/types/O/categories/3"
                        }
                      }
                    }
                  ],
                  "_links": {
                    "self": {
                      "name": "Alumbrados, iluminaciones y balizamientos",
                      "href": "https://api.euskadi.eus/procurements/companies/types/O/groups/I/subgroups/01"
                    }
                  }
                },
                {
                  "id": "06",
                  "name": "Distribución en baja tensión",
                  "categories": [
                    {
                      "id": "3",
                      "name": "Desde 360.001 Hasta 840.000",
                      "_links": {
                        "self": {
                          "name": "Desde 360.001 Hasta 840.000",
                          "href": "https://api.euskadi.eus/procurements/companies/types/O/categories/3"
                        }
                      }
                    }
                  ],
                  "_links": {
                    "self": {
                      "name": "Distribución en baja tensión",
                      "href": "https://api.euskadi.eus/procurements/companies/types/O/groups/I/subgroups/06"
                    }
                  }
                },
                {
                  "id": "09",
                  "name": "Instalaciones eléctricas sin cualificación específica",
                  "categories": [
                    {
                      "id": "3",
                      "name": "Desde 360.001 Hasta 840.000",
                      "_links": {
                        "self": {
                          "name": "Desde 360.001 Hasta 840.000",
                          "href": "https://api.euskadi.eus/procurements/companies/types/O/categories/3"
                        }
                      }
                    }
                  ],
                  "_links": {
                    "self": {
                      "name": "Instalaciones eléctricas sin cualificación específica",
                      "href": "https://api.euskadi.eus/procurements/companies/types/O/groups/I/subgroups/09"
                    }
                  }
                }
              ],
              "_links": {
                "self": {
                  "name": "INSTALACIONES ELÉCTRICAS",
                  "href": "https://api.euskadi.eus/procurements/companies/types/O/groups/I"
                }
              }
            }
          ],
          "_links": {
            "self": {
              "name": "Obras",
              "href": "https://api.euskadi.eus/procurements/companies/types/O"
            }
          }
        },
        {
          "id": "S",
          "name": "Servicios",
          "groups": [
            {
              "id": "P",
              "subgroups": [
                {
                  "id": "01",
                  "name": "Mantenimiento y reparación de equipos e instalaciones eléctricas y electrónicas",
                  "categories": [
                    {
                      "id": "1",
                      "name": "Desde 0 Hasta 150.000",
                      "_links": {
                        "self": {
                          "name": "Desde 0 Hasta 150.000",
                          "href": "https://api.euskadi.eus/procurements/companies/types/S/categories/1"
                        }
                      }
                    }
                  ],
                  "_links": {
                    "self": {
                      "name": "Mantenimiento y reparación de equipos e instalaciones eléctricas y electrónicas",
                      "href": "https://api.euskadi.eus/procurements/companies/types/S/groups/P/subgroups/01"
                    }
                  }
                }
              ],
              "_links": {
                "self": {
                  "href": "https://api.euskadi.eus/procurements/companies/types/S/groups/P"
                }
              }
            },
            {
              "id": "Q",
              "subgroups": [
                {
                  "id": "01",
                  "name": "Mantenimiento y reparación de maquinaria",
                  "categories": [
                    {
                      "id": "2",
                      "name": "Desde 150.001 Hasta 300.000",
                      "_links": {
                        "self": {
                          "name": "Desde 150.001 Hasta 300.000",
                          "href": "https://api.euskadi.eus/procurements/companies/types/S/categories/2"
                        }
                      }
                    }
                  ],
                  "_links": {
                    "self": {
                      "name": "Mantenimiento y reparación de maquinaria",
                      "href": "https://api.euskadi.eus/procurements/companies/types/S/groups/Q/subgroups/01"
                    }
                  }
                }
              ],
              "_links": {
                "self": {
                  "href": "https://api.euskadi.eus/procurements/companies/types/S/groups/Q"
                }
              }
            }
          ],
          "_links": {
            "self": {
              "name": "Servicios",
              "href": "https://api.euskadi.eus/procurements/companies/types/S"
            }
          }
        }
      ],
      "object": "LA VENTA  E INSTALACIÓN DE CAMPANAS DE MATERIAL ELÉCTRICO Y ELECTRODOMÉSTICOS DE TODO TIPO, E INSTALACIONES ELÉCTRICAS EN GENERAL",
      "mainEntityOfPage": "https://www.contratacion.euskadi.eus/webkpe00-kperoc/es/ac71aBusquedaRegistrosWar/empresa/03053",
      "_links": {
        "self": {
          "name": "ELECTRICIDAD ARGI-OLA, S.L.",
          "href": "https://api.euskadi.eus/procurements/companies/03053"
        }
      }
    },
    {
      "name": "MKM INTERNACIONAL BUSINESS CONSULTING S.L.",
      "registrationNumber": "05384",
      "identificationNumber": "B95017125",
      "address": "Iturriondo, 18, PAE Ibarrabarri, edif. F-Metro, 1ºC",
      "location": {
        "postalCode": "48940",
        "municipality": "Leioa",
        "county": "Bizkaia",
        "municipalityId": "054",
        "countyId": "48"
      },
      "economicActivities": [
        {
          "id": "1.846",
          "name": "Empresas de estudios de mercado",
          "_links": {
            "self": {
              "name": "Empresas de estudios de mercado",
              "href": "https://api.euskadi.eus/procurements/companies/economic-activities/1.846"
            }
          }
        },
        {
          "id": "1.847",
          "name": "Servicios de consultoría",
          "_links": {
            "self": {
              "name": "Servicios de consultoría",
              "href": "https://api.euskadi.eus/procurements/companies/economic-activities/1.847"
            }
          }
        },
        {
          "id": "1.932.2",
          "name": "Enseñanza de formación y perfeccionamiento profesional superior",
          "_links": {
            "self": {
              "name": "Enseñanza de formación y perfeccionamiento profesional superior",
              "href": "https://api.euskadi.eus/procurements/companies/economic-activities/1.932.2"
            }
          }
        }
      ],
      "certificateStartDate": "2025-10-20",
      "certificateEndDate": "2026-04-13",
      "object": "LA CONSULTORIA ESTRATÉGICA Y OPERATIVA EN EL ÁMBITO DE LAS RELACIONES ECONÓMICAS INTERNACIONALES; DISEÑO, DESARROLLO E IMPLANTACIÓN DE ACTIVIDADES EMPRESARIALES EN EL MUNDO GLOBALIZADO; EXPORTACIÓN, IMPORTACIÓN Y DISTRIBUCIÓN DE PRODUCTOS Y SERVICIOS A ESCALA INTERNACIONAL. LA PRESTACIÓN DE CUALQUIER SERVICIO DE CONSULTORÍA Y ASESORÍA EXTERNA PARA ENTIDADES PÚBLICAS Y PRIVADAS A NIVEL NACIONAL E INTERNACIONAL EN CUALQUIER ÁMBITO DE ACTIVIDAD RELACIONADA CON RECURSOS HUMANOS Y ORGANIZACIÓN DE PROCESOS INTERNOS Y DEL TRABAJO, ASÍ COMO LA COOPERACIÓN INTERNACIONAL RELACIONADA CON LO ANTERIOR.",
      "mainEntityOfPage": "https://www.contratacion.euskadi.eus/webkpe00-kperoc/es/ac71aBusquedaRegistrosWar/empresa/05384",
      "_links": {
        "self": {
          "name": "MKM INTERNACIONAL BUSINESS CONSULTING S.L.",
          "href": "https://api.euskadi.eus/procurements/companies/05384"
        }
      }
    },
    {
      "name": "ERAMAN GRÚAS Y SERVICIOS, S.A.",
      "registrationNumber": "02432",
      "identificationNumber": "A20044889",
      "address": "Gregorio de la Revilla, 27, 1º",
      "location": {
        "postalCode": "48010",
        "municipality": "Bilbao",
        "county": "Bizkaia",
        "municipalityId": "020",
        "countyId": "48"
      },
      "economicActivities": [
        {
          "id": "1.722",
          "name": "Transporte de mercancías por carretera",
          "_links": {
            "self": {
              "name": "Transporte de mercancías por carretera",
              "href": "https://api.euskadi.eus/procurements/companies/economic-activities/1.722"
            }
          }
        }
      ],
      "certificateStartDate": "2025-10-20",
      "certificateEndDate": "2026-04-11",
      "object": "LA ADQUISICIÓN Y EXPLOTACIÓN POR CUALQUIER TÍTULO DE TODO TIPO DE GRÚAS, MAQUINAS Y ACCESORIOS APTOS PARA LA PRESTACIÓN DE SERVICIOS RELACIONADOS CON EL TRÁFICO DE VEHÍCULOS MECÁNICOS Y ASISTENCIA A LOS MISMOS, TANTO DIRECTAMENTE A PERSONAS PRIVADAS COMO A ORGANISMOS PÚBLICOS, MUNICIPIOS Y COMUNIDADES AUTÓNOMAS, MEDIANTE, EN SU CASO, LAS OPORTUNAS CONCESIONES ADMINISTRATIVAS, ASÍ COMO CUALQUIERA OTRAS ACTIVIDADES QUE TENGAN RELACIÓN DIRECTA O INDIRECTA CON LA EXPLOTACIÓN DE GRÚAS, EL TRASPORTE Y CONTROL DE VEHÍCULOS MECÁNICOS Y ASISTENCIA A LOS MISMOS. LA PRESTACIÓN DE TODA CLASE DE SERVICIOS RELACIONADOS CON EL CONTROL Y VIGILANCIA DE ESTACIONAMIENTO, INCLUIDO EL ESTACIONAMIENTO EN LA VÍA PÚBLICA. ASIMISMO EL MANTENIMIENTO, ADQUISICIÓN Y ASESORAMIENTO DE TODOS LOS ELEMENTOS NECESARIOS PARA LA CORRECTA EXPLOTACIÓN DE DICHOS SERVICIOS. LA EXPLOTACIÓN, COMPRA-VENTA Y COMERCIALIZACIÓN DE TODA CLASE DE ESTACIONAMIENTOS Y ACTIVIDADES PROPIOS DE HOSTELERIA, ESTABLECIMIENTOS HOTELEROS, BARES Y CAFETERÍAS ASÍ COMO LA COMERCIALIZACIÓN DE PRODUCTOS ALIMENTICIOS, BEBIDAS O DE CUALQUIER OTRA ÍNDOLES RELACIONADOS CON DICHAS ACTIVIDADES. LA COMPRA-VENTA, ADMINISTRACIÓN, EXPLOTACIÓN, ARRIENDO, PROMOCIÓN, MANTENIMIENTO, CONSERVACIÓN Y REHABILITACIÓN DE EDIFICIOS, CONSTRUCCIÓN DE TERRENOS RUSTICOS Y URBANOS, DE URBANIZACIONES DE VIVIENDAS, LOCALES COMERCIALES, INDUSTRIALES E INSTALACIONES URBANAS, DEPORTIVAS Y EXPLOTACIONES AGROPECUARIAS, FORESTALES Y GANADERAS",
      "mainEntityOfPage": "https://www.contratacion.euskadi.eus/webkpe00-kperoc/es/ac71aBusquedaRegistrosWar/empresa/02432",
      "_links": {
        "self": {
          "name": "ERAMAN GRÚAS Y SERVICIOS, S.A.",
          "href": "https://api.euskadi.eus/procurements/companies/02432"
        }
      }
    },
    {
      "name": "EQUIPAMIENTO Y PAVIMENTO DEPORTIVOS INNOVA SPORT, S.L.",
      "registrationNumber": "06163",
      "identificationNumber": "B95838488",
      "address": "POLIGONO INDUSTRIAL AURRERA, MANZANA 8 NAVA 22 A",
      "location": {
        "postalCode": "48510",
        "municipality": "Valle de Trápaga-Trapagaran",
        "county": "Bizkaia",
        "municipalityId": "080",
        "countyId": "48"
      },
      "economicActivities": [
        {
          "id": "1.501.2",
          "name": "Construcción completa, reparación y conservación obras civiles",
          "_links": {
            "self": {
              "name": "Construcción completa, reparación y conservación obras civiles",
              "href": "https://api.euskadi.eus/procurements/companies/economic-activities/1.501.2"
            }
          }
        },
        {
          "id": "1.619.1",
          "name": "Venta al por mayor de juguetes y artículos de deporte",
          "_links": {
            "self": {
              "name": "Venta al por mayor de juguetes y artículos de deporte",
              "href": "https://api.euskadi.eus/procurements/companies/economic-activities/1.619.1"
            }
          }
        },
        {
          "id": "1.659.6",
          "name": "Venta al por menor de juguetes, artículos de deporte",
          "_links": {
            "self": {
              "name": "Venta al por menor de juguetes, artículos de deporte",
              "href": "https://api.euskadi.eus/procurements/companies/economic-activities/1.659.6"
            }
          }
        }
      ],
      "certificateStartDate": "2025-10-20",
      "certificateEndDate": "2026-04-13",
      "object": "COMERCIALIZACIÓN, COMPRA, VENTA, FABRICACIÓN, ELABORACIÓN, DISEÑO, PLANIFICACIÓN, DISTRIBUCIÓN, INSTALACION, ARRENDAMIENTO, EXPORTACIÓN E IMPORTACIÓN DE MATERIAL , MAQUINARIA Y EQUIPAMIENTO, TODO ELLO RELACIONADO CON CUALQUIER MODALIDAD DEPORTIVA, INCLUIDAS LAS ARMAS Y LA PIROTECNIA, ASÍ COMO LA INSTALACIÓN DE PAVIMENTO DEPORTIVO",
      "mainEntityOfPage": "https://www.contratacion.euskadi.eus/webkpe00-kperoc/es/ac71aBusquedaRegistrosWar/empresa/06163",
      "_links": {
        "self": {
          "name": "EQUIPAMIENTO Y PAVIMENTO DEPORTIVOS INNOVA SPORT, S.L.",
          "href": "https://api.euskadi.eus/procurements/companies/06163"
        }
      }
    },
    {
      "name": "INGOIN KOOP. ELK. TXIKIA",
      "registrationNumber": "10395",
      "identificationNumber": "F70982533",
      "address": "C/De la Iglesia 1",
      "location": {
        "postalCode": "01423",
        "municipality": "Valdegovía/Gaubea",
        "county": "Araba/Álava",
        "municipalityId": "055",
        "countyId": "01"
      },
      "economicActivities": [
        {
          "id": "1.847",
          "name": "Servicios de consultoría",
          "_links": {
            "self": {
              "name": "Servicios de consultoría",
              "href": "https://api.euskadi.eus/procurements/companies/economic-activities/1.847"
            }
          }
        },
        {
          "id": "1.931.5",
          "name": "Enseñanza de educación superior",
          "_links": {
            "self": {
              "name": "Enseñanza de educación superior",
              "href": "https://api.euskadi.eus/procurements/companies/economic-activities/1.931.5"
            }
          }
        }
      ],
      "certificateStartDate": "2025-10-20",
      "certificateEndDate": "2026-04-18",
      "object": "OFRECER FORMACIÓN, FACILITACIÓN DE PROCESOS Y ACOMPAÑAMIENTO A ORGANIZACIONES PARA SU FORTALECIMIENTO Y TRANSFORMACIÓN HACIA LA REGENERACIÓN PONIENDO LA VIDA Y LOS CUIDADOS AL CENTRO.",
      "mainEntityOfPage": "https://www.contratacion.euskadi.eus/webkpe00-kperoc/es/ac71aBusquedaRegistrosWar/empresa/10395",
      "_links": {
        "self": {
          "name": "INGOIN KOOP. ELK. TXIKIA",
          "href": "https://api.euskadi.eus/procurements/companies/10395"
        }
      }
    },
    {
      "name": "NORTELEC, S.L.",
      "registrationNumber": "00863",
      "identificationNumber": "B48423891",
      "address": "C/JUAN DE GARAY, 37",
      "location": {
        "postalCode": "48003",
        "municipality": "Bilbao",
        "county": "Bizkaia",
        "municipalityId": "020",
        "countyId": "48"
      },
      "economicActivities": [
        {
          "id": "1.504.11",
          "name": "Instalaciones eléctricas en general, redes telegráficas, telefonía, tv, etc",
          "_links": {
            "self": {
              "name": "Instalaciones eléctricas en general, redes telegráficas, telefonía, tv, etc",
              "href": "https://api.euskadi.eus/procurements/companies/economic-activities/1.504.11"
            }
          }
        },
        {
          "id": "1.615.4",
          "name": "Venta al por mayor de aparatos y material radioeléctrico y electrónico",
          "_links": {
            "self": {
              "name": "Venta al por mayor de aparatos y material radioeléctrico y electrónico",
              "href": "https://api.euskadi.eus/procurements/companies/economic-activities/1.615.4"
            }
          }
        },
        {
          "id": "1.653.2",
          "name": "Venta al por menor de material y aparatos eléctricos, electrodomésticos y cocina",
          "_links": {
            "self": {
              "name": "Venta al por menor de material y aparatos eléctricos, electrodomésticos y cocina",
              "href": "https://api.euskadi.eus/procurements/companies/economic-activities/1.653.2"
            }
          }
        }
      ],
      "certificateStartDate": "2025-10-20",
      "certificateEndDate": "2026-04-14",
      "object": "LA INSTALACION, VENTAS, SUMINISTROS DE MATERIAL ELECTRICO, TELEFONIA, ALARMAS, MEDIOS DE SEGURIDAD Y COMUNICACIONES",
      "mainEntityOfPage": "https://www.contratacion.euskadi.eus/webkpe00-kperoc/es/ac71aBusquedaRegistrosWar/empresa/00863",
      "_links": {
        "self": {
          "name": "NORTELEC, S.L.",
          "href": "https://api.euskadi.eus/procurements/companies/00863"
        }
      }
    }
  ]
}