{
  "totalItems": 9042,
  "totalPages": 905,
  "currentPage": 541,
  "itemsOfPage": 10,
  "items": [
    {
      "name": "SOPORTES LEVANTE, S.L.",
      "registrationNumber": "07545",
      "identificationNumber": "B42619718",
      "address": "C/ CERVANTES 22. LOCAL .",
      "location": {
        "postalCode": "03550",
        "municipality": "Sant Joan d'Alacant",
        "county": "Alicante/Alacant",
        "municipalityId": "119",
        "countyId": "03"
      },
      "economicActivities": [
        {
          "id": "1.844",
          "name": "Servicios de publicidad, relaciones públicas y similares",
          "_links": {
            "self": {
              "name": "Servicios de publicidad, relaciones públicas y similares",
              "href": "https://api.euskadi.eus/procurements/companies/economic-activities/1.844"
            }
          }
        }
      ],
      "certificateStartDate": "2021-03-11",
      "certificateEndDate": "2021-09-05",
      "object": "AGENCIA DE PUBLICIDAD -CNAE7311. LA CREACIÓN, DISEÑO Y DISTRIBUCIÓN DE TODO TIPO DE PIEZAS CREATIVAS Y CAMPAÑAS DE PUBLICIDAD, PLANIFICACIÓN DE CAMPAÑAS, CONTRATACIÓN DE ESPACIOS PARA SU DIFUSIÓN EN MEDIOS DE COMUNICACIÓN, INTERMEDIACIÓN EN EL MERCADO PUBLICITARIO, COMPRAVENTA DE TODO TIPO DE OBJETOS PUBLICITARIOS, ORGANIZACIÓN DE EVENTOS CORPORATIVOS (FERIAS, INAUGURACIONES) Y RELACIONES PÚBLICAS. LA IMPLANTACIÓN DE IMAGEN CORPORATIVA Y OTROS ELEMENTOS DE COMUNICACIÓN VISUAL. EL MONTAJE E INSTALACIONES DE TODO TIPO DE SOPORTES PUBLICITARIOS. TRAMITACIÓN DE PERMISOS PARA SU COLOCACIÓN Y MANTENIMIENTO DE ELEMENTOS. LA COMPRAVENTA DE SOPORTES PUBLICITARIOS EXTERIORES, VALLAS PUBLICITARIAS, MONOPOSTES, RÓTULOS Y LUMINOSOS, DISPLAYS Y PORTAFOLLETOS, BANDEROLAS, ELEMENTOS DE SEÑALÉTICA TANTO EXTERIOR COMO INTERIOR, LONAS PUBLICITARIAS, LETRAS CORPÓREAS. LA INSTALACIÓN DE DICHOS ELEMENTOS Y GESTIÓN DE PERMISOS Y LICENCIAS NECESARIOS PARA SU CORRECTA INSTALACIÓN, POR CUENTA DE TERCEROS. EL COMERCIO AL POR MAYOR DE TODO TIPO DE APARATOS DE ILUMINACIÓN, MATERIAL ELÉCTRICO, PANTALLAS DE LED DE PEQUEÑO Y GRAN FORMATO, MARCADORES DEPORTIVOS, SEÑALÉTICA DE LED. EL COMERCIO AL POR MAYOR DE SOPORTES INTELIGENTES. EL DISEÑO, DESARROLLO Y COMERCIALIZACIÓN DE CONVERTIDORES DE ENERGÍA SOLAR Y MOBILIARIO URBANO. LA COMPRAVENTA, ALQUILER Y REPARACIÓN DE TODO TIPO DE MATERIAL DEPORTIVO, COMPLEMENTOS Y ARTÍCULOS ELECTRÓNICOS, DE OCIO Y DEPORTE. LA ORGANIZACIÓN DE CURSOS, ESCUELAS DEPORTIVAS, EVENTOS, RUTAS Y PAQUETES VACACIONALES",
      "mainEntityOfPage": "https://www.contratacion.euskadi.eus/webkpe00-kperoc/es/ac71aBusquedaRegistrosWar/empresa/07545",
      "_links": {
        "self": {
          "name": "SOPORTES LEVANTE, S.L.",
          "href": "https://api.euskadi.eus/procurements/companies/07545"
        }
      }
    },
    {
      "name": "DYNEFF ESPAÑA S.L.",
      "registrationNumber": "07546",
      "identificationNumber": "B48503585",
      "address": "C/MIGDIA 37 1ER",
      "location": {
        "postalCode": "17002",
        "municipality": "Girona",
        "county": "Girona",
        "municipalityId": "079",
        "countyId": "17"
      },
      "economicActivities": [
        {
          "id": "1.616.5",
          "name": "Venta al por mayor de petróleo y lubricantes",
          "_links": {
            "self": {
              "name": "Venta al por mayor de petróleo y lubricantes",
              "href": "https://api.euskadi.eus/procurements/companies/economic-activities/1.616.5"
            }
          }
        },
        {
          "id": "1.646.51",
          "name": "Venta al por menor de tabaco en máquina, titular establecimiento",
          "_links": {
            "self": {
              "name": "Venta al por menor de tabaco en máquina, titular establecimiento",
              "href": "https://api.euskadi.eus/procurements/companies/economic-activities/1.646.51"
            }
          }
        },
        {
          "id": "1.655.3",
          "name": "Venta al por menor de carburantes para el surtido de vehículos",
          "_links": {
            "self": {
              "name": "Venta al por menor de carburantes para el surtido de vehículos",
              "href": "https://api.euskadi.eus/procurements/companies/economic-activities/1.655.3"
            }
          }
        },
        {
          "id": "1.662.2",
          "name": "Venta al por menor de toda clase de artículos, pequeños establecimientos",
          "_links": {
            "self": {
              "name": "Venta al por menor de toda clase de artículos, pequeños establecimientos",
              "href": "https://api.euskadi.eus/procurements/companies/economic-activities/1.662.2"
            }
          }
        },
        {
          "id": "1.673.2",
          "name": "Otros cafés y bares",
          "_links": {
            "self": {
              "name": "Otros cafés y bares",
              "href": "https://api.euskadi.eus/procurements/companies/economic-activities/1.673.2"
            }
          }
        }
      ],
      "certificateStartDate": "2021-03-11",
      "certificateEndDate": "2021-08-19",
      "object": "A) LA CONSTRUCCIÓN, COMPRA-VENTA, INSTALACION, ARRENDAMIENTO CON O SIN OPCIÓN DE COMPRA, EXPLOTACIÓN Y MANTENIMIENTO DE DEPÓSITOS DE ALMACENAMIENTO DE PRODUCTOS PETROLÍFEROS, QUÍMICOS Y ESPECIALES CON TODOS SUS ELEMENTOS Y ACCESORIOS ASÍ COMO CUALQUIER ACTIVIDAD Y/O ESTABLECIMIENTO QUE SEA DE UTILIDAD PARA EL DESARROLLO DEL OBJETO SOCIAL. B) EL ALMACENAJE,MANIPULACIÓN Y TRASIEGO DE CARBURANTES Y COMBUSTIBLES DE AUTOMOCIÓN EN DEPÓSITOS ESPECIALES CON PERCEPCIÓN DE DERECHOS ECONÓMICOS DERIVADOS DEL DEPÓSITO Y TRATAMIENTO DE LOS PRODUCTOS. C) EL TRANSPORTE TERRESTRE Y MARÍTIMO , CARGA Y DESCARGA, POR MEDIOS PROPIOS O AJENOS DE PRODUCTOS DESTINADOS A LOS DEPÓSITOS DE ALMACENAMIENTO O CON SALIDA DE ÉSTOS A INSTALACIONES DE TERCEROS, EL ALQUILER, COMPRA Y LA VENTA DE VEHICULOS NUEVOS Y USADOS Y MATERIALES DIVERSOS, REPARACIÓN DE VEHÍCULOS, ACTIVIDAD DE TALLER DE TODA CLASE DE VEHÍCULOS, MANTENIMIENTO , CUALQUIER PRESTACIÓN DE SERVICIOS, LIMPIEZA DE CUBAS Y VERIFICACIONES TÉCNICAS DE TODAS LAS INSTALACIONES PETROLERAS. D) EL COMERCIO AL POR MAYOR Y AL POR MENOR DE PRODUCTOS PETROLÍFEROS Y DERIVADOS Y LOS QUE PUEDAN SUSTITUIRLES, PREVIA OBTENCIÓN Y DE CONFORMIDAD CON LAS AUTORIZACIONES ADMINISTRATIVAS CORRESPONDIENTES. E) ASIMISMO PODRÁ REALIZAR CUALQUIER ACTIVIDAD COMERCIAL, MOBILIARIA E INMOBILIARIA, DIRECTA O INDIRECTAMENTE RELACIONADA CON EL OBJETO SOCIAL U OBJETOS SIMILARES O CONEXOS Ó QUE FAVOREZCAN SU REALIZACIÓN. PODRÁ ACTUAR DIRECTAMENTE O INDIRECTAMENTE POR SU CUENTA O POR CUENTA AJENA Y SOLA O EN ASOCIACIÓN, PARTICIPACIÓN O ASOCIACIÓN CON CUALESQUIERA OTRAS SOCIEDADES O PERSONAS Y REALIZAR DIRECTAMENTE O INDIRECTAMENTE EN ESPAÑA O EN EL EXTRANJERO, BAJO CUALQUIER FORMA, LAS OPERACIONES QUE CORRESPONDAN A SU OBJETO SOCIAL. F) LA GESTIÓN DE TODA CLASE DE NEGOCIOS QUE TENGAN COMO FINALIDAD O ESTÉN RELACIONADAS CON LA GASTRONOMÍA, EN LOS CUALES SE INCLUYEN LOS SERVICIOS DE COMIDAS PARA TERCEROS, ADQUISICIONES DE ULTRAMARINOS PARA LA PREPARACIÓN DE COMIDAS, BANQUETES, LUNCHS Y OTROS: LA ADJQUISICIÓN DE MOBILIARIO Y OTROS UTENSILIOS PROPIOS DEL NEGOCIO, Y EN GENERAL, LA PRESTACIÓN DE SERVICIOS DE ALIMENTACIÓN CONSISTENTES EN SERVIR AL CONSUMO DE PRODUCTOS ALIMIENTICIOS PREPARADOS Y BEBIDAS, CON O SIN ESTABLECIMIENTO ABIERTO AL PUBLICO. G) LA COMERCIALIZACIÓN MEDIANTE TIENDAS DE AUTOSERVICIO SITUADAS EN GASOLINERAS Y AREAS DE SERVICIO, DE UNA AMPLIA GAMA DE PRODUCTOS DERIVADOS DEL PETRÓLEO Y SUCEDÁNEOS DEL MISMO, RECAMBIOS PARA AUTOMÓVIL, PRENSA, BEBIDAS, COMESTIBLES, TABACO Y OTROS BIENES O PRODUCTOS DE CONSUMO U OCIO",
      "mainEntityOfPage": "https://www.contratacion.euskadi.eus/webkpe00-kperoc/es/ac71aBusquedaRegistrosWar/empresa/07546",
      "_links": {
        "self": {
          "name": "DYNEFF ESPAÑA S.L.",
          "href": "https://api.euskadi.eus/procurements/companies/07546"
        }
      }
    },
    {
      "name": "ARTE BLAMEL, S.L.",
      "registrationNumber": "07542",
      "identificationNumber": "B95291860",
      "address": "Polígono Artunduaga, Calle Urkiza - Mód. 3. ",
      "location": {
        "postalCode": "48970",
        "municipality": "Basauri",
        "county": "Bizkaia",
        "municipalityId": "015",
        "countyId": "48"
      },
      "economicActivities": [
        {
          "id": "1.455.1",
          "name": "Confección de artículos textiles para el hogar y tapicería",
          "_links": {
            "self": {
              "name": "Confección de artículos textiles para el hogar y tapicería",
              "href": "https://api.euskadi.eus/procurements/companies/economic-activities/1.455.1"
            }
          }
        },
        {
          "id": "1.614.3",
          "name": "Venta al por mayor de productos para el mantenimiento y funcionamiento del hogar",
          "_links": {
            "self": {
              "name": "Venta al por mayor de productos para el mantenimiento y funcionamiento del hogar",
              "href": "https://api.euskadi.eus/procurements/companies/economic-activities/1.614.3"
            }
          }
        }
      ],
      "certificateStartDate": "2021-03-10",
      "certificateEndDate": "2021-09-01",
      "object": "COMPRAVENTA, REPARACIÓN Y CONFECCIÓN DE TODO TIPO DE GÉNERO COMPRENDIDO EN LA INDUSTRIA TEXTIL. COMERCIO AL POR MAYOR Y MENOR DE PRODUCTOS PARA EL MANTENIMIENTO Y FUNCIONAMIENTO DEL HOGAR",
      "mainEntityOfPage": "https://www.contratacion.euskadi.eus/webkpe00-kperoc/es/ac71aBusquedaRegistrosWar/empresa/07542",
      "_links": {
        "self": {
          "name": "ARTE BLAMEL, S.L.",
          "href": "https://api.euskadi.eus/procurements/companies/07542"
        }
      }
    },
    {
      "name": "LUIS GERARDO RUIZ PALOMEQUE",
      "registrationNumber": "07543",
      "identificationNumber": "01364868W",
      "address": "C/ Fernando el Católico nº 21-6C",
      "location": {
        "postalCode": "28015",
        "municipality": "Madrid",
        "county": "Madrid",
        "municipalityId": "079",
        "countyId": "28"
      },
      "economicActivities": [
        {
          "id": "2.411",
          "name": "Arquitectos",
          "_links": {
            "self": {
              "name": "Arquitectos",
              "href": "https://api.euskadi.eus/procurements/companies/economic-activities/2.411"
            }
          }
        }
      ],
      "certificateStartDate": "2021-03-10",
      "certificateEndDate": "2021-08-02",
      "object": "ARQUITECTOS",
      "mainEntityOfPage": "https://www.contratacion.euskadi.eus/webkpe00-kperoc/es/ac71aBusquedaRegistrosWar/empresa/07543",
      "_links": {
        "self": {
          "name": "LUIS GERARDO RUIZ PALOMEQUE",
          "href": "https://api.euskadi.eus/procurements/companies/07543"
        }
      }
    },
    {
      "name": "GLAXOSMITHKLINE, S.A.",
      "registrationNumber": "02858",
      "identificationNumber": "A28228526",
      "address": "C/ SEVERO OCHOA, 2",
      "location": {
        "postalCode": "28760",
        "municipality": "Tres Cantos",
        "county": "Madrid",
        "municipalityId": "903",
        "countyId": "28"
      },
      "economicActivities": [
        {
          "id": "1.614.1",
          "name": "Venta al por mayor de productos farmacéuticos y medicamentos",
          "_links": {
            "self": {
              "name": "Venta al por mayor de productos farmacéuticos y medicamentos",
              "href": "https://api.euskadi.eus/procurements/companies/economic-activities/1.614.1"
            }
          }
        }
      ],
      "certificateStartDate": "2021-03-09",
      "certificateEndDate": "2021-08-22",
      "object": "LA FABRICACIÓN, ELABORACIÓN, DISTRIBUCIÓN Y VENTA DE PRODUCTOS FARMACÉUTICOS, COSMÉTICOS Y DE PERFUMERÍA, ARTÍCULOS DE TOCADOR Y, EN GENERAL, PRODUCTOS QUÍMICOS DE USO DOMÉSTICO Y, EN PARTICULAR, DESINFECTANTES, BACTERICIDAS DETERGENTES, LIMPIADORES E INSECTICIDAS",
      "mainEntityOfPage": "https://www.contratacion.euskadi.eus/webkpe00-kperoc/es/ac71aBusquedaRegistrosWar/empresa/02858",
      "_links": {
        "self": {
          "name": "GLAXOSMITHKLINE, S.A.",
          "href": "https://api.euskadi.eus/procurements/companies/02858"
        }
      }
    },
    {
      "name": "INTEGRATED TECHONOLOGY SYSTEMS, S.L.",
      "registrationNumber": "04892",
      "identificationNumber": "B20937710",
      "address": "Poligono Kurutz-Gain 12-13",
      "location": {
        "postalCode": "20850",
        "municipality": "Mendaro",
        "county": "Gipuzkoa",
        "municipalityId": "901",
        "countyId": "20"
      },
      "economicActivities": [
        {
          "id": "1.845",
          "name": "Explotación electrónica por cuenta de terceros",
          "_links": {
            "self": {
              "name": "Explotación electrónica por cuenta de terceros",
              "href": "https://api.euskadi.eus/procurements/companies/economic-activities/1.845"
            }
          }
        },
        {
          "id": "1.847",
          "name": "Servicios de consultoría",
          "_links": {
            "self": {
              "name": "Servicios de consultoría",
              "href": "https://api.euskadi.eus/procurements/companies/economic-activities/1.847"
            }
          }
        }
      ],
      "certificateStartDate": "2021-03-08",
      "certificateEndDate": "2021-08-16",
      "object": "A) LA PRESTACIÓN DE SERVICIOS DE CONSULTORÍA INFORMÁTICA, DISEÑO DE REDES Y ASESORAMIENTO EN TODOS LOS ELEMENTOS QUE COMPONEN LAS INSTALACIONES INFORMÁTICAS EN LA EMPRESA CON EL FIN DE LOGRAR LA OPTIMIZACIÓN DE LOS RECURSOS INFORMÁTICOS DE LA MISMA. B) VENTA Y MANTENIMIENTO DE EQUIPOS INFORMÁTICOS Y SOFTWARE, CREACIÓN Y MANTENIMIENTO DE PÁGINAS WEBS, ELABORACIÓN DE SOFTWARE A MEDIDA, DISEÑO DE REDES, SISTEMAS OPERATIVOS DEDICADOS A LOS SERVIDORES, CURSOS DE FORMACIÓN ESPECIALIZADOS Y ASESORAMIENTO INFORMÁTICO. C) VENTA, INSTALACIÓN Y MANTENIMIENTO DE SISTEMAS COMPLEMENTARIOS A LOS SISTEMAS RELACIONADOS CON LOS ANTERIORES APARTADOS, TALES COMO SISTEMAS DE CONTROL DE ACCESO, CONTROL DE PRESENCIA , SISTEMAS DE SEGURIDAD, TELEFONÍA, O CUALQUIER SISTEMA CON SOPORTE INFORMÁTICO. D) PRESENTACIÓN DE TODA CLASE DE SERVICIOS DE PLANIFICACIÓN, PROMOCIÓN, ADMINISTRACIÓN, GESTIÓN, REPRESENTACIÓN Y ASESORAMIENTO DE CARÁCTER ECONÓMICO, FINANCIERO, TRIBUTARIO, JURÍDICO Y CONTABLE, TODO ELLO EN SU MÁS AMPLIA ACEPTACIÓN, A FAVOR DE TODA CLASE DE EMPRESAS Y PERSONAS, FÍSICAS O JURÍDICAS, Y EN GENERAL, LA PRESENTACIÓN DE TODOS LOS SERVICIOS DE ASESORAMIENTO PROFESIONAL RELACIONADOS CON LA EMPRESA, CONTANDO AL EFECTO CON PERSONAL HABILITADO LEGALMENTE PARA EL EJERCICIO DE DICHAS ACTIVIDADES EN AQUELLOS SUPUESTOS EN QUE TAL HABILITACIÓN SEA EXIGIDO POR LAS LEYES.",
      "mainEntityOfPage": "https://www.contratacion.euskadi.eus/webkpe00-kperoc/es/ac71aBusquedaRegistrosWar/empresa/04892",
      "_links": {
        "self": {
          "name": "INTEGRATED TECHONOLOGY SYSTEMS, S.L.",
          "href": "https://api.euskadi.eus/procurements/companies/04892"
        }
      }
    },
    {
      "name": "ASIDMA SERVICIOS SOCIALES, S.L.",
      "registrationNumber": "07534",
      "identificationNumber": "B76121862",
      "address": "León y Castillo, 257",
      "location": {
        "postalCode": "35005",
        "municipality": "Palmas de Gran Canaria, Las",
        "county": "Palmas, Las",
        "municipalityId": "016",
        "countyId": "35"
      },
      "economicActivities": [
        {
          "id": "1.952",
          "name": "Asistencia y servicios sociales en centros no residenciales",
          "_links": {
            "self": {
              "name": "Asistencia y servicios sociales en centros no residenciales",
              "href": "https://api.euskadi.eus/procurements/companies/economic-activities/1.952"
            }
          }
        }
      ],
      "certificateStartDate": "2021-03-04",
      "certificateEndDate": "2021-08-17",
      "object": "1.LA PRESTACIÓN DE SERVICIOS DE ASISTENCIA DOMICILIARIA PARA MAYORES Y DEPENDIENTES. 2. PRESTACIÓN DE SERVICIOS DE TELEASISTENCIA. 3. ALQUILER Y VENTA DE EQUIPOS Y SOFTWARE DE TELEASISTENCIA. 4. ALQUILER Y VENTA DE EQUIPOS Y MATERIAL ORTOPÉDICO. 5. GESTIÓN Y EXPLOTACIÓN DE RESIDENCIAS PARA MAYORES. 6. GESTIÓN Y EXPLOTACIÓN DE CENTROS DE DÍA. 7. GESTIÓN Y EXPLOTACIÓN DE CENTROS FORMATIVOS ESPECIALIZADOS PARA PERSONAS CON MINUSVALÍAS PSÍQUICAS. 8. IMPARTICIÓN DE FORMACIÓN EN GERIATRÍA, GERONTOLOGÍA Y DEPENDENCIA. 9. LA PROMOCIÓN Y CONSTRUCCIÓN DE EDIFICACIONES DE CUALQUIER NATURALEZA, LA ADQUISICIÓN DE FINCAS RÚSTICAS Y URBANAS, SU URBANIZACIÓN, PARCELACIÓN, USO, ARRENDAMIENTO Y VENTA. 10. LA INDUSTRIA DE HOSTELERÍA EN TODAS SUS MANIFESTACIONES, TALES COMO HOTELES, RESIDENCIAS, RESTAURANTES, BARES Y TODA OTRA, SIN EXCEPCIÓN, INCLUSO SUS ACCESORIOS Y ANEJOS, SIN LIMITACIÓN ALGUNA. 7. LA EXPLOTACIÓN DE ESTABLECIMIENTOS DE CARÁCTER TURÍSTICO Y EL EJERCICIO DEL COMERCIO RELACIONADO CON LOS SECTORES DE TURISMO Y HOSTELERÍA, CON EXCLUSIÓN DE TODA ACTIVIDAD CUYO EJERCICIO LA LEY O LA NORMATIVA VIGENTE EXIJA REQUISITOS ESPECIALES Y NO QUEDEN CUMPLIDOS POR ESTA SOCIEDAD. 11. LA EXPLOTACIÓN DE SERVICIOS DE HOSTELERÍA Y RESIDENCIAS DE LA TERCERA EDAD, ASÍ COMO, LA ASISTENCIA DE SERVICIOS SOCIALES. 12. LA PARTICIPACIÓN DE LA EMPRESA CONSTITUIDA EN OTRAS EMPRESAS RELACIONADAS CON EL OBJETO DE LA MISMA",
      "mainEntityOfPage": "https://www.contratacion.euskadi.eus/webkpe00-kperoc/es/ac71aBusquedaRegistrosWar/empresa/07534",
      "_links": {
        "self": {
          "name": "ASIDMA SERVICIOS SOCIALES, S.L.",
          "href": "https://api.euskadi.eus/procurements/companies/07534"
        }
      }
    },
    {
      "name": "PKF ATTEST NORTE, S.L.",
      "registrationNumber": "07536",
      "identificationNumber": "B01523844",
      "address": "calle San Antonio 15-4º",
      "location": {
        "postalCode": "01005",
        "municipality": "Vitoria-Gasteiz",
        "county": "Araba/Álava",
        "municipalityId": "059",
        "countyId": "01"
      },
      "economicActivities": [
        {
          "id": "1.841",
          "name": "Servicios jurídicos",
          "_links": {
            "self": {
              "name": "Servicios jurídicos",
              "href": "https://api.euskadi.eus/procurements/companies/economic-activities/1.841"
            }
          }
        },
        {
          "id": "1.842",
          "name": "Servicios financieros y contables",
          "_links": {
            "self": {
              "name": "Servicios financieros y contables",
              "href": "https://api.euskadi.eus/procurements/companies/economic-activities/1.842"
            }
          }
        }
      ],
      "certificateStartDate": "2021-03-04",
      "certificateEndDate": "2021-08-18",
      "object": "LA INTERMEDIACIÓN Y COORDINACIÓN EN LA PRESTACIÓN DE LOS SIGUIENTES SERVICIOS: 1.- SERVICIOS Y ASESORAMIENTO A EMPRESAS O PERSONAS FÍSICAS, CONTABLES, FISCALES, JURÍDICAS, DE ADMINISTRACIÓN Y GESTIÓN EN SUS MÁS AMPLIOS TÉRMINOS; 2.- SERVICIOS DE CONSULTORÍA Y ASESORAMIENTO A EMPRESAS Y ORGANIZACIONES PÚBLICAS Y PRIVADAS EN EL ÁMBITO ECONÓMICO-FINANCIERO, ASÍ COMO EN LOS ÁMBITOS INCLUIDOS DENTRO DEL OBJETO SOCIAL; 3.- LA REALIZACIÓN DE TASACIONES, DICTÁMENES FINANCIEROS, VALORACIONES Y PERITAJES; 4.- EL IMPULSO A LA MEDIACIÓN, FACILITANDO EL ACCESO Y ADMINISTRACIÓN DE LA MISMA; 5.- LA ADQUISICIÓN, CESIÓN, TENENCIA, DISFRUTE, ADMINISTRACIÓN, GESTIÓN Y NEGOCIACIÓN EN GENERAL DE VALORES MOBILIARIOS E INMUEBLES, PARTICIPACIONES SOCIALES O EN COPROPIEDAD EN TODA CLASE DE BIENES; 6.- LA ENSEÑANZA Y FORMACIÓN EN EL ÁMBITO DE LAS ACTIVIDADES INCLUIDAS EN EL OBJETO SOCIAL.",
      "mainEntityOfPage": "https://www.contratacion.euskadi.eus/webkpe00-kperoc/es/ac71aBusquedaRegistrosWar/empresa/07536",
      "_links": {
        "self": {
          "name": "PKF ATTEST NORTE, S.L.",
          "href": "https://api.euskadi.eus/procurements/companies/07536"
        }
      }
    },
    {
      "name": "TRENASA S.A.",
      "registrationNumber": "06960",
      "identificationNumber": "A80375058",
      "address": "Calle Bruselas nº4 nave 21",
      "location": {
        "postalCode": "28342",
        "municipality": "Valdemoro",
        "county": "Madrid",
        "municipalityId": "161",
        "countyId": "28"
      },
      "economicActivities": [
        {
          "id": "1.504.1",
          "name": "Instalaciones eléctricas en general",
          "_links": {
            "self": {
              "name": "Instalaciones eléctricas en general",
              "href": "https://api.euskadi.eus/procurements/companies/economic-activities/1.504.1"
            }
          }
        },
        {
          "id": "1.504.3",
          "name": "Instalaciones de frío, calor y acondicionamiento de aire",
          "_links": {
            "self": {
              "name": "Instalaciones de frío, calor y acondicionamiento de aire",
              "href": "https://api.euskadi.eus/procurements/companies/economic-activities/1.504.3"
            }
          }
        },
        {
          "id": "1.653.2",
          "name": "Venta al por menor de material y aparatos eléctricos, electrodomésticos y cocina",
          "_links": {
            "self": {
              "name": "Venta al por menor de material y aparatos eléctricos, electrodomésticos y cocina",
              "href": "https://api.euskadi.eus/procurements/companies/economic-activities/1.653.2"
            }
          }
        },
        {
          "id": "1.691.9",
          "name": "Reparación de otros bienes de consumo n.c.o.p",
          "_links": {
            "self": {
              "name": "Reparación de otros bienes de consumo n.c.o.p",
              "href": "https://api.euskadi.eus/procurements/companies/economic-activities/1.691.9"
            }
          }
        }
      ],
      "certificateStartDate": "2021-03-03",
      "certificateEndDate": "2021-09-01",
      "object": "ESTUDIO DE INGENIERÍA, CONSULTORÍA, VIABILIDAD DE PROYECTOS Y OPERACIONES DE COMERCIO. REALIZACIÓN DE OBRAS, CONSTRUCCIONES, MONTAJES, CONTRATACIÓN DE SUMINISTROS, OPERACIONES \"LLAVE EN MANO\", SUBCONTRATACIÓN, CONTRATACIÓN CON EL SECTOR PRIVADO Y PÚBLICO. COMPRA Y VENTA DE SERVICIOS, BIENES Y EQUIPOS. IMPORTACIÓN Y EXPORTACIÓN DE SERVICIOS, BIENES Y EQUIPOS",
      "mainEntityOfPage": "https://www.contratacion.euskadi.eus/webkpe00-kperoc/es/ac71aBusquedaRegistrosWar/empresa/06960",
      "_links": {
        "self": {
          "name": "TRENASA S.A.",
          "href": "https://api.euskadi.eus/procurements/companies/06960"
        }
      }
    },
    {
      "name": "DISTRAUMA MEDICAL, S.L.",
      "registrationNumber": "07532",
      "identificationNumber": "B61435079",
      "address": "Avda. de l'Ebre, nau 4",
      "location": {
        "postalCode": "08184",
        "municipality": "Palau-solità i Plegamans",
        "county": "Barcelona",
        "municipalityId": "156",
        "countyId": "08"
      },
      "economicActivities": [
        {
          "id": "1.659.3",
          "name": "Venta al por menor de aparatos médicos, ortopédicos, ópticos y fotográficos",
          "_links": {
            "self": {
              "name": "Venta al por menor de aparatos médicos, ortopédicos, ópticos y fotográficos",
              "href": "https://api.euskadi.eus/procurements/companies/economic-activities/1.659.3"
            }
          }
        }
      ],
      "certificateStartDate": "2021-03-03",
      "certificateEndDate": "2021-08-17",
      "object": "LA COMPRA, VENTA, IMPORTACIÓN, EXPORTACIÓN, COMERCIALIZACIÓN Y DISTRIBUCIÓN DE PRÓTESIS, ÓRTESIS Y MATERIAL SANITARIO, EN GENERAL",
      "mainEntityOfPage": "https://www.contratacion.euskadi.eus/webkpe00-kperoc/es/ac71aBusquedaRegistrosWar/empresa/07532",
      "_links": {
        "self": {
          "name": "DISTRAUMA MEDICAL, S.L.",
          "href": "https://api.euskadi.eus/procurements/companies/07532"
        }
      }
    }
  ]
}