{
  "totalItems": 9042,
  "totalPages": 905,
  "currentPage": 561,
  "itemsOfPage": 10,
  "items": [
    {
      "name": "CONSTRUCCIONES ARTZAMENDI S.A.",
      "registrationNumber": "03708",
      "identificationNumber": "A20147724",
      "address": "BURDIÑATE 6",
      "location": {
        "postalCode": "20570",
        "municipality": "Bergara",
        "county": "Gipuzkoa",
        "municipalityId": "074",
        "countyId": "20"
      },
      "economicActivities": [
        {
          "id": "1.501.1",
          "name": "Construcción completa, reparación y conservación de edificaciones",
          "_links": {
            "self": {
              "name": "Construcción completa, reparación y conservación de edificaciones",
              "href": "https://api.euskadi.eus/procurements/companies/economic-activities/1.501.1"
            }
          }
        },
        {
          "id": "1.501.2",
          "name": "Construcción completa, reparación y conservación obras civiles",
          "_links": {
            "self": {
              "name": "Construcción completa, reparación y conservación obras civiles",
              "href": "https://api.euskadi.eus/procurements/companies/economic-activities/1.501.2"
            }
          }
        },
        {
          "id": "1.502.1",
          "name": "Demoliciones y derribos en general",
          "_links": {
            "self": {
              "name": "Demoliciones y derribos en general",
              "href": "https://api.euskadi.eus/procurements/companies/economic-activities/1.502.1"
            }
          }
        },
        {
          "id": "1.722",
          "name": "Transporte de mercancías por carretera",
          "_links": {
            "self": {
              "name": "Transporte de mercancías por carretera",
              "href": "https://api.euskadi.eus/procurements/companies/economic-activities/1.722"
            }
          }
        },
        {
          "id": "1.833.2",
          "name": "Promoción de edificaciones",
          "_links": {
            "self": {
              "name": "Promoción de edificaciones",
              "href": "https://api.euskadi.eus/procurements/companies/economic-activities/1.833.2"
            }
          }
        },
        {
          "id": "1.861.1",
          "name": "Alquiler de viviendas",
          "_links": {
            "self": {
              "name": "Alquiler de viviendas",
              "href": "https://api.euskadi.eus/procurements/companies/economic-activities/1.861.1"
            }
          }
        }
      ],
      "certificateStartDate": "2020-09-16",
      "certificateEndDate": "2021-03-16",
      "object": " LA CONSTRUCCIÓN DE OBRAS PÚBLICAS Y PRIVADAS, OBRAS NUEVAS DE EDIFICACIÓN URBANA, INDUSTRIAL, URANIZACIÓN, SANEAMIENTO Y ABASTECIMIENTO DE AGUAS, EXCAVACIONES, MOVIMIENTO DE TIERRAS Y SIMILARES; Y COMPRA-VENTA DE SOLARES E INMUEBLES",
      "mainEntityOfPage": "https://www.contratacion.euskadi.eus/webkpe00-kperoc/es/ac71aBusquedaRegistrosWar/empresa/03708",
      "_links": {
        "self": {
          "name": "CONSTRUCCIONES ARTZAMENDI S.A.",
          "href": "https://api.euskadi.eus/procurements/companies/03708"
        }
      }
    },
    {
      "name": "ALEDIA CONSULTORES SOCIEDAD LIMITADA",
      "registrationNumber": "05509",
      "identificationNumber": "B95800322",
      "address": "ARTURO KANPION, 3 - 2º IZDA",
      "location": {
        "postalCode": "48015",
        "municipality": "Bilbao",
        "county": "Bizkaia",
        "municipalityId": "020",
        "countyId": "48"
      },
      "economicActivities": [
        {
          "id": "1.934",
          "name": "Enseñanza fuera de establecimiento permanente",
          "_links": {
            "self": {
              "name": "Enseñanza fuera de establecimiento permanente",
              "href": "https://api.euskadi.eus/procurements/companies/economic-activities/1.934"
            }
          }
        }
      ],
      "certificateStartDate": "2020-09-16",
      "certificateEndDate": "2021-03-15",
      "object": "1. ACTIVIDADES PROFESIONALES. 2. PRESTACIÓN DE SERVICIOS. ACTIVIDADES DE GESTIÓN Y ADMINISTRACIÓN. SERVICIOS EDUCATIVOS, SANITARIOS, DE OCIO Y ENTRETENIMIENTO. 3. INFORMACIÓN Y COMUNICACIONES. 4. INFORMÁTICA, TELECOMUNICACIONES Y OFIMÁTICA. 5. INVESTIGACIÓN, DESARROLLO E INNOVACIÓN. 6. ACTIVIDADES CIENTÍFICAS Y TÉCNICAS",
      "mainEntityOfPage": "https://www.contratacion.euskadi.eus/webkpe00-kperoc/es/ac71aBusquedaRegistrosWar/empresa/05509",
      "_links": {
        "self": {
          "name": "ALEDIA CONSULTORES SOCIEDAD LIMITADA",
          "href": "https://api.euskadi.eus/procurements/companies/05509"
        }
      }
    },
    {
      "name": "OVE ARUP & PARTNERS, S.A.",
      "registrationNumber": "07239",
      "identificationNumber": "A80730526",
      "address": "CALLE ALFONSO XI, 12",
      "location": {
        "postalCode": "28014",
        "municipality": "Madrid",
        "county": "Madrid",
        "municipalityId": "079",
        "countyId": "28"
      },
      "economicActivities": [
        {
          "id": "1.843.1",
          "name": "Servicios técnicos de ingeniería",
          "_links": {
            "self": {
              "name": "Servicios técnicos de ingeniería",
              "href": "https://api.euskadi.eus/procurements/companies/economic-activities/1.843.1"
            }
          }
        },
        {
          "id": "1.861.2",
          "name": "Alquiler de locales industriales y otros alquileres n.c.o.p",
          "_links": {
            "self": {
              "name": "Alquiler de locales industriales y otros alquileres n.c.o.p",
              "href": "https://api.euskadi.eus/procurements/companies/economic-activities/1.861.2"
            }
          }
        }
      ],
      "certificateStartDate": "2020-09-15",
      "certificateEndDate": "2021-01-30",
      "object": "I. LA CONTRATACIÓN, EXPLOTACIÓN Y PRESTACIÓN DE SERVICIOS DE CONSULTORÍA, ASESORAMIENTO Y ELABORACIÓN DE TODA CLASE DE PROYECTOS DE INGENIERÍA, ARQUITECTURA, PLANIFICACIÓN URBANÍSTICA Y VIAL, PROSPECCIONES DEL TERRENO, SONDEOS GEOLÓGICOS Y  GEOTÉCNICOS, PLANIFICACIÓN INDUSTRIAL, CONSTRUCCIÓN, DISEÑO Y AMBIENTACIÓN DE INTERIORES, EN LOS CAMPOS DE LA CONSTRUCCIÓN, INFRAESTRUCTURAS, MEDIO AMBIENTE, URBANISMO, AGRICULTURA, HIDRÁULICO, MINERO FORESTAL, GEOLÓGICO, SOCIOLÓGICO, DE OBRAS PÚBLICAS Y CIVILES, INFORMÁTICO, ELECTRÓNICO, QUÍMICO, LOGÍSTICO Y DE TRANSPORTE. II. DESARROLLAR Y COMPLETAR LOS PROYECTOS, ESTUDIOS Y TRABAJOS ALUDIDOS EN EL APARATADO ANTERIOR MEDIANTE LA CONSTRUCCIÓN, EJECUCIÓN, TRANSFORMACIÓN COMPLETA O PARCIAL, REPARACIÓN Y CONSERVACIÓN DE CUALQUIER CLASE DE OBRAS O MEJORAS. III. LA CONTRATACIÓN, CONSTRUCCIÓN, EXPLOTACIÓN, PLANIFICACIÓN, DIRECCIÓN Y CONTROL DE TODA CLASE DE OBRAS, SUMINISTROS, INSTALACIONES INDUSTRIALES Y DE SERVICIOS, TANTO PÚBLICOS COMO PRIVADOS.  IV. LA PROMOCIÓN, TRAMITACIÓN Y GESTIÓN ANTE EL ESTADO, LAS ADMINISTRACIONES PÚBLICAS Y ORGANISMO OFICIALES Y PRIVADOS, DE TODA CLASE DE CRÉDITOS, SUBVENCIONES, PERMISOS Y CONCESIONES, TANTO A NIVEL NACIONAL COMO EN EL EXTRANJERO. V. REALIZACIÓN DE TODO TIPO DE ANÁLISIS DE LABORATORIO E INFORMES SOBRE CONTROL DE CALIDAD EN LA CONSTRUCCIÓN, INDUSTRIA, MEDIO AMBIENTE Y CUALESQUIERA CAMPOS MENCIONADOS EN LOS APARTADOS ANTERIORES. VI. IMPORTAR, EXPORTAR, FABRICAR Y COMERCIALIZAR LOS INSTRUMENTOS, EQUIPAMIENTO, HERRAMIENTAS Y MAQUINARIA NECESARIOS PARA LLEVAR A CABO LAS ACTIVIDADES INCLUIDAS EN LOS APARTADOS ANTERIORES",
      "mainEntityOfPage": "https://www.contratacion.euskadi.eus/webkpe00-kperoc/es/ac71aBusquedaRegistrosWar/empresa/07239",
      "_links": {
        "self": {
          "name": "OVE ARUP & PARTNERS, S.A.",
          "href": "https://api.euskadi.eus/procurements/companies/07239"
        }
      }
    },
    {
      "name": "CYBERSEC CULTURE & AEARENESS, S.L.",
      "registrationNumber": "07241",
      "identificationNumber": "B97987820",
      "address": "Moll de Barcelona, s/n, WTCB, Edificio Este, planta 5ª",
      "location": {
        "postalCode": "08039",
        "municipality": "Barcelona",
        "county": "Barcelona",
        "municipalityId": "019",
        "countyId": "08"
      },
      "economicActivities": [
        {
          "id": "1.845",
          "name": "Explotación electrónica por cuenta de terceros",
          "_links": {
            "self": {
              "name": "Explotación electrónica por cuenta de terceros",
              "href": "https://api.euskadi.eus/procurements/companies/economic-activities/1.845"
            }
          }
        }
      ],
      "certificateStartDate": "2020-09-15",
      "certificateEndDate": "2020-12-30",
      "object": "A) LAP RESTACIÓN DE SERVICIOS DE CONSULTORÍA INFORMÁTICA. B) LA PRESTACIÓN, CONTRATACIÓN, SUBCONTRATACIÓN, ELABORACIÓN, DESARROLLO, CONTROL Y EJECUCIÓN DE TODO TIPO DE SERVICIOS INFORMÁTICOS Y DE CONSULTORÍA E INTEGRACIÓN DE TECNOLOGÍAS DE LA INFORMACIÓN Y DE LAS COMUNICACIONES Y LA ELABORACIÓN, EDICIÓN, PRODUCCIÓN Y COMERCIALIZACIÓN DE PRODUCTOS INFORMÁTICOS. C) LA PRESTACIÓN DE SERVICIOS DE INGENIERÍA TECNOLÓGICA, IMPLEMENTACIÓN Y MANTENIMIENTO DE PROYECTOS, ASESORAMIENTO, CONSULTORÍA, AUDITORÍA Y FORMACIÓN EN SISTEMAS DE SEGURIDAD, EN PARTICULAR, RELACIONADOS CON LA SEGURIDAD DIGITAL, CIBERSEGURIDAD, SEGURIDAD INFORMÁTICA Y DE LAS NUEVAS TECNOLOGÍAS. PROCURAR UN USO SEGURO DE LAS REDES Y LOS SISTEMAS DE INFORMACIÓN A TRAVÉS DEL FORTALECIMIENTO DE LAS CAPACIDADES DE PREVENCIÓN, DETECCIÓN Y RESPUESTA A LOS POSIBLES CIBERATAQUES",
      "mainEntityOfPage": "https://www.contratacion.euskadi.eus/webkpe00-kperoc/es/ac71aBusquedaRegistrosWar/empresa/07241",
      "_links": {
        "self": {
          "name": "CYBERSEC CULTURE & AEARENESS, S.L.",
          "href": "https://api.euskadi.eus/procurements/companies/07241"
        }
      }
    },
    {
      "name": "FELIPE JUARISTI GALDOS",
      "registrationNumber": "07235",
      "identificationNumber": "08900721C",
      "address": "CALLE SIBILIA, 10",
      "location": {
        "postalCode": "20015",
        "municipality": "Donostia / San Sebastián",
        "county": "Gipuzkoa",
        "municipalityId": "069",
        "countyId": "20"
      },
      "economicActivities": [
        {
          "id": "2.899",
          "name": "Otros profesionales",
          "_links": {
            "self": {
              "name": "Otros profesionales",
              "href": "https://api.euskadi.eus/procurements/companies/economic-activities/2.899"
            }
          }
        }
      ],
      "certificateStartDate": "2020-09-09",
      "certificateEndDate": "2021-03-08",
      "object": "OTROS PROFESIONALES",
      "mainEntityOfPage": "https://www.contratacion.euskadi.eus/webkpe00-kperoc/es/ac71aBusquedaRegistrosWar/empresa/07235",
      "_links": {
        "self": {
          "name": "FELIPE JUARISTI GALDOS",
          "href": "https://api.euskadi.eus/procurements/companies/07235"
        }
      }
    },
    {
      "name": "Asociacion de Artistas Aritadetó",
      "registrationNumber": "05801",
      "identificationNumber": "G75004531",
      "address": "Iñigo de Loyola 8 BAJO",
      "location": {
        "postalCode": "20303",
        "municipality": "Irun",
        "county": "Gipuzkoa",
        "municipalityId": "045",
        "countyId": "20"
      },
      "economicActivities": [
        {
          "id": "1.966.9",
          "name": "Otros servicios culturales n.c.o.p",
          "_links": {
            "self": {
              "name": "Otros servicios culturales n.c.o.p",
              "href": "https://api.euskadi.eus/procurements/companies/economic-activities/1.966.9"
            }
          }
        }
      ],
      "certificateStartDate": "2020-09-04",
      "certificateEndDate": "2021-03-04",
      "object": "TALLERES, SEMINARIOS, CURSOS, INTERVENCIONES ARTÍSTICAS, CHARLAS, EXPOSICIONES Y CONFERENCIAS",
      "mainEntityOfPage": "https://www.contratacion.euskadi.eus/webkpe00-kperoc/es/ac71aBusquedaRegistrosWar/empresa/05801",
      "_links": {
        "self": {
          "name": "Asociacion de Artistas Aritadetó",
          "href": "https://api.euskadi.eus/procurements/companies/05801"
        }
      }
    },
    {
      "name": "AITZIBER SARACHAGA GARAY",
      "registrationNumber": "06523",
      "identificationNumber": "30688230C",
      "address": "BARRIO MERCADILLO Nº 48",
      "location": {
        "postalCode": "48190",
        "municipality": "Sopuerta",
        "county": "Bizkaia",
        "municipalityId": "086",
        "countyId": "48"
      },
      "economicActivities": [
        {
          "id": "2.899",
          "name": "Otros profesionales",
          "_links": {
            "self": {
              "name": "Otros profesionales",
              "href": "https://api.euskadi.eus/procurements/companies/economic-activities/2.899"
            }
          }
        }
      ],
      "certificateStartDate": "2020-09-03",
      "certificateEndDate": "2021-03-02",
      "object": "OTROS SERVICIOS TÉCNICOS (ASESORÍA, ASISTENCIA, SERVICIOS SOCIALES, CULTURALES)",
      "mainEntityOfPage": "https://www.contratacion.euskadi.eus/webkpe00-kperoc/es/ac71aBusquedaRegistrosWar/empresa/06523",
      "_links": {
        "self": {
          "name": "AITZIBER SARACHAGA GARAY",
          "href": "https://api.euskadi.eus/procurements/companies/06523"
        }
      }
    },
    {
      "name": "PER INFO, S.L.",
      "registrationNumber": "01473",
      "identificationNumber": "B48584411",
      "address": "C/ GRAN VIA, 19-21, 2ª PLANTA",
      "location": {
        "postalCode": "48001",
        "municipality": "Bilbao",
        "county": "Bizkaia",
        "municipalityId": "020",
        "countyId": "48"
      },
      "economicActivities": [
        {
          "id": "1.845",
          "name": "Explotación electrónica por cuenta de terceros",
          "_links": {
            "self": {
              "name": "Explotación electrónica por cuenta de terceros",
              "href": "https://api.euskadi.eus/procurements/companies/economic-activities/1.845"
            }
          }
        }
      ],
      "certificateStartDate": "2020-08-29",
      "certificateEndDate": "2021-02-28",
      "object": "LAS ACTIVIDADES DE CONSULTORÍA Y ASESORAMIENTO EN EL ÁMBITO DE LAS TECNOLOGÍAS DE LA INFORMÁTICA (ELECTRÓNICA, INFORMÁTICA, TELECOMUNICACIONES Y SISTEMAS MULTIMEDIA), EN RELACIÓN CON LA ESTRATEGIA, GESTIÓN, ORGANIZACIÓN, PRODUCCIÓN Y RECURSOS HUMANOS, DE ENTIDADES PÚBLICAS, PRIVADAS Y PERSONAS FÍSICAS; ACTIVIDADES EDUCATIVAS EN EL ÁMBITO REFERIDO, A TRAVÉS DE LA ORGANIZACIÓN E IMPARTICIÓN DE PLANES DE FORMACIÓN, CURSOS, SEMINARIOS, CONGRESOS Y ENSEÑANZA A DISTANCIA, ASÍ COMO EL ESTABLECIMIENTO DE CENTROS FIJOS O MÓVILES Y SU GESTIÓN DIRECTA O EN FAVOR DE TERCEROS, Y A LA PRODUCCIÓN Y VENTA DE MATERIALES DIDÁCTICOS; ACTIVIDADES DE INGENIERÍA, DISEÑO, DESARROLLO, INSTALACIÓN, DISTRIBUCIÓN Y COMERCIALIZACIÓN DE SISTEMAS DE INFORMACIÓN EMPRESARIAL BASADOS EN TECNOLOGÍAS AVANZADAS; ACTIVIDADES DE VENTA, ALQUILER O CESIÓN DE EQUIPOS Y DE PERSONAL E INSTALACIONES; ACTIVIDADES DE ANÁLISIS Y DESARROLLO DE PROGRAMAS DE ORDENADOR, ASÍ COMO SERVICIOS DE MANTENIMIENTO Y SOPORTE DE LOS MISMOS; ACTIVIDADES DE DISEÑO, DESARROLLO, PRODUCCIÓN Y COMERCIALIZACIÓN DE PUBLICACIONES, MATERIAL AUDIOVISUAL Y OTROS SISTEMAS MULTIMEDIA PARA FORMACIÓN E INFORMACIÓN Y COMUNICACIÓN, TAMBIÉN REFERIDO A TODOS LOS ELEMENTOS NECESARIOS PARA LA TRANSMISIÓN DE DATOS VÍA RADIO",
      "mainEntityOfPage": "https://www.contratacion.euskadi.eus/webkpe00-kperoc/es/ac71aBusquedaRegistrosWar/empresa/01473",
      "_links": {
        "self": {
          "name": "PER INFO, S.L.",
          "href": "https://api.euskadi.eus/procurements/companies/01473"
        }
      }
    },
    {
      "name": "MEDIA MARKT BILBAO-ZUBIARTE, S.A.",
      "registrationNumber": "06084",
      "identificationNumber": "A66961897",
      "address": "LEIZAOLA LEHENDAKARIAREN KALEA, 2 LOCAL R11-16",
      "location": {
        "postalCode": "48011",
        "municipality": "Bilbao",
        "county": "Bizkaia",
        "municipalityId": "020",
        "countyId": "48"
      },
      "economicActivities": [
        {
          "id": "1.653.2",
          "name": "Venta al por menor de material y aparatos eléctricos, electrodomésticos y cocina",
          "_links": {
            "self": {
              "name": "Venta al por menor de material y aparatos eléctricos, electrodomésticos y cocina",
              "href": "https://api.euskadi.eus/procurements/companies/economic-activities/1.653.2"
            }
          }
        },
        {
          "id": "1.653.9",
          "name": "Venta al por menor de otros artículos para el equipamiento del hogar",
          "_links": {
            "self": {
              "name": "Venta al por menor de otros artículos para el equipamiento del hogar",
              "href": "https://api.euskadi.eus/procurements/companies/economic-activities/1.653.9"
            }
          }
        },
        {
          "id": "1.659.2",
          "name": "Venta al por menor de muebles de oficina y máquinas y equipos de oficina",
          "_links": {
            "self": {
              "name": "Venta al por menor de muebles de oficina y máquinas y equipos de oficina",
              "href": "https://api.euskadi.eus/procurements/companies/economic-activities/1.659.2"
            }
          }
        },
        {
          "id": "1.659.3",
          "name": "Venta al por menor de aparatos médicos, ortopédicos, ópticos y fotográficos",
          "_links": {
            "self": {
              "name": "Venta al por menor de aparatos médicos, ortopédicos, ópticos y fotográficos",
              "href": "https://api.euskadi.eus/procurements/companies/economic-activities/1.659.3"
            }
          }
        },
        {
          "id": "1.832.1",
          "name": "Agencias de seguros y corredurías de seguros",
          "_links": {
            "self": {
              "name": "Agencias de seguros y corredurías de seguros",
              "href": "https://api.euskadi.eus/procurements/companies/economic-activities/1.832.1"
            }
          }
        },
        {
          "id": "1.844",
          "name": "Servicios de publicidad, relaciones públicas y similares",
          "_links": {
            "self": {
              "name": "Servicios de publicidad, relaciones públicas y similares",
              "href": "https://api.euskadi.eus/procurements/companies/economic-activities/1.844"
            }
          }
        },
        {
          "id": "1.849.9",
          "name": "Otros servicios independientes n.c.o.p",
          "_links": {
            "self": {
              "name": "Otros servicios independientes n.c.o.p",
              "href": "https://api.euskadi.eus/procurements/companies/economic-activities/1.849.9"
            }
          }
        },
        {
          "id": "1.973.1",
          "name": "Servicios fotográficos",
          "_links": {
            "self": {
              "name": "Servicios fotográficos",
              "href": "https://api.euskadi.eus/procurements/companies/economic-activities/1.973.1"
            }
          }
        }
      ],
      "certificateStartDate": "2020-08-26",
      "certificateEndDate": "2021-02-25",
      "object": "1.VENDER AL POR MAYOR Y AL POR MENOR, INCLUYENDO LA IMPORTACIÓN Y EXPORTACIÓN DE SOFTWARE Y HARDWARE INFORMÁTICA, EQUIPOS ELECTRÓNICOS Y ELÉCTRICOS Y DE ALTA FIDELIDAD, EQUIPOS FOTOGRÁFICOS Y ACCESORIOS DE MOBILIARIO, COMPLETAMENTE RELACIONADOS CON ESTOS PRODUCTOS; 2. INSTALAR, REPARAR Y PROPORCIONAR MANTENIMIENTO DE PRODUCTOS Y EQUIPOS DESCRITOS EN EL PUNTO 1 ANTERIOR; 3. SUBSCRIBIR, ADQUIRIR Y TRANSFERIR ACCIONES EN OTRAS SOCIEDADES O ASOCIACIONES Y PARTICIPAR EN CONSORCIOS O GRUPOS COMPARABLES DE ENTIDADES, INCLUYENDO TODAS LAS ENTIDADES LEGALES QUE SON TIENDAS MEDIA MARKT Y SATURN EN ESPAÑA; 4. REALIZAR ACTIVIDADES DE TENENCIA DE TODO TIPO DE CONEXIÓN EN EL ACCIONARIADO DE LAS SOCIEDADES INDICADAS MÁS ARRIBA Y GESTIONAR SU CARTERA DE ACCIONES; 5.PRESTAR TODO TIPO DE SERVICIOS O ASISTENCIA DE ADMINISTRACIÓN, GESTIÓN Y CONSULTORÍA A LAS SOCIEDADES CONTROLADAS O EN LAS QUE MANTIENE ACCIONES, EN CONCRETO SOBRE LAS TIENDAS INDICADAS DE MEDIA MARKT Y SATURN; 6.PRESTAR SERVICIOS ECONÓMICOS, TÉCNICOS, FINANCIEROS, LEGALES O DE ASESORÍA FISCAL Y PARTICIPAR EN TRANSACCIONES COMERCIALES, FINANCIERAS, DE BIENES MUEBLES O INMUEBLES RELACIONADAS CON EL OBJETO SOCIAL Y LLEVAR A CABO NEGOCIOS O PROPORCIONAR SERVICIOS DE CONSULTORÍA EN TODAS LAS ÁREAS DEL NEGOCIO  MINORISTA, EN LAS QUE LOS MERCADOS  DE MEDIA Y SATURN SON ACTIVOS. LAS ACTIVIDADES DE FINANCIACIÓN SE REALIZARAN EXCLUSIVAMENTE POR LA SOCIEDAD CON SUS FILIALES EN TANTO QUE LA SOCIEDAD SEA HOLDING DE AQUELLAS. 7. SUBSCRIBIR CONTRATOS DE COLABORACIÓN COMERCIAL, DE SERVICIOS DE GESTIÓN Y OTROS ACUERDOS DE SERVICIOS CON OTRAS ENTIDADES; 8. LLEVAR A CABO ESTUDIOS DE MERCADO DIRECTO DE NATURALEZA ESTADÍSTICA, ACTIVIDADES DE PUBLICIDAD Y PROPAGANDA; 9. EJECUTAR ACUERDOS DE SERVICIOS BANCARIOS, ACUERDOS DE PRÉSTAMO CON BANCOS Y OTRAS INSTITUCIONES DE CRÉDITO, PARTICIPAR EN CUALQUIER SISTEMA DE RESERVA  DE CAJA EN EL GRUPO MEDIA SATURN, CONCEDER PRÉSTAMOS INTERCOMPAÑÍA Y CONCEDER CARTAS DE GARANTÍAS A LAS FILIALES; DICHAS ACTIVIDADES SE REALIZARAN EXCLUSIVAMENTE POR LA SOCIEDAD CON SUS FILIALES EN TANTO QUE LA SOCIEDAD SEA HOLDING; Y 10. LLEVAR A CABO TODOS LOS ACTOS Y TRANSACCIONES QUE CONTRIBUYAN A REALIZAR LOS FINES AQUÍ INDICADOS",
      "mainEntityOfPage": "https://www.contratacion.euskadi.eus/webkpe00-kperoc/es/ac71aBusquedaRegistrosWar/empresa/06084",
      "_links": {
        "self": {
          "name": "MEDIA MARKT BILBAO-ZUBIARTE, S.A.",
          "href": "https://api.euskadi.eus/procurements/companies/06084"
        }
      }
    },
    {
      "name": "NERIUM SCIENTIFIC, S.L.",
      "registrationNumber": "06290",
      "identificationNumber": "B40524670",
      "address": "C/ Pascual Romero, 9",
      "location": {
        "postalCode": "46900",
        "municipality": "Torrent",
        "county": "Valencia/València",
        "municipalityId": "244",
        "countyId": "46"
      },
      "economicActivities": [
        {
          "id": "1.619.2",
          "name": "Venta al por mayor de aparatos e instrumentos médicos, ortopédicos, ópticos",
          "_links": {
            "self": {
              "name": "Venta al por mayor de aparatos e instrumentos médicos, ortopédicos, ópticos",
              "href": "https://api.euskadi.eus/procurements/companies/economic-activities/1.619.2"
            }
          }
        }
      ],
      "certificateStartDate": "2020-08-26",
      "certificateEndDate": "2021-02-26",
      "object": "COMERCIO AL POR MAYOR DE PRODUCTOS FARMACÉUTICOS",
      "mainEntityOfPage": "https://www.contratacion.euskadi.eus/webkpe00-kperoc/es/ac71aBusquedaRegistrosWar/empresa/06290",
      "_links": {
        "self": {
          "name": "NERIUM SCIENTIFIC, S.L.",
          "href": "https://api.euskadi.eus/procurements/companies/06290"
        }
      }
    }
  ]
}