{
  "totalItems": 9042,
  "totalPages": 905,
  "currentPage": 671,
  "itemsOfPage": 10,
  "items": [
    {
      "name": "SUMINISTROS Y DISTRIBUCIONES AC MEDICA, S.A.",
      "registrationNumber": "05199",
      "identificationNumber": "A74327198",
      "address": "C/ GONZALEZ DE VALLE, 3 SA",
      "location": {
        "postalCode": "33003",
        "municipality": "Oviedo",
        "county": "Asturias",
        "municipalityId": "044",
        "countyId": "33"
      },
      "economicActivities": [
        {
          "id": "1.619.2",
          "name": "Venta al por mayor de aparatos e instrumentos médicos, ortopédicos, ópticos",
          "_links": {
            "self": {
              "name": "Venta al por mayor de aparatos e instrumentos médicos, ortopédicos, ópticos",
              "href": "https://api.euskadi.eus/procurements/companies/economic-activities/1.619.2"
            }
          }
        }
      ],
      "certificateStartDate": "2014-05-28",
      "certificateEndDate": "2014-10-28",
      "object": "DISTRIBUCIÓN Y COMERCIALIZACIÓN DE IMPLANTES, PRÓTESIS, OSTEOSÍNTESIS DE CUALQUIER ESPECIALIDAD MÉDICA Y DE MATERIAL DE USO HOSPITALARIO. IMPORTACIÓN, EXPORTACIÓN, ADQUISICIÓN, EXPLOTACIÓN Y VENTA DE TODO TIPO DE APARATOS, SUMINISTROS Y PRODUCTOS UTILIZADOS EN EL CAMPO DE LA MEDICINA, FARMACIA Y PARAFARMACIA",
      "mainEntityOfPage": "https://www.contratacion.euskadi.eus/webkpe00-kperoc/es/ac71aBusquedaRegistrosWar/empresa/05199",
      "_links": {
        "self": {
          "name": "SUMINISTROS Y DISTRIBUCIONES AC MEDICA, S.A.",
          "href": "https://api.euskadi.eus/procurements/companies/05199"
        }
      }
    },
    {
      "name": "ASOCIACION PARA LA INSERCIÓN ZABALTZEN",
      "registrationNumber": "02537",
      "identificationNumber": "G48487748",
      "address": "MURUETA TORRE, 8 F-G",
      "location": {
        "postalCode": "48200",
        "municipality": "Durango",
        "county": "Bizkaia",
        "municipalityId": "027",
        "countyId": "48"
      },
      "economicActivities": [
        {
          "id": "1.861.2",
          "name": "Alquiler de locales industriales y otros alquileres n.c.o.p",
          "_links": {
            "self": {
              "name": "Alquiler de locales industriales y otros alquileres n.c.o.p",
              "href": "https://api.euskadi.eus/procurements/companies/economic-activities/1.861.2"
            }
          }
        },
        {
          "id": "1.934",
          "name": "Enseñanza fuera de establecimiento permanente",
          "_links": {
            "self": {
              "name": "Enseñanza fuera de establecimiento permanente",
              "href": "https://api.euskadi.eus/procurements/companies/economic-activities/1.934"
            }
          }
        },
        {
          "id": "1.952",
          "name": "Asistencia y servicios sociales en centros no residenciales",
          "_links": {
            "self": {
              "name": "Asistencia y servicios sociales en centros no residenciales",
              "href": "https://api.euskadi.eus/procurements/companies/economic-activities/1.952"
            }
          }
        }
      ],
      "certificateStartDate": "2014-05-27",
      "certificateEndDate": "2014-11-08",
      "object": "LA PROMOCIÓN Y DESARROLLO DE ACTIVIDADES Y SERVICIOS, ENCAMINADOS A CONSEGUIR LA PLENA REINSERCIÓN SOCIAL DE PERSONAS Y/O GRUPOS EN SITUACIÓN DE EXCLUSIÓN SOCIAL, O EN  RIESGO DE ESTARLO. ATENDIENDO DE MODO PREFERENTE A LOS SIGUIENTES COLECTIVOS: INFANCIA Y JUVENTUD, MUJERES, INMIGRANTES, MAYORES, PERSONAS CON DISCPACIDAD, PERSONAS QUE DEMANDAN APOYO SOCIAL DE LA RED DE RECURSOS COMUNITARIOS DE SERVICIOS SOCIALES Y PERSONAS DESEMPLEADAS.  \r\n\r\nPARA LA CONSECUCIÓN DE DICHOS FINES SE LLEVARÁN A CABO, PREVIO CUMPLILMIENTO DE LOS REQUISITOS LEGALES ESTABLECIDOS, LAS SIGUIENTES ACTIVIDADES:\r\n\r\n-SERVICIOS Y ACCIONES PARA LA ACOGIDA, INFORMACIÓN, ORIENTACIÓN, ACOMPAÑAMIENTO Y CAPACITACIÓN PERSONAL Y TÉCNICA DE DICHAS PERSONAS Y GRUPOS.\r\n-SERVICIOS Y ACCIONES PARA LA INTERMEDIACIÓN LAOBRALY LA PROMOCIÓN DEL ACCESO AL EMPLEO, TANTO POR CUENTA PROPIA COMO AJENA, PROMOVIENDO DE MANERA PRIORITARIA ESTRUCTURAS LABORALES SOLIDARIAS QU EFAVOREZCAN LOS PROCESOS DE INCORPORACIÓN SOCIAL DE SUS PARTICIPANTES.\r\n-ESTUDIOS E INVESTIGACIONES SOBRE DICHAS PERSONAS Y GRUPOS, Y SOBRE LOS SERVICIOS Y ACCIONES DESCRITAS.\r\n-SERVICIOS Y ACCIONES ESPECÍFICAS DE INCORPORACIÓN SOCIAL Y FORMACIÓN DE TRABAJADORES Y TRABAJADORAS EN RIESGO DE EXCLUSIÓN, TALES COMO MUJERES, PERSONAS CON DISCAPACIDAD, MAYORES DE 45 AÑOS Y OTROS COLECTIVOS EN SITUACIÓN DE EXCLUSIÓN O RIESGO DE ESTARLO.\r\n-SERVICIOS Y ACCIONES PARA EL ASESORAMIENTO DE ENTIDADES PARTICULARES Y PÚBLICAS QUE, DIRECTA O INDIRECTAMENTE, PUEDAN APORTAR SUS POSIBILIDADES A LOS FINES DE LA ENTIDAD.\r\n-CUALESQUIERA OTROS SERVICIOS Y ACCIONES ENCAMINADAS A LA ATENCIÓN DE LAS NECESIDADES QUE, DE CUALQUIER ÍNDOLE, PRESENTEN LOS COLECTIVOS DESCRITOS CON ANTERIORIDAD (VIVIENDA, SALUD, CULTURA, EDUCACIÓN, CONSUMO, ETC.)\r\n\r\nSIN PERJUICIO DE LAS ACTIVIDADES DESCRITAS EN EL APARTADO ANTERIOR, LA ASOCIACIÓN, PARA EL CUMPLIMIENTO DE SUS FINES, TAMBIÉN PODRÁ:\r\n\r\n-DESARROLLAR ACTIVIDADES ECONÓMICAS DE TODO TIPO, ENCAMINADAS A LA REALIZACIÓN DE SUS FINES O ALLEGAR RCURSOS CON ESE OBJETIVO.\r\n-ADQUIRIR Y POSEER BIENES DE TODAS CLAES Y POR CUALQUIER TÍTULO, ASÍ COMO CELEBRAR ACTOS Y CONTRATOS DE TODO GÉNERO.\r\n-EJERCITAR TODA CLASE DE ACCIONES CONFORME A LAS LEYES O A SUS ESTATUTOS   ",
      "mainEntityOfPage": "https://www.contratacion.euskadi.eus/webkpe00-kperoc/es/ac71aBusquedaRegistrosWar/empresa/02537",
      "_links": {
        "self": {
          "name": "ASOCIACION PARA LA INSERCIÓN ZABALTZEN",
          "href": "https://api.euskadi.eus/procurements/companies/02537"
        }
      }
    },
    {
      "name": "SUCENTOR INGENIERÍA, S.L.",
      "registrationNumber": "04773",
      "identificationNumber": "B99173213",
      "address": "AVDA. LEHENDAKARI AGUIRRE, 29 - 4º B",
      "location": {
        "postalCode": "48014",
        "municipality": "Bilbao",
        "county": "Bizkaia",
        "municipalityId": "020",
        "countyId": "48"
      },
      "economicActivities": [
        {
          "id": "1.843.1",
          "name": "Servicios técnicos de ingeniería",
          "_links": {
            "self": {
              "name": "Servicios técnicos de ingeniería",
              "href": "https://api.euskadi.eus/procurements/companies/economic-activities/1.843.1"
            }
          }
        }
      ],
      "certificateStartDate": "2014-05-27",
      "certificateEndDate": "2014-11-19",
      "object": "LA INTERMEDIACIÓN DE SERVICIOS TÉCNICOS DE INGENIERÍA Y ARQUITECTURA",
      "mainEntityOfPage": "https://www.contratacion.euskadi.eus/webkpe00-kperoc/es/ac71aBusquedaRegistrosWar/empresa/04773",
      "_links": {
        "self": {
          "name": "SUCENTOR INGENIERÍA, S.L.",
          "href": "https://api.euskadi.eus/procurements/companies/04773"
        }
      }
    },
    {
      "name": "AMOVENS SOLUCIONES, S.L.",
      "registrationNumber": "05126",
      "identificationNumber": "B85636579",
      "address": "juan de mena 25, 1 dcha",
      "location": {
        "postalCode": "28014",
        "municipality": "Madrid",
        "county": "Madrid",
        "municipalityId": "079",
        "countyId": "28"
      },
      "economicActivities": [
        {
          "id": "1.849.9",
          "name": "Otros servicios independientes n.c.o.p",
          "_links": {
            "self": {
              "name": "Otros servicios independientes n.c.o.p",
              "href": "https://api.euskadi.eus/procurements/companies/economic-activities/1.849.9"
            }
          }
        }
      ],
      "certificateStartDate": "2014-05-27",
      "certificateEndDate": "2014-11-27",
      "object": "EL DESARROLLO DE NUEVAS SOLUCIONES PARA FAVORECER LA MOVILIDAD DENTRO Y FUERA DEL TERRITORIO ESPAÑOL; EN PARTICULAR PROMOVERÁ Y FACILITARÁ LA UTILIZACIÓN COMPARTIDA DE VEHÍCULOS, PONIENDO EN CONTACTO A LOS USUARIOS PARA QUE EFECTÚEN VIAJES EN COCHE JUNTOS. TAMBIÉN SE RELACIONARÁ CON ENTIDADES PUBLICAS O PRIVADAS PARA MEJORAR LA MOVILIDAD DE SUS ADMINISTRADOS, CONSEJEROS Y/O EMPLEADOS Y PODRÁ ESTABLECER VÍNCULOS CON OTRAS COMPAÑÍAS RELACIONADAS CON EL TRANSPORTE PARA DESARROLLAR SOLUCIONES NUEVAS EN ESTE ÁMBITO. TAMBIÉN PROMOVERÁ OTROS TIPOS DE INTERACCIÓN ENTRE SUS USUARIOS, PERMITIÉNDOLES PUBLICAR TODO TIPO DE ANUNCIOS NO VINCULADOS A LA MOVILIDAD: -LA COMPRAVENTA DE ARTÍCULOS O MERCADERÍAS RELACIONADAS DIRECTAMENTE CON LA AUTOMOCIÓN Y LOCOMOCIÓN DE VEHÍCULOS",
      "mainEntityOfPage": "https://www.contratacion.euskadi.eus/webkpe00-kperoc/es/ac71aBusquedaRegistrosWar/empresa/05126",
      "_links": {
        "self": {
          "name": "AMOVENS SOLUCIONES, S.L.",
          "href": "https://api.euskadi.eus/procurements/companies/05126"
        }
      }
    },
    {
      "name": "KIROLEKIN S.L.",
      "registrationNumber": "04654",
      "identificationNumber": "B95128377",
      "address": "DR.D.LUIS BILBAO LIBANO, 7 BJ TRA",
      "location": {
        "postalCode": "48940",
        "municipality": "Leioa",
        "county": "Bizkaia",
        "municipalityId": "054",
        "countyId": "48"
      },
      "economicActivities": [
        {
          "id": "1.967.2",
          "name": "Escuelas y servicios de perfeccionamiento del deporte",
          "_links": {
            "self": {
              "name": "Escuelas y servicios de perfeccionamiento del deporte",
              "href": "https://api.euskadi.eus/procurements/companies/economic-activities/1.967.2"
            }
          }
        }
      ],
      "certificateStartDate": "2014-05-20",
      "certificateEndDate": "2014-11-19",
      "object": "1.- LA GESTIÓN, ORGANIZACIÓN Y COORDINACIÓN DE TODO TIPO DE INSTALACIONES DEPORTIVAS Y CULTURALES Y, ASÍ MISMO, DE TODO TIPO DE ACTIVIDADES, EVENTOS Y COMPETICIONES TANTO DEPORTIVAS COMO CULTURALES.\r\n2.- LA IMPORTACIÓN, EXPORTACIÓN Y COMERICALIZACIÓN EN GENERAL DE MATERIAL Y COMPLEMENTOS DEPORTIVOS, Y EL ASESORAMIENTO EN MATERIA DEPORTIVA Y MEDICINA DEL MISMO RAMO.\r\n3.- LAS ACITIVIDADES SOCIALES PODRÁN SER DESARROLLADAS POR LA ENTIDAD, TOTAL O PARCIALMENTE, DE MODO INDIRECTO, MEDIANTE LA PARTICIPACIÓN EN OTRAS ENTIDADES CON OBJETO IDÉNTICO O ANÁLOGO.\r\n4.- LA REHABILITACIÓN DEPORTIVA, RECUPERACIÓN DE LESIONES (DEPORTIVAS, TRAUMÁTICAS, PRE Y POST OPERATORIAS, DEGENERATIVAS Y GENÉRICAS), ORIENTACIÓN DEPORTIVA, PLANIFICACIÓN DEPORTIVA-SALUD INDIVIDUAL Y COLECTIVA, ENTRENAMIENTO PERSONALIZADO, SERVICIOS ESTÉTICOS, Y SERVICIO DE REHABILITACIÓN A DOMICILIO.\r\n5.- LA VENTA DE PRODUCTOS DEPORTIVOS, DE SALUD, ESTÉTICOS Y ERGONÓMICOS.\r\n6.- LA ORGANIZACIÓN DE ACTIVIDADES DEPORTIVAS, DE RELAJACIÓN Y FORMATIVAS.\r\n7.- LA GESTIÓN, ORGANIZACIÓN, ASESORAMIENTO Y COORDINACIÓN DE TODO TIPO DE INSTALACIONES DEPORTIVAS, CULTURALES, ESTÉTICAS Y SALUD, ASÍ COMO DE TODO TIPO DE ACTIVIDADES, EVENTOS Y COMPETICIONES RELACIONADAS CON LAS MISMAS",
      "mainEntityOfPage": "https://www.contratacion.euskadi.eus/webkpe00-kperoc/es/ac71aBusquedaRegistrosWar/empresa/04654",
      "_links": {
        "self": {
          "name": "KIROLEKIN S.L.",
          "href": "https://api.euskadi.eus/procurements/companies/04654"
        }
      }
    },
    {
      "name": "JOSÉ ÁNGEL DÍAZ DÍAZ DE JUNGUITU",
      "registrationNumber": "01431",
      "identificationNumber": "16234354B",
      "address": "C/ VENTA DE LA ESTRELLA, Nº 6. PABELLÓN: 20.",
      "location": {
        "postalCode": "01006",
        "municipality": "Vitoria-Gasteiz",
        "county": "Araba/Álava",
        "municipalityId": "059",
        "countyId": "01"
      },
      "economicActivities": [
        {
          "id": "1.501.1",
          "name": "Construcción completa, reparación y conservación de edificaciones",
          "_links": {
            "self": {
              "name": "Construcción completa, reparación y conservación de edificaciones",
              "href": "https://api.euskadi.eus/procurements/companies/economic-activities/1.501.1"
            }
          }
        }
      ],
      "certificateStartDate": "2014-05-15",
      "certificateEndDate": "2014-10-27",
      "object": "LA CONSTRUCCIÓN, REPARACIÓN DE EDIFICACIONES",
      "mainEntityOfPage": "https://www.contratacion.euskadi.eus/webkpe00-kperoc/es/ac71aBusquedaRegistrosWar/empresa/01431",
      "_links": {
        "self": {
          "name": "JOSÉ ÁNGEL DÍAZ DÍAZ DE JUNGUITU",
          "href": "https://api.euskadi.eus/procurements/companies/01431"
        }
      }
    },
    {
      "name": "DIVAOR STUDIO, S.L.",
      "registrationNumber": "04635",
      "identificationNumber": "B95565255",
      "address": "COLÓN DE LARREATEGI 3-1º D",
      "location": {
        "postalCode": "48001",
        "municipality": "Bilbao",
        "county": "Bizkaia",
        "municipalityId": "020",
        "countyId": "48"
      },
      "economicActivities": [
        {
          "id": "1.844",
          "name": "Servicios de publicidad, relaciones públicas y similares",
          "_links": {
            "self": {
              "name": "Servicios de publicidad, relaciones públicas y similares",
              "href": "https://api.euskadi.eus/procurements/companies/economic-activities/1.844"
            }
          }
        }
      ],
      "certificateStartDate": "2014-05-15",
      "certificateEndDate": "2014-11-03",
      "object": "1) TODO TIPO DE PROYECTOS VISUALES TALES COMO: PROYECTOS GRÁFICOS, EVENTOS PUBLICITARIOS, COMUNICATIVOS, TEXTILES, INTERACTIVOS, ETC... ASÍ COMO PROYECTOS Y DISEÑO DE COMUNICACIÓN, PUBLICIDAD, RELAIZACIÓN DE EVENTOS, DISEÑO GRÁFICO, DISEÑO EDITORIAL Y DISEÑO TEXTIL, NUEVAS TECNOLOGÍAS (WEB) Y AL PACKAGING Y SIMILARES. ASÍ COMO AGENCIA DE PUBLICIDAD Y MARKETING. 2) EL DISEÑO, PRODUCCIÓN Y COMERCIALIZACIÓN DE ANAGRAMAS, LOGOTIPOS E IMAGEN; Y LA PRESTACIÓN DE SERVICIOS INFORMATIVOS, PUBLICITARIOS, NOTICIAS ESCRITAS O POR IMAGEN, POR CUALQUIER MEDIO Y SISTEMAS, A ENTIDADES PÚBLICAS, PRIVADAS, PERSONAS NATURAES O JURÍDICAS. 3) LA EDICIÓN, DISTRIBUCIÓN, COMERCIALIZACIÓN, ALMACENAMIENTO, IMPORTACIÓN Y EXPORTACIÓN DE TODA CLASE DE REVISTAS, PERIÓDICOS, LIBROS Y PANFLETOS PROPAGANDÍSTICOS, Y LA REALIZACIÓN DE IGUALES ACTIVIDADES REFERIDAS AL DISEÑO TEXTIL. 4) LA ELABORACIÓN DE CAMPAÑAS DE IMAGEN, PARA TODA CLASE DE OBJETOS, BIENES, DISEÑOS Y PRODUCTOS, MEDIANTE PUBLICIDAD, MÓVIL O ESTÁTICA O POR MEDIOS AUDIOVISUALES O RADIOFÓNICOS Y CUALESQUIERA OTROS, QUE SIRVAN PARA LA PROMOCIÓN DE LOS PRODUCTOS MENCIONADOS. 5) DISEÑO, DESARROLLO, IMPLANTACIÓN, ALOJAMIENTO Y MANTENIMIENTO DE SITIOS WEB, SENCILLOS O COMPLEJOS (BASES DE DATOS, COMERCIO ELECTRÓNICO). 6) DISEÑO Y DESARROLLO DE APLIACIONES MULTIMEDIA EN CUALQUIER TIPO DE SOPORTE (CD ROM; CD-R; INTERNET; INTRANETS). 7) DISEÑO DE TODO TIPO DE MATERIAL GRÁFICO PARA PROMOCIÓN Y ESTRATEGIAS DE MARKETING PARA EMPRESAS (CATÁLOGOS, FOLLETOS, MEMORIAS, DSPLAYS,  PLV, ENTRE OTROS). DISEÑO, ELABORACIÓN E IMPLANTACIÓN DE PROGRAMAS DE IDENTIDAD VISUALCORPORATIVA, INCLUÍDAS SUS APLICACIONES A LA ARQUITECTURA. DISEÑO Y GESTIÓN DE PARTICIPACIONES PÚBLICAS DE EMPRESAS (FERIAS, CONGRESOS, PRESENTACIONES). DISEÑO, GESTIÓN E IMPLANTACIÓN DE TODO TIPO DE CAMAPAÑA PUBLICITARIA, EN CUALQUIER MEDIO. 8) DISEÑO Y DESARROLLO DE PROTOTIPOS Y PRODUCTOS PARA LA INDUSTRIA Y EL CONSUMO",
      "mainEntityOfPage": "https://www.contratacion.euskadi.eus/webkpe00-kperoc/es/ac71aBusquedaRegistrosWar/empresa/04635",
      "_links": {
        "self": {
          "name": "DIVAOR STUDIO, S.L.",
          "href": "https://api.euskadi.eus/procurements/companies/04635"
        }
      }
    },
    {
      "name": "BIDEAN TA KALEAN, S.L.",
      "registrationNumber": "03203",
      "identificationNumber": "B95100145",
      "address": "C/ SASIKOA, 26-2º IZDA.",
      "location": {
        "postalCode": "48200",
        "municipality": "Durango",
        "county": "Bizkaia",
        "municipalityId": "027",
        "countyId": "48"
      },
      "economicActivities": [
        {
          "id": "1.847",
          "name": "Servicios de consultoría",
          "_links": {
            "self": {
              "name": "Servicios de consultoría",
              "href": "https://api.euskadi.eus/procurements/companies/economic-activities/1.847"
            }
          }
        },
        {
          "id": "1.849.7",
          "name": "Servicios de gestión administrativa",
          "_links": {
            "self": {
              "name": "Servicios de gestión administrativa",
              "href": "https://api.euskadi.eus/procurements/companies/economic-activities/1.849.7"
            }
          }
        },
        {
          "id": "1.934",
          "name": "Enseñanza fuera de establecimiento permanente",
          "_links": {
            "self": {
              "name": "Enseñanza fuera de establecimiento permanente",
              "href": "https://api.euskadi.eus/procurements/companies/economic-activities/1.934"
            }
          }
        }
      ],
      "certificateStartDate": "2014-05-12",
      "certificateEndDate": "2014-11-03",
      "object": "A) EN GENERAL, CUALQUIER ACTIVIDAD LÍCITA QUE GUARDE RELACIÓN DIRECTA O INDIRECTA CON EL ASESORAMIENTO Y CONSULTORÍA RELACIONADOS CON EL TRÁFICO, TRANSPORTE Y SEGURIDAD VIAL; B) EN PARTICULAR, LAS ACTIVIDADES QUE A CONTINUACIÓN SE EXPRESAN: 1. LA REALIZACIÓN DE TODA CLASE DE ESTUDIOS Y PROYECTOS DE CONSTRUCCIÓN DE CUALQUIER ESPECIE, Y DE DESARROLLO, ORGANIZACIÓN Y MOVILIDAD DE TRÁFICO Y TRANSPORTE DE PERSONAS Y MERCANCÍAS EN VEHÍCULOS U OTROS MEDIOS DE DESPLAZAMIENTOS; 2. ELABORACIÓN DE PLANES Y PROYECTOS DE URBANISMO, ORDENACIÓN TERRITORIAL Y PROTECCIÓN DEL MEDIO AMBIENTE; 3. LA PRESTACIÓN DE SERVICIOS DE ASESORÍA ECONÓMICA, TÉCNICA, JURÍDICA, ARQUITECTÓNICA, URBANÍSTICA, DIDÁCTICA, SOCIOLÓGICA, ESTADÍSTICA, ARTÍSTICA, GESTIÓN EDITORIAL, INFORMÁTCIA, CIENTÍFICA Y DE CONSULTING, DICTAMEN, INFORMACIÓN, PUBLICIDAD Y PLANIFICACIÓN EN MATERIAS DE INGENIERÍA Y DE ADMINISTRACIÓN DE EMPRESAS PRIVADAS O PÚBLICAS, INSTITUCIÓN Y ORGANISMOS RELACIONADOS CON EL URBANISMO, EL TRÁFICO, LOS SISTEMAS DE TRANSPORTE, LA SEGURIDAD VIAL, LA MOVILIDAD Y LA CONSTRUCCIÓN DE TODA CLASE DE OBRAS; 4. CONSULTORÍA Y COLABORACIÓN EN LA GESTIÓN, LIQUIDACIÓN, RECAUDACIÓN, INSPECCIÓN DE TRIBUTOS Y AUDITORÍA EN EL PROCEDIMIENTO SANCIONADOR REFERENTE A LA INDISCIPLINA VIAL Y URBANÍSTICA, TANTO EN SU PERÍODO VOLUNTARIO, COMO EN SU PERÍODO EJECUTIVO; 5. COMERCIALIZACIÓN DE BIENES Y EQUIPOS Y ACCESORIOS DEL AUTOMÓVIL Y DE SEGURIDAD VIAL; 6. LA PROGRAMACIÓN, ORGANIZACIÓN, DIRECCIÓN E IMPARTICIÓN, DIRECTA O A TRAVÉS DE TERCEROS DE CURSOS, CONFERENCIAS, COLOQUIOS, SEMINARIOS, MESAS REDONDAS, CONGRESOS, TANTO NACIONALES COMO INTERNACIONALES, RESPECTO DE LAS MATERIAS PROFESIONALES RELACIONADAS CON EL URBANISMO, EL TRÁFICO, LOS SISTEMAS DE TRANSPORTE, LA SEGURIDAD VIAL, LA MOVILIDAD Y LA CONSTRUCCIÓN DE TODA CLASE DE OBRAS; 7. LA FORMACIÓN Y PERFECCIONAMIENTO PROFESIONALES DEL PERSONAL DIRECTIVO, EJECUTIVO, ADMINISTRATIVO, AUXILIAR Y SUBALTERNO QUE, CUMPLIDOS LOS REQUISITOS QUE SE ESTABLEZCAN EN CADA CASO Y CON LA CONTRAPRESTACIÓN QUE SE EXIJA, MANIFIESTE SU DESEO DE OBTENER UNA ESPECIALIZACIÓN EN LAS MATERIAS PROFESIONALES ANTES EXPRESADAS; 8. LA PROMOCIÓN, COORDINACIÓN DE EQUIPOS DE REDACCIÓN, GESTIÓN DE PUBLICACIÓN Y DE EDICIÓN, DISTRIBUCIÓN Y, EN SU CASO, COMERCIALIZACIÓN DE TRATADOS, MANUALES, MONOGRAFÍAS, PERIÓDICOS Y REVISTAS ESPECIALIZADAS EN LAS CIENCIAS Y TÉCNICAS RELACIONADAS CON EL OBJETO SOCIAL GENÉRICAMENTE CONSIDERADO; 9. PREPARACIÓN, ORGANIZACIÓN, IMPARTICIÓN Y DESARROLLO DE PROGRAMAS EDUCATIVOS Y DE ENTRETENIMIENTO DE TODO TIPO, RELACIONADOS CON LA EDUCACIÓN PARA LA MOVILIDAD SEGURA PARA SU IMPLANTACIÓN EN EVENTOS PÚBLICOS, FERIAS Y PARQUES INFANTILES.",
      "mainEntityOfPage": "https://www.contratacion.euskadi.eus/webkpe00-kperoc/es/ac71aBusquedaRegistrosWar/empresa/03203",
      "_links": {
        "self": {
          "name": "BIDEAN TA KALEAN, S.L.",
          "href": "https://api.euskadi.eus/procurements/companies/03203"
        }
      }
    },
    {
      "name": "CRYN CREATIVOS, S.L.",
      "registrationNumber": "02981",
      "identificationNumber": "B01303684",
      "address": "GOIKO PLAZA, 20",
      "location": {
        "postalCode": "01400",
        "municipality": "Laudio/Llodio",
        "county": "Araba/Álava",
        "municipalityId": "036",
        "countyId": "01"
      },
      "economicActivities": [
        {
          "id": "1.844",
          "name": "Servicios de publicidad, relaciones públicas y similares",
          "_links": {
            "self": {
              "name": "Servicios de publicidad, relaciones públicas y similares",
              "href": "https://api.euskadi.eus/procurements/companies/economic-activities/1.844"
            }
          }
        }
      ],
      "certificateStartDate": "2014-05-05",
      "certificateEndDate": "2014-07-14",
      "object": "EL ASESORAMIENTO Y GESTIÓN DE MEDIOS PUBLICITARIOS, ASÍ COMO TAMBIÉN DE TODO TIPO DE TEMAS RELACIONADOS CON LA IMAGEN Y EL MARKETING; LA REPRESENTACIÓN COMO AGENTE, COMISIONISTA, DELEGADO O CUALQUIER OTRA FORMA DE MEDIACIÓN MERCANTIL DE TEMAS RELACIONADOS CON LA PUBLICIDAD, LA IMAGEN Y EL MARKETING",
      "mainEntityOfPage": "https://www.contratacion.euskadi.eus/webkpe00-kperoc/es/ac71aBusquedaRegistrosWar/empresa/02981",
      "_links": {
        "self": {
          "name": "CRYN CREATIVOS, S.L.",
          "href": "https://api.euskadi.eus/procurements/companies/02981"
        }
      }
    },
    {
      "name": "ACTIVA INGENIEROS, S.L.",
      "registrationNumber": "04545",
      "identificationNumber": "B95303574",
      "address": "PLANTZIA BIDEA 13, NAVE 3, DPTO. A",
      "location": {
        "postalCode": "48100",
        "municipality": "Mungia",
        "county": "Bizkaia",
        "municipalityId": "069",
        "countyId": "48"
      },
      "economicActivities": [
        {
          "id": "1.843.1",
          "name": "Servicios técnicos de ingeniería",
          "_links": {
            "self": {
              "name": "Servicios técnicos de ingeniería",
              "href": "https://api.euskadi.eus/procurements/companies/economic-activities/1.843.1"
            }
          }
        }
      ],
      "certificateStartDate": "2014-04-25",
      "certificateEndDate": "2014-10-07",
      "object": "LA PROMOCIÓN Y EJECUCIÓN COMPLETA O POR RAMOS DE TODA CLASE DE OBRAS DE CONSTRUCCIÓN, URBANIZACIÓN, SERVICIOS, REPARACIÓN, CONSERVACIÓN, REFORMAS Y EXPLOTACIÓN DE TODA CLASE DE EDIFICACIONES, ASÍ COMO LA COORDINACIÓN DE GREMIOS INTERVINIENTES EN LAS ANTERIORES ACTIVIDADES. LA PRESTACIÓN DE SERVICIOS DE INVESTIGACIÓN, PLANEAMIENTO Y TÉCNICAS EN LAS ÁREAS URBANÍSTICAS E INMOBILIARIAS, PROGRAMACIÓN DE SU EJECUCIÓN, Y EN GENERAL TODOS AQUELLOS QUE SEAN SOPORTE DE PROYECTOS DE ARQUITECTOS E INGENIEROS. RECONOCIMIENTO, CONSULTAS, EXAMEN DE DOCUMENTOS Y DILIGENCIAS, INFORMAES, DICTÁMENES, CERTIFICACIONES, ACTUACIONES PERICIALES. DESLINDES Y MEDICIONES DE TERRENOS, SOLARES Y EDIFICIOS. PROYECTOS DE EJECUCIÓN DE DERRIBOS EN EDIFICACIONES Y O DIRECCIÓN DE LAS OBRAS. PROYECTOS DE EJECUCIÓN DE OBRAS DE URBANIZACIÓN Y O DIRECCIÓN DE LAS OBRAS. PROYECTOS DE EJECUCIÓN DE NAVES INDUSTRIALES, AGRÍCOLAS Y GANADERAS Y O DIRECCIÓN DE LAS OBRAS. PORYECTOS DE EJECUCIÓN DE INSTALACIONES DEPORTIVAS Y O DIRECCIÓN DE LAS OBRAS. PROYECTOS DE EDIFICACIÓN DE OBRAS DE REFUERZO Y CONSOLIDACIÓN DE EDIFICACIONES Y O DIRECCIÓN DE LAS OBRAS. ACTUACIONES EN MATERIA DE SEGURIDAD Y SALUD. REDACCIÓN DE PROGRAMAS DE CONTROL DE CALIDAD EN LA CONSTRUCCIÓN. EXCAVACIONES Y TRANSPORTE DE MERCANCÍAS, AGENCIA DE MERCANCÍAS TANTO DE CARGA COMPLETA COMO FRACCIONADA, ALMACENAJE Y DISTRIBUCIÓN DE LOS MISMOS, SERVICIO DE REPARACIÓN Y MANTENIMIENTO DE VEHÍCULOS, TANO PROPIO COMO AJENOS. ALQUILER DE MAQUINARIA INDUSTRIAL. LA ADQUISICIÓN, TENENCIA, EXPLOTACIÓN Y ENAJENACIÓN DE TODA CLASE DE BIENES INMUEBLES, TALES COMO VIVIENDAS, LOCALES COMERCIALES, PABELLONES INDUSTRIALES O TERRENOS, TANTO RÚSTICOS COMO URBANOS, SU PLANTACIÓN, CULTIVO, URBANIZACIÓN O PARCELACIÓN; LA CONSTRUCCIÓN DE EDIFICIOS DE TODAS CLASES; EL USO ARRENDAMIENTO, VENTAS O TRANSMISIÓN POR CUALQUIER OTRO TÍTULO LOS EDIFICIOS, VIVIENDAS O LACALES DE LOS MISMOS. LA COMPRAVENTA, EJECUCIÓN DE LA INGENERÍA BÁSICA Y DE DETALLE, FABRICACIÓN, CONSTRUCCIÓN, REPARACIÓN, INSTALACIÓN Y MONTAJE DE GRANDES DEPÓSITOS, INCLUIDOS LOS DEPÓSITOS A PRESIÓN, CALDERERÍA GRUESA Y TUBERÍA; MAQUINARIA, EQUIPOS Y SUS COMPONENTES PARA LA INDUSTRIA QUÍMICA Y PETROQUÍMICA; MAQUINARIA, EQUIPOS Y SUS COMPONENTES DE ELEVACIÓN, MANIPULACIÓN Y MANEJO DE MATERIALES; MAQUINARIA, EQUIPOS Y SUS COMPONENTES PARA LA MANIPULACIÓN DE LUIDOS; MOTORES, TURBINAS Y, EN GENERAL, MAQUINARIA EQUIPOS Y SUS COMPOMENTES PARA LAS INDUSTRIAS DE LA PRODUCCIÓN Y TRANSFORMACIÓN DE LA ENERGÍA, DEL PAPEL, DEL CEMENTO Y SIDERÚRGICO; APARATOS DE EUIPOS ELECTRÓNICOS DE SEÑALIZACIÓN, CONTROL Y PROGRAMACIÓN, MAQUINARIA, EUIPOS Y SUS COMPONENTES PARA LAS INDUSTRIAS EXTRACTIVAS. EJECUCIÓN DE LA INGENIERÍA, COMPRAVENTA, FABRICACIÓN Y REPARACIÓN DE ESTRUCTURAS METÁLICAS E INSTALACIONES ACCESORIAS. INSTALACIÓN Y MONTAJE, CON O SIN SUMINISTRO DE MATERIALES, DE ESTRUCTURAS METÁLICAS DE PUENTES, VIADUCTOS Y EDIFICACIONES, Y, EN GENERAL, DE GRANDES ESTRUCTURAS METÁLICAS E INSTALACIONES ACCESORIAS Y SUS SERVICIOS. EJECUCIÓN DE LA INGENIERÍA BÁSICA Y DE DETALLE E INSTALACIÓN Y MONTAJE, CON O SIN SUMINISTRO DE MATERIALES Y EQUIPOS, DE CENTRALES DE PRODUCCIÓN DE ENERGÍA, PLANTAS PARA LA FAVRICACIÓN Y DISTRIBUCIÓN DE GAS, PLANTAS QUÍMICAS Y PETROQUÍMICAS, PLANTAS PARA LAS INDUSTRIAS SIDERÚRGICAS, DEL PAPEL Y DEL CEMENTO, Y, EN GENERAL PLANTAS INDUSTRIALES. LA ADQUISICIÓN, TENENCIA Y ADMINISTRACIÓN DE VALORES, ACCIONES O PARTICIPACIONES EN SOCIEDADES CIVILES O MERCANTILES",
      "mainEntityOfPage": "https://www.contratacion.euskadi.eus/webkpe00-kperoc/es/ac71aBusquedaRegistrosWar/empresa/04545",
      "_links": {
        "self": {
          "name": "ACTIVA INGENIEROS, S.L.",
          "href": "https://api.euskadi.eus/procurements/companies/04545"
        }
      }
    }
  ]
}