{
  "totalItems": 9042,
  "totalPages": 905,
  "currentPage": 583,
  "itemsOfPage": 10,
  "items": [
    {
      "name": "XABIER REZABAL GURRUCHAGA",
      "registrationNumber": "06827",
      "identificationNumber": "44127258X",
      "address": "ARRIA AUZUENEA Nº1",
      "location": {
        "postalCode": "20730",
        "municipality": "Azpeitia",
        "county": "Gipuzkoa",
        "municipalityId": "018",
        "countyId": "20"
      },
      "economicActivities": [
        {
          "id": "2.411",
          "name": "Arquitectos",
          "_links": {
            "self": {
              "name": "Arquitectos",
              "href": "https://api.euskadi.eus/procurements/companies/economic-activities/2.411"
            }
          }
        }
      ],
      "certificateStartDate": "2020-02-11",
      "certificateEndDate": "2020-04-30",
      "object": "ARQUITECTO",
      "mainEntityOfPage": "https://www.contratacion.euskadi.eus/webkpe00-kperoc/es/ac71aBusquedaRegistrosWar/empresa/06827",
      "_links": {
        "self": {
          "name": "XABIER REZABAL GURRUCHAGA",
          "href": "https://api.euskadi.eus/procurements/companies/06827"
        }
      }
    },
    {
      "name": "ECOGEO CONSULTORÍA MEDIOAMBIENTAL, S.L.",
      "registrationNumber": "06829",
      "identificationNumber": "B47734686",
      "address": "Calle Tirso de Molina 28 4ºD",
      "location": {
        "postalCode": "47010",
        "municipality": "Valladolid",
        "county": "Valladolid",
        "municipalityId": "186",
        "countyId": "47"
      },
      "economicActivities": [
        {
          "id": "1.973.1",
          "name": "Servicios fotográficos",
          "_links": {
            "self": {
              "name": "Servicios fotográficos",
              "href": "https://api.euskadi.eus/procurements/companies/economic-activities/1.973.1"
            }
          }
        },
        {
          "id": "1.999",
          "name": "Otros servicios n.c.o.p",
          "_links": {
            "self": {
              "name": "Otros servicios n.c.o.p",
              "href": "https://api.euskadi.eus/procurements/companies/economic-activities/1.999"
            }
          }
        }
      ],
      "certificateStartDate": "2020-02-11",
      "certificateEndDate": "2020-07-29",
      "object": "- LA ACTUACIÓN COMO PRESTADOR DE SERVICIOS DE CONSULTORÍA MEDIOAMBIENTAL, TOPOGRÁFICA Y TECNOLÓGICA. - LA PRESTACIÓN DE SERVICIOS MEDIANTE EL USO DE DRONES EN CUALQUIER ÁMBITO. - LA COMERCIALIZACIÓN Y DISTRIBUCIÓN DE PRODUCTOS AL POR MENOR. - EL MANTENIMIENTO Y LA EXPLOTACIÓN DE INSTALACIONES QUE DAN SOPORTE A LAS ANTERIORES ACTIVIDADES. - LA PRESTACIÓN A TERCEROS DE SERVICIOS DE APOYO, CONSULTORÍA Y OTROS SERVICIOS SIMILARES RELACIONADOS CON LAS TECNOLOGÍAS APLICADAS AL MEDIO AMBIENTE Y A LAS ENERGÍAS RENOVABLES. - LA ADQUISICIÓN, TENENCIA, ADMINISTRACIÓN, ENAJENACIÓN DE TODA CLASE DE ACTIVOS, TÍTULOS, VALORES, ACTIVOS FINANCIEROS, DERECHOS, CUOTAS O PARTICIPACIONES EN EMPRESAS INDIVIDUALES O SOCIALES, TODO ELLO POR CUENTA PROPIA, EXCLUYENDO LA INTERMEDIACIÓN Y DEJANDO A SALVO LA LEGISLACIÓN PROPIA DEL MERCADO DE VALORES Y DE LAS INSTITUCIONES DE INVERSIÓN COLECTIVA",
      "mainEntityOfPage": "https://www.contratacion.euskadi.eus/webkpe00-kperoc/es/ac71aBusquedaRegistrosWar/empresa/06829",
      "_links": {
        "self": {
          "name": "ECOGEO CONSULTORÍA MEDIOAMBIENTAL, S.L.",
          "href": "https://api.euskadi.eus/procurements/companies/06829"
        }
      }
    },
    {
      "name": "KEPA INTXAUSTI LARRAMENDI",
      "registrationNumber": "06830",
      "identificationNumber": "30663657B",
      "address": "SABINO ARANA, 31 2º",
      "location": {
        "postalCode": "48140",
        "municipality": "Igorre",
        "county": "Bizkaia",
        "municipalityId": "094",
        "countyId": "48"
      },
      "economicActivities": [
        {
          "id": "1.721.2",
          "name": "Transporte por autotaxis",
          "_links": {
            "self": {
              "name": "Transporte por autotaxis",
              "href": "https://api.euskadi.eus/procurements/companies/economic-activities/1.721.2"
            }
          }
        }
      ],
      "certificateStartDate": "2020-02-11",
      "certificateEndDate": "2019-07-30",
      "object": "TRANSPORTE POR AUTOTAXI",
      "mainEntityOfPage": "https://www.contratacion.euskadi.eus/webkpe00-kperoc/es/ac71aBusquedaRegistrosWar/empresa/06830",
      "_links": {
        "self": {
          "name": "KEPA INTXAUSTI LARRAMENDI",
          "href": "https://api.euskadi.eus/procurements/companies/06830"
        }
      }
    },
    {
      "name": "ALDRO ENERGÍA Y SOLUCIONES, S.L",
      "registrationNumber": "06832",
      "identificationNumber": "B39793294",
      "address": "Paseo del Niño, 5, 39330. Torrelavega",
      "location": {
        "postalCode": "39300",
        "municipality": "Torrelavega",
        "county": "Cantabria",
        "municipalityId": "087",
        "countyId": "39"
      },
      "economicActivities": [
        {
          "id": "1.619.9",
          "name": "Venta al por mayor de otros productos n.c.o.p",
          "_links": {
            "self": {
              "name": "Venta al por mayor de otros productos n.c.o.p",
              "href": "https://api.euskadi.eus/procurements/companies/economic-activities/1.619.9"
            }
          }
        }
      ],
      "certificateStartDate": "2020-02-11",
      "certificateEndDate": "2020-08-05",
      "object": "A) ACTIVIDAD DE COMERCIALIZACIÓN DE GAS Y ELECTRICIDAD. B) LA INGENIERÍA Y REALIZACIÓN DE INSTALACIONES ELÉCTRICAS Y DE GAS, COMPRENDIENDO EL DISEÑO Y CONSTRUCCIÓN DE HARDWARE Y SOFTWARE. C) LA VENTA, ARRENDAMIENTO, DESARROLLO, MANTENIMIENTO Y REPARACIÓN DE MATERIAL, MAQUINARIA Y EQUIPOS DE GAS Y ELECTRICIDAD, INCLUYENDO LOS DE CONTROL Y MEDIDA. D) LA PRESTACIÓN DE SERVICIOS DE ASESORAMIENTO EMPRESARIAL EN EL ÁMBITO FINANCIERO, LOGÍSTICO, ENERGÉTICO Y MEDIOAMBIENTAL. E) COMERCIALIZACIÓN DE TELECOMUNICACIONES. UTILIZANDO A SU VEZ DE SOCIEDAD LOS SERVICIO S DE PROFESIONALES CON LA TITULACIÓN OFICIAL IDÓNEA SEGÚN LA NATURALEZA DEL SERVICIO DE QUE SE TRATE, EN SU CASO.\r\n",
      "mainEntityOfPage": "https://www.contratacion.euskadi.eus/webkpe00-kperoc/es/ac71aBusquedaRegistrosWar/empresa/06832",
      "_links": {
        "self": {
          "name": "ALDRO ENERGÍA Y SOLUCIONES, S.L",
          "href": "https://api.euskadi.eus/procurements/companies/06832"
        }
      }
    },
    {
      "name": "EHISA CONSTRUCCIONES Y OBRAS, S.A.",
      "registrationNumber": "03820",
      "identificationNumber": "A50119569",
      "address": "C/ DR. AZNAR MOLINA, 15",
      "location": {
        "postalCode": "50002",
        "municipality": "Zaragoza",
        "county": "Zaragoza",
        "municipalityId": "297",
        "countyId": "50"
      },
      "economicActivities": [
        {
          "id": "1.507",
          "name": "Construcción, reparación y conservación de toda clase obras",
          "_links": {
            "self": {
              "name": "Construcción, reparación y conservación de toda clase obras",
              "href": "https://api.euskadi.eus/procurements/companies/economic-activities/1.507"
            }
          }
        }
      ],
      "certificateStartDate": "2020-02-10",
      "certificateEndDate": "2020-08-10",
      "object": "- LA CONSTRUCCIÓN; MODIFICACIÓN; REFORMA; REHABILITACIÓN; CONSERVACIÓN Y MANTENIMIENTO INTEGRAL DE TODA CLASE DE EDIFICACIONES, CUALESQUIERA QUE SEA EL USO AL QUE SE DESTINEN. - MOVIMIENTO DE TIERRAS; PERFORACIONES; DESMONTES Y VARIADOS; EXPLANACIONES; CANTERAS POZOS Y GALERÍAS; TÚNELES. - PUENTES, VIADUCTOS Y GRANDES ESTRUCTURAS. YA SEAN DE FÁBRICA; DE HORMIGÓN EN MASA Y HORMIGÓN ARMADO, DE HORMIGÓN PRESENTADO Y/O METÁLICOS. - URBANIZACIONES. DEMOLICIONES; ESTRUCTURAS DE FÁBRICA U HORMIGÓN; ESTRUCTURAS METÁLICAS; ALBAÑILERÍA, REVOCOS Y REVESTIDOS; CANTERÍA Y MARMOLERÍA; PAVIMENTOS, SOLADOS Y ALICATADOS; AISLAMIENTOS E IMPERMEABILIZACIONES; CARPINTERÍA DE MADERA: CARPINTERÍA METÁLICA. - MARÍTIMAS-DRAGADOS; ESCOLLERAS; CON BLOQUES DE HORMIGÓN ARMADO; CON PILOTES Y TABLESTACAS; FAROS; RADIOFAROS Y SEÑALIZACIONES MARÍTIMAS; OBRAS MARÍTIMAS, SIN CUALIFICACIÓN ESPECÍFICA. - VIAJES Y PISTAS.- AUTOPISTAS; PISTAS DE ATERRIZAJE; CON FIRMES DE HORMIGÓN HIDRÁULICO; CON FIRMES DE MEZCLAS BITUMINOSAS; SEÑALIZACIONES Y BALIZAMIENTOS VIALES; OBRAS VIALES SIN CUALIFICACIÓN ESPECÍFICA. - ESPECIALES.- CIMENTACIONES ESPECIALES; SONDEOS Y PROSPECCIONES; INYECCIONES Y PILOTAJES; TABLESTACADOS; PINTURAS Y METALIZACIONES; ORNAMENTACIONES Y DECORACIONES; MONUMENTOS ARTÍSTICOS Y EDIFICIOS SINGUALES. - EJECUCIÓN Y MANTENIMIENTO DE INSTALACIONES ELÉCTRICAS EN GENERAL, EN ALTA, BAJA Y MEDIA TENCIÓN, INSTALACIONES, INSTALACIONES DE TELECOMUNICACIÓN, INSTALACIONES ELECTRÓNICAS E INSTALACIONES DE SISTEMAS DE SEÑALIZACIÓN Y BALIZAMIENTO DE PUERTOS, AEROPUERTOS Y CARRETERAS, INSTALACIONES DE SEGURIDAD CONTRA INCENDIOS. - EJECUCIÓN Y MANTENIMIENTO DE INSTALACIONES MECÁNICAS EN GENERAL, INSTALACIONES HIDROELÉCTRICAS Y DE RIEGO EN TODOS SUS SISTEMAS, INSTALACIONES DE FONTANERÍA, INSTALACIONES FRIGORÍFICAS, INSTALACIONES DE CALEFACCIÓN, VENTILACIÓN Y CLIMATIZACIÓN, INSTALACIONES ELEVADORAS Y TRANSPORTADORAS, E INSTALACIONES DE TRATAMIENTO DE AGUAS DE TODO TIPO. - CONTRATAR OBRAS Y SERVICIOS CON CUALQUIER ORGANISMO DE LAS ADMINISTRACIONES PÚBLICAS Y CON TODA CLASE DE ENTIDADES Y PARTICULARES. - ACTIVIDADES DE EXPORTACIÓN, IMPORTACIÓN Y COMERCIALIZACIÓN DE TODO TIPO DE PRODUCTOS RELACIONADOS CON LAS ACTIVIDADES INDICADAS ANTERIORMENTE. - PLANTACIÓN Y MANTENIMIENTO DE PARQUES Y JARDINES. PLANTACIÓN Y MANTENIMIENTO FORESTALES, REPOBLACIÓN FORESTAL, LUCHA CONTRA PLAGAS Y LUCHA, DEFENSA Y PREVENCIÓN CONTRA INCENDIOS FORESTALES. - REDACCIÓN Y CONFECCIÓN DE PROYECTOS TÉCNICOS DE TODO TIPO DIRECCIÓN DE OBRA Y CONTROL DE CALIDAD, REALIZACIÓN DE ESTUDIOS E INFORMES Y ASESORAMIENTO TÉCNICO. - LA PRESTACIÓN DE SERVICIOS PÚBLICOS Y PRIVADOS DE RECOGIDA DE TODO TIPO DE RESIDUOS, BARRIDO Y LIMPIEZA DE CALLES, TRANSFERENCIA Y TRANSPORTE DE LOS RESIDUOS HASTA EL LUGAR DE DISPOSICIÓN FINAL, DISPOSICIÓN FINAL DE LOS MISMOS, RECICLAJE, TRATAMIENTO Y DEPÓSITO DE RESIDUOS PÚBLICOS, PRIVADOS, INDUSTRIALES, HOSPITALARIOS, PATOLÓGICOS. LIMPIEZA, MANTENIMIENTO Y CONSERVACIÓN DE ALCANTARILLADO Y EN GENERAL SERVICIOS DE SANEAMIENTO URBANO Y TODO OTRO SERVICIO COMPLEMENTARIO DE LOS MISMOS RELACIONADO DIRECTA O INDIRECTAMENTE CON AQUELLOS ENTENDIDO EN SU MÁS AMPLIA ACEPCIÓN. - EL DISEÑO, INVESTIGACIÓN, DESARROLLO, CONSTRUCCIÓN, EXPLOTACIÓN, MANTENIMIENTO Y COMERCIALIZACIÓN DE PLANTAS EN INSTALACIONES DE TRATAMIENTO, RECUPERACIÓN Y ELIMINACIÓN DE RESIDUOS ASÍ COMO LA COMPRAVENTA DE LOS SUBPRODUCTOS QUE SE ORIGINEN CON DICHOS TRATAMIENTOS. - EL DISEÑO, INVESTIGACIÓN, DESARROLLO, CONSTRUCCIÓN, EXPLOTACIÓN, MANTENIMIENTO Y COMERCIALIZACIÓN DE PLANTAS E INSTALACIONES DE TRATAMIENTO DE AGUAS Y DEPURACIÓN DE AGUAS RESIDUALES Y RESIDUOS, ASÍ COMO LA COMPRAVENTA DE LOS SUBPRODUCTOS QUE SE ORIGINEN DE DICHOS TRATAMIENTOS. - EL APROVECHAMIENTO, TRANSFORMACIÓN Y COMERCIALIZACIÓN DE TODA CLASE DE AGUAS",
      "mainEntityOfPage": "https://www.contratacion.euskadi.eus/webkpe00-kperoc/es/ac71aBusquedaRegistrosWar/empresa/03820",
      "_links": {
        "self": {
          "name": "EHISA CONSTRUCCIONES Y OBRAS, S.A.",
          "href": "https://api.euskadi.eus/procurements/companies/03820"
        }
      }
    },
    {
      "name": "RADIAPROT, S.L.",
      "registrationNumber": "06820",
      "identificationNumber": "B85824621",
      "address": "C/ Miguel Yuste 16 1ºD",
      "location": {
        "postalCode": "28037",
        "municipality": "Madrid",
        "county": "Madrid",
        "municipalityId": "079",
        "countyId": "28"
      },
      "economicActivities": [
        {
          "id": "1.619.2",
          "name": "Venta al por mayor de aparatos e instrumentos médicos, ortopédicos, ópticos",
          "_links": {
            "self": {
              "name": "Venta al por mayor de aparatos e instrumentos médicos, ortopédicos, ópticos",
              "href": "https://api.euskadi.eus/procurements/companies/economic-activities/1.619.2"
            }
          }
        }
      ],
      "certificateStartDate": "2020-02-10",
      "certificateEndDate": "2020-07-23",
      "object": "A) LA PRESTACIÓN DE SERVICIOS DE ASESORAMIENTO Y CONSULTORÍA SOBRE IMPORTACIÓN, EXPORTACIÓN Y COMERCIALIZACIÓN DE PRODUCTOS SANITARIOS, FARMACÉUTICOS, HOSPITALARIOS Y MÉDICOS. B)  LA PRESTACIÓN DE SERVICIOS DE INVESTIGACIÓN Y DESARROLLO SOBRE TÉCNICAS Y PRODUCTOS SANITARIOS Y SOBRE MAQUINARIA Y EQUIPOS HOSPITALARIOS. C) LA COMPRA, VENTA, IMPORTACIÓN, EXPORTACIÓN Y DISTRIBUCIÓN DE PRODUCTOS SANITARIOS, FARMACÉUTICOS, HOSPITALARIOS Y MÉDICOS, Y DE INSTALACIONES, EQUIPOS Y MAQUINARIA HOSPITALARIOS Y PARA CIRUGÍA, Y EN PARTICULAR, ARTÍCULOS PARA MEDICINA NUCLEAR, FUENTES RADIACTIVAS, RADIOLOGÍA Y DIAGNÓSTICO POR IMAGEN, Y DE SUS CONSUMIBLES, REPUESTOS, ACCESORIOS Y COMPONENTES. D) LA PRESTACIÓN DE SERVICIO TÉCNICO DE REPARACIÓN Y MANTENIMIENTO DE EQUIPOS Y MAQUINARIA HOSPITALARIOS Y PARA CIRUGÍA, Y DE ARTÍCULOS PARA MEDICINA NUCLEAR, FUENTES RADIOACTIVAS, RADIOLOGÍA Y DIAGNÓSTICO POR IMAGEN. E) LA COMERCIALIZACIÓN DE TODO TIPO DE INMUEBLES, LA PROMOCIÓN DE EDIFICACIONES, DIRECTAMENTE O COMO MEDIADORA EN COMUNIDADES DE PROPIETARIOS, COOPERATIVAS U OTRAS FORMAS; LA CONSTRUCCIÓN DE TODO TIPO DE INMUEBLES, DIRECTAMENTE O CONTRATANDO CON TERCEROS; LA REALIZACIÓN DE REFORMAS, REPARACIONES, REHABILITACIONES Y OBRAS EN GENERAL; LA URBANIZACIÓN DE TERRENOS; Y LA EXPLOTACIÓN DE FINCAS URBANAS POR CUALQUIER MEDIO, EN PARTICULAR MEDIANTE SU ARRENDAMIENTO",
      "mainEntityOfPage": "https://www.contratacion.euskadi.eus/webkpe00-kperoc/es/ac71aBusquedaRegistrosWar/empresa/06820",
      "_links": {
        "self": {
          "name": "RADIAPROT, S.L.",
          "href": "https://api.euskadi.eus/procurements/companies/06820"
        }
      }
    },
    {
      "name": "PUERTAS Y CIERRES, S.A.",
      "registrationNumber": "06825",
      "identificationNumber": "A48177059",
      "address": "POLIGONO UGALDEGUREN I-P-2",
      "location": {
        "postalCode": "48170",
        "municipality": "Zamudio",
        "county": "Bizkaia",
        "municipalityId": "905",
        "countyId": "48"
      },
      "economicActivities": [
        {
          "id": "1.314.1",
          "name": "Carpintería metálica",
          "_links": {
            "self": {
              "name": "Carpintería metálica",
              "href": "https://api.euskadi.eus/procurements/companies/economic-activities/1.314.1"
            }
          }
        }
      ],
      "certificateStartDate": "2020-02-10",
      "certificateEndDate": "2020-07-14",
      "object": "LA FABRICACIÓN, MECANIZACIÓN, COMPRA, VENTA, IMPORTACIÓN, EXPORTACIÓN, PARA SU POSTERIOR COMERCIALIZACIÓN, TANTO AL POR MAYOR, COMO AL POR MENOR, DE TODA CLASE DE PIEZAS METÁLICAS Y MÁS CONCRETAMENTE DE PUERTAS Y CARPINTERÍA METÁLICA DE CUALQUIER TIPO, ASÍ COMO CALDERERÍA EN GENERAL",
      "mainEntityOfPage": "https://www.contratacion.euskadi.eus/webkpe00-kperoc/es/ac71aBusquedaRegistrosWar/empresa/06825",
      "_links": {
        "self": {
          "name": "PUERTAS Y CIERRES, S.A.",
          "href": "https://api.euskadi.eus/procurements/companies/06825"
        }
      }
    },
    {
      "name": "PATRICIA BIAIN UGARTE",
      "registrationNumber": "06436",
      "identificationNumber": "72455667D",
      "address": "PS DONANTES DE SANGRE Nº9 - 7D",
      "location": {
        "postalCode": "31015",
        "municipality": "Pamplona/Iruña",
        "county": "Navarra",
        "municipalityId": "201",
        "countyId": "31"
      },
      "economicActivities": [
        {
          "id": "2.411",
          "name": "Arquitectos",
          "_links": {
            "self": {
              "name": "Arquitectos",
              "href": "https://api.euskadi.eus/procurements/companies/economic-activities/2.411"
            }
          }
        }
      ],
      "certificateStartDate": "2020-02-05",
      "certificateEndDate": "2020-08-04",
      "object": "ARQUITECTURA",
      "mainEntityOfPage": "https://www.contratacion.euskadi.eus/webkpe00-kperoc/es/ac71aBusquedaRegistrosWar/empresa/06436",
      "_links": {
        "self": {
          "name": "PATRICIA BIAIN UGARTE",
          "href": "https://api.euskadi.eus/procurements/companies/06436"
        }
      }
    },
    {
      "name": "JAVIER MANRIQUE ESCOLA",
      "registrationNumber": "06438",
      "identificationNumber": "33443514L",
      "address": "PS DONANTES DE SANGRE Nº9 -7D",
      "location": {
        "postalCode": "31015",
        "municipality": "Pamplona/Iruña",
        "county": "Navarra",
        "municipalityId": "201",
        "countyId": "31"
      },
      "economicActivities": [
        {
          "id": "2.411",
          "name": "Arquitectos",
          "_links": {
            "self": {
              "name": "Arquitectos",
              "href": "https://api.euskadi.eus/procurements/companies/economic-activities/2.411"
            }
          }
        }
      ],
      "certificateStartDate": "2020-02-05",
      "certificateEndDate": "2020-08-04",
      "object": "ARQUITECTO",
      "mainEntityOfPage": "https://www.contratacion.euskadi.eus/webkpe00-kperoc/es/ac71aBusquedaRegistrosWar/empresa/06438",
      "_links": {
        "self": {
          "name": "JAVIER MANRIQUE ESCOLA",
          "href": "https://api.euskadi.eus/procurements/companies/06438"
        }
      }
    },
    {
      "name": "SECURE AND IT PROYECTOS, S.L.",
      "registrationNumber": "06813",
      "identificationNumber": "B85921625",
      "address": "C/ PERÚ, 6, EDIFICIO A, BAJO 3",
      "location": {
        "postalCode": "28290",
        "municipality": "Rozas de Madrid, Las",
        "county": "Madrid",
        "municipalityId": "127",
        "countyId": "28"
      },
      "economicActivities": [
        {
          "id": "1.841",
          "name": "Servicios jurídicos",
          "_links": {
            "self": {
              "name": "Servicios jurídicos",
              "href": "https://api.euskadi.eus/procurements/companies/economic-activities/1.841"
            }
          }
        },
        {
          "id": "1.843.1",
          "name": "Servicios técnicos de ingeniería",
          "_links": {
            "self": {
              "name": "Servicios técnicos de ingeniería",
              "href": "https://api.euskadi.eus/procurements/companies/economic-activities/1.843.1"
            }
          }
        }
      ],
      "certificateStartDate": "2020-02-05",
      "certificateEndDate": "2020-07-24",
      "object": "1.- EL SUMINISTRO Y PRESTACIÓN DE SERVICIOS DE ASESORÍA, CONSULTORÍA, FORMACIÓN, DESARROLLO, COMERCIALIZACIÓN, CONSTRUCCIÓN, MONTAJE, INSTALACIÓN Y MANTENIMIENTO DE TODO TIPO DE ELEMENTOS DEDICADOS A LA PRODUCTIVIDAD, GESTIÓN DE LA INFORMACIÓN, SEGURIDAD Y OPERATIVIDAD DE NUESTROS CLIENTES, INCLUYENDO LA ASESORÍA Y PRESTACIÓN DE SERVICIOS JURÍDICOS ASOCIADOS, LA IMPLANTACIÓN DE PRODUCTOS Y SISTEMAS DE TECNOLOGÍAS DE LA INFORMACIÓN Y COMUNICACIONES, ESPECIALMENTE EN SOLUCIONES DE SEGURIDAD INFORMÁTICA Y CONTINUIDAD DE NEGOCIO DE LOS CLIENTES Y EL CONSIGUIENTE SUMINISTRO DE EQUIPOS ELÉCTRICOS, ELECTRÓNICOS E INFORMÁTICOS -HARDWARE Y SOFTWARE-, ASÍ COMO LA EJECUCIÓN DE LAS INSTALACIONES NECESARIAS PARA SU IMPLANTACIÓN, CONEXIÓN, PUESTA EN FUNCIONAMIENTO, EXPLOTACIÓN Y MANTENIMIENTO DE LOS MISMOS. 2.- LA ADQUISICIÓN, TENENCIA, ADMINISTRACIÓN, EXPLOTACIÓN, ENAJENACIÓN Y ARRENDAMIENTO -SALVO ARRENDAMIENTO FINANCIERO- DE FINCAS RÚSTICAS Y URBANAS. 3.- LA ADQUISICIÓN, TENENCIA, ADMINISTRACIÓN, DISFRUTE Y ENAJENACIÓN DE VALORES MOBILIARIOS, CRÉDITOS Y DERECHOS, ACCIONES, Y PARTICIPACIONES SOCIALES, BONOS Y OBLIGACIONES, SEAN DEL ESTADO, CORPORACIONES LOCALES, ORGANISMOS AUTONÓMICOS O EMPRESAS PRIVADAS, ESTÉN O NO COTIZADAS EN BOLSA, POR CUENTA PROPIA. 4.- DIRIGIR Y GESTIONAR LAS ACCIONES Y PARTICIPACIONES EN SOCIEDADES MERCANTILES, MEDIANTE LA CORRESPONDIENTE ORGANIZACIÓN DE MEDIOS MATERIALES Y PERSONALES",
      "mainEntityOfPage": "https://www.contratacion.euskadi.eus/webkpe00-kperoc/es/ac71aBusquedaRegistrosWar/empresa/06813",
      "_links": {
        "self": {
          "name": "SECURE AND IT PROYECTOS, S.L.",
          "href": "https://api.euskadi.eus/procurements/companies/06813"
        }
      }
    }
  ]
}