{
  "totalItems": 9042,
  "totalPages": 905,
  "currentPage": 258,
  "itemsOfPage": 10,
  "items": [
    {
      "name": "FUNDACIÓN GAIKER",
      "registrationNumber": "02266",
      "identificationNumber": "G48870380",
      "address": "PARQUE TECNOLÓGICO, EDIFICIO: 202.",
      "location": {
        "postalCode": "48170",
        "municipality": "Zamudio",
        "county": "Bizkaia",
        "municipalityId": "905",
        "countyId": "48"
      },
      "economicActivities": [
        {
          "id": "1.151.4",
          "name": "Producción de energía no especificada en otros epígrafes",
          "_links": {
            "self": {
              "name": "Producción de energía no especificada en otros epígrafes",
              "href": "https://api.euskadi.eus/procurements/companies/economic-activities/1.151.4"
            }
          }
        },
        {
          "id": "1.936",
          "name": "Investigación científica y técnica",
          "_links": {
            "self": {
              "name": "Investigación científica y técnica",
              "href": "https://api.euskadi.eus/procurements/companies/economic-activities/1.936"
            }
          }
        }
      ],
      "certificateStartDate": "2025-09-24",
      "certificateEndDate": "2026-03-15",
      "object": "LA PROMOCIÓN Y EL DESARROLLO DE CUANTAS ACTIVIDADES DE INVESTIGACIÓN CIENTÍFICA, TECNOLÓGICA Y DE IMPULSO DE LA INNOVACIÓ TECNOLÓGICA, Y ASIMISMO DE LAS RELACIONADAS CON EL DESARROLLO ECONÓMICO QUE SEAN DE INTERÉS PARA LA INDUSTRIA EN GENERAL.\r\n\r\nPARA LA CONSECUCIÓN PODRÁ LLEVAR A CABO LAS SIGUIENTES:\r\n\r\nA) CAPTACIÓN, DISEÑO, GESTIÓN, DESARROLLO Y EJECUCIÓN DE PROYECTOS Y PROGRAMAS DE INVESTIGACIÓN Y DESARROLLO TECNOLÓGICO, FUNDAMENTALMENTE EN LAS ÁREAS RELACIONADAS CON LAS TECNOLOGÍAS DE LOS MATERIALES Y SUS PROCESOS, LAS TECNOLOGÍAS MEDIOAMBIENTALES Y DEL RECICLADO Y LAS TECNOLOGÍA BIOLÓGICAS O BIOTECNOLOGÍA. ASÍ  COMO AQUÉLLAS QUE EN VIRTUD DEL DESARROLLO DE LA TECNOLOGÍA EN EL PAÍS PUDIERAN INCORPORARSE  A LA FUNDACIÓN.\r\n\r\nB) APOYAR, IMPULSAR Y FACILITAR A LAS EMPRESAS EL USO DE LA TECNOLOGÍA COMO HERRAMIENTA DE MEJORA DE SU COMPETITIVIDAD.\r\n\r\nC) DIFUSIÓN DE LA INNOVACIÓN Y TRANSFERENCIA DE TECNOLOGÍA.\r\n\r\nD) CREACIÓN, DESARROLLO Y GESTIÓN DE CUANTOS INSTITUTOS Y UNIDADES DE GESTIÓN PARA FINES DETERMINADOS SEAN CONVENIENTES, COMO LABORATORIOS DE ANÁLISIS, CALIBRACIÓN Y ENSAYO, CERTIFICACIÓN Y HOMOLOGACIÓN, SEGURIDAD INDUSTRIAL, INNOVACIÓN Y PROSPECTIVA, CON PERSONALIDADES JURÍDICAS DIFERENTES O NO DE LA PROPIA FUNSACIÓN, ASÍ COMO LA GENERACIÓN DE NUEVAS EMPRESAS.\r\n\r\nE)APOYAR, FOMENTAR Y REALIZAR ACTIVIDADES DE FORMACIÓN E INFORMACIÓN, SERVICIOS DE DOCUMENTACIÓN, DISEÑO  Y ANTENA TECNOLÓGICA.\r\n\r\nF)Y, EN GENERAL, LA REALIZACIÓN DE TODAS CUANTAS ACTIVIDADES LE SEAN ENCOMENDADAS POR SUS ÓRGANOS DE DIRECCIÓN DENTRO DEL OBJETO Y FINALIDAD GENERAL DE LA FUNDACIÓN\r\n\r\n   ",
      "mainEntityOfPage": "https://www.contratacion.euskadi.eus/webkpe00-kperoc/es/ac71aBusquedaRegistrosWar/empresa/02266",
      "_links": {
        "self": {
          "name": "FUNDACIÓN GAIKER",
          "href": "https://api.euskadi.eus/procurements/companies/02266"
        }
      }
    },
    {
      "name": "ROCHE FARMA, S.A. UNIPERSONAL",
      "registrationNumber": "01021",
      "identificationNumber": "A08023145",
      "address": "C/RIBERA DEL LOIRA, 50",
      "location": {
        "postalCode": "28042",
        "municipality": "Madrid",
        "county": "Madrid",
        "municipalityId": "079",
        "countyId": "28"
      },
      "economicActivities": [
        {
          "id": "1.614.1",
          "name": "Venta al por mayor de productos farmacéuticos y medicamentos",
          "_links": {
            "self": {
              "name": "Venta al por mayor de productos farmacéuticos y medicamentos",
              "href": "https://api.euskadi.eus/procurements/companies/economic-activities/1.614.1"
            }
          }
        }
      ],
      "certificateStartDate": "2025-09-24",
      "certificateEndDate": "2026-03-15",
      "object": "LA FABRICACIÓN Y VENTA DE ESPECIALIDADES FARMACÉUTICAS, PRINCIPIOS ACTIVOS FARMACÉUTICOS, PRODUCTOS VETERINARIOS O ZOOSANITARIOS, PRODUCTOS FITOSANITARIOS, VITAMINAS Y PRODUCTOS QUÍMICOS PARA LA ALIMENTACIÓN HUMANA Y ANIMAL, COSMÉTICOS, REACTIVOS, APARATOS Y MATERIAL PARA ANÁLISIS CLÍNICOS, PROGRAMAS Y MATERIAL INFORMÁTICO DE APLICACIÓN EN DIAGNÓSTICA Y GESTIÓN DE LABORATORIOS, ASÍ COMO LA FABRICACIÓN Y VENTA, EN ESPAÑA, DE LOS PRODUCTOS Y SERVICIOS DE OTRAS COMPAÑÍAS DEL GRUPO ROCHE",
      "mainEntityOfPage": "https://www.contratacion.euskadi.eus/webkpe00-kperoc/es/ac71aBusquedaRegistrosWar/empresa/01021",
      "_links": {
        "self": {
          "name": "ROCHE FARMA, S.A. UNIPERSONAL",
          "href": "https://api.euskadi.eus/procurements/companies/01021"
        }
      }
    },
    {
      "name": "PROSIN, S.L.",
      "registrationNumber": "04527",
      "identificationNumber": "B31125883",
      "address": "AVDA. DEL EJERCITO, 32-BAJO",
      "location": {
        "postalCode": "31002",
        "municipality": "Pamplona/Iruña",
        "county": "Navarra",
        "municipalityId": "201",
        "countyId": "31"
      },
      "economicActivities": [
        {
          "id": "1.659.2",
          "name": "Venta al por menor de muebles de oficina y máquinas y equipos de oficina",
          "_links": {
            "self": {
              "name": "Venta al por menor de muebles de oficina y máquinas y equipos de oficina",
              "href": "https://api.euskadi.eus/procurements/companies/economic-activities/1.659.2"
            }
          }
        }
      ],
      "certificateStartDate": "2025-09-23",
      "certificateEndDate": "2026-03-23",
      "object": "LA PRESTACIÓN Y EXPLOTACIÓN DE SERVICIOS DE INFORMÁTICA Y DE ASESORÍA SOBRE CONTABILIDAD, INFORMÁTICA Y FISCALIDAD PARA TODO TIPO DE EMPRESAS. LA DISTRIBUCIÓN Y REPRESENTACIÓN DE PRODUCTOS RELACIONADOS CON LA INFORMÁTICA, SU COMPRA-VENTA, IMPORTACIÓN Y EXPORTACIÓN. EL ANÁLISIS, PROGRAMACIÓN, CONTROL Y ESTUDIO DE DATOS INFORMÁTICOS",
      "mainEntityOfPage": "https://www.contratacion.euskadi.eus/webkpe00-kperoc/es/ac71aBusquedaRegistrosWar/empresa/04527",
      "_links": {
        "self": {
          "name": "PROSIN, S.L.",
          "href": "https://api.euskadi.eus/procurements/companies/04527"
        }
      }
    },
    {
      "name": "ESTUDIOS TIO PETE, S.L.",
      "registrationNumber": "08895",
      "identificationNumber": "B48986590",
      "address": "Igeltzera, 42 Nave 1",
      "location": {
        "postalCode": "48610",
        "municipality": "Urduliz",
        "county": "Bizkaia",
        "municipalityId": "089",
        "countyId": "48"
      },
      "economicActivities": [
        {
          "id": "1.355.2",
          "name": "Edición de soportes grabados de sonido, vídeo y de informática",
          "_links": {
            "self": {
              "name": "Edición de soportes grabados de sonido, vídeo y de informática",
              "href": "https://api.euskadi.eus/procurements/companies/economic-activities/1.355.2"
            }
          }
        }
      ],
      "certificateStartDate": "2025-09-23",
      "certificateEndDate": "2026-03-23",
      "object": "A) . - GRABACIÓN Y ESTUDIO DE SONIDO EN CUALQUIERA DE SUS FORMAS, POR CUENTA PROPIA O AJENA. B) . - COMERCIALIZACIÓN DE SELLOS DISCOGRÁFICOS. C) . - PROMOCIÓN Y REPRESENTACIÓN DE PERSONAS RELACIONADAS CON EL ARTE Y EL MUNDO DEL ESPECTÁCULO; REPRESENTACIÓN DE CASAS Y PRODUCCIONES DISCOGRÁFICAS. D) . - TODAS AQUELLAS ACTIVIDADES DESTINADAS AL ASESORAMIENTO, CONSULTA, ORIENTACIÓN Y PRESTACIÓN DE SERVICIOS DE CUALQUIER CLASE A OTRA EMPRESA, TANTO NACIONALES COMO EXTRANJERAS. E) . - LA PROMOCIÓN DE TODA CLASE DE PROYECTOS O EMPRESAS COMERCIALES O INDUSTRIALES EN GENERAL. F) . - LA PRODUCCIÓN, EDICIÓN, PUBLICACIÓN Y COMERCIALIZACIÓN DE LIBROS, DISCOS, CINTAS, CASSETTES AUDIOVISUALES, EN EL BIEN ENTENDIDO DE QUE ESTA ACTIVIDAD NO PODRÁ SER INICIADA HASTA TANTO EN CUANTO SE OBTENGA LA PRECEPTIVA AUTORIZACIÓN ADMINISTRATIVA POR PARTE DEL MINISTERIO DE CULTURA O DE CUALQUIER OTRO ORGANISMO QUE RESULTARE COMPETENTE. G) . - LA EXPLOTACIÓN DE HOTELES, RESTAURANTES, BARES, CAFETERÍAS, DISCOTECAS Y DE OTROS ESTABLECIMIENTOS ANÁLOGOS. H) . - ADQUISICIÓN, ENAJENACIÓN O CESIÓN DE BIENES DE EQUIPO, MAQUINARIA Y UTILLAJE, ASÍ COMO SU VENTA, IMPORTACIÓN O EXPORTACIÓN, POR CUALQUIERA DE LAS FORMAS ADMITIDAS EN DERECHO, ASÍ COMO TODA CLASE DE INVENTOS, LICENCIAS, PATENTES, DERECHOS DE PROPIEDAD INDUSTRIAL O INTELECTUAL, TANTO NACIONALES COMO EXTRANJEROS, ASÍ COMO LA CESIÓN DE TODA CLASE DE DERECHOS DE ARTISTAS, DEPORTISTAS Y DEMÁS, Y CUALQUIER OTRO QUE LLEVE INHERENTE A LA PROFESIÓN DE DICHAS PERSONAS",
      "mainEntityOfPage": "https://www.contratacion.euskadi.eus/webkpe00-kperoc/es/ac71aBusquedaRegistrosWar/empresa/08895",
      "_links": {
        "self": {
          "name": "ESTUDIOS TIO PETE, S.L.",
          "href": "https://api.euskadi.eus/procurements/companies/08895"
        }
      }
    },
    {
      "name": "GABIRONDO ITURGINTZA SL",
      "registrationNumber": "09052",
      "identificationNumber": "B75220723",
      "address": "Barrio Goiburu casa Gaztelutxo",
      "location": {
        "postalCode": "20130",
        "municipality": "Urnieta",
        "county": "Gipuzkoa",
        "municipalityId": "072",
        "countyId": "20"
      },
      "economicActivities": [
        {
          "id": "1.504.2",
          "name": "Instalaciones de fontanería",
          "_links": {
            "self": {
              "name": "Instalaciones de fontanería",
              "href": "https://api.euskadi.eus/procurements/companies/economic-activities/1.504.2"
            }
          }
        }
      ],
      "certificateStartDate": "2025-09-23",
      "certificateEndDate": "2026-03-23",
      "object": "ACTIVIDAD PRINCIPAL: 4322.- FONTANERÍA, INSTALACIONES DE SISTEMAS DE CALEFACCIÓN Y AIRE ACONDICIONADO. OTRAS ACTIVIDADES: 4121.- CONSTRUCCIÓN DE EDIFICIOS RESIDENCIALES. 4122.- CONSTRUCCIÓN DE EDIFICIOS NO RESIDENCIALES. 4334.- PINTURA Y ACRISTALAMIENTO. 4211.- CONSTRUCCIÓN DE CARRETERAS Y AUTOPISTAS. 4673.- COMERCIO AL POR MAYOR DE MADERA, MATERIALES DE CONSTRUCCIÓN Y APARATOS SANITARIOS.\n\n\t\t\t\t\t\t\t\n\t\t\t\t\t\t\t\t\t\t\t",
      "mainEntityOfPage": "https://www.contratacion.euskadi.eus/webkpe00-kperoc/es/ac71aBusquedaRegistrosWar/empresa/09052",
      "_links": {
        "self": {
          "name": "GABIRONDO ITURGINTZA SL",
          "href": "https://api.euskadi.eus/procurements/companies/09052"
        }
      }
    },
    {
      "name": "DIAZ Y DIPRE ARQUITECTOS, S.L.",
      "registrationNumber": "10124",
      "identificationNumber": "B75837070",
      "address": "Alameda Mazarredo",
      "location": {
        "postalCode": "48009",
        "municipality": "Bilbao",
        "county": "Bizkaia",
        "municipalityId": "020",
        "countyId": "48"
      },
      "economicActivities": [
        {
          "id": "1.843.2",
          "name": "Servicios técnicos de arquitectura y urbanismo",
          "_links": {
            "self": {
              "name": "Servicios técnicos de arquitectura y urbanismo",
              "href": "https://api.euskadi.eus/procurements/companies/economic-activities/1.843.2"
            }
          }
        }
      ],
      "certificateStartDate": "2025-09-23",
      "certificateEndDate": "2026-03-23",
      "object": "ACTIVIDAD PRINCIPAL: CNAE: 4342.- OTRAS ACTIVIDADES DE CONSTRUCCIÓN ESPECIALIZADA EN LA CONSTRUCCIÓN DE EDIFICIOS. OTRAS ACTIVIDADES: CNAE 6811.- COMPRAVENTA DE BIENES INMOBILIARIOS POR CUENTA PROPIA CNAE 6820.- ALQUILER DE BIENES INMOBILIARIOS POR CUENTA PROPIA CNAE 7111.- SERVICIOS TÉCNICOS DE ARQUITECTURA.",
      "mainEntityOfPage": "https://www.contratacion.euskadi.eus/webkpe00-kperoc/es/ac71aBusquedaRegistrosWar/empresa/10124",
      "_links": {
        "self": {
          "name": "DIAZ Y DIPRE ARQUITECTOS, S.L.",
          "href": "https://api.euskadi.eus/procurements/companies/10124"
        }
      }
    },
    {
      "name": "IKUSMIRA ONDAREA, S.L.",
      "registrationNumber": "09648",
      "identificationNumber": "B70771464",
      "address": "Santimamiñe Cueva Kalea, 1 - 3",
      "location": {
        "postalCode": "48005",
        "municipality": "Bilbao",
        "county": "Bizkaia",
        "municipalityId": "020",
        "countyId": "48"
      },
      "economicActivities": [
        {
          "id": "1.933.9",
          "name": "Otras actividades de enseñanza tales como idiomas, mecanografía",
          "_links": {
            "self": {
              "name": "Otras actividades de enseñanza tales como idiomas, mecanografía",
              "href": "https://api.euskadi.eus/procurements/companies/economic-activities/1.933.9"
            }
          }
        },
        {
          "id": "1.966.1",
          "name": "Bibliotecas y museos",
          "_links": {
            "self": {
              "name": "Bibliotecas y museos",
              "href": "https://api.euskadi.eus/procurements/companies/economic-activities/1.966.1"
            }
          }
        },
        {
          "id": "1.966.9",
          "name": "Otros servicios culturales n.c.o.p",
          "_links": {
            "self": {
              "name": "Otros servicios culturales n.c.o.p",
              "href": "https://api.euskadi.eus/procurements/companies/economic-activities/1.966.9"
            }
          }
        }
      ],
      "certificateStartDate": "2025-09-23",
      "certificateEndDate": "2026-03-23",
      "object": "EL DESARROLLO DE LAS ACTIVIDADES CORRESPONDIENTES A LOS SIGUIENTES CÓDIGOS Y DESCRIPCIONES DE CLASIFICACIÓN NACIONAL DE ACTIVIDADES ECONÓMICAS: ACTIVIDAD PRINCIPAL: 74.90 / OTRAS ACTIVIDADES PROFESIONALES, CIENTÍFICAS Y TÉCNICAS. OTRAS ACTIVIDADES: 91.02 / ACTIVIDADES DE MUSEOS, 85.59 / OTRA EDUCACIÓN.",
      "mainEntityOfPage": "https://www.contratacion.euskadi.eus/webkpe00-kperoc/es/ac71aBusquedaRegistrosWar/empresa/09648",
      "_links": {
        "self": {
          "name": "IKUSMIRA ONDAREA, S.L.",
          "href": "https://api.euskadi.eus/procurements/companies/09648"
        }
      }
    },
    {
      "name": "ZUHAIZKI, S.L.",
      "registrationNumber": "05646",
      "identificationNumber": "B75139188",
      "address": "TXARAMA AUZOA, CUATRO VIENTOS INDUSTRIAL Nº 1",
      "location": {
        "postalCode": "20491",
        "municipality": "Leaburu",
        "county": "Gipuzkoa",
        "municipalityId": "050",
        "countyId": "20"
      },
      "economicActivities": [
        {
          "id": "1.463",
          "name": "Fabricación en serie de piezas de carpintería y parquet",
          "_links": {
            "self": {
              "name": "Fabricación en serie de piezas de carpintería y parquet",
              "href": "https://api.euskadi.eus/procurements/companies/economic-activities/1.463"
            }
          }
        }
      ],
      "certificateStartDate": "2025-09-23",
      "certificateEndDate": "2026-03-23",
      "classification": [
        {
          "id": "S",
          "name": "Servicios",
          "groups": [
            {
              "id": "O",
              "subgroups": [
                {
                  "id": "01",
                  "name": "Conservación y mantenimiento de edificios",
                  "categories": [
                    {
                      "id": "3",
                      "name": "Desde 300.001 Hasta 600.000",
                      "_links": {
                        "self": {
                          "name": "Desde 300.001 Hasta 600.000",
                          "href": "https://api.euskadi.eus/procurements/companies/types/S/categories/3"
                        }
                      }
                    }
                  ],
                  "_links": {
                    "self": {
                      "name": "Conservación y mantenimiento de edificios",
                      "href": "https://api.euskadi.eus/procurements/companies/types/S/groups/O/subgroups/01"
                    }
                  }
                }
              ],
              "_links": {
                "self": {
                  "href": "https://api.euskadi.eus/procurements/companies/types/S/groups/O"
                }
              }
            }
          ],
          "_links": {
            "self": {
              "name": "Servicios",
              "href": "https://api.euskadi.eus/procurements/companies/types/S"
            }
          }
        }
      ],
      "object": "LA INDUSTRIA DE TRANSFORMACIÓN DE LA MADERA, EN SU VERSIÓN A LA CONSTRUCCIÓN, FABRICACIÓN DE MUEBLES, DECORADOS, INSTALACIONES Y TODA CLASE DE CARPINTERÍA EN GENERAL",
      "mainEntityOfPage": "https://www.contratacion.euskadi.eus/webkpe00-kperoc/es/ac71aBusquedaRegistrosWar/empresa/05646",
      "_links": {
        "self": {
          "name": "ZUHAIZKI, S.L.",
          "href": "https://api.euskadi.eus/procurements/companies/05646"
        }
      }
    },
    {
      "name": "OSASUN MEDICAL DEVICES, S.L.",
      "registrationNumber": "10121",
      "identificationNumber": "B55464127",
      "address": "Calle Mikel Zarate (48015), 6 bajo",
      "location": {
        "postalCode": "48015",
        "municipality": "Bilbao",
        "county": "Bizkaia",
        "municipalityId": "020",
        "countyId": "48"
      },
      "economicActivities": [
        {
          "id": "1.619.2",
          "name": "Venta al por mayor de aparatos e instrumentos médicos, ortopédicos, ópticos",
          "_links": {
            "self": {
              "name": "Venta al por mayor de aparatos e instrumentos médicos, ortopédicos, ópticos",
              "href": "https://api.euskadi.eus/procurements/companies/economic-activities/1.619.2"
            }
          }
        }
      ],
      "certificateStartDate": "2025-09-23",
      "certificateEndDate": "2026-03-23",
      "object": "A) LA COMPRA, VENTA, COMERCIALIZACIÓN Y DISTRIBUCIÓN, DE EQUIPOS MÉDICOS Y AFINES, MATERIAL Y EQUIPO MÉDICO QUIRÚRGICO, HOSPITALARIO, ODONTOLÓGICO Y DE LABORATORIO CLÍNICO, FISIOTERAPIA, ORTOPEDIA Y REHABILITACIÓN, TANTO AL POR MAYOR COMO AL POR MENOR. B) LA REPRESENTACIÓN DE EMPRESAS DEDICADAS A SERVICIOS DE SUMINISTROS DE SALUD. C) LA REALIZACIÓN DE TODO TIPO DE SERVICIOS Y SOLUCIONES PROFESIONALES RELACIONADOS CON EL ENTORNO MÉDICO. SUMINISTRO INSTALACIÓN Y POSTERIOR MANTENIMIENTO.",
      "mainEntityOfPage": "https://www.contratacion.euskadi.eus/webkpe00-kperoc/es/ac71aBusquedaRegistrosWar/empresa/10121",
      "_links": {
        "self": {
          "name": "OSASUN MEDICAL DEVICES, S.L.",
          "href": "https://api.euskadi.eus/procurements/companies/10121"
        }
      }
    },
    {
      "name": "SISCA SEÑALIZACIONES, SL.",
      "registrationNumber": "06115",
      "identificationNumber": "B01057629",
      "address": "C/ PORTAL DE GAMARRA Nº 27 PAB. 10",
      "location": {
        "postalCode": "01013",
        "municipality": "Vitoria-Gasteiz",
        "county": "Araba/Álava",
        "municipalityId": "059",
        "countyId": "01"
      },
      "economicActivities": [
        {
          "id": "1.501.2",
          "name": "Construcción completa, reparación y conservación obras civiles",
          "_links": {
            "self": {
              "name": "Construcción completa, reparación y conservación obras civiles",
              "href": "https://api.euskadi.eus/procurements/companies/economic-activities/1.501.2"
            }
          }
        },
        {
          "id": "1.505.6",
          "name": "Pintura, revestimientos y terminación y decoración de locales",
          "_links": {
            "self": {
              "name": "Pintura, revestimientos y terminación y decoración de locales",
              "href": "https://api.euskadi.eus/procurements/companies/economic-activities/1.505.6"
            }
          }
        }
      ],
      "certificateStartDate": "2025-09-23",
      "certificateEndDate": "2026-03-23",
      "object": "LA COMERCIALIZACIÓN, INSTALACIÓN, REPARACIÓN, CONSERVACIÓN, MANTENIMIENTO Y MONTAJE DE TODO TIPO DE BALIZAMIENTOS DE SEGURIDAD, BARRERAS DE SEGURIDAD, SEÑALIZACIÓN VERTICAL, MOBILIARIO URBANO, PARQUES INFANTILES, BARANDILLAS, CERRAMIENTOS DE ESTRUCTURAS DE SEÑALIZACIÓN VERTICAL, SEÑALIZACIÓN HORIZONTAL, PINTURA EXTERIOR O INTEROR Y OTROS ELEMENTOS RELACIONADOS CON LAS MISMAS Y OBRAS MENORES DE CUALQUIER TIPO PARA VÍAS, CALZADAS, CAMINOS, CARRETERAS, AUTOPISTAS, PUERTOS, AEROPUERTOS, PUENTES, OBRAS PÚBLICAS O PRIVADAS Y OTRO DE LIÍITO COMERCIO QUE LA COMPAÑIA ACUERDE ESTABLECER PREVIO CUMPLIMIENTO DE LOS REQUISITOS LEGALES",
      "mainEntityOfPage": "https://www.contratacion.euskadi.eus/webkpe00-kperoc/es/ac71aBusquedaRegistrosWar/empresa/06115",
      "_links": {
        "self": {
          "name": "SISCA SEÑALIZACIONES, SL.",
          "href": "https://api.euskadi.eus/procurements/companies/06115"
        }
      }
    }
  ]
}