{
  "totalItems": 9042,
  "totalPages": 905,
  "currentPage": 378,
  "itemsOfPage": 10,
  "items": [
    {
      "name": "BITACORA GRAFICA SOCIEDAD LIMITADA",
      "registrationNumber": "08175",
      "identificationNumber": "B95339867",
      "address": "Estanislao Labayru 3",
      "location": {
        "postalCode": "48200",
        "municipality": "Durango",
        "county": "Bizkaia",
        "municipalityId": "027",
        "countyId": "48"
      },
      "economicActivities": [
        {
          "id": "1.474",
          "name": "Artes gráficas (impresión gráfica)",
          "_links": {
            "self": {
              "name": "Artes gráficas (impresión gráfica)",
              "href": "https://api.euskadi.eus/procurements/companies/economic-activities/1.474"
            }
          }
        }
      ],
      "certificateStartDate": "2024-12-02",
      "certificateEndDate": "2025-05-18",
      "object": "ARTES GRÁFICAS, IMPRESIÓN, TEXTO E IMAGEN.",
      "mainEntityOfPage": "https://www.contratacion.euskadi.eus/webkpe00-kperoc/es/ac71aBusquedaRegistrosWar/empresa/08175",
      "_links": {
        "self": {
          "name": "BITACORA GRAFICA SOCIEDAD LIMITADA",
          "href": "https://api.euskadi.eus/procurements/companies/08175"
        }
      }
    },
    {
      "name": "RICARDO ITURRIAGA LEGARRETA",
      "registrationNumber": "09333",
      "identificationNumber": "16054244Z",
      "address": "Calle Akilino Arriola (48600) 13-1 C",
      "location": {
        "postalCode": "48600",
        "municipality": "Sopela",
        "county": "Bizkaia",
        "municipalityId": "085",
        "countyId": "48"
      },
      "economicActivities": [
        {
          "id": "1.501.2",
          "name": "Construcción completa, reparación y conservación obras civiles",
          "_links": {
            "self": {
              "name": "Construcción completa, reparación y conservación obras civiles",
              "href": "https://api.euskadi.eus/procurements/companies/economic-activities/1.501.2"
            }
          }
        },
        {
          "id": "1.501.3",
          "name": "Albañilería y pequeños trabajos de construcción en general",
          "_links": {
            "self": {
              "name": "Albañilería y pequeños trabajos de construcción en general",
              "href": "https://api.euskadi.eus/procurements/companies/economic-activities/1.501.3"
            }
          }
        },
        {
          "id": "1.502.1",
          "name": "Demoliciones y derribos en general",
          "_links": {
            "self": {
              "name": "Demoliciones y derribos en general",
              "href": "https://api.euskadi.eus/procurements/companies/economic-activities/1.502.1"
            }
          }
        },
        {
          "id": "1.502.3",
          "name": "Consolidación y preparación de terrenos para la realización de obras civiles",
          "_links": {
            "self": {
              "name": "Consolidación y preparación de terrenos para la realización de obras civiles",
              "href": "https://api.euskadi.eus/procurements/companies/economic-activities/1.502.3"
            }
          }
        },
        {
          "id": "1.502.5",
          "name": "Cimentaciones y pavimentaciones en obras civiles",
          "_links": {
            "self": {
              "name": "Cimentaciones y pavimentaciones en obras civiles",
              "href": "https://api.euskadi.eus/procurements/companies/economic-activities/1.502.5"
            }
          }
        },
        {
          "id": "1.504.2",
          "name": "Instalaciones de fontanería",
          "_links": {
            "self": {
              "name": "Instalaciones de fontanería",
              "href": "https://api.euskadi.eus/procurements/companies/economic-activities/1.504.2"
            }
          }
        },
        {
          "id": "1.505.2",
          "name": "Solados y pavimentos de todas clases en cualquier tipo de obra",
          "_links": {
            "self": {
              "name": "Solados y pavimentos de todas clases en cualquier tipo de obra",
              "href": "https://api.euskadi.eus/procurements/companies/economic-activities/1.505.2"
            }
          }
        },
        {
          "id": "1.722",
          "name": "Transporte de mercancías por carretera",
          "_links": {
            "self": {
              "name": "Transporte de mercancías por carretera",
              "href": "https://api.euskadi.eus/procurements/companies/economic-activities/1.722"
            }
          }
        },
        {
          "id": "1.852",
          "name": "Alquiler de maquinaria y equipo para la construcción",
          "_links": {
            "self": {
              "name": "Alquiler de maquinaria y equipo para la construcción",
              "href": "https://api.euskadi.eus/procurements/companies/economic-activities/1.852"
            }
          }
        }
      ],
      "certificateStartDate": "2024-12-02",
      "certificateEndDate": "2025-05-06",
      "object": "ALQUILER DE MAQUINARIA Y EQUIPO PARA LA CONSTRUCCIÓN E INGENIERÍA CIVIL",
      "mainEntityOfPage": "https://www.contratacion.euskadi.eus/webkpe00-kperoc/es/ac71aBusquedaRegistrosWar/empresa/09333",
      "_links": {
        "self": {
          "name": "RICARDO ITURRIAGA LEGARRETA",
          "href": "https://api.euskadi.eus/procurements/companies/09333"
        }
      }
    },
    {
      "name": "AUTOCARES HIJOS DE M. RAMOS, S.L.",
      "registrationNumber": "04243",
      "identificationNumber": "B20439196",
      "address": "ZUBEROA, 7 (POL. LEZAMA LEGUIZAMON)",
      "location": {
        "postalCode": "48450",
        "municipality": "Etxebarri",
        "county": "Bizkaia",
        "municipalityId": "029",
        "countyId": "48"
      },
      "economicActivities": [
        {
          "id": "1.721.3",
          "name": "Transporte de viajeros por carretera",
          "_links": {
            "self": {
              "name": "Transporte de viajeros por carretera",
              "href": "https://api.euskadi.eus/procurements/companies/economic-activities/1.721.3"
            }
          }
        },
        {
          "id": "1.854.1",
          "name": "Alquiler de automóviles sin conductor",
          "_links": {
            "self": {
              "name": "Alquiler de automóviles sin conductor",
              "href": "https://api.euskadi.eus/procurements/companies/economic-activities/1.854.1"
            }
          }
        }
      ],
      "certificateStartDate": "2024-12-02",
      "certificateEndDate": "2025-05-13",
      "object": "EL TRANSPORTE DE VIAJEROS POR CARRETERA EN TODAS SUS MODALIDADES",
      "mainEntityOfPage": "https://www.contratacion.euskadi.eus/webkpe00-kperoc/es/ac71aBusquedaRegistrosWar/empresa/04243",
      "_links": {
        "self": {
          "name": "AUTOCARES HIJOS DE M. RAMOS, S.L.",
          "href": "https://api.euskadi.eus/procurements/companies/04243"
        }
      }
    },
    {
      "name": "FILEN ECO, S.L.",
      "registrationNumber": "09917",
      "identificationNumber": "B05477583",
      "address": "C./ Pau Muñoz y Castañer, 14, Planta1. 08174 Sant Cugat del Vallès (Barcelona) España",
      "location": {
        "postalCode": "08174",
        "municipality": "Sant Cugat del Vallès",
        "county": "Barcelona",
        "municipalityId": "205",
        "countyId": "08"
      },
      "economicActivities": [
        {
          "id": "1.631",
          "name": "Intermediarios del comercio",
          "_links": {
            "self": {
              "name": "Intermediarios del comercio",
              "href": "https://api.euskadi.eus/procurements/companies/economic-activities/1.631"
            }
          }
        }
      ],
      "certificateStartDate": "2024-11-27",
      "certificateEndDate": "2025-05-27",
      "object": "ACTIVIDAD PRINCIPAL CNAE: INTERMEDIARIOS DEL COMERCIO DE PRODUCTOS DIVERSOS (CNAE 4619) OTRAS ACTIVIDADES: 1.- INDUSTRIA TEXTIL (CNAE 13), 2.- CONFECCIÓN DE PRENDAS DE VESTIR (CNAE 14), 3.- ARTES GRÁFICAS Y REPRODUCCIÓN DE SOPORTES GRABADOS (CNAE 18), 4.- REPARACIÓN E INSTALACIÓN DE MAQUINARIA Y EQUIPO (CNAE 33), 5.- PROMOCIÓN INMOBILIARIA (CNAE 4110), 6.- ACTIVIDADES DE CONSTRUCCIÓN ESPECIALIZADA (CNAE 43), 7.- COMERCIO AL POR MENOR EXCEPTO DE VEHÍCULOS DE MOTOR Y MOTOCICLETAS (CNAE 47), 8.- TRANSPORTE TERRESTRE Y POR TUBERÍA (CNAE 49), 9.- SERVICIOS DE ALOJAMIENTO (CNAE 55). 10.- SERVICIOS DE COMIDAS Y BEBIDAS (CNAE 56), PROGRAMACIÓN CONSULTORÍA Y OTRAS ACTIVIDADES RELACIONADAS CON LA INFORMÁTICA (CNAE 62), 12. ACTIVIDADES DE SOCIEDADES HOLDING (CNAE 64.2), 13.- ACTIVIDADES INMOBILIARIAS (CNAE 68), 14.- ACTIVIDADES DE ALQUILER (CNAE 77). 15.- ACTIVIDADES DE AGENCIAS DE VIAJES, OPERADORES TURÍSTICOS, SERVICIOS DE RESERVAS Y ACTIVIDADES RELACIONADAS CON LOS MISMOS (CNAE 79), 16.- ACTIVIDADES ADMINISTRATIVAS DE OFICINAS Y OTRAS ACTIVIDADES AUXILIARES A LAS EMPRESAS (CNAE 82), 17.- ACTIVIDADES DEPORTIVAS, RECREATIVAS Y DE ENTRETENIMIENTO (CNAE 93).",
      "mainEntityOfPage": "https://www.contratacion.euskadi.eus/webkpe00-kperoc/es/ac71aBusquedaRegistrosWar/empresa/09917",
      "_links": {
        "self": {
          "name": "FILEN ECO, S.L.",
          "href": "https://api.euskadi.eus/procurements/companies/09917"
        }
      }
    },
    {
      "name": "BIDASOA AUTOCONSUMO INGENIERIA, S.L.",
      "registrationNumber": "08819",
      "identificationNumber": "B16884660",
      "address": "Plaza Jabier Ugarte",
      "location": {
        "postalCode": "20280",
        "municipality": "Hondarribia",
        "county": "Gipuzkoa",
        "municipalityId": "036",
        "countyId": "20"
      },
      "economicActivities": [
        {
          "id": "1.504.1",
          "name": "Instalaciones eléctricas en general",
          "_links": {
            "self": {
              "name": "Instalaciones eléctricas en general",
              "href": "https://api.euskadi.eus/procurements/companies/economic-activities/1.504.1"
            }
          }
        }
      ],
      "certificateStartDate": "2024-11-27",
      "certificateEndDate": "2025-05-19",
      "object": "LA ACTIVIDAD PRINCIPAL: EL DISEÑO, MONTAJE Y POSTERIOR PUESTA EN MARCHA DE INSTALACIONES DE ENERGÍA SOLAR, TÉRMICA Y FOTOVOLTAICA, ENERGÍA EÓLICA Y CUALQUIER OTRO TIPO DE ENERGÍA RENOVABLE (CNAE 3510) - DISEÑO DE PROYECTOS, REDACCIÓN DE MEMORIAS TÉCNICAS, TRAMITACIÓN DE LICENCIAS DE INSTALACIONES DE ENERGÍA SOLAR, TÉRMICA Y FOTOVOLTAICA, ENERGÍA EÓLICA, Y CUALQUIER OTRO TIPO DE ENERGÍA RENOVABLE. - PRESTACIÓN DE SERVICIOS DE MANTENIMIENTO Y CONSERVACIÓN DE INSTALACIONES DE ENERGÍA SOLAR, TÉRMICA Y FOTOVOLTAICA, ENERGÍA EÓLICA Y CUALQUIER OTRO TIPO DE ENERGÍA RENOVABLE, TANTO EN INSTALACIONES REALIZADAS POR LA SOCIEDAD COMO POR TERCEROS. - FABRICACIÓN Y REPARACIÓN DE MÓDULOS, CÉLULAS Y COMPONENTES DE ENERGÍA SOLAR, TÉRMICA Y FOTOVOLTAICA, ENERGÍA EÓLICA Y CUALQUIER OTRO TIPO DE ENERGÍA RENOVABLE. - INSTALACIÓN Y REPARACIÓN DE FONTANERÍA, GAS, ELECTRICIDAD, FRÍO, CALOR Y ACONDICIONAMIENTO DE AIRE. - REPRESENTACIÓN Y COMERCIALIZACIÓN, INCLUIDA LA IMPORTACIÓN Y EXPORTACIÓN, DE CUANTOS BIENES Y DERECHOS ESTÉN RELACIONADOS CON LA ACTIVIDAD DESCRITA. - IMPARTICIÓN DE CURSOS A TERCEROS, INCLUIDOS LOS REALIZADOS EN CENTROS FORMATIVOS AUTORIZADOS, DE TODAS LAS MATERIAS CONTENIDAS EN ESTE ARTÍCULO.",
      "mainEntityOfPage": "https://www.contratacion.euskadi.eus/webkpe00-kperoc/es/ac71aBusquedaRegistrosWar/empresa/08819",
      "_links": {
        "self": {
          "name": "BIDASOA AUTOCONSUMO INGENIERIA, S.L.",
          "href": "https://api.euskadi.eus/procurements/companies/08819"
        }
      }
    },
    {
      "name": "AITZORROSPE, S.L.",
      "registrationNumber": "08812",
      "identificationNumber": "B75194274",
      "address": "IRALABARRI PLAZA 17, BEHEA",
      "location": {
        "postalCode": "20550",
        "municipality": "Aretxabaleta",
        "county": "Gipuzkoa",
        "municipalityId": "013",
        "countyId": "20"
      },
      "economicActivities": [
        {
          "id": "1.673.2",
          "name": "Otros cafés y bares",
          "_links": {
            "self": {
              "name": "Otros cafés y bares",
              "href": "https://api.euskadi.eus/procurements/companies/economic-activities/1.673.2"
            }
          }
        },
        {
          "id": "1.912",
          "name": "Servicios forestales",
          "_links": {
            "self": {
              "name": "Servicios forestales",
              "href": "https://api.euskadi.eus/procurements/companies/economic-activities/1.912"
            }
          }
        },
        {
          "id": "1.921.1",
          "name": "Servicios de limpieza en calles, vías públicas y jardines",
          "_links": {
            "self": {
              "name": "Servicios de limpieza en calles, vías públicas y jardines",
              "href": "https://api.euskadi.eus/procurements/companies/economic-activities/1.921.1"
            }
          }
        }
      ],
      "certificateStartDate": "2024-11-26",
      "certificateEndDate": "2025-05-17",
      "object": "EXPLOTACIÓN DE ESTABLECIMIENTOS DE HOSTELERÍA, MEDIANTE LA REALIZACIÓN DE TODO TIPO DE ACTIVIDADES PROPIAS DE CAFETERÍAS Y BARES. OTROS SERVICIOS RELACIONADOS CON LOS TRABAJOS DE RESTAURACIÓN.",
      "mainEntityOfPage": "https://www.contratacion.euskadi.eus/webkpe00-kperoc/es/ac71aBusquedaRegistrosWar/empresa/08812",
      "_links": {
        "self": {
          "name": "AITZORROSPE, S.L.",
          "href": "https://api.euskadi.eus/procurements/companies/08812"
        }
      }
    },
    {
      "name": "KLARA GOROSABEL ARTXIBOZAINTZA ETA DOKUMENTUEN KUDEAKETA, S.L.",
      "registrationNumber": "09643",
      "identificationNumber": "B16350894",
      "address": "Aizkibel Kalea 14, solairuartea B(20720)",
      "location": {
        "postalCode": "20720",
        "municipality": "Azkoitia",
        "county": "Gipuzkoa",
        "municipalityId": "017",
        "countyId": "20"
      },
      "economicActivities": [
        {
          "id": "1.849.9",
          "name": "Otros servicios independientes n.c.o.p",
          "_links": {
            "self": {
              "name": "Otros servicios independientes n.c.o.p",
              "href": "https://api.euskadi.eus/procurements/companies/economic-activities/1.849.9"
            }
          }
        }
      ],
      "certificateStartDate": "2024-11-26",
      "certificateEndDate": "2025-05-25",
      "object": "EL DESARROLLO DE LA ACTIVIDAD CORRESPONDIENTE AL SIGUIENTE CÓDIGO Y DESCRIPCIÓN DE LA CLASIFICACIÓN NACIONAL DE ACTIVIDADES ECONÓMICAS: ACTIVIDAD PRINCIPAL: GESTIÓN DE DOCUMENTOS. A DICHA ACTIVIDAD LE CORRESPONDE EL CNAE: 9106 (ACTIVIDADES DE ARCHIVOS).",
      "mainEntityOfPage": "https://www.contratacion.euskadi.eus/webkpe00-kperoc/es/ac71aBusquedaRegistrosWar/empresa/09643",
      "_links": {
        "self": {
          "name": "KLARA GOROSABEL ARTXIBOZAINTZA ETA DOKUMENTUEN KUDEAKETA, S.L.",
          "href": "https://api.euskadi.eus/procurements/companies/09643"
        }
      }
    },
    {
      "name": "GESTIÓN FORESTAL FRÍAS, S.L.",
      "registrationNumber": "04732",
      "identificationNumber": "B01489327",
      "address": "GARDEA, 32",
      "location": {
        "postalCode": "01400",
        "municipality": "Laudio/Llodio",
        "county": "Araba/Álava",
        "municipalityId": "036",
        "countyId": "01"
      },
      "economicActivities": [
        {
          "id": "1.912",
          "name": "Servicios forestales",
          "_links": {
            "self": {
              "name": "Servicios forestales",
              "href": "https://api.euskadi.eus/procurements/companies/economic-activities/1.912"
            }
          }
        }
      ],
      "certificateStartDate": "2024-11-26",
      "certificateEndDate": "2025-05-21",
      "object": "LA PLANTACIÓN, MANTENIMIENTO, APROVECHAMIENTO, EXPLOTACIÓN, GESTIÓN, CONSERVACIÓN Y PROTECCIÓN DE ESPACIOS VERDES, BOSQUES, SUPERFICIES FORESTALES O MONTES Y TODO TIPO DE TERRENOS EN QUE VEGETEN ESPECIES FORESTALES, ARBÓREAS, ARBUSTIVAS DE MATORRAL O HERBÁCEAS, ASÍ COMO LAS ACTIVIDADES INHERENTES O COMPLEMENTARIAS DE DICHAS ACTIVIDADES, COMO PODA, ACLAREO, ABONADO, EXTINCIÓN DE FUEGOS, CIERRE Y REPOBLACIÓN; COMPRAVENTA DE MADERA Y SU TRANSPORTE HASTA LOS ASERRADEROS",
      "mainEntityOfPage": "https://www.contratacion.euskadi.eus/webkpe00-kperoc/es/ac71aBusquedaRegistrosWar/empresa/04732",
      "_links": {
        "self": {
          "name": "GESTIÓN FORESTAL FRÍAS, S.L.",
          "href": "https://api.euskadi.eus/procurements/companies/04732"
        }
      }
    },
    {
      "name": "ZUMARPE KUDEAKETAK, S.L.",
      "registrationNumber": "08848",
      "identificationNumber": "B75108241",
      "address": "Zubitxiki Poligonoa 9",
      "location": {
        "postalCode": "20150",
        "municipality": "Aduna",
        "county": "Gipuzkoa",
        "municipalityId": "002",
        "countyId": "20"
      },
      "economicActivities": [
        {
          "id": "1.501.1",
          "name": "Construcción completa, reparación y conservación de edificaciones",
          "_links": {
            "self": {
              "name": "Construcción completa, reparación y conservación de edificaciones",
              "href": "https://api.euskadi.eus/procurements/companies/economic-activities/1.501.1"
            }
          }
        },
        {
          "id": "1.833.2",
          "name": "Promoción de edificaciones",
          "_links": {
            "self": {
              "name": "Promoción de edificaciones",
              "href": "https://api.euskadi.eus/procurements/companies/economic-activities/1.833.2"
            }
          }
        },
        {
          "id": "1.849.7",
          "name": "Servicios de gestión administrativa",
          "_links": {
            "self": {
              "name": "Servicios de gestión administrativa",
              "href": "https://api.euskadi.eus/procurements/companies/economic-activities/1.849.7"
            }
          }
        }
      ],
      "certificateStartDate": "2024-11-26",
      "certificateEndDate": "2025-05-22",
      "object": "LA COMPRA Y VENTA, REFORMA, CONSTRUCCIÓN, PROMOCIÓN, ALQUILER Y EXPLOTACIÓN DE INMUEBLES, TANTO RÚSTICOS COMO URBANOS, TERRENOS TANTO INDUSTRIALES COMO RESIDENCIALES, TRANSACCIONES INMOBILIARIAS, GESTIÓN E INTERMEDIACIÓN Y VALORACIÓN INMOBILIARIA ASÍ COMO LA GESTIÓN, EL MANTENIMIENTO Y EL ASESORAMIENTO DE PATRIMONIO.",
      "mainEntityOfPage": "https://www.contratacion.euskadi.eus/webkpe00-kperoc/es/ac71aBusquedaRegistrosWar/empresa/08848",
      "_links": {
        "self": {
          "name": "ZUMARPE KUDEAKETAK, S.L.",
          "href": "https://api.euskadi.eus/procurements/companies/08848"
        }
      }
    },
    {
      "name": "HIDROMEJORAS, S.L.",
      "registrationNumber": "09915",
      "identificationNumber": "B87898144",
      "address": "C/ GABRIEL GARCIA MARQUEZ 3",
      "location": {
        "postalCode": "28232",
        "municipality": "Rozas de Madrid, Las",
        "county": "Madrid",
        "municipalityId": "127",
        "countyId": "28"
      },
      "economicActivities": [
        {
          "id": "1.617.9",
          "name": "Venta al por mayor interindustrial de otros productos n.c.o.p",
          "_links": {
            "self": {
              "name": "Venta al por mayor interindustrial de otros productos n.c.o.p",
              "href": "https://api.euskadi.eus/procurements/companies/economic-activities/1.617.9"
            }
          }
        }
      ],
      "certificateStartDate": "2024-11-25",
      "certificateEndDate": "2025-05-25",
      "object": "COMERCIO INTERIOR (NACIONAL) Y EXTERIOR (INTERNACIONAL) DE TODO TIPO DE EQUIPOS E INSTRUMENTACIÓN PARA CONTROL INSPECCIÓN, TRATAMIENTO Y MEJORAS DE INFRAESTRUCTURAS Y FLUIDOS, PARA LOS SECTORES DE AGUA, GAS Y ELECTRICIDAD, INCLUYENDO EL ALQUILER Y MANTENIMIENTO DE DICHOS EQUIPOS. ACTIVIDADES SECUNDARIAS: SOPORTE, COMUNICACIÓN, ANÁLISIS Y SUMINISTRO DE DATOS, EN RELACIÓN A LAS VARIABLES Y APLICACIONES A CONTROLAR. ESTUDIOS Y PRESTACIÓN DE SERVICIOS CORRESPONDIENTES A LAS DISTINTAS APLICACIONES E INSTALACIONES DE AGUA, GAS Y ELECTRICIDAD RELATIVAS AL CONTROL, CALIDAD, INSPECCIÓN. TRATAMIENTO Y MEJORAS DE LAS INFRAESTRUCTURAS Y LOS FLUIDOS.",
      "mainEntityOfPage": "https://www.contratacion.euskadi.eus/webkpe00-kperoc/es/ac71aBusquedaRegistrosWar/empresa/09915",
      "_links": {
        "self": {
          "name": "HIDROMEJORAS, S.L.",
          "href": "https://api.euskadi.eus/procurements/companies/09915"
        }
      }
    }
  ]
}