{
  "totalItems": 9042,
  "totalPages": 905,
  "currentPage": 675,
  "itemsOfPage": 10,
  "items": [
    {
      "name": "BIZALA SERVICIOS, S.L.",
      "registrationNumber": "02072",
      "identificationNumber": "B48485692",
      "address": "AVDA. LEHENDAKARI AGIRRE, Nº 29 - 4º",
      "location": {
        "postalCode": "48014",
        "municipality": "Bilbao",
        "county": "Bizkaia",
        "municipalityId": "020",
        "countyId": "48"
      },
      "economicActivities": [
        {
          "id": "1.849.4",
          "name": "Servicios de custodia, seguridad y protección",
          "_links": {
            "self": {
              "name": "Servicios de custodia, seguridad y protección",
              "href": "https://api.euskadi.eus/procurements/companies/economic-activities/1.849.4"
            }
          }
        },
        {
          "id": "1.922",
          "name": "Servicios de limpieza",
          "_links": {
            "self": {
              "name": "Servicios de limpieza",
              "href": "https://api.euskadi.eus/procurements/companies/economic-activities/1.922"
            }
          }
        }
      ],
      "certificateStartDate": "2014-01-21",
      "certificateEndDate": "2014-07-09",
      "object": "LA REALIZACIÓN DE TODA CLASE DE SERVICIOS Y CONTRATAS DE GUARDERÍA, PAQUETERÍA, CONSERJES, DESTRUCCIÓN DE DOCUMENTACIÓN CONFIDENCIAL, CONTRATAS DE SERVICIOS DE LIMPIEZAS EN GENERAL, CUSTODIA DE TODA CLASE DE DOCUMENTOS, CLASIFICACIÓN DE DOCUMENTACIÓN BANCARIA Y REPARTO DE LA MISMA. ASIMISMO LA SOCIEDAD PODRÁ ADQUIRIR, ENAJENAR Y ARRENDAR, TENER Y DISFRUTAR, BIENES INMUEBLES, ACCIONES, PARTICIPACIONES SOCIALES, OBLIGACIONES, BONOS DE CAJA, CERTIFICADOS DE DEPÓSITO Y PAGARÉS DE TODA CLASE DE EMPRESAS O NEGOCIOS, PERO SIEMPRE QUE NO IMPLIQUE LA INTERMEDIACIÓN EN OPERACIONES SOBRE TÍTULOS VALORES Y TAMBIÉN QUE NO SEAN NEGOCIOS ATRIBUIDOS A ENTIDADES SUJETAS A REGULACIÓN ESPECIAL, NI AQUELLAS OTRAS REGIDAS POR LAS LEYES SOBRE MERCADO DE VALORES Y DE SOCIEDADES DE INVERSIÓN COLECTIVA",
      "mainEntityOfPage": "https://www.contratacion.euskadi.eus/webkpe00-kperoc/es/ac71aBusquedaRegistrosWar/empresa/02072",
      "_links": {
        "self": {
          "name": "BIZALA SERVICIOS, S.L.",
          "href": "https://api.euskadi.eus/procurements/companies/02072"
        }
      }
    },
    {
      "name": "WIDE WORLD GEOGRAPHIC SERVICES, S.L.",
      "registrationNumber": "02601",
      "identificationNumber": "B95215026",
      "address": "C/ Fandería, 2 - Mod. 307",
      "location": {
        "postalCode": "48901",
        "municipality": "Barakaldo",
        "county": "Bizkaia",
        "municipalityId": "013",
        "countyId": "48"
      },
      "economicActivities": [
        {
          "id": "1.843.1",
          "name": "Servicios técnicos de ingeniería",
          "_links": {
            "self": {
              "name": "Servicios técnicos de ingeniería",
              "href": "https://api.euskadi.eus/procurements/companies/economic-activities/1.843.1"
            }
          }
        },
        {
          "id": "1.845",
          "name": "Explotación electrónica por cuenta de terceros",
          "_links": {
            "self": {
              "name": "Explotación electrónica por cuenta de terceros",
              "href": "https://api.euskadi.eus/procurements/companies/economic-activities/1.845"
            }
          }
        }
      ],
      "certificateStartDate": "2014-01-08",
      "certificateEndDate": "2014-06-17",
      "object": "LA PRESTACIÓN DE SERVICIOS DE INGENIERÍA Y CONSULTORÍA PARA TODA CLASE DE ACTIVIDADES RELACIONADAS CON LA EXPLOTACIÓN  DE RECURSOS NATURALES, LA INDUSTRIA O LOS SERVICIOS. EL ASESORAMIENTO Y LA GESTIÓN PARA LA IMPLANTACIÓN DE ACTIVIDADES INDUSTRIALES, COMERCIALES, O DE SERVICIOS, ASÍ COMO DE SISTEMAS DE CALIDAD. LA REALIZACIÓN DE LEVANTAMIENTOS, ESTUDIOS, INFORMES, CÁLCULOS, PROYECTOS, PRESUPUESTOS, REPLANTEOS, PRESTACIÓN DE SERVICIOS TÉCNICO-ADMINISTRATIVOS PARA LLEVAR LA DIRECCIÓN, ORGANIZACIÓN Y CONTROL DE TODA CLASE DE OBRAS Y CONSTRUCCIONES Y CUALQUIER OTRA ACTIVIDAD DE INGENIERÍA EN GENERAL Y ESPECIALMENTE DE INGENIERÍA TOPOGRÁFICA Y FOTOGRAMETRÍA, INCLUYÉNDOSE TAMBIÉN CUANTAS ACTIVIDADES SE RELACIONEN CON LA FINALIDAD EXPRESADA. REALIZACIÓN DE TRABAJOS CATASTRALES EN TODA SU EXTENSIÓN, INCLUYENDO VALORACIONES Y NOTIFICACIONES Y SERVICIOS Y DESARROLLOS INFORMÁTICOS, EN GENERAL Y ESPECIALMENTE, APLICACIONES PARA SISTEMAS DE INFORMACIÓN GEOGRÁFICA.\r\nLA VENTA DE EQUIPOS, APLICACIÓN  DE SISTEMAS Y FORMACIÓN DE PERSONAL.\r\nENCUESTAS, TOMA DE DATOS Y SERVICIOS ANÁLOGOS, ESTO ES, TRABAJOS DE CAMPO DE TOMA DE DATOS PARA ESTUDIOS DE MERCADO, ESTADOS DE OPINIÓN U OTRO TIPO DE ENCUESTAS. SERVICIOS DE CAPTURA DE INFORMACIÓN POR MEDIOS ELECTRÓNICOS, INFORMÁTICOS Y TELEMÁTICOS, TALES COMO TRABAJOS DE MECANOGRAFÍA Y GRABACIÓN O CAPTURA DE DATOS POR MEDIOS ELECTRÓNICOS Y DIGITALIZACIÓN O CONVERSIÓN DE FORMATOS DE DOCUMENTOS MEDIANTE EL USO DE LAS TECNOLOGÍAS DE LA INFORMACIÓN Y LAS COMUNIDADES. SERVICIOS DE DESARROLLO Y MANTENIMIENTO DE PROGRAMAS DE ORDENADOR, TALES COMO TRABAJOS DE PLANIFICACIÓN, ANÁLISIS, DISEÑO, CONSTRUCCIÓN, PRUEBAS Y MANTENIMIENTO DE SISTEMAS DE INFORMACIÓN (PROGRAMAS Y APLICACIONES INFORMÁTICAS). SERVICIOS DE MANTENIMIENTO Y REPARACIÓN DE EQUIPOS E INSTALACIONES INFORMÁTICOS Y DE TELECOMUNICACIONES TALES COMO TRABAJOS DE MANTENIMIENTO PREVENTIVO, CORRECTIVO O PERFECTIVO Y DE REPARACIÓN DE EQUIPOS Y SISTEMAS FÍSICOS Y LÓGICOS PARA EL TRATAMIENTO DE LA INFORMACIÓN, ASÍ COMO DE LOS EQUIPOS  EMISORES Y RECEPTORES DE LA MISMA Y SUS CORRESPONDIENTES SISTEMAS Y MEDIOS DE TRANSMISIÓN. SERVICIOS DE TELECOMUNICACIONES TALES COMO SERVICIOS DE COMUNICACIÓN DE VOZ Y/O DATOS, ALQUILER DE CIRCUITOS PARA LA TRANSMISIÓN DE VOZ Y/O DATOS, LA PROVISIÓN DE LOS MEDIOS TÉCNICOS Y HUMANOS NECESARIOS PARA QUE LOS USUARIOS FINALES DE LAS REDES DE TELECOMUNICACIONES ACCEDAN Y TENGAN PRESENCIA EN INTERNET Y OTROS SERVICIOS  DE VALOR AÑADIDO SOBRE REDES DE TELECOMUNICACIONES. SERVICIOS DE EXPLOTACIÓN Y CONTROL DE SISTEMAS INFORMÁTICOS E INFRAESTRUCTURAS TELEMÁTICAS, TALES COMO TRABAJOS ASOCIADOS A LA PUESTA EN FUNCIONAMIENTO, EL SEGUIMIENTO, LA GESTIÓN Y CONTROL DE EQUIPOS Y SISTEMAS INFORMÁTICOS Y DE LAS INFRAESTRUCTURAS TELEMÁTICAS, NECESARIAS PARA LA ADECUADA EXPLOTACIÓN DE PROGRAMAS Y APLICACIONES INFORMÁTICAS.\r\nSERVICIOS DE CERTIFICACIÓN ELECTRÓNICA, TALES COMO ACTIVIDADES RELATIVAS A LA GENERACIÓN EXPEDICIÓN Y GESTIÓN DE CERTIFICADOS ELECTRÓNICOS Y OTROS SERVICIOS RELACIONADOS, TALES COMO LOS SERVICIOS DE AUTORIDAD DE REGISTRO Y DE FECHADO ELECTRÓNICO, PARA FIRMA ELECTRÓNICA, DE AUTENTICACIÓN ELECTRÓNICA, CONFIDENCIALIDAD Y NO REPUDIO. SERVICIOS DE EVALUACIÓN Y CERTIFICACIÓN TECNOLÓGICA TALES COMO TRABAJOS TÉCNICOS PARA DISEÑAR, CONSTRUIR Y EJECUTAR LAS PRUEBAS QUE PERMITAN LA EVALUACIÓN DE UN PRODUCTO O SISTEMA, RESPECTO DE UNOS CRITERIOS Y MÉTODOS DE EVALUACIÓN, PARA DETERMINAR SU COMPORTAMIENTO ANTE LAS CARACTERÍSTICAS Y FUNCIONALIDADES QUE LE SON ATRIBUIDAS Y CERTIFICAR  LOS RESULTADOS OBTENIDOS. ESTAS ACTIVIDADES TAMBIÉN PODRÁN SER DESARROLLADAS, DE MODO INDIRECTO, MEDIANTE LA PARTICIPACIÓN EN SOCIEDADES CON ANÁLOGO OBJETO.\r\nCUANDO PARA REALIZAR ALGUNA ACTIVIDAD INTEGRANTE DEL OBJETO SOCIAL FUERA PRECISA LA OBTENCIÓN DE LICENCIA O AUTORIZACIÓN ADMINISTRATIVA ESPECIAL, LA SOCIEDAD NO PODRÁ INICIAR SU DESARROLLO HASTA QUE AQUÉLLA NO SE HAYA CONCEDIDO",
      "mainEntityOfPage": "https://www.contratacion.euskadi.eus/webkpe00-kperoc/es/ac71aBusquedaRegistrosWar/empresa/02601",
      "_links": {
        "self": {
          "name": "WIDE WORLD GEOGRAPHIC SERVICES, S.L.",
          "href": "https://api.euskadi.eus/procurements/companies/02601"
        }
      }
    },
    {
      "name": "ISOCOINNOVA, S.A.U.",
      "registrationNumber": "04590",
      "identificationNumber": "A71016554",
      "address": "Parque Tomás Caballero, 2 6º4ª",
      "location": {
        "postalCode": "31006",
        "municipality": "Pamplona/Iruña",
        "county": "Navarra",
        "municipalityId": "201",
        "countyId": "31"
      },
      "economicActivities": [
        {
          "id": "1.845",
          "name": "Explotación electrónica por cuenta de terceros",
          "_links": {
            "self": {
              "name": "Explotación electrónica por cuenta de terceros",
              "href": "https://api.euskadi.eus/procurements/companies/economic-activities/1.845"
            }
          }
        }
      ],
      "certificateStartDate": "2013-12-19",
      "certificateEndDate": "2014-06-16",
      "object": "a) Investigación en Tecnologías de la Información y la Comunicación; b) Diseño y desarrollo de sistemas y componentes software, su comercialización, distribución y venta. c) Impartición de cursos de Formación en las Tecnologías mencionadas. d) Prestación de servicios de consultoría en las Tecnologías mencionadas.",
      "mainEntityOfPage": "https://www.contratacion.euskadi.eus/webkpe00-kperoc/es/ac71aBusquedaRegistrosWar/empresa/04590",
      "_links": {
        "self": {
          "name": "ISOCOINNOVA, S.A.U.",
          "href": "https://api.euskadi.eus/procurements/companies/04590"
        }
      }
    },
    {
      "name": "KAPLAN PUBLIZITATEA, S.L.",
      "registrationNumber": "03178",
      "identificationNumber": "B95331559",
      "address": "ASKATASUN ETORBIDEA, Nº 23-BAJO",
      "location": {
        "postalCode": "48200",
        "municipality": "Durango",
        "county": "Bizkaia",
        "municipalityId": "027",
        "countyId": "48"
      },
      "economicActivities": [
        {
          "id": "1.659.6",
          "name": "Venta al por menor de juguetes, artículos de deporte",
          "_links": {
            "self": {
              "name": "Venta al por menor de juguetes, artículos de deporte",
              "href": "https://api.euskadi.eus/procurements/companies/economic-activities/1.659.6"
            }
          }
        },
        {
          "id": "1.673.2",
          "name": "Otros cafés y bares",
          "_links": {
            "self": {
              "name": "Otros cafés y bares",
              "href": "https://api.euskadi.eus/procurements/companies/economic-activities/1.673.2"
            }
          }
        },
        {
          "id": "1.844",
          "name": "Servicios de publicidad, relaciones públicas y similares",
          "_links": {
            "self": {
              "name": "Servicios de publicidad, relaciones públicas y similares",
              "href": "https://api.euskadi.eus/procurements/companies/economic-activities/1.844"
            }
          }
        },
        {
          "id": "1.961.1",
          "name": "Producción de películas cinematográficas (incluso vídeos)",
          "_links": {
            "self": {
              "name": "Producción de películas cinematográficas (incluso vídeos)",
              "href": "https://api.euskadi.eus/procurements/companies/economic-activities/1.961.1"
            }
          }
        },
        {
          "id": "1.962.1",
          "name": "Distribución y venta de películas",
          "_links": {
            "self": {
              "name": "Distribución y venta de películas",
              "href": "https://api.euskadi.eus/procurements/companies/economic-activities/1.962.1"
            }
          }
        },
        {
          "id": "1.981.3",
          "name": "Parques de atracciones, incluidos los acuáticos",
          "_links": {
            "self": {
              "name": "Parques de atracciones, incluidos los acuáticos",
              "href": "https://api.euskadi.eus/procurements/companies/economic-activities/1.981.3"
            }
          }
        }
      ],
      "certificateStartDate": "2013-12-16",
      "certificateEndDate": "2014-06-05",
      "object": "PRESTACIÓN DE SERVICIOS DE PUBLICIDAD, MEDIANTE ANUNCIOS, CARTELES, FOLLETOS, PELÍCULAS PUBLICITARIAS, A TRAVÉS DE PRENSA, RADIO, TELEVISIÓN, PUBLICIDAD EXTERIOR U OTROS MEDIOS.\r\n\r\nCREACIÓN Y DIFUSIÓN DE ANUNCIOS O CAMPAÑAS DE INFORMACIÓN PUBLICITARIA, PROPAGANDA ELECTORAL, COMUNICACIÓN INSTITUCIONAL O PÚBLICA E IMAGEN CORPORATIVA, ASÍ COMO LAS DE OTRAS EMPRESAS DE PUBLICIDAD EN SUS DIFERENTES MODALIDAES, TALES COMO EXCLUSIVISTAS DE MEDIOS PUBLICITARIOS, PUBLICIDAD EXTERIOR, PUBLICIDAD DIRECTA Y MARKETING DIRECTO, DISTRIBUÍDORAS Y CENTRALES DE COMPRAS Y ESTUDIOS DE PUBLICIDAD.\r\n\r\nASIMISMO SERVICIOS DE RELACIONES PÚBLICAS, PROMOCIÓN DE VENTAS PUBLICITARIAS, REGALOS Y RECLAMOS PUBLICITARIOS Y, EN GENERAL, CUALQUIER SERVICIOS INDEPENDIENTE DE PUBLICIDAD.\r\n\r\nPRODUCCIÓN DE FORMATOS AUDIOVISUALES EN DIFERENTES SOPORTES MULTIMEDIA: VIDEO, TV, CD, DVD Y SUS APLICACIONES DERIVADAS.\r\nESTE OBJETO SE DESARROLLARÁ:\r\nA) EN EL ÁREA DEL VIDEO: PRODUCCIÓN DE VÍDEOS PROMOCIONALES, INSTITUCIONALES, CORPORATIVOS, EDUCATIVOS Y SOPORTES MULTIMEDIA.\r\nB) EN EL ÁREA DE TV: PROGRAMAS DOCUMENTALES, DIVULGATIVOS, EDUCATIVOS, OCIO Y ENTRETENIMIENTO.\r\nC) EN EL ÁREA DEL CD: CORPORATIVOS, INDUSTRIALES, EDUCATIVOS, CATÁLOGOS, DIVULGATIVOS, PROMOCIONALES Y COMERCIALES.\r\nD) EN EL ÁREA DE DVD: CORPORATIVOS, INDUSTRIALES, EDUCATIVOS, CATÁLOGOS, DIVULGATIVOS, PROMOCIONALES Y COMERCIALES.\r\nASÍ COMO SUS APLICACIONES DERIVADAS QUE INCLUYAN SOFTWARE, IMAGEN REAL, SINTÉTICA Y VIRTUAL.\r\nDESARROLLO Y PRODUCCIÓN DE EVENTOS COMUNICATIVOS.\r\nDISEÑO Y ORGANIZACIÓN DE EVENTOS PROMOCIONALES Y COMUNICATIVOS \r\n- LA GESTIÓN Y LA EXPLOTACIÓN COMERCIAL DE CLUBES O ASOCIACIONES RECREATIVAS, DE OCIO, CULTURALES DE FIDELIZACIÓN O DE CUALQUIER OTRO TIPO DE SUS PRODUCTOS. LA ORGANIZACIÓN DE TODO TIPO DE EVENTOS RELACIONADOS CON EL OCIO, ACTOS DE CARÁCTER CULTURAL, ACTOS PROMOCIÓNALES, ESPECTÇACULOS Y EN GENERAL LA ORGANIZACIÓN DE TODO TIPO DE ACTOS O EVENTOS DE CARÁCTER PÚBLICO. FORMAPARTE TAMBIÉN DE SU OBJETO SOCIAL LA COMERCIALIZACIÓN, DISEÑO, FABRICACIÓN Y DISTRIBUCIÓN DE PRODUCTOS DE MERCHANDISING O RELACIONADOS CON LAS MARCAS O DEMÁS SIGNOS DE PROPIEDAD INDUSTRIAL O INTELECTUAL GESTIONADOS POR LA SOCIEDAD. GESTIÓN Y EXPLOTACIÓN COMERCIAL DE BARES, TABERNAS, CAFETERÍAS Y RESTAURANTES. PRODUCCIÓN DE PELÍCULAS CINEMATOGRÁFICAS, SU DISTRIBUCIÓN Y COMERCIALIZACIÓN. ESTAS ACTIVIDADES TAMBIÉN PODRÁN SER DESARROLLADAS, DE MODO INDIRECTO, MEDIANTE LA PARTICIPACIÓN EN SOCIEDADES CON ANÁLOGO OBJETO",
      "mainEntityOfPage": "https://www.contratacion.euskadi.eus/webkpe00-kperoc/es/ac71aBusquedaRegistrosWar/empresa/03178",
      "_links": {
        "self": {
          "name": "KAPLAN PUBLIZITATEA, S.L.",
          "href": "https://api.euskadi.eus/procurements/companies/03178"
        }
      }
    },
    {
      "name": "HABYCO XXI, S.A.",
      "registrationNumber": "04925",
      "identificationNumber": "A83340141",
      "address": "GRAN VÍA, Nº 69-3º",
      "location": {
        "postalCode": "28013",
        "municipality": "Madrid",
        "county": "Madrid",
        "municipalityId": "079",
        "countyId": "28"
      },
      "economicActivities": [
        {
          "id": "1.834",
          "name": "Servicios relativos a la propiedad inmobiliaria e industrial",
          "_links": {
            "self": {
              "name": "Servicios relativos a la propiedad inmobiliaria e industrial",
              "href": "https://api.euskadi.eus/procurements/companies/economic-activities/1.834"
            }
          }
        }
      ],
      "certificateStartDate": "2013-12-13",
      "certificateEndDate": "2014-05-25",
      "object": "ASESORAMIENTO TÉCNICO, ECONÓMICO, INFORMÁTICO Y ADMINISTRATIVO EN SUMÁS AMPLIO SENTIDO, TANTO A PERSONAS FÍSICAS COMO JURÍDICAS, ESTANDO ESTAS ÚLTIMAS VÁLIDAMENTE CONSTITUIDAS O EN FASE DE CONSTITUCIÓN. PRESTACIÓN DE SERVICIOS DE ASESORÍA COMERCIALIZACIÓN, CONSULTORÍA Y VALORACIÓN EN MATERIA INMOBILIARIA. LA PROMOCIÓN, URBANIZACIÓN, CONSTRUCCION, COMPRA, VENTA Y ARRENDAMIENTO DE BIENES INMUEBLES. ASESORAMIENTO, CONSTITUCIÓN, GESTIÓN Y DIRECCIÓN DE CUALQUIER FORMA ORGANIZATIVA DE PERSONAS PERMITIDA EN DERECHO. REHABILITACIÓN POR CUENTA PROPIA O AJENA DE BIENES INMUEBLES. SERVICIOS AUXLILIARES PARA TRABAJOS ADMINISTRATIVOS DE ARCHIVO Y SIMILARES, SERVICIO DE GESTIÓN DE COBROS, ENCUESTAS, TOMAS DE DATOS Y SERVICIOS ANÁLOGOS. RECAUDACIÓN, FACTURACIÓN, LECTURA DE CONTADORES, PRESTACIÓN DE SERVICIOS TÉCNICOS Y SU CONTRATACIÓN EN TODA CLASE DE PERSONAS FÍSICAS Y JURÍDICAS, PÚBLICAS O PRIVADAS; PUDIENDO REALIZAR TODO TIPO DE GESTIÓN ADMINISTRATIVA O EMPRESARIAL. SERVICIOS DE INFORMACIÓN E INFORMÁTICA, ADMINISTRACION Y PATRIMONIO, MOBILIARIO E INMOBILIARIO. DESARROLLO Y APLICACIÓN DE SISTEMAS DE GESTIÓN. SERVICIOS DE PORTERÍA, CONTROL DE ACCESOS, TANTO DE PERONAS COMO DE VEHÍCULOS, Y DE INFORMACIÓN AL PÚBLICO, PERSONAL Y TELEFÓNICAMENTE. PRESTACIÓN DE TODO TIPO DE SERVICIOS SOCIALES, SANITARIOS, EDUCATIVOS Y DE OCIO. ORGANIZACIÓN E IMPARTICIÓN DE TODO TIPO DE CURSOS Y PROGRAMAS DE ENSEÑANZA Y FORMACIÓN. EXPLOTACIÓN Y GESTIÓN, TOTAL O PARCIAL, DE INSTALACIONES DEPORTIVAS, DE OCIO Y RECREO, CULTURALES, EDUCATIVAS, PARQUES TEMÁTICOS, APARCAMIENTOS, PARQUÍMETROS, TIENDAS, CENTROS COMERCIALES, E INMUEBLES EN GENERAL. LOS SERVICIOS DE CUIDADO Y CUSTODIA DE NIÑOS EN ESTANCIAS Y LOCALES APROPIADOS. LOS SERVICIOS DE TRADUCCIÓN Y LOS DE INTERPRETACIÓN SIMULTÁNEA DE IDIOMAS. PRESTACIÓN DE SERVICIOS DE ESTUDIO, ASISTENCIA Y ASESORAMIENTO EN LA GESTIÓN Y DESARROLLO DE CONTRATOS DE SERVICIOS, A ENTIDADES PÚBLCAS O  PRIVADAS. SERVICIOS DE TRANSPORTE ESCOLAR ASÍ COMO TODOS LOS SERVICIOS DE APOYO A ÉSTE. LOS TRABAJOS DE ORGANIZACIÓN, ATENCIÓN Y EXPLOTACIÓN DE BIBLIOTECAS, ARCHIVOS Y MUSEOS. SERVICIOS DE CAPTURA DE INFORMACIÓN POR MEDIOS ELECTRÓNICOS, INFORMÁTICOS Y TELEMÁTICOS. SERVICIOS DE DESARROLLO Y MANTENIMIENO DE PROGRAMAS INFORMÁTICOS, ASÍ COMO DE EQUIPOS E INSTALACIONES INFORMÁTICAS Y DE TELECOMUNICACIONES. SERVICIOS DE COMUNICACIÓN DE VOZ Y/O DATOS, ALQUILER DE CIRCUITOS PARA LA TRANSMISIÓN DE VOZ Y/O DATOS, LA PROVISIÓN DE LOS MEDIOS TÉCNIOS Y HUMANOS NECESARIOS PARA QUE LOS USUARIOS FINALES DE LAS REDES DE TELECOMUNICACIONES ACCEDAN Y TENGAN PRESENCIA EN INTERNET Y OTOS SERVICIOS DE VALOR AÑADIDO SOBRE REDES DE TELECOMUNICACONES. TRABAJOS ASOCIADOS A LA PUESTA EN FUNCIONAMIENTO, EL SEGUIMIENTO, LA GESTIÓN Y CONTROL DE EQUIPOS Y SISTEMAS INFORMÁTICOS  Y DE LAS INFRAESTRUCTURAS TELEMÁTICAS, NECESARIAS PARA LA ADECUADA EXPLOTACIÓN DE PROGRAMAS Y APLICACIONES INFORMÁTICAS. SERVICIO DE RECADERÍA, DE REPARTO Y MANIPULACIÓN DE CORRESPONDENCIA, ASÍ COMO LOS DE DISTRIBUCIÓN DE PAQUETERÍA, PUBLICACIONES Y MATERIAL DE ARTES GRÁFICAS. TRABAJOS DE MANTENIMIENTO Y REPARACIÓN DE EQUIPOS Y MAQUINARIA DE OFICINA. TRABAJOS DE MANTENIMIENTO Y REPARACIÓN DE EQUIPOS DE CONTROL DE ACCESOS, DE CONTROL DE INTRUSIÓN Y PRESENCIA, DE DETECCIÓN DE ELEMENTOS METÁLICOS, DE CONTROL DE CORRESPONDENCIA Y PAQUETERÍA Y LOS DE DETECCIÓN Y EXTINCIÓN DE INCENDIOS, ASÍ COMO LAS INSTALACIONES DE ALARMA DE TODO TIPO. TRABAJOS DE CONSERVACIÓN Y MANTENIMIENTO DE BANCOS, MESAS, PAPELERAS Y CUALQUIER TIPO DE ELEMENTO O CONSTRUCCIÓN QUE TENGA CARÁCTER DE MOBILIARIO URBANO. TRABAJOS DE CONSERVACIÓN Y MANTENIMIENTO DE EDIFICIOS. LOS TRABAJOS INHERENTES A LA ORGANIZACIÓN Y PROMOCIÓN DE CONGRESOS, FERIAS Y EXPOSICIONES, TALES COMO LA DISPOSICIÓN Y DISTRIBUCIÓN DE ESPACIOS, LOS SERVICIOS DE AZAFATAS, INFORMACIÓN Y PROGRAMACIÓN DE ACTOS. ASESORAMIENTO Y GESTIÓN DE AYUDAS Y SUBVENCIONES. SERVICIOS DE CONSULTORÍA, ASESORAMIENTO E INFORMACIÓN, TANTO A PERSONAS FÍSICAS COMO JURÍDICAS, PÚBLICAS O PRIVADAS, COMPRENDIENDO TODO TIPO DE GESTIÓN, TRAMITACIÓN Y OBTENCIÓN, TANTO DE FINANCIACIÓN PÚBLICA COMO PRIVADA. LOS TRABAJOS DE LIMPIEZA DE DIFICIOS, LOCALES, CALLES, VIALES, PISTAS, MONTES, JARDINES, PLAYAS Y ALCANTARILLAS ",
      "mainEntityOfPage": "https://www.contratacion.euskadi.eus/webkpe00-kperoc/es/ac71aBusquedaRegistrosWar/empresa/04925",
      "_links": {
        "self": {
          "name": "HABYCO XXI, S.A.",
          "href": "https://api.euskadi.eus/procurements/companies/04925"
        }
      }
    },
    {
      "name": "ASMATU XXI COMUNICACIÓN Y MARKETING, S.L.",
      "registrationNumber": "02516",
      "identificationNumber": "B20643797",
      "address": "POLÍGONO MASTI-LOIDI, 17 - PABELLÓN B",
      "location": {
        "postalCode": "20100",
        "municipality": "Errenteria",
        "county": "Gipuzkoa",
        "municipalityId": "067",
        "countyId": "20"
      },
      "economicActivities": [
        {
          "id": "1.844",
          "name": "Servicios de publicidad, relaciones públicas y similares",
          "_links": {
            "self": {
              "name": "Servicios de publicidad, relaciones públicas y similares",
              "href": "https://api.euskadi.eus/procurements/companies/economic-activities/1.844"
            }
          }
        }
      ],
      "certificateStartDate": "2013-12-09",
      "certificateEndDate": "2014-05-07",
      "object": "LAS ACTIVIDADES RELATIVAS CON LA PUBLICIDAD, LA COMUNICACIÓN Y EL MARKETING DIRECTO; SERVICIO DE MENSAJERÍA, CORRESPONDENCIA Y DISTRIBUCIÓN. ENCUADERNACIÓN Y MANIPULACIÓN DE PACKAGING",
      "mainEntityOfPage": "https://www.contratacion.euskadi.eus/webkpe00-kperoc/es/ac71aBusquedaRegistrosWar/empresa/02516",
      "_links": {
        "self": {
          "name": "ASMATU XXI COMUNICACIÓN Y MARKETING, S.L.",
          "href": "https://api.euskadi.eus/procurements/companies/02516"
        }
      }
    },
    {
      "name": "LORENZO SEGUI TRIAY",
      "registrationNumber": "05116",
      "identificationNumber": "41498537M",
      "address": "S'ARRAVALETA, 13 A - 1º",
      "location": {
        "postalCode": "07702",
        "municipality": "Maó",
        "county": "Balears, Illes",
        "municipalityId": "032",
        "countyId": "07"
      },
      "economicActivities": [
        {
          "id": "2.411",
          "name": "Arquitectos",
          "_links": {
            "self": {
              "name": "Arquitectos",
              "href": "https://api.euskadi.eus/procurements/companies/economic-activities/2.411"
            }
          }
        }
      ],
      "certificateStartDate": "2013-12-09",
      "certificateEndDate": "2014-04-08",
      "object": "ARQUITECTOS",
      "mainEntityOfPage": "https://www.contratacion.euskadi.eus/webkpe00-kperoc/es/ac71aBusquedaRegistrosWar/empresa/05116",
      "_links": {
        "self": {
          "name": "LORENZO SEGUI TRIAY",
          "href": "https://api.euskadi.eus/procurements/companies/05116"
        }
      }
    },
    {
      "name": "CONSTRUCCIONES Y PROYECTOS PAGOLAR, S.L.",
      "registrationNumber": "01172",
      "identificationNumber": "B01034529",
      "address": "C/ ZUBIAUR, Nº 7 -1º C.",
      "location": {
        "postalCode": "01400",
        "municipality": "Laudio/Llodio",
        "county": "Araba/Álava",
        "municipalityId": "036",
        "countyId": "01"
      },
      "economicActivities": [
        {
          "id": "1.507",
          "name": "Construcción, reparación y conservación de toda clase obras",
          "_links": {
            "self": {
              "name": "Construcción, reparación y conservación de toda clase obras",
              "href": "https://api.euskadi.eus/procurements/companies/economic-activities/1.507"
            }
          }
        },
        {
          "id": "1.833.2",
          "name": "Promoción de edificaciones",
          "_links": {
            "self": {
              "name": "Promoción de edificaciones",
              "href": "https://api.euskadi.eus/procurements/companies/economic-activities/1.833.2"
            }
          }
        }
      ],
      "certificateStartDate": "2013-12-02",
      "certificateEndDate": "2014-06-02",
      "object": "LA ELABORACIÓN DE PROYECTOS Y OBRAS DE CONSTRUCCIÓN EN EDIFICACIÓN Y DECORACIONES. CUALESQUIERA OTRAS ACTIVIDADES QUE SEAN PREPARATORIAS, COMPLEMENTARIAS O DERIVADAS DE LAS PRINCIPALES O QUE GUARDEN CON ELLAS RELACIÓN DE CONEXIÓN O DEPENDENCIA",
      "mainEntityOfPage": "https://www.contratacion.euskadi.eus/webkpe00-kperoc/es/ac71aBusquedaRegistrosWar/empresa/01172",
      "_links": {
        "self": {
          "name": "CONSTRUCCIONES Y PROYECTOS PAGOLAR, S.L.",
          "href": "https://api.euskadi.eus/procurements/companies/01172"
        }
      }
    },
    {
      "name": "CONSTRULAN DEBAGOIENA, S.L.",
      "registrationNumber": "04423",
      "identificationNumber": "B75013664",
      "address": "AVDA.  ALAVA, 40 - BAJO",
      "location": {
        "postalCode": "20550",
        "municipality": "Aretxabaleta",
        "county": "Gipuzkoa",
        "municipalityId": "013",
        "countyId": "20"
      },
      "economicActivities": [
        {
          "id": "1.501.1",
          "name": "Construcción completa, reparación y conservación de edificaciones",
          "_links": {
            "self": {
              "name": "Construcción completa, reparación y conservación de edificaciones",
              "href": "https://api.euskadi.eus/procurements/companies/economic-activities/1.501.1"
            }
          }
        }
      ],
      "certificateStartDate": "2013-11-29",
      "certificateEndDate": "2014-05-26",
      "object": "TRABAJOS DE CONSTRUCCIÓN EN GENERAL",
      "mainEntityOfPage": "https://www.contratacion.euskadi.eus/webkpe00-kperoc/es/ac71aBusquedaRegistrosWar/empresa/04423",
      "_links": {
        "self": {
          "name": "CONSTRULAN DEBAGOIENA, S.L.",
          "href": "https://api.euskadi.eus/procurements/companies/04423"
        }
      }
    },
    {
      "name": "SUL, S.A.L.",
      "registrationNumber": "00843",
      "identificationNumber": "A48269195",
      "address": "POL. IND. AURRERÁ, MÓD. 36",
      "location": {
        "postalCode": "48510",
        "municipality": "Valle de Trápaga-Trapagaran",
        "county": "Bizkaia",
        "municipalityId": "080",
        "countyId": "48"
      },
      "economicActivities": [
        {
          "id": "1.616.6",
          "name": "Venta al por mayor de productos químicos industriales",
          "_links": {
            "self": {
              "name": "Venta al por mayor de productos químicos industriales",
              "href": "https://api.euskadi.eus/procurements/companies/economic-activities/1.616.6"
            }
          }
        }
      ],
      "certificateStartDate": "2013-11-27",
      "certificateEndDate": "2013-11-27",
      "object": "LA COMPRA, VENTA, IMPORTACIÓN, EXPORTACIÓN, COMERCIALIZACIÓN, DISTRIBUCIÓN Y ALMACENAMIENTO DE TODA CLASE DE BIENES Y PRODUCTOS QUÍMICOS Y DE LABORATORIO, ASÍ COMO CUALQUIER OTRA ACTIVIDAD RELACIONADA CON LOS MISMOS",
      "mainEntityOfPage": "https://www.contratacion.euskadi.eus/webkpe00-kperoc/es/ac71aBusquedaRegistrosWar/empresa/00843",
      "_links": {
        "self": {
          "name": "SUL, S.A.L.",
          "href": "https://api.euskadi.eus/procurements/companies/00843"
        }
      }
    }
  ]
}