{
  "totalItems": 9042,
  "totalPages": 905,
  "currentPage": 789,
  "itemsOfPage": 10,
  "items": [
    {
      "name": "F. COLOR TEMPO, S.L.",
      "registrationNumber": "02496",
      "identificationNumber": "B48547574",
      "address": "C/ ANDRA MARI, 37",
      "location": {
        "postalCode": "48195",
        "municipality": "Larrabetzu",
        "county": "Bizkaia",
        "municipalityId": "052",
        "countyId": "48"
      },
      "economicActivities": [
        {
          "id": "1.493",
          "name": "Laboratorios fotográficos y cinematográficos",
          "_links": {
            "self": {
              "name": "Laboratorios fotográficos y cinematográficos",
              "href": "https://api.euskadi.eus/procurements/companies/economic-activities/1.493"
            }
          }
        },
        {
          "id": "1.619.2",
          "name": "Venta al por mayor de aparatos e instrumentos médicos, ortopédicos, ópticos",
          "_links": {
            "self": {
              "name": "Venta al por mayor de aparatos e instrumentos médicos, ortopédicos, ópticos",
              "href": "https://api.euskadi.eus/procurements/companies/economic-activities/1.619.2"
            }
          }
        }
      ],
      "certificateStartDate": "2004-12-10",
      "certificateEndDate": "2005-05-09",
      "object": "LA MANIPULACIÓN, INTERVENCIÓN Y REVELADO DE PELÍCULAS, CARRETES FOTOGRÁFICOS, VÍDEOS Y DIAPOSITIVAS; ASÍ COMO LA COMPRAVENTA DE TODO TIPO DE GÉNERO DE MATERIAS PRIMAS Y PRODUCTOS FOTO-ÓPTICOS.",
      "mainEntityOfPage": "https://www.contratacion.euskadi.eus/webkpe00-kperoc/es/ac71aBusquedaRegistrosWar/empresa/02496",
      "_links": {
        "self": {
          "name": "F. COLOR TEMPO, S.L.",
          "href": "https://api.euskadi.eus/procurements/companies/02496"
        }
      }
    },
    {
      "name": "GRÁFICAS ZUBI, S.L.",
      "registrationNumber": "00486",
      "identificationNumber": "B20073839",
      "address": "C/ ARRETXE, Nº 11. LANDETA AUZOA.",
      "location": {
        "postalCode": "20730",
        "municipality": "Azpeitia",
        "county": "Gipuzkoa",
        "municipalityId": "018",
        "countyId": "20"
      },
      "economicActivities": [
        {
          "id": "1.474",
          "name": "Artes gráficas (impresión gráfica)",
          "_links": {
            "self": {
              "name": "Artes gráficas (impresión gráfica)",
              "href": "https://api.euskadi.eus/procurements/companies/economic-activities/1.474"
            }
          }
        }
      ],
      "certificateStartDate": "2004-12-07",
      "certificateEndDate": "2005-05-22",
      "object": "LA EXPLOTACIÓN DE UN NEGOCIO DEDICADO A ARTES GRÁFICAS Y ACTIVIDADES ANEXAS",
      "mainEntityOfPage": "https://www.contratacion.euskadi.eus/webkpe00-kperoc/es/ac71aBusquedaRegistrosWar/empresa/00486",
      "_links": {
        "self": {
          "name": "GRÁFICAS ZUBI, S.L.",
          "href": "https://api.euskadi.eus/procurements/companies/00486"
        }
      }
    },
    {
      "name": "EUSKAL MARKETING, S.L.",
      "registrationNumber": "00547",
      "identificationNumber": "B48213458",
      "address": "C/ JAÉN, Nº 1 - 1º.",
      "location": {
        "postalCode": "48012",
        "municipality": "Bilbao",
        "county": "Bizkaia",
        "municipalityId": "020",
        "countyId": "48"
      },
      "economicActivities": [
        {
          "id": "1.844",
          "name": "Servicios de publicidad, relaciones públicas y similares",
          "_links": {
            "self": {
              "name": "Servicios de publicidad, relaciones públicas y similares",
              "href": "https://api.euskadi.eus/procurements/companies/economic-activities/1.844"
            }
          }
        }
      ],
      "certificateStartDate": "2004-12-01",
      "certificateEndDate": "2005-04-19",
      "object": "LA PUBLICIDAD EN GENERAL",
      "mainEntityOfPage": "https://www.contratacion.euskadi.eus/webkpe00-kperoc/es/ac71aBusquedaRegistrosWar/empresa/00547",
      "_links": {
        "self": {
          "name": "EUSKAL MARKETING, S.L.",
          "href": "https://api.euskadi.eus/procurements/companies/00547"
        }
      }
    },
    {
      "name": "GRUPO U SISTEMAS Y COMUNICACIONES, S.L.",
      "registrationNumber": "01903",
      "identificationNumber": "B48717599",
      "address": "C/ MONCADA, Nº 9 - 2º DCHA.",
      "location": {
        "postalCode": "48002",
        "municipality": "Bilbao",
        "county": "Bizkaia",
        "municipalityId": "020",
        "countyId": "48"
      },
      "economicActivities": [
        {
          "id": "1.979.9",
          "name": "Otros servicios personales n.c.o.p",
          "_links": {
            "self": {
              "name": "Otros servicios personales n.c.o.p",
              "href": "https://api.euskadi.eus/procurements/companies/economic-activities/1.979.9"
            }
          }
        }
      ],
      "certificateStartDate": "2004-12-01",
      "certificateEndDate": "2005-05-25",
      "object": "TODA CLASE DE TRABAJOS RELACIONADOS CON LA CORRESPONDENCIA, ENSOBRADOS, MANIPULADOS, PERSONALIZADOS, IMPRESIONES, PLASTIFICADOS DE DOCUMENTOS Y REVISTAS; REPARTOS Y BUZONEOS; PREPARACIÓN DE CARTAS Y SOBRES, ENTREGA DE DOCUMENTOS CON NOTIFICACIÓN, DISTRIBUCIÓN, TRANSPORTE DE VALIJAS Y PAQUETERÍA",
      "mainEntityOfPage": "https://www.contratacion.euskadi.eus/webkpe00-kperoc/es/ac71aBusquedaRegistrosWar/empresa/01903",
      "_links": {
        "self": {
          "name": "GRUPO U SISTEMAS Y COMUNICACIONES, S.L.",
          "href": "https://api.euskadi.eus/procurements/companies/01903"
        }
      }
    },
    {
      "name": "CONSTRUCCIONES LUCINIO FERNÁNDEZ, S.A.",
      "registrationNumber": "00005",
      "identificationNumber": "A01017169",
      "address": "C/ GENERAL ÁLAVA, Nº 6 - BAJO.",
      "location": {
        "postalCode": "01005",
        "municipality": "Vitoria-Gasteiz",
        "county": "Araba/Álava",
        "municipalityId": "059",
        "countyId": "01"
      },
      "economicActivities": [
        {
          "id": "1.501.1",
          "name": "Construcción completa, reparación y conservación de edificaciones",
          "_links": {
            "self": {
              "name": "Construcción completa, reparación y conservación de edificaciones",
              "href": "https://api.euskadi.eus/procurements/companies/economic-activities/1.501.1"
            }
          }
        },
        {
          "id": "1.833.2",
          "name": "Promoción de edificaciones",
          "_links": {
            "self": {
              "name": "Promoción de edificaciones",
              "href": "https://api.euskadi.eus/procurements/companies/economic-activities/1.833.2"
            }
          }
        }
      ],
      "certificateStartDate": "2004-11-23",
      "certificateEndDate": "2005-04-15",
      "object": "OBRAS CIVILES E INSTALACIONES ELÉCTRICAS",
      "mainEntityOfPage": "https://www.contratacion.euskadi.eus/webkpe00-kperoc/es/ac71aBusquedaRegistrosWar/empresa/00005",
      "_links": {
        "self": {
          "name": "CONSTRUCCIONES LUCINIO FERNÁNDEZ, S.A.",
          "href": "https://api.euskadi.eus/procurements/companies/00005"
        }
      }
    },
    {
      "name": "ÓPTIMA COMUNICACIÓN, PUBLICIDAD Y GESTIÓN, S.L.",
      "registrationNumber": "02932",
      "identificationNumber": "B95292405",
      "address": "BIZKAIKO PARKE TEKNOLOGIKOA, LAIDA BIDEA, 206-A",
      "location": {
        "postalCode": "48170",
        "municipality": "Zamudio",
        "county": "Bizkaia",
        "municipalityId": "905",
        "countyId": "48"
      },
      "economicActivities": [
        {
          "id": "1.845",
          "name": "Explotación electrónica por cuenta de terceros",
          "_links": {
            "self": {
              "name": "Explotación electrónica por cuenta de terceros",
              "href": "https://api.euskadi.eus/procurements/companies/economic-activities/1.845"
            }
          }
        }
      ],
      "certificateStartDate": "2004-11-15",
      "certificateEndDate": "2005-05-09",
      "object": "A) DESARROLLO INFORMÁTICO DE PROGRAMAS, ORIENTADOS PRINCIPALMENTE A LA COMUNICACIÓN ESCRITA, QUE GENERAN DOCUMENTOS DIGITALES; GESTIÓN INFORMÁTICA Y ALMACENAMIENTO DE DOCUMENTOS DIGITALES; IMPRESIÓN DIGITAL Y PERSONALIZACIÓN DE DOCUMENTOS, SERVICIOS DE CONSULTORÍA INFORMÁTICA; SERVICIOS DE PUBLICIDAD Y MARKETING; DISEÑO Y DESARROLLO DE JUEGOS PROMOCIONALES; SUBCONTRATACIÓN DE DIVERSOS PRODUCTOS DE ARTES GRÁFICAS Y SUBCONTRATACIÓN DE SERVICIOS RELACIONADOS  CON LAS ACTIVIDADES ANTERIORMENTE DESCRITAS COMO DISTRIBUCIÓN, ACABADOS, FRANQUEO, TRATAMIENTO DE BASES DE DATOS:\r\n\r\nB) INSTALACIÓN DE REDES LOCALES, PRESTACIÓN DE SERVICIOS DE  INTERNET, CONFECCIÓN Y COMERCIALIZACIÓN DE TODA CLASE DE PROGRAMAS, EDICIÓN Y DISEÑO GRÁFICO POR ORDENADOR, MECANOGRAFIADO DE TEXTOS, REALIZACIÓN DE DIBUJOS, PROYECTOS, MAQUETAS, CAPTURAS DE IMÁGENES Y RETOQUES FOTOGRÁFICOS, TODO ELLO REALIZABLE POR ORDENADOR.\r\n\r\nC) LA COMPRA, VENTA Y ARRENDAMIENTO DE TODA CLASE DE INMUEBLES.\r\n\r\nLA SOCIEDAD PODRÁ REALIZAR LAS ACTIVIDADES QUE CONSTITUYEN SU OBJETO, TOTAL O PARCIALMENTE DE UNA FORMA DIRECTA O MEDIANTE LA PARTICIPACIÓN EN OTRAS SOCIEDADES O ENTIDADES CON O SIN PERSONALIDAD JURÍDICA.\r\nQUEDAN EXCLUÍDAS TODAS AQUELLAS ACTIVIDADES PARA CUYO EJERCICIO LA LEY EXIJA REQUISITOS ESPECIALES, QUE NO QUEDEN CUMPLIDOS POR ESTA SOCIEDAD, AUNQUE ESAS ACTIVIDADES  PODRÁN SER DESARROLLADAS EN FORMA PARCIAL O INDIRECTAMENTE MEDIANTE LA TITULARIDAD DE ACCIONES O PARTICIPACIONES DE OTRAS SOCIEDADES CON ESE OBJETO  ",
      "mainEntityOfPage": "https://www.contratacion.euskadi.eus/webkpe00-kperoc/es/ac71aBusquedaRegistrosWar/empresa/02932",
      "_links": {
        "self": {
          "name": "ÓPTIMA COMUNICACIÓN, PUBLICIDAD Y GESTIÓN, S.L.",
          "href": "https://api.euskadi.eus/procurements/companies/02932"
        }
      }
    },
    {
      "name": "ASOCIACIÓN DE REINSERCIÓN SOCIAL \"GAZTAROA\"",
      "registrationNumber": "02602",
      "identificationNumber": "G48211080",
      "address": "C/ BAILÉN, 5 SÓTANO  IZDA.",
      "location": {
        "postalCode": "48003",
        "municipality": "Bilbao",
        "county": "Bizkaia",
        "municipalityId": "020",
        "countyId": "48"
      },
      "economicActivities": [
        {
          "id": "1.934",
          "name": "Enseñanza fuera de establecimiento permanente",
          "_links": {
            "self": {
              "name": "Enseñanza fuera de establecimiento permanente",
              "href": "https://api.euskadi.eus/procurements/companies/economic-activities/1.934"
            }
          }
        }
      ],
      "certificateStartDate": "2004-11-11",
      "certificateEndDate": "2005-04-07",
      "object": "LA PROMOCIÓN Y DESARROLLO DE ACTIVIDADES Y SERVICIOS, ENCAMINADOS A CONSEGUIR LA PLENA REINSERCIÓN SOCIAL DE PERSONAS EN SITUACIÓN DE MARGINACIÓN O RIESGO DE CAER EN ELLA. PARA ESTO, ACOGER, VALORAR, ORIENTAR Y ACOMPAÑAR EN SU PROCESO DE REINSERCIÓN PLENA A TODOS ELLOS. \r\nEN ESTE SENTIDO, ESTA ASOCIACIÓN CONTEMPLA, ENTRE SUS OBJETIVOS, LA POSIBILIDAD DE EJERCER FUNCIONES DE ASESORÍA DE ENTIDADES PARTICULARES Y PÚBLICAS QUE, DIRECTA E INDIRECTAMENTE, PUEDAN APORTAR SUS POSIBILIDADES A LOS FINES DE ESTA ASOCIACIÓN, ENCARGÁNDOSE PARA ELLO DE LA GESTIÓN ADECUADA: ASÍ COMO LA PROMOCIÓN DE INICIATIVAS QUE CONVENGAN AL MEJOR FIN DE LA ENTIDAD.\r\n",
      "mainEntityOfPage": "https://www.contratacion.euskadi.eus/webkpe00-kperoc/es/ac71aBusquedaRegistrosWar/empresa/02602",
      "_links": {
        "self": {
          "name": "ASOCIACIÓN DE REINSERCIÓN SOCIAL \"GAZTAROA\"",
          "href": "https://api.euskadi.eus/procurements/companies/02602"
        }
      }
    },
    {
      "name": "CONSTRUCCIONES EGIN, S.L.",
      "registrationNumber": "01470",
      "identificationNumber": "B48104095",
      "address": "C/ KAREAGA GOIKOA, Nº 21 - BAJO.",
      "location": {
        "postalCode": "48970",
        "municipality": "Basauri",
        "county": "Bizkaia",
        "municipalityId": "015",
        "countyId": "48"
      },
      "economicActivities": [
        {
          "id": "1.501.1",
          "name": "Construcción completa, reparación y conservación de edificaciones",
          "_links": {
            "self": {
              "name": "Construcción completa, reparación y conservación de edificaciones",
              "href": "https://api.euskadi.eus/procurements/companies/economic-activities/1.501.1"
            }
          }
        },
        {
          "id": "1.501.2",
          "name": "Construcción completa, reparación y conservación obras civiles",
          "_links": {
            "self": {
              "name": "Construcción completa, reparación y conservación obras civiles",
              "href": "https://api.euskadi.eus/procurements/companies/economic-activities/1.501.2"
            }
          }
        }
      ],
      "certificateStartDate": "2004-11-08",
      "certificateEndDate": "2005-04-22",
      "object": "LA REALIZACIÓN Y EJECUCIÓN DE OBRAS URBANAS DE TODO TIPO POR CUENTA PROPIA Y AJENA, ASÍ COMO CUANTO DIRECTA O INDIRECTAMENTE SE RELACIONE CON SU OBJETO PRINCIPAL Y FACILITE O FAVOREZCA EL CUMPLIMIENTO DEL MISMO",
      "mainEntityOfPage": "https://www.contratacion.euskadi.eus/webkpe00-kperoc/es/ac71aBusquedaRegistrosWar/empresa/01470",
      "_links": {
        "self": {
          "name": "CONSTRUCCIONES EGIN, S.L.",
          "href": "https://api.euskadi.eus/procurements/companies/01470"
        }
      }
    },
    {
      "name": "GEROA INFORMATICA, S.L.",
      "registrationNumber": "02927",
      "identificationNumber": "B20190070",
      "address": "ASTIGARRAGAKO BIDEA, 2 -5ºP. OFI. 2",
      "location": {
        "postalCode": "20180",
        "municipality": "Oiartzun",
        "county": "Gipuzkoa",
        "municipalityId": "063",
        "countyId": "20"
      },
      "economicActivities": [
        {
          "id": "1.659.2",
          "name": "Venta al por menor de muebles de oficina y máquinas y equipos de oficina",
          "_links": {
            "self": {
              "name": "Venta al por menor de muebles de oficina y máquinas y equipos de oficina",
              "href": "https://api.euskadi.eus/procurements/companies/economic-activities/1.659.2"
            }
          }
        }
      ],
      "certificateStartDate": "2004-11-08",
      "certificateEndDate": "2005-03-27",
      "object": "LA COMPRA, VENTA, ALQUILER Y MANTENIMIENTO DE EQUIPOS ELECTRÓNICOS Y AUXILIARES; COMPRA, VENTA, PRODUCCIÓN Y EXPLOTACIÓN DE APLICACIONES Y PROGRAMAS INFORMÁTICOS, ENSEÑANZA DE PROGRAMACIÓN Y UTILIZACIÓN DE ORDENADORES Y PROGRAMAS. ESTA DETERMINZACIÓN DEL OBJETO SOCIAL SE ENTIENDE SIN PERJUICIO DE PODER REALIZAR  EN LO SUCESIVO CUALESQUIERA OTRAS OPERACIONES LÍCITAS CON EL ÚNICO REQUISITO DE QUE ASÍ LO ACUERDE LA JUNTA GENERAL ",
      "mainEntityOfPage": "https://www.contratacion.euskadi.eus/webkpe00-kperoc/es/ac71aBusquedaRegistrosWar/empresa/02927",
      "_links": {
        "self": {
          "name": "GEROA INFORMATICA, S.L.",
          "href": "https://api.euskadi.eus/procurements/companies/02927"
        }
      }
    },
    {
      "name": "CONSTRUCCIONES FELTAR, S.L. -SOCIEDAD UNIPERSONAL-",
      "registrationNumber": "02108",
      "identificationNumber": "B48870810",
      "address": "C/ AVENIDA LEHENDAKARI AGUIRRE, Nº 11 - 5º. DPTO.: 10.",
      "location": {
        "postalCode": "48014",
        "municipality": "Bilbao",
        "county": "Bizkaia",
        "municipalityId": "020",
        "countyId": "48"
      },
      "economicActivities": [
        {
          "id": "1.501.1",
          "name": "Construcción completa, reparación y conservación de edificaciones",
          "_links": {
            "self": {
              "name": "Construcción completa, reparación y conservación de edificaciones",
              "href": "https://api.euskadi.eus/procurements/companies/economic-activities/1.501.1"
            }
          }
        }
      ],
      "certificateStartDate": "2004-11-05",
      "certificateEndDate": "2005-04-25",
      "object": "LA EJECUCIÓN Y PROMOCIÓN COMPLETA O POR RAMOS DE TODA CLASE DE OBRAS DE CONSTRUCCIÓN, URBANIZACIÓN Y SERVICIOS, REPARACIÓN O CONSERVACIÓN, POR CUENTA PROPIA O AJENA, EJECUCIÓN DE OBRAS CON EL ESTADO, MUNICIPIOS O PARTICULARES Y ENTIDADES OFICIALES, INCLUSO VIVIENDA Y LOCALES COMERCIALES DE LAS LLAMADAS DE PROTECCIÓN OFICIAL. LA URBANIZACIÓN Y PARCELACIÓN DE TERRENOS CONFORME A LOS PLANES DE ORDENACIÓN URBANÍSTICA APROBADOS POR LAS AUTORIDADES COMPETENTES EN LOS POLÍGONOS Y ZONAS DE ACTUACIÓN QUE AL EFECTO SEAN DESIGNADAS Y LA REPARCELACIÓN DE DICHOS TERRENOS URBANÍSTICOS Y EN SU CASO, EDIFICACIÓN Y VENTA DE LOS MISMOS O DE LAS EDIFICACIONES Y OBRAS DE URBANIZACIÓN Y SERVICIOS A CUYO OBJETO PODRÁ FORMAR PARTE DE ASOCIACIONES DE PROPIETARIOS, EMPRESAS MIXTAS Y ENTIDADES URBANÍSTICAS COLABORADORAS QUE PUEDAN REGLAMENTARSE A LOS EXPRESADOS FINES. ASIMISMO LA SOCIEDAD PODRÁ ADQUIRIR, ENAJENAR Y ARRENDAR BIENES INMUEBLES (CONCRETAMENTE LOS DETERMINADOS EN EL ARTÍCULO 334.1 DEL CÓDIGO CIVIL), ACCIONES PARTICIPACIONES SOCIALES, OBLIGACIONES, BONOS DE CAJA, CERTIFICADOS DE DEPÓSITO Y PAGARÉS DE TODA CLASE DE EMPRESAS O NEGOCIOS",
      "mainEntityOfPage": "https://www.contratacion.euskadi.eus/webkpe00-kperoc/es/ac71aBusquedaRegistrosWar/empresa/02108",
      "_links": {
        "self": {
          "name": "CONSTRUCCIONES FELTAR, S.L. -SOCIEDAD UNIPERSONAL-",
          "href": "https://api.euskadi.eus/procurements/companies/02108"
        }
      }
    }
  ]
}