{
  "totalItems": 9042,
  "totalPages": 905,
  "currentPage": 331,
  "itemsOfPage": 10,
  "items": [
    {
      "name": "URLAN BIOTEKNOLOGIA DEL AGUA, S.L.L.",
      "registrationNumber": "08416",
      "identificationNumber": "B95727020",
      "address": "Avenida Salsidu 31 trasera lonja",
      "location": {
        "postalCode": "48991",
        "municipality": "Getxo",
        "county": "Bizkaia",
        "municipalityId": "044",
        "countyId": "48"
      },
      "economicActivities": [
        {
          "id": "1.921.3",
          "name": "Exterminio de animales dañinos y desinfección",
          "_links": {
            "self": {
              "name": "Exterminio de animales dañinos y desinfección",
              "href": "https://api.euskadi.eus/procurements/companies/economic-activities/1.921.3"
            }
          }
        },
        {
          "id": "1.934",
          "name": "Enseñanza fuera de establecimiento permanente",
          "_links": {
            "self": {
              "name": "Enseñanza fuera de establecimiento permanente",
              "href": "https://api.euskadi.eus/procurements/companies/economic-activities/1.934"
            }
          }
        }
      ],
      "certificateStartDate": "2025-08-07",
      "certificateEndDate": "2026-08-11",
      "object": "PREVENCIÓN Y CONTROL DE LA LEGIONELOSIS EN INSTALACIONES DE RIESGO. DISEÑO, INSTALACIÓN Y VENTA DE EQUIPOS Y TRATAMIENTOS PARA EL CONTROL DE LA CALIDAD DEL AGUA. TRATAMIENTO Y DESINFECCIÓN DE AGUA. DISEÑO, CONSTRUCCIÓN Y MANTENIMIENTO DE PLANTAS DE DEPURACIÓN. TÉCNICAS DE BIOTECNOLOGÍA. ACTIVIDADES DE SANEAMIENTO, GESTIÓN DE RESIDUOS Y DESCONTAMINACIÓN. DESARROLLOS DE PRODUCTOS QUÍMICOS Y BIOCIDAS.",
      "mainEntityOfPage": "https://www.contratacion.euskadi.eus/webkpe00-kperoc/es/ac71aBusquedaRegistrosWar/empresa/08416",
      "_links": {
        "self": {
          "name": "URLAN BIOTEKNOLOGIA DEL AGUA, S.L.L.",
          "href": "https://api.euskadi.eus/procurements/companies/08416"
        }
      }
    },
    {
      "name": "REPARACIONES INDUSTRIALES SATELEC, S.L.",
      "registrationNumber": "08353",
      "identificationNumber": "B48492961",
      "address": "Poligono Industrial Granada 10",
      "location": {
        "postalCode": "48530",
        "municipality": "Ortuella",
        "county": "Bizkaia",
        "municipalityId": "083",
        "countyId": "48"
      },
      "economicActivities": [
        {
          "id": "1.692",
          "name": "Reparación de maquinaria industrial",
          "_links": {
            "self": {
              "name": "Reparación de maquinaria industrial",
              "href": "https://api.euskadi.eus/procurements/companies/economic-activities/1.692"
            }
          }
        }
      ],
      "certificateStartDate": "2025-08-07",
      "certificateEndDate": "2026-01-29",
      "object": "REPARACIÓN, MONTAJE Y JUNTA DE EQUIPOS INDUSTRIALES; PROYECTOS Y MEDICIONES, ASÍ COMO TODO LO RELACIONADO CON LA INGENIERÍA INDUSTRIAL.",
      "mainEntityOfPage": "https://www.contratacion.euskadi.eus/webkpe00-kperoc/es/ac71aBusquedaRegistrosWar/empresa/08353",
      "_links": {
        "self": {
          "name": "REPARACIONES INDUSTRIALES SATELEC, S.L.",
          "href": "https://api.euskadi.eus/procurements/companies/08353"
        }
      }
    },
    {
      "name": "MEDIA ATTACK GROUP, S.L.",
      "registrationNumber": "06585",
      "identificationNumber": "B95589008",
      "address": "C/ García Salazar 2, bajo derecha",
      "location": {
        "postalCode": "48003",
        "municipality": "Bilbao",
        "county": "Bizkaia",
        "municipalityId": "020",
        "countyId": "48"
      },
      "economicActivities": [
        {
          "id": "1.355.2",
          "name": "Edición de soportes grabados de sonido, vídeo y de informática",
          "_links": {
            "self": {
              "name": "Edición de soportes grabados de sonido, vídeo y de informática",
              "href": "https://api.euskadi.eus/procurements/companies/economic-activities/1.355.2"
            }
          }
        },
        {
          "id": "1.653.2",
          "name": "Venta al por menor de material y aparatos eléctricos, electrodomésticos y cocina",
          "_links": {
            "self": {
              "name": "Venta al por menor de material y aparatos eléctricos, electrodomésticos y cocina",
              "href": "https://api.euskadi.eus/procurements/companies/economic-activities/1.653.2"
            }
          }
        },
        {
          "id": "1.844",
          "name": "Servicios de publicidad, relaciones públicas y similares",
          "_links": {
            "self": {
              "name": "Servicios de publicidad, relaciones públicas y similares",
              "href": "https://api.euskadi.eus/procurements/companies/economic-activities/1.844"
            }
          }
        },
        {
          "id": "1.934",
          "name": "Enseñanza fuera de establecimiento permanente",
          "_links": {
            "self": {
              "name": "Enseñanza fuera de establecimiento permanente",
              "href": "https://api.euskadi.eus/procurements/companies/economic-activities/1.934"
            }
          }
        },
        {
          "id": "1.961.1",
          "name": "Producción de películas cinematográficas (incluso vídeos)",
          "_links": {
            "self": {
              "name": "Producción de películas cinematográficas (incluso vídeos)",
              "href": "https://api.euskadi.eus/procurements/companies/economic-activities/1.961.1"
            }
          }
        },
        {
          "id": "1.962.1",
          "name": "Distribución y venta de películas",
          "_links": {
            "self": {
              "name": "Distribución y venta de películas",
              "href": "https://api.euskadi.eus/procurements/companies/economic-activities/1.962.1"
            }
          }
        },
        {
          "id": "1.964.2",
          "name": "Servicios de televisión",
          "_links": {
            "self": {
              "name": "Servicios de televisión",
              "href": "https://api.euskadi.eus/procurements/companies/economic-activities/1.964.2"
            }
          }
        },
        {
          "id": "1.965.4",
          "name": "Empresas de espectáculos",
          "_links": {
            "self": {
              "name": "Empresas de espectáculos",
              "href": "https://api.euskadi.eus/procurements/companies/economic-activities/1.965.4"
            }
          }
        },
        {
          "id": "1.973.1",
          "name": "Servicios fotográficos",
          "_links": {
            "self": {
              "name": "Servicios fotográficos",
              "href": "https://api.euskadi.eus/procurements/companies/economic-activities/1.973.1"
            }
          }
        }
      ],
      "certificateStartDate": "2025-08-06",
      "certificateEndDate": "2026-02-06",
      "object": "- DISEÑO GRÁFICO, DE PÁGINAS WEB, DIGITAL, MULTIMEDIA Y OTROS. DISEÑO PUBLICITARIO, GESTIÓN Y SERVICIOS DE PUBLICIDAD EN GENERAL. MARKETING Y E-MARKETING, DISEÑO DE CAMPAÑAS DE MARKETING, ESTRATÉGICO Y ESTUDIOS RELACIONADOS CON DICHAS CAMPAÑAS. - VENTA AL POR MAYOR Y AL POR MENOR DE TODO TIPO DE ARTÍCULOS Y ACCESORIOS PARA EL EMPLEO DE CAMPAÑAS PUBLICITARIAS. - FORMACIÓN Y ASESORAMIENTO EN MATERIA DE PUBLICIDAD, MARKETING, DISEÑO EN TODOS SUS FORMATOS, PRODUCCIÓN AUDIOVISUAL Y TELECOMUNICACIONES EN GENERAL. - ORGANIZACIÓN, GESTIÓN, MONTAJE DE EVENTOS, ESPECTÁCULOS, CONCIERTOS, FESTIVALES, REPRESENTACIONES, CONGRESOS Y OTROS ACTOS PUBLICITARIOS. - TRABAJOS DE FOTOGRAFÍA ARTÍSTICA, PUBLICITARIA Y PERSONAL. - PRODUCCIÓN, DOBLAJE, SINCRONIZACIÓN Y MONTAJE DE PELÍCULAS O CINTAS CINEMATOGRÁFICAS Y VÍDEOS. SERVICIOS DE PRODUCCIÓN AUDIOVISUAL (TV) Y PRODUCCION AUDIOVISUAL POR INTERNET (TV POR INTERNET). - SERVICIOS DE RADIODIFUSIÓN, TELEVISIÓN Y SERVICIOS DE ENLACE Y TRANSMISIÓN DE SEÑALES DE TELEVISIÓN",
      "mainEntityOfPage": "https://www.contratacion.euskadi.eus/webkpe00-kperoc/es/ac71aBusquedaRegistrosWar/empresa/06585",
      "_links": {
        "self": {
          "name": "MEDIA ATTACK GROUP, S.L.",
          "href": "https://api.euskadi.eus/procurements/companies/06585"
        }
      }
    },
    {
      "name": "ENERGIEHAUS ARQUITECTOS-DISEÑO Y FORMACION DE EDIFICIOS PASIVOS SLP",
      "registrationNumber": "09023",
      "identificationNumber": "B66443490",
      "address": "Passatge General Bassols, 19",
      "location": {
        "postalCode": "08005",
        "municipality": "Barcelona",
        "county": "Barcelona",
        "municipalityId": "019",
        "countyId": "08"
      },
      "economicActivities": [
        {
          "id": "1.843.2",
          "name": "Servicios técnicos de arquitectura y urbanismo",
          "_links": {
            "self": {
              "name": "Servicios técnicos de arquitectura y urbanismo",
              "href": "https://api.euskadi.eus/procurements/companies/economic-activities/1.843.2"
            }
          }
        },
        {
          "id": "1.933.9",
          "name": "Otras actividades de enseñanza tales como idiomas, mecanografía",
          "_links": {
            "self": {
              "name": "Otras actividades de enseñanza tales como idiomas, mecanografía",
              "href": "https://api.euskadi.eus/procurements/companies/economic-activities/1.933.9"
            }
          }
        }
      ],
      "certificateStartDate": "2025-08-05",
      "certificateEndDate": "2026-02-05",
      "object": "PROYECTOS DE ARQUITECTURA, SESORAMIENTO, CONSULTORÍA ENERGÉTICA Y CIERTIFICACIÓN, PRESTACIÓN DE SERVICIOS EDUCATIVOS Y DE FORMACIÓN REGLADA Y NO REGLADA A TERCEROS. ESTA FORMACIÓN EXCLUSIVAMENTE ES EN EL ÁMBITO DE LA ARQUITECTURA, EDIFICACIÓN SOSTENIBLE Y EFICIENCIA ENERGÉTICA, DIRIGIDA A EMPRESAS PROFESIONALES, UNIVERSIDADES Y ESTUDIANTES DEL SECTOR DE LA ARQUITECTURA Y DE LA CONSTRUCCIÓN.",
      "mainEntityOfPage": "https://www.contratacion.euskadi.eus/webkpe00-kperoc/es/ac71aBusquedaRegistrosWar/empresa/09023",
      "_links": {
        "self": {
          "name": "ENERGIEHAUS ARQUITECTOS-DISEÑO Y FORMACION DE EDIFICIOS PASIVOS SLP",
          "href": "https://api.euskadi.eus/procurements/companies/09023"
        }
      }
    },
    {
      "name": "KONCEPTO DISEÑO Y COMUNICACIÓN, S.L.",
      "registrationNumber": "06561",
      "identificationNumber": "B95244216",
      "address": "PLAZA DEL DESIERTO, Nº 2 BAJO",
      "location": {
        "postalCode": "48901",
        "municipality": "Barakaldo",
        "county": "Bizkaia",
        "municipalityId": "013",
        "countyId": "48"
      },
      "economicActivities": [
        {
          "id": "1.844",
          "name": "Servicios de publicidad, relaciones públicas y similares",
          "_links": {
            "self": {
              "name": "Servicios de publicidad, relaciones públicas y similares",
              "href": "https://api.euskadi.eus/procurements/companies/economic-activities/1.844"
            }
          }
        }
      ],
      "certificateStartDate": "2025-08-04",
      "certificateEndDate": "2026-02-04",
      "object": "LA ACTIVIDAD DE SERVICIOS DE PUBLICIDAD. ESTUDIOS DE MERCADO. AGENCIA DE INTERMEDIACIÓN COMERCIAL, ASÍ COMO LA COMPRA-VENTA DE BIENES INMUEBLES",
      "mainEntityOfPage": "https://www.contratacion.euskadi.eus/webkpe00-kperoc/es/ac71aBusquedaRegistrosWar/empresa/06561",
      "_links": {
        "self": {
          "name": "KONCEPTO DISEÑO Y COMUNICACIÓN, S.L.",
          "href": "https://api.euskadi.eus/procurements/companies/06561"
        }
      }
    },
    {
      "name": "GAIZKA VILLANUEVA ALONSO",
      "registrationNumber": "07500",
      "identificationNumber": "72312999X",
      "address": "C/JUAN DE OLAZARAN Nº13 3ºD",
      "location": {
        "postalCode": "48200",
        "municipality": "Durango",
        "county": "Bizkaia",
        "municipalityId": "027",
        "countyId": "48"
      },
      "economicActivities": [
        {
          "id": "1.501.3",
          "name": "Albañilería y pequeños trabajos de construcción en general",
          "_links": {
            "self": {
              "name": "Albañilería y pequeños trabajos de construcción en general",
              "href": "https://api.euskadi.eus/procurements/companies/economic-activities/1.501.3"
            }
          }
        },
        {
          "id": "1.921.1",
          "name": "Servicios de limpieza en calles, vías públicas y jardines",
          "_links": {
            "self": {
              "name": "Servicios de limpieza en calles, vías públicas y jardines",
              "href": "https://api.euskadi.eus/procurements/companies/economic-activities/1.921.1"
            }
          }
        }
      ],
      "certificateStartDate": "2025-08-04",
      "certificateEndDate": "2026-01-29",
      "object": "CONSTRUCCIÓN COMPLETA, REPARACIÓN Y CONSERVACIÓN DE OBRAS CIVILES ",
      "mainEntityOfPage": "https://www.contratacion.euskadi.eus/webkpe00-kperoc/es/ac71aBusquedaRegistrosWar/empresa/07500",
      "_links": {
        "self": {
          "name": "GAIZKA VILLANUEVA ALONSO",
          "href": "https://api.euskadi.eus/procurements/companies/07500"
        }
      }
    },
    {
      "name": "WOLFRATEX S.L.",
      "registrationNumber": "07318",
      "identificationNumber": "B75239020",
      "address": "Barrio San Juan, Poligono industrial larramendi 2",
      "location": {
        "postalCode": "20570",
        "municipality": "Bergara",
        "county": "Gipuzkoa",
        "municipalityId": "074",
        "countyId": "20"
      },
      "economicActivities": [
        {
          "id": "1.254.2",
          "name": "Fabricación de especialidades y otros productos farmacéuticos",
          "_links": {
            "self": {
              "name": "Fabricación de especialidades y otros productos farmacéuticos",
              "href": "https://api.euskadi.eus/procurements/companies/economic-activities/1.254.2"
            }
          }
        }
      ],
      "certificateStartDate": "2025-08-04",
      "certificateEndDate": "2026-02-02",
      "object": "A) LA FABRICACIÓN, COMERCIALIZACIÓN EN CUALQUIERA DE SUS FASES, IMPORTACIÓN, EXPORTACIÓN, Y VENTA AL POR MAYOR Y AL DETALLE DE MASCARILLAS QUIRÚRGICAS FABRICADAS DE ACUERDO A LAS DISPOSICIONES ESTABLECIDAS EN EL REAL DECRETO 1591/2009, DE 16 DE OCTUBRE, POR EL QUE SE REGULAN LOS PRODUCTOS SANITARIOS, O LA DIRECTIVA 93/42/CEE Y EL POSTERIOR REGLAMENTO REGLAMENTO (UE) 2017/745. B) LA FABRICACIÓN, COMERCIALIZACIÓN EN CUALQUIERA DE SUS FASES, IMPORTACIÓN, EXPORTACIÓN, Y VENTA AL POR MAYOR Y AL DETALLE DE MASCARILLAS DE PROTECCIÓN INDIVIDUAL FABRICADAS DE ACUERDO A LAS DISPOSICIONES RECOGIDAS EN EL REGLAMENTO (UE) 2016/425 DEL PARLAMENTO EUROPEO Y DEL CONSEJO RELATIVO A LOS EQUIPOS DE PROTECCIÓN INDIVIDUAL. C) LA IMPORTACIÓN, COMERCIALIZACIÓN, EXPORTACIÓN, Y VENTA AL POR MAYOR Y AL DETALLE DE EQUIPOS Y ROPA DE PROTECCIÓN INDIVIDUAL FABRICADOS DE ACUERDO A LAS DISPOSICIONES RECOGIDAS EN EL REGLAMENTO (UE) 2016/425 DEL PARLAMENTO EUROPEO Y DEL CONSEJO RELATIVO A LOS EQUIPOS DE PROTECCIÓN INDIVIDUAL). D) LA IMPORTACIÓN, COMERCIALIZACIÓN, EXPORTACIÓN, Y VENTA AL POR MAYOR Y AL DETALLE DE BATAS QUIRÚRGICAS Y GUANTES SANITARIOS DE ACUERDO A LAS DISPOSICIONES ESTABLECIDAS EN EL REAL DECRETO 1591/2009, DE 16 DE OCTUBRE, POR EL QUE SE REGULAN LOS PRODUCTOS SANITARIOS, LA DIRECTIVA 93/42/CEE, Y EL POSTERIOR REGLAMENTO REGLAMENTO (UE) 2017/745. E) LA REDACCIÓN, ELABORACIÓN Y EJECUCIÓN DE TODA CLASE DE ESTUDIOS Y PROYECTOS Y LA CREACIÓN DE DISEÑOS INDUSTRIALES Y COMERCIALES; LA DIRECCIÓN ASISTENCIA TÉCNICA, TRANSFERENCIA TECNOLÓGICA Y DE COMERCIALIZACIÓN, INSPECCIÓN, CONTROL Y ADMINISTRACIÓN EN TALES PROYECTOS Y ACTIVIDADES. F) LA TITULARIDAD, EXPLOTACIÓN O CESIÓN DE DISEÑOS Y DE LA PROPIEDAD INDUSTRIAL E INTELECTUAL EN TODAS SUS MODALIDADES Y CLASES. G) LA FABRICACIÓN, COMERCIALIZACIÓN EN CUALQUIERA DE SUS FASES, IMPORTACIÓN, EXPORTACIÓN, Y VENTA AL POR MAYOR Y AL DETALLE DE MATERIAS PRIMAS TEXTILES, HILADOS, TELAS, TEJIDOS, Y PRODUCTOS ACABADOS DE OTROS DISPOSITIVOS RESPIRADORES.",
      "mainEntityOfPage": "https://www.contratacion.euskadi.eus/webkpe00-kperoc/es/ac71aBusquedaRegistrosWar/empresa/07318",
      "_links": {
        "self": {
          "name": "WOLFRATEX S.L.",
          "href": "https://api.euskadi.eus/procurements/companies/07318"
        }
      }
    },
    {
      "name": "ABZ IMPRESION DIGITAL, S.L.",
      "registrationNumber": "08485",
      "identificationNumber": "B67912147",
      "address": "Huertas de la villa 26 - 28 bajo",
      "location": {
        "postalCode": "48007",
        "municipality": "Bilbao",
        "county": "Bizkaia",
        "municipalityId": "020",
        "countyId": "48"
      },
      "economicActivities": [
        {
          "id": "1.474.1",
          "name": "Impresión de textos o imágenes por cualquier procedimiento",
          "_links": {
            "self": {
              "name": "Impresión de textos o imágenes por cualquier procedimiento",
              "href": "https://api.euskadi.eus/procurements/companies/economic-activities/1.474.1"
            }
          }
        }
      ],
      "certificateStartDate": "2025-08-04",
      "certificateEndDate": "2026-02-01",
      "object": "ACTIVIDAD PRINCIPAL: OTRAS ACTIVIDADES DE IMPRESIÓN Y ARTES GRÁFICAS. OTRAS ACTIVIDADES: ARTES GRÁFICAS Y SERVICIOS RELACIONADOS CON LAS MISMAS.",
      "mainEntityOfPage": "https://www.contratacion.euskadi.eus/webkpe00-kperoc/es/ac71aBusquedaRegistrosWar/empresa/08485",
      "_links": {
        "self": {
          "name": "ABZ IMPRESION DIGITAL, S.L.",
          "href": "https://api.euskadi.eus/procurements/companies/08485"
        }
      }
    },
    {
      "name": "LIO OPHTEC ESPAÑA, SLU",
      "registrationNumber": "06005",
      "identificationNumber": "B85715068",
      "address": "Principe de Vergara, 73 7º Izda",
      "location": {
        "postalCode": "28006",
        "municipality": "Madrid",
        "county": "Madrid",
        "municipalityId": "079",
        "countyId": "28"
      },
      "economicActivities": [
        {
          "id": "1.619.2",
          "name": "Venta al por mayor de aparatos e instrumentos médicos, ortopédicos, ópticos",
          "_links": {
            "self": {
              "name": "Venta al por mayor de aparatos e instrumentos médicos, ortopédicos, ópticos",
              "href": "https://api.euskadi.eus/procurements/companies/economic-activities/1.619.2"
            }
          }
        }
      ],
      "certificateStartDate": "2025-08-03",
      "certificateEndDate": "2026-02-03",
      "object": "LA COMPRA Y VENTA DE HERRAMIENTAS OCULARES, LENTILLAS INTRAOCULARES Y OTRAS HERRAMIENTAS MÉDICAS Y PRODUCTOS DE DIAGNÓSTICO, TRATAMIENTO Y CURACIÓN DE ENFERMEDADES OCULARES",
      "mainEntityOfPage": "https://www.contratacion.euskadi.eus/webkpe00-kperoc/es/ac71aBusquedaRegistrosWar/empresa/06005",
      "_links": {
        "self": {
          "name": "LIO OPHTEC ESPAÑA, SLU",
          "href": "https://api.euskadi.eus/procurements/companies/06005"
        }
      }
    },
    {
      "name": "MEDICAL IBÉRICA, S.A.",
      "registrationNumber": "06520",
      "identificationNumber": "A78025293",
      "address": "CALLE LANZAHÍTA, 6. POL.IND. ALBARREJA",
      "location": {
        "postalCode": "28946",
        "municipality": "Fuenlabrada",
        "county": "Madrid",
        "municipalityId": "058",
        "countyId": "28"
      },
      "economicActivities": [
        {
          "id": "1.392.1",
          "name": "Fabricación de material médico-quirúrgico",
          "_links": {
            "self": {
              "name": "Fabricación de material médico-quirúrgico",
              "href": "https://api.euskadi.eus/procurements/companies/economic-activities/1.392.1"
            }
          }
        },
        {
          "id": "1.859",
          "name": "Alquiler de otros bienes muebles n.c.o.p. (sin personal permanente)",
          "_links": {
            "self": {
              "name": "Alquiler de otros bienes muebles n.c.o.p. (sin personal permanente)",
              "href": "https://api.euskadi.eus/procurements/companies/economic-activities/1.859"
            }
          }
        }
      ],
      "certificateStartDate": "2025-08-02",
      "certificateEndDate": "2026-02-02",
      "object": "VENTA AL POR MAYOR DE APARATOS MÉDICO-QUIRÚRGICOS, PUDIENDO POR TANTO REALIZAR OPERACIONES DE IMPORTACIÓN, EXPORTACIÓN, DISTRIBUCIÓN, REPRESENTACIÓN Y COMERCIALIZACIÓN DE TALES PRODUCTOS",
      "mainEntityOfPage": "https://www.contratacion.euskadi.eus/webkpe00-kperoc/es/ac71aBusquedaRegistrosWar/empresa/06520",
      "_links": {
        "self": {
          "name": "MEDICAL IBÉRICA, S.A.",
          "href": "https://api.euskadi.eus/procurements/companies/06520"
        }
      }
    }
  ]
}