{
  "totalItems": 9042,
  "totalPages": 905,
  "currentPage": 508,
  "itemsOfPage": 10,
  "items": [
    {
      "name": "VADRISA, S.A.",
      "registrationNumber": "00416",
      "identificationNumber": "A20096194",
      "address": "Bº DE LA FLORIDA, Nº 142",
      "location": {
        "postalCode": "20120",
        "municipality": "Hernani",
        "county": "Gipuzkoa",
        "municipalityId": "040",
        "countyId": "20"
      },
      "economicActivities": [
        {
          "id": "1.614.2",
          "name": "Venta al por mayor de productos de perfumería, droguería, higiene y belleza",
          "_links": {
            "self": {
              "name": "Venta al por mayor de productos de perfumería, droguería, higiene y belleza",
              "href": "https://api.euskadi.eus/procurements/companies/economic-activities/1.614.2"
            }
          }
        }
      ],
      "certificateStartDate": "2021-12-03",
      "certificateEndDate": "2022-05-15",
      "object": "LA COMERCIALIZACIÓN DE TODO TIPO DE PRODUCTOS DE LIMPIEZA E HIGIENE Y CUALQUIER PRODUCTO AFÍN AL MISMO, INCLUÍDA LA IMPORTACIÓN Y EXPORTACIÓN",
      "mainEntityOfPage": "https://www.contratacion.euskadi.eus/webkpe00-kperoc/es/ac71aBusquedaRegistrosWar/empresa/00416",
      "_links": {
        "self": {
          "name": "VADRISA, S.A.",
          "href": "https://api.euskadi.eus/procurements/companies/00416"
        }
      }
    },
    {
      "name": "MAGALHAES EIRAS, S.L.",
      "registrationNumber": "02798",
      "identificationNumber": "B95069068",
      "address": "C/APERRIBAI, 31",
      "location": {
        "postalCode": "48960",
        "municipality": "Galdakao",
        "county": "Bizkaia",
        "municipalityId": "036",
        "countyId": "48"
      },
      "economicActivities": [
        {
          "id": "1.912",
          "name": "Servicios forestales",
          "_links": {
            "self": {
              "name": "Servicios forestales",
              "href": "https://api.euskadi.eus/procurements/companies/economic-activities/1.912"
            }
          }
        }
      ],
      "certificateStartDate": "2021-11-29",
      "certificateEndDate": "2022-05-18",
      "object": "a) LAS ACTIVIDADES RELACIONADAS CON LA INDUSTRIA FORESTAL Y DE LA MADERA, COMPRENDIENDO ESPECIALMENTE, LA REPOBLACIÓN, CORTE, TRANSPORTE, MANIPULADO, COMPRA, VENTA, IMPORTACIÓN, EXPORTACIÓN, ALMACENAMIENTO, DISTRIBUCIÓN Y COMERCIALIZACIÓN DE ESPECIES ARBÓREAS. b) EL PROYECTO, EJECUCIÓN Y REMODELACIÓN DE PARQUES, JARDINES, BOSQUES Y ZONAS VERDES EN GENERAL Y MOVIMIENTO DE TIERRAS. c) LA CONSERVACIÓN MANTENIMIENTO Y ORNAMENTACIÓN DE JARDINES, TALUDES, MONTES, BOSQUES, CAMPOS DEPORTIVOS Y EN GENERAL ÁREAS DE ESPARCIMIENTO PÚBLICO. d) LA PRODUCCIÓN, MANIPULACIÓN Y COMERCIALIZACIÓN DE PLANTAS ORNAMENTALES, ASÍ COMO COMPLEMENTOS DE JARDINERÍA. e) LA COMPRA, VENTA, ALQUILER, COMERCIALIZACIÓN, DISTRIBUCIÓN, IMPORTACIÓN Y EXPORTACIÓN DE MAQUINARIA Y EQUIPO PARA LA AGRICULTURA Y CONSTRUCCIÓN",
      "mainEntityOfPage": "https://www.contratacion.euskadi.eus/webkpe00-kperoc/es/ac71aBusquedaRegistrosWar/empresa/02798",
      "_links": {
        "self": {
          "name": "MAGALHAES EIRAS, S.L.",
          "href": "https://api.euskadi.eus/procurements/companies/02798"
        }
      }
    },
    {
      "name": "INGEM ENERGIA, S.L.",
      "registrationNumber": "07300",
      "identificationNumber": "B95695136",
      "address": "Amezti kalea, 12 - 2º izda.",
      "location": {
        "postalCode": "48991",
        "municipality": "Getxo",
        "county": "Bizkaia",
        "municipalityId": "044",
        "countyId": "48"
      },
      "economicActivities": [
        {
          "id": "1.504.11",
          "name": "Instalaciones eléctricas en general, redes telegráficas, telefonía, tv, etc",
          "_links": {
            "self": {
              "name": "Instalaciones eléctricas en general, redes telegráficas, telefonía, tv, etc",
              "href": "https://api.euskadi.eus/procurements/companies/economic-activities/1.504.11"
            }
          }
        },
        {
          "id": "1.659.9",
          "name": "Venta al por menor de otros productos no especificados en esta agrupación",
          "_links": {
            "self": {
              "name": "Venta al por menor de otros productos no especificados en esta agrupación",
              "href": "https://api.euskadi.eus/procurements/companies/economic-activities/1.659.9"
            }
          }
        },
        {
          "id": "1.843.1",
          "name": "Servicios técnicos de ingeniería",
          "_links": {
            "self": {
              "name": "Servicios técnicos de ingeniería",
              "href": "https://api.euskadi.eus/procurements/companies/economic-activities/1.843.1"
            }
          }
        }
      ],
      "certificateStartDate": "2021-11-29",
      "certificateEndDate": "2022-05-22",
      "object": "LA PRESTACIÓN DE SERVICIOS ENERGÉTICOS RELACIONADOS CON LA MEJORA DE LA EFICIENCIA ENERGÉTICA, QUE PUEDAN COMPRENDER LA PRODUCCIÓN Y SUMINISTRO ENERGÉTICO, LA GESTIÓN ENERGÉTICA, ASÍ COMO LA OPERACIÓN Y EL MANTENIMIENTO DE LAS INSTALACIONES CONSUMIDORAS. TRAMITACIÓN, DISEÑO Y EJECUCIÓN DE PROYECTOS DE INGENIERÍA, AUDITORIAS Y ESTUDIOS DE EFICIENCIA ENERGÉTICA, DESDE LA FASE INICIAL HASTA SU FASE FINAL DE PRODUCCIÓN, INCLUYENDO LA INSTALACIÓN, FINANCIACIÓN, LA GESTIÓN GLOBAL DE LA OPERACIÓN Y MANTENIMIENTO, ASÍ COMO LA COMERCIALIZACIÓN DE TODA CLASE DE INSTALACIONES PRODUCTORAS DE ENERGÍA, TODO ELLO DIRECTAMENTE POR SI O TRAVÉS DE SU PARTICIPACIÓN EN OTRAS SOCIEDADES. COMPRA, VENTA, IMPORTACIÓN, EXPORTACIÓN Y DISTRIBUCIÓN DE MATERIALES RELACIONADOS CON LA EFICIENCIA ENERGÉTICA O VINCULADA A LOS SERVICIOS ENERGÉTICOS. COMPRAVENTA GESTIÓN Y ADMINISTRACI6N DE BIENES INMUEBLES, SOLARES, GESTIÓN URBANÍSTICA Y TODO LO RELACIONADO DIRECTA E INDIRECTAMENTE CON EL OBJETO SOCIAL DESCRITO",
      "mainEntityOfPage": "https://www.contratacion.euskadi.eus/webkpe00-kperoc/es/ac71aBusquedaRegistrosWar/empresa/07300",
      "_links": {
        "self": {
          "name": "INGEM ENERGIA, S.L.",
          "href": "https://api.euskadi.eus/procurements/companies/07300"
        }
      }
    },
    {
      "name": "XELEBREAK, SEXOLOGÍA, IGUALDAD E INTERCULTURALIDAD, S.L.",
      "registrationNumber": "07722",
      "identificationNumber": "B42761932",
      "address": "Tellagorri 20 2ºD",
      "location": {
        "postalCode": "48012",
        "municipality": "Bilbao",
        "county": "Bizkaia",
        "municipalityId": "020",
        "countyId": "48"
      },
      "economicActivities": [
        {
          "id": "1.847",
          "name": "Servicios de consultoría",
          "_links": {
            "self": {
              "name": "Servicios de consultoría",
              "href": "https://api.euskadi.eus/procurements/companies/economic-activities/1.847"
            }
          }
        },
        {
          "id": "1.933.9",
          "name": "Otras actividades de enseñanza tales como idiomas, mecanografía",
          "_links": {
            "self": {
              "name": "Otras actividades de enseñanza tales como idiomas, mecanografía",
              "href": "https://api.euskadi.eus/procurements/companies/economic-activities/1.933.9"
            }
          }
        },
        {
          "id": "1.934",
          "name": "Enseñanza fuera de establecimiento permanente",
          "_links": {
            "self": {
              "name": "Enseñanza fuera de establecimiento permanente",
              "href": "https://api.euskadi.eus/procurements/companies/economic-activities/1.934"
            }
          }
        },
        {
          "id": "1.936",
          "name": "Investigación científica y técnica",
          "_links": {
            "self": {
              "name": "Investigación científica y técnica",
              "href": "https://api.euskadi.eus/procurements/companies/economic-activities/1.936"
            }
          }
        },
        {
          "id": "1.942.9",
          "name": "Otros servicios sanitarios sin internados, no clasificados",
          "_links": {
            "self": {
              "name": "Otros servicios sanitarios sin internados, no clasificados",
              "href": "https://api.euskadi.eus/procurements/companies/economic-activities/1.942.9"
            }
          }
        }
      ],
      "certificateStartDate": "2021-11-29",
      "certificateEndDate": "2022-05-27",
      "object": "EL DESARROLLO DE LAS ACTIVIDADES CORRESPONDIENTES A LOS SIGUIENTES CÓDIGOS Y DESCRIPCIONES DE LA CLASIFICACIÓN NACIONAL DE ACTIVIDADES ECONÓMICAS: ACTIVIDAD PRINCIPAL: OTRA EDUCACIÓN N.C.O.P. OTRAS ACTIVIDADES: INVESTIGACIÓN Y DESARROLLO EXPERIMENTAL EN CIENCIAS SOCIALES Y HUMANIDADES. OTRAS ACTIVIDADES DE CONSULTORÍA DE GESTIÓN EMPRESARIAL. OTRAS ACTIVIDADES PROFESIONALES, CIENTÍFICAS Y TÉCNICAS N.C.O.P. ACTIVIDADES DE INVESTIGACIÓN. OTRAS ACTIVIDADES DE APOYO A LAS EMPRESAS N.C.O.P. ACTIVIDADES AUXILIARES A LA EDUCACIÓN. OTRAS ACTIVIDADES SANITARIAS. OTRAS ACTIVIDADES DE SERVICIOS SOCIALES SIN ALOJAMIENTO N.C.O.P.",
      "mainEntityOfPage": "https://www.contratacion.euskadi.eus/webkpe00-kperoc/es/ac71aBusquedaRegistrosWar/empresa/07722",
      "_links": {
        "self": {
          "name": "XELEBREAK, SEXOLOGÍA, IGUALDAD E INTERCULTURALIDAD, S.L.",
          "href": "https://api.euskadi.eus/procurements/companies/07722"
        }
      }
    },
    {
      "name": "HOSTELBERRI, S.L.",
      "registrationNumber": "07981",
      "identificationNumber": "B20751426",
      "address": "DONOSTIA IBILBIDEA 106 PABELLON 3",
      "location": {
        "postalCode": "20115",
        "municipality": "Astigarraga",
        "county": "Gipuzkoa",
        "municipalityId": "903",
        "countyId": "20"
      },
      "economicActivities": [
        {
          "id": "1.504.3",
          "name": "Instalaciones de frío, calor y acondicionamiento de aire",
          "_links": {
            "self": {
              "name": "Instalaciones de frío, calor y acondicionamiento de aire",
              "href": "https://api.euskadi.eus/procurements/companies/economic-activities/1.504.3"
            }
          }
        },
        {
          "id": "1.654.5",
          "name": "Venta al por menor de toda clase de maquinaría",
          "_links": {
            "self": {
              "name": "Venta al por menor de toda clase de maquinaría",
              "href": "https://api.euskadi.eus/procurements/companies/economic-activities/1.654.5"
            }
          }
        }
      ],
      "certificateStartDate": "2021-11-25",
      "certificateEndDate": "2022-05-05",
      "object": "LA VENTA Y REPARACIÓN DE MAQUINARIA DE HOSTELERIA Y ALIMENTACIÓN.",
      "mainEntityOfPage": "https://www.contratacion.euskadi.eus/webkpe00-kperoc/es/ac71aBusquedaRegistrosWar/empresa/07981",
      "_links": {
        "self": {
          "name": "HOSTELBERRI, S.L.",
          "href": "https://api.euskadi.eus/procurements/companies/07981"
        }
      }
    },
    {
      "name": "ALVEX MUSIC, S.L.",
      "registrationNumber": "07970",
      "identificationNumber": "B98924251",
      "address": "RONDA LA VILA, 5",
      "location": {
        "postalCode": "46800",
        "municipality": "Xàtiva",
        "county": "Valencia/València",
        "municipalityId": "145",
        "countyId": "46"
      },
      "economicActivities": [
        {
          "id": "1.656",
          "name": "Venta al por menor de bienes usados",
          "_links": {
            "self": {
              "name": "Venta al por menor de bienes usados",
              "href": "https://api.euskadi.eus/procurements/companies/economic-activities/1.656"
            }
          }
        },
        {
          "id": "1.657",
          "name": "Venta al por menor de instrumentos musicales y sus accesorios",
          "_links": {
            "self": {
              "name": "Venta al por menor de instrumentos musicales y sus accesorios",
              "href": "https://api.euskadi.eus/procurements/companies/economic-activities/1.657"
            }
          }
        },
        {
          "id": "1.859",
          "name": "Alquiler de otros bienes muebles n.c.o.p. (sin personal permanente)",
          "_links": {
            "self": {
              "name": "Alquiler de otros bienes muebles n.c.o.p. (sin personal permanente)",
              "href": "https://api.euskadi.eus/procurements/companies/economic-activities/1.859"
            }
          }
        }
      ],
      "certificateStartDate": "2021-11-22",
      "certificateEndDate": "2022-05-22",
      "object": "COMERCIO AL POR MENOR DE INSTRUMENTOS MUSICALES EN GENERAL, ASÍ COMO SUS ACCESORIOS. ORGANIZACIÓN DE ESPECTÁCULOS Y TRABAJOS PROPIOS DE LOS AGENTES COLOCADORES DE ARTISTAS. COMERCIO AL POR MENOR DE BIENES USADOS, ASÍ COMO EL ARRENDAMIENTO DE BIENES MUEBLES Y REPARACIÓN DE INSTRUMENTOS DE MÚSICA.",
      "mainEntityOfPage": "https://www.contratacion.euskadi.eus/webkpe00-kperoc/es/ac71aBusquedaRegistrosWar/empresa/07970",
      "_links": {
        "self": {
          "name": "ALVEX MUSIC, S.L.",
          "href": "https://api.euskadi.eus/procurements/companies/07970"
        }
      }
    },
    {
      "name": "ON SERVICIOS Y MANTENIMIENTOS, S.L.",
      "registrationNumber": "07178",
      "identificationNumber": "B01583673",
      "address": "BULEVAR DE MARITURRI 38",
      "location": {
        "postalCode": "01015",
        "municipality": "Vitoria-Gasteiz",
        "county": "Araba/Álava",
        "municipalityId": "059",
        "countyId": "01"
      },
      "economicActivities": [
        {
          "id": "1.849.9",
          "name": "Otros servicios independientes n.c.o.p",
          "_links": {
            "self": {
              "name": "Otros servicios independientes n.c.o.p",
              "href": "https://api.euskadi.eus/procurements/companies/economic-activities/1.849.9"
            }
          }
        }
      ],
      "certificateStartDate": "2021-11-22",
      "certificateEndDate": "2022-05-18",
      "object": "LA PRESTACIÓN DE SERVICIOS RELATIVOS A INSTALACIONES DEPORTIVAS, ASÍ COMO SU MANTENIMIENTO Y GESTIÓN. B) CONSULTORÍA EN SISTEMAS DE GESTIÓN PARA TODO TIPO DE ORGANIZACIONES, ORGANIZACIÓN DE EVENTOS, ALQUILER DE INFRAESTRUCTURAS Y SERVICIOS DEPORTIVOS Y CULTURALES. C) LA GESTIÓN, CONTRATACIÓN, REALIZACIÓN, COORDINACIÓN Y FORMACIÓN PARA TODO TIPO DE ACTIVIDADES CULTURALES, TURÍSTICAS, DEPORTIVAS, EDUCATIVAS, COMEDORES, ALBERGUES Y DE OCIO Y TIEMPO LIBRE, INCLUSO LA CONTRATACIÓN DE TERCEROS PARA LA REALIZACIÓN DE DICHAS ACTIVIDADES. D) LA REPRESENTACIÓN, GESTIÓN, COORDINACIÓN Y CONTRATACIÓN DE TODO TIPO DE ESPECTÁCULOS DE TIPO TEATRAL O MUSICAL. LA GESTIÓN, DIRECCIÓN Y COORDINACIÓN DE CENTROS DE DÍA PARA PERSONAS DE LA TERCERA EDAD. LA REALIZACIÓN DE SERVICIOS DE PORTERÍA, CONTROL DE ACCESOS E INFORMACIÓN Y ATENCIÓN AL PÚBLICO. E) LA PRESTACIÓN DE SERVICIOS A LA AGRICULTURA, CON O SIN MAQUINARIA QUE SE REALIZAN EN LA MISMA EXPLOTACIÓN, TALES COMO SERVICIOS DE PLANTACIÓN, CONSERVACIÓN Y MANTENIMIENTO DE MONTES, JARDINES Y PARQUES, SERVICIOSDE PRODUCCIÓN DE CULTIVOS, COMO PREPARACIÓN DE LA TIERRA, PODA, RIEGO, SERVICIOS DE RECOLECCIÓN Y PREPARACIÓN DE COSECHAS; CREACIÓN DE ZONAS VERDES TANTO EN NÚCLEOS URBANOS COMO EN LA PROPIA NATURALEZA; Y OTROS SERVICIOS AGRÍCOLAS. F) LA PRESTACIÓN DE SERVICIOS DE LIMPIEZA Y MANTENIMIENTO EN GENERAL; LIMPIEZA DE EDIFICIOS Y LOCALES, INCLUYENDO SUPERFICIES CUBIERTAS Y AL AIRE LIBRE. G) LA REALIZACIÓN DE TRABAJOS DE INFORMÁTICA Y DE COMUNICACIÓN PUBLICITARIA, ASÍ COMO LA COMERCIALIZACIÓN DE TODO TIPO DE APLICACIONES INFORMÁTICAS A MEDIDA PARA EL ENTORNO DE INTERNET, INTRANET Y EXTRANET, VENTA DE MATERIAL INFORMÁTICO Y TRABAJOS DE PUBLICIDAD, MARKETING Y COMUNICACIÓN ON Y OFF-LINE, VENTA ON-LINE Y LA INTERMEDIACIÓN EN TODA CLASE DE TRABAJOS DE CONSULTORÍA INFORMÁTICA Y DE DESARROLLO DE TODA CLASE DE APLICACIONES INFORMÁTICAS. H) MONTAJE Y MANTENIMIENTOS DE INFRAESTRUCTURAS E INSTALACIONES",
      "mainEntityOfPage": "https://www.contratacion.euskadi.eus/webkpe00-kperoc/es/ac71aBusquedaRegistrosWar/empresa/07178",
      "_links": {
        "self": {
          "name": "ON SERVICIOS Y MANTENIMIENTOS, S.L.",
          "href": "https://api.euskadi.eus/procurements/companies/07178"
        }
      }
    },
    {
      "name": "INGENIERIA SOCIAL, S.A.L.",
      "registrationNumber": "07493",
      "identificationNumber": "A64842800",
      "address": "Calle Valencia, 227 2-1",
      "location": {
        "postalCode": "08007",
        "municipality": "Barcelona",
        "county": "Barcelona",
        "municipalityId": "019",
        "countyId": "08"
      },
      "economicActivities": [
        {
          "id": "1.849.9",
          "name": "Otros servicios independientes n.c.o.p",
          "_links": {
            "self": {
              "name": "Otros servicios independientes n.c.o.p",
              "href": "https://api.euskadi.eus/procurements/companies/economic-activities/1.849.9"
            }
          }
        }
      ],
      "certificateStartDate": "2021-11-19",
      "certificateEndDate": "2022-05-19",
      "object": "A) LA CONSULTORÍA EN MATERIA DE CALIDAD, RESPONSABILIDAD SOCIAL MEDIOAMBIENTAL Y SOCIAL. B) IMPLANTACIÓN Y AUDITORÍA DE SISTEMAS DE RESPONSABILIDAD SOCIAL EMPRESARIAL, ÉTICOS Y MEDIOAMBIENTALES VERIFICABLES, C) EL DISEÑO Y DESARROLLO DE CAMPAÑAS DE MARKETING CON CAUSA Y COMUNICACIÓN EN MATERIA DE RESPONSABILIDAD SOCIAL EMPRESARIAL. D) LA FORMACIÓN EN SISTEMAS ÉTICOS Y DE RESPONSABILIDAD EMPRESARIAL. E) ACCIÓN SOCIAL. NUESTROS SERVICIOS EN ESTA ÁREA SE CONCRETAN EN LAS SIGUIENTES ACTIVIDADES: A. PLANIFICACIÓN, DISEÑO, DESARROLLO, SEGUIMIENTO Y EVALUACIÓN DE LAS ACTIVIDADES SOCIALES DE LA EMPRESA, PROPIAS Y/O EN COLABORACIÓN CON ORGANIZACIONES NO GUBERNAMENTALES. B. ASESORAMIENTO EN EL DISEÑO Y DESARROLLO DE CAMPAÑAS DE MARKETING CON CAUSA SOCIAL CORPORATIVO ALINEADA CON LA MISIÓN Y ESTRATEGIA DE LA EMPRESA. C. LA BÚSQUEDA Y SELECCIÓN DE PROYECTOS DE ORGANIZACIONES NO GUBERNAMENTALES QUE CUMPLAN CON LOS REQUISITOS DE TRANSPARENCIA Y BUENA GESTIÓN. D. LA EVALUACIÓN Y AUDITORÍA DE PROYECTOS SOCIALES, INCLUYENDO LAS SIGUIENTES ACTIVIDADES: I. SEGUIMIENTO DE LA EJECUCIÓN DE LOS PROYECTOS. II. AUDITORÍA EXTERNA DE PROYECTOS SOCIALES DIRIGIDA A LA MEJORA CONTINUA. III. EVALUACIÓN DE IMPACTO DEL PROYECTO SOCIAL. IV.PREPARACIÓN DE INFORMES PARA LOS ACTORES INVOLUCRADOS. F) ACTIVIDADES EN FUNDRAISING, SERVICIO CAPTACIÓN DE RECURSOS PARA ORGANIZACIONES NO GUBERNAMENTALES",
      "mainEntityOfPage": "https://www.contratacion.euskadi.eus/webkpe00-kperoc/es/ac71aBusquedaRegistrosWar/empresa/07493",
      "_links": {
        "self": {
          "name": "INGENIERIA SOCIAL, S.A.L.",
          "href": "https://api.euskadi.eus/procurements/companies/07493"
        }
      }
    },
    {
      "name": "GESTIÓN-5, SOCIEDAD COOPERATIVA ANDALUZA",
      "registrationNumber": "07180",
      "identificationNumber": "F41620873",
      "address": "Avda. Diego Martinez Barrio, 1 3ºB Edificio Giralda 8",
      "location": {
        "postalCode": "41013",
        "municipality": "Sevilla",
        "county": "Sevilla",
        "municipalityId": "091",
        "countyId": "41"
      },
      "economicActivities": [
        {
          "id": "1.842",
          "name": "Servicios financieros y contables",
          "_links": {
            "self": {
              "name": "Servicios financieros y contables",
              "href": "https://api.euskadi.eus/procurements/companies/economic-activities/1.842"
            }
          }
        }
      ],
      "certificateStartDate": "2021-11-19",
      "certificateEndDate": "2022-05-17",
      "object": "A) LA PRESTACIÓN DE SERVICIOS DE ASESORÍA EN ADMINISTRACIÓN, CONTABILIDAD, ORGANIZACIÓN, MARKETING, INFORMÁTICA, FISCALES Y FINANCIERAS, ASÍ COMO LA AUDITORIA DE CUENTAS Y AQUELLAS OPERACIONES RELACIONADAS DIRECTA O INDIRECTAMENTE CON LAS YA MENCIONADAS O QUE SEAN CONSECUENCIAS DE LAS MISMAS. B) LA REALIZACIÓN DE ENCUESTAS, TOMAS DE DATOS Y OTROS SERVICIOS ANÁLOGOS. C) LA REALIZACIÓN DE TRABAJOS ADMINISTRATIVOS TALES COMO ACTIVIDADES AUXILIARES ADMINISTRATIVAS COMO ARCHIVOS, TRABAJOS A MECANOGRAFÍA, GRABACIÓN DE DATOS, TRATAMIENTO DE TEXTOS, MICROINFORMÁTICA Y GESTIÓN DE COBRO, Y OTRAS COMO ORGANIZACIÓN DE CONGRESOS, CONVENCIONES, EXPOSICIONES, FERIAS Y RELACIONES PÚBLICAS. D) COMUNICACIONES: TELECOMUNICACIONES, ATENCIÓN DE CENTRALITAS TELEFÓNICAS Y SIMILARES, ACTIVIDADES DE MENSAJERÍAS, REPARTO Y MANIPULACIÓN DE CORRESPONDENCIA. E) LA REALIZACIÓN DE SERVICIOS DE CARÁCTER TÉCNICO, ECONÓMICO, INDUSTRIAL, COMERCIAL O CUALQUIER OTRO DE NATURALEZA ANÁLOGA",
      "mainEntityOfPage": "https://www.contratacion.euskadi.eus/webkpe00-kperoc/es/ac71aBusquedaRegistrosWar/empresa/07180",
      "_links": {
        "self": {
          "name": "GESTIÓN-5, SOCIEDAD COOPERATIVA ANDALUZA",
          "href": "https://api.euskadi.eus/procurements/companies/07180"
        }
      }
    },
    {
      "name": "AMAIA ARZOZ DÍEZ",
      "registrationNumber": "06672",
      "identificationNumber": "16038660R",
      "address": "Marques del Puerto 16 3ºC",
      "location": {
        "postalCode": "48008",
        "municipality": "Bilbao",
        "county": "Bizkaia",
        "municipalityId": "020",
        "countyId": "48"
      },
      "economicActivities": [
        {
          "id": "2.411",
          "name": "Arquitectos",
          "_links": {
            "self": {
              "name": "Arquitectos",
              "href": "https://api.euskadi.eus/procurements/companies/economic-activities/2.411"
            }
          }
        }
      ],
      "certificateStartDate": "2021-11-15",
      "certificateEndDate": "2022-05-10",
      "object": "ARQUITECTOS",
      "mainEntityOfPage": "https://www.contratacion.euskadi.eus/webkpe00-kperoc/es/ac71aBusquedaRegistrosWar/empresa/06672",
      "_links": {
        "self": {
          "name": "AMAIA ARZOZ DÍEZ",
          "href": "https://api.euskadi.eus/procurements/companies/06672"
        }
      }
    }
  ]
}