{
  "totalItems": 9042,
  "totalPages": 905,
  "currentPage": 469,
  "itemsOfPage": 10,
  "items": [
    {
      "name": "ANA ENGUITA HERNANDEZ",
      "registrationNumber": "08866",
      "identificationNumber": "48537764J",
      "address": "Tvs. Pico de Ori 1, bajo A",
      "location": {
        "postalCode": "31006",
        "municipality": "Pamplona/Iruña",
        "county": "Navarra",
        "municipalityId": "201",
        "countyId": "31"
      },
      "economicActivities": [
        {
          "id": "2.411",
          "name": "Arquitectos",
          "_links": {
            "self": {
              "name": "Arquitectos",
              "href": "https://api.euskadi.eus/procurements/companies/economic-activities/2.411"
            }
          }
        }
      ],
      "certificateStartDate": "2023-02-09",
      "certificateEndDate": "2023-08-09",
      "object": "ARQUITECTOS.",
      "mainEntityOfPage": "https://www.contratacion.euskadi.eus/webkpe00-kperoc/es/ac71aBusquedaRegistrosWar/empresa/08866",
      "_links": {
        "self": {
          "name": "ANA ENGUITA HERNANDEZ",
          "href": "https://api.euskadi.eus/procurements/companies/08866"
        }
      }
    },
    {
      "name": "IÑIGO URRUTIA IZA",
      "registrationNumber": "08549",
      "identificationNumber": "78892369T",
      "address": "BARRIO KANPANTXU 77",
      "location": {
        "postalCode": "48320",
        "municipality": "Ajangiz",
        "county": "Bizkaia",
        "municipalityId": "911",
        "countyId": "48"
      },
      "economicActivities": [
        {
          "id": "1.721.2",
          "name": "Transporte por autotaxis",
          "_links": {
            "self": {
              "name": "Transporte por autotaxis",
              "href": "https://api.euskadi.eus/procurements/companies/economic-activities/1.721.2"
            }
          }
        }
      ],
      "certificateStartDate": "2023-02-09",
      "certificateEndDate": "2023-08-08",
      "object": "TRANSPORTE POR AUTOTAXIS",
      "mainEntityOfPage": "https://www.contratacion.euskadi.eus/webkpe00-kperoc/es/ac71aBusquedaRegistrosWar/empresa/08549",
      "_links": {
        "self": {
          "name": "IÑIGO URRUTIA IZA",
          "href": "https://api.euskadi.eus/procurements/companies/08549"
        }
      }
    },
    {
      "name": "CEGOS ESPAÑA LEARNING & DEVELOPMENT, S.A.",
      "registrationNumber": "00591",
      "identificationNumber": "A28056604",
      "address": "C/ PUERTO DE SOMPORT Nº 9",
      "location": {
        "postalCode": "28050",
        "municipality": "Madrid",
        "county": "Madrid",
        "municipalityId": "079",
        "countyId": "28"
      },
      "economicActivities": [
        {
          "id": "1.847",
          "name": "Servicios de consultoría",
          "_links": {
            "self": {
              "name": "Servicios de consultoría",
              "href": "https://api.euskadi.eus/procurements/companies/economic-activities/1.847"
            }
          }
        },
        {
          "id": "1.849.9",
          "name": "Otros servicios independientes n.c.o.p",
          "_links": {
            "self": {
              "name": "Otros servicios independientes n.c.o.p",
              "href": "https://api.euskadi.eus/procurements/companies/economic-activities/1.849.9"
            }
          }
        },
        {
          "id": "1.932.2",
          "name": "Enseñanza de formación y perfeccionamiento profesional superior",
          "_links": {
            "self": {
              "name": "Enseñanza de formación y perfeccionamiento profesional superior",
              "href": "https://api.euskadi.eus/procurements/companies/economic-activities/1.932.2"
            }
          }
        }
      ],
      "certificateStartDate": "2023-02-08",
      "certificateEndDate": "2023-07-16",
      "object": "EL NOMBRAMIENTO TÉCNICO DE EMPRESAS Y TODA CLASE DE GESTIONES RELATIVAS A LA DIFUSIÓN, PROPAGANDA Y ADAPTACIÓN DE SISTEMAS DE ORGANIZACIÓN",
      "mainEntityOfPage": "https://www.contratacion.euskadi.eus/webkpe00-kperoc/es/ac71aBusquedaRegistrosWar/empresa/00591",
      "_links": {
        "self": {
          "name": "CEGOS ESPAÑA LEARNING & DEVELOPMENT, S.A.",
          "href": "https://api.euskadi.eus/procurements/companies/00591"
        }
      }
    },
    {
      "name": "ABEL VILLAÑO PORTILLO",
      "registrationNumber": "06346",
      "identificationNumber": "78869930D",
      "address": "URBANIZACION ELURBIGANE  62",
      "location": {
        "postalCode": "48100",
        "municipality": "Mungia",
        "county": "Bizkaia",
        "municipalityId": "069",
        "countyId": "48"
      },
      "economicActivities": [
        {
          "id": "1.501.1",
          "name": "Construcción completa, reparación y conservación de edificaciones",
          "_links": {
            "self": {
              "name": "Construcción completa, reparación y conservación de edificaciones",
              "href": "https://api.euskadi.eus/procurements/companies/economic-activities/1.501.1"
            }
          }
        },
        {
          "id": "1.502.2",
          "name": "Consolidación y preparación de terrenos para la construcción de edificaciones",
          "_links": {
            "self": {
              "name": "Consolidación y preparación de terrenos para la construcción de edificaciones",
              "href": "https://api.euskadi.eus/procurements/companies/economic-activities/1.502.2"
            }
          }
        },
        {
          "id": "1.722",
          "name": "Transporte de mercancías por carretera",
          "_links": {
            "self": {
              "name": "Transporte de mercancías por carretera",
              "href": "https://api.euskadi.eus/procurements/companies/economic-activities/1.722"
            }
          }
        },
        {
          "id": "1.833.21",
          "name": "Promoción de edificaciones - Cuota fija",
          "_links": {
            "self": {
              "name": "Promoción de edificaciones - Cuota fija",
              "href": "https://api.euskadi.eus/procurements/companies/economic-activities/1.833.21"
            }
          }
        }
      ],
      "certificateStartDate": "2023-02-07",
      "certificateEndDate": "2023-08-07",
      "object": "CONSOLIDACIÓN Y PREPARACIÓN DE TERRENOS PARA LA CONSTRUCCIÓN DE EDIFICACIONES, CONSTRUCCIÓN COMPLETA, REPARACIÓN Y CONSERVACIÓN DE EDIFICACIONES, TRANSPORTE DE MERCANCÍAS POR CARRETERA, Y PROMOCIÓN DE TERRENOS",
      "mainEntityOfPage": "https://www.contratacion.euskadi.eus/webkpe00-kperoc/es/ac71aBusquedaRegistrosWar/empresa/06346",
      "_links": {
        "self": {
          "name": "ABEL VILLAÑO PORTILLO",
          "href": "https://api.euskadi.eus/procurements/companies/06346"
        }
      }
    },
    {
      "name": "ASOCIACIÓN MAINDI, SERVICIOS A INFANCIA Y JUVENTUD",
      "registrationNumber": "06615",
      "identificationNumber": "G20977708",
      "address": "Plaza Zumea 6-5ºD",
      "location": {
        "postalCode": "20140",
        "municipality": "Andoain",
        "county": "Gipuzkoa",
        "municipalityId": "009",
        "countyId": "20"
      },
      "economicActivities": [
        {
          "id": "1.952",
          "name": "Asistencia y servicios sociales en centros no residenciales",
          "_links": {
            "self": {
              "name": "Asistencia y servicios sociales en centros no residenciales",
              "href": "https://api.euskadi.eus/procurements/companies/economic-activities/1.952"
            }
          }
        }
      ],
      "certificateStartDate": "2023-02-06",
      "certificateEndDate": "2023-07-29",
      "object": "LA ORGANIZACIÓN Y PRESTACIÓN DE SERVICIOS DE INTERVENCIÓN SOCIOEDUCATIVA Y DE PROTECCIÓN DE LA INFANCIA Y DE LA JUVENTUD Y DE LA SOCIEDAD EN GENERAL",
      "mainEntityOfPage": "https://www.contratacion.euskadi.eus/webkpe00-kperoc/es/ac71aBusquedaRegistrosWar/empresa/06615",
      "_links": {
        "self": {
          "name": "ASOCIACIÓN MAINDI, SERVICIOS A INFANCIA Y JUVENTUD",
          "href": "https://api.euskadi.eus/procurements/companies/06615"
        }
      }
    },
    {
      "name": "JOSE IGNACIO HERNANDO GÓMEZ",
      "registrationNumber": "08109",
      "identificationNumber": "72722097F",
      "address": "Calle Bekolarra nº 2 pab 20",
      "location": {
        "postalCode": "01010",
        "municipality": "Vitoria-Gasteiz",
        "county": "Araba/Álava",
        "municipalityId": "059",
        "countyId": "01"
      },
      "economicActivities": [
        {
          "id": "1.691.2",
          "name": "Reparación de vehículos automóviles, bicicletas y otros vehículos",
          "_links": {
            "self": {
              "name": "Reparación de vehículos automóviles, bicicletas y otros vehículos",
              "href": "https://api.euskadi.eus/procurements/companies/economic-activities/1.691.2"
            }
          }
        }
      ],
      "certificateStartDate": "2023-02-06",
      "certificateEndDate": "2023-08-02",
      "object": "REPARACIÓN DE AUTOMÓVILES Y BICICLETAS.",
      "mainEntityOfPage": "https://www.contratacion.euskadi.eus/webkpe00-kperoc/es/ac71aBusquedaRegistrosWar/empresa/08109",
      "_links": {
        "self": {
          "name": "JOSE IGNACIO HERNANDO GÓMEZ",
          "href": "https://api.euskadi.eus/procurements/companies/08109"
        }
      }
    },
    {
      "name": "ALBERTO ELOSEGI ERDOZIA",
      "registrationNumber": "08857",
      "identificationNumber": "72441690Q",
      "address": "Barrio Elizatxo (20120), 53 1",
      "location": {
        "postalCode": "20120",
        "municipality": "Hernani",
        "county": "Gipuzkoa",
        "municipalityId": "040",
        "countyId": "20"
      },
      "economicActivities": [
        {
          "id": "2.899",
          "name": "Otros profesionales",
          "_links": {
            "self": {
              "name": "Otros profesionales",
              "href": "https://api.euskadi.eus/procurements/companies/economic-activities/2.899"
            }
          }
        }
      ],
      "certificateStartDate": "2023-02-02",
      "certificateEndDate": "2023-08-02",
      "object": "OTROS PROFESIONALES.",
      "mainEntityOfPage": "https://www.contratacion.euskadi.eus/webkpe00-kperoc/es/ac71aBusquedaRegistrosWar/empresa/08857",
      "_links": {
        "self": {
          "name": "ALBERTO ELOSEGI ERDOZIA",
          "href": "https://api.euskadi.eus/procurements/companies/08857"
        }
      }
    },
    {
      "name": "TANIA CIFUENTES CANO",
      "registrationNumber": "08221",
      "identificationNumber": "72586117A",
      "address": "Calle Ebaristo Bustintza Kirikiño",
      "location": {
        "postalCode": "48200",
        "municipality": "Durango",
        "county": "Bizkaia",
        "municipalityId": "027",
        "countyId": "48"
      },
      "economicActivities": [
        {
          "id": "1.646.52",
          "name": "Venta al por menor de tabaco, propietario de la máquina",
          "_links": {
            "self": {
              "name": "Venta al por menor de tabaco, propietario de la máquina",
              "href": "https://api.euskadi.eus/procurements/companies/economic-activities/1.646.52"
            }
          }
        },
        {
          "id": "1.673.2",
          "name": "Otros cafés y bares",
          "_links": {
            "self": {
              "name": "Otros cafés y bares",
              "href": "https://api.euskadi.eus/procurements/companies/economic-activities/1.673.2"
            }
          }
        }
      ],
      "certificateStartDate": "2023-02-02",
      "certificateEndDate": "2023-07-22",
      "object": "OTROS CAFÉS Y BARES. VENTA AL POR MENOR DE TABACO, PROPIETARIO DE LA MÁQUINA.",
      "mainEntityOfPage": "https://www.contratacion.euskadi.eus/webkpe00-kperoc/es/ac71aBusquedaRegistrosWar/empresa/08221",
      "_links": {
        "self": {
          "name": "TANIA CIFUENTES CANO",
          "href": "https://api.euskadi.eus/procurements/companies/08221"
        }
      }
    },
    {
      "name": "ATRES ARMARIOS EMPOTRADOS, S.L.",
      "registrationNumber": "08854",
      "identificationNumber": "B47340104",
      "address": "metal 8",
      "location": {
        "postalCode": "47008",
        "municipality": "Valladolid",
        "county": "Valladolid",
        "municipalityId": "186",
        "countyId": "47"
      },
      "economicActivities": [
        {
          "id": "1.468.1",
          "name": "Fabricación de mobiliario de madera para el hogar",
          "_links": {
            "self": {
              "name": "Fabricación de mobiliario de madera para el hogar",
              "href": "https://api.euskadi.eus/procurements/companies/economic-activities/1.468.1"
            }
          }
        }
      ],
      "certificateStartDate": "2023-02-02",
      "certificateEndDate": "2023-08-02",
      "object": "LA FABRICACIÓN DE ARMARIOS EMPOTRADOS Y MOBILIARIO EN GENERAL, INCLUSO SU MONTAJE Y COLOCACIÓN.",
      "mainEntityOfPage": "https://www.contratacion.euskadi.eus/webkpe00-kperoc/es/ac71aBusquedaRegistrosWar/empresa/08854",
      "_links": {
        "self": {
          "name": "ATRES ARMARIOS EMPOTRADOS, S.L.",
          "href": "https://api.euskadi.eus/procurements/companies/08854"
        }
      }
    },
    {
      "name": "DANIEL CAÑAS VALENTIN",
      "registrationNumber": "08846",
      "identificationNumber": "74647222D",
      "address": "Plaza San Juan",
      "location": {
        "postalCode": "01200",
        "municipality": "Agurain/Salvatierra",
        "county": "Araba/Álava",
        "municipalityId": "051",
        "countyId": "01"
      },
      "economicActivities": [
        {
          "id": "2.421",
          "name": "Arquitectos técnicos y aparejadores",
          "_links": {
            "self": {
              "name": "Arquitectos técnicos y aparejadores",
              "href": "https://api.euskadi.eus/procurements/companies/economic-activities/2.421"
            }
          }
        }
      ],
      "certificateStartDate": "2023-01-31",
      "certificateEndDate": "2023-07-10",
      "object": "ARQUITECTOS TÉCNICOS Y APAREJADORES.",
      "mainEntityOfPage": "https://www.contratacion.euskadi.eus/webkpe00-kperoc/es/ac71aBusquedaRegistrosWar/empresa/08846",
      "_links": {
        "self": {
          "name": "DANIEL CAÑAS VALENTIN",
          "href": "https://api.euskadi.eus/procurements/companies/08846"
        }
      }
    }
  ]
}