{
  "totalItems": 9042,
  "totalPages": 905,
  "currentPage": 869,
  "itemsOfPage": 10,
  "items": [
    {
      "name": "UNIMAIL POSTAL, S.L.",
      "registrationNumber": "04586",
      "identificationNumber": "B95627030",
      "address": "C/ FRAY JUAN DE ZUMARRAGA, Nº 15",
      "location": {
        "postalCode": "48200",
        "municipality": "Durango",
        "county": "Bizkaia",
        "municipalityId": "027",
        "countyId": "48"
      },
      "object": ",",
      "mainEntityOfPage": "https://www.contratacion.euskadi.eus/webkpe00-kperoc/es/ac71aBusquedaRegistrosWar/empresa/04586",
      "_links": {
        "self": {
          "name": "UNIMAIL POSTAL, S.L.",
          "href": "https://api.euskadi.eus/procurements/companies/04586"
        }
      }
    },
    {
      "name": "AIRUGA ELEKTRIZITATEA, S.L.",
      "registrationNumber": "04596",
      "identificationNumber": "B75027318",
      "address": "PZ. MANUEL LEKUONA, Nº 3, BAJO",
      "location": {
        "postalCode": "20140",
        "municipality": "Andoain",
        "county": "Gipuzkoa",
        "municipalityId": "009",
        "countyId": "20"
      },
      "object": ".",
      "mainEntityOfPage": "https://www.contratacion.euskadi.eus/webkpe00-kperoc/es/ac71aBusquedaRegistrosWar/empresa/04596",
      "_links": {
        "self": {
          "name": "AIRUGA ELEKTRIZITATEA, S.L.",
          "href": "https://api.euskadi.eus/procurements/companies/04596"
        }
      }
    },
    {
      "name": "SERVICIOS Y CONTRATAS ARENONSA, S.L.",
      "registrationNumber": "04604",
      "identificationNumber": "B95409967",
      "address": "BIARRITZ 2 B OFICINA E",
      "location": {
        "postalCode": "48002",
        "municipality": "Bilbao",
        "county": "Bizkaia",
        "municipalityId": "020",
        "countyId": "48"
      },
      "object": ".",
      "mainEntityOfPage": "https://www.contratacion.euskadi.eus/webkpe00-kperoc/es/ac71aBusquedaRegistrosWar/empresa/04604",
      "_links": {
        "self": {
          "name": "SERVICIOS Y CONTRATAS ARENONSA, S.L.",
          "href": "https://api.euskadi.eus/procurements/companies/04604"
        }
      }
    },
    {
      "name": "FRIO INDUSTRIAL FREIRE SL",
      "registrationNumber": "04605",
      "identificationNumber": "B48302228",
      "address": "POLIG.TORRELARRAGOITI. PARC. 7B C/CENTRO 6",
      "location": {
        "postalCode": "48170",
        "municipality": "Zamudio",
        "county": "Bizkaia",
        "municipalityId": "905",
        "countyId": "48"
      },
      "classification": [
        {
          "id": "O",
          "name": "Obras",
          "groups": [
            {
              "id": "J",
              "name": "INSTALACIONES MECANICAS",
              "subgroups": [
                {
                  "id": "03",
                  "name": "Frigoríficas",
                  "categories": [
                    {
                      "id": "4",
                      "name": "Desde 840.001 Hasta 2.400.000",
                      "_links": {
                        "self": {
                          "name": "Desde 840.001 Hasta 2.400.000",
                          "href": "https://api.euskadi.eus/procurements/companies/types/O/categories/4"
                        }
                      }
                    }
                  ],
                  "_links": {
                    "self": {
                      "name": "Frigoríficas",
                      "href": "https://api.euskadi.eus/procurements/companies/types/O/groups/J/subgroups/03"
                    }
                  }
                }
              ],
              "_links": {
                "self": {
                  "name": "INSTALACIONES MECANICAS",
                  "href": "https://api.euskadi.eus/procurements/companies/types/O/groups/J"
                }
              }
            }
          ],
          "_links": {
            "self": {
              "name": "Obras",
              "href": "https://api.euskadi.eus/procurements/companies/types/O"
            }
          }
        }
      ],
      "object": ". INSTALACIONES DE FRIO Y CLIMATIZACIÓN INDUSTRIAL Y COMERCIAL",
      "mainEntityOfPage": "https://www.contratacion.euskadi.eus/webkpe00-kperoc/es/ac71aBusquedaRegistrosWar/empresa/04605",
      "_links": {
        "self": {
          "name": "FRIO INDUSTRIAL FREIRE SL",
          "href": "https://api.euskadi.eus/procurements/companies/04605"
        }
      }
    },
    {
      "name": "IBARGARAY LEGUINA SABINO",
      "registrationNumber": "04608",
      "identificationNumber": "16045356G",
      "address": "AITA GOTZON 11-3º",
      "location": {
        "postalCode": "48610",
        "municipality": "Urduliz",
        "county": "Bizkaia",
        "municipalityId": "089",
        "countyId": "48"
      },
      "object": ".",
      "mainEntityOfPage": "https://www.contratacion.euskadi.eus/webkpe00-kperoc/es/ac71aBusquedaRegistrosWar/empresa/04608",
      "_links": {
        "self": {
          "name": "IBARGARAY LEGUINA SABINO",
          "href": "https://api.euskadi.eus/procurements/companies/04608"
        }
      }
    },
    {
      "name": "DIKE SYSTEM, S.L.",
      "registrationNumber": "04609",
      "identificationNumber": "B20838165",
      "address": "POLÍGONO EGIBURUBERRI NAVE 13-1K",
      "location": {
        "postalCode": "20100",
        "municipality": "Errenteria",
        "county": "Gipuzkoa",
        "municipalityId": "067",
        "countyId": "20"
      },
      "object": ".",
      "mainEntityOfPage": "https://www.contratacion.euskadi.eus/webkpe00-kperoc/es/ac71aBusquedaRegistrosWar/empresa/04609",
      "_links": {
        "self": {
          "name": "DIKE SYSTEM, S.L.",
          "href": "https://api.euskadi.eus/procurements/companies/04609"
        }
      }
    },
    {
      "name": "JOSE ANDRES ORTIZ FRANCO",
      "registrationNumber": "04611",
      "identificationNumber": "08668152G",
      "address": "SAN MIGUEL, 21-1º A",
      "location": {
        "postalCode": "48340",
        "municipality": "Amorebieta-Etxano",
        "county": "Bizkaia",
        "municipalityId": "003",
        "countyId": "48"
      },
      "object": ".",
      "mainEntityOfPage": "https://www.contratacion.euskadi.eus/webkpe00-kperoc/es/ac71aBusquedaRegistrosWar/empresa/04611",
      "_links": {
        "self": {
          "name": "JOSE ANDRES ORTIZ FRANCO",
          "href": "https://api.euskadi.eus/procurements/companies/04611"
        }
      }
    },
    {
      "name": "GARBIZER, S.L.",
      "registrationNumber": "04612",
      "identificationNumber": "B01235290",
      "address": "José Matía 28-3A",
      "location": {
        "postalCode": "01400",
        "municipality": "Laudio/Llodio",
        "county": "Araba/Álava",
        "municipalityId": "036",
        "countyId": "01"
      },
      "object": ".",
      "mainEntityOfPage": "https://www.contratacion.euskadi.eus/webkpe00-kperoc/es/ac71aBusquedaRegistrosWar/empresa/04612",
      "_links": {
        "self": {
          "name": "GARBIZER, S.L.",
          "href": "https://api.euskadi.eus/procurements/companies/04612"
        }
      }
    },
    {
      "name": "ETXEGIN IGELTSERITZA, S.L.",
      "registrationNumber": "04639",
      "identificationNumber": "B20763413",
      "address": "POLÍGONO INDUSTRIAL OKOBIO, Nº 5",
      "location": {
        "postalCode": "20491",
        "municipality": "Belauntza",
        "county": "Gipuzkoa",
        "municipalityId": "021",
        "countyId": "20"
      },
      "object": ".",
      "mainEntityOfPage": "https://www.contratacion.euskadi.eus/webkpe00-kperoc/es/ac71aBusquedaRegistrosWar/empresa/04639",
      "_links": {
        "self": {
          "name": "ETXEGIN IGELTSERITZA, S.L.",
          "href": "https://api.euskadi.eus/procurements/companies/04639"
        }
      }
    },
    {
      "name": "LURBASO LORESAILTZA, S.L.",
      "registrationNumber": "04642",
      "identificationNumber": "B95650610",
      "address": "C. GOBELAURRE, Nº 33-LONJA \"CENTRO DE NEGOCIOS\"",
      "location": {
        "postalCode": "48930",
        "municipality": "Getxo",
        "county": "Bizkaia",
        "municipalityId": "044",
        "countyId": "48"
      },
      "object": ".",
      "mainEntityOfPage": "https://www.contratacion.euskadi.eus/webkpe00-kperoc/es/ac71aBusquedaRegistrosWar/empresa/04642",
      "_links": {
        "self": {
          "name": "LURBASO LORESAILTZA, S.L.",
          "href": "https://api.euskadi.eus/procurements/companies/04642"
        }
      }
    }
  ]
}