{
  "totalItems": 9042,
  "totalPages": 905,
  "currentPage": 165,
  "itemsOfPage": 10,
  "items": [
    {
      "name": "JE DANZA Y OTROS SL",
      "registrationNumber": "10205",
      "identificationNumber": "B55375299",
      "address": "c/Bailen 1, 1-3",
      "location": {
        "postalCode": "48002",
        "municipality": "Bilbao",
        "county": "Bizkaia",
        "municipalityId": "020",
        "countyId": "48"
      },
      "economicActivities": [
        {
          "id": "1.476.1",
          "name": "Edición de libros",
          "_links": {
            "self": {
              "name": "Edición de libros",
              "href": "https://api.euskadi.eus/procurements/companies/economic-activities/1.476.1"
            }
          }
        },
        {
          "id": "1.659.4",
          "name": "Venta al por menor de libros, periódicos y artículos de papelería y escritorio",
          "_links": {
            "self": {
              "name": "Venta al por menor de libros, periódicos y artículos de papelería y escritorio",
              "href": "https://api.euskadi.eus/procurements/companies/economic-activities/1.659.4"
            }
          }
        },
        {
          "id": "1.965.3",
          "name": "Espectáculos fuera de establecimiento permanente (excepto los taurinos)",
          "_links": {
            "self": {
              "name": "Espectáculos fuera de establecimiento permanente (excepto los taurinos)",
              "href": "https://api.euskadi.eus/procurements/companies/economic-activities/1.965.3"
            }
          }
        },
        {
          "id": "1.965.4",
          "name": "Empresas de espectáculos",
          "_links": {
            "self": {
              "name": "Empresas de espectáculos",
              "href": "https://api.euskadi.eus/procurements/companies/economic-activities/1.965.4"
            }
          }
        }
      ],
      "certificateStartDate": "2025-11-12",
      "certificateEndDate": "2026-05-12",
      "object": "ACTIVIDAD PRINCIPAL: 90.01 / ARTES ESCÉNICAS. OTRAS ACTIVIDADES: 93.29 / OTRAS ACTIVIDADES RECREATIVAS Y DE ENTRETENIMIENTO, 85.60 / ACTIVIDADES AUXILIARES A LA EDUCACIÓN, 85.59 / OTRA EDUCACIÓN, 59.15 / ACTIVIDADES DE PRODUCCIÓN CINEMATOGRÁFICA Y DE VÍDEO, 58.19 / OTRAS ACTIVIDADES EDITORIALES, 74.20 / ACTIVIDADES DE FOTOGRAFÍA, 58.11 / EDICIÓN DE LIBROS, 90.03 / CREACIÓN ARTÍSTICA Y LITERARIA, 85.52 / EDUCACIÓN CULTURAL, 90.04 / GESTIÓN DE SALAS DE ESPECTÁCULOS, 90.02 / ACTIVIDADES AUXILIARES A LAS ARTES ESCÉNICAS, 70.22 / OTRAS ACTIVIDADES DE CONSULTORÍA DE GESTIÓN EMPRESARIAL, 74.90 / OTRAS ACTIVIDADES PROFESIONALES, CIENTÍFICAS Y TÉCNICAS.",
      "mainEntityOfPage": "https://www.contratacion.euskadi.eus/webkpe00-kperoc/es/ac71aBusquedaRegistrosWar/empresa/10205",
      "_links": {
        "self": {
          "name": "JE DANZA Y OTROS SL",
          "href": "https://api.euskadi.eus/procurements/companies/10205"
        }
      }
    },
    {
      "name": "D360 OPEN SOLUTIONS, S.L.",
      "registrationNumber": "08518",
      "identificationNumber": "B95979225",
      "address": "C/ BAILÉN 7A",
      "location": {
        "postalCode": "48003",
        "municipality": "Bilbao",
        "county": "Bizkaia",
        "municipalityId": "020",
        "countyId": "48"
      },
      "economicActivities": [
        {
          "id": "1.846",
          "name": "Empresas de estudios de mercado",
          "_links": {
            "self": {
              "name": "Empresas de estudios de mercado",
              "href": "https://api.euskadi.eus/procurements/companies/economic-activities/1.846"
            }
          }
        },
        {
          "id": "1.847",
          "name": "Servicios de consultoría",
          "_links": {
            "self": {
              "name": "Servicios de consultoría",
              "href": "https://api.euskadi.eus/procurements/companies/economic-activities/1.847"
            }
          }
        }
      ],
      "certificateStartDate": "2025-11-12",
      "certificateEndDate": "2026-05-12",
      "object": "EL DESARROLLO DE LAS ACTIVIDADES CORRESPONDIENTES A LOS SIGUIENTES CÓDIGOS Y DESCRIPCIONES DE LA CLASIFICACIÓN NACIONAL DE ACTIVIDADES ECONÓMICAS: ACTIVIDAD PRINCIPAL.- 7022. OTRAS ACTIVIDADES DE CONSULTORÍA DE GESTIÓN EMPRESARIAL. OTRAS ACTIVIDADES.- 7320. ESTUDIOS DE MERCADO Y REALIZACIÓN DE ENCUESTAS DE OPINIÓN PÚBLICA.",
      "mainEntityOfPage": "https://www.contratacion.euskadi.eus/webkpe00-kperoc/es/ac71aBusquedaRegistrosWar/empresa/08518",
      "_links": {
        "self": {
          "name": "D360 OPEN SOLUTIONS, S.L.",
          "href": "https://api.euskadi.eus/procurements/companies/08518"
        }
      }
    },
    {
      "name": "DINALAN S. L.",
      "registrationNumber": "02936",
      "identificationNumber": "B01132679",
      "address": "POL. IND. ARZA, 7 - 2ª PLANTA C/ TRES CRUCES, s/n",
      "location": {
        "postalCode": "01400",
        "municipality": "Laudio/Llodio",
        "county": "Araba/Álava",
        "municipalityId": "036",
        "countyId": "01"
      },
      "economicActivities": [
        {
          "id": "1.504.1",
          "name": "Instalaciones eléctricas en general",
          "_links": {
            "self": {
              "name": "Instalaciones eléctricas en general",
              "href": "https://api.euskadi.eus/procurements/companies/economic-activities/1.504.1"
            }
          }
        },
        {
          "id": "1.504.12",
          "name": "Instalaciones eléctricas en toda clase de edificios",
          "_links": {
            "self": {
              "name": "Instalaciones eléctricas en toda clase de edificios",
              "href": "https://api.euskadi.eus/procurements/companies/economic-activities/1.504.12"
            }
          }
        },
        {
          "id": "1.845",
          "name": "Explotación electrónica por cuenta de terceros",
          "_links": {
            "self": {
              "name": "Explotación electrónica por cuenta de terceros",
              "href": "https://api.euskadi.eus/procurements/companies/economic-activities/1.845"
            }
          }
        }
      ],
      "certificateStartDate": "2025-11-12",
      "certificateEndDate": "2026-05-05",
      "classification": [
        {
          "id": "O",
          "name": "Obras",
          "groups": [
            {
              "id": "I",
              "name": "INSTALACIONES ELÉCTRICAS",
              "subgroups": [
                {
                  "id": "05",
                  "name": "Centros de transformación y distribución en alta tensión",
                  "categories": [
                    {
                      "id": "1",
                      "name": "Desde 0 Hasta 150.000",
                      "_links": {
                        "self": {
                          "name": "Desde 0 Hasta 150.000",
                          "href": "https://api.euskadi.eus/procurements/companies/types/O/categories/1"
                        }
                      }
                    }
                  ],
                  "_links": {
                    "self": {
                      "name": "Centros de transformación y distribución en alta tensión",
                      "href": "https://api.euskadi.eus/procurements/companies/types/O/groups/I/subgroups/05"
                    }
                  }
                },
                {
                  "id": "06",
                  "name": "Distribución en baja tensión",
                  "categories": [
                    {
                      "id": "4",
                      "name": "Desde 840.001 Hasta 2.400.000",
                      "_links": {
                        "self": {
                          "name": "Desde 840.001 Hasta 2.400.000",
                          "href": "https://api.euskadi.eus/procurements/companies/types/O/categories/4"
                        }
                      }
                    }
                  ],
                  "_links": {
                    "self": {
                      "name": "Distribución en baja tensión",
                      "href": "https://api.euskadi.eus/procurements/companies/types/O/groups/I/subgroups/06"
                    }
                  }
                },
                {
                  "id": "07",
                  "name": "Telecomunicaciones e instalaciones radioeléctricas",
                  "categories": [
                    {
                      "id": "2",
                      "name": "Desde 150.001 Hasta 360.000",
                      "_links": {
                        "self": {
                          "name": "Desde 150.001 Hasta 360.000",
                          "href": "https://api.euskadi.eus/procurements/companies/types/O/categories/2"
                        }
                      }
                    }
                  ],
                  "_links": {
                    "self": {
                      "name": "Telecomunicaciones e instalaciones radioeléctricas",
                      "href": "https://api.euskadi.eus/procurements/companies/types/O/groups/I/subgroups/07"
                    }
                  }
                },
                {
                  "id": "08",
                  "name": "Instalaciones electrónicas",
                  "categories": [
                    {
                      "id": "4",
                      "name": "Desde 840.001 Hasta 2.400.000",
                      "_links": {
                        "self": {
                          "name": "Desde 840.001 Hasta 2.400.000",
                          "href": "https://api.euskadi.eus/procurements/companies/types/O/categories/4"
                        }
                      }
                    }
                  ],
                  "_links": {
                    "self": {
                      "name": "Instalaciones electrónicas",
                      "href": "https://api.euskadi.eus/procurements/companies/types/O/groups/I/subgroups/08"
                    }
                  }
                },
                {
                  "id": "09",
                  "name": "Instalaciones eléctricas sin cualificación específica",
                  "categories": [
                    {
                      "id": "4",
                      "name": "Desde 840.001 Hasta 2.400.000",
                      "_links": {
                        "self": {
                          "name": "Desde 840.001 Hasta 2.400.000",
                          "href": "https://api.euskadi.eus/procurements/companies/types/O/categories/4"
                        }
                      }
                    }
                  ],
                  "_links": {
                    "self": {
                      "name": "Instalaciones eléctricas sin cualificación específica",
                      "href": "https://api.euskadi.eus/procurements/companies/types/O/groups/I/subgroups/09"
                    }
                  }
                }
              ],
              "_links": {
                "self": {
                  "name": "INSTALACIONES ELÉCTRICAS",
                  "href": "https://api.euskadi.eus/procurements/companies/types/O/groups/I"
                }
              }
            }
          ],
          "_links": {
            "self": {
              "name": "Obras",
              "href": "https://api.euskadi.eus/procurements/companies/types/O"
            }
          }
        }
      ],
      "object": "EL DESARROLLO Y EJECUCIÓN DE PROGRAMAS PARA ROBOTIZACIÓN E INFORMATIZACIÓN INDUSTRIAL. FABRICACIÓN Y MONTAJE DE EQUIPOS INFORMÁTICOS. VENTA Y DISTRIBUCIÓN DE SOFTWARE Y HARDWARE. CONSTRUCCIÓN E INSTALACIÓN DE MAQUINARIA E INSTALACIONES PARA LA INDUSTRIA, EL COMERCIO Y SERVICIOS. CREACIÓN Y DESARROLLO DE PROGRAMAS INFORMÁTICOS. PRESTACIÓN DE SERVICIOS DE ENSEÑANZA Y FORMACIÓN",
      "mainEntityOfPage": "https://www.contratacion.euskadi.eus/webkpe00-kperoc/es/ac71aBusquedaRegistrosWar/empresa/02936",
      "_links": {
        "self": {
          "name": "DINALAN S. L.",
          "href": "https://api.euskadi.eus/procurements/companies/02936"
        }
      }
    },
    {
      "name": "PROGRAMACION ARETO, S. COOP. PEQUEÑA",
      "registrationNumber": "07367",
      "identificationNumber": "F95759007",
      "address": "ASKATASUN ETORBIDEA, 2 C - 1º A ",
      "location": {
        "postalCode": "48200",
        "municipality": "Durango",
        "county": "Bizkaia",
        "municipalityId": "027",
        "countyId": "48"
      },
      "economicActivities": [
        {
          "id": "1.644.6",
          "name": "Venta al por menor de masas fritas, productos aperitivos, golosinas",
          "_links": {
            "self": {
              "name": "Venta al por menor de masas fritas, productos aperitivos, golosinas",
              "href": "https://api.euskadi.eus/procurements/companies/economic-activities/1.644.6"
            }
          }
        },
        {
          "id": "1.849.9",
          "name": "Otros servicios independientes n.c.o.p",
          "_links": {
            "self": {
              "name": "Otros servicios independientes n.c.o.p",
              "href": "https://api.euskadi.eus/procurements/companies/economic-activities/1.849.9"
            }
          }
        },
        {
          "id": "1.963.1",
          "name": "Exhibición de películas cinematográficas y vídeos en cines",
          "_links": {
            "self": {
              "name": "Exhibición de películas cinematográficas y vídeos en cines",
              "href": "https://api.euskadi.eus/procurements/companies/economic-activities/1.963.1"
            }
          }
        },
        {
          "id": "1.966.9",
          "name": "Otros servicios culturales n.c.o.p",
          "_links": {
            "self": {
              "name": "Otros servicios culturales n.c.o.p",
              "href": "https://api.euskadi.eus/procurements/companies/economic-activities/1.966.9"
            }
          }
        }
      ],
      "certificateStartDate": "2025-11-12",
      "certificateEndDate": "2026-05-04",
      "object": "LA PROGRAMACIÓN DE CINES Y TEATROS, GERENCIA DE CENTROS DE CULTURA, ASÍ COMO ORGANIZACIÓN DE FIESTAS, EVENTOS DEPORTIVOS Y TRABAJOS DE ASESORAMIENTO CULTURAL Y DE OBRAS PARA CENTROS CULTURALES, ASÍ COMO LABORES DE JURADOS EN CONCURSOS CULTURALES Y DEPORTIVOS. PROYECCIONES CINEMATOGRÁFICAS DE TODO TIPO, VENTA DE CHUCHERÍAS Y SERVICIOS DE CAFETERÍAS EN CENTROS DE EXHIBICIONES CINEMATOGRÁFICAS, ASÍ COMO EL TRANSPORTE DE LAS PELÍCULAS. SERVICIOS COMO MONITORES DE TIEMPO LIBRE, ANIMADORES CULTURALES, PERSONAL DE LIMPIEZA DE ESPACIOS CULTURALES, PERSONAL PARA BIBLIOTECAS, PARA FIESTAS Y ACTIVIDADES DEPORTIVAS, MUSEOS, SALAS DE EXPOSICIONES Y DEMÁS CENTROS CULTURALES DE CUALQUIER NATURALEZA",
      "mainEntityOfPage": "https://www.contratacion.euskadi.eus/webkpe00-kperoc/es/ac71aBusquedaRegistrosWar/empresa/07367",
      "_links": {
        "self": {
          "name": "PROGRAMACION ARETO, S. COOP. PEQUEÑA",
          "href": "https://api.euskadi.eus/procurements/companies/07367"
        }
      }
    },
    {
      "name": "DEXBER DEMOLICIONES Y EXCAVACIONES, S.L.",
      "registrationNumber": "06045",
      "identificationNumber": "B95660635",
      "address": "Maximo Agirre nº18 bis 5º Dpto 2",
      "location": {
        "postalCode": "48011",
        "municipality": "Bilbao",
        "county": "Bizkaia",
        "municipalityId": "020",
        "countyId": "48"
      },
      "economicActivities": [
        {
          "id": "1.502.1",
          "name": "Demoliciones y derribos en general",
          "_links": {
            "self": {
              "name": "Demoliciones y derribos en general",
              "href": "https://api.euskadi.eus/procurements/companies/economic-activities/1.502.1"
            }
          }
        }
      ],
      "certificateStartDate": "2025-11-12",
      "certificateEndDate": "2026-05-03",
      "object": "LA DEMOLICIÓN Y DERRIBO DE EDIFICIOS Y TODA CLASE DE CONSTRUCCIONES. LA EXCAVACIÓN EN CUALQUIER TIPO DE TERRENO. LA CONSOLIDACIÓN Y PREPARACIÓN DE TERRENOS PARA LA CONSTRUCCIÓN DE EDIFICIOS Y REALIZACIÓN DE OBRA CIVIL. LA CIMENTACIÓN Y PAVIMENTACIÓN TANTO PARA LA CONSTRUCCIÓN COMO PARA OBRA CIVIL. LA CONSTRUCCIÓN DE EDIFICIOS, YA SEAN PARA VIVIENDA, SERVICIOS O INDUSTRIA. LA EJECUCIÓN DE OBRAS TANTO PÚBLICAS COMO PARTICULARES. TRABAJOS DE ALBAÑILERÍA EN GENERAL, TANTO EN INTERIOR COMO EXTERIOR DE TODA CLASE DE EDIFICIOS. TERMINACIÓN DE OBRAS, DECORACIÓN DE VIVIENDAS Y LOCALES, COORDINACIÓN DE GREMIOS PARA TODA CLASE DE OBRAS, PROYECTOS Y REFORMAS EN TODO TIPO DE EDIFICIOS Y LOCALES. TRABAJOS DE HERRERÍA, CRISTALERÍA Y TODO TIPO DE INSTALACIONES ELÉCTRICAS. TRABAJOS DE FONTANERÍA Y CALEFACCIÓN. INSTALACIÓN DE CUBIERTAS DE TODA CLASE, INCLUIDAS LAS TERMOSOLARES. COLOCACIÓN DE SISTEMAS DE AISLAMIENTO TÉRMICO Y ACÚSTICO. LA COMPRAVENTA, TENENCIA Y ARRENDAMIENTO DE TODA CLASE DE BIENES TANTO MUEBLES COMO INMUEBLES, YA SEAN ESTOS RÚSTICOS COMO URBANOS\r\n",
      "mainEntityOfPage": "https://www.contratacion.euskadi.eus/webkpe00-kperoc/es/ac71aBusquedaRegistrosWar/empresa/06045",
      "_links": {
        "self": {
          "name": "DEXBER DEMOLICIONES Y EXCAVACIONES, S.L.",
          "href": "https://api.euskadi.eus/procurements/companies/06045"
        }
      }
    },
    {
      "name": "AKTIBA EXPERTOS EN VENTANAS, S.L.",
      "registrationNumber": "08036",
      "identificationNumber": "B01556927",
      "address": "C/. REYES CATOLICOS 15 letra C ",
      "location": {
        "postalCode": "01002",
        "municipality": "Vitoria-Gasteiz",
        "county": "Araba/Álava",
        "municipalityId": "059",
        "countyId": "01"
      },
      "economicActivities": [
        {
          "id": "1.505.5",
          "name": "Carpintería y cerrajería",
          "_links": {
            "self": {
              "name": "Carpintería y cerrajería",
              "href": "https://api.euskadi.eus/procurements/companies/economic-activities/1.505.5"
            }
          }
        },
        {
          "id": "1.653.5",
          "name": "Venta al por menor de puertas y ventanas, persianas, molduras, marcos",
          "_links": {
            "self": {
              "name": "Venta al por menor de puertas y ventanas, persianas, molduras, marcos",
              "href": "https://api.euskadi.eus/procurements/companies/economic-activities/1.653.5"
            }
          }
        }
      ],
      "certificateStartDate": "2025-11-12",
      "certificateEndDate": "2026-05-10",
      "object": "LA COMPRA VENTA, FABRICACIÓN E INSTALACIÓN DE CARPINTERÍA EXTERIOR, VIDRIOS, ELEMENTOS DE DECORACIÓN ASÍ COMO LA COORDINACIÓN DE GREMIOS.",
      "mainEntityOfPage": "https://www.contratacion.euskadi.eus/webkpe00-kperoc/es/ac71aBusquedaRegistrosWar/empresa/08036",
      "_links": {
        "self": {
          "name": "AKTIBA EXPERTOS EN VENTANAS, S.L.",
          "href": "https://api.euskadi.eus/procurements/companies/08036"
        }
      }
    },
    {
      "name": "CONSTRUCCIONES MARTINEZ DE ICAYA S.L.",
      "registrationNumber": "05956",
      "identificationNumber": "B01355635",
      "address": "AVDA. DEL ZADORRA 148 PAB 8",
      "location": {
        "postalCode": "01013",
        "municipality": "Vitoria-Gasteiz",
        "county": "Araba/Álava",
        "municipalityId": "059",
        "countyId": "01"
      },
      "economicActivities": [
        {
          "id": "1.501.1",
          "name": "Construcción completa, reparación y conservación de edificaciones",
          "_links": {
            "self": {
              "name": "Construcción completa, reparación y conservación de edificaciones",
              "href": "https://api.euskadi.eus/procurements/companies/economic-activities/1.501.1"
            }
          }
        },
        {
          "id": "1.501.3",
          "name": "Albañilería y pequeños trabajos de construcción en general",
          "_links": {
            "self": {
              "name": "Albañilería y pequeños trabajos de construcción en general",
              "href": "https://api.euskadi.eus/procurements/companies/economic-activities/1.501.3"
            }
          }
        }
      ],
      "certificateStartDate": "2025-11-12",
      "certificateEndDate": "2026-05-10",
      "object": "PROMOCIÓN Y EJECUCIÓN COMPLETA O POR RAMOS DE TODA CLASE DE OBRAS DE CONSTRUCCIÓN, URBANIZACIÓN Y SERVICIOS DE REPARACIÓN O CONSERVACIÓN",
      "mainEntityOfPage": "https://www.contratacion.euskadi.eus/webkpe00-kperoc/es/ac71aBusquedaRegistrosWar/empresa/05956",
      "_links": {
        "self": {
          "name": "CONSTRUCCIONES MARTINEZ DE ICAYA S.L.",
          "href": "https://api.euskadi.eus/procurements/companies/05956"
        }
      }
    },
    {
      "name": "DELTA SEGURIDAD, S.A.",
      "registrationNumber": "01679",
      "identificationNumber": "A48176614",
      "address": "Avenida Ribera de Axpe, 11 Edificio D1 Oficina 209",
      "location": {
        "postalCode": "48950",
        "municipality": "Erandio",
        "county": "Bizkaia",
        "municipalityId": "902",
        "countyId": "48"
      },
      "economicActivities": [
        {
          "id": "1.849.4",
          "name": "Servicios de custodia, seguridad y protección",
          "_links": {
            "self": {
              "name": "Servicios de custodia, seguridad y protección",
              "href": "https://api.euskadi.eus/procurements/companies/economic-activities/1.849.4"
            }
          }
        }
      ],
      "certificateStartDate": "2025-11-12",
      "certificateEndDate": "2026-05-06",
      "object": "A) VIGILANCIA Y PROTECCIÓN DE BIENES, ESTABLECIMIENTOS, ESPECTÁCULOS, CERTÁMENES O CONVENCIONES. B) PROTECCIÓN DE PERSONAS DETERMINADAS, PREVIA LA AUTORIZACIÓN CORRESPONDIENTE. C) DEPÓSITO, CUSTODIA, RECUENTO Y CLASIFICACIÓN DE MONEDAS Y BILLETES, TÍTULOS-VALORES Y DEMÁS OBJETOS QUE, POR SU VALOR ECONÓMICO Y EXPECTATIVAS QUE GENEREN, O POR SU PELIGROSIDAD, PUEDAN REQUERIR PROTECCIÓN ESPECIAL, SIN PERJUICIO DE LAS ACTIVIDADES PROPIAS DE LAS ENTIDADES FINANCIERAS. D) TRANSPORTE Y DISTRIBUCIÓN DE LOS OBJETOS A QUE SE REFIERE EL PÁRRAFO ANTERIOR A TRAVÉS DE LOS DISTINTOS MEDIOS, REALIZÁNDOLOS, EN SU CASO, MEDIANTE VEHÍCULOS CUYAS CARACTERÍSTICAS SERÁN DETERMINADAS POR EL MINISTERIO DE INTERIOR, DE FORMA QUE NO PUEDAN CONFUNDIRSE CON LOS DE LAS FUERZAS ARMADAS, NI CON LOS DE LAS FUERZAS Y CUERPOS DE SEGURIDAD. E) INSTALACIÓN Y MANTENIMIENTO DE APARATOS, DISPOSITIVOS Y SISTEMAS DE SEGURIDAD. F) EXPLOTACIÓN DE CENTRALES PARA LA RECEPCIÓN, VERIFICACIÓN Y TRANSMISIÓN DE LAS SEÑALES DE ALARMAS Y SU COMUNICACIÓN A LAS FUERZAS Y CUERPOS DE SEGURIDAD, ASÍ COMO PRESTACIÓN DE SERVICIOS DE RESPUESTA CUYA REALIZACIÓN NO SEA DE LA COMPETENCIA DE DICHAS FUERZAS Y CUERPOS. G) PLANIFICACIÓN Y ASESORAMIENTO DE LAS ACTIVIDADES DE SEGURIDAD CONTEMPLADAS EN LA LEY 23/1.992, DE 30 DE JULIO. H) GARANTIZAR LA FORMACIÓN Y ACTUALIZACIÓN PROFESIONAL DE SU PERSONAL DE SEGURIDAD, PUDIENDO CREAR CENTROS DE FORMACIÓN Y ACTUALIZACIÓN PARA EL PERSONAL DE EMPRESAS DE SEGURIDAD, DE ACUERDO CON LO PREVISTO EN LA LEY 23/1.992, DE 30 DE JULIO, DE SEGURIDAD PRIVADA. I) EN NINGÚN CASO ESTA SOCIEDAD, PODRÁ REALIZAR LAS FUNCIONES DE INFORMACIÓN E INVESTIGACIÓN, PROPIAS DE LOS DETECTIVES PRIVADOS.",
      "mainEntityOfPage": "https://www.contratacion.euskadi.eus/webkpe00-kperoc/es/ac71aBusquedaRegistrosWar/empresa/01679",
      "_links": {
        "self": {
          "name": "DELTA SEGURIDAD, S.A.",
          "href": "https://api.euskadi.eus/procurements/companies/01679"
        }
      }
    },
    {
      "name": "NEPSET, S.L.",
      "registrationNumber": "06375",
      "identificationNumber": "B95776688",
      "address": "Av Zugatzarte (Areeta), 32 - 2",
      "location": {
        "postalCode": "48930",
        "municipality": "Getxo",
        "county": "Bizkaia",
        "municipalityId": "044",
        "countyId": "48"
      },
      "economicActivities": [
        {
          "id": "1.845",
          "name": "Explotación electrónica por cuenta de terceros",
          "_links": {
            "self": {
              "name": "Explotación electrónica por cuenta de terceros",
              "href": "https://api.euskadi.eus/procurements/companies/economic-activities/1.845"
            }
          }
        }
      ],
      "certificateStartDate": "2025-11-12",
      "certificateEndDate": "2026-05-09",
      "object": "LA CREACIÓN DE PÁGINAS \"WEB\", EL COMERCIO \"ON LINE\", Y EL DESARROLLO DE APLICACIONES MÓVILES",
      "mainEntityOfPage": "https://www.contratacion.euskadi.eus/webkpe00-kperoc/es/ac71aBusquedaRegistrosWar/empresa/06375",
      "_links": {
        "self": {
          "name": "NEPSET, S.L.",
          "href": "https://api.euskadi.eus/procurements/companies/06375"
        }
      }
    },
    {
      "name": "RAUL PARIS PALACIOS",
      "registrationNumber": "08169",
      "identificationNumber": "44976614E",
      "address": "Calle Xenpelar nº 10 - 8º A",
      "location": {
        "postalCode": "48003",
        "municipality": "Bilbao",
        "county": "Bizkaia",
        "municipalityId": "020",
        "countyId": "48"
      },
      "economicActivities": [
        {
          "id": "2.421",
          "name": "Arquitectos técnicos y aparejadores",
          "_links": {
            "self": {
              "name": "Arquitectos técnicos y aparejadores",
              "href": "https://api.euskadi.eus/procurements/companies/economic-activities/2.421"
            }
          }
        }
      ],
      "certificateStartDate": "2025-11-12",
      "certificateEndDate": "2026-05-08",
      "object": "ARQUITECTOS.",
      "mainEntityOfPage": "https://www.contratacion.euskadi.eus/webkpe00-kperoc/es/ac71aBusquedaRegistrosWar/empresa/08169",
      "_links": {
        "self": {
          "name": "RAUL PARIS PALACIOS",
          "href": "https://api.euskadi.eus/procurements/companies/08169"
        }
      }
    }
  ]
}