{
  "totalItems": 9042,
  "totalPages": 905,
  "currentPage": 837,
  "itemsOfPage": 10,
  "items": [
    {
      "name": "INGENIERÍA INSTALACIONES Y MANTENIMIENTO LABEA, S.L.",
      "registrationNumber": "01434",
      "identificationNumber": "B48629869",
      "address": "SABINO ARANA, 41",
      "location": {
        "postalCode": "48600",
        "municipality": "Sopela",
        "county": "Bizkaia",
        "municipalityId": "085",
        "countyId": "48"
      },
      "economicActivities": [
        {
          "id": "1.504.3",
          "name": "Instalaciones de frío, calor y acondicionamiento de aire",
          "_links": {
            "self": {
              "name": "Instalaciones de frío, calor y acondicionamiento de aire",
              "href": "https://api.euskadi.eus/procurements/companies/economic-activities/1.504.3"
            }
          }
        }
      ],
      "certificateStartDate": "1998-03-24",
      "certificateEndDate": "1998-09-11",
      "object": "LA INGENIERIA, MONTAJE, MANTENIMIENTO Y SERVICIOS GENERALES DE CALEFACCION, AIRE ACONDICIONADO Y DEMAS INSTALACIONES AUXILIARES DE LA CONSTRUCCION",
      "mainEntityOfPage": "https://www.contratacion.euskadi.eus/webkpe00-kperoc/es/ac71aBusquedaRegistrosWar/empresa/01434",
      "_links": {
        "self": {
          "name": "INGENIERÍA INSTALACIONES Y MANTENIMIENTO LABEA, S.L.",
          "href": "https://api.euskadi.eus/procurements/companies/01434"
        }
      }
    },
    {
      "name": "DINOF SERVICIOS, S.L.",
      "registrationNumber": "01209",
      "identificationNumber": "B48479695",
      "address": "AURELIANO VALLE, 6 - LONJA",
      "location": {
        "postalCode": "48010",
        "municipality": "Bilbao",
        "county": "Bizkaia",
        "municipalityId": "020",
        "countyId": "48"
      },
      "economicActivities": [
        {
          "id": "1.659.2",
          "name": "Venta al por menor de muebles de oficina y máquinas y equipos de oficina",
          "_links": {
            "self": {
              "name": "Venta al por menor de muebles de oficina y máquinas y equipos de oficina",
              "href": "https://api.euskadi.eus/procurements/companies/economic-activities/1.659.2"
            }
          }
        }
      ],
      "certificateStartDate": "1998-03-18",
      "certificateEndDate": "1998-09-09",
      "object": "LA COMERCIALIZACION, COMPRA-VENTA Y DISTRIBUCION DE MAQUINAS DE ESCRIBIR, CALCULAR, ORDENADORES, SISTEMAS DE INFORMATICOS, MOBILIARIO, ACCESORIOS Y COMPLEMENTOS PARA OFICINAS; SISTEMAS DE ARCHIVO, ALMACENAJE Y PALETIZACION DE MATERIALES, PROYECTOS DE DECORACION, OBRAS Y REFORMAS DE LOCALES; REPARACIONES, MANTENIMIENTOS Y SERVICIO TECNICO DE LOS OBJETOS DESCRITOS Y SUS PIEZAS DE REPUESTO, Y TODAS LAS OPERACIONES COMERCIALES, INDUSTRIALES Y FINANCIERAS RELACIONADAS CON LAS ENUMERADAS, ASI COMO LA ADQUISICION, ENAJENACION Y GRAVAMEN DE BIENES INMUEBLES. LAS ACTIVIDADES QUE INTEGRAN EL OBJETO SOCIAL PODRAN DESARROLLARSE TOTAL O PARCIALMENTE DE MODO INDIRECTO, MEDIANTE LA TITULARIDAD DE ACCIONES O PARTICIPACIONES EN SOCIEDADES CON OBJETO IDENTICO O ANALOGO",
      "mainEntityOfPage": "https://www.contratacion.euskadi.eus/webkpe00-kperoc/es/ac71aBusquedaRegistrosWar/empresa/01209",
      "_links": {
        "self": {
          "name": "DINOF SERVICIOS, S.L.",
          "href": "https://api.euskadi.eus/procurements/companies/01209"
        }
      }
    },
    {
      "name": "ALBAÑILERÍA SAN IGNACIO, S.L.",
      "registrationNumber": "00688",
      "identificationNumber": "B20098042",
      "address": "MENDI ALAI GURE ETXEA, Nº 10",
      "location": {
        "postalCode": "20009",
        "municipality": "Donostia / San Sebastián",
        "county": "Gipuzkoa",
        "municipalityId": "069",
        "countyId": "20"
      },
      "economicActivities": [
        {
          "id": "1.501.1",
          "name": "Construcción completa, reparación y conservación de edificaciones",
          "_links": {
            "self": {
              "name": "Construcción completa, reparación y conservación de edificaciones",
              "href": "https://api.euskadi.eus/procurements/companies/economic-activities/1.501.1"
            }
          }
        }
      ],
      "certificateStartDate": "1998-03-06",
      "certificateEndDate": "1998-08-19",
      "object": "LAS CONSTRUCCIONES EN TODAS SUS MANIFESTACIONES Y EN ESPECIAL LA REALIZACION DE TRABAJOS DE ALBAÑILERIA Y HORMIGONADO EN GENERAL, LA COMPRA-VENTA, COMERCIALIZACION, IMPORTACION, EXPORTACION Y DISTRIBUCION DE TODO TIPO DE PRODUCTOS Y ARTICULOS RELACIONADOS CON LA CONSTRUCCION Y OBRAS PUBLICAS",
      "mainEntityOfPage": "https://www.contratacion.euskadi.eus/webkpe00-kperoc/es/ac71aBusquedaRegistrosWar/empresa/00688",
      "_links": {
        "self": {
          "name": "ALBAÑILERÍA SAN IGNACIO, S.L.",
          "href": "https://api.euskadi.eus/procurements/companies/00688"
        }
      }
    },
    {
      "name": "S.A. DE PROMOCIÓN Y DESARROLLO TALDE",
      "registrationNumber": "00043",
      "identificationNumber": "A48080147",
      "address": "C/ COLON DE LARREATEGUI, Nº 26 - 6º B",
      "location": {
        "postalCode": "48009",
        "municipality": "Bilbao",
        "county": "Bizkaia",
        "municipalityId": "020",
        "countyId": "48"
      },
      "economicActivities": [
        {
          "id": "1.819.9",
          "name": "Otras entidades financieras n.c.o.p",
          "_links": {
            "self": {
              "name": "Otras entidades financieras n.c.o.p",
              "href": "https://api.euskadi.eus/procurements/companies/economic-activities/1.819.9"
            }
          }
        },
        {
          "id": "1.847",
          "name": "Servicios de consultoría",
          "_links": {
            "self": {
              "name": "Servicios de consultoría",
              "href": "https://api.euskadi.eus/procurements/companies/economic-activities/1.847"
            }
          }
        }
      ],
      "certificateStartDate": "1998-03-04",
      "certificateEndDate": "1998-06-19",
      "object": "TECNICAS MODERNAS DE GESTION (ESPECIALISTAS Y TECNICOS EN CONTABILIDAD, FINANZAS Y MERCADOS)",
      "mainEntityOfPage": "https://www.contratacion.euskadi.eus/webkpe00-kperoc/es/ac71aBusquedaRegistrosWar/empresa/00043",
      "_links": {
        "self": {
          "name": "S.A. DE PROMOCIÓN Y DESARROLLO TALDE",
          "href": "https://api.euskadi.eus/procurements/companies/00043"
        }
      }
    },
    {
      "name": "PROYECCIÓN COMUNICACIÓN Y SERVICIOS, S.L.",
      "registrationNumber": "01612",
      "identificationNumber": "B48725840",
      "address": "PADRE LOJENDIO, Nº 5",
      "location": {
        "postalCode": "48008",
        "municipality": "Bilbao",
        "county": "Bizkaia",
        "municipalityId": "020",
        "countyId": "48"
      },
      "economicActivities": [
        {
          "id": "1.961.1",
          "name": "Producción de películas cinematográficas (incluso vídeos)",
          "_links": {
            "self": {
              "name": "Producción de películas cinematográficas (incluso vídeos)",
              "href": "https://api.euskadi.eus/procurements/companies/economic-activities/1.961.1"
            }
          }
        }
      ],
      "certificateStartDate": "1998-03-03",
      "certificateEndDate": "1998-08-24",
      "object": "LA REDACCION Y APLICACION DE PLANES Y ESTRATEGIAS DE COMUNICACION E IMAGEN; REDACCION Y DISEÑO DE PUBLICACIONES; CREACION Y GESTION DE CAMPAÑAS DE PUBLICIDAD, ESTUDIOS SOCIOLOGICOS Y DE MERCADO; CREACION Y REALIZACION DE TODO TIPO DE PRODUCTOS AUDIOVISUALES; CREACION Y PRODUCCION DE PROGRAMAS DE TELEVISION; COMERCIALIZACION Y GESTION DE SERVICIOS GENERALES; LA CREACION Y EXPLOTACION DE NUEVOS PROYECTOS DE SERVICIOS Y, EN GENERAL, LA PRESTACION DE TODA CLASE DE SERVICIOS RELACIONADOS CON LA IMAGEN, LA COMUNICACION Y LA PUBLICIDAD",
      "mainEntityOfPage": "https://www.contratacion.euskadi.eus/webkpe00-kperoc/es/ac71aBusquedaRegistrosWar/empresa/01612",
      "_links": {
        "self": {
          "name": "PROYECCIÓN COMUNICACIÓN Y SERVICIOS, S.L.",
          "href": "https://api.euskadi.eus/procurements/companies/01612"
        }
      }
    },
    {
      "name": "GRÁFICAS SAMPEDRO, S.A.",
      "registrationNumber": "00739",
      "identificationNumber": "A48126932",
      "address": "C/ PABLO ALZOLA, Nº 2 - 1º",
      "location": {
        "postalCode": "48012",
        "municipality": "Bilbao",
        "county": "Bizkaia",
        "municipalityId": "020",
        "countyId": "48"
      },
      "economicActivities": [
        {
          "id": "1.474",
          "name": "Artes gráficas (impresión gráfica)",
          "_links": {
            "self": {
              "name": "Artes gráficas (impresión gráfica)",
              "href": "https://api.euskadi.eus/procurements/companies/economic-activities/1.474"
            }
          }
        }
      ],
      "certificateStartDate": "1998-02-20",
      "certificateEndDate": "1998-07-14",
      "object": "LA EJECUCION DE TODO TIPO DE TRABAJOS DE IMPRENTA Y ENCUADERNACION, Y EN GENERAL, TRABAJOS RELACIONADOS CON LAS ARTES GRAFICAS",
      "mainEntityOfPage": "https://www.contratacion.euskadi.eus/webkpe00-kperoc/es/ac71aBusquedaRegistrosWar/empresa/00739",
      "_links": {
        "self": {
          "name": "GRÁFICAS SAMPEDRO, S.A.",
          "href": "https://api.euskadi.eus/procurements/companies/00739"
        }
      }
    },
    {
      "name": "BERAKO-EASO, S.A.",
      "registrationNumber": "01747",
      "identificationNumber": "A20193223",
      "address": "ZIRKUITO IBILBIDEA, 2 - POL. INDUSTRIALDEA PABELLÓN 5-6",
      "location": {
        "postalCode": "20160",
        "municipality": "Lasarte-Oria",
        "county": "Gipuzkoa",
        "municipalityId": "902",
        "countyId": "20"
      },
      "economicActivities": [
        {
          "id": "1.501.1",
          "name": "Construcción completa, reparación y conservación de edificaciones",
          "_links": {
            "self": {
              "name": "Construcción completa, reparación y conservación de edificaciones",
              "href": "https://api.euskadi.eus/procurements/companies/economic-activities/1.501.1"
            }
          }
        },
        {
          "id": "1.921.4",
          "name": "Servicios de alcantarillado, evacuación y depuración de aguas residuales",
          "_links": {
            "self": {
              "name": "Servicios de alcantarillado, evacuación y depuración de aguas residuales",
              "href": "https://api.euskadi.eus/procurements/companies/economic-activities/1.921.4"
            }
          }
        }
      ],
      "certificateStartDate": "1998-02-17",
      "certificateEndDate": "1998-08-16",
      "object": "LA PRESTACION DE SERVICIOS DE LIMPIEZA DE CALDERAS, CIRCUITOS, DEPOSITOS, ALCANTARILLAS, ETC. LA REALIZACION DE TODO TIPO DE OBRAS CIVILES Y EDIFICACIONES E INSTALACIONES ANEXAS DE TODO TIPO DE EMPRESAS INDUSTRIALES Y ORGANISMOS MUNICIPALES, PROVINCIALES O ESTATALES Y CUANTOS OTROS SE RELACIONEN CON ESTA ACTIVIDAD. Y LA INSPECCION Y REVISION DE TODO TIPO DE CONDUCCIONES Y CANALIZACIONES MEDIANTE EL EMPLEO DE UN EQUIPO DE TV EN CIRCUITO CERRADO",
      "mainEntityOfPage": "https://www.contratacion.euskadi.eus/webkpe00-kperoc/es/ac71aBusquedaRegistrosWar/empresa/01747",
      "_links": {
        "self": {
          "name": "BERAKO-EASO, S.A.",
          "href": "https://api.euskadi.eus/procurements/companies/01747"
        }
      }
    },
    {
      "name": "TECMICRO, S.A.",
      "registrationNumber": "01661",
      "identificationNumber": "A28385060",
      "address": "AVDA. DR. FEDERICO RUBIO Y GALI, Nº 108",
      "location": {
        "postalCode": "28040",
        "municipality": "Madrid",
        "county": "Madrid",
        "municipalityId": "079",
        "countyId": "28"
      },
      "economicActivities": [
        {
          "id": "1.617.5",
          "name": "Venta al por mayor de maquinaria para la madera y el metal",
          "_links": {
            "self": {
              "name": "Venta al por mayor de maquinaria para la madera y el metal",
              "href": "https://api.euskadi.eus/procurements/companies/economic-activities/1.617.5"
            }
          }
        }
      ],
      "certificateStartDate": "1998-02-09",
      "certificateEndDate": "1998-08-03",
      "object": "LAS OPERACIONES MERCANTILES DE COMISIONES, REPRESENTACIONES, Y TRANSACCIONES COMERCIALES DE COMPRA Y VENTA DE TODA CLASE DE ARTICULOS DE LICITO COMERCIO, INCLUSO OPERACIONES DE IMPORTACION Y EXPORTACION",
      "mainEntityOfPage": "https://www.contratacion.euskadi.eus/webkpe00-kperoc/es/ac71aBusquedaRegistrosWar/empresa/01661",
      "_links": {
        "self": {
          "name": "TECMICRO, S.A.",
          "href": "https://api.euskadi.eus/procurements/companies/01661"
        }
      }
    },
    {
      "name": "ENDOSCOPIA MEDICA, S.A.",
      "registrationNumber": "01952",
      "identificationNumber": "A79332961",
      "address": "C/ ARAGONESES, 2",
      "location": {
        "postalCode": "28108",
        "municipality": "Alcobendas",
        "county": "Madrid",
        "municipalityId": "006",
        "countyId": "28"
      },
      "economicActivities": [
        {
          "id": "1.619.2",
          "name": "Venta al por mayor de aparatos e instrumentos médicos, ortopédicos, ópticos",
          "_links": {
            "self": {
              "name": "Venta al por mayor de aparatos e instrumentos médicos, ortopédicos, ópticos",
              "href": "https://api.euskadi.eus/procurements/companies/economic-activities/1.619.2"
            }
          }
        }
      ],
      "certificateStartDate": "1998-02-05",
      "certificateEndDate": "1998-06-09",
      "object": " a) LA CONSTRUCCION, PROMOCION Y VENTA POR CUENTA PROPIA O AJENA, DE EDIFICACIONES PARA VIVIENDAS O USOS INDUSTRIALES Y COMERCIALES, ASI COMO LA REALIZACION DE TODA CLASE DE OBRAS, TANTO PUBLICAS COMO PRIVADAS Y LA URBANIZACION Y PARCELACION DE TODA CLASE DE TERRENOS. b) LA COMPRA, VENTA, SUMINISTRO, MONTAJE, FABRICACION, INSTALACION, ARRENDAMIENTO DE TODA CLASE DE MATERIAL, ENSERES Y MUEBLES DESTINADOS A SERVICIO MEDICO-QUIRURGICO U ORTOPEDIA, ASI COMO INSTRUMENTAL, APARATOS, ACCESORIOS Y TODO LO RELACIONADO CON LA ACTIVIDAD DIRECTA, ASIMISMO COMO LA IMPORTACION Y EXPORTACION SIN LIMITE DE LOS MISMOS. c) LA PRESTACION DE SERVICIOS A PERSONAS FISICAS O JURIDICAS, PUBLICAS O PRIVADAS, DE ASESORAMIENTO PROFESIONAL EN LOS CAMPOS JURIDICOS, LABORAL, CONTABLE, FISCAL Y ADMINISTRATIVO, CON TODO CUANTO A TAL OBJETO SEA INHERENTE O COMPLEMENTARIO",
      "mainEntityOfPage": "https://www.contratacion.euskadi.eus/webkpe00-kperoc/es/ac71aBusquedaRegistrosWar/empresa/01952",
      "_links": {
        "self": {
          "name": "ENDOSCOPIA MEDICA, S.A.",
          "href": "https://api.euskadi.eus/procurements/companies/01952"
        }
      }
    },
    {
      "name": "JESÚS FERNÁNDEZ DE ARROYABE PAUNERO",
      "registrationNumber": "00280",
      "identificationNumber": "16244997M",
      "address": "C/ SAN FRANCISCO, Nº 22.",
      "location": {
        "postalCode": "01001",
        "municipality": "Vitoria-Gasteiz",
        "county": "Araba/Álava",
        "municipalityId": "059",
        "countyId": "01"
      },
      "economicActivities": [
        {
          "id": "1.659.7",
          "name": "Venta al por menor de semillas, abonos, flores, plantas y pequeños animales",
          "_links": {
            "self": {
              "name": "Venta al por menor de semillas, abonos, flores, plantas y pequeños animales",
              "href": "https://api.euskadi.eus/procurements/companies/economic-activities/1.659.7"
            }
          }
        }
      ],
      "certificateStartDate": "1998-01-09",
      "certificateEndDate": "1998-07-02",
      "object": "FLORISTERIA Y JARDINERIA",
      "mainEntityOfPage": "https://www.contratacion.euskadi.eus/webkpe00-kperoc/es/ac71aBusquedaRegistrosWar/empresa/00280",
      "_links": {
        "self": {
          "name": "JESÚS FERNÁNDEZ DE ARROYABE PAUNERO",
          "href": "https://api.euskadi.eus/procurements/companies/00280"
        }
      }
    }
  ]
}