{
  "totalItems": 9042,
  "totalPages": 905,
  "currentPage": 441,
  "itemsOfPage": 10,
  "items": [
    {
      "name": "MARIA CRISTINA ZARRABEITIA PEÑALBA",
      "registrationNumber": "08720",
      "identificationNumber": "78863893K",
      "address": "PESCADORES DETERRANOVA , 1",
      "location": {
        "postalCode": "20011",
        "municipality": "Donostia / San Sebastián",
        "county": "Gipuzkoa",
        "municipalityId": "069",
        "countyId": "20"
      },
      "economicActivities": [
        {
          "id": "2.411",
          "name": "Arquitectos",
          "_links": {
            "self": {
              "name": "Arquitectos",
              "href": "https://api.euskadi.eus/procurements/companies/economic-activities/2.411"
            }
          }
        }
      ],
      "certificateStartDate": "2023-10-11",
      "certificateEndDate": "2024-04-09",
      "object": "ARQUITECTOS.",
      "mainEntityOfPage": "https://www.contratacion.euskadi.eus/webkpe00-kperoc/es/ac71aBusquedaRegistrosWar/empresa/08720",
      "_links": {
        "self": {
          "name": "MARIA CRISTINA ZARRABEITIA PEÑALBA",
          "href": "https://api.euskadi.eus/procurements/companies/08720"
        }
      }
    },
    {
      "name": "SUMINISTROS ZELAI SL",
      "registrationNumber": "08435",
      "identificationNumber": "B20171823",
      "address": "Polígono Industrial Benta Aldea, Pab. N.º 12",
      "location": {
        "postalCode": "20270",
        "municipality": "Anoeta",
        "county": "Gipuzkoa",
        "municipalityId": "010",
        "countyId": "20"
      },
      "economicActivities": [
        {
          "id": "1.617.4",
          "name": "Venta al por mayor de materiales de construcción, vidrio y artículos instalación",
          "_links": {
            "self": {
              "name": "Venta al por mayor de materiales de construcción, vidrio y artículos instalación",
              "href": "https://api.euskadi.eus/procurements/companies/economic-activities/1.617.4"
            }
          }
        },
        {
          "id": "1.852",
          "name": "Alquiler de maquinaria y equipo para la construcción",
          "_links": {
            "self": {
              "name": "Alquiler de maquinaria y equipo para la construcción",
              "href": "https://api.euskadi.eus/procurements/companies/economic-activities/1.852"
            }
          }
        }
      ],
      "certificateStartDate": "2023-10-10",
      "certificateEndDate": "2024-04-10",
      "object": "LA COMPRAVENTA AL POR MAYOR DE MAQUINARIA Y ACCESORIOS DESTINADOS A LA CONSTRUCCIÓN Y OBRAS PÚBLICAS, ASÍ COMO DE VEHÍCULOS INDUSTRIALES; ARRENDAMIENTO DE LOS ELEMENTOS ANTERIORES.",
      "mainEntityOfPage": "https://www.contratacion.euskadi.eus/webkpe00-kperoc/es/ac71aBusquedaRegistrosWar/empresa/08435",
      "_links": {
        "self": {
          "name": "SUMINISTROS ZELAI SL",
          "href": "https://api.euskadi.eus/procurements/companies/08435"
        }
      }
    },
    {
      "name": "TRYNDAMERE, S.L.",
      "registrationNumber": "07973",
      "identificationNumber": "B87106498",
      "address": "CALLE MIGUEL FARADAY, 20, B204, POLÍGONO EMPRESARIAL LA CARPETAN",
      "location": {
        "postalCode": "28906",
        "municipality": "Getafe",
        "county": "Madrid",
        "municipalityId": "065",
        "countyId": "28"
      },
      "economicActivities": [
        {
          "id": "1.614.2",
          "name": "Venta al por mayor de productos de perfumería, droguería, higiene y belleza",
          "_links": {
            "self": {
              "name": "Venta al por mayor de productos de perfumería, droguería, higiene y belleza",
              "href": "https://api.euskadi.eus/procurements/companies/economic-activities/1.614.2"
            }
          }
        }
      ],
      "certificateStartDate": "2023-10-10",
      "certificateEndDate": "2024-04-10",
      "object": "CNAE -4646: COMERCIO AL POR MAYOR DE PRODUCTOS FARMACÉUTICOS CNAE -4645: COMERCIO AL POR MAYOR DE PRODUCTOS PERFUMERÍA Y COSMÉTICA CNAE -4773: COMERCIO AL POR MENOR DE PRODUCTOS FARMACÉUTICOS EN ESTABLECIMIENTOS ESPECIALIZADOS CNAE -4774: COMERCIO AL POR MENOR DE ARTÍCULOS MÉDICOS Y ORTOPÉDICOS EN ESTABLECIMIENTOS ESPECIALIZADOS CNAE -4775: COMERCIO AL POR MENOR DE PRODUCTOS COSMÉTICOS E HIGIÉNICOS EN ESTABLECIMIENTOS ESPECIALIZADOS CNAE -4619 INTERMEDIARIOS DEL COMERCIO DE PRODUCTOS DIVERSOS CNAE -4639.- COMERCIO AL POR MAYOR, NO ESPECIALIZADO, DE PRODUCTOS ALIMENTICIOS, BEBIDAS Y TABACO CNAE -4649.- COMERCIO AL POR MAYOR DE OTROS ARTÍCULOS DE USO DOMÉSTICO CNAE -4690.- COMERCIO AL POR MAYOR NO ESPECIALIZADO CNAE -4711 COMERCIO AL POR MENOR EN ESTABLECIMIENTOS NO ESPECIALIZADOS, CON PREDOMINIO EN PRODUCTOS ALIMENTICIOS, BEBIDAS Y TABACO CNAE -4719.- OTRO COMERCIO AL POR MENOR EN ESTABLECIMIENTOS NO ESPECIALIZADOS CNAE -4729.- OTRO COMERCIO AL POR MENOR DE PRODUCTOS ALIMENTICIOS EN ESTABLECIMIENTOS ESPECIALIZADOS CNAE -4754.- COMERCIO AL POR MENOR DE APARATOS ELECTRODOMÉSTICOS EN ESTABLECIMIENTOS ESPECIALIZADOS CNAE -4759.- COMERCIO AL POR MENOR DE MUEBLES, APARATOS DE ILUMINACIÓN Y OTROS ARTÍCULOS DE USO DOMÉSTICO EN ESTABLECIMIENTOS ESPECIALIZADOS CNAE -4776.- COMERCIO AL POR MENOR DE FLORES, PLANTAS, SEMILLAS, FERTILIZANTES, ANIMALES DE COMPAÑÍA Y ALIMENTOS PARA LOS MISMOS EN ESTABLECIMIENTOS ESPECIALIZADOS CNAE -4764.- COMERCIO AL POR MENOR DE ARTÍCULOS DEPORTIVOS EN ESTABLECIMIENTOS ESPECIALIZADOS CNAE -4761.- COMERCIO AL POR MENOR DE LIBROS EN ESTABLECIMIENTOS ESPECIALIZADOS CNAE -4762.- COMERCIO AL POR MENOR DE PERIÓDICOS Y ARTÍCULOS DE PAPELERÍA EN ESTABLECIMIENTOS ESPECIALIZADOS CNAE -4742.- COMERCIO AL POR MENOR DE EQUIPOS DE TELECOMUNICACIONES EN ESTABLECIMIENTOS ESPECIALIZADOS CNAE -4743.- COMERCIO AL POR MENOR DE EQUIPOS DE AUDIO Y VÍDEO EN ESTABLECIMIENTOS ESPECIALIZADOS CNAE -4724.- COMERCIO AL POR MENOR DE PAN Y PRODUCTOS DE PANADERÍA, CONFITERÍA Y PASTELERÍA EN ESTABLECIMIENTOS ESPECIALIZADOS CNAE -4778.- OTRO COMERCIO AL POR MENOR DE ARTÍCULOS NUEVOS EN ESTABLECIMIENTOS ESPECIALIZADOS CNAE -5510.- HOTELES Y ALOJAMIENTOS SIMILARES CNAE -5610.-  RESTAURANTES Y PUESTOS DE COMIDAS CNAE -5621.- PROVISIÓN DE COMIDAS PREPARADAS PARA EVENTOS CNAE -5629.- OTROS SERVICIOS DE COMIDAS CNAE -5630.- ESTABLECIMIENTOS DE BEBIDAS CNAE - 4639.- COMERCIO AL POR MAYOR, NO ESPECIALIZADO, DE PRODUCTOS ALIMENTICIOS, BEBIDAS Y TABACO CNAE -4649.- COMERCIO AL POR MAYOR DE OTROS ARTÍCULOS DE USO DOMÉSTICO CNAE -4719.- OTRO COMERCIO AL POR MENOR EN ESTABLECIMIENTOS NO ESPECIALIZADOS CNAE -4729.- OTRO COMERCIO AL POR MENOR DE PRODUCTOS ALIMENTICIOS EN ESTABLECIMIENTOS ESPECIALIZADOS CNAE -8559.- OTRA EDUCACIÓN N.C.O.P. CNAE -8560.- ACTIVIDADES AUXILIARES A LA EDUCACIÓN CNAE -7830.- OTRA PROVISIÓN DE RECURSOS HUMANOS CNAE -7022.- OTRAS ACTIVIDADES DE CONSULTORÍA DE GESTIÓN EMPRESARIAL CNAE -9412.- ACTIVIDADES DE ORGANIZACIONES PROFESIONALES.",
      "mainEntityOfPage": "https://www.contratacion.euskadi.eus/webkpe00-kperoc/es/ac71aBusquedaRegistrosWar/empresa/07973",
      "_links": {
        "self": {
          "name": "TRYNDAMERE, S.L.",
          "href": "https://api.euskadi.eus/procurements/companies/07973"
        }
      }
    },
    {
      "name": "ODUTENT SOCIEDAD LIMITADA",
      "registrationNumber": "08427",
      "identificationNumber": "B55650683",
      "address": "Polígono Industrial Molí d&apos;en Serra - Carrer Alt Camp, 5",
      "location": {
        "postalCode": "43710",
        "municipality": "Santa Oliva",
        "county": "Tarragona",
        "municipalityId": "140",
        "countyId": "43"
      },
      "economicActivities": [
        {
          "id": "1.615.9",
          "name": "Venta al por mayor de otros artículos de consumo duradero n.c.o.p",
          "_links": {
            "self": {
              "name": "Venta al por mayor de otros artículos de consumo duradero n.c.o.p",
              "href": "https://api.euskadi.eus/procurements/companies/economic-activities/1.615.9"
            }
          }
        }
      ],
      "certificateStartDate": "2023-10-10",
      "certificateEndDate": "2024-04-10",
      "object": "A) LA FABRICACIÓN, INSTALACIÓN, COMPRAVENTA, ALQUILER Y REPARACIÓN DE ESTRUCTURAS METÁLICAS Y METALO-TEXTIL DE CARPAS, PAGODAS Y RECINTOS INDUSTRIALES, TANTO FIJOS COMO MÓVILES E ITINERANTES. CÓDIGO DE LA ACTIVIDAD PRINCIPAL, SEGÚN CLASIFICACION NACIONAL DE ACTIVIDADES ECONÓMICAS 2511 (CNAE 2009). B) INTERMEDIACIÓN, COMPRAVENTA, DISTRIBUCIÓN YCOMERCIO EN GENERAL, TANTO MAYORISTA COMO MINORISTA, DE ÁMBITO NACIONAL E INTERNACIONAL DE TODO TIPO DE BIENES MUEBLES E INMUEBLES, DE PRODUCTOS DE CONSUMO MINORISTA E INDUSTRIAL, INSTRUMENTÁNDOSE Y VALIÉNDOSE DE CANALES DE VENTA FÍSICOS Y/O VIRTUALES A TRAVÉS DE LA RED DE INTERNET. CÓDIGO DE LA ACTIVIDAD PRINCIPAL, SEGÚN CLASIFICACIÓNB NACIONAL DE ACTIVIDADES ECONÓMICAS 4669 (CNAE 2009). C) SERVICIOS DE LOGÍSTICA EN GENERAL, LOGÍSTICA INTERNA EN ALMACENES Y RECINTOS INDUSTRIALES, SERVICIOS GENERALES Y ACTIVIDADES AUXILIAREA VINCULADAS AL TRANSPORTE DE MERCANCÍAS. CÓDIGO DE LA ACTIVIDAD PRINCIPAL, SEGÚN CLASIFICACIÓN NACIONAL DE ACTIVIDADES ECONÓMICAS 5229 (CNAE 2009). D) LA ACTIVIDAD INMOBILIARIA, ADQUISICIÓN Y TENENCIA DE BIENES INMUEBLES, SU EXPLOTACIÓN EN FORMA DE ARRIENDO, INCLUYENDO EN EL MISMO SU MOBILIARIO. CÓDIGO DE LA ACTIVIDAD PRINCIPAL, SEGÚN CLASIFICACIÓN NACIONAL DE ACTIVIDADES ECONÓMICAS (CNAE 2009). F) LA INTERMEDIACIÓN EN LAS TRANSACCIONES Y ALQUILERES INMOBILIARIOS, ASÍ COMO LA PRESTACIÓN DE SERVICIOS DE MANTENIMIENTO Y CONSERVACIÓN DE LOS MISMOS, YA SEA POR CUENTA PROPIA O AJENA. QUEDA EXCLUÍDO EL ARENDAMIENTO FINANCIERO. CÓDIGO DE LA ACTIVIDAD PRINCIPAL, SEGÚN CLASIFICACIÓN NACIONAL DE ACTIVIDADES ECONÓMICAS 6832 (CNAE 2009).",
      "mainEntityOfPage": "https://www.contratacion.euskadi.eus/webkpe00-kperoc/es/ac71aBusquedaRegistrosWar/empresa/08427",
      "_links": {
        "self": {
          "name": "ODUTENT SOCIEDAD LIMITADA",
          "href": "https://api.euskadi.eus/procurements/companies/08427"
        }
      }
    },
    {
      "name": "I M P CONSULTORES DE OPERACIONES SL",
      "registrationNumber": "08426",
      "identificationNumber": "B91775783",
      "address": "AVENIDA DE FINLANDIA, 1 MODULO 32",
      "location": {
        "postalCode": "41012",
        "municipality": "Sevilla",
        "county": "Sevilla",
        "municipalityId": "091",
        "countyId": "41"
      },
      "economicActivities": [
        {
          "id": "1.843.9",
          "name": "Otros servicios técnicos n.c.o.p",
          "_links": {
            "self": {
              "name": "Otros servicios técnicos n.c.o.p",
              "href": "https://api.euskadi.eus/procurements/companies/economic-activities/1.843.9"
            }
          }
        }
      ],
      "certificateStartDate": "2023-10-10",
      "certificateEndDate": "2024-04-10",
      "object": "ASESORAMIENTO A EMPRESAS PARA LA MEJORA DE LA PRODUCTIVIDAD EN LA PRODUCCIÓN, MANTENIMIENTO, CALIDAD, FINANZAS, RECURSOS HUMANOS Y MARKETING.",
      "mainEntityOfPage": "https://www.contratacion.euskadi.eus/webkpe00-kperoc/es/ac71aBusquedaRegistrosWar/empresa/08426",
      "_links": {
        "self": {
          "name": "I M P CONSULTORES DE OPERACIONES SL",
          "href": "https://api.euskadi.eus/procurements/companies/08426"
        }
      }
    },
    {
      "name": "REGENAUTO EQUIPOS Y SERVICIOS, S.L.",
      "registrationNumber": "08333",
      "identificationNumber": "B31387392",
      "address": "Polígono industrial Landazábal C/A 32-36",
      "location": {
        "postalCode": "31610",
        "municipality": "Villava/Atarrabia",
        "county": "Navarra",
        "municipalityId": "258",
        "countyId": "31"
      },
      "economicActivities": [
        {
          "id": "1.504.1",
          "name": "Instalaciones eléctricas en general",
          "_links": {
            "self": {
              "name": "Instalaciones eléctricas en general",
              "href": "https://api.euskadi.eus/procurements/companies/economic-activities/1.504.1"
            }
          }
        },
        {
          "id": "1.504.2",
          "name": "Instalaciones de fontanería",
          "_links": {
            "self": {
              "name": "Instalaciones de fontanería",
              "href": "https://api.euskadi.eus/procurements/companies/economic-activities/1.504.2"
            }
          }
        },
        {
          "id": "1.617.9",
          "name": "Venta al por mayor interindustrial de otros productos n.c.o.p",
          "_links": {
            "self": {
              "name": "Venta al por mayor interindustrial de otros productos n.c.o.p",
              "href": "https://api.euskadi.eus/procurements/companies/economic-activities/1.617.9"
            }
          }
        },
        {
          "id": "1.692",
          "name": "Reparación de maquinaria industrial",
          "_links": {
            "self": {
              "name": "Reparación de maquinaria industrial",
              "href": "https://api.euskadi.eus/procurements/companies/economic-activities/1.692"
            }
          }
        }
      ],
      "certificateStartDate": "2023-10-09",
      "certificateEndDate": "2024-03-15",
      "object": "A) . - LA COMPRA, VENTA, COMERCIALIZACIÓN, REPRESENTACIÓN, DEPÓSITO, CONCESIÓN, IMPORTACIÓN Y EXPORTACIÓN, TANTO AL POR MAYOR COMO AL POR MENOR, DE: 1. - TODA CLASE DE RECAMBIOS, REPUESTOS Y ACCESORIOS DE VEHÍCULOS A MOTOR Y PARA LA INDUSTRIA EN GENERAL, ASÍ COMO DE ACEITES, LUBRICANTES Y ADITIVOS. 2. - TODA CLASE DE UTILLAJE, HERRAMIENTAS Y MAQUINARIA PARA VEHÍCULOS A MOTOR E INDUSTRIA EN GENERAL. 3.- TODA CLASE DE VEHÍCULOS A MOTOR, TANTO INDUSTRIALES COMO PARA SU DESTINO A USOS PARTICULARES. 4. - EQUIPOS INFORMÁTICOS Y APLICACIONES INFORMÁTICAS. 5. - PRODUCTOS QUÍMICOS PARA VEHÍCULOS A MOTOR E INDUSTRIA EN GENERAL. B) . - LA REALIZACIÓN DE PROYECTOS, DIRECCIÓN DE OBRA Y EJECUCIÓN DE OBRA DE TODA CLASE DE INSTALACIONES INDUSTRIALES, COMERCIALES Y DE SERVICIOS. C) . - LA ADQUISICIÓN, COMPRAVENTA, CONCESIÓN Y ARRENDAMIENTO DE TODA CLASE DE TECNOLOGÍA, LICENCIAS, PATENTES, PERMISOS, MARCAS Y MODELOS NACIONALES O EXTRANJEROS, INCLUSO SU IMPORTACIÓN Y EXPORTACIÓN, TODO ELLO RELACIONADO CON LAS ACTIVIDADES PRINCIPALES. D) . - LA IMPARTICIÓN DE CLASES , CURSOS Y CURSILLOS QUE VERSEN SOBRE ENSEÑANZAS, TANTO A NIVEL TEÓRICO COMO PRÁCTICO, DE CUALQUIER ACTIVIDAD O PROFESIÓN RELACIONADAS CON EL DESARROLLO DE LAS ACTIVIDADES PRINCIPALES DE LA SOCIEDAD, Y DIRIGIDOS A TODA CLASE DE PERSONAS FÍSICAS O JURÍDICAS.",
      "mainEntityOfPage": "https://www.contratacion.euskadi.eus/webkpe00-kperoc/es/ac71aBusquedaRegistrosWar/empresa/08333",
      "_links": {
        "self": {
          "name": "REGENAUTO EQUIPOS Y SERVICIOS, S.L.",
          "href": "https://api.euskadi.eus/procurements/companies/08333"
        }
      }
    },
    {
      "name": "AINHOA MERCADO AZCUENAGA-MARCOS CIARRUSTA LECOSAIS SC",
      "registrationNumber": "08701",
      "identificationNumber": "J95756896",
      "address": "Calle Barria",
      "location": {
        "postalCode": "48360",
        "municipality": "Mundaka",
        "county": "Bizkaia",
        "municipalityId": "068",
        "countyId": "48"
      },
      "economicActivities": [
        {
          "id": "1.843.2",
          "name": "Servicios técnicos de arquitectura y urbanismo",
          "_links": {
            "self": {
              "name": "Servicios técnicos de arquitectura y urbanismo",
              "href": "https://api.euskadi.eus/procurements/companies/economic-activities/1.843.2"
            }
          }
        }
      ],
      "certificateStartDate": "2023-10-09",
      "certificateEndDate": "2024-04-09",
      "object": "LOS SERVICIOS RELACIONADOS CON LA PROFESIÓN DE ARQUITECTURA, ENTRE LOS QUE SE ENCUENTRAN, LA REDACCIÓN DE INFORMES TÉCNICOS, LA GESTIÓN Y DIRECCIÓN DE OBRAS Y REDACCIÓN DE PROYECTOS ARQUITECTÓNICOS. DE LA MISMA FORMA SE CONTEMPLAN LOS SERVICIOS DE ASESORAMIENTO TÉCNICO Y ARTÍSTICO.",
      "mainEntityOfPage": "https://www.contratacion.euskadi.eus/webkpe00-kperoc/es/ac71aBusquedaRegistrosWar/empresa/08701",
      "_links": {
        "self": {
          "name": "AINHOA MERCADO AZCUENAGA-MARCOS CIARRUSTA LECOSAIS SC",
          "href": "https://api.euskadi.eus/procurements/companies/08701"
        }
      }
    },
    {
      "name": "LIS-SOLUTIONS LOGISTIC INTELLIGENCE AND DATA ANALYSIS, S.L.",
      "registrationNumber": "08960",
      "identificationNumber": "B01507938",
      "address": "C/ Pintor J. Ángel Sáez, 16",
      "location": {
        "postalCode": "01008",
        "municipality": "Vitoria-Gasteiz",
        "county": "Araba/Álava",
        "municipalityId": "059",
        "countyId": "01"
      },
      "economicActivities": [
        {
          "id": "1.847",
          "name": "Servicios de consultoría",
          "_links": {
            "self": {
              "name": "Servicios de consultoría",
              "href": "https://api.euskadi.eus/procurements/companies/economic-activities/1.847"
            }
          }
        }
      ],
      "certificateStartDate": "2023-10-09",
      "certificateEndDate": "2024-04-09",
      "object": "SERVICIOS DE CONSULTORÍA ESTRATÉGICA, TÁCTICA Y OPERATIVA ESPECIALIZADA EN LOGÍSTICA Y GESTIÓN DE LA CADENA DE SUMINISTROS.",
      "mainEntityOfPage": "https://www.contratacion.euskadi.eus/webkpe00-kperoc/es/ac71aBusquedaRegistrosWar/empresa/08960",
      "_links": {
        "self": {
          "name": "LIS-SOLUTIONS LOGISTIC INTELLIGENCE AND DATA ANALYSIS, S.L.",
          "href": "https://api.euskadi.eus/procurements/companies/08960"
        }
      }
    },
    {
      "name": "LABORATOIRE LAREDO, S.L.",
      "registrationNumber": "08691",
      "identificationNumber": "B01588169",
      "address": "PASAJE DE LAS ANTILLAS 6,7,D",
      "location": {
        "postalCode": "01012",
        "municipality": "Vitoria-Gasteiz",
        "county": "Araba/Álava",
        "municipalityId": "059",
        "countyId": "01"
      },
      "economicActivities": [
        {
          "id": "1.652.3",
          "name": "Venta al por menor de perfumería y cosmética y artículos de aseo personal",
          "_links": {
            "self": {
              "name": "Venta al por menor de perfumería y cosmética y artículos de aseo personal",
              "href": "https://api.euskadi.eus/procurements/companies/economic-activities/1.652.3"
            }
          }
        },
        {
          "id": "1.936",
          "name": "Investigación científica y técnica",
          "_links": {
            "self": {
              "name": "Investigación científica y técnica",
              "href": "https://api.euskadi.eus/procurements/companies/economic-activities/1.936"
            }
          }
        }
      ],
      "certificateStartDate": "2023-10-09",
      "certificateEndDate": "2024-04-09",
      "object": "7211.- INVESTIGACIÓN Y DESARROLLO EXPERIMENTAL EN BIOTECNOLOGÍA 4646.- COMERCIO AL POR MAYOR DE PRODUCTOS FARMACÉUTICOS 4645.- COMERCIO AL POR MAYOR DE PRODUCTOS PERFUMERÍA Y COSMÉTICA 4775.- COMERCIO AL POR MENOR DE PRODUCTOS COSMÉTICOS E HIGIÉNICOS EN ESTABLECIMIENTOS ESPECIALIZADOS.",
      "mainEntityOfPage": "https://www.contratacion.euskadi.eus/webkpe00-kperoc/es/ac71aBusquedaRegistrosWar/empresa/08691",
      "_links": {
        "self": {
          "name": "LABORATOIRE LAREDO, S.L.",
          "href": "https://api.euskadi.eus/procurements/companies/08691"
        }
      }
    },
    {
      "name": "ROCIO GARCIA PEÑA",
      "registrationNumber": "08527",
      "identificationNumber": "16086455W",
      "address": "Calle Talaieta 5, 1º Derecha",
      "location": {
        "postalCode": "48993",
        "municipality": "Getxo",
        "county": "Bizkaia",
        "municipalityId": "044",
        "countyId": "48"
      },
      "economicActivities": [
        {
          "id": "2.411",
          "name": "Arquitectos",
          "_links": {
            "self": {
              "name": "Arquitectos",
              "href": "https://api.euskadi.eus/procurements/companies/economic-activities/2.411"
            }
          }
        }
      ],
      "certificateStartDate": "2023-10-09",
      "certificateEndDate": "2024-03-21",
      "object": "ARQUITECTOS.",
      "mainEntityOfPage": "https://www.contratacion.euskadi.eus/webkpe00-kperoc/es/ac71aBusquedaRegistrosWar/empresa/08527",
      "_links": {
        "self": {
          "name": "ROCIO GARCIA PEÑA",
          "href": "https://api.euskadi.eus/procurements/companies/08527"
        }
      }
    }
  ]
}