{
  "totalItems": 9042,
  "totalPages": 905,
  "currentPage": 705,
  "itemsOfPage": 10,
  "items": [
    {
      "name": "CLÍNICA VIRGEN BLANCA, S.A.",
      "registrationNumber": "02213",
      "identificationNumber": "A48042717",
      "address": "C/ MAESTRO MENDIRI, Nº 2.",
      "location": {
        "postalCode": "48006",
        "municipality": "Bilbao",
        "county": "Bizkaia",
        "municipalityId": "020",
        "countyId": "48"
      },
      "economicActivities": [
        {
          "id": "1.671.5",
          "name": "Restaurante un tenedor",
          "_links": {
            "self": {
              "name": "Restaurante un tenedor",
              "href": "https://api.euskadi.eus/procurements/companies/economic-activities/1.671.5"
            }
          }
        },
        {
          "id": "1.941.1",
          "name": "Hospitales generales",
          "_links": {
            "self": {
              "name": "Hospitales generales",
              "href": "https://api.euskadi.eus/procurements/companies/economic-activities/1.941.1"
            }
          }
        }
      ],
      "certificateStartDate": "2011-11-18",
      "certificateEndDate": "2012-04-27",
      "object": "LA CONSTRUCCIÓN Y EXPLOTACIÓN DE UNA CLÍNICA, MOTIVO DE SU FUNDACIÓN Y CUANTAS ACTIVIDADES MERCANTILES SURJAN, SE DERIVEN  O TENGAN RELACIÓN CON ESE TIPO DE COMERCIO.",
      "mainEntityOfPage": "https://www.contratacion.euskadi.eus/webkpe00-kperoc/es/ac71aBusquedaRegistrosWar/empresa/02213",
      "_links": {
        "self": {
          "name": "CLÍNICA VIRGEN BLANCA, S.A.",
          "href": "https://api.euskadi.eus/procurements/companies/02213"
        }
      }
    },
    {
      "name": "CARPINTERÍA DEL BIDASOA LAISTER, S.L.",
      "registrationNumber": "02925",
      "identificationNumber": "B20621363",
      "address": "LEKUNBERRI KALEA, 1-BAJO",
      "location": {
        "postalCode": "20305",
        "municipality": "Irun",
        "county": "Gipuzkoa",
        "municipalityId": "045",
        "countyId": "20"
      },
      "economicActivities": [
        {
          "id": "1.463",
          "name": "Fabricación en serie de piezas de carpintería y parquet",
          "_links": {
            "self": {
              "name": "Fabricación en serie de piezas de carpintería y parquet",
              "href": "https://api.euskadi.eus/procurements/companies/economic-activities/1.463"
            }
          }
        }
      ],
      "certificateStartDate": "2011-11-17",
      "certificateEndDate": "2012-05-04",
      "object": "LA CARPINTERÍA",
      "mainEntityOfPage": "https://www.contratacion.euskadi.eus/webkpe00-kperoc/es/ac71aBusquedaRegistrosWar/empresa/02925",
      "_links": {
        "self": {
          "name": "CARPINTERÍA DEL BIDASOA LAISTER, S.L.",
          "href": "https://api.euskadi.eus/procurements/companies/02925"
        }
      }
    },
    {
      "name": "CONSTRUCCIONES DÍAZ DE ARGOTE, S.L.",
      "registrationNumber": "04284",
      "identificationNumber": "B01382712",
      "address": "ABENDAÑO 42. BIS, 1º A",
      "location": {
        "postalCode": "01008",
        "municipality": "Vitoria-Gasteiz",
        "county": "Araba/Álava",
        "municipalityId": "059",
        "countyId": "01"
      },
      "economicActivities": [
        {
          "id": "1.501.1",
          "name": "Construcción completa, reparación y conservación de edificaciones",
          "_links": {
            "self": {
              "name": "Construcción completa, reparación y conservación de edificaciones",
              "href": "https://api.euskadi.eus/procurements/companies/economic-activities/1.501.1"
            }
          }
        }
      ],
      "certificateStartDate": "2011-11-16",
      "certificateEndDate": "2012-05-04",
      "object": "GESTIÓN Y EJECUCIÓN  DE TODO TIPO Y CLASE DE PROYECTOS DE URBANIZACIÓN Y PLANES URBANÍSTICOS, ASÍ COMO LA PROMOCIÓN Y CONSTRUCCIÓN DE TODO GÉNERO DE EDIFICACIONES Y DE OBRAS, TANTO OPÚBLICAS COMO PRIVADAS, Y EL ARRENDAMIENTO DE UNAS Y OTRAS. OBRAS DE ABASTECIMIENTO Y SANEAMIENTO DE AGUAS. LA ADQUISICIÓN, TRANSMISIÓN, EXPLOTACIÓN Y ARRENDAMIENTO DE TODO TIPO Y CLASE DE FINCAS, RÚSTICAS Y URBANAS, Y EN GENERAL TODOS LOS TRABAJOS Y NEGOCIOS RELACIONADOS CON LA ACTIVIDAD URBANÍSTICA Y LA INDUSTRIA DE LA CONSTRUCCIÓN",
      "mainEntityOfPage": "https://www.contratacion.euskadi.eus/webkpe00-kperoc/es/ac71aBusquedaRegistrosWar/empresa/04284",
      "_links": {
        "self": {
          "name": "CONSTRUCCIONES DÍAZ DE ARGOTE, S.L.",
          "href": "https://api.euskadi.eus/procurements/companies/04284"
        }
      }
    },
    {
      "name": "KOPLAD 1967, S.L.",
      "registrationNumber": "03300",
      "identificationNumber": "B95307039",
      "address": "POL. UGALDEGUREN, 3 POL. A-7 B",
      "location": {
        "postalCode": "48170",
        "municipality": "Zamudio",
        "county": "Bizkaia",
        "municipalityId": "905",
        "countyId": "48"
      },
      "economicActivities": [
        {
          "id": "1.501.1",
          "name": "Construcción completa, reparación y conservación de edificaciones",
          "_links": {
            "self": {
              "name": "Construcción completa, reparación y conservación de edificaciones",
              "href": "https://api.euskadi.eus/procurements/companies/economic-activities/1.501.1"
            }
          }
        }
      ],
      "certificateStartDate": "2011-11-11",
      "certificateEndDate": "2012-05-02",
      "object": "LA CONSTRUCCIÓN COMPLETA, REPARACIÓN Y CONSERVACIÓN DE TODO TIPO DE EDIFICACIONES  Y OBRAS, ASÍ COMO EL ACABADO, CONSISTENTE EN REVESTIMIENTO EXTERIOR E INTERIOR, PREPARACIÓN Y COLOCACIÓN DE TODO TIPO DE SOLADOS Y PAVIMENTOS, COLOCACIÓN DE AISLAMIENTOS DE TODAS CLASES, IMPERMEABILIZACIÓN POR CUALQUIER PROCEDIMIENTO Y TERMINACIÓN Y DECORACIÓN DE EDIFICIOS Y LOCALES, ADEMÁS DE LOS SERVICIOS AUXILIARES DE CONSTRUCCIÓN",
      "mainEntityOfPage": "https://www.contratacion.euskadi.eus/webkpe00-kperoc/es/ac71aBusquedaRegistrosWar/empresa/03300",
      "_links": {
        "self": {
          "name": "KOPLAD 1967, S.L.",
          "href": "https://api.euskadi.eus/procurements/companies/03300"
        }
      }
    },
    {
      "name": "CONSTRUCCIONES EDER, S.A.",
      "registrationNumber": "00870",
      "identificationNumber": "A48224257",
      "address": "ARITZ BIDEA 101 BAJO",
      "location": {
        "postalCode": "48100",
        "municipality": "Mungia",
        "county": "Bizkaia",
        "municipalityId": "069",
        "countyId": "48"
      },
      "economicActivities": [
        {
          "id": "1.501.1",
          "name": "Construcción completa, reparación y conservación de edificaciones",
          "_links": {
            "self": {
              "name": "Construcción completa, reparación y conservación de edificaciones",
              "href": "https://api.euskadi.eus/procurements/companies/economic-activities/1.501.1"
            }
          }
        },
        {
          "id": "1.501.2",
          "name": "Construcción completa, reparación y conservación obras civiles",
          "_links": {
            "self": {
              "name": "Construcción completa, reparación y conservación obras civiles",
              "href": "https://api.euskadi.eus/procurements/companies/economic-activities/1.501.2"
            }
          }
        },
        {
          "id": "1.505.1",
          "name": "Revestimientos exteriores e interiores de todas clases",
          "_links": {
            "self": {
              "name": "Revestimientos exteriores e interiores de todas clases",
              "href": "https://api.euskadi.eus/procurements/companies/economic-activities/1.505.1"
            }
          }
        }
      ],
      "certificateStartDate": "2011-11-10",
      "certificateEndDate": "2012-04-20",
      "object": "LA CONTRATACIÓN Y SUBCONTRATACIÓN, DE TODO TIPO DE TRABAJOS RELACIONADOS CON LA CONSTRUCCIÓN, ALBAÑILERÍA, PINTURA, ELECTRICIDAD, DECORACIÓN Y CARPINTERÍA",
      "mainEntityOfPage": "https://www.contratacion.euskadi.eus/webkpe00-kperoc/es/ac71aBusquedaRegistrosWar/empresa/00870",
      "_links": {
        "self": {
          "name": "CONSTRUCCIONES EDER, S.A.",
          "href": "https://api.euskadi.eus/procurements/companies/00870"
        }
      }
    },
    {
      "name": "ACE BÚSQUEDA DE EMPLEO, S.L.",
      "registrationNumber": "04710",
      "identificationNumber": "B95653531",
      "address": "C/ MAYOR, 20 BIS - 1º IZDA - DPTO. 3",
      "location": {
        "postalCode": "48930",
        "municipality": "Getxo",
        "county": "Bizkaia",
        "municipalityId": "044",
        "countyId": "48"
      },
      "economicActivities": [
        {
          "id": "1.849.6",
          "name": "Servicios de colocación y suministro de personal",
          "_links": {
            "self": {
              "name": "Servicios de colocación y suministro de personal",
              "href": "https://api.euskadi.eus/procurements/companies/economic-activities/1.849.6"
            }
          }
        }
      ],
      "certificateStartDate": "2011-11-09",
      "certificateEndDate": "2012-04-24",
      "object": "COORDINAR Y, EN SU CASO, COLABORAR CON EL SERVICIO PÚBLICO DE EMPLEO CORRESPONDIENTE, REALIZANDO ACTIVIDADES DE INTERMEDIACIÓN LABORAL QUE TENGAN COMO FINALIDAD PROPORCIONAR A LOS TRABAJADORES UN EMPLEO ADECUADO A SUS CARACTERÍSTICAS, Y FACILITAR A LOS EMPLEADORES LAS PERSONAS TRABAJADORAS MÁS APROPIADAS A SUS REQUERIMIENTOS Y NECESIDADES. VALORAR LOS PERFILES, APTITUDES, CONOCIMIENTOS Y CALIFICACIÓN PROFESIONALES DE LAS PERSONAS TRABAJADORAS QUE REQUIERAN SUS SERVICIOS PARA LA BUSQUEDA DE EMPLEO, Y LOS REQUERIMIENTOS Y CARACTERÍSTICAS DE LOS PUESTOS DE TRABAJO OFERTADOS. DAR ORIENTACIÓN E INFORMACIÓN PROFESIONAL, Y SOBRE SELECCIÓN DE PERSONAL A PARTICULARES, EMPRESAS Y ORGANISMOS PÚBLICOS. COLOCAR A LAS PERSONAS TRABAJADORAS QUE RESULTARAN EXCEDENTES EN PROCESOS DE REESTRUCTURACIÓN EMPRESARIAL, A FIN DE PROPORCIONAR A LOS TRABAJADORES UN EMPLEO ADECUADO A SUS CARACTERÍSTICAS. REALIZAR PROSPECCIONES DE MERCADO. REALIZAR PLANES DE VIABILIDAD DE LAS EMPRESAS. INTERMEDIAREN LA REPRESENTACIÓN, OPERACIONES DE PROMOCIÓN Y VENTA DE PRODUCTOS Y SERVICIOS",
      "mainEntityOfPage": "https://www.contratacion.euskadi.eus/webkpe00-kperoc/es/ac71aBusquedaRegistrosWar/empresa/04710",
      "_links": {
        "self": {
          "name": "ACE BÚSQUEDA DE EMPLEO, S.L.",
          "href": "https://api.euskadi.eus/procurements/companies/04710"
        }
      }
    },
    {
      "name": "IKERMAP IBAETA, S.L.",
      "registrationNumber": "04711",
      "identificationNumber": "B20856530",
      "address": "PASEO DE BERIO, 62",
      "location": {
        "postalCode": "20018",
        "municipality": "Donostia / San Sebastián",
        "county": "Gipuzkoa",
        "municipalityId": "069",
        "countyId": "20"
      },
      "economicActivities": [
        {
          "id": "1.999",
          "name": "Otros servicios n.c.o.p",
          "_links": {
            "self": {
              "name": "Otros servicios n.c.o.p",
              "href": "https://api.euskadi.eus/procurements/companies/economic-activities/1.999"
            }
          }
        }
      ],
      "certificateStartDate": "2011-11-09",
      "certificateEndDate": "2012-04-28",
      "object": "REALIZACIÓN DE TODO TIPO DE ESTUDIOS TERRITORIALES Y MEDIOAMBIENTALES, TALES COMO ESTUDIOS SOBRE EL MEDIO Y PATRIMONIO NATURAL, ESTUDIOS SOBRE EL PATRIMONIO CULTURAL Y ETNOGRÁFICO Y ESTUDIOS TOPONÍMICOS. DISEÑO Y TEMATIZACIÓN DE SENDEROS, ASÍ COMO TODO TIPO DE TRABAJOS RELACIONADOS CON EL SENDERISMO: ANÁLISIS DE LA TITULARIDAD DE LOS CAMINOS, DISEÑO DE RUTAS, ACONDICIONAMIENTO DE SENDEROS, RUTAS AUTOGUIADAS, ETC. REALIZACIÓN, PRODUCCIÓN Y COMERCIALIZACIÓN DE CARTOGRAFÍA Y MAPAS, EN CUALQUIER SOPORTE FÍSICO O INFORMÁTICO. PUESTA EN VALOR DE LOS RECURSOS CULTURALES Y NATURALES DEL TERRITORIO. SEÑALIZACIÓN Y ESTUDIO DE SEÑALÉTICA, TANTO DEL MEDIO URBANO (CALLEJERO, CALLES) COMO RURAL (SEÑALIZACIÓN DE RECURSOS, SENDEROS...). COMERCIALIZACIÓN Y VENTA DE TODO TIPO DE SEÑALES Y MOBILIARIO URBANO. DISEÑO, MAQUETACIÓN Y EDICIÓN DE TODO TIPO DE PUBLICACIONES, TANTO EN SOPORTE FÍSICO (LIBROS, FOLLETOS, PANELES) COMO INFORMÁTICO (WEB, BASES DE DATOS)",
      "mainEntityOfPage": "https://www.contratacion.euskadi.eus/webkpe00-kperoc/es/ac71aBusquedaRegistrosWar/empresa/04711",
      "_links": {
        "self": {
          "name": "IKERMAP IBAETA, S.L.",
          "href": "https://api.euskadi.eus/procurements/companies/04711"
        }
      }
    },
    {
      "name": "ESTRUCTUM REFORMAS Y PROYECTOS, S.L.",
      "registrationNumber": "03889",
      "identificationNumber": "B09443946",
      "address": "PEDRO ASÚA, 41-BAJO",
      "location": {
        "postalCode": "01008",
        "municipality": "Vitoria-Gasteiz",
        "county": "Araba/Álava",
        "municipalityId": "059",
        "countyId": "01"
      },
      "economicActivities": [
        {
          "id": "1.507",
          "name": "Construcción, reparación y conservación de toda clase obras",
          "_links": {
            "self": {
              "name": "Construcción, reparación y conservación de toda clase obras",
              "href": "https://api.euskadi.eus/procurements/companies/economic-activities/1.507"
            }
          }
        }
      ],
      "certificateStartDate": "2011-11-07",
      "certificateEndDate": "2012-03-29",
      "object": "TANTO DIRECTAMENTE COMO DE FORMA INDIRECTA, MEDIANTE LA TITULARIDAD DE ACCIONES O PARTICIPACIONES EN SOCIEDADES CON OBJETO IDÉNTICO: COMPRAVENTA Y ARRENDAMIENTO DE BIENES INMUEBLES, PROMOCIÓN, CONSTRUCCIÓN, REPARACIÓN Y TODO TIPO DE EDIFICACIONES",
      "mainEntityOfPage": "https://www.contratacion.euskadi.eus/webkpe00-kperoc/es/ac71aBusquedaRegistrosWar/empresa/03889",
      "_links": {
        "self": {
          "name": "ESTRUCTUM REFORMAS Y PROYECTOS, S.L.",
          "href": "https://api.euskadi.eus/procurements/companies/03889"
        }
      }
    },
    {
      "name": "ENVÍOS Y DISTRIBUCIONES ARABA, S.L.",
      "registrationNumber": "02113",
      "identificationNumber": "B01234525",
      "address": "C / ARATZ, 22 BAJO - POLÍGONO ANSOLETA",
      "location": {
        "postalCode": "01000",
        "municipality": "Vitoria-Gasteiz",
        "county": "Araba/Álava",
        "municipalityId": "059",
        "countyId": "01"
      },
      "economicActivities": [
        {
          "id": "1.756",
          "name": "Intermediarios del transporte",
          "_links": {
            "self": {
              "name": "Intermediarios del transporte",
              "href": "https://api.euskadi.eus/procurements/companies/economic-activities/1.756"
            }
          }
        },
        {
          "id": "1.849.5",
          "name": "Servicios de recadería y reparto y manipulación de correspondencia",
          "_links": {
            "self": {
              "name": "Servicios de recadería y reparto y manipulación de correspondencia",
              "href": "https://api.euskadi.eus/procurements/companies/economic-activities/1.849.5"
            }
          }
        }
      ],
      "certificateStartDate": "2011-11-04",
      "certificateEndDate": "2012-04-18",
      "object": "DISTRIBUCIÓN DE CORREO Y PAQUETERÍA DENTRO DE LOS LÍMITES LEGALES QUE ESTABLECE EL DECRETO DE 14 DE MAYO DE 1964 QUE CONTEMPLA EL MONOPOLIO QUE EN ÉSTA MATERIA DISFRUTA EL SERVICIO DE CORREOS Y TELÉGRAFOS CON SUS EXCEPCIONES Y DEMÁS DISPOSICIONES CONCORDANTES. DICHOS LÍMITES SE ADAPTARÁN A LA NORMATIVA VIGENTE EN CADA MOMENTO Y SERÁ TODO LO AMPLIA QUE TAL REGULACIÓN PERMITA",
      "mainEntityOfPage": "https://www.contratacion.euskadi.eus/webkpe00-kperoc/es/ac71aBusquedaRegistrosWar/empresa/02113",
      "_links": {
        "self": {
          "name": "ENVÍOS Y DISTRIBUCIONES ARABA, S.L.",
          "href": "https://api.euskadi.eus/procurements/companies/02113"
        }
      }
    },
    {
      "name": "GLOBAL EQUIPAMIENTO Y MOBILIARIO CONTEMPORÁNEOS, S.L.",
      "registrationNumber": "02043",
      "identificationNumber": "B48798995",
      "address": "Paseo Uribitarte, nº 15",
      "location": {
        "postalCode": "48001",
        "municipality": "Bilbao",
        "county": "Bizkaia",
        "municipalityId": "020",
        "countyId": "48"
      },
      "economicActivities": [
        {
          "id": "1.653.1",
          "name": "Venta al por menor de muebles (excepto los de oficina)",
          "_links": {
            "self": {
              "name": "Venta al por menor de muebles (excepto los de oficina)",
              "href": "https://api.euskadi.eus/procurements/companies/economic-activities/1.653.1"
            }
          }
        },
        {
          "id": "1.659.2",
          "name": "Venta al por menor de muebles de oficina y máquinas y equipos de oficina",
          "_links": {
            "self": {
              "name": "Venta al por menor de muebles de oficina y máquinas y equipos de oficina",
              "href": "https://api.euskadi.eus/procurements/companies/economic-activities/1.659.2"
            }
          }
        }
      ],
      "certificateStartDate": "2011-11-03",
      "certificateEndDate": "2012-04-03",
      "object": "EL EQUIPAMIENTO INTEGRAL DE OFICINAS Y COLECTIVIDADES; LA VENTA, INSTALACIÓN Y MONTAJE, POR CUENTA PROPIA O DE TERCEROS DE TODO TIPO DE MOBILIARIO, ACCESORIOS Y COMPLEMENTOS; Y DE EQUIPOS Y MATERIAL DE OFICINA; DISEÑO, REALIZACIÓN Y EJECUCIÓN DE PROYECTOS DE OBRAS Y DECORACIÓN",
      "mainEntityOfPage": "https://www.contratacion.euskadi.eus/webkpe00-kperoc/es/ac71aBusquedaRegistrosWar/empresa/02043",
      "_links": {
        "self": {
          "name": "GLOBAL EQUIPAMIENTO Y MOBILIARIO CONTEMPORÁNEOS, S.L.",
          "href": "https://api.euskadi.eus/procurements/companies/02043"
        }
      }
    }
  ]
}