{
  "totalItems": 9042,
  "totalPages": 905,
  "currentPage": 825,
  "itemsOfPage": 10,
  "items": [
    {
      "name": "MARÍA YOLANDA BOMBÍN CALVO",
      "registrationNumber": "02188",
      "identificationNumber": "16269736L",
      "address": "C/ BUENO MONREAL, Nº 5 - 3º INT. C",
      "location": {
        "postalCode": "01001",
        "municipality": "Vitoria-Gasteiz",
        "county": "Araba/Álava",
        "municipalityId": "059",
        "countyId": "01"
      },
      "economicActivities": [
        {
          "id": "2.411",
          "name": "Arquitectos",
          "_links": {
            "self": {
              "name": "Arquitectos",
              "href": "https://api.euskadi.eus/procurements/companies/economic-activities/2.411"
            }
          }
        }
      ],
      "certificateStartDate": "1999-10-19",
      "certificateEndDate": "2000-02-19",
      "object": "DESARROLLO COMPLETO DE LAS ACTIVIDADES DE ARQUITECTURA, URBANISMO Y DISEÑO INTERIOR A TRAVÉS DE LA REDACCIÓN DE PROYECTOS Y DIRECCIONES DE OBRA ASÍ COMO DE LA ELABORACIÓN DE ESTUDIOS DE VIABILIDAD ECONÓMICA, CERTIFICADOS, PROYECTOS DE ACTIVIDAD, TASACIONES INMOBILIARIAS Y GESTIÓN Y TRAMITACIÓN DE TODO TIPO DE DOCUMENTACIÓN Y LICENCIAS",
      "mainEntityOfPage": "https://www.contratacion.euskadi.eus/webkpe00-kperoc/es/ac71aBusquedaRegistrosWar/empresa/02188",
      "_links": {
        "self": {
          "name": "MARÍA YOLANDA BOMBÍN CALVO",
          "href": "https://api.euskadi.eus/procurements/companies/02188"
        }
      }
    },
    {
      "name": "COTEIN FIRE, S.L.",
      "registrationNumber": "01233",
      "identificationNumber": "B20087417",
      "address": "Pº DE LOS OLMOS, Nº 14 - 12º I",
      "location": {
        "postalCode": "20016",
        "municipality": "Donostia / San Sebastián",
        "county": "Gipuzkoa",
        "municipalityId": "069",
        "countyId": "20"
      },
      "economicActivities": [
        {
          "id": "1.342.2",
          "name": "Otro material eléctrico de utilización y equipamiento",
          "_links": {
            "self": {
              "name": "Otro material eléctrico de utilización y equipamiento",
              "href": "https://api.euskadi.eus/procurements/companies/economic-activities/1.342.2"
            }
          }
        },
        {
          "id": "1.504.1",
          "name": "Instalaciones eléctricas en general",
          "_links": {
            "self": {
              "name": "Instalaciones eléctricas en general",
              "href": "https://api.euskadi.eus/procurements/companies/economic-activities/1.504.1"
            }
          }
        }
      ],
      "certificateStartDate": "1999-10-07",
      "certificateEndDate": "2000-04-04",
      "object": "LA REALIZACIÓN DE OBRAS Y TRABAJOS DE INGENIERÍA E INSTALACIONES CONTRA INCENDIOS, DETECCIÓN Y ANÁLISIS DE GASES, INSTALACIÓN DE PARARRAYOS Y LA COMPRAVENTA DE LOS UTENSILIOS Y APARATOS PROPIOS DE LAS ACTIVIDADES EXPRESADAS, ASÍ COMO TODO LO RELACIONADO CON ELLAS O DERIVADO DE LAS MISMAS",
      "mainEntityOfPage": "https://www.contratacion.euskadi.eus/webkpe00-kperoc/es/ac71aBusquedaRegistrosWar/empresa/01233",
      "_links": {
        "self": {
          "name": "COTEIN FIRE, S.L.",
          "href": "https://api.euskadi.eus/procurements/companies/01233"
        }
      }
    },
    {
      "name": "SOCIEDAD PROTECTORA DE ANIMALES Y PLANTAS DE GIPUZKOA",
      "registrationNumber": "02185",
      "identificationNumber": "G20040846",
      "address": "KALEZAR HAUZOA, 84",
      "location": {
        "postalCode": "20170",
        "municipality": "Usurbil",
        "county": "Gipuzkoa",
        "municipalityId": "073",
        "countyId": "20"
      },
      "economicActivities": [
        {
          "id": "1.945",
          "name": "Consultas y clínicas veterinarias",
          "_links": {
            "self": {
              "name": "Consultas y clínicas veterinarias",
              "href": "https://api.euskadi.eus/procurements/companies/economic-activities/1.945"
            }
          }
        },
        {
          "id": "1.979.9",
          "name": "Otros servicios personales n.c.o.p",
          "_links": {
            "self": {
              "name": "Otros servicios personales n.c.o.p",
              "href": "https://api.euskadi.eus/procurements/companies/economic-activities/1.979.9"
            }
          }
        }
      ],
      "certificateStartDate": "1999-10-06",
      "certificateEndDate": "2000-01-26",
      "object": "\r\n\r\n1.- LOS FINES, SIN ÁNIMO DE LUCRO, DE LA ASOCIACIÓN SON:\r\n\r\n- LA PROTECCIÓN Y DEFENSA DE LOS ANIMALES Y PLANTAS.\r\n- EL ESTABLECIMIENTO DE UN MARCO LEGAL ADECUADO Y AVANZADO PARA LA DEFENSA DE LOS DERECHOS DEL ANIMAL.\r\n- LA PROMOCIÓN EN GIPUZKOA DE LOS SERVICIOS NECESARIOS PARA LA ACOGIDA TEMPORAL DE ANIMALES, CON O SIN DUEÑO, QUE PRECISEN ALOJAMIENTO Y CUIDADO.\r\n- LA CREACIÓN DE UNA OPINIÓN PÚBLICA RESPONSABLE Y FAVORABLE A TODO LO QUE SUPONGA PROTECCIÓN Y RESPETO HACIA LOS ANIMALES Y PLANTAS.\r\n- FOMENTAR UNA CULTURA CIENTÍFICA DESTINADA A VULGARIZAR LOS ASPECTOS MÁS IMPORTANTES DE LA HIGIENE ANIMAL.\r\n- EL EJERCICIO DE LAS ACCIONES LEGALES PERTINENTES EN CASOS DE INFRACCIONES PÚBLICAS O PRIVADAS DE LA LEGISLACIÓN PROTECTORA DE LOS ANIMALES Y PLANTAS.\r\n- LA PRESTACIÓN DE TODA LA AYUDA POSIBLE A LAS AUTORIDADES EN EL CAMPO DE LA PROTECCIÓN Y RESPETO DE LOS ANIMALES Y PLANTAS.\r\n\r\n2.- SIN PERJUICIO DE LAS ACTIVIDADES DESCRITAS EN EL APARTADO ANTERIOR, LA ASOCIACIÓN, PARA EL CUMPLIMIENTO DE SUS FINES PODRÁ:\r\n\r\n- DESARROLLAR ACTIVIDADES ECONÓMICAS DE TODO TIPO, ENCAMINADAS A LA REALIZACIÓN DE SUS FINES O A ALLEGAR RECURSOS CON ESE OBJETIVO.\r\n- ADQUIRIR Y POSEER BIENES DE TODAS CLASES Y POR CUALQUIER TÍTULO, ASÍ COMO CELEBRAR ACTOS Y CONTRATOS DE TODO GÉNERO.\r\n- EJERCITAR TODA CLASE DE ACCIONES CONFORME A LAS LEYES O A SUS ESTATUTOS",
      "mainEntityOfPage": "https://www.contratacion.euskadi.eus/webkpe00-kperoc/es/ac71aBusquedaRegistrosWar/empresa/02185",
      "_links": {
        "self": {
          "name": "SOCIEDAD PROTECTORA DE ANIMALES Y PLANTAS DE GIPUZKOA",
          "href": "https://api.euskadi.eus/procurements/companies/02185"
        }
      }
    },
    {
      "name": "INSTRUMENTAL MÉDICO, S.A.",
      "registrationNumber": "01827",
      "identificationNumber": "A08325292",
      "address": "C/ BENAVENT, Nº 20 - LOCAL B",
      "location": {
        "postalCode": "08028",
        "municipality": "Barcelona",
        "county": "Barcelona",
        "municipalityId": "019",
        "countyId": "08"
      },
      "economicActivities": [
        {
          "id": "1.619.2",
          "name": "Venta al por mayor de aparatos e instrumentos médicos, ortopédicos, ópticos",
          "_links": {
            "self": {
              "name": "Venta al por mayor de aparatos e instrumentos médicos, ortopédicos, ópticos",
              "href": "https://api.euskadi.eus/procurements/companies/economic-activities/1.619.2"
            }
          }
        }
      ],
      "certificateStartDate": "1999-10-04",
      "certificateEndDate": "2000-03-01",
      "object": "LA FABRICACIÓN, MONTAJE, REPARACIÓN, IMPORTACIÓN, EXPORTACIÓN Y VENTA, AL POR MAYOR Y DETALL DE TODA CLASE DE MATERIAL, APARATOS E INSTRUMENTAL, MÉDICOS QUIRÚRGICOS Y PROTÉSICOS, ASÍ COMO TODAS LAS ACTIVIDADES RELACIONADAS CON DICHO OBJETO SOCIAL Y QUE TIENDAN A LOS MISMOS FINES",
      "mainEntityOfPage": "https://www.contratacion.euskadi.eus/webkpe00-kperoc/es/ac71aBusquedaRegistrosWar/empresa/01827",
      "_links": {
        "self": {
          "name": "INSTRUMENTAL MÉDICO, S.A.",
          "href": "https://api.euskadi.eus/procurements/companies/01827"
        }
      }
    },
    {
      "name": "FOURNIER ARTES GRÁFICAS, S.A.",
      "registrationNumber": "01339",
      "identificationNumber": "A01136134",
      "address": "C/ PUENTE ALTO, S/N.",
      "location": {
        "postalCode": "01006",
        "municipality": "Vitoria-Gasteiz",
        "county": "Araba/Álava",
        "municipalityId": "059",
        "countyId": "01"
      },
      "economicActivities": [
        {
          "id": "1.474",
          "name": "Artes gráficas (impresión gráfica)",
          "_links": {
            "self": {
              "name": "Artes gráficas (impresión gráfica)",
              "href": "https://api.euskadi.eus/procurements/companies/economic-activities/1.474"
            }
          }
        },
        {
          "id": "1.476.1",
          "name": "Edición de libros",
          "_links": {
            "self": {
              "name": "Edición de libros",
              "href": "https://api.euskadi.eus/procurements/companies/economic-activities/1.476.1"
            }
          }
        }
      ],
      "certificateStartDate": "1999-10-01",
      "certificateEndDate": "2000-01-28",
      "object": "LA FABRICACIÓN, IMPORTACIÓN, EXPORTACIÓN Y COMERCIALIZACIÓN DE TODA CLASE DE ELABORACIONES, PRODUCTOS Y TRABAJOS QUE SE RELACIONAN CON LAS ARTES GRÁFICAS, INCLUYENDO LA IMPRESIÓN, EDICIÓN Y ENCUADERNACIÓN",
      "mainEntityOfPage": "https://www.contratacion.euskadi.eus/webkpe00-kperoc/es/ac71aBusquedaRegistrosWar/empresa/01339",
      "_links": {
        "self": {
          "name": "FOURNIER ARTES GRÁFICAS, S.A.",
          "href": "https://api.euskadi.eus/procurements/companies/01339"
        }
      }
    },
    {
      "name": "ALBERTO ZUBIAUR, S.L.",
      "registrationNumber": "01712",
      "identificationNumber": "B48250187",
      "address": "C/ JOSÉ LUIS GOYOAGA, Nº 23.",
      "location": {
        "postalCode": "48950",
        "municipality": "Erandio",
        "county": "Bizkaia",
        "municipalityId": "902",
        "countyId": "48"
      },
      "economicActivities": [
        {
          "id": "1.506.0",
          "name": "Instalaciones de andamios, cimbras, encofrados, etc",
          "_links": {
            "self": {
              "name": "Instalaciones de andamios, cimbras, encofrados, etc",
              "href": "https://api.euskadi.eus/procurements/companies/economic-activities/1.506.0"
            }
          }
        },
        {
          "id": "1.733.2",
          "name": "Transporte de cabotaje y por vías navegables interiores de mercancías",
          "_links": {
            "self": {
              "name": "Transporte de cabotaje y por vías navegables interiores de mercancías",
              "href": "https://api.euskadi.eus/procurements/companies/economic-activities/1.733.2"
            }
          }
        }
      ],
      "certificateStartDate": "1999-09-30",
      "certificateEndDate": "2000-03-22",
      "object": "EL TRÁFICO INTERNO DE PUERTOS, DRAGADOS, LIMPIEZA, TRATAMIENTO DE RESIDUOS, CONSERVACIÓN, REPARACIÓN Y MANTENIMIENTO DEL PUERTO Y DEL MEDIO AMBIENTE PORTUARIO, EN AGUA, AIRE Y EN TIERRA, ASÍ COMO DE SUS INSTALACIONES Y SERVICIOS, OBRAS Y BUQUES O APARATOS FLOTANTES DESTINADOS O QUE PUEDAN DESTINARSE A LOS SERVICIOS O A LA INDUSTRIA O CONSERVACIÓN MARÍTIMA O FLUVIAL",
      "mainEntityOfPage": "https://www.contratacion.euskadi.eus/webkpe00-kperoc/es/ac71aBusquedaRegistrosWar/empresa/01712",
      "_links": {
        "self": {
          "name": "ALBERTO ZUBIAUR, S.L.",
          "href": "https://api.euskadi.eus/procurements/companies/01712"
        }
      }
    },
    {
      "name": "TRES-D, INNOVACIÓN Y DISEÑO INTEGRAL, S.L.",
      "registrationNumber": "02035",
      "identificationNumber": "B48280119",
      "address": "C/ LARRAURI, Nº 1 B - 3ª. ARTEAGA CENTRUM.",
      "location": {
        "postalCode": "48160",
        "municipality": "Derio",
        "county": "Bizkaia",
        "municipalityId": "901",
        "countyId": "48"
      },
      "economicActivities": [
        {
          "id": "1.849.9",
          "name": "Otros servicios independientes n.c.o.p",
          "_links": {
            "self": {
              "name": "Otros servicios independientes n.c.o.p",
              "href": "https://api.euskadi.eus/procurements/companies/economic-activities/1.849.9"
            }
          }
        }
      ],
      "certificateStartDate": "1999-09-23",
      "certificateEndDate": "2000-03-20",
      "object": "EL DISEÑO, INNOVACIÓN, DESARROLLO DE TODA CLASE DE PRODUCTOS, DISEÑO GRÁFICO, IMAGEN CORPORATIVA, DISEÑO DE INTERIORES Y ARQUITECTURA, ASÍ COMO CUALQUIER OTRA OPERACIÓN DE LÍCITO COMERCIO DERIVADA DEL OBJETO PRINCIPAL",
      "mainEntityOfPage": "https://www.contratacion.euskadi.eus/webkpe00-kperoc/es/ac71aBusquedaRegistrosWar/empresa/02035",
      "_links": {
        "self": {
          "name": "TRES-D, INNOVACIÓN Y DISEÑO INTEGRAL, S.L.",
          "href": "https://api.euskadi.eus/procurements/companies/02035"
        }
      }
    },
    {
      "name": "DOCUMENTOS GRÁFICOS INTEGRADOS, S.A.",
      "registrationNumber": "02181",
      "identificationNumber": "A82263617",
      "address": "C/ ARTURO SORIA, Nº 329.",
      "location": {
        "postalCode": "28033",
        "municipality": "Madrid",
        "county": "Madrid",
        "municipalityId": "079",
        "countyId": "28"
      },
      "economicActivities": [
        {
          "id": "1.619.4",
          "name": "Venta al por mayor de productos de papel y cartón",
          "_links": {
            "self": {
              "name": "Venta al por mayor de productos de papel y cartón",
              "href": "https://api.euskadi.eus/procurements/companies/economic-activities/1.619.4"
            }
          }
        }
      ],
      "certificateStartDate": "1999-09-21",
      "certificateEndDate": "2000-01-23",
      "object": "LA FABRICACIÓN Y COMERCIALIZACIÓN DE PRODUCTO GRÁFICO IMPRESO Y CONSUMIBLES DE ORDENADOR EN GENERAL Y EN PARTICULAR FORMULARIOS Y DOCUMENTOS PARA ORDENADOR, INCLUSO SU PERSONALIZACIÓN, ACABADO, ENSOBRADO Y DISTRIBUCIÓN POR EL CORREO U OTROS MEDIOS.\r\n\r\nLA COMPRA, VENTA, SEGREGACIÓN, AGRUPACIÓN Y DIVISIÓN DE BIENES INMUEBLES, TANTO EN ESPAÑA COMO EN EL EXTRANJERO, PROPIOS DE UN TALLER DE ARTES GRÁFICAS ASÍ COMO LA COMERCIALIZACIÓN, IMPORTACIÓN Y EXPORTACIÓN DE BIENES DE CUALQUIER CLASE.\r\n\r\nLA COMPRAVENTA, POR CUENTA PROPIA, DE ACCIONES Y PARTICIPACIONES SOCIALES, TÍTULOS VALORES Y PAGARÉS ASÍ COMO DE BIENES MUEBLES Y MERCADERÍAS",
      "mainEntityOfPage": "https://www.contratacion.euskadi.eus/webkpe00-kperoc/es/ac71aBusquedaRegistrosWar/empresa/02181",
      "_links": {
        "self": {
          "name": "DOCUMENTOS GRÁFICOS INTEGRADOS, S.A.",
          "href": "https://api.euskadi.eus/procurements/companies/02181"
        }
      }
    },
    {
      "name": "BILBOMAN, S.L.",
      "registrationNumber": "01852",
      "identificationNumber": "B48486476",
      "address": "C/ RAFAELA YBARRA, Nº 7 - INTERIOR.",
      "location": {
        "postalCode": "48014",
        "municipality": "Bilbao",
        "county": "Bizkaia",
        "municipalityId": "020",
        "countyId": "48"
      },
      "economicActivities": [
        {
          "id": "1.504.3",
          "name": "Instalaciones de frío, calor y acondicionamiento de aire",
          "_links": {
            "self": {
              "name": "Instalaciones de frío, calor y acondicionamiento de aire",
              "href": "https://api.euskadi.eus/procurements/companies/economic-activities/1.504.3"
            }
          }
        }
      ],
      "certificateStartDate": "1999-09-17",
      "certificateEndDate": "2000-03-09",
      "object": "LA COMPRAVENTA, FABRICACIÓN, INSTALACIÓN, REPARACIÓN, ASISTENCIA TÉCNICA DE MAQUINARIA INDUSTRIAL, APARATOS DE CLIMATIZACIÓN, CALEFACCIÓN, REFRIGERACIÓN, AIRE ACONDICIONADO, CHIMENEAS, ETC., Y DE SUS COMPONENTES Y REPUESTOS, ASÍ COMO LA ADQUISICIÓN, ENAJENACIÓN Y GRAVAMEN DE BIENES INMUEBLES",
      "mainEntityOfPage": "https://www.contratacion.euskadi.eus/webkpe00-kperoc/es/ac71aBusquedaRegistrosWar/empresa/01852",
      "_links": {
        "self": {
          "name": "BILBOMAN, S.L.",
          "href": "https://api.euskadi.eus/procurements/companies/01852"
        }
      }
    },
    {
      "name": "INMOBILIARIA ADARRA, S.A.",
      "registrationNumber": "01769",
      "identificationNumber": "A20032454",
      "address": "C/ PESCADORES DE TERRANOVA, Nº 4.",
      "location": {
        "postalCode": "20011",
        "municipality": "Donostia / San Sebastián",
        "county": "Gipuzkoa",
        "municipalityId": "069",
        "countyId": "20"
      },
      "economicActivities": [
        {
          "id": "1.501.1",
          "name": "Construcción completa, reparación y conservación de edificaciones",
          "_links": {
            "self": {
              "name": "Construcción completa, reparación y conservación de edificaciones",
              "href": "https://api.euskadi.eus/procurements/companies/economic-activities/1.501.1"
            }
          }
        },
        {
          "id": "1.833.2",
          "name": "Promoción de edificaciones",
          "_links": {
            "self": {
              "name": "Promoción de edificaciones",
              "href": "https://api.euskadi.eus/procurements/companies/economic-activities/1.833.2"
            }
          }
        }
      ],
      "certificateStartDate": "1999-09-06",
      "certificateEndDate": "2000-03-02",
      "object": "LA EJECUCIÓN DE CONSTRUCCIONES GENERALES, VENTA O ALQUILER DE INMUEBLES PROPIOS, REALIZACIÓN DE PROYECTOS Y EN GENERAL DESARROLLAR EN TODOS SUS CAMPOS TODA CLASE DE OPERACIONES INMOBILIARIAS, DE CONSTRUCCIÓN, DE REALIZACIÓN DE OBRAS YA SEAN PÚBLICAS O CIVILES, ADQUISICIÓN, COMERCIALIZACIÓN, VENTA, ARRENDAMIEMNTO Y EXPLOTACIÓN DE TERRENOS Y TODA CLASE DE INMUEBLES, Y CONSTITUCIÓN DE COMUNIDADES",
      "mainEntityOfPage": "https://www.contratacion.euskadi.eus/webkpe00-kperoc/es/ac71aBusquedaRegistrosWar/empresa/01769",
      "_links": {
        "self": {
          "name": "INMOBILIARIA ADARRA, S.A.",
          "href": "https://api.euskadi.eus/procurements/companies/01769"
        }
      }
    }
  ]
}