{
  "totalItems": 9042,
  "totalPages": 905,
  "currentPage": 674,
  "itemsOfPage": 10,
  "items": [
    {
      "name": "BARANDIARAN, S.A.",
      "registrationNumber": "00712",
      "identificationNumber": "A48001317",
      "address": "LAUKARIZ BIDEA Nº41",
      "location": {
        "postalCode": "48100",
        "municipality": "Mungia",
        "county": "Bizkaia",
        "municipalityId": "069",
        "countyId": "48"
      },
      "economicActivities": [
        {
          "id": "1.614.2",
          "name": "Venta al por mayor de productos de perfumería, droguería, higiene y belleza",
          "_links": {
            "self": {
              "name": "Venta al por mayor de productos de perfumería, droguería, higiene y belleza",
              "href": "https://api.euskadi.eus/procurements/companies/economic-activities/1.614.2"
            }
          }
        }
      ],
      "certificateStartDate": "2014-02-24",
      "certificateEndDate": "2014-08-07",
      "object": "DISTRIBUCIÓN AL POR MAYOR, MENOR DE PRODUCTOS DE DROGUERIA, PERFUMERIA ",
      "mainEntityOfPage": "https://www.contratacion.euskadi.eus/webkpe00-kperoc/es/ac71aBusquedaRegistrosWar/empresa/00712",
      "_links": {
        "self": {
          "name": "BARANDIARAN, S.A.",
          "href": "https://api.euskadi.eus/procurements/companies/00712"
        }
      }
    },
    {
      "name": "BIZALA EMPRESA DE SEGURIDAD, S.A.",
      "registrationNumber": "02560",
      "identificationNumber": "A48836225",
      "address": "C/ AVENIDA LEHENDAKARI AGUIRRE, Nº 29.",
      "location": {
        "postalCode": "48014",
        "municipality": "Bilbao",
        "county": "Bizkaia",
        "municipalityId": "020",
        "countyId": "48"
      },
      "economicActivities": [
        {
          "id": "1.849.4",
          "name": "Servicios de custodia, seguridad y protección",
          "_links": {
            "self": {
              "name": "Servicios de custodia, seguridad y protección",
              "href": "https://api.euskadi.eus/procurements/companies/economic-activities/1.849.4"
            }
          }
        }
      ],
      "certificateStartDate": "2014-02-24",
      "certificateEndDate": "2014-08-05",
      "object": "BIZALA EMPRESA DE SEGURIDAD TIENE POR OBJETO SOCIAL LA VIGILANCIA Y PROTECCIÓN DE BIENES, ESTABLECIMIENTOS, ESPECTÁCULOS, CERTÁMENES O CONVENCIONES, SIENDO SU ÁMBITO TERRITORIAL DE ACTUACIÓN, LA COMUNIDAD AUTÓNOMA DEL PAÍS VASCO\r\n\r\n",
      "mainEntityOfPage": "https://www.contratacion.euskadi.eus/webkpe00-kperoc/es/ac71aBusquedaRegistrosWar/empresa/02560",
      "_links": {
        "self": {
          "name": "BIZALA EMPRESA DE SEGURIDAD, S.A.",
          "href": "https://api.euskadi.eus/procurements/companies/02560"
        }
      }
    },
    {
      "name": "ASTARTE LABASTIDA S.L.U.",
      "registrationNumber": "04771",
      "identificationNumber": "B01444116",
      "address": "SUBIDA AL OLMO, 9",
      "location": {
        "postalCode": "01330",
        "municipality": "Labastida/Bastida",
        "county": "Araba/Álava",
        "municipalityId": "028",
        "countyId": "01"
      },
      "economicActivities": [
        {
          "id": "1.921.1",
          "name": "Servicios de limpieza en calles, vías públicas y jardines",
          "_links": {
            "self": {
              "name": "Servicios de limpieza en calles, vías públicas y jardines",
              "href": "https://api.euskadi.eus/procurements/companies/economic-activities/1.921.1"
            }
          }
        },
        {
          "id": "1.922",
          "name": "Servicios de limpieza",
          "_links": {
            "self": {
              "name": "Servicios de limpieza",
              "href": "https://api.euskadi.eus/procurements/companies/economic-activities/1.922"
            }
          }
        }
      ],
      "certificateStartDate": "2014-02-24",
      "certificateEndDate": "2014-08-18",
      "object": "DISTRIBUCIÓN, VENTA Y ALQUILER DE MAQUINARIA Y EQUIPOS. SERVICIOS DE MANTENIMIENTO DE TODA CLASE DE INSTALACIONES DEPORTIVAS Y CULTURALES. SERVICIOS DE ENSEÑANZA EN TEMAS DEPORTIVOS Y CULTURALES Y ASESORAMIENTO Y PRESTACIÓN DE SERVICIOS. ENSEÑANZA A TODA CLASE DE PERSONAS FÍSICAS O JURÍDICAS, INDIVIDUAL O COLECTIVAMENTE Y EN GENERAL, A TODO CUANTO SEA AUXILIAR, ACCESORIO, CONSECUENCIA O SE RELACIONE DIRECTA O INDIRECTAMENTE CON EL DEPORTE. PRESTACIÓN DE SERVICIOS DEPORTIVOS Y CULTURALES DE TODA ÍNDOLE. SERVICIOS DE LIMPIEZA INDUSTRIAL Y LAVANDERÍA. SERVICIOS DE PERITACIONES. SERVICIOS DE CONSTRUCCIÓN, REPARACIÓN Y MANTENIMIENTO DE EDIFICIOS. CONSTRUCCIÓN Y REPARACIÓN DE MAQUINARIA EN GENERAL. SERVICIOS DE INTERIORISMO Y DECORACIÓN, IMAGEN CORPORATIVA. REPRESENTACIONES COMERCIALES DE TODA ÍNDOLE MERCANTIL ASESORAMIENTO, CONSULTING Y ESTRATEGIA DE GESTIÓN DEPORTIVA Y CULTURAL A EMPRESAS Y ORGANISMOS PÚBLICOS Y/O PRIVADOS, INCLUSO MUTUALIDADES DEPORTIVAS, EN MATERIA DEPORTIVA Y CULTURAL",
      "mainEntityOfPage": "https://www.contratacion.euskadi.eus/webkpe00-kperoc/es/ac71aBusquedaRegistrosWar/empresa/04771",
      "_links": {
        "self": {
          "name": "ASTARTE LABASTIDA S.L.U.",
          "href": "https://api.euskadi.eus/procurements/companies/04771"
        }
      }
    },
    {
      "name": "CONTROL Y MONTAJES INDUSTRIALES CYMI, S.A.",
      "registrationNumber": "01280",
      "identificationNumber": "A59920330",
      "address": "C/ TEIDE, Nº 4",
      "location": {
        "postalCode": "28709",
        "municipality": "San Sebastián de los Reyes",
        "county": "Madrid",
        "municipalityId": "134",
        "countyId": "28"
      },
      "economicActivities": [
        {
          "id": "1.353",
          "name": "Fabricación de aparatos y equipo electrónico de señalización, control",
          "_links": {
            "self": {
              "name": "Fabricación de aparatos y equipo electrónico de señalización, control",
              "href": "https://api.euskadi.eus/procurements/companies/economic-activities/1.353"
            }
          }
        },
        {
          "id": "1.504.1",
          "name": "Instalaciones eléctricas en general",
          "_links": {
            "self": {
              "name": "Instalaciones eléctricas en general",
              "href": "https://api.euskadi.eus/procurements/companies/economic-activities/1.504.1"
            }
          }
        },
        {
          "id": "1.504.3",
          "name": "Instalaciones de frío, calor y acondicionamiento de aire",
          "_links": {
            "self": {
              "name": "Instalaciones de frío, calor y acondicionamiento de aire",
              "href": "https://api.euskadi.eus/procurements/companies/economic-activities/1.504.3"
            }
          }
        }
      ],
      "certificateStartDate": "2014-02-19",
      "certificateEndDate": "2014-08-11",
      "object": "EL ESTUDIO Y LA REALIZACIÓN DE TODA CLASE DE PROYECTOS Y PRESUPUESTOS. LA CONSTRUCCIÓN, INSTALACIÓN, VENTA, ALQUILER, MANTENIMIENTO Y CONSERVACIÓN DE TODA CLASE DE INSTRUMENTOS DE CONTROL, MEDIDA Y REGULACIÓN DE TODOS LOS SECTORES INDUSTRIALES Y COMERCIALES, INCLUYENDO INSTALACIONES Y REPARACIONES ELÉCTRICAS DE ALTA Y BAJA TENSIÓN, SUBESTACIONES, TELEFONÍA, MEGAFONÍA, ALUMBRADO, SEÑALIZACIONES Y ENCLAVAMIENTOS, ELECTRIFICACIONES DE FERROCARRILES, FAROS Y RADIO FAROS, BALIZAMIENTOS VIALES Y LUMINOSOS, INSTRUMENTACIÓN ELECTRÓNICA Y NEUMÁTICA, CLIMATIZACIÓN, ANALIZADORES INDUSTRIALES Y DE MEDIO AMBIENTE, INSTALACIONES DE SUPERVISIÓN Y CONTROL DE LAS INSTALACIONES DE EDIFICIOS, ASÍ COMO LAS COMUNICACIONES TANTO INTERIORES COMO EXTERIORES, INSTALACIONES DE VENTILACIÓN, CALEFACCIÓN Y CLIMATIZACIÓN, INSTALACIONES FRIGORÍFICAS Y DE TRATAMIENTO DE AGUAS INSTALACIONES CONTRA INCENDIOS Y, DE FORMA ESPECIAL, LA FABRICACIÓN, DESARROLLO, INSTALACIÓN Y MANTENIMIENTO DE APARATOS Y SISTEMAS DE SEGURIDAD Y EL ASESORAMIENTO Y PLANIFICACIÓN DE INSTALACIONES DE SEGURIDAD, INCLUSO CON ÁMBITO SUPRAPROVINCIAL. TODAS ESTAS INSTALACIONES CUBREN DESDE INGENIERÍA DE DETALLE, HASTA MANTENIMIENTO EN GENERAL, PASANDO POR FABRICACIÓN DE ELEMENTOS, MONTAJES, PUESTA EN MARCHA Y ASISTENCIA TÉCNICA. SE INCLUYE EN GENERAL LA REALIZACIÓN DE AQUELLAS OPERACIONES FINANCIERAS, INCLUYENDO LA CREACIÓN Y PARTICIPACIÓN EN OTRAS COMPAÑÍAS, Y OPERACIONES MOBILIARIAS E INMOBILIARIAS RELACIONADAS DIRECTAMENTE CON LOS ANTERIORES FINES. LAS ACTIVIDADES RELATIVAS A FABRICACIÓN, DESARROLLO, INSTALACIÓN Y MANTENIMIENTO DE APARATOS Y SISTEMAS DE SEGURIDAD Y EL ASESORAMIENTO Y PLANIFICACIÓN DE INSTALACIONES DE SEGURIDAD, INCLUSO CON ÁMBITO SUPRAPROVINCIAL, NO PODRÁ COMENZAR A DESARROLLARSE HASTA EL MOMENTO EN QUE LA COMPAÑÍA \"CONTROL Y APLICACIONES INSTALACIONES Y SERVICIOS INDUSTRIALES, S.A.\" ESTÉ DEBIDAMENTE INSCRITA EN EL REGISTRO ADMINISTRATIVO CORRESPONDIENTE PARA PODER COMENZAR LAS MISMAS. LA SOCIEDAD PODRÁ REALIZAR LAS ACTIVIDADES DE SU OBJETO, TOTAL O PARCIALMENTE, DE MODO INDIRECTO, MEDIANTE CUALQUIER TIPO DE ASOCIACIÓN, CON O SIN PERSONALIDAD JURÍDICA, INCLUSO COMO SOCIO COLECTIVO DE CUALQUIER SOCIEDAD COMANDITARIA",
      "mainEntityOfPage": "https://www.contratacion.euskadi.eus/webkpe00-kperoc/es/ac71aBusquedaRegistrosWar/empresa/01280",
      "_links": {
        "self": {
          "name": "CONTROL Y MONTAJES INDUSTRIALES CYMI, S.A.",
          "href": "https://api.euskadi.eus/procurements/companies/01280"
        }
      }
    },
    {
      "name": "ELECTRICIDAD GAZTE S.L.",
      "registrationNumber": "03713",
      "identificationNumber": "B20163267",
      "address": "TRENBIDE PASALEKUA 5-PAB.1",
      "location": {
        "postalCode": "20750",
        "municipality": "Zumaia",
        "county": "Gipuzkoa",
        "municipalityId": "081",
        "countyId": "20"
      },
      "economicActivities": [
        {
          "id": "1.504.1",
          "name": "Instalaciones eléctricas en general",
          "_links": {
            "self": {
              "name": "Instalaciones eléctricas en general",
              "href": "https://api.euskadi.eus/procurements/companies/economic-activities/1.504.1"
            }
          }
        }
      ],
      "certificateStartDate": "2014-02-17",
      "certificateEndDate": "2014-06-26",
      "object": "EL MONTAJE Y REPARACIÓN DE INSTALACIONES ELÉCTRICAS, TANTO INUSTRIALES COMO DOMÉSTICAS, ASÍ COMO CUANTO SEA PREPARATORIO, AUXILIAR, ACCESORIO O COMPLEMENTARIO DE LAS INDICADAS ACTIVIDADES SIN LIMITACIÓN ALGUNA. TALES ACTIVIDADES PODRÁN SER DESARROLLADAS POR LA SOCIEDAD BIEN DE FORMA DIRECTA, BIEN EN CUALESQUIERA OTRAS FORMAS ADMITIDAS EN DERECHO. PREVIO ACUERDO DE LA JUNTA DE SOCIOS, LA SOCIEDAD PODRÁ EXTENDER SU ACTIVIDAD A CUALQUIER NEGOCIO DE LÍCITO COMERCIO",
      "mainEntityOfPage": "https://www.contratacion.euskadi.eus/webkpe00-kperoc/es/ac71aBusquedaRegistrosWar/empresa/03713",
      "_links": {
        "self": {
          "name": "ELECTRICIDAD GAZTE S.L.",
          "href": "https://api.euskadi.eus/procurements/companies/03713"
        }
      }
    },
    {
      "name": "FERNADO OREGI ALTUBE",
      "registrationNumber": "02708",
      "identificationNumber": "15353388Z",
      "address": "PLAZA DE IRÚN, 4-1, B. 2",
      "location": {
        "postalCode": "20011",
        "municipality": "Donostia / San Sebastián",
        "county": "Gipuzkoa",
        "municipalityId": "069",
        "countyId": "20"
      },
      "economicActivities": [
        {
          "id": "1.861.2",
          "name": "Alquiler de locales industriales y otros alquileres n.c.o.p",
          "_links": {
            "self": {
              "name": "Alquiler de locales industriales y otros alquileres n.c.o.p",
              "href": "https://api.euskadi.eus/procurements/companies/economic-activities/1.861.2"
            }
          }
        },
        {
          "id": "1.999",
          "name": "Otros servicios n.c.o.p",
          "_links": {
            "self": {
              "name": "Otros servicios n.c.o.p",
              "href": "https://api.euskadi.eus/procurements/companies/economic-activities/1.999"
            }
          }
        }
      ],
      "certificateStartDate": "2014-02-12",
      "certificateEndDate": "2014-08-05",
      "object": "SERVICIOS EDUCATIVOS Y ACTIVIDADES LÚDICO-EDUCATIVAS.\r\nASESORÍA EDUCATIVA. TRABAJOS \"LLAVE EN MANO\" (DESDE LA IDEA INICIAL HASTA EL PRODUCTO, MATERIAL O ACTIVIDAD FINAL) Y \"A MEDIDA\" (SEGÚN OBJETIVOS Y PRESUPUESTO) PARA DIFERENTES ORGANISMOS PÚBLICOS Y ENTIDADES PRIVADAS.\r\n\r\nEDICIÓN Y COMUNICACIÓN: REVISTAS, ORLAS, FOLLETOS, CARTELERÍA, IMAGEN CORPORATIVA, SEÑALÉTICA, INTERACCIÓN, FIDELIZACIÓN...TRADICIONAL Y EN LA RED.\r\nCREACIÓN DE MATERIALES DE AULA, UNIDADES DIDÁCTICAS, JUEGOS EDUCATIVOS...\r\nINVESTIGACIÓN Y REALIZACIÓN DE ESTUDIOS E INFORMES. DIVULGACIÓN DE REALIDADES ESCOLARES. ASESORÍA TÉCNICA EN PROCESOS DE CALIDAD.\r\nREALIZACIÓN DE ESTUDIOS E INFORMES.\r\nCREACIÓN, DISEÑO, DESARROLLO Y GESTIÓN DE PROGRAMAS EUROPEOS RELACIONADOS CON LA EDUCACIÓN (SÓCRATES).\r\n\r\nMÓDULOS DE FORMACIÓN DE PROFESORADO, MONITORADO, ESCUELA DE MADRES Y PADRES.\r\nFORMACIÓN Y MÓDULOS DE ORIENTACIÓN  ACADÉMICO-PROFESIONAL PARA ALUMNADO Y FAMILIAS.\r\nCAMPAÑAS DE SENSIBILIZACIÓN: COEDUCACIÓN, VALORES, EDUCACIÓN PARA LA PAZ, EDUCACIÓN PARA LA SALUD, EDUCACIÓN AFECTIVA Y SEXUAL, DERECHOS HUMANOS, DERECHOS DE LA INFANCIA, IGUALDAD DE OPORTUNIDADES...\r\n\r\nTUTORÍA PERSONALIZADA DE ALUMNADO CON DIFICULTADES. DIVERSIFICACIÓN CURRICULAR. MÓDULOS DE ACTIVIDADES Y CONTENIDOS ESPECIALES CON ALUMNADO EN SUS CENTROSO FUERA DE ELLOS (EXPOSICIONES, TALLERES...)\r\n\r\nGESTIÓN EDUCATIVA DE ACTIVIDADES ESCOLARES COMPLEMENTARIAS Y EDUCACIÓN NO FORMAL DEPORTIVA, CULTURAL Y DE TIEMPO LIBRE\r\n      ",
      "mainEntityOfPage": "https://www.contratacion.euskadi.eus/webkpe00-kperoc/es/ac71aBusquedaRegistrosWar/empresa/02708",
      "_links": {
        "self": {
          "name": "FERNADO OREGI ALTUBE",
          "href": "https://api.euskadi.eus/procurements/companies/02708"
        }
      }
    },
    {
      "name": "POSTIGO OBRAS Y SERVICIOS, S.A.",
      "registrationNumber": "03352",
      "identificationNumber": "A28276822",
      "address": "C/ JUAN DE LA CIERVA, 9",
      "location": {
        "postalCode": "46940",
        "municipality": "Manises",
        "county": "Valencia/València",
        "municipalityId": "159",
        "countyId": "46"
      },
      "economicActivities": [
        {
          "id": "1.314.2",
          "name": "Fabricación de estructuras metálicas",
          "_links": {
            "self": {
              "name": "Fabricación de estructuras metálicas",
              "href": "https://api.euskadi.eus/procurements/companies/economic-activities/1.314.2"
            }
          }
        },
        {
          "id": "1.316.9",
          "name": "Fabricación de otros artículos acabados en metales n.c.o.p",
          "_links": {
            "self": {
              "name": "Fabricación de otros artículos acabados en metales n.c.o.p",
              "href": "https://api.euskadi.eus/procurements/companies/economic-activities/1.316.9"
            }
          }
        },
        {
          "id": "1.353",
          "name": "Fabricación de aparatos y equipo electrónico de señalización, control",
          "_links": {
            "self": {
              "name": "Fabricación de aparatos y equipo electrónico de señalización, control",
              "href": "https://api.euskadi.eus/procurements/companies/economic-activities/1.353"
            }
          }
        },
        {
          "id": "1.506.0",
          "name": "Instalaciones de andamios, cimbras, encofrados, etc",
          "_links": {
            "self": {
              "name": "Instalaciones de andamios, cimbras, encofrados, etc",
              "href": "https://api.euskadi.eus/procurements/companies/economic-activities/1.506.0"
            }
          }
        },
        {
          "id": "1.507",
          "name": "Construcción, reparación y conservación de toda clase obras",
          "_links": {
            "self": {
              "name": "Construcción, reparación y conservación de toda clase obras",
              "href": "https://api.euskadi.eus/procurements/companies/economic-activities/1.507"
            }
          }
        },
        {
          "id": "1.653.4",
          "name": "Venta al por menor de material de construcción y mobiliario de saneamiento",
          "_links": {
            "self": {
              "name": "Venta al por menor de material de construcción y mobiliario de saneamiento",
              "href": "https://api.euskadi.eus/procurements/companies/economic-activities/1.653.4"
            }
          }
        },
        {
          "id": "1.912",
          "name": "Servicios forestales",
          "_links": {
            "self": {
              "name": "Servicios forestales",
              "href": "https://api.euskadi.eus/procurements/companies/economic-activities/1.912"
            }
          }
        },
        {
          "id": "1.921.1",
          "name": "Servicios de limpieza en calles, vías públicas y jardines",
          "_links": {
            "self": {
              "name": "Servicios de limpieza en calles, vías públicas y jardines",
              "href": "https://api.euskadi.eus/procurements/companies/economic-activities/1.921.1"
            }
          }
        },
        {
          "id": "1.921.6",
          "name": "Servicios de protección y acondicionamiento ambiental",
          "_links": {
            "self": {
              "name": "Servicios de protección y acondicionamiento ambiental",
              "href": "https://api.euskadi.eus/procurements/companies/economic-activities/1.921.6"
            }
          }
        }
      ],
      "certificateStartDate": "2014-02-11",
      "certificateEndDate": "2014-07-07",
      "object": "A) LA FABRICACIÓN, ADAPTACIÓN, TRANSFORMACIÓN O INSTALACIÓN DE LOS SIGUIENTES PRODUCTOS O ARTÍCULOS, CUALQUIERA QUE SEAN LOS MATERIALES DE QUE ESTÉN CONSTITUIDOS, YA SEAN METALES, FÉRRICOS O NO FÉRRICOS, PLÁSTICOS, FIBRAS DE VIDRIO O VARIANTES: - TODA CLASE DE ELEMENTOS O APARATOS DE BALIZAMIENTO Y SEÑALIZACIÓN, YA SEA CON DESTINO A LA REGULACIÓN O ENCAUZAMIENTO DE TRÁFICO EN CUALQUIERA DE SUS FORMAS YA SEA CON OTRA FINALIDAD CUALQUIERA, TODA CLASE DE APARATOS O ELEMENTOS DE CUALQUIER TIPO, INCLUSO LUMINOSOS O ILUMINADOS, DESTINADOS A LA ROTULACIÓN DE CUALQUIER TIPO Y CON CUALQUIER DESTINO. - BANDAS, VALLAS, BARRERAS O MALLAS PARA PROTECCIÓN DE CARRETERAS, AUTOVÍAS, AUTOPISTAS U OTROS CUALESQUIERA DESTINO O USO. - CUALQUER TIPO DE SOPORTE O MEDIO DE SUSTENTACIÓN DE LOS PRODUCTOS ANTES REFERIDOS. - TODA CLASE DE ACCESORIOS Y REPUESTOS DE AUTOMÓVILES. - CUALQUIER MAQUINARIA, ÚTIL DE TRABAJO, APARATOS DE PRECISIÓN O NO, ASÍ COMO PRENDAS DE VESTIDO O EQUIPO CON DESTINO A OBRAS DE CONSTRUCCIÓN O CONSERVACIÓN DE CARRETERAS U OTRAS. - TODA CLASE DE MOBILIARIO URBANO. - INFRAESTRUCTURA HIGIÉNICA Y LÚDICA PARA LITORALES Y ZONAS TURÍSTICAS. B) LA COMERCIALIZACIÓN DE TODO LO EXPUESTO EN EL APARTADO A). C) LA FABRICACIÓN Y COMERCIALIZACIÓN DE TODA CLASE DE PINTURAS EN GENERAL. D) LA PINTURA DE CUALQUIER CLASE DE CARRETERAS, SEÑALIZACIÓN HORIZONTAL, PINTADO DE ESTRUCTURAS METÁLICAS Y DE CUALQUIER OTRO TIPO. E) LAS OBRAS DE ILUMINACIÓN DE VÍAS PÚBLICAS Y PRIVADAS, Y EN GENERAL CUALQUIER OTRO TIPO DE OBRA CIVIL O PÚBLICA QUE PUEDA INTERESAR. F) FABRICACIÓN Y COMERCIALIZACIÓN DE ARTÍCULOS ELECTRÓNICOS CON DESTINO A CUALQUIER ACTIVIDAD COMERCIAL, PÚBLICA O PRIVADA. G) FABRICACIÓN Y COMERCIALIZACIÓN DE RÓTULOS O CARTELES PUBLICITARIOS EN CUALQUIERA DE SUS FACETAS. H) CONSTRUCCIÓN, REPARACIÓN Y CONSERVACIÓN DE TODA CLASE DE OBRAS. I) EXPLOTACIÓN DE CANTERAS, FABRICACIÓN DE HORMIGONES Y AGLOMERADOS ASFÁLTICOS, CONSTRUCCIONES DE ACEQUIAS PREFABRICADAS, CONSOLIDACIÓN Y PREPARACIÓN DE TERRENOS PARA LA REALIZACIÓN DE OBRAS CIVILES, SISTEMAS DE AGOTAMIENTO Y DRAGADOS, PREPARACIÓN Y MONTAJE DE ESTRUCTURAS Y CUBIERTAS Y CUBRICIONES EN OBRAS CIVILES, ASÍ COMO PARA SU TRANSPORTE, PUERTOS, OBRAS HIDRÁULICAS, PUENTES, POSTES, TORRES METÁLICAS Y FERROCARRILES. J) GALVANIZACIÓN CON ZINC EN CALIENTE. K) INSTALACIONES ELÉCTRICAS EN GENERAL: INSTALACIÓN DE REDES TELEGRÁFICAS, TELEFÓNICAS, TELEFONÍA SIN HILOS Y TELEVISÓN; INSTALACIONES DE SISTEMAS DE BALIZAMIENTO DE PUERTOS Y AEROPUERTOS. L) LA REALIZACIÓN DE TODA CLASE DE ESTUDIOS, INFORMES, PLANES, PROYECTOS, EVALUACIONES Y AUDITORIAS DE CARÁCTER TÉCNICO, SOCIAL O AMBIENTAL. M) LA DIRECCIÓN, GESTIÓN, REALIZACIÓN E INSPECCIÓN TÉCNICA DE OBRAS Y SERVICIOS DE INGENIERÍA CIVIL, ASÍ COMO LOS DE CARÁCTER AMBIENTAL O AGRARIO, DE ARQUITECTURA Y DE INSTALACIONES, AL IGUAL QUE SU CONSERVACIÓN Y EXPLOTACIÓN. N) SERVICIOS DE LIMPIEZA DE CALLES, VÍAS PÚBLICAS Y JARDINES. O) SERVICIOS DE PROTECCIÓN Y ACONDICIONAMIENTO AMBIENTAL CONTRA RUIDOS, VIBRACIONES, CONTAMINACIÓN Y DEMÁS AGENTES SIMILARES. P) SERVICIOS FORESTALES DESTINADOS A LA PROTECCIÓN, MANTENIMIENTO Y DEFENSA DE LAS MASA FORESTALES",
      "mainEntityOfPage": "https://www.contratacion.euskadi.eus/webkpe00-kperoc/es/ac71aBusquedaRegistrosWar/empresa/03352",
      "_links": {
        "self": {
          "name": "POSTIGO OBRAS Y SERVICIOS, S.A.",
          "href": "https://api.euskadi.eus/procurements/companies/03352"
        }
      }
    },
    {
      "name": "CONSULTING ORBERE, S.L.",
      "registrationNumber": "03311",
      "identificationNumber": "B48733828",
      "address": "ISLAS CANARIAS, 21-2ª PLANTA",
      "location": {
        "postalCode": "48019",
        "municipality": "Bilbao",
        "county": "Bizkaia",
        "municipalityId": "020",
        "countyId": "48"
      },
      "economicActivities": [
        {
          "id": "1.846",
          "name": "Empresas de estudios de mercado",
          "_links": {
            "self": {
              "name": "Empresas de estudios de mercado",
              "href": "https://api.euskadi.eus/procurements/companies/economic-activities/1.846"
            }
          }
        },
        {
          "id": "1.847",
          "name": "Servicios de consultoría",
          "_links": {
            "self": {
              "name": "Servicios de consultoría",
              "href": "https://api.euskadi.eus/procurements/companies/economic-activities/1.847"
            }
          }
        },
        {
          "id": "1.932.2",
          "name": "Enseñanza de formación y perfeccionamiento profesional superior",
          "_links": {
            "self": {
              "name": "Enseñanza de formación y perfeccionamiento profesional superior",
              "href": "https://api.euskadi.eus/procurements/companies/economic-activities/1.932.2"
            }
          }
        }
      ],
      "certificateStartDate": "2014-02-10",
      "certificateEndDate": "2014-08-10",
      "object": "EL ASESORAMIENTO DE PERSONAS Y EMPRESAS, TANTO FISCAL COMOJURÍDICO, FINANCIERO O DE CUALQUIER OTRO TIPO; CONSULTORÍA, ESTUDIO, INVESTIGACIÓN , PROMOCIÓN Y PRESTACIÓN DE TODA CLASE DE SERVICIOS DE ASISTENCIA Y GESTIÓN TÉCNICA, COMERCIAL Y CONTABLE, COMISIONES, GESTIONES, REPRESENTACIONES Y MEDIACIONES DE TODA ÍNDOLE, VERIFICADO TODO ELLO POR PERSONAS CON TITULACIÓN SUFICIENTE",
      "mainEntityOfPage": "https://www.contratacion.euskadi.eus/webkpe00-kperoc/es/ac71aBusquedaRegistrosWar/empresa/03311",
      "_links": {
        "self": {
          "name": "CONSULTING ORBERE, S.L.",
          "href": "https://api.euskadi.eus/procurements/companies/03311"
        }
      }
    },
    {
      "name": "DECORACIONES EL PILAR, S.L.",
      "registrationNumber": "05133",
      "identificationNumber": "B01053628",
      "address": "HONDARRIBIA, 22 - BAJO",
      "location": {
        "postalCode": "01010",
        "municipality": "Vitoria-Gasteiz",
        "county": "Araba/Álava",
        "municipalityId": "059",
        "countyId": "01"
      },
      "economicActivities": [
        {
          "id": "1.501.1",
          "name": "Construcción completa, reparación y conservación de edificaciones",
          "_links": {
            "self": {
              "name": "Construcción completa, reparación y conservación de edificaciones",
              "href": "https://api.euskadi.eus/procurements/companies/economic-activities/1.501.1"
            }
          }
        },
        {
          "id": "1.505.7",
          "name": "Trabajos en yeso y escayola y decoración de edificios y locales",
          "_links": {
            "self": {
              "name": "Trabajos en yeso y escayola y decoración de edificios y locales",
              "href": "https://api.euskadi.eus/procurements/companies/economic-activities/1.505.7"
            }
          }
        },
        {
          "id": "1.653.4",
          "name": "Venta al por menor de material de construcción y mobiliario de saneamiento",
          "_links": {
            "self": {
              "name": "Venta al por menor de material de construcción y mobiliario de saneamiento",
              "href": "https://api.euskadi.eus/procurements/companies/economic-activities/1.653.4"
            }
          }
        }
      ],
      "certificateStartDate": "2014-02-06",
      "certificateEndDate": "2014-05-18",
      "object": "LA EJECUCIÓN DE TODO TIPO DE TRABAJOS DE DECORACIÓN RELACIONADOS CON LOS INMUEBLES (VIVIENDAS, LOCALES COMERCIALES, ETC.), EN TODO TIPO DE MATERIAL (ESCAYOLA, PLADUR, YESO, ETC.)",
      "mainEntityOfPage": "https://www.contratacion.euskadi.eus/webkpe00-kperoc/es/ac71aBusquedaRegistrosWar/empresa/05133",
      "_links": {
        "self": {
          "name": "DECORACIONES EL PILAR, S.L.",
          "href": "https://api.euskadi.eus/procurements/companies/05133"
        }
      }
    },
    {
      "name": "ZUMARDI CONSTRUCCIONES, S.A.",
      "registrationNumber": "04384",
      "identificationNumber": "A75004978",
      "address": "Pº FEDERICO GARCÍA LORCA, 10-5º",
      "location": {
        "postalCode": "20014",
        "municipality": "Donostia / San Sebastián",
        "county": "Gipuzkoa",
        "municipalityId": "069",
        "countyId": "20"
      },
      "economicActivities": [
        {
          "id": "1.507",
          "name": "Construcción, reparación y conservación de toda clase obras",
          "_links": {
            "self": {
              "name": "Construcción, reparación y conservación de toda clase obras",
              "href": "https://api.euskadi.eus/procurements/companies/economic-activities/1.507"
            }
          }
        }
      ],
      "certificateStartDate": "2014-02-04",
      "certificateEndDate": "2014-07-22",
      "object": "LA EJECUCIÓN COMPLETA DE OBRAS, POR CUENTA PROPIA Y DE TERCEROS, DE EDIFICACIÓN URBANA, INDUSTRIAL, URBANIZACIÓN, SANEAMIENTO Y ABASTECIMIENTO DE AGUA Y OTROS SERVICIOS PÚBLICOS, EXCAVACIONES, MOVIMIENTO DE TIERRAS, CARRETERAS, FERROCARRILES, HIDRÁULICAS, RIEGOS, PUERTOS Y AEROPUERTOS, DRAGADOS Y SIMILARES, TANTO SEAN NUEVAS COMO DE REPARACIÓN Y  CONSERVACIÓN DE LAS MISMAS; PROMOCIÓN DE PLANES DE ORDENACIÓN URBANA, PARCELACIÓN Y REPARCELACIÓN; CONSTRUCCIÓN DE OBRAS PÚBLICAS Y PRIVADAS DE TODO GÉNERO Y DEMÁS OPERACIONES CON ELLO RELACIONADAS COMO COMPRA DE TERRENOS Y SOLARES, SU DIVISIÓN Y URBANIZACIÓN, VENTA DE PARCELAS, USO, ARRENDAMIENTO Y VENTA DE VIVIENDAS Y LOCALES COMERCIALES O INDUSTRIALES.\r\nQUEDAN EXCLUIDAS DEL OBJETO SOCIAL TODAS AQUELLAS ACTIVIDADES PARA CUYO EJERCICIO LA LEY EXIJA REQUISITOS ESPECIALES QUE NO QUEDEN CUMPLIDOS POR ESTA SOCIEDAD. SI LAS DISPOSICIONES LEGALES EXIGIESEN PARA EL EJERCICIO DE ALGUNAS DE ESTAS ACTIVIDADES COMPRENDIDAS EN EL OBJETO SOCIAL ALGÚN TITULO PROFESIONAL O AUTORIZACIÓN ADMINISTRATIVA O INSCRIPCIÓN EN REGISTRO PÚBLICOS, DICHAS ACTIVIDADES DEBERÁN REALIZARSE POR MEDIO DE PERSONA QUE OSTENTE DICHA TITULARIDAD PROFESIONAL Y, EN SU CASO, NO PODRÁN INICIARSE ANTES DE QUE SE HAYAN CUMPLIDO LOS REQUISITOS ADMINISTRATIVOS EXIGIDOS",
      "mainEntityOfPage": "https://www.contratacion.euskadi.eus/webkpe00-kperoc/es/ac71aBusquedaRegistrosWar/empresa/04384",
      "_links": {
        "self": {
          "name": "ZUMARDI CONSTRUCCIONES, S.A.",
          "href": "https://api.euskadi.eus/procurements/companies/04384"
        }
      }
    }
  ]
}