{
  "totalItems": 9042,
  "totalPages": 905,
  "currentPage": 417,
  "itemsOfPage": 10,
  "items": [
    {
      "name": "IRUNE IBARRETXE LLAGUNO",
      "registrationNumber": "09658",
      "identificationNumber": "16068520F",
      "address": "Calle José Matia nº8, 1º C",
      "location": {
        "postalCode": "01400",
        "municipality": "Laudio/Llodio",
        "county": "Araba/Álava",
        "municipalityId": "036",
        "countyId": "01"
      },
      "economicActivities": [
        {
          "id": "2.824",
          "name": "Profesores de formación y perfeccionamiento profesional",
          "_links": {
            "self": {
              "name": "Profesores de formación y perfeccionamiento profesional",
              "href": "https://api.euskadi.eus/procurements/companies/economic-activities/2.824"
            }
          }
        }
      ],
      "certificateStartDate": "2024-06-17",
      "certificateEndDate": "2024-12-14",
      "object": "PROFESORES DE FORMACIÓN Y PERFECCIONAMIENTO PROFESIONAL.",
      "mainEntityOfPage": "https://www.contratacion.euskadi.eus/webkpe00-kperoc/es/ac71aBusquedaRegistrosWar/empresa/09658",
      "_links": {
        "self": {
          "name": "IRUNE IBARRETXE LLAGUNO",
          "href": "https://api.euskadi.eus/procurements/companies/09658"
        }
      }
    },
    {
      "name": "KULTURA KOORDINAKUNDEA AMALUR SL",
      "registrationNumber": "06113",
      "identificationNumber": "B95630737",
      "address": "CARRETERA EL JUNCAL, S/N - POLIGONO UGARTENA - PABELLON 7",
      "location": {
        "postalCode": "48510",
        "municipality": "Valle de Trápaga-Trapagaran",
        "county": "Bizkaia",
        "municipalityId": "080",
        "countyId": "48"
      },
      "economicActivities": [
        {
          "id": "1.966.9",
          "name": "Otros servicios culturales n.c.o.p",
          "_links": {
            "self": {
              "name": "Otros servicios culturales n.c.o.p",
              "href": "https://api.euskadi.eus/procurements/companies/economic-activities/1.966.9"
            }
          }
        }
      ],
      "certificateStartDate": "2024-06-15",
      "certificateEndDate": "2024-12-15",
      "object": "LA PRESTACIÓN DE SERVICIOS CULTURALES TALES COMO: LA GESTIÓN INTEGRAL DE ESPECTACULOS QUE INCLUYE SU PRODUCCIÓN Y EL ALQUILER, LA CESIÓN DEL MATERIAL NECESARIO PARA SU REALIZACIÓN Y DIFUSIÓN, INCLUSO LUZ Y SONIDO. LOS PORTES Y TRANSPORTES DE PERSONAS, INFRAESTRUCTURAS, ATREZZO Y EQUIPOS PARA TODO TIPO DE ESPECTACULOS. ALQUILER, VENTA, CONSTRUCCIÓN Y MONTAJE, PROGRAMACIÓN Y ASESORAMIENTO, DIRECCIÓN DE INSTALACIONES DE RECREO TANTO INFANTILES COMO PARA ADULTOS, BIEN COMPLETAS BIEN DE CUALQUIERA DE LAS MAQUINARIAS, HERRAMIENTAS, CARPAS, TOLDOS, ESCENARIOS, BARANDILLAS Y MOBILIARIO PROPIO DE LAS MISMAS. PROMOCION, ASESORAMIENTO, MEDIACIÓN Y CONTRATACIÓN DE ARTISTAS. GESTIÓN DE SUS DERECHOS COMO AUTORES. DISEÑO, MONTAJE Y CONSTRUCCIÓN DE CONSTRUCCIONES EFÍMERAS, STANDS Y SIMILARES. CONTROL, ELABORACIÓN Y EJECUCIÓN INTEGRAL DE CAMPAÑAS PUBLICITARIAS Y PROGRAMACIONES, EVENTOS, FERIAS Y CONGRESOS, COMPETICIONES DEPORTIVAS Y ACTIVIDADES DE OCIO. GESTIÓN, ALQUILER, COMPRAVENTA DE INMUEBLES, INCLUSO SU PROMOCIÓN Y CONSTRUCCIÓN. ADQUISICIÓN, TENENCIA, COMPRAVENTA, ALQUILER Y EXPLOTACIÓN DE VEHÍCULOS A MOTOR, REPARACIÓN Y TALLERES MECÁNICOS. TRANSPORTE DE MERCANCIAS",
      "mainEntityOfPage": "https://www.contratacion.euskadi.eus/webkpe00-kperoc/es/ac71aBusquedaRegistrosWar/empresa/06113",
      "_links": {
        "self": {
          "name": "KULTURA KOORDINAKUNDEA AMALUR SL",
          "href": "https://api.euskadi.eus/procurements/companies/06113"
        }
      }
    },
    {
      "name": "SINTERSA HERRAMIENTAS PARA MADERA, S.L.",
      "registrationNumber": "08105",
      "identificationNumber": "B48722904",
      "address": "POLIGONO ATXUKARRO",
      "location": {
        "postalCode": "48480",
        "municipality": "Arrigorriaga",
        "county": "Bizkaia",
        "municipalityId": "011",
        "countyId": "48"
      },
      "economicActivities": [
        {
          "id": "1.322.3",
          "name": "Fabricación de útiles, equipos y piezas para máquinas-herramientas",
          "_links": {
            "self": {
              "name": "Fabricación de útiles, equipos y piezas para máquinas-herramientas",
              "href": "https://api.euskadi.eus/procurements/companies/economic-activities/1.322.3"
            }
          }
        },
        {
          "id": "1.613.3",
          "name": "Venta al por mayor de prendas exteriores de vestir",
          "_links": {
            "self": {
              "name": "Venta al por mayor de prendas exteriores de vestir",
              "href": "https://api.euskadi.eus/procurements/companies/economic-activities/1.613.3"
            }
          }
        },
        {
          "id": "1.617.5",
          "name": "Venta al por mayor de maquinaria para la madera y el metal",
          "_links": {
            "self": {
              "name": "Venta al por mayor de maquinaria para la madera y el metal",
              "href": "https://api.euskadi.eus/procurements/companies/economic-activities/1.617.5"
            }
          }
        }
      ],
      "certificateStartDate": "2024-06-14",
      "certificateEndDate": "2024-12-14",
      "object": "LA FABRICACIÓN DE HERRAMIENTAS DE CORTE PARA LA INDUSTRIA EN GENERAL, TALES COMO FRESAS, DISCOS, BROCAS, CUCHILLAS, SIERRAS, ETC.",
      "mainEntityOfPage": "https://www.contratacion.euskadi.eus/webkpe00-kperoc/es/ac71aBusquedaRegistrosWar/empresa/08105",
      "_links": {
        "self": {
          "name": "SINTERSA HERRAMIENTAS PARA MADERA, S.L.",
          "href": "https://api.euskadi.eus/procurements/companies/08105"
        }
      }
    },
    {
      "name": "CARTONAJES IGAMO, S.A.",
      "registrationNumber": "08148",
      "identificationNumber": "A01052455",
      "address": "C/PADUREA 9",
      "location": {
        "postalCode": "01170",
        "municipality": "Legutio",
        "county": "Araba/Álava",
        "municipalityId": "058",
        "countyId": "01"
      },
      "economicActivities": [
        {
          "id": "1.473.2",
          "name": "Fabricación de otros artículos de envase y embalaje en papel",
          "_links": {
            "self": {
              "name": "Fabricación de otros artículos de envase y embalaje en papel",
              "href": "https://api.euskadi.eus/procurements/companies/economic-activities/1.473.2"
            }
          }
        }
      ],
      "certificateStartDate": "2024-06-14",
      "certificateEndDate": "2024-12-11",
      "object": "LA VENTA Y FABRICACIÓN DE ESTUCHES Y CAJAS DE CARTÓN DE TODAS CLASES Y MODELOS, LA IMPRESIÓN EN TODO TIPO DE PAPEL, CARTÓN Y CARTULINA, Y PODRÁ REALIZAR CUALQUIER ACTIVIDAD RELACIONADO CON LAS ARTES GRÁFICAS EN SU FASE DE PRODUCCIÓN O COMERCIALIZACIÓN.",
      "mainEntityOfPage": "https://www.contratacion.euskadi.eus/webkpe00-kperoc/es/ac71aBusquedaRegistrosWar/empresa/08148",
      "_links": {
        "self": {
          "name": "CARTONAJES IGAMO, S.A.",
          "href": "https://api.euskadi.eus/procurements/companies/08148"
        }
      }
    },
    {
      "name": "MIRYAN SALAVERRIA UGARTEMENDIA",
      "registrationNumber": "09656",
      "identificationNumber": "15248699K",
      "address": "Fraxkuneko Murrua",
      "location": {
        "postalCode": "20280",
        "municipality": "Hondarribia",
        "county": "Gipuzkoa",
        "municipalityId": "036",
        "countyId": "20"
      },
      "economicActivities": [
        {
          "id": "2.826",
          "name": "Personal docente de enseñanzas diversas",
          "_links": {
            "self": {
              "name": "Personal docente de enseñanzas diversas",
              "href": "https://api.euskadi.eus/procurements/companies/economic-activities/2.826"
            }
          }
        }
      ],
      "certificateStartDate": "2024-06-14",
      "certificateEndDate": "2024-12-13",
      "object": "PERSONAL DOCENTE DE ENSEÑANZAS DIVERSAS.",
      "mainEntityOfPage": "https://www.contratacion.euskadi.eus/webkpe00-kperoc/es/ac71aBusquedaRegistrosWar/empresa/09656",
      "_links": {
        "self": {
          "name": "MIRYAN SALAVERRIA UGARTEMENDIA",
          "href": "https://api.euskadi.eus/procurements/companies/09656"
        }
      }
    },
    {
      "name": "ECOKIROL BASQUE GESTION, S.L.",
      "registrationNumber": "08829",
      "identificationNumber": "B72438021",
      "address": "Calle Paduleta, nº 18",
      "location": {
        "postalCode": "01015",
        "municipality": "Vitoria-Gasteiz",
        "county": "Araba/Álava",
        "municipalityId": "059",
        "countyId": "01"
      },
      "economicActivities": [
        {
          "id": "1.494.2",
          "name": "Fabricación de artículos de deporte",
          "_links": {
            "self": {
              "name": "Fabricación de artículos de deporte",
              "href": "https://api.euskadi.eus/procurements/companies/economic-activities/1.494.2"
            }
          }
        }
      ],
      "certificateStartDate": "2024-06-13",
      "certificateEndDate": "2024-12-10",
      "object": "A) LA FABRICACIÓN, COMERCIALIZACIÓN, INSTALACIÓN, REPRESENTACIÓN COMERCIAL, IMPORTACIÓN Y EXPORTACIÓN DE TODO TIPO DE PRENDAS DE VESTIR, INCLUIDAS LAS DEPORTIVAS E INDUSTRIALES. B) LA FABRICACIÓN, COMERCIALIZACIÓN, INSTALACIÓN, REPRESENTACIÓN COMERCIAL, IMPORTACIÓN Y EXPORTACIÓN DE TODO TIPO DE ELEMENTOS PARA EL DEPORTE Y LA GIMNASIA, COMO PORTERÍAS, CANASTAS, SUELOS Y PAVIMENTOS, TANTO INDUSTRIALES COMO DEPORTIVOS, HIERBA SINTÉTICA O ARTIFICIAL PARA LA PRÁCTICA DE DEPORTES Y APARATOS DE GIMNASIO. C) LOS TRABAJOS DE CONSTRUCCIÓN, REPARACIÓN Y CONSERVACIÓN DE OBRAS PÚBLICAS Y PRIVADAS DE CUALQUIER CLASE; PROMOCIÓN, REPARCELACIÓN Y URBANIZACIÓN; COMPRA-VENTA Y ARRENDAMIENTO DE TERRENOS, EDIFICIOS, LONJAS Y APARTAMENTOS; LA GESTIÓN Y EJECUCIÓN DE TODO TIPO Y CLASE DE PROYECTOS DE URBANIZACIÓN Y PLANES URBANÍSTICOS, ASÍ COMO LA PROMOCIÓN Y CONSTRUCCIÓN DE TODO TIPO DE EDIFICACIONES Y DE OBRAS, TANTO PÚBLICAS COMO PRIVADAS Y ARRENDAMIENTO DE UNAS Y DE OTRAS; OBRAS DE ABASTECIMIENTO Y SANEAMIENTO DE AGUAS; TRANSMISIÓN EXPLOTACIÓN Y ARRENDAMIENTO DE TODO TIPO Y CLASE DE FINCAS, RÚSTICAS Y URBANAS, Y EN GENERAL TODOS LOS TRABAJOS  Y NEGOCIOS RELACIONADOS CON LA ACTIVIDAD URBANÍSTICA Y LA INDUSTRIA DE CONSTRUCCIÓN.",
      "mainEntityOfPage": "https://www.contratacion.euskadi.eus/webkpe00-kperoc/es/ac71aBusquedaRegistrosWar/empresa/08829",
      "_links": {
        "self": {
          "name": "ECOKIROL BASQUE GESTION, S.L.",
          "href": "https://api.euskadi.eus/procurements/companies/08829"
        }
      }
    },
    {
      "name": "DESPACHO JURIDICO MERCANTIL SIGLO XXI, S.L.",
      "registrationNumber": "09133",
      "identificationNumber": "B95668042",
      "address": "colon de larreategui 26 7ºA",
      "location": {
        "postalCode": "48009",
        "municipality": "Bilbao",
        "county": "Bizkaia",
        "municipalityId": "020",
        "countyId": "48"
      },
      "economicActivities": [
        {
          "id": "1.841",
          "name": "Servicios jurídicos",
          "_links": {
            "self": {
              "name": "Servicios jurídicos",
              "href": "https://api.euskadi.eus/procurements/companies/economic-activities/1.841"
            }
          }
        },
        {
          "id": "1.842",
          "name": "Servicios financieros y contables",
          "_links": {
            "self": {
              "name": "Servicios financieros y contables",
              "href": "https://api.euskadi.eus/procurements/companies/economic-activities/1.842"
            }
          }
        }
      ],
      "certificateStartDate": "2024-06-12",
      "certificateEndDate": "2024-12-08",
      "object": "EL ASESORAMIENTO JURÍDICO Y ASISTENCIA JURÍDICA EN LOS TRIBUNALES Y MAGISTRATURAS DE CUALQUIER CLASE DE GRADO O JURISDICCIÓN ASÍ COMO EN LA INTERPOSICIÓN DE RECURSOS GUBERNATIVOS, CONTENCIOSO-ADMINISTRATIVOS, EN SUS AMPLIOS TÉRMINOS, EL ASESORAMIENTO FISCAL, FINANCIERO Y CONTABLE, TANTO A PERSONAS FÍSICAS COMO PERSONAS JURÍDICAS.",
      "mainEntityOfPage": "https://www.contratacion.euskadi.eus/webkpe00-kperoc/es/ac71aBusquedaRegistrosWar/empresa/09133",
      "_links": {
        "self": {
          "name": "DESPACHO JURIDICO MERCANTIL SIGLO XXI, S.L.",
          "href": "https://api.euskadi.eus/procurements/companies/09133"
        }
      }
    },
    {
      "name": "RAINDANCE, S.L.",
      "registrationNumber": "09649",
      "identificationNumber": "B75052100",
      "address": "Oilaume bidea, 15",
      "location": {
        "postalCode": "20115",
        "municipality": "Astigarraga",
        "county": "Gipuzkoa",
        "municipalityId": "903",
        "countyId": "20"
      },
      "economicActivities": [
        {
          "id": "1.845",
          "name": "Explotación electrónica por cuenta de terceros",
          "_links": {
            "self": {
              "name": "Explotación electrónica por cuenta de terceros",
              "href": "https://api.euskadi.eus/procurements/companies/economic-activities/1.845"
            }
          }
        }
      ],
      "certificateStartDate": "2024-06-12",
      "certificateEndDate": "2024-12-12",
      "object": "LA PRESTACIÓN DE SERVICIOS INFORMÁTICOS, TELEMÁTICOS Y MULTIMEDIA EN EL ÁMBITO DEL MARKETING, COMUNICACIÓN Y COMERCIAL QUE INCLUYE ENTRE OTROS: LA PRESTACIÓN DE SERVICIOS DE DISEÑO, CREACIÓN Y GESTIÓN DE CONTENIDOS COMUNICATIVOS MULTIMEDIA; LA PRESTACIÓN DE SERVICIOS DE DESARROLLO, VENTA AL POR MENOR Y AL POR MAYOR, DISTRIBUCIÓN, REPRESENTACIÓN E IMPLANTACIÓN DE SOLUCIONES INFORMÁTICAS Y WEB (SOFTWARE Y HARDWARE); LA PRESTACIÓN DE SERVICIOS DE CONSULTORÍA, ASESORAMIENTO Y FORMACIÓN A ENTIDADES PÚBLICAS Y PRIVADAS; LA INVESTIGACIÓN TÉCNICA Y CIENTÍFICA RELACIONADA CON LA APLICACIÓN DE LAS NUEVAS TECNOLOGÍAS A LA COMUNICACIÓN, MULTIMEDIA, INTERNET.",
      "mainEntityOfPage": "https://www.contratacion.euskadi.eus/webkpe00-kperoc/es/ac71aBusquedaRegistrosWar/empresa/09649",
      "_links": {
        "self": {
          "name": "RAINDANCE, S.L.",
          "href": "https://api.euskadi.eus/procurements/companies/09649"
        }
      }
    },
    {
      "name": "AGUILAR Y VARONA ARQUITECTOS ASOCIADOS, S.L.P.",
      "registrationNumber": "05610",
      "identificationNumber": "B95521258",
      "address": "C/ Quintana 4",
      "location": {
        "postalCode": "48007",
        "municipality": "Bilbao",
        "county": "Bizkaia",
        "municipalityId": "020",
        "countyId": "48"
      },
      "economicActivities": [
        {
          "id": "1.843.2",
          "name": "Servicios técnicos de arquitectura y urbanismo",
          "_links": {
            "self": {
              "name": "Servicios técnicos de arquitectura y urbanismo",
              "href": "https://api.euskadi.eus/procurements/companies/economic-activities/1.843.2"
            }
          }
        }
      ],
      "certificateStartDate": "2024-06-11",
      "certificateEndDate": "2024-12-11",
      "object": "LA ACTIVIDAD PROPIA DE LOS PROFESIONALES DE LA ARQUITECTURA",
      "mainEntityOfPage": "https://www.contratacion.euskadi.eus/webkpe00-kperoc/es/ac71aBusquedaRegistrosWar/empresa/05610",
      "_links": {
        "self": {
          "name": "AGUILAR Y VARONA ARQUITECTOS ASOCIADOS, S.L.P.",
          "href": "https://api.euskadi.eus/procurements/companies/05610"
        }
      }
    },
    {
      "name": "837 COMUNICACION Y PUBLICIDAD, S.L.",
      "registrationNumber": "08164",
      "identificationNumber": "B75144790",
      "address": "Avda. Letxunborro, 100-2D",
      "location": {
        "postalCode": "20305",
        "municipality": "Irun",
        "county": "Gipuzkoa",
        "municipalityId": "045",
        "countyId": "20"
      },
      "economicActivities": [
        {
          "id": "1.476.2",
          "name": "Edición de periódicos y revistas",
          "_links": {
            "self": {
              "name": "Edición de periódicos y revistas",
              "href": "https://api.euskadi.eus/procurements/companies/economic-activities/1.476.2"
            }
          }
        },
        {
          "id": "1.844",
          "name": "Servicios de publicidad, relaciones públicas y similares",
          "_links": {
            "self": {
              "name": "Servicios de publicidad, relaciones públicas y similares",
              "href": "https://api.euskadi.eus/procurements/companies/economic-activities/1.844"
            }
          }
        },
        {
          "id": "1.961.1",
          "name": "Producción de películas cinematográficas (incluso vídeos)",
          "_links": {
            "self": {
              "name": "Producción de películas cinematográficas (incluso vídeos)",
              "href": "https://api.euskadi.eus/procurements/companies/economic-activities/1.961.1"
            }
          }
        }
      ],
      "certificateStartDate": "2024-06-10",
      "certificateEndDate": "2024-12-10",
      "object": "EDICIÓN DE REVISTA, COMUNICACIÓN, PUBLICIDAD, MARKETING, E-COMERCE, VIDEO, REDES SOCIALES, GESTIÓN DE MEDIOS DE COMUNICACIÓN, GESTIÓN DE PUBLICIDAD EN MEDIOS COMUNICACIÓN, TRADUCCIÓN, DISEÑO GRÁFICO, REALIZACIÓN DE PÁGINAS WEB, ORGANIZACIÓN DE EVENTOS, CREACIÓN DE MARCA E IDENTIDAD CORPORATIVA.",
      "mainEntityOfPage": "https://www.contratacion.euskadi.eus/webkpe00-kperoc/es/ac71aBusquedaRegistrosWar/empresa/08164",
      "_links": {
        "self": {
          "name": "837 COMUNICACION Y PUBLICIDAD, S.L.",
          "href": "https://api.euskadi.eus/procurements/companies/08164"
        }
      }
    }
  ]
}