{
  "totalItems": 9042,
  "totalPages": 905,
  "currentPage": 273,
  "itemsOfPage": 10,
  "items": [
    {
      "name": "TANADEUSTO, S.L.",
      "registrationNumber": "10111",
      "identificationNumber": "B42847905",
      "address": "Calle Morgan, 2 A (48014)",
      "location": {
        "postalCode": "48014",
        "municipality": "Bilbao",
        "county": "Bizkaia",
        "municipalityId": "020",
        "countyId": "48"
      },
      "economicActivities": [
        {
          "id": "1.843.9",
          "name": "Otros servicios técnicos n.c.o.p",
          "_links": {
            "self": {
              "name": "Otros servicios técnicos n.c.o.p",
              "href": "https://api.euskadi.eus/procurements/companies/economic-activities/1.843.9"
            }
          }
        },
        {
          "id": "1.979.1",
          "name": "Servicios de pompas fúnebres",
          "_links": {
            "self": {
              "name": "Servicios de pompas fúnebres",
              "href": "https://api.euskadi.eus/procurements/companies/economic-activities/1.979.1"
            }
          }
        }
      ],
      "certificateStartDate": "2025-09-16",
      "certificateEndDate": "2026-03-15",
      "object": "COMERCIO AL POR MENOR DE FLORES, PLANTAS, SEMILLAS, FERTILIZANTES, ANIMALES DE COMPAÑÍA Y ALIMENTOS PARA LOS MISMOS EN ESTABLECIMIENTOS ESPECIALIZADOS. ",
      "mainEntityOfPage": "https://www.contratacion.euskadi.eus/webkpe00-kperoc/es/ac71aBusquedaRegistrosWar/empresa/10111",
      "_links": {
        "self": {
          "name": "TANADEUSTO, S.L.",
          "href": "https://api.euskadi.eus/procurements/companies/10111"
        }
      }
    },
    {
      "name": "LKS NEXT GOB TECH EUSKADI, S.COOP.",
      "registrationNumber": "04690",
      "identificationNumber": "F01451194",
      "address": "PEDRO ASUA, 75-77",
      "location": {
        "postalCode": "01008",
        "municipality": "Vitoria-Gasteiz",
        "county": "Araba/Álava",
        "municipalityId": "059",
        "countyId": "01"
      },
      "economicActivities": [
        {
          "id": "1.845",
          "name": "Explotación electrónica por cuenta de terceros",
          "_links": {
            "self": {
              "name": "Explotación electrónica por cuenta de terceros",
              "href": "https://api.euskadi.eus/procurements/companies/economic-activities/1.845"
            }
          }
        },
        {
          "id": "1.933.9",
          "name": "Otras actividades de enseñanza tales como idiomas, mecanografía",
          "_links": {
            "self": {
              "name": "Otras actividades de enseñanza tales como idiomas, mecanografía",
              "href": "https://api.euskadi.eus/procurements/companies/economic-activities/1.933.9"
            }
          }
        }
      ],
      "certificateStartDate": "2025-09-16",
      "certificateEndDate": "2026-03-14",
      "object": "A) LA PRESTACIÓN DE SERVICIOS PROFESIONALES DE ALTO VALOR AÑADIDO PARA APOYAR LA TRANSFORMACIÓN DIGITAL DE LAS ADMINISTRACIONES PÚBLICAS: - CONSULTORÍA, - DESARROLLO, -INTEGRACIÓN - SERVICIOS GESTIONADOS - MANENIMIENTO, ASISTENCIA TÉCNICA. B) LA PRESTACIÓN DE SERVICIOS QUE PERMITAN A LOS CLIENTES (EMPRESAS E INSTITUCIONES PÚBLICAS Y PRIVADAS), LA EXTERNALIZACIÓN DE LA TOTALIDAD O PARTE DE SUS SISTEMAS DE INFORMACIÓN.",
      "mainEntityOfPage": "https://www.contratacion.euskadi.eus/webkpe00-kperoc/es/ac71aBusquedaRegistrosWar/empresa/04690",
      "_links": {
        "self": {
          "name": "LKS NEXT GOB TECH EUSKADI, S.COOP.",
          "href": "https://api.euskadi.eus/procurements/companies/04690"
        }
      }
    },
    {
      "name": "NEUTRO-SON, S.L.",
      "registrationNumber": "06591",
      "identificationNumber": "B95231262",
      "address": "POL. IND. ERLETXE, PLAT. H, EDIF. 2, PAB. 4",
      "location": {
        "postalCode": "48960",
        "municipality": "Galdakao",
        "county": "Bizkaia",
        "municipalityId": "036",
        "countyId": "48"
      },
      "economicActivities": [
        {
          "id": "1.859",
          "name": "Alquiler de otros bienes muebles n.c.o.p. (sin personal permanente)",
          "_links": {
            "self": {
              "name": "Alquiler de otros bienes muebles n.c.o.p. (sin personal permanente)",
              "href": "https://api.euskadi.eus/procurements/companies/economic-activities/1.859"
            }
          }
        },
        {
          "id": "1.965.2",
          "name": "Espectáculos al aire libre (excepto los taurinos)",
          "_links": {
            "self": {
              "name": "Espectáculos al aire libre (excepto los taurinos)",
              "href": "https://api.euskadi.eus/procurements/companies/economic-activities/1.965.2"
            }
          }
        }
      ],
      "certificateStartDate": "2025-09-16",
      "certificateEndDate": "2026-03-15",
      "object": "EL ALQUILER Y VENTA DE EQUIPOS DE SONIDO E ILUMINACIÓN",
      "mainEntityOfPage": "https://www.contratacion.euskadi.eus/webkpe00-kperoc/es/ac71aBusquedaRegistrosWar/empresa/06591",
      "_links": {
        "self": {
          "name": "NEUTRO-SON, S.L.",
          "href": "https://api.euskadi.eus/procurements/companies/06591"
        }
      }
    },
    {
      "name": "INGENIERIA EN INTEGRACION DE SISTEMAS DE INFORMACION, S.A.",
      "registrationNumber": "05468",
      "identificationNumber": "A95066296",
      "address": "Gran Via, 17 - 3º - Of. 302",
      "location": {
        "postalCode": "48001",
        "municipality": "Bilbao",
        "county": "Bizkaia",
        "municipalityId": "020",
        "countyId": "48"
      },
      "economicActivities": [
        {
          "id": "1.845",
          "name": "Explotación electrónica por cuenta de terceros",
          "_links": {
            "self": {
              "name": "Explotación electrónica por cuenta de terceros",
              "href": "https://api.euskadi.eus/procurements/companies/economic-activities/1.845"
            }
          }
        }
      ],
      "certificateStartDate": "2025-09-16",
      "certificateEndDate": "2026-03-15",
      "object": "LA REALIZACIÓN DE ESTUDIOS, TRABAJOS Y APLICACIONES INFORMÁTICAS, LA APROBACIÓN DE TODA LA GAMA DE SERVICIOS RELACIONADOS CON EL PROCESAMIENTO DE LA INFORMACIÓN, TALES COMO ANÁLISIS FUNCIONAL, ANÁLISIS ORGÁNICO, PROGRAMACIÓN, GRABACIÓN, ETC...., LA SELECCIÓN Y FORMACIÓN DE PERSONAL INFORMÁTICO; EL ASESORAMIENTO INFORMÁTICO A EMPRESAS, ORGANISMOS E INSTITUCIONES, ASÍ COMO LA REALIZACIÓN DE CHEQUEOS, AUDITORIAS Y REVISIONES, ETC.... CUALQUIER OTRA ACTIVIDAD DE CARÁCTER INFORMÁTICO, YA SEA DENTRO DEL ÁREA DEL HARDWARE COMO DENTRO DEL ÁREA DEL SOFTWARE, ASÍ COMO A TODAS LAS TAREAS Y SERVICIOS RELACIONADOS CON LA ORGANIZACIÓN DE EMPRESAS",
      "mainEntityOfPage": "https://www.contratacion.euskadi.eus/webkpe00-kperoc/es/ac71aBusquedaRegistrosWar/empresa/05468",
      "_links": {
        "self": {
          "name": "INGENIERIA EN INTEGRACION DE SISTEMAS DE INFORMACION, S.A.",
          "href": "https://api.euskadi.eus/procurements/companies/05468"
        }
      }
    },
    {
      "name": "BAGABIGGAHIGA KOOP. ELK. TXIKIA",
      "registrationNumber": "09855",
      "identificationNumber": "F13794250",
      "address": "Kale Zaharra-51 Bajo",
      "location": {
        "postalCode": "20560",
        "municipality": "Oñati",
        "county": "Gipuzkoa",
        "municipalityId": "059",
        "countyId": "20"
      },
      "economicActivities": [
        {
          "id": "1.843.9",
          "name": "Otros servicios técnicos n.c.o.p",
          "_links": {
            "self": {
              "name": "Otros servicios técnicos n.c.o.p",
              "href": "https://api.euskadi.eus/procurements/companies/economic-activities/1.843.9"
            }
          }
        },
        {
          "id": "1.844",
          "name": "Servicios de publicidad, relaciones públicas y similares",
          "_links": {
            "self": {
              "name": "Servicios de publicidad, relaciones públicas y similares",
              "href": "https://api.euskadi.eus/procurements/companies/economic-activities/1.844"
            }
          }
        },
        {
          "id": "1.933.9",
          "name": "Otras actividades de enseñanza tales como idiomas, mecanografía",
          "_links": {
            "self": {
              "name": "Otras actividades de enseñanza tales como idiomas, mecanografía",
              "href": "https://api.euskadi.eus/procurements/companies/economic-activities/1.933.9"
            }
          }
        },
        {
          "id": "1.966.9",
          "name": "Otros servicios culturales n.c.o.p",
          "_links": {
            "self": {
              "name": "Otros servicios culturales n.c.o.p",
              "href": "https://api.euskadi.eus/procurements/companies/economic-activities/1.966.9"
            }
          }
        }
      ],
      "certificateStartDate": "2025-09-16",
      "certificateEndDate": "2026-03-15",
      "object": "CREAR VOCES Y LENGUAJES ÚNICOS PARTIENDO DE LA ESENCIA DE CADA PROYECTO PARA CONSTRUIR SU PROPIO UNIVERSO PARTICULAR. DESDE LA ESTRATEGIA INICIAL HASTA EL DESARROLLO FINAL, CONCEDIENDO SOLUCIONES QUE SON CONCEPTUAL Y FORMALMENTE RICAS MEDIANTE PROCESOS COLABORATIVOS, DINÁMICOS Y CREATIVOS CON EL CLIENTE. OFRECEMOS SERVICIOS DE BRANDING, COMUNICACIÓN, CONTENIDO, DIRECCIÓN DE ARTE, DISEÑO EDITORIAL, DISEÑO GRÁFICO, DISEÑO DE ESPACIOS Y PACKAGING.",
      "mainEntityOfPage": "https://www.contratacion.euskadi.eus/webkpe00-kperoc/es/ac71aBusquedaRegistrosWar/empresa/09855",
      "_links": {
        "self": {
          "name": "BAGABIGGAHIGA KOOP. ELK. TXIKIA",
          "href": "https://api.euskadi.eus/procurements/companies/09855"
        }
      }
    },
    {
      "name": "HIRUBIDE INGENIARITZA ETA AHOLKULARITZA, S.L.",
      "registrationNumber": "09065",
      "identificationNumber": "B44978534",
      "address": "PARQUE EMPRESARIAL ZUATZU. FCO. GRANDMONTAGNE 1. EDIF ZURRIOLA. PLANTA 2 LOCAL 7",
      "location": {
        "postalCode": "20018",
        "municipality": "Donostia / San Sebastián",
        "county": "Gipuzkoa",
        "municipalityId": "069",
        "countyId": "20"
      },
      "economicActivities": [
        {
          "id": "1.843.1",
          "name": "Servicios técnicos de ingeniería",
          "_links": {
            "self": {
              "name": "Servicios técnicos de ingeniería",
              "href": "https://api.euskadi.eus/procurements/companies/economic-activities/1.843.1"
            }
          }
        }
      ],
      "certificateStartDate": "2025-09-16",
      "certificateEndDate": "2026-03-16",
      "object": "LA REALIZACIÓN DE TODA CLASE DE ESTUDIOS Y PROYECTOS DE INGENIERÍA EN TODAS SUS VARIANTES, URBANISMO, ARQUITECTURA Y EL MEDIO AMBIENTE; CONSERVACIÓN, MANTENIMIENTO Y OPERACIÓN O PUESTA EN FUNCIONAMIENTO DE TODA CLASE DE OBRAS CIVILES; EDIFICACIONES PÚBLICAS Y PRIVADAS; OBRAS E INSTALACIONES INDUSTRIALES, COMERCIALES, DEPORTIVAS Y DE RECREO; DIRECCIÓN, CONTROL Y SUPERVISIÓN DE OBRAS; ESTUDIOS Y SERVICIOS TÉCNICOS; REALIZACION Y ENTREGA DE PROYECTOS \"LLAVE EN MANO\". SERVICIOS MEDIOAMBIENTALES, DISEÑO Y EJECUCIÓN DE INVESTIGACIONES EXPLORATORIAS DE LA CALIDAD DEL SUELO, GESTIÓN INTEGRAL DE RESIDUOS PELIGROSOS Y NO PELIGROSOS, RESTAURACIONES Y REHABILITACIONES AMBIENTALES, RECUPERACIÓN DE EMPLAZAMIENTOS CONTAMINADOS, ESTUDIOS DE CALIDAD MEDIOAMBIENTAL, GESTIÓN INTEGRAL DE LOS RESIDUOS DE DEMOLICIÓN Y CONSTRUCCIÓN, INVESTIGACIÓN Y TRATAMIENTO DE SUELOS CONTAMINADOS, ACUÍFEROS, DESAMIANTADO, GEOLOGÍA AMBIENTAL, GESTIÓN DE RUINAS INDUSTRIALES, EVALUACIÓN AMBIENTAL. EJECUCIÓN DE OBRAS DE RECUPERACIÓN MEDIOAMBIENTAL, PRESTACIÓN DE SERVICIOS DE RECUPERACIÓN MEDIOAMBIENTAL, ELABORACIÓN DE TODO TIPO DE PROYECTOS DE INGENIERÍA Y ARQUITECTURA, ASÍ COMO LA SUPERVISIÓN, DIRECCIÓN, Y ASESORAMIENTO EN LA EJECUCIÓN DE TODO TIPO DE OBRAS Y SERVICIOS.\n",
      "mainEntityOfPage": "https://www.contratacion.euskadi.eus/webkpe00-kperoc/es/ac71aBusquedaRegistrosWar/empresa/09065",
      "_links": {
        "self": {
          "name": "HIRUBIDE INGENIARITZA ETA AHOLKULARITZA, S.L.",
          "href": "https://api.euskadi.eus/procurements/companies/09065"
        }
      }
    },
    {
      "name": "DIAGAST IBERICA, S.L.",
      "registrationNumber": "10331",
      "identificationNumber": "B63741987",
      "address": "calle Soberanía 2, 2ºA",
      "location": {
        "postalCode": "28260",
        "municipality": "Galapagar",
        "county": "Madrid",
        "municipalityId": "061",
        "countyId": "28"
      },
      "economicActivities": [
        {
          "id": "1.619.9",
          "name": "Venta al por mayor de otros productos n.c.o.p",
          "_links": {
            "self": {
              "name": "Venta al por mayor de otros productos n.c.o.p",
              "href": "https://api.euskadi.eus/procurements/companies/economic-activities/1.619.9"
            }
          }
        }
      ],
      "certificateStartDate": "2025-09-16",
      "certificateEndDate": "2026-03-15",
      "object": "PROMOCIÓN, DISTRIBUCIÓN Y COMERCIALIZACIÓN DE SISTEMAS DE LABORATORIO (REACTIVOS Y MATERIALES), ASÍ COMO TODAS LAS OPERACIONES MOBILIARIAS O INMOBILIARIAS, FINANCIEROS, INDUSTRIALES Y COMERCIALES RELACIONADAS DIRECTA O INDIRECTAMENTE A ESTE OBJETO O QUE FACILITAN LA REALIZACIÓN DE ESTE OBJETO.",
      "mainEntityOfPage": "https://www.contratacion.euskadi.eus/webkpe00-kperoc/es/ac71aBusquedaRegistrosWar/empresa/10331",
      "_links": {
        "self": {
          "name": "DIAGAST IBERICA, S.L.",
          "href": "https://api.euskadi.eus/procurements/companies/10331"
        }
      }
    },
    {
      "name": "ENEKO PLAZAOLA ARRETXE",
      "registrationNumber": "09861",
      "identificationNumber": "44139723D",
      "address": "Nagusia 40, entreplanta oficina 2",
      "location": {
        "postalCode": "20200",
        "municipality": "Beasain",
        "county": "Gipuzkoa",
        "municipalityId": "019",
        "countyId": "20"
      },
      "economicActivities": [
        {
          "id": "1.501.1",
          "name": "Construcción completa, reparación y conservación de edificaciones",
          "_links": {
            "self": {
              "name": "Construcción completa, reparación y conservación de edificaciones",
              "href": "https://api.euskadi.eus/procurements/companies/economic-activities/1.501.1"
            }
          }
        },
        {
          "id": "2.411",
          "name": "Arquitectos",
          "_links": {
            "self": {
              "name": "Arquitectos",
              "href": "https://api.euskadi.eus/procurements/companies/economic-activities/2.411"
            }
          }
        }
      ],
      "certificateStartDate": "2025-09-15",
      "certificateEndDate": "2026-03-15",
      "object": "ARQUITECTOS. CONSTRUCCIÓN COMPLETA, REPARACIÓN Y CONSERVACIÓN DE EDIFICACIONES.",
      "mainEntityOfPage": "https://www.contratacion.euskadi.eus/webkpe00-kperoc/es/ac71aBusquedaRegistrosWar/empresa/09861",
      "_links": {
        "self": {
          "name": "ENEKO PLAZAOLA ARRETXE",
          "href": "https://api.euskadi.eus/procurements/companies/09861"
        }
      }
    },
    {
      "name": "ARALIA SERVICIOS SOCIOSANIATRIOS, S.A.",
      "registrationNumber": "06069",
      "identificationNumber": "A47326475",
      "address": "FRANCISCO HERNANDEZ PACHECO 14",
      "location": {
        "postalCode": "47014",
        "municipality": "Valladolid",
        "county": "Valladolid",
        "municipalityId": "186",
        "countyId": "47"
      },
      "economicActivities": [
        {
          "id": "1.952",
          "name": "Asistencia y servicios sociales en centros no residenciales",
          "_links": {
            "self": {
              "name": "Asistencia y servicios sociales en centros no residenciales",
              "href": "https://api.euskadi.eus/procurements/companies/economic-activities/1.952"
            }
          }
        }
      ],
      "certificateStartDate": "2025-09-15",
      "certificateEndDate": "2026-03-15",
      "object": "PRESTACIÓN POR' CUALQUIER CIASE DE TÍTULO DE TODA CLASE DE SERVICIOS PÚBLICOS O PRIVADOS: ADMINISTRATIVOS, ESPECIALIZADOS, CUALIFICADOS, DE CONSERVACIÓN, LIMPIEZA Y MANTENIMIENTO DE BIENES INMUEBLES, DE MANTENIMIENTO Y REPARACIÓN DE EQUIPOS E INSTALACIONES, DE MANTENIMIENTO Y REPARACIÓN DE MAQUINARIA, DE TRANSPORTE, DE TRATAMIENTO DE RESIDUOS Y DESECHOS, SERVICIOS DE CONTENIDO Y AUDIOVISUALES, SERVICIOS GENERALES, SERVICIOS DE TECNOLOGÍAS DE LA INFORMACIÓN Y DE LAS COMUNICACIONES, INCLUIDAS LAS ACTIVIDADES AUXILIARES Y COMPLEMENTARIAS RELACIONDAS CON LOS ANTERIORES Y CON CARÁCTER MERAMENTE ENUNCIATIVO Y NO LIMITATIVO, LOS SIGUIENTES: - SERVICIOS ADMINISTRATIVOS: AUXILIARES PARA TRABAJOS DE ARCHIVO Y SIMILARES, GESTIÓN DE COBROS, ENCUESTAS, TOMA DE DATOS Y SERVICIOS ANÁLOGOS, LECTURA DE CONTADORES, ORGANIZACIÓN Y PROMOCIÓN DE CONGRESOS, FERIAS Y EXPOSICIONES, PORTERÍA, CONTROL DE ACCESOS E INFORMACIÓN AL PÚBLICO.- SERVICIOS ESPECIALIZADOS: HIGIENIZACIÓN DESINFECCIÓN, DESINSECTACIÓN Y DESRATIZACIÓN. SEGURIDAD, CUSTODIA Y PROTECCIÓN. ATENCIÓN Y MANEJO DE INSTALACIONES DE SEGURIDAD. ARTES GRÁFICAS. SERVICIOS DE BIBLIOTECAS, ARCHIVOS Y MUSEOS. HOSTELERÍA Y SERVICIOS DE COMIDA. PREVENCIÓN DE INCENDIOS FORESTALES. SERVICIOS DE PROTECCIÓN DE ESPECIES. - CONSERVACIÓN Y MANTENIMIENTO DE BIENES INMUEBLES: CONSERVACIÓN Y MANTENIMIENTO DE EDIFICIOS, CONSERVACIÓN DE PARQUES Y JARDINES; MANTENIMIENTO DE REDES DE AGUA, ALCANTARILLADO, ESTACIONES DEPURADORAS, VERTEDEROS, PLANTAS DE TRATAMIENTO DE RESIDUOS Y PLANTAS DE RECICLAJE; MANTENIMIENTO DE CARRETERAS Y VALES. - SERVICIOS CUALIFICADOS: ACTIVIDADES MÉDICAS Y SANITARIAS. INSPECCIÓN SANITARIA DE INSTALACIONES. SERVICIOS VETERINARIOS PARA LA SALUD. SERVICIOS DE ESTERILIZACIÓN DE MATERIAL SANITARIO.RESTAURACIÓN DE OBRAS DE ARTE. MANTENIMIENTO, CONSERVACIÓN Y RESTAURACIÓN DE MATERIALES CINEMATOGRÁFICOS. - SERVICIOS DE CONSERVACIÓN Y MANTENIMIENTO DE BIENES INMUEBLES: LIMPIEZA,CONSERVACJÓN Y MANTENIMIENTO  DE EDIFICIOS. CONSERVACIÓN Y MANTENIMIENTO DE CARRETERAS, PISTAS, AUTOPISTAS, AUTOVÍAS, CALZADAS, REDES DE AGUA Y ALCANTARILLADO, ESTACIONES DEPURADORAS, MOBILIARIO URBANO, MONTES Y JARDINES, MONUMENTOS Y EDIFICIOS SINGULARES. - SERVICIOS DE MANTENIMIENTO Y REPARACIÓN DE EQUIPOS E INSTALACIONES: SERVICIOS DE MANTENIMIENTO Y REPARACIÓN DE INSTALACIONES ELÉCTRICAS Y ELECTRÓNICAS, DE FONTANERÍA; CONDUCCIONES DE AGUA Y GAS, DE EQUIPOS E INSTALACIONES DE CALEFACCIÓN Y AIRE ACONDICIONADO, DE EQUIPOS E INSTALACIONES DE ELECTROMEDICINA, DE INSTALACIONES DE SEGURIDAD Y CONTRA INCENDIOS, DE EQUIPOS Y MAQUINARIA DE OFICINA, DE EQUIPOS E INSTALACIONES DE APARATOS ELEVADORES Y TRASLACIÓN HORIZONTAL. - SERVICIOS DE MANTENIMIENTO Y REPARACIÓN DE MAQUINARIA: MANTENIMIENTO Y REPARACIÓN DE MAQUINARIA, DE VEHÍCULOS AUTOMOTORES, INCLUIDOS BUQUES Y AERONAVES. DESMONTAJES DE ARMAMENTO Y DESTRUCCIÓN DE MUNICIÓN. DESGUACES. - SERVICIOS DE TRANSPORTES: TRANSPORTES EN GENERAL, TRASLADO POR CUALQUIER MEDIO DE TRANSPORTE DE ESCOLARES, DE ESTUDIANTES, DE RESIDENTES EN CENTROS DE ASISTENCIA Y AYUDA A DISCAPACITADOS FISICOS Y PSÍQUICOS, TRASLADO DE PERSONAS EN RIESGO DE EXCLUSIÓN SOCIAL Y PERSONAS MAYORES, TRANSPORTE Y TRASLADO DE ENFERMOS. SERVICIOS DE ASISTENCIA Y ACOMPAÑAMIENTO EN TODOS LOS TRANSPORTES ANTERIORMENTE MENCIONADOS, TRANSPORTE Y CUSCODIA DE FONDOS, TRANSPORTE DE OBRAS DE ARTE, RECOGIDA Y TRANSPORTE DE TODA CLASE E RESIDUOS. - SERVICIOS DE GRÚA, REMOLQUE DE BUQUES. SERVICIOS DE MENSAJERÍA, CORRESPONDENCIA Y DISTRIBUCIÓN. - SERVICIOS AÉREOS DE FUMIGACIÓN, CONTROL, VIGILANCIA DE AÉREA Y EXTINCIÓN DE INCENDIOS. - SERVICIOS DE TRATAMIENTOS DE RESIDUOS Y DESECHOS: TRATAMIENTO E INCINERACIÓN DE RESIDUOS Y DESECHOS URBANOS. TRATAMIENTO DE LODOS, DE RESIDUOS RADIACTIVOS Y ÁCIDOS. TRATAMIENTO DE RESIDUOS DE CENTROS SANITARIOS Y CLINICAS VETERINARIAS. TRATAMIENIO DE RESIDUOS OLEOSOS. RECOGIDA, SELECCIÓN, TRATAMIENTO Y RECICLADO DE RESIDUOS URBANOS E INDUSTRIALES, DESCONTAMINACIÓN Y RECUPERACIÓN DE SUELOS CONTAMINADOS Y SERVICIOS MEDIOAMBIENTALES DE CUALQUIER TIPO O NATURALEZA. - SERVICIOS DE CONTENIDO: SERVICIOS DE PUBLICIDAD, RADIO, TELEVISIÓN, AGENCIAS DE NOTICIAS. REALIZACIÓN DE MATERIAL AUDIOVISUAL. SERVICIOS DE TRADUCTORES E INTÉRPRETES. SERVICIOS GENERALES: SERVICIO DE LIMPIEZA EN GENERAL. LAVANDERÍA Y TINTE. ALMACENAJE. AGENCIA DE VIAJES. GUARDERÍAS INFANTILES. RECOGIDA DE CARROS PORTAEQUIPAJES EN ESTACIONES Y AEROPUERTOS. OTROS SERVICIOS NO DETERMINADOS. - SERVICIOS DE TECNOLOGÍAS DE LA INFORMACIÓN: SERVICIOS DE CAPTURA DE INFORMACIÓN POR MEDIOS ELECTRÓNICOS, INFORMÁTICOS Y TELEMÁTICOS. SERVICIOS DE DESARROLLO Y MANTENIMIENTO DE PROGRAMAS DE ORDENADOR. SERVICIOS DE MANTENIMIENTO Y REPARACIÓN DE EQUIPOS E INSTALACIONES INFORMÁ[ICAS Y DE TELECOMUNICACIONES. SERVICIOS DE TELECOMUNICACIONES. SERVICIOS DE EXPLOTACIÓN Y CONTROL DE SISTEMAS INFORMÁTICOS E INFRAESTRUCTURAS TELEMÁTICAS. SERVICIOS DE CERTIFICACIÓN ELECTRÓNICO. SERVICIOS DE EVALUACIÓN Y CERTIFICACIÓN TECNOLÓGICA. OTROS SERVICIOS INFORMÁTICOS Y DE TELECOMUNICACIONES. - EL SUMINISTRO, INSTALACIÓN Y MANTENIMIENTO DE MOBILIARIO URBANO DE TODO TIPO, LO QUE INCLUYE A TÍTULO ENUNCIATIVO, CONTENEDORES SOTERRADAS Y DE SUPERFICIE, JUEGOS Y PARQUES INFANTILES, PAPELERAS, BANCOS, JARDINERAS Y CUALESQUIERA OTROS ELEMENTOS ANÁLOGOS. - ABASTECIMIENTO DE AGUA POTABLE, INCLUYENDO SU TRATAMIENTO, ANÁLISIS, POTABILIZACIÓN Y DISTRIBUCIÓN. TRATAMIENTO Y DEPURACIÓN DE AGUAS RESIDUALES, Y EN GENERAL TODAS LAS ACTIVIDADES RELACIONADAS CON EL DENOMINADO CICLO INTEGRAL DEL AGUA. - PRESTACIÓN DE SERVICIOS ASISTENCIALES; CUIDADO, PROMOCIÓN, ASISTENCIA, REHABILITACIÓN; INSERCIÓN SOCIAL Y TRATAMIENTO DE TODO TIPO A PERSONAS DE TERCERA EDAD O CUALQUIERA OTRA CON ALGUNA CARENCIA, ENFERMEDAD O MINUSVALÍA PSÍQUICA, FÍSICA Y/O ECONÓMICA; REGENTANDO, EXPLOTANDO O GESTIONANDO A TAL EFECTO CENTROS O INMUEBLES PROPIOS O AJENOS, EN VIRTUD DE CONTRATO DE ARRENDAMIENTO DE CUALQUIER CLASE, INCLUÍDO EL FINANCIERO, CESIÓN,\r\nCONCESIÓN, DE CUALQUIER TIPO, TANTO GRATUITA COMO ONEROSA, HACIENDO EXPRESA EXTENSIÓN A LA ASISTENCIA DOMICILIARIA, CONCERTANDO A TAL FIN CUALQUIER TIPO DE CONTRATOS O PACTOS CON INSTITUCIONES PÚBLICAS O PRIVADAS. &#8211; CONSULTORÍA Y ASISTENCIA TÉCNICA RELACIONADA CON LA ACTIVIDAD Y LOS SERVICIOS MEDIOAMBIENTALES Y CUALESQUIERA OTROS SERVICIOS INCLUIDOS EN EL OBJETO SOCIAL; ESTUDIO Y ASISTENCIA EN LA REDACCIÓN DE PROYECTOS, ANTEPROYECTOS, MODIFICACIÓN DE UNOS Y OTROS, DIRECCIÓN, SUPERVISIÓN Y CONTROL DE LA EJECUCIÓN Y MANTENIMIENTO DE OBRAS E INSTALACIONES Y DE LA IMPLEMENTACIÓN DE SISTEMAS ORGANIZATIVOS, ASESORAMIENTO Y REDACCIÓN DE INFORMES EN MATERIA MEDIOAMBIENTAL Y/O RELACIONADO CON LA PRESTACIÓN DE LOS SERVICIOS QUE CONSTITUYEN EL OBJETO SOCIAL. ASISTENCIA A LA DIRECCIÓN AMBIENTAL EN OBRAS DE CONSTRUCCIÓN, REMODELACIÓN Y ACTUACIONES DE MEJORA EN TODO TIPO DE OBRAS E INFRAESTRUCTURAS. - CONSTRUCCIÓN Y REFORMA DE TODA CLASE DE OBRAS E INSTALACIONES. MOVIMIENTOS DE TIERRA Y PERFORACIONES: DESMONTES Y VACIADOS; EXPLANACIONES; CANTERAS. EDIFICACIONES; DEMOLICIONES; ESTRUCTURAS DE FÁBRICA U HORMIGÓN; ESTRUCTURAS METÁLICAS; ALBAÑILERÍA, REVOCOS Y REVESTIDOS; CANTERÍA Y MARMOLERÍA; PAVIMENTOS, SOLADOS Y ALICATADOS; AISLAMIENTOS E IMPERMEABILIZACIONES; CARPINTERÍA DE MADERA Y CARPINTERÍA METÁLICA. OBRAS HIDRÁULICAS, ABASTECIMIENTOS Y SANEAMIENTOS. INSTALACIONES ELÉCTRICAS: ALUMBRADOS, IILUMINACIONES Y BALIZADOS LUMINOSOS; DISTRIBUCIÓN DE BAJA TENSIÓN; TELECOMUNICACIONES E INSTALACIONES RADIOELÉCTRICAS; INSTALACIONES ELECTRÓNICAS; INSTALACIONES ELECTRÓNICAS SIN CUALIFICACIÓN ESPECÍFICA. INSTALACIONES MECÁNICAS: ELEVADORAS O TRANSPORTADORAS; DE VENTILACIÓN, CALEFACCIÓN Y CLIMATIZACIÓN, FRIGORÍFICAS; DE FONTANERÍA Y SANITARIOS; INSTALACIONES MECÁNICAS SIN CUALIFICACIÓN ESPECÍFICA, INSTALACIONES ESPECIALES: ORNAMENTACIONES Y DECORACIONES; JARDINERÍA Y PLANTACIONES; INSTALACIONES CONTRA INCENDIOS. - LA REALIZACIÓN DE SERVICIOS DE EDUCACIÓN Y DE FORMACIÓN PROFESIONAL, SERVICIOS ESCOLARES DIVERSOS, PROMOCIÓN, GESTIÓN Y ADMINISTRACIÓN DE SERVICIOS DE ESPARCIMIENTO, CULTURALES Y DEPORTIVOS Y ASIMISMO GESTIÓN Y DESARROLLO DE SERVICIOS DE COLOCACIÓN Y SUMINISTRO DE PERSONAL\r\n",
      "mainEntityOfPage": "https://www.contratacion.euskadi.eus/webkpe00-kperoc/es/ac71aBusquedaRegistrosWar/empresa/06069",
      "_links": {
        "self": {
          "name": "ARALIA SERVICIOS SOCIOSANIATRIOS, S.A.",
          "href": "https://api.euskadi.eus/procurements/companies/06069"
        }
      }
    },
    {
      "name": "RAMON MENDIETA ECHEANDIA",
      "registrationNumber": "09797",
      "identificationNumber": "45623631A",
      "address": "Abaroa n3 6 Izquierda",
      "location": {
        "postalCode": "48970",
        "municipality": "Basauri",
        "county": "Bizkaia",
        "municipalityId": "015",
        "countyId": "48"
      },
      "economicActivities": [
        {
          "id": "2.899",
          "name": "Otros profesionales",
          "_links": {
            "self": {
              "name": "Otros profesionales",
              "href": "https://api.euskadi.eus/procurements/companies/economic-activities/2.899"
            }
          }
        }
      ],
      "certificateStartDate": "2025-09-15",
      "certificateEndDate": "2026-02-20",
      "object": "OTROS PROFESIONALES.",
      "mainEntityOfPage": "https://www.contratacion.euskadi.eus/webkpe00-kperoc/es/ac71aBusquedaRegistrosWar/empresa/09797",
      "_links": {
        "self": {
          "name": "RAMON MENDIETA ECHEANDIA",
          "href": "https://api.euskadi.eus/procurements/companies/09797"
        }
      }
    }
  ]
}