{
  "totalItems": 9042,
  "totalPages": 905,
  "currentPage": 645,
  "itemsOfPage": 10,
  "items": [
    {
      "name": "AUTOCARES ORIVE, S.L.",
      "registrationNumber": "04460",
      "identificationNumber": "B01269653",
      "address": "C/ARQUITECTO JESÚS GUINEA, Nº 14",
      "location": {
        "postalCode": "01426",
        "municipality": "Valdegovía/Gaubea",
        "county": "Araba/Álava",
        "municipalityId": "055",
        "countyId": "01"
      },
      "economicActivities": [
        {
          "id": "1.721.2",
          "name": "Transporte por autotaxis",
          "_links": {
            "self": {
              "name": "Transporte por autotaxis",
              "href": "https://api.euskadi.eus/procurements/companies/economic-activities/1.721.2"
            }
          }
        },
        {
          "id": "1.721.3",
          "name": "Transporte de viajeros por carretera",
          "_links": {
            "self": {
              "name": "Transporte de viajeros por carretera",
              "href": "https://api.euskadi.eus/procurements/companies/economic-activities/1.721.3"
            }
          }
        }
      ],
      "certificateStartDate": "2016-11-23",
      "certificateEndDate": "2017-05-23",
      "object": "EL TRANSPORTE DE VIAJEROS POR CARRETERA",
      "mainEntityOfPage": "https://www.contratacion.euskadi.eus/webkpe00-kperoc/es/ac71aBusquedaRegistrosWar/empresa/04460",
      "_links": {
        "self": {
          "name": "AUTOCARES ORIVE, S.L.",
          "href": "https://api.euskadi.eus/procurements/companies/04460"
        }
      }
    },
    {
      "name": "FIDEL LÓPEZ DE LAPUENTE",
      "registrationNumber": "02597",
      "identificationNumber": "16231937D",
      "address": "C/ FRANCISCO JAVIER DE LANDABURU, 20 - 4 IZDA.",
      "location": {
        "postalCode": "01010",
        "municipality": "Vitoria-Gasteiz",
        "county": "Araba/Álava",
        "municipalityId": "059",
        "countyId": "01"
      },
      "economicActivities": [
        {
          "id": "1.911",
          "name": "Servicios agrícolas y ganaderos",
          "_links": {
            "self": {
              "name": "Servicios agrícolas y ganaderos",
              "href": "https://api.euskadi.eus/procurements/companies/economic-activities/1.911"
            }
          }
        }
      ],
      "certificateStartDate": "2016-11-16",
      "certificateEndDate": "2017-05-08",
      "object": "SERVICIOS DE CONSERVACIÓN DE JARDINES Y PARQUES PÚBLICOS",
      "mainEntityOfPage": "https://www.contratacion.euskadi.eus/webkpe00-kperoc/es/ac71aBusquedaRegistrosWar/empresa/02597",
      "_links": {
        "self": {
          "name": "FIDEL LÓPEZ DE LAPUENTE",
          "href": "https://api.euskadi.eus/procurements/companies/02597"
        }
      }
    },
    {
      "name": "UNISYS, S.L.",
      "registrationNumber": "02475",
      "identificationNumber": "B82538273",
      "address": "C/ Ramírez de Arellano, 29. Edificio Merrimack II",
      "location": {
        "postalCode": "28043",
        "municipality": "Madrid",
        "county": "Madrid",
        "municipalityId": "079",
        "countyId": "28"
      },
      "economicActivities": [
        {
          "id": "1.615.4",
          "name": "Venta al por mayor de aparatos y material radioeléctrico y electrónico",
          "_links": {
            "self": {
              "name": "Venta al por mayor de aparatos y material radioeléctrico y electrónico",
              "href": "https://api.euskadi.eus/procurements/companies/economic-activities/1.615.4"
            }
          }
        },
        {
          "id": "1.843.9",
          "name": "Otros servicios técnicos n.c.o.p",
          "_links": {
            "self": {
              "name": "Otros servicios técnicos n.c.o.p",
              "href": "https://api.euskadi.eus/procurements/companies/economic-activities/1.843.9"
            }
          }
        },
        {
          "id": "1.845",
          "name": "Explotación electrónica por cuenta de terceros",
          "_links": {
            "self": {
              "name": "Explotación electrónica por cuenta de terceros",
              "href": "https://api.euskadi.eus/procurements/companies/economic-activities/1.845"
            }
          }
        },
        {
          "id": "1.849.6",
          "name": "Servicios de colocación y suministro de personal",
          "_links": {
            "self": {
              "name": "Servicios de colocación y suministro de personal",
              "href": "https://api.euskadi.eus/procurements/companies/economic-activities/1.849.6"
            }
          }
        }
      ],
      "certificateStartDate": "2016-11-10",
      "certificateEndDate": "2017-04-03",
      "object": "UNO. LA PRESTACIÓN DE SERVICIOS PROFESIONALES EN EL ÁMBITO DE LA CONSULTORÍA CON LA DELIMITACIÓN Y ALCANCE QUE SE DETALLAN A CONTINUACIÓN:  OPERACIONES: GESTIÓN LOGÍSTICA. CADENA DE SUMINISTRO, APROVISIONAMIENTO ESTRATÉGICO, SISTEMAS AVANZADOS DE PLANIFICACIÓN. MERCADOS DIGITALES, RESIDEÑO DE OPERACIONES, MEJORA CONTÍNUA, ENTRE OTROS. ESTRATEGIA: ESTRATEGIA DE NEGOCIO. ESTRATEGIA EN INTERNET. COMPETITIVIDAD, IMPACTO ECONÓMICO, ORGANIZACIÓN, OPOERTUNIDADES DE NEGOCIO, GESTIÓN DEL CAMBIO, ESTRATEGIA COMERCIAL, ESTUDIOS DE MERCADO, ENTRE OTROS. FINANZAS/ADMINISTRACIÓN: MEJORA DEPROCESOS FINANCIEROS Y DE CONTROL DE GESTIÓN. CUADRO DE MANDOS INTEGRAL. GESTIÓN ESTRATÉGICA DE COSTES Y RENTABILIDAD, MEJORA DEL PROCESO DE CIERRE Y CENTRO DE SERVICIOS COMPARTIDOS, ENTRE OTROS. RECURSOS HUMANOS: SELECCIÓN DE PERSONAL, FORMACIÓN PRESENCIAL Y ON-LINE, PLANIFICACIÓN Y ESTRATEGIA DE RECURSOS HUMANOS, GESTIÓN POR COMPETENCIAS, MOTIVACIÓN Y DESEMPEÑO, COMPENSACIÓN  Y RETRIBUCIONES, CULTURA Y CLIMA LABORAL ENTRE OTRAS. GESTIÓN DEL CONOCIMIENTO. VENTAS, MARKETING, SERVICIO ALCLIENTE, AUTOMATIZACIÓN DE LA FUERZA DE VENTAS, ETC. GESTIÓN DE PROYECTOS. MEDIO AMBIENTE. TELECOMUNICACIONES. TECNOLOGÍAS DE LA INFORMACIÓN. DOS. LA PRESTACIÓN DE LOS SERVICIOS ENUMERADOS EN EL APARTADO ANTERIOR CON CARÁCTER AUTÓNOMO E INDEPENDIENTE DE LA ACTIVIDAD DE ASESORAMIENTO PROPIA DE LA CONSULTORÍA Y ESPECÍFICAMENTE, LA PRESTACIÓN DE SERVICIOS PROFESIONALEES EN LOS SECTORES DE LA INFORMÁTICA, LAS TECNOLOGÍAS DE LA INFORMACIÓN Y LAS TELECOMUNICACIONES TALES COMO, CON CARÁCTER NO LIMITATIVO NI EXCLUYENTE LAS QUE SE ENUMERAN A CONTINUACIÓN: EL DISÑO, LA CREACIÓN, EXPLOTACIÓN, COMERCIALIZACIÓN, DISTRIBUCIÓN, DESARROLLO, ANÁLISIS, PROGRAMACIÓN, INSTALACIÓN, MANTENIMIENTO Y OPERACIÓN DE PRDUCTOS, SOLUCIONES, APLICACIONES Y SISTEMAS INFORMÁTICOS. DISEÑO, CONFIGURACIÓN, ADMINISTRACIÓN, INSTALACIÓN, INTEGRACIÓN Y MANTENIMIENTO DE SISTEMAS OPERATIVOS Y DE GESTIÓN DE BASES DE DATOS. PRESTACIÓN DE SOPORTE INFORMÁTICO AVANZADO PARA SOLUCIONES INFORMÁTICAS COMPLETAS, ASÍ COMO LA REALIZACIÓN, EJECUCIÓN DE PROYECTOS DE SISTEMAS DE INFORMACIÓN, TECNOLOGÍA DE LA INFORMACIÓNO Y DE AUTOMATIZACIÓN. CREACIÓN, DISEÑO Y DESARROLLO DE PORTALES Y PÁGINAS WEB. SERVICIOS DE EXPLOTACIÓN Y CONTROL DE SISTEMAS INFORMÁTICOS E INFRAESTRUCTURAS TELEMÁTICAS. SERVICIOS DE EVALUACIÓN Y CERTIFICACIÓN TECNOLÓGICA. SERVICIOS DE CAPTURA DE INFORMACIÓN POR MEDIOS ELECTRÓNICOS, INFORMÁTICOS Y TELEMÁTICOS. LA PRESTACIÓN DE SOPORTE INFORMÁTICO AVANZADO PARA SOLUCIONES INFORMÁTICAS COMPLETAS, ASÍ COMO LA EJECUCIÓN DE PROYECTOS DE SISTEMAS DE INFORMACIÓN, TECNOLOGÍA DE LA INFORMACIÓN Y DE AUTOMATIZACIÓN. CUALESQUIERA OTROS SERVICIOS EN LOS SECTORES DE LA INFORMÁTICA, LAS TECNOLOGÍAS DE LA INFORMACIÓN Y LAS TELECOMUNICACIONES YA EXISTENTES EN LA ACTUALIDAD O DE NUEVA CREACIÓN, NO ESPECIFICAMENTE RECOGIDOS EN LOS ANTERIORES APARTADOS. TRES. LA COMPRAVENTA, CESIÓN Y ARRENDAMIENTO NO FINANCIERO DE PROGRAMAS INFORMÁTICOS Y EQUIPOS PARA EL TRATAMIENTO DE LA INFORMACIÓN, LA VENTA DE LICENCIAS RELACIONADAS CON LAS ACTIVIDADES ANTERIORES, LA VENTA DE \"HARDWARE\" DE TERCEROS, ASÍ COMO LA GESTIÓN EXTERNA PARA OTRAS ACTIVIDADES DE PROCESOS, APLICACIONES Y EQUIPOS",
      "mainEntityOfPage": "https://www.contratacion.euskadi.eus/webkpe00-kperoc/es/ac71aBusquedaRegistrosWar/empresa/02475",
      "_links": {
        "self": {
          "name": "UNISYS, S.L.",
          "href": "https://api.euskadi.eus/procurements/companies/02475"
        }
      }
    },
    {
      "name": "MENKEEPER SEGURIDAD, SL",
      "registrationNumber": "05488",
      "identificationNumber": "B72028152",
      "address": "PARQUE EMPRESARIAL DE PONIENTE-C/ELSOVAQUIA, S/N-EDIF. DE SE",
      "location": {
        "postalCode": "11011",
        "municipality": "Cádiz",
        "county": "Cádiz",
        "municipalityId": "012",
        "countyId": "11"
      },
      "economicActivities": [
        {
          "id": "1.849.4",
          "name": "Servicios de custodia, seguridad y protección",
          "_links": {
            "self": {
              "name": "Servicios de custodia, seguridad y protección",
              "href": "https://api.euskadi.eus/procurements/companies/economic-activities/1.849.4"
            }
          }
        }
      ],
      "certificateStartDate": "2016-11-10",
      "certificateEndDate": "2017-04-18",
      "object": "LA VIGILANCIA Y PROTECCIÓN DE BIENES, ESTABLECIMIENTOS, ESPECTÁCULOS, CERTÁMENES O CONVENCIONES. LA INSTALACIÓN Y MANTENIMIENTO DE APARATOS, DISPOSITIVOS Y SISTEMAS DE SEGURIDAD. LA PLANIFICACIÓN Y ASESORAMIENTO DE LAS ACTIVIDADES CONTEMPLADAS EN LA LEY 23/1992 DE SEGURIDAD PRIVADA.  LA PROTECCIÓN DE PERSONAS DETERMINADAS, PREVIA AUTORIZACIÓN CORRESPONDIENTE. EL DEPÓSITO, CUSTODIA, RECUENTO Y CLASIFICACIÓN DE MONEDAS Y BILLETES, TÍTULOS-VALORES Y DEMÁS OBJETOS QUE, POR SU VALOR ECONÓMICO Y EXPECTATIVAS QUE GENEREN, O POR SU PELIGROSIDAD, PUEDAN REQUERIR PROTECCIÓN ESPECIAL, SIN PERJUICIO DE LAS ACTIVIDADES PROPIAS DE LAS ENTIDADES FINANCIERAS. EL TRANSPORTE Y DISTRIBUCIÓN DE LOS OBJETOS A QUE SE REFIERE EL APARTADO ANTERIOR A TRAVÉS DE LOS DISTINTOS MEDIOS, REALIZÁNDOLOS, EN SU CASO, MEDIANTE VEHÍCULOS CUYAS CARACTERÍSTICAS SERÁN DETERMINADAS POR EL MINISTERIO DEL INTERIOR, DE FORMA QUE NO PUEDAN CONFUNDIRSE CON LOS DE LAS FUERZAS ARMADAS NI CON LOS DE LAS FUERZAS Y CUERPOS DE SEGURIDAD. LA EXPLOTACIÓN DE CENTRALES PARA LA RECEPCIÓN, VERIFICACIÓN Y TRANSMISIÓN DE LAS SEÑALES DE ALARMAS Y SU COMUNICACIÓN A LAS FUERZAS Y CUERPOS DE SEGURIDAD, ASÍ COMO PRESTACIÓN DE SERVICIOS DE RESPUESTA CUYA REALIZACIÓN NO SEA DE LA COMPETENCIA DE DICHAS FUERZAS Y CUERPOS",
      "mainEntityOfPage": "https://www.contratacion.euskadi.eus/webkpe00-kperoc/es/ac71aBusquedaRegistrosWar/empresa/05488",
      "_links": {
        "self": {
          "name": "MENKEEPER SEGURIDAD, SL",
          "href": "https://api.euskadi.eus/procurements/companies/05488"
        }
      }
    },
    {
      "name": "ELEKTRO ILUNBE, S.A.",
      "registrationNumber": "03848",
      "identificationNumber": "A48274609",
      "address": "IGORREKO INDUSTRIALDEA, PAB. E4",
      "location": {
        "postalCode": "48140",
        "municipality": "Igorre",
        "county": "Bizkaia",
        "municipalityId": "094",
        "countyId": "48"
      },
      "economicActivities": [
        {
          "id": "1.504.1",
          "name": "Instalaciones eléctricas en general",
          "_links": {
            "self": {
              "name": "Instalaciones eléctricas en general",
              "href": "https://api.euskadi.eus/procurements/companies/economic-activities/1.504.1"
            }
          }
        }
      ],
      "certificateStartDate": "2016-11-08",
      "certificateEndDate": "2017-04-26",
      "object": "A. LA VENTA AL MAYOR Y MENOR, COMO ALMACENISTA, DETALLISTA O EXCLUSIVISTA DE TODA CLASE DE ELECTRODOMÉSTICOS, MENAJE DE COCINA, ARTÍCULO DE REGALO Y SIMILARES; MOBILIARIO DE COCINA, BAÑO Y MUEBLES EN GENERAL; MATERIAL, MÁQUINAS Y APARATOS ELÉCTRICOS Y ELECTRÓNICOS, DE ÓPTICA Y FOTOGRÁFICO, EN ESPECIAL TOMAVISTAS, PROYECTORES Y TODA CLASE DE CASETTES Y PELÍCULAS DE VIDEO, ASÍ COMO EL ALQUILER O CAMBIO DE ÉSTAS ÚLTIMAS PARA USO DOMÉSTICOS, INDUSTRIALES Y ADMINISTRATIVOS; LA REALIZACIÓN DE TODO TIPO DE INSTALACIONES ELÉCTFICAS, ALARMAS, ANTENAS Y DE PORTEROS AUTOMÁTICOS; ASISTENCIA  DE MANTENIMIENTO Y REPARACIÓN DE TODO LO EXPRESADO; B. DISTRIBUCIÓN Y COMERCIALIZACIÓN (POR MEDIOS PROPIOS O AJENOS) DE TODO LO QUE HA SIDO EXPRESADO EN EL APARTADO A) PRECEDENTE; Y, DE UNA MANERA GENERAL, DE TODA CLASE DE REPRESENTACIONES Y ACTIVIDADES DE MEDIACIÓN, TANTO PARA LA INDUSTRIA COMO PARA EL COMERCIO, Y DE TODO TIPO DE SERVICIOS, INCLUÍDA LA IMPORTACIÓN Y EXPORTACIÓN DE TODO LO EXPRESADO, ASÍ COMO CUALESQUIERA OTROS ACTOS DE LÍCITO COMERCIO QUE SE RELACIONEN DIRECTA O INDIRECTAMENTE CON EL OBJETO SOCIAL RESEÑADO",
      "mainEntityOfPage": "https://www.contratacion.euskadi.eus/webkpe00-kperoc/es/ac71aBusquedaRegistrosWar/empresa/03848",
      "_links": {
        "self": {
          "name": "ELEKTRO ILUNBE, S.A.",
          "href": "https://api.euskadi.eus/procurements/companies/03848"
        }
      }
    },
    {
      "name": "ARQUITÉCNICA, ARQUITECTOS Y TÉCNICOS, S.L.",
      "registrationNumber": "04392",
      "identificationNumber": "B80390990",
      "address": "ALCÁNTARA Nº 23 - 1º DCHA",
      "location": {
        "postalCode": "28006",
        "municipality": "Madrid",
        "county": "Madrid",
        "municipalityId": "079",
        "countyId": "28"
      },
      "economicActivities": [
        {
          "id": "1.843.2",
          "name": "Servicios técnicos de arquitectura y urbanismo",
          "_links": {
            "self": {
              "name": "Servicios técnicos de arquitectura y urbanismo",
              "href": "https://api.euskadi.eus/procurements/companies/economic-activities/1.843.2"
            }
          }
        }
      ],
      "certificateStartDate": "2016-11-05",
      "certificateEndDate": "2017-05-05",
      "object": "LA PRESTACIÓN DE LOS SERVICIOS PROPIOS DE LAS PROFESIONES DE ARQUITECTO Y ARQUITECTO TÉCNICO",
      "mainEntityOfPage": "https://www.contratacion.euskadi.eus/webkpe00-kperoc/es/ac71aBusquedaRegistrosWar/empresa/04392",
      "_links": {
        "self": {
          "name": "ARQUITÉCNICA, ARQUITECTOS Y TÉCNICOS, S.L.",
          "href": "https://api.euskadi.eus/procurements/companies/04392"
        }
      }
    },
    {
      "name": "CUBICAL DENIRA, S.L.",
      "registrationNumber": "02874",
      "identificationNumber": "B01217140",
      "address": "C/SAN BLAS, 7, POL. IND. GOJAIN",
      "location": {
        "postalCode": "01170",
        "municipality": "Legutio",
        "county": "Araba/Álava",
        "municipalityId": "058",
        "countyId": "01"
      },
      "economicActivities": [
        {
          "id": "1.151.4",
          "name": "Producción de energía no especificada en otros epígrafes",
          "_links": {
            "self": {
              "name": "Producción de energía no especificada en otros epígrafes",
              "href": "https://api.euskadi.eus/procurements/companies/economic-activities/1.151.4"
            }
          }
        },
        {
          "id": "1.315.1",
          "name": "Construcción de grandes calderas",
          "_links": {
            "self": {
              "name": "Construcción de grandes calderas",
              "href": "https://api.euskadi.eus/procurements/companies/economic-activities/1.315.1"
            }
          }
        }
      ],
      "certificateStartDate": "2016-11-03",
      "certificateEndDate": "2017-04-24",
      "object": "LA REALIZACIÓN DE TRABAJOS DE CALDERERÍA METÁLICA Y SOLDADURAS ESPECIALES, LA COMPRAVENTA DE  BIENES INMUEBLES PARA SU POSTERIOR ARRENDAMIENTO O VENTA, ASÍ COMO LA PRESTACIÓN DE SERVICIOS ADMINISTRATIVOS ",
      "mainEntityOfPage": "https://www.contratacion.euskadi.eus/webkpe00-kperoc/es/ac71aBusquedaRegistrosWar/empresa/02874",
      "_links": {
        "self": {
          "name": "CUBICAL DENIRA, S.L.",
          "href": "https://api.euskadi.eus/procurements/companies/02874"
        }
      }
    },
    {
      "name": "INGEBOST S.L.",
      "registrationNumber": "05547",
      "identificationNumber": "B95606422",
      "address": "POLIGONO IBARZAHARRA 9-PABELLON 4",
      "location": {
        "postalCode": "48510",
        "municipality": "Valle de Trápaga-Trapagaran",
        "county": "Bizkaia",
        "municipalityId": "080",
        "countyId": "48"
      },
      "economicActivities": [
        {
          "id": "1.342",
          "name": "Fabricación de material eléctrico de utilización y equipamiento",
          "_links": {
            "self": {
              "name": "Fabricación de material eléctrico de utilización y equipamiento",
              "href": "https://api.euskadi.eus/procurements/companies/economic-activities/1.342"
            }
          }
        }
      ],
      "certificateStartDate": "2016-11-02",
      "certificateEndDate": "2017-04-03",
      "object": "LA FABRICACIÓN E INSTALACIÓN DE MATERIAL ELÉCTRICO, UTILIZACIÓN Y EQUIPAMIENTO Y LA FABRICACIÓN E INSTALACIÓN DE MÁQUINAS Y APARATOS PARA LA PRODUCCIÓN Y TRANSFORMACIÓN DE LA ENERGÍA ELÉCTRICA",
      "mainEntityOfPage": "https://www.contratacion.euskadi.eus/webkpe00-kperoc/es/ac71aBusquedaRegistrosWar/empresa/05547",
      "_links": {
        "self": {
          "name": "INGEBOST S.L.",
          "href": "https://api.euskadi.eus/procurements/companies/05547"
        }
      }
    },
    {
      "name": "IBIKI S. COOP.",
      "registrationNumber": "05548",
      "identificationNumber": "F75035881",
      "address": "Mantzin Enea nº 9, 2º",
      "location": {
        "postalCode": "20280",
        "municipality": "Hondarribia",
        "county": "Gipuzkoa",
        "municipalityId": "036",
        "countyId": "20"
      },
      "economicActivities": [
        {
          "id": "1.504.1",
          "name": "Instalaciones eléctricas en general",
          "_links": {
            "self": {
              "name": "Instalaciones eléctricas en general",
              "href": "https://api.euskadi.eus/procurements/companies/economic-activities/1.504.1"
            }
          }
        },
        {
          "id": "1.847",
          "name": "Servicios de consultoría",
          "_links": {
            "self": {
              "name": "Servicios de consultoría",
              "href": "https://api.euskadi.eus/procurements/companies/economic-activities/1.847"
            }
          }
        }
      ],
      "certificateStartDate": "2016-11-02",
      "certificateEndDate": "2017-04-05",
      "object": "EL ASESORAMIENTO A EMPRESAS Y PARTICULARES RELACIONADOS CON OBRAS DE CONSTRUCCIÓN Y PROYECTOS DE TELECOMUNICACIONES. LA REALIZACIÓN DE ESTUDIOS DE MERCADO Y PRECIOS EN PROYECTOS DE EDIFICACIONES. LA REALIZACIÓN DE PROYECTOS DE ACONDICIONAMIENTO Y DISEÑO DE INTERIORES Y EXTERIORES DE EDIFICIOS, DE PLANES DE GESTIÓN MEDIOAMBIENTAL Y DE ESTUDIOS DE INNOVACIÓN EN EMPRESAS RELACIONADAS CON LA CONSTRUCCIÓN DE REDES DE TELECOMUNICACIÓN Y CONSTRUCTORAS",
      "mainEntityOfPage": "https://www.contratacion.euskadi.eus/webkpe00-kperoc/es/ac71aBusquedaRegistrosWar/empresa/05548",
      "_links": {
        "self": {
          "name": "IBIKI S. COOP.",
          "href": "https://api.euskadi.eus/procurements/companies/05548"
        }
      }
    },
    {
      "name": "OXIMESA, S.L.",
      "registrationNumber": "02151",
      "identificationNumber": "B18014134",
      "address": "C/ ORENSE, Nº 11 - 5ª PLANTA.",
      "location": {
        "postalCode": "28020",
        "municipality": "Madrid",
        "county": "Madrid",
        "municipalityId": "079",
        "countyId": "28"
      },
      "economicActivities": [
        {
          "id": "1.616.6",
          "name": "Venta al por mayor de productos químicos industriales",
          "_links": {
            "self": {
              "name": "Venta al por mayor de productos químicos industriales",
              "href": "https://api.euskadi.eus/procurements/companies/economic-activities/1.616.6"
            }
          }
        },
        {
          "id": "1.942.9",
          "name": "Otros servicios sanitarios sin internados, no clasificados",
          "_links": {
            "self": {
              "name": "Otros servicios sanitarios sin internados, no clasificados",
              "href": "https://api.euskadi.eus/procurements/companies/economic-activities/1.942.9"
            }
          }
        }
      ],
      "certificateStartDate": "2016-10-28",
      "certificateEndDate": "2017-04-03",
      "object": "LA FABRICACIÓN, DISTRIBUCIÓN Y VENTA DE GASES MEDICINALES Y DE EQUIPOS E INSTALACIONES PARA LAS TERAPIAS RESPIRATORIAS EN GENERAL Y OTRAS TÉCNICAS DE VENTILACIÓN ASISTIDA, TANTO EN DOMICILIOS DE PACIENTES, COMO EN CENTROS SANITARIOS, ASÍ COMO LA PRESTACIÓN DE LOS SERVICIOS REFERIDOS A DICHAS TERAPIAS. ASIMISMO, LA PRESTACIÓN DE SERVICIOS DE TELEASISTENCIA DOMICILIARIA Y DE DISTRIBUCIÓN, EL SUMINISTRO DE EQUIPAMIENTO Y MATERIAL MÉDICO, ORTOPROTÉSICO Y SANITARIO A DOMICILIO Y A CENTROS SANITARIOS Y LA PRESTACIÓN DE TERAPIAS DE REHABILITACIÓN Y OTROS TRATAMIENTOS MEDICINALES",
      "mainEntityOfPage": "https://www.contratacion.euskadi.eus/webkpe00-kperoc/es/ac71aBusquedaRegistrosWar/empresa/02151",
      "_links": {
        "self": {
          "name": "OXIMESA, S.L.",
          "href": "https://api.euskadi.eus/procurements/companies/02151"
        }
      }
    }
  ]
}