{
  "totalItems": 9042,
  "totalPages": 905,
  "currentPage": 75,
  "itemsOfPage": 10,
  "items": [
    {
      "name": "RAUL GARCIA EZQUERRO",
      "registrationNumber": "09485",
      "identificationNumber": "16623433E",
      "address": "CALLE SANTAENGRACIA Nº5 ",
      "location": {
        "postalCode": "01300",
        "municipality": "Laguardia",
        "county": "Araba/Álava",
        "municipalityId": "031",
        "countyId": "01"
      },
      "economicActivities": [
        {
          "id": "1.966.9",
          "name": "Otros servicios culturales n.c.o.p",
          "_links": {
            "self": {
              "name": "Otros servicios culturales n.c.o.p",
              "href": "https://api.euskadi.eus/procurements/companies/economic-activities/1.966.9"
            }
          }
        }
      ],
      "certificateStartDate": "2026-01-18",
      "certificateEndDate": "2026-07-18",
      "object": "OTROS SERVICIOS CULTURALES N.C.O.P.",
      "mainEntityOfPage": "https://www.contratacion.euskadi.eus/webkpe00-kperoc/es/ac71aBusquedaRegistrosWar/empresa/09485",
      "_links": {
        "self": {
          "name": "RAUL GARCIA EZQUERRO",
          "href": "https://api.euskadi.eus/procurements/companies/09485"
        }
      }
    },
    {
      "name": "UNAMUNZAGA OBRAS, S.L.",
      "registrationNumber": "09220",
      "identificationNumber": "B95887360",
      "address": "CALLE HURTADO DE AMEZAGA 27 - PLANTA 12 DPTO 1",
      "location": {
        "postalCode": "48008",
        "municipality": "Bilbao",
        "county": "Bizkaia",
        "municipalityId": "020",
        "countyId": "48"
      },
      "economicActivities": [
        {
          "id": "1.243.5",
          "name": "Fabricación de artículos derivados del yeso y escayola",
          "_links": {
            "self": {
              "name": "Fabricación de artículos derivados del yeso y escayola",
              "href": "https://api.euskadi.eus/procurements/companies/economic-activities/1.243.5"
            }
          }
        },
        {
          "id": "1.501.1",
          "name": "Construcción completa, reparación y conservación de edificaciones",
          "_links": {
            "self": {
              "name": "Construcción completa, reparación y conservación de edificaciones",
              "href": "https://api.euskadi.eus/procurements/companies/economic-activities/1.501.1"
            }
          }
        },
        {
          "id": "1.617.4",
          "name": "Venta al por mayor de materiales de construcción, vidrio y artículos instalación",
          "_links": {
            "self": {
              "name": "Venta al por mayor de materiales de construcción, vidrio y artículos instalación",
              "href": "https://api.euskadi.eus/procurements/companies/economic-activities/1.617.4"
            }
          }
        },
        {
          "id": "1.833.21",
          "name": "Promoción de edificaciones - Cuota fija",
          "_links": {
            "self": {
              "name": "Promoción de edificaciones - Cuota fija",
              "href": "https://api.euskadi.eus/procurements/companies/economic-activities/1.833.21"
            }
          }
        }
      ],
      "certificateStartDate": "2026-01-18",
      "certificateEndDate": "2026-07-18",
      "object": "EL DESARROLLO DE LAS ACTIVIDADES CORRESPONDIENTES A LOS SIGUIENTES CÓDIGOS Y DESCRIPCIONES DE LA CLASIFICACIÓN NACIONAL DE ACTIVIDADES ECONÓMICAS: ACTIVIDAD PRINCIPAL: CONSTRUCCIÓN DE EDIFICIOS RESIDENCIALES - NÚMERO 4121 DE LA CNAE. OTRAS ACTIVIDADES: CONSTRUCCIÓN DE EDIFICIOS NO RESIDENCIALES - NÚMERO 4122 DE LA CNAE; LIMPIEZA GENERAL DE EDIFICIOS - NÚMERO 8121 DE LA CNAE.",
      "mainEntityOfPage": "https://www.contratacion.euskadi.eus/webkpe00-kperoc/es/ac71aBusquedaRegistrosWar/empresa/09220",
      "_links": {
        "self": {
          "name": "UNAMUNZAGA OBRAS, S.L.",
          "href": "https://api.euskadi.eus/procurements/companies/09220"
        }
      }
    },
    {
      "name": "PEÑA TXURI SURF ESKOLA, S.L.",
      "registrationNumber": "08286",
      "identificationNumber": "B95925418",
      "address": "Calle loiola ander deuna 130",
      "location": {
        "postalCode": "48600",
        "municipality": "Sopela",
        "county": "Bizkaia",
        "municipalityId": "085",
        "countyId": "48"
      },
      "economicActivities": [
        {
          "id": "1.855.2",
          "name": "Alquiler de embarcaciones",
          "_links": {
            "self": {
              "name": "Alquiler de embarcaciones",
              "href": "https://api.euskadi.eus/procurements/companies/economic-activities/1.855.2"
            }
          }
        },
        {
          "id": "1.932.1",
          "name": "Enseñanza de formación y perfeccionamiento profesional no superior",
          "_links": {
            "self": {
              "name": "Enseñanza de formación y perfeccionamiento profesional no superior",
              "href": "https://api.euskadi.eus/procurements/companies/economic-activities/1.932.1"
            }
          }
        },
        {
          "id": "1.967.2",
          "name": "Escuelas y servicios de perfeccionamiento del deporte",
          "_links": {
            "self": {
              "name": "Escuelas y servicios de perfeccionamiento del deporte",
              "href": "https://api.euskadi.eus/procurements/companies/economic-activities/1.967.2"
            }
          }
        }
      ],
      "certificateStartDate": "2026-01-18",
      "certificateEndDate": "2026-07-18",
      "object": "ESCUELA Y SERVICIOS PERFECCIONAMIENTO DEL DEPORTE (ESCUELA SURF), QUE CONSTITUYE SU ACTIVIDAD PRINCIPAL.- CNAE 8551.",
      "mainEntityOfPage": "https://www.contratacion.euskadi.eus/webkpe00-kperoc/es/ac71aBusquedaRegistrosWar/empresa/08286",
      "_links": {
        "self": {
          "name": "PEÑA TXURI SURF ESKOLA, S.L.",
          "href": "https://api.euskadi.eus/procurements/companies/08286"
        }
      }
    },
    {
      "name": "TALIO SOLUTIONS, S.L.",
      "registrationNumber": "05726",
      "identificationNumber": "B95883211",
      "address": "Mazarredo Zumarkalea, 69, 8",
      "location": {
        "postalCode": "48009",
        "municipality": "Bilbao",
        "county": "Bizkaia",
        "municipalityId": "020",
        "countyId": "48"
      },
      "economicActivities": [
        {
          "id": "1.653.2",
          "name": "Venta al por menor de material y aparatos eléctricos, electrodomésticos y cocina",
          "_links": {
            "self": {
              "name": "Venta al por menor de material y aparatos eléctricos, electrodomésticos y cocina",
              "href": "https://api.euskadi.eus/procurements/companies/economic-activities/1.653.2"
            }
          }
        },
        {
          "id": "1.845",
          "name": "Explotación electrónica por cuenta de terceros",
          "_links": {
            "self": {
              "name": "Explotación electrónica por cuenta de terceros",
              "href": "https://api.euskadi.eus/procurements/companies/economic-activities/1.845"
            }
          }
        }
      ],
      "certificateStartDate": "2026-01-16",
      "certificateEndDate": "2026-07-06",
      "object": "A.) LA COMPRA, VENTA, ARRENDAMIENTO Y REPRESENTACIÓN, EN CUALQUIERA DE SUS FÓRMULAS COMERCIALES, LA IMPORTACIÓN, EXPORTACIÓN, COMERCIALIZACIÓN, INDUSTRIALIZACIÓN Y DISTRIBUCIÓN DE ORDENADORES Y TODA CLASE DE APARATOS, ELEMENTOS, MAQUINARIA Y SUS COMPONENTES, RELACIONADOS CON LA INFORMÁTICA, LA ELECTRÓNICA Y LAS TELECOMUNICACIONES.\nB.) EL ASESORAMIENTO Y COMERCIALIZACIÓN DE PRODUCTOS Y SERVICIOS, IMPLANTACIÓN Y ADAPTACIÓN DE PROGRAMAS, RELACIONADOS CON LA INFORMÁTICA, LA ELECTRÓNICA Y LAS TELECOMUNICACIONES.\nC.) LA ENSEÑANZA IMPARTIDA, TANTO EN AULAS PROPIAS O ALQUILADAS, COMO EN EL DOMICILIO DEL ALUMNO, O A DISTANCIA, PRESENCIAL, BIEN POR INTERNET O POR OTROS SISTEMAS, EN TODOS LOS GRADOS Y DISCIPLINAS DEL CAMPO DE LA INFORMÁTICA, ELECTRÓNICA Y LAS TELECOMUNICACIONES, ASÍ COMO DE HABILIDADES, EN GENERAL.\nD.) EN GENERAL, LA REALIZACIÓN DE CUALESQUIERA OTROS NEGOCIOS JURÍDICOS RELACIONADOS CON LOS ANTERIORES, Y EN GENERAL, VINCULADOS CON PRODUCTOS, SERVICIOS Y LA REALIZACIÓN E IMPARTICIÓN DE CURSOS DE DIVULGACIÓN Y FORMACIÓN EN INFORMÁTICA, ELECTRÓNICA Y LAS TELECOMUNICACIONES\n",
      "mainEntityOfPage": "https://www.contratacion.euskadi.eus/webkpe00-kperoc/es/ac71aBusquedaRegistrosWar/empresa/05726",
      "_links": {
        "self": {
          "name": "TALIO SOLUTIONS, S.L.",
          "href": "https://api.euskadi.eus/procurements/companies/05726"
        }
      }
    },
    {
      "name": "RUBEN VADILLO OCHOA",
      "registrationNumber": "07942",
      "identificationNumber": "78935042P",
      "address": "Paseo La Magdalena 17. local PB",
      "location": {
        "postalCode": "48800",
        "municipality": "Balmaseda",
        "county": "Bizkaia",
        "municipalityId": "090",
        "countyId": "48"
      },
      "economicActivities": [
        {
          "id": "1.843.2",
          "name": "Servicios técnicos de arquitectura y urbanismo",
          "_links": {
            "self": {
              "name": "Servicios técnicos de arquitectura y urbanismo",
              "href": "https://api.euskadi.eus/procurements/companies/economic-activities/1.843.2"
            }
          }
        }
      ],
      "certificateStartDate": "2026-01-16",
      "certificateEndDate": "2026-06-27",
      "object": "SERVICIOS TÉCNICOS DE ARQUITECTURA Y URBANISMO.",
      "mainEntityOfPage": "https://www.contratacion.euskadi.eus/webkpe00-kperoc/es/ac71aBusquedaRegistrosWar/empresa/07942",
      "_links": {
        "self": {
          "name": "RUBEN VADILLO OCHOA",
          "href": "https://api.euskadi.eus/procurements/companies/07942"
        }
      }
    },
    {
      "name": "BETEAN AUDITORÍA, S.L.P.",
      "registrationNumber": "02340",
      "identificationNumber": "B95097135",
      "address": "Licenciado Poza, 15, 5º IZQ",
      "location": {
        "postalCode": "48011",
        "municipality": "Bilbao",
        "county": "Bizkaia",
        "municipalityId": "020",
        "countyId": "48"
      },
      "economicActivities": [
        {
          "id": "1.842",
          "name": "Servicios financieros y contables",
          "_links": {
            "self": {
              "name": "Servicios financieros y contables",
              "href": "https://api.euskadi.eus/procurements/companies/economic-activities/1.842"
            }
          }
        },
        {
          "id": "1.847",
          "name": "Servicios de consultoría",
          "_links": {
            "self": {
              "name": "Servicios de consultoría",
              "href": "https://api.euskadi.eus/procurements/companies/economic-activities/1.847"
            }
          }
        }
      ],
      "certificateStartDate": "2026-01-16",
      "certificateEndDate": "2026-07-06",
      "object": "LAS ACTIVIDADES PROPIAS DEL EJERCICIO DE LOS AUDITORES Y ECONOMISTAS COLEGIADOS, SEGÚN APARECEN TIPIFICADAS EN SUS ESTATUTOS PROFESIONALES RESPECTIVOS",
      "mainEntityOfPage": "https://www.contratacion.euskadi.eus/webkpe00-kperoc/es/ac71aBusquedaRegistrosWar/empresa/02340",
      "_links": {
        "self": {
          "name": "BETEAN AUDITORÍA, S.L.P.",
          "href": "https://api.euskadi.eus/procurements/companies/02340"
        }
      }
    },
    {
      "name": "IPAR SAREA TELECOMUNICACIONES, S.L.",
      "registrationNumber": "05561",
      "identificationNumber": "B95510269",
      "address": "PAE Ibarrabarri Pabellon 4 C ",
      "location": {
        "postalCode": "48940",
        "municipality": "Leioa",
        "county": "Bizkaia",
        "municipalityId": "054",
        "countyId": "48"
      },
      "economicActivities": [
        {
          "id": "1.845",
          "name": "Explotación electrónica por cuenta de terceros",
          "_links": {
            "self": {
              "name": "Explotación electrónica por cuenta de terceros",
              "href": "https://api.euskadi.eus/procurements/companies/economic-activities/1.845"
            }
          }
        }
      ],
      "certificateStartDate": "2026-01-16",
      "certificateEndDate": "2026-07-06",
      "object": "A) LA COMPRA-VENTA E INSTALACIÓN DE TODA CLASE DE EQUIPOS INFORMÁTICOS, ELECTRÓNICOS Y DE TELECOMUNICACIONES. B) CONSULTORÍA DE SOLUCIONES INFORMÁTICAS, ELECTRÓNICAS Y DE TELECOMUNICACIONES. C) DESARROLLOS DE REDES INFORMÁTICAS, TELEFONÍA FIJA, TELEFONÍA MÓVIL Y ACCESOS A INTERNET. D) Y COMPRA-VENTA Y DESARROLLO DE SOFTWARE, ENTRE OTROS PROYECTOS Y DISEÑO DE PAGINAS WEB",
      "mainEntityOfPage": "https://www.contratacion.euskadi.eus/webkpe00-kperoc/es/ac71aBusquedaRegistrosWar/empresa/05561",
      "_links": {
        "self": {
          "name": "IPAR SAREA TELECOMUNICACIONES, S.L.",
          "href": "https://api.euskadi.eus/procurements/companies/05561"
        }
      }
    },
    {
      "name": "RESA GUIPUZCOANA, S.A.",
      "registrationNumber": "06117",
      "identificationNumber": "A31007214",
      "address": "CARRETERA N-1 KM. 444",
      "location": {
        "postalCode": "20150",
        "municipality": "Villabona",
        "county": "Gipuzkoa",
        "municipalityId": "075",
        "countyId": "20"
      },
      "economicActivities": [
        {
          "id": "1.615.1",
          "name": "Venta al por mayor de vehículos, motocicletas, bicicletas y sus accesorios",
          "_links": {
            "self": {
              "name": "Venta al por mayor de vehículos, motocicletas, bicicletas y sus accesorios",
              "href": "https://api.euskadi.eus/procurements/companies/economic-activities/1.615.1"
            }
          }
        },
        {
          "id": "1.654.1",
          "name": "Venta al por menor de vehículos terrestres",
          "_links": {
            "self": {
              "name": "Venta al por menor de vehículos terrestres",
              "href": "https://api.euskadi.eus/procurements/companies/economic-activities/1.654.1"
            }
          }
        },
        {
          "id": "1.691.2",
          "name": "Reparación de vehículos automóviles, bicicletas y otros vehículos",
          "_links": {
            "self": {
              "name": "Reparación de vehículos automóviles, bicicletas y otros vehículos",
              "href": "https://api.euskadi.eus/procurements/companies/economic-activities/1.691.2"
            }
          }
        },
        {
          "id": "1.854.1",
          "name": "Alquiler de automóviles sin conductor",
          "_links": {
            "self": {
              "name": "Alquiler de automóviles sin conductor",
              "href": "https://api.euskadi.eus/procurements/companies/economic-activities/1.854.1"
            }
          }
        }
      ],
      "certificateStartDate": "2026-01-16",
      "certificateEndDate": "2026-06-30",
      "object": "A) LA COMPRA-VENTA DE VEHÍCULOS INDUSTRIALES DE TODO TIPO, AUTOMÓVILES, CAMIONES, TRACTORES Y, EN GENERAL, CUALQUIER VEHÍCULO A MOTOR. B) LA COMPRA-VENTA DE PIEZAS, ACCESORIOS Y RECAMBIOS PARA DICHOS VEHÍCULOS. C) LA COMPRA-VENTA DE MAQUINARIA INDUSTRIAL AGRÍCOLA, O DE CUALQUIER OTRO USO. D) LA EXPLOTACIÓN DE CONCESIONES PARA VENTAS, EN EXCLUSIVA O EN CONCURRENCIA DE CAMIONES, TRACTORES, MAQUINARIA Y VEHÍCULOS DE TODA ESPECIE, DE MARCAS DETERMINADAS, TANTO NACIONALES COMO EXTRANJERAS. E) LA EXPLOTACIÓN DE TALLER DE REPARACIONES Y DE CUALQUIER NEGOCIO O ACTIVIDAD INDUSTRIAL O COMERCIAL, RELACIONADO CON VEHÍCULOS A MOTOR. F) LA REALIZACIÓN DE OPERACIONES DE COMERCIO EXTERIOR TANTO EN IMPORTACIONES COMO EN EXPORTACIONES DE VEHÍCULOS, MAQUINARIA, TRACTORES, PIEZAS, RECAMBIOS Y ACCESORIOS. G) Y CUALQUIER OTRA ACTIVIDAD DE LÍCITO COMERCIO, TANTO COMERCIAL COMO INDUSTRIAL, PREVIO ACUERDO DE LA JUNTA GENERAL DE ACCIONISTAS",
      "mainEntityOfPage": "https://www.contratacion.euskadi.eus/webkpe00-kperoc/es/ac71aBusquedaRegistrosWar/empresa/06117",
      "_links": {
        "self": {
          "name": "RESA GUIPUZCOANA, S.A.",
          "href": "https://api.euskadi.eus/procurements/companies/06117"
        }
      }
    },
    {
      "name": "TYM ASOCIADOS TALLER DE ARQUITECTURA, S.L.",
      "registrationNumber": "06769",
      "identificationNumber": "B31624406",
      "address": "Estafeta 79 1º",
      "location": {
        "postalCode": "31001",
        "municipality": "Pamplona/Iruña",
        "county": "Navarra",
        "municipalityId": "201",
        "countyId": "31"
      },
      "economicActivities": [
        {
          "id": "1.834",
          "name": "Servicios relativos a la propiedad inmobiliaria e industrial",
          "_links": {
            "self": {
              "name": "Servicios relativos a la propiedad inmobiliaria e industrial",
              "href": "https://api.euskadi.eus/procurements/companies/economic-activities/1.834"
            }
          }
        },
        {
          "id": "1.843.2",
          "name": "Servicios técnicos de arquitectura y urbanismo",
          "_links": {
            "self": {
              "name": "Servicios técnicos de arquitectura y urbanismo",
              "href": "https://api.euskadi.eus/procurements/companies/economic-activities/1.843.2"
            }
          }
        }
      ],
      "certificateStartDate": "2026-01-16",
      "certificateEndDate": "2026-07-06",
      "object": "A. EL ASESORAMIENTO, PROMOCIÓN E INTERMEDIACIÓN EN LA REALIZACIÓN DE LAS ACTIVIDADES PROPIAS DE UN ESTUDIO DE ARQUITECTURA Y URBANISMO. B. ASESORAMIENTO Y REALIZACIÓN DE TODO TIPO DE GESTIÓN, PROMOCIÓN E INTERMEDIACIÓN EN LA ELABORACIÓN Y DISEÑO DE PROYECTOS, DIRECCIONES TÉCNICAS Y/O ECONÓMICAS EN CUALQUIER CLASE DE OBRA O INSTALACIÓN, YA SEA DE ARQUITECTURA Y/O URBANISMO E INGENIERÍA ASÍ COMO EN LA REALIZACIÓN DE ESTUDIOS DE ORGANIZACIÓN, VIABILIDAD ECONÓMICA, ANÁLISIS TÉCNICO O DE MERCADO. C. REALIZACIÓN DE OPERACIONES PROPIAS DEL MERCADO INMOBILIARIO, CON ESPECIAL INCLUSIÓN DE LA COMPRA Y VENTA DE TERRENOS Y/O EDIFICACIONES, LA GESTIÓN Y PROMOCIÓN INMOBILIARIA, LA CONSTRUCCIÓN Y/O COORDINACIÓN DE CUALQUIER TIPO DE OBRA O INSTALACIÓN, ASÍ COMO LA REALIZACIÓN DE LAS ACTIVIDADES NECESARIAS PARA EL MANTENIMIENTO DE EDIFICIOS E INDUSTRIAS. D. LA REALIZACIÓN DE ESTUDIOS Y ANÁLISIS SOBRE SISTEMAS INFORMÁTICOS, INCLUSO LA COMPRA, COMERCIALIZACIÓN, VENTA Y DISTRIBUCIÓN DE EQUIPOS Y PROGRAMAS INFORMÁTICOS. E. LA REALIZACIÓN DE TODO TIPO DE TRABAJO DE TOPOGRAFÍA, ESTUDIOS TOPOGRÁFICOS, GEOTÉCNICOS Y DE IMPACTO AMBIENTAL, ASÍ COMO DE MECANOGRAFÍA, REPROGRAFÍA, DELINEACIÓN Y MAQUETACIÓN. F. LA REPRESENTACIÓN COMERCIAL Y/O TÉCNICAS DE MARCAS Y PRODUCTOS, ASÍ COMO LA INTERMEDIACIÓN EN LA COMERCIALIZACIÓN Y VENTA DE PRODUCTOS DIVERSOS. G. PROGRAMAR E IMPARTIR CURSOS, CONFERENCIAS, SEMINARIOS SOBRE ORGANIZACIÓN Y PLANIFICACIÓN EMPRESARIAL TÉCNICAS DE VENTAS, RECURSOS HUMANOS Y TÉCNICOS, SEGURIDAD Y SALUD LABORAL, INCLUSO, EN ESTA ÚLTIMA MATERIA, LA REALIZACIÓN DE ESTUDIOS E IMPLANTACIÓN DE LAS MEDIDAS QUE CADA EMPRESA Y PUESTO DE TRABAJO REQUIERE EN LA MATERIA. H. LA REALIZACIÓN DE TRABAJOS Y ESTUDIOS PUBLICITARIOS, FOTOGRÁFICOS Y LA PROGRAMACIÓN Y REALIZACIÓN DE EXPOSICIONES TANTO ARTÍSTICAS, COMO TÉCNICAS\r\n\r\n",
      "mainEntityOfPage": "https://www.contratacion.euskadi.eus/webkpe00-kperoc/es/ac71aBusquedaRegistrosWar/empresa/06769",
      "_links": {
        "self": {
          "name": "TYM ASOCIADOS TALLER DE ARQUITECTURA, S.L.",
          "href": "https://api.euskadi.eus/procurements/companies/06769"
        }
      }
    },
    {
      "name": "KPMG AUDITORES, S.L.",
      "registrationNumber": "04946",
      "identificationNumber": "B78510153",
      "address": "Paseo de la Castellana, 259c",
      "location": {
        "postalCode": "28046",
        "municipality": "Madrid",
        "county": "Madrid",
        "municipalityId": "079",
        "countyId": "28"
      },
      "economicActivities": [
        {
          "id": "1.842",
          "name": "Servicios financieros y contables",
          "_links": {
            "self": {
              "name": "Servicios financieros y contables",
              "href": "https://api.euskadi.eus/procurements/companies/economic-activities/1.842"
            }
          }
        }
      ],
      "certificateStartDate": "2026-01-16",
      "certificateEndDate": "2026-07-07",
      "object": "LA PRESTACIÓN DE SERVICIOS PROFESIONALES DE AUDITORÍA DE CUENTAS EN LOS TÉRMINOS ESTABLECIDOS EN LAS LEYES QUE REGULAN ESTA ACTIVIDAD, ASÍ COMO LAS ACTIVIDADES DE ASESORAMIENTO Y SERVICIOS PROFESIONALES CONEXOS EN LOS CAMPOS DE LA ECONOMÍA, LA CONTABILIDAD Y OTRAS CIENCIAS EMPRESARIALES",
      "mainEntityOfPage": "https://www.contratacion.euskadi.eus/webkpe00-kperoc/es/ac71aBusquedaRegistrosWar/empresa/04946",
      "_links": {
        "self": {
          "name": "KPMG AUDITORES, S.L.",
          "href": "https://api.euskadi.eus/procurements/companies/04946"
        }
      }
    }
  ]
}