{
  "totalItems": 9042,
  "totalPages": 905,
  "currentPage": 739,
  "itemsOfPage": 10,
  "items": [
    {
      "name": "SOGETI ESPAÑA, S.L.",
      "registrationNumber": "02777",
      "identificationNumber": "B58382292",
      "address": "C/ MORAGAS, 11",
      "location": {
        "postalCode": "08022",
        "municipality": "Barcelona",
        "county": "Barcelona",
        "municipalityId": "019",
        "countyId": "08"
      },
      "economicActivities": [
        {
          "id": "1.845",
          "name": "Explotación electrónica por cuenta de terceros",
          "_links": {
            "self": {
              "name": "Explotación electrónica por cuenta de terceros",
              "href": "https://api.euskadi.eus/procurements/companies/economic-activities/1.845"
            }
          }
        },
        {
          "id": "1.933.9",
          "name": "Otras actividades de enseñanza tales como idiomas, mecanografía",
          "_links": {
            "self": {
              "name": "Otras actividades de enseñanza tales como idiomas, mecanografía",
              "href": "https://api.euskadi.eus/procurements/companies/economic-activities/1.933.9"
            }
          }
        }
      ],
      "certificateStartDate": "2009-11-06",
      "certificateEndDate": "2010-03-10",
      "object": "LOS SERVICIOS DE MECANIZACIÓN DE EMPRESAS Y VENTA DE TODA CLASE DE MATERIAL DE INFORMÁTICA, SOFTWARE Y HARDWARE, Y LA IMPARTICIÓN DE CURSOS DE FORMACIÓN DE INFORMÁTICA, COMUNICACIONES, MEDIO AMBIENTE , CALIDAD Y TEMAS RELACIONADOS CON EL MUNDO EMPRESARIAL.",
      "mainEntityOfPage": "https://www.contratacion.euskadi.eus/webkpe00-kperoc/es/ac71aBusquedaRegistrosWar/empresa/02777",
      "_links": {
        "self": {
          "name": "SOGETI ESPAÑA, S.L.",
          "href": "https://api.euskadi.eus/procurements/companies/02777"
        }
      }
    },
    {
      "name": "MAS LEINTZ ABOKATUAK, S.L.L.",
      "registrationNumber": "03857",
      "identificationNumber": "B20978268",
      "address": "Ergiñarro,2",
      "location": {
        "postalCode": "20500",
        "municipality": "Arrasate / Mondragón",
        "county": "Gipuzkoa",
        "municipalityId": "055",
        "countyId": "20"
      },
      "economicActivities": [
        {
          "id": "1.841",
          "name": "Servicios jurídicos",
          "_links": {
            "self": {
              "name": "Servicios jurídicos",
              "href": "https://api.euskadi.eus/procurements/companies/economic-activities/1.841"
            }
          }
        }
      ],
      "certificateStartDate": "2009-11-04",
      "certificateEndDate": "2010-03-14",
      "object": "LA ACTIVIDAD DE ASESORAMIENTO INTEGRAL EN TEMAS RELATIVOS A LA ORDENACIÓN DEL TERRITORIO Y URBANISMO, MEDIO AMBIENTE Y DESARROLLO SOSTENIBLE, ASESORAMIENTO Y ASISTENCIA JURÍDICA EN GENERAL, EL BUSINESS MANAGEMENT Y LA CONSULTORÍA INTEGRAL EMPRESARIAL Y ADMINISTRATIVA",
      "mainEntityOfPage": "https://www.contratacion.euskadi.eus/webkpe00-kperoc/es/ac71aBusquedaRegistrosWar/empresa/03857",
      "_links": {
        "self": {
          "name": "MAS LEINTZ ABOKATUAK, S.L.L.",
          "href": "https://api.euskadi.eus/procurements/companies/03857"
        }
      }
    },
    {
      "name": "SISTEMAS DE INTEGRACION AVANZADOS, S.L.",
      "registrationNumber": "03627",
      "identificationNumber": "B20936951",
      "address": "PO. MIKELETEGI, 56",
      "location": {
        "postalCode": "20009",
        "municipality": "Donostia / San Sebastián",
        "county": "Gipuzkoa",
        "municipalityId": "069",
        "countyId": "20"
      },
      "economicActivities": [
        {
          "id": "1.845",
          "name": "Explotación electrónica por cuenta de terceros",
          "_links": {
            "self": {
              "name": "Explotación electrónica por cuenta de terceros",
              "href": "https://api.euskadi.eus/procurements/companies/economic-activities/1.845"
            }
          }
        }
      ],
      "certificateStartDate": "2009-11-03",
      "certificateEndDate": "2010-09-01",
      "object": "EL DESARROLLO DE SOFTWARE Y APLICACIONES INFORMÁTICAS",
      "mainEntityOfPage": "https://www.contratacion.euskadi.eus/webkpe00-kperoc/es/ac71aBusquedaRegistrosWar/empresa/03627",
      "_links": {
        "self": {
          "name": "SISTEMAS DE INTEGRACION AVANZADOS, S.L.",
          "href": "https://api.euskadi.eus/procurements/companies/03627"
        }
      }
    },
    {
      "name": "C.M.C. CANAL, S.L.",
      "registrationNumber": "02552",
      "identificationNumber": "B48657944",
      "address": "AVDA. DEL TXORIERRI, 9. EDIFICIO ARTEAGA, 4ª P. OFIC. 402",
      "location": {
        "postalCode": "48160",
        "municipality": "Derio",
        "county": "Bizkaia",
        "municipalityId": "901",
        "countyId": "48"
      },
      "economicActivities": [
        {
          "id": "1.844",
          "name": "Servicios de publicidad, relaciones públicas y similares",
          "_links": {
            "self": {
              "name": "Servicios de publicidad, relaciones públicas y similares",
              "href": "https://api.euskadi.eus/procurements/companies/economic-activities/1.844"
            }
          }
        }
      ],
      "certificateStartDate": "2009-10-29",
      "certificateEndDate": "2010-03-23",
      "object": "LA AGENCIA DE PUBLICIDAD DE SERVICIOS PLENOS, PLANES DE MARKETING, ESTUDIOS DE MARKETING, ESSTUDIOS DE IMAGEN CORPORATIVA, ACCIONES DE PROMOCIÓN DE VENTAS Y CURSOS DE FORMACIÓN DE LAS ACTIVIDADES RESEÑADAS, ASÍ COMO EL ASESORAMIENTO DE PERSONAS Y EMPRESAS, EL ESTUDIO, INVESTIGACIÓN Y PRESTACIÓN DE TODA CLASE DE SERVICIOS DE ASISTENCIA Y GÉSTIÓN TÉCNICAS RELACIONADOS CON LA PUBLICIDAD EN GENERAL.",
      "mainEntityOfPage": "https://www.contratacion.euskadi.eus/webkpe00-kperoc/es/ac71aBusquedaRegistrosWar/empresa/02552",
      "_links": {
        "self": {
          "name": "C.M.C. CANAL, S.L.",
          "href": "https://api.euskadi.eus/procurements/companies/02552"
        }
      }
    },
    {
      "name": "EQUIPAMIENTOS Y PROYECTOS ENERGÉTICOS, S.L. SOCIEDAD UNIPERSONAL",
      "registrationNumber": "03806",
      "identificationNumber": "B95199055",
      "address": "CRTA. SAN VICENTE, 9 PABELLÓN 5",
      "location": {
        "postalCode": "48510",
        "municipality": "Valle de Trápaga-Trapagaran",
        "county": "Bizkaia",
        "municipalityId": "080",
        "countyId": "48"
      },
      "economicActivities": [
        {
          "id": "1.342",
          "name": "Fabricación de material eléctrico de utilización y equipamiento",
          "_links": {
            "self": {
              "name": "Fabricación de material eléctrico de utilización y equipamiento",
              "href": "https://api.euskadi.eus/procurements/companies/economic-activities/1.342"
            }
          }
        }
      ],
      "certificateStartDate": "2009-10-16",
      "certificateEndDate": "2009-12-09",
      "object": "LA FABRICACIÓN DE MAQUINAS Y APARATOS PARA LA PRODUCCIÓN Y TRANSFORMACIÓN DE LA ENERGÍA ELÉCTRICA",
      "mainEntityOfPage": "https://www.contratacion.euskadi.eus/webkpe00-kperoc/es/ac71aBusquedaRegistrosWar/empresa/03806",
      "_links": {
        "self": {
          "name": "EQUIPAMIENTOS Y PROYECTOS ENERGÉTICOS, S.L. SOCIEDAD UNIPERSONAL",
          "href": "https://api.euskadi.eus/procurements/companies/03806"
        }
      }
    },
    {
      "name": "IRITEC, S.L.",
      "registrationNumber": "04018",
      "identificationNumber": "B50989268",
      "address": "BARI Nº 25 DUPLICADO, PLT.  2 (PLG. PLA,ZA, EDIF EXPOINNOVAC",
      "location": {
        "postalCode": "50197",
        "municipality": "Zaragoza",
        "county": "Zaragoza",
        "municipalityId": "297",
        "countyId": "50"
      },
      "economicActivities": [
        {
          "id": "1.845",
          "name": "Explotación electrónica por cuenta de terceros",
          "_links": {
            "self": {
              "name": "Explotación electrónica por cuenta de terceros",
              "href": "https://api.euskadi.eus/procurements/companies/economic-activities/1.845"
            }
          }
        }
      ],
      "certificateStartDate": "2009-10-16",
      "certificateEndDate": "2010-01-08",
      "object": "- ) LA PRESTACIÓN DE SERVICIOS DE ESTUDIO Y ANÁLISIS DE PROCESOS PARA TRATAMIENTO MECÁNICO O INFORMÁTICO, DE PROGRAMACIÓN PARA EQUIPOS ELECTRÓNICOS E INFORMÁTICOS DE REGISTRO DE DATOS EN SOPORTES DE ENTRADA PARA ORDENADORES, ASÍ COMO LA VENTA DE PROGRAMAS, EL PROCESO DE DATOS PARA O POR CUENTA DE TERCEROS Y OTROS SERVICIOS INDEPENDIENTES DE ELABORACIÓN DE DATOS Y TABULACIÓN. -) LA ENSEÑANZA Y FORMACIÓN EN MATERIA INFORMÁTICA, TANTO A PERSONAS FÍSICAS COMO JURÍDICAS, YA SEA EN FORMA DIRECTA IMPARTIENDO CURSOS, CLASES ... COMO A DISTANCIA, MEDIANTE LA UTILIZACIÓN DE CUALQUIER MATERIAL DIDÁCTICO IDÓNEO PARA LA DIVULGACIÓN DE CONOCIMIENTO SOBRE ESTA MATERIA. -) LA VENTA DE EQUIPOS INFORMÁTICOS, ORDENADOES, IMPRESORAS Y SIMILARES (HARD), REDES, REPARACIÓN Y SERVICIO TÉCNICO PARA TALES PRODUCTOS, INSTALACIÓN DE ORDENADORES, SERVIDORES Y SERVICIOS DE SEGURIDAD DE TALES EQUIPOS. -) EL DESARROLLO, INTEGRACIÓN E IMPLANTACIÓN DE SOLUCIONES TECNOLÓGICAS EN EL ÁMBITO DE LAS TECNOLOGÍAS DE LA INFORMACIÓN Y LA COMUNICACIÓN; LA PRESTACIÓN DE SERVICIOS PROFESIONALES Y DE CONSULTORÍA TECNOLÓGICA; LA PRESTACIÓN DE SERVICIOS DE ISP Y ASP, Y LA PRESTACIÓN DE SERVICIOS DE SOPORTE Y DE CENTRO DE ATENCIÓN A USUARIOS.\r\n",
      "mainEntityOfPage": "https://www.contratacion.euskadi.eus/webkpe00-kperoc/es/ac71aBusquedaRegistrosWar/empresa/04018",
      "_links": {
        "self": {
          "name": "IRITEC, S.L.",
          "href": "https://api.euskadi.eus/procurements/companies/04018"
        }
      }
    },
    {
      "name": "CONSTRUCCIONES PÉREZ SANTOS HNOS., S.L.",
      "registrationNumber": "00247",
      "identificationNumber": "B48140818",
      "address": "C/ SERANTES, Nº 5 - LONJA.",
      "location": {
        "postalCode": "48002",
        "municipality": "Bilbao",
        "county": "Bizkaia",
        "municipalityId": "020",
        "countyId": "48"
      },
      "economicActivities": [
        {
          "id": "1.507",
          "name": "Construcción, reparación y conservación de toda clase obras",
          "_links": {
            "self": {
              "name": "Construcción, reparación y conservación de toda clase obras",
              "href": "https://api.euskadi.eus/procurements/companies/economic-activities/1.507"
            }
          }
        },
        {
          "id": "1.722",
          "name": "Transporte de mercancías por carretera",
          "_links": {
            "self": {
              "name": "Transporte de mercancías por carretera",
              "href": "https://api.euskadi.eus/procurements/companies/economic-activities/1.722"
            }
          }
        }
      ],
      "certificateStartDate": "2009-10-13",
      "certificateEndDate": "2010-03-11",
      "object": "LA CONSTRUCCIÓN, PILOTAJE Y DERRIBOS ASÍ COMO TODO LO RELACIONADO CON LO EXPRESADO",
      "mainEntityOfPage": "https://www.contratacion.euskadi.eus/webkpe00-kperoc/es/ac71aBusquedaRegistrosWar/empresa/00247",
      "_links": {
        "self": {
          "name": "CONSTRUCCIONES PÉREZ SANTOS HNOS., S.L.",
          "href": "https://api.euskadi.eus/procurements/companies/00247"
        }
      }
    },
    {
      "name": "ITURRI, S.A.",
      "registrationNumber": "02751",
      "identificationNumber": "A41050113",
      "address": "AVDA. ROBERTO OSBORNE, 5",
      "location": {
        "postalCode": "41007",
        "municipality": "Sevilla",
        "county": "Sevilla",
        "municipalityId": "091",
        "countyId": "41"
      },
      "economicActivities": [
        {
          "id": "1.451",
          "name": "Fabricación en serie de calzado",
          "_links": {
            "self": {
              "name": "Fabricación en serie de calzado",
              "href": "https://api.euskadi.eus/procurements/companies/economic-activities/1.451"
            }
          }
        },
        {
          "id": "1.501.3",
          "name": "Albañilería y pequeños trabajos de construcción en general",
          "_links": {
            "self": {
              "name": "Albañilería y pequeños trabajos de construcción en general",
              "href": "https://api.euskadi.eus/procurements/companies/economic-activities/1.501.3"
            }
          }
        },
        {
          "id": "1.504.1",
          "name": "Instalaciones eléctricas en general",
          "_links": {
            "self": {
              "name": "Instalaciones eléctricas en general",
              "href": "https://api.euskadi.eus/procurements/companies/economic-activities/1.504.1"
            }
          }
        },
        {
          "id": "1.611",
          "name": "Venta al por mayor de toda clase de mercancías",
          "_links": {
            "self": {
              "name": "Venta al por mayor de toda clase de mercancías",
              "href": "https://api.euskadi.eus/procurements/companies/economic-activities/1.611"
            }
          }
        },
        {
          "id": "1.613.3",
          "name": "Venta al por mayor de prendas exteriores de vestir",
          "_links": {
            "self": {
              "name": "Venta al por mayor de prendas exteriores de vestir",
              "href": "https://api.euskadi.eus/procurements/companies/economic-activities/1.613.3"
            }
          }
        },
        {
          "id": "1.617.5",
          "name": "Venta al por mayor de maquinaria para la madera y el metal",
          "_links": {
            "self": {
              "name": "Venta al por mayor de maquinaria para la madera y el metal",
              "href": "https://api.euskadi.eus/procurements/companies/economic-activities/1.617.5"
            }
          }
        },
        {
          "id": "1.617.9",
          "name": "Venta al por mayor interindustrial de otros productos n.c.o.p",
          "_links": {
            "self": {
              "name": "Venta al por mayor interindustrial de otros productos n.c.o.p",
              "href": "https://api.euskadi.eus/procurements/companies/economic-activities/1.617.9"
            }
          }
        },
        {
          "id": "1.651.5",
          "name": "Venta al por menor de prendas especiales",
          "_links": {
            "self": {
              "name": "Venta al por menor de prendas especiales",
              "href": "https://api.euskadi.eus/procurements/companies/economic-activities/1.651.5"
            }
          }
        },
        {
          "id": "1.651.6",
          "name": "Venta al por menor de calzado, artículos de piel, cinturones, bolsos, maletas",
          "_links": {
            "self": {
              "name": "Venta al por menor de calzado, artículos de piel, cinturones, bolsos, maletas",
              "href": "https://api.euskadi.eus/procurements/companies/economic-activities/1.651.6"
            }
          }
        },
        {
          "id": "1.691.9",
          "name": "Reparación de otros bienes de consumo n.c.o.p",
          "_links": {
            "self": {
              "name": "Reparación de otros bienes de consumo n.c.o.p",
              "href": "https://api.euskadi.eus/procurements/companies/economic-activities/1.691.9"
            }
          }
        },
        {
          "id": "1.699",
          "name": "Otras reparaciones n.c.o.p",
          "_links": {
            "self": {
              "name": "Otras reparaciones n.c.o.p",
              "href": "https://api.euskadi.eus/procurements/companies/economic-activities/1.699"
            }
          }
        }
      ],
      "certificateStartDate": "2009-10-13",
      "certificateEndDate": "2010-02-28",
      "object": "LA ADQUISICIÓN, ALMACENAMIENTO, ENAJENACIÓN, TRANSFORMACIÓN Y FABRICACIÓN DE TODA CLASE DE SUMINISTROS INDUSTRIALES.\r\nDICHAS ACTIVIDADES PODRÁN SER DESARROLLADAS EN FORMA PARCIAL Y DIRECTO O INDIRECTAMENTE MEDIANTE LA TITULARIDAD DE ACCIONES O PARTICIPACIONES DE SOCIEDADES DE IDÉNTICO O ANÁLOGO OBJETO.   ",
      "mainEntityOfPage": "https://www.contratacion.euskadi.eus/webkpe00-kperoc/es/ac71aBusquedaRegistrosWar/empresa/02751",
      "_links": {
        "self": {
          "name": "ITURRI, S.A.",
          "href": "https://api.euskadi.eus/procurements/companies/02751"
        }
      }
    },
    {
      "name": "GEOCONSULT ESPAÑA, INGENIEROS CONSULTORES, S.A.",
      "registrationNumber": "01015",
      "identificationNumber": "A79189726",
      "address": "C/ ORENSE, Nº 16.",
      "location": {
        "postalCode": "28020",
        "municipality": "Madrid",
        "county": "Madrid",
        "municipalityId": "079",
        "countyId": "28"
      },
      "economicActivities": [
        {
          "id": "1.843.1",
          "name": "Servicios técnicos de ingeniería",
          "_links": {
            "self": {
              "name": "Servicios técnicos de ingeniería",
              "href": "https://api.euskadi.eus/procurements/companies/economic-activities/1.843.1"
            }
          }
        }
      ],
      "certificateStartDate": "2009-10-07",
      "certificateEndDate": "2010-03-02",
      "object": "LA INGENIERÍA CONSULTIVA Y/O DE SERVICIOS, SINGULARMENTE EN GEOLOGÍA, GEOFÍSICA, GEOTECNIA Y OTRAS ACTIVIDADES TÉCNICAS RELACIONADAS CON LAS OBRAS PÚBLICAS. ASIMISMO SERÁ ACTIVIDAD PREFERENTE DE LA SOCIEDAD, LA INGENIERÍA SUBTERRÁNEA EN TODOS SUS CAMPOS DE APLICACIÓN",
      "mainEntityOfPage": "https://www.contratacion.euskadi.eus/webkpe00-kperoc/es/ac71aBusquedaRegistrosWar/empresa/01015",
      "_links": {
        "self": {
          "name": "GEOCONSULT ESPAÑA, INGENIEROS CONSULTORES, S.A.",
          "href": "https://api.euskadi.eus/procurements/companies/01015"
        }
      }
    },
    {
      "name": "QUALIBERICA, S.L.",
      "registrationNumber": "03064",
      "identificationNumber": "B46631123",
      "address": "PASEO MAGDALENA JAUREGUIBERRI, Nº 4-1º OF. 3",
      "location": {
        "postalCode": "20014",
        "municipality": "Donostia / San Sebastián",
        "county": "Gipuzkoa",
        "municipalityId": "069",
        "countyId": "20"
      },
      "economicActivities": [
        {
          "id": "1.843.9",
          "name": "Otros servicios técnicos n.c.o.p",
          "_links": {
            "self": {
              "name": "Otros servicios técnicos n.c.o.p",
              "href": "https://api.euskadi.eus/procurements/companies/economic-activities/1.843.9"
            }
          }
        }
      ],
      "certificateStartDate": "2009-10-07",
      "certificateEndDate": "2010-01-03",
      "object": "EL EFECTUAR TRABAJOS Y ESTUDIOS RELATIVOS A LA GESTIÓN Y CONTROL DE CALIDAD EN EL CAMPO DE LA CONSTRUCCIÓN DE EDIFICIOS Y DE LAS OBRAS PÚBLICAS",
      "mainEntityOfPage": "https://www.contratacion.euskadi.eus/webkpe00-kperoc/es/ac71aBusquedaRegistrosWar/empresa/03064",
      "_links": {
        "self": {
          "name": "QUALIBERICA, S.L.",
          "href": "https://api.euskadi.eus/procurements/companies/03064"
        }
      }
    }
  ]
}