{
  "totalItems": 9042,
  "totalPages": 905,
  "currentPage": 781,
  "itemsOfPage": 10,
  "items": [
    {
      "name": "FRÍOCALOR CLIMAT, S.L.",
      "registrationNumber": "01333",
      "identificationNumber": "B01108257",
      "address": "C/ PORTAL DE GAMARRA, Nº 36 - PABELLÓN: 16.",
      "location": {
        "postalCode": "01013",
        "municipality": "Vitoria-Gasteiz",
        "county": "Araba/Álava",
        "municipalityId": "059",
        "countyId": "01"
      },
      "economicActivities": [
        {
          "id": "1.504.3",
          "name": "Instalaciones de frío, calor y acondicionamiento de aire",
          "_links": {
            "self": {
              "name": "Instalaciones de frío, calor y acondicionamiento de aire",
              "href": "https://api.euskadi.eus/procurements/companies/economic-activities/1.504.3"
            }
          }
        }
      ],
      "certificateStartDate": "2006-03-14",
      "certificateEndDate": "2006-09-07",
      "object": "EL ESTUDIO, PROYECTO, MONTAJE E INSTALACIÓN DE SISTEMAS DE AIRE ACONDICIONADO, CALEFACCIÓN, FRÍO INDUSTRIAL Y COMERCIAL, ASÍ COMO SU REPARACIÓN, Y LA ADQUISICIÓN DE BIENES INMUEBLES",
      "mainEntityOfPage": "https://www.contratacion.euskadi.eus/webkpe00-kperoc/es/ac71aBusquedaRegistrosWar/empresa/01333",
      "_links": {
        "self": {
          "name": "FRÍOCALOR CLIMAT, S.L.",
          "href": "https://api.euskadi.eus/procurements/companies/01333"
        }
      }
    },
    {
      "name": "SOCIEDAD ESPAÑOLA DE INSTALACIONES DE REDES TELEFÓNICAS, S.A. (SEIRT)",
      "registrationNumber": "01329",
      "identificationNumber": "A28221497",
      "address": "C/ MANUEL TOVAR, Nº 43.",
      "location": {
        "postalCode": "28034",
        "municipality": "Madrid",
        "county": "Madrid",
        "municipalityId": "079",
        "countyId": "28"
      },
      "economicActivities": [
        {
          "id": "1.504.1",
          "name": "Instalaciones eléctricas en general",
          "_links": {
            "self": {
              "name": "Instalaciones eléctricas en general",
              "href": "https://api.euskadi.eus/procurements/companies/economic-activities/1.504.1"
            }
          }
        }
      ],
      "certificateStartDate": "2006-03-10",
      "certificateEndDate": "2006-07-12",
      "object": "LA CONSTRUCCIÓN, INSTALACIÓN Y CONSERVACIÓN DE REDES Y SISTEMAS DE TELECOMUNICACIONES, ELECTRÓNICOS Y ELÉCTRICOS; LA FABRICACIÓN Y COMERCIALIZACIÓN DE LOS EQUIPOS Y ACCESORIOS RELACIONADOS CON ELLOS Y LA ELABORACIÓN DE ESTUDIOS Y PROYECTOS PARA LAS REDES Y SISTEMAS INDICADOS ANTERIORMENTE",
      "mainEntityOfPage": "https://www.contratacion.euskadi.eus/webkpe00-kperoc/es/ac71aBusquedaRegistrosWar/empresa/01329",
      "_links": {
        "self": {
          "name": "SOCIEDAD ESPAÑOLA DE INSTALACIONES DE REDES TELEFÓNICAS, S.A. (SEIRT)",
          "href": "https://api.euskadi.eus/procurements/companies/01329"
        }
      }
    },
    {
      "name": "SANTIAGO ALDAMA, S.A. EMPRESA CONSTRUCTORA",
      "registrationNumber": "00144",
      "identificationNumber": "A01005297",
      "address": "C/ SAN PRUDENCIO, 8 A - 4º.",
      "location": {
        "postalCode": "01005",
        "municipality": "Vitoria-Gasteiz",
        "county": "Araba/Álava",
        "municipalityId": "059",
        "countyId": "01"
      },
      "economicActivities": [
        {
          "id": "1.507",
          "name": "Construcción, reparación y conservación de toda clase obras",
          "_links": {
            "self": {
              "name": "Construcción, reparación y conservación de toda clase obras",
              "href": "https://api.euskadi.eus/procurements/companies/economic-activities/1.507"
            }
          }
        }
      ],
      "certificateStartDate": "2006-03-06",
      "certificateEndDate": "2006-08-21",
      "object": "LA EJECUCIÓN DE OBRAS, PÚBLICAS O PRIVADAS, Y TODO TIPO DE ACTIVIDADES PROPIAS DE LA INDUSTRIA DE LA CONSTRUCCIÓN; Y ADMINISTRACIÓN Y DISPOSICIÓN DE PROPIEDADES INMOBILIARIAS",
      "mainEntityOfPage": "https://www.contratacion.euskadi.eus/webkpe00-kperoc/es/ac71aBusquedaRegistrosWar/empresa/00144",
      "_links": {
        "self": {
          "name": "SANTIAGO ALDAMA, S.A. EMPRESA CONSTRUCTORA",
          "href": "https://api.euskadi.eus/procurements/companies/00144"
        }
      }
    },
    {
      "name": "NORCONTROL",
      "registrationNumber": "02820",
      "identificationNumber": "A15044357",
      "address": "AVDA. LEHENDAKARI AGUIRRE, Nº 9-5ª",
      "location": {
        "postalCode": "48014",
        "municipality": "Bilbao",
        "county": "Bizkaia",
        "municipalityId": "020",
        "countyId": "48"
      },
      "economicActivities": [
        {
          "id": "1.843.1",
          "name": "Servicios técnicos de ingeniería",
          "_links": {
            "self": {
              "name": "Servicios técnicos de ingeniería",
              "href": "https://api.euskadi.eus/procurements/companies/economic-activities/1.843.1"
            }
          }
        }
      ],
      "certificateStartDate": "2006-03-06",
      "certificateEndDate": "2004-07-28",
      "object": "LA PRESTACIÓN  DE TODO TIPO DE SERVICIOS DE INSPECCIÓN Y CONTROL DE CALIDAD Y CANTIDAD, INSPECCIÓN REGLAMENTARIA, COLABORACIÓN CON LA ADMINISTRACIÓN, CONSULTORÍA, AUDITORÍA, CERTIFICACIÓN, HOMOLOGACIÓN, FORMACIÓN Y CUALIFICACIÓN DE PERSONAL, Y ASISTENCIA TÉCNICA, EN GENERAL, CON EL FÍN DE MEJORAR LA ORGANIZACIÓN Y LA GESTIÓN DE CALIDAD, LA SEGURIDAD Y EL MEDIO AMBIENTE.\r\nLA REALIZACIÓN DE ESTUDIOS, TRABAJOS, MEDIDAS, ENSAYOS, ANÁLISIS Y CONTROLES EN LABORATORIO O EN SITIO  Y DEMÁS MÉTODOS Y ACTUACIONES PROFESIONALES QUE SE CONSIDEREN NECESARIOS, Y FUNDAMENTALMENTE EN MATERIALES, PRODUCTOS, EQUIPOS E INSTALACIONES INDUSTRIALES Y EN LAS ÁREAS MECÁNICA, ELÉCTRICA, ELECTRÓNICA E INFORMÁTICA, DE TRANSPORTES Y COMUNICACIONES, DE ORGANIZACIÓN ADMINISTRATIVA Y OFIMÁTICA,  MINERÍA, ALIMENTACIÓN, MEDIO AMBIENTE, EDIFICACIÓN Y OBRA CIVIL, EFECTUADAS EN SUS FASES  DE DISEÑO, PROYECTO, DE FABRICACIÓN, DE CONSTRUCCIÓN Y MONTAJE DE PUESTA EN MARCHA, DE MANTENIMIENTO Y DE PRODUCCIÓN, Y PARA TODA CLASE DE EMPRESAS Y ENTIDADES TANTO PRIVADAS COMO PÚBLICAS, ASÍ COMO ANTE LA ADMINISTRACIÓN CENTRAL DEL ESTADO, LAS ADMINISTRACIONES DE COMUNIDADES AUTÓNOMAS, PROVINCIAS Y MUNICIPIOS Y TODO TIPO DE ÓRGANOS, INSTITUCIONES Y USUARIOS, TANTO EN EL TERRITORIO NACIONAL COMO FUERA DEL MISMO    ",
      "mainEntityOfPage": "https://www.contratacion.euskadi.eus/webkpe00-kperoc/es/ac71aBusquedaRegistrosWar/empresa/02820",
      "_links": {
        "self": {
          "name": "NORCONTROL",
          "href": "https://api.euskadi.eus/procurements/companies/02820"
        }
      }
    },
    {
      "name": "ADARTIA CORREDURIA DE SEGUROS, S.A.",
      "registrationNumber": "03166",
      "identificationNumber": "A95374971",
      "address": "ALAMEDA MAZARREDO, 15-6º",
      "location": {
        "postalCode": "48001",
        "municipality": "Bilbao",
        "county": "Bizkaia",
        "municipalityId": "020",
        "countyId": "48"
      },
      "economicActivities": [
        {
          "id": "1.832.1",
          "name": "Agencias de seguros y corredurías de seguros",
          "_links": {
            "self": {
              "name": "Agencias de seguros y corredurías de seguros",
              "href": "https://api.euskadi.eus/procurements/companies/economic-activities/1.832.1"
            }
          }
        }
      ],
      "certificateStartDate": "2006-03-06",
      "certificateEndDate": "2006-08-16",
      "object": "LA REALIZACIÓN DE ACTIVIDADES DE CORREDURÍA DE SEGUROS, CON SOMETIMIENTO A LA LEGISLACIÓN ESPECÍFICA DE MEDIACIÓN EN SEGUROS PRIVADOS.\r\nSI PARA EL EJERCICIO DE ALGUNA DE LAS ACTIVIDADES COMPRENDIDAS EN EL OBJETO SOCIAL FUERE PRECISO ESTAR EN POSESIÓN DE ALGÚN TÍTULO O NOMBRAMIENTO OFICIAL, ACREDITACIÓN ACADÉMICA O COLEGIACIÓN PROFESIONAL, SOLO PODRÁ SER REALIZADA AQUELLA POR CUENTA DE LA SOCIEDAD, COMO ACTIVIDAD SOCIAL, POR QUIEN TENGA LA TITULACIÓN U OSTENTE LA COLEGIACIÓN LEGALMENTE REQUERIDA",
      "mainEntityOfPage": "https://www.contratacion.euskadi.eus/webkpe00-kperoc/es/ac71aBusquedaRegistrosWar/empresa/03166",
      "_links": {
        "self": {
          "name": "ADARTIA CORREDURIA DE SEGUROS, S.A.",
          "href": "https://api.euskadi.eus/procurements/companies/03166"
        }
      }
    },
    {
      "name": "TRATAMIENTOS MICROGRÁFICOS TRAMIC, S.L.L.",
      "registrationNumber": "02796",
      "identificationNumber": "B48905715",
      "address": "C/ JULIO URQUIJO, 6 LONJA",
      "location": {
        "postalCode": "48014",
        "municipality": "Bilbao",
        "county": "Bizkaia",
        "municipalityId": "020",
        "countyId": "48"
      },
      "economicActivities": [
        {
          "id": "1.475.3",
          "name": "Reproducción de textos, imágenes destinados a la impresión",
          "_links": {
            "self": {
              "name": "Reproducción de textos, imágenes destinados a la impresión",
              "href": "https://api.euskadi.eus/procurements/companies/economic-activities/1.475.3"
            }
          }
        }
      ],
      "certificateStartDate": "2006-02-21",
      "certificateEndDate": "2006-08-08",
      "object": "LA FOTOCOPIA, REPRODUCCIÓN, ESNACEADO, DIGITALIZACIÓN Y MICROFILMACÓN DE TODA CLASE DE DOCUMENTOS Y PLANOS; LA COMPRA, VENTA, ALMACENAMIENTO, REPRESENTACIÓN, DEPÓSITO Y DISTRIBUCIÓN DE MERCANCÍAS PARA LO INDICADO",
      "mainEntityOfPage": "https://www.contratacion.euskadi.eus/webkpe00-kperoc/es/ac71aBusquedaRegistrosWar/empresa/02796",
      "_links": {
        "self": {
          "name": "TRATAMIENTOS MICROGRÁFICOS TRAMIC, S.L.L.",
          "href": "https://api.euskadi.eus/procurements/companies/02796"
        }
      }
    },
    {
      "name": "ELA MEDICAL IZASA, S.A.",
      "registrationNumber": "02946",
      "identificationNumber": "A61638300",
      "address": "C/ ARAGÓN, 90",
      "location": {
        "postalCode": "08015",
        "municipality": "Barcelona",
        "county": "Barcelona",
        "municipalityId": "019",
        "countyId": "08"
      },
      "economicActivities": [
        {
          "id": "1.619.2",
          "name": "Venta al por mayor de aparatos e instrumentos médicos, ortopédicos, ópticos",
          "_links": {
            "self": {
              "name": "Venta al por mayor de aparatos e instrumentos médicos, ortopédicos, ópticos",
              "href": "https://api.euskadi.eus/procurements/companies/economic-activities/1.619.2"
            }
          }
        }
      ],
      "certificateStartDate": "2006-02-20",
      "certificateEndDate": "2006-08-01",
      "object": "LA PROMOCIÓN, COMERCIALIZACIÓN, DISTRIBUCIÓN Y COMPRAVENTA DE TODA CLASE DE INSTRUMENTOS, ACCESORIOS, PRÓTESIS Y, EN GENERAL, CUALQUIER TIPO DE PRODUCTOS RELACIONADOS CON LA ESTIMULACIÓN CARDÍACA",
      "mainEntityOfPage": "https://www.contratacion.euskadi.eus/webkpe00-kperoc/es/ac71aBusquedaRegistrosWar/empresa/02946",
      "_links": {
        "self": {
          "name": "ELA MEDICAL IZASA, S.A.",
          "href": "https://api.euskadi.eus/procurements/companies/02946"
        }
      }
    },
    {
      "name": "ALKE SERVICIOS Y LIMPIEZA S.L.",
      "registrationNumber": "03152",
      "identificationNumber": "B95298725",
      "address": "C/ GENERAL CONCHA, 25 -6º DEPARTAMENTO 5",
      "location": {
        "postalCode": "48010",
        "municipality": "Bilbao",
        "county": "Bizkaia",
        "municipalityId": "020",
        "countyId": "48"
      },
      "economicActivities": [
        {
          "id": "1.922",
          "name": "Servicios de limpieza",
          "_links": {
            "self": {
              "name": "Servicios de limpieza",
              "href": "https://api.euskadi.eus/procurements/companies/economic-activities/1.922"
            }
          }
        }
      ],
      "certificateStartDate": "2006-02-13",
      "certificateEndDate": "2006-06-05",
      "object": "LA PRESTACIÓN DE SERVICIOS DE CONSERJES, PORTEROS, AUXILIARES DE SERVICIOS DE GUARDAS, DE LIMPIEZA, A EMPRESAS Y COMUNIDADES.\r\nLAS ACTIVIDADES INTEGRANTES DEL OBJETO SOCIAL PODRÁN SER DESARROLLADAS POR LA SOCIEDAD DE MODO INDIRECTO, MEDIANTE SU PARTICIPACIÓN EN SOCIEDADES O ENTIDADES CON DISTINTA PERSONALIDAD JURÍDICA ",
      "mainEntityOfPage": "https://www.contratacion.euskadi.eus/webkpe00-kperoc/es/ac71aBusquedaRegistrosWar/empresa/03152",
      "_links": {
        "self": {
          "name": "ALKE SERVICIOS Y LIMPIEZA S.L.",
          "href": "https://api.euskadi.eus/procurements/companies/03152"
        }
      }
    },
    {
      "name": "V.H.P.MANTENIMIENTOS IRUN, S.L.",
      "registrationNumber": "03150",
      "identificationNumber": "B20889457",
      "address": "C/ J.J. TADEO MURGUIA, 7 - 2ºB",
      "location": {
        "postalCode": "20304",
        "municipality": "Irun",
        "county": "Gipuzkoa",
        "municipalityId": "045",
        "countyId": "20"
      },
      "economicActivities": [
        {
          "id": "1.501.1",
          "name": "Construcción completa, reparación y conservación de edificaciones",
          "_links": {
            "self": {
              "name": "Construcción completa, reparación y conservación de edificaciones",
              "href": "https://api.euskadi.eus/procurements/companies/economic-activities/1.501.1"
            }
          }
        },
        {
          "id": "1.849.9",
          "name": "Otros servicios independientes n.c.o.p",
          "_links": {
            "self": {
              "name": "Otros servicios independientes n.c.o.p",
              "href": "https://api.euskadi.eus/procurements/companies/economic-activities/1.849.9"
            }
          }
        }
      ],
      "certificateStartDate": "2006-02-02",
      "certificateEndDate": "2006-07-31",
      "object": "MANTENIMIENTO, CONTROL Y RECEPCIÓN DE INSTALACIONES DEPORTIVAS;\r\nMANTENIMIENTO Y LIMPIEZA DE INSTALACIONES DEPORTIVAS",
      "mainEntityOfPage": "https://www.contratacion.euskadi.eus/webkpe00-kperoc/es/ac71aBusquedaRegistrosWar/empresa/03150",
      "_links": {
        "self": {
          "name": "V.H.P.MANTENIMIENTOS IRUN, S.L.",
          "href": "https://api.euskadi.eus/procurements/companies/03150"
        }
      }
    },
    {
      "name": "LOGIKA GESTION DIGITAL, S.A.",
      "registrationNumber": "02567",
      "identificationNumber": "A95214284",
      "address": "URIZAR, Nº 4 - 1º A",
      "location": {
        "postalCode": "48000",
        "municipality": "Bilbao",
        "county": "Bizkaia",
        "municipalityId": "020",
        "countyId": "48"
      },
      "economicActivities": [
        {
          "id": "1.845",
          "name": "Explotación electrónica por cuenta de terceros",
          "_links": {
            "self": {
              "name": "Explotación electrónica por cuenta de terceros",
              "href": "https://api.euskadi.eus/procurements/companies/economic-activities/1.845"
            }
          }
        },
        {
          "id": "1.849.7",
          "name": "Servicios de gestión administrativa",
          "_links": {
            "self": {
              "name": "Servicios de gestión administrativa",
              "href": "https://api.euskadi.eus/procurements/companies/economic-activities/1.849.7"
            }
          }
        }
      ],
      "certificateStartDate": "2006-01-24",
      "certificateEndDate": "2006-07-04",
      "object": "LA CREACIÓN, DISEÑO, PROMOCIÓN Y PUESTA EN MARCHA DE PLATAFORMAS PRODUCTIVAS EN ZONAS RURALES.\r\nTRATAMIENTO DIGITAL Y MANUAL DE LA DOCUMENTACIÓN EN TODOS SUS POSIBLES FORMATOS.\r\nANÁLISIS, ORGANIZACIÓN, AUDITORÍA,  TRANSCRIPCIÓN, GUARDA, CUSTODIA Y EXPURGO DE TODO TIPO DE DOCUMENTACIÓN A TERCEROS EN ARCHIVOS, CENTROS DE DOCUMENTACIÓN, ETC.\r\nINVESTIGACIÓN Y DESARROLLO, FRANQUICIA  E INCLUSO FABRICACIÓN DE TODO TIPO DE APARATOS O CUALQUIER  TIPO DE SERVICIO RELACIONADO CON LA DOCUMENTACIÓN Y LAS COMUNICACIONES POR CUALQUIER MEDIO  SOBRE EL QUE SE SOPORTEN.\r\nREPARACIÓN, MANIPULACIÓN, VENTA, FORMACIÓN, ETC., DE CUALQUIER TIPO DE MAQUINARIA INCLUYENDO EQUIPOS PARA PROCESOS INFORMÁTICOS, SOFTWARE EXISTENTE EN EL MERCADO EN CUALQUIER MOMENTO DE LA VIDA DE LA EMPRESA, BASES DE DATOS CON LAS RESTRICCIONES LEGALES ESTABLECIDAS, ETC. \r\nCONSULTORÍA, ASESORÍA, TODO TIPO DE ESTUDIO O CUALQUIER CLASE DE SERVICIOS QUE SEAN SOLICITADOS POR TERCEROS, RELACIONADOS CON EL OBJETO SOCIAL.\r\nDESARROLLO DE ENCUESTAS, SONDEOS, ESTUDIOS DE MERCADO, CAPTACIÓN DE CLIENTES, LABORES ADMINISTRATIVAS, ETC. REALIZADAS TANTO DE MANERA DIRECTA COMO INDIRECTA CON CUALQUIER TIPO O VÍA DE COMUNICACIÓN.\r\nTODAS LAS ACTIVIDADES QUE INTEGRAN EL OBJETO SOCIAL MENCIONADO  PODRÁN DESARROLLARSE TANTO EN ESPAÑA COMO EN EL EXTRANJERO, PUDIÉNDOSE LLEVAR A CABO TOTAL O PARCIALMENTE DE MODO INDIRECTO, MEDIANTE LA TITULARIDAD DE ACCIONES O DE PARTICIPACIONES EN SOCIEDADES CON OBJETO IDÉNTICO O ANÁLOGO.  ",
      "mainEntityOfPage": "https://www.contratacion.euskadi.eus/webkpe00-kperoc/es/ac71aBusquedaRegistrosWar/empresa/02567",
      "_links": {
        "self": {
          "name": "LOGIKA GESTION DIGITAL, S.A.",
          "href": "https://api.euskadi.eus/procurements/companies/02567"
        }
      }
    }
  ]
}