{
  "totalItems": 9042,
  "totalPages": 905,
  "currentPage": 851,
  "itemsOfPage": 10,
  "items": [
    {
      "name": "ARRIKO, S.A.",
      "registrationNumber": "03223",
      "identificationNumber": "A01011956",
      "address": "C/AMEZAGA, Nº8 ",
      "location": {
        "postalCode": "01250",
        "municipality": "Asparrena",
        "county": "Araba/Álava",
        "municipalityId": "009",
        "countyId": "01"
      },
      "object": "pte",
      "mainEntityOfPage": "https://www.contratacion.euskadi.eus/webkpe00-kperoc/es/ac71aBusquedaRegistrosWar/empresa/03223",
      "_links": {
        "self": {
          "name": "ARRIKO, S.A.",
          "href": "https://api.euskadi.eus/procurements/companies/03223"
        }
      }
    },
    {
      "name": "GERIZATUZ GIZARTE ZERBITZUAK, S.L.",
      "registrationNumber": "03225",
      "identificationNumber": "B95274973",
      "address": "SANTI BROUARD, 1-7º",
      "location": {
        "postalCode": "48950",
        "municipality": "Erandio",
        "county": "Bizkaia",
        "municipalityId": "902",
        "countyId": "48"
      },
      "object": ".",
      "mainEntityOfPage": "https://www.contratacion.euskadi.eus/webkpe00-kperoc/es/ac71aBusquedaRegistrosWar/empresa/03225",
      "_links": {
        "self": {
          "name": "GERIZATUZ GIZARTE ZERBITZUAK, S.L.",
          "href": "https://api.euskadi.eus/procurements/companies/03225"
        }
      }
    },
    {
      "name": "LIZAR TRABAJOS FORESTALES, S.L.",
      "registrationNumber": "03230",
      "identificationNumber": "B95096699",
      "address": "GP. BEGOÑALDE, 3",
      "location": {
        "postalCode": "48007",
        "municipality": "Bilbao",
        "county": "Bizkaia",
        "municipalityId": "020",
        "countyId": "48"
      },
      "object": "pte",
      "mainEntityOfPage": "https://www.contratacion.euskadi.eus/webkpe00-kperoc/es/ac71aBusquedaRegistrosWar/empresa/03230",
      "_links": {
        "self": {
          "name": "LIZAR TRABAJOS FORESTALES, S.L.",
          "href": "https://api.euskadi.eus/procurements/companies/03230"
        }
      }
    },
    {
      "name": "OBRAS ESPECIALES GIPUZKOA, S.A.",
      "registrationNumber": "03233",
      "identificationNumber": "A20812802",
      "address": "CAMINO DE PORTUETXE, 45 -B 1º OFICINA 7",
      "location": {
        "postalCode": "20018",
        "municipality": "Donostia / San Sebastián",
        "county": "Gipuzkoa",
        "municipalityId": "069",
        "countyId": "20"
      },
      "object": "pte",
      "mainEntityOfPage": "https://www.contratacion.euskadi.eus/webkpe00-kperoc/es/ac71aBusquedaRegistrosWar/empresa/03233",
      "_links": {
        "self": {
          "name": "OBRAS ESPECIALES GIPUZKOA, S.A.",
          "href": "https://api.euskadi.eus/procurements/companies/03233"
        }
      }
    },
    {
      "name": "LAUSA, S.A. SERVICIOS Y PROYECTOS",
      "registrationNumber": "03237",
      "identificationNumber": "A95231551",
      "address": "POL. ERROTATXU, 9-A",
      "location": {
        "postalCode": "48993",
        "municipality": "Getxo",
        "county": "Bizkaia",
        "municipalityId": "044",
        "countyId": "48"
      },
      "object": "Pte.",
      "mainEntityOfPage": "https://www.contratacion.euskadi.eus/webkpe00-kperoc/es/ac71aBusquedaRegistrosWar/empresa/03237",
      "_links": {
        "self": {
          "name": "LAUSA, S.A. SERVICIOS Y PROYECTOS",
          "href": "https://api.euskadi.eus/procurements/companies/03237"
        }
      }
    },
    {
      "name": "BYBLOS RESTAURACION Y ENCUADERNACION, S.L.",
      "registrationNumber": "03253",
      "identificationNumber": "B95419198",
      "address": "URBANIZACIÓN GOIERRI, Nº 2-3ºA",
      "location": {
        "postalCode": "48650",
        "municipality": "Barrika",
        "county": "Bizkaia",
        "municipalityId": "014",
        "countyId": "48"
      },
      "object": "Restauracion",
      "mainEntityOfPage": "https://www.contratacion.euskadi.eus/webkpe00-kperoc/es/ac71aBusquedaRegistrosWar/empresa/03253",
      "_links": {
        "self": {
          "name": "BYBLOS RESTAURACION Y ENCUADERNACION, S.L.",
          "href": "https://api.euskadi.eus/procurements/companies/03253"
        }
      }
    },
    {
      "name": "CONSTRUCCIONES GRAISU, S.L.",
      "registrationNumber": "03278",
      "identificationNumber": "B48957229",
      "address": "KAREAGA, 111 1ª DPTO. 3",
      "location": {
        "postalCode": "48903",
        "municipality": "Barakaldo",
        "county": "Bizkaia",
        "municipalityId": "013",
        "countyId": "48"
      },
      "object": "pte",
      "mainEntityOfPage": "https://www.contratacion.euskadi.eus/webkpe00-kperoc/es/ac71aBusquedaRegistrosWar/empresa/03278",
      "_links": {
        "self": {
          "name": "CONSTRUCCIONES GRAISU, S.L.",
          "href": "https://api.euskadi.eus/procurements/companies/03278"
        }
      }
    },
    {
      "name": "ENTERTAINMENT PAUSOKA S.L.",
      "registrationNumber": "03289",
      "identificationNumber": "B20784948",
      "address": "CM MUNDAIZ 6",
      "location": {
        "postalCode": "20012",
        "municipality": "Donostia / San Sebastián",
        "county": "Gipuzkoa",
        "municipalityId": "069",
        "countyId": "20"
      },
      "object": "pte",
      "mainEntityOfPage": "https://www.contratacion.euskadi.eus/webkpe00-kperoc/es/ac71aBusquedaRegistrosWar/empresa/03289",
      "_links": {
        "self": {
          "name": "ENTERTAINMENT PAUSOKA S.L.",
          "href": "https://api.euskadi.eus/procurements/companies/03289"
        }
      }
    },
    {
      "name": "MEDELNOR, S.L.",
      "registrationNumber": "03310",
      "identificationNumber": "B01219062",
      "address": "P.I. LACORZANILLA P.31-32",
      "location": {
        "postalCode": "01218",
        "municipality": "Berantevilla",
        "county": "Araba/Álava",
        "municipalityId": "014",
        "countyId": "01"
      },
      "object": "pte",
      "mainEntityOfPage": "https://www.contratacion.euskadi.eus/webkpe00-kperoc/es/ac71aBusquedaRegistrosWar/empresa/03310",
      "_links": {
        "self": {
          "name": "MEDELNOR, S.L.",
          "href": "https://api.euskadi.eus/procurements/companies/03310"
        }
      }
    },
    {
      "name": "INSTALACIÓN TUBERÍA DE GAS ITG, S.L.",
      "registrationNumber": "03325",
      "identificationNumber": "B48869630",
      "address": "GALLARRAGA 5 BIS, DPTO. 7-8 (SODUPE)",
      "location": {
        "postalCode": "48830",
        "municipality": "Güeñes",
        "county": "Bizkaia",
        "municipalityId": "045",
        "countyId": "48"
      },
      "object": "pte",
      "mainEntityOfPage": "https://www.contratacion.euskadi.eus/webkpe00-kperoc/es/ac71aBusquedaRegistrosWar/empresa/03325",
      "_links": {
        "self": {
          "name": "INSTALACIÓN TUBERÍA DE GAS ITG, S.L.",
          "href": "https://api.euskadi.eus/procurements/companies/03325"
        }
      }
    }
  ]
}