{
  "totalItems": 9042,
  "totalPages": 905,
  "currentPage": 294,
  "itemsOfPage": 10,
  "items": [
    {
      "name": "ZURIÑE LEDO BONO",
      "registrationNumber": "05911",
      "identificationNumber": "72745759W",
      "address": "Castro Urdiales nº 10",
      "location": {
        "postalCode": "01006",
        "municipality": "Vitoria-Gasteiz",
        "county": "Araba/Álava",
        "municipalityId": "059",
        "countyId": "01"
      },
      "economicActivities": [
        {
          "id": "1.849.7",
          "name": "Servicios de gestión administrativa",
          "_links": {
            "self": {
              "name": "Servicios de gestión administrativa",
              "href": "https://api.euskadi.eus/procurements/companies/economic-activities/1.849.7"
            }
          }
        },
        {
          "id": "1.922",
          "name": "Servicios de limpieza",
          "_links": {
            "self": {
              "name": "Servicios de limpieza",
              "href": "https://api.euskadi.eus/procurements/companies/economic-activities/1.922"
            }
          }
        }
      ],
      "certificateStartDate": "2025-09-08",
      "certificateEndDate": "2026-03-08",
      "object": "SERVICIOS DE GESTIÓN ADMINISTRATIVA",
      "mainEntityOfPage": "https://www.contratacion.euskadi.eus/webkpe00-kperoc/es/ac71aBusquedaRegistrosWar/empresa/05911",
      "_links": {
        "self": {
          "name": "ZURIÑE LEDO BONO",
          "href": "https://api.euskadi.eus/procurements/companies/05911"
        }
      }
    },
    {
      "name": "FISHER SCIENTIFIC, S.L.",
      "registrationNumber": "04353",
      "identificationNumber": "B84498955",
      "address": "Anabel Segura, 16; Edif.2; Pta.3",
      "location": {
        "postalCode": "28108",
        "municipality": "Alcobendas",
        "county": "Madrid",
        "municipalityId": "006",
        "countyId": "28"
      },
      "economicActivities": [
        {
          "id": "1.616.6",
          "name": "Venta al por mayor de productos químicos industriales",
          "_links": {
            "self": {
              "name": "Venta al por mayor de productos químicos industriales",
              "href": "https://api.euskadi.eus/procurements/companies/economic-activities/1.616.6"
            }
          }
        },
        {
          "id": "1.619.7",
          "name": "Venta al por mayor de instrumentos de precisión, medida y similares",
          "_links": {
            "self": {
              "name": "Venta al por mayor de instrumentos de precisión, medida y similares",
              "href": "https://api.euskadi.eus/procurements/companies/economic-activities/1.619.7"
            }
          }
        }
      ],
      "certificateStartDate": "2025-09-08",
      "certificateEndDate": "2026-03-05",
      "object": "COMPRAVENTA DE TODO TIPO DE INSTRUMENTOS, EQUIPAMIENTO Y PIEZAS DE REPUESTO PARA ACTIVIDADES DE INVESTIGACIÓN, LABORATORIOS, INDUSTRIA Y SANIDAD, LA COMPRAVENTA DE SUMINISTROS, MATERIAS PRIMAS Y PRODUCTOS QUÍMICOS PARA SU USO EN LABORATORIOS Y LA PESTACIÓN DE SERVICIOS DE GESTIÓN DE INVENTARIOS Y STOCK Y SERVICIOS LOGÍSTICOS",
      "mainEntityOfPage": "https://www.contratacion.euskadi.eus/webkpe00-kperoc/es/ac71aBusquedaRegistrosWar/empresa/04353",
      "_links": {
        "self": {
          "name": "FISHER SCIENTIFIC, S.L.",
          "href": "https://api.euskadi.eus/procurements/companies/04353"
        }
      }
    },
    {
      "name": "FEDUR, S.A.",
      "registrationNumber": "06983",
      "identificationNumber": "A50096940",
      "address": "Calle Brazal Almotilla 4",
      "location": {
        "postalCode": "50410",
        "municipality": "Cuarte de Huerva",
        "county": "Zaragoza",
        "municipalityId": "089",
        "countyId": "50"
      },
      "economicActivities": [
        {
          "id": "1.495.9",
          "name": "Fabricación de otros artículos n.c.o.p",
          "_links": {
            "self": {
              "name": "Fabricación de otros artículos n.c.o.p",
              "href": "https://api.euskadi.eus/procurements/companies/economic-activities/1.495.9"
            }
          }
        }
      ],
      "certificateStartDate": "2025-09-08",
      "certificateEndDate": "2026-03-08",
      "object": "LA FABRICACIÓN Y VENTA, AL POR MAYOR Y AL POR MENOR, DE ARTÍCULOS Y MATERIAL PARA DEFENSA PERSONAL DE LAS FUERZAS ARMADAS, POLICÍA GUBERNATIVA, MUNICIPAL, AUTONÓMICA, ETC., TALES COMO CASCOS, ESCUDOS, UNIFORMES, ASÍ COMO MATERIAL DEPORTIVO DE TODAS CLASES",
      "mainEntityOfPage": "https://www.contratacion.euskadi.eus/webkpe00-kperoc/es/ac71aBusquedaRegistrosWar/empresa/06983",
      "_links": {
        "self": {
          "name": "FEDUR, S.A.",
          "href": "https://api.euskadi.eus/procurements/companies/06983"
        }
      }
    },
    {
      "name": "EUSKOPAIN, S.L.",
      "registrationNumber": "08740",
      "identificationNumber": "B67831958",
      "address": "Zumalakarregi 2-3ºA",
      "location": {
        "postalCode": "48200",
        "municipality": "Durango",
        "county": "Bizkaia",
        "municipalityId": "027",
        "countyId": "48"
      },
      "economicActivities": [
        {
          "id": "1.942.1",
          "name": "Consultorios médicos, centros de socorro sanitarios y urgencias",
          "_links": {
            "self": {
              "name": "Consultorios médicos, centros de socorro sanitarios y urgencias",
              "href": "https://api.euskadi.eus/procurements/companies/economic-activities/1.942.1"
            }
          }
        }
      ],
      "certificateStartDate": "2025-09-08",
      "certificateEndDate": "2026-03-04",
      "object": "A) EL DESARROLLO DE ACTIVIDADES SANITARIAS Y MÉDICAS, CONTANDO AL EFECTO CON FACULTATIVOS CON TITULACIÓN SUFICIENTE Y PERSONAL HABILITADO LEGALMENTE PARA EL EJERCICIO DE DICHAS ACTIVIDADES, EN AQUELLOS SUPUESTOS EN QUE TAL HABILITACIÓN SEA EXIGIDA POR LAS LEYES. B) ASESORAR, ORGANIZAR E IMPARTIR CURSOS DE FORMACIÓN, CONGRESOS Y REUNIONES, TANTO A MÉDICOS COMO ENFERMERAS Y OTROS POSTGRADUADOS SANITARIOS EN TODAS LAS ÁREAS DEL CONOCIMIENTO, TANTO TEÓRICA, COMO PRÁCTICA, COMO INVESTIGADORA Y DE GESTIÓN.",
      "mainEntityOfPage": "https://www.contratacion.euskadi.eus/webkpe00-kperoc/es/ac71aBusquedaRegistrosWar/empresa/08740",
      "_links": {
        "self": {
          "name": "EUSKOPAIN, S.L.",
          "href": "https://api.euskadi.eus/procurements/companies/08740"
        }
      }
    },
    {
      "name": "TÁCTICA 4 CONSULTORES DE GESTIÓN, S.L.",
      "registrationNumber": "09287",
      "identificationNumber": "B56526999",
      "address": "Cl. Villalba Hervás 2, 9º - 8",
      "location": {
        "postalCode": "38002",
        "municipality": "Santa Cruz de Tenerife",
        "county": "Santa Cruz de Tenerife",
        "municipalityId": "038",
        "countyId": "38"
      },
      "economicActivities": [
        {
          "id": "1.843.1",
          "name": "Servicios técnicos de ingeniería",
          "_links": {
            "self": {
              "name": "Servicios técnicos de ingeniería",
              "href": "https://api.euskadi.eus/procurements/companies/economic-activities/1.843.1"
            }
          }
        }
      ],
      "certificateStartDate": "2025-09-08",
      "certificateEndDate": "2026-03-08",
      "object": "1.- CONSULTORÍA PARA LA CONTRATACIÓN PÚBLICA DE OBRAS, SERVICIOS Y SUMINISTROS, COMO ASISTENCIA TÉCNICA AL ÓRGANO DE CONTRATACIÓN, MEDIANTE LA TOMA DE DATOS, LA ELABORACIÓN DE ESTUDIOS PREVIOS, DE ESTUDIOS ECONÓMICO-FINANCIEROS, EL DISEÑO Y DIMENSIONAMIENTO, LA REDACCIÓN DE LAS PRESCRIPCIONES TÉCNICAS Y LAS CLÁUSULAS ADMINISTRATIVAS PARTICULARES, LA REDACCIÓN O CONTESTACIÓN A RECURSOS, LA ASISTENCIA A LA MESA DE CONTRATACIÓN Y CUALQUIER OTRA ACTUACIÓN PROPIA DE LA GESTIÓN DE LOS EXPEDIENTES DE CONTRATACIÓN PÚBLICA. 2.- CONSULTORÍA PRODUCTIVA, COMERCIAL, ORGANIZATIVA, ECONÓMICA, ADMINISTRATIVA, JURÍDICA, DE COMPRAS, DE SISTEMAS, DE PROCEDIMIENTOS Y DE RECURSOS HUMANOS PARA PROFESIONALES, COMUNIDADES, SOCIEDADES MERCANTILES, COOPERATIVAS, ASOCIACIONES, FUNDACIONES Y ADMINISTRACIONES PÚBLICAS. 3.- EJERCER LAS ATRIBUCIONES DE RESPONSABLE DEL CONTRATO PARA EMPRESAS PÚBLICAS, ORGANISMOS Y OTRAS ENTIDADES PÚBLICAS, Y ADMINISTRACIONES PÚBLICAS. 4.- REDACCIÓN DE PROYECTOS DE INGENIERÍA Y DOCUMENTACIÓN COMPLEMENTARIA, LA DIRECCIÓN DE OBRA Y LA EJECUCIÓN DE INFRAESTRUCTURAS E INSTALACIONES. 5.- REDACCIÓN DE ESTUDIOS TÉCNICOS, MEDIO AMBIENTALES, ECONÓMICOS, DE MERCADO, DE VIABILIDAD, DE VALORACIÓN DE NEGOCIOS Y EMPRESAS. 6.- ACTUAR COMO PERITO EN ASUNTOS RELACIONADOS CON LAS ACTIVIDADES INCLUIDAS EN ESTE OBJETO. 7.- ACTUAR COMO INTERIM MANAGER PARA LA DIRECCIÓN TEMPORAL DE EMPRESAS O DE UN DEPARTAMENTO CONCRETO DENTRO DE UNA EMPRESA. 8.- IMPARTIR FORMACIÓN RELACIONADA CON LA ACTIVIDAD EMPRESARIAL Y DE LAS ADMINISTRACIONES PÚBLICAS, ASÍ COMO LA PUBLICACIÓN Y DIVULGACIÓN DE CONTENIDOS EN TODO TIPO DE SOPORTE. 9.- PRESTACIÓN DE TODO TIPO DE SERVICIOS PÚBLICOS A TRAVÉS DE CUALQUIERA QUE SEA LA MODALIDAD DE CONTRATACIÓN POR PARTE LA ADMINISTRACIÓN PÚBLICA COMPETENTE. 10.- PRESTACIÓN DE SERVICIOS SANITARIOS, SOCIOSANITARIOS, DE ATENCIÓN Y CUIDADO PERSONALES. 11.- PRESTACIÓN DE SERVICIOS TURÍSTICOS Y LA GESTIÓN DE ALOJAMIENTOS. 12.- DESARROLLO, ADAPTACIÓN Y PARAMETRIZACIÓN DE PROGRAMAS INFORMÁTICOS. 13.- DISEÑO, SUMINISTRO Y MANTENIMIENTO DE TODO TIPO DE EQUIPOS INFORMÁTICOS, SERVIDORES, REDES DE DATOS Y DE COMUNICACIONES, SISTEMAS AUDIOVISUALES Y DE IMPRESIÓN. 14.- EJERCER DE MATRIZ DE HOLDING MEDIANTE LA PARTICIPACIÓN EN TODO TIPO DE NEGOCIOS Y SOCIEDADES COMO INVERSORA O ASUMIENDO ATRIBUCIONES DE ADMINISTRADORA, EN SU CASO, INCLUYENDO LA TENENCIA DE ACCIONES, SUSCRIPCIÓN DE TÍTULOS O DERECHOS.",
      "mainEntityOfPage": "https://www.contratacion.euskadi.eus/webkpe00-kperoc/es/ac71aBusquedaRegistrosWar/empresa/09287",
      "_links": {
        "self": {
          "name": "TÁCTICA 4 CONSULTORES DE GESTIÓN, S.L.",
          "href": "https://api.euskadi.eus/procurements/companies/09287"
        }
      }
    },
    {
      "name": "JOSE LUIS URRAZA SALCEDO",
      "registrationNumber": "09842",
      "identificationNumber": "30581643S",
      "address": "C/ Andalucia 4 4ºA",
      "location": {
        "postalCode": "48970",
        "municipality": "Basauri",
        "county": "Bizkaia",
        "municipalityId": "015",
        "countyId": "48"
      },
      "economicActivities": [
        {
          "id": "1.849.5",
          "name": "Servicios de recadería y reparto y manipulación de correspondencia",
          "_links": {
            "self": {
              "name": "Servicios de recadería y reparto y manipulación de correspondencia",
              "href": "https://api.euskadi.eus/procurements/companies/economic-activities/1.849.5"
            }
          }
        }
      ],
      "certificateStartDate": "2025-09-08",
      "certificateEndDate": "2026-03-08",
      "object": "SERVICIOS DE RECADERÍA Y REPARTO Y MANIPULACIÓN DE CORRESPONDENCIA.",
      "mainEntityOfPage": "https://www.contratacion.euskadi.eus/webkpe00-kperoc/es/ac71aBusquedaRegistrosWar/empresa/09842",
      "_links": {
        "self": {
          "name": "JOSE LUIS URRAZA SALCEDO",
          "href": "https://api.euskadi.eus/procurements/companies/09842"
        }
      }
    },
    {
      "name": "SOLITIUM S.L.",
      "registrationNumber": "06363",
      "identificationNumber": "B50570571",
      "address": "c/Bari, 39. Plataforma Logística PLAZA",
      "location": {
        "postalCode": "50197",
        "municipality": "Zaragoza",
        "county": "Zaragoza",
        "municipalityId": "297",
        "countyId": "50"
      },
      "economicActivities": [
        {
          "id": "1.617.8",
          "name": "Venta al por mayor de máquinas y material de oficina",
          "_links": {
            "self": {
              "name": "Venta al por mayor de máquinas y material de oficina",
              "href": "https://api.euskadi.eus/procurements/companies/economic-activities/1.617.8"
            }
          }
        },
        {
          "id": "1.659.2",
          "name": "Venta al por menor de muebles de oficina y máquinas y equipos de oficina",
          "_links": {
            "self": {
              "name": "Venta al por menor de muebles de oficina y máquinas y equipos de oficina",
              "href": "https://api.euskadi.eus/procurements/companies/economic-activities/1.659.2"
            }
          }
        },
        {
          "id": "1.691.9",
          "name": "Reparación de otros bienes de consumo n.c.o.p",
          "_links": {
            "self": {
              "name": "Reparación de otros bienes de consumo n.c.o.p",
              "href": "https://api.euskadi.eus/procurements/companies/economic-activities/1.691.9"
            }
          }
        },
        {
          "id": "1.853",
          "name": "Alquiler de maquinaria y equipo contable de oficina y cálculo",
          "_links": {
            "self": {
              "name": "Alquiler de maquinaria y equipo contable de oficina y cálculo",
              "href": "https://api.euskadi.eus/procurements/companies/economic-activities/1.853"
            }
          }
        }
      ],
      "certificateStartDate": "2025-09-08",
      "certificateEndDate": "2026-03-08",
      "object": "EL COMERCIO (TANTO AL POR MENOR COMO AL POR MAYOR), MANTENIMIENTO, REPARACIÓN, ALQUILER, REPRESENTACIÓN Y EXPLOTACIÓN, DE TODO TIPO DE MÁQUINAS Y EQUIPOS DE OFICINA, CAJAS REGISTRADORAS, FOTOCOPIADORAS, ORDENADORES Y MÁQUINAS DE HOSTELERÍA Y COMERCIO, SU IMPORTACIÓN Y EXPORTACIÓN; ASÍ COMO EL COMERCIO DE TODO TIPO DE CONSUMIBLES, RECAMBIOS Y PIEZAS QUE ESTE TIPO DE EQUIPAMIENTOS NECESITE PARA SU FUNCIONAMIENTO Y CONSERVACIÓN. -LA COMPRAVENTA, EXPLOTACIÓN, ARRENDAMIENTO NO FINANCIERO O APARCERÍA DE TODA CLASE DE BIENES INMUEBLES RÚSTICOS O URBANOS. -LA ADQUISICIÓN Y ENAJENACIÓN DE ACCIONES Y PARTICIPACIONES REPRESENTATIVAS DEL CAPITAL SOCIAL DE CUALQUIER TIPO DE SOCIEDAD, INCLUSO DE AQUELLAS DE IDÉNTICO O ANÁLOGO OBJETO SOCIAL, MEDIANTE SU SUSCRIPCIÓN O ASUNCIÓN EN LA CONSTITUCIÓN O AUMENTO DE CAPITAL, O POR CUALQUIER OTRO TÍTULO, AS{ COMO LA DIRECCIÓN Y GESTIÓN DE SUS ACCIONES Y PARTICIPACIONES, Y DEL CONJUNTO DE LAS ACTIVIDADES ECONÓMICAS DE DICHAS SOCIEDADES, CONTANDO PARA ELLO CON LA CORRESPONDIENTE ORGANIZACIÓN DE MEDIOS MATERIALES Y PERSONALES NECESARIOS. QUEDARÁN ÚNICAMENTE EXCLUIDAS DE SU OBJETO SOCIAL LAS ACTIVIDADES ATRIBUIDAS POR LA LEY 35/2003, DE 4 DE NOVIEMBRE, DE INSTITUCIONES DE INVERSIÓN COLECTIVA Y POR LA LEY 24/1988, DE 28 DE JULIO, DE MERCAD~ DE VALORES, A LAS ENTIDADES CONTEMPLADAS EN LAS MISMAS",
      "mainEntityOfPage": "https://www.contratacion.euskadi.eus/webkpe00-kperoc/es/ac71aBusquedaRegistrosWar/empresa/06363",
      "_links": {
        "self": {
          "name": "SOLITIUM S.L.",
          "href": "https://api.euskadi.eus/procurements/companies/06363"
        }
      }
    },
    {
      "name": "AMEKADI S.COOP. PEQUEÑA",
      "registrationNumber": "09047",
      "identificationNumber": "F95739652",
      "address": "plaza levante 2 1 dcha",
      "location": {
        "postalCode": "48015",
        "municipality": "Bilbao",
        "county": "Bizkaia",
        "municipalityId": "020",
        "countyId": "48"
      },
      "economicActivities": [
        {
          "id": "1.844",
          "name": "Servicios de publicidad, relaciones públicas y similares",
          "_links": {
            "self": {
              "name": "Servicios de publicidad, relaciones públicas y similares",
              "href": "https://api.euskadi.eus/procurements/companies/economic-activities/1.844"
            }
          }
        },
        {
          "id": "1.934",
          "name": "Enseñanza fuera de establecimiento permanente",
          "_links": {
            "self": {
              "name": "Enseñanza fuera de establecimiento permanente",
              "href": "https://api.euskadi.eus/procurements/companies/economic-activities/1.934"
            }
          }
        },
        {
          "id": "1.999",
          "name": "Otros servicios n.c.o.p",
          "_links": {
            "self": {
              "name": "Otros servicios n.c.o.p",
              "href": "https://api.euskadi.eus/procurements/companies/economic-activities/1.999"
            }
          }
        }
      ],
      "certificateStartDate": "2025-09-08",
      "certificateEndDate": "2026-03-08",
      "object": "- PROMOVER LA CONVIVENCIA Y CULTURA DE PAZ A TRAVÉS DEL DIÁLOGO Y LA PARTICIPACIÓN CIUDADANA PARA LA GESTIÓN PACÍFICA DE CONFLICTOS. - PREVENIR, PROVENIR, GESTIONAR, INVESTIGAR Y EVALUAR MÉTODOS Y TÉCNICAS DE TRANSFORMACIÓN DE SITUACIONES CONVIVENCIALES COTIDIANAS, TANTO INDIVIDUALES, COMO COLECTIVAS (COMUNITARIAS, SOCIALES, ORGANIZACIONALES, ENTRE OTRAS) EN LAS QUE LAS PERSONAS PUEDAN CONFLICTUAR A TRAVÉS DE LA CREACIÓN DE ESPACIOS DE DIÁLOGO Y CONSTRUCCIÓN COLECTIVA. - GESTIONAR, INVESTIGAR Y EVALUAR PROYECTOS Y PROCESOS QUE EXPLOREN LA DIVERSIDAD PARA PROMOVER RELACIONES IGUALITARIAS ENTRE LOS MIEMBROS DE UNA COMUNIDAD A TRAVÉS DE LA EXPRESIÓN CREATIVA Y LA PARTICIPACIÓN, YA SEA EN ESPACIOS FÍSICOS COMO ESPACIOS DIGITALES. - GESTIONAR, INVESTIGAR Y EVALUAR PROYECTOS Y PROCESOS DE PARTICIPACIÓN INCLUYENDO LOS DERECHOS HUMANOS DESDE LA MEDIACIÓN Y LA FACILITACIÓN DE GRUPOS, QUE FAVOREZCAN LA INCLUSIÓN Y EL DESARROLLO DE LAS PERSONAS, ORGANIZACIONES Y COMUNIDADES. - PROMOVER ESPACIOS DE DIÁLOGO Y CONVIVENCIA PARA DIVERSOS COLECTIVOS, EDADES, PERFILES Y DIMENSIONES: COMUNITARIA, SOCIAL, ORGANIZACIONAL, ENTRE OTRAS. FOMENTAR EL CAMBIO CONSTRUCTIVO, POSITIVO Y DESARROLLO DE LOS GRUPOS Y LAS PERSONAS, EN LAS DIVERSAS DIMENSIONES: INDIVIDUAL, SOCIAL, ORGANIZACIONAL, COMUNITARIA, ENTRE OTRAS. - FAVORECER LA ACCESIBILIDAD DIGITAL A TRAVÉS DE ENTORNOS DIGITALES Y PRESENCIALES TANTO DE FORMA INDIVIDUAL, COMO COLECTIVA (COMUNITARIAS, SOCIALES, ORGANIZACIONALES, ENTRE OTRAS.) IMPULSANDO NUEVAS FORMAS DE HACER Y DE CREAR Y MANTENER RELACIONES INTERPERSONALES Y COLECTIVAS, A TRAVÉS DE LA GESTIÓN POSITIVA DE LAS TRICS. - INCIDIR EN EL PROCESO DE TRANSFORMACIÓN DEL SISTEMA ECONÓMICO, POLÍTICO Y SOCIAL ACTUAL TANTO DE LOS PAÍSES EMPOBRECIDOS COMO A NIVEL EUROPEO Y GLOBAL, SIENDO LA COOPERACIÓN PARA EL DESARROLLO Y LA EDUCACIÓN PARA LA TRANSFORMACIÓN SOCIAL INSTRUMENTOS FUNDAMENTALES. CUALQUIER OTRA ACTIVIDAD RELACIONADA CON EL ÁMBITO SOCIAL, LA CONVIVENCIA PACÍFICA, LOS MÉTODOS DE GESTIÓN PACÍFICA DE CONFLICTOS Y DERECHOS HUMANOS.",
      "mainEntityOfPage": "https://www.contratacion.euskadi.eus/webkpe00-kperoc/es/ac71aBusquedaRegistrosWar/empresa/09047",
      "_links": {
        "self": {
          "name": "AMEKADI S.COOP. PEQUEÑA",
          "href": "https://api.euskadi.eus/procurements/companies/09047"
        }
      }
    },
    {
      "name": "LEIOA BERRI AUTO, S.L.",
      "registrationNumber": "02461",
      "identificationNumber": "B48985295",
      "address": "C/IPARRAGUIRRE, 94",
      "location": {
        "postalCode": "48000",
        "municipality": "Leioa",
        "county": "Bizkaia",
        "municipalityId": "054",
        "countyId": "48"
      },
      "economicActivities": [
        {
          "id": "1.654.1",
          "name": "Venta al por menor de vehículos terrestres",
          "_links": {
            "self": {
              "name": "Venta al por menor de vehículos terrestres",
              "href": "https://api.euskadi.eus/procurements/companies/economic-activities/1.654.1"
            }
          }
        },
        {
          "id": "1.691.2",
          "name": "Reparación de vehículos automóviles, bicicletas y otros vehículos",
          "_links": {
            "self": {
              "name": "Reparación de vehículos automóviles, bicicletas y otros vehículos",
              "href": "https://api.euskadi.eus/procurements/companies/economic-activities/1.691.2"
            }
          }
        },
        {
          "id": "1.854.1",
          "name": "Alquiler de automóviles sin conductor",
          "_links": {
            "self": {
              "name": "Alquiler de automóviles sin conductor",
              "href": "https://api.euskadi.eus/procurements/companies/economic-activities/1.854.1"
            }
          }
        },
        {
          "id": "1.854.2",
          "name": "Alquiler de automóviles sin conductor en régimen de \"renting\"",
          "_links": {
            "self": {
              "name": "Alquiler de automóviles sin conductor en régimen de \"renting\"",
              "href": "https://api.euskadi.eus/procurements/companies/economic-activities/1.854.2"
            }
          }
        }
      ],
      "certificateStartDate": "2025-09-08",
      "certificateEndDate": "2026-03-08",
      "object": "LA COMPRAVENTA, IMPORTACIÓN, REPARACIÓN Y ENTRETENIMIENTO DE TODA CLASE DE VEHÍCULOS A MOTOR, ASÍ COMO DE TODA CLASE DE ACCESORIOS, REPUESTOS, CARBURANTES Y LUBRICANTES PARA LOS MISMOS; Y, LA ACTIVIDAD DE TRANSPORTES DE VEHÍCULOS Y MERCANCIAS EN GENERAL, ASÍ COMO EL ALQUILER DE VEHÍCULOS SIN CONDUCTOR; Y, LA REPRESENTACIÓN COMO AGENTE, DELEGADO, COMISIONISTA O CUALQUIER OTRA FORMA DE MEDIACIÓN MERCANTIL DE TODA CLASE DE EMPRESAS NACIONALES O EXTRANJERAS RELACIONADAS CON EL ÁMBITO DE LA AUTOMOCIÓN",
      "mainEntityOfPage": "https://www.contratacion.euskadi.eus/webkpe00-kperoc/es/ac71aBusquedaRegistrosWar/empresa/02461",
      "_links": {
        "self": {
          "name": "LEIOA BERRI AUTO, S.L.",
          "href": "https://api.euskadi.eus/procurements/companies/02461"
        }
      }
    },
    {
      "name": "EUCLEAN SERVICIOS DE LIMPIEZA, S.L.",
      "registrationNumber": "09840",
      "identificationNumber": "B83769638",
      "address": "C/ DEPÓSITOS, 1",
      "location": {
        "postalCode": "28903",
        "municipality": "Getafe",
        "county": "Madrid",
        "municipalityId": "065",
        "countyId": "28"
      },
      "economicActivities": [
        {
          "id": "1.922",
          "name": "Servicios de limpieza",
          "_links": {
            "self": {
              "name": "Servicios de limpieza",
              "href": "https://api.euskadi.eus/procurements/companies/economic-activities/1.922"
            }
          }
        }
      ],
      "certificateStartDate": "2025-09-08",
      "certificateEndDate": "2026-03-08",
      "object": "LA REALIZACIÓN DE TAREAS DE SEGURIDAD Y VIGILANCIA DE EDIFICIOS Y LOCALES. LAS ACTIVIDADES DE LIMPIEZA Y MANTENIMIENTO INTEGRAL DE EDIFICIOS, COMUNIDADES DE PROPIETARIOS, NEGOCIOS Y OFICINAS, INCLUIDOS LOS SERVICIOS RELATIVOS A LA JARDINERÍA. LA COMPRAVENTA, GESTIÓN Y EXPLOTACIÓN DE TODO TIPO DE INMUEBLES YA SEA EN RÉGIMEN DE PROPIEDAD O EN ARRENDAMIENTO, EXCLUIDO EL FINANCIERO. LA REALIZACIÓN DE OBRAS DE ALBAÑILERÍA Y CONSTRUCCIÓN COMPLETA Y PROMOCIÓN DE TODO TIPO DE EDIFICIOS, ASÍ COMO LA REALIZACIÓN DE OBRAS PÚBLICAS Y LAS TAREAS DE DECORACIÓN Y PINTURA. LA CESIÓN Y CONTRATACIÓN DE PERSONAL A EMPRESAS, PERSONAS FÍSICAS Y JURÍDICAS, INCLUIDA LA CONTRATACIÓN PARA CEDERLOS TEMPORALMENTE A OTRA EMPRESAS EN LOS TÉRMINOS QUE LEGALMENTE SE ESTABLEZCAN PARA LAS EMPRESAS DE TRABAJO TEMPORAL, EN TODO EL TERRITORIO NACIONAL Y FUERA DE ESPAÑA. TRANSPORTE DE TODO TIPO DE MERCANCÍAS POR CARRETERA, PROPIAS O DE TERCEROS.",
      "mainEntityOfPage": "https://www.contratacion.euskadi.eus/webkpe00-kperoc/es/ac71aBusquedaRegistrosWar/empresa/09840",
      "_links": {
        "self": {
          "name": "EUCLEAN SERVICIOS DE LIMPIEZA, S.L.",
          "href": "https://api.euskadi.eus/procurements/companies/09840"
        }
      }
    }
  ]
}