{
  "totalItems": 9042,
  "totalPages": 905,
  "currentPage": 576,
  "itemsOfPage": 10,
  "items": [
    {
      "name": "MINDRAY MEDICAL ESPAÑA, S.L.",
      "registrationNumber": "06979",
      "identificationNumber": "B86029311",
      "address": "Avenida de Burgos 114, Edificio Cetil I, 1ª Planta",
      "location": {
        "postalCode": "28050",
        "municipality": "Madrid",
        "county": "Madrid",
        "municipalityId": "079",
        "countyId": "28"
      },
      "economicActivities": [
        {
          "id": "1.619.2",
          "name": "Venta al por mayor de aparatos e instrumentos médicos, ortopédicos, ópticos",
          "_links": {
            "self": {
              "name": "Venta al por mayor de aparatos e instrumentos médicos, ortopédicos, ópticos",
              "href": "https://api.euskadi.eus/procurements/companies/economic-activities/1.619.2"
            }
          }
        }
      ],
      "certificateStartDate": "2020-04-30",
      "certificateEndDate": "2020-08-07",
      "object": "-IMPORTAR, EXPORTAR, DISTRIBUIR, VENDER, DIRECTA O INDIRECTAMENTE, CUALQUIER EQUIPO MÉDICO Y ELECTRO MÉDICO, ASÍ COMO LOS PROGRAMAS INFORMÁTICOS, PIEZAS DE REPUESTO, COMPONENTES Y REACTIVOS, PROMOVER, COMERCIALIZAR LOS MENCIONADOS PRODUCTOS A TRAVÉS DE ACTIVIDAD DE LA PUBLICIDAD Y LA PARTICIPACIÓN EN CONGRESOS, SEMINARIOS Y EXPOSICIONES. -PROPORCIONAR MANTENIMIENTO Y SERVICIOS DE REPARACIÓN Y OTRA FORMA DE SERVICIOS ASOCIADOS EN RELACIÓN CON CUALQUIER EQUIPO MÉDICO Y ELECTRO-MÉDICO, ASÍ COMO LOS PROGRAMAS INFORMÁTICOS, PIEZAS DE REPUESTO, COMPONENTES Y REACTIVOS. -PRESTAR APOYO, CONSULTAS Y SERVICIOS DE FORMACIÓN Y OTROS SERVICIOS SIMILARES EN RELACIÓN CON LA VENTA Y DISTRIBUCIÓN DE CUALQUIER EQUIPO MÉDICO Y ELECTRO-MÉDICO, ASÍ COMO LOS PROGRAMAS INFORMÁTICOS, PIEZAS DE REPUESTO, COMPONENTES Y REACTIVOS",
      "mainEntityOfPage": "https://www.contratacion.euskadi.eus/webkpe00-kperoc/es/ac71aBusquedaRegistrosWar/empresa/06979",
      "_links": {
        "self": {
          "name": "MINDRAY MEDICAL ESPAÑA, S.L.",
          "href": "https://api.euskadi.eus/procurements/companies/06979"
        }
      }
    },
    {
      "name": "MAGNA DEA, S.L.",
      "registrationNumber": "06980",
      "identificationNumber": "B74282682",
      "address": "C/POSADA HERRERA Nº2 PISO 2",
      "location": {
        "postalCode": "33002",
        "municipality": "Oviedo",
        "county": "Asturias",
        "municipalityId": "044",
        "countyId": "33"
      },
      "economicActivities": [
        {
          "id": "1.843.1",
          "name": "Servicios técnicos de ingeniería",
          "_links": {
            "self": {
              "name": "Servicios técnicos de ingeniería",
              "href": "https://api.euskadi.eus/procurements/companies/economic-activities/1.843.1"
            }
          }
        }
      ],
      "certificateStartDate": "2020-04-30",
      "certificateEndDate": "2020-10-08",
      "object": "1.-LA REALIZACIÓN Y PRESTACIÓN DE SERVICIOS DE ASESORÍA Y CONSULTORÍA, INVESTIGACIÓN, PREPARACIÓN Y REDACCIÓN DE ESTUDIOS E INFORMES TÉCNICOS, COMERCIALES, ECONÓMICOS, FINANCIEROS, SOCIALES Y LABORALES; INGENIERÍA, GESTIÓN Y REALIZACIÓN DE PROYECTOS; DISEÑOS Y PROYECTOS ARQUITECTÓNICOS; DIRECCIÓN Y SUPERVISIÓN DE OBRAS; LABORES DE MANTENIMIENTO Y OTROS SERVICIOS COMO REPRESENTACIÓN COMERCIAL DE PRODUCTOS, TRATAMIENTOS INFORMÁTICOS; SISTEMAS Y CONTROL DE CALIDAD; AUDITORÍAS Y CUALQUIER TIPO DE ASISTENCIA TÉCNICA Y LA EJECUCIÓN DE TODO TIPO DE OBRAS, COMPRENDIENDO LA FINANCIACIÓN, CONSTRUCCIÓN, CONSERVACIÓN, EXPLOTACIÓN Y EL MANTENIMIENTO DE NUEVAS INFRAESTRUCTURAS Y DE OTRAS YA EXISTENTES Y CUALQUIER OTROS SERVICIOS DE APOYO A LOS ANTERIORMENTE EXPRESADOS, RELACIONADOS TODOS ELLOS CON LA EDIFICACIÓN Y OBRA CIVIL EN GENERAL, CONSTRUCCIÓN DE INFRAESTRUCTURAS DE URBANIZACIÓN Y SERVICIOS PÚBLICOS, INCLUYENDO VIALES, ACERAS, CANALIZACIONES DE AGUA, ALCANTARILLADO, CONDUCCIONES DE GAS Y ENERGÍA ELÉCTRICA Y OTROS SERVICIOS; INSTALACIÓN DE MOBILIARIO URBANO Y CUALQUIER OTRO ELEMENTO PROPIO DE UN ENTORNO URBANO. 2.LA REALIZACIÓN Y PRESTACIÓN DE SERVICIOS DE ASESORÍA Y CONSULTORÍA; INVESTIGACIÓN, PREPARACIÓN Y REDACCIÓN DE ESTUDIOS, INGENIERÍA, GESTIÓN Y REALIZACIÓN DE PROYECTOS; DISEÑO BÁSICO E INGENIERÍA DE INTERACCIÓN Y DE DETALLE; SUPERVISIÓN DE CONSTRUCCIÓN Y MONTAJE; FABRICACIÓN Y MONTAJE DE ELEMENTOS AUXILIARES; CONTROL, VIGILANCIA E INSPECCIÓN DE EQUIPOS, OBRAS E INSTALACIONES; DIRECCIÓN DE OBRAS; REALIZACIÓN DE PLANTAS LLAVE EN MANO; CONSERVACIÓN Y REALIZACIÓN DE PLANTAS LLAVE EN MANO; CONSERVACIÓN Y MANTENIMIENTO, TRATAMIENTOS INFORMÁTICOS; SISTEMAS Y CONTROL DE CALIDAD; Y CUALQUIER OTROS SERVICIOS DE APOYO A LOS ANTERIORMENTE EXPRESADOS, RELACIONADOS TODOS ELLOS CON LAS SIGUIENTES ACTIVIDADES O GRUPOS DE ACTIVIDAD; OBRAS HIDRÁULICAS, GEOTECNOLOGÍA, CIENCIA Y TECNOLOGÍA EN RELACIÓN A CUALQUIER CLASE DE METALES, NO METALES, POLÍMEROS, GASES, LÍQUIDOS Y SÓLIDOS, CIENCIA Y TECNOLOGÍA VOLTAICA, NANOTECNOLOGÍA, HIDROLOGÍA, ECOLOGÍA Y MEDIO AMBIENTE EN GENERAL; TRATAMIENTO DE AGUAS; PRODUCCIÓN, TRANSFORMACIÓN Y EXPLOTACIÓN, INCLUYENDO LA CONSTRUCCIÓN, MONTAJE Y OPERACIÓN DE CENTRALES, DE ENERGÍA SOLAR; EÓLICA, HIDRÁULICA, O DERIVADA DE LOS BIOCOMBUSTIBLES; TRATAMIENTO DE RESIDUOS Y DEPURACIÓN INDUSTRIAL Y URBANA, INCLUIDO EL APROVECHAMIENTO ENERGÉTICO DE RESIDUOS URBANOS; AUTOMATIZACIÓN Y CONTROL DE LA ENERGÍA; COGENERACIÓN; REDES DE DISTRIBUCIÓN Y CONTROL DE LA ENERGÍA; COGENERACIÓN; REDES DE DISTRIBUCIÓN Y CONTROL DE LA ENERGÍA; COGENERACIÓN; REDES DE DISTRIBUCIÓN Y TRANSPORTE DE AGUA, GAS, PETRÓLEO, ENERGÍAS RENOVABLES Y NUEVAS TECNOLOGÍAS DE GENERACIÓN; GESTIÓN DE RECURSOS HIDRÁULICOS Y ENERGÉTICOS DE CUALQUIER CLASE; REDES DE CAPTACIÓN DE DATOS Y MODELOS HIDROLÓGICOS DE SUBSISTEMAS HIDRÁULICOS, CUANTIFICACIÓN Y GESTIÓN DE RECURSOS HÍDRICOS Y ENERGÉTICOS DE CUALQUIER CLASE; OBRAS DE CAPTACIÓN Y REGULACIÓN DE TALES RECURSOS Y OBRAS DE TRANSPORTE Y DISTRIBUCIÓN DE LOS MISMOS; ESTUDIOS ECONÓMICOS Y COMERCIALES; INGENIERÍA Y CONSULTORÍA DE GESTIÓN, COMERCIAL, ADMINISTRATIVA, INFORMÁTICA, DE RECURSOS HUMANOS, ECONÓMICO-ADMINISTRATIVA, DE ORGANIZACIÓN Y DE PLANIFICACIÓN E INVERSIONES; AUTOMATIZACIÓN, Y, EN GENERAL, TODA CLASE DE ESTUDIOS, PROYECTOS Y OBRAS, PRIVADOS Y PÚBLICOS; Y LA INVESTIGACIÓN Y DESARROLLO EN RELACIÓN  CON TODAS LAS ANTERIORES MATERIAS; LA REALIZACIÓN Y PRESTACIÓN DE CUALQUIERA OTRA CLASE DE SERVICIOS EN EL ÁMBITO ENERGÉTICO, EN GENERAL. 3. LA FABRICACIÓN, COMERCIALIZACIÓN Y VENTA DE TODO TIPO DE EQUIPOS, PROGRAMAS E INSTALACIONES QUE TENGAN RELACIÓN CON LA GESTIÓN DE SERVICIOS PÚBLICOS O PRIVADOS Y EN GENERAL CON LAS ACTIVIDADES COMPRENDIDAS EN EL OBJETO SOCIAL. LA SOCIEDAD PODRÁ: ADQUIRIR, TRANSMITIR, CONSTITUIR, MODIFICAR Y EXTINGUIR TODA CLASE DE DERECHOS SOBRE BIENES MUEBLES E INMUEBLES QUE AUTORICE EL DERECHO COMÚN, EN ORDEN A LA MEJOR CONSECUCIÓN DE SUS FINES; REALIZAR DIRECTAMENTE CONVENIOS CON LOS ORGANISMOS COMPETENTES; ENAJENAR, INCLUSO ANTICIPADAMENTE, LAS PARCELAS QUE DARÁN LUGAR A LOS SOLARES RESULTANTES DE LA ORDENACIÓN, EN LOS TÉRMINOS MÁS CONVENIENTES PARA ASEGURAR SU EDIFICACIÓN EN LOS PLAZOS O DE LA FORMA PREVISTA. LA MISMA FACULTAD LE ASISTIRÁ PARA ENAJENAR LOS APROVECHAMIENTOS URBANÍSTICOS OTORGADOS POR EL PLANEAMIENTO Y QUE HABRÁN DE MATERIALIZARSE EN LAS PARCELAS RESULTANTES DE LA ORDENACIÓN; GESTIONAR LOS SERVICIOS IMPLANTADOS, HASTA QUE SEAN FORMALMENTE ASUMIDOS POR EL ORGANISMO COMPETENTE; ACTUAL COMO ENTIDAD INSTRUMENTAL DE LA ADMINISTRACIÓN, O COMO ENTIDAD PURAMENTE PRIVADA EN LAS ACTUACIONES DE QUE SE TRATE Y EN CONCURRENCIA PLENA CON TERCEROS; SER BENEFICIARIA DE LAS EXPROPIACIONES URBANÍSTICAS QUE DEBAN REALIZARSE EN DESARROLLO DE SU ACTIVIDAD",
      "mainEntityOfPage": "https://www.contratacion.euskadi.eus/webkpe00-kperoc/es/ac71aBusquedaRegistrosWar/empresa/06980",
      "_links": {
        "self": {
          "name": "MAGNA DEA, S.L.",
          "href": "https://api.euskadi.eus/procurements/companies/06980"
        }
      }
    },
    {
      "name": "DAVID PINEDO ORTEGA",
      "registrationNumber": "06981",
      "identificationNumber": "14959996Z",
      "address": "LAMUZA Nº 12 BAJO",
      "location": {
        "postalCode": "01400",
        "municipality": "Laudio/Llodio",
        "county": "Araba/Álava",
        "municipalityId": "036",
        "countyId": "01"
      },
      "economicActivities": [
        {
          "id": "2.411",
          "name": "Arquitectos",
          "_links": {
            "self": {
              "name": "Arquitectos",
              "href": "https://api.euskadi.eus/procurements/companies/economic-activities/2.411"
            }
          }
        },
        {
          "id": "2.421",
          "name": "Arquitectos técnicos y aparejadores",
          "_links": {
            "self": {
              "name": "Arquitectos técnicos y aparejadores",
              "href": "https://api.euskadi.eus/procurements/companies/economic-activities/2.421"
            }
          }
        },
        {
          "id": "2.721",
          "name": "Agentes colegiados de la propiedad inmobiliaria e industrial",
          "_links": {
            "self": {
              "name": "Agentes colegiados de la propiedad inmobiliaria e industrial",
              "href": "https://api.euskadi.eus/procurements/companies/economic-activities/2.721"
            }
          }
        }
      ],
      "certificateStartDate": "2020-04-30",
      "certificateEndDate": "2020-08-25",
      "object": "ARQUITECTOS, ARQUITECTOS TÉCNICOS Y APAREJADORES Y AGENTES COLEGIADOS DE LA PROPIEDAD INMOBILIARIA E INDUSTRIAL \r\n",
      "mainEntityOfPage": "https://www.contratacion.euskadi.eus/webkpe00-kperoc/es/ac71aBusquedaRegistrosWar/empresa/06981",
      "_links": {
        "self": {
          "name": "DAVID PINEDO ORTEGA",
          "href": "https://api.euskadi.eus/procurements/companies/06981"
        }
      }
    },
    {
      "name": "SAGARMIÑA ERAIKETAK S.L.",
      "registrationNumber": "06984",
      "identificationNumber": "B20596532",
      "address": "HONDARTZA KALEA 3-4 BEHEA",
      "location": {
        "postalCode": "20820",
        "municipality": "Deba",
        "county": "Gipuzkoa",
        "municipalityId": "029",
        "countyId": "20"
      },
      "economicActivities": [
        {
          "id": "1.501.1",
          "name": "Construcción completa, reparación y conservación de edificaciones",
          "_links": {
            "self": {
              "name": "Construcción completa, reparación y conservación de edificaciones",
              "href": "https://api.euskadi.eus/procurements/companies/economic-activities/1.501.1"
            }
          }
        }
      ],
      "certificateStartDate": "2020-04-30",
      "certificateEndDate": "2020-10-06",
      "object": "LA COMPRAVENTA DE BIENES INMUEBLES Y TODO LO RELACIONADO CON LA PROMOCIÓN Y CONSTRUCCIÓN DE VIVIENDAS, EDIFICIOS Y LA REALIZACIÓN DE OBRAS CIVILES DE TODA CLASE, MEDIANTE LA ADQUISICIÓN DE TERRENOS, SU PARCELACIÓN Y URBANIZACIÓN, USO, ARRENDAMIENTO Y VENTA DE AQUELLOS O DE LAS OBRAS TERMINADAS",
      "mainEntityOfPage": "https://www.contratacion.euskadi.eus/webkpe00-kperoc/es/ac71aBusquedaRegistrosWar/empresa/06984",
      "_links": {
        "self": {
          "name": "SAGARMIÑA ERAIKETAK S.L.",
          "href": "https://api.euskadi.eus/procurements/companies/06984"
        }
      }
    },
    {
      "name": "GRAMA FORMULARIOS, S.A.",
      "registrationNumber": "01665",
      "identificationNumber": "A33125667",
      "address": "C/ LA PALOMA, Nº 10 - 2º D",
      "location": {
        "postalCode": "01002",
        "municipality": "Vitoria-Gasteiz",
        "county": "Araba/Álava",
        "municipalityId": "059",
        "countyId": "01"
      },
      "economicActivities": [
        {
          "id": "1.474",
          "name": "Artes gráficas (impresión gráfica)",
          "_links": {
            "self": {
              "name": "Artes gráficas (impresión gráfica)",
              "href": "https://api.euskadi.eus/procurements/companies/economic-activities/1.474"
            }
          }
        }
      ],
      "certificateStartDate": "2020-04-29",
      "certificateEndDate": "2020-10-20",
      "object": "LA FABRICACIÓN, DISEÑO Y ELABORACIÓN Y VENTA DE FORMULARIOS E IMPRESOS DE TODAS CLASES. IGUALMENTE, LA COMERCIALIZACIÓN Y VENTA DE CONEXIONES A INTERNET E INFOVIA. LA CONFECCIÓN Y DISEÑO DE PÁGINAS WEB, LA INSTALACIÓN DE REDES INTRANET, ASÍ COMO OSTENTAR TODA CLASE DE REPRESENTACIONES NACIONALES Y EXTRANJERAS RELACIONADAS CON DICHO OBJETO SOCIAL",
      "mainEntityOfPage": "https://www.contratacion.euskadi.eus/webkpe00-kperoc/es/ac71aBusquedaRegistrosWar/empresa/01665",
      "_links": {
        "self": {
          "name": "GRAMA FORMULARIOS, S.A.",
          "href": "https://api.euskadi.eus/procurements/companies/01665"
        }
      }
    },
    {
      "name": "IÑAKI ARANA ALBENIZ",
      "registrationNumber": "06312",
      "identificationNumber": "14958385J",
      "address": "CASTAÑO 9-4º A",
      "location": {
        "postalCode": "48007",
        "municipality": "Bilbao",
        "county": "Bizkaia",
        "municipalityId": "020",
        "countyId": "48"
      },
      "economicActivities": [
        {
          "id": "2.751",
          "name": "Profesionales de la publicidad, relaciones públicas y similares",
          "_links": {
            "self": {
              "name": "Profesionales de la publicidad, relaciones públicas y similares",
              "href": "https://api.euskadi.eus/procurements/companies/economic-activities/2.751"
            }
          }
        }
      ],
      "certificateStartDate": "2020-04-29",
      "certificateEndDate": "2020-10-28",
      "object": "PUBLICIDAD, DISEÑO GRAFICO Y RELACIONES PUBLICAS",
      "mainEntityOfPage": "https://www.contratacion.euskadi.eus/webkpe00-kperoc/es/ac71aBusquedaRegistrosWar/empresa/06312",
      "_links": {
        "self": {
          "name": "IÑAKI ARANA ALBENIZ",
          "href": "https://api.euskadi.eus/procurements/companies/06312"
        }
      }
    },
    {
      "name": "OPE CONSULTORES, S.L.",
      "registrationNumber": "00021",
      "identificationNumber": "B20088985",
      "address": "ZUATZU KALEA, 4-2ª PLANTA-LOCAL 1",
      "location": {
        "postalCode": "20018",
        "municipality": "Donostia / San Sebastián",
        "county": "Gipuzkoa",
        "municipalityId": "069",
        "countyId": "20"
      },
      "economicActivities": [
        {
          "id": "1.847",
          "name": "Servicios de consultoría",
          "_links": {
            "self": {
              "name": "Servicios de consultoría",
              "href": "https://api.euskadi.eus/procurements/companies/economic-activities/1.847"
            }
          }
        },
        {
          "id": "1.934",
          "name": "Enseñanza fuera de establecimiento permanente",
          "_links": {
            "self": {
              "name": "Enseñanza fuera de establecimiento permanente",
              "href": "https://api.euskadi.eus/procurements/companies/economic-activities/1.934"
            }
          }
        }
      ],
      "certificateStartDate": "2020-04-27",
      "certificateEndDate": "2020-09-13",
      "object": "LA ASESORÍA EN LA GESTIÓN DE LA EMPRESA Y LA GESTIÓN EMPRESARIAL PROPIAMENTE DICHA",
      "mainEntityOfPage": "https://www.contratacion.euskadi.eus/webkpe00-kperoc/es/ac71aBusquedaRegistrosWar/empresa/00021",
      "_links": {
        "self": {
          "name": "OPE CONSULTORES, S.L.",
          "href": "https://api.euskadi.eus/procurements/companies/00021"
        }
      }
    },
    {
      "name": "CONSTRUCCIONES MENOYO GOCHI, S.L.",
      "registrationNumber": "05520",
      "identificationNumber": "B01340959",
      "address": "ETXEGOIEN, Nº 32",
      "location": {
        "postalCode": "01470",
        "municipality": "Amurrio",
        "county": "Araba/Álava",
        "municipalityId": "002",
        "countyId": "01"
      },
      "economicActivities": [
        {
          "id": "1.502.4",
          "name": "Cimentaciones y pavimentaciones para la construcción de edificaciones",
          "_links": {
            "self": {
              "name": "Cimentaciones y pavimentaciones para la construcción de edificaciones",
              "href": "https://api.euskadi.eus/procurements/companies/economic-activities/1.502.4"
            }
          }
        }
      ],
      "certificateStartDate": "2020-04-27",
      "certificateEndDate": "2020-10-27",
      "object": "LA REALIZACIÓN DE LOS SERVICIOS DE CIMENTACIÓN Y PAVIMENTACIÓN DE CONSTRUCCIONES Y PAVIMENTACIONES EN GENERAL Y DE CUALQUIER OTRA ACTIVIDAD QUE LAS FACILITE O COMPLEMENTE Y SEA DE LÍCITO COMERCIO",
      "mainEntityOfPage": "https://www.contratacion.euskadi.eus/webkpe00-kperoc/es/ac71aBusquedaRegistrosWar/empresa/05520",
      "_links": {
        "self": {
          "name": "CONSTRUCCIONES MENOYO GOCHI, S.L.",
          "href": "https://api.euskadi.eus/procurements/companies/05520"
        }
      }
    },
    {
      "name": "PROMUEVE HIRU, S.L.",
      "registrationNumber": "06378",
      "identificationNumber": "B75118471",
      "address": "PARQUE EMPRESARIAL ZUATZU EDIF. BIDASOA LOCAL, 5 PB",
      "location": {
        "postalCode": "20018",
        "municipality": "Donostia / San Sebastián",
        "county": "Gipuzkoa",
        "municipalityId": "069",
        "countyId": "20"
      },
      "economicActivities": [
        {
          "id": "1.844",
          "name": "Servicios de publicidad, relaciones públicas y similares",
          "_links": {
            "self": {
              "name": "Servicios de publicidad, relaciones públicas y similares",
              "href": "https://api.euskadi.eus/procurements/companies/economic-activities/1.844"
            }
          }
        }
      ],
      "certificateStartDate": "2020-04-27",
      "certificateEndDate": "2020-10-22",
      "object": "LA PROMOCIÓN, ORGANIZACIÓN Y CELEBRACIÓN DE EVENTOS ASÍ COMO LA PRESTACIÓN DE SERVICIOS DE AGENCIA DE PUBLICIDAD, COMUNICACIÓN 360º, ASESORÍA EN COMUNICACIÓN Y MARKETING ESTRATÉGICO. ASIMISMO EL DESARROLLO DE HERRAMIENTAS, SOPORTE Y APLICACIONES DE COMUNICACIÓN Y MARKETING INTERNAS Y EXTERNAS, OFFLINE Y ONLINE EN ÁREAS DE DISEÑO, ARQUITECTURA Y CONSTRUCCIÓN DE STANDS, DISEÑO GRÁFICO, IDENTIDAD CORPORATIVA, ESTRATEGIAS DE MARCA, DESARROLLO Y MANTENIMIENTO DE PÁGINAS WEB, REDES SOCIALES, FERIAS, EXPOSICIONES...Y CUANTAS OPERACIONES ESTÉN DIRECTA O INDIRECTAMENTE RELACIONADAS CON EL OBJETO SOCIAL",
      "mainEntityOfPage": "https://www.contratacion.euskadi.eus/webkpe00-kperoc/es/ac71aBusquedaRegistrosWar/empresa/06378",
      "_links": {
        "self": {
          "name": "PROMUEVE HIRU, S.L.",
          "href": "https://api.euskadi.eus/procurements/companies/06378"
        }
      }
    },
    {
      "name": "JOAN BARCELO ARQUITECTURA, S.L,P",
      "registrationNumber": "06977",
      "identificationNumber": "B16650541",
      "address": "Carrer Major 21A",
      "location": {
        "postalCode": "07110",
        "municipality": "Bunyola",
        "county": "Balears, Illes",
        "municipalityId": "010",
        "countyId": "07"
      },
      "economicActivities": [
        {
          "id": "1.843.2",
          "name": "Servicios técnicos de arquitectura y urbanismo",
          "_links": {
            "self": {
              "name": "Servicios técnicos de arquitectura y urbanismo",
              "href": "https://api.euskadi.eus/procurements/companies/economic-activities/1.843.2"
            }
          }
        }
      ],
      "certificateStartDate": "2020-04-27",
      "certificateEndDate": "2020-10-06",
      "object": "LAS ACTIVIDADES PROFESIONALES PROPIAS DE LA TITULACIÓN DE ARQUITECTO",
      "mainEntityOfPage": "https://www.contratacion.euskadi.eus/webkpe00-kperoc/es/ac71aBusquedaRegistrosWar/empresa/06977",
      "_links": {
        "self": {
          "name": "JOAN BARCELO ARQUITECTURA, S.L,P",
          "href": "https://api.euskadi.eus/procurements/companies/06977"
        }
      }
    }
  ]
}