{
  "totalItems": 9042,
  "totalPages": 905,
  "currentPage": 381,
  "itemsOfPage": 10,
  "items": [
    {
      "name": "DIALBILBO, S.L.",
      "registrationNumber": "08075",
      "identificationNumber": "B48127500",
      "address": "Calle Pablo de Alzola, 4",
      "location": {
        "postalCode": "48012",
        "municipality": "Bilbao",
        "county": "Bizkaia",
        "municipalityId": "020",
        "countyId": "48"
      },
      "economicActivities": [
        {
          "id": "1.942.9",
          "name": "Otros servicios sanitarios sin internados, no clasificados",
          "_links": {
            "self": {
              "name": "Otros servicios sanitarios sin internados, no clasificados",
              "href": "https://api.euskadi.eus/procurements/companies/economic-activities/1.942.9"
            }
          }
        }
      ],
      "certificateStartDate": "2024-11-06",
      "certificateEndDate": "2025-05-06",
      "object": "LA PRESTACIÓN DE ASISTENCIA MÉDICA, CONSISTENTE EN EL TRATAMIENTO DE DIÁLISIS Y EN GENERAL DE LA INSUFICIENCIA RENAL CRÓNICA, A TRAVÉS DE PERSONAS CON TITULACIÓN SUFICIENTE PARA ELLO.",
      "mainEntityOfPage": "https://www.contratacion.euskadi.eus/webkpe00-kperoc/es/ac71aBusquedaRegistrosWar/empresa/08075",
      "_links": {
        "self": {
          "name": "DIALBILBO, S.L.",
          "href": "https://api.euskadi.eus/procurements/companies/08075"
        }
      }
    },
    {
      "name": "SISTEMAS D.R.,S.L.",
      "registrationNumber": "09338",
      "identificationNumber": "B79318481",
      "address": "Estaño 55",
      "location": {
        "postalCode": "28510",
        "municipality": "Campo Real",
        "county": "Madrid",
        "municipalityId": "033",
        "countyId": "28"
      },
      "economicActivities": [
        {
          "id": "1.314.2",
          "name": "Fabricación de estructuras metálicas",
          "_links": {
            "self": {
              "name": "Fabricación de estructuras metálicas",
              "href": "https://api.euskadi.eus/procurements/companies/economic-activities/1.314.2"
            }
          }
        }
      ],
      "certificateStartDate": "2024-11-06",
      "certificateEndDate": "2025-05-06",
      "object": "LA INVESTIGACIÓN, DISEÑO, FABRICACIÓN, MONTAJE, INSTALACIÓN, IMPORTACIÓN, EXPORTACIÓN Y COMERCIALIZACIÓN DE INVERNADEROS Y NAVES AGRÍCOLAS, ASÍ COMO TODA CLASE DE MONTAJES ELÉCTRICOS Y CLIMATIZACIÓN.",
      "mainEntityOfPage": "https://www.contratacion.euskadi.eus/webkpe00-kperoc/es/ac71aBusquedaRegistrosWar/empresa/09338",
      "_links": {
        "self": {
          "name": "SISTEMAS D.R.,S.L.",
          "href": "https://api.euskadi.eus/procurements/companies/09338"
        }
      }
    },
    {
      "name": "RESIDENCIA ZUETXE-BAKIO, S.L.",
      "registrationNumber": "08536",
      "identificationNumber": "B48870364",
      "address": "Errementeria Kalea 29. Bostgarren Dorrea.",
      "location": {
        "postalCode": "48130",
        "municipality": "Bakio",
        "county": "Bizkaia",
        "municipalityId": "012",
        "countyId": "48"
      },
      "economicActivities": [
        {
          "id": "1.951",
          "name": "Asistencia y servicios sociales en centros residenciales",
          "_links": {
            "self": {
              "name": "Asistencia y servicios sociales en centros residenciales",
              "href": "https://api.euskadi.eus/procurements/companies/economic-activities/1.951"
            }
          }
        }
      ],
      "certificateStartDate": "2024-11-04",
      "certificateEndDate": "2025-04-24",
      "object": "LA ASISTENCIA Y PRESTACIÓN DE SERVICIOS SOCIALES A NIÑOS, JÓVENES, DISMINUIDOS FÍSICOS Y ANCIANOS EN CENTROS RESIDENCIALES.",
      "mainEntityOfPage": "https://www.contratacion.euskadi.eus/webkpe00-kperoc/es/ac71aBusquedaRegistrosWar/empresa/08536",
      "_links": {
        "self": {
          "name": "RESIDENCIA ZUETXE-BAKIO, S.L.",
          "href": "https://api.euskadi.eus/procurements/companies/08536"
        }
      }
    },
    {
      "name": "CENTRO DE ESTUDIOS ADAMS EDICIONES VALBUENA, S.A.",
      "registrationNumber": "09592",
      "identificationNumber": "A28813244",
      "address": "Calle de Narciso Serra, 14",
      "location": {
        "postalCode": "28007",
        "municipality": "Madrid",
        "county": "Madrid",
        "municipalityId": "079",
        "countyId": "28"
      },
      "economicActivities": [
        {
          "id": "1.932.1",
          "name": "Enseñanza de formación y perfeccionamiento profesional no superior",
          "_links": {
            "self": {
              "name": "Enseñanza de formación y perfeccionamiento profesional no superior",
              "href": "https://api.euskadi.eus/procurements/companies/economic-activities/1.932.1"
            }
          }
        }
      ],
      "certificateStartDate": "2024-10-31",
      "certificateEndDate": "2025-04-30",
      "object": "- LA EDICIÓN DE LIBROS, MATERIAL Y CURSOS DE FORMACIÓN. EN FORMATO IMPRESO, DIGITALES O CUALQUIER OTRO Y ACTIVIDAD EDITORIAL EN GENERAL. - VENTA AL POR MENOR EN ESTABLECIMIENTOS PROPIOS O A TRAVÉS DE INTERNET. - VENTA FUERA DE ESTABLECIMIENTOS PERMANENTES A TRAVÉS DE DISTRIBUIDORAS, LIBRERÍAS U OTROS CANALES DE DISTRIBUCIÓN O INTERMEDIARIOS. - LA ENSEÑANZA Y FORMACIÓN EN TODAS SUS MODALIDADES: PRESENCIAL, DISTANCIA, INTERNET, SEMIPRESENCIAL O POR CUALQUIER OTRO MEDIO O CANAL DISPONIBLE. - ELABORACIÓN Y COMERCIALIZACIÓN DE CURSO Y CONTENIDOS PARA LA FORMACIÓN E-LEARNING. - DESARROLLO Y COMERCIALIZACIÓN DEL CAMPUS VIRTUAL PARA LA FORMACIÓN ON LINE. - CONSULTORÍA EN CUALQUIER TEMA RELACIONADO CON LA FORMACIÓN O EDICIÓN.",
      "mainEntityOfPage": "https://www.contratacion.euskadi.eus/webkpe00-kperoc/es/ac71aBusquedaRegistrosWar/empresa/09592",
      "_links": {
        "self": {
          "name": "CENTRO DE ESTUDIOS ADAMS EDICIONES VALBUENA, S.A.",
          "href": "https://api.euskadi.eus/procurements/companies/09592"
        }
      }
    },
    {
      "name": "IGOR MARCAIDA URIAGUERECA",
      "registrationNumber": "05904",
      "identificationNumber": "30655183R",
      "address": "Matilde Orbegozo 3, 4C Bilbao",
      "location": {
        "postalCode": "48003",
        "municipality": "Bilbao",
        "county": "Bizkaia",
        "municipalityId": "020",
        "countyId": "48"
      },
      "economicActivities": [
        {
          "id": "1.613.3",
          "name": "Venta al por mayor de prendas exteriores de vestir",
          "_links": {
            "self": {
              "name": "Venta al por mayor de prendas exteriores de vestir",
              "href": "https://api.euskadi.eus/procurements/companies/economic-activities/1.613.3"
            }
          }
        },
        {
          "id": "2.751",
          "name": "Profesionales de la publicidad, relaciones públicas y similares",
          "_links": {
            "self": {
              "name": "Profesionales de la publicidad, relaciones públicas y similares",
              "href": "https://api.euskadi.eus/procurements/companies/economic-activities/2.751"
            }
          }
        }
      ],
      "certificateStartDate": "2024-10-31",
      "certificateEndDate": "2025-04-16",
      "object": "PROFESIONAL DE PUBLICIDAD Y RELACIONES PÚBLICAS",
      "mainEntityOfPage": "https://www.contratacion.euskadi.eus/webkpe00-kperoc/es/ac71aBusquedaRegistrosWar/empresa/05904",
      "_links": {
        "self": {
          "name": "IGOR MARCAIDA URIAGUERECA",
          "href": "https://api.euskadi.eus/procurements/companies/05904"
        }
      }
    },
    {
      "name": "ASZENDE, S.L.",
      "registrationNumber": "09880",
      "identificationNumber": "B08902892",
      "address": "C/LIMA 7",
      "location": {
        "postalCode": "08030",
        "municipality": "Barcelona",
        "county": "Barcelona",
        "municipalityId": "019",
        "countyId": "08"
      },
      "economicActivities": [
        {
          "id": "1.501.1",
          "name": "Construcción completa, reparación y conservación de edificaciones",
          "_links": {
            "self": {
              "name": "Construcción completa, reparación y conservación de edificaciones",
              "href": "https://api.euskadi.eus/procurements/companies/economic-activities/1.501.1"
            }
          }
        },
        {
          "id": "1.504.6",
          "name": "Montaje e instalación de aparatos elevadores de cualquier clase",
          "_links": {
            "self": {
              "name": "Montaje e instalación de aparatos elevadores de cualquier clase",
              "href": "https://api.euskadi.eus/procurements/companies/economic-activities/1.504.6"
            }
          }
        }
      ],
      "certificateStartDate": "2024-10-30",
      "certificateEndDate": "2025-04-08",
      "object": "LA FABRICACIÓN, VENTA, INSTALACIÓN Y COMERCIALIZACIÓN DE APARATOS ELEVADORES.",
      "mainEntityOfPage": "https://www.contratacion.euskadi.eus/webkpe00-kperoc/es/ac71aBusquedaRegistrosWar/empresa/09880",
      "_links": {
        "self": {
          "name": "ASZENDE, S.L.",
          "href": "https://api.euskadi.eus/procurements/companies/09880"
        }
      }
    },
    {
      "name": "NOMAD TECHNOLOGIES, S.L.",
      "registrationNumber": "09606",
      "identificationNumber": "B47765375",
      "address": "Av. de Madrid 46, nave 3",
      "location": {
        "postalCode": "47008",
        "municipality": "Valladolid",
        "county": "Valladolid",
        "municipalityId": "186",
        "countyId": "47"
      },
      "economicActivities": [
        {
          "id": "1.322.2",
          "name": "Construcción de máquinas para trabajar la madera y corcho",
          "_links": {
            "self": {
              "name": "Construcción de máquinas para trabajar la madera y corcho",
              "href": "https://api.euskadi.eus/procurements/companies/economic-activities/1.322.2"
            }
          }
        }
      ],
      "certificateStartDate": "2024-10-30",
      "certificateEndDate": "2025-04-30",
      "object": "ACTIVIDAD PRINCIPAL: EL DESARROLLO Y FABRICACIÓN DE HERRAMIENTAS DE IMPRESIÓN, CORTE Y GRABADO SOBRE CUALQUIER TIPO DE MATERIAL, MEDIANTE EL USO DE TODA CLASE DE TECNOLOGÍA. CNAE 2611. FABRICACIÓN DE COMPONENTES ELECTRÓNICOS. ACTIVIDADES SECUNDARIAS: - LOS SERVICIOS DE IMPRESIÓN MEDIANTE TECNOLOGÍA DIGITAL, 3D O DE GRABADO Y CORTE LASER SOBRE CUALQUIER TIPO DE SUPERFICIE O MATERIAL. - LA FORMACIÓN EN TODAS SUS DIFERENTES FORMAS Y SOBRE CUALQUIER MATERIA. - LA DISTRIBUCIÓN, COMERCIALIZACIÓN, IMPORTACIÓN O COMERCIO AL POR MENOR DE PRODUCTOS TECNOLÓGICOS, INFORMÁTICOS O PRODUCTOS DESARROLLADOS DE MATERIAS PRIMAS Y MAQUINARIA. - LA COMERCIALIZACIÓN DE SERVICIOS DE TELECOMUNICACIONES, INFORMÁTICA Y TECNOLOGÍA. - EL DESARROLLO, PROMOCIÓN E IMPULSO DE PROYECTOS DE INVESTIGACIÓN FUNDAMENTAL O INDUSTRIAL, DESARROLLO E INNOVACIÓN TECNOLÓGICA PROPIOS O EN COOPERACIÓN CON PROFESIONALES, EMPRESAS Y ORGANIZACIONES, Y CON UNIVERSIDADES Y CENTROS DE INVESTIGACIÓN U OTRAS ENTIDADES CON EL OBJETIVO DE GENERAR Y DIFUNDIR CONOCIMIENTO TECNOLÓGICO. - COMERCIO AL POR MAYOR, IMPORTACIÓN Y EXPORTACIÓN DE TODO TIPO DE MATERIAS PRIMAS Y PRODUCTOS TRANSFORMADOS. - COMPRA, VENTA, DISTRIBUCIÓN, FABRICACIÓN  MANTENIMIENTO DE TOTO TIPO DE MAQUINARIA INDUSTRIAL.",
      "mainEntityOfPage": "https://www.contratacion.euskadi.eus/webkpe00-kperoc/es/ac71aBusquedaRegistrosWar/empresa/09606",
      "_links": {
        "self": {
          "name": "NOMAD TECHNOLOGIES, S.L.",
          "href": "https://api.euskadi.eus/procurements/companies/09606"
        }
      }
    },
    {
      "name": "MARCOS CARRASCOSA JIMÉNEZ",
      "registrationNumber": "09879",
      "identificationNumber": "78770561T",
      "address": "Calle San Isidro, 77",
      "location": {
        "postalCode": "31521",
        "municipality": "Murchante",
        "county": "Navarra",
        "municipalityId": "176",
        "countyId": "31"
      },
      "economicActivities": [
        {
          "id": "1.843.2",
          "name": "Servicios técnicos de arquitectura y urbanismo",
          "_links": {
            "self": {
              "name": "Servicios técnicos de arquitectura y urbanismo",
              "href": "https://api.euskadi.eus/procurements/companies/economic-activities/1.843.2"
            }
          }
        },
        {
          "id": "2.861",
          "name": "Pintores, escultores, ceramistas, artesanos, artistas y similares",
          "_links": {
            "self": {
              "name": "Pintores, escultores, ceramistas, artesanos, artistas y similares",
              "href": "https://api.euskadi.eus/procurements/companies/economic-activities/2.861"
            }
          }
        }
      ],
      "certificateStartDate": "2024-10-30",
      "certificateEndDate": "2025-04-28",
      "object": "SERVICIOS TÉCNICOS DE ARQUITECTURA Y URBANISMO. PINTORES, ESCULTORES, CERAMISTAS, ARTESANOS, ARTISTAS Y SIMILARES.",
      "mainEntityOfPage": "https://www.contratacion.euskadi.eus/webkpe00-kperoc/es/ac71aBusquedaRegistrosWar/empresa/09879",
      "_links": {
        "self": {
          "name": "MARCOS CARRASCOSA JIMÉNEZ",
          "href": "https://api.euskadi.eus/procurements/companies/09879"
        }
      }
    },
    {
      "name": "TOLDOS AGUSTIN, S.L.",
      "registrationNumber": "09578",
      "identificationNumber": "B20662227",
      "address": "PG ZUBIERREKA 42",
      "location": {
        "postalCode": "20210",
        "municipality": "Lazkao",
        "county": "Gipuzkoa",
        "municipalityId": "049",
        "countyId": "20"
      },
      "economicActivities": [
        {
          "id": "1.455.9",
          "name": "Confección de otros artículos con materias textiles n.c.o.p",
          "_links": {
            "self": {
              "name": "Confección de otros artículos con materias textiles n.c.o.p",
              "href": "https://api.euskadi.eus/procurements/companies/economic-activities/1.455.9"
            }
          }
        }
      ],
      "certificateStartDate": "2024-10-30",
      "certificateEndDate": "2025-04-25",
      "object": "CONFECCIÓN DE ARTÍCULOS DE LONA Y DE OTROS MATERIALES CON MATERIAS TEXTILES, ASÍ COMO LA COMPRAVENTA Y ARRENDAMIENTO DE BIENES INMUEBLES.",
      "mainEntityOfPage": "https://www.contratacion.euskadi.eus/webkpe00-kperoc/es/ac71aBusquedaRegistrosWar/empresa/09578",
      "_links": {
        "self": {
          "name": "TOLDOS AGUSTIN, S.L.",
          "href": "https://api.euskadi.eus/procurements/companies/09578"
        }
      }
    },
    {
      "name": "VIBIKE VITORIA, S.L.",
      "registrationNumber": "09874",
      "identificationNumber": "B09634429",
      "address": "Calle Portal de Zurbano (01013) 3 - PAB.7B",
      "location": {
        "postalCode": "01013",
        "municipality": "Vitoria-Gasteiz",
        "county": "Araba/Álava",
        "municipalityId": "059",
        "countyId": "01"
      },
      "economicActivities": [
        {
          "id": "1.659.6",
          "name": "Venta al por menor de juguetes, artículos de deporte",
          "_links": {
            "self": {
              "name": "Venta al por menor de juguetes, artículos de deporte",
              "href": "https://api.euskadi.eus/procurements/companies/economic-activities/1.659.6"
            }
          }
        },
        {
          "id": "1.691.2",
          "name": "Reparación de vehículos automóviles, bicicletas y otros vehículos",
          "_links": {
            "self": {
              "name": "Reparación de vehículos automóviles, bicicletas y otros vehículos",
              "href": "https://api.euskadi.eus/procurements/companies/economic-activities/1.691.2"
            }
          }
        }
      ],
      "certificateStartDate": "2024-10-29",
      "certificateEndDate": "2025-04-26",
      "object": "COMERCIO AL POR MENOR DE ARTÍCULOS DEPORTIVOS. REPARACIÓN DE BICICLETAS Y OTROS VEHÍCULOS.",
      "mainEntityOfPage": "https://www.contratacion.euskadi.eus/webkpe00-kperoc/es/ac71aBusquedaRegistrosWar/empresa/09874",
      "_links": {
        "self": {
          "name": "VIBIKE VITORIA, S.L.",
          "href": "https://api.euskadi.eus/procurements/companies/09874"
        }
      }
    }
  ]
}