{
  "totalItems": 9042,
  "totalPages": 905,
  "currentPage": 550,
  "itemsOfPage": 10,
  "items": [
    {
      "name": "NEA COMUNICACIÓN, S.L.",
      "registrationNumber": "07413",
      "identificationNumber": "B82375387",
      "address": "CALLE DIEGO DE LEÓN 31, 1º A",
      "location": {
        "postalCode": "28006",
        "municipality": "Madrid",
        "county": "Madrid",
        "municipalityId": "079",
        "countyId": "28"
      },
      "economicActivities": [
        {
          "id": "1.844",
          "name": "Servicios de publicidad, relaciones públicas y similares",
          "_links": {
            "self": {
              "name": "Servicios de publicidad, relaciones públicas y similares",
              "href": "https://api.euskadi.eus/procurements/companies/economic-activities/1.844"
            }
          }
        }
      ],
      "certificateStartDate": "2020-12-18",
      "certificateEndDate": "2021-06-07",
      "object": "1º. COMUNICACIÓN PUBLICITARIA, INCLUYENDO LAS SIGUIENTES MODALIDADES A TITULO ENUNCIATIVO: PRENSA, RADIO, TV, CINE, EXTERIORES, PUBLICIDAD (CAMPAÑAS, MARKETING DIRECTO, PRODUCT PLACEMENT, POSICIONAMIENTO DE PRODUCTOS Y SERVICIOS, PATROCINIOS, SPONSORIZADORES, REGALOS PUBLICITARIOS, MECENAZGO DEPORTIVO, PRODUCCIÓN AUDIOVISUAL, BARTERING), CENTRAL DE MEDIOS, DISEÑO PUBLICITARIO, ORGANIZACIÓN DE EVENTOS, FERIAS, EXPOSICIONES Y CONGRESOS, INTERNET, IMAGEN DE PRODUCTO Y PACKAGING, ILUSTRACIÓN TRADICIONAL Y DIGITAL, SERVICIOS DE CONSULTORÍA. 2º. COMUNICACIÓN CORPORATIVA E INSTITUCIONAL INCLUYENDO A MODO ENUNCIATIVO; SISTEMAS DE IDENTIDAD (PLANIFICACIÓN, DISEÑO, NORMALIZACIÓN E IMPLANTACIÓN); LOGOTIPOS, MARCAS, MEMORIAS, INFORMES ANUALES, ROTULACIÓN, SEÑALÉTICA, CD-ROM, DISEÑO INDUSTRIAL DISEÑO INTERIORES, DISEÑO MOBILIARIO, SERVICIO DE CONSULTORÍA. 3º. ACCIONES DE MARKETING, RELACIONES PÚBLICAS Y PUBLICIDAD, SERVICIOS DE CONSULTORÍA",
      "mainEntityOfPage": "https://www.contratacion.euskadi.eus/webkpe00-kperoc/es/ac71aBusquedaRegistrosWar/empresa/07413",
      "_links": {
        "self": {
          "name": "NEA COMUNICACIÓN, S.L.",
          "href": "https://api.euskadi.eus/procurements/companies/07413"
        }
      }
    },
    {
      "name": "OPTIMUS 3D, S.L.",
      "registrationNumber": "05302",
      "identificationNumber": "B01520766",
      "address": "C/ Leonardo Da Vinci, nº 9. Edificio E-5",
      "location": {
        "postalCode": "01510",
        "municipality": "Vitoria-Gasteiz",
        "county": "Araba/Álava",
        "municipalityId": "059",
        "countyId": "01"
      },
      "economicActivities": [
        {
          "id": "1.843.1",
          "name": "Servicios técnicos de ingeniería",
          "_links": {
            "self": {
              "name": "Servicios técnicos de ingeniería",
              "href": "https://api.euskadi.eus/procurements/companies/economic-activities/1.843.1"
            }
          }
        },
        {
          "id": "2.321",
          "name": "Ingenieros técnicos industriales y textiles, ayudantes",
          "_links": {
            "self": {
              "name": "Ingenieros técnicos industriales y textiles, ayudantes",
              "href": "https://api.euskadi.eus/procurements/companies/economic-activities/2.321"
            }
          }
        }
      ],
      "certificateStartDate": "2020-12-17",
      "certificateEndDate": "2021-06-01",
      "object": "Servicios técnicos de ingeniería y otras actividades relacionadas con el asesoramiento técnico",
      "mainEntityOfPage": "https://www.contratacion.euskadi.eus/webkpe00-kperoc/es/ac71aBusquedaRegistrosWar/empresa/05302",
      "_links": {
        "self": {
          "name": "OPTIMUS 3D, S.L.",
          "href": "https://api.euskadi.eus/procurements/companies/05302"
        }
      }
    },
    {
      "name": "OBRAS Y SERVICIOS METROPOLIS, S.A.",
      "registrationNumber": "01331",
      "identificationNumber": "A48507909",
      "address": "Bº IRAGORRI, 11",
      "location": {
        "postalCode": "48480",
        "municipality": "Zaratamo",
        "county": "Bizkaia",
        "municipalityId": "097",
        "countyId": "48"
      },
      "economicActivities": [
        {
          "id": "1.507",
          "name": "Construcción, reparación y conservación de toda clase obras",
          "_links": {
            "self": {
              "name": "Construcción, reparación y conservación de toda clase obras",
              "href": "https://api.euskadi.eus/procurements/companies/economic-activities/1.507"
            }
          }
        }
      ],
      "certificateStartDate": "2020-12-16",
      "certificateEndDate": "2021-06-14",
      "object": "PROYECTAR, DIRIGIR, SUPERVISAR, REALIZAR Y MANTENER TODA CLASE DE OBRAS Y SERVICIOS CIVILES O PÚBLICAS, ASÍ COMO LA PROMOCIÓN DE CUALQUIER ACTIVIDAD INMOBILIARIA. PRESTACIÓN Y REALIZACIÓN DIRECTA O INDIRECTA DE LA ACTIVIDAD Y NEGOCIO DE ALUMBRADO, PUDIENDO A TAL FIN OBTENER CONCESIONES, ARRENDAMIENTOS Y CUALESQUIERA OTROS CONTRATOS Y TÍTULOS QUE PROVENGAN DEL ESTADO, COMUNIDAD AUTÓNOMA, PROVINCIA, MUNICIPIO Y CUANTOS ORGANISMOS SE HALLEN ADMITIDOS POR DISPOSICIONES LEGALES, ASÍ COMO CON PARTICULARES. PROYECTAR, DIRIGIR, SUPERVISAR, REALIZAR Y MANTENER TODA CLASE DE OBRAS Y SERVICIOS CIVILES O PÚBLICOS NECESARIOS O COMPLEMENTARIOS PARA LA CONSERVACIÓN, INSTALACIÓN Y MANTENIMIENTO DE SERVICIOS DE ALUMBRADO, ASÍ COMO OBRAS Y MANTENIMIENTO EN ALTA Y BAJA TENSIÓN. LA RECOGIDA, ELABORACIÓN Y APROVECHAMIENTO DE BASURAS Y LA REALIZACIÓN DE TODOS LOS SERVICIOS DE LIMPIEZA, SEAN PÚBLICOS O PRIVADOS. EL ALQUILER DE AUTOMÓVILES Y VEHÍCULOS DE TODAS CLASES, ASÍ COMO LA MAQUINARIA Y OBRAS PÚBLICAS Y MAQUINARIA INDUSTRIAL, ASÍ COMO LA REALIZACIÓN DE TODA CLASE DE TRANSPORTES Y SERVICIOS CON LOS BIENES CITADOS",
      "mainEntityOfPage": "https://www.contratacion.euskadi.eus/webkpe00-kperoc/es/ac71aBusquedaRegistrosWar/empresa/01331",
      "_links": {
        "self": {
          "name": "OBRAS Y SERVICIOS METROPOLIS, S.A.",
          "href": "https://api.euskadi.eus/procurements/companies/01331"
        }
      }
    },
    {
      "name": "CONSUMIBLES DE TELECOMUNICACIONES, S.L.",
      "registrationNumber": "07405",
      "identificationNumber": "B95546354",
      "address": "c/ ANSELMA DE SALCES, 18",
      "location": {
        "postalCode": "48007",
        "municipality": "Bilbao",
        "county": "Bizkaia",
        "municipalityId": "020",
        "countyId": "48"
      },
      "economicActivities": [
        {
          "id": "1.659.2",
          "name": "Venta al por menor de muebles de oficina y máquinas y equipos de oficina",
          "_links": {
            "self": {
              "name": "Venta al por menor de muebles de oficina y máquinas y equipos de oficina",
              "href": "https://api.euskadi.eus/procurements/companies/economic-activities/1.659.2"
            }
          }
        }
      ],
      "certificateStartDate": "2020-12-15",
      "certificateEndDate": "2026-08-11",
      "object": "A) LA IMPORTACIÓN Y EXPORTACIÓN, COMERCIALIZACIÓN TANTO AL MAYOR COMO AL MENOR Y DISTRIBUCIÓN DE TODO TIPO DE QUIPOS DE OFICINA E INFORMÁTICA EN GENERAL, TALES COMO ORDENADORES- TANTO DE GAMA DOMÉSTICA COMO PROFESIONAL O INDUSTRIAL, FAXES, TELEX Y TELETIPOS. B) EL MANTENIMIENTO INTEGRAL DE TODA CLASE DE REDES INFORMÁTICAS Y DE TELEFONÍA DE AMPLIA GAMA, ASÍ COMO LA DISTRIBUCIÓN DE EQUIPOS DE TELEFONÍA TANTO FIJA COMO MÓVIL. LA COMPRA VENTA Y DISTRIBUCIÓN DE TODA CLASE DE CENTRALES TELEFÓNICAS Y EQUIPOS ELÉCTRICOS Y ELECTRÓNICOS ANEXOS A LAS MISMAS. C) LA INSTALACIÓN COMPLETA DE TODA CLASE DE REDES INFORMÁTICAS Y DE TODO TIPO DE SISTEMAS DE COMUNICACIONES QUE EXISTAN EN EL MERCADO, TANTO POR CABLE O POR CUALQUIER OTRO MEDIO DE TRANSMISIÓN INALÁMBRICA. D) LA REALIZACIÓN DE TODO TIPO DE ACTIVIDADES RELACIONADAS CON LAS REDES DE INTERNET O CUALQUIER OTRO SISTEMA ANÁLOGO, E INCLUSO SERVICIOS DE ALMACENAMIENTO DE DATOS Y PROVEEDORES DE INTERNET. E) LA TENENCIA DE BIENES, TANTO INMUEBLES COMO MUEBLES O VALORES MOBILIARIOS, PUDIENDO OBTENER DE LOS MISMOS LOS RENDIMIENTOS SUSCEPTIBLES DE UNA BUENA ADMINISTRACIÓN. F) LA INTERMEDIACIÓN FINANCIERA Y DE SEGUROS DE TODAS CLASES DICHAS ACTIVIDADES SE EJERCERÁN SIEMPRE QUE, CUANDO SEA NECESARIO, SE CUMPLAN LOS REQUISITOS LEGALES Y SE OBSERVEN LAS AUTORIZACIONES ADMINISTRATIVAS QUE, EN SU CASO SE PRECISEN",
      "mainEntityOfPage": "https://www.contratacion.euskadi.eus/webkpe00-kperoc/es/ac71aBusquedaRegistrosWar/empresa/07405",
      "_links": {
        "self": {
          "name": "CONSUMIBLES DE TELECOMUNICACIONES, S.L.",
          "href": "https://api.euskadi.eus/procurements/companies/07405"
        }
      }
    },
    {
      "name": "ENVASES FARMACÉUTICOS, S.A.",
      "registrationNumber": "07408",
      "identificationNumber": "A78002037",
      "address": "C/Paralela, 15",
      "location": {
        "postalCode": "28860",
        "municipality": "Paracuellos de Jarama",
        "county": "Madrid",
        "municipalityId": "104",
        "countyId": "28"
      },
      "economicActivities": [
        {
          "id": "1.482.2",
          "name": "Fabricación de artículos acabados de materias plásticas",
          "_links": {
            "self": {
              "name": "Fabricación de artículos acabados de materias plásticas",
              "href": "https://api.euskadi.eus/procurements/companies/economic-activities/1.482.2"
            }
          }
        }
      ],
      "certificateStartDate": "2020-12-15",
      "certificateEndDate": "2021-04-29",
      "object": "(I) LA FABRICACIÓN Y DISTRIBUCIÓN DE ARTÍCULOS DE PLÁSTICO, INCLUIDOS LOS PRODUCTOS SANITARIOS;\r\n(II) LA IMPORTACIÓN Y/O DISTRIBUCIÓN DE PRODUCTOS SANITARIOS, ENVASES FARMACÉUTICOS, COSMÉTICOS, PRODUCTOS DE HIGIENE Y ESTÉTICA Y BIOCIDAS DE USO EN HIGIENE PERSONAL, MATERIAL DE LABORATORIO, REACTIVOS PARA DIAGNÓSTICO, INSTRUMENTACIÓN Y ELECTRODOMÉSTICOS",
      "mainEntityOfPage": "https://www.contratacion.euskadi.eus/webkpe00-kperoc/es/ac71aBusquedaRegistrosWar/empresa/07408",
      "_links": {
        "self": {
          "name": "ENVASES FARMACÉUTICOS, S.A.",
          "href": "https://api.euskadi.eus/procurements/companies/07408"
        }
      }
    },
    {
      "name": "CABOAZUL ASESORES FINANCIEROS, S.L.",
      "registrationNumber": "07401",
      "identificationNumber": "B85205789",
      "address": "C/ Padornelo 24, 1ºB",
      "location": {
        "postalCode": "28050",
        "municipality": "Madrid",
        "county": "Madrid",
        "municipalityId": "079",
        "countyId": "28"
      },
      "economicActivities": [
        {
          "id": "1.846",
          "name": "Empresas de estudios de mercado",
          "_links": {
            "self": {
              "name": "Empresas de estudios de mercado",
              "href": "https://api.euskadi.eus/procurements/companies/economic-activities/1.846"
            }
          }
        }
      ],
      "certificateStartDate": "2020-12-14",
      "certificateEndDate": "2021-06-09",
      "object": "A) LA PRESTACIÓN DE SERVICIOS PROFESIONALES DE ASESORAMIENTO FINANCIERO. EN RELACIÓN CON AQUELLOS SERVICIOS PROFESIONALES INCLUIDOS DENTRO DEL OBJETO SOCIAL QUE, CONFORME A LA NORMATIVA VIGENTE, DEBEN SER REALIZADOS POR PERSONAS FÍSICAS CON TITULACIÓN ACADÉMICA Y/O COLEGIACIÓN PROFESIONAL SUFICIENTE, LA SOCIEDAD PODRÁ REALIZAR FUNCIONES DE MEDIACIÓN ENTRE QUIENES SOLICITEN TALES SERVICIOS Y LOS PROFESIONALES INTEGRADOS EN ELLA, QUE PRESTARÁN TALES SERVICIOS EN SU PROPIO NOMBRE. EN RELACIÓN CON ESTOS SERVICIOS, LA SOCIEDAD REALIZARÁ ASIMISMO LAS FUNCIONES DE COORDINACIÓN QUE SE INDICAN EN EL SIGUIENTE APARTADO B) LA COORDINACIÓN DE LAS ACTIVIDADE4S PROFESIONALES REALIZADAS POR LOS PROFESIONALES Y EMPLEADO INTEGRADOS EN LA SOCIEDAD. C) EL DESARROLLO, EN EL ÁMBITO DE SUS SERVICIOS DE ASESORAMIENTO PROFESIONAL DE ACTIVIDADES DE INVESTIGACIÓN CIENTÍFICA Y DE FORMACIÓN EMPRESARIAL Y PROFESIONAL, A TRAVÉS DE CONFERENCIAS, SEMINARIOS, MANUALES, LIBROS Y CUALQUIER OTRO MEDIO AUDIOVISUAL, ASÍ COMO LA PUBLICACIÓN Y COMERCIALIZACIÓN DE LOS MISMOS. D) EL ASESORAMIENTO DE TODO TIPO DE SERVICIOS EMPRESARIALES, REALIZACIÓN DE ESTUDIOS Y PROYECTOS FINANCIEROS, DE MARKETING, PUBLICIDAD, DISTRIBUCIÓN, COMERCIALIZACIÓN Y EXPORTACIÓN, ASÍ COMO EJECUCIÓN DE LOS MISMOS. E) ELABORACIÓN DE PROYECTOS, PRESTACIÓN DE SERVICIOS DE CONSULTORÍA, ASESORAMIENTO, ORGANIZACIÓN E IMPLANTACIÓN DE SISTEMAS DE GESTIÓN EN TODO TIPO DE NEGOCIOS E INDUSTRIAS. F) LA COMPRAVENTA DE BIENES INMUEBLES DE CUALQUIER CLASE Y NATURALEZA, BIEN PARA LLEVAR A CABO TODA SERIE DE CONSTRUCCIONES SOBRE LOS MISMOS, PARA SU VENTA POSTERIOR POR PISOS, PARTES O EN BLOQUE O PARA REALIZAR URBANIZACIONES O CUALQUIER OTRA CLASE DE PROYECTOS",
      "mainEntityOfPage": "https://www.contratacion.euskadi.eus/webkpe00-kperoc/es/ac71aBusquedaRegistrosWar/empresa/07401",
      "_links": {
        "self": {
          "name": "CABOAZUL ASESORES FINANCIEROS, S.L.",
          "href": "https://api.euskadi.eus/procurements/companies/07401"
        }
      }
    },
    {
      "name": "BUGAR INGENIERIA Y PROYECTOS, S.L.",
      "registrationNumber": "07398",
      "identificationNumber": "B84821206",
      "address": "Paseo de la Castellana 95 Planta 29",
      "location": {
        "postalCode": "28046",
        "municipality": "Madrid",
        "county": "Madrid",
        "municipalityId": "079",
        "countyId": "28"
      },
      "economicActivities": [
        {
          "id": "1.503.1",
          "name": "Preparación y montaje de estructuras y cubiertas en edificaciones",
          "_links": {
            "self": {
              "name": "Preparación y montaje de estructuras y cubiertas en edificaciones",
              "href": "https://api.euskadi.eus/procurements/companies/economic-activities/1.503.1"
            }
          }
        },
        {
          "id": "1.504.1",
          "name": "Instalaciones eléctricas en general",
          "_links": {
            "self": {
              "name": "Instalaciones eléctricas en general",
              "href": "https://api.euskadi.eus/procurements/companies/economic-activities/1.504.1"
            }
          }
        },
        {
          "id": "1.504.3",
          "name": "Instalaciones de frío, calor y acondicionamiento de aire",
          "_links": {
            "self": {
              "name": "Instalaciones de frío, calor y acondicionamiento de aire",
              "href": "https://api.euskadi.eus/procurements/companies/economic-activities/1.504.3"
            }
          }
        },
        {
          "id": "1.505.1",
          "name": "Revestimientos exteriores e interiores de todas clases",
          "_links": {
            "self": {
              "name": "Revestimientos exteriores e interiores de todas clases",
              "href": "https://api.euskadi.eus/procurements/companies/economic-activities/1.505.1"
            }
          }
        },
        {
          "id": "1.505.2",
          "name": "Solados y pavimentos de todas clases en cualquier tipo de obra",
          "_links": {
            "self": {
              "name": "Solados y pavimentos de todas clases en cualquier tipo de obra",
              "href": "https://api.euskadi.eus/procurements/companies/economic-activities/1.505.2"
            }
          }
        },
        {
          "id": "1.505.3",
          "name": "Preparación y colocación de solados y pavimentos de madera",
          "_links": {
            "self": {
              "name": "Preparación y colocación de solados y pavimentos de madera",
              "href": "https://api.euskadi.eus/procurements/companies/economic-activities/1.505.3"
            }
          }
        },
        {
          "id": "1.505.6",
          "name": "Pintura, revestimientos y terminación y decoración de locales",
          "_links": {
            "self": {
              "name": "Pintura, revestimientos y terminación y decoración de locales",
              "href": "https://api.euskadi.eus/procurements/companies/economic-activities/1.505.6"
            }
          }
        }
      ],
      "certificateStartDate": "2020-12-11",
      "certificateEndDate": "2021-04-23",
      "object": "APLICACIÓN DE PINTURAS, INDUSTRIAL Y REVESTIMIENTOS DE FACHADAS. CONSTRUCCIÓN, REHABILITACIÓN, PROYECTOS DE INGENIERÍA, OBRA CIVIL E INDUSTRIAL, REFORMAS. PROYECTOS DE CALIDAD, CONSULTORÍA, ASESORAMIENTO EN INGENIERÍA. PREVENCIÓN DE RIESGOS. INSTALACIONES DE AIRE ACONDICIONADO. ADQUISICIÓN POR CUALQUIER TÍTULO DE FINCAS RÚSTICAS Y URBANAS, LA CONSTRUCCIÓN DE ÉSTAS Y LA ADMINISTRACIÓN, TENENCIA, PROMOCIÓN, EXPLOTACIÓN Y ARRENDAMIENTO DE TALES BIENES Y SU VENTA TOTAL O PARCIAL, SEGÚN CONVENGA, PARA SU APROVECHAMIENTO FORESTAL, AGRÍCOLA, INDUSTRIAL O CUALQUIER OTRO",
      "mainEntityOfPage": "https://www.contratacion.euskadi.eus/webkpe00-kperoc/es/ac71aBusquedaRegistrosWar/empresa/07398",
      "_links": {
        "self": {
          "name": "BUGAR INGENIERIA Y PROYECTOS, S.L.",
          "href": "https://api.euskadi.eus/procurements/companies/07398"
        }
      }
    },
    {
      "name": "XELANAI, S.L.",
      "registrationNumber": "07399",
      "identificationNumber": "B86365673",
      "address": "Fausto Elhuyar, 26",
      "location": {
        "postalCode": "28802",
        "municipality": "Alcalá de Henares",
        "county": "Madrid",
        "municipalityId": "005",
        "countyId": "28"
      },
      "economicActivities": [
        {
          "id": "1.501.1",
          "name": "Construcción completa, reparación y conservación de edificaciones",
          "_links": {
            "self": {
              "name": "Construcción completa, reparación y conservación de edificaciones",
              "href": "https://api.euskadi.eus/procurements/companies/economic-activities/1.501.1"
            }
          }
        }
      ],
      "certificateStartDate": "2020-12-11",
      "certificateEndDate": "2021-05-17",
      "object": "LA REALIZACIÓN DE ESTUDIOS Y PROYECTOS DE ARQUITECTURA E INGENIERÍA INDUSTRIAL E INFORMÁTICA, INDIRECTAMENTE, MEDIANTE LA CONTRATACIÓN DE PERSONAL CON LA TITULACIÓN NECESARIA. LA COMPRAVENTA Y ADMINISTRACIÓN DE TODA CLASE DE PARTICIPACIONES Y ACCIONES, SIN INCIDIR EN LAS ACTIVIDADES EXPRESAMENTE RESERVADAS POR LA LEY A LAS INSTITUCIONES DE INVERSIÓN COLECTIVA Y LAS QUE LA LEY DEL MERCADO DE VALORES RESERVA A LAS AGENCIAS Y/O SOCIEDADES DE VALORES Y BOLSA",
      "mainEntityOfPage": "https://www.contratacion.euskadi.eus/webkpe00-kperoc/es/ac71aBusquedaRegistrosWar/empresa/07399",
      "_links": {
        "self": {
          "name": "XELANAI, S.L.",
          "href": "https://api.euskadi.eus/procurements/companies/07399"
        }
      }
    },
    {
      "name": "PROSAC PRODUCTOS S.L.U.",
      "registrationNumber": "07400",
      "identificationNumber": "B87853230",
      "address": "C/ ARANDA 13",
      "location": {
        "postalCode": "09471",
        "municipality": "Fuentelcésped",
        "county": "Burgos",
        "municipalityId": "137",
        "countyId": "09"
      },
      "economicActivities": [
        {
          "id": "1.619.9",
          "name": "Venta al por mayor de otros productos n.c.o.p",
          "_links": {
            "self": {
              "name": "Venta al por mayor de otros productos n.c.o.p",
              "href": "https://api.euskadi.eus/procurements/companies/economic-activities/1.619.9"
            }
          }
        },
        {
          "id": "1.849.8",
          "name": "Multiservicios intensivos en personal",
          "_links": {
            "self": {
              "name": "Multiservicios intensivos en personal",
              "href": "https://api.euskadi.eus/procurements/companies/economic-activities/1.849.8"
            }
          }
        }
      ],
      "certificateStartDate": "2020-12-11",
      "certificateEndDate": "2021-05-04",
      "object": "1. LA INTERMEDIACIÓN DEL COMERCIO DE TODA CLASE DE PRODUCTOS AUTORIZADOS POR LA LEY. (SIENDO SU OBJETO PRINCIPAL TIENE COMO CNAE: 46.19). 2. COMERCIO MAYOR Y MENOR DE PRODUCTOS PARA AGRICULTURA, AGROALIMENTARIOS Y SUS DERIVADOS, PLANTAS Y PRODUCTOS DE JARDINERÍA EN GENERAL. 3. TODO TIPO DE TRABAJOS DE CONSERVACIÓN Y MANTENIMIENTO MONTES, PARQUES Y JARDINES, SERVICIOS EN GENERAL TANTO PÚBLICOS COMO PRIVADOS, INCLUYENDO TRATAMIENTOS FITOSANITARIOS, SELVÍCOLAS Y DEMÁS TRABAJOS AGRÍCOLAS , DE JARDINERÍA Y FORESTALES. ADQUISICIÓN Y VENTA DE PRODUCTOS Y EQUIPOS RELACIONADOS CON LAS ACTIVIDADES ANTERIORES. 4. LIMPIEZA Y RECOGIDA, ELIMINACIÓN DE RESIDUOS INDUSTRIALES, SANITARIOS, INERTES, RESIDUOS DE LAS INSTALACIONES PARA EL TRATAMIENTO DE RESIDUOS, INCLUYENDO LA GESTIÓN DEL TRATAMIENTO DE LOS MISMOS Y TRANSPORTE A VERTEDERO DE TODA CLASE DE RESIDUOS, TRATAMIENTO E INCINERACIÓN DE RESIDUOS Y DESECHOS URBANOS, GESTIÓN Y EXPLOTACIÓN DE VERTEDEROS PÚBLICOS E INSTALACIONES DE TRATAMIENTOS DE RESIDUOS. SUMINISTRO DE EQUIPAMIENTO, MATERIALES Y PRODUCTOS PARA TRATAMIENTO DE TODA CLASE DE RESIDUOS, INCLUIDOS LOS RESIDUOS MÉDICOS Y SANITARIOS. 5. SERVICIOS Y SUMINISTROS DE LIMPIEZA EN GENERAL, HIGIENIZACIÓN, ESTERILIZACIÓN, DESINFECCIÓN, DESINSECTACIÓN, DESRATIZACIÓN Y DESCONTAMINACIÓN EN GENERAL. 6. CONSULTORÍA, ASISTENCIA TÉCNICA EN GENERAL Y SUMINISTRO DE MATERIALES, PRODUCTOS Y EQUIPAMIENTOS PARA LAS ADMINISTRACIONES PÚBLICAS Y EMPRESAS PRIVADAS. 7. SERVICIOS DE CONSERVACIÓN, EJECUCIÓN DE OBRAS Y MANTENIMIENTO DE EDIFICIOS CARRETERAS, PISTAS, AUTOPISTAS, AUTOVÍAS, CALZADAS, VÍAS FÉRREAS, REDES DE AGUA, ALCANTARILLADO, MOBILIARIO URBANO, MONUMENTOS Y EDIFICIOS SINGULARES. ADQUISICIÓN Y COMERCIALIZACIÓN DE EQUIPOS, MATERIALES Y PRODUCTOS RELACIONADOS. 8. SERVICIOS DE PORTERÍA, CONTROL DE ACCESOS E INFORMACIÓN AL PÚBLICO, SERVICIOS DE ORDENANZA, RECEPCIÓN, PORTERÍA Y SERVICIOS ANÁLOGOS, SERVICIOS DE ATENCIÓN AL PÚBLICO Y GUÍAS MUSEOS, ASISTENCIA, RECEPCIÓN E INFORMACIÓN AL PÚBLICO DE TODAS LAS ACTIVIDADES ORGANIZADAS. SERVICIOS Y SUMINISTRO DE DISPOSITIVOS PARA EL CONTROL DE PRESENCIA Y TIEMPO. 9. LA REALIZACIÓN DE TODO TIPO DE TRABAJOS RELACIONADOS CON LA PROTECCIÓN Y CONSERVACIÓN DEL MEDIO AMBIENTE, TANTO DE ESPECIES ANIMALES COMO VEGETALES, INCLUIDAS LAS ACTIVIDADES RELACIONADAS CON EL TRATAMIENTO DE RESIDUOS, DESARROLLO SOSTENIBLE, MANTENIMIENTO DE HÁBITAT Y MEDIOS NATURALES. SERVICIOS DE PROTECCIÓN DE ESPECIES. SERVICIOS DE GUARDERÍA Y CUIDADO DE ANIMALES. 10. REALIZACIÓN DE TODO TIPO DE OBRAS,  SERVICIOS Y SUMINISTROS RELACIONADOS CON EL SECTOR AGRARIO, MEDIO RURAL, FORESTAL Y GANADERO. 11. OPERACIÓN LOGÍSTICA Y TRANSPORTE DE MERCANCÍA POR CUALQUIER MEDIO. ADQUISICIÓN Y COMERCIALIZACIÓN DE EQUIPAMIENTO Y MATERIALES DE CARÁCTER LOGÍSTICO. 12. MANTENIMIENTO, OBRAS Y ASISTENCIA TÉCNICA DE INSTALACIONES DE ELECTRICIDAD, FONTANERÍA Y CALEFACCIÓN, CONTRAINCENDIOS, TELECOMUNICACIONES Y DE INSTALACIONES EN GENERAL. ADQUISICIÓN Y COMERCIALIZACIÓN DE EQUIPAMIENTO, MATERIALES Y PRODUCTOS RELACIONADOS CON LAS ACTIVIDADES ANTERIORES. 13. SERVICIOS DE COMUNICACIÓN, MARKETING, PUBLICIDAD, GESTIÓN DE EVENTOS, SENSIBILIZACIÓN, ATENCIÓN E INFORMACIÓN PRESENCIAL Y TELEFÓNICA, TELEASISTENCIA, TELEMARKETING, FUERZA DE VENTAS, FIDELIZACIÓN, COMERCIO ELECTRÓNICO, PROMOCIÓN INSTITUCIONAL Y EMPRESARIAL Y CUALQUIER OTRO SERVICIO PRESTADO A TRAVÉS DE MEDIOS TELEFÓNICOS, TELEMÁTICOS Y MEDIANTE INTERNET, PRESENCIAL Y ASISTENCIA MATERIAL CON SUMINISTRO DE EQUIPAMIENTO Y DISPOSITIVOS. 14. SERVICIOS CULTURALES, FORMATIVOS, EDUCATIVOS, ARQUEOLÓGICOS, TURÍSTICOS, CATERING Y HOSTELERÍA, ASÍ COMO LA FORMACIÓN Y LA ADQUISICIÓN Y VENTA DE EQUIPAMIENTOS Y PRODUCTOS EN ESTOS ÁMBITOS. 15. LA REALIZACIÓN DE SERVICIOS Y SUMINISTROS RELACIONADOS CON LA MEJORA DE LOS SISTEMAS DE PRODUCCIÓN AGRARIA Y DESARROLLO DEL MEDIO RURAL, ASÍ COMO LA FORMACIÓN Y GESTIÓN DE LOS RECURSOS HUMANOS EN MATERIA Y SECTORES AGRÍCOLA, FORESTAL, MEDIOAMBIENTAL, AGROALIMENTARIA, GANADERA, FITOSANITARIA, DEL MEDIO RURAL Y OTRAS MATERIAS ANÁLOGAS, EN TODOS SUS GRADOS, NIVELES Y DIFERENTES ÁMBITOS GEOGRÁFICOS. ADQUISICIÓN Y SUMINISTRO DE FERTILIZANTES, FITOSANITARIOS, PESTICIDAS, BIOCIDAS; ASÍ COMO MATERIALES, EQUIPOS Y PRODUCTOS PARA TRATAMIENTOS Y CONTROL DE VEGETALES Y ANIMALES, ASÍ COMO SUS PLAGAS Y ENFERMEDADES. 16. TRABAJOS DE CONSERVACIÓN, MANTENIMIENTO, LIMPIEZA, ADQUISICIÓN Y VENTA DE MATERIALES Y EQUIPAMIENTO, VIGILANCIA Y AUDITORÍA EN INSTALACIONES DEPORTIVAS Y DE OCIO.17. ESTUDIO Y ELABORACIÓN DE INFORMES, ESTUDIOS, FLUJOS DE TRABAJO, PLANES, PROYECTOS DE CARÁCTER TÉCNICO, ORGANIZATIVO, ECONÓMICO O SOCIAL, ASÍ COMO LA DIRECCIÓN, SUPERVISIÓN Y CONTROL DE LA EJECUCIÓN Y MANTENIMIENTO DE OBRAS, INSTALACIONES Y LA IMPLANTACIÓN DE SISTEMAS ORGANIZATIVOS, EL SEGUIMIENTO DE LOS RIESGOS LABORALES Y LA GESTIÓN DE AUTORIZACIONES, PERMISOS Y AYUDAS. 18. SERVICIOS DE ANÁLISIS, DISEÑO, DESARROLLO, CONSTRUCCIÓN, IMPLANTACIÓN Y MANTENIMIENTO DE APLICACIONES Y SISTEMAS DE TECNOLOGÍAS DE LA INFORMACIÓN, MANTENIMIENTO Y REPARACIÓN DE EQUIPOS, SERVIDORES, SISTEMAS E INSTALACIONES INFORMÁTICAS Y DE TELECOMUNICACIONES, ASÍ COMO LA ADQUISICIÓN Y VENTA DE SOFTWARE Y HARDWARE INFORMÁTICOS, GESTIÓN Y SOPORTE A DICHOS SISTEMAS COMO CENTRO DE ATENCIÓN A USUARIOS O GESTOR DE SERVICIOS DE TECNOLOGÍAS DE LA   INFORMACIÓN. 19. TRABAJOS DE INVESTIGACIÓN, DESARROLLO E IMPLANTACIÓN DE NUEVAS TECNOLOGÍAS, ASÍ COMO LA FORMACIÓN EN ESTAS MATERIAS Y COMERCIALIZACIÓN TECNOLÓGICA. 20. SERVICIOS DE ATENCIÓN A DISCAPACITADOS, ENFERMOS, PERSONAS MAYORES, MENORES Y SERVICIOS SOCIALES Y SOCIO SANITARIOS DESTINADOS A CUALQUIER COLECTIVO. 21. SERVICIOS DE ATENCIÓN Y PROTECCIÓN DE TUTELADOS E INCAPACITADOS, GESTIÓN Y ADMINISTRACIÓN INTEGRAL DE SUS BIENES Y PATRIMONIOS. 22. SERVICIOS Y SUMINISTROS DE EQUIPOS, MATERIALES, PRODUCTOS Y DISPOSITIVOS MÉDICOS, FARMACÉUTICOS, VETERINARIOS Y SALUD PÚBLICA EN GENERAL. 23. ADQUISICIÓN Y SUMINISTRO DE MAQUINARIA, EQUIPAMIENTO Y PRODUCTOS QUÍMICOS INDUSTRIALES Y SUSDERIVADOS, SU GESTIÓN Y COMERCIALIZACIÓN PARA CUALQUIER DESTINO O ACTIVIDAD. 24. SERVICIOS DE GESTIÓN DE ACTIVIDADES DE IPREVENCIÓN DE RIESGOS LABORALES. ADQUISICIÓN Y SUMINISTRO DE QUIPOS DE PROTECCIÓN INDIVIDUAL Y COLECTIVA. 25. CONSULTORÍA, ASISTENCIA TÉCNICA, FORMACIÓN Y SUMINISTRO DE EQUIPOS Y MAERIALES DE CARÁCTER MILITAR O POLICIAL, INTELIGENCIA, DEFENSA Y SEGURIDAD EN GENERAL. 26. SERVICIOS DE SEGURIDAD Y PROTECCIÓN DE PERSONAS, BIENES E INSTALACIONES. SUMINISTRO DE EQUIPOS, PRODUCTOS Y DISPOSITIVOS DE PROTECCIÓN, TESTEO Y CONTROL CIVIL O POLICIAL, CONTROL BIOMÉTRICO Y VIGILANCIA. 27. CONSULTORÍA, ASISTENCIA TÉCNICA Y SUMINISTRO DE EQUIPOS Y SOFTWARE DE CONTROL DE RIESGO, BUSINESS INTELLIGENCE, INTELIGENCIA ARTIFICIAL, GESTIÓN Y PROTECCIÓN DE DATOS, AUDITORÍA Y COMPLIANCE. 28. INVESTIGACIÓN Y DESARROLLO DE NUEVOS MATERIALES Y MAQUINARIA, SU USO DIRECTO O INDIRECTO Y SERVICIOS CONEXOS\r\n",
      "mainEntityOfPage": "https://www.contratacion.euskadi.eus/webkpe00-kperoc/es/ac71aBusquedaRegistrosWar/empresa/07400",
      "_links": {
        "self": {
          "name": "PROSAC PRODUCTOS S.L.U.",
          "href": "https://api.euskadi.eus/procurements/companies/07400"
        }
      }
    },
    {
      "name": "CERVIC, S.A.",
      "registrationNumber": "07395",
      "identificationNumber": "A03306958",
      "address": "Avenida del juguete, 14",
      "location": {
        "postalCode": "03440",
        "municipality": "Ibi",
        "county": "Alicante/Alacant",
        "municipalityId": "079",
        "countyId": "03"
      },
      "economicActivities": [
        {
          "id": "1.316.7",
          "name": "Fabricación de recipientes y envases metálicos",
          "_links": {
            "self": {
              "name": "Fabricación de recipientes y envases metálicos",
              "href": "https://api.euskadi.eus/procurements/companies/economic-activities/1.316.7"
            }
          }
        },
        {
          "id": "1.619.9",
          "name": "Venta al por mayor de otros productos n.c.o.p",
          "_links": {
            "self": {
              "name": "Venta al por mayor de otros productos n.c.o.p",
              "href": "https://api.euskadi.eus/procurements/companies/economic-activities/1.619.9"
            }
          }
        }
      ],
      "certificateStartDate": "2020-12-10",
      "certificateEndDate": "2021-04-19",
      "object": "LA TRANSFORMACIÓN, FABRICACIÓN Y COMERCIALIZACIÓN DE ENVASES Y OTROS PRODUCTOS DE PLÁSTICO",
      "mainEntityOfPage": "https://www.contratacion.euskadi.eus/webkpe00-kperoc/es/ac71aBusquedaRegistrosWar/empresa/07395",
      "_links": {
        "self": {
          "name": "CERVIC, S.A.",
          "href": "https://api.euskadi.eus/procurements/companies/07395"
        }
      }
    }
  ]
}