{
  "totalItems": 9042,
  "totalPages": 905,
  "currentPage": 758,
  "itemsOfPage": 10,
  "items": [
    {
      "name": "PROMOCIONES INDUSTRIALES URITIASOLO, S.L.",
      "registrationNumber": "03021",
      "identificationNumber": "B01034099",
      "address": "GENERAL ÁLAVA, 6 BAJO",
      "location": {
        "postalCode": "01005",
        "municipality": "Vitoria-Gasteiz",
        "county": "Araba/Álava",
        "municipalityId": "059",
        "countyId": "01"
      },
      "economicActivities": [
        {
          "id": "1.501.1",
          "name": "Construcción completa, reparación y conservación de edificaciones",
          "_links": {
            "self": {
              "name": "Construcción completa, reparación y conservación de edificaciones",
              "href": "https://api.euskadi.eus/procurements/companies/economic-activities/1.501.1"
            }
          }
        },
        {
          "id": "1.833.2",
          "name": "Promoción de edificaciones",
          "_links": {
            "self": {
              "name": "Promoción de edificaciones",
              "href": "https://api.euskadi.eus/procurements/companies/economic-activities/1.833.2"
            }
          }
        }
      ],
      "certificateStartDate": "2008-09-30",
      "certificateEndDate": "2009-03-02",
      "object": "TANTO DIRECTAMENTE COMO DE FORMA INDIRECTA, MEDIANTE LA TITULARIDAD DE ACCIONES O PARTICIPACIONES EN SOCIEDADES CON OBJETO IDÉNTICO ANÁLOGO, LA PROMOCIÓN, CONSTRUCCIÓN Y VENTA DE VIVIENDAS, LOCALES Y EDIFICACIONES DE TODA CLASE; LA EJECUCIÓN DE OBRAS DE CUALQUIER NATURALEZA POR CUENTA DE TERCEROS, CON ESPECIAL INCIDENCIA EN LAS OBRAS PÚBLICAS Y EN LOS PLANES DE URBANIZACIÓN ",
      "mainEntityOfPage": "https://www.contratacion.euskadi.eus/webkpe00-kperoc/es/ac71aBusquedaRegistrosWar/empresa/03021",
      "_links": {
        "self": {
          "name": "PROMOCIONES INDUSTRIALES URITIASOLO, S.L.",
          "href": "https://api.euskadi.eus/procurements/companies/03021"
        }
      }
    },
    {
      "name": "CAFRIVENT, S.L.",
      "registrationNumber": "03652",
      "identificationNumber": "B20577870",
      "address": "POLIG.IND. BIDEBITARTE",
      "location": {
        "postalCode": "20115",
        "municipality": "Astigarraga",
        "county": "Gipuzkoa",
        "municipalityId": "903",
        "countyId": "20"
      },
      "economicActivities": [
        {
          "id": "1.504.3",
          "name": "Instalaciones de frío, calor y acondicionamiento de aire",
          "_links": {
            "self": {
              "name": "Instalaciones de frío, calor y acondicionamiento de aire",
              "href": "https://api.euskadi.eus/procurements/companies/economic-activities/1.504.3"
            }
          }
        }
      ],
      "certificateStartDate": "2008-09-29",
      "certificateEndDate": "2009-03-03",
      "object": "LA COMPRA, VENTA, ALQUILER, INSTALACIÓN, MANTENIMIENTO Y REPARACIÓN DE TODO TIPO DE SISTEMAS DE AIRE ACONDICONADO. LA COMPRA Y VENTA DE TODO TIPO DE PIEZAS Y MATERIALES RELAICONADAS CON LO ANTERIOR",
      "mainEntityOfPage": "https://www.contratacion.euskadi.eus/webkpe00-kperoc/es/ac71aBusquedaRegistrosWar/empresa/03652",
      "_links": {
        "self": {
          "name": "CAFRIVENT, S.L.",
          "href": "https://api.euskadi.eus/procurements/companies/03652"
        }
      }
    },
    {
      "name": "PROMOCIONES Y CONSTRUCCIONES ELORRI GASTEIZ, S.L.U.",
      "registrationNumber": "03653",
      "identificationNumber": "B01406438",
      "address": "C/ ELORRIAGA, 42- BAJO",
      "location": {
        "postalCode": "01192",
        "municipality": "Vitoria-Gasteiz",
        "county": "Araba/Álava",
        "municipalityId": "059",
        "countyId": "01"
      },
      "economicActivities": [
        {
          "id": "1.501.3",
          "name": "Albañilería y pequeños trabajos de construcción en general",
          "_links": {
            "self": {
              "name": "Albañilería y pequeños trabajos de construcción en general",
              "href": "https://api.euskadi.eus/procurements/companies/economic-activities/1.501.3"
            }
          }
        },
        {
          "id": "1.833.2",
          "name": "Promoción de edificaciones",
          "_links": {
            "self": {
              "name": "Promoción de edificaciones",
              "href": "https://api.euskadi.eus/procurements/companies/economic-activities/1.833.2"
            }
          }
        }
      ],
      "certificateStartDate": "2008-09-29",
      "certificateEndDate": "2009-03-16",
      "object": "LA PROMOCIÓN, CONSTRUCCIÓN, DECORACIÓN, COMPRAVENTA, Y DEMÁS OPERACIONES JURÍDICAS, INCLUIDA LA INTERMEDIACIÓN, POR CUENTA DE PERSONAS AJENAS, DE VIVIENDAS, LOCALES Y GARAJES, ASÍ COMO LA ADQUISICIÓN DE TERRENOS, SU PARCELACIÓN Y URBANIZACIÓN, ARRENDAMIENTO Y VENTA DE LOS MISMOS, LA REALIZACIÓN DE TODO TIPO DE OBRAS; LA COMPRAVENTA DE MATERIALES DE CONSTRUCCIÓN, DE ARTÍCULOS Y ELEMENTOS SANITARIOS Y DE MOBILIARIO EN GENERAL",
      "mainEntityOfPage": "https://www.contratacion.euskadi.eus/webkpe00-kperoc/es/ac71aBusquedaRegistrosWar/empresa/03653",
      "_links": {
        "self": {
          "name": "PROMOCIONES Y CONSTRUCCIONES ELORRI GASTEIZ, S.L.U.",
          "href": "https://api.euskadi.eus/procurements/companies/03653"
        }
      }
    },
    {
      "name": "JUAN SANCHIZ CREATIVOS, S.L.",
      "registrationNumber": "01847",
      "identificationNumber": "B01057751",
      "address": "C/ PASEO DE LA FLORIDA, Nº 3. DPTO.: 14.",
      "location": {
        "postalCode": "01005",
        "municipality": "Vitoria-Gasteiz",
        "county": "Araba/Álava",
        "municipalityId": "059",
        "countyId": "01"
      },
      "economicActivities": [
        {
          "id": "1.844",
          "name": "Servicios de publicidad, relaciones públicas y similares",
          "_links": {
            "self": {
              "name": "Servicios de publicidad, relaciones públicas y similares",
              "href": "https://api.euskadi.eus/procurements/companies/economic-activities/1.844"
            }
          }
        }
      ],
      "certificateStartDate": "2008-09-24",
      "certificateEndDate": "2009-02-26",
      "object": "LAS RELACIONES PÚBLICAS Y SERVICIOS PUBLICITARIOS",
      "mainEntityOfPage": "https://www.contratacion.euskadi.eus/webkpe00-kperoc/es/ac71aBusquedaRegistrosWar/empresa/01847",
      "_links": {
        "self": {
          "name": "JUAN SANCHIZ CREATIVOS, S.L.",
          "href": "https://api.euskadi.eus/procurements/companies/01847"
        }
      }
    },
    {
      "name": "SERGEPLUS, S.L.",
      "registrationNumber": "03314",
      "identificationNumber": "B95409629",
      "address": "AVELLANEDA, 21",
      "location": {
        "postalCode": "48002",
        "municipality": "Sopuerta",
        "county": "Bizkaia",
        "municipalityId": "086",
        "countyId": "48"
      },
      "economicActivities": [
        {
          "id": "1.847",
          "name": "Servicios de consultoría",
          "_links": {
            "self": {
              "name": "Servicios de consultoría",
              "href": "https://api.euskadi.eus/procurements/companies/economic-activities/1.847"
            }
          }
        }
      ],
      "certificateStartDate": "2008-09-24",
      "certificateEndDate": "2009-02-06",
      "object": "1. LA PRESTACIÓN DE SERVICIOS A LAS EMPRESAS Y ORGANISMOS PÚBLICOS Y PRIVADOS, DE CONTABILIDAD, DE GESTIÓN ADMINISTRATIVA, TENEDURÍA DE LIBROS, CENSURA DE CUENTAS, AUDITORIA, MATERIA FISCAL, ECONÓMICA Y FINANCIERA Y DE OTROS SERVICIOS INDEPENDIENTES DE ASESORÍA FISCAL, LEGAL, LABORAL, JURÍDICA Y CONTABLE, ASÍ COMO, EL ASESORAMIENTO, INFORMACIÓN Y RESOLUCIÓN DE CONSULTAS SOBRE ACTIVIDADES INDUSTRIALES Y ECONÓMICAS.\r\n2. LA PRESTACIÓN DE SERVICIOS DE PUBLICIDAD, MEDIANTE ANUNCIOS, CARTELES, FOLLETOS, PELÍCULAS PUBLICITARIAS, ETC. A TRAVÉS DE PRENSA, RADIO, TELEVISIÓN, SOPORTES INFORMÁTICOS, PÁGINAS WEB, PUBLICIDAD AÉREA U OTROS MEDIOS, LA CREACIÓN Y DIFUSIÓN DE ANUNCIOS O CAMPAÑAS DE INFORMACIÓN PUBLICITARIA, PROPAGANDA ELECTORAL, COMUNICACIÓN INSTITUCIONAL O PÚBLICA E IMAGEN CORPORATIVA, LA PUBLICIDAD EXTERIOR, DIRECTA Y MARKETING DIRECTO, DISTRIBUIDORAS Y CENTRALES DE COMPRAS, ESTUDIOS DE PUBLICIDAD, RELACIONES PÚBLICAS, PROMOCIÓN DE VENTAS PUBLICITARIAS, REGALOS Y RECLAMOS PUBLICITARIOS.\r\n3. LA PRESTACIÓN DE SERVICIOS DE ESTUDIO Y ANÁLISIS DE PROCESOS PARA SU TRATAMIENTO MECÁNICO, DE PROGRAMACIÓN PARA EQUIPOS ELECTRÓNICOS, DE REGISTRO DE DATOS EN SOPORTES DE ENTRADA PARA ORDENADORES, ASÍ COMO LA VENTA DE PROGRAMAS, EL PROCESO DE DATOS POR CUENTA DE TERCEROS Y OTROS SERVICIOS INDEPENDIENTES DE ELABORACIÓN DE DATOS Y TABULACIÓN.\r\n4. LA REALIZACIÓN DE ESTUDIOS DE MERCADO, ESTUDIOS DE OPINIÓN, DE HÁBITOS DE COMPRA Y OTROS SERVICIOS INDEPENDIENTES DE INFORMACIÓN E INVESTIGACIÓN COMERCIAL.\r\n5. LAS ACTIVIDADES DE INTERMEDIACIÓN COMERCIAL CUYO OBJETO EXCLUSIVO O PRINCIPAL CONSISTE EN PONER EN RELACÍÓN A COMPRADOR Y VENDEDOR O BIEN EN REALIZAR ACTOS DE COMERCIO POR CUENTA DE SUS COMITENTES, EN TODAS LAS FASES DE LA COMERCIALIZQACIÓN DE TODA CLASE DE PRODUCTOS.\r\n6. EL COMERCIO AL POR MENOR DE MUEBLES DE OFICINA Y DE MÁQUINAS Y EQUIPOS DE OFICINA E INFORMÁTICOS, SOFTWARE Y PROGRAMAS , ASÍ COMO EL COMERCIO AL POR MENOR DE LIBROS, PERIÓDICOS, ARTÍCULOS DE PAPELERÍA Y ESCRITORIO Y ARTÍCULOS DE DIBUJO Y BELLAS ARTES.\r\n7. LA ADQUISICIÓN, TENENCIA, DISFRUTE, ADMINISTRACIÓN EN GENERAL Y ENJENACIÓN DE TODA CLASE DE TÍTULOS, COMO VALORES MOBILIARIOS, ACTIVOS FINANCIEROS, DERECHOS, VALORES, CUOTAS O PARTICIPACIONES EN EMPRESAS INDIVIDUALES O SOCIALES POR CUENTA PROPIA Y CON EXCEPCIÓN DE LA INTERMEDIACIÓN, NO INCLUYÉNDOSE EN NINGÚN CASO LAS ACTIVIDADES OBJETO DE LA LEGISLACIÓN DE INSTITUCIONES DE INVERSIÓN COLECTIVA Y MERCADO DE VALORES.\r\n8. LA PRESTACIÓN DE SERVICIOS DE INTERMEDIACIÓN, REPRESENTACIÓN, ASESORAMIENTO Y ASISTENCIA TÉCNICA A EMPRESAS, PROFESIONALES, DEPORTISTAS, ARTISTAS Y PARTICULARES, ASÍ COMO ORGANISMOS PÚBLICOS, EN MATERIA ECONÓMICA, INFORMÁTICA, FINANCIERA Y TÉCNICA; DE GESTIÓN, ORGANIZACIÓN Y ADMINISTRACIÓN, DEPORTIVA, ARTÍSTICA, ASÍ COMO DE CARÁCTER INFORMÁTICO, CONTABLE, TRIBUTARIO, SOCIAL, LABORAL Y JURÍDICO.\r\n9. LA EXPLOTACIÓN COMERCIAL E INDUSTRIAL EN CUALQUIER FORMA JURÍDICA Y ECONÓMICA Y EN PARTICULAR MEDIANTE EL COBRO DE CÁNONES O ROYALTIES Y DE DERECHOS DE PROPIEDAD INDUSTRIAL E INTELECTUAL Y EN PARTICULAR DE: PROCEDIMIENTOS DE FABRICACIÓN, MARCAS COMERCIALES E INDUSTRIALES, PATENTES DE INVENCIÓN, INTRODUCCIÓN O CUALQUIER OTRA MODALIDAD, Y DE MODELOS DE UTILIDAD; Y OSTENTAR LA REPRESENTACIÓN DE FIRMAS Y DE EMPRESAS AVÍCOLAS COMERCIALES O INDUSTRIALES, FÍSICAS O JURÍDICAS, PÚBLICAS O PRIVADAS, Y ASÍ NACIONALES COMO EXTRANJERAS; Y COLABORAR CON LAS MISMAS MEDIANTE CUALQUIER TIPO DE ASOCIACIÓN LEGAL.\r\n10. LA TRAMITACIÓN DE DOCUMENTACIÓN, SEGUROS, PRÉSTAMOS Y OTRAS FORMAS DE FINANCIACIÓN.\r\n11. OSTENTAR LA REPRESENTACIÓN COMERCIAL O PROCEDER A LA DISTRIBUCIÓN COEMRCIAL DE PRODUCTOS, MATERIALES Y EQUIPAMIENTOS, BIEN SEA COMO REPRESENTATE COMERCIAL, DISTRIBUIDOR O EN RÉGIMEN DE FRANQUICIA.\r\n12. LA PROMOCIÓN, CONSTRUCCIÓN, COMPRAVENTA, ADQUISICIÓN Y TRANSMISIÓN POR CUALQUER TÍTULO O  CAUSA, DE FORMA DIRECTA O EN NOMBRE DE SUS REPRESENTADAS, DE TODA CLASE DE INMUEBLES URBANOS O RÚSTICOS, INCLUIDOS SOLARES Y EDIFICACIONES DE CUALQUIER CLASE; ASÍ COM FÁBRICAS Y ALMACENES, NAVES INDUSTRIALES, FACTORÍAS E INSTALACIÓNES FABRILES DE TODO TIPO.\r\n13. EL ARRENDAMIENTO O CESIÓN DE USO Y DISFRUTE POR OTROS TÍTULOS, TANTO ACTIVA COMO PASIVAMENTE, DE TODA CLASE DE INMUEBLES URBANOS O RÚSTICOS, INCLUIDOS LOS SOLARES Y EDIFICACIONES DE CUALQUIER CLASE, ASÍ COMO FABRÍCAS Y ALMACENES, NAVES INDUSTRIALES, FACTORÍAS E INSTALACIONES FABRILES DE TODO TIPO, EXCEPTO EL ARRENDAMIENTO FINANCIERO O LEASING.\r\n14. LA INFORMACIÓN, ASISTENCIA TÉCNICA, CALIFICACIÓN, ASESORAMIENTO Y PROMOCIÓN DE NEGOCIOS INMOBILIARIOS",
      "mainEntityOfPage": "https://www.contratacion.euskadi.eus/webkpe00-kperoc/es/ac71aBusquedaRegistrosWar/empresa/03314",
      "_links": {
        "self": {
          "name": "SERGEPLUS, S.L.",
          "href": "https://api.euskadi.eus/procurements/companies/03314"
        }
      }
    },
    {
      "name": "EXCAVACIONES IDIRIN, S.L.",
      "registrationNumber": "02584",
      "identificationNumber": "B48484356",
      "address": "Bº ALBITZU, 41",
      "location": {
        "postalCode": "48499",
        "municipality": "Zeberio",
        "county": "Bizkaia",
        "municipalityId": "025",
        "countyId": "48"
      },
      "economicActivities": [
        {
          "id": "1.507",
          "name": "Construcción, reparación y conservación de toda clase obras",
          "_links": {
            "self": {
              "name": "Construcción, reparación y conservación de toda clase obras",
              "href": "https://api.euskadi.eus/procurements/companies/economic-activities/1.507"
            }
          }
        }
      ],
      "certificateStartDate": "2008-09-23",
      "certificateEndDate": "2009-02-25",
      "object": "LA REALIZACIÓN DE EXCAVACIONES Y MOVIMIENTOS  DE TIERRAS DE TODAS CLASES Y EN CUALQUIER TIPO DE SUPERFICIES; DERRIBO Y CONSTRUCCIÓN DE TODA CLASE DE EDIFICACIONES; Y LA CONTRATACIÓN DE TODO TIPO DE CONSTRUCCIONES Y OBRAS PÚBLICAS, INCLUSO CON EL ESTADO, ORGANISMOS OFICIALES Y  AUTONÓMICAS  ",
      "mainEntityOfPage": "https://www.contratacion.euskadi.eus/webkpe00-kperoc/es/ac71aBusquedaRegistrosWar/empresa/02584",
      "_links": {
        "self": {
          "name": "EXCAVACIONES IDIRIN, S.L.",
          "href": "https://api.euskadi.eus/procurements/companies/02584"
        }
      }
    },
    {
      "name": "BASOINSA, S.L.",
      "registrationNumber": "02206",
      "identificationNumber": "B48184501",
      "address": "C/ LUIS BILBAO LIBANO, 11 - ENTR. D",
      "location": {
        "postalCode": "48940",
        "municipality": "Bilbao",
        "county": "Bizkaia",
        "municipalityId": "020",
        "countyId": "48"
      },
      "economicActivities": [
        {
          "id": "1.843.1",
          "name": "Servicios técnicos de ingeniería",
          "_links": {
            "self": {
              "name": "Servicios técnicos de ingeniería",
              "href": "https://api.euskadi.eus/procurements/companies/economic-activities/1.843.1"
            }
          }
        }
      ],
      "certificateStartDate": "2008-09-22",
      "certificateEndDate": "2009-02-04",
      "object": "LA PRESTACIÓN DE SERVICIOS Y ELABORACIÓN DE ESTUDIOS Y PROYECTOS RELACIONADOS CON EL MEDIO AMBIENTE. ESTA ACTIVIDAD SE REALIZARÁ TANTO EN EL ÁMBITO DE LA NATURALEZA (ORDENACIÓN DEL TERRITORIO, IMPACTO MEDIOAMBIENTAL, PAISAJÍSMO, INGENIERÍA AGROFORESTAL, MEDIDAS CORRECTORAS DE ALTERACIONES MEDIOAMBIENTALES), COMO EN EL DE PROCESOS INDUSTRIALES (AUDITORÍAS AMBIENTALES, EN RELACIÓN CON RESIDUOS Y CONTAMINACIÓN), ASÍ COMO EN LA GESTIÓN DEL MEDIO FÍSICO, SISTEMAS INFORMÁTICOS DE INFORMACIÓN GEOGRÁFICA, TELEDETECCIÓN Y CUALQUIER OTRA ACTIVIDAD, QUE ESTÉ RELACIONADO, CONECTADA Y/O ACCESORIA DE LA RELACIONADA",
      "mainEntityOfPage": "https://www.contratacion.euskadi.eus/webkpe00-kperoc/es/ac71aBusquedaRegistrosWar/empresa/02206",
      "_links": {
        "self": {
          "name": "BASOINSA, S.L.",
          "href": "https://api.euskadi.eus/procurements/companies/02206"
        }
      }
    },
    {
      "name": "UNGRIA PATENTES Y MARCAS, S.A.",
      "registrationNumber": "02912",
      "identificationNumber": "A28378578",
      "address": "AVDA. RAMÓN Y CAJAL, 78",
      "location": {
        "postalCode": "28043",
        "municipality": "Madrid",
        "county": "Madrid",
        "municipalityId": "079",
        "countyId": "28"
      },
      "economicActivities": [
        {
          "id": "1.834",
          "name": "Servicios relativos a la propiedad inmobiliaria e industrial",
          "_links": {
            "self": {
              "name": "Servicios relativos a la propiedad inmobiliaria e industrial",
              "href": "https://api.euskadi.eus/procurements/companies/economic-activities/1.834"
            }
          }
        }
      ],
      "certificateStartDate": "2008-09-22",
      "certificateEndDate": "2009-02-07",
      "object": "INTERVENIR EN LA  SOLICITUD, GESTIÓN Y TRÁMITE DE EXPEDIENTES DE PATENTES DE INVENCIÓN, MODELOS DE UTILIDAD, MODELOS INDUSTRIALES, DIBUJOS INDUSTRIALES, MARCAS DE FÁBRICA, NOMBRES COMERCIALES, RÓTULOS DE ESTABLECIMIENTOS, NOMBRES DE PELÍCULAS CINEMATOGRÁFICAS Y, EN GENERAL, EN CUANTOSTEMAS SE CONCRETAN EN LAS DISPOSICIONES VIGENTES SOBRE PROPIEDAD INDUSTRIAL ",
      "mainEntityOfPage": "https://www.contratacion.euskadi.eus/webkpe00-kperoc/es/ac71aBusquedaRegistrosWar/empresa/02912",
      "_links": {
        "self": {
          "name": "UNGRIA PATENTES Y MARCAS, S.A.",
          "href": "https://api.euskadi.eus/procurements/companies/02912"
        }
      }
    },
    {
      "name": "ICOTEC 2000, S.A.",
      "registrationNumber": "03640",
      "identificationNumber": "A48860233",
      "address": "POL. TXAKO EDIF. 3 PAB. 5 DCHA.",
      "location": {
        "postalCode": "48480",
        "municipality": "Arrigorriaga",
        "county": "Bizkaia",
        "municipalityId": "011",
        "countyId": "48"
      },
      "economicActivities": [
        {
          "id": "1.482.1",
          "name": "Fabricación de productos semielaborados de materias plásticas",
          "_links": {
            "self": {
              "name": "Fabricación de productos semielaborados de materias plásticas",
              "href": "https://api.euskadi.eus/procurements/companies/economic-activities/1.482.1"
            }
          }
        }
      ],
      "certificateStartDate": "2008-09-18",
      "certificateEndDate": "2009-02-26",
      "object": "EL DISEÑO,  CONSTRUCCIÓN, FABRICACIÓN, INSTALACIÓN, COMERCIALIZACIÓN, MANTENIMIENTO Y EXPLOTACIÓN DE INSTALACIONES Y EQUIPOS PARA EL OCIO, LA EDUCACIÓN Y EL DEPORTE; FABRICACIÓN, TRANSFORMACIÓN Y COMERCIALIZACIÓN DE PRODUCTOS SANITARIOS, ORTOPÉDICOS, HOSPITALARIOS Y DE CONSUMO; FABRICACIÓN, TRANSFORMACIÓN Y COMERCIALIZACIÓN DE POLÍMEROS INDUSTRIALES Y MATERIALES PARA LA CONSTRUCCIÓN Y FABRICACIÓN, TRANSFORMACIÓN Y COMERCIALIZACIÓN DE MATERIALES DE EMBALAJE. TODAS LAS ACTIVIDADES QUE INTEGRAN EL OBJETO SOCIAL MENCIONADO PODRÁN DESARROLLARSE TANTO EN ESPAÑA COMO EN EL EXTRANJERO, PUDIENDO LLEVARSE A CABO BIEN DIRECTAMENTE DE FORMA TOTAL O PARCIAL POR LA SOCIEDAD, BIEN MEDIANTE LA TITULARIDAD DE ACCIONES O DE PARTICIPACIONES EN SOCIEDADES CON OBJETO IDÉNTICO O ANÁLOGO",
      "mainEntityOfPage": "https://www.contratacion.euskadi.eus/webkpe00-kperoc/es/ac71aBusquedaRegistrosWar/empresa/03640",
      "_links": {
        "self": {
          "name": "ICOTEC 2000, S.A.",
          "href": "https://api.euskadi.eus/procurements/companies/03640"
        }
      }
    },
    {
      "name": "PAGOBERRI S.L.",
      "registrationNumber": "03639",
      "identificationNumber": "B20893327",
      "address": "BO. ENDOIA - CS AREITZ ONDO, 10",
      "location": {
        "postalCode": "20740",
        "municipality": "Zestoa",
        "county": "Gipuzkoa",
        "municipalityId": "027",
        "countyId": "20"
      },
      "economicActivities": [
        {
          "id": "1.507",
          "name": "Construcción, reparación y conservación de toda clase obras",
          "_links": {
            "self": {
              "name": "Construcción, reparación y conservación de toda clase obras",
              "href": "https://api.euskadi.eus/procurements/companies/economic-activities/1.507"
            }
          }
        },
        {
          "id": "1.617.3",
          "name": "Venta al por mayor de madera y corcho",
          "_links": {
            "self": {
              "name": "Venta al por mayor de madera y corcho",
              "href": "https://api.euskadi.eus/procurements/companies/economic-activities/1.617.3"
            }
          }
        }
      ],
      "certificateStartDate": "2008-09-16",
      "certificateEndDate": "2008-12-11",
      "object": "LA PROMOCIÓN Y EJECUCIÓN COMPLETA Y POR RAMOS DE TODA CLASE DE OBRAS DE EDIFICACIÓN URBANA, INDUSTRIAL, URBANIZACIÓN, SANEAMIENTO, ABASTECIMIENTO DE AGUAS, MOVIMIENTO DE TIERRAS Y SIMILARES, EXCAVACIONES, DEMOLICIONES, DERRIBOS, CONSOLIDACIÓN Y PREPARACIÓN DE TERRENOS, OBRAS NUEVAS DE CARRETERAS, REPARACIÓN Y CONSERVACIÓN DE LAS OBRAS COMPRENDIDAS ANTERIORMENTE, ALQUILER DE MAQUINARIA PARA LA CONSTRUCCIÓN Y TRANSPORTES EN GENERAL",
      "mainEntityOfPage": "https://www.contratacion.euskadi.eus/webkpe00-kperoc/es/ac71aBusquedaRegistrosWar/empresa/03639",
      "_links": {
        "self": {
          "name": "PAGOBERRI S.L.",
          "href": "https://api.euskadi.eus/procurements/companies/03639"
        }
      }
    }
  ]
}