{
  "totalItems": 9042,
  "totalPages": 905,
  "currentPage": 150,
  "itemsOfPage": 10,
  "items": [
    {
      "name": "COLONIALES BARBED, S.A.",
      "registrationNumber": "09707",
      "identificationNumber": "A48021232",
      "address": "SAN LORENZO N.11 Bº MURTATZA",
      "location": {
        "postalCode": "48390",
        "municipality": "Bedia",
        "county": "Bizkaia",
        "municipalityId": "092",
        "countyId": "48"
      },
      "economicActivities": [
        {
          "id": "1.612.1",
          "name": "Venta al por mayor de toda clase de productos alimenticios, bebidas, tabaco",
          "_links": {
            "self": {
              "name": "Venta al por mayor de toda clase de productos alimenticios, bebidas, tabaco",
              "href": "https://api.euskadi.eus/procurements/companies/economic-activities/1.612.1"
            }
          }
        },
        {
          "id": "1.614.2",
          "name": "Venta al por mayor de productos de perfumería, droguería, higiene y belleza",
          "_links": {
            "self": {
              "name": "Venta al por mayor de productos de perfumería, droguería, higiene y belleza",
              "href": "https://api.euskadi.eus/procurements/companies/economic-activities/1.614.2"
            }
          }
        }
      ],
      "certificateStartDate": "2025-11-20",
      "certificateEndDate": "2026-05-14",
      "object": "LA EXPLOTACIÓN DE UNA EMPRESA DEDICADA AL COMERCIO, AL POR MAYOR Y MENOR, DE PRODUCTOS PARA LA ALIMENTACIÓN, DE TODAS CLASES; FABRICACIÓN, PREPARACIÓN, ENVASADO Y CONSERVACIÓN, EN CUALQUIERA DE LAS FORMAS TÉCNICAS EXISTENTES, DE LOS PRODUCTOS ANTERIORES; VENTA, AL POR MAYOR Y MENOR, DE PRODUCTOS DE LIMPIEZA Y USO DOMÉSTICO EN GENERAL.",
      "mainEntityOfPage": "https://www.contratacion.euskadi.eus/webkpe00-kperoc/es/ac71aBusquedaRegistrosWar/empresa/09707",
      "_links": {
        "self": {
          "name": "COLONIALES BARBED, S.A.",
          "href": "https://api.euskadi.eus/procurements/companies/09707"
        }
      }
    },
    {
      "name": "GESTION Y PLANEAMIENTO TERRITORIAL Y MEDIOAMBIENTAL, S.A.",
      "registrationNumber": "10432",
      "identificationNumber": "A38279972",
      "address": "Calle León y Castillo 54, bajo",
      "location": {
        "postalCode": "35003",
        "municipality": "Palmas de Gran Canaria, Las",
        "county": "Palmas, Las",
        "municipalityId": "016",
        "countyId": "35"
      },
      "economicActivities": [
        {
          "id": "1.507",
          "name": "Construcción, reparación y conservación de toda clase obras",
          "_links": {
            "self": {
              "name": "Construcción, reparación y conservación de toda clase obras",
              "href": "https://api.euskadi.eus/procurements/companies/economic-activities/1.507"
            }
          }
        },
        {
          "id": "1.843.1",
          "name": "Servicios técnicos de ingeniería",
          "_links": {
            "self": {
              "name": "Servicios técnicos de ingeniería",
              "href": "https://api.euskadi.eus/procurements/companies/economic-activities/1.843.1"
            }
          }
        },
        {
          "id": "1.912",
          "name": "Servicios forestales",
          "_links": {
            "self": {
              "name": "Servicios forestales",
              "href": "https://api.euskadi.eus/procurements/companies/economic-activities/1.912"
            }
          }
        }
      ],
      "certificateStartDate": "2025-11-20",
      "certificateEndDate": "2026-05-20",
      "object": "-ESTUDIOS URBANÍSTICOS Y DE PLANEAMIENTO, INCLUYENDO EN ELLOS LA REDACCIÓN, GESTIÓN DE PLANES DE ORDENACIÓN, PROYECTOS DE URBANIZACIÓN, DE INSTRUMENTOS DE GESTIÓN URBANÍSTICA Y DE EDIFICACIÓN Y LA INICIATIVA PARA SU TRAMITACIÓN Y APROBACIÓN. -ACTIVIDAD URBANIZADORA, QUE PUEDE ALCANZAR TANTO LA PROMOCIÓN Y PREPARACIÓN DEL SUELO, LA GESTIÓN DE OBRAS DE URBANIZACIÓN, EDIFICACIÓN, DEMOLICIÓN, ASÍ COMO LA INICIATIVA Y ACTUACIONES PARA SU TRAMITACIÓN Y APROBACIÓN, Y LA REDACCIÓN DE PROYECTOS, DIRECCIONES DE OBRA Y LA GESTIÓN Y EXPLOTACIÓN DE LAS OBRAS RESULTANTES. -VALORACIONES INMOBILIARIAS. -LA CONSTITUCIÓN DE INVENTARIOS DE BIENES A ENTIDADES PÚBLICAS Y PRIVADAS. -LA CONSTITUCIÓN DE UN BANCO DE DATOS SOBRE PLANEAMIENTO Y GESTIÓN TERRITORIAL, URBANÍSTICA Y MEDIOAMBIENTAL, ASÍ COMO DE BIENES INMUEBLES APTOS PARA EL PLANEAMIENTO. -ESTUDIOS MEDIOAMBIENTALES Y DE FOMENTO DE LA DEFENSA DE LA NATURALEZA, ASÍ COMO GESTIONES Y ACTUACIONES, INCLUSIVE DE INVERSIÓN EN EL ÁREA ECOLÓGICA Y MEDIOAMBIENTAL, DENTRO DE LAS QUE CABE INCLUIR A TÍTULO MERAMENTE ENUNCIATIVO LAS RELACIONADAS CON LA FLORA, FAUNA, ECOLOGÍA, HÁBITATS NATURALES, BIODIVERSIDAD, ECOSISTEMAS, MONTES, PROTECCIÓN DEL PAISAJE, ESPACIOS NATURALES PROTEGIDOS, CONTAMINACIÓN AMBIENTAL, IMPACTO AMBIENTAL, CAMBIO CLIMÁTICO, DIVULGACIÓN Y DIFUSIÓN DE MATERIAS MEDIOAMBIENTALES, TRATAMIENTO DE LOS RESIDUOS, PROTECCIÓN CIVIL, TAREAS COMPLEMENTARIAS DE SALVAMENTO Y RESCATE TERRESTRE O MARÍTIMO Y ACTUACIONES DE CARÁCTER FORESTAL, ASÍ COMO LA GESTIÓN Y/O EJECUCIÓN DE OBRAS MEDIOAMBIENTALES, REDACCIÓN DE PROYECTOS Y DIRECCIONES DE ESTAS OBRAS. -REALIZACIÓN DE TODO TIPO DE ACTUACIONES, OBRAS, TRABAJOS Y PRESTACIÓN DE SERVICIOS AGRÍCOLAS, GANADEROS, DE DESARROLLO RURAL, DE ACUICULTURA Y PESCA, ASÍ COMO LOS NECESARIOS PARA EL MEJOR USO Y GESTIÓN DE LOS RECURSOS NATURALES. -LA ELABORACIÓN DE ESTUDIOS, PLANES, PROYECTOS Y CUALQUIER TIPO DE ASISTENCIA TÉCNICA Y FORMATIVA, EN MATERIA AGRARIA, FORESTAL, DE DESARROLLO RURAL, DE ACUICULTURA Y PESCA, ASÍ COMO POR EL MEJOR USO Y GESTIÓN DE LOS RECURSOS NATURALES. -LA REALIZACIÓN DE TODO TIPO DE ACTUACIONES, OBRAS, TRABAJOS Y PRESTACIÓN DE SERVICIOS, ELABORACIÓN DE ESTUDIOS, PLANES, PROYECTOS Y CUALQUIER TIPO DE ASISTENCIA TÉCNICA EN MATERIA DE PATRIMONIO HISTÓRICO. -LA REALIZACIÓN DE TODO TIPO DE ACTUACIONES, OBRAS, TRABAJOS Y PRESTACIÓN DE SERVICIOS, ELABORACIÓN DE ESTUDIOS, PLANES, PROYECTOS Y CUALQUIER TIPO DE ASISTENCIA TÉCNICA EN MATERIAL DE NUEVAS TECNOLOGÍAS DE LA INFORMACIÓN Y EL CONOCIMIENTO, EN SU RELACIÓN CON LA ORDENACIÓN DEL TERRITORIO, EL URBANISMO Y EL MEDIO AMBIENTE. -REALIZACIÓN DE CURSOS, SEMINARIOS, JORNADAS FORMATIVAS Y CUALESQUIER ACTIVIDAD DE DIFUSIÓN DE LOS MATERIALES RELACIONADOS DIRECTA O INDIRECTA CON LA ACTIVIDAD DE LA PROPIA EMPRESA. - EL CÓDIGO CNAE CORRESPONDIENTE A LA ACTIVIDAD PRINCIPAL ES CNAE 7111: SERVICIOS TÉCNICOS DE ARQUITECTURA.",
      "mainEntityOfPage": "https://www.contratacion.euskadi.eus/webkpe00-kperoc/es/ac71aBusquedaRegistrosWar/empresa/10432",
      "_links": {
        "self": {
          "name": "GESTION Y PLANEAMIENTO TERRITORIAL Y MEDIOAMBIENTAL, S.A.",
          "href": "https://api.euskadi.eus/procurements/companies/10432"
        }
      }
    },
    {
      "name": "CONSULTORES DE AUTOMATIZACION Y ROBOTICA, S.A.",
      "registrationNumber": "02313",
      "identificationNumber": "A48228399",
      "address": "CARRETERA ASUA, Nº 6",
      "location": {
        "postalCode": "48930",
        "municipality": "Getxo",
        "county": "Bizkaia",
        "municipalityId": "044",
        "countyId": "48"
      },
      "economicActivities": [
        {
          "id": "1.843.1",
          "name": "Servicios técnicos de ingeniería",
          "_links": {
            "self": {
              "name": "Servicios técnicos de ingeniería",
              "href": "https://api.euskadi.eus/procurements/companies/economic-activities/1.843.1"
            }
          }
        }
      ],
      "certificateStartDate": "2025-11-20",
      "certificateEndDate": "2026-04-21",
      "object": "LA COMPRAVENTA, REPRESENTACIÓN, MEDIACIÓN, IMPORTACIÓN, EXPORTACIÓN, PRESTACIÓN DE SERVICIOS DE TODA CLASE, COMERCIALES Y TÉCNICOS, RELACIONADOS CON LA INDUSTRIA EN GENERAL. LA PRESTACIÓN DE SERVICIOS RELACIONADOS CON LA INNOVACIÓN, TECNOLOGÍA, INTERNACIONALIZACIÓN Y MEJORA DE LA COMPETITIVIDAD, INCLUYENDO LA DEFINICIÓN, DISEÑO, CREACIÓN, PUESTA EN MARCHA Y COMERCIALIZACIÓN DE NUEVOS PRODUCTOS Y SERVICIOS, MODELOS DE NEGOCIO Y EMPRESAS. LA PRESTACIÓN DE SERVICIOS EN LOS ÁMBITOS DE CONSULTORÍA DE INNOVACIÓN, DE NEGOCIO Y DE GESTIÓN, CONSULTORÍA TECNOLÓGICA Y FORMACIÓN, INCLUYENDO LA ELABORACIÓN Y EJECUCIÓN DE ESTUDIOS Y PROYECTOS SECTORIALES, ASÍ COMO LA DIRECCIÓN, ASISTENCIA TÉCNICA, TRANSFERENCIA DE TECNOLOGÍA, COMERCIALIZACIÓN Y ADMINISTRACIÓN DE TALES ESTUDIOS, PROYECTOS Y ACTIVIDADES.\nLA PRESTACIÓN DE SERVICIOS DE EXTERNALIZACIÓN DE ACTIVIDADES Y PROCESOS, INCLUYENDO EVALUACIONES DE PROPUESTAS, PROGRAMAS, POLÍTICAS Y PLANES, LA GESTIÓN INTEGRAL DE LAS ACTIVIDADES DE INNOVACIÓN Y TODOS SUS ASPECTOS RELACIONADOS Y LA ASISTENCIA Y SECRETARÍA TÉCNICA A REDES Y GRUPOS DE ORGANIZACIONES.\n\n",
      "mainEntityOfPage": "https://www.contratacion.euskadi.eus/webkpe00-kperoc/es/ac71aBusquedaRegistrosWar/empresa/02313",
      "_links": {
        "self": {
          "name": "CONSULTORES DE AUTOMATIZACION Y ROBOTICA, S.A.",
          "href": "https://api.euskadi.eus/procurements/companies/02313"
        }
      }
    },
    {
      "name": "AZK TALDEA, S.A.",
      "registrationNumber": "00341",
      "identificationNumber": "A20177747",
      "address": "Osinaga 2, 1ºD",
      "location": {
        "postalCode": "20500",
        "municipality": "Arrasate / Mondragón",
        "county": "Gipuzkoa",
        "municipalityId": "055",
        "countyId": "20"
      },
      "economicActivities": [
        {
          "id": "1.844",
          "name": "Servicios de publicidad, relaciones públicas y similares",
          "_links": {
            "self": {
              "name": "Servicios de publicidad, relaciones públicas y similares",
              "href": "https://api.euskadi.eus/procurements/companies/economic-activities/1.844"
            }
          }
        }
      ],
      "certificateStartDate": "2025-11-20",
      "certificateEndDate": "2026-05-15",
      "classification": [
        {
          "id": "S",
          "name": "Servicios",
          "groups": [
            {
              "id": "T",
              "subgroups": [
                {
                  "id": "01",
                  "name": "Servicios de publicidad",
                  "categories": [
                    {
                      "id": "2",
                      "name": "Desde 150.001 Hasta 300.000",
                      "_links": {
                        "self": {
                          "name": "Desde 150.001 Hasta 300.000",
                          "href": "https://api.euskadi.eus/procurements/companies/types/S/categories/2"
                        }
                      }
                    }
                  ],
                  "_links": {
                    "self": {
                      "name": "Servicios de publicidad",
                      "href": "https://api.euskadi.eus/procurements/companies/types/S/groups/T/subgroups/01"
                    }
                  }
                }
              ],
              "_links": {
                "self": {
                  "href": "https://api.euskadi.eus/procurements/companies/types/S/groups/T"
                }
              }
            }
          ],
          "_links": {
            "self": {
              "name": "Servicios",
              "href": "https://api.euskadi.eus/procurements/companies/types/S"
            }
          }
        }
      ],
      "object": "EL FOMENTO DE LA COMUNICACIÓN DE LAS PERSONAS, EMPRESAS O INSTITUCIONES EN SUS DIFERENTES ASPECTOS: PUBLICIDAD, RELACIONES PÚBLICAS, DISEÑO Y PROYECCIÓN EXTERIOR DEL OBJETO TRATADO, ABARCANDO LA ASESORÍA, MARKETING, LA CREACIÓN DE MENSAJES, LA COMPRAVENTA DE MEDIOS Y ELEMENTOS NECESARIOS PARA DESEMPEÑAR LA LABOR COMUNICATIVA Y EL DESARROLLO DEL DISEÑO EN TODOS SUS ASPECTOS",
      "mainEntityOfPage": "https://www.contratacion.euskadi.eus/webkpe00-kperoc/es/ac71aBusquedaRegistrosWar/empresa/00341",
      "_links": {
        "self": {
          "name": "AZK TALDEA, S.A.",
          "href": "https://api.euskadi.eus/procurements/companies/00341"
        }
      }
    },
    {
      "name": "HOJALATERIA OCHOA, S.L.",
      "registrationNumber": "08230",
      "identificationNumber": "B95503181",
      "address": "ALHONDIGA GAZTELONDO Nº 5 3º- MOD 47",
      "location": {
        "postalCode": "48002",
        "municipality": "Bilbao",
        "county": "Bizkaia",
        "municipalityId": "020",
        "countyId": "48"
      },
      "economicActivities": [
        {
          "id": "1.316.2",
          "name": "Fabricación de artículos de ferretería y cerrajería",
          "_links": {
            "self": {
              "name": "Fabricación de artículos de ferretería y cerrajería",
              "href": "https://api.euskadi.eus/procurements/companies/economic-activities/1.316.2"
            }
          }
        }
      ],
      "certificateStartDate": "2025-11-20",
      "certificateEndDate": "2026-05-15",
      "object": "FABRICACIÓN DE ARTÍCULOS DE FERRETERÍA Y CERRAJERÍA, ARTÍCULOS DE FONTANERÍA, LAMPISTERÍA Y HOJALATERÍA, DE TORTILLERÍA Y ARTÍCULOS DERIVADOS DEL ALAMBRE. FABRICACIÓN DE ARTÍCULOS DE MENAJE, DE RECIPIENTES Y ENVASES METÁLICOS, DE GANCHOS PARA CANALONES. FABRICACIÓN DE MOBILIARIO METÁLICO. FABRICACIÓN DE VALVULERÍA Y GRIFERÍA, APARATOS METÁLICOS DE ILUMINACIÓN, SEÑALIZACIÓN Y ANUNCIO. FUNDICIÓN DE PIEZAS DE METALES NO FÉRREOS Y SUS ALEACIONES. CORTE Y DOBLADO DE CHAPAS METÁLICAS. FABRICACIÓN DE HERRAMIENTAS MANUALES DE USO DOMÉSTICO E INDUSTRIAL, ASÍ COMO PARA TRABAJAR LA MADERA Y LOS METALES, CUCHILLERÍA INDUSTRIAL, MATERIAL PARA HERRERÍAS, HERRAMIENTAS MANUALES PARA LA CONSTRUCCIÓN. COMPRAVENTA, IMPORTACIÓN, EXPORTACIÓN E INTERMEDIACIÓN DE TODOS LOS PRODUCTOS Y MATERIALES ANTERIORMENTE DESCRITOS, EN ESPECIAL DEL ZINC, COBRE, CHAPA GALVANIZADA Y CHAPA PRELACADA, Y ALUMINIO.",
      "mainEntityOfPage": "https://www.contratacion.euskadi.eus/webkpe00-kperoc/es/ac71aBusquedaRegistrosWar/empresa/08230",
      "_links": {
        "self": {
          "name": "HOJALATERIA OCHOA, S.L.",
          "href": "https://api.euskadi.eus/procurements/companies/08230"
        }
      }
    },
    {
      "name": "REDYTEL INGENIERÍA DE TELECOMUNICACIONES, S.L.",
      "registrationNumber": "02977",
      "identificationNumber": "B48960611",
      "address": "RIBERA DE AXPE, 11. EDIF. A-109",
      "location": {
        "postalCode": "48950",
        "municipality": "Erandio",
        "county": "Bizkaia",
        "municipalityId": "902",
        "countyId": "48"
      },
      "economicActivities": [
        {
          "id": "1.504.11",
          "name": "Instalaciones eléctricas en general, redes telegráficas, telefonía, tv, etc",
          "_links": {
            "self": {
              "name": "Instalaciones eléctricas en general, redes telegráficas, telefonía, tv, etc",
              "href": "https://api.euskadi.eus/procurements/companies/economic-activities/1.504.11"
            }
          }
        },
        {
          "id": "1.653.2",
          "name": "Venta al por menor de material y aparatos eléctricos, electrodomésticos y cocina",
          "_links": {
            "self": {
              "name": "Venta al por menor de material y aparatos eléctricos, electrodomésticos y cocina",
              "href": "https://api.euskadi.eus/procurements/companies/economic-activities/1.653.2"
            }
          }
        },
        {
          "id": "1.691.9",
          "name": "Reparación de otros bienes de consumo n.c.o.p",
          "_links": {
            "self": {
              "name": "Reparación de otros bienes de consumo n.c.o.p",
              "href": "https://api.euskadi.eus/procurements/companies/economic-activities/1.691.9"
            }
          }
        },
        {
          "id": "1.845",
          "name": "Explotación electrónica por cuenta de terceros",
          "_links": {
            "self": {
              "name": "Explotación electrónica por cuenta de terceros",
              "href": "https://api.euskadi.eus/procurements/companies/economic-activities/1.845"
            }
          }
        },
        {
          "id": "1.859",
          "name": "Alquiler de otros bienes muebles n.c.o.p. (sin personal permanente)",
          "_links": {
            "self": {
              "name": "Alquiler de otros bienes muebles n.c.o.p. (sin personal permanente)",
              "href": "https://api.euskadi.eus/procurements/companies/economic-activities/1.859"
            }
          }
        }
      ],
      "certificateStartDate": "2025-11-20",
      "certificateEndDate": "2026-05-15",
      "object": "PROYECTOS E INSTALACIONES DE EQUIPOS DE TELECOMUNICACIÓN",
      "mainEntityOfPage": "https://www.contratacion.euskadi.eus/webkpe00-kperoc/es/ac71aBusquedaRegistrosWar/empresa/02977",
      "_links": {
        "self": {
          "name": "REDYTEL INGENIERÍA DE TELECOMUNICACIONES, S.L.",
          "href": "https://api.euskadi.eus/procurements/companies/02977"
        }
      }
    },
    {
      "name": "LEKUNE REVESTIMIENTOS, S.L.",
      "registrationNumber": "02662",
      "identificationNumber": "B95239687",
      "address": "C/TROBIKA, 10",
      "location": {
        "postalCode": "48100",
        "municipality": "Mungia",
        "county": "Bizkaia",
        "municipalityId": "069",
        "countyId": "48"
      },
      "economicActivities": [
        {
          "id": "1.455.1",
          "name": "Confección de artículos textiles para el hogar y tapicería",
          "_links": {
            "self": {
              "name": "Confección de artículos textiles para el hogar y tapicería",
              "href": "https://api.euskadi.eus/procurements/companies/economic-activities/1.455.1"
            }
          }
        },
        {
          "id": "1.651.1",
          "name": "Venta al por menor de productos textiles, de hogar, alfombras y similares",
          "_links": {
            "self": {
              "name": "Venta al por menor de productos textiles, de hogar, alfombras y similares",
              "href": "https://api.euskadi.eus/procurements/companies/economic-activities/1.651.1"
            }
          }
        }
      ],
      "certificateStartDate": "2025-11-20",
      "certificateEndDate": "2026-05-15",
      "object": "EL COMERCIO AL POR MENOR  DE ARTÍCULOS  PARA EL EQUIPAMIENTO DEL HOGAR. LA CONFECCIÓN DE ARTÍCULOS TEXTILES PARA EL HOGAR, DE CAMA, ASEO, Y SIMILARES. LA CONFECCIÓN DE VISILLOS, CORTINAJES, TAPIZADO. LAS ACTIVIDADES INTEGRANTES EN EL OBJETO SOCIAL PODRÁN SER DESARROLLADAS POR LA SOCIEDAD DE MODO INDIRECTO, MEDIANTE SU PARTICIPACIÓN EN OTRAS SOCIEDADES. LA SOCIEDAD NO DESARROLLARÁ NINGUNA ACTIVIDAD PARA LA QUE LAS LEYES EXIJAN CONDICIONES O LIMITACIONES ESPECÍFICAS, EN TANTO NO DE EXACTO CUMPLIMIENTO DE LAS MISMAS.\n  ",
      "mainEntityOfPage": "https://www.contratacion.euskadi.eus/webkpe00-kperoc/es/ac71aBusquedaRegistrosWar/empresa/02662",
      "_links": {
        "self": {
          "name": "LEKUNE REVESTIMIENTOS, S.L.",
          "href": "https://api.euskadi.eus/procurements/companies/02662"
        }
      }
    },
    {
      "name": "MONCOBRA, S.A.",
      "registrationNumber": "03444",
      "identificationNumber": "A78990413",
      "address": "CARDENAL MARCELO SPINOLA 10",
      "location": {
        "postalCode": "28016",
        "municipality": "Madrid",
        "county": "Madrid",
        "municipalityId": "079",
        "countyId": "28"
      },
      "economicActivities": [
        {
          "id": "1.507",
          "name": "Construcción, reparación y conservación de toda clase obras",
          "_links": {
            "self": {
              "name": "Construcción, reparación y conservación de toda clase obras",
              "href": "https://api.euskadi.eus/procurements/companies/economic-activities/1.507"
            }
          }
        }
      ],
      "certificateStartDate": "2025-11-20",
      "certificateEndDate": "2026-05-18",
      "object": "LA REALIZACIÓN DE TODA CLASE DE MONTAJES, MANTENIMIENTOS Y SERVICIOS EN LAS ESPECIALIDADES MECÁNICA, ELÉCTRICA E INSTRUMENTACIÓN Y CONTROL Y OTRAS RELACIONADAS, O CUALQUIER COMBINACIÓN DE ESTAS ESPECIALIDADES, TANTO EN OBRAS DE EDIFICACION COMO EN INSTALACIONES INDUSTRIALES DE TODO TIPO. TRABAJOS MECÁNICOS EN CENTRALES NUCLEARES. TRABAJOS MECÁNICOS EN LAS ISLAS CANARIAS Y EN EL EXTRANJERO. TRABAJOS RELACIONADOS CON EL TRANSPORTE, TRANSFORMACIÓN Y DISTRIBUCIÓN DE ENERGÍA ELÉCTRICA. TRABAJOS RELACIONADOS CON EL GAS. TRABAJOS RELACIONADOS CON LA CANALIZACIÓN Y DISTRIBUCIÓN DE AGUA. TRABAJOS ELÉCTRICOS O ELECTRÓNICOS RELACIONADOS CON COMUNICACIONES Y FERROCARRILES",
      "mainEntityOfPage": "https://www.contratacion.euskadi.eus/webkpe00-kperoc/es/ac71aBusquedaRegistrosWar/empresa/03444",
      "_links": {
        "self": {
          "name": "MONCOBRA, S.A.",
          "href": "https://api.euskadi.eus/procurements/companies/03444"
        }
      }
    },
    {
      "name": "AKEN SOCIEDAD COOPERATIVA PEQUEÑA",
      "registrationNumber": "06759",
      "identificationNumber": "F95820593",
      "address": "SANGRONIZ, 6 - 1 N",
      "location": {
        "postalCode": "48150",
        "municipality": "Sondika",
        "county": "Bizkaia",
        "municipalityId": "904",
        "countyId": "48"
      },
      "economicActivities": [
        {
          "id": "1.847",
          "name": "Servicios de consultoría",
          "_links": {
            "self": {
              "name": "Servicios de consultoría",
              "href": "https://api.euskadi.eus/procurements/companies/economic-activities/1.847"
            }
          }
        },
        {
          "id": "1.934",
          "name": "Enseñanza fuera de establecimiento permanente",
          "_links": {
            "self": {
              "name": "Enseñanza fuera de establecimiento permanente",
              "href": "https://api.euskadi.eus/procurements/companies/economic-activities/1.934"
            }
          }
        }
      ],
      "certificateStartDate": "2025-11-19",
      "certificateEndDate": "2026-05-14",
      "object": "-ASESORAMIENTO Y CONSULTORÍA DE PLANIFICACIÓN, DIRECCIÓN Y GESTIÓN DE LA ORGANIZACIÓN ADMINISTRATIVA, COMERCIAL, RECURSOS HUMANOS Y DE MARKETING, ANÁLISIS Y DETERMINACIÓN DE COSTES, INFORMES TÉCNICOS, CONTABLES, DE MARKETING Y DE MERCADOS. SELECCIÓN Y FORMACIÓN DEL PERSONAL PARA LAS EMPRESAS Y LA VALORACIÓN DE ÉSTAS. - SERVICIOS A LAS EMPRESAS, ORGANISMOS Y PARTICULARES DE CONSULTORÍA-ASESORÍA EN MATERIA LABORAL, JURÍDICO, FISCAL, CONTABLE, TENEDURÍA DE LIBROS Y ECONÓMICO FINANCIERA. -\tSERVICIOS DE CONSULTORÍA, ASESORAMIENTO Y GESTIÓN EN LOS ÁMBITOS DE PLANIFICACIÓN ESTRATÉGICA, DIRECCIÓN GENERAL, CONTROL DE GESTIÓN, PLAN DE MARKETING, PLANIFICACIÓN FINANCIERA, DIRECCIÓN ECONÓMICO-ADMINISTRATIVA, DESARROLLO E IMPLANTACIÓN DE NUEVAS TECNOLOGÍAS, DIRECCIÓN DE CALIDAD Y DIRECCIÓN DE RECURSOS HUMANOS. - SERVICIOS DE GESTIÓN ADMINISTRATIVA. -CONSULTORÍA DE RIESGOS EMPRESARIALES Y COMERCIALES; GESTIÓN DE MOROSIDAD DE LAS EMPRESAS; COMPRA, VENTA Y ARRENDAMIENTO DE INMUEBLES. -LA REALIZACIÓN DE ESTUDIOS Y ANÁLISIS DE MERCADO Y OPINIÓN PÚBLICA. -CONSULTORÍA EMPRESARIAL EN MATERIA DE PREVENCIÓN DE RIESGOS LABORALES, SISTEMAS DE GESTIÓN DE LA SEGURIDAD Y SALUD LABORALES, CALIDAD Y MEDIO AMBIENTE, LOS RECURSOS HUMANOS Y LA ORGANIZACIÓN INDUSTRIAL EN MATERIA DE GESTIÓN EMPRESARIAL, ASÍ COMO LA REALIZACIÓN DE DIAGNÓSTICOS MEDIOAMBIENTALES, EVALUACIONES DE IMPACTOS Y ESTUDIOS AMBIENTALES. - LA FORMACIÓN Y LA ENSEÑANZA: ORGANIZACIÓN DE CURSOS DE FORMACIÓN; ACTIVIDADES DE ENSEÑANZA Y DE FORMACIÓN GENERAL, TÉCNICA Y PROFESIONAL NO REGLADA; GESTIÓN, ORGANIZACIÓN, DESARROLLO, E IMPARTICIÓN DE TODA CLASE DE PLANES DE FORMACIÓN, CURSOS, ACCIONES FORMATIVAS Y CHARLAS, EXPOSICIONES, CONFERENCIAS Y CONGRESOS BIEN DE FORMA PRESENCIAL O BIEN A DISTANCIA, ON LINE, ETC.  - SERVICIOS DE CONSULTORÍA RELACIONADOS CON PROYECTOS DE INVESTIGACIÓN, DESARROLLO E INNOVACIÓN ASÍ COMO SU EJECUCIÓN, EXPLOTACIÓN Y CONTROL\n",
      "mainEntityOfPage": "https://www.contratacion.euskadi.eus/webkpe00-kperoc/es/ac71aBusquedaRegistrosWar/empresa/06759",
      "_links": {
        "self": {
          "name": "AKEN SOCIEDAD COOPERATIVA PEQUEÑA",
          "href": "https://api.euskadi.eus/procurements/companies/06759"
        }
      }
    },
    {
      "name": "PEDRO TORRES GARCIA-CANTO",
      "registrationNumber": "08402",
      "identificationNumber": "47089705B",
      "address": "Plaza de La Mancha 16. 7ºS",
      "location": {
        "postalCode": "02001",
        "municipality": "Albacete",
        "county": "Albacete",
        "municipalityId": "003",
        "countyId": "02"
      },
      "economicActivities": [
        {
          "id": "2.411",
          "name": "Arquitectos",
          "_links": {
            "self": {
              "name": "Arquitectos",
              "href": "https://api.euskadi.eus/procurements/companies/economic-activities/2.411"
            }
          }
        }
      ],
      "certificateStartDate": "2025-11-19",
      "certificateEndDate": "2026-05-17",
      "object": "ARQUITECTOS.",
      "mainEntityOfPage": "https://www.contratacion.euskadi.eus/webkpe00-kperoc/es/ac71aBusquedaRegistrosWar/empresa/08402",
      "_links": {
        "self": {
          "name": "PEDRO TORRES GARCIA-CANTO",
          "href": "https://api.euskadi.eus/procurements/companies/08402"
        }
      }
    }
  ]
}