{
  "totalItems": 9042,
  "totalPages": 905,
  "currentPage": 848,
  "itemsOfPage": 10,
  "items": [
    {
      "name": "TÉCNICA ELECTRÓNICA DE AUTOMATISMO Y MEDIDA, S.A.",
      "registrationNumber": "02966",
      "identificationNumber": "A95126330",
      "address": "PARQUE TECNOLÓGICO DE ZAMUDIO, EDIFICIO 108",
      "location": {
        "postalCode": "48170",
        "municipality": "Zamudio",
        "county": "Bizkaia",
        "municipalityId": "905",
        "countyId": "48"
      },
      "object": ".",
      "mainEntityOfPage": "https://www.contratacion.euskadi.eus/webkpe00-kperoc/es/ac71aBusquedaRegistrosWar/empresa/02966",
      "_links": {
        "self": {
          "name": "TÉCNICA ELECTRÓNICA DE AUTOMATISMO Y MEDIDA, S.A.",
          "href": "https://api.euskadi.eus/procurements/companies/02966"
        }
      }
    },
    {
      "name": "KUME DENDAK, S.L.",
      "registrationNumber": "02969",
      "identificationNumber": "B95148854",
      "address": "ARRAGUA, 51. EL REGATO",
      "location": {
        "postalCode": "48903",
        "municipality": "Barakaldo",
        "county": "Bizkaia",
        "municipalityId": "013",
        "countyId": "48"
      },
      "object": ".",
      "mainEntityOfPage": "https://www.contratacion.euskadi.eus/webkpe00-kperoc/es/ac71aBusquedaRegistrosWar/empresa/02969",
      "_links": {
        "self": {
          "name": "KUME DENDAK, S.L.",
          "href": "https://api.euskadi.eus/procurements/companies/02969"
        }
      }
    },
    {
      "name": "ZAGAR SISTEMAS, S.L.",
      "registrationNumber": "02998",
      "identificationNumber": "B48945398",
      "address": "VI CENTENARIO, 13-BAJO",
      "location": {
        "postalCode": "48260",
        "municipality": "Ermua",
        "county": "Bizkaia",
        "municipalityId": "034",
        "countyId": "48"
      },
      "object": ".",
      "mainEntityOfPage": "https://www.contratacion.euskadi.eus/webkpe00-kperoc/es/ac71aBusquedaRegistrosWar/empresa/02998",
      "_links": {
        "self": {
          "name": "ZAGAR SISTEMAS, S.L.",
          "href": "https://api.euskadi.eus/procurements/companies/02998"
        }
      }
    },
    {
      "name": "PROMOCIONES E INVERSIONES ALDABA, S.A.",
      "registrationNumber": "03003",
      "identificationNumber": "A01255439",
      "address": "FLORIDA, 17 - 1 º IZDA",
      "location": {
        "postalCode": "01005",
        "municipality": "Vitoria-Gasteiz",
        "county": "Araba/Álava",
        "municipalityId": "059",
        "countyId": "01"
      },
      "object": "pte",
      "mainEntityOfPage": "https://www.contratacion.euskadi.eus/webkpe00-kperoc/es/ac71aBusquedaRegistrosWar/empresa/03003",
      "_links": {
        "self": {
          "name": "PROMOCIONES E INVERSIONES ALDABA, S.A.",
          "href": "https://api.euskadi.eus/procurements/companies/03003"
        }
      }
    },
    {
      "name": "VASCONGADA DE AUTOMÓVILES, S.L.",
      "registrationNumber": "03004",
      "identificationNumber": "B20193017",
      "address": "AVDA. TOLOSA, 182",
      "location": {
        "postalCode": "20018",
        "municipality": "Donostia / San Sebastián",
        "county": "Gipuzkoa",
        "municipalityId": "069",
        "countyId": "20"
      },
      "object": "pte",
      "mainEntityOfPage": "https://www.contratacion.euskadi.eus/webkpe00-kperoc/es/ac71aBusquedaRegistrosWar/empresa/03004",
      "_links": {
        "self": {
          "name": "VASCONGADA DE AUTOMÓVILES, S.L.",
          "href": "https://api.euskadi.eus/procurements/companies/03004"
        }
      }
    },
    {
      "name": "SERIDOM SERVICIOS INTEGRADOS IDOM, S.A.",
      "registrationNumber": "03024",
      "identificationNumber": "A48775852",
      "address": "AVDA. LEHENDAKARI AGIRRE, 3-3º",
      "location": {
        "postalCode": "48014",
        "municipality": "Bilbao",
        "county": "Bizkaia",
        "municipalityId": "020",
        "countyId": "48"
      },
      "object": "pte",
      "mainEntityOfPage": "https://www.contratacion.euskadi.eus/webkpe00-kperoc/es/ac71aBusquedaRegistrosWar/empresa/03024",
      "_links": {
        "self": {
          "name": "SERIDOM SERVICIOS INTEGRADOS IDOM, S.A.",
          "href": "https://api.euskadi.eus/procurements/companies/03024"
        }
      }
    },
    {
      "name": "ELECTRICIDAD MANU, S.L.",
      "registrationNumber": "03026",
      "identificationNumber": "B48491492",
      "address": "ALMIRANTE CRISTÓBAL MELLO, 16 LONJA",
      "location": {
        "postalCode": "48920",
        "municipality": "Portugalete",
        "county": "Bizkaia",
        "municipalityId": "078",
        "countyId": "48"
      },
      "object": ".",
      "mainEntityOfPage": "https://www.contratacion.euskadi.eus/webkpe00-kperoc/es/ac71aBusquedaRegistrosWar/empresa/03026",
      "_links": {
        "self": {
          "name": "ELECTRICIDAD MANU, S.L.",
          "href": "https://api.euskadi.eus/procurements/companies/03026"
        }
      }
    },
    {
      "name": "RESTAURACIÓN DOCUMENTAL, S.L.",
      "registrationNumber": "03041",
      "identificationNumber": "B95311486",
      "address": "Bº GOIHERRI, 2-3º A",
      "location": {
        "postalCode": "48650",
        "municipality": "Barrika",
        "county": "Bizkaia",
        "municipalityId": "014",
        "countyId": "48"
      },
      "object": ".",
      "mainEntityOfPage": "https://www.contratacion.euskadi.eus/webkpe00-kperoc/es/ac71aBusquedaRegistrosWar/empresa/03041",
      "_links": {
        "self": {
          "name": "RESTAURACIÓN DOCUMENTAL, S.L.",
          "href": "https://api.euskadi.eus/procurements/companies/03041"
        }
      }
    },
    {
      "name": "SPORT STUDIO SERVICIOS DEPORTIVOS, S.L.",
      "registrationNumber": "03044",
      "identificationNumber": "B95107272",
      "address": "egaña 17-7º",
      "location": {
        "postalCode": "48010",
        "municipality": "Bilbao",
        "county": "Bizkaia",
        "municipalityId": "020",
        "countyId": "48"
      },
      "economicActivities": [
        {
          "id": "1.934",
          "name": "Enseñanza fuera de establecimiento permanente",
          "_links": {
            "self": {
              "name": "Enseñanza fuera de establecimiento permanente",
              "href": "https://api.euskadi.eus/procurements/companies/economic-activities/1.934"
            }
          }
        }
      ],
      "object": "La prestación de servicios deportivos y organización de actividades deportivas, tanto en locales e infraestrucutas deportivas (polideportivos, patios escolares y otras instalaciones), como al aire libre.\r\nConsultoria deportiva en cuanto a organización de planes de formación, charlas, conferencias, asesoramiento sobre diseño de instalaciones deportivas y prevención de riesgos en locales deportivos.\r\nLa adquisición por cualquier titulo, de fincas rusticas o urbanas, la administración, explotacion y arrendamiento de tales bienes, su venta, total o parcial según convenga, para su aprovechamiento forestal, agrícola, urbano o industrial\r\nGestion integral de instalaciones deportivas, servicios de limpieza, control de accesos, recepción, atención al público , mantenimiento, servicios administrativos, en instalaciones deportivas o de otra índole, bibliotecas, museos, residencias, tanto publicas como privas , servicios relacionados con la tercera edad y salud, servicios de programas de intervención social y psicológica con menores, adolescentes y adultos, colonias de actividades deportivas, culturales, de tiempo libre y de idiomas, servicios de organización y desarrollo de viajes de grupos, gestión de oficinas y turismo, gestión de centros educativos y cultura, gestión de servicios de alquiler de bicicletas. \r\n",
      "mainEntityOfPage": "https://www.contratacion.euskadi.eus/webkpe00-kperoc/es/ac71aBusquedaRegistrosWar/empresa/03044",
      "_links": {
        "self": {
          "name": "SPORT STUDIO SERVICIOS DEPORTIVOS, S.L.",
          "href": "https://api.euskadi.eus/procurements/companies/03044"
        }
      }
    },
    {
      "name": "REHABILITACIONES GENERALES DE VIVIENDAS, S.A.",
      "registrationNumber": "03052",
      "identificationNumber": "A20779294",
      "address": "ANTONIO VALVERDE Nº 2",
      "location": {
        "postalCode": "20014",
        "municipality": "Donostia / San Sebastián",
        "county": "Gipuzkoa",
        "municipalityId": "069",
        "countyId": "20"
      },
      "object": ".pte",
      "mainEntityOfPage": "https://www.contratacion.euskadi.eus/webkpe00-kperoc/es/ac71aBusquedaRegistrosWar/empresa/03052",
      "_links": {
        "self": {
          "name": "REHABILITACIONES GENERALES DE VIVIENDAS, S.A.",
          "href": "https://api.euskadi.eus/procurements/companies/03052"
        }
      }
    }
  ]
}