{
  "totalItems": 9042,
  "totalPages": 905,
  "currentPage": 214,
  "itemsOfPage": 10,
  "items": [
    {
      "name": "MISPE PROYECTOS Y CONSTRUCCIONES SL",
      "registrationNumber": "05287",
      "identificationNumber": "B01437953",
      "address": "AVDA. DEL CANTABRICO Nº 12 PAB. 28",
      "location": {
        "postalCode": "01013",
        "municipality": "Vitoria-Gasteiz",
        "county": "Araba/Álava",
        "municipalityId": "059",
        "countyId": "01"
      },
      "economicActivities": [
        {
          "id": "1.501.1",
          "name": "Construcción completa, reparación y conservación de edificaciones",
          "_links": {
            "self": {
              "name": "Construcción completa, reparación y conservación de edificaciones",
              "href": "https://api.euskadi.eus/procurements/companies/economic-activities/1.501.1"
            }
          }
        }
      ],
      "certificateStartDate": "2025-10-15",
      "certificateEndDate": "2026-04-15",
      "classification": [
        {
          "id": "O",
          "name": "Obras",
          "groups": [
            {
              "id": "C",
              "name": "EDIFICACIONES",
              "subgroups": [
                {
                  "id": "01",
                  "name": "DEMOLICIONES",
                  "categories": [
                    {
                      "id": "2",
                      "name": "Desde 150.001 Hasta 360.000",
                      "_links": {
                        "self": {
                          "name": "Desde 150.001 Hasta 360.000",
                          "href": "https://api.euskadi.eus/procurements/companies/types/O/categories/2"
                        }
                      }
                    }
                  ],
                  "_links": {
                    "self": {
                      "name": "DEMOLICIONES",
                      "href": "https://api.euskadi.eus/procurements/companies/types/O/groups/C/subgroups/01"
                    }
                  }
                },
                {
                  "id": "02",
                  "name": "ESTRUCTURAS DE FABRICA U HORMIGÓN",
                  "categories": [
                    {
                      "id": "1",
                      "name": "Desde 0 Hasta 150.000",
                      "_links": {
                        "self": {
                          "name": "Desde 0 Hasta 150.000",
                          "href": "https://api.euskadi.eus/procurements/companies/types/O/categories/1"
                        }
                      }
                    }
                  ],
                  "_links": {
                    "self": {
                      "name": "ESTRUCTURAS DE FABRICA U HORMIGÓN",
                      "href": "https://api.euskadi.eus/procurements/companies/types/O/groups/C/subgroups/02"
                    }
                  }
                },
                {
                  "id": "03",
                  "name": "ESTRUCTURAS METALICAS",
                  "categories": [
                    {
                      "id": "1",
                      "name": "Desde 0 Hasta 150.000",
                      "_links": {
                        "self": {
                          "name": "Desde 0 Hasta 150.000",
                          "href": "https://api.euskadi.eus/procurements/companies/types/O/categories/1"
                        }
                      }
                    }
                  ],
                  "_links": {
                    "self": {
                      "name": "ESTRUCTURAS METALICAS",
                      "href": "https://api.euskadi.eus/procurements/companies/types/O/groups/C/subgroups/03"
                    }
                  }
                },
                {
                  "id": "04",
                  "name": "ALBAÑILERIA, REVOCOS Y REVESTIDOS",
                  "categories": [
                    {
                      "id": "2",
                      "name": "Desde 150.001 Hasta 360.000",
                      "_links": {
                        "self": {
                          "name": "Desde 150.001 Hasta 360.000",
                          "href": "https://api.euskadi.eus/procurements/companies/types/O/categories/2"
                        }
                      }
                    }
                  ],
                  "_links": {
                    "self": {
                      "name": "ALBAÑILERIA, REVOCOS Y REVESTIDOS",
                      "href": "https://api.euskadi.eus/procurements/companies/types/O/groups/C/subgroups/04"
                    }
                  }
                },
                {
                  "id": "05",
                  "name": "CANTERIA Y MARMOLERIA",
                  "categories": [
                    {
                      "id": "1",
                      "name": "Desde 0 Hasta 150.000",
                      "_links": {
                        "self": {
                          "name": "Desde 0 Hasta 150.000",
                          "href": "https://api.euskadi.eus/procurements/companies/types/O/categories/1"
                        }
                      }
                    }
                  ],
                  "_links": {
                    "self": {
                      "name": "CANTERIA Y MARMOLERIA",
                      "href": "https://api.euskadi.eus/procurements/companies/types/O/groups/C/subgroups/05"
                    }
                  }
                },
                {
                  "id": "06",
                  "name": "PAVIMENTOS, SOLADOS Y ALICATADOS",
                  "categories": [
                    {
                      "id": "2",
                      "name": "Desde 150.001 Hasta 360.000",
                      "_links": {
                        "self": {
                          "name": "Desde 150.001 Hasta 360.000",
                          "href": "https://api.euskadi.eus/procurements/companies/types/O/categories/2"
                        }
                      }
                    }
                  ],
                  "_links": {
                    "self": {
                      "name": "PAVIMENTOS, SOLADOS Y ALICATADOS",
                      "href": "https://api.euskadi.eus/procurements/companies/types/O/groups/C/subgroups/06"
                    }
                  }
                },
                {
                  "id": "07",
                  "name": "AISLAMIENTOS E IMPERMEABILIZACIONES",
                  "categories": [
                    {
                      "id": "1",
                      "name": "Desde 0 Hasta 150.000",
                      "_links": {
                        "self": {
                          "name": "Desde 0 Hasta 150.000",
                          "href": "https://api.euskadi.eus/procurements/companies/types/O/categories/1"
                        }
                      }
                    }
                  ],
                  "_links": {
                    "self": {
                      "name": "AISLAMIENTOS E IMPERMEABILIZACIONES",
                      "href": "https://api.euskadi.eus/procurements/companies/types/O/groups/C/subgroups/07"
                    }
                  }
                },
                {
                  "id": "08",
                  "name": "CARPINTERIA DE MADERA",
                  "categories": [
                    {
                      "id": "2",
                      "name": "Desde 150.001 Hasta 360.000",
                      "_links": {
                        "self": {
                          "name": "Desde 150.001 Hasta 360.000",
                          "href": "https://api.euskadi.eus/procurements/companies/types/O/categories/2"
                        }
                      }
                    }
                  ],
                  "_links": {
                    "self": {
                      "name": "CARPINTERIA DE MADERA",
                      "href": "https://api.euskadi.eus/procurements/companies/types/O/groups/C/subgroups/08"
                    }
                  }
                },
                {
                  "id": "09",
                  "name": "CARPINTERIA METALICA",
                  "categories": [
                    {
                      "id": "2",
                      "name": "Desde 150.001 Hasta 360.000",
                      "_links": {
                        "self": {
                          "name": "Desde 150.001 Hasta 360.000",
                          "href": "https://api.euskadi.eus/procurements/companies/types/O/categories/2"
                        }
                      }
                    }
                  ],
                  "_links": {
                    "self": {
                      "name": "CARPINTERIA METALICA",
                      "href": "https://api.euskadi.eus/procurements/companies/types/O/groups/C/subgroups/09"
                    }
                  }
                }
              ],
              "_links": {
                "self": {
                  "name": "EDIFICACIONES",
                  "href": "https://api.euskadi.eus/procurements/companies/types/O/groups/C"
                }
              }
            }
          ],
          "_links": {
            "self": {
              "name": "Obras",
              "href": "https://api.euskadi.eus/procurements/companies/types/O"
            }
          }
        }
      ],
      "object": "LA REALIZACIÓN DE TODO TIPO DE TRABAJOS Y OBRAS RELACIONADAS CON LA CONSTRUCCIÓN, ENTRE LAS QUE SE INCLUYEN EXPRESAMENTE LAS ACTIVIDADES DE COORDINACIÓN DE TODO TIPO DE GREMIOS RELACIONADOS CON LA CONSTRUCCIÓN",
      "mainEntityOfPage": "https://www.contratacion.euskadi.eus/webkpe00-kperoc/es/ac71aBusquedaRegistrosWar/empresa/05287",
      "_links": {
        "self": {
          "name": "MISPE PROYECTOS Y CONSTRUCCIONES SL",
          "href": "https://api.euskadi.eus/procurements/companies/05287"
        }
      }
    },
    {
      "name": "MARIA AMAIA RUIZ DE LA YLLA ALONSO",
      "registrationNumber": "09117",
      "identificationNumber": "18599466X",
      "address": "Gernikako Arbola, 17",
      "location": {
        "postalCode": "01010",
        "municipality": "Vitoria-Gasteiz",
        "county": "Araba/Álava",
        "municipalityId": "059",
        "countyId": "01"
      },
      "economicActivities": [
        {
          "id": "1.652.1",
          "name": "Farmacias",
          "_links": {
            "self": {
              "name": "Farmacias",
              "href": "https://api.euskadi.eus/procurements/companies/economic-activities/1.652.1"
            }
          }
        }
      ],
      "certificateStartDate": "2025-10-15",
      "certificateEndDate": "2026-04-15",
      "mainEntityOfPage": "https://www.contratacion.euskadi.eus/webkpe00-kperoc/es/ac71aBusquedaRegistrosWar/empresa/09117",
      "_links": {
        "self": {
          "name": "MARIA AMAIA RUIZ DE LA YLLA ALONSO",
          "href": "https://api.euskadi.eus/procurements/companies/09117"
        }
      }
    },
    {
      "name": "ALUMINIOS AZPEITIA, S.L.",
      "registrationNumber": "06662",
      "identificationNumber": "B20760971",
      "address": "ARRETXE 13",
      "location": {
        "postalCode": "20730",
        "municipality": "Azpeitia",
        "county": "Gipuzkoa",
        "municipalityId": "018",
        "countyId": "20"
      },
      "economicActivities": [
        {
          "id": "1.314.1",
          "name": "Carpintería metálica",
          "_links": {
            "self": {
              "name": "Carpintería metálica",
              "href": "https://api.euskadi.eus/procurements/companies/economic-activities/1.314.1"
            }
          }
        }
      ],
      "certificateStartDate": "2025-10-15",
      "certificateEndDate": "2026-04-15",
      "object": "LA CARPINTERÍA DE ALUMINIO",
      "mainEntityOfPage": "https://www.contratacion.euskadi.eus/webkpe00-kperoc/es/ac71aBusquedaRegistrosWar/empresa/06662",
      "_links": {
        "self": {
          "name": "ALUMINIOS AZPEITIA, S.L.",
          "href": "https://api.euskadi.eus/procurements/companies/06662"
        }
      }
    },
    {
      "name": "SPEAK SMILE IDIOMAS SL",
      "registrationNumber": "08176",
      "identificationNumber": "B01539154",
      "address": "Calle Portal de Gamarra 1, Edificio Deba, Oficina 314 (01013)",
      "location": {
        "postalCode": "01013",
        "municipality": "Vitoria-Gasteiz",
        "county": "Araba/Álava",
        "municipalityId": "059",
        "countyId": "01"
      },
      "economicActivities": [
        {
          "id": "1.659.4",
          "name": "Venta al por menor de libros, periódicos y artículos de papelería y escritorio",
          "_links": {
            "self": {
              "name": "Venta al por menor de libros, periódicos y artículos de papelería y escritorio",
              "href": "https://api.euskadi.eus/procurements/companies/economic-activities/1.659.4"
            }
          }
        },
        {
          "id": "1.849.3",
          "name": "Servicios de traducción y similares",
          "_links": {
            "self": {
              "name": "Servicios de traducción y similares",
              "href": "https://api.euskadi.eus/procurements/companies/economic-activities/1.849.3"
            }
          }
        },
        {
          "id": "1.933.9",
          "name": "Otras actividades de enseñanza tales como idiomas, mecanografía",
          "_links": {
            "self": {
              "name": "Otras actividades de enseñanza tales como idiomas, mecanografía",
              "href": "https://api.euskadi.eus/procurements/companies/economic-activities/1.933.9"
            }
          }
        }
      ],
      "certificateStartDate": "2025-10-15",
      "certificateEndDate": "2026-04-15",
      "object": "LA IMPARTICIÓN DE CLASES DE IDIOMAS Y SERVICIOS LINGÜÍSTICOS EN GENERAL, TALES COMO FORMACIÓN, INTÉRPRETES, TRADUCCIÓN. ",
      "mainEntityOfPage": "https://www.contratacion.euskadi.eus/webkpe00-kperoc/es/ac71aBusquedaRegistrosWar/empresa/08176",
      "_links": {
        "self": {
          "name": "SPEAK SMILE IDIOMAS SL",
          "href": "https://api.euskadi.eus/procurements/companies/08176"
        }
      }
    },
    {
      "name": "GOIERRIALDEA, S.L.",
      "registrationNumber": "04281",
      "identificationNumber": "B20587325",
      "address": "FUEROS Nº 5, 3º B",
      "location": {
        "postalCode": "20200",
        "municipality": "Beasain",
        "county": "Gipuzkoa",
        "municipalityId": "019",
        "countyId": "20"
      },
      "economicActivities": [
        {
          "id": "1.721.3",
          "name": "Transporte de viajeros por carretera",
          "_links": {
            "self": {
              "name": "Transporte de viajeros por carretera",
              "href": "https://api.euskadi.eus/procurements/companies/economic-activities/1.721.3"
            }
          }
        }
      ],
      "certificateStartDate": "2025-10-15",
      "certificateEndDate": "2026-04-15",
      "object": "LA PRESTACIÓN DE SERVICIOS DE TRANSPORTE PÚBLICO DE VIAJEROS POR CARRETERA EN TODAS SUS MODALIDADES",
      "mainEntityOfPage": "https://www.contratacion.euskadi.eus/webkpe00-kperoc/es/ac71aBusquedaRegistrosWar/empresa/04281",
      "_links": {
        "self": {
          "name": "GOIERRIALDEA, S.L.",
          "href": "https://api.euskadi.eus/procurements/companies/04281"
        }
      }
    },
    {
      "name": "SALABERRIA INGENIERITZA S.L.",
      "registrationNumber": "06017",
      "identificationNumber": "B75133405",
      "address": "AV TOLOSA 31-1º",
      "location": {
        "postalCode": "20018",
        "municipality": "Donostia / San Sebastián",
        "county": "Gipuzkoa",
        "municipalityId": "069",
        "countyId": "20"
      },
      "economicActivities": [
        {
          "id": "1.843.1",
          "name": "Servicios técnicos de ingeniería",
          "_links": {
            "self": {
              "name": "Servicios técnicos de ingeniería",
              "href": "https://api.euskadi.eus/procurements/companies/economic-activities/1.843.1"
            }
          }
        }
      ],
      "certificateStartDate": "2025-10-15",
      "certificateEndDate": "2026-04-15",
      "object": "LA ACTIVIDAD DE INGENIERÍA, CONSULTORÍA, CONFECIÓN DE ESTUDIOS, DE PROYECTOS, ASESORAMIENTO, SUPERVISIÓN Y CONTROL, DISEÑO, EJECUCIÓN DE PROYECTOS, CERTIFICACIÓN DE CALIDAD, HOMOLOGACIÓN, VERIFICACIÓN, AUDITORÍAS, VALORACIONES, TASACIONES, PERITACIONES, CALIDAD Y CONTROL DE CALIDAD, TOPOGRAFÍA, ADMNISTRACIÓN Y GERENCIA, TRABAJOS DE PLANTEAMIENTO URBANÍSTICO, ORDENACIÓN DEL TERRITORIO Y SIMILARES, TODO ELLO REFERIDO A OBRA CIVIL, URBANISMO, ARQUITECTURA, EDIFICACIÓN, OBRAS Y OTRAS INFRAESTRUCTURAS Y SERVICIOS, DIRIGIDO TANTO A PARTICULARES, EMPRESAS PRIVADAS Y PÚBLICAS Y ADMINISTRACIONES PÚBLICAS",
      "mainEntityOfPage": "https://www.contratacion.euskadi.eus/webkpe00-kperoc/es/ac71aBusquedaRegistrosWar/empresa/06017",
      "_links": {
        "self": {
          "name": "SALABERRIA INGENIERITZA S.L.",
          "href": "https://api.euskadi.eus/procurements/companies/06017"
        }
      }
    },
    {
      "name": "ECIJA LEGAL S.L.",
      "registrationNumber": "07015",
      "identificationNumber": "B83810812",
      "address": "PSO. DE LA CASTELLANA 259C, 9º",
      "location": {
        "postalCode": "28046",
        "municipality": "Madrid",
        "county": "Madrid",
        "municipalityId": "079",
        "countyId": "28"
      },
      "economicActivities": [
        {
          "id": "1.841",
          "name": "Servicios jurídicos",
          "_links": {
            "self": {
              "name": "Servicios jurídicos",
              "href": "https://api.euskadi.eus/procurements/companies/economic-activities/1.841"
            }
          }
        }
      ],
      "certificateStartDate": "2025-10-15",
      "certificateEndDate": "2026-04-13",
      "object": "A) LA CREACIÓN, COMPRAVENTA, COMERCIALIZACIÓN, Y EXPLOTACIÓN POR CUALQUIER MEDIO ADMITIDO EN DERECHO DE TODA CLASE DE PROGRAMAS DE SOFTWARE, CUALQUIERA QUE SEA SU OBJETO Y CONTENIDO. B) LA CONSULTORÍA TÉCNICA Y JURÍDICA DIRIGIDA A EMPRESAS Y PARTICULARES EN RELACIÓN A LA PROTECCIÓN DE DATOS PERSONALES, INCLUYENDO LA ELABORACIÓN Y EMISIÓN DE TODA CLASE DE INFORMES, DICTÁMENES, CERTIFICADOS, Y AUDITORIAS DE SEGURIDAD RELACIONADOS CON DICHA MATERIA. C) LA TRAMITACIÓN ANTE TODA CLASE DE ADMINISTRACIONES PÚBLICAS DE TODA CLASE DE EXPEDIENTES ADMINISTRATIVOS Y ESPECIALMENTE LOS RELATIVOS A ALTA DE FICHEROS, ASÍ COMO LA ASISTENCIA JURÍDICA EN LOS TÉRMINOS PREVISTOS EN LA LEY ORGÁNICA 15/1.999, Y NORMATIVA ESTATAL Y AUTONÓMICA DE DESARROLLO Y/O COMPLEMENTO. D) LA COMPRAVENTA Y EXPLOTACIÓN DE FINCAS RÚSTICAS Y URBANAS; PARCELACIÓN DE FINCAS; PROMOCIÓN, URBANIZACIÓN, CONSTRUCCIÓN DE OBRA CIVIL Y EDIFICACIÓN Y EXPLOTACIÓN EN FORMA DE VENTA O ARRIENDO O CUALQUIER OTRO TIPO DE NEGOCIO JURÍDICO DE VIVIENDAS, LOCALES, APARTAMENTOS, NAVES, EDIFICIOS COMERCIALES E INDUSTRIALES Y FINCAS DE TODA ESPECIE PROPIAS O AJENAS, ASÍ COMO LA ADMINISTRACIÓN DE LOS MISMOS. E) LA COMPRAVENTA DE ACCIONES, OBLIGACIONES, DEUDA PÚBLICA, O CUALQUIER OTRO TIPO DE TÍTULOS, YA SEAN ESTOS DE NATURALEZA PÚBLICA O PRIVADA. F) PARTICIPACIÓN E INTERVENCIÓN EN SOCIEDADES DE OBJETO IDÉNTICO O ANÁLOGO",
      "mainEntityOfPage": "https://www.contratacion.euskadi.eus/webkpe00-kperoc/es/ac71aBusquedaRegistrosWar/empresa/07015",
      "_links": {
        "self": {
          "name": "ECIJA LEGAL S.L.",
          "href": "https://api.euskadi.eus/procurements/companies/07015"
        }
      }
    },
    {
      "name": "SERVICIOS TOPOGRAFICOS IZARTOP, S.L.",
      "registrationNumber": "08643",
      "identificationNumber": "B02994804",
      "address": "PG INDUSTRIAL EL CAMPILLO. DPTO. 3. MANZANA E",
      "location": {
        "postalCode": "48500",
        "municipality": "Abanto y Ciérvana-Abanto Zierbena",
        "county": "Bizkaia",
        "municipalityId": "002",
        "countyId": "48"
      },
      "economicActivities": [
        {
          "id": "1.843.4",
          "name": "Servicios técnicos de topografía",
          "_links": {
            "self": {
              "name": "Servicios técnicos de topografía",
              "href": "https://api.euskadi.eus/procurements/companies/economic-activities/1.843.4"
            }
          }
        }
      ],
      "certificateStartDate": "2025-10-15",
      "certificateEndDate": "2026-04-13",
      "object": "LA ACTIVIDAD DE TOPOGRAFÍCA, REDACCIÓN DE PROYECTOS PARCELARIOS, PROYECTOS DE DESLINDES, CÁLCULOS DE VOLÚMENES, PROYECTOS Y SEGUIMIENTOS DE TRAZADOS DE CARRETERAS, REALIZACIONES DE PLANOS, BATIMETRÍAS, ASISTENCIAS TÉCNICAS A LA OBRA PÚBLICA O PIVADA, Y, ASÍ COMO EL DESARROLLO DE APLICACIONES ESPECÍFICAS Y TODO TIPO DE ASISTENCIA TÉCNICA RELACIONADA CON LA TOPOGRAFÍCA.",
      "mainEntityOfPage": "https://www.contratacion.euskadi.eus/webkpe00-kperoc/es/ac71aBusquedaRegistrosWar/empresa/08643",
      "_links": {
        "self": {
          "name": "SERVICIOS TOPOGRAFICOS IZARTOP, S.L.",
          "href": "https://api.euskadi.eus/procurements/companies/08643"
        }
      }
    },
    {
      "name": "SUMINISTROS CLÍNICOS SANITARIOS, S.L. (SUCLISA, S.L.)",
      "registrationNumber": "00343",
      "identificationNumber": "B48062491",
      "address": "C/ GORDÓNIZ, Nº 4 - 1º DCHA.",
      "location": {
        "postalCode": "48010",
        "municipality": "Bilbao",
        "county": "Bizkaia",
        "municipalityId": "020",
        "countyId": "48"
      },
      "economicActivities": [
        {
          "id": "1.619.2",
          "name": "Venta al por mayor de aparatos e instrumentos médicos, ortopédicos, ópticos",
          "_links": {
            "self": {
              "name": "Venta al por mayor de aparatos e instrumentos médicos, ortopédicos, ópticos",
              "href": "https://api.euskadi.eus/procurements/companies/economic-activities/1.619.2"
            }
          }
        }
      ],
      "certificateStartDate": "2025-10-15",
      "certificateEndDate": "2026-04-13",
      "object": "LA COMPRA, VENTA Y SUMINISTRO DE MATERIAL MÉDICO-QUIRÚRGICO; LA REPRESENTACIÓN DE EMPRESAS NACIONALES O EXTRANJERAS DE ESTE RAMO, ACTUANDO COMO AGENTES, DISTRIBUIDORES, COMISIONISTAS O EN CUALQUIER OTRA FORMA DE MEDIACIÓN MERCANTIL, PUDIENDO ADEMÁS REALIZAR CUANTO SEA PREPARATORIO, AUXILIAR, ACCESORIO O COMPLEMENTARIO, DE TODO ELLO SIN LIMITACIÓN",
      "mainEntityOfPage": "https://www.contratacion.euskadi.eus/webkpe00-kperoc/es/ac71aBusquedaRegistrosWar/empresa/00343",
      "_links": {
        "self": {
          "name": "SUMINISTROS CLÍNICOS SANITARIOS, S.L. (SUCLISA, S.L.)",
          "href": "https://api.euskadi.eus/procurements/companies/00343"
        }
      }
    },
    {
      "name": "INNARIMA CONSULTING S.L.",
      "registrationNumber": "05765",
      "identificationNumber": "B95740536",
      "address": "Calle Máximo Aguirre 18bis, Planta 7, Departamento 3B",
      "location": {
        "postalCode": "48011",
        "municipality": "Bilbao",
        "county": "Bizkaia",
        "municipalityId": "020",
        "countyId": "48"
      },
      "economicActivities": [
        {
          "id": "1.847",
          "name": "Servicios de consultoría",
          "_links": {
            "self": {
              "name": "Servicios de consultoría",
              "href": "https://api.euskadi.eus/procurements/companies/economic-activities/1.847"
            }
          }
        }
      ],
      "certificateStartDate": "2025-10-15",
      "certificateEndDate": "2026-04-13",
      "object": "LA PRESTACIÓN DE SERVICIOS EN LOS ÁMBITOS DE: LA CONSULTORÍA ESTRATÉGICA, EL ASESORAMIENTO Y GESTIÓN DE ACTIVIDADES DE I+D+I; EL DISEÑO, DESARROLLO, GESTIÓN Y EVALUACIÓN DE PROGRAMAS Y PROYECTOS; LA FORMACIÓN PARA LA GESTIÓN DE PROGRAMAS Y PROYECTOS; LA FORMACIÓN PARA LA GESTIÓN EMPRESARIAL",
      "mainEntityOfPage": "https://www.contratacion.euskadi.eus/webkpe00-kperoc/es/ac71aBusquedaRegistrosWar/empresa/05765",
      "_links": {
        "self": {
          "name": "INNARIMA CONSULTING S.L.",
          "href": "https://api.euskadi.eus/procurements/companies/05765"
        }
      }
    }
  ]
}