{
  "totalItems": 9042,
  "totalPages": 905,
  "currentPage": 451,
  "itemsOfPage": 10,
  "items": [
    {
      "name": "IGNACIO ECHARRI S.L.",
      "registrationNumber": "05187",
      "identificationNumber": "B20353397",
      "address": "Avenida Isabel II, 14 Bajo",
      "location": {
        "postalCode": "20011",
        "municipality": "Donostia / San Sebastián",
        "county": "Gipuzkoa",
        "municipalityId": "069",
        "countyId": "20"
      },
      "economicActivities": [
        {
          "id": "1.659.2",
          "name": "Venta al por menor de muebles de oficina y máquinas y equipos de oficina",
          "_links": {
            "self": {
              "name": "Venta al por menor de muebles de oficina y máquinas y equipos de oficina",
              "href": "https://api.euskadi.eus/procurements/companies/economic-activities/1.659.2"
            }
          }
        }
      ],
      "certificateStartDate": "2023-08-13",
      "certificateEndDate": "2024-02-13",
      "object": "LA REPRESENTACIÓN, EXPOSICIÓN, COMPRA Y VENTA DE TODA CLASE DE MUEBLES. VENTA MENOR DE MUEBLES DE OFICINA Y MÁQUINAS, EQUIPOS, MATERIAL Y CONSUMIBLES DE OFICINA",
      "mainEntityOfPage": "https://www.contratacion.euskadi.eus/webkpe00-kperoc/es/ac71aBusquedaRegistrosWar/empresa/05187",
      "_links": {
        "self": {
          "name": "IGNACIO ECHARRI S.L.",
          "href": "https://api.euskadi.eus/procurements/companies/05187"
        }
      }
    },
    {
      "name": "MARZO MARKETING Y PUBLICIDAD, S.L.",
      "registrationNumber": "08885",
      "identificationNumber": "B87659298",
      "address": "Carretera de Fuencarral a Alcobendas, 14 Bloque D 3B",
      "location": {
        "postalCode": "28049",
        "municipality": "Madrid",
        "county": "Madrid",
        "municipalityId": "079",
        "countyId": "28"
      },
      "economicActivities": [
        {
          "id": "1.844",
          "name": "Servicios de publicidad, relaciones públicas y similares",
          "_links": {
            "self": {
              "name": "Servicios de publicidad, relaciones públicas y similares",
              "href": "https://api.euskadi.eus/procurements/companies/economic-activities/1.844"
            }
          }
        }
      ],
      "certificateStartDate": "2023-08-12",
      "certificateEndDate": "2024-02-12",
      "object": "LAS ACTIVIDADES PROPIAS DE AGENCIA DE PUBLICIDAD TALES COMO COMERCIALIZACIÓN DE ESPACIOS PUBLICITARIOS, INFORMATIVOS, DIVULGATIVOS EN ALQUILER SOBRE BASE AUDIOVISUAL. COMPRAVENTA DE EQUIPOS INFORMÁTICOS Y AUDIOVISUALES. EL DISEÑO DE CONTENIDOS PUBLICITARIOS Y EL ALQUILER DE ESPACIOS FÍSICOS PARA TAL FIN. REALIZAR Y CELEBRAR DEMOSTRACIONES Y EXHIBICIONES CON FINES PUBLICITARIOS. LA PREPARACIÓN Y PRODUCCIÓN DE PELÍCULAS DE ANUNCIOS Y DISPOSITIVOS DE PUBLICIDAD. LA COMPRA-VENTA Y ALQUILER DE TODO DE TIPO DE BIENES INMUEBLES.",
      "mainEntityOfPage": "https://www.contratacion.euskadi.eus/webkpe00-kperoc/es/ac71aBusquedaRegistrosWar/empresa/08885",
      "_links": {
        "self": {
          "name": "MARZO MARKETING Y PUBLICIDAD, S.L.",
          "href": "https://api.euskadi.eus/procurements/companies/08885"
        }
      }
    },
    {
      "name": "LAUFFORSITE, S.L.",
      "registrationNumber": "08887",
      "identificationNumber": "B67727222",
      "address": "Calle Antonio Arzak (20018) 1, 5.I",
      "location": {
        "postalCode": "20018",
        "municipality": "Donostia / San Sebastián",
        "county": "Gipuzkoa",
        "municipalityId": "069",
        "countyId": "20"
      },
      "economicActivities": [
        {
          "id": "1.673.1",
          "name": "Bar categoría especial",
          "_links": {
            "self": {
              "name": "Bar categoría especial",
              "href": "https://api.euskadi.eus/procurements/companies/economic-activities/1.673.1"
            }
          }
        }
      ],
      "certificateStartDate": "2023-08-12",
      "certificateEndDate": "2024-02-12",
      "object": "- LA PRESTACIÓN DE SERVICIOS DE HOSTELERÍA, RESTAURACIÓN, CAFETERÍA, BARES, SALAS DE FIESTA, CATERING, ASÍ COMO LA COMPRA VENTA DE PRODUCTOS ALIMENTICIOS Y BEBIDAS DE TODA CLASE CON O SIN ESTABLECIMIENTO.",
      "mainEntityOfPage": "https://www.contratacion.euskadi.eus/webkpe00-kperoc/es/ac71aBusquedaRegistrosWar/empresa/08887",
      "_links": {
        "self": {
          "name": "LAUFFORSITE, S.L.",
          "href": "https://api.euskadi.eus/procurements/companies/08887"
        }
      }
    },
    {
      "name": "ULIKER 3, S.L.",
      "registrationNumber": "02378",
      "identificationNumber": "B48752646",
      "address": "ALAMEDA RECALDE 36",
      "location": {
        "postalCode": "48009",
        "municipality": "Bilbao",
        "county": "Bizkaia",
        "municipalityId": "020",
        "countyId": "48"
      },
      "economicActivities": [
        {
          "id": "1.847",
          "name": "Servicios de consultoría",
          "_links": {
            "self": {
              "name": "Servicios de consultoría",
              "href": "https://api.euskadi.eus/procurements/companies/economic-activities/1.847"
            }
          }
        }
      ],
      "certificateStartDate": "2023-08-12",
      "certificateEndDate": "2024-02-12",
      "object": "EL ANÁLISIS, PROSPECCIÓN, INVESTIGACIÓN, ELABORACIÓN Y DIFUSIÓN DE ESTUDIOS Y PROYECTOS PARA LA IDENTIFICACIÓN, DESARROLLO E IMPLANTACIÓN DE PLANES ESTRATÉGICOS PARA EMPRESAS Y PARTICULARES.\n",
      "mainEntityOfPage": "https://www.contratacion.euskadi.eus/webkpe00-kperoc/es/ac71aBusquedaRegistrosWar/empresa/02378",
      "_links": {
        "self": {
          "name": "ULIKER 3, S.L.",
          "href": "https://api.euskadi.eus/procurements/companies/02378"
        }
      }
    },
    {
      "name": "PANTALLEA STUDIO, S.L.",
      "registrationNumber": "08563",
      "identificationNumber": "B98443088",
      "address": "Calle la Barraca 11",
      "location": {
        "postalCode": "46529",
        "municipality": "Canet d'En Berenguer",
        "county": "Valencia/València",
        "municipalityId": "082",
        "countyId": "46"
      },
      "economicActivities": [
        {
          "id": "1.844",
          "name": "Servicios de publicidad, relaciones públicas y similares",
          "_links": {
            "self": {
              "name": "Servicios de publicidad, relaciones públicas y similares",
              "href": "https://api.euskadi.eus/procurements/companies/economic-activities/1.844"
            }
          }
        },
        {
          "id": "1.856.1",
          "name": "Alquiler de bienes de consumo",
          "_links": {
            "self": {
              "name": "Alquiler de bienes de consumo",
              "href": "https://api.euskadi.eus/procurements/companies/economic-activities/1.856.1"
            }
          }
        }
      ],
      "certificateStartDate": "2023-08-12",
      "certificateEndDate": "2024-02-12",
      "object": "1.- LA CONSULTORÍA Y ASESORAMIENTO EN EL ÁMBITO FINANCIERO, LABORAL Y FISCAL; Y LA PRESTACIÓN DE SERVICIOS DE ADMINISTRACIÓN, GESTIÓN Y CONTROL DE EMPRESAS. 2.- LA ADQUISICIÓN Y VENTA DE TÍTULOS VALORES DE RENTA FIJA Y/O VARIABLE DE CUALQUIER CLASE, ESTÉN O NO ACEPTADOS A COTIZACIÓN EN LAS BOLSAS DE COMERCIO OFICIALMENTE AUTORIZADAS, EXCLUYÉNDOSE EXPRESAMENTE LAS RESERVADAS A INSTITUCIONES DE INVERSIÓN COLECTIVA Y TODAS AQUELLAS ACTIVIDADES SOMETIDAS A LA LEGISLACIÓN ESPECIAL DE LA LEY DEL MERCADO DE VALORES, ASÍ COMO LA COMPRAVENTA, SUSCRIPCIÓN Y ADQUISICIÓN DERIVATIVA DE PARTICIPACIONES SOCIALES  POR CUENTA PROPIA.",
      "mainEntityOfPage": "https://www.contratacion.euskadi.eus/webkpe00-kperoc/es/ac71aBusquedaRegistrosWar/empresa/08563",
      "_links": {
        "self": {
          "name": "PANTALLEA STUDIO, S.L.",
          "href": "https://api.euskadi.eus/procurements/companies/08563"
        }
      }
    },
    {
      "name": "DIVERSITAS GROUP, S.L.",
      "registrationNumber": "08249",
      "identificationNumber": "B42924506",
      "address": "PASEO ALFREDO BASANTA, 4",
      "location": {
        "postalCode": "47008",
        "municipality": "Valladolid",
        "county": "Valladolid",
        "municipalityId": "186",
        "countyId": "47"
      },
      "economicActivities": [
        {
          "id": "1.843.9",
          "name": "Otros servicios técnicos n.c.o.p",
          "_links": {
            "self": {
              "name": "Otros servicios técnicos n.c.o.p",
              "href": "https://api.euskadi.eus/procurements/companies/economic-activities/1.843.9"
            }
          }
        },
        {
          "id": "1.933.9",
          "name": "Otras actividades de enseñanza tales como idiomas, mecanografía",
          "_links": {
            "self": {
              "name": "Otras actividades de enseñanza tales como idiomas, mecanografía",
              "href": "https://api.euskadi.eus/procurements/companies/economic-activities/1.933.9"
            }
          }
        }
      ],
      "certificateStartDate": "2023-08-12",
      "certificateEndDate": "2024-02-12",
      "object": "\nOTRAS ACTIVIDADES DE CONSULTORÍA DE GESTIÓN EMPRESARIAL. LA CONSULTORÍA DE ORGANIZACIÓN, CON ASESORAMIENTO ECONÓMICO, INDUSTRIAL Y COMERCIAL Y GESTIÓN INTEGRADA, MEDIANTE ESTUDIOS SECTORIALES Y DE DECISIÓN EMPRESARIAL, ESTUDIOS DE VIABILIDAD DE INFRAESTRUCTURAS FÍSICAS Y SOCIALES, ESTUDIOS DE MERCADO Y ENCUESTAS DE OPINIÓN, DIAGNÓSTICOS EN ORGANIZACIÓN Y MÉTODOS DE GESTIÓN, APLICACIONES PARA EL INCREMENTO DE LA PRODUCTIVIDAD, IMPLANTACIÓN DE SISTEMAS DE GESTIÓN, OTROS ESTUDIOS Y APLICACIONES MICRO Y MACROECONÓMICOS. LA PUESTA EN COMÚN DE LOS MEDIOS HUMANOS, MATERIALES Y TECNOLÓGICOS PARA FACILITAR LA FUNCIÓN DE LA CONCILIACIÓN, LA MEDIACIÓN Y EL ARBITRAJE. SERVICIOS DE CONSULTORÍA DE IGUALDAD DE OPORTUNIDADES ENTRE MUJERES Y HOMBRES, CONCILIACIÓN DE VIDA PERSONAL, FAMILIAR Y LABORAL. PROMOVER, DIFUNDIR Y DESARROLLAR LA CONCILIACIÓN, LA MEDIACIÓN Y EL ARBITRAJE COMO MÉTODOS ALTERNATIVOS Y COMPLEMENTARIOS DE RESOLUCIÓN DE CONTROVERSIAS ENTRE PERSONAS,  INSTITUCIONES Y ORGANISMOS, PONIENDO A DISPOSICIÓN DE TODOS ELLOS UNOS SERVICIOS BAJO CRITERIOS DE CALIDAD. RECURSOS HUMANOS Y RESPONSABILIDAD SOCIAL EMPRESARIAL. ASESORAMIENTO EN RECURSOS HUMANOS, SELECCIÓN, RECLUTAMIENTO, VALORACIÓN, ORGANIZACIÓN, MOTIVACIÓN Y ANÁLISIS DE PUESTOS DE TRABAJO, PRESTACIÓN SERVICIOS GENERALES ADMINISTRATIVOS, AUXILIARES, CONTABLES, DE ASESORAMIENTO MARKETING. REALIZACIÓN DE PROYECTOS DE GÉNERO. LA CONSULTORÍA DE IGUALDAD DE OPORTUNIDADES, CON SERVICIO DE ASESORAMIENTO DE IGUALDAD, FORMACIÓN DE GÉNERO, ELABORACIÓN DE CONTENIDOS CON PERSPECTIVA DE GÉNERO, GESTIÓN, ELABORACIÓN Y EVALUACIÓN DE PROYECTOS DE GÉNERO.\n",
      "mainEntityOfPage": "https://www.contratacion.euskadi.eus/webkpe00-kperoc/es/ac71aBusquedaRegistrosWar/empresa/08249",
      "_links": {
        "self": {
          "name": "DIVERSITAS GROUP, S.L.",
          "href": "https://api.euskadi.eus/procurements/companies/08249"
        }
      }
    },
    {
      "name": "JBL REFORMAS, S.L.",
      "registrationNumber": "08555",
      "identificationNumber": "B05486394",
      "address": "ZUBIETA KALEA 2C 1A",
      "location": {
        "postalCode": "20280",
        "municipality": "Hondarribia",
        "county": "Gipuzkoa",
        "municipalityId": "036",
        "countyId": "20"
      },
      "economicActivities": [
        {
          "id": "1.501.3",
          "name": "Albañilería y pequeños trabajos de construcción en general",
          "_links": {
            "self": {
              "name": "Albañilería y pequeños trabajos de construcción en general",
              "href": "https://api.euskadi.eus/procurements/companies/economic-activities/1.501.3"
            }
          }
        }
      ],
      "certificateStartDate": "2023-08-10",
      "certificateEndDate": "2024-02-10",
      "object": "LA ALBAÑILERIA EN GENERAL AL QUE CORRESPONDE EL CNAE 4121.",
      "mainEntityOfPage": "https://www.contratacion.euskadi.eus/webkpe00-kperoc/es/ac71aBusquedaRegistrosWar/empresa/08555",
      "_links": {
        "self": {
          "name": "JBL REFORMAS, S.L.",
          "href": "https://api.euskadi.eus/procurements/companies/08555"
        }
      }
    },
    {
      "name": "OLATUKOOP EKONOMIA SOZIAL ETA ERALDATZAILEA SUSTATZEKO SAREA ELKARTEA",
      "registrationNumber": "08882",
      "identificationNumber": "G75137521",
      "address": "AMETZAGAÑA 17 BEHEA ",
      "location": {
        "postalCode": "20012",
        "municipality": "Donostia / San Sebastián",
        "county": "Gipuzkoa",
        "municipalityId": "069",
        "countyId": "20"
      },
      "economicActivities": [
        {
          "id": "1.849.9",
          "name": "Otros servicios independientes n.c.o.p",
          "_links": {
            "self": {
              "name": "Otros servicios independientes n.c.o.p",
              "href": "https://api.euskadi.eus/procurements/companies/economic-activities/1.849.9"
            }
          }
        },
        {
          "id": "1.999",
          "name": "Otros servicios n.c.o.p",
          "_links": {
            "self": {
              "name": "Otros servicios n.c.o.p",
              "href": "https://api.euskadi.eus/procurements/companies/economic-activities/1.999"
            }
          }
        }
      ],
      "certificateStartDate": "2023-08-09",
      "certificateEndDate": "2024-02-09",
      "object": "EKONOMIA SOZIAL ETA ERALDATZAILEAN JARDUTEN DIREN ENPRESA, ELKARTE, ERAKUNDE ETA KOOPERATIBEK OSATZEN DUTE OLATUKOOP SAREA. SARE HORREN HELBURU NAGUSIA KIDEEN ARTEKO ELKARTASUNA, JENDARTEAREN ONGIZATEA, ETA JARDUERA EKONOMIKOAK ONDARE KOMUNARI EKARPEN BAT EGITEA DIRA. ENPRESA PROIEKTUAK KOMUNITATE BEZALA IZENDATZEA, OHIKO ENPRESAK BAINO ASKOZ GEHIAGO IZATEKO. EKONOMIA SOZIAL ETA ERALDATZAILEAN OINARRITUTAKO EIKARTEA IZANGO DA. HORRETARAKO, LEHENIK, IZANDAKO EKONOMIA ERALDATZAILEAREN MEMORIA MODU INTEGRALEAN BERRESKURATZEA IZANGO DA BERE HELBURUETAKO BAT. HORREKIN BATERA, LANEAN MODU AKTIBO ETA BANATUAN JARDUTEN DUTEN EKIMEN EKONOMIKO ERALDATZAILEAK BISTARATUKO ELKARTEA SARE IREKIA DEN HEINEAN, EZ DU KIDEEI ZIURTAGIRIRIK EMANGO DIEN EGITURA ZENTRALIZATZAILERIK IZANGO. OLATUKOOP OINARRI IREKIAK BERE EGITEAN, ENPRESA PROIEKTU/KOMUNITATE BAKOITZA SAREKO KIDE IZATERA PASATUKO DA. OINARRI HORIEK BETETZEN DIRELA SAREKO BESTE KIDEEK BERMATUKO DUTE, MODU KOLEKTIBOAN. HELBURU HORIEK LORTZEKO, JARDUERA HAUEK EGINGO DIRA, EZARRITAKO LEGEZKO BETEKIZUNAK BETE ONDOREN: ELKARTEAK, BEHARREZKO BALIABIDE GUZTIEKIN, ELKARTASUN PERTSONALA ZEIN KOMUNITARIOA SUSTATUKO DITU, ABERASTASUN BANAKETA OREKATUA ETA AUTONOMIA IRIZPIDEEI JARRAIKI. ONDARE KOMUNA ETA JASANGARRITASUNA SUSTATZEKO KONPROMISOA HARTUKO DU, BAITA BERE KOMUNITATEARENTZAKO, INGURUKO SAREARENTZAKO ETA BERE EKIMENAK GAUZATZEN DITUEN JENDARTEARENTZAKO ONGIZATEA BILATZEKO ARDURA ERE. EKONOMIA SOZIAL ETA ERALDATZAILEAREN OINARRIEKIN BAT DATOZEN PROIEKTU BERRIAK LANDU ETA SUSTATUKO DIRA. HORRETARAKO, BEHARREZKOA DA ORAIN ARTEKO EKINTZAILETZA EREDUEZ GAIN, EKINTZAILETZA EREDU KOOPERATIBO BERRI BAT PROPOSATZEA ETA HEDATZEN HASTEA. AURREKO PARAGRAFOAN AZALDUTAKO JARDUERAK GORABEHERA, ELKARTEAK, BERE XEDEAK BETETZEKO, HONAKO HAUEK EGIN AHALKO DITU: - HELBURUAK BETETZEKO EDO HORRETARAKO BALIABIDEAK BILTZEKO ERA GUZTIETAKO JARDUERA EKONOMIKOAK GAUZATU. - ERA GUZTIETAKO ONDASUNAK EDOZEIN TITULUREN BIDEZ ESKURATU ETA EDUKI, ETA MOTA GUZTIETAKO EGINTZAK ETA KONTRATUAK EGIN. - NOLANAHIKO EKINTZAK BURUTU, BETIERE LEGEEKIN ETA ESTATUTUEKIN BAT ETORTZEKOTAN.",
      "mainEntityOfPage": "https://www.contratacion.euskadi.eus/webkpe00-kperoc/es/ac71aBusquedaRegistrosWar/empresa/08882",
      "_links": {
        "self": {
          "name": "OLATUKOOP EKONOMIA SOZIAL ETA ERALDATZAILEA SUSTATZEKO SAREA ELKARTEA",
          "href": "https://api.euskadi.eus/procurements/companies/08882"
        }
      }
    },
    {
      "name": "PREDICTIA INTELLIGENT DATA SOLUTIONS, S.L.",
      "registrationNumber": "08235",
      "identificationNumber": "B39695564",
      "address": "Calle Benidorm 8 Bajo",
      "location": {
        "postalCode": "39005",
        "municipality": "Santander",
        "county": "Cantabria",
        "municipalityId": "075",
        "countyId": "39"
      },
      "economicActivities": [
        {
          "id": "1.845",
          "name": "Explotación electrónica por cuenta de terceros",
          "_links": {
            "self": {
              "name": "Explotación electrónica por cuenta de terceros",
              "href": "https://api.euskadi.eus/procurements/companies/economic-activities/1.845"
            }
          }
        }
      ],
      "certificateStartDate": "2023-08-07",
      "certificateEndDate": "2024-02-07",
      "object": "INVESTIGACIÓN, DESARROLLO, INNOVACIÓN, DISEÑO, DIFUSIÓN, FORMACIÓN, PRODUCCIÓN, COMERCIALIZACIÓN, CONSULTORÍA, ASESORÍA, COMPRAVENTA DE PRODUCTOS Y SOLUCIONES DE SOFTWARE Y HARDWARE Y SERVICIOS EN LOS CAMPOS DE LAS TECNOLOGÍAS DE LA INFORMACIÓN Y COMUNICACIONES, MATEMÁTICA APLICADA, ESTADÍSTICA, MINERÍA DE DATOS E INTELIGENCIA ARTIFICIAL.",
      "mainEntityOfPage": "https://www.contratacion.euskadi.eus/webkpe00-kperoc/es/ac71aBusquedaRegistrosWar/empresa/08235",
      "_links": {
        "self": {
          "name": "PREDICTIA INTELLIGENT DATA SOLUTIONS, S.L.",
          "href": "https://api.euskadi.eus/procurements/companies/08235"
        }
      }
    },
    {
      "name": "NEURTEK, S.L.",
      "registrationNumber": "08101",
      "identificationNumber": "B75231431",
      "address": "POL. IND. AZITAIN 3A",
      "location": {
        "postalCode": "20600",
        "municipality": "Eibar",
        "county": "Gipuzkoa",
        "municipalityId": "030",
        "countyId": "20"
      },
      "economicActivities": [
        {
          "id": "1.391",
          "name": "Fabricación de instrumentos de precisión, medida y control",
          "_links": {
            "self": {
              "name": "Fabricación de instrumentos de precisión, medida y control",
              "href": "https://api.euskadi.eus/procurements/companies/economic-activities/1.391"
            }
          }
        },
        {
          "id": "1.619.7",
          "name": "Venta al por mayor de instrumentos de precisión, medida y similares",
          "_links": {
            "self": {
              "name": "Venta al por mayor de instrumentos de precisión, medida y similares",
              "href": "https://api.euskadi.eus/procurements/companies/economic-activities/1.619.7"
            }
          }
        }
      ],
      "certificateStartDate": "2023-08-06",
      "certificateEndDate": "2024-02-06",
      "object": "LA COMERCIALIZACIÓN, FABRICACIÓN, CALIBRACIÓN, REPARACIÓN Y MANTENIMIENTO DE INSTRUMENTOS DE MEDICIÓN Y CONTROL.",
      "mainEntityOfPage": "https://www.contratacion.euskadi.eus/webkpe00-kperoc/es/ac71aBusquedaRegistrosWar/empresa/08101",
      "_links": {
        "self": {
          "name": "NEURTEK, S.L.",
          "href": "https://api.euskadi.eus/procurements/companies/08101"
        }
      }
    }
  ]
}