{
  "totalItems": 9042,
  "totalPages": 905,
  "currentPage": 864,
  "itemsOfPage": 10,
  "items": [
    {
      "name": "ELECTRICIDAD ELGOIN, S.A.",
      "registrationNumber": "04252",
      "identificationNumber": ".A48910178",
      "address": "ZUBITARTE 6",
      "location": {
        "postalCode": "48220",
        "municipality": "Abadiño",
        "county": "Bizkaia",
        "municipalityId": "001",
        "countyId": "48"
      },
      "object": "pte",
      "mainEntityOfPage": "https://www.contratacion.euskadi.eus/webkpe00-kperoc/es/ac71aBusquedaRegistrosWar/empresa/04252",
      "_links": {
        "self": {
          "name": "ELECTRICIDAD ELGOIN, S.A.",
          "href": "https://api.euskadi.eus/procurements/companies/04252"
        }
      }
    },
    {
      "name": "ETXE AIZ ETXEGINTZA, S.L.",
      "registrationNumber": "04253",
      "identificationNumber": "B20643516",
      "address": "JULIAN ELORZA IBILBIDEA, 3 BAJO",
      "location": {
        "postalCode": "20730",
        "municipality": "Azpeitia",
        "county": "Gipuzkoa",
        "municipalityId": "018",
        "countyId": "20"
      },
      "classification": [
        {
          "id": "O",
          "name": "Obras",
          "groups": [
            {
              "id": "C",
              "name": "EDIFICACIONES",
              "subgroups": [
                {
                  "id": "02",
                  "name": "ESTRUCTURAS DE FABRICA U HORMIGÓN",
                  "categories": [
                    {
                      "id": "3",
                      "name": "Desde 360.001 Hasta 840.000",
                      "_links": {
                        "self": {
                          "name": "Desde 360.001 Hasta 840.000",
                          "href": "https://api.euskadi.eus/procurements/companies/types/O/categories/3"
                        }
                      }
                    }
                  ],
                  "_links": {
                    "self": {
                      "name": "ESTRUCTURAS DE FABRICA U HORMIGÓN",
                      "href": "https://api.euskadi.eus/procurements/companies/types/O/groups/C/subgroups/02"
                    }
                  }
                }
              ],
              "_links": {
                "self": {
                  "name": "EDIFICACIONES",
                  "href": "https://api.euskadi.eus/procurements/companies/types/O/groups/C"
                }
              }
            }
          ],
          "_links": {
            "self": {
              "name": "Obras",
              "href": "https://api.euskadi.eus/procurements/companies/types/O"
            }
          }
        }
      ],
      "object": "pte",
      "mainEntityOfPage": "https://www.contratacion.euskadi.eus/webkpe00-kperoc/es/ac71aBusquedaRegistrosWar/empresa/04253",
      "_links": {
        "self": {
          "name": "ETXE AIZ ETXEGINTZA, S.L.",
          "href": "https://api.euskadi.eus/procurements/companies/04253"
        }
      }
    },
    {
      "name": "ELECTRICIDAD INSTELAN 2001, S.L.",
      "registrationNumber": "04255",
      "identificationNumber": "B48938740",
      "address": "POLÍGONO ARTUNDUAGA, Nº 7- PABELLONES 7, 8 Y 9",
      "location": {
        "postalCode": "48970",
        "municipality": "Basauri",
        "county": "Bizkaia",
        "municipalityId": "015",
        "countyId": "48"
      },
      "mainEntityOfPage": "https://www.contratacion.euskadi.eus/webkpe00-kperoc/es/ac71aBusquedaRegistrosWar/empresa/04255",
      "_links": {
        "self": {
          "name": "ELECTRICIDAD INSTELAN 2001, S.L.",
          "href": "https://api.euskadi.eus/procurements/companies/04255"
        }
      }
    },
    {
      "name": "JOSE ANGEL BUSTO TRUEBA",
      "registrationNumber": "04259",
      "identificationNumber": "14941410N",
      "address": "C/ SEVERO OTXOA, 43-4º D.",
      "location": {
        "postalCode": "48480",
        "municipality": "Arrigorriaga",
        "county": "Bizkaia",
        "municipalityId": "011",
        "countyId": "48"
      },
      "object": ".",
      "mainEntityOfPage": "https://www.contratacion.euskadi.eus/webkpe00-kperoc/es/ac71aBusquedaRegistrosWar/empresa/04259",
      "_links": {
        "self": {
          "name": "JOSE ANGEL BUSTO TRUEBA",
          "href": "https://api.euskadi.eus/procurements/companies/04259"
        }
      }
    },
    {
      "name": "CONSTRUCCIONES PINEÑO, S.A.",
      "registrationNumber": "04262",
      "identificationNumber": "A48263180",
      "address": "C/ AUTONOMÍA, Nº 26-3ºB",
      "location": {
        "postalCode": "48010",
        "municipality": "Bilbao",
        "county": "Bizkaia",
        "municipalityId": "020",
        "countyId": "48"
      },
      "object": "pte",
      "mainEntityOfPage": "https://www.contratacion.euskadi.eus/webkpe00-kperoc/es/ac71aBusquedaRegistrosWar/empresa/04262",
      "_links": {
        "self": {
          "name": "CONSTRUCCIONES PINEÑO, S.A.",
          "href": "https://api.euskadi.eus/procurements/companies/04262"
        }
      }
    },
    {
      "name": "CONSTRUCCIONES RIO, S.L.",
      "registrationNumber": "04264",
      "identificationNumber": "B01020544",
      "address": "CALLE SAN TORCUATO TRAV 1 Nº22",
      "location": {
        "postalCode": "01307",
        "municipality": "Villabuena de Álava/Eskuernaga",
        "county": "Araba/Álava",
        "municipalityId": "057",
        "countyId": "01"
      },
      "economicActivities": [
        {
          "id": "1.501.1",
          "name": "Construcción completa, reparación y conservación de edificaciones",
          "_links": {
            "self": {
              "name": "Construcción completa, reparación y conservación de edificaciones",
              "href": "https://api.euskadi.eus/procurements/companies/economic-activities/1.501.1"
            }
          }
        }
      ],
      "object": "EXPLOTACIÓN DE UNA INDUSTRIA DE CONSTRUCCIÓN Y ACTIVIDADES DE ALBAÑILERÍA EN GENERAL, ASÍ COMO TODAS AQUELLAS ACTIVIDADES LICITAS AFINES COMUNES EN EL RAMO",
      "mainEntityOfPage": "https://www.contratacion.euskadi.eus/webkpe00-kperoc/es/ac71aBusquedaRegistrosWar/empresa/04264",
      "_links": {
        "self": {
          "name": "CONSTRUCCIONES RIO, S.L.",
          "href": "https://api.euskadi.eus/procurements/companies/04264"
        }
      }
    },
    {
      "name": "EXCURSIONES JAI ALAI SOCIEDAD LIMITADA",
      "registrationNumber": "04268",
      "identificationNumber": "B48110365",
      "address": "Barrio Erribera",
      "location": {
        "postalCode": "48710",
        "municipality": "Berriatua",
        "county": "Bizkaia",
        "municipalityId": "018",
        "countyId": "48"
      },
      "classification": [
        {
          "id": "S",
          "name": "Servicios",
          "groups": [
            {
              "id": "R",
              "subgroups": [
                {
                  "id": "01",
                  "name": "Transporte de viajeros por carretera",
                  "categories": [
                    {
                      "id": "3",
                      "name": "Desde 300.001 Hasta 600.000",
                      "_links": {
                        "self": {
                          "name": "Desde 300.001 Hasta 600.000",
                          "href": "https://api.euskadi.eus/procurements/companies/types/S/categories/3"
                        }
                      }
                    }
                  ],
                  "_links": {
                    "self": {
                      "name": "Transporte de viajeros por carretera",
                      "href": "https://api.euskadi.eus/procurements/companies/types/S/groups/R/subgroups/01"
                    }
                  }
                }
              ],
              "_links": {
                "self": {
                  "href": "https://api.euskadi.eus/procurements/companies/types/S/groups/R"
                }
              }
            }
          ],
          "_links": {
            "self": {
              "name": "Servicios",
              "href": "https://api.euskadi.eus/procurements/companies/types/S"
            }
          }
        }
      ],
      "object": "TRASPORTE DE VIAJEROS POR CARRETERA Y ESCOLAR",
      "mainEntityOfPage": "https://www.contratacion.euskadi.eus/webkpe00-kperoc/es/ac71aBusquedaRegistrosWar/empresa/04268",
      "_links": {
        "self": {
          "name": "EXCURSIONES JAI ALAI SOCIEDAD LIMITADA",
          "href": "https://api.euskadi.eus/procurements/companies/04268"
        }
      }
    },
    {
      "name": "BARRIO AUTOBUSAK SOCIEDAD LIMITADA",
      "registrationNumber": "04271",
      "identificationNumber": "B95593539",
      "address": "ALDAPA 6 4B",
      "location": {
        "postalCode": "48260",
        "municipality": "Ermua",
        "county": "Bizkaia",
        "municipalityId": "034",
        "countyId": "48"
      },
      "classification": [
        {
          "id": "S",
          "name": "Servicios",
          "groups": [
            {
              "id": "R",
              "subgroups": [
                {
                  "id": "01",
                  "name": "Transporte de viajeros por carretera",
                  "categories": [
                    {
                      "id": "3",
                      "name": "Desde 300.001 Hasta 600.000",
                      "_links": {
                        "self": {
                          "name": "Desde 300.001 Hasta 600.000",
                          "href": "https://api.euskadi.eus/procurements/companies/types/S/categories/3"
                        }
                      }
                    }
                  ],
                  "_links": {
                    "self": {
                      "name": "Transporte de viajeros por carretera",
                      "href": "https://api.euskadi.eus/procurements/companies/types/S/groups/R/subgroups/01"
                    }
                  }
                }
              ],
              "_links": {
                "self": {
                  "href": "https://api.euskadi.eus/procurements/companies/types/S/groups/R"
                }
              }
            }
          ],
          "_links": {
            "self": {
              "name": "Servicios",
              "href": "https://api.euskadi.eus/procurements/companies/types/S"
            }
          }
        }
      ],
      "object": "TRANSPORTE DE VIAJEROS POR CARRETERA",
      "mainEntityOfPage": "https://www.contratacion.euskadi.eus/webkpe00-kperoc/es/ac71aBusquedaRegistrosWar/empresa/04271",
      "_links": {
        "self": {
          "name": "BARRIO AUTOBUSAK SOCIEDAD LIMITADA",
          "href": "https://api.euskadi.eus/procurements/companies/04271"
        }
      }
    },
    {
      "name": "HEMEN KLIMA, S.A.L.",
      "registrationNumber": "04273",
      "identificationNumber": "A2026402",
      "address": "POLIGONO IND. UGALDETXO PARCELAS 28-31, PAB. 21B",
      "location": {
        "postalCode": "20000",
        "municipality": "Oiartzun",
        "county": "Gipuzkoa",
        "municipalityId": "063",
        "countyId": "20"
      },
      "object": "PENDIENTE",
      "mainEntityOfPage": "https://www.contratacion.euskadi.eus/webkpe00-kperoc/es/ac71aBusquedaRegistrosWar/empresa/04273",
      "_links": {
        "self": {
          "name": "HEMEN KLIMA, S.A.L.",
          "href": "https://api.euskadi.eus/procurements/companies/04273"
        }
      }
    },
    {
      "name": "CONSTRUCCIONES ATLAS NORTE, S.L.",
      "registrationNumber": "04274",
      "identificationNumber": "B95470571",
      "address": "ZABALGANE 9, BAJO",
      "location": {
        "postalCode": "48960",
        "municipality": "Galdakao",
        "county": "Bizkaia",
        "municipalityId": "036",
        "countyId": "48"
      },
      "economicActivities": [
        {
          "id": "1.501.1",
          "name": "Construcción completa, reparación y conservación de edificaciones",
          "_links": {
            "self": {
              "name": "Construcción completa, reparación y conservación de edificaciones",
              "href": "https://api.euskadi.eus/procurements/companies/economic-activities/1.501.1"
            }
          }
        }
      ],
      "object": ".",
      "mainEntityOfPage": "https://www.contratacion.euskadi.eus/webkpe00-kperoc/es/ac71aBusquedaRegistrosWar/empresa/04274",
      "_links": {
        "self": {
          "name": "CONSTRUCCIONES ATLAS NORTE, S.L.",
          "href": "https://api.euskadi.eus/procurements/companies/04274"
        }
      }
    }
  ]
}