{
  "totalItems": 9042,
  "totalPages": 905,
  "currentPage": 717,
  "itemsOfPage": 10,
  "items": [
    {
      "name": "TEIC, S.A.",
      "registrationNumber": "01429",
      "identificationNumber": "A48068753",
      "address": "C/ ALAMEDA DE URQUIJO, 33 -1º",
      "location": {
        "postalCode": "48008",
        "municipality": "Bilbao",
        "county": "Bizkaia",
        "municipalityId": "020",
        "countyId": "48"
      },
      "economicActivities": [
        {
          "id": "1.502.2",
          "name": "Consolidación y preparación de terrenos para la construcción de edificaciones",
          "_links": {
            "self": {
              "name": "Consolidación y preparación de terrenos para la construcción de edificaciones",
              "href": "https://api.euskadi.eus/procurements/companies/economic-activities/1.502.2"
            }
          }
        },
        {
          "id": "1.507",
          "name": "Construcción, reparación y conservación de toda clase obras",
          "_links": {
            "self": {
              "name": "Construcción, reparación y conservación de toda clase obras",
              "href": "https://api.euskadi.eus/procurements/companies/economic-activities/1.507"
            }
          }
        }
      ],
      "certificateStartDate": "2011-02-11",
      "certificateEndDate": "2011-07-13",
      "object": "EL PROYECTO Y EJECUCIÓN DE TODA CLASE DE TRABAJOS RELACIONADOS CON LA CIMENTACIÓN Y FUNDACIÓN DE SUELOS",
      "mainEntityOfPage": "https://www.contratacion.euskadi.eus/webkpe00-kperoc/es/ac71aBusquedaRegistrosWar/empresa/01429",
      "_links": {
        "self": {
          "name": "TEIC, S.A.",
          "href": "https://api.euskadi.eus/procurements/companies/01429"
        }
      }
    },
    {
      "name": "CONSTRUCCIONES Y REFORMAS ATER, S.L.",
      "registrationNumber": "03628",
      "identificationNumber": "B95286449",
      "address": "C/ MARCELINO GONZALEZ, 7 - LONJA",
      "location": {
        "postalCode": "48970",
        "municipality": "Basauri",
        "county": "Bizkaia",
        "municipalityId": "015",
        "countyId": "48"
      },
      "economicActivities": [
        {
          "id": "1.501.1",
          "name": "Construcción completa, reparación y conservación de edificaciones",
          "_links": {
            "self": {
              "name": "Construcción completa, reparación y conservación de edificaciones",
              "href": "https://api.euskadi.eus/procurements/companies/economic-activities/1.501.1"
            }
          }
        }
      ],
      "certificateStartDate": "2011-02-11",
      "certificateEndDate": "2011-05-25",
      "object": "A) EL ESTUDIO, PROMOCIÓN, REALIZACIÓN DE TODA CLASE DE OBRAS DE CONSTRUCCIÓN, MEJORA, CONSERVACIÓN Y REPARACIÓN, TANTO PRIVADAS COMO PÚBLICAS, INCLUYENDO TODA CLASE DE CONSTRUCCIONES INDUSTRIALES, OBRAS DE INGENIERÍA CIVIL Y CARRETERAS. B) EL ESTUDIO, PROMOCIÓN, CONSTRUCCIÓN Y REPARACIÓN DE TODA CLASE DE INMUEBLES SUSCEPTIBLES DE SER OCUPADOS, ASÍ COMO LA VENTA O ARRENDAMIENTO DE LOS MISMOS. C) LA SUSCRIPCIÓN, ADQUISICIÓN Y VENTA DE ACCIONES DE EMPRESAS QUE TENGAN ACTIVIDADES SIMILARES O ANÁLOGAS O LAS CONSIGNADAS EN LOS APARTADOS ANTERIORES, POR CUENTA PROPIA Y SIEMPRE QUE NO COINCIDAN EN ACTIVIDAD REGULADA POR LA LEGISLACIÓN SOBRE MERCADO DE VALORES",
      "mainEntityOfPage": "https://www.contratacion.euskadi.eus/webkpe00-kperoc/es/ac71aBusquedaRegistrosWar/empresa/03628",
      "_links": {
        "self": {
          "name": "CONSTRUCCIONES Y REFORMAS ATER, S.L.",
          "href": "https://api.euskadi.eus/procurements/companies/03628"
        }
      }
    },
    {
      "name": "METALISTERÍA ZUBI-MET, S.L.",
      "registrationNumber": "04569",
      "identificationNumber": "B48299549",
      "address": "P.I. TORRELARRAGOITI PARC 7B C/ CENTRO PAB.19",
      "location": {
        "postalCode": "48170",
        "municipality": "Zamudio",
        "county": "Bizkaia",
        "municipalityId": "905",
        "countyId": "48"
      },
      "economicActivities": [
        {
          "id": "1.314.1",
          "name": "Carpintería metálica",
          "_links": {
            "self": {
              "name": "Carpintería metálica",
              "href": "https://api.euskadi.eus/procurements/companies/economic-activities/1.314.1"
            }
          }
        },
        {
          "id": "1.653.5",
          "name": "Venta al por menor de puertas y ventanas, persianas, molduras, marcos",
          "_links": {
            "self": {
              "name": "Venta al por menor de puertas y ventanas, persianas, molduras, marcos",
              "href": "https://api.euskadi.eus/procurements/companies/economic-activities/1.653.5"
            }
          }
        }
      ],
      "certificateStartDate": "2011-02-11",
      "certificateEndDate": "2011-06-16",
      "object": "Carpintería metálica, madera, aluminio, albañilería, fontanería, construcción en general, almacén de los mismos, cerrajería, cristalería, tortillería. Y la adquisición, explotación y enajenación de bienes inmuebles",
      "mainEntityOfPage": "https://www.contratacion.euskadi.eus/webkpe00-kperoc/es/ac71aBusquedaRegistrosWar/empresa/04569",
      "_links": {
        "self": {
          "name": "METALISTERÍA ZUBI-MET, S.L.",
          "href": "https://api.euskadi.eus/procurements/companies/04569"
        }
      }
    },
    {
      "name": "FLASH COMPOSITION, S.L.",
      "registrationNumber": "00304",
      "identificationNumber": "B48149645",
      "address": "DOCTOR ENTRECANALES, 8",
      "location": {
        "postalCode": "48012",
        "municipality": "Bilbao",
        "county": "Bizkaia",
        "municipalityId": "020",
        "countyId": "48"
      },
      "economicActivities": [
        {
          "id": "1.475",
          "name": "Actividades anexas a las artes gráficas",
          "_links": {
            "self": {
              "name": "Actividades anexas a las artes gráficas",
              "href": "https://api.euskadi.eus/procurements/companies/economic-activities/1.475"
            }
          }
        },
        {
          "id": "1.476.1",
          "name": "Edición de libros",
          "_links": {
            "self": {
              "name": "Edición de libros",
              "href": "https://api.euskadi.eus/procurements/companies/economic-activities/1.476.1"
            }
          }
        }
      ],
      "certificateStartDate": "2011-02-09",
      "certificateEndDate": "2011-06-24",
      "object": "LA COMPRA, VENTA, ALMACENAMIENTO, DEPÓSITO Y DISTRIBUCIÓN, AL POR MAYOR Y MENOR, DE PRODUCTOS, ARTÍCULOS Y MATERIAS DE TODA CLASE. LA ADQUISICIÓN Y ENAJENACIÓN, POR CUALQUIER TÍTULO, DE FINCAS RÚSTICAS Y URBANAS, YA SEAN TIERRAS, SOLARES, EDIFICIOS, LA CONSTRUCCIÓN DE ESTOS Y LA ADMINISTRACIÓN, TENENCIA, EXPLOTACIÓN Y ARRENDAMIENTO, YA SEA ACTIVO O PASIVO, DE TALES BIENES Y SU COMPRAVENTA TOTAL O PARCIAL, SEGÚN CONVENGA PARA SU APROVECHAMIENTO AGRÍCOLA, FORESTAL, URBANO, INDUSTRIAL O CUALQUIER OTRO. LA PROMOCIÓN, EJECUCIÓN Y EXPLOTACIÓN DE TODA CLASE DE PRODUCTOS Y ELABORADOS NATURALES, DE MATERIAS PRIMAS Y DE SUS TRANSFORMADOS O PRODUCTOS MANUFACTURADOS, SEMIELABORADOS Y/O ELABORADOS, RELACIONADOS CON LA AGRICULTURA, GANADERÍA, PESCA, MINERÍA, TRANSPORTE DE CUALQUIER CLASE Y NATURALEZA, TELECOMUNICACIÓN, INDUSTRIA FORESTAL, SIDEROMETALÚRGICA, ALIMENTACIÓN, TEXTIL, BIOQUÍMICA Y LA DE SUS DERIVADOS. EL ESTUDIO, INVESTIGACIÓN, PROMOCIÓN Y ASESORAMIENTO DE TODA CLASE DE SERVICIOS DE ASISTENCIA Y GESTIÓN TÉCNICA, ADMINISTRATIVA, COMERCIAL, CONTABLE Y FISCAL, ASÍ COMO LA EXPLOTACIÓN Y PARTICIPACIÓN EN NEGOCIOS, INCLUSO LA MECÁNICA CONTABLE. LOS SERVICIOS DE MEDIACIÓN CON BIENES PROPIOS O AJENOS, ASÍ COMO LOS DE CONSIGNACIÓN, REPRESENTACIÓN Y GESTIÓN, INCLUSO DE TODA CLASE DE SUMINISTROS Y DE PRODUCTOS EN GENERAL Y PLANTAS INDUSTRIALES, NACIONALES Y EXTRANJERAS Y LAS ACTIVIDADES DE IMPORTACIÓN Y EXPORTACIÓN. LA PROMOCIÓN, EJECUCIÓN Y EXPLOTACIÓN DE LOS NEGOCIOS DE PRESTACIÓN DE SERVICIOS Y SUMINISTROS PÚBLICOS Y PRIVADOS, INCLUÍDA LA PROPIA EXPLOTACIÓN DE LOS SERVICIOS DE AQUELLAS, COMO ESPECTÁCULOS, TRANSPORTES, HOTELES Y ALOJAMIENTOS Y SUS DERIVADOS, AFINES Y COMPLEMENTARIOS. EL ARRENDAMIENTO Y CUALQUIER OTRA FÓRMULA DE CESIÓN, USO O DISFRUTE QUE ABARQUE TODO O PARTE DE LOS EPÍGRAFES ANTERIORES, ADOPTANDO LA POSICIÓN DE CUALQUIERA DE LAS PARTES INTERESADAS O VINCULADAS EN ESTA RELACIÓN JURÍDICA. LA CONSTITUCIÓN CON LA CONCURRENCIA DE OTRAS PERSONAS, DE TODA CLASE DE SOCIEDADES MERCANTILES, LA PARTICIPACIÓN EN OTRAS YA CONSTITUIDAS, OSTENTANDO EN TODAS ELLAS CARGOS DE ADMINISTRACIÓN, DIRECCIÓN O CONTROL, MEDIANTE LA OPORTUNA DELEGACIÓN EN PERSONA FÍSICA",
      "mainEntityOfPage": "https://www.contratacion.euskadi.eus/webkpe00-kperoc/es/ac71aBusquedaRegistrosWar/empresa/00304",
      "_links": {
        "self": {
          "name": "FLASH COMPOSITION, S.L.",
          "href": "https://api.euskadi.eus/procurements/companies/00304"
        }
      }
    },
    {
      "name": "INLAND GEO, S.L.",
      "registrationNumber": "03260",
      "identificationNumber": "B83078212",
      "address": "AVDA DE LA INDUSTRIA, 35",
      "location": {
        "postalCode": "28760",
        "municipality": "Madrid",
        "county": "Madrid",
        "municipalityId": "079",
        "countyId": "28"
      },
      "economicActivities": [
        {
          "id": "1.619.7",
          "name": "Venta al por mayor de instrumentos de precisión, medida y similares",
          "_links": {
            "self": {
              "name": "Venta al por mayor de instrumentos de precisión, medida y similares",
              "href": "https://api.euskadi.eus/procurements/companies/economic-activities/1.619.7"
            }
          }
        },
        {
          "id": "1.852",
          "name": "Alquiler de maquinaria y equipo para la construcción",
          "_links": {
            "self": {
              "name": "Alquiler de maquinaria y equipo para la construcción",
              "href": "https://api.euskadi.eus/procurements/companies/economic-activities/1.852"
            }
          }
        }
      ],
      "certificateStartDate": "2011-02-07",
      "certificateEndDate": "2011-07-07",
      "object": "1- PRESTACIÓN, REALIZACIÓN, EJECUCIÓN DE SERVICIOS Y ASESORAMIENTO A EMPRESAS Y PARTICULARES EN MATERIA DE ADMINISTRACIÓN, GESTIÓN EMPRESARIAL, CONTABILIDAD FINANCIERO FISCAL Y JURÍDICO.\r\n2- LA COMPRA, VENTA, ALQUILER, MANTENIMIENTO, REPARACIÓN, IMPORTACIÓN Y EXPORTACIÓN DE EQUIPOS Y MAQUINARIA CON TECNOLOGÍA LÁSER ASÍ COMO DE SUS ACCESORIOS Y REPUESTOS.\r\n3- LA COMPRA, VENTA, ALQUILER, MANTENIMIENTO, REPARACIÓN, IMPORTACIÓN Y EXPORTACIÓN DE EQUIPOS Y MAQUINARIA DE TOPOGRAFÍA ASÍ COMO DE SUS ACCESORIOS Y REPUESTOS.\r\n4- LA COMPRA, VENTA, ALQUILER, MANTENIMIENTO, REPARACIÓN, IMPORTACIÓN Y EXPORTACIÓN DE MAQUINARIA Y HERRAMIENTAS DE CONSTRUCCIÓN ASÍ COMO DE SUS ACCESORIOS Y REPUESTOS.\r\nLAS ACTIVIDADES ENUMERADAS PODRÁN TAMBIÉN SER DESARROLLADAS POR LA SOCIEDAD TOTAL O PARCIALMENTE, MEDIANTE LA PARTICIPACIÓN EN OTRAS SOCIEDADES CON OBJETO ANÁLOGO.\r\nSI LA LEY EXIGIERE PARA EL EJERCICIO DE LAS ACTIVIDADES COMPRENDIDAS EN EL OBJETO SOCIAL ALGÚN TÍTULO PROFESIONAL, TALES ACTIVIDADES DEBERÁN REALIZARSE POR MEDIO DE PERSONA QUE OSTENTE LA TITULACIÓN REQUERIDA.",
      "mainEntityOfPage": "https://www.contratacion.euskadi.eus/webkpe00-kperoc/es/ac71aBusquedaRegistrosWar/empresa/03260",
      "_links": {
        "self": {
          "name": "INLAND GEO, S.L.",
          "href": "https://api.euskadi.eus/procurements/companies/03260"
        }
      }
    },
    {
      "name": "ETXEGINTZA LUPATEGI, S.L.",
      "registrationNumber": "03655",
      "identificationNumber": "B95316592",
      "address": "POL. LAMIARANPE, PAB. B 21",
      "location": {
        "postalCode": "48360",
        "municipality": "Mundaka",
        "county": "Bizkaia",
        "municipalityId": "068",
        "countyId": "48"
      },
      "economicActivities": [
        {
          "id": "1.501.3",
          "name": "Albañilería y pequeños trabajos de construcción en general",
          "_links": {
            "self": {
              "name": "Albañilería y pequeños trabajos de construcción en general",
              "href": "https://api.euskadi.eus/procurements/companies/economic-activities/1.501.3"
            }
          }
        },
        {
          "id": "1.504.2",
          "name": "Instalaciones de fontanería",
          "_links": {
            "self": {
              "name": "Instalaciones de fontanería",
              "href": "https://api.euskadi.eus/procurements/companies/economic-activities/1.504.2"
            }
          }
        },
        {
          "id": "1.507",
          "name": "Construcción, reparación y conservación de toda clase obras",
          "_links": {
            "self": {
              "name": "Construcción, reparación y conservación de toda clase obras",
              "href": "https://api.euskadi.eus/procurements/companies/economic-activities/1.507"
            }
          }
        }
      ],
      "certificateStartDate": "2011-02-07",
      "certificateEndDate": "2011-06-23",
      "object": "A) LA REALIZACIÓN DE OBRAS DE ALBAÑILERÍA, ACTUACIÓN SOBRE ESTRUCTURAS Y TRABAJOS DE CONSTRUCCIÓN EN GENERAL, POR CUENTA PROPIA O AJENA, LA CONSTRUCCIÓN, REPARACIÓN, CONSERVACIÓN, REHABILITACIÓN, REFORMAS Y EJECUCIÓN DE OBRAS DE FONTANERÍA Y CALEFACCIÓN, ASÍ COMO LA COORDINACIÓN DE GREMIOS QUE SE DEDIQUEN A TALES ACTIVIDADES U OTRAS DE CARÁCTER ANÁLOGO.\r\nB) ADQUISICIÓN, TENENCIA Y DISFRUTE, EXPLOTACIÓN, ENAJENACIÓN, DE TODA CLASE DE FINCAS RÚSTICAS O URBANAS CUALQUIERA QUE FUERA SU NATURALEZA, Y DE MAQUINARIA.\r\nC) ADMINISTRACIÓN, ASESORAMIENTO, GESTIÓN DE ACTUACIONES URBANÍSTICAS, Y PRESTACIÓN DE SERVICIOS DE TODO TIPO CON RELACIÓN A BIENES INMUEBLES, SEGÚN CONVENGAN A SU APROVECHAMIENTO AGRÍCOLA, FORESTAL, URBANO, INDUSTRIAL O DE CUALQUIER NATURALEZA",
      "mainEntityOfPage": "https://www.contratacion.euskadi.eus/webkpe00-kperoc/es/ac71aBusquedaRegistrosWar/empresa/03655",
      "_links": {
        "self": {
          "name": "ETXEGINTZA LUPATEGI, S.L.",
          "href": "https://api.euskadi.eus/procurements/companies/03655"
        }
      }
    },
    {
      "name": "KONE ELEVADORES, S.A.",
      "registrationNumber": "03753",
      "identificationNumber": "A28791069",
      "address": "C/ ALBASANZ, 15 - EDIF. B - 1 PLANTA",
      "location": {
        "postalCode": "28037",
        "municipality": "Madrid",
        "county": "Madrid",
        "municipalityId": "079",
        "countyId": "28"
      },
      "economicActivities": [
        {
          "id": "1.504.6",
          "name": "Montaje e instalación de aparatos elevadores de cualquier clase",
          "_links": {
            "self": {
              "name": "Montaje e instalación de aparatos elevadores de cualquier clase",
              "href": "https://api.euskadi.eus/procurements/companies/economic-activities/1.504.6"
            }
          }
        },
        {
          "id": "1.692",
          "name": "Reparación de maquinaria industrial",
          "_links": {
            "self": {
              "name": "Reparación de maquinaria industrial",
              "href": "https://api.euskadi.eus/procurements/companies/economic-activities/1.692"
            }
          }
        },
        {
          "id": "1.699",
          "name": "Otras reparaciones n.c.o.p",
          "_links": {
            "self": {
              "name": "Otras reparaciones n.c.o.p",
              "href": "https://api.euskadi.eus/procurements/companies/economic-activities/1.699"
            }
          }
        }
      ],
      "certificateStartDate": "2011-02-07",
      "certificateEndDate": "2011-06-01",
      "object": "FABRICACIÓN, IMPORTACIÓN, EXPORTACIÓN, DISTRIBUCIÓN Y COMPRA VENTA DE TODA CLASE DE APARATOS DE NATURALEZA MECÁNICA Y, EN PARTICULAR, AQUELLOS CUYO DESTINO SEA EL DESPLAZAMIENTO DE CARGAS, TALES COMO ESCALERAS MECÁNICAS VOLQUETES, ELEVADORES AUTOMÁTICOS, ASCENSORES, ASÍ COMO SUS PIEZAS DE RECAMBIO Y ACCESORIOS",
      "mainEntityOfPage": "https://www.contratacion.euskadi.eus/webkpe00-kperoc/es/ac71aBusquedaRegistrosWar/empresa/03753",
      "_links": {
        "self": {
          "name": "KONE ELEVADORES, S.A.",
          "href": "https://api.euskadi.eus/procurements/companies/03753"
        }
      }
    },
    {
      "name": "ERAGINKOR, S. COOP.",
      "registrationNumber": "00297",
      "identificationNumber": "F48178883",
      "address": "C/ Ibarrekolanda, 13-15, bajo",
      "location": {
        "postalCode": "48015",
        "municipality": "Bilbao",
        "county": "Bizkaia",
        "municipalityId": "020",
        "countyId": "48"
      },
      "economicActivities": [
        {
          "id": "1.841",
          "name": "Servicios jurídicos",
          "_links": {
            "self": {
              "name": "Servicios jurídicos",
              "href": "https://api.euskadi.eus/procurements/companies/economic-activities/1.841"
            }
          }
        },
        {
          "id": "1.847",
          "name": "Servicios de consultoría",
          "_links": {
            "self": {
              "name": "Servicios de consultoría",
              "href": "https://api.euskadi.eus/procurements/companies/economic-activities/1.847"
            }
          }
        },
        {
          "id": "1.934",
          "name": "Enseñanza fuera de establecimiento permanente",
          "_links": {
            "self": {
              "name": "Enseñanza fuera de establecimiento permanente",
              "href": "https://api.euskadi.eus/procurements/companies/economic-activities/1.934"
            }
          }
        }
      ],
      "certificateStartDate": "2011-02-04",
      "certificateEndDate": "2011-07-13",
      "object": "LA REALIZACIÓN DE ACTIVIDADES DE CONSULTORÍA, PROMOCIÓN, DESARROLLO, ESTUDIOS Y ASESORAMIENTO DE TODO TIPO, RELACIONADOS CON LA ESTRATEGIA, GESTIÓN, LEGISLACIÓN, ORGANIZACIÓN, PRODUCCIÓN, CALIDAD Y RECURSOS HUMANOS, TANTO DE PERSONAS FÍSICAS O JURÍDICAS, PÚBLICAS O PRIVADAS, ASÍ COMO EN LA REALIZACIÓN DE ACTIVIDADES EDUCATIVAS MEDIANTE LA ORGANIZACIÓN E IMPARTICIÓN DE PLANES DE FORMACIÓN, CURSOS, SEMINARIOS, CONGRESOS Y PUBLICACIONES, EN RELACIÓN CON LOS ÁMBITOS REFERIDOS PRECEDENTEMENTE. SIN PERJUICIO DE LO DISPUESTO EN EL PÁRRAFO PRECEDENTE ERAGINKOR, S. COOP. DEDICARÁ UNA ESPECIAL ATENCIÓN A ENTIDADES E INSTITUCIONES ENCUADRADAS EN LA DENOMINADA ECONOMÍA SOCIAL",
      "mainEntityOfPage": "https://www.contratacion.euskadi.eus/webkpe00-kperoc/es/ac71aBusquedaRegistrosWar/empresa/00297",
      "_links": {
        "self": {
          "name": "ERAGINKOR, S. COOP.",
          "href": "https://api.euskadi.eus/procurements/companies/00297"
        }
      }
    },
    {
      "name": "CADAGUA, S.A.",
      "registrationNumber": "00015",
      "identificationNumber": "A48062277",
      "address": "C/ MAYOR, Nº 23 - 1º",
      "location": {
        "postalCode": "48990",
        "municipality": "Getxo",
        "county": "Bizkaia",
        "municipalityId": "044",
        "countyId": "48"
      },
      "economicActivities": [
        {
          "id": "1.501.2",
          "name": "Construcción completa, reparación y conservación obras civiles",
          "_links": {
            "self": {
              "name": "Construcción completa, reparación y conservación obras civiles",
              "href": "https://api.euskadi.eus/procurements/companies/economic-activities/1.501.2"
            }
          }
        }
      ],
      "certificateStartDate": "2011-02-03",
      "certificateEndDate": "2011-05-25",
      "object": "EL DISEÑO, CONSTRUCCIÓN Y VENTA DE PRODUCTOS, EQUIPOS E INSTALACIONES DE DEPURACIÓN DE AGUAS, HUMOS Y TODA CLASE DE LÍQUIDOS, ASÍ COMO CUALQUIER OTRA ACTIVIDAD INDUSTRIAL O COMERCIAL RELACIONADA DIRECTA O INDIRECTAMENTE CON LAS ANTERIORES",
      "mainEntityOfPage": "https://www.contratacion.euskadi.eus/webkpe00-kperoc/es/ac71aBusquedaRegistrosWar/empresa/00015",
      "_links": {
        "self": {
          "name": "CADAGUA, S.A.",
          "href": "https://api.euskadi.eus/procurements/companies/00015"
        }
      }
    },
    {
      "name": "ANT & GUST, S.L.",
      "registrationNumber": "02701",
      "identificationNumber": "B20716148",
      "address": "CAMINO PORTUETXE, 53 A-2ªPLANTA- OFICINA 206",
      "location": {
        "postalCode": "20018",
        "municipality": "Donostia / San Sebastián",
        "county": "Gipuzkoa",
        "municipalityId": "069",
        "countyId": "20"
      },
      "economicActivities": [
        {
          "id": "1.844",
          "name": "Servicios de publicidad, relaciones públicas y similares",
          "_links": {
            "self": {
              "name": "Servicios de publicidad, relaciones públicas y similares",
              "href": "https://api.euskadi.eus/procurements/companies/economic-activities/1.844"
            }
          }
        }
      ],
      "certificateStartDate": "2011-01-31",
      "certificateEndDate": "2011-07-05",
      "object": " EL  DISEÑO Y DECORACIÓN Y LA COMERCIALIZACIÓN DE MOBILIARIO EN GENERAL. SERVICIOS DE PUBLICIDAD Y MARKETING",
      "mainEntityOfPage": "https://www.contratacion.euskadi.eus/webkpe00-kperoc/es/ac71aBusquedaRegistrosWar/empresa/02701",
      "_links": {
        "self": {
          "name": "ANT & GUST, S.L.",
          "href": "https://api.euskadi.eus/procurements/companies/02701"
        }
      }
    }
  ]
}