{
  "totalItems": 9042,
  "totalPages": 905,
  "currentPage": 850,
  "itemsOfPage": 10,
  "items": [
    {
      "name": "SERVICIOS INFORMÁTICOS KIFER, S.L.",
      "registrationNumber": "03140",
      "identificationNumber": "B20567442",
      "address": "ANTXOTA KALEA, 1 OFICINA 2",
      "location": {
        "postalCode": "20160",
        "municipality": "Lasarte-Oria",
        "county": "Gipuzkoa",
        "municipalityId": "902",
        "countyId": "20"
      },
      "object": "pte",
      "mainEntityOfPage": "https://www.contratacion.euskadi.eus/webkpe00-kperoc/es/ac71aBusquedaRegistrosWar/empresa/03140",
      "_links": {
        "self": {
          "name": "SERVICIOS INFORMÁTICOS KIFER, S.L.",
          "href": "https://api.euskadi.eus/procurements/companies/03140"
        }
      }
    },
    {
      "name": "SORTU CONSTRUCCIÓN Y SISTEMAS MODULARES, S.L.",
      "registrationNumber": "03146",
      "identificationNumber": "B95042701",
      "address": "C/LEDESMA, Nº 4-4º",
      "location": {
        "postalCode": "48001",
        "municipality": "Bilbao",
        "county": "Bizkaia",
        "municipalityId": "020",
        "countyId": "48"
      },
      "object": "Construcción, reparación y conservación de obra civil y edificación, y albañilería",
      "mainEntityOfPage": "https://www.contratacion.euskadi.eus/webkpe00-kperoc/es/ac71aBusquedaRegistrosWar/empresa/03146",
      "_links": {
        "self": {
          "name": "SORTU CONSTRUCCIÓN Y SISTEMAS MODULARES, S.L.",
          "href": "https://api.euskadi.eus/procurements/companies/03146"
        }
      }
    },
    {
      "name": "MONTAJES INFRACOMAN, S.A.",
      "registrationNumber": "03156",
      "identificationNumber": "A48460539",
      "address": "POL. INDUSTRIAL KAREAGA 52  - RETUERTO",
      "location": {
        "postalCode": "48903",
        "municipality": "Barakaldo",
        "county": "Bizkaia",
        "municipalityId": "013",
        "countyId": "48"
      },
      "object": "Artículo nº 2 de los estatutos sociales. Escritura de fecha 12/06/96\r\n\r\nInscrita en el Registro Mercantil de Bilbao.\r\n\r\nArtículo 2º de los estatutos sociales:  \r\n\r\n   La sociedad tendrá por objeto la construcción de edificios públicos y privados, así como la remodelación de los mismos y cualquier obra albañilería en general, montajes de estructura en hormigón y metálicas, construcción y promoción de inmuebles, así como la adquisición, explotación y enajenación de bienes inmuebles; la construcción, concurso, ejecución e infraestructuras de toda clase de obras públicas, carreteras, pantanos, ríos, aeropuertos, movimientos de tierras y su  urbanización, para sí o para terceros, sean organismos públicos del Estado, Provincia, Municipio, Entes Autonómicos o personas físicas, por cuenta propia o ajena.\r\n\r\n\r\n     Las actividades que integran el objeto social podrán desarrollarse, total o parcialmente de modo indirecto, mediante la titularidad de acciones o participaciones en sociedades con objeto idéntico o análogo.\r\n\r\n\r\n     Aquellas operaciones del objeto social que lo precisen serán realizadas por profesionales titulados.\r\n",
      "mainEntityOfPage": "https://www.contratacion.euskadi.eus/webkpe00-kperoc/es/ac71aBusquedaRegistrosWar/empresa/03156",
      "_links": {
        "self": {
          "name": "MONTAJES INFRACOMAN, S.A.",
          "href": "https://api.euskadi.eus/procurements/companies/03156"
        }
      }
    },
    {
      "name": "JUAN LUCAS AGOUES MENDIZABAL",
      "registrationNumber": "03160",
      "identificationNumber": "72428361G",
      "address": "URDANETA KALEA, 15 BAJO",
      "location": {
        "postalCode": "20800",
        "municipality": "Zarautz",
        "county": "Gipuzkoa",
        "municipalityId": "079",
        "countyId": "20"
      },
      "object": "reparacion vehiculos",
      "mainEntityOfPage": "https://www.contratacion.euskadi.eus/webkpe00-kperoc/es/ac71aBusquedaRegistrosWar/empresa/03160",
      "_links": {
        "self": {
          "name": "JUAN LUCAS AGOUES MENDIZABAL",
          "href": "https://api.euskadi.eus/procurements/companies/03160"
        }
      }
    },
    {
      "name": "TAUXME, S.A.",
      "registrationNumber": "03168",
      "identificationNumber": "A01013077",
      "address": "POL. IND. LOS LLANOS, S/N. NACLARES DE LA OCA",
      "location": {
        "postalCode": "01230",
        "municipality": "Vitoria-Gasteiz",
        "county": "Araba/Álava",
        "municipalityId": "059",
        "countyId": "01"
      },
      "object": "pte",
      "mainEntityOfPage": "https://www.contratacion.euskadi.eus/webkpe00-kperoc/es/ac71aBusquedaRegistrosWar/empresa/03168",
      "_links": {
        "self": {
          "name": "TAUXME, S.A.",
          "href": "https://api.euskadi.eus/procurements/companies/03168"
        }
      }
    },
    {
      "name": "GUIHOR ESTRUCTURAS DE HORMIGÓN, S.L.",
      "registrationNumber": "03180",
      "identificationNumber": "B20517470",
      "address": "CAMINO PILOTEGUI, Nº 2, 3ª PL OFICINA 302",
      "location": {
        "postalCode": "20018",
        "municipality": "Donostia / San Sebastián",
        "county": "Gipuzkoa",
        "municipalityId": "069",
        "countyId": "20"
      },
      "object": "pte",
      "mainEntityOfPage": "https://www.contratacion.euskadi.eus/webkpe00-kperoc/es/ac71aBusquedaRegistrosWar/empresa/03180",
      "_links": {
        "self": {
          "name": "GUIHOR ESTRUCTURAS DE HORMIGÓN, S.L.",
          "href": "https://api.euskadi.eus/procurements/companies/03180"
        }
      }
    },
    {
      "name": "IN SITU ESTRUCTURAS DE HORMIGÓN, S.L.",
      "registrationNumber": "03181",
      "identificationNumber": "B48703748",
      "address": "BARRIO BAÑALES, 12",
      "location": {
        "postalCode": "48530",
        "municipality": "Ortuella",
        "county": "Bizkaia",
        "municipalityId": "083",
        "countyId": "48"
      },
      "object": ".",
      "mainEntityOfPage": "https://www.contratacion.euskadi.eus/webkpe00-kperoc/es/ac71aBusquedaRegistrosWar/empresa/03181",
      "_links": {
        "self": {
          "name": "IN SITU ESTRUCTURAS DE HORMIGÓN, S.L.",
          "href": "https://api.euskadi.eus/procurements/companies/03181"
        }
      }
    },
    {
      "name": "ISKON CONSTRUCCIONES, S.L.",
      "registrationNumber": "03197",
      "identificationNumber": "B95370169",
      "address": "CTRA. BILBAO PLENCIA, 55",
      "location": {
        "postalCode": "48950",
        "municipality": "Erandio",
        "county": "Bizkaia",
        "municipalityId": "902",
        "countyId": "48"
      },
      "object": "pte",
      "mainEntityOfPage": "https://www.contratacion.euskadi.eus/webkpe00-kperoc/es/ac71aBusquedaRegistrosWar/empresa/03197",
      "_links": {
        "self": {
          "name": "ISKON CONSTRUCCIONES, S.L.",
          "href": "https://api.euskadi.eus/procurements/companies/03197"
        }
      }
    },
    {
      "name": "REFORMAS UNAI, S.L.",
      "registrationNumber": "03198",
      "identificationNumber": "B95080909",
      "address": "PLAZA ZUMARRAGA, 3",
      "location": {
        "postalCode": "48006",
        "municipality": "Bilbao",
        "county": "Bizkaia",
        "municipalityId": "020",
        "countyId": "48"
      },
      "object": ".",
      "mainEntityOfPage": "https://www.contratacion.euskadi.eus/webkpe00-kperoc/es/ac71aBusquedaRegistrosWar/empresa/03198",
      "_links": {
        "self": {
          "name": "REFORMAS UNAI, S.L.",
          "href": "https://api.euskadi.eus/procurements/companies/03198"
        }
      }
    },
    {
      "name": "CONSTRUCCIONES METÁLICAS VICENTE GOIKOETXEA, S.L.",
      "registrationNumber": "03205",
      "identificationNumber": "B20169082",
      "address": "Bº ANCIOLA, 39",
      "location": {
        "postalCode": "20120",
        "municipality": "Hernani",
        "county": "Gipuzkoa",
        "municipalityId": "040",
        "countyId": "20"
      },
      "object": "construcciones metalicas",
      "mainEntityOfPage": "https://www.contratacion.euskadi.eus/webkpe00-kperoc/es/ac71aBusquedaRegistrosWar/empresa/03205",
      "_links": {
        "self": {
          "name": "CONSTRUCCIONES METÁLICAS VICENTE GOIKOETXEA, S.L.",
          "href": "https://api.euskadi.eus/procurements/companies/03205"
        }
      }
    }
  ]
}