{
  "totalItems": 9042,
  "totalPages": 905,
  "currentPage": 447,
  "itemsOfPage": 10,
  "items": [
    {
      "name": "LUIS MANUEL QUERO MILLAN",
      "registrationNumber": "08640",
      "identificationNumber": "51661112F",
      "address": "Plaza España 13, 2º Estudio Central",
      "location": {
        "postalCode": "01001",
        "municipality": "Vitoria-Gasteiz",
        "county": "Araba/Álava",
        "municipalityId": "059",
        "countyId": "01"
      },
      "economicActivities": [
        {
          "id": "2.412",
          "name": "Ingenieros de caminos, canales y puertos",
          "_links": {
            "self": {
              "name": "Ingenieros de caminos, canales y puertos",
              "href": "https://api.euskadi.eus/procurements/companies/economic-activities/2.412"
            }
          }
        }
      ],
      "certificateStartDate": "2023-09-15",
      "certificateEndDate": "2024-03-13",
      "object": "INGENIEROS DE CAMINOS, CANALES Y PUERTOS.",
      "mainEntityOfPage": "https://www.contratacion.euskadi.eus/webkpe00-kperoc/es/ac71aBusquedaRegistrosWar/empresa/08640",
      "_links": {
        "self": {
          "name": "LUIS MANUEL QUERO MILLAN",
          "href": "https://api.euskadi.eus/procurements/companies/08640"
        }
      }
    },
    {
      "name": "JAINXARA, S.L.",
      "registrationNumber": "08276",
      "identificationNumber": "B95763892",
      "address": "c/Telletxe, 5 -3º Ext. -Izq",
      "location": {
        "postalCode": "48991",
        "municipality": "Getxo",
        "county": "Bizkaia",
        "municipalityId": "044",
        "countyId": "48"
      },
      "economicActivities": [
        {
          "id": "1.841",
          "name": "Servicios jurídicos",
          "_links": {
            "self": {
              "name": "Servicios jurídicos",
              "href": "https://api.euskadi.eus/procurements/companies/economic-activities/1.841"
            }
          }
        }
      ],
      "certificateStartDate": "2023-09-15",
      "certificateEndDate": "2024-03-14",
      "object": "A) LA ASESORÍA EN TODA SU AMPLITUD; LA ASESORÍA Y AUDITORÍAS CONTABLES; LA ASESORÍA ECONÓMICA-FINANCIERA; LA ASESORÍA JURÍDICA; LA ASESORÍA LABORAL; LA ORGANIZACIÓN Y MECANIZACIÓN DE EMPRESAS; LA REGULARIZACIÓN DE BALANCES Y PLANIFICACIÓN FINANCIERA; LA EMISIÓN DE DICTÁMENES, CONSULTAS B) LAS ACTIVIDADES DE CORRETAJE DE SEGUROS, Y COMO TAL, ACTUAR COMO INTERMEDIARIA ENTRE ASEGURADOS Y ASEGURADORAS, PARA EFECTOS DE OFRECER SEGUROS, PROMOVER LA CELEBRACIÓN DE CONTRATOS DE SEGUROS Y OBTENER SU RENOVACIÓN C) LA COMPRA, VENTA, ARRENDAMIENTO, MANTENIMIENTO, REMODELACIÓN, AVALÚO, ADMINISTRACIÓN DE BIENES INMUEBLES PROPIOS O POR CUENTA DE OTROS, REPARACIÓN, CORRETAJE, COMPRA E INTERMEDIACIÓN DE PROPIEDAD RAÍZ, DESARROLLO DE OBRAS CIVILES AL IGUAL QUE LA ASESORÍA JURÍDICA DE TODO LO ATINENTE A CADA UNA DE LAS ANTEDICHAS FACETAS 6910. - ACTIVIDADES JURÍDICAS. 6622. - ACTIVIDADES DE AGENTES Y CORREDORES DE SEGUROS. 6810. - COMPRAVENTA DE BIENES INMOBILIARIOS POR CUENTA PROPIA. 6820. - ALQUILER DE BIENES INMOBILIARIOS POR CUENTA PROPIA. 6831. -AGENTES DE PROPIEDAD INMOBILIARIA. 6832 GESTIÓN Y ADMINISTRACIÓN DE LA PROPIEDAD INMOBILIARIA.",
      "mainEntityOfPage": "https://www.contratacion.euskadi.eus/webkpe00-kperoc/es/ac71aBusquedaRegistrosWar/empresa/08276",
      "_links": {
        "self": {
          "name": "JAINXARA, S.L.",
          "href": "https://api.euskadi.eus/procurements/companies/08276"
        }
      }
    },
    {
      "name": "ASCENSORES LEZAMA SL",
      "registrationNumber": "08361",
      "identificationNumber": "B95486353",
      "address": "Paseo Dolores Ibarruri, nº 82, Pabellón 45",
      "location": {
        "postalCode": "48901",
        "municipality": "Barakaldo",
        "county": "Bizkaia",
        "municipalityId": "013",
        "countyId": "48"
      },
      "economicActivities": [
        {
          "id": "1.504.6",
          "name": "Montaje e instalación de aparatos elevadores de cualquier clase",
          "_links": {
            "self": {
              "name": "Montaje e instalación de aparatos elevadores de cualquier clase",
              "href": "https://api.euskadi.eus/procurements/companies/economic-activities/1.504.6"
            }
          }
        }
      ],
      "certificateStartDate": "2023-09-15",
      "certificateEndDate": "2024-03-14",
      "object": "EL MONTAJE, REPARACIÓN Y MANTENIMIENTO DE ASCENSORES, MONTACARGAS, PLATAFORMAS, ESCALERAS MECÁNICAS, ETC",
      "mainEntityOfPage": "https://www.contratacion.euskadi.eus/webkpe00-kperoc/es/ac71aBusquedaRegistrosWar/empresa/08361",
      "_links": {
        "self": {
          "name": "ASCENSORES LEZAMA SL",
          "href": "https://api.euskadi.eus/procurements/companies/08361"
        }
      }
    },
    {
      "name": "MACROSAD, S COOP ANDALUZA",
      "registrationNumber": "09210",
      "identificationNumber": "F23322472",
      "address": "Parque Cientifico Tecnologico Geolit, Avd. de la Innovación, 3",
      "location": {
        "postalCode": "23620",
        "municipality": "Mengíbar",
        "county": "Jaén",
        "municipalityId": "061",
        "countyId": "23"
      },
      "economicActivities": [
        {
          "id": "1.849.9",
          "name": "Otros servicios independientes n.c.o.p",
          "_links": {
            "self": {
              "name": "Otros servicios independientes n.c.o.p",
              "href": "https://api.euskadi.eus/procurements/companies/economic-activities/1.849.9"
            }
          }
        },
        {
          "id": "1.932.1",
          "name": "Enseñanza de formación y perfeccionamiento profesional no superior",
          "_links": {
            "self": {
              "name": "Enseñanza de formación y perfeccionamiento profesional no superior",
              "href": "https://api.euskadi.eus/procurements/companies/economic-activities/1.932.1"
            }
          }
        }
      ],
      "certificateStartDate": "2023-09-14",
      "certificateEndDate": "2024-01-17",
      "object": "EL OBJETO SOCIAL DE ESTA SOCIEDAD COOPERATIVA ES LA PRESTACIÓN DE SERVICIOS RELACIONADOS CON LA PROTECCIÓN DE LA INFANCIA Y LA JUVENTUD; ASISTENCIA A PERSONAS CON DISCAPACIDAD O DIVERSIDAD FUNCIONAL, PERSONAS MAYORES, PERSONAS CON CARGAS FAMILIARES NO COMPARTIDAS, PERSONAS MALTRATADAS, MINORÍAS ÉTNICAS, PERSONAS REFUGIADAS, PERSONAS ASILADAS, EX RECLUSOS/AS, PERSONAS ALCOHÓLICAS, PERSONAS TOXICÓMANAS, PERSONAS LUDÓPATAS; PREVENCIÓN DE LA DELINCUENCIA; CUALESQUIERA OTROS SERVICIOS DIRIGIDOS A COLECTIVOS QUE SUFRAN CUALQUIER CLASE DE DESARRAIGO, MARGINACIÓN O RIESGO DE EXCLUSIÓN SOCIAL, EN ORDEN A SU ERRADICACIÓN. PARA EL CUMPLIMIENTO DE SU OBJETO, LA COOPERATIVA PODRÁ DESARROLLAR LAS SIGUIENTES ACTIVIDADES: A) ACTIVIDADES MÉDICAS Y SANITARIAS. B) ACTIVIDADES DE SERVICIOS SOCIALES. C) ACTIVIDADES DIVERSAS DE SERVICIOS PERSONALES. D) PROYECTOS O INICIATIVAS INTERGENERACIONALES. E) ACTIVIDADES DE ORIENTACIÓN, INSERCIÓN, INTEGRACIÓN Y PROMOCIÓN SOCIO-LABORAL. F) ACTIVIDADES DE EDUCACIÓN Y FORMACIÓN. G) ACTIVIDADES DE ANIMACIÓN, OCIO Y TIEMPO LIBRE. H) ACTIVIDADES DE FISIOTERAPIA, REHABILITACIÓN, MANTENIMIENTO FÍSICO Y PSICOMOTRICIDAD. I) ACTIVIDADES DE PSICOLOGÍA, PEDAGOGÍA, PSICOPEDAGOGÍA, GERONTOLÓGICAS, PSICOGERIÁTRICAS, TERAPÉUTICA, MEDIACIÓN FAMILIAR Y DE LOGOPEDIA. J) ACTIVIDADES RECREATIVAS, CULTURALES Y DEPORTIVAS. K) ACTIVIDADES DE MEDIACIÓN INTERCULTURAL. L) SERVICIO GENERAL A LA COMUNIDAD. M) SERVICIOS DE LIMPIEZA A DOMICILIO E INDUSTRIAL. N) SERVICIOS DE LAVANDERÍA INDUSTRIAL. Ñ) SERVICIOS DE RESTAURACIÓN Y CATERING. O) SERVICIOS DE CONSULTORÍA, ASESORAMIENTO Y ASISTENCIA TÉCNICA. P) I+D. Q) SERVICIOS DE GESTIÓN DEL CONOCIMIENTO. R) DESARROLLO SOCIAL DE ACTIVIDADES DE INNOVACIÓN E IMPLANTACIÓN DE NUEVAS TECNOLOGÍAS. S) ACTIVIDADES DE MARKETING SOCIAL, COMUNICACIÓN E INFORMACIÓN. T) ACTIVIDADES DE LOGÍSTICA. U) SERVICIOS DE SUMINISTRO DE PERSONAL. V) REHABILITACIÓN, RECUPERACIÓN Y PROMOCIÓN DE PATRIMONIO ARTÍSTICO, HISTÓRICO, CULTURAL Y NATURAL. W) REHABILITACIÓN DE ENTORNOS URBANOS Y MEDIO AMBIENTALES. X) SERVICIOS DE MANTENIMIENTO ÍNTEGRO DE EFICIOS, REPARACIÓN Y CONSTRUCCIÓN DE BIENES E INMUEBLES, PARA EL DESARROLLO, PROMOCIÓN Y PLENA INTEGRACIÓN DE LOS COLECTIVOS ANTERIORMENTE DESCRITOS. Y) Y TODAS AQUELLAS ACTIVIDADES QUE SEAN ANTECEDENTES, DERIVADAS O COMPLEMENTARIAS A LAS ANTERIORMENTE MENCIONADAS. EN EL DESARROLLO DEL OBJETO SOCIAL IMPLICARÁN LOS SOCIOS SU PERSONAL TRABAJO SIN ÁNIMO DE LUCRO.\n",
      "mainEntityOfPage": "https://www.contratacion.euskadi.eus/webkpe00-kperoc/es/ac71aBusquedaRegistrosWar/empresa/09210",
      "_links": {
        "self": {
          "name": "MACROSAD, S COOP ANDALUZA",
          "href": "https://api.euskadi.eus/procurements/companies/09210"
        }
      }
    },
    {
      "name": "BIOGEN TECHNOLOGIES, S.L.",
      "registrationNumber": "08320",
      "identificationNumber": "B64371024",
      "address": "C/ Juan Ramón Jiménez, 1",
      "location": {
        "postalCode": "08060",
        "municipality": "Sant Just Desvern",
        "county": "Barcelona",
        "municipalityId": "221",
        "countyId": "08"
      },
      "economicActivities": [
        {
          "id": "1.849.9",
          "name": "Otros servicios independientes n.c.o.p",
          "_links": {
            "self": {
              "name": "Otros servicios independientes n.c.o.p",
              "href": "https://api.euskadi.eus/procurements/companies/economic-activities/1.849.9"
            }
          }
        }
      ],
      "certificateStartDate": "2023-09-13",
      "certificateEndDate": "2024-03-13",
      "object": "LA ACTIVIDAD INDUSTRIAL, DE CONSTRUCCIÓN; COMERCIAL, DE INTERMEDIACIÓN DE PROFESIONALES O DE SERVICIOS EN GENERAL. PROVEER TODO TIPO DE TECNOLOGÍA, PRODUCTOS Y SERVICIOS DESTINADOS A SALAS LIMPIAS O AMBIENTES CONTRALADOS, INCLUIDA TAMBIÉN LA CONSTRUCCIÓN DE LAS MISMAS. EN PARTICULAR, EL SUMINISTRO DE TODO TIPO DE MATERIAL PARA LA FILTRACIÓN DE AIRE O AGUA PARA HOSPITALES, INCLUIDA EN ESPECIAL LA FILTRACIÓN DE AGUA EN PUNTO FINAL.",
      "mainEntityOfPage": "https://www.contratacion.euskadi.eus/webkpe00-kperoc/es/ac71aBusquedaRegistrosWar/empresa/08320",
      "_links": {
        "self": {
          "name": "BIOGEN TECHNOLOGIES, S.L.",
          "href": "https://api.euskadi.eus/procurements/companies/08320"
        }
      }
    },
    {
      "name": "SERVICIOS AAA S. COOP. PEQUEÑA",
      "registrationNumber": "08305",
      "identificationNumber": "F95684494",
      "address": "BARRIO GAZAGA 23",
      "location": {
        "postalCode": "48250",
        "municipality": "Zaldibar",
        "county": "Bizkaia",
        "municipalityId": "095",
        "countyId": "48"
      },
      "economicActivities": [
        {
          "id": "1.501.1",
          "name": "Construcción completa, reparación y conservación de edificaciones",
          "_links": {
            "self": {
              "name": "Construcción completa, reparación y conservación de edificaciones",
              "href": "https://api.euskadi.eus/procurements/companies/economic-activities/1.501.1"
            }
          }
        }
      ],
      "certificateStartDate": "2023-09-13",
      "certificateEndDate": "2024-03-13",
      "object": "- CONSTRUCCIÓN TOTAL O PARCIAL DE EDIFICIOS, VIVIENDAS Y LOCALES - OBRAS DE ALBAÑILERÍA - LIMPIEZA Y MANTENIMIENTO DE EDIFICIOS, LOCALES, VIVIENDAS Y MONTES - COORDINACIÓN DE GREMIOS - SERVICIOS DE ASISTENCIA Y MANTENIMIENTO DE CEMENTERIOS - ALQUILER Y COMPRA-VENTA DE BIENES MUEBLES E INMUEBLES.",
      "mainEntityOfPage": "https://www.contratacion.euskadi.eus/webkpe00-kperoc/es/ac71aBusquedaRegistrosWar/empresa/08305",
      "_links": {
        "self": {
          "name": "SERVICIOS AAA S. COOP. PEQUEÑA",
          "href": "https://api.euskadi.eus/procurements/companies/08305"
        }
      }
    },
    {
      "name": "GP NOR TASACIONES SOCIEDAD LIMITADA",
      "registrationNumber": "09055",
      "identificationNumber": "B95285383",
      "address": "Av Sabino Arana 51, 2 esc entpta ctro",
      "location": {
        "postalCode": "48013",
        "municipality": "Bilbao",
        "county": "Bizkaia",
        "municipalityId": "020",
        "countyId": "48"
      },
      "economicActivities": [
        {
          "id": "1.832.2",
          "name": "Servicios de tasación y tarificación de seguros",
          "_links": {
            "self": {
              "name": "Servicios de tasación y tarificación de seguros",
              "href": "https://api.euskadi.eus/procurements/companies/economic-activities/1.832.2"
            }
          }
        },
        {
          "id": "1.834",
          "name": "Servicios relativos a la propiedad inmobiliaria e industrial",
          "_links": {
            "self": {
              "name": "Servicios relativos a la propiedad inmobiliaria e industrial",
              "href": "https://api.euskadi.eus/procurements/companies/economic-activities/1.834"
            }
          }
        },
        {
          "id": "1.841",
          "name": "Servicios jurídicos",
          "_links": {
            "self": {
              "name": "Servicios jurídicos",
              "href": "https://api.euskadi.eus/procurements/companies/economic-activities/1.841"
            }
          }
        }
      ],
      "certificateStartDate": "2023-09-13",
      "certificateEndDate": "2024-03-13",
      "object": "LA REALIZACIÓN DE TASACIONES SOBRE BIENES INMUEBLES, VALORACIONES Y ANÁLISIS DE RIESGOS. LA ASESORÍA PERICIAL.",
      "mainEntityOfPage": "https://www.contratacion.euskadi.eus/webkpe00-kperoc/es/ac71aBusquedaRegistrosWar/empresa/09055",
      "_links": {
        "self": {
          "name": "GP NOR TASACIONES SOCIEDAD LIMITADA",
          "href": "https://api.euskadi.eus/procurements/companies/09055"
        }
      }
    },
    {
      "name": "TECNICAS DE VENTILACION CALGE, S.L.",
      "registrationNumber": "08945",
      "identificationNumber": "B95661120",
      "address": "Poligono industrial la AceñaAtxurriaga, Vallejas 3, Pabellon 5",
      "location": {
        "postalCode": "48191",
        "municipality": "Galdames",
        "county": "Bizkaia",
        "municipalityId": "037",
        "countyId": "48"
      },
      "economicActivities": [
        {
          "id": "1.315",
          "name": "Construcción de grandes depósitos y calderería gruesa",
          "_links": {
            "self": {
              "name": "Construcción de grandes depósitos y calderería gruesa",
              "href": "https://api.euskadi.eus/procurements/companies/economic-activities/1.315"
            }
          }
        }
      ],
      "certificateStartDate": "2023-09-12",
      "certificateEndDate": "2024-03-12",
      "object": "LA ACTIVIDAD DE PRODUCCIÓN, TANTO EN SERIE COMO SOBRE PEDIDO, FABRICACIÓN, MONTAJE, DISTRIBUCIÓN, COMERCIALIZACIÓN, EXPORTACIÓN O IMPORTACIÓN DE TODO TIPO DE PIEZAS Y PRODUCTOS DE CALDERERÍA, ASÍ COMO TODA CLASE DE CONSTRUCCIONES METÁLICAS Y MONTAJES DE LAS MISMAS. MANTENIMIENTO, CONSERVACIÓN, REPARACIÓN Y ASISTENCIA DE TODO TIPO DE ELEMENTOS DE CALDERERÍA Y MONTAJES INDUSTRIALES, ASÍ COMO LA COMPRAVENTA, IMPORTACIÓN, EXPORTACIÓN Y COMERCIALIZACIÓN DE TODA CLASE DE ARTÍCULOS, MATERIALES Y ACCESORIOS RELACIONADOS CON LA CALDERERÍA Y CONSTRUCCIONES METÁLICAS Y MECÁNICAS. LA REPRESENTACIÓN COMO AGENTE, DELEGADO, COMISIONISTA O CUALQUIER OTRA FORMA DE MEDIACIÓN MERCANTIL, DE TODA CLASE DE EMPRESAS NACIONALES Y EXTRANJERAS, RELACIONADAS CON LA CALDERERÍA, CONSTRUCCIONES METÁLICAS Y MONTAJES INDUSTRIALES. COMPRAVENTA Y ARRENDAMIENTO DE BIENES INMUEBLES.",
      "mainEntityOfPage": "https://www.contratacion.euskadi.eus/webkpe00-kperoc/es/ac71aBusquedaRegistrosWar/empresa/08945",
      "_links": {
        "self": {
          "name": "TECNICAS DE VENTILACION CALGE, S.L.",
          "href": "https://api.euskadi.eus/procurements/companies/08945"
        }
      }
    },
    {
      "name": "ARAIZ SUMINISTROS ELÉCTRICOS SAU",
      "registrationNumber": "08312",
      "identificationNumber": "A50079961",
      "address": "CALLE JAIME FERRAN 17",
      "location": {
        "postalCode": "50014",
        "municipality": "Zaragoza",
        "county": "Zaragoza",
        "municipalityId": "297",
        "countyId": "50"
      },
      "economicActivities": [
        {
          "id": "1.615.4",
          "name": "Venta al por mayor de aparatos y material radioeléctrico y electrónico",
          "_links": {
            "self": {
              "name": "Venta al por mayor de aparatos y material radioeléctrico y electrónico",
              "href": "https://api.euskadi.eus/procurements/companies/economic-activities/1.615.4"
            }
          }
        }
      ],
      "certificateStartDate": "2023-09-12",
      "certificateEndDate": "2024-03-12",
      "object": "EL COMERCIO, AL POR MAYOR Y MENOR, DE APARATOS DE ELECTRICIDAD Y ELECTRÓNICOS.",
      "mainEntityOfPage": "https://www.contratacion.euskadi.eus/webkpe00-kperoc/es/ac71aBusquedaRegistrosWar/empresa/08312",
      "_links": {
        "self": {
          "name": "ARAIZ SUMINISTROS ELÉCTRICOS SAU",
          "href": "https://api.euskadi.eus/procurements/companies/08312"
        }
      }
    },
    {
      "name": "BMG EQUIPAMIENTOS, S.L.",
      "registrationNumber": "08929",
      "identificationNumber": "B71026801",
      "address": "POLIGONO NOAIN ESQUIROZ - C/R - NAVE 1",
      "location": {
        "postalCode": "31191",
        "municipality": "Galar",
        "county": "Navarra",
        "municipalityId": "109",
        "countyId": "31"
      },
      "economicActivities": [
        {
          "id": "1.504.3",
          "name": "Instalaciones de frío, calor y acondicionamiento de aire",
          "_links": {
            "self": {
              "name": "Instalaciones de frío, calor y acondicionamiento de aire",
              "href": "https://api.euskadi.eus/procurements/companies/economic-activities/1.504.3"
            }
          }
        },
        {
          "id": "1.654.5",
          "name": "Venta al por menor de toda clase de maquinaría",
          "_links": {
            "self": {
              "name": "Venta al por menor de toda clase de maquinaría",
              "href": "https://api.euskadi.eus/procurements/companies/economic-activities/1.654.5"
            }
          }
        }
      ],
      "certificateStartDate": "2023-09-12",
      "certificateEndDate": "2024-03-12",
      "object": "LA REALIZACIÓN DE PROYECTOS, COMERCIALIZACIÓN Y MONTAJE DE TODO TIPO DE MAQUINARIA Y UTILLAJE PARA INSTALACIONES INDUSTRIALES, FRIGORÍFICAS DE CALEFACCIÓN, DE AIRE ACONDICIONADO Y FRÍO INDUSTRIAL, EN ESPECIAL PARA HOSTELERÍA, HOSPITALES, LAVANDERÍAS Y CADENAS DE ALIMENTACIÓN. Y LA COMPRAVENTA, ADQUISICIÓN DE CUALQUIER TÍTULO, ENAJENACIÓN Y ARRENDAMIENTO DE BIENES INMUEBLES.",
      "mainEntityOfPage": "https://www.contratacion.euskadi.eus/webkpe00-kperoc/es/ac71aBusquedaRegistrosWar/empresa/08929",
      "_links": {
        "self": {
          "name": "BMG EQUIPAMIENTOS, S.L.",
          "href": "https://api.euskadi.eus/procurements/companies/08929"
        }
      }
    }
  ]
}