{
  "totalItems": 9042,
  "totalPages": 905,
  "currentPage": 143,
  "itemsOfPage": 10,
  "items": [
    {
      "name": "IGURCO CENTROS GERONTOLOGICOS, S.L.",
      "registrationNumber": "10227",
      "identificationNumber": "B95405601",
      "address": "C/ Máximo Aguirre nº 18 bis, 6º planta",
      "location": {
        "postalCode": "48011",
        "municipality": "Bilbao",
        "county": "Bizkaia",
        "municipalityId": "020",
        "countyId": "48"
      },
      "economicActivities": [
        {
          "id": "1.951",
          "name": "Asistencia y servicios sociales en centros residenciales",
          "_links": {
            "self": {
              "name": "Asistencia y servicios sociales en centros residenciales",
              "href": "https://api.euskadi.eus/procurements/companies/economic-activities/1.951"
            }
          }
        },
        {
          "id": "1.952",
          "name": "Asistencia y servicios sociales en centros no residenciales",
          "_links": {
            "self": {
              "name": "Asistencia y servicios sociales en centros no residenciales",
              "href": "https://api.euskadi.eus/procurements/companies/economic-activities/1.952"
            }
          }
        }
      ],
      "certificateStartDate": "2025-11-24",
      "certificateEndDate": "2026-05-20",
      "object": "(A) EL CUIDADO, PROMOCIÓN, ASISTENCIA, REHABILITACIÓN, INSERCIÓN SOCIAL Y TRATAMIENTO DE TODO TIPO A PERSONAS DE TERCERA EDAD O CUALQUIERA OTRAS CON ALGUNA CARENCIA, ENFERMEDAD O MINUSVALÍA PSÍQUICA, FÍSICA Y/O ECONÓMICA; REGENTANDO, EXPLOTANDO O GESTIONANDO A TAL EFECTO CENTROS O INMUEBLES PROPIOS O AJENOS EN VIRTUD DE CONTRATO DE ARRENDAMIENTO DE CUALQUIER CLASE, INCLUIDO EL FINANCIERO, CESIÓN, CONCESIÓN, DE CUALQUIER TIPO, TANTO GRATUITA COMO ONEROSA, HACIENDO EXPRESA EXTENSIÓN A LA ASISTENCIA DOMICILIARIA, INSTALACIÓN, MANTENIMIENTO Y REPARACIÓN DE APARATOS DE INTERCOMUNICACIÓN Y TELEFONÍA INSTALADOS EN DOMICILIOS, Y TRANSPORTE, TODO ELLO, COMO AYUDA A ESTOS COLECTIVOS, CONCERTANDO CUALQUIER TIPO DE CONTRATOS O PACTOS CON INSTITUCIONES PÚBLICAS O PRIVADAS. (B) LA EXPLOTACIÓN EN GENERAL DE RESIDENCIAS, EN LOCALES PROPIOS O ARRENDADOS O CONCEDIENDO SU EXPLOTACIÓN A TERCERAS PERSONAS. (C) LA COMPRAVENTA DE BIENES INMUEBLES. LA URBANIZACIÓN Y PARCELACIÓN DE TERRENOS EN GENERAL Y LA PROMOCIÓN DE NEGOCIOS INMOBILIARIOS. LA CONSTRUCCIÓN DE INMUEBLES O EDIFICIOS, BIEN PARA USOS RESIDENCIALES O PARA USOS COMERCIALES E INDUSTRIALES, EN CUALQUIER FORMA ADMITIDA POR LAS LEYES EN VIGOR. LA PROMOCIÓN, VENTA, GRAVAMEN O EXPLOTACIÓN EN RÉGIMEN DE ARRENDAMIENTO (NO FINANCIERO), DE EDIFICIOS BIEN COMPLETA O POR PISOS Y LOCALES. (D) LA GESTIÓN, EXPLORACIÓN Y COMERCIALIZACIÓN DE SERVIDOS FUNERARIOS EN GENERAL, EN LOCALES Y CON MEDÍOS PROPIOS O ARRENDADOS O CONCEDIENDO SU EXPLOTACIÓN A TERCERAS PERSONAS, CONCERTANDO CUALQUIER TIPO DE CONTRATOS O PACTOS CON INSTITUCIONES PÚBLICAS O PRIVADAS. (E) LA TENENCIA, ADMINISTRACIÓN, CESIÓN Y DISFRUTE, EN CUALQUIERA DE LAS FORMAS RECONOCIDAS, DE TODA CLASE DE MARCAS, PATENTES, SISTEMAS Y OTROS DERECHOS COMPRENDIDOS EN LA LEY DE PATENTES O EN CUALESQUIERA OTRAS LEYES O NORMAS RELATIVAS A LA PROPIEDAD INDUSTRIAL. (F) EL ASESORAMIENTO A EMPRESAS Y PARTICULARES EN MATERIA ASISTENCIAL, SANITARIA, FISCAL, CONTABLE, LABORAL, FINANCIERA, DE MARKETING Y/O DE GESTIÓN, ASÍ COMO EN MATERIAS ADMINISTRATIVAS, INFORMÁTICAS Y COMERCIALES, ADEMÁS DE LA PRESTACIÓN DE TODO TIPO DE SERVICIOS RELACIONADOS CON LAS ACTIVIDADES ANTERIORES. DICHAS ACTIVIDADES SERÁN DESARROLLADAS A TRAVÉS DE PROFESIONALES CON LA CAPACIDAD NECESARIA PARA REALIZARLAS. (G) EN GENERAL CUALQUIER TIPO DE SERVICIO QUE SE CONSIDERE NECESARIO PARA COMPLEMENTAR LAS ACTIVIDADES DESCRITAS EN LOS PÁRRAFOS ANTERIORES",
      "mainEntityOfPage": "https://www.contratacion.euskadi.eus/webkpe00-kperoc/es/ac71aBusquedaRegistrosWar/empresa/10227",
      "_links": {
        "self": {
          "name": "IGURCO CENTROS GERONTOLOGICOS, S.L.",
          "href": "https://api.euskadi.eus/procurements/companies/10227"
        }
      }
    },
    {
      "name": "DECORACIONES FRUTOS, S.L.",
      "registrationNumber": "05545",
      "identificationNumber": "B20648465",
      "address": "CALLE DE ALKOLEA, 2 - LOCAL 7",
      "location": {
        "postalCode": "20012",
        "municipality": "Donostia / San Sebastián",
        "county": "Gipuzkoa",
        "municipalityId": "069",
        "countyId": "20"
      },
      "economicActivities": [
        {
          "id": "1.505.7",
          "name": "Trabajos en yeso y escayola y decoración de edificios y locales",
          "_links": {
            "self": {
              "name": "Trabajos en yeso y escayola y decoración de edificios y locales",
              "href": "https://api.euskadi.eus/procurements/companies/economic-activities/1.505.7"
            }
          }
        }
      ],
      "certificateStartDate": "2025-11-24",
      "certificateEndDate": "2026-05-20",
      "classification": [
        {
          "id": "S",
          "name": "Servicios",
          "groups": [
            {
              "id": "O",
              "subgroups": [
                {
                  "id": "01",
                  "name": "Conservación y mantenimiento de edificios",
                  "categories": [
                    {
                      "id": "3",
                      "name": "Desde 300.001 Hasta 600.000",
                      "_links": {
                        "self": {
                          "name": "Desde 300.001 Hasta 600.000",
                          "href": "https://api.euskadi.eus/procurements/companies/types/S/categories/3"
                        }
                      }
                    }
                  ],
                  "_links": {
                    "self": {
                      "name": "Conservación y mantenimiento de edificios",
                      "href": "https://api.euskadi.eus/procurements/companies/types/S/groups/O/subgroups/01"
                    }
                  }
                }
              ],
              "_links": {
                "self": {
                  "href": "https://api.euskadi.eus/procurements/companies/types/S/groups/O"
                }
              }
            }
          ],
          "_links": {
            "self": {
              "name": "Servicios",
              "href": "https://api.euskadi.eus/procurements/companies/types/S"
            }
          }
        }
      ],
      "object": "EL ESTUDIO, SUPERVISIÓN Y LA REALIZACIÓN DE TODA CLASE DE TRABAJOS RELATIVOS A LA CONSTRUCCIÓN, REFORMA, CONSERVACIÓN Y DECORACIÓN DE CUALQUIER TIPO DE EDIFICIO O INMUEBLE.",
      "mainEntityOfPage": "https://www.contratacion.euskadi.eus/webkpe00-kperoc/es/ac71aBusquedaRegistrosWar/empresa/05545",
      "_links": {
        "self": {
          "name": "DECORACIONES FRUTOS, S.L.",
          "href": "https://api.euskadi.eus/procurements/companies/05545"
        }
      }
    },
    {
      "name": "FACHADAS SINGULARES UXAMA, S.L.",
      "registrationNumber": "04976",
      "identificationNumber": "B95548301",
      "address": "POL. TOLSAN, Bº IBARRA 6C, PAB. B 2-2",
      "location": {
        "postalCode": "48340",
        "municipality": "Amorebieta-Etxano",
        "county": "Bizkaia",
        "municipalityId": "003",
        "countyId": "48"
      },
      "economicActivities": [
        {
          "id": "1.314.1",
          "name": "Carpintería metálica",
          "_links": {
            "self": {
              "name": "Carpintería metálica",
              "href": "https://api.euskadi.eus/procurements/companies/economic-activities/1.314.1"
            }
          }
        },
        {
          "id": "1.505.5",
          "name": "Carpintería y cerrajería",
          "_links": {
            "self": {
              "name": "Carpintería y cerrajería",
              "href": "https://api.euskadi.eus/procurements/companies/economic-activities/1.505.5"
            }
          }
        }
      ],
      "certificateStartDate": "2025-11-24",
      "certificateEndDate": "2026-05-15",
      "classification": [
        {
          "id": "O",
          "name": "Obras",
          "groups": [
            {
              "id": "C",
              "name": "EDIFICACIONES",
              "subgroups": [
                {
                  "id": "09",
                  "name": "CARPINTERIA METALICA",
                  "categories": [
                    {
                      "id": "5",
                      "name": "Desde 2.400.001 Hasta 5.000.000",
                      "_links": {
                        "self": {
                          "name": "Desde 2.400.001 Hasta 5.000.000",
                          "href": "https://api.euskadi.eus/procurements/companies/types/O/categories/5"
                        }
                      }
                    }
                  ],
                  "_links": {
                    "self": {
                      "name": "CARPINTERIA METALICA",
                      "href": "https://api.euskadi.eus/procurements/companies/types/O/groups/C/subgroups/09"
                    }
                  }
                }
              ],
              "_links": {
                "self": {
                  "name": "EDIFICACIONES",
                  "href": "https://api.euskadi.eus/procurements/companies/types/O/groups/C"
                }
              }
            }
          ],
          "_links": {
            "self": {
              "name": "Obras",
              "href": "https://api.euskadi.eus/procurements/companies/types/O"
            }
          }
        }
      ],
      "object": "A) LA PROMOCIÓN, CONSTRUCCIÓN, REHABILITACIÓN, REPARACIÓN, POR CUENTA PROPIA  O AJENA DE TODA CLASE DE OBRAS, URBANIZACIONES, EDIFICIOS Y CONSTRUCCIONES, TANTOS PÚBLICOS COMO PRIVADOS. B) INSTALACIONES Y REPARACIONES DE SISTEMAS DE CALDERERÍA, TANTO DE USO DOMÉSTICO COMO INDUSTRIAL Y COMERCIAL; LA PRESTACIÓN DE SERVICIOS DE ATENCIÓN Y CONSERVACIÓN DE LAS MISMAS; LA COMPRA, VENTA, IMPORTACIÓN Y EXPORTACIÓN DE TODO TIPO DE MATERIAL DE CALDERERÍA; PUDIENDO A TALES EFECTOS REALIZAR LA CONTRATACIÓN DE SUMINISTROS CON CUALESQUIERA ORGANISMOS PÚBLICOS Y PRIVADOS, EMPRESAS Y TERCERAS PERSONAS EN GENERAL.",
      "mainEntityOfPage": "https://www.contratacion.euskadi.eus/webkpe00-kperoc/es/ac71aBusquedaRegistrosWar/empresa/04976",
      "_links": {
        "self": {
          "name": "FACHADAS SINGULARES UXAMA, S.L.",
          "href": "https://api.euskadi.eus/procurements/companies/04976"
        }
      }
    },
    {
      "name": "CLUB DEPORTIVO ITSASO SPORT",
      "registrationNumber": "08865",
      "identificationNumber": "G01397512",
      "address": "Conde Don Vela nº10",
      "location": {
        "postalCode": "01009",
        "municipality": "Vitoria-Gasteiz",
        "county": "Araba/Álava",
        "municipalityId": "059",
        "countyId": "01"
      },
      "economicActivities": [
        {
          "id": "1.968.3",
          "name": "Organización de espectáculos deportivos por federación o clubs no profesionales",
          "_links": {
            "self": {
              "name": "Organización de espectáculos deportivos por federación o clubs no profesionales",
              "href": "https://api.euskadi.eus/procurements/companies/economic-activities/1.968.3"
            }
          }
        }
      ],
      "certificateStartDate": "2025-11-24",
      "certificateEndDate": "2026-05-19",
      "object": "EL FOMENTO Y LA PRÁCTICA DE LAS SIGUIENTES MODALIDADES DEPORTIVAS: - MODALIDAD PRINCIPAL: ACTIVIDADES SUBACUÁTICAS - MODALIDADES SECUNDARIAS: .- CAZA .- TIRO",
      "mainEntityOfPage": "https://www.contratacion.euskadi.eus/webkpe00-kperoc/es/ac71aBusquedaRegistrosWar/empresa/08865",
      "_links": {
        "self": {
          "name": "CLUB DEPORTIVO ITSASO SPORT",
          "href": "https://api.euskadi.eus/procurements/companies/08865"
        }
      }
    },
    {
      "name": "TECNOTRAC TECNOLOGIAS TERMICAS, S.L.",
      "registrationNumber": "08814",
      "identificationNumber": "B20776092",
      "address": "Pº LUGARITZ, 25 - 1º A",
      "location": {
        "postalCode": "20018",
        "municipality": "Donostia / San Sebastián",
        "county": "Gipuzkoa",
        "municipalityId": "069",
        "countyId": "20"
      },
      "economicActivities": [
        {
          "id": "1.504.3",
          "name": "Instalaciones de frío, calor y acondicionamiento de aire",
          "_links": {
            "self": {
              "name": "Instalaciones de frío, calor y acondicionamiento de aire",
              "href": "https://api.euskadi.eus/procurements/companies/economic-activities/1.504.3"
            }
          }
        }
      ],
      "certificateStartDate": "2025-11-24",
      "certificateEndDate": "2026-05-14",
      "object": "LA INSTALACIÓN DE CALEFACCIÓN Y AIRE ACONDICIONADO.",
      "mainEntityOfPage": "https://www.contratacion.euskadi.eus/webkpe00-kperoc/es/ac71aBusquedaRegistrosWar/empresa/08814",
      "_links": {
        "self": {
          "name": "TECNOTRAC TECNOLOGIAS TERMICAS, S.L.",
          "href": "https://api.euskadi.eus/procurements/companies/08814"
        }
      }
    },
    {
      "name": "CONSULTORIA DE TECNOLOGIA DEL LED, S.L.",
      "registrationNumber": "09664",
      "identificationNumber": "B95729968",
      "address": "María Goiri, 1-2º D",
      "location": {
        "postalCode": "48993",
        "municipality": "Getxo",
        "county": "Bizkaia",
        "municipalityId": "044",
        "countyId": "48"
      },
      "economicActivities": [
        {
          "id": "1.653.2",
          "name": "Venta al por menor de material y aparatos eléctricos, electrodomésticos y cocina",
          "_links": {
            "self": {
              "name": "Venta al por menor de material y aparatos eléctricos, electrodomésticos y cocina",
              "href": "https://api.euskadi.eus/procurements/companies/economic-activities/1.653.2"
            }
          }
        }
      ],
      "certificateStartDate": "2025-11-24",
      "certificateEndDate": "2026-05-11",
      "object": "LA COMERCIALIZACIÓN DE ILUMINACIÓN LED Y EL ASESORAMIENTO SOBRE SOLUCIONES DE EFICIENCIA ENERGÉTICA, CLIMATIZACIÓN O MONITORIZACIÓN, YA SEAN REALIZADOS CON RECURSOS PROPIOS O EXTERNOS, ASÍ COMO LA EXTERNALIZACIÓN DE TODO TIPO DE SERVICIOS.",
      "mainEntityOfPage": "https://www.contratacion.euskadi.eus/webkpe00-kperoc/es/ac71aBusquedaRegistrosWar/empresa/09664",
      "_links": {
        "self": {
          "name": "CONSULTORIA DE TECNOLOGIA DEL LED, S.L.",
          "href": "https://api.euskadi.eus/procurements/companies/09664"
        }
      }
    },
    {
      "name": "URTXINTXA ASTIALDI ESKOLA-BIZKAIA ELKARTEA",
      "registrationNumber": "07941",
      "identificationNumber": "G48237556",
      "address": "zabalbide 26",
      "location": {
        "postalCode": "48006",
        "municipality": "Bilbao",
        "county": "Bizkaia",
        "municipalityId": "020",
        "countyId": "48"
      },
      "economicActivities": [
        {
          "id": "1.476.1",
          "name": "Edición de libros",
          "_links": {
            "self": {
              "name": "Edición de libros",
              "href": "https://api.euskadi.eus/procurements/companies/economic-activities/1.476.1"
            }
          }
        },
        {
          "id": "1.933.9",
          "name": "Otras actividades de enseñanza tales como idiomas, mecanografía",
          "_links": {
            "self": {
              "name": "Otras actividades de enseñanza tales como idiomas, mecanografía",
              "href": "https://api.euskadi.eus/procurements/companies/economic-activities/1.933.9"
            }
          }
        },
        {
          "id": "1.934",
          "name": "Enseñanza fuera de establecimiento permanente",
          "_links": {
            "self": {
              "name": "Enseñanza fuera de establecimiento permanente",
              "href": "https://api.euskadi.eus/procurements/companies/economic-activities/1.934"
            }
          }
        },
        {
          "id": "1.966.9",
          "name": "Otros servicios culturales n.c.o.p",
          "_links": {
            "self": {
              "name": "Otros servicios culturales n.c.o.p",
              "href": "https://api.euskadi.eus/procurements/companies/economic-activities/1.966.9"
            }
          }
        }
      ],
      "certificateStartDate": "2025-11-24",
      "certificateEndDate": "2026-05-15",
      "object": "1-. HAUR ETA GAZTEEN AISIALDIRAKO BEGIRALE ESKOLA ERATZEA, ETA ERA BEREAN DINAMIZAZIO SOZIOKULTURALEKO HAINBAT ESPARRUTARAKO DINAMIZATZAILEEN TREBAKUNTZA. 2-. HAUR, GAZTE, HELDU ETA NAGUSIEKIN TREBAKUNTZA ETA ESKUHARTZEA JARDUEREN BITARTEZ, HAURRERIA, GAZTERIA, HELDUAROA ETA HIRUGARREN ADINEKO MARGINAZIOA SAIHESTEKO BABESA ETA LANA. 3-. HELBURUAK BETETZE ALDERA, ETA INDARREAN DAGOEN LEGEDIA KONTUAN HARTUTA, AISIALDIKO BEGIRALE ETA ZUZENDARI IKASTAROAK, TREBAKUNTZA IRAUNKORRA ETA ANIMAZIO SOZIOKULTURALEKO MOTA GUZTIETAKO IKASTAROAK ESKAINIKO DIRA. 4-. HEZKUNTZA FORMALEKO ETA EZ FORMALEKO EDOZEIN ESPARRUTAN LAN EGITEKO TREBAKUNTZA, ESKU-HARTZEA, MATERIALAK, ARGITALPENAK ETA BIRZIKLAPEN PROFESIONALA. ETA BEREZIKI EMAKUME ETA GIZONEN ARTEKO AUKERA BERDINTASUNEAN, KULTUR-ARTEKO HEZKUNTZAN, EUSKARAN, PARTE-HARTZEAN, INKLUSIOAN, INGURUMENEAN, SOSTENGARRITASUNEAN, DROGAMENPEKOTASUNEAN, BAKE HEZIKETAN ETA BALIOEN HEZKUNTZAN OROKORREAN. 5-. GURE JARDUERA ESPARRUAN BEHARREZKOAK DIREN KULTUR, HEZKUNTZA, KIROL, ASTI ETA AISI EKINTZEN SUSTAPENA. 6-. EUSKAL HERRIAREN, EUSKAL KULTURAREN, BEREZIKI EUSKARARENA, ETA OROKORREAN EDOZEIN ADIERAZPEN KULTURALEN IKERKETA ETA ZABALKUNDEA. 7-. AURRETIK AIPATUTAKO ADIN TARTE, KOLEKTIBO ETA GAIEI LOTUTAKO EGITASMOAK MARTXAN JARTZEA. BAI BARNE MAILAN EDOTA MAILA INSTITUZIONALEAN ZEIN PRIBATUAN: UDALETXEAK, MANKOMUNITATEAK, ALDUNDIAK, JAURLARITZA, ELKARTEAK, FUNDAZIOAK, ENPRESAK. 8-. BALIABIDE SOZIOKULTURAL ETA EDOZEIN EKIPAMENDU KOMUNITARIOREN SORRERA, KERKETA, KUDEAKETA EDO AHOLKULARITZA SUSTATZEA. 9-. ASTIALDI HEZITZAILEAREN ALDEKO DEFENTSA ETA LANA. 10-. ELKARTEAK EZ DU INOLAKO IRABAZI ASMORIK, ETA ETEKINAK IZATEKOTAN, AIPATUTAKO JARDUEREN SUSTAPENEAN ERABILIKO DIRA\r\n",
      "mainEntityOfPage": "https://www.contratacion.euskadi.eus/webkpe00-kperoc/es/ac71aBusquedaRegistrosWar/empresa/07941",
      "_links": {
        "self": {
          "name": "URTXINTXA ASTIALDI ESKOLA-BIZKAIA ELKARTEA",
          "href": "https://api.euskadi.eus/procurements/companies/07941"
        }
      }
    },
    {
      "name": "ESTUDIO K, S. COOP.",
      "registrationNumber": "00223",
      "identificationNumber": "F48202402",
      "address": "C/ AVENIDA BASAGOITI, Nº 69 - 1º.",
      "location": {
        "postalCode": "48990",
        "municipality": "Getxo",
        "county": "Bizkaia",
        "municipalityId": "044",
        "countyId": "48"
      },
      "economicActivities": [
        {
          "id": "1.843.1",
          "name": "Servicios técnicos de ingeniería",
          "_links": {
            "self": {
              "name": "Servicios técnicos de ingeniería",
              "href": "https://api.euskadi.eus/procurements/companies/economic-activities/1.843.1"
            }
          }
        },
        {
          "id": "1.843.2",
          "name": "Servicios técnicos de arquitectura y urbanismo",
          "_links": {
            "self": {
              "name": "Servicios técnicos de arquitectura y urbanismo",
              "href": "https://api.euskadi.eus/procurements/companies/economic-activities/1.843.2"
            }
          }
        }
      ],
      "certificateStartDate": "2025-11-24",
      "certificateEndDate": "2026-05-19",
      "object": "EL EJERCICIO EN COMÚN DE LAS ACTIVIDADES PROFESIONALES DE SUS SOCIOS TRABAJADORES EN EL ÁMBITO DEL PLANEAMIENTO URBANÍSTICO, ARQUITECTURA, INGENIERÍA DE CAMINOS, CANALES Y PUERTOS, Y CUALQUIERA DE LAS ACTIVIDADES Y NEGOCIOS RELACIONADOS DIRECTA O INDIRECTAMENTE CON LOS ANTERIORES",
      "mainEntityOfPage": "https://www.contratacion.euskadi.eus/webkpe00-kperoc/es/ac71aBusquedaRegistrosWar/empresa/00223",
      "_links": {
        "self": {
          "name": "ESTUDIO K, S. COOP.",
          "href": "https://api.euskadi.eus/procurements/companies/00223"
        }
      }
    },
    {
      "name": "E SIETE INTERIORISMO Y DECORACION, S.L.",
      "registrationNumber": "09314",
      "identificationNumber": "B72672090",
      "address": "CL/ ERCILLA Nº 7",
      "location": {
        "postalCode": "48009",
        "municipality": "Bilbao",
        "county": "Bizkaia",
        "municipalityId": "020",
        "countyId": "48"
      },
      "economicActivities": [
        {
          "id": "1.501.1",
          "name": "Construcción completa, reparación y conservación de edificaciones",
          "_links": {
            "self": {
              "name": "Construcción completa, reparación y conservación de edificaciones",
              "href": "https://api.euskadi.eus/procurements/companies/economic-activities/1.501.1"
            }
          }
        },
        {
          "id": "1.653.9",
          "name": "Venta al por menor de otros artículos para el equipamiento del hogar",
          "_links": {
            "self": {
              "name": "Venta al por menor de otros artículos para el equipamiento del hogar",
              "href": "https://api.euskadi.eus/procurements/companies/economic-activities/1.653.9"
            }
          }
        },
        {
          "id": "1.659.2",
          "name": "Venta al por menor de muebles de oficina y máquinas y equipos de oficina",
          "_links": {
            "self": {
              "name": "Venta al por menor de muebles de oficina y máquinas y equipos de oficina",
              "href": "https://api.euskadi.eus/procurements/companies/economic-activities/1.659.2"
            }
          }
        }
      ],
      "certificateStartDate": "2025-11-24",
      "certificateEndDate": "2026-05-14",
      "object": "A) LA PRESTACIÓN DE SERVICIOS DE INTERIORISMO Y DECORACIÓN, ASÍ COMO LA PRESTACIÓN DE SERVICIOS RELACIONADOS CON LAS REFORMAS DE EDIFICIOS, VIVIENDAS Y COMERCIOS DE TODA ÍNDOLE. B) LA PRESTACIÓN DE SERVICIOS DE CONTRATACIÓN Y COORDINACIÓN DE GREMIOS RELACIONADOS CON LA CONSTRUCCIÓN Y REFORMAS, ASÍ COMO LA REALIZACIÓN DE ACTIVIDADES DE EJECUCIONES DE OBRA. C) LA COMPRA, VENTA Y DISTRIBUCIÓN DE MOBILIARIO, DE HOGAR, PARA COLECTIVIDADES Y DE OFICINA, SILLERÍA, COMPLEMENTOS Y ACCESORIOS, SISTEMAS DE ARCHIVO Y ALMACENAJE, MAMPARAS DIVISORIAS Y TABIQUES MÓVILES. D) LA COMPRA, VENTA Y DISTRIBUCIÓN DE EQUIPOS Y SISTEMAS DE MULTIMEDIA E IMPRESIÓN, TELECOMUNICACIONES Y AUDIOVISUALES. E) LA REALIZACIÓN DE TODO TIPO DE OPERACIONES COMERCIALES E INDUSTRIALES RELACIONADAS CON LAS ACTIVIDADES DESCRITAS EN LOS APARTADOS ANTERIORES.",
      "mainEntityOfPage": "https://www.contratacion.euskadi.eus/webkpe00-kperoc/es/ac71aBusquedaRegistrosWar/empresa/09314",
      "_links": {
        "self": {
          "name": "E SIETE INTERIORISMO Y DECORACION, S.L.",
          "href": "https://api.euskadi.eus/procurements/companies/09314"
        }
      }
    },
    {
      "name": "TELUR GEOTERMIA Y AGUA, S.A.",
      "registrationNumber": "04354",
      "identificationNumber": "A95567756",
      "address": "ALIENDALDE AUZUNEA, 6",
      "location": {
        "postalCode": "48200",
        "municipality": "Durango",
        "county": "Bizkaia",
        "municipalityId": "027",
        "countyId": "48"
      },
      "economicActivities": [
        {
          "id": "1.504.3",
          "name": "Instalaciones de frío, calor y acondicionamiento de aire",
          "_links": {
            "self": {
              "name": "Instalaciones de frío, calor y acondicionamiento de aire",
              "href": "https://api.euskadi.eus/procurements/companies/economic-activities/1.504.3"
            }
          }
        },
        {
          "id": "1.843.9",
          "name": "Otros servicios técnicos n.c.o.p",
          "_links": {
            "self": {
              "name": "Otros servicios técnicos n.c.o.p",
              "href": "https://api.euskadi.eus/procurements/companies/economic-activities/1.843.9"
            }
          }
        }
      ],
      "certificateStartDate": "2025-11-24",
      "certificateEndDate": "2026-05-20",
      "object": "LA REALIZACIÓN DE ESTUDIOS, PROYECTOS Y OBRAS DE EVALUACIÓN Y CONSTRUCCIÓN DE SISTEMAS DE APROVECHAMIENTO DE LA ENERGÍA GEOTÉRMICA, INCLUYENDO LAS DISTINTAS VARIANTES DE LA TECNOLOGÍA Y LOS SISTEMAS HÍBRIDOS QUE COMBINEN ESTA ENERGÍA CON OTRAS ENERGÍAS CONVENCIONALES O RENOVABLES. FINANCIACIÓN DE INSTALACIÓN GEOTÉRMICAS  MEDIANTE ACUERDOS DE PAGO APLAZADO, AHORROS COMPARTIDOS, VENTA DE LA ENERGÍA GENERADA O CUALQUIER OTRA FÓRMULA FINANCIERA SE PUEDA ACORDAR. DIRECCÓN DE OBRA EN LOS CAMPOS DE ACTIVIDAD. DISEÑO, MONTAJE, INSTALACIÓN Y MANTENIMIENTO DE INSTALACIONES DE CLIMATIZACIÓN. INVESTIGACIÓN Y DESARROLLO DE NUEVOS MÉTODOS, HERRAMIENTAS Y TECNOLOGÍAS PARA SU APLICACIÓN EN LOS SISTEMAS GEOTÉRMICOS.  DISEÑO, FABRICACIÓN  Y COMERCIALIZACIÓN DE EQUIPOS Y MATERIALES RELACIONADOS CON LOS CAMPOS DE ACTIVIDAD.  ESTUDIOS, PROYECOTS Y OBRAS DE INVESTIGACIÓN, EXPLORACIÓN, EXPLOTACIÓN, REMEDIACIÓN Y MONITORIZACIÓN DE AGUAS SUBTERRÁNEAS Y SUPERFICIALES.  ASESORÍA Y CONSULTORÍA SOBRE TEMAS RELACIONADOS CON LA ACTIVIDAD PRINCIPAL.  ACTIVIDADES DE ENSEÑANZA, EDUCACIÓN, DIFUSIÓN O EDICIÓN DE TEMAS RELACIONADOS CON LA ACITIVIDAD PRINCIPAL",
      "mainEntityOfPage": "https://www.contratacion.euskadi.eus/webkpe00-kperoc/es/ac71aBusquedaRegistrosWar/empresa/04354",
      "_links": {
        "self": {
          "name": "TELUR GEOTERMIA Y AGUA, S.A.",
          "href": "https://api.euskadi.eus/procurements/companies/04354"
        }
      }
    }
  ]
}