{
  "totalItems": 9042,
  "totalPages": 905,
  "currentPage": 393,
  "itemsOfPage": 10,
  "items": [
    {
      "name": "ENDO PROTEK, S.L.",
      "registrationNumber": "04938",
      "identificationNumber": "B95686184",
      "address": "BANCO DE ESPAÑA, 3 - 1º IZDA",
      "location": {
        "postalCode": "48005",
        "municipality": "Bilbao",
        "county": "Bizkaia",
        "municipalityId": "020",
        "countyId": "48"
      },
      "economicActivities": [
        {
          "id": "1.619.2",
          "name": "Venta al por mayor de aparatos e instrumentos médicos, ortopédicos, ópticos",
          "_links": {
            "self": {
              "name": "Venta al por mayor de aparatos e instrumentos médicos, ortopédicos, ópticos",
              "href": "https://api.euskadi.eus/procurements/companies/economic-activities/1.619.2"
            }
          }
        }
      ],
      "certificateStartDate": "2024-09-15",
      "certificateEndDate": "2025-03-15",
      "object": "LA VENTA Y COMERCIALIZACIÓN DE APARATOS CLÍNICO-QUIRÚRGICOS. LA IMPORTACIÓN, EXPORTACIÓN, COMERCIALIZACIÓN, MONTAJE, REPARACIÓN, PRUEBAS Y ESTUDIOS SOBRE TODO TIPO DE ELEMENTOS, APARATOS E INSTRUMENTAL MÉDICO Y ORTOPÉDICO",
      "mainEntityOfPage": "https://www.contratacion.euskadi.eus/webkpe00-kperoc/es/ac71aBusquedaRegistrosWar/empresa/04938",
      "_links": {
        "self": {
          "name": "ENDO PROTEK, S.L.",
          "href": "https://api.euskadi.eus/procurements/companies/04938"
        }
      }
    },
    {
      "name": "ANTICIMEX 3D SANIDAD AMBIENTAL CANTABRICA, S.L.U",
      "registrationNumber": "07163",
      "identificationNumber": "B95565172",
      "address": "BARRIO SAN ANTONIO, POLIGONO INBISA 11B",
      "location": {
        "postalCode": "48340",
        "municipality": "Amorebieta-Etxano",
        "county": "Bizkaia",
        "municipalityId": "003",
        "countyId": "48"
      },
      "economicActivities": [
        {
          "id": "1.921.1",
          "name": "Servicios de limpieza en calles, vías públicas y jardines",
          "_links": {
            "self": {
              "name": "Servicios de limpieza en calles, vías públicas y jardines",
              "href": "https://api.euskadi.eus/procurements/companies/economic-activities/1.921.1"
            }
          }
        },
        {
          "id": "1.921.3",
          "name": "Exterminio de animales dañinos y desinfección",
          "_links": {
            "self": {
              "name": "Exterminio de animales dañinos y desinfección",
              "href": "https://api.euskadi.eus/procurements/companies/economic-activities/1.921.3"
            }
          }
        },
        {
          "id": "1.922",
          "name": "Servicios de limpieza",
          "_links": {
            "self": {
              "name": "Servicios de limpieza",
              "href": "https://api.euskadi.eus/procurements/companies/economic-activities/1.922"
            }
          }
        }
      ],
      "certificateStartDate": "2024-09-15",
      "certificateEndDate": "2025-03-15",
      "object": "SERVICIOS DE LIMPIEZAS DE FABRICAS E INSTALACIONES INDUSTRIALES, HOSPITALES, BUQUES, AEROPUERTOS, ESTACIONES DE FERROCARRIL, TRENES, PARQUES Y JARDINES, CONDUCCIONES INDUSTRIALES Y SANITARIAS; LA DESRATIZACIÓN, DESINFECCIÓN, DESINSECTACIÓN E HIGIENIZACIÓN DEL MEDIO AMBIENTE EN GENERAL Y CUALQUIER OTRO SERVICIO QUE TENGA POR OBJETO EL MANTENIMIENTO DE INSTALACIONES INDUSTRIALES, EDIFICIOS DE CUALQUIER CLASE Y CONDICIÓN, TANTO EN SU ESTRUCTURA EXTERNA COMO INTERNA, PINTURA, CARPINTERIA, ELECTRICIDAD, FONTANERIA, DECORACIÓN DE EDIFICIOS Y LOCALES, ACUCHILLADO, LIJADO, ENCERADO, ACRISTALADO DE PISOS, ZÓCALOS Y PAREDES, ASÍ COMO LA LIMPIEZA Y RESTAURACIÓN, DE FACHADAS DE CUALQUIER EDIFICIO. LA REALIZACIÓN DE TODA CLASE DE OBRAS, TANTO PÚBLICAS COMO PRIVADAS, DE CONSTRUCCIÓN DE TODA CLASE DE EDIFICIOS Y PABELLONES INDUSTRIALES, ADQUISICIÓN Y REPARACIÓN DE TERRENOS, EXCAVACIONES, URBANIZACIONES Y PARCELACIONES DE TERRENOS, PROMOCIÓN Y EJECUCIÓN, COMPLETA O POR RAMOS, DE TODA CLASE DE OBRAS DE CONSTRUCCIÓN, REPARACIONES Y CONSERVACIÓN DE VIVIENDAS Y LOCALES COMERCIALES, INCLUSO DE LAS LLAMADAS VIVIENDAS SOCIALES Y DE LAS DE PROTECCIÓN OFICIAL. LA COMPRAVENTA Y ALQUILER DE EDIFICACIONES EN SU TOTALIDAD, POR PARTES, O POR PISOS, BIEN PARA VIVIENDAS O PARA LOCALES DE OFICINAS DE NEGOCIO O INDUSTRIALES, CONSTRUIDOS A TAL FIN, DIRECTAMENTE O POR MEDIO DE CONTRATISTAS, SUBCONTRATISTAS Y DESTAJISTAS, O BIEN ADQUIRIRLAS YA CONSTRUIDAS O EN CONSTRUCCIÓN, ASÍ COMO LA COMPRAVENTA, PERMUTA Y ALQUILER DE TERRENOS RÚSTICOS O URBANOS",
      "mainEntityOfPage": "https://www.contratacion.euskadi.eus/webkpe00-kperoc/es/ac71aBusquedaRegistrosWar/empresa/07163",
      "_links": {
        "self": {
          "name": "ANTICIMEX 3D SANIDAD AMBIENTAL CANTABRICA, S.L.U",
          "href": "https://api.euskadi.eus/procurements/companies/07163"
        }
      }
    },
    {
      "name": "LANDA TRABAJOS Y DESARROLLOS AMBIENTALES, S.L.",
      "registrationNumber": "07278",
      "identificationNumber": "B39776620",
      "address": "PARQUE EMPRESARIAL LA ESPRILLA B14",
      "location": {
        "postalCode": "39608",
        "municipality": "Camargo",
        "county": "Cantabria",
        "municipalityId": "016",
        "countyId": "39"
      },
      "economicActivities": [
        {
          "id": "1.507",
          "name": "Construcción, reparación y conservación de toda clase obras",
          "_links": {
            "self": {
              "name": "Construcción, reparación y conservación de toda clase obras",
              "href": "https://api.euskadi.eus/procurements/companies/economic-activities/1.507"
            }
          }
        },
        {
          "id": "1.911",
          "name": "Servicios agrícolas y ganaderos",
          "_links": {
            "self": {
              "name": "Servicios agrícolas y ganaderos",
              "href": "https://api.euskadi.eus/procurements/companies/economic-activities/1.911"
            }
          }
        },
        {
          "id": "1.912",
          "name": "Servicios forestales",
          "_links": {
            "self": {
              "name": "Servicios forestales",
              "href": "https://api.euskadi.eus/procurements/companies/economic-activities/1.912"
            }
          }
        },
        {
          "id": "1.921.1",
          "name": "Servicios de limpieza en calles, vías públicas y jardines",
          "_links": {
            "self": {
              "name": "Servicios de limpieza en calles, vías públicas y jardines",
              "href": "https://api.euskadi.eus/procurements/companies/economic-activities/1.921.1"
            }
          }
        },
        {
          "id": "1.966.2",
          "name": "Parques zoológicos, jardines botánicos y similares",
          "_links": {
            "self": {
              "name": "Parques zoológicos, jardines botánicos y similares",
              "href": "https://api.euskadi.eus/procurements/companies/economic-activities/1.966.2"
            }
          }
        },
        {
          "id": "1.967.1",
          "name": "Instalaciones deportivas",
          "_links": {
            "self": {
              "name": "Instalaciones deportivas",
              "href": "https://api.euskadi.eus/procurements/companies/economic-activities/1.967.1"
            }
          }
        }
      ],
      "certificateStartDate": "2024-09-15",
      "certificateEndDate": "2025-03-15",
      "object": "-PRESTACIÓN DE SERVICIOS RELACIONADOS CON LOS DEPORTES DE AVENTURA, TURISMO RURAL Y TURISMO ACTIVO. -LOS SERVICIOS DE RESTAURACIÓN, COMERCIO Y HOSPEDAJE. -COMERCIO Y SERVICIO DE TODO TIPO DE BEBIDAS Y PRODUCTOS ALIMENTICIOS, ASÍ COMO DE TABACO. -COMERCIO AL POR MENOR DE ARTÍCULOS DE REGALO, ADORNO O RECLAMO. -OBRAS DE CARÁCTER MEDIO AMBIENTAL COMO EL ACONDICIONAMIENTO DE TERRENOS, RESTAURACIÓN Y TRATAMIENTO DE LA VEGETACIÓN, ESTABILIZACIÓN DE TALUDES, RESTAURACIÓN DE RÍOS, LIMPIEZAS, DESCONTAMINACIÓN DE SUELOS. -OBRAS FORESTALES: PLANTACIÓN, TRATAMIENTOS SELVÍCOLAS, CERRAMIENTOS, APROVECHAMIENTOS, DESLINDE Y AMOJONAMIENTO DE TERRENOS. -TODO TIPO DE CONSTRUCCIONES RURALES, COMO SON EDIFICACIONES, CAMINOS, CIERRES. -CREACIÓN Y MANTENIMIENTO DE JARDINES Y ESPACIOS VERDES. OBRAS DE ADECUACIÓN PARA EL USO PÚBLICO. -MANEJO Y CONTROL DE FAUNA SILVESTRE O DOMÉSTICA. -ACUICULTURA Y PISCICULTURA. -PRESTACIÓN DE SERVICIOS PROPIOS DE LAS AGENCIAS DE VIAJES, EN EL QUE SE INCLUYE LA GESTIÓN PARA EL TRANSPORTE, ALOJAMIENTO Y/O ALIMENTACIÓN DE VIAJEROS. -ORGANIZACIÓN DE CONGRESOS, EVENTOS DEPORTIVOS Y CULTURALES, ORGANIZACIÓN Y CELEBRACIÓN DE APUESTAS DEPORTIVAS, LOTERÍAS Y OTROS JUEGOS. -SERVICIOS RELACIONADOS CON LOS PARQUES DE RECREO, FERIAS Y OTROS RELACIONADOS CON EL ESPECTÁCULO. -SERVICIOS DE INTERMEDIACIÓN COMERCIAL. -CONSTRUCCIÓN COMPLETA, REPARACIÓN Y CONSERVACIÓN DE OBRAS CIVILES Y DE TODO TIPO EDIFICACIONES, DEMOLICIONES Y DERRIBOS EN GENERAL, CONSOLIDACIÓN DE TERRENOS, SISTEMAS DE AGOTAMIENTO Y DRAGADOS, CIMENTACIONES Y PAVIMENTACIONES. -PROMOCIÓN DE TERRENOS Y EDIFICACIONES. -SERVICIOS TÉCNICOS MEDIOAMBIENTALES, ELABORACIÓN DE INFORMES Y PERITAJES. -EDICIÓN DE PUBLICACIONES DE CARÁCTER AMBIENTAL. -SERVICIOS TOPOGRÁFICOS. -EDUCACIÓN AMBIENTAL Y VOLUNTARIADO AMBIENTAL",
      "mainEntityOfPage": "https://www.contratacion.euskadi.eus/webkpe00-kperoc/es/ac71aBusquedaRegistrosWar/empresa/07278",
      "_links": {
        "self": {
          "name": "LANDA TRABAJOS Y DESARROLLOS AMBIENTALES, S.L.",
          "href": "https://api.euskadi.eus/procurements/companies/07278"
        }
      }
    },
    {
      "name": "INGECONSUL, S.L.",
      "registrationNumber": "05648",
      "identificationNumber": "B39034947",
      "address": "CANALEJAS, 76-78 BAJO",
      "location": {
        "postalCode": "39004",
        "municipality": "Santander",
        "county": "Cantabria",
        "municipalityId": "075",
        "countyId": "39"
      },
      "economicActivities": [
        {
          "id": "1.843.1",
          "name": "Servicios técnicos de ingeniería",
          "_links": {
            "self": {
              "name": "Servicios técnicos de ingeniería",
              "href": "https://api.euskadi.eus/procurements/companies/economic-activities/1.843.1"
            }
          }
        }
      ],
      "certificateStartDate": "2024-09-15",
      "certificateEndDate": "2025-03-15",
      "object": "LA REDACCIÓN Y REALIZACIÓN DE PROYECTOS, CIVILES O INDUSTRIALES, DIRECCIONES DE OBRAS, GESTIÓN DE CONTRATOS, ASESORÍA TÉCNICO-ECONÓMICA, Y LA REALIZACIÓN DE INFORMES, CERTIFICACIONES, PERITAJES, ASISTENCIA TÉCNICA A ORGANISMOS ESTATALES, REGIONALES, AUTONÓMICOS Y MUNICIPALES, TODO ELLO EN SU SENTIDO MAS AMPLIO. LA CONSTRUCCIÓN, DECORACIÓN, USO, ARRENDAMIENTO Y VENTA DE VIVIENDAS, LOCALES Y EDIFICIOS INDUSTRIALES, ASÍ COMO LA ADQUISICIÓN DE TERRENOS, SU PARCELACIÓN Y URBANIZACIÓN, USO, ARRENDAMIENTO Y VENTA DE LOS MISMOS, Y LA REALIZACIÓN DE TODO TIPO DE OBRAS",
      "mainEntityOfPage": "https://www.contratacion.euskadi.eus/webkpe00-kperoc/es/ac71aBusquedaRegistrosWar/empresa/05648",
      "_links": {
        "self": {
          "name": "INGECONSUL, S.L.",
          "href": "https://api.euskadi.eus/procurements/companies/05648"
        }
      }
    },
    {
      "name": "AUTORITAS CONSULTING, S.A.",
      "registrationNumber": "06903",
      "identificationNumber": "A96873070",
      "address": "C/Doctorr Manuel Candela 8, 2ª",
      "location": {
        "postalCode": "46021",
        "municipality": "València",
        "county": "Valencia/València",
        "municipalityId": "250",
        "countyId": "46"
      },
      "economicActivities": [
        {
          "id": "1.843.9",
          "name": "Otros servicios técnicos n.c.o.p",
          "_links": {
            "self": {
              "name": "Otros servicios técnicos n.c.o.p",
              "href": "https://api.euskadi.eus/procurements/companies/economic-activities/1.843.9"
            }
          }
        }
      ],
      "certificateStartDate": "2024-09-15",
      "certificateEndDate": "2025-03-15",
      "object": "1-LA PRESTACIÓN DE SERVICIOS DE CONSULTORÍA, ASESORÍA Y LA PRESTACIÓN DE TRABAJOS A EMPRESAS Y PARTICULARES, EN MATERIAS ECONÓMICA, CONTABLE, FISCAL, TRIBUTARIA, LABORAL, JURÍDICA Y LEGAL, ACTUANDO EN SU CASO COMO UNA SOCIEDAD DE INTERMEDIACIÓN QUE NO PROPORCIONARÁ DIRECTAMENTE LA PRESTACIÓN LA CUAL DESARROLLARÁ EL PROFESIONAL CORRESPONDIENTE, SIENDO LA SOCIEDAD UNA INTERMEDIARIA Y COORDINADORA DE LAS PRESTACIONES QUE SE REALICEN. 2-LA ORGANIZACIÓN, GESTIÓN, DIRECCIÓN Y PROMOCIÓN EMPRESARIAL. 3-LA DEFINICIÓN, DISEÑO, CONSTRUCCIÓN, EXPLOTACIÓN, COMERCIALIZACIÓN Y GESTIÓN EN EL ÁMBITO DE LAS TECNOLOGÍAS DE INFORMACIÓN, DE CUALQUIERA DE LAS ACTIVIDADES SIGUIENTES: A) CONSULTORÍA, ASESORAMIENTO, ANÁLISIS DE RENTABILIDAD, ANÁLISIS ORGANIZATIVO, ESTUDIOS DE FINANCIACIÓN Y DISEÑO. AUDITORÍAS DE CALIDAD. B) DESARROLLO, INTEGRACIÓN DE SISTEMAS, APLICACIONES Y SERVICIOS. INVESTIGACIÓN, FABRICACIÓN, ALQUILER, MANTENIMIENTO, INSTALACIÓN SUPERVISIÓN Y VENTA DE PRODUCTOS INFORMÁTICOS, HARDWARE Y SOFTWARE Y\nEQUIPOS ELECTRÓNICOS, INCLUIDOS LOS SERVICIOS Y ASESORAMIENTO INHERENTES A ESTA ACTIVIDAD. LA COMERCIALIZACIÓN, ALQUILER Y VENTA DE TERMINALES DE TELECOMUNICACIONES DE TELEFONÍA MÓVIL Y FIJA.\nC) DEFINICIÓN, ADQUISICIÓN, MANTENIMIENTO Y EXPLOTACIÓN DE LA INFRAESTRUCTURA INFORMÁTICA Y DE COMUNICACIONES INCLUYENDO REDES DE ORDENADORES Y CENTROS DE SERVICIO PARA CLIENTES. D)ELABORACIÓN DE LOS CONTENIDOS, MANTENIMIENTO Y EVOLUCIÓN TODOS Y CADA UNO DE LOS COMPONENTES DE LOS SISTEMAS DE INFORMACIÓN. PLANIFICACIÓN Y GESTIÓN DE LOS MENCIONADOS SISTEMAS. REPARACIÓN Y RESOLUCIÓN DE INCIDENCIAS DE CUALQUIER COMPONENTE DEL SISTEMA. ORGANIZACIÓN Y EJECUCIÓN DE LOS SERVICIOS DE ATENCIÓN A LOS USUARIOS. E) PRESTACIÓN DE SERVICIOS DE CARÁCTER TÉCNICO, ADMINISTRATIVO, COMERCIAL Y DE ASESORÍA EN MATERIA DE TELECOMUNICACIONES. F) INSTALACIÓN, OPERACIÓN Y MANTENIMIENTO DE REDES O DE ELEMENTOS Y/O COMPONENTES DE RED DE TELECOMUNICACIONES.\nG) SERVICIOS DE PROCESO, ALMACENAMIENTO, TRANSMISIÓN Y DIFUSIÓN DE DATOS, INCLUYENDO INVESTIGACIÓN Y DESARROLLO DE MARKETING. H) LA PRESTACIÓN DE SERVICIOS DE COMUNICACIÓN DE VOZ Y/O DATOS, LA PROVISIÓN DE LOS MEDIOS TÉCNICOS Y HUMANOS NECESARIOS PARA QUE LOS USUARIOS FINALES DE LAS REDES DE TELECOMUNICACIONES ACCEDAN Y TENGAN PRESENCIA EN INTERNET Y OTROS SERVICIOS DE VALOR AÑADIDO SOBRE REDES DE TELECOMUNICACIONES. I) LA REALIZACIÓN DE TRABAJOS TÉCNICOS PARA DISEÑAR, CONSTRUIR Y EJECUTAR LAS PRUEBAS QUE PERMITAN LA EVALUACIÓN DE UN PRODUCTO O SISTEMA, RESPECTO DE UNOS CRITERIOS Y MÉTODOS DE EVALUACIÓN, PARA DETERMINAR SU COMPORTAMIENTO ANTE LAS CARACTERÍSTICAS Y FUNCIONALIDADES QUE LE SEAN ATRIBUIDAS Y CERTIFICAR LOS RESULTADOS OBTENIDOS.\nJ) SERVICIOS Y SOLUCIONES DE NEGOCIO. K) LA CONTRATACIÓN DE LA REALIZACIÓN DE TODA CLASE DE OBRAS QUE TENGAN RELACIÓN DIRECTA O INDIRECTA CON LA INSTALACIÓN O EL MANTENIMIENTO DE LOS EQUIPOS ANTES MENCIONADOS.L) ACTIVIDADES DENTRO DEL CAMPO DE LAS TECNOLOGÍAS DE LA INFORMACIÓN Y LA COMUNICACIÓN. M) FORMACIÓN Y POSTERIOR RECICLAJE EN PROCESOS DE INFORMACIÓN Y CONSULTORÍA EN TODOS LOS CAMPOS DE NEGOCIO CITADOS. 4) TAREAS DE COMUNICACIÓN Y DIFUSIÓN DE INFORMACIÓN TANTO PARA ADMINISTRACIÓN PÚBLICA COMO EMPRESAS, TURISMO, EMPRENDEDURISMO, PROMOCIÓN ECONÓMICA, PROYECTOS DE INVESTIGACIÓN Y QUE COMPRENDE: A) DEFINICIÓN Y ANÁLISIS DE ESTRATEGIAS DE COMUNICACIÓN. B) CREACIÓN Y MEJORA DE IDENTIDADES DIGITALES, PLANIFICACIÓN Y ELABORACIÓN DE CONTENIDOS ASÍ COMO EN GESTIÓN ANALÍTICA, MARKETING Y PUBLICIDAD. C) EXPLOTACIÓN DE DATOS. D) CONCEPTUALIZACIÓN, DISEÑO Y PRODUCCIÓN DE IMÁGENES MULTIMEDIA Y LA GESTIÓN DE IMAGEN Y SONIDO. E) OTRAS TAREAS RELACIONADAS CON LA DIVULGACIÓN Y DINAMIZACIÓN DE LA COMUNICACIÓN",
      "mainEntityOfPage": "https://www.contratacion.euskadi.eus/webkpe00-kperoc/es/ac71aBusquedaRegistrosWar/empresa/06903",
      "_links": {
        "self": {
          "name": "AUTORITAS CONSULTING, S.A.",
          "href": "https://api.euskadi.eus/procurements/companies/06903"
        }
      }
    },
    {
      "name": "KEPA AROCENA DIEZ",
      "registrationNumber": "08707",
      "identificationNumber": "45663868J",
      "address": "C/Eloisa Artaza n 14, 2º dch-izq",
      "location": {
        "postalCode": "48630",
        "municipality": "Gorliz",
        "county": "Bizkaia",
        "municipalityId": "043",
        "countyId": "48"
      },
      "economicActivities": [
        {
          "id": "1.999",
          "name": "Otros servicios n.c.o.p",
          "_links": {
            "self": {
              "name": "Otros servicios n.c.o.p",
              "href": "https://api.euskadi.eus/procurements/companies/economic-activities/1.999"
            }
          }
        }
      ],
      "certificateStartDate": "2024-09-14",
      "certificateEndDate": "2025-03-14",
      "object": "ALQUILER DE EMBARCACIONES.",
      "mainEntityOfPage": "https://www.contratacion.euskadi.eus/webkpe00-kperoc/es/ac71aBusquedaRegistrosWar/empresa/08707",
      "_links": {
        "self": {
          "name": "KEPA AROCENA DIEZ",
          "href": "https://api.euskadi.eus/procurements/companies/08707"
        }
      }
    },
    {
      "name": "FRESENIUS MEDICA CARE ESPAÑA, S.A.U.",
      "registrationNumber": "02294",
      "identificationNumber": "A08834012",
      "address": "Ronda de Poniente, 8 Planta Baja. P.E. Euronova",
      "location": {
        "postalCode": "28760",
        "municipality": "Tres Cantos",
        "county": "Madrid",
        "municipalityId": "903",
        "countyId": "28"
      },
      "certificateStartDate": "2024-09-14",
      "certificateEndDate": "2025-03-12",
      "object": "LA COMERCIALIZACIÓN, ADMINISTRACIÓN, ARRIENDO NO FINANCIERO Y EXPLOTACIÓN BAJO CUALQUIERA DE LAS FORMAS ADMITIDAS EN DERECHO DE TODA CLASE DE BIENES INMUEBLES, YA SE TRATE DE FINCAS RÚSTICAS Y URBANAS,PISOS, APARTAMENTOS, LOCALES, NAVES INDUSTRIALES Y DEMÁS EDIFICACIONES, URBANIZACIÓN Y EDIFICACIÓN DE FINCAS DE CUALQUIER NATURALEZA, ACOGIÉNDOSE O NO  A LAS NORMAS CONTENIDAS EN LA LEGISLACIÓN ESPECIAL EN MATERIA DE VIVIENDAS PROTEGIDAS. LA COMERCIALIZACIÓN,, IMPORTACIÓN Y EXPORTACIÓN DE MAQUINARIA Y CUALQUIER OTRO TIPO DE MEDIO PRECISO PARA EL DIAGNÓSTICO Y TRATAMIENTO DE ENFERMEDADES MÉDICO QUIRÚRGICAS, ASÍ COMO LA PRESENTACIÓN DE SERVICIOS PARA SIMILARES FINES MÉDICOS Y DE INVESTIGACIÓN CIENTÍFICA EN GENERAL. LA COMERCIALIZACIÓN, ELABORACIÓN, IMPORTACIÓN, EXPORTACIÓN Y DISTRIBUCIÓN DE ESPECIALIDADES Y PRODUCTOS FARMACÉUTICOS, EN LA FORMA DISPUESTA POR LA LEGISLACIÓN VIGENTE. LA INSTALACIÓN Y EXPLOTACIÓN DE TRATAMIENTOS DE RIÑÓN ARTIFICIAL A BASE DE DIÁLISIS, ASÍ COMO LA COMPRA, IMPORTACIÓN, VENTA Y DISTRIBUCIÓN DE TODO TIPO DE PRODUCTOS MÉDICOS. ASÍ COMO TODA CLASE DE OPERACIONES COMERCIALES E INDUSTRIALES QUE SE REFIERAN DIRECTAMENTE A LAS ACTIVIDADES QUE CONSTITUYEN EL OBJETO SOCIAL",
      "mainEntityOfPage": "https://www.contratacion.euskadi.eus/webkpe00-kperoc/es/ac71aBusquedaRegistrosWar/empresa/02294",
      "_links": {
        "self": {
          "name": "FRESENIUS MEDICA CARE ESPAÑA, S.A.U.",
          "href": "https://api.euskadi.eus/procurements/companies/02294"
        }
      }
    },
    {
      "name": "MARTA ARANBARRI LAUCIRICA",
      "registrationNumber": "08762",
      "identificationNumber": "30609731C",
      "address": "Calle Untzillatx 5, 3B",
      "location": {
        "postalCode": "48200",
        "municipality": "Durango",
        "county": "Bizkaia",
        "municipalityId": "027",
        "countyId": "48"
      },
      "economicActivities": [
        {
          "id": "2.826",
          "name": "Personal docente de enseñanzas diversas",
          "_links": {
            "self": {
              "name": "Personal docente de enseñanzas diversas",
              "href": "https://api.euskadi.eus/procurements/companies/economic-activities/2.826"
            }
          }
        }
      ],
      "certificateStartDate": "2024-09-13",
      "certificateEndDate": "2025-03-13",
      "object": "PERSONAL DOCENTE DE ENSEÑANZAS DIVERSAS.",
      "mainEntityOfPage": "https://www.contratacion.euskadi.eus/webkpe00-kperoc/es/ac71aBusquedaRegistrosWar/empresa/08762",
      "_links": {
        "self": {
          "name": "MARTA ARANBARRI LAUCIRICA",
          "href": "https://api.euskadi.eus/procurements/companies/08762"
        }
      }
    },
    {
      "name": "LABORATORIO ALDO UNION, S.L.",
      "registrationNumber": "08474",
      "identificationNumber": "B58364795",
      "address": "BARONESA DE MALDA Nº73",
      "location": {
        "postalCode": "08950",
        "municipality": "Esplugues de Llobregat",
        "county": "Barcelona",
        "municipalityId": "077",
        "countyId": "08"
      },
      "economicActivities": [
        {
          "id": "1.254.2",
          "name": "Fabricación de especialidades y otros productos farmacéuticos",
          "_links": {
            "self": {
              "name": "Fabricación de especialidades y otros productos farmacéuticos",
              "href": "https://api.euskadi.eus/procurements/companies/economic-activities/1.254.2"
            }
          }
        },
        {
          "id": "1.861.1",
          "name": "Alquiler de viviendas",
          "_links": {
            "self": {
              "name": "Alquiler de viviendas",
              "href": "https://api.euskadi.eus/procurements/companies/economic-activities/1.861.1"
            }
          }
        },
        {
          "id": "1.861.2",
          "name": "Alquiler de locales industriales y otros alquileres n.c.o.p",
          "_links": {
            "self": {
              "name": "Alquiler de locales industriales y otros alquileres n.c.o.p",
              "href": "https://api.euskadi.eus/procurements/companies/economic-activities/1.861.2"
            }
          }
        }
      ],
      "certificateStartDate": "2024-09-13",
      "certificateEndDate": "2025-03-13",
      "object": "- LA FABRICACIÓN Y COMERCIALIZACIÓN DE ESPECIALIDADES FARMACÉUTICAS ( CNAE; 21.20) -- LA COMPRAVENTA DE BIENES INMOBILIARIOS POR CUENTA PROPIA ( CNAE 6810) - EL ALQUILER DE BIENES INMOBILIARIOS POR CUENTA PROPIA ( CNAE 6820)",
      "mainEntityOfPage": "https://www.contratacion.euskadi.eus/webkpe00-kperoc/es/ac71aBusquedaRegistrosWar/empresa/08474",
      "_links": {
        "self": {
          "name": "LABORATORIO ALDO UNION, S.L.",
          "href": "https://api.euskadi.eus/procurements/companies/08474"
        }
      }
    },
    {
      "name": "ULUWATU S. COOP. PEQUEÑA",
      "registrationNumber": "09246",
      "identificationNumber": "F42792135",
      "address": "calle Fernando Jimenez 11, 4oD",
      "location": {
        "postalCode": "48004",
        "municipality": "Bilbao",
        "county": "Bizkaia",
        "municipalityId": "020",
        "countyId": "48"
      },
      "economicActivities": [
        {
          "id": "1.934",
          "name": "Enseñanza fuera de establecimiento permanente",
          "_links": {
            "self": {
              "name": "Enseñanza fuera de establecimiento permanente",
              "href": "https://api.euskadi.eus/procurements/companies/economic-activities/1.934"
            }
          }
        },
        {
          "id": "1.965.3",
          "name": "Espectáculos fuera de establecimiento permanente (excepto los taurinos)",
          "_links": {
            "self": {
              "name": "Espectáculos fuera de establecimiento permanente (excepto los taurinos)",
              "href": "https://api.euskadi.eus/procurements/companies/economic-activities/1.965.3"
            }
          }
        },
        {
          "id": "1.967.2",
          "name": "Escuelas y servicios de perfeccionamiento del deporte",
          "_links": {
            "self": {
              "name": "Escuelas y servicios de perfeccionamiento del deporte",
              "href": "https://api.euskadi.eus/procurements/companies/economic-activities/1.967.2"
            }
          }
        }
      ],
      "certificateStartDate": "2024-09-12",
      "certificateEndDate": "2025-03-12",
      "object": "EL OBJETO ES EL DESARROLLO E IMPLEMENTACIÓN DE PROGRAMAS EDUCATIVOS RELACIONADOS CON LA PRESERVACIÓN Y CONCIENCIACIÓN MEDIOAMBIENTAL, ASÍ COMO EN RELACIÓN A LA AGENDA 2030 Y ODS. TAMBIÉN LA GESTIÓN DE ACTIVIDADES DE TURISMO ACTIVO, DEPORTE Y MULTIAVENTURA, SOBRE TODO EL PIRAGÜISMO. LA COOPERATIVA TAMBIÉN ORGANIZA EVENTOS Y PROGRAMAS EDUCATIVOS RELACIONADOS CON LAS NUEVAS TECNOLOGÍAS Y VIDEOJUEGOS.",
      "mainEntityOfPage": "https://www.contratacion.euskadi.eus/webkpe00-kperoc/es/ac71aBusquedaRegistrosWar/empresa/09246",
      "_links": {
        "self": {
          "name": "ULUWATU S. COOP. PEQUEÑA",
          "href": "https://api.euskadi.eus/procurements/companies/09246"
        }
      }
    }
  ]
}