{
  "totalItems": 9042,
  "totalPages": 905,
  "currentPage": 87,
  "itemsOfPage": 10,
  "items": [
    {
      "name": "HEZTEN-AISIALDI EUSKALTZALEA",
      "registrationNumber": "05805",
      "identificationNumber": "G20538997",
      "address": "C. Mundaiz 8, 2 E",
      "location": {
        "postalCode": "20012",
        "municipality": "Donostia / San Sebastián",
        "county": "Gipuzkoa",
        "municipalityId": "069",
        "countyId": "20"
      },
      "economicActivities": [
        {
          "id": "1.966.9",
          "name": "Otros servicios culturales n.c.o.p",
          "_links": {
            "self": {
              "name": "Otros servicios culturales n.c.o.p",
              "href": "https://api.euskadi.eus/procurements/companies/economic-activities/1.966.9"
            }
          }
        }
      ],
      "certificateStartDate": "2026-01-13",
      "certificateEndDate": "2026-06-22",
      "object": "IKASTARO, MINTEGI ETA JARDUNALDIAK ANTOLAKUNTZA. HAUR ETA GAZTEEI ZUZENDURIKO AISIALDIKO EKINTZA ANTOLATUAK: AISIALDIRAKO EKIPAMENDU ZEHATZAK, GAZTE ATERPEAK, UDALEKUAK, KANPALDIAK, ELKARTRUKEAK, AUZOLANDEGIAK, HIZKUNTZA EGONALDIAK,...LIBURUAK, LIBURUXKA, DOSIERRAK, IKERKETAK, ETA ALDIZKARIEN ARGITALPENAK. EUSKARRI MULTIMEDIAK: CD-ROMAK, DVDAK ETA WEB GUNEEN SORKUNTZA ETA MANTENUA. JOSTAILUAK ETA BALIABIDE LUDIKOEN EKOIZPENA",
      "mainEntityOfPage": "https://www.contratacion.euskadi.eus/webkpe00-kperoc/es/ac71aBusquedaRegistrosWar/empresa/05805",
      "_links": {
        "self": {
          "name": "HEZTEN-AISIALDI EUSKALTZALEA",
          "href": "https://api.euskadi.eus/procurements/companies/05805"
        }
      }
    },
    {
      "name": "TRUPP PUBLICIDAD, S.A.",
      "registrationNumber": "02596",
      "identificationNumber": "A48969158",
      "address": "ALAMEDA MAZARREDO, 20 - 1º",
      "location": {
        "postalCode": "48009",
        "municipality": "Bilbao",
        "county": "Bizkaia",
        "municipalityId": "020",
        "countyId": "48"
      },
      "economicActivities": [
        {
          "id": "1.844",
          "name": "Servicios de publicidad, relaciones públicas y similares",
          "_links": {
            "self": {
              "name": "Servicios de publicidad, relaciones públicas y similares",
              "href": "https://api.euskadi.eus/procurements/companies/economic-activities/1.844"
            }
          }
        }
      ],
      "certificateStartDate": "2026-01-13",
      "certificateEndDate": "2026-06-26",
      "classification": [
        {
          "id": "S",
          "name": "Servicios",
          "groups": [
            {
              "id": "T",
              "subgroups": [
                {
                  "id": "01",
                  "name": "Servicios de publicidad",
                  "categories": [
                    {
                      "id": "5",
                      "name": "Mas de 1.200.000",
                      "_links": {
                        "self": {
                          "name": "Mas de 1.200.000",
                          "href": "https://api.euskadi.eus/procurements/companies/types/S/categories/5"
                        }
                      }
                    }
                  ],
                  "_links": {
                    "self": {
                      "name": "Servicios de publicidad",
                      "href": "https://api.euskadi.eus/procurements/companies/types/S/groups/T/subgroups/01"
                    }
                  }
                }
              ],
              "_links": {
                "self": {
                  "href": "https://api.euskadi.eus/procurements/companies/types/S/groups/T"
                }
              }
            }
          ],
          "_links": {
            "self": {
              "name": "Servicios",
              "href": "https://api.euskadi.eus/procurements/companies/types/S"
            }
          }
        }
      ],
      "object": "LA REALIZACIÓN Y PRESTACIÓN DE TODO TIPO DE SERVICIOS SUSCEPTIBLES DE SER EFECTUADOS POR UNA AGENCIA DE PUBLICIDAD GENERAL, ASÍ COMO TODOS AQUELLOS RELACIONADOS CON EL SECTOR DE LA PUBLICIDAD Y LA COMUNICACIÓN",
      "mainEntityOfPage": "https://www.contratacion.euskadi.eus/webkpe00-kperoc/es/ac71aBusquedaRegistrosWar/empresa/02596",
      "_links": {
        "self": {
          "name": "TRUPP PUBLICIDAD, S.A.",
          "href": "https://api.euskadi.eus/procurements/companies/02596"
        }
      }
    },
    {
      "name": "JOSALPE PROPERTIES, S. L.",
      "registrationNumber": "10291",
      "identificationNumber": "B01428093",
      "address": "Calle Artapadura",
      "location": {
        "postalCode": "01013",
        "municipality": "Vitoria-Gasteiz",
        "county": "Araba/Álava",
        "municipalityId": "059",
        "countyId": "01"
      },
      "economicActivities": [
        {
          "id": "1.503.2",
          "name": "Preparación y montaje de estructuras y cubiertas en obras civiles",
          "_links": {
            "self": {
              "name": "Preparación y montaje de estructuras y cubiertas en obras civiles",
              "href": "https://api.euskadi.eus/procurements/companies/economic-activities/1.503.2"
            }
          }
        },
        {
          "id": "1.615.4",
          "name": "Venta al por mayor de aparatos y material radioeléctrico y electrónico",
          "_links": {
            "self": {
              "name": "Venta al por mayor de aparatos y material radioeléctrico y electrónico",
              "href": "https://api.euskadi.eus/procurements/companies/economic-activities/1.615.4"
            }
          }
        }
      ],
      "certificateStartDate": "2026-01-13",
      "certificateEndDate": "2026-06-27",
      "object": "COMPRAVENTA, ARRENDAMIENTO, URBANIZACIÓN, REHABILITACIÓN, ORDENACIÓN, REPARCELACIÓN, APORTACIÓN Y PERMUTA, DE TODO TIPO DE TERRENOS Y EDIFICACIONES, ASÍ COMO LA PROMOCIÓN Y CONSTRUCCIÓN SOBRE LOS MISMOS. DISEÑO, CONSTRUCCIÓN Y EXPLOTACIÓN, COMPRA Y VENTA, DE TODO TIPO DE PISTAS DEPORTIVAS. ARBITRAJE DE TODO TIPO DE EVENTOS DEPORTIVOS, A TRAVÉS DE LOS PROFESIONALES FEDERADOS, HABILITADOS AL EFECTO. PATROCINIO DE TODO TIPO DE EVENTOS DEPORTIVOS.",
      "mainEntityOfPage": "https://www.contratacion.euskadi.eus/webkpe00-kperoc/es/ac71aBusquedaRegistrosWar/empresa/10291",
      "_links": {
        "self": {
          "name": "JOSALPE PROPERTIES, S. L.",
          "href": "https://api.euskadi.eus/procurements/companies/10291"
        }
      }
    },
    {
      "name": "NEO INSTALACIONES DEPORTIVAS, S.L.",
      "registrationNumber": "09956",
      "identificationNumber": "B56681372",
      "address": "C/ ZUATZU, 9 EDIFICIO EUROPA, 3ª PLANTA, 2ª PUERTA 20018 DONOSTIA SAN SEBASTIAN",
      "location": {
        "postalCode": "20018",
        "municipality": "Donostia / San Sebastián",
        "county": "Gipuzkoa",
        "municipalityId": "069",
        "countyId": "20"
      },
      "economicActivities": [
        {
          "id": "1.967.1",
          "name": "Instalaciones deportivas",
          "_links": {
            "self": {
              "name": "Instalaciones deportivas",
              "href": "https://api.euskadi.eus/procurements/companies/economic-activities/1.967.1"
            }
          }
        }
      ],
      "certificateStartDate": "2026-01-13",
      "certificateEndDate": "2026-06-08",
      "object": "ACTIVIDAD PRINCIPAL: 93.11 / GESTIÓN DE INSTALACIONES DEPORTIVAS. OTRAS ACTIVIDADES: 77.21 / ALQUILER DE ARTÍCULOS DE OCIO Y DEPORTIVOS, 68.32 / GESTIÓN Y ADMINISTRACIÓN DE LA PROPIEDAD INMOBILIARIA, 85.51 / EDUCACIÓN DEPORTIVA Y RECREATIVA, 73.20 / ESTUDIOS DE MERCADO Y REALIZACIÓN DE ENCUESTAS DE OPINIÓN PÚBLICA, 47.64 / COMERCIO AL POR MENOR DE ARTÍCULOS DEPORTIVOS EN ESTABLECIMIENTOS ESPECIALIZADOS, 46.49 / COMERCIO AL POR MAYOR DE OTROS ARTÍCULOS DE USO DOMÉSTICO, 93.13 / ACTIVIDADES DE LOS GIMNASIOS, 77.29 / ALQUILER DE OTROS EFECTOS PERSONALES Y ARTÍCULOS DE USO DOMÉSTICO, 90.01 / ARTES ESCÉNICAS, 85.52 / EDUCACIÓN CULTURAL, 90.04 / GESTIÓN DE SALAS DE ESPECTÁCULOS, 85.59 / OTRA EDUCACIÓN, 93.19 / OTRAS ACTIVIDADES DEPORTIVAS, 77.39 / ALQUILER DE OTRA MAQUINARIA, EQUIPOS Y BIENES TANGIBLES, 79.90 / OTROS SERVICIOS DE RESERVAS Y ACTIVIDADES RELACIONADAS CON LOS MISMOS, 93.29 / OTRAS ACTIVIDADES RECREATIVAS Y DE ENTRETENIMIENTO, 68.31 / AGENTES DE LA PROPIEDAD INMOBILIARIA, 68.20 / ALQUILER DE BIENES INMOBILIARIOS POR CUENTA PROPIA, 90.02 / ACTIVIDADES AUXILIARES A LAS ARTES ESCÉNICAS, 70.10 / ACTIVIDADES DE LAS SEDES CENTRALES, 64.20 / ACTIVIDADES DE LAS SOCIEDADES HOLDING, 70.22 / OTRAS ACTIVIDADES DE CONSULTORÍA DE GESTIÓN EMPRESARIAL, 68.10 / COMPRAVENTA DE BIENES INMOBILIARIOS POR CUENTA PROPIA, 90.03 / CREACIÓN ARTÍSTICA Y LITERARIA.",
      "mainEntityOfPage": "https://www.contratacion.euskadi.eus/webkpe00-kperoc/es/ac71aBusquedaRegistrosWar/empresa/09956",
      "_links": {
        "self": {
          "name": "NEO INSTALACIONES DEPORTIVAS, S.L.",
          "href": "https://api.euskadi.eus/procurements/companies/09956"
        }
      }
    },
    {
      "name": "AINTEK XXI TECNOLOGIAS, S.L.",
      "registrationNumber": "07646",
      "identificationNumber": "B95603965",
      "address": "C/ Negurigane 12 - 1º C",
      "location": {
        "postalCode": "48940",
        "municipality": "Leioa",
        "county": "Bizkaia",
        "municipalityId": "054",
        "countyId": "48"
      },
      "economicActivities": [
        {
          "id": "1.847",
          "name": "Servicios de consultoría",
          "_links": {
            "self": {
              "name": "Servicios de consultoría",
              "href": "https://api.euskadi.eus/procurements/companies/economic-activities/1.847"
            }
          }
        }
      ],
      "certificateStartDate": "2026-01-13",
      "certificateEndDate": "2026-06-20",
      "object": "LA PRESTACIÓN DE CONSULTORÍA Y APOYO A LAS EMPRESAS EN EL ÁMBITO DE LA ORGANIZACIÓN Y PROYECTOS RELACIONADOS CON LAS TECNOLOGÍAS DE LA INFORMACIÓN Y DEL CONOCIMIENTO",
      "mainEntityOfPage": "https://www.contratacion.euskadi.eus/webkpe00-kperoc/es/ac71aBusquedaRegistrosWar/empresa/07646",
      "_links": {
        "self": {
          "name": "AINTEK XXI TECNOLOGIAS, S.L.",
          "href": "https://api.euskadi.eus/procurements/companies/07646"
        }
      }
    },
    {
      "name": "VECTALIA TOURS, S.L.",
      "registrationNumber": "04836",
      "identificationNumber": "B48086136",
      "address": "CALLE IBARRA, 10",
      "location": {
        "postalCode": "48300",
        "municipality": "Gernika-Lumo",
        "county": "Bizkaia",
        "municipalityId": "046",
        "countyId": "48"
      },
      "economicActivities": [
        {
          "id": "1.721.3",
          "name": "Transporte de viajeros por carretera",
          "_links": {
            "self": {
              "name": "Transporte de viajeros por carretera",
              "href": "https://api.euskadi.eus/procurements/companies/economic-activities/1.721.3"
            }
          }
        }
      ],
      "certificateStartDate": "2026-01-13",
      "certificateEndDate": "2026-06-22",
      "classification": [
        {
          "id": "S",
          "name": "Servicios",
          "groups": [
            {
              "id": "R",
              "subgroups": [
                {
                  "id": "01",
                  "name": "Transporte de viajeros por carretera",
                  "categories": [
                    {
                      "id": "5",
                      "name": "Mas de 1.200.000",
                      "_links": {
                        "self": {
                          "name": "Mas de 1.200.000",
                          "href": "https://api.euskadi.eus/procurements/companies/types/S/categories/5"
                        }
                      }
                    }
                  ],
                  "_links": {
                    "self": {
                      "name": "Transporte de viajeros por carretera",
                      "href": "https://api.euskadi.eus/procurements/companies/types/S/groups/R/subgroups/01"
                    }
                  }
                }
              ],
              "_links": {
                "self": {
                  "href": "https://api.euskadi.eus/procurements/companies/types/S/groups/R"
                }
              }
            }
          ],
          "_links": {
            "self": {
              "name": "Servicios",
              "href": "https://api.euskadi.eus/procurements/companies/types/S"
            }
          }
        }
      ],
      "object": "TRANSPORTE DE VIAJEROS POR CARRETERA",
      "mainEntityOfPage": "https://www.contratacion.euskadi.eus/webkpe00-kperoc/es/ac71aBusquedaRegistrosWar/empresa/04836",
      "_links": {
        "self": {
          "name": "VECTALIA TOURS, S.L.",
          "href": "https://api.euskadi.eus/procurements/companies/04836"
        }
      }
    },
    {
      "name": "IÑIGO PEÑALBA ARRIBAS",
      "registrationNumber": "09432",
      "identificationNumber": "72504716E",
      "address": "Portuetxe, 63-3A",
      "location": {
        "postalCode": "20018",
        "municipality": "Donostia / San Sebastián",
        "county": "Gipuzkoa",
        "municipalityId": "069",
        "countyId": "20"
      },
      "economicActivities": [
        {
          "id": "1.861.2",
          "name": "Alquiler de locales industriales y otros alquileres n.c.o.p",
          "_links": {
            "self": {
              "name": "Alquiler de locales industriales y otros alquileres n.c.o.p",
              "href": "https://api.euskadi.eus/procurements/companies/economic-activities/1.861.2"
            }
          }
        },
        {
          "id": "2.411",
          "name": "Arquitectos",
          "_links": {
            "self": {
              "name": "Arquitectos",
              "href": "https://api.euskadi.eus/procurements/companies/economic-activities/2.411"
            }
          }
        }
      ],
      "certificateStartDate": "2026-01-13",
      "certificateEndDate": "2026-06-18",
      "object": "ARQUITECTOS.",
      "mainEntityOfPage": "https://www.contratacion.euskadi.eus/webkpe00-kperoc/es/ac71aBusquedaRegistrosWar/empresa/09432",
      "_links": {
        "self": {
          "name": "IÑIGO PEÑALBA ARRIBAS",
          "href": "https://api.euskadi.eus/procurements/companies/09432"
        }
      }
    },
    {
      "name": "SISTEMAS PARA LA HIGIENE Y CONTROL DE PLAGAS, S.L.",
      "registrationNumber": "03513",
      "identificationNumber": "B47509864",
      "address": "C/ BEURKO VIEJO Nº 3 PAB 34",
      "location": {
        "postalCode": "48902",
        "municipality": "Barakaldo",
        "county": "Bizkaia",
        "municipalityId": "013",
        "countyId": "48"
      },
      "economicActivities": [
        {
          "id": "1.921.3",
          "name": "Exterminio de animales dañinos y desinfección",
          "_links": {
            "self": {
              "name": "Exterminio de animales dañinos y desinfección",
              "href": "https://api.euskadi.eus/procurements/companies/economic-activities/1.921.3"
            }
          }
        }
      ],
      "certificateStartDate": "2026-01-13",
      "certificateEndDate": "2026-06-07",
      "object": "LIMPIEZA, DESINFECCIÓN, DESINFECTACIÓN Y DESRATIZACIÓN. CONSTRUCCIÓN, RESTAURACIÓN Y REHABILITACIÓN DE EDIFICIOS Y LOCALES, PROYECTOS DE IMPLANTACIÓN DE PARQUES Y JARDINES, CONTRATACIÓN DE MANTENIMIENTO INTEGRAL. PROTECCIÓN CONTRA EL FUEGO Y TRATAMIENTO DE LA MADERA. COMERCIALIZACIÓN DE PRODUCTOS Y MAQUINARIA AFINES. COMPRA-VENTA, ALMACENAMIENTO, DEPÓSITO, DISTRIBUCIÓN, IMPORTACIÓN, EXPORTACIÓN DE TODA CLASE DE MERCANCÍAS, PRODUCTOS, ARTÍCULOS Y MATERIALES DE TODA CLASE Y EN GENERAL DE BIENES MUEBLES. TODO CUANTO ESTÉ RELACIONADO O SEA AFÍN, CONSECUENTE O ANTECEDENTE O ADICIONAL DE LOS OBJETOS INDICADOS PRECEDENTEMENTE",
      "mainEntityOfPage": "https://www.contratacion.euskadi.eus/webkpe00-kperoc/es/ac71aBusquedaRegistrosWar/empresa/03513",
      "_links": {
        "self": {
          "name": "SISTEMAS PARA LA HIGIENE Y CONTROL DE PLAGAS, S.L.",
          "href": "https://api.euskadi.eus/procurements/companies/03513"
        }
      }
    },
    {
      "name": "PLANTACIONES ORTEGAL S.L.",
      "registrationNumber": "04597",
      "identificationNumber": "B95188108",
      "address": "TXORI ERREKA, 32-5º IZDA.",
      "location": {
        "postalCode": "48700",
        "municipality": "Ondarroa",
        "county": "Bizkaia",
        "municipalityId": "073",
        "countyId": "48"
      },
      "economicActivities": [
        {
          "id": "1.912",
          "name": "Servicios forestales",
          "_links": {
            "self": {
              "name": "Servicios forestales",
              "href": "https://api.euskadi.eus/procurements/companies/economic-activities/1.912"
            }
          }
        }
      ],
      "certificateStartDate": "2026-01-13",
      "certificateEndDate": "2026-06-20",
      "classification": [
        {
          "id": "S",
          "name": "Servicios",
          "groups": [
            {
              "id": "O",
              "subgroups": [
                {
                  "id": "06",
                  "name": "Conservación y mantenimiento de montes y jardines",
                  "categories": [
                    {
                      "id": "2",
                      "name": "Desde 150.001 Hasta 300.000",
                      "_links": {
                        "self": {
                          "name": "Desde 150.001 Hasta 300.000",
                          "href": "https://api.euskadi.eus/procurements/companies/types/S/categories/2"
                        }
                      }
                    }
                  ],
                  "_links": {
                    "self": {
                      "name": "Conservación y mantenimiento de montes y jardines",
                      "href": "https://api.euskadi.eus/procurements/companies/types/S/groups/O/subgroups/06"
                    }
                  }
                }
              ],
              "_links": {
                "self": {
                  "href": "https://api.euskadi.eus/procurements/companies/types/S/groups/O"
                }
              }
            }
          ],
          "_links": {
            "self": {
              "name": "Servicios",
              "href": "https://api.euskadi.eus/procurements/companies/types/S"
            }
          }
        }
      ],
      "object": "LA EXPLOTACIÓN DE UN NEGOCIO DE TALA, LIMPIEZA Y REPROBLACIÓN DE BOSQUES, ASÍ COMO LA PRESTACIÓN DE TODA CLASE DE SERVICIOS A TITULARES DE EXPLOTACIONES FORESTALES, TALES COMO LUCHA CONTRA PLAGAS, DEFENSA CONTRA INCENDIOS",
      "mainEntityOfPage": "https://www.contratacion.euskadi.eus/webkpe00-kperoc/es/ac71aBusquedaRegistrosWar/empresa/04597",
      "_links": {
        "self": {
          "name": "PLANTACIONES ORTEGAL S.L.",
          "href": "https://api.euskadi.eus/procurements/companies/04597"
        }
      }
    },
    {
      "name": "SEGURILIGHT SEÑALIZACION S.L.L.",
      "registrationNumber": "08222",
      "identificationNumber": "B01377308",
      "address": "P.I. LANDABASO B 7-16",
      "location": {
        "postalCode": "48370",
        "municipality": "Bermeo",
        "county": "Bizkaia",
        "municipalityId": "017",
        "countyId": "48"
      },
      "economicActivities": [
        {
          "id": "1.474",
          "name": "Artes gráficas (impresión gráfica)",
          "_links": {
            "self": {
              "name": "Artes gráficas (impresión gráfica)",
              "href": "https://api.euskadi.eus/procurements/companies/economic-activities/1.474"
            }
          }
        }
      ],
      "certificateStartDate": "2026-01-13",
      "certificateEndDate": "2026-06-18",
      "object": "LA FABRICACIÓN, COMERCIALIZACIÓN, DISTRIBUCIÓN E INSTALACIÓN DE SEÑALIZACIÓN Y ROTULACIÓN EN GENERAL, INCLUYENDO EQUIPOS ELÉCTRICOS Y ELECTRÓNICOS Y, EN ESPECIAL, SEÑALIZACIÓN DE EVACUACIÓN, EMERGENCIA Y RIESGOS LABORALES, BALIZAMIENTO Y SISTEMAS DE GUIA FOTOLUMINISCENTE (VISIBLE EN LA OSCURIDAD) APLICADO AL CAMPO DE LA SEGURIDAD.",
      "mainEntityOfPage": "https://www.contratacion.euskadi.eus/webkpe00-kperoc/es/ac71aBusquedaRegistrosWar/empresa/08222",
      "_links": {
        "self": {
          "name": "SEGURILIGHT SEÑALIZACION S.L.L.",
          "href": "https://api.euskadi.eus/procurements/companies/08222"
        }
      }
    }
  ]
}