{
  "totalItems": 9042,
  "totalPages": 905,
  "currentPage": 862,
  "itemsOfPage": 10,
  "items": [
    {
      "name": "ROMEL AUGUSTO CHAMBA CAILLAGUA",
      "registrationNumber": "04055",
      "identificationNumber": "78999859B",
      "address": "BARO APERRIBAI, 27-3",
      "location": {
        "postalCode": "48960",
        "municipality": "Galdakao",
        "county": "Bizkaia",
        "municipalityId": "036",
        "countyId": "48"
      },
      "object": "pte",
      "mainEntityOfPage": "https://www.contratacion.euskadi.eus/webkpe00-kperoc/es/ac71aBusquedaRegistrosWar/empresa/04055",
      "_links": {
        "self": {
          "name": "ROMEL AUGUSTO CHAMBA CAILLAGUA",
          "href": "https://api.euskadi.eus/procurements/companies/04055"
        }
      }
    },
    {
      "name": "IHARDUN MULTIMEDIA, S.COOP.",
      "registrationNumber": "04056",
      "identificationNumber": "F20601431",
      "address": "LORAMENDI KALEA, 11",
      "location": {
        "postalCode": "20500",
        "municipality": "Arrasate / Mondragón",
        "county": "Gipuzkoa",
        "municipalityId": "055",
        "countyId": "20"
      },
      "object": "pte.",
      "mainEntityOfPage": "https://www.contratacion.euskadi.eus/webkpe00-kperoc/es/ac71aBusquedaRegistrosWar/empresa/04056",
      "_links": {
        "self": {
          "name": "IHARDUN MULTIMEDIA, S.COOP.",
          "href": "https://api.euskadi.eus/procurements/companies/04056"
        }
      }
    },
    {
      "name": "PLASTICOS SAYLAN, S.L.",
      "registrationNumber": "04058",
      "identificationNumber": "B95038493",
      "address": "POL.IND. UGALDEGUREN I, NAVE 2 B",
      "location": {
        "postalCode": "48160",
        "municipality": "Derio",
        "county": "Bizkaia",
        "municipalityId": "901",
        "countyId": "48"
      },
      "object": "pte",
      "mainEntityOfPage": "https://www.contratacion.euskadi.eus/webkpe00-kperoc/es/ac71aBusquedaRegistrosWar/empresa/04058",
      "_links": {
        "self": {
          "name": "PLASTICOS SAYLAN, S.L.",
          "href": "https://api.euskadi.eus/procurements/companies/04058"
        }
      }
    },
    {
      "name": "SUPPERSTUDIO, S.L.L.",
      "registrationNumber": "04095",
      "identificationNumber": "B9547557",
      "address": "C/ANDRÉS ISASI, 11-2º",
      "location": {
        "postalCode": "48012",
        "municipality": "Bilbao",
        "county": "Bizkaia",
        "municipalityId": "020",
        "countyId": "48"
      },
      "object": ".",
      "mainEntityOfPage": "https://www.contratacion.euskadi.eus/webkpe00-kperoc/es/ac71aBusquedaRegistrosWar/empresa/04095",
      "_links": {
        "self": {
          "name": "SUPPERSTUDIO, S.L.L.",
          "href": "https://api.euskadi.eus/procurements/companies/04095"
        }
      }
    },
    {
      "name": "LANKARI, S.L.",
      "registrationNumber": "04115",
      "identificationNumber": "B48237853",
      "address": "POL.INDUS.TORRELARRAGOITI, PARCELA P-7B LOCAL 7",
      "location": {
        "postalCode": "48170",
        "municipality": "Zamudio",
        "county": "Bizkaia",
        "municipalityId": "905",
        "countyId": "48"
      },
      "object": "pte.",
      "mainEntityOfPage": "https://www.contratacion.euskadi.eus/webkpe00-kperoc/es/ac71aBusquedaRegistrosWar/empresa/04115",
      "_links": {
        "self": {
          "name": "LANKARI, S.L.",
          "href": "https://api.euskadi.eus/procurements/companies/04115"
        }
      }
    },
    {
      "name": "PENNY NORTE, S.L.",
      "registrationNumber": "04215",
      "identificationNumber": "B95536769",
      "address": "SABINO ARANA, 66- LOCAL B",
      "location": {
        "postalCode": "48640",
        "municipality": "Bilbao",
        "county": "Bizkaia",
        "municipalityId": "020",
        "countyId": "48"
      },
      "object": ".",
      "mainEntityOfPage": "https://www.contratacion.euskadi.eus/webkpe00-kperoc/es/ac71aBusquedaRegistrosWar/empresa/04215",
      "_links": {
        "self": {
          "name": "PENNY NORTE, S.L.",
          "href": "https://api.euskadi.eus/procurements/companies/04215"
        }
      }
    },
    {
      "name": "ZERUPEAN, S.L.",
      "registrationNumber": "04216",
      "identificationNumber": "B95333506",
      "address": "SABINO ARANA, 64.1º",
      "location": {
        "postalCode": "48640",
        "municipality": "Berango",
        "county": "Bizkaia",
        "municipalityId": "016",
        "countyId": "48"
      },
      "object": ".",
      "mainEntityOfPage": "https://www.contratacion.euskadi.eus/webkpe00-kperoc/es/ac71aBusquedaRegistrosWar/empresa/04216",
      "_links": {
        "self": {
          "name": "ZERUPEAN, S.L.",
          "href": "https://api.euskadi.eus/procurements/companies/04216"
        }
      }
    },
    {
      "name": "MANZARBEITIA BASOLANAK, S.L.",
      "registrationNumber": "04218",
      "identificationNumber": "B95191029",
      "address": "Bº URIGOITI. CASERIO ARANDIA, S/N",
      "location": {
        "postalCode": "48410",
        "municipality": "Orozko",
        "county": "Bizkaia",
        "municipalityId": "075",
        "countyId": "48"
      },
      "economicActivities": [
        {
          "id": "1.912",
          "name": "Servicios forestales",
          "_links": {
            "self": {
              "name": "Servicios forestales",
              "href": "https://api.euskadi.eus/procurements/companies/economic-activities/1.912"
            }
          }
        }
      ],
      "object": ".Tala, limpeiza y repoblación forestal, montajes agrícolas, invernaderos, ferías agrícolas, jardinería, habilitación de pistas forestales, compra, venta, cria y selección de todo tipo de animales, así como cuantas otras actividades estén relacionadas  con trabajos y servicios agrícolas, ganaderos y forestales. las actividades enumeradas  podrán también ser desarrolladas por la sociedad total o parcialmente de modo indirecto mediante la participación en otras sociedades con objeto análogo.\r\nQuedan excluidas todas aquellas actividades para cuyo ejercicio la ley exija requisitos especiales que no queden cumplidos por esta sociedad.",
      "mainEntityOfPage": "https://www.contratacion.euskadi.eus/webkpe00-kperoc/es/ac71aBusquedaRegistrosWar/empresa/04218",
      "_links": {
        "self": {
          "name": "MANZARBEITIA BASOLANAK, S.L.",
          "href": "https://api.euskadi.eus/procurements/companies/04218"
        }
      }
    },
    {
      "name": "BUZIL NORTE-ACEBES HERMANOS, S.L.",
      "registrationNumber": "04219",
      "identificationNumber": "B48204747",
      "address": "LARRRONDO-BEHEKO ETORBIDEA, EDIF. 4",
      "location": {
        "postalCode": "48180",
        "municipality": "Loiu",
        "county": "Bizkaia",
        "municipalityId": "903",
        "countyId": "48"
      },
      "object": ".",
      "mainEntityOfPage": "https://www.contratacion.euskadi.eus/webkpe00-kperoc/es/ac71aBusquedaRegistrosWar/empresa/04219",
      "_links": {
        "self": {
          "name": "BUZIL NORTE-ACEBES HERMANOS, S.L.",
          "href": "https://api.euskadi.eus/procurements/companies/04219"
        }
      }
    },
    {
      "name": "MPM ARBORICULTURA, S.L.U.",
      "registrationNumber": "04220",
      "identificationNumber": "B20995536",
      "address": "CS ITXASKUBERRI, S/n",
      "location": {
        "postalCode": "20170",
        "municipality": "Usurbil",
        "county": "Gipuzkoa",
        "municipalityId": "073",
        "countyId": "20"
      },
      "object": ".",
      "mainEntityOfPage": "https://www.contratacion.euskadi.eus/webkpe00-kperoc/es/ac71aBusquedaRegistrosWar/empresa/04220",
      "_links": {
        "self": {
          "name": "MPM ARBORICULTURA, S.L.U.",
          "href": "https://api.euskadi.eus/procurements/companies/04220"
        }
      }
    }
  ]
}