{
  "totalItems": 9042,
  "totalPages": 905,
  "currentPage": 683,
  "itemsOfPage": 10,
  "items": [
    {
      "name": "KONTROL Z IKUS ENTZUNESKOAK, S.L.",
      "registrationNumber": "04979",
      "identificationNumber": "B75029041",
      "address": "ZABALETA, 2 - 1º OFICINA 8",
      "location": {
        "postalCode": "20002",
        "municipality": "Donostia / San Sebastián",
        "county": "Gipuzkoa",
        "municipalityId": "069",
        "countyId": "20"
      },
      "economicActivities": [
        {
          "id": "1.355.2",
          "name": "Edición de soportes grabados de sonido, vídeo y de informática",
          "_links": {
            "self": {
              "name": "Edición de soportes grabados de sonido, vídeo y de informática",
              "href": "https://api.euskadi.eus/procurements/companies/economic-activities/1.355.2"
            }
          }
        }
      ],
      "certificateStartDate": "2013-05-09",
      "certificateEndDate": "2013-09-22",
      "object": "LA PRODUCCIÓN, GRABACIÓN, EDICIÓN Y REPRODUCCIÓN DE SOPORTES GRABADOS DE IMAGEN, SONIDO, VIDEO E INFORMÁTICOS",
      "mainEntityOfPage": "https://www.contratacion.euskadi.eus/webkpe00-kperoc/es/ac71aBusquedaRegistrosWar/empresa/04979",
      "_links": {
        "self": {
          "name": "KONTROL Z IKUS ENTZUNESKOAK, S.L.",
          "href": "https://api.euskadi.eus/procurements/companies/04979"
        }
      }
    },
    {
      "name": "SPRIL NORTE, S.L.",
      "registrationNumber": "03907",
      "identificationNumber": "B48939094",
      "address": "RIBERA DE AXPE, Nº 28-2º DPTO. 16",
      "location": {
        "postalCode": "48500",
        "municipality": "Erandio",
        "county": "Bizkaia",
        "municipalityId": "902",
        "countyId": "48"
      },
      "economicActivities": [
        {
          "id": "1.849.9",
          "name": "Otros servicios independientes n.c.o.p",
          "_links": {
            "self": {
              "name": "Otros servicios independientes n.c.o.p",
              "href": "https://api.euskadi.eus/procurements/companies/economic-activities/1.849.9"
            }
          }
        }
      ],
      "certificateStartDate": "2013-05-07",
      "certificateEndDate": "2013-11-06",
      "object": "LA PRESTACIÓN DE SERVICIOS PARA LA ELABORACIÓN DE INFORMES DE EVALUACIÓN DE LOS FACTORES DE RIESGO QUE PUEDAN AFECTAR A LA SALUD DE LOS TRABAJADORES. ACTUACIÓN COMO SERVICIOS DE PREVENCIÓN DE RIESGOS LABORALES AJENO EN LAS ESPECIALES DE SEGURIDAD EN EL TRABAJO E HIGIENE INDUSTRIAL, ERGONOMÍA Y PSICOSOCIOLOGÍA NORMATIVA Y SERVICIO DE MEDICINA PREVENTIVA",
      "mainEntityOfPage": "https://www.contratacion.euskadi.eus/webkpe00-kperoc/es/ac71aBusquedaRegistrosWar/empresa/03907",
      "_links": {
        "self": {
          "name": "SPRIL NORTE, S.L.",
          "href": "https://api.euskadi.eus/procurements/companies/03907"
        }
      }
    },
    {
      "name": "AITOR ZURINAGA GÓMEZ",
      "registrationNumber": "04978",
      "identificationNumber": "22733778A",
      "address": "AUTONOMÍA, 21 - 1º IZDA",
      "location": {
        "postalCode": "48910",
        "municipality": "Sestao",
        "county": "Bizkaia",
        "municipalityId": "084",
        "countyId": "48"
      },
      "economicActivities": [
        {
          "id": "1.505.5",
          "name": "Carpintería y cerrajería",
          "_links": {
            "self": {
              "name": "Carpintería y cerrajería",
              "href": "https://api.euskadi.eus/procurements/companies/economic-activities/1.505.5"
            }
          }
        }
      ],
      "certificateStartDate": "2013-05-07",
      "certificateEndDate": "2013-10-25",
      "object": "CARPINTERÍA Y CERRAJERÍA",
      "mainEntityOfPage": "https://www.contratacion.euskadi.eus/webkpe00-kperoc/es/ac71aBusquedaRegistrosWar/empresa/04978",
      "_links": {
        "self": {
          "name": "AITOR ZURINAGA GÓMEZ",
          "href": "https://api.euskadi.eus/procurements/companies/04978"
        }
      }
    },
    {
      "name": "CARDIVA, S.L.",
      "registrationNumber": "01566",
      "identificationNumber": "B48413777",
      "address": "C/ GENERAL EGUÍA, Nº 48.",
      "location": {
        "postalCode": "48013",
        "municipality": "Bilbao",
        "county": "Bizkaia",
        "municipalityId": "020",
        "countyId": "48"
      },
      "economicActivities": [
        {
          "id": "1.619.2",
          "name": "Venta al por mayor de aparatos e instrumentos médicos, ortopédicos, ópticos",
          "_links": {
            "self": {
              "name": "Venta al por mayor de aparatos e instrumentos médicos, ortopédicos, ópticos",
              "href": "https://api.euskadi.eus/procurements/companies/economic-activities/1.619.2"
            }
          }
        }
      ],
      "certificateStartDate": "2013-05-03",
      "certificateEndDate": "2013-11-02",
      "object": "LA VENTA AL POR MAYOR DE PRÓTESIS Y PRODUCTOS DE ELECTROMEDICINA Y MATERIAL FUNGIBLE HOSPITALARIO",
      "mainEntityOfPage": "https://www.contratacion.euskadi.eus/webkpe00-kperoc/es/ac71aBusquedaRegistrosWar/empresa/01566",
      "_links": {
        "self": {
          "name": "CARDIVA, S.L.",
          "href": "https://api.euskadi.eus/procurements/companies/01566"
        }
      }
    },
    {
      "name": "IKENA 2001, S.L.",
      "registrationNumber": "03093",
      "identificationNumber": "B20734851",
      "address": "ARANA Nº 5, BAJO",
      "location": {
        "postalCode": "20240",
        "municipality": "Ordizia",
        "county": "Gipuzkoa",
        "municipalityId": "076",
        "countyId": "20"
      },
      "economicActivities": [
        {
          "id": "1.507",
          "name": "Construcción, reparación y conservación de toda clase obras",
          "_links": {
            "self": {
              "name": "Construcción, reparación y conservación de toda clase obras",
              "href": "https://api.euskadi.eus/procurements/companies/economic-activities/1.507"
            }
          }
        },
        {
          "id": "1.833.2",
          "name": "Promoción de edificaciones",
          "_links": {
            "self": {
              "name": "Promoción de edificaciones",
              "href": "https://api.euskadi.eus/procurements/companies/economic-activities/1.833.2"
            }
          }
        }
      ],
      "certificateStartDate": "2013-05-03",
      "certificateEndDate": "2013-10-15",
      "object": "ASESORAMIENTO Y GESTIÓN DE ACTUACIONES URBANÍSTICAS Y PRESTACIÓN DE SERVICIOS DE TODO TIPO, CON RELACIÓN A BIENES INMUEBLES SEGÚN CONVENGA A SU APROVECHAMIENTO AGRÍCOLA, FORESTAL, URBANO, INDUSTRIAL O DE CUALQUIER OTRA NATURALEZA. SE ENTIENDEN ESPECIALMENTE INCLUÍDOS, LOS SERVICIOS DE ARQUITECTURA, APAREJADOR Y OTRAS ACCESORIAS. LA PRESTACIÓN DE SERVICIOS DE DELINEACIÓN, DECORACIÓN Y DISEÑO INTERIOR. LA ADQUISICIÓN, TENENCIA, DISFRUTE, EXPLOTACIÓN Y ENAJENACIÓN DE TODA CLASE DE FINCAS RÚSTICAS O URBANAS, CUALQUIERA QUE FUERA SU NATURALEZA. LA PROMOCIÓN, CONSTRUCCIÓN, REHABILITACIÓN Y REPARACIÓN, POR CUENTA PROPIA O AJENA, DE TODA CLASE DE OBRAS, URBANIZACIONES, EDIFICIOS Y CONSTRUCCIONES, TANTO PÚBLICOS COMO PRIVADOS. EL COMERCIO MAYOR Y MENOR, DE MATERIALES DE CONSTRUCCIÓN Y PRODUCTOS AUXILIARES",
      "mainEntityOfPage": "https://www.contratacion.euskadi.eus/webkpe00-kperoc/es/ac71aBusquedaRegistrosWar/empresa/03093",
      "_links": {
        "self": {
          "name": "IKENA 2001, S.L.",
          "href": "https://api.euskadi.eus/procurements/companies/03093"
        }
      }
    },
    {
      "name": "URINVE, S.L.",
      "registrationNumber": "02844",
      "identificationNumber": "B48821128",
      "address": "BARROETA ALDAMAR, 4-1-Dpto. 10",
      "location": {
        "postalCode": "48001",
        "municipality": "Bilbao",
        "county": "Bizkaia",
        "municipalityId": "020",
        "countyId": "48"
      },
      "economicActivities": [
        {
          "id": "1.843.1",
          "name": "Servicios técnicos de ingeniería",
          "_links": {
            "self": {
              "name": "Servicios técnicos de ingeniería",
              "href": "https://api.euskadi.eus/procurements/companies/economic-activities/1.843.1"
            }
          }
        },
        {
          "id": "1.843.4",
          "name": "Servicios técnicos de topografía",
          "_links": {
            "self": {
              "name": "Servicios técnicos de topografía",
              "href": "https://api.euskadi.eus/procurements/companies/economic-activities/1.843.4"
            }
          }
        }
      ],
      "certificateStartDate": "2013-04-30",
      "certificateEndDate": "2013-09-25",
      "object": "A) LA INGENIERÍA CARTOGRÁFICA, GEODÉSICA Y CATASTRAL, FOTOGRAMETRÍA, INFORMÁTICA Y SERVICIOS DE INFORMACIÓN GEOGRÁFICA, GEOLOGÍA, DELINEACIÓN DE PLANOS, MEDICIONES Y PRESUPUESTOS DE TODO TIPO DE  OBRA CIVIL; LA REALIZACIÓN DE ESTUDIOS GEOLÓGICOS; EL DESARROLLO DE ESTUDIOS DE MATERIALES DE CONSTRUCCIÓN; LA TOPOGRAFÍA EN GENERAL, Y LA CONSTRUCCIÓN Y VENTA DE EDIFICIOS.\r\n\r\nB) LOS SERVICIOS DE INGENIERÍA EN TODAS SUS ESPECIALIDADES Y ARQUITECTURA; REDACCIÓN DE PROYECTOS Y DIRECCIONES DE OBRA; ASISTENCIAS TÉCNICAS A LA REDACCIÓN DE PROYECTOS Y DIRECCIONES DE OBRA; SERVICIOS DE CONTRATACIÓN Y GESTIÓN DE CONCURSOS DE OBRA CIVIL, EDIFICACIÓN Y URBANISMO; LA PROMOCIÓN, DISEÑO Y EJECUCIÓN DE INSTALACIONES INDUSTRIALES Y OBRAS CIVILES BAJO CUALQUIER MODALIDAD DE CONTRATACIÓN.\r\n\r\nC) LA ADQUISICIÓN, POSESIÓN, ADMINISTRACIÓN, GRAVAMEN, EXPLOTACIÓN Y ENAJENACIÓN DE TODA CLASE DE BIENES  Y DERECHOS, INCLUIDOS TODA CLASE DE VALORES MOBILIARIOS, PARTICIPACIONES SOCIALES, EFECTOS DE COMERCIO, BIENES MUEBLES E INMUEBLES, EN GENERAL Y DERECHOS DE PROPIEDAD INDUSTRIAL O INTELECTUAL, TODOS ELLOS POR CUENTA PROPIA Y SIN EJERCER LA INTERMEDIACIÓN. TODO ELLO SIN INCIDIR EN LA OPERACIONES  A QUE SE REFIERE LA LEY46/1.984 DE INVERSIONES COLECTIVAS, ASÍ COMO LO EXPRESAMENTE RESERVADO POR LA LEY DE MERCADO DE VALORES A LAS AGENCIAS Y/O SOCIEDADES DE VALORES Y BOLSA.\r\n\r\nD) PODRÁ LA SOCIEDAD, ASÍMISMO, PARTICIPAR E INTERVENIR EN LAS OPERACIONES O ACTIVIDADES DE OTRAS EMPRESAS, SEA CUAL FUERE EL OBJETO DE LAS MISMAS A TÍTULO DE SOCIOS, ACCIONISTAS, CUENTA PARTÍCIPE, GESTOR, ADMINSTRADOR O CUALQUIER OTRO CASO, MEDIANTE EL CUMPLIMIENTO  DE LAS DISPOSICIONES LEGALES QUE  RIJAN AL EFECTO",
      "mainEntityOfPage": "https://www.contratacion.euskadi.eus/webkpe00-kperoc/es/ac71aBusquedaRegistrosWar/empresa/02844",
      "_links": {
        "self": {
          "name": "URINVE, S.L.",
          "href": "https://api.euskadi.eus/procurements/companies/02844"
        }
      }
    },
    {
      "name": "IKU REFORMAS, S.L.",
      "registrationNumber": "04745",
      "identificationNumber": "B95116240",
      "address": "MENDIBILE, 5",
      "location": {
        "postalCode": "48940",
        "municipality": "Leioa",
        "county": "Bizkaia",
        "municipalityId": "054",
        "countyId": "48"
      },
      "economicActivities": [
        {
          "id": "1.501.1",
          "name": "Construcción completa, reparación y conservación de edificaciones",
          "_links": {
            "self": {
              "name": "Construcción completa, reparación y conservación de edificaciones",
              "href": "https://api.euskadi.eus/procurements/companies/economic-activities/1.501.1"
            }
          }
        },
        {
          "id": "1.833.2",
          "name": "Promoción de edificaciones",
          "_links": {
            "self": {
              "name": "Promoción de edificaciones",
              "href": "https://api.euskadi.eus/procurements/companies/economic-activities/1.833.2"
            }
          }
        }
      ],
      "certificateStartDate": "2013-04-30",
      "certificateEndDate": "2013-10-03",
      "object": "LA PROMOCIÓN Y EJECUCIÓN, COMPLETA O POR RAMOS DE TODA CLASE DE OBRAS DE CONSTRUCCIÓN, URBANIZACIÓN Y SERVICIOS, REPARACIÓN Y CONSERVACIÓN, POR CUENTA PROPIA Y AJENA DE VIVIENDA Y LOCALES COMERCIALES O INDUSTRIALES E INCLUSO VIVIENDAS DE PROTECCIÓN OFICIAL. LA COMPRAENTA Y ALQUILER DE EDIFICIOS EN SU TOTALIDAD POR PARTES O POR PISOS BIEN DE VIVIENDAS, LOCALES INDUSTRIALES DE OFICINAS, APARCAMIENTOS, GARAJES CONSTRUIDAS O NO PARA TAL FIN; PROCEDER A LA CONSTRUCCIÓN DE EDIFICACIONES EN GENERAL, BIEN DIRECTAMENTE O POR MEDIO DE SUBCONTRATISTAS O DESTAJISTAS. LA ADQUISICIÓN Y ENAJENACIÓN, POR CUALQUIER TÍITULO DE FINCAS URBANAS Y RÚSTICAS, YA SEAN TIERRAS, SOLARES Y EDIFICIOS Y LA ADMINISTRACIÓN, TENENCIA, EXPLOTACIÓN Y ARRENDAMIENTO, YA SEA ACTIVO O PASIVO DE TALES BIENES Y SU VENTA TOTAL O PARCIAL Y PROCEDER A SU APROVECHAMIENTO, URBANO, INDUSTRIAL O CUALQUIER OTRO. LA URBANIZACIÓN Y PARCELACIÓN DE TERRENOS, CONFORME A LOS PLANES DE ORDENACIÓN URBANÍSTICA, APROBADOS POR LAS AUTORIDADES COMPETENTES EN LOS POLÍGONOS Y ZONAS DE ACTUACIÓN QUE AL EFECTO SEAN DESIGNADOS Y LA REPARCELACIÓN DE DICHOS TERRENOS URBANÍSTICOS Y, EN SU CASO LA EDIFICACIÓN Y VENTA DE LOS MISMOS O DE LAS EDIFICACIONES Y OBRAS DE URBANIZACIÓN Y SERVICIOS A CUYO EFECTO PODRÁ FORMAR PARTE DE ASOCIACIONES DE PROPIETARIOS, EMPRESAS MIXTAS Y ENTIDADES URBANÍSTICAS COLABORADORAS QUE PUEDAN REGLAMENTARSE A LOS EXPRESADOS FINES. LA REALIZACIÓN DE PROYECTOS DE DECORACIÓN Y LA COMPRA-VENTA DE TODA CLASE DE MUEBLES Y SUS COMPLEMENTOS. LA COMPRA-VENTA DE MATERIALES DE CONSTRUCCIÓN EN GENERAL",
      "mainEntityOfPage": "https://www.contratacion.euskadi.eus/webkpe00-kperoc/es/ac71aBusquedaRegistrosWar/empresa/04745",
      "_links": {
        "self": {
          "name": "IKU REFORMAS, S.L.",
          "href": "https://api.euskadi.eus/procurements/companies/04745"
        }
      }
    },
    {
      "name": "VIRA OBRAS Y REFORMAS, S.L.",
      "registrationNumber": "04970",
      "identificationNumber": "B95577920",
      "address": "FILOMENA BALDEZATE, 8",
      "location": {
        "postalCode": "48002",
        "municipality": "Bilbao",
        "county": "Bizkaia",
        "municipalityId": "020",
        "countyId": "48"
      },
      "economicActivities": [
        {
          "id": "1.501.1",
          "name": "Construcción completa, reparación y conservación de edificaciones",
          "_links": {
            "self": {
              "name": "Construcción completa, reparación y conservación de edificaciones",
              "href": "https://api.euskadi.eus/procurements/companies/economic-activities/1.501.1"
            }
          }
        }
      ],
      "certificateStartDate": "2013-04-30",
      "certificateEndDate": "2013-09-08",
      "object": "LA COMPRA, VENTA Y ARRENDAMIENTO DE TODA CLASE DE FINCAS TANTO URBANAS COMO RÚSTICAS. LA REALIZACIÓN DE TODA CLASE DE OBRAS DE CONSTRUCCIÓN, REPARACIÓN, REFORMA Y REHABILITACIÓN DE INMUEBLES DE TODO GÉNERO, Y LA PROMOCIÓN DE ÉSTOS",
      "mainEntityOfPage": "https://www.contratacion.euskadi.eus/webkpe00-kperoc/es/ac71aBusquedaRegistrosWar/empresa/04970",
      "_links": {
        "self": {
          "name": "VIRA OBRAS Y REFORMAS, S.L.",
          "href": "https://api.euskadi.eus/procurements/companies/04970"
        }
      }
    },
    {
      "name": "EXCAVACIONES ZAPIRAIN, S.L.",
      "registrationNumber": "03583",
      "identificationNumber": "B20660288",
      "address": "POL. AKARREGI, Nº 13, NAVE 2",
      "location": {
        "postalCode": "20120",
        "municipality": "Hernani",
        "county": "Gipuzkoa",
        "municipalityId": "040",
        "countyId": "20"
      },
      "economicActivities": [
        {
          "id": "1.151.4",
          "name": "Producción de energía no especificada en otros epígrafes",
          "_links": {
            "self": {
              "name": "Producción de energía no especificada en otros epígrafes",
              "href": "https://api.euskadi.eus/procurements/companies/economic-activities/1.151.4"
            }
          }
        },
        {
          "id": "1.507",
          "name": "Construcción, reparación y conservación de toda clase obras",
          "_links": {
            "self": {
              "name": "Construcción, reparación y conservación de toda clase obras",
              "href": "https://api.euskadi.eus/procurements/companies/economic-activities/1.507"
            }
          }
        }
      ],
      "certificateStartDate": "2013-04-17",
      "certificateEndDate": "2013-10-17",
      "object": "TODO TIPO DE OBRAS, CON ESPECIAL ATENCIÓN A EXCAVACIONES, DERRIBOS, EXTRACCIONES DE TIERRAS Y PIEDRAS, EXPLANACIONES Y MOVIMIENTOS DE TIERRAS, EL TRANSPORTE DE LOS PRODUCTOS EXTRAÍDOS, SU COMERCIALIZACIÓN Y LA REALIZACIÓN DE DICHOS TRABAJOS PARA TERCERAS PERSONAS",
      "mainEntityOfPage": "https://www.contratacion.euskadi.eus/webkpe00-kperoc/es/ac71aBusquedaRegistrosWar/empresa/03583",
      "_links": {
        "self": {
          "name": "EXCAVACIONES ZAPIRAIN, S.L.",
          "href": "https://api.euskadi.eus/procurements/companies/03583"
        }
      }
    },
    {
      "name": "FRONTCOST, SERVICIOS A LA CONSTRUCCIÓN, S.L.",
      "registrationNumber": "04960",
      "identificationNumber": "B26463117",
      "address": "C/Mendoza, 8-bajo",
      "location": {
        "postalCode": "01013",
        "municipality": "Vitoria-Gasteiz",
        "county": "Araba/Álava",
        "municipalityId": "059",
        "countyId": "01"
      },
      "economicActivities": [
        {
          "id": "1.501.3",
          "name": "Albañilería y pequeños trabajos de construcción en general",
          "_links": {
            "self": {
              "name": "Albañilería y pequeños trabajos de construcción en general",
              "href": "https://api.euskadi.eus/procurements/companies/economic-activities/1.501.3"
            }
          }
        }
      ],
      "certificateStartDate": "2013-04-16",
      "certificateEndDate": "2013-09-04",
      "object": "LA INTERMEDIACIÓN EN LA REALIZACIÓN DE TODO TIPO DE SERVICIOS TÉCNICOS A LAS EMPRESAS CONSTRUCTORAS E INGENIERÍAS, TANTO PARA LA REDACCIÓN DE PROYECTOS COMO DE ASISTENCIAS TÉCNICAS. REDACCIÓN DE INFORMES TÉCNICOS O PERICIALES, DICTÁMENES Y PROYECTOS. GESTIÓN DE OBRAS Y PROYECTOS PÚBLICOS Y PRIVADOS. PROYECTOS INMOBILIARIOS, CÁLCULO DE COSTES DE INVERSIONES, ESTUDIOS DE OFERTAS, MEDICIONES Y TRABAJOS TÉCNICOS NECESARIOS PARA LA CONSTRUCCIÓN EN GENERAL",
      "mainEntityOfPage": "https://www.contratacion.euskadi.eus/webkpe00-kperoc/es/ac71aBusquedaRegistrosWar/empresa/04960",
      "_links": {
        "self": {
          "name": "FRONTCOST, SERVICIOS A LA CONSTRUCCIÓN, S.L.",
          "href": "https://api.euskadi.eus/procurements/companies/04960"
        }
      }
    }
  ]
}