{
  "totalItems": 9042,
  "totalPages": 905,
  "currentPage": 804,
  "itemsOfPage": 10,
  "items": [
    {
      "name": "ELHUYAR KULTUR ELKARTEA",
      "registrationNumber": "00196",
      "identificationNumber": "G20084042",
      "address": "ASTEASUAIN POLIGONOA, Nº 14.",
      "location": {
        "postalCode": "20170",
        "municipality": "Usurbil",
        "county": "Gipuzkoa",
        "municipalityId": "073",
        "countyId": "20"
      },
      "economicActivities": [
        {
          "id": "1.476.1",
          "name": "Edición de libros",
          "_links": {
            "self": {
              "name": "Edición de libros",
              "href": "https://api.euskadi.eus/procurements/companies/economic-activities/1.476.1"
            }
          }
        },
        {
          "id": "1.476.2",
          "name": "Edición de periódicos y revistas",
          "_links": {
            "self": {
              "name": "Edición de periódicos y revistas",
              "href": "https://api.euskadi.eus/procurements/companies/economic-activities/1.476.2"
            }
          }
        },
        {
          "id": "1.845",
          "name": "Explotación electrónica por cuenta de terceros",
          "_links": {
            "self": {
              "name": "Explotación electrónica por cuenta de terceros",
              "href": "https://api.euskadi.eus/procurements/companies/economic-activities/1.845"
            }
          }
        },
        {
          "id": "1.961.1",
          "name": "Producción de películas cinematográficas (incluso vídeos)",
          "_links": {
            "self": {
              "name": "Producción de películas cinematográficas (incluso vídeos)",
              "href": "https://api.euskadi.eus/procurements/companies/economic-activities/1.961.1"
            }
          }
        }
      ],
      "certificateStartDate": "2003-02-04",
      "certificateEndDate": "2002-12-21",
      "object": "PROMOVER Y DESARROLLAR EL EUSKERA Y ORGANIZAR CURSOS Y SEMINARIOS RELATIVOS A LA PROMOCIÓN Y DESARROLLO DEL EUSKERA",
      "mainEntityOfPage": "https://www.contratacion.euskadi.eus/webkpe00-kperoc/es/ac71aBusquedaRegistrosWar/empresa/00196",
      "_links": {
        "self": {
          "name": "ELHUYAR KULTUR ELKARTEA",
          "href": "https://api.euskadi.eus/procurements/companies/00196"
        }
      }
    },
    {
      "name": "SUNION CONSULTORES, S.L.",
      "registrationNumber": "02245",
      "identificationNumber": "B20079091",
      "address": "PLAZA DEL TXOFRE, Nº 18 - BAJO.",
      "location": {
        "postalCode": "20001",
        "municipality": "Donostia / San Sebastián",
        "county": "Gipuzkoa",
        "municipalityId": "069",
        "countyId": "20"
      },
      "economicActivities": [
        {
          "id": "1.841",
          "name": "Servicios jurídicos",
          "_links": {
            "self": {
              "name": "Servicios jurídicos",
              "href": "https://api.euskadi.eus/procurements/companies/economic-activities/1.841"
            }
          }
        }
      ],
      "certificateStartDate": "2003-01-28",
      "certificateEndDate": "2003-05-22",
      "object": "LA PRESTACIÓN DE SERVICIOS DE ASESORAMIENTO EN GENERAL.",
      "mainEntityOfPage": "https://www.contratacion.euskadi.eus/webkpe00-kperoc/es/ac71aBusquedaRegistrosWar/empresa/02245",
      "_links": {
        "self": {
          "name": "SUNION CONSULTORES, S.L.",
          "href": "https://api.euskadi.eus/procurements/companies/02245"
        }
      }
    },
    {
      "name": "GABINETE TECNICO DE TRABAJO SOCIAL, S.L.",
      "registrationNumber": "02319",
      "identificationNumber": "B50551282",
      "address": "TE. CNEL. VALENZUELA, 5",
      "location": {
        "postalCode": "50004",
        "municipality": "Zaragoza",
        "county": "Zaragoza",
        "municipalityId": "297",
        "countyId": "50"
      },
      "economicActivities": [
        {
          "id": "1.951",
          "name": "Asistencia y servicios sociales en centros residenciales",
          "_links": {
            "self": {
              "name": "Asistencia y servicios sociales en centros residenciales",
              "href": "https://api.euskadi.eus/procurements/companies/economic-activities/1.951"
            }
          }
        }
      ],
      "certificateStartDate": "2003-01-23",
      "certificateEndDate": "2003-06-26",
      "object": "\r\nLA PROMOCIÓN, EXPLOTACIÓN, ASISTENCIA Y GESTIÓN DE LOS SIGUIENTES CENTROS, BIENES Y SERVICIOS, SEAN ÉSTOS PÚBLICOS O PRIVADOS, PROPIOS O AJENOS. LOS RELACIONADOS  CON LA ASISTENCIA SOCIAL Y LOS SERVICIOS SOCIALES, EN CUALQUIERA DE SUS DIFERENTES SECTORES DE INTERVENCIÓN, CON MENCIÓN ESPECIAL, NO LIMITATIVA, A LOS SECTORES DE TERCERA EDAD, INFANCIA Y JUVENTUD. LOS DE GUARDERÍA INFANTIL, LUDOTECAS, CENTROS DE TIEMPO LIBRE Y ASIMILADOS, LOS CULTURALES Y EDUCATIVOS, LOS SANITARIOS, LOS DE HOSTELERÍA Y ACTIVIDADES DE COMIDA, LOS DE LIMPIEZA E HIGIENIZACIÓN Y LA REALIZACIÓN DE INICIATIVAS,  ESTUDIOS Y PROYECTOS Y LA FORMACIÓN DE PROFESIONALES, DENTRO DE LOS ÁMBITOS Y ACTIVIDADES ANTERIORMENTE SEÑALADOS. Y, EN GENERAL, LA REALIZACIÓN DE TRABAJOS Y SERVICIOS DE HOSPEDAJE Y HOSTELERÍA Y LIMPIEZA Y MANTENIMINETO DE PISOS, LOCALES Y EDIFICIOS, CUALQUIERA QUE SEA EL DESTINO DE LOS MISMOS.   ",
      "mainEntityOfPage": "https://www.contratacion.euskadi.eus/webkpe00-kperoc/es/ac71aBusquedaRegistrosWar/empresa/02319",
      "_links": {
        "self": {
          "name": "GABINETE TECNICO DE TRABAJO SOCIAL, S.L.",
          "href": "https://api.euskadi.eus/procurements/companies/02319"
        }
      }
    },
    {
      "name": "EAMON, S.A.",
      "registrationNumber": "01036",
      "identificationNumber": "A48426670",
      "address": "C/ AVENIDA CERVANTES, Nº 43. POL. AZBAREN II, PAB.: 21 - 22.",
      "location": {
        "postalCode": "48970",
        "municipality": "Basauri",
        "county": "Bizkaia",
        "municipalityId": "015",
        "countyId": "48"
      },
      "economicActivities": [
        {
          "id": "1.501.1",
          "name": "Construcción completa, reparación y conservación de edificaciones",
          "_links": {
            "self": {
              "name": "Construcción completa, reparación y conservación de edificaciones",
              "href": "https://api.euskadi.eus/procurements/companies/economic-activities/1.501.1"
            }
          }
        },
        {
          "id": "1.503.3",
          "name": "Montajes de estructuras metálicas para transportes, puertos",
          "_links": {
            "self": {
              "name": "Montajes de estructuras metálicas para transportes, puertos",
              "href": "https://api.euskadi.eus/procurements/companies/economic-activities/1.503.3"
            }
          }
        },
        {
          "id": "1.911",
          "name": "Servicios agrícolas y ganaderos",
          "_links": {
            "self": {
              "name": "Servicios agrícolas y ganaderos",
              "href": "https://api.euskadi.eus/procurements/companies/economic-activities/1.911"
            }
          }
        }
      ],
      "certificateStartDate": "2003-01-10",
      "certificateEndDate": "2003-07-03",
      "object": "LOS TRABAJOS DE CALDERERÍA, MONTAJE E INSTALACIÓN DE ELEMENTOS METÁLICOS, ASÍ COMO EJECUCIÓN Y PRESTACIÓN DE LOS SERVICIOS RELACIONADOS CON EL MONTAJE, CON O SIN SUMINISTRO DE MATERIALES. ESTUDIO Y REALIZACIÓN DE PROYECTOS DE OBRA CIVIL DE CUALQUIER TIPO. LAS MISMAS OPERACIONES EN BIENES INMUEBLES, INCLUÍDA SU URBANIZACIÓN, PROMOCIÓN, CONSTRUCCIÓN Y ENAJENACIÓN DE TERRENOS EDIFICABLES. LA MAS AMPLIA ACTIVIDAD MERCANTIL CON BASE EN INGENIERÍA, PROYECTO, CONSTRUCCIÓN, MONTAJE, REPARACIÓN, MANTENIMIENTO Y CONSERVACIÓN DE TODA CLASE DE OBRAS E INSTALACIONES DE CUALQUIER GÉNERO O ESPECIE, EN EL SENTIDO MAS AMPLIO DE LA PALABRA, ES DECIR, LA EJECUCIÓN COMPLETA DE LAS MISMAS CON O SIN SUMINISTRO DE MATERIAL, POR CUENTA PROPIA Y DE TERCEROS, EN FORMA EXCLUSIVA O A TRAVÉS DE ASOCIACIONES EN CUALQUIERA DE SUS MODALIDADES. EL PROYECTO, CONSTRUCCIÓN, MONTAJE, REPARACIÓN, MANTENIMIENTO Y CONSERVACIÓN DE TODA CLASE DE JARDINES, ZONAS AJARDINADAS, TALUDES, ARBOLADO Y ZONAS VERDES EN GENERAL. LA REALIZACIÓN DE ESTE TIPO DE TRABAJOS PODRÁ LLEVARSE A CABO EN CUALQUIER PARTE DEL TERRITORIO NACIONAL O DEL EXTRANJERO",
      "mainEntityOfPage": "https://www.contratacion.euskadi.eus/webkpe00-kperoc/es/ac71aBusquedaRegistrosWar/empresa/01036",
      "_links": {
        "self": {
          "name": "EAMON, S.A.",
          "href": "https://api.euskadi.eus/procurements/companies/01036"
        }
      }
    },
    {
      "name": "FEBIDE, S.A.",
      "registrationNumber": "02028",
      "identificationNumber": "A48894893",
      "address": "C/ NAVARRA, N.6-5º. DPTO. 5",
      "location": {
        "postalCode": "48001",
        "municipality": "Bilbao",
        "county": "Bizkaia",
        "municipalityId": "020",
        "countyId": "48"
      },
      "economicActivities": [
        {
          "id": "1.507",
          "name": "Construcción, reparación y conservación de toda clase obras",
          "_links": {
            "self": {
              "name": "Construcción, reparación y conservación de toda clase obras",
              "href": "https://api.euskadi.eus/procurements/companies/economic-activities/1.507"
            }
          }
        }
      ],
      "certificateStartDate": "2003-01-08",
      "certificateEndDate": "2003-05-22",
      "object": "a) LA CONTRATACIÓN, GESTIÓN Y EJECUCIÓN DE TODA CLASE DE OBRA Y CONSTRUCCIONES EN SU MÁS AMPLIO SENTIDO, TANTO PÚBLICAS COMO PRIVADAS, COMO CARRETERAS, OBRAS HIDRÁULICAS, FERROCARRILES, OBRAS MARÍTIMAS, EDIFICACIÓN, OBRAS DEL MEDIO AMBIENTE, Y EN GENERAL TODAS LAS RELACIONADAS CON EL RAMO DE LA CONSTRUCCIÓN.\r\nb) LA ADQUISICIÓN, ADMINISTRACIÓN, GESTIÓN, PROMOCIÓN, EXPLOTACIÓN EN ARRENDAMIENTO O EN CUALQUIER OTRA FORMA, CONSTRUCCIÓN, COMPRA Y VENTA DE TODA CLASE DE BIENES INMUEBLES, ASÍ COMO EL ASESORAMIENTO RESPECTO A LAS OPERACIONES ANTERIORES.\r\nc) LA ELABORACIÓN DE TODO TIPO DE PROYECTOS DE INGENIERÍA Y ARQUITECTURA, ASÍ COMO LA DIRECCIÓN, SUPERVISIÓN Y ASESORAMIENTO EN LA EJECUCIÓN DE TODO TIPO DE OBRAS Y CONSTRUCCIONES.\r\nd) LA ADQUISICIÓN, TENENCIA, DISFRUTE, ADMINISTRACIÓN Y ENAJENACIÓN DE TODA CLASE DE VALORES MOBILIARIOS POR CUENTA PROPIA, QUEDANDO EXCLUIDAS LAS ACTIVIDADES QUE LA LEGISLACIÓN, ESPECIAL, Y BÁSICAMENTE LA LEY DE MERCADO DE VALORES, ATRIBUYE CON CARÁCTER EXCLUSIVO A OTRAS ENTIDADES.\r\ne) LA TITULARIDAD DE TODA CLASE DE CONCESIONES, SUBVENCIONES Y AUTORIZACIONES ADMINISTRATIVAS DE OBRAS, SERVICIOS Y MIXTAS DEL ESTADO, COMUNIDAD AUTÓNOMA, PROVINCIA Y MUNICIPIO, Y LA PARTICIPACIÓN ACCIONARIAL EN SOCIEDADES CONCESIONARIAS DE AQUELLAS.\r\nf) LA EXPLOTACIÓN DE MINAS Y CANTERAS Y LA COMERCIALIZACIÓN DE SUS PRODUCTOS.\r\ng) LA FABRICACIÓN, COMPRA, VENTA, IMPORTACIÓN, EXPORTACIÓN Y DISTRIBUCIÓN DE EQUIPOS, INSTALACIÓN DE ELEMENTOS Y MATERIALES DE CONSTRUCCIÓN O DESTINADOS A LA MISMA.\r\nh) ADQUISICIÓN, EXPLOTACIÓN EN CUALQUIER FORMA, COMERCIALIZACIÓN, CESIÓN Y ENAJENACIÓN DE TODO TIPO DE PROPIEDAD INTELECTUAL Y PATENTES Y DEMÁS MODALIDADES DE PROPIEDAD INDUSTRIAL.\r\ni) FABRICACIÓN Y COMERCIALIZACIÓN DE PRODUCTOS PREFABRICADOS Y DEMÁS RELACIONADOS CON LA CONSTRUCCIÓN.\r\n",
      "mainEntityOfPage": "https://www.contratacion.euskadi.eus/webkpe00-kperoc/es/ac71aBusquedaRegistrosWar/empresa/02028",
      "_links": {
        "self": {
          "name": "FEBIDE, S.A.",
          "href": "https://api.euskadi.eus/procurements/companies/02028"
        }
      }
    },
    {
      "name": "LITOGRAFÍA DANONA, S. COOP.",
      "registrationNumber": "00217",
      "identificationNumber": "F20027348",
      "address": "POLÍGONO INDUSTRIAL UGALDETXO, S/N.",
      "location": {
        "postalCode": "20180",
        "municipality": "Oiartzun",
        "county": "Gipuzkoa",
        "municipalityId": "063",
        "countyId": "20"
      },
      "economicActivities": [
        {
          "id": "1.474.1",
          "name": "Impresión de textos o imágenes por cualquier procedimiento",
          "_links": {
            "self": {
              "name": "Impresión de textos o imágenes por cualquier procedimiento",
              "href": "https://api.euskadi.eus/procurements/companies/economic-activities/1.474.1"
            }
          }
        },
        {
          "id": "1.475.4",
          "name": "Encuadernación",
          "_links": {
            "self": {
              "name": "Encuadernación",
              "href": "https://api.euskadi.eus/procurements/companies/economic-activities/1.475.4"
            }
          }
        }
      ],
      "certificateStartDate": "2003-01-07",
      "certificateEndDate": "2003-06-12",
      "object": "LA FABRICACIÓN Y VENTA DE TODA CLASE DE IMPRESOS Y CUANTO SE RELACIONA CON LOS TRABAJOS DE ARTES GRÁFICAS Y MANIPULADOS DE PAPEL, CARTÓN, PLÁSTICOS Y CUANTAS ACTIVIDADES (INDUSTRIALES, COMERCIALES O DE SERVICIOS) AFINES O COMPLEMENTARIAS A LAS CITADAS, DECIDA EMPRENDER",
      "mainEntityOfPage": "https://www.contratacion.euskadi.eus/webkpe00-kperoc/es/ac71aBusquedaRegistrosWar/empresa/00217",
      "_links": {
        "self": {
          "name": "LITOGRAFÍA DANONA, S. COOP.",
          "href": "https://api.euskadi.eus/procurements/companies/00217"
        }
      }
    },
    {
      "name": "PUNTO Y COMA PUBLICIDAD, S.L.",
      "registrationNumber": "02490",
      "identificationNumber": "B48538102",
      "address": "URIBITARTE, 18 - 7º",
      "location": {
        "postalCode": "48001",
        "municipality": "Bilbao",
        "county": "Bizkaia",
        "municipalityId": "020",
        "countyId": "48"
      },
      "economicActivities": [
        {
          "id": "1.844",
          "name": "Servicios de publicidad, relaciones públicas y similares",
          "_links": {
            "self": {
              "name": "Servicios de publicidad, relaciones públicas y similares",
              "href": "https://api.euskadi.eus/procurements/companies/economic-activities/1.844"
            }
          }
        }
      ],
      "certificateStartDate": "2003-01-03",
      "certificateEndDate": "2003-06-11",
      "object": "LOS SERVICIOS DE PUBLICIDAD Y MARKETING, CREACIÓN Y PRODUCCIÓN DE ELEMENTOS GRÁFICOS, AUDIOVISUALES Y SISTEMAS MULTIMEDIA.",
      "mainEntityOfPage": "https://www.contratacion.euskadi.eus/webkpe00-kperoc/es/ac71aBusquedaRegistrosWar/empresa/02490",
      "_links": {
        "self": {
          "name": "PUNTO Y COMA PUBLICIDAD, S.L.",
          "href": "https://api.euskadi.eus/procurements/companies/02490"
        }
      }
    },
    {
      "name": "BIODIAGNÓSTICO Y DETECCIÓN DE GASES, S.L.",
      "registrationNumber": "02512",
      "identificationNumber": "B95021192",
      "address": "C/ BILBAO, 4 BAJO",
      "location": {
        "postalCode": "48960",
        "municipality": "Galdakao",
        "county": "Bizkaia",
        "municipalityId": "036",
        "countyId": "48"
      },
      "economicActivities": [
        {
          "id": "1.619.2",
          "name": "Venta al por mayor de aparatos e instrumentos médicos, ortopédicos, ópticos",
          "_links": {
            "self": {
              "name": "Venta al por mayor de aparatos e instrumentos médicos, ortopédicos, ópticos",
              "href": "https://api.euskadi.eus/procurements/companies/economic-activities/1.619.2"
            }
          }
        }
      ],
      "certificateStartDate": "2003-01-02",
      "certificateEndDate": "2003-06-16",
      "object": "LA COMERCIALIZACIÓN Y DISTRIBUCIÓN DE APARATAJE Y PRODUCTOS DE DIAGNÓSTICA,  APARATOS VARIOS,  APARATOS VARIOS PARA HIGIENE Y SEGURIDAD Y MEDIO AMBIENTE, DETECTORES DE GASES Y NIVELES. ",
      "mainEntityOfPage": "https://www.contratacion.euskadi.eus/webkpe00-kperoc/es/ac71aBusquedaRegistrosWar/empresa/02512",
      "_links": {
        "self": {
          "name": "BIODIAGNÓSTICO Y DETECCIÓN DE GASES, S.L.",
          "href": "https://api.euskadi.eus/procurements/companies/02512"
        }
      }
    },
    {
      "name": "EXCAVACIONES ARCHANDA, S.A.",
      "registrationNumber": "01134",
      "identificationNumber": "A48151666",
      "address": "C/ SAN ROQUE, Nº 5 (ARTXANDA).",
      "location": {
        "postalCode": "48150",
        "municipality": "Sondika",
        "county": "Bizkaia",
        "municipalityId": "904",
        "countyId": "48"
      },
      "economicActivities": [
        {
          "id": "1.502.2",
          "name": "Consolidación y preparación de terrenos para la construcción de edificaciones",
          "_links": {
            "self": {
              "name": "Consolidación y preparación de terrenos para la construcción de edificaciones",
              "href": "https://api.euskadi.eus/procurements/companies/economic-activities/1.502.2"
            }
          }
        },
        {
          "id": "1.507",
          "name": "Construcción, reparación y conservación de toda clase obras",
          "_links": {
            "self": {
              "name": "Construcción, reparación y conservación de toda clase obras",
              "href": "https://api.euskadi.eus/procurements/companies/economic-activities/1.507"
            }
          }
        },
        {
          "id": "1.722",
          "name": "Transporte de mercancías por carretera",
          "_links": {
            "self": {
              "name": "Transporte de mercancías por carretera",
              "href": "https://api.euskadi.eus/procurements/companies/economic-activities/1.722"
            }
          }
        }
      ],
      "certificateStartDate": "2002-12-19",
      "certificateEndDate": "2003-06-10",
      "object": "LA EXCAVACIÓN, TRANSPORTE DE TIERRAS Y MAQUINARIA, LA EJECUCIÓN Y CONSTRUCCIÓN DE TODA CLASE DE OBRAS PÚBLICAS O PRIVADAS, POR CONCURSO, SUBASTA, CONTRATA O EN CUALQUIER OTRA FORMA DE ADJUDICACIÓN; LO MISMO QUE LA PROMOCIÓN O EXPLOTACIÓN EN ARRENDAMIENTO O VENTA DE VIVIENDAS, LOCALES Y EDIFICACIONES INDUSTRIALES, Y CUALESQUIERA OBRAS ACCESORIAS DE LA CONSTRUCCIÓN, PUDIENDO REALIZAR TODAS LAS OPERACIONES PROPIAS DE DICHO RAMO DE LA CONSTRUCCIÓN, ASÍ COMO CUALQUIER OTRA ACTIVIDAD ACCESORIA U OTRA DE LÍCITO COMERCIO QUE ACUERDEN LOS SOCIOS",
      "mainEntityOfPage": "https://www.contratacion.euskadi.eus/webkpe00-kperoc/es/ac71aBusquedaRegistrosWar/empresa/01134",
      "_links": {
        "self": {
          "name": "EXCAVACIONES ARCHANDA, S.A.",
          "href": "https://api.euskadi.eus/procurements/companies/01134"
        }
      }
    },
    {
      "name": "MEGATEL COMUNICACIONES, S.A.",
      "registrationNumber": "02336",
      "identificationNumber": "A48921241",
      "address": "CAMINO DE IBARSUSI, 19 - PL.1º DEP. 17",
      "location": {
        "postalCode": "48000",
        "municipality": "Bilbao",
        "county": "Bizkaia",
        "municipalityId": "020",
        "countyId": "48"
      },
      "economicActivities": [
        {
          "id": "1.504.1",
          "name": "Instalaciones eléctricas en general",
          "_links": {
            "self": {
              "name": "Instalaciones eléctricas en general",
              "href": "https://api.euskadi.eus/procurements/companies/economic-activities/1.504.1"
            }
          }
        },
        {
          "id": "1.843.1",
          "name": "Servicios técnicos de ingeniería",
          "_links": {
            "self": {
              "name": "Servicios técnicos de ingeniería",
              "href": "https://api.euskadi.eus/procurements/companies/economic-activities/1.843.1"
            }
          }
        }
      ],
      "certificateStartDate": "2002-12-12",
      "certificateEndDate": "2003-06-10",
      "object": "LA PRESTACIÓN DE TODA CLASE DE SERVICIOS RELACIONADOS CON LA INFORMÁTICA, LAS TELECOMUNICACIONES Y LA SEGURIDAD.\r\nLA INGENIERÍA, EL DISEÑO, INVESTIGACIÓN, DESARROLLO TECNOLÓGICO, FABRICACIÓN, COMERCIALIZACIÓN Y MANTENIMIENTO DE EQUIPOS Y SISTEMAS RELACIONADOS CON LOS SERVICIOS DESCRITOS.",
      "mainEntityOfPage": "https://www.contratacion.euskadi.eus/webkpe00-kperoc/es/ac71aBusquedaRegistrosWar/empresa/02336",
      "_links": {
        "self": {
          "name": "MEGATEL COMUNICACIONES, S.A.",
          "href": "https://api.euskadi.eus/procurements/companies/02336"
        }
      }
    }
  ]
}