{
  "totalItems": 9042,
  "totalPages": 905,
  "currentPage": 711,
  "itemsOfPage": 10,
  "items": [
    {
      "name": "DECORACION Y RIELES PARA CORTINAS, S.L.",
      "registrationNumber": "04656",
      "identificationNumber": "B013800336",
      "address": "C/URARTEA, 15-17. PAB. 22-24",
      "location": {
        "postalCode": "01010",
        "municipality": "Vitoria-Gasteiz",
        "county": "Araba/Álava",
        "municipalityId": "059",
        "countyId": "01"
      },
      "economicActivities": [
        {
          "id": "1.615.3",
          "name": "Venta al por mayor de aparatos electrodomésticos y ferretería",
          "_links": {
            "self": {
              "name": "Venta al por mayor de aparatos electrodomésticos y ferretería",
              "href": "https://api.euskadi.eus/procurements/companies/economic-activities/1.615.3"
            }
          }
        }
      ],
      "certificateStartDate": "2011-07-14",
      "certificateEndDate": "2011-10-12",
      "object": "COMERCIALIZACIÓN Y FABRICACIÓN DE TODO TIPO DE HERRAJE PARA VENTANA (PERSIANAS ENROLLABLES, VERTICALES, VENECIANAS, RIELES, ESTORES, ETC)",
      "mainEntityOfPage": "https://www.contratacion.euskadi.eus/webkpe00-kperoc/es/ac71aBusquedaRegistrosWar/empresa/04656",
      "_links": {
        "self": {
          "name": "DECORACION Y RIELES PARA CORTINAS, S.L.",
          "href": "https://api.euskadi.eus/procurements/companies/04656"
        }
      }
    },
    {
      "name": "TOLEDO TALDEA ARQUITECTURA Y URBANISMO, S.L. PROFESIONAL",
      "registrationNumber": "03608",
      "identificationNumber": "B20630851",
      "address": "CM ZUBIBERRI, 29, 2º, LOCAL 4",
      "location": {
        "postalCode": "20018",
        "municipality": "Donostia / San Sebastián",
        "county": "Gipuzkoa",
        "municipalityId": "069",
        "countyId": "20"
      },
      "economicActivities": [
        {
          "id": "1.843.2",
          "name": "Servicios técnicos de arquitectura y urbanismo",
          "_links": {
            "self": {
              "name": "Servicios técnicos de arquitectura y urbanismo",
              "href": "https://api.euskadi.eus/procurements/companies/economic-activities/1.843.2"
            }
          }
        }
      ],
      "certificateStartDate": "2011-07-13",
      "certificateEndDate": "2011-12-01",
      "object": "A) EL DESARROLLO DE TODAS LAS ACTIVIDADES RELACIONADAS CON LA ARQUITECTURA, EL URBANISMO Y LA ORDENACIÓN TERRITORIAL; B) ACTIVIDADES RELACIONADAS CON LA GESTIÓN Y PROMOCIÓN URBANÍSTICA; C) SERVICIOS RELACIONADOS CON EL DISEÑO GRÁFICO E INDUSTRIAL; D) ACTIVIDADES RELACIONADAS CON LA ENSEÑANZA Y LA INVESTIGACIÓN CIENTÍFICA Y TÉCNICA",
      "mainEntityOfPage": "https://www.contratacion.euskadi.eus/webkpe00-kperoc/es/ac71aBusquedaRegistrosWar/empresa/03608",
      "_links": {
        "self": {
          "name": "TOLEDO TALDEA ARQUITECTURA Y URBANISMO, S.L. PROFESIONAL",
          "href": "https://api.euskadi.eus/procurements/companies/03608"
        }
      }
    },
    {
      "name": "EMC COMPUTER SYSTEMS SPAIN, S.A.",
      "registrationNumber": "04404",
      "identificationNumber": "A28639235",
      "address": "CALLE RIBERA DEL LOIRA, 8-4ª planta",
      "location": {
        "postalCode": "28042",
        "municipality": "Madrid",
        "county": "Madrid",
        "municipalityId": "079",
        "countyId": "28"
      },
      "economicActivities": [
        {
          "id": "1.631",
          "name": "Intermediarios del comercio",
          "_links": {
            "self": {
              "name": "Intermediarios del comercio",
              "href": "https://api.euskadi.eus/procurements/companies/economic-activities/1.631"
            }
          }
        },
        {
          "id": "1.691.1",
          "name": "Reparación de artículos eléctricos para el hogar",
          "_links": {
            "self": {
              "name": "Reparación de artículos eléctricos para el hogar",
              "href": "https://api.euskadi.eus/procurements/companies/economic-activities/1.691.1"
            }
          }
        },
        {
          "id": "1.933.9",
          "name": "Otras actividades de enseñanza tales como idiomas, mecanografía",
          "_links": {
            "self": {
              "name": "Otras actividades de enseñanza tales como idiomas, mecanografía",
              "href": "https://api.euskadi.eus/procurements/companies/economic-activities/1.933.9"
            }
          }
        }
      ],
      "certificateStartDate": "2011-07-13",
      "certificateEndDate": "2011-12-01",
      "object": "A.- LA IMPORTACIÓN, DISTRIBUCIÓN, COMPRA-VENTA, ARRENDAMIENTO, EXPORTACIÓN, INSTALACIÓN, MANTENIMIENTO, MODIFICACIÓN, REPARACIÓN Y REPRESENTACIÓN DE ORDENADORES Y EQUIPOS DE PROCESO ELECTRÓNICO DE DATOS, ASÍ COMO DE SUS COMPONENTES, DISPOSITIVOS, COMPLEMENTOS, RECAMBIOS Y ACCESORIOS, TODO ELLO DENTRO DE LOS LÍMITES QUE EN CADA MOMENTO ESTABLEZCA LA LEGISLACIÓN ESPAÑOLA EN LA MATERIA.\r\n\r\nB-. LA PRESTACIÓN A LOS USUARIOS DE DICHOS ORDENADORES Y EQUIPOS, DE TODA CLASE DE SERVICIOS DE INFORMACIÓN, DOCUMENTACIÓN, ASESORAMIENTO Y ASISTENCIA MECÁNICA, TRATAMIENTO, EXPLOTACIÓN  Y APLICACIÓN DE DATOS.",
      "mainEntityOfPage": "https://www.contratacion.euskadi.eus/webkpe00-kperoc/es/ac71aBusquedaRegistrosWar/empresa/04404",
      "_links": {
        "self": {
          "name": "EMC COMPUTER SYSTEMS SPAIN, S.A.",
          "href": "https://api.euskadi.eus/procurements/companies/04404"
        }
      }
    },
    {
      "name": "ARTES GRÁFICAS ELKAR, S. COOP.",
      "registrationNumber": "00218",
      "identificationNumber": "F48048623",
      "address": "LARRONDO BEHEKO ETORBIDEA, EDIFICIO 4",
      "location": {
        "postalCode": "48180",
        "municipality": "Loiu",
        "county": "Bizkaia",
        "municipalityId": "903",
        "countyId": "48"
      },
      "economicActivities": [
        {
          "id": "1.474",
          "name": "Artes gráficas (impresión gráfica)",
          "_links": {
            "self": {
              "name": "Artes gráficas (impresión gráfica)",
              "href": "https://api.euskadi.eus/procurements/companies/economic-activities/1.474"
            }
          }
        }
      ],
      "certificateStartDate": "2011-07-01",
      "certificateEndDate": "2011-10-08",
      "object": "ARTES GRÁFICAS",
      "mainEntityOfPage": "https://www.contratacion.euskadi.eus/webkpe00-kperoc/es/ac71aBusquedaRegistrosWar/empresa/00218",
      "_links": {
        "self": {
          "name": "ARTES GRÁFICAS ELKAR, S. COOP.",
          "href": "https://api.euskadi.eus/procurements/companies/00218"
        }
      }
    },
    {
      "name": "CI COMERCIAL DE INTERIORISMO, SL",
      "registrationNumber": "04429",
      "identificationNumber": "B48964910",
      "address": "Alda. San Mamés, 43 bis - 5º dpto. 1",
      "location": {
        "postalCode": "48010",
        "municipality": "Bilbao",
        "county": "Bizkaia",
        "municipalityId": "020",
        "countyId": "48"
      },
      "economicActivities": [
        {
          "id": "1.613.2",
          "name": "Venta al por mayor de tejidos por metros textiles para el hogar, alfombras",
          "_links": {
            "self": {
              "name": "Venta al por mayor de tejidos por metros textiles para el hogar, alfombras",
              "href": "https://api.euskadi.eus/procurements/companies/economic-activities/1.613.2"
            }
          }
        }
      ],
      "certificateStartDate": "2011-06-30",
      "certificateEndDate": "2011-12-02",
      "object": "Comprar, vender, comercializar, distribuir, transformar e instalar al por mayor y detalle artículos destinados a la decoración de interiores de edificios, tales como revestimientos ligeros tanto verticales como horizontales de cualquier tipo de materiales bien sean de fibras textiles, artificiales o naturales, tabiques y techos modulares, moquetas y alfombras, suelos de madera, de PVC o pétreos, cortinajes y tapicería, ropa blanca y de color de todos usos, mobiliario cualquier elemento considerado como propio para la ornamentación y decoración de interiores de edificios. La instalación o transformación de los mencionados materiales en determinados lugares al aire libre, terrazas, piscinas y similares. La compra-venta de bienes inmuebles así como el alquiler de dichos inmuebles.",
      "mainEntityOfPage": "https://www.contratacion.euskadi.eus/webkpe00-kperoc/es/ac71aBusquedaRegistrosWar/empresa/04429",
      "_links": {
        "self": {
          "name": "CI COMERCIAL DE INTERIORISMO, SL",
          "href": "https://api.euskadi.eus/procurements/companies/04429"
        }
      }
    },
    {
      "name": "TYPO 90, S.L.",
      "registrationNumber": "04442",
      "identificationNumber": "B20489795",
      "address": "PARQUE EMPRESARIAL ZUATZU EDIFICIO IGELDO PLANTA 1-LOCAL 8",
      "location": {
        "postalCode": "20018",
        "municipality": "Donostia / San Sebastián",
        "county": "Gipuzkoa",
        "municipalityId": "069",
        "countyId": "20"
      },
      "economicActivities": [
        {
          "id": "1.844",
          "name": "Servicios de publicidad, relaciones públicas y similares",
          "_links": {
            "self": {
              "name": "Servicios de publicidad, relaciones públicas y similares",
              "href": "https://api.euskadi.eus/procurements/companies/economic-activities/1.844"
            }
          }
        }
      ],
      "certificateStartDate": "2011-06-29",
      "certificateEndDate": "2011-11-18",
      "object": "LA PRESTACIÓN DE SERVICIOS PLENOSDE AGENCIA DE PUBLICIDAD",
      "mainEntityOfPage": "https://www.contratacion.euskadi.eus/webkpe00-kperoc/es/ac71aBusquedaRegistrosWar/empresa/04442",
      "_links": {
        "self": {
          "name": "TYPO 90, S.L.",
          "href": "https://api.euskadi.eus/procurements/companies/04442"
        }
      }
    },
    {
      "name": "DISSMOFI-2000, S.R.L.",
      "registrationNumber": "01563",
      "identificationNumber": "B20386413",
      "address": "C/ AVENIDA DE OTAOLA, Nº 7.",
      "location": {
        "postalCode": "20600",
        "municipality": "Eibar",
        "county": "Gipuzkoa",
        "municipalityId": "030",
        "countyId": "20"
      },
      "economicActivities": [
        {
          "id": "1.316.6",
          "name": "Fabricación de mobiliario metálico",
          "_links": {
            "self": {
              "name": "Fabricación de mobiliario metálico",
              "href": "https://api.euskadi.eus/procurements/companies/economic-activities/1.316.6"
            }
          }
        }
      ],
      "certificateStartDate": "2011-06-28",
      "certificateEndDate": "2011-11-10",
      "object": "LA FABRICACIÓN, COMERCIALIZACIÓN, VENTA, IMPORTACIÓN, EXPORTACIÓN, GESTIÓN Y REPRESENTACIÓN DE MOBILIARIO, ARTÍCULOS Y COMPLEMENTOS PARA EL EQUIPAMIENTO DE OFICINAS E INSTALACIONES DE TODO TIPO",
      "mainEntityOfPage": "https://www.contratacion.euskadi.eus/webkpe00-kperoc/es/ac71aBusquedaRegistrosWar/empresa/01563",
      "_links": {
        "self": {
          "name": "DISSMOFI-2000, S.R.L.",
          "href": "https://api.euskadi.eus/procurements/companies/01563"
        }
      }
    },
    {
      "name": "ADIR, ACCESIBILIDAD, PROYECTOS Y CONSULTORÍA, S.L.",
      "registrationNumber": "04401",
      "identificationNumber": "B95580221",
      "address": "MARÍA MUÑOZ 4, BAJO",
      "location": {
        "postalCode": "48005",
        "municipality": "Bilbao",
        "county": "Bizkaia",
        "municipalityId": "020",
        "countyId": "48"
      },
      "economicActivities": [
        {
          "id": "1.843.9",
          "name": "Otros servicios técnicos n.c.o.p",
          "_links": {
            "self": {
              "name": "Otros servicios técnicos n.c.o.p",
              "href": "https://api.euskadi.eus/procurements/companies/economic-activities/1.843.9"
            }
          }
        }
      ],
      "certificateStartDate": "2011-06-28",
      "certificateEndDate": "2011-11-10",
      "object": "EL DESEMPEÑO DE TODA ACTIVIDAD RELACIONADA CON LA ACCESIBILIDAD, LA MOVILIDAD, EL DISEÑO PARA TODAS LAS PERSONAS, LA ARQUITECTURA, EL URBANISMO Y LA CONSULTORIA, TALES COMO:\r\n\r\na.- LA REALIZACIÓN DE TODO TIPO DE ESTUDIOS, ANTEPROYECTOS, PROYECTOS EJECUTIVOS Y DIRECCIONES DE OBRA DE ARQUITECTURA Y URBANISMO.\r\n\r\nb.- LA REALIZACIÓN DE TODO TIPO DE ESTUDIOS, ANTEPROYECTOS, PROYECTOS EJECUTIVOS Y DIRECCIONES DE OBRA DE MEJORA DE LA ACCESIBILIDAD Y DE ELIMINACIÓN DE BARRERAS DE OBRAS TANTO PÚBLICAS COMO PRIVADAS.\r\n\r\nc.- LA REALIZACIÓN DE PLANES DE ACCESIBILIDAD Y MOVILIDAD EN MUNICIPIOS, ADMINISTRACIONES, ORGANIZACIONES Y EMPRESAS.\r\n\r\nd.- LAS ACTIVIDADES DE INVESTIGACIÓN, FORMACIÓN Y ASESORAMIENTO TÉCNICO Y JURÍDICO EN EL ÁMBITO DE LA ACCESIBILIDAD Y LA ELIMINACIÓN DE BARRERAS.\r\n\r\ne.- LA PRESTACIÓN DE SERVICIOS DE CONSULTORÍA, AUDITORÍA Y/O CERTIFICACIÓN EN MATERIA DE ACCESIBILIDAD.\r\n\r\nf.- LA PRODUCCIÓN Y COMERCIALIZACIÓN DE PRODUCTOS Y SERVICIOS RELACIONADOS CON LA ACCESIBILIDAD Y EL DISEÑO PARA TODAS LAS PERSONAS.\r\n\r\ng.- OFRECER CUALESQUIERA DE LOS PRODUCTOS O SERVICIOS, ASÍ COMO LA REALIZACIÓN DE LAS OBRAS NECESARIAS ENCAMINADAS A FAVORECER LA ACCESIBILIDAD DE FORMA AUTÓNOMA AL MEDIO FÍSICO Y SOCIAL A CUALQUIER PERSONA Y TODO LO QUE ESTUVIERA RELACIONADO CON ELLO DIRECTA O INDIRECTAMENTE.\r\n\r\nh.- LA PRESTACIÓN DE SERVICIOS DE CONSULTORÍA EN SISTEMAS DE INFORMACIÓN GEOGRÁFICA, TRATAMIENTO CARTOGRÁFICO DIGITALIZADO, INVENTARIOS Y GESTIÓN DE DATOS CARTOGRÁFICOS, ESPECIALMENTE EN EL ENTORNO URBANO.\r\n\r\ni.- lLA INVESTIGACIÓN, INNOVACIÓN, DESARROLLO E IMPLANTACIÓN DE NUEVAS TECNOLOGÍAS DE INFORMACIÓN Y COMUNICACIÓN EN EL CAMPO DE ACCESIBILIDAD, ARQUITECTURA, URBANISMO Y DISEÑO PARA TODAS LAS PERSONAS.\r\n\r\nj.- LA REALIZACIÓN, DESARROLLO Y FOMENTO DE TODO TIPO DE ACTIVIDADES ECONÓMICAS ENCAMINADAS A FOMENTAR LA INCORPORACIÓN SOCIAL Y LABORAL DE PERSONAS EN SITUACIÓN DE EXCLUSIÓN SOCIA.L.",
      "mainEntityOfPage": "https://www.contratacion.euskadi.eus/webkpe00-kperoc/es/ac71aBusquedaRegistrosWar/empresa/04401",
      "_links": {
        "self": {
          "name": "ADIR, ACCESIBILIDAD, PROYECTOS Y CONSULTORÍA, S.L.",
          "href": "https://api.euskadi.eus/procurements/companies/04401"
        }
      }
    },
    {
      "name": "IPARBIT, S.L.",
      "registrationNumber": "01904",
      "identificationNumber": "B48520316",
      "address": "C/Somera, 8-3º izda.",
      "location": {
        "postalCode": "48005",
        "municipality": "Bilbao",
        "county": "Bizkaia",
        "municipalityId": "020",
        "countyId": "48"
      },
      "economicActivities": [
        {
          "id": "1.845",
          "name": "Explotación electrónica por cuenta de terceros",
          "_links": {
            "self": {
              "name": "Explotación electrónica por cuenta de terceros",
              "href": "https://api.euskadi.eus/procurements/companies/economic-activities/1.845"
            }
          }
        }
      ],
      "certificateStartDate": "2011-06-27",
      "certificateEndDate": "2011-11-11",
      "object": "LA PRESTACIÓN DE TODA CLASE DE SERVICIOS A PERSONAS FÍSICAS Y JURÍDICAS EN EL ÁMBITO DE LA INFORMÁTICA Y, EN ESPECIAL, LOS DE ASESORÍA Y CONSULTORÍA, EL DE LA FORMACIÓN, LA CESIÓN DE PERSONAL, EL ESTUDIO Y TRATAMIENTO DE LA INFORMACIÓN Y LOS SERVICIOS TELEMÁTICOS; Y LA COMPRA, VENTA, COMERCIALIZACIÓN, IMPORTACIÓN Y EXPORTACIÓN DE TODA CLASE DE EQUIPOS, MÁQUINAS, SOPORTES Y PRODUCTOS INFORMÁTICOS",
      "mainEntityOfPage": "https://www.contratacion.euskadi.eus/webkpe00-kperoc/es/ac71aBusquedaRegistrosWar/empresa/01904",
      "_links": {
        "self": {
          "name": "IPARBIT, S.L.",
          "href": "https://api.euskadi.eus/procurements/companies/01904"
        }
      }
    },
    {
      "name": "BERNEDO OBRAS Y SERVICIOS, S.L.",
      "registrationNumber": "03501",
      "identificationNumber": "B01276989",
      "address": "C/ GENERAL ALAVA, 9-1º DCHA",
      "location": {
        "postalCode": "01005",
        "municipality": "Vitoria-Gasteiz",
        "county": "Araba/Álava",
        "municipalityId": "059",
        "countyId": "01"
      },
      "economicActivities": [
        {
          "id": "1.501.1",
          "name": "Construcción completa, reparación y conservación de edificaciones",
          "_links": {
            "self": {
              "name": "Construcción completa, reparación y conservación de edificaciones",
              "href": "https://api.euskadi.eus/procurements/companies/economic-activities/1.501.1"
            }
          }
        },
        {
          "id": "1.501.2",
          "name": "Construcción completa, reparación y conservación obras civiles",
          "_links": {
            "self": {
              "name": "Construcción completa, reparación y conservación obras civiles",
              "href": "https://api.euskadi.eus/procurements/companies/economic-activities/1.501.2"
            }
          }
        }
      ],
      "certificateStartDate": "2011-06-27",
      "certificateEndDate": "2011-12-01",
      "object": "LA PROMOCIÓN, CONSTRUCCIÓN Y REHABILITACIÓN, POR CUENTA PROPIA O AJENA, DE TODA CLASE DE OBRAS, TANTO PÚBLICAS COMO PRIVADAS, DEN TODO TIPO DE INMUEBLES",
      "mainEntityOfPage": "https://www.contratacion.euskadi.eus/webkpe00-kperoc/es/ac71aBusquedaRegistrosWar/empresa/03501",
      "_links": {
        "self": {
          "name": "BERNEDO OBRAS Y SERVICIOS, S.L.",
          "href": "https://api.euskadi.eus/procurements/companies/03501"
        }
      }
    }
  ]
}