{
  "totalItems": 9042,
  "totalPages": 905,
  "currentPage": 83,
  "itemsOfPage": 10,
  "items": [
    {
      "name": "MERAKI & KO, S.L.",
      "registrationNumber": "07845",
      "identificationNumber": "B42753962",
      "address": "PORTUETXE, 45 B1 DPTO 7",
      "location": {
        "postalCode": "20018",
        "municipality": "Donostia / San Sebastián",
        "county": "Gipuzkoa",
        "municipalityId": "069",
        "countyId": "20"
      },
      "economicActivities": [
        {
          "id": "1.844",
          "name": "Servicios de publicidad, relaciones públicas y similares",
          "_links": {
            "self": {
              "name": "Servicios de publicidad, relaciones públicas y similares",
              "href": "https://api.euskadi.eus/procurements/companies/economic-activities/1.844"
            }
          }
        }
      ],
      "certificateStartDate": "2026-01-14",
      "certificateEndDate": "2026-06-27",
      "object": "1. DISEÑO GRÁFICO, CREACIÓN, COORDINACIÓN, PROYECCIÓN, REALIZACIÓN, EJECUCIÓN, TRAMITACIÓN, PUBLICACIÓN Y DISTRIBUCIÓN, POR CUENTA PROPIA O DE TERCEROS, DE CAMPAÑAS Y PROMOCIONES DE PUBLICIDAD, A TRAVÉS DE CUALQUIER MEDIO Y/O SOPORTE DE DIFUSIÓN Y COMUNICACIÓN, Y/O EL EJERCICIO EN GENERAL DE ACTIVIDADES PUBLICITARIAS O PROPIAS DE LAS AGENCIAS DE PUBLICIDAD, EN TODAS SUS RAMAS, CLASES Y ÁMBITOS. 2. LA REALIZACIÓN DE ACTIVIDADES DE AGENCIA E INTERMEDIACIÓN COMERCIAL, ASÍ COMO DE CONSULTORÍA Y DE GESTIÓN EMPRESARIAL EN CUALQUIER TIPO DE SECTOR YESPECIALMENTE, EN EL SECTOR DE LA PUBLICIDAD, EL MARKETING, EL MERCHANDISING Y LOS ENTORNOS DIGITALES. 3. PRESTACIÓN DE SERVICIOS DE CONSULTORÍA ESTRATÉGICA, ANALÍTICA, TECNOLÓGICA Y DE BIG DATA, ASÍ COMO LA CONSTRUCCIÓN DE MODELOS ESTADÍSTICOS Y MATEMÁTICOS QUE AYUDEN A IMPULSAR PROYECTOS DE INVESTIGACIÓN Y DESARROLLO DE LA INNOVACIÓN APLICADA QUE MEJOREN LA COMPETITIVIDAD DE LAS EMPRESAS E INSTITUCIONES PÚBLICAS Y PRIVADAS MEDIANTE LOS MEDIOS Y TECNOLOGÍAS QUE SE REQUIERAN EN CADA CASO. 4. LA CREACIÓN O UTILIZACIÓN DE HERRAMIENTAS PERSONALIZADAS DE MARKETING PARA REALIZACIÓN Y EJECUCIÓN DE TODO TIPO DE PROYECTOS PUBLICITARIOS Y LAS TAREAS RELACIONADAS CON LA CONTRATACIÓN, INTERMEDIACIÓN, Y DIFUSIÓN DE MENSAJES PUBLICITARIOS EN CUALQUIERA DE SUS MODALIDADES POSIBLES, A TRAVÉS DE CUALQUIER MEDIO DE DIFUSIÓN O COMUNICACIÓN SOCIAL. 5. REPRODUCCIÓN DE TEXTOS O IMÁGENES DESTINADOS A LA IMPRESIÓN, COMPOSICIÓN E IMPRESIÓN DE TEXTOS O IMÁGENES POR CUALQUIER PROCEDIMIENTO O SISTEMA, LABORATORIO FOTOGRÁFICO Y CINEMATOGRÁFICO. 6. LA IMPRESIÓN MEDIANTE TODO TIPO DE TÉCNICAS Y EN ESPECIAL, LA IMPRESIÓN DIGITAL DE PEQUEÑO Y GRAN FORMATO POR CUALQUIER PROCEDIMIENTO O SISTEMA Y EN CUALQUIER TIPO DE MATERIAL COMO LO SON LAS LONAS PUBLICITARIAS, VALLAS, RÓTULOS, CARTELERÍA Y EN GENERAL, TODO TIPO DE MATERIAL SUSCEPTIBLE DE SOPORTAR LAS TÉCNICAS DE IMPRESIÓN, ASÍ COMO LA INSTALACIÓN O COLOCACIÓN DE LOS RESULTADOS OBTENIDOS CON DICHAS TÉCNICAS. 7. LA CREACIÓN, ADQUISICIÓN, COMERCIALIZACIÓN Y EXPLOTACIÓN EN CUALQUIER FORMA, DIRECTA O INDIRECTAMENTE, DE MARCAS, PATENTES Y CUALQUIER OTRO TIPO DE DERECHOS DE PROPIEDAD INDUSTRIAL, INTELECTUAL O DE IMAGEN, ASÍ COMO DE CUALESQUIERA OBJETOS, MODELOS O MÉTODOS SUSCEPTIBLES DE SERVIR SOPORTE PARA LA EXPLOTACIÓN DE LOS DERECHOS ANTERIORES. 8. ACTIVIDAD DE ENSEÑANZA Y FORMACIÓN DE PERSONAL, IMPARTIENDO CURSOS DE FORMACIÓN TÉCNICA Y RECICLAJE PROFESIONAL. 9. LA COMPRA, VENTA, IMPORTACIÓN, EXPORTACIÓN, ALQUILER Y REPARACIÓN DE MAQUINARIA Y ACCESORIOS PARA LA IMPRENTA Y COPISTERÍA EN GENERAL. 10. LA TENENCIA, ADQUISICIÓN Y ENAJENACIÓN DE TODA CLASE DE VALORES MOBILIARIOS, TANTO NACIONALES COMO EXTRANJEROS, CON LAS EXCEPCIONES Y LIMITACIONES ESTABLECIDAS POR LA LEY DEL MERCADO DE VALORES Y DE INSTITUCIONES DE INVERSIÓN COLECTIVA. 11. LA ADQUISICIÓN, PROMOCIÓN, EXPLOTACIÓN, REHABILITACIÓN, ALQUILER, GESTIÓN, ADMINISTRACIÓN Y TRANSMISIÓN DE INMUEBLES RÚSTICOS O URBANOS, POR CUALQUIER TÍTULO, YA SEAN EN SU TOTALIDAD O EN PARTE, TANTO EN ESPAÑA COMO EN EL EXTRANJERO",
      "mainEntityOfPage": "https://www.contratacion.euskadi.eus/webkpe00-kperoc/es/ac71aBusquedaRegistrosWar/empresa/07845",
      "_links": {
        "self": {
          "name": "MERAKI & KO, S.L.",
          "href": "https://api.euskadi.eus/procurements/companies/07845"
        }
      }
    },
    {
      "name": "EKOCEAN, S.L.",
      "registrationNumber": "03525",
      "identificationNumber": "B20955985",
      "address": "GARIBAY 4, 3º IZDA",
      "location": {
        "postalCode": "20004",
        "municipality": "Donostia / San Sebastián",
        "county": "Gipuzkoa",
        "municipalityId": "069",
        "countyId": "20"
      },
      "economicActivities": [
        {
          "id": "1.912",
          "name": "Servicios forestales",
          "_links": {
            "self": {
              "name": "Servicios forestales",
              "href": "https://api.euskadi.eus/procurements/companies/economic-activities/1.912"
            }
          }
        }
      ],
      "certificateStartDate": "2026-01-14",
      "certificateEndDate": "2026-06-26",
      "object": "PROSPECCIONES SUBMARINAS; RECOGIDAS DE MUESTRAS DE FONDO MARINO; RECOGIDAS DE MUESTRAS DE LA SUPERFICIE MARINA; ELABORACIÓN DE CARTOGRAFÍA SUBMARINA; REALIZACIÓN DE BATIMETRÍAS; COLOCACIÓN DE FONDEOS, COLOCACIÓN DE BALIZAMIENTOS DE PLAYAS; TRABAJOS DE BUCEO; COLOCACIÓN DE APARATOS DE MEDIDA OCEANOGRÁFICOS; TRANSPORTES DE BARCOS; COMPRAVENTA DE BARCOS; ALQUILER DE BARCOS; VIGILANCIA PESQUERA; INSTALACIÓN DE ESTACIONES METEOROLÓGICAS; INSTALACIÓN DE ESTACIONES OCEANOMETEREOLÓGICAS; ACUICULTURA; RECOGIDA DE MOLUSCOS; RECOGIDA DE ERIZOS MARINOS; RECOGIDA DE ALGAS MARINAS",
      "mainEntityOfPage": "https://www.contratacion.euskadi.eus/webkpe00-kperoc/es/ac71aBusquedaRegistrosWar/empresa/03525",
      "_links": {
        "self": {
          "name": "EKOCEAN, S.L.",
          "href": "https://api.euskadi.eus/procurements/companies/03525"
        }
      }
    },
    {
      "name": "ANBIOTEK, S.L.",
      "registrationNumber": "02709",
      "identificationNumber": "B48457402",
      "address": "POL INDUSTRIAL AXPE. RIBERA DE AXPE, Nº 11 B-201",
      "location": {
        "postalCode": "48950",
        "municipality": "Erandio",
        "county": "Bizkaia",
        "municipalityId": "902",
        "countyId": "48"
      },
      "economicActivities": [
        {
          "id": "1.936",
          "name": "Investigación científica y técnica",
          "_links": {
            "self": {
              "name": "Investigación científica y técnica",
              "href": "https://api.euskadi.eus/procurements/companies/economic-activities/1.936"
            }
          }
        }
      ],
      "certificateStartDate": "2026-01-14",
      "certificateEndDate": "2026-06-26",
      "object": "LA PRESTACIÓN DE SERVICIOS DE CONSULTORÍA INTEGRAL, CONCRETADOS EN ASESORAMIENTO, CONSULTORÍA DE GESTIÓN, ORGANIZACIÓN Y FORMACIÓN, TANTO A EMPRESAS COMO A ENTIDADES PÚBLICAS Y PRIVADAS, EN MATERIA DE INVESTIGACIÓN, CONTROL Y GESTIÓN DE SISTEMAS ACUÁTICOS, ASÍ COMO LA PRESTACIÓN DE OTROS SERVICIOS EN RELACIÓN CON LA ECOLOGÍA Y EL MEDIO AMBIENTE. COMO ACTIVIDAD COMPLEMENTARIA  SE INCLUYE EN EL OBJETO DE LA SOCIEDAD, LA IMPORTACIÓN, EXPORTACIÓN, REPRESENTACIÓN Y COMERCIALIZACIÓN DE APARATOS, SOFTWARE, PUBLICACIONES Y OTROS ARTÍCULOS EN RELACIÓN CON LA ECOLOGÍA Y EL MEDIO AMBIENTE",
      "mainEntityOfPage": "https://www.contratacion.euskadi.eus/webkpe00-kperoc/es/ac71aBusquedaRegistrosWar/empresa/02709",
      "_links": {
        "self": {
          "name": "ANBIOTEK, S.L.",
          "href": "https://api.euskadi.eus/procurements/companies/02709"
        }
      }
    },
    {
      "name": "STUDIO MISTURA, S. L. P.",
      "registrationNumber": "10290",
      "identificationNumber": "B56909963",
      "address": "Calle Vista Alegre, 1, Local 2D",
      "location": {
        "postalCode": "48012",
        "municipality": "Bilbao",
        "county": "Bizkaia",
        "municipalityId": "020",
        "countyId": "48"
      },
      "economicActivities": [
        {
          "id": "1.843.2",
          "name": "Servicios técnicos de arquitectura y urbanismo",
          "_links": {
            "self": {
              "name": "Servicios técnicos de arquitectura y urbanismo",
              "href": "https://api.euskadi.eus/procurements/companies/economic-activities/1.843.2"
            }
          }
        }
      ],
      "certificateStartDate": "2026-01-14",
      "certificateEndDate": "2026-06-27",
      "object": "1. LA CONSTITUCIÓN, EDIFICACIÓN, URBANIZACIÓN, REHABILITACIÓN, PLANEACIÓN, PROGRAMACIÓN, PROYECCIÓN, CONSERVACIÓN Y MANTENIMIENTO DE TODO TIPO DE OBRAS DE INGENIERÍA Y ARQUITECTURA YA SEAN DE CARÁCTER PÚBLICO Y/O PRIVADO, Y EN GENERAL LA REALIZACIÓN DE TODA CLASE DE TRÁMITES RELACIONADOS DIRECTA O INDIRECTAMENTE CON LOS FINES YA SEÑALADOS, CUALQUIERA QUE SEA SU CLASE, ÍNDOLE, ESPECIE O NATURALEZA, INCLUYENDO LA REALIZACIÓN DE OBRAS COMPLEMENTARIAS, CONEXAS Y ACCESORIAS. 2. GESTIONAR, PROMOVER Y LLEVAR A CABO Y EJECUTAR TODA CLASE DE DESARROLLOS INMOBILIARIOS, PRESTANDO ASISTENCIA TÉCNICA Y SUPERVISIÓN EN TODA CLASE DE OBRAS DE INGENIERÍA, ARQUITECTURA Y EN TODO TIPO DE CONSTRUCCIONES Y DESARROLLOS, INCLUYENDO EL SECTOR PÚBLICO Y PRIVADO. 3. EL ESTUDIO, DISEÑO, PLANEACIÓN, CONTRATACIÓN, REALIZACIÓN, CONSTRUCCIÓN, FINANCIACIÓN, EXPLOTACIÓN Y ADMINISTRACIÓN DE NEGOCIOS DE INFRAESTRUCTURA Y LA EJECUCIÓN DE TODAS LAS ACTIVIDADES Y OBRAS PROPIAS DE LA INGENIERÍA Y LA ARQUITECTURA EN TODAS SUS MANIFESTACIONES, MODALIDADES Y ESPECIALIDADES, DENTRO O FUERA DEL TERRITORIO NACIONAL. 4. COMPRAVENTA Y COMERCIALIZACIÓN DE TODO TIPO DE MATERIALES PARA LA CONSTRUCCIÓN, HERRAMIENTAS DE CUALQUIER TIPO, ARTÍCULOS DE FERRETERÍA, PLOMERÍA Y ELECTRICIDAD, ASÍ COMO TODA CLASE DE BIENES ACCESORIOS Y CONEXOS CON LOS ANTERIORES O QUE TENGAN RELACIÓN CON LOS FINES Y OBJETOS DE LA SOCIEDAD. 5. COMPRAVENTA, COMERCIALIZACIÓN, IMPORTACIÓN Y EXPORTACIÓN DE TODO TIPO DE MAQUINARIA EQUIPO Y HERRAMIENTAS NECESARIAS PARA EL CUMPLIMIENTO DE SU OBJETO Y FINES SOCIALES. 6. LA CREACIÓN, ESTABLECIMIENTO, OPERACIÓN Y COMERCIALIZACIÓN, POR CUALQUIER TIPO DE ESTABLECIMIENTOS, AGENCIAS, EXPENDIOS Y REPRESENTACIONES DEDICADAS A LA COMPRAVENTA Y COMERCIALIZACIÓN DE LOS BIENES SEÑALADOS EN EL INCISO ANTERIOR Y LA PRESTACIÓN DE SERVICIOS SEÑALADOS EN APARTADOS E INCISOS ANTERIORES. 7. LA ADQUISICIÓN DE INMUEBLES O INVERSIONES EN ELLOS PARA EJECUTAR POR SI O POR MEDIO DE TERCEROS LA CONSTRUCCIÓN, URBANIZACIÓN, PROMOCIÓN, VENTA DE TODO TIPO DE PROYECTO SIN MOBILIARIOS QUE RESULTEN DE SU EDIFICACIÓN. 8. LA ADQUISICIÓN, ENAJENACIÓN, ARRENDAMIENTO, PERMUTA Y COMERCIALIZACIÓN, REALIZACIÓN DE TODO TIPO DE ACTOS JURÍDICOS, CONTRATOS Y CONVENIOS, DE TODA CLASE DE BIENES INMUEBLES, MUEBLES, ACCIONES Y DERECHOS. 9. LA PROMOCIÓN, CONSTITUCIÓN, CREACIÓN, DESARROLLO, PLANEACIÓN Y ESTUDIO DE TODO TIPO DE FRACCIONAMIENTOS URBANOS, TURÍSTICOS, O DE CUALQUIER TIPO, LITIFICACIONES, SUBDIVISIONES, COMPLEJOS URBANÍSTICOS CONDOMINIOS.",
      "mainEntityOfPage": "https://www.contratacion.euskadi.eus/webkpe00-kperoc/es/ac71aBusquedaRegistrosWar/empresa/10290",
      "_links": {
        "self": {
          "name": "STUDIO MISTURA, S. L. P.",
          "href": "https://api.euskadi.eus/procurements/companies/10290"
        }
      }
    },
    {
      "name": "MIREN IRUNE GORROÑO MENCHACA",
      "registrationNumber": "10033",
      "identificationNumber": "14253545P",
      "address": "Calle Juan Calzada (48300), 20 - 2º IZDA.",
      "location": {
        "postalCode": "48300",
        "municipality": "Gernika-Lumo",
        "county": "Bizkaia",
        "municipalityId": "046",
        "countyId": "48"
      },
      "economicActivities": [
        {
          "id": "2.732",
          "name": "Procuradores",
          "_links": {
            "self": {
              "name": "Procuradores",
              "href": "https://api.euskadi.eus/procurements/companies/economic-activities/2.732"
            }
          }
        }
      ],
      "certificateStartDate": "2026-01-14",
      "certificateEndDate": "2026-06-23",
      "object": "PROCURADORES.",
      "mainEntityOfPage": "https://www.contratacion.euskadi.eus/webkpe00-kperoc/es/ac71aBusquedaRegistrosWar/empresa/10033",
      "_links": {
        "self": {
          "name": "MIREN IRUNE GORROÑO MENCHACA",
          "href": "https://api.euskadi.eus/procurements/companies/10033"
        }
      }
    },
    {
      "name": "JOSE BALD GARMENDIA",
      "registrationNumber": "09976",
      "identificationNumber": "44560228M",
      "address": "Calle Puiana 8 3ºB",
      "location": {
        "postalCode": "20305",
        "municipality": "Irun",
        "county": "Gipuzkoa",
        "municipalityId": "045",
        "countyId": "20"
      },
      "economicActivities": [
        {
          "id": "2.311",
          "name": "Ingenieros industriales y textiles",
          "_links": {
            "self": {
              "name": "Ingenieros industriales y textiles",
              "href": "https://api.euskadi.eus/procurements/companies/economic-activities/2.311"
            }
          }
        }
      ],
      "certificateStartDate": "2026-01-14",
      "certificateEndDate": "2026-06-23",
      "object": "INGENIEROS INDUSTRIALES Y TEXTILES.",
      "mainEntityOfPage": "https://www.contratacion.euskadi.eus/webkpe00-kperoc/es/ac71aBusquedaRegistrosWar/empresa/09976",
      "_links": {
        "self": {
          "name": "JOSE BALD GARMENDIA",
          "href": "https://api.euskadi.eus/procurements/companies/09976"
        }
      }
    },
    {
      "name": "BIZKORTZEN, S.L.U.",
      "registrationNumber": "07557",
      "identificationNumber": "B20661500",
      "address": "C/ GURUTZEGI, Nº 12 - 1ª PLANTA LOCAL 15",
      "location": {
        "postalCode": "20018",
        "municipality": "Donostia / San Sebastián",
        "county": "Gipuzkoa",
        "municipalityId": "069",
        "countyId": "20"
      },
      "economicActivities": [
        {
          "id": "1.967.2",
          "name": "Escuelas y servicios de perfeccionamiento del deporte",
          "_links": {
            "self": {
              "name": "Escuelas y servicios de perfeccionamiento del deporte",
              "href": "https://api.euskadi.eus/procurements/companies/economic-activities/1.967.2"
            }
          }
        }
      ],
      "certificateStartDate": "2026-01-14",
      "certificateEndDate": "2026-06-24",
      "object": "LA PRESTACIÓN DE SERVICIOS DEPORTIVOS Y DE OCUPACIÓN DEL OCIO Y TIEMPO LIBRE, EN ESPECIAL LOS SIGUIENTES: DEPORTE ESCOLAR, ESCUELAS DEPORTIVAS, ACTIVIDADES EN LA NATURALEZA: RAFTING, DESCENSO DE CAÑONES, PARAPENTE, ESQUÍ, Y OTRAS DISCIPLINAS ANÁLOGAS; ACTIVIDADES FÍSICO-DEPORTIVAS DE ACONDICIONAMIENTO FÍSICO, EXPRESIÓN, CREACIÓN Y RENDIMIENTO, EN ESPECIAL AERÓBIC, BALLET CLÁSICO, GIMNASIA DE MANTENIMIENTO Y DESTINADA A LA TERCERA EDAD, PREPARACIÓN FÍSICA, ACTIVIDADES ACUÁTICAS; PROGRAMAS DE ACONDICIONAMIENTO Y RENDIMIENTO PARA DEPORTISTAS INDIVIDUALES DE CUALQUIER DISCIPLINA DEPORTIVA, O COLECTIVOS (EQUIPOS DEPORTIVOS); ORGANIZACIÓN DE COMPETICIONES Y EXHIBICIONES DEPORTIVAS, SIEMPRE EN EL MARCO DEL DEPORTE PARA AFICIONADOS, CON EXCLUSIÓN DE LA PARTICIPACIÓN EN COMPETICIONES DEPORTIVAS OFICIALES DE CARÁCTER PROFESIONAL. ASESORAMIENTO Y CONSULTORÍA EN LAS MATERIAS CITADAS. MEDICINA Y PSICOLOGÍA DEPORTIVA. CREACIÓN, DIRECCIÓN Y MANTENIMIENTO DE INSTALACIONES DEPORTIVAS. ACTIVIDADES DE MARKETING Y PUBLICIDAD RELACIONADAS CON DICHAS ACTIVIDADES DEPORTIVAS, ESPECIALMENTE LA GESTIÓN DE PATROCINIO DE ACTIVIDADES DEPORTIVAS Y REALIZACIÓN DE ENCUESTAS Y ESTUDIOS DE MERCADO. LA INTERMEDIACIÓN E INFRAESTRUCTURA PARA LA PRESTACIÓN POR SUS SOCIOS DE LOS SERVICIOS RELACIONADOS ANTERIORMENTE Y LA COORDINACIÓN DE LAS DIFERENTES PRESTACIONES ESPECÍFICAS DE AQUELLOS EN LOS CITADOS RAMOS; EN EL ÁREA DE RECURSOS HUMANOS, LA REALIZACIÓN DE CURSOS DE FORMACIÓN, PRESTACIÓN DE PERSONAL DEPORTIVO, Y ASESORÍA LABORAL O JURÍDICA EN LAS CITADAS ÁREAS DE ACTIVIDAD, LA ADQUISICIÓN, ENAJENACIÓN, GESTIÓN Y PROMOCIÓN DEL SUELO O DE APROVECHAMIENTOS URBANÍSTICOS POR CUALQUIERA DE LOS PROCEDIMIENTOS LEGALMENTE ESTABLECIDO,  POR CUALQUIER TÍTULO, DE FINCAS RÚSTICAS O URBANAS, ASÍ COMO LA REHABILITACIÓN, ADMINISTRACIÓN Y PROMOCIÓN DE VIVIENDAS, SUELOS Y EDIFICACIONES, INCLUIDA LA GESTIÓN, EXPLOTACIÓN Y ENAJENACIÓN DE LAS OBRAS Y SERVICIOS RESULTANTES; Y LA ADQUISICIÓN, ENAJENACIÓN Y ADJUDICACIÓN DE VIVIENDAS, LOCALES DE NEGOCIO Y EDIFICACIONES COMPLEMENTARIAS, EN PROYECTO DE EJECUCIÓN O TERMINADAS, Y LA ADJUDICACIÓN Y CONTRATACIÓN DE TODA CLASE DE OBRAS, ESTUDIOS Y PROYECTOS PRECISOS PARA LA CONSTRUCCIÓN Y REHABILITACIÓN DE VIVIENDAS DE ACUERDO CON LOS PLANES DE ACTUACIÓN, ASÍ COMO LA ADQUISICIÓN DE CUALESQUIERA BIENES INMUEBLES PARA EL DESARROLLO DE LA PROPIA ACTIVIDAD",
      "mainEntityOfPage": "https://www.contratacion.euskadi.eus/webkpe00-kperoc/es/ac71aBusquedaRegistrosWar/empresa/07557",
      "_links": {
        "self": {
          "name": "BIZKORTZEN, S.L.U.",
          "href": "https://api.euskadi.eus/procurements/companies/07557"
        }
      }
    },
    {
      "name": "MUEBLES DE OFICINA AQUERRETA, S.L.",
      "registrationNumber": "05890",
      "identificationNumber": "B20391298",
      "address": "BURNIOLA KALEA. POLIGONO SOROXARTA, PABELLON Nº 3-A",
      "location": {
        "postalCode": "20305",
        "municipality": "Irun",
        "county": "Gipuzkoa",
        "municipalityId": "045",
        "countyId": "20"
      },
      "economicActivities": [
        {
          "id": "1.659.2",
          "name": "Venta al por menor de muebles de oficina y máquinas y equipos de oficina",
          "_links": {
            "self": {
              "name": "Venta al por menor de muebles de oficina y máquinas y equipos de oficina",
              "href": "https://api.euskadi.eus/procurements/companies/economic-activities/1.659.2"
            }
          }
        }
      ],
      "certificateStartDate": "2026-01-14",
      "certificateEndDate": "2026-06-26",
      "object": "LA FABRICACIÓN, DISTRIBUCIÓN, COMERCIALIZACIÓN Y VENTA, TANTO AL POR MAYOR COMO AL POR MENOR. EXPORTACIÓN E IMPORTACIÓN DE TODA CLASE DE MUEBLES, MAQUINARIA Y EQUIPAMIENTO DE OFICINAS",
      "mainEntityOfPage": "https://www.contratacion.euskadi.eus/webkpe00-kperoc/es/ac71aBusquedaRegistrosWar/empresa/05890",
      "_links": {
        "self": {
          "name": "MUEBLES DE OFICINA AQUERRETA, S.L.",
          "href": "https://api.euskadi.eus/procurements/companies/05890"
        }
      }
    },
    {
      "name": "BUS-DEÓBRIGA S.L.",
      "registrationNumber": "06295",
      "identificationNumber": "B09285719",
      "address": "C/ Montañana s/n. Parelas 121-122. Pbellón 13",
      "location": {
        "postalCode": "09200",
        "municipality": "Miranda de Ebro",
        "county": "Burgos",
        "municipalityId": "219",
        "countyId": "09"
      },
      "economicActivities": [
        {
          "id": "1.721.3",
          "name": "Transporte de viajeros por carretera",
          "_links": {
            "self": {
              "name": "Transporte de viajeros por carretera",
              "href": "https://api.euskadi.eus/procurements/companies/economic-activities/1.721.3"
            }
          }
        }
      ],
      "certificateStartDate": "2026-01-14",
      "certificateEndDate": "2026-07-14",
      "object": "LA REALIZACIÓN DE TRANSPORTE DE MERCANCÍAS Y VIAJEROS, POR CUALQUIER MEDIO Y MODALIDAD, TANTO DE SERVICIO PÚBLICO, COMO PRIVADO, ASÍ COMO DE LAS ACTIVIDADES AUXILIARES Y COMPLEMENTARIAS DEL TRANSPORTE",
      "mainEntityOfPage": "https://www.contratacion.euskadi.eus/webkpe00-kperoc/es/ac71aBusquedaRegistrosWar/empresa/06295",
      "_links": {
        "self": {
          "name": "BUS-DEÓBRIGA S.L.",
          "href": "https://api.euskadi.eus/procurements/companies/06295"
        }
      }
    },
    {
      "name": "ESLA BALLONTI EXCAVACIONES Y OBRAS SOCIEDAD LIMITADA",
      "registrationNumber": "04818",
      "identificationNumber": "B95203972",
      "address": "Grupo Lehendakari Agirre nº 7",
      "location": {
        "postalCode": "48510",
        "municipality": "Valle de Trápaga-Trapagaran",
        "county": "Bizkaia",
        "municipalityId": "080",
        "countyId": "48"
      },
      "economicActivities": [
        {
          "id": "1.852",
          "name": "Alquiler de maquinaria y equipo para la construcción",
          "_links": {
            "self": {
              "name": "Alquiler de maquinaria y equipo para la construcción",
              "href": "https://api.euskadi.eus/procurements/companies/economic-activities/1.852"
            }
          }
        },
        {
          "id": "1.861.2",
          "name": "Alquiler de locales industriales y otros alquileres n.c.o.p",
          "_links": {
            "self": {
              "name": "Alquiler de locales industriales y otros alquileres n.c.o.p",
              "href": "https://api.euskadi.eus/procurements/companies/economic-activities/1.861.2"
            }
          }
        }
      ],
      "certificateStartDate": "2026-01-14",
      "certificateEndDate": "2026-06-27",
      "classification": [
        {
          "id": "O",
          "name": "Obras",
          "groups": [
            {
              "id": "A",
              "name": "MOVIMIENTO DE TIERRAS Y PERFORACIONES",
              "subgroups": [
                {
                  "id": "01",
                  "name": "DESMONTES Y VACIADOS",
                  "categories": [
                    {
                      "id": "4",
                      "name": "Desde 840.001 Hasta 2.400.000",
                      "_links": {
                        "self": {
                          "name": "Desde 840.001 Hasta 2.400.000",
                          "href": "https://api.euskadi.eus/procurements/companies/types/O/categories/4"
                        }
                      }
                    }
                  ],
                  "_links": {
                    "self": {
                      "name": "DESMONTES Y VACIADOS",
                      "href": "https://api.euskadi.eus/procurements/companies/types/O/groups/A/subgroups/01"
                    }
                  }
                }
              ],
              "_links": {
                "self": {
                  "name": "MOVIMIENTO DE TIERRAS Y PERFORACIONES",
                  "href": "https://api.euskadi.eus/procurements/companies/types/O/groups/A"
                }
              }
            },
            {
              "id": "C",
              "name": "EDIFICACIONES",
              "subgroups": [
                {
                  "id": "01",
                  "name": "DEMOLICIONES",
                  "categories": [
                    {
                      "id": "1",
                      "name": "Desde 0 Hasta 150.000",
                      "_links": {
                        "self": {
                          "name": "Desde 0 Hasta 150.000",
                          "href": "https://api.euskadi.eus/procurements/companies/types/O/categories/1"
                        }
                      }
                    }
                  ],
                  "_links": {
                    "self": {
                      "name": "DEMOLICIONES",
                      "href": "https://api.euskadi.eus/procurements/companies/types/O/groups/C/subgroups/01"
                    }
                  }
                }
              ],
              "_links": {
                "self": {
                  "name": "EDIFICACIONES",
                  "href": "https://api.euskadi.eus/procurements/companies/types/O/groups/C"
                }
              }
            },
            {
              "id": "E",
              "name": "HIDRAULICAS",
              "subgroups": [
                {
                  "id": "01",
                  "name": "ABASTECIMIENTOS Y SANEAMIENTOS",
                  "categories": [
                    {
                      "id": "1",
                      "name": "Desde 0 Hasta 150.000",
                      "_links": {
                        "self": {
                          "name": "Desde 0 Hasta 150.000",
                          "href": "https://api.euskadi.eus/procurements/companies/types/O/categories/1"
                        }
                      }
                    }
                  ],
                  "_links": {
                    "self": {
                      "name": "ABASTECIMIENTOS Y SANEAMIENTOS",
                      "href": "https://api.euskadi.eus/procurements/companies/types/O/groups/E/subgroups/01"
                    }
                  }
                },
                {
                  "id": "04",
                  "name": "ACEQUIAS Y DESAGÜES",
                  "categories": [
                    {
                      "id": "1",
                      "name": "Desde 0 Hasta 150.000",
                      "_links": {
                        "self": {
                          "name": "Desde 0 Hasta 150.000",
                          "href": "https://api.euskadi.eus/procurements/companies/types/O/categories/1"
                        }
                      }
                    }
                  ],
                  "_links": {
                    "self": {
                      "name": "ACEQUIAS Y DESAGÜES",
                      "href": "https://api.euskadi.eus/procurements/companies/types/O/groups/E/subgroups/04"
                    }
                  }
                },
                {
                  "id": "05",
                  "name": "DEFENSAS DE MARGENES Y ENCAUZAMIENTOS",
                  "categories": [
                    {
                      "id": "1",
                      "name": "Desde 0 Hasta 150.000",
                      "_links": {
                        "self": {
                          "name": "Desde 0 Hasta 150.000",
                          "href": "https://api.euskadi.eus/procurements/companies/types/O/categories/1"
                        }
                      }
                    }
                  ],
                  "_links": {
                    "self": {
                      "name": "DEFENSAS DE MARGENES Y ENCAUZAMIENTOS",
                      "href": "https://api.euskadi.eus/procurements/companies/types/O/groups/E/subgroups/05"
                    }
                  }
                },
                {
                  "id": "07",
                  "name": "OBRAS HIDRAULICAS SIN CUALIFICACION ESPECIFICA",
                  "categories": [
                    {
                      "id": "1",
                      "name": "Desde 0 Hasta 150.000",
                      "_links": {
                        "self": {
                          "name": "Desde 0 Hasta 150.000",
                          "href": "https://api.euskadi.eus/procurements/companies/types/O/categories/1"
                        }
                      }
                    }
                  ],
                  "_links": {
                    "self": {
                      "name": "OBRAS HIDRAULICAS SIN CUALIFICACION ESPECIFICA",
                      "href": "https://api.euskadi.eus/procurements/companies/types/O/groups/E/subgroups/07"
                    }
                  }
                }
              ],
              "_links": {
                "self": {
                  "name": "HIDRAULICAS",
                  "href": "https://api.euskadi.eus/procurements/companies/types/O/groups/E"
                }
              }
            }
          ],
          "_links": {
            "self": {
              "name": "Obras",
              "href": "https://api.euskadi.eus/procurements/companies/types/O"
            }
          }
        }
      ],
      "object": "A) LA CONSTRUCCION DE TODO TIPO DE OBRAS, TANTO PUBLICAS COMO PRIVADAS, PROMOCION COMPRAVENTA, EXPLOTACION DE EDIFICIOS SOLARES, FINCAS RUSTICAS O URBANAS; B) LA ADQUISICIÓN, ENAJENACIÓN O CESIOÓN DE BIENES DE EQUIPO, MAQUINARIA Y UTILLAJE, ASI COMO SU VENTA O ALQUILER  CON O SIN CONDUCTOR, IMPORTACION O EXPORTACIÓN, POR CUALQUIERA DE LAS FORMAS ADMITIDAS EN DERECHO, ASÍ COMO INVESTIGACIONES Y MEJORAS EN PRODUCTOS, LICENCIAS, PATENTES Y DERECHOS DE PROPIEDAD INDUSTRIAL O INTELECTUAL, TANO NACIONALES COMO EXTRANJEROS; C) LA ELABORACIÓN, MANIPULACIÓN Y RECICLAJE DE TODA CLASE DE ÁRIDOS, ARCILLAS, ESCORIAS, PIEDRAS, ROCAS, GRAVAS Y CHATARRAS; D) LA COMPRA, TENENCIA, ENAJENACIÓN Y EXPLOTACIÓN DE PATENTES, MARCAS, MODELOS, LICENCIAS, NOMBRES COMERCIALES Y TODA CLASE DE PERTENENCIAS DE LA PROPIEDAD INDUSTRIAL E INTELECTUAL; E) LA DISTRIBUCIÓN, TRANSPORTE, VENTA Y COMPRA DE TODO TIPO DE MATERIALES DE CONSTRUCCIÓN, ASI COMO DE CANTERAS, MINAS, ESCORIAS Y CHATARRAS; F) LA EXPLOTACIÓN DE ESCOMBRERAS, VERTEDEROS Y O GRAVERAS",
      "mainEntityOfPage": "https://www.contratacion.euskadi.eus/webkpe00-kperoc/es/ac71aBusquedaRegistrosWar/empresa/04818",
      "_links": {
        "self": {
          "name": "ESLA BALLONTI EXCAVACIONES Y OBRAS SOCIEDAD LIMITADA",
          "href": "https://api.euskadi.eus/procurements/companies/04818"
        }
      }
    }
  ]
}