{
  "totalItems": 9042,
  "totalPages": 905,
  "currentPage": 751,
  "itemsOfPage": 10,
  "items": [
    {
      "name": "CIANOPLAN, S.A.",
      "registrationNumber": "03028",
      "identificationNumber": "A48215503",
      "address": "VILLA DE PLENCIA, 6",
      "location": {
        "postalCode": "48930",
        "municipality": "Getxo",
        "county": "Bizkaia",
        "municipalityId": "044",
        "countyId": "48"
      },
      "economicActivities": [
        {
          "id": "1.474",
          "name": "Artes gráficas (impresión gráfica)",
          "_links": {
            "self": {
              "name": "Artes gráficas (impresión gráfica)",
              "href": "https://api.euskadi.eus/procurements/companies/economic-activities/1.474"
            }
          }
        }
      ],
      "certificateStartDate": "2009-01-12",
      "certificateEndDate": "2009-03-02",
      "object": "1º LA REPRODUCCIÓN DE TEXTOS O IMÁGENES POR PROCEDIMIENTOS TALES COMO MULTICOPISTA, FOTOCOPIAS POR PROCEDIMIENTOS FOTOGRÁFICOS O ELECTROSTÁTICOS, SISTEMAS DE REPRODUCCIÓN DE PLANOS, ETC.; 2º LA IMPRESIÓN GRÁFICA EN SU MÁS AMPLIA EXPRESIÓN Y POR CUALQUIER SISTEMA O PROCEDIMIENTO, ASÍ COMO LA ELABORACIÓN INDUSTRIAL Y COMERCIALIZACIÓN DE PRECINTOS, ETIQUETAS, ETC.. Y DEMÁS ACTIVIDADES CONEXAS; 3º LA COMERCIALIZACIÓN EN SU MÁS AMPLIO SENTIDO DE MATERIAL PARA OFICINAS COMERCIALES Y TÉCNICAS; 4º LA ADQUISICIÓN, TENENCIA, DISFRUTE, ADMINISTRACIÓN EN GENERAL Y ENAJENACIÓN DE ACCIONES, PARTICIPACIONES SOCIALES, OBLIGACIONES, BONOS DE CAJA, CERTIFICADOS DE DEPÓSITO, CÉDULAS PARA INVERSIONES Y TÍTULOS SIMILARES",
      "mainEntityOfPage": "https://www.contratacion.euskadi.eus/webkpe00-kperoc/es/ac71aBusquedaRegistrosWar/empresa/03028",
      "_links": {
        "self": {
          "name": "CIANOPLAN, S.A.",
          "href": "https://api.euskadi.eus/procurements/companies/03028"
        }
      }
    },
    {
      "name": "JOSÉ ANTONIO RUEDA VIGURI",
      "registrationNumber": "03505",
      "identificationNumber": "16236794J",
      "address": "C/ ANDA S/N",
      "location": {
        "postalCode": "01439",
        "municipality": "Kuartango",
        "county": "Araba/Álava",
        "municipalityId": "020",
        "countyId": "01"
      },
      "economicActivities": [
        {
          "id": "1.721.2",
          "name": "Transporte por autotaxis",
          "_links": {
            "self": {
              "name": "Transporte por autotaxis",
              "href": "https://api.euskadi.eus/procurements/companies/economic-activities/1.721.2"
            }
          }
        }
      ],
      "certificateStartDate": "2009-01-12",
      "certificateEndDate": "2009-06-19",
      "object": "TRANSPORTE DE VIAJEROS POR AUTOTAXIS",
      "mainEntityOfPage": "https://www.contratacion.euskadi.eus/webkpe00-kperoc/es/ac71aBusquedaRegistrosWar/empresa/03505",
      "_links": {
        "self": {
          "name": "JOSÉ ANTONIO RUEDA VIGURI",
          "href": "https://api.euskadi.eus/procurements/companies/03505"
        }
      }
    },
    {
      "name": "SULAR INGENIEROS",
      "registrationNumber": "03769",
      "identificationNumber": "B20383964",
      "economicActivities": [
        {
          "id": "1.659.2",
          "name": "Venta al por menor de muebles de oficina y máquinas y equipos de oficina",
          "_links": {
            "self": {
              "name": "Venta al por menor de muebles de oficina y máquinas y equipos de oficina",
              "href": "https://api.euskadi.eus/procurements/companies/economic-activities/1.659.2"
            }
          }
        },
        {
          "id": "1.861.2",
          "name": "Alquiler de locales industriales y otros alquileres n.c.o.p",
          "_links": {
            "self": {
              "name": "Alquiler de locales industriales y otros alquileres n.c.o.p",
              "href": "https://api.euskadi.eus/procurements/companies/economic-activities/1.861.2"
            }
          }
        }
      ],
      "certificateStartDate": "2009-01-12",
      "object": "Venta al por menor de muebles de oficina y máquinas y equipos de oficina.\r\nConstrucción completa, reparación y conservación de de edificaciones.",
      "mainEntityOfPage": "https://www.contratacion.euskadi.eus/webkpe00-kperoc/es/ac71aBusquedaRegistrosWar/empresa/03769",
      "_links": {
        "self": {
          "name": "SULAR INGENIEROS",
          "href": "https://api.euskadi.eus/procurements/companies/03769"
        }
      }
    },
    {
      "name": "I.V. INGESA, S.A.",
      "registrationNumber": "00775",
      "identificationNumber": "A48202444",
      "address": "C/ IBÁÑEZ DE BILBAO, Nº 28 - 5º B.",
      "location": {
        "postalCode": "48009",
        "municipality": "Bilbao",
        "county": "Bizkaia",
        "municipalityId": "020",
        "countyId": "48"
      },
      "economicActivities": [
        {
          "id": "1.843.1",
          "name": "Servicios técnicos de ingeniería",
          "_links": {
            "self": {
              "name": "Servicios técnicos de ingeniería",
              "href": "https://api.euskadi.eus/procurements/companies/economic-activities/1.843.1"
            }
          }
        }
      ],
      "certificateStartDate": "2009-01-09",
      "certificateEndDate": "2009-06-30",
      "object": "LA REALIZACIÓN DE PROYECTOS Y ESTUDIOS DE INGENIERÍA Y ARQUITECTURA DE TODO TIPO, Y ESPECIALMENTE DE AQUELLOS TENDENTES A LA REDUCCIÓN DE CONSUMOS Y COSTES ENERGÉTICOS EN TODO TIPO DE INSTALACIONES",
      "mainEntityOfPage": "https://www.contratacion.euskadi.eus/webkpe00-kperoc/es/ac71aBusquedaRegistrosWar/empresa/00775",
      "_links": {
        "self": {
          "name": "I.V. INGESA, S.A.",
          "href": "https://api.euskadi.eus/procurements/companies/00775"
        }
      }
    },
    {
      "name": "RECURSOS SOCIOSANITARIOS, S.L.",
      "registrationNumber": "03410",
      "identificationNumber": "B95451480",
      "address": "C/ AUTONOMIA 64 BIS, 7",
      "location": {
        "postalCode": "48012",
        "municipality": "Bilbao",
        "county": "Bizkaia",
        "municipalityId": "020",
        "countyId": "48"
      },
      "economicActivities": [
        {
          "id": "1.942.9",
          "name": "Otros servicios sanitarios sin internados, no clasificados",
          "_links": {
            "self": {
              "name": "Otros servicios sanitarios sin internados, no clasificados",
              "href": "https://api.euskadi.eus/procurements/companies/economic-activities/1.942.9"
            }
          }
        },
        {
          "id": "1.951",
          "name": "Asistencia y servicios sociales en centros residenciales",
          "_links": {
            "self": {
              "name": "Asistencia y servicios sociales en centros residenciales",
              "href": "https://api.euskadi.eus/procurements/companies/economic-activities/1.951"
            }
          }
        }
      ],
      "certificateStartDate": "2009-01-05",
      "certificateEndDate": "2009-06-10",
      "object": "A) EJERCER COMO CONSULTORA, PRESTADORA DE SERVICIOS, PROMOTORA, ADMINISTRADORA O GESTORA DE TODO TIPO DE PROGRAMAS, SERVICIOS, EQUIPAMIENTOS O INICIATIVAS EN LOS ÁMBITOS RELACIONADOS CON CONTENIDO SOCIAL, CULTURAL, EDUCATIVO, RECREATIVO, TURÍSTICO, FESTIVO, ASOCIATIVO DE CONSUMO, DE OCIO, SANITARIO, ARTÍSTICO, MEDIOAMBIENTAL, ECOLÓGICO, DE INTERVENCIÓN Y DESARROLLO COMUNITARIOS, DE COOPERACIÓN INTERTERRITORIAL O INTERNACIONAL PARA EL DESARROLLO, DE INSERCIÓN SOCIAL Y LABORAL, DE FORMACIÓN PARA EL EMPLEO, DE PROMOCIÓN, SENSIBILIZACIÓN, ASESORAMIENTO, INFORMACIÓN Y ATENCIÓN A LOS DIVERSOS COLECTIVOS EN DESVENTAJA SOCIAL COMO LA INFANCIA, LA JUVENTUD, LA MUJER,  LA TERCERA EDAD, LA ATENCIÓN TRATAMIENTO, REINSERCIÓN Y PREVENCIÓN DE LAS DROGODEPENDENCIAS, DE DESARROLLO SOCIALY PLANIFICACIÓN DEMOGRÁFICA Y URBANA, DE INTEGRACIÓN DE LA INMIGRACIÓN Y, EN GENERAL, DE TODAS AQUELLAS ÁREAS QUE, LIGADAS A LAS CIENCIAS HUMANAS, CONTRIBUYEN A ENRIQUECER LA DIMENSIÓN Y EL DESARROLLO SOCIAL, CULTURAL Y ECONÓMICO DE LOS INDIVIDUOS Y LAS COMUNIDADES EN SU MÁS AMPLIA CONSIDERACIÓN. B) REALIZAR INVESTIGACIÓN, ANÁLISIS PROSPECTIVOS, ESTUDIOS DE CAMPO, TRABAJOS ESTADÍSTICOS, ASÍ COMO ESTRATEGIAS Y PLANES DE ASESORAMIETNO, DIFUSIÓN, DIVULGACIÓN Y COMUNICACIÓN EN CUALQUIERA DE LAS ÁREAS RELACIONADAS EN EL APARTADO A). C) PLANIFICAR, ORGANIZAR O EVALUAR TODO TIPO DE EVENTOS O INICIATIVAS RELACIONADAS CON LOS MISMOS ÁMBITOS, TALES COMO CONGRESOS, CERTÁMENTES, EXPOSICIONES, EDICIONES, PUBLICACIONES, CURSOS, JORNADAS, SEMINARIOS, FERIAS, ENCUENTROS, BECAS, CONCURSOS, ACCIONES FORMATIVAS, JORNADAS FESTIVAS, Y LAS DE SIMILAR NATURALEZA. D) CREAR, COMPILAR, EDITAR Y DISTRIBUIR PROGRAMAS, MATERIALES, RECURSOS DE APOYO Y, EN GENERAL, TODO TIPO DE DOCUMENTOS Y MATERIAL GRÁFICO EN CUALQUIER TIPO DE SOPORTE IMPRESO, AUDIOVISUAL, INFORMÁTICO O CUALQUIER OTRO SISTEMA DE EDICIÓN O REPRODUCCIÓN. E) EJERCER LA GESTIÓN PARCIAL O INTEGRAL DE CUALQUIER TIPO DE PROGRAMAS, SERVICIOS, EQUIPAMIENTOS E INSTALACIONES, PROPIAS, PRIVADAS O PÚBLICAS, EN LOS ÁMBITOS DESCRITOS EN EL APARTADO A), DESARROLLANDO LAS TAREAS DE GERENCIA, DIRECCIÓN, ANIMACIÓN, ASESORAMIENTO TÉCNICO, ADMINISTRACIÓN, CONSERJERÍA, ATENCIÓN AL PÚBLICO, VIGILANCIA, LIMPIEZA Y MANTENIMIENTO. F) DESARROLLAR INICIATIVAS DE COLABORACIÓN, MEDIANTE ACUERDOS, CONVENIOS Y CONTRATOS CON LOS DIFERENTES ORGANISMOS DE LA ADMINISTRACIÓN PUBLICA DE ÁMBITO INTERNACIONAL, ESTATAL, AUTONÓMICO Y MUNICIPAL. G) ADQUIRIR POR CUALQUIER TÍTULO FINCAS RÚSTICAS Y URBANAS, CONSTRUIR ÉSTAS, ASÍ COMO LA TENENCIA, EXPLOTACIÓN Y ARRENDAMIENTO DE TALES BIENES O SU VENTA TOTAL O PARCIAL. H) CONCURRIR SOLA O CON CUALESQUIERA OTRAS PERSONAS FÍSICAS O JURÍDICAS  A LA CONSTITUCIÓN DE CUALQUIER GÉNERO DE SOCIEDADES, FEDERACIONES, ACUERDO, ASOCIACIÓN O UNIÓN, INCLUIDAS LAS DE CARÁCTER MERCANTIL, ASÍ COMO PARTICIPAR EN OTRAS YA CONSTITUIDAS O DE NUEVA CONSTITUCIÓN, OSTENTANDO EN ELLAS CARGOS DE ADMINISTRACIÓN, DIRECCIÓN O CONTROL, MEDIANTE LA OPORTUNA DELEGACIÓN EN PERSONA FÍSICA. I) ADQUIRIR Y POSEER, POR CUALQUIER TÍTULO VÁLIDO LEGALMENTE, BIENES Y DERECHOS DE TODO TIPO Y NATURALEZA RELACIONADOS CON LA GESTIÓN ORDINARIA DE LA SOCIEDAD O CON LOS ÁMBITOS DE INTERVENCIÓN SEÑALADOS CON ANTERIORIDAD",
      "mainEntityOfPage": "https://www.contratacion.euskadi.eus/webkpe00-kperoc/es/ac71aBusquedaRegistrosWar/empresa/03410",
      "_links": {
        "self": {
          "name": "RECURSOS SOCIOSANITARIOS, S.L.",
          "href": "https://api.euskadi.eus/procurements/companies/03410"
        }
      }
    },
    {
      "name": "TÉCNICAS DE MANTENIMIENTO KORSAN, S.L.",
      "registrationNumber": "00147",
      "identificationNumber": "B48212138",
      "address": "C/ TXOMIN EGUILEOR, 52-N POLÍGONO INDUSTRIAL SUGUTXU",
      "location": {
        "postalCode": "48960",
        "municipality": "Galdakao",
        "county": "Bizkaia",
        "municipalityId": "036",
        "countyId": "48"
      },
      "economicActivities": [
        {
          "id": "1.504.1",
          "name": "Instalaciones eléctricas en general",
          "_links": {
            "self": {
              "name": "Instalaciones eléctricas en general",
              "href": "https://api.euskadi.eus/procurements/companies/economic-activities/1.504.1"
            }
          }
        }
      ],
      "certificateStartDate": "2008-12-26",
      "certificateEndDate": "2008-07-11",
      "object": "LA REALIZACIÓN DE TÉCNICAS DE MANTENIMIENTO, SERVICIOS E INSTALACIONES ELÉCTRICAS",
      "mainEntityOfPage": "https://www.contratacion.euskadi.eus/webkpe00-kperoc/es/ac71aBusquedaRegistrosWar/empresa/00147",
      "_links": {
        "self": {
          "name": "TÉCNICAS DE MANTENIMIENTO KORSAN, S.L.",
          "href": "https://api.euskadi.eus/procurements/companies/00147"
        }
      }
    },
    {
      "name": "PUBLICIDAD REIVI, S.L.",
      "registrationNumber": "00773",
      "identificationNumber": "B48215362",
      "address": "C/ BARROETA ALDAMAR, Nº 6 - 6º IZDA.",
      "location": {
        "postalCode": "48001",
        "municipality": "Bilbao",
        "county": "Bizkaia",
        "municipalityId": "020",
        "countyId": "48"
      },
      "economicActivities": [
        {
          "id": "1.844",
          "name": "Servicios de publicidad, relaciones públicas y similares",
          "_links": {
            "self": {
              "name": "Servicios de publicidad, relaciones públicas y similares",
              "href": "https://api.euskadi.eus/procurements/companies/economic-activities/1.844"
            }
          }
        }
      ],
      "certificateStartDate": "2008-12-22",
      "certificateEndDate": "2009-06-11",
      "object": "PROYECTAR, EJECUTAR O DISTRIBUIR CAMPAÑAS DE PUBLICIDAD A TRAVÉS DE CUALQUIER MEDIO DE DIFUSIÓN; LA REALIZACIÓN Y PRESTACIÓN DE SERVICIOS DE PUBLICIDAD DE TODA CLASE DE PRODUCTOS, EMPRESAS Y ACTIVIDADES EN CUALQUIER MEDIO DE DIFUSIÓN O POR CUALQUIER OTRO PROCEDIMIENTO",
      "mainEntityOfPage": "https://www.contratacion.euskadi.eus/webkpe00-kperoc/es/ac71aBusquedaRegistrosWar/empresa/00773",
      "_links": {
        "self": {
          "name": "PUBLICIDAD REIVI, S.L.",
          "href": "https://api.euskadi.eus/procurements/companies/00773"
        }
      }
    },
    {
      "name": "TEINSOFT, S.L.",
      "registrationNumber": "03763",
      "identificationNumber": "B48702328",
      "address": "ARTAZA, 7-3º",
      "location": {
        "postalCode": "48940",
        "municipality": "Leioa",
        "county": "Bizkaia",
        "municipalityId": "054",
        "countyId": "48"
      },
      "economicActivities": [
        {
          "id": "1.845",
          "name": "Explotación electrónica por cuenta de terceros",
          "_links": {
            "self": {
              "name": "Explotación electrónica por cuenta de terceros",
              "href": "https://api.euskadi.eus/procurements/companies/economic-activities/1.845"
            }
          }
        }
      ],
      "certificateStartDate": "2008-12-19",
      "certificateEndDate": "2009-06-16",
      "object": "LA VENTA E INSTALACIÓN DE EQUIPOS INFORMÁTICOS, INSTALACIÓN DE APLICACIONES Y CONSULTORÍA INFORMÁTICA, ASÍ COMO LA ADQUISICIÓN DE BIENES INMUEBLES",
      "mainEntityOfPage": "https://www.contratacion.euskadi.eus/webkpe00-kperoc/es/ac71aBusquedaRegistrosWar/empresa/03763",
      "_links": {
        "self": {
          "name": "TEINSOFT, S.L.",
          "href": "https://api.euskadi.eus/procurements/companies/03763"
        }
      }
    },
    {
      "name": "INGENIERÍA Y MONTAJES ELÉCTRICOS ADUNA, S.L.",
      "registrationNumber": "01772",
      "identificationNumber": "B20527750",
      "address": "POL. IND. ERRATZU, PARCELA J - PAB. 30",
      "location": {
        "postalCode": "20130",
        "municipality": "Urnieta",
        "county": "Gipuzkoa",
        "municipalityId": "072",
        "countyId": "20"
      },
      "economicActivities": [
        {
          "id": "1.504.1",
          "name": "Instalaciones eléctricas en general",
          "_links": {
            "self": {
              "name": "Instalaciones eléctricas en general",
              "href": "https://api.euskadi.eus/procurements/companies/economic-activities/1.504.1"
            }
          }
        }
      ],
      "certificateStartDate": "2008-12-16",
      "certificateEndDate": "2008-05-20",
      "object": "LA REALIZACIÓN, DESARROLLO Y COMERCIALIZACIÓN DE TODO TIPO DE PROYECTOS ELÉCTRICOS, ASÍ COMO LA EJECUCIÓN MATERIAL. LOS MISMOS EN CUANTO A SU INSTALACIÓN Y/O MONTAJE, TANTO EN OBRAS PÚBLICAS COMO EN EMPRESAS DE CUALQUIER ÍNDOLE O PARTICULARES. ADEMÁS PRESTARÁ SERVICIOS DE REPARACIÓN, MANTENIMIENTO O SIMILARES, RELACIONADOS CON EL CAMPO ELÉCTRICO",
      "mainEntityOfPage": "https://www.contratacion.euskadi.eus/webkpe00-kperoc/es/ac71aBusquedaRegistrosWar/empresa/01772",
      "_links": {
        "self": {
          "name": "INGENIERÍA Y MONTAJES ELÉCTRICOS ADUNA, S.L.",
          "href": "https://api.euskadi.eus/procurements/companies/01772"
        }
      }
    },
    {
      "name": "AERONAVAL DE CONSTRUCCIONES E INSTALACIONES, S.A.",
      "registrationNumber": "03758",
      "identificationNumber": "A28526275",
      "address": "BAHÍA DE POLLENSA, 13",
      "location": {
        "postalCode": "28042",
        "municipality": "Madrid",
        "county": "Madrid",
        "municipalityId": "079",
        "countyId": "28"
      },
      "economicActivities": [
        {
          "id": "1.504.1",
          "name": "Instalaciones eléctricas en general",
          "_links": {
            "self": {
              "name": "Instalaciones eléctricas en general",
              "href": "https://api.euskadi.eus/procurements/companies/economic-activities/1.504.1"
            }
          }
        }
      ],
      "certificateStartDate": "2008-12-15",
      "certificateEndDate": "2009-05-11",
      "object": "A) FABRICACIÓN Y COMERCIALIZACIÓN DE TODO TIPO DE MAQUINARIA Y MATERIALES ELÉCTRICOS Y ELECTRÓNICOS; B) LA REALIZACIÓN DE TODO TIPO DE MONTAJES E INSTALACIONES ELÉCTRICAS Y ELECTRÓNICAS; C) LA REPARACIÓN, CONSERVACIÓN Y MANTENIMIENTO DE TODO LO RELACIONADO CON LOS DOS APARTADOS ANTERIORES; D) CONSTRUCCIÓN COMPLETA, REPARACIÓN Y CONSERVACIÓN DE EDIFICACIONES Y OBRAS CIVILES; E) EJECUCIÓN DE OPERACIONES DE CONSERVACIÓN, MANTENIMIENTO E INSTALACIONES INTEGRALES; F) ESTUDIOS E INFORMES, PROYECTO Y DIRECCIÓN DE OBRAS Y SERVICIOS. Y CUALQUIER POSIBLE AMPLIACIÓN O MODIFICACIÓN QUE CONTEMPLE POR VÍA LEGISLATIVA LA ADMINISTRACIÓN DEL ESTADO PARA LAS EMPRESAS CONTRATISTAS DE OBRAS DEL ESTADO Y CONSULTORAS Y DE SERVICIOS; G) EJECUCIÓN DE OPERACIONES DE SUMINISTRO, INSTALACIÓN, CONSERVACIÓN, MANTENIMIENTO, REPOSICIÓN, MODIFICACIÓN DE SEÑALIZACIÓN HORIZONTAL, VERTICAL Y BALIZAMIENTO EN REDES PÚBLICAS O PRIVADAS; H) EJECUCIÓN DE OPERACIONES DE SUMINISTRO, INSTALACIÓN, CONSERVACIÓN, REPOSICIÓN, MODIFICACIÓN DE TODO TIPO DE SEÑALIZACIÓN Y SISTEMAS DE AYUDAS AEROPORTUARIAS; I) SISTEMAS DE CONTROL, ACCESOS, PRESENCIA Y PRODUCCIÓN; J) PROYECTO, PLANIFICACIÓN Y ASESORAMIENTO, FABRICACIÓN, SUMINISTRO, INSTALACIÓN, MANTENIMIENTO Y EXPLOTACIÓN DE APARATOS, DISPOSITIVOS Y SISTEMAS DE SEGURIDAD, ANTIINTRUSISMO, CONTRAINCENDIOS, TELEVISIÓN Y CUALQUIER OTRA ACTIVIDAD RELACIONADA CON LA SEGURIDAD Y PROTECCIÓN DE PERSONAS O COSAS (TANTO MUEBLES COMO INMUEBLES); K) PROYECTO, PLANIFICACIÓN Y ASESORAMIENTO, FABRICACIÓN, SUMINISTRO, INSTALACIÓN, MANTENIMIENTO Y EXPLOTACIÓN DE APARATOS, DISPOSITIVOS Y SISTEMAS DE COMUNICACIONES E INFORMÁTICA",
      "mainEntityOfPage": "https://www.contratacion.euskadi.eus/webkpe00-kperoc/es/ac71aBusquedaRegistrosWar/empresa/03758",
      "_links": {
        "self": {
          "name": "AERONAVAL DE CONSTRUCCIONES E INSTALACIONES, S.A.",
          "href": "https://api.euskadi.eus/procurements/companies/03758"
        }
      }
    }
  ]
}