{
  "totalItems": 9042,
  "totalPages": 905,
  "currentPage": 2,
  "itemsOfPage": 10,
  "items": [
    {
      "name": "\"SOZIOLINGUISTIKA KLUSTERRA\" SOZIOLINGUISTIKA EZAGUTZA GARATZEKO KLUSTERRA",
      "registrationNumber": "05682",
      "identificationNumber": "G20843264",
      "address": "MARTIN UGALDE KULTUR PARKEA Z.G.",
      "location": {
        "postalCode": "20140",
        "municipality": "Andoain",
        "county": "Gipuzkoa",
        "municipalityId": "009",
        "countyId": "20"
      },
      "economicActivities": [
        {
          "id": "1.476.1",
          "name": "Edición de libros",
          "_links": {
            "self": {
              "name": "Edición de libros",
              "href": "https://api.euskadi.eus/procurements/companies/economic-activities/1.476.1"
            }
          }
        },
        {
          "id": "1.476.2",
          "name": "Edición de periódicos y revistas",
          "_links": {
            "self": {
              "name": "Edición de periódicos y revistas",
              "href": "https://api.euskadi.eus/procurements/companies/economic-activities/1.476.2"
            }
          }
        },
        {
          "id": "1.933.9",
          "name": "Otras actividades de enseñanza tales como idiomas, mecanografía",
          "_links": {
            "self": {
              "name": "Otras actividades de enseñanza tales como idiomas, mecanografía",
              "href": "https://api.euskadi.eus/procurements/companies/economic-activities/1.933.9"
            }
          }
        },
        {
          "id": "1.936.4",
          "name": "Investigaciones en ciencias sociales, humanidades y jurídicas",
          "_links": {
            "self": {
              "name": "Investigaciones en ciencias sociales, humanidades y jurídicas",
              "href": "https://api.euskadi.eus/procurements/companies/economic-activities/1.936.4"
            }
          }
        }
      ],
      "certificateStartDate": "2026-02-11",
      "certificateEndDate": "2026-08-11",
      "object": "SOZIOLINGUISTIKA-EZAGUTZA SORTZEA ETA KUDEATZEA. HORRETARAKO ZIENTIFIKOTASUNEZ, AUTONOMIAZ, ERRESPETUZ ETA GARDENTASUNEZ JARDUNGO DU: - BAZKIDEEKIN ETA ARLOKO ERAGILEEKIN HAUSNARKETARAKO ZEIN LANKIDETZARAKO BILGUNE-SAREAK OSATUKO DITU. -IKERKETA, GARAPEN, BERRIKUNTA ETA EZAGUTZA KUDEATZEKO PROIEKTUAK EGINGO DITU. - EUSKARA ETA EUSKAL HIZTUN KOMUNITATEARENTZAKO BALIAGARRIAK DIREN MARKO TEORIKOAK GARATUKO DITU. - EZAGUTZA TEORIKOAREN ETA ARLO APLIKATUAREN ARTEKO ZUBIAK ERAIKIKO DITU. -IKERKUNTZA-EKINTZA PARADIGMA ARDATZ DUTEN PROIEKTUAK LANDUKO DITU, BESTEAK BESTE. AURREKO IDATZ ZATIAN AZALDUTAKO JARDUERAK GORABEHERA, ELKARTEAK, BERE XEDEAK BETETZEKO, HORTAKO HAUEK EGIN AHALKO DITU: A) HELBURUAK BETETZEKO EDO HORRETARAKO BALIABIDEAK BILTZEKO ERA GUZTIETAKO JARDUERA EKONOMIKOAK GAUZATU. B) ERA GUZTIETAKO ONDASUNAK EDOZEIN TITULUREN BIDEZ ESKURATU ETA EDUKI, ETA MOTA GUZTIETAKO EKINTZAK ETA HITZARMENAK EGIN. C) NOLANAHIKO EKINTZAK BURUTU, BETIERE ESTATUTU EDO LEGEEKIN BAT ETORTZEKOTAN",
      "mainEntityOfPage": "https://www.contratacion.euskadi.eus/webkpe00-kperoc/es/ac71aBusquedaRegistrosWar/empresa/05682",
      "_links": {
        "self": {
          "name": "\"SOZIOLINGUISTIKA KLUSTERRA\" SOZIOLINGUISTIKA EZAGUTZA GARATZEKO KLUSTERRA",
          "href": "https://api.euskadi.eus/procurements/companies/05682"
        }
      }
    },
    {
      "name": "ESAOTE IBERIA, S.A.",
      "registrationNumber": "04912",
      "identificationNumber": "A60785573",
      "address": "Pont Reixat nº5",
      "location": {
        "postalCode": "08960",
        "municipality": "Sant Just Desvern",
        "county": "Barcelona",
        "municipalityId": "221",
        "countyId": "08"
      },
      "economicActivities": [
        {
          "id": "1.659.3",
          "name": "Venta al por menor de aparatos médicos, ortopédicos, ópticos y fotográficos",
          "_links": {
            "self": {
              "name": "Venta al por menor de aparatos médicos, ortopédicos, ópticos y fotográficos",
              "href": "https://api.euskadi.eus/procurements/companies/economic-activities/1.659.3"
            }
          }
        }
      ],
      "certificateStartDate": "2026-02-11",
      "certificateEndDate": "2026-08-09",
      "object": "IMPORTACIÓN, EXPORTACIÓN, COMERCIALIZACIÓN, DISTRIBUCIÓN, VENTA AL MAYOR Y DETALLE DE TODO TIPO DE MAQUINARIA E INSTRUMENTAL TANTO DE USO INDUSTRIAL COMO SANITARIO",
      "mainEntityOfPage": "https://www.contratacion.euskadi.eus/webkpe00-kperoc/es/ac71aBusquedaRegistrosWar/empresa/04912",
      "_links": {
        "self": {
          "name": "ESAOTE IBERIA, S.A.",
          "href": "https://api.euskadi.eus/procurements/companies/04912"
        }
      }
    },
    {
      "name": "ZUAZO INGENIEROS, S.L.",
      "registrationNumber": "06749",
      "identificationNumber": "B01245562",
      "address": "DATO 43",
      "location": {
        "postalCode": "01005",
        "municipality": "Vitoria-Gasteiz",
        "county": "Araba/Álava",
        "municipalityId": "059",
        "countyId": "01"
      },
      "economicActivities": [
        {
          "id": "1.843.1",
          "name": "Servicios técnicos de ingeniería",
          "_links": {
            "self": {
              "name": "Servicios técnicos de ingeniería",
              "href": "https://api.euskadi.eus/procurements/companies/economic-activities/1.843.1"
            }
          }
        }
      ],
      "certificateStartDate": "2026-02-11",
      "certificateEndDate": "2026-08-04",
      "object": "A) EL ESTUDIO, PROMOCIÓN Y REALIZACIÓN DE TODA CLASE DE OBRAS DE CONSTRUCCIÓN, MEJORA Y CONSERVACIÓN, TANTO PRIVADAS, COMO PÚBLICAS, INCLUYENDO TODA CLASE DE CONSTRUCCIONES INDUSTRIALES, OBRAS DE INGENIERÍA CIVIL Y CARRETERAS. B) EL ESTUDIO, PROMOCIÓN Y CONSTRUCCIÓN DE TODA CLASE DE INMUEBLES SUSCEPTIBLES DE SER HABITADOS, ASÍ COMO LA VENTA O ARRENDAMIENTO DE LOS MISMOS",
      "mainEntityOfPage": "https://www.contratacion.euskadi.eus/webkpe00-kperoc/es/ac71aBusquedaRegistrosWar/empresa/06749",
      "_links": {
        "self": {
          "name": "ZUAZO INGENIEROS, S.L.",
          "href": "https://api.euskadi.eus/procurements/companies/06749"
        }
      }
    },
    {
      "name": "CREO MEDICAL, S.L.U.",
      "registrationNumber": "04613",
      "identificationNumber": "B62943063",
      "address": "POL. IND. COMARCA I CALLE A D22",
      "location": {
        "postalCode": "31160",
        "municipality": "Orkoien",
        "county": "Navarra",
        "municipalityId": "906",
        "countyId": "31"
      },
      "economicActivities": [
        {
          "id": "1.352",
          "name": "Fabricación de aparatos y equipo electromédico y de uso profesional",
          "_links": {
            "self": {
              "name": "Fabricación de aparatos y equipo electromédico y de uso profesional",
              "href": "https://api.euskadi.eus/procurements/companies/economic-activities/1.352"
            }
          }
        },
        {
          "id": "1.619.2",
          "name": "Venta al por mayor de aparatos e instrumentos médicos, ortopédicos, ópticos",
          "_links": {
            "self": {
              "name": "Venta al por mayor de aparatos e instrumentos médicos, ortopédicos, ópticos",
              "href": "https://api.euskadi.eus/procurements/companies/economic-activities/1.619.2"
            }
          }
        }
      ],
      "certificateStartDate": "2026-02-11",
      "certificateEndDate": "2026-08-06",
      "object": "EL DISEÑO, LA FABRICACIÓN Y COMERCIALIACIÓN DE EQUIPOS Y CONSUMIBLES MÉDICOS EN PARTICULAR",
      "mainEntityOfPage": "https://www.contratacion.euskadi.eus/webkpe00-kperoc/es/ac71aBusquedaRegistrosWar/empresa/04613",
      "_links": {
        "self": {
          "name": "CREO MEDICAL, S.L.U.",
          "href": "https://api.euskadi.eus/procurements/companies/04613"
        }
      }
    },
    {
      "name": "ALBAÑILERÍA REFORPASAI IGELTSERITZA, S.L.",
      "registrationNumber": "05842",
      "identificationNumber": "B20803557",
      "address": "Grupo Nuestra Señora del Pilar, 28-- bajo",
      "location": {
        "postalCode": "20014",
        "municipality": "Donostia / San Sebastián",
        "county": "Gipuzkoa",
        "municipalityId": "069",
        "countyId": "20"
      },
      "economicActivities": [
        {
          "id": "1.501.1",
          "name": "Construcción completa, reparación y conservación de edificaciones",
          "_links": {
            "self": {
              "name": "Construcción completa, reparación y conservación de edificaciones",
              "href": "https://api.euskadi.eus/procurements/companies/economic-activities/1.501.1"
            }
          }
        }
      ],
      "certificateStartDate": "2026-02-11",
      "certificateEndDate": "2026-08-08",
      "object": "TRABAJOS DE CONSERVACIÓN EN GENERAL; ALBAÑILERÍA; COMERCIO MAYOR Y/O MENOR DE MATERIALES DE ALBAÑILERÍA ",
      "mainEntityOfPage": "https://www.contratacion.euskadi.eus/webkpe00-kperoc/es/ac71aBusquedaRegistrosWar/empresa/05842",
      "_links": {
        "self": {
          "name": "ALBAÑILERÍA REFORPASAI IGELTSERITZA, S.L.",
          "href": "https://api.euskadi.eus/procurements/companies/05842"
        }
      }
    },
    {
      "name": "AUTOCARES DÍEZ, S.A.",
      "registrationNumber": "01074",
      "identificationNumber": "A20094611",
      "address": "PASEO DE EGUIBURUBERRI NÚM. 25C, POLÍGONO EGUIBURUBERRI",
      "location": {
        "postalCode": "20100",
        "municipality": "Errenteria",
        "county": "Gipuzkoa",
        "municipalityId": "067",
        "countyId": "20"
      },
      "economicActivities": [
        {
          "id": "1.721.3",
          "name": "Transporte de viajeros por carretera",
          "_links": {
            "self": {
              "name": "Transporte de viajeros por carretera",
              "href": "https://api.euskadi.eus/procurements/companies/economic-activities/1.721.3"
            }
          }
        },
        {
          "id": "1.861.2",
          "name": "Alquiler de locales industriales y otros alquileres n.c.o.p",
          "_links": {
            "self": {
              "name": "Alquiler de locales industriales y otros alquileres n.c.o.p",
              "href": "https://api.euskadi.eus/procurements/companies/economic-activities/1.861.2"
            }
          }
        }
      ],
      "certificateStartDate": "2026-02-11",
      "certificateEndDate": "2026-08-05",
      "classification": [
        {
          "id": "S",
          "name": "Servicios",
          "groups": [
            {
              "id": "R",
              "subgroups": [
                {
                  "id": "01",
                  "name": "Transporte de viajeros por carretera",
                  "categories": [
                    {
                      "id": "5",
                      "name": "Mas de 1.200.000",
                      "_links": {
                        "self": {
                          "name": "Mas de 1.200.000",
                          "href": "https://api.euskadi.eus/procurements/companies/types/S/categories/5"
                        }
                      }
                    }
                  ],
                  "_links": {
                    "self": {
                      "name": "Transporte de viajeros por carretera",
                      "href": "https://api.euskadi.eus/procurements/companies/types/S/groups/R/subgroups/01"
                    }
                  }
                }
              ],
              "_links": {
                "self": {
                  "href": "https://api.euskadi.eus/procurements/companies/types/S/groups/R"
                }
              }
            }
          ],
          "_links": {
            "self": {
              "name": "Servicios",
              "href": "https://api.euskadi.eus/procurements/companies/types/S"
            }
          }
        }
      ],
      "object": "EL TRANSPORTE POR CARRETERA EN TODAS SUS MODALIDADES",
      "mainEntityOfPage": "https://www.contratacion.euskadi.eus/webkpe00-kperoc/es/ac71aBusquedaRegistrosWar/empresa/01074",
      "_links": {
        "self": {
          "name": "AUTOCARES DÍEZ, S.A.",
          "href": "https://api.euskadi.eus/procurements/companies/01074"
        }
      }
    },
    {
      "name": "STERILE SERVICES, S.L.",
      "registrationNumber": "05055",
      "identificationNumber": "B95663282",
      "address": "Bº Zubiete 42",
      "location": {
        "postalCode": "48192",
        "municipality": "Gordexola",
        "county": "Bizkaia",
        "municipalityId": "042",
        "countyId": "48"
      },
      "economicActivities": [
        {
          "id": "1.843.9",
          "name": "Otros servicios técnicos n.c.o.p",
          "_links": {
            "self": {
              "name": "Otros servicios técnicos n.c.o.p",
              "href": "https://api.euskadi.eus/procurements/companies/economic-activities/1.843.9"
            }
          }
        },
        {
          "id": "1.942.9",
          "name": "Otros servicios sanitarios sin internados, no clasificados",
          "_links": {
            "self": {
              "name": "Otros servicios sanitarios sin internados, no clasificados",
              "href": "https://api.euskadi.eus/procurements/companies/economic-activities/1.942.9"
            }
          }
        }
      ],
      "certificateStartDate": "2026-02-11",
      "certificateEndDate": "2026-08-05",
      "classification": [
        {
          "id": "S",
          "name": "Servicios",
          "groups": [
            {
              "id": "R",
              "subgroups": [
                {
                  "id": "05",
                  "name": "Recogida y transporte de residuos",
                  "categories": [
                    {
                      "id": "3",
                      "name": "Desde 300.001 Hasta 600.000",
                      "_links": {
                        "self": {
                          "name": "Desde 300.001 Hasta 600.000",
                          "href": "https://api.euskadi.eus/procurements/companies/types/S/categories/3"
                        }
                      }
                    }
                  ],
                  "_links": {
                    "self": {
                      "name": "Recogida y transporte de residuos",
                      "href": "https://api.euskadi.eus/procurements/companies/types/S/groups/R/subgroups/05"
                    }
                  }
                }
              ],
              "_links": {
                "self": {
                  "href": "https://api.euskadi.eus/procurements/companies/types/S/groups/R"
                }
              }
            }
          ],
          "_links": {
            "self": {
              "name": "Servicios",
              "href": "https://api.euskadi.eus/procurements/companies/types/S"
            }
          }
        }
      ],
      "object": "1.- SERVICIOS DE ESTERILIZACIÓN DE MATERIAS Y OBJETOS NUEVOS O RECICLADOS. 2.- GESTIÓN, TRANSPORTE, CUSTODIA Y ELIMINACIÓN POR CUALQUIER MÉTODO DE RESIDUOS, BIO-CONTAMINADOS O PELIGROSOS. 3.- COMPRA Y VENTA DE INSTRUMENTAL Y EQUIPAMIENTOS PARA LOS SECTORES HOSPITALARIO, FARMACÉUTICO, INVESTIGACIÓN Y EN GENERAL PARA LAS EMPRESAS U ORGANIZACIONES CON NECESIDADES DE PRODUCCIÓN O MANIPULACIÓN EN AMBIENTES DONDE SEA PRECISO UNA CONTAMINACIÓN CONTROLADA, ASÉPTICOS O BIO-CONTAMINADOS. 4.- ADQUIRIR, ENAJENAR Y ARRENDAR BIENES INMUEBLES (CONCRETAMENTE LOS DETERMINADOS EN EL ARTÍCULO 334.1 DEL CÓDIGO CIVIL), ACCIONES PARTICIPACIONES SOCIALES, OBLIGACIONES, BONOS DE CAJA, CERTIFICADOS DE DEPÓSITO Y PAGARÉS DE TODA CLASE DE EMPRESAS O NEGOCIOS.",
      "mainEntityOfPage": "https://www.contratacion.euskadi.eus/webkpe00-kperoc/es/ac71aBusquedaRegistrosWar/empresa/05055",
      "_links": {
        "self": {
          "name": "STERILE SERVICES, S.L.",
          "href": "https://api.euskadi.eus/procurements/companies/05055"
        }
      }
    },
    {
      "name": "GANADUA BILTZEN, S.L.",
      "registrationNumber": "02773",
      "identificationNumber": "B20738753",
      "address": "DAMASO AZKUE, 10 - BEHEA",
      "location": {
        "postalCode": "20730",
        "municipality": "Azpeitia",
        "county": "Gipuzkoa",
        "municipalityId": "018",
        "countyId": "20"
      },
      "economicActivities": [
        {
          "id": "1.722",
          "name": "Transporte de mercancías por carretera",
          "_links": {
            "self": {
              "name": "Transporte de mercancías por carretera",
              "href": "https://api.euskadi.eus/procurements/companies/economic-activities/1.722"
            }
          }
        },
        {
          "id": "1.921.2",
          "name": "Servicios de recogida de basuras y desechos",
          "_links": {
            "self": {
              "name": "Servicios de recogida de basuras y desechos",
              "href": "https://api.euskadi.eus/procurements/companies/economic-activities/1.921.2"
            }
          }
        },
        {
          "id": "1.999",
          "name": "Otros servicios n.c.o.p",
          "_links": {
            "self": {
              "name": "Otros servicios n.c.o.p",
              "href": "https://api.euskadi.eus/procurements/companies/economic-activities/1.999"
            }
          }
        }
      ],
      "certificateStartDate": "2026-02-11",
      "certificateEndDate": "2026-08-06",
      "classification": [
        {
          "id": "S",
          "name": "Servicios",
          "groups": [
            {
              "id": "R",
              "subgroups": [
                {
                  "id": "05",
                  "name": "Recogida y transporte de residuos",
                  "categories": [
                    {
                      "id": "3",
                      "name": "Desde 300.001 Hasta 600.000",
                      "_links": {
                        "self": {
                          "name": "Desde 300.001 Hasta 600.000",
                          "href": "https://api.euskadi.eus/procurements/companies/types/S/categories/3"
                        }
                      }
                    }
                  ],
                  "_links": {
                    "self": {
                      "name": "Recogida y transporte de residuos",
                      "href": "https://api.euskadi.eus/procurements/companies/types/S/groups/R/subgroups/05"
                    }
                  }
                }
              ],
              "_links": {
                "self": {
                  "href": "https://api.euskadi.eus/procurements/companies/types/S/groups/R"
                }
              }
            }
          ],
          "_links": {
            "self": {
              "name": "Servicios",
              "href": "https://api.euskadi.eus/procurements/companies/types/S"
            }
          }
        }
      ],
      "object": "-TRANSPORTE PÚBLICO DE MERCANCÍA POR CARRETERA. -PRESTACIÓN DE SERVICIOS A LOS GANADEROS DE GIPUZKOA:- ASESORAMIENTO TÉCNICO A LAS EXPLOTACIONES GANADERAS DE GIPUZKOA. -RECOGIDA Y TRANSPORTE DE TODA CLASE DE RESIDUOS",
      "mainEntityOfPage": "https://www.contratacion.euskadi.eus/webkpe00-kperoc/es/ac71aBusquedaRegistrosWar/empresa/02773",
      "_links": {
        "self": {
          "name": "GANADUA BILTZEN, S.L.",
          "href": "https://api.euskadi.eus/procurements/companies/02773"
        }
      }
    },
    {
      "name": "GOROSTI NEURKETAK S.L.",
      "registrationNumber": "07086",
      "identificationNumber": "B01160811",
      "address": "ERREKATXIKI Nº 19 BAJO",
      "location": {
        "postalCode": "01003",
        "municipality": "Vitoria-Gasteiz",
        "county": "Araba/Álava",
        "municipalityId": "059",
        "countyId": "01"
      },
      "economicActivities": [
        {
          "id": "1.843.4",
          "name": "Servicios técnicos de topografía",
          "_links": {
            "self": {
              "name": "Servicios técnicos de topografía",
              "href": "https://api.euskadi.eus/procurements/companies/economic-activities/1.843.4"
            }
          }
        }
      ],
      "certificateStartDate": "2026-02-11",
      "certificateEndDate": "2026-08-03",
      "object": "LA REALIZACIÓN DE DESLINDES, MEDICIONES TOPOGRÁFICAS, VALORACIONES AGROFORESTALES, PROYECTOS AGROPECUARIOS Y DE JARDINERÍA",
      "mainEntityOfPage": "https://www.contratacion.euskadi.eus/webkpe00-kperoc/es/ac71aBusquedaRegistrosWar/empresa/07086",
      "_links": {
        "self": {
          "name": "GOROSTI NEURKETAK S.L.",
          "href": "https://api.euskadi.eus/procurements/companies/07086"
        }
      }
    },
    {
      "name": "POOLSPORT SOLUCIONES SOCIEDAD LIMITADA",
      "registrationNumber": "05770",
      "identificationNumber": "B95893574",
      "address": "POLIGONO INDUSTRIAL IBARRABARRI Nº 22 C ITURRIONDO,18",
      "location": {
        "postalCode": "48940",
        "municipality": "Leioa",
        "county": "Bizkaia",
        "municipalityId": "054",
        "countyId": "48"
      },
      "economicActivities": [
        {
          "id": "1.501.2",
          "name": "Construcción completa, reparación y conservación obras civiles",
          "_links": {
            "self": {
              "name": "Construcción completa, reparación y conservación obras civiles",
              "href": "https://api.euskadi.eus/procurements/companies/economic-activities/1.501.2"
            }
          }
        },
        {
          "id": "1.505.2",
          "name": "Solados y pavimentos de todas clases en cualquier tipo de obra",
          "_links": {
            "self": {
              "name": "Solados y pavimentos de todas clases en cualquier tipo de obra",
              "href": "https://api.euskadi.eus/procurements/companies/economic-activities/1.505.2"
            }
          }
        }
      ],
      "certificateStartDate": "2026-02-11",
      "certificateEndDate": "2026-08-04",
      "classification": [
        {
          "id": "O",
          "name": "Obras",
          "groups": [
            {
              "id": "G",
              "name": "VIALES Y PISTAS",
              "subgroups": [
                {
                  "id": "04",
                  "name": "Con firmes de mezclas bituminosas",
                  "categories": [
                    {
                      "id": "3",
                      "name": "Desde 360.001 Hasta 840.000",
                      "_links": {
                        "self": {
                          "name": "Desde 360.001 Hasta 840.000",
                          "href": "https://api.euskadi.eus/procurements/companies/types/O/categories/3"
                        }
                      }
                    }
                  ],
                  "_links": {
                    "self": {
                      "name": "Con firmes de mezclas bituminosas",
                      "href": "https://api.euskadi.eus/procurements/companies/types/O/groups/G/subgroups/04"
                    }
                  }
                },
                {
                  "id": "06",
                  "name": "Obras viales sin cualificación específica",
                  "categories": [
                    {
                      "id": "3",
                      "name": "Desde 360.001 Hasta 840.000",
                      "_links": {
                        "self": {
                          "name": "Desde 360.001 Hasta 840.000",
                          "href": "https://api.euskadi.eus/procurements/companies/types/O/categories/3"
                        }
                      }
                    }
                  ],
                  "_links": {
                    "self": {
                      "name": "Obras viales sin cualificación específica",
                      "href": "https://api.euskadi.eus/procurements/companies/types/O/groups/G/subgroups/06"
                    }
                  }
                }
              ],
              "_links": {
                "self": {
                  "name": "VIALES Y PISTAS",
                  "href": "https://api.euskadi.eus/procurements/companies/types/O/groups/G"
                }
              }
            }
          ],
          "_links": {
            "self": {
              "name": "Obras",
              "href": "https://api.euskadi.eus/procurements/companies/types/O"
            }
          }
        }
      ],
      "object": "A).- LA ADQUISICIÓN, TENENCIA Y DISFRUTE, EXPLOTACIÓN Y ENAJENACIÓN DE TODA CLASE DE INSTALACIONES DEPORTIVAS, TANTO EN LOCALES CERRADOS COMO AL AIRE LIBRE.\nB).- LA PROMOCIÓN, CONSTRUCCIÓN, REHABILITACIÓN, LIMPIEZA, MANTENIMIENTO Y REPARACIÓN, POR CUENTA PROPIA O AJENA, DE TODA CLASE DE INSTALACIONES DEPORTIVAS, TANTO EN LOCALES CERRADOS COMO AL AIRE LIBRE.\nC).- LA PROMOCIÓN, ESTUDIO, DESARROLLO, ADMINISTRACIÓN, ASESORAMIENTO Y GESTIÓN DE ACTUACIONES DEPORTIVAS DE TODO TIPO, TANTO EN LOCALES CERRADOS COMO AL AIRE LIBRE  Y LA PRESTACIÓN DE SERVICIOS DE CUALQUIER CLASE A TERCEROS RELACIONADOS CON EL DEPORTE EN CUALQUIERA DE SUS MANIFESTACIONES Y CON LAS INSTALACIONES DONDE SE DESARROLLEN LOS MISMOS.\nD).- LA ASISTENCIA, GESTIÓN, DIRECCIÓN, ADMINISTRACIÓN, PROMOCIÓN, INTERVENCIÓN Y PARTICIPACIÓN EN OTRAS EMPRESAS O ENTIDADES DE CUALQUIER TIPO DEL ÁMBITO DEPORTIVO, TANTO PÚBLICAS COMO PRIVADAS, O EN SU CREACIÓN CONSTITUCIÓN Y DESARROLLO. E).- LOS SERVICIOS DE MEDIACIÓN Y REPRESENTACIÓN RELACIONADOS CON LOS DEPORTES, LOS DEPORTISTAS Y LAS INSTALACIONES DEPORTIVAS. F).- LA GESTIÓN, ADMINISTRACIÓN, LIMPIEZA, MANTENIMIENTO, CONSERVACIÓN, REHABILITACIÓN Y REPARACIÓN DE CENTROS DE ASISTENCIA A LA TERCERA EDAD, TANTO PRIVADOS COMO PÚBLICOS Y SEAN ÉSTOS MUNICIPALES, PROVINCIALES ESTATALES O AUTONÓMICOS. G).- LA PROMOCIÓN, GESTIÓN ADMINISTRACIÓN Y ASESORAMIENTO DE ACTIVIDADES CULTURALES, DEPORTIVAS  Y RECREATIVAS, INCLUSO LAS PATROCINADAS O PROPICIADAS POR AYUNTAMIENTO, DIPUTACIONES, ASOCIACIONES, COMISIONES DE FIESTAS Y CUALQUIER OTRA ENTIDAD U ORGANISMO, PÚBLICO O PRIVADO, TANTO EN LOCALES CERRADOS COMO AL AIRE LIBRE. H).- LA EXPLOTACIÓN EN LAS INSTALACIONES EN QUE DESARROLLE SU ACTIVIDAD, DE LOS SERVICIOS DE BAR, CAFETERÍA O RESTAURANTE O SIMILARES O AFINES DEL RAMO DE HOSTELERÍA, TANTO PARA EL PÚBLICO EN GENERAL COMO PARA SU PROPIO PERSONAL, O CEDER A TERCEROS DICHA EXPLOTACIÓN. I).- LA LIMPIEZA DE EDIFICIOS, OFICINAS, ESTABLECIMIENTOS COMERCIALES, RESIDENCIAS, CENTROS SANITARIOS Y ESTABLECIMIENTOS INDUSTRIALES. J).- LOS SERVICIOS DE LIMPIEZA DE CALLE, VÍAS PÚBLICAS Y JARDINES, INCLUSO LA RECOGIDA DE BASURAS Y DESECHOS. K).- LA IMPLANTACIÓN, CUIDADO, MANTENIMIENTO Y RENOVACIÓN DE JARDINES, TANTO PÚBLICOS COMO PRIVADOS. L).- LA COMPRA-VENTA DE ARTÍCULOS, PRODUCTOS Y ÚTILES DE LIMPIEZA Y AFINES, INCLUSO MAQUINARIA Y VEHÍCULOS ESPECIALES. LL).- LA REPRESENTACIÓN DE EMPRESAS, TANTO NACIONALES COMO EXTRANJERAS, RELACIONADAS CON EL RAMO DE LA LIMPIEZA, LA RECOGIDA DE BASURAS Y LA JARDINERÍA.  M).- LA PARTICIPACIÓN EN EL DESARROLLO, PROMOCIÓN Y PUESTA EN MARCHA DE NUEVAS OPORTUNIDADES DE NEGOCIO, MEDIANTE LA PARTICIPACIÓN ACCIONARIAL Y/O EN LOS ÓRGANOS DE GESTIÓN EN EMPRESAS DE NUEVA CREACIÓN O EN OTRAS YA EXISTENTES. N).- COMERCIALIZACIÓN Y VENTA DE EQUIPAMIENTOS DEPORTIVOS O DE OCIO. O).- DISEÑO, CONFECCIÓN Y VENTA DE ROPA DEPORTIVA EN SU GAMA MÁS AMPLIA. P).- LA CONSULTORÍA DE: GESTIÓN, CALIDAD, ORGANIZACIÓN, PRODUCCIÓN, LOGÍSTICA, ADMINISTRACIÓN, SOFTWARE, PERSONAL, MARKETING, DISTRIBUCIÓN, PUBLICIDAD, DESARROLLO TECNOLÓGICO, GERENCIA, DIRECCIÓN DE DEPARTAMENTOS, ETC&#8230;, ASÍ COMO LA COMERCIALIZACIÓN DE ESTOS SERVICIOS Y POSIBLES PRODUCTOS ANEXOS A LOS SERVICIOS. Q).- LA GESTIÓN DE CALIDAD DE TODA CLASE DE EMPRESAS, TANTO INDIVIDUALES COMO SOCIEDADES MERCANTILES, O CUALESQUIERA OTRAS ENTIDADES, ASÍ COMO EL ASESORAMIENTO, LA INFORMACIÓN Y LA FORMACIÓN EN DICHA MATERIA. R).- REALIZAR TODO TIPO DE PROYECTOS, ESTUDIOS, ASESORAMIENTOS, EMISIÓN DE DICTÁMENES E INFORMES, SOBRE LA PREVENCIÓN DE RIESGOS LABORALES. S).- LA INVESTIGACIÓN, ESTUDIO Y EVALUACIÓN SOBRE CONTAMINANTES FÍSICOS, QUÍMICOS Y BIOLÓGICOS DEL AIRE, AGUA Y SUPERFICIE. T).- LA FORMACIÓN TEÓRICA Y PRÁCTICA, DE CUALQUIER TIPO DE CURSOS DIRIGIDOS A LA GESTIÓN, ORIENTACIÓN Y FORMACIÓN DE TEMAS EDUCATIVOS. U).- EL DESARROLLO, REALIZACIÓN Y COMERCIALIZACIÓN EN GENERAL DE SISTEMAS INFORMÁTICOS Y DE TELEFONÍA; LA ACTIVIDAD INFORMÁTICA EN GENERAL Y LAS PRESTACIONES  DE TODOS LOS SERVICIOS CON ELLA RELACIONADOS, INCLUIDOS LA ENSEÑANZA, LA FORMACIÓN DE PERSONAL ESPECIALISTA, LA LLEVANZA DE CONTABILIDADES, LA REALIZACIÓN DE ANÁLISIS, PROYECTOS Y ESTUDIOS DE TODO GÉNERO, ASÍ COMO LA CONFECCIÓN, APLICACIÓN Y COMERCIALIZACIÓN DE PROGRAMAS. V).- EL DESARROLLO DE TODA ACTIVIDAD INDUSTRIAL Y COMERCIAL RELATIVA AL TRATAMIENTO DE AGUAS Y, POR TANTO, TAMBIÉN A LOS APARATOS DESTINADOS A LA PURIFICACIÓN DE AGUAS Y SU INSTALACIÓN, ASÍ COMO LA CONSTRUCCIÓN DE ARTÍCULOS O ELEMENTOS SIMILARES Y COMPLEMENTARIOS Y CUALESQUIERA OTROS RELACIONADO CON LAS AGUAS Y SU TRATAMIENTO",
      "mainEntityOfPage": "https://www.contratacion.euskadi.eus/webkpe00-kperoc/es/ac71aBusquedaRegistrosWar/empresa/05770",
      "_links": {
        "self": {
          "name": "POOLSPORT SOLUCIONES SOCIEDAD LIMITADA",
          "href": "https://api.euskadi.eus/procurements/companies/05770"
        }
      }
    }
  ]
}