{
  "totalItems": 9042,
  "totalPages": 905,
  "currentPage": 421,
  "itemsOfPage": 10,
  "items": [
    {
      "name": "ESA SPORTS BRANDED CONTENT, S.L.",
      "registrationNumber": "09609",
      "identificationNumber": "B01557388",
      "address": "CALLE REYES DE NAVARRA 24 BAJO",
      "location": {
        "postalCode": "01013",
        "municipality": "Vitoria-Gasteiz",
        "county": "Araba/Álava",
        "municipalityId": "059",
        "countyId": "01"
      },
      "economicActivities": [
        {
          "id": "1.964.2",
          "name": "Servicios de televisión",
          "_links": {
            "self": {
              "name": "Servicios de televisión",
              "href": "https://api.euskadi.eus/procurements/companies/economic-activities/1.964.2"
            }
          }
        }
      ],
      "certificateStartDate": "2024-05-23",
      "certificateEndDate": "2024-11-23",
      "object": "LA PREPRODUCCIÓN, PRODUCCIÓN Y POSTPRODUCCIÓN DE PROGRAMAS DE TELEVISIÓN. ORGANIZACIÓN, PRODUCCIÓN, GRABACIÓN Y REALIZACIÓN DE EVENTOS DEPORTIVOS, MUSICALES, TEATRALES, POLÍTICOS, INSTITUCIONALES Y DE VÍDEOS INDUSTRIALES. RETRANSMISIÓN DE EVENTOS DEPORTIVOS, MUSICALES Y TEATRALES. FORMACIÓN TÉCNICA, ARTÍSTICA Y PERIODÍSTICA. ASESORAMIENTO TÉCNICO EN INSTALACIONES AUDIOVISUALES Y PERIODÍSTICAS. PREPRODUCCIÓN, PRODUCCIÓN Y POSTPRODUCCIÓN DE DOCUMENTALES, SERIES DE FICCIÓN E IMÁGENES CORPORATIVAS. SERVICIO AUDIOVISUAL A MEDIOS DE COMUNICACIÓN, EMPRESAS E INSTITUCIONES. COMPRAVENTA DE IMÁGENES Y SONIDO, EQUIPOS TÉCNICOS AUDIOVISUALES, LOCALES Y VEHÍCULOS. GESTIÓN DE EVENTOS, GESTIÓN PUBLICITARIA. PROMOCIÓN INMOBILIARIA DE VIVIENDAS Y COMPRA-VENTA DE LOCALES. ",
      "mainEntityOfPage": "https://www.contratacion.euskadi.eus/webkpe00-kperoc/es/ac71aBusquedaRegistrosWar/empresa/09609",
      "_links": {
        "self": {
          "name": "ESA SPORTS BRANDED CONTENT, S.L.",
          "href": "https://api.euskadi.eus/procurements/companies/09609"
        }
      }
    },
    {
      "name": "JORGE LÓPEZ TUBIA",
      "registrationNumber": "05938",
      "identificationNumber": "35767568S",
      "address": "C/MAESTRO SANTESTEBAN 3-3ºB",
      "location": {
        "postalCode": "20011",
        "municipality": "Donostia / San Sebastián",
        "county": "Gipuzkoa",
        "municipalityId": "069",
        "countyId": "20"
      },
      "economicActivities": [
        {
          "id": "2.411",
          "name": "Arquitectos",
          "_links": {
            "self": {
              "name": "Arquitectos",
              "href": "https://api.euskadi.eus/procurements/companies/economic-activities/2.411"
            }
          }
        }
      ],
      "certificateStartDate": "2024-05-23",
      "certificateEndDate": "2024-11-20",
      "object": "ESTUDIO DE ARQUITECTURA",
      "mainEntityOfPage": "https://www.contratacion.euskadi.eus/webkpe00-kperoc/es/ac71aBusquedaRegistrosWar/empresa/05938",
      "_links": {
        "self": {
          "name": "JORGE LÓPEZ TUBIA",
          "href": "https://api.euskadi.eus/procurements/companies/05938"
        }
      }
    },
    {
      "name": "KEYLAB MEDICAL, S.L.",
      "registrationNumber": "06122",
      "identificationNumber": "B61053922",
      "address": "C/ Domenico Scarlatti, número 3, local 18 B",
      "location": {
        "postalCode": "28003",
        "municipality": "Madrid",
        "county": "Madrid",
        "municipalityId": "079",
        "countyId": "28"
      },
      "economicActivities": [
        {
          "id": "1.614.1",
          "name": "Venta al por mayor de productos farmacéuticos y medicamentos",
          "_links": {
            "self": {
              "name": "Venta al por mayor de productos farmacéuticos y medicamentos",
              "href": "https://api.euskadi.eus/procurements/companies/economic-activities/1.614.1"
            }
          }
        }
      ],
      "certificateStartDate": "2024-05-22",
      "certificateEndDate": "2024-11-14",
      "object": "COMPRA, VENTA, IMPORTACIÓN, EXPORTACIÓN Y FABRICACIÓN DE APARATOS Y PRODUCTOS UTILIZABLES EN EL CAMPO MÉDICO Y DE LABORATORIO INDUSTRIAL",
      "mainEntityOfPage": "https://www.contratacion.euskadi.eus/webkpe00-kperoc/es/ac71aBusquedaRegistrosWar/empresa/06122",
      "_links": {
        "self": {
          "name": "KEYLAB MEDICAL, S.L.",
          "href": "https://api.euskadi.eus/procurements/companies/06122"
        }
      }
    },
    {
      "name": "ANDAIRA TECHNOLOGY, S.L.",
      "registrationNumber": "07537",
      "identificationNumber": "B82127044",
      "address": "Serrano 40",
      "location": {
        "postalCode": "28001",
        "municipality": "Madrid",
        "county": "Madrid",
        "municipalityId": "079",
        "countyId": "28"
      },
      "economicActivities": [
        {
          "id": "1.845",
          "name": "Explotación electrónica por cuenta de terceros",
          "_links": {
            "self": {
              "name": "Explotación electrónica por cuenta de terceros",
              "href": "https://api.euskadi.eus/procurements/companies/economic-activities/1.845"
            }
          }
        },
        {
          "id": "1.933.9",
          "name": "Otras actividades de enseñanza tales como idiomas, mecanografía",
          "_links": {
            "self": {
              "name": "Otras actividades de enseñanza tales como idiomas, mecanografía",
              "href": "https://api.euskadi.eus/procurements/companies/economic-activities/1.933.9"
            }
          }
        }
      ],
      "certificateStartDate": "2024-05-22",
      "certificateEndDate": "2024-11-22",
      "object": "LA REALIZACIÓN DE ESTUDIOS, TRABAJOS Y APLICACIONES INFORMÁTICAS, LA APROBACIÓN DE TODA CLASE DE SERVICIOS CON EL PROCESAMIENTO DE LA INFORMACIÓN, TALES COMO ANÁLISIS DE LA SOCIEDAD, ANÁLISIS ORGÁNICO, PROGRAMACIÓN, LA SELECCIÓN Y FORMACIÓN DE PERSONAL INFORMÁTICO; EL ASESORAMIENTO INFORMÁTICO DE EMPRESAS, ORGANISMOS E INSTITUCIONES, ASÍ COMO LA REALIZACIÓN DE REVISIONES Y AUDITORÍAS INFORMÁTICAS Y TODA OTRA ACTIVIDAD DE CARÁCTER INFORMÁTICO YA SEA DENTRO DE LAS ÁREAS DEL &quot;HARDWARE&quot; COMO DEL &quot;SOFTWARE&quot;, LOS SERVICIOS RELACIONADOS CON LA ORGANIZACIÓN, ADMINISTRACIÓN .V GESTIÓN ADMINISTRATIVA DE LAS EMPRESAS; EL ARRENDAMIENTO O SUBARRIENDO, EN SU CASO, DE BIENES INMUEBLES Y DE BIENES MUEBLES (ORDENADORES Y OTROS MEDIOS DE PRODUCCIÓN INFORMÁTICA). Y LA IMPORTACIÓN, EXPORTACIÓN Y COMERCIALIZACIÓN EN GENERAL DE PRODUCTOS DE &quot;SOFTWARE&quot; Y &quot;HARDWARE&quot; Y DE TODA CLASE DE MATERIAL ELECTRÓNICO.",
      "mainEntityOfPage": "https://www.contratacion.euskadi.eus/webkpe00-kperoc/es/ac71aBusquedaRegistrosWar/empresa/07537",
      "_links": {
        "self": {
          "name": "ANDAIRA TECHNOLOGY, S.L.",
          "href": "https://api.euskadi.eus/procurements/companies/07537"
        }
      }
    },
    {
      "name": "MARIA DEL MAR DE VILLA, S.L.P.",
      "registrationNumber": "09084",
      "identificationNumber": "B85449528",
      "address": "Calle Poeta Joan Maragall nº 49, 1ª Planta, Oficina 3",
      "location": {
        "postalCode": "28020",
        "municipality": "Madrid",
        "county": "Madrid",
        "municipalityId": "079",
        "countyId": "28"
      },
      "economicActivities": [
        {
          "id": "1.841",
          "name": "Servicios jurídicos",
          "_links": {
            "self": {
              "name": "Servicios jurídicos",
              "href": "https://api.euskadi.eus/procurements/companies/economic-activities/1.841"
            }
          }
        }
      ],
      "certificateStartDate": "2024-05-22",
      "certificateEndDate": "2024-11-22",
      "object": "LA ACTIVIDAD PROFESIONAL DE PROCURADOR.",
      "mainEntityOfPage": "https://www.contratacion.euskadi.eus/webkpe00-kperoc/es/ac71aBusquedaRegistrosWar/empresa/09084",
      "_links": {
        "self": {
          "name": "MARIA DEL MAR DE VILLA, S.L.P.",
          "href": "https://api.euskadi.eus/procurements/companies/09084"
        }
      }
    },
    {
      "name": "XABIER ULAZIA CARBALLO",
      "registrationNumber": "09600",
      "identificationNumber": "44173655Q",
      "address": "BERGARA KALEA 26-3º",
      "location": {
        "postalCode": "48280",
        "municipality": "Lekeitio",
        "county": "Bizkaia",
        "municipalityId": "057",
        "countyId": "48"
      },
      "economicActivities": [
        {
          "id": "1.843.9",
          "name": "Otros servicios técnicos n.c.o.p",
          "_links": {
            "self": {
              "name": "Otros servicios técnicos n.c.o.p",
              "href": "https://api.euskadi.eus/procurements/companies/economic-activities/1.843.9"
            }
          }
        }
      ],
      "certificateStartDate": "2024-05-21",
      "certificateEndDate": "2024-11-21",
      "object": "OTROS SERVICIOS TÉCNICOS N.C.O.P.",
      "mainEntityOfPage": "https://www.contratacion.euskadi.eus/webkpe00-kperoc/es/ac71aBusquedaRegistrosWar/empresa/09600",
      "_links": {
        "self": {
          "name": "XABIER ULAZIA CARBALLO",
          "href": "https://api.euskadi.eus/procurements/companies/09600"
        }
      }
    },
    {
      "name": "JON URDINETA LERTXUNDI",
      "registrationNumber": "09599",
      "identificationNumber": "72469535P",
      "address": "Calle Mitarte (20550), 8 ENTREPLANTA",
      "location": {
        "postalCode": "20550",
        "municipality": "Aretxabaleta",
        "county": "Gipuzkoa",
        "municipalityId": "013",
        "countyId": "20"
      },
      "economicActivities": [
        {
          "id": "2.776",
          "name": "Doctores y licenciados en ciencias políticas y sociales",
          "_links": {
            "self": {
              "name": "Doctores y licenciados en ciencias políticas y sociales",
              "href": "https://api.euskadi.eus/procurements/companies/economic-activities/2.776"
            }
          }
        }
      ],
      "certificateStartDate": "2024-05-21",
      "certificateEndDate": "2024-11-16",
      "object": "DOCTORES Y LICENCIADOS EN CIENCIAS POLÍTICAS Y SOCIALES.",
      "mainEntityOfPage": "https://www.contratacion.euskadi.eus/webkpe00-kperoc/es/ac71aBusquedaRegistrosWar/empresa/09599",
      "_links": {
        "self": {
          "name": "JON URDINETA LERTXUNDI",
          "href": "https://api.euskadi.eus/procurements/companies/09599"
        }
      }
    },
    {
      "name": "IGOR EREÑO FUENTE",
      "registrationNumber": "09597",
      "identificationNumber": "44679904N",
      "address": "Calle Viena (01002)Nº 3 10 A",
      "location": {
        "postalCode": "01002",
        "municipality": "Vitoria-Gasteiz",
        "county": "Araba/Álava",
        "municipalityId": "059",
        "countyId": "01"
      },
      "economicActivities": [
        {
          "id": "1.501.3",
          "name": "Albañilería y pequeños trabajos de construcción en general",
          "_links": {
            "self": {
              "name": "Albañilería y pequeños trabajos de construcción en general",
              "href": "https://api.euskadi.eus/procurements/companies/economic-activities/1.501.3"
            }
          }
        }
      ],
      "certificateStartDate": "2024-05-21",
      "certificateEndDate": "2024-11-15",
      "object": "ALBAÑILERÍA Y PEQUEÑOS TRABAJOS DE CONSTRUCCIÓN EN GENERAL.",
      "mainEntityOfPage": "https://www.contratacion.euskadi.eus/webkpe00-kperoc/es/ac71aBusquedaRegistrosWar/empresa/09597",
      "_links": {
        "self": {
          "name": "IGOR EREÑO FUENTE",
          "href": "https://api.euskadi.eus/procurements/companies/09597"
        }
      }
    },
    {
      "name": "MILER KENDALL, S.L.",
      "registrationNumber": "09343",
      "identificationNumber": "B95992764",
      "address": "viuda de epalza 6, 1º",
      "location": {
        "postalCode": "48005",
        "municipality": "Bilbao",
        "county": "Bizkaia",
        "municipalityId": "020",
        "countyId": "48"
      },
      "economicActivities": [
        {
          "id": "1.842",
          "name": "Servicios financieros y contables",
          "_links": {
            "self": {
              "name": "Servicios financieros y contables",
              "href": "https://api.euskadi.eus/procurements/companies/economic-activities/1.842"
            }
          }
        }
      ],
      "certificateStartDate": "2024-05-21",
      "certificateEndDate": "2024-11-21",
      "object": "A) PRESTACIÓN DE SERVICIOS DE ESTUDIO, CONSULTA, ASISTENCIA Y ASESORAMIENTO DE CARÁCTER TÉCNICO, CONTABLE, FISCAL, LABORAL, COMERCIAL Y ORGANIZATIVO PARA TODA CLASE DE EMPRESAS, INDIVIDUALES Y SOCIALES. B) PRESTACIÓN DE SERVICIOS DE ASESORÍA EN MATERIA LEGAL, PENAL, CIVIL, MERCANTIL, REPRESENTACIÓN LEGAL Y JURÍDICA PARA PERSONAS TANTO NATURALES COMO JURÍDICAS. SERVICIOS DE REDACCIÓN Y ELABORACIÓN DE DOCUMENTOS LEGALES QUE TENGAN RELACIÓN CON LA REPRESENTACIÓN LEGAL DE PERSONAS. C) CONSULTORÍA FINANCIERA Y ECONÓMICA. SERVICIO DE GESTIÓN Y CONTABILIDAD, DESARROLLO Y FORMACIÓN DE EMPRESAS A NIVEL NACIONAL E INTERNACIONAL. SERVICIO DE MARKETING, ESTUDIO DE PUBLICIDAD Y MERCADO, COMISIONES, ASIGNACIONES, VENTAS DE PRODUCTOS Y SERVICIOS. D) LA ADQUISICIÓN, TENENCIA, DISFRUTE Y TRANSMISIÓN POR CUALQUIER TÍTULO DE CUALESQUIERA BIENES MUEBLES, SU ADMINISTRACIÓN, GESTIÓN, TRANSFORMACIÓN Y COMERCIALIZACIÓN. LA ADQUISICIÓN, SUSCRIPCIÓN, TENENCIA, DISFRUTE Y ENAJENACIÓN DE ACCIONES Y PARTICIPACIONES SOCIALES DE SOCIEDADES MERCANTILES EN GENERAL, ASÍ COMO LA DIRECCIÓN, GESTIÓN, CONTROL Y ADMINISTRACIÓN DE SU CARTERA DE SOCIEDADES PARTICIPADAS, COMO SOCIEDAD \"HOLDING\", PARA LO CUAL DISPONDRÁ DE LA CORRESPONDIENTE ORGANIZACIÓN DE MEDIOS MATERIALES Y PERSONALES. E) LA CREACIÓN Y PROMOCIÓN DE EMPRESAS Y SOCIEDADES CON OBJETO SIMILAR Y LA INTERVENCIÓN DIRECTA O INDIRECTA EN ELLAS. F) LA REALIZACIÓN DE TODO TIPO DE ACTIVIDADES DE CARÁCTER INMOBILIARIO, EN ESPECIAL, LAS RELATIVAS A LA ADQUISICIÓN, TENENCIA, ARRENDAMIENTO, ENAJENACIÓN, PROMOCIÓN, REHABILITACIÓN Y EXPLOTACIÓN POR CUALQUIER TÍTULO DE TODA CLASE DE BIENES INMUEBLES.",
      "mainEntityOfPage": "https://www.contratacion.euskadi.eus/webkpe00-kperoc/es/ac71aBusquedaRegistrosWar/empresa/09343",
      "_links": {
        "self": {
          "name": "MILER KENDALL, S.L.",
          "href": "https://api.euskadi.eus/procurements/companies/09343"
        }
      }
    },
    {
      "name": "UBT COMPLIANCE SERVICES, S.L.",
      "registrationNumber": "08525",
      "identificationNumber": "B87114187",
      "address": "Calle Lagasca 105 1d",
      "location": {
        "postalCode": "28006",
        "municipality": "Madrid",
        "county": "Madrid",
        "municipalityId": "079",
        "countyId": "28"
      },
      "economicActivities": [
        {
          "id": "1.849.9",
          "name": "Otros servicios independientes n.c.o.p",
          "_links": {
            "self": {
              "name": "Otros servicios independientes n.c.o.p",
              "href": "https://api.euskadi.eus/procurements/companies/economic-activities/1.849.9"
            }
          }
        }
      ],
      "certificateStartDate": "2024-05-21",
      "certificateEndDate": "2024-11-21",
      "object": "LA INTERMEDIACIÓN EN LA PRESTACIÓN DE LOS SERVICIOS DE CONSULTORÍA DE NEGOCIO Y TÉCNICA EN TODOS LOS CAMPOS DEL DERECHO Y DE LA GESTIÓN EMPRESARIAL A PERSONAS FÍSICAS Y JURÍDICAS, PÚBLICAS Y PRIVADAS, ASÍ COMO LOS SERVICIOS DE ASESORAMIENTO LEGAL Y DEFENSA JURÍDICA Y FORMACIÓN EN MATERIA DE CUMPLIMIENTO NORMATIVO.",
      "mainEntityOfPage": "https://www.contratacion.euskadi.eus/webkpe00-kperoc/es/ac71aBusquedaRegistrosWar/empresa/08525",
      "_links": {
        "self": {
          "name": "UBT COMPLIANCE SERVICES, S.L.",
          "href": "https://api.euskadi.eus/procurements/companies/08525"
        }
      }
    }
  ]
}