{
  "totalItems": 9042,
  "totalPages": 905,
  "currentPage": 793,
  "itemsOfPage": 10,
  "items": [
    {
      "name": "MINTZA GABINETE DE PSICOLOGÍA, S.L.",
      "registrationNumber": "02207",
      "identificationNumber": "B01289735",
      "address": "C/ MANUEL IRADIER, Nº 27 - 4º DCHA.",
      "location": {
        "postalCode": "01005",
        "municipality": "Vitoria-Gasteiz",
        "county": "Araba/Álava",
        "municipalityId": "059",
        "countyId": "01"
      },
      "economicActivities": [
        {
          "id": "1.932.1",
          "name": "Enseñanza de formación y perfeccionamiento profesional no superior",
          "_links": {
            "self": {
              "name": "Enseñanza de formación y perfeccionamiento profesional no superior",
              "href": "https://api.euskadi.eus/procurements/companies/economic-activities/1.932.1"
            }
          }
        },
        {
          "id": "1.942.9",
          "name": "Otros servicios sanitarios sin internados, no clasificados",
          "_links": {
            "self": {
              "name": "Otros servicios sanitarios sin internados, no clasificados",
              "href": "https://api.euskadi.eus/procurements/companies/economic-activities/1.942.9"
            }
          }
        },
        {
          "id": "1.952",
          "name": "Asistencia y servicios sociales en centros no residenciales",
          "_links": {
            "self": {
              "name": "Asistencia y servicios sociales en centros no residenciales",
              "href": "https://api.euskadi.eus/procurements/companies/economic-activities/1.952"
            }
          }
        }
      ],
      "certificateStartDate": "2004-06-16",
      "certificateEndDate": "2004-12-11",
      "object": "LA REALIZACIÓN DE TODO TIPO DE ACTIVIDADES RELACIONADAS CON LA PSICOLOGÍA, PEDAGOGÍA Y LOGOPEDIA, A TRAVÉS DE LOS PROFESIONALES QUE CUENTEN CON LA TITULACIÓN LEGALMENTE EXIGIDA EN CADA CASO",
      "mainEntityOfPage": "https://www.contratacion.euskadi.eus/webkpe00-kperoc/es/ac71aBusquedaRegistrosWar/empresa/02207",
      "_links": {
        "self": {
          "name": "MINTZA GABINETE DE PSICOLOGÍA, S.L.",
          "href": "https://api.euskadi.eus/procurements/companies/02207"
        }
      }
    },
    {
      "name": "CHEAL MEDIC, S.L.",
      "registrationNumber": "01512",
      "identificationNumber": "B59172551",
      "address": "C/ SICILIA, Nº 121 - 4º - 1ª",
      "location": {
        "postalCode": "08013",
        "municipality": "Barcelona",
        "county": "Barcelona",
        "municipalityId": "019",
        "countyId": "08"
      },
      "economicActivities": [
        {
          "id": "1.619.2",
          "name": "Venta al por mayor de aparatos e instrumentos médicos, ortopédicos, ópticos",
          "_links": {
            "self": {
              "name": "Venta al por mayor de aparatos e instrumentos médicos, ortopédicos, ópticos",
              "href": "https://api.euskadi.eus/procurements/companies/economic-activities/1.619.2"
            }
          }
        }
      ],
      "certificateStartDate": "2004-06-10",
      "certificateEndDate": "2004-11-07",
      "object": "LA DISTRIBUCIÓN Y VENTA, BIEN POR CUENTA PROPIA O POR CUENTA DE TERCEROS, DE TODO TIPO DE PRODUCTOS FARMACÉUTICOS, MEDICINAS, PRÓTESIS Y MATERIAL SANITARIO EN GENERAL. LA VENTA E INSTALACIÓN DE MATERIAL CLÍNICO Y APARATOS E INSTRUMENTAL MÉDICO Y SANITARIO",
      "mainEntityOfPage": "https://www.contratacion.euskadi.eus/webkpe00-kperoc/es/ac71aBusquedaRegistrosWar/empresa/01512",
      "_links": {
        "self": {
          "name": "CHEAL MEDIC, S.L.",
          "href": "https://api.euskadi.eus/procurements/companies/01512"
        }
      }
    },
    {
      "name": "CUBICAL, S.A.",
      "registrationNumber": "00948",
      "identificationNumber": "A01054543",
      "address": " C/ SAN BLAS, 7 - P.I. GOJAIN",
      "location": {
        "postalCode": "01170",
        "municipality": "Legutio",
        "county": "Araba/Álava",
        "municipalityId": "058",
        "countyId": "01"
      },
      "economicActivities": [
        {
          "id": "1.314.2",
          "name": "Fabricación de estructuras metálicas",
          "_links": {
            "self": {
              "name": "Fabricación de estructuras metálicas",
              "href": "https://api.euskadi.eus/procurements/companies/economic-activities/1.314.2"
            }
          }
        }
      ],
      "certificateStartDate": "2004-06-09",
      "certificateEndDate": "2003-05-25",
      "object": "LA REALIZACIÓN DE SERVICIOS DE MANTENIMIENTO EN EL CAMPO DEL MONTAJE Y REPARACIÓN MECÁNICA, DE TODA CLASE DE CLASE DE MAQUINARIA E INSTALACIONES INDUSTRIALES, ASÍ COMO DE TODO TIPO DE TUBERÍAS, DEDICÁNDOSE ADEMÁS AL MONTAJE E INSTALACIÓN  DE CUBIERTAS  DE TODO TIPO, PARA CUALQUIER EMPRESA QUE LO SOLICITE, Y CUALQUIER OTRA ACTIVIDAD DIRECTA O INDIRECTAMENTE RELACIONADA CON EL OBJETO CITADO ",
      "mainEntityOfPage": "https://www.contratacion.euskadi.eus/webkpe00-kperoc/es/ac71aBusquedaRegistrosWar/empresa/00948",
      "_links": {
        "self": {
          "name": "CUBICAL, S.A.",
          "href": "https://api.euskadi.eus/procurements/companies/00948"
        }
      }
    },
    {
      "name": "KM90 PRINTER SOLUTIONS, S.L.",
      "registrationNumber": "02850",
      "identificationNumber": "B01366566",
      "address": "AVDA. DE GASTEIZ, 90",
      "location": {
        "postalCode": "01012",
        "municipality": "Vitoria-Gasteiz",
        "county": "Araba/Álava",
        "municipalityId": "059",
        "countyId": "01"
      },
      "economicActivities": [
        {
          "id": "1.617.8",
          "name": "Venta al por mayor de máquinas y material de oficina",
          "_links": {
            "self": {
              "name": "Venta al por mayor de máquinas y material de oficina",
              "href": "https://api.euskadi.eus/procurements/companies/economic-activities/1.617.8"
            }
          }
        }
      ],
      "certificateStartDate": "2004-06-09",
      "certificateEndDate": "2004-10-07",
      "object": "LA COMPRA-VENTA AL POR MAYOR Y AL POR MENOR, IMPORTACIÓN Y EXPORTACIÓN DE TODA CLASE DE MÁQUINAS, EQUIPOS DE OFICINA Y MOBILIARIO, ASÍ COMO LA CESIÓN DE LOS MISMOS EN RÉGIMEN DE ALQUILER; REPARACIÓN, CONSERVACIÓN Y MATENIMIENTO DE TODA CLASE DE MÁQUINAS, EQUIPOS Y MOBILIARIO DE OFICINAS; LA REPRESENTACIÓN DE TODA CLASE DE EMPRESAS NACIONALES Y EXTRANJERAS, RELACIONADAS CON EL SECTOR INDICADO; LA FABRICACIÓN DE EQUIPOS, MÁQUINAS, MATERIAL Y MOBILIARIO DE OFICINA, LA MECANIZACIÓN DE EMPRESAS PÚBLICAS Y PRIVADAS, PREVIA PRESTACIÓN, EN SU CASO, DE LOS SERVICIOS SOLICITADOS DE ORGANIZACIÓN E INFORMÁTICOS, ASÍ COMO LA COMERCIALIZACIÓN DE APARATOS DE SEGURIDAD, CONTROL DE PERSONAS O COSAS E INTERCOMUNICACIÓN.",
      "mainEntityOfPage": "https://www.contratacion.euskadi.eus/webkpe00-kperoc/es/ac71aBusquedaRegistrosWar/empresa/02850",
      "_links": {
        "self": {
          "name": "KM90 PRINTER SOLUTIONS, S.L.",
          "href": "https://api.euskadi.eus/procurements/companies/02850"
        }
      }
    },
    {
      "name": "TALLERES ELÉCTRICOS OYAL, S.L.",
      "registrationNumber": "02369",
      "identificationNumber": "B48964324",
      "address": "CTRA. ERREKALDE LARRASKITU, 36",
      "location": {
        "postalCode": "48002",
        "municipality": "Bilbao",
        "county": "Bizkaia",
        "municipalityId": "020",
        "countyId": "48"
      },
      "economicActivities": [
        {
          "id": "1.504.3",
          "name": "Instalaciones de frío, calor y acondicionamiento de aire",
          "_links": {
            "self": {
              "name": "Instalaciones de frío, calor y acondicionamiento de aire",
              "href": "https://api.euskadi.eus/procurements/companies/economic-activities/1.504.3"
            }
          }
        }
      ],
      "certificateStartDate": "2004-06-08",
      "certificateEndDate": "2004-10-29",
      "object": "LA REPARACIÓN DE MAQUINARIA INDUSTRIAL",
      "mainEntityOfPage": "https://www.contratacion.euskadi.eus/webkpe00-kperoc/es/ac71aBusquedaRegistrosWar/empresa/02369",
      "_links": {
        "self": {
          "name": "TALLERES ELÉCTRICOS OYAL, S.L.",
          "href": "https://api.euskadi.eus/procurements/companies/02369"
        }
      }
    },
    {
      "name": "AREA INTERACTIVA S.A.",
      "registrationNumber": "02848",
      "identificationNumber": "A01306968",
      "address": "C/ALBERT EINSTEIN, Nº 40. PARQUE TECNOLÓGICO MIÑANO",
      "location": {
        "postalCode": "01510",
        "municipality": "Vitoria-Gasteiz",
        "county": "Araba/Álava",
        "municipalityId": "059",
        "countyId": "01"
      },
      "economicActivities": [
        {
          "id": "1.665",
          "name": "Venta al por menor por correo o catálogo de productos diversos",
          "_links": {
            "self": {
              "name": "Venta al por menor por correo o catálogo de productos diversos",
              "href": "https://api.euskadi.eus/procurements/companies/economic-activities/1.665"
            }
          }
        }
      ],
      "certificateStartDate": "2004-06-08",
      "certificateEndDate": "2004-08-26",
      "object": "LA COMPRA-VENTA, DISTRIBUCIÓN Y MONTAJE DE EQUIPOS INFORMÁTICOS, ACCESORIOS FUNGBLES, SOFTWARE Y CUALQUIER OTRO ELEMENTO INVENTADO O POR INVENTAR RELACIONADO CON LA INFORMÁTICA Y LAS COMUNICACIONES.\r\nLAS ACTIVIDADES ENUMERADAS PODRÁN TAMBIÉN SER DESARROLLADAS POR LA SOCIEDAD TOTAL O PARCIALMENTE, DE MODO INDIRECTO, MEDIANTE LA PARTICIPACIÓN DE OTORAS SOCIEDADES  CON OBJETO ANÁLOGO ",
      "mainEntityOfPage": "https://www.contratacion.euskadi.eus/webkpe00-kperoc/es/ac71aBusquedaRegistrosWar/empresa/02848",
      "_links": {
        "self": {
          "name": "AREA INTERACTIVA S.A.",
          "href": "https://api.euskadi.eus/procurements/companies/02848"
        }
      }
    },
    {
      "name": "INYPSA INFORMES Y PROYECTOS, S.A.",
      "registrationNumber": "00697",
      "identificationNumber": "A28249977",
      "address": "C/ GENERAL DÍAZ PORLIER, Nº 49.",
      "location": {
        "postalCode": "28001",
        "municipality": "Madrid",
        "county": "Madrid",
        "municipalityId": "079",
        "countyId": "28"
      },
      "economicActivities": [
        {
          "id": "1.501.1",
          "name": "Construcción completa, reparación y conservación de edificaciones",
          "_links": {
            "self": {
              "name": "Construcción completa, reparación y conservación de edificaciones",
              "href": "https://api.euskadi.eus/procurements/companies/economic-activities/1.501.1"
            }
          }
        },
        {
          "id": "1.501.2",
          "name": "Construcción completa, reparación y conservación obras civiles",
          "_links": {
            "self": {
              "name": "Construcción completa, reparación y conservación obras civiles",
              "href": "https://api.euskadi.eus/procurements/companies/economic-activities/1.501.2"
            }
          }
        },
        {
          "id": "1.843.1",
          "name": "Servicios técnicos de ingeniería",
          "_links": {
            "self": {
              "name": "Servicios técnicos de ingeniería",
              "href": "https://api.euskadi.eus/procurements/companies/economic-activities/1.843.1"
            }
          }
        }
      ],
      "certificateStartDate": "2004-06-07",
      "certificateEndDate": "2004-11-11",
      "object": "LA REALIZACIÓN DE ANTEPROYECTOS, PROYECTOS, ESTUDIOS E INFORMES TÉCNICOS Y LA EJECUCIÓN DE OBRAS Y PRESTACIÓN DE SERVICIOS, TODO ELLO EN LOS CAMPOS DE LA INGENIERÍA, ARQUITECTURA, MARKETING, ECONOMÍA Y FINANZAS",
      "mainEntityOfPage": "https://www.contratacion.euskadi.eus/webkpe00-kperoc/es/ac71aBusquedaRegistrosWar/empresa/00697",
      "_links": {
        "self": {
          "name": "INYPSA INFORMES Y PROYECTOS, S.A.",
          "href": "https://api.euskadi.eus/procurements/companies/00697"
        }
      }
    },
    {
      "name": "TOPOESTUDIOS INGENIERÍA, S.L.",
      "registrationNumber": "02845",
      "identificationNumber": "B01340918",
      "address": "C/ PINTORERÍA, 74 -1º",
      "location": {
        "postalCode": "01001",
        "municipality": "Vitoria-Gasteiz",
        "county": "Araba/Álava",
        "municipalityId": "059",
        "countyId": "01"
      },
      "economicActivities": [
        {
          "id": "1.843.4",
          "name": "Servicios técnicos de topografía",
          "_links": {
            "self": {
              "name": "Servicios técnicos de topografía",
              "href": "https://api.euskadi.eus/procurements/companies/economic-activities/1.843.4"
            }
          }
        }
      ],
      "certificateStartDate": "2004-06-04",
      "certificateEndDate": "2004-09-22",
      "object": "LA PRESTACIÓN DE SERVICIOS DE TOPOGRAFÍA Y DE CONSULTORÍA DE INGENERÍA; LA VENTA Y ALQUILER DE MATERIAL TOPOGRÁFICO; LA FORMACIÓN EN INFORMÁTICA PARA INGENIEROS",
      "mainEntityOfPage": "https://www.contratacion.euskadi.eus/webkpe00-kperoc/es/ac71aBusquedaRegistrosWar/empresa/02845",
      "_links": {
        "self": {
          "name": "TOPOESTUDIOS INGENIERÍA, S.L.",
          "href": "https://api.euskadi.eus/procurements/companies/02845"
        }
      }
    },
    {
      "name": "LA FERRETERA VIZCAÍNA, S.A.",
      "registrationNumber": "00608",
      "identificationNumber": "A48007223",
      "address": "C/ BIDEBARRIETA, Nº 1 - A.",
      "location": {
        "postalCode": "48215",
        "municipality": "Iurreta",
        "county": "Bizkaia",
        "municipalityId": "910",
        "countyId": "48"
      },
      "economicActivities": [
        {
          "id": "1.314.2",
          "name": "Fabricación de estructuras metálicas",
          "_links": {
            "self": {
              "name": "Fabricación de estructuras metálicas",
              "href": "https://api.euskadi.eus/procurements/companies/economic-activities/1.314.2"
            }
          }
        },
        {
          "id": "1.616.2",
          "name": "Venta al por mayor de hierro y acero",
          "_links": {
            "self": {
              "name": "Venta al por mayor de hierro y acero",
              "href": "https://api.euskadi.eus/procurements/companies/economic-activities/1.616.2"
            }
          }
        }
      ],
      "certificateStartDate": "2004-06-03",
      "certificateEndDate": "2004-11-10",
      "object": "LA FABRICACIÓN Y COMERCIALIZACIÓN DE CHAPA DE HIERRO Y DEMÁS PRODUCTOS MANUFACTURADOS DERIVADOS DE LA MISMA Y, ASIMISMO, LA FABRICACIÓN Y COMERCIALIZACIÓN DE PIEZAS REALIZADAS POR EXTRUSIÓN",
      "mainEntityOfPage": "https://www.contratacion.euskadi.eus/webkpe00-kperoc/es/ac71aBusquedaRegistrosWar/empresa/00608",
      "_links": {
        "self": {
          "name": "LA FERRETERA VIZCAÍNA, S.A.",
          "href": "https://api.euskadi.eus/procurements/companies/00608"
        }
      }
    },
    {
      "name": "LIMPIEZAS AYALA GARBIKETAK, S.L.",
      "registrationNumber": "02330",
      "identificationNumber": "B01169911",
      "address": "URBANIZACIÓN ISASI, Nº 28",
      "location": {
        "postalCode": "01400",
        "municipality": "Laudio/Llodio",
        "county": "Araba/Álava",
        "municipalityId": "036",
        "countyId": "01"
      },
      "economicActivities": [
        {
          "id": "1.922",
          "name": "Servicios de limpieza",
          "_links": {
            "self": {
              "name": "Servicios de limpieza",
              "href": "https://api.euskadi.eus/procurements/companies/economic-activities/1.922"
            }
          }
        }
      ],
      "certificateStartDate": "2004-06-03",
      "certificateEndDate": "2004-11-13",
      "object": "LA REALIZACIÓN DE LOS SERVICIOS DE LIMPIEZA DE INTERIORES Y EXTERIORES DE EDIFICIOS, OFICINAS, ESTABLECIMIENTOS COMERCIALES, RESIDENCIAS, CENTROS SANITARIOS, ESTABLECIMIENTOS INDUSTRIALES, ETC.,  Y EN GENERAL DE CUALQUIER OTRA ACTIVIDAD QUE LAS FACILITE O COMPLEMENTE Y SEA DE LÍCITO COMERCIO",
      "mainEntityOfPage": "https://www.contratacion.euskadi.eus/webkpe00-kperoc/es/ac71aBusquedaRegistrosWar/empresa/02330",
      "_links": {
        "self": {
          "name": "LIMPIEZAS AYALA GARBIKETAK, S.L.",
          "href": "https://api.euskadi.eus/procurements/companies/02330"
        }
      }
    }
  ]
}