{
  "totalItems": 9042,
  "totalPages": 905,
  "currentPage": 663,
  "itemsOfPage": 10,
  "items": [
    {
      "name": "REPOBLACIONES FORESTALES EUSKALDUNAK, S.L.",
      "registrationNumber": "01977",
      "identificationNumber": "B48140180",
      "address": "C/ DIPUTACIÓN, Nº 8 - 2º. DPTO.: 12.",
      "location": {
        "postalCode": "48008",
        "municipality": "Bilbao",
        "county": "Bizkaia",
        "municipalityId": "020",
        "countyId": "48"
      },
      "economicActivities": [
        {
          "id": "1.501.1",
          "name": "Construcción completa, reparación y conservación de edificaciones",
          "_links": {
            "self": {
              "name": "Construcción completa, reparación y conservación de edificaciones",
              "href": "https://api.euskadi.eus/procurements/companies/economic-activities/1.501.1"
            }
          }
        },
        {
          "id": "1.501.2",
          "name": "Construcción completa, reparación y conservación obras civiles",
          "_links": {
            "self": {
              "name": "Construcción completa, reparación y conservación obras civiles",
              "href": "https://api.euskadi.eus/procurements/companies/economic-activities/1.501.2"
            }
          }
        },
        {
          "id": "1.911",
          "name": "Servicios agrícolas y ganaderos",
          "_links": {
            "self": {
              "name": "Servicios agrícolas y ganaderos",
              "href": "https://api.euskadi.eus/procurements/companies/economic-activities/1.911"
            }
          }
        },
        {
          "id": "1.912",
          "name": "Servicios forestales",
          "_links": {
            "self": {
              "name": "Servicios forestales",
              "href": "https://api.euskadi.eus/procurements/companies/economic-activities/1.912"
            }
          }
        },
        {
          "id": "1.921.1",
          "name": "Servicios de limpieza en calles, vías públicas y jardines",
          "_links": {
            "self": {
              "name": "Servicios de limpieza en calles, vías públicas y jardines",
              "href": "https://api.euskadi.eus/procurements/companies/economic-activities/1.921.1"
            }
          }
        }
      ],
      "certificateStartDate": "2015-01-26",
      "certificateEndDate": "2015-07-19",
      "object": "LA REALIZACIÓN DE TODO LO RELACIONADO CON EXPLOTACIONES FORESTALES Y JARDINERÍA, SERVICIOS CONTRA INCENDIOS, PREPARACIÓN DE LA TIERRA, PODA, RIEGO, APLICACIÓN DE PRODUCTOS SANITARIOS, SERVICIOS DE PLANTACIÓN Y MANTENIMIENTO DE JARDINES Y PARQUES Y OTROS SERVICIOS AGRÍCOLAS Y GANADEROS; CONSERVACIÓN DE PARQUES RECREATIVOS, TALA DE ARBOLES, COMPRAVENTA DE MADERA TANTO A PIE DE MONTE COMO EN VIVEROS O ALMACÉN. SERVICIOS DE MANTENIMIENTO Y SANEAMIENTO DE VÍAS PÚBLICAS, SERVICIOS AUXILIARES DE LA CONSTRUCCIÓN Y DRAGADOS, ALBAÑILERÍA Y PEQUEÑOS TRABAJOS DE CONSTRUCCIÓN EN GENERAL",
      "mainEntityOfPage": "https://www.contratacion.euskadi.eus/webkpe00-kperoc/es/ac71aBusquedaRegistrosWar/empresa/01977",
      "_links": {
        "self": {
          "name": "REPOBLACIONES FORESTALES EUSKALDUNAK, S.L.",
          "href": "https://api.euskadi.eus/procurements/companies/01977"
        }
      }
    },
    {
      "name": "EXCAVACIONES ZUBILLAGA, S.L.",
      "registrationNumber": "02509",
      "identificationNumber": "B31037641",
      "address": "POL.INDUSTRIAL ARETXAGA nº 8-9",
      "location": {
        "postalCode": "48860",
        "municipality": "Zalla",
        "county": "Bizkaia",
        "municipalityId": "096",
        "countyId": "48"
      },
      "economicActivities": [
        {
          "id": "1.502.3",
          "name": "Consolidación y preparación de terrenos para la realización de obras civiles",
          "_links": {
            "self": {
              "name": "Consolidación y preparación de terrenos para la realización de obras civiles",
              "href": "https://api.euskadi.eus/procurements/companies/economic-activities/1.502.3"
            }
          }
        },
        {
          "id": "1.507",
          "name": "Construcción, reparación y conservación de toda clase obras",
          "_links": {
            "self": {
              "name": "Construcción, reparación y conservación de toda clase obras",
              "href": "https://api.euskadi.eus/procurements/companies/economic-activities/1.507"
            }
          }
        },
        {
          "id": "1.911",
          "name": "Servicios agrícolas y ganaderos",
          "_links": {
            "self": {
              "name": "Servicios agrícolas y ganaderos",
              "href": "https://api.euskadi.eus/procurements/companies/economic-activities/1.911"
            }
          }
        },
        {
          "id": "1.912",
          "name": "Servicios forestales",
          "_links": {
            "self": {
              "name": "Servicios forestales",
              "href": "https://api.euskadi.eus/procurements/companies/economic-activities/1.912"
            }
          }
        }
      ],
      "certificateStartDate": "2015-01-26",
      "certificateEndDate": "2015-07-19",
      "object": "TODA CLASE DE TRABAJOS RELACIONADOS CON EL MOVIMIENTO Y EXCAVACIONES DE TERRENOS FORESTALES Y AGRÍCOLAS, ASÍ COMO EL TRANSPORTE DE TIERRAS Y MAQUINARIA Y CUALESQUIERA OTRAS ACTIVIDADES DE NATURALEZA Y CARACTERÍSTICAS SEMEJANTES A LAS ANTERIORES.\r\n",
      "mainEntityOfPage": "https://www.contratacion.euskadi.eus/webkpe00-kperoc/es/ac71aBusquedaRegistrosWar/empresa/02509",
      "_links": {
        "self": {
          "name": "EXCAVACIONES ZUBILLAGA, S.L.",
          "href": "https://api.euskadi.eus/procurements/companies/02509"
        }
      }
    },
    {
      "name": "SINOPSYS DISTRIBUCIÓN INTEGRAL, S.A.",
      "registrationNumber": "05291",
      "identificationNumber": "A85756880",
      "address": "ISAAC NEWTON, 5",
      "location": {
        "postalCode": "28760",
        "municipality": "Tres Cantos",
        "county": "Madrid",
        "municipalityId": "903",
        "countyId": "28"
      },
      "economicActivities": [
        {
          "id": "1.615.4",
          "name": "Venta al por mayor de aparatos y material radioeléctrico y electrónico",
          "_links": {
            "self": {
              "name": "Venta al por mayor de aparatos y material radioeléctrico y electrónico",
              "href": "https://api.euskadi.eus/procurements/companies/economic-activities/1.615.4"
            }
          }
        },
        {
          "id": "1.617.8",
          "name": "Venta al por mayor de máquinas y material de oficina",
          "_links": {
            "self": {
              "name": "Venta al por mayor de máquinas y material de oficina",
              "href": "https://api.euskadi.eus/procurements/companies/economic-activities/1.617.8"
            }
          }
        }
      ],
      "certificateStartDate": "2015-01-15",
      "certificateEndDate": "2015-06-19",
      "object": "LA INVESTIGACIÓN, DISEÑO, DESARROLLO, FABRICACIÓN, EXPLOTACIÓN, COMPRA, VENTA AL POR MAYOR Y AL POR MENOR, EXPORTACIÓN E IMPORTACIÓN, DISTRIBUCIÓN, REPRESENTACIÓN, ALMACENAMIENTO Y CESIÓN DE PROGRAMAS Y EQUIPOS INFORMÁTICOS, ELECTRÓNICOS Y DE COMUNICACIÓN. LA REALIZACIÓN DE CUANTOS ACTOS Y NEGOCIOS SE RELACIONEN CON LA CINEMATOGRAFÍA, DISCOGRAFÍA, TANTO SONORA COMO DE IMAGEN EN PARTICULAR PRESTANDO TODA CLASE DE SERVICIOS TÉCNICOS QUE SE RELACIONEN CON SU EXPLOTACIÓN COMERCIAL, INCLUYENDO LA REALIZACIÓN DE PROPAGANDA Y LA ORGANIZACIÓN Y DESARROLLO DE CURSILLOS Y SEMINARIOS SOBRE MATERIAS RELACIONADAS CON SU ACTIVIDAD. LA REALIZACIÓN DE ACTIVIDADES DE DIRECCIÓN, EDICIÓN, DISTRIBUCIÓN, GRABACIÓN Y VENTA DE TODO TIPO DE IMAGEN Y SONIDO EN CUALQUIER FORMATO O SOPORTE, ASÍ COMO LA COMPRAVENTA O ALQUILER DE MATERIALES RELACIONADOS CON LAS ACTIVIDADES MENCIONADAS, ASESORAMIENTO, PRODUCCIÓN Y DIRECCIÓN DE IMAGEN. LA SUSCRIPCIÓN, COMPRA, TENENCIA, VENTA Y TRANSMISIÓN EN GENERAL, POR CUENTA PROPIA, DE TODA CLASE DE ACCIONES, PARTICIPACIONES SOCIALES, BONOS, OBLIGACIONES, CÉDULAS, PARTICIPACIONES EN FONDOS DE INVERSIÓN Y CUALESQUIERA TÍTULOS VALORES. LA ADQUISICIÓN, ENAJENACIÓN Y ALQUILER DE TODA CLASE DE BIENES INMUEBLES",
      "mainEntityOfPage": "https://www.contratacion.euskadi.eus/webkpe00-kperoc/es/ac71aBusquedaRegistrosWar/empresa/05291",
      "_links": {
        "self": {
          "name": "SINOPSYS DISTRIBUCIÓN INTEGRAL, S.A.",
          "href": "https://api.euskadi.eus/procurements/companies/05291"
        }
      }
    },
    {
      "name": "VALERIANO UdRRUTICOECHEA, S.L.U.",
      "registrationNumber": "01348",
      "identificationNumber": "A48025647",
      "address": "CTRA. BILBAO-GALDAKAO, S/N POL. IRUBIDE PARCELA 5 PL. 1",
      "location": {
        "postalCode": "48960",
        "municipality": "Galdakao",
        "county": "Bizkaia",
        "municipalityId": "036",
        "countyId": "48"
      },
      "economicActivities": [
        {
          "id": "1.507",
          "name": "Construcción, reparación y conservación de toda clase obras",
          "_links": {
            "self": {
              "name": "Construcción, reparación y conservación de toda clase obras",
              "href": "https://api.euskadi.eus/procurements/companies/economic-activities/1.507"
            }
          }
        }
      ],
      "certificateStartDate": "2015-01-12",
      "certificateEndDate": "2015-02-20",
      "object": "EL NEGOCIO DE CONSTRUCCIÓN EN GENERAL, SERRERÍA, VENTA Y FABRICACIÓN DE TODOS LOS ELEMENTOS ACCESORIOS DE LA CONSTRUCCIÓN",
      "mainEntityOfPage": "https://www.contratacion.euskadi.eus/webkpe00-kperoc/es/ac71aBusquedaRegistrosWar/empresa/01348",
      "_links": {
        "self": {
          "name": "VALERIANO UdRRUTICOECHEA, S.L.U.",
          "href": "https://api.euskadi.eus/procurements/companies/01348"
        }
      }
    },
    {
      "name": "EINKOR TEKNOLOGIA, S.L.",
      "registrationNumber": "05289",
      "identificationNumber": "B95713863",
      "address": "PAU CASALS ETORBIDEA, 3",
      "location": {
        "postalCode": "48004",
        "municipality": "Bilbao",
        "county": "Bizkaia",
        "municipalityId": "020",
        "countyId": "48"
      },
      "economicActivities": [
        {
          "id": "1.504.11",
          "name": "Instalaciones eléctricas en general, redes telegráficas, telefonía, tv, etc",
          "_links": {
            "self": {
              "name": "Instalaciones eléctricas en general, redes telegráficas, telefonía, tv, etc",
              "href": "https://api.euskadi.eus/procurements/companies/economic-activities/1.504.11"
            }
          }
        }
      ],
      "certificateStartDate": "2015-01-08",
      "certificateEndDate": "2015-05-25",
      "object": "1. CONSTRUCCIÓN, INSTALACIONES Y MANTENIMIENTO. 2. COMERCIO AL POR MAYOR Y AL POR MENOR. DISTRIBUCIÓN COMERCIAL. IMPORTACIÓN Y EXPORTACIÓN. 3. ACTIVIDADES PROFESIONALES. 4. PRESTACIÓN DE SERVICIOS. ACTIVIDADES DE GESTIÓN Y ADMINISTRACIÓN. SERVICIOS EDUCATIVOS, SANITARIOS, DE OCIO Y ENTRETENIMIENTO. 5. INFORMACIÓN Y COMUNICACIONES. 6. INFORMÁTICA, TELECOMUNICACIONES Y OFIMÁTICA. 7. ENERGÍAS ALTERNATIVAS. 8. INVESTIGACIÓN, DESARROLLO E INNOVACIÓN. 9. ACTIVIDADES CIENTÍFICAS Y TÉCNICAS",
      "mainEntityOfPage": "https://www.contratacion.euskadi.eus/webkpe00-kperoc/es/ac71aBusquedaRegistrosWar/empresa/05289",
      "_links": {
        "self": {
          "name": "EINKOR TEKNOLOGIA, S.L.",
          "href": "https://api.euskadi.eus/procurements/companies/05289"
        }
      }
    },
    {
      "name": "NERKI, S.A.",
      "registrationNumber": "01733",
      "identificationNumber": "A48786065",
      "address": "C/ ALAMEDA URQUIJO, Nº 23 - 7º IZDA.",
      "location": {
        "postalCode": "48008",
        "municipality": "Bilbao",
        "county": "Bizkaia",
        "municipalityId": "020",
        "countyId": "48"
      },
      "economicActivities": [
        {
          "id": "1.921.1",
          "name": "Servicios de limpieza en calles, vías públicas y jardines",
          "_links": {
            "self": {
              "name": "Servicios de limpieza en calles, vías públicas y jardines",
              "href": "https://api.euskadi.eus/procurements/companies/economic-activities/1.921.1"
            }
          }
        },
        {
          "id": "1.922.1",
          "name": "Servicios de limpieza de interiores",
          "_links": {
            "self": {
              "name": "Servicios de limpieza de interiores",
              "href": "https://api.euskadi.eus/procurements/companies/economic-activities/1.922.1"
            }
          }
        }
      ],
      "certificateStartDate": "2015-01-07",
      "certificateEndDate": "2015-07-06",
      "object": "A) LOS SERVICIOS DE LIMPIEZA DE EDIFICIOS Y LOCALES EN GENERAL, TANTO PÚBLICOS COMO PRIVADOS, RESIDENCIALES, INDUSTRIALES Y SANITARIOS DE TODO ORDEN; LA HIGIENIZACIÓN DEL MEDIO AMBIENTE EN GENERAL, ASÍ COMO LA RECOGIDA DOMICILIARIA DE BASURAS Y RESIDUOS INDUSTRIALES Y SU TRATAMIENTO Y TRANSFORMACIÓN, ELIMINACIÓN HIGIÉNICO-SANITARIAS DE LAS MISMAS. B) LOS SERVICIOS DE MANTENIMIENTO DE INSTALACIONES INDUSTRIALES, EDIFICIOS DE CUALQUIER CLASE Y CONDICIÓN, TANTO EN SU ESTRUCTURA INTERNA COMO EXTERNA. C) LA CARGA, DESCARGA, ESTIBA Y DESESTIBA DE BUQUES, AERONAVES Y VEHÍCULOS DE TODO ORDEN, ASÍ COMO LA LIMPIEZA DE LOS MISMOS. D) LAS ACTIVIDADES EXTRACTIVAS Y DE APILONAMIENTO. E) LA RECOGIDA, EL TRANSPORTE Y EL SUMINISTRO A TERCERAS PERSONAS, DE TODA CLASE DE MATERIALES, MATERIAS PRIMAS Y RESIDUOS INDUSTRIALES, PROPIAS O AJENAS. F) LA ELABORACIÓN, EJECUCIÓN Y MANTENIMIENTO DE TODO TIPO DE PROYECTOS Y TRABAJOS DE JARDINERÍA Y ZONAS VERDES, EN GENERAL. G) LA CONSTRUCCIÓN, REPARACIÓN, PINTURA Y MANTENIMIENTO GENERAL, DE TODO TIPO DE EDIFICACIONES E INSTALACIONES INDUSTRIALES. H) EL ARRENDAMIENTO Y CUALQUIER OTRA FÓRMULA DE CESIÓN, USO Y DISFRUTE, DE BIENES MUEBLES E INMUEBLES, ADOPTANDO LA POSICIÓN DE CUALQUIERA DE LAS PARTES INTERESADAS O VINCULADAS EN ESTA RELACIÓN JURÍDICA. I) LA CONSERVACIÓN Y MANTENIMIENTO DE EDIFICIOS; DE CARRETERAS, PISTAS, AUTOPISTAS, CALZADAS Y VÍAS FÉRREAS; DE REDES DE AGUA Y ALCANTARILLADO; DE POZOS SÉPTICOS Y TODO TIPO DE DEPÓSITOS ABIERTOS O CERRADOS; DE ESTACIONES DEPURADORAS; DE ESTACIONES DE SERVICIO; DE MOBILIARIO URBANO; DE MONTES Y JARDINES, Y DE MONUMENTOS Y EDIFICIOS SINGULARES",
      "mainEntityOfPage": "https://www.contratacion.euskadi.eus/webkpe00-kperoc/es/ac71aBusquedaRegistrosWar/empresa/01733",
      "_links": {
        "self": {
          "name": "NERKI, S.A.",
          "href": "https://api.euskadi.eus/procurements/companies/01733"
        }
      }
    },
    {
      "name": "AMBYTECNO, S.A.",
      "registrationNumber": "01256",
      "identificationNumber": "A48239214",
      "address": "RECTA DE UGARTE, 16-bajo",
      "location": {
        "postalCode": "48510",
        "municipality": "Valle de Trápaga-Trapagaran",
        "county": "Bizkaia",
        "municipalityId": "080",
        "countyId": "48"
      },
      "economicActivities": [
        {
          "id": "1.921.6",
          "name": "Servicios de protección y acondicionamiento ambiental",
          "_links": {
            "self": {
              "name": "Servicios de protección y acondicionamiento ambiental",
              "href": "https://api.euskadi.eus/procurements/companies/economic-activities/1.921.6"
            }
          }
        }
      ],
      "certificateStartDate": "2014-12-29",
      "certificateEndDate": "2015-05-10",
      "object": "A) LA COMERCIALIZACION, DISTRIBUCIÓN Y FABRICACIÓN DE PRODUCTOS RELACIONADOS CON LA LIMPIEZA DEL MEDIO AMBIENTE. B)  LA DISTRIBUCIÓN, COMERCIALIZACIÓN Y FABRICACIÓN DE APARATOS Y SISTEMAS ELECTRONICOS. C) LA PRESTACIÓN DE SERVICIOS DE CONSERVACIÓN Y MANTENIMIENTO DE BIENES INMUEBLES. D) LA PRESTACIÓN DE SERVICIOS DE CONSERVACIÓN, MANTENIMIENTO Y FABRICACIÓN DE MOBILIARIO URBANO",
      "mainEntityOfPage": "https://www.contratacion.euskadi.eus/webkpe00-kperoc/es/ac71aBusquedaRegistrosWar/empresa/01256",
      "_links": {
        "self": {
          "name": "AMBYTECNO, S.A.",
          "href": "https://api.euskadi.eus/procurements/companies/01256"
        }
      }
    },
    {
      "name": "NEXT LINGO, S.L.L.",
      "registrationNumber": "05150",
      "identificationNumber": "B20668141",
      "address": "JAVIER BARKAIZTEGI, 21 - 6º A",
      "location": {
        "postalCode": "20010",
        "municipality": "Donostia / San Sebastián",
        "county": "Gipuzkoa",
        "municipalityId": "069",
        "countyId": "20"
      },
      "economicActivities": [
        {
          "id": "1.849.3",
          "name": "Servicios de traducción y similares",
          "_links": {
            "self": {
              "name": "Servicios de traducción y similares",
              "href": "https://api.euskadi.eus/procurements/companies/economic-activities/1.849.3"
            }
          }
        },
        {
          "id": "1.861.2",
          "name": "Alquiler de locales industriales y otros alquileres n.c.o.p",
          "_links": {
            "self": {
              "name": "Alquiler de locales industriales y otros alquileres n.c.o.p",
              "href": "https://api.euskadi.eus/procurements/companies/economic-activities/1.861.2"
            }
          }
        },
        {
          "id": "1.933.9",
          "name": "Otras actividades de enseñanza tales como idiomas, mecanografía",
          "_links": {
            "self": {
              "name": "Otras actividades de enseñanza tales como idiomas, mecanografía",
              "href": "https://api.euskadi.eus/procurements/companies/economic-activities/1.933.9"
            }
          }
        }
      ],
      "certificateStartDate": "2014-12-29",
      "certificateEndDate": "2015-06-18",
      "object": "LA ACTIVIDAD DE ENSEÑANZA DE IDIOMAS, FORMACIÓN Y PERFECCIONAMIENTO PROFESIONAL NO SUPERIOR, PREPARACIÓN DE EXÁMENES, REALIZAC IÓN DE TRABAJOS DE TRADUCCIÓN, ASÍ COMO AQUELLAS ACTIVIDADES RELACIONADAS CON LA ENSEÑANZA DE IDIOMAS",
      "mainEntityOfPage": "https://www.contratacion.euskadi.eus/webkpe00-kperoc/es/ac71aBusquedaRegistrosWar/empresa/05150",
      "_links": {
        "self": {
          "name": "NEXT LINGO, S.L.L.",
          "href": "https://api.euskadi.eus/procurements/companies/05150"
        }
      }
    },
    {
      "name": "TELNOR, S.L.",
      "registrationNumber": "05275",
      "identificationNumber": "B39231881",
      "address": "Bº VILLAFRANCA-CAMPUZANO, nº 399",
      "location": {
        "postalCode": "39300",
        "municipality": "Torrelavega",
        "county": "Cantabria",
        "municipalityId": "087",
        "countyId": "39"
      },
      "economicActivities": [
        {
          "id": "1.504.1",
          "name": "Instalaciones eléctricas en general",
          "_links": {
            "self": {
              "name": "Instalaciones eléctricas en general",
              "href": "https://api.euskadi.eus/procurements/companies/economic-activities/1.504.1"
            }
          }
        },
        {
          "id": "1.699",
          "name": "Otras reparaciones n.c.o.p",
          "_links": {
            "self": {
              "name": "Otras reparaciones n.c.o.p",
              "href": "https://api.euskadi.eus/procurements/companies/economic-activities/1.699"
            }
          }
        },
        {
          "id": "1.843.1",
          "name": "Servicios técnicos de ingeniería",
          "_links": {
            "self": {
              "name": "Servicios técnicos de ingeniería",
              "href": "https://api.euskadi.eus/procurements/companies/economic-activities/1.843.1"
            }
          }
        },
        {
          "id": "1.922",
          "name": "Servicios de limpieza",
          "_links": {
            "self": {
              "name": "Servicios de limpieza",
              "href": "https://api.euskadi.eus/procurements/companies/economic-activities/1.922"
            }
          }
        },
        {
          "id": "1.922.1",
          "name": "Servicios de limpieza de interiores",
          "_links": {
            "self": {
              "name": "Servicios de limpieza de interiores",
              "href": "https://api.euskadi.eus/procurements/companies/economic-activities/1.922.1"
            }
          }
        }
      ],
      "certificateStartDate": "2014-12-17",
      "certificateEndDate": "2015-04-03",
      "object": "1.- INSTALACIONES ELECTRICAS INDUSTRIALES Y DE ALUMBRADO. 2.-ALUMBRADO PÚBLICO, ORNAMENTAL Y COMERCIAL. 3.- PROCESOS DE AUTOMATIZACIÓN INDUSTRIAL. 4.- PROYECTOS ELÉCTRICOS. 5.- INSTALACIÓN DE CENTROS DE TRANSFORMACIÓN Y LÍNEAS DE TRANSPORTE DE ENERGÍA. 6.- INSTALACIONES Y REPARACIONES ELÉCTRICAS Y DE MAQUINARIA EN GENERAL.\r\n7.- INSTALACIÓN DE SISTEMAS DE CONTROL DE TRÁFICO. 8.- ESTUDIOS, ASESORAMIENTO E INSTALACIÓN DE SISTEMAS DE EFICIENCIA ENERGÉTICA. 9.- GESTIÓN ENERGÉTICA. 10.- SERVICIOS ENERGÉTICOS (ESE), MONTAJE O TRANSFORMACIÓN DE INSTALACIONES, EQUIPOS Y SISTEMAS CONSUMIDORES DE ENERGÍA, SU MANTENIMIENTO, ACTUALIZACIÓN O RENOVACIÓN, SU EXPLOTACIÓN O SU GESTIÓN DERIVADOS DE LA INCORPORACIÓN DE TECNOLOGÍAS EFICIENTES. 11- INSTALACIÓN DE CLIMATIZACIÓN. 12.- INSTALACIÓN DE SERVICIOS TECNOLÓGICOS PARA LA INTEGRACIÓN DE SISTEMAS DE TELECOMUNICACIONES E INFORMÁTICOS. 13.- INSTALACIÓN DE SISTEMAS AUDIOVISUALES. 14.- INSTALACIÓN DE INFRAESTRUCTURAS Y SERVICIOS DE TECNOLOGÍAS DE LA INFORMACIÓN Y DE LA COMUNICACIÓN (TIC). 15.- INSTALACIÓN DE SISTEMAS DE SEGURIDAD, CONTROL DE ACCESOS, VIGILANCIA, ROBO-INTRUSIÓN Y CONTRA INCENDIOS. 16. - MANTENIMIENTO ELÉCTRICO. 17. - MANTENIMIENTO INTEGRAL DE EDIFICIOS.18.- MANTENIMIENTO INTEGRAL DE ALUMBRADO Y DE SERVICIOS PÚBLICOS. 19.- MANTENIMIENTO INTEGRAL DE INSTALACIONES Y PLANTAS INDUSTRIALES\r\n",
      "mainEntityOfPage": "https://www.contratacion.euskadi.eus/webkpe00-kperoc/es/ac71aBusquedaRegistrosWar/empresa/05275",
      "_links": {
        "self": {
          "name": "TELNOR, S.L.",
          "href": "https://api.euskadi.eus/procurements/companies/05275"
        }
      }
    },
    {
      "name": "AUTOMOVILES LA VITORIANA, S.A",
      "registrationNumber": "01587",
      "identificationNumber": "A01000223",
      "address": "LA PEÑA, 6",
      "location": {
        "postalCode": "01013",
        "municipality": "Vitoria-Gasteiz",
        "county": "Araba/Álava",
        "municipalityId": "059",
        "countyId": "01"
      },
      "economicActivities": [
        {
          "id": "1.721.3",
          "name": "Transporte de viajeros por carretera",
          "_links": {
            "self": {
              "name": "Transporte de viajeros por carretera",
              "href": "https://api.euskadi.eus/procurements/companies/economic-activities/1.721.3"
            }
          }
        }
      ],
      "certificateStartDate": "2014-12-12",
      "certificateEndDate": "2015-06-09",
      "object": "LA PRESTACIÓN DE SERVIICOS PÚBLICOS DE TRANSPORTE DE VIAJEROS POR CARRETERA, EN SUS MODALIDADES DE SERVICIOS PÚBLICOS REGULARES Y SERVICIOS PÚBLICOS DISCRECIONALES. LA REALIZACIÓN Y DESARROLLO DE ESTUDIOS, PROGRAMAS E INFORMES RELACIONADOS CON EL TRANSPORTE EN GENERAL. TRATAMIENTO DE LA INFORMACIÓN (INFORMÁTICA). ACTUALIZACIÓN DE PROGRAMAS Y APLICACIONES INFORMÁTICAS. ACTIVIDADES DE CREACIÓN, PREPARACIÓN, PROGRAMACIÓN, DISTRIBUCIÓN Y DIFUSIÓN DE ANUNCIOS O CAMPAÑAS DE PUBLICIDAD. COMUNICACIÓN PÚBLICA O INSTITUCIONAL. PROPAGANDA E IMAGEN CORPORATIVA. PRODUCCIÓN DE MEDIOS AUDIOVISUALES. SERVICIOS DE INFORMACIÓN, ATENCIÓN TELEFÓNICA Y SIMILARES. ASESORAMIENTO, DIRECCIÓN, DISEÑO, ORGANIZACIÓN Y PROMOCIÓN DE CONGRESOS, FERIAS, CONVENCIONES Y EXPOSICIONES. PUBLICACIONES. CURSOS DE FORMACIÓN DE PERSONAL. ACTIVIDADES ADMINISTRATIVAS, TALES COMO MECANOGRAFIADO, GRABACIÓN DE DATOS Y TRATAMIENTO DE TEXTOS. EXPLOTACIÓN DE GARAJES, ALQUILER Y REPARACIÓN DE VEHÍCULOS Y ACCESORIOS. DISEÑO, INVESTIGACIÓN, DESARROLLO, TRANSFORMACIÓN, CONSTRUCCIÓN, COMERCIALIZACIÓN DE TODO TIPO DE CARROCERÍAS, ELEMENTOS Y UNIDADES DE TRANSPORTE POR CARRETERA, ASÍ COMO DE PRODUCTOS AUXILIARES DE AUTOMOCIÓN",
      "mainEntityOfPage": "https://www.contratacion.euskadi.eus/webkpe00-kperoc/es/ac71aBusquedaRegistrosWar/empresa/01587",
      "_links": {
        "self": {
          "name": "AUTOMOVILES LA VITORIANA, S.A",
          "href": "https://api.euskadi.eus/procurements/companies/01587"
        }
      }
    }
  ]
}