{
  "totalItems": 9042,
  "totalPages": 905,
  "currentPage": 551,
  "itemsOfPage": 10,
  "items": [
    {
      "name": "ENRIQUE HOLKE, SL",
      "registrationNumber": "07396",
      "identificationNumber": "B20450979",
      "address": "CL ANDOAIN 31-3D",
      "location": {
        "postalCode": "20009",
        "municipality": "Donostia / San Sebastián",
        "county": "Gipuzkoa",
        "municipalityId": "069",
        "countyId": "20"
      },
      "economicActivities": [
        {
          "id": "1.322.1",
          "name": "Construcción de máquinas para trabajar los metales",
          "_links": {
            "self": {
              "name": "Construcción de máquinas para trabajar los metales",
              "href": "https://api.euskadi.eus/procurements/companies/economic-activities/1.322.1"
            }
          }
        },
        {
          "id": "1.692",
          "name": "Reparación de maquinaria industrial",
          "_links": {
            "self": {
              "name": "Reparación de maquinaria industrial",
              "href": "https://api.euskadi.eus/procurements/companies/economic-activities/1.692"
            }
          }
        },
        {
          "id": "1.845",
          "name": "Explotación electrónica por cuenta de terceros",
          "_links": {
            "self": {
              "name": "Explotación electrónica por cuenta de terceros",
              "href": "https://api.euskadi.eus/procurements/companies/economic-activities/1.845"
            }
          }
        }
      ],
      "certificateStartDate": "2020-12-10",
      "certificateEndDate": "2021-04-01",
      "object": "LA EXPLOTACIÓN DE UN NEGOCIO DE FABRICACIÓN, IMPORTACIÓN, EXPORTACIÓN, COMERCIALIZACIÓN, DISTRIBUCIÓN, REPARACIÓN, MODERNIZACIÓN Y VENTA DE MAQUINARIA Y DE SUS ELEMENTOS, COMPONENTES, ACCESORIOS Y REPUESTOS, INCLUSIVE SISTEMAS Y ELEMENTOS ELECTRÓNICOS E INFORMÁTICOS Y SUS CORRESPONDIENTES PROGRAMAS, Y DE TODA CLASE DE PRODUCTOS Y SERVICIOS RELACIONADOS CON LOS ANTERIORES",
      "mainEntityOfPage": "https://www.contratacion.euskadi.eus/webkpe00-kperoc/es/ac71aBusquedaRegistrosWar/empresa/07396",
      "_links": {
        "self": {
          "name": "ENRIQUE HOLKE, SL",
          "href": "https://api.euskadi.eus/procurements/companies/07396"
        }
      }
    },
    {
      "name": "KRESTON IBERAUDIT PV SL",
      "registrationNumber": "05340",
      "identificationNumber": "B48438907",
      "address": "GRAN VIA, 8 -3º",
      "location": {
        "postalCode": "48001",
        "municipality": "Bilbao",
        "county": "Bizkaia",
        "municipalityId": "020",
        "countyId": "48"
      },
      "economicActivities": [
        {
          "id": "1.842",
          "name": "Servicios financieros y contables",
          "_links": {
            "self": {
              "name": "Servicios financieros y contables",
              "href": "https://api.euskadi.eus/procurements/companies/economic-activities/1.842"
            }
          }
        },
        {
          "id": "1.846",
          "name": "Empresas de estudios de mercado",
          "_links": {
            "self": {
              "name": "Empresas de estudios de mercado",
              "href": "https://api.euskadi.eus/procurements/companies/economic-activities/1.846"
            }
          }
        }
      ],
      "certificateStartDate": "2020-12-09",
      "certificateEndDate": "2021-05-16",
      "object": "LA REALIZACIÓN DE LA AUDITORÍA DE CUENTAS, DE ACUERDO CON LA LEY 19/1998 DE AUDITORÍA DE CUENTAS, ENTENDIDA ÉSTA EN SU MÁS AMPLIO SENTIDO. LA REALIZACIÓN DE INFORMES ECONÓMICOS DE TODAS CLASES ACERCA DE LAS EMPRESAS, VALORACIONES, ESTUDIOS DE VIABILIDAD, CONSULTORÍA ECONÓMICO FINANCIERA Y FISCAL. SE INCLUYEN INFORMES PERICIALES Y DE CUALQUIER ORA NATURALEZA, PARA LOS JUZGADOS Y TRIBUNALES. DISEÑO DE SISTEMAS Y PROCEDIMIENTOS ADMINISTRATIVOS DE GESTIÓN Y PRODUCCIÓN, CONSULTORA GERENCIAL Y DE ORGANIZACIÓN. LA PRESTACIÓN DE SERVICIOS EN PROCEDIMIENTOS CONCURSALES EN CALIDAD DE ADMINISTRADOR CONCURSAL  ",
      "mainEntityOfPage": "https://www.contratacion.euskadi.eus/webkpe00-kperoc/es/ac71aBusquedaRegistrosWar/empresa/05340",
      "_links": {
        "self": {
          "name": "KRESTON IBERAUDIT PV SL",
          "href": "https://api.euskadi.eus/procurements/companies/05340"
        }
      }
    },
    {
      "name": "TÜV SÜD IBERIA SA.",
      "registrationNumber": "06929",
      "identificationNumber": "A81670614",
      "address": "Ronda Can Fatjo 13",
      "location": {
        "postalCode": "08290",
        "municipality": "Cerdanyola del Vallès",
        "county": "Barcelona",
        "municipalityId": "266",
        "countyId": "08"
      },
      "economicActivities": [
        {
          "id": "1.849.9",
          "name": "Otros servicios independientes n.c.o.p",
          "_links": {
            "self": {
              "name": "Otros servicios independientes n.c.o.p",
              "href": "https://api.euskadi.eus/procurements/companies/economic-activities/1.849.9"
            }
          }
        }
      ],
      "certificateStartDate": "2020-12-09",
      "certificateEndDate": "2021-05-18",
      "object": "LA PRESTACIÓN DE SERVICIOS DE IMPLANTACIÓN Y MEJORA DE PROCESOS, COACHING INTEGRAL, COMUNICACIÓN, MARKETING Y OTROS ESTUDIOS FINANCIEROS Y DE MERCADO A EMPRESAS PRIVADAS Y PÚBLICAS DIRIGIDOS AL SECTOR DE LA AUTOMOCIÓN. - LA PRESTACIÓN DE SERVICIOS DE INFORMACIÓN Y ASESORAMIENTO RESPECTO A LA OPERATIVIDAD Y EL CONTROL DEL PARQUE MÓVIL DE VEHÍCULOS A MOTOR DE CLIENTES, A NIVEL NACIONAL E INTERNACIONAL. - EL FOMENTO DE LA SEGURIDAD EN LA INDUSTRIA, EL COMERCIO, EL NEGOCIO Y EL SERVICIO. ANÁLISIS Y GESTIÓN DE RIESGOS EN EL ÁMBITO INDUSTRIAL. - LA REALIZACIÓN DE AUDITORÍAS, EVALUACIONES, COMPROBACIONES, VERIFICACIONES ASÍ COMO CONSULTORÍA EN SISTEMAS DE GESTIÓN DE EMPRESAS DE CUALQUIER SECTOR. - LA PRESTACIÓN DE SERVICIOS TÉCNICOS, ESPECIALMENTE EN EL ÁMBITO DE LA REALIZACIÓN DE ENSAYOS Y VERIFICACIONES CON MIRAS A LA SEGURIDAD, USABILIDAD Y CALIDAD DE MATERIALES Y PRODUCTOS. - FOMENTAR EL DESARROLLO, LA DIRECCIÓN, LA REALIZACIÓN Y LA CERTIFICACIÓN DE LA FORMACIÓN PROFESIONAL CONTINUA EN EL CAMPO DE LA ECONOMÍA, LA CIENCIA Y LA EMPRESA. - FORMACIÓN Y ASESORAMIENTO EN EL CAMPO INDUSTRIAL, DE OBRAS Y SERVICIOS. - ESTUDIOS, ASESORAMIENTO Y AUDITORÍAS EN EL CAMPO DE LA EFICIENCIA ENERGÉTICA. - ASISTENCIA TÉCNICA, REALIZACIÓN DE ESTUDIOS E INFORMES CORRESPONDIENTES A DIRECCIONES Y CONTROLES DE OBRA, EN EL ÁMBITO PREVENTIVO, INDUSTRIAL Y DE LA CALIDAD. - CONTROL Y VIGILANCIA, TANTO EN EL PERÍODO DE CONSTRUCCIÓN COMO EN EL DE EXPLOTACIÓN DE ATRACCIONES EN PARQUES TEMÁTICOS, ÁREAS DE JUEGO Y TELEFÉRICOS. - ENTIDAD DE CONTROL DE CALIDAD DE LA EDIFICACIÓN. - ASESORAMIENTO Y EVALUACIÓN DE LA CONFORMIDAD EN LOS ÁMBITOS INDUSTRIAL, MINERÍA, ENERGÍA E INFRAESTRUCTURAS. - COORDINACIÓN DE SEGURIDAD Y SALUD EN OBRAS. - DESARROLLO DE HERRAMIENTAS DE GESTIÓN DOCUMENTAL",
      "mainEntityOfPage": "https://www.contratacion.euskadi.eus/webkpe00-kperoc/es/ac71aBusquedaRegistrosWar/empresa/06929",
      "_links": {
        "self": {
          "name": "TÜV SÜD IBERIA SA.",
          "href": "https://api.euskadi.eus/procurements/companies/06929"
        }
      }
    },
    {
      "name": "SCANBIT, S.L.",
      "registrationNumber": "01821",
      "identificationNumber": "B01183805",
      "address": "PEDRO ASÚA, 75-77",
      "location": {
        "postalCode": "01008",
        "municipality": "Vitoria-Gasteiz",
        "county": "Araba/Álava",
        "municipalityId": "059",
        "countyId": "01"
      },
      "economicActivities": [
        {
          "id": "1.845",
          "name": "Explotación electrónica por cuenta de terceros",
          "_links": {
            "self": {
              "name": "Explotación electrónica por cuenta de terceros",
              "href": "https://api.euskadi.eus/procurements/companies/economic-activities/1.845"
            }
          }
        }
      ],
      "certificateStartDate": "2020-12-02",
      "certificateEndDate": "2021-05-19",
      "object": "TRATAMIENTO, MEDIANTE SISTEMAS AUDIOVISUALES E INFORMÁTICOS, DE DATOS, IMÁGENES Y VOZ PARA SU DIGITALIZACIÓN Y ALMACENAMIENTO EN SOPORTES ÓPTICOS, MAGNÉTICOS Y DE CUALQUIER OTRA CLASE. COMPRAVENTA, FABRICACIÓN, IMPORTACIÓN, EXPORTACIÓN, REPRESENTACIÓN, COMERCIALIZACIÓN Y ARRENDAMIENTO DE TODO TIPO DE ELEMENTOS Y SISTEMAS RELACIONADOS CON LO QUE ANTECEDE. ARRENDAMIENTO DE SERVICIOS DE DIGITALIZACIÓN Y ALMACENAMIENTO DE DATOS, IMÁGENES Y VOZ. CONSULTORÍA, FORMACIÓN Y ESTABLECIMIENTO DE FRANQUICIAS, ASÍ COMO INVESTIGACIÓN Y DESARROLLO DE PRODUCTOS Y SISTEMAS EN RELACIÓN CON LAS ACTIVIDADES ANTERIORMENTE EXPUESTAS. COMPRAVENTA DE INMUEBLES",
      "mainEntityOfPage": "https://www.contratacion.euskadi.eus/webkpe00-kperoc/es/ac71aBusquedaRegistrosWar/empresa/01821",
      "_links": {
        "self": {
          "name": "SCANBIT, S.L.",
          "href": "https://api.euskadi.eus/procurements/companies/01821"
        }
      }
    },
    {
      "name": "CONTENEDORES ESCOR VITORIA, S.L.",
      "registrationNumber": "02135",
      "identificationNumber": "B01254952",
      "address": "C/ ALFAREROS S/N PARQUE EMPRESARIAL PRINCIPADO DE ASTURIAS PARCELA 4.1",
      "location": {
        "postalCode": "33417",
        "municipality": "Avilés",
        "county": "Asturias",
        "municipalityId": "004",
        "countyId": "33"
      },
      "economicActivities": [
        {
          "id": "1.244",
          "name": "Industrias de la piedra natural",
          "_links": {
            "self": {
              "name": "Industrias de la piedra natural",
              "href": "https://api.euskadi.eus/procurements/companies/economic-activities/1.244"
            }
          }
        },
        {
          "id": "1.621",
          "name": "Venta al por mayor de chatarra y metales de desecho férreos y no férreos",
          "_links": {
            "self": {
              "name": "Venta al por mayor de chatarra y metales de desecho férreos y no férreos",
              "href": "https://api.euskadi.eus/procurements/companies/economic-activities/1.621"
            }
          }
        },
        {
          "id": "1.622",
          "name": "Venta al por mayor de otros productos de recuperación",
          "_links": {
            "self": {
              "name": "Venta al por mayor de otros productos de recuperación",
              "href": "https://api.euskadi.eus/procurements/companies/economic-activities/1.622"
            }
          }
        },
        {
          "id": "1.722",
          "name": "Transporte de mercancías por carretera",
          "_links": {
            "self": {
              "name": "Transporte de mercancías por carretera",
              "href": "https://api.euskadi.eus/procurements/companies/economic-activities/1.722"
            }
          }
        },
        {
          "id": "1.754.9",
          "name": "Otros depósitos y almacenes especiales n.c.o.p",
          "_links": {
            "self": {
              "name": "Otros depósitos y almacenes especiales n.c.o.p",
              "href": "https://api.euskadi.eus/procurements/companies/economic-activities/1.754.9"
            }
          }
        },
        {
          "id": "1.852",
          "name": "Alquiler de maquinaria y equipo para la construcción",
          "_links": {
            "self": {
              "name": "Alquiler de maquinaria y equipo para la construcción",
              "href": "https://api.euskadi.eus/procurements/companies/economic-activities/1.852"
            }
          }
        },
        {
          "id": "1.921.1",
          "name": "Servicios de limpieza en calles, vías públicas y jardines",
          "_links": {
            "self": {
              "name": "Servicios de limpieza en calles, vías públicas y jardines",
              "href": "https://api.euskadi.eus/procurements/companies/economic-activities/1.921.1"
            }
          }
        },
        {
          "id": "1.921.2",
          "name": "Servicios de recogida de basuras y desechos",
          "_links": {
            "self": {
              "name": "Servicios de recogida de basuras y desechos",
              "href": "https://api.euskadi.eus/procurements/companies/economic-activities/1.921.2"
            }
          }
        },
        {
          "id": "1.921.5",
          "name": "Servicios de incineración y eliminación de basuras y desechos",
          "_links": {
            "self": {
              "name": "Servicios de incineración y eliminación de basuras y desechos",
              "href": "https://api.euskadi.eus/procurements/companies/economic-activities/1.921.5"
            }
          }
        },
        {
          "id": "1.921.9",
          "name": "Otros servicios de saneamiento y similares n.c.o.p",
          "_links": {
            "self": {
              "name": "Otros servicios de saneamiento y similares n.c.o.p",
              "href": "https://api.euskadi.eus/procurements/companies/economic-activities/1.921.9"
            }
          }
        }
      ],
      "certificateStartDate": "2020-12-02",
      "certificateEndDate": "2021-05-17",
      "object": "RECOGIDA DE BASURAS, ÁRIDOS Y ESCOMBROS. CONTROL, MANTENIMIENTO Y TRATAMIENTO DE VERTEDEROS. LIMPIEZAS VIARIAS E INDUSTRIALES, DE FOSAS SÉPTICAS Y SANEAMIENTOS. TRANSPORTE DE RESIDUOS SÓLIDOS URBANOS, RESIDUOS INDUSTRIALES, ESCOMBROS, LODOS, MATERIALES RECICLABLES, RESIDUOS TÓXICOS Y MATERIALES VARIOS. LA EJECUCIÓN COMPLETA Y CONSERVACIÓN DE TODO TIPO DE OBRAS DE EDIFICACIÓN, DE OBRAS CIVILES Y DE TODO TIPO DE INSTALACIONES, TANTO PÚBLICAS COMO PRIVADAS, POR CUENTA PROPIA Y DE TERCEROS",
      "mainEntityOfPage": "https://www.contratacion.euskadi.eus/webkpe00-kperoc/es/ac71aBusquedaRegistrosWar/empresa/02135",
      "_links": {
        "self": {
          "name": "CONTENEDORES ESCOR VITORIA, S.L.",
          "href": "https://api.euskadi.eus/procurements/companies/02135"
        }
      }
    },
    {
      "name": "SETLAND S.L.",
      "registrationNumber": "05262",
      "identificationNumber": "B71034557",
      "address": "POL. ARAZURI-ORCOYEN, C/E, PARC. 2.3",
      "location": {
        "postalCode": "31170",
        "municipality": "Orkoien",
        "county": "Navarra",
        "municipalityId": "906",
        "countyId": "31"
      },
      "economicActivities": [
        {
          "id": "1.652.2",
          "name": "Venta al por menor de productos de droguería y productos para decoración",
          "_links": {
            "self": {
              "name": "Venta al por menor de productos de droguería y productos para decoración",
              "href": "https://api.euskadi.eus/procurements/companies/economic-activities/1.652.2"
            }
          }
        }
      ],
      "certificateStartDate": "2020-12-01",
      "certificateEndDate": "2021-05-23",
      "object": "A) LA COMPRA, VENTA, COMERCIALIZACIÓN, FABRICACIÓN, DISTRIBUCIÓN, ARRENDAMIENTO Y EXPLOTACIÓN POR CUALQUIER MEDIO ADMITIDO EN DERECHO Y PERMITIDO BAJO ESTA FORMA SOCIAL DE TODO TIPO DE BIENES Y PRODUCTOS DE LIMPIEZA, HIGIENE, Y MANTENIMIENTO INDUSTRIAL, ASÍ COMO DE MAQUINARIA, APARATOS Y ÚTILES DE LIMPIEZA, HIGIENE Y MANTENIMIENTO. B) LA REALIZACIÓN DE SERVICIO PÚBLICO DE TRANSPORTE DE MERCANCÍAS POR CARRETERA CON MEDIOS PROPIOS Y AJENOS, PRESTACIÓN DE SERVICIOS DE LOGÍSTICA, ALMACENAJE Y DISTRIBUCIÓN DE TODO TIPO DE MERCANCÍAS. C) PRESTACIÓN DE SERVICIOS DE ASESORAMIENTO COMERCIAL, Y FORMACIÓN RELACIONADOS OCN EL USO, COMERCIALIZACIÓN Y PROMOCIÓN DE VENTAS DE LOS BIENES Y PRODUCTOS RELACIONADOS EN EL APARTADO A) PRECEDENTE. D) LA REALIZACIÓN POR CUENTA PROPIA DE INVERSIONES MOBILIARIAS DE CUALQUIER NATURALEZA, INCLUÍDA LA INVERSIÓN EN INSTALACIONES DE ENERGÍA TÉRMICA, FOTOVOLTAICA, EÓLICA, Y OTRAS FUENTES DE ENERGÍA RENOVABLE, LA COMPRAVENTA DE ACCIONES, OBLIGACIONES Y DEMÁS TÍTULOS DE RENTA FIJA O VARIABLE, NACIONALES Y EXTRANJEROS EXCLUYENDO EXPRESAMENTE EL ARRENDAMIENTO FINANCIERO, Y CUALESQUIERA OTRAS OPERACIONES RESERVADAS A SOCIEDADES Y/O AGENCIAS DE VALORES, A INSTITUCIONES DE INVERSIÓN COLECTIVA, EMPRESAS DE ASESORAMIENTO FINANCIERO, Y OTRAS NO PERMITIDAS BAJO LA FORMA SOCIAL QUE CONFIGURA LA PRESENTE COMPAÑÍA",
      "mainEntityOfPage": "https://www.contratacion.euskadi.eus/webkpe00-kperoc/es/ac71aBusquedaRegistrosWar/empresa/05262",
      "_links": {
        "self": {
          "name": "SETLAND S.L.",
          "href": "https://api.euskadi.eus/procurements/companies/05262"
        }
      }
    },
    {
      "name": "ZALOA ARANZABAL IBACETA",
      "registrationNumber": "05869",
      "identificationNumber": "15389554R",
      "address": "Sabino Arana, 12 - 4º IZ",
      "location": {
        "postalCode": "48100",
        "municipality": "Mungia",
        "county": "Bizkaia",
        "municipalityId": "069",
        "countyId": "48"
      },
      "economicActivities": [
        {
          "id": "2.751",
          "name": "Profesionales de la publicidad, relaciones públicas y similares",
          "_links": {
            "self": {
              "name": "Profesionales de la publicidad, relaciones públicas y similares",
              "href": "https://api.euskadi.eus/procurements/companies/economic-activities/2.751"
            }
          }
        }
      ],
      "certificateStartDate": "2020-12-01",
      "certificateEndDate": "2021-05-15",
      "object": "TRABAJOS DE COMUNICACIÓN, PUBLICIDAD Y RELACIONES PÚBLICAS",
      "mainEntityOfPage": "https://www.contratacion.euskadi.eus/webkpe00-kperoc/es/ac71aBusquedaRegistrosWar/empresa/05869",
      "_links": {
        "self": {
          "name": "ZALOA ARANZABAL IBACETA",
          "href": "https://api.euskadi.eus/procurements/companies/05869"
        }
      }
    },
    {
      "name": "INFOSER NEW TECHNOLOGIES, S.L.",
      "registrationNumber": "07387",
      "identificationNumber": "B87993622",
      "address": "C/ Tomás Redondo 2, oficina 3-22",
      "location": {
        "postalCode": "28033",
        "municipality": "Madrid",
        "county": "Madrid",
        "municipalityId": "079",
        "countyId": "28"
      },
      "economicActivities": [
        {
          "id": "1.615.4",
          "name": "Venta al por mayor de aparatos y material radioeléctrico y electrónico",
          "_links": {
            "self": {
              "name": "Venta al por mayor de aparatos y material radioeléctrico y electrónico",
              "href": "https://api.euskadi.eus/procurements/companies/economic-activities/1.615.4"
            }
          }
        },
        {
          "id": "1.846",
          "name": "Empresas de estudios de mercado",
          "_links": {
            "self": {
              "name": "Empresas de estudios de mercado",
              "href": "https://api.euskadi.eus/procurements/companies/economic-activities/1.846"
            }
          }
        },
        {
          "id": "1.849.9",
          "name": "Otros servicios independientes n.c.o.p",
          "_links": {
            "self": {
              "name": "Otros servicios independientes n.c.o.p",
              "href": "https://api.euskadi.eus/procurements/companies/economic-activities/1.849.9"
            }
          }
        }
      ],
      "certificateStartDate": "2020-12-01",
      "certificateEndDate": "2021-05-11",
      "object": "A) CONSULTORÍA TECNOLÓGICA, INTEGRACIÓN DE SISTEMAS E INGENIERÍA DE PROCESOS. B) ASESORAMIENTO Y CONSULTORÍA DE INFORMÁTICA. C) INTERMEDIACIÓN COMERCIAL. D) LA COMERCIALIZACIÓN DE SISTEMAS, PROGRAMAS Y EQUIPOS INFORMÁTICOS Y OFIMÁTICOS. E) LA COMERCIALIZACIÓN DE BIENES INMUEBLES",
      "mainEntityOfPage": "https://www.contratacion.euskadi.eus/webkpe00-kperoc/es/ac71aBusquedaRegistrosWar/empresa/07387",
      "_links": {
        "self": {
          "name": "INFOSER NEW TECHNOLOGIES, S.L.",
          "href": "https://api.euskadi.eus/procurements/companies/07387"
        }
      }
    },
    {
      "name": "KUME SAFETY, S.L.",
      "registrationNumber": "07386",
      "identificationNumber": "B75174698",
      "address": "CALLE ARANE 2, ESC C, 3º IZDA",
      "location": {
        "postalCode": "20600",
        "municipality": "Eibar",
        "county": "Gipuzkoa",
        "municipalityId": "030",
        "countyId": "20"
      },
      "economicActivities": [
        {
          "id": "1.612.7",
          "name": "Venta al por mayor de vinos y vinagres del país",
          "_links": {
            "self": {
              "name": "Venta al por mayor de vinos y vinagres del país",
              "href": "https://api.euskadi.eus/procurements/companies/economic-activities/1.612.7"
            }
          }
        },
        {
          "id": "1.619.9",
          "name": "Venta al por mayor de otros productos n.c.o.p",
          "_links": {
            "self": {
              "name": "Venta al por mayor de otros productos n.c.o.p",
              "href": "https://api.euskadi.eus/procurements/companies/economic-activities/1.619.9"
            }
          }
        }
      ],
      "certificateStartDate": "2020-11-30",
      "certificateEndDate": "2021-04-06",
      "object": "LA IMPORTACIÓN, EXPORTACIÓN E INTERMEDIACIÓN DE PRODUCTOS DESTINADOS AL COMERCIO, ESPECIALMENTE DE PROTECCIÓN LABORAL, ASÍ COMO SU DISEÑO, FABRICACIÓN Y VENTA; COMERCIO AL POR MAYOR, NO ESPECIALIZADO, DE PRODUCTOS ALIMENTICIOS, BEBIDAS Y TABACO; SERVICIOS TÉCNICOS DE INGENIERÍA Y OTRAS ACTIVIDADES RELACIONADAS CON EL ASESORAMIENTO TÉCNICO; INTERMEDIARIOS DEL COMERCIO DE MAQUINARIA, EQUIPO INDUSTRIAL, EMBARCACIONES Y AERONAVES; ALQUILER DE AUTOMÓVILES Y VEHÍCULOS DE MOTOR LIGEROS; ALQUILER DE MAQUINARIA Y EQUIPO PARA LA CONSTRUCCIÓN E INGENIERÍA CIVIL; ALQUILER DE OTRA MAQUINARIA, EQUIPOS Y BIENES TANGIBLES N.C.O.P.; COMPRA-VENTA DE BIENES INMOBILIARIOS POR CUENTA PROPIA; ALQUILER DE BIENES INMOBILIARIOS POR CUENTA PROPIA; ALQUILER DE BIENES INMOBILIARIOS POR CUENTA PROPIA; AGENTES DE LA PROPIEDAD INMOBILIARIA; RECOGIDA DE RESIDUOS PELIGROSOS; Y RECOGIDA DE RESIDUOS PELIGROSOS",
      "mainEntityOfPage": "https://www.contratacion.euskadi.eus/webkpe00-kperoc/es/ac71aBusquedaRegistrosWar/empresa/07386",
      "_links": {
        "self": {
          "name": "KUME SAFETY, S.L.",
          "href": "https://api.euskadi.eus/procurements/companies/07386"
        }
      }
    },
    {
      "name": "GKM S.COOP",
      "registrationNumber": "07382",
      "identificationNumber": "F75091595",
      "address": "OIALUME BIDEA 11",
      "location": {
        "postalCode": "20115",
        "municipality": "Astigarraga",
        "county": "Gipuzkoa",
        "municipalityId": "903",
        "countyId": "20"
      },
      "economicActivities": [
        {
          "id": "1.654.1",
          "name": "Venta al por menor de vehículos terrestres",
          "_links": {
            "self": {
              "name": "Venta al por menor de vehículos terrestres",
              "href": "https://api.euskadi.eus/procurements/companies/economic-activities/1.654.1"
            }
          }
        },
        {
          "id": "1.691.2",
          "name": "Reparación de vehículos automóviles, bicicletas y otros vehículos",
          "_links": {
            "self": {
              "name": "Reparación de vehículos automóviles, bicicletas y otros vehículos",
              "href": "https://api.euskadi.eus/procurements/companies/economic-activities/1.691.2"
            }
          }
        }
      ],
      "certificateStartDate": "2020-11-26",
      "certificateEndDate": "2021-05-10",
      "object": "LA VENTA DE MAQUINARIA INDUSTRIAL, VEHÍCULOS Y TODO TIPO DE REPUESTOS Y ACCESORIOS PARA LOS MISMOS, ASÍ COMO LA REPARACIÓN DE TODO TIPO DE VEHÍCULOS Y MAQUINARIA INDUSTRIAL",
      "mainEntityOfPage": "https://www.contratacion.euskadi.eus/webkpe00-kperoc/es/ac71aBusquedaRegistrosWar/empresa/07382",
      "_links": {
        "self": {
          "name": "GKM S.COOP",
          "href": "https://api.euskadi.eus/procurements/companies/07382"
        }
      }
    }
  ]
}