{
  "totalItems": 9042,
  "totalPages": 905,
  "currentPage": 630,
  "itemsOfPage": 10,
  "items": [
    {
      "name": "COBRA SERVICIOS AUXILIARES, S.A.",
      "registrationNumber": "03634",
      "identificationNumber": "A81739617",
      "address": "CARDENAL MARCELO SPINOLA 10",
      "location": {
        "postalCode": "28016",
        "municipality": "Madrid",
        "county": "Madrid",
        "municipalityId": "079",
        "countyId": "28"
      },
      "economicActivities": [
        {
          "id": "1.849.6",
          "name": "Servicios de colocación y suministro de personal",
          "_links": {
            "self": {
              "name": "Servicios de colocación y suministro de personal",
              "href": "https://api.euskadi.eus/procurements/companies/economic-activities/1.849.6"
            }
          }
        },
        {
          "id": "1.857.5",
          "name": "Lectura y conservación a tanto alzado de contadores de energía eléctrica",
          "_links": {
            "self": {
              "name": "Lectura y conservación a tanto alzado de contadores de energía eléctrica",
              "href": "https://api.euskadi.eus/procurements/companies/economic-activities/1.857.5"
            }
          }
        },
        {
          "id": "1.857.7",
          "name": "Lectura y conservación a tanto alzado de contadores de gas",
          "_links": {
            "self": {
              "name": "Lectura y conservación a tanto alzado de contadores de gas",
              "href": "https://api.euskadi.eus/procurements/companies/economic-activities/1.857.7"
            }
          }
        },
        {
          "id": "1.857.9",
          "name": "Lectura y conservación a tanto alzado de contadores de agua",
          "_links": {
            "self": {
              "name": "Lectura y conservación a tanto alzado de contadores de agua",
              "href": "https://api.euskadi.eus/procurements/companies/economic-activities/1.857.9"
            }
          }
        }
      ],
      "certificateStartDate": "2018-05-24",
      "certificateEndDate": "2018-09-20",
      "object": "1.- LA PRESTACIÓN DE SERVICIOS AUXILIARES EN URBANIZACIONES, FINCAS URBANAS, OFICINAS, INSTALACIONES INDUSTRIALES, CENTROS COMERCIALES, REDES VIALES, ORGANISMOS OFICIALES Y DEPENDENCIAS ADMINISTRATIVAS, MUSEOS, RECINTOS FERIALES, INSTALACIONES RECREATIVAS, SALAS DE EXPOSICIONES CONFERENCIAS Y CONGRESOS, CENTRO CULTURALES, TEATROS, CENTROS DEPORTIVOS, HOSPITALES, CENTROS DOCENTES, PARQUES, CENTROS SOCIALES, INSTALACIONES AGROPECUARIAS, BOSQUES, FINCAS RÚSTICAS, COTOS DE CAZA, RECINTOS DE RECREO Y ESPECTÁCULOS Y EN GENERAL EN TODA CLASE DE INMUEBLES Y EVENTOS, POR MEDIO DE PROFESIONALES AFINES QUE REALIZARÁN LAS ACTIVIDADES AUXILIARES TANTO DE LOS LOCALES COMO DE SUS OCUPANTES. 2.- SERVICIOS INTEGRALES DE LOGÍSTICA DE PRODUCCIÓN EN INSTALACIONES PROPIAS O DE TERCEROS, DE MATERIAS PRIMAS, MANUFACTURADOS Y SUMINISTROS. 3. SERVICIOS INTEGRALES DE LOGÍSTICA DE MERCANCÍAS EN INSTALACIONES PROPIAS O DE TERCEROS, TALES COMO LA CARGA, DESCARGA, ESTIBA Y DESESTIBA, RECOGIDA, TRANSPORTE, DISTRIBUCIÓN, ALMACENAMIENTO, CUSTODIA Y ENTREGA DE TODA CLASE DE MERCANCÍAS Y DOCUMENTOS EN CUALQUIER TIPO DE SOPORTE. 4. SERVICIOS DE ATENCIÓN, INFORMACIÓN, VENTA Y ASISTENCIA TELEFÓNICA, TELEMARKETING, EN INSTALACIONES PROPIAS O DE TERCEROS PARA ENTIDADES PRIVADAS Y PÚBLICAS. 5. SERVICIOS COMERCIALES PROPIOS Y DE TERCEROS, MEDIANTE PROFESIONALES DE LA PROMOCIÓN, LA VENTA Y EL MARKETING, INVESTIGACIÓN DE MERCADOS, REALIZACIÓN DE INFORMES Y CONSULTORÍA COMERCIAL. 6. EXPLOTACIÓN O GESTIÓN, TOTAL O PARCIAL, DE INSTALACIONES DEPORTIVAS Y ACUÁTICAS, CULTURALES, SOCIALES, DE OCIO Y RECREO. aSÍ COMO LA PRESTACIÓN DE SERVICIOS AUXILIARES, MEDIANTE PEROSNAL CUALIFICADO EN INSTALACIONES PROPIAS O DE TERCEROS, A LOS COLECTIVOS USUARIOS DE LAS MISMAS Y TODO TIPO DE OCNSULTORÍA, INFESTIGACIÓN Y DESARROLLO EN EL ÁMBITO LÚDICO-DEPORTIVO. 7. SERVICIOS DE ASESORAMIENTO, ASISTENCIA Y EJECUCIÓN DE TRABAJOS ADMINISTRATIVOS, TÉCNICOS, JURÍDICOS, ECONÓMICOS E INFORMÁTICOS, A TRAVÉS DE ESPECIALISTAS EN LAS CITADAS MATERIAS Y PROFESIONALES AFINES. 8. EXPLOTACIÓN OGESTIÓN, TOTAL O PARCIAL, DE CENTROS SOCIALES, COMO RESIDENCIAS, CENTROS DE DÍA, PISOS TUTELADOS,  COMUNIDADES TERAPÉUTICAS, HOSPITALES, Y OTROS CENTROS DE ACOGIDA Y REHA BILITACIÓN PÚBLICOS O PRIVADOS. ASÍ COMO LA PRESTACIÓN DE TODO TIPO DE SERVICIOS SOCIALES, SANITARIOS, EDUCATIVOS Y DE OCIO, MEDIANTE PERSONAL CUALIFICADO EN CENTROS PROPIOS O DE TERCEROS, A LOS COLECTIVOS SOCIALES QUE NECESITEN ACOGIDA O REHABILITACIÓN Y TODO TIPO DE CONSULTORÍA, INVESTIGACIÓN Y DESARROLLO EN EL ÁMBITO SOCIAL-SANITARIO. 9. LECTURA DE CONTADORES DE SUMINISTROS DE ENERGÍA, CORTES, MANTENIMIENTO, REPARACIÓN Y REPOSICIÓN DE LOS MISMOS, TRANSCRIPCIÓN DE LECTURAS, INSPECCIÓN DE CONTADORES, TOMA Y ACTUALIZACIÓN DE DATOS Y COLOCACIÓN DE AVISOS Y CAMPAÑAS. 10. SERVICIOS DE GETIÓN DE COBROS Y RECAUDACIÓN EJECUTIVA, CONFECCIÓN, RECOGIDA Y COBRO DE EFECTOS Y/O RECIBOS. 11. CONDUCCIÓN DE VEHÍCULOS PROPIOS O AJENOS Y ACOMPAÑAMIENTO PARA EL TRANSPORTE DE PERSONAS O MERCANCÍAS Y LAS ACTIVIDADES ANEXAS AL TRANSPORTE. 12. EXPLOTACIÓN O GESTIÓN, TOTAL O PARCIAL, DE CENTROS DOCENTES PÚBLICOS O PRIVADOS. ASÍ COMO LA PRESTACIÓN DE SERVICIOS AUXILIARES, MEDIANTE PERSONAL CUALIFICADO EN DICHOS CENTROS PARA EL PERSONAL DOCENTE Y EL ALUMNADO. 13. ELABORACIÓN, CONDIMENTACIÓN Y DISTRIBUCIÓN DE COMDAS PARA CONSUMO PROPIO O SUMINISTRO A TERCEROS EN INSTALACIONES PROPIAS O DE TERCEROS. 14. LA LIMPIEZA DE EDIFICIOS, INSTALACIONES INDUSTRIALES E INMUEBLES EN GENERAL CUALQUIERA QUE FUERE SU DESTINO, BARCOS, NAVES, AERONAVES Y DEMÁS MEDIOS DE LOCOMOCIÓN, PARQUES, JARDINES, MONTES, PLAYAS, PUERTOS, VÍAS Y ESPACIOS PÚBLICOS Y PRIVADOS, URBANOS E INTERURBANOS, ALCANTARILLAS, CONDUCCIONES INDUSTRIALES Y SANITARIAS, ASÍ COMO LA RECOGIDA Y TRANSPORTE DE BASURAS Y RESIDUOS, INORGÁNICOS Y ORGNÁNICOS, URBANOS E INDUSTRIALES (INCLUSO LOS DE PROCEDENCIA HOSPITALARIA) Y LA ELIMINACIÓN HIGIÉNICO-SANITARIA, TRATAMIENTO O RECUPERACIÓN DE LOS MISMOS; LA HIGIENIZACIÓN DE AGUAS MARÍTIMAS, FLUVIALES Y RESIDUALES, TANTO URBANAS  COMO INDUSTRIALES, Y DEL MEDIO AMBIENTE EN GENERAL. SERVICIOS DE TESCONTAMINACIÓN DE INSTALACIONES RADIACTIVAS, SANITARIAS Y CENTRALES NUCLEAREA. 15. LA CONFECCIÓN DE PROYECTOS RELACIONADOS CON EL MEDIO AMBIENTE, PARQUES, JARDINES, PAVIMENTOSDEPORTIVOS Y ÁREAS FORESTALES, ASÍ COMO LA IMPLANTACIÓN, CUIDADO Y MANTENIMIENTO DE JARDINES, ZONAS VERDES Y EXPLOTACIONES FORESTALES, SASÍ COMO CUALQUIER OBRA O SERVICIO QUE TENGA POR OBJETO  SU CONSERVACIÓN, LA EJECUCIÓN Y MANTENIMIENTO DE CAMINOS FORESTALES, VÍAS DE SACA Y DIQUES PARA LA PREVENCIÓN DE LA EROSIÓN. 16. EL MANTENIMIENTO INTEGRAL DE TODO TIPO DE INSTALACIONES INDUSTRIALES Y EDIFICIOS EN GENERAL, INCLUIDA LA EJECUCIÓN DE OBRAS, MEDIANTE TRABAJOS DE ELECTRICIDAD, DE ACONDICIONAMIENTO DE AIRE, CALEFACCIÓN, FONTANERÍA, CARPINTERÍA, PINTURA, ALBAÑILERÍA, MANTENIMIENTO DE ASCENSORES Y APARATOS DE ELEVACIÓN O TRANSPORTE DE CARGAS, ACTUACIONES EN ACOMETIDAS Y REDES DE DISTRIBUCIÓN INTERIOR O EXTERIOR DE COMBUSTIBLES O SUMINISTROS; 17. SERVICIOS DE PREVENCIÓN Y LUCHA CONTRA INCENDIOS EN GENERAL, EN MONTES, BOSQUES, FINCAS RÚSTICAS, VIVIENDAS E INSTALACIONES INDUSTRALES Y URBANAS; 18.- LA IMPORTACIÓN Y EXPORTACIÓN DE TODA CLASE DE BIENES, EQUIPOS, PRODUCTOS Y TÉCNICAS, EXCLUÍDOS LOS SOMETIDOS A LEGISLACIÓN ESPECIAL; 19.DESARROLLO DE PROCESOS DE SLECCIÓN DE PERSONAL; 20. ORGANIZACIÓN E IMPARTICIÓN A TERCEROS DE CURSOS DE FORMACIÓN DIRIGIDOS AL PERFECCIONAMIENTO Y CAPACITACIÓN PERSONAL, PROFESIONAL Y OCUPACIONAL, YA SEA EN INSTALACIONES PROPIAS O DE TERCEROS. ASÍ COMO LA FORMACIÓN DEL PERSONAL QUE PRESTAN LOS SERVICIOS EXPRESADOS EN LOS PUINTOS ANTERIORES; 21. GESTIÓN Y CONTROL, A TRAVÉS DE UN CENTRO INFORMATIZADO Y COMUNICADO, DE CUALQUIERA DE LOS SERVICIOS MENCIONADOS EN LOS NÚMEROS ANTERIORES, YA SEAN PRESTADOS POR LA PROPIA SOCIEDAD O POR TERCEROS. 22. LA EJECUCIÓN DE ESTUDIOS SOBRE ORGANIZACIÓN, MÉTODOS, SISTEMAS Y TIEMPOS, EN RELACIÓN CON LA PRESTACIÓN DE TODOS LOS SERVICIOS INCLUIDOS EN EL OBJETO SOCIAL",
      "mainEntityOfPage": "https://www.contratacion.euskadi.eus/webkpe00-kperoc/es/ac71aBusquedaRegistrosWar/empresa/03634",
      "_links": {
        "self": {
          "name": "COBRA SERVICIOS AUXILIARES, S.A.",
          "href": "https://api.euskadi.eus/procurements/companies/03634"
        }
      }
    },
    {
      "name": "GILEAD SCIENCES, S.L.",
      "registrationNumber": "04497",
      "identificationNumber": "B80754799",
      "address": "VIA DE LOS POBLADOS 3, EDIF. 7/8, 6º PLANTA",
      "location": {
        "postalCode": "28033",
        "municipality": "Madrid",
        "county": "Madrid",
        "municipalityId": "079",
        "countyId": "28"
      },
      "economicActivities": [
        {
          "id": "1.614.1",
          "name": "Venta al por mayor de productos farmacéuticos y medicamentos",
          "_links": {
            "self": {
              "name": "Venta al por mayor de productos farmacéuticos y medicamentos",
              "href": "https://api.euskadi.eus/procurements/companies/economic-activities/1.614.1"
            }
          }
        }
      ],
      "certificateStartDate": "2018-05-23",
      "certificateEndDate": "2018-10-17",
      "object": "1º.- LA EXPORTACIÓN, IMPORTACIÓN, ALMACENAJE AL POR MAYOR, DISTRIBUCIÓN Y COMERCIALIZACIÓN DE PRODUCTOS FARMACEÚTICOS; 2º.- LA FABRICACIÓN Y CUALQUIERA DE LOS PROCESOS QUE ESTA PUEDA COMPRENDER, INCLUSO EL ENVASADO, ACONDICIONAMIENTO Y PRESENTACIÓN PARA LA VENTA DE PRODUCTOS FARMACEÚTICOS ASÍ COMO SU POSTERIOR DISTRIBUCIÓN Y VENTA",
      "mainEntityOfPage": "https://www.contratacion.euskadi.eus/webkpe00-kperoc/es/ac71aBusquedaRegistrosWar/empresa/04497",
      "_links": {
        "self": {
          "name": "GILEAD SCIENCES, S.L.",
          "href": "https://api.euskadi.eus/procurements/companies/04497"
        }
      }
    },
    {
      "name": "KEVO ONE, S. C.",
      "registrationNumber": "05768",
      "identificationNumber": "J01547611",
      "address": "C/ TROCONIZ 3C",
      "location": {
        "postalCode": "01193",
        "municipality": "Iruraiz-Gauna",
        "county": "Araba/Álava",
        "municipalityId": "027",
        "countyId": "01"
      },
      "economicActivities": [
        {
          "id": "1.619.9",
          "name": "Venta al por mayor de otros productos n.c.o.p",
          "_links": {
            "self": {
              "name": "Venta al por mayor de otros productos n.c.o.p",
              "href": "https://api.euskadi.eus/procurements/companies/economic-activities/1.619.9"
            }
          }
        },
        {
          "id": "1.692",
          "name": "Reparación de maquinaria industrial",
          "_links": {
            "self": {
              "name": "Reparación de maquinaria industrial",
              "href": "https://api.euskadi.eus/procurements/companies/economic-activities/1.692"
            }
          }
        }
      ],
      "certificateStartDate": "2018-05-21",
      "certificateEndDate": "2018-10-09",
      "object": "LA ACTIVIDAD DE SERVICIOS DE ASESORAMIENTO, MANTENIMIENTO Y REPARACIÓN DE SISTEMAS DE ULTRA ALTO VACÍO",
      "mainEntityOfPage": "https://www.contratacion.euskadi.eus/webkpe00-kperoc/es/ac71aBusquedaRegistrosWar/empresa/05768",
      "_links": {
        "self": {
          "name": "KEVO ONE, S. C.",
          "href": "https://api.euskadi.eus/procurements/companies/05768"
        }
      }
    },
    {
      "name": "ADUR GAIN,S.L.",
      "registrationNumber": "05767",
      "identificationNumber": "B75123810",
      "address": "C/ESTROPALARI 11,1º",
      "location": {
        "postalCode": "20810",
        "municipality": "Orio",
        "county": "Gipuzkoa",
        "municipalityId": "061",
        "countyId": "20"
      },
      "economicActivities": [
        {
          "id": "1.653.1",
          "name": "Venta al por menor de muebles (excepto los de oficina)",
          "_links": {
            "self": {
              "name": "Venta al por menor de muebles (excepto los de oficina)",
              "href": "https://api.euskadi.eus/procurements/companies/economic-activities/1.653.1"
            }
          }
        }
      ],
      "certificateStartDate": "2018-05-18",
      "certificateEndDate": "2018-10-23",
      "object": "COMERCIO AL POR MAYOR Y AL POR MENOR. DISTRIBUCIÓN COMERCIAL. IMPORTACIÓN Y EXPORTACIÓN",
      "mainEntityOfPage": "https://www.contratacion.euskadi.eus/webkpe00-kperoc/es/ac71aBusquedaRegistrosWar/empresa/05767",
      "_links": {
        "self": {
          "name": "ADUR GAIN,S.L.",
          "href": "https://api.euskadi.eus/procurements/companies/05767"
        }
      }
    },
    {
      "name": "BEARMA AUTO, S.L.",
      "registrationNumber": "04810",
      "identificationNumber": "B01438308",
      "address": "ARTAPADURA 7B - PAB. 46",
      "location": {
        "postalCode": "01013",
        "municipality": "Vitoria-Gasteiz",
        "county": "Araba/Álava",
        "municipalityId": "059",
        "countyId": "01"
      },
      "economicActivities": [
        {
          "id": "1.654.2",
          "name": "Venta al por menor de accesorios, piezas de recambio de vehículos terrestres",
          "_links": {
            "self": {
              "name": "Venta al por menor de accesorios, piezas de recambio de vehículos terrestres",
              "href": "https://api.euskadi.eus/procurements/companies/economic-activities/1.654.2"
            }
          }
        }
      ],
      "certificateStartDate": "2018-05-16",
      "certificateEndDate": "2018-10-24",
      "object": "EL COMERCIO AL POR MAYOR DE VEHÍCULOS AUTOMÓVILES, CAMIONES, AUTOCARES, REMOLQUES, MOTOCICLETAS, BICICLETAS, ASÍ COMO SUS REPUESTOS, COMPONENTES Y ACCESORIOS",
      "mainEntityOfPage": "https://www.contratacion.euskadi.eus/webkpe00-kperoc/es/ac71aBusquedaRegistrosWar/empresa/04810",
      "_links": {
        "self": {
          "name": "BEARMA AUTO, S.L.",
          "href": "https://api.euskadi.eus/procurements/companies/04810"
        }
      }
    },
    {
      "name": "Heziby Aisialdi Elkartea",
      "registrationNumber": "05761",
      "identificationNumber": "G75058750",
      "address": "konkorrenea 54 2A",
      "location": {
        "postalCode": "20012",
        "municipality": "Donostia / San Sebastián",
        "county": "Gipuzkoa",
        "municipalityId": "069",
        "countyId": "20"
      },
      "economicActivities": [
        {
          "id": "1.966.9",
          "name": "Otros servicios culturales n.c.o.p",
          "_links": {
            "self": {
              "name": "Otros servicios culturales n.c.o.p",
              "href": "https://api.euskadi.eus/procurements/companies/economic-activities/1.966.9"
            }
          }
        }
      ],
      "certificateStartDate": "2018-05-09",
      "certificateEndDate": "2018-10-17",
      "object": "ORGANIZAR, IMPULSAR Y OFRECER ACTIVIDADES DE TIEMPO LIBRE. PROMOVER Y ORGANIZAR ACTIVIDADES FÍSICO-DEPORTIVAS SALUDABLES. IMPULSAR EL USO DEL EUSKARA. CONCIENCIACIÓN DE LA IMPORTANCIA DE LOS HÁBITOS DE ALIMENTACIÓN SALUDABLES Y LA ACTIVIDAD FÍSICA. ADQUIRIR COMPROMISO SOBRE EL EUSKERA Y LA DIVERSIDAD LINGÜÍSTICA, ENTENDIENDO LOS IDIOMAS COMO PARTE DE LA SOCIEDAD Y LA CULTURA. PARA LA CONSECUCIÓN DE DICHOS FINES SE LLEVARÁN A CABO, PREVIO EL CUMPLIMIENTO DE LOS REQUISITOS LEGALES ESTABLECIDOS, LAS SIGUIENTES ACTIVIDADES: CAMPAMENTOS, COLONIAS, EXCURSIONES, ACTIVIDADES LÚDICAS, GESTIÓN DE SERVICIOS PÚBLICOS. SIN PERJUICIO DE LAS ACTIVIDADES DESCRITAS EN EL APARTADO ANTERIOR, LA ASOCIACIÓN, PARA EL CUMPLIMIENTO DE SUS FINES PODRÁ: DESARROLLAR ACTIVIDADES ECONÓMICAS DE TODO TIPO, ENCAMINADAS A LA REALIZACIÓN DE SUS FINES O A ALLEGAR RECURSOS CON ESE OBJETIVO. ADQUIRIR Y POSEER BIENES DE TODAS CLASES Y POR CUALQUIER TÍTULO, ASÍ COMO CELEBRAR ACTOS Y CONTRATOS DE TODO GÉNERO. EJERCITAR TODA CLASE DE ACCIONES CONFORME A LAS LEYES O A SUS ESTATUTOS",
      "mainEntityOfPage": "https://www.contratacion.euskadi.eus/webkpe00-kperoc/es/ac71aBusquedaRegistrosWar/empresa/05761",
      "_links": {
        "self": {
          "name": "Heziby Aisialdi Elkartea",
          "href": "https://api.euskadi.eus/procurements/companies/05761"
        }
      }
    },
    {
      "name": "FÉLIX CRISPÍN ZUBIZARRETA ARRUZA",
      "registrationNumber": "02124",
      "identificationNumber": "72240538E",
      "address": "C/ NARDIZ TAR JON, Nº 34.",
      "location": {
        "postalCode": "48370",
        "municipality": "Bermeo",
        "county": "Bizkaia",
        "municipalityId": "017",
        "countyId": "48"
      },
      "economicActivities": [
        {
          "id": "1.455.1",
          "name": "Confección de artículos textiles para el hogar y tapicería",
          "_links": {
            "self": {
              "name": "Confección de artículos textiles para el hogar y tapicería",
              "href": "https://api.euskadi.eus/procurements/companies/economic-activities/1.455.1"
            }
          }
        },
        {
          "id": "1.482.2",
          "name": "Fabricación de artículos acabados de materias plásticas",
          "_links": {
            "self": {
              "name": "Fabricación de artículos acabados de materias plásticas",
              "href": "https://api.euskadi.eus/procurements/companies/economic-activities/1.482.2"
            }
          }
        },
        {
          "id": "1.659.6",
          "name": "Venta al por menor de juguetes, artículos de deporte",
          "_links": {
            "self": {
              "name": "Venta al por menor de juguetes, artículos de deporte",
              "href": "https://api.euskadi.eus/procurements/companies/economic-activities/1.659.6"
            }
          }
        }
      ],
      "certificateStartDate": "2018-05-08",
      "certificateEndDate": "2018-05-28",
      "object": "CONFECCIÓN DE ARTÍCULOS TEXTILES PARA EL HOGAR Y TAPICERÍA. FABRICACIÓN DE ARTÍCULOS ACABADOS DE MATERIAS PLÁSTICAS",
      "mainEntityOfPage": "https://www.contratacion.euskadi.eus/webkpe00-kperoc/es/ac71aBusquedaRegistrosWar/empresa/02124",
      "_links": {
        "self": {
          "name": "FÉLIX CRISPÍN ZUBIZARRETA ARRUZA",
          "href": "https://api.euskadi.eus/procurements/companies/02124"
        }
      }
    },
    {
      "name": "JOSE ANGEL RANEDO GARCIA",
      "registrationNumber": "05757",
      "identificationNumber": "11922283A",
      "address": "C/ Gregorio Uzquiano, 18-1º D",
      "location": {
        "postalCode": "48920",
        "municipality": "Portugalete",
        "county": "Bizkaia",
        "municipalityId": "078",
        "countyId": "48"
      },
      "economicActivities": [
        {
          "id": "1.659.3",
          "name": "Venta al por menor de aparatos médicos, ortopédicos, ópticos y fotográficos",
          "_links": {
            "self": {
              "name": "Venta al por menor de aparatos médicos, ortopédicos, ópticos y fotográficos",
              "href": "https://api.euskadi.eus/procurements/companies/economic-activities/1.659.3"
            }
          }
        }
      ],
      "certificateStartDate": "2018-05-07",
      "certificateEndDate": "2018-09-13",
      "object": "LA VENTA AL POR MENOR DE APARATOS MÉDICOS, ORTOPÉDICOS, ÓPTICOS Y FOTOGRÁFICOS",
      "mainEntityOfPage": "https://www.contratacion.euskadi.eus/webkpe00-kperoc/es/ac71aBusquedaRegistrosWar/empresa/05757",
      "_links": {
        "self": {
          "name": "JOSE ANGEL RANEDO GARCIA",
          "href": "https://api.euskadi.eus/procurements/companies/05757"
        }
      }
    },
    {
      "name": "XENON FORMACION S.L.",
      "registrationNumber": "05003",
      "identificationNumber": "B75078071",
      "address": "TROIA BIDEA 20 - PAB 7B1.POL.IND.TXALAKA ARANEDER",
      "location": {
        "postalCode": "20115",
        "municipality": "Astigarraga",
        "county": "Gipuzkoa",
        "municipalityId": "903",
        "countyId": "20"
      },
      "economicActivities": [
        {
          "id": "1.933.9",
          "name": "Otras actividades de enseñanza tales como idiomas, mecanografía",
          "_links": {
            "self": {
              "name": "Otras actividades de enseñanza tales como idiomas, mecanografía",
              "href": "https://api.euskadi.eus/procurements/companies/economic-activities/1.933.9"
            }
          }
        },
        {
          "id": "1.934",
          "name": "Enseñanza fuera de establecimiento permanente",
          "_links": {
            "self": {
              "name": "Enseñanza fuera de establecimiento permanente",
              "href": "https://api.euskadi.eus/procurements/companies/economic-activities/1.934"
            }
          }
        }
      ],
      "certificateStartDate": "2018-05-05",
      "certificateEndDate": "2018-11-05",
      "object": "LA FORMACION; IMPARTICION DE CURSOS, TANTO EN EL CENTRO COMO FUERA DE EL",
      "mainEntityOfPage": "https://www.contratacion.euskadi.eus/webkpe00-kperoc/es/ac71aBusquedaRegistrosWar/empresa/05003",
      "_links": {
        "self": {
          "name": "XENON FORMACION S.L.",
          "href": "https://api.euskadi.eus/procurements/companies/05003"
        }
      }
    },
    {
      "name": "MANPEL, S.L.",
      "registrationNumber": "04940",
      "identificationNumber": "B20070488",
      "address": "Polígono Ugaldea, Pabellón 11",
      "location": {
        "postalCode": "20170",
        "municipality": "Usurbil",
        "county": "Gipuzkoa",
        "municipalityId": "073",
        "countyId": "20"
      },
      "economicActivities": [
        {
          "id": "1.613.2",
          "name": "Venta al por mayor de tejidos por metros textiles para el hogar, alfombras",
          "_links": {
            "self": {
              "name": "Venta al por mayor de tejidos por metros textiles para el hogar, alfombras",
              "href": "https://api.euskadi.eus/procurements/companies/economic-activities/1.613.2"
            }
          }
        },
        {
          "id": "1.615.2",
          "name": "Venta al por mayor de muebles",
          "_links": {
            "self": {
              "name": "Venta al por mayor de muebles",
              "href": "https://api.euskadi.eus/procurements/companies/economic-activities/1.615.2"
            }
          }
        },
        {
          "id": "1.615.4",
          "name": "Venta al por mayor de aparatos y material radioeléctrico y electrónico",
          "_links": {
            "self": {
              "name": "Venta al por mayor de aparatos y material radioeléctrico y electrónico",
              "href": "https://api.euskadi.eus/procurements/companies/economic-activities/1.615.4"
            }
          }
        },
        {
          "id": "1.619.5",
          "name": "Venta al por mayor de artículos de papelería y escritorios",
          "_links": {
            "self": {
              "name": "Venta al por mayor de artículos de papelería y escritorios",
              "href": "https://api.euskadi.eus/procurements/companies/economic-activities/1.619.5"
            }
          }
        }
      ],
      "certificateStartDate": "2018-05-02",
      "certificateEndDate": "2018-09-14",
      "object": "LA COMPRAVENTA DE ARTÍCULOS DESTINADOS A LIBRERÍAS, PAPELERÍAS, IMPRENTAS, OFICINAS, COLEGIOS, ASÍ COMO LA REPRESENTACIÓN DE FIRMAS PROVEEDORAS DE ESTOS ARTÍCULOS Y EN GENERAL AQUELLAS ACTIVIDADES CON FINES ANÁLOGOS A LOS INDICADOS",
      "mainEntityOfPage": "https://www.contratacion.euskadi.eus/webkpe00-kperoc/es/ac71aBusquedaRegistrosWar/empresa/04940",
      "_links": {
        "self": {
          "name": "MANPEL, S.L.",
          "href": "https://api.euskadi.eus/procurements/companies/04940"
        }
      }
    }
  ]
}