{
  "totalItems": 9042,
  "totalPages": 905,
  "currentPage": 359,
  "itemsOfPage": 10,
  "items": [
    {
      "name": "ARTURO LAPLANA SAIZ",
      "registrationNumber": "09595",
      "identificationNumber": "18595139F",
      "address": "Calle Reyes Católicos",
      "location": {
        "postalCode": "01013",
        "municipality": "Vitoria-Gasteiz",
        "county": "Araba/Álava",
        "municipalityId": "059",
        "countyId": "01"
      },
      "economicActivities": [
        {
          "id": "2.826",
          "name": "Personal docente de enseñanzas diversas",
          "_links": {
            "self": {
              "name": "Personal docente de enseñanzas diversas",
              "href": "https://api.euskadi.eus/procurements/companies/economic-activities/2.826"
            }
          }
        }
      ],
      "certificateStartDate": "2025-04-25",
      "certificateEndDate": "2025-10-21",
      "object": "PERSONAL DOCENTE DE ENSEÑANZAS DIVERSAS.",
      "mainEntityOfPage": "https://www.contratacion.euskadi.eus/webkpe00-kperoc/es/ac71aBusquedaRegistrosWar/empresa/09595",
      "_links": {
        "self": {
          "name": "ARTURO LAPLANA SAIZ",
          "href": "https://api.euskadi.eus/procurements/companies/09595"
        }
      }
    },
    {
      "name": "PRESTACIÓN DE TECNOLOGIA Y ASISTENCIA TÉCNICA EN DIAGNÓSTICO POR IMAGEN, S.L.",
      "registrationNumber": "09888",
      "identificationNumber": "B48992937",
      "address": "MANUEL ALLENDE 13",
      "location": {
        "postalCode": "48010",
        "municipality": "Bilbao",
        "county": "Bizkaia",
        "municipalityId": "020",
        "countyId": "48"
      },
      "economicActivities": [
        {
          "id": "1.942.9",
          "name": "Otros servicios sanitarios sin internados, no clasificados",
          "_links": {
            "self": {
              "name": "Otros servicios sanitarios sin internados, no clasificados",
              "href": "https://api.euskadi.eus/procurements/companies/economic-activities/1.942.9"
            }
          }
        }
      ],
      "certificateStartDate": "2025-04-25",
      "certificateEndDate": "2025-10-15",
      "object": "A) LA ADQUISICIÓN, SUSCRIPCIÓN, POSESIÓN, ADMINISTRACIÓN, EXPLOTACIÓN Y VENTA DE BIENES MUEBLES E INMUEBLES, LA ADQUISICIÓN, COMERCIALIZACIÓN, VENTA, ARRIENDO Y EXPLOTACIÓN DE TODO TIPO DE FINCAS, INMUEBLES RÚSTICOS Y/O URBANOS, TERRENOS, SOLARES, EDIFICIOS, APARTAMENTOS, VIVIENDAS, LOCALES, OFICINAS, CHALETS, ETC; LA REALIZACIÓN DE EDIFICACIÓN Y URBANIZACIÓN Y SU EJECUCIÓN. B) EL ASESORAMIENTO, REPRESENTACIÓN Y GESTIÓN EN CUALQUIER FACETA EMPRESARIAL, PRESTANDO TODO TIPO DE SERVICIOS Y ESTUDIOS TÉCNICOS Y PROFESIONALES LEGALMENTE PERMITIDOS, TANTO A PERSONAS FÍSICAS COMO A ENTIDADES Y PERSONAS JURÍDICAS, ESPECIALMENTE LA ORDENACIÓN, CONSTITUCIÓN, PARTICIPACIÓN, ESTUDIO Y ASESORAMIENTO QUE SE ENCAMINEN A LA VENTA, ADQUISICIÓN, CONSTRUCCIÓN Y UTILIZACIÓN DE BIENES INMUEBLES Y OBRAS INDUSTRIALES. C) LOS SERVICIOS LEGALMENTE PERMITIDOS DE MEDIACIÓN, CON BIENES PROPIOS O AJENOS, ASÍ COMO LOS DE CONSIGNACIÓN, REPRESENTACIÓN Y GESTIÓN, INCLUSO DE TODA CLASE DE SUMINISTROS DE PRODUCTOS EN GENERAL, NACIONALES Y EXTRANJEROS Y LAS ACTIVIDADES DE IMPORTACIÓN Y DE EXPORTACIÓN. D) EL COMERCIO AL POR MAYOR Y MENOR DE MATERIAS PRIMAS AGRARIAS, PRODUCTOS ALIMENTICIOS, BEBIDAS, TABACOS, ARTÍCULOS TEXTILES, DE CONFECCIÓN, CALZADO Y CUERO, ARTÍCULOS DEL HOGAR, MATERIALES DE CONSTRUCCIÓN, VIDRIO Y ARTÍCULOS VARIOS, TALES COMO MATERIALES SANITARIOS Y SUS TUBERÍAS, GRIFERÍA, ETC., INSTALACIONES ELÉCTRICAS Y SUS ELEMENTOS, MATERIALES PARA INSTALACIONES DE FONTANERÍA Y GAS; MUEBLES Y ARTÍCULOS DE MADERA, ELECTRODOMÉSTICOS Y LÁMPARAS. E) SERVICIOS PROFESIONALES, EN CUALQUIER RAMO DE LA MEDICINA.",
      "mainEntityOfPage": "https://www.contratacion.euskadi.eus/webkpe00-kperoc/es/ac71aBusquedaRegistrosWar/empresa/09888",
      "_links": {
        "self": {
          "name": "PRESTACIÓN DE TECNOLOGIA Y ASISTENCIA TÉCNICA EN DIAGNÓSTICO POR IMAGEN, S.L.",
          "href": "https://api.euskadi.eus/procurements/companies/09888"
        }
      }
    },
    {
      "name": "I-INGENIA INGENIERIA Y ARQUITECTURA S.L.",
      "registrationNumber": "03946",
      "identificationNumber": "B95158994",
      "address": "Avenida Ribera de Axpe, 34",
      "location": {
        "postalCode": "48950",
        "municipality": "Erandio",
        "county": "Bizkaia",
        "municipalityId": "902",
        "countyId": "48"
      },
      "economicActivities": [
        {
          "id": "1.843.1",
          "name": "Servicios técnicos de ingeniería",
          "_links": {
            "self": {
              "name": "Servicios técnicos de ingeniería",
              "href": "https://api.euskadi.eus/procurements/companies/economic-activities/1.843.1"
            }
          }
        }
      ],
      "certificateStartDate": "2025-04-24",
      "certificateEndDate": "2026-03-30",
      "object": "LAS ACTIVIDADES DE INFRAESTRUCTURA, URBANISMO, INGENIERÍA, CONSTRUCCIÓN CIVIL Y OBRA PÚBLICA, GESTIÓN Y SERVICIOS, EDIFICACIÓN, CARTOGRAFÍA, CATASTROS, GEOTECNIA, HIDROLOGÍA Y MEDIO AMBIENTE, LA EJECUCIÓN COMPLETA O POR TRAMOS DE ALBAÑILERÍA, ASÍ COMO DE TODA CLASE DE CONSTRUCCIÓN, REPARACIÓN Y CONSERVACIÓN POR CUENTA PROPIA O DE TERCEROS, LA COMPRAVENTA Y ALQUILER DE EDIFICACIONES EN SU TOTALIDAD, POR PARTE O PARA LOCALES DE NEGOCIOS O INDUSTRIALES CONSTRUIDAS PARA TAL FIN, DIRECTAMENTE O POR MEDIO DE CONTRATISTAS, SUBCONTRATISTAS O EN CONSTRUCCIÓN, LA COMPRAVENTA DE TODA CLASE DE MATERIALES AUXILIARES O ANEJOS PARA LA CONSTRUCCIÓN; TODA CLASE DE MAQUINARÍA Y ARTÍCULOS DE DECORACIÓN, LA REPRESENTACIÓN DE EMPRESAS NACIONALES O EXTRANJERAS PRODUCTORAS DE ARTÍCULOS Y MERCANCÍAS A QUE SE REFIEREN LOS APARTADOS ANTERIORES, ASÍ COMO LA TENENCIA, DISFRUTE Y DISPOSICIÓN DE CUALQUIER FORMA DE TODA CLASE DE ACCIONES, PARTICIPACIONES SOCIALES, OBLIGACIONES, BONOS DE CAJA, CERTIFICACIONES DE DEPÓSITO DE TODA CLASE DE EMPRESAS O NEGOCIOS.",
      "mainEntityOfPage": "https://www.contratacion.euskadi.eus/webkpe00-kperoc/es/ac71aBusquedaRegistrosWar/empresa/03946",
      "_links": {
        "self": {
          "name": "I-INGENIA INGENIERIA Y ARQUITECTURA S.L.",
          "href": "https://api.euskadi.eus/procurements/companies/03946"
        }
      }
    },
    {
      "name": "SEMBI COMUNICACION, S. L.",
      "registrationNumber": "08778",
      "identificationNumber": "B95957130",
      "address": "C/San Roque 10-3º Derecha Izquierda",
      "location": {
        "postalCode": "48008",
        "municipality": "Bilbao",
        "county": "Bizkaia",
        "municipalityId": "020",
        "countyId": "48"
      },
      "economicActivities": [
        {
          "id": "1.844",
          "name": "Servicios de publicidad, relaciones públicas y similares",
          "_links": {
            "self": {
              "name": "Servicios de publicidad, relaciones públicas y similares",
              "href": "https://api.euskadi.eus/procurements/companies/economic-activities/1.844"
            }
          }
        },
        {
          "id": "1.849.9",
          "name": "Otros servicios independientes n.c.o.p",
          "_links": {
            "self": {
              "name": "Otros servicios independientes n.c.o.p",
              "href": "https://api.euskadi.eus/procurements/companies/economic-activities/1.849.9"
            }
          }
        }
      ],
      "certificateStartDate": "2025-04-24",
      "certificateEndDate": "2025-10-21",
      "object": "AGENCIA DE MARKETING DIGITAL. COMPRA, VENTA Y EXPLOTACIÓN DE NEGOCIOS DIGITALES Y PÁGINAS WEB. ASESORÍA, CONSULTORÍA, PUBLICIDAD Y FORMACIÓN EN MARKETING DIGITAL. SERVICIOS DE INTERMEDIACIÓN DIGITAL. SERVICIOS DE ALQUILER DE COWORKING. SERVICIO DE CONSULTORÍA A JÓVENES EMPRENDEDORES.\n \n",
      "mainEntityOfPage": "https://www.contratacion.euskadi.eus/webkpe00-kperoc/es/ac71aBusquedaRegistrosWar/empresa/08778",
      "_links": {
        "self": {
          "name": "SEMBI COMUNICACION, S. L.",
          "href": "https://api.euskadi.eus/procurements/companies/08778"
        }
      }
    },
    {
      "name": "ARCAYA ARQUITECTOS",
      "registrationNumber": "05895",
      "identificationNumber": "B75037648",
      "address": "PS COLON 18 BAJO",
      "location": {
        "postalCode": "20002",
        "municipality": "Donostia / San Sebastián",
        "county": "Gipuzkoa",
        "municipalityId": "069",
        "countyId": "20"
      },
      "economicActivities": [
        {
          "id": "1.843.2",
          "name": "Servicios técnicos de arquitectura y urbanismo",
          "_links": {
            "self": {
              "name": "Servicios técnicos de arquitectura y urbanismo",
              "href": "https://api.euskadi.eus/procurements/companies/economic-activities/1.843.2"
            }
          }
        }
      ],
      "certificateStartDate": "2025-04-24",
      "certificateEndDate": "2025-10-21",
      "object": "EL EJERCICIO DE LA ARQUITECTURA",
      "mainEntityOfPage": "https://www.contratacion.euskadi.eus/webkpe00-kperoc/es/ac71aBusquedaRegistrosWar/empresa/05895",
      "_links": {
        "self": {
          "name": "ARCAYA ARQUITECTOS",
          "href": "https://api.euskadi.eus/procurements/companies/05895"
        }
      }
    },
    {
      "name": "IZA ASCENSORES, S.L.",
      "registrationNumber": "01405",
      "identificationNumber": "B01148212",
      "address": "CAMINOS VIEJOS, 14",
      "location": {
        "postalCode": "01400",
        "municipality": "Laudio/Llodio",
        "county": "Araba/Álava",
        "municipalityId": "036",
        "countyId": "01"
      },
      "economicActivities": [
        {
          "id": "1.325.4",
          "name": "Construcción de maquinaria de elevación y manipulación",
          "_links": {
            "self": {
              "name": "Construcción de maquinaria de elevación y manipulación",
              "href": "https://api.euskadi.eus/procurements/companies/economic-activities/1.325.4"
            }
          }
        },
        {
          "id": "1.504.6",
          "name": "Montaje e instalación de aparatos elevadores de cualquier clase",
          "_links": {
            "self": {
              "name": "Montaje e instalación de aparatos elevadores de cualquier clase",
              "href": "https://api.euskadi.eus/procurements/companies/economic-activities/1.504.6"
            }
          }
        },
        {
          "id": "1.699",
          "name": "Otras reparaciones n.c.o.p",
          "_links": {
            "self": {
              "name": "Otras reparaciones n.c.o.p",
              "href": "https://api.euskadi.eus/procurements/companies/economic-activities/1.699"
            }
          }
        }
      ],
      "certificateStartDate": "2025-04-23",
      "certificateEndDate": "2025-10-21",
      "classification": [
        {
          "id": "S",
          "name": "Servicios",
          "groups": [
            {
              "id": "P",
              "subgroups": [
                {
                  "id": "07",
                  "name": "Mtto. y reparación equipos e instalac.de aparat.elevadores y de traslación horiz",
                  "categories": [
                    {
                      "id": "3",
                      "name": "Desde 300.001 Hasta 600.000",
                      "_links": {
                        "self": {
                          "name": "Desde 300.001 Hasta 600.000",
                          "href": "https://api.euskadi.eus/procurements/companies/types/S/categories/3"
                        }
                      }
                    }
                  ],
                  "_links": {
                    "self": {
                      "name": "Mtto. y reparación equipos e instalac.de aparat.elevadores y de traslación horiz",
                      "href": "https://api.euskadi.eus/procurements/companies/types/S/groups/P/subgroups/07"
                    }
                  }
                }
              ],
              "_links": {
                "self": {
                  "href": "https://api.euskadi.eus/procurements/companies/types/S/groups/P"
                }
              }
            }
          ],
          "_links": {
            "self": {
              "name": "Servicios",
              "href": "https://api.euskadi.eus/procurements/companies/types/S"
            }
          }
        }
      ],
      "object": "LA CONSTRUCCIÓN, INSTALACIÓN Y MANTENIMIENTO DE ASCENSORES",
      "mainEntityOfPage": "https://www.contratacion.euskadi.eus/webkpe00-kperoc/es/ac71aBusquedaRegistrosWar/empresa/01405",
      "_links": {
        "self": {
          "name": "IZA ASCENSORES, S.L.",
          "href": "https://api.euskadi.eus/procurements/companies/01405"
        }
      }
    },
    {
      "name": "MIREN NEKANE CABELLO JORGE",
      "registrationNumber": "07550",
      "identificationNumber": "44553232R",
      "address": "ARABA 20,4ºB",
      "location": {
        "postalCode": "20305",
        "municipality": "Irun",
        "county": "Gipuzkoa",
        "municipalityId": "045",
        "countyId": "20"
      },
      "economicActivities": [
        {
          "id": "2.826",
          "name": "Personal docente de enseñanzas diversas",
          "_links": {
            "self": {
              "name": "Personal docente de enseñanzas diversas",
              "href": "https://api.euskadi.eus/procurements/companies/economic-activities/2.826"
            }
          }
        }
      ],
      "certificateStartDate": "2025-04-23",
      "certificateEndDate": "2025-10-13",
      "object": "PERSONAL DOCENTE DE ENSEÑANZAS DIVERSAS",
      "mainEntityOfPage": "https://www.contratacion.euskadi.eus/webkpe00-kperoc/es/ac71aBusquedaRegistrosWar/empresa/07550",
      "_links": {
        "self": {
          "name": "MIREN NEKANE CABELLO JORGE",
          "href": "https://api.euskadi.eus/procurements/companies/07550"
        }
      }
    },
    {
      "name": "MIKELDI REGALO PUBLICITARIO, S.L.",
      "registrationNumber": "10150",
      "identificationNumber": "B95677456",
      "address": "CAMINO IBARSUSI, 19 - 2º",
      "location": {
        "postalCode": "48004",
        "municipality": "Bilbao",
        "county": "Bizkaia",
        "municipalityId": "020",
        "countyId": "48"
      },
      "economicActivities": [
        {
          "id": "1.844",
          "name": "Servicios de publicidad, relaciones públicas y similares",
          "_links": {
            "self": {
              "name": "Servicios de publicidad, relaciones públicas y similares",
              "href": "https://api.euskadi.eus/procurements/companies/economic-activities/1.844"
            }
          }
        }
      ],
      "certificateStartDate": "2025-04-23",
      "certificateEndDate": "2025-10-16",
      "object": "COMPRA, VENTA, IMPORTACIÓN Y EXPORTACIÓN, AL POR MAYOR Y AL POR MENOR, DE REGALO PUBLICITARIO, DE EMPRESA, REGALOS PROMOCIONALES; MERCHANDISING. LA PRESTACIÓN DE SERVICIOS DE PUBLICIDAD, MEDIANTE ANUNCIOS, CARTELES, FOLLETOS, PELÍCULAS PUBLICITARIAS, ETC. A TRAVÉS DE PRENSA, RADIO, TELEVISIÓN, INTERNET, PUBLICIDAD AÉREA U OTROS MEDIOS. CREACIÓN Y DIFUSIÓN DE ANUNCIOS O CAMPAÑAS DE INFORMACIÓN PUBLICITARIA, PROPAGANDA ELECTORAL, COMUNICACIÓN INSTITUCIONAL O PÚBLICA, IMAGEN CORPORATIVA. EXCLUSIVAS DE MEDIOS PUBLICITARIOS, PUBLICIDAD EXTERIOR, PUBLICIDAD DIRECTA Y MARKETING DIRECTO, ESTUDIOS DE PUBLICIDAD, PROMOCIÓN DE VENTAS PUBLICITARIAS, REGALOS Y RECLAMOS PUBLICITARIOS, Y EN GENERAL, CUALQUIER SERVICIO INDEPENDIENTE DE PUBLICIDAD. PRODUCCIÓN, COMERCIALIZACIÓN Y DISTRIBUCIÓN DE PELÍCULAS CINEMATOGRÁFICAS, VÍDEOS Y DVD. PRODUCCIÓN, COMERCIALIZACIÓN Y DISTRIBUCIÓN, EN CUALQUIERA DE SUS FASES O EN TODO EL PROCESO DE CINE (PROPIO O AJENO), EN FORMATO DVD O EN CUALQUIER OTRO, Y DE MÚSICA, DE PRODUCCIÓN PROPIA O AJENA, EN FORMATO CDS O EN CUALQUIER OTRO QUE PUDIERA SURGIR, PROGRAMAS DE TELEVISIÓN EN DIVERSOS FORMATOS (ANALÓGICO, DIGITAL O CUALQUIER OTRO; COMO PRODUCCIONES AUDIOVISUALES, PELÍCULAS DE ANIMACIÓN O CUALQUIER OTRO TIPO DE PRODUCCIONES AUDIOVISUALES EN LOS FORMATOS EXISTENTES EN LA ACTUALIDAD U OTROS QUE PUDIERAN SURGIR EN EL FUTURO. LA ADQUISICIÓN, TENENCIA, ADMINISTRACIÓN Y EXPLOTACIÓN EN FORMA DE ARRIENDO, SUBARRIENDO, TRASPASO O CESIÓN, DE TODA CLASE DE VIVIENDAS, LOCALES INDUSTRIALES Y DE NEGOCIO, GARAJES Y, EN GENERAL, DE TODA CLASE DE INMUEBLES, TANTO URBANOS COMO RÚSTICOS, ASÍ COMO DE BIENES MUEBLES, MAQUINARIA Y VEHÍCULOS, INDUSTRIAS O NEGOCIOS, EMPRESAS, ESTABLECIMIENTOS MERCANTILES, Y TODA CLASE DE CESIÓN POR PRECIO DEL USO O DISFRUTE DE TODA CLASE DE BIENES Y DERECHOS, INCLUSO DE PROPIEDAD INTELECTUAL O INDUSTRIAL. EL ARRENDAMIENTO DE EQUIPOS AUDIOVISUALES.",
      "mainEntityOfPage": "https://www.contratacion.euskadi.eus/webkpe00-kperoc/es/ac71aBusquedaRegistrosWar/empresa/10150",
      "_links": {
        "self": {
          "name": "MIKELDI REGALO PUBLICITARIO, S.L.",
          "href": "https://api.euskadi.eus/procurements/companies/10150"
        }
      }
    },
    {
      "name": "AISLAMIENTOS BAYON, S.L.",
      "registrationNumber": "09907",
      "identificationNumber": "B95989406",
      "address": "CL SAN LORENZO, 4",
      "location": {
        "postalCode": "48950",
        "municipality": "Erandio",
        "county": "Bizkaia",
        "municipalityId": "902",
        "countyId": "48"
      },
      "economicActivities": [
        {
          "id": "1.505.7",
          "name": "Trabajos en yeso y escayola y decoración de edificios y locales",
          "_links": {
            "self": {
              "name": "Trabajos en yeso y escayola y decoración de edificios y locales",
              "href": "https://api.euskadi.eus/procurements/companies/economic-activities/1.505.7"
            }
          }
        }
      ],
      "certificateStartDate": "2025-04-22",
      "certificateEndDate": "2025-10-22",
      "object": "LA REALIZACIÓN DE TODO TIPO DE TRABAJOS DE ALBAÑILERÍA Y CONSTRUCCIÓN, EN GENERAL, EN CUALQUIER TIPO DE INMUEBLES, RÚSTICO O URBANO, ASÍ COMO LA REPARACIÓN Y CONSERVACIÓN DE DICHOS INMUEBLES.",
      "mainEntityOfPage": "https://www.contratacion.euskadi.eus/webkpe00-kperoc/es/ac71aBusquedaRegistrosWar/empresa/09907",
      "_links": {
        "self": {
          "name": "AISLAMIENTOS BAYON, S.L.",
          "href": "https://api.euskadi.eus/procurements/companies/09907"
        }
      }
    },
    {
      "name": "GEURIA CARPINTERIA DE ALUMINIO, S.L.",
      "registrationNumber": "08980",
      "identificationNumber": "B20804407",
      "address": "Ittolako Ind. Salbatore Auzoa 15-A Pab. C-4",
      "location": {
        "postalCode": "20200",
        "municipality": "Beasain",
        "county": "Gipuzkoa",
        "municipalityId": "019",
        "countyId": "20"
      },
      "economicActivities": [
        {
          "id": "1.314.1",
          "name": "Carpintería metálica",
          "_links": {
            "self": {
              "name": "Carpintería metálica",
              "href": "https://api.euskadi.eus/procurements/companies/economic-activities/1.314.1"
            }
          }
        }
      ],
      "certificateStartDate": "2025-04-22",
      "certificateEndDate": "2025-09-29",
      "object": "LA FABRICACIÓN E INSTALACIÓN DE ARTÍCULOS DE CARPINTERÍA METÁLICA.",
      "mainEntityOfPage": "https://www.contratacion.euskadi.eus/webkpe00-kperoc/es/ac71aBusquedaRegistrosWar/empresa/08980",
      "_links": {
        "self": {
          "name": "GEURIA CARPINTERIA DE ALUMINIO, S.L.",
          "href": "https://api.euskadi.eus/procurements/companies/08980"
        }
      }
    }
  ]
}