{
  "totalItems": 9042,
  "totalPages": 905,
  "currentPage": 616,
  "itemsOfPage": 10,
  "items": [
    {
      "name": "3S GEOTECNIA Y TECNOLOGIA, S.L.",
      "registrationNumber": "06105",
      "identificationNumber": "B20697207",
      "address": "BEITZA BIDEA, 10  IZDA.",
      "location": {
        "postalCode": "20115",
        "municipality": "Astigarraga",
        "county": "Gipuzkoa",
        "municipalityId": "903",
        "countyId": "20"
      },
      "economicActivities": [
        {
          "id": "1.501.2",
          "name": "Construcción completa, reparación y conservación obras civiles",
          "_links": {
            "self": {
              "name": "Construcción completa, reparación y conservación obras civiles",
              "href": "https://api.euskadi.eus/procurements/companies/economic-activities/1.501.2"
            }
          }
        }
      ],
      "certificateStartDate": "2019-03-06",
      "certificateEndDate": "2019-08-21",
      "object": "LA FABRICACIÓN, IMPORTACIÓN, EXPORTACIÓN, INTERMEDIACIÓN Y EL COMERCIO DE TODO EL MATERIAL RELACIONADO CON LOS SISTEMAS PARA LA ESTABILIZACIÓN DE TALUDES, PROTECCIÓN FRENTE A DESPRENDIMIENTO Y OBRAS GEOTÉCNICAS. EL DISEÑO Y VENTA DE TECNOLOGÍA, SOLUCIONES FRENTE A DESPRENDIMIENTOS, EJECUCIÓN DE LAS OBRAS CON PRODUCTOS PROPIOS Y EXISTENTES EN EL MERCADO, Y LA CONSTRUCCIÓN COMPLETA EN GENERAL",
      "mainEntityOfPage": "https://www.contratacion.euskadi.eus/webkpe00-kperoc/es/ac71aBusquedaRegistrosWar/empresa/06105",
      "_links": {
        "self": {
          "name": "3S GEOTECNIA Y TECNOLOGIA, S.L.",
          "href": "https://api.euskadi.eus/procurements/companies/06105"
        }
      }
    },
    {
      "name": "LINK MOBILITY SPAIN, S.L.U.",
      "registrationNumber": "06096",
      "identificationNumber": "B85871333",
      "address": "C/San Máximo, 3, 2 planta",
      "location": {
        "postalCode": "28041",
        "municipality": "Madrid",
        "county": "Madrid",
        "municipalityId": "079",
        "countyId": "28"
      },
      "economicActivities": [
        {
          "id": "1.769",
          "name": "Otros servicios de telecomunicaciones",
          "_links": {
            "self": {
              "name": "Otros servicios de telecomunicaciones",
              "href": "https://api.euskadi.eus/procurements/companies/economic-activities/1.769"
            }
          }
        },
        {
          "id": "1.844",
          "name": "Servicios de publicidad, relaciones públicas y similares",
          "_links": {
            "self": {
              "name": "Servicios de publicidad, relaciones públicas y similares",
              "href": "https://api.euskadi.eus/procurements/companies/economic-activities/1.844"
            }
          }
        }
      ],
      "certificateStartDate": "2019-03-05",
      "certificateEndDate": "2019-08-21",
      "object": "DESARROLLAR Y OFRECER SERVICIOS ORIENTADOS A LA TELEFONÍA MÓVIL, ESPECIALMENTE DIRIGIDOS AL MARKETING, LA PUBLICIDAD Y LA COMUNICACIÓN A TRAVÉS DE MENSAJERÍA CORTA (SMS), ASÍ COMO CONSULTORÍA DE PROYECTOS ESPECIALIZADOS EN MARKETING MÓVIL Y LOCALIZACIÓN. EN RESUMEN, LA EXPLOTACIÓN DEL CANAL MÓVIL COMO MEDIO DE CONTACTO CONSTRUYENDO BASES DE DATOS (PROPIAS O AJENAS EN FUNCIÓN DE LA TITULARIDAD DE LAS MISMAS) EN LAS CUALES SE PUEDAN ALMACENAR EL PERFIL DE LOS CONSUMIDORES PARA PODER LLEVAR A CABO ENVÍOS PERSONALIZADOS Y ADAPTADOS EN FUNCIÓN DE SUS PATRONES DE USO Y ESTILO DE VIDA",
      "mainEntityOfPage": "https://www.contratacion.euskadi.eus/webkpe00-kperoc/es/ac71aBusquedaRegistrosWar/empresa/06096",
      "_links": {
        "self": {
          "name": "LINK MOBILITY SPAIN, S.L.U.",
          "href": "https://api.euskadi.eus/procurements/companies/06096"
        }
      }
    },
    {
      "name": "CURTANA PROFESSIONAL SL",
      "registrationNumber": "06097",
      "identificationNumber": "B70485024",
      "address": "HEDRAS 2 - 3 G POL COMERCIAL NOVOMILLADOIRO",
      "location": {
        "postalCode": "15895",
        "municipality": "Ames",
        "county": "Coruña, A",
        "municipalityId": "002",
        "countyId": "15"
      },
      "economicActivities": [
        {
          "id": "1.613.1",
          "name": "Venta al por mayor de productos textiles, confección calzado y artículos cuero",
          "_links": {
            "self": {
              "name": "Venta al por mayor de productos textiles, confección calzado y artículos cuero",
              "href": "https://api.euskadi.eus/procurements/companies/economic-activities/1.613.1"
            }
          }
        }
      ],
      "certificateStartDate": "2019-03-05",
      "certificateEndDate": "2019-08-25",
      "object": "COMERCIO AL POR MAYOR DE TEXTILES",
      "mainEntityOfPage": "https://www.contratacion.euskadi.eus/webkpe00-kperoc/es/ac71aBusquedaRegistrosWar/empresa/06097",
      "_links": {
        "self": {
          "name": "CURTANA PROFESSIONAL SL",
          "href": "https://api.euskadi.eus/procurements/companies/06097"
        }
      }
    },
    {
      "name": "JAVIER SOLER  GONZALEZ",
      "registrationNumber": "06098",
      "identificationNumber": "53389206L",
      "address": "Plaza Basurtogorta 5 2ºA",
      "location": {
        "postalCode": "48002",
        "municipality": "Bilbao",
        "county": "Bizkaia",
        "municipalityId": "020",
        "countyId": "48"
      },
      "economicActivities": [
        {
          "id": "1.911",
          "name": "Servicios agrícolas y ganaderos",
          "_links": {
            "self": {
              "name": "Servicios agrícolas y ganaderos",
              "href": "https://api.euskadi.eus/procurements/companies/economic-activities/1.911"
            }
          }
        }
      ],
      "certificateStartDate": "2019-03-05",
      "certificateEndDate": "2019-08-19",
      "object": "SERVICIOS AGRÍCOLAS Y GANADEROS",
      "mainEntityOfPage": "https://www.contratacion.euskadi.eus/webkpe00-kperoc/es/ac71aBusquedaRegistrosWar/empresa/06098",
      "_links": {
        "self": {
          "name": "JAVIER SOLER  GONZALEZ",
          "href": "https://api.euskadi.eus/procurements/companies/06098"
        }
      }
    },
    {
      "name": "GLOBAL CONSULTING SERVICIOS INTEGRALES PARA LA EMPRESA",
      "registrationNumber": "06099",
      "identificationNumber": "B74111444",
      "address": "C/Francisco Bances Candamo 25 bajo",
      "location": {
        "postalCode": "33013",
        "municipality": "Oviedo",
        "county": "Asturias",
        "municipalityId": "044",
        "countyId": "33"
      },
      "economicActivities": [
        {
          "id": "1.504.7",
          "name": "Instalaciones telefónicas, telegráficas, televisión, etc",
          "_links": {
            "self": {
              "name": "Instalaciones telefónicas, telegráficas, televisión, etc",
              "href": "https://api.euskadi.eus/procurements/companies/economic-activities/1.504.7"
            }
          }
        },
        {
          "id": "1.659.2",
          "name": "Venta al por menor de muebles de oficina y máquinas y equipos de oficina",
          "_links": {
            "self": {
              "name": "Venta al por menor de muebles de oficina y máquinas y equipos de oficina",
              "href": "https://api.euskadi.eus/procurements/companies/economic-activities/1.659.2"
            }
          }
        },
        {
          "id": "1.845",
          "name": "Explotación electrónica por cuenta de terceros",
          "_links": {
            "self": {
              "name": "Explotación electrónica por cuenta de terceros",
              "href": "https://api.euskadi.eus/procurements/companies/economic-activities/1.845"
            }
          }
        },
        {
          "id": "1.849.9",
          "name": "Otros servicios independientes n.c.o.p",
          "_links": {
            "self": {
              "name": "Otros servicios independientes n.c.o.p",
              "href": "https://api.euskadi.eus/procurements/companies/economic-activities/1.849.9"
            }
          }
        }
      ],
      "certificateStartDate": "2019-03-05",
      "certificateEndDate": "2019-08-15",
      "object": "CONSULTORÍA, GESTIÓN Y MANTENIMIENTO DE SISTEMAS DE CALIDAD. CONSULTORÍA, GESTIÓN Y MANTENIMIENTO DE SISTEMAS MEDIOAMBIENTALES. CONSULTORÍA, GESTIÓN Y MANTENIMIENTO DE SISTEMAS DE PREVENCIÓN DE RIESGOS LABORALES. GESTIÓN Y ASESORAMIENTO FINANCIERO, ECONÓMICO, LABORAL Y CONTABLE. CREACIÓN Y DESARROLLO DE SOFTWARE Y PÁGINAS WEB. VENTA Y DISTRIBUCIÓN DE HARDWARE. FORMACIÓN Y RECURSOS HUMANOS. GESTIÓN DESARROLLO Y EXPLOTACIÓN DE NOMBRES COMERCIALES Y EMPRESARIALES. GESTIÓN DE GABINETES DE PRENSA EMPRESARIALES. GESTIÓN Y DESARROLLO DE DIVERSOS EVENTOS, ACTOS PÚBLICOS Y PROTOCOLARIOS. LA CONSTRUCCIÓN DE OBRA CIVIL. LA PROMOCIÓN, COMPRA, VENTA, ARRENDAMIENTO Y, EN GENERAL, EXPLOTACIÓN DE INMUEBLES, TANTO URBANOS, SEAN VIVIENDAS O LOCALES COMERCIALES, COMO RÚSTICOS. LA GESTIÓN Y DESARROLLO DE ENERGIAS RENOVABLES",
      "mainEntityOfPage": "https://www.contratacion.euskadi.eus/webkpe00-kperoc/es/ac71aBusquedaRegistrosWar/empresa/06099",
      "_links": {
        "self": {
          "name": "GLOBAL CONSULTING SERVICIOS INTEGRALES PARA LA EMPRESA",
          "href": "https://api.euskadi.eus/procurements/companies/06099"
        }
      }
    },
    {
      "name": "CENTRO DE FORMACION SOMORROSTRO",
      "registrationNumber": "06090",
      "identificationNumber": "R4800613D",
      "address": "Barrio San Juan, nº 10",
      "location": {
        "postalCode": "48550",
        "municipality": "Muskiz",
        "county": "Bizkaia",
        "municipalityId": "071",
        "countyId": "48"
      },
      "economicActivities": [
        {
          "id": "1.931.3",
          "name": "Enseñanza de bachillerato, formación profesional exclusivamente",
          "_links": {
            "self": {
              "name": "Enseñanza de bachillerato, formación profesional exclusivamente",
              "href": "https://api.euskadi.eus/procurements/companies/economic-activities/1.931.3"
            }
          }
        }
      ],
      "certificateStartDate": "2019-03-01",
      "certificateEndDate": "2019-07-10",
      "object": "DE CONFORMIDAD CON EL FIN FUNDACIONAL ORDENADO EN EL ARTÍCULO ANTERIOR, Y EN ORDEN AL CUMPLIMIENTO DEL FIN FUNDACIONAL, LA FUNDACIÓN DESARROLLARÁ ACTIVIDADES DE EDUCACIÓN Y ENSEÑANZA, Y OSTENTARÁ LA TITULARIDAD, DIRECCIÓN Y GESTIÓN DE CENTROS DOCENTES, DE CONFORMIDAD CON LOS PRINCIPIOS Y VALORES PROPIOS DE LA IGLESIA CATÓLICA. LA FUNDACIÓN INICIARÁ SUS ACTIVIDADES CON LOS CENTROS DOCENTES DIOCESANOS SAN JUAN BAUTISTA DE SOMORROSTRO Y CENTRO DE FORMACIÓN SOMORROSTRO. TODOS LOS CENTROS PROMOVIDOS POR LA FUNDACIÓN TENDRÁN LA CONSIDERACIÓN DE CENTROS DOCENTES DIOCESANOS. ENTRE OTRAS, SERÁN ACTIVIDADES DE LA FUNDACIÓN: IMPARTIR LA ENSEÑANZA REGLADA Y NO REGLADA DE LOS NIVELES EDUCATIVOS QUE SU PATRONATO DECIDA, DE CONFORMIDAD: CON LA LEGISLACIÓN CIVIL VIGENTE EN MATERIA EDUCATIVA, Y CON LOS PRINCIPIOS RELIGIOSOS DEL CARÁCTER PROPIO DE LA FUNDACIÓN, APROBADOS POR EL OBISPO DE BILBAO PARA LOS CENTROS DOCENTES DIOCESANOS. OFERTAR A LOS ALUMNOS Y SUS FAMILIAS: UNA EDUCACIÓN INTEGRAL DE LA PERSONA EN LA FE, MEDIANTE LA AMBIENTACIÓN CRISTIANA EN EL SENO DE LA COMUNIDAD EDUCATIVA. LA ENSEÑANZA DE LA \"RELIGIÓN Y MORAL CATÓLICA\". LAS \"ACTIVIDADES COMPLEMENTARIAS DE FORMACIÓN Y ASISTENCIA RELIGIOSA\". Y LA ACCIÓN PASTORAL CONTINUADA EN TODAS LAS TAREAS EDUCATIVAS QUE SE REALICEN. TODO ELLO EN PLENO RESPETO A LA LIBERTAD RELIGIOSA. LAS OPCIONES EDUCATIVAS QUE EL PATRONATO ELIJA ESTARÁN INSPIRADAS EN EL SERVICIO DESINTERESADO A LOS ALUMNOS, POR LO QUE SE PREFERIRÁN ENSEÑANZAS GRATUITAS O EN RÉGIMEN DE CONCIERTO CON LA ADMINISTRACIÓN EDUCATIVA, Y, EN TODO CASO, EVITANDO CUALQUIER TIPO DE ELITISMO O APARIENCIA DE BENEFICIO ECONÓMICO. ADEMÁS DE LAS ACTIVIDADES RELACIONADAS EN EL NÚMERO 2 DE ESTE ARTÍCULO, LA FUNDACIÓN, SIEMPRE QUE EL PATRONATO LO ESTIME CONVENIENTE, PODRÁ DESARROLLAR ACTIVIDADE CULTURALES Y FORMATIVAS O DE NATURALEZA SOCIAL DENTRO DE SU ÁMBITO TERRITORIAL DE ACTUACIÓN, AMPARADAS E INSPIRADAS EN LOS CRITERIOS DE LA IGLESIA CATÓLICA Y SIGUIENDO LA ORIENTACIÓN QUE EN LA MATERIA PROPONGA LA DIÓCESIS DE BILBAO Y SU JERARQUÍA ECLESIÁSTICA. EN LO QUE SE REFIERE A LA FORMACIÓN PROFESIONAL, LA FUNDACIÓN BUSCARÁ CAPACITAR EL ALUMNO CON UNA FORMACIÓN ACORDE A LAS NECESIDADES QUE EL SECTOR EMPRESARIAL DEMANDA EN CADA MOMENTO Y AYUDAR A LA INSERCIÓN LABORAL DE LOS ALUMNOS. LA FUNDACIÓN SOLICITARÁ LA PARTICIPACIÓN SOLIDARIA DE TODOS LOS INTEGRANTES DE LA COMUNIDAD EDUCATIVA EN LA GESTIÓN DE LA TAREA DOCENTE EN LOS ASPECTOS QUE IMPONGA LA LEGISLACIÓN CIVIL, Y, TAMBIÉN EN AQUELLOS QUE SE DERIVEN DE SU CONDICIÓN DE \"ESCUELA CATÓLICA\", Y ESPECIALMENTE EN LO QUE SE REFIERE A LA DENOMINADA \"PASTORAL EDUCATIVA\". LA FUNDACIÓN, DADA SU NATURALEZA CANÓNICA Y CARÁCTER DIOCESANO, COLABORARÁ SOLIDARIAMENTE CON LOS DEMÁS CENTROS DOCENTES DE LA DIÓCESIS DE BILBAO TANTO EN LOS ASPECTOS DE PASTORAL EDUCATIVA, COMO EN LOS ASPECTOS ECONÓMICOS O DE PROFESORADO. CADA UNO DE LOS CENTROS DE LA FUNDACIÓN DISPONDRÁ DE CAPILLA O LUGAR DE CULTO APROPIADOS PARA LA CELEBRACIÓN DE ACTOS RELIGIOSOS DE CULTO",
      "mainEntityOfPage": "https://www.contratacion.euskadi.eus/webkpe00-kperoc/es/ac71aBusquedaRegistrosWar/empresa/06090",
      "_links": {
        "self": {
          "name": "CENTRO DE FORMACION SOMORROSTRO",
          "href": "https://api.euskadi.eus/procurements/companies/06090"
        }
      }
    },
    {
      "name": "GLOBAL ROSETTA, S.L.",
      "registrationNumber": "05513",
      "identificationNumber": "B86867710",
      "address": "VÍA DE LOS POBLADOS, 1, EDIFICIO C Y D, 2º PLANTA.",
      "location": {
        "postalCode": "28033",
        "municipality": "Madrid",
        "county": "Madrid",
        "municipalityId": "079",
        "countyId": "28"
      },
      "economicActivities": [
        {
          "id": "1.615.4",
          "name": "Venta al por mayor de aparatos y material radioeléctrico y electrónico",
          "_links": {
            "self": {
              "name": "Venta al por mayor de aparatos y material radioeléctrico y electrónico",
              "href": "https://api.euskadi.eus/procurements/companies/economic-activities/1.615.4"
            }
          }
        },
        {
          "id": "1.845",
          "name": "Explotación electrónica por cuenta de terceros",
          "_links": {
            "self": {
              "name": "Explotación electrónica por cuenta de terceros",
              "href": "https://api.euskadi.eus/procurements/companies/economic-activities/1.845"
            }
          }
        }
      ],
      "certificateStartDate": "2019-02-27",
      "certificateEndDate": "2019-07-08",
      "object": "LA PRODUCCIÓN, DESARROLLO, SEGUIMIENTO, GESTIÓN, INTEGRACIÓN, FORMACIÓN, SOPORTE, COMERCIALIZACIÓN Y DISTRIBUCIÓN DE SERVICIOS, HERRAMIENTAS Y PRODUCTOS EN EL CAMPO DE LOS SISTEMAS DE INFORMACIÓN Y LAS COMUNICACIONES. LA REALIZACIÓN DE CUALQUIER SERVICIO DE CONSULTORÍA TÉCNICA DE NEGOCIO, DE SISTEMAS Y ESTRATÉGICA TENDENTE A LA IMPLANTACIÓN DE SISTEMAS INFORMÁTICOS. PLANIFICACIÓN, ANÁLISIS, DISEÑO, DESARROLLO, CONSTRUCCIÓN E IMPLANTACIÓN, PRUEBAS, MANTENIMIENTO Y OPERACIÓN DE SISTEMAS DE INFORMACIÓN (TANTO PROGRMAS COMO APLICACIONES INFORMÁTICAS) E INFRAESTRUCTURAS DE TELECOMUNICACIONES, MEDIANTE USO DE TECNOLOGÍAS DE LA INFORMACIÓN. SERVICIOS DE CONSULTORÍA DE TECNOLOGÍAS DE LA INFORMACIÓN Y PROCESOS DE NEGOCIO Y ADMINISTRATIVOS, INCLUYENDO LA GESTIÓN DE CALIDAD",
      "mainEntityOfPage": "https://www.contratacion.euskadi.eus/webkpe00-kperoc/es/ac71aBusquedaRegistrosWar/empresa/05513",
      "_links": {
        "self": {
          "name": "GLOBAL ROSETTA, S.L.",
          "href": "https://api.euskadi.eus/procurements/companies/05513"
        }
      }
    },
    {
      "name": "CONSTRUCCIONES RODRIGUEZ ULLOA S.L.",
      "registrationNumber": "06087",
      "identificationNumber": "B95871125",
      "address": "PARROCO VICENTE ZABALA 8 5C",
      "location": {
        "postalCode": "48013",
        "municipality": "Bilbao",
        "county": "Bizkaia",
        "municipalityId": "020",
        "countyId": "48"
      },
      "economicActivities": [
        {
          "id": "1.501.3",
          "name": "Albañilería y pequeños trabajos de construcción en general",
          "_links": {
            "self": {
              "name": "Albañilería y pequeños trabajos de construcción en general",
              "href": "https://api.euskadi.eus/procurements/companies/economic-activities/1.501.3"
            }
          }
        }
      ],
      "certificateStartDate": "2019-02-25",
      "certificateEndDate": "2019-07-30",
      "object": "1.- EL ESTUDIO, PROYECCIÓN, DIRECCIÓN, EJECUCIÓN, CONSTRUCCIÓN, REPARACIÓN Y REHABILITACIÓN DE EDIFICACIONES URBANAS, RÚSTICAS, OBRAS DE ALBAÑILERÍA, MOVIMIENTO DE TIERRAS, EXCAVACIONES, DEMOLICIONES Y ACTIVIDADES RELACIONADAS CON LA CONSTRUCCIÓN. 2.- ADQUIRIR, ENAJENAR Y ARRENDAR BIENES INMUEBLES (CONCRETAMENTE LOS DETERMINADOS EN EL ARTÍCULO 334.1 DEL CÓDIGO CIVIL), ACCIONES PARTICIPACIONES SOCIALES, OBLIGACIONES, BONOS DE CAJA, CERTIFICACOS DE DEPÓSITO Y PAGARÉS DE TODA CLASE DE EMPRESAS O NEGOCIOS",
      "mainEntityOfPage": "https://www.contratacion.euskadi.eus/webkpe00-kperoc/es/ac71aBusquedaRegistrosWar/empresa/06087",
      "_links": {
        "self": {
          "name": "CONSTRUCCIONES RODRIGUEZ ULLOA S.L.",
          "href": "https://api.euskadi.eus/procurements/companies/06087"
        }
      }
    },
    {
      "name": "AMAIA BALLESTEROS LOPEZ",
      "registrationNumber": "06081",
      "identificationNumber": "72392273A",
      "address": "C/ JOSE RUFINO OLASO, 36 - 4º DCHA.",
      "location": {
        "postalCode": "48510",
        "municipality": "Valle de Trápaga-Trapagaran",
        "county": "Bizkaia",
        "municipalityId": "080",
        "countyId": "48"
      },
      "economicActivities": [
        {
          "id": "2.224",
          "name": "Dibujantes técnicos",
          "_links": {
            "self": {
              "name": "Dibujantes técnicos",
              "href": "https://api.euskadi.eus/procurements/companies/economic-activities/2.224"
            }
          }
        }
      ],
      "certificateStartDate": "2019-02-22",
      "certificateEndDate": "2019-06-04",
      "object": "DIBUJANTES TECNICOS",
      "mainEntityOfPage": "https://www.contratacion.euskadi.eus/webkpe00-kperoc/es/ac71aBusquedaRegistrosWar/empresa/06081",
      "_links": {
        "self": {
          "name": "AMAIA BALLESTEROS LOPEZ",
          "href": "https://api.euskadi.eus/procurements/companies/06081"
        }
      }
    },
    {
      "name": "NURIA BELTRAN DE GUEVARA GALDÓS",
      "registrationNumber": "06082",
      "identificationNumber": "16284862B",
      "address": "FUEROS,29,1izda",
      "location": {
        "postalCode": "01005",
        "municipality": "Vitoria-Gasteiz",
        "county": "Araba/Álava",
        "municipalityId": "059",
        "countyId": "01"
      },
      "economicActivities": [
        {
          "id": "2.826",
          "name": "Personal docente de enseñanzas diversas",
          "_links": {
            "self": {
              "name": "Personal docente de enseñanzas diversas",
              "href": "https://api.euskadi.eus/procurements/companies/economic-activities/2.826"
            }
          }
        }
      ],
      "certificateStartDate": "2019-02-22",
      "certificateEndDate": "2019-08-16",
      "object": "PERSONAL DOCENTE DE ENSEÑANZAS DIVERSAS",
      "mainEntityOfPage": "https://www.contratacion.euskadi.eus/webkpe00-kperoc/es/ac71aBusquedaRegistrosWar/empresa/06082",
      "_links": {
        "self": {
          "name": "NURIA BELTRAN DE GUEVARA GALDÓS",
          "href": "https://api.euskadi.eus/procurements/companies/06082"
        }
      }
    }
  ]
}