{
  "totalItems": 9042,
  "totalPages": 905,
  "currentPage": 680,
  "itemsOfPage": 10,
  "items": [
    {
      "name": "LASER AUDIOVISUALES, S.L.",
      "registrationNumber": "03262",
      "identificationNumber": "B20741526",
      "address": "FERNANDO MÚGICA, 13- PLANTA 1ª. PAB. 5",
      "location": {
        "postalCode": "20018",
        "municipality": "Donostia / San Sebastián",
        "county": "Gipuzkoa",
        "municipalityId": "069",
        "countyId": "20"
      },
      "economicActivities": [
        {
          "id": "1.859",
          "name": "Alquiler de otros bienes muebles n.c.o.p. (sin personal permanente)",
          "_links": {
            "self": {
              "name": "Alquiler de otros bienes muebles n.c.o.p. (sin personal permanente)",
              "href": "https://api.euskadi.eus/procurements/companies/economic-activities/1.859"
            }
          }
        }
      ],
      "certificateStartDate": "2013-08-09",
      "certificateEndDate": "2007-02-16",
      "object": "ALQUILER E INSTALACIÓN DE MEDIOS AUDIOVISUALES",
      "mainEntityOfPage": "https://www.contratacion.euskadi.eus/webkpe00-kperoc/es/ac71aBusquedaRegistrosWar/empresa/03262",
      "_links": {
        "self": {
          "name": "LASER AUDIOVISUALES, S.L.",
          "href": "https://api.euskadi.eus/procurements/companies/03262"
        }
      }
    },
    {
      "name": "GUDAT, S.L.",
      "registrationNumber": "01640",
      "identificationNumber": "B20441416",
      "address": "C/ CAMINO DE ILLARRA, Nº 4.",
      "location": {
        "postalCode": "20009",
        "municipality": "Donostia / San Sebastián",
        "county": "Gipuzkoa",
        "municipalityId": "069",
        "countyId": "20"
      },
      "economicActivities": [
        {
          "id": "1.845",
          "name": "Explotación electrónica por cuenta de terceros",
          "_links": {
            "self": {
              "name": "Explotación electrónica por cuenta de terceros",
              "href": "https://api.euskadi.eus/procurements/companies/economic-activities/1.845"
            }
          }
        },
        {
          "id": "1.849.9",
          "name": "Otros servicios independientes n.c.o.p",
          "_links": {
            "self": {
              "name": "Otros servicios independientes n.c.o.p",
              "href": "https://api.euskadi.eus/procurements/companies/economic-activities/1.849.9"
            }
          }
        }
      ],
      "certificateStartDate": "2013-08-06",
      "certificateEndDate": "2014-01-19",
      "object": "LA GRABACIÓN, VERIFICACIÓN, CODIFICACIÓN Y PROCESO INFORMÁTICO DE DATOS, LA COMERCIALIZACIÓN DE PROGRAMAS INFORMÁTICOS, EL ASESORAMIENTO TÉCNICO COMPUTERIZADO, Y LA INVESTIGACIÓN DE NUEVOS SISTEMAS DE MECANIZACIÓN DE DATOS. LA GESTIÓN DOCUMENTAL INFORMATIZADA, LA CREACIÓN Y MANTENIMIENTO DE BASES DE DATOS DOCUMENTALES, EL TRATAMIENTO INFORMÁTICO DE ARCHIVOS, BIBLIOTECAS, ETC., LA CAPTURA DE DATOS Y DOCUMENTOS POR ESCANEO, DIGITALIZACIÓN, CAPTURA ÓPTICA O CUALQUIER OTRO SISTEMA. LA PRESTACIÓN DE SERVICIOS ADMINISTRATIVOS, DE FOTOCOPIAS, ATENCIÓN TELEFÓNICA, PROMOCIÓN COMERCIAL, CAMPAÑAS PUBLICITARIAS, TELEMARKETING, INVENTARIOS DE FONDOS DOCUMENTALES, SEGUIMIENTO DE ACTIVIDADES CULTURALES, CERTÁMENES LITERARIOS, TRANSCRIPCIÓN MECANOGRÁFICA Y MAGNETOFÓNICA, Y SIMILARES. LA DISTRIBUCIÓN, COMERCIALIZACIÓN Y MANTENIMIENTO DE EQUIPOS Y PROGRAMAS INFORMÁTICOS. LOS SERVICIOS AUXILIARES DERIVADOS DE REDES INFORMÁTICAS DE TELECOMUNICACIÓN, COMO MAILINGS ELECTRÓNICOS, ATENCIÓN DE DEMANDAS Y SOLICITUDES, LA CAPTURA Y EMISIÓN, EL DISEÑO E IMPLANTACIÓN DE PÁGINAS WEB O DE OTRO TIPO, Y SIMILARES. ACTIVIDADES ECONÓMICAS QUE SERVIRÁN DE MEDIO PARA LA INTEGRACIÓN LABORAL Y SOCIAL DE PERSONAS AFECTADAS POR UNA MINUSVALÍA",
      "mainEntityOfPage": "https://www.contratacion.euskadi.eus/webkpe00-kperoc/es/ac71aBusquedaRegistrosWar/empresa/01640",
      "_links": {
        "self": {
          "name": "GUDAT, S.L.",
          "href": "https://api.euskadi.eus/procurements/companies/01640"
        }
      }
    },
    {
      "name": "ASFALTOS DEBA, S.A.",
      "registrationNumber": "04293",
      "identificationNumber": "A75016709",
      "address": "POLÍGONO INDUSTRIAL  ITZIAR 10, BAJO 3",
      "location": {
        "postalCode": "20820",
        "municipality": "Deba",
        "county": "Gipuzkoa",
        "municipalityId": "029",
        "countyId": "20"
      },
      "economicActivities": [
        {
          "id": "1.502.4",
          "name": "Cimentaciones y pavimentaciones para la construcción de edificaciones",
          "_links": {
            "self": {
              "name": "Cimentaciones y pavimentaciones para la construcción de edificaciones",
              "href": "https://api.euskadi.eus/procurements/companies/economic-activities/1.502.4"
            }
          }
        },
        {
          "id": "1.502.5",
          "name": "Cimentaciones y pavimentaciones en obras civiles",
          "_links": {
            "self": {
              "name": "Cimentaciones y pavimentaciones en obras civiles",
              "href": "https://api.euskadi.eus/procurements/companies/economic-activities/1.502.5"
            }
          }
        },
        {
          "id": "1.843.1",
          "name": "Servicios técnicos de ingeniería",
          "_links": {
            "self": {
              "name": "Servicios técnicos de ingeniería",
              "href": "https://api.euskadi.eus/procurements/companies/economic-activities/1.843.1"
            }
          }
        }
      ],
      "certificateStartDate": "2013-08-02",
      "certificateEndDate": "2014-01-22",
      "object": "- EXPLOTACIÓN DE PLANTAS DE AGLOMERADO Y ASFÁLTICO Y DE HORMIGONES, ASÍ COMO LA ADQUISICIÓN, EXPLOTACIÓN Y REHABILITACIÓN DE CUALQUIER TIPO DE CANTERA.\r\n\r\n- LA FABRICACIÓN, EXTENDIDO Y COLOCACIÓN DE PRODUCTOS ASFÁLTICOS Y SUS DERIVADOS, ASÍ COMO LA VENTA DE LOS MISMOS; COMERCIALIZACIÓN DE PRODUCTOS INDUSTRIALES; LA PROMOCIÓN, CONTRATACIÓN Y REALIZACIÓN DE TODO TIPO DE OBRAS; LA CONSERVACIÓN, REPARACIÓN, MANTENIMIENTO O EXPLOTACIÓN DE VIALES E INFRAESTRUCTURAS, AUTOPISTAS, CARRETERAS, VÍAS Y  FERROCARRILES, ETC ...; LA EJECUCIÓN Y MANTENIMIENTO DE INSTALACIONES ELÉCTRICAS; LA CONSTRUCCIÓN Y GESTIÓN DE REDES DE ABASTECIMIENTOS DE AGUAS; LA REALIZACIÓN DE TODA CLASE DE INFORMES, ESTUDIOS Y PROYECTOS TÉCNICOS; LA GESTIÓN Y EXPLOTACIÓN DE SOLARES.\r\n\r\n\r\n- EL TRATAMIENTO Y GESTIÓN DE RESIDUOS DE TODO TIPO",
      "mainEntityOfPage": "https://www.contratacion.euskadi.eus/webkpe00-kperoc/es/ac71aBusquedaRegistrosWar/empresa/04293",
      "_links": {
        "self": {
          "name": "ASFALTOS DEBA, S.A.",
          "href": "https://api.euskadi.eus/procurements/companies/04293"
        }
      }
    },
    {
      "name": "CL SERVICIO URBANO IN SUITAL, S.L.",
      "registrationNumber": "04484",
      "identificationNumber": "B20459996",
      "address": "PLAZA GRAL. LATORRE 2, BAJO",
      "location": {
        "postalCode": "48012",
        "municipality": "Bilbao",
        "county": "Bizkaia",
        "municipalityId": "020",
        "countyId": "48"
      },
      "economicActivities": [
        {
          "id": "1.721.2",
          "name": "Transporte por autotaxis",
          "_links": {
            "self": {
              "name": "Transporte por autotaxis",
              "href": "https://api.euskadi.eus/procurements/companies/economic-activities/1.721.2"
            }
          }
        }
      ],
      "certificateStartDate": "2013-08-02",
      "certificateEndDate": "2014-01-12",
      "object": "EL TRANSPORTE DE VIAJEROS Y CARGA EN TODA CLASE DE VEHÍCULOS Y MODALIDADES TANTO AUTOBUSES, CAMIONES, TAXIS COMO COCHES DE ALQUILER ",
      "mainEntityOfPage": "https://www.contratacion.euskadi.eus/webkpe00-kperoc/es/ac71aBusquedaRegistrosWar/empresa/04484",
      "_links": {
        "self": {
          "name": "CL SERVICIO URBANO IN SUITAL, S.L.",
          "href": "https://api.euskadi.eus/procurements/companies/04484"
        }
      }
    },
    {
      "name": "TÉCNICOS CONSTRUCTORES DEL NORTE, S.A. (TECONOR, S.A.)",
      "registrationNumber": "01276",
      "identificationNumber": "A48119127",
      "address": "C/ MUELLE TOMÁS OLABARRI, Nº 9 - BAJO 7.",
      "location": {
        "postalCode": "48930",
        "municipality": "Getxo",
        "county": "Bizkaia",
        "municipalityId": "044",
        "countyId": "48"
      },
      "economicActivities": [
        {
          "id": "1.501.1",
          "name": "Construcción completa, reparación y conservación de edificaciones",
          "_links": {
            "self": {
              "name": "Construcción completa, reparación y conservación de edificaciones",
              "href": "https://api.euskadi.eus/procurements/companies/economic-activities/1.501.1"
            }
          }
        },
        {
          "id": "1.501.2",
          "name": "Construcción completa, reparación y conservación obras civiles",
          "_links": {
            "self": {
              "name": "Construcción completa, reparación y conservación obras civiles",
              "href": "https://api.euskadi.eus/procurements/companies/economic-activities/1.501.2"
            }
          }
        }
      ],
      "certificateStartDate": "2013-07-29",
      "certificateEndDate": "2014-01-29",
      "object": "LA CONSTRUCCIÓN, PROMOCIÓN, VENTA Y EXPLOTACIÓN EN ARRENDAMIENTO DE \"VIVIENDAS DE PROTECCIÓN OFICIAL\". LA PROMOCIÓN, VENTA, ALQUILER Y EJECUCIÓN COMPLETA O POR RAMOS, DE TODA CLASE DE OBRAS EN CONSTRUCCIÓN, POR CUENTA PROPIA O AJENA. LA URBANIZACIÓN Y PARCELACIÓN DE TERRENOS, CONFORME A LOS PLANOS DE ORDENACIÓN URBANÍSTICA, APROBADOS POR LAS AUTORIDADES COMPETENTES EN LOS POLÍGONOS Y ZONAS DE ACTUACIÓN QUE AL EFECTO SEAN DESIGNADOS, Y LA REPARCELACIÓN DE DICHOS TERRENOS URBANIZADOS, Y EN SU CASO EDIFICACIÓN Y VENTA DE LOS MISMOS, O DE LAS EDIFICACIONES Y OBRAS DE URBANIZACIÓN Y SERVICIOS, A CUYO OBJETO PODRÁ FORMAR PARTE DE ASOCIACIONES DE PROPIETARIOS, EMPRESAS MIXTAS Y ENTIDADES URBANÍSTICAS, COLABORADORAS QUE PUEDAN REGLAMENTARSE A LOS EXPRESADOS FINES. LA COMPRAVENTA Y ALQUILER DE EDIFICACIONES EN SU TOTALIDAD, O POR PARTES O POR PISOS, BIEN PARA VIVIENDAS O PARA LOCALES DE OFICINA, DE NEGOCIO O INDUSTRIALES CONSTRUIDOS PARA TAL FIN DIRECTAMENTE O POR MEDIO DE CONTRATISTAS, SUBCONTRATISTAS Y DESTAJISTAS, O BIEN ADQUIRIDAS YA CONSTRUIDAS O EN CONSTRUCCIÓN, COMPRA, VENTA, ALQUILER DE TERRENOS RÚSTICOS Y URBANOS. LA FABRICACIÓN Y VENTA AL POR MAYOR Y MENOR DE TODA CLASE DE MATERIALES AUXILIARES O ANEJO PARA LA CONSTRUCCIÓN CON PATENTES PROPIAS O AJENAS, NACIONALES O EXTRANJERAS, ASÍ COMO LA EXPLOTACIÓN DE CANTERAS ESCOMBRERAS Y MINAS. LA REPRESENTACIÓN DE EMPRESAS NACIONALES O EXTRANJERAS, PRODUCTORAS DE ARTÍCULOS Y MERCANCÍAS A QUE SE REFIERE EL APARTADO ANTERIOR, ASÍ COMO SU IMPORTACIÓN Y EXPLOTACIÓN. LA EXPLOTACIÓN DE MERCADOS, BIEN LIBREMENTE SI LAS LEYES LO PERMITEN O POR CONCESIÓN ADMINISTRATIVA DE LOS MUNICIPIOS. PARA LA REALIZACIÓN DEL OBJETO SOCIAL TENDRÁ LA SOCIEDAD PLENA CAPACIDAD JURÍDICA, PUDIENDO POR CONSIGUIENTE REALIZAR ACTOS Y FORMALIZAR CONTRATOS DE CUALQUIER ÍNDOLE CIVIL O MERCANTIL, INCLUSO NEGOCIOS DE ADQUISICIÓN, GRAVÁMEN Y DISPOSICIÓN DE CUALQUIER CLASE DE NATURALEZA. REALIZAR CUALQUIER OTRA ACTIVIDAD DE LÍCITO COMERCIO QUE ACUERDE LA JUNTA GENERAL, PREVIO CUMPLIMIENTO DE LAS FORMALIDADES LEGALES",
      "mainEntityOfPage": "https://www.contratacion.euskadi.eus/webkpe00-kperoc/es/ac71aBusquedaRegistrosWar/empresa/01276",
      "_links": {
        "self": {
          "name": "TÉCNICOS CONSTRUCTORES DEL NORTE, S.A. (TECONOR, S.A.)",
          "href": "https://api.euskadi.eus/procurements/companies/01276"
        }
      }
    },
    {
      "name": "C. FLORES Y PLANTAS, S.L.",
      "registrationNumber": "02541",
      "identificationNumber": "B48194336",
      "address": "BARRIO ASTOLA, 4",
      "location": {
        "postalCode": "48220",
        "municipality": "Abadiño",
        "county": "Bizkaia",
        "municipalityId": "001",
        "countyId": "48"
      },
      "economicActivities": [
        {
          "id": "1.501.2",
          "name": "Construcción completa, reparación y conservación obras civiles",
          "_links": {
            "self": {
              "name": "Construcción completa, reparación y conservación obras civiles",
              "href": "https://api.euskadi.eus/procurements/companies/economic-activities/1.501.2"
            }
          }
        },
        {
          "id": "1.612.2",
          "name": "Venta al por mayor de cereales",
          "_links": {
            "self": {
              "name": "Venta al por mayor de cereales",
              "href": "https://api.euskadi.eus/procurements/companies/economic-activities/1.612.2"
            }
          }
        },
        {
          "id": "1.911",
          "name": "Servicios agrícolas y ganaderos",
          "_links": {
            "self": {
              "name": "Servicios agrícolas y ganaderos",
              "href": "https://api.euskadi.eus/procurements/companies/economic-activities/1.911"
            }
          }
        }
      ],
      "certificateStartDate": "2013-07-29",
      "certificateEndDate": "2014-01-26",
      "object": "LA REALIZACIÓN DE ACTIVIDADES PROPIAS O RELACIONADAS CON LA EXPLOTACIÓN DE VIVEROS, ARBORICULTURA, JARDINERÍA Y ESPACIOS VERDES, ASÍ COMO LOS SERVICIOS DE ASISTENCIA Y MANTENIMIENTO.\r\nLA CONSTRUCCIÓN, CONSERVACIÓN Y REPARACIÓN DE TODA CLASE DE OBRAS CIVILES, DE EDIFICACIÓN, DE INSTALACIONES MECÁNICAS E INSTALACIONES ELÉCTRICAS. ESTAS ACTIVIDADES TAMBIÉN PODRÁN SER DESARROLLADAS DE MODO INDIRECTO, MEDIANTE LA PARTICIPACIÓN EN SOCIEDADES CON ANÁLOGO OBJETO ",
      "mainEntityOfPage": "https://www.contratacion.euskadi.eus/webkpe00-kperoc/es/ac71aBusquedaRegistrosWar/empresa/02541",
      "_links": {
        "self": {
          "name": "C. FLORES Y PLANTAS, S.L.",
          "href": "https://api.euskadi.eus/procurements/companies/02541"
        }
      }
    },
    {
      "name": "DECONOR, S.A.",
      "registrationNumber": "02760",
      "identificationNumber": "A48215024",
      "address": "POL. IND. ARTEAGOITI,15- PAB.8",
      "location": {
        "postalCode": "48970",
        "municipality": "Basauri",
        "county": "Bizkaia",
        "municipalityId": "015",
        "countyId": "48"
      },
      "economicActivities": [
        {
          "id": "1.501.1",
          "name": "Construcción completa, reparación y conservación de edificaciones",
          "_links": {
            "self": {
              "name": "Construcción completa, reparación y conservación de edificaciones",
              "href": "https://api.euskadi.eus/procurements/companies/economic-activities/1.501.1"
            }
          }
        },
        {
          "id": "1.501.3",
          "name": "Albañilería y pequeños trabajos de construcción en general",
          "_links": {
            "self": {
              "name": "Albañilería y pequeños trabajos de construcción en general",
              "href": "https://api.euskadi.eus/procurements/companies/economic-activities/1.501.3"
            }
          }
        }
      ],
      "certificateStartDate": "2013-07-29",
      "certificateEndDate": "2014-01-16",
      "object": "LA EJECUCIÓN COMPLETA O POR TRAMOS DE TODA CLASE DE OBRAS DE CONSTRUCCIÓN, REPARACIÓN O CONSERVACIÓN, POR CUENTA PROPIA O AJENA; LA REALIZACIÓN DE TODO TIPO DE OBRAS DE ALBAÑILERÍA, LA COMPRA-VENTA DE TODA CLASE DE MATERIALES AUXILIARES O ANEJOS PARA  LA CONSTRUCCIÓN, ARTÍCULOS DE DECORACIÓN Y SIMILARES",
      "mainEntityOfPage": "https://www.contratacion.euskadi.eus/webkpe00-kperoc/es/ac71aBusquedaRegistrosWar/empresa/02760",
      "_links": {
        "self": {
          "name": "DECONOR, S.A.",
          "href": "https://api.euskadi.eus/procurements/companies/02760"
        }
      }
    },
    {
      "name": "AUTOPULLMAN  DISCRECIONALES, S.A.",
      "registrationNumber": "03878",
      "identificationNumber": "A01103548",
      "address": "C/ ARATZ 26-28",
      "location": {
        "postalCode": "01006",
        "municipality": "Vitoria-Gasteiz",
        "county": "Araba/Álava",
        "municipalityId": "059",
        "countyId": "01"
      },
      "economicActivities": [
        {
          "id": "1.721.3",
          "name": "Transporte de viajeros por carretera",
          "_links": {
            "self": {
              "name": "Transporte de viajeros por carretera",
              "href": "https://api.euskadi.eus/procurements/companies/economic-activities/1.721.3"
            }
          }
        }
      ],
      "certificateStartDate": "2013-07-26",
      "certificateEndDate": "2014-01-15",
      "object": "LA EXPLOTACIÓN DE ESCUELAS PARA EL APRENDIZAJE DE CONDUCTORES DE VEHÍCULOS A MOTOR, TRANSPORTE DE VIAJEROS POR CARRETERA",
      "mainEntityOfPage": "https://www.contratacion.euskadi.eus/webkpe00-kperoc/es/ac71aBusquedaRegistrosWar/empresa/03878",
      "_links": {
        "self": {
          "name": "AUTOPULLMAN  DISCRECIONALES, S.A.",
          "href": "https://api.euskadi.eus/procurements/companies/03878"
        }
      }
    },
    {
      "name": "NIN CLIMATIZACIÓN, S.L.",
      "registrationNumber": "03980",
      "identificationNumber": "B20085122",
      "address": "MISERICORDIA, 4 bajo",
      "location": {
        "postalCode": "20001",
        "municipality": "Donostia / San Sebastián",
        "county": "Gipuzkoa",
        "municipalityId": "069",
        "countyId": "20"
      },
      "economicActivities": [
        {
          "id": "1.504.3",
          "name": "Instalaciones de frío, calor y acondicionamiento de aire",
          "_links": {
            "self": {
              "name": "Instalaciones de frío, calor y acondicionamiento de aire",
              "href": "https://api.euskadi.eus/procurements/companies/economic-activities/1.504.3"
            }
          }
        }
      ],
      "certificateStartDate": "2013-07-23",
      "certificateEndDate": "2014-01-15",
      "object": "LAVENTA AL POR MAYOR Y POR MENOR DE APARATOS ELÉCTRICOS E INSTALACIONES DE FRÍO Y CALOR EN GENERAL. SIEMPRE QUE QUEDE ENCUADRADA DENTRO DEL TIPO CONTRIBUTIVO AL QUE PERTENECE, LA SOCIEDAD PODRÁ CONCERTAR COLABORACIONES O LICENCIAS NACIONALES O EXTRANJERAS, RELACIONADAS CON LA ACTIVIDAD DE LAMISMA, ASÍ COMO CON TRAS SOCIEDADES",
      "mainEntityOfPage": "https://www.contratacion.euskadi.eus/webkpe00-kperoc/es/ac71aBusquedaRegistrosWar/empresa/03980",
      "_links": {
        "self": {
          "name": "NIN CLIMATIZACIÓN, S.L.",
          "href": "https://api.euskadi.eus/procurements/companies/03980"
        }
      }
    },
    {
      "name": "URBANIA ZH GESTIÓN, S.L.",
      "registrationNumber": "04927",
      "identificationNumber": "B95688743",
      "address": "C/ Rodriguez Arias, 5-5º centro",
      "location": {
        "postalCode": "48008",
        "municipality": "Bilbao",
        "county": "Bizkaia",
        "municipalityId": "020",
        "countyId": "48"
      },
      "economicActivities": [
        {
          "id": "1.833.2",
          "name": "Promoción de edificaciones",
          "_links": {
            "self": {
              "name": "Promoción de edificaciones",
              "href": "https://api.euskadi.eus/procurements/companies/economic-activities/1.833.2"
            }
          }
        },
        {
          "id": "1.847",
          "name": "Servicios de consultoría",
          "_links": {
            "self": {
              "name": "Servicios de consultoría",
              "href": "https://api.euskadi.eus/procurements/companies/economic-activities/1.847"
            }
          }
        },
        {
          "id": "1.849.7",
          "name": "Servicios de gestión administrativa",
          "_links": {
            "self": {
              "name": "Servicios de gestión administrativa",
              "href": "https://api.euskadi.eus/procurements/companies/economic-activities/1.849.7"
            }
          }
        },
        {
          "id": "1.922",
          "name": "Servicios de limpieza",
          "_links": {
            "self": {
              "name": "Servicios de limpieza",
              "href": "https://api.euskadi.eus/procurements/companies/economic-activities/1.922"
            }
          }
        },
        {
          "id": "1.932.1",
          "name": "Enseñanza de formación y perfeccionamiento profesional no superior",
          "_links": {
            "self": {
              "name": "Enseñanza de formación y perfeccionamiento profesional no superior",
              "href": "https://api.euskadi.eus/procurements/companies/economic-activities/1.932.1"
            }
          }
        },
        {
          "id": "1.951",
          "name": "Asistencia y servicios sociales en centros residenciales",
          "_links": {
            "self": {
              "name": "Asistencia y servicios sociales en centros residenciales",
              "href": "https://api.euskadi.eus/procurements/companies/economic-activities/1.951"
            }
          }
        },
        {
          "id": "1.952",
          "name": "Asistencia y servicios sociales en centros no residenciales",
          "_links": {
            "self": {
              "name": "Asistencia y servicios sociales en centros no residenciales",
              "href": "https://api.euskadi.eus/procurements/companies/economic-activities/1.952"
            }
          }
        }
      ],
      "certificateStartDate": "2013-07-23",
      "certificateEndDate": "2014-01-05",
      "object": "GESTIÓN Y ASESORAMIENTO TÉCNICO, ECONÓMICO, LEGAL, FINANCIERO, ADMINISTRATIVO, ORGANIZATIVO E INFORMÁTICO EN SU MÁS AMPLIO SENTIDO, TANTO A PERSONAS FÍSICAS COMO JURÍDICAS, PÚBLICAS O PRIVADAS, ESTANDO ESTAS VÁLIDAMENTE CONSTITUIDAS O EN FASE DE CONSTITUCIÓN. ASESORAMIENTO, CONSITUCIÓN, GESTIÓN Y DIRECCÓN DE CUALQUIER FORMA ORGANIZATIVA DE PERSONAS, PÚBLICAS O PRIVADAS, PERMITIDA EN DERECHO. DESARROLLO Y APLICACIÓN DE SISTEMAS DE GESTIÓN. PRESTACIÓN DE SERVICIOS DE ESTUDIO, ASISTENCIA Y ASESORAMIENTO EN LA GESTIÓN Y DESARROLLO DE CONTRATOS DE SERVICIOS A ENTIDADES PÚBLICAS O PRIVADAS. ASESORAMIENTO Y GESTIÓN DE AYUDAS Y SUBVENCIONES. SERVICIOS DE CONSULTORÍA, ASESORAMIENTO E INFORMACION TANTO A PERSONAS FÍSICAS COMO JURÍDICAS, PÚBLICAS O PRIVADAS, COMPRENDIENDO TODO TIPO DE GESTIÓN, TRAMITACIÓN Y OBTENCIÓN TANTO DE FINANCIACIÓN PÚBLICA COMO PRIVADA. ASESORAMIENTO A LAS ADMINISTRACIONES PÚBLICAS EN LA DEFINICIÓN ESTRATÉGICA, EJECUCIÓN Y EVALUACIÓN DE SUS POLÍTICAS PÚBLICAS. ORGANIZACIÓN E IMPARTICIÓN DE TODO TIPO DE CURSOS Y PROGRAMAS DE ENSEÑANZA Y FORMACIÓN. LOS TRABAJOS INHERENTES A LA ORGANIZACIÓN Y PROMOCIÓN DE CONGRESOS, FERIAS, EXPOSICIONES Y OTROS EVENTOS. EXPLOTACIÓN Y GESTIÓN, TOTAL O PARCIAL, DE TODO TIPO DE SERVICIOS SOCIALES, SANITARIOS, EDUCATIVOS Y DE OCIO, ASÍ COMO LOS AUXILIARES (TRANSPORTE, RESTAURACIÓN, APROVISIONAMIENTO, ETC.) VINCULADOS A ESTOS, TANTO PÚBLICOS COMO PRIVADOS. EXPLOTACIÓN Y GESTIÓN, TOTAL O PARCIAL, DE INSTALACIONES DEPORTIVAS, DE OCIO Y RECREO, CULTURALES, EDUCATIVAS, PARQUES TEMÁTICOS, APARCAMIENTOS, PARQUÍMETROS, TIENDAS, CENTROS COMERCIALES E INMUEBLES EN GENERAL, TANTO  PÚBLICOS COMO PRIVADOS. TRABAJOS DE ORGANIZACIÓN, ATENCIÓN Y EXPLOTACIÓN DE BIBLIOTECAS, ARCHIVOS Y MUSEOS, TANTO PÚBLICOS COMO PRIVADOS. SERVICIOS DE INFORMACIÓN E INFORMÁTICOS, ADMINISTRACIÓN Y GESTIÓN DE PATRIMONIO, MOBILIARIO E INMOBILIARIO, TANTO PÚBLICO COMO PRIVADO. SERVICIOS DE CAPTURA DE INFORMACIÓN POR MEDIOS ELECTRÓNICOS, INFORMÁTICOS Y TELEMÁTICOS. SERVICIO DE DESARROLLO Y MANTENIMIENTO DE PROGRAMAS INFORMÁTICOS, ASÍ COMO DE EQUIPOS E INSTALACIONES INFORMÁTICAS Y DE TELCOMUNICACIONES. SERVICIOS DE COMUNICACIÓN DE VOZ Y/O DATOS, ALQUILER DE CIRCUITOS PARA LATRANSMISIÓN DEVOZ Y/O DATOS, LA PROVISIÓN DE LOS MEDIOS TÉCNICOS Y HUMANOS NECESARIOS PARA QUE LOS USARIOS FINALES DE LAS REDES DE TELECOMUNICACIONES ACCEDAN Y TENGAN PRESENCIA EN INTERNET Y OTOS SERVICIOS DE VALOR AÑADIDO SOBRE REDES DE TELECOMUNICAIONES. TRABAJOS ASOCIADOS A LA PUESTA EN FUNCIONAMIENTO, EL SEGUIMIENTO, LA GESTIÓN Y CONTROL DE EQUIPOS Y SISTEMAS INFORMÁTICOS Y DE LAS INFRAESTRUCTURAS TELEMÁTICAS, NECESARIAS PARA LA ADECUADA EXPLOTACIÓN  DE PROGRAMAS Y APLICACIONES INFORMÁTICAS. TRABAJOS DE MANTENIMIENTO Y REPARACIÓN DE EQUIPOS Y MAQUINARIA DE OFICINA. TRABAJOS DE CONSERVACIÓN Y MANTENIMIENTO DE BANCOS, MESAS, PAPELERAS Y CUALQUIER TIPO DE ELEMENTO O CONSTRUCCIÓN QUE TENGA CARÁCTER DE MOBILIARIO URBANO. TRABAJOS DE CONSERVACIÓN Y MANTENIMIENTO DE EDIFICIOS. LOS TRABAJOS DE LIMPEZA DE EDIFICIOS, LOCALES, CALLES, VIALES, PISTAS, MONTES, JARDINES, PLAYAS Y ALCANTARILLAS. SERVICIOS AUXILIARES PARA TRABAJOS ADMINISTRATIVOS DE ARCHIVO Y SIMILARES, SERVICIO DE GESTIÓN DE COBROS, ENCUESTAS, TOMAS DE DATOS Y SERVICIOS ANÁLOGOS. RECAUDACIÓN, FACTURACIÓN Y LECTURA DE CONTADORES PRESTACIÓN DE SERVICIOS TÉCNICOS Y SU CONTRATACIÓN CON TODA CLASE DE PESONAS FÍSICAS Y JURÍDICAS, PÚBLICAS O PRIVADAS; PUDIENDO REALIZAR TODO TIPO DE GESTIÓN ADMINISTRATIVA O EMPRESARIAL. PRESTACIÓN DE SERVICIOS DE ASESORÍA, COMERCIALIZACIÓN, CONSULTORÍA Y VALORACIÓN EN MATERIA INMOBILIARIA. LA URBANIZACIÓN, COMPRAVENTA, COMERCIALIZACIÓN Y ARRENDAMIENTO DE TODO TIPO DE SUELOS E INMUEBLES. LA PROMOCIÓN DE EDIFICACIONES, DIRECTAMENTE O COMO MEDIADORA EN COMUNIDADES DE PROPIETARIOS, COOPERATIVAS U OTRAS FORMAS. LA CONSTRUCCIÓN DE TODO TIPO DE IMUEBLES DIRECTAMENTE O CONTRATANDO CON TERCEROS. LA REALIZACIÓN DE REFORMAS, REPARACIONES, REHABILITACIONES POR CUENTA PROPIA O AJENA DE BIENES INMUEBLES Y OTRAS EN GENERAL. LA EXPLOTACIÓN DE FINCAS URBANAS POR CUALQUIER MEDIO. LA GESTIÓN ENERGÉTICA DE VIVIENDAS, EDIFICIOS O GRUPOS DE LOS ANTERIORES. LOS SERVICIOS DE ASESORÍA Y GESTIÓN DE LA REGENERACIÓN URBANA IMPULSADA POR LAS ADMINISTRACIONES PÚBLICAS Y/O PROPIETARIOS PRIVADOS. LOS SERVICIOS DE ASESORÍA Y GESTIÓN EN MATERIA DE MOVILIDAD URBANA SOSTENIBLE",
      "mainEntityOfPage": "https://www.contratacion.euskadi.eus/webkpe00-kperoc/es/ac71aBusquedaRegistrosWar/empresa/04927",
      "_links": {
        "self": {
          "name": "URBANIA ZH GESTIÓN, S.L.",
          "href": "https://api.euskadi.eus/procurements/companies/04927"
        }
      }
    }
  ]
}