{
  "totalItems": 9042,
  "totalPages": 905,
  "currentPage": 176,
  "itemsOfPage": 10,
  "items": [
    {
      "name": "MERCK LIFE SCIENCE, S.L.",
      "registrationNumber": "06366",
      "identificationNumber": "B79184115",
      "address": "C/ María de Molina, 40",
      "location": {
        "postalCode": "28006",
        "municipality": "Madrid",
        "county": "Madrid",
        "municipalityId": "079",
        "countyId": "28"
      },
      "economicActivities": [
        {
          "id": "1.504.2",
          "name": "Instalaciones de fontanería",
          "_links": {
            "self": {
              "name": "Instalaciones de fontanería",
              "href": "https://api.euskadi.eus/procurements/companies/economic-activities/1.504.2"
            }
          }
        },
        {
          "id": "1.616.6",
          "name": "Venta al por mayor de productos químicos industriales",
          "_links": {
            "self": {
              "name": "Venta al por mayor de productos químicos industriales",
              "href": "https://api.euskadi.eus/procurements/companies/economic-activities/1.616.6"
            }
          }
        }
      ],
      "certificateStartDate": "2025-11-05",
      "certificateEndDate": "2026-05-05",
      "object": "A) DESARROLLAR, FABRICAR, DISTRIBUIR Y VENDER PRODUCTOS BIOQUÍMICOS, PRODUCTOS QUÍMICOS ORGÁNICOS, REAGENTES DIAGNÓSTICOS Y PRODUCTOS AFINES. B) INVESTIGAR, INVENTAR, PATENTAR, MODIFICAR Y COMERCIALIZAR PRODUCTOS QUÍMICOS; CONFECCIONAR, DISTRIBUIR Y COMERCIALIZAR FOLLETOS , PROSPECTOS, REVISTAS Y OTROS DOCUMENTOS O PUBLICACIONES CIENTÍFICAS O COMERCIALES SIMILARES. C) PROMOVER Y REALIZAR INVESTIGACIONES CIENTÍFICAS Y DESARROLLAR Y COMERCIALIZAR SUS RESULTADOS",
      "mainEntityOfPage": "https://www.contratacion.euskadi.eus/webkpe00-kperoc/es/ac71aBusquedaRegistrosWar/empresa/06366",
      "_links": {
        "self": {
          "name": "MERCK LIFE SCIENCE, S.L.",
          "href": "https://api.euskadi.eus/procurements/companies/06366"
        }
      }
    },
    {
      "name": "PROSELEC SEGURIDAD, S.A.",
      "registrationNumber": "03599",
      "identificationNumber": "A78623048",
      "address": "C/Ochandiano, 14",
      "location": {
        "postalCode": "28023",
        "municipality": "Madrid",
        "county": "Madrid",
        "municipalityId": "079",
        "countyId": "28"
      },
      "economicActivities": [
        {
          "id": "1.504.7",
          "name": "Instalaciones telefónicas, telegráficas, televisión, etc",
          "_links": {
            "self": {
              "name": "Instalaciones telefónicas, telegráficas, televisión, etc",
              "href": "https://api.euskadi.eus/procurements/companies/economic-activities/1.504.7"
            }
          }
        },
        {
          "id": "1.615.4",
          "name": "Venta al por mayor de aparatos y material radioeléctrico y electrónico",
          "_links": {
            "self": {
              "name": "Venta al por mayor de aparatos y material radioeléctrico y electrónico",
              "href": "https://api.euskadi.eus/procurements/companies/economic-activities/1.615.4"
            }
          }
        },
        {
          "id": "1.699",
          "name": "Otras reparaciones n.c.o.p",
          "_links": {
            "self": {
              "name": "Otras reparaciones n.c.o.p",
              "href": "https://api.euskadi.eus/procurements/companies/economic-activities/1.699"
            }
          }
        }
      ],
      "certificateStartDate": "2025-11-05",
      "certificateEndDate": "2026-05-05",
      "object": "LA SOCIEDAD TENDRÁ POR OBJETO ÚNICO Y EXCLUSIVO LA INSTALACIÓN Y MANTENIMIENTO DE APARATOS, DISPOSITIVOS Y SISTEMAS DE SEGURIDAD, ASÍ COMO DE CONTROL Y PREVENCIÓN DE INCENDIOS",
      "mainEntityOfPage": "https://www.contratacion.euskadi.eus/webkpe00-kperoc/es/ac71aBusquedaRegistrosWar/empresa/03599",
      "_links": {
        "self": {
          "name": "PROSELEC SEGURIDAD, S.A.",
          "href": "https://api.euskadi.eus/procurements/companies/03599"
        }
      }
    },
    {
      "name": "SOLUCIONES TECNOLOGICAS EPL, S.L.",
      "registrationNumber": "09933",
      "identificationNumber": "B90224437",
      "address": "CALLE GUAYAS 5",
      "location": {
        "postalCode": "41012",
        "municipality": "Sevilla",
        "county": "Sevilla",
        "municipalityId": "091",
        "countyId": "41"
      },
      "economicActivities": [
        {
          "id": "1.651.2",
          "name": "Venta al por menor de prendas de ropa para el vestido y tocado",
          "_links": {
            "self": {
              "name": "Venta al por menor de prendas de ropa para el vestido y tocado",
              "href": "https://api.euskadi.eus/procurements/companies/economic-activities/1.651.2"
            }
          }
        },
        {
          "id": "1.844",
          "name": "Servicios de publicidad, relaciones públicas y similares",
          "_links": {
            "self": {
              "name": "Servicios de publicidad, relaciones públicas y similares",
              "href": "https://api.euskadi.eus/procurements/companies/economic-activities/1.844"
            }
          }
        },
        {
          "id": "1.845",
          "name": "Explotación electrónica por cuenta de terceros",
          "_links": {
            "self": {
              "name": "Explotación electrónica por cuenta de terceros",
              "href": "https://api.euskadi.eus/procurements/companies/economic-activities/1.845"
            }
          }
        }
      ],
      "certificateStartDate": "2025-11-05",
      "certificateEndDate": "2026-05-05",
      "object": "EL DISEÑO ASISTIDO POR ORDENADOR, PUBLICIDAD DIGITAL, IMPLANTACIÓN Y DISEÑO DE SITIOS WEB, INVESTIGACIÓN Y DESARROLLO DE TECNOLOGÍAS A MEDIDA, INGENIERÍA DE SOFTWARE, Y CUALQUIER TIPO DE ACTIVIDAD RELACIONADA CON LA MICROINFORMÁTICA Y ASESORAMIENTO TECNOLÓGICO.",
      "mainEntityOfPage": "https://www.contratacion.euskadi.eus/webkpe00-kperoc/es/ac71aBusquedaRegistrosWar/empresa/09933",
      "_links": {
        "self": {
          "name": "SOLUCIONES TECNOLOGICAS EPL, S.L.",
          "href": "https://api.euskadi.eus/procurements/companies/09933"
        }
      }
    },
    {
      "name": "JOAL EXPRESS, S.L.",
      "registrationNumber": "10182",
      "identificationNumber": "B75621367",
      "address": "Polígono El Campillo II - Nave 4.2",
      "location": {
        "postalCode": "48500",
        "municipality": "Abanto y Ciérvana-Abanto Zierbena",
        "county": "Bizkaia",
        "municipalityId": "002",
        "countyId": "48"
      },
      "economicActivities": [
        {
          "id": "1.844",
          "name": "Servicios de publicidad, relaciones públicas y similares",
          "_links": {
            "self": {
              "name": "Servicios de publicidad, relaciones públicas y similares",
              "href": "https://api.euskadi.eus/procurements/companies/economic-activities/1.844"
            }
          }
        }
      ],
      "certificateStartDate": "2025-11-05",
      "certificateEndDate": "2026-05-05",
      "object": "LA PRESTACIÓN DE SERVICIOS DE PUBLICIDAD, MARKETING, PROMOCIÓN COMERCIAL Y COMUNICACIÓN EMPRESARIAL A TRAVÉS DE CUALQUIER MEDIO O SOPORTE. LA REALIZACIÓN DE ESTUDIOS DE MERCADO, DISEÑO DE CAMPAÑAS PUBLICITARIAS Y CREACIÓN DE ESTRATEGIAS DE MARCA. LA DISTRIBUCIÓN DE MATERIAL PUBLICITARIO, INCLUYENDO EL REPARTO DE PUBLICIDAD EN FORMATO FÍSICO MEDIANTE BUZONEO, ENTREGA DIRECTA Y OTROS MÉTODOS DE DIFUSIÓN SIMILARES. LA PLANIFICACIÓN Y GESTIÓN DE MEDIOS PUBLICITARIOS, TANTO ONLINE COMO OFFLINE. LA ORGANIZACIÓN DE EVENTOS PROMOCIONALES Y ACTIVIDADES RELACIONADAS CON LA IMAGEN Y EL POSICIONAMIENTO DE MARCAS. LA PRESTACIÓN DE SERVICIOS DE DISEÑO GRÁFICO, DIGITAL Y AUDIOVISUAL ORIENTADOS AL MARKETING EMPRESARIAL. LA COMERCIALIZACIÓN Y DISTRIBUCIÓN DE PRODUCTOS PUBLICITARIOS Y PROMOCIONALES. LAS LABORES DE LOGÍSTICA, ALMACENAMIENTO Y REPARTO DE TODO TIPO DE MATERIALES CON EXPRESA MENCIÓN A AQUELLOS QUE TENGAN RELACIÓN CON LA PUBLICIDAD. LA COMPRAVENTA Y/O ALQUILER DE LOCALES, OFICINAS O INMUEBLES EN GENERAL, ASÍ COMO BIENES MUEBLES, DESTINADOS A LAS ACTIVIDADES DESCRITAS.",
      "mainEntityOfPage": "https://www.contratacion.euskadi.eus/webkpe00-kperoc/es/ac71aBusquedaRegistrosWar/empresa/10182",
      "_links": {
        "self": {
          "name": "JOAL EXPRESS, S.L.",
          "href": "https://api.euskadi.eus/procurements/companies/10182"
        }
      }
    },
    {
      "name": "LA DEBACLE, S.L.",
      "registrationNumber": "05023",
      "identificationNumber": "B01415397",
      "address": "C/ HONDURAS, 1 - 11 F",
      "location": {
        "postalCode": "01009",
        "municipality": "Vitoria-Gasteiz",
        "county": "Araba/Álava",
        "municipalityId": "059",
        "countyId": "01"
      },
      "economicActivities": [
        {
          "id": "1.844",
          "name": "Servicios de publicidad, relaciones públicas y similares",
          "_links": {
            "self": {
              "name": "Servicios de publicidad, relaciones públicas y similares",
              "href": "https://api.euskadi.eus/procurements/companies/economic-activities/1.844"
            }
          }
        },
        {
          "id": "1.933.9",
          "name": "Otras actividades de enseñanza tales como idiomas, mecanografía",
          "_links": {
            "self": {
              "name": "Otras actividades de enseñanza tales como idiomas, mecanografía",
              "href": "https://api.euskadi.eus/procurements/companies/economic-activities/1.933.9"
            }
          }
        }
      ],
      "certificateStartDate": "2025-11-05",
      "certificateEndDate": "2026-05-05",
      "object": "SERVICIOS DE PUBLICIDAD, TALES COMO IDENTIAD CORPORATIVA, CARTELERÍA, PÁGINAS WEB, ANIMACIONES MULTIMEDIA, FOTOGRAFÍA, AUDIO, VIDEO, ILUSTRACIÓN Y SIMILARES. MERCHANDISING",
      "mainEntityOfPage": "https://www.contratacion.euskadi.eus/webkpe00-kperoc/es/ac71aBusquedaRegistrosWar/empresa/05023",
      "_links": {
        "self": {
          "name": "LA DEBACLE, S.L.",
          "href": "https://api.euskadi.eus/procurements/companies/05023"
        }
      }
    },
    {
      "name": "EZE BARRIZAR, KOOP. ELK. TXIKIA",
      "registrationNumber": "05546",
      "identificationNumber": "F95730172",
      "address": "Bº BARAINKA, 15",
      "location": {
        "postalCode": "48288",
        "municipality": "Ispaster",
        "county": "Bizkaia",
        "municipalityId": "049",
        "countyId": "48"
      },
      "economicActivities": [
        {
          "id": "1.151.6",
          "name": "Comercialización de energía eléctrica",
          "_links": {
            "self": {
              "name": "Comercialización de energía eléctrica",
              "href": "https://api.euskadi.eus/procurements/companies/economic-activities/1.151.6"
            }
          }
        },
        {
          "id": "1.501.1",
          "name": "Construcción completa, reparación y conservación de edificaciones",
          "_links": {
            "self": {
              "name": "Construcción completa, reparación y conservación de edificaciones",
              "href": "https://api.euskadi.eus/procurements/companies/economic-activities/1.501.1"
            }
          }
        },
        {
          "id": "1.843.9",
          "name": "Otros servicios técnicos n.c.o.p",
          "_links": {
            "self": {
              "name": "Otros servicios técnicos n.c.o.p",
              "href": "https://api.euskadi.eus/procurements/companies/economic-activities/1.843.9"
            }
          }
        }
      ],
      "certificateStartDate": "2025-11-05",
      "certificateEndDate": "2026-05-05",
      "object": "EL IMPULSO Y LA IMPLANTACIÓN DE ENERGÍAS RENOVABLES Y LA EFICIENCIA ENERGÉTICA",
      "mainEntityOfPage": "https://www.contratacion.euskadi.eus/webkpe00-kperoc/es/ac71aBusquedaRegistrosWar/empresa/05546",
      "_links": {
        "self": {
          "name": "EZE BARRIZAR, KOOP. ELK. TXIKIA",
          "href": "https://api.euskadi.eus/procurements/companies/05546"
        }
      }
    },
    {
      "name": "GARAIA OSASUNERAKO SUSTAPENA, S.L.",
      "registrationNumber": "09662",
      "identificationNumber": "B70921390",
      "address": "SANTIKURUTZ, 26",
      "location": {
        "postalCode": "48200",
        "municipality": "Durango",
        "county": "Bizkaia",
        "municipalityId": "027",
        "countyId": "48"
      },
      "economicActivities": [
        {
          "id": "1.952",
          "name": "Asistencia y servicios sociales en centros no residenciales",
          "_links": {
            "self": {
              "name": "Asistencia y servicios sociales en centros no residenciales",
              "href": "https://api.euskadi.eus/procurements/companies/economic-activities/1.952"
            }
          }
        }
      ],
      "certificateStartDate": "2025-11-05",
      "certificateEndDate": "2026-05-05",
      "object": "1.- LAS ACTIVIDADES DE INTERMEDIACIÓN EN LA PREVENCIÓN, ORIENTACIÓN, FORMACIÓN, INVESTIGACIÓN, TRATAMIENTO, INTERVENCIÓN Y ASESORAMIENTO SOBRE LA EDUCACIÓN PARA LA SALUD Y ACTIVIDADES AUXILIARES O COMPLEMENTARIAS SANITARIAS, Y LA PREVENCIÓN DE TODO TIPO DE ADICCIONES; LA INTERMEDIACIÓN Y ORIENTACIÓN EN EL ÁMBITO EDUCATIVO, FAMILIAR, SOCIAL Y DE CUALQUIER OTRA ÍNDOLE, LA REALIZACIÓN DE PROGRAMAS PREVENTIVOS; LA PRESTACIÓN DE SERVICIOS PARA DESARROLLAR HABILIDADES Y CAPACIDADES PERSONALES PARA LA REDUCCIÓN DE LA VULNERABILIDAD FRENTE A LOS CONSUMOS DE DROGAS Y OTRAS CONDUCTAS ADICTIVAS; ACTIVIDADES ENCAMINADAS A LA DETECCIÓN PRECOZ Y LA PREVENCIÓN DE TODO TIPO DE CONSUMOS ADICTIVOS; LA REALIZACIÓN DE TODO TIPO DE ACTIVIDADES, CURSOS Y PROGRAMAS CULTURALES, DE OCIO, TERAPÉUTICOS Y DE TODA ÍNDOLE PARA EL DESARROLLO DE LAS ACTIVIDADES O SERVICIOS ENUMERADOS. 2.- LA COMPRAVENTA, ARRENDAMIENTO, ADMINISTRACIÓN Y GESTIÓN DE TODO TIPO DE FINCAS O INMUEBLES Y TODO TIPO DE SERVICIOS INMOBILIARIOS, Y EN GENERAL LA INTERMEDIACIÓN EN EL SECTOR INMOBILIARIO.",
      "mainEntityOfPage": "https://www.contratacion.euskadi.eus/webkpe00-kperoc/es/ac71aBusquedaRegistrosWar/empresa/09662",
      "_links": {
        "self": {
          "name": "GARAIA OSASUNERAKO SUSTAPENA, S.L.",
          "href": "https://api.euskadi.eus/procurements/companies/09662"
        }
      }
    },
    {
      "name": "LAURA IZUEL GRACIAN",
      "registrationNumber": "09666",
      "identificationNumber": "25464227F",
      "address": "DISEMINADO 25, OKONDOKO BASERRIA",
      "location": {
        "postalCode": "20530",
        "municipality": "Leintz-Gatzaga",
        "county": "Gipuzkoa",
        "municipalityId": "068",
        "countyId": "20"
      },
      "economicActivities": [
        {
          "id": "1.062",
          "name": "Apicultura",
          "_links": {
            "self": {
              "name": "Apicultura",
              "href": "https://api.euskadi.eus/procurements/companies/economic-activities/1.062"
            }
          }
        },
        {
          "id": "2.022",
          "name": "Ingenieros técnicos agrícolas e ingenieros técnicos forestales",
          "_links": {
            "self": {
              "name": "Ingenieros técnicos agrícolas e ingenieros técnicos forestales",
              "href": "https://api.euskadi.eus/procurements/companies/economic-activities/2.022"
            }
          }
        }
      ],
      "certificateStartDate": "2025-11-05",
      "certificateEndDate": "2026-05-05",
      "object": "INGENIEROS TÉCNICOS AGRÍCOLAS E INGENIEROS TÉCNICOS FORESTALES. APICULTURA.",
      "mainEntityOfPage": "https://www.contratacion.euskadi.eus/webkpe00-kperoc/es/ac71aBusquedaRegistrosWar/empresa/09666",
      "_links": {
        "self": {
          "name": "LAURA IZUEL GRACIAN",
          "href": "https://api.euskadi.eus/procurements/companies/09666"
        }
      }
    },
    {
      "name": "GIKE, S.A.",
      "registrationNumber": "07234",
      "identificationNumber": "A20324844",
      "address": "FERNANDO MUGICA 11",
      "location": {
        "postalCode": "20018",
        "municipality": "Donostia / San Sebastián",
        "county": "Gipuzkoa",
        "municipalityId": "069",
        "countyId": "20"
      },
      "economicActivities": [
        {
          "id": "1.936.5",
          "name": "Investigación técnica industrial",
          "_links": {
            "self": {
              "name": "Investigación técnica industrial",
              "href": "https://api.euskadi.eus/procurements/companies/economic-activities/1.936.5"
            }
          }
        }
      ],
      "certificateStartDate": "2025-11-05",
      "certificateEndDate": "2026-05-05",
      "object": "LA CREACIÓN, DESARROLLO, GESTIÓN Y DIRECCIÓN DE UN CENTRO TÉCNICO DE PROMOCIÓN PROFESIONAL, QUE COMPRENDE UN LABORATORIO DE CONTROL DE CALIDAD Y UN DEPARTAMENTO DE INVESTIGACIÓN DE MATERIALES, DE CÁLCULO ESTRUCTURAL Y DE OTRAS MATERIAS AFINES. ASIMISMO PODRÁ ORGANIZAR SEMINARIOS Y CONFERENCIAS, SOBRE TEMAS RELACIONADOS CON LA CONSTRUCCIÓN, CURSOS DE RECICLAJE, Y ACTUALIZACIÓN PROFESIONAL, MONTANDO SU PROPIO BANCO DE DATOS, BIBLIOTECA Y CENTRO DE DOCUMENTACIÓN",
      "mainEntityOfPage": "https://www.contratacion.euskadi.eus/webkpe00-kperoc/es/ac71aBusquedaRegistrosWar/empresa/07234",
      "_links": {
        "self": {
          "name": "GIKE, S.A.",
          "href": "https://api.euskadi.eus/procurements/companies/07234"
        }
      }
    },
    {
      "name": "BARNA IMPORT MEDICA, S.A.",
      "registrationNumber": "02729",
      "identificationNumber": "A58001686",
      "address": "Avda. Barcelona 225",
      "location": {
        "postalCode": "08750",
        "municipality": "Molins de Rei",
        "county": "Barcelona",
        "municipalityId": "123",
        "countyId": "08"
      },
      "economicActivities": [
        {
          "id": "1.619.2",
          "name": "Venta al por mayor de aparatos e instrumentos médicos, ortopédicos, ópticos",
          "_links": {
            "self": {
              "name": "Venta al por mayor de aparatos e instrumentos médicos, ortopédicos, ópticos",
              "href": "https://api.euskadi.eus/procurements/companies/economic-activities/1.619.2"
            }
          }
        }
      ],
      "certificateStartDate": "2025-11-05",
      "certificateEndDate": "2026-04-28",
      "object": "LA FABRICACIÓN, LA IMPORTACIÓN, EXPORTACIÓN, REPRESENTACIÓN, DISTRIBUCIÓN Y COMERCIALIZACIÓN DE TODA CLASE DE PRODUCTOS EN GENERAL, Y EN ESPECIAL DE MATERIAL SANITARIO Y DE HIGIENE, PRODUCTOS FARMACÉUTICOS, PRODUCTOS ORTOPÉDICOS Y DE PEDIATRÍA, SUMINISTROS GENERALES PARA LA CIRUGÍA Y CURAS, OTROS DE USO MÉDICO-HOSPITALARIO, APARATOS DE REHABILITACIÓN Y ELECTROMEDICINA, MATERIAL DE PREVENCIÓN LABORAL, BOTIQUINES, MOBILIARIO DE USO CLÍNICO, PARAFARMACIA Y DERMOFARMACIA Y PRODUCTOS DIETÉTICOS. LA CONFECCIÓN, EXPORTACIÓN Y DISTRIBUCIÓN DE ARTÍCULOS TEXTILES, UNIFORMES, ROPA DEL HOGAR Y SUS COMPLEMENTOS, SUMINISTROS INDUSTRIALES. PRODUCTOS DE PROMOCIÓN Y PUBLICIDAD. MATERIALES PARA LA ESTERILIZACIÓN Y DEISNFECCIÓN. CONSTITUYE ASIMISMO EL OBJETO DE LA SOCIEDAD LA COMPRAVENTA, ADMINISTRACIÓN Y EXPLOTACIÓN DE INMUEBLES.",
      "mainEntityOfPage": "https://www.contratacion.euskadi.eus/webkpe00-kperoc/es/ac71aBusquedaRegistrosWar/empresa/02729",
      "_links": {
        "self": {
          "name": "BARNA IMPORT MEDICA, S.A.",
          "href": "https://api.euskadi.eus/procurements/companies/02729"
        }
      }
    }
  ]
}