{
  "totalItems": 9042,
  "totalPages": 905,
  "currentPage": 101,
  "itemsOfPage": 10,
  "items": [
    {
      "name": "E.N.I. ELECTRÓNICA Y NEUMÁTICA INDUSTRIAL, S.A.",
      "registrationNumber": "05168",
      "identificationNumber": "A48099055",
      "address": "Ctra. Bilbao-Galdakao 11-13",
      "location": {
        "postalCode": "48004",
        "municipality": "Bilbao",
        "county": "Bizkaia",
        "municipalityId": "020",
        "countyId": "48"
      },
      "economicActivities": [
        {
          "id": "1.344",
          "name": "Fabricación de contadores y aparatos de medida, eléctricos",
          "_links": {
            "self": {
              "name": "Fabricación de contadores y aparatos de medida, eléctricos",
              "href": "https://api.euskadi.eus/procurements/companies/economic-activities/1.344"
            }
          }
        },
        {
          "id": "1.504.12",
          "name": "Instalaciones eléctricas en toda clase de edificios",
          "_links": {
            "self": {
              "name": "Instalaciones eléctricas en toda clase de edificios",
              "href": "https://api.euskadi.eus/procurements/companies/economic-activities/1.504.12"
            }
          }
        },
        {
          "id": "1.504.3",
          "name": "Instalaciones de frío, calor y acondicionamiento de aire",
          "_links": {
            "self": {
              "name": "Instalaciones de frío, calor y acondicionamiento de aire",
              "href": "https://api.euskadi.eus/procurements/companies/economic-activities/1.504.3"
            }
          }
        },
        {
          "id": "1.654.5",
          "name": "Venta al por menor de toda clase de maquinaría",
          "_links": {
            "self": {
              "name": "Venta al por menor de toda clase de maquinaría",
              "href": "https://api.euskadi.eus/procurements/companies/economic-activities/1.654.5"
            }
          }
        },
        {
          "id": "1.843.1",
          "name": "Servicios técnicos de ingeniería",
          "_links": {
            "self": {
              "name": "Servicios técnicos de ingeniería",
              "href": "https://api.euskadi.eus/procurements/companies/economic-activities/1.843.1"
            }
          }
        }
      ],
      "certificateStartDate": "2026-01-07",
      "certificateEndDate": "2026-06-30",
      "object": "A) FABRICACIÓN Y COMERCIALIZACIÓN DE SENSORES Y APARATOS DE CONTROL, DE VIGILANCIA Y DE AUTOMATISMO PARA MOTORES EN GENERAL, APLICACIONES INDUSTRIALES, NAVALES Y NUCLEARES. B) REPRESENTACIÓN, DELEGACIÓN, IMPORTACIÓN, EXPORTACIÓN, DISTRIBUCIÓN Y COMPRAVENTA DE BIENES DE PRODUCCIÓN O DE CONSUMO Y MERCANCÍAS EN GENERAL. C) MANUFACTURAR, TRANSFORMAR, MONTAR O INCORPORAR LOS PRODUCTOS O BIENES OBJETO DE SU GIRO. D) LA ACTIVIDAD DE AUDITORIA ENERGÉTICA. MONTAJE, ASISTENCIA TÉCNICA Y MANTENIMIENTO DE INSTALACIONES DE REGULACIÓN Y CONTROL, INSTRUMENTACIÓN  Y ELECTRICIDAD EN BAJA TENSIÓN. PROGRAMACIÓN DE SOFTWARE DE REGULACIÓN Y CONTROL PARA MANEJO AUTOMÁTICO DE INSTALACIONES Y PROCESOS, CALIBRACIÓN DE EQUIPOS DE MEDIDA, FABRICACIÓN Y REPARACIÓN DE INSTRUMENTOS DE MEDICIÓN Y CONTROL DE TEMPERATURA (SONDAS TEMPERATURA), COMERCIALIZACIÓN, REPARACIÓN Y MANTENIMIENTO DE EQUIPOS ELECTRÓNICOS DE INSTRUMENTACIÓN Y CONTROL. MONTAJE, ASISTENCIA TÉCNICA Y MANTENIMIENTO DE INSTALACIONES MECÁNICAS, TÉRMICAS, CLIMATIZACIÓN, VENTILACIÓN, PRODUCTOS PETROLIFEROS, FONTANERÍA, EQUIPOS A PRESIÓN, GAS, PROTECCIÓN CONTRAINCENDIOS. CONSULTORÍA, INGENIERÍA, AUDITORÍAS, OBRAS Y SOLUCIONES RELACIONADAS CON LA EFICIENCIA, LA GESTIÓN ENERGÉTICA Y LOS SERVICIOS ENERGÉTICOS",
      "mainEntityOfPage": "https://www.contratacion.euskadi.eus/webkpe00-kperoc/es/ac71aBusquedaRegistrosWar/empresa/05168",
      "_links": {
        "self": {
          "name": "E.N.I. ELECTRÓNICA Y NEUMÁTICA INDUSTRIAL, S.A.",
          "href": "https://api.euskadi.eus/procurements/companies/05168"
        }
      }
    },
    {
      "name": "ARQUIPLAN 2.0 S.L.P.",
      "registrationNumber": "05000",
      "identificationNumber": "B95551768",
      "address": "Avda. Zugazarte, 8-2º",
      "location": {
        "postalCode": "48930",
        "municipality": "Getxo",
        "county": "Bizkaia",
        "municipalityId": "044",
        "countyId": "48"
      },
      "economicActivities": [
        {
          "id": "1.843.2",
          "name": "Servicios técnicos de arquitectura y urbanismo",
          "_links": {
            "self": {
              "name": "Servicios técnicos de arquitectura y urbanismo",
              "href": "https://api.euskadi.eus/procurements/companies/economic-activities/1.843.2"
            }
          }
        }
      ],
      "certificateStartDate": "2026-01-07",
      "certificateEndDate": "2026-06-15",
      "object": "LA ACTIVIDAD PROPIA DEL EJERCICIO DE LA ARQUITECTURA",
      "mainEntityOfPage": "https://www.contratacion.euskadi.eus/webkpe00-kperoc/es/ac71aBusquedaRegistrosWar/empresa/05000",
      "_links": {
        "self": {
          "name": "ARQUIPLAN 2.0 S.L.P.",
          "href": "https://api.euskadi.eus/procurements/companies/05000"
        }
      }
    },
    {
      "name": "ADEKUA SEGURIDAD, S.L.",
      "registrationNumber": "06743",
      "identificationNumber": "B20872255",
      "address": "PASEO UBARBURU, 39 - EDIFICIO ENERTIC - LOCAL 1",
      "location": {
        "postalCode": "20014",
        "municipality": "Donostia / San Sebastián",
        "county": "Gipuzkoa",
        "municipalityId": "069",
        "countyId": "20"
      },
      "economicActivities": [
        {
          "id": "1.506.0",
          "name": "Instalaciones de andamios, cimbras, encofrados, etc",
          "_links": {
            "self": {
              "name": "Instalaciones de andamios, cimbras, encofrados, etc",
              "href": "https://api.euskadi.eus/procurements/companies/economic-activities/1.506.0"
            }
          }
        },
        {
          "id": "1.843.9",
          "name": "Otros servicios técnicos n.c.o.p",
          "_links": {
            "self": {
              "name": "Otros servicios técnicos n.c.o.p",
              "href": "https://api.euskadi.eus/procurements/companies/economic-activities/1.843.9"
            }
          }
        }
      ],
      "certificateStartDate": "2026-01-07",
      "certificateEndDate": "2026-06-15",
      "object": "LA ADECUACIÓN DE MAQUINARIA Y SUMINISTRO DE EQUIPOS DE SEGURIDAD",
      "mainEntityOfPage": "https://www.contratacion.euskadi.eus/webkpe00-kperoc/es/ac71aBusquedaRegistrosWar/empresa/06743",
      "_links": {
        "self": {
          "name": "ADEKUA SEGURIDAD, S.L.",
          "href": "https://api.euskadi.eus/procurements/companies/06743"
        }
      }
    },
    {
      "name": "RISKLESS INTEGRAL, S.L.",
      "registrationNumber": "08594",
      "identificationNumber": "B95867123",
      "address": "Andrés Eliseo de Mañaricua, 13 - 7B",
      "location": {
        "postalCode": "48003",
        "municipality": "Bilbao",
        "county": "Bizkaia",
        "municipalityId": "020",
        "countyId": "48"
      },
      "economicActivities": [
        {
          "id": "1.843.1",
          "name": "Servicios técnicos de ingeniería",
          "_links": {
            "self": {
              "name": "Servicios técnicos de ingeniería",
              "href": "https://api.euskadi.eus/procurements/companies/economic-activities/1.843.1"
            }
          }
        },
        {
          "id": "1.847",
          "name": "Servicios de consultoría",
          "_links": {
            "self": {
              "name": "Servicios de consultoría",
              "href": "https://api.euskadi.eus/procurements/companies/economic-activities/1.847"
            }
          }
        }
      ],
      "certificateStartDate": "2026-01-07",
      "certificateEndDate": "2026-06-14",
      "object": "LA PRESTACIÓN DE SERVICIOS DE CONSULTORÍA, ASISTENCIA TÉCNICA Y DIRECCIÓN DE OBRAS, PROYECTOS DE DISEÑO DE SISTEMAS, DESARROLLOS INFORMÁTICOS, DISTRIBUCIÓN Y COMERCIALIZACIÓN DE SOLUCIONES TÉCNICAS, HARDWARE O SOFTWARE Y FORMACIÓN ESPECIALIZADA.",
      "mainEntityOfPage": "https://www.contratacion.euskadi.eus/webkpe00-kperoc/es/ac71aBusquedaRegistrosWar/empresa/08594",
      "_links": {
        "self": {
          "name": "RISKLESS INTEGRAL, S.L.",
          "href": "https://api.euskadi.eus/procurements/companies/08594"
        }
      }
    },
    {
      "name": "ALAY PRODUCTOS CLÍNICOS, S.A.",
      "registrationNumber": "00357",
      "identificationNumber": "A20103321",
      "address": "Troia Ibilbidea, 25 - Local 16",
      "location": {
        "postalCode": "20115",
        "municipality": "Astigarraga",
        "county": "Gipuzkoa",
        "municipalityId": "903",
        "countyId": "20"
      },
      "economicActivities": [
        {
          "id": "1.619.2",
          "name": "Venta al por mayor de aparatos e instrumentos médicos, ortopédicos, ópticos",
          "_links": {
            "self": {
              "name": "Venta al por mayor de aparatos e instrumentos médicos, ortopédicos, ópticos",
              "href": "https://api.euskadi.eus/procurements/companies/economic-activities/1.619.2"
            }
          }
        }
      ],
      "certificateStartDate": "2026-01-07",
      "certificateEndDate": "2026-06-15",
      "object": "LA FABRICACIÓN, COMPRA Y VENTA DE PRODUCTOS CLÍNICOS; INSTRUMENTAL Y APARATOS CLÍNICOS DE CUALQUIER TIPO Y CLASE",
      "mainEntityOfPage": "https://www.contratacion.euskadi.eus/webkpe00-kperoc/es/ac71aBusquedaRegistrosWar/empresa/00357",
      "_links": {
        "self": {
          "name": "ALAY PRODUCTOS CLÍNICOS, S.A.",
          "href": "https://api.euskadi.eus/procurements/companies/00357"
        }
      }
    },
    {
      "name": "SANI & SANI GROUP, S.L.",
      "registrationNumber": "07412",
      "identificationNumber": "B95680625",
      "address": "iturrialde 21",
      "location": {
        "postalCode": "48120",
        "municipality": "Meñaka",
        "county": "Bizkaia",
        "municipalityId": "064",
        "countyId": "48"
      },
      "economicActivities": [
        {
          "id": "1.615.2",
          "name": "Venta al por mayor de muebles",
          "_links": {
            "self": {
              "name": "Venta al por mayor de muebles",
              "href": "https://api.euskadi.eus/procurements/companies/economic-activities/1.615.2"
            }
          }
        },
        {
          "id": "1.665",
          "name": "Venta al por menor por correo o catálogo de productos diversos",
          "_links": {
            "self": {
              "name": "Venta al por menor por correo o catálogo de productos diversos",
              "href": "https://api.euskadi.eus/procurements/companies/economic-activities/1.665"
            }
          }
        }
      ],
      "certificateStartDate": "2026-01-07",
      "certificateEndDate": "2026-06-14",
      "object": "A) EL COMERCIO ELECTRÓNICO (E-COMMERCE) DE BIENES Y SERVICIOS: COMPRA-VENTA DE TODO TIPO DE BIENES Y SERVICIOS A TRAVÉS DE MEDIOS ELECTRÓNICOS COMO INTERNET Y PORTALES DE VENTAS ON LINE. B) ESTABLECER TODO TIPO DE FRANQUICIAS (ON LINE, NACIONALES, NO NACIONALES,...) DE SANI & SANI GROUP, S.L. C) IMPORTACIÓN Y EXPORTACIÓN DE TODO TIPO DE BIENES Y SERVICIOS. D) COMPRA -VENTA DE TODO TIPO DE MATERIAL CLINICO, HOSPITALARIOS, SANITARIO Y DE LIMPIEZA E HIGIENE. E) EL OFRECIMIENTO A LAS EMPRESAS Y CLIENTES DE SOLUCIONES DE TODO TIPÒ RELACIONADAS CON SU ACTIVIDAD NORMAL, TANTO EN LO QUE SE REFIERE AL SUMINISTRO DE BIENES NECESARIOS PARA SU FUNCIONAMIENTO, COMO EN LO QUE SE REFIERE A LA UTILIZACIÓN DE SERVICIOS EXTERNOS QUE EN CUALQUIER CASO PUDIERAN DEMANDAR. F) SERVICIOS DE CATERING. G) COMPRA-VENTA DE ARTE. H) FORMACIÓN. I) PROYECTOS DE EQUIPAMIENTO, MANTENIMIENTO Y GESTIÓN DE TODO TIPO DE EMPRESAS. J) PROYECTOS DE CONSTRUCCIÓN, OBRAS Y REFORMAS. K) GESTIÓN DE CENTROS DE DÍA, RESIDENCIAS DE TITULARIDAD PÚBLICA Y PRIVADA (DESTINADAS A TODO TIPO DE USUARIOS), CENTROS DE EDUCACIÓN INFANTIL Y GUARDERÍA INFANTILES. L) SERVICIOS DE TELE-ASISTENCIA PARA DOMICILIOS, RESIDENCIAS, CENTROS DE DÍA, CLÍNICAS, HOSPITALES PÚBLICOS O PRIVADOS. M) INNOVACIÓN DE RECURSOS TECNOLÓGICOS. N) VENTA E IMPLANTACIÓN DE SALAS MULTISENSORIALES. O) HIGIENE HOSPITALARIA Y GESTIÓN AMBIENTAL, ASÍ COMO LA ORGANIZACIÓN DE REUNIONES CIENTÍFICO-SANITARIAS Y MEDIOAMBIENTALES, Y LA PROMOCIÓN DE ACTIVIDADES DE APOYO A LA GESTIÓN DE RECURSOS HOSPITALARIOS Y DE OTROS SISTEMAS SANITARIOS. P) VENTAS DE PRODUCTOS DE LIMPIEZA, DESINFECCIÓN Y DE PROTECCIÓN DE SUPERFICIES; SISTEMAS DE TRATAMIENTO DE AGUAS; SISTEMAS DE PROCESO Y TRATAMIENTO DE PRODUCTOS COSMÉTICOS Y FARMACÉUTICOS; SISTEMAS DE PROCESO Y TRATAMIENTO DE ALIMENTOS Y BEBIDAS. Q) TODO TIPO DE SERVICIOS POSTALES, DE CORREO Y DE TRANSPORTE EN GENERAL A ENTIDADES DE CARÁCTER PÚBLICO, PRIVADAS Y A PERSONAS FÍSICAS. R) VENTA DE MATERIAL DESTINADO AL CUIDADO, DESCANSO Y PROTECCIÓN DE ANIMALES. ASÍ COMO SERVICIOS DESTINADOS A SU SALUD Y A LA FORMACIÓN CORRESPONDIENTE PARA ELLO. S) CONCURRIR A SUBASTAS Y CONCURSOS PARA LA EJECUCIÓN DE OBRAS, CONTRATAS, SERVICIOS Y SUMINISTROS PÚBLICOS O PRIVADOS, FORMULANDO PLIEGOS DE CONDICIONES, EN TODA CLASE DE ORGANISMOS, TANTO PÚBLICOS COMO PRIVADOS, REALIZANDO AL EFECTO CUANTOS ACTOS, CONTRATOS Y NEGOCIOS ESTIME, PRECISOS PARA EL CUMPLIMIENTO DE LAS MISMAS. T) EXPLOTACIÓN DE ACTIVIDADES AGRÍCOLAS, FORESTALES Y GANADERAS. U) LA ADQUISICIÓN, TENENCIA Y DISFRUTE, ADMINISTRACIÓN, ENAJENACIÓN DE TODA CLASE DE FINCAS, RÚSTICAS O URBANAS, CUALESQUIERA QUE FUERA SU NATURALEZA. V) PROMOCIÓN, ESTUDIO Y DESARROLLO DE PRODUCTOS Y ACTIVIDADES INDUSTRIALES, COMERCIALES Y DE DISTRIBUCIÓN EN EMPRESAS PROPIAS O PARTICIPADAS Y EXPLOTACIÓN O CESIÓN DE CÁNONES, ROYALTIES Y DERECHOS DE PROPIEDAD INTELECTUAL E INDUSTRIAL. W) ADQUISICIÓN, TENENCIA Y DISFRUTE, ADMINISTRACIÓN Y ENAJENACIÓN DE TODA CLASE DE TÍTULOS, VALORES MOBILIARIOS, ACTIVOS FINANCIEROS, DERECHOS SOBRE VALORES, CUOTAS O PARTICIPACIONES EN EMPRESAS INDIVIDUALES O SOCIALES POR CUENTA PROPIA Y CON EXCEPCIÓN DE LA INTERMEDIACIÓN, NO INCLUYÉNDOSE EN NINGÚN CASO LAS ACTIVIDADES REGULADAS EN LA LEGISLACIÓN DE INSTITUCIONES DE INVERSIÓN COLECTIVA Y MERCADO DE VALORES",
      "mainEntityOfPage": "https://www.contratacion.euskadi.eus/webkpe00-kperoc/es/ac71aBusquedaRegistrosWar/empresa/07412",
      "_links": {
        "self": {
          "name": "SANI & SANI GROUP, S.L.",
          "href": "https://api.euskadi.eus/procurements/companies/07412"
        }
      }
    },
    {
      "name": "OREIN SOLUZIOAK, S.L.",
      "registrationNumber": "08561",
      "identificationNumber": "B02838951",
      "address": "Santa Maria Kalea 11 - 4. (48920)",
      "location": {
        "postalCode": "48920",
        "municipality": "Portugalete",
        "county": "Bizkaia",
        "municipalityId": "078",
        "countyId": "48"
      },
      "economicActivities": [
        {
          "id": "1.845",
          "name": "Explotación electrónica por cuenta de terceros",
          "_links": {
            "self": {
              "name": "Explotación electrónica por cuenta de terceros",
              "href": "https://api.euskadi.eus/procurements/companies/economic-activities/1.845"
            }
          }
        },
        {
          "id": "1.847",
          "name": "Servicios de consultoría",
          "_links": {
            "self": {
              "name": "Servicios de consultoría",
              "href": "https://api.euskadi.eus/procurements/companies/economic-activities/1.847"
            }
          }
        },
        {
          "id": "1.931.4",
          "name": "Enseñanza de varias modalidades regladas",
          "_links": {
            "self": {
              "name": "Enseñanza de varias modalidades regladas",
              "href": "https://api.euskadi.eus/procurements/companies/economic-activities/1.931.4"
            }
          }
        },
        {
          "id": "1.934",
          "name": "Enseñanza fuera de establecimiento permanente",
          "_links": {
            "self": {
              "name": "Enseñanza fuera de establecimiento permanente",
              "href": "https://api.euskadi.eus/procurements/companies/economic-activities/1.934"
            }
          }
        },
        {
          "id": "1.942.9",
          "name": "Otros servicios sanitarios sin internados, no clasificados",
          "_links": {
            "self": {
              "name": "Otros servicios sanitarios sin internados, no clasificados",
              "href": "https://api.euskadi.eus/procurements/companies/economic-activities/1.942.9"
            }
          }
        }
      ],
      "certificateStartDate": "2026-01-07",
      "certificateEndDate": "2026-06-30",
      "object": "EL DESARROLLO DE LAS ACTIVIDADES CORRESPONDIENTES A LOS SIGUIENTES CÓDIGOS Y DESCRIPCIONES DE LA CLASIFICACIÓN NACIONAL DE ACTIVIDADES ECONÓMICAS: ACTIVIDAD PRINCIPAL.- 6209. OTROS SERVICIOS RELACIONADOS CON LAS TECNOLOGÍAS DE LA INFORMACIÓN Y LA INFORMÁTICA. OTRAS ACTIVIDADES.- 7490. OTRAS ACTIVIDADES PROFESIONALES, CIENTÍFICAS Y TÉCNICAS N.C.O.P. 8532. EDUCACIÓN SECUNDARIA TÉCNICA Y PROFESIONAL. 7022. OTRAS ACTIVIDADES DE CONSULTORÍA DE GESTIÓN EMPRESARIAL. 8690. OTRAS ACTIVIDADES SANITARIAS. 7220. INVESTIGACIÓN Y DESARROLLO EXPERIMENTAL EN CIENCIAS SOCIALES Y HUMANIDADES. 9609. OTROS SERVICIOS PERSONALES N.C.O.P. 8559. OTRA EDUCACIÓN N.C.O.P. 7112. SERVICIOS TÉCNICOS DE INGENIERÍA Y OTRAS ACTIVIDADES RELACIONADAS CON EL ASESORAMIENTO TÉCNICO. 8622. ACTIVIDADES DE MEDICINA ESPECIALIZADA.",
      "mainEntityOfPage": "https://www.contratacion.euskadi.eus/webkpe00-kperoc/es/ac71aBusquedaRegistrosWar/empresa/08561",
      "_links": {
        "self": {
          "name": "OREIN SOLUZIOAK, S.L.",
          "href": "https://api.euskadi.eus/procurements/companies/08561"
        }
      }
    },
    {
      "name": "RJA FORMACION PRESENCIAL, S.L.",
      "registrationNumber": "08937",
      "identificationNumber": "B01322338",
      "address": "Pedro de Asúa, 69",
      "location": {
        "postalCode": "01008",
        "municipality": "Vitoria-Gasteiz",
        "county": "Araba/Álava",
        "municipalityId": "059",
        "countyId": "01"
      },
      "economicActivities": [
        {
          "id": "1.932.1",
          "name": "Enseñanza de formación y perfeccionamiento profesional no superior",
          "_links": {
            "self": {
              "name": "Enseñanza de formación y perfeccionamiento profesional no superior",
              "href": "https://api.euskadi.eus/procurements/companies/economic-activities/1.932.1"
            }
          }
        },
        {
          "id": "1.933.9",
          "name": "Otras actividades de enseñanza tales como idiomas, mecanografía",
          "_links": {
            "self": {
              "name": "Otras actividades de enseñanza tales como idiomas, mecanografía",
              "href": "https://api.euskadi.eus/procurements/companies/economic-activities/1.933.9"
            }
          }
        }
      ],
      "certificateStartDate": "2026-01-07",
      "certificateEndDate": "2026-06-16",
      "object": "LA REALIZACIÓN Y PUESTA EN MARCHA DE TODA CLASE DE CURSOS PRESENCIALES Y A DISTANCIA, SEMINARIOS, MASTER Y CARRERAS DE TODO TIPO. ASIMISMO, SERÁ OBJETO DE LA SOCIEDAD, LA FIRMA DE CONVENIOS DE COLABORACIÓN CON ENTIDADES PÚBLICAS Y PRIVADAS, UNIVERSIDADES Y EMPRESAS, QUE TENGAN COMO FINALIDAD LA REALIZACIÓN DE LOS OBJETIVOS ANTERIORMENTE DESCRITOS.",
      "mainEntityOfPage": "https://www.contratacion.euskadi.eus/webkpe00-kperoc/es/ac71aBusquedaRegistrosWar/empresa/08937",
      "_links": {
        "self": {
          "name": "RJA FORMACION PRESENCIAL, S.L.",
          "href": "https://api.euskadi.eus/procurements/companies/08937"
        }
      }
    },
    {
      "name": "STUDIO GASTÓN, S.L.",
      "registrationNumber": "05781",
      "identificationNumber": "B95892253",
      "address": "Iturriza 13, bajo",
      "location": {
        "postalCode": "48003",
        "municipality": "Bilbao",
        "county": "Bizkaia",
        "municipalityId": "020",
        "countyId": "48"
      },
      "economicActivities": [
        {
          "id": "1.476.1",
          "name": "Edición de libros",
          "_links": {
            "self": {
              "name": "Edición de libros",
              "href": "https://api.euskadi.eus/procurements/companies/economic-activities/1.476.1"
            }
          }
        },
        {
          "id": "1.659.9",
          "name": "Venta al por menor de otros productos no especificados en esta agrupación",
          "_links": {
            "self": {
              "name": "Venta al por menor de otros productos no especificados en esta agrupación",
              "href": "https://api.euskadi.eus/procurements/companies/economic-activities/1.659.9"
            }
          }
        },
        {
          "id": "1.843.9",
          "name": "Otros servicios técnicos n.c.o.p",
          "_links": {
            "self": {
              "name": "Otros servicios técnicos n.c.o.p",
              "href": "https://api.euskadi.eus/procurements/companies/economic-activities/1.843.9"
            }
          }
        },
        {
          "id": "1.966.9",
          "name": "Otros servicios culturales n.c.o.p",
          "_links": {
            "self": {
              "name": "Otros servicios culturales n.c.o.p",
              "href": "https://api.euskadi.eus/procurements/companies/economic-activities/1.966.9"
            }
          }
        }
      ],
      "certificateStartDate": "2026-01-06",
      "certificateEndDate": "2026-07-06",
      "classification": [
        {
          "id": "S",
          "name": "Servicios",
          "groups": [
            {
              "id": "T",
              "subgroups": [
                {
                  "id": "01",
                  "name": "Servicios de publicidad",
                  "categories": [
                    {
                      "id": "1",
                      "name": "Desde 0 Hasta 150.000",
                      "_links": {
                        "self": {
                          "name": "Desde 0 Hasta 150.000",
                          "href": "https://api.euskadi.eus/procurements/companies/types/S/categories/1"
                        }
                      }
                    }
                  ],
                  "_links": {
                    "self": {
                      "name": "Servicios de publicidad",
                      "href": "https://api.euskadi.eus/procurements/companies/types/S/groups/T/subgroups/01"
                    }
                  }
                }
              ],
              "_links": {
                "self": {
                  "href": "https://api.euskadi.eus/procurements/companies/types/S/groups/T"
                }
              }
            }
          ],
          "_links": {
            "self": {
              "name": "Servicios",
              "href": "https://api.euskadi.eus/procurements/companies/types/S"
            }
          }
        }
      ],
      "object": "ACTIVIDADES DE DISEÑO ESPECIALIZADO. OTRAS ACTIVIDADES EDITORIALES. AGENCIAS DE PUBLICIDAD. EDICIÓN DE LIBROS. ACTIVIDADES DE FOTOGRAFÍA. CREACIÓN ARTÍSTICA Y LITERARIA. PORTALES WEB",
      "mainEntityOfPage": "https://www.contratacion.euskadi.eus/webkpe00-kperoc/es/ac71aBusquedaRegistrosWar/empresa/05781",
      "_links": {
        "self": {
          "name": "STUDIO GASTÓN, S.L.",
          "href": "https://api.euskadi.eus/procurements/companies/05781"
        }
      }
    },
    {
      "name": "DIGITALDE COMUNICACIÓN EN RED, S.L.",
      "registrationNumber": "05771",
      "identificationNumber": "B95682241",
      "address": "C/ Bizkai, 38-Ent. B- Mod. 2",
      "location": {
        "postalCode": "48960",
        "municipality": "Galdakao",
        "county": "Bizkaia",
        "municipalityId": "036",
        "countyId": "48"
      },
      "economicActivities": [
        {
          "id": "1.847",
          "name": "Servicios de consultoría",
          "_links": {
            "self": {
              "name": "Servicios de consultoría",
              "href": "https://api.euskadi.eus/procurements/companies/economic-activities/1.847"
            }
          }
        }
      ],
      "certificateStartDate": "2026-01-06",
      "certificateEndDate": "2026-07-06",
      "object": "LA PRESTACIÓN DE TODO TIPO DE SERVICIOS. CONSULTORÍA EN INTERNET, COMUNICACIÓN EN INTERNET, MARKETING ON LINE, DISEÑO Y DESARROLLO WEB, FORMACIÓN EN INTERNET Y REDES SOCIALES, ESTRATEGIA PARA CREACIÓN O MEJORA DE PRESENCIA DIGITAL, DINAMIZACIÓN DE COMUNIDADES ON LINE Y FOMENTO DE LA PARTICIPACIÓN EN REDES SOCIALES",
      "mainEntityOfPage": "https://www.contratacion.euskadi.eus/webkpe00-kperoc/es/ac71aBusquedaRegistrosWar/empresa/05771",
      "_links": {
        "self": {
          "name": "DIGITALDE COMUNICACIÓN EN RED, S.L.",
          "href": "https://api.euskadi.eus/procurements/companies/05771"
        }
      }
    }
  ]
}