{
  "totalItems": 9042,
  "totalPages": 905,
  "currentPage": 409,
  "itemsOfPage": 10,
  "items": [
    {
      "name": "QUALIS CONSULTORES DE TALENTO,  S.L.",
      "registrationNumber": "08243",
      "identificationNumber": "B95958633",
      "address": "Calle Gran Vía Don Diego López de Haro, 19-21, 2º",
      "location": {
        "postalCode": "48001",
        "municipality": "Bilbao",
        "county": "Bizkaia",
        "municipalityId": "020",
        "countyId": "48"
      },
      "economicActivities": [
        {
          "id": "1.847",
          "name": "Servicios de consultoría",
          "_links": {
            "self": {
              "name": "Servicios de consultoría",
              "href": "https://api.euskadi.eus/procurements/companies/economic-activities/1.847"
            }
          }
        }
      ],
      "certificateStartDate": "2024-07-22",
      "certificateEndDate": "2025-01-17",
      "object": "LA PRESTACIÓN DE SERVICIOS DE RECLUTAMIENTO, SELECCIÓN Y CAPTACIÓN DE TALENTO PARA CUALQUIER TIPO DE CLIENTE; ASÍ COMO EL ASESORAMIENTO EN MATERIA DE RECURSOS HUMANOS INCLUYENDO LOS ÁMBITOS DE GESTIÓN Y CONSULTORÍA. CNAE ACTIVIDAD PRINCIPAL: 7830- OTRA PROVISIÓN DE RECURSOS HUMANOS.",
      "mainEntityOfPage": "https://www.contratacion.euskadi.eus/webkpe00-kperoc/es/ac71aBusquedaRegistrosWar/empresa/08243",
      "_links": {
        "self": {
          "name": "QUALIS CONSULTORES DE TALENTO,  S.L.",
          "href": "https://api.euskadi.eus/procurements/companies/08243"
        }
      }
    },
    {
      "name": "AITOR KIROLAK, S.L.",
      "registrationNumber": "08901",
      "identificationNumber": "B10813152",
      "address": "ITURRIONDO 18",
      "location": {
        "postalCode": "48940",
        "municipality": "Leioa",
        "county": "Bizkaia",
        "municipalityId": "054",
        "countyId": "48"
      },
      "economicActivities": [
        {
          "id": "1.654.1",
          "name": "Venta al por menor de vehículos terrestres",
          "_links": {
            "self": {
              "name": "Venta al por menor de vehículos terrestres",
              "href": "https://api.euskadi.eus/procurements/companies/economic-activities/1.654.1"
            }
          }
        },
        {
          "id": "1.659.6",
          "name": "Venta al por menor de juguetes, artículos de deporte",
          "_links": {
            "self": {
              "name": "Venta al por menor de juguetes, artículos de deporte",
              "href": "https://api.euskadi.eus/procurements/companies/economic-activities/1.659.6"
            }
          }
        }
      ],
      "certificateStartDate": "2024-07-20",
      "certificateEndDate": "2025-01-20",
      "object": "DISTRIBUCIÓN, COMERCIALIZACIÓN, COMPRA-VENTA AL POR MAYOR Y AL POR MENOR DE TODO TIPO DE ARTÍCULOS Y MATERIAL DEPORTIVO TANTO A EMPRESAS, CLUBS DEPORTIVOS, FEDERACIONES DEPORTIVAS Y A CLIENTES PARTICULARES. COMPRA-VENTA, ALQUILER Y REPARACIÓN DE BICICLETAS NUEVAS Y DE SEGUNDA MANO.",
      "mainEntityOfPage": "https://www.contratacion.euskadi.eus/webkpe00-kperoc/es/ac71aBusquedaRegistrosWar/empresa/08901",
      "_links": {
        "self": {
          "name": "AITOR KIROLAK, S.L.",
          "href": "https://api.euskadi.eus/procurements/companies/08901"
        }
      }
    },
    {
      "name": "THERMO FISHER DIAGNOSTICS, S.L.U.",
      "registrationNumber": "05036",
      "identificationNumber": "B62014485",
      "address": "Carretera de l'Hospitalet, 147-149 City Park Edificio Londres 3ª planta",
      "location": {
        "postalCode": "08940",
        "municipality": "Cornellà de Llobregat",
        "county": "Barcelona",
        "municipalityId": "073",
        "countyId": "08"
      },
      "economicActivities": [
        {
          "id": "1.614.1",
          "name": "Venta al por mayor de productos farmacéuticos y medicamentos",
          "_links": {
            "self": {
              "name": "Venta al por mayor de productos farmacéuticos y medicamentos",
              "href": "https://api.euskadi.eus/procurements/companies/economic-activities/1.614.1"
            }
          }
        },
        {
          "id": "1.619.2",
          "name": "Venta al por mayor de aparatos e instrumentos médicos, ortopédicos, ópticos",
          "_links": {
            "self": {
              "name": "Venta al por mayor de aparatos e instrumentos médicos, ortopédicos, ópticos",
              "href": "https://api.euskadi.eus/procurements/companies/economic-activities/1.619.2"
            }
          }
        }
      ],
      "certificateStartDate": "2024-07-18",
      "certificateEndDate": "2025-01-18",
      "object": "LA INVESTIGACIÓN Y DESARROLLO CIENTÍFICO, ADQUISICIÓN, FABRICACIÓN, IMPORTACIÓN, EXPORTACIÓN, REPRESENTACIÓN, COMERCIALIZACIÓN, VENTA Y DISTRIBUCIÓN DE TODA CLASE DE PRODUCTOS QUÍMICOS, SANITARIOS, FARMACÉUTICOS, PARAFARMACÉUTICOS, MEDICINALES, HOSPITALARIO SY VETERINARIOS, ASÍ COMO DE SUS MATERIAS PRIMAS Y COMPONENTES, E IGUALMENTE LA TENENCIA, DESARROLLO Y EXPLOTACIÓN DE PATENTES, MARCAS Y PROCEDIMIENTOS DE FABRICACIÓN RESPECTO DE LAS ACTIVIDADES EXPRESADAS. PRESTACIÓN DE SERVICIOS Y ASISTENCIA TÉCNICA EN LOS SECTORES QUÍMICO, FARMACÉUTICO, YHOSPITALARIO Y VETERINARIO",
      "mainEntityOfPage": "https://www.contratacion.euskadi.eus/webkpe00-kperoc/es/ac71aBusquedaRegistrosWar/empresa/05036",
      "_links": {
        "self": {
          "name": "THERMO FISHER DIAGNOSTICS, S.L.U.",
          "href": "https://api.euskadi.eus/procurements/companies/05036"
        }
      }
    },
    {
      "name": "LABORATORIO REIG JOFRÉ S.A.",
      "registrationNumber": "06089",
      "identificationNumber": "A96184882",
      "address": "C/ GRAN CAPITÁ, 10",
      "location": {
        "postalCode": "08970",
        "municipality": "Sant Joan Despí",
        "county": "Barcelona",
        "municipalityId": "217",
        "countyId": "08"
      },
      "economicActivities": [
        {
          "id": "1.254.2",
          "name": "Fabricación de especialidades y otros productos farmacéuticos",
          "_links": {
            "self": {
              "name": "Fabricación de especialidades y otros productos farmacéuticos",
              "href": "https://api.euskadi.eus/procurements/companies/economic-activities/1.254.2"
            }
          }
        },
        {
          "id": "1.754.9",
          "name": "Otros depósitos y almacenes especiales n.c.o.p",
          "_links": {
            "self": {
              "name": "Otros depósitos y almacenes especiales n.c.o.p",
              "href": "https://api.euskadi.eus/procurements/companies/economic-activities/1.754.9"
            }
          }
        }
      ],
      "certificateStartDate": "2024-07-18",
      "certificateEndDate": "2025-01-18",
      "object": "1. ELABORACIÓN E INVESTIGACIÓN DE PRINCIPIOS ACTIVOS E INGREDIENTES NUTRACEÚTICOS, PROCEDENTES DE FUENTES NATURALES, DIRIGIDOS ESPECÍFICAMENTE A LA PREVENCIÓN DE ENFERMEDADES O COMO SUPLEMENTO NUTRICIONAL INCORPORADO A PRODUCTOS DE CONSUMO DIARIO (ALIMENTOS FUNCIONALES). OBTENCIÓN DE PATENTES DE ESTOS PRODUCTOS Y DE SUS EFECTOS BENEFICIOSOS UNA VEZ ESTÉN VALIDADOS, PARA SU POSTERIOR CESIÓN DE USO Y COMERCIALIZACIÓN A TERCEROS. 2. ELABORACIÓN DE PRODUCTOS QUÍMICOS Y ALIMENTICIOS A PARTIR DE PRODUCTOS VEGETALES, POR MEDIOS TANTO FÍSICOS COMO QUÍMICOS, ASÍ COMO LA COMERCIALIZACIÓN, IMPORTACIÓN Y EXPORTACIÓN Y EN GENERAL, CUALQUIER INTERMEDIACIÓN EN LA FABRICACIÓN O COMERCIALIZACIÓN DE LOS MISMOS, SUS EXTRACTOS O DERIVADOS, ASÍ COMO LA EXPLOTACIÓN DE PLANTACIONES AGRÍCOLAS Y DE PRODUCTOS TROPICALES RELACIONADOS CON LAS ACTIVIDADES MENCIONADAS. \r\n\r\n",
      "mainEntityOfPage": "https://www.contratacion.euskadi.eus/webkpe00-kperoc/es/ac71aBusquedaRegistrosWar/empresa/06089",
      "_links": {
        "self": {
          "name": "LABORATORIO REIG JOFRÉ S.A.",
          "href": "https://api.euskadi.eus/procurements/companies/06089"
        }
      }
    },
    {
      "name": "MUGAK, S.L.",
      "registrationNumber": "08944",
      "identificationNumber": "B20307773",
      "address": "Andre kalea, 54-4ºC",
      "location": {
        "postalCode": "20120",
        "municipality": "Hernani",
        "county": "Gipuzkoa",
        "municipalityId": "040",
        "countyId": "20"
      },
      "economicActivities": [
        {
          "id": "1.843.4",
          "name": "Servicios técnicos de topografía",
          "_links": {
            "self": {
              "name": "Servicios técnicos de topografía",
              "href": "https://api.euskadi.eus/procurements/companies/economic-activities/1.843.4"
            }
          }
        }
      ],
      "certificateStartDate": "2024-07-18",
      "certificateEndDate": "2025-01-18",
      "object": "LA REALIZACIÓN DE ESTUDIOS Y TRABAJOS TOPOGRÁFICOS, ASÍ COMO LA TRAMITACIÓN DE EXPEDIENTES POR RAZÓN DE EXPROPIACIONES Y LA VALORACIÓN DE FINCAS TANTO RÚSTICAS COMO URBANAS.",
      "mainEntityOfPage": "https://www.contratacion.euskadi.eus/webkpe00-kperoc/es/ac71aBusquedaRegistrosWar/empresa/08944",
      "_links": {
        "self": {
          "name": "MUGAK, S.L.",
          "href": "https://api.euskadi.eus/procurements/companies/08944"
        }
      }
    },
    {
      "name": "ASESORIA DE LA EMPRESA VASCA AVANTE, S.L.",
      "registrationNumber": "09388",
      "identificationNumber": "B20793212",
      "address": "PLAZA IRIBAR 2, PISO 3, OFICINA 5 ",
      "location": {
        "postalCode": "20018",
        "municipality": "Donostia / San Sebastián",
        "county": "Gipuzkoa",
        "municipalityId": "069",
        "countyId": "20"
      },
      "economicActivities": [
        {
          "id": "1.842",
          "name": "Servicios financieros y contables",
          "_links": {
            "self": {
              "name": "Servicios financieros y contables",
              "href": "https://api.euskadi.eus/procurements/companies/economic-activities/1.842"
            }
          }
        },
        {
          "id": "1.844",
          "name": "Servicios de publicidad, relaciones públicas y similares",
          "_links": {
            "self": {
              "name": "Servicios de publicidad, relaciones públicas y similares",
              "href": "https://api.euskadi.eus/procurements/companies/economic-activities/1.844"
            }
          }
        }
      ],
      "certificateStartDate": "2024-07-17",
      "certificateEndDate": "2025-01-17",
      "object": "SERVICIOS A EMPRESAS EN GENERAL (MARKETING).",
      "mainEntityOfPage": "https://www.contratacion.euskadi.eus/webkpe00-kperoc/es/ac71aBusquedaRegistrosWar/empresa/09388",
      "_links": {
        "self": {
          "name": "ASESORIA DE LA EMPRESA VASCA AVANTE, S.L.",
          "href": "https://api.euskadi.eus/procurements/companies/09388"
        }
      }
    },
    {
      "name": "EVALUACION AMBIENTAL, S.L.",
      "registrationNumber": "08556",
      "identificationNumber": "B19189331",
      "address": "calle Juan Bravo 3A",
      "location": {
        "postalCode": "28006",
        "municipality": "Madrid",
        "county": "Madrid",
        "municipalityId": "079",
        "countyId": "28"
      },
      "economicActivities": [
        {
          "id": "1.843.9",
          "name": "Otros servicios técnicos n.c.o.p",
          "_links": {
            "self": {
              "name": "Otros servicios técnicos n.c.o.p",
              "href": "https://api.euskadi.eus/procurements/companies/economic-activities/1.843.9"
            }
          }
        }
      ],
      "certificateStartDate": "2024-07-17",
      "certificateEndDate": "2025-01-17",
      "object": "A) LA GESTIÓN DE PROYECTOS CON IMPLICACIONES AMBIENTALES. B) LA ELABORACIÓN Y TRAMITACIÓN DE ESTUDIOS AMBIENTALES PARA LA EVALUACIÓN AMBIENTAL DE PLANES, PROGRAMAS, PROYECTOS Y ACTIVIDADES. C) LA ELABORACIÓN Y TRAMITACIÓN DE ESTUDIOS AMBIENTALES RELACIONADOS CON EL URBANISMO, LA ORDENACIÓN DEL TERRITORIO Y DE LOS RECURSOS NATURALES. D) LA REDACCIÓN Y EJECUCIÓN DE PROGRAMAS DE VIGILANCIA AMBIENTAL ASÍ COMO EL SEGUIMIENTO, CONTROL Y/O VIGILANCIA AMBIENTAL DE OBRAS E INSTALACIONES EN FUNCIONAMIENTO. E) EL APOYO TÉCNICO Y LA ASISTENCIA TÉCNICA DE CARÁCTER MEDIOAMBIENTAL. F) EL DISEÑO, DESARROLLO E IMPLEMENTACIÓN DE SISTEMAS DE GESTIÓN MEDIOAMBIENTAL. G) LA GESTIÓN Y TRAMITACIÓN DE CUALESQUIERA AUTORIZACIONES AMBIENTALES. H) EL OUTSOURCING MEDIOAMBIENTAL.",
      "mainEntityOfPage": "https://www.contratacion.euskadi.eus/webkpe00-kperoc/es/ac71aBusquedaRegistrosWar/empresa/08556",
      "_links": {
        "self": {
          "name": "EVALUACION AMBIENTAL, S.L.",
          "href": "https://api.euskadi.eus/procurements/companies/08556"
        }
      }
    },
    {
      "name": "KULTURBEGI KOOP. ELK. TXIKIA",
      "registrationNumber": "09392",
      "identificationNumber": "F72501067",
      "address": "Gregorio de la Revilla, 10 Bº Bilbao",
      "location": {
        "postalCode": "48011",
        "municipality": "Bilbao",
        "county": "Bizkaia",
        "municipalityId": "020",
        "countyId": "48"
      },
      "economicActivities": [
        {
          "id": "1.966.9",
          "name": "Otros servicios culturales n.c.o.p",
          "_links": {
            "self": {
              "name": "Otros servicios culturales n.c.o.p",
              "href": "https://api.euskadi.eus/procurements/companies/economic-activities/1.966.9"
            }
          }
        },
        {
          "id": "1.973.1",
          "name": "Servicios fotográficos",
          "_links": {
            "self": {
              "name": "Servicios fotográficos",
              "href": "https://api.euskadi.eus/procurements/companies/economic-activities/1.973.1"
            }
          }
        }
      ],
      "certificateStartDate": "2024-07-17",
      "certificateEndDate": "2025-01-17",
      "object": "LA REALIZACIÓN, FOMENTO Y DIFUSIÓN DE LOS CONOCIMIENTOS SOBRE FOTOGRAFÍA, DESARROLLANDO LAS CUALIDADES HUMANÍSTICAS DE LA IMAGEN FOTOGRÁFICA MEDIANTE EXPOSICIONES (DE ÁMBITO COMARCAL, NACIONAL E INTERNACIONAL), CURSOS, CONFERENCIAS, TALLERES, PUBLICACIONES, FESTIVALES, Y CREANDO SINERGIAS ENTRE LAS DIFERENTES ASOCIACIONES Y COLECTIVOS RELACIONADOS CON LA FOTOGRAFÍA E IMAGEN EN GENERAL. PRODUCCIÓN, DISTRIBUCIÓN, COMERCIALIZACIÓN DE OBRAS AUDIOVISUALES, ASÍ COMO LA INVESTIGACIÓN Y EL DESARROLLO EN MATERIA AUDIOVISUAL, ASÍ COMO LA EDICIÓN Y PUBLICACIÓN DE LIBROS, CATÁLOGOS, PÁGINAS WEB CON CONTENIDOS AUDIOVISUALES.",
      "mainEntityOfPage": "https://www.contratacion.euskadi.eus/webkpe00-kperoc/es/ac71aBusquedaRegistrosWar/empresa/09392",
      "_links": {
        "self": {
          "name": "KULTURBEGI KOOP. ELK. TXIKIA",
          "href": "https://api.euskadi.eus/procurements/companies/09392"
        }
      }
    },
    {
      "name": "INSTALACIONES IPARRALDE, S.L.",
      "registrationNumber": "09736",
      "identificationNumber": "B75193649",
      "address": "Calle Iparraguirre nº18",
      "location": {
        "postalCode": "20001",
        "municipality": "Donostia / San Sebastián",
        "county": "Gipuzkoa",
        "municipalityId": "069",
        "countyId": "20"
      },
      "economicActivities": [
        {
          "id": "1.501.3",
          "name": "Albañilería y pequeños trabajos de construcción en general",
          "_links": {
            "self": {
              "name": "Albañilería y pequeños trabajos de construcción en general",
              "href": "https://api.euskadi.eus/procurements/companies/economic-activities/1.501.3"
            }
          }
        },
        {
          "id": "1.504.2",
          "name": "Instalaciones de fontanería",
          "_links": {
            "self": {
              "name": "Instalaciones de fontanería",
              "href": "https://api.euskadi.eus/procurements/companies/economic-activities/1.504.2"
            }
          }
        },
        {
          "id": "1.504.5",
          "name": "Montaje e instalación de cocinas de todo tipo y clase",
          "_links": {
            "self": {
              "name": "Montaje e instalación de cocinas de todo tipo y clase",
              "href": "https://api.euskadi.eus/procurements/companies/economic-activities/1.504.5"
            }
          }
        }
      ],
      "certificateStartDate": "2024-07-17",
      "certificateEndDate": "2025-01-17",
      "object": "INTERMEDIARIOS DE COMERCIO DE ELECTRODOMÉSTICOS. INSTALACIONES DE FONTANERÍA, FRIO Y CALOR. INSTALACIONES DE AIRE ACONDICIONADO. MONTAJE Y MANTENIMIENTO DE TODO TIPO DE INSTALACIONES ELÉCTRICAS Y TELECOMUNICACIONES. ALBAÑILERÍA. CARPINTERÍA. PINTURA INSTALACIONES DE CARPINTERÍA. REPARACIÓN DE APARATOS ELÉCTRICOS.",
      "mainEntityOfPage": "https://www.contratacion.euskadi.eus/webkpe00-kperoc/es/ac71aBusquedaRegistrosWar/empresa/09736",
      "_links": {
        "self": {
          "name": "INSTALACIONES IPARRALDE, S.L.",
          "href": "https://api.euskadi.eus/procurements/companies/09736"
        }
      }
    },
    {
      "name": "SEICORLAN, S.L.",
      "registrationNumber": "07142",
      "identificationNumber": "B75103960",
      "address": "PASEO UBARBURU 35 LOCAL 16",
      "location": {
        "postalCode": "20014",
        "municipality": "Donostia / San Sebastián",
        "county": "Gipuzkoa",
        "municipalityId": "069",
        "countyId": "20"
      },
      "economicActivities": [
        {
          "id": "1.501.1",
          "name": "Construcción completa, reparación y conservación de edificaciones",
          "_links": {
            "self": {
              "name": "Construcción completa, reparación y conservación de edificaciones",
              "href": "https://api.euskadi.eus/procurements/companies/economic-activities/1.501.1"
            }
          }
        },
        {
          "id": "1.722",
          "name": "Transporte de mercancías por carretera",
          "_links": {
            "self": {
              "name": "Transporte de mercancías por carretera",
              "href": "https://api.euskadi.eus/procurements/companies/economic-activities/1.722"
            }
          }
        }
      ],
      "certificateStartDate": "2024-07-17",
      "certificateEndDate": "2025-01-12",
      "object": "-LA CONSTRUCCIÓN, REHABILITACIÓN, PROMOCIÓN, REPARACIÓN Y CONSERVACIÓN DE EDIFICIOS PARA USO RESIDENCIAL INDUSTRIAL O DE SERVICIOS. -LA PRESTACIÓN DE SERVICIOS DE INTERMEDIACIÓN Y ASESORAMIENTO EN TODO TIPO DE OPERACIONES RELACIONADAS CON LA PROPIEDAD INMOBILIARIA. -SERVICIOS TÉCNICOS DE ARQUITECTURA. - ALQUILER Y COMPRA VENTA DE TODO TIPO DE EMBARCACIONES DE RECREO",
      "mainEntityOfPage": "https://www.contratacion.euskadi.eus/webkpe00-kperoc/es/ac71aBusquedaRegistrosWar/empresa/07142",
      "_links": {
        "self": {
          "name": "SEICORLAN, S.L.",
          "href": "https://api.euskadi.eus/procurements/companies/07142"
        }
      }
    }
  ]
}