{
  "totalItems": 9042,
  "totalPages": 905,
  "currentPage": 693,
  "itemsOfPage": 10,
  "items": [
    {
      "name": "TENSA, S.A.",
      "registrationNumber": "02894",
      "identificationNumber": "A33020074",
      "address": "CTRA. ESTACIÓN POL. INDD.LLAMES, NAVE 9",
      "location": {
        "postalCode": "33420",
        "municipality": "Siero",
        "county": "Asturias",
        "municipalityId": "066",
        "countyId": "33"
      },
      "economicActivities": [
        {
          "id": "1.504.1",
          "name": "Instalaciones eléctricas en general",
          "_links": {
            "self": {
              "name": "Instalaciones eléctricas en general",
              "href": "https://api.euskadi.eus/procurements/companies/economic-activities/1.504.1"
            }
          }
        }
      ],
      "certificateStartDate": "2012-08-09",
      "certificateEndDate": "2013-01-11",
      "object": "LA PREPARACIÓN, ESTUDIO Y REALIZACIÓN DE PROYECTOS, MONTAJES MECÁNICOS Y ELÉCTRICOS, AUTOMOCIÓN, TRANSOPORTE Y VENTA DE MATERIALES RELACIONADOS CON ELLO  ",
      "mainEntityOfPage": "https://www.contratacion.euskadi.eus/webkpe00-kperoc/es/ac71aBusquedaRegistrosWar/empresa/02894",
      "_links": {
        "self": {
          "name": "TENSA, S.A.",
          "href": "https://api.euskadi.eus/procurements/companies/02894"
        }
      }
    },
    {
      "name": "ANTIA ERAIKI, S.L.",
      "registrationNumber": "03703",
      "identificationNumber": "B95422721",
      "address": "PAE IBARABARRI - ITURRIONDO 18 - 2 C",
      "location": {
        "postalCode": "48940",
        "municipality": "Leioa",
        "county": "Bizkaia",
        "municipalityId": "054",
        "countyId": "48"
      },
      "economicActivities": [
        {
          "id": "1.501.1",
          "name": "Construcción completa, reparación y conservación de edificaciones",
          "_links": {
            "self": {
              "name": "Construcción completa, reparación y conservación de edificaciones",
              "href": "https://api.euskadi.eus/procurements/companies/economic-activities/1.501.1"
            }
          }
        },
        {
          "id": "1.501.2",
          "name": "Construcción completa, reparación y conservación obras civiles",
          "_links": {
            "self": {
              "name": "Construcción completa, reparación y conservación obras civiles",
              "href": "https://api.euskadi.eus/procurements/companies/economic-activities/1.501.2"
            }
          }
        }
      ],
      "certificateStartDate": "2012-08-09",
      "certificateEndDate": "2012-12-18",
      "object": "A) LA CONTRATACIÓN, GESTIÓN Y EJECUCIÓN DE TODA CLASE DE OBRAS Y CONSTRUCCIONES EN SU MKÁS AMPLIO SENTIDO, TANTO PÚBLICAS COMO PRIVADAS.\r\nB) LA ADQUISICIÓN, ADMINISTRACIÓN, GESTIÓN, PROMOCIÓN, EXPLOTACIÓN EN ARRENDAMIENTOS O EN CUALQUIER OTRA FORMA, CONSTRUCCIÓN, COMPRA Y VENTA DE TODA CLASE DE BIENES INMUEBLES, ASÍ COMO EL ASESORAMIENTO RESPECTO A LAS OPERACIONES ANTERIORES.\r\nC) LA ELABORACIÓN DE TODO TIPO DE PROYECTOS DE INGENIERÍA Y ARQUITECTURA, ASÍ COMO LA SUPERVISIÓN, DIRECCIÓN Y ASESORAMIENTO EN LA EJECUCIÓN DE TODO TIPO DE OBRAS Y CONSTRUCCIONES.\r\nD) MANTENIMIENTO, REHABILITACIÓN Y ACONDICIONAMIENTO DE EDIFICIOS.\r\nE) PROMOCIÓN, GESTIÓN Y EJECUCIÓN DE TODO TIPO DE NEGOCIOS INMOBILIARIOS, TANTO EN SU VERTIENTE URBANÍSTICA COMO EN LA CONSTRUCCIÓN EN SÍ, PARA SU EXPLOTACIÓN, VENTA O ALQUILER.\r\nF) LA ADQUISICIÓN, TENENCIA, DISFRUTE, ADMINISTRACIÓN Y ENAJENACIÓN DE TODA CLASE DE VALORES MOBILIARIOS POR CUENTA PROPIA, QUEDANDO EXCLUIDAS LAS ACTIVIDADES QUE LA LEGISLACIÓN ESPECIAL Y BÁSICAMENTE LA LEY DEL MERCADO DE VALORES, ATRIBUYE CON CARÁCTER EXCLUSIVO A OTRAS ENTIDADES.\r\nG) LA TITULARIDAD DE TODA CLASE DE CONCESIONES, SUBCONCESIONES Y AUTORIZACIONES ADMINISTRATIVAS DE OBRAS, SERVICIOS Y MIXTAS DEL ESTADO, COMUNIDAD AUTÓNOMA, PROVINCIA Y MUNICIPIO Y PARTICIPACIÓN ACCIONARIAL EN SOCIEDADES CONCESIONARIOS DE AQUELLAS.\r\nH) LA FABRICACIÓN, COMPRA, VENTA, IMPORTACIÓN, EXPORTACIÓN Y DISTRIBUCIÓN DE EQUIPOS, INSTALACIÓN DE ELEMENTOS Y MATERIALES DE CONSTRUCCIÓN DESTINADOS A LA MISMA, AL AMUEBLAMIENTO DE INMUEBLES Y MOBILIARIO URBANO.\r\nI) ADQUISICIÓN, EXPLOTACIÓN, EN CUALQUIER FORMA, COMERCIALIZACIÓN, CESIÓN Y ENAJENACIÓN DE TODO TIPO DE PROPIEDAD INTELECTURAL Y PATENTES Y DEMÁS MODALIDADES DE PROPIEDAD INDUSTRIAL",
      "mainEntityOfPage": "https://www.contratacion.euskadi.eus/webkpe00-kperoc/es/ac71aBusquedaRegistrosWar/empresa/03703",
      "_links": {
        "self": {
          "name": "ANTIA ERAIKI, S.L.",
          "href": "https://api.euskadi.eus/procurements/companies/03703"
        }
      }
    },
    {
      "name": "LABORATORIOS INIBSA, S.A.",
      "registrationNumber": "03588",
      "identificationNumber": "A08076887",
      "address": "CTRA. SABADELL A GRANOLLERS, KM. 14,5",
      "location": {
        "postalCode": "08185",
        "municipality": "Lliçà de Vall",
        "county": "Barcelona",
        "municipalityId": "108",
        "countyId": "08"
      },
      "economicActivities": [
        {
          "id": "1.254.2",
          "name": "Fabricación de especialidades y otros productos farmacéuticos",
          "_links": {
            "self": {
              "name": "Fabricación de especialidades y otros productos farmacéuticos",
              "href": "https://api.euskadi.eus/procurements/companies/economic-activities/1.254.2"
            }
          }
        },
        {
          "id": "1.619.2",
          "name": "Venta al por mayor de aparatos e instrumentos médicos, ortopédicos, ópticos",
          "_links": {
            "self": {
              "name": "Venta al por mayor de aparatos e instrumentos médicos, ortopédicos, ópticos",
              "href": "https://api.euskadi.eus/procurements/companies/economic-activities/1.619.2"
            }
          }
        }
      ],
      "certificateStartDate": "2012-08-08",
      "certificateEndDate": "2013-01-20",
      "object": "CONSTITUYE EL OBJETO DE LA SOCIEDAD: LA FABRICACIÓN Y COMERCIO, IMPORTACIÓN Y EXPORTACIÓN, DE ARTÍCULOS O PRODUCTOS MÉDICOS, FARMACÉUTICOS, SANITARIOS, QUÍMICOS Y DERIVADOS, LA ELABORACIÓN Y TRANSFORMACIÓN DE LOS MISMOS, ASÍ COMO LA INVESTIGACIÓN Y LA EXPLOTACIÓN DE TODA CLASE DE LICENCIAS O PATENTES",
      "mainEntityOfPage": "https://www.contratacion.euskadi.eus/webkpe00-kperoc/es/ac71aBusquedaRegistrosWar/empresa/03588",
      "_links": {
        "self": {
          "name": "LABORATORIOS INIBSA, S.A.",
          "href": "https://api.euskadi.eus/procurements/companies/03588"
        }
      }
    },
    {
      "name": "ZENTO MEDICAL, S.L.",
      "registrationNumber": "04374",
      "identificationNumber": "B62046974",
      "address": "JESÚS SERRA SANTAMANS, 5",
      "location": {
        "postalCode": "08174",
        "municipality": "Sant Cugat del Vallès",
        "county": "Barcelona",
        "municipalityId": "205",
        "countyId": "08"
      },
      "economicActivities": [
        {
          "id": "1.619.2",
          "name": "Venta al por mayor de aparatos e instrumentos médicos, ortopédicos, ópticos",
          "_links": {
            "self": {
              "name": "Venta al por mayor de aparatos e instrumentos médicos, ortopédicos, ópticos",
              "href": "https://api.euskadi.eus/procurements/companies/economic-activities/1.619.2"
            }
          }
        }
      ],
      "certificateStartDate": "2012-08-07",
      "certificateEndDate": "2013-01-02",
      "object": "LA COMPRAVENTA, FABRICACIÓN, IMPORTACIÓN, EXPORTACIÓN, COMERCIALIZACIÓN, VENTA Y DISTRIBUCIÓN DE PRODUCTOS DE USO Y CONSUMO HOSPITALARIO, ASÍ COMO LA PRESTACIÓN DE SERVICIOS HOSPITALARIOS Y OTROS SERVICIOS Y PRODUCTOS DESTINADOS A LA SALUD PÚBLICA, OTORGANDO Y RECIBIENDO LICENCIAS SOBRE LOS MISMOS Y PUDIÉNDOSE DEDICAR ADEMÁS A CUALQUIER OTRA ACTIVIDAD DIRECTA O INDIRECTAMENTE RELACIONADA CON LAS ANTERIORES.",
      "mainEntityOfPage": "https://www.contratacion.euskadi.eus/webkpe00-kperoc/es/ac71aBusquedaRegistrosWar/empresa/04374",
      "_links": {
        "self": {
          "name": "ZENTO MEDICAL, S.L.",
          "href": "https://api.euskadi.eus/procurements/companies/04374"
        }
      }
    },
    {
      "name": "INCHARGE IBÉRICA, S.L.",
      "registrationNumber": "04853",
      "identificationNumber": "B95686002",
      "address": "TOMÁS ZUBIRIA IBARRA, 3 - 4º F",
      "location": {
        "postalCode": "48007",
        "municipality": "Bilbao",
        "county": "Bizkaia",
        "municipalityId": "020",
        "countyId": "48"
      },
      "economicActivities": [
        {
          "id": "1.655.4",
          "name": "Servicios de recarga energética para vehículos eléctricos en el ámbito privado",
          "_links": {
            "self": {
              "name": "Servicios de recarga energética para vehículos eléctricos en el ámbito privado",
              "href": "https://api.euskadi.eus/procurements/companies/economic-activities/1.655.4"
            }
          }
        },
        {
          "id": "1.655.5",
          "name": "Servicios de recarga energética para vehículos eléctricos en el ámbito público",
          "_links": {
            "self": {
              "name": "Servicios de recarga energética para vehículos eléctricos en el ámbito público",
              "href": "https://api.euskadi.eus/procurements/companies/economic-activities/1.655.5"
            }
          }
        },
        {
          "id": "1.659.3",
          "name": "Venta al por menor de aparatos médicos, ortopédicos, ópticos y fotográficos",
          "_links": {
            "self": {
              "name": "Venta al por menor de aparatos médicos, ortopédicos, ópticos y fotográficos",
              "href": "https://api.euskadi.eus/procurements/companies/economic-activities/1.659.3"
            }
          }
        }
      ],
      "certificateStartDate": "2012-07-31",
      "certificateEndDate": "2012-12-07",
      "object": "COMPRAVENTA Y ARRENDAMIENTO DE PUESTOS DE CARA DE VEHÍCULOS ELÉCTRICOS, DE PANELES INFORMATIVOS Y DE PUESTOS DE SOCORRO O EMERGENCIA; GESTIÓN, ASESORÍA E INSTALACIÓN DE DISPOSITIVOS QUE FORMENTEN LA EFICIENCIA ENERGÉTICA; SERVICIOS DE CONSULTORÍA Y GESTIÓN EN LOS CAMPOS DE LA EFICIENCIA ENERGÉTICA, EL AHORRO ENERGÉTICO Y LAS ENERGÍAS RENOVABLES; PRODUCCIÓN, FABRICACIÓN, IMPORTACIÓN, EXPORTACIÓN, CONSIGNACIÓN, ALMACENAJE Y DISTRIBUCIÓN DE TODO TIPO DE BIENES MUEBLES",
      "mainEntityOfPage": "https://www.contratacion.euskadi.eus/webkpe00-kperoc/es/ac71aBusquedaRegistrosWar/empresa/04853",
      "_links": {
        "self": {
          "name": "INCHARGE IBÉRICA, S.L.",
          "href": "https://api.euskadi.eus/procurements/companies/04853"
        }
      }
    },
    {
      "name": "FUNDACIÓN CANÓNICA AUTÓNOMA EDE",
      "registrationNumber": "03172",
      "identificationNumber": "Q4800602G",
      "address": "SIMÓN BOLIVAR, 8 B",
      "location": {
        "postalCode": "48010",
        "municipality": "Bilbao",
        "county": "Bizkaia",
        "municipalityId": "020",
        "countyId": "48"
      },
      "economicActivities": [
        {
          "id": "1.849.9",
          "name": "Otros servicios independientes n.c.o.p",
          "_links": {
            "self": {
              "name": "Otros servicios independientes n.c.o.p",
              "href": "https://api.euskadi.eus/procurements/companies/economic-activities/1.849.9"
            }
          }
        },
        {
          "id": "1.932.1",
          "name": "Enseñanza de formación y perfeccionamiento profesional no superior",
          "_links": {
            "self": {
              "name": "Enseñanza de formación y perfeccionamiento profesional no superior",
              "href": "https://api.euskadi.eus/procurements/companies/economic-activities/1.932.1"
            }
          }
        },
        {
          "id": "1.966.9",
          "name": "Otros servicios culturales n.c.o.p",
          "_links": {
            "self": {
              "name": "Otros servicios culturales n.c.o.p",
              "href": "https://api.euskadi.eus/procurements/companies/economic-activities/1.966.9"
            }
          }
        }
      ],
      "certificateStartDate": "2012-07-27",
      "certificateEndDate": "2012-08-02",
      "object": "LA FORMACIÓN Y CAPACITACIÓN DE EDUCADORES Y ANIMADORES CRISTIANOS QUE DESARROLLAN SU TAREA EN EL ÁMBITO DE LA DENOMINADA EDUCACIÓN \"NO FORMAL\"; REALIZADA EN PLATAFORMAS DE GRAN DIVERSIDAD DE ORIENTACIÓN, TANTO EN INSTITUCIONES ECLESIALES COMO CIVILES, TANTO ENTIDADES PÚBLICAS COMO EN CUALQUIER UNIDAD PASTORAL. ESTE FIN GENERAL SE ESPECIFICA EN LOS SIGUIENTES ASPECTOS: \r\na) LA FORMACIÓN Y CAPACITACIÓN DE EDUCADORES DE TIEMPO LIBRE, INFANTIL Y JUVENIL (DIRECTORES Y MONITORES).\r\nb) LA FORMACIÓN Y CAPACITACIÓN DE ANIMADORES SOCIOCULTURALES.\r\nc) LA ACTUACIÓN Y FORMACIÓN PERMANENTE DE LOS EDUCADORES ANIMADORES.\r\nd) LA FORMACIÓN Y CAPACITACIÓN DE PERSONAS APTAS PARA SER DESIGNADAS AGENTES DE PASTORAL EN AQUELLOS CAMPOS QUE LE SEAN SEÑALADOS POR LOS RESPONSABLES DIOCESANOS.\r\ne) LA PROMOCIÓN DEL ESTUDIO Y DE LA INVESTIGACIÓN EN LOS CAMPOS OBJETO DE LAS FINALIDADES DE LA FUNDACIÓN.\r\n\r\nTODA LA TAREA FORMATIVA Y DE CAPACITACIÓN QUE SE REALICE EN LA FUNDACIÓN ESTARÁ INSPIRADA EN EL SENTIDO HUMANO-CRISTIANO DE LA VIDA Y SEGUIRÁ LAS ORIENTACIONES QUE DICE EL MAGISTERIO DE LA IGLESIA CATÓLICA Y, EN ESPECIAL, EL OBISPO DE BILBAO Y SUS ORGANISMOS PASTORALES DIOCESANOS",
      "mainEntityOfPage": "https://www.contratacion.euskadi.eus/webkpe00-kperoc/es/ac71aBusquedaRegistrosWar/empresa/03172",
      "_links": {
        "self": {
          "name": "FUNDACIÓN CANÓNICA AUTÓNOMA EDE",
          "href": "https://api.euskadi.eus/procurements/companies/03172"
        }
      }
    },
    {
      "name": "M.F. PUBLIMAILING, S.L.",
      "registrationNumber": "03725",
      "identificationNumber": "B01171115",
      "address": "ALBERTIA, 18. POLÍGONO ANSOLETA",
      "location": {
        "postalCode": "01006",
        "municipality": "Vitoria-Gasteiz",
        "county": "Araba/Álava",
        "municipalityId": "059",
        "countyId": "01"
      },
      "economicActivities": [
        {
          "id": "1.849.5",
          "name": "Servicios de recadería y reparto y manipulación de correspondencia",
          "_links": {
            "self": {
              "name": "Servicios de recadería y reparto y manipulación de correspondencia",
              "href": "https://api.euskadi.eus/procurements/companies/economic-activities/1.849.5"
            }
          }
        }
      ],
      "certificateStartDate": "2012-07-26",
      "certificateEndDate": "2009-05-05",
      "object": "A) LA DISTRIBUCIÓN DE TODO TIPO DE CARGAS Y PUBLICIDAD.\r\nB) LA ADQUISICIÓN, VENTA Y EXPLOTACIÓN, MEDIANTE ARRENDAMIENTO O CUALQUIER OTRO FORMA JURÍDICA, DE BIENES INMUEBLES, PROPIOS O AJENOS A LA SOCIEDAD",
      "mainEntityOfPage": "https://www.contratacion.euskadi.eus/webkpe00-kperoc/es/ac71aBusquedaRegistrosWar/empresa/03725",
      "_links": {
        "self": {
          "name": "M.F. PUBLIMAILING, S.L.",
          "href": "https://api.euskadi.eus/procurements/companies/03725"
        }
      }
    },
    {
      "name": "KPMG RECURSOS, S.A.",
      "registrationNumber": "00681",
      "identificationNumber": "A78446333",
      "address": "C/ PASEO DE LA CASTELLANA, Nº 95.",
      "location": {
        "postalCode": "28046",
        "municipality": "Madrid",
        "county": "Madrid",
        "municipalityId": "079",
        "countyId": "28"
      },
      "economicActivities": [
        {
          "id": "1.842",
          "name": "Servicios financieros y contables",
          "_links": {
            "self": {
              "name": "Servicios financieros y contables",
              "href": "https://api.euskadi.eus/procurements/companies/economic-activities/1.842"
            }
          }
        },
        {
          "id": "1.849.7",
          "name": "Servicios de gestión administrativa",
          "_links": {
            "self": {
              "name": "Servicios de gestión administrativa",
              "href": "https://api.euskadi.eus/procurements/companies/economic-activities/1.849.7"
            }
          }
        }
      ],
      "certificateStartDate": "2012-07-23",
      "certificateEndDate": "2012-12-25",
      "object": "LA PRESTACIÓN DE SERVICIOS PROFESIONALES DE AUDITORÍA, REVISIÓN Y CENSURA DE CUENTAS, ASESORÍA FISCAL Y DE CONSULTORÍA PARA EL ASESORAMIENTO EN LA GESTIÓN ECONÓMICA Y ADMINISTRATIVA",
      "mainEntityOfPage": "https://www.contratacion.euskadi.eus/webkpe00-kperoc/es/ac71aBusquedaRegistrosWar/empresa/00681",
      "_links": {
        "self": {
          "name": "KPMG RECURSOS, S.A.",
          "href": "https://api.euskadi.eus/procurements/companies/00681"
        }
      }
    },
    {
      "name": "ATRIMAR DE ZALLA, S.L.",
      "registrationNumber": "03835",
      "identificationNumber": "B48993364",
      "address": "SECRETARIO QUIRINO YAGÜE, 1",
      "location": {
        "postalCode": "48860",
        "municipality": "Zalla",
        "county": "Bizkaia",
        "municipalityId": "096",
        "countyId": "48"
      },
      "economicActivities": [
        {
          "id": "1.501.1",
          "name": "Construcción completa, reparación y conservación de edificaciones",
          "_links": {
            "self": {
              "name": "Construcción completa, reparación y conservación de edificaciones",
              "href": "https://api.euskadi.eus/procurements/companies/economic-activities/1.501.1"
            }
          }
        },
        {
          "id": "1.722",
          "name": "Transporte de mercancías por carretera",
          "_links": {
            "self": {
              "name": "Transporte de mercancías por carretera",
              "href": "https://api.euskadi.eus/procurements/companies/economic-activities/1.722"
            }
          }
        },
        {
          "id": "1.833.2",
          "name": "Promoción de edificaciones",
          "_links": {
            "self": {
              "name": "Promoción de edificaciones",
              "href": "https://api.euskadi.eus/procurements/companies/economic-activities/1.833.2"
            }
          }
        }
      ],
      "certificateStartDate": "2012-07-23",
      "certificateEndDate": "2013-01-10",
      "object": "LA CONSTRUCCIÓN DE VIVIENDAS DE PROTECCIÓN OFICIAL O DE CUALQUIER OTRO TIPO, SIN LIMITACIÓN, COMO ASIMISMO LOCALES DE NEGOCIOS Y EDIFICACIONES, OBRAS Y CONSTRUCCIONES DE TODO TIPO, CONTRATAS DE OBRAS PÚBLICAS O PARTICULARES, CONTRATOS DE EJECUCIÓN DE OBRAS Y SERVICIOS, OBTENCIÓN Y EXPLOTACIÓN DE CONCESIONES DE SERVICIOS PÚBLICOS Y DE CUALQUIER OTRA CLASE DE ADQUISICIÓN, USO, ARRENDAMIENTO, VENTA Y ENAJENACIÓN POR CUALQUIER TÍTULO DE EDIFICACIONES, PISOS, LOCALES Y CONSTRUCCIONES DE TODO GÉNERO, LA ADQUISICIÓN, USO, ARRENDAMIENTO Y ENAJENACIÓN DE FINCAS, TERRENOS Y SOLARES, SU PARCELACIÓN Y URBANIZACIÓN, LA PROMOCIÓN Y CONSTITUCIÓN DE COMUNIDADES DE PROPIETARIOS, Y, CUALQUIER OTRA FORMA DE ASOCIACIÓN O SOCIEDAD CON FINES DE EDFICACIÓN Y URBANIZACIÓN.\r\nLA ACTIVIDAD DEL TRANSPORTE EN GENERAL, PUDIENDO EXPLOTAR LÍNEAS REGULARES Y DISCRECIONALES DE ÁMBITO INTERNACIONAL, NACIONAL, COMARCAL, PROVINCIAL Y LOCAL, ASÍ COMO EL ESTABLECIMIENTO Y EXPLOTACIÓN DE AGENCIAS DE TRANSPORTE, APARCAMIENTOS, GARAJES, CENTROS DE ESTACIONES DE SERVICIOS O DE ASISTENCIA A VEHÍCULOS.\r\nLA EXPLOTACIÓN BAJO CUALQUIER MODALIDAD LEGAL DE ESTACIONES DE SERVICIOS DE CARBURANTES, COMBUSTIBLES LÍQUIDOS Y LUBRICANTES, ASÍ COMO OTROS PRODUCTOS PARA LA AUTOMOCIÓN; LA DISTRIBUCIÓN Y VENTA DE TODO TIPO DE PRODUCTOS PETROLÍFEROS; LA REALIZACIÓN DE TODO TIPO DE SERVICIOS, EXPLOTACIÓN, PROMOCIÓN Y COMERCIALIZACIÓN DE TODA CLASE DE ARTÍCULOS, PRODUCTOS Y ESTABLECIMIENTOS EN GRANDES ÁREAS.\r\nALQUILER DE TODA CLASE DE VEHÍCULOS DE MOTOR, CON O SIN CONDUCTOR, LA IMPORTACIÓN, EXPORTACIÓN, COMPRA, VENTA, ALQUILER, DISTRIBUCIÓN, REPRESENTACIÓN Y CUALQUIER CLASE DE COMERCIO DE VEHÍCULOS A MOTOR, TANTO DE MARCAS NACIONALES COMO EXTRANJERAS, ASÍ COMO DE FABRICACIÓN NACIONAL O EXTRANJERA, LA AGENCIA DE SEGUROS DE AUTOMÓVILES, Y EL LAVADO DE TODA CLASE DE VEHÍCULOS.\r\nLA EXPLOTACIÓN DE UNA EMPRESA DEDICADA A LA REPARACIÓN DE VEHÍCULOS A MOTOR, TALLER MECÁNICO Y DE CHAPA Y PINTURA, MECANIZACIÓN DE PIEZAS, CURVADO DE TUBOS, ASISTENCIA A VEHÍCULOS; LA COMPRA, VENTA, ALMACENAMIENTO, COMERCIALIZACIÓN, IMPORTACIÓN Y EXPORTACIÓN DE VEHÍCULOS A MOTOR Y SUS ACCESORIOS, TANTO EN MARCAS NACIONALES COMO EXTRANJERAS, ASÍ COMO DE FABRICACIÓN NACIONAL O EXTRANJERA, BAJO EL RÉGIMEN DIRECTO DE COMPRA O MEDIANTE CONTRATOS DE REPRESENTACIÓN, DISTRIBUCIÓN O RÉGIMEN DE CONCESIÓN",
      "mainEntityOfPage": "https://www.contratacion.euskadi.eus/webkpe00-kperoc/es/ac71aBusquedaRegistrosWar/empresa/03835",
      "_links": {
        "self": {
          "name": "ATRIMAR DE ZALLA, S.L.",
          "href": "https://api.euskadi.eus/procurements/companies/03835"
        }
      }
    },
    {
      "name": "EIBAR BUS, S.A.L.",
      "registrationNumber": "03948",
      "identificationNumber": "A48235428",
      "address": "AVENIDA DE BIZKAIA, 9",
      "location": {
        "postalCode": "48260",
        "municipality": "Ermua",
        "county": "Bizkaia",
        "municipalityId": "034",
        "countyId": "48"
      },
      "economicActivities": [
        {
          "id": "1.691.2",
          "name": "Reparación de vehículos automóviles, bicicletas y otros vehículos",
          "_links": {
            "self": {
              "name": "Reparación de vehículos automóviles, bicicletas y otros vehículos",
              "href": "https://api.euskadi.eus/procurements/companies/economic-activities/1.691.2"
            }
          }
        },
        {
          "id": "1.721.3",
          "name": "Transporte de viajeros por carretera",
          "_links": {
            "self": {
              "name": "Transporte de viajeros por carretera",
              "href": "https://api.euskadi.eus/procurements/companies/economic-activities/1.721.3"
            }
          }
        },
        {
          "id": "1.751.1",
          "name": "Guarda y custodia de vehículos en garajes y locales cubiertos",
          "_links": {
            "self": {
              "name": "Guarda y custodia de vehículos en garajes y locales cubiertos",
              "href": "https://api.euskadi.eus/procurements/companies/economic-activities/1.751.1"
            }
          }
        },
        {
          "id": "1.751.3",
          "name": "Guarda y custodia de vehículos en solares",
          "_links": {
            "self": {
              "name": "Guarda y custodia de vehículos en solares",
              "href": "https://api.euskadi.eus/procurements/companies/economic-activities/1.751.3"
            }
          }
        },
        {
          "id": "1.751.5",
          "name": "Engrase y lavado de vehículos",
          "_links": {
            "self": {
              "name": "Engrase y lavado de vehículos",
              "href": "https://api.euskadi.eus/procurements/companies/economic-activities/1.751.5"
            }
          }
        }
      ],
      "certificateStartDate": "2012-07-20",
      "certificateEndDate": "2012-12-13",
      "object": "LA ACTIVIDAD DE TANSPORTE Y DISCRECIONALES EN LA COMUNIDAD AUTÓNOMA VASCA, RESTO DEL ESTADO ESPAÑOL Y COMUNIDAD ECONÓMICA EUROPEA Y TODAS AQUELLAS ACTIVIDADES COMPLEMENTARIAS, AUXILIARES Y NECESARIOS Y/O CONVENIENTES PARA EL DESARROLLO DEL OBJETO PRINCIPAL",
      "mainEntityOfPage": "https://www.contratacion.euskadi.eus/webkpe00-kperoc/es/ac71aBusquedaRegistrosWar/empresa/03948",
      "_links": {
        "self": {
          "name": "EIBAR BUS, S.A.L.",
          "href": "https://api.euskadi.eus/procurements/companies/03948"
        }
      }
    }
  ]
}