{
  "totalItems": 9042,
  "totalPages": 905,
  "currentPage": 408,
  "itemsOfPage": 10,
  "items": [
    {
      "name": "FASTON AUDIOVISUALES Y TELECOMUNICACIONES, S.L.",
      "registrationNumber": "01410",
      "identificationNumber": "B48296099",
      "address": "P.A.E. Asuaran Edificio Enekuri oficinas Local 4",
      "location": {
        "postalCode": "48950",
        "municipality": "Erandio",
        "county": "Bizkaia",
        "municipalityId": "902",
        "countyId": "48"
      },
      "economicActivities": [
        {
          "id": "1.504.7",
          "name": "Instalaciones telefónicas, telegráficas, televisión, etc",
          "_links": {
            "self": {
              "name": "Instalaciones telefónicas, telegráficas, televisión, etc",
              "href": "https://api.euskadi.eus/procurements/companies/economic-activities/1.504.7"
            }
          }
        },
        {
          "id": "1.653.2",
          "name": "Venta al por menor de material y aparatos eléctricos, electrodomésticos y cocina",
          "_links": {
            "self": {
              "name": "Venta al por menor de material y aparatos eléctricos, electrodomésticos y cocina",
              "href": "https://api.euskadi.eus/procurements/companies/economic-activities/1.653.2"
            }
          }
        }
      ],
      "certificateStartDate": "2024-07-24",
      "certificateEndDate": "2025-01-21",
      "object": "a) LA FABRICACIÓN, COMERCIALIZACIÓN, IMPORTACIÓN, EXPORTACIÓN, ALQUILER Y VENTA, AL POR MAYOR Y MENOR DE EQUIPOS DE SONIDO, VÍDEO E ILUMINACIÓN ESPECTACULAR, ASÍ COMO DE APARATOS ELECTRODOMÉSTICOS Y ELECTRÓNICOS EN GENERAL. b) CONSULTORÍA DE SONIDO, ACÚSTICA, VÍDEO, MICROPROCESADORES, ETC., ASÍ COMO DE SUS ACCESORIOS Y COMPLEMENTOS",
      "mainEntityOfPage": "https://www.contratacion.euskadi.eus/webkpe00-kperoc/es/ac71aBusquedaRegistrosWar/empresa/01410",
      "_links": {
        "self": {
          "name": "FASTON AUDIOVISUALES Y TELECOMUNICACIONES, S.L.",
          "href": "https://api.euskadi.eus/procurements/companies/01410"
        }
      }
    },
    {
      "name": "DAVID GIMENEZ ALDALUR",
      "registrationNumber": "09403",
      "identificationNumber": "44138855S",
      "address": "Belabi2,4B",
      "location": {
        "postalCode": "20140",
        "municipality": "Andoain",
        "county": "Gipuzkoa",
        "municipalityId": "009",
        "countyId": "20"
      },
      "economicActivities": [
        {
          "id": "1.973.1",
          "name": "Servicios fotográficos",
          "_links": {
            "self": {
              "name": "Servicios fotográficos",
              "href": "https://api.euskadi.eus/procurements/companies/economic-activities/1.973.1"
            }
          }
        }
      ],
      "certificateStartDate": "2024-07-23",
      "certificateEndDate": "2025-01-23",
      "object": "ARGAZKI ZERBITZUAK / SERVICIOS FOTOGRÁFICOS.",
      "mainEntityOfPage": "https://www.contratacion.euskadi.eus/webkpe00-kperoc/es/ac71aBusquedaRegistrosWar/empresa/09403",
      "_links": {
        "self": {
          "name": "DAVID GIMENEZ ALDALUR",
          "href": "https://api.euskadi.eus/procurements/companies/09403"
        }
      }
    },
    {
      "name": "JESUS GUTIERREZ SIERRA",
      "registrationNumber": "06860",
      "identificationNumber": "07823314W",
      "address": "Ctra. Vieja de Santander, Km. 3.500",
      "location": {
        "postalCode": "47011",
        "municipality": "Valladolid",
        "county": "Valladolid",
        "municipalityId": "186",
        "countyId": "47"
      },
      "economicActivities": [
        {
          "id": "1.612.2",
          "name": "Venta al por mayor de cereales",
          "_links": {
            "self": {
              "name": "Venta al por mayor de cereales",
              "href": "https://api.euskadi.eus/procurements/companies/economic-activities/1.612.2"
            }
          }
        },
        {
          "id": "1.612.7",
          "name": "Venta al por mayor de vinos y vinagres del país",
          "_links": {
            "self": {
              "name": "Venta al por mayor de vinos y vinagres del país",
              "href": "https://api.euskadi.eus/procurements/companies/economic-activities/1.612.7"
            }
          }
        },
        {
          "id": "1.911",
          "name": "Servicios agrícolas y ganaderos",
          "_links": {
            "self": {
              "name": "Servicios agrícolas y ganaderos",
              "href": "https://api.euskadi.eus/procurements/companies/economic-activities/1.911"
            }
          }
        }
      ],
      "certificateStartDate": "2024-07-23",
      "certificateEndDate": "2025-01-23",
      "object": "VENTA AL POR MAYOR DE CEREALES Y VENTA AL POR MAYOR DE VINOS Y VINAGRES DEL PAÍS",
      "mainEntityOfPage": "https://www.contratacion.euskadi.eus/webkpe00-kperoc/es/ac71aBusquedaRegistrosWar/empresa/06860",
      "_links": {
        "self": {
          "name": "JESUS GUTIERREZ SIERRA",
          "href": "https://api.euskadi.eus/procurements/companies/06860"
        }
      }
    },
    {
      "name": "MARIA BELEN PALACÍN ROMÁN",
      "registrationNumber": "09188",
      "identificationNumber": "35776719N",
      "address": "ARABA 6-2º IZDA",
      "location": {
        "postalCode": "20800",
        "municipality": "Zarautz",
        "county": "Gipuzkoa",
        "municipalityId": "079",
        "countyId": "20"
      },
      "economicActivities": [
        {
          "id": "2.826",
          "name": "Personal docente de enseñanzas diversas",
          "_links": {
            "self": {
              "name": "Personal docente de enseñanzas diversas",
              "href": "https://api.euskadi.eus/procurements/companies/economic-activities/2.826"
            }
          }
        }
      ],
      "certificateStartDate": "2024-07-23",
      "certificateEndDate": "2025-01-23",
      "object": "PERSONAL DOCENTE DE ENSEÑANZAS DIVERSAS.",
      "mainEntityOfPage": "https://www.contratacion.euskadi.eus/webkpe00-kperoc/es/ac71aBusquedaRegistrosWar/empresa/09188",
      "_links": {
        "self": {
          "name": "MARIA BELEN PALACÍN ROMÁN",
          "href": "https://api.euskadi.eus/procurements/companies/09188"
        }
      }
    },
    {
      "name": "MEDICINA  MERCADO, S.L.",
      "registrationNumber": "09399",
      "identificationNumber": "B83007328",
      "address": "CALLE ALMENDROS 12",
      "location": {
        "postalCode": "28774",
        "municipality": "Ajalvir",
        "county": "Madrid",
        "municipalityId": "002",
        "countyId": "28"
      },
      "economicActivities": [
        {
          "id": "1.619.2",
          "name": "Venta al por mayor de aparatos e instrumentos médicos, ortopédicos, ópticos",
          "_links": {
            "self": {
              "name": "Venta al por mayor de aparatos e instrumentos médicos, ortopédicos, ópticos",
              "href": "https://api.euskadi.eus/procurements/companies/economic-activities/1.619.2"
            }
          }
        }
      ],
      "certificateStartDate": "2024-07-23",
      "certificateEndDate": "2025-01-23",
      "object": "- LA ACTIVIDAD DE COMERCIO AL POR MAYOR Y AL POR MENOR, IMPORTACIÓN Y EXPORTACIÓN, REPARACIÓN Y MANTENIMIENTO DE PRODUCTOS, APARATOS, EQUIPOS E INSTRUMENTOS MÉDICO QUIRÚRGICOS, MATERIAL MÉDICO Y DE TODA CLASE DE APARATOS ELECTRÓNICOS Y EQUIPOS INFORMÁTICOS. - LA INTERMEDIACIÓN, COMPRA Y VENTA DE BIENES INMUEBLES, PROMOCIÓN Y CONSTRUCCIÓN DE EDIFICIOS CON DESTINO A LOCALES COMERCIALES, VIVIENDAS, PLAZAS DE APARCAMIENTO, GARAJES, HOTELES, RESTAURANTES, BARES, PUBS, CAFETERÍA, SALAS DE ESPECTÁCULOS Y SU EXPLOTACIÓN EN CUALQUIER FORMA INCLUSO EN ARRENDAMIENTO O ALQUILER, EXCEPTUÁNDOSE EL LEASING INMOBILIARIO COMO ARRENDADORA. - LA EXPLOTACIÓN DE FINCAS DE RECREO, CON SERVICIOS DE: CAZA, CAPTURA DE ANIMALES Y SERVICIOS RELACIONADOS CON LAS MISMAS, ASÍ COMO SERVICIO DE ALOJAMIENTO, ALOJAMIENTOS DE CORTA ESTANCIA, E INCLUSIVE CAMPINGS Y APARCAMIENTO PARA CARAVANAS, TODOS ESTOS SERVICIOS SE COMPLEMENTARÁN CON RESTAURANTES Y PUESTOS DE COMIDAS, ASÍ COMO PROVISIÓN DE COMIDAS PREPARADAS PARA EVENTOS AL MISMO TIEMPO SE PODRÁN EXPLOTAR ESTABLECIMIENTOS DE BEBIDAS. - EL COMERCIO COMO EL DE FRUTAS Y HORTALIZAS, COMERCIO AL POR MENOR DE CARNE Y PRODUCTOS CÁRNICOS, COMERCIO AL POR MENOR DE PESCADOS Y MARISCOS, COMERCIO AL POR MENOR DE PAN Y PRODUCTOS DE PANADERÍA, CONFITERÍA Y PASTELERÍA, COMERCIO AL POR MENOR DE BEBIDAS, COMERCIO AL POR MENOR DE PRODUCTOS DE TABACO Y CUALQUIER OTRO COMERCIO AL POR MENOR DE PRODUCTOS ALIMENTICIOS. - LA GESTIÓN DE SALAS DE ESPECTÁCULOS, ASÍ COMO LA GESTIÓN DE INSTALACIONES DEPORTIVAS, CLUBES DEPORTIVOS, GIMNASIOS Y CUALQUIER OTRA ACTIVIDAD DEPORTIVA, ACTIVIDADES DE LOS PARQUES DE ATRACCIONES Y LOS PARQUES TEMÁTICOS ASÍ COMO CUALQUIER OTRAS ACTIVIDADES RECREATIVAS Y DE ENTRETENIMIENTO. - LA DEDICACIÓN AL CULTIVO NO PERENNE, COMO ES EL CULTIVO DE CEREALES (EXCEPTO ARROZ), LEGUMINOSAS Y SEMILLAS OLEAGINOSAS, ARROZ, HORTALIZAS, RAÍCES Y TUBÉRCULOS, CAÑA DE AZÚCAR, TABACO, PLANTAS PARA FIBRAS TEXTILES Y OTROS CULTIVOS NO PERENNES. ASÍ COMO EL CULTIVO PERENNE DE LA VID, FRUTOS TROPICALES Y SUBTROPICALES, CÍTRICOS, FRUTOS CON HUESO Y PEPITAS, OTROS ÁRBOLES Y ARBUSTOS FRUTALES Y FRUTOS SECOS, FRUTOS OLEAGINOSOS, PLANTAS PARA BEBIDAS, ESPECIAS, PLANTAS AROMÁTICAS, MEDICINALES Y FARMACÉUTICAS Y OTROS CULTIVOS PERENNES. - LA PROPAGACIÓN DE PLANTAS, ACTIVIDADES DE APOYO A LA AGRICULTURA, PREPARACIÓN POSTERIOR A LA COSECHA, TRATAMIENTO DE SEMILLAS PARA REPRODUCCIÓN, SILVICULTURA Y OTRAS ACTIVIDADES FORESTALES EXPLOTACIÓN DE LA MADERA, RECOLECCIÓN DE PRODUCTOS SILVESTRES, EXCEPTO MADERA Y OTROS SERVICIOS DE APOYO A LA SILVICULTURA. - LA PRODUCCIÓN GANADERA: EXPLOTACIÓN DE GANADO BOVINO PARA LA PRODUCCIÓN DE LECHE, EXPLOTACIÓN DE CABALLOS Y OTROS EQUINOS, EXPLOTACIÓN DE GANADO OVINO Y CAPRINO, EXPLOTACIÓN DE GANADO PORCINO, AVICULTURA Y CUALQUIER OTRA EXPLOTACIÓN DE GANADO, PRODUCCIONES AGRÍCOLAS COMBINADAS CON LA PRODUCCIÓN GANADERA, ASÍ COMO ACTIVIDADES DE APOYO A LA GANADERÍA. - LAS ACTIVIDADES VETERINARIAS.",
      "mainEntityOfPage": "https://www.contratacion.euskadi.eus/webkpe00-kperoc/es/ac71aBusquedaRegistrosWar/empresa/09399",
      "_links": {
        "self": {
          "name": "MEDICINA  MERCADO, S.L.",
          "href": "https://api.euskadi.eus/procurements/companies/09399"
        }
      }
    },
    {
      "name": "GAMIO DENALAN OBRAS Y SERVICIOS, S.L.",
      "registrationNumber": "09400",
      "identificationNumber": "B75172866",
      "address": "GAZTAÑO AUZOA, 6",
      "location": {
        "postalCode": "20100",
        "municipality": "Errenteria",
        "county": "Gipuzkoa",
        "municipalityId": "067",
        "countyId": "20"
      },
      "economicActivities": [
        {
          "id": "1.504.7",
          "name": "Instalaciones telefónicas, telegráficas, televisión, etc",
          "_links": {
            "self": {
              "name": "Instalaciones telefónicas, telegráficas, televisión, etc",
              "href": "https://api.euskadi.eus/procurements/companies/economic-activities/1.504.7"
            }
          }
        }
      ],
      "certificateStartDate": "2024-07-23",
      "certificateEndDate": "2025-01-23",
      "object": "LA CONSTRUCCION COMPLETA, REPARACIÓN Y CONSERVACIÓN DE EDIFICACIONES Y OBRAS CIVILES.",
      "mainEntityOfPage": "https://www.contratacion.euskadi.eus/webkpe00-kperoc/es/ac71aBusquedaRegistrosWar/empresa/09400",
      "_links": {
        "self": {
          "name": "GAMIO DENALAN OBRAS Y SERVICIOS, S.L.",
          "href": "https://api.euskadi.eus/procurements/companies/09400"
        }
      }
    },
    {
      "name": "GORKA GARZÓN HERNÁNDEZ",
      "registrationNumber": "07632",
      "identificationNumber": "78904545D",
      "address": "Avda. Kirikiño 31",
      "location": {
        "postalCode": "48012",
        "municipality": "Bilbao",
        "county": "Bizkaia",
        "municipalityId": "020",
        "countyId": "48"
      },
      "economicActivities": [
        {
          "id": "2.751",
          "name": "Profesionales de la publicidad, relaciones públicas y similares",
          "_links": {
            "self": {
              "name": "Profesionales de la publicidad, relaciones públicas y similares",
              "href": "https://api.euskadi.eus/procurements/companies/economic-activities/2.751"
            }
          }
        }
      ],
      "certificateStartDate": "2024-07-23",
      "certificateEndDate": "2025-01-23",
      "object": "PROFESIONALES DE LA PUBLICIDAD, RELACIONES PÚBLICAS Y SIMILARES",
      "mainEntityOfPage": "https://www.contratacion.euskadi.eus/webkpe00-kperoc/es/ac71aBusquedaRegistrosWar/empresa/07632",
      "_links": {
        "self": {
          "name": "GORKA GARZÓN HERNÁNDEZ",
          "href": "https://api.euskadi.eus/procurements/companies/07632"
        }
      }
    },
    {
      "name": "AMAYADIGITAL, S.L.",
      "registrationNumber": "05440",
      "identificationNumber": "B01372903",
      "address": "C/ OLAGUIBEL 61",
      "location": {
        "postalCode": "01003",
        "municipality": "Vitoria-Gasteiz",
        "county": "Araba/Álava",
        "municipalityId": "059",
        "countyId": "01"
      },
      "economicActivities": [
        {
          "id": "1.659.4",
          "name": "Venta al por menor de libros, periódicos y artículos de papelería y escritorio",
          "_links": {
            "self": {
              "name": "Venta al por menor de libros, periódicos y artículos de papelería y escritorio",
              "href": "https://api.euskadi.eus/procurements/companies/economic-activities/1.659.4"
            }
          }
        },
        {
          "id": "1.849.4",
          "name": "Servicios de custodia, seguridad y protección",
          "_links": {
            "self": {
              "name": "Servicios de custodia, seguridad y protección",
              "href": "https://api.euskadi.eus/procurements/companies/economic-activities/1.849.4"
            }
          }
        }
      ],
      "certificateStartDate": "2024-07-23",
      "certificateEndDate": "2025-01-22",
      "object": "- ACTIVIDADES DE REINSERCIÓN SOCIO-LABORAL DE PERSONAS QUE PRESENTEN ESPECIALES DIFICULTADES DE ACCESO AL MERCADO LABORAL, SERVICIO REPROGRÁFICOS, PAPELERÍA, DISEÑO GRÁFICO Y SERVICIO A TERCEROS.- LA COMPRAVENTA Y ARRENDAMIENTO DE BIENES INMUEBLES, LOCALES, VIVIENDAS, SOLARES, Y EN GENERAL TODA CLASE DE FINCAS RÚSTICAS Y URBANAS",
      "mainEntityOfPage": "https://www.contratacion.euskadi.eus/webkpe00-kperoc/es/ac71aBusquedaRegistrosWar/empresa/05440",
      "_links": {
        "self": {
          "name": "AMAYADIGITAL, S.L.",
          "href": "https://api.euskadi.eus/procurements/companies/05440"
        }
      }
    },
    {
      "name": "TRIPLE TANGO SL",
      "registrationNumber": "08601",
      "identificationNumber": "B87833307",
      "address": "c/ Medinaceli 1 - 36 ",
      "location": {
        "postalCode": "28660",
        "municipality": "Boadilla del Monte",
        "county": "Madrid",
        "municipalityId": "022",
        "countyId": "28"
      },
      "economicActivities": [
        {
          "id": "1.631",
          "name": "Intermediarios del comercio",
          "_links": {
            "self": {
              "name": "Intermediarios del comercio",
              "href": "https://api.euskadi.eus/procurements/companies/economic-activities/1.631"
            }
          }
        },
        {
          "id": "1.654.5",
          "name": "Venta al por menor de toda clase de maquinaría",
          "_links": {
            "self": {
              "name": "Venta al por menor de toda clase de maquinaría",
              "href": "https://api.euskadi.eus/procurements/companies/economic-activities/1.654.5"
            }
          }
        },
        {
          "id": "1.659.9",
          "name": "Venta al por menor de otros productos no especificados en esta agrupación",
          "_links": {
            "self": {
              "name": "Venta al por menor de otros productos no especificados en esta agrupación",
              "href": "https://api.euskadi.eus/procurements/companies/economic-activities/1.659.9"
            }
          }
        },
        {
          "id": "1.665",
          "name": "Venta al por menor por correo o catálogo de productos diversos",
          "_links": {
            "self": {
              "name": "Venta al por menor por correo o catálogo de productos diversos",
              "href": "https://api.euskadi.eus/procurements/companies/economic-activities/1.665"
            }
          }
        },
        {
          "id": "1.692",
          "name": "Reparación de maquinaria industrial",
          "_links": {
            "self": {
              "name": "Reparación de maquinaria industrial",
              "href": "https://api.euskadi.eus/procurements/companies/economic-activities/1.692"
            }
          }
        },
        {
          "id": "1.699",
          "name": "Otras reparaciones n.c.o.p",
          "_links": {
            "self": {
              "name": "Otras reparaciones n.c.o.p",
              "href": "https://api.euskadi.eus/procurements/companies/economic-activities/1.699"
            }
          }
        },
        {
          "id": "1.849.9",
          "name": "Otros servicios independientes n.c.o.p",
          "_links": {
            "self": {
              "name": "Otros servicios independientes n.c.o.p",
              "href": "https://api.euskadi.eus/procurements/companies/economic-activities/1.849.9"
            }
          }
        }
      ],
      "certificateStartDate": "2024-07-22",
      "certificateEndDate": "2025-01-22",
      "object": "EL DESARROLLO DE LAS ACTIVIDADES CORRESPONDIENTES A LOS SIGUIENTES CÓDIGOS Y DESCRIPCIONES DE CLASIFICACIÓN NACIONAL DE ACTIVIDADES ECONÓMICAS: ACTIVIDAD PRINCIPAL: 46 .14 / INTERMEDIARIOS DEL COMERCIO DE MAQUINARIA, EQUIPO INDUSTRIAL, EMBARCACIONES Y AERONAVES, OTRAS ACTIVIDADES: 46.69 / COMERCIO AL POR MAYOR DE OTRA MAQUINARIA Y EQUIPO, 74.90/ OTRAS ACTIVIDADES PROFESIONALES, CIENTÍFICAS Y TÉCNICAS, 33.15 /REPARACIÓN Y MANTENIMIENTO NAVAL, 47.91 / COMERCIO AL POR MENOR POR CORRESPONDENCIA O INTERNET, 33 .16 / REPARACIÓN Y MANTENIMIENTO AERONÁUTICO Y ESPACIAL, 33.13 / REPARACIÓN DE EQUIPOS ELECTRÓNICOS Y ÓPTICOS, 46 . 19 / INTERMEDIARIOS DEL COMERCIO DE PRODUCTOS DIVERSOS, 71.12 / SERVICIOS TÉCNICOS DE INGENIERÍA Y OTRAS ACTIVIDADES RELACIONADAS CON EL ASESORAMIENTO TÉCNICO, 74.30 / ACTIVIDADES DE TRADUCCIÓN E INTERPRETACIÓN.\n\n",
      "mainEntityOfPage": "https://www.contratacion.euskadi.eus/webkpe00-kperoc/es/ac71aBusquedaRegistrosWar/empresa/08601",
      "_links": {
        "self": {
          "name": "TRIPLE TANGO SL",
          "href": "https://api.euskadi.eus/procurements/companies/08601"
        }
      }
    },
    {
      "name": "EUGENIO ALES LLAMAS, S.A.",
      "registrationNumber": "02629",
      "identificationNumber": "A41028820",
      "address": "C/ General Ollero 2",
      "location": {
        "postalCode": "41006",
        "municipality": "Sevilla",
        "county": "Sevilla",
        "municipalityId": "091",
        "countyId": "41"
      },
      "economicActivities": [
        {
          "id": "1.453",
          "name": "Confección en serie de toda clase de prendas de vestir",
          "_links": {
            "self": {
              "name": "Confección en serie de toda clase de prendas de vestir",
              "href": "https://api.euskadi.eus/procurements/companies/economic-activities/1.453"
            }
          }
        },
        {
          "id": "1.455.1",
          "name": "Confección de artículos textiles para el hogar y tapicería",
          "_links": {
            "self": {
              "name": "Confección de artículos textiles para el hogar y tapicería",
              "href": "https://api.euskadi.eus/procurements/companies/economic-activities/1.455.1"
            }
          }
        }
      ],
      "certificateStartDate": "2024-07-22",
      "certificateEndDate": "2025-01-22",
      "object": "LA COMPRA-VENTA MERCANTIL COMERCIO EN GENERAL DE TEJIDOS DE TODAS CLASES, AL POR MAYOR Y MENOR, CONFECCIONES, PAQUETERÍAS Y DEMÁS DERIVADAS; PUDIENDO PARTICIPAR EN TODA CLASE DE EMPRESAS Y NEGOCIOS ACCESORIOS, CONEXOS  Y COMPLEMENTARIOS, RELACIONADOS CON LA INDUSTRIA TEXTIL Y DE LA CONFECCIÓN , EN TODAS SUS RAMAS. POR ACUERDO DE LA JUNTA GENERAL DE ACCIONISTAS PODRÁ DEDICARSE A CUALQUIER OTRA ACTIVIDAD DE LÍCITO COMERCIO",
      "mainEntityOfPage": "https://www.contratacion.euskadi.eus/webkpe00-kperoc/es/ac71aBusquedaRegistrosWar/empresa/02629",
      "_links": {
        "self": {
          "name": "EUGENIO ALES LLAMAS, S.A.",
          "href": "https://api.euskadi.eus/procurements/companies/02629"
        }
      }
    }
  ]
}