{
  "totalItems": 9042,
  "totalPages": 905,
  "currentPage": 395,
  "itemsOfPage": 10,
  "items": [
    {
      "name": "GABRIEL AGUIRREZABAL JAUREGUI",
      "registrationNumber": "09505",
      "identificationNumber": "16084614R",
      "address": "Calle Miguel de Unamuno (48920) Nº 43",
      "location": {
        "postalCode": "48920",
        "municipality": "Portugalete",
        "county": "Bizkaia",
        "municipalityId": "078",
        "countyId": "48"
      },
      "economicActivities": [
        {
          "id": "2.838",
          "name": "Ópticos-optometristas y podólogos",
          "_links": {
            "self": {
              "name": "Ópticos-optometristas y podólogos",
              "href": "https://api.euskadi.eus/procurements/companies/economic-activities/2.838"
            }
          }
        }
      ],
      "certificateStartDate": "2024-09-10",
      "certificateEndDate": "2025-03-10",
      "object": "ÓPTICOS-OPTOMETRISTAS Y PODÓLOGOS.",
      "mainEntityOfPage": "https://www.contratacion.euskadi.eus/webkpe00-kperoc/es/ac71aBusquedaRegistrosWar/empresa/09505",
      "_links": {
        "self": {
          "name": "GABRIEL AGUIRREZABAL JAUREGUI",
          "href": "https://api.euskadi.eus/procurements/companies/09505"
        }
      }
    },
    {
      "name": "PROYECTOS E INSTALACIONES CLIMAPOOL, S.L.",
      "registrationNumber": "09504",
      "identificationNumber": "B39797063",
      "address": "BARRIO JAIN-PENIAS 132C NAVE 1",
      "location": {
        "postalCode": "39409",
        "municipality": "San Felices de Buelna",
        "county": "Cantabria",
        "municipalityId": "069",
        "countyId": "39"
      },
      "economicActivities": [
        {
          "id": "1.504.1",
          "name": "Instalaciones eléctricas en general",
          "_links": {
            "self": {
              "name": "Instalaciones eléctricas en general",
              "href": "https://api.euskadi.eus/procurements/companies/economic-activities/1.504.1"
            }
          }
        },
        {
          "id": "1.504.3",
          "name": "Instalaciones de frío, calor y acondicionamiento de aire",
          "_links": {
            "self": {
              "name": "Instalaciones de frío, calor y acondicionamiento de aire",
              "href": "https://api.euskadi.eus/procurements/companies/economic-activities/1.504.3"
            }
          }
        },
        {
          "id": "1.861.2",
          "name": "Alquiler de locales industriales y otros alquileres n.c.o.p",
          "_links": {
            "self": {
              "name": "Alquiler de locales industriales y otros alquileres n.c.o.p",
              "href": "https://api.euskadi.eus/procurements/companies/economic-activities/1.861.2"
            }
          }
        }
      ],
      "certificateStartDate": "2024-09-10",
      "certificateEndDate": "2025-03-10",
      "object": "1.- INSTALACIONES ELÉCTRICAS. 2.- SUMINISTRO DE VAPOR Y AIRE ACONDICIONADO. 3.- FONTANERÍA, INSTALACIONES DE SISTEMAS DE CALEFACCIÓN Y AIRE ACONDICIONADO. 4.- OTRO COMERCIO AL POR MENOR DE ARTÍCULOS NUEVOS EN ESTABLECIMIENTOS ESPECIALIZADOS. 5.- REPARACIÓN DE OTROS EQUIPOS.",
      "mainEntityOfPage": "https://www.contratacion.euskadi.eus/webkpe00-kperoc/es/ac71aBusquedaRegistrosWar/empresa/09504",
      "_links": {
        "self": {
          "name": "PROYECTOS E INSTALACIONES CLIMAPOOL, S.L.",
          "href": "https://api.euskadi.eus/procurements/companies/09504"
        }
      }
    },
    {
      "name": "RUBEN HIDALGO DEL BLANCO",
      "registrationNumber": "09506",
      "identificationNumber": "44978732R",
      "address": "Calle Miguel de Unamuno (48920) Nº 43",
      "location": {
        "postalCode": "48920",
        "municipality": "Portugalete",
        "county": "Bizkaia",
        "municipalityId": "078",
        "countyId": "48"
      },
      "economicActivities": [
        {
          "id": "2.836",
          "name": "Ayudantes técnicos sanitarios y fisioterapeutas",
          "_links": {
            "self": {
              "name": "Ayudantes técnicos sanitarios y fisioterapeutas",
              "href": "https://api.euskadi.eus/procurements/companies/economic-activities/2.836"
            }
          }
        }
      ],
      "certificateStartDate": "2024-09-10",
      "certificateEndDate": "2025-03-10",
      "object": "AYUDANTES TÉCNICOS SANITARIOS Y FISIOTERAPEUTAS.",
      "mainEntityOfPage": "https://www.contratacion.euskadi.eus/webkpe00-kperoc/es/ac71aBusquedaRegistrosWar/empresa/09506",
      "_links": {
        "self": {
          "name": "RUBEN HIDALGO DEL BLANCO",
          "href": "https://api.euskadi.eus/procurements/companies/09506"
        }
      }
    },
    {
      "name": "VITORIANA DE INMUEBLES, S.A.",
      "registrationNumber": "04616",
      "identificationNumber": "A01010560",
      "address": "ALTO DE ARMENTIA, 14",
      "location": {
        "postalCode": "01007",
        "municipality": "Vitoria-Gasteiz",
        "county": "Araba/Álava",
        "municipalityId": "059",
        "countyId": "01"
      },
      "economicActivities": [
        {
          "id": "1.615.1",
          "name": "Venta al por mayor de vehículos, motocicletas, bicicletas y sus accesorios",
          "_links": {
            "self": {
              "name": "Venta al por mayor de vehículos, motocicletas, bicicletas y sus accesorios",
              "href": "https://api.euskadi.eus/procurements/companies/economic-activities/1.615.1"
            }
          }
        },
        {
          "id": "1.691.2",
          "name": "Reparación de vehículos automóviles, bicicletas y otros vehículos",
          "_links": {
            "self": {
              "name": "Reparación de vehículos automóviles, bicicletas y otros vehículos",
              "href": "https://api.euskadi.eus/procurements/companies/economic-activities/1.691.2"
            }
          }
        }
      ],
      "certificateStartDate": "2024-09-10",
      "certificateEndDate": "2025-03-07",
      "object": "CONSTRUCCIÓN, PROMOCIÓN, VENTA Y ALQUILER DE VIVIENDAS, LOCALES COMERCIALES, PABELLONES INDUSTRIALES, INDUSTRIAS, PLAZAS DE GARAJE Y SIMILARES, COMPRAVENTA, ALQUILER Y REPARACIÓN DE AUTOMÓVILES, MOTOCICLETAS Y TODA CLASE DE VEHÍCULOS DE MOTOR; SUMINISTRO DE REPUESTOS, ACCESORIOS, LUBRIFICANTES Y COMBUSTIBLES PARA ELLOS; Y AGENCIA DE SEGUROS",
      "mainEntityOfPage": "https://www.contratacion.euskadi.eus/webkpe00-kperoc/es/ac71aBusquedaRegistrosWar/empresa/04616",
      "_links": {
        "self": {
          "name": "VITORIANA DE INMUEBLES, S.A.",
          "href": "https://api.euskadi.eus/procurements/companies/04616"
        }
      }
    },
    {
      "name": "WOZTELL SANUKER, S.L.",
      "registrationNumber": "09782",
      "identificationNumber": "B88356787",
      "address": "C/ Mendez Alvaro 20",
      "location": {
        "postalCode": "28045",
        "municipality": "Madrid",
        "county": "Madrid",
        "municipalityId": "079",
        "countyId": "28"
      },
      "economicActivities": [
        {
          "id": "1.769",
          "name": "Otros servicios de telecomunicaciones",
          "_links": {
            "self": {
              "name": "Otros servicios de telecomunicaciones",
              "href": "https://api.euskadi.eus/procurements/companies/economic-activities/1.769"
            }
          }
        },
        {
          "id": "1.845",
          "name": "Explotación electrónica por cuenta de terceros",
          "_links": {
            "self": {
              "name": "Explotación electrónica por cuenta de terceros",
              "href": "https://api.euskadi.eus/procurements/companies/economic-activities/1.845"
            }
          }
        },
        {
          "id": "1.932.1",
          "name": "Enseñanza de formación y perfeccionamiento profesional no superior",
          "_links": {
            "self": {
              "name": "Enseñanza de formación y perfeccionamiento profesional no superior",
              "href": "https://api.euskadi.eus/procurements/companies/economic-activities/1.932.1"
            }
          }
        },
        {
          "id": "1.932.2",
          "name": "Enseñanza de formación y perfeccionamiento profesional superior",
          "_links": {
            "self": {
              "name": "Enseñanza de formación y perfeccionamiento profesional superior",
              "href": "https://api.euskadi.eus/procurements/companies/economic-activities/1.932.2"
            }
          }
        }
      ],
      "certificateStartDate": "2024-09-09",
      "certificateEndDate": "2025-03-09",
      "object": "1- CONSTRUCCIÓN, INSTALACIONES Y MANTENIMIENTO. 2- COMERCIO AL POR MAYOR Y AL POR MENOR. INTERMEDIARIOS DEL COMERCIO DE PRODUCTOS DIVERSOS. 3- ACTIVIDADES INMOBILIARIAS, LA COMPRAVENTA E INTERMEDIACIÓN DE TODA CLASE DE FINCAS RÚSTICAS Y URBANAS, LA PROMOCIÓN Y CONSTRUCCIÓN SOBRE LAS MISMAS DE TODA CLASE DE EDIFICACIONES, SU REHABILITACIÓN, VENTA O ARRENDAMIENTO NO FINANCIERO, Y LA CONSTRUCCIÓN DE TODA CLASE DE OBRAS PÚBLICAS O PRIVADAS. INSTALACIONES DE CUALQUIER NATURALEZA, DECORACIÓN Y ACABADO DE TODO TIPO DE INMUEBLES, ASÍ COMO SUS REPARACIONES Y MANTENIMIENTOS POSTERIORES. COMPRAVENTA, COMERCIO AL POR MAYOR Y MENOR, IMPORTACIÓN Y EXPORTACIÓN DE TODO TIPO DE MATERIALES DE CONSTRUCCIÓN Y MAQUINARIA RELACIONADAS. SERVICIOS DE CONTROL, CONSERJERÍA Y GUARDERÍA DE INMUEBLES. LA COMPRAVENTA Y COMERCIALIZACIÓN DE DERECHOS DE APROVECHAMIENTO POR TURNOS DE BIENES INMUEBLES. EL ESTUDIO, DESARROLLO, COMERCIALIZACIÓN, PLANIFICACIÓN PUBLICITARIA Y MARKETING DE APROVECHAMIENTO POR TURNOS DE BIENES INMUEBLES, OFERTAS Y ESTANCIAS VACACIONALES Y DE TIEMPO COMPARTIDO. GESTIÓN URBANÍSTICA DEL SUELO. INTERMEDIACIÓN EN LA REDACCIÓN DE PROYECTOS DE ARQUITECTURA, INGENIERÍA Y URBANISMO. 4- DISTRIBUCIÓN COMERCIAL. IMPORTACIÓN Y EXPORTACIÓN. 5- INDUSTRIA MANUFACTURERAS Y TEXTILES. 6- TRANSPORTE Y ALMACENAMIENTO. 7- LA EXPLOTACIÓN, ADMINISTRACIÓN Y GESTIÓN DE RESTAURANTES, BARES (INCLUIDOS BARES CON TERRAZA AL AIRE LIBRE), TABERNAS, CAFETERÍAS, CERVECERÍAS Y TODAS AQUELLAS ACTIVIDADES ENCUADRADAS EN EL RAMO DE LA HOSTELERÍA LA RESTAURACIÓN GASTRONÓMICA Y LOS ESPECTÁCULOS PÚBLICOS. EXPLOTACIÓN HOTELERA, HOSTELERA Y DISCOTECAS. 8- ACTIVIDADES DE GESTIÓN Y ADMINISTRACIÓN. SERVICIOS EDUCATIVOS, DE OCIO Y ENTRETENIMIENTO. 9- ACTIVIDADES DE LAS SOCIEDADES HOLDING. COMPRAVENTA, ADQUISICIÓN, TENENCIA, Y ENAJENACIÓN DE VALORES MOBILIARIOS Y DE PARTICIPACIONES SOCIALES O ACCIONES EN EL CAPITAL SOCIAL DE CUALQUIER TIPO DE SOCIEDAD. RESPETANDO, EN TODO, LA NORMATIVA DE LA LEY DEL MERCADO DE VALORES Y LA LEY DE ENTIDADES COLECTIVAS. 10- INFORMACIÓN Y COMUNICACIONES. 11- AGRICULTURA, GANADERÍA Y PESCA. 12- INFORMÁTICA, TELECOMUNICACIONES Y OFIMÁTICA. 13- ENERGÍAS ALTERNATIVAS. 14- COMPRAVENTA Y REPARACIÓN DE VEHÍCULOS. REPARACIÓN Y MANTENIMIENTO DE INSTALACIONES Y MAQUINARIA. 15- INVESTIGACIÓN, DESARROLLO E INNOVACIÓN.",
      "mainEntityOfPage": "https://www.contratacion.euskadi.eus/webkpe00-kperoc/es/ac71aBusquedaRegistrosWar/empresa/09782",
      "_links": {
        "self": {
          "name": "WOZTELL SANUKER, S.L.",
          "href": "https://api.euskadi.eus/procurements/companies/09782"
        }
      }
    },
    {
      "name": "EUSKALITE EUSKADI, S.L.",
      "registrationNumber": "09202",
      "identificationNumber": "B72777204",
      "address": "Alameda Mazarredo",
      "location": {
        "postalCode": "48009",
        "municipality": "Bilbao",
        "county": "Bizkaia",
        "municipalityId": "020",
        "countyId": "48"
      },
      "economicActivities": [
        {
          "id": "1.843.2",
          "name": "Servicios técnicos de arquitectura y urbanismo",
          "_links": {
            "self": {
              "name": "Servicios técnicos de arquitectura y urbanismo",
              "href": "https://api.euskadi.eus/procurements/companies/economic-activities/1.843.2"
            }
          }
        }
      ],
      "certificateStartDate": "2024-09-09",
      "certificateEndDate": "2025-02-19",
      "object": "LA ACTIVIDAD PROPIA DE LOS PROFESIONALES DE LA ARQUITECTURA.",
      "mainEntityOfPage": "https://www.contratacion.euskadi.eus/webkpe00-kperoc/es/ac71aBusquedaRegistrosWar/empresa/09202",
      "_links": {
        "self": {
          "name": "EUSKALITE EUSKADI, S.L.",
          "href": "https://api.euskadi.eus/procurements/companies/09202"
        }
      }
    },
    {
      "name": "FERNANDO MAIZTEGUI URRESTARAZU",
      "registrationNumber": "09491",
      "identificationNumber": "72567093T",
      "address": "Calle Patrue",
      "location": {
        "postalCode": "20560",
        "municipality": "Oñati",
        "county": "Gipuzkoa",
        "municipalityId": "059",
        "countyId": "20"
      },
      "economicActivities": [
        {
          "id": "1.654.5",
          "name": "Venta al por menor de toda clase de maquinaría",
          "_links": {
            "self": {
              "name": "Venta al por menor de toda clase de maquinaría",
              "href": "https://api.euskadi.eus/procurements/companies/economic-activities/1.654.5"
            }
          }
        },
        {
          "id": "1.699",
          "name": "Otras reparaciones n.c.o.p",
          "_links": {
            "self": {
              "name": "Otras reparaciones n.c.o.p",
              "href": "https://api.euskadi.eus/procurements/companies/economic-activities/1.699"
            }
          }
        }
      ],
      "certificateStartDate": "2024-09-07",
      "certificateEndDate": "2025-03-07",
      "object": "VENTA AL POR MENOR DE TODA CLASE DE MAQUINARIA. OTRAS REPARACIONES N.C.O.P.",
      "mainEntityOfPage": "https://www.contratacion.euskadi.eus/webkpe00-kperoc/es/ac71aBusquedaRegistrosWar/empresa/09491",
      "_links": {
        "self": {
          "name": "FERNANDO MAIZTEGUI URRESTARAZU",
          "href": "https://api.euskadi.eus/procurements/companies/09491"
        }
      }
    },
    {
      "name": "GFA2 ARQUITECTOS, S.L.",
      "registrationNumber": "09488",
      "identificationNumber": "B09719147",
      "address": "Mijares 49",
      "location": {
        "postalCode": "39314",
        "municipality": "Santillana del Mar",
        "county": "Cantabria",
        "municipalityId": "076",
        "countyId": "39"
      },
      "economicActivities": [
        {
          "id": "1.843.2",
          "name": "Servicios técnicos de arquitectura y urbanismo",
          "_links": {
            "self": {
              "name": "Servicios técnicos de arquitectura y urbanismo",
              "href": "https://api.euskadi.eus/procurements/companies/economic-activities/1.843.2"
            }
          }
        }
      ],
      "certificateStartDate": "2024-09-06",
      "certificateEndDate": "2025-03-06",
      "object": "LA REDACCIÓN DE PROYECTOS DE ARQUITECTURA, DISEÑO INTERIOR I+D, SOSTENIBILIDAD Y URBANISMO, DIRECCIÓN Y GESTIÓN DE OBRAS, GESTIÓN URBANÍSTICA DEL SUELO, CONSTRUCCIÓN, PROMOCIÓN Y EXPLOTACIÓN DE BIENES INMUEBLES, COMISARIADO Y GESTIÓN DE ACTIVIDADES Y EVENTOS CULTURALES.",
      "mainEntityOfPage": "https://www.contratacion.euskadi.eus/webkpe00-kperoc/es/ac71aBusquedaRegistrosWar/empresa/09488",
      "_links": {
        "self": {
          "name": "GFA2 ARQUITECTOS, S.L.",
          "href": "https://api.euskadi.eus/procurements/companies/09488"
        }
      }
    },
    {
      "name": "SUSANA GARCIA MOLINA",
      "registrationNumber": "09490",
      "identificationNumber": "16623906N",
      "address": "CALLE ALARILLA Nº8",
      "location": {
        "postalCode": "01308",
        "municipality": "Lanciego/Lantziego",
        "county": "Araba/Álava",
        "municipalityId": "032",
        "countyId": "01"
      },
      "economicActivities": [
        {
          "id": "1.922",
          "name": "Servicios de limpieza",
          "_links": {
            "self": {
              "name": "Servicios de limpieza",
              "href": "https://api.euskadi.eus/procurements/companies/economic-activities/1.922"
            }
          }
        }
      ],
      "certificateStartDate": "2024-09-06",
      "certificateEndDate": "2025-03-06",
      "object": "SERVICIOS DE LIMPIEZA.",
      "mainEntityOfPage": "https://www.contratacion.euskadi.eus/webkpe00-kperoc/es/ac71aBusquedaRegistrosWar/empresa/09490",
      "_links": {
        "self": {
          "name": "SUSANA GARCIA MOLINA",
          "href": "https://api.euskadi.eus/procurements/companies/09490"
        }
      }
    },
    {
      "name": "PINTURAS AROSA, S.C.",
      "registrationNumber": "08630",
      "identificationNumber": "J01372432",
      "address": "CL LEON 13 BAJO",
      "location": {
        "postalCode": "01003",
        "municipality": "Vitoria-Gasteiz",
        "county": "Araba/Álava",
        "municipalityId": "059",
        "countyId": "01"
      },
      "economicActivities": [
        {
          "id": "1.505.6",
          "name": "Pintura, revestimientos y terminación y decoración de locales",
          "_links": {
            "self": {
              "name": "Pintura, revestimientos y terminación y decoración de locales",
              "href": "https://api.euskadi.eus/procurements/companies/economic-activities/1.505.6"
            }
          }
        },
        {
          "id": "1.849.9",
          "name": "Otros servicios independientes n.c.o.p",
          "_links": {
            "self": {
              "name": "Otros servicios independientes n.c.o.p",
              "href": "https://api.euskadi.eus/procurements/companies/economic-activities/1.849.9"
            }
          }
        }
      ],
      "certificateStartDate": "2024-09-06",
      "certificateEndDate": "2025-03-06",
      "object": "EXPLOTACIÓN DE COMÚN DEL NEGOCIO RELATIVO A PINTURA EN GENERAL, CON DOMICILIO EN VITORIA-GASTEIZ, CALLE COMANDANTE IZARDUY 32 BAJO.",
      "mainEntityOfPage": "https://www.contratacion.euskadi.eus/webkpe00-kperoc/es/ac71aBusquedaRegistrosWar/empresa/08630",
      "_links": {
        "self": {
          "name": "PINTURAS AROSA, S.C.",
          "href": "https://api.euskadi.eus/procurements/companies/08630"
        }
      }
    }
  ]
}