{
  "totalItems": 9042,
  "totalPages": 905,
  "currentPage": 591,
  "itemsOfPage": 10,
  "items": [
    {
      "name": "QUALITY AND ORGANIZATIONAL RESEARCH, S.L.",
      "registrationNumber": "03087",
      "identificationNumber": "B95184255",
      "address": "LICENCIADO POZA, 58-ENTR. DCHA",
      "location": {
        "postalCode": "48013",
        "municipality": "Bilbao",
        "county": "Bizkaia",
        "municipalityId": "020",
        "countyId": "48"
      },
      "economicActivities": [
        {
          "id": "1.846",
          "name": "Empresas de estudios de mercado",
          "_links": {
            "self": {
              "name": "Empresas de estudios de mercado",
              "href": "https://api.euskadi.eus/procurements/companies/economic-activities/1.846"
            }
          }
        }
      ],
      "certificateStartDate": "2019-11-25",
      "certificateEndDate": "2020-05-20",
      "object": "1) LA PRESTACIÓN DE SERVICIOS DE CONSULTORÌA DE CALIDAD Y ORGANIZACIÓN.\r\n\r\n2) LA PRESTACIÓN DE SERVICIOS DE ESTUDIOS DE MERCADO.\r\n\r\n3) LA PRESTACIÓN DE SERVICIOS DE MARKETING, MEDIANTE LA CREACIÓN, PROGRAMACIÓN Y PUBLICACIÓN DE MENSAJES PUBLICITARIOS EN CUALQUIER MEDIO, INCLUSO LOS ELECTRÓNICOS, Y LA DIFUSIÓN Y PROMOCIÓN DE IMAGEN PERSONAL, SOCIAL, DE MARCA, DE PRODUCTOS CONCRETOS O SERVICIOS.\r\n",
      "mainEntityOfPage": "https://www.contratacion.euskadi.eus/webkpe00-kperoc/es/ac71aBusquedaRegistrosWar/empresa/03087",
      "_links": {
        "self": {
          "name": "QUALITY AND ORGANIZATIONAL RESEARCH, S.L.",
          "href": "https://api.euskadi.eus/procurements/companies/03087"
        }
      }
    },
    {
      "name": "NEURRI, S.L.",
      "registrationNumber": "03411",
      "identificationNumber": "B20034690",
      "address": "LORETE BIDEA 33",
      "location": {
        "postalCode": "20017",
        "municipality": "Donostia / San Sebastián",
        "county": "Gipuzkoa",
        "municipalityId": "069",
        "countyId": "20"
      },
      "economicActivities": [
        {
          "id": "1.843.4",
          "name": "Servicios técnicos de topografía",
          "_links": {
            "self": {
              "name": "Servicios técnicos de topografía",
              "href": "https://api.euskadi.eus/procurements/companies/economic-activities/1.843.4"
            }
          }
        },
        {
          "id": "1.843.9",
          "name": "Otros servicios técnicos n.c.o.p",
          "_links": {
            "self": {
              "name": "Otros servicios técnicos n.c.o.p",
              "href": "https://api.euskadi.eus/procurements/companies/economic-activities/1.843.9"
            }
          }
        }
      ],
      "certificateStartDate": "2019-11-21",
      "certificateEndDate": "2020-05-19",
      "object": "LA REALIZACIÓN DE ESTUDIOS DE LEVANTAMIENTOS TOPOGRÁFICOS Y PROYECTOS DE TOPOGRAFÍA",
      "mainEntityOfPage": "https://www.contratacion.euskadi.eus/webkpe00-kperoc/es/ac71aBusquedaRegistrosWar/empresa/03411",
      "_links": {
        "self": {
          "name": "NEURRI, S.L.",
          "href": "https://api.euskadi.eus/procurements/companies/03411"
        }
      }
    },
    {
      "name": "DATEANDO, SOCIEDAD MICROCOOPERATIVA",
      "registrationNumber": "06663",
      "identificationNumber": "F71358402",
      "address": "c/ San Pedro, 9 4 Dcha.",
      "location": {
        "postalCode": "31300",
        "municipality": "Tafalla",
        "county": "Navarra",
        "municipalityId": "227",
        "countyId": "31"
      },
      "economicActivities": [
        {
          "id": "1.999",
          "name": "Otros servicios n.c.o.p",
          "_links": {
            "self": {
              "name": "Otros servicios n.c.o.p",
              "href": "https://api.euskadi.eus/procurements/companies/economic-activities/1.999"
            }
          }
        }
      ],
      "certificateStartDate": "2019-11-21",
      "certificateEndDate": "2020-05-20",
      "object": "- DESARROLLO E IMPLEMENTACIÓN DE PROYECTOS DE SUPERVISIÓN INDUSTRIAS. SCADA Y DE TELECONTROL. - DESARROLLO E IMPLEMENTACIÓN DE PROYECTOS CON BIG DATA Y ANALÍTICA DE DATOS. - REVENTA DE LICENCIAS Y HARDWARE INDUSTRIAL. MANTENIMIENTO Y FORMACIÓN DE SISTEMAS IMPLEMENTADOS. - PLATAFORMAS COMO SERVICIO DE SUPERVISIÓN TÉCNICA INDUSTRIAL. - INVESTIGACIÓN Y DESARROLLO DE SOFTWARE Y SISTEMAS INTEGRALES PROPIOS (I+D)  Y SU COMERCIALIZACIÓN. - FORMACIÓN EN INFORMÁTICA INDUSTRIAL Y CONSULTA TÉCNICA",
      "mainEntityOfPage": "https://www.contratacion.euskadi.eus/webkpe00-kperoc/es/ac71aBusquedaRegistrosWar/empresa/06663",
      "_links": {
        "self": {
          "name": "DATEANDO, SOCIEDAD MICROCOOPERATIVA",
          "href": "https://api.euskadi.eus/procurements/companies/06663"
        }
      }
    },
    {
      "name": "SARTORIUS STEDIM SPAIN, S.A.",
      "registrationNumber": "06650",
      "identificationNumber": "A58191586",
      "address": "Avda de la Industria 32",
      "location": {
        "postalCode": "28108",
        "municipality": "Alcobendas",
        "county": "Madrid",
        "municipalityId": "006",
        "countyId": "28"
      },
      "economicActivities": [
        {
          "id": "1.619.7",
          "name": "Venta al por mayor de instrumentos de precisión, medida y similares",
          "_links": {
            "self": {
              "name": "Venta al por mayor de instrumentos de precisión, medida y similares",
              "href": "https://api.euskadi.eus/procurements/companies/economic-activities/1.619.7"
            }
          }
        }
      ],
      "certificateStartDate": "2019-11-20",
      "certificateEndDate": "2020-05-12",
      "object": "LA IMPORTACIÓN, EXPORTACIÓN, COMERCIALIZACIÓN Y REPRESENTACIÓN DE TODO TIPO DE APARATOS Y EQUIPOS DE USO INDUSTRIAL O DE LABORATORIO",
      "mainEntityOfPage": "https://www.contratacion.euskadi.eus/webkpe00-kperoc/es/ac71aBusquedaRegistrosWar/empresa/06650",
      "_links": {
        "self": {
          "name": "SARTORIUS STEDIM SPAIN, S.A.",
          "href": "https://api.euskadi.eus/procurements/companies/06650"
        }
      }
    },
    {
      "name": "PERFIBESA, S.A.",
      "registrationNumber": "06653",
      "identificationNumber": "A78573573",
      "address": "C/ ÁNGEL BARAJAS, 4 BAJO B",
      "location": {
        "postalCode": "28224",
        "municipality": "Pozuelo de Alarcón",
        "county": "Madrid",
        "municipalityId": "115",
        "countyId": "28"
      },
      "economicActivities": [
        {
          "id": "1.502.6",
          "name": "Perforaciones para alumbramientos de aguas",
          "_links": {
            "self": {
              "name": "Perforaciones para alumbramientos de aguas",
              "href": "https://api.euskadi.eus/procurements/companies/economic-activities/1.502.6"
            }
          }
        }
      ],
      "certificateStartDate": "2019-11-20",
      "certificateEndDate": "2020-04-30",
      "object": "LA BÚSQUEDA, SONDEO Y PERFORACIÓN PARA CAPTACIÓN DE AGUAS MECÁNICA DE SUELOS, INVESTIGACIÓN O EXPLOTACIONES DE MINERÍA, INSTALACIONES DE POZOS, DESARROLLO DE POZOS, SONDEOS Y CANALIZACIONES MEDIANTE PROCEDIMIENTOS DE TRATAMIENTO FÍSICO Y/O QUÍMICO,-ESTACIONES DE BOMBEO ELÉCTRICAS O DE RIEGO, LA COMPRA-VENTA Y ALQUILER DE TODOS LOS MATERIALES Y MAQUINARIA NECESARIOS PARA EJERCER EN ESTAS ACTIVIDADES, ASÍ COMO CUALESQUIERA OTRAS CONEXAS O COMPLEMENTARIAS DE LAS DEFINIDAS",
      "mainEntityOfPage": "https://www.contratacion.euskadi.eus/webkpe00-kperoc/es/ac71aBusquedaRegistrosWar/empresa/06653",
      "_links": {
        "self": {
          "name": "PERFIBESA, S.A.",
          "href": "https://api.euskadi.eus/procurements/companies/06653"
        }
      }
    },
    {
      "name": "PROSEÑAL, S.L.U.",
      "registrationNumber": "06416",
      "identificationNumber": "B59720987",
      "address": "Calle Conde de Borrell nº 230 5º1ª",
      "location": {
        "postalCode": "08029",
        "municipality": "Barcelona",
        "county": "Barcelona",
        "municipalityId": "019",
        "countyId": "08"
      },
      "economicActivities": [
        {
          "id": "1.501.1",
          "name": "Construcción completa, reparación y conservación de edificaciones",
          "_links": {
            "self": {
              "name": "Construcción completa, reparación y conservación de edificaciones",
              "href": "https://api.euskadi.eus/procurements/companies/economic-activities/1.501.1"
            }
          }
        }
      ],
      "certificateStartDate": "2019-11-19",
      "certificateEndDate": "2020-05-04",
      "object": "LA IMPORTACIÓN, EXPORTACIÓN, FABRICACIÓN, VENTA POR CUENTA PROPIA O EN COMISIÓN, AL MAYOR O MENOR, SUMINISTRO Y PUESTA EN OBRA DE SEÑALIZACIONES, TANTO VERTICALES COMO HORIZONTALES MEDIANTE TRABAJOS EN HORMIGÓN, CERRAJERÍA, PLANCHISTERÍA, INYECCIÓN, FUNDICIÓN, FORJA, ESTAMPADO, PLÁSTICOS, APLICACIÓN DE PINTURAS Y OTROS, ADECUADO PARA TODA CLASE DE SEÑALES, BALIZAMIENTOS, VALLAS DE PROTECCIÓN O DE CERRAMIENTO, BARRERAS DE SEGURIDAD, SEMÁFOROS, CAPTAFAROS, Y JUNTAS DE DILATACIÓN DE VIALES URBANOS O INTERURBANOS, AUTOPISTAS, PUERTOS, VÍAS FÉRREAS, PARKINGS E INFORMACIÓN EN GENERAL, PUDIENDO CONCURRIR EN SUBASTAS TANTO PÚBLICAS COMO PRIVADAS. PODRÁ ASIMISMO DEDICARSE A CUALQUIER OTRA ACTIVIDAD LÍCITA PREVIO ACUERDO DE LA JUNTA GENERAL DE SOCIOS",
      "mainEntityOfPage": "https://www.contratacion.euskadi.eus/webkpe00-kperoc/es/ac71aBusquedaRegistrosWar/empresa/06416",
      "_links": {
        "self": {
          "name": "PROSEÑAL, S.L.U.",
          "href": "https://api.euskadi.eus/procurements/companies/06416"
        }
      }
    },
    {
      "name": "JOSÉ RAMOS MORENO",
      "registrationNumber": "06645",
      "identificationNumber": "30993415H",
      "address": "Avda San Juán de Dios, 17 1º D",
      "location": {
        "postalCode": "48980",
        "municipality": "Santurtzi",
        "county": "Bizkaia",
        "municipalityId": "082",
        "countyId": "48"
      },
      "economicActivities": [
        {
          "id": "2.841",
          "name": "Naturópatas, acupuntores y otros profesionales parasanitarios",
          "_links": {
            "self": {
              "name": "Naturópatas, acupuntores y otros profesionales parasanitarios",
              "href": "https://api.euskadi.eus/procurements/companies/economic-activities/2.841"
            }
          }
        }
      ],
      "certificateStartDate": "2019-11-19",
      "certificateEndDate": "2020-04-29",
      "object": "NATURÓPATAS, ACUPUNTORES Y OTROS PROFESIONALES PARASANITARIOS",
      "mainEntityOfPage": "https://www.contratacion.euskadi.eus/webkpe00-kperoc/es/ac71aBusquedaRegistrosWar/empresa/06645",
      "_links": {
        "self": {
          "name": "JOSÉ RAMOS MORENO",
          "href": "https://api.euskadi.eus/procurements/companies/06645"
        }
      }
    },
    {
      "name": "BNFIX AMB AUDITORES, S.L.P",
      "registrationNumber": "06648",
      "identificationNumber": "B04523239",
      "address": "CALLE RAFAEL ALBERTI, 1, ENTREPLANTA",
      "location": {
        "postalCode": "04004",
        "municipality": "Almería",
        "county": "Almería",
        "municipalityId": "013",
        "countyId": "04"
      },
      "economicActivities": [
        {
          "id": "1.842",
          "name": "Servicios financieros y contables",
          "_links": {
            "self": {
              "name": "Servicios financieros y contables",
              "href": "https://api.euskadi.eus/procurements/companies/economic-activities/1.842"
            }
          }
        }
      ],
      "certificateStartDate": "2019-11-19",
      "certificateEndDate": "2020-04-30",
      "object": "LA ACTIVIDAD PROPIA DE LOS AUDITORES DE CUENTAS, SEGÚN SUS ATRIBUCIONES PROFESIONALES",
      "mainEntityOfPage": "https://www.contratacion.euskadi.eus/webkpe00-kperoc/es/ac71aBusquedaRegistrosWar/empresa/06648",
      "_links": {
        "self": {
          "name": "BNFIX AMB AUDITORES, S.L.P",
          "href": "https://api.euskadi.eus/procurements/companies/06648"
        }
      }
    },
    {
      "name": "TUNDRA IT SERVICIOS INFORMÁTICOS, S.L.U.",
      "registrationNumber": "06022",
      "identificationNumber": "B95621959",
      "address": "TXORIERRI ETORBIDEA, 9",
      "location": {
        "postalCode": "48160",
        "municipality": "Derio",
        "county": "Bizkaia",
        "municipalityId": "901",
        "countyId": "48"
      },
      "economicActivities": [
        {
          "id": "1.845",
          "name": "Explotación electrónica por cuenta de terceros",
          "_links": {
            "self": {
              "name": "Explotación electrónica por cuenta de terceros",
              "href": "https://api.euskadi.eus/procurements/companies/economic-activities/1.845"
            }
          }
        }
      ],
      "certificateStartDate": "2019-11-18",
      "certificateEndDate": "2020-04-15",
      "object": "SERVICIOS DE ASESORAMIENTO, TRADUCCIONES, TRABAJOS DE SECRETARÍA, LABORES DE INTERMEDIACIÓN, ORGANIZACIÓN DE REUNIONES, CONVENCIONES, CONGRESOS Y TRÁMITES CON ADMINISTRACIONES PÚBLICAS Y SUS ORGANISMOS AUTÓNOMOS, EN EL ÁMBITO LOCAL, AUTONÓMICO, NACIONAL E INTERNACIONAL, ASÍ COMO A EMPRESAS Y PARTICULARES. LA PRESTACIÓN DE SERVICIOS ADMINISTRATIVOS, INFORMÁTICOS, DE CONSULTORÍA O DE GESTIÓN, LABORAL O FISCAL, A INSTITUCIONES, ORGANISMOS, EMPRESAS O PARTICULARES. LA INFORMATIZACIÓN DE EMPRESAS E INSTITUCIONES PÚBLICAS, COMPRA Y VENTA DE EQUIPOS INFORMÁTICOS, ORDENADORES Y ACCESORIOS, HARDWARE Y SOFTWARE. PRESTACIÓN DE SERVICIOS DE DISEÑO, DESARROLLO, IMPLANTACIÓN Y MANTENIMIENTO DE SISTEMAS INFORMÁTICOS, TANTO PARA SUS COMPONENTES HARDWARE COMO SOFTWARE, PARA LAS INSTITUCIONES PÚBLICAS Y EMPRESAS. PRESTACIÓN DE SERVICIOS DE ENSEÑANZA Y FORMACIÓN EN EL ÁMBITO DE LA INFORMÁTICA Y DE LAS TECNOLOGÍAS DE LA INFORMACIÓN. DISTRIBUCIÓN, REPRESENTACIÓN, COMERCIALIZACIÓN, IMPORTACIÓN Y EXPORTACIÓN DE PRODUCTOS DE SOFTWARE Y HARDWARE Y DE SUS SERVICIOS PERTENECIENTES A OTRAS EMPRESAS, NACIONALES O EXTRANJERAS, DENTRO DEL ÁMBITO DE LA CONSULTORÍA Y SERVICIOS INFORMÁTICOS",
      "mainEntityOfPage": "https://www.contratacion.euskadi.eus/webkpe00-kperoc/es/ac71aBusquedaRegistrosWar/empresa/06022",
      "_links": {
        "self": {
          "name": "TUNDRA IT SERVICIOS INFORMÁTICOS, S.L.U.",
          "href": "https://api.euskadi.eus/procurements/companies/06022"
        }
      }
    },
    {
      "name": "INNOTEC SYSTEM, S.L.",
      "registrationNumber": "06634",
      "identificationNumber": "B83444943",
      "address": "C/ Orense Nº70",
      "location": {
        "postalCode": "28020",
        "municipality": "Madrid",
        "county": "Madrid",
        "municipalityId": "079",
        "countyId": "28"
      },
      "economicActivities": [
        {
          "id": "1.845",
          "name": "Explotación electrónica por cuenta de terceros",
          "_links": {
            "self": {
              "name": "Explotación electrónica por cuenta de terceros",
              "href": "https://api.euskadi.eus/procurements/companies/economic-activities/1.845"
            }
          }
        }
      ],
      "certificateStartDate": "2019-11-18",
      "certificateEndDate": "2020-04-25",
      "object": "LA VENTA DE SOFTWARE, CONSULTORÍA, SERVICIOS PROFESIONALES, DESARROLLO DE SOFTWARE, VENTA DE HARDWARE, FORMACIÓN Y CURSOS DE SOFTWARE. ASÍ COMO LA ADQUISICIÓN, EXPLOTACIÓN Y ENAJENACIÓN DE BIENES INMUEBLES",
      "mainEntityOfPage": "https://www.contratacion.euskadi.eus/webkpe00-kperoc/es/ac71aBusquedaRegistrosWar/empresa/06634",
      "_links": {
        "self": {
          "name": "INNOTEC SYSTEM, S.L.",
          "href": "https://api.euskadi.eus/procurements/companies/06634"
        }
      }
    }
  ]
}