{
  "totalItems": 9042,
  "totalPages": 905,
  "currentPage": 338,
  "itemsOfPage": 10,
  "items": [
    {
      "name": "ALBEROLA ARQUITECTURA Y URBANISMO, S.L.",
      "registrationNumber": "08208",
      "identificationNumber": "B01394980",
      "address": "Loreto de Arriola, 12 Bajo",
      "location": {
        "postalCode": "01010",
        "municipality": "Vitoria-Gasteiz",
        "county": "Araba/Álava",
        "municipalityId": "059",
        "countyId": "01"
      },
      "economicActivities": [
        {
          "id": "1.843.2",
          "name": "Servicios técnicos de arquitectura y urbanismo",
          "_links": {
            "self": {
              "name": "Servicios técnicos de arquitectura y urbanismo",
              "href": "https://api.euskadi.eus/procurements/companies/economic-activities/1.843.2"
            }
          }
        }
      ],
      "certificateStartDate": "2025-07-20",
      "certificateEndDate": "2026-01-20",
      "object": "LA PRESTACIÓN DE SERVICIOS PROFESIONALES EN EL CAMPO DE LA ARQUITECTURA Y EL URBANISMO, SIEMPRE A TRAVÉS DE ARQUITECTOS COLEGIADOS, ASÍ COMO LA REPRESENTACIÓN DE TERCEROS Y POR SU CUENTA EXCLUSIVA, DE LAS ACTIVIDADES DE GESTIÓN, ASESORAMIENTO, COORDINACIÓN Y ADMINISTRACIÓN, RELACIONADAS CON LA CONDICIÓN DE ARQUITECTO. EN ESPECIAL, TRABAJOS DE EDIFICACIÓN, TANTO SEA NUEVA PLANTA, COMO REHABILITACIÓN Y LEGALIZACIÓN; TRABAJOS DE PAISAJISMO Y ESPACIOS LIBRES; TRABAJOS DE URBANISMO, PLANES GENERALES, NORMAS SUBSIDIARIAS, PLANES PARCIALES, ESTUDIOS DE DETALLE, PARCELACIÓN, PROYECTOS DE COMPENSACIÓN, REPARCELACIÓN, URBANIZACIÓN Y PROGRAMAS DE ACTUACIÓN. ASESORÍA Y GESTIÓN A PARTICULARES, EMPRESAS Y PROMOCIÓN, EN ACTIVIDADES PROPIAS DE LAS ACTIVIDADES RELACIONAS EN EL PRESENTE OBJETO. ELABORACIÓN DE INFORMES, DICTÁMENES Y PERITACIONES, TANTO JUDICIALES COMO EXTRAJUDICIALES.",
      "mainEntityOfPage": "https://www.contratacion.euskadi.eus/webkpe00-kperoc/es/ac71aBusquedaRegistrosWar/empresa/08208",
      "_links": {
        "self": {
          "name": "ALBEROLA ARQUITECTURA Y URBANISMO, S.L.",
          "href": "https://api.euskadi.eus/procurements/companies/08208"
        }
      }
    },
    {
      "name": "ANDAIRA S. COOP. MAD",
      "registrationNumber": "10010",
      "identificationNumber": "F84492800",
      "address": "Paseo de las Acacias, 3 - 1º A",
      "location": {
        "postalCode": "28005",
        "municipality": "Madrid",
        "county": "Madrid",
        "municipalityId": "079",
        "countyId": "28"
      },
      "economicActivities": [
        {
          "id": "1.934",
          "name": "Enseñanza fuera de establecimiento permanente",
          "_links": {
            "self": {
              "name": "Enseñanza fuera de establecimiento permanente",
              "href": "https://api.euskadi.eus/procurements/companies/economic-activities/1.934"
            }
          }
        },
        {
          "id": "1.999",
          "name": "Otros servicios n.c.o.p",
          "_links": {
            "self": {
              "name": "Otros servicios n.c.o.p",
              "href": "https://api.euskadi.eus/procurements/companies/economic-activities/1.999"
            }
          }
        }
      ],
      "certificateStartDate": "2025-07-20",
      "certificateEndDate": "2026-01-20",
      "object": "- INTERVENCIÓN CON LAS PERSONAS: - ELABORACIÓN, ESTUDIO, DISEÑO, EJECUCIÓN Y EVALUACIÓN DE PROYECTOS DE INTERVENCIÓN E INVESTIGACIÓN SOCIAL. - PRESTACIÓN DE SERVICIOS E INTERVENCIÓN DIRECTA EN EL ÁMBITO DE LA IGUALDAD DE GÉNERO, EL EMPODERAMIENTO DE LAS MUJERES, LA SENSIBILIZACIÓN Y LA PREVENCIÓN DE LA VIOLENCIA DE GÉNERO. - PROMOCIÓN Y FOMENTO DE LA CULTURA Y SU DIVERSIDAD A TRAVÉS DE ELEMENTOS EDUCATIVOS, ARTÍSTICOS Y FORMATIVOS, ASÍ COMO DE OTRO TIPO DE ACTIVIDADES COMO PUBLICACIONES, INVESTIGACIONES, SEMINARIOS, CONGRESOS, JORNADAS Y OTROS EVENTOS RELACIONADOS CON ESTA ÁREA. - FOMENTO Y DESARROLLO DE ACTIVIDADES PARA LA MEJORA DE LA CALIDAD DE VIDA, OCIO Y TIEMPO LIBRE, ANIMACIÓN SOCIOCULTURAL, CONCILIACIÓN DE LA VIDA PERSONAL Y LABORAL, SALUD, DESCANSO Y NUTRICIÓN, ASÍ COMO LA PROMOCIÓN CULTURAL, SOCIAL Y AMBIENTAL. - PROMOCIÓN, AYUDA E INTERVENCIÓN PARA LA INTEGRACIÓN DE PERSONAS EN RIESGO O EN SITUACIÓN DE EXCLUSIÓN SOCIAL, COLECTIVOS DESFAVORECIDOS, MENORES EN DIFICULTAD, LA MULTICULTURALIDAD E INTERCULTURALIDAD, FOMENTANDO LA CONVIVENCIA DE GRUPOS SOCIALES Y SU INCORPORACIÓN SOCIOLABORAL EN TÉRMINOS DE IGUALDAD. - REALIZACIÓN DE ACTIVIDADES PARA EL DESARROLLO RURAL Y SU ACTIVIDAD ECONÓMICA, ARTICULANDO ACCIONES FORTALECEDORAS DE LOS RECURSOS SOCIALES, ECONÓMICOS, CULTURALES Y AMBIENTALES PRESENTES EN LOS TERRITORIOS RURALES. - ELABORACIÓN DE PROYECTOS, ASESORAMIENTO Y PROMOCIÓN RELACIONADA CON LA ECONOMÍA SOCIAL Y SOLIDARIA Y DE COOPERACIÓN AL DESARROLLO. - FOMENTAR LA PARTICIPACIÓN CIUDADANA CON ACCIONES O INICIATIVAS QUE PRETENDAN IMPULSAR EL DESARROLLO LOCAL Y LA DEMOCRACIA PARTICIPATIVA A TRAVÉS DE LA INTEGRACIÓN DE LA COMUNIDAD. - CONSULTORÍA Y FORMACIÓN:  - FORMACIÓN Y CONSULTORÍA EN EL ÁMBITO DE LA INTERVENCIÓN SOCIAL. - FORMACIÓN Y CONSULTORÍA EN MATERIA DE TEORÍA DE GÉNERO, POLÍTICAS DE IGUALDAD, HERRAMIENTAS Y ESTRATEGIAS PARA FAVORECER LA IGUALDAD DE OPORTUNIDADES. - CONSULTORÍA EN EL ÁMBITO ECONÓMICO Y DE ACTIVIDADES DE LA IGUALDAD DE GÉNERO, EL EMPODERAMIENTO DE LAS MUJERES, LA SENSIBILIZACIÓN Y PREVENCIÓN CONTRA LA VIOLENCIA DE GÉNERO, LA COEDUCACIÓN Y LA CORRESPONSABILIDAD. - DESARROLLO DE ACTIVIDADES DE ENSEÑANZA, FORMACIÓN Y PERFECCIONAMIENTO EMPRESARIAL O PROFESIONAL, ASÍ COMO LA ORGANIZACIÓN, COORDINACIÓN, IMPARTICIÓN O DESARROLLO DE CURSOS RELATIVOS A DICHAS MATERIAS. - FORMACIÓN Y CONSULTORÍA EN EL ÁMBITO DE LA ECONOMÍA SOCIAL Y SOLIDARIA. - INVESTIGACIÓN, EVALUACIÓN Y PLANIFICACIÓN: - INVESTIGACIÓN, ESTUDIOS, AUDITORÍAS, ELABORACIÓN DE INFORMES, ANÁLISIS DE EVALUACIÓN Y FORMACIÓN, EN LOS ÁMBITOS SOCIALES, POLÍTICOS, ECONÓMICOS, CULTURALES Y AMBIENTALES. - ELABORACIÓN Y EVALUACIÓN DE PLANES DE IGUALDAD Y PROTOCOLOS DE ACTUACIÓN, ASÍ COMO DE PLANES DE ACCIÓN SOCIAL, SOCIOECONÓMICOS Y AMBIENTALES. - DISEÑO E IMPLEMENTACIÓN DE CAMPAÑAS, EVENTOS Y MATERIALES: - DISEÑO DE CAMPAÑAS Y MATERIALES DIRIGIDAS A LA SENSIBILIZACIÓN SOCIAL Y PREVENCIÓN DE VIOLENCIA DE GÉNERO. - ORGANIZACIÓN DE SEMINARIOS, CONFERENCIAS, CONGRESOS Y OTROS EVENTOS PARA EL FOMENTO DE LA ECONOMÍA SOCIAL Y SOLIDARIA Y DE LA PRÁCTICA DE LA INTERCOOPERACIÓN.",
      "mainEntityOfPage": "https://www.contratacion.euskadi.eus/webkpe00-kperoc/es/ac71aBusquedaRegistrosWar/empresa/10010",
      "_links": {
        "self": {
          "name": "ANDAIRA S. COOP. MAD",
          "href": "https://api.euskadi.eus/procurements/companies/10010"
        }
      }
    },
    {
      "name": "ARTURO REDONDO GONZALEZ",
      "registrationNumber": "10024",
      "identificationNumber": "07854849G",
      "address": "C/ URRETA, 18 3º D",
      "location": {
        "postalCode": "48960",
        "municipality": "Galdakao",
        "county": "Bizkaia",
        "municipalityId": "036",
        "countyId": "48"
      },
      "economicActivities": [
        {
          "id": "1.654.5",
          "name": "Venta al por menor de toda clase de maquinaría",
          "_links": {
            "self": {
              "name": "Venta al por menor de toda clase de maquinaría",
              "href": "https://api.euskadi.eus/procurements/companies/economic-activities/1.654.5"
            }
          }
        },
        {
          "id": "1.692",
          "name": "Reparación de maquinaria industrial",
          "_links": {
            "self": {
              "name": "Reparación de maquinaria industrial",
              "href": "https://api.euskadi.eus/procurements/companies/economic-activities/1.692"
            }
          }
        }
      ],
      "certificateStartDate": "2025-07-20",
      "certificateEndDate": "2026-01-20",
      "object": "VENTA AL POR MENOR DE TODA CLASE DE MAQUINARÍA. REPARACIÓN DE MAQUINARIA INDUSTRIAL.",
      "mainEntityOfPage": "https://www.contratacion.euskadi.eus/webkpe00-kperoc/es/ac71aBusquedaRegistrosWar/empresa/10024",
      "_links": {
        "self": {
          "name": "ARTURO REDONDO GONZALEZ",
          "href": "https://api.euskadi.eus/procurements/companies/10024"
        }
      }
    },
    {
      "name": "ROBERTO GUTIERREZ DE ROZAS CADIÑANOS",
      "registrationNumber": "10006",
      "identificationNumber": "13307431E",
      "address": "Calle Muguru 6 7c",
      "location": {
        "postalCode": "48960",
        "municipality": "Galdakao",
        "county": "Bizkaia",
        "municipalityId": "036",
        "countyId": "48"
      },
      "economicActivities": [
        {
          "id": "1.654.1",
          "name": "Venta al por menor de vehículos terrestres",
          "_links": {
            "self": {
              "name": "Venta al por menor de vehículos terrestres",
              "href": "https://api.euskadi.eus/procurements/companies/economic-activities/1.654.1"
            }
          }
        },
        {
          "id": "1.654.5",
          "name": "Venta al por menor de toda clase de maquinaría",
          "_links": {
            "self": {
              "name": "Venta al por menor de toda clase de maquinaría",
              "href": "https://api.euskadi.eus/procurements/companies/economic-activities/1.654.5"
            }
          }
        },
        {
          "id": "1.699",
          "name": "Otras reparaciones n.c.o.p",
          "_links": {
            "self": {
              "name": "Otras reparaciones n.c.o.p",
              "href": "https://api.euskadi.eus/procurements/companies/economic-activities/1.699"
            }
          }
        }
      ],
      "certificateStartDate": "2025-07-18",
      "certificateEndDate": "2026-01-16",
      "object": "VENTA AL POR MENOR DE TODA CLASE DE MAQUINARÍA. OTRAS REPARACIONES N.C.O.P.",
      "mainEntityOfPage": "https://www.contratacion.euskadi.eus/webkpe00-kperoc/es/ac71aBusquedaRegistrosWar/empresa/10006",
      "_links": {
        "self": {
          "name": "ROBERTO GUTIERREZ DE ROZAS CADIÑANOS",
          "href": "https://api.euskadi.eus/procurements/companies/10006"
        }
      }
    },
    {
      "name": "ITWISE TECHNOLOGY SERVICES, S.L.",
      "registrationNumber": "09427",
      "identificationNumber": "B84470939",
      "address": "C/ COPENHAGUE, 6",
      "location": {
        "postalCode": "28232",
        "municipality": "Rozas de Madrid, Las",
        "county": "Madrid",
        "municipalityId": "127",
        "countyId": "28"
      },
      "economicActivities": [
        {
          "id": "1.659.2",
          "name": "Venta al por menor de muebles de oficina y máquinas y equipos de oficina",
          "_links": {
            "self": {
              "name": "Venta al por menor de muebles de oficina y máquinas y equipos de oficina",
              "href": "https://api.euskadi.eus/procurements/companies/economic-activities/1.659.2"
            }
          }
        },
        {
          "id": "1.845",
          "name": "Explotación electrónica por cuenta de terceros",
          "_links": {
            "self": {
              "name": "Explotación electrónica por cuenta de terceros",
              "href": "https://api.euskadi.eus/procurements/companies/economic-activities/1.845"
            }
          }
        }
      ],
      "certificateStartDate": "2025-07-18",
      "certificateEndDate": "2026-01-16",
      "object": "- LA COMPRA, VENTA, ALQUILER, SOPORTE, REPARACIÓN Y MANTENIMIENTO DE MATERIAL, EQUIPOS Y SISTEMAS INFORMÁTICOS, SU IMPORTACIÓN Y EXPORTACIÓN, POR SÍ O POR CUENTA DE TERCEROS. - SOPORTE, DISTRIBUCIÓN, Y DESARROLLO DE APLICACIONES DE SOFTWARE A MEDIDA Y SISTEMAS OPERATIVOS; CONSULTORÍA INFORMÁTICA; SOLUCIONES DE REDES Y COMUNICACIONES; BÚSQUEDA Y CESIÓN DE PERSONAL ESPECIALIZADO, Y SERVICIOS DE FORMACIÓN. - PROYECTOS EN LOS CAMPOS DEL PROCESO ELECTRÓNICO DE DATOS, LAS COMUNICACIONES E INTERNET EN GENERAL. - Y EL ASESORAMIENTO, ESTUDIOS Y PROYECTOS DE INGENIERÍA DENTRO DE LOS ÁMBITOS TECNOLÓGICO O ELECTRÓNICO, ASÍ COMO LA PRESTACIÓN DE SERVICIOS PROFESIONALES DE CUALQUIER ÍNDOLE EN DICHOS CAMPOS.",
      "mainEntityOfPage": "https://www.contratacion.euskadi.eus/webkpe00-kperoc/es/ac71aBusquedaRegistrosWar/empresa/09427",
      "_links": {
        "self": {
          "name": "ITWISE TECHNOLOGY SERVICES, S.L.",
          "href": "https://api.euskadi.eus/procurements/companies/09427"
        }
      }
    },
    {
      "name": "CADILAN 2.010, S.L.",
      "registrationNumber": "07392",
      "identificationNumber": "B95617635",
      "address": "C/BIZKAIA Nº14 3º D",
      "location": {
        "postalCode": "48901",
        "municipality": "Barakaldo",
        "county": "Bizkaia",
        "municipalityId": "013",
        "countyId": "48"
      },
      "economicActivities": [
        {
          "id": "1.612.6",
          "name": "Venta al por mayor de bebidas y tabaco",
          "_links": {
            "self": {
              "name": "Venta al por mayor de bebidas y tabaco",
              "href": "https://api.euskadi.eus/procurements/companies/economic-activities/1.612.6"
            }
          }
        },
        {
          "id": "1.617.9",
          "name": "Venta al por mayor interindustrial de otros productos n.c.o.p",
          "_links": {
            "self": {
              "name": "Venta al por mayor interindustrial de otros productos n.c.o.p",
              "href": "https://api.euskadi.eus/procurements/companies/economic-activities/1.617.9"
            }
          }
        }
      ],
      "certificateStartDate": "2025-07-17",
      "certificateEndDate": "2026-01-16",
      "object": "EL COMERCIO INTERNO E INTERNACIONAL, TANTO AL POR MAYOR, COMO AL MINORISTA, DE SUMINISTROS INDUSTRIALES DE O PARA LA EMPRESA DE LA SIDEROMETALÚRGICA Y DE LA CONSTRUCCIÓN DE EDIFICIOS PÚBLICOS Y PRIVADOS O DE INGENIERÍA CIVIL, DE PRODUCTOS DE CONSUMO Y DE MATERIA PRIMA. EL COMERCIO INTERNO E INTERNACIONAL, IMPORTACIÓN, EXPORTACIÓN Y VENTA AL POR MAYOR Y POR MENOR DE MATERIALES PARA LA PROTECCIÓN Y SEGURIDAD LABORAL",
      "mainEntityOfPage": "https://www.contratacion.euskadi.eus/webkpe00-kperoc/es/ac71aBusquedaRegistrosWar/empresa/07392",
      "_links": {
        "self": {
          "name": "CADILAN 2.010, S.L.",
          "href": "https://api.euskadi.eus/procurements/companies/07392"
        }
      }
    },
    {
      "name": "AITZOL AURREKOETXEA PUJANA",
      "registrationNumber": "10279",
      "identificationNumber": "78888447B",
      "address": "Avenida Lehendakari Agirre",
      "location": {
        "postalCode": "48140",
        "municipality": "Igorre",
        "county": "Bizkaia",
        "municipalityId": "094",
        "countyId": "48"
      },
      "economicActivities": [
        {
          "id": "2.411",
          "name": "Arquitectos",
          "_links": {
            "self": {
              "name": "Arquitectos",
              "href": "https://api.euskadi.eus/procurements/companies/economic-activities/2.411"
            }
          }
        }
      ],
      "certificateStartDate": "2025-07-17",
      "certificateEndDate": "2026-01-15",
      "object": "Arquitecto",
      "mainEntityOfPage": "https://www.contratacion.euskadi.eus/webkpe00-kperoc/es/ac71aBusquedaRegistrosWar/empresa/10279",
      "_links": {
        "self": {
          "name": "AITZOL AURREKOETXEA PUJANA",
          "href": "https://api.euskadi.eus/procurements/companies/10279"
        }
      }
    },
    {
      "name": "PSIKOHEZKUNTZA, S.L.",
      "registrationNumber": "09566",
      "identificationNumber": "B16845109",
      "address": "BARRIO URIOSTE 38B",
      "location": {
        "postalCode": "48530",
        "municipality": "Ortuella",
        "county": "Bizkaia",
        "municipalityId": "083",
        "countyId": "48"
      },
      "economicActivities": [
        {
          "id": "1.933.9",
          "name": "Otras actividades de enseñanza tales como idiomas, mecanografía",
          "_links": {
            "self": {
              "name": "Otras actividades de enseñanza tales como idiomas, mecanografía",
              "href": "https://api.euskadi.eus/procurements/companies/economic-activities/1.933.9"
            }
          }
        },
        {
          "id": "1.942.9",
          "name": "Otros servicios sanitarios sin internados, no clasificados",
          "_links": {
            "self": {
              "name": "Otros servicios sanitarios sin internados, no clasificados",
              "href": "https://api.euskadi.eus/procurements/companies/economic-activities/1.942.9"
            }
          }
        },
        {
          "id": "1.951",
          "name": "Asistencia y servicios sociales en centros residenciales",
          "_links": {
            "self": {
              "name": "Asistencia y servicios sociales en centros residenciales",
              "href": "https://api.euskadi.eus/procurements/companies/economic-activities/1.951"
            }
          }
        },
        {
          "id": "1.966.9",
          "name": "Otros servicios culturales n.c.o.p",
          "_links": {
            "self": {
              "name": "Otros servicios culturales n.c.o.p",
              "href": "https://api.euskadi.eus/procurements/companies/economic-activities/1.966.9"
            }
          }
        }
      ],
      "certificateStartDate": "2025-07-17",
      "certificateEndDate": "2026-01-16",
      "object": "PRESTACIÓN DE SERVICIOS Y FORMACIÓN EN CENTRO EDUCATIVOS (PÚBLICOS, CONCERTADO Y PRIVADOS) Y EN LA ADMINISTRACIÓN TANTO PÚBLICA COMO PRIVADA, RELACIONADOS CON LA ATENCIÓN TEMPRANA, LOGOPEDIA, PSICOMOTRICIDAD, PSICOLOGÍA, PSICOTERAPIA INDIVIDUAL Y GRUPAL, FISIOTERAPIA, PSICOMOTRICIDAD, APOYO FAMILIAR, ASÍ COMO MONITORADO PARA ACTIVIDADES DE OCIO Y EDUCATIVAS, VIGILANCIA Y TUTORIZACIÓN INDIVIDUALES Y/O GRUPALES.",
      "mainEntityOfPage": "https://www.contratacion.euskadi.eus/webkpe00-kperoc/es/ac71aBusquedaRegistrosWar/empresa/09566",
      "_links": {
        "self": {
          "name": "PSIKOHEZKUNTZA, S.L.",
          "href": "https://api.euskadi.eus/procurements/companies/09566"
        }
      }
    },
    {
      "name": "KEYTRON, S.A.",
      "registrationNumber": "10278",
      "identificationNumber": "A78879285",
      "address": "CALLE SAN JOSÉ ARTESANO 12",
      "location": {
        "postalCode": "28108",
        "municipality": "Alcobendas",
        "county": "Madrid",
        "municipalityId": "006",
        "countyId": "28"
      },
      "economicActivities": [
        {
          "id": "1.615.4",
          "name": "Venta al por mayor de aparatos y material radioeléctrico y electrónico",
          "_links": {
            "self": {
              "name": "Venta al por mayor de aparatos y material radioeléctrico y electrónico",
              "href": "https://api.euskadi.eus/procurements/companies/economic-activities/1.615.4"
            }
          }
        },
        {
          "id": "1.861.2",
          "name": "Alquiler de locales industriales y otros alquileres n.c.o.p",
          "_links": {
            "self": {
              "name": "Alquiler de locales industriales y otros alquileres n.c.o.p",
              "href": "https://api.euskadi.eus/procurements/companies/economic-activities/1.861.2"
            }
          }
        }
      ],
      "certificateStartDate": "2025-07-17",
      "certificateEndDate": "2026-01-17",
      "object": "LA FABRICACIÓN, MONTAJE, INSTALACIÓN, IMPORTACIÓN Y EXPORTACIÓN, VENTA, DISTRIBUCIÓN Y REPARACIÓN DE MATERIAL Y APARATOS ELECTRÓNICOS, DE APARATOS ELÉCTRICOS DE CUALQUIER CLASE, DE INSTALACIONES ELÉCTRICAS DE CUALQUIER USO Y CLASE Y DE TODO TIPO DE MAQUINARIA.",
      "mainEntityOfPage": "https://www.contratacion.euskadi.eus/webkpe00-kperoc/es/ac71aBusquedaRegistrosWar/empresa/10278",
      "_links": {
        "self": {
          "name": "KEYTRON, S.A.",
          "href": "https://api.euskadi.eus/procurements/companies/10278"
        }
      }
    },
    {
      "name": "TRAYNE, S.A.",
      "registrationNumber": "09393",
      "identificationNumber": "A48149603",
      "address": "Ibaizabal 33",
      "location": {
        "postalCode": "48960",
        "municipality": "Galdakao",
        "county": "Bizkaia",
        "municipalityId": "036",
        "countyId": "48"
      },
      "economicActivities": [
        {
          "id": "1.617.9",
          "name": "Venta al por mayor interindustrial de otros productos n.c.o.p",
          "_links": {
            "self": {
              "name": "Venta al por mayor interindustrial de otros productos n.c.o.p",
              "href": "https://api.euskadi.eus/procurements/companies/economic-activities/1.617.9"
            }
          }
        },
        {
          "id": "1.692",
          "name": "Reparación de maquinaria industrial",
          "_links": {
            "self": {
              "name": "Reparación de maquinaria industrial",
              "href": "https://api.euskadi.eus/procurements/companies/economic-activities/1.692"
            }
          }
        },
        {
          "id": "1.722",
          "name": "Transporte de mercancías por carretera",
          "_links": {
            "self": {
              "name": "Transporte de mercancías por carretera",
              "href": "https://api.euskadi.eus/procurements/companies/economic-activities/1.722"
            }
          }
        }
      ],
      "certificateStartDate": "2025-07-17",
      "certificateEndDate": "2026-01-14",
      "object": "A) LA COMERCIALIZACIÓN Y SERVICIO POSTVENTA DE MAQUINARIA DE OBRAS Y CONSTRUCCIÓN, ASÍ COMO SU REPARACIÓN Y MANTENIMIENTO, PUDIENDO REALIZAR CUANTAS ACTIVIDADES SEAN PREPARATORIAS, AUXILIARES, DERIVADAS O COMPLEMENTARIAS DE LAS ANTERIORES. B) LA PRESTACIÓN DE SERVICIOS DE TRANSPORTE DE MERCANCÍAS EN TODAS LAS MODALIDADES POSIBLES, ASÍ COMO LA ACTIVIDAD DE AGENCIA DE TRANSPORTES.",
      "mainEntityOfPage": "https://www.contratacion.euskadi.eus/webkpe00-kperoc/es/ac71aBusquedaRegistrosWar/empresa/09393",
      "_links": {
        "self": {
          "name": "TRAYNE, S.A.",
          "href": "https://api.euskadi.eus/procurements/companies/09393"
        }
      }
    }
  ]
}