{
  "totalItems": 9042,
  "totalPages": 905,
  "currentPage": 623,
  "itemsOfPage": 10,
  "items": [
    {
      "name": "CAYO GARCÍA LARRECHI",
      "registrationNumber": "03568",
      "identificationNumber": "16228617R",
      "address": "C/ Uritiasolo, 6. Pabellón 8.",
      "location": {
        "postalCode": "01006",
        "municipality": "Vitoria-Gasteiz",
        "county": "Araba/Álava",
        "municipalityId": "059",
        "countyId": "01"
      },
      "economicActivities": [
        {
          "id": "1.474",
          "name": "Artes gráficas (impresión gráfica)",
          "_links": {
            "self": {
              "name": "Artes gráficas (impresión gráfica)",
              "href": "https://api.euskadi.eus/procurements/companies/economic-activities/1.474"
            }
          }
        }
      ],
      "certificateStartDate": "2018-11-08",
      "certificateEndDate": "2019-03-30",
      "object": "ARTES GRAFICAS, CON REALIZACIÓN DE TODA CLASE DE IMPRESOS COMERCIALES",
      "mainEntityOfPage": "https://www.contratacion.euskadi.eus/webkpe00-kperoc/es/ac71aBusquedaRegistrosWar/empresa/03568",
      "_links": {
        "self": {
          "name": "CAYO GARCÍA LARRECHI",
          "href": "https://api.euskadi.eus/procurements/companies/03568"
        }
      }
    },
    {
      "name": "UNIÓN INTERNACIONAL DE SERVICIOS INTEGRALES UNI2, S.A.",
      "registrationNumber": "00131",
      "identificationNumber": "A48103212",
      "address": "CTRA. LARRASKITU, Nº 35",
      "location": {
        "postalCode": "48002",
        "municipality": "Bilbao",
        "county": "Bizkaia",
        "municipalityId": "020",
        "countyId": "48"
      },
      "economicActivities": [
        {
          "id": "1.671.5",
          "name": "Restaurante un tenedor",
          "_links": {
            "self": {
              "name": "Restaurante un tenedor",
              "href": "https://api.euskadi.eus/procurements/companies/economic-activities/1.671.5"
            }
          }
        },
        {
          "id": "1.673.2",
          "name": "Otros cafés y bares",
          "_links": {
            "self": {
              "name": "Otros cafés y bares",
              "href": "https://api.euskadi.eus/procurements/companies/economic-activities/1.673.2"
            }
          }
        },
        {
          "id": "1.677.1",
          "name": "Otros servicios de alimentación fuera de establecimiento",
          "_links": {
            "self": {
              "name": "Otros servicios de alimentación fuera de establecimiento",
              "href": "https://api.euskadi.eus/procurements/companies/economic-activities/1.677.1"
            }
          }
        },
        {
          "id": "1.692",
          "name": "Reparación de maquinaria industrial",
          "_links": {
            "self": {
              "name": "Reparación de maquinaria industrial",
              "href": "https://api.euskadi.eus/procurements/companies/economic-activities/1.692"
            }
          }
        },
        {
          "id": "1.849.9",
          "name": "Otros servicios independientes n.c.o.p",
          "_links": {
            "self": {
              "name": "Otros servicios independientes n.c.o.p",
              "href": "https://api.euskadi.eus/procurements/companies/economic-activities/1.849.9"
            }
          }
        },
        {
          "id": "1.921.3",
          "name": "Exterminio de animales dañinos y desinfección",
          "_links": {
            "self": {
              "name": "Exterminio de animales dañinos y desinfección",
              "href": "https://api.euskadi.eus/procurements/companies/economic-activities/1.921.3"
            }
          }
        },
        {
          "id": "1.922",
          "name": "Servicios de limpieza",
          "_links": {
            "self": {
              "name": "Servicios de limpieza",
              "href": "https://api.euskadi.eus/procurements/companies/economic-activities/1.922"
            }
          }
        },
        {
          "id": "1.922.1",
          "name": "Servicios de limpieza de interiores",
          "_links": {
            "self": {
              "name": "Servicios de limpieza de interiores",
              "href": "https://api.euskadi.eus/procurements/companies/economic-activities/1.922.1"
            }
          }
        }
      ],
      "certificateStartDate": "2018-11-07",
      "certificateEndDate": "2019-04-28",
      "object": "LIMPIEZA Y DESINFECCIÓN EN GENERAL EN CUALQUIER LOCAL Y CENTRO",
      "mainEntityOfPage": "https://www.contratacion.euskadi.eus/webkpe00-kperoc/es/ac71aBusquedaRegistrosWar/empresa/00131",
      "_links": {
        "self": {
          "name": "UNIÓN INTERNACIONAL DE SERVICIOS INTEGRALES UNI2, S.A.",
          "href": "https://api.euskadi.eus/procurements/companies/00131"
        }
      }
    },
    {
      "name": "BIONET MEDICAL, S.L.",
      "registrationNumber": "05912",
      "identificationNumber": "B82473703",
      "address": "C/ GALILEO, 77",
      "location": {
        "postalCode": "28015",
        "municipality": "Madrid",
        "county": "Madrid",
        "municipalityId": "079",
        "countyId": "28"
      },
      "economicActivities": [
        {
          "id": "1.652.1",
          "name": "Farmacias",
          "_links": {
            "self": {
              "name": "Farmacias",
              "href": "https://api.euskadi.eus/procurements/companies/economic-activities/1.652.1"
            }
          }
        },
        {
          "id": "1.989.2",
          "name": "Servicios de organización de congresos, asambleas y similares",
          "_links": {
            "self": {
              "name": "Servicios de organización de congresos, asambleas y similares",
              "href": "https://api.euskadi.eus/procurements/companies/economic-activities/1.989.2"
            }
          }
        }
      ],
      "certificateStartDate": "2018-10-31",
      "certificateEndDate": "2019-01-20",
      "object": "LA DISTRIBUCIÓN, COMERCIALIZACIÓN, IMPORTACIÓN, EXPORTACIÓN, ALMACENAMIENTO, AGRUPACIÓN Y FABRICACIÓN DE PRODUCTOS SANITARIOS, QUÍMICO - FARMACÉUTICOS, EQUIPOS DE ELECTROMEDICINA Y OTROS ACCESORIOS",
      "mainEntityOfPage": "https://www.contratacion.euskadi.eus/webkpe00-kperoc/es/ac71aBusquedaRegistrosWar/empresa/05912",
      "_links": {
        "self": {
          "name": "BIONET MEDICAL, S.L.",
          "href": "https://api.euskadi.eus/procurements/companies/05912"
        }
      }
    },
    {
      "name": "JON ZUBIZARRETA ALDAYA",
      "registrationNumber": "05913",
      "identificationNumber": "44163244R",
      "address": "campa de Larraitz s/n",
      "location": {
        "postalCode": "20269",
        "municipality": "Abaltzisketa",
        "county": "Gipuzkoa",
        "municipalityId": "001",
        "countyId": "20"
      },
      "economicActivities": [
        {
          "id": "1.911",
          "name": "Servicios agrícolas y ganaderos",
          "_links": {
            "self": {
              "name": "Servicios agrícolas y ganaderos",
              "href": "https://api.euskadi.eus/procurements/companies/economic-activities/1.911"
            }
          }
        }
      ],
      "certificateStartDate": "2018-10-31",
      "certificateEndDate": "2019-04-30",
      "object": "SERVICIOS AGRÍCOLAS Y GANADEROS",
      "mainEntityOfPage": "https://www.contratacion.euskadi.eus/webkpe00-kperoc/es/ac71aBusquedaRegistrosWar/empresa/05913",
      "_links": {
        "self": {
          "name": "JON ZUBIZARRETA ALDAYA",
          "href": "https://api.euskadi.eus/procurements/companies/05913"
        }
      }
    },
    {
      "name": "SONIA SANZ DÍEZ",
      "registrationNumber": "05903",
      "identificationNumber": "44149190T",
      "address": "Arbe 2",
      "location": {
        "postalCode": "01207",
        "municipality": "San Millán/Donemiliaga",
        "county": "Araba/Álava",
        "municipalityId": "053",
        "countyId": "01"
      },
      "economicActivities": [
        {
          "id": "1.845",
          "name": "Explotación electrónica por cuenta de terceros",
          "_links": {
            "self": {
              "name": "Explotación electrónica por cuenta de terceros",
              "href": "https://api.euskadi.eus/procurements/companies/economic-activities/1.845"
            }
          }
        },
        {
          "id": "2.861",
          "name": "Pintores, escultores, ceramistas, artesanos, artistas y similares",
          "_links": {
            "self": {
              "name": "Pintores, escultores, ceramistas, artesanos, artistas y similares",
              "href": "https://api.euskadi.eus/procurements/companies/economic-activities/2.861"
            }
          }
        }
      ],
      "certificateStartDate": "2018-10-26",
      "certificateEndDate": "2019-03-07",
      "object": "PINTURA, PAPEL PINTADO Y MOQUETAS",
      "mainEntityOfPage": "https://www.contratacion.euskadi.eus/webkpe00-kperoc/es/ac71aBusquedaRegistrosWar/empresa/05903",
      "_links": {
        "self": {
          "name": "SONIA SANZ DÍEZ",
          "href": "https://api.euskadi.eus/procurements/companies/05903"
        }
      }
    },
    {
      "name": "ALCON CUSÍ, S.A.",
      "registrationNumber": "01958",
      "identificationNumber": "A08079634",
      "address": "C/ GRAN VÍA DE LES CORTS CATALANES, 764",
      "location": {
        "postalCode": "08013",
        "municipality": "Barcelona",
        "county": "Barcelona",
        "municipalityId": "019",
        "countyId": "08"
      },
      "economicActivities": [
        {
          "id": "1.254.2",
          "name": "Fabricación de especialidades y otros productos farmacéuticos",
          "_links": {
            "self": {
              "name": "Fabricación de especialidades y otros productos farmacéuticos",
              "href": "https://api.euskadi.eus/procurements/companies/economic-activities/1.254.2"
            }
          }
        },
        {
          "id": "1.619.2",
          "name": "Venta al por mayor de aparatos e instrumentos médicos, ortopédicos, ópticos",
          "_links": {
            "self": {
              "name": "Venta al por mayor de aparatos e instrumentos médicos, ortopédicos, ópticos",
              "href": "https://api.euskadi.eus/procurements/companies/economic-activities/1.619.2"
            }
          }
        }
      ],
      "certificateStartDate": "2018-10-24",
      "certificateEndDate": "2019-04-23",
      "object": "LA FABRICACIÓN, DISTRIBUCIÓN Y VENTA DE PRODUCTOS QUÍMICOS Y ESPECIALIDADES FARMACÉUTICAS Y PARAFARMACÉUTICAS",
      "mainEntityOfPage": "https://www.contratacion.euskadi.eus/webkpe00-kperoc/es/ac71aBusquedaRegistrosWar/empresa/01958",
      "_links": {
        "self": {
          "name": "ALCON CUSÍ, S.A.",
          "href": "https://api.euskadi.eus/procurements/companies/01958"
        }
      }
    },
    {
      "name": "LACERA SERVICIOS Y MANTENIMIENTO, S.A.",
      "registrationNumber": "04876",
      "identificationNumber": "A33123498",
      "address": "C/ VICTOR SAENZ, 23",
      "location": {
        "postalCode": "33006",
        "municipality": "Oviedo",
        "county": "Asturias",
        "municipalityId": "044",
        "countyId": "33"
      },
      "economicActivities": [
        {
          "id": "1.501.3",
          "name": "Albañilería y pequeños trabajos de construcción en general",
          "_links": {
            "self": {
              "name": "Albañilería y pequeños trabajos de construcción en general",
              "href": "https://api.euskadi.eus/procurements/companies/economic-activities/1.501.3"
            }
          }
        },
        {
          "id": "1.699",
          "name": "Otras reparaciones n.c.o.p",
          "_links": {
            "self": {
              "name": "Otras reparaciones n.c.o.p",
              "href": "https://api.euskadi.eus/procurements/companies/economic-activities/1.699"
            }
          }
        },
        {
          "id": "1.849.7",
          "name": "Servicios de gestión administrativa",
          "_links": {
            "self": {
              "name": "Servicios de gestión administrativa",
              "href": "https://api.euskadi.eus/procurements/companies/economic-activities/1.849.7"
            }
          }
        },
        {
          "id": "1.849.9",
          "name": "Otros servicios independientes n.c.o.p",
          "_links": {
            "self": {
              "name": "Otros servicios independientes n.c.o.p",
              "href": "https://api.euskadi.eus/procurements/companies/economic-activities/1.849.9"
            }
          }
        },
        {
          "id": "1.921.1",
          "name": "Servicios de limpieza en calles, vías públicas y jardines",
          "_links": {
            "self": {
              "name": "Servicios de limpieza en calles, vías públicas y jardines",
              "href": "https://api.euskadi.eus/procurements/companies/economic-activities/1.921.1"
            }
          }
        },
        {
          "id": "1.921.2",
          "name": "Servicios de recogida de basuras y desechos",
          "_links": {
            "self": {
              "name": "Servicios de recogida de basuras y desechos",
              "href": "https://api.euskadi.eus/procurements/companies/economic-activities/1.921.2"
            }
          }
        },
        {
          "id": "1.921.3",
          "name": "Exterminio de animales dañinos y desinfección",
          "_links": {
            "self": {
              "name": "Exterminio de animales dañinos y desinfección",
              "href": "https://api.euskadi.eus/procurements/companies/economic-activities/1.921.3"
            }
          }
        },
        {
          "id": "1.922",
          "name": "Servicios de limpieza",
          "_links": {
            "self": {
              "name": "Servicios de limpieza",
              "href": "https://api.euskadi.eus/procurements/companies/economic-activities/1.922"
            }
          }
        },
        {
          "id": "1.922.2",
          "name": "Servicios especializados de limpiezas (cristales, chimeneas)",
          "_links": {
            "self": {
              "name": "Servicios especializados de limpiezas (cristales, chimeneas)",
              "href": "https://api.euskadi.eus/procurements/companies/economic-activities/1.922.2"
            }
          }
        },
        {
          "id": "1.933.9",
          "name": "Otras actividades de enseñanza tales como idiomas, mecanografía",
          "_links": {
            "self": {
              "name": "Otras actividades de enseñanza tales como idiomas, mecanografía",
              "href": "https://api.euskadi.eus/procurements/companies/economic-activities/1.933.9"
            }
          }
        },
        {
          "id": "1.952",
          "name": "Asistencia y servicios sociales en centros no residenciales",
          "_links": {
            "self": {
              "name": "Asistencia y servicios sociales en centros no residenciales",
              "href": "https://api.euskadi.eus/procurements/companies/economic-activities/1.952"
            }
          }
        }
      ],
      "certificateStartDate": "2018-10-23",
      "certificateEndDate": "2019-04-09",
      "object": "1. LA REALIZACIÓN DE SERVICIOS DE LIMPIEZA, DESINFECCIÓN, DESINSECTACIÓN, DESRATIZACIÓN DE EDIFICIOS Y LOCALES, INDUSTRIAS, FÁBRICAS, HOSPITALES, ESPACIOS NATURALES, VIAS, JARDINES O ZONAS VERDES DE TODO TIPO, FACHADAS, CONDUCCIONES SUBTERRÁNEAS E INDUSTRIALES, VEHÍCULOS, BUQUES Y AERONAVES. 2. LA PROMOCIÓN, COMPRAVENTA, ARRENDAMIENTO, MANTENIMIENTO Y COMERCIALIZACIÓN DE MAQUINARIA INDUSTRIAL DE LIMPIEZA, PRODUCTOS HIGIÉNICO-SANITARIOS, CONTENEDORES BIOLÓGICOS, EQUIPOS Y MATERIAL DE LIMPIEZA. 3. LA RECOGIDA, TRANSPORTE Y GESTIÓN DE RESIDUOS URBANOS, INDUSTRIALES O CLÍNICOS, SÓLIDOS Y LÍQUIDOS, TÓXICOS, BIOLÓGICOS O ANÁLOGOS. 4. EL TRATAMIENTO Y CONSERVACIÓN DE EDIFICIOS, INMUEBLES, VÍAS PÚBLICAS, INSTALACIONES INDUSTRIALES, JARDINES, ZONAS VERDES, ESPACIOS NATURALES, PISCINAS Y OTRAS INSTALACIONES DEPORTIVAS, CONDUCCIONES INDUSTRIALES, MOBILIARIO, MAQUINARIA, ÚTILES Y HERRAMIENTAS INCLUÍDAS LAS SIGUIENTES ACTIVIDADES: ALBAÑILERÍA, ELECTRICIDAD, CARPINTERÍA, GAS, FONTANERÍA, RECDES DE SUMINISTROS, ACRISTALAMIENTO, PINTURA, ELEVADORES, CALEFACCIÓN, CLIMATIZACIÓN, AGUA CALIENTE SANITARIA (ACS), INSTALACIÓN Y MANTENIMIENTO DE SISTEMAS DE PROTECCIÓN CONTRA INCENDIOS, SIEGA, PODA, RIEGO, TRATAMIENTO FITOSANITARIO Y PLANTACIONES. 5. ELABORACIÓN DE PROYECTOS Y EJECUCIÓN DE OBRAS DE EDIFICACIÓN, REHABILITACIÓN Y REFORMAS, INCLUYENDO DEMOLICIONES, EXCAVACIONES, ESTRUCTURA DE HORMIGÓN O METÁLICAS, ALBAÑILERÍA, REVOCOS Y REVESTIMIENTOS, CARPÌNTERÍA Y MARMOLERÍA, FONTANERÍA, INSTALACIONES DE GAS, INSTALACIONES ELÉCYTRICAS, INSTALACIONES DE CLIMATIZACOIÓN, PAVIMENTOS, SOLADOS O ALICATADOS, ALCANTARILLADO, AISLAMIENTOS E IMPERMEABILIZACIONES, CARPINTERÍA METÁLICA Y DE MADERA, PINTURAS, MECANIZACIONES,ALUMBRADOS, BALIZAMIENTOS, ANTENAS Y EMERGENICIAS. 6. ELABORACIÓN DE PROYECTOS Y EJECUCIÓN DE OBRAS VIALES, PISTAS, CARRETERAS, CAMINOS, PASEOS, CANALIACIONES, ACERAS, ZONAS DE JUEGOS INFANTILES, JARDINES, BOSQUES, ACONDICIONAMIENTOS, MEDIO AMBIENTALES Y REPARACIÓN DE SUELOS. 7. EXPLOTACIÓN DE INDUSTRIAS DE HOSTELERÍA, COMEDORES COLECTIVOS Y OTRAS ACTIVIDADES RESTAURADORAS. 8. LA PRESTACIÓN DE OTROS SERVICIOS AUXILIARES, TALES COMO CONSERJERÍA, SERVICIO DE CAJA, EN EDIFICIOS, ECONOMATOS, ALMACENES, COMERCIOS, RECINTOS DEPORTIVOS, ESPACIOS NATURALES, INSTALACIONES PÚBLICAS O PRIVADAS, REALIZANDO TAREAS AFINES AL MANTENIMIENTO INTEGRAL, ATENCIÓN, INFORMACIÓN Y ORIENTACIÓN A USUARIOS, APERTURA Y CIERRE, ATENCIÓN Y MANTENIMIENTO DE CALDERAS Y CONDUCCIONES DE SUMOINISTROS, ORGANIZACIÓN DE SERVICIOS DE ALMACENES, COMERCIOS Y DEPÓSITOS; ASISTENCIA A DOMICILIO DE ANCIANOS, ENFERMOS, MINUSVÁLIDOS Y OTROS COLECTIVOS",
      "mainEntityOfPage": "https://www.contratacion.euskadi.eus/webkpe00-kperoc/es/ac71aBusquedaRegistrosWar/empresa/04876",
      "_links": {
        "self": {
          "name": "LACERA SERVICIOS Y MANTENIMIENTO, S.A.",
          "href": "https://api.euskadi.eus/procurements/companies/04876"
        }
      }
    },
    {
      "name": "MIREN KARMELE BARCENA BARRENETXEA",
      "registrationNumber": "05897",
      "identificationNumber": "11904236B",
      "address": "NAGUSIA, 13 5  B",
      "location": {
        "postalCode": "48970",
        "municipality": "Basauri",
        "county": "Bizkaia",
        "municipalityId": "015",
        "countyId": "48"
      },
      "economicActivities": [
        {
          "id": "2.771",
          "name": "Agentes cobradores de facturas, efectos comerciale, de préstamos",
          "_links": {
            "self": {
              "name": "Agentes cobradores de facturas, efectos comerciale, de préstamos",
              "href": "https://api.euskadi.eus/procurements/companies/economic-activities/2.771"
            }
          }
        }
      ],
      "certificateStartDate": "2018-10-23",
      "certificateEndDate": "2019-01-06",
      "object": "AGENTE COBRADOR DE FACTURAS DE AMBITO MUNICIPAL",
      "mainEntityOfPage": "https://www.contratacion.euskadi.eus/webkpe00-kperoc/es/ac71aBusquedaRegistrosWar/empresa/05897",
      "_links": {
        "self": {
          "name": "MIREN KARMELE BARCENA BARRENETXEA",
          "href": "https://api.euskadi.eus/procurements/companies/05897"
        }
      }
    },
    {
      "name": "AETHELWYNE, SL",
      "registrationNumber": "05900",
      "identificationNumber": "B71066377",
      "address": "Calle Fueros, 4, 1A",
      "location": {
        "postalCode": "31580",
        "municipality": "Lodosa",
        "county": "Navarra",
        "municipalityId": "157",
        "countyId": "31"
      },
      "economicActivities": [
        {
          "id": "1.847",
          "name": "Servicios de consultoría",
          "_links": {
            "self": {
              "name": "Servicios de consultoría",
              "href": "https://api.euskadi.eus/procurements/companies/economic-activities/1.847"
            }
          }
        },
        {
          "id": "1.849.5",
          "name": "Servicios de recadería y reparto y manipulación de correspondencia",
          "_links": {
            "self": {
              "name": "Servicios de recadería y reparto y manipulación de correspondencia",
              "href": "https://api.euskadi.eus/procurements/companies/economic-activities/1.849.5"
            }
          }
        }
      ],
      "certificateStartDate": "2018-10-23",
      "certificateEndDate": "2019-01-05",
      "object": "LA REALIZACIÓN DE  SERVICIOS Y TRABAJOS DE CONSULTORÍAS EN EL CAMPO DE LA DIRECCIÓN Y GESTIÓN DE EMPRESAS, PÚBLICAS O PRIVADAS, EN CUALQUIERA DE SUS ÁREAS O ACTIVIDADES; ASIMISMO LA REALIZACIÓN DE ESTUDIOS MACRO Y MICRO ECONÓMICOS TANTO PARA EMPRESAS, SECTORES O AGRUPACIONES EMPRESARIALES, COMO PARA ENTIDADES DEL SECTOR PÚBLICO, YA SEA ESTE DE LA ADMINISTRACIÓN DEL ESTADO, CORPORACIONES LOCALES, COMUNIDADES AUTÓNOMAS, COMUNIDADES EUROPEAS O CUALQUIERA OTROS ORGANISMOS. PROMOCIÓN Y DESARROLLO DE EMPRESAS COMERCIALES, INDUSTRIALES Y DE SERVICIOS. REALIZACIÓN DE SERVICIOS Y TRABAJOS DE INFORMÁTICA A TERCEROS. DESEMPEÑO DE ACTIVIDADES DE REPRESENTACIÓN, MEDIACIÓN, PROMOCIÓN Y GESTIÓN. ORGANIZACIÓN DE CURSOS, INFORMES Y ESTUDIOS DE CARÁCTER JURÍDICO Y MÉDICO. LA COMPRA, FABRICACIÓN, VENTA, IMPORTACIÓN Y EXPORTACIÓN, COMERCIO AL POR MAYOR Y MENOR SUMINISTRO, MANTENIMIENTO Y ALMACENAJE DE PRODUCTOS PARAFARMACÉUTICOS Y COSMÉTICOS. INTERMEDIACIÓN EN LA PRESTACIÓN DE SERVICIOS SANITARIOS. PRESTACIÓN DE SERVICIO DE TRANSPORTE DE PERSONAS Y MERCANCÍAS. 9) CONSTRUCCIÓN Y REPARACIÓN DE TODO TIPO DE MOBILIARIO. 10 CONSTRUCCIÓN DE TODO TIPO DE INSTALACIONES ELÉCTRICAS Y DE COMUNICACIONES",
      "mainEntityOfPage": "https://www.contratacion.euskadi.eus/webkpe00-kperoc/es/ac71aBusquedaRegistrosWar/empresa/05900",
      "_links": {
        "self": {
          "name": "AETHELWYNE, SL",
          "href": "https://api.euskadi.eus/procurements/companies/05900"
        }
      }
    },
    {
      "name": "INNOVACIÓN Y COORDINACIÓN EN ESTRATEGIAS FORMATIVAS, S.L.",
      "registrationNumber": "05901",
      "identificationNumber": "B75071613",
      "address": "C/ Juan Fermin Gilisagasti nº 2 - 1º Of.114",
      "location": {
        "postalCode": "20018",
        "municipality": "Donostia / San Sebastián",
        "county": "Gipuzkoa",
        "municipalityId": "069",
        "countyId": "20"
      },
      "economicActivities": [
        {
          "id": "1.932.1",
          "name": "Enseñanza de formación y perfeccionamiento profesional no superior",
          "_links": {
            "self": {
              "name": "Enseñanza de formación y perfeccionamiento profesional no superior",
              "href": "https://api.euskadi.eus/procurements/companies/economic-activities/1.932.1"
            }
          }
        }
      ],
      "certificateStartDate": "2018-10-23",
      "certificateEndDate": "2018-12-27",
      "object": "LA FORMACIÓN Y EDUCACIÓN REGLADA Y NO REGLADA, EN LAS MODALIDADES PRESENCIAL, A DISTANCIA, TELEFORMACIÓN Y MIXTA. EDICIÓN DE LIBROS, REVISTAS Y MATERIAL DIDÁCTICO EN GENERAL EN CUALQUIER SOPORTE O MEDIO, ASÍ COMO SU VENTA O EXPLOTACIÓN. EL ESTUDIO, DISEÑO, DESARROLLO, IMPLEMENTACIÓN Y COMERCIALIZACIÓN DE SOFTWARE. LA COMPRAVENTA Y EXPLOTACIÓN POR CUALQUIER TÍTULO, DE PATENTES, MARCAS Y CUALESQUIERA OTRAS MANIFESTACIONES DE LA PROPIEDAD INDUSTRIAL. LA PRESTACIÓN Y ASISTENCIA DE ASESORAMIENTO JURÍDICO, TÉCNICO, FINANCIERO Y ECONÓMICO A TODA CLASE DE PERSONAS Y ENTIDADES. EL EJERCICIO DE CUALQUIER TIPO DE ACTIVIDAD A TRAVÉS DEL TELETRABAJO. EL COMERCIO ELECTRÓNICO. LA PRESTACIÓN DE SERVICIOS DE MARKETING Y COMUNICACIÓN",
      "mainEntityOfPage": "https://www.contratacion.euskadi.eus/webkpe00-kperoc/es/ac71aBusquedaRegistrosWar/empresa/05901",
      "_links": {
        "self": {
          "name": "INNOVACIÓN Y COORDINACIÓN EN ESTRATEGIAS FORMATIVAS, S.L.",
          "href": "https://api.euskadi.eus/procurements/companies/05901"
        }
      }
    }
  ]
}