{
  "totalItems": 9042,
  "totalPages": 905,
  "currentPage": 454,
  "itemsOfPage": 10,
  "items": [
    {
      "name": "VIETNAM ESTUDIO, S.L.",
      "registrationNumber": "08862",
      "identificationNumber": "B86624467",
      "address": "Ronda de Segovia 4, 4a",
      "location": {
        "postalCode": "28005",
        "municipality": "Madrid",
        "county": "Madrid",
        "municipalityId": "079",
        "countyId": "28"
      },
      "economicActivities": [
        {
          "id": "1.844",
          "name": "Servicios de publicidad, relaciones públicas y similares",
          "_links": {
            "self": {
              "name": "Servicios de publicidad, relaciones públicas y similares",
              "href": "https://api.euskadi.eus/procurements/companies/economic-activities/1.844"
            }
          }
        },
        {
          "id": "1.849.9",
          "name": "Otros servicios independientes n.c.o.p",
          "_links": {
            "self": {
              "name": "Otros servicios independientes n.c.o.p",
              "href": "https://api.euskadi.eus/procurements/companies/economic-activities/1.849.9"
            }
          }
        },
        {
          "id": "1.964.2",
          "name": "Servicios de televisión",
          "_links": {
            "self": {
              "name": "Servicios de televisión",
              "href": "https://api.euskadi.eus/procurements/companies/economic-activities/1.964.2"
            }
          }
        }
      ],
      "certificateStartDate": "2023-07-23",
      "certificateEndDate": "2024-01-23",
      "object": "LA PRESTACIÓN DE TODO TIPO DE SERVICIOS RELACIONADOS CON LA COMUNICACIÓN, TANTO ESCRITA COMO AUDIOVISUAL, EL MARKETING, LA PUBLICIDAD, LA CREACIÓN DE PÁGINAS WEB, DESARROLLO DE APLICACIONES PARA TELEFONÍA MÓVIL Y MATERIAS AFINES, LA PROGRAMACIÓN INFORMÁTICA Y LA ENSEÑANZA. LA PRODUCCIÓN, DISTRIBUCIÓN, EXHIBICIÓN Y COMERCIALIZACIÓN DE TODA CLASE DE PRODUCCIONES Y REALIZACIONES AUDIOVISUALES EN SU SENTIDO MÁS AMPLIO. LA PRODUCCIÓN DE PROGRAMAS DE TELEVISIÓN EN SU GAMA MÁS AMPLIA Y LA SUSCRIPCIÓN DE CONTRATOS DE MERCHANDISING Y CONTRATOS ANÁLOGOS O SIMILARES A ESTA ACTIVIDAD. LA EXPLOTACIÓN DE ESTUDIOS DE PRODUCCIÓN Y DOBLAJE, DE LABORATORIOS VINCULADOS A LAS ACTIVIDADES AUDIOVISUALES Y SALAS DE PROYECCIÓN. LA ADQUISICIÓN DE TODO TIPO DE DERECHOS INTELECTUALES, COMERCIALES O INDUSTRIALES, TANTO DE OBRAS PREEXISTENTES COMO DE NUEVA CREACIÓN. ESTA ADQUISICIÓN PODRÁ REFERIRSE A DERECHOS DE EXPLOTACIÓN EN GENERAL, INCLUYENDO ENTRE OTROS LA SINCRONIZACIÓN, TRANSFORMACIÓN, REPRODUCCIÓN, DISTRIBUCIÓN Y COMUNICACIÓN PÚBLICA. PROMOCIÓN, ORGANIZACIÓN, PRODUCCIÓN Y EXHIBICIÓN DE ESPECTÁCULOS ARTÍSTICOS Y MUSICALES, TANTO EN EXPLOTACIÓN DIRECTA COMO CONCESIÓN ADMINISTRATIVA DE CUALQUIER NATURALEZA, ASÍ COMO LA EXPLOTACIÓN DE SALAS DE JUVENTUD Y DISCOTECA. LA REPRESENTACIÓN ARTÍSTICA DE MÚSICOS, CANTANTES, INSTRUMENTALISTAS, GRUPOS MUSICALES, CÓMICOS, ACTORES, ACTRICES, DIRECTORES, TEATRO, CINE, RADIO, TELEVISIÓN, CIRCO, VARIEDADES Y FOLKLORE, PROFESORES Y COMPOSITORES DE MÚSICA, BAILARINES, YA SEAN PERSONA FÍSICAS O JURÍDICAS. LA PROMOCIÓN, MERCHANDISING O IMAGEN DE LOS PROFESIONALES DEL ESPECTÁCULO ANTES REFERIDOS. GRABACIONES Y REGISTROS SONOROS, DESTINADOS A SU REPRODUCCIÓN Y PUBLICACIÓN POR CUANTOS PROCEDIMIENTOS SONOROS EXISTAN EN LA ACTUALIDAD O PUEDAN EXISTIR EN EL FUTURO, TALES COMO DISCO FONOGRÁFICOS, MUSICASSETTES, COMPACT DISC, O CUALQUIER OTRO SISTEMA DE REPRODUCCIÓN, ASÍ COMO CUALQUIER OTRO SISTEMA DE ACOPLAMIENTO DE IMAGEN AL SONIDO (SISTEMAS AUDIOVISUALES) TALES COMO VIDEOCOPIAS, VIDEOCASETES, VIDEODISCOS Y OTRO PROCEDIMIENTO SIMILAR DESTINADO A LA VENTA O ALQUILER AL PÚBLICO. LA CREACIÓN Y DIFUSIÓN DE ANUNCIOS O CAMPAÑAS DE INFORMACIÓN PUBLICITARIA, Y EN GENERAL, CUALQUIER SERVICIO INDEPENDIENTE DE PUBLICIDAD. LA CONTRATACIÓN DE PERSONAL ARTÍSTICO O TÉCNICO PARA LLEVAR A CABO TODAS LAS ACTIVIDADES ANTES RESEÑADAS. ANÁLISIS DEL MERCADO Y PROPUESTAS DE ACTUACIÓN EN IMPLANTACIÓN DE ACTIVIDADES Y PRODUCTOS, ASÍ COMO POLÍTICAS DE MARKETING. LAS ARTES GRÁFICAS Y LA PRESTACIÓN DE SERVICIOS DE PUBLICIDAD MEDIANTE ANUNCIOS, CARTELES, RÓTULOS LUMINOSOS O EXPOSITORES. LA ADQUISICIÓN, PARCELACIÓN, URBANIZACIÓN, EXPLOTACIÓN (EXCEPTO EL ARRENDAMIENTO FINANCIERO) Y VENTA DE TERRENOS; PROMOCIÓN, EDIFICACIÓN ADQUISICIÓN Y VENTA DE VIVIENDAS, LOCALES Y EDIFICIOS, Y LA EXPLOTACIÓN EN ARRENDAMIENTO (EXCEPTO EL ARRENDAMIENTO FINANCIERO) DE INMUEBLES, PISOS, LOCALES Y NEGOCIOS. PRESTACIÓN DE SERVICIOS DE RESTAURACIÓN.",
      "mainEntityOfPage": "https://www.contratacion.euskadi.eus/webkpe00-kperoc/es/ac71aBusquedaRegistrosWar/empresa/08862",
      "_links": {
        "self": {
          "name": "VIETNAM ESTUDIO, S.L.",
          "href": "https://api.euskadi.eus/procurements/companies/08862"
        }
      }
    },
    {
      "name": "SOLVINBCN 2017, S. L.",
      "registrationNumber": "06080",
      "identificationNumber": "B66919382",
      "address": "CALLE CORDOBA, 42 BAJOS",
      "location": {
        "postalCode": "08226",
        "municipality": "Terrassa",
        "county": "Barcelona",
        "municipalityId": "279",
        "countyId": "08"
      },
      "economicActivities": [
        {
          "id": "1.482.2",
          "name": "Fabricación de artículos acabados de materias plásticas",
          "_links": {
            "self": {
              "name": "Fabricación de artículos acabados de materias plásticas",
              "href": "https://api.euskadi.eus/procurements/companies/economic-activities/1.482.2"
            }
          }
        }
      ],
      "certificateStartDate": "2023-07-23",
      "certificateEndDate": "2024-01-23",
      "object": "EL COMERCIO AL MAYOR Y AL MENOR DE ARTÍCULOS DE MENAJE, FERRETERÍA, ADORNO, REGALO O RECLAMO; LA REPARACIÓN DE MAQUINARIA INDUSTRIAL; Y EL COMERCIO AL MAYOR Y AL MENOR DE MATERIAL DE ENVASE Y EMBALAJE",
      "mainEntityOfPage": "https://www.contratacion.euskadi.eus/webkpe00-kperoc/es/ac71aBusquedaRegistrosWar/empresa/06080",
      "_links": {
        "self": {
          "name": "SOLVINBCN 2017, S. L.",
          "href": "https://api.euskadi.eus/procurements/companies/06080"
        }
      }
    },
    {
      "name": "CLEMAR GENERACION SL",
      "registrationNumber": "07904",
      "identificationNumber": "B87627428",
      "address": "C/ DUERO, 18",
      "location": {
        "postalCode": "28840",
        "municipality": "Mejorada del Campo",
        "county": "Madrid",
        "municipalityId": "084",
        "countyId": "28"
      },
      "economicActivities": [
        {
          "id": "1.315.1",
          "name": "Construcción de grandes calderas",
          "_links": {
            "self": {
              "name": "Construcción de grandes calderas",
              "href": "https://api.euskadi.eus/procurements/companies/economic-activities/1.315.1"
            }
          }
        },
        {
          "id": "1.692",
          "name": "Reparación de maquinaria industrial",
          "_links": {
            "self": {
              "name": "Reparación de maquinaria industrial",
              "href": "https://api.euskadi.eus/procurements/companies/economic-activities/1.692"
            }
          }
        }
      ],
      "certificateStartDate": "2023-07-23",
      "certificateEndDate": "2024-01-23",
      "object": "A) EL DISEÑO Y FABRICACIÓN DE CALDERAS DE AGUA CALIENTE Y VAPOR Y RECICPIENTES A PRESIÓN. B) EL MANTENIMIENTO Y PUESTA EN MARCHA DE CALDERAS. C) EXPLOTACIONES CINEGÉTICAS Y APROVECHAMIENTOS FORESTALES. D) LA REALIZACIÓN DE INSTALACIONES, MONTAJES Y REPARACIONES ELÉCTRICAS Y LA COMERCIALIZACIÓN DE ÚTILES, ACCESORIOS, ELEMENTOS Y MATERIALES ELÉCTRICOS. E) LA REPARACIÓN, INSTALACIÓN, CONSERVACIÓN Y MANTENIMIENTO DE APARATOS DE AIRE ACONDICIONADOS, REFRIGERACIÓN, FRÍO INDUSTRIAL, CALEFACCIÓN Y GAS, SU INSTALACIÓN, REFORMA Y MANTENIMIENTO ASÍ COMO CUALQUIER OTRA ACTIVIDAD RELACIONADA DIRECTA O INDIRECTAMENTE CON LAS PRINCIPALES",
      "mainEntityOfPage": "https://www.contratacion.euskadi.eus/webkpe00-kperoc/es/ac71aBusquedaRegistrosWar/empresa/07904",
      "_links": {
        "self": {
          "name": "CLEMAR GENERACION SL",
          "href": "https://api.euskadi.eus/procurements/companies/07904"
        }
      }
    },
    {
      "name": "PHS SERKONTEN, S.A.",
      "registrationNumber": "07258",
      "identificationNumber": "A48148647",
      "address": "CALLE RIBERA DE ELORRIETA Nº 7",
      "location": {
        "postalCode": "48015",
        "municipality": "Bilbao",
        "county": "Bizkaia",
        "municipalityId": "020",
        "countyId": "48"
      },
      "economicActivities": [
        {
          "id": "1.856.1",
          "name": "Alquiler de bienes de consumo",
          "_links": {
            "self": {
              "name": "Alquiler de bienes de consumo",
              "href": "https://api.euskadi.eus/procurements/companies/economic-activities/1.856.1"
            }
          }
        },
        {
          "id": "1.921.2",
          "name": "Servicios de recogida de basuras y desechos",
          "_links": {
            "self": {
              "name": "Servicios de recogida de basuras y desechos",
              "href": "https://api.euskadi.eus/procurements/companies/economic-activities/1.921.2"
            }
          }
        },
        {
          "id": "1.921.3",
          "name": "Exterminio de animales dañinos y desinfección",
          "_links": {
            "self": {
              "name": "Exterminio de animales dañinos y desinfección",
              "href": "https://api.euskadi.eus/procurements/companies/economic-activities/1.921.3"
            }
          }
        }
      ],
      "certificateStartDate": "2023-07-19",
      "certificateEndDate": "2024-01-17",
      "object": "A)  LA EJECUCIÓN DE TODA CLASE DE  SERVICIOS    DE LIMPIEZA,  DESINFECCIÓN, DESINSECTACIÓN,  DESRATIZACIÓN -  CONTROL DE PLAGAS-,  TRATAMIENTOS  DE CONTROL Y PREVENCIÓN DE LEGIONELLA, EN EDIFICIOS DE TODA CLASE DE VIVIENDAS, HOSPITALES, CENTROS D ENSEÑANZA, INDUSTRIAS, ESTABLECIMIENTOS DE HOSTELERÍA, COMERCIOS, OFICINAS, BUQUES, AERONAVES, TRENES CON APORTACIÓN  DE MANO DE OBRA  E INCLUSO  CON LA INSTALACIÓN   DE APARATOS HIGIÉNICOS O DISPENSADORES. B) LA  GESTIÓN DE TODO TIPO  DE   RESIDUOS, SU RECOGIDA,  ALMACENAMIENTO, TRANSPORTE, TRATAMIENTO, INERTIZACIÓN, DESINFECCIÓN  Y ELIMINACIÓN  CONTROLADA DE LOS MISMOS Y, LA RECUPERACIÓN DE SUELOS CONTAMINADOS. C)LA COMPRA, FABRICACIÓN, IMPORTACIÓN, EXPORTACIÓN, DISTRIBUCIÓN, VENTA O ALQUILER, ASÍ COMO LA INSTALACIÓN, MANTENIMIENTO Y LIMPIEZA DE ARTÍCULOS SANITARIOS, HIGIÉNICOS Y DE LIMPIEZA PARA HOGARES, OFICINAS, COMERCIOS, ESTABLECIMIENTOS DE HOSTELERÍA, INDUSTRIAS Y CUALQUIER MEDIO DE TRANSPORTE. D) REALIZACIÓN DE INSTALACIONES COMPLETAS, O NO DE FONTANERÍA O CLIMATIZACIÓN, ASÍ COMO SU MANTENIMIENTO, REPARACIÓN, CONSERVACIÓN O MODIFICACIÓN. E) CONCLUSIÓN, EJECUCIÓN Y MANTENIMIENTO DE TODO TIPO DE OBRAS DE CARÁCTER PÚBLICO O PRIVADO, INCLUYENDO LA REALIZACIÓN DE LAS REFORMAS. F) CONSERVACIÓN, MANTENIMIENTO Y LIMPIEZA DE VÍAS PÚBLICAS, PARQUES, JARDINES, PLAYAS, RÍOS Y MONTES. G) REALIZACIÓN DE INSTALACIONES ELÉCTRICAS COMPLETAS, O NO DE FONTANERÍA O CLIMATIZACIÓN, ASÍ COMO SU MANTENIMIENTO, REPARACIÓN, CONSERVACIÓN O MODIFICACIÓN. H) LA COMPRA, FABRICACIÓN, IMPORTACIÓN, EXPORTACIÓN, DISTRIBUCIÓN, VENTA O ALQUILER DE ALFOMBRAS, MOQUETAS, TEJIDOS IMPREGNADOS, ENDURECIDOS O RECUBIERTOS EN MATERIAS PLÁSTICAS U OTRO TIPO DE TEJIDOS, ASÍ COMO LA ESTAMPACIÓN DE TEXTILES. I) FABRICACIÓN, REPARACIÓN, IMPORTACIÓN, EXPORTACIÓN, ALQUILER O VENTA Y MANTENIMIENTO DE TODO TIPO DE MÁQUINAS PURIFICADORAS DE AIRE O AGUA. J) GENERACIÓN Y DISTRIBUCIÓN Y COMERCIO DE ENERGÍA ELÉCTRICA PRODUCIDA A TRAVÉS DE PANELES SOLARES, MOLINOS EÓLICOS O CUALQUIER OTRO MEDIO. K) LA COMPRA, IMPORTACIÓN, EXPORTACIÓN, DISTRIBUCIÓN, VENTA O ALQUILER, DE VESTUARIOS LABORAL Y EQUIPOS DE PROTECCIÓN INDIVIDUAL O COLECTIVA. L) LA REALIZACIÓN DE TODO TIPO DE SERVICIOS Y TRABAJOS DE LAVANDERÍA, TINTORERÍA Y LIMPIEZA EN SECO, TANTO AL DETALLE COMO INDUSTRIAL. M) DISEÑO, REALIZACIÓN DE PROYECTOS DESARROLLO, FABRICACIÓN IMPORTACIÓN, EXPORTACIÓN, DISTRIBUCIÓN, VENTA, REPARACIÓN Y EXPLOTACIÓN DE TODA CLASE DE DOSIFICADORES, DISPENSADORES Y APARATOS MECÁNICOS O MANUALES O ELÉCTRICOS O ELECTRÓNICOS, ACCESORIOS PARA LA HIGIENE, SANIDAD, LIMPIEZA E INDUSTRIA EN GENERAL. N) FABRICACIÓN, IMPORTACIÓN, EXPORTACIÓN, DISTRIBUCIÓN Y VENTA DE TODA CLASE DE PRODUCTOS QUÍMICOS, FORMULACIONES, DESINFECTANTES, BACTERICIDAS, AMBIENTADORES, JABONES, DETERGENTES, AROMAS, ESENCIAS, RELACIONADAS CON LA LIMPIEZA, DESINFECCIÓN, DESINSECTACIÓN E HIGIENE EN GENERAL. Ñ) FABRICACIÓN, IMPORTACIÓN, EXPORTACIÓN, DISTRIBUCIÓN Y VENTA DE ENVASES, PLACAS, HOJAS TUBOS Y VÁLVULAS, PRECISOS, PARA LOS SERVICIOS Y PRODUCTOS QUE PUEDA COMERCIALIZAR LA EMPRESA. O) FABRICACIÓN, IMPORTACIÓN, EXPORTACIÓN, DISTRIBUCIÓN Y VENTA DE ARTÍCULOS FORJADOS, ESTAMPADOS, EMBUTIDOS, INYECTADOS, SOPLADOS, MOLDEADOS, ETC., PRECISOS PARA LOS SERVICIOS Y PRODUCTOS QUE PUEDA COMERCIALIZAR LA EMPRESA. P) TRANSPORTE DE TODO TIPO DE MERCANCÍAS Y PERSONAS POR CARRETERA. Q) DESARROLLO VENTA Y MANTENIMIENTO DE SOFTWARE INFORMÁTICO ESPECÍFICO PARA LOS PRODUCTOS Y/O SERVICIOS QUE SE COMERCIALICEN O NO. R) FABRICACIÓN, COMPRA Y VENTA DE HARDWARE Y COMPONENTES INFORMÁTICOS ELECTRÓNICOS. S) ACTIVIDADES DE ASESORAMIENTO EN DIRECCIÓN Y GESTIÓN EMPRESARIAL. T) LA REPRESENTACIÓN Y DELEGACIÓN DE FIRMAS NACIONALES O EXTRANJERAS, SIEMPRE DE CONFORMIDAD CON LA LEGISLACIÓN VIGENTE. U) LA ADQUISICIÓN Y ENAJENACIÓN O ALQUILER DE BIENES INMUEBLES. V) LA ADQUISICIÓN, TENENCIA, DISFRUTE Y ENAJENACIÓN DE TODA CLASE DE VALORES ACTIVOS INMOBILIARIOS EN NOMBRE Y POR CUENTA DE LA SOCIEDAD. W) LA COMPRA Y VENTA Y EXPLOTACIÓN DE PATENTES, MARCAS Y MODELOS, SERVICIOS Y DERECHOS, TENGAN RELACIÓN O NO CON LAS ACTIVIDADES PRINCIPALES",
      "mainEntityOfPage": "https://www.contratacion.euskadi.eus/webkpe00-kperoc/es/ac71aBusquedaRegistrosWar/empresa/07258",
      "_links": {
        "self": {
          "name": "PHS SERKONTEN, S.A.",
          "href": "https://api.euskadi.eus/procurements/companies/07258"
        }
      }
    },
    {
      "name": "HEZI2DE KOOPERATIBA ELKARTE TXIKIA",
      "registrationNumber": "06788",
      "identificationNumber": "F75206375",
      "address": "Pol. Mugitegi C 18 4",
      "location": {
        "postalCode": "20700",
        "municipality": "Urretxu",
        "county": "Gipuzkoa",
        "municipalityId": "077",
        "countyId": "20"
      },
      "economicActivities": [
        {
          "id": "1.849.9",
          "name": "Otros servicios independientes n.c.o.p",
          "_links": {
            "self": {
              "name": "Otros servicios independientes n.c.o.p",
              "href": "https://api.euskadi.eus/procurements/companies/economic-activities/1.849.9"
            }
          }
        }
      ],
      "certificateStartDate": "2023-07-16",
      "certificateEndDate": "2024-01-16",
      "object": "LA CONSULTORÍA, ASESORAMIENTO Y FORMACIÓN EN IGUALDAD",
      "mainEntityOfPage": "https://www.contratacion.euskadi.eus/webkpe00-kperoc/es/ac71aBusquedaRegistrosWar/empresa/06788",
      "_links": {
        "self": {
          "name": "HEZI2DE KOOPERATIBA ELKARTE TXIKIA",
          "href": "https://api.euskadi.eus/procurements/companies/06788"
        }
      }
    },
    {
      "name": "MILMAN SERVICIOS GENERALES, S.L.",
      "registrationNumber": "02055",
      "identificationNumber": "B01195981",
      "address": "C/ BARRACHI, Nº 4.",
      "location": {
        "postalCode": "01013",
        "municipality": "Vitoria-Gasteiz",
        "county": "Araba/Álava",
        "municipalityId": "059",
        "countyId": "01"
      },
      "economicActivities": [
        {
          "id": "1.849.6",
          "name": "Servicios de colocación y suministro de personal",
          "_links": {
            "self": {
              "name": "Servicios de colocación y suministro de personal",
              "href": "https://api.euskadi.eus/procurements/companies/economic-activities/1.849.6"
            }
          }
        }
      ],
      "certificateStartDate": "2023-07-14",
      "certificateEndDate": "2024-01-14",
      "object": "LA PRESTACIÓN DE TODA CLASE DE SERVICIOS GENERALES AUXILIARES, TALES COMO PORTEROS, CONTROLADORES, LIMPIEZA, TRANSPORTE DE PAQUETERÍA, MENSAJERÍA, CHÓFERES, REPARTO DE DOCUMENTACIÓN, RADIO-TAXI Y SERVICIO DE TAQUILLAS",
      "mainEntityOfPage": "https://www.contratacion.euskadi.eus/webkpe00-kperoc/es/ac71aBusquedaRegistrosWar/empresa/02055",
      "_links": {
        "self": {
          "name": "MILMAN SERVICIOS GENERALES, S.L.",
          "href": "https://api.euskadi.eus/procurements/companies/02055"
        }
      }
    },
    {
      "name": "CONSULTORES INDEPENDIENTES EN GESTION DE RECURSOS NATURALES SA",
      "registrationNumber": "09138",
      "identificationNumber": "A81758542",
      "address": "calle cristobal bordiu 35",
      "location": {
        "postalCode": "28003",
        "municipality": "Madrid",
        "county": "Madrid",
        "municipalityId": "079",
        "countyId": "28"
      },
      "economicActivities": [
        {
          "id": "1.843.3",
          "name": "Servicios técnicos de prospecciones y estudios geológicos",
          "_links": {
            "self": {
              "name": "Servicios técnicos de prospecciones y estudios geológicos",
              "href": "https://api.euskadi.eus/procurements/companies/economic-activities/1.843.3"
            }
          }
        }
      ],
      "certificateStartDate": "2023-07-14",
      "certificateEndDate": "2023-12-08",
      "object": "LA REALIZACIÓN DE ESTUDIOS, INVESTIGACIONES, DICTÁMENES, INFORMES Y PROYECTOS EN TODOS LOS TEMAS RELACIONADOS CON LA GEOLOGÍA, GEOFÍSICA, HIDROLOGÍA, HIDROGEOLOGÍA, MINERÍA Y MEDIO AMBIENTE, ASÍ COMO ESTUDIOS Y DICTÁMENES CIENTÍFICOS, EL ASESORAMIENTO DE EMPRESAS, SU GESTIÓN Y REPRESENTACIÓN. LA EXPLORACIÓN, PROSPECCIÓN E INVESTIGACIÓN DE YACIMIENTOS MINERALES Y AGUAS SUBTERRÁNEAS.",
      "mainEntityOfPage": "https://www.contratacion.euskadi.eus/webkpe00-kperoc/es/ac71aBusquedaRegistrosWar/empresa/09138",
      "_links": {
        "self": {
          "name": "CONSULTORES INDEPENDIENTES EN GESTION DE RECURSOS NATURALES SA",
          "href": "https://api.euskadi.eus/procurements/companies/09138"
        }
      }
    },
    {
      "name": "ADRA INGENIERÍA Y GESTIÓN DEL MEDIO, S.L.P.",
      "registrationNumber": "07279",
      "identificationNumber": "B39675863",
      "address": "PARQUE EMPRESARIAL LA ESPRILLA B14",
      "location": {
        "postalCode": "39608",
        "municipality": "Camargo",
        "county": "Cantabria",
        "municipalityId": "016",
        "countyId": "39"
      },
      "economicActivities": [
        {
          "id": "1.699",
          "name": "Otras reparaciones n.c.o.p",
          "_links": {
            "self": {
              "name": "Otras reparaciones n.c.o.p",
              "href": "https://api.euskadi.eus/procurements/companies/economic-activities/1.699"
            }
          }
        },
        {
          "id": "1.843.1",
          "name": "Servicios técnicos de ingeniería",
          "_links": {
            "self": {
              "name": "Servicios técnicos de ingeniería",
              "href": "https://api.euskadi.eus/procurements/companies/economic-activities/1.843.1"
            }
          }
        },
        {
          "id": "1.861.2",
          "name": "Alquiler de locales industriales y otros alquileres n.c.o.p",
          "_links": {
            "self": {
              "name": "Alquiler de locales industriales y otros alquileres n.c.o.p",
              "href": "https://api.euskadi.eus/procurements/companies/economic-activities/1.861.2"
            }
          }
        },
        {
          "id": "1.912",
          "name": "Servicios forestales",
          "_links": {
            "self": {
              "name": "Servicios forestales",
              "href": "https://api.euskadi.eus/procurements/companies/economic-activities/1.912"
            }
          }
        },
        {
          "id": "1.932.1",
          "name": "Enseñanza de formación y perfeccionamiento profesional no superior",
          "_links": {
            "self": {
              "name": "Enseñanza de formación y perfeccionamiento profesional no superior",
              "href": "https://api.euskadi.eus/procurements/companies/economic-activities/1.932.1"
            }
          }
        }
      ],
      "certificateStartDate": "2023-07-13",
      "certificateEndDate": "2024-01-13",
      "object": "EL EJERCICIO EN COMUN DE LAS ACTIVIDADES PROFESIONALES PROPIAS DE INGENIERO DE MONTES Y DE\r\nINGENIERO TECNICO FORESTAL",
      "mainEntityOfPage": "https://www.contratacion.euskadi.eus/webkpe00-kperoc/es/ac71aBusquedaRegistrosWar/empresa/07279",
      "_links": {
        "self": {
          "name": "ADRA INGENIERÍA Y GESTIÓN DEL MEDIO, S.L.P.",
          "href": "https://api.euskadi.eus/procurements/companies/07279"
        }
      }
    },
    {
      "name": "INTEGRAL ARCHITECTURE SYSTEMS, S.L.",
      "registrationNumber": "06531",
      "identificationNumber": "B86163375",
      "address": "CL Peña del Aguila, 32",
      "location": {
        "postalCode": "28035",
        "municipality": "Madrid",
        "county": "Madrid",
        "municipalityId": "079",
        "countyId": "28"
      },
      "economicActivities": [
        {
          "id": "1.501.1",
          "name": "Construcción completa, reparación y conservación de edificaciones",
          "_links": {
            "self": {
              "name": "Construcción completa, reparación y conservación de edificaciones",
              "href": "https://api.euskadi.eus/procurements/companies/economic-activities/1.501.1"
            }
          }
        },
        {
          "id": "1.843.2",
          "name": "Servicios técnicos de arquitectura y urbanismo",
          "_links": {
            "self": {
              "name": "Servicios técnicos de arquitectura y urbanismo",
              "href": "https://api.euskadi.eus/procurements/companies/economic-activities/1.843.2"
            }
          }
        }
      ],
      "certificateStartDate": "2023-07-13",
      "certificateEndDate": "2024-01-13",
      "object": "1) TASACIONES INMOBILIARIAS. 2) ELABORACIÓN DE PROYECTOS DE ARQUITECTURA. 3) LA CONSTRUCCIÓN, EN EL MÁS AMPLIO SENTIDO DE LA ACTIVIDAD, TANTO EN FINCAS PROPIAS DE LA COMPAÑÍA, COMO LA ADQUISICIÓN DE OBRAS POR OTRAS PERSONAS O ENTIDADES, MEDIANTE ADMINISTRACIÓN, CESIÓN DE UNIDADES DE OBRA, SUBCONTRATO O CUALQUIER OTRA FIGURA JURÍDICA. 4) LA CONSTITUCIÓN, GESTIÓN, ADMINISTRACIÓN Y ACTUACIÓN COMPLEMENTARIA PARA LA FORMACIÓN DE COMUNIDADES DE PROPIETARIOS, COMUNIDADES DE BIENES Y CUALQUIER OTRA FIGURA JURÍDICA QUE CONTEMPLE LA AUTOCONSTRUCCIÓN, CONSTRUCCIÓN DIRECTA DE LOS PROPIETARIOS O PROMOCIÓN DE VIVIENDAS, LOCALES, APARCAMIENTO DE VEHÍCULOS, BUNGALOWS Y CUALESQUIERA OTRAS FINCAS. 5) LA DECORACIÓN DEL HOGAR, HOTELES, ESTABLECIMIENTOS MERCANTILES, OFICINAS Y, EN GENERAL, DE CUALESQUIERA EDIFICACIONES",
      "mainEntityOfPage": "https://www.contratacion.euskadi.eus/webkpe00-kperoc/es/ac71aBusquedaRegistrosWar/empresa/06531",
      "_links": {
        "self": {
          "name": "INTEGRAL ARCHITECTURE SYSTEMS, S.L.",
          "href": "https://api.euskadi.eus/procurements/companies/06531"
        }
      }
    },
    {
      "name": "WEROI DIGITAL, S.L.",
      "registrationNumber": "08845",
      "identificationNumber": "B95724647",
      "address": "Parque tecnológico Bizkaia, edif. 103 - 1ª planta, local 7",
      "location": {
        "postalCode": "48170",
        "municipality": "Zamudio",
        "county": "Bizkaia",
        "municipalityId": "905",
        "countyId": "48"
      },
      "economicActivities": [
        {
          "id": "1.845",
          "name": "Explotación electrónica por cuenta de terceros",
          "_links": {
            "self": {
              "name": "Explotación electrónica por cuenta de terceros",
              "href": "https://api.euskadi.eus/procurements/companies/economic-activities/1.845"
            }
          }
        },
        {
          "id": "1.932.2",
          "name": "Enseñanza de formación y perfeccionamiento profesional superior",
          "_links": {
            "self": {
              "name": "Enseñanza de formación y perfeccionamiento profesional superior",
              "href": "https://api.euskadi.eus/procurements/companies/economic-activities/1.932.2"
            }
          }
        }
      ],
      "certificateStartDate": "2023-07-12",
      "certificateEndDate": "2024-01-12",
      "object": "EL DESARROLLO Y LA COMERCIALIZACIÓN DE PRODUCTOS Y LA PRESTACIÓN DE SERVICIOS DE CONSULTORÍA, IMPLEMENTACIÓN Y MANTENIMIENTO, TODO ELLO, EN EL ÁMBITO DE LAS TECNOLOGÍAS MULTIMEDIA.",
      "mainEntityOfPage": "https://www.contratacion.euskadi.eus/webkpe00-kperoc/es/ac71aBusquedaRegistrosWar/empresa/08845",
      "_links": {
        "self": {
          "name": "WEROI DIGITAL, S.L.",
          "href": "https://api.euskadi.eus/procurements/companies/08845"
        }
      }
    }
  ]
}