{
  "totalItems": 9042,
  "totalPages": 905,
  "currentPage": 55,
  "itemsOfPage": 10,
  "items": [
    {
      "name": "AB SCIEX SPAIN, S.L.",
      "registrationNumber": "05870",
      "identificationNumber": "B85792174",
      "address": "C/VALGRANDE, 8, EDIF SOTOHENAR, P. INDUSTRIAL VALPORTILLO",
      "location": {
        "postalCode": "28108",
        "municipality": "Alcobendas",
        "county": "Madrid",
        "municipalityId": "006",
        "countyId": "28"
      },
      "economicActivities": [
        {
          "id": "1.617.9",
          "name": "Venta al por mayor interindustrial de otros productos n.c.o.p",
          "_links": {
            "self": {
              "name": "Venta al por mayor interindustrial de otros productos n.c.o.p",
              "href": "https://api.euskadi.eus/procurements/companies/economic-activities/1.617.9"
            }
          }
        },
        {
          "id": "1.699",
          "name": "Otras reparaciones n.c.o.p",
          "_links": {
            "self": {
              "name": "Otras reparaciones n.c.o.p",
              "href": "https://api.euskadi.eus/procurements/companies/economic-activities/1.699"
            }
          }
        }
      ],
      "certificateStartDate": "2026-01-26",
      "certificateEndDate": "2026-07-14",
      "object": "DESARROLLAR, FABRICAR, COMERCIALIZAR Y VENDER INSTRUMENTACION ANALITICA CONSUMIBLES Y SERVICIOS, ASI COMO PRODUCTOS Y SERVICIOS AFINES",
      "mainEntityOfPage": "https://www.contratacion.euskadi.eus/webkpe00-kperoc/es/ac71aBusquedaRegistrosWar/empresa/05870",
      "_links": {
        "self": {
          "name": "AB SCIEX SPAIN, S.L.",
          "href": "https://api.euskadi.eus/procurements/companies/05870"
        }
      }
    },
    {
      "name": "LA MARKA EVENTS 2000, S.L.",
      "registrationNumber": "09766",
      "identificationNumber": "B70989157",
      "address": "Simón Bolívar 27, D22",
      "location": {
        "postalCode": "48013",
        "municipality": "Bilbao",
        "county": "Bizkaia",
        "municipalityId": "020",
        "countyId": "48"
      },
      "economicActivities": [
        {
          "id": "1.989.2",
          "name": "Servicios de organización de congresos, asambleas y similares",
          "_links": {
            "self": {
              "name": "Servicios de organización de congresos, asambleas y similares",
              "href": "https://api.euskadi.eus/procurements/companies/economic-activities/1.989.2"
            }
          }
        }
      ],
      "certificateStartDate": "2026-01-26",
      "certificateEndDate": "2026-07-14",
      "object": "CNAE 8230: ORGANIZACIÓN DE CONVENCIONES Y FERIAS DE MUESTRAS: ORGANIZACIÓN Y ASESORAMIENTO EN EVENTOS Y CONGRESOS, ACTIVIDADES DEPORTIVAS, EVENTOS MUSICALES, CULTURALES, INAUGURACIONES, ACTOS PUBLICITARIOS, PROTOCOLARIOS, FERIAS, ENTREGAS DE PREMIOS, PRESENTACIONES EN GENERAL Y CUALQUIER ACTO SOCIAL QUE ESTÉ RELACIONADO CON LOS ANTERIORES, TANTO NACIONALES COMO INTERNACIONALES. ASÍ COMO LA GESTIÓN Y CONTRATACIÓN DE STAFF NECESARIO PARA LA REALIZACIÓN DE VENTOS: AZAFATAS, MOZOS, PERSONAL AUXILIAR, ETC. CNAE 1812: OTRAS ACTIVIDADES DE IMPRESIÓN Y ARTES GRÁFICAS: IMPRESIÓN DIGITAL, IMPRESIÓN EN GRAN FORMATO, IMPRESIÓN OFFSET, IMPRESIÓN LÁSER Y OTRAS SOLUCIONES DE IMPRESIÓN, ASÍ COMO TRABAJOS DE GRABADO Y CORTE. DISEÑO GRÁFICO, DIGITAL, MULTIMEDIA Y OTROS. CNAE 7311: AGENCIAS DE PUBLICIDAD: DISEÑO, GESTIÓN Y ASESORAMIENTO EN MATERIA DE PUBLICIDAD. MARKETING Y E-MARKETING, ESTRATEGIAS DE COMUNICACIÓN Y ESTUDIOS RELACIONADOS CON DICHAS CAMPAÑAS. ASÍ COMO LA VENTA DE TODO TIPO DE ARTÍCULOS Y ACCESORIOS OBJETO DE EMPLEAR EN CAMPAÑAS PUBLICITARIAS. CNAE 5915: ACTIVIDADES DE PRODUCCIÓN CINEMATOGRÁFICA Y DE VÍDEO: SERVICIOS AUDIOVISUALES, PRODUCCIÓN Y PARTICIPACIÓN A DIFERENTES NIVELES EN EL DESARROLLO DE DOCUMENTALES, VÍDEOS MUSICALES, CINE, ETC. CNAE 8559: OTRA EDUCACIÓN N.C.O.P.; FORMACIÓN EN MATERIA DE PUBLICIDAD, MARKETING, DISEÑO, PROTOCOLO Y OTRAS MATERIAS RELACIONADAS CON LAS ACTIVIDADES ANTERIORES.",
      "mainEntityOfPage": "https://www.contratacion.euskadi.eus/webkpe00-kperoc/es/ac71aBusquedaRegistrosWar/empresa/09766",
      "_links": {
        "self": {
          "name": "LA MARKA EVENTS 2000, S.L.",
          "href": "https://api.euskadi.eus/procurements/companies/09766"
        }
      }
    },
    {
      "name": "NURIA DIEZ ARGOTE",
      "registrationNumber": "06281",
      "identificationNumber": "18597593T",
      "address": "QUINTANA, 5-6 ºA",
      "location": {
        "postalCode": "48007",
        "municipality": "Bilbao",
        "county": "Bizkaia",
        "municipalityId": "020",
        "countyId": "48"
      },
      "economicActivities": [
        {
          "id": "1.673.2",
          "name": "Otros cafés y bares",
          "_links": {
            "self": {
              "name": "Otros cafés y bares",
              "href": "https://api.euskadi.eus/procurements/companies/economic-activities/1.673.2"
            }
          }
        },
        {
          "id": "1.675.1",
          "name": "SERVICIOS EN QUIOSCOS, CAJONES, BARRACAS, AL AIRE LIBRE EN LA VIA PUBLICA",
          "_links": {
            "self": {
              "name": "SERVICIOS EN QUIOSCOS, CAJONES, BARRACAS, AL AIRE LIBRE EN LA VIA PUBLICA",
              "href": "https://api.euskadi.eus/procurements/companies/economic-activities/1.675.1"
            }
          }
        }
      ],
      "certificateStartDate": "2026-01-26",
      "certificateEndDate": "2026-07-02",
      "object": "LA VENTA AL POR MENOR DE PRODUCTOS ALIMENTICIOS Y BEBIDAS CON VENDEDOR. LA VENTA AL POR MENOR DE PRODUCTOS ALIMENTICIOS FUERA DE ESTABLECIMIENTO COMERCIAL. RESTAURANTE UN TENEDOR Y SERVICIOS DE RESTAURANTE Y CAFETERÍA EN QUIOSCOS, CAJONES, BARRACAS\r\n\r\n",
      "mainEntityOfPage": "https://www.contratacion.euskadi.eus/webkpe00-kperoc/es/ac71aBusquedaRegistrosWar/empresa/06281",
      "_links": {
        "self": {
          "name": "NURIA DIEZ ARGOTE",
          "href": "https://api.euskadi.eus/procurements/companies/06281"
        }
      }
    },
    {
      "name": "SMART STRATEGY FOR COMMUNICATION, S.L.",
      "registrationNumber": "06025",
      "identificationNumber": "B95919171",
      "address": "Iparraguirre 64 1º",
      "location": {
        "postalCode": "48012",
        "municipality": "Bilbao",
        "county": "Bizkaia",
        "municipalityId": "020",
        "countyId": "48"
      },
      "economicActivities": [
        {
          "id": "1.844",
          "name": "Servicios de publicidad, relaciones públicas y similares",
          "_links": {
            "self": {
              "name": "Servicios de publicidad, relaciones públicas y similares",
              "href": "https://api.euskadi.eus/procurements/companies/economic-activities/1.844"
            }
          }
        }
      ],
      "certificateStartDate": "2026-01-26",
      "certificateEndDate": "2026-06-18",
      "object": "EL DESARROLLO DE LAS ACTIVIDADES CORRESPONDIENTES A LOS SIGUIENTES CÓDIGOS Y DESCRIPCIONES DE LA CLASIFICACIÓ NACIONAL DE ACTIVIDADES ECONÓMICAS: ACTIVIDAD PRINCIPAL 7311 AGENCIA DE PUBLICIDAD",
      "mainEntityOfPage": "https://www.contratacion.euskadi.eus/webkpe00-kperoc/es/ac71aBusquedaRegistrosWar/empresa/06025",
      "_links": {
        "self": {
          "name": "SMART STRATEGY FOR COMMUNICATION, S.L.",
          "href": "https://api.euskadi.eus/procurements/companies/06025"
        }
      }
    },
    {
      "name": "INGENIERÍA Y DEMOLICIONES, S.L.",
      "registrationNumber": "02823",
      "identificationNumber": "B48701429",
      "address": "AMEZTI, 12 -2ºB",
      "location": {
        "postalCode": "48991",
        "municipality": "Getxo",
        "county": "Bizkaia",
        "municipalityId": "044",
        "countyId": "48"
      },
      "economicActivities": [
        {
          "id": "1.502.1",
          "name": "Demoliciones y derribos en general",
          "_links": {
            "self": {
              "name": "Demoliciones y derribos en general",
              "href": "https://api.euskadi.eus/procurements/companies/economic-activities/1.502.1"
            }
          }
        },
        {
          "id": "1.843.1",
          "name": "Servicios técnicos de ingeniería",
          "_links": {
            "self": {
              "name": "Servicios técnicos de ingeniería",
              "href": "https://api.euskadi.eus/procurements/companies/economic-activities/1.843.1"
            }
          }
        }
      ],
      "certificateStartDate": "2026-01-23",
      "certificateEndDate": "2026-06-30",
      "object": "LA CONSTRUCCIÓN POR CUENTA PROPIA O AJENA DE TODA CLASE DE INMUEBLES, SU URBANIZACIÓN, PARCELACIÓN Y REPARCELACIÓN; REALIZACIÓN DE TODO TIPO DE ESTUDIO Y TRABAJOS DE INGENIERÍA, ARQUITECTURA Y URBANISMO; Y LA DEMOLICIÓN DE TODA CLASE DE OBRAS, EDIFICIOS E INSTALACIONES",
      "mainEntityOfPage": "https://www.contratacion.euskadi.eus/webkpe00-kperoc/es/ac71aBusquedaRegistrosWar/empresa/02823",
      "_links": {
        "self": {
          "name": "INGENIERÍA Y DEMOLICIONES, S.L.",
          "href": "https://api.euskadi.eus/procurements/companies/02823"
        }
      }
    },
    {
      "name": "EMOCIONA SOLUCIONES CREATIVAS, S.L.L.",
      "registrationNumber": "03802",
      "identificationNumber": "B95299236",
      "address": "C/ RODRIGUEZ ARIAS, 65 - 2º IZDA.",
      "location": {
        "postalCode": "48013",
        "municipality": "Bilbao",
        "county": "Bizkaia",
        "municipalityId": "020",
        "countyId": "48"
      },
      "economicActivities": [
        {
          "id": "1.844",
          "name": "Servicios de publicidad, relaciones públicas y similares",
          "_links": {
            "self": {
              "name": "Servicios de publicidad, relaciones públicas y similares",
              "href": "https://api.euskadi.eus/procurements/companies/economic-activities/1.844"
            }
          }
        }
      ],
      "certificateStartDate": "2026-01-23",
      "certificateEndDate": "2026-05-25",
      "object": "A) LA ELABORACIÓN DE PROYECTOS DE DECORACIÓN, DISEÑO DE INTERIOR Y MICROARQUITECTURA.\r\nB) LA DIRECCIÓN Y EJECUCIÓN DE OBRAS, TANTO VIVIENDAS COMO OFICINAS Y LOCALES COMERCIALES, QUIOSCOS Y STANDS.\r\nC) EL COMERCIO DE BIENES DE EQUIPAMIENTO PARA HOGAR, OFICINA, LOCALES COMERCIALES Y HOSTELERÍA.\r\nD) LA PROMOCIÓN Y VENTA DE INMUEBLES Y EDIFICACIONES, Y CONSTRUCCIONES EN GENERAL.\r\nE) LA AGENCIA DE COMUNICACIÓN INTEGRAL DE SERVICIOS DE PUBLICIDAD Y RELACIONES PÚBLICAS, MARKETING Y ESTUDIOS DE MERCADO, PROMOCIONES Y MECENAZGO, DISEÑO Y ARTES GRÁFICAS.\r\nF) EL COMERCIO AL POR MENOR DE PRODUCTOS PROMOCIONALES",
      "mainEntityOfPage": "https://www.contratacion.euskadi.eus/webkpe00-kperoc/es/ac71aBusquedaRegistrosWar/empresa/03802",
      "_links": {
        "self": {
          "name": "EMOCIONA SOLUCIONES CREATIVAS, S.L.L.",
          "href": "https://api.euskadi.eus/procurements/companies/03802"
        }
      }
    },
    {
      "name": "IZPILAN S. COOP. PEQUEÑA",
      "registrationNumber": "09585",
      "identificationNumber": "F10825131",
      "address": "Carretera Bilbao-Galdakao (48004) 10 mod.8",
      "location": {
        "postalCode": "48004",
        "municipality": "Bilbao",
        "county": "Bizkaia",
        "municipalityId": "020",
        "countyId": "48"
      },
      "economicActivities": [
        {
          "id": "1.504.11",
          "name": "Instalaciones eléctricas en general, redes telegráficas, telefonía, tv, etc",
          "_links": {
            "self": {
              "name": "Instalaciones eléctricas en general, redes telegráficas, telefonía, tv, etc",
              "href": "https://api.euskadi.eus/procurements/companies/economic-activities/1.504.11"
            }
          }
        }
      ],
      "certificateStartDate": "2026-01-23",
      "certificateEndDate": "2026-07-14",
      "object": "LA REALIZACIÓN DE INSTALACIONES ELÉCTRICAS DE BAJA TENSIÓN.",
      "mainEntityOfPage": "https://www.contratacion.euskadi.eus/webkpe00-kperoc/es/ac71aBusquedaRegistrosWar/empresa/09585",
      "_links": {
        "self": {
          "name": "IZPILAN S. COOP. PEQUEÑA",
          "href": "https://api.euskadi.eus/procurements/companies/09585"
        }
      }
    },
    {
      "name": "PUBLIEXPERIENCIAS, S.L.",
      "registrationNumber": "09467",
      "identificationNumber": "B26551564",
      "address": "Albina Balda 9, 2D",
      "location": {
        "postalCode": "26142",
        "municipality": "Villamediana de Iregua",
        "county": "Rioja, La",
        "municipalityId": "168",
        "countyId": "26"
      },
      "economicActivities": [
        {
          "id": "1.845",
          "name": "Explotación electrónica por cuenta de terceros",
          "_links": {
            "self": {
              "name": "Explotación electrónica por cuenta de terceros",
              "href": "https://api.euskadi.eus/procurements/companies/economic-activities/1.845"
            }
          }
        }
      ],
      "certificateStartDate": "2026-01-23",
      "certificateEndDate": "2026-07-13",
      "object": "OTROS SERVICIOS RELACIONADOS CON LAS TECNOLOGÍAS DE LA INFORMACIÓN Y LA INFORMÁTICA.",
      "mainEntityOfPage": "https://www.contratacion.euskadi.eus/webkpe00-kperoc/es/ac71aBusquedaRegistrosWar/empresa/09467",
      "_links": {
        "self": {
          "name": "PUBLIEXPERIENCIAS, S.L.",
          "href": "https://api.euskadi.eus/procurements/companies/09467"
        }
      }
    },
    {
      "name": "QUERMED, S.A.",
      "registrationNumber": "00412",
      "identificationNumber": "A28549541",
      "address": "C /SAMARIA, NÚMERO 4, BAJO IZQUIERDA ",
      "location": {
        "postalCode": "28009",
        "municipality": "Madrid",
        "county": "Madrid",
        "municipalityId": "079",
        "countyId": "28"
      },
      "economicActivities": [
        {
          "id": "1.619.2",
          "name": "Venta al por mayor de aparatos e instrumentos médicos, ortopédicos, ópticos",
          "_links": {
            "self": {
              "name": "Venta al por mayor de aparatos e instrumentos médicos, ortopédicos, ópticos",
              "href": "https://api.euskadi.eus/procurements/companies/economic-activities/1.619.2"
            }
          }
        }
      ],
      "certificateStartDate": "2026-01-23",
      "certificateEndDate": "2026-07-14",
      "object": "IMPORTACIÓN, EXPORTACIÓN, COMERCIALIZACIÓN, COMPRA, VENTA, EXPLOTACIÓN, REPRESENTACIÓN Y DISTRIBUCIÓN DE APARATOS E INSTRUMENTOS MÉDICO-QUIRÚRGICOS Y ORTOPÉDICOS, ASÍ COMO DE SUS COMPLEMENTOS Y ACCESORIOS",
      "mainEntityOfPage": "https://www.contratacion.euskadi.eus/webkpe00-kperoc/es/ac71aBusquedaRegistrosWar/empresa/00412",
      "_links": {
        "self": {
          "name": "QUERMED, S.A.",
          "href": "https://api.euskadi.eus/procurements/companies/00412"
        }
      }
    },
    {
      "name": "VERSIA INFRAESTRUCTURAS TI, S.L.",
      "registrationNumber": "02978",
      "identificationNumber": "B48441497",
      "address": "Avenida Ibaibe, 27 edificio Garve III 1ª planta ",
      "location": {
        "postalCode": "48902",
        "municipality": "Barakaldo",
        "county": "Bizkaia",
        "municipalityId": "013",
        "countyId": "48"
      },
      "economicActivities": [
        {
          "id": "1.617.8",
          "name": "Venta al por mayor de máquinas y material de oficina",
          "_links": {
            "self": {
              "name": "Venta al por mayor de máquinas y material de oficina",
              "href": "https://api.euskadi.eus/procurements/companies/economic-activities/1.617.8"
            }
          }
        }
      ],
      "certificateStartDate": "2026-01-23",
      "certificateEndDate": "2026-07-14",
      "object": "LA COMPRA, VENTA, IMPORTACIÓN, EXPORTACIÓN, Y,  EN GENERAL, COMERCIALIZACIÓN DE PRODUCTOS MECÁNICOS, INFORMÁTICOS Y ELECTRÓNICOS",
      "mainEntityOfPage": "https://www.contratacion.euskadi.eus/webkpe00-kperoc/es/ac71aBusquedaRegistrosWar/empresa/02978",
      "_links": {
        "self": {
          "name": "VERSIA INFRAESTRUCTURAS TI, S.L.",
          "href": "https://api.euskadi.eus/procurements/companies/02978"
        }
      }
    }
  ]
}