{
  "totalItems": 9042,
  "totalPages": 905,
  "currentPage": 743,
  "itemsOfPage": 10,
  "items": [
    {
      "name": "CONSTRUCCIONES MANAN REBOREDO RODRIGUEZ, S.L.",
      "registrationNumber": "03869",
      "identificationNumber": "B01291350",
      "address": "MADRE TERESA DE CALCUTA Nº 10 BAJO",
      "location": {
        "postalCode": "01008",
        "municipality": "Vitoria-Gasteiz",
        "county": "Araba/Álava",
        "municipalityId": "059",
        "countyId": "01"
      },
      "economicActivities": [
        {
          "id": "1.501.1",
          "name": "Construcción completa, reparación y conservación de edificaciones",
          "_links": {
            "self": {
              "name": "Construcción completa, reparación y conservación de edificaciones",
              "href": "https://api.euskadi.eus/procurements/companies/economic-activities/1.501.1"
            }
          }
        }
      ],
      "certificateStartDate": "2009-08-03",
      "certificateEndDate": "2009-11-25",
      "object": "LA PROMOCIÓN, CONSTRUCCIÓN Y EDIFICACIÓN DE TODO TIPO DE INMUEBLES, ASÍ COMO SU COMPRA-VENTA Y EXPLOTACIÓN., BIEN COMO TITULARES O COMO ARRENDATARIOS",
      "mainEntityOfPage": "https://www.contratacion.euskadi.eus/webkpe00-kperoc/es/ac71aBusquedaRegistrosWar/empresa/03869",
      "_links": {
        "self": {
          "name": "CONSTRUCCIONES MANAN REBOREDO RODRIGUEZ, S.L.",
          "href": "https://api.euskadi.eus/procurements/companies/03869"
        }
      }
    },
    {
      "name": "TALLERES TORBI 2000, S.L.",
      "registrationNumber": "02535",
      "identificationNumber": "B48709950",
      "address": "JOSÉ LUIS GOYOAGA, 1",
      "location": {
        "postalCode": "48950",
        "municipality": "Erandio",
        "county": "Bizkaia",
        "municipalityId": "902",
        "countyId": "48"
      },
      "economicActivities": [
        {
          "id": "1.316.6",
          "name": "Fabricación de mobiliario metálico",
          "_links": {
            "self": {
              "name": "Fabricación de mobiliario metálico",
              "href": "https://api.euskadi.eus/procurements/companies/economic-activities/1.316.6"
            }
          }
        }
      ],
      "certificateStartDate": "2009-07-31",
      "certificateEndDate": "2009-12-10",
      "object": "LA FABRICACIÓN DE ELEMENTOS SANITARIOS, MOBILIARIO CLÍNICO Y DE OFICINA.\r\n\r\nLA FABRICACIÓN Y REPARACIÓN DE SILLAS Y SILLONES.\r\nTODAS LAS ACTIVIDADES QUE INTEGRAN EL OBJETO SOCIAL PODRÁN SER DESARROLLADAS POR LA SOCIEDAD BIEN EN FORMA DIRECTA, O BIEN EN CUALQUIERA DE OTRAS FORMAS ADMITIDAS EN DERECHO, COMO LA PARTICIPACIÓN EN CALIDAD DE SOCIO EN OTRAS ENTIDADES DE OBJETO IDÉNTICO O ANÁLOGO.\r\n\r\nQUEDAN EXCLUÍDAS TODAS AQUELLAS ACTIVIDADES PARA CUYO EJERCICIO LA LEY EXIJA REQUISITOS ESPECIALES QUE NO QUEDEN CUMPLIDOS POR ESTA SOCIEDAD. ",
      "mainEntityOfPage": "https://www.contratacion.euskadi.eus/webkpe00-kperoc/es/ac71aBusquedaRegistrosWar/empresa/02535",
      "_links": {
        "self": {
          "name": "TALLERES TORBI 2000, S.L.",
          "href": "https://api.euskadi.eus/procurements/companies/02535"
        }
      }
    },
    {
      "name": "AIKOX INFORMATICA Y PUBLICIDAD, S. COOP.",
      "registrationNumber": "03524",
      "identificationNumber": "F95398061",
      "address": "EL JUNQUERAL, 13-2ª PLANTA. OFICINA 1",
      "location": {
        "postalCode": "48903",
        "municipality": "Barakaldo",
        "county": "Bizkaia",
        "municipalityId": "013",
        "countyId": "48"
      },
      "economicActivities": [
        {
          "id": "1.844",
          "name": "Servicios de publicidad, relaciones públicas y similares",
          "_links": {
            "self": {
              "name": "Servicios de publicidad, relaciones públicas y similares",
              "href": "https://api.euskadi.eus/procurements/companies/economic-activities/1.844"
            }
          }
        },
        {
          "id": "1.845",
          "name": "Explotación electrónica por cuenta de terceros",
          "_links": {
            "self": {
              "name": "Explotación electrónica por cuenta de terceros",
              "href": "https://api.euskadi.eus/procurements/companies/economic-activities/1.845"
            }
          }
        },
        {
          "id": "1.933.9",
          "name": "Otras actividades de enseñanza tales como idiomas, mecanografía",
          "_links": {
            "self": {
              "name": "Otras actividades de enseñanza tales como idiomas, mecanografía",
              "href": "https://api.euskadi.eus/procurements/companies/economic-activities/1.933.9"
            }
          }
        }
      ],
      "certificateStartDate": "2009-07-30",
      "certificateEndDate": "2009-12-09",
      "object": "PRESTACIÓN DE SOLUCIONES GLOBALES EN MATERIA DE INFORMÁTICA Y PUBLICIDAD",
      "mainEntityOfPage": "https://www.contratacion.euskadi.eus/webkpe00-kperoc/es/ac71aBusquedaRegistrosWar/empresa/03524",
      "_links": {
        "self": {
          "name": "AIKOX INFORMATICA Y PUBLICIDAD, S. COOP.",
          "href": "https://api.euskadi.eus/procurements/companies/03524"
        }
      }
    },
    {
      "name": "RADIOMETER IBÉRICA, S.A.",
      "registrationNumber": "01317",
      "identificationNumber": "A80355480",
      "address": "AVDA. DE CASTILLA, Nº 2. PARQUE SAN FERNANDO, EDIF. JAPÓN I.",
      "location": {
        "postalCode": "28830",
        "municipality": "San Fernando de Henares",
        "county": "Madrid",
        "municipalityId": "130",
        "countyId": "28"
      },
      "economicActivities": [
        {
          "id": "1.619.2",
          "name": "Venta al por mayor de aparatos e instrumentos médicos, ortopédicos, ópticos",
          "_links": {
            "self": {
              "name": "Venta al por mayor de aparatos e instrumentos médicos, ortopédicos, ópticos",
              "href": "https://api.euskadi.eus/procurements/companies/economic-activities/1.619.2"
            }
          }
        }
      ],
      "certificateStartDate": "2009-07-29",
      "certificateEndDate": "2009-12-04",
      "object": "EL IMPORTAR, VENDER, DISTRIBUIR Y PRESTAR ASISTENCIA TÉCNICA DE INSTRUMENTOS CIENTÍFICOS",
      "mainEntityOfPage": "https://www.contratacion.euskadi.eus/webkpe00-kperoc/es/ac71aBusquedaRegistrosWar/empresa/01317",
      "_links": {
        "self": {
          "name": "RADIOMETER IBÉRICA, S.A.",
          "href": "https://api.euskadi.eus/procurements/companies/01317"
        }
      }
    },
    {
      "name": "HIBAIA, S.L.",
      "registrationNumber": "00875",
      "identificationNumber": "B20059093",
      "address": "Políg. Empres.Zuatzu. Edific.Donosti. Planta 2ª. Local 3",
      "location": {
        "postalCode": "20018",
        "municipality": "Donostia / San Sebastián",
        "county": "Gipuzkoa",
        "municipalityId": "069",
        "countyId": "20"
      },
      "economicActivities": [
        {
          "id": "1.843.1",
          "name": "Servicios técnicos de ingeniería",
          "_links": {
            "self": {
              "name": "Servicios técnicos de ingeniería",
              "href": "https://api.euskadi.eus/procurements/companies/economic-activities/1.843.1"
            }
          }
        }
      ],
      "certificateStartDate": "2009-07-28",
      "certificateEndDate": "2010-01-03",
      "object": "EL ESTUDIO, PRODUCCIÓN, MONTAJE Y COMERCIALIZACIÓN DE TODO PRODUCTO, SERVICIO, PROCEDIMIENTO, MATERIALES E INSTALACIONES SUSCEPTIBLES DE SER UTILIZADOS EN LA RESOLUCIÓN DE PROBLEMAS DE TRATAMIENTOS DE FLUIDOS Y VERTIDOS DE TODA CLASE, ASÍ COMO LOS PROVENIENTES DE LA CONTAMINACIÓN ATMOSFÉRICA O DE CUALQUIER OTRA NATURALEZA QUE PRODUZCA ALTERACIÓN EN EL MEDIO AMBIENTE",
      "mainEntityOfPage": "https://www.contratacion.euskadi.eus/webkpe00-kperoc/es/ac71aBusquedaRegistrosWar/empresa/00875",
      "_links": {
        "self": {
          "name": "HIBAIA, S.L.",
          "href": "https://api.euskadi.eus/procurements/companies/00875"
        }
      }
    },
    {
      "name": "INDAR SUN INGENIEROS, S.L.",
      "registrationNumber": "03402",
      "identificationNumber": "B20846440",
      "address": "C/PORTUETXE 23 B, 4º. OFICINA 10. EDIFICIO CEMEI",
      "location": {
        "postalCode": "20018",
        "municipality": "Donostia / San Sebastián",
        "county": "Gipuzkoa",
        "municipalityId": "069",
        "countyId": "20"
      },
      "economicActivities": [
        {
          "id": "1.504.1",
          "name": "Instalaciones eléctricas en general",
          "_links": {
            "self": {
              "name": "Instalaciones eléctricas en general",
              "href": "https://api.euskadi.eus/procurements/companies/economic-activities/1.504.1"
            }
          }
        },
        {
          "id": "1.843.1",
          "name": "Servicios técnicos de ingeniería",
          "_links": {
            "self": {
              "name": "Servicios técnicos de ingeniería",
              "href": "https://api.euskadi.eus/procurements/companies/economic-activities/1.843.1"
            }
          }
        },
        {
          "id": "1.847",
          "name": "Servicios de consultoría",
          "_links": {
            "self": {
              "name": "Servicios de consultoría",
              "href": "https://api.euskadi.eus/procurements/companies/economic-activities/1.847"
            }
          }
        }
      ],
      "certificateStartDate": "2009-07-20",
      "certificateEndDate": "2009-11-29",
      "object": "LA PROMOCIÓN Y CONSTRUCCIÓN, INSTALACIÓN DE PROYECTOS RELACIONADOS CON LAS ENERGÍAS, PROYECTOS, COMPRA, VENTA Y ALQUILER DE MATERIAL RELACIONADO CON LAS ENERGÍAS RENOVABLES",
      "mainEntityOfPage": "https://www.contratacion.euskadi.eus/webkpe00-kperoc/es/ac71aBusquedaRegistrosWar/empresa/03402",
      "_links": {
        "self": {
          "name": "INDAR SUN INGENIEROS, S.L.",
          "href": "https://api.euskadi.eus/procurements/companies/03402"
        }
      }
    },
    {
      "name": "BIO-SER NORTE, S.A.",
      "registrationNumber": "01697",
      "identificationNumber": "A48786347",
      "address": "C/ MÚSICO SARASATE, 4",
      "location": {
        "postalCode": "48014",
        "municipality": "Bilbao",
        "county": "Bizkaia",
        "municipalityId": "020",
        "countyId": "48"
      },
      "economicActivities": [
        {
          "id": "1.619.2",
          "name": "Venta al por mayor de aparatos e instrumentos médicos, ortopédicos, ópticos",
          "_links": {
            "self": {
              "name": "Venta al por mayor de aparatos e instrumentos médicos, ortopédicos, ópticos",
              "href": "https://api.euskadi.eus/procurements/companies/economic-activities/1.619.2"
            }
          }
        }
      ],
      "certificateStartDate": "2009-07-17",
      "certificateEndDate": "2009-12-19",
      "object": "EL ASESORAMIENTO, INTERMEDIACIÓN, FABRICACIÓN Y COMERCIO AL POR MENOR Y AL POR MAYOR DE APARATOS E INSTRUMENTOS MÉDICO-QUIRÚRGICOS DE TODAS CLASES",
      "mainEntityOfPage": "https://www.contratacion.euskadi.eus/webkpe00-kperoc/es/ac71aBusquedaRegistrosWar/empresa/01697",
      "_links": {
        "self": {
          "name": "BIO-SER NORTE, S.A.",
          "href": "https://api.euskadi.eus/procurements/companies/01697"
        }
      }
    },
    {
      "name": "ITSASBIDE CONSTRUCCIONES Y CONTRATAS, S.L.",
      "registrationNumber": "03514",
      "identificationNumber": "B95460267",
      "address": "C/ITSASBIDE (ELEXALDE), 40-B BJ",
      "location": {
        "postalCode": "48630",
        "municipality": "Gorliz",
        "county": "Bizkaia",
        "municipalityId": "043",
        "countyId": "48"
      },
      "economicActivities": [
        {
          "id": "1.501.1",
          "name": "Construcción completa, reparación y conservación de edificaciones",
          "_links": {
            "self": {
              "name": "Construcción completa, reparación y conservación de edificaciones",
              "href": "https://api.euskadi.eus/procurements/companies/economic-activities/1.501.1"
            }
          }
        }
      ],
      "certificateStartDate": "2009-07-17",
      "certificateEndDate": "2009-12-22",
      "object": "-) LA CONSTRUCCIÓN Y/O PROMOCIÓN DE VIVIENDAS, LOCALES COMERCIALES, PABELLONES INDUSTRIALES Y TODA CLASE DE EDIFICIOS, SU VENTA Y ARRENDAMIENTO, ASI COMO LA REALIZACIÓN DE TODO TIPO DE OBRAS Y REFORMAS. -) EXPLOTACIÓN DE NEGOCIOS DE LIMPIEZA, MANTENIMIENTO DE LOCALES, PABELLONES, DE MAQUINARIA, DE EQUIPAMIENTO, DE VIALES Y OTROS, TANTO PÚBLICOS COMO PRIVADOS, POR CUENTA DIRECTA O A TRAVÉS DE TERCEROS SUBCONTRATADOS. -) DISTRIBUCIÓN Y COMERCIALIZACIÓN AL POR MAYOR Y AL POR MENOR DE TODO TIPO DE MATERIAL DE CONSTRUCCIÓN. -) LA ADQUISICIÓN DE CUALQUIER TÍTULO, DE FINCAS RÚSTICAS O URBANAS, LA ADMINISTRACIÓN, EXPLOTACIÓN Y ARRENDAMIENTO DE TALES BIENES, SU VENTA, TOTAL O PARCIAL, SEGÚN CONVENGA, PARA SU APROVECHAMIENTO FORESTAL, AGRÍCOLA, URBANO O INDUSTRIAL. -) LA COMPRAVENTA, ARRENDAMIENTO NO FINANCIERO, ADMINISTRACIÓN Y GESTIÓN DE TODO TIPO DE FINCAS Y TODO TIPO DE SERVICIOS INMOBILIARIOS, Y EN GENERAL LA INTERMEDIACIÓN EN EL SECTOR INMOBILIARIO. -) LA COMPRAVENTA, IMPORTACIÓN Y EXPORTACIÓN DE VEHÍCULOS A MOTOR, INCLUYÉNDOSE, LOS TURISMOS, LOS DE TRANSPORTES, LOS INDUSTRIALES, LOS DE OBRAS PÚBLICAS, LOS DE CONSTRUCCIÓN, Y EN GENERAL CUALQUIER MAQUINARIA QUE TENGA CAPACIDAD DE AUTOMOCIÓN.",
      "mainEntityOfPage": "https://www.contratacion.euskadi.eus/webkpe00-kperoc/es/ac71aBusquedaRegistrosWar/empresa/03514",
      "_links": {
        "self": {
          "name": "ITSASBIDE CONSTRUCCIONES Y CONTRATAS, S.L.",
          "href": "https://api.euskadi.eus/procurements/companies/03514"
        }
      }
    },
    {
      "name": "QIAGEN IBERIA, S.L.",
      "registrationNumber": "03964",
      "identificationNumber": "B63229611",
      "address": "C/ ROSA DE LIMA, 1. EDIFICIO ALBA. LAS MATAS",
      "location": {
        "postalCode": "28290",
        "municipality": "Madrid",
        "county": "Madrid",
        "municipalityId": "079",
        "countyId": "28"
      },
      "economicActivities": [
        {
          "id": "1.614.1",
          "name": "Venta al por mayor de productos farmacéuticos y medicamentos",
          "_links": {
            "self": {
              "name": "Venta al por mayor de productos farmacéuticos y medicamentos",
              "href": "https://api.euskadi.eus/procurements/companies/economic-activities/1.614.1"
            }
          }
        }
      ],
      "certificateStartDate": "2009-07-09",
      "certificateEndDate": "2009-11-27",
      "object": "LA IMPORTACIÓN Y DISTRIBUCIÓN DE TESTS O PRUEBAS DE DIAGNÓSTICO MÉDICO O FARMACÉUTICO Y EL ALQUILER O VENTA, Y LA PRESTACIÓN DEL SERVICIO TÉCNICO Y DE MANTENIMIENTO, EN SU CASO, DE LOS EQUIPOS NECESARIOS QUE PERMITAN LA REALIZACIÓN DE LOS TESTS O PRUEBAS\r\n\r\n\r\n\r\n\r\n\r\n\r\n\r\n\r\n",
      "mainEntityOfPage": "https://www.contratacion.euskadi.eus/webkpe00-kperoc/es/ac71aBusquedaRegistrosWar/empresa/03964",
      "_links": {
        "self": {
          "name": "QIAGEN IBERIA, S.L.",
          "href": "https://api.euskadi.eus/procurements/companies/03964"
        }
      }
    },
    {
      "name": "ESTEBANEZ NAVARRO Y ASOCIADOS DESARROLLADORES MULTIMEDIA, S.L.",
      "registrationNumber": "03127",
      "identificationNumber": "B01192483",
      "address": "C/ PORTAL DE CASTILLA, 80 BAJO",
      "location": {
        "postalCode": "01007",
        "municipality": "Vitoria-Gasteiz",
        "county": "Araba/Álava",
        "municipalityId": "059",
        "countyId": "01"
      },
      "economicActivities": [
        {
          "id": "1.844",
          "name": "Servicios de publicidad, relaciones públicas y similares",
          "_links": {
            "self": {
              "name": "Servicios de publicidad, relaciones públicas y similares",
              "href": "https://api.euskadi.eus/procurements/companies/economic-activities/1.844"
            }
          }
        }
      ],
      "certificateStartDate": "2009-07-03",
      "certificateEndDate": "2009-12-10",
      "object": "LA REALIZACIÓN DE TODA CLASE DE ACTOS, NEGOCIOS Y OPERACIONES RELACIONADOS CON EL SECTOR DE LAS ARTES GRÁFICAS  Y DE EDICIÓN, FABRICACIÓN, COMPRAVENTA, REPRESENTACIÓN, IMPORTACIÓN, EXPORTACIÓN, COMERCIALIZACIÓN, ALMACENAMIENTO Y EXPLOTACIÓN DE TODA CLASE DE MATERIALES, OBJETOS, PRODUCTOS, TÉCNICAS Y PATENTES RELACIONADOS CON DICHO SECTOR.\r\nLA ORDENACIÓN, URBANIZACIÓN, PARCELACIÓN, PROMOCIÓN, CONSTRUCCIÓN, ADQUISICIÓN, VENTA, CESIÓN, PERMUTA, EXPLOTACIÓN OR CUALQUIER TÍTULO DE TODA CLASE DE TERRENOS, SOLARES, OBRAS, VIVIENDAS, LOCALES, PABELLONES E INMUEBLES.\r\nLA COMPRAVENTA, REPRESENTACIÓN, FABRICACIÓN, TRANSFORMACIÓN, COMERCIALIZACIÓN, DISEÑO, DISTRIBUCIÓN, IMPORTACIÓN Y EXPORTACIÓN, TANTO AL POR MAYOR COMO AL POR MENOR, BIEN DE FABRICACIÓN NACIONAL O EXTRANJERA DE TODA CLASE DE MÁQUINAS Y HERRAMIENTAS, ASÍ COMO DE ARTÍCULOS COMERCIALES, INDUSTRIALES, AGRÍCOLAS Y GANADEROS, CUYO DESTINO SEA SU USO Y CONSUMO EN LA ALIMENTACÓN, VESTIDO, VIVIENDA Y HOGAR, DECORACIÓN, OCIO, ESPARCIMIENTO, RECREO, CULTURA Y ENSEÑANZA.\r\nSERVICIOS DE MEDIACIÓN, GESTIÓN, ALMACENAMIENTO Y EN GENERAL COMERCIALIZACIÓN Y DISTRIBUCIÓN DE TODA CLASE DE PRODUCTOS, RELACIONADOS CON ARTES GRÁFICAS O EDICIÓN.\r\nENSEÑANZA DE FORMACIÓN Y PERFECCIONAMIENTO PROFESIONAL, RELACIONADOS CON ARTES GRÁFICAS O EDICIÓN.\r\nASESORAMIENTO TÉCNICO EN TEMAS RELACIONADOS CON ARTES GRÁFICAS.\r\nLA ADQUISICIÓN, TENENCIA, ADMINISTRACIÓN, ENAJENACIÓN DE TODA CLASE DE TÍTULOS, VALORES MOBILIARIOS, ACTIVOS FINANCIEROS, DERECHOS, CUOTA O PARTICIPACIONES EN EMRESAS INDIVIDUALES O SOCIALES, TODO ELLO POR CUENTA PROPIA, EXCLUYENDO LA INTERMEDIACIÓN Y DEJANDO A SALVO LA LEGISLACIÓN PROPIA DEL MERCADO DE VALORES Y  DE LAS INSTITUCIONES DE INVERSIÓN COLECTIVA.\r\nLA PRESTACIÓN DE SERVICIOS DE PUBLICIDAD, MEDIANTE ANUNCIOS, CARTELES, FOLLETOS PELÍCULAS PUBLICITARIAS, A TRAVÉS DE PRENSA, RADIO, TELEVISIÓN, PUBLICIDAD AÉREA U OTROS MEDIOS. LA CREACIÓN Y DIFUSIÓN DE ANUNCIOS O CAMPAÑAS DE INFORMACIÓN PUBLICITARIA, PROPAGANDA ELECTORAL, COMUNICACIÓN INSTITUCIONAL  O PÚBLICA E IMAGEN CORPORATIVA. EL MARKETING DIRECTO Y  ELABORACIÓND E ESTUDIOS DE PUBLICIDAD, LA PROMOCIÓN DE VENTAS PUBLICITARIAS, REGALOS Y RECLAMOS PUBLICITARIOS Y, EN GENERAL, CUALQUIER SERVICIO INDEPENDIENTE DE PUBLICIDAD ",
      "mainEntityOfPage": "https://www.contratacion.euskadi.eus/webkpe00-kperoc/es/ac71aBusquedaRegistrosWar/empresa/03127",
      "_links": {
        "self": {
          "name": "ESTEBANEZ NAVARRO Y ASOCIADOS DESARROLLADORES MULTIMEDIA, S.L.",
          "href": "https://api.euskadi.eus/procurements/companies/03127"
        }
      }
    }
  ]
}