{
  "totalItems": 9042,
  "totalPages": 905,
  "currentPage": 595,
  "itemsOfPage": 10,
  "items": [
    {
      "name": "EDIBON INTERNATIONAL, S.A.",
      "registrationNumber": "06566",
      "identificationNumber": "A84306257",
      "address": "CALLE DEL AGUA, 14. P.I. SAN JOSÉ DE VALDERAS",
      "location": {
        "postalCode": "28918",
        "municipality": "Leganés",
        "county": "Madrid",
        "municipalityId": "074",
        "countyId": "28"
      },
      "economicActivities": [
        {
          "id": "1.352",
          "name": "Fabricación de aparatos y equipo electromédico y de uso profesional",
          "_links": {
            "self": {
              "name": "Fabricación de aparatos y equipo electromédico y de uso profesional",
              "href": "https://api.euskadi.eus/procurements/companies/economic-activities/1.352"
            }
          }
        },
        {
          "id": "1.617.5",
          "name": "Venta al por mayor de maquinaria para la madera y el metal",
          "_links": {
            "self": {
              "name": "Venta al por mayor de maquinaria para la madera y el metal",
              "href": "https://api.euskadi.eus/procurements/companies/economic-activities/1.617.5"
            }
          }
        }
      ],
      "certificateStartDate": "2019-10-22",
      "certificateEndDate": "2019-12-03",
      "object": "LA COMERCIALIZACIÓN, DISEÑO Y FABRICACIÓN DE EQUIPOS DIDÁCTICOS DE ENSAYOS E INVESTIGACIÓN; PROYECTOS LLAVE EN MANO Y EQUIPOS DE LABORATORIO EN GENERAL, CON DESTINO A CENTROS O ÁREAS EDUCATIVOS A TODO TIPO DE TALLER Y LABORATORIOS EN GENERAL. ADEMÁS DE LA REALIZACIÓN E IMPARTICIÓN DE CURSOS DE FORMACIÓN EN CUALQUIER PAÍS DEL MUNDO Y EN CUALQUIER ACTIVIDAD ANEJA O RELACIONADA CON LA EDUCACIÓN, FORMACIÓN, ENSAYO O LA INVESTIGACIÓN. LAS ACTIVIDADES ENUMERADAS PODRÁN SER TAMBIÉN DESARROLLADAS POR LA SOCIEDAD, TOTAL O PARCIALMENTE, DE MODO INDIRECTO, MEDIANTE PARTICIPACIÓN EN OTRAS SOCIEDADES CON OBJETO ANÁLOGO",
      "mainEntityOfPage": "https://www.contratacion.euskadi.eus/webkpe00-kperoc/es/ac71aBusquedaRegistrosWar/empresa/06566",
      "_links": {
        "self": {
          "name": "EDIBON INTERNATIONAL, S.A.",
          "href": "https://api.euskadi.eus/procurements/companies/06566"
        }
      }
    },
    {
      "name": "BARTON FILMS, S.L.",
      "registrationNumber": "06569",
      "identificationNumber": "B48510150",
      "address": "Calle Uribitarte, 8 - 4º Dcha",
      "location": {
        "postalCode": "48001",
        "municipality": "Bilbao",
        "county": "Bizkaia",
        "municipalityId": "020",
        "countyId": "48"
      },
      "economicActivities": [
        {
          "id": "1.962.2",
          "name": "Distribución y venta al por mayor de películas en soporte de cinta magnética",
          "_links": {
            "self": {
              "name": "Distribución y venta al por mayor de películas en soporte de cinta magnética",
              "href": "https://api.euskadi.eus/procurements/companies/economic-activities/1.962.2"
            }
          }
        }
      ],
      "certificateStartDate": "2019-10-22",
      "certificateEndDate": "2020-04-02",
      "object": "LA PRODUCCIÓN COMO LA COMPRA, ALQUILER, DISTRIBUCIÓN Y EXHIBICIÓN DE PELÍCULAS CINEMATOGRÁFICAS, Y CUALQUIER TIPO DE SISTEMAS DE AUDIOVISIÓN, ASÍ COMO LA ADQUISICIÓN, ARRENDAMIENTO Y SUBARRIENDO DE LOCALES DE ESPECTÁCULOS",
      "mainEntityOfPage": "https://www.contratacion.euskadi.eus/webkpe00-kperoc/es/ac71aBusquedaRegistrosWar/empresa/06569",
      "_links": {
        "self": {
          "name": "BARTON FILMS, S.L.",
          "href": "https://api.euskadi.eus/procurements/companies/06569"
        }
      }
    },
    {
      "name": "SISTEMAS TECNOLÓGICOS AVANZADOS, S.A.",
      "registrationNumber": "06570",
      "identificationNumber": "A50069459",
      "address": "Calle Celsa 17",
      "location": {
        "postalCode": "50197",
        "municipality": "Zaragoza",
        "county": "Zaragoza",
        "municipalityId": "297",
        "countyId": "50"
      },
      "economicActivities": [
        {
          "id": "1.619.7",
          "name": "Venta al por mayor de instrumentos de precisión, medida y similares",
          "_links": {
            "self": {
              "name": "Venta al por mayor de instrumentos de precisión, medida y similares",
              "href": "https://api.euskadi.eus/procurements/companies/economic-activities/1.619.7"
            }
          }
        },
        {
          "id": "1.699",
          "name": "Otras reparaciones n.c.o.p",
          "_links": {
            "self": {
              "name": "Otras reparaciones n.c.o.p",
              "href": "https://api.euskadi.eus/procurements/companies/economic-activities/1.699"
            }
          }
        }
      ],
      "certificateStartDate": "2019-10-22",
      "certificateEndDate": "2020-04-03",
      "object": "1.- LA COMPRAVENTA AL MAYOR, FABRICACIÓN, CONSTRUCCIÓN, MONTAJE, INSTALACIÓN, MANTENIMIENTO Y CONSERVACIÓN DE: A) APARATOS E INSTRUMENTOS DE FÍSICA, FISICOQUIMICA, CIENTÍFICOS, DE ANÁLISIS Y TECNOLÓGICOS. B) EQUIPOS PARA EL CONTROL DE PROCESOS INDUSTRIALES. C) SISTEMAS Y EQUIPOS DE TRANSMISIÓN, TELECOMUNICACIONES, TRATAMIENTO DE DATOS Y TELEMANDO, ELECTRONICOS Y DE INFORMACIÓN. D) MAQUINARIA Y EQUIPOS DE INGENIERIA MEDIAMBIENTAL, INDUSTRIAL, AERONÁUTICA Y NAVAL. E) CONSERVACIÓN Y MANTENIMIENTO DE BIENES INMUEBLES. 2.- ESTUDIOS, INFORMES, PROYECTOS Y DIRECCIÓN DE: A) ANÁLISIS, ENSAYOS Y CONTROL TÉCNICO. B) AUDITORIAS, ESTUDIOS E INFORMES MEDIOAMBIENTALES ENERGÉTICOS Y OTROS",
      "mainEntityOfPage": "https://www.contratacion.euskadi.eus/webkpe00-kperoc/es/ac71aBusquedaRegistrosWar/empresa/06570",
      "_links": {
        "self": {
          "name": "SISTEMAS TECNOLÓGICOS AVANZADOS, S.A.",
          "href": "https://api.euskadi.eus/procurements/companies/06570"
        }
      }
    },
    {
      "name": "ALBORA BIDE, S.L.",
      "registrationNumber": "06559",
      "identificationNumber": "B95932372",
      "address": "CL GENERAL CONCHA 12 1º DCHA",
      "location": {
        "postalCode": "48008",
        "municipality": "Bilbao",
        "county": "Bizkaia",
        "municipalityId": "020",
        "countyId": "48"
      },
      "economicActivities": [
        {
          "id": "1.942.9",
          "name": "Otros servicios sanitarios sin internados, no clasificados",
          "_links": {
            "self": {
              "name": "Otros servicios sanitarios sin internados, no clasificados",
              "href": "https://api.euskadi.eus/procurements/companies/economic-activities/1.942.9"
            }
          }
        }
      ],
      "certificateStartDate": "2019-10-21",
      "certificateEndDate": "2019-11-24",
      "object": "LAS CONSULTAS, TERAPIA Y ASESORAMIENTO EN PSICOLOGÍA Y SEXOLOGÍA. ASESORAMIENTO, CONFERENCIAS Y ACTIVIDADES PRESENCIALES EN CIENCIA, PSICOLOGÍA Y SEXOLOGÍA. INVESTIGACIÓN Y ACTIVIDADES RELACIONADAS EN CIENCIA, PSICOLOGÍA Y SEXOLOGÍA",
      "mainEntityOfPage": "https://www.contratacion.euskadi.eus/webkpe00-kperoc/es/ac71aBusquedaRegistrosWar/empresa/06559",
      "_links": {
        "self": {
          "name": "ALBORA BIDE, S.L.",
          "href": "https://api.euskadi.eus/procurements/companies/06559"
        }
      }
    },
    {
      "name": "ARGA EQUIPAMIENTOS INTEGRALES, S.L.",
      "registrationNumber": "06553",
      "identificationNumber": "B71305825",
      "address": "Polig. Industrial Mutilva Baja. Travesía calle A 15-17",
      "location": {
        "postalCode": "31192",
        "municipality": "Sangüesa/Zangoza",
        "county": "Navarra",
        "municipalityId": "216",
        "countyId": "31"
      },
      "economicActivities": [
        {
          "id": "1.468.3",
          "name": "Fabricación de muebles diversos de madera, junco, mimbre y caña",
          "_links": {
            "self": {
              "name": "Fabricación de muebles diversos de madera, junco, mimbre y caña",
              "href": "https://api.euskadi.eus/procurements/companies/economic-activities/1.468.3"
            }
          }
        }
      ],
      "certificateStartDate": "2019-10-18",
      "certificateEndDate": "2020-02-01",
      "object": "-LA FABRICACIÓN Y COMERCIALIZACIÓN DE MUEBLES, SUS ACCESORIOS Y COMPLEMENTOS. -LA INTERMEDIACIÓN Y COORDINACIÓN EN LA PROMOCIÓN Y PRESTACIÓN DE SERVICIOS-SOCIO-SANITARIOS, A TRAVÉS DE CUALQUIER MODO O ACTIVIDAD QUE, ACORDE CON LA LEGISLACIÓN VIGENTE SE CONSIDERE ADECUADO EN CADA CASO. -EL DESARROLLO DE SISTEMAS DE GESTIÓN, PLANIFICACIÓN, EJECUCIÓN Y CONTROL DE CALIDAD, ESPECIALIZADOS EN EL ÁMBITO DE LA FABRICACIÓN DE MUEBLES, SUS ACCESORIOS Y COMPLEMENTOS Y EN EL ÁMBITO SOCIO-SANITARIO. -EL ASESORAMIENTO GENERAL A ORGANISMOS, INSTITUCIONES, EMPRESAS Y PARTICULARES, EN LA ESFERA DE LA FABRICACIÓN DE MUEBLES, SUS ACCESORIOS Y COMPLEMENTOS Y EN EL ÁMBITO SOCIO-SANITARIO. -LA FORMACIÓN DE PERSONAL ESPECIALIZADO EN LA FABRICACIÓN DE MUEBLES, SUS ACCESORIOS Y COMPLEMENTOS Y EN EL ÁMBITO SOCIO-SANITARIO",
      "mainEntityOfPage": "https://www.contratacion.euskadi.eus/webkpe00-kperoc/es/ac71aBusquedaRegistrosWar/empresa/06553",
      "_links": {
        "self": {
          "name": "ARGA EQUIPAMIENTOS INTEGRALES, S.L.",
          "href": "https://api.euskadi.eus/procurements/companies/06553"
        }
      }
    },
    {
      "name": "CARL ZEISS IBERIA SL",
      "registrationNumber": "06554",
      "identificationNumber": "B84724632",
      "address": "Ronda de Poniente 5",
      "location": {
        "postalCode": "28760",
        "municipality": "Tres Cantos",
        "county": "Madrid",
        "municipalityId": "903",
        "countyId": "28"
      },
      "economicActivities": [
        {
          "id": "1.617.9",
          "name": "Venta al por mayor interindustrial de otros productos n.c.o.p",
          "_links": {
            "self": {
              "name": "Venta al por mayor interindustrial de otros productos n.c.o.p",
              "href": "https://api.euskadi.eus/procurements/companies/economic-activities/1.617.9"
            }
          }
        },
        {
          "id": "1.619.7",
          "name": "Venta al por mayor de instrumentos de precisión, medida y similares",
          "_links": {
            "self": {
              "name": "Venta al por mayor de instrumentos de precisión, medida y similares",
              "href": "https://api.euskadi.eus/procurements/companies/economic-activities/1.619.7"
            }
          }
        },
        {
          "id": "1.692",
          "name": "Reparación de maquinaria industrial",
          "_links": {
            "self": {
              "name": "Reparación de maquinaria industrial",
              "href": "https://api.euskadi.eus/procurements/companies/economic-activities/1.692"
            }
          }
        }
      ],
      "certificateStartDate": "2019-10-18",
      "certificateEndDate": "2020-03-06",
      "object": "MARKETING, VENTAS Y SERVICIO DE INSTRUMENTOS, SOFTWARE Y ACCESORIOS PARA EL ANÁLISIS DE IMÁGENES POR MICROSCOPIO Y APLICACIONES RELACIONADAS, ASÍ COMO SERVICIOS Y APOYO TÉCNICO PARA ESTOS PRODUCTOS. DISTRIBUCIÓN Y MARKETING DE SISTEMAS Y MECANISMOS DE MEDICIÓN, ASÍ COMO DE ASISTENCIA TÉCNICA Y CUALQUIER OTRA ACTIVIDAD RELACIONADA. SEGUN DECLARA EL SEÑOR COMPARECIENTE LOS CÓDIGOS (CNAE) CORRESPONDIENTES A LA ACTIVIDAD DEL OBJETO SOCIAL DE LA SOCIEDAD SON LOS NÚMEROS 4669 Y 4690",
      "mainEntityOfPage": "https://www.contratacion.euskadi.eus/webkpe00-kperoc/es/ac71aBusquedaRegistrosWar/empresa/06554",
      "_links": {
        "self": {
          "name": "CARL ZEISS IBERIA SL",
          "href": "https://api.euskadi.eus/procurements/companies/06554"
        }
      }
    },
    {
      "name": "ESCALA PAPELERIA TECNICA, S.A.",
      "registrationNumber": "06555",
      "identificationNumber": "A26040519",
      "address": "REPUBLICA ARGENTINA Nº 18 BAJO",
      "location": {
        "postalCode": "26002",
        "municipality": "Logroño",
        "county": "Rioja, La",
        "municipalityId": "089",
        "countyId": "26"
      },
      "economicActivities": [
        {
          "id": "1.474",
          "name": "Artes gráficas (impresión gráfica)",
          "_links": {
            "self": {
              "name": "Artes gráficas (impresión gráfica)",
              "href": "https://api.euskadi.eus/procurements/companies/economic-activities/1.474"
            }
          }
        },
        {
          "id": "1.475",
          "name": "Actividades anexas a las artes gráficas",
          "_links": {
            "self": {
              "name": "Actividades anexas a las artes gráficas",
              "href": "https://api.euskadi.eus/procurements/companies/economic-activities/1.475"
            }
          }
        },
        {
          "id": "1.619.5",
          "name": "Venta al por mayor de artículos de papelería y escritorios",
          "_links": {
            "self": {
              "name": "Venta al por mayor de artículos de papelería y escritorios",
              "href": "https://api.euskadi.eus/procurements/companies/economic-activities/1.619.5"
            }
          }
        },
        {
          "id": "1.619.6",
          "name": "Venta al por mayor de libros , periódicos y revistas",
          "_links": {
            "self": {
              "name": "Venta al por mayor de libros , periódicos y revistas",
              "href": "https://api.euskadi.eus/procurements/companies/economic-activities/1.619.6"
            }
          }
        },
        {
          "id": "1.653.1",
          "name": "Venta al por menor de muebles (excepto los de oficina)",
          "_links": {
            "self": {
              "name": "Venta al por menor de muebles (excepto los de oficina)",
              "href": "https://api.euskadi.eus/procurements/companies/economic-activities/1.653.1"
            }
          }
        },
        {
          "id": "1.659.2",
          "name": "Venta al por menor de muebles de oficina y máquinas y equipos de oficina",
          "_links": {
            "self": {
              "name": "Venta al por menor de muebles de oficina y máquinas y equipos de oficina",
              "href": "https://api.euskadi.eus/procurements/companies/economic-activities/1.659.2"
            }
          }
        },
        {
          "id": "1.659.4",
          "name": "Venta al por menor de libros, periódicos y artículos de papelería y escritorio",
          "_links": {
            "self": {
              "name": "Venta al por menor de libros, periódicos y artículos de papelería y escritorio",
              "href": "https://api.euskadi.eus/procurements/companies/economic-activities/1.659.4"
            }
          }
        },
        {
          "id": "1.969.7",
          "name": "Otras máquinas automáticas",
          "_links": {
            "self": {
              "name": "Otras máquinas automáticas",
              "href": "https://api.euskadi.eus/procurements/companies/economic-activities/1.969.7"
            }
          }
        },
        {
          "id": "1.973.3",
          "name": "Servicios de copias de documentos con máquina fotocopiadora",
          "_links": {
            "self": {
              "name": "Servicios de copias de documentos con máquina fotocopiadora",
              "href": "https://api.euskadi.eus/procurements/companies/economic-activities/1.973.3"
            }
          }
        }
      ],
      "certificateStartDate": "2019-10-18",
      "certificateEndDate": "2020-04-16",
      "object": "EL SUMINISTRO DE MATERIALES Y CONSUMIBLES PARA LA OFICINA. INSTALACIÓN DE MAMPARAS, SUELOS Y TECHOS MODULABLES, ASÍ COMO MOBILIARIO DE TODO TIPO. SUMINISTRO DE MATERIAL INFORMÁTICO Y DE COMUNICACIÓN, ASÍ COMO EL SOFTWARE QUE CONLLEVA. REALIZACIÓN DE TRABAJOS DE IMPRESIÓN EN PEQUEÑO Y GRAN FORMATO EN COLOR Y BLANCO Y NEGRO Y SU POSTERIOR TRATAMIENTO PLASTIFICADO. LA INSTALACIÓN INTEGRAL DE OFICINAS Y LOCALES COMERCIALES CON TODO LO NECESARIO PARA SU PUESTA EN MARCHA",
      "mainEntityOfPage": "https://www.contratacion.euskadi.eus/webkpe00-kperoc/es/ac71aBusquedaRegistrosWar/empresa/06555",
      "_links": {
        "self": {
          "name": "ESCALA PAPELERIA TECNICA, S.A.",
          "href": "https://api.euskadi.eus/procurements/companies/06555"
        }
      }
    },
    {
      "name": "SANDS CORP, S.L.",
      "registrationNumber": "06544",
      "identificationNumber": "B39720206",
      "address": "Av. los Castros, 36, 3A",
      "location": {
        "postalCode": "39005",
        "municipality": "Santander",
        "county": "Cantabria",
        "municipalityId": "075",
        "countyId": "39"
      },
      "economicActivities": [
        {
          "id": "1.617.9",
          "name": "Venta al por mayor interindustrial de otros productos n.c.o.p",
          "_links": {
            "self": {
              "name": "Venta al por mayor interindustrial de otros productos n.c.o.p",
              "href": "https://api.euskadi.eus/procurements/companies/economic-activities/1.617.9"
            }
          }
        },
        {
          "id": "1.843.1",
          "name": "Servicios técnicos de ingeniería",
          "_links": {
            "self": {
              "name": "Servicios técnicos de ingeniería",
              "href": "https://api.euskadi.eus/procurements/companies/economic-activities/1.843.1"
            }
          }
        }
      ],
      "certificateStartDate": "2019-10-14",
      "certificateEndDate": "2019-12-13",
      "object": "LA CONSULTORÍA PARA EMPRESAS Y ORGANISMOS PÚBLICOS EN MATERIA DE MEDICIÓN DE VARIABLES MEDIOAMBIENTALES Y EN MATERIA DE TECNOLOGÍA APLICABLE A LA INGENIERÍA. COMERCIO DE EQUIPOS TÉCNICOS Y APARATOS ELECTRÓNICOS E INFORMÁTICOS. FORMACIÓN EN MATERIA DE TECNOLOGÍAS APLICADAS A LA INGENIERÍA. DESARROLLO DE SOFTWARE EN GENERAL",
      "mainEntityOfPage": "https://www.contratacion.euskadi.eus/webkpe00-kperoc/es/ac71aBusquedaRegistrosWar/empresa/06544",
      "_links": {
        "self": {
          "name": "SANDS CORP, S.L.",
          "href": "https://api.euskadi.eus/procurements/companies/06544"
        }
      }
    },
    {
      "name": "TECNICAS MEDICAS DE NAVARRA S.A.",
      "registrationNumber": "06546",
      "identificationNumber": "A31178262",
      "address": "CALLE MAESTRO RICHOLY, 9",
      "location": {
        "postalCode": "04720",
        "municipality": "Roquetas de Mar",
        "county": "Almería",
        "municipalityId": "079",
        "countyId": "04"
      },
      "economicActivities": [
        {
          "id": "1.614.1",
          "name": "Venta al por mayor de productos farmacéuticos y medicamentos",
          "_links": {
            "self": {
              "name": "Venta al por mayor de productos farmacéuticos y medicamentos",
              "href": "https://api.euskadi.eus/procurements/companies/economic-activities/1.614.1"
            }
          }
        }
      ],
      "certificateStartDate": "2019-10-14",
      "certificateEndDate": "2020-04-11",
      "object": "LA COMPRA, VENTA, DISTRIBUCIÓN, REPRESENTACIÓN, MEDIACIÓN, COMERCIALIZACIÓN, IMPORTACIÓN Y EXPORTACIÓN DE PRODUCTOS FARMACÉUTICOS, MÉDICOS, QUIRÚRGICOS Y, EN GENERAL, RELACIONADOS CON LA FARMACOLOGÍA, MEDICINA, CIRUGÍA, ORTOPEDIA, TERAPIA Y SALUD INTEGRAL DE LAS PERSONAS",
      "mainEntityOfPage": "https://www.contratacion.euskadi.eus/webkpe00-kperoc/es/ac71aBusquedaRegistrosWar/empresa/06546",
      "_links": {
        "self": {
          "name": "TECNICAS MEDICAS DE NAVARRA S.A.",
          "href": "https://api.euskadi.eus/procurements/companies/06546"
        }
      }
    },
    {
      "name": "SISTELCOR COMUNICACIONES AB, S.L.",
      "registrationNumber": "06537",
      "identificationNumber": "B02236545",
      "address": "Poligono Campollano Avda 3ª Nº 2",
      "location": {
        "postalCode": "02007",
        "municipality": "Albacete",
        "county": "Albacete",
        "municipalityId": "003",
        "countyId": "02"
      },
      "economicActivities": [
        {
          "id": "1.151.4",
          "name": "Producción de energía no especificada en otros epígrafes",
          "_links": {
            "self": {
              "name": "Producción de energía no especificada en otros epígrafes",
              "href": "https://api.euskadi.eus/procurements/companies/economic-activities/1.151.4"
            }
          }
        },
        {
          "id": "1.504.7",
          "name": "Instalaciones telefónicas, telegráficas, televisión, etc",
          "_links": {
            "self": {
              "name": "Instalaciones telefónicas, telegráficas, televisión, etc",
              "href": "https://api.euskadi.eus/procurements/companies/economic-activities/1.504.7"
            }
          }
        }
      ],
      "certificateStartDate": "2019-10-10",
      "certificateEndDate": "2020-02-20",
      "object": "LA VENTA Y REPARACIÓN DE TELEFONÍA MÓVIL, EMISORAS Y DE CUALQUIER OTRO SISTEMA DE COMUNICACIÓN. VENTA, INSTALACIÓN, MANTENIMIENTO Y SERVICIO TÉCNICO DE EQUIPOS Y SISTEMAS FÍSICOS Y LÓGICOS PARA EL TRATAMIENTO DE LA INFORMACIÓN, ASÍ COMO LOS TRANSCEPTORES Y SISTEMAS Y TRANSMISIÓN DE EQUIPOS DE TELECOMUNICACIONES E INFORMÁTICOS. CONSULTORIO, AUDITORÍA, INGENIERÍA, DESARROLLOS, IMPLANTACIÓN Y MANTENIMIENTO DE HARDWARE Y SOFTWARE DE SISTEMAS DE TELECOMUNICACIONES PARA LOS SERVICIOS Y CUERPOS DE EMERGENCIA Y SEGURIDAD. CONSULTORA IMPLANTACIÓN Y FORMACIÓN DE OPERADORES DE CENTRO DE MANDO Y CONTROL. SUMINISTROS E INSTALACIÓN, MANTENIMIENTO DE SISTEMAS VIDEO VIGILANCIA. SEÑALIZACIÓN DE VEHÍCULOS DE EMERGENCIA, MEGAFONÍA Y ALERTA A POBLACIÓN, EQUIPAMIENTO DE COMPONENTES ELECTRÓNICOS/ELÉCTRICOS PARA EQUIPOS DE PROTECCIÓN CIUDADANA. TRABAJOS DE PLANIFICACIÓN, ANÁLISIS, DISEÑO, CONSTRUCCIÓN, PRUEBAS Y MANTENIMIENTO DE SISTEMA DE INFORMACIÓN DE HARDWARE Y SOFTWARE (PROGRAMAS Y APLICACIONES INFORMÁTICAS). CAPTURA DE DATOS POR MEDIOS ELECTRÓNICOS Y DIGITALIZACIÓN DE FORMATOS DE DOCUMENTOS MEDIANTE EL USO DE LAS TECNOLOGÍAS DE LA INFORMACIÓN Y LAS COMUNICACIONES. TRABAJOS DE PUESTA EN FUNCIONAMIENTO, EL SEGUIMIENTO, LA GESTIÓN Y CONTROL DE EQUIPOS Y SISTEMAS INFORMÁTICOS Y DE LAS INFRAESTRUCTURAS TELEMÁTICAS, NECESARIAS PARA LA ADECUADA EXPLOTACIÓN DE PROGRAMAS Y APLICACIONES INFORMÁTICAS. ACTIVIDADES RELATIVAS A LA GENERACIÓN, EXPEDICIÓN Y GESTIÓN DE CERTIFICADOS ELECTRÓNICOS Y OTROS SERVICIOS RELACIONADOS, TALES COMO LOS SERVICIOS DE AUTORIDAD DE REGISTRO Y DE FECHADO ELECTRÓNICO, PARA FIRMA ELECTRÓNICA, AUTENTIFICACIÓN ELECTRÓNICA, CONFIDENCIALIDAD Y NO REPUDIO. TRABAJOS TÉCNICOS PARA DISEÑAR, CONSTRUIR Y EJECUTAR LAS PRUEBAS QUE PERMITAN LA EVOLUCIÓN DE UN PRODUCTO O SISTEMA, RESPECTO DE UNOS CRITERIOS Y MÉTODOS DE EVALUACIÓN, PARA DETERMINAR SU COMPORTAMIENTO ANTE LAS CARACTERÍSTICAS Y FUNCIONALIDADES QUE LE SON ATRIBUIDAS Y CERTIFICAR LOS RESULTADOS OBTENIDOS",
      "mainEntityOfPage": "https://www.contratacion.euskadi.eus/webkpe00-kperoc/es/ac71aBusquedaRegistrosWar/empresa/06537",
      "_links": {
        "self": {
          "name": "SISTELCOR COMUNICACIONES AB, S.L.",
          "href": "https://api.euskadi.eus/procurements/companies/06537"
        }
      }
    }
  ]
}