{
  "totalItems": 9042,
  "totalPages": 905,
  "currentPage": 594,
  "itemsOfPage": 10,
  "items": [
    {
      "name": "CONSTRUCCIONES Y PROMOCIONES BALZOLA, S.A.U",
      "registrationNumber": "01035",
      "identificationNumber": "A48290258",
      "address": "C/ AVENIDA SABINO ARANA, Nº 20 - 3º.",
      "location": {
        "postalCode": "48013",
        "municipality": "Bilbao",
        "county": "Bizkaia",
        "municipalityId": "020",
        "countyId": "48"
      },
      "economicActivities": [
        {
          "id": "1.501.1",
          "name": "Construcción completa, reparación y conservación de edificaciones",
          "_links": {
            "self": {
              "name": "Construcción completa, reparación y conservación de edificaciones",
              "href": "https://api.euskadi.eus/procurements/companies/economic-activities/1.501.1"
            }
          }
        },
        {
          "id": "1.501.2",
          "name": "Construcción completa, reparación y conservación obras civiles",
          "_links": {
            "self": {
              "name": "Construcción completa, reparación y conservación obras civiles",
              "href": "https://api.euskadi.eus/procurements/companies/economic-activities/1.501.2"
            }
          }
        },
        {
          "id": "1.507",
          "name": "Construcción, reparación y conservación de toda clase obras",
          "_links": {
            "self": {
              "name": "Construcción, reparación y conservación de toda clase obras",
              "href": "https://api.euskadi.eus/procurements/companies/economic-activities/1.507"
            }
          }
        },
        {
          "id": "1.833.2",
          "name": "Promoción de edificaciones",
          "_links": {
            "self": {
              "name": "Promoción de edificaciones",
              "href": "https://api.euskadi.eus/procurements/companies/economic-activities/1.833.2"
            }
          }
        }
      ],
      "certificateStartDate": "2019-10-24",
      "certificateEndDate": "2020-04-02",
      "object": "A) PROMOCIÓN, CONSTRUCCIÓN, ADQUISICIÓN POR CUALQUIER TÍTULO Y LA COMERCIALIZACIÓN EN GENERAL, DE TODA CLASE DE TERRENOS, SOLARES, EDIFICIOS, FINCAS RÚSTICAS Y URBANAS; LA EDIFICACIÓN, URBANIZACIÓN, VENTA, ARRIENDO O EXPLOTACIÓN EN CUALQUIER FORMA DE TODA CLASE DE INMUEBLES. B) LA INGENIERÍA, CONSULTORÍA Y SUPERVISIÓN DE OBRAS, ASÍ COMO LA ELABORACIÓN DE INGENIERÍA BÁSICA, INGENIERÍA DE DETALLE, INFORMES Y EXPEDIENTES TÉCNICOS DE OBRA. C) EL ESTUDIO, PROMOCIÓN, DIRECCIÓN Y DESARROLLO DE TODA CLASE DE EMPRESAS INDUSTRIALES, COMERCIALES Y DE SERVICIOS, ASÍ COMO LA PRESTACIÓN A ESTAS EMPRESAS DE SERVICIOS CONSISTENTES EN LA INVESTIGACIÓN Y ESTUDIO DE LOS PROBLEMAS QUE A LOS MISMOS Y A SUS OPERACIONES AFECTAN, TALES COMO CONTROL Y ANÁLISIS FINANCIEROS, ORGANIZACIÓN GENERAL, INVESTIGACIÓN OPERATIVA, CENSURA DE CUENTAS, INGENIERÍA DE INSTALACIONES Y PROCESOS. D) TRATAMIENTO, RECICLAJE Y VALORACIÓN DE TODO TIPO DE RESIDUOS URBANOS, ASIMILABLES A URBANOS E INDUSTRIALES Y SANITARIOS. E) TRATAMIENTO Y VENTA DE PRODUCTOS RESIDUALES. GESTIÓN Y EXPLOTACIÓN DE PLANTAS DE TRATAMIENTO Y TRANSFERENCIA DE RESIDUOS. F) PRESTACIÓN DE LOS SERVICIOS PÚBLICOS Y PRIVADOS DE RECOGIDA, TRANSPORTE, APROVECHAMIENTO Y ELIMINACIÓN DE RESIDUOS SÓLIDOS URBANOS, INDUSTRIALES DE CUALQUIER NATURALEZA, SANITARIOS, AGRÍCOLAS, GANADEROS, FORESTALES, MINERALES, ASÍ COMO AQUELLOS OTROS RESIDUOS QUE POR SUS TÉCNICAS DE GESTIÓN SON ASIMILABLES A LOS ANTERIORES. PRESTACIÓN DE LOS SERVICIOS DE LIMPIEZA VIARIA Y DE LUGARES PÚBLICOS. G) EL DISEÑO, CONSTRUCCIÓN, EJECUCIÓN, EXPLOTACIÓN, GESTIÓN, ADMINISTRACIÓN Y CONSERVACIÓN DE INFRAESTRUCTURAS Y DE OBRAS PÚBLICAS Y PRIVADAS, YA SEA DIRECTAMENTE O A TRAVÉS DE LA PARTICIPACIÓN EN SOCIEDADES, AGRUPACIONES, CONSORCIOS, O CUALQUIERA OTRA ANÁLOGA FIGURA JURÍDICA. H) LA TITULARICAD DE TODA CLASE DE CONCESIONES, SUBCONCESIONES, AUTORIZACIONES Y LICENCIAS ADMINISTRATIVAS DE OBRAS, SERVICIOS Y MIXTAS DEL ESTADO, COMUNIDADES AUTÓNOMAS, PROVINCIAS, MUNICIPIOS, ORGANISMOS AUTÓNOMOS, ENTIDADES AUTÓNOMAS Y EN GENERAL DE CUALQUIER ESTADO O ADMINISTRACIÓN PÚBLICA, ORGANISMOS E INSTITUCIONES NACIONALES O EXTRANJEROS",
      "mainEntityOfPage": "https://www.contratacion.euskadi.eus/webkpe00-kperoc/es/ac71aBusquedaRegistrosWar/empresa/01035",
      "_links": {
        "self": {
          "name": "CONSTRUCCIONES Y PROMOCIONES BALZOLA, S.A.U",
          "href": "https://api.euskadi.eus/procurements/companies/01035"
        }
      }
    },
    {
      "name": "INGECLIMA, S.L.",
      "registrationNumber": "04487",
      "identificationNumber": "B95607396",
      "address": "DR. DÍAZ ENPARANTZA, 39 A - 2º ",
      "location": {
        "postalCode": "48002",
        "municipality": "Bilbao",
        "county": "Bizkaia",
        "municipalityId": "020",
        "countyId": "48"
      },
      "economicActivities": [
        {
          "id": "1.329.9",
          "name": "Construcción de otras máquinas y equipos mecánicos n.c.o.p",
          "_links": {
            "self": {
              "name": "Construcción de otras máquinas y equipos mecánicos n.c.o.p",
              "href": "https://api.euskadi.eus/procurements/companies/economic-activities/1.329.9"
            }
          }
        },
        {
          "id": "1.504.3",
          "name": "Instalaciones de frío, calor y acondicionamiento de aire",
          "_links": {
            "self": {
              "name": "Instalaciones de frío, calor y acondicionamiento de aire",
              "href": "https://api.euskadi.eus/procurements/companies/economic-activities/1.504.3"
            }
          }
        },
        {
          "id": "1.843.1",
          "name": "Servicios técnicos de ingeniería",
          "_links": {
            "self": {
              "name": "Servicios técnicos de ingeniería",
              "href": "https://api.euskadi.eus/procurements/companies/economic-activities/1.843.1"
            }
          }
        }
      ],
      "certificateStartDate": "2019-10-24",
      "certificateEndDate": "2020-04-15",
      "object": "A- LA CONSTRUCCIÓN, COLOCACIÓN Y REPARACIÓN DE INSTALACIONES DE FRÍO, CALOR, ACONDICIONAMIENTO DE AIRE, VENTILACIÓN, AISLAMIENTOS ACÚSTICOS Y TÉRMICOS EN GENERAL. B- LA IMPORTACÓN Y EXPORTACIÓN DE TODA CLASE DE PRODUCTOS O BIENES, ASÍ COMO LA REPRESENTACIÓN COMO AGENTE, COMISIONISTA, DELEGADOO CUALQUIER OTRA FORMA DE MEDIACIÓN MERCANTIL DE TODA CLASE DE EMPRESAS NACIONALES Y EXTRANJERAS; EL ASESORAMIENTO EN SUS DIVERSOS ASPECTOS DE TODAS LAS OPERACIONES DE COMERCIO EXTERIOR; LA INTRODUCCIÓN , REGISTRO, EXPLOTACIÓN Y CONCESIÓN DE ASISTENCIAS TÉCNICAS, LICENCIAS DE PATENTES  Y DEMÁS PRIVILEGIOS COMPRENDIDOS EN EL ESTATUTO DE LA PROPIEDAD INDUSTRIAL, PUDIENDO  TAMBIÉN DEDICARSE A LA COMERCIALIZACIÓN EN GENERAL DE TODA CLASE DE PRODUCTOS INDUSTRIALES, NAVALES, AGRÍCOLAS, QUÍMICOS Y MATERIAS PRIMAS, ASÍ COMO LA EXPLOTACIÓN DE MÉTODOS O PROCEDIMIENTOS DE TRABAJOS INDUSTRIALES.  ",
      "mainEntityOfPage": "https://www.contratacion.euskadi.eus/webkpe00-kperoc/es/ac71aBusquedaRegistrosWar/empresa/04487",
      "_links": {
        "self": {
          "name": "INGECLIMA, S.L.",
          "href": "https://api.euskadi.eus/procurements/companies/04487"
        }
      }
    },
    {
      "name": "HUMBERTO FERNANDEZ PASCUAL",
      "registrationNumber": "06576",
      "identificationNumber": "30620713P",
      "address": "C/CARLOS GANGOITI 15A BAJO",
      "location": {
        "postalCode": "48300",
        "municipality": "Gernika-Lumo",
        "county": "Bizkaia",
        "municipalityId": "046",
        "countyId": "48"
      },
      "economicActivities": [
        {
          "id": "2.411",
          "name": "Arquitectos",
          "_links": {
            "self": {
              "name": "Arquitectos",
              "href": "https://api.euskadi.eus/procurements/companies/economic-activities/2.411"
            }
          }
        }
      ],
      "certificateStartDate": "2019-10-24",
      "certificateEndDate": "2020-01-23",
      "object": "SERVICIOS DE ARQUITECTURA ",
      "mainEntityOfPage": "https://www.contratacion.euskadi.eus/webkpe00-kperoc/es/ac71aBusquedaRegistrosWar/empresa/06576",
      "_links": {
        "self": {
          "name": "HUMBERTO FERNANDEZ PASCUAL",
          "href": "https://api.euskadi.eus/procurements/companies/06576"
        }
      }
    },
    {
      "name": "ACTAM 2007 S.L.P",
      "registrationNumber": "06577",
      "identificationNumber": "B95492559",
      "address": "MARQUES DEL PUERTO 16 - 2º ",
      "location": {
        "postalCode": "48008",
        "municipality": "Bilbao",
        "county": "Bizkaia",
        "municipalityId": "020",
        "countyId": "48"
      },
      "economicActivities": [
        {
          "id": "2.731",
          "name": "Abogados",
          "_links": {
            "self": {
              "name": "Abogados",
              "href": "https://api.euskadi.eus/procurements/companies/economic-activities/2.731"
            }
          }
        }
      ],
      "certificateStartDate": "2019-10-24",
      "certificateEndDate": "2019-12-25",
      "object": "LA REALIZACIÓN DE LAS ACTIVIDADES PROPIAS DEL EJERCICIO DE LA ABOGACÍA",
      "mainEntityOfPage": "https://www.contratacion.euskadi.eus/webkpe00-kperoc/es/ac71aBusquedaRegistrosWar/empresa/06577",
      "_links": {
        "self": {
          "name": "ACTAM 2007 S.L.P",
          "href": "https://api.euskadi.eus/procurements/companies/06577"
        }
      }
    },
    {
      "name": "ARRASATE MUNTAIAK, S.COOP.",
      "registrationNumber": "05015",
      "identificationNumber": "F75025833",
      "address": "Jose Luis Iñarra nº 20 Bajo",
      "location": {
        "postalCode": "20500",
        "municipality": "Arrasate / Mondragón",
        "county": "Gipuzkoa",
        "municipalityId": "055",
        "countyId": "20"
      },
      "economicActivities": [
        {
          "id": "1.505.1",
          "name": "Revestimientos exteriores e interiores de todas clases",
          "_links": {
            "self": {
              "name": "Revestimientos exteriores e interiores de todas clases",
              "href": "https://api.euskadi.eus/procurements/companies/economic-activities/1.505.1"
            }
          }
        }
      ],
      "certificateStartDate": "2019-10-23",
      "certificateEndDate": "2020-03-25",
      "object": "DIRECCIÓN, COORDINACIÓN Y EJECUCIÓN DE OBRAS Y GREMIOS EN TRABAJOS DE CONSTRUCCIÓN; DISTRIBUCIÓN DE MATERIAL DE OBRA Y GESTIÓN ADMINISTRATIVA A EMPRESAS DE LA CONSTRUCCIÓN",
      "mainEntityOfPage": "https://www.contratacion.euskadi.eus/webkpe00-kperoc/es/ac71aBusquedaRegistrosWar/empresa/05015",
      "_links": {
        "self": {
          "name": "ARRASATE MUNTAIAK, S.COOP.",
          "href": "https://api.euskadi.eus/procurements/companies/05015"
        }
      }
    },
    {
      "name": "ACTELION PHARMACEUTICALS ESPAÑA, S.L.",
      "registrationNumber": "05117",
      "identificationNumber": "B62725320",
      "address": "VIA AUGUSTA 281 (3º B)",
      "location": {
        "postalCode": "08017",
        "municipality": "Barcelona",
        "county": "Barcelona",
        "municipalityId": "019",
        "countyId": "08"
      },
      "economicActivities": [
        {
          "id": "1.631",
          "name": "Intermediarios del comercio",
          "_links": {
            "self": {
              "name": "Intermediarios del comercio",
              "href": "https://api.euskadi.eus/procurements/companies/economic-activities/1.631"
            }
          }
        }
      ],
      "certificateStartDate": "2019-10-23",
      "certificateEndDate": "2020-04-23",
      "object": "LA INVESTIGACIÓN, FABRICACIÓN, PRODUCCIÓN, COMERCIALIZACIÓN Y DISTRIBUCIÓN DE PRODUCTOS FARMACÉUTICOS",
      "mainEntityOfPage": "https://www.contratacion.euskadi.eus/webkpe00-kperoc/es/ac71aBusquedaRegistrosWar/empresa/05117",
      "_links": {
        "self": {
          "name": "ACTELION PHARMACEUTICALS ESPAÑA, S.L.",
          "href": "https://api.euskadi.eus/procurements/companies/05117"
        }
      }
    },
    {
      "name": "RICARDO DOMINGO AMESTOY",
      "registrationNumber": "06572",
      "identificationNumber": "44673617G",
      "address": "Hermanos Lumiere, 11, of 116",
      "location": {
        "postalCode": "01510",
        "municipality": "Vitoria-Gasteiz",
        "county": "Araba/Álava",
        "municipalityId": "059",
        "countyId": "01"
      },
      "economicActivities": [
        {
          "id": "1.843.1",
          "name": "Servicios técnicos de ingeniería",
          "_links": {
            "self": {
              "name": "Servicios técnicos de ingeniería",
              "href": "https://api.euskadi.eus/procurements/companies/economic-activities/1.843.1"
            }
          }
        },
        {
          "id": "1.843.2",
          "name": "Servicios técnicos de arquitectura y urbanismo",
          "_links": {
            "self": {
              "name": "Servicios técnicos de arquitectura y urbanismo",
              "href": "https://api.euskadi.eus/procurements/companies/economic-activities/1.843.2"
            }
          }
        }
      ],
      "certificateStartDate": "2019-10-23",
      "certificateEndDate": "2020-01-24",
      "object": "SERVICIOS TÉCNICOS DE INGENIERÍA Y DE ARQUITECTURA",
      "mainEntityOfPage": "https://www.contratacion.euskadi.eus/webkpe00-kperoc/es/ac71aBusquedaRegistrosWar/empresa/06572",
      "_links": {
        "self": {
          "name": "RICARDO DOMINGO AMESTOY",
          "href": "https://api.euskadi.eus/procurements/companies/06572"
        }
      }
    },
    {
      "name": "ASTIV INGENIERÍA, S.L.",
      "registrationNumber": "04731",
      "identificationNumber": "B20711040",
      "address": "ALFONSO VI, 53-BAJO",
      "location": {
        "postalCode": "01213",
        "municipality": "Ribera Baja/Erriberabeitia",
        "county": "Araba/Álava",
        "municipalityId": "047",
        "countyId": "01"
      },
      "economicActivities": [
        {
          "id": "1.843.1",
          "name": "Servicios técnicos de ingeniería",
          "_links": {
            "self": {
              "name": "Servicios técnicos de ingeniería",
              "href": "https://api.euskadi.eus/procurements/companies/economic-activities/1.843.1"
            }
          }
        }
      ],
      "certificateStartDate": "2019-10-22",
      "certificateEndDate": "2020-04-15",
      "object": "LA ACTIVIDAD PROPIA DE LOS PROFESIONALES DE LA INGENIERÍA DE CAMINOS, CANALES Y PUERTOS",
      "mainEntityOfPage": "https://www.contratacion.euskadi.eus/webkpe00-kperoc/es/ac71aBusquedaRegistrosWar/empresa/04731",
      "_links": {
        "self": {
          "name": "ASTIV INGENIERÍA, S.L.",
          "href": "https://api.euskadi.eus/procurements/companies/04731"
        }
      }
    },
    {
      "name": "Metodos y Tecnologia de Sistemas y Procesos S.L.",
      "registrationNumber": "05686",
      "identificationNumber": "B81758344",
      "address": "CAlle Santa Leonor 65 Edif C",
      "location": {
        "postalCode": "28037",
        "municipality": "Madrid",
        "county": "Madrid",
        "municipalityId": "079",
        "countyId": "28"
      },
      "economicActivities": [
        {
          "id": "1.845",
          "name": "Explotación electrónica por cuenta de terceros",
          "_links": {
            "self": {
              "name": "Explotación electrónica por cuenta de terceros",
              "href": "https://api.euskadi.eus/procurements/companies/economic-activities/1.845"
            }
          }
        }
      ],
      "certificateStartDate": "2019-10-22",
      "certificateEndDate": "2020-04-20",
      "object": "LA COMPRAVENTA, INVESTIGACIÓN, ELABORACIÓN, COMERCIALIZACIÓN Y DISTRIBUCIÓN DE  TODA CLASE DE PRODUCTOS SOFTWARE.\r\nLA REALIZACIÓN Y GESTIÓN POR CUENTA  PROPIA O AJENA, DE ESTUDIOS  DE MERCADO SOBRE MÉTODOS DE PRODUCCIÓN, DISTRIBUCIÓN Y COMERCIALIZACIÓN DE TALES PRODUCTOS Y EL ASESORAMIENTO Y CONSULTORÍA SOBRE CUESTIONES RELACIONADAS CON DICHOS PRODUCTOS, ESPECIALMENTE EN MATERIA DE GESTIÓN Y CALIDAD.LA REALIZACIÓN DE TODO TIPO DE ESTUDIOS  RELACIONADOS CON LA EXPLOTACIÓN, ANÁLISIS E IMPLANTACIÓN DE HERRAMIENTAS TECNOLÓGICAS PARA GESTIÓN DE PROYECTOS SOFTWARE, DISEÑO, DESARROLLO, PRUEBAS, ENTORNOS VISUALES, ASI COMO LA MATERIALIZACIÓN Y DESARROLLO DE TALES PROYECTOS.\r\nLA CREACIÓN DE INDUSTRIAS, EMPRESAS Y NEGOCIOS PARA EL DESARROLLO DE LOS ESTUDIOS  Y PROYECTOS NECESARIOS PARA LA EXPLOTACIÓN DE LOS SISTEMAS, PRODUCTOS, HERRAMIENTAS Y TECNOLOGÍA RELATADOS EN EL APARTADO C) PRECEDENTE.\r\nEL ESTUDIO, DESARROLLO Y COMERCIALIZACIÓN DE CALIDAD Y TECNOLOGÍA DE SOFTWARE, EN LO RELATIVO A ANÁLISIS DE IMPACTO, MIGRACIONES, EURO Y AÑO 2000.\r\nESTUDIO, DESARROLLO Y COMERCIALIZACIÓN DE IMPLANTACIÓN DE METODOLOGÍA FUNCIONALES ORIENTADAS A OBJETOS; IMPLANTACIÓN DE PLANES DE MÉTRICAS POR CUALQUIER MODELO TÉCNICO HÁBIL  AL EFECTO.\r\nIMPLANTACIÓN DE LA NORMA ISO 9000, PARA EMPRESAS DE DESARROLLO Y MANTENIMIENTO DE SOFTWARE.\r\nDESARROLLO DE PLANES DE FORMACIÓN PROFESIONAL RELATIVOS AL ESTUDIO DE LAS MATERIAS Y ELEMENTOS PRECISOS PARA LA EXPLOTACIÓN Y COMERCIALIZACIÓN DE LOS PRODUCTOS ANTERIORES.\r\nDISTRIBUCIÓN, IMPORTACIÓN Y EXPORTACIÓN DE SOFTWARE Y HARDWARE\r\n",
      "mainEntityOfPage": "https://www.contratacion.euskadi.eus/webkpe00-kperoc/es/ac71aBusquedaRegistrosWar/empresa/05686",
      "_links": {
        "self": {
          "name": "Metodos y Tecnologia de Sistemas y Procesos S.L.",
          "href": "https://api.euskadi.eus/procurements/companies/05686"
        }
      }
    },
    {
      "name": "FÉLIX MARTÍNEZ DE LECEA, S.L.",
      "registrationNumber": "06565",
      "identificationNumber": "B01311372",
      "address": "Paraje El Cerrado, s/n",
      "location": {
        "postalCode": "01423",
        "municipality": "Lantarón",
        "county": "Araba/Álava",
        "municipalityId": "902",
        "countyId": "01"
      },
      "economicActivities": [
        {
          "id": "1.255.5",
          "name": "Fabricación de artículos pirotécnicos, cerillas y fósforos",
          "_links": {
            "self": {
              "name": "Fabricación de artículos pirotécnicos, cerillas y fósforos",
              "href": "https://api.euskadi.eus/procurements/companies/economic-activities/1.255.5"
            }
          }
        },
        {
          "id": "1.659.6",
          "name": "Venta al por menor de juguetes, artículos de deporte",
          "_links": {
            "self": {
              "name": "Venta al por menor de juguetes, artículos de deporte",
              "href": "https://api.euskadi.eus/procurements/companies/economic-activities/1.659.6"
            }
          }
        },
        {
          "id": "1.965.2",
          "name": "Espectáculos al aire libre (excepto los taurinos)",
          "_links": {
            "self": {
              "name": "Espectáculos al aire libre (excepto los taurinos)",
              "href": "https://api.euskadi.eus/procurements/companies/economic-activities/1.965.2"
            }
          }
        }
      ],
      "certificateStartDate": "2019-10-22",
      "certificateEndDate": "2020-03-25",
      "object": "LA FABRICACIÓN Y VENTA DE ARTÍCULOS PIROTÉCNICOS Y VENTA Y DISPARO DE ESPECTÁCULOS DE FUEGOS ARTIFICIALES; ASÍ COMO LA INTERVENCIÓN EN EL MERCADO INMOBILIARIO, MEDIANTE ADQUISICIÓN DE FINCAS O PARCELAS DE NATURALEZA RÚSTICA O URBANA, URBANIZACIÓN, CONSTRUCCIÓN, VENTA Y ARRENDAMIENTO O CUALQUIER OTRA OPERACIÓN TRASLATIVA DE DOMINIO O USO DE BIENES INMUEBLES",
      "mainEntityOfPage": "https://www.contratacion.euskadi.eus/webkpe00-kperoc/es/ac71aBusquedaRegistrosWar/empresa/06565",
      "_links": {
        "self": {
          "name": "FÉLIX MARTÍNEZ DE LECEA, S.L.",
          "href": "https://api.euskadi.eus/procurements/companies/06565"
        }
      }
    }
  ]
}