{
  "totalItems": 9042,
  "totalPages": 905,
  "currentPage": 792,
  "itemsOfPage": 10,
  "items": [
    {
      "name": "OPINION CON VALOR, S.L.",
      "registrationNumber": "02869",
      "identificationNumber": "B95291308",
      "address": "IRALA, 11-1º DCHA.",
      "location": {
        "postalCode": "48012",
        "municipality": "Bilbao",
        "county": "Bizkaia",
        "municipalityId": "020",
        "countyId": "48"
      },
      "economicActivities": [
        {
          "id": "1.847",
          "name": "Servicios de consultoría",
          "_links": {
            "self": {
              "name": "Servicios de consultoría",
              "href": "https://api.euskadi.eus/procurements/companies/economic-activities/1.847"
            }
          }
        }
      ],
      "certificateStartDate": "2004-07-20",
      "certificateEndDate": "2004-12-18",
      "object": "LA PRESTACIÓN DE SERVICIOS DE CONSULTORÍA, DE APOYO A LA GESTIÓN Y TOMA DE DECISIÓN EN EL SECTOR DEL LIBRO Y LAS INDUSTRIAS CULTURALES",
      "mainEntityOfPage": "https://www.contratacion.euskadi.eus/webkpe00-kperoc/es/ac71aBusquedaRegistrosWar/empresa/02869",
      "_links": {
        "self": {
          "name": "OPINION CON VALOR, S.L.",
          "href": "https://api.euskadi.eus/procurements/companies/02869"
        }
      }
    },
    {
      "name": "UMEALAI HAUR HEZKUNTZ ZERBITZUAK, S.L.",
      "registrationNumber": "02870",
      "identificationNumber": "B95307377",
      "address": "TELLETXE, 17 BAJO",
      "location": {
        "postalCode": "48993",
        "municipality": "Getxo",
        "county": "Bizkaia",
        "municipalityId": "044",
        "countyId": "48"
      },
      "economicActivities": [
        {
          "id": "1.931.1",
          "name": "Guardería y enseñanza de educación infantil, exclusivamente",
          "_links": {
            "self": {
              "name": "Guardería y enseñanza de educación infantil, exclusivamente",
              "href": "https://api.euskadi.eus/procurements/companies/economic-activities/1.931.1"
            }
          }
        }
      ],
      "certificateStartDate": "2004-07-20",
      "certificateEndDate": "2004-12-22",
      "object": "LA GESTIÓN INTEGRAL DE LOS SERVICIOS DE GUARDERÍA INFANTIL PARA AYUNTAMIENTOS. SERVICIOS INTEGRALES DE CARÁCTER EDUCATIVO Y ASISTENCIAL, RELACIONADOS CON LA INFANCIA Y LA JUVENTUD ",
      "mainEntityOfPage": "https://www.contratacion.euskadi.eus/webkpe00-kperoc/es/ac71aBusquedaRegistrosWar/empresa/02870",
      "_links": {
        "self": {
          "name": "UMEALAI HAUR HEZKUNTZ ZERBITZUAK, S.L.",
          "href": "https://api.euskadi.eus/procurements/companies/02870"
        }
      }
    },
    {
      "name": "BIEFFE MEDITAL, S.A.",
      "registrationNumber": "02556",
      "identificationNumber": "A78752276",
      "address": "CTRA. BIESCAS-SENEGÜÉ, S/N",
      "location": {
        "postalCode": "22666",
        "municipality": "Sabiñánigo",
        "county": "Huesca",
        "municipalityId": "199",
        "countyId": "22"
      },
      "economicActivities": [
        {
          "id": "1.254.2",
          "name": "Fabricación de especialidades y otros productos farmacéuticos",
          "_links": {
            "self": {
              "name": "Fabricación de especialidades y otros productos farmacéuticos",
              "href": "https://api.euskadi.eus/procurements/companies/economic-activities/1.254.2"
            }
          }
        },
        {
          "id": "1.932.1",
          "name": "Enseñanza de formación y perfeccionamiento profesional no superior",
          "_links": {
            "self": {
              "name": "Enseñanza de formación y perfeccionamiento profesional no superior",
              "href": "https://api.euskadi.eus/procurements/companies/economic-activities/1.932.1"
            }
          }
        }
      ],
      "certificateStartDate": "2004-07-15",
      "certificateEndDate": "2005-01-02",
      "object": "LA FABRICACIÓN, COMERCIALIZACIÓN, IMPORTACIÓN, EXPORTACIÓN, DISTRIBUCIÓN Y VENTA DE SOLUCIONES, EQUIPOS Y CATÉTERES INTRAVENOSOS, MATERIAL DESECHABLE Y REUTILIZABLE DE USO HOSPITALARIO, BOLSAS, APARATOS, MÁQUINAS Y SISTEMAS PARA RECOLECCIÓN, ALMACENAMIENTO, TRANSFORMACIÓN, FRACCIONAMIENTO Y TRATAMIENTO DE SANGRE Y/O SUS COMPONENTES; MAQUINARIA, SOLUCIONES, EQUIPOS Y SISTEMAS PARA EL TRATAMIENTO DE LA INSUFICIENCIA RENAL, HEMODERIVADOS Y GAMMAGLOBULINAS, APARATOS, DISPOSITIVOS Y REACTIVOS PARA ANÁLISIS CLÍNICOS Y DE DIAGNÓSTICO; APARATOS, DISPOSITIVOS, IMPLANTES E INSTRUMENTAL PARA APLICACIONES CARDIOVASCULARES, ASÍ COMO OTROS PRODUCTOS COMPLEMENTARIOS DE LOS ANTERIORES, CON EXPRESA  INCLUSIÓN DE REPARACIONES E INFORMÁTICA PARA GESTIÓN HOSPITALARIA; Y LA ASISTENCIA SANITARIA DE HEMODIÁLISIS Y DIÁLISIS PERITONEAL, TANTO DOMICILIARIA COMO EN CENTROS Y HOSPITALES, PRESTADA POR MEDIO DE PROFESIONALES SANITARIOS, EN POSESIÓN DE LA ADECUADA TITULACIÓN.  ",
      "mainEntityOfPage": "https://www.contratacion.euskadi.eus/webkpe00-kperoc/es/ac71aBusquedaRegistrosWar/empresa/02556",
      "_links": {
        "self": {
          "name": "BIEFFE MEDITAL, S.A.",
          "href": "https://api.euskadi.eus/procurements/companies/02556"
        }
      }
    },
    {
      "name": "TASAI, S.A.",
      "registrationNumber": "00436",
      "identificationNumber": "A48169593",
      "address": "C/ JAÉN, Nº 1 - 1º.",
      "location": {
        "postalCode": "48012",
        "municipality": "Bilbao",
        "county": "Bizkaia",
        "municipalityId": "020",
        "countyId": "48"
      },
      "economicActivities": [
        {
          "id": "1.844",
          "name": "Servicios de publicidad, relaciones públicas y similares",
          "_links": {
            "self": {
              "name": "Servicios de publicidad, relaciones públicas y similares",
              "href": "https://api.euskadi.eus/procurements/companies/economic-activities/1.844"
            }
          }
        },
        {
          "id": "1.845",
          "name": "Explotación electrónica por cuenta de terceros",
          "_links": {
            "self": {
              "name": "Explotación electrónica por cuenta de terceros",
              "href": "https://api.euskadi.eus/procurements/companies/economic-activities/1.845"
            }
          }
        }
      ],
      "certificateStartDate": "2004-07-09",
      "certificateEndDate": "2004-12-28",
      "object": "LA REALIZACION DE TODO TIPO DE TRABAJOS Y PRESTACION DE SERVICIOS CON TECNICAS Y SISTEMAS DE INFORMATICA APLICADOS A ACTIVIDADES DE TODO TIPO DE ENTIDADES PUBLICAS O PRIVADAS",
      "mainEntityOfPage": "https://www.contratacion.euskadi.eus/webkpe00-kperoc/es/ac71aBusquedaRegistrosWar/empresa/00436",
      "_links": {
        "self": {
          "name": "TASAI, S.A.",
          "href": "https://api.euskadi.eus/procurements/companies/00436"
        }
      }
    },
    {
      "name": "BIDEXPRESS, S.A.",
      "registrationNumber": "02460",
      "identificationNumber": "A48657357",
      "address": "VIRGEN DE BEGOÑA, 20",
      "location": {
        "postalCode": "48006",
        "municipality": "Bilbao",
        "county": "Bizkaia",
        "municipalityId": "020",
        "countyId": "48"
      },
      "economicActivities": [
        {
          "id": "1.756",
          "name": "Intermediarios del transporte",
          "_links": {
            "self": {
              "name": "Intermediarios del transporte",
              "href": "https://api.euskadi.eus/procurements/companies/economic-activities/1.756"
            }
          }
        }
      ],
      "certificateStartDate": "2004-07-09",
      "certificateEndDate": "2003-03-20",
      "object": "LA EXPLOTACIÓN DEL NEGOCIO DE TRANSPORTE, EN ESPECIAL POR CARRETERA, Y AUXILIARES DEL TRANSPSORTE, DEPÓSITOS, CLASIFICACIÓN DE DOCUMENTOS Y MERCANCÍAS, TRASLADOS Y ALMACENAJES Y OTROS TRATAMIENTOS PREVIOS AL EFECTO DE MERCANCÍAS EN GENERAL\r\n\r\n ",
      "mainEntityOfPage": "https://www.contratacion.euskadi.eus/webkpe00-kperoc/es/ac71aBusquedaRegistrosWar/empresa/02460",
      "_links": {
        "self": {
          "name": "BIDEXPRESS, S.A.",
          "href": "https://api.euskadi.eus/procurements/companies/02460"
        }
      }
    },
    {
      "name": "EUROGINE, S.L.",
      "registrationNumber": "02867",
      "identificationNumber": "B59608919",
      "address": "ANTONIO GAUDÍ, 91-93",
      "location": {
        "postalCode": "08830",
        "municipality": "Sant Boi de Llobregat",
        "county": "Barcelona",
        "municipalityId": "200",
        "countyId": "08"
      },
      "economicActivities": [
        {
          "id": "1.392.1",
          "name": "Fabricación de material médico-quirúrgico",
          "_links": {
            "self": {
              "name": "Fabricación de material médico-quirúrgico",
              "href": "https://api.euskadi.eus/procurements/companies/economic-activities/1.392.1"
            }
          }
        }
      ],
      "certificateStartDate": "2004-07-07",
      "certificateEndDate": "2004-12-21",
      "object": "LA FABRICACIÓN, COMPRA, VENTA, DISTRIBUCIÓN, IMPORTACIÓN, EXPORTACIÓN Y COMERCIALIZACIÓN DE TODA CLASE DE APARATOS Y MATERIAL MÉDICO EN GENERAL, Y EN CONCRETO, DE AQUELLOS DESTINADOS AL CONTROL Y REGULACIÓN DE LA NATALIDAD, PESO Y CONTROL SANITARIO, EN GENERAL",
      "mainEntityOfPage": "https://www.contratacion.euskadi.eus/webkpe00-kperoc/es/ac71aBusquedaRegistrosWar/empresa/02867",
      "_links": {
        "self": {
          "name": "EUROGINE, S.L.",
          "href": "https://api.euskadi.eus/procurements/companies/02867"
        }
      }
    },
    {
      "name": "PACISA Y GIRALT, S.L.",
      "registrationNumber": "02158",
      "identificationNumber": "B82219791",
      "address": "C/ ARAGONESES, Nº 2",
      "location": {
        "postalCode": "28108",
        "municipality": "Alcobendas",
        "county": "Madrid",
        "municipalityId": "006",
        "countyId": "28"
      },
      "economicActivities": [
        {
          "id": "1.619.2",
          "name": "Venta al por mayor de aparatos e instrumentos médicos, ortopédicos, ópticos",
          "_links": {
            "self": {
              "name": "Venta al por mayor de aparatos e instrumentos médicos, ortopédicos, ópticos",
              "href": "https://api.euskadi.eus/procurements/companies/economic-activities/1.619.2"
            }
          }
        },
        {
          "id": "1.619.7",
          "name": "Venta al por mayor de instrumentos de precisión, medida y similares",
          "_links": {
            "self": {
              "name": "Venta al por mayor de instrumentos de precisión, medida y similares",
              "href": "https://api.euskadi.eus/procurements/companies/economic-activities/1.619.7"
            }
          }
        }
      ],
      "certificateStartDate": "2004-06-30",
      "certificateEndDate": "2004-10-30",
      "object": "LA COMERCIALIZACIÓN, IMPORTACIÓN, EXPORTACIÓN Y DISTRIBUCIÓN DE TODA CLASE DE APARATOS, INSTRUMENTOS Y PRODUCTOS DE TIPO CIENTÍFICO, INDUSTRIAL, MÉDICO, DE LABORATORIO, DE ANÁLISIS Y DE INVESTIGACIÓN",
      "mainEntityOfPage": "https://www.contratacion.euskadi.eus/webkpe00-kperoc/es/ac71aBusquedaRegistrosWar/empresa/02158",
      "_links": {
        "self": {
          "name": "PACISA Y GIRALT, S.L.",
          "href": "https://api.euskadi.eus/procurements/companies/02158"
        }
      }
    },
    {
      "name": "ALONSO Y GARAY, S.L. (ASIMAG)",
      "registrationNumber": "02519",
      "identificationNumber": "B48818868",
      "address": "ALDA. URQUIJO, 85. ENTREPLANTA",
      "location": {
        "postalCode": "48013",
        "municipality": "Bilbao",
        "county": "Bizkaia",
        "municipalityId": "020",
        "countyId": "48"
      },
      "economicActivities": [
        {
          "id": "1.846",
          "name": "Empresas de estudios de mercado",
          "_links": {
            "self": {
              "name": "Empresas de estudios de mercado",
              "href": "https://api.euskadi.eus/procurements/companies/economic-activities/1.846"
            }
          }
        },
        {
          "id": "1.932.1",
          "name": "Enseñanza de formación y perfeccionamiento profesional no superior",
          "_links": {
            "self": {
              "name": "Enseñanza de formación y perfeccionamiento profesional no superior",
              "href": "https://api.euskadi.eus/procurements/companies/economic-activities/1.932.1"
            }
          }
        },
        {
          "id": "1.967.2",
          "name": "Escuelas y servicios de perfeccionamiento del deporte",
          "_links": {
            "self": {
              "name": "Escuelas y servicios de perfeccionamiento del deporte",
              "href": "https://api.euskadi.eus/procurements/companies/economic-activities/1.967.2"
            }
          }
        }
      ],
      "certificateStartDate": "2004-06-28",
      "certificateEndDate": "2004-11-13",
      "object": "LA ENSEÑANZA FUERA DE ESTABLECIMIENTO PERMANENTE (CURSOS Y CLASES DE EMPRESAS)",
      "mainEntityOfPage": "https://www.contratacion.euskadi.eus/webkpe00-kperoc/es/ac71aBusquedaRegistrosWar/empresa/02519",
      "_links": {
        "self": {
          "name": "ALONSO Y GARAY, S.L. (ASIMAG)",
          "href": "https://api.euskadi.eus/procurements/companies/02519"
        }
      }
    },
    {
      "name": "ELKAR PROTEO, S.COOP.",
      "registrationNumber": "02690",
      "identificationNumber": "F48946636",
      "address": "RAMON Y CAJAL, 48 -1-D Y E",
      "location": {
        "postalCode": "48014",
        "municipality": "Bilbao",
        "county": "Bizkaia",
        "municipalityId": "020",
        "countyId": "48"
      },
      "economicActivities": [
        {
          "id": "1.922.1",
          "name": "Servicios de limpieza de interiores",
          "_links": {
            "self": {
              "name": "Servicios de limpieza de interiores",
              "href": "https://api.euskadi.eus/procurements/companies/economic-activities/1.922.1"
            }
          }
        },
        {
          "id": "1.934",
          "name": "Enseñanza fuera de establecimiento permanente",
          "_links": {
            "self": {
              "name": "Enseñanza fuera de establecimiento permanente",
              "href": "https://api.euskadi.eus/procurements/companies/economic-activities/1.934"
            }
          }
        }
      ],
      "certificateStartDate": "2004-06-28",
      "certificateEndDate": "2004-12-14",
      "object": "ES UNA EMPRESA DE INICIATIVA SOCIAL SIN ÁNIMO DE LUCRO, QUE PERSIGUE EL INTERÉS GENERAL DE LA COMUNIDAD PARA LA PROMOCIÓN Y PLENA INTEGRACIÓN A TRAVÉS DEL TRABAJO ASOCIADO DE LOS CIUDADANOS Y, EN PARTICULAR, DE LAS PERSONAS EXCLUIDAS DEL SISTEMA DE VIDA ECONÓMICO-SOCIAL,  MEDIANTE EL DESARROLLO DE LAS SIGUIENTES ACTIVIDADES: A) REALIZAR LABORES DE LIMPIEZA DE LOCALES Y EDIFICIOS, DESINFECCIÓN, DESRATIZACIÓN, DESISECTACIÓN Y LIMPIEZA DE CALLES. B) ENCARGARSE DE LA GESTIÓN DE COMUNIDADES DE VECINOS. C) REALIZAR LA PRESTACIÓN DE SERVICIOS DE PROXIMIDAD O DE ATENCIÓN A LA PERSONA: COMO LA ASISTENCIA DOMICILIARIA DE ANCIANOS, MENORES Y DISCAPACITADOS, ASÍ COMO LOS DEMÁS SERVICIOS DE ATENCIÓN A PERSONAS Y LA COLECTIVIDAD DERIVADOS DE LOS ANTERIORES. D) EJERCER LA GESTIÓN INTEGRAL O PARCIAL DE PROGRAMAS, SERVICIOS Y EQUIPAMIENTOS E INSTALACIONES EN EL ÁMBITO SEÑALADO EN EL PUNTO ANTERIOR, DESARROLLANDO LAS TAREAS DE GERENCIA, DIRECCIÓN, ANIMACIÓN, FORMACIÓN, ASESORAMIENTO TÉCNICO, CONSERJERÍA, ATENCIÓN AL PÚBLICO, VIGILANCIA, LIMPIEZA Y MANTENIMIENTO. E) LLEVAR A CABO LABORES DE JARDINERÍA Y RESTAURACIÓN DE INTERIORES Y EXTERIORES, MANTENIMIENTO DE ZONAS VERDES, RECUPERACIÓN DEL ENTORNO MEDIOAMBIENTAL, TRATAMIENTO Y RECICLAJE DE RESIDUOS, ENVASES Y EMBALAJES Y MANIPULADO DEL PAPEL CARTÓN. F )LA PRESTACIÓN DE SERVICIOS DE RECOGIDA, CUIDADO Y ATENCIÓN DE ANIMALES DOMÉSTICOS EN EL ENTORNO URBANO. G) RECOGIDA Y REPARTO DE MERCANCÍAS. H) REALIZACIÓN Y REPARACIONES Y REFORMAS, COORDINACIÓN DE GREMIOS PROFESIONALES Y FORMACIÓN TÉCNICA EN ACTIVIDADES COMO LA PINTURA, FONTANERÍA, ELECTRICIDAD, ALBAÑILERÍA Y ESCAYOLA. ",
      "mainEntityOfPage": "https://www.contratacion.euskadi.eus/webkpe00-kperoc/es/ac71aBusquedaRegistrosWar/empresa/02690",
      "_links": {
        "self": {
          "name": "ELKAR PROTEO, S.COOP.",
          "href": "https://api.euskadi.eus/procurements/companies/02690"
        }
      }
    },
    {
      "name": "CONSTRUCCIONES UBIRI, S.L.",
      "registrationNumber": "01263",
      "identificationNumber": "B20386223",
      "address": "NAFARROA KALEA, Nº 50.",
      "location": {
        "postalCode": "20800",
        "municipality": "Zarautz",
        "county": "Gipuzkoa",
        "municipalityId": "079",
        "countyId": "20"
      },
      "economicActivities": [
        {
          "id": "1.507",
          "name": "Construcción, reparación y conservación de toda clase obras",
          "_links": {
            "self": {
              "name": "Construcción, reparación y conservación de toda clase obras",
              "href": "https://api.euskadi.eus/procurements/companies/economic-activities/1.507"
            }
          }
        }
      ],
      "certificateStartDate": "2004-06-24",
      "certificateEndDate": "2004-12-10",
      "object": "LA PROMOCIÓN, CONSTRUCCIÓN Y EJECUCIÓN DE OBRAS PRIVADAS Y PÚBLICAS, TALES COMO OBRAS NUEVAS DE EDIFICACIÓN URBANA, INCLUSO DE PROTECCIÓN OFICIAL, DE PABELLONES INDUSTRIALES, TRABAJOS DE URBANIZACIÓN, DE CONSERVACIÓN, SANEAMIENTO, DE CONSTRUCCIÓN Y REPARACIÓN DE TODO TIPO DE VÍAS; OBRAS HIDRÁULICAS, ABASTECIMIENTOS DE AGUAS, DRAGADOS, EXCAVACIONES, OBRAS PORTUARIAS, COMPRAVENTA Y ARRIENDO DE TODO TIPO DE BIENES INMUEBLES, MUEBLES Y TERRENOS",
      "mainEntityOfPage": "https://www.contratacion.euskadi.eus/webkpe00-kperoc/es/ac71aBusquedaRegistrosWar/empresa/01263",
      "_links": {
        "self": {
          "name": "CONSTRUCCIONES UBIRI, S.L.",
          "href": "https://api.euskadi.eus/procurements/companies/01263"
        }
      }
    }
  ]
}