{
  "totalItems": 9042,
  "totalPages": 905,
  "currentPage": 648,
  "itemsOfPage": 10,
  "items": [
    {
      "name": "SORLUR CONSULTORES, S.L.",
      "registrationNumber": "02852",
      "identificationNumber": "B01188739",
      "address": "C/ CASTILLO DE LANTARÓN, 2",
      "location": {
        "postalCode": "01007",
        "municipality": "Vitoria-Gasteiz",
        "county": "Araba/Álava",
        "municipalityId": "059",
        "countyId": "01"
      },
      "economicActivities": [
        {
          "id": "1.843.4",
          "name": "Servicios técnicos de topografía",
          "_links": {
            "self": {
              "name": "Servicios técnicos de topografía",
              "href": "https://api.euskadi.eus/procurements/companies/economic-activities/1.843.4"
            }
          }
        }
      ],
      "certificateStartDate": "2016-07-05",
      "certificateEndDate": "2017-01-04",
      "object": "LA REALIZACIÓN DE TRABAJOS DE TOPOGRAFÍA, CARTOGRAFÍA, FOTOGRAMETRÍA, ASISTENCIA TÉCNICA EN OBRAS, EXPROPIACIONES Y VALORACIONES Y REALIZACIÓN DE PROYECTOS DE INGENIERÍA",
      "mainEntityOfPage": "https://www.contratacion.euskadi.eus/webkpe00-kperoc/es/ac71aBusquedaRegistrosWar/empresa/02852",
      "_links": {
        "self": {
          "name": "SORLUR CONSULTORES, S.L.",
          "href": "https://api.euskadi.eus/procurements/companies/02852"
        }
      }
    },
    {
      "name": "BULL (ESPAÑA) S.A.",
      "registrationNumber": "02816",
      "identificationNumber": "A78882404",
      "address": "C/ ALBARRACÍN, 25",
      "location": {
        "postalCode": "28037",
        "municipality": "Madrid",
        "county": "Madrid",
        "municipalityId": "079",
        "countyId": "28"
      },
      "economicActivities": [
        {
          "id": "1.504.1",
          "name": "Instalaciones eléctricas en general",
          "_links": {
            "self": {
              "name": "Instalaciones eléctricas en general",
              "href": "https://api.euskadi.eus/procurements/companies/economic-activities/1.504.1"
            }
          }
        },
        {
          "id": "1.615.4",
          "name": "Venta al por mayor de aparatos y material radioeléctrico y electrónico",
          "_links": {
            "self": {
              "name": "Venta al por mayor de aparatos y material radioeléctrico y electrónico",
              "href": "https://api.euskadi.eus/procurements/companies/economic-activities/1.615.4"
            }
          }
        },
        {
          "id": "1.699",
          "name": "Otras reparaciones n.c.o.p",
          "_links": {
            "self": {
              "name": "Otras reparaciones n.c.o.p",
              "href": "https://api.euskadi.eus/procurements/companies/economic-activities/1.699"
            }
          }
        },
        {
          "id": "1.843.1",
          "name": "Servicios técnicos de ingeniería",
          "_links": {
            "self": {
              "name": "Servicios técnicos de ingeniería",
              "href": "https://api.euskadi.eus/procurements/companies/economic-activities/1.843.1"
            }
          }
        },
        {
          "id": "1.845",
          "name": "Explotación electrónica por cuenta de terceros",
          "_links": {
            "self": {
              "name": "Explotación electrónica por cuenta de terceros",
              "href": "https://api.euskadi.eus/procurements/companies/economic-activities/1.845"
            }
          }
        },
        {
          "id": "1.853",
          "name": "Alquiler de maquinaria y equipo contable de oficina y cálculo",
          "_links": {
            "self": {
              "name": "Alquiler de maquinaria y equipo contable de oficina y cálculo",
              "href": "https://api.euskadi.eus/procurements/companies/economic-activities/1.853"
            }
          }
        }
      ],
      "certificateStartDate": "2016-06-29",
      "certificateEndDate": "2016-12-26",
      "object": "a) LA FABRICACIÓN, DISTRIBUCIÓN, COMPRA, VENTA, ARRENDAMIENTO, REPARACIÓN Y MANTENIMIENTO DE TODO TIPO DE MAQUINARIA Y EQUIPOS INFORMÁTICOS, SUS PIEZAS DE RECAMBIO, ACCESORIOS, DISPOSITIVOS Y COMPLEMENTOS RELATIVOS A ESTAS MÁQUINAS Y EQUIPOS. b) LA ELABORACIÓN Y DISTRIBUCIÓN DE PROGRAMAS INFORMÁTICOS (SOFTWARE) DE BASE Y DE APLICACIÓN. c) EL ASESORAMIENTO, ASISTENCIA TÉCNICA, FORMACIÓN E INGENIERÍA DE SISTEMAS EN EL SECTOR DE LA INFORMÁTICA. d) LA PRESTACIÓN DE SERVICIOS EN EL SECTOR DE LA INFORMÁTICA, INCLUYENDO LA EXPLOTACIÓN DE SISTEMAS INFORMÁTICOS POR CUENTA DE TERCEROS. e) EL SUMINISTRO DE PRODUCTOS Y SERVICIOS DE COMUNICACIÓN DE VOZ Y/O DATOS EN LAS REDES DE TELECOMUNICACIONES PÚBLICASY/O PRIVADAS. f) EL SUMINISTRO DE PRODUCTOS, SERVICIOS Y SOLUCIONES DE CERTIFICACIÓN ELECTRÓNICA. g) LA PRESTACIÓN DE SERVICIOS DE EVALUACIÓN Y CERTIFICACIÓN TECNOLÓGICA\r\n  ",
      "mainEntityOfPage": "https://www.contratacion.euskadi.eus/webkpe00-kperoc/es/ac71aBusquedaRegistrosWar/empresa/02816",
      "_links": {
        "self": {
          "name": "BULL (ESPAÑA) S.A.",
          "href": "https://api.euskadi.eus/procurements/companies/02816"
        }
      }
    },
    {
      "name": "EDURKO, S.L.",
      "registrationNumber": "01915",
      "identificationNumber": "B48564991",
      "address": "POL. INDUSTRIAL EL JUNCAL, MANZ. 10 - PAB. 3",
      "location": {
        "postalCode": "48510",
        "municipality": "Valle de Trápaga-Trapagaran",
        "county": "Bizkaia",
        "municipalityId": "080",
        "countyId": "48"
      },
      "economicActivities": [
        {
          "id": "1.501.1",
          "name": "Construcción completa, reparación y conservación de edificaciones",
          "_links": {
            "self": {
              "name": "Construcción completa, reparación y conservación de edificaciones",
              "href": "https://api.euskadi.eus/procurements/companies/economic-activities/1.501.1"
            }
          }
        },
        {
          "id": "1.501.2",
          "name": "Construcción completa, reparación y conservación obras civiles",
          "_links": {
            "self": {
              "name": "Construcción completa, reparación y conservación obras civiles",
              "href": "https://api.euskadi.eus/procurements/companies/economic-activities/1.501.2"
            }
          }
        }
      ],
      "certificateStartDate": "2016-06-28",
      "certificateEndDate": "2016-12-27",
      "object": "LA ACTIVIDAD DE PROMOCIÓN DE VIVIENDAS, CONSTRUCCIÓN COMPLETA, REPARACIÓN Y CONSERVACIÓN DE EDIFICIOS Y OBRAS PÚBLICAS, ESTUDIO Y REALIZACIÓN DE PROYECTOS URBANÍSTICOS, OBRAS NUEVAS DE EDIFICACIÓN URBANA, SANEAMIENTO, ABASTECIMIENTO DE AGUAS, EXCAVACIONES Y MOVIMIENTOS DE TIERRAS Y SIMILARES, TRABAJOS DE ALBAÑILERÍA, FONTANERÍA, ELECTRICIDAD, DECORACIÓN, DE EDIFICIOS Y LOCALES, ASÍ COMO LA ADQUISICIÓN, ENAJENACIÓN Y GRAVÁMEN DE BIENES INMUEBLES",
      "mainEntityOfPage": "https://www.contratacion.euskadi.eus/webkpe00-kperoc/es/ac71aBusquedaRegistrosWar/empresa/01915",
      "_links": {
        "self": {
          "name": "EDURKO, S.L.",
          "href": "https://api.euskadi.eus/procurements/companies/01915"
        }
      }
    },
    {
      "name": "PAISAIA, GESTIÓN Y ORDENACIÓN DEL PAISAJE, S.L.",
      "registrationNumber": "02988",
      "identificationNumber": "B20675757",
      "address": "DONOSTIA IBILBIDEA 76",
      "location": {
        "postalCode": "20115",
        "municipality": "Astigarraga",
        "county": "Gipuzkoa",
        "municipalityId": "903",
        "countyId": "20"
      },
      "economicActivities": [
        {
          "id": "1.849.9",
          "name": "Otros servicios independientes n.c.o.p",
          "_links": {
            "self": {
              "name": "Otros servicios independientes n.c.o.p",
              "href": "https://api.euskadi.eus/procurements/companies/economic-activities/1.849.9"
            }
          }
        }
      ],
      "certificateStartDate": "2016-06-22",
      "certificateEndDate": "2016-12-22",
      "object": "LA REALIZACIÓN DE ACTIVIDADES RELACIONADAS CON LA GESTIÓN Y ORDENACIÓN MEDIOAMBIENTAL",
      "mainEntityOfPage": "https://www.contratacion.euskadi.eus/webkpe00-kperoc/es/ac71aBusquedaRegistrosWar/empresa/02988",
      "_links": {
        "self": {
          "name": "PAISAIA, GESTIÓN Y ORDENACIÓN DEL PAISAJE, S.L.",
          "href": "https://api.euskadi.eus/procurements/companies/02988"
        }
      }
    },
    {
      "name": "TARTE, S.L.",
      "registrationNumber": "03243",
      "identificationNumber": "B20180899",
      "address": "INDUSTRIALDEA, 3",
      "location": {
        "postalCode": "20270",
        "municipality": "Anoeta",
        "county": "Gipuzkoa",
        "municipalityId": "010",
        "countyId": "20"
      },
      "economicActivities": [
        {
          "id": "1.504.3",
          "name": "Instalaciones de frío, calor y acondicionamiento de aire",
          "_links": {
            "self": {
              "name": "Instalaciones de frío, calor y acondicionamiento de aire",
              "href": "https://api.euskadi.eus/procurements/companies/economic-activities/1.504.3"
            }
          }
        }
      ],
      "certificateStartDate": "2016-06-21",
      "certificateEndDate": "2016-11-30",
      "object": "LA PROYECCIÓN Y EJECUCIÓN DE OBRAS E INSTALACIONES DE CLIMATIZACIÓN CALEFACCIÓN Y AGUA CALIENTE SANITARIA; LA PROYECCIÓN Y EJECUCIÓN DE INSTALACIONES FRIGORÍFICAS, DE FONTANERÍA Y SANITARIAS Y OTRAS MECÁNICAS SIN CUALIFICACIÓN ESPECÍFICA; LA PROYECCIÓN Y EJECUCIÓN DE INSTALACIONES ELECTRÓNICAS Y ELÉCTRICAS EN GENERAL.",
      "mainEntityOfPage": "https://www.contratacion.euskadi.eus/webkpe00-kperoc/es/ac71aBusquedaRegistrosWar/empresa/03243",
      "_links": {
        "self": {
          "name": "TARTE, S.L.",
          "href": "https://api.euskadi.eus/procurements/companies/03243"
        }
      }
    },
    {
      "name": "AZPIKARI, S.L.",
      "registrationNumber": "05515",
      "identificationNumber": "B75102558",
      "address": "Donostia Ibilbidea, 11 -behea",
      "location": {
        "postalCode": "20115",
        "municipality": "Astigarraga",
        "county": "Gipuzkoa",
        "municipalityId": "903",
        "countyId": "20"
      },
      "economicActivities": [
        {
          "id": "1.355.2",
          "name": "Edición de soportes grabados de sonido, vídeo y de informática",
          "_links": {
            "self": {
              "name": "Edición de soportes grabados de sonido, vídeo y de informática",
              "href": "https://api.euskadi.eus/procurements/companies/economic-activities/1.355.2"
            }
          }
        },
        {
          "id": "1.476.1",
          "name": "Edición de libros",
          "_links": {
            "self": {
              "name": "Edición de libros",
              "href": "https://api.euskadi.eus/procurements/companies/economic-activities/1.476.1"
            }
          }
        },
        {
          "id": "1.845",
          "name": "Explotación electrónica por cuenta de terceros",
          "_links": {
            "self": {
              "name": "Explotación electrónica por cuenta de terceros",
              "href": "https://api.euskadi.eus/procurements/companies/economic-activities/1.845"
            }
          }
        }
      ],
      "certificateStartDate": "2016-06-20",
      "certificateEndDate": "2016-11-26",
      "object": "LA PRESTACIÓN DE SERVICIOS DE INTERNET MEDIANTE, ENTRE OTROS, LA CREACIÓN DE PÁGINAS WEB, HOSTING DE PÁGINAS WEB, GESTIÓN DE DOMINIOS DE INTERNET, ORGANIZACIÓN Y GESTIÓN EN FOROS Y LISTAS DE CORREO ELECTRÓNICO. LA PRESTACIÓN DE SERVICIOS DE DISEÑO GRÁFICO, ABARCANDO LA ILUSTRACIÓN, IMAGEN CORPORATIVA, CREACIONES MULTIMEDIA, ANIMACIONES, PACKAGING, MAQUETACIÓN DE TODO TIPO DE PUBLICACIONES, GESTIÓN DE FOTOMECÁNICA E IMPRESIÓN, ASÍ COMO OTROS SOPORTES. LA REALIZACIÓN DE PRODUCCIONES DISCOGRÁFICAS, MULTIMEDIA, AUDIOVISUALES Y EDITORIALES. PRESTACIÓN DE SERVICIOS DE PUBLICIDAD, MEDIANTE ANUNCIOS, CARTELES, FOLLETOS, PELÍCULAS PUBLICITARIAS, ETC., TANTO EN SOPORTE ANALÓGICO  COMO DIGITAL, A TRAVÉS DE PRENSA, RADIO, TELEVISIÓN, INTERNET, PUBLICIDAD AÉREA U OTROS MEDIOS. CREACIÓN Y DIFUSIÓN DE ANUNCIOS O CAMPAÑAS DE INFORMACIÓN PUBLICITARIA, PROPAGANDA ELECTORAL, COMUNICACIÓN INSTITUCIONAL O PÚBLICA E IMAGEN CORPORATIVA. PRESTACIÓN DE SERVICIOS DE TODO TIPO DE CONSULTORÍA Y EN ESPECIAL CONSULTORÍA SOBRE INFORMÁTICA, TELEMÁTICA, HARDWARE Y SOFTWARE, INTERNET Y EL COMERCIO ELECTRÓNICO. COMPRAVENTA AL POR MAYOR Y AL POR MENOR DE APARATOS, PROGRAMAS Y ELEMENTOS INFORÁTICOS, ASÍ COMO CONSUMIBLES INFORMÁTICOS, PRENSA Y REVISTAS, MATERIAL DE DIBUJO Y DE PAPELERÍA Y MANUALIDADES, APARATOS TELEFÓNICOS Y DE TRANSMISIÓN DE DATOS. PRESTACIÓN DE SERVICIOS DE PROGRAMACIÓN Y MANTENIMIENTO INFORMÁTICO. REALIZACIÓN DE TODO TIPO DE INVESTIGACIONES Y ESTUDIOS DE MERCADO Y DE OPINIÓN SOBRE ACTITUDES, VALORES Y COMPORTAMIENTOS Y TODOS LOS QUE SEAN NECESARIOS PARA DISEÑAR Y EJECUTAR CAMPAÑAS DE PUBLICIDAD, PROPAGANDA, DIFUSIÓN Y RELACIONES PÚBLICAS, TANTO ANALÓGICAS COMO DIGITALES. Y PRESTACIÓN DE SERVICIOS A LAS EMPRSAS, PARTICULARES, ORGANISMOS, Y A TODO TIPO DE ENTIDADES DE: CONTABILIDAD, TENEDURÍA DE LIBROS, CENSURA DE CUENTAS, MATERIA FISCAL, ECONÓMICA Y FINANCIERA Y DE OTROS SERVICIOS INDEPENDIENTES DE ASESORÍA FISCAL Y CONTABLE. GESTIÓN, ALQUILER Y COMPRAVENTA DE BIENES INMUEBLES",
      "mainEntityOfPage": "https://www.contratacion.euskadi.eus/webkpe00-kperoc/es/ac71aBusquedaRegistrosWar/empresa/05515",
      "_links": {
        "self": {
          "name": "AZPIKARI, S.L.",
          "href": "https://api.euskadi.eus/procurements/companies/05515"
        }
      }
    },
    {
      "name": "INDUSTRIAS ELECTROMÉDICAS TARMA, S.A.",
      "registrationNumber": "01555",
      "identificationNumber": "A48101992",
      "address": "C/ ALAMEDA MAZARREDO, Nº 15 - 3ª PLANTA.",
      "location": {
        "postalCode": "48001",
        "municipality": "Bilbao",
        "county": "Bizkaia",
        "municipalityId": "020",
        "countyId": "48"
      },
      "economicActivities": [
        {
          "id": "1.352",
          "name": "Fabricación de aparatos y equipo electromédico y de uso profesional",
          "_links": {
            "self": {
              "name": "Fabricación de aparatos y equipo electromédico y de uso profesional",
              "href": "https://api.euskadi.eus/procurements/companies/economic-activities/1.352"
            }
          }
        },
        {
          "id": "1.619.2",
          "name": "Venta al por mayor de aparatos e instrumentos médicos, ortopédicos, ópticos",
          "_links": {
            "self": {
              "name": "Venta al por mayor de aparatos e instrumentos médicos, ortopédicos, ópticos",
              "href": "https://api.euskadi.eus/procurements/companies/economic-activities/1.619.2"
            }
          }
        }
      ],
      "certificateStartDate": "2016-06-14",
      "certificateEndDate": "2016-12-13",
      "object": "FABRICACIÓN Y COMERCIALIZACIÓN DE APARATOS, INSTRUMENTOS, INSTALACIONES Y SUMINISTROS MÉDICOS, ELECTROMÉDICOS, SANITARIOS, FAMACÉUTICOS Y DE LABORATORIO, ASÍ COMO TODA CLASE DE ACTIVIDADES INDUSTRIALES, MERCANTILES O DE SERVICIOS RELACIONADAS, DIRECTA O INDIRECTAMENTE, CON ELLAS, TALES COMO EL ALQUILER, MANTENIMIENTO, REPARACIÓN, IMPORTACIÓN Y EXPORTACIÓN, DISTRIBUCIÓN, REPRESENTACIÓN Y ALMACENAJE",
      "mainEntityOfPage": "https://www.contratacion.euskadi.eus/webkpe00-kperoc/es/ac71aBusquedaRegistrosWar/empresa/01555",
      "_links": {
        "self": {
          "name": "INDUSTRIAS ELECTROMÉDICAS TARMA, S.A.",
          "href": "https://api.euskadi.eus/procurements/companies/01555"
        }
      }
    },
    {
      "name": "CONNECTIS CONSULTING SERVICES, S.A.",
      "registrationNumber": "03055",
      "identificationNumber": "A83083816",
      "address": "VÍA DE LOS POBLADOS, 3 (PARQ. EMPR. CRISTALIA, EDIF. 5 - 6º)",
      "location": {
        "postalCode": "28033",
        "municipality": "Madrid",
        "county": "Madrid",
        "municipalityId": "079",
        "countyId": "28"
      },
      "economicActivities": [
        {
          "id": "1.615.4",
          "name": "Venta al por mayor de aparatos y material radioeléctrico y electrónico",
          "_links": {
            "self": {
              "name": "Venta al por mayor de aparatos y material radioeléctrico y electrónico",
              "href": "https://api.euskadi.eus/procurements/companies/economic-activities/1.615.4"
            }
          }
        },
        {
          "id": "1.845",
          "name": "Explotación electrónica por cuenta de terceros",
          "_links": {
            "self": {
              "name": "Explotación electrónica por cuenta de terceros",
              "href": "https://api.euskadi.eus/procurements/companies/economic-activities/1.845"
            }
          }
        }
      ],
      "certificateStartDate": "2016-06-14",
      "certificateEndDate": "2015-12-17",
      "object": "A) LA FABRICACIÓN, DISTRIBUCIÓN, COMPRA, VENTA, ARRENDAMIENTO, REPARACIÓN Y MANTENIMIENTO DE TODO TIPO DE MAQUINARIA Y EQUIPOS INFORMÁTICOS, SUS PIEZAS DE RECAMBIO, ACCESORIOS, DISPOSITIVOS Y COMPLEMENTOS RELATIVOS A ESTAS MÁQUINAS Y EQUIPOS. B) LA ELABORACIÓN Y DISTRIBUCION DE PROGRAMAS INFORMÁTICOS (SOFTWARE) DE BASE Y DE APLICACIÓN. C) EL ASESORAMIENTO, ASISTENCIA TÉCNICA, FORMACIÓN E INGENIERÍA DE SISTEMAS EN EL SECTOR DE LA INFORMÁTICA. D) LA  PRESTACIÓN DE SERVICIOS EN EL SECTOR  DE LA INFORMÁTICA, INCLUYENDO LA EXPLOTACIÓN DE SISTEMAS INFORMÁTICOS POR CUENTA DE TERCEROS",
      "mainEntityOfPage": "https://www.contratacion.euskadi.eus/webkpe00-kperoc/es/ac71aBusquedaRegistrosWar/empresa/03055",
      "_links": {
        "self": {
          "name": "CONNECTIS CONSULTING SERVICES, S.A.",
          "href": "https://api.euskadi.eus/procurements/companies/03055"
        }
      }
    },
    {
      "name": "VÍAS Y CONSTRUCCIONES, S.A.",
      "registrationNumber": "00038",
      "identificationNumber": "A28017986",
      "address": "C/ ORENSE, Nº 11.-4ª planta",
      "location": {
        "postalCode": "28020",
        "municipality": "Madrid",
        "county": "Madrid",
        "municipalityId": "079",
        "countyId": "28"
      },
      "economicActivities": [
        {
          "id": "1.507",
          "name": "Construcción, reparación y conservación de toda clase obras",
          "_links": {
            "self": {
              "name": "Construcción, reparación y conservación de toda clase obras",
              "href": "https://api.euskadi.eus/procurements/companies/economic-activities/1.507"
            }
          }
        }
      ],
      "certificateStartDate": "2016-06-13",
      "certificateEndDate": "2016-12-01",
      "object": "LA CONTRATACIÓN Y EJECUCIÓN DE TODA CLASE DE OBRAS Y CONSTRUCCIONES EN SU MÁS AMPLIO SENTIDO, TANTO PÚBLICAS COMO PRIVADAS Y EN PARTICULAR DE LAS OBRAS DE CONSTRUCCIÓN, CONSERVACIÓN Y RENOVACIÓN DE VÍAS FÉRREAS. LA EXPLOTACIÓN DE MINAS Y CANTERAS Y LA COMERCIALIZACIÓN DE SUS PRODUCTOS. PROMOCIÓN, GESTIÓN Y EJECUCIÓN DE TODO TIPO DE NEGOCIOS INMOBILIARIOS, TANTO EN SU VERTIENTE URBANÍSTICA COMO DE LA CONSTRUCCIÓN EN SÍ, PARA SU EXPLOTACIÓN, VENTA O ALQUILER. MANTENIMIENTO, REHABILITACIÓN Y ACONDICIONAMIENTO DE EDIFICIOS. LA ADQUISICIÓN, ADMINISTRACIÓN Y GESTIÓN, PROMOCIÓN, EXPLOTACIÓN EN ARRENDAMIENTO O EN CUALQUIER OTRA FORMA, CONSTRUCCIÓN, COMPRA Y VENTA DE TODA CLASE DE BIENES INMUEBLES. LA ELABORACIÓN DE TODO TIPO DE PROYECTOS DE INGENIERÍA Y ARQUITECTURA, ASÍ COMO LA SUPERVISIÓN, DIRECCIÓN Y ASESORAMIENTO EN LA EJECUCIÓN DE TODO TIPO DE OBRAS Y CONSTRUCCIONES. ADQUISICIÓN, EXPLOTACIÓN EN CUALQUIER FORMA, COMERCIALIZACIÓN, CESIÓN Y ENAJENACIÓN DE TODO TIPO DE PROPIEDAD INTELECTUAL Y PATENTES Y DEMÁS MODALIDADES DE PROPIEDAD INDUSTRIAL. LA FABRICACIÓN, COMPRA, VENTA, IMPORTACIÓN, EXPORTACIÓN Y DISTRIBUCIÓN DE MÁQUINAS, APARATOS Y ELEMENTOS NECESARIOS PARA LOS ANTERIORES OBJETOS. LA GESTIÓN, EXPLOTACIÓN, ADMINISTRACIÓN, MANTENIMIENTO, CONSERVACIÓN, REHABILITACIÓN Y ACONDICIONAMIENTO DE TODO TIPO DE CONCESIONES, EN SU MÁS AMPLIO SENTIDO Y LA PARTICIPACIÓN ACCIONARIAL EN SOCIEDADES CONCESIONARIAS DE AQUELLAS",
      "mainEntityOfPage": "https://www.contratacion.euskadi.eus/webkpe00-kperoc/es/ac71aBusquedaRegistrosWar/empresa/00038",
      "_links": {
        "self": {
          "name": "VÍAS Y CONSTRUCCIONES, S.A.",
          "href": "https://api.euskadi.eus/procurements/companies/00038"
        }
      }
    },
    {
      "name": "DEPÓSITO DENTAL CORREA, S.L.",
      "registrationNumber": "01377",
      "identificationNumber": "B20436556",
      "address": "C/ NUEVA, Nº 2 - BAJO.",
      "location": {
        "postalCode": "20001",
        "municipality": "Donostia / San Sebastián",
        "county": "Gipuzkoa",
        "municipalityId": "069",
        "countyId": "20"
      },
      "economicActivities": [
        {
          "id": "1.619.2",
          "name": "Venta al por mayor de aparatos e instrumentos médicos, ortopédicos, ópticos",
          "_links": {
            "self": {
              "name": "Venta al por mayor de aparatos e instrumentos médicos, ortopédicos, ópticos",
              "href": "https://api.euskadi.eus/procurements/companies/economic-activities/1.619.2"
            }
          }
        }
      ],
      "certificateStartDate": "2016-06-13",
      "certificateEndDate": "2016-12-07",
      "object": "LA EXPLOTACIÓN DE UN NEGOCIO DE VENTA, COMERCIALIZACIÓN, IMPORTACIÓN Y DISTRIBUCIÓN DE ARTÍCULOS MÉDICOS EN GENERAL Y ARTÍCULOS DENTALES EN ESPECIAL",
      "mainEntityOfPage": "https://www.contratacion.euskadi.eus/webkpe00-kperoc/es/ac71aBusquedaRegistrosWar/empresa/01377",
      "_links": {
        "self": {
          "name": "DEPÓSITO DENTAL CORREA, S.L.",
          "href": "https://api.euskadi.eus/procurements/companies/01377"
        }
      }
    }
  ]
}