{
  "totalItems": 9042,
  "totalPages": 905,
  "currentPage": 405,
  "itemsOfPage": 10,
  "items": [
    {
      "name": "SERRANO APLICACION DE PINTURAS, S.L.",
      "registrationNumber": "08567",
      "identificationNumber": "B26565820",
      "address": "Av. de Navarra 12, 1ºA  ",
      "location": {
        "postalCode": "26001",
        "municipality": "Logroño",
        "county": "Rioja, La",
        "municipalityId": "089",
        "countyId": "26"
      },
      "economicActivities": [
        {
          "id": "1.505.6",
          "name": "Pintura, revestimientos y terminación y decoración de locales",
          "_links": {
            "self": {
              "name": "Pintura, revestimientos y terminación y decoración de locales",
              "href": "https://api.euskadi.eus/procurements/companies/economic-activities/1.505.6"
            }
          }
        }
      ],
      "certificateStartDate": "2024-07-31",
      "certificateEndDate": "2025-01-31",
      "object": "APLICACIÓN DE PINTURA DECORATIVA Y DE PINTURA INDUSTRIAL, CHORRO DE ARENA, RECUBRIMIENTOS DE POLIUREA, APLICACIÓN DE PINTURAS Y REVESTIMIENTOS DE PROTECCIÓN SOBRE TODO TIPO DE SUPERFICIES, APLICACIÓN DE PINTURA INTUMESCENTE. TRATAMIENTO ANTICORROSIVO. MANTENIMIENTO, REVESTIMIENTO DE TUBERÍAS, OBRAS CIVILES, PRUEBAS HIDROSTÁTICAS, AISLAMIENTOS TÉRMICOS Y TODO LO RELACIONADO CON LA CONSTRUCCIÓN DE GASODUCTOS, OLEODUCTOS Y ELÉCTRICAS. ACRISTALAMIENTO, REVESTIMIENTOS DE PAPEL. REVESTIMIENTOS DE TEJIDOS.  REVESTIMIENTOS DE PLÁSTICOS. TERMINACIÓN Y DECORACIÓN DE EDIFICIOS Y LOCALES. ESTUDIO POR CUENTA PROPIA O AJENA DE OBRAS PRIVADAS. DECORACIÓN, TERMINACIÓN DE EDIFICIOS, ROTULACIÓN, PINTURA EXTERIOR E INTERIOR DE EDIFICIO Y OBRAS CIVILES. LA ADQUISICIÓN, DISPOSICIÓN, APLICACIÓN Y EXPLOTACIÓN DE PINTURAS, BARNICES, REVESTIMIENTOS, METALIZACIONES Y, EN GENERAL, MATERIALES DE CONSTRUCCIÓN. LA FABRICACIÓN, INSTALACIÓN, ENSAMBLAJE, MONTAJE, SUMINISTRO, MANTENIMIENTO Y COMERCIALIZACIÓN DE TODA CLASE DE PRODUCTOS Y ELEMENTOS PROPIOS O DERIVADOS DEL HORMIGÓN, CERÁMICAS, RESINAS, BARNICES, PINTURAS, PLÁSTICO O MATERIAL SINTÉTICO. CUALQUIER ACTIVIDAD RELACIONADA CON LA PINTURA Y DECORACIÓN, CON INCLUSIÓN DEL ALMACENAMIENTO, DISTRIBUCIÓN, COMERCIALIZACIÓN Y VENTA DE PRODUCTOS Y MAQUINARIA PROPIOS DE LA ACTIVIDAD. ALBAÑILERÍA, CONSTRUCCIÓN Y OBRA CIVIL EN GENERAL. CONSTRUCCIÓN Y VENTA A TERCEROS DE VIVIENDAS, LOCALES, NAVES, PABELLONES, GARAJES, TRASTEROS, Y SIMILARES. ALQUILER A TERCEROS DE LOS BIENES MUEBLES Y/O INMUEBLES PROPIEDAD DE LA SOCIEDAD, O CUYA GESTIÓN LE HAYA SIDO ENCARGADA POR SU TITULAR.",
      "mainEntityOfPage": "https://www.contratacion.euskadi.eus/webkpe00-kperoc/es/ac71aBusquedaRegistrosWar/empresa/08567",
      "_links": {
        "self": {
          "name": "SERRANO APLICACION DE PINTURAS, S.L.",
          "href": "https://api.euskadi.eus/procurements/companies/08567"
        }
      }
    },
    {
      "name": "MIKEL ARRIZABALAGA MAZARICO",
      "registrationNumber": "09755",
      "identificationNumber": "44132192E",
      "address": "EASO 21 6º IZDA",
      "location": {
        "postalCode": "20006",
        "municipality": "Donostia / San Sebastián",
        "county": "Gipuzkoa",
        "municipalityId": "069",
        "countyId": "20"
      },
      "economicActivities": [
        {
          "id": "2.826",
          "name": "Personal docente de enseñanzas diversas",
          "_links": {
            "self": {
              "name": "Personal docente de enseñanzas diversas",
              "href": "https://api.euskadi.eus/procurements/companies/economic-activities/2.826"
            }
          }
        }
      ],
      "certificateStartDate": "2024-07-31",
      "certificateEndDate": "2025-01-31",
      "object": "PERSONAL DOCENTE DE ENSEÑANZAS DIVERSAS",
      "mainEntityOfPage": "https://www.contratacion.euskadi.eus/webkpe00-kperoc/es/ac71aBusquedaRegistrosWar/empresa/09755",
      "_links": {
        "self": {
          "name": "MIKEL ARRIZABALAGA MAZARICO",
          "href": "https://api.euskadi.eus/procurements/companies/09755"
        }
      }
    },
    {
      "name": "SANTIAGO NOAIN MAURA",
      "registrationNumber": "09751",
      "identificationNumber": "15259775B",
      "address": "nagusia 4 bajo 20280",
      "location": {
        "postalCode": "20280",
        "municipality": "Hondarribia",
        "county": "Gipuzkoa",
        "municipalityId": "036",
        "countyId": "20"
      },
      "economicActivities": [
        {
          "id": "2.411",
          "name": "Arquitectos",
          "_links": {
            "self": {
              "name": "Arquitectos",
              "href": "https://api.euskadi.eus/procurements/companies/economic-activities/2.411"
            }
          }
        },
        {
          "id": "2.861",
          "name": "Pintores, escultores, ceramistas, artesanos, artistas y similares",
          "_links": {
            "self": {
              "name": "Pintores, escultores, ceramistas, artesanos, artistas y similares",
              "href": "https://api.euskadi.eus/procurements/companies/economic-activities/2.861"
            }
          }
        }
      ],
      "certificateStartDate": "2024-07-31",
      "certificateEndDate": "2024-12-28",
      "object": "ARQUITECTOS. PINTORES, ESCULTORES, CERAMISTAS, ARTESANOS, ARTISTAS Y SIMILARES.",
      "mainEntityOfPage": "https://www.contratacion.euskadi.eus/webkpe00-kperoc/es/ac71aBusquedaRegistrosWar/empresa/09751",
      "_links": {
        "self": {
          "name": "SANTIAGO NOAIN MAURA",
          "href": "https://api.euskadi.eus/procurements/companies/09751"
        }
      }
    },
    {
      "name": "SERVICIOS DE COLABORACIÓN INTEGRAL, S.L.",
      "registrationNumber": "03937",
      "identificationNumber": "B96067400",
      "address": "C/ RIPA Nº7 PB",
      "location": {
        "postalCode": "48007",
        "municipality": "Bilbao",
        "county": "Bizkaia",
        "municipalityId": "020",
        "countyId": "48"
      },
      "economicActivities": [
        {
          "id": "1.849.1",
          "name": "Cobros de deudas y confección de facturas",
          "_links": {
            "self": {
              "name": "Cobros de deudas y confección de facturas",
              "href": "https://api.euskadi.eus/procurements/companies/economic-activities/1.849.1"
            }
          }
        }
      ],
      "certificateStartDate": "2024-07-31",
      "certificateEndDate": "2025-01-01",
      "object": "1.- LA ORGANIZACIÓN, GESTIÓN, Y RECAUDACIÓN DE TRIBUTOS, TANTO A NIVEL ESTATAL COMO MUNICIPAL Y AUTONÓMICO. COLABORACIÓN CON LAS ADMINISTRACIONES PÚBLICAS, PRINCIPALMENTE CON LAS MUNICIPALES, EN LA GESTIÓN DE INGRESOS Y RECURSOS PÚBLICOS DE CUALQUIER CLASE Y, ESPECIALMENTE, EN ACTUACIONES PROPIAS DE RECAUDACIÓN, EN PLAZO VOLUNTARIO O EN VÍA EJECUTIVA. TODO ELLO EN EL ÁMBITO DEL DERECHO PRIVADO, SIN MENOSCABO DE LA ACTUACIÓN PÚBLICA EN LA ESFERA DE LA GESTIÓN Y RECAUDACIÓN DE LOS RECURSOS ECONÓMICOS DE LAS ENTIDADES PÚBLICAS. 2.- EL ESTUDIO Y COMERCIALIZACIÓN DE TODO TIPO DE TRABAJOS, ESTUDIOS, PROYECTOS E INFORMES DE CUALESQUIERA MATERIAS DE ORDEN ECONÓMICO Y EMPRESARIAL Y LOS SERVICIOS DE ASESORAMIENTO Y ASISTENCIA TÉCNICA PARA ENTIDADES PÚBLICAS Y PRIVADAS. 3.- LOS SERVICIOS DE MENSAJERÍA, CORRESPONDENCIA Y DISTRIBUCIÓN. 4.- LOS SERVICIOS DE CAPTURA DE INFORMACIÓN POR MEDIOS ELECTRÓNICOS, INFORMÁTICOS Y TELEMÁTICOS. 5.- LOS SERVICIOS DE ASISTENCIA TÉCNICA PARA LA REDACCIÓN Y EJECUCIÓN DE PLANES DE REGULARIZACIÓN FISCAL DE IMPUESTOS SOBRE: CONSTRUCCIONES, INSTALACIONES, OBRAS, ACTIVIDADES ECONÓMICAS Y OTRAS FIGURAS IMPOSITIVAS. 6.- LA GESTIÓN INTEGRAL DEL SERVICIO DE AGUAS. 7.- Y LA VIGILANCIA, CONTROL Y REGULACIÓN DE LA UTILIZACIÓN DE LOS ESPACIOS RESERVADOS A ZONAS AZULES Y ESTACIONAMIENTOS REGULADOS EN EL USO POR LAS ORDENANZAS MUNICIPALES. EN TODO CASO: A/ QUEDAN EXCLUIDAS DEL OBJETO SOCIAL AQUELLAS ACTIVIDADES QUE POR LEY TIENEN UNA REGULACIÓN ESPECIAL; B/ SI LA LEY EXIGIERE PARA EL EJERCICIO DE LAS ACTIVIDADES INCLUIDAS EN EL OBJETO SOCIAL, ALGÚN TÍTULO PROFESIONAL, ÉSTAS DEBERÁN REALIZARSE POR MEDIO DE PERSONA QUE OSTENTE LA TITULACIÓN REQUERIDA.",
      "mainEntityOfPage": "https://www.contratacion.euskadi.eus/webkpe00-kperoc/es/ac71aBusquedaRegistrosWar/empresa/03937",
      "_links": {
        "self": {
          "name": "SERVICIOS DE COLABORACIÓN INTEGRAL, S.L.",
          "href": "https://api.euskadi.eus/procurements/companies/03937"
        }
      }
    },
    {
      "name": "CASA DE HERMANAS HOSPITALARIAS AITA MENNI",
      "registrationNumber": "02474",
      "identificationNumber": "R2000140J",
      "address": "Bº GESALIBAR, 15",
      "location": {
        "postalCode": "20509",
        "municipality": "Arrasate / Mondragón",
        "county": "Gipuzkoa",
        "municipalityId": "055",
        "countyId": "20"
      },
      "economicActivities": [
        {
          "id": "1.644.1",
          "name": "Venta al por menor de pan, pastelería, confitería y similares y de leche",
          "_links": {
            "self": {
              "name": "Venta al por menor de pan, pastelería, confitería y similares y de leche",
              "href": "https://api.euskadi.eus/procurements/companies/economic-activities/1.644.1"
            }
          }
        },
        {
          "id": "1.651.2",
          "name": "Venta al por menor de prendas de ropa para el vestido y tocado",
          "_links": {
            "self": {
              "name": "Venta al por menor de prendas de ropa para el vestido y tocado",
              "href": "https://api.euskadi.eus/procurements/companies/economic-activities/1.651.2"
            }
          }
        },
        {
          "id": "1.652.3",
          "name": "Venta al por menor de perfumería y cosmética y artículos de aseo personal",
          "_links": {
            "self": {
              "name": "Venta al por menor de perfumería y cosmética y artículos de aseo personal",
              "href": "https://api.euskadi.eus/procurements/companies/economic-activities/1.652.3"
            }
          }
        },
        {
          "id": "1.941.2",
          "name": "Hospitales especializados (quirúrgicos, maternidades, psiquiátricos)",
          "_links": {
            "self": {
              "name": "Hospitales especializados (quirúrgicos, maternidades, psiquiátricos)",
              "href": "https://api.euskadi.eus/procurements/companies/economic-activities/1.941.2"
            }
          }
        },
        {
          "id": "1.942.1",
          "name": "Consultorios médicos, centros de socorro sanitarios y urgencias",
          "_links": {
            "self": {
              "name": "Consultorios médicos, centros de socorro sanitarios y urgencias",
              "href": "https://api.euskadi.eus/procurements/companies/economic-activities/1.942.1"
            }
          }
        }
      ],
      "certificateStartDate": "2024-07-31",
      "certificateEndDate": "2025-01-29",
      "object": "EL EJERCICIO DE LA CARIDAD HOSPITALARIA, VIVIRLO EN ESTADO DE CONSAGRACIÓN RELIGIOSA, EN LA ASISTENCIA A LAS ENFERMAS PSÍQUICAS POBRES PREFERENTEMENTE, EL CUIDADO A LOS DISMINUÍDOS FÍSICOS Y PSÍQUICOS, SIN EXCLUIR OTRAS ACTIVIDADES QUE SEGÚN LOS PAÍSES Y TIEMPOS SEAN NECESARIOS PARA REALIZAR LA MISIÓN",
      "mainEntityOfPage": "https://www.contratacion.euskadi.eus/webkpe00-kperoc/es/ac71aBusquedaRegistrosWar/empresa/02474",
      "_links": {
        "self": {
          "name": "CASA DE HERMANAS HOSPITALARIAS AITA MENNI",
          "href": "https://api.euskadi.eus/procurements/companies/02474"
        }
      }
    },
    {
      "name": "GSTIONA KUDEAKETA, S.L.",
      "registrationNumber": "08909",
      "identificationNumber": "B01575026",
      "address": "OBISPO BALLESTER, Nº18, Bajo",
      "location": {
        "postalCode": "01002",
        "municipality": "Vitoria-Gasteiz",
        "county": "Araba/Álava",
        "municipalityId": "059",
        "countyId": "01"
      },
      "economicActivities": [
        {
          "id": "1.501.1",
          "name": "Construcción completa, reparación y conservación de edificaciones",
          "_links": {
            "self": {
              "name": "Construcción completa, reparación y conservación de edificaciones",
              "href": "https://api.euskadi.eus/procurements/companies/economic-activities/1.501.1"
            }
          }
        }
      ],
      "certificateStartDate": "2024-07-30",
      "certificateEndDate": "2025-01-30",
      "object": "LA ACTIVIDAD DE CONSTRUCCIÓN Y SERVICIOS INTEGRALES A LA EMPRESA RELACIONADOS CON LA CONSTRUCCIÓN.\n",
      "mainEntityOfPage": "https://www.contratacion.euskadi.eus/webkpe00-kperoc/es/ac71aBusquedaRegistrosWar/empresa/08909",
      "_links": {
        "self": {
          "name": "GSTIONA KUDEAKETA, S.L.",
          "href": "https://api.euskadi.eus/procurements/companies/08909"
        }
      }
    },
    {
      "name": "EUROPEAN AGENCY OF DIGITAL TRUST, S.L.",
      "registrationNumber": "09411",
      "identificationNumber": "B85626240",
      "address": "Mentrida, 6",
      "location": {
        "postalCode": "28043",
        "municipality": "Madrid",
        "county": "Madrid",
        "municipalityId": "079",
        "countyId": "28"
      },
      "economicActivities": [
        {
          "id": "1.843.9",
          "name": "Otros servicios técnicos n.c.o.p",
          "_links": {
            "self": {
              "name": "Otros servicios técnicos n.c.o.p",
              "href": "https://api.euskadi.eus/procurements/companies/economic-activities/1.843.9"
            }
          }
        },
        {
          "id": "1.845",
          "name": "Explotación electrónica por cuenta de terceros",
          "_links": {
            "self": {
              "name": "Explotación electrónica por cuenta de terceros",
              "href": "https://api.euskadi.eus/procurements/companies/economic-activities/1.845"
            }
          }
        }
      ],
      "certificateStartDate": "2024-07-30",
      "certificateEndDate": "2025-01-30",
      "object": "A).- LA PRESTACIÓN, TANTO A NIVEL NACIONAL COMO INTERNACIONAL, DE SERVICIOS DE DIGITALIZACIÓN CERTIFICADA, ENTENDIDA COMO LA DIGITALIZACIÓN ELECTRÓNICA DE DOCUMENTOS EN PAPEL QUE MANTIENE PLENO VALOR PROBATORIO. B).- LA PRESTACIÓN DE SERVICIOS RELACIONADOS CON LA CERTIFICACIÓN ELECTRÓNICA, LA FIRMA ELECTRÓNICA, LA FACTURA ELECTRÓNICA, LA CUSTODIA ELECTRÓNICA DE DOCUMENTOS, LA ADMINISTRACIÓN ELECTRÓNICA, LAS NOTIFICACIONES TELEMÁTICAS Y LA GESTIÓN DOCUMENTAL A NIVEL TANTO NACIONAL COMO INTERNACIONAL. C).- LA PRESTACIÓN DE SERVICIOS RELACIONADOS CON LA EDICIÓN, DIFUSIÓN, DISTRIBUCIÓN, COMERCIALIZACIÓN DE CONTENIDOS DIGITALES A NIVEL TANTO NACIONAL COMO INTERNACIONAL. D).- LA CONSULTORÍA, SOPORTE, DESARROLLO, EXPLOTACIÓN, DISTRIBUCIÓN Y VENTA DE PRODUCTOS, SERVICIOS Y SISTEMAS DE TECNOLOGÍAS DE LA INFORMACIÓN, DE CONTENIDOS DIGITALES Y DE GESTIÓN DE DOCUMENTOS. E).- EL ESTUDIO E INVESTIGACIÓN DE NUEVAS TECNOLOGÍAS APLICADAS AL ÁMBITO DE LA INFORMÁTICA Y LAS TELECOMUNICACIONES Y DE LA GESTIÓN DE DOCUMENTOS Y CONTENIDOS DIGITALES. F).- LA FORMACIÓN Y GESTIÓN DE PUBLICACIONES EN FORMATO PAPEL Y ELECTRÓNICO EN ASPECTOS RELACIONADOS CON LA FIRMA ELECTRÓNICA, LA GESTIÓN DOCUMENTAL, LOS CONTENIDOS DIGITALES Y LA SOCIEDAD DE LA INFORMACIÓN.",
      "mainEntityOfPage": "https://www.contratacion.euskadi.eus/webkpe00-kperoc/es/ac71aBusquedaRegistrosWar/empresa/09411",
      "_links": {
        "self": {
          "name": "EUROPEAN AGENCY OF DIGITAL TRUST, S.L.",
          "href": "https://api.euskadi.eus/procurements/companies/09411"
        }
      }
    },
    {
      "name": "DIRDIRA CONSULTORÍA, FORMACION, ORGANIZACIONES, S.L.",
      "registrationNumber": "07964",
      "identificationNumber": "B75161539",
      "address": "Plaza del Cedro 2",
      "location": {
        "postalCode": "20016",
        "municipality": "Donostia / San Sebastián",
        "county": "Gipuzkoa",
        "municipalityId": "069",
        "countyId": "20"
      },
      "economicActivities": [
        {
          "id": "1.847",
          "name": "Servicios de consultoría",
          "_links": {
            "self": {
              "name": "Servicios de consultoría",
              "href": "https://api.euskadi.eus/procurements/companies/economic-activities/1.847"
            }
          }
        },
        {
          "id": "1.934",
          "name": "Enseñanza fuera de establecimiento permanente",
          "_links": {
            "self": {
              "name": "Enseñanza fuera de establecimiento permanente",
              "href": "https://api.euskadi.eus/procurements/companies/economic-activities/1.934"
            }
          }
        }
      ],
      "certificateStartDate": "2024-07-30",
      "certificateEndDate": "2025-01-30",
      "object": "LA ACTUALIZACIÓN DE ESTAS ÁREAS: LA FORMACIÓN CONTINUA Y LA CAPACITACIÓN PROFESIONAL. EL ASESORAMIENTO, SUPERVISIÓN Y ENTRENAMIENTO A PERSONAS, GRUPO Y EQUIPOS EN DIFERENTES CONTEXTOS SOCIALES Y PROFESIONALES. POR ÚLTIMO, EL DESARROLLO, ESTUDIO E INVESTIGACIÓN EN LOS ÁMBITOS DE ORGANIZACIONES, INSTITUCIONES O ENTIDADES PÚBLICAS O PRIVADAS. LA SOCIEDAD DESARROLLARÁ SUS ACCIONES, PROPUESTAS Y PROYECTOS POR INICIATIVA PROPIA O CUANDO SEA REQUERIDA EN LOS ÁMBITOS EN QUE ES COMPETENTE.",
      "mainEntityOfPage": "https://www.contratacion.euskadi.eus/webkpe00-kperoc/es/ac71aBusquedaRegistrosWar/empresa/07964",
      "_links": {
        "self": {
          "name": "DIRDIRA CONSULTORÍA, FORMACION, ORGANIZACIONES, S.L.",
          "href": "https://api.euskadi.eus/procurements/companies/07964"
        }
      }
    },
    {
      "name": "TACKTELL DESIGN STUDIO, S.L.",
      "registrationNumber": "08912",
      "identificationNumber": "B95569018",
      "address": "Calle Gran Vía Don Diego López de Haro",
      "location": {
        "postalCode": "48011",
        "municipality": "Bilbao",
        "county": "Bizkaia",
        "municipalityId": "020",
        "countyId": "48"
      },
      "economicActivities": [
        {
          "id": "1.845",
          "name": "Explotación electrónica por cuenta de terceros",
          "_links": {
            "self": {
              "name": "Explotación electrónica por cuenta de terceros",
              "href": "https://api.euskadi.eus/procurements/companies/economic-activities/1.845"
            }
          }
        }
      ],
      "certificateStartDate": "2024-07-30",
      "certificateEndDate": "2025-01-30",
      "object": "EL ASESORAMIENTO, CONSULTORÍA, DISEÑO, DESARROLLO, EJECUCIÓN Y/O INTERMEDIACIÓN DE TODO TIPO DE ENTORNOS DIGITALES, PRESENCIA EN INTERNET Y PROMOCIONES COMERCIALES.",
      "mainEntityOfPage": "https://www.contratacion.euskadi.eus/webkpe00-kperoc/es/ac71aBusquedaRegistrosWar/empresa/08912",
      "_links": {
        "self": {
          "name": "TACKTELL DESIGN STUDIO, S.L.",
          "href": "https://api.euskadi.eus/procurements/companies/08912"
        }
      }
    },
    {
      "name": "PINTURAS ETXEBARRI, S.L.",
      "registrationNumber": "07604",
      "identificationNumber": "B95530655",
      "address": "C/ URIBARRIBARRI Nº6 BAJO",
      "location": {
        "postalCode": "48450",
        "municipality": "Etxebarri",
        "county": "Bizkaia",
        "municipalityId": "029",
        "countyId": "48"
      },
      "economicActivities": [
        {
          "id": "1.505.6",
          "name": "Pintura, revestimientos y terminación y decoración de locales",
          "_links": {
            "self": {
              "name": "Pintura, revestimientos y terminación y decoración de locales",
              "href": "https://api.euskadi.eus/procurements/companies/economic-activities/1.505.6"
            }
          }
        }
      ],
      "certificateStartDate": "2024-07-30",
      "certificateEndDate": "2025-01-30",
      "classification": [
        {
          "id": "O",
          "name": "Obras",
          "groups": [
            {
              "id": "K",
              "name": "ESPECIALES",
              "subgroups": [
                {
                  "id": "04",
                  "name": "Pinturas y metalizaciones",
                  "categories": [
                    {
                      "id": "2",
                      "name": "Desde 150.001 Hasta 360.000",
                      "_links": {
                        "self": {
                          "name": "Desde 150.001 Hasta 360.000",
                          "href": "https://api.euskadi.eus/procurements/companies/types/O/categories/2"
                        }
                      }
                    }
                  ],
                  "_links": {
                    "self": {
                      "name": "Pinturas y metalizaciones",
                      "href": "https://api.euskadi.eus/procurements/companies/types/O/groups/K/subgroups/04"
                    }
                  }
                }
              ],
              "_links": {
                "self": {
                  "name": "ESPECIALES",
                  "href": "https://api.euskadi.eus/procurements/companies/types/O/groups/K"
                }
              }
            }
          ],
          "_links": {
            "self": {
              "name": "Obras",
              "href": "https://api.euskadi.eus/procurements/companies/types/O"
            }
          }
        },
        {
          "id": "S",
          "name": "Servicios",
          "groups": [
            {
              "id": "O",
              "subgroups": [
                {
                  "id": "01",
                  "name": "Conservación y mantenimiento de edificios",
                  "categories": [
                    {
                      "id": "3",
                      "name": "Desde 300.001 Hasta 600.000",
                      "_links": {
                        "self": {
                          "name": "Desde 300.001 Hasta 600.000",
                          "href": "https://api.euskadi.eus/procurements/companies/types/S/categories/3"
                        }
                      }
                    }
                  ],
                  "_links": {
                    "self": {
                      "name": "Conservación y mantenimiento de edificios",
                      "href": "https://api.euskadi.eus/procurements/companies/types/S/groups/O/subgroups/01"
                    }
                  }
                }
              ],
              "_links": {
                "self": {
                  "href": "https://api.euskadi.eus/procurements/companies/types/S/groups/O"
                }
              }
            }
          ],
          "_links": {
            "self": {
              "name": "Servicios",
              "href": "https://api.euskadi.eus/procurements/companies/types/S"
            }
          }
        }
      ],
      "object": "TRABAJOS DE PINTURA DE CUALQUIER TIPO Y CLASE, REVESTIMIENTOS, Y DECORACIÓN DE EDIFICIOS Y LOCALES; ACABADO DE OBRAS DE CONSTRUCCIÓN, REPARACIÓN Y CONSERVACIÓN DE INMUEBLES. COMERCIALIZACIÓN MENOR O MAYOR DE PINTURAS, BARNICES, DISOLVENTES, PRODUCTOS PARA LA DECORACIÓN, ASÍ COMO TODO TIPO DE MATERIALES DE CONSTRUCCIÓN",
      "mainEntityOfPage": "https://www.contratacion.euskadi.eus/webkpe00-kperoc/es/ac71aBusquedaRegistrosWar/empresa/07604",
      "_links": {
        "self": {
          "name": "PINTURAS ETXEBARRI, S.L.",
          "href": "https://api.euskadi.eus/procurements/companies/07604"
        }
      }
    }
  ]
}