{
  "totalItems": 9042,
  "totalPages": 905,
  "currentPage": 682,
  "itemsOfPage": 10,
  "items": [
    {
      "name": "ARRIALAR, S.L.",
      "registrationNumber": "03695",
      "identificationNumber": "B01359256",
      "address": "C/ Perretagana, 4",
      "location": {
        "postalCode": "01015",
        "municipality": "Vitoria-Gasteiz",
        "county": "Araba/Álava",
        "municipalityId": "059",
        "countyId": "01"
      },
      "economicActivities": [
        {
          "id": "1.721.3",
          "name": "Transporte de viajeros por carretera",
          "_links": {
            "self": {
              "name": "Transporte de viajeros por carretera",
              "href": "https://api.euskadi.eus/procurements/companies/economic-activities/1.721.3"
            }
          }
        }
      ],
      "certificateStartDate": "2013-06-10",
      "certificateEndDate": "2013-11-20",
      "object": "A) EL TRANSPORTE DE VIAJEROS POR CARRETERA, EN SERVICIOS Y RUTAS TANTO NACIONALES COMO INTERNACIONES; B) LA CONSTRUCCIÓN, CONTRATACIÓN  Y SUBCONTRATACIÓN DE EDIFICIOS, BIEN LIBREMENTE O ACOGIÉNDOSE CUANDO PROCEDA A LAS LEYES DE PROTECCIÓN OFICIAL. LA COMPRAVENTA Y ARRIENDO NO FINANCIERO DE PISOS, APARTAMENTOS, LOCALES Y DEMÁS INMUEBLES E INSTALACIONES. C) LA PRESTACIÓN DE SERVICIOS DE ASESORAMIENTO EN MATERIA TURÍSTICA; D) LA ORGANIZACIÓN Y GESTIÓN DE PROYECTOS TURÍSTICOS DE CUALQUIER ÍNDOLE; E) LA REALIZACIÓN DE VISITAS DE INTERÉS TURÍSTICO; F) COORDINACIÓN EN LA REALIZACIÓN DE MATERIALES EN DISTINTOS SOPORTES DE PROMOCIÓN EN LOS DISTINTOS ÁMBITOS DE LA ACTIVIDAD TURÍSTICA; G) EL DISEÑO Y ORGANIZACIÓN DE EVENTOS DE CUALQUIER TIPO, EVENTOS CORPORATIVOS, PRESENTACIONES, ACTOS DE PROMOCIÓN, CONVENCIONES, VIAJES DE INCENTIVO; H) CONSULTING; I) Y PARTICIPAR EN OTRAS SOCIEDADES, A TRAVÉS DE LAS CUALES PUEDA DESARROLLAR EL ANTERIOR OBJETO. SI LAS DISPOSICIONES LEGALES EXIGIERAN PARA EL EJERCICIO DE ALGUNA DE DICHAS ACTIVIDADES ALGÚN TÍTULO PROFESIONAL, AUTORIZACIÓN ADMINISTRATIVA O INSCRIPCIÓN EN ALGÚN REGISTRO ADMINISTRATIVO, LAS CITADAS ACTIVIDADES SE REALIZARÁN POR MEDIO DE PERSONA QUE OSTENTE EL TÍTULO EXIGIDO Y, EN SU CASO, NO OPODRÁN INICIARSE EN TANTO NO SE HAYAN CUMPLIDO LOS PERTINENTES REQUISITOS DE CARÁCTER ADMINISTRATIVO",
      "mainEntityOfPage": "https://www.contratacion.euskadi.eus/webkpe00-kperoc/es/ac71aBusquedaRegistrosWar/empresa/03695",
      "_links": {
        "self": {
          "name": "ARRIALAR, S.L.",
          "href": "https://api.euskadi.eus/procurements/companies/03695"
        }
      }
    },
    {
      "name": "LÁZARO CONSTRUCCIONES, EXCAVACIONES Y TRANSPORTES, S.L.",
      "registrationNumber": "04602",
      "identificationNumber": "B26168187",
      "address": "GONZALO DE BERCEO, 30, 1ºG",
      "location": {
        "postalCode": "26005",
        "municipality": "Logroño",
        "county": "Rioja, La",
        "municipalityId": "089",
        "countyId": "26"
      },
      "economicActivities": [
        {
          "id": "1.507",
          "name": "Construcción, reparación y conservación de toda clase obras",
          "_links": {
            "self": {
              "name": "Construcción, reparación y conservación de toda clase obras",
              "href": "https://api.euskadi.eus/procurements/companies/economic-activities/1.507"
            }
          }
        }
      ],
      "certificateStartDate": "2013-06-06",
      "certificateEndDate": "2013-11-22",
      "object": "LA CONSTRUCCION COMPLETA, REPARACIÓN Y CONSERVACIÓN DE EDIFICIOS Y OBRAS PÚBLICAS. COMPRAVENTA DE BIENES INMUEBLES. EL TRANSPORTE DE MERCANCIAS. COMPRA Y VENTA DE DE MATERIAL DE CONSTRUCCIÓN",
      "mainEntityOfPage": "https://www.contratacion.euskadi.eus/webkpe00-kperoc/es/ac71aBusquedaRegistrosWar/empresa/04602",
      "_links": {
        "self": {
          "name": "LÁZARO CONSTRUCCIONES, EXCAVACIONES Y TRANSPORTES, S.L.",
          "href": "https://api.euskadi.eus/procurements/companies/04602"
        }
      }
    },
    {
      "name": "JOSÉ IGNACIO ZABALA BERMEJO (COMERCIAL ARESTI)",
      "registrationNumber": "01726",
      "identificationNumber": "72385557A",
      "address": "C/ AVENIDA DEL FERROCARRIL, Nº 10.",
      "location": {
        "postalCode": "48012",
        "municipality": "Bilbao",
        "county": "Bizkaia",
        "municipalityId": "020",
        "countyId": "48"
      },
      "economicActivities": [
        {
          "id": "1.613.3",
          "name": "Venta al por mayor de prendas exteriores de vestir",
          "_links": {
            "self": {
              "name": "Venta al por mayor de prendas exteriores de vestir",
              "href": "https://api.euskadi.eus/procurements/companies/economic-activities/1.613.3"
            }
          }
        },
        {
          "id": "1.613.4",
          "name": "Venta al por mayor de calzado, peletería, artículos de cuero, marroquinería",
          "_links": {
            "self": {
              "name": "Venta al por mayor de calzado, peletería, artículos de cuero, marroquinería",
              "href": "https://api.euskadi.eus/procurements/companies/economic-activities/1.613.4"
            }
          }
        },
        {
          "id": "1.615.3",
          "name": "Venta al por mayor de aparatos electrodomésticos y ferretería",
          "_links": {
            "self": {
              "name": "Venta al por mayor de aparatos electrodomésticos y ferretería",
              "href": "https://api.euskadi.eus/procurements/companies/economic-activities/1.615.3"
            }
          }
        }
      ],
      "certificateStartDate": "2013-06-04",
      "certificateEndDate": "2013-10-25",
      "object": "COMERCIO AL POR MAYOR DE APARATOS ELECTRODOMÉSTICOS Y FERRETERÍA",
      "mainEntityOfPage": "https://www.contratacion.euskadi.eus/webkpe00-kperoc/es/ac71aBusquedaRegistrosWar/empresa/01726",
      "_links": {
        "self": {
          "name": "JOSÉ IGNACIO ZABALA BERMEJO (COMERCIAL ARESTI)",
          "href": "https://api.euskadi.eus/procurements/companies/01726"
        }
      }
    },
    {
      "name": "DISMÉDICA, S.A.",
      "registrationNumber": "00418",
      "identificationNumber": "A48257067",
      "address": "RIBERA DE EXPE, Nº 50 - EDIF.UDONDO",
      "location": {
        "postalCode": "48950",
        "municipality": "Erandio",
        "county": "Bizkaia",
        "municipalityId": "902",
        "countyId": "48"
      },
      "economicActivities": [
        {
          "id": "1.619.2",
          "name": "Venta al por mayor de aparatos e instrumentos médicos, ortopédicos, ópticos",
          "_links": {
            "self": {
              "name": "Venta al por mayor de aparatos e instrumentos médicos, ortopédicos, ópticos",
              "href": "https://api.euskadi.eus/procurements/companies/economic-activities/1.619.2"
            }
          }
        }
      ],
      "certificateStartDate": "2013-05-29",
      "certificateEndDate": "2013-11-14",
      "object": "LA FABRICACIÓN, IMPORTACIÓN, EXPORTACIÓN, COMERCIALIZACIÓN, AL POR MAYOR O AL POR MENOR DE ARTÍCULOS, APARATOS E INSTALACIONES MÉDICAS, Y CUALQUIER ACTIVIDAD QUE SEA COMPLEMENTARIA DE LAS MISMAS",
      "mainEntityOfPage": "https://www.contratacion.euskadi.eus/webkpe00-kperoc/es/ac71aBusquedaRegistrosWar/empresa/00418",
      "_links": {
        "self": {
          "name": "DISMÉDICA, S.A.",
          "href": "https://api.euskadi.eus/procurements/companies/00418"
        }
      }
    },
    {
      "name": "EXCAVACIONES MARGOIZA, S.L.",
      "registrationNumber": "02233",
      "identificationNumber": "B48842405",
      "address": "Bº URIBE, S/N",
      "location": {
        "postalCode": "48144",
        "municipality": "Zeanuri",
        "county": "Bizkaia",
        "municipalityId": "024",
        "countyId": "48"
      },
      "economicActivities": [
        {
          "id": "1.501.2",
          "name": "Construcción completa, reparación y conservación obras civiles",
          "_links": {
            "self": {
              "name": "Construcción completa, reparación y conservación obras civiles",
              "href": "https://api.euskadi.eus/procurements/companies/economic-activities/1.501.2"
            }
          }
        },
        {
          "id": "1.502.3",
          "name": "Consolidación y preparación de terrenos para la realización de obras civiles",
          "_links": {
            "self": {
              "name": "Consolidación y preparación de terrenos para la realización de obras civiles",
              "href": "https://api.euskadi.eus/procurements/companies/economic-activities/1.502.3"
            }
          }
        }
      ],
      "certificateStartDate": "2013-05-28",
      "certificateEndDate": "2013-11-27",
      "object": "LAS EXCAVACIONES, DEMOLICIONES, DERRIBOS, EXTRACCIONES, CONSOLIDACIÓN Y PREPARACIÓN DEL TERRENO, TRANSPORTE DE TIERRAS Y DE ÁRIDOS Y ALQUILER DE MAQUINARIA",
      "mainEntityOfPage": "https://www.contratacion.euskadi.eus/webkpe00-kperoc/es/ac71aBusquedaRegistrosWar/empresa/02233",
      "_links": {
        "self": {
          "name": "EXCAVACIONES MARGOIZA, S.L.",
          "href": "https://api.euskadi.eus/procurements/companies/02233"
        }
      }
    },
    {
      "name": "JUAN RAMÓN MERINO YÁÑEZ",
      "registrationNumber": "04987",
      "identificationNumber": "72716919G",
      "address": "BARRIO BERAZA,1 B - 1º DR",
      "location": {
        "postalCode": "48410",
        "municipality": "Orozko",
        "county": "Bizkaia",
        "municipalityId": "075",
        "countyId": "48"
      },
      "economicActivities": [
        {
          "id": "2.811",
          "name": "Profesionales que prestan servicios de limpieza",
          "_links": {
            "self": {
              "name": "Profesionales que prestan servicios de limpieza",
              "href": "https://api.euskadi.eus/procurements/companies/economic-activities/2.811"
            }
          }
        }
      ],
      "certificateStartDate": "2013-05-27",
      "certificateEndDate": "2013-11-17",
      "object": "SERVICIOS DE LIMPIEZA",
      "mainEntityOfPage": "https://www.contratacion.euskadi.eus/webkpe00-kperoc/es/ac71aBusquedaRegistrosWar/empresa/04987",
      "_links": {
        "self": {
          "name": "JUAN RAMÓN MERINO YÁÑEZ",
          "href": "https://api.euskadi.eus/procurements/companies/04987"
        }
      }
    },
    {
      "name": "CIS COMPAÑÍA INTEGRAL DE SEGURIDAD, S.A.",
      "registrationNumber": "04897",
      "identificationNumber": "A81808271",
      "address": "INFANTA MERCEDES, 61 - 1º B",
      "location": {
        "postalCode": "28020",
        "municipality": "Madrid",
        "county": "Madrid",
        "municipalityId": "079",
        "countyId": "28"
      },
      "economicActivities": [
        {
          "id": "1.849.4",
          "name": "Servicios de custodia, seguridad y protección",
          "_links": {
            "self": {
              "name": "Servicios de custodia, seguridad y protección",
              "href": "https://api.euskadi.eus/procurements/companies/economic-activities/1.849.4"
            }
          }
        }
      ],
      "certificateStartDate": "2013-05-22",
      "certificateEndDate": "2013-09-04",
      "object": "VIGILANCIA Y PROTECCIÓN DE BIENES, ESTABLECIMIENTOS, ESPECTÁCULOS, CERTÁMENES O CONVECCIONES. PROTECCIÓN DE PERSONAS DETERMINADAS, PREVIA LA AUTORIZACIÓN CORRESPONDIENTE. INSTALACIÓN Y MANTENIMIENTO DE APARATOS, DISPOSITIVOS Y SISTEMAS DE SEGURIDAD. PLANIFICACIÓN Y ASESORAMIENTO DE LAS ACTIVIDADES DE SEGURIDAD",
      "mainEntityOfPage": "https://www.contratacion.euskadi.eus/webkpe00-kperoc/es/ac71aBusquedaRegistrosWar/empresa/04897",
      "_links": {
        "self": {
          "name": "CIS COMPAÑÍA INTEGRAL DE SEGURIDAD, S.A.",
          "href": "https://api.euskadi.eus/procurements/companies/04897"
        }
      }
    },
    {
      "name": "CONSTRUCCIONES TRATI, S.L.",
      "registrationNumber": "01975",
      "identificationNumber": "B20406237",
      "address": "NABARRA-ONATZ KALEA, 3 - BAJO",
      "location": {
        "postalCode": "20115",
        "municipality": "Astigarraga",
        "county": "Gipuzkoa",
        "municipalityId": "903",
        "countyId": "20"
      },
      "economicActivities": [
        {
          "id": "1.501.1",
          "name": "Construcción completa, reparación y conservación de edificaciones",
          "_links": {
            "self": {
              "name": "Construcción completa, reparación y conservación de edificaciones",
              "href": "https://api.euskadi.eus/procurements/companies/economic-activities/1.501.1"
            }
          }
        },
        {
          "id": "1.501.2",
          "name": "Construcción completa, reparación y conservación obras civiles",
          "_links": {
            "self": {
              "name": "Construcción completa, reparación y conservación obras civiles",
              "href": "https://api.euskadi.eus/procurements/companies/economic-activities/1.501.2"
            }
          }
        }
      ],
      "certificateStartDate": "2013-05-20",
      "certificateEndDate": "2013-11-02",
      "object": "A) LA COMPRAVENTA Y EXPLOTACIÓN DE TODA CLASE DE FINCAS RÚSTICAS Y URBANAS; B) LA PARCELACIÓN DE FINCAS Y CREACIÓN DE URBANIZACIÓN Y LA ADQUISICIÓN Y ENAJENACIÓN POR CUALQUIER TÍTULO DE TERRENOS EDIFICACIONES Y FINCAS EN GENERAL, ASÍ COMO LA URBANIZACIÓN, CONSTRUCCIÓN ALQUIER Y ARRENDAMIENTO TANTO ACTIVO COMO PASIVO DE LOS MISMOS, YA SEA EN SU TOTAL O POR PARCELAS, PISOS O PLANTAS; C) PROMOCIÓN, CONSTRUCCIÓN, EXPLOTACIÓN EN FORMA DE VENTA O ARRIENDO, O CUALQUIER TIPO DE NEGOCIO JURÍDICO DE VIVIENDAS,  LOCALES, APARTAMENTOS, NAVES, EDIFICIOS COMERCIALES E INDUSTRIALES Y FINCAS DE TODAS LAS ESPECIES; E) CREACIÓN, PROMOCIÓN, DESARROLLO, EXPLOTACIÓN, ARRIENDO Y VENTA DE TODA CLASE DE INSTALACIONES COMERCIALES, INDUSTRIALES, DEPORTIVAS Y RECREATIVAS; F) LA REALIZACIÓN DE TODO TIPO DE DEMOLICIONES, DERRIBOS Y EXCAVACIONES",
      "mainEntityOfPage": "https://www.contratacion.euskadi.eus/webkpe00-kperoc/es/ac71aBusquedaRegistrosWar/empresa/01975",
      "_links": {
        "self": {
          "name": "CONSTRUCCIONES TRATI, S.L.",
          "href": "https://api.euskadi.eus/procurements/companies/01975"
        }
      }
    },
    {
      "name": "SERVICIOS TECNICOS REHABILITACION E INSTALACIONES  S.L.",
      "registrationNumber": "04237",
      "identificationNumber": "B95421756",
      "address": "GABRIEL ARESTI, Nº 38-10º A",
      "location": {
        "postalCode": "48004",
        "municipality": "Bilbao",
        "county": "Bizkaia",
        "municipalityId": "020",
        "countyId": "48"
      },
      "economicActivities": [
        {
          "id": "1.501.1",
          "name": "Construcción completa, reparación y conservación de edificaciones",
          "_links": {
            "self": {
              "name": "Construcción completa, reparación y conservación de edificaciones",
              "href": "https://api.euskadi.eus/procurements/companies/economic-activities/1.501.1"
            }
          }
        }
      ],
      "certificateStartDate": "2013-05-15",
      "certificateEndDate": "2013-11-14",
      "object": "A) LA PRESTACIÓN POR CUENTA PROPIA O AJENA DE SERVICIOS DE ASESORAMIENTO, ESTUDIO Y GESTIÓN A TODO TIPO DE EMPRESAS, BIEN SEAN PERSONAS INDIVIDUALES O JURÍDICAS, PÚBLICAS O PRIVADAS, EN MATERIA DE ORGANIZACIÓN, ESTRUCTURACIÓN, CONTABILIDAD, CONTROL, ESTUDIO FINANCIERO O ECONÓMICO, COMERCIALIZACIÓN, FABRICACIÓN, JURÍDICA, FISCAL, LABORAL, SOCIAL, CONTROL Y ANÁLISIS TÉCNICOS, INVESTIGACIONES OPERATIVAS, INGENIERÍA DE INSTALACIONES,PROCESOS, CONTROL Y ANÁLISIS CONTABLES YCUALQUIER OTRO TIPO DE ASESORAMIENTO O GESTIÓN EMPRESARIAL QUE SE DEMANDE. B)LA COMPRAVENTA, ARRENDAMIENTO NO FINANCIERO, ADMINISTRACIÓN Y GESTÓN DE TODO TIPO DE FINCAS Y TODO TIPO DE SERVICIOS INMOBILIARIOS, Y EN GENERAL, LA INTERMEDIACIÓN EN EL SECTOR INMOBILIARIA. C) LA PRESTACIÓN DE SERVICIOS A PARTICULARES O SOCIEDADES, CONSISTENTES EN TODOS LOS TRÁMITES NECESARIOS PARA LA OBTENCIÓN DE CRÉDITOS HIPOTECARIOS O DE OTRO TIPO, DE ENTIDADES FINANCIERAS, PARA LA ADQUISICIÓN DE INMUEBLES. D) LA INVESTIGACIÓN, ESTUDIO Y PLANEAMIENTO DE TODA CLASE DE PROYECTOS DE INVERSIÓN, TANTO EN LO QUE AFECTA A SU VIABILIDAD, COMO A TODAS SUS DIVERSAS FACETAS Y ASPECTOS, ASÍ COMO EL ESTUDIO, PROMOCIÓN Y DESARROLLO DE EMPRESAS INDUSTRIALES, COMERCIALES O DE SERVICIOS. E) LA ADQUISICIÓN, CESIÓN, TENENCIA, DISFRUTE, ADMINISTRACIÓN, GESTIÓN Y NEGOCIACIÓN EN GENERAL DE VALORES MOHBILIARIOS E INMUEBLES, PARTICIPACIONES SOCIALES O EN COPROPIEDAD DE TODA CLASE DE BIENES INMUEBLES. F) LA CONSTITUCIÓN, CON LA CONCURRENCIA DE OTRAS PERSONAS, DE TODA CLASE DE SOCIEDADES MERCANTILES, Y LA PARTICIPACIÓN EN OTRAS CONSTITUIDAS, PUDIENDOOSTENTAR EN TODAS ELLAS CARGOS DE ADMINISTRACIÓN, DIRECCIÓN O CONTROL MEDIANTE LA OPORTUNA DELEGACIÓN EN PERSONA FÍSICA. G) LA ADQUISICIÓN, USO, VENTA Y ENAJENACIÓN, POR CUALQUIER TÍTULO, DE FINCAS RÚSTICIAS Y URBANAS YA SEAN TIERRAS O SOLARES, SU PARCELACIÓN Y URBANIZACIÓN, PISOS, LOCALES, PABELLONES INDUSTRIALES O COMERCIALES, EDIFICACIONES DE TOD TIPO, ASÍ COMO LA PROMOCIÓN, CONSTRUCCIÓN O DERRIBO DE CUALQUIER TIPO DE EDIFICACIÓN DE LAS ANTES MENCIONADAS, Y LA TENENCIA, EXPLOTACIÓN Y ARRENDAMIENTO, YA SEA ACTIVO O PASIVO DE TALES BIENES Y SU VENTA TOTAL O PARCIAL, SEGÚN CONVENGA, ASÍ COMO LA PROMOCIÓN Y CONSTITUCIÓN DE COMUNIDADES DE PROPIETARIOS O DE CUALQUIER OTRA FORMA DE ASOCIACIÓ O SOCIEDAD CON FINES DE EDIFICACIÓN Y URBANIZACIÓN. H) EL ARRENDAMIENTO Y CUALQUIER OTRA FÓRMULA DE CESIÓN, USO O DISFRUTE QUE ABARQUE TODO O PARTE DE LOS EPÍGRAFES ANTERIORES. I) LA REALIZACIÓN DE TODO TIPO DE TRABAJOS DE JARDINERÍA, PLANTAS Y SIMIENTES, TANTO NATURAL COMO ARTIFICIAL",
      "mainEntityOfPage": "https://www.contratacion.euskadi.eus/webkpe00-kperoc/es/ac71aBusquedaRegistrosWar/empresa/04237",
      "_links": {
        "self": {
          "name": "SERVICIOS TECNICOS REHABILITACION E INSTALACIONES  S.L.",
          "href": "https://api.euskadi.eus/procurements/companies/04237"
        }
      }
    },
    {
      "name": "ATELEI ENGINEERING S.L.",
      "registrationNumber": "04980",
      "identificationNumber": "B75064154",
      "address": "Teileria 35",
      "location": {
        "postalCode": "20305",
        "municipality": "Irun",
        "county": "Gipuzkoa",
        "municipalityId": "045",
        "countyId": "20"
      },
      "economicActivities": [
        {
          "id": "1.936.9",
          "name": "Otras investigaciones científicas y técnicas n.c.o.p",
          "_links": {
            "self": {
              "name": "Otras investigaciones científicas y técnicas n.c.o.p",
              "href": "https://api.euskadi.eus/procurements/companies/economic-activities/1.936.9"
            }
          }
        }
      ],
      "certificateStartDate": "2013-05-14",
      "certificateEndDate": "2013-10-05",
      "object": "Asesoría y consultoría tecnológica\r\nDiseño electrónico\r\nDiseño de software\r\nDiseño mecatrónico y mecánico\r\nComercialización de productos propios y de terceros",
      "mainEntityOfPage": "https://www.contratacion.euskadi.eus/webkpe00-kperoc/es/ac71aBusquedaRegistrosWar/empresa/04980",
      "_links": {
        "self": {
          "name": "ATELEI ENGINEERING S.L.",
          "href": "https://api.euskadi.eus/procurements/companies/04980"
        }
      }
    }
  ]
}