{
  "totalItems": 9042,
  "totalPages": 905,
  "currentPage": 611,
  "itemsOfPage": 10,
  "items": [
    {
      "name": "SEMÁFORO RUIDO S.L.",
      "registrationNumber": "06243",
      "identificationNumber": "B95825683",
      "address": "Ezequiel Aguirre, 25, bajo derecha",
      "location": {
        "postalCode": "48930",
        "municipality": "Getxo",
        "county": "Bizkaia",
        "municipalityId": "044",
        "countyId": "48"
      },
      "economicActivities": [
        {
          "id": "1.505.4",
          "name": "Colocación y aislamiento fónicos, térmicos y acústicos",
          "_links": {
            "self": {
              "name": "Colocación y aislamiento fónicos, térmicos y acústicos",
              "href": "https://api.euskadi.eus/procurements/companies/economic-activities/1.505.4"
            }
          }
        },
        {
          "id": "1.615.3",
          "name": "Venta al por mayor de aparatos electrodomésticos y ferretería",
          "_links": {
            "self": {
              "name": "Venta al por mayor de aparatos electrodomésticos y ferretería",
              "href": "https://api.euskadi.eus/procurements/companies/economic-activities/1.615.3"
            }
          }
        },
        {
          "id": "1.934",
          "name": "Enseñanza fuera de establecimiento permanente",
          "_links": {
            "self": {
              "name": "Enseñanza fuera de establecimiento permanente",
              "href": "https://api.euskadi.eus/procurements/companies/economic-activities/1.934"
            }
          }
        }
      ],
      "certificateStartDate": "2019-05-20",
      "certificateEndDate": "2019-08-13",
      "object": "EL DESARROLLO DE LAS ACTIVIDADES CORRESPONDIENTES A LOS SIGUIENTES CÓDIGOS Y DESCRIPCIONES DE LA CLASIFICACIÓN NACIONAL DE ACTIVIDADES ECONÓMICAS: ACTIVIDAD PRINCIPAL: CNAE: 4791.COMERCIO AL POR MENOR POR CORRESPONDENCIA O INTERNET. OTRAS ACTIVIDADES:270.- FABRICACIÓN DE OTRO MATERIAL Y EQUIPO ELÉCTRICO.4121.- CONSTRUCCIÓN DE EDIFICIOS RESIDENCIALES. 4666.- COMERCIO AL POR MAYOR DE OTRA MAQUINARIA Y EQUIPO DE OFICINA. 4791.- ACTIVIDADES DE PROGRAMACIÓN INFORMÁTICA. 6311.- PROCESO DE DATOS, HOSTING Y ACTIVIDADES RELACIONADAS. 7022.- OTRAS ACTIVIDADES DE CONSULTORÍA DE GESTIÓN EMPRESARIAL. 7112.- SERVICIOS TÉCNICOS DE INGENIERÍA Y OTRAS ACTIVIDADES RELACIONADAS CON EL ASESORAMIENTO TÉCNICO. 7219.- OTRA INVESTIGACIÓN Y DESARROLLO EXPERIMENTAL EN CIENCIAS NATURALES Y TÉCNICAS. 8559.- OTRA EDUCACIÓN N.C.O.P.\r\n\r\n",
      "mainEntityOfPage": "https://www.contratacion.euskadi.eus/webkpe00-kperoc/es/ac71aBusquedaRegistrosWar/empresa/06243",
      "_links": {
        "self": {
          "name": "SEMÁFORO RUIDO S.L.",
          "href": "https://api.euskadi.eus/procurements/companies/06243"
        }
      }
    },
    {
      "name": "ZERBYTE INFORMATIKA ZERBITZUAK S.L.U.",
      "registrationNumber": "06229",
      "identificationNumber": "B95238127",
      "address": "KOLMENARES, 6 BAJO",
      "location": {
        "postalCode": "48280",
        "municipality": "Lekeitio",
        "county": "Bizkaia",
        "municipalityId": "057",
        "countyId": "48"
      },
      "economicActivities": [
        {
          "id": "1.659.2",
          "name": "Venta al por menor de muebles de oficina y máquinas y equipos de oficina",
          "_links": {
            "self": {
              "name": "Venta al por menor de muebles de oficina y máquinas y equipos de oficina",
              "href": "https://api.euskadi.eus/procurements/companies/economic-activities/1.659.2"
            }
          }
        }
      ],
      "certificateStartDate": "2019-05-17",
      "certificateEndDate": "2019-07-25",
      "object": "EL COMERCIO AL POR MENOR, CONSTRUCCIÓN E INSTALACIÓN DE EQUIPOS INFORMÁTICOS. COMERCIO AL POR MENOR DE MUEBLES Y MÁQUINAS DE OFICINA",
      "mainEntityOfPage": "https://www.contratacion.euskadi.eus/webkpe00-kperoc/es/ac71aBusquedaRegistrosWar/empresa/06229",
      "_links": {
        "self": {
          "name": "ZERBYTE INFORMATIKA ZERBITZUAK S.L.U.",
          "href": "https://api.euskadi.eus/procurements/companies/06229"
        }
      }
    },
    {
      "name": "ECM INGENIERIA AMBIENTAL SL",
      "registrationNumber": "06240",
      "identificationNumber": "B34246439",
      "address": "C/ CURTIDORES, 17",
      "location": {
        "postalCode": "34004",
        "municipality": "Palencia",
        "county": "Palencia",
        "municipalityId": "120",
        "countyId": "34"
      },
      "economicActivities": [
        {
          "id": "1.843.9",
          "name": "Otros servicios técnicos n.c.o.p",
          "_links": {
            "self": {
              "name": "Otros servicios técnicos n.c.o.p",
              "href": "https://api.euskadi.eus/procurements/companies/economic-activities/1.843.9"
            }
          }
        },
        {
          "id": "1.933.9",
          "name": "Otras actividades de enseñanza tales como idiomas, mecanografía",
          "_links": {
            "self": {
              "name": "Otras actividades de enseñanza tales como idiomas, mecanografía",
              "href": "https://api.euskadi.eus/procurements/companies/economic-activities/1.933.9"
            }
          }
        },
        {
          "id": "1.934",
          "name": "Enseñanza fuera de establecimiento permanente",
          "_links": {
            "self": {
              "name": "Enseñanza fuera de establecimiento permanente",
              "href": "https://api.euskadi.eus/procurements/companies/economic-activities/1.934"
            }
          }
        },
        {
          "id": "1.936",
          "name": "Investigación científica y técnica",
          "_links": {
            "self": {
              "name": "Investigación científica y técnica",
              "href": "https://api.euskadi.eus/procurements/companies/economic-activities/1.936"
            }
          }
        }
      ],
      "certificateStartDate": "2019-05-15",
      "certificateEndDate": "2019-07-22",
      "object": "LA REDACCIÓN DE PROYECTOS, ESTUDIOS Y LA REALIZACIÓN DE ASISTENCIAS TÉCNICAS DE CONSULTORÍA E INGENIERÍA PARA LA GESTIÓN DE ESPACIOS FORESTALES Y AGRÍCOLAS, PÚBLICOS Y PRIVADOS, ASÍ COMO EL ASESORAMIENTO TÉCNICO MEDIOAMBIENTAL. LAS ACTIVIDADES A DESARROLLAR EN RELACIÓN CON EL OBJETO SOCIAL SON LA ELABORACIÓN DE PLANES, PROGRAMAS, PROYECTOS, ESTUDIOS, MEMORIAS, INFORMES, DIAGNÓSTICOS Y PROPUESTAS Y LA PRESENTACIÓN DE ASESORAMIENTO TÉCNICO SOBRE: -ORDENACIÓN DE MONTES. - MICOLOGÍA. -INVESTIGACIÓN, DESARROLLO E INNOVACIÓN. -SELVICULTURA. -DASOMETRÍA. -INVENTARIACIÓN FORESTAL Y MEDIO AMBIENTAL.- CONSERVACIÓN Y MEJORA DE LOS BOSQUES. -GESTIÓN SILVOPASTORAL. -CAZA Y PESCA. -INCENDIOS FORESTALES. -VALORACIONES. -CONSERVACIÓN Y MEJORA DE ESPACIOS NATURALES, DE ESPECIES, DEL PAISAJE Y DE LA BIODIVERSIDAD. -REPOBLACIONES FORESTALES. -PLAGAS Y ENFERMEDADES FORESTALES. -VIVEROS.- INFRAESTRUCTURA RURAL. -ENERGÍAS RENOVABLES Y BIOENERGÍA. -EDUCACIÓN Y FORMACIÓN MEDIOAMBIENTAL. -HIDRÁULICA E HIDROLOGÍA. -RESTAURACIÓN MEDIOAMBIENTAL DE ESPACIOS DEGRADADOS. -PARQUES Y JARDINES. -USO RECREATIVO Y SOCIAL DE LOS BOSQUES. -CALIDAD AMBIENTAL. -GESTIÓN DE ESPECIES FAUNÍSTICAS. -IMPACTO AMBIENTAL. -GESTIÓN INTEGRAL DE PROYECTOS Y ACTUACIONES RELACIONADAS CON EL MEDIO AMBIENTE QUE INCLUYA LA TRAMITACIÓN DE AUTORIZACIONES Y LEGALIZACIÓN, ELABORACIÓN DE DOCUMENTOS TÉCNICOS, GESTIÓN DE LA FINANCIACIÓN, EJECUCIÓN DE LOS TRABAJOS Y CUALQUIER OTRO TRÁMITE NECESARIO PARA LA CONSECUCIÓN DEL PROYECTO. -Y CUALQUIER OTRA ACTIVIDAD TÉCNICA RELACIONADA CON EL MEDIO AMBIENTE Y LA GESTIÓN DEL MEDIO NATURAL QUE EL ÓRGANO DE ADMINISTRACIÓN DE LA EMPRESA CONSIDERE CONVENIENTE DESARROLLAR",
      "mainEntityOfPage": "https://www.contratacion.euskadi.eus/webkpe00-kperoc/es/ac71aBusquedaRegistrosWar/empresa/06240",
      "_links": {
        "self": {
          "name": "ECM INGENIERIA AMBIENTAL SL",
          "href": "https://api.euskadi.eus/procurements/companies/06240"
        }
      }
    },
    {
      "name": "GOISOLUTIONS S.L.",
      "registrationNumber": "06235",
      "identificationNumber": "B20898029",
      "address": "Osiñaga kalea 2, 1 ezkerra",
      "location": {
        "postalCode": "20500",
        "municipality": "Arrasate / Mondragón",
        "county": "Gipuzkoa",
        "municipalityId": "055",
        "countyId": "20"
      },
      "economicActivities": [
        {
          "id": "1.659.2",
          "name": "Venta al por menor de muebles de oficina y máquinas y equipos de oficina",
          "_links": {
            "self": {
              "name": "Venta al por menor de muebles de oficina y máquinas y equipos de oficina",
              "href": "https://api.euskadi.eus/procurements/companies/economic-activities/1.659.2"
            }
          }
        },
        {
          "id": "1.845",
          "name": "Explotación electrónica por cuenta de terceros",
          "_links": {
            "self": {
              "name": "Explotación electrónica por cuenta de terceros",
              "href": "https://api.euskadi.eus/procurements/companies/economic-activities/1.845"
            }
          }
        }
      ],
      "certificateStartDate": "2019-05-14",
      "certificateEndDate": "2019-10-10",
      "object": "INGENIERÍA, DESARROLLO Y SOPORTE DE APLICACIONES TELEMÁTICAS. PERSONALIZACIÓN Y DUPLICADO DE SOPORTES INFORMÁTICOS. DISEÑO GRÁFICO Y MULTIMEDIA. COMPAÑAS DE COMUNICACIÓN ON-LINE. INGENIERÍA E INTEGRACIÓN DE REDES Y SISTEMAS. VENTA AL POR MENOR DE SISTEMAS INFORMÁTICOS, ASÍ SOFTWARE Y HARDWARE",
      "mainEntityOfPage": "https://www.contratacion.euskadi.eus/webkpe00-kperoc/es/ac71aBusquedaRegistrosWar/empresa/06235",
      "_links": {
        "self": {
          "name": "GOISOLUTIONS S.L.",
          "href": "https://api.euskadi.eus/procurements/companies/06235"
        }
      }
    },
    {
      "name": "ALBERTO FERNANDO JIMÉNEZ PÉREZ",
      "registrationNumber": "06231",
      "identificationNumber": "47466563Z",
      "address": "Manuel Pombo Angulo 12 nº15",
      "location": {
        "postalCode": "28922",
        "municipality": "Madrid",
        "county": "Madrid",
        "municipalityId": "079",
        "countyId": "28"
      },
      "economicActivities": [
        {
          "id": "2.763",
          "name": "Programadores y analistas de informática",
          "_links": {
            "self": {
              "name": "Programadores y analistas de informática",
              "href": "https://api.euskadi.eus/procurements/companies/economic-activities/2.763"
            }
          }
        }
      ],
      "certificateStartDate": "2019-05-13",
      "certificateEndDate": "2019-10-10",
      "object": "PROGRAMADORES Y ANALISTAS DE INFORMÁTICA",
      "mainEntityOfPage": "https://www.contratacion.euskadi.eus/webkpe00-kperoc/es/ac71aBusquedaRegistrosWar/empresa/06231",
      "_links": {
        "self": {
          "name": "ALBERTO FERNANDO JIMÉNEZ PÉREZ",
          "href": "https://api.euskadi.eus/procurements/companies/06231"
        }
      }
    },
    {
      "name": "PROYECTOS Y SUMINISTROS ALAVESES, S.L.",
      "registrationNumber": "02945",
      "identificationNumber": "B01354182",
      "address": "POL. JUNDIZ. C/ PADULETA, Nº 55. OFICINA 205",
      "location": {
        "postalCode": "01015",
        "municipality": "Vitoria-Gasteiz",
        "county": "Araba/Álava",
        "municipalityId": "059",
        "countyId": "01"
      },
      "economicActivities": [
        {
          "id": "1.507",
          "name": "Construcción, reparación y conservación de toda clase obras",
          "_links": {
            "self": {
              "name": "Construcción, reparación y conservación de toda clase obras",
              "href": "https://api.euskadi.eus/procurements/companies/economic-activities/1.507"
            }
          }
        }
      ],
      "certificateStartDate": "2019-05-10",
      "certificateEndDate": "2019-11-06",
      "object": "LA CONSTRUCCIÓN COMPLETA, REPARACIÓN Y CONSERVACIÓN DE EDIFICIOS Y OBRAS PÚBLICAS. LA PROMOCIÓN INMOBILIARIA EN GENERAL, YA SEA DE VIVIENDAS, NAVES INDUSTRIALES, AGRÍCOLAS Y LOCALES COMERCIALES Y OFICINAS. ARRENDAMIENTO Y VENTA DE BIENES INMOBILIARIOS. REALIZACIÓN DE PROYECTOS DE CONSTRUCCIÓN DE EDIFICIOS. LA COMERCIALIZACIÓN DE MATERIALES DE CONSTRUCCIÓN, AISLAMIENTO Y ORNAMENTACIÓN.\r\nLAS ACTIVIDADES ENUMERADAS PODRÁN TAMBIÉN SER DESARROLLADAS POR LA SOCIEDAD, TOTAL O PARCIALMENTE, DE MODO INDIRECTO, MEDIANTE LA PARTICIPACIÓN EN OTRAS SOCIEDADES DE IDÉNTICO O ANÁLOGO OBJETO.  ",
      "mainEntityOfPage": "https://www.contratacion.euskadi.eus/webkpe00-kperoc/es/ac71aBusquedaRegistrosWar/empresa/02945",
      "_links": {
        "self": {
          "name": "PROYECTOS Y SUMINISTROS ALAVESES, S.L.",
          "href": "https://api.euskadi.eus/procurements/companies/02945"
        }
      }
    },
    {
      "name": "CONSULTING ASISTENCIAL SOCIOSANITARIO S.L.",
      "registrationNumber": "06225",
      "identificationNumber": "B86486289",
      "address": "CALLE SERRANO, 45 3º A",
      "location": {
        "postalCode": "28001",
        "municipality": "Madrid",
        "county": "Madrid",
        "municipalityId": "079",
        "countyId": "28"
      },
      "economicActivities": [
        {
          "id": "1.942.1",
          "name": "Consultorios médicos, centros de socorro sanitarios y urgencias",
          "_links": {
            "self": {
              "name": "Consultorios médicos, centros de socorro sanitarios y urgencias",
              "href": "https://api.euskadi.eus/procurements/companies/economic-activities/1.942.1"
            }
          }
        },
        {
          "id": "1.951",
          "name": "Asistencia y servicios sociales en centros residenciales",
          "_links": {
            "self": {
              "name": "Asistencia y servicios sociales en centros residenciales",
              "href": "https://api.euskadi.eus/procurements/companies/economic-activities/1.951"
            }
          }
        }
      ],
      "certificateStartDate": "2019-05-08",
      "certificateEndDate": "2019-10-05",
      "object": "LA PRESTACIÓN DE SERVICIOS DE ASISTENCIA SOCIAL A COLECTIVOS CON PROBLEMAS SOCIOSANITARIOS EN CUALQUIERA DE SUS GRADOS Y ÁMBITOS, A TRAVÉS DE ACTIVIDADES DESTINADAS A: - LA PROTECCIÓN DE LA INFANCIA Y DE LA JUVENTUD MEDIANTE LA REHABILITACIÓN Y LA FORMACIÓN DE NIÑOS Y JÓVENES, LA CUSTODIA Y ATENCIÓN A NIÑOS MENORES DE SEIS AÑOS DE EDAD, LA REALIZACIÓN DE CURSOS, EXCURSIONES, CAMPAMENTOS O VIAJES INFANTILES Y JUVENILES Y OTRAS ANÁLOGAS PRESTADAS A FAVOR DE PERSONAS MENORES DE VEINTICINCO AÑOS DE EDAD. - LA EDUCACIÓN ESPECIAL Y LA ASISTENCIA A PERSONAS CON MINUSVALÍA. - LA PRESTACIÓN, EXPLOTACIÓN Y GESTIÓN DE CENTROS Y SERVICIOS DE ATENCIÓN SOCIOSANITARIA Y BIENESTAR SOCIAL, SEAN O NO DE NATURALEZA ASISTENCIAL, DIRIGIDOS A LA TERCERA EDAD, PERSONAS CON DISCAPACIDAD FÍSICA, INTELECTUAL O SENSORIAL, PERSONAS CON PROBLEMAS DE SALUD MENTAL O CUALESQUIERA ADICIONES, PERSONAS EN SITUACIÓN DE GUARDA, TUTELA O CURATELA, PERSONAS EN SITUACIÓN DE DEPENDENCIA, INFANCIA, MENORES, PERSONAS TUTELADAS O GUARDADAS QUE CUMPLEN LA MAYORÍA DE EDAD, JUVENTUD, INMIGRANTES, REFUGIADOS, PERSONAS SIN HOGAR Y VÍCTIMAS DE MALOS TRATOS. - ASIMISMO, DESARROLLARÁ ACTIVIDADES AUXILIARES VINCULADAS AL DESARROLLO DE TODO TIPO DE PROGRAMAS SOCIALES, TALES COMO: A) LA ORGANIZACIÓN DE VIAJES, POR CUENTA PROPIA O CON AGENCIAS U OPERADORES TURÍSTICOS, PARA TODA TODO TIPO DE GRUPOS SOCIALES; B) ACTIVIDADES DE OCIO Y TIEMPO LIBRE; C) ACTIVIDADES DE FORMACIÓN E INTEGRACIÓN SOCIAL; D) ACTIVIDADES DE DESARROLLO COGNITIVO Y PERSONAL; E) ACTIVIDADES DE PREVENCIÓN DE DEPENDENCIA Y PROMOCIÓN DE LA AUTONOMÍA PERSONAL, INCLUIDOS LOS DE NATURALEZA HABILITADORA O REHABILITADORA; F) ACTIVIDADES DEPORTIVAS EN GENERAL. - EN EL DESARROLLO DE SU ESTRATEGIA PODRÁ GESTIONAR TODO TIPO DE INSTALACIONES DEPORTIVAS O CULTURALES, RECREATIVAS O DE ENTRETENIMIENTO (CNAE 93) O REALIZAR ACTIVIDADES DE Y EN LOS HOGARES COMO FORMADORES O EMPLEADORES DE ASISTENTES PERSONALES, PERSONAL DOMÉSTICO (CNAE 9700), PERSONAL DE AYUDA A DOMICILIO EN GENERAL, FAMILIAS O PERSONAS ACOGEDORAS DE OTRAS PERSONAS O FAMILIAS Y EDUCACIÓN, PUDIENDO ASIMISMO REALIZAR DIRECTAMENTE DICHOS SERVICIOS. - LA EXPLOTACIÓN Y GESTIÓN DE VIVIENDAS TUTELADAS, HOSPITALES, CENTROS SANITARIOS, HOTELEROS Y HOSTELEROS, RESIDENCIAS DE MAYORES, CENTROS DE ACOGIDA Y OTROS CENTROS ESPECIALES. - LA EXPLOTACIÓN Y GESTIÓN DE CENTROS Y SERVICIOS DE GUARDERÍAS INFANTILES Y ESCUELAS INFANTILES, LUDOTECAS, ATENCIÓN TEMPRANA Y A LA INFANCIA, CENTROS, UNIDADES DE DÍA Y RESIDENCIAS PARA MAYORES, CON ENFERMEDADES NEURO-DEGENERATIVAS, POMPAS FÚNEBRES Y SERVICIOS RELACIONADOS",
      "mainEntityOfPage": "https://www.contratacion.euskadi.eus/webkpe00-kperoc/es/ac71aBusquedaRegistrosWar/empresa/06225",
      "_links": {
        "self": {
          "name": "CONSULTING ASISTENCIAL SOCIOSANITARIO S.L.",
          "href": "https://api.euskadi.eus/procurements/companies/06225"
        }
      }
    },
    {
      "name": "ZAPIRAIN Y LAGO, S.L.",
      "registrationNumber": "05749",
      "identificationNumber": "B20747705",
      "address": "C/ Loiolatarra, 1-bajo",
      "location": {
        "postalCode": "20014",
        "municipality": "Donostia / San Sebastián",
        "county": "Gipuzkoa",
        "municipalityId": "069",
        "countyId": "20"
      },
      "economicActivities": [
        {
          "id": "1.504.2",
          "name": "Instalaciones de fontanería",
          "_links": {
            "self": {
              "name": "Instalaciones de fontanería",
              "href": "https://api.euskadi.eus/procurements/companies/economic-activities/1.504.2"
            }
          }
        }
      ],
      "certificateStartDate": "2019-05-07",
      "certificateEndDate": "2019-10-30",
      "object": "INSTALACIONES, REPARACIONES Y MANTENIMIENTO DE SISTEMAS DE CALEFACCIÓN",
      "mainEntityOfPage": "https://www.contratacion.euskadi.eus/webkpe00-kperoc/es/ac71aBusquedaRegistrosWar/empresa/05749",
      "_links": {
        "self": {
          "name": "ZAPIRAIN Y LAGO, S.L.",
          "href": "https://api.euskadi.eus/procurements/companies/05749"
        }
      }
    },
    {
      "name": "JESÚS ALONSO LÓPEZ",
      "registrationNumber": "06224",
      "identificationNumber": "15934614F",
      "address": "CALLE LAGAGORRI 16 C",
      "location": {
        "postalCode": "01138",
        "municipality": "Zigoitia",
        "county": "Araba/Álava",
        "municipalityId": "018",
        "countyId": "01"
      },
      "economicActivities": [
        {
          "id": "2.862",
          "name": "Restauradores de obras de arte",
          "_links": {
            "self": {
              "name": "Restauradores de obras de arte",
              "href": "https://api.euskadi.eus/procurements/companies/economic-activities/2.862"
            }
          }
        }
      ],
      "certificateStartDate": "2019-05-07",
      "certificateEndDate": "2019-08-20",
      "object": "RESTAURADOR DE OBRAS DE ARTE",
      "mainEntityOfPage": "https://www.contratacion.euskadi.eus/webkpe00-kperoc/es/ac71aBusquedaRegistrosWar/empresa/06224",
      "_links": {
        "self": {
          "name": "JESÚS ALONSO LÓPEZ",
          "href": "https://api.euskadi.eus/procurements/companies/06224"
        }
      }
    },
    {
      "name": "CONSTRUCCIONES GOIKETXE, S.L.",
      "registrationNumber": "04263",
      "identificationNumber": "B48850101",
      "address": "ERREKA ZAHARRA, 1-4º",
      "location": {
        "postalCode": "48300",
        "municipality": "Gernika-Lumo",
        "county": "Bizkaia",
        "municipalityId": "046",
        "countyId": "48"
      },
      "economicActivities": [
        {
          "id": "1.501.1",
          "name": "Construcción completa, reparación y conservación de edificaciones",
          "_links": {
            "self": {
              "name": "Construcción completa, reparación y conservación de edificaciones",
              "href": "https://api.euskadi.eus/procurements/companies/economic-activities/1.501.1"
            }
          }
        }
      ],
      "certificateStartDate": "2019-05-04",
      "certificateEndDate": "2019-11-03",
      "object": "LA COMPRA VENTA DE FINCAS RÚSTICAS Y URBANAS, PROMOCIÓN, CONSTRUCCIÓN, EXPLOTACIÓN, VENTA, ARRENDAMIENTO DE NAVES INDUSTRIALES Y AGRÍCOLAS, ASÍ COMO DE TODA CLASE DE EDIFICIOS",
      "mainEntityOfPage": "https://www.contratacion.euskadi.eus/webkpe00-kperoc/es/ac71aBusquedaRegistrosWar/empresa/04263",
      "_links": {
        "self": {
          "name": "CONSTRUCCIONES GOIKETXE, S.L.",
          "href": "https://api.euskadi.eus/procurements/companies/04263"
        }
      }
    }
  ]
}