{
  "totalItems": 9042,
  "totalPages": 905,
  "currentPage": 517,
  "itemsOfPage": 10,
  "items": [
    {
      "name": "ARAGUANEY DENTAL, S.L.",
      "registrationNumber": "07857",
      "identificationNumber": "B65395386",
      "address": "Plaza Sant Lluis de Gonzaga 7, PB·3",
      "location": {
        "postalCode": "08950",
        "municipality": "Esplugues de Llobregat",
        "county": "Barcelona",
        "municipalityId": "077",
        "countyId": "08"
      },
      "economicActivities": [
        {
          "id": "1.849.9",
          "name": "Otros servicios independientes n.c.o.p",
          "_links": {
            "self": {
              "name": "Otros servicios independientes n.c.o.p",
              "href": "https://api.euskadi.eus/procurements/companies/economic-activities/1.849.9"
            }
          }
        }
      ],
      "certificateStartDate": "2021-08-31",
      "certificateEndDate": "2022-02-21",
      "object": "LA CONSULTORÍA COMERCIAL, LOGÍSTICA, GESTIÓN Y SERVICIOS A EMPRESAS, NEGOCIOS Y PARTICULARES DEL SECTOR DE LA SALUD Y HOSTELERÍA, TANTO NACIONALES COMO INTERNACIONALES",
      "mainEntityOfPage": "https://www.contratacion.euskadi.eus/webkpe00-kperoc/es/ac71aBusquedaRegistrosWar/empresa/07857",
      "_links": {
        "self": {
          "name": "ARAGUANEY DENTAL, S.L.",
          "href": "https://api.euskadi.eus/procurements/companies/07857"
        }
      }
    },
    {
      "name": "ASOC. OSTARGI GIZARTE ELKARTEA",
      "registrationNumber": "05953",
      "identificationNumber": "G20623633",
      "address": "ESCOLTA REAL 53 BAJO LOCAL A1",
      "location": {
        "postalCode": "20008",
        "municipality": "Donostia / San Sebastián",
        "county": "Gipuzkoa",
        "municipalityId": "069",
        "countyId": "20"
      },
      "economicActivities": [
        {
          "id": "1.966.9",
          "name": "Otros servicios culturales n.c.o.p",
          "_links": {
            "self": {
              "name": "Otros servicios culturales n.c.o.p",
              "href": "https://api.euskadi.eus/procurements/companies/economic-activities/1.966.9"
            }
          }
        }
      ],
      "certificateStartDate": "2021-08-31",
      "certificateEndDate": "2022-02-28",
      "object": "LOS FINES DE ESTA ASOCIACIÓN SON: DESARROLLO INTEGRAL DE JÓVENES Y ADOLESCENTES EN SU ENTORNO, CONTEMPLANDO LA COMUNIDAD COMO AGENTE DE SU PROPIO DESARROLLO. DISEÑO, ELABORACIÓN Y EJECUCIÓN DE PROGRAMAS DE PREVENCIÓN E INSERCIÓN DE JÓVENES Y ADOLESCENTES. COORDINACIÓN Y COLABORACIÓN CON OTRAS ASOCIACIONES DE CARÁCTER SOCIAL, CULTURAL, DEPORTIVO, DE OCIO Y TIEMPO LIBRE Y DEMÁS AGENTES SOCIALES QUE PARTICIPAN EN EL PROCESO DE SOCIALIZACIÓN DE JÓVENES Y ADOLESCENTES. ORGANIZACIÓN Y PARTICIPACIÓN EN FOROS DE EXPOSICIÓN, FORMACIÓN E INTERCAMBIO DE EXPERIENCIAS RELACIONADAS CON LOS FINES DE LA ASOCIACIÓN. ELABORACIÓN DE ARTÍCULOS, ESTUDIOS, MEMORIAS, MATERIAL DIDÁCTICO Y DEMÁS DOCUMENTOS QUE CONTRIBUYAN A LA DIFUSIÓN DE LOS FINES DE LA ASOCIACIÓN. DISEÑO, ELABORACIÓN Y EJECUCIÓN DE PROGRAMAS DIRIGIDOS A INTERVENIR EN LAS DIFERENTES ÁREAS DE INFLUENCIA DE JÓVENES Y ADOLESCENTES",
      "mainEntityOfPage": "https://www.contratacion.euskadi.eus/webkpe00-kperoc/es/ac71aBusquedaRegistrosWar/empresa/05953",
      "_links": {
        "self": {
          "name": "ASOC. OSTARGI GIZARTE ELKARTEA",
          "href": "https://api.euskadi.eus/procurements/companies/05953"
        }
      }
    },
    {
      "name": "ISART INSTALACIONES Y EQUIPAMIENTOS DE SEGURIDAD, SOCIEDAD LIMITADA",
      "registrationNumber": "07854",
      "identificationNumber": "B20713939",
      "address": "ORIA ETORBIDEA 8-10 PAB. 17",
      "location": {
        "postalCode": "20160",
        "municipality": "Lasarte-Oria",
        "county": "Gipuzkoa",
        "municipalityId": "902",
        "countyId": "20"
      },
      "economicActivities": [
        {
          "id": "1.504.1",
          "name": "Instalaciones eléctricas en general",
          "_links": {
            "self": {
              "name": "Instalaciones eléctricas en general",
              "href": "https://api.euskadi.eus/procurements/companies/economic-activities/1.504.1"
            }
          }
        },
        {
          "id": "1.504.3",
          "name": "Instalaciones de frío, calor y acondicionamiento de aire",
          "_links": {
            "self": {
              "name": "Instalaciones de frío, calor y acondicionamiento de aire",
              "href": "https://api.euskadi.eus/procurements/companies/economic-activities/1.504.3"
            }
          }
        },
        {
          "id": "1.843.1",
          "name": "Servicios técnicos de ingeniería",
          "_links": {
            "self": {
              "name": "Servicios técnicos de ingeniería",
              "href": "https://api.euskadi.eus/procurements/companies/economic-activities/1.843.1"
            }
          }
        },
        {
          "id": "1.921.7",
          "name": "Servicios de protección contra incendios y accidentes",
          "_links": {
            "self": {
              "name": "Servicios de protección contra incendios y accidentes",
              "href": "https://api.euskadi.eus/procurements/companies/economic-activities/1.921.7"
            }
          }
        }
      ],
      "certificateStartDate": "2021-08-30",
      "certificateEndDate": "2022-02-20",
      "object": "SERVICIOS DE PROTECCIÓN Y ACONDICIONAMIENTO AMBIENTAL, CONTRA RUIDOS, VIBRACIONES, CONTAMINACIÓN, INCENDIOS Y ACCIDENTES; INCLUIDO LA VENTA, INSTALACIÓN Y MANTENIMIENTO",
      "mainEntityOfPage": "https://www.contratacion.euskadi.eus/webkpe00-kperoc/es/ac71aBusquedaRegistrosWar/empresa/07854",
      "_links": {
        "self": {
          "name": "ISART INSTALACIONES Y EQUIPAMIENTOS DE SEGURIDAD, SOCIEDAD LIMITADA",
          "href": "https://api.euskadi.eus/procurements/companies/07854"
        }
      }
    },
    {
      "name": "CONSTRUCCIONES RICARDO DE LA RIVA SL",
      "registrationNumber": "06372",
      "identificationNumber": "B95822409",
      "address": "San Ignacio 3, Bajo",
      "location": {
        "postalCode": "48280",
        "municipality": "Lekeitio",
        "county": "Bizkaia",
        "municipalityId": "057",
        "countyId": "48"
      },
      "economicActivities": [
        {
          "id": "1.501.1",
          "name": "Construcción completa, reparación y conservación de edificaciones",
          "_links": {
            "self": {
              "name": "Construcción completa, reparación y conservación de edificaciones",
              "href": "https://api.euskadi.eus/procurements/companies/economic-activities/1.501.1"
            }
          }
        }
      ],
      "certificateStartDate": "2021-08-26",
      "certificateEndDate": "2022-02-25",
      "object": "LA EJECUCIÓN COMPLETA O POR RAMAS DE TODA CLASE DE OBRAS DE CONSTRUCCIÓN, REPARACIÓN O CONSERVACIÓN, POR CUENTA PROPIA O AJENA, DE TODA CLASE DE BIENES INMUEBLES",
      "mainEntityOfPage": "https://www.contratacion.euskadi.eus/webkpe00-kperoc/es/ac71aBusquedaRegistrosWar/empresa/06372",
      "_links": {
        "self": {
          "name": "CONSTRUCCIONES RICARDO DE LA RIVA SL",
          "href": "https://api.euskadi.eus/procurements/companies/06372"
        }
      }
    },
    {
      "name": "HONORIO VICENTE DE PAZ BECARES",
      "registrationNumber": "07850",
      "identificationNumber": "33861871Y",
      "address": "calle pablo sorozabal 4",
      "location": {
        "postalCode": "28290",
        "municipality": "Rozas de Madrid, Las",
        "county": "Madrid",
        "municipalityId": "127",
        "countyId": "28"
      },
      "economicActivities": [
        {
          "id": "2.411",
          "name": "Arquitectos",
          "_links": {
            "self": {
              "name": "Arquitectos",
              "href": "https://api.euskadi.eus/procurements/companies/economic-activities/2.411"
            }
          }
        }
      ],
      "certificateStartDate": "2021-08-25",
      "certificateEndDate": "2021-11-10",
      "object": "ARQUITECTO",
      "mainEntityOfPage": "https://www.contratacion.euskadi.eus/webkpe00-kperoc/es/ac71aBusquedaRegistrosWar/empresa/07850",
      "_links": {
        "self": {
          "name": "HONORIO VICENTE DE PAZ BECARES",
          "href": "https://api.euskadi.eus/procurements/companies/07850"
        }
      }
    },
    {
      "name": "CARESTREAM HEALTH SPAIN, S.A.",
      "registrationNumber": "03489",
      "identificationNumber": "A84869247",
      "address": "VIA DE LAS DOS CASTILLAS, 33 EDF 7 ATICA",
      "location": {
        "postalCode": "28224",
        "municipality": "Pozuelo de Alarcón",
        "county": "Madrid",
        "municipalityId": "115",
        "countyId": "28"
      },
      "economicActivities": [
        {
          "id": "1.619.2",
          "name": "Venta al por mayor de aparatos e instrumentos médicos, ortopédicos, ópticos",
          "_links": {
            "self": {
              "name": "Venta al por mayor de aparatos e instrumentos médicos, ortopédicos, ópticos",
              "href": "https://api.euskadi.eus/procurements/companies/economic-activities/1.619.2"
            }
          }
        },
        {
          "id": "1.619.9",
          "name": "Venta al por mayor de otros productos n.c.o.p",
          "_links": {
            "self": {
              "name": "Venta al por mayor de otros productos n.c.o.p",
              "href": "https://api.euskadi.eus/procurements/companies/economic-activities/1.619.9"
            }
          }
        },
        {
          "id": "1.691.9",
          "name": "Reparación de otros bienes de consumo n.c.o.p",
          "_links": {
            "self": {
              "name": "Reparación de otros bienes de consumo n.c.o.p",
              "href": "https://api.euskadi.eus/procurements/companies/economic-activities/1.691.9"
            }
          }
        },
        {
          "id": "1.845",
          "name": "Explotación electrónica por cuenta de terceros",
          "_links": {
            "self": {
              "name": "Explotación electrónica por cuenta de terceros",
              "href": "https://api.euskadi.eus/procurements/companies/economic-activities/1.845"
            }
          }
        }
      ],
      "certificateStartDate": "2021-08-25",
      "certificateEndDate": "2022-02-13",
      "object": "- EXPLOTACIÓN Y CONTROL DE TODA CLASE DE SISTEMAS INFORMÁTICOS E INFRAESTRUCTURAS TELEMÁTICAS; - MANTENIMIENTO, ASISTENCIA TÉCNICA Y REPARACIÓN DE EQUIPOS  E INSTALACIONES INFORMÁTICOS Y DE TELECOMUNICACIONES; - SERVICIO DE TELECOMUNICACIONES; - INTEGRACIÓN DE APLICACIONES Y SISTEMAS INFORMÁTICOS; - LA PRESTACIÓN DE SERVICIOS DE CAPTURA, ALMACENAMIENTO Y REPRODUCCIÓN DE INFORMACIÓN POR MEDIOS ELECTRÓNICOS, INFORMÁTICOS Y TELEMÁTICOS; -MANTENIMIENTO, ASISTENCIA TÉCNICA Y REPARACIÓN DE EQUIPOS E INSTALACIONES ELÉCTRICAS, ELECTRÓNICAS Y DE ELECTROMEDICINA; - DESARROLLO Y MANTENIMIENTO DE PROGRAMAS DE ORDENADOR Y TODO TIPO DE SOFTWARE; SERVICIOS DE CONSULTORÍA Y ASESORAMIENTO RELACIONADOS CON LAS ACTIVIDADES DESCRITAS EN ESTE APARTADO. FORMACIÓN DE DISTINTOS USUARIOS EN CUALQUIERA DE LOS SERVICIOS MENCIONADOS",
      "mainEntityOfPage": "https://www.contratacion.euskadi.eus/webkpe00-kperoc/es/ac71aBusquedaRegistrosWar/empresa/03489",
      "_links": {
        "self": {
          "name": "CARESTREAM HEALTH SPAIN, S.A.",
          "href": "https://api.euskadi.eus/procurements/companies/03489"
        }
      }
    },
    {
      "name": "MARCELO RUIZ SIERRA",
      "registrationNumber": "07849",
      "identificationNumber": "50231250D",
      "address": "san telmo 5  1º b",
      "location": {
        "postalCode": "48650",
        "municipality": "Barrika",
        "county": "Bizkaia",
        "municipalityId": "014",
        "countyId": "48"
      },
      "economicActivities": [
        {
          "id": "1.644.4",
          "name": "Venta al por menor de helados",
          "_links": {
            "self": {
              "name": "Venta al por menor de helados",
              "href": "https://api.euskadi.eus/procurements/companies/economic-activities/1.644.4"
            }
          }
        }
      ],
      "certificateStartDate": "2021-08-25",
      "certificateEndDate": "2022-02-05",
      "object": "VENTA AL POR MENOR DE HELADOS",
      "mainEntityOfPage": "https://www.contratacion.euskadi.eus/webkpe00-kperoc/es/ac71aBusquedaRegistrosWar/empresa/07849",
      "_links": {
        "self": {
          "name": "MARCELO RUIZ SIERRA",
          "href": "https://api.euskadi.eus/procurements/companies/07849"
        }
      }
    },
    {
      "name": "VERTER RECYCLING 2002, S.L.",
      "registrationNumber": "05086",
      "identificationNumber": "B95210837",
      "address": "Caserio Kondia nº 3 Barrio Eitzaga",
      "location": {
        "postalCode": "48250",
        "municipality": "Zaldibar",
        "county": "Bizkaia",
        "municipalityId": "095",
        "countyId": "48"
      },
      "economicActivities": [
        {
          "id": "1.621",
          "name": "Venta al por mayor de chatarra y metales de desecho férreos y no férreos",
          "_links": {
            "self": {
              "name": "Venta al por mayor de chatarra y metales de desecho férreos y no férreos",
              "href": "https://api.euskadi.eus/procurements/companies/economic-activities/1.621"
            }
          }
        },
        {
          "id": "1.622",
          "name": "Venta al por mayor de otros productos de recuperación",
          "_links": {
            "self": {
              "name": "Venta al por mayor de otros productos de recuperación",
              "href": "https://api.euskadi.eus/procurements/companies/economic-activities/1.622"
            }
          }
        },
        {
          "id": "1.999",
          "name": "Otros servicios n.c.o.p",
          "_links": {
            "self": {
              "name": "Otros servicios n.c.o.p",
              "href": "https://api.euskadi.eus/procurements/companies/economic-activities/1.999"
            }
          }
        }
      ],
      "certificateStartDate": "2021-08-25",
      "certificateEndDate": "2022-02-13",
      "object": "LA CONSTRUCCIÓN, EXPLOTACIÓN Y COMERCIALIZACIÓN DE VERTEDEROS DE TIERRAS, ESCOMBROS Y VERTIDOS INERTES O INERTIZADOS, ASÍ COMO SU RECICLAJE",
      "mainEntityOfPage": "https://www.contratacion.euskadi.eus/webkpe00-kperoc/es/ac71aBusquedaRegistrosWar/empresa/05086",
      "_links": {
        "self": {
          "name": "VERTER RECYCLING 2002, S.L.",
          "href": "https://api.euskadi.eus/procurements/companies/05086"
        }
      }
    },
    {
      "name": "FLOW DISEÑO, S.L.",
      "registrationNumber": "07848",
      "identificationNumber": "B95676037",
      "address": "c/Villarias nº10-Dpto.707",
      "location": {
        "postalCode": "48001",
        "municipality": "Bilbao",
        "county": "Bizkaia",
        "municipalityId": "020",
        "countyId": "48"
      },
      "economicActivities": [
        {
          "id": "1.631",
          "name": "Intermediarios del comercio",
          "_links": {
            "self": {
              "name": "Intermediarios del comercio",
              "href": "https://api.euskadi.eus/procurements/companies/economic-activities/1.631"
            }
          }
        },
        {
          "id": "1.844",
          "name": "Servicios de publicidad, relaciones públicas y similares",
          "_links": {
            "self": {
              "name": "Servicios de publicidad, relaciones públicas y similares",
              "href": "https://api.euskadi.eus/procurements/companies/economic-activities/1.844"
            }
          }
        },
        {
          "id": "1.846",
          "name": "Empresas de estudios de mercado",
          "_links": {
            "self": {
              "name": "Empresas de estudios de mercado",
              "href": "https://api.euskadi.eus/procurements/companies/economic-activities/1.846"
            }
          }
        },
        {
          "id": "1.847",
          "name": "Servicios de consultoría",
          "_links": {
            "self": {
              "name": "Servicios de consultoría",
              "href": "https://api.euskadi.eus/procurements/companies/economic-activities/1.847"
            }
          }
        }
      ],
      "certificateStartDate": "2021-08-25",
      "certificateEndDate": "2021-11-22",
      "object": "1.-CONSTRUCCIÓN. INSTALACIONES Y MANTENIMIENTO. 2.-COMERCIO AL POR MAYOR Y AL POR MENOR. DISTRIBUCIÓN COMERCIAL. IMPORTACIÓN Y EXPORTACIÓN. 3.-ACTIVIDADES INMOBILIARIAS. 4.-ACTIVIDADES PROFESIONALES. 5.-INDUSTRIAS MANUFACTURERAS Y TEXTILES. 6.-TURISMO, HOSTELERÍA Y RESTAURACIÓN. 7.-PRESTACIÓN DE SERVICIOS. ACTIVIDADES DE GESTIÓN Y ADMINISTRACIÓN. SERVICIOS EDUCATIVOS, SANITARIOS, DE OCIO Y ENTRETENIMIENTO. 8.-TRANSPORTE Y ALMACENAMIENTO. 9.-INFORMACIÓN Y COMUNICACIONES. 10.-AGRICULTURA, GANADERÍA Y PESCA. 11.-INFORMÁTICA, TELECOMUNICACIONES Y OFIMÁTICA. 12.-ENERGÍAS ALTERNATIVAS. 13.-COMPRAVENTA Y REPARACIÓN DE VEHÍCULOS. REPARACIÓN Y MANTENIMIENTO DE INSTALACIÓN Y MAQUINARIA. 14.-INVESTIGACIÓN, DESARROLLO E INNOVACIÓN. 15.-ACTIVIDADES CIENTÍFICAS Y TÉCNICAS",
      "mainEntityOfPage": "https://www.contratacion.euskadi.eus/webkpe00-kperoc/es/ac71aBusquedaRegistrosWar/empresa/07848",
      "_links": {
        "self": {
          "name": "FLOW DISEÑO, S.L.",
          "href": "https://api.euskadi.eus/procurements/companies/07848"
        }
      }
    },
    {
      "name": "C.V. MÉDICA, S.L.",
      "registrationNumber": "01764",
      "identificationNumber": "B43285592",
      "address": "POL.IND. LA PLANA.C/ PONENT, Nº 1",
      "location": {
        "postalCode": "43424",
        "municipality": "Sarral",
        "county": "Tarragona",
        "municipalityId": "142",
        "countyId": "43"
      },
      "economicActivities": [
        {
          "id": "1.392.1",
          "name": "Fabricación de material médico-quirúrgico",
          "_links": {
            "self": {
              "name": "Fabricación de material médico-quirúrgico",
              "href": "https://api.euskadi.eus/procurements/companies/economic-activities/1.392.1"
            }
          }
        }
      ],
      "certificateStartDate": "2021-08-25",
      "certificateEndDate": "2022-02-17",
      "object": "TODA ACTIVIDAD RELACIONADA CON MATERIAL, EQUIPOS Y CONSUMIBLES DE USO HOSPITALARIO, CLINICO O SANITARIO",
      "mainEntityOfPage": "https://www.contratacion.euskadi.eus/webkpe00-kperoc/es/ac71aBusquedaRegistrosWar/empresa/01764",
      "_links": {
        "self": {
          "name": "C.V. MÉDICA, S.L.",
          "href": "https://api.euskadi.eus/procurements/companies/01764"
        }
      }
    }
  ]
}