{
  "totalItems": 9042,
  "totalPages": 905,
  "currentPage": 476,
  "itemsOfPage": 10,
  "items": [
    {
      "name": "MANUEL IGLESIAS BOUZAS",
      "registrationNumber": "08706",
      "identificationNumber": "34962619C",
      "address": "MANZANOS 16",
      "location": {
        "postalCode": "01220",
        "municipality": "Ribera Baja/Erriberabeitia",
        "county": "Araba/Álava",
        "municipalityId": "047",
        "countyId": "01"
      },
      "economicActivities": [
        {
          "id": "1.501.1",
          "name": "Construcción completa, reparación y conservación de edificaciones",
          "_links": {
            "self": {
              "name": "Construcción completa, reparación y conservación de edificaciones",
              "href": "https://api.euskadi.eus/procurements/companies/economic-activities/1.501.1"
            }
          }
        },
        {
          "id": "1.982.4",
          "name": "Otras atracciones propias de ferias y verbena fuera de establecimiento",
          "_links": {
            "self": {
              "name": "Otras atracciones propias de ferias y verbena fuera de establecimiento",
              "href": "https://api.euskadi.eus/procurements/companies/economic-activities/1.982.4"
            }
          }
        }
      ],
      "certificateStartDate": "2022-11-11",
      "certificateEndDate": "2023-05-04",
      "object": "OTRAS ATRACCIONES PROPIAS DE FERIAS Y VERBENA FUERA DE ESTABLECIMIENTO. CONSTRUCCIÓN COMPLETA, REPARACIÓN Y CONSERVACIÓN DE EDIFICACIONES.",
      "mainEntityOfPage": "https://www.contratacion.euskadi.eus/webkpe00-kperoc/es/ac71aBusquedaRegistrosWar/empresa/08706",
      "_links": {
        "self": {
          "name": "MANUEL IGLESIAS BOUZAS",
          "href": "https://api.euskadi.eus/procurements/companies/08706"
        }
      }
    },
    {
      "name": "PABLO LOPEZ LEAL",
      "registrationNumber": "08106",
      "identificationNumber": "33559495B",
      "address": "CELSO EMILIO FERREIRO 2, 4ºD",
      "location": {
        "postalCode": "27002",
        "municipality": "Lugo",
        "county": "Lugo",
        "municipalityId": "028",
        "countyId": "27"
      },
      "economicActivities": [
        {
          "id": "1.389",
          "name": "Construcción de otro material de transporte n.c.o.p",
          "_links": {
            "self": {
              "name": "Construcción de otro material de transporte n.c.o.p",
              "href": "https://api.euskadi.eus/procurements/companies/economic-activities/1.389"
            }
          }
        }
      ],
      "certificateStartDate": "2022-11-11",
      "certificateEndDate": "2023-05-11",
      "mainEntityOfPage": "https://www.contratacion.euskadi.eus/webkpe00-kperoc/es/ac71aBusquedaRegistrosWar/empresa/08106",
      "_links": {
        "self": {
          "name": "PABLO LOPEZ LEAL",
          "href": "https://api.euskadi.eus/procurements/companies/08106"
        }
      }
    },
    {
      "name": "ARRIAZU&GARAY, S.L.P.",
      "registrationNumber": "06932",
      "identificationNumber": "B48876205",
      "address": "Sabino Arana 28 bajo",
      "location": {
        "postalCode": "48600",
        "municipality": "Sopela",
        "county": "Bizkaia",
        "municipalityId": "085",
        "countyId": "48"
      },
      "economicActivities": [
        {
          "id": "1.843.2",
          "name": "Servicios técnicos de arquitectura y urbanismo",
          "_links": {
            "self": {
              "name": "Servicios técnicos de arquitectura y urbanismo",
              "href": "https://api.euskadi.eus/procurements/companies/economic-activities/1.843.2"
            }
          }
        }
      ],
      "certificateStartDate": "2022-11-11",
      "certificateEndDate": "2023-04-26",
      "object": "LA PROPIA DE LOS PROFESIONALES DE LA ARQUITECTURA",
      "mainEntityOfPage": "https://www.contratacion.euskadi.eus/webkpe00-kperoc/es/ac71aBusquedaRegistrosWar/empresa/06932",
      "_links": {
        "self": {
          "name": "ARRIAZU&GARAY, S.L.P.",
          "href": "https://api.euskadi.eus/procurements/companies/06932"
        }
      }
    },
    {
      "name": "PROMETEO-GO GREEN MOBILITY, S.L.",
      "registrationNumber": "08705",
      "identificationNumber": "B95869822",
      "address": "CARRETERA LA AVANZADA 8 A ",
      "location": {
        "postalCode": "48950",
        "municipality": "Erandio",
        "county": "Bizkaia",
        "municipalityId": "902",
        "countyId": "48"
      },
      "economicActivities": [
        {
          "id": "1.847",
          "name": "Servicios de consultoría",
          "_links": {
            "self": {
              "name": "Servicios de consultoría",
              "href": "https://api.euskadi.eus/procurements/companies/economic-activities/1.847"
            }
          }
        }
      ],
      "certificateStartDate": "2022-11-10",
      "certificateEndDate": "2023-04-20",
      "object": "LA PRESTACIÓN DE TODO TIPO DE SERVICIOS DE CONSULTORÍA, FORMACIÓN Y ASESORAMIENTO EN ORGANIZACIÓN, ESTRATEGIA Y GESTIÓN EN MATERIA DE MOVILIDAD URBANA Y TRANSPORTES, PUDIENDO PARA ELLO, REDACTAR Y REALIZAR PROYECTOS Y ESTUDIOS DE TODAS CLASES, EMITIR LOS INFORMES CORRESPONDIENTES Y PUBLICARLOS, ASÍ COMO EL DESARROLLO Y COMERCIALIZACIÓN DE APLICACIONES INFORMÁTICAS Y MULTIMEDIA PARA SU EJECUCIÓN. SUSCRIBIR O ADQUIRIR, POR CUALQUIER TÍTULO, ASÍ COMO LA TRANSMISIÓN Y/O VENTA DE ACCIONES O PARTICIPACIONES DE SOCIEDADES DEDICADAS A ACTIVIDADES DE CARÁCTER EMPRESARIAL. LA GESTIÓN Y ADMINISTRACIÓN DE PARTICIPACIONES EN SOCIEDADES MERCANTILES MEDIANTE LA INVERSIÓN Y DESINVERSIÓN EN ACCIONES Y PARTICIPACIONES. LA ADQUISICIÓN, TENENCIA, DISFRUTE, ADMINISTRACIÓN Y ENAJENACIÓN DE TODA CLASE DE ACTIVOS FINANCIEROS, VALORES MOBILIARIOS, CUOTAS O PARTICIPACIONES EN EMPRESAS INDIVIDUALES O SOCIALES POR CUENTA PROPIA. LA ADQUISICIÓN, EXPLOTACIÓN Y ENAJENACIÓN DE TODA CLASE DE BIENES INMUEBLES, PARA SU EDIFICACIÓN, APROVECHAMIENTO O BENEFICIO, DIRECTAMENTE, MEDIANTE LA INSTALACIÓN DE TODA CLASE DE EMPRESAS O NEGOCIOS MERCANTILES O INDUSTRIALES, O INDIRECTAMENTE POR CESIÓN DE SU DISFRUTE EN ARRENDAMIENTO O CUALQUIER OTRA FORMA. LA ADQUISICIÓN, EXPLOTACIÓN Y ENAJENACIÓN DE TODA CLASE DE BIENES MUEBLES, DIRECTAMENTE, MEDIANTE LA INSTALACIÓN DE TODA CLASE DE EMPRESAS O NEGOCIOS MERCANTILES O INDUSTRIALES, O INDIRECTAMENTE POR CESIÓN DE SU DISFRUTE EN ARRENDAMIENTO O CUALQUIER OTRA FORMA.",
      "mainEntityOfPage": "https://www.contratacion.euskadi.eus/webkpe00-kperoc/es/ac71aBusquedaRegistrosWar/empresa/08705",
      "_links": {
        "self": {
          "name": "PROMETEO-GO GREEN MOBILITY, S.L.",
          "href": "https://api.euskadi.eus/procurements/companies/08705"
        }
      }
    },
    {
      "name": "MUNIDIGITAL, S.L.",
      "registrationNumber": "08135",
      "identificationNumber": "B16730111",
      "address": "Princesa N°24",
      "location": {
        "postalCode": "28008",
        "municipality": "Madrid",
        "county": "Madrid",
        "municipalityId": "079",
        "countyId": "28"
      },
      "economicActivities": [
        {
          "id": "1.845",
          "name": "Explotación electrónica por cuenta de terceros",
          "_links": {
            "self": {
              "name": "Explotación electrónica por cuenta de terceros",
              "href": "https://api.euskadi.eus/procurements/companies/economic-activities/1.845"
            }
          }
        }
      ],
      "certificateStartDate": "2022-11-10",
      "certificateEndDate": "2023-05-10",
      "object": "1) SERVICIOS: PRESTACIÓN DE SERVICIOS DE SOLUCIONES, ASESORÍA Y DESARROLLO EN EL ÁREA DE TELECOMUNICACIONES E INFORMÁTICA. 2) SOFTWARE: PROGRAMACIÓN, ANÁLISIS, DISEÑO, DESARROLLO Y/O IMPLEMENTACIÓN DE SOFTWARE DE CUALQUIER TIPO; ADQUISICIÓN DE LICENCIAS DE SOFTWARE DESARROLLADO POR TERCEROS, SEA MEDIANTE TIPOS DE LICENCIAMIENTO DE CÓDIGO ABIERTO, CERRADO O SOFTWARE LIBRE; LICENCIAMIENTO A TERCEROS DE SOFTWARE DE DESARROLLO PROPIO O ADQUIRIDO DE TERCEROS, UTILIZANDO LICENCIAMIENTO DE CÓDIGO ABIERTO, CERRADO O SOFTWARE LIBRE; DESARROLLO DE SOFTWARE DESTINADO A LAS TELECOMUNICACIONES, INCLUIDO EL DESTINADO A SU INCORPORACIÓN EN CENTRALES TELEFÓNICAS; SERVICIOS DE PROCESAMIENTOS DE DATOS E INFORMACIÓN. 3) SERVICIOS INFORMÁTICOS: REALIZAR IMPLEMENTACIONES DE SOFTWARE, PARAMETRIZACIONES, ASESORAMIENTO, SOPORTE TÉCNICO, SERVICIOS DE GARANTÍAS SOBRE SOFTWARE, CAPACITACIÓN, EXPLOTACIÓN DE SOFTWARE COMO SERVICIO, OUTSOURCING DE TODA ÍNDOLE, PRESTACIÓN DE SERVICIOS DE SEGURIDAD INFORMÁTICA, INSTALACIÓN DE REDES, CONFIGURACIÓN Y DESARROLLO DE SERVICIOS DE CORREO EN INTERNET Y/O MENSAJERÍA DE CUALQUIER TIPO, PROTECCIÓN DE DATOS, DESARROLLO DE PÁGINAS WEB Y TODO TIPO DE SERVICIO VINCULADOS A LA SEGURIDAD INFORMÁTICA, Y DEL EQUIPAMIENTO AFÍN A ELLO. 4) COMERCIALES: COMPRAVENTA Y COMERCIALIZACIÓN POR MAYOR Y MENOR, CONSIGNACIÓN, INTERMEDIACIÓN, CANJE, DISTRIBUCIÓN, COMISIÓN, REPRESENTACIÓN, FRANQUICIAMIENTO, PERMUTA, LEASING, IMPORTACIÓN Y EXPORTACIÓN DE SOFTWARE, HARDWARE, APARATOS Y EQUIPOS DE RADIOTELEFONÍA Y COMUNICACIONES, ACCESORIOS E INSUMOS INFORMÁTICOS Y DE TELECOMUNICACIONES Y/O DE CUALQUIER BIEN MATERIAL O INMATERIAL PRODUCIDO O ENSAMBLADO POR LA FIRMA. PRODUCCIÓN Y ENSAMBLADO DE HARDWARE INFORMÁTICO DE CUALQUIER TIPO, COMPUTADORAS, CENTRALES TELEFÓNICAS, APARATOS DE TELEFONÍA CELULAR, SERVIDORES Y/O CUALQUIERA DE SUS COMPONENTES. CREACIÓN DE CANALES DE COMERCIALIZACIÓN DE TODO TIPO DE LOS BIENES MATERIALES O INMATERIALES Y SERVICIOS COMERCIALIZADOS POR LA FIRMA.  EJERCER EL COMERCIO ELECTRÓNICO Y LA DISTRIBUCIÓN Y VENTA DE PRODUCTOS Y SERVICIOS A TRAVÉS DE INTERNET Y/O POR CUALQUIER TIPO DE MEDIO TECNOLÓGICO, SIEMPRE QUE EL OBJETO DE LOS ACTOS DE COMERCIO QUE SE REALICEN ESTÉN RELACIONADOS CON LA INFORMÁTICA Y LAS TELECOMUNICACIONES. 5) CAPACITACIÓN Y CERTIFICACIONES: BRINDAR CAPACITACIÓN Y OTORGAR CERTIFICACIONES DE CUALQUIER ACTIVIDAD RELACIONADA CON EL OBJETO SOCIAL DE LA FIRMA. EN EL CASO DE SER NECESARIO EN VIRTUD DE LA MATERIA DE CAPACITACIÓN, LA SOCIEDAD CONTRATARÁ PROFESIONALES DEBIDAMENTE MATRICULADOS A LOS FINES DE EFECTUAR LA CAPACITACIÓN. LA SOCIEDAD TENDRÁ PLENA CAPACIDAD JURÍDICA PARA REALIZAR LOS ACTOS JURÍDICOS NECESARIOS PARA LA CONSECUCIÓN DE SU OBJETO SOCIAL.",
      "mainEntityOfPage": "https://www.contratacion.euskadi.eus/webkpe00-kperoc/es/ac71aBusquedaRegistrosWar/empresa/08135",
      "_links": {
        "self": {
          "name": "MUNIDIGITAL, S.L.",
          "href": "https://api.euskadi.eus/procurements/companies/08135"
        }
      }
    },
    {
      "name": "TRADINSA INDUSTRIAL, S.L.",
      "registrationNumber": "08696",
      "identificationNumber": "B25533233",
      "address": "CL ESTACIO, 29",
      "location": {
        "postalCode": "25153",
        "municipality": "Puigverd de Lleida",
        "county": "Lleida",
        "municipalityId": "182",
        "countyId": "25"
      },
      "economicActivities": [
        {
          "id": "1.381",
          "name": "Construcción, reparación y mantenimiento de material ferroviario",
          "_links": {
            "self": {
              "name": "Construcción, reparación y mantenimiento de material ferroviario",
              "href": "https://api.euskadi.eus/procurements/companies/economic-activities/1.381"
            }
          }
        }
      ],
      "certificateStartDate": "2022-11-09",
      "certificateEndDate": "2023-05-09",
      "object": "A.- LA COMPRA, VENTA, COMERCIALIZACIÓN, REPRESENTACIÓN, FABRICACIÓN, REPARACIÓN, INSTALACIÓN Y MANTENIMIENTO DE TODA CLASE DE VEHÍCULOS AGRÍCOLAS, INDUSTRIALES, FERROVIARIOS, Y TODOS LOS EQUIPOS DE NATURALEZA, ELÉCTRICA, ELECTRÓNICA, MECÁNICA, HIDRÁULICA, NEUMÁTICA RELACIONADOS CON ELLOS, Y LA REALIZACIÓN DE CUALESQUIERA ACTIVIDADES ACCESORIAS, PREPARATORIOS O COMPLEMENTARIAS DE LAS INDICADAS ANTERIORMENTE. B.- LA COMPRA, VENTA, COMERCIALIZACIÓN, DISTRIBUCIÓN, REPRESENTACIÓN, FABRICACIÓN, REPARACIÓN, INSTALACIÓN Y MONTAJE DE TODA CLASE DE PRODUCTOS DE HIERRO, ALUMINIO Y DEMÁS ARTÍCULOS RELACIONADOS CON ELLOS, Y LA REALIZACIÓN DE CUALESQUIERA ACTIVIDADES ACCESORIAS, PREPARATORIAS O COMPLEMENTARIAS DE LAS INDICADAS ANTERIORMENTE; LA REALIZACIÓN Y EJECUCIÓN DE PROYECTOS, DISEÑOS Y OBRAS DE ESTRUCTURA METÁLICA EN HIERRO O ALUMINIO DECORATIVAS E INDUSTRIALES. C.- LA COMPRA, VENTA, COMERCIALIZACIÓN, DISTRIBUCIÓN, REPRESENTACIÓN, FABRICACIÓN, REPARACIÓN, INSTALACIÓN Y MONTAJE DE TODA CLASE DE PRODUCTOS DE IGNÍFUGOS, PLÁSTICOS, POLIÉSTER, RESINAS, FIBRAS, Y DEMÁS ARTÍCULOS RELACIONADOS CON ELLOS, Y LA REALIZACIÓN DE CUALESQUIERA ACTIVIDADES ACCESORIAS, PREPARATORIAS O COMPLEMENTARIAS DE LAS INDICADAS ANTERIORMENTE. D.- LA REALIZACIÓN DE TODA CLASE DE AISLAMIENTOS Y RECUBRIMIENTOS CON LOS EXPRESADOS PRODUCTOS U OTROS ANÁLOGOS Y SU REPARACIÓN; LA REALIZACIÓN DE PROYECTOS Y DISEÑOS DECORATIVOS E INDUSTRIALES, LA EJECUCIÓN DE OBRAS DE PINTURA INDUSTRIAL Y DECORATIVA, LA FABRICACIÓN DE TODA CLASE DE PIEZAS DE POLIÉSTER Y MATERIAS ANÁLOGAS PARA LA DECORACIÓN, CONSTRUCCIÓN, VEHÍCULOS, Y CUALESQUIERA OTROS USOS, Y CUANTAS OTRAS ACTIVIDADES SEAN ANTECEDENTES O CONSECUENTES CON TODO ELLO. ",
      "mainEntityOfPage": "https://www.contratacion.euskadi.eus/webkpe00-kperoc/es/ac71aBusquedaRegistrosWar/empresa/08696",
      "_links": {
        "self": {
          "name": "TRADINSA INDUSTRIAL, S.L.",
          "href": "https://api.euskadi.eus/procurements/companies/08696"
        }
      }
    },
    {
      "name": "INKOA SISTEMAS, S.L.",
      "registrationNumber": "01901",
      "identificationNumber": "B48525133",
      "address": "RIBERA DE AXPE, 11 EDIFICO D-1 LOCAL 208",
      "location": {
        "postalCode": "48950",
        "municipality": "Erandio",
        "county": "Bizkaia",
        "municipalityId": "902",
        "countyId": "48"
      },
      "economicActivities": [
        {
          "id": "1.843.1",
          "name": "Servicios técnicos de ingeniería",
          "_links": {
            "self": {
              "name": "Servicios técnicos de ingeniería",
              "href": "https://api.euskadi.eus/procurements/companies/economic-activities/1.843.1"
            }
          }
        }
      ],
      "certificateStartDate": "2022-11-09",
      "certificateEndDate": "2023-05-04",
      "object": "REDACCIÓN Y EJECUCIÓN DE PROYECTOS DE INGENIERÍA. SUMINISTRO E INSTALACIÓN DE INVERNADEROS DE EXPERIMENTACIÓN. SUMINISTRO E INSTALACIÓN DE INVERNADEROS PARA CULTIVOS. SUMINISTRO E INSTALACIÓN DE CÁMARAS DE CONDICIONES CLIMÁTICAS CONTROLADAS. INGENIERÍA DE SISTEMAS DE AUTOMATIZACIÓN Y CONTROL. DESARROLLAR ACTIVIDADES DE INVESTIGACIÓN Y REALIZAR ESTUDIOS Y LABORES DE CONSULTORÍA EN EL ÁREA AGRARIA, AMBIENTAL Y ALIMENTARIA Y DE LOS RECURSOS NATURALES, ASÍ COMO EN TECNOLOGÍA AGRARIA Y ALIMENTARIA. PRESTAR ASESORAMIENTO TÉCNICO Y ACTIVIDADES DE FORMACIÓN Y CAPACITACIÓN A LAS EXPLOTACIONES Y EMPRESAS DE TRANSFORMACIÓN Y DISTRIBUCIÓN. COMPRA-VENTA DE MAQUINARIA. REALIZACIÓN DE EDIFICACIONES DE HORMIGÓN Y METÁLICAS. REALIAZACIÓN DE TRABAJOS DE ALBAÑILERÍA Y AISLAMIENTOS. EJECUCIÓN DE TRABAJOS DE CARPINTERÍA METÁLICA Y DE PAVIMENTOS, SOLADOS Y ALICATADOS. REALIZACIÓN DE INSTALACIONES ELÉCTRICAS EN BAJA TENSIÓN, ELECTRÓNICAS Y DE TELECOMUNICACIONES. EJECUCIÓN DE MOVIMIENTOS DE TIERRAS, DESMONTES Y EXPLANACIONES. EJECUCIÓN DE SANEAMIENTOS, SISTEMAS DE RIEGO, SISTEMAS DE BOMBEO Y CONDUCCIONES CON TUBERÍAS",
      "mainEntityOfPage": "https://www.contratacion.euskadi.eus/webkpe00-kperoc/es/ac71aBusquedaRegistrosWar/empresa/01901",
      "_links": {
        "self": {
          "name": "INKOA SISTEMAS, S.L.",
          "href": "https://api.euskadi.eus/procurements/companies/01901"
        }
      }
    },
    {
      "name": "APOLO CENTRO DEPORTIVO ISCAR, S.L.",
      "registrationNumber": "08009",
      "identificationNumber": "B47658745",
      "address": "C/ Estación, 89 - 4A",
      "location": {
        "postalCode": "47004",
        "municipality": "Valladolid",
        "county": "Valladolid",
        "municipalityId": "186",
        "countyId": "47"
      },
      "economicActivities": [
        {
          "id": "1.654.5",
          "name": "Venta al por menor de toda clase de maquinaría",
          "_links": {
            "self": {
              "name": "Venta al por menor de toda clase de maquinaría",
              "href": "https://api.euskadi.eus/procurements/companies/economic-activities/1.654.5"
            }
          }
        },
        {
          "id": "1.659.6",
          "name": "Venta al por menor de juguetes, artículos de deporte",
          "_links": {
            "self": {
              "name": "Venta al por menor de juguetes, artículos de deporte",
              "href": "https://api.euskadi.eus/procurements/companies/economic-activities/1.659.6"
            }
          }
        }
      ],
      "certificateStartDate": "2022-11-08",
      "certificateEndDate": "2023-05-08",
      "object": "1.- LA EXPLOTACIÓN DE ESTABLECIMIENTOS Y/O SERVICIOS DE DEPORTE, SALUD, OCIO, CULTURA, ECOLÓGICOS, 3ª EDAD, COMERCIO Y HOSTELERÍA. 2.- DESARROLLO Y ASESORAMIENTO DE PROGRAMAS Y ACTIVIDADES DE ENTRENAMIENTO PARA PERSONAS QUE REALIZAN ACTIVIDADES DEPORTIVAS Y/O DE MANTENIMIENTO FÍSICO. 3.- PREPARACIÓN Y SUMINISTRO DE PRODUCTOS DIETÉTICOS Y ECOLÓGICOS PARA USO Y TRATAMIENTO DE LAS PERSONAS QUE REALIZAN ACTIVIDADES DEPORTIVAS Y/O DE MANTENIMIENTO FÍSICO. 4.- LA PLANIFICACIÓN, GESTIÓN Y/O PRESTACIÓN DE SERVICIOS DE CARÁCTER DEPORTIVO, NUTRICIONAL Y DIETÉTICO, PARA PERSONAS, GRUPOS Y ENTIDADES.  5.- LA PRESTACIÓN DE SERVICIOS DE CONSULTA, ORIENTACIÓN, REHABILITACIÓN Y TRATAMIENTO MÉDICO A PERSONAS QUE REALIZAN ACTIVIDADES DEPORTIVAS Y/O DE MANTENIMIENTO FÍSICO. 6.- EL DISEÑO, PLANIFICACIÓN, PROMOCIÓN, COORDINACIÓN Y DIRECCIÓN DE ACTOS, REUNIONES FIESTAS, FESTIVALES, ACAMPADAS, FOROS Y DEBATES CULTURALES, ENCUENTROS, TALLERES/WORKS HOP Y SPIMPOSIUM DE TODO TIPO, CON PRESTACIÓN DE LOS SERVICIOS CORRESPONDIENTES EN CADA ÁREA DE ACTUACIÓN MEDIANTE PERSONAL ESPECIALIZADO, PROPIO O SUBCONTRATADO. 7.- EL DISEÑO, ORGANIZACIÓN, PROMOCIÓN Y DESARROLLO DE SERVICIOS Y ACTIVIDADES CULTURALES, RECREATIVAS, ECOLÓGICAS Y DE OCIO, EN ESPACIOS URBANOS Y/O RURALES, CON CARÁCTER PROPIO O SUBCONTRATADO.  8.- LA ORGANIZACIÓN DE EVENTOS DE TODO TIPO, DE FORMA DIRECTA O SUBCONTRATADA, PARA INSTITUCIONES PÚBLICAS Y PRIVADAS, EMPRESAS Y PARTICULARES. 9.- EL ESTUDIO, RECUPERACIÓN Y PROMOCIÓN DE LA CULTURA, COSTUMBRES Y ARTESANÍA AUTÓCTONAS DE LAS REGIONES Y PUEBLOS DE ESPAÑA. 10.- LA ADQUISICIÓN, DESARROLLO, IMPLANTACIÓN Y COMERCIALIZACIÓN DE SISTEMAS ESPECIALIZADOS EN LAS NUEVAS TECNOLOGÍAS Y SERVICIOS RELACIONADOS CON LAS MISMAS. 11.-LA ADQUISICIÓN, DISTRIBUCIÓN, VENTA Y EXPLOTACIÓN, POR CUALQUIER TÍTULO, DE PRODUCTOS, LICENCIAS, PERMISOS, MARCAS, PATENTES, FRANQUICIAS Y EXCLUSIVAS NACIONALES Y EXTRANJERAS RELACIONADAS CON LAS MATERIAS ANTERIORMENTE RESEÑADAS COMO OBJETO DE LA ACTIVIDAD SOCIAL. 12.- LA ADQUISICIÓN, EXPLOTACIÓN EN CUALQUIER FORMA, COMERCIALIZACIÓN, CESIÓN Y ENAJENACIÓN DE CUALQUIER MODALIDAD DE PROPIEDAD INTELECTUAL E INDUSTRIAL RELACIONADAS CON EL OBJETO SOCIAL. 13.- LA REPRESENTACIÓN DE EMPRESAS NACIONALES Y EXTRANJERAS. 14.- LA IMPORTACIÓN Y EXPORTACIÓN, POR CUENTA PROPIA O AJENA, DE TODA CLASE DE PRODUCTOS. 15.- LA ORGANIZACIÓN Y GESTIÓN DE UN GRUPO DE COMPRAS DE ARTÍCULOS Y PRODUCTOS QUE SEAN DE INTERÉS PARA LA SOCIEDAD. 16.- LA REALIZACIÓN DE ESTUDIOS Y PROSPECCIONES RELACIONADAS CON EL MARKETING, MERCHANDISING, EL PATROCINIO, LA IMAGEN Y LA COMUNICACIÓN, ASÍ COMO LA PROMOCIÓN, CAPTACIÓN Y ADQUISICIÓN DE PUBLICIDAD, Y LA REALIZACIÓN Y PLANIFICACIÓN DE CAMPAÑAS PROMOCIONALES DE INTERÉS PARA LA SOCIEDAD. 17.- LA EDICIÓN DE IMPRESOS, CATÁLOGOS, REVISTAS, AUDIOVISUALES Y PUBLICACIONES QUE SIRVAN AL OBJETIVO DE PUBLICITAR LAS ACTIVIDADES DE LA SOCIEDAD Y/O EL GRUPO DE COMPRAS QUE SE CONSTITUYA POR LA MISMA. 18.- LA REALIZACIÓN DE OPERACIONES DE INVERSIÓN, COMPRA, VENTA Y ARRENDAMIENTO DE BIENES INMUEBLES Y LAS DIRECTA O INDIRECTAMENTE RELACIONADAS CON ELLAS.\t 19.- LA REALIZACIÓN DE LAS ACTIVIDADES ENUMERADAS, EN UNIÓN DE OTRAS SOCIEDADES CON OBJETO ANÁLOGO. 20.- LA PARTICIPACIÓN EN OTRAS COMPAÑÍAS MERCANTILES POR CUENTA PROPIA, SIN INCIDIR EN LAS ACTIVIDADES PROPIAS DE LAS INSTITUCIONES DE INVERSIÓN COLECTIVA O REGULADAS POR LA LEY DEL MERCADO DE VALORES. ",
      "mainEntityOfPage": "https://www.contratacion.euskadi.eus/webkpe00-kperoc/es/ac71aBusquedaRegistrosWar/empresa/08009",
      "_links": {
        "self": {
          "name": "APOLO CENTRO DEPORTIVO ISCAR, S.L.",
          "href": "https://api.euskadi.eus/procurements/companies/08009"
        }
      }
    },
    {
      "name": "MONICA LAMAS GALLEGO",
      "registrationNumber": "08382",
      "identificationNumber": "48004101L",
      "address": "C/ PERRUCHICO, 11",
      "location": {
        "postalCode": "01423",
        "municipality": "Añana",
        "county": "Araba/Álava",
        "municipalityId": "049",
        "countyId": "01"
      },
      "economicActivities": [
        {
          "id": "1.673.2",
          "name": "Otros cafés y bares",
          "_links": {
            "self": {
              "name": "Otros cafés y bares",
              "href": "https://api.euskadi.eus/procurements/companies/economic-activities/1.673.2"
            }
          }
        }
      ],
      "certificateStartDate": "2022-11-04",
      "certificateEndDate": "2023-04-29",
      "object": "OTROS CAFÉS Y BARES.",
      "mainEntityOfPage": "https://www.contratacion.euskadi.eus/webkpe00-kperoc/es/ac71aBusquedaRegistrosWar/empresa/08382",
      "_links": {
        "self": {
          "name": "MONICA LAMAS GALLEGO",
          "href": "https://api.euskadi.eus/procurements/companies/08382"
        }
      }
    },
    {
      "name": "IMMUCOR, S.L.",
      "registrationNumber": "03575",
      "identificationNumber": "B60328366",
      "address": "C/ARGENTERS, 7. EDIF. 2. LOCAL CB",
      "location": {
        "postalCode": "08290",
        "municipality": "Cerdanyola del Vallès",
        "county": "Barcelona",
        "municipalityId": "266",
        "countyId": "08"
      },
      "economicActivities": [
        {
          "id": "1.616.9",
          "name": "Otro comercio al por mayor interindustria de la minería n.c.o.p",
          "_links": {
            "self": {
              "name": "Otro comercio al por mayor interindustria de la minería n.c.o.p",
              "href": "https://api.euskadi.eus/procurements/companies/economic-activities/1.616.9"
            }
          }
        },
        {
          "id": "1.845",
          "name": "Explotación electrónica por cuenta de terceros",
          "_links": {
            "self": {
              "name": "Explotación electrónica por cuenta de terceros",
              "href": "https://api.euskadi.eus/procurements/companies/economic-activities/1.845"
            }
          }
        }
      ],
      "certificateStartDate": "2022-11-04",
      "certificateEndDate": "2023-05-04",
      "object": "LA REALIZACIÓN DE OPERACIONES DE INVESTIGACIÓN, FABRICACIÓN, COMERCIALIZACIÓN DE TODA CLASE DE PRODUCTOS QUÍMICOS PARA DIAGNÓSTICOS, APARATOS ELECTROMÉDICOS Y PARA ANÁLISIS DE LABORATORIO, ASÍ COMO LA ASISTENCIA TÉCNICA, MANTENIMIENTO Y REPARACIÓN DE LOS MISMOS",
      "mainEntityOfPage": "https://www.contratacion.euskadi.eus/webkpe00-kperoc/es/ac71aBusquedaRegistrosWar/empresa/03575",
      "_links": {
        "self": {
          "name": "IMMUCOR, S.L.",
          "href": "https://api.euskadi.eus/procurements/companies/03575"
        }
      }
    }
  ]
}