{
  "totalItems": 9042,
  "totalPages": 905,
  "currentPage": 853,
  "itemsOfPage": 10,
  "items": [
    {
      "name": "ERIZGAIN, S.L.",
      "registrationNumber": "03404",
      "identificationNumber": "B01278860",
      "address": "POLIGONO  LITUTXIPI. PABELLÓN  14",
      "location": {
        "postalCode": "01200",
        "municipality": "Agurain/Salvatierra",
        "county": "Araba/Álava",
        "municipalityId": "051",
        "countyId": "01"
      },
      "object": "pte",
      "mainEntityOfPage": "https://www.contratacion.euskadi.eus/webkpe00-kperoc/es/ac71aBusquedaRegistrosWar/empresa/03404",
      "_links": {
        "self": {
          "name": "ERIZGAIN, S.L.",
          "href": "https://api.euskadi.eus/procurements/companies/03404"
        }
      }
    },
    {
      "name": "CREATIVE DREAM, S.L.",
      "registrationNumber": "03405",
      "identificationNumber": "B01340504",
      "address": "PORTAL DE GAMARRA 1 OFIC 313",
      "location": {
        "postalCode": "01013",
        "municipality": "Vitoria-Gasteiz",
        "county": "Araba/Álava",
        "municipalityId": "059",
        "countyId": "01"
      },
      "object": "pte",
      "mainEntityOfPage": "https://www.contratacion.euskadi.eus/webkpe00-kperoc/es/ac71aBusquedaRegistrosWar/empresa/03405",
      "_links": {
        "self": {
          "name": "CREATIVE DREAM, S.L.",
          "href": "https://api.euskadi.eus/procurements/companies/03405"
        }
      }
    },
    {
      "name": "DDA COMUNICACIÓN, S.L.",
      "registrationNumber": "03406",
      "identificationNumber": "B48960579",
      "address": "RODRIGUEZ ARIAS 6",
      "location": {
        "postalCode": "48008",
        "municipality": "Bilbao",
        "county": "Bizkaia",
        "municipalityId": "020",
        "countyId": "48"
      },
      "object": ".",
      "mainEntityOfPage": "https://www.contratacion.euskadi.eus/webkpe00-kperoc/es/ac71aBusquedaRegistrosWar/empresa/03406",
      "_links": {
        "self": {
          "name": "DDA COMUNICACIÓN, S.L.",
          "href": "https://api.euskadi.eus/procurements/companies/03406"
        }
      }
    },
    {
      "name": "OBEBIZKAIA, S.L.",
      "registrationNumber": "03423",
      "identificationNumber": "B95483962",
      "address": "JUAN AJURIAGUERRA 9, 5º IZDA",
      "location": {
        "postalCode": "48009",
        "municipality": "Bilbao",
        "county": "Bizkaia",
        "municipalityId": "020",
        "countyId": "48"
      },
      "object": "pte.",
      "mainEntityOfPage": "https://www.contratacion.euskadi.eus/webkpe00-kperoc/es/ac71aBusquedaRegistrosWar/empresa/03423",
      "_links": {
        "self": {
          "name": "OBEBIZKAIA, S.L.",
          "href": "https://api.euskadi.eus/procurements/companies/03423"
        }
      }
    },
    {
      "name": "JAVIER PAGOLA, S.L.",
      "registrationNumber": "03425",
      "identificationNumber": "B20855037",
      "address": "ARITZOLA, 7",
      "location": {
        "postalCode": "20000",
        "municipality": "Urnieta",
        "county": "Gipuzkoa",
        "municipalityId": "072",
        "countyId": "20"
      },
      "object": ".",
      "mainEntityOfPage": "https://www.contratacion.euskadi.eus/webkpe00-kperoc/es/ac71aBusquedaRegistrosWar/empresa/03425",
      "_links": {
        "self": {
          "name": "JAVIER PAGOLA, S.L.",
          "href": "https://api.euskadi.eus/procurements/companies/03425"
        }
      }
    },
    {
      "name": "OLETA ETXEGINTZA, S.L.",
      "registrationNumber": "03438",
      "identificationNumber": "B20640744",
      "address": "PZA BIZKARGI, S/N",
      "location": {
        "postalCode": "20720",
        "municipality": "Azkoitia",
        "county": "Gipuzkoa",
        "municipalityId": "017",
        "countyId": "20"
      },
      "object": "pte",
      "mainEntityOfPage": "https://www.contratacion.euskadi.eus/webkpe00-kperoc/es/ac71aBusquedaRegistrosWar/empresa/03438",
      "_links": {
        "self": {
          "name": "OLETA ETXEGINTZA, S.L.",
          "href": "https://api.euskadi.eus/procurements/companies/03438"
        }
      }
    },
    {
      "name": "ACCESORIOS INDUSTRIALES RIMA, S.L.",
      "registrationNumber": "03476",
      "identificationNumber": "B48256366",
      "address": "POL INDUSTRIAL AURRERA Nº 13",
      "location": {
        "postalCode": "48510",
        "municipality": "Valle de Trápaga-Trapagaran",
        "county": "Bizkaia",
        "municipalityId": "080",
        "countyId": "48"
      },
      "object": "pte",
      "mainEntityOfPage": "https://www.contratacion.euskadi.eus/webkpe00-kperoc/es/ac71aBusquedaRegistrosWar/empresa/03476",
      "_links": {
        "self": {
          "name": "ACCESORIOS INDUSTRIALES RIMA, S.L.",
          "href": "https://api.euskadi.eus/procurements/companies/03476"
        }
      }
    },
    {
      "name": "ELGOIBARKO EMAKUMEAK, S.COOP.",
      "registrationNumber": "03479",
      "identificationNumber": "F20651550",
      "address": "C/ ANTONIO ARRILLAGA Nº 4-BAJO",
      "location": {
        "postalCode": "20870",
        "municipality": "Elgoibar",
        "county": "Gipuzkoa",
        "municipalityId": "032",
        "countyId": "20"
      },
      "object": ".",
      "mainEntityOfPage": "https://www.contratacion.euskadi.eus/webkpe00-kperoc/es/ac71aBusquedaRegistrosWar/empresa/03479",
      "_links": {
        "self": {
          "name": "ELGOIBARKO EMAKUMEAK, S.COOP.",
          "href": "https://api.euskadi.eus/procurements/companies/03479"
        }
      }
    },
    {
      "name": "VEULSA, S.A.",
      "registrationNumber": "03480",
      "identificationNumber": "A01032705",
      "address": "ERDIKO KALEA, Nº 13- BAJO",
      "location": {
        "postalCode": "01474",
        "municipality": "Artziniega",
        "county": "Araba/Álava",
        "municipalityId": "004",
        "countyId": "01"
      },
      "object": "pte",
      "mainEntityOfPage": "https://www.contratacion.euskadi.eus/webkpe00-kperoc/es/ac71aBusquedaRegistrosWar/empresa/03480",
      "_links": {
        "self": {
          "name": "VEULSA, S.A.",
          "href": "https://api.euskadi.eus/procurements/companies/03480"
        }
      }
    },
    {
      "name": "SODUPE ELEKTRIKARIA, S.L.",
      "registrationNumber": "03506",
      "identificationNumber": "B20725313",
      "address": "GOARDIAKO INDUSTRIAGUNEA, 14-1 ATZEA",
      "location": {
        "postalCode": "20213",
        "municipality": "Idiazabal",
        "county": "Gipuzkoa",
        "municipalityId": "043",
        "countyId": "20"
      },
      "object": ".",
      "mainEntityOfPage": "https://www.contratacion.euskadi.eus/webkpe00-kperoc/es/ac71aBusquedaRegistrosWar/empresa/03506",
      "_links": {
        "self": {
          "name": "SODUPE ELEKTRIKARIA, S.L.",
          "href": "https://api.euskadi.eus/procurements/companies/03506"
        }
      }
    }
  ]
}