{
  "totalItems": 9042,
  "totalPages": 905,
  "currentPage": 625,
  "itemsOfPage": 10,
  "items": [
    {
      "name": "PESA BIZKAIA, S.A.",
      "registrationNumber": "03484",
      "identificationNumber": "A48865679",
      "address": "Bº BOLUNBURU 14 B",
      "location": {
        "postalCode": "48330",
        "municipality": "Lemoa",
        "county": "Bizkaia",
        "municipalityId": "055",
        "countyId": "48"
      },
      "economicActivities": [
        {
          "id": "1.721.3",
          "name": "Transporte de viajeros por carretera",
          "_links": {
            "self": {
              "name": "Transporte de viajeros por carretera",
              "href": "https://api.euskadi.eus/procurements/companies/economic-activities/1.721.3"
            }
          }
        },
        {
          "id": "1.861.2",
          "name": "Alquiler de locales industriales y otros alquileres n.c.o.p",
          "_links": {
            "self": {
              "name": "Alquiler de locales industriales y otros alquileres n.c.o.p",
              "href": "https://api.euskadi.eus/procurements/companies/economic-activities/1.861.2"
            }
          }
        }
      ],
      "certificateStartDate": "2018-10-05",
      "certificateEndDate": "2019-03-04",
      "object": "LA EXPLOTACIÓN DE SERVICIOS PÚBLICOS DE TRANSPORTE DE VIAJEROS, DE MERCANCÍAS O MIXTOS, POR CARRETERA",
      "mainEntityOfPage": "https://www.contratacion.euskadi.eus/webkpe00-kperoc/es/ac71aBusquedaRegistrosWar/empresa/03484",
      "_links": {
        "self": {
          "name": "PESA BIZKAIA, S.A.",
          "href": "https://api.euskadi.eus/procurements/companies/03484"
        }
      }
    },
    {
      "name": "ELIOESTUDIO COMUNICACION SL",
      "registrationNumber": "05712",
      "identificationNumber": "B90329020",
      "address": "CALLE CARDENAL CISNEROS 26",
      "location": {
        "postalCode": "41930",
        "municipality": "Bormujos",
        "county": "Sevilla",
        "municipalityId": "017",
        "countyId": "41"
      },
      "economicActivities": [
        {
          "id": "1.844",
          "name": "Servicios de publicidad, relaciones públicas y similares",
          "_links": {
            "self": {
              "name": "Servicios de publicidad, relaciones públicas y similares",
              "href": "https://api.euskadi.eus/procurements/companies/economic-activities/1.844"
            }
          }
        }
      ],
      "certificateStartDate": "2018-10-03",
      "certificateEndDate": "2019-02-16",
      "object": "AGENCIAS DE PUBLICIDAD. SI ALGUNA DE LAS ACTIVIDADES ELEGIDAS FUERE DE CARACTER PROFESIONAL, LA SOCIEDAD LA EJERCERÁ COMO INTERMEDIADORA ENTRE EL PROFESIONAL PRESTADOR DEL SERVICIO Y EL CONSUMIDOR",
      "mainEntityOfPage": "https://www.contratacion.euskadi.eus/webkpe00-kperoc/es/ac71aBusquedaRegistrosWar/empresa/05712",
      "_links": {
        "self": {
          "name": "ELIOESTUDIO COMUNICACION SL",
          "href": "https://api.euskadi.eus/procurements/companies/05712"
        }
      }
    },
    {
      "name": "S.E.I. INGENIERÍA ELÉCTRICA DE CONSTRUCCIONES Y MONTAJES, S.A.",
      "registrationNumber": "03883",
      "identificationNumber": "A48080592",
      "address": "LARRRONDO BEHEKO ETORBIDEA, EDIFICIO 3-NAVES 12-13",
      "location": {
        "postalCode": "48180",
        "municipality": "Loiu",
        "county": "Bizkaia",
        "municipalityId": "903",
        "countyId": "48"
      },
      "economicActivities": [
        {
          "id": "1.504.12",
          "name": "Instalaciones eléctricas en toda clase de edificios",
          "_links": {
            "self": {
              "name": "Instalaciones eléctricas en toda clase de edificios",
              "href": "https://api.euskadi.eus/procurements/companies/economic-activities/1.504.12"
            }
          }
        }
      ],
      "certificateStartDate": "2018-10-02",
      "certificateEndDate": "2019-03-18",
      "object": "LA PROYECCIÓN, CONSTRUCCIÓN, MONTAJE, REPARACIÓN Y SUMINISTRO DE EQUIPOS Y CUADROS ELÉCTRICOS, Y CUANTAS OTRAS ACTIVIDADES COMERCIALES, INDUSTRIALES O DE SERVICIOS TENGAN RELACIÓN CON LAS INSTALACIONES ELÉCTRICAS EN GENERAL O QUE DE ALGÚN MODO LAS FACILITEN O FAVOREZCAN",
      "mainEntityOfPage": "https://www.contratacion.euskadi.eus/webkpe00-kperoc/es/ac71aBusquedaRegistrosWar/empresa/03883",
      "_links": {
        "self": {
          "name": "S.E.I. INGENIERÍA ELÉCTRICA DE CONSTRUCCIONES Y MONTAJES, S.A.",
          "href": "https://api.euskadi.eus/procurements/companies/03883"
        }
      }
    },
    {
      "name": "INTERNACIONAL PERIFERICOS Y MEMORIAS ESPAÑA, S.L.U.",
      "registrationNumber": "03997",
      "identificationNumber": "B62758602",
      "address": "C/ Josefa Valcárcel, 3-5, planta 2",
      "location": {
        "postalCode": "28027",
        "municipality": "Madrid",
        "county": "Madrid",
        "municipalityId": "079",
        "countyId": "28"
      },
      "economicActivities": [
        {
          "id": "1.615.4",
          "name": "Venta al por mayor de aparatos y material radioeléctrico y electrónico",
          "_links": {
            "self": {
              "name": "Venta al por mayor de aparatos y material radioeléctrico y electrónico",
              "href": "https://api.euskadi.eus/procurements/companies/economic-activities/1.615.4"
            }
          }
        },
        {
          "id": "1.659.2",
          "name": "Venta al por menor de muebles de oficina y máquinas y equipos de oficina",
          "_links": {
            "self": {
              "name": "Venta al por menor de muebles de oficina y máquinas y equipos de oficina",
              "href": "https://api.euskadi.eus/procurements/companies/economic-activities/1.659.2"
            }
          }
        },
        {
          "id": "1.845",
          "name": "Explotación electrónica por cuenta de terceros",
          "_links": {
            "self": {
              "name": "Explotación electrónica por cuenta de terceros",
              "href": "https://api.euskadi.eus/procurements/companies/economic-activities/1.845"
            }
          }
        },
        {
          "id": "1.853",
          "name": "Alquiler de maquinaria y equipo contable de oficina y cálculo",
          "_links": {
            "self": {
              "name": "Alquiler de maquinaria y equipo contable de oficina y cálculo",
              "href": "https://api.euskadi.eus/procurements/companies/economic-activities/1.853"
            }
          }
        }
      ],
      "certificateStartDate": "2018-10-02",
      "certificateEndDate": "2018-11-02",
      "object": "A) EL OBJETO DE LA SOCIEDAD LO CONSTITUYE LA COMPRA-VENTA, ALQUILER, MANTENIMIENTO Y REPRESENTACIÓN DE MAQUINARIA ELECTRÓNICA Y EL ASESORAMIENTO DE COMPAÑÍAS, ENTIDADES O PERSONAS EXTRANJERAS Y NACIONALES, LAS QUE SEAN PREPARATORIAS, CONEXAS O COMPLEMENTARIAS; B) LA PRESTACIÓN DE SERVICIOS DE ESTUDIO Y ANÁLISIS DE PROCESOS PARA SU TRATAMIENTO MECÁNICO, DE PROGRAMACIÓN PARA EQUIPOS ELECTRÓNICOS, DE REGISTRO DE DATOS EN SOPORTES DE ENTRADA PARA ORDENADORES, ASÍ COMO LA VENTA DE PROGRMAS, EL PROCESO DE DATOS POR CUENTA DE TERCEROS Y OTROS SERVICIOS INDEPENDIENTES DE ELABORACIÓN DE DATOS Y TABULACIÓN; C) LA SOCIEDAD PODRÁ REALIZAR DICHO OBJETO DIRECTAMENTE O BIEN DE FORMA INDIRECTA MEDIANTE LA TITULARIDAD DE ACCIONES O PARTICIPACIONES EN SOCIEDADES DE IDÉNTICO O ANÁLOGO OBJETO SOCIAL",
      "mainEntityOfPage": "https://www.contratacion.euskadi.eus/webkpe00-kperoc/es/ac71aBusquedaRegistrosWar/empresa/03997",
      "_links": {
        "self": {
          "name": "INTERNACIONAL PERIFERICOS Y MEMORIAS ESPAÑA, S.L.U.",
          "href": "https://api.euskadi.eus/procurements/companies/03997"
        }
      }
    },
    {
      "name": "COMERCIAL DE LIMPIEZA VILLAR, S.A.",
      "registrationNumber": "00198",
      "identificationNumber": "A48071039",
      "address": "C/ ANDRÉS ISASI, Nº 11 - BAJO IZDA.",
      "location": {
        "postalCode": "48012",
        "municipality": "Bilbao",
        "county": "Bizkaia",
        "municipalityId": "020",
        "countyId": "48"
      },
      "economicActivities": [
        {
          "id": "1.921.1",
          "name": "Servicios de limpieza en calles, vías públicas y jardines",
          "_links": {
            "self": {
              "name": "Servicios de limpieza en calles, vías públicas y jardines",
              "href": "https://api.euskadi.eus/procurements/companies/economic-activities/1.921.1"
            }
          }
        },
        {
          "id": "1.921.3",
          "name": "Exterminio de animales dañinos y desinfección",
          "_links": {
            "self": {
              "name": "Exterminio de animales dañinos y desinfección",
              "href": "https://api.euskadi.eus/procurements/companies/economic-activities/1.921.3"
            }
          }
        },
        {
          "id": "1.922",
          "name": "Servicios de limpieza",
          "_links": {
            "self": {
              "name": "Servicios de limpieza",
              "href": "https://api.euskadi.eus/procurements/companies/economic-activities/1.922"
            }
          }
        },
        {
          "id": "1.922.1",
          "name": "Servicios de limpieza de interiores",
          "_links": {
            "self": {
              "name": "Servicios de limpieza de interiores",
              "href": "https://api.euskadi.eus/procurements/companies/economic-activities/1.922.1"
            }
          }
        }
      ],
      "certificateStartDate": "2018-10-01",
      "certificateEndDate": "2019-03-03",
      "object": "LA EJECUCIÓN DE TODA CLASE DE SERVICIOS DE LIMPIEZA, DESINFECCIÓN, DESINSECTACIÓN, DESRATIZACIÓN, EN EDIFICIOS, BUQUES, AERONAVES, AUTOBUSES, TRENES Y CUALESQUIERA CONSTRUCCIONES Y EDIFICIOS. LA REALIZACIÓN DE OBRAS DE ALBAÑILERÍA, CARPINTERÍA, HOJALATERÍA, FONTANERÍA, PINTURA AISLANTES E IMPERMEABLES Y OPERACIONES DE REPARACIÓN Y EMBELLECIMIENTO EN TODA CLASE DE EDIFICIOS, VÍAS PÚBLICAS Y PRIVADAS, PLAZAS, INSTALACIONES DEPORTIVAS, JARDINES, BUQUES, AERONAVES Y VEHÍCULOS EN GENERAL. LA CUSTODIA Y ENTRETENIMIENTO DE GARAJES, EDIFICIOS Y LOCALES EN GENERAL, POR MEDIO DE EMPLEADOS DE LA COMPAÑÍA. EL MANTENIMIENTO DEL SERVICIO DE CALEFACCIÓN, AIRE ACONDICIONADO, ELECTRICIDAD Y ACONDICIONAMIENTO EN GENERAL DE AMBIENTES EN LOCALES, BUQUES, TRENES, AERONAVES Y VEHÍCULOS EN GENERAL. LA REALIZACIÓN DE TODO TIPO DE SERVICIOS DE HOSTELERÍA, LIMPIEZA DE LOCALES, INSTALACONES, MATERIALES, ETC., EXPLOTACIÓN DE CAFETERÍAS, BARES, RESTAURANTES, LA REALIZACIÓN DE SUMINISTROS DE TODO TIPO DE BIENES DE ESTE RAMO CITADO DE  HOSTELERÍA A COLEGIOS, EMPRESAS, HOSPITALES, HOTELES, CAFETERÍAS, RESTAURANTES, ETC., LA REALIZACIÓN DE PROYECTOS, PLANIFICACIONES E INSTALACIONES DE TODO TIPO DE BIENES Y SERVICIOS RELATIVOS AL REPETIDO RAMO; Y, EN RELACIÓN CON LO APUNTADO, LA COMPRA, VENTA, COMERCIALIZACIÓN, DISTRIBUCIÓN, IMPORTACIÓN Y EXPORTACIÓN DE TODO TIPO DE PRODUCTOS; MANOFACTURACIÓN Y ENVASADO DE COMIDAS, ASI COMO LAS TRANSFORMACIONES ALIMENTICIAS. LA REALIZACIÓN DE TODO TIPO DE SERVICIOS Y TRABAJOS DE LAVANDERÍA, TANTO AL DETALLE COMO INDUSTRIAL PARA LA HOSTELERÍA, COLEGIOS, EMPRESAS, HOSPITALES, HOTELES, CAFETERÍAS Y RESTAURANTES, ETC., LA REALIZACIÓN DE PROYECTOS, PLANIFICACIONES E INSTALACIONES DE TODO TIPO DE BIENES Y SERVICIOS RELATIVOS AL REPETIDO RAMO; Y, EN RELACIÓN CON LO APUNTADO, LA COMPRA, VENTA, COMERCIALIZACIÓN, DISTRIBUCIÓN, IMPORTACIÓN Y EXPORTACIÓN DE TODO TIPO DE PRODUCTOS Y ARTÍCULOS DE LIMPIEZA. LA IMPORTACIÓN Y EXPORTACIÓN, DISTRIBUCIÓN, COMERCIALIZACIÓN (POR MEDIOS PROPIOS Y AJENOS), VENTA AL MAYOR Y MENOR, COMO CONCESIONARIO, ALMACENISTA, DETALLISTA O EXCLUSIVISTA DE PRODUCTOS Y BIENES METALÚRGICOS, ACEROS INOXIDABLES, COBRE Y ALUMINIO, INCLUIO LOS TRABAJOS DE MANTENIMIENTO, REPARACIÓN, CONSTRUCCIÓN Y MONTAJE, ASÍ COMO EL ESTUDIO Y RESOLUCIÓN DE TODAS CUANTAS CUESTIONES TÉCNICAS Y DE CUALQUIER ORDEN, ESTÉN RELACIONADAS O PUEDAN PLANTEARSE CON LO DICHO. LA ADQUISICIÓN Y ENAJENACIÓN DE BIENES INMUEBLES. ESTIBA Y DESESTIBA Y AMARRE DE BUQUES, TRABAJOS DE MARINERÍA A BORDO, SOBRE MUELLES, DURANTE LA NAVEGACIÓN Y DURANTE LA CONSTRUCCIÓN DE BUQUES. LIMPIEZA Y DESINFECCIÓN DE CONDUCCIONES DE AIRE ACONDICIONADO, TORRES DE REFRIGERACIÓN, CONDUCCIONES DE AGUA FRÍA Y CALIENTE, INSTALACIONES Y TUBERIAS, EN TODO TIPO DE EDIFICIO, INDUSTRIAS, BUQUES, AERONAVES Y VEHÍCULOS. TRABAJOS AUXILIARES QUE REQUIEREN APORTACIÓN DE MANO DE OBRA, EN CUALQUIER ACTIVIDAD COMPRENDIDA DENTRO DEL OBJETO SOCIAL DE LA COMPAÑÍA",
      "mainEntityOfPage": "https://www.contratacion.euskadi.eus/webkpe00-kperoc/es/ac71aBusquedaRegistrosWar/empresa/00198",
      "_links": {
        "self": {
          "name": "COMERCIAL DE LIMPIEZA VILLAR, S.A.",
          "href": "https://api.euskadi.eus/procurements/companies/00198"
        }
      }
    },
    {
      "name": "ELIGEN DIAGNOSTICA, S.L.",
      "registrationNumber": "05125",
      "identificationNumber": "B86760337",
      "address": "BRISTOL, 4 - BAJO IZQDA.",
      "location": {
        "postalCode": "28028",
        "municipality": "Madrid",
        "county": "Madrid",
        "municipalityId": "079",
        "countyId": "28"
      },
      "economicActivities": [
        {
          "id": "1.614.1",
          "name": "Venta al por mayor de productos farmacéuticos y medicamentos",
          "_links": {
            "self": {
              "name": "Venta al por mayor de productos farmacéuticos y medicamentos",
              "href": "https://api.euskadi.eus/procurements/companies/economic-activities/1.614.1"
            }
          }
        }
      ],
      "certificateStartDate": "2018-09-25",
      "certificateEndDate": "2019-02-08",
      "object": "LA FABRICACIÓN, DISTRIBUCIÓN Y COMERCIALIZACIÓN DE PRODUCTOS QUÍMICOS, FARMACÉUTICOS, MÉDICOS Y DE LABORATORIO, ASÍ COMO DE LA MAQUINARIA NECESARIA PARA SU PRODUCCIÓN, PARA LA EJECUCIÓN DE ANÁLISIS CLÍNICOS, MÉDICOS O FARMACÉUTICOS",
      "mainEntityOfPage": "https://www.contratacion.euskadi.eus/webkpe00-kperoc/es/ac71aBusquedaRegistrosWar/empresa/05125",
      "_links": {
        "self": {
          "name": "ELIGEN DIAGNOSTICA, S.L.",
          "href": "https://api.euskadi.eus/procurements/companies/05125"
        }
      }
    },
    {
      "name": "ACADEMIA BASTIDA, S.L.",
      "registrationNumber": "04456",
      "identificationNumber": "B20777058",
      "address": "AVDA. DE ALAVA 3, 1º",
      "location": {
        "postalCode": "20500",
        "municipality": "Arrasate / Mondragón",
        "county": "Gipuzkoa",
        "municipalityId": "055",
        "countyId": "20"
      },
      "economicActivities": [
        {
          "id": "1.933.9",
          "name": "Otras actividades de enseñanza tales como idiomas, mecanografía",
          "_links": {
            "self": {
              "name": "Otras actividades de enseñanza tales como idiomas, mecanografía",
              "href": "https://api.euskadi.eus/procurements/companies/economic-activities/1.933.9"
            }
          }
        }
      ],
      "certificateStartDate": "2018-09-24",
      "certificateEndDate": "2019-03-24",
      "object": "LA FORMACIÓN CONTÍNUA Y OCUPACIONAL DE CARÁCTER INSTITUCIONAL O PÚBLICO",
      "mainEntityOfPage": "https://www.contratacion.euskadi.eus/webkpe00-kperoc/es/ac71aBusquedaRegistrosWar/empresa/04456",
      "_links": {
        "self": {
          "name": "ACADEMIA BASTIDA, S.L.",
          "href": "https://api.euskadi.eus/procurements/companies/04456"
        }
      }
    },
    {
      "name": "JESUS MARTIN ARRIETA VIERNA",
      "registrationNumber": "05861",
      "identificationNumber": "16229315D",
      "address": "C/ GENERAL ALAVA 10-3º OFIC. 1",
      "location": {
        "postalCode": "01005",
        "municipality": "Vitoria-Gasteiz",
        "county": "Araba/Álava",
        "municipalityId": "059",
        "countyId": "01"
      },
      "economicActivities": [
        {
          "id": "2.732",
          "name": "Procuradores",
          "_links": {
            "self": {
              "name": "Procuradores",
              "href": "https://api.euskadi.eus/procurements/companies/economic-activities/2.732"
            }
          }
        }
      ],
      "certificateStartDate": "2018-09-24",
      "certificateEndDate": "2019-03-13",
      "object": "PROCURADOR DE LOS TRIBUNALES",
      "mainEntityOfPage": "https://www.contratacion.euskadi.eus/webkpe00-kperoc/es/ac71aBusquedaRegistrosWar/empresa/05861",
      "_links": {
        "self": {
          "name": "JESUS MARTIN ARRIETA VIERNA",
          "href": "https://api.euskadi.eus/procurements/companies/05861"
        }
      }
    },
    {
      "name": "INSTALACIONES ESPECIALES DE GENERACION SL",
      "registrationNumber": "05862",
      "identificationNumber": "B75048793",
      "address": "JAIZKIBEL 36-BAJO",
      "location": {
        "postalCode": "20100",
        "municipality": "Lezo",
        "county": "Gipuzkoa",
        "municipalityId": "053",
        "countyId": "20"
      },
      "economicActivities": [
        {
          "id": "1.843.9",
          "name": "Otros servicios técnicos n.c.o.p",
          "_links": {
            "self": {
              "name": "Otros servicios técnicos n.c.o.p",
              "href": "https://api.euskadi.eus/procurements/companies/economic-activities/1.843.9"
            }
          }
        }
      ],
      "certificateStartDate": "2018-09-24",
      "certificateEndDate": "2019-01-27",
      "object": "LA GESTION ENERGETICA EN EDIFICIOS PÚBLICOS, PRIVADOS Y DE CUALQUIER ÍNDOLE, GESTION DE FRIO, CALOR, CLIMATIZACIÓN, ELECTRICIDAD O CUALQUIER OTRA FUENTE DE ENERGÍA, RENOVABLE O SISTEMAS DE COGENERACIÓN. EXPLOTACIÓN DE PLANTAS Y EQUIPOS DE PRODUCCIÓN TÉRMICA Y FRIGORÍFICA INCLUYENDO LA REALIZACIÓN DE EXPORTACIÓN DE ENERGÍA A LA RED GENERAL PÚBLICA YA SEA DE CALOR, FRÍO O ELECTRICIDAD. GESTIÓN, DESARROLLO, FABRICACIÓN, INNOVACIÓN DE CONSUMOS ENERGÉTICOS INDIVIDUALIZADOS Y REALIZACIÓN DE RECIBOS DE CONSUMO DE ENERGÍA TÉRMICA, FRIGORÍFICA O ELÉCTRICA, ASÍ COMO LA VENTA DE SISTEMAS O HERRAMIENTAS PARA EL CONTROL DE ENERGÍA EN CUALQUIERA DE SUS APLICACIONES. ASESORAMIENTO Y REALIZACIÓN DE ESTUDIOS DE VIABILIDAD PARA LA IMPLANTACIÓN DE SISTEMAS DE DISTRIBUCIÓN TÉRMICA CENTRALIZADA, AUDITORIAS ENERGÉTICAS, TRAMITACIÓN DE SUBVENCIONES Y CONSULTORÍA ENERGÉTICA E INTERMEDIACIÓN ENERGÉTICA, ESTO ES, LA PROMOCIÓN E, INSTALACIÓN DE EQUIPOS DE COGENERACIÓN ENERGÉTICA POR CUENTA PROPIA Y DISTRIBUCIÓN DE EQUIPOS, ASÍ COMO EL MANTENIMIENTO DE LOS MISMOS, DISPUESTOS PARA LA PRODUCCIÓN DE ENERGÍA. LA COMPRA Y VENTA DE EQUIPOS DE COGENERACIÓN ENERGÉTICA O DE CUALQUIER OTRA CLASE DE ENERGÍA",
      "mainEntityOfPage": "https://www.contratacion.euskadi.eus/webkpe00-kperoc/es/ac71aBusquedaRegistrosWar/empresa/05862",
      "_links": {
        "self": {
          "name": "INSTALACIONES ESPECIALES DE GENERACION SL",
          "href": "https://api.euskadi.eus/procurements/companies/05862"
        }
      }
    },
    {
      "name": "LAPIKO CATERING, S.L.",
      "registrationNumber": "05865",
      "identificationNumber": "B95656583",
      "address": "CARRETERA BILBAO GALDAKAO, 10",
      "location": {
        "postalCode": "48004",
        "municipality": "Bilbao",
        "county": "Bizkaia",
        "municipalityId": "020",
        "countyId": "48"
      },
      "economicActivities": [
        {
          "id": "1.677.9",
          "name": "Otros servicios de alimentación propios de la restauración",
          "_links": {
            "self": {
              "name": "Otros servicios de alimentación propios de la restauración",
              "href": "https://api.euskadi.eus/procurements/companies/economic-activities/1.677.9"
            }
          }
        }
      ],
      "certificateStartDate": "2018-09-24",
      "certificateEndDate": "2019-01-11",
      "object": "FAVORECER LA INSERCIÓN SOCIAL Y LABORAL DE COLECTIVOS EN SITUACIÓN O EN RIESGO DE EXCLUSIÓN, COMO PUEDEN SER JÓVENES, MUJERES, PERSONAS DESEMPLEADAS, PERSONAS CON DISCAPACIDAD, ETC., A TRAVÉS DE LA EJECUCIÓN DE TRABAJO Y SERVICIOS EN EL SECTOR DE HOSTELERÍA EN GENERAL, SERVICIOS DE CATERING, SERVICIO DE COMIDA A COLECTIVIDADES",
      "mainEntityOfPage": "https://www.contratacion.euskadi.eus/webkpe00-kperoc/es/ac71aBusquedaRegistrosWar/empresa/05865",
      "_links": {
        "self": {
          "name": "LAPIKO CATERING, S.L.",
          "href": "https://api.euskadi.eus/procurements/companies/05865"
        }
      }
    }
  ]
}