{
  "totalItems": 9042,
  "totalPages": 905,
  "currentPage": 588,
  "itemsOfPage": 10,
  "items": [
    {
      "name": "ARQUIA TURISMO, S.L.",
      "registrationNumber": "06729",
      "identificationNumber": "B39877295",
      "address": "Avda. Los Castros 44, Local P-210, CDTUC, E.T.S.I. Industriales y Telecomunicaci",
      "location": {
        "postalCode": "39005",
        "municipality": "Santander",
        "county": "Cantabria",
        "municipalityId": "075",
        "countyId": "39"
      },
      "economicActivities": [
        {
          "id": "1.849.9",
          "name": "Otros servicios independientes n.c.o.p",
          "_links": {
            "self": {
              "name": "Otros servicios independientes n.c.o.p",
              "href": "https://api.euskadi.eus/procurements/companies/economic-activities/1.849.9"
            }
          }
        }
      ],
      "certificateStartDate": "2019-12-17",
      "certificateEndDate": "2020-04-01",
      "object": "LA CONSULTORÍA ESTRATÉGICA EN EL MARCO DEL SECTOR TURISMO, LLEVANDO A CABO SERVICIOS TALES COMO CREACIÓN DE PLANES DE ACCIÓN/COMPETITIVIDAD PARA LOS DIFERENTES DESTINOS TURÍSTICOS, CONSTITUCIÓN DE LA IMAGEN DE MARCA (MARKETING CONVENCIONAL Y DIGITAL, DISEÑO WEB Y DESARROLLO DE APP), ORGANIZACIÓN DE CONGRESOS Y REUNIONES CORPORATIVAS, IMPLANTACIÓN DE SISTEMAS DE CALIDAD EN LOS DESTINOS TURÍSTICOS, DISEÑO DE TURISMO ACCESIBLE, ASÍ COMO DESARROLLO DE LÍNEAS DE INNOVACIÓN Y NUEVAS TECNOLOGÍAS (CREACIÓN DE DESTINOS INTELIGENTES), SMART CITIES, SMART VILLAGES Y SIMILARES",
      "mainEntityOfPage": "https://www.contratacion.euskadi.eus/webkpe00-kperoc/es/ac71aBusquedaRegistrosWar/empresa/06729",
      "_links": {
        "self": {
          "name": "ARQUIA TURISMO, S.L.",
          "href": "https://api.euskadi.eus/procurements/companies/06729"
        }
      }
    },
    {
      "name": "OVID TECHNOLOGIES, S.L.",
      "registrationNumber": "06730",
      "identificationNumber": "B83855825",
      "address": "C COLLADO MEDIANO 9",
      "location": {
        "postalCode": "28231",
        "municipality": "Rozas de Madrid, Las",
        "county": "Madrid",
        "municipalityId": "127",
        "countyId": "28"
      },
      "economicActivities": [
        {
          "id": "1.845",
          "name": "Explotación electrónica por cuenta de terceros",
          "_links": {
            "self": {
              "name": "Explotación electrónica por cuenta de terceros",
              "href": "https://api.euskadi.eus/procurements/companies/economic-activities/1.845"
            }
          }
        }
      ],
      "certificateStartDate": "2019-12-17",
      "certificateEndDate": "2020-03-20",
      "object": "LA VENTA Y EL MARKETING DE BASES DE DATOS ELECTRÓNICAS, PERIÓDICOS, REVISTAS, DIARIOS Y LIBROS A LA COMUNIDAD MÉDICA, ACADÉMICA Y CORPORATIVA EN ESPAÑA Y PORTUGAL",
      "mainEntityOfPage": "https://www.contratacion.euskadi.eus/webkpe00-kperoc/es/ac71aBusquedaRegistrosWar/empresa/06730",
      "_links": {
        "self": {
          "name": "OVID TECHNOLOGIES, S.L.",
          "href": "https://api.euskadi.eus/procurements/companies/06730"
        }
      }
    },
    {
      "name": "EUSKOEXCAVACIONES NAVIRIOJA 21 S.L.",
      "registrationNumber": "06215",
      "identificationNumber": "B01453893",
      "address": "CTRA. LOGROÑO S/N",
      "location": {
        "postalCode": "01300",
        "municipality": "Laguardia",
        "county": "Araba/Álava",
        "municipalityId": "031",
        "countyId": "01"
      },
      "economicActivities": [
        {
          "id": "1.502.3",
          "name": "Consolidación y preparación de terrenos para la realización de obras civiles",
          "_links": {
            "self": {
              "name": "Consolidación y preparación de terrenos para la realización de obras civiles",
              "href": "https://api.euskadi.eus/procurements/companies/economic-activities/1.502.3"
            }
          }
        },
        {
          "id": "1.911",
          "name": "Servicios agrícolas y ganaderos",
          "_links": {
            "self": {
              "name": "Servicios agrícolas y ganaderos",
              "href": "https://api.euskadi.eus/procurements/companies/economic-activities/1.911"
            }
          }
        }
      ],
      "certificateStartDate": "2019-12-16",
      "certificateEndDate": "2020-05-21",
      "object": "LA PRESTACIÓN DE SERVICIOS FORESTALES, AGRÍCOLAS Y DE JARDINERÍA, TANTO EN FINCAS RÚSTICAS COMO URBANAS Y EN ESPECIAL, LA REALIZACIÓN DE TODO TIPO DE EXCAVACIONES, EJECUCIÓN DE TODO TIPO DE OBRAS, PÚBLICAS O PRIVADAS, TRABAJOS PREPARATORIOS DE PLANTACIÓN, SEMBRADOS, LABORES DE CONSERVACIÓN, MANTENIMIENTO Y MEJORA DE EXPLOTACIONES AGRARIAS, APLICACIÓN DE TÉCNICAS FITO-SANITARIAS Y EN GENERAL LA PRESTACIÓN DE TODAS AQUELLAS TAREAS PROFESIONALES, BIEN CON PERSONAL Y MAQUINARIA PROPIOS COMO CONTRATADOS DIRECTAMENTE O A TRAVÉS DE TERCEROS, QUE SEAN CONSECUENCIA, INCIDENCIA O COMPLEMENTARIOS DE LAS INDICADAS ANTERIORMENTE. EN RELACIÓN CON LAS ANTERIORES ACTIVIDADES LA PRESTACIÓN DE SERVICIOS DE REPARACIÓN DE TODA CLASE DE MAQUINARIA QUE SE UTILICE EN LAS MISMAS. LA COMPRAVENTA Y/O ARRENDAMIENTO DE TODO TIPO DE FINCAS, RÚSTICAS O URBANAS. LA COMPRAVENTA O ALQUILER DE TODO TIPO DE MAQUINARIA, INCLUSO VEHÍCULOS Y CONTENEDORES, QUE SEAN NECESARIOS Y ÚTILES PARA EL DESARROLLO DE LAS CITADAS ACTIVIDADES. LA PRESTACIÓN DE SERVICIOS DE RECICLAJE, RECONVERSIÓN DE MATERIAS O PRODUCTOS DESECHABLES CON VEHÍCULOS PROPIOS O DE TERCEROS",
      "mainEntityOfPage": "https://www.contratacion.euskadi.eus/webkpe00-kperoc/es/ac71aBusquedaRegistrosWar/empresa/06215",
      "_links": {
        "self": {
          "name": "EUSKOEXCAVACIONES NAVIRIOJA 21 S.L.",
          "href": "https://api.euskadi.eus/procurements/companies/06215"
        }
      }
    },
    {
      "name": "TOMPLA INDUSTRIA INTERNACIONAL DEL SOBRE, S.L.",
      "registrationNumber": "06724",
      "identificationNumber": "B87031472",
      "address": "C/ HONDURAS, 29",
      "location": {
        "postalCode": "28806",
        "municipality": "Alcalá de Henares",
        "county": "Madrid",
        "municipalityId": "005",
        "countyId": "28"
      },
      "economicActivities": [
        {
          "id": "1.473.3",
          "name": "Fabricación de artículos de oficina, escritorio, de papel y cartón",
          "_links": {
            "self": {
              "name": "Fabricación de artículos de oficina, escritorio, de papel y cartón",
              "href": "https://api.euskadi.eus/procurements/companies/economic-activities/1.473.3"
            }
          }
        },
        {
          "id": "1.474",
          "name": "Artes gráficas (impresión gráfica)",
          "_links": {
            "self": {
              "name": "Artes gráficas (impresión gráfica)",
              "href": "https://api.euskadi.eus/procurements/companies/economic-activities/1.474"
            }
          }
        },
        {
          "id": "1.619.5",
          "name": "Venta al por mayor de artículos de papelería y escritorios",
          "_links": {
            "self": {
              "name": "Venta al por mayor de artículos de papelería y escritorios",
              "href": "https://api.euskadi.eus/procurements/companies/economic-activities/1.619.5"
            }
          }
        },
        {
          "id": "1.861.2",
          "name": "Alquiler de locales industriales y otros alquileres n.c.o.p",
          "_links": {
            "self": {
              "name": "Alquiler de locales industriales y otros alquileres n.c.o.p",
              "href": "https://api.euskadi.eus/procurements/companies/economic-activities/1.861.2"
            }
          }
        }
      ],
      "certificateStartDate": "2019-12-16",
      "certificateEndDate": "2020-06-02",
      "object": "LA REALIZACIÓN DE TODA CLASE DE NEGOCIOS DE IMPRESIÓN Y FABRICACIÓN DE CUALQUIER TIPO DE PRODUCTOS DE ARTES GRÁFICAS Y MATERIAL DE ESCRITORIO O ENSEÑANZA DE TODO ORDEN BAJO SOPORTE IMPRESO, MAGNÉTICO, FOTOGRÁFICO O DE OTRO TIPO ASÍ COMO SU COMERCIALIZACIÓN, EXPORTACIÓN O IMPORTACIÓN, Y TODA ACTIVIDAD INDUSTRIAL O COMERCIAL RELACIONADA CON DICHAS MERCANCÍAS, INCLUSO LA PRESTACIÓN DE TODO TIPO DE SERVICIOS DE ASESORAMIENTO E INVESTIGACIÓN, ASÍ COMO LA PROMOCIÓN Y\r\nVENTA POR CORREO, EN KIOSCOS, GRANDES EXTENSIONES O PUERTA .A PUERTA DE TODA CLASE DE BIENES MUEBLES, LA INTERVENCIÓN A TÍTULO DE COMISIONISTA EN TODO TIPO DE NEGOCIOS RELACIONAOS CON ESTAS MATERIAS, TODO ELLO TANTO EN TERRITORIO ESPAÑOL COMO EXTRANJERO. IGUALMENTE CONSTITUYE EL OBJETO SOCIAL LA ADQUISICIÓN, EXPLOTACIÓN, ARRENDAMIENTO, PROMOCIÓN, Y ENAJENACIÓN DE BIENES INMUEBLES, ASÍ COMO LA CONSTRUCCIÓN POR CUENTA PROPIA O DE TERCEROS, ACOGIDAS O NO A LEYES ESPECIALES PROTECTORAS DE LA EDIFICACIÓN, DE TODA CLASE DE OBRAS Y LA SUBCONTRATACIÓN DE LA MISMAS. EN NINGÚN CASO, LA SOCIEDAD REALIZARA LAS ACTIVIDADES PROPIAS DE LAS SOCIEDADES E INSTITUCIONES DE INVERSIÓN COLECTIVA, REGULADAS POR LA LEY 35/2003, DE 4 DE NOVIEMBRE, DE INSTITUCIONES DE INVERSIÓN COLECTIVA. PARA EL EJERCICIO EFECTIVO DE CADA UNA DE LAS ACTIVIDADES QUE CONSTITUYEN EL OBJETO SOCIAL, SERÁ PRECISO EL PREVIO CUMPLIMIENTO DE LOS REQUISITOS QUE LA LEGISLACIÓN EXIJA EN CADA CASO, TALES COMO TITULACIONES ESPECIALES, INSCRIPCIONES EN REGISTROS U OTROS, DEBIENDO REALIZAR EN TALES CASOS DICHAS ACTIVIDADES POR MEDIO DE QUIEN OSTENTE LA TITULACIÓN EXIGIDA. LAS ACTIVIDADES QUE INTEGRAN EL OBJETO SOCIAL PODRÁN DESARROLLARSE, TOTAL O PARCIALMENTE, DE MODO INDIRECTO, MEDIANTE LA TITULACIÓN DE ACCIONES O PARTICIPACIONES EN SOCIEDADES CON OBJETO IDÉNTICO O ANÁLOGO",
      "mainEntityOfPage": "https://www.contratacion.euskadi.eus/webkpe00-kperoc/es/ac71aBusquedaRegistrosWar/empresa/06724",
      "_links": {
        "self": {
          "name": "TOMPLA INDUSTRIA INTERNACIONAL DEL SOBRE, S.L.",
          "href": "https://api.euskadi.eus/procurements/companies/06724"
        }
      }
    },
    {
      "name": "PRINTES SECURITY ADVICE, S.L.",
      "registrationNumber": "06726",
      "identificationNumber": "B32462491",
      "address": "c/emilia pardo bazán,2",
      "location": {
        "postalCode": "32004",
        "municipality": "Ourense",
        "county": "Ourense",
        "municipalityId": "054",
        "countyId": "32"
      },
      "economicActivities": [
        {
          "id": "1.849.4",
          "name": "Servicios de custodia, seguridad y protección",
          "_links": {
            "self": {
              "name": "Servicios de custodia, seguridad y protección",
              "href": "https://api.euskadi.eus/procurements/companies/economic-activities/1.849.4"
            }
          }
        }
      ],
      "certificateStartDate": "2019-12-16",
      "certificateEndDate": "2020-06-04",
      "object": "LA PLANIFICACIÓN, CONSULTORÍA Y ASESORAMIENTO EN MATERIA DE ACTIVIDADES DE SEGURIDAD PRIVADA Y DE PREVENCIÓN DE RIESGOS LABORALES. LA FABRICACIÓN, COMERCIALIZACIÓN, VENTA O ENTREGA DE EQUIPOS TÉCNICOS DE SEGURIDAD ELECTRÓNICA Y DE PREVENCIÓN DE RIESGOS LABORALES, ASÍ COMO LA INSTALACIÓN O MANTENIMIENTO DE DICHOS EQUIPOS SIEMPRE QUE NO ESTÉN CONECTADOS A CENTRALES DE ALARMA O CENTROS DE CONTROL O DE VIDEO VIGILANCIA. LA PLANIFICACIÓN, CONSULTORÍA Y ASESORAMIENTO EN MATERIA DE ACTIVIDADES DE SEGURIDAD PRIVADA Y DE PREVENCIÓN DE RIESGOS LABORALES, QUE CONSISTIRÁ EN LA ELABORACIÓN DE ESTUDIOS E INFORMES DE SEGURIDAD, ANÁLISIS DE RIESGOS Y PLANES DE SEGURIDAD REFERIDOS COMO EN AUDITORÍAS SOBRE LA PRESTACIÓN DE LOS SERVICIOS DE SEGURIDAD",
      "mainEntityOfPage": "https://www.contratacion.euskadi.eus/webkpe00-kperoc/es/ac71aBusquedaRegistrosWar/empresa/06726",
      "_links": {
        "self": {
          "name": "PRINTES SECURITY ADVICE, S.L.",
          "href": "https://api.euskadi.eus/procurements/companies/06726"
        }
      }
    },
    {
      "name": "PANGEANIC BI EUROPA, S.L.",
      "registrationNumber": "06721",
      "identificationNumber": "B97017461",
      "address": "Avd Corts Valencianes 26-5-107",
      "location": {
        "postalCode": "46015",
        "municipality": "València",
        "county": "Valencia/València",
        "municipalityId": "250",
        "countyId": "46"
      },
      "economicActivities": [
        {
          "id": "1.849.3",
          "name": "Servicios de traducción y similares",
          "_links": {
            "self": {
              "name": "Servicios de traducción y similares",
              "href": "https://api.euskadi.eus/procurements/companies/economic-activities/1.849.3"
            }
          }
        }
      ],
      "certificateStartDate": "2019-12-13",
      "certificateEndDate": "2020-05-27",
      "object": "LOS SERVICIOS DE TRADUCCIÓN MECANOGRÁFICOS, TAQUIGRÁFICOS, REPRODUCCIÓN DE ESCRITOS Y LA ACTIVIDAD DE ARTES GRÁFICAS, MAQUETACIÓN, DISEÑO, IMPRESIÓN, CARPETERÍA Y ENCUADERNACIÓN DE TODO TIPO DE PUBLICACIÓN",
      "mainEntityOfPage": "https://www.contratacion.euskadi.eus/webkpe00-kperoc/es/ac71aBusquedaRegistrosWar/empresa/06721",
      "_links": {
        "self": {
          "name": "PANGEANIC BI EUROPA, S.L.",
          "href": "https://api.euskadi.eus/procurements/companies/06721"
        }
      }
    },
    {
      "name": "ELEKTA MEDICAL, S.A.",
      "registrationNumber": "06717",
      "identificationNumber": "A81886731",
      "address": "C/ MANUEL TOVAR 43-3º-IZQ",
      "location": {
        "postalCode": "28034",
        "municipality": "Madrid",
        "county": "Madrid",
        "municipalityId": "079",
        "countyId": "28"
      },
      "economicActivities": [
        {
          "id": "1.504.1",
          "name": "Instalaciones eléctricas en general",
          "_links": {
            "self": {
              "name": "Instalaciones eléctricas en general",
              "href": "https://api.euskadi.eus/procurements/companies/economic-activities/1.504.1"
            }
          }
        },
        {
          "id": "1.619.2",
          "name": "Venta al por mayor de aparatos e instrumentos médicos, ortopédicos, ópticos",
          "_links": {
            "self": {
              "name": "Venta al por mayor de aparatos e instrumentos médicos, ortopédicos, ópticos",
              "href": "https://api.euskadi.eus/procurements/companies/economic-activities/1.619.2"
            }
          }
        }
      ],
      "certificateStartDate": "2019-12-12",
      "certificateEndDate": "2020-02-20",
      "object": "LA FABRICACIÓN, IMPORTACIÓN, EXPORTACIÓN, ALMACENAJE, DISTRIBUCIÓN Y COMERCIALIZACIÓN DE TODO TIPO DE PRODUCTOS, MATERIALES E INSTRUMENTACIÓN MÉDICA, QUIRÚRGICA, FARMACÉUTICA, TÉCNICA Y SANITARIA, BIEN DIRECTAMENTE O A TRAVÉS DE CUALQUIER TIPO DE REPRESENTANTES, AGENTES, MEDIADORES O DISTRIBUIDORES",
      "mainEntityOfPage": "https://www.contratacion.euskadi.eus/webkpe00-kperoc/es/ac71aBusquedaRegistrosWar/empresa/06717",
      "_links": {
        "self": {
          "name": "ELEKTA MEDICAL, S.A.",
          "href": "https://api.euskadi.eus/procurements/companies/06717"
        }
      }
    },
    {
      "name": "JIG EASY SERVICES, S.L.",
      "registrationNumber": "06719",
      "identificationNumber": "B26324285",
      "address": "C/ Daroca de Rioja, 6 - 1º D",
      "location": {
        "postalCode": "26008",
        "municipality": "Logroño",
        "county": "Rioja, La",
        "municipalityId": "089",
        "countyId": "26"
      },
      "economicActivities": [
        {
          "id": "1.673.2",
          "name": "Otros cafés y bares",
          "_links": {
            "self": {
              "name": "Otros cafés y bares",
              "href": "https://api.euskadi.eus/procurements/companies/economic-activities/1.673.2"
            }
          }
        },
        {
          "id": "1.844",
          "name": "Servicios de publicidad, relaciones públicas y similares",
          "_links": {
            "self": {
              "name": "Servicios de publicidad, relaciones públicas y similares",
              "href": "https://api.euskadi.eus/procurements/companies/economic-activities/1.844"
            }
          }
        },
        {
          "id": "1.849.9",
          "name": "Otros servicios independientes n.c.o.p",
          "_links": {
            "self": {
              "name": "Otros servicios independientes n.c.o.p",
              "href": "https://api.euskadi.eus/procurements/companies/economic-activities/1.849.9"
            }
          }
        },
        {
          "id": "1.922",
          "name": "Servicios de limpieza",
          "_links": {
            "self": {
              "name": "Servicios de limpieza",
              "href": "https://api.euskadi.eus/procurements/companies/economic-activities/1.922"
            }
          }
        },
        {
          "id": "1.934",
          "name": "Enseñanza fuera de establecimiento permanente",
          "_links": {
            "self": {
              "name": "Enseñanza fuera de establecimiento permanente",
              "href": "https://api.euskadi.eus/procurements/companies/economic-activities/1.934"
            }
          }
        },
        {
          "id": "1.966.1",
          "name": "Bibliotecas y museos",
          "_links": {
            "self": {
              "name": "Bibliotecas y museos",
              "href": "https://api.euskadi.eus/procurements/companies/economic-activities/1.966.1"
            }
          }
        },
        {
          "id": "1.967.1",
          "name": "Instalaciones deportivas",
          "_links": {
            "self": {
              "name": "Instalaciones deportivas",
              "href": "https://api.euskadi.eus/procurements/companies/economic-activities/1.967.1"
            }
          }
        },
        {
          "id": "1.967.2",
          "name": "Escuelas y servicios de perfeccionamiento del deporte",
          "_links": {
            "self": {
              "name": "Escuelas y servicios de perfeccionamiento del deporte",
              "href": "https://api.euskadi.eus/procurements/companies/economic-activities/1.967.2"
            }
          }
        }
      ],
      "certificateStartDate": "2019-12-12",
      "certificateEndDate": "2020-03-02",
      "object": "LA PRESTACIÓN DE SERVICIOS FORMATIVOS, ASESORAMIENTO, PREPARACIÓN E IMPARTICIÓN DE CURSOS FORMATIVOS. LA ELABORACIÓN DE MANUALES DIDÁCTICOS PROPIOS, LA GESTIÓN DE PLANES DE FORMACIÓN PARA EMPRESAS, INSTITUCIONES, ASOCIACIONES, ETC. LA GESTIÓN DE LA POLÍTICA DE RECURSOS HUMANOS DE LAS EMPRESAS. LA PRESTACIÓN DE SERVICIOS SOCIALES, CULTURALES Y DEPORTIVOS DIRIGIDOS A INSTITUCIONES TANTO PÚBLICAS COMO PRIVADAS. LA PRESTACIÓN DE SERVICIOS DE ASESORAMIENTO LABORAL, FISCAL Y CONTABLE A EMPRESAS. LA PRESTACIÓN DE SERVICIOS DE ASESORAMIENTO EN TODO LO RELACIONADO CON EL MUNDO DE LAS NUEVAS TECNOLOGÍAS DE LA INFORMACIÓN Y COMUNICACIÓN, TALES COMO GESTIÓN DE DOMINIOS, GESTIÓN DE ESPACIOS O SERVIDORES VIRTUALES, DISEÑO E IMPLEMENTACIÓN DE REDES INTERNAS, INTRANETS. LA CREACIÓN, DESARROLLO, DISEÑO E IMPLANTACIÓN DE\tPÁGINAS WEB, ASÍ COMO SU MANTENIMIENTO Y ACTUALIZACIÓN. EL COMERCIO ELECTRÓNICO, \"BUSSINES TO BUSSINES\", \"BUSSINES TO COMERSE\". LA CREACIÓN, DESARROLLO Y EXPLOTACIÓN DE PORTALES DE VENTA EN INTERNET. EL DESARROLLO PUBLICITARIO Y DISEÑO DE CAMPAÑAS DE PUBLICIDAD O COMUNICACIÓN. LA CREACIÓN DE IMÁGENES CORPORATIVAS, LOGOS Y MARCAS Y SU IMPLEMENTACIÓN. LA EDICIÓN DE CATÁLOGOS, REVISTAS, PUBLICACIONES, ETC. LA ELABORACIÓN DE ESTUDIOS DE MERCADO, PLANES DE MARKETING, CAMPAÑAS, ETC. LA GESTIÓN DE SUBVENCIONES Y AYUDAS PÚBLICAS DE TODA ÍNDOLE. LA GESTIÓN Y EXPLOTACIÓN, MANTENIMIENTO Y LIMPIEZA DE INSTALACIONES Y CENTROS DEPORTIVOS O CULTURALES DE TODA ESPECIE. LA GESTIÓN Y EXPLOTACIÓN, MANTENIMIENTO Y LIMPIEZA DE INSTALACIONES Y CENTROS PÚBLICOS O PRIVADOS DIRIGIDOS A NIÑOS (CENTROS DE EDUCACIÓN INFANTIL, GUARDERÍAS, LUDOTECAS). LA GESTIÓN Y EXPLOTACIÓN, PRESTACIÓN DE SERVICIOS,\tMANTENIMIENTO Y LIMPIEZA DE CENTROS DIRIGIDOS A JÓVENES ASÍ COMO CENTROS ORIENTADOS A LA\tINFORMÁTICA Y NUEVAS TECNOLOGÍAS DE LA INFORMACIÓN Y COMUNICACIÓN (TIC'S). LA PROMOCIÓN Y ORGANIZACIÓN, PREVIAS OPORTUNAS AUTORIZACIONES ADMINISTRATIVAS,\tDE TODA\tCLASE DE PRUEBAS Y ESPECTÁCULOS DEPORTIVOS Y CULTURALES. LA LIMPIEZA DE\tCENTROS PÚBLICOS Y PRIVADOS, DESPACHOS, OFICINAS, TIENDAS, TALLERES Y DEMÁS CENTROS O DEPENDENCIAS. ASIMISMO LA EMPRESA PODRÁ DESARROLLAR ACTIVIDADES TALES COMO CONTROL DE ACCESOS A LOCALES PÚBLICOS O PRIVADOS, \tE INFORMACIÓN AL PÚBLICO DE LOS MISMOS; LA GESTIÓN, EXPLOTACIÓN Y PRESTACIÓN DE SERVICIOS DE BIBLIOTECAS, ARCHIVOS Y MUSEOS; ASÍ COMO LOS SERVICIOS DE SOCORRISTAS Y DE ATENCIÓN TELEFÓNICA. LA GESTIÓN, PROMOCIÓN Y DESARROLLO DE SERVICIOS Y ORGANIZACIÓN DE ACTIVIDADES LÚDICAS, RECREATIVAS, CULTURALES EN RELACIÓN A ACTIVIDADES EXTRA ESCOLARES EN CENTROS DE EDUCACIÓN OFICIAL REGLADA O NO REGLADA. LOS SERVICIOS DE MANTENIMIENTO Y REPARACIÓN DE EQUIPOS E   INSTALACIONES INFORMÁTICOS Y DE TELECOMUNICACIONES, TRABAJOS DE MANTENIMIENTO PREVENTIVO, CORRECTIVO O PERFECTIVO Y DE REPARACIÓN DE EQUIPOS Y SISTEMAS FÍSICOS Y LÓGICOS PARA EL TRATAMIENTO DE LA INFORMACIÓN, REDES INFORMÁTICAS, SERVIDORES, EQUIPOS INFORMÁTICOS ASÍ COMO DE LOS EQUIPOS EMISORES Y RECEPTORES DE INFORMACIÓN Y SUS CORRESPONDIENTES SISTEMAS Y MEDIOS DE TRANSMISIÓN. LOS TRABAJOS MÉDICOS Y SANITARIOS PRESTADOS EN HOSPITALES, CLÍNICAS, SANATORIOS, CONSULTORIOS, CENTROS DEPORTIVOS, PISCINAS, BALNEARIOS O EN CENTROS DISTINTOS DE LOS ANTERIORES. TRABAJOS DE REHABILITACIÓN, FISIOTERAPIA Y MASAJES. LA GESTIÓN Y EXPLOTACIÓN DE BARES, CAFETERÍAS Y RESTAURANTES DE FORMA INDEPENDIENTE O ANEXAS A INSTALACIONES DEPORTIVAS, CULTURALES, DE OCIO O SIMILARES. LOS SERVICIOS RELACIONADOS CON LA HOSTELERÍA, COMIDAS, BANQUETES Y CÓCTELES",
      "mainEntityOfPage": "https://www.contratacion.euskadi.eus/webkpe00-kperoc/es/ac71aBusquedaRegistrosWar/empresa/06719",
      "_links": {
        "self": {
          "name": "JIG EASY SERVICES, S.L.",
          "href": "https://api.euskadi.eus/procurements/companies/06719"
        }
      }
    },
    {
      "name": "TAKEDA FARMACÉUTICA ESPAÑA, S.A.",
      "registrationNumber": "03838",
      "identificationNumber": "A28843613",
      "address": "C/ALSASUA, 20",
      "location": {
        "postalCode": "28023",
        "municipality": "Madrid",
        "county": "Madrid",
        "municipalityId": "079",
        "countyId": "28"
      },
      "economicActivities": [
        {
          "id": "1.614.1",
          "name": "Venta al por mayor de productos farmacéuticos y medicamentos",
          "_links": {
            "self": {
              "name": "Venta al por mayor de productos farmacéuticos y medicamentos",
              "href": "https://api.euskadi.eus/procurements/companies/economic-activities/1.614.1"
            }
          }
        }
      ],
      "certificateStartDate": "2019-12-10",
      "certificateEndDate": "2020-05-14",
      "object": "LA PRODUCCIÓN, DISTRIBUCIÓN, ADQUISICIÓN Y VENTA DE PRODUCTOS Y ESPECIALIDADES QUÍMICO-FARMACÉUTICAS EN ESPAÑA Y EN EL EXTRANJERO, ASÍ COMO LAS ACTIVIDADES DE INVESTIGACIÓN, ADQUISICIÓN, USO, CESIÓN O VENTA DE PATENTES DE INVENCIÓN Y PROCEDIMIENTOS, MARCAS, NOMBRES COMERCIALES Y DEMÁS MEDIOS RECOGIDOS EN LA LEGISLACIÓN SOBRE PROPIEDAD INDUSTRIAL. LA TENENCIA, ADQUISICIÓN, VENTA Y REALIZACIÓN DE ACTOS DE ADMINISTRACIÓN Y DISPOSICIÓN DE CUALQUIER TÍTULO DE ACCIONES, TÍTULOS, VALORES Y PARTICIPACIONES EN SOCIEDADES O ENTIDADES, ASÍ COMO LA GESTIÓN, CONTROL Y ADMINISTRACIÓN DE COMPAÑÍAS EN LAS QUE PARTICIPE DIRECTA O INDIRECTAMENTE. LA DIRECCIÓN Y GESTIÓN DE VALORES REPRESENTATIVOS DE LOS FONDOS PROPIOS DE ENTIDADES EXTRANJERAS QUE DETERMINEN UN PORCENTAJE DE PARTICIPACIÓN, DIRECTO O INDIRECTO, IGUAL O SUPERIOR AL 5% Y LA COLOCACIÓN DE LOS RECURSOS FINANCIEROS DERIVADOS DE DICHAS ACTIVIDADES, MEDIANTE LA CORRESPONDIENTE ORGANIZACIÓN DE MEDIOS MATERIALES Y PERSONALES. LA PRESTACIÓN DE SERVICIOS EMPRESARIALES, DE CONSULTORÍA Y DE ASESORAMIENTO FINANCIERO, CORPORATIVO, ASÍ COMO DE LOS RELACIONADOS CON LA GESTIÓN, ADMINISTRACIÓN Y DIRECCIÓN DE EMPRESAS, A TODA CLASE DE PERSONAS FÍSICAS O JURÍDICAS",
      "mainEntityOfPage": "https://www.contratacion.euskadi.eus/webkpe00-kperoc/es/ac71aBusquedaRegistrosWar/empresa/03838",
      "_links": {
        "self": {
          "name": "TAKEDA FARMACÉUTICA ESPAÑA, S.A.",
          "href": "https://api.euskadi.eus/procurements/companies/03838"
        }
      }
    },
    {
      "name": "TECNOMED 2000, S.L.",
      "registrationNumber": "05977",
      "identificationNumber": "B81322216",
      "address": "Palos de la Frontera, 4. Planta 3.",
      "location": {
        "postalCode": "28012",
        "municipality": "Madrid",
        "county": "Madrid",
        "municipalityId": "079",
        "countyId": "28"
      },
      "economicActivities": [
        {
          "id": "1.619.2",
          "name": "Venta al por mayor de aparatos e instrumentos médicos, ortopédicos, ópticos",
          "_links": {
            "self": {
              "name": "Venta al por mayor de aparatos e instrumentos médicos, ortopédicos, ópticos",
              "href": "https://api.euskadi.eus/procurements/companies/economic-activities/1.619.2"
            }
          }
        }
      ],
      "certificateStartDate": "2019-12-10",
      "certificateEndDate": "2020-05-20",
      "object": "LA DISTRIBUCIÓN, VENTA, IMPORTACIÓN, EXPORTACIÓN, REPARACIÓN, MANTENIMIENTO Y COMERCIO AL POR MAYOR Y AL POR MENOR DE APARATOS Y MATERIAL PARA USOS HOSPITALARIOS Y MÉDICOS EN GENERAL, OSTENTANDO TODA CLASE DE REPRESENTACIONES COMERCIALES, TANTO NACIONALES COMO EXTRANJERAS. Y LA PRESTACIÓN DE TODA CLASE DE SERVICIOS DE ESTUDIO, ASESORAMIENTO, FORMACIÓN, ASISTENCIA TÉCNICA E INTERMEDIACIÓN EN RELACIÓN CON LA PROMOCIÓN, CREACIÓN, DESARROLLO Y EQUIPAMIENTO DE CENTROS MÉDICOS",
      "mainEntityOfPage": "https://www.contratacion.euskadi.eus/webkpe00-kperoc/es/ac71aBusquedaRegistrosWar/empresa/05977",
      "_links": {
        "self": {
          "name": "TECNOMED 2000, S.L.",
          "href": "https://api.euskadi.eus/procurements/companies/05977"
        }
      }
    }
  ]
}