{
  "totalItems": 9042,
  "totalPages": 905,
  "currentPage": 216,
  "itemsOfPage": 10,
  "items": [
    {
      "name": "CONSULTORIA ENERGETICA Y DE INSTALACIONES SLL",
      "registrationNumber": "10389",
      "identificationNumber": "B95850855",
      "address": "c/ Navarra, 6 5º Dpto. 4",
      "location": {
        "postalCode": "48001",
        "municipality": "Bilbao",
        "county": "Bizkaia",
        "municipalityId": "020",
        "countyId": "48"
      },
      "economicActivities": [
        {
          "id": "1.843.1",
          "name": "Servicios técnicos de ingeniería",
          "_links": {
            "self": {
              "name": "Servicios técnicos de ingeniería",
              "href": "https://api.euskadi.eus/procurements/companies/economic-activities/1.843.1"
            }
          }
        }
      ],
      "certificateStartDate": "2025-10-14",
      "certificateEndDate": "2026-04-14",
      "object": "LA INTERMEDIACIÓN EN SERVICIOS DE INGENIERÍA ESPECIALIZADA EN INSTALACIONES DE EDIFICACIONES, SECTOR RESIDENCIAL Y TERCIARIO E INSTALACIONES, ASÍ COMO CONFORT EN EL SECTOR INDUSTRIAL.",
      "mainEntityOfPage": "https://www.contratacion.euskadi.eus/webkpe00-kperoc/es/ac71aBusquedaRegistrosWar/empresa/10389",
      "_links": {
        "self": {
          "name": "CONSULTORIA ENERGETICA Y DE INSTALACIONES SLL",
          "href": "https://api.euskadi.eus/procurements/companies/10389"
        }
      }
    },
    {
      "name": "BINARI SERVICIOS GLOBALES DE COMUNICACIÓN, S.L.L.",
      "registrationNumber": "06871",
      "identificationNumber": "B95758348",
      "address": "Alameda Mazarredo, 6 bajo izda. Dpto. 9",
      "location": {
        "postalCode": "48001",
        "municipality": "Bilbao",
        "county": "Bizkaia",
        "municipalityId": "020",
        "countyId": "48"
      },
      "economicActivities": [
        {
          "id": "1.844",
          "name": "Servicios de publicidad, relaciones públicas y similares",
          "_links": {
            "self": {
              "name": "Servicios de publicidad, relaciones públicas y similares",
              "href": "https://api.euskadi.eus/procurements/companies/economic-activities/1.844"
            }
          }
        }
      ],
      "certificateStartDate": "2025-10-14",
      "certificateEndDate": "2026-04-13",
      "object": "A) LA PRESTACIÓN DE SERVICIOS DE PUBLICIDAD MEDIANTE ANUNCIOS, CARTELES, FOLLETOS, PELÍCULAS PUBLICITARIAS, SISTEMAS INFORMÁTICOS U OTROS DE ANÁLOGAS CARACTERÍSTICAS. B) AGENCIA DE PUBLICIDAD, CONSULTORÍA DE MARKETING, CONTRATACIÓN DE MEDIOS DE COMUNICACIÓN, DISEÑO DE PÁGINAS WEB, PUBLICIDAD EN MEDIOS Y MULTIMEDIA, ARTES GRÁFICAS, IMPRESIÓN OFFSET, ORGANIZACIÓN DE EVENTOS, FOTOGRAFÍAS",
      "mainEntityOfPage": "https://www.contratacion.euskadi.eus/webkpe00-kperoc/es/ac71aBusquedaRegistrosWar/empresa/06871",
      "_links": {
        "self": {
          "name": "BINARI SERVICIOS GLOBALES DE COMUNICACIÓN, S.L.L.",
          "href": "https://api.euskadi.eus/procurements/companies/06871"
        }
      }
    },
    {
      "name": "HISPAVISTA, S.L.",
      "registrationNumber": "02731",
      "identificationNumber": "B20636502",
      "address": "PORTUETXE, 83, 3º.Oficina 1",
      "location": {
        "postalCode": "20018",
        "municipality": "Donostia / San Sebastián",
        "county": "Gipuzkoa",
        "municipalityId": "069",
        "countyId": "20"
      },
      "economicActivities": [
        {
          "id": "1.843.9",
          "name": "Otros servicios técnicos n.c.o.p",
          "_links": {
            "self": {
              "name": "Otros servicios técnicos n.c.o.p",
              "href": "https://api.euskadi.eus/procurements/companies/economic-activities/1.843.9"
            }
          }
        }
      ],
      "certificateStartDate": "2025-10-14",
      "certificateEndDate": "2026-04-13",
      "object": "EL DESARROLLO Y EXPLOTACIÓN ECONÓMICA DE DESARROLLOS INFORMÁTICOS, ASÍ COMO EL DESARROLLO DE ACTIVIDADES DE COMERCIO ELECTRÓNICO CONSISTENTES EN LA ADMINISTRACIÓN DE PORTALES Y SEDES WEB, INCLUYENDO SERVICIOS DE DIRECTORIO, BUSCADORES Y CUALQUIER OTRO SERVICIO QUE APORTE VALOR AÑADIDO A LAS SEDES WEB ADMINISTRADAS, ASÍ COMO LA VENTA DE PRODUCTOS Y PRESTACIÓN DE OTROS SERVICIOS A TRAVÉS DE REDES GLOBALES DE TELECOMUNICACIÓN Y, EN ESPECIAL, LA RED GLOBAL INTERNET    ",
      "mainEntityOfPage": "https://www.contratacion.euskadi.eus/webkpe00-kperoc/es/ac71aBusquedaRegistrosWar/empresa/02731",
      "_links": {
        "self": {
          "name": "HISPAVISTA, S.L.",
          "href": "https://api.euskadi.eus/procurements/companies/02731"
        }
      }
    },
    {
      "name": "CONSTRUCCIONES FURELOS LOUZAO, S.L.",
      "registrationNumber": "06210",
      "identificationNumber": "B09292129",
      "address": "AVDA. BILBAO Nº 11 BAJO",
      "location": {
        "postalCode": "09500",
        "municipality": "Medina de Pomar",
        "county": "Burgos",
        "municipalityId": "209",
        "countyId": "09"
      },
      "economicActivities": [
        {
          "id": "1.501.1",
          "name": "Construcción completa, reparación y conservación de edificaciones",
          "_links": {
            "self": {
              "name": "Construcción completa, reparación y conservación de edificaciones",
              "href": "https://api.euskadi.eus/procurements/companies/economic-activities/1.501.1"
            }
          }
        },
        {
          "id": "1.834",
          "name": "Servicios relativos a la propiedad inmobiliaria e industrial",
          "_links": {
            "self": {
              "name": "Servicios relativos a la propiedad inmobiliaria e industrial",
              "href": "https://api.euskadi.eus/procurements/companies/economic-activities/1.834"
            }
          }
        }
      ],
      "certificateStartDate": "2025-10-14",
      "certificateEndDate": "2026-04-13",
      "object": "LA PROMOCIÓN Y EJECUCIÓN DE TODA CLASE DE OBRAS, ASÍ COMO LA REPARACIÓN Y CONSERVACIÓN, POR CUENTA PROPIA O AJENA DE VIVIENDAS (INCLUSO DE PROTECCIÓN OFICIAL), LOCALES COMERCIALES E INDUSTRIALES. LA COMPRA-VENTA Y ALQUILER DE EDIFICIOS, EN SU TOTALIDAD, POR PARTES O POR PISOS, BIEN DE VIVIENDAS, LOCALES INDUSTRIALES, OFICINAS, APARCAMIENTOS O GARAJES, ASÍ COMO PROCEDER A LA CONSTRUCCIÓN DE EDIFICACIONES EN GENERAL, DIRECTAMENTE O POR MEDIO DE SUBCONTRATISTAS O DESTAJISTAS. LA ADQUISICIÓN Y ENAJENACIÓN POR CUALQUIER TÍTULO DE FINCAS URBANAS Y RÚSTICAS, Y LA ADMINISTRACIÓN , TENENCIA, EXPLOTACIÓN Y ARRENDAMIENTO (ACTIVO O PASIVO) DE TALES BIENES, SU VENTA TOTAL O PARCIAL, Y PROCEDER A SU APROVECHAMIENTO URBANO, INDUSTRIAL O DE CUALQUIER OTRO TIPO. LA URBANIZACIÓN Y PARCELACIÓN DE TERRENOS CONFORME A LOS PLANES DE ORDENACIÓN URBANÍSTICA APROBADOS POR LAS AUTORIDADES COMPETENTES EN LOS POLÍGONOS Y ZONAS DE ACTUACIÓN QUE, AL EFECTO, SEAN DESIGNADOS, LA REPARCELACIÓN DE DICHOS TERRENOS Y, EN SU CASO, LA EDIFICACIÓN Y VENTA DE LOS MISMOS, A CUYO EFECTO PODRÁ FORMAR PARTE DE ASOCIACIONES DE PROPIETARIOS, EMPRESAS MIXTAS Y ENTIDADES URBANÍSTICAS COLABORADORAS",
      "mainEntityOfPage": "https://www.contratacion.euskadi.eus/webkpe00-kperoc/es/ac71aBusquedaRegistrosWar/empresa/06210",
      "_links": {
        "self": {
          "name": "CONSTRUCCIONES FURELOS LOUZAO, S.L.",
          "href": "https://api.euskadi.eus/procurements/companies/06210"
        }
      }
    },
    {
      "name": "VIVEROS ESKALMENDI, S.L.",
      "registrationNumber": "03738",
      "identificationNumber": "B01347558",
      "address": "BO. ESKALMENDI, 2. DURANA",
      "location": {
        "postalCode": "01520",
        "municipality": "Arratzua-Ubarrundia",
        "county": "Araba/Álava",
        "municipalityId": "008",
        "countyId": "01"
      },
      "economicActivities": [
        {
          "id": "1.501.2",
          "name": "Construcción completa, reparación y conservación obras civiles",
          "_links": {
            "self": {
              "name": "Construcción completa, reparación y conservación obras civiles",
              "href": "https://api.euskadi.eus/procurements/companies/economic-activities/1.501.2"
            }
          }
        },
        {
          "id": "1.663.9",
          "name": "Venta al por menor de otra clase de mercancías fuera de establecimiento",
          "_links": {
            "self": {
              "name": "Venta al por menor de otra clase de mercancías fuera de establecimiento",
              "href": "https://api.euskadi.eus/procurements/companies/economic-activities/1.663.9"
            }
          }
        },
        {
          "id": "1.911",
          "name": "Servicios agrícolas y ganaderos",
          "_links": {
            "self": {
              "name": "Servicios agrícolas y ganaderos",
              "href": "https://api.euskadi.eus/procurements/companies/economic-activities/1.911"
            }
          }
        }
      ],
      "certificateStartDate": "2025-10-14",
      "certificateEndDate": "2026-04-13",
      "object": "REALIZACIÓN DE OBRAS DE JARDINERÍA Y SERVICIOS FORESTALES TALES COMO HIDROSIEMBRAS, SIEMBRAS, PLANTACIONES, REFORESTACIONES, RECUPERACIONES MEDIOAMBIENTALES, DESBROCES, DEFENSA FRENTE A INCENDIOS FORESTALES Y PLAGAS; CONSERVACIÓN Y MANTENIMIENTO DE MONTES Y JARDINES, SERVICIOS DE PROTECCIÓN DE ESPECIES Y SERVICIOS AÉREOS DE FUMIGACIÓN, CONTROL, VIGILANCIA Y EXTINCIÓN DE INCENDIOS; OBRAS ESPECIALES DE ORNAMENTACIONES Y DECORACIONES, RESTAURACIÓN DE BIENES INMUEBLES HISTÓRICO-ARTÍSTICOS Y ESTACIONES DE TRATAMIENTO DE AGUAS; CONSTRUCCIÓN DE VIALES CON HORMIGÓN, CONSTRUCCIÓN DE PISTAS Y CAMINOS, SEÑALIZACIONES Y BALIZAMIENTOS VIALES ASÍ COMO CONSERVACIÓN Y MANTENIMIENTO DE CARRETERAS, PISTAS, AUTOPISTAS, AUTOVÍAS Y CALZADAS Y OBRAS DE FERROCARILES SIN CUALIFICACIÓN ESPECÍFICA; MOVIMIENTOS DE TIERRAS TALES COMO DESMONTES, VACIADOS Y EXPLANACIONES; OBRAS DE EDIFICACIÓN EN TODA SU AMPLITUD, DEMOLICIONES, ESTRUCTURAS DE FÁBRICA, DE HORMIGÓN Y METÁLICAS, ALBAÑILERÍA, CANTERÍA, PAVIMENTOS Y SOLADOS, IMPERMEABILIZACIONES Y CARPINTERÍA DE MADERA Y METAL; OBRAS HIDRÁULICAS DE ABASTECIMIENTO Y SANEAMIENTO, PRESAS, CANALES, ACEQUIAS Y DESAGÜES, DEFENSA DE MÁRGENES, ENCAUZAMIENTOS, CONDUCCIONES CON TUBERÍA DE PRESIÓN DE GRAN DIÁMETRO U OTRAS SIN CUALIFICACIÓN ESPECÍFICA; OBRAS MARÍTIMAS SIN CUALIFICACIÓN ESPECÍFICA; INSTALACIONES ELÉCTRICAS SIN CUALIFICACIÓN ESPECÍFICA; SERVICIOS DE TRANSPORTES EN GENERAL Y RECOGIDA Y TRANSPORTE DE TODA CLASE DE RESIDUOS; TRATAMIENTO DE RESIDUOS OLEOSOS; SERVICIOS DE PORTERÍA, CONTROL DE ACCESOS E INFORMACIÓN AL PÚBLICO; CONSERVACIÓN Y MANTENIMIENTO DE EDIFICIOS Y CONSERVACIÓN Y MANTENIMIENTO DE MOBILIARIO URBANO; SERVICIOS DE LIMPIEZA EN GENERAL Y OTROS SERVICIOS NO DETERMINADOS; PRODUCCIÓN, ACONDICIONAMIENTO Y COMERCIALIZACIÓN DE ÁRBOLES Y PLANTAS; COMERCIALIZACÓN DE MATERIALES DE CERRAMIENTO Y ELEMENTOS DE MOBILIARIO URBANO Y DE JARDÍN; DESARROLLO DE PROYECTOS DE I+D+i MEDIOAMBIENTAL",
      "mainEntityOfPage": "https://www.contratacion.euskadi.eus/webkpe00-kperoc/es/ac71aBusquedaRegistrosWar/empresa/03738",
      "_links": {
        "self": {
          "name": "VIVEROS ESKALMENDI, S.L.",
          "href": "https://api.euskadi.eus/procurements/companies/03738"
        }
      }
    },
    {
      "name": "LAENK SERVICIOS EMPRESARIALES, S.L.",
      "registrationNumber": "03222",
      "identificationNumber": "B95261392",
      "address": "Bº ZUBIETE 40, P.G ISASI 40B PABELLON 16",
      "location": {
        "postalCode": "48192",
        "municipality": "Gordexola",
        "county": "Bizkaia",
        "municipalityId": "042",
        "countyId": "48"
      },
      "certificateStartDate": "2025-10-14",
      "certificateEndDate": "2026-04-08",
      "classification": [
        {
          "id": "S",
          "name": "Servicios",
          "groups": [
            {
              "id": "M",
              "subgroups": [
                {
                  "id": "01",
                  "name": "Higienización, desinfección desinsectación y desratización",
                  "categories": [
                    {
                      "id": "2",
                      "name": "Desde 150.001 Hasta 300.000",
                      "_links": {
                        "self": {
                          "name": "Desde 150.001 Hasta 300.000",
                          "href": "https://api.euskadi.eus/procurements/companies/types/S/categories/2"
                        }
                      }
                    }
                  ],
                  "_links": {
                    "self": {
                      "name": "Higienización, desinfección desinsectación y desratización",
                      "href": "https://api.euskadi.eus/procurements/companies/types/S/groups/M/subgroups/01"
                    }
                  }
                }
              ],
              "_links": {
                "self": {
                  "href": "https://api.euskadi.eus/procurements/companies/types/S/groups/M"
                }
              }
            }
          ],
          "_links": {
            "self": {
              "name": "Servicios",
              "href": "https://api.euskadi.eus/procurements/companies/types/S"
            }
          }
        }
      ],
      "object": "A) ANÁLISIS Y TRATAMIENTOS DEL AGUA. B) CONSTRUCCIÓN, REPARACIÓN, MANTENIMIENTO Y CONSERVACIÓN DE INSTALACIONES DE AGUA. COMPRA Y VENTA DE PRODUCTOS Y EQUIPOS NECESARIOS PARA EL TRATAMIENTO DEL AGUA.  C) ENSEÑANZAY CURSOS FORMATIVOS, SOBRE TODO TIPO DE MATERIALES RELACIONADA CON EL TRATAMIENTO DEL AGUA. D) IMPARTIR CURSOS A EMPRESAS Y PARTICULARES, SOBRE FORMACIÓN, ASESORAMIENTO Y GESTIÓN INTEGRAL DE EMPRESAS. E) SERVICIOS DE DESINSECTACIÓN DESRATIZACIÓN Y DESINFECCIÓN. SERVICIOS DE LIMPIEZA E HIGIENIZACIÓN DE INSTALACIONES DE AIRE ACONDICIONADO, AGUA, DESINSECTACIÓN, DESRATIZACIÓN Y DESINFECCIÓN. F) INSTALACIÓN Y MANTENIMIENTO HIGIÉNICO SANITARIO DE EQUIPOS DE CLIMATIZACIÓN Y/O VENTILACIÓN. G) LA PROMOCIÓN, EJECUCIÓN, ALMACENAMIENTO, DEPÍSITO, DISTRIBUCIÓN, EXPLOTACIÓN Y COMERCIO DE TODA CLASE DE PRODUCTOS Y ELABORADOS NATURALES, DE MATERIAS PRIMAS Y SUS TRANSFORMADOS O PRODUCTOS MANUFACTURADOS, SEMI-ELABORADOS, RELACIONADOS CON LA AGRICULTURA, GANADERÍA, PESCA, MINERÍA, TRANSPORTE TERRESTRE DE CUALQUIER CLASE Y NATURALEZA, TELECOMUNICACIÓN, INDUSTRIA FORESTAL SIDEROMETALÚRGICA, MECÁNICA, ELECTRÓNICA, QUÍMICA, ALIMENTACIÓN, TEXTIL Y BIOQUÍMICA.",
      "mainEntityOfPage": "https://www.contratacion.euskadi.eus/webkpe00-kperoc/es/ac71aBusquedaRegistrosWar/empresa/03222",
      "_links": {
        "self": {
          "name": "LAENK SERVICIOS EMPRESARIALES, S.L.",
          "href": "https://api.euskadi.eus/procurements/companies/03222"
        }
      }
    },
    {
      "name": "URBEGI INICIATIVAS SOCIALES, S.L.",
      "registrationNumber": "09098",
      "identificationNumber": "B95213674",
      "address": "Poligono industrial El Paramo B7",
      "location": {
        "postalCode": "48800",
        "municipality": "Balmaseda",
        "county": "Bizkaia",
        "municipalityId": "090",
        "countyId": "48"
      },
      "economicActivities": [
        {
          "id": "1.847",
          "name": "Servicios de consultoría",
          "_links": {
            "self": {
              "name": "Servicios de consultoría",
              "href": "https://api.euskadi.eus/procurements/companies/economic-activities/1.847"
            }
          }
        }
      ],
      "certificateStartDate": "2025-10-14",
      "certificateEndDate": "2026-04-13",
      "object": "GESTIÓN, PROMOCIÓN Y ORGANIZACIÓN DE EMPRESAS DEDICADAS A LOS SERVICIOS SIGUIENTES, PUDIÉNDOSE DEDICAR INCLUSO, LA PROPIA EMPRESA, A ESTAS ACTIVIDADES; PROMOVIENDO OPORTUNIDADES DE EMPLEO A PERSONAS QUE ESTÉN INTEGRADOS POR PERSONAS DE COLECTIVOS DESFAVORECIDOS Y ESPECIALMENTE DIRIGIDOS A COLECTIVOS CON ESPECIALES DIFICULTADES DE INSERCIÓN EN EL MERCADO LABORAL (DISCAPACITADOS, DROGODEPENDIENTES, Y PARADOS DE LARGA DURACIÓN). 1. TALLERES TEXTILES DE COSTURA; 2. EMPRESAS DE LIMPIEZA DE EDIFICIOS Y LOCALES, CALLES, VÍAS PÚBLICAS Y JARDINES; 3. EXPLOTACIONES DE ESTACIONES DE SERVICIOS; 4. RESIDENCIAS DE LA TERCERA EDAD; 5. PROMOCIÓN DE SERVICIOS DE OCIO Y TIEMPO LIBRE.\n\n",
      "mainEntityOfPage": "https://www.contratacion.euskadi.eus/webkpe00-kperoc/es/ac71aBusquedaRegistrosWar/empresa/09098",
      "_links": {
        "self": {
          "name": "URBEGI INICIATIVAS SOCIALES, S.L.",
          "href": "https://api.euskadi.eus/procurements/companies/09098"
        }
      }
    },
    {
      "name": "MOTION AND CONTROL APLICACIONES, S.L.",
      "registrationNumber": "09894",
      "identificationNumber": "B95846713",
      "address": "Calle Ibaibe (48902) nº 29 Edificio Garve III 2º Dcha",
      "location": {
        "postalCode": "48902",
        "municipality": "Barakaldo",
        "county": "Bizkaia",
        "municipalityId": "013",
        "countyId": "48"
      },
      "economicActivities": [
        {
          "id": "1.843.1",
          "name": "Servicios técnicos de ingeniería",
          "_links": {
            "self": {
              "name": "Servicios técnicos de ingeniería",
              "href": "https://api.euskadi.eus/procurements/companies/economic-activities/1.843.1"
            }
          }
        }
      ],
      "certificateStartDate": "2025-10-14",
      "certificateEndDate": "2026-04-12",
      "object": "1) LOS SERVICIOS TÉCNICOS DE INGENIERÍA Y OTRAS ACTIVIDADES RELACIONADAS CON EL ASESORAMIENTO TÉCNICO, LOS SERVICIOS DE GESTIÓN, ASISTENCIA TÉCNICA Y CONSULTORÍA PARA EL DESARROLLO DE PROYECTOS Y EN MATERIAS INFORMÁTICAS, ASÍ COMO SU POSTERIOR COMERCIALIZACIÓN Y CON CARÁCTER GENERAL, LA REALIZACIÓN DE ACTIVIDADES DE DESARROLLO DE APLICACIONES PARA LA INGENIERÍA Y LA INFORMÁTICA. 2) LA CONTRATA O SUBCONTRATA DE TRABAJOS ELÉCTRICOS O MECÁNICOS, PONIENDO PARA EL DESARROLLO DEL MISMO EL PERTINENTE PERSONAL CUALIFICADO. 3) LA ADQUISICIÓN Y ENAJENACIÓN, POR CUALQUIER TÍTULO, DE FINCAS URBANAS Y RÚSTICAS, YA SEAN TIERRAS, SOLARES Y EDIFICIOS, Y LA ADMINISTRACIÓN, TENENCIA, EXPLOTACIÓN Y ARRENDAMIENTO, YA SEA ACTIVO O PASIVO, DE TALES BIENES Y SU VENTA TOTAL O PARCIAL Y PROCEDER A SU APROVECHAMIENTO, URBANO, INDUSTRIA O CUALQUIER OTRO. 4) LOS PROYECTOS DE INVESTIGACIÓN, DESARROLLO E INNOVACIÓN TECNOLÓGICA (I+D+I) Y TODOS LOS RELACIONADOS CON LA INNOVACIÓN TECNOLÓGICA Y EMPRESARIAL. 5) Y LOS PROYECTOS ENERGÉTICOS, PLANES DE AHORRO ENERGÉTICO Y SERVICIOS ENERGÉTICOS.",
      "mainEntityOfPage": "https://www.contratacion.euskadi.eus/webkpe00-kperoc/es/ac71aBusquedaRegistrosWar/empresa/09894",
      "_links": {
        "self": {
          "name": "MOTION AND CONTROL APLICACIONES, S.L.",
          "href": "https://api.euskadi.eus/procurements/companies/09894"
        }
      }
    },
    {
      "name": "SARIE MULTISERVICIOS, S.L.",
      "registrationNumber": "10127",
      "identificationNumber": "B75825802",
      "address": "Calle Castillo de Lantarón (01007), nº4, 3ºA",
      "location": {
        "postalCode": "01007",
        "municipality": "Vitoria-Gasteiz",
        "county": "Araba/Álava",
        "municipalityId": "059",
        "countyId": "01"
      },
      "economicActivities": [
        {
          "id": "1.504.1",
          "name": "Instalaciones eléctricas en general",
          "_links": {
            "self": {
              "name": "Instalaciones eléctricas en general",
              "href": "https://api.euskadi.eus/procurements/companies/economic-activities/1.504.1"
            }
          }
        }
      ],
      "certificateStartDate": "2025-10-14",
      "certificateEndDate": "2026-04-13",
      "object": "- LA REALIZACIÓN DE INSTALACIONES ELÉCTRICAS EN GENERAL, YA SEAN REDES TELEGRÁFICAS, TELEFÓNICAS, TELEFONÍA SIN HILOS Y TELEVISIÓN, SISTEMAS DE BALIZAMIENTO DE PUERTOS Y AEROPUERTOS, Y CUALQUIER OTRA INSTALACIÓN ELÉCTRICA, ASEGURANDO EL CUMPLIMENTO DE LAS NORMATIVAS Y ESTÁNDARES DE SEGURIDAD CORRESPONDIENTES. - DISEÑO Y CREACIÓN DE ESQUEMAS ELÉCTRICOS DETALLADOS PARA SISTEMAS INDUSTRIALES, ABARCANDO DESDE AUTOMATIZACIÓN HASTA HMI, PASANDO POR ISLAS DE AUTOMATIZACIÓN, CABLEADO Y SELECCIÓN Y COMPRA DE COMPONENTES. - PROGRAMACIÓN DE AUTÓMATAS E INTERFACES HOMBRE MÁQUINA (HMI) ADAPTANDO LOS SISTEMAS A LAS NECESIDADES ESPECÍFICAS DE CADA CLIENTE. - PROGRAMACIÓN DE ROBOTS INDUSTRIALES CONTRIBUYENDO ASÍ A LA OPTIMIZACIÓN DE LOS PROCESOS INDUSTRIALES. - INSTALACIÓN DE PLACAS SOLARES EN VIVIENDAS, INDUSTRIA O EN PLANTAS SOLARES, EN COLABORACIÓN CON EMPRESAS CON BASTANTE EXPERIENCIA. - MANTENIMIENTO DE INSTALACIONES ELÉCTRICAS.",
      "mainEntityOfPage": "https://www.contratacion.euskadi.eus/webkpe00-kperoc/es/ac71aBusquedaRegistrosWar/empresa/10127",
      "_links": {
        "self": {
          "name": "SARIE MULTISERVICIOS, S.L.",
          "href": "https://api.euskadi.eus/procurements/companies/10127"
        }
      }
    },
    {
      "name": "IMPORCARAVAN, S.L.",
      "registrationNumber": "07188",
      "identificationNumber": "B20083408",
      "address": "URUNE 25,BAJO. POLÍGONO 103.",
      "location": {
        "postalCode": "20100",
        "municipality": "Lezo",
        "county": "Gipuzkoa",
        "municipalityId": "053",
        "countyId": "20"
      },
      "economicActivities": [
        {
          "id": "1.615.1",
          "name": "Venta al por mayor de vehículos, motocicletas, bicicletas y sus accesorios",
          "_links": {
            "self": {
              "name": "Venta al por mayor de vehículos, motocicletas, bicicletas y sus accesorios",
              "href": "https://api.euskadi.eus/procurements/companies/economic-activities/1.615.1"
            }
          }
        },
        {
          "id": "1.856.1",
          "name": "Alquiler de bienes de consumo",
          "_links": {
            "self": {
              "name": "Alquiler de bienes de consumo",
              "href": "https://api.euskadi.eus/procurements/companies/economic-activities/1.856.1"
            }
          }
        }
      ],
      "certificateStartDate": "2025-10-14",
      "certificateEndDate": "2026-04-14",
      "object": "LA IMPORTACIÓN, COMPRA Y VENTA DE CARAVANAS, REMOLQUES Y OBJETOS DIVERSOS RELACIONADOS CON EL CAMPING; ALQUILER DE MESAS Y SILLAS Y MOBILIARIO PARA COLECTIVIDADES",
      "mainEntityOfPage": "https://www.contratacion.euskadi.eus/webkpe00-kperoc/es/ac71aBusquedaRegistrosWar/empresa/07188",
      "_links": {
        "self": {
          "name": "IMPORCARAVAN, S.L.",
          "href": "https://api.euskadi.eus/procurements/companies/07188"
        }
      }
    }
  ]
}