{
  "totalItems": 9042,
  "totalPages": 905,
  "currentPage": 314,
  "itemsOfPage": 10,
  "items": [
    {
      "name": "ITXAROPENA GOITIA OTAOLA",
      "registrationNumber": "10075",
      "identificationNumber": "30679686D",
      "address": "C/ SANCHO AZPEITIA 1",
      "location": {
        "postalCode": "48014",
        "municipality": "Bilbao",
        "county": "Bizkaia",
        "municipalityId": "020",
        "countyId": "48"
      },
      "economicActivities": [
        {
          "id": "2.838",
          "name": "Ópticos-optometristas y podólogos",
          "_links": {
            "self": {
              "name": "Ópticos-optometristas y podólogos",
              "href": "https://api.euskadi.eus/procurements/companies/economic-activities/2.838"
            }
          }
        }
      ],
      "certificateStartDate": "2025-08-28",
      "certificateEndDate": "2026-02-27",
      "object": "ÓPTICOS-OPTOMETRISTAS Y PODÓLOGOS.",
      "mainEntityOfPage": "https://www.contratacion.euskadi.eus/webkpe00-kperoc/es/ac71aBusquedaRegistrosWar/empresa/10075",
      "_links": {
        "self": {
          "name": "ITXAROPENA GOITIA OTAOLA",
          "href": "https://api.euskadi.eus/procurements/companies/10075"
        }
      }
    },
    {
      "name": "EDUARD GREGORI PEREZ",
      "registrationNumber": "10307",
      "identificationNumber": "20446324Z",
      "address": "Calle Andalucía",
      "location": {
        "postalCode": "01003",
        "municipality": "Vitoria-Gasteiz",
        "county": "Araba/Álava",
        "municipalityId": "059",
        "countyId": "01"
      },
      "economicActivities": [
        {
          "id": "1.504.8",
          "name": "Montajes metálicos e instalaciones industriales completas",
          "_links": {
            "self": {
              "name": "Montajes metálicos e instalaciones industriales completas",
              "href": "https://api.euskadi.eus/procurements/companies/economic-activities/1.504.8"
            }
          }
        },
        {
          "id": "1.981.2",
          "name": "Jardines de recreo en los que la entrada es por precio",
          "_links": {
            "self": {
              "name": "Jardines de recreo en los que la entrada es por precio",
              "href": "https://api.euskadi.eus/procurements/companies/economic-activities/1.981.2"
            }
          }
        }
      ],
      "certificateStartDate": "2025-08-28",
      "certificateEndDate": "2026-02-25",
      "object": "MONTAJES METÁLICOS E INSTALACIONES INDUSTRIALES COMPLETAS. JARDINES DE RECREO EN LOS QUE LA ENTRADA ES POR PRECIO.",
      "mainEntityOfPage": "https://www.contratacion.euskadi.eus/webkpe00-kperoc/es/ac71aBusquedaRegistrosWar/empresa/10307",
      "_links": {
        "self": {
          "name": "EDUARD GREGORI PEREZ",
          "href": "https://api.euskadi.eus/procurements/companies/10307"
        }
      }
    },
    {
      "name": "EDURNE SEVILLA LARRAÑAGA",
      "registrationNumber": "10306",
      "identificationNumber": "44340926P",
      "address": "KALE BERRIA 0 - 4ºB",
      "location": {
        "postalCode": "20150",
        "municipality": "Villabona",
        "county": "Gipuzkoa",
        "municipalityId": "075",
        "countyId": "20"
      },
      "economicActivities": [
        {
          "id": "1.844",
          "name": "Servicios de publicidad, relaciones públicas y similares",
          "_links": {
            "self": {
              "name": "Servicios de publicidad, relaciones públicas y similares",
              "href": "https://api.euskadi.eus/procurements/companies/economic-activities/1.844"
            }
          }
        }
      ],
      "certificateStartDate": "2025-08-28",
      "certificateEndDate": "2026-02-28",
      "object": "SERVICIOS DE PUBLICIDAD, RELACIONES PÚBLICAS Y SIMILARES.",
      "mainEntityOfPage": "https://www.contratacion.euskadi.eus/webkpe00-kperoc/es/ac71aBusquedaRegistrosWar/empresa/10306",
      "_links": {
        "self": {
          "name": "EDURNE SEVILLA LARRAÑAGA",
          "href": "https://api.euskadi.eus/procurements/companies/10306"
        }
      }
    },
    {
      "name": "AUTOMATIZACION Y SOLUCIONES AVANZADAS, S.L.",
      "registrationNumber": "10081",
      "identificationNumber": "B56220817",
      "address": "AVDA. DE LA ESTACION, NUM. 12, POL. INDUS. LAS CANTERAS",
      "location": {
        "postalCode": "45520",
        "municipality": "Villaluenga de la Sagra",
        "county": "Toledo",
        "municipalityId": "188",
        "countyId": "45"
      },
      "economicActivities": [
        {
          "id": "1.504.1",
          "name": "Instalaciones eléctricas en general",
          "_links": {
            "self": {
              "name": "Instalaciones eléctricas en general",
              "href": "https://api.euskadi.eus/procurements/companies/economic-activities/1.504.1"
            }
          }
        }
      ],
      "certificateStartDate": "2025-08-27",
      "certificateEndDate": "2026-02-27",
      "object": "EL DESARROLLO DE ESTUDIOS Y PROYECTOS TÉCNICOS Y TECNOLÓGICOS PARA LA AUTOMATIZACIÓN DE MAQUINARIA, INSTALACIONES Y PROCESOS, LA DIRECCIÓN Y EJECUCIÓN DE LOS MISMOS, Y LA FABRICACIÓN, INSTALACIÓN Y MANTENIMIENTO DE QUIPOS DE AUTOMATIZACIÓN. SU ACTIVIDAD PRINCIPAL, DE CONFORMIDAD CON EL CÓDIGO CNAE SE CORRESPONDE CON EL SIGUIENTE: 2899.- FABRICACIÓN DE OTRA MAQUINARIA PARA USOS ESPECÍFICOS N.C.O.P.",
      "mainEntityOfPage": "https://www.contratacion.euskadi.eus/webkpe00-kperoc/es/ac71aBusquedaRegistrosWar/empresa/10081",
      "_links": {
        "self": {
          "name": "AUTOMATIZACION Y SOLUCIONES AVANZADAS, S.L.",
          "href": "https://api.euskadi.eus/procurements/companies/10081"
        }
      }
    },
    {
      "name": "BATEGIN, S.L.P.",
      "registrationNumber": "05504",
      "identificationNumber": "B75097451",
      "address": "PORTUETXE, 63 - 2ºD",
      "location": {
        "postalCode": "20018",
        "municipality": "Donostia / San Sebastián",
        "county": "Gipuzkoa",
        "municipalityId": "069",
        "countyId": "20"
      },
      "economicActivities": [
        {
          "id": "1.843.9",
          "name": "Otros servicios técnicos n.c.o.p",
          "_links": {
            "self": {
              "name": "Otros servicios técnicos n.c.o.p",
              "href": "https://api.euskadi.eus/procurements/companies/economic-activities/1.843.9"
            }
          }
        }
      ],
      "certificateStartDate": "2025-08-27",
      "certificateEndDate": "2026-02-27",
      "object": "COORDINACIÓN EN SEGURIDAD Y SALUD, TANTO EN FASE DE PROYECTO COMO EN FASE DE EJECUCIÓN Y LA REDACCIÓN DE ESTUDIOS DE SEGURIDAD Y ESTUDIOS BÁSICOS DE SEGURIDAD Y SALUD; Y LA REALIZACIÓN DE TRABAJOS PROFESIONALES DE ARQUITECTURA TÉCNICA, INGENIERÍA TÉCNICA, ASESORAMIENTO JURÍDICO Y ASISTENCIA TÉCNICA EN MATERIA DE PREVENCIÓN DE RIESGOS LABORALES",
      "mainEntityOfPage": "https://www.contratacion.euskadi.eus/webkpe00-kperoc/es/ac71aBusquedaRegistrosWar/empresa/05504",
      "_links": {
        "self": {
          "name": "BATEGIN, S.L.P.",
          "href": "https://api.euskadi.eus/procurements/companies/05504"
        }
      }
    },
    {
      "name": "ATAL INNOVATIONS, S.L.",
      "registrationNumber": "07434",
      "identificationNumber": "B95941936",
      "address": "P.A.E Ibarrabarri, Calle Iturriondo, Nº 18, NAVE 11C",
      "location": {
        "postalCode": "48940",
        "municipality": "Leioa",
        "county": "Bizkaia",
        "municipalityId": "054",
        "countyId": "48"
      },
      "economicActivities": [
        {
          "id": "1.619.2",
          "name": "Venta al por mayor de aparatos e instrumentos médicos, ortopédicos, ópticos",
          "_links": {
            "self": {
              "name": "Venta al por mayor de aparatos e instrumentos médicos, ortopédicos, ópticos",
              "href": "https://api.euskadi.eus/procurements/companies/economic-activities/1.619.2"
            }
          }
        }
      ],
      "certificateStartDate": "2025-08-27",
      "certificateEndDate": "2026-02-27",
      "object": "LA ACTIVIDAD PRINCIPAL: COMERCIO AL POR MAYOR DE OTRA MAQUINARIA Y EQUIPO. OTRAS ACTIVIDADES: LA COMPRA, VENTA, DISTRIBUCIÓN, COMERCIALIZACIÓN, ALQUILER, IMPORTACIÓN Y EXPORTACIÓN DE EQUIPOS MÉDICOS, DE LABORATORIO, QUIRÚRGICO, ODONTOLÓGICO, VETERINARIO Y DE ORTOPEDIA",
      "mainEntityOfPage": "https://www.contratacion.euskadi.eus/webkpe00-kperoc/es/ac71aBusquedaRegistrosWar/empresa/07434",
      "_links": {
        "self": {
          "name": "ATAL INNOVATIONS, S.L.",
          "href": "https://api.euskadi.eus/procurements/companies/07434"
        }
      }
    },
    {
      "name": "VITELSA NORTE, S.A.",
      "registrationNumber": "03089",
      "identificationNumber": "A48995914",
      "address": "AVDA. MADARIAGA, 1-2º. DPTO. 11",
      "location": {
        "postalCode": "48014",
        "municipality": "Bilbao",
        "county": "Bizkaia",
        "municipalityId": "020",
        "countyId": "48"
      },
      "economicActivities": [
        {
          "id": "1.615.4",
          "name": "Venta al por mayor de aparatos y material radioeléctrico y electrónico",
          "_links": {
            "self": {
              "name": "Venta al por mayor de aparatos y material radioeléctrico y electrónico",
              "href": "https://api.euskadi.eus/procurements/companies/economic-activities/1.615.4"
            }
          }
        }
      ],
      "certificateStartDate": "2025-08-27",
      "certificateEndDate": "2026-02-27",
      "object": "LA COMERCIALIZACIÓN, INSTALACIÓN, MANTENIMIENTO, FABRICACIÓN Y PRESTACIÓN DE TODA CLASE DE SERVICIOS RELACIONADOS CON EQUIPOS DE TELECOMUNICACIÓN, VIDEO, IMAGEN, SONIDO E INFORMÁTICA. DICHO OBJETO SOCIAL PODRÁ SER DESARROLLADO POR LA SOCIEDAD TOTAL O PARCIALMENTE DE MODO INDIRECTO, MEDIANTE LA TITULARIDAD DE ACCIONES O DE PARTICIPACIONES EN SOCIEDADES CON OBJETO IDÉNTICO O ANÁLOGO",
      "mainEntityOfPage": "https://www.contratacion.euskadi.eus/webkpe00-kperoc/es/ac71aBusquedaRegistrosWar/empresa/03089",
      "_links": {
        "self": {
          "name": "VITELSA NORTE, S.A.",
          "href": "https://api.euskadi.eus/procurements/companies/03089"
        }
      }
    },
    {
      "name": "ASOCIACION PARA LA PROMOCION DE LA TECNOLOGIA SOCIAL - GIZARTE TEKNOLOGIA SUSTATZEKO ELKARTEA (APTES)",
      "registrationNumber": "09245",
      "identificationNumber": "G20826483",
      "address": "P Mikeletegi 56, 3º oficina 303",
      "location": {
        "postalCode": "20009",
        "municipality": "Donostia / San Sebastián",
        "county": "Gipuzkoa",
        "municipalityId": "069",
        "countyId": "20"
      },
      "economicActivities": [
        {
          "id": "1.933.9",
          "name": "Otras actividades de enseñanza tales como idiomas, mecanografía",
          "_links": {
            "self": {
              "name": "Otras actividades de enseñanza tales como idiomas, mecanografía",
              "href": "https://api.euskadi.eus/procurements/companies/economic-activities/1.933.9"
            }
          }
        },
        {
          "id": "1.966.9",
          "name": "Otros servicios culturales n.c.o.p",
          "_links": {
            "self": {
              "name": "Otros servicios culturales n.c.o.p",
              "href": "https://api.euskadi.eus/procurements/companies/economic-activities/1.966.9"
            }
          }
        }
      ],
      "certificateStartDate": "2025-08-27",
      "certificateEndDate": "2026-02-27",
      "object": "UNO. LA ASOCIACIÓN TIENE LOS SIGUIENTES FINES PRINCIPALES: A) SER CAUCE Y LUGAR DE ENCUENTRO Y COOPERACIÓN DE PROFESIONALES Y ENTIDADES, CONSTITUYENDO UNA VOZ COMÚN PROMOTORA DE LA TECNOLOGÍA SOCIAL Y DE INTERLOCUCIÓN CON LOS PODERES PÚBLICOS DESDE POSICIONES PLURALISTAS. B) AYUDAR A LAS ORGANIZACIONES VINCULADAS A LA DISCAPACIDAD Y LA DEPENDENCIA EN LA ADOPCIÓN E INSERCIÓN DE LA TECNOLOGÍA A LA SOLUCIÓN DE PROBLEMAS SOCIALES. C) CONTRIBUIR A INCORPORAR EL CONCEPTO Y LA FUNCIÓN SOCIAL DE LA TECNOLOGÍA EN EL ENTORNO UNIVERSITARIO, POTENCIANDO SU INCLUSIÓN EN LOS ACTUALES PROGRAMAS DOCENTES O IMPULSANDO LA CREACIÓN DE TITULACIONES ESPECÍFICAS. D) APOYAR Y CONTRIBUIR A LA REALIZACIÓN DE PROYECTOS DE I+D Y A LA CONSOLIDACIÓN DE UNA INFRAESTRUCTURA INVESTIGADORA EN EL ÁMBITO DE LAS APLICACIONES DE LA TECNOLOGÍA EN LA MEJORA DE LA CALIDAD DE VIDA DE LOS SECTORES DE LA SOCIEDAD CON MAYORES CARENCIAS O DISCAPACIDADES. E) CONSEGUIR UNA AMPLIA PARTICIPACIÓN DE LOS PROFESIONALES Y ENTIDADES INTERESADAS O VINCULADAS A LA TECNOLOGÍA SOCIAL Y UNA MÁXIMA AFILIACIÓN, DESDE LA PLURALIDAD. F) SER UN INSTRUMENTO DE REFLEXIÓN CONJUNTA Y DE INFLUENCIA EN LA TOMA DE DECISIONES A FAVOR DE LA TECNOLOGÍA SOCIAL Y DE VOZ REPRESENTANTE ANTE LAS ADMINISTRACIONES PÚBLICAS, FORALES, AUTONÓMICAS, ESTATALES Y COMUNITARIAS. G) IMPULSAR Y COORDINAR INICIATIVAS ASÍ COMO PROYECTOS QUE RESPONDAN A INTERESES COMUNES DE SUS ASOCIADOS. H) SOCIALIZAR LA INFORMACIÓN Y LA FORMACIÓN SOBRE LA TECNOLOGÍA PARA FACILITAR EL ACCESO DE TODOS LOS COLECTIVOS A LOS MEDIOS TECNOLÓGICOS Y SOLUCIONES AVANZADAS. DOS. OTROS FINES Y SERVICIOS SIMILARES Y/O COMPLEMENTARIOS A LOS EXPUESTOS EN EL APARTADO ANTERIOR. TRES. SIN PERJUICIO DE LOS FINES DESCRITOS EN EL APARTADO UNO, LA ASOCIACIÓN, PARA EL CUMPLIMIENTO DE LOS MISMOS, PODRÁ: - DESARROLLAR ACTIVIDADES ECONÓMICAS DE TODO TIPO, ENCAMINADAS A LA REALIZACIÓN DE SUS FINES O A ALLEGAR RECURSOS CON ESE OBJETIVO. - ADQUIRIR Y POSEER BIENES DE TODAS CLASES Y POR CUALQUIER TÍTULO, ASÍ COMO CELEBRAR ACTOS Y CONTRATOS DE TODO GÉNERO. - EJERCITAR TODA CLASE DE ACCIONES CONFORMA A LAS LEYES O A SUS ESTATUTOS.",
      "mainEntityOfPage": "https://www.contratacion.euskadi.eus/webkpe00-kperoc/es/ac71aBusquedaRegistrosWar/empresa/09245",
      "_links": {
        "self": {
          "name": "ASOCIACION PARA LA PROMOCION DE LA TECNOLOGIA SOCIAL - GIZARTE TEKNOLOGIA SUSTATZEKO ELKARTEA (APTES)",
          "href": "https://api.euskadi.eus/procurements/companies/09245"
        }
      }
    },
    {
      "name": "D.O. BIO EXPERIENCE, S.L.",
      "registrationNumber": "09528",
      "identificationNumber": "B95836441",
      "address": "Calle Ercilla (48009) 8, 3 izq",
      "location": {
        "postalCode": "48009",
        "municipality": "Bilbao",
        "county": "Bizkaia",
        "municipalityId": "020",
        "countyId": "48"
      },
      "economicActivities": [
        {
          "id": "1.647.1",
          "name": "Venta al por menor de productos alimenticios y bebidas con vendedor",
          "_links": {
            "self": {
              "name": "Venta al por menor de productos alimenticios y bebidas con vendedor",
              "href": "https://api.euskadi.eus/procurements/companies/economic-activities/1.647.1"
            }
          }
        }
      ],
      "certificateStartDate": "2025-08-27",
      "certificateEndDate": "2026-02-27",
      "object": "LA COMPRA, VENTA, COMERCIALIZACIÓN, IMPORTACIÓN Y EXPORTACIÓN DE TODA CLASE DE PRODUCTOS DE ALIMENTACIÓN Y BEBIDAS FINES, COMPLEMENTARIOS Y SUSTITUTIVOS, DISTRIBUYENDO EN SU PROPIO NOMBRE O A COMISIÓN EN CUALQUIERA DE SUS MODALIDADES, ASÍ COMO LA ORGANIZACIÓN DE EVENTOS Y CATERINGS VINCULADOS A DICHOS PRODUCTOS COMERCIALIZADOS Y EN GENERAL, REALIZAR CUANTAS ACTIVIDADES CONTRIBUYAN AL MÁS EFICAZ DESARROLLO DE SU OBJETO SOCIAL. LA ADQUISICIÓN POR CUALQUIER TÍTULO, VENTA, ARRIENDO O EXPLOTACIÓN EN CUALQUIER FORMA DE TODA CLASE DE TERRENOS, SOLARES, EDIFICIOS, FINCAS RÚSTICAS Y URBANAS.",
      "mainEntityOfPage": "https://www.contratacion.euskadi.eus/webkpe00-kperoc/es/ac71aBusquedaRegistrosWar/empresa/09528",
      "_links": {
        "self": {
          "name": "D.O. BIO EXPERIENCE, S.L.",
          "href": "https://api.euskadi.eus/procurements/companies/09528"
        }
      }
    },
    {
      "name": "MARTIN CARO ALONSO",
      "registrationNumber": "09273",
      "identificationNumber": "20183956F",
      "address": "Calle Nicolás Ormaechea &quot;Orixe&quot;",
      "location": {
        "postalCode": "48910",
        "municipality": "Sestao",
        "county": "Bizkaia",
        "municipalityId": "084",
        "countyId": "48"
      },
      "economicActivities": [
        {
          "id": "2.751",
          "name": "Profesionales de la publicidad, relaciones públicas y similares",
          "_links": {
            "self": {
              "name": "Profesionales de la publicidad, relaciones públicas y similares",
              "href": "https://api.euskadi.eus/procurements/companies/economic-activities/2.751"
            }
          }
        }
      ],
      "certificateStartDate": "2025-08-27",
      "certificateEndDate": "2026-02-27",
      "object": "PROFESIONALES DE LA PUBLICIDAD, RELACIONES PÚBLICAS Y SIMILARES.",
      "mainEntityOfPage": "https://www.contratacion.euskadi.eus/webkpe00-kperoc/es/ac71aBusquedaRegistrosWar/empresa/09273",
      "_links": {
        "self": {
          "name": "MARTIN CARO ALONSO",
          "href": "https://api.euskadi.eus/procurements/companies/09273"
        }
      }
    }
  ]
}