{
  "totalItems": 9042,
  "totalPages": 905,
  "currentPage": 305,
  "itemsOfPage": 10,
  "items": [
    {
      "name": "BULEGOAN, S.L.",
      "registrationNumber": "05934",
      "identificationNumber": "B95870051",
      "address": "CALLE LEZAMA LEGIZAMON 11 LONJA ",
      "location": {
        "postalCode": "48450",
        "municipality": "Etxebarri",
        "county": "Bizkaia",
        "municipalityId": "029",
        "countyId": "48"
      },
      "economicActivities": [
        {
          "id": "1.501.1",
          "name": "Construcción completa, reparación y conservación de edificaciones",
          "_links": {
            "self": {
              "name": "Construcción completa, reparación y conservación de edificaciones",
              "href": "https://api.euskadi.eus/procurements/companies/economic-activities/1.501.1"
            }
          }
        }
      ],
      "certificateStartDate": "2025-09-02",
      "certificateEndDate": "2026-03-02",
      "object": "LA CONSTRUCCIÓN Y REHABILITACIÓN DE TODA CLASE DE VIVIENDAS, OFICINAS, LOCALES DE NEGOCIO, NAVES, INSTALACIONES INDUSTRIALES O DEPORTIVAS, PARA SU USO PROPIO, PARA VENDER O ARRENDAR, CON PROTECCIÓN OFICIAL O SIN ELLA. LA REALIZACIÓN DE OBRAS DE ALBAÑILERÍA Y PEQUEÑOS TRABAJOS EN GENERAL POR CUENTA PROPIA O AJENA, LA CONSTRUCCIÓN, LA REPARACIÓN, CONSERVACIÓN, REFORMAS Y EJECUCIÓN DE OBRAS. LA ADQUISICIÓN, ENAJENACIÓN, ARRENDAMIENTO, EXPLOTACIÓN, PARCELACIÓN Y URBANIZACIÓN DE TODA CLASE DE FINCAS, RÚSTICAS, URBANAS Y SOLARES. LA GESTIÓN Y PRESTACIÓN DE TODO TIPO DE SERVICIOS PARA LA PROMOCIÓN INMOBILIARIA Y LA CONSTRUCCIÓN. LA COMERCIALIZACIÓN DE MATERIALES DE CONSTRUCCIÓN",
      "mainEntityOfPage": "https://www.contratacion.euskadi.eus/webkpe00-kperoc/es/ac71aBusquedaRegistrosWar/empresa/05934",
      "_links": {
        "self": {
          "name": "BULEGOAN, S.L.",
          "href": "https://api.euskadi.eus/procurements/companies/05934"
        }
      }
    },
    {
      "name": "ZELAKO KULTUR IDEIAK KOOP. ELK. TXIKIA",
      "registrationNumber": "09476",
      "identificationNumber": "F10672236",
      "address": "Loibe 16, Alonsotegi Elkartegia Mod.42",
      "location": {
        "postalCode": "48810",
        "municipality": "Alonsotegi",
        "county": "Bizkaia",
        "municipalityId": "912",
        "countyId": "48"
      },
      "economicActivities": [
        {
          "id": "1.847",
          "name": "Servicios de consultoría",
          "_links": {
            "self": {
              "name": "Servicios de consultoría",
              "href": "https://api.euskadi.eus/procurements/companies/economic-activities/1.847"
            }
          }
        },
        {
          "id": "1.961.1",
          "name": "Producción de películas cinematográficas (incluso vídeos)",
          "_links": {
            "self": {
              "name": "Producción de películas cinematográficas (incluso vídeos)",
              "href": "https://api.euskadi.eus/procurements/companies/economic-activities/1.961.1"
            }
          }
        },
        {
          "id": "1.965.4",
          "name": "Empresas de espectáculos",
          "_links": {
            "self": {
              "name": "Empresas de espectáculos",
              "href": "https://api.euskadi.eus/procurements/companies/economic-activities/1.965.4"
            }
          }
        }
      ],
      "certificateStartDate": "2025-09-02",
      "certificateEndDate": "2026-03-02",
      "object": "- CREACIÓN DE PROYECTOS Y PROGRAMAS DE INTERÉS CULTURAL, SOCIAL Y EDUCATIVO. - DAR RESPUESTA INTEGRAL A LAS DEMANDAS CULTURALES QUE SE REALIZAN POR PARTE DE INSTITUCIONES, ASOCIACIONES Y EMPRESAS EN EL ENTORNO DE LOS EVENTOS Y PROGRAMAS. - COORDINACIÓN DE LOS DIFERENTES AGENTES PARA LA CREACIÓN DE IDEAS, DESARROLLO E IMPLEMENTACIÓN, MATERIALIZACIÓN DE FORMA INTEGRAL Y DE PRINCIPIO A FIN, Y VALORACIÓN PARA COMPROBAR EL IMPACTO CONSEGUIDO. - CREACIÓN DE PRODUCCIONES PROPIAS: MÚSICA, TEATRO, TELEVISIÓN, LITERATURA. - MANAGEMENT Y BOOKING DE PROYECTOS EDUCATIVOS. - VENTA DE MATERIAL AUDIOVISUAL, LITERARIO, MERCHANDISING, CREACIONES ARTÍSTICAS. - GESTIÓN DE ESPACIOS CULTURALES Y CREATIVOS. - RECUPERACIÓN, DIFUSIÓN Y ACERCAMIENTO A LA SOCIEDAD DEL PATRIMONIO ORAL Y CULTURAL GENERAL VASCO, HACIENDO ESPECIAL HINCAPIÉ EN LA JUVENTUD. - FOMENTAR EL USO DEL EUSKERA E IMPULSAR ACTIVIDADES A FAVOR DE LAS LENGUAS MINORITARIAS. - IMPULSAR LA PRESENCIA DE LAS MUJERES EN LOS ÁMBITOS CREATIVOS. - PROMOCIÓN Y DIFUSIÓN DE LAS TIC Y LA CREACIÓN AUDIOVISUAL EN EUSKERA. - OFERTA DE FORMACIÓN.",
      "mainEntityOfPage": "https://www.contratacion.euskadi.eus/webkpe00-kperoc/es/ac71aBusquedaRegistrosWar/empresa/09476",
      "_links": {
        "self": {
          "name": "ZELAKO KULTUR IDEIAK KOOP. ELK. TXIKIA",
          "href": "https://api.euskadi.eus/procurements/companies/09476"
        }
      }
    },
    {
      "name": "JOAQUIN MARIA BERJANO LOPEZ DE TOLEDO",
      "registrationNumber": "09537",
      "identificationNumber": "10595399N",
      "address": "Calle Escultor, 6",
      "location": {
        "postalCode": "28492",
        "municipality": "Boalo, El",
        "county": "Madrid",
        "municipalityId": "023",
        "countyId": "28"
      },
      "economicActivities": [
        {
          "id": "2.022",
          "name": "Ingenieros técnicos agrícolas e ingenieros técnicos forestales",
          "_links": {
            "self": {
              "name": "Ingenieros técnicos agrícolas e ingenieros técnicos forestales",
              "href": "https://api.euskadi.eus/procurements/companies/economic-activities/2.022"
            }
          }
        }
      ],
      "certificateStartDate": "2025-09-02",
      "certificateEndDate": "2026-03-02",
      "object": "INGENIEROS TÉCNICOS AGRÍCOLAS E INGENIEROS TÉCNICOS FORESTALES.",
      "mainEntityOfPage": "https://www.contratacion.euskadi.eus/webkpe00-kperoc/es/ac71aBusquedaRegistrosWar/empresa/09537",
      "_links": {
        "self": {
          "name": "JOAQUIN MARIA BERJANO LOPEZ DE TOLEDO",
          "href": "https://api.euskadi.eus/procurements/companies/09537"
        }
      }
    },
    {
      "name": "KOMUNIKATIK GETXO, S.L.",
      "registrationNumber": "09434",
      "identificationNumber": "B95744058",
      "address": "Andres Cortina, nº2, piso 4º dpto. 1º",
      "location": {
        "postalCode": "48993",
        "municipality": "Getxo",
        "county": "Bizkaia",
        "municipalityId": "044",
        "countyId": "48"
      },
      "economicActivities": [
        {
          "id": "1.845",
          "name": "Explotación electrónica por cuenta de terceros",
          "_links": {
            "self": {
              "name": "Explotación electrónica por cuenta de terceros",
              "href": "https://api.euskadi.eus/procurements/companies/economic-activities/1.845"
            }
          }
        },
        {
          "id": "1.847",
          "name": "Servicios de consultoría",
          "_links": {
            "self": {
              "name": "Servicios de consultoría",
              "href": "https://api.euskadi.eus/procurements/companies/economic-activities/1.847"
            }
          }
        },
        {
          "id": "1.933.9",
          "name": "Otras actividades de enseñanza tales como idiomas, mecanografía",
          "_links": {
            "self": {
              "name": "Otras actividades de enseñanza tales como idiomas, mecanografía",
              "href": "https://api.euskadi.eus/procurements/companies/economic-activities/1.933.9"
            }
          }
        }
      ],
      "certificateStartDate": "2025-09-02",
      "certificateEndDate": "2026-03-02",
      "object": "- INFORMACIÓN Y COMUNICACIONES. CONSULTORÍA DE COMUNICACIÓN Y SOCIAL MEDIA. - INFORMÁTICA, TELECOMUNICACIONES Y OFIMÁTICA. CONSULTORÍA, DESARROLLO Y ALQUILER DE APLICACIONES EMPRESARIALES.",
      "mainEntityOfPage": "https://www.contratacion.euskadi.eus/webkpe00-kperoc/es/ac71aBusquedaRegistrosWar/empresa/09434",
      "_links": {
        "self": {
          "name": "KOMUNIKATIK GETXO, S.L.",
          "href": "https://api.euskadi.eus/procurements/companies/09434"
        }
      }
    },
    {
      "name": "GATTIKEN KOOP. ELK. TXIKIA",
      "registrationNumber": "10090",
      "identificationNumber": "F75063750",
      "address": "URTUBI, 8 A",
      "location": {
        "postalCode": "20700",
        "municipality": "Zumarraga",
        "county": "Gipuzkoa",
        "municipalityId": "080",
        "countyId": "20"
      },
      "economicActivities": [
        {
          "id": "1.355.2",
          "name": "Edición de soportes grabados de sonido, vídeo y de informática",
          "_links": {
            "self": {
              "name": "Edición de soportes grabados de sonido, vídeo y de informática",
              "href": "https://api.euskadi.eus/procurements/companies/economic-activities/1.355.2"
            }
          }
        },
        {
          "id": "1.843.9",
          "name": "Otros servicios técnicos n.c.o.p",
          "_links": {
            "self": {
              "name": "Otros servicios técnicos n.c.o.p",
              "href": "https://api.euskadi.eus/procurements/companies/economic-activities/1.843.9"
            }
          }
        },
        {
          "id": "1.961.1",
          "name": "Producción de películas cinematográficas (incluso vídeos)",
          "_links": {
            "self": {
              "name": "Producción de películas cinematográficas (incluso vídeos)",
              "href": "https://api.euskadi.eus/procurements/companies/economic-activities/1.961.1"
            }
          }
        }
      ],
      "certificateStartDate": "2025-09-02",
      "certificateEndDate": "2026-03-02",
      "object": "A) CREACIÓN DE PRODUCTOS AUDIOVISUALES. B) REALIZACIÓN DE PRODUCTOS DE DISEÑO GRÁFICO. C) DISEÑO Y TRATAMIENTO DE SONIDO. D) SERVICIOS DE REDACCIÓN. E) REALIZACIÓN DE TODO TIPO DE PRODUCTO Y SERVICIOS RELACIONADOS CON LA PUBLICIDAD Y LA COMUNICACIÓN.",
      "mainEntityOfPage": "https://www.contratacion.euskadi.eus/webkpe00-kperoc/es/ac71aBusquedaRegistrosWar/empresa/10090",
      "_links": {
        "self": {
          "name": "GATTIKEN KOOP. ELK. TXIKIA",
          "href": "https://api.euskadi.eus/procurements/companies/10090"
        }
      }
    },
    {
      "name": "MERCÉ V. ELECTROMEDICINA, S.L.",
      "registrationNumber": "03609",
      "identificationNumber": "B96056023",
      "address": "C/ COLÓN, Nº 1, ESCALERA 1, PLANTA 6ª, PUERTA 1.",
      "location": {
        "postalCode": "46004",
        "municipality": "València",
        "county": "Valencia/València",
        "municipalityId": "250",
        "countyId": "46"
      },
      "economicActivities": [
        {
          "id": "1.619.2",
          "name": "Venta al por mayor de aparatos e instrumentos médicos, ortopédicos, ópticos",
          "_links": {
            "self": {
              "name": "Venta al por mayor de aparatos e instrumentos médicos, ortopédicos, ópticos",
              "href": "https://api.euskadi.eus/procurements/companies/economic-activities/1.619.2"
            }
          }
        }
      ],
      "certificateStartDate": "2025-09-02",
      "certificateEndDate": "2026-03-02",
      "object": "LA IMPORTACIÓN, EXPORTACIÓN, FABRICACIÓN, COMPRA Y VENTA, AL POR MAYOR Y MENOR, DE APARATOS CON DESTINO A LA ASISTENCIA MÉDICA, QUIRÚRGICA Y SANITARIA, PARA EL DIAGNÓSTICO, PREVENCIÓN Y TRATAMIENTO DE ENFERMEDADES, ANÁLISIS CLÍNICOS, EXPLORACIONES RADIOLÓGICAS, ECOGRAFÍAS, &quot;DOPPLER&quot;, ELECTRONICAS, EQUIPOS Y SISTEMAS INFORMÁTICOS Y DEMÁS RELACIONADOS CON LA MEDICINA",
      "mainEntityOfPage": "https://www.contratacion.euskadi.eus/webkpe00-kperoc/es/ac71aBusquedaRegistrosWar/empresa/03609",
      "_links": {
        "self": {
          "name": "MERCÉ V. ELECTROMEDICINA, S.L.",
          "href": "https://api.euskadi.eus/procurements/companies/03609"
        }
      }
    },
    {
      "name": "HAZLAN IRUN, S.L.",
      "registrationNumber": "08151",
      "identificationNumber": "B75115063",
      "address": "AVENIDA LETXUNBORRO, 58",
      "location": {
        "postalCode": "20305",
        "municipality": "Irun",
        "county": "Gipuzkoa",
        "municipalityId": "045",
        "countyId": "20"
      },
      "economicActivities": [
        {
          "id": "1.415.3",
          "name": "Limpieza, clasificación y envase de frutas y otros productos vegetales",
          "_links": {
            "self": {
              "name": "Limpieza, clasificación y envase de frutas y otros productos vegetales",
              "href": "https://api.euskadi.eus/procurements/companies/economic-activities/1.415.3"
            }
          }
        },
        {
          "id": "1.453",
          "name": "Confección en serie de toda clase de prendas de vestir",
          "_links": {
            "self": {
              "name": "Confección en serie de toda clase de prendas de vestir",
              "href": "https://api.euskadi.eus/procurements/companies/economic-activities/1.453"
            }
          }
        },
        {
          "id": "1.454",
          "name": "Confección a medida de prendas de vestir y sus complementos",
          "_links": {
            "self": {
              "name": "Confección a medida de prendas de vestir y sus complementos",
              "href": "https://api.euskadi.eus/procurements/companies/economic-activities/1.454"
            }
          }
        },
        {
          "id": "1.641",
          "name": "Venta al por menor de frutas, verduras, hortalizas y tubérculos",
          "_links": {
            "self": {
              "name": "Venta al por menor de frutas, verduras, hortalizas y tubérculos",
              "href": "https://api.euskadi.eus/procurements/companies/economic-activities/1.641"
            }
          }
        },
        {
          "id": "1.673.2",
          "name": "Otros cafés y bares",
          "_links": {
            "self": {
              "name": "Otros cafés y bares",
              "href": "https://api.euskadi.eus/procurements/companies/economic-activities/1.673.2"
            }
          }
        },
        {
          "id": "1.933.9",
          "name": "Otras actividades de enseñanza tales como idiomas, mecanografía",
          "_links": {
            "self": {
              "name": "Otras actividades de enseñanza tales como idiomas, mecanografía",
              "href": "https://api.euskadi.eus/procurements/companies/economic-activities/1.933.9"
            }
          }
        },
        {
          "id": "1.952",
          "name": "Asistencia y servicios sociales en centros no residenciales",
          "_links": {
            "self": {
              "name": "Asistencia y servicios sociales en centros no residenciales",
              "href": "https://api.euskadi.eus/procurements/companies/economic-activities/1.952"
            }
          }
        }
      ],
      "certificateStartDate": "2025-09-02",
      "certificateEndDate": "2026-03-02",
      "object": "LA INSERCIÓN SOCIOLABORAL, ATENDIENDO AL DECRETO 182/2008 DEL GOBIERNO VASCO, DIREMOS QUE NUESTRO OBJETO SOCIAL SERÁ: PRODUCIR BIENES O SERVICIOS QUE TENGAN COMO FIN LA INCORPORACIÓN AL MERCADO LABORAL DE COLECTIVOS EN SITUACIÓN DE DESVENTAJA SOCIAL O EXCLUSIÓN Y LLEVEN A CABO UN PROYECTO PERSONAL DE INSERCIÓN MEDIANTE UN PROCESO DE APRENDIZAJE ADECUADO QUE CONTEMPLE LA CONSECUCIÓN DE HABILIDADES SOCIALES, LABORALES, FORMACIÓN BÁSICA, CUALIFICACIÓN LABORAL Y CONOCIMIENTOS DEL MERCADO QUE LES PERMITAN MEJORAR SUS CONDICIONES DE EMPLEABILIDAD.",
      "mainEntityOfPage": "https://www.contratacion.euskadi.eus/webkpe00-kperoc/es/ac71aBusquedaRegistrosWar/empresa/08151",
      "_links": {
        "self": {
          "name": "HAZLAN IRUN, S.L.",
          "href": "https://api.euskadi.eus/procurements/companies/08151"
        }
      }
    },
    {
      "name": "ACHILES INGENIERIA FOTOVOLTAICA SL",
      "registrationNumber": "09008",
      "identificationNumber": "B95900106",
      "address": "Marques del puerto, 10, 1º dchas",
      "location": {
        "postalCode": "48008",
        "municipality": "Bilbao",
        "county": "Bizkaia",
        "municipalityId": "020",
        "countyId": "48"
      },
      "economicActivities": [
        {
          "id": "1.501.1",
          "name": "Construcción completa, reparación y conservación de edificaciones",
          "_links": {
            "self": {
              "name": "Construcción completa, reparación y conservación de edificaciones",
              "href": "https://api.euskadi.eus/procurements/companies/economic-activities/1.501.1"
            }
          }
        },
        {
          "id": "1.843.1",
          "name": "Servicios técnicos de ingeniería",
          "_links": {
            "self": {
              "name": "Servicios técnicos de ingeniería",
              "href": "https://api.euskadi.eus/procurements/companies/economic-activities/1.843.1"
            }
          }
        }
      ],
      "certificateStartDate": "2025-09-02",
      "certificateEndDate": "2026-03-02",
      "object": "-CONSTRUCCIÓN Y MANTENIMIENTO DE CUBIERTAS. -LA PRESTACIÓN DE SERVICIOS TÉCNICOS DE INGENIERÍA Y OTRAS ACTIVIDADES RELACIONADAS CON EL ASESORAMIENTO TÉCNICO. -CONSTRUCCIÓN DE OTROS PROYECTOS DE INGENIERÍA CIVIL. -COMPRAVENTA Y DISTRIBUCIÓN DE PLACAS FOTOVOLTAICAS Y EQUIPAMIENTO Y COMPLEMENTOS DE LAS MISMAS.",
      "mainEntityOfPage": "https://www.contratacion.euskadi.eus/webkpe00-kperoc/es/ac71aBusquedaRegistrosWar/empresa/09008",
      "_links": {
        "self": {
          "name": "ACHILES INGENIERIA FOTOVOLTAICA SL",
          "href": "https://api.euskadi.eus/procurements/companies/09008"
        }
      }
    },
    {
      "name": "GPI IBERIA HEALTH SOLUTIONS, S.L.",
      "registrationNumber": "06579",
      "identificationNumber": "B82874173",
      "address": "Antonio Lopez, 249 4ª planta",
      "location": {
        "postalCode": "28041",
        "municipality": "Madrid",
        "county": "Madrid",
        "municipalityId": "079",
        "countyId": "28"
      },
      "economicActivities": [
        {
          "id": "1.845",
          "name": "Explotación electrónica por cuenta de terceros",
          "_links": {
            "self": {
              "name": "Explotación electrónica por cuenta de terceros",
              "href": "https://api.euskadi.eus/procurements/companies/economic-activities/1.845"
            }
          }
        }
      ],
      "certificateStartDate": "2025-09-02",
      "certificateEndDate": "2026-03-02",
      "object": "1. LA EXPLOTACIÓN MERCANTIL, EN CUALQUIER FORMA LÍCITA EN DERECHO, DE NUEVAS TECNOLOGÍAS Y PRODUCTOS DE TELEMÁTICA, TELECOMUNICACIONES Y PROGRAMAS Y EQUIPOS INFORMÁTICOS, BIEN POR PROCEDIMIENTOS TRADICIONALES, BIEN A TRAVÉS DE INTERNET U OTRAS REDES SOCIALES, ASÍ COMO DE PRESTACIÓN DE SERVICIOS PROFESIONALES DE INSTALACIÓN, CONEXIÓN TELEMÁTICA, REPARACIÓN Y MANTENIMIENTO DE LOS ANTERIORES PRODUCTOS Y DE CONSULTORÍA RELACIONADA CON CUANTO ANTECEDE. Y EN CONCRETO, LAS SIGUIENTES ACTIVIDADES: A. LA CREACIÓN Y DESARROLLO DE PROGRAMAS INFORMÁTICOS PARA SU COMERCIALIZACIÓN, VENTA O CESIÓN DE DERECHOS DE USO. B. LA INSTALACIÓN, MANTENIMIENTO Y OPERACIÓN DE SOFTWARE INFORMÁTICO, HARDWAE INFORMÁTICO, COMUNICAICONES Y REDES DE DATOS. ASIMISMO, LA MERCANTIL PODRÁ DESARROLLAR LAS ACTIVIDADES DE VENTA, COMERCIALIZACIÓN Y EXPLOTACIÓN MERCANTIL, EN CUALQUIER FORMA LÍCITA EN DERECHO, ASÍ COMO EL MANTENIMIENTO, SOPORTE Y/O ACTUALIZACIÓN, DE SISTEMAS DE AUTOMATIZACIÓN PARA EL ALMACENAMIENTO, GESTIÓN Y DISTRIBUCIÓN DE MEDICAMENTOS, ASÍ COMO DE SISTEMAS DE TELEMEDICINA. LA PRESTACIÓN DE SERVICIOS A TERCEROS DE ORGANIZACIÓN, PLANIFICACIÓN, CONTROL, ADMINISTRACIÓN, GESTIÓN Y DIRECCIÓN DE EMPRESAS, CUALQUIERA QUE SEA SU FORMA SOCIAL Y EL ÁMBITO EN EL QUE ACTÚEN. 2. LA DIRECCIÓN Y GESTIÓN DE VALORES REPRESENTATIVOS DE FONDOS PROPIOS DE ENTIDADES NO RESIDENTES EN TERRITORIO ESPAÑOL. 3.\tLA CONSTRUCCIÓN, REHABILITACIÓN Y EJECUCIÓN DE OBRAS POR CUENTA PROPIA O A TRAVÉS DE TERCEROS DE TODA CLASE DE EDIFICIOS E INMUEBLES EN GENERAL, ASÍ COMO, REFORMAS, ADAPTACIONES, DECORACIÓN Y DISEÑO DE INTERIORES. LA SOCIEDAD PARA DESARROLLAR SU OBJETO SOCIAL PODRÁ PARTICIPAR EN EL CAPITAL SOCIAL DE ENTIDADES MERCANTILES O CIVILES DE IDÉNTICO O ANÁLOGO OBJETO SOCIAL, EJERCIENDO EN ELLAS CARGOS DE ADMINISTRACIÓN Y REPRESENTACIÓN.",
      "mainEntityOfPage": "https://www.contratacion.euskadi.eus/webkpe00-kperoc/es/ac71aBusquedaRegistrosWar/empresa/06579",
      "_links": {
        "self": {
          "name": "GPI IBERIA HEALTH SOLUTIONS, S.L.",
          "href": "https://api.euskadi.eus/procurements/companies/06579"
        }
      }
    },
    {
      "name": "GALEA ELECTRIC, S.L.",
      "registrationNumber": "08699",
      "identificationNumber": "B95160263",
      "address": "C/Bidebarri nº11 bajo (patio)",
      "location": {
        "postalCode": "48991",
        "municipality": "Getxo",
        "county": "Bizkaia",
        "municipalityId": "044",
        "countyId": "48"
      },
      "economicActivities": [
        {
          "id": "1.504.11",
          "name": "Instalaciones eléctricas en general, redes telegráficas, telefonía, tv, etc",
          "_links": {
            "self": {
              "name": "Instalaciones eléctricas en general, redes telegráficas, telefonía, tv, etc",
              "href": "https://api.euskadi.eus/procurements/companies/economic-activities/1.504.11"
            }
          }
        },
        {
          "id": "1.615.4",
          "name": "Venta al por mayor de aparatos y material radioeléctrico y electrónico",
          "_links": {
            "self": {
              "name": "Venta al por mayor de aparatos y material radioeléctrico y electrónico",
              "href": "https://api.euskadi.eus/procurements/companies/economic-activities/1.615.4"
            }
          }
        },
        {
          "id": "1.843.9",
          "name": "Otros servicios técnicos n.c.o.p",
          "_links": {
            "self": {
              "name": "Otros servicios técnicos n.c.o.p",
              "href": "https://api.euskadi.eus/procurements/companies/economic-activities/1.843.9"
            }
          }
        }
      ],
      "certificateStartDate": "2025-09-02",
      "certificateEndDate": "2026-03-02",
      "object": "A) LA CONSTRUCCIÓN COMPLETA, REHABILITACIÓN, REPARACIÓN Y CONSERVACIÓN DE EDIFICACIONES Y OBRAS CIVILES, VIALES, CALLES, JARDINES, AUTOPISTAS, INCLUSO LIMPIEZA Y BARRIDO DE LOS MISMOS UTILIZANDO PARA ELLO BIEN MAQUINARIA PROPIA O AJENA. B) EJECUCIÓN Y MANTENIMIENTO DE INSTALACIONES ELÉCTRICAS, EN ALTA, BAJA Y MEDIA TENSIÓN, INSTALACIONES DE TELECOMUNICACIÓN, INSTALACIONES ELECTRÓNICAS E INSTALACIONES DE SISTEMAS DE SEÑALIZACIÓN Y BALIZAMIENTO DE PUERTOS, AEROPUERTOS Y CARRETERA, INSTALACIONES DE SEGURIDAD Y CONTRA INCENDIOS. C) EJECUCIÓN Y MANTENIMIENTO DE INSTALACIONES MECÁNICAS, INSTALACIÓN DE FONTANERÍA, INSTALACIONES FRIGORÍFICAS, INSTALACIONES DE CALEFACCIÓN, VENTILACIÓN Y CLIMATIZACIÓN, INSTALACIONES ELEVADORAS Y TRANSPORTADORAS, E INSTALACIONES DE TRATAMIENTO DE AGUAS DE TODO TIPO. D) PLANTACIÓN Y MANTENIMIENTO DE PARQUES Y JARDINES. PLANTACIÓN Y MANTENIMIENTO FORESTALES, REPOBLACIÓN FORESTAL, LUCHA CONTRA PLAGAS Y LUCHA, DEFENSA Y PREVENCIÓN CONTRA INCENDIOS FORESTALES. E) CONTRATAR OBRAS Y SERVICIOS CON CUALQUIER ORGANISMO DE LAS ADMINISTRACIONES PÚBLICAS Y CON TODA CLASE DE ENTIDADES Y PARTICULARES. F) REDACCIÓN Y CONFECCIÓN DE PROYECTOS TÉCNICOS, DIRECCIÓN DE OBRA Y CONTROL DE CALIDAD, REALIZACIÓN DE ESTUDIOS E INFORMES Y ASESORAMIENTO TÉCNICO. G) LA ADQUISICIÓN POR CUALQUIER TÍTULO DE TERRENOS, FINCAS RÚSTICAS Y URBANAS, LA CONSTRUCCIÓN Y PROMOCIÓN INMOBILIARIA, ASÍ COMO LA ADMINISTRACIÓN, TENENCIA, EXPLOTACIÓN Y ARRENDAMIENTO DE TALES BIENES Y SU VENTA TOTAL O PARCIAL, SEGÚN CONVENGA, PARA SU APROVECHAMIENTO AGRÍCOLA, FORESTAL, URBANO, INDUSTRIAL O CUALQUIER OTRO. H) LA ADQUISICIÓN, CESIÓN, INVERSIÓN, TENENCIA, DISFRUTE, ADMINISTRACIÓN, GESTIÓN Y NEGOCIACIÓN EN GENERAL DE TODA CLASE DE TÍTULOS Y VALORES MOBILIARIOS, COTIZADOS EN BOLSA O NO.",
      "mainEntityOfPage": "https://www.contratacion.euskadi.eus/webkpe00-kperoc/es/ac71aBusquedaRegistrosWar/empresa/08699",
      "_links": {
        "self": {
          "name": "GALEA ELECTRIC, S.L.",
          "href": "https://api.euskadi.eus/procurements/companies/08699"
        }
      }
    }
  ]
}