{
  "totalItems": 9042,
  "totalPages": 905,
  "currentPage": 48,
  "itemsOfPage": 10,
  "items": [
    {
      "name": "MERZ THERAPEUTICS IBERIA SL",
      "registrationNumber": "09547",
      "identificationNumber": "B72465743",
      "address": "Avda. de Bruselas, 6 (1º A)",
      "location": {
        "postalCode": "28108",
        "municipality": "Alcobendas",
        "county": "Madrid",
        "municipalityId": "006",
        "countyId": "28"
      },
      "economicActivities": [
        {
          "id": "1.614.1",
          "name": "Venta al por mayor de productos farmacéuticos y medicamentos",
          "_links": {
            "self": {
              "name": "Venta al por mayor de productos farmacéuticos y medicamentos",
              "href": "https://api.euskadi.eus/procurements/companies/economic-activities/1.614.1"
            }
          }
        }
      ],
      "certificateStartDate": "2026-01-27",
      "certificateEndDate": "2026-07-17",
      "object": "COMERCIO, MARKETING Y DISTRIBUCIÓN RELACIONADOS CON PRODUCTOS MEDICINALES, DISPOSITIVOS MÉDICOS, SUPLEMENTOS ALIMENTICIOS Y PRODUCTOS COSMÉTICOS, LA PRESTACIÓN DE SERVICIOS A PROVEEDORES DE ASISTENCIA SANITARIA, CONSUMIDORES U OTRAS SOCIEDADES, ASÍ COMO LA GESTIÓN DE ACTIVOS PROPIOS, Y LA REALIZACIÓN DE OPERACIONES COMPATIBLES CON ELLO.",
      "mainEntityOfPage": "https://www.contratacion.euskadi.eus/webkpe00-kperoc/es/ac71aBusquedaRegistrosWar/empresa/09547",
      "_links": {
        "self": {
          "name": "MERZ THERAPEUTICS IBERIA SL",
          "href": "https://api.euskadi.eus/procurements/companies/09547"
        }
      }
    },
    {
      "name": "ASOCIACIÓN SOCIO-EDUCATIVA GUGAZ AURRERA GIZARTE ETA HEZKUNTZA ELKARTEA",
      "registrationNumber": "06835",
      "identificationNumber": "G95029799",
      "address": "C/ Mª Diaz de Haro 20, ppal izda",
      "location": {
        "postalCode": "48013",
        "municipality": "Bilbao",
        "county": "Bizkaia",
        "municipalityId": "020",
        "countyId": "48"
      },
      "economicActivities": [
        {
          "id": "1.934",
          "name": "Enseñanza fuera de establecimiento permanente",
          "_links": {
            "self": {
              "name": "Enseñanza fuera de establecimiento permanente",
              "href": "https://api.euskadi.eus/procurements/companies/economic-activities/1.934"
            }
          }
        }
      ],
      "certificateStartDate": "2026-01-27",
      "certificateEndDate": "2026-07-17",
      "object": "LOS FINES DE ESTA ASOCIACIÓN SON: - PROMOVER UNA EDUCACIÓN INTEGRAL QUE DOTE A LAS PERSONAS Y COLECTIVOS EN SITUACIONES DE RIESGO Y/O CARENCIALES DE HERRAMIENTAS QUE LES PERMITAN REMONTAR SUS DIFICULTADES, SUPERAR SU SITUACIÓN CARENCIAL O INTEGRARSE SOCIALMENTE EN CONDICIONES DE IGUALDAD. -IMPULSAR LA MEJORA SOCIAL, EDUCATIVA Y CULTURAL DE COLECTIVOS QUE POR SUS PECULIARIDADES NO PUEDEN ACCEDER A DICHA FORMACIÓN EN OTROS CENTROS PÚBLICOS O PRIVADOS. -PROMOVER UN TIPO DE OCIO QUE CONTRIBUYA AL DESARROLLO ÍNTEGRO DE LA PERSONA Y LE PERMITA INTEGRARSE EN LA SOCIEDAD. PARA EL CUMPLIMIENTO DE SU FIN SOCIAL PROMOVERÁ: -AYUDA PEDAGÓGICA A COLECTIVOS CON CARENCIAS SOCIOEDUCATIVAS: EN INFANCIA, JUVENTUD, ADULTOS Y TERCERA EDAD. -APOYO SOCIAL EN EL DESARROLLO DE HABILIDADES SOCIALES PARA AFRONTAR LAS DIVERSAS PROBLEMÁTICAS PERSONALES Y SOCIALES. -APOYO EN EL CAMPO CULTURAL Y DE OCIO Y TIEMPO LIBRE EN ARAS A FOMENTAR UN DESARROLLO INTEGRAL DE LA PERSONA, COMO INDIVIDUO Y COMO SER SOCIAL. PARA LA CONSECUCIÓN DE DICHOS FINES SE LLEVARÁN A CABO, PREVIO EL CUMPLIMIENTO DE LOS REQUISITOS LEGALES ESTABLECIDOS, LAS SIGUIENTES ACTIVIDADES: -PROYECTOS Y ACTIVIDADES SOCIALES, EDUCATIVAS, CULTURALES Y DE OCIO Y TIEMPO LIBRE; ORIENTADAS A COLECTIVOS CON CARENCIAS SOCIO-EDUCATIVAS TANTO EN INFANCIA, JUVENTUD, ADULTOS Y TERCERA EDAD. -PROYECTOS DE INVESTIGACIÓN SOBRE LAS NECESIDADES, CAUSAS-CONSECUENCIAS, VÍAS DE SOLUCIÓN,DE PERSONAS Y COLECTIVOS CON CARENCIAS SOCIOEDUCATIVAS; INFANCIA, JUVENTUD, ADULTOS Y TERCERA EDAD. SIN PERJUICIO DE LAS ACTIVIDADES DESCRITAS EN EL APARTADO ANTERIOR, LA ASOCIACIÓN, PARA EL CUMPLIMIENTO DE SUS FINES PODRÁ: -DESARROLLAR ACTIVIDADES ECONÓMICAS DE TODO TIPO, ENCAMINADAS A LA REALIZACIÓN DE SUS FINES O A ALLEGAR RECURSOS CON ESE OBJETIVO. -ADQUIRIR Y POSEER BIENES DE TODAS CLASES Y POR CUALQUIER TÍTULO, ASÍ COMO CELEBRAR ACTOS Y CONTRATOS DE TODO GÉNERO. -EJERCITAR TODA CLASE DE ACCIONES CONFORME A LAS LEYES O A SUS ESTATUTOS",
      "mainEntityOfPage": "https://www.contratacion.euskadi.eus/webkpe00-kperoc/es/ac71aBusquedaRegistrosWar/empresa/06835",
      "_links": {
        "self": {
          "name": "ASOCIACIÓN SOCIO-EDUCATIVA GUGAZ AURRERA GIZARTE ETA HEZKUNTZA ELKARTEA",
          "href": "https://api.euskadi.eus/procurements/companies/06835"
        }
      }
    },
    {
      "name": "ADVANCED PROGRAMMING SOLUTIONS, S.L.",
      "registrationNumber": "09765",
      "identificationNumber": "B57608960",
      "address": "Calle Isaac Newton Edificio Naorte, local 10 b, Parc Bit, Edificio NAorte",
      "location": {
        "postalCode": "07121",
        "municipality": "Palma",
        "county": "Balears, Illes",
        "municipalityId": "040",
        "countyId": "07"
      },
      "economicActivities": [
        {
          "id": "1.845",
          "name": "Explotación electrónica por cuenta de terceros",
          "_links": {
            "self": {
              "name": "Explotación electrónica por cuenta de terceros",
              "href": "https://api.euskadi.eus/procurements/companies/economic-activities/1.845"
            }
          }
        }
      ],
      "certificateStartDate": "2026-01-27",
      "certificateEndDate": "2026-07-14",
      "object": "LA CONSULTARÍA, PROGRAMACIÓN, FORMACIÓN, INSTALACIÓN Y GESTIÓN DE SERVICIOS DE TECNOLOGÍAS DE LA INFORMACIÓN, LA CREACIÓN DE APLICACIONES WEB, EL DISEÑO Y MANTENIMIENTO DE PÁGINAS WEB, ASÍ COMO EL DISEÑO GRÁFICO, LA ADMINISTRACIÓN DE SERVIDORES Y CREACIÓN DE ENTORNOS DE ALTA DISPONIBILIDAD Y, EN GENERAL, TODO TIPO DE SERVICIOS RELACIONADOS CON TECNOLOGÍA DE LA INFORMACIÓN.",
      "mainEntityOfPage": "https://www.contratacion.euskadi.eus/webkpe00-kperoc/es/ac71aBusquedaRegistrosWar/empresa/09765",
      "_links": {
        "self": {
          "name": "ADVANCED PROGRAMMING SOLUTIONS, S.L.",
          "href": "https://api.euskadi.eus/procurements/companies/09765"
        }
      }
    },
    {
      "name": "IMPERMEABILIZACIONES Y AISLAMIENTOS TERMICOS DEL NORTE, S.L.",
      "registrationNumber": "07383",
      "identificationNumber": "B48795066",
      "address": "POL. IND. TORRELARRAGOITI, S/N",
      "location": {
        "postalCode": "48170",
        "municipality": "Zamudio",
        "county": "Bizkaia",
        "municipalityId": "905",
        "countyId": "48"
      },
      "economicActivities": [
        {
          "id": "1.505.4",
          "name": "Colocación y aislamiento fónicos, térmicos y acústicos",
          "_links": {
            "self": {
              "name": "Colocación y aislamiento fónicos, térmicos y acústicos",
              "href": "https://api.euskadi.eus/procurements/companies/economic-activities/1.505.4"
            }
          }
        }
      ],
      "certificateStartDate": "2026-01-27",
      "certificateEndDate": "2026-07-17",
      "classification": [
        {
          "id": "O",
          "name": "Obras",
          "groups": [
            {
              "id": "C",
              "name": "EDIFICACIONES",
              "subgroups": [
                {
                  "id": "01",
                  "name": "DEMOLICIONES",
                  "categories": [
                    {
                      "id": "1",
                      "name": "Desde 0 Hasta 150.000",
                      "_links": {
                        "self": {
                          "name": "Desde 0 Hasta 150.000",
                          "href": "https://api.euskadi.eus/procurements/companies/types/O/categories/1"
                        }
                      }
                    }
                  ],
                  "_links": {
                    "self": {
                      "name": "DEMOLICIONES",
                      "href": "https://api.euskadi.eus/procurements/companies/types/O/groups/C/subgroups/01"
                    }
                  }
                },
                {
                  "id": "04",
                  "name": "ALBAÑILERIA, REVOCOS Y REVESTIDOS",
                  "categories": [
                    {
                      "id": "1",
                      "name": "Desde 0 Hasta 150.000",
                      "_links": {
                        "self": {
                          "name": "Desde 0 Hasta 150.000",
                          "href": "https://api.euskadi.eus/procurements/companies/types/O/categories/1"
                        }
                      }
                    }
                  ],
                  "_links": {
                    "self": {
                      "name": "ALBAÑILERIA, REVOCOS Y REVESTIDOS",
                      "href": "https://api.euskadi.eus/procurements/companies/types/O/groups/C/subgroups/04"
                    }
                  }
                },
                {
                  "id": "07",
                  "name": "AISLAMIENTOS E IMPERMEABILIZACIONES",
                  "categories": [
                    {
                      "id": "4",
                      "name": "Desde 840.001 Hasta 2.400.000",
                      "_links": {
                        "self": {
                          "name": "Desde 840.001 Hasta 2.400.000",
                          "href": "https://api.euskadi.eus/procurements/companies/types/O/categories/4"
                        }
                      }
                    }
                  ],
                  "_links": {
                    "self": {
                      "name": "AISLAMIENTOS E IMPERMEABILIZACIONES",
                      "href": "https://api.euskadi.eus/procurements/companies/types/O/groups/C/subgroups/07"
                    }
                  }
                }
              ],
              "_links": {
                "self": {
                  "name": "EDIFICACIONES",
                  "href": "https://api.euskadi.eus/procurements/companies/types/O/groups/C"
                }
              }
            }
          ],
          "_links": {
            "self": {
              "name": "Obras",
              "href": "https://api.euskadi.eus/procurements/companies/types/O"
            }
          }
        }
      ],
      "object": "LA COMPRA, VENTA, IMPORTACIÓN, EXPORTACIÓN, ALMACENAMIENTO, DISTRIBUCIÓN, COLOCACIÓN Y OBRA DE TODO TIPO DE MAQUINARIA Y MATERIALES RELACIONADOS CON EL RAMO DE LA CONSTRUCCIÓN, ASÍ COMO SU REPARACIÓN.",
      "mainEntityOfPage": "https://www.contratacion.euskadi.eus/webkpe00-kperoc/es/ac71aBusquedaRegistrosWar/empresa/07383",
      "_links": {
        "self": {
          "name": "IMPERMEABILIZACIONES Y AISLAMIENTOS TERMICOS DEL NORTE, S.L.",
          "href": "https://api.euskadi.eus/procurements/companies/07383"
        }
      }
    },
    {
      "name": "SANCHEZ-BUENO ARQUITECTURA S. COOP. PEQUEÑA-P",
      "registrationNumber": "09193",
      "identificationNumber": "F72951676",
      "address": "Avenida de Madrid nº15 9ºB",
      "location": {
        "postalCode": "20011",
        "municipality": "Donostia / San Sebastián",
        "county": "Gipuzkoa",
        "municipalityId": "069",
        "countyId": "20"
      },
      "economicActivities": [
        {
          "id": "1.843.2",
          "name": "Servicios técnicos de arquitectura y urbanismo",
          "_links": {
            "self": {
              "name": "Servicios técnicos de arquitectura y urbanismo",
              "href": "https://api.euskadi.eus/procurements/companies/economic-activities/1.843.2"
            }
          }
        }
      ],
      "certificateStartDate": "2026-01-27",
      "certificateEndDate": "2026-06-14",
      "object": "LA PRESTACIÓN DE SERVICIOS PROFESIONALES EN LOS CAMPOS DE LA ARQUITECTURA Y EL URBANISMO A CARGO DE LOS ARQUITECTOS SOCIOS, CON LA COLABORACIÓN, EN SU CASO, DE OTROS PROFESIONALES LEGALMENTE COMPETENTES; ASÍ COMO LA ASUNCIÓN POR LA ENTIDAD, EN REPRESENTACIÓN POR LOS CLIENTES Y POR CUENTA EXCLUSIVA DE LOS MISMOS, DE LAS ACTIVIDADES DE GESTIÓN, ASESORAMIENTO, COORDINACIÓN Y ADMINISTRACIÓN, QUE GUARDEN RELACIÓN Y SEAN COMPATIBLES CON LA REALIZACIÓN DE LAS MISIONES PROFESIONALES ENCARGADAS, Y LA EXPLOTACIÓN DE DERECHOS DE PROPIEDAD INTELECTUAL O INDUSTRIAL DERIVADOS DE LA ACTIVIDAD PROFESIONAL DE LOS MIEMBROS DE LA ACTIVIDAD.",
      "mainEntityOfPage": "https://www.contratacion.euskadi.eus/webkpe00-kperoc/es/ac71aBusquedaRegistrosWar/empresa/09193",
      "_links": {
        "self": {
          "name": "SANCHEZ-BUENO ARQUITECTURA S. COOP. PEQUEÑA-P",
          "href": "https://api.euskadi.eus/procurements/companies/09193"
        }
      }
    },
    {
      "name": "AUGUR NATURE, S.L.",
      "registrationNumber": "09968",
      "identificationNumber": "B01543206",
      "address": "Herminio Madinabeitia nº 14, 5º Izqu",
      "location": {
        "postalCode": "01006",
        "municipality": "Vitoria-Gasteiz",
        "county": "Araba/Álava",
        "municipalityId": "059",
        "countyId": "01"
      },
      "economicActivities": [
        {
          "id": "1.973.1",
          "name": "Servicios fotográficos",
          "_links": {
            "self": {
              "name": "Servicios fotográficos",
              "href": "https://api.euskadi.eus/procurements/companies/economic-activities/1.973.1"
            }
          }
        }
      ],
      "certificateStartDate": "2026-01-27",
      "certificateEndDate": "2026-07-27",
      "object": "LA ACTIVIDAD RELATIVA A LA FOTOGRAFÍA Y PRODUCCIÓN AUDIOVISUAL EN TODAS SUS FACETAS Y EN ESPECIAL EN TODO AQUELLO RELACIONADO CON LA NATURALEZA Y EL MEDIO AMBIENTE. LA REALIZACIÓN DE TODA CLASE DE ACTIVIDADES EN EL ÁMBITO DE LA EDUCACIÓN MEDIOAMBIENTAL. ORGANIZACIÓN DE TALLERES, SEMINARIOS, CURSOS Y MATERIAL DIDÁCTICO QUE GIREN EN TORNO AL MEDIO NATURAL Y SU RELACIÓN CON LA PRÁCTICA DE LA FOTOGRAFÍA Y LA PRODUCCIÓN AUDIOVISUAL. LA PRESTACIÓN DE TODA CLASE DE SERVICIO RELACIONADOS CON LA NATURALEZA, EL MEDIO AMBIENTE, EL PATRIMONIO CULTURAL Y LA FOTOGRAFÍA; EN ESPECIAL LA ORGANIZACIÓN Y DESARROLLO INTEGRAL DE RECORRIDOS Y VISITAS GUIADAS EN LOS QUE SE COMBINEN EL ESTUDIO DE LA NATURALEZA Y EL EJERCICIO TEÓRICO Y PRÁCTICO DEL ARTE FOTOGRÁFICO Y AUDIOVISUAL.",
      "mainEntityOfPage": "https://www.contratacion.euskadi.eus/webkpe00-kperoc/es/ac71aBusquedaRegistrosWar/empresa/09968",
      "_links": {
        "self": {
          "name": "AUGUR NATURE, S.L.",
          "href": "https://api.euskadi.eus/procurements/companies/09968"
        }
      }
    },
    {
      "name": "ALAÑA ARAMBURU ARQUITECTOS, S.L.",
      "registrationNumber": "09395",
      "identificationNumber": "B01329481",
      "address": "C/ JOSE ERBINA Nº 11 LOCAL 06",
      "location": {
        "postalCode": "01005",
        "municipality": "Vitoria-Gasteiz",
        "county": "Araba/Álava",
        "municipalityId": "059",
        "countyId": "01"
      },
      "economicActivities": [
        {
          "id": "1.843.2",
          "name": "Servicios técnicos de arquitectura y urbanismo",
          "_links": {
            "self": {
              "name": "Servicios técnicos de arquitectura y urbanismo",
              "href": "https://api.euskadi.eus/procurements/companies/economic-activities/1.843.2"
            }
          }
        }
      ],
      "certificateStartDate": "2026-01-27",
      "certificateEndDate": "2026-07-16",
      "object": "LA PRESTACIÓN DE SERVICIOS, ESTUDIOS, ASESORAMIENTO, PROYECTOS Y DIRECCIÓN DE OBRA, A TRAVÉS DE LOS COLEGIADOS PERTINENTES EN LOS CAMPOS DE ARQUITECTURA, URBANISMO Y DECORACIÓN, ASÍ COMO LA GESTIÓN Y ADMINISTRACIÓN DE LOS ASUNTOS RELACIONADOS CON DICHOS TEMAS.",
      "mainEntityOfPage": "https://www.contratacion.euskadi.eus/webkpe00-kperoc/es/ac71aBusquedaRegistrosWar/empresa/09395",
      "_links": {
        "self": {
          "name": "ALAÑA ARAMBURU ARQUITECTOS, S.L.",
          "href": "https://api.euskadi.eus/procurements/companies/09395"
        }
      }
    },
    {
      "name": "A.A.C. - CENTRO DE ACÚSTICA APLICADA, S.L.",
      "registrationNumber": "01585",
      "identificationNumber": "B01137041",
      "address": "C/ LEONARDO DA VINCI  14-7B. PARQUE TECNOLÓGICO DE ALAVA",
      "location": {
        "postalCode": "01510",
        "municipality": "Vitoria-Gasteiz",
        "county": "Araba/Álava",
        "municipalityId": "059",
        "countyId": "01"
      },
      "economicActivities": [
        {
          "id": "1.843.9",
          "name": "Otros servicios técnicos n.c.o.p",
          "_links": {
            "self": {
              "name": "Otros servicios técnicos n.c.o.p",
              "href": "https://api.euskadi.eus/procurements/companies/economic-activities/1.843.9"
            }
          }
        }
      ],
      "certificateStartDate": "2026-01-27",
      "certificateEndDate": "2026-07-27",
      "object": "LA REDACCIÓN Y EJECUCIÓN DE PROYECTOS Y ESTUDIOS; DEL ASESORAMIENTO, EVALUACIÓN, CERTIFICACIONES DE PRODUCTOS, DESARROLLO DE NUEVOS DISEÑOS, ENSAYOS DE MATERIALES, CONTROL ACÚSTICO, VIBRACIONES Y DE OTROS CONTROLES AMBIENTALES. LA FABRICACIÓN, IMPORTACIÓN, EXPORTACIÓN, COMPRA, VENTA Y ARRIENDO DE MATERIALES Y DE EQUIPOS ELECTRÓNICOS, PARA LA MEDIDA, ANÁLISIS Y REGISTROS ACÚSTICOS, VIBRATORIOS Y DE CUALESQUIERA OTRAS SEÑALES ESTÁTICAS O DINÁMICAS; LA CONTRATACIÓN DE ESTUDIOS, TRABAJOS, PROYECTOS DE INGENIERÍA, ENSEÑANZA, ENTRENAMIENTO Y CONSULTING RELACIONADOS CON LOS ANTERIORES",
      "mainEntityOfPage": "https://www.contratacion.euskadi.eus/webkpe00-kperoc/es/ac71aBusquedaRegistrosWar/empresa/01585",
      "_links": {
        "self": {
          "name": "A.A.C. - CENTRO DE ACÚSTICA APLICADA, S.L.",
          "href": "https://api.euskadi.eus/procurements/companies/01585"
        }
      }
    },
    {
      "name": "MIAB, S.A.",
      "registrationNumber": "02444",
      "identificationNumber": "A48072367",
      "address": "AVDA. IPARRAGUIRRE, 100",
      "location": {
        "postalCode": "48940",
        "municipality": "Leioa",
        "county": "Bizkaia",
        "municipalityId": "054",
        "countyId": "48"
      },
      "economicActivities": [
        {
          "id": "1.463",
          "name": "Fabricación en serie de piezas de carpintería y parquet",
          "_links": {
            "self": {
              "name": "Fabricación en serie de piezas de carpintería y parquet",
              "href": "https://api.euskadi.eus/procurements/companies/economic-activities/1.463"
            }
          }
        }
      ],
      "certificateStartDate": "2026-01-27",
      "certificateEndDate": "2026-07-17",
      "object": "LA FABRICACIÓN DE MOBILIARIO DE COCINA Y TRABAJOS DE CARPINTERÍA DIVERSOS. LA COMERCIALIZACIÓN AL POR MAYOR Y AL POR MENOR DE MAMPARAS, TECHOS , CARPINTERÍA, SUELOS ASÍ COMO SU DISTRIBUCIÓN E INSTALACIÓN. LA COMERCIALIZACIÓN AL POR MAYOR Y AL POR MENOR DE TODO TIPO DE MUEBLES YA SEA PARA EL HOGAR, OFICINAS, INDUSTRIA Y DEMÁS ÁMBITOS, ASÍ COMO SU DISTRIBUCIÓN E INSTALACIÓN",
      "mainEntityOfPage": "https://www.contratacion.euskadi.eus/webkpe00-kperoc/es/ac71aBusquedaRegistrosWar/empresa/02444",
      "_links": {
        "self": {
          "name": "MIAB, S.A.",
          "href": "https://api.euskadi.eus/procurements/companies/02444"
        }
      }
    },
    {
      "name": "FUNGI-MED, S.L.",
      "registrationNumber": "00727",
      "identificationNumber": "B48267470",
      "address": "C/ AVENIDA CERVANTES, S/N. POLÍGONO AZBARREN.",
      "location": {
        "postalCode": "48970",
        "municipality": "Basauri",
        "county": "Bizkaia",
        "municipalityId": "015",
        "countyId": "48"
      },
      "economicActivities": [
        {
          "id": "1.619.2",
          "name": "Venta al por mayor de aparatos e instrumentos médicos, ortopédicos, ópticos",
          "_links": {
            "self": {
              "name": "Venta al por mayor de aparatos e instrumentos médicos, ortopédicos, ópticos",
              "href": "https://api.euskadi.eus/procurements/companies/economic-activities/1.619.2"
            }
          }
        }
      ],
      "certificateStartDate": "2026-01-27",
      "certificateEndDate": "2026-07-17",
      "object": "LA COMPRA Y VENTA DE MOBILIARIO, ÚTILES, MATERIAL DIVERSO Y TODA CLASE DE ACCESORIOS MÉDICOS QUIRÚRGICOS; LA TRANSFORMACIÓN, MODIFICACIÓN, REPARACIÓN Y MONTAJE RELACIONADOS CON LOS ARTÍCULOS QUE COMERCIALIZA; ASIMISMO PODRÁ DEDICARSE A LA IMPORTACIÓN Y EXPORTACIÓN DE TODOS LOS ARTÍCULOS PROPIOS DE LA ACTIVIDAD A LA QUE SE DEDIQUE",
      "mainEntityOfPage": "https://www.contratacion.euskadi.eus/webkpe00-kperoc/es/ac71aBusquedaRegistrosWar/empresa/00727",
      "_links": {
        "self": {
          "name": "FUNGI-MED, S.L.",
          "href": "https://api.euskadi.eus/procurements/companies/00727"
        }
      }
    }
  ]
}