{
  "totalItems": 9042,
  "totalPages": 905,
  "currentPage": 782,
  "itemsOfPage": 10,
  "items": [
    {
      "name": "COMPOSAN CONSTRUCCION, S.A.",
      "registrationNumber": "02821",
      "identificationNumber": "A81055295",
      "address": "AVDA. DE LOS PIRINEOS, Nº 7-2º PL.",
      "location": {
        "postalCode": "28700",
        "municipality": "San Sebastián de los Reyes",
        "county": "Madrid",
        "municipalityId": "134",
        "countyId": "28"
      },
      "economicActivities": [
        {
          "id": "1.507",
          "name": "Construcción, reparación y conservación de toda clase obras",
          "_links": {
            "self": {
              "name": "Construcción, reparación y conservación de toda clase obras",
              "href": "https://api.euskadi.eus/procurements/companies/economic-activities/1.507"
            }
          }
        }
      ],
      "certificateStartDate": "2006-01-20",
      "certificateEndDate": "2006-06-01",
      "object": "A) LA CONSTRUCCIÓN, REPARACIÓN Y MODIFICACIÓN DE CARRETERAS, PAVIMENTOS Y OBRAS PÚBLICAS DE TODAS CLASES, MEDIANTE CONTRATACIÓN PÚBLICA O PRIVADA DE CUALQUIER CLASE Y CON CUALESQUIERA PERSONAS NATURALES O JURÍDICAS.\r\n\r\nB) LA FABRICACIÓN, VENTA, COMPRA Y ARRENDAMIENTO DE TODA CLASE DE BETUNES, ALQUITRANES, MATERIALES, INSTRUMENTOS O MÁQUINAS QUE SIRVAN PARA LOS FINES QUE SE  EXPRESAN EN EL APARTADO ANTERIOR.\r\n\r\nC) LA PROMOCIÓN, COMPRAVENTA, ARRENDAMIENTO, CONSTRUCCIÓN Y REHABILITACIÓN DE INMUEBLES. LA FABRICACIÓN DE PRODUCTOS PARA LA EDIFICACIÓN.\r\n\r\nD) LA  ADQUISICIÓN, REPRESENTACIÓN, EXPLOTACIÓN, APORTACIÓN O CESIÓN DE TODA CLASE DE PATENTES, LICENCIAS, PROCEDIMIENTOS Y MARCAS DE FÁBRICA.\r\n\r\nE) LOS TRABAJOS DE INVESTIGACIÓN Y DE LABORATORIO DE NUEVOS PROCEDIMIENTOS INDUSTRIALES QUE SIRVEN A LOS FINES QUE SE EXPRESAN EN LOS APARTADOS ANTERIORES.\r\n\r\nF) LA COMERCIALIZACIÓN DE ACEITES, LUBRICANTES Y PRODUCTOS DERIVADOS DEL PETRÓLEO.\r\n\r\nG) LA SUSCRIPCIÓN Y ADQUISICIÓN DE ACCIONES O PARTICIPACIONES DE SOCIEDADES DE TODA CLASE, YA SEAN CIVILES O MERCANTILES, Y TODO ELLO POR CUENTA PROPIA Y CON EXCLUSIÓN DE LAS ACTIVIDADES REGULADAS POR LA LEY DE INSTITUCIONES  DE INVERSIÓN COLECTIVA Y MERCADO DE VALORES.     ",
      "mainEntityOfPage": "https://www.contratacion.euskadi.eus/webkpe00-kperoc/es/ac71aBusquedaRegistrosWar/empresa/02821",
      "_links": {
        "self": {
          "name": "COMPOSAN CONSTRUCCION, S.A.",
          "href": "https://api.euskadi.eus/procurements/companies/02821"
        }
      }
    },
    {
      "name": "PAKEA MUTUA ACCIDENTES DE TRABAJO Y ENFERMEDAD.PROF. DE LA S.S. Nº 48",
      "registrationNumber": "02578",
      "identificationNumber": "G20027868",
      "address": "CALLE DR. CAMINO, Nº 1 -1º",
      "location": {
        "postalCode": "20004",
        "municipality": "Donostia / San Sebastián",
        "county": "Gipuzkoa",
        "municipalityId": "069",
        "countyId": "20"
      },
      "certificateStartDate": "2006-01-19",
      "certificateEndDate": "2006-07-03",
      "object": "LA COLABORACIÓN EN LA GESTIÓN DE LAS CONTINGENCIAS DE ACCIDENTES DE TRABAJO Y ENFERMEDADES PROFESIONALES, SIN ÁNIMO DE LUCRO, POR LO QUE SE REFIERE A LOS TRABAJSORES DE LAS EMPRESAS ASOCIADAS, LIMITANDO SUS OPERACIONES A LAS QUE TENGAN POR FIN DICHA COLABORAICÓN EN LA GESTIÓN DE LA SEGURIDAD SOCIAL, DE ACUERDO CON LO PREVISTO EN LAS DISPOSICIONES VIGENTES , Y REPARTIENDO LOS COSTES Y GASTOS ENTRE LOS EMPRSARIOS ASOCIADOS.\r\n\r\nEN PARTICULAR, TENIENDO MUY PRESENTE  LA ALTA FUNCIÓN ECONÓMICO-SOCIAL QUE EL ESTADO CONFIERE A LAS MUTUAS DE ACCIDENTES DE TRABAJO Y ENFERMEDADES PROFESIONALES DE LA SEGURIDAD SOCIAL, PAKEA DESARROLLARÁ UNA ACCIÓN INTENSA Y EFICAZ  DE PREVENCIÓN  DE ACCIDENTES, EN PRO DE LA REDUCCIÓN DE LOS RIESGOS QUE AMENAZAN A LOS TRABAJADORES, VERIFICANDO EL CUMPLIMIENTO POR  LAS EMPRESAS ASOCIADAS DE LO ESTABLECIDO EN EL ART. 196 DE LA LEY ENERAL DE LA SEGURIDAD SOCIAL, CONTRIBUYENDO A LA DEBIDA EDUCACIÓN E INSTRUCCIÓN DE EMPRESARIOS Y TRABAJADORES E INFLUYENDO RAZONADAMENTE  PARA LA IMPLANTACIÓN EN FÁBRICAS Y TALLERES DE ACERTADAS MEDIDAS DE SEGURIDAD E HIGIENE, LLEVANDO A CABO LAS FUNCIONES ESPECÍFICAS QUE EN ESTE ORDEN PUEDA LEGALEMENTE ASUMIR.\r\nASIMISMO Y POR  LOS PROPIOS IMPERATIVOS SOCIALES, PAKEA EXTENDERÁ SU PROTECCIÓN  A LOS TRABAJADORES VÍCTIMAS DE ACCIDENTE DE TRABAJO O ENFERMEDAD PROFESIONAL, AL ÁMBITO  DE LA REHABILITACIÓN, PROCURANDO SU RECUPERACIÓN MÁS COMPLETA PARA LA VIDA ACTIVA.\r\nESTA DOBLE ACCIÓN PREVENTIVA Y REHABILITACIÓN SE LLEVARÁ  A CABO A TRAVÉS DE LOS DEPARTAMENTOS ESPECIALIZADOS DE PREVENCIÓN Y REHABILITACIÓN CON QUE CUENTA PAKEA, SIN PERJUICIO DE SU POSIBLE  CONCIERTO Y COORDINACIÓN CON OTRAS ENTIDADES ",
      "mainEntityOfPage": "https://www.contratacion.euskadi.eus/webkpe00-kperoc/es/ac71aBusquedaRegistrosWar/empresa/02578",
      "_links": {
        "self": {
          "name": "PAKEA MUTUA ACCIDENTES DE TRABAJO Y ENFERMEDAD.PROF. DE LA S.S. Nº 48",
          "href": "https://api.euskadi.eus/procurements/companies/02578"
        }
      }
    },
    {
      "name": "SÁNCHEZ ROMÁN, S.A.",
      "registrationNumber": "00625",
      "identificationNumber": "A20031050",
      "address": "ASTIGARRAGAKO BIDEA, 2 EDIFICIO MAMUT 3 I OFICINA 3",
      "location": {
        "postalCode": "20180",
        "municipality": "Oiartzun",
        "county": "Gipuzkoa",
        "municipalityId": "063",
        "countyId": "20"
      },
      "economicActivities": [
        {
          "id": "1.474.1",
          "name": "Impresión de textos o imágenes por cualquier procedimiento",
          "_links": {
            "self": {
              "name": "Impresión de textos o imágenes por cualquier procedimiento",
              "href": "https://api.euskadi.eus/procurements/companies/economic-activities/1.474.1"
            }
          }
        }
      ],
      "certificateStartDate": "2006-01-11",
      "certificateEndDate": "2006-05-17",
      "object": "LOS TRABAJOS DE IMPRENTA Y EL COMERCIO DE ARTÍCULOS DE LIBRERÍA, PAPELERÍA Y ESCRITORIO",
      "mainEntityOfPage": "https://www.contratacion.euskadi.eus/webkpe00-kperoc/es/ac71aBusquedaRegistrosWar/empresa/00625",
      "_links": {
        "self": {
          "name": "SÁNCHEZ ROMÁN, S.A.",
          "href": "https://api.euskadi.eus/procurements/companies/00625"
        }
      }
    },
    {
      "name": "SOLUKETA, S.L.",
      "registrationNumber": "02965",
      "identificationNumber": "B95266128",
      "address": "LAUKARIZ BIDEA, 58",
      "location": {
        "postalCode": "48100",
        "municipality": "Mungia",
        "county": "Bizkaia",
        "municipalityId": "069",
        "countyId": "48"
      },
      "economicActivities": [
        {
          "id": "1.845",
          "name": "Explotación electrónica por cuenta de terceros",
          "_links": {
            "self": {
              "name": "Explotación electrónica por cuenta de terceros",
              "href": "https://api.euskadi.eus/procurements/companies/economic-activities/1.845"
            }
          }
        }
      ],
      "certificateStartDate": "2006-01-03",
      "certificateEndDate": "2006-06-29",
      "object": "LA PRESTACIÓN  DE SERVICIOS EN EL CAMPO SOCIAL DE LA INFORMACIÓN Y DEL CONOCIMIENTO, TALES COMO EL TRATAMIENTO DE BASES DE DATOS, SERVICIOS DE ACCESO A INTERNET, CORREO ELECTRÓNICO, CREACIÓN Y DISEÑO DE PÁGINAS WEB, PORTALES DE ENTRADA Y RESERVAS DE DOMIINIO EN INTERNET, ASÍ COMO CUALQUIER OTRO SERVICIO, QUE POR EL DESARROLLO DE NUEVAS TECNOLOGÍAS Y PROCESOS, PUEDA SER PRESTADO EN EL CAMPO DE LA SOCIEDAD DE LA INFORMACIÓN Y DEL CONOCIMIENTO.\r\n\r\nLA PRODUCCIÓN, DESARROLLO, INSTALACIÓN, MANTENIMIENTO, DISTRIBUCIÓN Y COMERCIALIZACIÓN, DE TODO TIPO DE APLICACIONES INFORMÁTICAS PARA USO PERSONAL O MEDIANTE REDES INFORMÁTICAS TALES COMO INTERNET, EXTRANET O INTRANET, GENÉRICAS O PERSONALIZADAS, EN DISTINTOS SOPORTES, UTILIZANDO TÉCNICAS DE MULTIMEDIA Y OTRAS TECNOLOGÍAS AVANZADAS, EN TODAS LAS ESFERAS PRODUCTIVAS Y DE SERVICIOS.\r\nLA COMPRA, VENTA, ALQUILER, IMPORTACIÓN, EXPORTACIÓN, DISTRIBUCIÓN, COMERCIALIZACIÓN, REPARACIÓN Y MANTENIMIENTO, DE EQUIPOS, REDES Y APLICACIONES INFORMÁTICAS, ASÍ COMO SUS COMPLEMENTOS, ACCESORIOS E INSTALACIONES NECESARIAS PARA SU USO.\r\n\r\nLA COMPRA, VENTA, ALQUILER, IMPORTACIÓN, EXPORTACIÓN, DISTRIBUCIÓN, COMERCIALIZACIÓN, REPARACIÓN Y MANTENIMIENTO, DE EQUIPOS DE TELEFONÍA, TANTO MÓVIL COMO FIJA, TALES COMO CENTRALITAS TELEFÓNICAS, TELÉFONOS FIJOS Y MÓVILES, ASÍ COMO SUS COMPLEMENTOS, ACCESORIOS E INSTALACIONES NECESARIAS  PARA SU USO.\r\n\r\nLA PRESTACIÓN DE SERVICIOS DE FORMACIÓN EN MATERIAS RELACIONADAS CON LA SOCIEDAD DE LA INFORMACIÓN Y DEL CONOCIMIENTO, TALES COMO EL TRATAMIENTO DE BASES DE DATOS, GESTIÓN DE REDES INFORMÁTICAS COMO INTERNET, EXTRANET, ASÍ COMO TAMBIÉN EN APLICACIONES, EQUIPOS Y SISTEMAS TANTO INFORMÁTICOS COMO TELEFÓNICOS ",
      "mainEntityOfPage": "https://www.contratacion.euskadi.eus/webkpe00-kperoc/es/ac71aBusquedaRegistrosWar/empresa/02965",
      "_links": {
        "self": {
          "name": "SOLUKETA, S.L.",
          "href": "https://api.euskadi.eus/procurements/companies/02965"
        }
      }
    },
    {
      "name": "MUTUA VIZCAYA INDUSTRIAL, MUTUA ACCIDENTES TRABAJO Y ENFERMEDADES",
      "registrationNumber": "02551",
      "identificationNumber": "G48071922",
      "address": "HENAO, 26",
      "location": {
        "postalCode": "48009",
        "municipality": "Bilbao",
        "county": "Bizkaia",
        "municipalityId": "020",
        "countyId": "48"
      },
      "certificateStartDate": "2005-12-28",
      "certificateEndDate": "2006-06-05",
      "object": "COLABORAR, BAJO LA DIRECCIÓN Y TUTELA DEL MINISTERIO DE TRABAJO Y ASUNTOS SOCIALES, EN LA GESTIÓN DE LAS CONTINGENCIAS DE ACCIDENTES DE TRABAJO Y ENFERMEDADES PROFESIONALES DEL PERSONAL AL SERVICIO DE LAS EMPRESAS ASOCIADAS, ASÍ COMO LA GESTIÓN Y ADMINISTRACIÓN DE SU PATRIMONIO HISTÓRICO, SIN ÁNIMO DE LUCRO, PUDIENDO ASIMISMO ASUMIR LA COBERTURA DE LA PRESTACIÓN ECONÓMICA POR INCAPACIDAD TEMPORAL DERIVADA DE CONTINGENCIAS COMUNESS DEL PERSONAL AL SERVICIOD E LOS EMPRESARIOS ASOCIADOS, ASÍ COMO DEL SUBSIDIO POR INCAPACIDAD TEMPORAL DEL RÉGIMEN ESPECIAL DE TRABAJADORES POR CUENTA PROPIA O AUTÓNOMOS Y DE LOS TRABAJADORES POR CUENTA PROPIA INCLUIDOS EN EL RÉGIMEN ESPECIAL AAGRARIO DE LA SEGURIDAD SOCIAL. ASI COMO LA PRESTACIÓN DE SERVICIOS SANITARIOS Y DE SEGURIDAD  Y SALUD LABORAL.\r\nDEDICA ESPECIAL ATENCIÓN, COMO ENTIDAD COLABORADORA DE LA SEGURIDAD SOCIAL, A LA MEDICINA PREVENTIVA Y A LA RECUPERACIÓN Y REHABILITACIÓN PROFESIONAL Y DEMÁS ACTIVIDADES DE NATURALEZA SIMILAR DERIVADAS DE DICHA COLABORACIÓN, A CUYO EFECTO PODRÁ ESTABLECER, PREVIA AUTORIZACIÓN DEL ÓRGANO ADMINISTRATIVO COMPETENTE, LAS INSTALACIONES, SERVICIOS Y CONCIERTOS NECESARIOS. \r\nDENTRO DE SU OBJETO SOCIAL Y DE ACUERDO CON LO ESTABLECIDO EN EL ARTÍCULO 32 DE LA LEY DE PREVENCIÓN DE RIESGOS LABORALES DE 8 DE NOVIEMBRE DE 1.995, PODRÁ DESARROLLAR PARA LAS EMPRESAS A ELLA ASOCIADAS LAS FUNCIONES CORRESPONDIENTES A LOS SERVICIOS DE PREVENCIÓN QUE SE ESTABLECEN EN EL ARTÍCULO 31 DE DICHA LEY, DE CONFORMIDAD CON EL RÉGIMEN JURÍDICO, ECONÓMICO Y DE FUNCIONAMIENTO QUE ESTÉ DETERMINADO POR LAS DISPOSICIONES ESPECÍFICAS EN LA MATERIAA Y CON LOS REQUISITOS EN EL ARTÍCULO 13 DE ESTOS ESTATUTOS. ESTAS FUNCIONES SERÁN COMPATIBLES E INDEPENDIENTES DE LAS MENCIONADAS EN LOS PÁRRAFOS ANTERIORES ",
      "mainEntityOfPage": "https://www.contratacion.euskadi.eus/webkpe00-kperoc/es/ac71aBusquedaRegistrosWar/empresa/02551",
      "_links": {
        "self": {
          "name": "MUTUA VIZCAYA INDUSTRIAL, MUTUA ACCIDENTES TRABAJO Y ENFERMEDADES",
          "href": "https://api.euskadi.eus/procurements/companies/02551"
        }
      }
    },
    {
      "name": "FABRICACIÓN DE GERMICIDAS, S.A. (FAGESA)",
      "registrationNumber": "00450",
      "identificationNumber": "A08661662",
      "address": "PASAJE FLAUGIER, 12",
      "location": {
        "postalCode": "08041",
        "municipality": "Barcelona",
        "county": "Barcelona",
        "municipalityId": "019",
        "countyId": "08"
      },
      "economicActivities": [
        {
          "id": "1.254.1",
          "name": "Fabricación de productos farmacéuticos de base",
          "_links": {
            "self": {
              "name": "Fabricación de productos farmacéuticos de base",
              "href": "https://api.euskadi.eus/procurements/companies/economic-activities/1.254.1"
            }
          }
        },
        {
          "id": "1.329.4",
          "name": "Construcción de maquinaria para la manipulación de fluidos",
          "_links": {
            "self": {
              "name": "Construcción de maquinaria para la manipulación de fluidos",
              "href": "https://api.euskadi.eus/procurements/companies/economic-activities/1.329.4"
            }
          }
        }
      ],
      "certificateStartDate": "2005-12-23",
      "certificateEndDate": "2006-06-01",
      "object": "INSTALACIÓN, FABRICACIÓN, ELABORACIÓN Y COMERCIALIZACIÓN DE APARATOS Y PRODUCTOS PARA ASEPSIA, DESINSECTACIÓN Y PROFILAXIS E HIGIENE EN GENERAL, DE AMBIENTES CERRADOS Y ABIERTOS, PROPIOS O TERCEROS. ",
      "mainEntityOfPage": "https://www.contratacion.euskadi.eus/webkpe00-kperoc/es/ac71aBusquedaRegistrosWar/empresa/00450",
      "_links": {
        "self": {
          "name": "FABRICACIÓN DE GERMICIDAS, S.A. (FAGESA)",
          "href": "https://api.euskadi.eus/procurements/companies/00450"
        }
      }
    },
    {
      "name": "LEKBER, S.l.",
      "registrationNumber": "00352",
      "identificationNumber": "A20149159",
      "address": "C/ BARAKALDO, Nº 17 - BAJO.",
      "location": {
        "postalCode": "20600",
        "municipality": "Eibar",
        "county": "Gipuzkoa",
        "municipalityId": "030",
        "countyId": "20"
      },
      "economicActivities": [
        {
          "id": "1.501.1",
          "name": "Construcción completa, reparación y conservación de edificaciones",
          "_links": {
            "self": {
              "name": "Construcción completa, reparación y conservación de edificaciones",
              "href": "https://api.euskadi.eus/procurements/companies/economic-activities/1.501.1"
            }
          }
        },
        {
          "id": "1.504.2",
          "name": "Instalaciones de fontanería",
          "_links": {
            "self": {
              "name": "Instalaciones de fontanería",
              "href": "https://api.euskadi.eus/procurements/companies/economic-activities/1.504.2"
            }
          }
        }
      ],
      "certificateStartDate": "2005-12-20",
      "certificateEndDate": "2006-02-03",
      "object": "CONSTRUCCIÓN, OBRAS, EDIFICACIONES, PROYECTOS, DIRECCIONES DE OBRA Y OTRAS ACTIVIDADES RELACIONADAS CON LA CONSTRUCCIÓN, ASÍ COMO CUALQUIER OTRA ACTIVIDAD DE INDUSTRIA O NEGOCIO QUE ACUERDE LA JUNTA GENERAL CONVOCADA AL EFECTO",
      "mainEntityOfPage": "https://www.contratacion.euskadi.eus/webkpe00-kperoc/es/ac71aBusquedaRegistrosWar/empresa/00352",
      "_links": {
        "self": {
          "name": "LEKBER, S.l.",
          "href": "https://api.euskadi.eus/procurements/companies/00352"
        }
      }
    },
    {
      "name": "COM Y MEDIA, TECNOLOGÍAS DE LA COMUNICACIÓN, S.A.L.",
      "registrationNumber": "01789",
      "identificationNumber": "A20569943",
      "address": "C/ PORTUETXE BIDEA, Nº 14 - EDIFICIO IBAETA.",
      "location": {
        "postalCode": "20009",
        "municipality": "Donostia / San Sebastián",
        "county": "Gipuzkoa",
        "municipalityId": "069",
        "countyId": "20"
      },
      "economicActivities": [
        {
          "id": "1.504.7",
          "name": "Instalaciones telefónicas, telegráficas, televisión, etc",
          "_links": {
            "self": {
              "name": "Instalaciones telefónicas, telegráficas, televisión, etc",
              "href": "https://api.euskadi.eus/procurements/companies/economic-activities/1.504.7"
            }
          }
        }
      ],
      "certificateStartDate": "2005-12-20",
      "certificateEndDate": "2005-11-19",
      "object": "LA PRESTACIÓN DE SERVICIOS TÉCNICOS INTEGRADORES DE SOLUCIONES EN EL ÁREA DE LAS COMUNICACIONES Y ABARCANDO EL DISEÑO, LA INGENIERÍA Y PUESTA EN MARCHA DE SOLUCIONES QUE INTEGREN TODAS LAS APLICACIONES SURGIDAS EN EL CAMPO DE LA COMUNICACIÓN; COMUNICACIÓN DE VOZ, DATOS E IMAGEN",
      "mainEntityOfPage": "https://www.contratacion.euskadi.eus/webkpe00-kperoc/es/ac71aBusquedaRegistrosWar/empresa/01789",
      "_links": {
        "self": {
          "name": "COM Y MEDIA, TECNOLOGÍAS DE LA COMUNICACIÓN, S.A.L.",
          "href": "https://api.euskadi.eus/procurements/companies/01789"
        }
      }
    },
    {
      "name": "BZEROMARKETING INTEGRAL, S.L.",
      "registrationNumber": "03025",
      "identificationNumber": "B95317517",
      "address": "JOSÉ MARÍA ESCUZA, 1 - 3º",
      "location": {
        "postalCode": "48013",
        "municipality": "Bilbao",
        "county": "Bizkaia",
        "municipalityId": "020",
        "countyId": "48"
      },
      "economicActivities": [
        {
          "id": "1.844",
          "name": "Servicios de publicidad, relaciones públicas y similares",
          "_links": {
            "self": {
              "name": "Servicios de publicidad, relaciones públicas y similares",
              "href": "https://api.euskadi.eus/procurements/companies/economic-activities/1.844"
            }
          }
        },
        {
          "id": "1.847",
          "name": "Servicios de consultoría",
          "_links": {
            "self": {
              "name": "Servicios de consultoría",
              "href": "https://api.euskadi.eus/procurements/companies/economic-activities/1.847"
            }
          }
        }
      ],
      "certificateStartDate": "2005-12-20",
      "certificateEndDate": "2006-06-16",
      "object": "1) LA REALIZACIÓN DE SERVICIOS DE ASESORAMIENTO, CONSULTORÍA Y FORMACIÓN PARA TODA CLASE DE EMPRESAS COMERCIALES, INDUSTRIALES Y DE SERVICIOS, ASÍ COMO PARA PARTICULARES Y ENTIDADES PÚBLICAS.\r\n2) LA REALIZACIÓN Y PRESTACIÓN DE SERVICIOS COMERCIALES, DE INFORMACIÓN, PROMOCIÓN Y VENTA AL CLIENTE, DE TODA CLASE DE PRODUCTOS DEL COMERCIO Y DE LA INDUSTRIA, UTILIZANDO PARA ELLO LOS DIVERSOS TIPOS DE SISTEMAS DE COMUNICACIÓN MULTICANAL, EXISTENTES EN LA ACTUALIDAD Y QUE PUEDAN UTILIZARSE EN EL FUTURO.\r\n3) EL SEGUIMIENTO DE LOS TRABAJOS Y SERVICIOS COMERCIALES CON ELABORACIÓN  DE INFORMES Y ESTUDIOS DE MERCADO, TANTO CUANTITATIVOS COMO CUALITATIVOS, CON SU CORRESPONDIENTE GENERACIÓN DE INFORMACIÓN Y CONOCIMIENTO.\r\n4) LA ADQUISICIÓN Y ENAJENACIÓN POR CUALQUIER TÍTULO DE FINCAS RÚSTICAS Y URBANAS, YA SEAN TIERRAS, SOLARES, EDIFICIOS O SUS PARTES DETERMINADAS, LA CONSTRUCCIÓN  Y REHABILITACIÓN DE ÉSTOS, Y LA TENENCIA, EXPLOTACIÓN Y ARRENDAMIENTO, YA SEA ACTIVO O PASIVO DE TALES BIENES Y SU VENTA TOTAL O PARCIAL, SEGÚN CONVENGA.\r\n5) LA REALIZACIÓN DE SERVICIOS Y TRABAJOS DE ASESORAMIENTO Y CONSULTORÍA EN EL CAMPO DE LA DIRECCIÓN Y GESTIÓN DE EMPRESAS EN CUALQUIERA DE SUS ÁREAS O ACTIVIDADES, YA SEA ADMINISTRATIVO-CONTABLE, PRODUCCIÓN, FINANCIERA O COMERCIAL; LA REALIZACIÓN DE ESTUDIOS MACRO Y MICROECONÓMICOS TANTO PARA EMPRESAS O AGRUPACIONES EMPRESARIALES, COMO PARA ENTIDADES DEL SECTOR PÚBLICO, YA SEA ÉSTE DE LA ADMINISTRACIÓN DEL ESTADO, AUTONÓMICA, FORAL, LOCAL O DE LA UNIÓN EUROPEA O CUALESQUIERA OTROS ORGANISMOS.\r\n6) LA REALIZACIÓN DE SERVICIOS Y TRABAJOS  DE INFORMÁTICA A TERCEROS ASÍ COMO SERVICIOS DE MECANOGRAFÍA, REPROGRAFÍA, DISEÑO, TRADUCCIONES, ASESORAMIENTO O IMAGEN, SECRETARIADO MÓVIL, YA SEA EN LAS DEPENDENCIAS DE LOS CLIENTES, YA EN FERIAS, CONGRESOS  Y EXHIBICIONES.\r\n7) EL DESEMPEÑO DE ACTIVIDADES DE REPRESENTACIÓN, MEDIACIÓN, PROMOCIÓN Y GESTIÓN TANTO EN ESPAÑA COMO EN EL EXTRANJERO, DE TODA CLASE DE EMPRESAS COMERCIALES, INDUSTRIALES Y DE SERVICIOS.\r\n8) LA CONSTITUCIÓN CON LA CONCURRENCIA DE OTRAS PERSONAS DE TODA CLASE DE SOCIEDADES MERCANTILES, LA PARTICIPACIÓN EN OTRAS CONSTITUÍDAS, PUDIENDO OSTENTAR EN TODAS ELLAS CARGOS DE ADMINISTRACIÓN, DIRECCIÓN O CONTROL MEDIANTE LA OPORTUNA DELEGACIÓN EN PERSONA FÍSICA.\r\n9) LA ADQUISICIÓN, TENENCIA, DISFRUTE Y ENAJENACIÓN DE TODA CLASE DE VALORES MOBILIARIOS, COTIZADOS EN BOLSA, O NO, SIEMPRE QUE NO SE INCIDA EN OPERACIONES REGULADAS POR LEGISLACIÓN ESPECIAL.\r\nLA SOCIEDAD NO DESARROLLARÁ NINGUNA ACTIVIDAD PARA LA QUE LAS LEYES EXIJAN CONDICIONES, LIMITACIONES O AUTORIZACIONES ADMINISTRATIVAS ESPECÍFICAS, EN TANTO NO DÉ EXACTO CUMPLIMIENTO A LAS MISMAS.\r\nTODO ELLO SIEMPRE QUE LO REALICE LA SOCIEDAD POR CUENTA PROPIA Y CON EXCEPCIÓN DE LA INTERMEDIACIÓN, QUEDANDO SIEMPRE EXCLUÍDAS LAS ACTIVIDADES OBJETO DE LA LEGISLACIÓN  DE INSTITUCIONES DE INVERSIÓN COLECTIVA Y DE MERCADO DE VALORES",
      "mainEntityOfPage": "https://www.contratacion.euskadi.eus/webkpe00-kperoc/es/ac71aBusquedaRegistrosWar/empresa/03025",
      "_links": {
        "self": {
          "name": "BZEROMARKETING INTEGRAL, S.L.",
          "href": "https://api.euskadi.eus/procurements/companies/03025"
        }
      }
    },
    {
      "name": "GRUPO COMUNICACIONES Y SONIDO, S.L.",
      "registrationNumber": "03129",
      "identificationNumber": "B48514335",
      "address": "CTRA. NACIONAL 625 - KM. 384",
      "location": {
        "postalCode": "48480",
        "municipality": "Zaratamo",
        "county": "Bizkaia",
        "municipalityId": "097",
        "countyId": "48"
      },
      "economicActivities": [
        {
          "id": "1.504.7",
          "name": "Instalaciones telefónicas, telegráficas, televisión, etc",
          "_links": {
            "self": {
              "name": "Instalaciones telefónicas, telegráficas, televisión, etc",
              "href": "https://api.euskadi.eus/procurements/companies/economic-activities/1.504.7"
            }
          }
        }
      ],
      "certificateStartDate": "2005-12-15",
      "certificateEndDate": "2006-05-04",
      "object": "EL DISEÑO, PLANIFICACIÓN, INVESTIGACIÓN Y DESARROLLO, FABRICACIÓN, COMERCIALIZACIÓN, INSTALACIÓN, MANTENIMIENTO, ALQUILER Y REPARACIÓN DE APARATOS Y SISTEMAS DE TELEFONÍA FIJA, AUTOMÁTICA, MÓVIL, CELULAR, RURAL, SATÉLITE, AERONÁUTICA, MARÍTIMA, SISTEMAS TRUNKING, RADIO, TELECOMUNICACIÓN, DATOS Y  SEGURIDAD, ASÍ COMO TODOS SUS COMPLEMENTOS Y ACCESORIOS DE TIPO HARDWARE Y SOFTWARE.\r\nLA PRESTACIÓN DE SERVICIOS A TRAVÉS DE TODO TIPO DE TELECOMUNICACIONES COMO: CORREO, TELÉFONO, MENSAJES TELEFÓNICOS, MENSAJES POR RADIO, TELEX, RADIO PÚBLICA O PRIVADA, RADIOTELÉFONOS PRIVADOS O PÚBLICOS, LA PRESTACIÓN DE SERVICIOS DE VALOR AÑADIDO Y TRANSMISIÓN  Y RECEPCIÓN DE ALARMAS Y LA EXPORTACIÓN E IMPORTACIÓN DE LOS CITADOS APARATOS Y SISTEMAS JUNTO CON SUS ACCESORIOS Y COMPLEMENTOS.\r\nLAS ACTIVIDADES INTEGRANTES DEL OBJETO SOCIAL PODRÁN SER DESARROLLADAS POR LA SOCIEDAD, TOTAL O PARCIALMENTE, DE MODO INDIRECTO, MEDIANTE LA TITULARIDAD DE ACCIONES O PARTICIPACIONES EN OTRAS SOCIEDADES CON OBJETO IDÉNTICO O ANÁLOGO",
      "mainEntityOfPage": "https://www.contratacion.euskadi.eus/webkpe00-kperoc/es/ac71aBusquedaRegistrosWar/empresa/03129",
      "_links": {
        "self": {
          "name": "GRUPO COMUNICACIONES Y SONIDO, S.L.",
          "href": "https://api.euskadi.eus/procurements/companies/03129"
        }
      }
    }
  ]
}