{
  "totalItems": 9042,
  "totalPages": 905,
  "currentPage": 828,
  "itemsOfPage": 10,
  "items": [
    {
      "name": "PHILIPS SISTEMAS MÉDICOS, S.A.",
      "registrationNumber": "01149",
      "identificationNumber": "A28051829",
      "address": "C/ MARTÍNEZ VILLERGAS, Nº 2",
      "location": {
        "postalCode": "28027",
        "municipality": "Madrid",
        "county": "Madrid",
        "municipalityId": "079",
        "countyId": "28"
      },
      "economicActivities": [
        {
          "id": "1.504.1",
          "name": "Instalaciones eléctricas en general",
          "_links": {
            "self": {
              "name": "Instalaciones eléctricas en general",
              "href": "https://api.euskadi.eus/procurements/companies/economic-activities/1.504.1"
            }
          }
        },
        {
          "id": "1.619.2",
          "name": "Venta al por mayor de aparatos e instrumentos médicos, ortopédicos, ópticos",
          "_links": {
            "self": {
              "name": "Venta al por mayor de aparatos e instrumentos médicos, ortopédicos, ópticos",
              "href": "https://api.euskadi.eus/procurements/companies/economic-activities/1.619.2"
            }
          }
        }
      ],
      "certificateStartDate": "1999-04-29",
      "certificateEndDate": "1997-12-23",
      "object": "LA COMERCIALIZACION, IMPORTACION Y/O EXPORTACION DE TODA CLASE DE BIENES, EQUIPOS O PRODUCTOS ELECTRICOS, ELECTRONICOS O MECANICOS, Y SUS PIEZAS O COMPONENTES, ASI COMO OBJETOS, ARTICULOS, BIENES O MERCADERIAS DE TODAS CLASES RELACIONADOS CON EL CAMPO DE LA ELECTROMEDICINA, ASI COMO LA INSTALACION Y MANTENIMIENTO DE LOS MISMOS",
      "mainEntityOfPage": "https://www.contratacion.euskadi.eus/webkpe00-kperoc/es/ac71aBusquedaRegistrosWar/empresa/01149",
      "_links": {
        "self": {
          "name": "PHILIPS SISTEMAS MÉDICOS, S.A.",
          "href": "https://api.euskadi.eus/procurements/companies/01149"
        }
      }
    },
    {
      "name": "CONSTRUCCIONES URBE, S.L.",
      "registrationNumber": "00231",
      "identificationNumber": "B20080008",
      "address": "C/ MARINO TABUYO, Nº 12 - ÁTICO.",
      "location": {
        "postalCode": "20013",
        "municipality": "Donostia / San Sebastián",
        "county": "Gipuzkoa",
        "municipalityId": "069",
        "countyId": "20"
      },
      "economicActivities": [
        {
          "id": "1.501.1",
          "name": "Construcción completa, reparación y conservación de edificaciones",
          "_links": {
            "self": {
              "name": "Construcción completa, reparación y conservación de edificaciones",
              "href": "https://api.euskadi.eus/procurements/companies/economic-activities/1.501.1"
            }
          }
        }
      ],
      "certificateStartDate": "1999-04-26",
      "certificateEndDate": "1999-10-16",
      "object": "LA CONTRATACIÓN DE TODA CLASE DE OBRAS DE CONSTRUCCIÓN, REPARACIÓN, EDIFICACIÓN, ASÍ COMO EJECUCIÓN DE LAS MISMAS",
      "mainEntityOfPage": "https://www.contratacion.euskadi.eus/webkpe00-kperoc/es/ac71aBusquedaRegistrosWar/empresa/00231",
      "_links": {
        "self": {
          "name": "CONSTRUCCIONES URBE, S.L.",
          "href": "https://api.euskadi.eus/procurements/companies/00231"
        }
      }
    },
    {
      "name": "BASKINSA, S.A.",
      "registrationNumber": "01517",
      "identificationNumber": "A20449435",
      "address": "POLÍGONO INDUSTRIAL SAN LORENZO, S/N.",
      "location": {
        "postalCode": "20870",
        "municipality": "Elgoibar",
        "county": "Gipuzkoa",
        "municipalityId": "032",
        "countyId": "20"
      },
      "economicActivities": [
        {
          "id": "1.392.1",
          "name": "Fabricación de material médico-quirúrgico",
          "_links": {
            "self": {
              "name": "Fabricación de material médico-quirúrgico",
              "href": "https://api.euskadi.eus/procurements/companies/economic-activities/1.392.1"
            }
          }
        }
      ],
      "certificateStartDate": "1999-04-22",
      "certificateEndDate": "1999-10-16",
      "object": "LA INGENIERÍA, FABRICACIÓN Y COMERCIALIZACIÓN DE PRODUCTOS Y MATERIAL MÉDICO, QUIRÚRGICO Y SANITARIO",
      "mainEntityOfPage": "https://www.contratacion.euskadi.eus/webkpe00-kperoc/es/ac71aBusquedaRegistrosWar/empresa/01517",
      "_links": {
        "self": {
          "name": "BASKINSA, S.A.",
          "href": "https://api.euskadi.eus/procurements/companies/01517"
        }
      }
    },
    {
      "name": "TEG DISEÑO Y CREATIVIDAD DIGITAL, S.L.",
      "registrationNumber": "02121",
      "identificationNumber": "B48891022",
      "address": "POLÍGONO INDUSTR. TORRELARRAGOITI, VIAL A - P. 5 - A. 2.    ",
      "location": {
        "postalCode": "48170",
        "municipality": "Zamudio",
        "county": "Bizkaia",
        "municipalityId": "905",
        "countyId": "48"
      },
      "economicActivities": [
        {
          "id": "1.474",
          "name": "Artes gráficas (impresión gráfica)",
          "_links": {
            "self": {
              "name": "Artes gráficas (impresión gráfica)",
              "href": "https://api.euskadi.eus/procurements/companies/economic-activities/1.474"
            }
          }
        }
      ],
      "certificateStartDate": "1999-04-21",
      "certificateEndDate": "1999-09-16",
      "object": "DAR SERVICIO A TRAVÉS DE SOPORTE INFORMÁTICO Y MANUAL A LAS DIVERSAS DISCIPLINAS DEL DISEÑO, CREATIVIDAD Y COMUNICACIÓN; IDENTIDAD CORPORATIVA, PACKAGING, DISEÑO EDITORIAL, ILUSTRACIÓN DIGITAL, ILUSTRACIÓN CORPORATIVA, FOTOGRAFÍA MANUAL O DIGITAL, COMUNICACIÓN PUBLICITARIA Y MULTIMEDIA. LA FOTOMECÁNICA, A TRAVÉS DE TODOS LOS EQUIPOS INFORMÁTICOS Y MANUALES NECESARIOS AL EFECTO. LA EDICIÓN Y PRODUCCIÓN DE TODO TIPO DE PUBLICACIONES ESCRITAS. LA CONFECCIÓN DE GUÍAS, MAPAS TURÍSTICOS DE POBLACIONES, Y OTROS. LA PRESTACIÓN Y DIFUSIÓN DE SERVICIOS DE PUBLICIDAD Y MARKETING, TANTO INTERIORES COMO EXTERIORES, EJERCIDAS POR Y EN CUALQUIER MEDIO DE DIFUSIÓN. LA PRESTACIÓN DE SERVICIOS PARA LA DIRECCIÓN, PRODUCCIÓN, GUIÓN Y PRESENTACIÓN DE PROGRAMAS PUBLICITARIOS, CULTURALES, RECREATIVOS Y MUSICALES, EMITIDOS A TRAVÉS DE LOS MEDIOS DE DIFUSIÓN; TAMBIÉN SE PRESTARÁN ESTOS SERVICIOS BAJO CUALQUIER CONTRATO, EN ACTUACIONES EN DIRECTO EN CINES, TEATROS O LOCALES HABILITADOS AL EFECTO. LA COMERCIALIZACIÓN Y REALIZACIÓN DE LOS TRABAJOS DE ARTES GRÁFICAS, COMPRAVENTA, IMPORTACIÓN Y EXPORTACIÓN DE MATERIALES Y MAQUINARIA RELACIONADA CON LAS ARTES GRÁFICAS, ARTÍCULOS DE REGALO, LIBRERÍA TÉCNICA Y OFIMÁTICA. DAR SERVICIO DE IMAGEN CORPORATIVA A TRAVÉS DEL ASESORAMIENTO PUNTUAL POR TÉCNICOS ESPECIALIZADOS, PROPORCIONANDO MEDIOS TÉCNICOS Y HUMANOS (AZAFATAS, ETC.) PARA EL FIN DEL SERVICIO. EL ESTUDIO DE MERCADO: PLANES DE MARKETING ESTRATÉGICO NACIONALES E INTERNACIONALES; AUDITORÍAS COMERCIALES PARCIALES O TOTALES; CREACIÓN O REESTRUCTURACIÓN DE REDES COMERCIALES; LANZAMIENTO DE NUEVOS PRODUCTOS; ESTUDIOS DE MERCADO",
      "mainEntityOfPage": "https://www.contratacion.euskadi.eus/webkpe00-kperoc/es/ac71aBusquedaRegistrosWar/empresa/02121",
      "_links": {
        "self": {
          "name": "TEG DISEÑO Y CREATIVIDAD DIGITAL, S.L.",
          "href": "https://api.euskadi.eus/procurements/companies/02121"
        }
      }
    },
    {
      "name": "DATAVI, S.A.",
      "registrationNumber": "01878",
      "identificationNumber": "A01023803",
      "address": "C/ AVENIDA GASTEIZ, Nº 55.",
      "location": {
        "postalCode": "01008",
        "municipality": "Vitoria-Gasteiz",
        "county": "Araba/Álava",
        "municipalityId": "059",
        "countyId": "01"
      },
      "economicActivities": [
        {
          "id": "1.659.2",
          "name": "Venta al por menor de muebles de oficina y máquinas y equipos de oficina",
          "_links": {
            "self": {
              "name": "Venta al por menor de muebles de oficina y máquinas y equipos de oficina",
              "href": "https://api.euskadi.eus/procurements/companies/economic-activities/1.659.2"
            }
          }
        },
        {
          "id": "1.699",
          "name": "Otras reparaciones n.c.o.p",
          "_links": {
            "self": {
              "name": "Otras reparaciones n.c.o.p",
              "href": "https://api.euskadi.eus/procurements/companies/economic-activities/1.699"
            }
          }
        },
        {
          "id": "1.845",
          "name": "Explotación electrónica por cuenta de terceros",
          "_links": {
            "self": {
              "name": "Explotación electrónica por cuenta de terceros",
              "href": "https://api.euskadi.eus/procurements/companies/economic-activities/1.845"
            }
          }
        }
      ],
      "certificateStartDate": "1999-04-13",
      "certificateEndDate": "1999-10-08",
      "object": "LA COMERCIALIZACIÓN DE MÁQUINAS DE CALCULAR, ORDENADORES, MATERIAL AUXILIAR DE INFORMÁTICA, SERVICIOS RELACIONADOS CON LA INFORMÁTICA",
      "mainEntityOfPage": "https://www.contratacion.euskadi.eus/webkpe00-kperoc/es/ac71aBusquedaRegistrosWar/empresa/01878",
      "_links": {
        "self": {
          "name": "DATAVI, S.A.",
          "href": "https://api.euskadi.eus/procurements/companies/01878"
        }
      }
    },
    {
      "name": "LICEO REINA, S.L.",
      "registrationNumber": "02117",
      "identificationNumber": "B48918262",
      "address": "PL. SAN SEVERINO, Nº 3 BIS - 1º",
      "location": {
        "postalCode": "48800",
        "municipality": "Balmaseda",
        "county": "Bizkaia",
        "municipalityId": "090",
        "countyId": "48"
      },
      "economicActivities": [
        {
          "id": "1.933.9",
          "name": "Otras actividades de enseñanza tales como idiomas, mecanografía",
          "_links": {
            "self": {
              "name": "Otras actividades de enseñanza tales como idiomas, mecanografía",
              "href": "https://api.euskadi.eus/procurements/companies/economic-activities/1.933.9"
            }
          }
        }
      ],
      "certificateStartDate": "1999-04-09",
      "certificateEndDate": "1999-09-18",
      "object": "\r\na) LA ENSEÑANZA A TÍTULO PARTICULAR SOBRE MATERIAS INCLUIDAS EN LOS PLANES DE ESTUDIOS DE CUALQUIERA DE LOS NIVELES Y GRADOS DEL SISTEMA EDUCATIVO.\r\nb) LA PREPARACIÓN DE EXÁMENES Y OPOSICIONES.\r\nc) LA PROMOCIÓN Y ORGANIZACIÓN DE CURSOS DE IDIOMAS EN EL EXTRANJERO Y EN ESPAÑA.\r\nd) LA ENSEÑANZA DE FORMACIÓN Y PERFECCIONAMIENTO PROFESIONAL.\r\ne) LA COMPRA Y VENTA DE EQUIPOS INFORMÁTICOS Y TELEMÁTICOS ASÍ COMO DE SUS ACCESORIOS Y CONSUMIBLES",
      "mainEntityOfPage": "https://www.contratacion.euskadi.eus/webkpe00-kperoc/es/ac71aBusquedaRegistrosWar/empresa/02117",
      "_links": {
        "self": {
          "name": "LICEO REINA, S.L.",
          "href": "https://api.euskadi.eus/procurements/companies/02117"
        }
      }
    },
    {
      "name": "TRATAMIENTOS ESPECÍFICOS CURATIVOS DE LA MADERA, S.A.",
      "registrationNumber": "01340",
      "identificationNumber": "A48404735",
      "address": "BARRIO BILLELA, S/N.",
      "location": {
        "postalCode": "48100",
        "municipality": "Mungia",
        "county": "Bizkaia",
        "municipalityId": "069",
        "countyId": "48"
      },
      "economicActivities": [
        {
          "id": "1.921.3",
          "name": "Exterminio de animales dañinos y desinfección",
          "_links": {
            "self": {
              "name": "Exterminio de animales dañinos y desinfección",
              "href": "https://api.euskadi.eus/procurements/companies/economic-activities/1.921.3"
            }
          }
        }
      ],
      "certificateStartDate": "1999-04-08",
      "certificateEndDate": "1999-09-09",
      "object": "LA FABRICACIÓN, COMERCIALIZACIÓN, INCLUSO EXPORTACIÓN E IMPORTACIÓN, Y APLICACIÓN DE PRODUCTOS PESTICIDAS",
      "mainEntityOfPage": "https://www.contratacion.euskadi.eus/webkpe00-kperoc/es/ac71aBusquedaRegistrosWar/empresa/01340",
      "_links": {
        "self": {
          "name": "TRATAMIENTOS ESPECÍFICOS CURATIVOS DE LA MADERA, S.A.",
          "href": "https://api.euskadi.eus/procurements/companies/01340"
        }
      }
    },
    {
      "name": "AUTOBAS 77, S.A.",
      "registrationNumber": "00359",
      "identificationNumber": "A48243091",
      "address": "C/ CARMELO GIL, Nº 11",
      "location": {
        "postalCode": "48012",
        "municipality": "Bilbao",
        "county": "Bizkaia",
        "municipalityId": "020",
        "countyId": "48"
      },
      "economicActivities": [
        {
          "id": "1.319.1",
          "name": "Mecánica general",
          "_links": {
            "self": {
              "name": "Mecánica general",
              "href": "https://api.euskadi.eus/procurements/companies/economic-activities/1.319.1"
            }
          }
        },
        {
          "id": "1.617.5",
          "name": "Venta al por mayor de maquinaria para la madera y el metal",
          "_links": {
            "self": {
              "name": "Venta al por mayor de maquinaria para la madera y el metal",
              "href": "https://api.euskadi.eus/procurements/companies/economic-activities/1.617.5"
            }
          }
        },
        {
          "id": "1.692",
          "name": "Reparación de maquinaria industrial",
          "_links": {
            "self": {
              "name": "Reparación de maquinaria industrial",
              "href": "https://api.euskadi.eus/procurements/companies/economic-activities/1.692"
            }
          }
        }
      ],
      "certificateStartDate": "1999-04-06",
      "certificateEndDate": "1999-08-26",
      "object": "LA COMPRA-VENTA DE MAQUINARIA, PIEZAS, ACCESORIOS, RECAMBIOS, HERRAMIENTAS, NEUMÁTICOS, CÁMARAS Y CUALESQUIERA REPUESTOS PARA LA INDUSTRIA DEL AUTOMÓVIL; CONSTRUCCIÓN Y EXPLOTACIÓN DE INSTALACIONES DE SERVICIO Y ENGRASE DE MAQUINARIA Y AUTOMÓVILES, MEDIANTE ADQUISICIÓN DE TERRENOS, SU PARCELACIÓN Y URBANIZACIÓN, USO, ARRENDAMIENTO, CESIÓN O VENTA DE LA EXPLOTACIÓN O DE TALES INSTALACIONES DE SERVICIO, DISTRIBUIDORAS DE LUBRICANTES, ACEITES, GRASAS, CARBURANTES Y COMBUSTIBLES LÍQUIDOS; REPARACIÓN, PINTURA, DECORACIÓN, REPRESENTACIÓN, IMPORTACIÓN Y EXPORTACIÓN, TANTO DE LOS PRODUCTOS INDICADOS COMO DE LOS VEHÍCULOS Y MOTORES",
      "mainEntityOfPage": "https://www.contratacion.euskadi.eus/webkpe00-kperoc/es/ac71aBusquedaRegistrosWar/empresa/00359",
      "_links": {
        "self": {
          "name": "AUTOBAS 77, S.A.",
          "href": "https://api.euskadi.eus/procurements/companies/00359"
        }
      }
    },
    {
      "name": "CONSTRUCCIONES LAIN, S.A.",
      "registrationNumber": "01689",
      "identificationNumber": "A28117133",
      "address": "C/ ARTURO SORIA, Nº 336.",
      "location": {
        "postalCode": "28033",
        "municipality": "Madrid",
        "county": "Madrid",
        "municipalityId": "079",
        "countyId": "28"
      },
      "economicActivities": [
        {
          "id": "1.507",
          "name": "Construcción, reparación y conservación de toda clase obras",
          "_links": {
            "self": {
              "name": "Construcción, reparación y conservación de toda clase obras",
              "href": "https://api.euskadi.eus/procurements/companies/economic-activities/1.507"
            }
          }
        }
      ],
      "certificateStartDate": "1999-03-24",
      "certificateEndDate": "1999-09-05",
      "object": "LA REALIZACIÓN DE TODO TIPO DE OBRAS DE CONSTRUCCIÓN POR CUENTA PROPIA O DE TERCEROS; SU VENTA Y EXPLOTACIÓN EN CUALQUIER FORMA, CONFORME A LA LEGISLACIÓN VIGENTE, LA EJECUCIÓN DE ESTUDIOS, CÁLCULOS, PROYECTOS, ENSAYOS Y SUPERVISIONES, RELACIONADOS CON LA ACTIVIDAD DE INGENIERÍA Y/O DE LA CONSTRUCCIÓN. QUEDA EXCEPTUADA LA CONSTRUCCIÓN DE VIVIENDAS POR CUENTA PROPIA, SIEMPRE QUE EN LA FINANCIACIÓN DE LAS MISMAS INTERVENGA POR CUALQUIER MEDIO EL CRÉDITO OFICIAL",
      "mainEntityOfPage": "https://www.contratacion.euskadi.eus/webkpe00-kperoc/es/ac71aBusquedaRegistrosWar/empresa/01689",
      "_links": {
        "self": {
          "name": "CONSTRUCCIONES LAIN, S.A.",
          "href": "https://api.euskadi.eus/procurements/companies/01689"
        }
      }
    },
    {
      "name": "FERROVIAL, S.A.",
      "registrationNumber": "00249",
      "identificationNumber": "A28057529",
      "address": "C/ PRÍNCIPE DE VERGARA, Nº 135.",
      "location": {
        "postalCode": "28002",
        "municipality": "Madrid",
        "county": "Madrid",
        "municipalityId": "079",
        "countyId": "28"
      },
      "economicActivities": [
        {
          "id": "1.507",
          "name": "Construcción, reparación y conservación de toda clase obras",
          "_links": {
            "self": {
              "name": "Construcción, reparación y conservación de toda clase obras",
              "href": "https://api.euskadi.eus/procurements/companies/economic-activities/1.507"
            }
          }
        }
      ],
      "certificateStartDate": "1999-03-16",
      "certificateEndDate": "1999-08-17",
      "object": "CONTRATACION, GESTION, PROYECCION, CONSTRUCCION Y EJECUCION DE TODA CLASE DE OBRA, PUBLICA O PRIVADA; GESTION, ADMINISTRACION, ADQUISICION, PROMOCION, ENAJENACION, REHABILITACION Y EXPLORACION EN CUALQUIER FORMA DE SOLARES, TERRENOS, CONJUNTOS RESIDENCIALE, URBANIZACIONES O PROMOCIONES INMOBILIARIAS, Y EN GENERAL, DE TODA CLASE DE BIENES INMUEBLES; FABRICACION, ADQUISICION, SUMINISTRO, IMPORTACION, EXPORTACION, ARRENDAMIENTO, INSTALACION, MANTENIMIENTO, DISTRIBUCION Y EXPLOTACION DE MAQUINARIA, HERRAMIENTAS, VEHICULOS, INSTALACIONES MATERIALES, EQUIPOS Y MOBILIARIO DE TODAS CLASES, INCLUIDO EL MOBILIARIO Y EQUIPAMIENTOS URBANOS; ADQUISICION, EXPLOTACION, VENTA Y CESION DE DERECHOS DE PROPIEDAD INDUSTRIAL E INTELECTUAL; PRESTACION DE SERVICIOS RELACIONADOS CON LA CONSERVACION, REPARACION, MANTENIMIENTO, SANEAMIENTO Y LIMPIEZA DE TODA CLASE DE OBRAS, INSTALACIONES Y SERVICIOS, TANTO A ENTIDADES PUBLICAS COMO PRIVADAS; PRESTACION DE SERVICIOS PROPIOS DE LA ACTIVIDAD DE LA INGENIERIA, TALES COMO LA REALIZACION DE PROYECTOS, ESTUDIOS E INFORMES; ELABORACION DE PROYECTOS Y ESTUDIOS, CONSTRUCCION, MANTENIMIENTO, EXPLOTACION Y COMERCIALIZACION DE TODO TIPO DE INSTALACIONES Y SERVICIOS DE SUMINISTRO, DEPURACION, TRANSFORMACION Y TRATAMIENTO DE CUALQUIER CLASE DE AGUAS Y RESIDUOS. INVESTIGACION Y DESARROLLO EN ESTOS MISMOS CAMPOS; PRESTACION DE SERVICIOS RELACIONADOS CON EL MEDIO AMBIENTE, TALES COMO EL CONTROL DE HUMOS Y RUIDOS, Y LA GESTION INTEGRAL DE BASURAS, TANTO EN LO QUE SE REFIERA A SU RECOGIDA COMO A SU DEPURACION, TRANSFORMACION Y TRATAMIENTO; INVESTIGACION, DISEÑO, DESARROLLO, FABRICACION, EXPLOTACION Y CESION DE PROGRAMAS Y, EN GENERAL, DE PRODUCTOS INFORMATICOS, ELECTRONICOS Y DE TELECOMUNICACION; CONSTRUCCION, EJECUCION, EXPLOTACION Y PRESTACION DE TODO TIPO DE SERVICIOS PUBLICOS O COMUNITARIOS RELACIONADOS CON LA INFRAESTRUCTURA DEL TRANSPORTE, URBANO E INTERURBANO, YA SEA POR VIA TERRESTRE, MARITIMA O AEREA; LA INVESTIGACION, EXPLOTACION, Y APROVECHAMIENTO DE YACIMIENTOS MINERALES, ASI COMO LA ADQUISICION, USO Y DISFRUTE DE PERMISOS, CONCESIONES, LICENCIAS, AUTORIZACIONES Y DEMAS DERECHOS DE CARACTER MINERO, Y LA INDUSTRIALIZACION, DISTRIBUCION Y COMERCIALIZACION DE PRODUCTOS MINERALES; LA TITULARIDAD DE TODA CLASE DE CONCESIONES, SUBCONCESIONES, AUTORIZACIONES Y LICENCIAS ADMINISTRATIVAS DE OBRAS, SERVICIOS Y MIXTAS DEL ESTADO, COMUNIDADES AUTONOMAS, PROVINCIAS, MUNICIPIOS, ORGANISMOS AUTONOMOS, ENTIDADES AUTONOMAS, Y, EN GENERAL, DE CUALQUIER ESTADO EXTRANJERO E INSTITUCIONES INTERNACIONALES; CONSTRUCCION, EXPLOTACION Y GESTION DE TODO TIPO DE ESTABLECIMIENTOS DEDICADOS A LA HOSTELERIA, RESTAURACION, ACTIVIDADES DEPORTIVAS, PARQUES DE ATRACCIONES, Y EN GENERAL, DE CUALQUIER OTRA ACTIVIDAD RELACIONADA CON EL OCIO, EL DEPORTE Y LA RECREACION",
      "mainEntityOfPage": "https://www.contratacion.euskadi.eus/webkpe00-kperoc/es/ac71aBusquedaRegistrosWar/empresa/00249",
      "_links": {
        "self": {
          "name": "FERROVIAL, S.A.",
          "href": "https://api.euskadi.eus/procurements/companies/00249"
        }
      }
    }
  ]
}