{
  "totalItems": 9042,
  "totalPages": 905,
  "currentPage": 859,
  "itemsOfPage": 10,
  "items": [
    {
      "name": "ELKAR AUTOCARES, S.A.",
      "registrationNumber": "03898",
      "identificationNumber": "A20304333",
      "address": "ESKALANTEGUI, 3-5º DCHA.",
      "location": {
        "postalCode": "20110",
        "municipality": "Pasaia",
        "county": "Gipuzkoa",
        "municipalityId": "064",
        "countyId": "20"
      },
      "object": "pte",
      "mainEntityOfPage": "https://www.contratacion.euskadi.eus/webkpe00-kperoc/es/ac71aBusquedaRegistrosWar/empresa/03898",
      "_links": {
        "self": {
          "name": "ELKAR AUTOCARES, S.A.",
          "href": "https://api.euskadi.eus/procurements/companies/03898"
        }
      }
    },
    {
      "name": "MENSAPI, S.L.",
      "registrationNumber": "03899",
      "identificationNumber": "B01060466",
      "address": "C/ LARRABE, 4",
      "location": {
        "postalCode": "01470",
        "municipality": "Amurrio",
        "county": "Araba/Álava",
        "municipalityId": "002",
        "countyId": "01"
      },
      "object": ".",
      "mainEntityOfPage": "https://www.contratacion.euskadi.eus/webkpe00-kperoc/es/ac71aBusquedaRegistrosWar/empresa/03899",
      "_links": {
        "self": {
          "name": "MENSAPI, S.L.",
          "href": "https://api.euskadi.eus/procurements/companies/03899"
        }
      }
    },
    {
      "name": "AUTOBUSES AGOTE, S.L.",
      "registrationNumber": "03901",
      "identificationNumber": "B20040937",
      "address": "BARRIO UBILLUTS, Nº 26",
      "location": {
        "postalCode": "20140",
        "municipality": "Andoain",
        "county": "Gipuzkoa",
        "municipalityId": "009",
        "countyId": "20"
      },
      "object": "pte",
      "mainEntityOfPage": "https://www.contratacion.euskadi.eus/webkpe00-kperoc/es/ac71aBusquedaRegistrosWar/empresa/03901",
      "_links": {
        "self": {
          "name": "AUTOBUSES AGOTE, S.L.",
          "href": "https://api.euskadi.eus/procurements/companies/03901"
        }
      }
    },
    {
      "name": "IRAGAZ SERVICIOS MEDIOAMBIENTALES, S.L.",
      "registrationNumber": "03902",
      "identificationNumber": "B95543054",
      "address": "GREGORIO DE LA REVILLA, 27-1º",
      "location": {
        "postalCode": "48010",
        "municipality": "Bilbao",
        "county": "Bizkaia",
        "municipalityId": "020",
        "countyId": "48"
      },
      "object": "pte",
      "mainEntityOfPage": "https://www.contratacion.euskadi.eus/webkpe00-kperoc/es/ac71aBusquedaRegistrosWar/empresa/03902",
      "_links": {
        "self": {
          "name": "IRAGAZ SERVICIOS MEDIOAMBIENTALES, S.L.",
          "href": "https://api.euskadi.eus/procurements/companies/03902"
        }
      }
    },
    {
      "name": "ALCONADA BARBA, ALEJANDRO",
      "registrationNumber": "03904",
      "identificationNumber": "15333860J",
      "address": "C/ ALDAPA, 13-1º B",
      "location": {
        "postalCode": "48260",
        "municipality": "Ermua",
        "county": "Bizkaia",
        "municipalityId": "034",
        "countyId": "48"
      },
      "object": "pte",
      "mainEntityOfPage": "https://www.contratacion.euskadi.eus/webkpe00-kperoc/es/ac71aBusquedaRegistrosWar/empresa/03904",
      "_links": {
        "self": {
          "name": "ALCONADA BARBA, ALEJANDRO",
          "href": "https://api.euskadi.eus/procurements/companies/03904"
        }
      }
    },
    {
      "name": "JUAN PEREZ BERRUETA",
      "registrationNumber": "03924",
      "identificationNumber": "16176841K",
      "address": "PLAZA JUEGABOLOS, Nº 1. SAN VICENTE DE ARANA",
      "location": {
        "postalCode": "01117",
        "municipality": "Vitoria-Gasteiz",
        "county": "Araba/Álava",
        "municipalityId": "059",
        "countyId": "01"
      },
      "object": "pte",
      "mainEntityOfPage": "https://www.contratacion.euskadi.eus/webkpe00-kperoc/es/ac71aBusquedaRegistrosWar/empresa/03924",
      "_links": {
        "self": {
          "name": "JUAN PEREZ BERRUETA",
          "href": "https://api.euskadi.eus/procurements/companies/03924"
        }
      }
    },
    {
      "name": "AUTOCARES ALBA, S.L.",
      "registrationNumber": "03938",
      "identificationNumber": "B48732382",
      "address": "ANDER DEUNA, 15-6º DCHA.",
      "location": {
        "postalCode": "48000",
        "municipality": "Bermeo",
        "county": "Bizkaia",
        "municipalityId": "017",
        "countyId": "48"
      },
      "object": "pte",
      "mainEntityOfPage": "https://www.contratacion.euskadi.eus/webkpe00-kperoc/es/ac71aBusquedaRegistrosWar/empresa/03938",
      "_links": {
        "self": {
          "name": "AUTOCARES ALBA, S.L.",
          "href": "https://api.euskadi.eus/procurements/companies/03938"
        }
      }
    },
    {
      "name": "BARRIO GUEDE, JULIO",
      "registrationNumber": "03939",
      "identificationNumber": "15328686Z",
      "address": "SAN PELAYO 12, 8º D",
      "location": {
        "postalCode": "48260",
        "municipality": "Ermua",
        "county": "Bizkaia",
        "municipalityId": "034",
        "countyId": "48"
      },
      "object": "pte",
      "mainEntityOfPage": "https://www.contratacion.euskadi.eus/webkpe00-kperoc/es/ac71aBusquedaRegistrosWar/empresa/03939",
      "_links": {
        "self": {
          "name": "BARRIO GUEDE, JULIO",
          "href": "https://api.euskadi.eus/procurements/companies/03939"
        }
      }
    },
    {
      "name": "AUTOCARES MALLABIA SOCIEDAD LIMITADA",
      "registrationNumber": "03940",
      "identificationNumber": "B48898274",
      "address": "AVEDIDA LANDAKO 7",
      "location": {
        "postalCode": "48200",
        "municipality": "Durango",
        "county": "Bizkaia",
        "municipalityId": "027",
        "countyId": "48"
      },
      "object": "LA SOCIEDAD TIENE POR OBJETO LA ACTIVIDAD DE TRANSPORTE DE VIAJEROS Y MERCANCIAS POR CARRETERA, PUDIENDO EXPLOTAR LINEAS REGULARES Y DISCRECCIONALES DE AMBITO INTERNACIONAL, NACIONAL, COMARCAL, PROVINCIAL Y LOCAL, ASI COMO EL ESTABLECIMIENTO Y EXPLOTACION DE AGENCIAS DE VIAJES, APARCAMIENTOS, GARAJE, CENTROS DE ESTACIONES DE SERVICIOS O DE ASISTENCIA A VEHICULOS. LA COMPRA Y VENTA Y ALQUILER DE TODA CLASE DE VEHICULOS A MOTOR, CON O SIN CONDUCTOR, LA IMPORTACION, EXPORTACION, COMPRA, VENTA, ALQUILER Y COMERCIO DE VEHICULOS A MOTOR Y SUS ACCESORIOS, TANTO DE MARCAS NACIONALES COMO EXTRANJERAS ASI COMO DE FABRICACION NACIONAL O EXTRANJERA, BAJO REGIMEN DIRECTO DE COMPRA O MEDIANTE CONTRATOS DE REPRESENTACION, DISTRIBUCION O CONCESION, DESARROLLADAS DE FORMA DIRECTA O BIEN CUALESQUIERA OTRAS FORMAS ADMITIDAS EN DERECHO, COMOL APARTICIPACION EN CALIDAD DE SOCIO EN OTRAS ENTIDADES DE OBJETO IDENTICO O ANALOGO.\nQUEDAN EXCLUIDAS DEL OBJETO SOCIAL TODAS LAS ACTIVIDADES PARA CUYO EJERCICIO, LA LEY EXIJA REQUISITOS ESPECIALES QUE NO CUMPLA LA SOCIEDAD.",
      "mainEntityOfPage": "https://www.contratacion.euskadi.eus/webkpe00-kperoc/es/ac71aBusquedaRegistrosWar/empresa/03940",
      "_links": {
        "self": {
          "name": "AUTOCARES MALLABIA SOCIEDAD LIMITADA",
          "href": "https://api.euskadi.eus/procurements/companies/03940"
        }
      }
    },
    {
      "name": "GOKO TOUR SOCIEDAD LIMITADA",
      "registrationNumber": "03941",
      "identificationNumber": "B95147401",
      "address": "Bº ARREGUI POLIGONO CONDOR EDIFICIO C",
      "location": {
        "postalCode": "48340",
        "municipality": "Amorebieta-Etxano",
        "county": "Bizkaia",
        "municipalityId": "003",
        "countyId": "48"
      },
      "economicActivities": [
        {
          "id": "1.721.3",
          "name": "Transporte de viajeros por carretera",
          "_links": {
            "self": {
              "name": "Transporte de viajeros por carretera",
              "href": "https://api.euskadi.eus/procurements/companies/economic-activities/1.721.3"
            }
          }
        }
      ],
      "classification": [
        {
          "id": "S",
          "name": "Servicios",
          "groups": [
            {
              "id": "R",
              "subgroups": [
                {
                  "id": "01",
                  "name": "Transporte de viajeros por carretera",
                  "categories": [
                    {
                      "id": "5",
                      "name": "Mas de 1.200.000",
                      "_links": {
                        "self": {
                          "name": "Mas de 1.200.000",
                          "href": "https://api.euskadi.eus/procurements/companies/types/S/categories/5"
                        }
                      }
                    }
                  ],
                  "_links": {
                    "self": {
                      "name": "Transporte de viajeros por carretera",
                      "href": "https://api.euskadi.eus/procurements/companies/types/S/groups/R/subgroups/01"
                    }
                  }
                }
              ],
              "_links": {
                "self": {
                  "href": "https://api.euskadi.eus/procurements/companies/types/S/groups/R"
                }
              }
            }
          ],
          "_links": {
            "self": {
              "name": "Servicios",
              "href": "https://api.euskadi.eus/procurements/companies/types/S"
            }
          }
        }
      ],
      "object": "El servicio de transporte de viajeros y mercancías por carretera mediante autobuses, ómnibus, turismo, auto-camiones y furgonetas; recepción y envío de mercancías por cualquier clase de vía de comunicación para entregarlas en los domicilios de los interesados y agencias de viajes.",
      "mainEntityOfPage": "https://www.contratacion.euskadi.eus/webkpe00-kperoc/es/ac71aBusquedaRegistrosWar/empresa/03941",
      "_links": {
        "self": {
          "name": "GOKO TOUR SOCIEDAD LIMITADA",
          "href": "https://api.euskadi.eus/procurements/companies/03941"
        }
      }
    }
  ]
}