{
  "totalItems": 9042,
  "totalPages": 905,
  "currentPage": 753,
  "itemsOfPage": 10,
  "items": [
    {
      "name": "EXCAVACIONES SANCHEZ GRANADO, S.L.L.",
      "registrationNumber": "03473",
      "identificationNumber": "B95213161",
      "address": "C/ LEON 2, 3ºA",
      "location": {
        "postalCode": "48970",
        "municipality": "Basauri",
        "county": "Bizkaia",
        "municipalityId": "015",
        "countyId": "48"
      },
      "economicActivities": [
        {
          "id": "1.502.2",
          "name": "Consolidación y preparación de terrenos para la construcción de edificaciones",
          "_links": {
            "self": {
              "name": "Consolidación y preparación de terrenos para la construcción de edificaciones",
              "href": "https://api.euskadi.eus/procurements/companies/economic-activities/1.502.2"
            }
          }
        }
      ],
      "certificateStartDate": "2008-11-25",
      "certificateEndDate": "2009-04-30",
      "object": "LA CONSOLIDACIÓN Y PREPARACIÓN DE TERRENOS, DEMOLICIONES Y DERRIBOS EN GENERAL, PERFORACIONES, CIMENTACIONES, PAVIMENTACIONES, SISTEMAS DE AGOTAMEITNO Y DRAGADOS; LA PREPARACIÓN Y MONTAJE DE ESTRUCTURAS Y CUBIERTAS, POSTES Y TORRES METÁLICAS, CARRILES, COMPUERTAS, GRÚAS U CUALESQUIERA OTROS MEDIOS DE ESTRUCTURA, PARA LA REALIZACIÓN DE LAS ACTIVIDADES ANTERIORMENTE INDICADAS; EL MONTAJE E INSTALACIÓN DE ESTRUCTURAS METÁLICAS PARA TRANSPORTES, PUERTOS, OBRAS HIDRÁULICAS, PUENTES, POSTE Y TORRES METÁLICAS, CARRILES Y CUALESQUIERA OTROS MEDIOS Y MÁQUINAS; LA ELABORACIÓN DE OBRA EN PIEDRA NATURAL O ARTIFICIAL",
      "mainEntityOfPage": "https://www.contratacion.euskadi.eus/webkpe00-kperoc/es/ac71aBusquedaRegistrosWar/empresa/03473",
      "_links": {
        "self": {
          "name": "EXCAVACIONES SANCHEZ GRANADO, S.L.L.",
          "href": "https://api.euskadi.eus/procurements/companies/03473"
        }
      }
    },
    {
      "name": "CONSTRUCCIONES PUNTABARRENA, S.L.",
      "registrationNumber": "03474",
      "identificationNumber": "B95436101",
      "address": "C/ LEON 2, 3º A",
      "location": {
        "postalCode": "48970",
        "municipality": "Basauri",
        "county": "Bizkaia",
        "municipalityId": "015",
        "countyId": "48"
      },
      "economicActivities": [
        {
          "id": "1.501.1",
          "name": "Construcción completa, reparación y conservación de edificaciones",
          "_links": {
            "self": {
              "name": "Construcción completa, reparación y conservación de edificaciones",
              "href": "https://api.euskadi.eus/procurements/companies/economic-activities/1.501.1"
            }
          }
        }
      ],
      "certificateStartDate": "2008-11-25",
      "certificateEndDate": "2009-04-30",
      "object": "LA REPARACIÓN, REHABLILITACIÓN, CONSERVACIÓN, PROMOCIÓN, CONSTRUCCIÓN, COMPRA, VENTA, ADMINISTRACIÓN, EXPLOTACIÓN Y ARRIENDO DE TODA CLASE DE OBRAS CIVILES, TERRENOS RÚSTICOS Y URBANOS, URBANIZACIONES, VIVIENDAS, LOCALES COMERCIALES, INDUSTRIALES, INSTALACIONES URBANAS, DEPORTIVAS Y GRANJAS O EXPLOTACIONES AGROPECUARIAS, FORESTALES, GANADERAS Y PISCIFACTORÍAS. CONSOLIDACIÓN Y PREPARACIÓN DE TERRENOS, DEMOLICIONES Y DERRIBOS EN GENERAL, PERFORACIONES, CIMENTACIONES, PAVIMENTACIONES, SISTEMAS DE AGOTAMIENTO Y DRAGADOS, CANALIZACIONES, URBANIZACIONES. PREPARACIÓN Y MONTAJE DE ESTRUCTURAS Y CUBIERTAS, POSTES Y TORRES METÁLICAS, CARRILES, COMPUERTAS, GRÚAS, ETC. MONTAJE E INSTALACIÓN DE ESTRUCTURAS METÁLICAS PARA TRANSPORTES, PUERTOS, OBRAS HIDRÁULICAS, PUENTES, POSTES Y TORRES METÁLICAS, CARRILES, ETC. VENTA MAYOR Y MENOR DE MATERIALES DE CONSTRUCCIÓN, VIDRIO Y ARTÍCULOS DE INSTALACIÓN: CEMENTOS, CALES, YESOS, DERIVADOS DEL CEMENTO, HORMIGONES, ETC.: DE VIDRIO PLANO, DE ARTÍCULOS DE INSTALACIÓN (SANITARIOS ETC), CARPINTERÍA METÁLICA, CALDERERÍA GRUESA, ESTRUCTURAS METÁLICAS, MATERIALES PARA TECHADOS, REVESTIMIENTOS, AISLAMIENTOS, ETC. ",
      "mainEntityOfPage": "https://www.contratacion.euskadi.eus/webkpe00-kperoc/es/ac71aBusquedaRegistrosWar/empresa/03474",
      "_links": {
        "self": {
          "name": "CONSTRUCCIONES PUNTABARRENA, S.L.",
          "href": "https://api.euskadi.eus/procurements/companies/03474"
        }
      }
    },
    {
      "name": "ÁGORA ARQUITECTURA Y PLANEAMIENTO, S.L.",
      "registrationNumber": "01671",
      "identificationNumber": "B48290860",
      "address": "C/ PARTICULAR DE MENDIETA, Nº 1.",
      "location": {
        "postalCode": "48620",
        "municipality": "Barrika",
        "county": "Bizkaia",
        "municipalityId": "014",
        "countyId": "48"
      },
      "economicActivities": [
        {
          "id": "1.843.1",
          "name": "Servicios técnicos de ingeniería",
          "_links": {
            "self": {
              "name": "Servicios técnicos de ingeniería",
              "href": "https://api.euskadi.eus/procurements/companies/economic-activities/1.843.1"
            }
          }
        }
      ],
      "certificateStartDate": "2008-11-24",
      "certificateEndDate": "2009-05-11",
      "object": "LA ARQUITECTURA Y DEL PLANEAMIENTO EN GENERAL Y EN ESPECIAL, PROYECTOS DE ARQUITECTURA EN EL MÁS AMPLIO SENTIDO DEL TÉRMINO CIVIL, INDUSTRIAL, RELIGIOSO, MILITAR, DE INFRAESTRUCTURA DEL TRANSPORTE, ETC.; DISEÑO URBANO, PROYECTOS DE URBANIZACIÓN E INFRAESTRUCTURA, ESTUDIOS DE PLANEAMIENTO LOCAL, REGIONAL Y NACIONAL; REALIZACIÓN DE MODELOS DE TRANSPORTE, USO DEL SUELO, ECONÓMICOS Y SU EVALUACIÓN, ASÍ COMO CUALQUIER OTRA ACTIVIDAD QUE SEA PREPARATORIA, DERIVADA O COMPLEMENTARIA DE LAS ANTERIORES",
      "mainEntityOfPage": "https://www.contratacion.euskadi.eus/webkpe00-kperoc/es/ac71aBusquedaRegistrosWar/empresa/01671",
      "_links": {
        "self": {
          "name": "ÁGORA ARQUITECTURA Y PLANEAMIENTO, S.L.",
          "href": "https://api.euskadi.eus/procurements/companies/01671"
        }
      }
    },
    {
      "name": "MORAGUES AND SCADE COMMERCE, S.L.",
      "registrationNumber": "03305",
      "identificationNumber": "B95306197",
      "address": "Pº CAMPO DE VOLANTÍN, 20-3",
      "location": {
        "postalCode": "48007",
        "municipality": "Bilbao",
        "county": "Bizkaia",
        "municipalityId": "020",
        "countyId": "48"
      },
      "economicActivities": [
        {
          "id": "1.834",
          "name": "Servicios relativos a la propiedad inmobiliaria e industrial",
          "_links": {
            "self": {
              "name": "Servicios relativos a la propiedad inmobiliaria e industrial",
              "href": "https://api.euskadi.eus/procurements/companies/economic-activities/1.834"
            }
          }
        }
      ],
      "certificateStartDate": "2008-11-20",
      "certificateEndDate": "2009-04-01",
      "object": "a) COMPRAVENTA DE TODO TIPO DE BIENES INMUEBLES Y DE MOBILIARIO URBANO Y SERVICIOS EN EL ÁMBITO NACIONAL E INTERNACIONAL, INCLUYENDO TECNOLOGÍAS, PATENTES Y MARCAS.\r\nb) INTERMEDIACIÓN EN LA COMPRAVENTA DE TODO TIPO DE BIENES INMUEBLES Y SERVICIOS EN EL ÁMBITO NACIONA E INTERNACIONAL, INCLUYENDO TECNOLOGÍAS, PATENTES Y MARCAS, ASÍ COMO LA INTERMEDIACIÓN EN LOS MERCADOS ENERGÉTICOS, DE TELECOMUNICACIONES, DEL TRANSPORTE, TURÍSTICOS Y PUBLICITARIOS, EN CUALQUIERA DE LOS CASOS  BAJO LA FORMA DE MANDATOS, AGENCIA O REPRESENTACIONES MERCANTILES.\r\nc) EJECUCIÓN DE OBRA Y DE INGENIERÍA NECESARIA PARA LA POSTERIOR COMERCIALIZACIÓN.\r\nd) REALIZACIÓN DE TODO TIPO DE ACTIVIDADES CONECTADAS CON LAS ANTERIORES EN RELACIÓN AL DEPÓSITO O DISTRIBUCIÓN DE BIENES.\r\ne) DESARROLLO DE PLANES COMERCIALES PARA TERCEROS TANTO PARA ESPAÑA COMO PARA EL RESTO DEL MUNDO.\r\nf) PRESTACIÓN DE PERSONAL CUALIFICADO EN RÉGIMEN LABORAL O DE ALTA DIRECCIÓN, INCLUSO EMPLEO TEMPORAL",
      "mainEntityOfPage": "https://www.contratacion.euskadi.eus/webkpe00-kperoc/es/ac71aBusquedaRegistrosWar/empresa/03305",
      "_links": {
        "self": {
          "name": "MORAGUES AND SCADE COMMERCE, S.L.",
          "href": "https://api.euskadi.eus/procurements/companies/03305"
        }
      }
    },
    {
      "name": "CONSTRUCCIONES MONDRAGÓN, S.L.",
      "registrationNumber": "03727",
      "identificationNumber": "B48222756",
      "address": "CAMINO ERROTA, 2-LONJA",
      "location": {
        "postalCode": "48810",
        "municipality": "Alonsotegi",
        "county": "Bizkaia",
        "municipalityId": "912",
        "countyId": "48"
      },
      "economicActivities": [
        {
          "id": "1.501.1",
          "name": "Construcción completa, reparación y conservación de edificaciones",
          "_links": {
            "self": {
              "name": "Construcción completa, reparación y conservación de edificaciones",
              "href": "https://api.euskadi.eus/procurements/companies/economic-activities/1.501.1"
            }
          }
        },
        {
          "id": "1.501.2",
          "name": "Construcción completa, reparación y conservación obras civiles",
          "_links": {
            "self": {
              "name": "Construcción completa, reparación y conservación obras civiles",
              "href": "https://api.euskadi.eus/procurements/companies/economic-activities/1.501.2"
            }
          }
        }
      ],
      "certificateStartDate": "2008-11-18",
      "certificateEndDate": "2009-05-05",
      "object": "LA CONSTRUCCIÓN DE TODO TIPO DE OBRAS, TANTO PÚBLICAS COMO PRIVADAS, DE INFRAESTRUCTURA COMO VIVIENDAS",
      "mainEntityOfPage": "https://www.contratacion.euskadi.eus/webkpe00-kperoc/es/ac71aBusquedaRegistrosWar/empresa/03727",
      "_links": {
        "self": {
          "name": "CONSTRUCCIONES MONDRAGÓN, S.L.",
          "href": "https://api.euskadi.eus/procurements/companies/03727"
        }
      }
    },
    {
      "name": "MANTINAIR MANTENIMIENTO INTEGRAL, S.L.",
      "registrationNumber": "03724",
      "identificationNumber": "B20794830",
      "address": "POL. IND. BIDEBITARTE PARC. 4 PAB. 7",
      "location": {
        "postalCode": "20115",
        "municipality": "Astigarraga",
        "county": "Gipuzkoa",
        "municipalityId": "903",
        "countyId": "20"
      },
      "economicActivities": [
        {
          "id": "1.504.3",
          "name": "Instalaciones de frío, calor y acondicionamiento de aire",
          "_links": {
            "self": {
              "name": "Instalaciones de frío, calor y acondicionamiento de aire",
              "href": "https://api.euskadi.eus/procurements/companies/economic-activities/1.504.3"
            }
          }
        }
      ],
      "certificateStartDate": "2008-11-17",
      "certificateEndDate": "2009-04-15",
      "object": "LA EXPLOTACIÓN DE UN NEGOCIO DEDICADO A LA COMPRA, VENTA, ALQUILER, INSTALACIÓN, MANTENIMIENTO Y REPARACIÓN DE TODO TIPO DE SISTEMAS DE AIRE ACONDICIONADO, SUS PIEZAS Y ACCESORIOS. ASIMISMO LA COMPAÑÍA LLEVARÁ A CABO EL CONJUNTO DE ACTIVIDADES DE MANTENIMIENTO INTEGRAL DE VIVIENDA, LOCAL, PABELLÓN INDUSTRIAL O DE CUALESQUIERA INSTALACIÓN O MAQUINARIA DE CARÁCTER MECÁNICO, ELÉCTRICO, ELECTRÓNICO, MAGNÉTICO, HIDRÁULICO Y SIMILARES",
      "mainEntityOfPage": "https://www.contratacion.euskadi.eus/webkpe00-kperoc/es/ac71aBusquedaRegistrosWar/empresa/03724",
      "_links": {
        "self": {
          "name": "MANTINAIR MANTENIMIENTO INTEGRAL, S.L.",
          "href": "https://api.euskadi.eus/procurements/companies/03724"
        }
      }
    },
    {
      "name": "LAGUNGRAF KOOP. E.",
      "registrationNumber": "02911",
      "identificationNumber": "F20833471",
      "address": "TXATXAMENDI, 15-17-POLIG. IND. 110",
      "location": {
        "postalCode": "20100",
        "municipality": "Lezo",
        "county": "Gipuzkoa",
        "municipalityId": "053",
        "countyId": "20"
      },
      "economicActivities": [
        {
          "id": "1.474.1",
          "name": "Impresión de textos o imágenes por cualquier procedimiento",
          "_links": {
            "self": {
              "name": "Impresión de textos o imágenes por cualquier procedimiento",
              "href": "https://api.euskadi.eus/procurements/companies/economic-activities/1.474.1"
            }
          }
        }
      ],
      "certificateStartDate": "2008-11-14",
      "certificateEndDate": "2009-04-29",
      "object": "LA PRESTACIÓN DE SERVICIOS INTEGRALES A SUS CLIENTES, EN EL SECTOR DE ARTES GRÁFICAS, DE DISEÑO GRÁFICO, MAQUETACIÓN, AUTOEDICIÓN, MONTAJE, PREIMPRESIÓN, IMPRESIÓN, MANIPULACIÓN Y ENCUADERNACIÓN",
      "mainEntityOfPage": "https://www.contratacion.euskadi.eus/webkpe00-kperoc/es/ac71aBusquedaRegistrosWar/empresa/02911",
      "_links": {
        "self": {
          "name": "LAGUNGRAF KOOP. E.",
          "href": "https://api.euskadi.eus/procurements/companies/02911"
        }
      }
    },
    {
      "name": "SIEMENS MEDICAL SOLUTIONS DIAGNOSTICS EUROPE LIMITED, SUCURSAL EN ESPAÑA",
      "registrationNumber": "02611",
      "identificationNumber": "N0071488A",
      "address": "C/ LLUIS MUNTADAS 4",
      "location": {
        "postalCode": "08940",
        "municipality": "Cornellà de Llobregat",
        "county": "Barcelona",
        "municipalityId": "073",
        "countyId": "08"
      },
      "economicActivities": [
        {
          "id": "1.614.1",
          "name": "Venta al por mayor de productos farmacéuticos y medicamentos",
          "_links": {
            "self": {
              "name": "Venta al por mayor de productos farmacéuticos y medicamentos",
              "href": "https://api.euskadi.eus/procurements/companies/economic-activities/1.614.1"
            }
          }
        },
        {
          "id": "1.619.2",
          "name": "Venta al por mayor de aparatos e instrumentos médicos, ortopédicos, ópticos",
          "_links": {
            "self": {
              "name": "Venta al por mayor de aparatos e instrumentos médicos, ortopédicos, ópticos",
              "href": "https://api.euskadi.eus/procurements/companies/economic-activities/1.619.2"
            }
          }
        }
      ],
      "certificateStartDate": "2008-11-13",
      "certificateEndDate": "2009-05-04",
      "object": "ACTUAR EN EL SECTOR DE LA ATENCIÓN SANITARIA EN UN ÁMBITO MUNDIAL Y, EN CONCRETO, EN EUROPA, Y LLEVAR LOS NEGOCIOS DE FACTURACIÓN DE CLIENTES, GESTIÓN DE CRÉDITOS Y ASISTENCIA CONTABLE EN LA PRESTACIÓN DE BIENES Y SERVICIOS Y DE FORMACIÓN A CLIENTES DEL SECTOR DE LA ATENCIÓN SANITARIA; Y GESTIONAR LOS TRÁMITES DE ALMACENAMIENTO Y DISTRIBUCIÓN EN RELACIÓN CON SUS EXISTENCIAS, Y PRESTAR DICHOS SERVICIOS A SU SOCIEDAD MATRIZ, A SUS EMPRESAS FILIALES Y A CUALQUIER FILIAL DE SU SOCIEDAD MATRIZ.\r\nREALIZAR CUALQUIER OTRA ACTIVIDAD, SALVO LA EMISIÓN DE PÓLIZAS DE SEGUROS, QUE LE PUDIERA PARECER A LA SOCIEDAD  SUSCEPTIBLE DE SER OPORTUNAMENTE REALIZADA EN RELACIÓN CON LO ANTERIOR, O QUE CALCULARA QUE, DIRECTA O INDIRECTAMENTE, PUDIERA  MEJORAR EL VALOR DE CUALQUIERA DE LOS BIENES O DERECHOS DE LA SOCIEDAD O RENTABILIZARLOS.\r\nINVERTIR DINERO DE LA SOCIEDAD EN LAS INVERSIONES Y DE LA FORMA QUE OCASIONALMENTE SE DETERMINE, Y TENER, VENDER O NEGOCIAR CON DICHAS INVERSIONES Y, EN GENERAL, COMPRAR, TOMAR EN ARRENDAMIENTO O INTERCAMBIO O ADQUIRIR DE OTRA FORMA BIENES MUEBLES O INMUEBLES Y DERECHOS O PRIVILEGIOS.\r\nSUSCRIBIR, TOMAR, COMPRAR O ADQUIRIR DE OTRA FORMA Y TENER ACCIONES U OTROS INTERESES O TÍTULOS EN CUALQUIER OTRA SOCIEDAD CUYOS OBJETOS SEAN TOTAL O PARCIALMENTE SIMILARES A LOS DE ÉSTA O QUE REALICE ACTIVIDADES SUSCEPTIBLES DE SER REALIZADAS DE MANERA QUE, DIRECTA O INDIRECTAMENTE, BENEFICIEN A ESTA SOCIEDAD. \r\nEXPLOTAR Y RENTABILIZAR TERRENOS ADQUIRIDOS POR LA SOCIEDAD O EN LOS QUE ÉSTA TENGA INTERESES Y, EN CONCRETO, MEDIANTE SU DISPOSICIÓN Y PREPARACIÓN PARA CONSTRUCCIÓN, Y MEDIANTE LA EDIFICACIÓN, ALTERACIÓN, DERRIBO, DECORACIÓN, CONSERVACIÓN, ARREGLO Y MEJORA DE EDIFICIOS E INSTALACIONES,  Y LA PLANTACIÓN, ASFALTADO, DRENAJE, CULTIVO COMO PASTO O  LABRANZA, ARRIENDO DE CONSTRUCCIÓN O CONTRATO DE CONSTRUCCIÓN Y MEDIANTE EL ADELANTO DE DINERO PARA CONTRATOS Y ACUERDOS DE TODA CLASE Y EL OTORGAMIENTO DE LOS MISMOS CON CONSTRUCTORES, ARRENDATARIOS U OTROS.\r\nADQUIRIR Y ASUMIR LA TOTALIDAD  O CUALQUER PARTE DE LOS NEGOCIOS, BIENES, FONDO DE COMERCIO Y PATRIMONIO Y DE CUALQUIER PERSONA FÍSICA O JURÍDICA QUE REALICE O SE PROPONGA REALIZAR CUALQUIERA DE LAS ACTIVIDADES QUE LA SOCIEDAD ESTÁ AUTORIZADA A REALIZAR O PUEDAN SER OPORTUNAMENTE REALIZADAS EN RELACIÓN CON LAS MISMAS, O SE CALCULE FQUE PUEDAN BENEFICIAR DIRECTA O INDIRECTAMENTE A LA SOCIEDAD.\r\nEMPLEAR LOS FONDOS DE LA SOCIEDAD EN EL DESARROLLO Y AMPLIACIÓN DE LAS ACTIVIDADES DE LA MISMA Y DE TODAS O CUALQUIERA DE SUS EMPRESAS FILIALES O ASOCIADAS Y DE CUALQUIER OTRA SOCIEDAD EXISTENTE AHORA  O DE FORMACIÓN FUTURA Y DEDICADA A ACTIVIDADES ANÁLOGAS A LAS DE LA SOCIEDAD O CUALQUIERA DE SUS EMPRESAS FILIALES O ASOCIADAS O DE CUALQUIER OTRO SECTOR COMPLEMENTARIO O QUE  SE PUEDAN REALIZAR OPORTUNAMENTE EN RELACIÓN CON ELLAS.\r\nPRESTAR DINERO A LAS PERSONAS FÍSICAS O JURÍDICAS, CON O SIN GARANTÍAS, Y EN LAS CONDICIONES QUE SE CONSIDEREN OPORTUNAS, INCLUYENDO LA PRESTACIÓN DE ACUERDOS DE ARRENDAMIENTO FINANCIERO A LOS CLIENTES.\r\nTOMAR EN PRÉSTAMO O RECAUDAR DE OTRA FORMA DINERO O PROCURAR  CUALQUIER OTRO MEDIO DE FINANCIACIÓN, MEDIANTE O NO LA EMISIÓN DE ACCIONES U OTROS TÍTULOS, Y CELEBRAR O EXTENDER ACUERDOS DE PERMUTA Y COBERTURA DE INTERESES  Y DIVISAS, ACUERDOS SOBRE TIPOS DE INTERÉS FUTUROS, CONTRATOS U OPCIONES  DE FUTUROS SOBRE DIVISAS O INTERESES   Y OTRAS FORMAS DE INSTRUMENTOS FINANCIEROS Y COMPRAR, AMORTIZAR O SALDAR CUALQUIERA DE LOS ANTERIORES.\r\n\r\nGARANTIZAR EL PAGO DE EFECTIVO O DE OTRAS OBLIGACIONES FINANCIERAS O DE CMPLIMIENTO DE LA MANERA QUE LA SOCIEDAD CONSIDERE OPORTUNA, MEDIANTE LA EMISIÓN DO NO DE OBLIGACIONES O DE ACCIONES NO REDIMIBLES, PERPETUAS U OTRAS, SOBRE LA TOTALIDAD O PARTE DE LOS BIENES PRESENTES  O FUTUROS DE LA SOCIEDAD, INCLUIDO SU CAPITAL NO DESEMBOLSADO.\r\n\r\nADOPTAR LAS MEDIDAS NECESARIAS PARA DAR A CONOCER LA SOCIEDAD Y SUS PRODUCTOS Y SERVICIOS SEGÚN SE CONSIDERE OPORTUNO.\r\n\r\nVENDER, MEJORAR, ADMINISTRAR, EXPLOTAR, INTERCAMBIAR, ARRENDAR, HIPOTECAR, DAR LICENCIA, ENAJENAR, RENTABILIZAR O NEGOCIAR DE OTRA FORMA CON LA TOTALIDAD O PARTE DE LA PROPIEDAD, EMPRESA, DERECHOS O PATRIMONIO DE LA SOCIEDAD Y POR LA CONTRAPRESTAACIÓN  QUE LA SOCIEDAD CONSIDERE OPORTUNA. EN GENERAL, COMPRAR, TOMAR EN ARRENDAMIENTO O EN INTERCAMBIO O ADQUIRIR DE OTRA FORMA BIENES MUEBLES O INMUEBLES        Y DERECHOS O PRIVILEGIOS.\r\n\r\nADQUIRIR  Y LLEVAR  LAS ACTIVIDADES DE UNA FILIAL O UNA SOCIEDAD MATRIZ DE LA SOCIEDAD U OTRA FILIAL DE UNA SOCIEDAD MATRIZ DE LA SOCIEDAD.\r\n\r\nPRESTAR SERVICIOS DE TODA ÍNDOLE, INCLUYENDO  ACTIVIDADES DE ASESORAMIENTO, CONSLUTORÍA, CORRETAJE Y REPRESENTACIÓN DE CUALQUIER CLASE.\r\n\r\nGARANTIZAR, CONCEDER INDEMNIZACIONES AL RESPECTO, RESPALDAR, O ASEGURAR, TANTO  MEDIANTE OBLIGACIÓN PERSONAL COMO MEDIANTE HIPOTECA O GRAVAMEN SOBRE LA TOTALIDAD O CUALQUIER PARTE DE LA EMPRESA, BIENES O PATRIMONIO (TANTO PRESENTES COMO FUTUROS) Y CAPITAL NO DESEMBOLSADO DE LA SOCIEDAD, O MEDIANTE AMBOS MÉTODOS, EL CUMPLIMIENTO DE LOS CONTRATOS U OBLIGACIONES Y LA DEVOLUCIÓN O EL PAGO DE LOS MONTANTES PRINCIPALES Y DE LAS PRIMAS, INTERESES Y DIVIDENDOS CORRESPONDIENTES A TÍTULOS     DE  CUALQUIER PERSONA FÍSICAA O JURÍDICA, INCLUYENDO (SIN PERJUICIO DE LA GENERALIDAD DE LO ANTERIOR) TODA SOCIEDAD  QFUE SEA A LA SAZÓN LA SOCIEDAD MATRIZ DE LA SOCIEDAD SEGÚN SE DEFINE EN EL ARTÍCULO 155 DE LA lEY DE SsOCEIDADES DE  1963, U OTRA FILIAL SEGÚN SE DEFINE EN DICHO ARTÍCULO DE LA SOCIEDAD MATRIZ DE LA SOCIEDAD O EMPRESA ASOCIADA COMERCIALMENTE DE OTRA FORMA CON LA SOCIEDAD, INDEPENDIENTEMENTE DEL HECHO DE QUE LA SOCIEDAD NO RECIBA NINGUNA CONTRAPRESTACIÓN, VENTAJA O BENEFICIO, DIRECTO O INDIRECTO, DE LA CONCESIÓN  DE  DICHA GARANTÍA U OTRO ACUERDO O TRANSACCIÓN AQUÍ CONTEMPLADO.\r\n\r\nFUSIONARSE CON CUALQUIER OTRA SOCIEDAD.\r\n\r\nSOLICITAR, COMPRAR O DE OTRA FORMA ADQUIRIR PATENTES, PATENTES DE INVERSIÓN, LICENCIAS, MARCAS COMERCIALES, TECNOLOGÍA Y CONOCIMIENTOS PRÁCTICOS Y CONCEPTOS ANÁLOGOS ACOMPAÑADOS DE UN DERECHO EXCLUSIVO, NO EXCLUSIVO O LIMITADO DE USO, O SECRETOS U OTRAS INFORMACIONES RELATIVAS A INVENCIONES O TECNOLOGÍAS QUE PAREZCAN SUSCEPTIBLES DE SER UTILIZADAS PARA CUALQUIERA DE LOS OBJETOS DE LA SOCIEDAD  O CUYA ADQUISICIÓN PAREZCA CALCULADA PARA BENEFICIAR DIRECTA O INDIRECTAMENTE A LA SOCIEDAD; Y UTILIZAR, EJERCER, EXPLOTAR U OTORGAR LICENCIAS AL RESPECTO O RENTABILIZAR DE OTRA FORMA LOS DERECHOS DE PROPIEDAD O DE INFORMACIÓN ASÍ ADQUIRIDOS.\r\n\r\nOTORGAR CONTRATOS DE ASOCIACIÓN O CUALQUIER OTRO ACUERDO DE PARTICIPACIÓN DE BENEFICIOS, UNIÓN DE INTERESES, COOPERACIÓN, SOCIEDAD MIXTA U OTRO CON CUALQUIER PERSONA FÍSICA O JURÍDICA, O EMPRENDER CUALQUIER NEGOCIO O TRANSACCIÓN SUSCEPTIBLE DE SER LLEVADO SUJETO A LO ANTERIOR EN BENEFICIO DIRECTO O INDIRECTO DE LA SOCIEDAD.\r\n\r\nCONCEDER PENSIONES O GRATIFICACIONES (INCLUYENDO INDEMNIZACIONES POR FALLECIMIENTO) A DIRECTIVOS O EMPLEADOS ANTIGUOS O ACTUALES, DE LA SOCIEDAD O A SUS PREDECESORES EN EL CARGO O A LAS RELACIONES, FAMILIARES O PERSONAS DEPENDIENTES DE DICHAS PERSONAS, Y ESTABLECER  O CONTRIBUIR EN PENSIONES CONTRIBUTIVAS O NO CONTRIBUTIVAS O EN FONDOS DE PENSIONES, ASOCIACIONES, INSTITUCIONES, CLUBES, PLANES DE CONSTRUCCIÓN O DE VIVIENDA, FONDOS Y FUNDACIONES QUE SE CALCULE QUE PUEDEN BENEFICIAR A LAS PERSONAS REFERIDAS, O FAVORECER  DE OTRA FORMA A LOS INTERESES DE LA SOCIEDAD O DE SUS MIEMBROS.\r\n\r\nPROMOCIONAR A CUALQUIER  SOCIEDAD O SOCIEDADES A EFECTOS DE ADQUIRIR LA TOTALIDAD O CUALQUIER PARTE DE SUS BIENES Y DEUDAS O CON CUALQUIER OTRO FIN QUE PUEDA PARECER DIRECTA O INDIRECTAMENTE CALCULADO PARA BENEFICIAR A ESTA SOCIEDAD.\r\n\r\nREMUNERAR A CUALQUIER PERSONA FÍSICA O JURÍDICA POR LOS SERVICIOS PRESTADOS O QUE HAYA DE PRESTAR EN LA COLOCACIÓN O ASISTENCIA EN LA COLOCACIÓN O EN LA GARANTÍA DE LA COLOCACIÓN DE CUALQUIERA DE LAS ACCIONES DEL CAPITAL DE LA SOCIEDAD O DE OBLIGACIONES, ACCIONES NO REDIMIBLES U OTROS TÍTULOS DE LA SOCIEDAD, O EN LA FORMACIÓN O PROMOCIÓN DE LA SOCIEDAD O LA GESTIÓN DE SUS ACTIVIDADES O ASPECTOS AFINES.\r\n\r\nGIRAR, LIBRAR, ACEPTAR, ENDOSAR, DESCONTAR, EJECUTAR Y EMITIR PAGARÉS, LETRAS DE CAMBIO, CONOCIMIENTOS DE EMBARQUE, GARANTÍAS, OBLIGACIONES, CARTAS DE CRÉDITO Y OTRS INSTRUMENTOS NEGOCIABLES O TRANSFERIBLES.\r\n\r\nASUMIR Y FORMALIZAR CUALQUIER FIDEICOMISO CUYA EMPRESA PUEDA PARECER DESEABLE, GRATUITAMENTE O DE OTRA FORMA.\r\n\r\nPROCURAR LA INSCRIPCIÓN O EL RECONOCIMIENTO DE LA SOCIEDAD EN CUALQUIER PAÍS O LUGAR.\r\n\r\nPROMOVER LA LIBERTAD DE CONTRATO Y CONTRARRESTAR Y DISUADIR DE INTERFERENCIAS AL RESPECTO, UNIRSE A CUALQUIER FEDERACIÓN, UNIÓN O ASOCIACIÓN PROFESIONAL O COMERCIAL, CON VISTAS A PROMOCIONAR LAS ACTIVIDADES DE LA SOCIEDAD Y PROCURAR SU SALVAGUARDA.\r\n\r\nREALIZAR TODAS O CUALESQUIERA DE LAS COSAS ARRIBA MENCIONADAS EN CUALQUIER PARTE DEL MUNDO COMO PRINCIPAL, APODERADO, CONTRATISTA, FIDEICOMISARIO O DE OTRA FORMA Y  MEDIANTE O A TRAVÉS DE FIDEICOMISARIOS,  REPRESENTANTES U OTROS Y DE POR SÍ O CONJUNTAMENTE CON OTROS.\r\n\r\nDISTRIBUIR CUALQUIERA DE LOS BIENES DE LA SOCIEDAD EN METÁLICO ENTRE LOS SOCIOS.\r\n\r\nHACER CUANTAS OTRAS COSAS LA SOCIEDAD CONSIDERE  RELACIONADAS O CONDUCENTES  A LA CONSECUCIÓN DE TODOS O  CUALQUIERA DE LOS OBJETOS ARRIBA MENCIONADOS.",
      "mainEntityOfPage": "https://www.contratacion.euskadi.eus/webkpe00-kperoc/es/ac71aBusquedaRegistrosWar/empresa/02611",
      "_links": {
        "self": {
          "name": "SIEMENS MEDICAL SOLUTIONS DIAGNOSTICS EUROPE LIMITED, SUCURSAL EN ESPAÑA",
          "href": "https://api.euskadi.eus/procurements/companies/02611"
        }
      }
    },
    {
      "name": "AUTOBUSES RESPALDIZA BILBAO S.L.",
      "registrationNumber": "03721",
      "identificationNumber": "B01002948",
      "address": "BARRIO PADURA, N1 ",
      "location": {
        "postalCode": "48830",
        "municipality": "Güeñes",
        "county": "Bizkaia",
        "municipalityId": "045",
        "countyId": "48"
      },
      "economicActivities": [
        {
          "id": "1.721.3",
          "name": "Transporte de viajeros por carretera",
          "_links": {
            "self": {
              "name": "Transporte de viajeros por carretera",
              "href": "https://api.euskadi.eus/procurements/companies/economic-activities/1.721.3"
            }
          }
        },
        {
          "id": "1.861.2",
          "name": "Alquiler de locales industriales y otros alquileres n.c.o.p",
          "_links": {
            "self": {
              "name": "Alquiler de locales industriales y otros alquileres n.c.o.p",
              "href": "https://api.euskadi.eus/procurements/companies/economic-activities/1.861.2"
            }
          }
        }
      ],
      "certificateStartDate": "2008-11-13",
      "certificateEndDate": "2009-03-26",
      "object": "SE DEDICA A TRANSPORTE DE VIAJEROS Y MERCANCIAS EN TODO EL TERRITORIO NACIONAL",
      "mainEntityOfPage": "https://www.contratacion.euskadi.eus/webkpe00-kperoc/es/ac71aBusquedaRegistrosWar/empresa/03721",
      "_links": {
        "self": {
          "name": "AUTOBUSES RESPALDIZA BILBAO S.L.",
          "href": "https://api.euskadi.eus/procurements/companies/03721"
        }
      }
    },
    {
      "name": "MARU SARASOLA COACHING&LEADERSHIP, S.L.",
      "registrationNumber": "03597",
      "identificationNumber": "B95516241",
      "address": "ALDA. SAN MAMES, 16 - 5 DCHA",
      "location": {
        "postalCode": "48010",
        "municipality": "Bilbao",
        "county": "Bizkaia",
        "municipalityId": "020",
        "countyId": "48"
      },
      "economicActivities": [
        {
          "id": "1.847",
          "name": "Servicios de consultoría",
          "_links": {
            "self": {
              "name": "Servicios de consultoría",
              "href": "https://api.euskadi.eus/procurements/companies/economic-activities/1.847"
            }
          }
        }
      ],
      "certificateStartDate": "2008-11-11",
      "certificateEndDate": "2009-04-23",
      "object": "LA ACTIVIDAD DE CONSULTORÍA, FORMACIÓN, ASESORAMIENTO Y ORGANIZACIÓN DE TODO TIPO DE GRUPO HUMANO, ANALIZANDO Y MEJORANDO A LAS PERSONAS Y EQUIPOS EN SUS TRABAJOS; EL DISEÑO, PUESTA EN MARCHA, GESTIÓN, COORDINACIÓN Y EVALUACIÓN DE POLÍTICAS DE GÉNERO, CONSULTORÍA Y COACHING, INDIVIDUAL Y EN GRUPO",
      "mainEntityOfPage": "https://www.contratacion.euskadi.eus/webkpe00-kperoc/es/ac71aBusquedaRegistrosWar/empresa/03597",
      "_links": {
        "self": {
          "name": "MARU SARASOLA COACHING&LEADERSHIP, S.L.",
          "href": "https://api.euskadi.eus/procurements/companies/03597"
        }
      }
    }
  ]
}