{
  "totalItems": 9042,
  "totalPages": 905,
  "currentPage": 162,
  "itemsOfPage": 10,
  "items": [
    {
      "name": "SOIL ARQUITECTURA DEL PAISAJE, S COOP. PEQUEÑA",
      "registrationNumber": "09044",
      "identificationNumber": "F95987079",
      "address": "SAN MARTIN 21",
      "location": {
        "postalCode": "48010",
        "municipality": "Bilbao",
        "county": "Bizkaia",
        "municipalityId": "020",
        "countyId": "48"
      },
      "economicActivities": [
        {
          "id": "1.843.2",
          "name": "Servicios técnicos de arquitectura y urbanismo",
          "_links": {
            "self": {
              "name": "Servicios técnicos de arquitectura y urbanismo",
              "href": "https://api.euskadi.eus/procurements/companies/economic-activities/1.843.2"
            }
          }
        }
      ],
      "certificateStartDate": "2025-11-13",
      "certificateEndDate": "2026-04-24",
      "object": "LA PRESTACIÓN DE SERVICIOS DE ASESORÍA, CONSULTORÍA Y FORMACIÓN EN EL ÁMBITO DE LA JARDINERÍA, PAISAJISMO Y URBANISMO, ASÍ COMO EN LA CONSTRUCCIÓN, ARQUITECTURA Y COORDINACIÓN DE GREMIOS, HACIENDO CONSTAR QUE PARA EL EJERCICIO DE SU ACTIVIDAD LABORAL DENTRO DE LA COOPERATIVA NO NECESITAN ESTAR COLEGIADOS NI PERTENECER A NINGÚN COLEGIO PROFESIONAL.",
      "mainEntityOfPage": "https://www.contratacion.euskadi.eus/webkpe00-kperoc/es/ac71aBusquedaRegistrosWar/empresa/09044",
      "_links": {
        "self": {
          "name": "SOIL ARQUITECTURA DEL PAISAJE, S COOP. PEQUEÑA",
          "href": "https://api.euskadi.eus/procurements/companies/09044"
        }
      }
    },
    {
      "name": "CMS, INSTRUMENTACION Y EQUIPAMIENTO, S.L",
      "registrationNumber": "06456",
      "identificationNumber": "B95226270",
      "address": "C/Sabino Aranan, 66 local H",
      "location": {
        "postalCode": "48640",
        "municipality": "Berango",
        "county": "Bizkaia",
        "municipalityId": "016",
        "countyId": "48"
      },
      "economicActivities": [
        {
          "id": "1.612.1",
          "name": "Venta al por mayor de toda clase de productos alimenticios, bebidas, tabaco",
          "_links": {
            "self": {
              "name": "Venta al por mayor de toda clase de productos alimenticios, bebidas, tabaco",
              "href": "https://api.euskadi.eus/procurements/companies/economic-activities/1.612.1"
            }
          }
        },
        {
          "id": "1.619.2",
          "name": "Venta al por mayor de aparatos e instrumentos médicos, ortopédicos, ópticos",
          "_links": {
            "self": {
              "name": "Venta al por mayor de aparatos e instrumentos médicos, ortopédicos, ópticos",
              "href": "https://api.euskadi.eus/procurements/companies/economic-activities/1.619.2"
            }
          }
        },
        {
          "id": "1.663.9",
          "name": "Venta al por menor de otra clase de mercancías fuera de establecimiento",
          "_links": {
            "self": {
              "name": "Venta al por menor de otra clase de mercancías fuera de establecimiento",
              "href": "https://api.euskadi.eus/procurements/companies/economic-activities/1.663.9"
            }
          }
        }
      ],
      "certificateStartDate": "2025-11-13",
      "certificateEndDate": "2026-05-06",
      "object": "EL COMERCIO, EXPORTACIÓN E IMPORTACIÓN DE TODO TIPO DE INSTRUMENTAL Y EQUIPAMIENTO ORTOPÉDICO, QUIRÚRGICO, SANITARIO Y DE LABORATORIO. LAS ACTIVIDADES ENUMERADAS PODRÁN TAMBIÉN SER DESARROLLADAS POR LA SOCIEDAD, TOTAL O PARCIALMENTE, DE MODO INDIRECTO, MEDIANTE LA PARTICIPACIÓN EN OTRAS SOCIEDADES CON OBJETO ANÁLOGO",
      "mainEntityOfPage": "https://www.contratacion.euskadi.eus/webkpe00-kperoc/es/ac71aBusquedaRegistrosWar/empresa/06456",
      "_links": {
        "self": {
          "name": "CMS, INSTRUMENTACION Y EQUIPAMIENTO, S.L",
          "href": "https://api.euskadi.eus/procurements/companies/06456"
        }
      }
    },
    {
      "name": "CANORLAN, S.L.",
      "registrationNumber": "07394",
      "identificationNumber": "B20106027",
      "address": "GUDARI KALEA, 1 BAJO",
      "location": {
        "postalCode": "20400",
        "municipality": "Tolosa",
        "county": "Gipuzkoa",
        "municipalityId": "071",
        "countyId": "20"
      },
      "economicActivities": [
        {
          "id": "1.691.9",
          "name": "Reparación de otros bienes de consumo n.c.o.p",
          "_links": {
            "self": {
              "name": "Reparación de otros bienes de consumo n.c.o.p",
              "href": "https://api.euskadi.eus/procurements/companies/economic-activities/1.691.9"
            }
          }
        }
      ],
      "certificateStartDate": "2025-11-13",
      "certificateEndDate": "2026-05-05",
      "object": "LA COMERCIALIZACIÓN Y VENTA AL POR MENOR DE EQUIPOS DE OFICINA",
      "mainEntityOfPage": "https://www.contratacion.euskadi.eus/webkpe00-kperoc/es/ac71aBusquedaRegistrosWar/empresa/07394",
      "_links": {
        "self": {
          "name": "CANORLAN, S.L.",
          "href": "https://api.euskadi.eus/procurements/companies/07394"
        }
      }
    },
    {
      "name": "LIMPIEZAS INDUSTRIALES URBASA, S.L.",
      "registrationNumber": "03526",
      "identificationNumber": "B48293831",
      "address": "POLIGONO INDUSTRIAL GALARTZA",
      "location": {
        "postalCode": "48277",
        "municipality": "Etxebarria",
        "county": "Bizkaia",
        "municipalityId": "030",
        "countyId": "48"
      },
      "economicActivities": [
        {
          "id": "1.255.1",
          "name": "Fabricación de jabones comunes, detergentes y lejías",
          "_links": {
            "self": {
              "name": "Fabricación de jabones comunes, detergentes y lejías",
              "href": "https://api.euskadi.eus/procurements/companies/economic-activities/1.255.1"
            }
          }
        },
        {
          "id": "1.652.2",
          "name": "Venta al por menor de productos de droguería y productos para decoración",
          "_links": {
            "self": {
              "name": "Venta al por menor de productos de droguería y productos para decoración",
              "href": "https://api.euskadi.eus/procurements/companies/economic-activities/1.652.2"
            }
          }
        },
        {
          "id": "1.921.1",
          "name": "Servicios de limpieza en calles, vías públicas y jardines",
          "_links": {
            "self": {
              "name": "Servicios de limpieza en calles, vías públicas y jardines",
              "href": "https://api.euskadi.eus/procurements/companies/economic-activities/1.921.1"
            }
          }
        },
        {
          "id": "1.921.2",
          "name": "Servicios de recogida de basuras y desechos",
          "_links": {
            "self": {
              "name": "Servicios de recogida de basuras y desechos",
              "href": "https://api.euskadi.eus/procurements/companies/economic-activities/1.921.2"
            }
          }
        },
        {
          "id": "1.922",
          "name": "Servicios de limpieza",
          "_links": {
            "self": {
              "name": "Servicios de limpieza",
              "href": "https://api.euskadi.eus/procurements/companies/economic-activities/1.922"
            }
          }
        }
      ],
      "certificateStartDate": "2025-11-13",
      "certificateEndDate": "2026-05-07",
      "classification": [
        {
          "id": "S",
          "name": "Servicios",
          "groups": [
            {
              "id": "U",
              "subgroups": [
                {
                  "id": "01",
                  "name": "Servicios de limpieza ",
                  "categories": [
                    {
                      "id": "4",
                      "name": "Desde 600.001 Hasta 1.1200.000",
                      "_links": {
                        "self": {
                          "name": "Desde 600.001 Hasta 1.1200.000",
                          "href": "https://api.euskadi.eus/procurements/companies/types/S/categories/4"
                        }
                      }
                    }
                  ],
                  "_links": {
                    "self": {
                      "name": "Servicios de limpieza ",
                      "href": "https://api.euskadi.eus/procurements/companies/types/S/groups/U/subgroups/01"
                    }
                  }
                }
              ],
              "_links": {
                "self": {
                  "href": "https://api.euskadi.eus/procurements/companies/types/S/groups/U"
                }
              }
            }
          ],
          "_links": {
            "self": {
              "name": "Servicios",
              "href": "https://api.euskadi.eus/procurements/companies/types/S"
            }
          }
        }
      ],
      "object": "LA EJECUCIÓN DE TODA CLASE DE SERVICIOS DE LIMPIEZA DE EDIFICACIONES, REVESTIMIENTOS DE OBRAS Y, EN GENERAL TODA ACTIVIDAD INDUSTRIAL, COMERCIAL O DE SERVICIOS RELACIONADA DIRECTA O INDIRECTAMENTE CON EL OBJETO SOCIAL. LA SOCIEDAD TIENE PLENA CAPACIDAD JURÍDICA EN EL DESARROLLO DE SU OBJETO SOCIAL, PUDIENDO REALIZAR ACTAS Y FORMALIZAR CONTRATOS DE CUALQUIER NATURALEZA, INCLUSO NEGOCIOS DE ADQUISICIÓN Y DISPOSICIÓN DE BIENES MUEBLES E INMUEBLES. ASIMISMO LA PRESTACIÓN DE SERVICIOS DE LIMPIEZA DE CALLES, VÍAS PÚBLICAS, JARDINES Y CUALESQUIERA OTRO SECTOR PÚBLICO Y LA RECOGIDA Y TRANSPORTE DE BASURAS Y DESECHOS.",
      "mainEntityOfPage": "https://www.contratacion.euskadi.eus/webkpe00-kperoc/es/ac71aBusquedaRegistrosWar/empresa/03526",
      "_links": {
        "self": {
          "name": "LIMPIEZAS INDUSTRIALES URBASA, S.L.",
          "href": "https://api.euskadi.eus/procurements/companies/03526"
        }
      }
    },
    {
      "name": "COMPAÑIA DE ASISTENCIAS GENERALES, S.A.",
      "registrationNumber": "07048",
      "identificationNumber": "A48142582",
      "address": "ALAMEDA MAZARREDO, 47-5 PLTA",
      "location": {
        "postalCode": "48009",
        "municipality": "Bilbao",
        "county": "Bizkaia",
        "municipalityId": "020",
        "countyId": "48"
      },
      "economicActivities": [
        {
          "id": "1.501.3",
          "name": "Albañilería y pequeños trabajos de construcción en general",
          "_links": {
            "self": {
              "name": "Albañilería y pequeños trabajos de construcción en general",
              "href": "https://api.euskadi.eus/procurements/companies/economic-activities/1.501.3"
            }
          }
        },
        {
          "id": "1.849.9",
          "name": "Otros servicios independientes n.c.o.p",
          "_links": {
            "self": {
              "name": "Otros servicios independientes n.c.o.p",
              "href": "https://api.euskadi.eus/procurements/companies/economic-activities/1.849.9"
            }
          }
        },
        {
          "id": "1.999",
          "name": "Otros servicios n.c.o.p",
          "_links": {
            "self": {
              "name": "Otros servicios n.c.o.p",
              "href": "https://api.euskadi.eus/procurements/companies/economic-activities/1.999"
            }
          }
        }
      ],
      "certificateStartDate": "2025-11-13",
      "certificateEndDate": "2026-05-06",
      "object": "PRESTACION DE SERVICIOS DE ASISTENCIA A ABONADOS PARTICULARES E INDUSTRIALES, PARA EL MANTENIMIENTO, REPARACIONES, REFORMAS, PROYECTOS, VIGILANCIA, SEGURIDAD, ETC., DE  SUS VIVIENDAS, LOCALES COMERCIALES O INDUSTRIALES, ASÍ COMO LA ASISTENCIA PERSONAL A LA FAMILIA O NEGOCIO Y LA VENTA A LOS MISMOS DE PRODUCTOS NECESARIOS O ÚTILES EN EL LUGAR Y EN GENERAL, TODO LO QUE SEA ANTECEDENTE, AUXILIAR, ACCESORIO, CONSECUENCIA O SE RELACIONE DIRECTA O INDIRECTAMENTE CON LA FINALIDAD EXPRESADA",
      "mainEntityOfPage": "https://www.contratacion.euskadi.eus/webkpe00-kperoc/es/ac71aBusquedaRegistrosWar/empresa/07048",
      "_links": {
        "self": {
          "name": "COMPAÑIA DE ASISTENCIAS GENERALES, S.A.",
          "href": "https://api.euskadi.eus/procurements/companies/07048"
        }
      }
    },
    {
      "name": "REKREANDO, S.L.",
      "registrationNumber": "09670",
      "identificationNumber": "B67643809",
      "address": "Paseo Miramon 170 3 Planta",
      "location": {
        "postalCode": "20014",
        "municipality": "Donostia / San Sebastián",
        "county": "Gipuzkoa",
        "municipalityId": "069",
        "countyId": "20"
      },
      "economicActivities": [
        {
          "id": "1.392.1",
          "name": "Fabricación de material médico-quirúrgico",
          "_links": {
            "self": {
              "name": "Fabricación de material médico-quirúrgico",
              "href": "https://api.euskadi.eus/procurements/companies/economic-activities/1.392.1"
            }
          }
        },
        {
          "id": "1.614.1",
          "name": "Venta al por mayor de productos farmacéuticos y medicamentos",
          "_links": {
            "self": {
              "name": "Venta al por mayor de productos farmacéuticos y medicamentos",
              "href": "https://api.euskadi.eus/procurements/companies/economic-activities/1.614.1"
            }
          }
        }
      ],
      "certificateStartDate": "2025-11-13",
      "certificateEndDate": "2026-05-10",
      "object": "EL DESARROLLO DE LA ACTIVIDAD DE FABRICACIÓN, VENTA Y DISTRIBUCIÓN DE PRODUCTOS SANITARIOS, CORRESPONDIENTES A LOS SIGUIENTES CÓDIGOS Y DESCRIPCIONES DE LA CLASIFICACIÓN NACIONAL DE ACTIVIDADES ECONÓMICOS: ACTIVIDAD PRINCIPAL: 3250 FABRICACIÓN DE INSTRUMENTOS Y SUMINISTROS MÉDICOS Y ODONTOLÓGICOS.",
      "mainEntityOfPage": "https://www.contratacion.euskadi.eus/webkpe00-kperoc/es/ac71aBusquedaRegistrosWar/empresa/09670",
      "_links": {
        "self": {
          "name": "REKREANDO, S.L.",
          "href": "https://api.euskadi.eus/procurements/companies/09670"
        }
      }
    },
    {
      "name": "INSTRUMENTACION GEOTECNICA LUR, S.L.",
      "registrationNumber": "09904",
      "identificationNumber": "B95736245",
      "address": "Luisene bidea 2, polígono Belako 2, nave A16",
      "location": {
        "postalCode": "48100",
        "municipality": "Mungia",
        "county": "Bizkaia",
        "municipalityId": "069",
        "countyId": "48"
      },
      "economicActivities": [
        {
          "id": "1.843.3",
          "name": "Servicios técnicos de prospecciones y estudios geológicos",
          "_links": {
            "self": {
              "name": "Servicios técnicos de prospecciones y estudios geológicos",
              "href": "https://api.euskadi.eus/procurements/companies/economic-activities/1.843.3"
            }
          }
        }
      ],
      "certificateStartDate": "2025-11-13",
      "certificateEndDate": "2026-05-11",
      "object": "A) -LA REALIZACIÓN DE PROSPECCIONES Y ESTUDIOS GEOTÉCNICOS, MEDIOAMBIENTALES Y DE CONTROL DE CALIDAD, INFORMES DE MATERIALES PARA CIMENTACIONES Y OBRAS, ESTUDIOS, ASISTENCIAS TÉCNICAS, PROYECTOS, SUPERVISIÓN Y DIRECCIÓN DE OBRAS DE INGENIERÍA, ARQUITECTURA E INDUSTRIALES. B) -LA INSTRUMENTACIÓN Y ENSAYOS TÉCNICOS EN INFRAESTRUCTURAS DE OBRA CIVIL, INDUSTRIALES Y DE EDIFICACIÓN, TANTO PÚBLICAS COMO PRIVADAS. C) -ESTUDIOS GEOFÍSICOS, MINEROS Y SOBRE RECURSOS ENERGÉTICOS. D) -CONSERVACIÓN Y EXPLOTACIÓN DE INFRAESTRUCTURAS DEL TRANSPORTE, HIDRÁULICAS Y ENERGÉTICAS. E) -INVESTIGACIÓN Y DESARROLLO EXPERIMENTAL EN TÉCNICAS DE INGENIERÍA. F) -SERVICIOS DE CONSULTORÍA Y APOYO A EMPRESAS PARA EL DESARROLLO DE PROYECTOS DE INVESTIGACIÓN, DESARROLLO E INNOVACIÓN. G) -DOCENCIA EN MATERIAS ESPECIALIZADAS DE LOS CAMPOS DE INGENIERÍA, INDUSTRIA, EDIFICACIÓN Y SEGURIDAD Y SALUD. H) -LA DIRECCIÓN Y GESTIÓN DE PROMOCIONES INMOBILIARIAS ACTUANDO POR ENCARGO DE TERCEROS O COMO SOCIO EN CUENTAS DE PARTICIPACIÓN. I) -LA COMERCIALIZACIÓN DE SOLARES, TERRENOS Y TODA CLASE DE FINCAS RÚSTICAS Y URBANAS. J) -LA URBANIZACIÓN, PARCELACIÓN Y REPARCELACIÓN DE TERRENOS. K) -LA CONSTRUCCIÓN POR CUENTA PROPIA O AJENA DE TODA CLASE DE INMUEBLES POR NATURALEZA Y LA REALIZACIÓN DE TODA CLASE DE OBRAS PÚBLICAS O PRIVADAS. L) -LA EXPLOTACIÓN DIRECTA O INDIRECTAMENTE, INCLUSO EN ARRENDAMIENTO FINANCIERO DE TODA CLASE DE EDIFICIOS Y FINCAS EN GENERAL. M) -LA INSTALACIÓN, COMERCIALIZACIÓN Y VENTA DE ARTÍCULOS Y MATERIALES PARA LA CONSTRUCCIÓN ASÍ COMO LOS DESTINADOS A LA ORNAMENTACIÓN DE LA MISMA. N) -LA SOCIEDAD PODRÁ TAMBIÉN DESARROLLAR DE MODO INDIRECTO, TOTAL O PARCIALMENTE, LAS ACTIVIDADES QUE INTEGRAN EL OBJETO SOCIAL, MEDIANTE LA TITULARIDAD DE ACCIONES O PARTICIPACIONES EN SOCIEDADES DE IDÉNTICO O ANÁLOGO OBJETO.",
      "mainEntityOfPage": "https://www.contratacion.euskadi.eus/webkpe00-kperoc/es/ac71aBusquedaRegistrosWar/empresa/09904",
      "_links": {
        "self": {
          "name": "INSTRUMENTACION GEOTECNICA LUR, S.L.",
          "href": "https://api.euskadi.eus/procurements/companies/09904"
        }
      }
    },
    {
      "name": "TECNICOS EN ESTABILIZACIONES E INYECCIONES, S.A.",
      "registrationNumber": "03379",
      "identificationNumber": "A20165650",
      "address": "POLÍGONO INDUSTRIAL 108. C/ Olaizola, nº 1",
      "location": {
        "postalCode": "20100",
        "municipality": "Lezo",
        "county": "Gipuzkoa",
        "municipalityId": "053",
        "countyId": "20"
      },
      "certificateStartDate": "2025-11-13",
      "certificateEndDate": "2026-04-26",
      "object": "LA REALIZACIÓN DE ESTUDIOS Y OBRAS DE ESTABILIZACIÓN DE TALUDES - BOLUNADO, INYECCIÓN, COLOCACIÓN DE MALLA Y EN GENERAL DE TODO TIPO DE OBRAS PÚBLICAS, LO MISMO EN EXPLOTACION DIRECTA QUE EN COMISIÓN, ARRENDAMIENTO O EN CUALQUIER OTRA FORMA ADMITIDA",
      "mainEntityOfPage": "https://www.contratacion.euskadi.eus/webkpe00-kperoc/es/ac71aBusquedaRegistrosWar/empresa/03379",
      "_links": {
        "self": {
          "name": "TECNICOS EN ESTABILIZACIONES E INYECCIONES, S.A.",
          "href": "https://api.euskadi.eus/procurements/companies/03379"
        }
      }
    },
    {
      "name": "CARRETILLAS 2000, S.L.",
      "registrationNumber": "09674",
      "identificationNumber": "B48697866",
      "address": "Ctra. La Avanzada, 7 B ",
      "location": {
        "postalCode": "48950",
        "municipality": "Erandio",
        "county": "Bizkaia",
        "municipalityId": "902",
        "countyId": "48"
      },
      "economicActivities": [
        {
          "id": "1.617.9",
          "name": "Venta al por mayor interindustrial de otros productos n.c.o.p",
          "_links": {
            "self": {
              "name": "Venta al por mayor interindustrial de otros productos n.c.o.p",
              "href": "https://api.euskadi.eus/procurements/companies/economic-activities/1.617.9"
            }
          }
        },
        {
          "id": "1.692",
          "name": "Reparación de maquinaria industrial",
          "_links": {
            "self": {
              "name": "Reparación de maquinaria industrial",
              "href": "https://api.euskadi.eus/procurements/companies/economic-activities/1.692"
            }
          }
        },
        {
          "id": "1.852",
          "name": "Alquiler de maquinaria y equipo para la construcción",
          "_links": {
            "self": {
              "name": "Alquiler de maquinaria y equipo para la construcción",
              "href": "https://api.euskadi.eus/procurements/companies/economic-activities/1.852"
            }
          }
        }
      ],
      "certificateStartDate": "2025-11-13",
      "certificateEndDate": "2026-05-12",
      "object": "A).- LA COMERCIALIZACIÓN DE MAQUINARIA DE ELEVACIÓN Y EQUIPOS MANUTENCIÓN, TANTO NUEVOS COMO USADOS, SERVICIO DE REPARACIÓN Y MANTENIMIENTO DE LOS MISMOS, FABRICACIÓN Y COMERCIALIZACIÓN DE LOS REPUESTOS NECESARIOS PARA LA PRESTACIÓN DE ESTE SERVICIO Y ALQUILER DE ESTE TIPO DE EQUIPOS.",
      "mainEntityOfPage": "https://www.contratacion.euskadi.eus/webkpe00-kperoc/es/ac71aBusquedaRegistrosWar/empresa/09674",
      "_links": {
        "self": {
          "name": "CARRETILLAS 2000, S.L.",
          "href": "https://api.euskadi.eus/procurements/companies/09674"
        }
      }
    },
    {
      "name": "LGK GESTIÓN LOGIKA, S.L.",
      "registrationNumber": "03170",
      "identificationNumber": "B95400321",
      "address": "LUTXANA, 4-2º IZQ.",
      "location": {
        "postalCode": "48008",
        "municipality": "Bilbao",
        "county": "Bizkaia",
        "municipalityId": "020",
        "countyId": "48"
      },
      "economicActivities": [
        {
          "id": "1.849.7",
          "name": "Servicios de gestión administrativa",
          "_links": {
            "self": {
              "name": "Servicios de gestión administrativa",
              "href": "https://api.euskadi.eus/procurements/companies/economic-activities/1.849.7"
            }
          }
        },
        {
          "id": "1.849.9",
          "name": "Otros servicios independientes n.c.o.p",
          "_links": {
            "self": {
              "name": "Otros servicios independientes n.c.o.p",
              "href": "https://api.euskadi.eus/procurements/companies/economic-activities/1.849.9"
            }
          }
        }
      ],
      "certificateStartDate": "2025-11-13",
      "certificateEndDate": "2026-05-12",
      "object": "A) SERVICIOS DE TELEMARKETING, DESARROLLO DE ENCUSTAS, SONDEOS, ESTUDIOS DE MERCADO, CAPTACIÓN DE CLIENTES, LABORES ADMINISTRATIVAS, ETC. REALIZADAS TANTO DE MANERA DIRECTA COMO INDIRECTA CON CUALQUIER TIPO O VÍA DE COMUNICACIÓN.\r\nB) TRATAMIENTO DIGITAL Y MANUAL DE LA DOCUMENTACIÓN EN TODOS SUS POSIBLES FORMATOS.\r\nC) ANÁLISIS, ORGANIZACIÓN, AUDITORÍA, TRANSCRIPCIÓN, GUARDA, CUSTODIA Y EXPURGO DE TODO TIPO DE DOCUMENTACIÓN A TERCEROS EN ARCHIVOS, CENTROS DE DOCUMENTACIÓN, ETC.\r\nD) ANÁLISIS Y CONSULTORÍA, DESARROLLO, COMERCIALIZACIÓN, IMPLANTACIÓN Y FORMACIÓN DE APLICACIONES Y PRODUCTOS INFORMÁTICOS, A TRAVÉS DE LA RED DE INTERNET, RED LOCAL O MONOPUESTO: PÁGINAS WEB, APLICACIONES DE GESTIÓN, INTRANETS, EXTRANETS Y  CUALQUIER TIPO DE PRODUCTO QUE PUEDA SER DESARROLLADO MEDIANTE PROGRAMACIÓN INFORMÁTICA CON LAS TECNOLOGÍAS ACTUALES O LAS QUE PUEDAN APARECER EN EL FUTURO. TALES ACTIVIDADES PODRÁN SER REALIZADAS POR LA SOCIEDAD, TOTAL O PARCIALMENTE, DE MODO INDIRECTO, MEDIANTE LA TITULARIDAD DE ACCIONES O PARTICIPACIONES EN OTRAS SOCIEDADES.\r\nE) PROMOCIÓN, CONSTRUCCIÓN, REPARACIÓN, MANTENIMIENTO Y EJECUCIÓN COMPLETA O POR TRAMOS DE TODA CLASE DE OBRAS DE CONSTRUCCIÓ, PARA SÍ O PARA TERCEROS, SEAN ORGANISMOS PÚBLICOS DEL ESTADO, PROVINCIA O MUNICIPIO, ENTES AUTONÓMOS O PERSONAS FÍSICAS O JURÍDICAS, POR CUENTA PROPIA O AJENA, INCLUSO VIVIENDA Y LOCALES DE LOS DENOMINADOS DE PROTECCIÓN OFICIAL, LA COMPRAVENTA Y ALQUILER DE EDIFICACIONES EN SU TOTALIDAD, POR PARTES O POR PISOS, BIEN PARA VIVIENDA O PARA LOCALES DE OFICINA, DE NEGOCIOS, O INDUSTRIALES, CONSTRUIDAS PARA TAL FIN, DIRECTAMENTE O POR MEDIO DE CONTRATISTAS, SUBCONTRATISTAS Y DESTAJISTAS O BIEN ADQUIRIDAS Y CONSTRUIDAS EN CONSTRUCCIÓN, LA COMPRA, VENTA, PERMUTA Y ALQUILER DE TERRENOS RÚSTICOS Y URBANOS, SU EDIFICACIÓN, PARCELACION Y URBANIZACIÓN.\r\nF) LA INSTALACIÓN Y REPARACIONES ELÉCTRICAS DE ALTA Y BAJA TENSIÓN, EN EDIFICIOS PÚBLICOS Y PRIVADOS, ALUMBRADOS EXTERIORES Y PÚBLICOS, COMO DE MAQUINARIA INDUSTRIAL Y DOMÉSTICA.\r\nG) LA INSTALACIÓN, REPARACIÓN, MONTAJE Y MANTENIMIENTO DE TODO TIPO DE ANTENAS, PORTEROS AUTOMÁTICOS, VIDEOPORTEROS, SONIDO, REDES INFORMÁTICAS, TELEFONÍA Y REDES TELEFÓNICAS, Y ALARMAS, ASÍ COMO LO RELACIONADOS CON LAS TELECOMUNICACIONES.\r\nH) INVESTIGACIÓN  Y DESARROLLO, FRANQUICIA E INCLUSO FABRICACIÓN DE TODO TIPO DE APARATOS O CUALQUIER TIPO DE SERVICIO RELACIONADO CON LA DOCUMENTACIÓN Y LAS COMUNICACIONES POR CUALQUIER MEDIO SOBRE EL QUE SE SOPORTEN.    \r\nI) REPARACIÓN,, MANIPULACIÓN, VENTA, FORMACIÓN,. ETC. DE CUALQUIER TIPO DE MAQUINARIA INCLUYENDO EQUIPOS PARA PROCESOS INFORMÁTICOS, SOFTWARE EXISTENTE EL MERCADO EN CUALQUIER MOMENTO DE LA VIDA DE LA EMPRESA, BASES DE DATOS CON LAS RESTRICCIONES LEGALES ESTABLECIDAS, ETC. \r\nJ) CONSULTORÍA, ASESORÍA, TODO TIPO DE ESTUDIO O CUALQUIER CLASE DE SERVICIOS QUE SEAN SOLICITADOS POR TERCEROS, RELACIONADOS CON EL OBJETO SOCIAL.\r\nK) CREACIÓN, DISEÑO, PROMOCIÓN Y PUESTA EN MARCHA DE PLATAFORMAS PRODUCTIVAS EN ZONAS RURALES.\r\nL) LA ADQUISICIÓN POR CUALQUIER TÍTULO DE FINCAS RÚSTICAS U URBANAS, LA PROMOCIÓN Y CONSTRUCCIÓN DE ESTAS Y LA ADMINISTRACIÓN, TENENCIA, EXPLOTACIÓN Y ARRENDAMIENTO DE TALES BIENES Y SU VENTA TOTAL O PARCIAL, SEGÚN CONVENGA PARA SU APROVECHAMIENTO FORESTAL, AGRÍCOLA, URBANO, INDUSTRIAL O CUALQUIER OTRO.\r\nM) LA ADQUISICIÓN, CESIÓN, TENENCIA Y DISFRUTE EN GENERAL DE TODA CLASE DE TÍTULOS Y VALORES MOBILIARIOS, CON EXCLUSIÓN DE LAS ACTIVIDADES DE LA LEY DE MERCADO DE VALORES Y DE INVERSIONES COLECTIVAS.\r\nN) EL ASESORAMIENTO DE EMPRESAS, EL ESTUDIO INVESTIGACIÓN, PROMOCIÓN Y PRESTACIÓN DE TODA CLASE DE SERVICIOS DE ASISTENCIA Y GESTIÓN TÉCNICA, ADMINISTRATIVA, COMERCIAL Y JURÍDICA, TODO ELLO EFECTUADO POR PERSONAS CON TITULACIÓN ESPECIAL.\r\n\r\nÑ) GESTIÓN DE SERVICIOS AL HOGAR DE CUALQIER TIPO TANTO CON PERSONAL EXTERNO COMO INTERNO. FRANQUICIA. LIMPIEZA INTERIORES Y EXTERIORES DE LAS VIVIENDAS, COLADA  Y PLANCHA, COCINA, ATENCIÓN, ACOMPAÑAMIENTO Y CUIDADO DE BEBÉS Y NIÓS, ASISTENCIA EN DOMICILIO DE PERSONAS MAYORES, ACOMPAÑAMIENTO A ENFERMOS TANTO EN CENTROS SANITARIOS COMO EN SUS HOGARES, SERVICIOS DE JARDINERÍA Y CUALQUIER TIPO DE SERVICIO QUE SE PUEDA PRESTAR POR CUALQUIER MEDIO DENTRO Y FUERA DE LOS HOGARES.\r\nO) SERVICIOS DE LIMPIEZA Y MANTENIMIENTO GENERAL DE CUALQUIER TIPO DE EMPRESAS U ORGANISMOS OFICIALES: LIMPIEZAS INTERIORES Y EXTERIORES DE OFICINAS, PABELLONES, CENTROS SANITARIOS",
      "mainEntityOfPage": "https://www.contratacion.euskadi.eus/webkpe00-kperoc/es/ac71aBusquedaRegistrosWar/empresa/03170",
      "_links": {
        "self": {
          "name": "LGK GESTIÓN LOGIKA, S.L.",
          "href": "https://api.euskadi.eus/procurements/companies/03170"
        }
      }
    }
  ]
}