{
  "totalItems": 9042,
  "totalPages": 905,
  "currentPage": 549,
  "itemsOfPage": 10,
  "items": [
    {
      "name": "GUAJIRA SICODELICA, S.L.",
      "registrationNumber": "07432",
      "identificationNumber": "B75105643",
      "address": "MUNDAIZ 8, BAJO",
      "location": {
        "postalCode": "20012",
        "municipality": "Donostia / San Sebastián",
        "county": "Gipuzkoa",
        "municipalityId": "069",
        "countyId": "20"
      },
      "economicActivities": [
        {
          "id": "1.355.2",
          "name": "Edición de soportes grabados de sonido, vídeo y de informática",
          "_links": {
            "self": {
              "name": "Edición de soportes grabados de sonido, vídeo y de informática",
              "href": "https://api.euskadi.eus/procurements/companies/economic-activities/1.355.2"
            }
          }
        },
        {
          "id": "1.671.5",
          "name": "Restaurante un tenedor",
          "_links": {
            "self": {
              "name": "Restaurante un tenedor",
              "href": "https://api.euskadi.eus/procurements/companies/economic-activities/1.671.5"
            }
          }
        },
        {
          "id": "1.673.1",
          "name": "Bar categoría especial",
          "_links": {
            "self": {
              "name": "Bar categoría especial",
              "href": "https://api.euskadi.eus/procurements/companies/economic-activities/1.673.1"
            }
          }
        },
        {
          "id": "1.673.2",
          "name": "Otros cafés y bares",
          "_links": {
            "self": {
              "name": "Otros cafés y bares",
              "href": "https://api.euskadi.eus/procurements/companies/economic-activities/1.673.2"
            }
          }
        },
        {
          "id": "1.675",
          "name": "Servicios de restaurante y cafetería en quioscos, cajones, barracas",
          "_links": {
            "self": {
              "name": "Servicios de restaurante y cafetería en quioscos, cajones, barracas",
              "href": "https://api.euskadi.eus/procurements/companies/economic-activities/1.675"
            }
          }
        },
        {
          "id": "1.965.1",
          "name": "Espectáculos en salas y locales (excepto los taurinos)",
          "_links": {
            "self": {
              "name": "Espectáculos en salas y locales (excepto los taurinos)",
              "href": "https://api.euskadi.eus/procurements/companies/economic-activities/1.965.1"
            }
          }
        },
        {
          "id": "1.965.4",
          "name": "Empresas de espectáculos",
          "_links": {
            "self": {
              "name": "Empresas de espectáculos",
              "href": "https://api.euskadi.eus/procurements/companies/economic-activities/1.965.4"
            }
          }
        }
      ],
      "certificateStartDate": "2020-12-30",
      "certificateEndDate": "2021-04-27",
      "object": "LA HOSTELERÍA EN GENERAL, RESTAURADORA, CAFETERÍAS, SALAS DE FIESTA, EXPOSICIONES, CONGRESOS Y SEMEJANTES, ASÍ COMO LA REPRESENTACIÓN COMERCIAL DE PRODUCTOS DE CONSUMO RELACIONADOS CON DICHAS ACTIVIDADES",
      "mainEntityOfPage": "https://www.contratacion.euskadi.eus/webkpe00-kperoc/es/ac71aBusquedaRegistrosWar/empresa/07432",
      "_links": {
        "self": {
          "name": "GUAJIRA SICODELICA, S.L.",
          "href": "https://api.euskadi.eus/procurements/companies/07432"
        }
      }
    },
    {
      "name": "ZUTABE HOSTELERÍA, S.L.",
      "registrationNumber": "07433",
      "identificationNumber": "B75221234",
      "address": "C/ Felipe IV Nº8 Escalera Central 2C",
      "location": {
        "postalCode": "20011",
        "municipality": "Donostia / San Sebastián",
        "county": "Gipuzkoa",
        "municipalityId": "069",
        "countyId": "20"
      },
      "economicActivities": [
        {
          "id": "1.673.2",
          "name": "Otros cafés y bares",
          "_links": {
            "self": {
              "name": "Otros cafés y bares",
              "href": "https://api.euskadi.eus/procurements/companies/economic-activities/1.673.2"
            }
          }
        }
      ],
      "certificateStartDate": "2020-12-30",
      "certificateEndDate": "2021-06-29",
      "object": "LAS ACTIVIDADES DE BAR-CAFETERÍA Y RESTAURACIÓN LIGERA",
      "mainEntityOfPage": "https://www.contratacion.euskadi.eus/webkpe00-kperoc/es/ac71aBusquedaRegistrosWar/empresa/07433",
      "_links": {
        "self": {
          "name": "ZUTABE HOSTELERÍA, S.L.",
          "href": "https://api.euskadi.eus/procurements/companies/07433"
        }
      }
    },
    {
      "name": "INSTITUTO DE EVALUACIONES MEDICAS, S.L.",
      "registrationNumber": "07427",
      "identificationNumber": "B64563109",
      "address": "VIA AUGUSTA 291 BAJOS",
      "location": {
        "postalCode": "08017",
        "municipality": "Barcelona",
        "county": "Barcelona",
        "municipalityId": "019",
        "countyId": "08"
      },
      "economicActivities": [
        {
          "id": "1.942.1",
          "name": "Consultorios médicos, centros de socorro sanitarios y urgencias",
          "_links": {
            "self": {
              "name": "Consultorios médicos, centros de socorro sanitarios y urgencias",
              "href": "https://api.euskadi.eus/procurements/companies/economic-activities/1.942.1"
            }
          }
        }
      ],
      "certificateStartDate": "2020-12-29",
      "certificateEndDate": "2021-05-02",
      "object": "EL TRATAMIENTO INTEGRAL DE TRASTORNOS PSICOLOGICOS Y PSIQUIATRICOS, Y TODO TIPO DE EVALUACIONES, PERITAJES Y TRATAMIENTOS MEDICOS ",
      "mainEntityOfPage": "https://www.contratacion.euskadi.eus/webkpe00-kperoc/es/ac71aBusquedaRegistrosWar/empresa/07427",
      "_links": {
        "self": {
          "name": "INSTITUTO DE EVALUACIONES MEDICAS, S.L.",
          "href": "https://api.euskadi.eus/procurements/companies/07427"
        }
      }
    },
    {
      "name": "ATZEGILAN21, S.L.",
      "registrationNumber": "07424",
      "identificationNumber": "B20968194",
      "address": "Untzaene 3 1 dcha",
      "location": {
        "postalCode": "20008",
        "municipality": "Donostia / San Sebastián",
        "county": "Gipuzkoa",
        "municipalityId": "069",
        "countyId": "20"
      },
      "economicActivities": [
        {
          "id": "1.922",
          "name": "Servicios de limpieza",
          "_links": {
            "self": {
              "name": "Servicios de limpieza",
              "href": "https://api.euskadi.eus/procurements/companies/economic-activities/1.922"
            }
          }
        }
      ],
      "certificateStartDate": "2020-12-28",
      "certificateEndDate": "2021-06-15",
      "object": "LA LIMPIEZA Y MANTENIMIENTO DE BIENES INMUEBLES, BARCOS, BUQUES Y DEMÁS EMBARCACIONES",
      "mainEntityOfPage": "https://www.contratacion.euskadi.eus/webkpe00-kperoc/es/ac71aBusquedaRegistrosWar/empresa/07424",
      "_links": {
        "self": {
          "name": "ATZEGILAN21, S.L.",
          "href": "https://api.euskadi.eus/procurements/companies/07424"
        }
      }
    },
    {
      "name": "SOLUCIONES TECNOLOGICAS INTEGRADAS S.L.",
      "registrationNumber": "07421",
      "identificationNumber": "B50632850",
      "address": "CTRA. COGULLADA 20, PARQUE TECNOLOGICO COGULLADA, NAVE 23B",
      "location": {
        "postalCode": "50014",
        "municipality": "Zaragoza",
        "county": "Zaragoza",
        "municipalityId": "297",
        "countyId": "50"
      },
      "economicActivities": [
        {
          "id": "1.615.4",
          "name": "Venta al por mayor de aparatos y material radioeléctrico y electrónico",
          "_links": {
            "self": {
              "name": "Venta al por mayor de aparatos y material radioeléctrico y electrónico",
              "href": "https://api.euskadi.eus/procurements/companies/economic-activities/1.615.4"
            }
          }
        }
      ],
      "certificateStartDate": "2020-12-23",
      "certificateEndDate": "2021-04-23",
      "object": "COMERCIO DE  NUEVAS TECNOLOGIAS",
      "mainEntityOfPage": "https://www.contratacion.euskadi.eus/webkpe00-kperoc/es/ac71aBusquedaRegistrosWar/empresa/07421",
      "_links": {
        "self": {
          "name": "SOLUCIONES TECNOLOGICAS INTEGRADAS S.L.",
          "href": "https://api.euskadi.eus/procurements/companies/07421"
        }
      }
    },
    {
      "name": "EXCLUSIVAS MANERO, S.A.",
      "registrationNumber": "02822",
      "identificationNumber": "A20112850",
      "address": "EUSTASIO AMILIBIA, 13 BAJO",
      "location": {
        "postalCode": "20011",
        "municipality": "Donostia / San Sebastián",
        "county": "Gipuzkoa",
        "municipalityId": "069",
        "countyId": "20"
      },
      "economicActivities": [
        {
          "id": "1.504.3",
          "name": "Instalaciones de frío, calor y acondicionamiento de aire",
          "_links": {
            "self": {
              "name": "Instalaciones de frío, calor y acondicionamiento de aire",
              "href": "https://api.euskadi.eus/procurements/companies/economic-activities/1.504.3"
            }
          }
        },
        {
          "id": "1.654.5",
          "name": "Venta al por menor de toda clase de maquinaría",
          "_links": {
            "self": {
              "name": "Venta al por menor de toda clase de maquinaría",
              "href": "https://api.euskadi.eus/procurements/companies/economic-activities/1.654.5"
            }
          }
        },
        {
          "id": "1.692",
          "name": "Reparación de maquinaria industrial",
          "_links": {
            "self": {
              "name": "Reparación de maquinaria industrial",
              "href": "https://api.euskadi.eus/procurements/companies/economic-activities/1.692"
            }
          }
        },
        {
          "id": "1.861.2",
          "name": "Alquiler de locales industriales y otros alquileres n.c.o.p",
          "_links": {
            "self": {
              "name": "Alquiler de locales industriales y otros alquileres n.c.o.p",
              "href": "https://api.euskadi.eus/procurements/companies/economic-activities/1.861.2"
            }
          }
        }
      ],
      "certificateStartDate": "2020-12-22",
      "certificateEndDate": "2021-06-14",
      "object": "LA VENTA DE MAQUINARIA EN GENERAL PARA EL COMERCIO Y LA INDUSTRIA ",
      "mainEntityOfPage": "https://www.contratacion.euskadi.eus/webkpe00-kperoc/es/ac71aBusquedaRegistrosWar/empresa/02822",
      "_links": {
        "self": {
          "name": "EXCLUSIVAS MANERO, S.A.",
          "href": "https://api.euskadi.eus/procurements/companies/02822"
        }
      }
    },
    {
      "name": "ASBESTHO'S GESTION DESAMIANTADOS, S.L.",
      "registrationNumber": "07415",
      "identificationNumber": "B64172794",
      "address": "P I congost C Can Ribas 8",
      "location": {
        "postalCode": "08520",
        "municipality": "Franqueses del Vallès, Les",
        "county": "Barcelona",
        "municipalityId": "086",
        "countyId": "08"
      },
      "economicActivities": [
        {
          "id": "1.502.1",
          "name": "Demoliciones y derribos en general",
          "_links": {
            "self": {
              "name": "Demoliciones y derribos en general",
              "href": "https://api.euskadi.eus/procurements/companies/economic-activities/1.502.1"
            }
          }
        }
      ],
      "certificateStartDate": "2020-12-22",
      "certificateEndDate": "2021-06-01",
      "object": "A.- TODAS AQUELLAS ACTIVIDADES DESTINADAS AL DESMONTAJE, ELIMINACIÓN, ACONDICIONAMIENTO, GESTIÓN Y TRANSPORTE DE MATERIALES CON CONTENIDO DE AMIANTO, EN CUALQUIERA DE SUS VARIEDADES. B.- ESTUDIOS SOBRE EL CONTENIDO DE AMIANTO EN EDIFICACIONES, INSTALACIONES INDUSTRIALES, ETC.",
      "mainEntityOfPage": "https://www.contratacion.euskadi.eus/webkpe00-kperoc/es/ac71aBusquedaRegistrosWar/empresa/07415",
      "_links": {
        "self": {
          "name": "ASBESTHO'S GESTION DESAMIANTADOS, S.L.",
          "href": "https://api.euskadi.eus/procurements/companies/07415"
        }
      }
    },
    {
      "name": "COOLABORO GESTION, S.L.",
      "registrationNumber": "07419",
      "identificationNumber": "B84150960",
      "address": "Paseo de las Delicias 31-3º",
      "location": {
        "postalCode": "28045",
        "municipality": "Madrid",
        "county": "Madrid",
        "municipalityId": "079",
        "countyId": "28"
      },
      "economicActivities": [
        {
          "id": "1.844",
          "name": "Servicios de publicidad, relaciones públicas y similares",
          "_links": {
            "self": {
              "name": "Servicios de publicidad, relaciones públicas y similares",
              "href": "https://api.euskadi.eus/procurements/companies/economic-activities/1.844"
            }
          }
        },
        {
          "id": "1.849.7",
          "name": "Servicios de gestión administrativa",
          "_links": {
            "self": {
              "name": "Servicios de gestión administrativa",
              "href": "https://api.euskadi.eus/procurements/companies/economic-activities/1.849.7"
            }
          }
        },
        {
          "id": "1.849.9",
          "name": "Otros servicios independientes n.c.o.p",
          "_links": {
            "self": {
              "name": "Otros servicios independientes n.c.o.p",
              "href": "https://api.euskadi.eus/procurements/companies/economic-activities/1.849.9"
            }
          }
        },
        {
          "id": "1.934",
          "name": "Enseñanza fuera de establecimiento permanente",
          "_links": {
            "self": {
              "name": "Enseñanza fuera de establecimiento permanente",
              "href": "https://api.euskadi.eus/procurements/companies/economic-activities/1.934"
            }
          }
        }
      ],
      "certificateStartDate": "2020-12-22",
      "certificateEndDate": "2021-06-17",
      "object": "A) ASESORAMIENTO DE EMPRESAS EN CUESTIONES TÉCNICAS, DE ADMINISTRACIÓN, GESTIÓN E INVERSIONES. B)  INVESTIGACIÓN, DESARROLLO, DISTRIBUCIÓN Y TODO TIPO DE COMERCIALIZACIÓN Y SERVICIOS RELACIONADOS BIEN CON LA TECNOLOGÍA DE LA INFORMACIÓN, COMO POR CUALQUIER OTRO MEDIO DE ORIGEN PROPIO COMO A OTRAS PERSONAS FÍSICAS O JURÍDICAS. C) LA CREACIÓN, DESARROLLO, Y FOMENTO DE EMPLEO DE PERSONAS DISCAPACITADAS DE CUALQUIER GRADO, TANTO EN EMPRESAS PROPIAS COMO AJENAS. D) LA CREACIÓN, ELABORACIÓN, E IMPLANTACIÓN, DE TODA CLASE DE EMPRESAS. E) COMERCIO ELECTRÓNICO Y EN CONCRETO EL SUMINISTRO DE SERVICIOS DE INTERNET. F) LA INTERMEDIACIÓN, COMPRA, VENTA, PROMOCIÓN, CONSTRUCCIÓN Y, EN DEFINITIVA, TODA CLASE DE ACTIVIDADES INMOBILIARIAS DE BIENES BIEN SEAN DESTINADOS AL TURISMO, AL USO PERSONAL, FAMILIAR O AL INDUSTRIAL EN GENERAL. G) EL ARRENDAMIENTO Y EXPLOTACIÓN, POR CUENTA PROPIA O AJENA, DE TODA CLASE DE INMUEBLES O NEGOCIOS CUALQUIERA QUE SEA SU OBJETO O DESTINO, INCLUSO LOS DE OCIO, RESTAURACIÓN O INDUSTRIALES. EL ALQUILER DE MOBILIARIO DE OFICINA, DE EQUIPOS TELEFÓNICOS, DE TELECOMUNICACIONES, INFORMÁTICOS Y DE SOFTWARE",
      "mainEntityOfPage": "https://www.contratacion.euskadi.eus/webkpe00-kperoc/es/ac71aBusquedaRegistrosWar/empresa/07419",
      "_links": {
        "self": {
          "name": "COOLABORO GESTION, S.L.",
          "href": "https://api.euskadi.eus/procurements/companies/07419"
        }
      }
    },
    {
      "name": "WORLDSENSING, S.L.",
      "registrationNumber": "07416",
      "identificationNumber": "B64902208",
      "address": "VIRIAT 47, 10 PLANTA",
      "location": {
        "postalCode": "08014",
        "municipality": "Barcelona",
        "county": "Barcelona",
        "municipalityId": "019",
        "countyId": "08"
      },
      "economicActivities": [
        {
          "id": "1.353",
          "name": "Fabricación de aparatos y equipo electrónico de señalización, control",
          "_links": {
            "self": {
              "name": "Fabricación de aparatos y equipo electrónico de señalización, control",
              "href": "https://api.euskadi.eus/procurements/companies/economic-activities/1.353"
            }
          }
        }
      ],
      "certificateStartDate": "2020-12-21",
      "certificateEndDate": "2021-06-07",
      "object": "LA ACTIVIDAD DE COMUNICACIONES Y LA ACTIVIDAD DE SERVICIOS EN GENERAL",
      "mainEntityOfPage": "https://www.contratacion.euskadi.eus/webkpe00-kperoc/es/ac71aBusquedaRegistrosWar/empresa/07416",
      "_links": {
        "self": {
          "name": "WORLDSENSING, S.L.",
          "href": "https://api.euskadi.eus/procurements/companies/07416"
        }
      }
    },
    {
      "name": "GLOBAL DOMINION ACCESS, S.A.",
      "registrationNumber": "07417",
      "identificationNumber": "A95034856",
      "address": "Ibañez de Bilbao, 28 8º A-B",
      "location": {
        "postalCode": "48009",
        "municipality": "Bilbao",
        "county": "Bizkaia",
        "municipalityId": "020",
        "countyId": "48"
      },
      "economicActivities": [
        {
          "id": "1.504.1",
          "name": "Instalaciones eléctricas en general",
          "_links": {
            "self": {
              "name": "Instalaciones eléctricas en general",
              "href": "https://api.euskadi.eus/procurements/companies/economic-activities/1.504.1"
            }
          }
        },
        {
          "id": "1.845",
          "name": "Explotación electrónica por cuenta de terceros",
          "_links": {
            "self": {
              "name": "Explotación electrónica por cuenta de terceros",
              "href": "https://api.euskadi.eus/procurements/companies/economic-activities/1.845"
            }
          }
        },
        {
          "id": "1.936",
          "name": "Investigación científica y técnica",
          "_links": {
            "self": {
              "name": "Investigación científica y técnica",
              "href": "https://api.euskadi.eus/procurements/companies/economic-activities/1.936"
            }
          }
        }
      ],
      "certificateStartDate": "2020-12-21",
      "certificateEndDate": "2021-09-01",
      "object": "LA REALIZACIÓN DE ESTUDIOS SOBRE CREACIÓN, ESTRUCTURA Y VIABILIDAD DE EMPRESAS Y DE MERCADOS, ASÍ NACIONALES COMO EXTRANJEROS; FOMENTAR, PROMOVER, DESARROLLAR, DIRIGIR Y GESTIONAR ACTIVIDADES EMPRESARIALES AGRUPADAS POR SECTORES DE PRODUCCIÓN, MEDIANTE LA CORRESPONDIENTE ORGANIZACIÓN DE LOS MEDIOS PERSONALES Y MATERIALES APLICADOS AL CONJUNTO DE EMPRESAS; ADQUIRIENDO LAS QUE YA ESTÁN EN FUNCIONAMIENTO O CREÁNDOLAS DE NUEVA PLANTA; FUSIONARLAS, ABSORBERLAS, ESCINDIRLAS O DISOLVERLAS PARA DESARROLLAR LAS ACTIVIDADES DIRECTAMENTE, SEGÚN LOS DICTADOS EN CADA CASO DE LA MÁS EFICIENTE GESTIÓN. -LAS ACTIVIDADES DE EVALUACIÓN, DISEÑO, ANÁLISIS, ESTUDIO, CONSULTORÍA, ASESORAMIENTO, SUPERVISIÓN, ASISTENCIA TÉCNICA, DESARROLLA, ACTUALIZACIÓN, FABRICACIÓN, SUMINISTRO, INSTALACIÓN, MONTAJE, COMPRA, VENTA, ALQUILER, ALMACENAJE, DISTRIBUCIÓN, DESPLIEGUE, IMPORTACIÓN, EXPORTACIÓN, OPERACIÓN, REPARACIÓN, MANTENIMIENTO, GARANTÍA, ENTRENAMIENTO, FORMACIÓN, APOYO PEDAGÓGICO Y COMERCIALIZACIÓN EN GENERAL DE LOS PRODUCTOS, SOLUCIONES, EQUIPOS, SISTEMAS Y AQUELLOS SERVICIOS PRECISOS O CONVENIENTES PARA SU ADECUADA UTILIZACIÓN O RENDIMIENTO, DE CUALQUIER NATURALEZA, MATERIAL O INMATERIAL, Y DEMÁS ACTIVIDADES LÍCITAS REFERIDAS A LAS ACTIVIDADES RELACIONADAS MÁS ABAJO Y EN GENERAL RELACIONADAS CON LAS TELECOMUNICACIONES Y LA INFORMÁTICA. ESPECÍFICAMENTE LA EJECUCIÓN COMO INTEGRADOR DE PROYECTOS COMPLEJOS QUE SUPONGAN LA REALIZACIÓN CONJUNTA DE VARIAS LAS ACTIVIDADES DESCRITAS, A TRAVÉS O NO DE LA MODALIDAD DE LLAVE EN MANO. LA REALIZACIÓN DE LAS ACTIVIDADES DESCRITAS EN ESTE OBJETO SOCIAL, TANTO PARA USO PROPIO COMO PARA TERCEROS, INCLUIDOS PERSONAS NATURALES Y JURÍDICAS Y TODO TIPO DE ORGANISMOS E INSTITUCIONES, DE CARÁCTER CIVIL O MILITAR, CON CARÁCTER NACIONAL E INTERNACIONAL. LA EXPLOTACIÓN COMERCIAL DE LAS INSTALACIONES RESULTANTES DEL EJERCICIO DE LAS ACTIVIDADES AQUÍ DESCRITA, YA SEA DE FORMA DIRECTA, VÍA CONCESIÓN U CUALQUIER OTRO ESQUEMA DE EXPLOTACIÓN, INCLUIDA LA OPERACIÓN DE SERVICIOS DE TELECOMUNICACIONES. LAS ACTIVIDADES DE PROMOCIÓN, MARKETING Y DIFUSIÓN RELACIONADAS CON LOS PRODUCTOS, SOLUCIONES O SERVICIOS DETALLADOS EN ÉSTE OBJETO SOCIAL. LA REPRESENTACIÓN COMO AGENTE, DISTRIBUIDOR, COMISIONISTA, DELEGADO O CUALQUIER OTRA FORMA DE MEDIACIÓN MERCANTIL, DE TODA CLASE DE EMPRESAS NACIONALES O EXTRANJERAS, RELACIONADAS CON PRODUCTOS, SOLUCIONES O SERVICIOS DETALLADOS EN ÉSTE OBJETO SOCIAL. EN SU CASO, CONSTRUCCIÓN, REPARACIÓN, MANTENIMIENTO DE TODO TIPO DE OBRAS, CIVILES O MILITARES, TANTO PÚBLICAS O PRIVADAS, ASÍ COMO TODO TIPO DE INSTALACIONES QUE SE DEBAN REALIZAR NECESARIAS PARA EL BUEN FIN DE LAS ACTIVIDADES DESCRITAS EN ESTE OBJETO SOCIAL. -LA REALIZACIÓN DE ACTIVIDADES DE INVESTIGACIÓN, DESARROLLO E INNOVACIÓN, ASÍ COMO LA EXPLOTACIÓN DE PATENTES, MÉTODOS, PROCEDIMIENTOS O ESTUDIOS Y DERECHOS INCLUIDOS EN EL ÁMBITO DE LA PROPIEDAD INDUSTRIAL RELACIONADOS CON PRODUCTOS, SOLUCIONES O SERVICIOS DETALLADOS EN ESTE OBJETO SOCIAL. - LAS ACTIVIDADES DE ENSEÑANZA, REGLADA O NO REGLADA Y FORMACIÓN DE PERSONAL ESPECIALISTA, EN MATERIAS RELACIONADAS CON LAS ACTIVIDADES CONTENIDAS EN ESTE OBJETO SOCIAL. COMUNICACIONES Y TECNOLOGÍAS DE LA INFORMACIÓN: EL SUMINISTRO E INSTALACIÓN DE TODA CLASE DE EQUIPOS, SOLUCIONES, SISTEMAS, PLATAFORMAS Y SERVICIOS PARA LA COMUNICACIÓN DE VOZ, DATOS, IMÁGENES O CUALQUIER OTRO TIPO DE INFORMACIÓN POR CUALQUIER MEDIO, YA POR MEDIOS TELEMÁTICOS O BAJO PORTADORES FÍSICOS O POR EL ÉTER. LA ACTIVIDAD INFORMÁTICA EN GENERAL, LA PRESTACIÓN DE SERVICIOS DE INTERNET Y DE COMUNICACIÓN, TANTO DE VOZ COMO DE DATOS, ASÍ COMO LA REALIZACIÓN DE ESTUDIOS, TRABAJOS Y SISTEMAS Y APLICACIONES INFORMÁTICAS. EN PARTICULAR LA APROBACIÓN DE TODA GAMA DE SERVICIOS RELACIONADOS CON EL PROCEDIMIENTO DE LA INFORMACIÓN, TALES COMO ANÁLISIS FUNCIONAL, ANÁLISIS ORGÁNICO, PROGRAMACIÓN, GRABACIÓN, ETC. LA MEDIACIÓN, OBTENCIÓN Y ADMINISTRACIÓN DE DATOS E INFORMACIÓN. SECTOR DE LA EDUCACIÓN Y FORMACIÓN: EL SUMINISTRO E INSTALACIÓN DE TODO TIPO DE EQUIPAMIENTO, EDUCATIVO O NO, INCLUYENDO AULAS, TALLERES, LABORATORIOS Y EQUIPOS PRODUCTIVOS Y DE INVESTIGACIÓN, ASÍ COMO TODAS LAS INSTALACIONES, EQUIPOS Y SISTEMAS DE TECNOLOGÍAS DE LA INFORMACIÓN Y COMUNICACIONES NECESARIAS PARA SU DESARROLLO Y OPERACIÓN CON DESTINO A CENTROS EDUCATIVOS, INSTITUCIONES Y TODO TIPO DE ORGANIZACIONES Y EMPRESAS. SOSTENIBILIDAD AMBIENTAL: SUMINISTRO E INSTALACIÓN DE TODO TIPO DE EQUIPAMIENTO Y REDES ORIENTADAS A MEJORAR LA CALIDAD Y EFICIENCIA DEL AGUA, DEL AIRE Y DEL USO DE LA ENERGÍA, SISTEMAS DE PREVISIÓN HIDROLÓGICA, METEOROLÓGICA Y SÍSMICA, SISTEMAS DE IRRIGACIÓN, SISTEMAS DE EXTRACCIÓN Y DISTRIBUCIÓN DE AGUA, INCLUYENDO GESTIÓN Y AUTOMATIZACIÓN DE LOS PROCESOS, ASÍ COMO EL DESARROLLO Y EXPLOTACIÓN DE CUALQUIER TECNOLOGÍA PARA GENERAR ENERGÍAS RENOVABLES O ALTERNATIVAS. ABARCA TODO TIPO DE EQUIPAMIENTOS E INSTALACIONES QUE PUEDAN SER PRECISAS Y EN PARTICULAR, TODO LO NECESARIO PARA LA ADQUISICIÓN, TRANSMISIÓN, GESTIÓN Y EXPLOTACIÓN DE DATOS RELACIONADOS. COMERCIALIZACIÓN DE BONOS VERDES. SECTOR DEL TRANSPORTE: LA PROMISIÓN DE LAS TECNOLOGÍAS Y SISTEMAS NECESARIOS PARA EL DESARROLLO DE INFRAESTRUCTURAS FERROVIARIAS, AEROPORTUARIAS, PORTUARIAS Y DE TRANSPORTE EN CARRETERA, ASÍ COMO PARA LA GESTIÓN DEL TRÁFICO DE CUALQUIERA DE LOS MISMOS. ABARCA TODO TIPO DE EQUIPAMIENTOS, SISTEMAS O INSTALACIONES QUE PUEDAN SER PRECISAS Y EN PARTICULAR, DE MODO ENUNCIATIVO PERO NO LIMITATIVO, EL CABLEADO TRONCAL Y ESTRUCTURADO, LOS SISTEMAS DE VIGILANCIA, MEGAFONÍA, INFORMACIÓN AL VIAJERO, TELEFONÍA E INTERFONÍA, TELEMANDO DE INSTALACIONES, VENTA Y CANCELACIÓN DE TÍTULOS DE TRANSPORTE, TRANSMISIÓN DE DATOS, REDES LAN, RADIOTELEFONÍA TETRA, SEÑALIZACIÓN, SEMAFORIZACIÓN Y PUESTOS DE MANDO Y CONTROL, INCLUIDOS CENTROS DE CONTROL DE TRÁFICO DE TODO TIPO. SEGURIDAD-VIDEOVIGILANCIA: VIGILANCIA Y PROTECCIÓN DE BIENES, ESTABLECIMIENTOS, ESPECTÁCULOS, CERTÁMENES O CONVENCIONES. PROTECCIÓN DE PERSONAS DETERMINADAS, PREVIA LA AUTORIZACIÓN CORRESPONDIENTE. DEPÓSITO, CUSTODIA, RECUENTO Y CLASIFICACIÓN DE MONEDAS Y BILLETES, TÍTULOS, VALORES Y DEMÁS OBJETOS QUE, POR SU VALOR ECONÓMICO Y EXPECTATIVAS QUE GENEREN, O POR SU PELIGROSIDAD, PUEDAN REQUERIR PROTECCIÓN ESPECIAL, SIN PERJUICIO DE LAS ACTIVIDADES PROPIAS DE LAS ENTIDADES FINANCIERAS. TRANSPORTE Y DISTRIBUCIÓN DE LOS OBJETOS A QUE SE REFIERE EL APARTADO ANTERIOR A TRAVÉS DE LOS DISTINTOS MEDIOS, REALIZÁNDOLOS, EN SU CASO, MEDIANTE VEHÍCULOS CUYAS CARACTERÍSTICAS SERÁN DETERMINADAS POR EL MINISTERIO DEL INTERIOR, DE FORMA QUE NO PUEDAN CONFUNDIRSE CON LOS DE LAS FUERZAS ARMADAS NI CON LOS DE LAS FUERZAS Y CUERPOS DE SEGURIDAD. INSTALACIÓN Y MANTENIMIENTO DE APARATOS, DISPOSITIVOS Y SISTEMAS DE SEGURIDAD. EXPLOTACIÓN DE CENTRALES PARA LA RECEPCIÓN, VERIFICACIÓN Y TRANSMISIÓN, DE LAS SEÑALES DE ALARMAS Y SU COMUNICACIÓN A LAS FUERZAS Y CUERPOS DE SEGURIDAD, ASÍ COMO PRESTACIÓN DE SERVICIOS DE RESPUESTA CUYA REALIZACIÓN NO SEA DE LA COMPETENCIA DE DICHAS FUERZAS Y CUERPOS. PLANIFICACIÓN Y ASESORAMIENTO DE LAS ACTIVIDADES DE SEGURIDAD CONTEMPLADAS EN LA LEY. SECTOR SALUD: LA EJECUCIÓN DE PROYECTOS LLAVE EN MANO CONSISTENTES EN LA PROVISIÓN DE EQUIPAMIENTO MÉDICO Y MOBILIARIO CLÍNICO, TECNOLOGÍAS DE LA INFORMACIÓN, INFRAESTRUCTURA DE TELECOMUNICACIONES, INTEGRACIÓN HOSPITALARIA Y CONSULTORÍA ASÍ COMO LA PRESTACIÓN DE LA TOTALIDAD DE LOS TRABAJOS ASOCIADOS. EDIFICIOS COMPLEJOS: DESARROLLO ÍNTEGRO DE LOS SISTEMAS ELECTRÓNICOS PARA EDIFICIOS COMPLEJOS INCLUYENDO TELEFONÍA, RED DE DATOS, OTRAS COMUNICACIONES, SEGURIDAD, SISTEMAS AUDIOVISUALES Y SISTEMAS DE GESTIÓN DEL EDIFICIO, ASÍ COMO LA INTEGRACIÓN DE LOS SISTEMAS MECÁNICOS, ELÉCTRICOS Y DE FONTANERÍA, TALES COMO INSTALACIONES DE AGUA, GASES, CALEFACCIÓN, VENTILACIÓN Y AIRE ACONDICIONADO, ELECTRICIDAD, PROTECCIÓN, ASCENSORES Y ESCALERAS, ELIMINACIÓN DE RESIDUOS, SANITARIOS Y OTRAS INSTALACIONES ESPECIALES, ASÍ COMO EL SUMINISTRO DE MOBILIARIO Y SISTEMAS INFORMÁTICOS, TODO ELLO PARA EDIFICIOS TALES COMO HOSPITALES Y CENTROS MÉDICOS, CENTROS PENITENCIARIOS, FERIAS DE MUESTRAS, RESIDENCIAS, PARKINGS Y OTROS DE DIFICULTAD SIMILAR. SERVICIOS: REALIZACIÓN DE INSTALACIONES, MONTAJES Y MANTENIMIENTOS DE CUALQUIER EQUIPO, SISTEMA O RED DE TELECOMUNICACIONES, ASÍ COMO EL MONTAJE DE REDES DE CABLEADO ESTRUCTURADO. EL DESARROLLO, FABRICACIÓN Y COMERCIALIZACIÓN DE UNIDADES ELÉCTRICAS Y/O ELECTRÓNICAS CON DISTINTOS EQUIPOS DE TELECOMUNICACIONES Y DE CUALQUIER TIPO DE EQUIPO O RED ESTRUCTURADA O DE TELECOMUNICACIONES, ASÍ COMO DE SUS EQUIPAMIENTOS COMPLEMENTARIOS. REALIZACIÓN DE SERVICIOS DE OUTSOURCING PARA TERCEROS DE ACTIVIDADES RELACIONADAS CON LAS TELECOMUNICACIONES, INFORMÁTICA Y SEGURIDAD. OTROS NO CLASIFICADOS: PRESTACIÓN DE TODO TIPO DE SERVICIOS DE ASISTENCIA Y GESTIÓN ADMINISTRATIVA, COMERCIAL, FINANCIERA, ECONÓMICA. LA LLEVANZA DE CONTABILIDADES. LA PRESTACIÓN DE SERVICIOS DE ASESORAMIENTO A EMPRESAS EN LAS ÁREAS DE RECURSOS HUMANOS ASÍ COMO LAS ÁREAS DE GESTIÓN PROPIAS DE UNA COMPAÑÍA",
      "mainEntityOfPage": "https://www.contratacion.euskadi.eus/webkpe00-kperoc/es/ac71aBusquedaRegistrosWar/empresa/07417",
      "_links": {
        "self": {
          "name": "GLOBAL DOMINION ACCESS, S.A.",
          "href": "https://api.euskadi.eus/procurements/companies/07417"
        }
      }
    }
  ]
}