{
  "totalItems": 9042,
  "totalPages": 905,
  "currentPage": 573,
  "itemsOfPage": 10,
  "items": [
    {
      "name": "ALFREDO TEIJEIRO RODRÍGUEZ",
      "registrationNumber": "07047",
      "identificationNumber": "33239555R",
      "address": "LUGAR PONTE-CHAIAN, NUM. 14",
      "location": {
        "postalCode": "15687",
        "municipality": "Trazo",
        "county": "Coruña, A",
        "municipalityId": "086",
        "countyId": "15"
      },
      "economicActivities": [
        {
          "id": "2.321",
          "name": "Ingenieros técnicos industriales y textiles, ayudantes",
          "_links": {
            "self": {
              "name": "Ingenieros técnicos industriales y textiles, ayudantes",
              "href": "https://api.euskadi.eus/procurements/companies/economic-activities/2.321"
            }
          }
        }
      ],
      "certificateStartDate": "2020-05-28",
      "certificateEndDate": "2020-10-29",
      "object": "INGENIEROS TÉCNICOS INDUSTRIALES Y TEXTILES, AYUDANTES",
      "mainEntityOfPage": "https://www.contratacion.euskadi.eus/webkpe00-kperoc/es/ac71aBusquedaRegistrosWar/empresa/07047",
      "_links": {
        "self": {
          "name": "ALFREDO TEIJEIRO RODRÍGUEZ",
          "href": "https://api.euskadi.eus/procurements/companies/07047"
        }
      }
    },
    {
      "name": "ARTEK ESTUDIO DE ARQUITECTURA, S.L.P.",
      "registrationNumber": "07049",
      "identificationNumber": "B95239232",
      "address": "Dr. Luis Bilbao líbano 20, 1ºB",
      "location": {
        "postalCode": "48940",
        "municipality": "Leioa",
        "county": "Bizkaia",
        "municipalityId": "054",
        "countyId": "48"
      },
      "economicActivities": [
        {
          "id": "1.843.2",
          "name": "Servicios técnicos de arquitectura y urbanismo",
          "_links": {
            "self": {
              "name": "Servicios técnicos de arquitectura y urbanismo",
              "href": "https://api.euskadi.eus/procurements/companies/economic-activities/1.843.2"
            }
          }
        }
      ],
      "certificateStartDate": "2020-05-28",
      "certificateEndDate": "2020-10-30",
      "object": "LA ACTIVIDAD PROPIA DE LOS PROFESIONALES DE ARQUITECTURA Y DE APAREJADOR ARQUITECTO TÉCNICO ",
      "mainEntityOfPage": "https://www.contratacion.euskadi.eus/webkpe00-kperoc/es/ac71aBusquedaRegistrosWar/empresa/07049",
      "_links": {
        "self": {
          "name": "ARTEK ESTUDIO DE ARQUITECTURA, S.L.P.",
          "href": "https://api.euskadi.eus/procurements/companies/07049"
        }
      }
    },
    {
      "name": "ARNAU CODERCH OLIVA",
      "registrationNumber": "07042",
      "identificationNumber": "40366209J",
      "address": "BARRIO ASTEPE 7 B DCHA",
      "location": {
        "postalCode": "48340",
        "municipality": "Amorebieta-Etxano",
        "county": "Bizkaia",
        "municipalityId": "003",
        "countyId": "48"
      },
      "economicActivities": [
        {
          "id": "1.911",
          "name": "Servicios agrícolas y ganaderos",
          "_links": {
            "self": {
              "name": "Servicios agrícolas y ganaderos",
              "href": "https://api.euskadi.eus/procurements/companies/economic-activities/1.911"
            }
          }
        }
      ],
      "certificateStartDate": "2020-05-27",
      "certificateEndDate": "2020-11-19",
      "object": "SERVICIOS AGRÍCOLAS Y GANADEROS",
      "mainEntityOfPage": "https://www.contratacion.euskadi.eus/webkpe00-kperoc/es/ac71aBusquedaRegistrosWar/empresa/07042",
      "_links": {
        "self": {
          "name": "ARNAU CODERCH OLIVA",
          "href": "https://api.euskadi.eus/procurements/companies/07042"
        }
      }
    },
    {
      "name": "DESARROLLO, ORGANIZACIÓN Y MOVILIDAD S.A.",
      "registrationNumber": "07044",
      "identificationNumber": "A61722740",
      "address": "C/ DIPUTACIÓN, 238 2-5",
      "location": {
        "postalCode": "08007",
        "municipality": "Barcelona",
        "county": "Barcelona",
        "municipalityId": "019",
        "countyId": "08"
      },
      "economicActivities": [
        {
          "id": "1.843.1",
          "name": "Servicios técnicos de ingeniería",
          "_links": {
            "self": {
              "name": "Servicios técnicos de ingeniería",
              "href": "https://api.euskadi.eus/procurements/companies/economic-activities/1.843.1"
            }
          }
        }
      ],
      "certificateStartDate": "2020-05-27",
      "certificateEndDate": "2020-08-07",
      "object": "A) EN GENERAL CUALQUIER ACTIVIDAD QUE GUARDE RELACIÓN, DIRECTA O INDIRECTA, CON LOS ESTUDIOS, LA ELABORACIÓN, LA INVESTIGACIÓN CIENTÍFICA Y TÉCNICA, LA ORGANIZACIÓN, APLICACIÓN Y EJECUCIÓN, LA PRESTACIÓN DE SERVICIOS, LA REALIZACIÓN DE PROYECTOS DE TODAS CLASES DE INGENIERÍA, EN CUALQUIERA DE SUS ESPECIALIDADES Y FACETAS DE SU EJERCICIO PROFESIONAL. B) EN PARTICULAR, LAS ACTIVIDADES QUE A CONTINUACIÓN SE EXPRESAN. 1.- LA REALIZACIÓN DE TODA CLASE DE ESTUDIOS Y PROYECTOS DE CONSTRUCCIÓN DE CUALQIER ESPECIE, Y DE DESARROLLO, ORGANIZACIÓN Y MOVILIDAD DEL TRÁFICO YTRANSPORTE DE PERSONAS Y MERCANCÍAS EN VEHÍCULOS U OTROS MEDIOS DE DESPLAZAMIENTOS. 2.- ELABORACIÓN DE PLANES Y PROYECTOS DE URBANISMO, ORDENACÓN TERRITORIAL Y PROTECCIÓN DEL MEDIO AMBIENTE. 3.- LA PRESTACIÓN DE SERVICIOS DE ASESORÍA ECONÓMICA, TÉCNICA, JURÍDICA, ARQUITECTÓNICA, URBANÍSTICA, DIDÁCTICA, SOCIOLÓGICA, ESTADÍSTICA, ARTÍSTICA, GESTIÓN EDITORIAL, INFORMÁTICA, CIENTÍFICA Y DE CONSULTING, DICTÁMEN, INFORMACIÓN, PUBLICIDAD Y PLANIFICACIÓN EN MATERIAS DE INGENIERÍA Y DE ADMINISTRACIÓN DE EMPRESAS PRIVADAS O PÚBLICAS, INSTITUCIÓN Y ORGANISMOS RELACIONADOS CON EL URBANISMO, LA CONSTRUCCIÓN Y LOS SISTEMAS DE TRANSPORTES. 4.- LA PROGRAMACIÓN, DIRECCIÓN E IMPARTICIÓN, DIRECTA O A TRAVÉS DE TERCEROS, DE CURSOS, CONFERENCIAS, COLOQUIOS, SEMINARIOS, MESAS REDONDAS, CONGRESOS, TANTO NACIONALES COMO INTERNACIONALES, RESPECTO DE LAS MATERIAS PROFESIONALES RELACIONADAS CON EL URBANISMO, LOS SISTEMAS DE TRANSPORTE Y LA CONSTRUCCIÓN DE TODA CLASE DE OBRAS. 5.- LA FORMACIÓN Y PERFECCIONAMIENTO PROFESIONALES DEL PERSONAL DIRECTIVO, EJECUTIVO, ADMINISTRATIVO, AUXILIAR Y SUBALTERNO QUE, CUMPLIDOS LOS REQUISITOS QUE SE ESTABLEZCAN EN CADA DASO Y CON LA CONTRAPRESTACIÓN QUE SE EXIJA, MANIFIESTE SU DESEO DE OBTENER UNA ESPECIALIZACIÓN EN LAS MATERIAS PROFESIONALES ANTES EXPRESADAS Y SEA ACEPTADO POR LA SOCIEDAD. 6.- LA PRMOCIÓN, COORDINACIÓN DE QUIPOS DE REDACCÓN, GESTIÓN DE PUBLICACIÓN Y DE EDICIÓN, DISTRIBUCIÓN Y, EN SU CASO, COMERCIALIZACIÓN DE TRATADOS, MANUALES, MONOGRAFÍAS, PERIÓDICOS Y REVISTAS ESPECIALIZADAS  EN LAS CIENCIAS Y TÉCNICAS RELACIONADAS CON EL OBJETO SOCIAL GENÉRICAMENTE CONSIDERADO",
      "mainEntityOfPage": "https://www.contratacion.euskadi.eus/webkpe00-kperoc/es/ac71aBusquedaRegistrosWar/empresa/07044",
      "_links": {
        "self": {
          "name": "DESARROLLO, ORGANIZACIÓN Y MOVILIDAD S.A.",
          "href": "https://api.euskadi.eus/procurements/companies/07044"
        }
      }
    },
    {
      "name": "PLANET POWER TOOLS IBÉRICA, S.L.",
      "registrationNumber": "07031",
      "identificationNumber": "B95375119",
      "address": "Avd Sabino Arana 64 L",
      "location": {
        "postalCode": "48640",
        "municipality": "Berango",
        "county": "Bizkaia",
        "municipalityId": "016",
        "countyId": "48"
      },
      "economicActivities": [
        {
          "id": "1.346",
          "name": "Fabricación de lámparas y material de alumbrado",
          "_links": {
            "self": {
              "name": "Fabricación de lámparas y material de alumbrado",
              "href": "https://api.euskadi.eus/procurements/companies/economic-activities/1.346"
            }
          }
        },
        {
          "id": "1.504.11",
          "name": "Instalaciones eléctricas en general, redes telegráficas, telefonía, tv, etc",
          "_links": {
            "self": {
              "name": "Instalaciones eléctricas en general, redes telegráficas, telefonía, tv, etc",
              "href": "https://api.euskadi.eus/procurements/companies/economic-activities/1.504.11"
            }
          }
        },
        {
          "id": "1.507",
          "name": "Construcción, reparación y conservación de toda clase obras",
          "_links": {
            "self": {
              "name": "Construcción, reparación y conservación de toda clase obras",
              "href": "https://api.euskadi.eus/procurements/companies/economic-activities/1.507"
            }
          }
        },
        {
          "id": "1.613.3",
          "name": "Venta al por mayor de prendas exteriores de vestir",
          "_links": {
            "self": {
              "name": "Venta al por mayor de prendas exteriores de vestir",
              "href": "https://api.euskadi.eus/procurements/companies/economic-activities/1.613.3"
            }
          }
        },
        {
          "id": "1.617.5",
          "name": "Venta al por mayor de maquinaria para la madera y el metal",
          "_links": {
            "self": {
              "name": "Venta al por mayor de maquinaria para la madera y el metal",
              "href": "https://api.euskadi.eus/procurements/companies/economic-activities/1.617.5"
            }
          }
        },
        {
          "id": "1.651.5",
          "name": "Venta al por menor de prendas especiales",
          "_links": {
            "self": {
              "name": "Venta al por menor de prendas especiales",
              "href": "https://api.euskadi.eus/procurements/companies/economic-activities/1.651.5"
            }
          }
        }
      ],
      "certificateStartDate": "2020-05-25",
      "certificateEndDate": "2020-10-23",
      "object": "A) LA PRESTACIÓN DE SUMINISTROS INDUSTRIALES, REPRESENTACIÓN, IMPORTACIÓN Y EXPORTACIÓN, ALMACENAMIENTO, LA COMERCIALIZACIÓN Y DISTRIBUCIÓN DE PRODUCTOS Y ACCESORIOS INDUSTRIALES. B) LA ADQUISICIÓN, TENENCIA, DISFRUTE, EXPLOTACIÓN Y ENAJENACIÓN DE TODA CLASE DE FINCAS RÚSTICAS O URBANAS, CUALQUIERA QUE SEA SU NATURALEZA. C) LA PROMOCIÓN, CONSTRUCCIÓN, REHABILITACIÓN Y REPARACIÓN, POR CUENTA PROPIA O AJENA, DE TODA CLASE DE OBRAS, URBANIZACIONES, EDIFICIOS Y CONSTRUCCIONES, TANTO PÚBLICOS COMO PRIVADOS. D) LA ADMINISTRACIÓN, ASESORAMIENTO, GESTIÓN DE ACTUACIONES URBANÍSTICAS Y PRESTACIÓN DE SERVICIOS DE TODO TIPO CON RELACIÓN A BIENES INMUEBLES, SEGÚN CONVENGA A SU APROVECHAMIENTO AGRÍCOLA, FORESTAL, URBANO, INDUSTRIAL O DE CUALQUIER OTRA NATURALEZA. E) LA ASISTENCIA, GESTIÓN, DIRECCIÓN Y ADMINISTRACIÓN, PROMOCIÓN, INTERVENCIÓN Y PARTICIPACIÓN DE EMPRESAS O EN SU CREACIÓN CONSTITUCIÓN O DESARROLLO. F) PROMOCIÓN, ESTUDIO Y DESARROLLO DE PRODUCTOS Y ACTIVIDADES INDUSTRIALES, COMERCIALES Y DE EXPLOTACIÓN O CESIÓN DE CÁNONES O ROYALTIES Y DERECHOS DE PROPIEDAD INDUSTRIAL. G) LOS SERVICIOS DE MEDIACIÓN, GESTIÓN, REPRESENTACIÓN Y COMERCIO INTERIOR Y EXTERIOR, ALMACENAMIENTO, ARRENDAMIENTO Y EN GENERAL, LA COMERCIALIZACIÓN Y DISTRIBUCIÓN DE TODA CLASE DE PRODUCTOS. H) LA ADQUISICIÓN, TENENCIA, DISFRUTE, ADMINISTRACIÓN Y ENAJENACIÓN DE TODA CLASE DE TÍTULOS COMO VALORES MOBILIARIOS ACTIVOS FINANCIEROS, DERECHOS VALORES, CUOTAS O PARTICIPACIONES EN EMPRESAS INDIVIDUALES O SOCIALES POR CUENTA PROPIA Y CON EXCEPCIÓN DE LA INTERMEDIACIÓN, NO INCLUYÉNDOSE EN NINGÚN CASO LAS ACTIVIDADES OBJETO DE LA LEGISLACIÓN DE INSTITUCIONES DE INVERSIÓN COLECTIVA Y DE MERCADO DE VALORES. Y EN GENERAL, LA CONSTRUCCIÓN COMPLETA, REPARACIÓN Y CONSERVACIÓN Y MANTENIMIENTO DE TODAS LAS CLASE DE OBRAS Y DE TODOS LOS TIPO DE INSTALACIONES, ASÍ COMO LA PRESTACIÓN DE TODAS LAS CLASES DE SERVICIOS, CON ESPECIAL MENCIÓN A TODOS LOS TIPO DE OBRAS Y DE SERVICIOS CONTENIDOS EN LA LEY DE CONTRATOS DEL SECTOR PÚBLICO Y SU REGLAMENTO Y/O EN CUALQUIER OTRA LEY Y SU REGLAMENTO, QUE LA SUSTITUYA",
      "mainEntityOfPage": "https://www.contratacion.euskadi.eus/webkpe00-kperoc/es/ac71aBusquedaRegistrosWar/empresa/07031",
      "_links": {
        "self": {
          "name": "PLANET POWER TOOLS IBÉRICA, S.L.",
          "href": "https://api.euskadi.eus/procurements/companies/07031"
        }
      }
    },
    {
      "name": "ACTIVIDADES DE SEGURIDAD VIAL CANTÁBRICO, S.L.U",
      "registrationNumber": "07032",
      "identificationNumber": "B39712229",
      "address": "POLIGONO INDUSTRIAL DE BARROS, PARCELA 6-3",
      "location": {
        "postalCode": "39408",
        "municipality": "Corrales de Buelna, Los",
        "county": "Cantabria",
        "municipalityId": "025",
        "countyId": "39"
      },
      "economicActivities": [
        {
          "id": "1.316.9",
          "name": "Fabricación de otros artículos acabados en metales n.c.o.p",
          "_links": {
            "self": {
              "name": "Fabricación de otros artículos acabados en metales n.c.o.p",
              "href": "https://api.euskadi.eus/procurements/companies/economic-activities/1.316.9"
            }
          }
        },
        {
          "id": "1.506.0",
          "name": "Instalaciones de andamios, cimbras, encofrados, etc",
          "_links": {
            "self": {
              "name": "Instalaciones de andamios, cimbras, encofrados, etc",
              "href": "https://api.euskadi.eus/procurements/companies/economic-activities/1.506.0"
            }
          }
        }
      ],
      "certificateStartDate": "2020-05-25",
      "certificateEndDate": "2020-11-05",
      "object": "LA FABRICACIÓN, VENTA POR CUENTA PROPIA O EN COMISIÓN, AL POR MAYOR O MENOR, DE PINTURA, PLÁSTICOS, MAQUINARIA Y DEMÁS ELEMENTOS RELATIVOS AL NEGOCIO DE PINTURAS Y EN GENERAL, TODOS AQUELLOS PRODUCTOS RELACIONADOS CON LA CONSTRUCCIÓN, CONSERVACIÓN Y EXPLOTACIÓN DE CARRETERAS, AUTOPISTAS, AEROPUERTOS Y VÍAS URBANAS; ASÍ COMO PROYECTAR, ESTUDIAR Y REALIZAR TODAS LAS CUESTIONES INHERENTES A ESTA ACTIVIDAD, Y EN ESPECIAL LAS RELACIONADAS CON LAS SEÑALIZACIONES; APLICAR Y CONSERVAR LOS PRODUCTOS PERTINENTES, IMPORTAR Y EXPORTAR LOS MISMOS. LA CONSTRUCCIÓN Y CONSERVACIÓN DE INFRAESTRUCTURAS HIDRÁULICAS TALES COMO: CANALES, REPRESAS, ESTACIONES DE BOMBEO, ESCLUSAS, SISTEMAS DE ABASTECIMIENTO DE AGUA POTABLE, SISTEMAS DE RECOGIDA DE AGUAS RESIDUALES, SISTEMAS DE RIEGO, SISTEMAS DE DRENAJE, DEFENSAS RIBEREÑAS, RECARGA DE ACUÍFEROS Y POZOS DE ABSORCIÓN. TODO ELLO MEDIANTE CUALQUIER FORMA DE CONTRATACIÓN, YA SEA PÚBLICA O PRIVADA, AL SERVICIO DEL ESTADO, COMUNIDAD AUTÓNOMA, PROVINCIA, MUNICIPIO Y EMPRESAS PRIVADAS. LA CONTRATACIÓN, GESTIÓN Y EJECUCIÓN DE TODA CLASE DE OBRAS Y CONSTRUCCIONES EN SU MÁS AMPLIO SENTIDO, TANTO PÚBLICAS COMO PRIVADAS. LA CONSERVACIÓN INTEGRAL DE CARRETERAS, VÍAS, AUTOPISTAS, PUERTOS, AEROPUERTOS, EDIFICIOS Y CUALQUIER OBRA PÚBLICA SUSCEPTIBLE DE CONSERVACIÓN Y MANTENIMIENTO. LA ELABORACIÓN DE TODO TIPO DE PROYECTOS DE INGENIERÍA Y ARQUITECTURA, LA SUPERVISIÓN. DIRECCIÓN Y ASESORAMIENTO EN LA EJECUCIÓN DE TODO TIPO DE OBRAS Y CONSTRUCCIONES, INCLUIDAS LAS LABORES DE CONSULTORÍA DE LAS MISMAS. LA ADQUISICIÓN, TENENCIA, DISFRUTE, ADMINISTRACIÓN Y ENAJENACIÓN DE TODA CLASE DE VALORES MOBILIARIOS POR CUENTA PROPIA, QUEDANDO EXCLUIDAS LAS ACTIVIDADES QUE LA LEGISLACIÓN ESPECIAL Y LA LEY DE MERCADO DE VALORES ATRIBUYEN CON CARÁCTER EXCLUSIVO A OTRAS ENTIDADES. LA TITULARIDAD DE TODA CLASE DE CONCESIONES, SUB-CONCESIONES DE AUTORIZACIONES ADMINISTRATIVAS DE OBRAS Y SERVICIOS DEL ESTADO, COMUNIDAD AUTÓNOMA, PROVINCIA Y MUNICIPIO, Y LA PARTICIPACIÓN EN SOCIEDADES O ENTIDADES CONCESIONARIAS DE AQUELLAS. LA FABRICACIÓN, COMPRA, VENTA, IMPORTACIÓN, EXPORTACIÓN Y DISTRIBUCIÓN DE EQUIPOS, INSTALACIÓN DE ELEMENTOS Y MATERIALES DE CONSTRUCCIÓN O DESTINADOS A LA MISMA, Y AL AMUEBLAMIENTO DE INMUEBLES Y MOBILIARIO URBANO. LA ADQUISICIÓN, EXPLOTACIÓN, COMERCIALIZACIÓN, CESIÓN Y ENAJENACIÓN DE TODO TIPO DE PROPIEDAD INTELECTUAL, PATENTES Y DEMÁS MODALIDADES DE PROPIEDAD INDUSTRIAL. LA EXPLOTACIÓN DE ACTIVIDADES AGRÍCOLAS, CULTIVO, TRANSFORMACIÓN Y COMERCIALIZACIÓN DE TODO TIPO DE PRODUCTOS AGRÍCOLAS. LAS INSTALACIONES Y MANTENIMIENTOS ELÉCTRICOS DE ALTA, MEDIA Y BAJA TENSIÓN DE REDES INFORMÁTICAS, DE VOZ, DE DATOS, CIRCUITOS DE VIDEO, REDES TELEGRÁFICAS, TELEFÓNICAS, DE TELEVISIÓN, DE APARATOS ELEVADORES, DE ESTANTERÍAS METÁLICAS, DE FONTANERÍA, DE AIRE ACONDICIONADO, DE CERRAJERÍAS, DE CALEFACCIÓN, DE GRUPOS ELECTRÓGENOS Y MAQUINARIA ELÉCTRICA. EJECUCIÓN Y REALIZACIÓN DE PROYECTOS ELÉCTRICOS Y REDES INFORMÁTICAS. DIRECCIÓN DE OBRAS ELÉCTRICAS, ELECTRÓNICAS O INFORMÁTICAS. PROYECTOS DE TELECOMUNICACIONES, INSTALACIONES RADIOELÉCTRICAS Y DE VÍDEO VIGILANCIA. EL DESARROLLO DE SOFTWARE, LA PROGRAMACIÓN Y LA INTEGRACIÓN DE EQUIPOS INFORMÁTICOS, DE TELECOMUNICACIONES, RADIOELÉCTRICOS Y ELECTRÓNICOS. EL DISEÑO, INVESTIGACIÓN, DESARROLLO, FABRICACIÓN, EXPLOTACIÓN, SUMINISTRO, MANTENIMIENTO, REPARACIÓN, EMBALAJE, INSTALACIÓN, MONTAJE, DISTRIBUCIÓN, REPRESENTACIÓN, EXPORTACIÓN E IMPORTACIÓN, COMERCIALIZACIÓN, COMPRA Y VENTA AL POR MAYOR Y AL POR MENOR DE TODO TIPO DE ELECTRODOMÉSTICOS, MAQUINARIA MANUAL, ELÉCTRICA Y ELECTRÓNICA, HERRAMIENTAS, VEHÍCULOS, EQUIPOS INFORMÁTICOS, ELECTRÓNICOS, ELÉCTRICOS DE TELECOMUNICACIÓN, TELEFONÍA, SONIDO, IMAGEN, ORDENADORES, PROGRAMAS INFORMÁTICOS, MOBILIARIO, ASÍ COMO TODO TIPO DE PRODUCTOS INFORMÁTICOS, OFIMÁTICOS, CONSUMIBLES, Y PRODUCTOS AFINES. LA REGENERACIÓN DE TALUDES: HIDROSIEMBRA, MALLAS, MANTAS ORGÁNICAS Y GUTINADOS VERDES; ARBORICULTURA; REPOBLACIONES, FORESTACIONES Y REFORESTACIONES, CONTROL Y MANTENIMIENTO DE FORESTACIONES; PODAS Y ABATIMIENTOS DE ÁRBOLES EN PARCELAS Y TERRENOS DE MONTAÑA, DESBROCE DE CUENTAS, MONTES, CAMPOS, PARCELAS, CLAREOS Y TODO TIPO DE VÍAS O VIALES PÚBLICOS O PRIVADOS; CONTROL INTEGRAL DE PLAGAS Y ENFERMEDADES; DESBROCE MANUALES Y MECÁNICOS, MANTENIMIENTOS CON TRATAMIENTOS HERBICIDAS TOTALES O SELECTIVOS, TALAS; MANTENIMIENTO, SANEAMIENTO Y LIMPIEZA PARA PARQUES, JARDINES Y ZONAS VERDES. LA VENTA DE PRODUCTOS AGRO-QUÍMICOS. LA PROMOCIÓN DE ACTIVIDADES CIENTÍFICAS, DE INVESTIGACIÓN Y CULTURALES QUE COLABOREN CON EL ESTUDIO DE Y PRESERVACIÓN DEL MEDIO AMBIENTE; ACTUACIONES DE SANEAMIENTO Y DEPURACIÓN DE AGUAS RESIDUALES; ACTUACIONES RELATIVAS A LA RECOGIDA, DESTRUCCIÓN, TRANSPORTE Y RECICLAJE DE RESIDUOS; APROVECHAMIENTO DE ENERGÍAS RENOVABLES; ENERGÍA EÓLICA, SOLAR, HIDRÁULICA, NUCLEAR, FOTOVOLTAICA Y BIOMASA, BIOGÁS Y BIOENERGÍA",
      "mainEntityOfPage": "https://www.contratacion.euskadi.eus/webkpe00-kperoc/es/ac71aBusquedaRegistrosWar/empresa/07032",
      "_links": {
        "self": {
          "name": "ACTIVIDADES DE SEGURIDAD VIAL CANTÁBRICO, S.L.U",
          "href": "https://api.euskadi.eus/procurements/companies/07032"
        }
      }
    },
    {
      "name": "TRANSPORTES VICUÑA, S.A.",
      "registrationNumber": "07033",
      "identificationNumber": "A20072435",
      "address": "POL. IND. HARIZTI, PAB.14",
      "location": {
        "postalCode": "20212",
        "municipality": "Olaberria",
        "county": "Gipuzkoa",
        "municipalityId": "058",
        "countyId": "20"
      },
      "economicActivities": [
        {
          "id": "1.722",
          "name": "Transporte de mercancías por carretera",
          "_links": {
            "self": {
              "name": "Transporte de mercancías por carretera",
              "href": "https://api.euskadi.eus/procurements/companies/economic-activities/1.722"
            }
          }
        },
        {
          "id": "1.756.1",
          "name": "Agencias de transporte, transitarios",
          "_links": {
            "self": {
              "name": "Agencias de transporte, transitarios",
              "href": "https://api.euskadi.eus/procurements/companies/economic-activities/1.756.1"
            }
          }
        },
        {
          "id": "1.854.1",
          "name": "Alquiler de automóviles sin conductor",
          "_links": {
            "self": {
              "name": "Alquiler de automóviles sin conductor",
              "href": "https://api.euskadi.eus/procurements/companies/economic-activities/1.854.1"
            }
          }
        }
      ],
      "certificateStartDate": "2020-05-25",
      "certificateEndDate": "2020-10-08",
      "object": "EL TRANSPORTE POR CARRETERA EN VEHÍCULOS DE CUALQUIER CLASE, DEPÓSITO Y ALMACENAMIENTO DE MERCANCÍAS",
      "mainEntityOfPage": "https://www.contratacion.euskadi.eus/webkpe00-kperoc/es/ac71aBusquedaRegistrosWar/empresa/07033",
      "_links": {
        "self": {
          "name": "TRANSPORTES VICUÑA, S.A.",
          "href": "https://api.euskadi.eus/procurements/companies/07033"
        }
      }
    },
    {
      "name": "SYSTEM ARS SOLUCIONES DE GESTIÓN, S.L.",
      "registrationNumber": "07036",
      "identificationNumber": "B19563550",
      "address": "C/ Sagitario, 14",
      "location": {
        "postalCode": "18102",
        "municipality": "Vegas del Genil",
        "county": "Granada",
        "municipalityId": "911",
        "countyId": "18"
      },
      "economicActivities": [
        {
          "id": "1.501.3",
          "name": "Albañilería y pequeños trabajos de construcción en general",
          "_links": {
            "self": {
              "name": "Albañilería y pequeños trabajos de construcción en general",
              "href": "https://api.euskadi.eus/procurements/companies/economic-activities/1.501.3"
            }
          }
        },
        {
          "id": "1.611",
          "name": "Venta al por mayor de toda clase de mercancías",
          "_links": {
            "self": {
              "name": "Venta al por mayor de toda clase de mercancías",
              "href": "https://api.euskadi.eus/procurements/companies/economic-activities/1.611"
            }
          }
        },
        {
          "id": "1.615.4",
          "name": "Venta al por mayor de aparatos y material radioeléctrico y electrónico",
          "_links": {
            "self": {
              "name": "Venta al por mayor de aparatos y material radioeléctrico y electrónico",
              "href": "https://api.euskadi.eus/procurements/companies/economic-activities/1.615.4"
            }
          }
        },
        {
          "id": "1.842",
          "name": "Servicios financieros y contables",
          "_links": {
            "self": {
              "name": "Servicios financieros y contables",
              "href": "https://api.euskadi.eus/procurements/companies/economic-activities/1.842"
            }
          }
        },
        {
          "id": "1.989.2",
          "name": "Servicios de organización de congresos, asambleas y similares",
          "_links": {
            "self": {
              "name": "Servicios de organización de congresos, asambleas y similares",
              "href": "https://api.euskadi.eus/procurements/companies/economic-activities/1.989.2"
            }
          }
        }
      ],
      "certificateStartDate": "2020-05-25",
      "certificateEndDate": "2020-11-13",
      "object": "1. COMERCIO AL POR MAYOR Y AL POR MENOR. DISTRIBUCIÓN Y EXPORTACIÓN. 2.TURISMO, HOSTELERÍA Y RESTAURACIÓN. 3. PRESTACIÓN DE SERVICIOS. ACTIVIDADES DE GESTIÓN Y EDUCATIVOS DE OCIO Y ENTRETENIMIENTO. 4. INFORMÁTICA TELECOMUNICACIONES Y OFIMÁTICA. 5.CONSTRUCCIÓN, PEQUEÑOS TRABAJOS DE ALBAÑILERÍA, REFORMAS Y OBRA CIVIL, ASIMISMO VENTA DE MATERIAL ELÉCTRICO",
      "mainEntityOfPage": "https://www.contratacion.euskadi.eus/webkpe00-kperoc/es/ac71aBusquedaRegistrosWar/empresa/07036",
      "_links": {
        "self": {
          "name": "SYSTEM ARS SOLUCIONES DE GESTIÓN, S.L.",
          "href": "https://api.euskadi.eus/procurements/companies/07036"
        }
      }
    },
    {
      "name": "GINZO TECHNOLOGIES, S.L.",
      "registrationNumber": "07039",
      "identificationNumber": "B26517219",
      "address": "DONE BIKENDI KALEA, 5",
      "location": {
        "postalCode": "48001",
        "municipality": "Bilbao",
        "county": "Bizkaia",
        "municipalityId": "020",
        "countyId": "48"
      },
      "economicActivities": [
        {
          "id": "1.845",
          "name": "Explotación electrónica por cuenta de terceros",
          "_links": {
            "self": {
              "name": "Explotación electrónica por cuenta de terceros",
              "href": "https://api.euskadi.eus/procurements/companies/economic-activities/1.845"
            }
          }
        }
      ],
      "certificateStartDate": "2020-05-25",
      "certificateEndDate": "2020-11-13",
      "object": "-CONSTRUIR Y PUBLICAR ESPACIOS WEB Y POSICIONARLOS EN INTERNET, BIEN PARA TERCEROS O BIEN PROPIOS O PARTICIPADOS, ASÍ COMO LA VENTA DE SERVICIOS POR INTERNET. -SERVICIOS DE CONSULTORÍA DE WEB, SEGURIDAD Y SISTEMAS. -SOLUCIONES, CONSULTAS E INTERNET. -DESARROLLO DE PLANES DE NEGOCIO MARCADOS POR LAS NUEVAS TECNOLOGÍAS, INTERNET Y LAS REDES SOCIALES. TODO ELLO ENFOCADO A PROMOVER LAS TECNOLOGÍAS RENOVABLES Y EL AHORRO ENERGÉTICO. - ANÁLISIS Y ESTUDIOS COMERCIALES, FINANCIEROS Y ECONÓMICOS DE VIABILIDAD, ASÍ COMO CONSULTORÍA ACTIVA DE GESTIÓN EMPRESARIAL\r\n",
      "mainEntityOfPage": "https://www.contratacion.euskadi.eus/webkpe00-kperoc/es/ac71aBusquedaRegistrosWar/empresa/07039",
      "_links": {
        "self": {
          "name": "GINZO TECHNOLOGIES, S.L.",
          "href": "https://api.euskadi.eus/procurements/companies/07039"
        }
      }
    },
    {
      "name": "P&V, S.A.",
      "registrationNumber": "07027",
      "identificationNumber": "A78668571",
      "address": "C/ MARIE CURIE, 19",
      "location": {
        "postalCode": "28521",
        "municipality": "Rivas-Vaciamadrid",
        "county": "Madrid",
        "municipalityId": "123",
        "countyId": "28"
      },
      "economicActivities": [
        {
          "id": "1.659.2",
          "name": "Venta al por menor de muebles de oficina y máquinas y equipos de oficina",
          "_links": {
            "self": {
              "name": "Venta al por menor de muebles de oficina y máquinas y equipos de oficina",
              "href": "https://api.euskadi.eus/procurements/companies/economic-activities/1.659.2"
            }
          }
        }
      ],
      "certificateStartDate": "2020-05-22",
      "certificateEndDate": "2020-11-12",
      "object": "1.- LA FABRICACIÓN, REPRESENTACIÓN, DESARROLLO, DISTRIBUCIÓN, VENTA, CONSERVACIÓN Y MANTENIMIENTO DE PRODUCTOS Y PROGRAMAS INFORMÁTICOS DE TODO TIPO, INCLUIDO EL SOFTWARE Y HARDWARE, ASÍ COMO IMPARTIR LA FORMACIÓN NECESARIA PARA SU UTILIZACIÓN. LA INFORMÁTICA DE GESTIÓN. 2.- LA FABRICACIÓN Y VENTA DE TARJETAS O SISTEMAS DE IDENTIFICACIÓN PERSONAL DE TODO TIPO. 3.- LA FORMACIÓN Y SELECCIÓN DE PERSONAL, Y ASESORAMIENTO EN MATERIA DE RECURSOS HUMANOS. 4.-LA CONSULTORÍA DE EMPRESAS",
      "mainEntityOfPage": "https://www.contratacion.euskadi.eus/webkpe00-kperoc/es/ac71aBusquedaRegistrosWar/empresa/07027",
      "_links": {
        "self": {
          "name": "P&V, S.A.",
          "href": "https://api.euskadi.eus/procurements/companies/07027"
        }
      }
    }
  ]
}