{
  "totalItems": 9042,
  "totalPages": 905,
  "currentPage": 199,
  "itemsOfPage": 10,
  "items": [
    {
      "name": "SHERNAN CREATIVE COLLECTIVE. S.L.",
      "registrationNumber": "09639",
      "identificationNumber": "B01631043",
      "address": "MARTIN UGALDE KALEA Nº 14W SM 2A",
      "location": {
        "postalCode": "20140",
        "municipality": "Andoain",
        "county": "Gipuzkoa",
        "municipalityId": "009",
        "countyId": "20"
      },
      "economicActivities": [
        {
          "id": "1.844",
          "name": "Servicios de publicidad, relaciones públicas y similares",
          "_links": {
            "self": {
              "name": "Servicios de publicidad, relaciones públicas y similares",
              "href": "https://api.euskadi.eus/procurements/companies/economic-activities/1.844"
            }
          }
        }
      ],
      "certificateStartDate": "2025-10-22",
      "certificateEndDate": "2026-04-22",
      "object": "EL ESTUDIO, PLANIFICACIÓN, CONCEPTUALIZACIÓN, CON CONCEPCIÓN, CREACIÓN, EJECUCIÓN INTERNA, EJECUCIÓN EXTERNA, PRODUCCIÓN, INTERMEDIACIÓN Y SUPERVISIÓN DE OTRA EJECUCIONES EXTERNAS Y ENTREGA DE PUBLICIDAD, CONTENIDOS DE MARCA A MEDIOS DE COMUNICACIÓN Y OTROS MEDIOS DE DIFUSIÓN, CON EL FIN DE PROMOVER LA OFERTA DE BIENES Y SERVICIOS DE CUALQUIER NATURALEZA O TIPO DE EMPRESA O ANUNCIANTE Y DIFUNDIR IDEAS O INFORMAR AL PÚBLICO EN GENERAL. CONSULTORÍA, ESTRATEGIA CREATIVA, IDEAS Y ACCIONES DE COMUNICACIÓN. ",
      "mainEntityOfPage": "https://www.contratacion.euskadi.eus/webkpe00-kperoc/es/ac71aBusquedaRegistrosWar/empresa/09639",
      "_links": {
        "self": {
          "name": "SHERNAN CREATIVE COLLECTIVE. S.L.",
          "href": "https://api.euskadi.eus/procurements/companies/09639"
        }
      }
    },
    {
      "name": "ACCORD HEALTHCARE, S.L.U.",
      "registrationNumber": "04420",
      "identificationNumber": "B65112930",
      "address": "WORLD TRADE CENTER, MOLL DE BARCELONA S/N, ED. NORTE, 6º ",
      "location": {
        "postalCode": "08039",
        "municipality": "Barcelona",
        "county": "Barcelona",
        "municipalityId": "019",
        "countyId": "08"
      },
      "economicActivities": [
        {
          "id": "1.614.1",
          "name": "Venta al por mayor de productos farmacéuticos y medicamentos",
          "_links": {
            "self": {
              "name": "Venta al por mayor de productos farmacéuticos y medicamentos",
              "href": "https://api.euskadi.eus/procurements/companies/economic-activities/1.614.1"
            }
          }
        }
      ],
      "certificateStartDate": "2025-10-22",
      "certificateEndDate": "2026-04-22",
      "object": "LA COMERCIALIZACIÓN, VENTA, DISTRIBUCIÓN, IMPORTACIÓN Y EXPORTACIÓN DE TODA CLASE DE SUSTANCIAS MEDICINALES, PRODUCTOS, PREPARADOS Y ESPECIALIDADES FARMACEÚTICAS, DERMATOLÓGICAS Y DE HIGIENE",
      "mainEntityOfPage": "https://www.contratacion.euskadi.eus/webkpe00-kperoc/es/ac71aBusquedaRegistrosWar/empresa/04420",
      "_links": {
        "self": {
          "name": "ACCORD HEALTHCARE, S.L.U.",
          "href": "https://api.euskadi.eus/procurements/companies/04420"
        }
      }
    },
    {
      "name": "IRULE ZERBITZU JURIDIKO ETA PSIKOSOZIALA S.COO.PEQUEÑA PROFESIONAL",
      "registrationNumber": "08297",
      "identificationNumber": "F06953749",
      "address": "ANTZIOLA Nº1",
      "location": {
        "postalCode": "20120",
        "municipality": "Hernani",
        "county": "Gipuzkoa",
        "municipalityId": "040",
        "countyId": "20"
      },
      "economicActivities": [
        {
          "id": "1.841",
          "name": "Servicios jurídicos",
          "_links": {
            "self": {
              "name": "Servicios jurídicos",
              "href": "https://api.euskadi.eus/procurements/companies/economic-activities/1.841"
            }
          }
        }
      ],
      "certificateStartDate": "2025-10-22",
      "certificateEndDate": "2026-04-22",
      "object": "OFRECER ASESORÍA JURÍDICA TANTO A PARTICULARES COMO A ENTIDADES PÚBLICAS Y PRIVADAS, SEGUIMIENTO DE PROCEDIMIENTOS JUDICIALES, MEDIACIÓN, FORMACIONES EN DIFERENTES ÁMBITOS JURÍDICOS, TALLERES, DINAMIZACIÓN DE GRUPOS, SERVICIO PSOCOSOCIAL PARA CLIENTAS/ES Y LAS PERSONAS USUARIAS, PARTIENDO DESDE UNA PERSPECTIVA FEMINISTA.",
      "mainEntityOfPage": "https://www.contratacion.euskadi.eus/webkpe00-kperoc/es/ac71aBusquedaRegistrosWar/empresa/08297",
      "_links": {
        "self": {
          "name": "IRULE ZERBITZU JURIDIKO ETA PSIKOSOZIALA S.COO.PEQUEÑA PROFESIONAL",
          "href": "https://api.euskadi.eus/procurements/companies/08297"
        }
      }
    },
    {
      "name": "AYC AUTOMATISMOS, S.L.",
      "registrationNumber": "07348",
      "identificationNumber": "B20534541",
      "address": "CALLE URKI 1 Y 3 BAJO",
      "location": {
        "postalCode": "20600",
        "municipality": "Eibar",
        "county": "Gipuzkoa",
        "municipalityId": "030",
        "countyId": "20"
      },
      "economicActivities": [
        {
          "id": "1.342",
          "name": "Fabricación de material eléctrico de utilización y equipamiento",
          "_links": {
            "self": {
              "name": "Fabricación de material eléctrico de utilización y equipamiento",
              "href": "https://api.euskadi.eus/procurements/companies/economic-activities/1.342"
            }
          }
        },
        {
          "id": "1.504.1",
          "name": "Instalaciones eléctricas en general",
          "_links": {
            "self": {
              "name": "Instalaciones eléctricas en general",
              "href": "https://api.euskadi.eus/procurements/companies/economic-activities/1.504.1"
            }
          }
        },
        {
          "id": "1.921.7",
          "name": "Servicios de protección contra incendios y accidentes",
          "_links": {
            "self": {
              "name": "Servicios de protección contra incendios y accidentes",
              "href": "https://api.euskadi.eus/procurements/companies/economic-activities/1.921.7"
            }
          }
        }
      ],
      "certificateStartDate": "2025-10-22",
      "certificateEndDate": "2026-04-22",
      "object": "LA INSTALACIÓN Y MANTENIMIENTO DE APARATOS, DISPOSITIVOS Y SISTEMAS DE SEGURIDAD",
      "mainEntityOfPage": "https://www.contratacion.euskadi.eus/webkpe00-kperoc/es/ac71aBusquedaRegistrosWar/empresa/07348",
      "_links": {
        "self": {
          "name": "AYC AUTOMATISMOS, S.L.",
          "href": "https://api.euskadi.eus/procurements/companies/07348"
        }
      }
    },
    {
      "name": "KALAKA, KOOP. ELK. TXIKIA",
      "registrationNumber": "07661",
      "identificationNumber": "F75199133",
      "address": "Basotxiki 25, behea",
      "location": {
        "postalCode": "20015",
        "municipality": "Donostia / San Sebastián",
        "county": "Gipuzkoa",
        "municipalityId": "069",
        "countyId": "20"
      },
      "economicActivities": [
        {
          "id": "1.476.1",
          "name": "Edición de libros",
          "_links": {
            "self": {
              "name": "Edición de libros",
              "href": "https://api.euskadi.eus/procurements/companies/economic-activities/1.476.1"
            }
          }
        },
        {
          "id": "1.843.9",
          "name": "Otros servicios técnicos n.c.o.p",
          "_links": {
            "self": {
              "name": "Otros servicios técnicos n.c.o.p",
              "href": "https://api.euskadi.eus/procurements/companies/economic-activities/1.843.9"
            }
          }
        },
        {
          "id": "1.844",
          "name": "Servicios de publicidad, relaciones públicas y similares",
          "_links": {
            "self": {
              "name": "Servicios de publicidad, relaciones públicas y similares",
              "href": "https://api.euskadi.eus/procurements/companies/economic-activities/1.844"
            }
          }
        },
        {
          "id": "1.849.9",
          "name": "Otros servicios independientes n.c.o.p",
          "_links": {
            "self": {
              "name": "Otros servicios independientes n.c.o.p",
              "href": "https://api.euskadi.eus/procurements/companies/economic-activities/1.849.9"
            }
          }
        },
        {
          "id": "1.932.1",
          "name": "Enseñanza de formación y perfeccionamiento profesional no superior",
          "_links": {
            "self": {
              "name": "Enseñanza de formación y perfeccionamiento profesional no superior",
              "href": "https://api.euskadi.eus/procurements/companies/economic-activities/1.932.1"
            }
          }
        }
      ],
      "certificateStartDate": "2025-10-22",
      "certificateEndDate": "2026-04-22",
      "object": "- EMAKUME ETA GIZONEN BERDINTASUN ARLOAN, KOMUNIKAZIOAN ETA HEZKIDETZAN FORMAKUNTZA ETA AHOLKULARITZA EMATEA ENTITATE PUBLIKO ETA PRIBATUEI.- JENDARTEAN BERDINTASUNA ETA HEZKIDETZA SUSTATZEKO BITARTEKOEN SORRERA, BANAKETA ETA KOMERTZIALIZAZIOA. - EKINTZAILETASUNA ETA ENPRESA SORTU BERRIEI AHOLKULARITZA TEKNIKOA ETA COACHING ZERBITZUA GENERO IKUSPEGIAREKIN.- DISEINU GRAFIKOA, KOMUNIKAZIOA, SENTSIBILIZAZIOA ETA PUBLIZITATEA GENERO IKUSPEGIAREKIN\n",
      "mainEntityOfPage": "https://www.contratacion.euskadi.eus/webkpe00-kperoc/es/ac71aBusquedaRegistrosWar/empresa/07661",
      "_links": {
        "self": {
          "name": "KALAKA, KOOP. ELK. TXIKIA",
          "href": "https://api.euskadi.eus/procurements/companies/07661"
        }
      }
    },
    {
      "name": "TEKNEI CONSULTING, S.L.",
      "registrationNumber": "07908",
      "identificationNumber": "B42863910",
      "address": "C/ Gran Vía Don Diego López de Haro, 17 - 7",
      "location": {
        "postalCode": "48001",
        "municipality": "Bilbao",
        "county": "Bizkaia",
        "municipalityId": "020",
        "countyId": "48"
      },
      "economicActivities": [
        {
          "id": "1.847",
          "name": "Servicios de consultoría",
          "_links": {
            "self": {
              "name": "Servicios de consultoría",
              "href": "https://api.euskadi.eus/procurements/companies/economic-activities/1.847"
            }
          }
        }
      ],
      "certificateStartDate": "2025-10-22",
      "certificateEndDate": "2026-04-22",
      "object": "LA CONSULTORÍA DE NEGOCIO, PRESTACIÓN DE SERVICIOS DE ASESORAMIENTO A EMPRESAS Y ENTIDADES PÚBLICAS EN SU DESARROLLO, ORGANIZACIÓN, DEFINICIÓN DE PROCESOS, FINANCIACIÓN, DEFINICIÓN DE POLÍTICAS PÚBLICAS. LA CONSULTORÍA TECNOLÓGICA DE TODO TIPO DE PROCESOS DE NEGOCIOS DE TODAS CLASES Y CURSOS DE FORMACIÓN INFORMÁTICA. LA PRESTACIÓN DE TODA DASE DE SERVICIOS DE CONSULTORÍA, ORGANIZACIÓN, MECANIZACIÓN, CÁLCULO, Y SISTEMAS PARA ENTIDADES PÚBLICAS Y PRIVADAS. LA PRESTACIÓN DE SERVICIOS RELACIONADOS CON EL DESARROLLO, CONSULTORÍA, EXPLOTACIÓN Y MANTENIMIENTO DE SISTEMAS INFORMÁTICOS EN TODAS SUS MODALIDADES. LA COMERCLALLZACIÓN Y DISTRIBUCIÓN DE PROGRAMAS Y PAQUETES LÓGICOS (SOFTWARE) TANTO DE SISTEMAS COMO DE AQUELLOS QUE CORRESPONDAN AL ÁREA DE APLICACIONES COMERCIALES",
      "mainEntityOfPage": "https://www.contratacion.euskadi.eus/webkpe00-kperoc/es/ac71aBusquedaRegistrosWar/empresa/07908",
      "_links": {
        "self": {
          "name": "TEKNEI CONSULTING, S.L.",
          "href": "https://api.euskadi.eus/procurements/companies/07908"
        }
      }
    },
    {
      "name": "ASOCIACIÓN DE INTERVENCIÓN SOCIOEDUCATIVA KALEXKA",
      "registrationNumber": "06071",
      "identificationNumber": "G20745287",
      "address": "IDIAZABAL,41 BAJO",
      "location": {
        "postalCode": "20130",
        "municipality": "Urnieta",
        "county": "Gipuzkoa",
        "municipalityId": "072",
        "countyId": "20"
      },
      "economicActivities": [
        {
          "id": "1.952",
          "name": "Asistencia y servicios sociales en centros no residenciales",
          "_links": {
            "self": {
              "name": "Asistencia y servicios sociales en centros no residenciales",
              "href": "https://api.euskadi.eus/procurements/companies/economic-activities/1.952"
            }
          }
        }
      ],
      "certificateStartDate": "2025-10-22",
      "certificateEndDate": "2026-04-22",
      "object": "LA INTERVENCIÓN SOCIOEDUCATIVA EN MEDIO ABIERTO. LA INTERVENCIÓN. LA INTERVENCIÓN SOCIOEDUCATIVA EN CENTROS ESCOLARES. INSERCIÓN. OTRO TIPO DE INTERVENCIONES EDUCATIVAS. PARA LA CONSECUCIÓN DE DICHOS FINES SE LLEVARÁN A CABO, PREVIO EL CUMPLIMIENTO DE LOS REQUISITOS LEGALES ESTABLECIDOS, LAS SIGUIENTES ACTIVIDADES: - PROGRAMA DE MEDIO ABIERTO EN DIFERENTES BARRIOS. PROGRAMA EN CENTROS ESCOLARES EN DIFERENTES CENTROS. OTRO TIPO DE PROGRAMAS EDUCATIVOS.",
      "mainEntityOfPage": "https://www.contratacion.euskadi.eus/webkpe00-kperoc/es/ac71aBusquedaRegistrosWar/empresa/06071",
      "_links": {
        "self": {
          "name": "ASOCIACIÓN DE INTERVENCIÓN SOCIOEDUCATIVA KALEXKA",
          "href": "https://api.euskadi.eus/procurements/companies/06071"
        }
      }
    },
    {
      "name": "MONTAJES Y MANTENIMIENTOS DEL NORTE, S.L.",
      "registrationNumber": "06578",
      "identificationNumber": "B01441377",
      "address": "CL ARETA Nº 6, 8º C",
      "location": {
        "postalCode": "01400",
        "municipality": "Laudio/Llodio",
        "county": "Araba/Álava",
        "municipalityId": "036",
        "countyId": "01"
      },
      "economicActivities": [
        {
          "id": "1.501.1",
          "name": "Construcción completa, reparación y conservación de edificaciones",
          "_links": {
            "self": {
              "name": "Construcción completa, reparación y conservación de edificaciones",
              "href": "https://api.euskadi.eus/procurements/companies/economic-activities/1.501.1"
            }
          }
        },
        {
          "id": "1.503.2",
          "name": "Preparación y montaje de estructuras y cubiertas en obras civiles",
          "_links": {
            "self": {
              "name": "Preparación y montaje de estructuras y cubiertas en obras civiles",
              "href": "https://api.euskadi.eus/procurements/companies/economic-activities/1.503.2"
            }
          }
        }
      ],
      "certificateStartDate": "2025-10-22",
      "certificateEndDate": "2026-04-22",
      "object": "1. EL MONTAJE, REPARACIÓN Y MANTENIMIENTO DE INFRAESTRUCTURAS DE PABELLONES, POLÍGONOS INDUSTRIALES, COMUNIDADES DE PROPIETARIOS Y VIVIENDAS; INSTALACIONES DE FONTANERÍA EN GENERAL, AGUA, GAS, CALEFACCIÓN, INSTALACIÓN DE SISTEMAS DE ASPIRACIÓN Y FILTRACIÓN A MEDIDA, DESATASCOS Y MANTENIMIENTO PREVENTIVO DE CAÑERÍAS Y DESAGÜES, LIMPIEZA DE CANALONES DE CUBIERTAS, CALDERERÍA DE CHAPA FINA PARA LA CONSTRUCCIÓN, SELLADO DE CUBIERTAS Y CHIMENEAS. 2. LA PROMOCIÓN, CONSTRUCCIÓN, COMPRA, VENTA, ARRENDAMIENTO Y COMERCIALIZACIÓN EN GENERAL DE TODA CLASE DE EDIFICACIONES, TERRENOS, SOLARES, FINCAS RÚSTICAS Y URBANAS; LA EDIFICACIÓN, URBANIZACIÓN, EXCAVACIÓN, CIMENTACIÓN Y DERRIBO, BIEN POR CUENTA PROPIA COMO AJENA, ASÍ COMO LA ENAJENACIÓN, VENTA, ARRIENDO O EXPLOTACIÓN, EN CUALQUIER FORMA DE TODA CLASE DE INMUEBLES, EDIFICIOS, PISOS, APARTAMENTOS, LOCALES COMERCIALES O INDUSTRIALES, OFICINAS Y HOTELES O ESTABLECIMIENTOS DE HOSTELERÍA EN GENERAL. 3. TODA CLASE DE OPERACIONES INMOBILIRIAS SOBRE FINCAS RÚSTICAS Y URBANAS, PROMOCIÓN DE CONTRATOS O REALIZACIONES DE PARCELACIONES, URBANIZACIONES, COSNTRUCCIONES Y OBRAS PRIVADAS O PÚBLICAS, LA VENTA, HIPOTECA, ARRENDAMIENTO, TRANSFORMACIÓN, MEJORA, ADMINISTRACIÓN, PUESTA EN EXPLOTACIÓN Y LA EXPLOTACIÓN MISMA DE FINCAS RÚSTICAS Y URBANAS, LA ORGANIZACIÓN, PROMOCIÓN, ASESORAMIENTO, Y GESTIÓN EN SU CASO DE SOCIEDADES, COOPERATIVAS, COMUNIDADES, ENTIDADES, GRUPOS O EMPRESAS PARTICULARES ORIENTADAS A LA CONSTRUCCIÓN O URBANIZACIÓN, LA PLANIFICACIÓN Y ESTUDIO DE MERCADOS EN MATERIA INMOBILIARIA. 4. LA ADMINISTRACIÓN DE FINCAS Y COMUNIDADES, TANTO DE PROPIETARIOS COMO DE AUTOPROMOTORES, ASÍ COMO LA PRESTACIÓN DE TODA CLASE DE SERVICIOS RELACIONADOS CON EL ÁMBITO INMOBILIARIO, ARQUITECTÓNICO, DE TÉCNICA DE LA CONSTRUCCIÓN E INGENIERÍA EN GENERAL, POR MEDIO DE LA FORMULACIÓN, DESARROLLO Y PUESTA EN MARCHA DE ESTUDIOS, ACTUACIONES Y PROYECTOS. 5. LA GESTIÓN, DIRECCIÓN Y EJECUCIÓN POR CUENTA PROPIA O AJENA DE TODA CLASE DE CONSTRUCCIONES, INSTALACIONES, REFORMAS, REHABILITACIONES, DECORACIONES Y OBRAS RESTAURACIÓN EXTERNA E INTERNA DE ESTRUCTURAS Y REVESTIMIENTOS DE EDIFICIOS Y MONUMENTOS; LIMPIEZA, IMPERMEABILIZACIÓN, TRATAMIENTO, PINTURA, RECONSTRUCCIÓN Y LA IMPLANTACIÓN, CUIDADO Y MANTENIMIENTO DE JARDINES Y EXPLOTACIONES FORESTALES. LA SUPERVISIÓN Y CONTROL DE OBRAS, ASÍ COMO LA COORDINACIÓN DE GREMIOS, EL ASESORAMIENTO Y LA ASISTENCIA TÉCNICA EN TODO CUANTO SE RELACIONE CON EL CAMPO DE LA CONSTRUCCIÓN DE EDIFICIOS Y DE LAS OBRAS PÚBLICAS O CIVILES. 6. LA COMPRA, VENTA, DE TODA CLASE DE MATERIALES DE LA CONSTRUCCIÓN Y/O DECORATIVOS, ASÍ COMO CUALESQUIERA INSTALACIONES, ELEMENTOS O SERVICIOS DE LAS EDIFICACIONES; LA IMPORTACIÓN, EXPORTACIÓN, REPRESENTACIÓN, DISTRIBUCIÓN, EXPLOTACIÓN Y COMERCIALIZACIÓN DE PRODUCTOS ELABORADOS Y SEMIELABORADOS, ARTÍCULOS, BIENES, MERCADERÍAS, EQUIPOS INDUSTRIALES, MAQUINARIA, HERRAMIENTAS, UTILLAJES, REPUESTOS Y ACCESORIOS, ALIMENTOS DE CONSUMO HUMANO Y ANIMAL. 7. LA ADQUISICIÓN, CESIÓN, TENENCIA, DISFRUTE, ADMINISTRACIÓN, GESTIÓN Y NEGOCIACIÓN EN GENERAL DE VALORES MOBILIARIOS E INMUEBLES; TODO ELLO SIN INCIDIR EN LAS ACTIVIDADES U OPERACIONES REGULADAS POR LA LEGISLACIÓN DE INSTITUCIONES DE INVERSIÓN COLECTIVA Y LEY DE MERCADO DE VALORES. 8. LA PRESTACIÓN DE SERVICIOS PROFESIONALES DE ASESORÍA DE EMPRESAS EN GENERAL, Y EN PARTICULAR, DE ASESORAMIENTO Y GESTIÓN FISCAL, ASESORAMIENTO Y GESTIÓN CONTABLE, ASESORAMIENTO Y GESTIÓN EN MATERIA LABORAL, ASESORÍA JURÍDICA, SERVICIO DE COBRO DE CRÉDITOS MOROSOS, VALORACIÓN DE EMPRESAS, ESTUDIO Y REDACCIÓN DE ESTATUTOS PARA LA CONSTITUCIÓN DE ENTIDADES DE CUALQUIER NATURALEZA, ESTUDIO Y TRAMITACIÓN DE SUBVENCIONES, CRÉDITOS Y OTRAS AYUDAS FINANCIERAS DE LOS ORGANISMOS DEL ESTADO CENTRAL, DEL GOBIERNO VASCO Y DE LAS DIPUTACIONES FORALES, DE TODO TIPO DE ENTIDADES PÚBLICAS Y PRIVADAS, PARA TODO TIPO DE EMPRESAS; Y EN CONCRETO, LA PRESTACIÓN DE SERVICIOS DE VERIFICACIONES REGISTRALES, INFORMES COMERCIALES, GRABACIONES DE DATOS Y RECOBROS. 9. LA INVESTIGACIÓN Y EL DESARROLLO DE TÉCNICAS ENERGÉTICAS, ACÚSTICAS, ELECTRÓNICAS Y, EN GENERAL, TODA CLASE DE ASISTENCIAS O SERVICIOS RELACIONADOS CON LA INFORMÁTICA. LA REPRESENTACIÓN COMO AGENTE, COMISIONISTA, DELEGADO O CUALQUIER FORMA DE MEDIACIÓN MERCANTIL DE EMPRESAS NACIONALES O EXTRANJERAS, DE TODA ÍNDOLE, ASÍ COMO LA EXPLOTACIÓN DE PATENTES, Y DEMÁS DERECHOS DE PROPIEDAD INDUSTRIAL, INCLUIDOS LOS MÉTODOS, PROCEDIMIENTOS Y ORGANIZACIÓN DE TRABAJOS INDUSTRIALES, COMERCIALES O DE OTRA ÍNDOLE. 10. LA FORMACIÓN E INFORMACIÓN DE TODO TIPO DE PERSONAS MEDIANTE CURSOS, SEMINARIOS, JORNADAS, TANTO DE PRESENCIA COMO A DISTANCIA EN CUALQUIER MATERIA, ASÍ COMO LA EDICIÓN DE LOS TEXTOS Y LIBROS ENCAMINADOS A TAL FIN, REVISTAS Y CUALQUIER OTRO MEDIO DE DIFUSIÓN QUE CONSIDERE IDÓNEO PARA SUS FINES; LA GESTIÓN, CREACIÓN, TOMA DE PARTICIPACIONES Y ASESORAMIENTO DE TODO TIPO DE EMPRESAS, CONSULTORÍA, GESTIÓN, DISTRIBUCIÓN, IMPORTACIÓN Y EXPORTACIÓN DE TODO TIPO DE PRODUCTOS CONEXOS CON DICHAS ACTIVIDADES DE FORMACIÓN, INFORMACIÓN Y ASESORAMIENTO. 11. LA COMPRA, TENENCIA, ENAJENACIÓN Y EXPLOTACIÓN, INCLUSO EN EXCLUSIVA POR Y A FAVOR DE LA SOCIEDAD, DE TÍTULOS, VALORES, ACCIONES, BONOS, OBLIGACIONES, PATENTES, LICENCIAS, MARCAS, RÓTULOS, NOMBRES COMERCIALES Y TODA CLASE DE PERTENENCIAS DE PROPIEDAD INDUSTRIAL O INTELECTUAL, Y CUALESQUIERA OTRA CLASE DE BIENES MUEBLES; TODO ELLO SIN INCIDIR EN LAS ACTIVIDADES U OPERACIONES REGULADAS POR LA LEGISLACIÓN DE INSTITUCIONES DE INVERSIÓN COLECTIVA Y LEY DE MERCADO DE VALORES",
      "mainEntityOfPage": "https://www.contratacion.euskadi.eus/webkpe00-kperoc/es/ac71aBusquedaRegistrosWar/empresa/06578",
      "_links": {
        "self": {
          "name": "MONTAJES Y MANTENIMIENTOS DEL NORTE, S.L.",
          "href": "https://api.euskadi.eus/procurements/companies/06578"
        }
      }
    },
    {
      "name": "ALBEROLA Y TORRECILLA ARQUITECTOS, S.L.",
      "registrationNumber": "10168",
      "identificationNumber": "B75672873",
      "address": "Calle Loreto de Arriola, 12-bajo (01010)",
      "location": {
        "postalCode": "01010",
        "municipality": "Vitoria-Gasteiz",
        "county": "Araba/Álava",
        "municipalityId": "059",
        "countyId": "01"
      },
      "economicActivities": [
        {
          "id": "1.843.2",
          "name": "Servicios técnicos de arquitectura y urbanismo",
          "_links": {
            "self": {
              "name": "Servicios técnicos de arquitectura y urbanismo",
              "href": "https://api.euskadi.eus/procurements/companies/economic-activities/1.843.2"
            }
          }
        }
      ],
      "certificateStartDate": "2025-10-22",
      "certificateEndDate": "2026-04-22",
      "object": "LA PRESTACIÓN DE SERVICIOS PROFESIONALES EN LOS CAMPOS DE LA ARQUITECTURA Y EL URBANISMO A CARGO DE LOS ARQUITECTOS SOCIOS, CON LA COLABORACIÓN, EN SU CASO, DE OTROS PROFESIONALES LEGALMENTE COMPETENTES, REALIZANDO LAS ACTIVIDADES PROPIAS DEL EJERCICIO DE LA ACTIVIDAD Y RECONOCIDAS LEGALMENTE PARA LA PROFESIÓN DE LA ARQUITECTURA, EN ESPECIAL, TRABAJOS DE EDIFICACIÓN, TANTO SEA NUEVA PLANTA, COMO REHABILITACIÓN Y LEGALIZACIÓN; TRABAJOS DE URBANISMO, PLANES GENERALES, NORMAS SUBSIDIARIAS, PLANES PARCIALES, ESTUDIOS DE DETALLE, PARCELACIÓN, PROYECTOS DE COMPENSACIÓN, REPARCELACIÓN, URBANIZACIÓN Y PROGRAMAS DE ACTUACIÓN; ASESORÍA Y GESTIÓN A PARTICULARES, EMPRESAS Y PROMOCIÓN, EN ACTIVIDADES PROPIAS DE LAS ACTIVIDADES RELACIONADAS EN EL PRESENTE OBJETO; ELABORACIÓN DE INFORMES, DICTÁMENES Y PERITACIONES, TANTO JUDICIALES COMO EXTRAJUDICIALES.",
      "mainEntityOfPage": "https://www.contratacion.euskadi.eus/webkpe00-kperoc/es/ac71aBusquedaRegistrosWar/empresa/10168",
      "_links": {
        "self": {
          "name": "ALBEROLA Y TORRECILLA ARQUITECTOS, S.L.",
          "href": "https://api.euskadi.eus/procurements/companies/10168"
        }
      }
    },
    {
      "name": "MANCOMUNIDAD MUNICIPAL TALLER RANZARI LANTEGIA",
      "registrationNumber": "04767",
      "identificationNumber": "P4800014E",
      "address": "Barrio Kabiezes s/n",
      "location": {
        "postalCode": "48980",
        "municipality": "Santurtzi",
        "county": "Bizkaia",
        "municipalityId": "082",
        "countyId": "48"
      },
      "economicActivities": [
        {
          "id": "1.473.3",
          "name": "Fabricación de artículos de oficina, escritorio, de papel y cartón",
          "_links": {
            "self": {
              "name": "Fabricación de artículos de oficina, escritorio, de papel y cartón",
              "href": "https://api.euskadi.eus/procurements/companies/economic-activities/1.473.3"
            }
          }
        },
        {
          "id": "1.911",
          "name": "Servicios agrícolas y ganaderos",
          "_links": {
            "self": {
              "name": "Servicios agrícolas y ganaderos",
              "href": "https://api.euskadi.eus/procurements/companies/economic-activities/1.911"
            }
          }
        },
        {
          "id": "1.922",
          "name": "Servicios de limpieza",
          "_links": {
            "self": {
              "name": "Servicios de limpieza",
              "href": "https://api.euskadi.eus/procurements/companies/economic-activities/1.922"
            }
          }
        },
        {
          "id": "1.971.1",
          "name": "Tinte, limpieza en seco, lavado y planchado de ropas",
          "_links": {
            "self": {
              "name": "Tinte, limpieza en seco, lavado y planchado de ropas",
              "href": "https://api.euskadi.eus/procurements/companies/economic-activities/1.971.1"
            }
          }
        }
      ],
      "certificateStartDate": "2025-10-22",
      "certificateEndDate": "2026-04-13",
      "object": "A) PROMOCIÓN DE LA INTEGRACIÓN LABORAL Y SOCIAL DE LAS PERSONAS CON DISCAPACIDAD PSÍQUICA. B)\tSENSIBILIZACIÓN, EN EL MAYOR GRADO POSIBLE, DE LOS CIUDADANOS EN TORNO A ESTAS CUESTIONES. C) PROMOVER OPORTUNIDADES DE TRABAJO PROPORCIONANDO FORMACIÓN Y ORIENTACIÓN LABORAL ADAPTADA U OTRAS MEDIDAS ADICIONALES QUE FACILITEN LA INTEGRACIÓN LABORAL O EL MANTENIMIENTO DEL EMPLEO A LAS PERSONAS CON DISCAPACIDAD PSÍQUICA. PARA LA REALIZACIÓN DE ESTOS OBJETIVOS, LA MANCOMUNIDAD CONTARÁ CON UN CENTRO OCUPACIONAL Y CON TALLERES DE CENTRO ESPECIAL DE EMPLEO QUE PERMITAN ASEGURAR UN SERVICIO DE TERAPIA OCUPACIONAL, UN TRABAJO REMUNERADO Y LA PRESTACIÓN DE LOS SERVICIOS DE ASISTENCIA PERSONAL Y SOCIAL. EN DICHOS TALLERES DE CENTRO ESPECIAL DE EMPLEO SE DESARROLLARÁN, SIN ÁNIMO DE LUCRO, ACTIVIDADES O SERVICIOS DE INICIATIVA SOCIAL ENCAMINADOS A LA CONSECUCIÓN DE LOS OBJETIVOS DE INTEGRACIÓN LABORAL Y SOCIAL DE LAS PERSONAS CON DISCAPACIDAD PSÍQUICA Y LOS POSIBLES BENEFICIOS DEL CENTRO ESPECIAL DE EMPLEO DEBERÁN SER REINVERTIDOS ÍNTEGRAMENTE EN EL PROPIO CENTRO ESPECIAL DE EMPLEO O EN OTROS CENTROS ESPECIALES DE EMPLEO DE INICIATIVA SOCIAL A FAVOR DE LOS FINES SOCIO-LABORALES QUE LE SON PROPIOS PARA LA CREACIÓN DE OPORTUNIDADES DE EMPLEO Y DE OCUPACIÓN PARA PERSONAS CON DISCAPACIDAD PSÍQUICA Y LA MEJORA CONTINUA DE SU COMPETITIVIDAD Y DE SU ACTIVIDAD DE ECONOMÍA SOCIAL. SIN CARÁCTER LIMITATIVO, SINO MERAMENTE ENUNCIATIVO PODRÁ REALIZAR LAS SIGUIENTES ACTIVIDADES; ACTIVIDADES DE ARTES GRÁFICAS Y SUS INDUSTRIAS AUXILIARES EN GENERAL Y EN PARTICULAR LA ENCUADERNACIÓN; ACTIVIDADES DE MANIPULADO DE PAPEL Y CARTÓN. ASIMISMO PODRÁ PRESTAR LOS SIGUIENTES SERVICIOS; SERVICIO DE DISEÑO, CONSERVACIÓN Y MANTENIMIENTO DE JARDINERÍA EN GENERAL Y EN TODAS SUS MODALIDADES, YA SEAN PÚBLICAS O PRIVADAS, SERVICIO DE LAVANDERÍA, DE LIMPIEZA INDUSTRIAL Y DE DIGITALIZACIÓN DE DOCUMENTOS. ASÍ COMO CUALQUIER OTRA ACTIVIDAD O SERVICIO QUE POR IMPLICAR CREACIÓN DE EMPLEO, DE MODO DIRECTO O INDIRECTO, FAVOREZCAN LA CONSECUCIÓN DE FINES Y OBJETIVOS DE LA MANCOMUNIDAD.",
      "mainEntityOfPage": "https://www.contratacion.euskadi.eus/webkpe00-kperoc/es/ac71aBusquedaRegistrosWar/empresa/04767",
      "_links": {
        "self": {
          "name": "MANCOMUNIDAD MUNICIPAL TALLER RANZARI LANTEGIA",
          "href": "https://api.euskadi.eus/procurements/companies/04767"
        }
      }
    }
  ]
}