{
  "totalItems": 9042,
  "totalPages": 905,
  "currentPage": 353,
  "itemsOfPage": 10,
  "items": [
    {
      "name": "PAUSOKA HAUR ESKOLA, S. COOP.",
      "registrationNumber": "09168",
      "identificationNumber": "F20332730",
      "address": "BELORRIETA 8",
      "location": {
        "postalCode": "20550",
        "municipality": "Aretxabaleta",
        "county": "Gipuzkoa",
        "municipalityId": "013",
        "countyId": "20"
      },
      "economicActivities": [
        {
          "id": "1.931.1",
          "name": "Guardería y enseñanza de educación infantil, exclusivamente",
          "_links": {
            "self": {
              "name": "Guardería y enseñanza de educación infantil, exclusivamente",
              "href": "https://api.euskadi.eus/procurements/companies/economic-activities/1.931.1"
            }
          }
        }
      ],
      "certificateStartDate": "2025-05-28",
      "certificateEndDate": "2025-11-28",
      "object": "LA PRESTACIÓN DE SERVICIOS DE CARÁCTER EDUCATIVO EN UNA ESCUELA INFANTIL PARA NIÑOS DE EDADES COMPRENDIDAS ENTRE CERO Y TRES AÑOS.",
      "mainEntityOfPage": "https://www.contratacion.euskadi.eus/webkpe00-kperoc/es/ac71aBusquedaRegistrosWar/empresa/09168",
      "_links": {
        "self": {
          "name": "PAUSOKA HAUR ESKOLA, S. COOP.",
          "href": "https://api.euskadi.eus/procurements/companies/09168"
        }
      }
    },
    {
      "name": "PINTURAS DETALLE, S.C.",
      "registrationNumber": "08264",
      "identificationNumber": "J01299478",
      "address": "ASTURIAS 3, 7º DCH",
      "location": {
        "postalCode": "01003",
        "municipality": "Vitoria-Gasteiz",
        "county": "Araba/Álava",
        "municipalityId": "059",
        "countyId": "01"
      },
      "economicActivities": [
        {
          "id": "1.505.6",
          "name": "Pintura, revestimientos y terminación y decoración de locales",
          "_links": {
            "self": {
              "name": "Pintura, revestimientos y terminación y decoración de locales",
              "href": "https://api.euskadi.eus/procurements/companies/economic-activities/1.505.6"
            }
          }
        }
      ],
      "certificateStartDate": "2025-05-28",
      "certificateEndDate": "2025-11-28",
      "object": "LA REALIZACIÓN DE TRABAJOS DE PINTURA EN GENERAL, ASÍ COMO CUALQUIER OTRA ACTIVIDAD COMPLEMENTARIA.",
      "mainEntityOfPage": "https://www.contratacion.euskadi.eus/webkpe00-kperoc/es/ac71aBusquedaRegistrosWar/empresa/08264",
      "_links": {
        "self": {
          "name": "PINTURAS DETALLE, S.C.",
          "href": "https://api.euskadi.eus/procurements/companies/08264"
        }
      }
    },
    {
      "name": "B4ING INGENIERIA TECNOLOGIA Y GESTION, S.L.",
      "registrationNumber": "10199",
      "identificationNumber": "B95778403",
      "address": "c/ Barraincua, 1 5ºB",
      "location": {
        "postalCode": "48009",
        "municipality": "Bilbao",
        "county": "Bizkaia",
        "municipalityId": "020",
        "countyId": "48"
      },
      "economicActivities": [
        {
          "id": "1.843.1",
          "name": "Servicios técnicos de ingeniería",
          "_links": {
            "self": {
              "name": "Servicios técnicos de ingeniería",
              "href": "https://api.euskadi.eus/procurements/companies/economic-activities/1.843.1"
            }
          }
        }
      ],
      "certificateStartDate": "2025-05-28",
      "certificateEndDate": "2025-11-28",
      "object": "- PRESTACIÓN DE SERVICIOS. ACTIVIDADES DE GESTIÓN Y ADMINISTRACIÓN. SERVICIOS EDUCATIVOS, SANITARIOS, DE OCIO Y ENTRETENIMIENTO. - INVESTIGACIÓN, DESARROLLO E INNOVACIÓN. - ACTIVIDADES CIENTÍFICAS Y TÉCNICAS.",
      "mainEntityOfPage": "https://www.contratacion.euskadi.eus/webkpe00-kperoc/es/ac71aBusquedaRegistrosWar/empresa/10199",
      "_links": {
        "self": {
          "name": "B4ING INGENIERIA TECNOLOGIA Y GESTION, S.L.",
          "href": "https://api.euskadi.eus/procurements/companies/10199"
        }
      }
    },
    {
      "name": "BEONE MEDICINES ESP, S.L.",
      "registrationNumber": "08900",
      "identificationNumber": "B88454954",
      "address": "Principe de Vergara 112 4pl",
      "location": {
        "postalCode": "28002",
        "municipality": "Madrid",
        "county": "Madrid",
        "municipalityId": "079",
        "countyId": "28"
      },
      "economicActivities": [
        {
          "id": "1.936",
          "name": "Investigación científica y técnica",
          "_links": {
            "self": {
              "name": "Investigación científica y técnica",
              "href": "https://api.euskadi.eus/procurements/companies/economic-activities/1.936"
            }
          }
        }
      ],
      "certificateStartDate": "2025-05-28",
      "certificateEndDate": "2025-11-28",
      "object": "LA INVESTIGACIÓN, DESARROLLO, FABRICACIÓN Y DISTRIBUCIÓN O LICENCIA DE PRODUCTOS FARMACÉUTICOS Y RELACIONADOS, ASÍ COMO LA PRESTACIÓN DE SERVICIOS RELACIONADOS. CNAE 21.10.",
      "mainEntityOfPage": "https://www.contratacion.euskadi.eus/webkpe00-kperoc/es/ac71aBusquedaRegistrosWar/empresa/08900",
      "_links": {
        "self": {
          "name": "BEONE MEDICINES ESP, S.L.",
          "href": "https://api.euskadi.eus/procurements/companies/08900"
        }
      }
    },
    {
      "name": "ITURRIA INDUSTRIAL, S.L.",
      "registrationNumber": "05738",
      "identificationNumber": "B50915701",
      "address": "C/ EZURRIKI Nº6",
      "location": {
        "postalCode": "20305",
        "municipality": "Irun",
        "county": "Gipuzkoa",
        "municipalityId": "045",
        "countyId": "20"
      },
      "economicActivities": [
        {
          "id": "1.617.4",
          "name": "Venta al por mayor de materiales de construcción, vidrio y artículos instalación",
          "_links": {
            "self": {
              "name": "Venta al por mayor de materiales de construcción, vidrio y artículos instalación",
              "href": "https://api.euskadi.eus/procurements/companies/economic-activities/1.617.4"
            }
          }
        }
      ],
      "certificateStartDate": "2025-05-27",
      "certificateEndDate": "2026-05-05",
      "object": "LA COMPRA Y VENTA AL POR MAYOR Y MENOR DE TODO TIPO DE MATERIALES DE CONSTRUCCIÓN, ASÍ COMO LA PROMOCIÓN Y CONSTRUCCIÓN DE TODA CLASE DE EDIFICIOS CON DESTINO INDUSTRIAL, COMERCIAL Y PARA VIVIENDAS .",
      "mainEntityOfPage": "https://www.contratacion.euskadi.eus/webkpe00-kperoc/es/ac71aBusquedaRegistrosWar/empresa/05738",
      "_links": {
        "self": {
          "name": "ITURRIA INDUSTRIAL, S.L.",
          "href": "https://api.euskadi.eus/procurements/companies/05738"
        }
      }
    },
    {
      "name": "EKONTZIA, S.L.",
      "registrationNumber": "09583",
      "identificationNumber": "B44787687",
      "address": "Donostia ibilbidea 118 parcela 7",
      "location": {
        "postalCode": "20115",
        "municipality": "Astigarraga",
        "county": "Gipuzkoa",
        "municipalityId": "903",
        "countyId": "20"
      },
      "economicActivities": [
        {
          "id": "1.921.9",
          "name": "Otros servicios de saneamiento y similares n.c.o.p",
          "_links": {
            "self": {
              "name": "Otros servicios de saneamiento y similares n.c.o.p",
              "href": "https://api.euskadi.eus/procurements/companies/economic-activities/1.921.9"
            }
          }
        }
      ],
      "certificateStartDate": "2025-05-27",
      "certificateEndDate": "2025-11-26",
      "object": "A) LA COMPRA, VENTA, ALQUILER, IMPORTACIÓN Y EXPORTACIÓN DE TODA CLASE DE ARTÍCULOS, OBJETOS Y APARATOS SANITARIOS Y DE LIMPIEZA. B) DISTRIBUCIÓN, COLOCACIÓN Y TRANSPORTE DE TODA CLASE DE ARTÍCULOS, OBJETOS Y APARATOS SANITARIOS Y DE LIMPIEZA, RELACIONADOS CON EL APARTADO A). C) REALIZACIÓN Y CONFECCIÓN DE ESTUDIOS Y PROYECTOS DE MERCADOS, CONCURSOS Y TODA CLASE DE CUESTIONES RELACIONADAS CON LA ACTIVIDAD REFERENCIADA. D) PROMOCIÓN, INSTALACIÓN, ALQUILER, CONTRATACIÓN, ALMACENAJE, SUBCONTRATACIÓN Y EXPLOTACIÓN DE LA ACTIVIDAD EN RELACIÓN CON EL APARTADO A), DE ESTE OBJETO SOCIAL.",
      "mainEntityOfPage": "https://www.contratacion.euskadi.eus/webkpe00-kperoc/es/ac71aBusquedaRegistrosWar/empresa/09583",
      "_links": {
        "self": {
          "name": "EKONTZIA, S.L.",
          "href": "https://api.euskadi.eus/procurements/companies/09583"
        }
      }
    },
    {
      "name": "NAIARA OLABARRIETA CELAYA",
      "registrationNumber": "09688",
      "identificationNumber": "16066892N",
      "address": "Calle Colón 2 - 2º Izda",
      "location": {
        "postalCode": "48510",
        "municipality": "Valle de Trápaga-Trapagaran",
        "county": "Bizkaia",
        "municipalityId": "080",
        "countyId": "48"
      },
      "economicActivities": [
        {
          "id": "1.673.2",
          "name": "Otros cafés y bares",
          "_links": {
            "self": {
              "name": "Otros cafés y bares",
              "href": "https://api.euskadi.eus/procurements/companies/economic-activities/1.673.2"
            }
          }
        }
      ],
      "certificateStartDate": "2025-05-27",
      "certificateEndDate": "2025-11-21",
      "object": "OTROS CAFÉS Y BARES.",
      "mainEntityOfPage": "https://www.contratacion.euskadi.eus/webkpe00-kperoc/es/ac71aBusquedaRegistrosWar/empresa/09688",
      "_links": {
        "self": {
          "name": "NAIARA OLABARRIETA CELAYA",
          "href": "https://api.euskadi.eus/procurements/companies/09688"
        }
      }
    },
    {
      "name": "OHIANE ORTIZ DE ZARATE ROMERO",
      "registrationNumber": "10195",
      "identificationNumber": "72751083J",
      "address": "CALLE COMERCIO, Nº 17 1º C ",
      "location": {
        "postalCode": "01170",
        "municipality": "Legutio",
        "county": "Araba/Álava",
        "municipalityId": "058",
        "countyId": "01"
      },
      "economicActivities": [
        {
          "id": "1.673.2",
          "name": "Otros cafés y bares",
          "_links": {
            "self": {
              "name": "Otros cafés y bares",
              "href": "https://api.euskadi.eus/procurements/companies/economic-activities/1.673.2"
            }
          }
        }
      ],
      "certificateStartDate": "2025-05-27",
      "certificateEndDate": "2025-11-16",
      "object": "OTROS CAFÉS Y BARES.",
      "mainEntityOfPage": "https://www.contratacion.euskadi.eus/webkpe00-kperoc/es/ac71aBusquedaRegistrosWar/empresa/10195",
      "_links": {
        "self": {
          "name": "OHIANE ORTIZ DE ZARATE ROMERO",
          "href": "https://api.euskadi.eus/procurements/companies/10195"
        }
      }
    },
    {
      "name": "WERCKMEISTER, S.L.",
      "registrationNumber": "10194",
      "identificationNumber": "B01413061",
      "address": "Calle Puerto de Barazar (01013) 2, bajo",
      "location": {
        "postalCode": "01013",
        "municipality": "Vitoria-Gasteiz",
        "county": "Araba/Álava",
        "municipalityId": "059",
        "countyId": "01"
      },
      "economicActivities": [
        {
          "id": "1.505.6",
          "name": "Pintura, revestimientos y terminación y decoración de locales",
          "_links": {
            "self": {
              "name": "Pintura, revestimientos y terminación y decoración de locales",
              "href": "https://api.euskadi.eus/procurements/companies/economic-activities/1.505.6"
            }
          }
        },
        {
          "id": "1.932.1",
          "name": "Enseñanza de formación y perfeccionamiento profesional no superior",
          "_links": {
            "self": {
              "name": "Enseñanza de formación y perfeccionamiento profesional no superior",
              "href": "https://api.euskadi.eus/procurements/companies/economic-activities/1.932.1"
            }
          }
        },
        {
          "id": "1.966.9",
          "name": "Otros servicios culturales n.c.o.p",
          "_links": {
            "self": {
              "name": "Otros servicios culturales n.c.o.p",
              "href": "https://api.euskadi.eus/procurements/companies/economic-activities/1.966.9"
            }
          }
        }
      ],
      "certificateStartDate": "2025-05-27",
      "certificateEndDate": "2025-11-23",
      "object": "A) .- PRODUCCIÓN DE OBRA ARTÍSTICA DE TODO TIPO. B) .- APLICACIÓN DE TODO TIPO DE REVESTIMIENTOS PARA LA CONSTRUCCIÓN Y DECORACIÓN, FABRICACIÓN Y/O RESTAURACIÓN DE MUEBLES Y OBJETOS ARTÍSTICOS Y DECORATIVOS. C) .- FABRICACIÓN Y COMERCIALIZACIÓN DE MATERIAL DE ARTE, BELLAS ARTES, FOTOGRAFÍA, ARTES GRÁFICAS, LIBROS, MÚSICA, TEXTIL, COMPLEMENTOS, BISUTERÍA Y JOYERÍA, BOLSOS, PERFUMERÍA, MOBILIARIO Y MATERIAL DE DECORACIÓN. D) .- ORGANIZACIÓN DE TODO TIPO DE EVENTOS CULTURALES, EXPOSICIONES, CONFERENCIAS, FERIAS, TALLERES, Y SIMILARES. E) .- PUBLICACIÓN Y EDICIÓN Y DISTRIBUCIÓN DE IMÁGENES, LITERATURA Y MÚSICA. F) .- EXPOSICIÓN Y VENTA DE OBRA ARTÍSTICA, TANTO DE PRODUCCIÓN PROPIA COMO EN REPRESENTACIÓN DE OTROS AUTORES Y/O ARTISTAS. G) .- ACTIVIDADES DE RESTAURACIÓN Y HOSTELERÍA. Y PARTICIPAR EN OTRAS SOCIEDADES, A TRAVÉS DE LAS CUALES PUEDA DESARROLLAR EL ANTERIOR OBJETO.",
      "mainEntityOfPage": "https://www.contratacion.euskadi.eus/webkpe00-kperoc/es/ac71aBusquedaRegistrosWar/empresa/10194",
      "_links": {
        "self": {
          "name": "WERCKMEISTER, S.L.",
          "href": "https://api.euskadi.eus/procurements/companies/10194"
        }
      }
    },
    {
      "name": "PAULA GÓMEZ GONZÁLEZ",
      "registrationNumber": "08828",
      "identificationNumber": "78999105Q",
      "address": "Agarre 5, 5B",
      "location": {
        "postalCode": "48003",
        "municipality": "Bilbao",
        "county": "Bizkaia",
        "municipalityId": "020",
        "countyId": "48"
      },
      "economicActivities": [
        {
          "id": "2.751",
          "name": "Profesionales de la publicidad, relaciones públicas y similares",
          "_links": {
            "self": {
              "name": "Profesionales de la publicidad, relaciones públicas y similares",
              "href": "https://api.euskadi.eus/procurements/companies/economic-activities/2.751"
            }
          }
        }
      ],
      "certificateStartDate": "2025-05-26",
      "certificateEndDate": "2025-11-26",
      "object": "PROFESIONALES DE LA PUBLICIDAD, RELACIONES PÚBLICAS Y SIMILARES.",
      "mainEntityOfPage": "https://www.contratacion.euskadi.eus/webkpe00-kperoc/es/ac71aBusquedaRegistrosWar/empresa/08828",
      "_links": {
        "self": {
          "name": "PAULA GÓMEZ GONZÁLEZ",
          "href": "https://api.euskadi.eus/procurements/companies/08828"
        }
      }
    }
  ]
}