{
  "totalItems": 9042,
  "totalPages": 905,
  "currentPage": 738,
  "itemsOfPage": 10,
  "items": [
    {
      "name": "IMPRENTA BOAN, S.A.",
      "registrationNumber": "00074",
      "identificationNumber": "A48105167",
      "address": "C/ PADRE LARRAMENDI, Nº 2 - BAJO.",
      "location": {
        "postalCode": "48012",
        "municipality": "Bilbao",
        "county": "Bizkaia",
        "municipalityId": "020",
        "countyId": "48"
      },
      "economicActivities": [
        {
          "id": "1.474",
          "name": "Artes gráficas (impresión gráfica)",
          "_links": {
            "self": {
              "name": "Artes gráficas (impresión gráfica)",
              "href": "https://api.euskadi.eus/procurements/companies/economic-activities/1.474"
            }
          }
        },
        {
          "id": "1.475",
          "name": "Actividades anexas a las artes gráficas",
          "_links": {
            "self": {
              "name": "Actividades anexas a las artes gráficas",
              "href": "https://api.euskadi.eus/procurements/companies/economic-activities/1.475"
            }
          }
        },
        {
          "id": "1.844",
          "name": "Servicios de publicidad, relaciones públicas y similares",
          "_links": {
            "self": {
              "name": "Servicios de publicidad, relaciones públicas y similares",
              "href": "https://api.euskadi.eus/procurements/companies/economic-activities/1.844"
            }
          }
        }
      ],
      "certificateStartDate": "2009-12-04",
      "certificateEndDate": "2010-05-09",
      "object": "LOS TRABAJOS DE IMPRESIÓN, ENCUADERNACIÓN Y PREPARATORIOS, DE CUALQUIER CLASE, PARA LOS MISMOS",
      "mainEntityOfPage": "https://www.contratacion.euskadi.eus/webkpe00-kperoc/es/ac71aBusquedaRegistrosWar/empresa/00074",
      "_links": {
        "self": {
          "name": "IMPRENTA BOAN, S.A.",
          "href": "https://api.euskadi.eus/procurements/companies/00074"
        }
      }
    },
    {
      "name": "K.D.V., S.L.",
      "registrationNumber": "01271",
      "identificationNumber": "B48534309",
      "address": "P.I. TORRELARRAGOITI. PARCELA 7 -B. PAB-EN 4",
      "location": {
        "postalCode": "48170",
        "municipality": "Zamudio",
        "county": "Bizkaia",
        "municipalityId": "905",
        "countyId": "48"
      },
      "economicActivities": [
        {
          "id": "1.501.1",
          "name": "Construcción completa, reparación y conservación de edificaciones",
          "_links": {
            "self": {
              "name": "Construcción completa, reparación y conservación de edificaciones",
              "href": "https://api.euskadi.eus/procurements/companies/economic-activities/1.501.1"
            }
          }
        },
        {
          "id": "1.501.2",
          "name": "Construcción completa, reparación y conservación obras civiles",
          "_links": {
            "self": {
              "name": "Construcción completa, reparación y conservación obras civiles",
              "href": "https://api.euskadi.eus/procurements/companies/economic-activities/1.501.2"
            }
          }
        }
      ],
      "certificateStartDate": "2009-11-27",
      "certificateEndDate": "2010-04-29",
      "object": "LA ADQUISICION Y ENAJENACION, POR CUALQUIER TITULO, DE FINCAS RUSTICAS Y URBANAS, YA SEAN TIERRAS, SOLARES, EDIFICIOS, REDACCION DE PROYECTOS, URBANIZACION, LA CONSTRUCCION DE ESTOS Y LA ADMINISTRACION, TENENCIA, EXPLOTACION Y ARRENDAMIENTO, YA SEA ACTIVO O PASIVO, DE TALES BIENES Y SU COMPRA-VENTA TOTAL O PARCIAL, SEGUN CONVENGA PARA SU APROVECHAMIENTO AGRICOLA, FORESTAL, URBANO, INDUSTRIAL O CUALQUIER OTRO. LA PROMOCION, EJECUCION Y EXPLOTACION DE TODA CLASE DE PRODUCTOS Y ELABORADOS NATURALES, DE MATERIAS PRIMAS Y DE SUS TRANSFORMADOS O PRODUCTOS MANUFACTURADOS, SEMIELABORADOS Y/O ELABORADOS, RELACIONADOS CON LA AGRICULTURA, GANADERIA, PESCA, MINERIA, TRANSPORTE DE CUALQUIER CLASE Y NATURALEZA, TELECOMUNICACION, INDUSTRIA FORESTAL, SIDEROMETALURGICA, ALIMENTACION, TEXTIL, BIOQUIMICA. EL ESTUDIO, INVESTIGACION, PROMOCION Y ASESORAMIENTO DE TODA CLASE DE SERVICIOS DE ASISTENCIA Y GESTION TECNICA, ADMINISTRATIVA, COMERCIAL, CONTABLE Y FISCAL, ASI COMO LA EXPLOTACION Y PARTICIPACION EN NEGOCIOS, INCLUSO LA MECANICA CONTABLE. LOS SERVICIOS DE MEDIACION CON BIENES PROPIOS O AJENOS, ASI COMO LOS DE CONSIGNACION, REPRESENTACION Y GESTION, INCLUSO DE TODA CLASE DE SUMINISTROS Y DE PRODUCTOS EN GENERAL Y PLANTAS INDUSTRIALES, NACIONALES Y EXTRANJERAS Y LAS ACTIVIDADES DE IMPORTACION Y EXPORTACION. LA PROMOCION, EJECUCION Y EXPLOTACION DE LOS NEGOCIOS DE PRESTACION DE SERVICIOS Y SUMINISTROS PUBLICOS Y PRIVADOS, INCLUIDA LA PROPIA EXPLOTACION DE LOS SERVICIOS DE AQUELLAS, COMO ESPECTACULOS, TRANSPORTES, HOTELES Y ALOJAMIENTOS Y SUS DERIVADOS, AFINES Y COMPLEMENTARIOS. EL ARRENDAMIENTO Y CUALQUIER OTRA FORMULA DE CESION, USO Y DISFRUTE QUE ABARQUE TODO O PARTE DE LOS EPIGRAFES ANTERIORES, ADOPTANDO LA POSICION DE CUALQUIERA DE LAS PARTES INTERESADAS O VINCULADAS EN ESTA RELACION JURIDICA",
      "mainEntityOfPage": "https://www.contratacion.euskadi.eus/webkpe00-kperoc/es/ac71aBusquedaRegistrosWar/empresa/01271",
      "_links": {
        "self": {
          "name": "K.D.V., S.L.",
          "href": "https://api.euskadi.eus/procurements/companies/01271"
        }
      }
    },
    {
      "name": "MONTAJES ELECTRÓNICOS LOINAZ, S.L.",
      "registrationNumber": "04235",
      "identificationNumber": "B20725818",
      "address": "POL. ZUBIERREKA. PAB. 57. APTDO. 67",
      "location": {
        "postalCode": "20210",
        "municipality": "Lazkao",
        "county": "Gipuzkoa",
        "municipalityId": "049",
        "countyId": "20"
      },
      "economicActivities": [
        {
          "id": "1.504.1",
          "name": "Instalaciones eléctricas en general",
          "_links": {
            "self": {
              "name": "Instalaciones eléctricas en general",
              "href": "https://api.euskadi.eus/procurements/companies/economic-activities/1.504.1"
            }
          }
        }
      ],
      "certificateStartDate": "2009-11-27",
      "certificateEndDate": "2010-02-06",
      "mainEntityOfPage": "https://www.contratacion.euskadi.eus/webkpe00-kperoc/es/ac71aBusquedaRegistrosWar/empresa/04235",
      "_links": {
        "self": {
          "name": "MONTAJES ELECTRÓNICOS LOINAZ, S.L.",
          "href": "https://api.euskadi.eus/procurements/companies/04235"
        }
      }
    },
    {
      "name": "CONSTRUCCIONES ALDABE, S.A.",
      "registrationNumber": "00977",
      "identificationNumber": "A20091310",
      "address": "C/ AVENIDA DE PUIANA, Nº 27 - BAJO TRASERA.",
      "location": {
        "postalCode": "20305",
        "municipality": "Irun",
        "county": "Gipuzkoa",
        "municipalityId": "045",
        "countyId": "20"
      },
      "economicActivities": [
        {
          "id": "1.501.1",
          "name": "Construcción completa, reparación y conservación de edificaciones",
          "_links": {
            "self": {
              "name": "Construcción completa, reparación y conservación de edificaciones",
              "href": "https://api.euskadi.eus/procurements/companies/economic-activities/1.501.1"
            }
          }
        }
      ],
      "certificateStartDate": "2009-11-25",
      "certificateEndDate": "2010-04-14",
      "object": "LA CONSTRUCCIÓN Y EJECUCIÓN DE OBRAS DE TODO TIPO, TANTO PÚBLICAS COMO PRIVADAS, OBRAS NUEVAS DE EDIFICACIÓN URBANA, INCLUSO DE PROTECCIÓN OFICIAL, INDUSTRIAL, COMPRA-VENTA DE TERRENOS E INMUEBLES",
      "mainEntityOfPage": "https://www.contratacion.euskadi.eus/webkpe00-kperoc/es/ac71aBusquedaRegistrosWar/empresa/00977",
      "_links": {
        "self": {
          "name": "CONSTRUCCIONES ALDABE, S.A.",
          "href": "https://api.euskadi.eus/procurements/companies/00977"
        }
      }
    },
    {
      "name": "ERREXAL, S.L.",
      "registrationNumber": "03377",
      "identificationNumber": "B01391713",
      "address": "ETXEZARRA 35, BAJO",
      "location": {
        "postalCode": "01007",
        "municipality": "Vitoria-Gasteiz",
        "county": "Araba/Álava",
        "municipalityId": "059",
        "countyId": "01"
      },
      "economicActivities": [
        {
          "id": "1.966.9",
          "name": "Otros servicios culturales n.c.o.p",
          "_links": {
            "self": {
              "name": "Otros servicios culturales n.c.o.p",
              "href": "https://api.euskadi.eus/procurements/companies/economic-activities/1.966.9"
            }
          }
        }
      ],
      "certificateStartDate": "2009-11-25",
      "certificateEndDate": "2010-05-25",
      "object": "PROMOCIÓN, ASESORAMIENTO Y ORGANIZACIÓN DE TODO TIPO DE ACCIONES SOCIALES Y CULTURALES",
      "mainEntityOfPage": "https://www.contratacion.euskadi.eus/webkpe00-kperoc/es/ac71aBusquedaRegistrosWar/empresa/03377",
      "_links": {
        "self": {
          "name": "ERREXAL, S.L.",
          "href": "https://api.euskadi.eus/procurements/companies/03377"
        }
      }
    },
    {
      "name": "FUNDACIÓN EUROPEAN SOFTWARE INSTITUTE",
      "registrationNumber": "03710",
      "identificationNumber": "G95121315",
      "address": "PARQUE TECNOLOGICO, 204",
      "location": {
        "postalCode": "48170",
        "municipality": "Zamudio",
        "county": "Bizkaia",
        "municipalityId": "905",
        "countyId": "48"
      },
      "economicActivities": [
        {
          "id": "1.936",
          "name": "Investigación científica y técnica",
          "_links": {
            "self": {
              "name": "Investigación científica y técnica",
              "href": "https://api.euskadi.eus/procurements/companies/economic-activities/1.936"
            }
          }
        }
      ],
      "certificateStartDate": "2009-11-24",
      "certificateEndDate": "2010-04-20",
      "object": "CONTRIBUIR AL DESARROLLO DE LA COMPETITIVIDAD DE LA INDUSTRIA A TRAVÉS DE LA PROMOCIÓN Y LA CONTÍNUA MEJORA Y CONOCIMIENTO EN LAS TECNOLOGÍAS DE LA INFORMAICÓN Y LAS COMUNICACIONES. PARA ALCANZAR ESTA MISIÓN, LA FUNDACIÓN SE REGIRÁ POR LOS SIGUIENTES PRINCIPOS CORPORATIVOS: - MANTENER UNA PERMANENTE ORIENTACIÓN AL MERCADO, AL OBJETO DE DETECTAR Y SATISFACER LAS NECESIDADES DE LA INDUSTRIA. - EVOLUCIONAR DE FORMA CONTINUA SU OFERTA DE PRODUCTOS Y SERVICIOS A LA INDUSTRIAL. - GENERAR LOS RECURSOS SUFICIENTES PARA LLEVAR A CABO SUS ACTIVIDADES. - HACER USO CONSTANTE DE LA INNOVACIÓN COMO MECANISMO PARA SUMINISTRAR VALOR AÑADIDO A LA INDUSTRIA. -POTENCIAR LA COOPERACIÓN Y COLABORACÓN COMO FORMA INSTRUMENTAL PARA SU DESARROLLO. - MAXIMIZAR LA EFICIENCIA EN TODAS SUS ACTUACIONES. - RESPONDER DE FORMA EFECTIVA A LOS REQUERIMIENTOS PROFESIONALES DE SUS COLABORADORES",
      "mainEntityOfPage": "https://www.contratacion.euskadi.eus/webkpe00-kperoc/es/ac71aBusquedaRegistrosWar/empresa/03710",
      "_links": {
        "self": {
          "name": "FUNDACIÓN EUROPEAN SOFTWARE INSTITUTE",
          "href": "https://api.euskadi.eus/procurements/companies/03710"
        }
      }
    },
    {
      "name": "SADAR REFORMAS Y MANTENIMIENTO, S.L.",
      "registrationNumber": "03917",
      "identificationNumber": "B31868870",
      "address": "POLÍGONO IRUREGAÑA, 71-6ª PLANTA. AIZOAIN",
      "location": {
        "postalCode": "31195",
        "municipality": "Berrioplano/Berriobeiti",
        "county": "Navarra",
        "municipalityId": "902",
        "countyId": "31"
      },
      "economicActivities": [
        {
          "id": "1.501.1",
          "name": "Construcción completa, reparación y conservación de edificaciones",
          "_links": {
            "self": {
              "name": "Construcción completa, reparación y conservación de edificaciones",
              "href": "https://api.euskadi.eus/procurements/companies/economic-activities/1.501.1"
            }
          }
        }
      ],
      "certificateStartDate": "2009-11-20",
      "certificateEndDate": "2010-04-15",
      "object": "A. LA CONSTRUCCIÓN DE TODO TIPO DE EDIFICACIONES, URBANIZACIONES Y OBRAS PÚBLICAS POR CUENTA PROPIA O AJENA, INCLUYENDO DE FORMA NO LIMITATIVA: LOS MOVIMIENTOS DE TIERRAS Y PERFORACIONES, DESMONTES Y VACIADOS, EXPLANACIONES, CANTERAS, POZOS Y GALERÍAS Y TÚNELES. LOS PUENTES, VIADUCTOS Y GRANDES ESTRUCTURAS, TANTO DE FÁBRICA U HORMIGÓN EN MASA, COMO METÁLICOS, DE HORMIGÓN ARMADO O PRETENSAZO; LAS EDIFICACIONES, CON ESTRUCTURAS DE FÁBRICA, HORMIGÓN O METÁLICAS, ALBAÑILERÍA, REVOCOS, REVESTIMIENTOS, CANTERÍA Y MARMOLERÍA, PAVIMENTOS, SOLADOS Y ALICATADOS, AISLAMINETOS E IMPERMEABILIZACIONES, Y CARPINTERÍA TANTO DE MADERA COMO METÁLICA; LOS TENDIDOS DE VÍAS PARA FERROCARRIL, FERRROCARRILEES ELEVADO SOBRE CARRIL O CABLE, SEÑALIZACIONES Y ENCLAVAMIENTOS Y ELECTRIFICACIONES DE FERROCARRILES; LAS OBRAS HIDRÁULICAS, ABASTECIMIENTOS, SANEAMIENTOS, PRESAS, CANALES, ACEQUIAS Y DESAGÜES, DEFENSAS DE MÁRGENES Y ENCAUZAMIENTOS Y CONDUCCIONES CON TUBERÍAS DE PRESIÓN DE GRAN DIÁMETRO; LAS OBRAS MARÍTIMAS, DRAGADOS, ESCOLLERAS, DE BLOQUES DE HORMIGÓN, DE CAJONES DE HORMIGÓN ARMADO, CON PILOTES Y TABLESTACAS, FAROS, RADIOFAROS Y SEÑALIZACIONES MARÍTIMAS Y EMISARIOS SUBMARINOS; LAS AUTOPISTAS, AUTOVÍAS, PISTAS DE ATERRIZAJE CON FIRMES DE HORMIGÓN HIDRÁULICO O DE MEZCLAS BITUMINOSAS, Y SEÑALIZACIONES Y BALIZAMIENTOS VIALES; LOS OLEODUCTOS Y GASEODUCTOS. LAS INSTALACIONES ELÉCTRICAS, ALUMBRADOS, ILUMINACIONES Y BALIZAMIENTOS LUMINOSOS, CENTRALES DE PRODUCCIÓN DE ENERGÍA, LÍNEAS ELÉCTRICAS DE TRANSPORTE, SUBESTACIONES, CENTROS DE TRANSFORMACIÓN Y DISTRIBUCIÓN EN ALTA TENSIÓN, DISTRIBUCIÓN EN BAJA TENSIÓN, TELECOMUNOICACIONES E INSTALACIONES RADIOELÉCTRICAS, INSTALACIONES ELECTRÓNICAS; LAS INSTALACIONES MECÁNICAS, ELEVADORAS O TRANSPORTADORAS, DE VENTIULACIÓN, CALEFACCIÓN Y CLIMATIZACIÓN, FRIGORÍFICAS, DE FONTANERÍA Y SANITARIAS; LAS OBRAS ESPECIALES, CIMENTACIONES ESPECIALES, SONDEOS, INYECCIONES Y PILOTAJES, TABLESTACADOS, PINTURAS Y METALIZACIONES, ORNAMENTACIONES Y DECORACIONES, JARDINERÍA Y PLANTACIONES, RESTAURACIÓN DE BIENES INMUEBLES HISTÓRICO-ARTÍSTICOS, ESTACIONES DE TRATAMIENTO DE AGUA E INSTALACIONES CONTRA INCENDIOS; B) LA EXPLOTACIÓN DE VEHÍCULOS, MAQUINARIA Y ELEMENTOS DE CONSTRUCCIÓN, SANEAMIENTO, URBANIZACIÓN, CARPINTERÍA TRADICIONAL, MECFÁNICA O TUBULAR, APARATOS, HERRAMIENTAS O MATERIAL AUXILIAR PARA LA CONSTRUCCIÓN; C) LA REPRESENTACIÓN DE PRODUCTOS Y SERVICIOS RELACIONES CON LA CONSTRUCCIÓN; D) LA COORDINACIÓN E INTERMEDIACIÓN EN SERVICIOS DE INGENERÍA; E) EL TRANSPORTE DE MERCANCÍAS, DISTRIBUCIÓN Y LOGÍSTICA; F) LA INVESTIGACIÓN, DESARROLLO, COMERCIALIZACIÓNO Y EXPLOTACIÓN DE PATENTES, MODELOS DE UTILIDAD Y SISTEMAS CONSTRUCTIVOS",
      "mainEntityOfPage": "https://www.contratacion.euskadi.eus/webkpe00-kperoc/es/ac71aBusquedaRegistrosWar/empresa/03917",
      "_links": {
        "self": {
          "name": "SADAR REFORMAS Y MANTENIMIENTO, S.L.",
          "href": "https://api.euskadi.eus/procurements/companies/03917"
        }
      }
    },
    {
      "name": "PROMOCIONES ARANGUIZ, S.A.",
      "registrationNumber": "01941",
      "identificationNumber": "A01032150",
      "address": "C/ PINTOR TEODORO DOUBLANG, Nº 7 - BAJO.",
      "location": {
        "postalCode": "01008",
        "municipality": "Vitoria-Gasteiz",
        "county": "Araba/Álava",
        "municipalityId": "059",
        "countyId": "01"
      },
      "economicActivities": [
        {
          "id": "1.501.1",
          "name": "Construcción completa, reparación y conservación de edificaciones",
          "_links": {
            "self": {
              "name": "Construcción completa, reparación y conservación de edificaciones",
              "href": "https://api.euskadi.eus/procurements/companies/economic-activities/1.501.1"
            }
          }
        },
        {
          "id": "1.833.2",
          "name": "Promoción de edificaciones",
          "_links": {
            "self": {
              "name": "Promoción de edificaciones",
              "href": "https://api.euskadi.eus/procurements/companies/economic-activities/1.833.2"
            }
          }
        }
      ],
      "certificateStartDate": "2009-11-13",
      "certificateEndDate": "2010-03-28",
      "object": "LA CONSTRUCCIÓN DE TODA CLASE DE EDIFICACIONES, SU POSTERIOR VENTA, BIEN EN SU TOTALIDAD BIEN PARCIALMENTE, HACIENDO PARA ELLO LAS CORRESPONDIENTES SEGREGACIONES O DIVISIONES MATERIALES DE FINCA, COMPRA Y VENTA DE SOLARES, TERRENOS, ETC., FABRICADOS Y NEGOCIOS RELACIONADOS CON DICHA INDUSTRIA",
      "mainEntityOfPage": "https://www.contratacion.euskadi.eus/webkpe00-kperoc/es/ac71aBusquedaRegistrosWar/empresa/01941",
      "_links": {
        "self": {
          "name": "PROMOCIONES ARANGUIZ, S.A.",
          "href": "https://api.euskadi.eus/procurements/companies/01941"
        }
      }
    },
    {
      "name": "CORIBERICA SANITARIA, S.L.",
      "registrationNumber": "03532",
      "identificationNumber": "B43929595",
      "address": "C/MAJOR, Nº 55",
      "location": {
        "postalCode": "43800",
        "municipality": "Puigpelat",
        "county": "Tarragona",
        "municipalityId": "119",
        "countyId": "43"
      },
      "economicActivities": [
        {
          "id": "1.614.2",
          "name": "Venta al por mayor de productos de perfumería, droguería, higiene y belleza",
          "_links": {
            "self": {
              "name": "Venta al por mayor de productos de perfumería, droguería, higiene y belleza",
              "href": "https://api.euskadi.eus/procurements/companies/economic-activities/1.614.2"
            }
          }
        }
      ],
      "certificateStartDate": "2009-11-13",
      "certificateEndDate": "2010-03-09",
      "object": "LA PRODUCCIÓN, COMPRAVENTA, IMPORTACIÓN, EXPORTACIÓN, COMERCIALIZACIÓN, REPRESENTACIÓN E INFORMACIÓN DE TODA CLASE DE PRODUCTOS HOSPITALARIOS, SANITARIOS, MÉDICOS, COSMÉTICOS Y OTROS SIMILARES",
      "mainEntityOfPage": "https://www.contratacion.euskadi.eus/webkpe00-kperoc/es/ac71aBusquedaRegistrosWar/empresa/03532",
      "_links": {
        "self": {
          "name": "CORIBERICA SANITARIA, S.L.",
          "href": "https://api.euskadi.eus/procurements/companies/03532"
        }
      }
    },
    {
      "name": "ANGULEMA SERVICIOS MEDICOS, S.L.",
      "registrationNumber": "03367",
      "identificationNumber": "B01161223",
      "address": "ANGULEMA, 3-bajo",
      "location": {
        "postalCode": "01004",
        "municipality": "Vitoria-Gasteiz",
        "county": "Araba/Álava",
        "municipalityId": "059",
        "countyId": "01"
      },
      "economicActivities": [
        {
          "id": "1.942.9",
          "name": "Otros servicios sanitarios sin internados, no clasificados",
          "_links": {
            "self": {
              "name": "Otros servicios sanitarios sin internados, no clasificados",
              "href": "https://api.euskadi.eus/procurements/companies/economic-activities/1.942.9"
            }
          }
        }
      ],
      "certificateStartDate": "2009-11-11",
      "certificateEndDate": "2010-03-15",
      "object": "TANTO DIRECTAMENTE COMO INDIRECTAMENTE, MEDIANTE LA TITULARIDAD DE ACCIONES O PARTICIPACIONES EN SOCIEDADES CON OBJETO IDÉNTICO, LA PRESTACIÓN DE ASISTENCIA SANITARIA, APLICACIÓN DE TODOS LOS MEDIOS DE DIAGNÓSTICO Y TRATAMIENTO",
      "mainEntityOfPage": "https://www.contratacion.euskadi.eus/webkpe00-kperoc/es/ac71aBusquedaRegistrosWar/empresa/03367",
      "_links": {
        "self": {
          "name": "ANGULEMA SERVICIOS MEDICOS, S.L.",
          "href": "https://api.euskadi.eus/procurements/companies/03367"
        }
      }
    }
  ]
}