{
  "totalItems": 9042,
  "totalPages": 905,
  "currentPage": 249,
  "itemsOfPage": 10,
  "items": [
    {
      "name": "SENDEJA, S.A.",
      "registrationNumber": "09969",
      "identificationNumber": "A48245286",
      "address": "CTRA. ALTZAGA A GOIKOA - LA CAMPA",
      "location": {
        "postalCode": "48950",
        "municipality": "Erandio",
        "county": "Bizkaia",
        "municipalityId": "902",
        "countyId": "48"
      },
      "economicActivities": [
        {
          "id": "1.859",
          "name": "Alquiler de otros bienes muebles n.c.o.p. (sin personal permanente)",
          "_links": {
            "self": {
              "name": "Alquiler de otros bienes muebles n.c.o.p. (sin personal permanente)",
              "href": "https://api.euskadi.eus/procurements/companies/economic-activities/1.859"
            }
          }
        },
        {
          "id": "1.861.2",
          "name": "Alquiler de locales industriales y otros alquileres n.c.o.p",
          "_links": {
            "self": {
              "name": "Alquiler de locales industriales y otros alquileres n.c.o.p",
              "href": "https://api.euskadi.eus/procurements/companies/economic-activities/1.861.2"
            }
          }
        }
      ],
      "certificateStartDate": "2025-09-26",
      "certificateEndDate": "2026-03-18",
      "object": "A) . - LA ADMINISTRACIÓN Y CESIÓN, INVERSIÓN, TENENCIA Y DISFRUTE, ADMINISTRACIÓN, GESTIÓN Y NEGOCIACIÓN, DE VALORES MOBILIARIOS E INMUEBLES, PARTICIPACIONES SOCIALES EN COPROPIEDAD, DE TODA CLASE DE BIENES. B) . - LA CONSTITUCIÓN, CON LA CONCURRENCIA DE OTRAS PERSONAS, DE TODA CLASE DE SOCIEDADES MERCANTILES, LA PARTICIPACIÓN EN OTRAS YA CONSTITUIDAS, OSTENTANDO EN TODAS ELLAS CARGOS DE ADMINISTRACIÓN, DIRECCIÓN O CONTROL, MEDIANTE LA OPORTUNA DELEGACIÓN EN PERSONA FÍSICA. C) . - LA ADQUISICIÓN Y ENAJENACIÓN, POR CUALQUIER TÍTULO, DE FINCAS RÚSTICAS Y URBANAS, YA SEAN TIERRAS, SOLARES, EDIFICIOS, LA CONSTRUCCIÓN DE ÉSTOS, Y LA ADMINISTRACIÓN, TENENCIA, EXPLOTACIÓN Y ARRENDAMIENTO, YA SEA ACTIVO O PASIVO, DE TALES BIENES Y SU VENTA, TOTAL O PARCIAL, SEGÚN CONVENGA PARA SU APROVECHAMIENTO AGRÍCOLA, FORESTAL, URBANO, INDUSTRIAL O CUALQUIER OTRO. D) . - LA PROMOCIÓN, EJECUCIÓN, COMPRA, VENTA, ALMACENAMIENTO, DEPÓSITO, DISTRIBUCIÓN Y EXPLOTACIÓN DE TODA CLASE DE PRODUCTOS Y ELABORADOS NATURALES, DE MATERIAS PRIMAS Y SUS TRANSFORMADOS O PRODUCTOS MANUFACTURADOS, SEMI-ELABORADOS, RELACIONADOS CON LA AGRICULTURA, GANADERÍA, PESCA, MINERÍA, TRANSPORTE TERRESTRE, DE CUALQUIER CLASE Y NATURALEZA, TELECOMUNICACIÓN, INDUSTRIA FORESTAL SIDEROMETALÚRGICA, MECÁNICA, ELECTROMECÁNICA, QUÍMICA, ALIMENTACIÓN, TEXTIL, BIOQUÍMICA Y LA DE SUS DERIVADOS, AFINES Y COMPLEMENTARIOS. E) . - LA PROMOCIÓN, EJECUCIÓN Y EXPLOTACIÓN DE NEGOCIOS DE PRESTACIÓN DE SERVICIOS Y SUMINISTROS, COMO ESPECTÁCULOS, VIAJES, TRANSPORTES TERRESTRES, TURISMOS, HOTELES Y ALOJAMIENTOS. F) . - ES ESTUDIO, INVESTIGACIÓN, PROMOCIÓN Y PRESTACIÓN DE SERVICIOS DE ASISTENCIA Y GESTIÓN TÉCNICA, ADMINISTRATIVA, COMERCIAL, DIRECCIÓN, ADMINISTRACIÓN, EXPLOTACIÓN Y PARTICIPACIÓN EN NEGOCIOS. G) . - LOS SERVICIOS DE MEDIACIÓN CON BIENES PROPIOS O AJENOS, ASÍ COMO LOS DE CONSIGNACIÓN, REPRESENTACIÓN Y GESTIÓN, INCLUSO DE TODA CLASE DE SUMINISTROS DE PRODUCTOS EN GENERAL, NACIONALES Y EXTRANJEROS Y LAS ACTIVIDADES DE IMPORTACIÓN Y EXPORTACIÓN. H) . - LA COMPRA, VENTA, IMPORTACIÓN, EXPORTACIÓN, Y COMERCIALIZACIÓN, ASÍ COMO EL ALQUILER Y REPARACIÓN DE CONTENEDORES METÁLICOS, MAQUINARIA Y PRODUCTOS INDUSTRIALES, TAMBIÉN PODRÁ REPRESENTAR COMO AGENTE, COMISIONISTA, DELEGADO U OTRA FORMA DE MEDIACIÓN MERCANTIL.",
      "mainEntityOfPage": "https://www.contratacion.euskadi.eus/webkpe00-kperoc/es/ac71aBusquedaRegistrosWar/empresa/09969",
      "_links": {
        "self": {
          "name": "SENDEJA, S.A.",
          "href": "https://api.euskadi.eus/procurements/companies/09969"
        }
      }
    },
    {
      "name": "GAS BILBAO SA",
      "registrationNumber": "03370",
      "identificationNumber": "A48497069",
      "address": "C/Aragón nº 1",
      "location": {
        "postalCode": "48015",
        "municipality": "Bilbao",
        "county": "Bizkaia",
        "municipalityId": "020",
        "countyId": "48"
      },
      "economicActivities": [
        {
          "id": "1.504.3",
          "name": "Instalaciones de frío, calor y acondicionamiento de aire",
          "_links": {
            "self": {
              "name": "Instalaciones de frío, calor y acondicionamiento de aire",
              "href": "https://api.euskadi.eus/procurements/companies/economic-activities/1.504.3"
            }
          }
        }
      ],
      "certificateStartDate": "2025-09-26",
      "certificateEndDate": "2026-03-08",
      "object": "A ) SUMINISTRO, MONTAJE, DISEÑO, PUESTA EN SERVICIO, PERITACIÓN, COMERCIALIZACIÓN, REPARACIÓN, MANTENIMIENTO, PROYECTOS, ATENCIÓN, REFORMA Y VENTA DE INSTALACIONES DE GAS, CALEFACCIÓN, AGUA Y AGUA CALIENTE SANITARIA, ELECTRICIDAD, PRODUCTOS PETROLÍFEROS, AIRE ACONDICIONADO, CLIMATIZACIÓN Y VENTILACIÓN. B) COMPRAVENTA E INSTALACIÓN DE ELECTRODOMÉSTICOS, MOBILIARIO, APARATOS SANITARIOS, GRIFERÍA, EQUIPOS MECÁNICOS, SISTEMAS CONTRAINCENDIOS, CUADROS ELÉCTRICOS Y ELECTRÓNICOS, MATERIA DE HIGIENE Y SEGURIDAD INDUSTRIAL Y REALIZACIÓN DE TRABAJOS DE PINTURA, CARPINTERÍA, AISLAMIENTO Y DESINFECCIÓN, CONCESIÓN EN SU CASO, DE PERSONAL TÉCNICO O NO TÉCNICO. C) COMPRAVENTA REPARACIÓN Y ALQUILER DE VEHÍCULO Y REALIZACIÓN DE ACTIVIDADES PROPIAS DEL RAMO DE LA AUTOMOCIÓN, INCLUIDA LA COMPRAVENTA DE COMBUSTIBLES, ACEITES, GRASAS Y ACCESORIOS. D) REPRESENTACIÓN DE FIRMAS NACIONALES Y EXTRANJERAS. E) COMPRAVENTA Y ARRENDAMIENTO DE BIENES INMUEBLES.",
      "mainEntityOfPage": "https://www.contratacion.euskadi.eus/webkpe00-kperoc/es/ac71aBusquedaRegistrosWar/empresa/03370",
      "_links": {
        "self": {
          "name": "GAS BILBAO SA",
          "href": "https://api.euskadi.eus/procurements/companies/03370"
        }
      }
    },
    {
      "name": "DANIEL LUCAS GARCIA",
      "registrationNumber": "10346",
      "identificationNumber": "78897796E",
      "address": "Calle Ollerías Bajas",
      "location": {
        "postalCode": "48006",
        "municipality": "Bilbao",
        "county": "Bizkaia",
        "municipalityId": "020",
        "countyId": "48"
      },
      "economicActivities": [
        {
          "id": "1.844",
          "name": "Servicios de publicidad, relaciones públicas y similares",
          "_links": {
            "self": {
              "name": "Servicios de publicidad, relaciones públicas y similares",
              "href": "https://api.euskadi.eus/procurements/companies/economic-activities/1.844"
            }
          }
        },
        {
          "id": "2.511",
          "name": "Agentes comerciales",
          "_links": {
            "self": {
              "name": "Agentes comerciales",
              "href": "https://api.euskadi.eus/procurements/companies/economic-activities/2.511"
            }
          }
        },
        {
          "id": "2.763",
          "name": "Programadores y analistas de informática",
          "_links": {
            "self": {
              "name": "Programadores y analistas de informática",
              "href": "https://api.euskadi.eus/procurements/companies/economic-activities/2.763"
            }
          }
        }
      ],
      "certificateStartDate": "2025-09-26",
      "certificateEndDate": "2026-03-22",
      "object": "SERVICIOS DE PUBLICIDAD, RELACIONES PÚBLICAS Y SIMILARES. AGENTES COMERCIALES. PROGRAMADORES Y ANALISTAS DE INFORMÁTICA.",
      "mainEntityOfPage": "https://www.contratacion.euskadi.eus/webkpe00-kperoc/es/ac71aBusquedaRegistrosWar/empresa/10346",
      "_links": {
        "self": {
          "name": "DANIEL LUCAS GARCIA",
          "href": "https://api.euskadi.eus/procurements/companies/10346"
        }
      }
    },
    {
      "name": "PELTISA, S.L.",
      "registrationNumber": "06091",
      "identificationNumber": "B48404966",
      "address": "MERCABILBAO PTOS.207-209-211-213",
      "location": {
        "postalCode": "48970",
        "municipality": "Basauri",
        "county": "Bizkaia",
        "municipalityId": "015",
        "countyId": "48"
      },
      "economicActivities": [
        {
          "id": "1.612.3",
          "name": "Venta al por mayor de frutas y verduras, patatas, legumbres frescas",
          "_links": {
            "self": {
              "name": "Venta al por mayor de frutas y verduras, patatas, legumbres frescas",
              "href": "https://api.euskadi.eus/procurements/companies/economic-activities/1.612.3"
            }
          }
        }
      ],
      "certificateStartDate": "2025-09-26",
      "certificateEndDate": "2026-03-24",
      "object": "LA COMPRA Y VENTA AL POR MAYOR Y AL POR MENOR DE FRUTAS, VERDURAS Y HORTALIZAS, EL ALMACENAMIENTO , DEPÓSITO, DISTRIBUCIÓN, TRANSPORTE, MANIPULACIÓN, ENVASADO Y ACONDICIONADO DE LOS GÉNEROS COMERCIALIZADOS, TODO ELLO EN LOS LOCALES PROPIOS O ARRENDADOS. IGUALMENTE PODRÁN EXPLOTAR DE ESTA FORMA EN CADENAS DE DISTRIBUCIÓN LOS CITADOS GÉNEROS, MEDIANTE SISTEMAS DE SUMINISTRO, FRANQUICIA, ARRENDAMIENTO Y SUBARRENDAMIENTO DE NEGOCIOS",
      "mainEntityOfPage": "https://www.contratacion.euskadi.eus/webkpe00-kperoc/es/ac71aBusquedaRegistrosWar/empresa/06091",
      "_links": {
        "self": {
          "name": "PELTISA, S.L.",
          "href": "https://api.euskadi.eus/procurements/companies/06091"
        }
      }
    },
    {
      "name": "XENON COMPUTER, S.L.U",
      "registrationNumber": "02644",
      "identificationNumber": "B20707378",
      "address": "POL. IND. TXALAKA ARANEDER - TROIA BIDEA, 20.PAB. 7-B1",
      "location": {
        "postalCode": "20115",
        "municipality": "Astigarraga",
        "county": "Gipuzkoa",
        "municipalityId": "903",
        "countyId": "20"
      },
      "economicActivities": [
        {
          "id": "1.659.2",
          "name": "Venta al por menor de muebles de oficina y máquinas y equipos de oficina",
          "_links": {
            "self": {
              "name": "Venta al por menor de muebles de oficina y máquinas y equipos de oficina",
              "href": "https://api.euskadi.eus/procurements/companies/economic-activities/1.659.2"
            }
          }
        },
        {
          "id": "1.845",
          "name": "Explotación electrónica por cuenta de terceros",
          "_links": {
            "self": {
              "name": "Explotación electrónica por cuenta de terceros",
              "href": "https://api.euskadi.eus/procurements/companies/economic-activities/1.845"
            }
          }
        }
      ],
      "certificateStartDate": "2025-09-26",
      "certificateEndDate": "2026-03-23",
      "object": "LA EXPLOTACIÓN DE UN NEGOCIO DE MONTAJE, VENTA, ASESORAMIENTO Y ASISTENCIA TÉCNICA  SOBRE INFORMÁTICA Y COMUNICACIONES ",
      "mainEntityOfPage": "https://www.contratacion.euskadi.eus/webkpe00-kperoc/es/ac71aBusquedaRegistrosWar/empresa/02644",
      "_links": {
        "self": {
          "name": "XENON COMPUTER, S.L.U",
          "href": "https://api.euskadi.eus/procurements/companies/02644"
        }
      }
    },
    {
      "name": "SERVICIOS SOCIALES INTEGRADOS, S. COOP.",
      "registrationNumber": "01887",
      "identificationNumber": "F48214787",
      "address": "C/ BUENOS AIRES, Nº 13 - 2º IZDA.",
      "location": {
        "postalCode": "48001",
        "municipality": "Bilbao",
        "county": "Bizkaia",
        "municipalityId": "020",
        "countyId": "48"
      },
      "economicActivities": [
        {
          "id": "1.849.7",
          "name": "Servicios de gestión administrativa",
          "_links": {
            "self": {
              "name": "Servicios de gestión administrativa",
              "href": "https://api.euskadi.eus/procurements/companies/economic-activities/1.849.7"
            }
          }
        },
        {
          "id": "1.861.2",
          "name": "Alquiler de locales industriales y otros alquileres n.c.o.p",
          "_links": {
            "self": {
              "name": "Alquiler de locales industriales y otros alquileres n.c.o.p",
              "href": "https://api.euskadi.eus/procurements/companies/economic-activities/1.861.2"
            }
          }
        },
        {
          "id": "1.932.1",
          "name": "Enseñanza de formación y perfeccionamiento profesional no superior",
          "_links": {
            "self": {
              "name": "Enseñanza de formación y perfeccionamiento profesional no superior",
              "href": "https://api.euskadi.eus/procurements/companies/economic-activities/1.932.1"
            }
          }
        },
        {
          "id": "1.952",
          "name": "Asistencia y servicios sociales en centros no residenciales",
          "_links": {
            "self": {
              "name": "Asistencia y servicios sociales en centros no residenciales",
              "href": "https://api.euskadi.eus/procurements/companies/economic-activities/1.952"
            }
          }
        }
      ],
      "certificateStartDate": "2025-09-26",
      "certificateEndDate": "2026-03-22",
      "object": "IMPULSAR, FOMENTAR, COORDINAR, COMPLETAR Y GARANTZAR LAS TAREAS DE LAS COOPERATIVAS QUE AGRUPA EN SU SENO, OFRECIENDO LA PRESTACIÓN DE SERVICIOS TÉCNICOS, DE ASESORAMIENTO, CONSULTORÍA, FORMACIÓN, GESTIÓN, ADMINISTRACIÓN, CONTABILIDAD, JURÍDICOS, COMERCIALES Y DE REPRESENTACIÓN INSTITUCIONAL TANTO DE LA COOPERATIVA DE 2º GRADO COMO DE SUS COOPERATIVAS SOCIALES Y A TERCEROS",
      "mainEntityOfPage": "https://www.contratacion.euskadi.eus/webkpe00-kperoc/es/ac71aBusquedaRegistrosWar/empresa/01887",
      "_links": {
        "self": {
          "name": "SERVICIOS SOCIALES INTEGRADOS, S. COOP.",
          "href": "https://api.euskadi.eus/procurements/companies/01887"
        }
      }
    },
    {
      "name": "MANUFACTURAS MARPE, S.L.",
      "registrationNumber": "09299",
      "identificationNumber": "B20153532",
      "address": "GARMENDI GAIN AREA, 10",
      "location": {
        "postalCode": "20730",
        "municipality": "Azpeitia",
        "county": "Gipuzkoa",
        "municipalityId": "018",
        "countyId": "20"
      },
      "economicActivities": [
        {
          "id": "1.463",
          "name": "Fabricación en serie de piezas de carpintería y parquet",
          "_links": {
            "self": {
              "name": "Fabricación en serie de piezas de carpintería y parquet",
              "href": "https://api.euskadi.eus/procurements/companies/economic-activities/1.463"
            }
          }
        }
      ],
      "certificateStartDate": "2025-09-26",
      "certificateEndDate": "2026-03-23",
      "object": "LA EXPLOTACIÓN DE UN NEGOCIO DEDICADO A LA FABRICACIÓN DE ACCESORIOS DE MADERA, PARA LA FABRICACIÓN DE MUEBLES ASÍ COMO SU VENTA, TRANSPORTE, ALMACENAJE Y DISTRIBUCIÓN.",
      "mainEntityOfPage": "https://www.contratacion.euskadi.eus/webkpe00-kperoc/es/ac71aBusquedaRegistrosWar/empresa/09299",
      "_links": {
        "self": {
          "name": "MANUFACTURAS MARPE, S.L.",
          "href": "https://api.euskadi.eus/procurements/companies/09299"
        }
      }
    },
    {
      "name": "ASEM INDAFISA GESTION EMPRESARIAL, S.L.",
      "registrationNumber": "09535",
      "identificationNumber": "B95580353",
      "address": "Calle Rodríguez Arias (48008), 4 - 2º derecha",
      "location": {
        "postalCode": "48008",
        "municipality": "Bilbao",
        "county": "Bizkaia",
        "municipalityId": "020",
        "countyId": "48"
      },
      "economicActivities": [
        {
          "id": "1.842",
          "name": "Servicios financieros y contables",
          "_links": {
            "self": {
              "name": "Servicios financieros y contables",
              "href": "https://api.euskadi.eus/procurements/companies/economic-activities/1.842"
            }
          }
        },
        {
          "id": "1.861.2",
          "name": "Alquiler de locales industriales y otros alquileres n.c.o.p",
          "_links": {
            "self": {
              "name": "Alquiler de locales industriales y otros alquileres n.c.o.p",
              "href": "https://api.euskadi.eus/procurements/companies/economic-activities/1.861.2"
            }
          }
        }
      ],
      "certificateStartDate": "2025-09-26",
      "certificateEndDate": "2026-03-22",
      "object": "1.- PRESTACIÓN DE SERVICIOS DE ASESORAMIENTO, CONSULTORÍA, GESTIÓN Y ORGANIZACIÓN DE EN LOS ÁMBITOS CONTABLE, FISCAL, LABORAL, MERCANTIL, FINANCIERO, JURÍDICO, DE AUDITORÍA, COMERCIAL, DE DIRECCIÓN, EMPRESARIAL, ADMINISTRACIÓN, GESTIÓN, REPRESENTACIÓN Y SEGUIMIENTO, Y, EN GENERAL, DE TODAS LAS ACTIVIDADES RELACIONADAS CON LOS MISMOS TANTO A PERSONAS FÍSICAS COMO JURÍDICAS, PÚBLICAS Y PRIVADAS. 3.- EL ANÁLISIS Y ESTUDIO DE NEGOCIOS Y OPERACIONES INDUSTRIALES, COMERCIALES Y FINANCIERAS, ASÍ COMO TODA CLASE DE ASESORAMIENTOS ECONÓMICOS, ADMINISTRATIVOS, FINANCIEROS O DE OTRA ÍNDOLE Y SU APLICACIÓN, A FIN DE MEJORAR LA GESTIÓN Y PRODUCCIÓN DE CUALQUIER GÉNERO DE EMPRESAS. 4.- EL DESEMPEÑO DE COMISIONES Y REPRESENTACIONES PARA TODO GÉNERO DE OPERACIONES DE LÍCITO COMERCIO, ASÍ COMO LA AGENCIA DE REPRESENTACIÓN PARA TODO TIPO DE ENTIDADES, Y EN PARTICULAR ENTIDADES ASEGURADORAS Y FINANCIERAS. 5.- LA ASISTENCIA, GESTIÓN, DIRECCIÓN, ADMINISTRACIÓN, PROMOCIÓN, INTERVENCIÓN Y PARTICIPACIÓN EN EMPRESAS O EN SU CREACIÓN, CONSTITUCIÓN Y DESARROLLO. 6.- LA PROMOCIÓN, ESTUDIO Y DESARROLLO DE PRODUCTOS Y ACTIVIDADES INDUSTRIALES, COMERCIALES Y DE DISTRIBUCIÓN, EN EMPRESAS PROPIAS O PARTICIPADAS, Y EXPLOTACIÓN O CESIÓN DE CÁNONES O ROYALTIES Y DERECHOS DE PROPIEDAD INDUSTRIAL. 7.- LA ADQUISICIÓN, TENENCIA, DISFRUTE, ADMINISTRACIÓN Y ENAJENACIÓN DE TODA CLASE DE TÍTULOS COMO VALORES MOBILIARIOS, ACTIVOS FINANCIEROS, DERECHOS, VALORES, CUOTAS O PARTICIPACIONES EN EMPRESAS INDIVIDUALES O SOCIALES POR CUENTA PROPIA. 8.- ADQUIRIR, ENAJENAR Y ARRENDAR BIENES INMUEBLES. 9.- LA INTERMEDIACIÓN, ASESORAMIENTO, ADMINISTRACIÓN, GESTIÓN Y PRESTACIÓN DE SERVICIOS DE TODO TIPO EN RELACIÓN A BIENES INMUEBLES, SEGÚN CONVENGA A SU APROVECHAMIENTO URBANO, INDUSTRIAL, AGRÍCOLA, FORESTAL O DE CUALQUIER OTRA NATURALEZA. LA PRESTACIÓN DE SERVICIOS TÉCNICOS DE URBANISMO.",
      "mainEntityOfPage": "https://www.contratacion.euskadi.eus/webkpe00-kperoc/es/ac71aBusquedaRegistrosWar/empresa/09535",
      "_links": {
        "self": {
          "name": "ASEM INDAFISA GESTION EMPRESARIAL, S.L.",
          "href": "https://api.euskadi.eus/procurements/companies/09535"
        }
      }
    },
    {
      "name": "PANIFICADORA HERNANI S.L.",
      "registrationNumber": "06257",
      "identificationNumber": "B75093591",
      "address": "Barrio Florida 32",
      "location": {
        "postalCode": "20120",
        "municipality": "Hernani",
        "county": "Gipuzkoa",
        "municipalityId": "040",
        "countyId": "20"
      },
      "economicActivities": [
        {
          "id": "1.419.1",
          "name": "Industria del pan y de la bollería",
          "_links": {
            "self": {
              "name": "Industria del pan y de la bollería",
              "href": "https://api.euskadi.eus/procurements/companies/economic-activities/1.419.1"
            }
          }
        },
        {
          "id": "1.644.1",
          "name": "Venta al por menor de pan, pastelería, confitería y similares y de leche",
          "_links": {
            "self": {
              "name": "Venta al por menor de pan, pastelería, confitería y similares y de leche",
              "href": "https://api.euskadi.eus/procurements/companies/economic-activities/1.644.1"
            }
          }
        },
        {
          "id": "1.659.4",
          "name": "Venta al por menor de libros, periódicos y artículos de papelería y escritorio",
          "_links": {
            "self": {
              "name": "Venta al por menor de libros, periódicos y artículos de papelería y escritorio",
              "href": "https://api.euskadi.eus/procurements/companies/economic-activities/1.659.4"
            }
          }
        }
      ],
      "certificateStartDate": "2025-09-26",
      "certificateEndDate": "2026-03-22",
      "object": "LAS ACTIVIDADES QUE SEGUIDAMENTE SE DETALLAN, QUE PODRÁN SER REALIZADAS DIRECTA O INDIRECTAMENTE, INCLUSO MEDIANTE SU PARTICIPACIÓN EN OTRAS SOCIEDADES ESPAÑOLAS O EXTRANJERAS DE IDÉNTICO O ANÁLOGO OBJETO, Y CONSISTIRÁ EN LA EXPLOTACIÓN DE UN NEGOCIO ESPECIALIZADO EN EL SECTOR DE LA ALIMENTACIÓN Y ESPECIALMENTE EN LO QUE SE REFIERE A LA ELABORACIÓN, FABRICACIÓN, COMERCIALIZACIÓN Y VENTA DE TODO TIPO DE PRODUCTOS DERIVADOS DE LA HARINA, PAN, BOLLERÍA Y REPOSTERÍA",
      "mainEntityOfPage": "https://www.contratacion.euskadi.eus/webkpe00-kperoc/es/ac71aBusquedaRegistrosWar/empresa/06257",
      "_links": {
        "self": {
          "name": "PANIFICADORA HERNANI S.L.",
          "href": "https://api.euskadi.eus/procurements/companies/06257"
        }
      }
    },
    {
      "name": "NEMERGENT SOLUTIONS, S.L.",
      "registrationNumber": "09129",
      "identificationNumber": "B95869293",
      "address": "Avda Ribera de Axpe nº6, 2ªplanta, of 5 y 6",
      "location": {
        "postalCode": "48950",
        "municipality": "Erandio",
        "county": "Bizkaia",
        "municipalityId": "902",
        "countyId": "48"
      },
      "economicActivities": [
        {
          "id": "1.845",
          "name": "Explotación electrónica por cuenta de terceros",
          "_links": {
            "self": {
              "name": "Explotación electrónica por cuenta de terceros",
              "href": "https://api.euskadi.eus/procurements/companies/economic-activities/1.845"
            }
          }
        }
      ],
      "certificateStartDate": "2025-09-26",
      "certificateEndDate": "2026-03-23",
      "object": "ACTIVIDAD PRINCIPAL: CNAE: 6202.- ACTIVIDADES DE CONSULTORÍA INFORMÁTICA. OTRAS ACTIVIDADES: CNAE: 2630.- FABRICACIÓN DE EQUIPOS DE TELECOMUNICACIONES. CNAE: 4651.- COMERCIO AL POR MAYOR DE ORDENADORES, EQUIPOS PERIFÉRICOS Y PROGRAMAS INFORMÁTICOS. CNAE: 4652.- COMERCIO AL POR MAYOR DE EQUIPOS ELECTRÓNICOS Y DE TELECOMUNICACIONES Y SUS COMPONENTES. CNAE: 6190.- OTRAS ACTIVIDADES DE TELECOMUNICACIONES. CNAE: 6201.- ACTIVIDADES DE PROGRAMACIÓN INFORMÁTICA. CNAE: 6202.- ACTIVIDADES DE CONSULTORÍA INFORMÁTICA. CNAE: 6209.- OTROS SERVICIOS RELACIONADOS CON LAS TECNOLOGÍAS DE LA INFORMACIÓN Y LA INFORMÁTICA. CNAE: 6311.- PROCESO DE DATOS, HOSTING Y ACTIVIDADES RELACIONADAS. CNAE: 7219.- OTRA INVESTIGACIÓN Y DESARROLLO EXPERIMENTAL EN CIENCIAS NATURALES Y TÉCNICAS.",
      "mainEntityOfPage": "https://www.contratacion.euskadi.eus/webkpe00-kperoc/es/ac71aBusquedaRegistrosWar/empresa/09129",
      "_links": {
        "self": {
          "name": "NEMERGENT SOLUTIONS, S.L.",
          "href": "https://api.euskadi.eus/procurements/companies/09129"
        }
      }
    }
  ]
}