{
  "totalItems": 9042,
  "totalPages": 905,
  "currentPage": 226,
  "itemsOfPage": 10,
  "items": [
    {
      "name": "TEILAZPI KULTUR TAILERRAK, S.L.",
      "registrationNumber": "07922",
      "identificationNumber": "B75092064",
      "address": "C/RONDILLA, Nº 40 - 1º B",
      "location": {
        "postalCode": "20400",
        "municipality": "Tolosa",
        "county": "Gipuzkoa",
        "municipalityId": "071",
        "countyId": "20"
      },
      "economicActivities": [
        {
          "id": "1.933.9",
          "name": "Otras actividades de enseñanza tales como idiomas, mecanografía",
          "_links": {
            "self": {
              "name": "Otras actividades de enseñanza tales como idiomas, mecanografía",
              "href": "https://api.euskadi.eus/procurements/companies/economic-activities/1.933.9"
            }
          }
        }
      ],
      "certificateStartDate": "2025-10-09",
      "certificateEndDate": "2026-04-06",
      "object": "LA ASESORÍA, ENSEÑANZA, CONTRATACIÓN, ORGANIZACIÓN Y DIRECCIÓN DE TODA CLASE DE EVENTOS Y TALLERES CULTURALES, ASÍ COMO LA PRESTACIÓN DE SERVICIOS RELACIONADOS CON LA ORGANIZACIÓN DE DICHOS TALLERES, CONFERENCIAS, COLOQUIOS, EXPOSICIONES, ASÍ COMO CUALQUIER OTRO EVENTO SEMEJANTE A LOS CITADOS.",
      "mainEntityOfPage": "https://www.contratacion.euskadi.eus/webkpe00-kperoc/es/ac71aBusquedaRegistrosWar/empresa/07922",
      "_links": {
        "self": {
          "name": "TEILAZPI KULTUR TAILERRAK, S.L.",
          "href": "https://api.euskadi.eus/procurements/companies/07922"
        }
      }
    },
    {
      "name": "GRUPO CRESME, S.A.",
      "registrationNumber": "03018",
      "identificationNumber": "A01046952",
      "address": "LOS HERRÁN, 45 BAJO",
      "location": {
        "postalCode": "01002",
        "municipality": "Vitoria-Gasteiz",
        "county": "Araba/Álava",
        "municipalityId": "059",
        "countyId": "01"
      },
      "economicActivities": [
        {
          "id": "1.851",
          "name": "Alquiler de maquinaria y equipo agrícola",
          "_links": {
            "self": {
              "name": "Alquiler de maquinaria y equipo agrícola",
              "href": "https://api.euskadi.eus/procurements/companies/economic-activities/1.851"
            }
          }
        },
        {
          "id": "1.911",
          "name": "Servicios agrícolas y ganaderos",
          "_links": {
            "self": {
              "name": "Servicios agrícolas y ganaderos",
              "href": "https://api.euskadi.eus/procurements/companies/economic-activities/1.911"
            }
          }
        },
        {
          "id": "1.912",
          "name": "Servicios forestales",
          "_links": {
            "self": {
              "name": "Servicios forestales",
              "href": "https://api.euskadi.eus/procurements/companies/economic-activities/1.912"
            }
          }
        }
      ],
      "certificateStartDate": "2025-10-09",
      "certificateEndDate": "2026-04-01",
      "classification": [
        {
          "id": "O",
          "name": "Obras",
          "groups": [
            {
              "id": "K",
              "name": "ESPECIALES",
              "subgroups": [
                {
                  "id": "06",
                  "name": "Jardinería y plantaciones",
                  "categories": [
                    {
                      "id": "2",
                      "name": "Desde 150.001 Hasta 360.000",
                      "_links": {
                        "self": {
                          "name": "Desde 150.001 Hasta 360.000",
                          "href": "https://api.euskadi.eus/procurements/companies/types/O/categories/2"
                        }
                      }
                    }
                  ],
                  "_links": {
                    "self": {
                      "name": "Jardinería y plantaciones",
                      "href": "https://api.euskadi.eus/procurements/companies/types/O/groups/K/subgroups/06"
                    }
                  }
                }
              ],
              "_links": {
                "self": {
                  "name": "ESPECIALES",
                  "href": "https://api.euskadi.eus/procurements/companies/types/O/groups/K"
                }
              }
            }
          ],
          "_links": {
            "self": {
              "name": "Obras",
              "href": "https://api.euskadi.eus/procurements/companies/types/O"
            }
          }
        },
        {
          "id": "S",
          "name": "Servicios",
          "groups": [
            {
              "id": "O",
              "subgroups": [
                {
                  "id": "06",
                  "name": "Conservación y mantenimiento de montes y jardines",
                  "categories": [
                    {
                      "id": "1",
                      "name": "Desde 0 Hasta 150.000",
                      "_links": {
                        "self": {
                          "name": "Desde 0 Hasta 150.000",
                          "href": "https://api.euskadi.eus/procurements/companies/types/S/categories/1"
                        }
                      }
                    }
                  ],
                  "_links": {
                    "self": {
                      "name": "Conservación y mantenimiento de montes y jardines",
                      "href": "https://api.euskadi.eus/procurements/companies/types/S/groups/O/subgroups/06"
                    }
                  }
                }
              ],
              "_links": {
                "self": {
                  "href": "https://api.euskadi.eus/procurements/companies/types/S/groups/O"
                }
              }
            }
          ],
          "_links": {
            "self": {
              "name": "Servicios",
              "href": "https://api.euskadi.eus/procurements/companies/types/S"
            }
          }
        }
      ],
      "object": "LA REALIZACIÓN DE TRABAJOS DE JARDINERÍA EN GENERAL Y OBRAS FORESTALES, VIVEROS DE PLANTAS Y CONSTRUCCIÓN, PUDIENDO AMPLIAR SU FINES CUANDO LO ESTIME CONVENIENTE, PREVIO ACUERDO DE LA JUNTA GENERAL DE ACCIONISTAS A OTROS NEGOCIOS EMPRESAS QUE TENGAN RELACIÓN CON EL OBJETO INDICADO, PREVIA LA CORRESPONDIENTE MODIFICACIÓN ESTATUTARIA.",
      "mainEntityOfPage": "https://www.contratacion.euskadi.eus/webkpe00-kperoc/es/ac71aBusquedaRegistrosWar/empresa/03018",
      "_links": {
        "self": {
          "name": "GRUPO CRESME, S.A.",
          "href": "https://api.euskadi.eus/procurements/companies/03018"
        }
      }
    },
    {
      "name": "GREEN PET, S.L.",
      "registrationNumber": "09342",
      "identificationNumber": "B95393039",
      "address": "Tellagorri, 18 ",
      "location": {
        "postalCode": "48012",
        "municipality": "Bilbao",
        "county": "Bizkaia",
        "municipalityId": "020",
        "countyId": "48"
      },
      "economicActivities": [
        {
          "id": "1.659.7",
          "name": "Venta al por menor de semillas, abonos, flores, plantas y pequeños animales",
          "_links": {
            "self": {
              "name": "Venta al por menor de semillas, abonos, flores, plantas y pequeños animales",
              "href": "https://api.euskadi.eus/procurements/companies/economic-activities/1.659.7"
            }
          }
        },
        {
          "id": "1.945",
          "name": "Consultas y clínicas veterinarias",
          "_links": {
            "self": {
              "name": "Consultas y clínicas veterinarias",
              "href": "https://api.euskadi.eus/procurements/companies/economic-activities/1.945"
            }
          }
        }
      ],
      "certificateStartDate": "2025-10-09",
      "certificateEndDate": "2026-04-06",
      "object": "COMERCIALIZACIÓN DE PRODUCTOS Y SERVICIOS PARA ANIMALES. COMERCIALIZACIÓN AL POR MENOR DE PRODUCTOS FARMACÉUTICOS EN ESTABLECIMIENTOS ESPECIALIZADOS. CONSULTAS Y CLINICAS VETERINARIAS.",
      "mainEntityOfPage": "https://www.contratacion.euskadi.eus/webkpe00-kperoc/es/ac71aBusquedaRegistrosWar/empresa/09342",
      "_links": {
        "self": {
          "name": "GREEN PET, S.L.",
          "href": "https://api.euskadi.eus/procurements/companies/09342"
        }
      }
    },
    {
      "name": "SUMINISTROS MEDICO QUIRURGICOS, S.A.",
      "registrationNumber": "03544",
      "identificationNumber": "A33030610",
      "address": "PARQUE EMPRESARIAL AGUILA DEL NORA, NAVE 21",
      "location": {
        "postalCode": "33199",
        "municipality": "Siero",
        "county": "Asturias",
        "municipalityId": "066",
        "countyId": "33"
      },
      "economicActivities": [
        {
          "id": "1.619.2",
          "name": "Venta al por mayor de aparatos e instrumentos médicos, ortopédicos, ópticos",
          "_links": {
            "self": {
              "name": "Venta al por mayor de aparatos e instrumentos médicos, ortopédicos, ópticos",
              "href": "https://api.euskadi.eus/procurements/companies/economic-activities/1.619.2"
            }
          }
        },
        {
          "id": "1.699",
          "name": "Otras reparaciones n.c.o.p",
          "_links": {
            "self": {
              "name": "Otras reparaciones n.c.o.p",
              "href": "https://api.euskadi.eus/procurements/companies/economic-activities/1.699"
            }
          }
        }
      ],
      "certificateStartDate": "2025-10-09",
      "certificateEndDate": "2026-04-06",
      "object": "A) LA FABRICACIÓN, DISTRIBUCIÓN Y VENTA DE PRODUCTOS Y MATERIALES MÉDICO QUIRÚRGICOS Y HOSPITALARIOS. B) LA GESTIÓN DE NEGOCIOS AJENOS, REPRESENTACIÓN Y MEDIACIÓN MERCANTIL DE EMPRESAS Y FIRMAS TANTO NACIONALES COMO EXTRANJERAS, ASÍ COMO LA EXPLOTACIÓN DE PATENTES O MARCAS. C) HIGIENIZACIÓN, DESINFECCIÓN, DESINSECTACIÓN Y DESRATIZACIÓN DE TODO TIPO DE LOCALES E INSTALACIONES TANTO PÚBLICAS COMO PRIVADAS. D) INSPECCIÓN SANITARIA DE TODO TIPO DE INSTALACIONES PÚBLICAS O PRIVADAS. E) PRESTACIÓN DE SERVICIOS DE ESTERILIZACIÓN DE TODO TIPO DE MATERIAL SANITARIO. F) MANTENIMIENTO Y REPARACIÓN DE EQUIPOS E INSTALACIONES MÉDICAS Y DE ELECTROMEDICINA. G) TRATAMIENTO DE RESIDUOS DE CENTROS SANITARIOS Y CLINICAS TANTO PRIVADAS COMO PÚBLICAS. H) ALQUILER DE MAQUINARIA Y EQUIPOS RELACIONADOS CON LOS EPÍGRAFES ANTERIORES. Y EN CONSECUENCIA, LAS ACTIVIDADES DE IMPORTACIÓN Y EXPORTACIÓN EN TODAS SUS FORMAS Y MODALIDADES. ",
      "mainEntityOfPage": "https://www.contratacion.euskadi.eus/webkpe00-kperoc/es/ac71aBusquedaRegistrosWar/empresa/03544",
      "_links": {
        "self": {
          "name": "SUMINISTROS MEDICO QUIRURGICOS, S.A.",
          "href": "https://api.euskadi.eus/procurements/companies/03544"
        }
      }
    },
    {
      "name": "MAAB ARQUITECTURA Y URBANISMO, S.L.",
      "registrationNumber": "08802",
      "identificationNumber": "B95315388",
      "address": "TRISTAN DE LEGUIZAMON 1 BAJO",
      "location": {
        "postalCode": "48007",
        "municipality": "Bilbao",
        "county": "Bizkaia",
        "municipalityId": "020",
        "countyId": "48"
      },
      "economicActivities": [
        {
          "id": "1.843.2",
          "name": "Servicios técnicos de arquitectura y urbanismo",
          "_links": {
            "self": {
              "name": "Servicios técnicos de arquitectura y urbanismo",
              "href": "https://api.euskadi.eus/procurements/companies/economic-activities/1.843.2"
            }
          }
        }
      ],
      "certificateStartDate": "2025-10-09",
      "certificateEndDate": "2026-03-23",
      "object": "A) LA PRESTACIÓN DE SERVICIOS PROFESIONALES EN LOS CAMPOS DE LA ARQUITECTURA Y EL URBANISMO A CARGO DE LOS ARQUITECTOS SOCIOS, CON LA COLABORACIÓN, EN SU CASO, DE OTROS PROFESIONALES LEGALMENTE COMPETENTES. B) LAS ACTIVIDADES DE GESTIÓN, ASESORAMIENTO, COORDINACIÓN Y ADMINISTRACIÓN QUE GUARDEN RELACIÓN Y SEAN COMPATIBLES CON LA REALIZACIÓN DE LAS MISIONES PROFESIONALES ENCARGADAS. C) LA EXPLOTACIÓN DE DERECHOS DE PROPIEDAD INTELECTUAL O INDUSTRIAL DERIVADOS DE LA ACTIVIDAD DE LOS MIEMBROS DE LA ENTIDAD. D) ASÍ COMO EL DISEÑO Y PRODUCCIÓN DE OBJETOS DE USO MOBILIARIO, GRÁFICO E INFORMÁTICO. LA ACTIVIDAD PROPIA DE LOS PROFESIONALES DE LA ARQUITECTURA.",
      "mainEntityOfPage": "https://www.contratacion.euskadi.eus/webkpe00-kperoc/es/ac71aBusquedaRegistrosWar/empresa/08802",
      "_links": {
        "self": {
          "name": "MAAB ARQUITECTURA Y URBANISMO, S.L.",
          "href": "https://api.euskadi.eus/procurements/companies/08802"
        }
      }
    },
    {
      "name": "CUSTAR, S.L.",
      "registrationNumber": "06573",
      "identificationNumber": "B31310790",
      "address": "ALBERTO SCHOMMER 3 BAJO",
      "location": {
        "postalCode": "01006",
        "municipality": "Vitoria-Gasteiz",
        "county": "Araba/Álava",
        "municipalityId": "059",
        "countyId": "01"
      },
      "economicActivities": [
        {
          "id": "1.754.1",
          "name": "Depósitos y almacenes generales",
          "_links": {
            "self": {
              "name": "Depósitos y almacenes generales",
              "href": "https://api.euskadi.eus/procurements/companies/economic-activities/1.754.1"
            }
          }
        },
        {
          "id": "1.845",
          "name": "Explotación electrónica por cuenta de terceros",
          "_links": {
            "self": {
              "name": "Explotación electrónica por cuenta de terceros",
              "href": "https://api.euskadi.eus/procurements/companies/economic-activities/1.845"
            }
          }
        },
        {
          "id": "1.849.5",
          "name": "Servicios de recadería y reparto y manipulación de correspondencia",
          "_links": {
            "self": {
              "name": "Servicios de recadería y reparto y manipulación de correspondencia",
              "href": "https://api.euskadi.eus/procurements/companies/economic-activities/1.849.5"
            }
          }
        },
        {
          "id": "1.861.2",
          "name": "Alquiler de locales industriales y otros alquileres n.c.o.p",
          "_links": {
            "self": {
              "name": "Alquiler de locales industriales y otros alquileres n.c.o.p",
              "href": "https://api.euskadi.eus/procurements/companies/economic-activities/1.861.2"
            }
          }
        },
        {
          "id": "1.966.1",
          "name": "Bibliotecas y museos",
          "_links": {
            "self": {
              "name": "Bibliotecas y museos",
              "href": "https://api.euskadi.eus/procurements/companies/economic-activities/1.966.1"
            }
          }
        }
      ],
      "certificateStartDate": "2025-10-08",
      "certificateEndDate": "2026-04-07",
      "object": "A) EL ARCHIVO, TRATAMIENTO, TRANSPORTE Y DEPÓSITO DE TODA CLASE DE DOCUMENTACIÓN.L B) LA GESTIÓN INTEGRAL DE ALMACENES. C) EL ASESORAMIENTO A EMPRESAS PARTICULARES, ORGANISMOS E INSTITUCIONES EN TODAS LAS MATERIAS RELATIVAS AL ARCHIVO DE DOCUMENTACIÓN",
      "mainEntityOfPage": "https://www.contratacion.euskadi.eus/webkpe00-kperoc/es/ac71aBusquedaRegistrosWar/empresa/06573",
      "_links": {
        "self": {
          "name": "CUSTAR, S.L.",
          "href": "https://api.euskadi.eus/procurements/companies/06573"
        }
      }
    },
    {
      "name": "MBN ASOCIADOS, S.L.",
      "registrationNumber": "03100",
      "identificationNumber": "B48457428",
      "address": "C/ SAN VICENTE, 8. EDIFICIO ALBIA I.- 6º",
      "location": {
        "postalCode": "48001",
        "municipality": "Bilbao",
        "county": "Bizkaia",
        "municipalityId": "020",
        "countyId": "48"
      },
      "economicActivities": [
        {
          "id": "1.847",
          "name": "Servicios de consultoría",
          "_links": {
            "self": {
              "name": "Servicios de consultoría",
              "href": "https://api.euskadi.eus/procurements/companies/economic-activities/1.847"
            }
          }
        }
      ],
      "certificateStartDate": "2025-10-08",
      "certificateEndDate": "2026-04-08",
      "object": "A) LA GESTIÓN DE EMPRESAS, TANTO DE NUEVA CREACIÓN COMO LAS YA EXISTENTES Y TANTO INDUSTRIALES COMO AGRÍCOLAS, COMERCIALES O DE SERVICIOS, ASÍ COMO LA PARTICIPACIÓN EN LAS MISMAS, BIEN CON TENENCIA DE ACCIONES O PARTICIPACIONES O CON PRESENCIA ACTIVA EN SUS ORGANOS DIRECTIVOS O DE GOBIERNO. TODAS ESTAS ACTIVIDADES PODRÁN REALIZARSE EN NOMBRE DE LA SOCIEDAD O EN NOMBRE PROPIO DE CADA UNO DE LOS PARTÍCIPES O POR CUENTA DE TERCERAS PERSONAS, TANTO FÍSICAS COMO JURÍDICAS, QUE DEMANDEN TALES OPERACIONES; B) LA CONSTITUCIÓN DE TODO TIPO DE SOCIEDADES, TANTO MERCANTILES COMO CIVILES, ASÍ COMO LAS FUNDACIONES DE DERECHO PRIVADO Y LA PARTICIPACIÓN EN LAS YA FUNDADAS, CUALQUIERA QUE SEA EL OBJETO SOCIAL Y LA FINALIDAD DE LAS MISMAS; C) EL ESTUDIO Y ASESORAMIENTO DE TODO TIPO DE NEGOCIOS, EMPRESAS Y OPERACIONES MERCANTILES, TANTO DEL SECTOR INDUSTRIAL COMO AGRÍCOLA, COMERCIALES O DE SERVICIOS; D) LA REALIZACIÓN DE ACTIVIDADES DE GESTIÓN Y ASESORAMIENTO DE EMPRESAS EN LAS ÁREAS DE RECURSOS HUMANOS, ECONÓMICO-FINANCIERAS, IMAGEN Y COMUNICACIÓN, MARKETING, INFORMACIÓN BURSÁTIL, PROGRAMAS DE PRODUCCIÓN, TECNOLÓGICOS Y ORGANIZATIVOS, SEAN TANTO PERSONAS FÍSICAS O JURÍDICAS; E) LA ADQUISICIÓN, PROMOCIÓN Y GESTIÓN DE TODO TIPO DE OPERACIONES INMOBILIARIAS Y URBANÍSTICAS Y EL ASESORAMIENTO DE LAS MISMAS; F) LA ADQUISICIÓN, ENAJENACIÓN, ADMINISTRACIÓN DE TODO TIPO DE VALORES MOBILIARIOS E INMOBILIARIOS, CRÉDITOS Y CUALESQUIERA DERECHOS, PREVIO CUMPLIMIENTO DE LA NORMATIVA VIGENTE.  EN NINGÚN CASO SE PODRÁN REALIZAR ACTOS QUE INCIDAN EN OPERACIONES O ACTIVIDADES LEGALMENTE ATRIBUIDAS, DE FORMA EXCLUSIVA, A LA BANCA O A OTRAS ENTIDADES, O EN AQUELLAS OPERACIONES QUE SE RIJAN POR LEYES ESPECIALES. LAS ACTIVIDADES ENUMERADAS PODRÁN SER TAMBIÉN DESARROLLADAS POR LA SOCIEDAD, TOTAL O PARCIALMENTE, DE MODO INDIRECTO, MEDIANTE LA PARTICIPACIÓN EN OTRAS SOCIEDADES CON OBJETO ANÁLOGO",
      "mainEntityOfPage": "https://www.contratacion.euskadi.eus/webkpe00-kperoc/es/ac71aBusquedaRegistrosWar/empresa/03100",
      "_links": {
        "self": {
          "name": "MBN ASOCIADOS, S.L.",
          "href": "https://api.euskadi.eus/procurements/companies/03100"
        }
      }
    },
    {
      "name": "MUSIKLAN PRODUCCIONES Y EVENTOS, S.L.",
      "registrationNumber": "09611",
      "identificationNumber": "B56592900",
      "address": "AVENIDA ANTONIO ALZAGA, 31 - 7º B",
      "location": {
        "postalCode": "48980",
        "municipality": "Santurtzi",
        "county": "Bizkaia",
        "municipalityId": "082",
        "countyId": "48"
      },
      "economicActivities": [
        {
          "id": "1.965.4",
          "name": "Empresas de espectáculos",
          "_links": {
            "self": {
              "name": "Empresas de espectáculos",
              "href": "https://api.euskadi.eus/procurements/companies/economic-activities/1.965.4"
            }
          }
        }
      ],
      "certificateStartDate": "2025-10-08",
      "certificateEndDate": "2026-04-08",
      "object": "1.- LA PRESTACIÓN DE SERVICIOS CULTURALES TALES COMO: LA GESTIÓN INTEGRAL DE ESPECTÁCULOS, QUE INCLUYE SU PRODUCCIÓN, REGIDURÍA, ALQUILER Y CESIÓN DEL MATERIAL NECESARIO PARA SU REALIZACIÓN Y DIFUSIÓN, INCLUSO ILUMINACIÓN Y SONIDO. LOS PORTES Y TRANSPORTES DE PERSONAS, INFRAESTRUCTURAS, ATREZZO Y EQUIPOS PARA TODO TIPO DE ESPECTÁCULOS. 2.- PROMOCIÓN, ASESORAMIENTO, MEDIACIÓN Y CONTRATACIÓN DE ARTISTAS. 3.- VENTA, ALQUILER Y MONTAJE DE PANTALLAS LED Y MATERIAL INFORMÁTICO PARA PUBLICIDAD Y EVENTOS. 4.- ALQUILER, VENTA, CONSTRUCCIÓN Y MONTAJE, PROGRAMACIÓN Y ASESORAMIENTO, DIRECCIÓN DE INSTALACIONES DE RECREO TANTO INFANTILES COMO PARA ADULTOS, BIEN COMPLETAS BIEN DE CUALQUIERA DE LAS MAQUINARIAS, HERRAMIENTAS, CARPAS, TOLDOS, ESCENARIOS, TARIMAS, BARANDILLAS Y MOBILIARIO PROPIO DE LAS MISMAS. 5.- DISEÑO, MONTAJE Y CONSTRUCCIÓN DE CONSTRUCCIONES EFÍMERAS, STANDS Y SIMILARES. 6.- CONTROL, ELABORACIÓN Y EJECUCIÓN INTEGRAL DE CAMPAÑAS PUBLICITARIAS, Y PROGRAMACIONES, EVENTOS, FERIAS Y CONGRESOS, COMPETICIONES DEPORTIVAS Y ACTIVIDADES DE OCIO. 7.- GESTIÓN, ALQUILER, COMPRAVENTA DE INMUEBLES INCLUSO SU PROMOCIÓN Y CONSTRUCCIÓN. 8.- ADQUISICIÓN, TENENCIA, COMPRAVENTA, ALQUILER Y EXPLOTACIÓN DE VEHÍCULOS A MOTOR, REPARACIÓN Y TALLERES MECÁNICOS. 9.- TRANSPORTE DE MERCANCÍAS.",
      "mainEntityOfPage": "https://www.contratacion.euskadi.eus/webkpe00-kperoc/es/ac71aBusquedaRegistrosWar/empresa/09611",
      "_links": {
        "self": {
          "name": "MUSIKLAN PRODUCCIONES Y EVENTOS, S.L.",
          "href": "https://api.euskadi.eus/procurements/companies/09611"
        }
      }
    },
    {
      "name": "INSTALACIONES COMERCIALES MIGUEL URANGA, S.L.",
      "registrationNumber": "10148",
      "identificationNumber": "B01656412",
      "address": "ZIKUÑAGA BAILARA Nº 27",
      "location": {
        "postalCode": "20120",
        "municipality": "Hernani",
        "county": "Gipuzkoa",
        "municipalityId": "040",
        "countyId": "20"
      },
      "economicActivities": [
        {
          "id": "1.654.5",
          "name": "Venta al por menor de toda clase de maquinaría",
          "_links": {
            "self": {
              "name": "Venta al por menor de toda clase de maquinaría",
              "href": "https://api.euskadi.eus/procurements/companies/economic-activities/1.654.5"
            }
          }
        },
        {
          "id": "1.692",
          "name": "Reparación de maquinaria industrial",
          "_links": {
            "self": {
              "name": "Reparación de maquinaria industrial",
              "href": "https://api.euskadi.eus/procurements/companies/economic-activities/1.692"
            }
          }
        }
      ],
      "certificateStartDate": "2025-10-08",
      "certificateEndDate": "2026-04-08",
      "object": "LA VENTA AL POR MENOR DE MUEBLES METÁLICOS, VENTA AL POR MENOR DE MAQUINARIA, EJECUCIÓN DE OBRAS DE DECORACIÓN, Y CUALESQUIERA OTRAS ACTIVIDADES ANTECEDENTES O COMPLEMENTARIAS A LA PRINCIPAL.",
      "mainEntityOfPage": "https://www.contratacion.euskadi.eus/webkpe00-kperoc/es/ac71aBusquedaRegistrosWar/empresa/10148",
      "_links": {
        "self": {
          "name": "INSTALACIONES COMERCIALES MIGUEL URANGA, S.L.",
          "href": "https://api.euskadi.eus/procurements/companies/10148"
        }
      }
    },
    {
      "name": "TELEFONIA EMPRESARIAL, S.L.",
      "registrationNumber": "05035",
      "identificationNumber": "B20474391",
      "address": "Duque de Mandas nº 15-bajo",
      "location": {
        "postalCode": "20012",
        "municipality": "Donostia / San Sebastián",
        "county": "Gipuzkoa",
        "municipalityId": "069",
        "countyId": "20"
      },
      "economicActivities": [
        {
          "id": "1.504.7",
          "name": "Instalaciones telefónicas, telegráficas, televisión, etc",
          "_links": {
            "self": {
              "name": "Instalaciones telefónicas, telegráficas, televisión, etc",
              "href": "https://api.euskadi.eus/procurements/companies/economic-activities/1.504.7"
            }
          }
        }
      ],
      "certificateStartDate": "2025-10-08",
      "certificateEndDate": "2026-04-08",
      "object": "EL COMERCIO AL POR MENOR DE APARATOS ELÉCTRICOS, ELECTRÓNICOS Y APARATOS DE USO DOMÉSTICO, ASÍ COMO LA EXPORTACIÓN E IMPORTACIÓN DE LOS MISMOS",
      "mainEntityOfPage": "https://www.contratacion.euskadi.eus/webkpe00-kperoc/es/ac71aBusquedaRegistrosWar/empresa/05035",
      "_links": {
        "self": {
          "name": "TELEFONIA EMPRESARIAL, S.L.",
          "href": "https://api.euskadi.eus/procurements/companies/05035"
        }
      }
    }
  ]
}