{
  "totalItems": 9042,
  "totalPages": 905,
  "currentPage": 876,
  "itemsOfPage": 10,
  "items": [
    {
      "name": "AUTOCARES IZASKUN, S.L.",
      "registrationNumber": "05019",
      "identificationNumber": "B20622155",
      "address": "POLÍGONO BALASTAIN-MATXINEA, 5D",
      "location": {
        "postalCode": "20140",
        "municipality": "Andoain",
        "county": "Gipuzkoa",
        "municipalityId": "009",
        "countyId": "20"
      },
      "object": "-TRANSPORTE DE VIAJEROS POR CARRETERA",
      "mainEntityOfPage": "https://www.contratacion.euskadi.eus/webkpe00-kperoc/es/ac71aBusquedaRegistrosWar/empresa/05019",
      "_links": {
        "self": {
          "name": "AUTOCARES IZASKUN, S.L.",
          "href": "https://api.euskadi.eus/procurements/companies/05019"
        }
      }
    },
    {
      "name": "BILBAO EDITORIAL PRODUCCIONES, S.L.U.",
      "registrationNumber": "05021",
      "identificationNumber": "B48413504",
      "address": "POLÍGONO INDUSTRIAL TORRELARRAGOITI P6-B1",
      "location": {
        "postalCode": "48170",
        "municipality": "Zamudio",
        "county": "Bizkaia",
        "municipalityId": "905",
        "countyId": "48"
      },
      "object": "-",
      "mainEntityOfPage": "https://www.contratacion.euskadi.eus/webkpe00-kperoc/es/ac71aBusquedaRegistrosWar/empresa/05021",
      "_links": {
        "self": {
          "name": "BILBAO EDITORIAL PRODUCCIONES, S.L.U.",
          "href": "https://api.euskadi.eus/procurements/companies/05021"
        }
      }
    },
    {
      "name": "BROOKS, DISEÑO, PUBLICIDAD, ARQUITECTURA, INGENIERÍA, S.L.",
      "registrationNumber": "05033",
      "identificationNumber": "B95077251",
      "address": "DR. LUIS BILBAO LÍBANO, 3 - ENTREPLANTA D",
      "location": {
        "postalCode": "48940",
        "municipality": "Leioa",
        "county": "Bizkaia",
        "municipalityId": "054",
        "countyId": "48"
      },
      "object": "Publicidad, y organizacion de ferias y congresos",
      "mainEntityOfPage": "https://www.contratacion.euskadi.eus/webkpe00-kperoc/es/ac71aBusquedaRegistrosWar/empresa/05033",
      "_links": {
        "self": {
          "name": "BROOKS, DISEÑO, PUBLICIDAD, ARQUITECTURA, INGENIERÍA, S.L.",
          "href": "https://api.euskadi.eus/procurements/companies/05033"
        }
      }
    },
    {
      "name": "ELEKTRIKARI LANAK BERISTAIN, S.L.",
      "registrationNumber": "05050",
      "identificationNumber": "B20692489",
      "address": "Pol. Ind. Belartza, Gurutegi kalea, 13-17, Nave D2 y B3.",
      "location": {
        "postalCode": "20018",
        "municipality": "Donostia / San Sebastián",
        "county": "Gipuzkoa",
        "municipalityId": "069",
        "countyId": "20"
      },
      "object": "-",
      "mainEntityOfPage": "https://www.contratacion.euskadi.eus/webkpe00-kperoc/es/ac71aBusquedaRegistrosWar/empresa/05050",
      "_links": {
        "self": {
          "name": "ELEKTRIKARI LANAK BERISTAIN, S.L.",
          "href": "https://api.euskadi.eus/procurements/companies/05050"
        }
      }
    },
    {
      "name": "ARBELEC CUADROS, INSTALACIONES ELÉCTRICAS E INGENIERÍA, S.L.U.",
      "registrationNumber": "05052",
      "identificationNumber": "B95698858",
      "address": "TORRETXU BIDEA, 7",
      "location": {
        "postalCode": "48150",
        "municipality": "Sondika",
        "county": "Bizkaia",
        "municipalityId": "904",
        "countyId": "48"
      },
      "object": ".",
      "mainEntityOfPage": "https://www.contratacion.euskadi.eus/webkpe00-kperoc/es/ac71aBusquedaRegistrosWar/empresa/05052",
      "_links": {
        "self": {
          "name": "ARBELEC CUADROS, INSTALACIONES ELÉCTRICAS E INGENIERÍA, S.L.U.",
          "href": "https://api.euskadi.eus/procurements/companies/05052"
        }
      }
    },
    {
      "name": "REHABILITACION Y COORDINACION SLU",
      "registrationNumber": "05060",
      "identificationNumber": "B01455971",
      "address": "Paseo Salvador de Azpiazu (01008) 11",
      "location": {
        "postalCode": "01008",
        "municipality": "Vitoria-Gasteiz",
        "county": "Araba/Álava",
        "municipalityId": "059",
        "countyId": "01"
      },
      "object": "CONSTRUCCIÓN, REHABILITACIÓN, REFORMA, MANTENIMIENTO Y CONSERVACIÓN DE TODA CLASE DE EDIFICIOS Y ESTRUCTURAS.",
      "mainEntityOfPage": "https://www.contratacion.euskadi.eus/webkpe00-kperoc/es/ac71aBusquedaRegistrosWar/empresa/05060",
      "_links": {
        "self": {
          "name": "REHABILITACION Y COORDINACION SLU",
          "href": "https://api.euskadi.eus/procurements/companies/05060"
        }
      }
    },
    {
      "name": "GOIZ IKUZTEGIA, S.L.",
      "registrationNumber": "05096",
      "identificationNumber": "B20497285",
      "address": "Pol. Ind. Argixao, Nave 46 Industrialdeak",
      "location": {
        "postalCode": "20700",
        "municipality": "Zumarraga",
        "county": "Gipuzkoa",
        "municipalityId": "080",
        "countyId": "20"
      },
      "object": ".",
      "mainEntityOfPage": "https://www.contratacion.euskadi.eus/webkpe00-kperoc/es/ac71aBusquedaRegistrosWar/empresa/05096",
      "_links": {
        "self": {
          "name": "GOIZ IKUZTEGIA, S.L.",
          "href": "https://api.euskadi.eus/procurements/companies/05096"
        }
      }
    },
    {
      "name": "SERLIMAZA, S.L.",
      "registrationNumber": "05103",
      "identificationNumber": "B75052357",
      "address": "Camino Pillotegi, 12 Ofic. F14",
      "location": {
        "postalCode": "20018",
        "municipality": "Donostia / San Sebastián",
        "county": "Gipuzkoa",
        "municipalityId": "069",
        "countyId": "20"
      },
      "object": "Servicios de limpieza de oficinas. comunidades, prestación de servicios de azafatas, guias turisticas,  todo tipo de servicios auxiliares prestados a particuales y empresas ",
      "mainEntityOfPage": "https://www.contratacion.euskadi.eus/webkpe00-kperoc/es/ac71aBusquedaRegistrosWar/empresa/05103",
      "_links": {
        "self": {
          "name": "SERLIMAZA, S.L.",
          "href": "https://api.euskadi.eus/procurements/companies/05103"
        }
      }
    },
    {
      "name": "INSTALACIONES ELECTRICAS INDAR, S.L.U.",
      "registrationNumber": "05113",
      "identificationNumber": "B95442323",
      "address": "POL.INDUSTRIAL BILDOSOLA PAB. E- 3/4",
      "location": {
        "postalCode": "48142",
        "municipality": "Artea",
        "county": "Bizkaia",
        "municipalityId": "023",
        "countyId": "48"
      },
      "object": ".",
      "mainEntityOfPage": "https://www.contratacion.euskadi.eus/webkpe00-kperoc/es/ac71aBusquedaRegistrosWar/empresa/05113",
      "_links": {
        "self": {
          "name": "INSTALACIONES ELECTRICAS INDAR, S.L.U.",
          "href": "https://api.euskadi.eus/procurements/companies/05113"
        }
      }
    },
    {
      "name": "VUDUMEDIA, S.L.",
      "registrationNumber": "05120",
      "identificationNumber": "B95151916",
      "address": "Iruña 1 Bis 4ª Pta. Dpto. 8",
      "location": {
        "postalCode": "48014",
        "municipality": "Bilbao",
        "county": "Bizkaia",
        "municipalityId": "020",
        "countyId": "48"
      },
      "object": ".",
      "mainEntityOfPage": "https://www.contratacion.euskadi.eus/webkpe00-kperoc/es/ac71aBusquedaRegistrosWar/empresa/05120",
      "_links": {
        "self": {
          "name": "VUDUMEDIA, S.L.",
          "href": "https://api.euskadi.eus/procurements/companies/05120"
        }
      }
    }
  ]
}