{
  "totalItems": 9042,
  "totalPages": 905,
  "currentPage": 352,
  "itemsOfPage": 10,
  "items": [
    {
      "name": "ATLAS MONTAJES WORLD WIDE ASSEMBLING, S.L.",
      "registrationNumber": "10219",
      "identificationNumber": "B95980918",
      "address": "Calle Txakursolo (48992) 5A BAJO EXT",
      "location": {
        "postalCode": "48992",
        "municipality": "Getxo",
        "county": "Bizkaia",
        "municipalityId": "044",
        "countyId": "48"
      },
      "economicActivities": [
        {
          "id": "1.314.1",
          "name": "Carpintería metálica",
          "_links": {
            "self": {
              "name": "Carpintería metálica",
              "href": "https://api.euskadi.eus/procurements/companies/economic-activities/1.314.1"
            }
          }
        }
      ],
      "certificateStartDate": "2025-06-03",
      "certificateEndDate": "2025-11-26",
      "object": "A) FABRICACIÓN DE ESTRUCTURAS METÁLICAS Y SUS COMPONENTES. B) FABRICACIÓN DE CARPINTERÍA METÁLICA. C) INSTALACIONES ELÉCTRICAS, DE FONTANERÍA Y OTRAS INSTALACIONES EN OBRAS DE CONSTRUCCIÓN. D) PINTURA Y ACRISTALAMIENTO. E) INSTALACIONES DE CARPINTERÍA. F) LIMPIEZA GENERAL DE EDIFICIOS.",
      "mainEntityOfPage": "https://www.contratacion.euskadi.eus/webkpe00-kperoc/es/ac71aBusquedaRegistrosWar/empresa/10219",
      "_links": {
        "self": {
          "name": "ATLAS MONTAJES WORLD WIDE ASSEMBLING, S.L.",
          "href": "https://api.euskadi.eus/procurements/companies/10219"
        }
      }
    },
    {
      "name": "CARPINTERIA EL PUERTO, S.L.",
      "registrationNumber": "09165",
      "identificationNumber": "B48149975",
      "address": "c/ Aldape s/n",
      "location": {
        "postalCode": "48300",
        "municipality": "Gernika-Lumo",
        "county": "Bizkaia",
        "municipalityId": "046",
        "countyId": "48"
      },
      "economicActivities": [
        {
          "id": "1.463",
          "name": "Fabricación en serie de piezas de carpintería y parquet",
          "_links": {
            "self": {
              "name": "Fabricación en serie de piezas de carpintería y parquet",
              "href": "https://api.euskadi.eus/procurements/companies/economic-activities/1.463"
            }
          }
        },
        {
          "id": "1.501.1",
          "name": "Construcción completa, reparación y conservación de edificaciones",
          "_links": {
            "self": {
              "name": "Construcción completa, reparación y conservación de edificaciones",
              "href": "https://api.euskadi.eus/procurements/companies/economic-activities/1.501.1"
            }
          }
        }
      ],
      "certificateStartDate": "2025-06-02",
      "certificateEndDate": "2025-12-02",
      "object": "LA CARPINTERÍA EN GENERAL Y CUALQUIER OTRA ACTIVIDAD RELACIONADA CON LO INDICADO. LA REALIZACIÓN DE TODO TIPO DE TRABAJOS DE ALBAÑILERÍA, FONTANERÍA, PINTURA, GAS, CALEFACCIÓN, JARDINERÍA, ETC. LA PROMOCIÓN, CONSTRUCCIÓN, REMODELACIÓN, REFORMA Y VENTA DE VIVIENDAS, LOCALES COMERCIALES, CASERÍOS, PABELLONES Y CUALQUIER OTRA EDIFICACIÓN. LA REALIZACIÓN DE MANERA INTEGRAL DE LABORES DE GESTIÓN, PREPARACIÓN, EJECUCIÓN, CONSERVACIÓN, CONSTRUCCIÓN Y REPARACIÓN DE TODO TIPO DE OBRAS CIVILES Y DE EDIFICACIONES, ASÍ COMO SUS INSTALACIONES ANEJAS, INCLUYENDO LA ELABORACIÓN, DESARROLLO, ASÍ COMO TODAS LAS ATRIBUCIONES DIRECTIVAS TÉCNICAS DE PROYECTOS, ESTUDIOS, LICENCIAS, CERTIFICADOS, INFORMES, ETC, LABORES TODAS ELLAS REALIZADAS POR PERSONAL DEBIDAMENTE CUALIFICADO PROFESIONALMENTE PARA ELLO Y SU ENAJENACIÓN ÍNTEGRA O PARCIALMENTE O EN RÉGIMEN DE PROPIEDAD HORIZONTAL. LA ADQUISICIÓN, TENENCIA, EXPLOTACIÓN Y ENAJENACIÓN DE TODA CLASE DE BIENES INMUEBLES, TALES COMO VIVIENDAS, LOCALES COMERCIALES, PABELLONES INDUSTRIALES O TERRENOS, TANTO RÚSTICOS COMO URBANOS, SU PLANTACIÓN, CULTIVO, URBANIZACIÓN O PARCELACIÓN; LA CONSTRUCCIÓN DE EDIFICIOS DE TODAS CLASES; EL USO, ARRENDAMIENTO, VENTA O TRANSMISIÓN POR CUALQUIER OTRO TÍTULO DE LOS EDIFICIOS, VIVIENDAS O LOCALES DE LOS MISMOS, O BIENES MUEBLES, COMO MAQUINARIA Y VEHÍCULOS.",
      "mainEntityOfPage": "https://www.contratacion.euskadi.eus/webkpe00-kperoc/es/ac71aBusquedaRegistrosWar/empresa/09165",
      "_links": {
        "self": {
          "name": "CARPINTERIA EL PUERTO, S.L.",
          "href": "https://api.euskadi.eus/procurements/companies/09165"
        }
      }
    },
    {
      "name": "CONTEMPORARY CONCEPT, S.L.",
      "registrationNumber": "10216",
      "identificationNumber": "B42893230",
      "address": "GOIKALE 12 BAJO B",
      "location": {
        "postalCode": "20160",
        "municipality": "Lasarte-Oria",
        "county": "Gipuzkoa",
        "municipalityId": "902",
        "countyId": "20"
      },
      "economicActivities": [
        {
          "id": "1.651.2",
          "name": "Venta al por menor de prendas de ropa para el vestido y tocado",
          "_links": {
            "self": {
              "name": "Venta al por menor de prendas de ropa para el vestido y tocado",
              "href": "https://api.euskadi.eus/procurements/companies/economic-activities/1.651.2"
            }
          }
        },
        {
          "id": "1.932.1",
          "name": "Enseñanza de formación y perfeccionamiento profesional no superior",
          "_links": {
            "self": {
              "name": "Enseñanza de formación y perfeccionamiento profesional no superior",
              "href": "https://api.euskadi.eus/procurements/companies/economic-activities/1.932.1"
            }
          }
        },
        {
          "id": "1.965.4",
          "name": "Empresas de espectáculos",
          "_links": {
            "self": {
              "name": "Empresas de espectáculos",
              "href": "https://api.euskadi.eus/procurements/companies/economic-activities/1.965.4"
            }
          }
        }
      ],
      "certificateStartDate": "2025-06-02",
      "certificateEndDate": "2025-12-02",
      "object": "PRODUCCIÓN DE ESPECTÁCULOS EN VIVO, ASÍ COMO LA COMUNICACIÓN, LA EXPLOTACIÓN DE HOSTELERA DE DICHOS EVENTOS Y LA VENTA DE PRODUCTOS RELACIONADOS (MERCHANDISING). TAMBIÉN LA GESTIÓN DE PROPIEDAD INTELECTUAL E INDUSTRIAL. SIENDO SU ACTIVIDAD PRINCIPAL.- (CNAE 9901).",
      "mainEntityOfPage": "https://www.contratacion.euskadi.eus/webkpe00-kperoc/es/ac71aBusquedaRegistrosWar/empresa/10216",
      "_links": {
        "self": {
          "name": "CONTEMPORARY CONCEPT, S.L.",
          "href": "https://api.euskadi.eus/procurements/companies/10216"
        }
      }
    },
    {
      "name": "POLLITO BILBO, S.L.",
      "registrationNumber": "07978",
      "identificationNumber": "B95880944",
      "address": "AVDA RIBERA Nº 1",
      "location": {
        "postalCode": "48903",
        "municipality": "Barakaldo",
        "county": "Bizkaia",
        "municipalityId": "013",
        "countyId": "48"
      },
      "economicActivities": [
        {
          "id": "1.671.5",
          "name": "Restaurante un tenedor",
          "_links": {
            "self": {
              "name": "Restaurante un tenedor",
              "href": "https://api.euskadi.eus/procurements/companies/economic-activities/1.671.5"
            }
          }
        },
        {
          "id": "1.673.2",
          "name": "Otros cafés y bares",
          "_links": {
            "self": {
              "name": "Otros cafés y bares",
              "href": "https://api.euskadi.eus/procurements/companies/economic-activities/1.673.2"
            }
          }
        }
      ],
      "certificateStartDate": "2025-06-01",
      "certificateEndDate": "2025-12-01",
      "object": "LA EXPLOTACIÓN Y DESARROLLO DE ACTIVIDADES CARACTERÍSTICAS DEL NEGOCIO DE HOSTELERÍA, COMO BARES, CAFETERÍAS, DISCOTECAS, DISCO-BARES, RESTAURANTES, HOTELES, LOCALES CONOCIDOS COMO BAR CATEGORÍA ESPECIAL, SALAS DE FIESTAS Y OTROS SIMILARES, EN LOCALES PROPIOS O AJENOS.",
      "mainEntityOfPage": "https://www.contratacion.euskadi.eus/webkpe00-kperoc/es/ac71aBusquedaRegistrosWar/empresa/07978",
      "_links": {
        "self": {
          "name": "POLLITO BILBO, S.L.",
          "href": "https://api.euskadi.eus/procurements/companies/07978"
        }
      }
    },
    {
      "name": "TEATRO PARAISO, S.A.",
      "registrationNumber": "07428",
      "identificationNumber": "A01230044",
      "address": "ABETXUKO PUEBLO 14",
      "location": {
        "postalCode": "01013",
        "municipality": "Vitoria-Gasteiz",
        "county": "Araba/Álava",
        "municipalityId": "059",
        "countyId": "01"
      },
      "economicActivities": [
        {
          "id": "1.965.4",
          "name": "Empresas de espectáculos",
          "_links": {
            "self": {
              "name": "Empresas de espectáculos",
              "href": "https://api.euskadi.eus/procurements/companies/economic-activities/1.965.4"
            }
          }
        }
      ],
      "certificateStartDate": "2025-05-30",
      "certificateEndDate": "2025-11-30",
      "object": "LA REALIZACIÓN DE ACTIVIDADES TEATRALES DIVERSAS, TALES COMO LA CREACIÓN, REPRESENTACIÓN Y CONTRATACIÓN DE ESPECTÁCULOS TEATRALES, LA GESTIÓN DE SALAS DE TEATRO PARA NIÑOS Y JÓVENES, ASÍ COMO LA DIRECCIÓN DE TALLERES DE EXPRESIÓN INFANTIL O LA REALIZACIÓN DE CURSOS DE FORMACIÓN",
      "mainEntityOfPage": "https://www.contratacion.euskadi.eus/webkpe00-kperoc/es/ac71aBusquedaRegistrosWar/empresa/07428",
      "_links": {
        "self": {
          "name": "TEATRO PARAISO, S.A.",
          "href": "https://api.euskadi.eus/procurements/companies/07428"
        }
      }
    },
    {
      "name": "MANDOIA GESTIÓN, S.L.",
      "registrationNumber": "05816",
      "identificationNumber": "B20788303",
      "address": "BLAS DE LEZO, 22 - 1º A",
      "location": {
        "postalCode": "20110",
        "municipality": "Pasaia",
        "county": "Gipuzkoa",
        "municipalityId": "064",
        "countyId": "20"
      },
      "economicActivities": [
        {
          "id": "1.843.9",
          "name": "Otros servicios técnicos n.c.o.p",
          "_links": {
            "self": {
              "name": "Otros servicios técnicos n.c.o.p",
              "href": "https://api.euskadi.eus/procurements/companies/economic-activities/1.843.9"
            }
          }
        },
        {
          "id": "1.849.3",
          "name": "Servicios de traducción y similares",
          "_links": {
            "self": {
              "name": "Servicios de traducción y similares",
              "href": "https://api.euskadi.eus/procurements/companies/economic-activities/1.849.3"
            }
          }
        },
        {
          "id": "1.861.2",
          "name": "Alquiler de locales industriales y otros alquileres n.c.o.p",
          "_links": {
            "self": {
              "name": "Alquiler de locales industriales y otros alquileres n.c.o.p",
              "href": "https://api.euskadi.eus/procurements/companies/economic-activities/1.861.2"
            }
          }
        }
      ],
      "certificateStartDate": "2025-05-30",
      "certificateEndDate": "2025-11-30",
      "object": "EL ASESORAMIENTO TÉCNICO EN LABORES DE GESTIÓN MUNICIPAL Y GESTIONES REALIZADAS CON EL MEDIO AMBIENTE, ASÍ COMO SERVICIOS DE TRADUCCIÓN Y SIMILARES",
      "mainEntityOfPage": "https://www.contratacion.euskadi.eus/webkpe00-kperoc/es/ac71aBusquedaRegistrosWar/empresa/05816",
      "_links": {
        "self": {
          "name": "MANDOIA GESTIÓN, S.L.",
          "href": "https://api.euskadi.eus/procurements/companies/05816"
        }
      }
    },
    {
      "name": "CONSTRUCCIONES Y PROYECTOS EGIN SL",
      "registrationNumber": "05329",
      "identificationNumber": "B95645784",
      "address": "KAREAGA GOIKOA, Nº 21",
      "location": {
        "postalCode": "48970",
        "municipality": "Basauri",
        "county": "Bizkaia",
        "municipalityId": "015",
        "countyId": "48"
      },
      "economicActivities": [
        {
          "id": "1.501.1",
          "name": "Construcción completa, reparación y conservación de edificaciones",
          "_links": {
            "self": {
              "name": "Construcción completa, reparación y conservación de edificaciones",
              "href": "https://api.euskadi.eus/procurements/companies/economic-activities/1.501.1"
            }
          }
        }
      ],
      "certificateStartDate": "2025-05-30",
      "certificateEndDate": "2025-11-29",
      "object": "1.- ADMINISTRACION, PROMOCION , CONSTRUCCION, COMPRA, VENTA, ARRENDAMIENTO Y EXPLOTACION EN CUALQUIER OTRA FORMA DE TODA CLASE DE EDIFICACIONES, SOLARES E INMUEBLES EN GENERAL, TANTO POR CUENTA PROPIA COMO AJENA. 2.- LA ADMINISTRACIÓN DE FINCAS Y COMUNIDADES, TANTO DE PROPIETARIOS COMO DE AUTOPROMOTORES ASÍ COMO LA PRESTACIÓN DE TODA CLASE DE SERVICIOS RELACIONADOS CON EL ÁMBITO INMOBILIARIO, ARQUITECTÓNICO, DE TÉCNICA DE LA CONSTRUCCIÓN E INGENIERÍA EN GENERAL, POR MEDIO DE LA FORMULACÓN, DESARROLLO Y PUESTA EN MARCHA DE ESTUDIOS, ACTUACIONES Y PROYECTOS. 3.- LA REALIZACIÓN Y EJECUCIÓN POR CUENTA PROPIA O AJENA DE TODA CLASE DE CONSTRUCCIONES, INSTALACIONES, REFORMAS, REHABILITACIONES Y DECORACIONES. LA SUPERVISION Y CONTROL DE OBRAS, ASÍ COMO LA COORDINACIÓN DE GREMIOS, EL ASESORAMIENTO Y LA ASISTENCIA TÉCNICA EN TODO CUANTO SE RELACIONE, DIRECTA O INDIRECTAMENTE, CON EL CAMPO DE LA CONSTRUCCIÓN DE EDIFICIOS Y DE LAS OBRAS PÚBLICAS O CIVILES. 4.- LA COMPRA, VENTA, IMPORTACIÓN, EXPORTACIÓN Y COMERCIALIZACIÓN EN GENERAL DE TODA CLASE DE MATERIALES DE LA CONSTRUCCIÓN Y/O COMPLEMENTARIOS Y/O DECORATIVOS, ASÍ COMO CUALESQUIERA INSTALACIONES, ELEMENTOS O SERVICIOS DE LA EDIFICACIONES. 5.- LA ADQUISICIÓN, CESIÓN, TENENCIA, DISTRUTE, ADMINISTRACIÓN, GESTIÓN Y NEGOCIACIÓN EN GENERAL DE VALORES MOBILIARIOS, INMUEBLES Y PARTICIPACIONES SOCIALES. 6.- LA CONSTITUCIÓN CON LA CONCURRENCIA DE OTRAS PERSONAS DE TODA CLASE DE SOCIEDADES MERCANTILES, LA PARTICIPACIÓN EN OTRAS CONSTITUÍDAS PUDIENDO OSTENTAR EN TODAS ELLAS CARGOS DE ADMINISTRACIÓN, DIRECCIÓN O CONTROL MEDIANTE LA OPORTUNA DELEGACIÓN EN PERSONA FÍSICA.",
      "mainEntityOfPage": "https://www.contratacion.euskadi.eus/webkpe00-kperoc/es/ac71aBusquedaRegistrosWar/empresa/05329",
      "_links": {
        "self": {
          "name": "CONSTRUCCIONES Y PROYECTOS EGIN SL",
          "href": "https://api.euskadi.eus/procurements/companies/05329"
        }
      }
    },
    {
      "name": "FUNDACIÓN ZUZENAK FUNDAZIOA",
      "registrationNumber": "07316",
      "identificationNumber": "G01390053",
      "address": "GABRIEL CELAYA, 15 BAJO",
      "location": {
        "postalCode": "01010",
        "municipality": "Vitoria-Gasteiz",
        "county": "Araba/Álava",
        "municipalityId": "059",
        "countyId": "01"
      },
      "economicActivities": [
        {
          "id": "1.952",
          "name": "Asistencia y servicios sociales en centros no residenciales",
          "_links": {
            "self": {
              "name": "Asistencia y servicios sociales en centros no residenciales",
              "href": "https://api.euskadi.eus/procurements/companies/economic-activities/1.952"
            }
          }
        }
      ],
      "certificateStartDate": "2025-05-30",
      "certificateEndDate": "2025-11-22",
      "object": "LA PROMOCIÓN O LA PRÁCTICA DE LA SIGUIENTES MODALIDADES DEPORTIVAS: -MODALIDAD PRINCIPAL: DEPORTE PARA MINUSVÁLIDOS. -OTRAS MODALIDADES DEPORTIVAS: BALONCESTO;TIRO OLÍMPICO; TIRO CON ARCO; TENIS DE MESA; DEPORTES DE INVIERNO; TENIS; ATLETISMO; GIMNASIA; NATACIÓN; CICLISMO; AJEDREZ; ESGRIMA; HÍPICA",
      "mainEntityOfPage": "https://www.contratacion.euskadi.eus/webkpe00-kperoc/es/ac71aBusquedaRegistrosWar/empresa/07316",
      "_links": {
        "self": {
          "name": "FUNDACIÓN ZUZENAK FUNDAZIOA",
          "href": "https://api.euskadi.eus/procurements/companies/07316"
        }
      }
    },
    {
      "name": "PREMIER MOTOR ARABA, S.L.",
      "registrationNumber": "09928",
      "identificationNumber": "B01342385",
      "address": "PORTAL DE GAMARRA nº 54",
      "location": {
        "postalCode": "01013",
        "municipality": "Vitoria-Gasteiz",
        "county": "Araba/Álava",
        "municipalityId": "059",
        "countyId": "01"
      },
      "economicActivities": [
        {
          "id": "1.654.1",
          "name": "Venta al por menor de vehículos terrestres",
          "_links": {
            "self": {
              "name": "Venta al por menor de vehículos terrestres",
              "href": "https://api.euskadi.eus/procurements/companies/economic-activities/1.654.1"
            }
          }
        },
        {
          "id": "1.854.1",
          "name": "Alquiler de automóviles sin conductor",
          "_links": {
            "self": {
              "name": "Alquiler de automóviles sin conductor",
              "href": "https://api.euskadi.eus/procurements/companies/economic-activities/1.854.1"
            }
          }
        }
      ],
      "certificateStartDate": "2025-05-30",
      "certificateEndDate": "2025-11-20",
      "object": "LA COMERCIALIZACIÓN DE VEHÍCULOS NUEVOS Y USADOS DE TODAS LAS CLASES, Y RECAMBIOS Y REPUESTOS Y ACCESORIOS PARA LOS MISMOS, INCLUSO EN RÉGIMEN DE EXCLUSIVA O COMO CONCESIONARIA AUTORIZADA DE MARCAS, PATENTES O NOMBRES COMERCIALES, ASÍ COMO SU REPARACIÓN. Y ALQUILER DE VEHÍCULOS SIN CONDUCTOR.",
      "mainEntityOfPage": "https://www.contratacion.euskadi.eus/webkpe00-kperoc/es/ac71aBusquedaRegistrosWar/empresa/09928",
      "_links": {
        "self": {
          "name": "PREMIER MOTOR ARABA, S.L.",
          "href": "https://api.euskadi.eus/procurements/companies/09928"
        }
      }
    },
    {
      "name": "ASOCIACIÓN SOCIOEDUCATIVA KIRIBIL SAREA",
      "registrationNumber": "06351",
      "identificationNumber": "G95511192",
      "address": "Calle Ronda s/n",
      "location": {
        "postalCode": "48005",
        "municipality": "Bilbao",
        "county": "Bizkaia",
        "municipalityId": "020",
        "countyId": "48"
      },
      "economicActivities": [
        {
          "id": "1.966.9",
          "name": "Otros servicios culturales n.c.o.p",
          "_links": {
            "self": {
              "name": "Otros servicios culturales n.c.o.p",
              "href": "https://api.euskadi.eus/procurements/companies/economic-activities/1.966.9"
            }
          }
        }
      ],
      "certificateStartDate": "2025-05-30",
      "certificateEndDate": "2025-11-29",
      "object": "1. ANALIZAR LAS NECESIDADES EXISTENTES EN LAS ESTRUCTURAS SOCIOEDUCATIVAS. 2. ORGANIZAR Y FACILITAR EL INTERCAMBIO Y LA COORDINACIÓN DE EXPERIENCIAS, FORMACIÓN E INFORMACIÓN ENTRE LAS ENTIDADES QUE COMPONEN LA ASOCIACIÓN, POTENCIANDO LA REFLEXIÓN COMÚN Y CREANDO VÍNCULOS DE UNIÓN ENTRE LAS DISTINTAS ENTIDADES MIEMBRO. 3. CONSOLIDAR Y FORTALECER EL TEJIDO SOCIAL PROMOVIENDO EL TRABAJO COOPERATIVO Y OPTIMIZANDO LOS RECURSOS EXISTENTES ENTRE LAS ORGANIZACIONES. 4. PRIORIZAR LA INTERVENCIÓN DE LAS ENTIDADES SOCIALES EN LA GESTIÓN DE PROYECTOS SOCIOEDUCATIVOS. 5. CONSEGUIR FINANCIACIÓN PARA LA ASOCIACIÓN. 6 PROMOVER LA CREACIÓN Y ORGANIZACIÓN DE NUEVAS ESTRUCTURAS. 7. REIVINDICAR Y DAR A CONOCER A LA OPINIÓN PÚBLICA LA IMPORTANCIA DEL TRABAJO DESARROLLADO POR LAS DIFERENTES ESTRUCTURAS SOCIOEDUCATIVAS, ESTABLECIENDO CAUCES DE DIÁLOGO Y PARTICIPACIÓN EN CUANTOS FOROS U ORGANISMOS TRABAJEN EN RELACIÓN CON LA ANIMACIÓN SOCIOCOMUNITARIA, CULTURAL Y DE EDUCACIÓN EN EL TIEMPO LIBRE. 8. TRABAJAR, DEFENDER Y FORTALECER LA IMPORTANCIA DE LA ANIMACIÓN SOCIOCOMUNITARIA Y CULTURAL Y LA EDUCACIÓN EN EL TIEMPO LIBRE COMO EJES TRANSVERSALES EN  EL FOMENTO DE  LA CONCIENCIA EN ÁMBITOS  COMO EL DESARROLLO SOSTENIBLE, IGUALDAD DE OPORTUNIDADES, PARTICIPACIÓN, INTEGRACIÓN SOCIAL, COOPERACIÓN, EDUCACIÓN EN VALORES, CULTURA, ETC. 9. SER INTERLOCUTOR Y COLABORAR EN EL CAMPO SOCIOEDUCATIVO ANTE LAS DISTINTAS ADMINISTRACIONES, AGENTES SOCIALES Y SOCIEDAD EN GENERAL PARA: A) TRANSMITIR LAS NECESIDADES Y DEMANDAS DETECTADAS. B) FOMENTAR EL DIÁLOGO Y ENCUENTRO. C) COLABORAR EN EL MARCO DE SUS RESPONSABILIDADES",
      "mainEntityOfPage": "https://www.contratacion.euskadi.eus/webkpe00-kperoc/es/ac71aBusquedaRegistrosWar/empresa/06351",
      "_links": {
        "self": {
          "name": "ASOCIACIÓN SOCIOEDUCATIVA KIRIBIL SAREA",
          "href": "https://api.euskadi.eus/procurements/companies/06351"
        }
      }
    }
  ]
}