{
  "totalItems": 9042,
  "totalPages": 905,
  "currentPage": 391,
  "itemsOfPage": 10,
  "items": [
    {
      "name": "TALLERES ARBULO, S.L.",
      "registrationNumber": "09258",
      "identificationNumber": "B01302165",
      "address": "HARROBI S/N PAB 57",
      "location": {
        "postalCode": "01013",
        "municipality": "Vitoria-Gasteiz",
        "county": "Araba/Álava",
        "municipalityId": "059",
        "countyId": "01"
      },
      "economicActivities": [
        {
          "id": "1.617.6",
          "name": "Venta al por mayor de maquinaria agrícola",
          "_links": {
            "self": {
              "name": "Venta al por mayor de maquinaria agrícola",
              "href": "https://api.euskadi.eus/procurements/companies/economic-activities/1.617.6"
            }
          }
        },
        {
          "id": "1.617.9",
          "name": "Venta al por mayor interindustrial de otros productos n.c.o.p",
          "_links": {
            "self": {
              "name": "Venta al por mayor interindustrial de otros productos n.c.o.p",
              "href": "https://api.euskadi.eus/procurements/companies/economic-activities/1.617.9"
            }
          }
        },
        {
          "id": "1.692",
          "name": "Reparación de maquinaria industrial",
          "_links": {
            "self": {
              "name": "Reparación de maquinaria industrial",
              "href": "https://api.euskadi.eus/procurements/companies/economic-activities/1.692"
            }
          }
        }
      ],
      "certificateStartDate": "2024-09-19",
      "certificateEndDate": "2025-03-19",
      "object": "LA DISTRIBUCIÓN, INTERMEDIACIÓN, COMPRAVENTA AL POR MAYOR Y AL POR MENOR, ALQUILER Y REPARACIÓN DE TODO TIPO DE MAQUINARIA INDUSTRIAL, VEHÍCULOS INDUSTRIALES, DE CONSTRUCCIÓN, TANTO PARA OBRA PÚBLICA COMO PRIVADA Y MAQUINARIA AGRÍCOLA, GANADERA Y DE JARDINERÍA, Y TODOS SUS POSIBLES ACCESORIOS, REPUESTOS, HERRAMIENTAS, ACEITES Y LUBRICANTES.",
      "mainEntityOfPage": "https://www.contratacion.euskadi.eus/webkpe00-kperoc/es/ac71aBusquedaRegistrosWar/empresa/09258",
      "_links": {
        "self": {
          "name": "TALLERES ARBULO, S.L.",
          "href": "https://api.euskadi.eus/procurements/companies/09258"
        }
      }
    },
    {
      "name": "INICIATIVAS INNOVADORAS, S.A.L.",
      "registrationNumber": "09804",
      "identificationNumber": "A31679806",
      "address": "calle Zabalgaina nº 3, 1º Oficinas 4 y 5",
      "location": {
        "postalCode": "31180",
        "municipality": "Zizur Mayor/Zizur Nagusia",
        "county": "Navarra",
        "municipalityId": "907",
        "countyId": "31"
      },
      "economicActivities": [
        {
          "id": "1.849.9",
          "name": "Otros servicios independientes n.c.o.p",
          "_links": {
            "self": {
              "name": "Otros servicios independientes n.c.o.p",
              "href": "https://api.euskadi.eus/procurements/companies/economic-activities/1.849.9"
            }
          }
        }
      ],
      "certificateStartDate": "2024-09-19",
      "certificateEndDate": "2025-03-19",
      "object": "- DISEÑO, DESARROLLO, GESTIÓN Y ASISTENCIA TÉCNICA DE PROYECTOS Y PROGRAMAS DE DESARROLLO LOCAL, FORMACIÓN, EMPLEO, INNOVACIÓN, DESARROLLO TECNOLÓGICO, SOCIEDAD DE LA INFORMACIÓN E I+D. Y LA REALIZACIÓN DE TODA CLASE DE ACTIVIDADES INMOBILIARIAS.",
      "mainEntityOfPage": "https://www.contratacion.euskadi.eus/webkpe00-kperoc/es/ac71aBusquedaRegistrosWar/empresa/09804",
      "_links": {
        "self": {
          "name": "INICIATIVAS INNOVADORAS, S.A.L.",
          "href": "https://api.euskadi.eus/procurements/companies/09804"
        }
      }
    },
    {
      "name": "AL BORDE FILMS S. COOP. PEQUEÑA DE INICIATIVA SOCIAL",
      "registrationNumber": "09799",
      "identificationNumber": "F95820007",
      "address": "GALIZIA 2, 7B",
      "location": {
        "postalCode": "48970",
        "municipality": "Basauri",
        "county": "Bizkaia",
        "municipalityId": "015",
        "countyId": "48"
      },
      "economicActivities": [
        {
          "id": "1.844",
          "name": "Servicios de publicidad, relaciones públicas y similares",
          "_links": {
            "self": {
              "name": "Servicios de publicidad, relaciones públicas y similares",
              "href": "https://api.euskadi.eus/procurements/companies/economic-activities/1.844"
            }
          }
        },
        {
          "id": "1.961.1",
          "name": "Producción de películas cinematográficas (incluso vídeos)",
          "_links": {
            "self": {
              "name": "Producción de películas cinematográficas (incluso vídeos)",
              "href": "https://api.euskadi.eus/procurements/companies/economic-activities/1.961.1"
            }
          }
        },
        {
          "id": "1.973.1",
          "name": "Servicios fotográficos",
          "_links": {
            "self": {
              "name": "Servicios fotográficos",
              "href": "https://api.euskadi.eus/procurements/companies/economic-activities/1.973.1"
            }
          }
        }
      ],
      "certificateStartDate": "2024-09-18",
      "certificateEndDate": "2025-03-12",
      "object": "CINE, COMUNICACIÓN Y CULTURA PARA LA REFLEXIÓN Y ACCIÓN SOCIAL: PRESTAR SERVICIOS ASISTENCIALES, MEDIANTE LA REALIZACIÓN DE ACTIVIDADES CULTURALES, PRINCIPALMENTE RELACIONADAS CON EL ÁMBITO CINEMATOGRÁFICO. APORTAR EN LA CONSTRUCCIÓN DE UNA ALTERNATIVA DE SOCIEDAD EQUITATIVA, SOSTENIBLE Y PARTICIPATIVA MEDIANTE EL DESARROLLO DE UNA MIRADA CRÍTICA A TRAVÉS DE MÚLTIPLES FORMAS DE REPRESENTACIÓN ARTÍSTICA. PRODUCIR E IMPULSAR RELATOS Y PATRONES DE COMUNICACIÓN QUE ACOJAN Y REFLEJEN INDIVIDUALIDADES INTERGENERACIONALES, MULTICULTURALES E INTER-SEXUALES. INVESTIGAR Y GENERAR NUEVAS FORMAS Y PRÁCTICAS CULTURALES DE CONCIENCIACIÓN Y ACCIÓN SOCIAL DESDE LA HORIZONTALIDAD, LAS HERRAMIENTAS DE SOFTWARE LIBRE, DINÁMICAS COLABORATIVAS Y PROCOMÚN, BASÁNDONOS EN UNA ECONOMÍA ALTERNATIVA Y SOLIDARIA. POTENCIAR EL TRABAJO EN RED Y EL ENTRAMADO DE LA SOCIEDAD CIVIL A TRAVÉS DE LA COORDINACIÓN CON OTRAS ORGANIZACIONES SIMILARES DESDE UNA ACTITUD PROACTIVA. PRODUCIR, PROMOVER Y DIFUNDIR LA CREACIÓN ARTÍSTICA INTERDISCIPLINAR Y/O EXPERIMENTAL IMPLICANDO UNA REFLEXIÓN SOBRE LAS NECESIDADES, CONFLICTOS Y EXPECTATIVAS DE LA SOCIEDAD CONTEMPORÁNEA Y LOS VALORES SOBRE LOS QUE SE SUSTENTA. PROMOVER, DIFUNDIR Y TRABAJAR LAS HERRAMIENTAS DE LA COMUNICACIÓN AUDIOVISUAL Y SU LENGUAJE EN DIFERENTES ENTORNOS Y CON MÚLTIPLES GRUPOS, COLECTIVOS, COMUNIDADES Y PERSONAS CREADORAS. IMPULSAR LA PARTICIPACIÓN DE MUJERES EN PROCESOS ARTÍSTICOS. ATENDER A LAS FORMAS DE COMUNICACIÓN EMERGENTES, INCLUYENDO LA INVESTIGACIÓN, DESARROLLO E INCORPORACIÓN DE NUEVAS TECNOLOGÍAS. PARA LA CONSECUCIÓN DE DICHOS FINES SE LLEVARÁN A CABO, PREVIO EL CUMPLIMIENTO DE LOS REQUISITOS LEGALES ESTABLECIDOS, LAS SIGUIENTES ACTIVIDADES: CREACIÓN AUDIOVISUAL: ABARCA DESDE LA ESCRITURA DEL GUION, LA PRE-PRODUCCIÓN, PRODUCCIÓN, POST-PRODUCCIÓN, DISTRIBUCIÓN Y EXHIBICIÓN AUDIOVISUAL TANTO EN EL ÁMBITO CINEMATOGRÁFICO ASÍ COMO EN TELEVISIÓN, INTERNET Y OTROS MEDIOS DE DIFUSIÓN QUE PUDIERAN SURGIR A POSTERIORI. LOS FORMATOS INCLUYEN TANTO FICCIÓN, COMO NO-FICCIÓN, DOCUMENTAL, VÍDEOS CORPORATIVOS, PROMOCIONALES Y PUBLICITARIOS. PRODUCCIÓN, DIFUSIÓN Y EXHIBICIÓN CULTURAL: MUESTRAS, EXPOSICIONES, CERTÁMENES Y FESTIVALES QUE INCLUYAN MÚSICA, CINE, ARTES ESCÉNICAS, FOTOGRAFÍA, ARTE URBANO, CHARLAS, DEBATES, FOROS, FORMACIONES Y/O ACCIONES PARTICIPATIVAS. COMUNICACIÓN: ELABORACIÓN DE PLANES Y CAMPAÑAS, SEGUIMIENTO DE MEDIOS Y REDES SOCIALES, POSICIONAMIENTO, DISEÑO GRÁFICO, DISEÑO WEB Y DESARROLLO DE APLICACIONES INFORMÁTICAS. INVESTIGACIÓN EN CIENCIAS SOCIALES: A TRAVÉS DE DIFERENTES MEDIOS Y GENERANDO HIPÓTESIS EN DIVERSOS SOPORTES. FORMACIÓN: CURSOS INTENSIVOS, ACOMPAÑAMIENTO EDUCATIVO A LARGO PLAZO, SESIONES DE APOYO Y ASESORAMIENTO A PERSONAS DE DIFERENTES EDADES Y A ENTIDADES DE DIVERSOS TIPOS. ACTIVIDADES DE PROMOCIÓN Y DIFUSIÓN DE LOS FINES Y LOS ÁMBITOS DE TRABAJO DE LA COOPERATIVA DE ACUERDO CON LOS PRINCIPIOS DE IGUALDAD, COOPERACIÓN, SOSTENIBILIDAD MEDIOAMBIENTAL Y DE COMPROMISO CON EL ENTORNO SOCIAL LOCAL. GESTIÓN DE PROYECTOS Y PROGRAMAS PÚBLICOS Y PRIVADOS DE INTERVENCIÓN SOCIAL, EDUCATIVA Y/O CULTURAL EN COLABORACIÓN CON OTRAS ORGANIZACIONES SOCIALES. APOYAR A PERSONAS CREADORAS Y SUSCITAR SU PROFESIONALIZACIÓN. ACTIVIDADES DE COLABORACIÓN CON OTRAS ENTIDADES U ORGANIZACIONES DE LA SOCIEDAD CIVIL TANTO A NIVEL LOCAL Y REGIONAL, COMO INTERNACIONAL. GENERAR ESPACIOS DE ENCUENTRO QUE IMPLIQUEN LA RELACIÓN ENTRE MUJERES PARA LA CREACIÓN CULTURAL.",
      "mainEntityOfPage": "https://www.contratacion.euskadi.eus/webkpe00-kperoc/es/ac71aBusquedaRegistrosWar/empresa/09799",
      "_links": {
        "self": {
          "name": "AL BORDE FILMS S. COOP. PEQUEÑA DE INICIATIVA SOCIAL",
          "href": "https://api.euskadi.eus/procurements/companies/09799"
        }
      }
    },
    {
      "name": "PAULA MARCET FORRADELLAS",
      "registrationNumber": "09014",
      "identificationNumber": "39445039Q",
      "address": "PLAZA ALVARO CUNQUEIRO 7",
      "location": {
        "postalCode": "08031",
        "municipality": "Barcelona",
        "county": "Barcelona",
        "municipalityId": "019",
        "countyId": "08"
      },
      "economicActivities": [
        {
          "id": "1.453",
          "name": "Confección en serie de toda clase de prendas de vestir",
          "_links": {
            "self": {
              "name": "Confección en serie de toda clase de prendas de vestir",
              "href": "https://api.euskadi.eus/procurements/companies/economic-activities/1.453"
            }
          }
        },
        {
          "id": "1.501.3",
          "name": "Albañilería y pequeños trabajos de construcción en general",
          "_links": {
            "self": {
              "name": "Albañilería y pequeños trabajos de construcción en general",
              "href": "https://api.euskadi.eus/procurements/companies/economic-activities/1.501.3"
            }
          }
        },
        {
          "id": "1.854.1",
          "name": "Alquiler de automóviles sin conductor",
          "_links": {
            "self": {
              "name": "Alquiler de automóviles sin conductor",
              "href": "https://api.euskadi.eus/procurements/companies/economic-activities/1.854.1"
            }
          }
        },
        {
          "id": "1.855.2",
          "name": "Alquiler de embarcaciones",
          "_links": {
            "self": {
              "name": "Alquiler de embarcaciones",
              "href": "https://api.euskadi.eus/procurements/companies/economic-activities/1.855.2"
            }
          }
        }
      ],
      "certificateStartDate": "2024-09-18",
      "certificateEndDate": "2025-03-18",
      "object": "CONFECCIÓN EN SERIE DE TODA CLASE DE PRENDAS DE VESTIR. ALBAÑILERÍA Y PEQUEÑOS TRABAJOS DE CONSTRUCCIÓN EN GENERAL. ALQUILER DE AUTOMÓVILES SIN CONDUCTOR. ALQUILER DE EMBARCACIONES. ",
      "mainEntityOfPage": "https://www.contratacion.euskadi.eus/webkpe00-kperoc/es/ac71aBusquedaRegistrosWar/empresa/09014",
      "_links": {
        "self": {
          "name": "PAULA MARCET FORRADELLAS",
          "href": "https://api.euskadi.eus/procurements/companies/09014"
        }
      }
    },
    {
      "name": "SIGNOS DE IDENTIDAD, S.L.",
      "registrationNumber": "01487",
      "identificationNumber": "B20466728",
      "address": "PORTUETXE 53B OFICINA 316",
      "location": {
        "postalCode": "20018",
        "municipality": "Donostia / San Sebastián",
        "county": "Gipuzkoa",
        "municipalityId": "069",
        "countyId": "20"
      },
      "economicActivities": [
        {
          "id": "1.844",
          "name": "Servicios de publicidad, relaciones públicas y similares",
          "_links": {
            "self": {
              "name": "Servicios de publicidad, relaciones públicas y similares",
              "href": "https://api.euskadi.eus/procurements/companies/economic-activities/1.844"
            }
          }
        }
      ],
      "certificateStartDate": "2024-09-18",
      "certificateEndDate": "2025-03-18",
      "object": "LA REALIZACIÓN DE ESTUDIOS EN MATERIA DE COMUNICACIÓN SOCIAL, ENTENDIÉNDOSE COMPRENDIDAS EN ESTA MATERIA LA PUBLICIDAD, RELACIONES PÚBLICAS, RELACIONES CON LOS MEDIOS DE COMUNICACIÓN, IDENTIDAD CORPORATIVA E INVESTIGACIÓN DE AUDIENCIAS. LA PRESTACIÓN DE SERVICIOS DE ASESORAMIENTO A INSTITUCIONES, EMPRESAS Y PARTICULARES, SOBRE LAS MATERIAS ANTERIORMENTE MENCIONADAS DE FORMA PUNTUAL O CONTINUADA. ASUMIR TAREAS DE REPRESENTACIÓN PÚBLICA Y SOCIAL DE LAS INSTITUCIONES, EMPRESAS Y PARTICULARES QUE EXPRESAMENTE LE FACULTEN PARA ELLO. LA PLANIFICACIÓN, DISEÑO Y EJECUCIÓN DE CAMPAÑAS PUBLICITARIAS Y PROMOCIONES COMERCIALES, TANTO EN LO QUE SE REFIERE A LA CREACIÓN Y PRODUCCIÓN DE SUS ELEMENTOS, COMO A LA COMPRA DE LOS ESPACIOS PUBLICITARIOS NECESARIOS PARA SU DIFUSIÓN. LA PLANIFICACIÓN, DISEÑO Y EJECUCIÓN DE EVENTOS DE CARÁCTER PÚBLICO, COMO REUNIONES, CONVENCIONES, JORNADAS, EXPOSICIONES Y MUESTRAS, Y CUALESQUIERA OTROS ACTOS PÚBLICOS QUE SE JUZGUEN NECESARIOS PARA GARANTIZAR LA PRESENCIA PÚBLICA DE SUS CLIENTES. DESARROLLAR ACTIVIDADES DE REPRESENTACIÓN ANTE LOS MEDIOS DE COMUNICACIÓN SOCIAL (PRENSA, RADIO Y TELEVISIÓN), HACIENDO USO DE LOS INSTRUMENTOS NECESARIOS PARA FACILITAR INFORMACIÓN ACERCA DE LAS INSTITUCIONES, EMPRESAS Y ENTIDADES QUE ASÍ LO ENCOMIENDEN. LA CREACIÓN Y COMERCIALIZACIÓN DE BASES DE DATOS DOCUMENTALES DIFUNDIDOS POR LOS MEDIOS DE COMUNICACIÓN, EN CUALQUIER PUBLICACIÓN O POR ENTIDADES PÚBLICAS O PRIVADAS, Y QUE RESULTEN DE INTERÉS PARA INSTITUCIONES, EMPRESAS Y PARTICULARES. DESARROLLO DE PROYECTOS DE IDENTIDAD CORPORATIVA PARA INSTITUCIONES Y EMPRESAS, MEDIANTE LA PRODUCCIÓN Y EDICIÓN DE LOS SIGUIENTES ELEMENTOS: MANUALES DE IDENTIDAD CORPORATIVA, PLANES DE SEÑALIZACIÓN, PROYECTOS DE PACKAGING Y MANUALES DE EDICIÓN. LA EJECUCIÓN Y DESARROLLO DE TAREAS DE DISEÑO GRÁFICO SOBRE CUALQUIER SOPORTE. EL DISEÑO, EDICIÓN Y PRODUCCIÓN DE PUBLICACIONES QUE SE CONSIDEREN ÚTILES PARA COMUNICAR EL SENTIDO, ACTIVIDAD Y OBJETIVOS DE LAS INSTITUCIONES, EMPRESAS Y PARTICULARES A LOS QUE SE REPRESENTE",
      "mainEntityOfPage": "https://www.contratacion.euskadi.eus/webkpe00-kperoc/es/ac71aBusquedaRegistrosWar/empresa/01487",
      "_links": {
        "self": {
          "name": "SIGNOS DE IDENTIDAD, S.L.",
          "href": "https://api.euskadi.eus/procurements/companies/01487"
        }
      }
    },
    {
      "name": "ZAUNK, S.L.",
      "registrationNumber": "03921",
      "identificationNumber": "B95435319",
      "address": "BARRIO AMATZA, 5",
      "location": {
        "postalCode": "48215",
        "municipality": "Iurreta",
        "county": "Bizkaia",
        "municipalityId": "910",
        "countyId": "48"
      },
      "economicActivities": [
        {
          "id": "1.422.1",
          "name": "Forrajes deshidratados melazados, etc. para alimentación animal",
          "_links": {
            "self": {
              "name": "Forrajes deshidratados melazados, etc. para alimentación animal",
              "href": "https://api.euskadi.eus/procurements/companies/economic-activities/1.422.1"
            }
          }
        },
        {
          "id": "1.933.9",
          "name": "Otras actividades de enseñanza tales como idiomas, mecanografía",
          "_links": {
            "self": {
              "name": "Otras actividades de enseñanza tales como idiomas, mecanografía",
              "href": "https://api.euskadi.eus/procurements/companies/economic-activities/1.933.9"
            }
          }
        },
        {
          "id": "1.979.4",
          "name": "Adiestramiento de animales y otros servicios de atención de animales",
          "_links": {
            "self": {
              "name": "Adiestramiento de animales y otros servicios de atención de animales",
              "href": "https://api.euskadi.eus/procurements/companies/economic-activities/1.979.4"
            }
          }
        }
      ],
      "certificateStartDate": "2024-09-18",
      "certificateEndDate": "2025-03-18",
      "object": "LA RECOGIDA, AMAESTRAMIENTO Y ACTIVIDADES DIRIGIDAS A LA ADOPCIÓN DE PERROS Y GATOS",
      "mainEntityOfPage": "https://www.contratacion.euskadi.eus/webkpe00-kperoc/es/ac71aBusquedaRegistrosWar/empresa/03921",
      "_links": {
        "self": {
          "name": "ZAUNK, S.L.",
          "href": "https://api.euskadi.eus/procurements/companies/03921"
        }
      }
    },
    {
      "name": "3DZ ABCISE S.L.",
      "registrationNumber": "07746",
      "identificationNumber": "B95933974",
      "address": "LAGA BIDEA 804, MOD 113",
      "location": {
        "postalCode": "48160",
        "municipality": "Bilbao",
        "county": "Bizkaia",
        "municipalityId": "020",
        "countyId": "48"
      },
      "economicActivities": [
        {
          "id": "1.659.2",
          "name": "Venta al por menor de muebles de oficina y máquinas y equipos de oficina",
          "_links": {
            "self": {
              "name": "Venta al por menor de muebles de oficina y máquinas y equipos de oficina",
              "href": "https://api.euskadi.eus/procurements/companies/economic-activities/1.659.2"
            }
          }
        },
        {
          "id": "1.845",
          "name": "Explotación electrónica por cuenta de terceros",
          "_links": {
            "self": {
              "name": "Explotación electrónica por cuenta de terceros",
              "href": "https://api.euskadi.eus/procurements/companies/economic-activities/1.845"
            }
          }
        }
      ],
      "certificateStartDate": "2024-09-18",
      "certificateEndDate": "2025-03-18",
      "object": "LA COMERCIALIZACIÓN DE MAQUINARIA Y EQUIPOS DE IMPRESIÓN 3D Y DE FABRICACIÓN ADITIVA, ESCÁNERES 3D, ASÍ COMO SUMINISTROS Y SERVICIOS ASOCIADOS. LA PRESTACIÓN DE SERVICIOS EN LOS ÁMBITOS DE CONSULTORÍA DE NEGOCIO Y DE GESTIÓN, CONSULTORÍA TECNOLÓGICA Y FORMACIÓN DESTINADOS A CUALQUIER CAMPO O SECTOR; LA ELABORACIÓN, INVESTIGACIÓN, DESARROLLO Y EJECUCIÓN DE TODA CLASE DE ESTUDIOS Y PROYECTOS, ASÍ COMO LA DIRECCIÓN, ASISTENCIA TÉCNICA, TRANSFERENCIA DE TECNOLOGÍA, COMERCIALIZACIÓN Y ADMINISTRACIÓN DE TALES ESTUDIOS, PROYECTOS Y ACTIVIDADES. EL COMERCIO AL POR MAYOR DE ORDENADORES, EQUIPOS PERIFÉRICOS Y PROGRAMAS INFORMÁTICOS EN ESTABLECIMIENTOS ESPECIALIZADOS. LA GESTIÓN Y ADMINISTRACIÓN DE TÍTULOS QUE REPRESENTEN EL CAPITAL DE ENTIDADES RESIDENTES Y/O NO RESIDENTES EN ESPAÑA. EL DISEÑO, DESARROLLO, PRODUCCIÓN, INTEGRACIÓN, OPERACIÓN, MANTENIMIENTO, REPARACIÓN Y COMERCIALIZACIÓN DE SISTEMAS RELACIONADOS CON LAS TECNOLOGÍAS DE LA INFORMACIÓN, TODO TIPO DE PLATAFORMAS TECNOLÓGICAS TALES COMO PÁGINAS WEB, APLICACIONES WEB, INFORMÁTICAS Y MÓVILES, BASES DE DATOS, ASÍ COMO DE CUALQUIER PARTE O COMPONENTES DE LOS MISMOS Y CUALQUIER TIPO DE SERVICIOS RELACIONADOS CON TODO ELLO.",
      "mainEntityOfPage": "https://www.contratacion.euskadi.eus/webkpe00-kperoc/es/ac71aBusquedaRegistrosWar/empresa/07746",
      "_links": {
        "self": {
          "name": "3DZ ABCISE S.L.",
          "href": "https://api.euskadi.eus/procurements/companies/07746"
        }
      }
    },
    {
      "name": "RECICLARTE 2007, S.L.",
      "registrationNumber": "09254",
      "identificationNumber": "B99183436",
      "address": "POLIGONO MALPICA, CALLE C, PARCELAS 5-7",
      "location": {
        "postalCode": "50016",
        "municipality": "Zaragoza",
        "county": "Zaragoza",
        "municipalityId": "297",
        "countyId": "50"
      },
      "economicActivities": [
        {
          "id": "1.621",
          "name": "Venta al por mayor de chatarra y metales de desecho férreos y no férreos",
          "_links": {
            "self": {
              "name": "Venta al por mayor de chatarra y metales de desecho férreos y no férreos",
              "href": "https://api.euskadi.eus/procurements/companies/economic-activities/1.621"
            }
          }
        },
        {
          "id": "1.622",
          "name": "Venta al por mayor de otros productos de recuperación",
          "_links": {
            "self": {
              "name": "Venta al por mayor de otros productos de recuperación",
              "href": "https://api.euskadi.eus/procurements/companies/economic-activities/1.622"
            }
          }
        }
      ],
      "certificateStartDate": "2024-09-18",
      "certificateEndDate": "2025-03-18",
      "object": "A) EL TRANSPORTE EN GENERAL POR CARRETERA DE TODO TIPO DE MERCANCÍAS, PROPIAS O DE TERCERAS PERSONAS Y SERVICIO PÚBLICO, DENTRO DEL TERRITORIO NACIONAL Y EXTRANJERO. B) LA COMPRA, CLASIFICACIÓN, GESTIÓN, RECICLAJE Y VENTA DE TODO TIPO DE RESIDUOS FÉRRICOS Y NO FÉRRICOS.",
      "mainEntityOfPage": "https://www.contratacion.euskadi.eus/webkpe00-kperoc/es/ac71aBusquedaRegistrosWar/empresa/09254",
      "_links": {
        "self": {
          "name": "RECICLARTE 2007, S.L.",
          "href": "https://api.euskadi.eus/procurements/companies/09254"
        }
      }
    },
    {
      "name": "UTILITAS COACHING Y CONSULTORIA SL",
      "registrationNumber": "06503",
      "identificationNumber": "B20530325",
      "address": "PLAZA CIGARRERAS 1 3º, EDIFICIO TABAKALERA, IMPACT HUB",
      "location": {
        "postalCode": "20012",
        "municipality": "Donostia / San Sebastián",
        "county": "Gipuzkoa",
        "municipalityId": "069",
        "countyId": "20"
      },
      "economicActivities": [
        {
          "id": "1.933.9",
          "name": "Otras actividades de enseñanza tales como idiomas, mecanografía",
          "_links": {
            "self": {
              "name": "Otras actividades de enseñanza tales como idiomas, mecanografía",
              "href": "https://api.euskadi.eus/procurements/companies/economic-activities/1.933.9"
            }
          }
        }
      ],
      "certificateStartDate": "2024-09-18",
      "certificateEndDate": "2025-03-18",
      "object": "LA REALIZACION DE SERVICIOS DE CONSULTORIA, ASESORAMIENTO, COACHING Y FORMACION ORIENTADOS AL DISEÑO Y GESTION DE PROCESOS DE CAMBIO Y DESARROLLO INDIVIDUAL, DE EQUIPOS Y DE ORGANIZACIONES. CNAE: 7022  OTRAS ACTIVIDADES DE CONSULTORÍA DE GESTIÓN EMPRESARIAL.",
      "mainEntityOfPage": "https://www.contratacion.euskadi.eus/webkpe00-kperoc/es/ac71aBusquedaRegistrosWar/empresa/06503",
      "_links": {
        "self": {
          "name": "UTILITAS COACHING Y CONSULTORIA SL",
          "href": "https://api.euskadi.eus/procurements/companies/06503"
        }
      }
    },
    {
      "name": "SOCIAL MOBEL, S.L.",
      "registrationNumber": "07385",
      "identificationNumber": "B37518685",
      "address": "Calle Massamagrell, 22",
      "location": {
        "postalCode": "46138",
        "municipality": "Rafelbunyol",
        "county": "Valencia/València",
        "municipalityId": "207",
        "countyId": "46"
      },
      "economicActivities": [
        {
          "id": "1.392.1",
          "name": "Fabricación de material médico-quirúrgico",
          "_links": {
            "self": {
              "name": "Fabricación de material médico-quirúrgico",
              "href": "https://api.euskadi.eus/procurements/companies/economic-activities/1.392.1"
            }
          }
        },
        {
          "id": "1.615.2",
          "name": "Venta al por mayor de muebles",
          "_links": {
            "self": {
              "name": "Venta al por mayor de muebles",
              "href": "https://api.euskadi.eus/procurements/companies/economic-activities/1.615.2"
            }
          }
        },
        {
          "id": "1.619.2",
          "name": "Venta al por mayor de aparatos e instrumentos médicos, ortopédicos, ópticos",
          "_links": {
            "self": {
              "name": "Venta al por mayor de aparatos e instrumentos médicos, ortopédicos, ópticos",
              "href": "https://api.euskadi.eus/procurements/companies/economic-activities/1.619.2"
            }
          }
        }
      ],
      "certificateStartDate": "2024-09-18",
      "certificateEndDate": "2025-03-18",
      "object": "EL DISEÑO, FABRICACIÓN, DISTRIBUCIÓN Y COMERCIALIZACIÓN, AL POR MAYOR Y POR MENOR, IMPORTACIÓN Y EXPORTACIÓN DE TODA CLASE DE EQUIPAMIENTO, MOBILIARIO Y MATERIAL CLÍNICO, SANITARIO, MÉDICO-QUIRÚRGICO",
      "mainEntityOfPage": "https://www.contratacion.euskadi.eus/webkpe00-kperoc/es/ac71aBusquedaRegistrosWar/empresa/07385",
      "_links": {
        "self": {
          "name": "SOCIAL MOBEL, S.L.",
          "href": "https://api.euskadi.eus/procurements/companies/07385"
        }
      }
    }
  ]
}