{
  "totalItems": 9042,
  "totalPages": 905,
  "currentPage": 334,
  "itemsOfPage": 10,
  "items": [
    {
      "name": "ZUIA INGENIERIA, S.L.",
      "registrationNumber": "08076",
      "identificationNumber": "B01401819",
      "address": "Inmaculada Nº7",
      "location": {
        "postalCode": "01139",
        "municipality": "Zuia",
        "county": "Araba/Álava",
        "municipalityId": "063",
        "countyId": "01"
      },
      "economicActivities": [
        {
          "id": "1.504.1",
          "name": "Instalaciones eléctricas en general",
          "_links": {
            "self": {
              "name": "Instalaciones eléctricas en general",
              "href": "https://api.euskadi.eus/procurements/companies/economic-activities/1.504.1"
            }
          }
        },
        {
          "id": "1.843.1",
          "name": "Servicios técnicos de ingeniería",
          "_links": {
            "self": {
              "name": "Servicios técnicos de ingeniería",
              "href": "https://api.euskadi.eus/procurements/companies/economic-activities/1.843.1"
            }
          }
        }
      ],
      "certificateStartDate": "2025-07-30",
      "certificateEndDate": "2026-01-22",
      "object": "- EL DESARROLLO DE NEGOCIOS EN EL ÁMBITO DE LAS ENERGÍAS RENOVABLES, EN PARTICULAR EL DISEÑO, INSTALACIÓN, COMERCIALIZACIÓN Y EXPLOTACIÓN DE UNIDADES DE PRODUCCIÓN DE ENERGÍA. - LA PRODUCCIÓN Y VENTA DE ENERGÍA ELÉCTRICA PRODUCIDA POR INSTALACIÓN SOLAR FOTOVOLTAICA. - EL PROYECTO Y DIRECCIÓN Y EJECUCIÓN DE OBRAS DE CONSTRUCCIÓN DE PABELLONES Y DE REFORMA INTERIOR DE TODO TIPO DE EDIFICACIONES. - TAMBIÉN PODRÁ DESARROLLAR Y LLEVAR A CABO DISEÑOS, MONTAJES Y PROYECTOS DE CUALQUIER TIPO DE INSTALACIÓN ELÉCTRICA E INSTALACIÓN O REFORMAS EN GENERAL Y LA COMERCIALIZACIÓN DE MATERIAL ELÉCTRICO. - LA PARTICIPACIÓN EN CUALQUIER TIPO DE PROMOCIONES Y EXPLOTACIONES INMOBILIARIAS.",
      "mainEntityOfPage": "https://www.contratacion.euskadi.eus/webkpe00-kperoc/es/ac71aBusquedaRegistrosWar/empresa/08076",
      "_links": {
        "self": {
          "name": "ZUIA INGENIERIA, S.L.",
          "href": "https://api.euskadi.eus/procurements/companies/08076"
        }
      }
    },
    {
      "name": "AGINTZARI, SOCIEDAD COOPERATIVA DE INICIATIVA SOCIAL",
      "registrationNumber": "02163",
      "identificationNumber": "F48481923",
      "address": "C/ AVENIDA RAMÓN Y CAJAL, Nº 48 - LONJA.",
      "location": {
        "postalCode": "48014",
        "municipality": "Bilbao",
        "county": "Bizkaia",
        "municipalityId": "020",
        "countyId": "48"
      },
      "economicActivities": [
        {
          "id": "1.934",
          "name": "Enseñanza fuera de establecimiento permanente",
          "_links": {
            "self": {
              "name": "Enseñanza fuera de establecimiento permanente",
              "href": "https://api.euskadi.eus/procurements/companies/economic-activities/1.934"
            }
          }
        },
        {
          "id": "1.942.9",
          "name": "Otros servicios sanitarios sin internados, no clasificados",
          "_links": {
            "self": {
              "name": "Otros servicios sanitarios sin internados, no clasificados",
              "href": "https://api.euskadi.eus/procurements/companies/economic-activities/1.942.9"
            }
          }
        },
        {
          "id": "1.951",
          "name": "Asistencia y servicios sociales en centros residenciales",
          "_links": {
            "self": {
              "name": "Asistencia y servicios sociales en centros residenciales",
              "href": "https://api.euskadi.eus/procurements/companies/economic-activities/1.951"
            }
          }
        },
        {
          "id": "1.952",
          "name": "Asistencia y servicios sociales en centros no residenciales",
          "_links": {
            "self": {
              "name": "Asistencia y servicios sociales en centros no residenciales",
              "href": "https://api.euskadi.eus/procurements/companies/economic-activities/1.952"
            }
          }
        }
      ],
      "certificateStartDate": "2025-07-30",
      "certificateEndDate": "2026-01-21",
      "object": "A) EJERCER COMO CONSULTORA, PRESTADORA DE SERVICIOS Y GESTORA DE TODO TIPO DE PROGRAMAS E INICIATIVAS EN LOS CAMPOS LIGADOS DE CONTENIDO SOCIAL, CULTURAL EDUCATIVO, RECREATIVO, TURÍSTICO, FESTIVO DE CONSUMO, DE OCIO, SANITARIO, ARTÍSTICO, MEDIO AMBIENTAL, DE INTERVENCIÓN Y DESARROLLO COMUNITARIOS, DE COOPERACIÓN INTERTERRITORIAL E INTERNACIONAL PARA EL DESARROLLO, DE INSERCIÓN  LABORAL, DE FORMACIÓN PARA EL EMPLEO, DE PROMOCIÓN, ASESORAMIENTO E INFORMACIÓN Y ATENCIÓN A LA INFANCIA, LA JUVENTUD, LA MUJER Y LA TERCERA EDAD, DE ATENCIÓN, TRATAMIENTO, REINSERCIÓN Y PREVENCIÓN DE DROGODEPENDENCIAS, DE DESARROLLO SOCIAL Y PLANIFICACIÓN DEMOGRÁFICO Y URBANA Y, EN GENERAL, TODAS AQUELLAS ÁREAS QUE LIGADAS A LAS CIENCIAS HUMANAS, CONTRIBUYEN A ENRIQUECER LA DIMENSIÓN SOCIAL Y CULTURAL DE LOS INDIVIDUOS Y LA COMUNIDAD EN SU MÁS AMPLIA CONSIDERACIÓN; B) REALIZAR INVESTIGACIÓN, ANÁLISIS PROSPECTIVOS, ESTUDIOS DE CAMPO, TRABAJOS ESTADÍSTICOS, ASÍ MISMO ESTRATEGIAS Y PLANES DE ASESORAMIENTO, DIFUSIÓN Y COMUNICACIÓN EN CUALQUIERA DE LAS ÁREAS RELACIONADAS EN EL PUNTO A); C) PLANIFICAR, ORGANIZAR O EVALUAR TODO TIPO DE EVENTOS E INICIATIVAS RELACIONADAS CON LO MISMOS ÁMBITOS, TALES COMO CONGRESOS, CERTÁMENES, EXPOSICIONES, CURSOS, SEMINARIOS, FERIAS, ENCUENTROS, BECAS, CONCURSOS, ACCIONES FORMATIVA, JORNADAS FESTIVAS Y LAS DE SU SIMILAR NATURALEZA; D) CREAR, COMPILAR, EDITAR Y DISTRIBUIR PROGRAMAS, MATERIALES, RECURSOS DE APOYO Y, EN GENERAL TODO TIPO DE DOCUMENTOS Y MATERIAL GRÁFICO, RELACIONADO CON LAS MATERIAS ESPECIFICADAS EN EL PUNTO A), REALIZADAS SOBRE CUALQUIER SOPORTE AUDIOVISUAL, IMPRESO INFORMÁTICO, O CUALQUIER OTRO SISTEMA DE EDICIÓN O REPRODUCCIÓN; E) EJERCER LA GESTIÓN INTEGRAL O PARCIAL DE PROGRAMAS, SERVICIOS, EQUIPAMIENTOS E INSTALACIONES EN LOS ÁMBITOS SEÑALADOS EN EL PUNTO A), DESARROLLANDO LAS TAREAS DE GERENCIA, DIRECCIÓN, ANIMACIÓN, ASESORAMIENTO TÉCNICO, ADMINISTRACIÓN, CONSERJERÍA, ATENCIÓN AL PÚBLICO, VIGILANCIA, LIMPIEZA Y MANTENIMIENTO; F) DESARROLLAR  INICIATIVAS DE COLABORACIÓN CON LOS ORGANISMOS DE LAS NACIONES UNIDAS, LA ADMINISTRACIÓN DE LA COMUNIDAD EUROPEA, ESTATAL, AUTONÓMICA, PROVINCIAL, MUNICIPAL ENCARGADAS DE LA ACCIÓN SOCIAL Y CULTURA, DEL DESARROLLO COMUNITARIO, DEL MEDIO AMBIENTE Y LA ECOLOGÍA, DE LA INVESTIGACIÓN, LA CULTURAL Y LAS ARTES, DE INSTITUCIONES DE EDUCACIÓN Y RENOVACIÓN PEDAGÓGICA, DE LA SANIDAD, DE LA COOPERACIÓN PARA EL DESARROLLO, DE LA EDUCACIÓN PARA LA SALUD Y LA PREVENCIÓN, EL TRATAMIENTO Y LA REINSERCIÓN DE LAS DROGODEPENDENCIAS, DE LA PROMOCIÓN DE LA INFANCIA, JUVENTUD, LA MUJER  O LA TERCERA EDAD, DEL ÁMBITO LABORAL Y DE FORMACIÓN; DE ATENCIÓN DE INSERCIÓN DE INDIVIDUOS Y COLECTIVOS EN SITUACIÓN DE DESVENTAJA Y/O EXCLUSIÓN SOCIAL.",
      "mainEntityOfPage": "https://www.contratacion.euskadi.eus/webkpe00-kperoc/es/ac71aBusquedaRegistrosWar/empresa/02163",
      "_links": {
        "self": {
          "name": "AGINTZARI, SOCIEDAD COOPERATIVA DE INICIATIVA SOCIAL",
          "href": "https://api.euskadi.eus/procurements/companies/02163"
        }
      }
    },
    {
      "name": "ANA MARIA BLAZQUEZ UBACH",
      "registrationNumber": "07952",
      "identificationNumber": "34082959H",
      "address": "Avenida de Ategorrieta 81, 4ºB",
      "location": {
        "postalCode": "20013",
        "municipality": "Donostia / San Sebastián",
        "county": "Gipuzkoa",
        "municipalityId": "069",
        "countyId": "20"
      },
      "economicActivities": [
        {
          "id": "2.774",
          "name": "Traductores e intérpretes",
          "_links": {
            "self": {
              "name": "Traductores e intérpretes",
              "href": "https://api.euskadi.eus/procurements/companies/economic-activities/2.774"
            }
          }
        },
        {
          "id": "2.841",
          "name": "Naturópatas, acupuntores y otros profesionales parasanitarios",
          "_links": {
            "self": {
              "name": "Naturópatas, acupuntores y otros profesionales parasanitarios",
              "href": "https://api.euskadi.eus/procurements/companies/economic-activities/2.841"
            }
          }
        }
      ],
      "certificateStartDate": "2025-07-30",
      "certificateEndDate": "2026-01-26",
      "object": "ACTIVIDADES DE TRADUCCIÓN E INTERPRETACIÓN.",
      "mainEntityOfPage": "https://www.contratacion.euskadi.eus/webkpe00-kperoc/es/ac71aBusquedaRegistrosWar/empresa/07952",
      "_links": {
        "self": {
          "name": "ANA MARIA BLAZQUEZ UBACH",
          "href": "https://api.euskadi.eus/procurements/companies/07952"
        }
      }
    },
    {
      "name": "GESTION PUBLICA GESPUBLIC, S.L.",
      "registrationNumber": "02730",
      "identificationNumber": "B48883656",
      "address": "C/ SAN VICENTE, 8-7ª. DPTO. 7-8",
      "location": {
        "postalCode": "48001",
        "municipality": "Bilbao",
        "county": "Bizkaia",
        "municipalityId": "020",
        "countyId": "48"
      },
      "economicActivities": [
        {
          "id": "1.843.1",
          "name": "Servicios técnicos de ingeniería",
          "_links": {
            "self": {
              "name": "Servicios técnicos de ingeniería",
              "href": "https://api.euskadi.eus/procurements/companies/economic-activities/1.843.1"
            }
          }
        },
        {
          "id": "1.843.9",
          "name": "Otros servicios técnicos n.c.o.p",
          "_links": {
            "self": {
              "name": "Otros servicios técnicos n.c.o.p",
              "href": "https://api.euskadi.eus/procurements/companies/economic-activities/1.843.9"
            }
          }
        }
      ],
      "certificateStartDate": "2025-07-30",
      "certificateEndDate": "2026-01-26",
      "object": "EN GENERAL LA PRESTACIÓN DE SERVICIOS PROFESIOINALES DE ASESORAMIENTO Y DE ASISTENCIA TÉCNICA, PRINCIPALMENTE EN MATERIAS RELACIONADAS CON LA ADMINISTRACIÓN PÚBLICA, TANTO A PARTICULARES COMO A GRUPOS, ASOCIACIONES Y EN ESPECIAL A ENTIDADES PÚBLICAS.\nGESTIÓN, PLANIFICACIÓN, ORGANIZACIÓN Y ADMINISTRACIÓN DE ACTIVIDADES Y SERVICIOS PÚBLICOS.\nELABORACIÓN  DE INFORMES Y ESTUDIOS ECONÓMICO-FINANCIEROS Y DE ESTUDIOS DE MERCADO.\nDICHAS ACTIVIDADES PODRÁN SER DESARROLLADAS DIRECTAMENTE POR LA SOCIEDAD O BIEN, TOTAL O PARCIALMENTE, DE MODO  INDIRECTO MEDIANTE LA TITULARIDAD DE ACCIONES O PARTICIPACIONES SOCIALES EN SOCIEDADES CON OBJETO ANÁLOGO O IDÉNTICO",
      "mainEntityOfPage": "https://www.contratacion.euskadi.eus/webkpe00-kperoc/es/ac71aBusquedaRegistrosWar/empresa/02730",
      "_links": {
        "self": {
          "name": "GESTION PUBLICA GESPUBLIC, S.L.",
          "href": "https://api.euskadi.eus/procurements/companies/02730"
        }
      }
    },
    {
      "name": "EUSKALDUNA ASESORES JURIDICO Y EMPRESA, S.L.",
      "registrationNumber": "09465",
      "identificationNumber": "B95510525",
      "address": "LEDESMA 6, 6º",
      "location": {
        "postalCode": "48001",
        "municipality": "Bilbao",
        "county": "Bizkaia",
        "municipalityId": "020",
        "countyId": "48"
      },
      "economicActivities": [
        {
          "id": "1.847",
          "name": "Servicios de consultoría",
          "_links": {
            "self": {
              "name": "Servicios de consultoría",
              "href": "https://api.euskadi.eus/procurements/companies/economic-activities/1.847"
            }
          }
        }
      ],
      "certificateStartDate": "2025-07-30",
      "certificateEndDate": "2026-01-26",
      "object": "A).- LA INTERMEDIACIÓN, MEDIACIÓN Y COLABORACIÓN CON ENTIDADES FINANCIERAS, COLABORADORAS, ASEGURADORAS, INMOBILIARIAS Y CUALESQUIERA OTRAS, COMO AGENTE, COMISIONISTA, DELEGADO O MEDIANTE CUALQUIER OTRA FORMA DE MEDIACIÓN MERCANTIL, RESPECTO A TODA SERIE DE BIENES Y PRODUCTOS; Y LA REALIZACIÓN DE ACTOS DE COMERCIO POR CUENTA DE SUS COMITENTES EN TODAS LAS FASES DE LA COMERCIALIZACIÓN. B).- LA PRESTACIÓN DE SERVICIOS DE ASESORAMIENTO, ASISTENCIA Y GESTIÓN COMERCIAL, ADMINISTRATIVO, DE COMERCIO EXTERIOR, CONTABLE, ECONÓMICO-FINANCIERO, LABORAL Y JURÍDICO EN GENERAL PARA TERCERAS PERSONAS, EMPRESAS O PARTICULARES; LA REALIZACIÓN DE INFORMES COMERCIALES, TÉCNICOS E INDUSTRIALES; LA REALIZACIÓN Y DIRECCIÓN DE ESTUDIOS Y PROSPECCIONES DE MERCADOS Y DE CARÁCTER ESTADÍSTICO; LA SELECCIÓN Y FORMACIÓN DE PERSONAL PARA LAS EMPRESAS Y LA VALORACIÓN DE ÉSTAS; EL ESTUDIO Y GESTIÓN DE SISTEMAS EMPRESARIALES PARA ADECUAR LOS MEDIOS PRODUCTIVOS A LAS NECESIDADES DEL MERCADO Y EL ESTUDIO Y REDACCIÓN DE PLANES DE VIABILIDAD; LA REALIZACIÓN DE NUEVOS PROYECTOS EMPRESARIALES; Y LA PRESTACIÓN DE SERVICIO DE VERIFICACIONES REGISTRALES, INFORMES COMERCIALES Y GRABACIONES DE DATOS. C).- Y LA ADQUISICIÓN, EXPLOTACIÓN, TENENCIA, ARRENDAMIENTO Y ENAJENACIÓN DE INMUEBLES INCLUIDA LA URBANIZACIÓN Y PARCELACIÓN DE TERRENOS; LA PROMOCIÓN, GESTIÓN Y EJECUCIÓN, POR CUALQUIER TÍTULO, DE TODA CLASE DE CONSTRUCCIONES Y OBRAS, POR CUENTA PROPIA O AJENA; LA REALIZACIÓN DE EXCAVACIONES, ALLANAMIENTOS, DESMONTES, CIMENTACIONES Y ENCOFRADOS, Y DE AISLAMIENTOS E IMPERMEABILIZACIONES; LA PAVIMENTACIÓN Y ASFALTADO DE ACERAS Y VÍAS; LA ELABORACIÓN DE TODO TIPO DE PROYECTOS DE INGENIERÍA Y ARQUITECTURA, ASÍ COMO LA SUPERVISIÓN, DIRECCIÓN Y ASESORAMIENTO EN LA EJECUCIÓN DE TODO TIPO DE OBRAS Y CONSTRUCCIONES; EL MANTENIMIENTO, REFORMA, REHABILITACIÓN Y ACONDICIONAMIENTO DE INMUEBLES Y LAS DEMÁS ACTIVIDADES INMOBILIARIAS; LA REALIZACIÓN DE MONTAJES E INSTALACIONES DE ESTRUCTURAS METÁLICAS, TUBULARES Y DE OTROS MATERIALES Y MEDIANTE CUALQUIER SISTEMA TÉCNICO; LA DIRECCIÓN Y COORDINACIÓN DE GREMIOS; LA DECORACIÓN DE INTERIORES; Y LA FABRICACIÓN Y COMERCIALIZACIÓN DE PRODUCTOS, MAQUINARIA Y MATERIALES DE CONSTRUCCIÓN.",
      "mainEntityOfPage": "https://www.contratacion.euskadi.eus/webkpe00-kperoc/es/ac71aBusquedaRegistrosWar/empresa/09465",
      "_links": {
        "self": {
          "name": "EUSKALDUNA ASESORES JURIDICO Y EMPRESA, S.L.",
          "href": "https://api.euskadi.eus/procurements/companies/09465"
        }
      }
    },
    {
      "name": "UNIVERSITARIO BILBAO RUGBY",
      "registrationNumber": "09982",
      "identificationNumber": "G48456727",
      "address": "Artazubidea B., 5, Errekalde",
      "location": {
        "postalCode": "48003",
        "municipality": "Bilbao",
        "county": "Bizkaia",
        "municipalityId": "020",
        "countyId": "48"
      },
      "economicActivities": [
        {
          "id": "1.673.2",
          "name": "Otros cafés y bares",
          "_links": {
            "self": {
              "name": "Otros cafés y bares",
              "href": "https://api.euskadi.eus/procurements/companies/economic-activities/1.673.2"
            }
          }
        },
        {
          "id": "1.968.2",
          "name": "Organización de espectáculos deportivos",
          "_links": {
            "self": {
              "name": "Organización de espectáculos deportivos",
              "href": "https://api.euskadi.eus/procurements/companies/economic-activities/1.968.2"
            }
          }
        }
      ],
      "certificateStartDate": "2025-07-29",
      "certificateEndDate": "2026-01-13",
      "object": "EL FOMENTO Y LA PRÁCTICA DE LA ACTIVIDAD FÍSICA Y DEPORTIVA DEL RUGBY, MEDIANTE LA PARTICIPACIÓN HABITUAL EN COMPETICIONES OFICIALES, PROVINCIALES, AUTONÓMICAS, NACIONALES E INTERNACIONALES, TANTO EN SU MODALIDAD MASCULINA COMO FEMENINA Y EN CUALQUIERA DE LAS CATEGORÍAS OFICIALES EXISTENTES EN CADA MOMENTO. EL CLUB FOMENTARÁ, DE ACUERDO CON LA DEMANDA EXISTENTE Y SUS RECURSOS HUMANOS Y MATERIALES, EL DEPORTE PARA PERSONAS CON DISCAPACIDAD. ASIMISMO, EL CLUB PROMOVERÁ EL DEPORTE FEMENINO FAVORECIENDO LA APERTURA DE LAS DISCIPLINAS DEPORTIVAS A LAS MUJERES.",
      "mainEntityOfPage": "https://www.contratacion.euskadi.eus/webkpe00-kperoc/es/ac71aBusquedaRegistrosWar/empresa/09982",
      "_links": {
        "self": {
          "name": "UNIVERSITARIO BILBAO RUGBY",
          "href": "https://api.euskadi.eus/procurements/companies/09982"
        }
      }
    },
    {
      "name": "DESARROLLOS DE TECNOLOGÍA AVANZADA, S.L.",
      "registrationNumber": "07643",
      "identificationNumber": "B81748923",
      "address": "C/San Bernardo, 123 5º",
      "location": {
        "postalCode": "28015",
        "municipality": "Madrid",
        "county": "Madrid",
        "municipalityId": "079",
        "countyId": "28"
      },
      "economicActivities": [
        {
          "id": "1.381",
          "name": "Construcción, reparación y mantenimiento de material ferroviario",
          "_links": {
            "self": {
              "name": "Construcción, reparación y mantenimiento de material ferroviario",
              "href": "https://api.euskadi.eus/procurements/companies/economic-activities/1.381"
            }
          }
        }
      ],
      "certificateStartDate": "2025-07-29",
      "certificateEndDate": "2026-01-10",
      "object": "REPRESENTACIÓN, GESTIÓN, VENTA, DISTRIBUCIÓN, IMPORTACIÓN Y EXPORTACIÓN DE TODA CLASE DE MAQUINARIA Y ALTA TECNOLOGÍA DESTINADA AL RECICLAJE, TRANSFORMACIÓN DE RESIDUOS Y SISTEMAS DE ELECTRIFICACIÓN Y SEÑALIZACIÓN FERROVIARIA, Y EN GENERAL, TODA CLASE SE MATERIAL FERROVIARIO. PRESTACIÓN DE ASISTENCIA TÉCNICA INDUSTRIAL EN LA BÚSQUEDA DE MERCADOS DE ALTA TECNOLOGÍA E INTERPRETACIÓN DE LA DOCUMENTACIÓN TÉCNICA REQUERIDA EN CADA CASO, ASÍ COMO ASESORAMIENTO EN LA PRESENTACIÓN Y CONFECCIÓN DE OFERTAS TANTO A EMPRESAS PÚBLICAS COMO PRIVADAS. TRABAJOS DE MANTENIMIENTO DE TRENES Y TRABAJOS HOMÓLOGOS Y DE PUESTA A PUNTO DE LOS MISMOS. PROMOCIÓN, COMPRA, VENTA Y ALQUILER DE TODA CLASE DE INMUEBLES (EXCEPTUANDO EL ARRENDAMIENTO FINANCIERO)",
      "mainEntityOfPage": "https://www.contratacion.euskadi.eus/webkpe00-kperoc/es/ac71aBusquedaRegistrosWar/empresa/07643",
      "_links": {
        "self": {
          "name": "DESARROLLOS DE TECNOLOGÍA AVANZADA, S.L.",
          "href": "https://api.euskadi.eus/procurements/companies/07643"
        }
      }
    },
    {
      "name": "ETXEGUREN SERBITZUAK, S.L.",
      "registrationNumber": "10300",
      "identificationNumber": "B01179795",
      "address": "POL.IND. SARATXO - KALZADAKO B4",
      "location": {
        "postalCode": "01468",
        "municipality": "Amurrio",
        "county": "Araba/Álava",
        "municipalityId": "002",
        "countyId": "01"
      },
      "economicActivities": [
        {
          "id": "1.504.1",
          "name": "Instalaciones eléctricas en general",
          "_links": {
            "self": {
              "name": "Instalaciones eléctricas en general",
              "href": "https://api.euskadi.eus/procurements/companies/economic-activities/1.504.1"
            }
          }
        },
        {
          "id": "1.504.2",
          "name": "Instalaciones de fontanería",
          "_links": {
            "self": {
              "name": "Instalaciones de fontanería",
              "href": "https://api.euskadi.eus/procurements/companies/economic-activities/1.504.2"
            }
          }
        },
        {
          "id": "1.504.3",
          "name": "Instalaciones de frío, calor y acondicionamiento de aire",
          "_links": {
            "self": {
              "name": "Instalaciones de frío, calor y acondicionamiento de aire",
              "href": "https://api.euskadi.eus/procurements/companies/economic-activities/1.504.3"
            }
          }
        },
        {
          "id": "1.504.8",
          "name": "Montajes metálicos e instalaciones industriales completas",
          "_links": {
            "self": {
              "name": "Montajes metálicos e instalaciones industriales completas",
              "href": "https://api.euskadi.eus/procurements/companies/economic-activities/1.504.8"
            }
          }
        }
      ],
      "certificateStartDate": "2025-07-29",
      "certificateEndDate": "2026-01-11",
      "object": "LA REALIZACIÓN DE INSTALACIONES ELÉCTRICAS, DE FONTANERÍA, GAS, CALEFACCIÓN, CLIMATIZACIÓN, REFRIGERACIÓN Y APARATOS A PRESIÓN; EL DISEÑO, LEGALIZACIÓN Y MANTENIMIENTO DE DICHAS INSTALACIONES; EL MONTAJE, DESMONTAJE Y CONSTRUCCIÓN DE EQUIPOS INDUSTRIALES, EL TRASLADO DE LOS MISMOS; LAS CONSTRUCCIONES METÁLICAS, TANTO EN INDUSTRIAS COMO EN COMERCIOS, DOMÉSTICAS Y PARA ORGANISMOS PÚBLICOS O PRIVADOS O DE CUALQUIER OTRO TIPO QUE LAS REQUIERA. LA COMPRAVENTA DE MATERIALES OBJETO DE DICHAS INSTALACIONES Y SU DISTRIBUCIÓN. LA SUBCONTRATACIÓN DE LOS SERVICIOS ANTERIORMENTE DESCRITOS Y LOS SERVICIOS DE ALBAÑILERÍA, CARPINTERÍA, CRISTALERÍA, PINTURA Y OTROS RELACIONADOS CON EL CAMPO DE LA CONSTRUCCIÓN Y ADEMÁS LA CONTRATACIÓN A TRAVÉS DE EMPRESAS DEDICADAS A LAS MISMAS ACTIVIDADES.",
      "mainEntityOfPage": "https://www.contratacion.euskadi.eus/webkpe00-kperoc/es/ac71aBusquedaRegistrosWar/empresa/10300",
      "_links": {
        "self": {
          "name": "ETXEGUREN SERBITZUAK, S.L.",
          "href": "https://api.euskadi.eus/procurements/companies/10300"
        }
      }
    },
    {
      "name": "INCEBI INFORMÁTICA CERCANA, S.L.",
      "registrationNumber": "08653",
      "identificationNumber": "B95617791",
      "address": "Paseo Dolores Ibarruri (48901), 8-3ºD",
      "location": {
        "postalCode": "48901",
        "municipality": "Barakaldo",
        "county": "Bizkaia",
        "municipalityId": "013",
        "countyId": "48"
      },
      "economicActivities": [
        {
          "id": "1.659.2",
          "name": "Venta al por menor de muebles de oficina y máquinas y equipos de oficina",
          "_links": {
            "self": {
              "name": "Venta al por menor de muebles de oficina y máquinas y equipos de oficina",
              "href": "https://api.euskadi.eus/procurements/companies/economic-activities/1.659.2"
            }
          }
        },
        {
          "id": "1.691.1",
          "name": "Reparación de artículos eléctricos para el hogar",
          "_links": {
            "self": {
              "name": "Reparación de artículos eléctricos para el hogar",
              "href": "https://api.euskadi.eus/procurements/companies/economic-activities/1.691.1"
            }
          }
        }
      ],
      "certificateStartDate": "2025-07-28",
      "certificateEndDate": "2026-01-28",
      "object": "1.- LA FABRICACIÓN, DISTRIBUCIÓN Y COMERCIALIZACIÓN EN GENERAL DE ORDENADORES, PROGRAMAS, ACCESORIOS Y DEMÁS PRODUCTOS INFORMÁTICOS, OFIMÁTICOS Y ELECTRÓNICOS, Y EL ASESORAMIENTO, FORMACIÓN Y CONSULTORÍA EN ESTOS CAMPOS; LOS SERVICIOS DE PROGRAMACIÓN, EL DISEÑO DE PÁGINAS WEB, EL DISEÑO GRÁFICO Y LA IMAGEN CORPORATIVA; LA ASISTENCIA TÉCNICA, MONTAJE Y MANTENIMIENTO DE TALES PRODUCTOS Y SERVICIOS; LA FORMACIÓN EN NUEVAS TECNOLOGÍAS, Y LA ELABORACIÓN, IMPARTICIÓN Y COMERCIALIZACIÓN DE CUALESQUIERA CURSOS DE FORMACIÓN RELACIONADOS CON LA INFORMÁTICA Y LA OFIMÁTICA. 2.- LA EJECUCIÓN, CONTROL Y MANTENIMIENTO DE INSTALACIONES ELÉCTRICAS EN GENERAL, Y DE INSTALACIONES DE TELECOMUNICACIONES, ELECTRÓNICAS, DE SEGURIDAD Y CONTRA INCENDIOS. 3.- LA PRESTACIÓN Y COMERCIALIZACIÓN DE SERVICIOS DE TELECOMUNICACIONES; EL COMERCIO ELECTRÓNICO; Y LA PRESTACIÓN DE SERVICIOS DE TELEMARKETING Y DE PUBLICIDAD, Y LOS SERVICIOS DE SEGURIDAD RELACIONADOS CON EL SECTOR DE TELECOMUNICACIONES.",
      "mainEntityOfPage": "https://www.contratacion.euskadi.eus/webkpe00-kperoc/es/ac71aBusquedaRegistrosWar/empresa/08653",
      "_links": {
        "self": {
          "name": "INCEBI INFORMÁTICA CERCANA, S.L.",
          "href": "https://api.euskadi.eus/procurements/companies/08653"
        }
      }
    },
    {
      "name": "FUNDACION ISEAK",
      "registrationNumber": "08700",
      "identificationNumber": "G95935359",
      "address": "Calle Henao (48009), 13, 5ºA",
      "location": {
        "postalCode": "48009",
        "municipality": "Bilbao",
        "county": "Bizkaia",
        "municipalityId": "020",
        "countyId": "48"
      },
      "economicActivities": [
        {
          "id": "1.846",
          "name": "Empresas de estudios de mercado",
          "_links": {
            "self": {
              "name": "Empresas de estudios de mercado",
              "href": "https://api.euskadi.eus/procurements/companies/economic-activities/1.846"
            }
          }
        },
        {
          "id": "1.936",
          "name": "Investigación científica y técnica",
          "_links": {
            "self": {
              "name": "Investigación científica y técnica",
              "href": "https://api.euskadi.eus/procurements/companies/economic-activities/1.936"
            }
          }
        }
      ],
      "certificateStartDate": "2025-07-28",
      "certificateEndDate": "2026-01-28",
      "object": "A) CONSTITUIR Y CONSOLIDAR UN CENTRO DE INVESTIGACIÓN Y TRANSFERENCIA EN EL ÁMBITO DE LA ECONOMÍA Y LAS DISTINTAS DISCIPLINAS A ELLA VINCULADAS COMO EL DESARROLLO, LA EDUCACIÓN O LA IGUALDAD DE GÉNERO, ENTRE OTRAS, DESDE EL QUE REALIZAR Y PROMOVER INVESTIGACIONES CON EL FIN DE IDENTIFICAR LAS NECESIDADES, FORTALEZAS Y DEBILIDADES DEL SISTEMA. B)\tLA REALIZACIÓN DE DIAGNÓSTICOS Y EVALUACIONES DE LAS ACTUACIONES LLEVADAS A CABO EN ÁMBITOS TALES COMO EL LABORAL Y SOCIO-DEMOGRÁFICO, ENTRE OTROS, QUE REDUNDEN EN UN CONOCIMIENTO EXHAUSTIVO Y DINÁMICO DE LA ECONÓMICA Y SOCIEDAD, A FIN DE FACILITAR LA ADOPCIÓN DE RESPUESTAS POLÍTICAS Y SOCIALES. C) PROPORCIONAR DE MANERA PERMANENTE ANÁLISIS Y ESTUDIOS RIGUROSOS E INDEPENDIENTES DE POLÍTICAS SOCIALES Y ECONÓMICAS MEDIANTE EL USO DE METODOLOGÍAS AVANZADAS Y CONTRASTADAS CON EL FIN DE APOYAR A LAS INSTITUCIONES PÚBLICAS O PRIVADAS DE EUSKADI Y DE OTRAS REGIONES Y PAÍSES, EN LA TOMA DE DECISIONES. D) LA PROMOCIÓN E INCORPORACIÓN DEL I + D + I APLICADO AL ÁMBITO DE LA INVESTIGACIÓN Y TRANSFERENCIA EN EL CAMPO DE LA ECONOMÍA Y LAS POLÍTICAS PÚBLICAS, ENFOCADO A LA IMPLEMENTACIÓN DE NUEVAS METODOLOGÍAS DE ANÁLISIS, DISEÑO Y EXPLOTACIÓN DE NUEVAS BASES DE DATOS O NUEVOS MODELOS DE DISEÑO DE POLÍTICAS PÚBLICAS, ENTRE OTRAS. E) SER UN AGENTE TRANSMISOR DE CONOCIMIENTO HACIA LAS INSTITUCIONES PÚBLICAS Y LOS RESPONSABLES DE LA TOMA DE DECISIONES POLÍTICAS PARA COADYUVAR EN LA MAXIMIZACIÓN DE LAS POSIBILIDADES DE SUPERAR LOS CRECIENTES RETOS A LOS QUE SE ENFRENTAN LA SOCIEDAD CIVIL Y LAS INSTITUCIONES GUBERNAMENTALES. F) PONER A DISPOSICIÓN DE LA CIUDADANÍA LA DIVULGACIÓN DE INFORMACIÓN COYUNTURAL EN LOS DISTINTOS ÁMBITOS SOCIOECONÓMICOS RELEVANTES PARA LA MEJORA DE LA SOCIEDAD Y DE LOS VALORES DE LA VIDA POLÍTICA Y SOCIAL COMO SON EL MERCADO LABORAL, LA EDUCACIÓN, EL GÉNERO, LA POBREZA, LA POLÍTICA URBANA, ENTRE OTRAS, A FIN DE SERVIR COMO PLATAFORMA EN LA GENERACIÓN DE INFORMACIÓN Y ANÁLISIS A LA SOCIEDAD CIVIL. PARA LA CONSECUCIÓN DE DICHOS FINES, LA FUNDACIÓN PODRÁ LLEVAR A CABO, ENTRE OTRAS, LAS SIGUIENTES ACTUACIONES: 1) EL DESARROLLO DE POLÍTICAS, HERRAMIENTAS, MECANISMOS Y METODOLOGÍAS DE ESTUDIO E INVESTIGACIÓN QUE FACILITEN LA DISPONIBILIDAD DE BASES DE DATOS DE GRAN DIMENSIÓN Y LA OBTENCIÓN DE RESULTADOS ANALÍTICOS Y DIAGNÓSTICOS ELABORADOS DE MANERA CONTINUADA CON LA MAYOR RIGUROSIDAD E INDEPENDENCIA POSIBLES. 2) LA REALIZACIÓN DE ACTIVIDADES, PROYECTOS O ENCARGOS DE ESTUDIO Y DESARROLLO RECIBIDOS DE OTRAS INSTITUCIONES PÚBLICAS O PRIVADAS O PERSONAS FÍSICAS O JURÍDICAS, Y GESTIÓN DIRECTA O INDIRECTA DE LOS PROGRAMAS Y PROYECTOS QUE APRUEBE EL PATRONATO, ASÍ COMO LAS ACTIVIDADES DE ESTUDIO Y FORMACIÓN QUE FAVOREZCAN LOS OBJETIVOS DE EXCELENCIA Y ESPECIALIZACIÓN EN EL ANÁLISIS E INVESTIGACIÓN SOCIAL Y ECONÓMICA. 3) LA COLABORACIÓN Y PARTICIPACIÓN CONJUNTA CON OTROS INSTITUTOS Y CENTRO DE EXCELENCIA A NIVEL EUROPEO E, INCLUSO, MUNDIAL QUE PERMITA ACUMULAR EN EL SENO DE LA FUNDACIÓN UN BAGAJE DE CONOCIMIENTO Y EXPERIENCIA QUE RESULTE EXTRAPOLABLE A OTROS PROYECTOS ANÁLOGOS QUE SE DESARROLLEN EN OTRAS LOCALIZACIONES POR OPERADORES AJENOS A LA FUNDACIÓN, CON LOS QUE ESTÁ PODRÁ CONCERTAR LAS CONDICIONES, ONEROSAS O GRATUITAS, DE CESIÓN DE SU CONOCIMIENTO. 4) LA FORMALIZACIÓN DE CUANTOS CONVENIOS DE COLABORACIÓN O CONTRATOS CON OTRAS ENTIDADES SEAN NECESARIOS PARA LA SATISFACCIÓN DE SUS FINES FUNDACIONALES Y, ESPECIALMENTE, LOS QUE CONTRIBUYAN A LA COOPERACIÓN EN LOS ÁMBITOS PROPIOS DE DICHOS FINES. 5) LA ORGANIZACIÓN Y REALIZACIÓN, DE FORMA AUTÓNOMA O EN COLABORACIÓN CON OTRAS ENTIDADES DE CURSOS, CONFERENCIAS, CONGRESOS, SEMINARIOS Y CUALQUIER TIPO DE ACCIÓN DIVULGATIVA, RELATIVOS A MATERIAS VINCULADAS A LOS FINES FUNDACIONALES. 6) EJERCER LAS ACTIVIDADES ECONÓMICAS PRECISAS PARA EL CUMPLIMIENTO DE LOS FINES FUNDACIONALES.",
      "mainEntityOfPage": "https://www.contratacion.euskadi.eus/webkpe00-kperoc/es/ac71aBusquedaRegistrosWar/empresa/08700",
      "_links": {
        "self": {
          "name": "FUNDACION ISEAK",
          "href": "https://api.euskadi.eus/procurements/companies/08700"
        }
      }
    }
  ]
}