{
  "totalItems": 9042,
  "totalPages": 905,
  "currentPage": 433,
  "itemsOfPage": 10,
  "items": [
    {
      "name": "IÑIGO SANTXO URIARTE",
      "registrationNumber": "08870",
      "identificationNumber": "14600281L",
      "address": "Done Bikandi 3 - 1. eskuma",
      "location": {
        "postalCode": "48001",
        "municipality": "Bilbao",
        "county": "Bizkaia",
        "municipalityId": "020",
        "countyId": "48"
      },
      "economicActivities": [
        {
          "id": "1.861.1",
          "name": "Alquiler de viviendas",
          "_links": {
            "self": {
              "name": "Alquiler de viviendas",
              "href": "https://api.euskadi.eus/procurements/companies/economic-activities/1.861.1"
            }
          }
        },
        {
          "id": "2.731",
          "name": "Abogados",
          "_links": {
            "self": {
              "name": "Abogados",
              "href": "https://api.euskadi.eus/procurements/companies/economic-activities/2.731"
            }
          }
        }
      ],
      "certificateStartDate": "2024-01-23",
      "certificateEndDate": "2024-07-11",
      "object": "ACTIVIDADES JURÍDICAS.",
      "mainEntityOfPage": "https://www.contratacion.euskadi.eus/webkpe00-kperoc/es/ac71aBusquedaRegistrosWar/empresa/08870",
      "_links": {
        "self": {
          "name": "IÑIGO SANTXO URIARTE",
          "href": "https://api.euskadi.eus/procurements/companies/08870"
        }
      }
    },
    {
      "name": "BETEA, KOOP. ELKARTE TXIKIA",
      "registrationNumber": "09365",
      "identificationNumber": "F95716759",
      "address": "Alameda San Mamés 46 - 5ºDcha.",
      "location": {
        "postalCode": "48010",
        "municipality": "Bilbao",
        "county": "Bizkaia",
        "municipalityId": "020",
        "countyId": "48"
      },
      "economicActivities": [
        {
          "id": "1.842",
          "name": "Servicios financieros y contables",
          "_links": {
            "self": {
              "name": "Servicios financieros y contables",
              "href": "https://api.euskadi.eus/procurements/companies/economic-activities/1.842"
            }
          }
        },
        {
          "id": "1.845",
          "name": "Explotación electrónica por cuenta de terceros",
          "_links": {
            "self": {
              "name": "Explotación electrónica por cuenta de terceros",
              "href": "https://api.euskadi.eus/procurements/companies/economic-activities/1.845"
            }
          }
        }
      ],
      "certificateStartDate": "2024-01-22",
      "certificateEndDate": "2024-07-19",
      "object": "LA PRESTACIÓN DE SERVICIOS DE CONSULTORÍA INFORMÁTICA. ASÍ MISMO, LA COOPERATIVA OFRECERÁ SERVICIOS DE CONSULTORÍA FINANCIERA, LOGÍSTICA, ESTUDIOS DE POSICIONAMIENTO DE MARCA, ESTUDIOS DE LA CADENA DE VALOR DE LA EMPRESA Y FORMACIÓN.",
      "mainEntityOfPage": "https://www.contratacion.euskadi.eus/webkpe00-kperoc/es/ac71aBusquedaRegistrosWar/empresa/09365",
      "_links": {
        "self": {
          "name": "BETEA, KOOP. ELKARTE TXIKIA",
          "href": "https://api.euskadi.eus/procurements/companies/09365"
        }
      }
    },
    {
      "name": "VERNO CONSULTORÍA DE DISEÑO, S.L.",
      "registrationNumber": "04272",
      "identificationNumber": "B48523104",
      "address": "COLÓN DE LARREATEGUI 20, 1º IZDA",
      "location": {
        "postalCode": "48009",
        "municipality": "Bilbao",
        "county": "Bizkaia",
        "municipalityId": "020",
        "countyId": "48"
      },
      "economicActivities": [
        {
          "id": "1.501.1",
          "name": "Construcción completa, reparación y conservación de edificaciones",
          "_links": {
            "self": {
              "name": "Construcción completa, reparación y conservación de edificaciones",
              "href": "https://api.euskadi.eus/procurements/companies/economic-activities/1.501.1"
            }
          }
        },
        {
          "id": "1.843.2",
          "name": "Servicios técnicos de arquitectura y urbanismo",
          "_links": {
            "self": {
              "name": "Servicios técnicos de arquitectura y urbanismo",
              "href": "https://api.euskadi.eus/procurements/companies/economic-activities/1.843.2"
            }
          }
        }
      ],
      "certificateStartDate": "2024-01-18",
      "certificateEndDate": "2024-07-14",
      "object": "A) LA REALIZACIÓN POR CUENTA PROPIA O AJENA DE TODA CLASE DE CONSTRUCCIONES, INSTALACIONES, REFORMAS, REHABILITACIONES Y DECORACIONES. B) LA SUPERVISIÓN Y CONTROL DE OBRAS, ASÍ COMO LA COORDINACIÓN DE GREMIOS, EL ASESORAMIENTO Y LA ASISTENCIA TÉCNICA EN TODO EN CUANTO SE RELACIONE, DIRECTA O INDIRECTAMENTE, CON EL CAMPO DE LAS ACTIVIDADES DESCRITAS ANTERIOR APARTADO A).  C) LA ORGANIZACIÓN DE MEDIOS PARA LA PRESTACIÓN DE SERVICIOS PROFESIONALES A PERSONAS FÍSICAS Y/O JURÍDICAS, DENTRO DE LOS LÍMITES REGULADOS EN LAS PROFESIONES COLEGIADAS DE APAREJADORES Y ARQUITECTOS TÉCNICOS Y DECORADORES",
      "mainEntityOfPage": "https://www.contratacion.euskadi.eus/webkpe00-kperoc/es/ac71aBusquedaRegistrosWar/empresa/04272",
      "_links": {
        "self": {
          "name": "VERNO CONSULTORÍA DE DISEÑO, S.L.",
          "href": "https://api.euskadi.eus/procurements/companies/04272"
        }
      }
    },
    {
      "name": "FAGOR AUTOMATION S. COOP. LTDA.",
      "registrationNumber": "09362",
      "identificationNumber": "F20071114",
      "address": "BARRIO SAN ANDRES 19",
      "location": {
        "postalCode": "20500",
        "municipality": "Arrasate / Mondragón",
        "county": "Gipuzkoa",
        "municipalityId": "055",
        "countyId": "20"
      },
      "economicActivities": [
        {
          "id": "1.342.2",
          "name": "Otro material eléctrico de utilización y equipamiento",
          "_links": {
            "self": {
              "name": "Otro material eléctrico de utilización y equipamiento",
              "href": "https://api.euskadi.eus/procurements/companies/economic-activities/1.342.2"
            }
          }
        },
        {
          "id": "1.344",
          "name": "Fabricación de contadores y aparatos de medida, eléctricos",
          "_links": {
            "self": {
              "name": "Fabricación de contadores y aparatos de medida, eléctricos",
              "href": "https://api.euskadi.eus/procurements/companies/economic-activities/1.344"
            }
          }
        },
        {
          "id": "1.617.9",
          "name": "Venta al por mayor interindustrial de otros productos n.c.o.p",
          "_links": {
            "self": {
              "name": "Venta al por mayor interindustrial de otros productos n.c.o.p",
              "href": "https://api.euskadi.eus/procurements/companies/economic-activities/1.617.9"
            }
          }
        }
      ],
      "certificateStartDate": "2024-01-18",
      "certificateEndDate": "2024-07-16",
      "object": "EL OBJETO ECONÓMICO DE ESTA SOCIEDAD ES LA FABRICACIÓN Y VENTA DE EQUIPOS DE MEDICIÓN, REGULACIÓN Y CONTROL PARA MÁQUINAS, SISTEMAS Y MÁQUINAS DE MONTAJE AUTOMÁTICO DE PIEZAS Y PRODUCTOS Y CUANTAS ACTIVIDADES INDUSTRIALES DECIDA EMPRENDER AFINES O COMPLEMENTARIAS A LAS ACTIVIDADES ANTES INDICADAS.",
      "mainEntityOfPage": "https://www.contratacion.euskadi.eus/webkpe00-kperoc/es/ac71aBusquedaRegistrosWar/empresa/09362",
      "_links": {
        "self": {
          "name": "FAGOR AUTOMATION S. COOP. LTDA.",
          "href": "https://api.euskadi.eus/procurements/companies/09362"
        }
      }
    },
    {
      "name": "QUOD SAIL, S.L.",
      "registrationNumber": "05871",
      "identificationNumber": "B20793881",
      "address": "ARABA ETORBIDEA, 4 BAJO",
      "location": {
        "postalCode": "20400",
        "municipality": "Tolosa",
        "county": "Gipuzkoa",
        "municipalityId": "071",
        "countyId": "20"
      },
      "economicActivities": [
        {
          "id": "1.355.2",
          "name": "Edición de soportes grabados de sonido, vídeo y de informática",
          "_links": {
            "self": {
              "name": "Edición de soportes grabados de sonido, vídeo y de informática",
              "href": "https://api.euskadi.eus/procurements/companies/economic-activities/1.355.2"
            }
          }
        },
        {
          "id": "1.843.9",
          "name": "Otros servicios técnicos n.c.o.p",
          "_links": {
            "self": {
              "name": "Otros servicios técnicos n.c.o.p",
              "href": "https://api.euskadi.eus/procurements/companies/economic-activities/1.843.9"
            }
          }
        }
      ],
      "certificateStartDate": "2024-01-16",
      "certificateEndDate": "2024-07-10",
      "object": "LA CREACIÓN Y DISEÑO PUBLICITARIO. LA PRESTACIÓN O INTERMEDIACIÓN EN SERVICIOS RELACIONADOS CON LA IMAGEN Y COMUNICACIÓN GRÁFICA, TANTO EN EL CAMPO PUBLICITARIO COMO EN EL DE IMAGEN CORPORATIVA. LA PRODUCCIÓN Y EDICIÓN DE SOPORTES CON CONTENIDO AUDIOVISUAL O GRÁFICO. LA REPRESENTACIÓN DE AUTORES E INTÉRPRETES EN MEDIOS AUDIOVISUALES",
      "mainEntityOfPage": "https://www.contratacion.euskadi.eus/webkpe00-kperoc/es/ac71aBusquedaRegistrosWar/empresa/05871",
      "_links": {
        "self": {
          "name": "QUOD SAIL, S.L.",
          "href": "https://api.euskadi.eus/procurements/companies/05871"
        }
      }
    },
    {
      "name": "ALBOKA, S. COOP.",
      "registrationNumber": "02445",
      "identificationNumber": "F95162459",
      "address": "Berrezoaga auzoa z/g Pab 1",
      "location": {
        "postalCode": "48195",
        "municipality": "Larrabetzu",
        "county": "Bizkaia",
        "municipalityId": "052",
        "countyId": "48"
      },
      "economicActivities": [
        {
          "id": "1.504.8",
          "name": "Montajes metálicos e instalaciones industriales completas",
          "_links": {
            "self": {
              "name": "Montajes metálicos e instalaciones industriales completas",
              "href": "https://api.euskadi.eus/procurements/companies/economic-activities/1.504.8"
            }
          }
        },
        {
          "id": "1.859",
          "name": "Alquiler de otros bienes muebles n.c.o.p. (sin personal permanente)",
          "_links": {
            "self": {
              "name": "Alquiler de otros bienes muebles n.c.o.p. (sin personal permanente)",
              "href": "https://api.euskadi.eus/procurements/companies/economic-activities/1.859"
            }
          }
        },
        {
          "id": "1.965.4",
          "name": "Empresas de espectáculos",
          "_links": {
            "self": {
              "name": "Empresas de espectáculos",
              "href": "https://api.euskadi.eus/procurements/companies/economic-activities/1.965.4"
            }
          }
        },
        {
          "id": "1.966.9",
          "name": "Otros servicios culturales n.c.o.p",
          "_links": {
            "self": {
              "name": "Otros servicios culturales n.c.o.p",
              "href": "https://api.euskadi.eus/procurements/companies/economic-activities/1.966.9"
            }
          }
        },
        {
          "id": "1.989.2",
          "name": "Servicios de organización de congresos, asambleas y similares",
          "_links": {
            "self": {
              "name": "Servicios de organización de congresos, asambleas y similares",
              "href": "https://api.euskadi.eus/procurements/companies/economic-activities/1.989.2"
            }
          }
        }
      ],
      "certificateStartDate": "2024-01-15",
      "certificateEndDate": "2024-06-26",
      "object": "EL ALQUILER, COMPRAVENTA Y GESTIÓN DE ELEMENTOS DE SONIDO, ILUMINACIÓN E IMAGEN; LA ORGANIZACIÓN EN TODOS SUS ASPECTOS, DE EVENTOS, CONGRESOS Y FERIAS ASÍ COMO LA ORANIZACIÓN, PROMOCIÓN Y DESARROLLO DE ACTIVIDADES SOCIOCULTURALES, EDUCATIVAS Y FORMATIVAS",
      "mainEntityOfPage": "https://www.contratacion.euskadi.eus/webkpe00-kperoc/es/ac71aBusquedaRegistrosWar/empresa/02445",
      "_links": {
        "self": {
          "name": "ALBOKA, S. COOP.",
          "href": "https://api.euskadi.eus/procurements/companies/02445"
        }
      }
    },
    {
      "name": "EMMANUEL GREEK",
      "registrationNumber": "06998",
      "identificationNumber": "X9347176E",
      "address": "Calle Julian De Apraiz no10, 2a",
      "location": {
        "postalCode": "01012",
        "municipality": "Vitoria-Gasteiz",
        "county": "Araba/Álava",
        "municipalityId": "059",
        "countyId": "01"
      },
      "economicActivities": [
        {
          "id": "1.501.3",
          "name": "Albañilería y pequeños trabajos de construcción en general",
          "_links": {
            "self": {
              "name": "Albañilería y pequeños trabajos de construcción en general",
              "href": "https://api.euskadi.eus/procurements/companies/economic-activities/1.501.3"
            }
          }
        },
        {
          "id": "1.505.6",
          "name": "Pintura, revestimientos y terminación y decoración de locales",
          "_links": {
            "self": {
              "name": "Pintura, revestimientos y terminación y decoración de locales",
              "href": "https://api.euskadi.eus/procurements/companies/economic-activities/1.505.6"
            }
          }
        },
        {
          "id": "2.811",
          "name": "Profesionales que prestan servicios de limpieza",
          "_links": {
            "self": {
              "name": "Profesionales que prestan servicios de limpieza",
              "href": "https://api.euskadi.eus/procurements/companies/economic-activities/2.811"
            }
          }
        }
      ],
      "certificateStartDate": "2024-01-15",
      "certificateEndDate": "2024-07-08",
      "object": "PINTURA, REVESTIMIENTOS Y TERMINACIÓN Y DECORACIÓN DE LOCALES Y PROFESIONALES QUE PRESTAN SERVICIOS DE LIMPIEZA",
      "mainEntityOfPage": "https://www.contratacion.euskadi.eus/webkpe00-kperoc/es/ac71aBusquedaRegistrosWar/empresa/06998",
      "_links": {
        "self": {
          "name": "EMMANUEL GREEK",
          "href": "https://api.euskadi.eus/procurements/companies/06998"
        }
      }
    },
    {
      "name": "CONSTRUCCIONES BORRAJO 2016, S.L.",
      "registrationNumber": "09357",
      "identificationNumber": "B95848032",
      "address": "ZERUKOA CALLE 2, Nº 11 PRINCIPAL A",
      "location": {
        "postalCode": "48260",
        "municipality": "Ermua",
        "county": "Bizkaia",
        "municipalityId": "034",
        "countyId": "48"
      },
      "economicActivities": [
        {
          "id": "1.501.3",
          "name": "Albañilería y pequeños trabajos de construcción en general",
          "_links": {
            "self": {
              "name": "Albañilería y pequeños trabajos de construcción en general",
              "href": "https://api.euskadi.eus/procurements/companies/economic-activities/1.501.3"
            }
          }
        }
      ],
      "certificateStartDate": "2024-01-12",
      "certificateEndDate": "2024-07-12",
      "object": "A).- LA REALIZACIÓN POR CUENTA PROPIA O AJENA DE TODA CLASE DE CONSTRUCCIONES, INSTALACIONES, REFORMAS, REHABILITACIONES Y DECORACIONES. LA SUPERVISIÓN Y CONTROL DE LAS OBRAS, ASÍ COMO LA COORDINACIÓN DE GREMIOS, EL ASESORAMIENTO Y LA ASISTENCIA TÉCNICA EN TODO CUANTO SE RELACIONE, DIRECTA O INDIRECTAMENTE, CON EL CAMPO DE LA CONSTRUCCIÓN DE EDIFICIOS Y DE LAS OBRAS PÚBLICAS O CIVILES. B).- LA PROMOCIÓN, CONSTRUCCIÓN, COMPRAVENTA, ARRENDAMIENTO Y EXPLOTACIÓN EN CUALQUIER OTRA FORMA DE TODA CLASE DE EDIFICACIONES, SOLARES E INMUEBLES EN GENERAL, TANTO POR CUENTA PROPIA COMO AJENA.",
      "mainEntityOfPage": "https://www.contratacion.euskadi.eus/webkpe00-kperoc/es/ac71aBusquedaRegistrosWar/empresa/09357",
      "_links": {
        "self": {
          "name": "CONSTRUCCIONES BORRAJO 2016, S.L.",
          "href": "https://api.euskadi.eus/procurements/companies/09357"
        }
      }
    },
    {
      "name": "MSN DOKUTALDE S. COOP.",
      "registrationNumber": "09179",
      "identificationNumber": "F95466173",
      "address": "GORLIZ 13, 2º IZDA",
      "location": {
        "postalCode": "48007",
        "municipality": "Bilbao",
        "county": "Bizkaia",
        "municipalityId": "020",
        "countyId": "48"
      },
      "economicActivities": [
        {
          "id": "1.966.1",
          "name": "Bibliotecas y museos",
          "_links": {
            "self": {
              "name": "Bibliotecas y museos",
              "href": "https://api.euskadi.eus/procurements/companies/economic-activities/1.966.1"
            }
          }
        }
      ],
      "certificateStartDate": "2024-01-11",
      "certificateEndDate": "2024-07-11",
      "object": "LA GESTIÓN DOCUMENTAL DE ARCHIVOS, BIBLIOTECAS, MUSEOS Y CENTROS DE DOCUMENTACIÓN, Y EL ASESORAMIENTO, ORGANIZACIÓN, PROMOCIÓN Y PRODUCCIÓN DE MUESTRAS, SEMINARIOS Y ACTIVIDADES RELACIONADAS CON ELLOS; LA ENSEÑANZA DE TÉCNICAS DE RESTAURACIÓN Y MANTENIMIENTO DE ANTIGÜEDADES, LIBROS, SELLOS Y OTROS OBJETOS DE COLECCIÓN, ADORNO Y DECORACIÓN, Y EL CONTROL DE SUS PROCESOS DE CONSERVACIÓN; Y LA REPRESENTACIÓN Y ASESORAMIENTO DE OTRAS EMPRESAS DEL SECTOR.",
      "mainEntityOfPage": "https://www.contratacion.euskadi.eus/webkpe00-kperoc/es/ac71aBusquedaRegistrosWar/empresa/09179",
      "_links": {
        "self": {
          "name": "MSN DOKUTALDE S. COOP.",
          "href": "https://api.euskadi.eus/procurements/companies/09179"
        }
      }
    },
    {
      "name": "APLICACIONES Y TRATAMIENTOS DE SISTEMAS, S.A.",
      "registrationNumber": "07580",
      "identificationNumber": "A80827694",
      "address": "C/ Valle De Alcudia, 3, 1ª planta",
      "location": {
        "postalCode": "28232",
        "municipality": "Rozas de Madrid, Las",
        "county": "Madrid",
        "municipalityId": "127",
        "countyId": "28"
      },
      "economicActivities": [
        {
          "id": "1.845",
          "name": "Explotación electrónica por cuenta de terceros",
          "_links": {
            "self": {
              "name": "Explotación electrónica por cuenta de terceros",
              "href": "https://api.euskadi.eus/procurements/companies/economic-activities/1.845"
            }
          }
        },
        {
          "id": "1.933.9",
          "name": "Otras actividades de enseñanza tales como idiomas, mecanografía",
          "_links": {
            "self": {
              "name": "Otras actividades de enseñanza tales como idiomas, mecanografía",
              "href": "https://api.euskadi.eus/procurements/companies/economic-activities/1.933.9"
            }
          }
        }
      ],
      "certificateStartDate": "2024-01-11",
      "certificateEndDate": "2024-07-11",
      "object": "DESARROLLO DE SISTEMAS, APLICACIONES Y TRATAMIENTOS, VENTA DE ELEMENTOS E IMPLEMENTOS INFORMÁTICOS; PROGRAMACIÓN Y TRANSFERENCIA TECNOLÓGICA INFORMÁTICA EN MERCADO INTERIOR Y EXTERIOR. CONSULTORÍA Y ORGANIZACIÓN Y SERVICIOS DE PROCESO DE DATOS",
      "mainEntityOfPage": "https://www.contratacion.euskadi.eus/webkpe00-kperoc/es/ac71aBusquedaRegistrosWar/empresa/07580",
      "_links": {
        "self": {
          "name": "APLICACIONES Y TRATAMIENTOS DE SISTEMAS, S.A.",
          "href": "https://api.euskadi.eus/procurements/companies/07580"
        }
      }
    }
  ]
}