{
  "totalItems": 9042,
  "totalPages": 905,
  "currentPage": 339,
  "itemsOfPage": 10,
  "items": [
    {
      "name": "AIBLU SERVICIOS PROFESIONALES, S.L.",
      "registrationNumber": "07381",
      "identificationNumber": "B95665816",
      "address": "C/ Heros, 28 - bajo derecha",
      "location": {
        "postalCode": "48009",
        "municipality": "Bilbao",
        "county": "Bizkaia",
        "municipalityId": "020",
        "countyId": "48"
      },
      "economicActivities": [
        {
          "id": "1.847",
          "name": "Servicios de consultoría",
          "_links": {
            "self": {
              "name": "Servicios de consultoría",
              "href": "https://api.euskadi.eus/procurements/companies/economic-activities/1.847"
            }
          }
        },
        {
          "id": "1.934",
          "name": "Enseñanza fuera de establecimiento permanente",
          "_links": {
            "self": {
              "name": "Enseñanza fuera de establecimiento permanente",
              "href": "https://api.euskadi.eus/procurements/companies/economic-activities/1.934"
            }
          }
        }
      ],
      "certificateStartDate": "2025-07-16",
      "certificateEndDate": "2026-01-16",
      "object": "LA PRESTACIÓN DE SERVICIOS DE ASESORAMIENTO Y GESTIÓN DE EMPRESAS, TANTO FISCAL COMO CONTABLE, JURÍDICO, FINANCIERO, CUMPLIMIENTO NORMATIVO O DE CUALQUIER OTRO TIPO; EL ESTUDIO, INVESTIGACIÓN, PROMOCIÓN Y PRESTACIÓN DE TODA CLASE DE SERVICIOS DE ASISTENCIA Y GESTIÓN, TÉCNICA, ADMINISTRATIVA, COMERCIAL Y CONTABLE; LA REALIZACIÓN DE CURSOS DE FORMACIÓN TANTO EN FORMATO PRESENCIAL COMO EN FORMATO DE ELEARNING U ONLINE; LA REALIZACIÓN DE AUDITORÍAS LEGALES ASÍ COMO LA INTERMEDIACIÓN PROFESIONALES EN LA COMPRA Y VENTA DE SOCIEDADES.",
      "mainEntityOfPage": "https://www.contratacion.euskadi.eus/webkpe00-kperoc/es/ac71aBusquedaRegistrosWar/empresa/07381",
      "_links": {
        "self": {
          "name": "AIBLU SERVICIOS PROFESIONALES, S.L.",
          "href": "https://api.euskadi.eus/procurements/companies/07381"
        }
      }
    },
    {
      "name": "ALVARO APILANEZ PINEDO",
      "registrationNumber": "08193",
      "identificationNumber": "44674066Q",
      "address": "FLORIDA 40 BAJO",
      "location": {
        "postalCode": "01007",
        "municipality": "Vitoria-Gasteiz",
        "county": "Araba/Álava",
        "municipalityId": "059",
        "countyId": "01"
      },
      "economicActivities": [
        {
          "id": "2.421",
          "name": "Arquitectos técnicos y aparejadores",
          "_links": {
            "self": {
              "name": "Arquitectos técnicos y aparejadores",
              "href": "https://api.euskadi.eus/procurements/companies/economic-activities/2.421"
            }
          }
        }
      ],
      "certificateStartDate": "2025-07-16",
      "certificateEndDate": "2025-07-29",
      "object": "ARQUITECTOS TÉCNICOS Y APAREJADORES.",
      "mainEntityOfPage": "https://www.contratacion.euskadi.eus/webkpe00-kperoc/es/ac71aBusquedaRegistrosWar/empresa/08193",
      "_links": {
        "self": {
          "name": "ALVARO APILANEZ PINEDO",
          "href": "https://api.euskadi.eus/procurements/companies/08193"
        }
      }
    },
    {
      "name": "ANTONIO JAVIER ORMAZABAL CARBALLEDO",
      "registrationNumber": "10277",
      "identificationNumber": "15242439V",
      "address": "Paseo de Colon 27",
      "location": {
        "postalCode": "20302",
        "municipality": "Irun",
        "county": "Gipuzkoa",
        "municipalityId": "045",
        "countyId": "20"
      },
      "economicActivities": [
        {
          "id": "1.652.1",
          "name": "Farmacias",
          "_links": {
            "self": {
              "name": "Farmacias",
              "href": "https://api.euskadi.eus/procurements/companies/economic-activities/1.652.1"
            }
          }
        },
        {
          "id": "1.659.7",
          "name": "Venta al por menor de semillas, abonos, flores, plantas y pequeños animales",
          "_links": {
            "self": {
              "name": "Venta al por menor de semillas, abonos, flores, plantas y pequeños animales",
              "href": "https://api.euskadi.eus/procurements/companies/economic-activities/1.659.7"
            }
          }
        },
        {
          "id": "1.945",
          "name": "Consultas y clínicas veterinarias",
          "_links": {
            "self": {
              "name": "Consultas y clínicas veterinarias",
              "href": "https://api.euskadi.eus/procurements/companies/economic-activities/1.945"
            }
          }
        },
        {
          "id": "1.979.4",
          "name": "Adiestramiento de animales y otros servicios de atención de animales",
          "_links": {
            "self": {
              "name": "Adiestramiento de animales y otros servicios de atención de animales",
              "href": "https://api.euskadi.eus/procurements/companies/economic-activities/1.979.4"
            }
          }
        }
      ],
      "certificateStartDate": "2025-07-16",
      "certificateEndDate": "2026-01-15",
      "object": "FARMACIAS. VENTA AL POR MENOR DE SEMILLAS, ABONOS, FLORES, PLANTAS Y PEQUEÑOS ANIMALES. CONSULTAS Y CLÍNICAS VETERINARIAS. ADIESTRAMIENTO DE ANIMALES Y OTROS SERVICIOS DE ATENCIÓN DE ANIMALES.",
      "mainEntityOfPage": "https://www.contratacion.euskadi.eus/webkpe00-kperoc/es/ac71aBusquedaRegistrosWar/empresa/10277",
      "_links": {
        "self": {
          "name": "ANTONIO JAVIER ORMAZABAL CARBALLEDO",
          "href": "https://api.euskadi.eus/procurements/companies/10277"
        }
      }
    },
    {
      "name": "BIZIBIZIKI, S.L.U",
      "registrationNumber": "08364",
      "identificationNumber": "B75016246",
      "address": "Plaza Agustindarren",
      "location": {
        "postalCode": "20120",
        "municipality": "Hernani",
        "county": "Gipuzkoa",
        "municipalityId": "040",
        "countyId": "20"
      },
      "economicActivities": [
        {
          "id": "3.049",
          "name": "Otras actividades relacionadas con el deporte n.c.o.p",
          "_links": {
            "self": {
              "name": "Otras actividades relacionadas con el deporte n.c.o.p",
              "href": "https://api.euskadi.eus/procurements/companies/economic-activities/3.049"
            }
          }
        }
      ],
      "certificateStartDate": "2025-07-16",
      "certificateEndDate": "2026-01-15",
      "object": "EL DESARROLLO DE TODO TIPO DE ACTIVIDADES DE CONSULTA, ASESORÍA, ANÁLISIS, PLANIFICACIÓN, REDACCIÓN DE ESTUDIOS Y/O PROYECTOS, REALIZACIÓN DE OBRAS, MANTENIMIENTO, GESTIÓN Y VENTA DE PRODUCTOS Y SERVICIOS RELACIONADOS CON ACTIVIDADES CULTURALES, NATURALES Y DE AVENTURA.",
      "mainEntityOfPage": "https://www.contratacion.euskadi.eus/webkpe00-kperoc/es/ac71aBusquedaRegistrosWar/empresa/08364",
      "_links": {
        "self": {
          "name": "BIZIBIZIKI, S.L.U",
          "href": "https://api.euskadi.eus/procurements/companies/08364"
        }
      }
    },
    {
      "name": "KRUCH SIDOS, S.L.",
      "registrationNumber": "09442",
      "identificationNumber": "B66863382",
      "address": "Pla Comas 7-8 4-1",
      "location": {
        "postalCode": "08028",
        "municipality": "Barcelona",
        "county": "Barcelona",
        "municipalityId": "019",
        "countyId": "08"
      },
      "economicActivities": [
        {
          "id": "1.845",
          "name": "Explotación electrónica por cuenta de terceros",
          "_links": {
            "self": {
              "name": "Explotación electrónica por cuenta de terceros",
              "href": "https://api.euskadi.eus/procurements/companies/economic-activities/1.845"
            }
          }
        }
      ],
      "certificateStartDate": "2025-07-16",
      "certificateEndDate": "2026-01-16",
      "object": "EL DESARROLLO DE SENSORES Y SOFTWARE PARA MEDIOS ELÉCTRICOS DE TRANSPORTE, INCLUYENDO EL ASESORAMIENTO, APOYO TÉCNICO Y COMERCIALIZACIÓN EN RELACIÓN CON LOS MISMOS.",
      "mainEntityOfPage": "https://www.contratacion.euskadi.eus/webkpe00-kperoc/es/ac71aBusquedaRegistrosWar/empresa/09442",
      "_links": {
        "self": {
          "name": "KRUCH SIDOS, S.L.",
          "href": "https://api.euskadi.eus/procurements/companies/09442"
        }
      }
    },
    {
      "name": "MATXALEN URKIOLA, S.L.",
      "registrationNumber": "09984",
      "identificationNumber": "B95638995",
      "address": "Barrio Errotaritxuena",
      "location": {
        "postalCode": "48200",
        "municipality": "Durango",
        "county": "Bizkaia",
        "municipalityId": "027",
        "countyId": "48"
      },
      "economicActivities": [
        {
          "id": "1.474",
          "name": "Artes gráficas (impresión gráfica)",
          "_links": {
            "self": {
              "name": "Artes gráficas (impresión gráfica)",
              "href": "https://api.euskadi.eus/procurements/companies/economic-activities/1.474"
            }
          }
        },
        {
          "id": "1.934",
          "name": "Enseñanza fuera de establecimiento permanente",
          "_links": {
            "self": {
              "name": "Enseñanza fuera de establecimiento permanente",
              "href": "https://api.euskadi.eus/procurements/companies/economic-activities/1.934"
            }
          }
        }
      ],
      "certificateStartDate": "2025-07-16",
      "certificateEndDate": "2026-01-15",
      "object": "LA PUBLICIDAD, CREACIÓN, IMPRESIÓN Y REALIZACIÓN DE TODO TIPO DE CAMPAÑAS. ASÍ COMO LA ORGANIZACIÓN DE EVENTOS Y ESPECTÁCULOS. REALIZACIÓN DE DISEÑOS E IMAGEN CORPORATIVA. IMPRESIÓN Y DIFUSIÓN POR CUALQUIER MEDIO DE TODO TIPO DE DOCUMENTOS Y CAMPAÑAS. ORGANIZACIÓN DE TALLERES CULTURALES DE COMUNICACIÓN, OCIO Y DEPORTES. DISEÑO E IMPLANTACIÓN DE TODO TIPO DE SEÑALIZACIONES, ASÍ COMO SU MANTENIMIENTO Y CONSERVACIÓN.",
      "mainEntityOfPage": "https://www.contratacion.euskadi.eus/webkpe00-kperoc/es/ac71aBusquedaRegistrosWar/empresa/09984",
      "_links": {
        "self": {
          "name": "MATXALEN URKIOLA, S.L.",
          "href": "https://api.euskadi.eus/procurements/companies/09984"
        }
      }
    },
    {
      "name": "MARISA PAULA ARBIDE BUFI",
      "registrationNumber": "10005",
      "identificationNumber": "73044387K",
      "address": "PASEO FEDERICO GARCIA LORCA 7 4C",
      "location": {
        "postalCode": "20014",
        "municipality": "Donostia / San Sebastián",
        "county": "Gipuzkoa",
        "municipalityId": "069",
        "countyId": "20"
      },
      "economicActivities": [
        {
          "id": "2.899",
          "name": "Otros profesionales",
          "_links": {
            "self": {
              "name": "Otros profesionales",
              "href": "https://api.euskadi.eus/procurements/companies/economic-activities/2.899"
            }
          }
        }
      ],
      "certificateStartDate": "2025-07-15",
      "certificateEndDate": "2025-07-30",
      "object": "OTROS PROFESIONALES.",
      "mainEntityOfPage": "https://www.contratacion.euskadi.eus/webkpe00-kperoc/es/ac71aBusquedaRegistrosWar/empresa/10005",
      "_links": {
        "self": {
          "name": "MARISA PAULA ARBIDE BUFI",
          "href": "https://api.euskadi.eus/procurements/companies/10005"
        }
      }
    },
    {
      "name": "HIDROGLOBAL TECNOLOGIA DEL AGUA, S.A",
      "registrationNumber": "10000",
      "identificationNumber": "A63050991",
      "address": "Calle Garbi 3",
      "location": {
        "postalCode": "08150",
        "municipality": "Parets del Vallès",
        "county": "Barcelona",
        "municipalityId": "159",
        "countyId": "08"
      },
      "economicActivities": [
        {
          "id": "1.617.9",
          "name": "Venta al por mayor interindustrial de otros productos n.c.o.p",
          "_links": {
            "self": {
              "name": "Venta al por mayor interindustrial de otros productos n.c.o.p",
              "href": "https://api.euskadi.eus/procurements/companies/economic-activities/1.617.9"
            }
          }
        }
      ],
      "certificateStartDate": "2025-07-15",
      "certificateEndDate": "2026-01-15",
      "object": "LA FABRICACIÓN Y COMERCIALIZACIÓN DE EQUIPOS E INSTALACIONES PARA EL CONTROL HIDRÁULICO Y EL TRATAMIENTO DE AGUAS, ASÍ COMO ACCESORIOS DE LOS MISMOS, Y LA INSTALACIÓN, MONTAJE, ENSAMBLAJE Y ASESORAMIENTO EN LA INSTALACIÓN DE LOS PRODUCTOS FABRICADOS Y COMERCIALIZADOS.",
      "mainEntityOfPage": "https://www.contratacion.euskadi.eus/webkpe00-kperoc/es/ac71aBusquedaRegistrosWar/empresa/10000",
      "_links": {
        "self": {
          "name": "HIDROGLOBAL TECNOLOGIA DEL AGUA, S.A",
          "href": "https://api.euskadi.eus/procurements/companies/10000"
        }
      }
    },
    {
      "name": "ASOCIACIÓN CULTURAL PARA LA PROMOCIÓN DEL CINE EN PEQUEÑO FORMATO KORZINE",
      "registrationNumber": "10276",
      "identificationNumber": "G67917450",
      "address": "ARKAUTE, 34",
      "location": {
        "postalCode": "01192",
        "municipality": "Vitoria-Gasteiz",
        "county": "Araba/Álava",
        "municipalityId": "059",
        "countyId": "01"
      },
      "economicActivities": [
        {
          "id": "1.966.9",
          "name": "Otros servicios culturales n.c.o.p",
          "_links": {
            "self": {
              "name": "Otros servicios culturales n.c.o.p",
              "href": "https://api.euskadi.eus/procurements/companies/economic-activities/1.966.9"
            }
          }
        }
      ],
      "certificateStartDate": "2025-07-15",
      "certificateEndDate": "2025-12-24",
      "object": "LOS FINES DE ESTA ASOCIACIÓN SON: 1. PROMOVER Y DIVULGAR LA CULTURA DEL CINE EN PEQUEÑO FORMATO. 2. AYUDAR Y APOYAR A LOS DIRECTORES EMERGENTES EN ESTE SECTOR PARA QUE PUEDAN OBTENER FONDOS PARA LA PRODUCCIÓN DE SUS PELÍCULAS Y CORTOS Y PARA QUE PUEDAN PROMOCIONARLAS Y ASÍ DARSE A CONOCER.",
      "mainEntityOfPage": "https://www.contratacion.euskadi.eus/webkpe00-kperoc/es/ac71aBusquedaRegistrosWar/empresa/10276",
      "_links": {
        "self": {
          "name": "ASOCIACIÓN CULTURAL PARA LA PROMOCIÓN DEL CINE EN PEQUEÑO FORMATO KORZINE",
          "href": "https://api.euskadi.eus/procurements/companies/10276"
        }
      }
    },
    {
      "name": "SELFSERVICE TRADING, S.L.",
      "registrationNumber": "09304",
      "identificationNumber": "B56334246",
      "address": "Rodriguez Arias 23, 2º, Dpto. 3",
      "location": {
        "postalCode": "48011",
        "municipality": "Bilbao",
        "county": "Bizkaia",
        "municipalityId": "020",
        "countyId": "48"
      },
      "economicActivities": [
        {
          "id": "1.671.5",
          "name": "Restaurante un tenedor",
          "_links": {
            "self": {
              "name": "Restaurante un tenedor",
              "href": "https://api.euskadi.eus/procurements/companies/economic-activities/1.671.5"
            }
          }
        }
      ],
      "certificateStartDate": "2025-07-15",
      "certificateEndDate": "2026-01-15",
      "object": "LOS SERVICIOS COMPRENDIDOS EN EL GREMIO DE HOSTELERÍA Y ESPECIALMENTE LA EXPLOTACIÓN, GESTIÓN, COMERCIALIZACIÓN Y DESARROLLO DE LAS ACTIVIDADES PROPIAS DE RESTAURACIÓN, TALES COMO LA ELABORACIÓN DE COMIDAS, SERVICIOS DE CATERING, PLATOS PREPARADOS, PINTXOS, SERVICIO DE BEBIDAS ALCOHÓLICAS, REFRESCOS, HELADOS O SIMILARES, ASÍ COMO SERVICIO DE CAFETERÍA.",
      "mainEntityOfPage": "https://www.contratacion.euskadi.eus/webkpe00-kperoc/es/ac71aBusquedaRegistrosWar/empresa/09304",
      "_links": {
        "self": {
          "name": "SELFSERVICE TRADING, S.L.",
          "href": "https://api.euskadi.eus/procurements/companies/09304"
        }
      }
    }
  ]
}