{
  "totalItems": 9042,
  "totalPages": 905,
  "currentPage": 540,
  "itemsOfPage": 10,
  "items": [
    {
      "name": "OURI ENTRETENIMIENTOS, S.L.",
      "registrationNumber": "07554",
      "identificationNumber": "B32425654",
      "address": "Calle Paseo 30",
      "location": {
        "postalCode": "32003",
        "municipality": "Ourense",
        "county": "Ourense",
        "municipalityId": "054",
        "countyId": "32"
      },
      "economicActivities": [
        {
          "id": "1.505.2",
          "name": "Solados y pavimentos de todas clases en cualquier tipo de obra",
          "_links": {
            "self": {
              "name": "Solados y pavimentos de todas clases en cualquier tipo de obra",
              "href": "https://api.euskadi.eus/procurements/companies/economic-activities/1.505.2"
            }
          }
        },
        {
          "id": "1.619.1",
          "name": "Venta al por mayor de juguetes y artículos de deporte",
          "_links": {
            "self": {
              "name": "Venta al por mayor de juguetes y artículos de deporte",
              "href": "https://api.euskadi.eus/procurements/companies/economic-activities/1.619.1"
            }
          }
        },
        {
          "id": "1.965.4",
          "name": "Empresas de espectáculos",
          "_links": {
            "self": {
              "name": "Empresas de espectáculos",
              "href": "https://api.euskadi.eus/procurements/companies/economic-activities/1.965.4"
            }
          }
        }
      ],
      "certificateStartDate": "2021-03-16",
      "certificateEndDate": "2021-06-22",
      "object": "LA ORGANIZACIÓN, PROMOCIÓN Y ASESORAMIENTO, POR CUENTA PROPIA O DE TERCEROS, DE CUALQUIER CLASE DE ESPECTÁCULOS, ACTIVIDADES SOCIO-CULTURALES, TURÍSTICAS Y EVENTOS MUSICALES. ORGANIZACIÓN DE CONVENCIONES, CONFERENCIAS, CONGRESOS, ASAMBLEAS, FIESTAS O EVENTOS SOCIALES DE DIFUSIÓN PÚBLICA O PRIVADA. MONTAJE, CONSTRUCCIÓN Y ALQUILER DE CARPAS, ESCENARIOS, CARROZAS PARRA DESFILES FESTIVOS, INFRAESTRUCTURAS, MOTIVOS DECORATIVOS Y STANDS PARA CELEBRACIONES, CONVENCIONES, EXPOSICIONES, CONGRESOS, FERIAS Y FIESTAS PÚBLICAS Y PRIVADAS. SERVICIOS DE RESTAURACIÓN Y CATERING EN FIESTAS, FERIAS Y VERBENAS, CELEBRACIONES, CONGRESOS Y CONVENCIONES FUERA DE ESTABLECIMIENTO PERMANENTE. CREACIÓN, PROMOCIÓN, COORDINACIÓN, ORGANIZACIÓN Y GESTIÓN DE PROYECTOS, EVENTOS, ESPECTÁCULOS Y CAMPEONATOS DEPORTIVOS, ASÍ COMO LA REALIZACIÓN DE LAS ACTIVIDADES DE MARKETING, ASESORAMIENTO Y CONSULTORÍA DEPORTIVA. SERVICIOS DE COMUNICACIÓN Y PUBLICIDAD, ASÍ COMO LA PLANIFICACIÓN, SUPERVISIÓN Y GESTIÓN PUBLICITARIA DE TODO TIPO DE ENTIDADES PÚBLICAS Y PRIVADAS. SERVICIOS DE SOCORRISMO Y SALVAMENTO, POR PARTE DE PERSONAL CUALIFICADO, EN PARQUES ACUÁTICOS, PLAYAS, PISCINAS, INSTALACIONES ACUÁTICAS PÚBLICAS Y PRIVADAS. SERVICIOS DE ASESORAMIENTO, FORMACIÓN Y PLANIFICACIÓN EN MATERIA DE SEGURIDAD ACUÁTICA. EXPLOTACIÓN Y ALQUILER DE PISTAS DE HIELO. REPRESENTACIÓN DE FORMACIONES MUSICALES Y ARTISTAS DE TODO TIPO. EL DESARROLLO Y EJECUCIÓN DE TODA OBRA CIVIL, EXPLOTACIÓN, MONTAJE, MANTENIMIENTO, COMERCIALIZACIÓN, IMPORTACIÓN Y EXPORTACIÓN DE PARQUES INFANTILES, ZONAS DE MULTIJUEGOS, ESTRUCTURAS DIDÁCTICAS, PARQUES ACUÁTICOS, PARQUES BIOSALUDABLES, PISTAS DE PÁDEL, PISTAS DE ATLETISMO, PISTAS MULTIDEPORTE Y DE OCIO, TODA CLASE DE SUELOS O LOSETAS, MOBILIARIO Y ZONAS DE RECREO, MOBILIARIO URBANO, BANCOS, ZONAS DE ESPERA, JARDINERAS, INSTALADORES EN GENERAL, ELECTRODOMÉSTICOS, MAQUINARIA, RESIDUOS CONTROLADOS, ASÍ COMO CUALESQUIERA ELEMENTOS RELACIONADOS CON EL OCIO, DIVERSIÓN Y LA INFRAESTRUCTURA URBANA. ASIMISMO, LA SOCIEDAD PODRÁ LLEVAR A CABO LA ACTIVIDAD DE EXPLOTACIÓN, ARRENDAMIENTO Y VENTA DE TODO TIPO DE BIENES MUEBLES E INMUEBLES, TANTO CON ENTIDADES PRIVADAS COMO PÚBLICAS, PÚBLICAS, PUDIENDO REALIZAR TODO ELLO POR CUENTA PROPIA O AJENA, MEDIANTE CONTRATA, SUBCONTRATA O ADMINISTRACIÓN DE CUALQUIER GÉNERO. EL CNAE DE LA ACTIVIDAD PRINCIPAL ES EL 9001",
      "mainEntityOfPage": "https://www.contratacion.euskadi.eus/webkpe00-kperoc/es/ac71aBusquedaRegistrosWar/empresa/07554",
      "_links": {
        "self": {
          "name": "OURI ENTRETENIMIENTOS, S.L.",
          "href": "https://api.euskadi.eus/procurements/companies/07554"
        }
      }
    },
    {
      "name": "VALERO ANALITICA, S.L.",
      "registrationNumber": "07555",
      "identificationNumber": "B50987577",
      "address": "C/Ariza 1, Of 1",
      "location": {
        "postalCode": "50011",
        "municipality": "Zaragoza",
        "county": "Zaragoza",
        "municipalityId": "297",
        "countyId": "50"
      },
      "economicActivities": [
        {
          "id": "1.843.9",
          "name": "Otros servicios técnicos n.c.o.p",
          "_links": {
            "self": {
              "name": "Otros servicios técnicos n.c.o.p",
              "href": "https://api.euskadi.eus/procurements/companies/economic-activities/1.843.9"
            }
          }
        }
      ],
      "certificateStartDate": "2021-03-16",
      "certificateEndDate": "2021-09-10",
      "object": "EL DISEÑO Y EJECUCIÓN DE TODO TIPO DE ANÁLISIS QUÍMICOS, FÍSICOS, ALIMENTARIOS, FARMACÉUTICOS, MEDIOAMBIENTALES , AGRONÓMICOS , CLÍNICOS Y DE CUALQUIER OTRA ÍNDOLE , ASÍ COMO LA PLANIFICACIÓN Y EJECUCIÓN DE LAS CORRESPONDIENTES TOMAS DE MUESTRAS EN SU SEDE SOCIAL Y EN CUALQUIER OTRO LUGAR",
      "mainEntityOfPage": "https://www.contratacion.euskadi.eus/webkpe00-kperoc/es/ac71aBusquedaRegistrosWar/empresa/07555",
      "_links": {
        "self": {
          "name": "VALERO ANALITICA, S.L.",
          "href": "https://api.euskadi.eus/procurements/companies/07555"
        }
      }
    },
    {
      "name": "GEOTECNIA Y CIMIENTOS S.A.",
      "registrationNumber": "05779",
      "identificationNumber": "A28208874",
      "address": "LOS LLANOS DE JEREZ 10 ,12 ",
      "location": {
        "postalCode": "28823",
        "municipality": "Coslada",
        "county": "Madrid",
        "municipalityId": "049",
        "countyId": "28"
      },
      "economicActivities": [
        {
          "id": "1.507",
          "name": "Construcción, reparación y conservación de toda clase obras",
          "_links": {
            "self": {
              "name": "Construcción, reparación y conservación de toda clase obras",
              "href": "https://api.euskadi.eus/procurements/companies/economic-activities/1.507"
            }
          }
        },
        {
          "id": "1.843.3",
          "name": "Servicios técnicos de prospecciones y estudios geológicos",
          "_links": {
            "self": {
              "name": "Servicios técnicos de prospecciones y estudios geológicos",
              "href": "https://api.euskadi.eus/procurements/companies/economic-activities/1.843.3"
            }
          }
        },
        {
          "id": "1.843.9",
          "name": "Otros servicios técnicos n.c.o.p",
          "_links": {
            "self": {
              "name": "Otros servicios técnicos n.c.o.p",
              "href": "https://api.euskadi.eus/procurements/companies/economic-activities/1.843.9"
            }
          }
        },
        {
          "id": "1.845",
          "name": "Explotación electrónica por cuenta de terceros",
          "_links": {
            "self": {
              "name": "Explotación electrónica por cuenta de terceros",
              "href": "https://api.euskadi.eus/procurements/companies/economic-activities/1.845"
            }
          }
        },
        {
          "id": "1.852",
          "name": "Alquiler de maquinaria y equipo para la construcción",
          "_links": {
            "self": {
              "name": "Alquiler de maquinaria y equipo para la construcción",
              "href": "https://api.euskadi.eus/procurements/companies/economic-activities/1.852"
            }
          }
        },
        {
          "id": "1.932.1",
          "name": "Enseñanza de formación y perfeccionamiento profesional no superior",
          "_links": {
            "self": {
              "name": "Enseñanza de formación y perfeccionamiento profesional no superior",
              "href": "https://api.euskadi.eus/procurements/companies/economic-activities/1.932.1"
            }
          }
        }
      ],
      "certificateStartDate": "2021-03-15",
      "certificateEndDate": "2021-08-01",
      "object": "RECONOCIMIENTO O INVESTIGACIONES GEOTÉCNICAS REFERENTES A MECÁNICA DEL SUELO Y MECÁNICA DE ROCAS. 2. ESTUDIOS GEOLÓGICOS, ESTRATIGRAFÍAS, TECTÓNICA, MICROFACIOS, PETROGRAFÍA Y ACTIVIDADES ANÁLOGAS. 3.ESTUDIOS HIDROGEOLÓGICOS, ALUMBRAMIENTOS Y CAPTACIONES DE AGUA. 4. SONDEOS PARA RECONOCIMIENTO ESTRATIGRÁFICO DE SUELO Y MACIZOS ROCOSOS. 5. TRATAMIENTOS DE CONSOLIDACIÓN  E IMPERMEABILIZACIÓN MEDIANTE INYECCIONES, ANCLAJES Y TÉCNICAS ANÁLOGAS. 6. ESTUDIOS DE TERRENOS DE CIMENTACIÓN ORDINARIA Y ESPECIAL, ASÍ COMO LA EJECUCIÓN DE DICHAS CIMENTACIONES. 7. REBAJE DEL NIVEL FREÁTICO MEDIANTE DRENES HORIZONTALES O VERTICALES, BOMBEO O TÉCNICAS ANÁLOGAS. 8. HINCA DE TUBERÍAS PARA CONDUCTOS O ESTRUCTURAS SUBTERRÁNEAS. 9. REALIZACIÓN DE ENSAYOS Y CONTROL DE CALIDAD. 10. ESTUDIO DE METALOTECNIA Y ENSAYOS MECÁNICOS. 11. ENSAYOS NO DESTRUCTIVOS Y DE SOLDADURA. 12. CONTROL DE INSTALACIONES INDUSTRIALES Y DE EDIFICACIÓN. 13. ACTUACIÓN COMO ENTIDAD COLABORADORA DE LA ADMINISTRACIÓN (E.C.A.).  14. GARANTÍA DE CALIDAD. 15. INGENIERÍA DE CALIDAD. 16. INVESTIGACIÓN Y DESARROLLO DE NUEVOS EQUIPOS Y NUEVAS TÉCNICAS, PARA MEDIDAS DE MAGNITUDES FÍSICAS. 17. ESTUDIOS Y MEDIDAS PARA LA CONTAMINACIÓN AMBIENTAL. 18. CARACTERIZACIÓN DE MATERIALES. RESIDUOS INDUSTRIALES Y REACTIVOS. 19. ESTUDIOS Y ACONDICIONAMIENTO DE RESIDUOS INDUSTRIALES Y REACTIVOS. 20. ESTUDIOS  TÉCNICOS   SOBRE   CARRETERAS, ESTRUCTURAS Y OBRA CIVIL EN GENERAL, AUSCULTACIÓN  E  INVENTARIO  DE  CARRETERAS  Y  PUENTES;  ANÁLISIS EXPERIMENTAL Y AUSCULTACIÓN   DE  PRESAS,   PUENTES  Y   ESTRUCTURAS   EN  GENERAL, ASÍ COMO  LA REALIZACIÓN  DE  OBRAS  DE  REHABILITACIÓN  DE  CUALQUIERA  DE  LAS  ESTRUCTURAS   Y CONSTRUCCIONES RESEÑADAS. 21. ESTUDIOS TÉCNICOS Y CONTROL DE CALIDAD EN EDIFICACIÓN. 22. ENSAYOS Y CONTROL DE CALIDAD DE PINTURAS PLÁSTICAS E IMPERMEABILIZANTES. 23. ENSAYOS  DE  LABORATORIO  E  INVESTIGACIÓN  TÉCNICA  RELACIONADOS  CON  LOS  FINES EXPUESTOS, ASÍ COMO DE HORMIGONES, CEMENTOS, BETUNES Y DE LA CONSTRUCCIÓN EN GENERAL. 24. SUMINISTRO DE EQUIPOS Y SISTEMAS DE MEDIDA Y LECTURA. 25. ACTUACIONES COMO SOCIEDAD DE INSPECCIÓN Y CONTROL DE INSTALACIONES, EQUIPOS Y PRODUCTOS INDUSTRIALES. 26. LA ADQUISICIÓN, TENENCIA, DISFRUTE, ADMINISTRACIÓN Y ENAJENACIÓN DE TODA CLASE DE VALORES MOBILIARIOS POR CUENTA PROPIA, QUEDANDO EXCLUIDAS  LAS ACTIVIDADES QUE LA LEGISLACIÓN ESPECIAL Y BÁSICAMENTE LA LEY DEL MERCADO DE VALORES ATRIBUYE CON CARÁCTER EXCLUSIVO A OTRAS ENTIDADES. 27. LA CONTRATACIÓN, GESTIÓN Y EJECUCIÓN DE TODA CLASE DE OBRAS Y CONSTRUCCIONES EN SU MÁS AMPLIO SENTIDO, TANTO PÚBLICAS COMO PRIVADAS. 28. EL MANTENIMIENTO, EXPLOTACIÓN, CONSERVACIÓN, REHABILITACIÓN, RESTAURACIÓN, ACONDICIONAMIENTO, LIMPIEZA E HIGIENIZACIÓN DE BIENES INMUEBLES EN ESPECIAL, EDIFICIOS, MONUMENTOS HISTÓRICO-ARTÍSTICOS, INSTALACIONES, CARRETERAS, VIALES, PRESAS Y CUALQUIER OTRO TIPO DE INFRAESTRUCTURAS. 29. DIRECCIÓN DE OBRAS Y ASISTENCIAS TÉCNICAS, TANTO  PÚBLICAS COMO PRIVADAS, EN SU MÁS AMPLIO SENTIDO.\r\n30. GESTIÓN Y EJECUCIÓN DE SERVICIOS, TALES COMO: TRATAMIENTO DE LA INFORMACIÓN (INFORMÁTICA), SERVICIO POSVENTA Y  ASISTENCIA  TÉCNICA;  ACTUALIZACIÓN  DE PROGRAMAS Y APLICACIONES INFORMÁTICAS; PRODUCCIÓN DE MEDIOS AUDIOVISUALES; ACTIVIDADES ADMINISTRATIVAS, TALES COMO: MECANOGRAFIADO, GRABACIÓN DE DATOS Y TRATAMIENTOS DE TEXTOS; CURSOS DE FORMACIÓN DE PERSONAL.\r\n",
      "mainEntityOfPage": "https://www.contratacion.euskadi.eus/webkpe00-kperoc/es/ac71aBusquedaRegistrosWar/empresa/05779",
      "_links": {
        "self": {
          "name": "GEOTECNIA Y CIMIENTOS S.A.",
          "href": "https://api.euskadi.eus/procurements/companies/05779"
        }
      }
    },
    {
      "name": "DOMOTEK  INGENIERÍA PROTOTIPADO Y FORMACIÓN, S.L.",
      "registrationNumber": "07552",
      "identificationNumber": "B75127100",
      "address": "C/ San Juan 15, 3º Izquierda",
      "location": {
        "postalCode": "20003",
        "municipality": "Donostia / San Sebastián",
        "county": "Gipuzkoa",
        "municipalityId": "069",
        "countyId": "20"
      },
      "economicActivities": [
        {
          "id": "1.475.3",
          "name": "Reproducción de textos, imágenes destinados a la impresión",
          "_links": {
            "self": {
              "name": "Reproducción de textos, imágenes destinados a la impresión",
              "href": "https://api.euskadi.eus/procurements/companies/economic-activities/1.475.3"
            }
          }
        }
      ],
      "certificateStartDate": "2021-03-15",
      "certificateEndDate": "2021-09-04",
      "object": "REALIZAR SERVICIOS DE IMPRESIÓN 3D, ASÍ COMO LA VENTA, INCLUIDA POR INTERNET, DE TODO TIPO DE ARTÍCULOS DE ELECTRÓNICA Y MECÁNICA; SERVICIO TÉCNICO DE IMPRESORAS Y SCANNERS 3D; SERVICIOS DE CONSULTORÍA, EN ESPECIAL PARA DESARROLLO DE WEB; IMPORTACIÓN Y EXPORTACIÓN DE MAQUINARIA; SERVICIOS DE FORMACIÓN O ACADEMIA; ASESORAMIENTO PARA SOLICITAR AYUDAS Y SUBVENCIONES DE BASE TECNOLÓGICA",
      "mainEntityOfPage": "https://www.contratacion.euskadi.eus/webkpe00-kperoc/es/ac71aBusquedaRegistrosWar/empresa/07552",
      "_links": {
        "self": {
          "name": "DOMOTEK  INGENIERÍA PROTOTIPADO Y FORMACIÓN, S.L.",
          "href": "https://api.euskadi.eus/procurements/companies/07552"
        }
      }
    },
    {
      "name": "CITELUM IBERICA, S.A.",
      "registrationNumber": "07553",
      "identificationNumber": "A59087361",
      "address": "Ronda de la Universidad, 16",
      "location": {
        "postalCode": "08007",
        "municipality": "Barcelona",
        "county": "Barcelona",
        "municipalityId": "019",
        "countyId": "08"
      },
      "economicActivities": [
        {
          "id": "1.504.1",
          "name": "Instalaciones eléctricas en general",
          "_links": {
            "self": {
              "name": "Instalaciones eléctricas en general",
              "href": "https://api.euskadi.eus/procurements/companies/economic-activities/1.504.1"
            }
          }
        },
        {
          "id": "1.504.3",
          "name": "Instalaciones de frío, calor y acondicionamiento de aire",
          "_links": {
            "self": {
              "name": "Instalaciones de frío, calor y acondicionamiento de aire",
              "href": "https://api.euskadi.eus/procurements/companies/economic-activities/1.504.3"
            }
          }
        }
      ],
      "certificateStartDate": "2021-03-15",
      "certificateEndDate": "2021-07-13",
      "object": "A) EL DISEÑO, ESTUDIO Y REALIZACIÓN DE TRABAJOS PARA LA ADMINISTRACIÓN PÚBLICA RELATIVOS A LOS SERVICIOS DE CARÁCTER COMUNAL O INDUSTRIAL SOBRE LAS FUENTES DE ENERGÍA, LA SEÑALIZACIÓN, EL ALUMBRADO PÚBLICO, LAS ILUMINACIONES MONUMENTALES Y LOS EDIFICIOS DE PROPIEDAD MUNICIPAL. B) EL MANTENIMIENTO DE CUALQUIER INSTALACIÓN, YA SEA INDUSTRIAL O TERCIARIA. C) LA GESTIÓN DE LOS CONSUMOS ENERGÉTICOS, TANTO DE INSTALACIONES INDUSTRIALES COMO DE SERVICIOS. D) LA REALIZACIÓN DE CUALQUIER TIPO DE ESTUDIO, PROYECTOS, ANTEPROYECTOS, DISEÑOS DE ELEMENTOS, DISEÑO DE ILUMINACIONES ESPECIALES, REALIZACIÓN DE ESPECTÁCULOS Y PLANES DIRECTORES. E) LA DISTRIBUCIÓN DE MATERIAL ELÉCTRICO O ELECTRÓNICO. F) ASESORAR A LA INDUSTRIA DEL MANTENIMIENTO EN LA GESTIÓN DE LA INFORMACIÓN MEDIANTE EL DISEÑO E IMPLANTACIÓN DE SOLUCIONES PRÁCTICAS PARA LA OPERACIÓN Y LA GESTIÓN DE SUS CONTRATOS, CON LA PRESTACIÓN DE LA SIGUIENTE GAMA DE SERVICIOS:-CONSULTORÍA DE ORGANIZACIÓN, -DISEÑO CONCEPTUAL E IMPLANTACIÓN DE PROCEDIMIENTOS DE TRABAJO OPERATIVOS, -SELECCIÓN, COMPRA E INSTALACIÓN DE HARDWARE, -DISTRIBUCIÓN E INSTALACIÓN DE SOFTWARE DE GESTIÓN DEL MANTENIMIENTO, -FORMACIÓN EN EL USO Y EXPLOTACIÓN DE LOS SISTEMAS DE GESTIÓN DEL MANTENIMIENTO, -REALIZACIÓN FÍSICA Y LÓGICA DE INVENTARIOS DE RED, -ACTUALIZACIÓN DE INVENTARIOS PREEXISTENTES, -MANTENIMIENTO Y AUDITORIAS DE USO DEL SOFTWARE DE GESTIÓN DE MANTENIMIENTO. G) LA PRODUCCIÓN, VENTA Y DISTRIBUCIÓN DE ENERGÍA ELÉCTRICA, ESPECIALMENTE LA OBTENIDA A PARTIR DE FUENTES DE ENERGÍA RENOVABLES Y NO CONTAMINANTES. H) LA CONSTRUCCIÓN, CONSERVACIÓN Y REPARACIÓN DE OBRAS CIVILES. I) CONSTRUCCIÓN, REFORMAS Y MANTENIMIENTO DE JARDINERÍA. J) PRESTACIÓN DE SERVICIOS RELATIVOS A LA ELIMINACIÓN DE RESIDUOS, LIMPIEZA Y SANEAMIENTO. K) DISEÑO, COMPRA Y VENTA DE MAQUINARIA, HERRAMIENTAS, MOBILIARIO Y EQUIPAMIENTO URBANO Y SEÑALIZACIÓN EN POBLACIONES Y VÍAS INTERURBANAS DE COMUNICACIÓN. L) COMPRA, VENTA, EXPLOTACIÓN Y CESIÓN DE PATENTES, MODELOS, MARCAS, LICENCIAS Y DEMÁS MODALIDADES DE PROPIEDAD INDUSTRIAL O INTELECTUAL. M) DISEÑO, EXPLOTACIÓN Y COMERCIALIZACIÓN DE PLANTAS E INSTALACIONES DE TRATAMIENTO Y DEPURACIÓN DE AGUAS, RECUPERACIÓN Y ELIMINACIÓN DE RESIDUOS. N) INTERMEDIACIÓN EN LA PRESTACIÓN DE SERVICIOS DE INGENIERÍA. Ñ) INSTALACIÓN Y MONTAJES ELÉCTRICOS Y ELECTRÓNICOS Y DE TELECOMUNICACIONES. O) SERVICIOS ENERGÉTICOS. P) ADQUISICIÓN,  CONSTRUCCIÓN, COMERCIALIZACIÓN, EXPLOTACIÓN DE TODO TIPO  DE INMUEBLES, INCLUIDOS PISOS, LOCALES, NAVES O  TERRENOS INDUSTRIALES O FINCAS RÚSTICAS,  EXCLUYENDO  EXPRESAMENTE EL ARRENDAMIENTO FINANCIERO ACTIVO DE INMUEBLES",
      "mainEntityOfPage": "https://www.contratacion.euskadi.eus/webkpe00-kperoc/es/ac71aBusquedaRegistrosWar/empresa/07553",
      "_links": {
        "self": {
          "name": "CITELUM IBERICA, S.A.",
          "href": "https://api.euskadi.eus/procurements/companies/07553"
        }
      }
    },
    {
      "name": "WACREES, S.A.",
      "registrationNumber": "02923",
      "identificationNumber": "A79937926",
      "address": "C/ CRONOS, 63 - 3º OFICINA 5",
      "location": {
        "postalCode": "28037",
        "municipality": "Madrid",
        "county": "Madrid",
        "municipalityId": "079",
        "countyId": "28"
      },
      "economicActivities": [
        {
          "id": "1.659.3",
          "name": "Venta al por menor de aparatos médicos, ortopédicos, ópticos y fotográficos",
          "_links": {
            "self": {
              "name": "Venta al por menor de aparatos médicos, ortopédicos, ópticos y fotográficos",
              "href": "https://api.euskadi.eus/procurements/companies/economic-activities/1.659.3"
            }
          }
        }
      ],
      "certificateStartDate": "2021-03-12",
      "certificateEndDate": "2021-09-07",
      "object": "LA DISTRIBUCIÓN, FABRICACIÓN, IMPORTACIÓN, EXPORTACIÓN, COMPRAVENTA Y COMERCIALIZACIÓN DE TODO TIPO DE INSTRUMENTOS Y MATERIAL MÉDICO-QUIRÚRGICO Y SANITARIO, ASÍ COMO LA REPRESENTACIÓN A LOS MISMOS FINES, DE EMPRESAS NACIONALES O EXTRANJERAS",
      "mainEntityOfPage": "https://www.contratacion.euskadi.eus/webkpe00-kperoc/es/ac71aBusquedaRegistrosWar/empresa/02923",
      "_links": {
        "self": {
          "name": "WACREES, S.A.",
          "href": "https://api.euskadi.eus/procurements/companies/02923"
        }
      }
    },
    {
      "name": "BASEFORM SOFTWARE, S.L.",
      "registrationNumber": "07549",
      "identificationNumber": "B40660102",
      "address": "Avda. de las Cortes Valencianas, 43 Esc. B Oficina C-2",
      "location": {
        "postalCode": "46015",
        "municipality": "València",
        "county": "Valencia/València",
        "municipalityId": "250",
        "countyId": "46"
      },
      "economicActivities": [
        {
          "id": "1.845",
          "name": "Explotación electrónica por cuenta de terceros",
          "_links": {
            "self": {
              "name": "Explotación electrónica por cuenta de terceros",
              "href": "https://api.euskadi.eus/procurements/companies/economic-activities/1.845"
            }
          }
        }
      ],
      "certificateStartDate": "2021-03-12",
      "certificateEndDate": "2021-07-19",
      "object": "LA INVESTIGACIÓN, EL DESARROLLO, LA PRODUCCIÓN Y LA COMERCIALIZACIÓN DE SOFTWARE Y HARDWARE, Y DE PRESTACIÓN DE SERVICIOS DE INGENIERÍA E INFORMÁTICA, ASÍ COMO CUALQUIER OTRA ACTIVIDAD O SERVICIO RELACIONADO Y/O COMPLEMENTARIO TANTO EN ESPAÑA COMO EN EL EXTRANJERO, SIENDO LA CALIFICACIÓN NACIONAL ACTIVIDADES ECONÓMICAS (CNAE) DE SU ACTIVIDAD PRINCIPAL LA NÚMERO 6209",
      "mainEntityOfPage": "https://www.contratacion.euskadi.eus/webkpe00-kperoc/es/ac71aBusquedaRegistrosWar/empresa/07549",
      "_links": {
        "self": {
          "name": "BASEFORM SOFTWARE, S.L.",
          "href": "https://api.euskadi.eus/procurements/companies/07549"
        }
      }
    },
    {
      "name": "AZUL MARINO VIAJES, S.L.",
      "registrationNumber": "05730",
      "identificationNumber": "B95860615",
      "address": "AYALA, 2",
      "location": {
        "postalCode": "48008",
        "municipality": "Bilbao",
        "county": "Bizkaia",
        "municipalityId": "020",
        "countyId": "48"
      },
      "economicActivities": [
        {
          "id": "1.755",
          "name": "Agencias de viajes",
          "_links": {
            "self": {
              "name": "Agencias de viajes",
              "href": "https://api.euskadi.eus/procurements/companies/economic-activities/1.755"
            }
          }
        }
      ],
      "certificateStartDate": "2021-03-11",
      "certificateEndDate": "2021-08-03",
      "object": "EL DESARROLLO DE TODO TIPO DE ACTIVIDADES QUE CORRESPONDEN A LAS AGENCIAS DE VIAJES",
      "mainEntityOfPage": "https://www.contratacion.euskadi.eus/webkpe00-kperoc/es/ac71aBusquedaRegistrosWar/empresa/05730",
      "_links": {
        "self": {
          "name": "AZUL MARINO VIAJES, S.L.",
          "href": "https://api.euskadi.eus/procurements/companies/05730"
        }
      }
    },
    {
      "name": "BLUSPECS, S.L.",
      "registrationNumber": "07252",
      "identificationNumber": "B88196951",
      "address": "Moscatelar 1N",
      "location": {
        "postalCode": "28043",
        "municipality": "Madrid",
        "county": "Madrid",
        "municipalityId": "079",
        "countyId": "28"
      },
      "economicActivities": [
        {
          "id": "1.849.9",
          "name": "Otros servicios independientes n.c.o.p",
          "_links": {
            "self": {
              "name": "Otros servicios independientes n.c.o.p",
              "href": "https://api.euskadi.eus/procurements/companies/economic-activities/1.849.9"
            }
          }
        }
      ],
      "certificateStartDate": "2021-03-11",
      "certificateEndDate": "2021-09-08",
      "object": "LA PRESTACIÓN DE SERVICIOS DE APOYO A LA INNOVACIÓN ESTRATÉGICO DE ENTIDADES PÚBLICAS O PRIVADAS, TANTO DE ÁMBITO NACIONAL COMO INTERNACIONAL ",
      "mainEntityOfPage": "https://www.contratacion.euskadi.eus/webkpe00-kperoc/es/ac71aBusquedaRegistrosWar/empresa/07252",
      "_links": {
        "self": {
          "name": "BLUSPECS, S.L.",
          "href": "https://api.euskadi.eus/procurements/companies/07252"
        }
      }
    },
    {
      "name": "ISABELLA PREMIUN, S.L.",
      "registrationNumber": "07544",
      "identificationNumber": "B93639128",
      "address": "Parque Empresarial 18",
      "location": {
        "postalCode": "29110",
        "municipality": "Monda",
        "county": "Málaga",
        "municipalityId": "073",
        "countyId": "29"
      },
      "economicActivities": [
        {
          "id": "1.615.2",
          "name": "Venta al por mayor de muebles",
          "_links": {
            "self": {
              "name": "Venta al por mayor de muebles",
              "href": "https://api.euskadi.eus/procurements/companies/economic-activities/1.615.2"
            }
          }
        }
      ],
      "certificateStartDate": "2021-03-11",
      "certificateEndDate": "2021-08-08",
      "object": "LA COMPRAVENTA Y COMERCIALIZACIÓN DE TODO TIPO DE MATERIAL PARA HOSTELERÍA, ASÍ COMO LA IMPORTACIÓN Y EXPORTACIÓN DE DICHO MATERIAL. CNAE DE LA ACTIVIDAD PRINCIPAL 4615. INTERMEDIARIOS DEL COMERCIO DE MUEBLES, ARTÍCULOS PARA EL HOGAR Y FERRETERÍA",
      "mainEntityOfPage": "https://www.contratacion.euskadi.eus/webkpe00-kperoc/es/ac71aBusquedaRegistrosWar/empresa/07544",
      "_links": {
        "self": {
          "name": "ISABELLA PREMIUN, S.L.",
          "href": "https://api.euskadi.eus/procurements/companies/07544"
        }
      }
    }
  ]
}