{
  "totalItems": 9042,
  "totalPages": 905,
  "currentPage": 323,
  "itemsOfPage": 10,
  "items": [
    {
      "name": "ARKAIZPEGURRAK, S.L.",
      "registrationNumber": "08205",
      "identificationNumber": "B75007203",
      "address": "SANTA MARINA, 8",
      "location": {
        "postalCode": "20495",
        "municipality": "Albiztur",
        "county": "Gipuzkoa",
        "municipalityId": "004",
        "countyId": "20"
      },
      "economicActivities": [
        {
          "id": "1.464.1",
          "name": "Envases y embalajes industriales de madera",
          "_links": {
            "self": {
              "name": "Envases y embalajes industriales de madera",
              "href": "https://api.euskadi.eus/procurements/companies/economic-activities/1.464.1"
            }
          }
        },
        {
          "id": "1.617.3",
          "name": "Venta al por mayor de madera y corcho",
          "_links": {
            "self": {
              "name": "Venta al por mayor de madera y corcho",
              "href": "https://api.euskadi.eus/procurements/companies/economic-activities/1.617.3"
            }
          }
        },
        {
          "id": "1.619.4",
          "name": "Venta al por mayor de productos de papel y cartón",
          "_links": {
            "self": {
              "name": "Venta al por mayor de productos de papel y cartón",
              "href": "https://api.euskadi.eus/procurements/companies/economic-activities/1.619.4"
            }
          }
        }
      ],
      "certificateStartDate": "2025-08-22",
      "certificateEndDate": "2026-02-22",
      "object": "EL COMERCIO AL POR MAYOR DE MADERA Y CORCHO, INCLUYENDO EL COMERCIO AL POR MAYOR DE MADERA, MADERA DEVASTADA, LISTONES, TABLEROS Y OTROS PRODUCTOS SEMIELABORADOS DE MADERA Y MADERA ARTIFICIAL, CORCHO, RESINAS Y OTROS PRODUCTOS FORESTALES, ASÍ COMO EL COMERCIO AL POR MAYOR DE CARPINTERÍA Y ARTÍCULOS DE MADERA PARA LA CONSTRUCCIÓN Y DE TONELERÍA Y OTROS ENVASES Y EMBALAJES.",
      "mainEntityOfPage": "https://www.contratacion.euskadi.eus/webkpe00-kperoc/es/ac71aBusquedaRegistrosWar/empresa/08205",
      "_links": {
        "self": {
          "name": "ARKAIZPEGURRAK, S.L.",
          "href": "https://api.euskadi.eus/procurements/companies/08205"
        }
      }
    },
    {
      "name": "CONSTRUCCIONES Y REHABILITACIONES JITEX, S.L.",
      "registrationNumber": "10066",
      "identificationNumber": "B01563089",
      "address": "C/ REYES DE NAVARRA Nº30 BJ 01",
      "location": {
        "postalCode": "01013",
        "municipality": "Vitoria-Gasteiz",
        "county": "Araba/Álava",
        "municipalityId": "059",
        "countyId": "01"
      },
      "economicActivities": [
        {
          "id": "1.501.1",
          "name": "Construcción completa, reparación y conservación de edificaciones",
          "_links": {
            "self": {
              "name": "Construcción completa, reparación y conservación de edificaciones",
              "href": "https://api.euskadi.eus/procurements/companies/economic-activities/1.501.1"
            }
          }
        },
        {
          "id": "1.501.3",
          "name": "Albañilería y pequeños trabajos de construcción en general",
          "_links": {
            "self": {
              "name": "Albañilería y pequeños trabajos de construcción en general",
              "href": "https://api.euskadi.eus/procurements/companies/economic-activities/1.501.3"
            }
          }
        },
        {
          "id": "1.505.1",
          "name": "Revestimientos exteriores e interiores de todas clases",
          "_links": {
            "self": {
              "name": "Revestimientos exteriores e interiores de todas clases",
              "href": "https://api.euskadi.eus/procurements/companies/economic-activities/1.505.1"
            }
          }
        }
      ],
      "certificateStartDate": "2025-08-22",
      "certificateEndDate": "2026-02-22",
      "object": "TRABAJOS DE ALBAÑILERÍA, REHABILITACIÓN DE CUBIERTAS Y CUBRICIONES EN EDIFICACIONES, CANALES Y RESTAURACIÓN INTEGRAL DE EDIFICIOS. CNAE 43.39.",
      "mainEntityOfPage": "https://www.contratacion.euskadi.eus/webkpe00-kperoc/es/ac71aBusquedaRegistrosWar/empresa/10066",
      "_links": {
        "self": {
          "name": "CONSTRUCCIONES Y REHABILITACIONES JITEX, S.L.",
          "href": "https://api.euskadi.eus/procurements/companies/10066"
        }
      }
    },
    {
      "name": "MOYALE, S.A.",
      "registrationNumber": "02048",
      "identificationNumber": "A01006501",
      "address": "C/ PORTAL DE BETOÑO, Nº 2 - 4.",
      "location": {
        "postalCode": "01002",
        "municipality": "Vitoria-Gasteiz",
        "county": "Araba/Álava",
        "municipalityId": "059",
        "countyId": "01"
      },
      "economicActivities": [
        {
          "id": "1.504.1",
          "name": "Instalaciones eléctricas en general",
          "_links": {
            "self": {
              "name": "Instalaciones eléctricas en general",
              "href": "https://api.euskadi.eus/procurements/companies/economic-activities/1.504.1"
            }
          }
        },
        {
          "id": "1.617.9",
          "name": "Venta al por mayor interindustrial de otros productos n.c.o.p",
          "_links": {
            "self": {
              "name": "Venta al por mayor interindustrial de otros productos n.c.o.p",
              "href": "https://api.euskadi.eus/procurements/companies/economic-activities/1.617.9"
            }
          }
        }
      ],
      "certificateStartDate": "2025-08-22",
      "certificateEndDate": "2026-02-21",
      "object": "a) FABRICACIÓN, EJECUCIÓN Y MANTENIMIENTO DE TODA CLASE DE MONTAJES E INSTALACIONES ELÉCTRICAS EN GENERAL, EN ALTA, BAJA Y MEDIA TENSIÓN, TELECOMUNICACIÓN, ELECTRÓNICAS, SISTEMAS DE SEÑALIZACIÓN Y BALIZAMIENTOS DE PUERTOS, AEROPUERTOS, CARRETERAS Y SEGURIDAD Y CONTRA INCENDIOS. b) FABRICACIÓN, EJECUCIÓN Y MANTENIMIENTO DE INSTALACIONES MECÁNICAS EN GENERAL, DE FONTANERÍA, FRIGORÍFICAS, DE CALEFACCIÓN, VENTILACIÓN Y CLIMATIZACIÓN, ASÍ COMO INSTALACIONES ELEVADORAS Y TRANSPORTADORAS Y TRATAMIENTO DE AGUAS DE TODO TIPO. c) COMERCIO TANTO AL POR MAYOR COMO AL POR MENOR, DE MATERIALES Y OBJETOS DE TODAS CLASES PARA INSTALACIONES RELACIONADOS CON LOS APARTADOS a) Y b), NO SÓLO DE USO DOMÉSTICO SINO TAMBIÉN DE USO INDUSTRIAL O DE CUALQUIER OTRO. d) PROMOCIÓN, CONSTRUCCIÓN, REPARACIÓN Y CONSERVACIÓN DE EDIFICACIONES Y OBRAS CIVILES Y EN GENERAL TODO TIPO DE OBRAS. e) REALIZACIÓN DE ESTUDIOS E INFORMES, REDACCIÓN Y CONFECCIÓN DE PROYECTOS TÉCNICOS, DIRECCIÓN DE OBRA Y CONTROL DE CALIDAD, ASÍ COMO ASESORAMIENTO TÉCNICO, SOBRE TODAS LAS ACTIVIDADES QUE DESARROLLA. f) CONTRATACIÓN DE OBRAS Y SERVICIOS CON CUALQUIER ORGANISMO DE LAS ADMINISTRACIONES PÚBLICAS Y TODA CLASE DE ENTIDADES ASÍ COMO CON PARTICULARES. g) PLANTACIÓN, REPOBLACIÓN, DEFORESTACIÓN, MANTENIMIENTO ASÍ COMO TALA Y ENTRESACA DE EXPLOTACIONES FORESTALES, PARQUES Y JARDINES. h) LUCHA CONTRA PLAGAS Y LA DEFENSA Y PREVENCIÓN CONTRA INCENDIOS FORESTALES. i) TODAS LAS ACTIVIDADES QUE INTEGRAN EL OBJETO SOCIAL, DESCRITO EN LOS APARTADOS ANTERIORES, PODRÁN DESARROLLARSE TANTO EN ESPAÑA COMO EN EL EXTRANJERO, PUDIENDO SER DESARROLLADAS POR LA SOCIEDAD TOTAL O PARCIALMENTE DE MODO DIRECTO O MEDIANTE SU PARTICIPACIÓN EN OTRAS SOCIEDADES O ENTIDADES CON O SIN PERSONALIDAD JURÍDICA\n",
      "mainEntityOfPage": "https://www.contratacion.euskadi.eus/webkpe00-kperoc/es/ac71aBusquedaRegistrosWar/empresa/02048",
      "_links": {
        "self": {
          "name": "MOYALE, S.A.",
          "href": "https://api.euskadi.eus/procurements/companies/02048"
        }
      }
    },
    {
      "name": "SEYPREL, S.L.",
      "registrationNumber": "09720",
      "identificationNumber": "B56778228",
      "address": "Paseo Ubarburu",
      "location": {
        "postalCode": "20014",
        "municipality": "Donostia / San Sebastián",
        "county": "Gipuzkoa",
        "municipalityId": "069",
        "countyId": "20"
      },
      "economicActivities": [
        {
          "id": "1.613.3",
          "name": "Venta al por mayor de prendas exteriores de vestir",
          "_links": {
            "self": {
              "name": "Venta al por mayor de prendas exteriores de vestir",
              "href": "https://api.euskadi.eus/procurements/companies/economic-activities/1.613.3"
            }
          }
        }
      ],
      "certificateStartDate": "2025-08-22",
      "certificateEndDate": "2026-02-21",
      "object": "LA COMERCIALIZACIÓN Y DISTRIBUCIÓN DE PRODUCTOS Y MATERIALES RELACIONADOS CON LA SEGURIDAD Y PRECAUCIÓN LABORAL Y EL ASESORAMIENTO TÉCNICO EN MATERIA DE SEGURIDAD LABORAL PARA APLICACIONES EN INDUSTRIAS DE CUALQUIER TIPO.",
      "mainEntityOfPage": "https://www.contratacion.euskadi.eus/webkpe00-kperoc/es/ac71aBusquedaRegistrosWar/empresa/09720",
      "_links": {
        "self": {
          "name": "SEYPREL, S.L.",
          "href": "https://api.euskadi.eus/procurements/companies/09720"
        }
      }
    },
    {
      "name": "AURMAN, S.A.",
      "registrationNumber": "00214",
      "identificationNumber": "A48035802",
      "address": "C/ ALAMEDA MAZARREDO, Nº 5 - 4º.",
      "location": {
        "postalCode": "48001",
        "municipality": "Bilbao",
        "county": "Bizkaia",
        "municipalityId": "020",
        "countyId": "48"
      },
      "economicActivities": [
        {
          "id": "1.844",
          "name": "Servicios de publicidad, relaciones públicas y similares",
          "_links": {
            "self": {
              "name": "Servicios de publicidad, relaciones públicas y similares",
              "href": "https://api.euskadi.eus/procurements/companies/economic-activities/1.844"
            }
          }
        }
      ],
      "certificateStartDate": "2025-08-22",
      "certificateEndDate": "2026-02-21",
      "object": "DISEÑO GRÁFICO, CREACIÓN, COORDINACIÓN, PROYECCIÓN, REALIZACIÓN, EJECUCIÓN, TRAMITACIÓN, PUBLICACIÓN Y DISTRIBUCIÓN, POR CUENTA PROPIA O DE TERCEROS, DE CAMPAÑAS Y PROMOCIONES DE PUBLICIDAD, A TRAVÉS DE CUALQUIER MEDIO Y/O SOPORTE DE DIFUSIÓN Y COMUNICACIÓN, Y/O EL EJERCICIO EN GENERAL DE ACTIVIDADES PUBLICITARIAS O PROPIAS DE LAS AGENCIAS DE PUBLICIDAD, EN TODAS SUS RAMAS, CLASES Y ÁMBITOS. LA REALIZACIÓN DE ACTIVIDADES DE AGENCIA E INTERMEDIACIÓN COMERCIAL, ASÍ COMO DE CONSULTORÍA Y DE GESTIÓN EMPRESARIAL EN CUALQUIER TIPO DE SECTOR Y ESPECIALMENTE, EN EL SECTOR DE LA PUBLICIDAD, EL MARKETING, EL MERCHANDISING Y LOS ENTORNOS DIGITALES. LA CREACIÓN O UTILIZACIÓN DE HERRAMIENTAS PERSONALIZADAS DE MARKETING PARA REALIZACIÓN Y EJECUCIÓN DE TODO TIPO DE PROYECTOS PUBLICITARIOS Y LAS TAREAS RELACIONADAS CON LA CONTRATACIÓN, INTERMEDIACIÓN, Y DIFUSIÓN DE MENSAJES PUBLICITARIOS EN CUALQUIERA DE SUS MODALIDADES POSIBLES, A TRAVÉS DE CUALQUIER MEDIO DE DIFUSIÓN O COMUNICACIÓN SOCIAL. REPRODUCCIÓN DE TEXTOS O IMÁGENES DESTINADOS A LA IMPRESIÓN, COMPOSICIÓN E IMPRESIÓN DE TEXTOS O IMÁGENES POR CUALQUIER PROCEDIMIENTO O SISTEMA, LABORATORIO FOTOGRÁFICO Y CINEMATOGRÁFICO. LA IMPRESIÓN MEDIANTE TODO TIPO DE TÉCNICAS Y EN ESPECIAL, LA IMPRESIÓN DIGITAL DE PEQUEÑO Y GRAN FORMATO POR CUALQUIER PROCEDIMIENTO O SISTEMA Y EN CUALQUIER TIPO DE MATERIAL COMO LO SON LAS LONAS PUBLICITARIAS, VALLAS, RÓTULOS, CARTELERÍA Y EN GENERAL, TODO TIPO DE MATERIAL SUSCEPTIBLE DE SOPORTAR LAS TÉCNICAS DE IMPRESIÓN, ASÍ COMO LA INSTALACIÓN O COLOCACIÓN DE LOS RESULTADOS OBTENIDOS CON DICHAS TÉCNICAS. LA CREACIÓN, ADQUISICIÓN, COMERCIALIZACIÓN Y EXPLOTACIÓN EN CUALQUIER FORMA, DIRECTA O INDIRECTAMENTE, DE MARCAS, PATENTES Y CUALQUIER OTRO TIPO DE DERECHOS DE PROPIEDAD INDUSTRIAL, INTELECTUAL O DE IMAGEN, ASÍ COMO DE CUALESQUIERA OBJETOS, MODELOS O MÉTODOS SUSCEPTIBLES DE SERVIR SOPORTE PARA LA EXPLOTACIÓN DE LOS DERECHOS ANTERIORES. ACTIVIDAD DE ENSEÑANZA Y FORMACIÓN DE PERSONAL, IMPARTIENDO CURSOS DE FORMACIÓN TÉCNICA Y RECICLAJE PROFESIONAL. LA COMPRA, VENTA, IMPORTACIÓN, EXPORTACIÓN, ALQUILER Y REPARACIÓN DE MAQUINARIA Y ACCESORIOS PARA LA IMPRENTA Y COPISTERÍA EN GENERAL. LA TENENCIA, ADQUISICIÓN Y ENAJENACIÓN DE TODA CLASE DE VALORES MOBILIARIOS, TANTO NACIONALES COMO EXTRANJEROS, CON LAS EXCEPCIONES Y LIMITACIONES ESTABLECIDAS POR LA LEY DEL MERCADO DE VALORES Y DE INSTITUCIONES DE INVERSIÓN COLECTIVA. LA ADQUISICIÓN, PROMOCIÓN, EXPLOTACIÓN, REHABILITACIÓN, ALQUILER, GESTIÓN, ADMINISTRACIÓN Y TRANSMISIÓN DE INMUEBLES RÚSTICOS O URBANOS, POR CUALQUIER TÍTULO, YA SEAN EN SU TOTALIDAD O EN PARTE, TANTO EN ESPAÑA COMO EN EL EXTRANJERO.\n\n\n \n",
      "mainEntityOfPage": "https://www.contratacion.euskadi.eus/webkpe00-kperoc/es/ac71aBusquedaRegistrosWar/empresa/00214",
      "_links": {
        "self": {
          "name": "AURMAN, S.A.",
          "href": "https://api.euskadi.eus/procurements/companies/00214"
        }
      }
    },
    {
      "name": "MUTUALIA, MUTUA COLABORADORA CON LA SEGURIDAD SOCIAL Nº 2",
      "registrationNumber": "03360",
      "identificationNumber": "G95471165",
      "address": "Paseo Miraconcha Nº 7",
      "location": {
        "postalCode": "20007",
        "municipality": "Donostia / San Sebastián",
        "county": "Gipuzkoa",
        "municipalityId": "069",
        "countyId": "20"
      },
      "economicActivities": [
        {
          "id": "1.823",
          "name": "Otras entidades aseguradoras (montepíos, cajas de pensiones)",
          "_links": {
            "self": {
              "name": "Otras entidades aseguradoras (montepíos, cajas de pensiones)",
              "href": "https://api.euskadi.eus/procurements/companies/economic-activities/1.823"
            }
          }
        },
        {
          "id": "1.941.1",
          "name": "Hospitales generales",
          "_links": {
            "self": {
              "name": "Hospitales generales",
              "href": "https://api.euskadi.eus/procurements/companies/economic-activities/1.941.1"
            }
          }
        },
        {
          "id": "1.942.9",
          "name": "Otros servicios sanitarios sin internados, no clasificados",
          "_links": {
            "self": {
              "name": "Otros servicios sanitarios sin internados, no clasificados",
              "href": "https://api.euskadi.eus/procurements/companies/economic-activities/1.942.9"
            }
          }
        }
      ],
      "certificateStartDate": "2025-08-22",
      "certificateEndDate": "2026-02-20",
      "object": "EL DESARROLLO, MEDIANTE LA COLABORACIÓN CON EL MINISTERIO DE INCLUSIÓN, SEGURIDAD SOCIAL Y MIGRACIONES, DE LAS SIGUIENTES ACTIVIDADES DE LA SEGURIDAD SOCIAL: A) LA GESTIÓN DE PRESTACIONOES ECONÓMICAS Y DE LA ASISTENCIA SANITARIA, INCLUÍDA LA REHABILITACIÓN, COMPRENDIDAS EN LA PROTECCIÓN DE LS CONTINGENCIAS DE ACCIDENTES DE TRABAJO Y ENFERMEDADES PROFESIONALES DE LA SEGURIDAD SOCIAL, ASÍ COMO DE LAS ACTIVIDADES DE PREVENCIÓN DE LAS MISMAS CONTINGENCIAS QUE DISPENSA LA ACCIÓN PROTECTORA. B) LA GESTIÓN DE LA PRESTACIÓN ECONÓMICA POR INCAPACIDAD TEMPORAL DERIVADA DE CONTINGENCIAS COMUNES. C) LA GESTIÓN DE LAS PRESTACIONES POR RIESGO DURANTE EL EMBARAZO Y RIESGO DURANTE LA LACTANCIA NATURAL. D) LA GESTIÓN DE LAS PRESTACIONES ECONÓMICAS POR CESE EN LA ACTIVIDAD DE LAS Y LOS TRABAJADORES POR CUENTA PROPIA, EN LOS TÉRMINOS ESTABLECIDOS ENN EL TÍTULO V. E) LA GESTIÓN DE LA PRESTACIÓN POR CUIDADO DE MENORES AFECTADOS POR CÁNCER U OTRA ENFERMEDAD GRAVE. F) LAS DEMÁS ACTIVIDADES DE LA SEGURIDAD SOCIAL QUE LES SEAN ATRIBUÍDAS LEGALMENTE.",
      "mainEntityOfPage": "https://www.contratacion.euskadi.eus/webkpe00-kperoc/es/ac71aBusquedaRegistrosWar/empresa/03360",
      "_links": {
        "self": {
          "name": "MUTUALIA, MUTUA COLABORADORA CON LA SEGURIDAD SOCIAL Nº 2",
          "href": "https://api.euskadi.eus/procurements/companies/03360"
        }
      }
    },
    {
      "name": "EKITERMIK, S. COOP. PEQUEÑA",
      "registrationNumber": "06986",
      "identificationNumber": "F75034942",
      "address": "GOIRU KALEA 1-B PLANTA 1º",
      "location": {
        "postalCode": "20500",
        "municipality": "Arrasate / Mondragón",
        "county": "Gipuzkoa",
        "municipalityId": "055",
        "countyId": "20"
      },
      "economicActivities": [
        {
          "id": "1.501.3",
          "name": "Albañilería y pequeños trabajos de construcción en general",
          "_links": {
            "self": {
              "name": "Albañilería y pequeños trabajos de construcción en general",
              "href": "https://api.euskadi.eus/procurements/companies/economic-activities/1.501.3"
            }
          }
        },
        {
          "id": "1.504.1",
          "name": "Instalaciones eléctricas en general",
          "_links": {
            "self": {
              "name": "Instalaciones eléctricas en general",
              "href": "https://api.euskadi.eus/procurements/companies/economic-activities/1.504.1"
            }
          }
        },
        {
          "id": "1.619.9",
          "name": "Venta al por mayor de otros productos n.c.o.p",
          "_links": {
            "self": {
              "name": "Venta al por mayor de otros productos n.c.o.p",
              "href": "https://api.euskadi.eus/procurements/companies/economic-activities/1.619.9"
            }
          }
        },
        {
          "id": "1.833.2",
          "name": "Promoción de edificaciones",
          "_links": {
            "self": {
              "name": "Promoción de edificaciones",
              "href": "https://api.euskadi.eus/procurements/companies/economic-activities/1.833.2"
            }
          }
        },
        {
          "id": "1.843.1",
          "name": "Servicios técnicos de ingeniería",
          "_links": {
            "self": {
              "name": "Servicios técnicos de ingeniería",
              "href": "https://api.euskadi.eus/procurements/companies/economic-activities/1.843.1"
            }
          }
        }
      ],
      "certificateStartDate": "2025-08-21",
      "certificateEndDate": "2026-02-21",
      "object": "LA PRESTACIÓN DE SERVICIOS DE INGENIERÍA ENERGÉTICA EN EL SECTOR INDUSTRIAL Y RESIDENCIAL, REALIZANDO LABORES DE INGENIERÍA EN EFICIENCIA ENERGÉTICA Y ENERGÍAS RENOVABLES, ADEMÁS DE INSTALACIONES Y FORMACIÓN EN EL ÁMBITO DE LA ENERGÍA.",
      "mainEntityOfPage": "https://www.contratacion.euskadi.eus/webkpe00-kperoc/es/ac71aBusquedaRegistrosWar/empresa/06986",
      "_links": {
        "self": {
          "name": "EKITERMIK, S. COOP. PEQUEÑA",
          "href": "https://api.euskadi.eus/procurements/companies/06986"
        }
      }
    },
    {
      "name": "CONSTRUCCIONES HUGAR, S.L.",
      "registrationNumber": "04355",
      "identificationNumber": "B20142311",
      "address": "Zuatzu Kalea, 1, Edificio Ulia, planta 1, oficina 3",
      "location": {
        "postalCode": "20018",
        "municipality": "Donostia / San Sebastián",
        "county": "Gipuzkoa",
        "municipalityId": "069",
        "countyId": "20"
      },
      "economicActivities": [
        {
          "id": "1.501.1",
          "name": "Construcción completa, reparación y conservación de edificaciones",
          "_links": {
            "self": {
              "name": "Construcción completa, reparación y conservación de edificaciones",
              "href": "https://api.euskadi.eus/procurements/companies/economic-activities/1.501.1"
            }
          }
        }
      ],
      "certificateStartDate": "2025-08-21",
      "certificateEndDate": "2026-02-10",
      "object": "LA ACTIVIDAD DE CONSTRUCCIÓN DE EDIFICIOS Y OBRAS DE TODAS CLASES.",
      "mainEntityOfPage": "https://www.contratacion.euskadi.eus/webkpe00-kperoc/es/ac71aBusquedaRegistrosWar/empresa/04355",
      "_links": {
        "self": {
          "name": "CONSTRUCCIONES HUGAR, S.L.",
          "href": "https://api.euskadi.eus/procurements/companies/04355"
        }
      }
    },
    {
      "name": "PRECIADO PRODUCTOS PARA PANADERIA, S.L.",
      "registrationNumber": "08982",
      "identificationNumber": "B26510842",
      "address": "BEATO TOMAS DE ZUMARRAGA, 067,2",
      "location": {
        "postalCode": "01008",
        "municipality": "Vitoria-Gasteiz",
        "county": "Araba/Álava",
        "municipalityId": "059",
        "countyId": "01"
      },
      "economicActivities": [
        {
          "id": "1.612.2",
          "name": "Venta al por mayor de cereales",
          "_links": {
            "self": {
              "name": "Venta al por mayor de cereales",
              "href": "https://api.euskadi.eus/procurements/companies/economic-activities/1.612.2"
            }
          }
        }
      ],
      "certificateStartDate": "2025-08-21",
      "certificateEndDate": "2026-02-21",
      "object": "EL COMERCIO MAYOR Y MENOR DE MATERIAS PRIMAS, PRODUCTOS ALIMENTICIOS Y MAQUINARIA PARA PANADERÍA Y PASTELERÍA, CUYO CNAE ES EL SIGUIENTE: 4621 &quot;COMERCIO MAYOR DE CEREALES&quot;.",
      "mainEntityOfPage": "https://www.contratacion.euskadi.eus/webkpe00-kperoc/es/ac71aBusquedaRegistrosWar/empresa/08982",
      "_links": {
        "self": {
          "name": "PRECIADO PRODUCTOS PARA PANADERIA, S.L.",
          "href": "https://api.euskadi.eus/procurements/companies/08982"
        }
      }
    },
    {
      "name": "DIGITAL MOBILES, S.L.",
      "registrationNumber": "02518",
      "identificationNumber": "B20189817",
      "address": "INDUSTRIALDEA  PABELLÓN 16",
      "location": {
        "postalCode": "20160",
        "municipality": "Lasarte-Oria",
        "county": "Gipuzkoa",
        "municipalityId": "902",
        "countyId": "20"
      },
      "economicActivities": [
        {
          "id": "1.843.9",
          "name": "Otros servicios técnicos n.c.o.p",
          "_links": {
            "self": {
              "name": "Otros servicios técnicos n.c.o.p",
              "href": "https://api.euskadi.eus/procurements/companies/economic-activities/1.843.9"
            }
          }
        },
        {
          "id": "1.844",
          "name": "Servicios de publicidad, relaciones públicas y similares",
          "_links": {
            "self": {
              "name": "Servicios de publicidad, relaciones públicas y similares",
              "href": "https://api.euskadi.eus/procurements/companies/economic-activities/1.844"
            }
          }
        },
        {
          "id": "1.961.1",
          "name": "Producción de películas cinematográficas (incluso vídeos)",
          "_links": {
            "self": {
              "name": "Producción de películas cinematográficas (incluso vídeos)",
              "href": "https://api.euskadi.eus/procurements/companies/economic-activities/1.961.1"
            }
          }
        },
        {
          "id": "1.989.2",
          "name": "Servicios de organización de congresos, asambleas y similares",
          "_links": {
            "self": {
              "name": "Servicios de organización de congresos, asambleas y similares",
              "href": "https://api.euskadi.eus/procurements/companies/economic-activities/1.989.2"
            }
          }
        }
      ],
      "certificateStartDate": "2025-08-21",
      "certificateEndDate": "2026-02-21",
      "object": "LA PRODUCCIÓN Y DISTRIBUCIÓN DE PELÍCULAS TANTO EN SOPORTE FILM COMO EN BANDA MAGNÉTICA, LA GRABACIÓN DE NOTICIAS Y REPORTAJES POR CUENTA PROPIA O COMO CORRESPONSAL DE CUALQUIER AGENCIA O MEDIO DE COMUNICACIÓN NACIONAL O EXTRANJERA Y LA REALIZACIÓN DE EFECTOS DIGITALES Y ESPECIALES DE VIDEO.",
      "mainEntityOfPage": "https://www.contratacion.euskadi.eus/webkpe00-kperoc/es/ac71aBusquedaRegistrosWar/empresa/02518",
      "_links": {
        "self": {
          "name": "DIGITAL MOBILES, S.L.",
          "href": "https://api.euskadi.eus/procurements/companies/02518"
        }
      }
    }
  ]
}