{
  "totalItems": 9042,
  "totalPages": 905,
  "currentPage": 198,
  "itemsOfPage": 10,
  "items": [
    {
      "name": "CONTENEDORES FELMAR SL",
      "registrationNumber": "08238",
      "identificationNumber": "B01056464",
      "address": "CAPELAMENDI 26",
      "location": {
        "postalCode": "01013",
        "municipality": "Vitoria-Gasteiz",
        "county": "Araba/Álava",
        "municipalityId": "059",
        "countyId": "01"
      },
      "economicActivities": [
        {
          "id": "1.623",
          "name": "Recuperación y comercio de residuos fuera de establecimiento permanente",
          "_links": {
            "self": {
              "name": "Recuperación y comercio de residuos fuera de establecimiento permanente",
              "href": "https://api.euskadi.eus/procurements/companies/economic-activities/1.623"
            }
          }
        },
        {
          "id": "1.722",
          "name": "Transporte de mercancías por carretera",
          "_links": {
            "self": {
              "name": "Transporte de mercancías por carretera",
              "href": "https://api.euskadi.eus/procurements/companies/economic-activities/1.722"
            }
          }
        },
        {
          "id": "1.921.2",
          "name": "Servicios de recogida de basuras y desechos",
          "_links": {
            "self": {
              "name": "Servicios de recogida de basuras y desechos",
              "href": "https://api.euskadi.eus/procurements/companies/economic-activities/1.921.2"
            }
          }
        }
      ],
      "certificateStartDate": "2025-10-23",
      "certificateEndDate": "2026-04-21",
      "object": "EL TRANSPORTE DE ESCOMBROS, BASURAS Y MATERIALES PARA LA CONSTRUCCIÓN EN CONTENEDORES.",
      "mainEntityOfPage": "https://www.contratacion.euskadi.eus/webkpe00-kperoc/es/ac71aBusquedaRegistrosWar/empresa/08238",
      "_links": {
        "self": {
          "name": "CONTENEDORES FELMAR SL",
          "href": "https://api.euskadi.eus/procurements/companies/08238"
        }
      }
    },
    {
      "name": "ARTES GRÁFICAS IRALA, S.L.",
      "registrationNumber": "04779",
      "identificationNumber": "B48709034",
      "address": "Andres Isasi 11, 1º",
      "location": {
        "postalCode": "48012",
        "municipality": "Bilbao",
        "county": "Bizkaia",
        "municipalityId": "020",
        "countyId": "48"
      },
      "economicActivities": [
        {
          "id": "1.474",
          "name": "Artes gráficas (impresión gráfica)",
          "_links": {
            "self": {
              "name": "Artes gráficas (impresión gráfica)",
              "href": "https://api.euskadi.eus/procurements/companies/economic-activities/1.474"
            }
          }
        }
      ],
      "certificateStartDate": "2025-10-23",
      "certificateEndDate": "2026-04-13",
      "object": "ARTES GRÁFICAS E IMPRESION",
      "mainEntityOfPage": "https://www.contratacion.euskadi.eus/webkpe00-kperoc/es/ac71aBusquedaRegistrosWar/empresa/04779",
      "_links": {
        "self": {
          "name": "ARTES GRÁFICAS IRALA, S.L.",
          "href": "https://api.euskadi.eus/procurements/companies/04779"
        }
      }
    },
    {
      "name": "VICTION STRATEGY, S.L.",
      "registrationNumber": "07056",
      "identificationNumber": "B87053765",
      "address": "Marqués del Riscal 11, 3-6",
      "location": {
        "postalCode": "28010",
        "municipality": "Madrid",
        "county": "Madrid",
        "municipalityId": "079",
        "countyId": "28"
      },
      "economicActivities": [
        {
          "id": "1.844",
          "name": "Servicios de publicidad, relaciones públicas y similares",
          "_links": {
            "self": {
              "name": "Servicios de publicidad, relaciones públicas y similares",
              "href": "https://api.euskadi.eus/procurements/companies/economic-activities/1.844"
            }
          }
        },
        {
          "id": "1.849.9",
          "name": "Otros servicios independientes n.c.o.p",
          "_links": {
            "self": {
              "name": "Otros servicios independientes n.c.o.p",
              "href": "https://api.euskadi.eus/procurements/companies/economic-activities/1.849.9"
            }
          }
        }
      ],
      "certificateStartDate": "2025-10-23",
      "certificateEndDate": "2026-04-21",
      "object": "CREACIÓN, DESARROLLO Y GESTIÓN DE LA IDENTIDAD DE MARCA. SERVICIOS DE CONSULTORÍA EN ESTRATEGIAS DE MARCA. DISEÑO GRÁFICO, INCLUYENDO LOGOTIPOS, MATERIALES PROMOCIONALES Y ELEMENTOS VISUALES DE LA MARCA. PRODUCCIÓN Y DISEÑO DE CONTENIDO AUDIOVISUAL PARA LA PROMOCIÓN DE MARCAS. ESTRATEGIAS DE POSICIONAMIENTO DE MARCA EN EL MERCADO. PLANIFICACIÓN Y EJECUCIÓN DE CAMPAÑAS DE MARKETING DIGITAL,. SERVICIOS DE SEO (OPTIMIZACIÓN DE MOTORES DE BÚSQUEDA) Y SEM (MARKETING EN MOTORES DE BÚSQUEDA). GESTIÓN DE REDES SOCIALES, INCLUYENDO CREACIÓN DE CONTENIDO Y GESTIÓN DE COMUNIDADES. MARKETING DE CONTENIDO, INCLUYENDO BLOGS, ARTÍCULOS, INFOGRAFÍAS Y VIDEOS. EMAIL MARKETING Y AUTOMATIZACIÓN DE MARKETING. ANÁLISIS Y MONITOREO DE DATOS DE MARKETING DIGITAL PARA LA OPTIMIZACIÓN DE CAMPAÑAS. PUBLICIDAD EN LÍNEA, INCLUYENDO ANUNCIOS EN BUSCADORES, REDES SOCIALES Y OTROS MEDIOS DIGITALES.  DESARROLLO Y GESTIÓN DE PLATAFORMAS DE INTERMEDIACIÓN DIGITAL. SERVICIOS DE CONSULTORÍA PARA LA IMPLEMENTACIÓN DE SOLUCIONES DE INTERMEDIACIÓN EN LÍNEA.  IMPLEMENTACIÓN Y GESTIÓN DE SISTEMAS DE FIDELIZACIÓN DE CLIENTES Y PROGRAMAS DE RECOMPENSAS.  ANÁLISIS Y REPORTE DE DATOS TRANSACCIONALES PARA MEJORAR LA EXPERIENCIA DEL USUARIO Y LA EFICIENCIA OPERATIVA. PLANIFICACIÓN, ORGANIZACIÓN Y GESTIÓN DE EVENTOS CORPORATIVOS, PROMOCIONALES Y SOCIALES. DISEÑO Y PRODUCCIÓN DE EVENTOS, INCLUYENDO LA COORDINACIÓN DE PROVEEDORES, LOGÍSTICA Y MONTAJE.  SERVICIOS DE MARKETING Y PROMOCIÓN DE EVENTOS. GESTIÓN DE INSCRIPCIONES, REGISTRO Y ATENCIÓN AL CLIENTE PARA EVENTOS.  CREACIÓN DE CONTENIDO Y MATERIALES PROMOCIONALES PARA EVENTOS.  SERVICIOS AUDIOVISUALES PARA LA PRODUCCIÓN DE EVENTOS EN VIVO Y VIRTUALES.  GESTIÓN DE PATROCINADORES Y ALIANZAS ESTRATÉGICAS PARA EVENTOS.  PLANIFICACIÓN Y COMPRA DE ESPACIOS PUBLICITARIOS EN MEDIOS DE COMUNICACIÓN TRADICIONALES Y DIGITALES. NEGOCIACIÓN DE TARIFAS Y CONDICIONES CON MEDIOS DE COMUNICACIÓN. GESTIÓN Y OPTIMIZACIÓN DE CAMPAÑAS PUBLICITARIAS EN MEDIOS. ANÁLISIS DE RETORNO DE INVERSIÓN (ROI) Y EFECTIVIDAD DE CAMPAÑAS EN MEDIOS. CREACIÓN DE ESTRATEGIAS EN MEDIOS PARA MAXIMIZAR EL ALCANCE Y EL IMPACTO DE LAS CAMPAÑAS PUBLICITARIAS. COORDINACIÓN CON AGENCIAS DE MEDIOS Y OTROS PROVEEDORES DE SERVICIOS PUBLICITARIOS. FORMACIÓN Y CAPACITACIÓN EN TEMAS DE BRANDING, MARKETING DIGITAL, INTERMEDIACIÓN DIGITAL Y ORGANIZACIÓN DE EVENTOS. DESARROLLO DE SOFTWARE Y APLICACIONES MÓVILES RELACIONADAS CON LAS ACTIVIDADES ANTERIORES. CONSULTORÍA EN TRANSFORMACIÓN DIGITAL Y ADOPCIÓN DE NUEVAS TECNOLOGÍAS. INVESTIGACIÓN DE MERCADO Y ESTUDIOS DE COMPORTAMIENTO DEL CONSUMIDOR.",
      "mainEntityOfPage": "https://www.contratacion.euskadi.eus/webkpe00-kperoc/es/ac71aBusquedaRegistrosWar/empresa/07056",
      "_links": {
        "self": {
          "name": "VICTION STRATEGY, S.L.",
          "href": "https://api.euskadi.eus/procurements/companies/07056"
        }
      }
    },
    {
      "name": "PRIM, S.A.",
      "registrationNumber": "00865",
      "identificationNumber": "A28165587",
      "address": "Avenida del Llano Castellano, 43. Planta 3",
      "location": {
        "postalCode": "28034",
        "municipality": "Madrid",
        "county": "Madrid",
        "municipalityId": "079",
        "countyId": "28"
      },
      "economicActivities": [
        {
          "id": "1.453",
          "name": "Confección en serie de toda clase de prendas de vestir",
          "_links": {
            "self": {
              "name": "Confección en serie de toda clase de prendas de vestir",
              "href": "https://api.euskadi.eus/procurements/companies/economic-activities/1.453"
            }
          }
        },
        {
          "id": "1.619.2",
          "name": "Venta al por mayor de aparatos e instrumentos médicos, ortopédicos, ópticos",
          "_links": {
            "self": {
              "name": "Venta al por mayor de aparatos e instrumentos médicos, ortopédicos, ópticos",
              "href": "https://api.euskadi.eus/procurements/companies/economic-activities/1.619.2"
            }
          }
        }
      ],
      "certificateStartDate": "2025-10-22",
      "certificateEndDate": "2026-04-13",
      "object": "A) LA FABRICACIÓN, COMERCIALIZACIÓN, VENTA, DISTRIBUCIÓN, MANTENIMIENTO, IMPORTACIÓN Y EXPORTACIÓN DE TODA CLASE DE MATERIAL ORTOPÉDICO, MÉDICO, QUIRÚRGICO, FARMACÉUTICO, VETERINARIO, DIETÉTICO, ALIMENTARIO, QUÍMICO, CIENTÍFICO E INDUSTRIAL. B) LA CONSTRUCCIÓN, EXPLOTACIÓN Y GESTIÓN DE INSTALACIONES SANITARIAS Y GERIÁTRICAS. C) LA PRESTACIÓN DE SERVICIOS DE ADMINISTRACIÓN Y GESTIÓN DE SOCIEDADES. D) LA TENENCIA DE BIENES POR CUENTA PROPIA. E) LA REALIZACIÓN  DE TODA CLASE DE OPERACIONES DE COMPRA, VENTA, URBANIZACIÓN, PROMOCIÓN, CONSTRUCCIÓN, REPARACIÓN, MEJORA Y EXPLOTACIÓN DE CUALQUIER CLASE DE BIENES INMUEBLES",
      "mainEntityOfPage": "https://www.contratacion.euskadi.eus/webkpe00-kperoc/es/ac71aBusquedaRegistrosWar/empresa/00865",
      "_links": {
        "self": {
          "name": "PRIM, S.A.",
          "href": "https://api.euskadi.eus/procurements/companies/00865"
        }
      }
    },
    {
      "name": "GURTUBAY ARQUITECTOS  Y ASOCIADOS S.L.P",
      "registrationNumber": "06213",
      "identificationNumber": "B95843850",
      "address": "landene 5 2 izq",
      "location": {
        "postalCode": "48993",
        "municipality": "Getxo",
        "county": "Bizkaia",
        "municipalityId": "044",
        "countyId": "48"
      },
      "economicActivities": [
        {
          "id": "1.843.2",
          "name": "Servicios técnicos de arquitectura y urbanismo",
          "_links": {
            "self": {
              "name": "Servicios técnicos de arquitectura y urbanismo",
              "href": "https://api.euskadi.eus/procurements/companies/economic-activities/1.843.2"
            }
          }
        }
      ],
      "certificateStartDate": "2025-10-22",
      "certificateEndDate": "2026-04-21",
      "object": "LAS ACTIVIDADES PROPIAS DE LOS ARQUITECTOS COLEGIADOS, ENTRE ELLAS, REALIZACIÓN DE PROYECTOS Y\r\nDIRECCIÓN DE OBRAS\r\n",
      "mainEntityOfPage": "https://www.contratacion.euskadi.eus/webkpe00-kperoc/es/ac71aBusquedaRegistrosWar/empresa/06213",
      "_links": {
        "self": {
          "name": "GURTUBAY ARQUITECTOS  Y ASOCIADOS S.L.P",
          "href": "https://api.euskadi.eus/procurements/companies/06213"
        }
      }
    },
    {
      "name": "ASOCIACIÓN VIZCAINA DE AYUDA A PERSONAS AFECTADAS DE PARALISIS CEREBRAL, ASPACE BIZKAIA",
      "registrationNumber": "08539",
      "identificationNumber": "G48091458",
      "address": "Julio Urkixo 17, lonja",
      "location": {
        "postalCode": "48014",
        "municipality": "Bilbao",
        "county": "Bizkaia",
        "municipalityId": "020",
        "countyId": "48"
      },
      "economicActivities": [
        {
          "id": "1.463",
          "name": "Fabricación en serie de piezas de carpintería y parquet",
          "_links": {
            "self": {
              "name": "Fabricación en serie de piezas de carpintería y parquet",
              "href": "https://api.euskadi.eus/procurements/companies/economic-activities/1.463"
            }
          }
        },
        {
          "id": "1.474",
          "name": "Artes gráficas (impresión gráfica)",
          "_links": {
            "self": {
              "name": "Artes gráficas (impresión gráfica)",
              "href": "https://api.euskadi.eus/procurements/companies/economic-activities/1.474"
            }
          }
        },
        {
          "id": "1.934",
          "name": "Enseñanza fuera de establecimiento permanente",
          "_links": {
            "self": {
              "name": "Enseñanza fuera de establecimiento permanente",
              "href": "https://api.euskadi.eus/procurements/companies/economic-activities/1.934"
            }
          }
        },
        {
          "id": "1.952",
          "name": "Asistencia y servicios sociales en centros no residenciales",
          "_links": {
            "self": {
              "name": "Asistencia y servicios sociales en centros no residenciales",
              "href": "https://api.euskadi.eus/procurements/companies/economic-activities/1.952"
            }
          }
        }
      ],
      "certificateStartDate": "2025-10-22",
      "certificateEndDate": "2026-04-22",
      "object": " A).- PROMOVER O CREAR, EN SU CASO, SERVICIOS ASISTENCIALES EDUCATIVOS, LABORALES, RESIDENCIALES O SOCIALES, NECESARIOS Y ADECUADOS PARA EL CUMPLIMIENTO DE SUS FINES Y OBJETIVOS. B).- CREAR LOS SERVICIOS DE INFORMACIÓN, ESTUDIO, PLANIFICACIÓN, ASISTENCIA TÉCNICA, CAPITACIÓN DE RECURSOS Y OTROS QUE LAS CIRCUNSTANCIAS ACONSEJEN. C).- PROMOVER LA TUTELA LEGAL DE LAS PERSONAS AFECTADAS POR PARÁLISIS CEREBRAL EN LOS CASOS QUE SEA NECESARIO. D).- CREAR LOS SERVICIOS DE ACOGIDA, ORIENTACIÓN Y FORMACIÓN DE LOS PROGENITORES, TUTORES O FAMILIARES DE LAS PERSONAS AFECTADAS POR PARÁLISIS CEREBRAL. E).- UTILIZAR TODOS LOS MEDIOS LÍCITOS DE PROPAGANDA PARA DIVULGAR LOS PROBLEMAS DE LAS PERSONAS AFECTADAS POR PARÁLISIS CEREBRAL Y SUS FAMILIAS. F).- OBTENER EL MÁXIMO RENDIMIENTO DE TODOS LOS RECURSOS, HUMANOS Y MATERIALES, DOTÁNDOSE DEL CONJUNTO DE PROFESIONALES PARA LAS NECESIDADES DEL MOMENTO. G).- COLABORAR CON LAS DIVERSAS ENTIDADES, TANTO PÚBLICAS COMO PRIVADAS, EN ORDEN A LA CONSECUCIÓN DE FINES Y OBJETIVOS DE LA ASOCIACIÓN VIZCAÍNA DE AYUDA A PERSONAS AFECTADAS DE PARÁLISIS CEREBRAL, ASPACE BIZKAIA, BASÁNDOSE EN EL PRINCIPIO DE LA SOLIDARIDAD. H).- CUALESQUIERA OTROS QUE, DE MODO DIRECTO O INDIRECTO, FAVOREZCAN LA CONSECUCIÓN DE LOS MENCIONADOS FINES Y OBJETIVOS.\n \n\n\n",
      "mainEntityOfPage": "https://www.contratacion.euskadi.eus/webkpe00-kperoc/es/ac71aBusquedaRegistrosWar/empresa/08539",
      "_links": {
        "self": {
          "name": "ASOCIACIÓN VIZCAINA DE AYUDA A PERSONAS AFECTADAS DE PARALISIS CEREBRAL, ASPACE BIZKAIA",
          "href": "https://api.euskadi.eus/procurements/companies/08539"
        }
      }
    },
    {
      "name": "FUNDACIÓN CENTRO TECNOLÓGICO DE MIRANDA DE EBRO",
      "registrationNumber": "07487",
      "identificationNumber": "G09477738",
      "address": "C/ MONTAÑANA, P R 60 - R 61. POLÍGONO INDUSTRIAL DE BAYAS",
      "location": {
        "postalCode": "09200",
        "municipality": "Miranda de Ebro",
        "county": "Burgos",
        "municipalityId": "219",
        "countyId": "09"
      },
      "economicActivities": [
        {
          "id": "1.932.1",
          "name": "Enseñanza de formación y perfeccionamiento profesional no superior",
          "_links": {
            "self": {
              "name": "Enseñanza de formación y perfeccionamiento profesional no superior",
              "href": "https://api.euskadi.eus/procurements/companies/economic-activities/1.932.1"
            }
          }
        },
        {
          "id": "1.936",
          "name": "Investigación científica y técnica",
          "_links": {
            "self": {
              "name": "Investigación científica y técnica",
              "href": "https://api.euskadi.eus/procurements/companies/economic-activities/1.936"
            }
          }
        }
      ],
      "certificateStartDate": "2025-10-22",
      "certificateEndDate": "2026-04-22",
      "object": "LA INVESTIGACIÓN, DESARROLLO E INNOVACIÓN TECNOLÓGICA, AUMENTO DE LA COMPETITIVIDAD Y MEJORA DE LA CALIDAD DEL PRODUCTO, EN EL SECTOR INDUSTRIAL, CONSIDERADO EN EL AMPLIO SENTIDO DE LA PALABRA, Y EN LAS ÁREAS COMERCIALES A LAS QUE VA DIRIGIDAS, ASÍ COMO LA DIFUSIÓN DE LA INNOVACIÓN, FORMACIÓN Y TRANSFERENCIA DE LA TECNOLOGÍA Y VIGILANCIA TECNOLÓGICA. ESTOS OBJETIVOS SE PODRÁN OBTENER DIRECTAMENTE O A TRAVÉS DE LA CONSTITUCIÓN DE SOCIEDADES. PARA EL CUMPLIMIENTO DE LOS FINES DESCRITOS, SE LLEVARÁN A CABO LAS SIGUIENTES ACTIVIDADES: A) REALIZACIÓN DE PROGRAMAS DE INVESTIGACIÓN Y DESARROLLO EN RÉGIMEN DE COOPERACIÓN, CON EMPRESAS Y ORGANISMOS, RESPECTO A PROCESOS DE PRODUCCIÓN Y PRODUCTOS EMPLEADOS. B) PRESTACIÓN DE SERVICIOS A LAS EMPRESAS, TANTO EN ASISTENCIA TECNOLÓGICA COMO FORMATIVA. C) PREPARACIÓN Y REALIZACIÓN DE ENSAYOS Y ANÁLISIS DE CONTROL DE CALIDAD. D) PREPARACIÓN Y REALIZACIÓN DE MÉTODOS DE MEDIDAS Y ENSAYOS. E) FOMENTO DE LA FORMACIÓN TECNOLÓGICA DE LAS EMPRESAS Y DE SU PERSONAL. F) REALIZACIÓN DE ESTUDIOS, INFORMES, ASESORAMIENTOS SOBRE NORMAS Y ESPECIFICACIONES. G) COLABORACIÓN CON OTROS ORGANISMOS, PÚBLICOS O PRIVADOS, NACIONALES O INTERNACIONALES, CUYOS FINES SEAN SIMILARES. H) RECOPILACIÓN Y DIVULGACIÓN DE INFORMACIÓN, A TRAVÉS DE BIBLIOGRAFÍA, PUBLICACIONES E INFORMACIÓN. I) PRESTACIÓN DIRECTA DE ASISTENCIA TECNOLÓGICA A LAS EMPRESAS. J) EN LÍNEAS GENERALES, FAVORECER TODA LA REALIZACIÓN ENCAMINADA AL PROGRESO DE LA TECNOLOGÍA, LA CALIDAD Y LA COMPETITIVIDAD DE LAS EMPRESAS. K) ENSAYOS DE CONFORMIDAD CON REFERENCIA A NORMAS. L) Y CUALQUIER OTRA ACTIVIDAD QUE EL PATRONATO CONSIDERE CONVENIENTE DESARROLLAR PARA EL CUMPLIMIENTO DE LOS FINES, TANTO DIRECTAMENTE POR EL EQUIPO PROPIO DE LA FUNDACIÓN COMO MEDIANTE CONTRATACIÓN DE LABORATORIOS, ENTIDADES U ORGANIZACIONES COMPETENTES",
      "mainEntityOfPage": "https://www.contratacion.euskadi.eus/webkpe00-kperoc/es/ac71aBusquedaRegistrosWar/empresa/07487",
      "_links": {
        "self": {
          "name": "FUNDACIÓN CENTRO TECNOLÓGICO DE MIRANDA DE EBRO",
          "href": "https://api.euskadi.eus/procurements/companies/07487"
        }
      }
    },
    {
      "name": "BEATRIZ BERGASA BALDA",
      "registrationNumber": "07688",
      "identificationNumber": "16586043F",
      "address": "Paseo De Oriamendi 10 2C",
      "location": {
        "postalCode": "20009",
        "municipality": "Donostia / San Sebastián",
        "county": "Gipuzkoa",
        "municipalityId": "069",
        "countyId": "20"
      },
      "economicActivities": [
        {
          "id": "2.411",
          "name": "Arquitectos",
          "_links": {
            "self": {
              "name": "Arquitectos",
              "href": "https://api.euskadi.eus/procurements/companies/economic-activities/2.411"
            }
          }
        }
      ],
      "certificateStartDate": "2025-10-22",
      "certificateEndDate": "2026-04-22",
      "object": "ARQUITECTOS",
      "mainEntityOfPage": "https://www.contratacion.euskadi.eus/webkpe00-kperoc/es/ac71aBusquedaRegistrosWar/empresa/07688",
      "_links": {
        "self": {
          "name": "BEATRIZ BERGASA BALDA",
          "href": "https://api.euskadi.eus/procurements/companies/07688"
        }
      }
    },
    {
      "name": "CONSTRUCCIONES ALZOLA, S.L.",
      "registrationNumber": "04405",
      "identificationNumber": "B20035671",
      "address": "ELBARRENA, 4 (POL. LANBARREN, 2)",
      "location": {
        "postalCode": "20180",
        "municipality": "Oiartzun",
        "county": "Gipuzkoa",
        "municipalityId": "063",
        "countyId": "20"
      },
      "economicActivities": [
        {
          "id": "1.501.1",
          "name": "Construcción completa, reparación y conservación de edificaciones",
          "_links": {
            "self": {
              "name": "Construcción completa, reparación y conservación de edificaciones",
              "href": "https://api.euskadi.eus/procurements/companies/economic-activities/1.501.1"
            }
          }
        },
        {
          "id": "1.501.2",
          "name": "Construcción completa, reparación y conservación obras civiles",
          "_links": {
            "self": {
              "name": "Construcción completa, reparación y conservación obras civiles",
              "href": "https://api.euskadi.eus/procurements/companies/economic-activities/1.501.2"
            }
          }
        },
        {
          "id": "1.504.1",
          "name": "Instalaciones eléctricas en general",
          "_links": {
            "self": {
              "name": "Instalaciones eléctricas en general",
              "href": "https://api.euskadi.eus/procurements/companies/economic-activities/1.504.1"
            }
          }
        },
        {
          "id": "1.504.3",
          "name": "Instalaciones de frío, calor y acondicionamiento de aire",
          "_links": {
            "self": {
              "name": "Instalaciones de frío, calor y acondicionamiento de aire",
              "href": "https://api.euskadi.eus/procurements/companies/economic-activities/1.504.3"
            }
          }
        }
      ],
      "certificateStartDate": "2025-10-22",
      "certificateEndDate": "2026-04-22",
      "object": "LA CONSTRUCCIÓN DE TODO TIPO DE EDIFICACIONES, TANTO DE VIVIENDA COMO DE CONSTRUCCIONES DE CARÁCTER INDUSTRIAL, OBRAS PÚBLICAS, VÍAS Y EXCAVACIONES, DESMONTES, VACIADOS Y NIVELACIONES DE TERRENO, ASÍ COMO EL ALQUILER DE MAQUINARIA PARA OBRAS PÚBLICAS",
      "mainEntityOfPage": "https://www.contratacion.euskadi.eus/webkpe00-kperoc/es/ac71aBusquedaRegistrosWar/empresa/04405",
      "_links": {
        "self": {
          "name": "CONSTRUCCIONES ALZOLA, S.L.",
          "href": "https://api.euskadi.eus/procurements/companies/04405"
        }
      }
    },
    {
      "name": "MAMBA ARQUITECTAS Y CONSULTORAS, S.L.",
      "registrationNumber": "09607",
      "identificationNumber": "B75226993",
      "address": "harresilanda 7 bajo",
      "location": {
        "postalCode": "20280",
        "municipality": "Hondarribia",
        "county": "Gipuzkoa",
        "municipalityId": "036",
        "countyId": "20"
      },
      "economicActivities": [
        {
          "id": "1.501.1",
          "name": "Construcción completa, reparación y conservación de edificaciones",
          "_links": {
            "self": {
              "name": "Construcción completa, reparación y conservación de edificaciones",
              "href": "https://api.euskadi.eus/procurements/companies/economic-activities/1.501.1"
            }
          }
        },
        {
          "id": "1.843.2",
          "name": "Servicios técnicos de arquitectura y urbanismo",
          "_links": {
            "self": {
              "name": "Servicios técnicos de arquitectura y urbanismo",
              "href": "https://api.euskadi.eus/procurements/companies/economic-activities/1.843.2"
            }
          }
        },
        {
          "id": "1.932.1",
          "name": "Enseñanza de formación y perfeccionamiento profesional no superior",
          "_links": {
            "self": {
              "name": "Enseñanza de formación y perfeccionamiento profesional no superior",
              "href": "https://api.euskadi.eus/procurements/companies/economic-activities/1.932.1"
            }
          }
        }
      ],
      "certificateStartDate": "2025-10-22",
      "certificateEndDate": "2026-04-22",
      "object": "(A) LA REDACCIÓN DE PROYECTO TÉCNICOS DE ARQUITECTURA, INGENIERÍA, INSTALACIONES, URBANISMO, ASÍ COMO PLANES DIRECTORES Y DIRECCIONES FACULTATIVAS CORRESPONDIENTES. (B) LA DIRECCIÓN INTEGRADA DE PROYECTOS, GESTIÓN, CONTROL Y DIRECCIÓN DE OBRAS DE CUALQUIER CLASE. (C) LA ELABORACIÓN DE INFORMES, DICTÁMENES Y TASACIONES, ASÍ COMO CUALQUIER SERVICIO RELACIONADO CON LA ARQUITECTURA, INGENIERÍA, ENERGÍA, PATRIMONIO INDUSTRIAL, URBANISMO Y ACUICULTURA. (D) PROYECTOS ENERGÉTICOS, PLANES DE AHORRO ENERGÉTICO Y SERVICIOS ENERGÉTICOS. (E) LA REALIZACIÓN DE ESTUDIOS DE IMPACTO AMBIENTAL. (F) LA REALIZACIÓN DE ESTUDIOS DE SEGURIDAD Y SALUD Y COORDINACIÓN DE SEGURIDAD EN LAS OBRAS. (G) LA REALIZACIÓN DE ESTUDIOS DE VIABILIDAD, PLANES DE NEGOCIO Y DESARROLLO DE TODO TIPO DE PROYECTOS EMPRESARIALES, INDUSTRIALES, COMERCIALES Y DE SERVICIOS. (H) LA REDACCIÓN DE PROYECTOS DE INVESTIGACIÓN, DESARROLLO E INNOVACIÓN TECNOLÓGICA Y DE PROYECTOS FORMATIVOS DE RECURSOS HUMANOS. (I) LA REDACCIÓN DE PROYECTOS DE INDUSTRIALIZACIÓN Y REACTIVACIÓN ECONÓMICA.",
      "mainEntityOfPage": "https://www.contratacion.euskadi.eus/webkpe00-kperoc/es/ac71aBusquedaRegistrosWar/empresa/09607",
      "_links": {
        "self": {
          "name": "MAMBA ARQUITECTAS Y CONSULTORAS, S.L.",
          "href": "https://api.euskadi.eus/procurements/companies/09607"
        }
      }
    }
  ]
}