{
  "totalItems": 9042,
  "totalPages": 905,
  "currentPage": 196,
  "itemsOfPage": 10,
  "items": [
    {
      "name": "MITUMI SOCIEDAD COOPERATIVA PEQUEÑA",
      "registrationNumber": "07069",
      "identificationNumber": "F01539832",
      "address": "C/ Herminio Madinabeitia 22 bajo",
      "location": {
        "postalCode": "01006",
        "municipality": "Vitoria-Gasteiz",
        "county": "Araba/Álava",
        "municipalityId": "059",
        "countyId": "01"
      },
      "economicActivities": [
        {
          "id": "1.844",
          "name": "Servicios de publicidad, relaciones públicas y similares",
          "_links": {
            "self": {
              "name": "Servicios de publicidad, relaciones públicas y similares",
              "href": "https://api.euskadi.eus/procurements/companies/economic-activities/1.844"
            }
          }
        },
        {
          "id": "1.989.2",
          "name": "Servicios de organización de congresos, asambleas y similares",
          "_links": {
            "self": {
              "name": "Servicios de organización de congresos, asambleas y similares",
              "href": "https://api.euskadi.eus/procurements/companies/economic-activities/1.989.2"
            }
          }
        }
      ],
      "certificateStartDate": "2025-10-23",
      "certificateEndDate": "2026-04-23",
      "object": "PRESTACIÓN DE SERVICIOS DE PUBLICIDAD, COMUNICACIÓN, MARKETING Y ORGANIZACIÓN DE EVENTOS ASÍ COMO FORMACIÓN Y DINAMIZACIÓN DE GRUPOS",
      "mainEntityOfPage": "https://www.contratacion.euskadi.eus/webkpe00-kperoc/es/ac71aBusquedaRegistrosWar/empresa/07069",
      "_links": {
        "self": {
          "name": "MITUMI SOCIEDAD COOPERATIVA PEQUEÑA",
          "href": "https://api.euskadi.eus/procurements/companies/07069"
        }
      }
    },
    {
      "name": "TAM TAM PERCUSION, S.L.",
      "registrationNumber": "09127",
      "identificationNumber": "B91349290",
      "address": "Balance 52",
      "location": {
        "postalCode": "41927",
        "municipality": "Mairena del Aljarafe",
        "county": "Sevilla",
        "municipalityId": "059",
        "countyId": "41"
      },
      "economicActivities": [
        {
          "id": "1.657",
          "name": "Venta al por menor de instrumentos musicales y sus accesorios",
          "_links": {
            "self": {
              "name": "Venta al por menor de instrumentos musicales y sus accesorios",
              "href": "https://api.euskadi.eus/procurements/companies/economic-activities/1.657"
            }
          }
        }
      ],
      "certificateStartDate": "2025-10-23",
      "certificateEndDate": "2026-04-23",
      "object": "LA COMPRA, VENTA, ALQUILER, REPARACIÓN Y COMERCIALIZACIÓN DE INSTRUMENTOS MUSICALES, LIBROS Y PARTITURAS, APARATOS DE IMAGEN Y SONIDO, CINTAS DE VIDEO Y DVD, EQUIPOS DE MÚSICA Y MATERIAL Y EQUIPO INFORMÁTICO.",
      "mainEntityOfPage": "https://www.contratacion.euskadi.eus/webkpe00-kperoc/es/ac71aBusquedaRegistrosWar/empresa/09127",
      "_links": {
        "self": {
          "name": "TAM TAM PERCUSION, S.L.",
          "href": "https://api.euskadi.eus/procurements/companies/09127"
        }
      }
    },
    {
      "name": "EMILIO PUERTAS ARQUITECTOS, SL",
      "registrationNumber": "04358",
      "identificationNumber": "B95486114",
      "address": "VIUDA DE EPALZA 10, 1º B",
      "location": {
        "postalCode": "48005",
        "municipality": "Bilbao",
        "county": "Bizkaia",
        "municipalityId": "020",
        "countyId": "48"
      },
      "economicActivities": [
        {
          "id": "1.843.2",
          "name": "Servicios técnicos de arquitectura y urbanismo",
          "_links": {
            "self": {
              "name": "Servicios técnicos de arquitectura y urbanismo",
              "href": "https://api.euskadi.eus/procurements/companies/economic-activities/1.843.2"
            }
          }
        }
      ],
      "certificateStartDate": "2025-10-23",
      "certificateEndDate": "2026-04-23",
      "object": "1. LA REALIZACIÓN POR CUENTA PROPIA O AJENA DE TODA CLASE DE ESTUDIOS Y PROYECTOS DE EDIFICACIÓN, URBANIZACIÓN, INSTALACIONES, REFORMAS Y REHABILITACIONES. LA SUPERVISIÓN, DIRECCIÓN Y CONTROL DE OBRAS, ASÍ COMO EL ASESORAMIENTO Y LA ASISTENCIA TÉCNICA EN TODO CUANTO SE RELACIONE, DIRECTA O INDIRECTAMENTE CON EL CAMPO DE LA CONSTRUCCIÓN DE EDIFICIOS Y DE LAS OBRAS PÚBLICAS O CIVILES. LA REALIZACIÓN DE TRABAJOS Y, DESARROLLO Y EJECUCIÓN DE ACTIVIDADES DE ARQUITECTURA EN QUE SEA NECESARIA LA TITULACIÓN CORRESPONDIENTE. 2. DISEÑO Y CÀLCULOS DE INSTALACIONES EN LOS EDIFICIOS PÚBLICOS O CIVILES. 3. DISEÑO Y CÁLCULOS DE ESTRUCTURAS RESISTENTES EN LOS EDIFICIOS PÚBLICOS O CIVILES. 4. LA ADQUISICIÓN, CESIÓN, TENENCIA, DISFRUTE, ADMINISTRACIÓN, GESTIÓN Y NEGOCIACIÓN EN GENERAL DE VALORES MOBILIARIOS E INMUEBLES Y PARTICIPACIONES SOCIALES. 5. LA CONSTITUCIÓN CON LA CONCURRENCIA DE OTRAS PERSONAS DE TODA CLASE DE SOCIEDADES MERCANTILES, LA PARTICIPACIÓN EN OTRAS CONSTITUÍDAS, PUDIENDO OSTENTAR EN TODAS ELLAS CARGOS DE ADMINISTRACIÓN, DIRECCIÓN O CONTROL MEDIANTE LA OPORTUNA DELEGACIÓN EN PERSONA FÍSICA",
      "mainEntityOfPage": "https://www.contratacion.euskadi.eus/webkpe00-kperoc/es/ac71aBusquedaRegistrosWar/empresa/04358",
      "_links": {
        "self": {
          "name": "EMILIO PUERTAS ARQUITECTOS, SL",
          "href": "https://api.euskadi.eus/procurements/companies/04358"
        }
      }
    },
    {
      "name": "TELIC, S.A.",
      "registrationNumber": "00783",
      "identificationNumber": "A08733578",
      "address": "C/ MOLI D&apos;EN BARRI, 7-9. POL.IND. CAN BARRI",
      "location": {
        "postalCode": "08415",
        "municipality": "Bigues i Riells del Fai",
        "county": "Barcelona",
        "municipalityId": "023",
        "countyId": "08"
      },
      "economicActivities": [
        {
          "id": "1.254.2",
          "name": "Fabricación de especialidades y otros productos farmacéuticos",
          "_links": {
            "self": {
              "name": "Fabricación de especialidades y otros productos farmacéuticos",
              "href": "https://api.euskadi.eus/procurements/companies/economic-activities/1.254.2"
            }
          }
        },
        {
          "id": "1.255.2",
          "name": "Fabricación de jabones de tocador y otros productos de perfumería",
          "_links": {
            "self": {
              "name": "Fabricación de jabones de tocador y otros productos de perfumería",
              "href": "https://api.euskadi.eus/procurements/companies/economic-activities/1.255.2"
            }
          }
        },
        {
          "id": "1.352",
          "name": "Fabricación de aparatos y equipo electromédico y de uso profesional",
          "_links": {
            "self": {
              "name": "Fabricación de aparatos y equipo electromédico y de uso profesional",
              "href": "https://api.euskadi.eus/procurements/companies/economic-activities/1.352"
            }
          }
        },
        {
          "id": "1.392.1",
          "name": "Fabricación de material médico-quirúrgico",
          "_links": {
            "self": {
              "name": "Fabricación de material médico-quirúrgico",
              "href": "https://api.euskadi.eus/procurements/companies/economic-activities/1.392.1"
            }
          }
        }
      ],
      "certificateStartDate": "2025-10-23",
      "certificateEndDate": "2026-04-23",
      "object": "LA FABRICACIÓN, COMERCIALIZACIÓN, VENTA, IMPORTACIÓN Y EXPORTACIÓN DE TODO TIPO DE MATERIAL CLÍNICO, MÉDICO Y HOSPITALARIO",
      "mainEntityOfPage": "https://www.contratacion.euskadi.eus/webkpe00-kperoc/es/ac71aBusquedaRegistrosWar/empresa/00783",
      "_links": {
        "self": {
          "name": "TELIC, S.A.",
          "href": "https://api.euskadi.eus/procurements/companies/00783"
        }
      }
    },
    {
      "name": "QUEER GLOBAL HOLDINGS, S.L.",
      "registrationNumber": "09128",
      "identificationNumber": "B09947474",
      "address": "C/ Eloy Gonzalo, 27",
      "location": {
        "postalCode": "28010",
        "municipality": "Madrid",
        "county": "Madrid",
        "municipalityId": "079",
        "countyId": "28"
      },
      "economicActivities": [
        {
          "id": "1.831.1",
          "name": "Servicios de compra-venta y contratación de valores mobiliarios",
          "_links": {
            "self": {
              "name": "Servicios de compra-venta y contratación de valores mobiliarios",
              "href": "https://api.euskadi.eus/procurements/companies/economic-activities/1.831.1"
            }
          }
        }
      ],
      "certificateStartDate": "2025-10-23",
      "certificateEndDate": "2026-04-23",
      "object": "I.- LA INVERSIÓN MOBILIARIA EN TODAS SUS FORMAS, INCLUSO DE COMPRAVENTA, APORTACIÓN, PERMUTA, ARRIENDO Y EXPLOTACIÓN EN NOMBRE PROPIO, PUDIENDO PROMOCIONAR Y PARTICIPAR EN LA CONSTITUCIÓN Y EN LA AMPLIACIÓN Y NEGOCIO DE TODO TIPO DE EMPRESAS Y SOCIEDADES MERCANTILES E INDUSTRIALES, Y ENAJENAR DICHAS PARTICIPACIONES, EXCLUYÉNDOSE CUALQUIER ACTIVIDAD DE LAS REGULE LA LEGISLACIÓN DE INSTITUCIONES DE INVERSIÓN COLECTIVA Y DEL MERCADO DE VALORES. II.- LA PRESTACIÓN DE TODA CLASE DE SERVICIOS TURÍSTICOS, POR CUENTA PROPIA O DE TERCEROS EN NOMBRE DE LA SOCIEDAD, A TRAVÉS DE AGENCIAS DE TURISMO, POR VENTA DIRECTA, SITIOS WEB, INTERNET O CUALQUIER OTRO MEDIO EN EL CUAL SE COMERCIALICE DICHOS SERVICIOS, ASÍ COMO PROPORCIONAR INFORMACIÓN TURÍSTICA Y REALIZAR ACTIVIDADES SIMILARES O CONEXAS EN BENEFICIO DEL TURISMO, TALES COMO RESERVAS EN MEDIOS DE TRANSPORTE, ALOJAMIENTOS, ESPECTÁCULOS Y CUALESQUIERA OTROS RELACIONADOS CON EL SECTOR. III.- ORGANIZAR, OPERAR O COMERCIALIZAR VIAJES Y EXCURSIONES, DENTRO DEL TERRITORIO NACIONAL O EN EL EXTRANJERO. IV.- LA PRESTACIÓN DE SERVICIOS DE INTERMEDIACIÓN ENTRE LOS TURISTAS Y LOS PRESTADORES DE SERVICIOS DE TRANSPORTES DE CUALQUIER GÉNERO, SERVICIOS TURÍSTICOS Y OTRAS AGENCIAS DE VIAJES. V.- EL MANEJO, DISEÑO, COMPRA, VENTA, COMERCIALIZACIÓN DE SITIOS WEB, ASÍ COMO EL POSICIONAMIENTO Y CONTROL DE DICHOS SITIOS. LA INVESTIGACIÓN, DESARROLLO E IMPLEMENTACIÓN DE TODO TIPO DE SOFTWARE, APLICACIONES WEB Y DE DISPOSITIVOS MÓVILES. VI.- LA PRODUCCIÓN ELABORACIÓN, DISEÑO, ASESORÍA, DE CAMPAÑAS PUBLICITARIAS, AUDITIVAS, DE MERCADOTECNIA, DE IMAGEN CORPORATIVA, ANUNCIOS DE PERIÓDICO Y REVISTAS, ASÍ COMO DE RADIO Y TELEVISIÓN, SISTEMAS CERRADOS DE COMUNICACIÓN, CONGRESOS Y CONVENCIONES, EXPOSICIONES, YA SEAN COMERCIALES, EDUCATIVOS, DE SERVICIOS, POLÍTICOS Y RELIGIOSOS. VII.- LA DIRECCIÓN, OPERACIÓN, SUPERVISIÓN Y ADMINISTRACIÓN DE TODA CLASE DE HOTELES, RESTAURANTES, CENTROS NOCTURNOS Y DE OCIO, Y EN GENERAL CUALQUIER OTRO ESTABLECIMIENTO PARA LA PRESTACIÓN DE SERVICIOS TURÍSTICOS. VIII.- LA REALIZACIÓN DE ACTIVIDADES DE RELACIONES PÚBLICAS Y MARKETING EN INTERNET, ASÍ COMO EL SUMINISTRO DE SERVICIOS DE INFORMACIÓN POR REDES SOCIALES Y CUALQUIER SITIO WEB. IX.- LA COMPRA Y VENTA, COMERCIALIZACIÓN Y DISTRIBUCIÓN DE TODO TIPO DE OBRA DE ARTE Y DISEÑO, ANTIGÜEDADES, OBRAS GRÁFICAS Y CUALQUIER OTRO TIPO DE MANIFESTACIÓN ARTÍSTICA O CULTURAL. X.- LA INTERMEDIACIÓN EN LA COMPRA Y VENTA DE TODO TIPO DE OBRAS DE ARTE Y DISEÑO. XI.- LA GESTIÓN Y DIRECCIÓN DE SALAS DE EXPOSICIÓN, CONFERENCIAS, TALLERES Y ACTOS DIRIGIDOS A LA PROMOCIÓN Y DIFUSIÓN DEL ARTE Y LA CULTURA. XII.- LA PRESTACIÓN DE SERVICIOS DE CONSULTORÍA, ASESORAMIENTO, TASACIÓN, VALORACIÓN Y ELABORACIÓN DE INFORMES Y ESTRATEGIAS RELATIVOS A LAS ACTIVIDADES INTEGRANTES DEL OBJETO.",
      "mainEntityOfPage": "https://www.contratacion.euskadi.eus/webkpe00-kperoc/es/ac71aBusquedaRegistrosWar/empresa/09128",
      "_links": {
        "self": {
          "name": "QUEER GLOBAL HOLDINGS, S.L.",
          "href": "https://api.euskadi.eus/procurements/companies/09128"
        }
      }
    },
    {
      "name": "SERVICIOS DE INGENIERIA Y COMERCIALES EUSKADI, S.L.",
      "registrationNumber": "07379",
      "identificationNumber": "B20498564",
      "address": "Polígono Industrial Erratzu 27",
      "location": {
        "postalCode": "20130",
        "municipality": "Urnieta",
        "county": "Gipuzkoa",
        "municipalityId": "072",
        "countyId": "20"
      },
      "economicActivities": [
        {
          "id": "1.843.1",
          "name": "Servicios técnicos de ingeniería",
          "_links": {
            "self": {
              "name": "Servicios técnicos de ingeniería",
              "href": "https://api.euskadi.eus/procurements/companies/economic-activities/1.843.1"
            }
          }
        }
      ],
      "certificateStartDate": "2025-10-23",
      "certificateEndDate": "2026-04-23",
      "object": "EL CONTROL Y VIGILANCIA DE OBRAS PÚBLICAS Y EDIFICACIONES. LABORATORIO DE ENSAYOS DE MATERIALES DE CONSTRUCCIÓN. HOMOLOGACIÓN, ACREDITACIONES Y GARANTÍAS DE SELLOS DE CALIDAD. ADQUISICIÓN E INVERSIONES EN BIENES MUEBLES E INMUEBLES, ASÍ COMO SU EXPLOTACIÓN Y ENAJENACIÓN. GESTIONES COMERCIALES DE REPRESENTACIÓN O DELEGACIÓN DE OTRAS EMPRESAS. LA CONFECCIÓN Y REDACCIÓN DE ESTUDIOS, PROYECTOS Y SERVICIOS DE INGENIERÍA, ARQUITECTURA Y DISEÑO DE BIENES MUEBLES",
      "mainEntityOfPage": "https://www.contratacion.euskadi.eus/webkpe00-kperoc/es/ac71aBusquedaRegistrosWar/empresa/07379",
      "_links": {
        "self": {
          "name": "SERVICIOS DE INGENIERIA Y COMERCIALES EUSKADI, S.L.",
          "href": "https://api.euskadi.eus/procurements/companies/07379"
        }
      }
    },
    {
      "name": "OTEGUI ERAIKUNTZAK, S.L.",
      "registrationNumber": "10404",
      "identificationNumber": "B20483053",
      "address": "BIZKAI KALEA 2",
      "location": {
        "postalCode": "20400",
        "municipality": "Tolosa",
        "county": "Gipuzkoa",
        "municipalityId": "071",
        "countyId": "20"
      },
      "economicActivities": [
        {
          "id": "1.501.1",
          "name": "Construcción completa, reparación y conservación de edificaciones",
          "_links": {
            "self": {
              "name": "Construcción completa, reparación y conservación de edificaciones",
              "href": "https://api.euskadi.eus/procurements/companies/economic-activities/1.501.1"
            }
          }
        },
        {
          "id": "1.833.2",
          "name": "Promoción de edificaciones",
          "_links": {
            "self": {
              "name": "Promoción de edificaciones",
              "href": "https://api.euskadi.eus/procurements/companies/economic-activities/1.833.2"
            }
          }
        },
        {
          "id": "1.861.1",
          "name": "Alquiler de viviendas",
          "_links": {
            "self": {
              "name": "Alquiler de viviendas",
              "href": "https://api.euskadi.eus/procurements/companies/economic-activities/1.861.1"
            }
          }
        }
      ],
      "certificateStartDate": "2025-10-23",
      "certificateEndDate": "2026-04-22",
      "object": "LA COMPRA Y VENTA DE TODA CLASE DE TERRENOS RÚSTICOS O INDUSTRIALES, Y, SOLARES URBANOS O URBANIZABLES, LA CONSTRUCCIÓN DE EDIFICACIONES DE CUALQUIER CLASE, LA CREACIÓN Y DESENVOLVIMIENTO DE URBANIZACIONES, LA CONSTRUCCIÓN DE OBRAS PÚBLICAS MEDIANTE CONTRATA CON LA ADMINISTRACIÓN DEL ESTADO, COMUNIDADES AUTÓNOMAS, PROVINCIAS, MUNICIPIOS Y ORGANISMOS PÚBLICOS EN GENERAL, Y, LA PROMOCIÓN Y VENTA DE OBRAS POR EJECUCIÓN DIRECTA O MEDIANTE CONTRATA.",
      "mainEntityOfPage": "https://www.contratacion.euskadi.eus/webkpe00-kperoc/es/ac71aBusquedaRegistrosWar/empresa/10404",
      "_links": {
        "self": {
          "name": "OTEGUI ERAIKUNTZAK, S.L.",
          "href": "https://api.euskadi.eus/procurements/companies/10404"
        }
      }
    },
    {
      "name": "REPAIR FACHADAS, S.L.",
      "registrationNumber": "04862",
      "identificationNumber": "B95310264",
      "address": "USAUSUAGA, 5 (POL. IND. ARTUNDUAGA)",
      "location": {
        "postalCode": "48970",
        "municipality": "Basauri",
        "county": "Bizkaia",
        "municipalityId": "015",
        "countyId": "48"
      },
      "economicActivities": [
        {
          "id": "1.501.1",
          "name": "Construcción completa, reparación y conservación de edificaciones",
          "_links": {
            "self": {
              "name": "Construcción completa, reparación y conservación de edificaciones",
              "href": "https://api.euskadi.eus/procurements/companies/economic-activities/1.501.1"
            }
          }
        },
        {
          "id": "1.505.1",
          "name": "Revestimientos exteriores e interiores de todas clases",
          "_links": {
            "self": {
              "name": "Revestimientos exteriores e interiores de todas clases",
              "href": "https://api.euskadi.eus/procurements/companies/economic-activities/1.505.1"
            }
          }
        }
      ],
      "certificateStartDate": "2025-10-23",
      "certificateEndDate": "2026-04-15",
      "object": "LA CONSTRUCCIÓN COMPLETA, LA CONSERVACIÓN Y REPARACIÓN DE TODO TIPO DE OBRAS E INSTALACIONES ASÍ COMO LA REALIZACIÓN DE INFORMES TÉCNICOS Y PROYECTOS DE INGENIERÍA. TAMBIÉN LA GESTIÓN DE OBRAS DE CONSTRUCCIÓN Y LA EJECUCIÓN DE OBRA LLAVE EN MANO",
      "mainEntityOfPage": "https://www.contratacion.euskadi.eus/webkpe00-kperoc/es/ac71aBusquedaRegistrosWar/empresa/04862",
      "_links": {
        "self": {
          "name": "REPAIR FACHADAS, S.L.",
          "href": "https://api.euskadi.eus/procurements/companies/04862"
        }
      }
    },
    {
      "name": "SILVIA LOPEZ RODRIGUEZ",
      "registrationNumber": "09832",
      "identificationNumber": "79134110B",
      "address": "GORDONIZ 52 PL 1",
      "location": {
        "postalCode": "48002",
        "municipality": "Bilbao",
        "county": "Bizkaia",
        "municipalityId": "020",
        "countyId": "48"
      },
      "economicActivities": [
        {
          "id": "2.799",
          "name": "Otros profesionales relacionados con actividades de seguros y de alquileres",
          "_links": {
            "self": {
              "name": "Otros profesionales relacionados con actividades de seguros y de alquileres",
              "href": "https://api.euskadi.eus/procurements/companies/economic-activities/2.799"
            }
          }
        },
        {
          "id": "2.826",
          "name": "Personal docente de enseñanzas diversas",
          "_links": {
            "self": {
              "name": "Personal docente de enseñanzas diversas",
              "href": "https://api.euskadi.eus/procurements/companies/economic-activities/2.826"
            }
          }
        }
      ],
      "certificateStartDate": "2025-10-23",
      "certificateEndDate": "2026-04-20",
      "object": "OTROS PROFESIONALES RELACIONADOS CON ACTIVIDADES DE SEGUROS Y DE ALQUILERES. PERSONAL DOCENTE DE ENSEÑANZAS DIVERSAS.",
      "mainEntityOfPage": "https://www.contratacion.euskadi.eus/webkpe00-kperoc/es/ac71aBusquedaRegistrosWar/empresa/09832",
      "_links": {
        "self": {
          "name": "SILVIA LOPEZ RODRIGUEZ",
          "href": "https://api.euskadi.eus/procurements/companies/09832"
        }
      }
    },
    {
      "name": "CYBERTIX SIMULATION TECHNOLOGIES, S.L",
      "registrationNumber": "10403",
      "identificationNumber": "B75209841",
      "address": "C/Juan Fermín Gilisagasti, 2 Oficina 218 - Parque Empresarial Zuatzu",
      "location": {
        "postalCode": "20018",
        "municipality": "Donostia / San Sebastián",
        "county": "Gipuzkoa",
        "municipalityId": "069",
        "countyId": "20"
      },
      "economicActivities": [
        {
          "id": "1.769",
          "name": "Otros servicios de telecomunicaciones",
          "_links": {
            "self": {
              "name": "Otros servicios de telecomunicaciones",
              "href": "https://api.euskadi.eus/procurements/companies/economic-activities/1.769"
            }
          }
        },
        {
          "id": "1.845",
          "name": "Explotación electrónica por cuenta de terceros",
          "_links": {
            "self": {
              "name": "Explotación electrónica por cuenta de terceros",
              "href": "https://api.euskadi.eus/procurements/companies/economic-activities/1.845"
            }
          }
        },
        {
          "id": "1.932.1",
          "name": "Enseñanza de formación y perfeccionamiento profesional no superior",
          "_links": {
            "self": {
              "name": "Enseñanza de formación y perfeccionamiento profesional no superior",
              "href": "https://api.euskadi.eus/procurements/companies/economic-activities/1.932.1"
            }
          }
        }
      ],
      "certificateStartDate": "2025-10-23",
      "certificateEndDate": "2026-04-23",
      "object": "(I) EL DESARROLLO DE ACTIVIDADES DE CONSULTORÍA Y SERVICIOS PROFESIONALES EN EL ENTORNO DE LA TRANSFORMACIÓN DIGITAL DE LA SOCIEDAD, EMPRESAS Y ORGANIZACIONES. (II) LA GENERACIÓN DE SIMULADORES QUE PERMITAN ENTRENAR, CAPACITAR Y GENERAR NUEVOS PROFESIONALES, ASÍ COMO EVALUAR LA RESILIENCIA Y OPERATIVA DE LAS NUEVAS INFRAESTRUCTURAS QUE DAN SOPORTE A LAS LÍNEAS DE SERVICIOS Y PRODUCCIÓN DE LAS EMPRESAS Y LOS SERVICIOS ESENCIALES QUE SOPORTAN EL BIENESTAR DE LA SOCIEDAD.",
      "mainEntityOfPage": "https://www.contratacion.euskadi.eus/webkpe00-kperoc/es/ac71aBusquedaRegistrosWar/empresa/10403",
      "_links": {
        "self": {
          "name": "CYBERTIX SIMULATION TECHNOLOGIES, S.L",
          "href": "https://api.euskadi.eus/procurements/companies/10403"
        }
      }
    }
  ]
}