{
  "totalItems": 9042,
  "totalPages": 905,
  "currentPage": 382,
  "itemsOfPage": 10,
  "items": [
    {
      "name": "LAVATUR AUTOSERVICIO LAVANDERIA, S.L.",
      "registrationNumber": "09870",
      "identificationNumber": "B57276016",
      "address": "C/ La Confianza, 5 nave A14 Pol. Ind. Los Olivos",
      "location": {
        "postalCode": "28906",
        "municipality": "Getafe",
        "county": "Madrid",
        "municipalityId": "065",
        "countyId": "28"
      },
      "economicActivities": [
        {
          "id": "1.859",
          "name": "Alquiler de otros bienes muebles n.c.o.p. (sin personal permanente)",
          "_links": {
            "self": {
              "name": "Alquiler de otros bienes muebles n.c.o.p. (sin personal permanente)",
              "href": "https://api.euskadi.eus/procurements/companies/economic-activities/1.859"
            }
          }
        }
      ],
      "certificateStartDate": "2024-10-28",
      "certificateEndDate": "2025-04-28",
      "object": "A) LA COMPRAVENTA, AL MAYOR Y AL DETAIL, LA IMPORTACIÓN Y EXPORTACIÓN, EL ALQUILER, DEPÓSITO Y ALMACENAJE, VENTA A COMISIÓN, DISTRIBUCIÓN, INSTALACIÓN, MONTAJE, MANTENIMIENTO Y REPARACIÓN DE ELECTRODOMÉSTICOS DE TODO TIPO, TANTO DE USO DOMÉSTICO COMO INDUSTRIAL EN GENERAL Y EN ESPECIAL MÁQUINAS LAVADORAS Y SECADORAS DE LAVADO Y SECADO AUTOMÁTICO MEDIANTE INTRODUCCIÓN DE MONEDAS. B) LA FABRICACIÓN, COMPRAVENTA AL MAYOR AL DETAIL, COMERCIALIZACIÓN, DISTRIBUCIÓN, LA IMPORTACIÓN Y EXPORTACIÓN, SUMINISTRO, ALMACENAJE Y VENTA A COMISIÓN DE TODO TIPO DE CONSUMIBLES A UTILIZAR EN LAS MÁQUINAS CITADAS ANTERIORMENTE.",
      "mainEntityOfPage": "https://www.contratacion.euskadi.eus/webkpe00-kperoc/es/ac71aBusquedaRegistrosWar/empresa/09870",
      "_links": {
        "self": {
          "name": "LAVATUR AUTOSERVICIO LAVANDERIA, S.L.",
          "href": "https://api.euskadi.eus/procurements/companies/09870"
        }
      }
    },
    {
      "name": "MAIKEN KOOP ELK TXIKIA",
      "registrationNumber": "08396",
      "identificationNumber": "F95991758",
      "address": "Ibaigane 17, entreplanta dpto 3",
      "location": {
        "postalCode": "48930",
        "municipality": "Getxo",
        "county": "Bizkaia",
        "municipalityId": "044",
        "countyId": "48"
      },
      "economicActivities": [
        {
          "id": "1.844",
          "name": "Servicios de publicidad, relaciones públicas y similares",
          "_links": {
            "self": {
              "name": "Servicios de publicidad, relaciones públicas y similares",
              "href": "https://api.euskadi.eus/procurements/companies/economic-activities/1.844"
            }
          }
        },
        {
          "id": "1.847",
          "name": "Servicios de consultoría",
          "_links": {
            "self": {
              "name": "Servicios de consultoría",
              "href": "https://api.euskadi.eus/procurements/companies/economic-activities/1.847"
            }
          }
        },
        {
          "id": "1.934",
          "name": "Enseñanza fuera de establecimiento permanente",
          "_links": {
            "self": {
              "name": "Enseñanza fuera de establecimiento permanente",
              "href": "https://api.euskadi.eus/procurements/companies/economic-activities/1.934"
            }
          }
        }
      ],
      "certificateStartDate": "2024-10-28",
      "certificateEndDate": "2025-04-24",
      "object": "SERVICIOS DE CONSULTORÍA, FORMACIÓN Y ASESORAMIENTO EN EMPRENDIMIENTO. ASIMISMO SE PRESTARÁN SERVICIOS DE DISEÑO Y MARKETING.",
      "mainEntityOfPage": "https://www.contratacion.euskadi.eus/webkpe00-kperoc/es/ac71aBusquedaRegistrosWar/empresa/08396",
      "_links": {
        "self": {
          "name": "MAIKEN KOOP ELK TXIKIA",
          "href": "https://api.euskadi.eus/procurements/companies/08396"
        }
      }
    },
    {
      "name": "TENDENCIAS ORIGINALES DOCUMENTADAS IT, S.L.",
      "registrationNumber": "09577",
      "identificationNumber": "B86396835",
      "address": "Pº de las Naciones 4, portal 2, 2 A",
      "location": {
        "postalCode": "28224",
        "municipality": "Pozuelo de Alarcón",
        "county": "Madrid",
        "municipalityId": "115",
        "countyId": "28"
      },
      "economicActivities": [
        {
          "id": "1.659.2",
          "name": "Venta al por menor de muebles de oficina y máquinas y equipos de oficina",
          "_links": {
            "self": {
              "name": "Venta al por menor de muebles de oficina y máquinas y equipos de oficina",
              "href": "https://api.euskadi.eus/procurements/companies/economic-activities/1.659.2"
            }
          }
        }
      ],
      "certificateStartDate": "2024-10-26",
      "certificateEndDate": "2025-04-25",
      "object": "LA ASESORÍA PROFESIONAL TANTO EN ESTÉTICA Y ESTILO COMO EN COMPRAS EN GENERAL. EL DISEÑO GRÁFICO, LA IMAGEN, REPROGRAFÍA Y ARTES GRÁFICAS. SERVICIOS PROFESIONALES, DE FORMACIÓN Y CONSULTORÍA, EN EL ÁMBITO DE LA INFORMÁTICA. REVENTA DE HARDWARE Y SOFTWARE. SERVICIOS PROFESIONALES DE \"PERSONAL SHOPPER\" Y DE \"BODY SHOPPING\".",
      "mainEntityOfPage": "https://www.contratacion.euskadi.eus/webkpe00-kperoc/es/ac71aBusquedaRegistrosWar/empresa/09577",
      "_links": {
        "self": {
          "name": "TENDENCIAS ORIGINALES DOCUMENTADAS IT, S.L.",
          "href": "https://api.euskadi.eus/procurements/companies/09577"
        }
      }
    },
    {
      "name": "EXCAVACIONES Y JARDINERÍA CHRISTIAN, S.L.",
      "registrationNumber": "07491",
      "identificationNumber": "B01747567",
      "address": "ALEJANDRO RODRIGUEZ VALCARCEL N6 1C",
      "location": {
        "postalCode": "09550",
        "municipality": "Villarcayo de Merindad de Castilla la Vieja",
        "county": "Burgos",
        "municipalityId": "903",
        "countyId": "09"
      },
      "economicActivities": [
        {
          "id": "1.502.3",
          "name": "Consolidación y preparación de terrenos para la realización de obras civiles",
          "_links": {
            "self": {
              "name": "Consolidación y preparación de terrenos para la realización de obras civiles",
              "href": "https://api.euskadi.eus/procurements/companies/economic-activities/1.502.3"
            }
          }
        },
        {
          "id": "1.921.1",
          "name": "Servicios de limpieza en calles, vías públicas y jardines",
          "_links": {
            "self": {
              "name": "Servicios de limpieza en calles, vías públicas y jardines",
              "href": "https://api.euskadi.eus/procurements/companies/economic-activities/1.921.1"
            }
          }
        }
      ],
      "certificateStartDate": "2024-10-25",
      "certificateEndDate": "2025-04-24",
      "object": "DESBROCE EN MONTES Y FINCAS PÚBLICAS Y PRIVADAS. LA LIMPIEZA, MANTENIMIENTO Y CONSERVACIÓN DE VIALES PÚBLICOS O PRIVADOS, JARDINERÍA, SERVICIO DE PLANTACIÓN Y MANTENIMIENTO DE JARDINES, PARQUES Y VÍAS PÚBLICAS, PODA DE ÁRBOLES Y PLANTAS, PREPARACIÓN DE TIERRAS, RIEGO Y DISEÑO DE JARDINES. EXPLOTACIONES AGRÍCOLAS, PECUARIAS Y FORESTALES. EJECUCIÓN DE OBRA CIVIL, CONSTRUCCIÓN, REPARACIÓN Y CONSERVACIÓN DE EDIFICACIONES",
      "mainEntityOfPage": "https://www.contratacion.euskadi.eus/webkpe00-kperoc/es/ac71aBusquedaRegistrosWar/empresa/07491",
      "_links": {
        "self": {
          "name": "EXCAVACIONES Y JARDINERÍA CHRISTIAN, S.L.",
          "href": "https://api.euskadi.eus/procurements/companies/07491"
        }
      }
    },
    {
      "name": "RESYC GLOBAL S.L.",
      "registrationNumber": "09570",
      "identificationNumber": "B67664615",
      "address": "CALLE COMPOSITOR SCHUMANN, 27",
      "location": {
        "postalCode": "08191",
        "municipality": "Rubí",
        "county": "Barcelona",
        "municipalityId": "184",
        "countyId": "08"
      },
      "economicActivities": [
        {
          "id": "1.319.1",
          "name": "Mecánica general",
          "_links": {
            "self": {
              "name": "Mecánica general",
              "href": "https://api.euskadi.eus/procurements/companies/economic-activities/1.319.1"
            }
          }
        }
      ],
      "certificateStartDate": "2024-10-25",
      "certificateEndDate": "2025-04-24",
      "object": "A) LAS OPERACIONES TÍPICAS DEL TRÁFICO INMOBILIARIO, INCLUIDAS LA PROMOCIÓN, CONSTRUCCIÓN, COMERCIALIZACIÓN Y ARRENDAMIENTO (CON EXCLUSIÓN DEL ARRENDAMIENTO ACTIVO FINANCIERO) (CNAE F. PROMOCIÓN INMOBILIARIA 411 Y CONSTRUCCIÓN DE EDIFICIOS 412). B) LA EXPLOTACIÓN, ADMINISTRACIÓN Y GESTIÓN DE CUALESQUIERA TIPOS DE NEGOCIO RELACIONADOS CON LA HOSTELERÍA (CNAE ESTABLECIMIENTOS DE BEBIDAS 563) ACTIVIDAD PRINCIPAL. C) EL COMERCIO AL POR MENOR DE PRENDAS DE VESTIR Y SUS COMPLEMENTOS EN ESTABLECIMIENTOS ESPECIALIZADOS (CNAE COMERCIO AL POR MENOR 4771). D) LA INSTALACIÓN, REPARACIÓN Y MANTENIMIENTO DE MAQUINARIA Y EQUIPOS INDUSTRIALES (CNAE INSTALACIÓN DE MÁQUINAS Y EQUIPOS INDUSTRIALES 3320). E) LA ACTIVIDAD Y ANÁLISIS QUE SE CONOCE CON EL NOMBRE DE \"CONSULTING\", Y QUE RESPONDE AL CONCEPTO AMPLIO DE ASESORAMIENTO ECONÓMICO, CONTABLE Y FISCAL, DE TODA CLASE DE EMPRESAS, NEGOCIOS O ENTIDADES, YA SEA EN SU ASPECTO EMPRESARIAL, ECONÓMICO, COMERCIAL, ADMINISTRATIVO O FISCAL. LA EMISIÓN DE INFORMES, RELATIVOS A LOS CAMPOS ANTES INDICADOS Y LA CONFECCIÓN DE ESTUDIOS DE MERCADO, ORGANIZACIÓN Y ADMINISTRATIVOS. TRABAJOS DE CONTABILIDAD PARA LAS ENTIDADES REFERIDAS. CONSTITUCIÓN DE SOCIEDADES ANÓNIMAS Y LIMITADAS. (CNAE ACTIVIDADES ADMINISTRATIVAS 821).",
      "mainEntityOfPage": "https://www.contratacion.euskadi.eus/webkpe00-kperoc/es/ac71aBusquedaRegistrosWar/empresa/09570",
      "_links": {
        "self": {
          "name": "RESYC GLOBAL S.L.",
          "href": "https://api.euskadi.eus/procurements/companies/09570"
        }
      }
    },
    {
      "name": "HODEITEK, S.L.",
      "registrationNumber": "09869",
      "identificationNumber": "B56478027",
      "address": "Markole, 17",
      "location": {
        "postalCode": "20550",
        "municipality": "Aretxabaleta",
        "county": "Gipuzkoa",
        "municipalityId": "013",
        "countyId": "20"
      },
      "economicActivities": [
        {
          "id": "1.849.9",
          "name": "Otros servicios independientes n.c.o.p",
          "_links": {
            "self": {
              "name": "Otros servicios independientes n.c.o.p",
              "href": "https://api.euskadi.eus/procurements/companies/economic-activities/1.849.9"
            }
          }
        }
      ],
      "certificateStartDate": "2024-10-24",
      "certificateEndDate": "2025-04-24",
      "object": "EL DISEÑO, DESARROLLO, IMPLEMENTACIÓN Y MANTENIMIENTO DE SOLUCIONES DE SOFTWARE Y HARDWARE, EN PARTICULAR EN ÁREAS DE REALIDAD AUMENTADA, REALIDAD VIRTUAL, DESARROLLO WEB 3.0, DISEÑO Y DESARROLLO DE APLICACIONES Y SOLUCIONES EN LA NUBE. PRESTACIÓN DE SERVICIOS DE MARKETING DIGITAL, INCLUYENDO PERO NO LIMITÁNDOSE A LA GESTIÓN DE CAMPAÑAS PUBLICITARIAS, MARKETING EN REDES SOCIALES Y OPTIMIZACIÓN DE MOTORES DE BÚSQUEDA (SEO). DISEÑO, IMPLEMENTACIÓN Y GESTIÓN DE PLATAFORMAS DE COMERCIO ELECTRÓNICO, ASÍ COMO TODAS LAS ACTIVIDADES RELACIONADAS CON LA COMERCIALIZACIÓN DE BIENES Y SERVICIOS A TRAVÉS DE MEDIOS ELECTRÓNICOS. SERVICIOS DE BRANDING, DISEÑO GRÁFICO, PRODUCCIÓN MULTIMEDIA Y OTROS SERVICIOS CREATIVOS. CONSULTORÍA, AUDITORÍA, IMPLEMENTACIÓN Y GESTIÓN DE SOLUCIONES DE CIBERSEGURIDAD PARA INDIVIDUOS Y EMPRESAS. TODAS LAS ACTIVIDADES RELACIONADAS CON LA FORMACIÓN, CAPACITACIÓN Y CONSULTORÍA EN LAS ÁREAS ANTERIORMENTE CITADAS. Y CUALQUIER OTRA ACTIVIDAD RELACIONADA O COMPLEMENTARIA A LAS ANTERIORMENTE DESCRITAS. ",
      "mainEntityOfPage": "https://www.contratacion.euskadi.eus/webkpe00-kperoc/es/ac71aBusquedaRegistrosWar/empresa/09869",
      "_links": {
        "self": {
          "name": "HODEITEK, S.L.",
          "href": "https://api.euskadi.eus/procurements/companies/09869"
        }
      }
    },
    {
      "name": "FUNDACIÓN RESIDENCIA CALZADA DE GERNIKA-LUMO",
      "registrationNumber": "08529",
      "identificationNumber": "G48110225",
      "address": "C/ Juan Calzada, 30",
      "location": {
        "postalCode": "48300",
        "municipality": "Gernika-Lumo",
        "county": "Bizkaia",
        "municipalityId": "046",
        "countyId": "48"
      },
      "economicActivities": [
        {
          "id": "1.951",
          "name": "Asistencia y servicios sociales en centros residenciales",
          "_links": {
            "self": {
              "name": "Asistencia y servicios sociales en centros residenciales",
              "href": "https://api.euskadi.eus/procurements/companies/economic-activities/1.951"
            }
          }
        }
      ],
      "certificateStartDate": "2024-10-24",
      "certificateEndDate": "2025-04-15",
      "object": "1. PROPORCIONAR ALBERGUE, ALIMENTACIÓN Y ASISTENCIA FACULTATIVA, ESTA ÚLTIMA ADECUADA A LA QUE PUEDA PRESTARSE DENTRO DEL ESTABLECIMIENTO CON LOS MEDIOS CON QUE CUENTA, A LOS ANCIANOS Y A LOS POBRES DESVALIDOS DE AMBOS SEXOS QUE, REUNIENDO LAS CIRCUNSTANCIAS QUE MÁS ADELANTE SE DETERMINAN, SEAN ADMISIBLES A JUICIO DE LA JUNTA. 2. EN TODO CASO, LAS PRESTACIONES QUE OFRECE LA RESIDENCIA CARECEN EN ABSOLUTO DE ÁNIMO DE LUCRO Y CUANTAS CONTRAPRESTACIONES RECIBA DE LOS RESIDENTES ESTARÁN DIRIGIDAS A PROPORCIONAR AL CONJUNTO DE ELLOS LAS MEJORES CONDICIONES DE VIDA CON ARREGLO A LAS POSIBILIDADES DEL ESTABLECIMIENTO. 3.\tEN EL CUMPLIMIENTO DE ESE OBJETO FUNDACIONAL, LA RESIDENCIA DIRIGIRÁ SU ACTIVIDAD A LOS FINES DE OFRECER A LOS RESIDENTES UNA ESTANCIA EN LA QUE PREDOMINE EL AMBIENTE FAMILIAR, DENTRO DE LAS ACTITUDES A LAS QUE CADA UNO SE PRESTE PARA ELLO, ASÍ COMO UNA ATENCIÓN PERSONALIZADA EN LAS QUE SE RESPETEN SU LIBERTAD Y SUS DERECHOS.\n",
      "mainEntityOfPage": "https://www.contratacion.euskadi.eus/webkpe00-kperoc/es/ac71aBusquedaRegistrosWar/empresa/08529",
      "_links": {
        "self": {
          "name": "FUNDACIÓN RESIDENCIA CALZADA DE GERNIKA-LUMO",
          "href": "https://api.euskadi.eus/procurements/companies/08529"
        }
      }
    },
    {
      "name": "FERRETERIA INDUSTRIAL ETXEGU, S.L.",
      "registrationNumber": "09867",
      "identificationNumber": "B95684114",
      "address": "POLIGONO ARRIAGANE NAVE 12",
      "location": {
        "postalCode": "48340",
        "municipality": "Amorebieta-Etxano",
        "county": "Bizkaia",
        "municipalityId": "003",
        "countyId": "48"
      },
      "economicActivities": [
        {
          "id": "1.615.3",
          "name": "Venta al por mayor de aparatos electrodomésticos y ferretería",
          "_links": {
            "self": {
              "name": "Venta al por mayor de aparatos electrodomésticos y ferretería",
              "href": "https://api.euskadi.eus/procurements/companies/economic-activities/1.615.3"
            }
          }
        }
      ],
      "certificateStartDate": "2024-10-24",
      "certificateEndDate": "2025-04-24",
      "object": "LA ACTIVIDAD DE FERRETERÍA Y SUMINISTROS INDUSTRIALES.",
      "mainEntityOfPage": "https://www.contratacion.euskadi.eus/webkpe00-kperoc/es/ac71aBusquedaRegistrosWar/empresa/09867",
      "_links": {
        "self": {
          "name": "FERRETERIA INDUSTRIAL ETXEGU, S.L.",
          "href": "https://api.euskadi.eus/procurements/companies/09867"
        }
      }
    },
    {
      "name": "SAVVY DATA SYSTEMS, S.L.",
      "registrationNumber": "09137",
      "identificationNumber": "B75092114",
      "address": "Zubiberri 31, Planta baja local 5",
      "location": {
        "postalCode": "20018",
        "municipality": "Donostia / San Sebastián",
        "county": "Gipuzkoa",
        "municipalityId": "069",
        "countyId": "20"
      },
      "economicActivities": [
        {
          "id": "1.845",
          "name": "Explotación electrónica por cuenta de terceros",
          "_links": {
            "self": {
              "name": "Explotación electrónica por cuenta de terceros",
              "href": "https://api.euskadi.eus/procurements/companies/economic-activities/1.845"
            }
          }
        }
      ],
      "certificateStartDate": "2024-10-24",
      "certificateEndDate": "2025-04-23",
      "object": "EL ASESORAMIENTO TÉCNICO E INFORMÁTICO, EL DESARROLLO DE PROGRAMAS Y EL DISEÑO, INSTALACIÓN Y MANTENIMIENTO DE REDES DE COMUNICACIONES, SISTEMAS DE TRATAMIENTO DE INFORMACIÓN Y PROCESO DE DATOS. C.N.A.E: 6209.",
      "mainEntityOfPage": "https://www.contratacion.euskadi.eus/webkpe00-kperoc/es/ac71aBusquedaRegistrosWar/empresa/09137",
      "_links": {
        "self": {
          "name": "SAVVY DATA SYSTEMS, S.L.",
          "href": "https://api.euskadi.eus/procurements/companies/09137"
        }
      }
    },
    {
      "name": "GORKA ELIZONDO JORGE",
      "registrationNumber": "09332",
      "identificationNumber": "72828119E",
      "address": "C/ Jacinto Benavente, 12 - 11ºD",
      "location": {
        "postalCode": "01003",
        "municipality": "Vitoria-Gasteiz",
        "county": "Araba/Álava",
        "municipalityId": "059",
        "countyId": "01"
      },
      "economicActivities": [
        {
          "id": "1.921.9",
          "name": "Otros servicios de saneamiento y similares n.c.o.p",
          "_links": {
            "self": {
              "name": "Otros servicios de saneamiento y similares n.c.o.p",
              "href": "https://api.euskadi.eus/procurements/companies/economic-activities/1.921.9"
            }
          }
        }
      ],
      "certificateStartDate": "2024-10-24",
      "certificateEndDate": "2025-04-23",
      "object": "ACTIVIDADES DE JARDINERÍA.",
      "mainEntityOfPage": "https://www.contratacion.euskadi.eus/webkpe00-kperoc/es/ac71aBusquedaRegistrosWar/empresa/09332",
      "_links": {
        "self": {
          "name": "GORKA ELIZONDO JORGE",
          "href": "https://api.euskadi.eus/procurements/companies/09332"
        }
      }
    }
  ]
}