{
  "totalItems": 9042,
  "totalPages": 905,
  "currentPage": 475,
  "itemsOfPage": 10,
  "items": [
    {
      "name": "MARÍA DE LAS MERCEDES CIRIA BERZOSA",
      "registrationNumber": "08437",
      "identificationNumber": "16811476V",
      "address": "Avenida de Valladolid 54, bajo",
      "location": {
        "postalCode": "42004",
        "municipality": "Soria",
        "county": "Soria",
        "municipalityId": "173",
        "countyId": "42"
      },
      "economicActivities": [
        {
          "id": "1.654.1",
          "name": "Venta al por menor de vehículos terrestres",
          "_links": {
            "self": {
              "name": "Venta al por menor de vehículos terrestres",
              "href": "https://api.euskadi.eus/procurements/companies/economic-activities/1.654.1"
            }
          }
        },
        {
          "id": "1.861.2",
          "name": "Alquiler de locales industriales y otros alquileres n.c.o.p",
          "_links": {
            "self": {
              "name": "Alquiler de locales industriales y otros alquileres n.c.o.p",
              "href": "https://api.euskadi.eus/procurements/companies/economic-activities/1.861.2"
            }
          }
        },
        {
          "id": "2.741",
          "name": "Economistas",
          "_links": {
            "self": {
              "name": "Economistas",
              "href": "https://api.euskadi.eus/procurements/companies/economic-activities/2.741"
            }
          }
        }
      ],
      "certificateStartDate": "2022-11-28",
      "certificateEndDate": "2023-05-28",
      "object": "ECONOMISTAS. VENTA AL POR MENOR DE VEHÍCULOS TERRESTRES. ALQUILER DE LOCALES INDUSTRIALES Y OTROS ALQUILERES N.C.O.P.",
      "mainEntityOfPage": "https://www.contratacion.euskadi.eus/webkpe00-kperoc/es/ac71aBusquedaRegistrosWar/empresa/08437",
      "_links": {
        "self": {
          "name": "MARÍA DE LAS MERCEDES CIRIA BERZOSA",
          "href": "https://api.euskadi.eus/procurements/companies/08437"
        }
      }
    },
    {
      "name": "UMI COMUNICACIONES 2003, S.L.",
      "registrationNumber": "03972",
      "identificationNumber": "B95262242",
      "address": "AVDA. PINOA 8, LOCAL 32",
      "location": {
        "postalCode": "48170",
        "municipality": "Zamudio",
        "county": "Bizkaia",
        "municipalityId": "905",
        "countyId": "48"
      },
      "economicActivities": [
        {
          "id": "1.504.12",
          "name": "Instalaciones eléctricas en toda clase de edificios",
          "_links": {
            "self": {
              "name": "Instalaciones eléctricas en toda clase de edificios",
              "href": "https://api.euskadi.eus/procurements/companies/economic-activities/1.504.12"
            }
          }
        }
      ],
      "certificateStartDate": "2022-11-28",
      "certificateEndDate": "2023-04-17",
      "object": "LA INSTALACIÓN, REPARACIÓN Y MANTENIMIENTO DE TODO LO RELACIONADO CON LAS REDES DE TELEFONÍA FIJA Y MÓVIL, LA INFORMÁTICA, LA ELECTRICIDAD Y LA ENERGÍA RENOVABLE, ASÍ COMO LA COMPRAVENTA, IMPORTACIÓN Y EXPORTACIÓN DE TODO TIPO DE PRODUCTOS Y ARTÍCULOS CON LO ANTERIORMENTE RELACIONADO",
      "mainEntityOfPage": "https://www.contratacion.euskadi.eus/webkpe00-kperoc/es/ac71aBusquedaRegistrosWar/empresa/03972",
      "_links": {
        "self": {
          "name": "UMI COMUNICACIONES 2003, S.L.",
          "href": "https://api.euskadi.eus/procurements/companies/03972"
        }
      }
    },
    {
      "name": "MARIA TERESA GARCÍA GARCÍA",
      "registrationNumber": "08461",
      "identificationNumber": "15364078D",
      "address": "BIDEBARRIETA, 20 BAJO",
      "location": {
        "postalCode": "20600",
        "municipality": "Eibar",
        "county": "Gipuzkoa",
        "municipalityId": "030",
        "countyId": "20"
      },
      "economicActivities": [
        {
          "id": "1.659.4",
          "name": "Venta al por menor de libros, periódicos y artículos de papelería y escritorio",
          "_links": {
            "self": {
              "name": "Venta al por menor de libros, periódicos y artículos de papelería y escritorio",
              "href": "https://api.euskadi.eus/procurements/companies/economic-activities/1.659.4"
            }
          }
        }
      ],
      "certificateStartDate": "2022-11-25",
      "certificateEndDate": "2023-05-25",
      "object": "COMERCIO AL POR MENOR DE LIBROS EN ESTABLECIMIENTOS ESPECIALIZADOS.",
      "mainEntityOfPage": "https://www.contratacion.euskadi.eus/webkpe00-kperoc/es/ac71aBusquedaRegistrosWar/empresa/08461",
      "_links": {
        "self": {
          "name": "MARIA TERESA GARCÍA GARCÍA",
          "href": "https://api.euskadi.eus/procurements/companies/08461"
        }
      }
    },
    {
      "name": "AIDA FANO SAGASTUY",
      "registrationNumber": "08466",
      "identificationNumber": "14613634D",
      "address": "Calle Gobela (48930)15-4º B",
      "location": {
        "postalCode": "48930",
        "municipality": "Getxo",
        "county": "Bizkaia",
        "municipalityId": "044",
        "countyId": "48"
      },
      "economicActivities": [
        {
          "id": "1.659.3",
          "name": "Venta al por menor de aparatos médicos, ortopédicos, ópticos y fotográficos",
          "_links": {
            "self": {
              "name": "Venta al por menor de aparatos médicos, ortopédicos, ópticos y fotográficos",
              "href": "https://api.euskadi.eus/procurements/companies/economic-activities/1.659.3"
            }
          }
        },
        {
          "id": "2.838",
          "name": "Ópticos-optometristas y podólogos",
          "_links": {
            "self": {
              "name": "Ópticos-optometristas y podólogos",
              "href": "https://api.euskadi.eus/procurements/companies/economic-activities/2.838"
            }
          }
        }
      ],
      "certificateStartDate": "2022-11-25",
      "certificateEndDate": "2023-05-25",
      "object": "ÓPTICOS-OPTOMETRISTAS Y PODÓLOGOS. VENTA AL POR MENOR DE APARATOS MÉDICOS, ORTOPÉDICOS, ÓPTICOS Y FOTOGRÁFICOS.",
      "mainEntityOfPage": "https://www.contratacion.euskadi.eus/webkpe00-kperoc/es/ac71aBusquedaRegistrosWar/empresa/08466",
      "_links": {
        "self": {
          "name": "AIDA FANO SAGASTUY",
          "href": "https://api.euskadi.eus/procurements/companies/08466"
        }
      }
    },
    {
      "name": "OBRAS Y CONTRATAS CONORTE, S.L.",
      "registrationNumber": "05247",
      "identificationNumber": "B95262879",
      "address": "Médico Antonio Eguiluz, 16. Lonja",
      "location": {
        "postalCode": "48004",
        "municipality": "Bilbao",
        "county": "Bizkaia",
        "municipalityId": "020",
        "countyId": "48"
      },
      "economicActivities": [
        {
          "id": "1.501.3",
          "name": "Albañilería y pequeños trabajos de construcción en general",
          "_links": {
            "self": {
              "name": "Albañilería y pequeños trabajos de construcción en general",
              "href": "https://api.euskadi.eus/procurements/companies/economic-activities/1.501.3"
            }
          }
        }
      ],
      "certificateStartDate": "2022-11-23",
      "certificateEndDate": "2023-05-15",
      "object": "LA CONSTRUCCIÓN, REPARACIÓN Y CONSERVACIÓN DE EDIFICACIONES, TRABAJOS DE ALBAÑILERÍA, OBRAS MENORES Y CONSTRUCCIÓN EN GENERAL",
      "mainEntityOfPage": "https://www.contratacion.euskadi.eus/webkpe00-kperoc/es/ac71aBusquedaRegistrosWar/empresa/05247",
      "_links": {
        "self": {
          "name": "OBRAS Y CONTRATAS CONORTE, S.L.",
          "href": "https://api.euskadi.eus/procurements/companies/05247"
        }
      }
    },
    {
      "name": "CERIAN SHOWER SOCIEDAD LIMITADA",
      "registrationNumber": "08422",
      "identificationNumber": "B98949654",
      "address": "Francisco Ribalta, 17",
      "location": {
        "postalCode": "46680",
        "municipality": "Algemesí",
        "county": "Valencia/València",
        "municipalityId": "029",
        "countyId": "46"
      },
      "economicActivities": [
        {
          "id": "1.665",
          "name": "Venta al por menor por correo o catálogo de productos diversos",
          "_links": {
            "self": {
              "name": "Venta al por menor por correo o catálogo de productos diversos",
              "href": "https://api.euskadi.eus/procurements/companies/economic-activities/1.665"
            }
          }
        }
      ],
      "certificateStartDate": "2022-11-21",
      "certificateEndDate": "2023-05-21",
      "object": "EL DESARROLLO DE LAS ACTIVIDADES CORRESPONDIENTE A LOS SIGUIENTES CÓDIGOS Y DESCRIPCIONES DE LA CLASIFICACIÓN NACIONAL DE ACTIVIDADES ECONÓMICAS: ACTIVIDAD PRINCIPAL: 4673 COMERCIO A POR MAYOR DE MADERA, MATERIALES DE CONSTRUCCIÓN Y APARATOS SANITARIOS. OTRAS ACTIVIDADES: 7112 SERVICIOS TÉCNICOS DE INGENIERÍA Y OTRAS ACTIVIDADES RELACIONADAS CON EL ASESORAMIENTO TÉCNICO; 7120 ENSAYOS Y ANÁLISIS TÉCNICOS; 2223 FABRICACIÓN DE PRODUCTOS DE PLÁSTICO PARA LA CONSTRUCCIÓN; 4322 FONTANERÍA, INSTALACIONES DE SISTEMAS DE CALEFACCIÓN Y AIRE ACONDICIONADO; 8532 EDUCACIÓN SECUNDARIA TÉCNICA Y PROFESIONAL; 8541 EDUCACIÓN POSTSECUNDARIA NO TERCIARIA.",
      "mainEntityOfPage": "https://www.contratacion.euskadi.eus/webkpe00-kperoc/es/ac71aBusquedaRegistrosWar/empresa/08422",
      "_links": {
        "self": {
          "name": "CERIAN SHOWER SOCIEDAD LIMITADA",
          "href": "https://api.euskadi.eus/procurements/companies/08422"
        }
      }
    },
    {
      "name": "PINE INSTALACIONES Y MONTAJES, S.A.",
      "registrationNumber": "01529",
      "identificationNumber": "A48713416",
      "address": "ASTINTZE KALEA 6A, 3ª PLANTA DPTO. 308",
      "location": {
        "postalCode": "48160",
        "municipality": "Derio",
        "county": "Bizkaia",
        "municipalityId": "901",
        "countyId": "48"
      },
      "economicActivities": [
        {
          "id": "1.504.1",
          "name": "Instalaciones eléctricas en general",
          "_links": {
            "self": {
              "name": "Instalaciones eléctricas en general",
              "href": "https://api.euskadi.eus/procurements/companies/economic-activities/1.504.1"
            }
          }
        },
        {
          "id": "1.504.12",
          "name": "Instalaciones eléctricas en toda clase de edificios",
          "_links": {
            "self": {
              "name": "Instalaciones eléctricas en toda clase de edificios",
              "href": "https://api.euskadi.eus/procurements/companies/economic-activities/1.504.12"
            }
          }
        },
        {
          "id": "1.843.1",
          "name": "Servicios técnicos de ingeniería",
          "_links": {
            "self": {
              "name": "Servicios técnicos de ingeniería",
              "href": "https://api.euskadi.eus/procurements/companies/economic-activities/1.843.1"
            }
          }
        }
      ],
      "certificateStartDate": "2022-11-21",
      "certificateEndDate": "2023-05-15",
      "object": "LA INGENIERÍA, DISEÑO, CONSTRUCCIÓN, MONTAJE Y PUESTA EN MARCHA DE EQUIPOS ELÉCTRICOS Y ELECTRÓNICOS DE POTENCIA, MANDO, REGULACIÓN Y CONTROL Y SU COMERCIALIZACIÓN",
      "mainEntityOfPage": "https://www.contratacion.euskadi.eus/webkpe00-kperoc/es/ac71aBusquedaRegistrosWar/empresa/01529",
      "_links": {
        "self": {
          "name": "PINE INSTALACIONES Y MONTAJES, S.A.",
          "href": "https://api.euskadi.eus/procurements/companies/01529"
        }
      }
    },
    {
      "name": "TECSTAR EVENTOS Y ESPECTACULOS, S.L.",
      "registrationNumber": "08421",
      "identificationNumber": "B95540985",
      "address": "Gran via lendakari Jose Antonio Aguirre 86 lonja ",
      "location": {
        "postalCode": "48910",
        "municipality": "Sestao",
        "county": "Bizkaia",
        "municipalityId": "084",
        "countyId": "48"
      },
      "economicActivities": [
        {
          "id": "1.843.9",
          "name": "Otros servicios técnicos n.c.o.p",
          "_links": {
            "self": {
              "name": "Otros servicios técnicos n.c.o.p",
              "href": "https://api.euskadi.eus/procurements/companies/economic-activities/1.843.9"
            }
          }
        }
      ],
      "certificateStartDate": "2022-11-18",
      "certificateEndDate": "2023-05-18",
      "object": "SERVICIOS TÉCNICOS PARA ESPECTÁCULOS Y SONIDO.",
      "mainEntityOfPage": "https://www.contratacion.euskadi.eus/webkpe00-kperoc/es/ac71aBusquedaRegistrosWar/empresa/08421",
      "_links": {
        "self": {
          "name": "TECSTAR EVENTOS Y ESPECTACULOS, S.L.",
          "href": "https://api.euskadi.eus/procurements/companies/08421"
        }
      }
    },
    {
      "name": "ROBERTO FLORES CALERO",
      "registrationNumber": "08403",
      "identificationNumber": "78878443N",
      "address": "AVDA. MUNGIALDE 1 2ºB",
      "location": {
        "postalCode": "48160",
        "municipality": "Derio",
        "county": "Bizkaia",
        "municipalityId": "901",
        "countyId": "48"
      },
      "economicActivities": [
        {
          "id": "1.659.6",
          "name": "Venta al por menor de juguetes, artículos de deporte",
          "_links": {
            "self": {
              "name": "Venta al por menor de juguetes, artículos de deporte",
              "href": "https://api.euskadi.eus/procurements/companies/economic-activities/1.659.6"
            }
          }
        },
        {
          "id": "1.972.2",
          "name": "Salones e institutos de belleza y gabinetes de estética",
          "_links": {
            "self": {
              "name": "Salones e institutos de belleza y gabinetes de estética",
              "href": "https://api.euskadi.eus/procurements/companies/economic-activities/1.972.2"
            }
          }
        },
        {
          "id": "2.826",
          "name": "Personal docente de enseñanzas diversas",
          "_links": {
            "self": {
              "name": "Personal docente de enseñanzas diversas",
              "href": "https://api.euskadi.eus/procurements/companies/economic-activities/2.826"
            }
          }
        },
        {
          "id": "3.045",
          "name": "Jugadores, entrenadores y preparadores de baloncesto",
          "_links": {
            "self": {
              "name": "Jugadores, entrenadores y preparadores de baloncesto",
              "href": "https://api.euskadi.eus/procurements/companies/economic-activities/3.045"
            }
          }
        }
      ],
      "certificateStartDate": "2022-11-16",
      "certificateEndDate": "2023-05-15",
      "object": "JUGADORES, ENTRENADORES Y PREPARADORES DE BALONCESTO. SALONES E INSTITUTOS DE BELLEZA Y GABINETES DE ESTÉTICA. VENTA AL POR MENOR DE JUGUETES, ARTÍCULOS DE DEPORTE.",
      "mainEntityOfPage": "https://www.contratacion.euskadi.eus/webkpe00-kperoc/es/ac71aBusquedaRegistrosWar/empresa/08403",
      "_links": {
        "self": {
          "name": "ROBERTO FLORES CALERO",
          "href": "https://api.euskadi.eus/procurements/companies/08403"
        }
      }
    },
    {
      "name": "IMAGO PRODUCCIÓN AUDIOVISUAL",
      "registrationNumber": "06476",
      "identificationNumber": "B01240266",
      "address": "Zapatería 104, bajo",
      "location": {
        "postalCode": "01001",
        "municipality": "Vitoria-Gasteiz",
        "county": "Araba/Álava",
        "municipalityId": "059",
        "countyId": "01"
      },
      "economicActivities": [
        {
          "id": "1.659.2",
          "name": "Venta al por menor de muebles de oficina y máquinas y equipos de oficina",
          "_links": {
            "self": {
              "name": "Venta al por menor de muebles de oficina y máquinas y equipos de oficina",
              "href": "https://api.euskadi.eus/procurements/companies/economic-activities/1.659.2"
            }
          }
        },
        {
          "id": "1.844",
          "name": "Servicios de publicidad, relaciones públicas y similares",
          "_links": {
            "self": {
              "name": "Servicios de publicidad, relaciones públicas y similares",
              "href": "https://api.euskadi.eus/procurements/companies/economic-activities/1.844"
            }
          }
        },
        {
          "id": "1.961.1",
          "name": "Producción de películas cinematográficas (incluso vídeos)",
          "_links": {
            "self": {
              "name": "Producción de películas cinematográficas (incluso vídeos)",
              "href": "https://api.euskadi.eus/procurements/companies/economic-activities/1.961.1"
            }
          }
        }
      ],
      "certificateStartDate": "2022-11-15",
      "certificateEndDate": "2023-05-13",
      "object": "PRODUCCIÓN, DISTRIBUCIÓN, IMPORTACIÓN Y PROMOCIÓN DE MATERIAL AUDIVISUAL Y CINEMATOGRÁFICO Y DEMÁS ARTES APLICADAS",
      "mainEntityOfPage": "https://www.contratacion.euskadi.eus/webkpe00-kperoc/es/ac71aBusquedaRegistrosWar/empresa/06476",
      "_links": {
        "self": {
          "name": "IMAGO PRODUCCIÓN AUDIOVISUAL",
          "href": "https://api.euskadi.eus/procurements/companies/06476"
        }
      }
    }
  ]
}