{
  "totalItems": 9042,
  "totalPages": 905,
  "currentPage": 531,
  "itemsOfPage": 10,
  "items": [
    {
      "name": "DISEÑO Y APLICACIONES DEL NO TEJIDO, S.L.",
      "registrationNumber": "07671",
      "identificationNumber": "B23258635",
      "address": "PI EL CHAPARRAL SN",
      "location": {
        "postalCode": "23692",
        "municipality": "Alcalá la Real",
        "county": "Jaén",
        "municipalityId": "002",
        "countyId": "23"
      },
      "economicActivities": [
        {
          "id": "1.455.9",
          "name": "Confección de otros artículos con materias textiles n.c.o.p",
          "_links": {
            "self": {
              "name": "Confección de otros artículos con materias textiles n.c.o.p",
              "href": "https://api.euskadi.eus/procurements/companies/economic-activities/1.455.9"
            }
          }
        },
        {
          "id": "1.473.2",
          "name": "Fabricación de otros artículos de envase y embalaje en papel",
          "_links": {
            "self": {
              "name": "Fabricación de otros artículos de envase y embalaje en papel",
              "href": "https://api.euskadi.eus/procurements/companies/economic-activities/1.473.2"
            }
          }
        }
      ],
      "certificateStartDate": "2021-05-25",
      "certificateEndDate": "2021-11-04",
      "object": "1. ACTIVIDAD PRINCIPAL: FABRICACIÓN DE TELAS NO TEJIDAS Y ARTÍCULOS CONFECCIONADOS CON ELLAS, EXCEPTO PRENDAS DE VESTIR -CNAE 1395-. 2. LA FABRICACIÓN DE BOLSAS Y FUNDAS DE NO TEJIDO, PAPEL, ALGODÓN, MATERIALES LAMINADAS Y DE CUALQUIER OTRO MATERIAL APTO PARA ESTA CLASE DE PRODUCTO. 3.LA FABRICACIÓN Y COMERCIALIZACIÓN DE CUALQUIER CLASE DE PRENDAS EN GÉNEROS TEXTILES DE TODO TIPO (TEJIDOS Y NO TEJIDOS). 4. LA FABRICACIÓN DE MASCARILLAS DE PROTECCIÓN DE TODO TIPO, INCLUIDAS LAS DESTINADAS AL SECTOR MÉDICO/SANITARIO. 5. LA FABRICACIÓN DE MATERIAL TEXTIL DE USO SANITARIO, TALES COMO SÁBANAS DESECHABLES, BOBINAS DE TEXTILES PARA CAMILLAS, BATAS, GORROS, PATUCOS, MANGUITOS Y CUALESQUIERA OTROS DESTINADOS A PROTECCIÓN QUIRÚRGICA. \r\n6. LA FABRICACIÓN DE EPIS (EQUIPOS DE PROTECCIÓN INDIVIDUAL) DE TODAS CLASES",
      "mainEntityOfPage": "https://www.contratacion.euskadi.eus/webkpe00-kperoc/es/ac71aBusquedaRegistrosWar/empresa/07671",
      "_links": {
        "self": {
          "name": "DISEÑO Y APLICACIONES DEL NO TEJIDO, S.L.",
          "href": "https://api.euskadi.eus/procurements/companies/07671"
        }
      }
    },
    {
      "name": "SCHILLER ESPAÑA, S.A.",
      "registrationNumber": "02422",
      "identificationNumber": "A82596081",
      "address": "C/DUBLIN 1",
      "location": {
        "postalCode": "28232",
        "municipality": "Rozas de Madrid, Las",
        "county": "Madrid",
        "municipalityId": "127",
        "countyId": "28"
      },
      "economicActivities": [
        {
          "id": "1.619.2",
          "name": "Venta al por mayor de aparatos e instrumentos médicos, ortopédicos, ópticos",
          "_links": {
            "self": {
              "name": "Venta al por mayor de aparatos e instrumentos médicos, ortopédicos, ópticos",
              "href": "https://api.euskadi.eus/procurements/companies/economic-activities/1.619.2"
            }
          }
        },
        {
          "id": "1.859",
          "name": "Alquiler de otros bienes muebles n.c.o.p. (sin personal permanente)",
          "_links": {
            "self": {
              "name": "Alquiler de otros bienes muebles n.c.o.p. (sin personal permanente)",
              "href": "https://api.euskadi.eus/procurements/companies/economic-activities/1.859"
            }
          }
        }
      ],
      "certificateStartDate": "2021-05-24",
      "certificateEndDate": "2021-10-27",
      "object": "LA IMPORTACIÓN, EXPORTACIÓN, MARKETING, VENTAS, DISTRIBUCIÓN, MANTENIMIENTO, PRODUCCIÓN Y EXPLOTACIÓN DE EQUIPOS MÉDICOS, HARDWARE, SOFTWARE, ACCESORIOS, PRÓTESIS Y FUNGIBLES.\r\n",
      "mainEntityOfPage": "https://www.contratacion.euskadi.eus/webkpe00-kperoc/es/ac71aBusquedaRegistrosWar/empresa/02422",
      "_links": {
        "self": {
          "name": "SCHILLER ESPAÑA, S.A.",
          "href": "https://api.euskadi.eus/procurements/companies/02422"
        }
      }
    },
    {
      "name": "OREKA INSTALACIONES, S.L.",
      "registrationNumber": "07665",
      "identificationNumber": "B02726537",
      "address": "POLIGONO EZIAGO 1 SECTOR B PLANTA 1 ENTREPLANTA OFICINA 2",
      "location": {
        "postalCode": "20120",
        "municipality": "Hernani",
        "county": "Gipuzkoa",
        "municipalityId": "040",
        "countyId": "20"
      },
      "economicActivities": [
        {
          "id": "1.692",
          "name": "Reparación de maquinaria industrial",
          "_links": {
            "self": {
              "name": "Reparación de maquinaria industrial",
              "href": "https://api.euskadi.eus/procurements/companies/economic-activities/1.692"
            }
          }
        }
      ],
      "certificateStartDate": "2021-05-24",
      "certificateEndDate": "2021-11-13",
      "object": "LA INSTALACIÓN, REPARACIÓN Y MANTENIMIENTO DE TODO TIPO DE MAQUINARIA E INSTALACIONES INDUSTRIALES. INSTALACIONES TÉCNICAS E INDUSTRIALES. LA FABRICACIÓN DE INSTALACIONES DE CARÁCTER INDUSTRIAL",
      "mainEntityOfPage": "https://www.contratacion.euskadi.eus/webkpe00-kperoc/es/ac71aBusquedaRegistrosWar/empresa/07665",
      "_links": {
        "self": {
          "name": "OREKA INSTALACIONES, S.L.",
          "href": "https://api.euskadi.eus/procurements/companies/07665"
        }
      }
    },
    {
      "name": "GENOCHEN WORLD, S.L.",
      "registrationNumber": "05908",
      "identificationNumber": "B98858616",
      "address": "CALLE DEL PARQUE, 2, BAJO 1 IZQ",
      "location": {
        "postalCode": "46131",
        "municipality": "València",
        "county": "Valencia/València",
        "municipalityId": "250",
        "countyId": "46"
      },
      "economicActivities": [
        {
          "id": "1.611",
          "name": "Venta al por mayor de toda clase de mercancías",
          "_links": {
            "self": {
              "name": "Venta al por mayor de toda clase de mercancías",
              "href": "https://api.euskadi.eus/procurements/companies/economic-activities/1.611"
            }
          }
        },
        {
          "id": "1.612.3",
          "name": "Venta al por mayor de frutas y verduras, patatas, legumbres frescas",
          "_links": {
            "self": {
              "name": "Venta al por mayor de frutas y verduras, patatas, legumbres frescas",
              "href": "https://api.euskadi.eus/procurements/companies/economic-activities/1.612.3"
            }
          }
        },
        {
          "id": "1.614.1",
          "name": "Venta al por mayor de productos farmacéuticos y medicamentos",
          "_links": {
            "self": {
              "name": "Venta al por mayor de productos farmacéuticos y medicamentos",
              "href": "https://api.euskadi.eus/procurements/companies/economic-activities/1.614.1"
            }
          }
        },
        {
          "id": "1.616.6",
          "name": "Venta al por mayor de productos químicos industriales",
          "_links": {
            "self": {
              "name": "Venta al por mayor de productos químicos industriales",
              "href": "https://api.euskadi.eus/procurements/companies/economic-activities/1.616.6"
            }
          }
        },
        {
          "id": "1.616.9",
          "name": "Otro comercio al por mayor interindustria de la minería n.c.o.p",
          "_links": {
            "self": {
              "name": "Otro comercio al por mayor interindustria de la minería n.c.o.p",
              "href": "https://api.euskadi.eus/procurements/companies/economic-activities/1.616.9"
            }
          }
        },
        {
          "id": "1.618.2",
          "name": "Venta al por mayor de toda clase de mercancías en zonas francas",
          "_links": {
            "self": {
              "name": "Venta al por mayor de toda clase de mercancías en zonas francas",
              "href": "https://api.euskadi.eus/procurements/companies/economic-activities/1.618.2"
            }
          }
        },
        {
          "id": "1.619.2",
          "name": "Venta al por mayor de aparatos e instrumentos médicos, ortopédicos, ópticos",
          "_links": {
            "self": {
              "name": "Venta al por mayor de aparatos e instrumentos médicos, ortopédicos, ópticos",
              "href": "https://api.euskadi.eus/procurements/companies/economic-activities/1.619.2"
            }
          }
        },
        {
          "id": "1.619.7",
          "name": "Venta al por mayor de instrumentos de precisión, medida y similares",
          "_links": {
            "self": {
              "name": "Venta al por mayor de instrumentos de precisión, medida y similares",
              "href": "https://api.euskadi.eus/procurements/companies/economic-activities/1.619.7"
            }
          }
        },
        {
          "id": "1.631",
          "name": "Intermediarios del comercio",
          "_links": {
            "self": {
              "name": "Intermediarios del comercio",
              "href": "https://api.euskadi.eus/procurements/companies/economic-activities/1.631"
            }
          }
        },
        {
          "id": "1.936",
          "name": "Investigación científica y técnica",
          "_links": {
            "self": {
              "name": "Investigación científica y técnica",
              "href": "https://api.euskadi.eus/procurements/companies/economic-activities/1.936"
            }
          }
        }
      ],
      "certificateStartDate": "2021-05-23",
      "certificateEndDate": "2021-11-23",
      "object": "INTERMEDIARIOS DEL COMERCIO DE PRODUCTOS DIVERSOS. COMERCIO AL POR MAYOR DE PRODUCTOS QUÍMICOS. COMERCIO AL POR MAYOR NO ESPECIALIZADO. COMERCIO AL POR MAYOR PRODUCTOS PERFUMERÍA Y COSMÉTICA. COMERCIO AL POR MAYOR DE PRODUCTOS FARMACÉUTICOS. COMERCIO AL POR MAYOR DE OTRA MAQUINARIA Y EQUIPO",
      "mainEntityOfPage": "https://www.contratacion.euskadi.eus/webkpe00-kperoc/es/ac71aBusquedaRegistrosWar/empresa/05908",
      "_links": {
        "self": {
          "name": "GENOCHEN WORLD, S.L.",
          "href": "https://api.euskadi.eus/procurements/companies/05908"
        }
      }
    },
    {
      "name": "IKER BALERDI GOIRI",
      "registrationNumber": "06907",
      "identificationNumber": "16071246L",
      "address": "Simon Otxandategui, 52",
      "location": {
        "postalCode": "48640",
        "municipality": "Berango",
        "county": "Bizkaia",
        "municipalityId": "016",
        "countyId": "48"
      },
      "economicActivities": [
        {
          "id": "2.899",
          "name": "Otros profesionales",
          "_links": {
            "self": {
              "name": "Otros profesionales",
              "href": "https://api.euskadi.eus/procurements/companies/economic-activities/2.899"
            }
          }
        }
      ],
      "certificateStartDate": "2021-05-20",
      "certificateEndDate": "2021-11-18",
      "object": "ASESORAMIENTO AMBIENTAL",
      "mainEntityOfPage": "https://www.contratacion.euskadi.eus/webkpe00-kperoc/es/ac71aBusquedaRegistrosWar/empresa/06907",
      "_links": {
        "self": {
          "name": "IKER BALERDI GOIRI",
          "href": "https://api.euskadi.eus/procurements/companies/06907"
        }
      }
    },
    {
      "name": "CONTROL DE RECURSOS ENERGETICOS, S.L.",
      "registrationNumber": "07663",
      "identificationNumber": "B75002907",
      "address": "PASEO ZARAGÜETA 1 BAJO 10",
      "location": {
        "postalCode": "20014",
        "municipality": "Donostia / San Sebastián",
        "county": "Gipuzkoa",
        "municipalityId": "069",
        "countyId": "20"
      },
      "economicActivities": [
        {
          "id": "1.504.1",
          "name": "Instalaciones eléctricas en general",
          "_links": {
            "self": {
              "name": "Instalaciones eléctricas en general",
              "href": "https://api.euskadi.eus/procurements/companies/economic-activities/1.504.1"
            }
          }
        },
        {
          "id": "1.843.1",
          "name": "Servicios técnicos de ingeniería",
          "_links": {
            "self": {
              "name": "Servicios técnicos de ingeniería",
              "href": "https://api.euskadi.eus/procurements/companies/economic-activities/1.843.1"
            }
          }
        }
      ],
      "certificateStartDate": "2021-05-20",
      "certificateEndDate": "2021-11-18",
      "object": "EL ASESORAMIENTO Y LA REALIZACIÓN DE PROYECTOS DE INGENIERÍA EN MATERIA DE ELECTRICIDAD, CLIMATIZACIÓN Y AHORRO DE ENERGÍA TANTO PARA LA INDUSTRIA COMO INSTITUCIONES PÚBLICAS Y PARTICULARES, Y LA COMERCIALIZACIÓN DE TODO TIPO DE PRODUCTOS Y SERVICIOS RELACIONADOS CON ESTE OBJETO, ASÍ COMO LA PRESTACIÓN DE SERVICIOS DE ASESORAMIENTO Y GESTIÓN DE SUBVENCIONES, AYUDAS PÚBLICAS Y PRÉSTAMOS PARA SUS CLIENTES",
      "mainEntityOfPage": "https://www.contratacion.euskadi.eus/webkpe00-kperoc/es/ac71aBusquedaRegistrosWar/empresa/07663",
      "_links": {
        "self": {
          "name": "CONTROL DE RECURSOS ENERGETICOS, S.L.",
          "href": "https://api.euskadi.eus/procurements/companies/07663"
        }
      }
    },
    {
      "name": "INTERVENTO 2, S.L.",
      "registrationNumber": "07658",
      "identificationNumber": "B80690910",
      "address": "Fernando Poo 3",
      "location": {
        "postalCode": "28004",
        "municipality": "Madrid",
        "county": "Madrid",
        "municipalityId": "079",
        "countyId": "28"
      },
      "economicActivities": [
        {
          "id": "1.843.9",
          "name": "Otros servicios técnicos n.c.o.p",
          "_links": {
            "self": {
              "name": "Otros servicios técnicos n.c.o.p",
              "href": "https://api.euskadi.eus/procurements/companies/economic-activities/1.843.9"
            }
          }
        }
      ],
      "certificateStartDate": "2021-05-19",
      "certificateEndDate": "2021-11-04",
      "object": "EL DISEÑO MUSEOGRÁFICO Y LA PRODUCCIÓN Y MONTAJE DE EXPOSICIONES; LA PRESTACIÓN SERVICIOS PROFESIONALES A MUSEOS; EL DISEÑO DE ILUMINACIÓN EN EL CAMPO DEL PATRIMONIO HISTÓRICO, MUSEOS, EXPOSICIONES DE OBRAS DE ARTE Y EDIFICIOS SINGULARES",
      "mainEntityOfPage": "https://www.contratacion.euskadi.eus/webkpe00-kperoc/es/ac71aBusquedaRegistrosWar/empresa/07658",
      "_links": {
        "self": {
          "name": "INTERVENTO 2, S.L.",
          "href": "https://api.euskadi.eus/procurements/companies/07658"
        }
      }
    },
    {
      "name": "ÓSCAR FERNÁNDEZ VIRTO",
      "registrationNumber": "07659",
      "identificationNumber": "44679928J",
      "address": "C/La Esperanza 1 6º Izda.",
      "location": {
        "postalCode": "01002",
        "municipality": "Vitoria-Gasteiz",
        "county": "Araba/Álava",
        "municipalityId": "059",
        "countyId": "01"
      },
      "economicActivities": [
        {
          "id": "2.899",
          "name": "Otros profesionales",
          "_links": {
            "self": {
              "name": "Otros profesionales",
              "href": "https://api.euskadi.eus/procurements/companies/economic-activities/2.899"
            }
          }
        }
      ],
      "certificateStartDate": "2021-05-19",
      "certificateEndDate": "2021-11-11",
      "object": "OTROS SERVICIOS TÉCNICOS (ASESORÍA, ASISTENCIA, SERVICIOS SOCIALES, CULTURALES)",
      "mainEntityOfPage": "https://www.contratacion.euskadi.eus/webkpe00-kperoc/es/ac71aBusquedaRegistrosWar/empresa/07659",
      "_links": {
        "self": {
          "name": "ÓSCAR FERNÁNDEZ VIRTO",
          "href": "https://api.euskadi.eus/procurements/companies/07659"
        }
      }
    },
    {
      "name": "SUBTERRA INGENIERIA, S.L.",
      "registrationNumber": "07660",
      "identificationNumber": "B85588549",
      "address": "VALLEHERMOSO, 18",
      "location": {
        "postalCode": "28015",
        "municipality": "Madrid",
        "county": "Madrid",
        "municipalityId": "079",
        "countyId": "28"
      },
      "economicActivities": [
        {
          "id": "1.843.1",
          "name": "Servicios técnicos de ingeniería",
          "_links": {
            "self": {
              "name": "Servicios técnicos de ingeniería",
              "href": "https://api.euskadi.eus/procurements/companies/economic-activities/1.843.1"
            }
          }
        }
      ],
      "certificateStartDate": "2021-05-19",
      "certificateEndDate": "2021-11-12",
      "object": "LA EJECUCIÓN DE ESTUDIOS, INFORMES, PERITAJES, PROYECTOS, ENSAYOS, RECONOCIMIENTOS Y DIRECCIONES DE OBRA QUE SE ENCUENTREN RELACIONADOS CON: - LA MINERÍA - LAS OBRAS PÚBLICAS Y LA EDIFICACIÓN - LA INFRAESTRUCTURA INDUSTRIAL - LA MECÁNICA DEL SUELO Y CIMENTACIONES - LA MECÁNICA DE LAS ROCAS - LA GEOLOGÍA Y, EN GENERAL, LAS CIENCIAS DE LA TIERRA - LA GEOLOGÍA E INGENIERÍA AMBIENTAL - LA REALIZACIÓN DE PROTOTIPOS DE MAQUINARIA E INSTRUMENTACIÓN RELACIONADOS CON LAS ACTIVIDADES ANTERIORES, INCLUSO SUS PATENTES\r\n\r\n",
      "mainEntityOfPage": "https://www.contratacion.euskadi.eus/webkpe00-kperoc/es/ac71aBusquedaRegistrosWar/empresa/07660",
      "_links": {
        "self": {
          "name": "SUBTERRA INGENIERIA, S.L.",
          "href": "https://api.euskadi.eus/procurements/companies/07660"
        }
      }
    },
    {
      "name": "INDUSAL, S.A.",
      "registrationNumber": "00885",
      "identificationNumber": "A48121057",
      "address": "POLÍGONO INDUSTRIAL MARTIARTU, Nº 18.",
      "location": {
        "postalCode": "48480",
        "municipality": "Arrigorriaga",
        "county": "Bizkaia",
        "municipalityId": "011",
        "countyId": "48"
      },
      "economicActivities": [
        {
          "id": "1.436",
          "name": "Acabado de textiles",
          "_links": {
            "self": {
              "name": "Acabado de textiles",
              "href": "https://api.euskadi.eus/procurements/companies/economic-activities/1.436"
            }
          }
        },
        {
          "id": "1.651.5",
          "name": "Venta al por menor de prendas especiales",
          "_links": {
            "self": {
              "name": "Venta al por menor de prendas especiales",
              "href": "https://api.euskadi.eus/procurements/companies/economic-activities/1.651.5"
            }
          }
        },
        {
          "id": "1.856.1",
          "name": "Alquiler de bienes de consumo",
          "_links": {
            "self": {
              "name": "Alquiler de bienes de consumo",
              "href": "https://api.euskadi.eus/procurements/companies/economic-activities/1.856.1"
            }
          }
        },
        {
          "id": "1.861.2",
          "name": "Alquiler de locales industriales y otros alquileres n.c.o.p",
          "_links": {
            "self": {
              "name": "Alquiler de locales industriales y otros alquileres n.c.o.p",
              "href": "https://api.euskadi.eus/procurements/companies/economic-activities/1.861.2"
            }
          }
        },
        {
          "id": "1.971.1",
          "name": "Tinte, limpieza en seco, lavado y planchado de ropas",
          "_links": {
            "self": {
              "name": "Tinte, limpieza en seco, lavado y planchado de ropas",
              "href": "https://api.euskadi.eus/procurements/companies/economic-activities/1.971.1"
            }
          }
        }
      ],
      "certificateStartDate": "2021-05-18",
      "certificateEndDate": "2021-11-13",
      "object": "LA PRESTACIÓN DE SERVICIOS DE LAVANDERÍA INDUSTRIAL EN SUS MÁS AMPLIOS TÉRMINOS",
      "mainEntityOfPage": "https://www.contratacion.euskadi.eus/webkpe00-kperoc/es/ac71aBusquedaRegistrosWar/empresa/00885",
      "_links": {
        "self": {
          "name": "INDUSAL, S.A.",
          "href": "https://api.euskadi.eus/procurements/companies/00885"
        }
      }
    }
  ]
}