{
  "totalItems": 9042,
  "totalPages": 905,
  "currentPage": 637,
  "itemsOfPage": 10,
  "items": [
    {
      "name": "CLAUDIO, S.L.",
      "registrationNumber": "02458",
      "identificationNumber": "B48123582",
      "address": "HEROS, Nº 1",
      "location": {
        "postalCode": "48009",
        "municipality": "Bilbao",
        "county": "Bizkaia",
        "municipalityId": "020",
        "countyId": "48"
      },
      "economicActivities": [
        {
          "id": "1.501.1",
          "name": "Construcción completa, reparación y conservación de edificaciones",
          "_links": {
            "self": {
              "name": "Construcción completa, reparación y conservación de edificaciones",
              "href": "https://api.euskadi.eus/procurements/companies/economic-activities/1.501.1"
            }
          }
        },
        {
          "id": "1.505.6",
          "name": "Pintura, revestimientos y terminación y decoración de locales",
          "_links": {
            "self": {
              "name": "Pintura, revestimientos y terminación y decoración de locales",
              "href": "https://api.euskadi.eus/procurements/companies/economic-activities/1.505.6"
            }
          }
        },
        {
          "id": "1.652.2",
          "name": "Venta al por menor de productos de droguería y productos para decoración",
          "_links": {
            "self": {
              "name": "Venta al por menor de productos de droguería y productos para decoración",
              "href": "https://api.euskadi.eus/procurements/companies/economic-activities/1.652.2"
            }
          }
        },
        {
          "id": "1.653.6",
          "name": "Venta al por menor de artículos de bricolage",
          "_links": {
            "self": {
              "name": "Venta al por menor de artículos de bricolage",
              "href": "https://api.euskadi.eus/procurements/companies/economic-activities/1.653.6"
            }
          }
        },
        {
          "id": "1.843.9",
          "name": "Otros servicios técnicos n.c.o.p",
          "_links": {
            "self": {
              "name": "Otros servicios técnicos n.c.o.p",
              "href": "https://api.euskadi.eus/procurements/companies/economic-activities/1.843.9"
            }
          }
        }
      ],
      "certificateStartDate": "2017-09-06",
      "certificateEndDate": "2018-01-29",
      "object": "EL ACABADO DE OBRAS INTERIORES Y EXTERIORES, TALES COMO REVESTIMIENTOS, AISLAMIENTOS, IMPERMEABILIZACIONES DE EDIFICIOS, LA DECORACIÓN DE EDIFICIOS Y LOCALES, ASÍ COMO SU REPARACIÓN Y CONSERVACIÓN, LA PINTURA, ASÍ COMO LOS REVESTIMIENTOS INTERIORES CON PAPEL, TEJIDOS O PLÁSTICOS",
      "mainEntityOfPage": "https://www.contratacion.euskadi.eus/webkpe00-kperoc/es/ac71aBusquedaRegistrosWar/empresa/02458",
      "_links": {
        "self": {
          "name": "CLAUDIO, S.L.",
          "href": "https://api.euskadi.eus/procurements/companies/02458"
        }
      }
    },
    {
      "name": "CARLOS BAROJA MARTÍNEZ DE ALEGRÍA",
      "registrationNumber": "04669",
      "identificationNumber": "16286710L",
      "address": "SAN VICENTE DE PAUL, Nº 17 - 2º DCHA",
      "location": {
        "postalCode": "01001",
        "municipality": "Vitoria-Gasteiz",
        "county": "Araba/Álava",
        "municipalityId": "059",
        "countyId": "01"
      },
      "economicActivities": [
        {
          "id": "2.099",
          "name": "Otros profesionales relacionados con la agricultura y la ganadería",
          "_links": {
            "self": {
              "name": "Otros profesionales relacionados con la agricultura y la ganadería",
              "href": "https://api.euskadi.eus/procurements/companies/economic-activities/2.099"
            }
          }
        }
      ],
      "certificateStartDate": "2017-09-06",
      "certificateEndDate": "2014-06-19",
      "object": "OTRO PROFESIONAL AGRÍCOLA GANADERO NCOP",
      "mainEntityOfPage": "https://www.contratacion.euskadi.eus/webkpe00-kperoc/es/ac71aBusquedaRegistrosWar/empresa/04669",
      "_links": {
        "self": {
          "name": "CARLOS BAROJA MARTÍNEZ DE ALEGRÍA",
          "href": "https://api.euskadi.eus/procurements/companies/04669"
        }
      }
    },
    {
      "name": "COMSA INSTALACIONES Y SISTEMAS INDUSTRIALES, S.L.",
      "registrationNumber": "04825",
      "identificationNumber": "B64381072",
      "address": "AVDA. ROMA, 25-27",
      "location": {
        "postalCode": "08029",
        "municipality": "Barcelona",
        "county": "Barcelona",
        "municipalityId": "019",
        "countyId": "08"
      },
      "economicActivities": [
        {
          "id": "1.507",
          "name": "Construcción, reparación y conservación de toda clase obras",
          "_links": {
            "self": {
              "name": "Construcción, reparación y conservación de toda clase obras",
              "href": "https://api.euskadi.eus/procurements/companies/economic-activities/1.507"
            }
          }
        }
      ],
      "certificateStartDate": "2017-09-06",
      "certificateEndDate": "2018-02-19",
      "object": "LA REALIZACIÓN DE OBRAS DE TODO TIPO EN EL SENTIDO MÁS AMPLIO, POR CUENTA PROPIA O DE TERCEROS, INCLUYENDO LAS DE EDIFICACION URBANA, INDUSTRIAL, DE URBANIZACIÓN DE SANEAMIENTO, DE ABASTECIMIENTO DE AGUAS, EXCAVACIONES, MOVIMIENTOS DE TIERRA, CARRETERAS, OBRAS HIDRÁULICAS, RIEGOS, DRAGADOS Y SIMILARES ASÍ COMO LA PRESTACIÓN DE SERVICIOS DE CONSERVACIÓN, MANTENIMIENTO Y EXPLOTACIÓN DE ESTAS OBRAS. EN PARTICULAR, SE INCLUYEN EN EL OBJETO DE LA SOCIEDAD LAS SIGUIENTES OBRAS: EL DISEÑO Y LA EJECUCIÓN DE TODO TIPO DE OBRAS PÚBLICAS Y PRIVADAS EN EL ÁMBITO DE LA EDIFICACIÓN (RESIDENCIAL, EDIFICIOS PÚBLICOS, INDUSTRIALES Y AGROPECUARIOS) Y DE LAS OBRAS CIVILES (PRESAS, CANALES, CONDUCCIONES, PUERTOS, AUTOPISTAS, AUTOVÍAS, PISTAS DE ATERRIZAJE, FERROCARRILES, TUNELES, URBANIZACIÓN, INFRAESTRUCTURAS VIARIAS Y MARÍTIMAS). EL DISEÑO Y LA REALIZACIÓN DE TODO TIPO DE INSTALACIONES ELECTROMECÁNICAS ASOCIADAS A LA EDIFICACIÓN Y A LAS OBRAS CIVILES, INCLUYENDO LAS INSTALACIONES DE ELECTRICIDAD, MECÁNICAS, DE CLIMATIZACIÓN, ELECTRÓNICAS, DE TELECOMUNICACIÓN Y DE FLUIDOS. LA PRESTACIÓN DE TODO TIPO DE SERVICIOS DE MANTENIMIENTO INTEGRAL, CONSERVACIÓN Y EXPLOTACIÓN DE BIENES INMUEBLES (EDIFICIOS, CARRETERAS Y VÍAS PÚBLICAS, REDES DE AGUA, DE ALCANTARILLADO, ELÉCTRICAS, DE ALUMBRADO, COMUNICACIONES ELECTRÓNICAS, ESTACIONES DEPURADORAS Y DE TRATAMIENTO DE AGUAS, MOBILIARIO URBANO, MONTES Y JARDINES, MONUMENTOS Y EDIFICIOS SINGULARES, APARCAMIENTOS, INFRAESTRUCTURAS MARÍTIMAS, INFRAESTRUCTURAS FERROVIARIAS Y DE TRANSPORTE EN GENERAL). LA PROMOCIÓN, DISEÑO, CONSTRUCCIÓN Y EXPLOTACIÓN DE TODO TIPO DE PLANTAS E INSTALACIONES ASOCIADAS A LA RECOGIDA, TRATAMIENTO Y DEPOSICIÓN DE RESIDUOS Y TRATAMIENTO DE AGUAS. LA PROMOCIÓN, DISEÑO, CONSTRUCCIÓN Y EXPLOTACIÓN DE PLANTAS DE PRODUCCIÓN DE ENERGÍA Y SUS REDES DE DISTRIBUCIÓN, INCLUYENDO PLANTAS DE PRODUCCIÓN EÓLICA, DE BIOMASA Y DE COGENERACIÓN. LA PRESTACIÓN DE SERVICIOS DE INGENIERÍA Y/O ASISTENCIA TÉCNICA A ORGANISMOS PÚBLICOS COMO PRIVADOS EN LOS CAMPOS ANTERIORMENTE INDICADOS",
      "mainEntityOfPage": "https://www.contratacion.euskadi.eus/webkpe00-kperoc/es/ac71aBusquedaRegistrosWar/empresa/04825",
      "_links": {
        "self": {
          "name": "COMSA INSTALACIONES Y SISTEMAS INDUSTRIALES, S.L.",
          "href": "https://api.euskadi.eus/procurements/companies/04825"
        }
      }
    },
    {
      "name": "BOMBAS Y SUMINISTROS, S.L.",
      "registrationNumber": "05226",
      "identificationNumber": "B01370204",
      "address": "GOIKOBERAZA, 30 (POL. IND. JUNDIZ)",
      "location": {
        "postalCode": "01015",
        "municipality": "Vitoria-Gasteiz",
        "county": "Araba/Álava",
        "municipalityId": "059",
        "countyId": "01"
      },
      "economicActivities": [
        {
          "id": "1.151.4",
          "name": "Producción de energía no especificada en otros epígrafes",
          "_links": {
            "self": {
              "name": "Producción de energía no especificada en otros epígrafes",
              "href": "https://api.euskadi.eus/procurements/companies/economic-activities/1.151.4"
            }
          }
        },
        {
          "id": "1.504.2",
          "name": "Instalaciones de fontanería",
          "_links": {
            "self": {
              "name": "Instalaciones de fontanería",
              "href": "https://api.euskadi.eus/procurements/companies/economic-activities/1.504.2"
            }
          }
        },
        {
          "id": "1.617.9",
          "name": "Venta al por mayor interindustrial de otros productos n.c.o.p",
          "_links": {
            "self": {
              "name": "Venta al por mayor interindustrial de otros productos n.c.o.p",
              "href": "https://api.euskadi.eus/procurements/companies/economic-activities/1.617.9"
            }
          }
        }
      ],
      "certificateStartDate": "2017-09-05",
      "certificateEndDate": "2018-03-05",
      "object": "EL COMERCIO AL POR MAYOR INTERINDUSTRIAL DE TODO TIPO DE MAQUINARIA PARA LA MANIPULACIÓN DE FLUIDOS, EN ESPECIAL EL AGUA",
      "mainEntityOfPage": "https://www.contratacion.euskadi.eus/webkpe00-kperoc/es/ac71aBusquedaRegistrosWar/empresa/05226",
      "_links": {
        "self": {
          "name": "BOMBAS Y SUMINISTROS, S.L.",
          "href": "https://api.euskadi.eus/procurements/companies/05226"
        }
      }
    },
    {
      "name": "EUROMA, S.A.",
      "registrationNumber": "02631",
      "identificationNumber": "A41044199",
      "address": "AVDA. DE ANDALUCÍA, KM. 3",
      "location": {
        "postalCode": "41006",
        "municipality": "Sevilla",
        "county": "Sevilla",
        "municipalityId": "091",
        "countyId": "41"
      },
      "economicActivities": [
        {
          "id": "1.453",
          "name": "Confección en serie de toda clase de prendas de vestir",
          "_links": {
            "self": {
              "name": "Confección en serie de toda clase de prendas de vestir",
              "href": "https://api.euskadi.eus/procurements/companies/economic-activities/1.453"
            }
          }
        },
        {
          "id": "1.455.1",
          "name": "Confección de artículos textiles para el hogar y tapicería",
          "_links": {
            "self": {
              "name": "Confección de artículos textiles para el hogar y tapicería",
              "href": "https://api.euskadi.eus/procurements/companies/economic-activities/1.455.1"
            }
          }
        }
      ],
      "certificateStartDate": "2017-08-30",
      "certificateEndDate": "2018-02-28",
      "object": "LA COMPRAVENTA DE TEJIDOS DE TODA CLASE, AL POR MAYOR Y MENOR, CONFECCIONES, PAQUETERÍAS, LENCERÍA Y DERIVADOS",
      "mainEntityOfPage": "https://www.contratacion.euskadi.eus/webkpe00-kperoc/es/ac71aBusquedaRegistrosWar/empresa/02631",
      "_links": {
        "self": {
          "name": "EUROMA, S.A.",
          "href": "https://api.euskadi.eus/procurements/companies/02631"
        }
      }
    },
    {
      "name": "ECOJARBI, S.A.",
      "registrationNumber": "02470",
      "identificationNumber": "A48948822",
      "address": "POLÍGONO AZBARREN. ABAROETA KALEA Nº 6. LOCAL 6",
      "location": {
        "postalCode": "48970",
        "municipality": "Basauri",
        "county": "Bizkaia",
        "municipalityId": "015",
        "countyId": "48"
      },
      "economicActivities": [
        {
          "id": "1.501.2",
          "name": "Construcción completa, reparación y conservación obras civiles",
          "_links": {
            "self": {
              "name": "Construcción completa, reparación y conservación obras civiles",
              "href": "https://api.euskadi.eus/procurements/companies/economic-activities/1.501.2"
            }
          }
        }
      ],
      "certificateStartDate": "2017-08-23",
      "certificateEndDate": "2018-02-22",
      "object": "LA ACTIVIDAD INMOBILIARIA EN GENERAL, Y ESPECIALMENTE LA ADQUISICIÓN, CONSTRUCCIÓN, EXPLOTACIÓN, ADMINISTRACIÓN Y ARRENDAMIENTO DE INMUEBLES DE TODAS CLASES.\r\nLOS TRABAJOS DE CALDERERÍA, MONTAJE E INSTALACIÓN DE ELEMENTOS METÁLICOS, ASÍ COMO EJECUCIÓN Y PRESTACIÓN DE LOS SERVICIOS RELACIONADOS CON EL MONTAJE, CON O SIN SUMINISTRO DE MATERIALES.\r\nEL ESTUDIO Y REALIZACIÓN DE PROYECTOS DE OBRA CIVIL DE CUALQUIER TIPO.\r\nLAS MISMAS OPERACIONES EN BIENES INMUEBLES, INCLUÍDA SU URBANIZACIÓN, PROMOCIÓN, CONSTRUCCIÓN Y ENAJENACIÓN DE TERRENOS EDIFICABLES.\r\nLA MAS AMPLIA  ACTIVIDAD MERCANTIL CON BASE EN INGENIERÍA, PROYECTO, CONSTRUCCIÓN, MONTAJE, REPARACIÓN, MANTENIMIENTO Y CONSERVACIÓN DE TODA CLASE DE OBRAS E INSTALACIONES DE CUALQUIER GÉNERO O ESPECIE, EN EL SENTIDO MAS AMPLIO DE LA PALABRA, ES DECIR, LA EJECUCIÓN COMPLETA DE LAS MISMAS CON O SIN SUMINISTRO DE MATERIAL, POR  CUENTA PROPIA O DE TERCEROS, EN FORMA EXCLUSIVA O A TRAVÉS DE ASOCIACIONES EN CUALQUIERA DE SUS MODALIDADES.\r\nEL PROYECTO, CONSTRUCCIÓN, MONTAJE, REPARACIÓN, MANTENIMIENTO Y CONSERVACIÓN DE TODA CLASE DE JARDINES, ZONAS AJARDINADAS, TALUDES, ARBOLADO Y ZONAS VERDES EN GENERAL.\r\nLA REALIZACIÓN DE ESTE    TIPO DE TRABAJOS PODRÁ LLEVARSE A CABO EN CUALQUIER PARTE DEL TERRITORIO NACIONAL O DEL EXTRANJERO.\r\nLAS ACTIVIDADES INTEGRANTES DEL OBJETO SOCIAL PODRÁN SER DESARROLLADAS TOTAL O PARCIALMENTE DE MODO INDIRECTO MEDIANTE LA PARTICIPACIÓN EN SOCIEDADES CON OBJETO IDÉNTICO O ANÁLOGO.\r\nQUEDAN EXCLUIDAS TODAS AQUELLAS ACTIVIDADES PARA CUYO EJERCICIO LA LEY EXIJA REQUISITOS ESPECIALES QUE NO QUEDEN CUMPLIDOS POR ESTA SOCIEDAD ",
      "mainEntityOfPage": "https://www.contratacion.euskadi.eus/webkpe00-kperoc/es/ac71aBusquedaRegistrosWar/empresa/02470",
      "_links": {
        "self": {
          "name": "ECOJARBI, S.A.",
          "href": "https://api.euskadi.eus/procurements/companies/02470"
        }
      }
    },
    {
      "name": "LAIN-PAK, S.A.",
      "registrationNumber": "02720",
      "identificationNumber": "A95128278",
      "address": "PL. MARTIARTU. PABELLÓN, 61. ENTREPLANTA",
      "location": {
        "postalCode": "48480",
        "municipality": "Arrigorriaga",
        "county": "Bizkaia",
        "municipalityId": "011",
        "countyId": "48"
      },
      "economicActivities": [
        {
          "id": "1.436",
          "name": "Acabado de textiles",
          "_links": {
            "self": {
              "name": "Acabado de textiles",
              "href": "https://api.euskadi.eus/procurements/companies/economic-activities/1.436"
            }
          }
        },
        {
          "id": "1.651.5",
          "name": "Venta al por menor de prendas especiales",
          "_links": {
            "self": {
              "name": "Venta al por menor de prendas especiales",
              "href": "https://api.euskadi.eus/procurements/companies/economic-activities/1.651.5"
            }
          }
        }
      ],
      "certificateStartDate": "2017-08-23",
      "certificateEndDate": "2018-02-22",
      "object": "LA PRESTACIÓN DE SERVICIOS DE ESTERILIZACIÓN DE ROPA, UTILLAJE Y ENSERES DE QUIRÓFANO, EN SUS MÁS AMPLIOS TÉRMINOS, DESDE SU TRATAMIENTO, HASTA  SU ALQUILER O ARRENDAMIENTO.\r\nLA PRESTACIÓN DE SERVICIOS DE LAVANDERÍA INDUSTRIAL EN SUS MÁS AMPLIOS TÉRMINOS, DESDE LA LIMPIEZA Y TRATAMIENTO DE ROPAS Y AJUAR, HASTA EL ALQUILER DE LA MISMA.\r\nLA REPRESENTACIÓN, COMERCIALIZACIÓN, COMPRA, VENTA Y ALQUILER DE MÁQUINAS, ENSERES, ELEMENTOS, ROPA, AJUAR Y UTILLAJE EN GENERAL, DEL RAMO DE LAVANDERÍA, ESTERILIZACIÓN O DE QUIRÓFANO, ASÍ COMO SU MANTENIMIENTO, CONSERVACIÓN, REPARACIÓN Y PRESTACIÓN DE TODA CLASE DE SERVICIOS CON ELLO RELACIONADO    \r\n",
      "mainEntityOfPage": "https://www.contratacion.euskadi.eus/webkpe00-kperoc/es/ac71aBusquedaRegistrosWar/empresa/02720",
      "_links": {
        "self": {
          "name": "LAIN-PAK, S.A.",
          "href": "https://api.euskadi.eus/procurements/companies/02720"
        }
      }
    },
    {
      "name": "A.L. INDEX CONSULTORES DE COMUNICACIÓN, S.L.",
      "registrationNumber": "05379",
      "identificationNumber": "B48569420",
      "address": "VILLARIAS, 10 - 5º DPTO. 504",
      "location": {
        "postalCode": "48001",
        "municipality": "Bilbao",
        "county": "Bizkaia",
        "municipalityId": "020",
        "countyId": "48"
      },
      "economicActivities": [
        {
          "id": "1.844",
          "name": "Servicios de publicidad, relaciones públicas y similares",
          "_links": {
            "self": {
              "name": "Servicios de publicidad, relaciones públicas y similares",
              "href": "https://api.euskadi.eus/procurements/companies/economic-activities/1.844"
            }
          }
        }
      ],
      "certificateStartDate": "2017-08-16",
      "certificateEndDate": "2018-02-13",
      "object": "LA REALIZACIÓN DE TODAS LAS ACTIVIDADES RELACIONADAS CON LA ASESORÍA EN EL CAMPO DE LA COMUNICACIÓN, Y MÁS CONCRETAMENTE LAS DE RELACIONES PÚBLICAS, IMAGEN, PUBLICIDAD, CREATIVIDAD, EDICIÓN DE MEDIOS DE COMUNICACIÓN ESCRITOS O AUDIOVISUALES, REALIZACIÓN DE MENSAJES COMUNICATIVOS ESCRITOS O AUDIOVISUALES",
      "mainEntityOfPage": "https://www.contratacion.euskadi.eus/webkpe00-kperoc/es/ac71aBusquedaRegistrosWar/empresa/05379",
      "_links": {
        "self": {
          "name": "A.L. INDEX CONSULTORES DE COMUNICACIÓN, S.L.",
          "href": "https://api.euskadi.eus/procurements/companies/05379"
        }
      }
    },
    {
      "name": "GALTIER, S.L.",
      "registrationNumber": "05386",
      "identificationNumber": "B48579809",
      "address": "VILLARIAS, 10 - 5º DPTO. 504",
      "location": {
        "postalCode": "48001",
        "municipality": "Bilbao",
        "county": "Bizkaia",
        "municipalityId": "020",
        "countyId": "48"
      },
      "economicActivities": [
        {
          "id": "1.844",
          "name": "Servicios de publicidad, relaciones públicas y similares",
          "_links": {
            "self": {
              "name": "Servicios de publicidad, relaciones públicas y similares",
              "href": "https://api.euskadi.eus/procurements/companies/economic-activities/1.844"
            }
          }
        }
      ],
      "certificateStartDate": "2017-08-16",
      "certificateEndDate": "2018-02-13",
      "object": "A) EL ASEOSRAMIENTO, REPRESENTACIÓN, GESTIÓN Y MEDIACIÓN EN ACTIVIDADES DE PUBLICIDAD, IDENTIDAD CORPORATIVA, IMAGEN, COMUNICACIÓN Y RELACIONES ÚBLICAS. B) LA CREATIVIDAD, REALIZACIÓN, CONTRATACIÓN Y EDICIÓN DE SOPORTES DE PUBLICIDAD, DE PROMOCIÓN Y DE MEDIOS DE COMUNICACIÓN ESCRITA O AUDIOVISUALES. C) EL ANÁLISIS, DEFINICIÓN, EVALUACIÓN Y FORMULACIÓN DE OBJETIVOS Y ESTRATEGIAS DE MARKETING Y DE PLANES COMERCIALES Y DE PROMOCIÓN. D) LA REALIZACIÓN DE ESTUDIOS, INVESTIGACIONES, PROSPECCIONES Y DISAGNÓSTICOS DE MERCADOS Y SOBRE LA POSICIÓN COMPETITIVA DE LOS SERVICIOS O PRODUCTOS OFERTADOS POR LAS EMPRESAS",
      "mainEntityOfPage": "https://www.contratacion.euskadi.eus/webkpe00-kperoc/es/ac71aBusquedaRegistrosWar/empresa/05386",
      "_links": {
        "self": {
          "name": "GALTIER, S.L.",
          "href": "https://api.euskadi.eus/procurements/companies/05386"
        }
      }
    },
    {
      "name": "INSYNERGY CONSULTING ESPAÑA, S.A.",
      "registrationNumber": "04786",
      "identificationNumber": "A83032375",
      "address": "Avda del Brasil 23 1 Planta oficina 7",
      "location": {
        "postalCode": "28020",
        "municipality": "Madrid",
        "county": "Madrid",
        "municipalityId": "079",
        "countyId": "28"
      },
      "economicActivities": [
        {
          "id": "1.845",
          "name": "Explotación electrónica por cuenta de terceros",
          "_links": {
            "self": {
              "name": "Explotación electrónica por cuenta de terceros",
              "href": "https://api.euskadi.eus/procurements/companies/economic-activities/1.845"
            }
          }
        },
        {
          "id": "1.933.9",
          "name": "Otras actividades de enseñanza tales como idiomas, mecanografía",
          "_links": {
            "self": {
              "name": "Otras actividades de enseñanza tales como idiomas, mecanografía",
              "href": "https://api.euskadi.eus/procurements/companies/economic-activities/1.933.9"
            }
          }
        }
      ],
      "certificateStartDate": "2017-08-07",
      "certificateEndDate": "2018-02-02",
      "object": "LA PRESTACIÓN DIRECTA O MEDIANTE CONTRATACIÓN CON TERCEROS DE SERVICIOS RELATIVOS AL CONSULTORÍA INFORMÁTICA, PRESTACIÓN DE SERVICIOS INFORMÁTICOS, IMPLANTACIÓN DE SISTEMAS, DESARROLLO DE SOFTWARE, COMERCIO AL POR MAYOR Y AL POR MENOR DE SOFTWARE Y HARDWARE Y FORMACIÓN DE CONSULTORES. EL OBJETO SOCIAL PODRÁ SER DESARROLLADO TOTAL O PARCIALMENTE, MEDIANTE LA TITULARIDAD DE ACCIONES O PARTICIPACIONES EN OTRAS SOCIEDADES DE IDÉNTICO O ANNALOGO OBJETO SOCIAL O EN CONTRATOS DE CUENTAS  EN PARTICIPACIÓN. PARA LA REALIZACIÓN DE AQUELLAS ACTIVIDADES COMPRENDIDAS EN EL OBJETO SOCIAL QUE REQUIERAN LA OBTENCIÓN DE ALGUNA AUTORIZACIÓN ADMINISTRATIVA O INSCRIPCIÓN EN ALGÚN REGISTRO ADMINISTRATIVO, SERÁ PRECISO PARA PODER COMENZAR A REALIZARLAS EL CUMPLIMIENTO DE TALES REQUISITOS.PARA EL DESARROLLO DE AQUELLAS ACTIVIDADES QUE REQUIERAN TITULACIÓN ESPECÍFICA, SALVO QUE ALGUNO DE LOS SOCIOS O TODOS ELLOS TENGAN U OBTENGAN LA TITULACIÓN, LA SOCIEDAD DEBERÁ CONTRATAR LOS SERVICIOS PROFESIONALES QUE EN CADA CASO SEAN COMPETENTES",
      "mainEntityOfPage": "https://www.contratacion.euskadi.eus/webkpe00-kperoc/es/ac71aBusquedaRegistrosWar/empresa/04786",
      "_links": {
        "self": {
          "name": "INSYNERGY CONSULTING ESPAÑA, S.A.",
          "href": "https://api.euskadi.eus/procurements/companies/04786"
        }
      }
    }
  ]
}