{
  "totalItems": 9042,
  "totalPages": 905,
  "currentPage": 453,
  "itemsOfPage": 10,
  "items": [
    {
      "name": "IPARSAT TELECOMUNICACIONES, S.L.",
      "registrationNumber": "08213",
      "identificationNumber": "B20655668",
      "address": "MAURICE RAVEL Nº 8 BAJO TRASERA",
      "location": {
        "postalCode": "20100",
        "municipality": "Errenteria",
        "county": "Gipuzkoa",
        "municipalityId": "067",
        "countyId": "20"
      },
      "economicActivities": [
        {
          "id": "1.504.7",
          "name": "Instalaciones telefónicas, telegráficas, televisión, etc",
          "_links": {
            "self": {
              "name": "Instalaciones telefónicas, telegráficas, televisión, etc",
              "href": "https://api.euskadi.eus/procurements/companies/economic-activities/1.504.7"
            }
          }
        }
      ],
      "certificateStartDate": "2023-07-30",
      "certificateEndDate": "2024-01-30",
      "object": "LA INSTALACIÓN Y MANTENIMIENTO DE ANTENAS DE TELEVISIÓN Y PARARRAYOS EN GENERAL, Y DEMÁS ANÁLOGOS O SIMILARES, ASÍ COMO CUALQUIER OTRA ACTIVIDAD ANÁLOGA, PREPARATORIA, AUXILIAR O COMPLEMENTARIA DE LAS ANTERIORES QUE SE PRECISE.",
      "mainEntityOfPage": "https://www.contratacion.euskadi.eus/webkpe00-kperoc/es/ac71aBusquedaRegistrosWar/empresa/08213",
      "_links": {
        "self": {
          "name": "IPARSAT TELECOMUNICACIONES, S.L.",
          "href": "https://api.euskadi.eus/procurements/companies/08213"
        }
      }
    },
    {
      "name": "ZUBIALDE BERRIA 1989, S.L.",
      "registrationNumber": "08267",
      "identificationNumber": "B95747432",
      "address": "SAN JUAN 28",
      "location": {
        "postalCode": "48901",
        "municipality": "Barakaldo",
        "county": "Bizkaia",
        "municipalityId": "013",
        "countyId": "48"
      },
      "economicActivities": [
        {
          "id": "1.501.1",
          "name": "Construcción completa, reparación y conservación de edificaciones",
          "_links": {
            "self": {
              "name": "Construcción completa, reparación y conservación de edificaciones",
              "href": "https://api.euskadi.eus/procurements/companies/economic-activities/1.501.1"
            }
          }
        },
        {
          "id": "1.834",
          "name": "Servicios relativos a la propiedad inmobiliaria e industrial",
          "_links": {
            "self": {
              "name": "Servicios relativos a la propiedad inmobiliaria e industrial",
              "href": "https://api.euskadi.eus/procurements/companies/economic-activities/1.834"
            }
          }
        }
      ],
      "certificateStartDate": "2023-07-29",
      "certificateEndDate": "2024-01-29",
      "object": "1: ACTIVIDADES INMOBILIARIAS. 2. PRESTACIÓN DE SERVICIOS. ACTIVIDADES DE GESTIÓN Y ADMINISTRACIÓN. SERVICIOS EDUCATIVOS, SANITARIOS, DE OCIO Y ENTRETENIMIENTO. 3. COMERCIO AL POR MAYOR Y AL POR MENOR. DISTRIBUCIÓN COMERCIAL. IMPORTACIÓN Y EXPORTACIÓN. 4. ACTIVIDADES PROFESIONALES. 5. INDUSTRIAS MANUFACTURERAS Y TEXTILES. 6. TURISMO, HOSTELERÍA Y RESTAURACIÓN. 7 CONSTRUCCIÓN, INSTALACIONES Y MANTENIMIENTO. 8. TRANSPORTE Y ALMACENAMIENTO. 9. INFORMACIÓN Y COMUNICACIONES. 10. AGRICULTURA, GANADERÍA Y PESCA. 11. INFORMÁTICA, TELECOMUNICACIONES Y OFIMÁTICA. 12. ENERGÍAS ALTERNATIVAS. 13. COMPRAVENTA Y REPARACIÓN DE VEHÍCULOS. REPARACIÓN Y MANTENIMIENTO DE INSTALACIONES Y MAQUINARIA. 14. INVESTIGACIÓN, DESARROLLO E INNOVACIÓN. 15. ACTIVIDADES CIENTÍFICAS Y TÉCNICAS.",
      "mainEntityOfPage": "https://www.contratacion.euskadi.eus/webkpe00-kperoc/es/ac71aBusquedaRegistrosWar/empresa/08267",
      "_links": {
        "self": {
          "name": "ZUBIALDE BERRIA 1989, S.L.",
          "href": "https://api.euskadi.eus/procurements/companies/08267"
        }
      }
    },
    {
      "name": "VIVEROS PAGOLA, S.L.",
      "registrationNumber": "06657",
      "identificationNumber": "B20649430",
      "address": "ARITZOLA TXIKI 71",
      "location": {
        "postalCode": "20130",
        "municipality": "Urnieta",
        "county": "Gipuzkoa",
        "municipalityId": "072",
        "countyId": "20"
      },
      "economicActivities": [
        {
          "id": "1.622",
          "name": "Venta al por mayor de otros productos de recuperación",
          "_links": {
            "self": {
              "name": "Venta al por mayor de otros productos de recuperación",
              "href": "https://api.euskadi.eus/procurements/companies/economic-activities/1.622"
            }
          }
        },
        {
          "id": "1.911",
          "name": "Servicios agrícolas y ganaderos",
          "_links": {
            "self": {
              "name": "Servicios agrícolas y ganaderos",
              "href": "https://api.euskadi.eus/procurements/companies/economic-activities/1.911"
            }
          }
        }
      ],
      "certificateStartDate": "2023-07-29",
      "certificateEndDate": "2024-01-29",
      "object": "LA REALIZACION DE CUALESQUIERA OPERACIONES DE COMPRA Y VENTA, AL POR MAYOR Y MENOR, DE PLANTAS, ARBOLES, ARBUSTOS, ASI COMO LOS TRABAJOS RELACIONADOS CON LA JARDINERIA EN VIVEROS, PARQUES Y MONTES,INCLUYENDO LOS TRABAJOS DE PODA, EMBELLECIMIENTO DE PARQUES Y JARDINES, TANTO PUBLICOS COMO PRIVADOS, QUEDANDO INCLUIDAS DENTRO DEL OBJETO SOCIAL LAS OPERACIONES QUE DIRECTA O INDIRECTAMENTE SE RELACIONEN CON EL OBJETO PRINCIPAL, TALES COMO LA PLANTACION Y ELABORACION DE TODA CLASE DE ARBOLES, PLANTAS Y FLORES",
      "mainEntityOfPage": "https://www.contratacion.euskadi.eus/webkpe00-kperoc/es/ac71aBusquedaRegistrosWar/empresa/06657",
      "_links": {
        "self": {
          "name": "VIVEROS PAGOLA, S.L.",
          "href": "https://api.euskadi.eus/procurements/companies/06657"
        }
      }
    },
    {
      "name": "PINTURAS Y CONTRATAS PICON, S.L.",
      "registrationNumber": "04555",
      "identificationNumber": "B20084414",
      "address": "Paseo Donostia, 100 - PB9",
      "location": {
        "postalCode": "20115",
        "municipality": "Astigarraga",
        "county": "Gipuzkoa",
        "municipalityId": "903",
        "countyId": "20"
      },
      "economicActivities": [
        {
          "id": "1.505.6",
          "name": "Pintura, revestimientos y terminación y decoración de locales",
          "_links": {
            "self": {
              "name": "Pintura, revestimientos y terminación y decoración de locales",
              "href": "https://api.euskadi.eus/procurements/companies/economic-activities/1.505.6"
            }
          }
        }
      ],
      "certificateStartDate": "2023-07-28",
      "certificateEndDate": "2024-01-28",
      "object": "TODA CLASE DE TRABAJOS DE APLICACIÓN DE PINTURAS Y REVESTIMIENTOS PROTECTORES Y LA EXPLOTACIÓN DE LOS MISMOS, TANTO EN ESTRUCTURA COMO DE ADORNO Y CUALQUIER OTRA ACTIVIDAD QUE, DIRECTA O INDIRECTAMENTE, SE DERIVE DE DICHO OBJETO PRINCIPAL.",
      "mainEntityOfPage": "https://www.contratacion.euskadi.eus/webkpe00-kperoc/es/ac71aBusquedaRegistrosWar/empresa/04555",
      "_links": {
        "self": {
          "name": "PINTURAS Y CONTRATAS PICON, S.L.",
          "href": "https://api.euskadi.eus/procurements/companies/04555"
        }
      }
    },
    {
      "name": "INOX HOSTEL SOLUTIONS, S.L.",
      "registrationNumber": "09144",
      "identificationNumber": "B06950232",
      "address": "GABIRIA 104 F",
      "location": {
        "postalCode": "20305",
        "municipality": "Irun",
        "county": "Gipuzkoa",
        "municipalityId": "045",
        "countyId": "20"
      },
      "economicActivities": [
        {
          "id": "1.314.1",
          "name": "Carpintería metálica",
          "_links": {
            "self": {
              "name": "Carpintería metálica",
              "href": "https://api.euskadi.eus/procurements/companies/economic-activities/1.314.1"
            }
          }
        }
      ],
      "certificateStartDate": "2023-07-28",
      "certificateEndDate": "2024-01-28",
      "object": "LAS CONSTRUCCIONES E INSTALACIONES METÁLICAS DIVERSAS REALIZADAS CON CUALQUIER TIPO DE MATERIAL Y CUALQUIER OTRA ACTIVIDAD QUE TENGA RELACIÓN CON LO INDICADO, TAL COMO ELABORACIÓN, MANIPULACIÓN, TRANSFORMACIÓN, ALMACENAJE, INSTALACIÓN Y COMERCIALIZACIÓN DE LOS PRODUCTOS PRODUCIDOS. REPARACIÓN DE MOBILIARIO METÁLICO. COMPRAVENTA DE MOBILIARIO Y EQUIPAMIENTO METÁLICO PARA HOSTELERÍA Y OTRAS ACTIVIDADES.",
      "mainEntityOfPage": "https://www.contratacion.euskadi.eus/webkpe00-kperoc/es/ac71aBusquedaRegistrosWar/empresa/09144",
      "_links": {
        "self": {
          "name": "INOX HOSTEL SOLUTIONS, S.L.",
          "href": "https://api.euskadi.eus/procurements/companies/09144"
        }
      }
    },
    {
      "name": "ICAZA OFICINAS INTEGRALES, S.A.",
      "registrationNumber": "02014",
      "identificationNumber": "A48500052",
      "address": "C/ ALAMEDA MAZARREDO, Nº 47.",
      "location": {
        "postalCode": "48009",
        "municipality": "Bilbao",
        "county": "Bizkaia",
        "municipalityId": "020",
        "countyId": "48"
      },
      "economicActivities": [
        {
          "id": "1.659.2",
          "name": "Venta al por menor de muebles de oficina y máquinas y equipos de oficina",
          "_links": {
            "self": {
              "name": "Venta al por menor de muebles de oficina y máquinas y equipos de oficina",
              "href": "https://api.euskadi.eus/procurements/companies/economic-activities/1.659.2"
            }
          }
        },
        {
          "id": "1.843.9",
          "name": "Otros servicios técnicos n.c.o.p",
          "_links": {
            "self": {
              "name": "Otros servicios técnicos n.c.o.p",
              "href": "https://api.euskadi.eus/procurements/companies/economic-activities/1.843.9"
            }
          }
        }
      ],
      "certificateStartDate": "2023-07-28",
      "certificateEndDate": "2024-01-20",
      "object": "a) LA REALIZACIÓN DE TODO TIPO DE ACTIVIDADES RELACIONADAS CON LA ARQUITECTURA DE INTERIORES Y DECORACIÓN, CON MEDIOS PROPIOS O SUBCONTRATADOS.\r\n\r\nb) LA COMPRA VENTA DE MOBILIARIO DE HOGAR Y OFICINA DE TODAS CLASES Y USOS.\r\n\r\nc) LA COMPRA-VENTA DE OBJETOS DE REGALO Y ADORNO, LÁMPARAS, CUADROS, ALFOMBRAS Y CORTINAS Y TODO LO RELACIONADO CON EL MOBILIARIO DE HOGAR, OFICINA Y DECORACIÓN.\r\n\r\nd) LA EJECUCIÓN Y VENTA DE PROYECTOS Y PRESUPUESTOS A TERCEROS.\r\n\r\ne) LA FABRICACIÓN POR MEDIOS PROPIOS O SUBCONTRATADOS DE ELEMENTOS RELACIONADOS CON LA ARQUITECTURA DE  INTERIORES Y MOBILIARIO.\r\n\r\nf) LA IMPORTACIÓN Y EXPORTACIÓN DE TODO LO RELACIONADO CON LA ARQUITECTURA DE INTERIORES Y MOBILIARIO.\r\n\r\ng) EL NOMBRAMIENTO DE COMISIONISTAS O DISTRIBUIDORES PARA LA PROMOCIÓN Y VENTA DE LAS ACTIVIDADES SEÑALADAS.\r\n \r\nh) LA PARTICIPACIÓN TÉCNICA Y FINANCIERA EN CUALQUIER NEGOCIO DE NATURALEZA COMERCIAL O FABRIL",
      "mainEntityOfPage": "https://www.contratacion.euskadi.eus/webkpe00-kperoc/es/ac71aBusquedaRegistrosWar/empresa/02014",
      "_links": {
        "self": {
          "name": "ICAZA OFICINAS INTEGRALES, S.A.",
          "href": "https://api.euskadi.eus/procurements/companies/02014"
        }
      }
    },
    {
      "name": "JUNE MARTÍN SAGASTUME",
      "registrationNumber": "09142",
      "identificationNumber": "44570094G",
      "address": "Alei kalea 8, 1ºizda",
      "location": {
        "postalCode": "20303",
        "municipality": "Irun",
        "county": "Gipuzkoa",
        "municipalityId": "045",
        "countyId": "20"
      },
      "economicActivities": [
        {
          "id": "2.399",
          "name": "Otros profesionales relacionados con otras industrias manufactureras",
          "_links": {
            "self": {
              "name": "Otros profesionales relacionados con otras industrias manufactureras",
              "href": "https://api.euskadi.eus/procurements/companies/economic-activities/2.399"
            }
          }
        }
      ],
      "certificateStartDate": "2023-07-26",
      "certificateEndDate": "2024-01-26",
      "object": "OTROS PROFESIONALES RELACIONADOS CON OTRAS INDUSTRIAS MANUFACTURERAS.",
      "mainEntityOfPage": "https://www.contratacion.euskadi.eus/webkpe00-kperoc/es/ac71aBusquedaRegistrosWar/empresa/09142",
      "_links": {
        "self": {
          "name": "JUNE MARTÍN SAGASTUME",
          "href": "https://api.euskadi.eus/procurements/companies/09142"
        }
      }
    },
    {
      "name": "JAUREGUIZAR PROMOCION Y GESTION INMOBILIARIA,S.L.",
      "registrationNumber": "05447",
      "identificationNumber": "B48472500",
      "address": "QUINTANA,6",
      "location": {
        "postalCode": "48007",
        "municipality": "Bilbao",
        "county": "Bizkaia",
        "municipalityId": "020",
        "countyId": "48"
      },
      "economicActivities": [
        {
          "id": "1.501.1",
          "name": "Construcción completa, reparación y conservación de edificaciones",
          "_links": {
            "self": {
              "name": "Construcción completa, reparación y conservación de edificaciones",
              "href": "https://api.euskadi.eus/procurements/companies/economic-activities/1.501.1"
            }
          }
        },
        {
          "id": "1.501.2",
          "name": "Construcción completa, reparación y conservación obras civiles",
          "_links": {
            "self": {
              "name": "Construcción completa, reparación y conservación obras civiles",
              "href": "https://api.euskadi.eus/procurements/companies/economic-activities/1.501.2"
            }
          }
        },
        {
          "id": "1.684",
          "name": "Servicios de hospedaje en hoteles-apartamentos",
          "_links": {
            "self": {
              "name": "Servicios de hospedaje en hoteles-apartamentos",
              "href": "https://api.euskadi.eus/procurements/companies/economic-activities/1.684"
            }
          }
        },
        {
          "id": "1.833.2",
          "name": "Promoción de edificaciones",
          "_links": {
            "self": {
              "name": "Promoción de edificaciones",
              "href": "https://api.euskadi.eus/procurements/companies/economic-activities/1.833.2"
            }
          }
        },
        {
          "id": "1.833.21",
          "name": "Promoción de edificaciones - Cuota fija",
          "_links": {
            "self": {
              "name": "Promoción de edificaciones - Cuota fija",
              "href": "https://api.euskadi.eus/procurements/companies/economic-activities/1.833.21"
            }
          }
        },
        {
          "id": "1.861.1",
          "name": "Alquiler de viviendas",
          "_links": {
            "self": {
              "name": "Alquiler de viviendas",
              "href": "https://api.euskadi.eus/procurements/companies/economic-activities/1.861.1"
            }
          }
        },
        {
          "id": "1.861.2",
          "name": "Alquiler de locales industriales y otros alquileres n.c.o.p",
          "_links": {
            "self": {
              "name": "Alquiler de locales industriales y otros alquileres n.c.o.p",
              "href": "https://api.euskadi.eus/procurements/companies/economic-activities/1.861.2"
            }
          }
        }
      ],
      "certificateStartDate": "2023-07-25",
      "certificateEndDate": "2024-01-25",
      "object": "A) LAS ACTIVIDADES POR CUENTA PROPIA O DE TERCEROS, DE PREPARACIÓN, URBANIZACIÓN Y PARCELACIÓN DE TERRENOS, RÚSTICOS, URBANOS E INDUSTRIALES; COMPRAVENTA Y ADMINISTRACIÓN DE INMUEBLES DE TODAS CLASES; Y DE CONSTRUCCIÓN Y PROMOCIÓN DE EDIFICACIONES, OBRAS, INSTALACIONES Y DECORACIONES INMOBILIARIAS DE CUALQUIER ÍNDOLE PARA SU VENTA, ALQUILER O CUALQUIER OTRA FORMA DE EXPLOTACIÓN. B) LA REFORMA, REHABILITACIÓN Y MANTENIMIENTO DE INSTALACIONES INDUSTRIALES Y EDIFICIOS DE CUALQUIER CLASE Y CONDICIÓN, TANTO EN SU ESTRUCTURA INTERNA COMO EXTERNA. C) EL ESTUDIO Y CONFECCIÓN, POR CUENTA PROPIA O DE TERCEROS, DE CÁLCULOS, ESTUDIOS, PLANOS Y PROYECTOS TÉCNICOS, COMERCIALES, FINANCIEROS, CONTABLES, JURÍDICOS O DE CUALQUIER OTRA NATURALEZA, NECESARIOS O CONVENIENTES PARA EL DESARROLLO DE ACTIVIDADES DE CONSTRUCCIÓN, PROMOCIONES Y ADMINISTRACIÓN INMOBILIARIAS. D) LA PROMOCIÓN, CONSTITUCIÓN, PARTICIPACIÓN Y PRESTACIÓN DE SERVICIOS DE ASESORAMIENTO Y ASISTENCIA TÉCNICA DE SOCIEDADES, COOPERATIVAS, COMUNIDADES O CUALESQUIERA OTRAS FIGURAS ASOCIATIVAS QUE TENGAN POR OBJETO LA INVERSIÓN, DISFRUTE, CONSTRUCCIÓN, PROMOCIÓN O CUALQUIER OTRA OPERACIÓN RELACIONADA CON EL ÁMBITO INMOBILIARIO. E) LA FABRICACIÓN, COMPRAVENTA, IMPORTACIÓN, EXPORTACIÓN Y REPRESENTACIÓN COMERCIAL DE TODO TIPO DE MAQUINARIA, BIENES, INSTALACIONES Y SERVICIOS EMPLEADOS O RELACIONADOS CON LA ACTIVIDAD DE CONSTRUCCIÓN INMOBILIARIA. F) LA PROMOCIÓN DE NEGOCIOS COMERCIALES DE SERVICIOS ORIENTADOS A SATISFACER LAS NECESIDADES O FACILITAR EL ESPARCIMIENTO Y COMODIDAD DE LOS USUARIOS DE LAS VIVIENDAS PERTENECIENTES AL GRUPO O COMPLEJO INMOBILIARIO URBANO EN QUE TALES NEGOCIOS SE ESTABLEZCAN, CON EL OBJETO PRIMORDIAL DE PROCEDER A SU POSTERIOR VENTA, O CESIÓN EN RÉGIMEN DE ARRENDAMIENTO EXPLOTACIÓN EN COPARTICIPACIÓN CON OTRAS PERSONAS FÍSICAS O JURÍDICAS",
      "mainEntityOfPage": "https://www.contratacion.euskadi.eus/webkpe00-kperoc/es/ac71aBusquedaRegistrosWar/empresa/05447",
      "_links": {
        "self": {
          "name": "JAUREGUIZAR PROMOCION Y GESTION INMOBILIARIA,S.L.",
          "href": "https://api.euskadi.eus/procurements/companies/05447"
        }
      }
    },
    {
      "name": "ELENA LOPEZ GARCIA",
      "registrationNumber": "08192",
      "identificationNumber": "78883183Z",
      "address": "C/ JULIAN GARAIZAR 7 1ºB",
      "location": {
        "postalCode": "48992",
        "municipality": "Getxo",
        "county": "Bizkaia",
        "municipalityId": "044",
        "countyId": "48"
      },
      "economicActivities": [
        {
          "id": "2.747",
          "name": "Auditores de cuentas y censores jurados de cuentas",
          "_links": {
            "self": {
              "name": "Auditores de cuentas y censores jurados de cuentas",
              "href": "https://api.euskadi.eus/procurements/companies/economic-activities/2.747"
            }
          }
        }
      ],
      "certificateStartDate": "2023-07-24",
      "certificateEndDate": "2024-01-12",
      "object": "AUDITORES DE CUENTAS Y CENSORES JURADOS DE CUENTAS.",
      "mainEntityOfPage": "https://www.contratacion.euskadi.eus/webkpe00-kperoc/es/ac71aBusquedaRegistrosWar/empresa/08192",
      "_links": {
        "self": {
          "name": "ELENA LOPEZ GARCIA",
          "href": "https://api.euskadi.eus/procurements/companies/08192"
        }
      }
    },
    {
      "name": "FRIO IRUÑA, S.L.",
      "registrationNumber": "05560",
      "identificationNumber": "B31033863",
      "address": "C/ BERROA, Nº4 (OFI 412). TAJONAR",
      "location": {
        "postalCode": "31192",
        "municipality": "Aranguren",
        "county": "Navarra",
        "municipalityId": "023",
        "countyId": "31"
      },
      "economicActivities": [
        {
          "id": "1.504.3",
          "name": "Instalaciones de frío, calor y acondicionamiento de aire",
          "_links": {
            "self": {
              "name": "Instalaciones de frío, calor y acondicionamiento de aire",
              "href": "https://api.euskadi.eus/procurements/companies/economic-activities/1.504.3"
            }
          }
        },
        {
          "id": "1.654.5",
          "name": "Venta al por menor de toda clase de maquinaría",
          "_links": {
            "self": {
              "name": "Venta al por menor de toda clase de maquinaría",
              "href": "https://api.euskadi.eus/procurements/companies/economic-activities/1.654.5"
            }
          }
        },
        {
          "id": "1.932.1",
          "name": "Enseñanza de formación y perfeccionamiento profesional no superior",
          "_links": {
            "self": {
              "name": "Enseñanza de formación y perfeccionamiento profesional no superior",
              "href": "https://api.euskadi.eus/procurements/companies/economic-activities/1.932.1"
            }
          }
        }
      ],
      "certificateStartDate": "2023-07-23",
      "certificateEndDate": "2024-01-23",
      "object": "LA COMPRA, VENTA, DISTRIBUCIÓN, REPRESENTACIÓN, ASISTENCIA TÉCNICA Y REPARACIÓN, POR CUENTA PROPIA O AJENA, DE TODA CLASE DE MAQUINARIA, ELEMENTOS, APARATOS, PRODUCTOS Y SISTEMAS DE REFRIGERACIÓN, CONGELACIÓN, FRIGORÍFICOS Y EN GENERAL DE PRODUCCIÓN DE FRÍO; LA EXPLOTACIÓN DE PATENTES NACIONALES O EXTRANJERAS; LA IMPORTACIÓN DE MATERIAS PRIMAS, MATERIALES, PRODUCTOS ELABORADOS Y MANUFACTURADOS",
      "mainEntityOfPage": "https://www.contratacion.euskadi.eus/webkpe00-kperoc/es/ac71aBusquedaRegistrosWar/empresa/05560",
      "_links": {
        "self": {
          "name": "FRIO IRUÑA, S.L.",
          "href": "https://api.euskadi.eus/procurements/companies/05560"
        }
      }
    }
  ]
}