{
  "totalItems": 9042,
  "totalPages": 905,
  "currentPage": 816,
  "itemsOfPage": 10,
  "items": [
    {
      "name": "BIO-RAD ESPAÑA, S.A.",
      "registrationNumber": "00915",
      "identificationNumber": "A79270518",
      "address": "C/ LÓPEZ DE HOYOS, Nº 245 - 247.",
      "location": {
        "postalCode": "28043",
        "municipality": "Madrid",
        "county": "Madrid",
        "municipalityId": "079",
        "countyId": "28"
      },
      "economicActivities": [
        {
          "id": "1.614.1",
          "name": "Venta al por mayor de productos farmacéuticos y medicamentos",
          "_links": {
            "self": {
              "name": "Venta al por mayor de productos farmacéuticos y medicamentos",
              "href": "https://api.euskadi.eus/procurements/companies/economic-activities/1.614.1"
            }
          }
        },
        {
          "id": "1.932.2",
          "name": "Enseñanza de formación y perfeccionamiento profesional superior",
          "_links": {
            "self": {
              "name": "Enseñanza de formación y perfeccionamiento profesional superior",
              "href": "https://api.euskadi.eus/procurements/companies/economic-activities/1.932.2"
            }
          }
        }
      ],
      "certificateStartDate": "2001-04-09",
      "certificateEndDate": "2001-09-02",
      "object": "LA DISTRIBUCIÓN DE SERVICIOS Y PRODUCTOS DE DIAGNÓSTICO Y TEST, INCLUYENDO REACTIVOS, MATERIAL Y EQUIPOS, EN LOS SECTORES HUMANO, ANIMAL Y VEGETAL; LA INVESTIGACIÓN, EL DESARROLLO, LA PREPARACIÓN, LA FABRICACIÓN, LA TRANSFORMACIÓN Y LA COMERCIALIZACIÓN DE DICHOS PRODUCTOS, ASÍ COMO LA ORGANIZACIÓN Y EL SEGUIMIENTO DE ACTIVIDADES DE FORMACIÓN EN EL USO Y LAS APLICACIONES DE LOS MISMOS",
      "mainEntityOfPage": "https://www.contratacion.euskadi.eus/webkpe00-kperoc/es/ac71aBusquedaRegistrosWar/empresa/00915",
      "_links": {
        "self": {
          "name": "BIO-RAD ESPAÑA, S.A.",
          "href": "https://api.euskadi.eus/procurements/companies/00915"
        }
      }
    },
    {
      "name": "MICROLAB, S.A.",
      "registrationNumber": "00287",
      "identificationNumber": "A48076467",
      "address": "C/ SANTUTXU, Nº 68.",
      "location": {
        "postalCode": "48004",
        "municipality": "Bilbao",
        "county": "Bizkaia",
        "municipalityId": "020",
        "countyId": "48"
      },
      "economicActivities": [
        {
          "id": "1.619.2",
          "name": "Venta al por mayor de aparatos e instrumentos médicos, ortopédicos, ópticos",
          "_links": {
            "self": {
              "name": "Venta al por mayor de aparatos e instrumentos médicos, ortopédicos, ópticos",
              "href": "https://api.euskadi.eus/procurements/companies/economic-activities/1.619.2"
            }
          }
        },
        {
          "id": "1.619.7",
          "name": "Venta al por mayor de instrumentos de precisión, medida y similares",
          "_links": {
            "self": {
              "name": "Venta al por mayor de instrumentos de precisión, medida y similares",
              "href": "https://api.euskadi.eus/procurements/companies/economic-activities/1.619.7"
            }
          }
        }
      ],
      "certificateStartDate": "2001-03-27",
      "certificateEndDate": "2001-09-12",
      "object": "LA IMPORTACIÓN, DISTRIBUCIÓN, REPRESENTACIÓN Y VENTA DE TODA CLASE DE REACTIVOS, PRODUCTOS QUÍMICOS, Y MATERIAL DE LABORATORIO EN GENERAL, PRODUCTOS FARMACÉUTICOS, APARATOS, INSTRUMENTOS Y ACCESORIOS DE TODA CLASE DE LABORATORIOS",
      "mainEntityOfPage": "https://www.contratacion.euskadi.eus/webkpe00-kperoc/es/ac71aBusquedaRegistrosWar/empresa/00287",
      "_links": {
        "self": {
          "name": "MICROLAB, S.A.",
          "href": "https://api.euskadi.eus/procurements/companies/00287"
        }
      }
    },
    {
      "name": "IDEAS Y MEDIOS - SERVICIOS INTEGRALES, S.L.",
      "registrationNumber": "02377",
      "identificationNumber": "B95058368",
      "address": "C/ MENA, 15",
      "location": {
        "postalCode": "48003",
        "municipality": "Bilbao",
        "county": "Bizkaia",
        "municipalityId": "020",
        "countyId": "48"
      },
      "economicActivities": [
        {
          "id": "1.966.9",
          "name": "Otros servicios culturales n.c.o.p",
          "_links": {
            "self": {
              "name": "Otros servicios culturales n.c.o.p",
              "href": "https://api.euskadi.eus/procurements/companies/economic-activities/1.966.9"
            }
          }
        }
      ],
      "certificateStartDate": "2001-03-23",
      "certificateEndDate": "2001-09-06",
      "object": "A) EL DE EJERCER COMO CONSULTORA Y PRESTADORA DE SERVICIOS DE CARÁCTER CULTURAL, SOCIAL, DE OCIO, SOCIOSANITARIO, CONSUMERISTA, MEDIO-AMBIENTAL, DE DESARROLLO COMUNITARIO, FESTIVO, TURÍSTICO, EDUCATIVO, RELATIVOS A LA INFANCIA, JUVENTUD O TERCERA EDAD Y,  EN GENERAL, CUANTAS MATERIAS SE CONSIDERAN COMUNMENTE LIGADAS A LAS  CIENCIAS SOCIALES Y HUMANAS. cOMO TAL, DESARROLLARÁ INICIATIVAS DE TODA NATURALEZA EN ESOS ÁMBITOS, ENTRE LAS QUE SE CITAN, SIN ÁNIMO EXHAUSTIVO: LA ORGANIZACIÓN DE EVENTOS Y CAMPAÑAS; GESTIÓN DE CONGRESOS Y FERIAS; REALIZACIÓN DE INVESTIGACIÓNES, ESTUDIOS, CURSOS, ESTRATEGIAS DE COMUNICACIÓN, DIFUSIÓN Y PROMOCIÓN DE BIENES Y SERVICIOS; DESARROLLO DE ACTIVIDADES DE PROMOCIÓN DE LA SALUD, PREVENCIÓN DE RIESGOS, EDUCACIÓN VIAL Y AUTOPROTECCIÓN;  Y, EN GENERAL, EL DISEÑO, GESTIÓN Y EVALUACIÓN DE PROGRAMAS, EQUIPOS, SERVICIOS, EQUIPAMIENTOS E INSTALACIONES EN CUALQUIERA DE LAS MATERIAS CITADAS, INCLUYENDO SU DESARROLLO INTEGRAL, CON LA COBERTURA DE FUNCIONES COMO LA GERENCIA, PROGRAMACIÓN, ESPECIALIDADES, ATENCIÓN AL PÚBLICO, VIGILANCIA, MANTENIMIENTO O LIMPIEZA, ASÍ COMO LA ADQUISICIÓN O ENAJENACIÓN DE TODO TIPO DE MATERIALES Y BIENES RELACIONADOS.  Y TODO ELLO CON LAS LIMITACIONES LEGALMENTE ESTABLECIDAS.\r\n\r\nB) LA PROMOCIÓN, CONSTRUCCIÓN, REHABILITACIÓN Y REPARACIÓN, POR CUENTA PROPIA O AJENA, DE TODA CLASE DE OBRAS, URBANIZACIONES, EDIFICIOS Y CONSTRUCCIONES, TANTO PÚBLICOS COMO PRIVADOS.\r\n\r\nC) LA ADQUISICIÓN, TENENCIA, DISFRUTE, EXPLOTACIÓN Y ENAJENACIÓN DE TODA CLASE DE FINCAS RÚSTICAS O URBANAS, CUALQUIERA QUE FUERA SU NATURALEZA.\r\n\r\nD) LA ADMINISTRACIÓN, ASESORAMIENTO, GESTIÓN DE ACTUACIONES URBANÍSTICASA Y PRESTACIÓN DE SERVICIOS DE TODO TIPO CON RELACIÓN A BIENES INMUEBLES, SEGÚN CONVENGA A SU APROVECHAMIENTO AGRÍCOLA, FORESTAL, URBANO, INDUSTRIAL O DE CUALQUIER OTRA NATURALEZA.\r\n\r\n  ",
      "mainEntityOfPage": "https://www.contratacion.euskadi.eus/webkpe00-kperoc/es/ac71aBusquedaRegistrosWar/empresa/02377",
      "_links": {
        "self": {
          "name": "IDEAS Y MEDIOS - SERVICIOS INTEGRALES, S.L.",
          "href": "https://api.euskadi.eus/procurements/companies/02377"
        }
      }
    },
    {
      "name": "TALLERES HISPANO ITALIA, S.A.",
      "registrationNumber": "02373",
      "identificationNumber": "A48035042",
      "address": "CTRA. BILBAO-BALMASEDA, KM.11-ZARAMILLO",
      "location": {
        "postalCode": "48000",
        "municipality": "Güeñes",
        "county": "Bizkaia",
        "municipalityId": "045",
        "countyId": "48"
      },
      "economicActivities": [
        {
          "id": "1.325.4",
          "name": "Construcción de maquinaria de elevación y manipulación",
          "_links": {
            "self": {
              "name": "Construcción de maquinaria de elevación y manipulación",
              "href": "https://api.euskadi.eus/procurements/companies/economic-activities/1.325.4"
            }
          }
        }
      ],
      "certificateStartDate": "2001-03-21",
      "certificateEndDate": "2001-08-13",
      "object": "1) LA FABRICACIÓN, IMPORTACIÓN, EXPORTACIÓN, DISTRIBUCIÓN Y VENTA DE TODO TIPO DE MAQUINARIA AGRÍCOLA E INDUSTRIAL.\r\n\r\n2) LA INSTALACIÓN Y EXPLOTACIÓN DE FÁBRICAS DESTINADAS A LA CONSTRUCCIÓN DE MAQUINARIA AGRÍCOLA E INDUSTRIAL Y LA PARTICIPACIÓN EN OTROS NEGOCIOS EN QUE SE FABRIQUEN, VENDAN O USEN DICHA MAQUINARIA.\r\n\r\n3) LA PROMOCIÓN, EJECUCIÓN Y EXPLOTACIÓN DE ACTIVIDADES RELACIONADAS CON LA INDUSTRIA MINERA, ALIMENTARIA, TRANSPORTES Y SUS DERIVADOS, AFINES Y COMPLEMENTARIOS.\r\n\r\n4) PRESTACIÓN DE SERVICIOS RELACIONADOS CON EL MONTAJE, CONSERVACIÓN, REPARACIÓN, MANTENIMIENTO, SANEAMIENTO Y LIMPIEZA DE TODA CLASE DE OBRAS, INSTALACIONES Y SERVICIOS.\r\n\r\n5) PRESTACIÓN DE SERVICIOS PROPIOS DE LA ACTIVIDAD DE INGENIERÍA, TALES COMO LA REALIZACIÓN DE PROYECTOS, ESTUDIOS E INFORMES.\r\n\r\n6) LA PROMOCIÓN, EJECUCIÓN Y EXPLOTACIÓN DE ACTIVIDADES DE MEDIACIÓN Y REPRESENTACIÓN, GESTIÓN Y SUMINISTROS, SUS DERIVADOS, AFINES Y COMPLEMENTARIOS.\r\n\r\n7) LA ADQUISICIÓN POR CUALQUIER TÍTULO DE FINCAS RÚSTICAS O URBANAS, LA CONSTRUCCIÓN DE ÉSTAS Y LA ADMINISTRACIÓN, TENENCIA, EXPLOTACIÓN Y ARRENDAMIENTO DE TALES BIENES Y SU VENTA TOTAL O PARCIAL, SEGÚN CONVENGA PARA SU APROVECHAMIENTO FORESTAL, AGRÍCOLA, URBANA, INDUSTRIAL, O CUALQUIER OTRO.\r\n\r\n8) LA ADQUISICIÓN, CESIÓN, TENENCIA Y DISFRUTE EN GENERAL DE TODA CLASE DE TÍTULOS Y VALORES MOBILIARIOS, SIN INCIDIR EN LAS OPERACIONES REGULADAS POR LEYES ESPECIALES.",
      "mainEntityOfPage": "https://www.contratacion.euskadi.eus/webkpe00-kperoc/es/ac71aBusquedaRegistrosWar/empresa/02373",
      "_links": {
        "self": {
          "name": "TALLERES HISPANO ITALIA, S.A.",
          "href": "https://api.euskadi.eus/procurements/companies/02373"
        }
      }
    },
    {
      "name": "CONNECT-ART, S.L.",
      "registrationNumber": "02375",
      "identificationNumber": "B95021739",
      "address": "ERREBITARTE, 7 - DPTO. 4",
      "location": {
        "postalCode": "48930",
        "municipality": "Getxo",
        "county": "Bizkaia",
        "municipalityId": "044",
        "countyId": "48"
      },
      "economicActivities": [
        {
          "id": "1.844",
          "name": "Servicios de publicidad, relaciones públicas y similares",
          "_links": {
            "self": {
              "name": "Servicios de publicidad, relaciones públicas y similares",
              "href": "https://api.euskadi.eus/procurements/companies/economic-activities/1.844"
            }
          }
        }
      ],
      "certificateStartDate": "2001-03-21",
      "certificateEndDate": "2001-07-31",
      "object": "EL DISEÑO Y REALIZACIÓN DE MARCAS (ANAGRAMAS-LOGOTIPOS); CREACIÓN Y DESARROLLO DE PLANES INTEGRALES DE IDENTIDAD VISUAL E IMAGEN CORPORATIVA, PICTOGRAFÍA Y SEÑALÉTICA; DISEÑO DE PRODUCTOS Y PCKAGING; CONCEPCIÓN Y REALIZACIÓN DE CAMPAÑAS PUBLICITARIAS, PUBLICIDAD DIRECTA Y PROMOCIÓN; PLANES DE COMUNICACIÓN INTEGRAL; DISEÑO Y REALIZACIÓN DE STANDS PARA FERIAS Y CONGRESOS; DISEÑO Y DIAGRAMACIÓN DE PUBLICACIONES INSTITUCIONALES Y TÉCNICAS; DESARROLLO DE CATÁLOGOS Y FOLLETOS; DISEÑO EDITORIAL; ILUSTRACIÓN EN GENERAL; DISEÑO Y REALIZACIÓN DE MULTIMEDIA.\r\n",
      "mainEntityOfPage": "https://www.contratacion.euskadi.eus/webkpe00-kperoc/es/ac71aBusquedaRegistrosWar/empresa/02375",
      "_links": {
        "self": {
          "name": "CONNECT-ART, S.L.",
          "href": "https://api.euskadi.eus/procurements/companies/02375"
        }
      }
    },
    {
      "name": "ESKUTIK ESKURA, S.L.",
      "registrationNumber": "02370",
      "identificationNumber": "B01298173",
      "address": "C/ PINTOR PABLO URANGA, 5 BAJO",
      "location": {
        "postalCode": "01008",
        "municipality": "Vitoria-Gasteiz",
        "county": "Araba/Álava",
        "municipalityId": "059",
        "countyId": "01"
      },
      "economicActivities": [
        {
          "id": "1.849.9",
          "name": "Otros servicios independientes n.c.o.p",
          "_links": {
            "self": {
              "name": "Otros servicios independientes n.c.o.p",
              "href": "https://api.euskadi.eus/procurements/companies/economic-activities/1.849.9"
            }
          }
        }
      ],
      "certificateStartDate": "2001-03-14",
      "certificateEndDate": "2001-08-09",
      "object": "LA ACTIVIDAD DE ESTUDIO Y DESARROLLO PARA OTRAS EMPRESAS, EMPRESA DE SERVICIO EN GENERAL, EMPRESA DEDICADA AL ESTUDIO Y DESARROLLO DE MERCADOS",
      "mainEntityOfPage": "https://www.contratacion.euskadi.eus/webkpe00-kperoc/es/ac71aBusquedaRegistrosWar/empresa/02370",
      "_links": {
        "self": {
          "name": "ESKUTIK ESKURA, S.L.",
          "href": "https://api.euskadi.eus/procurements/companies/02370"
        }
      }
    },
    {
      "name": "MANTENIMIENTOS ARABA, S.L.",
      "registrationNumber": "02076",
      "identificationNumber": "B01238914",
      "address": "C/ HERACLIO FOURNIER, Nº 24 - BAJO.",
      "location": {
        "postalCode": "01006",
        "municipality": "Vitoria-Gasteiz",
        "county": "Araba/Álava",
        "municipalityId": "059",
        "countyId": "01"
      },
      "economicActivities": [
        {
          "id": "1.922",
          "name": "Servicios de limpieza",
          "_links": {
            "self": {
              "name": "Servicios de limpieza",
              "href": "https://api.euskadi.eus/procurements/companies/economic-activities/1.922"
            }
          }
        }
      ],
      "certificateStartDate": "2001-02-26",
      "certificateEndDate": "2001-07-30",
      "object": "LA LIMPIEZA, MANTENIMIENTO, RESTAURACIÓN Y REHABILITACIÓN DE TODO TIPO DE EDIFICACIONES, LOCALES Y COMUNIDADES, TANTO EN SU EXTERIOR COMO EN SU INTERIOR ",
      "mainEntityOfPage": "https://www.contratacion.euskadi.eus/webkpe00-kperoc/es/ac71aBusquedaRegistrosWar/empresa/02076",
      "_links": {
        "self": {
          "name": "MANTENIMIENTOS ARABA, S.L.",
          "href": "https://api.euskadi.eus/procurements/companies/02076"
        }
      }
    },
    {
      "name": "OPROCON, S.A.",
      "registrationNumber": "00907",
      "identificationNumber": "A48416531",
      "address": "C/ RAFAELA YBARRA, Nº 8 - 1º IZDA.",
      "location": {
        "postalCode": "48014",
        "municipality": "Bilbao",
        "county": "Bizkaia",
        "municipalityId": "020",
        "countyId": "48"
      },
      "economicActivities": [
        {
          "id": "1.921.3",
          "name": "Exterminio de animales dañinos y desinfección",
          "_links": {
            "self": {
              "name": "Exterminio de animales dañinos y desinfección",
              "href": "https://api.euskadi.eus/procurements/companies/economic-activities/1.921.3"
            }
          }
        }
      ],
      "certificateStartDate": "2001-02-19",
      "certificateEndDate": "2001-07-22",
      "object": "LA CONSTRUCCIÓN, RESTAURACIÓN Y REHABILITACIÓN DE EDIFICIOS Y LOCALES. PROYECTOS E IMPLANTACIÓN DE PARQUES Y JARDINES, CONTRATACIÓN DE MANTENIMIENTO INTEGRAL Y SISTEMÁTICA. DESINFECCIÓN, DESRATIZACIÓN Y DESINSECTACIÓN. PROTECCIÓN CONTRA EL FUEGO. COMERCIALIZACIÓN DE PRODUCTOS, MAQUINARIAS Y AFINES. ASESORAMIENTO DE EMPRESAS, TANTO FISCAL COMO JURÍDICO, FINANCIERO, O DE CUALQUIER OTRO TIPO",
      "mainEntityOfPage": "https://www.contratacion.euskadi.eus/webkpe00-kperoc/es/ac71aBusquedaRegistrosWar/empresa/00907",
      "_links": {
        "self": {
          "name": "OPROCON, S.A.",
          "href": "https://api.euskadi.eus/procurements/companies/00907"
        }
      }
    },
    {
      "name": "LABORATORIOS BILPER, S.A.",
      "registrationNumber": "01960",
      "identificationNumber": "A48132799",
      "address": "C/ AVENIDA PINOA, Nº 17.",
      "location": {
        "postalCode": "48170",
        "municipality": "Zamudio",
        "county": "Bizkaia",
        "municipalityId": "905",
        "countyId": "48"
      },
      "economicActivities": [
        {
          "id": "1.252.2",
          "name": "Fabricación de plaguicidas",
          "_links": {
            "self": {
              "name": "Fabricación de plaguicidas",
              "href": "https://api.euskadi.eus/procurements/companies/economic-activities/1.252.2"
            }
          }
        },
        {
          "id": "1.255.1",
          "name": "Fabricación de jabones comunes, detergentes y lejías",
          "_links": {
            "self": {
              "name": "Fabricación de jabones comunes, detergentes y lejías",
              "href": "https://api.euskadi.eus/procurements/companies/economic-activities/1.255.1"
            }
          }
        }
      ],
      "certificateStartDate": "2001-02-19",
      "certificateEndDate": "2001-07-31",
      "object": "FABRICACIÓN, COMERCIALIZACIÓN, COMPRA-VENTA DE PRODUCTOS DE HIGIENIZACIÓN DE AMBIENTES, DE PERFUMERÍA Y PRODUCTOS QUÍMICOS, TANTO EN EXPORTACIÓN COMO DE IMPORTACIÓN",
      "mainEntityOfPage": "https://www.contratacion.euskadi.eus/webkpe00-kperoc/es/ac71aBusquedaRegistrosWar/empresa/01960",
      "_links": {
        "self": {
          "name": "LABORATORIOS BILPER, S.A.",
          "href": "https://api.euskadi.eus/procurements/companies/01960"
        }
      }
    },
    {
      "name": "FUCHS LUBRICANTES, S.A.",
      "registrationNumber": "02241",
      "identificationNumber": "A48033930",
      "address": "POLÍGONO INDUSTRIAL SAN VICENTE, S/N",
      "location": {
        "postalCode": "08755",
        "municipality": "Castellbisbal",
        "county": "Barcelona",
        "municipalityId": "054",
        "countyId": "08"
      },
      "economicActivities": [
        {
          "id": "1.253.9",
          "name": "Fabricación de otros productos químicos de uso industrial n.c.o.p",
          "_links": {
            "self": {
              "name": "Fabricación de otros productos químicos de uso industrial n.c.o.p",
              "href": "https://api.euskadi.eus/procurements/companies/economic-activities/1.253.9"
            }
          }
        }
      ],
      "certificateStartDate": "2001-02-06",
      "certificateEndDate": "2001-06-12",
      "object": "LA FABRICACIÓN, DISTRIBUCIÓN Y VENTA DE PRODUCTOS AUXILIARES PAR LA INDUSTRIA ELÉCTRICA Y METALÚRGICA, PRODUCTOS SINTÉTICOS, SOLUBLES PARA TRENES DE LAMINACIÓN Y PRODUCTOS QUÍMICOS Y GRASOS EN GENERAL. FABRICAR ACEITES AMULSIONABLES, ACEITES DIELÉCTRICOS, LÍQUIDO ESPECIAL PARA MANDOS HIDRÁULICOS Y GRASAS DE BAJA TENSIÓN SUPERFICIAL",
      "mainEntityOfPage": "https://www.contratacion.euskadi.eus/webkpe00-kperoc/es/ac71aBusquedaRegistrosWar/empresa/02241",
      "_links": {
        "self": {
          "name": "FUCHS LUBRICANTES, S.A.",
          "href": "https://api.euskadi.eus/procurements/companies/02241"
        }
      }
    }
  ]
}