{
  "totalItems": 9042,
  "totalPages": 905,
  "currentPage": 867,
  "itemsOfPage": 10,
  "items": [
    {
      "name": "ELECTROMONTAJES, S. COOP.",
      "registrationNumber": "04458",
      "identificationNumber": "F20138129",
      "address": "C/ SORGINTXULO, Nº 19 - BAJOS",
      "location": {
        "postalCode": "20100",
        "municipality": "Errenteria",
        "county": "Gipuzkoa",
        "municipalityId": "067",
        "countyId": "20"
      },
      "object": "pte",
      "mainEntityOfPage": "https://www.contratacion.euskadi.eus/webkpe00-kperoc/es/ac71aBusquedaRegistrosWar/empresa/04458",
      "_links": {
        "self": {
          "name": "ELECTROMONTAJES, S. COOP.",
          "href": "https://api.euskadi.eus/procurements/companies/04458"
        }
      }
    },
    {
      "name": "IPATIA MIRANDA, S.L.",
      "registrationNumber": "04467",
      "identificationNumber": "B09503467",
      "address": "AVDA. AGUIRRE LEHENDAKARIA, Nº 5 BAJO",
      "location": {
        "postalCode": "48970",
        "municipality": "Basauri",
        "county": "Bizkaia",
        "municipalityId": "015",
        "countyId": "48"
      },
      "object": ".",
      "mainEntityOfPage": "https://www.contratacion.euskadi.eus/webkpe00-kperoc/es/ac71aBusquedaRegistrosWar/empresa/04467",
      "_links": {
        "self": {
          "name": "IPATIA MIRANDA, S.L.",
          "href": "https://api.euskadi.eus/procurements/companies/04467"
        }
      }
    },
    {
      "name": "GEONOR REFORMAS Y CONSTRUCCIONES SOCIEDAD LIMITADA",
      "registrationNumber": "04469",
      "identificationNumber": "B95418760",
      "address": "AVDA. MIRAFLORES, 10- PAB 14",
      "location": {
        "postalCode": "48004",
        "municipality": "Bilbao",
        "county": "Bizkaia",
        "municipalityId": "020",
        "countyId": "48"
      },
      "classification": [
        {
          "id": "O",
          "name": "Obras",
          "groups": [
            {
              "id": "C",
              "name": "EDIFICACIONES",
              "subgroups": [
                {
                  "id": "01",
                  "name": "DEMOLICIONES",
                  "categories": [
                    {
                      "id": "1",
                      "name": "Desde 0 Hasta 150.000",
                      "_links": {
                        "self": {
                          "name": "Desde 0 Hasta 150.000",
                          "href": "https://api.euskadi.eus/procurements/companies/types/O/categories/1"
                        }
                      }
                    }
                  ],
                  "_links": {
                    "self": {
                      "name": "DEMOLICIONES",
                      "href": "https://api.euskadi.eus/procurements/companies/types/O/groups/C/subgroups/01"
                    }
                  }
                },
                {
                  "id": "02",
                  "name": "ESTRUCTURAS DE FABRICA U HORMIGÓN",
                  "categories": [
                    {
                      "id": "1",
                      "name": "Desde 0 Hasta 150.000",
                      "_links": {
                        "self": {
                          "name": "Desde 0 Hasta 150.000",
                          "href": "https://api.euskadi.eus/procurements/companies/types/O/categories/1"
                        }
                      }
                    }
                  ],
                  "_links": {
                    "self": {
                      "name": "ESTRUCTURAS DE FABRICA U HORMIGÓN",
                      "href": "https://api.euskadi.eus/procurements/companies/types/O/groups/C/subgroups/02"
                    }
                  }
                },
                {
                  "id": "04",
                  "name": "ALBAÑILERIA, REVOCOS Y REVESTIDOS",
                  "categories": [
                    {
                      "id": "3",
                      "name": "Desde 360.001 Hasta 840.000",
                      "_links": {
                        "self": {
                          "name": "Desde 360.001 Hasta 840.000",
                          "href": "https://api.euskadi.eus/procurements/companies/types/O/categories/3"
                        }
                      }
                    }
                  ],
                  "_links": {
                    "self": {
                      "name": "ALBAÑILERIA, REVOCOS Y REVESTIDOS",
                      "href": "https://api.euskadi.eus/procurements/companies/types/O/groups/C/subgroups/04"
                    }
                  }
                },
                {
                  "id": "07",
                  "name": "AISLAMIENTOS E IMPERMEABILIZACIONES",
                  "categories": [
                    {
                      "id": "2",
                      "name": "Desde 150.001 Hasta 360.000",
                      "_links": {
                        "self": {
                          "name": "Desde 150.001 Hasta 360.000",
                          "href": "https://api.euskadi.eus/procurements/companies/types/O/categories/2"
                        }
                      }
                    }
                  ],
                  "_links": {
                    "self": {
                      "name": "AISLAMIENTOS E IMPERMEABILIZACIONES",
                      "href": "https://api.euskadi.eus/procurements/companies/types/O/groups/C/subgroups/07"
                    }
                  }
                },
                {
                  "id": "08",
                  "name": "CARPINTERIA DE MADERA",
                  "categories": [
                    {
                      "id": "1",
                      "name": "Desde 0 Hasta 150.000",
                      "_links": {
                        "self": {
                          "name": "Desde 0 Hasta 150.000",
                          "href": "https://api.euskadi.eus/procurements/companies/types/O/categories/1"
                        }
                      }
                    }
                  ],
                  "_links": {
                    "self": {
                      "name": "CARPINTERIA DE MADERA",
                      "href": "https://api.euskadi.eus/procurements/companies/types/O/groups/C/subgroups/08"
                    }
                  }
                }
              ],
              "_links": {
                "self": {
                  "name": "EDIFICACIONES",
                  "href": "https://api.euskadi.eus/procurements/companies/types/O/groups/C"
                }
              }
            },
            {
              "id": "J",
              "name": "INSTALACIONES MECANICAS",
              "subgroups": [
                {
                  "id": "04",
                  "name": "De fontanería y sanitarias",
                  "categories": [
                    {
                      "id": "1",
                      "name": "Desde 0 Hasta 150.000",
                      "_links": {
                        "self": {
                          "name": "Desde 0 Hasta 150.000",
                          "href": "https://api.euskadi.eus/procurements/companies/types/O/categories/1"
                        }
                      }
                    }
                  ],
                  "_links": {
                    "self": {
                      "name": "De fontanería y sanitarias",
                      "href": "https://api.euskadi.eus/procurements/companies/types/O/groups/J/subgroups/04"
                    }
                  }
                }
              ],
              "_links": {
                "self": {
                  "name": "INSTALACIONES MECANICAS",
                  "href": "https://api.euskadi.eus/procurements/companies/types/O/groups/J"
                }
              }
            }
          ],
          "_links": {
            "self": {
              "name": "Obras",
              "href": "https://api.euskadi.eus/procurements/companies/types/O"
            }
          }
        }
      ],
      "object": "Servicios relacionados con la promoción construcción completa, reparación, conservación de inmuebles, instalación y montaje, reforma de locales , viviendas, tejados , fachadas, estructuras y todo tipo de obras civiles, así como la consolidación y preparación de terrenos, demoliciones, perforaciones para alumbramiento de aguas, cimentaciones y pavimentaciones, preparación y montaje de estructuras y cubiertas , postes y torres metalicas , carriles, compuertas, grúas, instalaciones eléctricas y telefónicas, fontanería, acondicionamiento de aire, acabado de obras y servicios auxiliares de la construcción. Servicios relativos a la propiedad inmobiliaria, incluyendo la tasación de inmuebles, la propiedad industrial , las agencias de arrendamiento venta y administracion de fincas , asi como , los servicios relacionados con la promoción inmobiliaria , incluyendo la tasación de los inmuebles , la propiedad industrial, las agencias de arrendamiento, venta y administración de fincas , asi como,  los servicios relacionados con la promocion inmobiliaria tanto de terrenos como de edificaciones y alquiler o venta de inmuebles de naturaleza urbana y rústica propios o ajenos.\nVenta al por mayor y al por menor de todo tipo de materiales relacionados con la construcción y carpintería , saneamiento y menaje , bricolaje, regalo y ferreteria , electrodomésticos , mobiliario y articulos para el equipamiento del hogar.\nestas actividades tabién podrán ser desarrolladas , de modo indirecto, mediante la participación en sociedades con análogo objeto.\nCuando para realizar alguna actividad integrante del objetosocial fuera precisa la obtencion de licencia o de autorización administrativa especial, la Sociedad no podrá iniciar su desarrollo hasta que aquélla no se haya concedido.",
      "mainEntityOfPage": "https://www.contratacion.euskadi.eus/webkpe00-kperoc/es/ac71aBusquedaRegistrosWar/empresa/04469",
      "_links": {
        "self": {
          "name": "GEONOR REFORMAS Y CONSTRUCCIONES SOCIEDAD LIMITADA",
          "href": "https://api.euskadi.eus/procurements/companies/04469"
        }
      }
    },
    {
      "name": "CTC INGENIERÍA DEDICADA, S.A.",
      "registrationNumber": "04476",
      "identificationNumber": "A60924131",
      "address": "PASEO ZONA FRANCA, 83-95",
      "location": {
        "postalCode": "08038",
        "municipality": "Barcelona",
        "county": "Barcelona",
        "municipalityId": "019",
        "countyId": "08"
      },
      "economicActivities": [
        {
          "id": "1.849.9",
          "name": "Otros servicios independientes n.c.o.p",
          "_links": {
            "self": {
              "name": "Otros servicios independientes n.c.o.p",
              "href": "https://api.euskadi.eus/procurements/companies/economic-activities/1.849.9"
            }
          }
        }
      ],
      "certificateEndDate": "2010-12-02",
      "object": "1.- EL DISEÑO, DESARROLLO, IMPLANTACIÓN, DIRECCIÓN Y/O GESTIÓN YA SEA CON PROPIOS O COMPARTIDOS, DE ACTIVIDADES, PRODUCTOS O SERVICIOS PERTENECIENTES A TERCEROS, ES DECIR, LA EXTERNALIZACIÓN DE PROCESOS PRODUCTIVOS, LOGÍSTICOS, ADMINISTRATIVOS Y/O AUXILIARES CON EL FIN DE OPTIMIZAR EL RENDIMIENTO DE LOS MISMOS.\r\n\r\n2.- EL DESARROLLO DE PROCESOS DE INGENIERÍA INDUSTRIAL INTEGRAL TNATO EN EL CAMPO TECNOLÓGICO COMO OPERATIVO, INCLUYENDO, ENTRE OTROS, EL DESARROLLO DE PRODUCTOS DISEÑADOS POR TERCEROS, ANÁLISIS DE COMPONENTES, ELABORACIÓN DE TODOS LOS PROCESOS DE OFICINA TÉCNICA, PLANOS DE PIEZAS Y DE DESARROLLO, PREPARACIÓN DE PROTOTIPOS, EJECUCIÓN DE LAS PRESERIES, INDUSTRIALIZACIÓN DEL PRODUCTO Y SU FABRICACIÓN FINAL.\r\n\r\n3.- EL DISEÑO, IMPLANTACIÓN Y GESTIÓN DE SERVICIOS DE LINE FIDDING, KITTING Y ENSAMBLAJE DE COMPONENTES\r\n\r\n4.- LOS SERVICIOS DE DISEÑO DE SISTEMAS DE ASEGURAMIENTO DE LA CALIDAD, IMPLANTACIÓN, VERIFICACIÓN Y AUDITORÍA DE PROCESOS Y PRODUCTOS, ASI COMO SU CONTROL Y GESTIÓN\r\n\r\n5.- EL DESARROLLO DE SERVICIOS DE TEST AND MEASURING DE COMPONENETES Y EQUIPOS, ANÁLISIS DE FIABILIDAD, ANÁLISIS Y CONTROL DE PROCESOS DE PRODUCCIÓN CONTINUA O SUS DERIVADOS.\r\n\r\n6.- EL DISEÑO, IMPLANTACIÓN Y GESTIÓN DE PROCESOS DE MANIPULACIÓN Y MANTENIMIENTO DE MATERIALES, PRODUCTOS Y EQUIPOS INCLUYENDO EL CUIDADO, LA PREPARACIÓN DE PEDIDOS, LA VERIFICACIÓN TANTO DE LOS PRODUCTOS COMO DE LOS PEDIDOS, LA CARGA EN LOS SISTEMAS DE TRANSPORTE REQUERIDOS Y SU EXPEDICIÓN.\r\n\r\n7.- EL DISEÑO, IMPLANTACIÓN Y GESTIÓN DE SERVICIOS DE ATENCIÓN DE VISITANTES, ATENCIÓN TELEFÓNICA Y CALL CENTRES EN GENERAL, ADMINISTRACIÓN, MECANIZACIÓN DE DOCUMENTOS Y TAREAS ADMINISTRATIVAS EN GENERAL.\r\n\r\n8.- EL DISEÑO, IMPLANTACIÓN Y GESTIÓN DE SERVICIOS DE COMERCIALIZACIÓN Y PROMOCIÓN DE PRODUCTOS, BIENES Y SERVICIOS PARA TERCEROS.\r\n\r\n9.- EL SERVICIO DE LECTURA DE CONTADORES\r\n\r\n10.- EL SERVICIO DE CONSERVACIÓN Y MANTENIMIENTO DE TODA CLASE DE EDIFICIOS PÚBLICOS Y PRIVADOS, ASÍ COMO REDES DE AGUA Y ALCANTARILLADO\r\n\r\n11.- EL SERVICIO DE MANTENIMIENTO Y REPARACIÓN DE EQUIPOS E INSTALACIONES ELÉCTRICAS Y ELECTRÓNICAS, ASÍ COMO MANTENIMIENTO Y REPARACIÓN DE EQUIPOS E INSTALACIONES INFORMÁTICAS Y DE TELECOMUNICACIONES.\r\n\r\n12.- EL SERVICIO DE ALMACENAJE, RECOGIDA Y TRANSPORTE DE MERCANCIAS TANTO NACIONAL COMO INTERNACIONAL\r\n\r\n13.-SERVICIOS DE MENSAJERÍA, CORRESPONDENCIA Y DISTRIBUCIÓN. SERVICIO DE RECADERÍA, DE REPARTO Y MANIPULACIÓN DE CORRESPONDENCIA, ASI COMO LOS DE DISTRIBUCIÓN DE PAQUETERÍA, PUBLICACIONES Y MATERIAL DE ARTES GRÁFICAS.\r\n\r\n14.- SERVICIOS DE LIMPIEZA EN GENERAL.\r\n\r\n15.- RECOGIDA DE CARROS PORTAEQUIPAJES EN ESTACIONES Y AEROPUERTOS.\r\n\r\n16.-PRESTACIÓN, ASESORAMIENTO, CONSULTORÍA Y REALIZACIÓN, ASI COMO LA ELABORACIÓN, MANTENIMIENTO Y DESARROLLO DE PROYECTOS, PROGRAMAS Y APLICACIONES INFORMÁTICAS.\r\n\r\n17.- REALIZACIÓN DE ENCUESTAS, TOMA DE DATOS PARA ESTUDIOS DE MERCADO, RECOGIDA DE INFORMACIÓN Y SERVICIOS ANÁLOGOS.\r\n\r\n18.- PRESTACIÓN DE SERVICIOS DE HOSTELERÍA Y DE COMIDAS EN GENERAL.\r\n\r\n19.- CONSERVACIÓN Y MANTENIMIENTO DE CUALQUIER TIPO DE ELEMENTO O CONSTRUCCIÓN QUE TENGA CARÁCTER DE MOBILIARIO URBANO.\r\n\r\n20.- CONSERVACIÓN Y MANTENIMIENTO DE PARQUES, JARDINES Y OTRAS ZONAS VERDES.\r\n\r\n21.- SERVICIOS DE MANTENIMIENTO, CONSERVACIÓN Y RESTAURACIÓN DE MATERIALES CINEMATOGRÁFICOS Y AUDIOVISUALES.\r\n\r\n22.- SERVICIOS DE GRÚA REALIZADOS CON VEHÍCULOS GRÚA PARA RETIRADA DE LAS VÍAS PÚBLICAS DE CONTENEDORES, VEHÍCULOS O CUALQUIER ELEMENTO QUE DIFICULTE LA CIRCULACIÓN.\r\n\r\n23.- SERVICIOS DE MANTENIMIENTO Y REPARACIÓN DE EQUIPOS, APARATOS E INSTALACIONES DE ELECTROMEDICINA.\r\n\r\n24.- LA GESTIÓN DE LA VENTA DE BILLETES O TÍTULOS DE TRANSPORTE DE PERSONAS O MERCANCÍAS EN ESTACIONES DE TREN, AUTOBUSES, INTERCAMBIADORES DE TRANSPORTES, PUERTOS O AEROPUERTOS, INCLUYENDO LA REALIZACIÓN Y GESTIÓN DE CUALESQUIERA SERVICIOS AUXILIARES QUE CORRESPONDAN A LA MISMA, TALES COMO, CAMBIOS O ANULACIONES DE LOS BILLETES O TÍTULOS VENDIDOS, INFORMACIÓN Y ATENCIÓN AL PÚBLICO EN GENERAL Y A LOS TITULARES DE DICHOS BILLETES O TÍTULOS, MANTENIMIENTO Y GESTIÓN DE LAS MÁQUINAS AUTOMÁTICAS EXPENDEDORAS DE LOS MISMOS, ASI COMO TODA CLASE DE SERVICIOS COMPLEMENTARIOS A DICHAS ACTIVIDADES.\r\n\r\n25.- LA VENTA MINORISTA DE TODA CLASE DE MERCANCÍAS EN ESTACIONES DE TREN, AUTOBUSES, INTERCAMBIADORES DE TRANSPORTES, PUERTOS Y AEROPUERTOS, Y LA EXPLOTACIÓN, PARA ELLO, D EFORMA DIRECTA O INDIRECTA MEDIANTE TERCEROS, DE LOCALES UBICADOS EN LOS MISMOS YA SEA EN RÉGIMEN DE CONCESIÓN, AALQUILER, PROPIEDAD O CUALQUIER OTRO ADMITIDO EN DERECHO, INCLUYENDO ENTRE ELLOS LOS DE VENTA DE ARTÍCULOS DE REGALO, PRENSA Y REVISTAS, ROPA Y ACCESORIOS, SOUVENIRS, ARTÍCULOS DE VIAJE, TIENDAS DE ALIMENTACIÓN, CAFETERÍAS, KIOSCOS, BARES Y RESTAURANTES.\r\n\r\n26.- ESTABLECIMIENTO DE FABRICACIÓN PARCIAL Y MANIPULACIÓN SECUNDARIA DE PRODUCTOS Y ESPECIALIDADES COSMÉTICAS, DENTRÍFICOS, DE HIGIENE Y DESINFECTANTES.\r\n\r\n27.- OPERADOR LOGÍSTICO PARA TERCEROS DE PRODUCTOS Y ESPECIALIDADES COSMÉTICAS, DENTRIFICOS, DE HIGIENE Y DESINFECTANTES, MATERIAL PROMOCIONAL Y CUALQUIER OTRO PRODUCTO O ESPECIALIDADES SUSCEPTIBLES DE SER COMERCIALIZADAS A TRAVÉS DE CUALESQUIERA DE LOS CANALES AUTORIZADOS PARA EL ALMACENAMIENTO, VENTA Y DISTRIBUCIÓN DE PRODUCTOS.\r\n",
      "mainEntityOfPage": "https://www.contratacion.euskadi.eus/webkpe00-kperoc/es/ac71aBusquedaRegistrosWar/empresa/04476",
      "_links": {
        "self": {
          "name": "CTC INGENIERÍA DEDICADA, S.A.",
          "href": "https://api.euskadi.eus/procurements/companies/04476"
        }
      }
    },
    {
      "name": "CONSTRUCCIONES LUIS ATXA, S.L.U.",
      "registrationNumber": "04481",
      "identificationNumber": "B01441062",
      "address": "RUPERTO URQUIJO 11, 1º C",
      "location": {
        "postalCode": "01400",
        "municipality": "Laudio/Llodio",
        "county": "Araba/Álava",
        "municipalityId": "036",
        "countyId": "01"
      },
      "object": "pte",
      "mainEntityOfPage": "https://www.contratacion.euskadi.eus/webkpe00-kperoc/es/ac71aBusquedaRegistrosWar/empresa/04481",
      "_links": {
        "self": {
          "name": "CONSTRUCCIONES LUIS ATXA, S.L.U.",
          "href": "https://api.euskadi.eus/procurements/companies/04481"
        }
      }
    },
    {
      "name": "CANNON BUS, S.L.",
      "registrationNumber": "04482",
      "identificationNumber": "B95323051",
      "address": "Bº MAÑU S/N",
      "location": {
        "postalCode": "48370",
        "municipality": "Bermeo",
        "county": "Bizkaia",
        "municipalityId": "017",
        "countyId": "48"
      },
      "object": "pte",
      "mainEntityOfPage": "https://www.contratacion.euskadi.eus/webkpe00-kperoc/es/ac71aBusquedaRegistrosWar/empresa/04482",
      "_links": {
        "self": {
          "name": "CANNON BUS, S.L.",
          "href": "https://api.euskadi.eus/procurements/companies/04482"
        }
      }
    },
    {
      "name": "SCEYC EMPRESA CONSTRUCTORA, S.L.",
      "registrationNumber": "04493",
      "identificationNumber": "B95134425",
      "address": "BARRIO SALCEDILLO POLÍGONO INDUSTRIAL INNBALDEKA Nº 2-A",
      "location": {
        "postalCode": "48510",
        "municipality": "Valle de Trápaga-Trapagaran",
        "county": "Bizkaia",
        "municipalityId": "080",
        "countyId": "48"
      },
      "object": ".",
      "mainEntityOfPage": "https://www.contratacion.euskadi.eus/webkpe00-kperoc/es/ac71aBusquedaRegistrosWar/empresa/04493",
      "_links": {
        "self": {
          "name": "SCEYC EMPRESA CONSTRUCTORA, S.L.",
          "href": "https://api.euskadi.eus/procurements/companies/04493"
        }
      }
    },
    {
      "name": "TOUR MESAJEROS BIZKAIA, S.L.",
      "registrationNumber": "04495",
      "identificationNumber": "B48714571",
      "address": "C/ NERBIOI 3, PAB. 1 (POLIG. LEGUIZAMON)",
      "location": {
        "postalCode": "48000",
        "municipality": "Etxebarri",
        "county": "Bizkaia",
        "municipalityId": "029",
        "countyId": "48"
      },
      "object": "pte",
      "mainEntityOfPage": "https://www.contratacion.euskadi.eus/webkpe00-kperoc/es/ac71aBusquedaRegistrosWar/empresa/04495",
      "_links": {
        "self": {
          "name": "TOUR MESAJEROS BIZKAIA, S.L.",
          "href": "https://api.euskadi.eus/procurements/companies/04495"
        }
      }
    },
    {
      "name": "BALANCE APPLIED ENGINEERING, S.A.",
      "registrationNumber": "04510",
      "identificationNumber": "A95579538",
      "address": "AVDA. SABINO ARANA, Nº 20-8º PLANTA",
      "location": {
        "postalCode": "48013",
        "municipality": "Bilbao",
        "county": "Bizkaia",
        "municipalityId": "020",
        "countyId": "48"
      },
      "object": ".",
      "mainEntityOfPage": "https://www.contratacion.euskadi.eus/webkpe00-kperoc/es/ac71aBusquedaRegistrosWar/empresa/04510",
      "_links": {
        "self": {
          "name": "BALANCE APPLIED ENGINEERING, S.A.",
          "href": "https://api.euskadi.eus/procurements/companies/04510"
        }
      }
    },
    {
      "name": "ENRIQUE POLO PROYECTOS Y OBRAS, S.L.",
      "registrationNumber": "04521",
      "identificationNumber": "B95055281",
      "address": "MENDIBILE, 6 BIS",
      "location": {
        "postalCode": "48940",
        "municipality": "Leioa",
        "county": "Bizkaia",
        "municipalityId": "054",
        "countyId": "48"
      },
      "object": ".",
      "mainEntityOfPage": "https://www.contratacion.euskadi.eus/webkpe00-kperoc/es/ac71aBusquedaRegistrosWar/empresa/04521",
      "_links": {
        "self": {
          "name": "ENRIQUE POLO PROYECTOS Y OBRAS, S.L.",
          "href": "https://api.euskadi.eus/procurements/companies/04521"
        }
      }
    }
  ]
}