{
  "totalItems": 9042,
  "totalPages": 905,
  "currentPage": 719,
  "itemsOfPage": 10,
  "items": [
    {
      "name": "ISOTROL, S.A.",
      "registrationNumber": "04547",
      "identificationNumber": "A41142241",
      "address": "AVDA. ISAAC NEWTON 3, 4º PLANTA",
      "location": {
        "postalCode": "41092",
        "municipality": "Sevilla",
        "county": "Sevilla",
        "municipalityId": "091",
        "countyId": "41"
      },
      "economicActivities": [
        {
          "id": "1.845",
          "name": "Explotación electrónica por cuenta de terceros",
          "_links": {
            "self": {
              "name": "Explotación electrónica por cuenta de terceros",
              "href": "https://api.euskadi.eus/procurements/companies/economic-activities/1.845"
            }
          }
        }
      ],
      "certificateStartDate": "2011-01-18",
      "certificateEndDate": "2011-04-25",
      "object": "A) EL ANÁLISIS, DESARROLLO Y APLICACIÓN DE TRAAJOS DE INGENIERÍA Y PROGRAMAS DE ORDENADOR CON CARÁCTER GENERAL Y ESPECÍFICAMENTE EN APLICACIONES PARA EL CONTROL INDUSTRIAL Y PARA FACILITAR LAS RELACIONES ENTRE ADMINISTRACIÓN, LAS EMPRESAS Y LOS CIUDADANOS, UTILIZANDO NUEVAS TECNOLOGÍAS ASOCIADAS A LAS REDES DE ORDENADORES E INTERNET.  B) EL DISEÑO, DESARROLLO, FABRICACIÓN Y COMERCIALIZACIÓN DE TODO TIPO DE SUBCONJUNTOS, EQUIPOS Y SISTEMAS ELÉCTRICOS, ELECTRÓNICOS Y DE CONTROL INDUSTRIAL. C) LA REALIZACIÓN DE ASISTENCIAS TÉCNICAS, MONTAJE, CONSERVACIÓN Y MANTENIMIENTO DE TODO TIPO DE INSTALACIONES ELÉCTRICAS Y ELECTRÓNICAS. D) FORMALIZAR TODA CLASE DE CONTRATOS Y ACUERDOS DE COOPERACIÓN CON ORGANISMOS Y ENTIDADES PÚBLICAS Y/O PRIVADAS PARA LA PRESTACIÓN DE SERVICIOS DE CARÁCTER TÉCNICO O LA EJECUCIÓN DE ESTUDIOS, PROYECTOS Y/O TRABJOS DE INVESTIGACIÓN, DESARROLLO O INNOVACIÓN, EN LAS CONDICIONES QUE SE ESTABLEZCAN. E) APLICAR LAS NUEVAS TECNOLOGÍAS INFORMÁTICAS AL TELECONTROL Y LA GESTIÓN DE BASES DE DATOS DE TODO TIPO, IMPARTIENDO CURSOS DE FORMACIÓN TÉCNICA Y REALIANDO LOS TRABAJOS DE CAMPO NECESARIOS PARA SU VALIDACIÓN Y ACTUALIZACIÓN",
      "mainEntityOfPage": "https://www.contratacion.euskadi.eus/webkpe00-kperoc/es/ac71aBusquedaRegistrosWar/empresa/04547",
      "_links": {
        "self": {
          "name": "ISOTROL, S.A.",
          "href": "https://api.euskadi.eus/procurements/companies/04547"
        }
      }
    },
    {
      "name": "OIARTZ IGELTSERITZA, S.L.",
      "registrationNumber": "03801",
      "identificationNumber": "B20935094",
      "address": "PIKABENE ETXADIA, 17",
      "location": {
        "postalCode": "20180",
        "municipality": "Oiartzun",
        "county": "Gipuzkoa",
        "municipalityId": "063",
        "countyId": "20"
      },
      "economicActivities": [
        {
          "id": "1.501.3",
          "name": "Albañilería y pequeños trabajos de construcción en general",
          "_links": {
            "self": {
              "name": "Albañilería y pequeños trabajos de construcción en general",
              "href": "https://api.euskadi.eus/procurements/companies/economic-activities/1.501.3"
            }
          }
        }
      ],
      "certificateStartDate": "2011-01-17",
      "certificateEndDate": "2011-05-29",
      "object": "LA EDIFICACIÓN Y OBRA CIVIL, SERVICIOS AUXILIARES DE CONSTRUCCIÓN, REPARACIÓN Y CONSERVACIÓN DE EDIFICACIONES, TRABAJOS DE ALBAÑILERÍA EN GENERAL, COORDINACIÓN DE GREMIOS, MONTAJE E INSTALACIÓN DE ESTRUCTURAS METÁLICAS, REVESTIMIENTOS EXTERIORES E INTERIORES DE TODAS CLASES Y EN TODO TIPO DE OBRAS",
      "mainEntityOfPage": "https://www.contratacion.euskadi.eus/webkpe00-kperoc/es/ac71aBusquedaRegistrosWar/empresa/03801",
      "_links": {
        "self": {
          "name": "OIARTZ IGELTSERITZA, S.L.",
          "href": "https://api.euskadi.eus/procurements/companies/03801"
        }
      }
    },
    {
      "name": "CONSTRUCCIONES Y REFORMAS ESPARTA, S.L.",
      "registrationNumber": "04007",
      "identificationNumber": "B95096046",
      "address": "ESTARTETXE-5 OFICINA 109",
      "location": {
        "postalCode": "48940",
        "municipality": "Leioa",
        "county": "Bizkaia",
        "municipalityId": "054",
        "countyId": "48"
      },
      "economicActivities": [
        {
          "id": "1.501.1",
          "name": "Construcción completa, reparación y conservación de edificaciones",
          "_links": {
            "self": {
              "name": "Construcción completa, reparación y conservación de edificaciones",
              "href": "https://api.euskadi.eus/procurements/companies/economic-activities/1.501.1"
            }
          }
        },
        {
          "id": "1.501.2",
          "name": "Construcción completa, reparación y conservación obras civiles",
          "_links": {
            "self": {
              "name": "Construcción completa, reparación y conservación obras civiles",
              "href": "https://api.euskadi.eus/procurements/companies/economic-activities/1.501.2"
            }
          }
        },
        {
          "id": "1.502.2",
          "name": "Consolidación y preparación de terrenos para la construcción de edificaciones",
          "_links": {
            "self": {
              "name": "Consolidación y preparación de terrenos para la construcción de edificaciones",
              "href": "https://api.euskadi.eus/procurements/companies/economic-activities/1.502.2"
            }
          }
        },
        {
          "id": "1.833.1",
          "name": "Promoción de terrenos",
          "_links": {
            "self": {
              "name": "Promoción de terrenos",
              "href": "https://api.euskadi.eus/procurements/companies/economic-activities/1.833.1"
            }
          }
        }
      ],
      "certificateStartDate": "2011-01-13",
      "certificateEndDate": "2011-06-13",
      "object": "LA ADQUISICIÓN, ENAJENACIÓN, ARRENDAMIENTO, EXPLOTACIÓN, PARCELACIÓN Y URBANIZACIÓN DE TODA CLASE DE FINCAS RÚSTICAS, URBANAS Y SOLARES. LA CONSTRUCCIÓN Y REHABILITACIÓN DE TODA CLASE DE VIVIENDAS, OFICINAS, LOCALES DE NEGOCIO, NAVES O INSTALACIONES INDUSTRIALES O DEPORTIVAS, POR CUENTA PROPIA O AJENA, PARA SU USO PROPIO, PARA VENDER O ARRENDAR, CON PROTECCIÓN OFICIAL O SIN ELLAS. LA GESTIÓN Y PRESTACIÓN DE TODO TIPO DE SERVICIOS PARA LA PROMOCIÓN INMOBILIARIA Y LA CONSTRUCCIÓN",
      "mainEntityOfPage": "https://www.contratacion.euskadi.eus/webkpe00-kperoc/es/ac71aBusquedaRegistrosWar/empresa/04007",
      "_links": {
        "self": {
          "name": "CONSTRUCCIONES Y REFORMAS ESPARTA, S.L.",
          "href": "https://api.euskadi.eus/procurements/companies/04007"
        }
      }
    },
    {
      "name": "NOR AIR INSTALACIONES, S.L.",
      "registrationNumber": "02985",
      "identificationNumber": "B48807572",
      "address": "AVDA. IPARRAGIRRE, 2 C",
      "location": {
        "postalCode": "48940",
        "municipality": "Leioa",
        "county": "Bizkaia",
        "municipalityId": "054",
        "countyId": "48"
      },
      "economicActivities": [
        {
          "id": "1.504.1",
          "name": "Instalaciones eléctricas en general",
          "_links": {
            "self": {
              "name": "Instalaciones eléctricas en general",
              "href": "https://api.euskadi.eus/procurements/companies/economic-activities/1.504.1"
            }
          }
        },
        {
          "id": "1.504.3",
          "name": "Instalaciones de frío, calor y acondicionamiento de aire",
          "_links": {
            "self": {
              "name": "Instalaciones de frío, calor y acondicionamiento de aire",
              "href": "https://api.euskadi.eus/procurements/companies/economic-activities/1.504.3"
            }
          }
        }
      ],
      "certificateStartDate": "2011-01-10",
      "certificateEndDate": "2011-06-15",
      "object": "INSTALACIONES DE CLIMATIZACIÓN, CALEFACCIÓN, PRODUCCIÓN DE AGUA CALIENTE SANITARIA, GAS, ENERGÍA SOLAR, VENTILACIÓN Y CONTRA-INCENDIOS",
      "mainEntityOfPage": "https://www.contratacion.euskadi.eus/webkpe00-kperoc/es/ac71aBusquedaRegistrosWar/empresa/02985",
      "_links": {
        "self": {
          "name": "NOR AIR INSTALACIONES, S.L.",
          "href": "https://api.euskadi.eus/procurements/companies/02985"
        }
      }
    },
    {
      "name": "DEBA BEHEKO LANDA GARAPENERAKO ELKARTEA \"DEBEMEN\"",
      "registrationNumber": "03199",
      "identificationNumber": "G20387163",
      "address": "NAFARROAKO ENPARANTZA, Z/G",
      "location": {
        "postalCode": "20870",
        "municipality": "Elgoibar",
        "county": "Gipuzkoa",
        "municipalityId": "032",
        "countyId": "20"
      },
      "economicActivities": [
        {
          "id": "1.506.0",
          "name": "Instalaciones de andamios, cimbras, encofrados, etc",
          "_links": {
            "self": {
              "name": "Instalaciones de andamios, cimbras, encofrados, etc",
              "href": "https://api.euskadi.eus/procurements/companies/economic-activities/1.506.0"
            }
          }
        },
        {
          "id": "1.849.9",
          "name": "Otros servicios independientes n.c.o.p",
          "_links": {
            "self": {
              "name": "Otros servicios independientes n.c.o.p",
              "href": "https://api.euskadi.eus/procurements/companies/economic-activities/1.849.9"
            }
          }
        },
        {
          "id": "1.911",
          "name": "Servicios agrícolas y ganaderos",
          "_links": {
            "self": {
              "name": "Servicios agrícolas y ganaderos",
              "href": "https://api.euskadi.eus/procurements/companies/economic-activities/1.911"
            }
          }
        }
      ],
      "certificateStartDate": "2011-01-07",
      "certificateEndDate": "2011-05-15",
      "object": "A) GARANTIZAR Y FOMENTAR LA MULTIFUNCIONALIDAD Y LA SOSTENIBILIDAD DE LA AGRICULTURA VASCA Y DEL CONJUNTO DE SU MEDIO RURAL EN SU VERTIENTE ECONÓMICA, SOCIAL, AMBIENTAL Y CULTURAL, DISEÑANDO UN MODELO ADAPTADO A LA REALIDAD Y CARACTERÍSITCAS DE LA AGRIUCLTURA VASCA, FRENANDO LOS PROCESOS DE DESPOBLAMIENTO Y ABANDONO, ASÍ COMO PROPICIANDO LA INTERACCIÓN DEL MUNDO RURAL Y EL URBANO, MEDIANTE ACTUACIONES DE DISCRIMINACIÓN POSITIVA; B) PRESERVAR LAS SEÑAS DE IDENTIDAD FUNDAMENTALES DEL MEDIO RURAL, ASÍ COMO SU VERTEBRACIÓN FUTURA EN TORNO A LA PRODUCCIÓN Y TRANSFORMACIÓN DEL SECTOR AGROALIMENTARIO, COMPATIBILIZÁNDOSE CON LA DIVERSIFICACIÓN DE SU BASE ECONÓMICA, PROMOVER LA MEJORA DE LA CAPACIDAD COMPETITIVA DE LA AGRICULTURA, TENIENDO EN CUENTA LAS CARACTERÍSTICAS DEL MEDIO FÍSICO Y LA IMPORTANTE FUNCIÓN SOCIAL QUE DESARROLLAN LOS AGRICULTORES, BASADA EN UN MODELO DE EXPLOTACIÓN FAMILIAR, ARTICULADA A TRAVÉS DEL ASOCIACIONISMO Y EL COOPERATIVISMO Y ORIENTADA HACIA EL MERCADO BENEFICIANDO A LOS CONSUMIDORES VASCOS CON PRODUCTOS ALIMENTARIOS DE CALIDAD, LA PROTECCIÓN DEL MEDIO AMBIENTE Y LA CALIDAD AGROALIMENTARIA; D) INCREMENTAR LA COMPETITIVIDAD DE LAS EMPRESAS Y ESTRUCTURAS ECONÓMICAS DE LAS ZONAS RURALES, CON ESPECIAL ATENCIÓN A LAS EMPRESAS AGROALIMENTARIAS, DE AGROTURISMO, DE TURISMO RURAL, DE AGRICULTURA ECOLÓGICA Y CUALESQUIERA OTRAS QUE ACOMETAN PROYECTOS DE DESARROLLO ENDÓGENO EN EL MEDIO RURAL, IMPULSANDO SU ADAPTACIÓN A LAS TENDENCIAS DEL MERCADO Y LA COMPETENCIA, COMPAGINANDO ESTE PROCESO  CON LAS FUNCIONES Y SERVICIOS DE TODO TIPO QUE DESEMPEÑA EL MEDIO RURAL. TODO ELLO TENDRÁ COMO OBJETIVO PRIMORDIAL EL MANTENIMIENTO Y LA CREACIÓN DE EMPLEO EN BENEFICIO DE LOS HABITANTES DEL MEDIO RURAL. E) INTEGRAR LAS NORMAS Y ACTUACIONES DE LAS DIFERENTES ADMINISTRACIONES Y ENTIDADES PÚBLICAS QUE AFECTEN AL DESARROLLO DE LAS ZONAS RURALES, EVITANDO DISFUNCIONALIDADES Y DESCOORDINACIÓN, A LA VEZ QUE PROPICIANDO UNA MEJOR COHERENCIA DE LOS INSTRUMENTOS, UNA MAYOR EFICACIA DE LAS INTERVENCIONES Y LA INTERACCIÓN DEL ENTORNO RURAL Y URBANO; F) MANTENER EL PROTAGONISMO DEL DESARROLLO DE LAS ZONAS RURALES EN SU POBLACIÓN Y EN LAS ENTIDADES DE LAS PROPIAS ZONAS, POTENCIANDO EL ASOCIACIONISMO, ASÍ COMO  LA PARTICIPACIÓN E INCORPORACIÓN DE LAS MUJERES Y LOS JÓVENES A LOS PROCESOS ECONÓMICOS Y SOCIALES; G) RECUPERAR, CONSERVAR, DESARROLLAR Y DIVULGAR EL PATRIMONIO NATURAL, HISTÓRICO, CULTURAL Y LINGÜÍSTICO DE LAS ZONAS RURALES; H) MEJORAR LA ORDENACIÓN DEL TERRITORIO, FAVORECIENDO UNA OCUPACIÓN MÁS RACIONAL, EQUILIBRADA E INTERRELACIONADA DEL ESPACIO; I) FAVORECER UNA CULTURA SOCIAL QUE PERCIBA LOS VALORES DEL MEDIO RURAL Y PROPICIE EL ESTABLECIMIENTO DE LAS MEDIDAS ADECUADAS PARA SU DESARROLLO.",
      "mainEntityOfPage": "https://www.contratacion.euskadi.eus/webkpe00-kperoc/es/ac71aBusquedaRegistrosWar/empresa/03199",
      "_links": {
        "self": {
          "name": "DEBA BEHEKO LANDA GARAPENERAKO ELKARTEA \"DEBEMEN\"",
          "href": "https://api.euskadi.eus/procurements/companies/03199"
        }
      }
    },
    {
      "name": "BIO-ADINE, S.L.",
      "registrationNumber": "02749",
      "identificationNumber": "B31791114",
      "address": "TRAVESÍA SAN JUAN BOSCO, 7-4º DCHA.",
      "location": {
        "postalCode": "31007",
        "municipality": "Pamplona/Iruña",
        "county": "Navarra",
        "municipalityId": "201",
        "countyId": "31"
      },
      "economicActivities": [
        {
          "id": "1.619.2",
          "name": "Venta al por mayor de aparatos e instrumentos médicos, ortopédicos, ópticos",
          "_links": {
            "self": {
              "name": "Venta al por mayor de aparatos e instrumentos médicos, ortopédicos, ópticos",
              "href": "https://api.euskadi.eus/procurements/companies/economic-activities/1.619.2"
            }
          }
        },
        {
          "id": "1.989.2",
          "name": "Servicios de organización de congresos, asambleas y similares",
          "_links": {
            "self": {
              "name": "Servicios de organización de congresos, asambleas y similares",
              "href": "https://api.euskadi.eus/procurements/companies/economic-activities/1.989.2"
            }
          }
        }
      ],
      "certificateStartDate": "2010-12-28",
      "certificateEndDate": "2011-06-13",
      "object": "LA DISTRIBUCIÓN Y VENTA DE PRODUCTOS SANITARIOS Y LA ORGANIZACIÓN DE EVENTOS Y CONGRESOS RELACIONADOS CON LA SANIDAD.\r\nLAS ACTIVIDADES ENUMERADAS SERÁN REALIZADAS SIEMPRE, EN LAS QUE ASÍ LO REQUIERAN, MEDIANTE PROFESIONALES CON TITULACIÓN OFICIAL SUFICIENTE.\r\nEN NINGÚN CASO CONSTITUIRÁN EL OBJETO DE LA SOCIEDAD AQUELLAS ACTIVIDADES PARA CUYO EJERCICIO SE EXIJAN POR LA LEGISLACIÓN ESPECIAL APLICABLE, DETERMINADAS CONDICIONES Y AUTORIZACIONES QUE ESTA SOCIEDAD NO CUMPLA    ",
      "mainEntityOfPage": "https://www.contratacion.euskadi.eus/webkpe00-kperoc/es/ac71aBusquedaRegistrosWar/empresa/02749",
      "_links": {
        "self": {
          "name": "BIO-ADINE, S.L.",
          "href": "https://api.euskadi.eus/procurements/companies/02749"
        }
      }
    },
    {
      "name": "PROYECTOS Y CONSTRUCCIONES ALBATROS, S.A.",
      "registrationNumber": "00004",
      "identificationNumber": "A48114151",
      "address": "C/ GRAN VÍA, Nº 53 - 3º DCHA.",
      "location": {
        "postalCode": "48011",
        "municipality": "Bilbao",
        "county": "Bizkaia",
        "municipalityId": "020",
        "countyId": "48"
      },
      "economicActivities": [
        {
          "id": "1.507",
          "name": "Construcción, reparación y conservación de toda clase obras",
          "_links": {
            "self": {
              "name": "Construcción, reparación y conservación de toda clase obras",
              "href": "https://api.euskadi.eus/procurements/companies/economic-activities/1.507"
            }
          }
        }
      ],
      "certificateStartDate": "2010-12-14",
      "certificateEndDate": "2011-05-02",
      "object": "LA EJECUCIÓN DE TODO TIPO DE OBRAS, GENERALMENTE DE EDIFICACIÓN Y CIVILES",
      "mainEntityOfPage": "https://www.contratacion.euskadi.eus/webkpe00-kperoc/es/ac71aBusquedaRegistrosWar/empresa/00004",
      "_links": {
        "self": {
          "name": "PROYECTOS Y CONSTRUCCIONES ALBATROS, S.A.",
          "href": "https://api.euskadi.eus/procurements/companies/00004"
        }
      }
    },
    {
      "name": "INTERSURGICAL ESPAÑA, S.A.",
      "registrationNumber": "01536",
      "identificationNumber": "A80957889",
      "address": "C/ PLASENCIA, 39-41 - POLÍGONO LAS NIEVES",
      "location": {
        "postalCode": "28935",
        "municipality": "Móstoles",
        "county": "Madrid",
        "municipalityId": "092",
        "countyId": "28"
      },
      "economicActivities": [
        {
          "id": "1.619.2",
          "name": "Venta al por mayor de aparatos e instrumentos médicos, ortopédicos, ópticos",
          "_links": {
            "self": {
              "name": "Venta al por mayor de aparatos e instrumentos médicos, ortopédicos, ópticos",
              "href": "https://api.euskadi.eus/procurements/companies/economic-activities/1.619.2"
            }
          }
        }
      ],
      "certificateStartDate": "2010-12-13",
      "certificateEndDate": "2011-02-05",
      "object": "LA IMPORTACIÓN, EXPORTACIÓN, FABRICACIÓN, DISTRIBUCIÓN Y ALMACENAMIENTO DE TODO TIPO DE PRODUCTOS, EQUIPOS Y SISTEMAS HOSPITALARIOS, VENTA DE LOS MISMOS EN TODO EL TERRITORIO NACIONAL, EN RÉGIMEN DE DISTRIBUCIÓN EXCLUSIVA O BAJO CUALQUIERA OTRA MODALIDAD, INCLUSIVE EL RÉGIMEN DE AGENCIA",
      "mainEntityOfPage": "https://www.contratacion.euskadi.eus/webkpe00-kperoc/es/ac71aBusquedaRegistrosWar/empresa/01536",
      "_links": {
        "self": {
          "name": "INTERSURGICAL ESPAÑA, S.A.",
          "href": "https://api.euskadi.eus/procurements/companies/01536"
        }
      }
    },
    {
      "name": "PERSONAL MULTISERVICIOS, S.L.",
      "registrationNumber": "04532",
      "identificationNumber": "B95336202",
      "address": "ANTONIO ALZAGA 39, 2D",
      "location": {
        "postalCode": "48980",
        "municipality": "Santurtzi",
        "county": "Bizkaia",
        "municipalityId": "082",
        "countyId": "48"
      },
      "economicActivities": [
        {
          "id": "1.505.5",
          "name": "Carpintería y cerrajería",
          "_links": {
            "self": {
              "name": "Carpintería y cerrajería",
              "href": "https://api.euskadi.eus/procurements/companies/economic-activities/1.505.5"
            }
          }
        }
      ],
      "certificateStartDate": "2010-12-13",
      "certificateEndDate": "2011-06-02",
      "object": "1.- LA ADQUISICIÓN POR CUALQUIER TITULO DE FINCAS RÚSTICAS O RUBANAS, LA CONSTRUCCIÓN DE ESTAS SU URBANIZACIÓN Y PARCELAICÓN, Y LA ADMINISTRACIÓN, TENENCIA, EXPLOTACIÓN Y ARRENDAMIENTO DE TALES BIENES Y SU VENTA TOTAL O PARCIAL SEGÚN CONVENGA PARA SU APROVECHAMIENTO AGRÍCOLA, FORESTAL, URBANO, INDUSTRIAL O CUALQUIER OTRO. - LA PROMOCIÓN Y EJECUCIÓN, COMPLETA O POR RAMOS DE TODA CLASE DE OBRAS DE CONSTRUCCIÓN, PARA SÍ O PARA TERCEROS, SEAN ORGANISMOS PÚBLICOS DEL ESTADO, PROVINCIA, MUNICIPIO, ENTES AUTÓCTONOS O PERSONAS FÍSICAS, POR CUENTA PROPIA O AJENA, INCLUSO VIVIENDAS Y LOCALES DE LOS DENOMINADOS DE PROTECCIÓN OFICIAL. - LA COMPRA, VENTA Y ALQUILER DE EDIFICACIONES EN SU TOTALIDAD, POR PARTES O POR PISOS, BIEN PARA VIVIENDAS O PARA LOCALES DE OFICINAS, DE NEGOCIO O INDUSTRIALES, CONSTRUIDAS PARA TAL FIN, DIRECTAMENTE O POR MEDIO DE CONTRATISTAS, SUBCONTRATISTAS Y DESTAJISTAS O BIEN ADQUIRIDAS YA CONSTRUIDAS O EN CONSTRUCCIÓN. - LA REPARACIÓN, LIMPIEZA O CONSERVACIÓN POR CUENTA PROPIA O AJENA DE TODA CLASE DE EDIFICACIONES, POR PARTES O POR PISOS, BIEN PARA VIVIENDAS O OPARA LOCALES DE NEGOCIOS Y LA LIMPIEZA EN TODA CLASE DE FACHADAS. 2.- LA REALIZACIÓN DE ACTIVIDADES DE PINTURA, CARPINTERÍA, ALBAÑILERÍA Y DECORACIÓN EN TODAS SUS VARIANTES Y FORMAS, TANTO EN EXTERIORES COMO EN INTERIORES, INSTALACIONES DE PAPELES PINTADOS, MOQUETAS, MADERAS Y OTROS MATERIALES ANÁLOGOS, LA COMPRA, VENTA, IMPORTACIÓN, EXPORTACIÓN, ALMACENAMIENTO, DEPÓSITO Y COMERCIALIZACIÓN AL POR MAYOR O MENOR DE PINTURAS, PAPELES PINTADOS, MOQUETAS, MADERAS Y OTROS MATERIALES Y OBJETOS PARA DECORACIÓN, ALBAÑILERÍA, CARPINTERÍA Y PINTURA; ASÍ COMO DE TODA CLASE DE MATERIALES AUXILIARES O ANEJOS PARA LA CONSTRUCCIÓN. 3.- LA COMPRA, VENTA, IMPORTACIÓN, EXPORTACIÓN, DISTRIBUCIÓN, ALMACENAMIENTO FABRICACIÓN Y COMERCIALIZACIÓN DE PRODUCTOS QUÍMICOS, DE COSMÉTICA, PRODUCTOS DE BELLEZA. LA COMPRA, VENTA, IMPORTACIÓN, EXPORTACIÓN, DISTRIBUCIÓN, ALMACENAMIENTO FABRICACIÓN Y COMERCIALIZACIÓN DE MUEBLES DE COCINA Y MOBILIARIO DE OFICINA. LA COMPRA, VENTA, IMPORTACIÓN, EXPORTACIÓN, DISTRIBUCIÓN, ALMACENAMIENTO, FABRICACIÓN Y COMERCIALIZACIÓN DE LAMINADOS PLÁSTICOS, CHAPAS DE MADERA, PEGAMENTOS INDUSTRIALES Y ELEMENTOS AUXILIARES PARA LA INDUSTRIA DEL MUEBLE. LA COMPRA, VENTA, IMPORTACIÓN, EXPORTACIÓN, DISTRIBUCIÓN, ALMACENAMIENTO, FABRICACIÓN Y COMERCIALIZACIÓN, CONSTRUCCIÓN, MONTAJE, REPARACIÓN Y RESTAURACIÓN DE MOBILIARIO DE ESTILO MODERNO Y CLÁSICO Y DE OBJETOS DECORATIVOS Y EN GENERAL, CUANTO PRODUCTOS SON PROPIOS DE LA INDUSTRIA DE LA CARPINTERÍA, EBANISTERÍA Y DECORACIÓN, ASÍ COMO EL ALQUILER, COMPRA Y VENTA DE MOBILIARIO MODERNO O ANTIGUO, OBJETOS DE ARTE O DECORATIVOS, INCLUYENDO CUADROS, GRABADOS, TAPICES Y ALFOMBRAS DE TODA CLASE. LA COMPRA, VENTA, IMPORTACIÓN, EXPORTACIÓN, DISTRIBUCIÓN, ALMACENAMIENTO, FABRICACIÓN Y COMERCIALIZACIÓN, BIEN  DIRECTAMENTE, COMO REPRESENTANTES O COMO AGENTES, TODA CLASE DE MAQUINARIA, ACCESORIOS, HERRAMIENTAS O MERCANCÍAS. 4.- LA PRESTACIÓN DE PERSONAL",
      "mainEntityOfPage": "https://www.contratacion.euskadi.eus/webkpe00-kperoc/es/ac71aBusquedaRegistrosWar/empresa/04532",
      "_links": {
        "self": {
          "name": "PERSONAL MULTISERVICIOS, S.L.",
          "href": "https://api.euskadi.eus/procurements/companies/04532"
        }
      }
    },
    {
      "name": "MANUEL ALONSO RODRIGO",
      "registrationNumber": "04365",
      "identificationNumber": "14909462B",
      "address": "AXULAR 8-6º IZDA",
      "location": {
        "postalCode": "48510",
        "municipality": "Valle de Trápaga-Trapagaran",
        "county": "Bizkaia",
        "municipalityId": "080",
        "countyId": "48"
      },
      "economicActivities": [
        {
          "id": "1.501.3",
          "name": "Albañilería y pequeños trabajos de construcción en general",
          "_links": {
            "self": {
              "name": "Albañilería y pequeños trabajos de construcción en general",
              "href": "https://api.euskadi.eus/procurements/companies/economic-activities/1.501.3"
            }
          }
        },
        {
          "id": "1.722",
          "name": "Transporte de mercancías por carretera",
          "_links": {
            "self": {
              "name": "Transporte de mercancías por carretera",
              "href": "https://api.euskadi.eus/procurements/companies/economic-activities/1.722"
            }
          }
        }
      ],
      "certificateStartDate": "2010-12-10",
      "certificateEndDate": "2011-05-08",
      "object": "CONTRATAR Y REALIZAR OBRAS DE CONSTRUCCIÓN Y REHABILITACIÓN Y ALBAÑILERÍA",
      "mainEntityOfPage": "https://www.contratacion.euskadi.eus/webkpe00-kperoc/es/ac71aBusquedaRegistrosWar/empresa/04365",
      "_links": {
        "self": {
          "name": "MANUEL ALONSO RODRIGO",
          "href": "https://api.euskadi.eus/procurements/companies/04365"
        }
      }
    }
  ]
}