{
  "totalItems": 9042,
  "totalPages": 905,
  "currentPage": 244,
  "itemsOfPage": 10,
  "items": [
    {
      "name": "GRÁFICAS JUARISTI, S.L.",
      "registrationNumber": "05728",
      "identificationNumber": "B20378949",
      "address": "Pol. Ind. Itziar, Parcela Q2",
      "location": {
        "postalCode": "20829",
        "municipality": "Deba",
        "county": "Gipuzkoa",
        "municipalityId": "029",
        "countyId": "20"
      },
      "economicActivities": [
        {
          "id": "1.474",
          "name": "Artes gráficas (impresión gráfica)",
          "_links": {
            "self": {
              "name": "Artes gráficas (impresión gráfica)",
              "href": "https://api.euskadi.eus/procurements/companies/economic-activities/1.474"
            }
          }
        }
      ],
      "certificateStartDate": "2025-09-29",
      "certificateEndDate": "2026-03-29",
      "object": "LA EXPLOTACIÓN DE UN NEGOCIO DEDICADO A ARTES GRÁFICAS (IMPRESIÓN GRÁFICA)",
      "mainEntityOfPage": "https://www.contratacion.euskadi.eus/webkpe00-kperoc/es/ac71aBusquedaRegistrosWar/empresa/05728",
      "_links": {
        "self": {
          "name": "GRÁFICAS JUARISTI, S.L.",
          "href": "https://api.euskadi.eus/procurements/companies/05728"
        }
      }
    },
    {
      "name": "GURENET TEKNOLOGIA, S.L.",
      "registrationNumber": "09878",
      "identificationNumber": "B95251088",
      "address": "Puente de Deusto, 7 - 3º dpt 5",
      "location": {
        "postalCode": "48014",
        "municipality": "Bilbao",
        "county": "Bizkaia",
        "municipalityId": "020",
        "countyId": "48"
      },
      "economicActivities": [
        {
          "id": "1.845",
          "name": "Explotación electrónica por cuenta de terceros",
          "_links": {
            "self": {
              "name": "Explotación electrónica por cuenta de terceros",
              "href": "https://api.euskadi.eus/procurements/companies/economic-activities/1.845"
            }
          }
        }
      ],
      "certificateStartDate": "2025-09-29",
      "certificateEndDate": "2026-03-29",
      "object": "A) LA CREACIÓN, DISEÑO Y MANTENIMIENTO DE PÁGINAS WEB TANTO A TERCEROS COMO PROPIOS PARA SU POSTERIOR EXPLOTACIÓN. B) DESARROLLO DE PROGRAMAS INFORMÁTICOS, DISEÑO GRÁFICO, ASÍ COMO OTRO TIPO DE SERVICIOS INFORMÁTICOS. C) IMPARTICIÓN DE CURSOS. D) LA COMPRAVENTA Y ALQUILER, SALVO EL ALQUILER FINANCIERO, DE BIENES INMUEBLES.",
      "mainEntityOfPage": "https://www.contratacion.euskadi.eus/webkpe00-kperoc/es/ac71aBusquedaRegistrosWar/empresa/09878",
      "_links": {
        "self": {
          "name": "GURENET TEKNOLOGIA, S.L.",
          "href": "https://api.euskadi.eus/procurements/companies/09878"
        }
      }
    },
    {
      "name": "CONGELADOS BEDARONA S.L.",
      "registrationNumber": "06206",
      "identificationNumber": "B01192400",
      "address": "C/ARRIURDIÑA, 4 - POL.IND.JUNDIZ-",
      "location": {
        "postalCode": "01015",
        "municipality": "Vitoria-Gasteiz",
        "county": "Araba/Álava",
        "municipalityId": "059",
        "countyId": "01"
      },
      "economicActivities": [
        {
          "id": "1.612.9",
          "name": "Venta al por mayor de otros productos alimenticios, helados de todas clases",
          "_links": {
            "self": {
              "name": "Venta al por mayor de otros productos alimenticios, helados de todas clases",
              "href": "https://api.euskadi.eus/procurements/companies/economic-activities/1.612.9"
            }
          }
        }
      ],
      "certificateStartDate": "2025-09-29",
      "certificateEndDate": "2026-03-29",
      "object": "LA COMERCIALIZACIÓN DE PRODUCTOS CONGELADOS DESTINADOS A LA ALIMENTACIÓN HUMANA",
      "mainEntityOfPage": "https://www.contratacion.euskadi.eus/webkpe00-kperoc/es/ac71aBusquedaRegistrosWar/empresa/06206",
      "_links": {
        "self": {
          "name": "CONGELADOS BEDARONA S.L.",
          "href": "https://api.euskadi.eus/procurements/companies/06206"
        }
      }
    },
    {
      "name": "RUMBOS DIVERSOS, S.L.",
      "registrationNumber": "10129",
      "identificationNumber": "B01789353",
      "address": "Balieiros 1",
      "location": {
        "postalCode": "15969",
        "municipality": "Ribeira",
        "county": "Coruña, A",
        "municipalityId": "073",
        "countyId": "15"
      },
      "economicActivities": [
        {
          "id": "1.665",
          "name": "Venta al por menor por correo o catálogo de productos diversos",
          "_links": {
            "self": {
              "name": "Venta al por menor por correo o catálogo de productos diversos",
              "href": "https://api.euskadi.eus/procurements/companies/economic-activities/1.665"
            }
          }
        },
        {
          "id": "1.691.9",
          "name": "Reparación de otros bienes de consumo n.c.o.p",
          "_links": {
            "self": {
              "name": "Reparación de otros bienes de consumo n.c.o.p",
              "href": "https://api.euskadi.eus/procurements/companies/economic-activities/1.691.9"
            }
          }
        },
        {
          "id": "1.844",
          "name": "Servicios de publicidad, relaciones públicas y similares",
          "_links": {
            "self": {
              "name": "Servicios de publicidad, relaciones públicas y similares",
              "href": "https://api.euskadi.eus/procurements/companies/economic-activities/1.844"
            }
          }
        },
        {
          "id": "1.845",
          "name": "Explotación electrónica por cuenta de terceros",
          "_links": {
            "self": {
              "name": "Explotación electrónica por cuenta de terceros",
              "href": "https://api.euskadi.eus/procurements/companies/economic-activities/1.845"
            }
          }
        }
      ],
      "certificateStartDate": "2025-09-29",
      "certificateEndDate": "2026-03-29",
      "object": "LOS SERVICIOS DE PUBLICIDAD, RELACIONES PÚBLICAS Y SIMILARES, ENTRE OTROS: LA PRESTACIÓN DE SERVICIOS DE PUBLICIDAD, MEDIANTE ANUNCIOS, CARTELES, FOLLETOS, PELÍCULAS PUBLICITARIAS A TRAVÉS DE PRENSA, RADIO TELEVISIÓN, PUBLICIDAD AÉREA U OTROS MEDIOS; CREACIÓN Y DIFUSIÓN DE ANUNCIOS O CAMPAÑAS DE INFORMACIÓN INSTITUCIONAL O PÚBLICA E IMAGEN CORPORATIVA, ASÍ COMO LA PUBLICIDAD EN SUS DIFERENTES MODALIDADES, TALES COMO EXCLUSIVISTAS DE MEDIOS PUBLICITARIOS, PUBLICIDAD EXTERIOR, PUBLICIDAD DIRECTA Y MARKETING DIRECTO, DISTRIBUIDORA Y CENTRAL DE COMPRAS, ESTUDIO DE VENTAS PUBLICITARIAS, REGALOS Y RECLAMOS PUBLICITARIOS Y, EN GENERAL, CUALQUIER SERVICIO INDEPENDIENTE DE PUBLICIDAD. LOS SERVICIOS DE INFORMACIÓN TELEFÓNICA BASADOS EN LA INFORMÁTICA. Y LOS SERVICIOS DE BÚSQUEDA DE INFORMACIÓN REALIZADOS POR CUENTA DE TERCEROS.",
      "mainEntityOfPage": "https://www.contratacion.euskadi.eus/webkpe00-kperoc/es/ac71aBusquedaRegistrosWar/empresa/10129",
      "_links": {
        "self": {
          "name": "RUMBOS DIVERSOS, S.L.",
          "href": "https://api.euskadi.eus/procurements/companies/10129"
        }
      }
    },
    {
      "name": "SCHARLAB, S.L.",
      "registrationNumber": "05337",
      "identificationNumber": "B63048540",
      "address": "GATO PÉREZ, 33",
      "location": {
        "postalCode": "08181",
        "municipality": "Sentmenat",
        "county": "Barcelona",
        "municipalityId": "267",
        "countyId": "08"
      },
      "economicActivities": [
        {
          "id": "1.251.2",
          "name": "Fabricación de otros productos químicos orgánicos",
          "_links": {
            "self": {
              "name": "Fabricación de otros productos químicos orgánicos",
              "href": "https://api.euskadi.eus/procurements/companies/economic-activities/1.251.2"
            }
          }
        },
        {
          "id": "1.251.3",
          "name": "Fabricación de productos químicos inorgánicos",
          "_links": {
            "self": {
              "name": "Fabricación de productos químicos inorgánicos",
              "href": "https://api.euskadi.eus/procurements/companies/economic-activities/1.251.3"
            }
          }
        },
        {
          "id": "1.615.3",
          "name": "Venta al por mayor de aparatos electrodomésticos y ferretería",
          "_links": {
            "self": {
              "name": "Venta al por mayor de aparatos electrodomésticos y ferretería",
              "href": "https://api.euskadi.eus/procurements/companies/economic-activities/1.615.3"
            }
          }
        },
        {
          "id": "1.616.6",
          "name": "Venta al por mayor de productos químicos industriales",
          "_links": {
            "self": {
              "name": "Venta al por mayor de productos químicos industriales",
              "href": "https://api.euskadi.eus/procurements/companies/economic-activities/1.616.6"
            }
          }
        },
        {
          "id": "1.619.7",
          "name": "Venta al por mayor de instrumentos de precisión, medida y similares",
          "_links": {
            "self": {
              "name": "Venta al por mayor de instrumentos de precisión, medida y similares",
              "href": "https://api.euskadi.eus/procurements/companies/economic-activities/1.619.7"
            }
          }
        }
      ],
      "certificateStartDate": "2025-09-29",
      "certificateEndDate": "2026-03-29",
      "object": "LA COMERCIALIZACIÓN Y VENTA DE PRODUCTOS QUÍMICOS Y APARATOS ANALÍTICOS",
      "mainEntityOfPage": "https://www.contratacion.euskadi.eus/webkpe00-kperoc/es/ac71aBusquedaRegistrosWar/empresa/05337",
      "_links": {
        "self": {
          "name": "SCHARLAB, S.L.",
          "href": "https://api.euskadi.eus/procurements/companies/05337"
        }
      }
    },
    {
      "name": "BIGUNE EQUIPAMIENTO INTEGRAL S.L.",
      "registrationNumber": "05591",
      "identificationNumber": "B95689162",
      "address": "POLIGONO URAZANDI C12",
      "location": {
        "postalCode": "48950",
        "municipality": "Erandio",
        "county": "Bizkaia",
        "municipalityId": "902",
        "countyId": "48"
      },
      "economicActivities": [
        {
          "id": "1.653.9",
          "name": "Venta al por menor de otros artículos para el equipamiento del hogar",
          "_links": {
            "self": {
              "name": "Venta al por menor de otros artículos para el equipamiento del hogar",
              "href": "https://api.euskadi.eus/procurements/companies/economic-activities/1.653.9"
            }
          }
        },
        {
          "id": "1.659.2",
          "name": "Venta al por menor de muebles de oficina y máquinas y equipos de oficina",
          "_links": {
            "self": {
              "name": "Venta al por menor de muebles de oficina y máquinas y equipos de oficina",
              "href": "https://api.euskadi.eus/procurements/companies/economic-activities/1.659.2"
            }
          }
        }
      ],
      "certificateStartDate": "2025-09-29",
      "certificateEndDate": "2026-03-29",
      "object": "LA COMPRA-VENTA, DISTRIBUCIÓN, IMPORTACIÓN, EXPORTACIÓN, FABRICACIÓN Y COMERCIALIZACIÓN EN GENERAL DE TODA CLASE DE MOBILIARIO, OBJETOS Y UTENSILIOS PARA OFICINAS, EMPRESAS Y HOGARES. LA ADQUISICIÓN, TENENCIA Y DISFRUTE, ADMINISTRACIÓN Y EXPLOTACIÓN, ENAJENACIÓN DE TODA CLASE DE FINCAS, RÚSTICAS O URBANAS, CUALQUIERA QUE FUERA SU NATURALEZA. LA PROMOCIÓN, CONSTRUCCIÓN, REHABILITACIÓN, REPARACIÓN, REFORMAS, PROYECTOS Y DISEÑOS, TANTO INTERIORES COMO EXTERIORES, POR CUENTA PROPIA O AJENA, DE TODA CLASE DE OBRAS, URBANIZACIONES, EDIFICIOS Y CONSTRUCCIONES, TANTO PÚBLICOS COMO PRIVADOS",
      "mainEntityOfPage": "https://www.contratacion.euskadi.eus/webkpe00-kperoc/es/ac71aBusquedaRegistrosWar/empresa/05591",
      "_links": {
        "self": {
          "name": "BIGUNE EQUIPAMIENTO INTEGRAL S.L.",
          "href": "https://api.euskadi.eus/procurements/companies/05591"
        }
      }
    },
    {
      "name": "MENDIMARKET, S.L.",
      "registrationNumber": "09876",
      "identificationNumber": "B67650374",
      "address": "Calle Larraskitu",
      "location": {
        "postalCode": "48003",
        "municipality": "Bilbao",
        "county": "Bizkaia",
        "municipalityId": "020",
        "countyId": "48"
      },
      "economicActivities": [
        {
          "id": "1.662.2",
          "name": "Venta al por menor de toda clase de artículos, pequeños establecimientos",
          "_links": {
            "self": {
              "name": "Venta al por menor de toda clase de artículos, pequeños establecimientos",
              "href": "https://api.euskadi.eus/procurements/companies/economic-activities/1.662.2"
            }
          }
        }
      ],
      "certificateStartDate": "2025-09-29",
      "certificateEndDate": "2026-03-29",
      "object": "- EL COMERCIO AL POR MENOR Y AL POR MAYOR DE PRODUCTOS DE ALIMENTACIÓN EN GENERAL, DROGUERÍA, PERFUMERÍA, UTENSILIOS DEL HOGAR Y OBJETOS PARA EL USO PERSONAL, Y TODAS LAS ACTIVIDADES PROPIAS DEL NEGOCIO DE SUPERMERCADO. CNAE ACTIVIDAD PRINCIPAL 4711. - TODAS LAS ACTUACIONES RELACIONADAS CON LA HOSTELERÍA, COMO SON LA COMPRA, VENTA, ARRENDAMIENTO, EXPLOTACIÓN Y REPRESENTACIÓN DE BAR, RESTAURANTE, CAFETERÍA, SALAS DE FIESTA O DISCOTECA, PUB, WHISKERÍA, REPOSTERÍA, CONFITERÍA Y PRESTACIÓN DE SERVICIOS DE HOSTELERÍA; LA PROMOCIÓN Y COMERCIALIZACIÓN DE TODA CLASE DE PRODUCTOS ALIMENTICIOS, DE BEBIDA Y SUBPRODUCTOS DERIVADOS.",
      "mainEntityOfPage": "https://www.contratacion.euskadi.eus/webkpe00-kperoc/es/ac71aBusquedaRegistrosWar/empresa/09876",
      "_links": {
        "self": {
          "name": "MENDIMARKET, S.L.",
          "href": "https://api.euskadi.eus/procurements/companies/09876"
        }
      }
    },
    {
      "name": "BMB HOSPITALARIA, S.L.",
      "registrationNumber": "07994",
      "identificationNumber": "B08813719",
      "address": "Ronda Ponent, 27-29 (local)",
      "location": {
        "postalCode": "08206",
        "municipality": "Sabadell",
        "county": "Barcelona",
        "municipalityId": "187",
        "countyId": "08"
      },
      "economicActivities": [
        {
          "id": "1.619.2",
          "name": "Venta al por mayor de aparatos e instrumentos médicos, ortopédicos, ópticos",
          "_links": {
            "self": {
              "name": "Venta al por mayor de aparatos e instrumentos médicos, ortopédicos, ópticos",
              "href": "https://api.euskadi.eus/procurements/companies/economic-activities/1.619.2"
            }
          }
        }
      ],
      "certificateStartDate": "2025-09-29",
      "certificateEndDate": "2026-03-29",
      "object": "LA FABRICACIÓN Y COMERCIALIZACIÓN DE CUANTOS PRODUCTOS Y MAQUINARIA DE CUALQUIER CLASE, CREA CONVENIENTES, DESTINADOS A LA MEDICINA Y SANIDAD, TANTO HUMANA COMO ANIMAL.",
      "mainEntityOfPage": "https://www.contratacion.euskadi.eus/webkpe00-kperoc/es/ac71aBusquedaRegistrosWar/empresa/07994",
      "_links": {
        "self": {
          "name": "BMB HOSPITALARIA, S.L.",
          "href": "https://api.euskadi.eus/procurements/companies/07994"
        }
      }
    },
    {
      "name": "RELOJERIA MIRIAM-HERMANOS SUESCUN S.C.",
      "registrationNumber": "09328",
      "identificationNumber": "J01280866",
      "address": "CALLE RAFAEL ALBERTI Nº24 BAJO",
      "location": {
        "postalCode": "01010",
        "municipality": "Vitoria-Gasteiz",
        "county": "Araba/Álava",
        "municipalityId": "059",
        "countyId": "01"
      },
      "economicActivities": [
        {
          "id": "1.659.5",
          "name": "Venta al por menor de artículos de joyería, relojería, platería y bisutería",
          "_links": {
            "self": {
              "name": "Venta al por menor de artículos de joyería, relojería, platería y bisutería",
              "href": "https://api.euskadi.eus/procurements/companies/economic-activities/1.659.5"
            }
          }
        },
        {
          "id": "1.699",
          "name": "Otras reparaciones n.c.o.p",
          "_links": {
            "self": {
              "name": "Otras reparaciones n.c.o.p",
              "href": "https://api.euskadi.eus/procurements/companies/economic-activities/1.699"
            }
          }
        }
      ],
      "certificateStartDate": "2025-09-29",
      "certificateEndDate": "2026-03-29",
      "object": "NEGOCIO DE VENTA Y REPARACIÓN DE RELOJES.",
      "mainEntityOfPage": "https://www.contratacion.euskadi.eus/webkpe00-kperoc/es/ac71aBusquedaRegistrosWar/empresa/09328",
      "_links": {
        "self": {
          "name": "RELOJERIA MIRIAM-HERMANOS SUESCUN S.C.",
          "href": "https://api.euskadi.eus/procurements/companies/09328"
        }
      }
    },
    {
      "name": "ALKORA E.B.S. CORREDURÍA DE SEGUROS Y REASEGUROS, S.A.",
      "registrationNumber": "01026",
      "identificationNumber": "A01051747",
      "address": "Brasil, 4",
      "location": {
        "postalCode": "28020",
        "municipality": "Madrid",
        "county": "Madrid",
        "municipalityId": "079",
        "countyId": "28"
      },
      "economicActivities": [
        {
          "id": "1.832.1",
          "name": "Agencias de seguros y corredurías de seguros",
          "_links": {
            "self": {
              "name": "Agencias de seguros y corredurías de seguros",
              "href": "https://api.euskadi.eus/procurements/companies/economic-activities/1.832.1"
            }
          }
        },
        {
          "id": "1.832.9",
          "name": "Otros servicios auxiliares de seguros n.c.o.p",
          "_links": {
            "self": {
              "name": "Otros servicios auxiliares de seguros n.c.o.p",
              "href": "https://api.euskadi.eus/procurements/companies/economic-activities/1.832.9"
            }
          }
        }
      ],
      "certificateStartDate": "2025-09-29",
      "certificateEndDate": "2026-03-09",
      "object": "LA REALIZACIÓN DE ACTIVIDADES DE CORREDURÍA DE SEGUROS Y REASEGUROS, CONFORME NORMATIVA VIGENTE",
      "mainEntityOfPage": "https://www.contratacion.euskadi.eus/webkpe00-kperoc/es/ac71aBusquedaRegistrosWar/empresa/01026",
      "_links": {
        "self": {
          "name": "ALKORA E.B.S. CORREDURÍA DE SEGUROS Y REASEGUROS, S.A.",
          "href": "https://api.euskadi.eus/procurements/companies/01026"
        }
      }
    }
  ]
}