{
  "totalItems": 9042,
  "totalPages": 905,
  "currentPage": 163,
  "itemsOfPage": 10,
  "items": [
    {
      "name": "TEKUR WATER DIGITAL SYSTEMS, S.L.",
      "registrationNumber": "10232",
      "identificationNumber": "B75501577",
      "address": "OLALDE INDUSTRIALDEA 004 00 I1",
      "location": {
        "postalCode": "20738",
        "municipality": "Azpeitia",
        "county": "Gipuzkoa",
        "municipalityId": "018",
        "countyId": "20"
      },
      "economicActivities": [
        {
          "id": "1.504.1",
          "name": "Instalaciones eléctricas en general",
          "_links": {
            "self": {
              "name": "Instalaciones eléctricas en general",
              "href": "https://api.euskadi.eus/procurements/companies/economic-activities/1.504.1"
            }
          }
        },
        {
          "id": "1.845",
          "name": "Explotación electrónica por cuenta de terceros",
          "_links": {
            "self": {
              "name": "Explotación electrónica por cuenta de terceros",
              "href": "https://api.euskadi.eus/procurements/companies/economic-activities/1.845"
            }
          }
        }
      ],
      "certificateStartDate": "2025-11-12",
      "certificateEndDate": "2026-05-10",
      "object": "LA REALIZACIÓN DE TODA CLASE DE SERVICIOS RELACIONADOS LAS TECNOLOGÍAS DE LA INFORMACIÓN Y LA INFORMÁTICA, ASÍ COMO EL SUMINISTRO, INSTALACIÓN DE SISTEMAS DE TELELECTURA, DESPLIEGUE Y SEGUIMIENTO DE LA GESTIÓN INTEGRAL DE LOS RECURSOS HÍDRICOS EN ESPAÑA, QUE PODRÁN SER REALIZADAS POR LA SOCIEDAD YA DIRECTAMENTE YA INDIRECTAMENTE, INCLUSO MEDIANTE SU PARTICIPACIÓN EN OTRAS SOCIEDADES DE OBJETO IDÉNTICO O ANÁLOGO.",
      "mainEntityOfPage": "https://www.contratacion.euskadi.eus/webkpe00-kperoc/es/ac71aBusquedaRegistrosWar/empresa/10232",
      "_links": {
        "self": {
          "name": "TEKUR WATER DIGITAL SYSTEMS, S.L.",
          "href": "https://api.euskadi.eus/procurements/companies/10232"
        }
      }
    },
    {
      "name": "ROBERTO SAENZ MAGUREGUI",
      "registrationNumber": "08226",
      "identificationNumber": "30621396R",
      "address": "Calle Ercilla",
      "location": {
        "postalCode": "48009",
        "municipality": "Bilbao",
        "county": "Bizkaia",
        "municipalityId": "020",
        "countyId": "48"
      },
      "economicActivities": [
        {
          "id": "2.224",
          "name": "Dibujantes técnicos",
          "_links": {
            "self": {
              "name": "Dibujantes técnicos",
              "href": "https://api.euskadi.eus/procurements/companies/economic-activities/2.224"
            }
          }
        },
        {
          "id": "2.751",
          "name": "Profesionales de la publicidad, relaciones públicas y similares",
          "_links": {
            "self": {
              "name": "Profesionales de la publicidad, relaciones públicas y similares",
              "href": "https://api.euskadi.eus/procurements/companies/economic-activities/2.751"
            }
          }
        }
      ],
      "certificateStartDate": "2025-11-12",
      "certificateEndDate": "2026-05-05",
      "object": "PROFESIONALES DE LA PUBLICIDAD, RELACIONES PÚBLICAS Y SIMILARES. DIBUJANTES TÉCNICOS.",
      "mainEntityOfPage": "https://www.contratacion.euskadi.eus/webkpe00-kperoc/es/ac71aBusquedaRegistrosWar/empresa/08226",
      "_links": {
        "self": {
          "name": "ROBERTO SAENZ MAGUREGUI",
          "href": "https://api.euskadi.eus/procurements/companies/08226"
        }
      }
    },
    {
      "name": "CENTRO INV. Y DOC. S/ PROBLEMAS DE LA ECONOMÍA, EL EMPLEO Y LAS CUALIFIC. PROF.",
      "registrationNumber": "03461",
      "identificationNumber": "G20331369",
      "address": "PSO. TXINGURRI 28-30, 3º",
      "location": {
        "postalCode": "20017",
        "municipality": "Donostia / San Sebastián",
        "county": "Gipuzkoa",
        "municipalityId": "069",
        "countyId": "20"
      },
      "economicActivities": [
        {
          "id": "1.936",
          "name": "Investigación científica y técnica",
          "_links": {
            "self": {
              "name": "Investigación científica y técnica",
              "href": "https://api.euskadi.eus/procurements/companies/economic-activities/1.936"
            }
          }
        }
      ],
      "certificateStartDate": "2025-11-12",
      "certificateEndDate": "2026-05-11",
      "object": "1) ESTABLECER UN PUNTO DE ENCUENTRO CON LAS ACTIVIDADES DE LAS ENTIDADES DE LA CEE ESPECIALIZADAS EN I+D DE LA ECONOMÍA, EL EMPLEO, LAS CUALIFICACIONES PROFESIONALES Y FORMACIÓN OCUPACIONAL, TANTO PÚBLICAS COMO PRIVADAS. 2) ACOMETER PROYECTOS DE INVESTIGACIÓN QUE PERMITAN LA INTRODUCCIÓN EN LA CAPV DE METODOLOGÍAS E INSTRUMENTOS TÉCNICOS INNOVADORES Y FOMENTO DE ACTIVIDADES DEDICADAS A LA FORMACIÓN DE FORMADORES. 3) DESARROLLO DE UNA FUNCIÓN INFORMATIVA Y DOCUMENTAL (CREACIÓN DE UN FOMDO DOCUMENTAL DE ALCANCE CEE, CREACIÓN Y ACCESO A BASES DE DATOS, PROMOCIÓN DE LA RED SPRITEL, ETC.) Y DE ASISTENCIA A ENTIDADES PÚBLICAS Y PRIVADAS, EN PARTICULAR A LOS COMITÉS COMARCALES DE EMPLEO Y FORMACIÓN PROMOVIDOS POR EL DEPARTAMENTO DE TRABAJO Y SEGURIDAD SOCIAL DEL GOBIERNO VASCO. 4) PARTICIPACIÓN EN TRABAJOS DE DISEÑO, GESTIÓN Y COORDINACIÓN DE PROYECTOS Y PROGRAMAS DE FORMACIÓN. 5) PROMOCIÓN DE ENCUENTROS, JORNADAS Y SEMINARIOS ESPECIALIZADOS SOBRE PROBLEMAS DE LA ECONOMÍA, EL EMPLEO Y LAS CUALIFICACIONES PROFESIONALES",
      "mainEntityOfPage": "https://www.contratacion.euskadi.eus/webkpe00-kperoc/es/ac71aBusquedaRegistrosWar/empresa/03461",
      "_links": {
        "self": {
          "name": "CENTRO INV. Y DOC. S/ PROBLEMAS DE LA ECONOMÍA, EL EMPLEO Y LAS CUALIFIC. PROF.",
          "href": "https://api.euskadi.eus/procurements/companies/03461"
        }
      }
    },
    {
      "name": "DAMBERG CONTRASTE COMUNICACIÓN, S.L.",
      "registrationNumber": "02508",
      "identificationNumber": "B48467799",
      "address": "GENERAL CONCHA 25, 1º",
      "location": {
        "postalCode": "48010",
        "municipality": "Bilbao",
        "county": "Bizkaia",
        "municipalityId": "020",
        "countyId": "48"
      },
      "economicActivities": [
        {
          "id": "1.844",
          "name": "Servicios de publicidad, relaciones públicas y similares",
          "_links": {
            "self": {
              "name": "Servicios de publicidad, relaciones públicas y similares",
              "href": "https://api.euskadi.eus/procurements/companies/economic-activities/1.844"
            }
          }
        }
      ],
      "certificateStartDate": "2025-11-12",
      "certificateEndDate": "2026-04-24",
      "object": "EL DESARROLLO, EN TODA SU AMPLITUD, DE UN ESTUDIO DE DISEÑO GRÁFICO, ASÍ COMO LA EXPLOTACIÓN DE UNA AGENCIA DE PUBLICIDAD DE SERVICIOS GENERALES ",
      "mainEntityOfPage": "https://www.contratacion.euskadi.eus/webkpe00-kperoc/es/ac71aBusquedaRegistrosWar/empresa/02508",
      "_links": {
        "self": {
          "name": "DAMBERG CONTRASTE COMUNICACIÓN, S.L.",
          "href": "https://api.euskadi.eus/procurements/companies/02508"
        }
      }
    },
    {
      "name": "TROMP MEDICAL, S.L.",
      "registrationNumber": "07644",
      "identificationNumber": "B02902989",
      "address": "VIA DE LAS DOS CASTILLAS, 33 ATICA EDIF.6 3ªPL",
      "location": {
        "postalCode": "28224",
        "municipality": "Pozuelo de Alarcón",
        "county": "Madrid",
        "municipalityId": "115",
        "countyId": "28"
      },
      "economicActivities": [
        {
          "id": "1.659.3",
          "name": "Venta al por menor de aparatos médicos, ortopédicos, ópticos y fotográficos",
          "_links": {
            "self": {
              "name": "Venta al por menor de aparatos médicos, ortopédicos, ópticos y fotográficos",
              "href": "https://api.euskadi.eus/procurements/companies/economic-activities/1.659.3"
            }
          }
        },
        {
          "id": "1.699",
          "name": "Otras reparaciones n.c.o.p",
          "_links": {
            "self": {
              "name": "Otras reparaciones n.c.o.p",
              "href": "https://api.euskadi.eus/procurements/companies/economic-activities/1.699"
            }
          }
        }
      ],
      "certificateStartDate": "2025-11-12",
      "certificateEndDate": "2026-05-07",
      "object": "1.- EL SERVICIO Y REPARACIÓN DE EQUIPOS DE IMÁGENES MÉDICAS PARA HOSPITALES PÚBLICOS Y PRIVADOS; ASÍ COMO LA INTERMEDIACIÓN, IMPORTACIÓN Y EXPORTACIÓN DE LOS MISMOS, RELACIONADOS CON LAS ACTIVIDADES PREVISTAS EN EL PRESENTE OBJETO SOCIAL. 2.- EL DISEÑO, FABRICACIÓN, IMPORTACIÓN, SUMINISTRO, ARRENDAMIENTO CON O SIN OPCIÓN DE COMPRA DE PRODUCTOS Y EQUIPOS MÉDICOS, RADIOLÓGICOS, DE ELECTROMEDICINA, INFORMÁTICOS, SISTEMAS DE TRATAMIENTO DE LA INFORMACIÓN Y DE IMAGEN MÉDICA Y DENTAL, RELACIONADOS CON LA SALUD Y LA INVESTIGACIÓN. 3.- LA VENTA Y COMERCIO AL POR MAYOR DE OTRA MAQUINARIA Y EQUIPOS, EN COMERCIO INTERNACIONAL, INTERMEDIACIÓN EN ASESORÍA DE MERCADOS, INTERMEDIACIÓN EN LA GESTIÓN Y SU ASESORAMIENTO, Y LA PRESTACIÓN DE SERVICIOS DE TODO TIPO, TÉCNICOS O NO, A PERSONAS FÍSICAS O JURÍDICAS Y PARTICULARMENTE A EMPRESARIOS INDIVIDUALES O SOCIALES, ASÍ COMO PARA LAS ADMINISTRACIONES PÚBLICAS, RELACIONADAS CON LAS ACTIVIDADES PREVISTAS EN EL PRESENTE OBJETO SOCIAL. 4.- EL COMERCIO AL POR MENOR DE ARTÍCULOS MÉDICOS Y ORTOPÉDICOS EN ESTABLECIMIENTOS ESPECIALIZADOS, EN COMERCIO INTERNACIONAL, INTERMEDIACIÓN EN ASESORÍA DE MERCADOS, INTERMEDLACIÓN EN LA GESTIÓN Y SU ASESORAMIENTO, Y LA PRESTACIÓN DE SERVICIOS DE TODO TIPO, TÉCNICOS O NO, A PERSONAS FÍSICAS O JURÍDICAS Y PARTICULARMENTE A EMPRESARIOS INDIVIDUALES O SOCIALES, ASÍ COMO PARA LAS ADMINISTRACIOBES PÚBLICAS, RELACIONADAS CON LAS ACTIVIDADES PREVISTAS EN EL PRESENTE OBJETO SOCIAL.",
      "mainEntityOfPage": "https://www.contratacion.euskadi.eus/webkpe00-kperoc/es/ac71aBusquedaRegistrosWar/empresa/07644",
      "_links": {
        "self": {
          "name": "TROMP MEDICAL, S.L.",
          "href": "https://api.euskadi.eus/procurements/companies/07644"
        }
      }
    },
    {
      "name": "HIJAS DE JOSE SARASOLA AUTOCARES, S.L.",
      "registrationNumber": "04930",
      "identificationNumber": "B20393666",
      "address": "C/ Pokopandegi Bidea, nº 3",
      "location": {
        "postalCode": "20018",
        "municipality": "Donostia / San Sebastián",
        "county": "Gipuzkoa",
        "municipalityId": "069",
        "countyId": "20"
      },
      "economicActivities": [
        {
          "id": "1.721.1",
          "name": "Transporte urbano colectivo",
          "_links": {
            "self": {
              "name": "Transporte urbano colectivo",
              "href": "https://api.euskadi.eus/procurements/companies/economic-activities/1.721.1"
            }
          }
        },
        {
          "id": "1.721.3",
          "name": "Transporte de viajeros por carretera",
          "_links": {
            "self": {
              "name": "Transporte de viajeros por carretera",
              "href": "https://api.euskadi.eus/procurements/companies/economic-activities/1.721.3"
            }
          }
        }
      ],
      "certificateStartDate": "2025-11-12",
      "certificateEndDate": "2026-05-10",
      "object": "EL SERVICIO PÚBLICO DISCRECCIONAL DE VIAJEROS POR CARRETERA",
      "mainEntityOfPage": "https://www.contratacion.euskadi.eus/webkpe00-kperoc/es/ac71aBusquedaRegistrosWar/empresa/04930",
      "_links": {
        "self": {
          "name": "HIJAS DE JOSE SARASOLA AUTOCARES, S.L.",
          "href": "https://api.euskadi.eus/procurements/companies/04930"
        }
      }
    },
    {
      "name": "ARETO, S.L.",
      "registrationNumber": "06702",
      "identificationNumber": "B48684658",
      "address": "CL ANDPARA 1",
      "location": {
        "postalCode": "48340",
        "municipality": "Amorebieta-Etxano",
        "county": "Bizkaia",
        "municipalityId": "003",
        "countyId": "48"
      },
      "economicActivities": [
        {
          "id": "1.849.9",
          "name": "Otros servicios independientes n.c.o.p",
          "_links": {
            "self": {
              "name": "Otros servicios independientes n.c.o.p",
              "href": "https://api.euskadi.eus/procurements/companies/economic-activities/1.849.9"
            }
          }
        },
        {
          "id": "1.963.1",
          "name": "Exhibición de películas cinematográficas y vídeos en cines",
          "_links": {
            "self": {
              "name": "Exhibición de películas cinematográficas y vídeos en cines",
              "href": "https://api.euskadi.eus/procurements/companies/economic-activities/1.963.1"
            }
          }
        },
        {
          "id": "1.966.9",
          "name": "Otros servicios culturales n.c.o.p",
          "_links": {
            "self": {
              "name": "Otros servicios culturales n.c.o.p",
              "href": "https://api.euskadi.eus/procurements/companies/economic-activities/1.966.9"
            }
          }
        }
      ],
      "certificateStartDate": "2025-11-12",
      "certificateEndDate": "2026-05-11",
      "object": "LA PROMOCIÓN, EXHIBICIÓN Y EXPLOTACIÓN DE ESPECTÁCULOS DE OCIO, CULTURAL, TALES COMO DE PELÍCULAS Y DE OBRAS DE TEATRO",
      "mainEntityOfPage": "https://www.contratacion.euskadi.eus/webkpe00-kperoc/es/ac71aBusquedaRegistrosWar/empresa/06702",
      "_links": {
        "self": {
          "name": "ARETO, S.L.",
          "href": "https://api.euskadi.eus/procurements/companies/06702"
        }
      }
    },
    {
      "name": "LERA-GARCIA-OTXOANTESANA SCP",
      "registrationNumber": "08280",
      "identificationNumber": "J95536389",
      "address": "IKASTOLA KALEA Nº 2, ENT",
      "location": {
        "postalCode": "48700",
        "municipality": "Ondarroa",
        "county": "Bizkaia",
        "municipalityId": "073",
        "countyId": "48"
      },
      "economicActivities": [
        {
          "id": "1.843.2",
          "name": "Servicios técnicos de arquitectura y urbanismo",
          "_links": {
            "self": {
              "name": "Servicios técnicos de arquitectura y urbanismo",
              "href": "https://api.euskadi.eus/procurements/companies/economic-activities/1.843.2"
            }
          }
        }
      ],
      "certificateStartDate": "2025-11-12",
      "certificateEndDate": "2026-05-01",
      "object": "EL EJERCICIO COMÚN DE LA ACTIVIDAD PROPIA DE LOS PROFESIONALES DE LA ARQUITECTURA Y URBANISMO, BIEN DIRECTAMENTE, BIEN A TRAVÉS DE LA PARTICIPACIÓN EN OTRAS SOCIEDADES PROFESIONALES.",
      "mainEntityOfPage": "https://www.contratacion.euskadi.eus/webkpe00-kperoc/es/ac71aBusquedaRegistrosWar/empresa/08280",
      "_links": {
        "self": {
          "name": "LERA-GARCIA-OTXOANTESANA SCP",
          "href": "https://api.euskadi.eus/procurements/companies/08280"
        }
      }
    },
    {
      "name": "BITEZ, S.L.",
      "registrationNumber": "01206",
      "identificationNumber": "B20395752",
      "address": "Avenida de Tolosa",
      "location": {
        "postalCode": "20018",
        "municipality": "Donostia / San Sebastián",
        "county": "Gipuzkoa",
        "municipalityId": "069",
        "countyId": "20"
      },
      "economicActivities": [
        {
          "id": "1.849.3",
          "name": "Servicios de traducción y similares",
          "_links": {
            "self": {
              "name": "Servicios de traducción y similares",
              "href": "https://api.euskadi.eus/procurements/companies/economic-activities/1.849.3"
            }
          }
        }
      ],
      "certificateStartDate": "2025-11-12",
      "certificateEndDate": "2026-05-11",
      "classification": [
        {
          "id": "S",
          "name": "Servicios",
          "groups": [
            {
              "id": "T",
              "subgroups": [
                {
                  "id": "05",
                  "name": "Servicios de traductores e intérpretes",
                  "categories": [
                    {
                      "id": "3",
                      "name": "Desde 300.001 Hasta 600.000",
                      "_links": {
                        "self": {
                          "name": "Desde 300.001 Hasta 600.000",
                          "href": "https://api.euskadi.eus/procurements/companies/types/S/categories/3"
                        }
                      }
                    }
                  ],
                  "_links": {
                    "self": {
                      "name": "Servicios de traductores e intérpretes",
                      "href": "https://api.euskadi.eus/procurements/companies/types/S/groups/T/subgroups/05"
                    }
                  }
                }
              ],
              "_links": {
                "self": {
                  "href": "https://api.euskadi.eus/procurements/companies/types/S/groups/T"
                }
              }
            }
          ],
          "_links": {
            "self": {
              "name": "Servicios",
              "href": "https://api.euskadi.eus/procurements/companies/types/S"
            }
          }
        }
      ],
      "object": "LA PRESTACIÓN MERCANTIL DE SERVICIOS DE INTERPRETACIÓN, TRADUCCIÓN SIMULTÁNEA Y TRADUCCIÓN DE TODO TIPO DE TEXTOS: LIBROS, GUIONES CINEMATOGRÁFICOS, INFORMES, MEMORIAS, TEXTOS PUBLICITARIOS, MANUALES, DOCUMENTOS TÉCNICOS Y ADMINISTRATIVOS, Y TEXTOS EN GENERAL, SUJETOS A REGLAMENTACIÓN O PARA USO PRIVADO; ASÍ COMO LA ADAPTACIÓN DE GUIONES CINEMATOGRÁFICOS PARA EL DOBLAJE Y OTROS SERVICIOS RELACIONADOS CON LA TRADUCCIÓN Y ADAPTACIÓN, TALES COMO TRANSCRIPCIÓN, EDICIÓN, TRATAMIENTO INFORMÁTICO, GESTIÓN, ETC., QUE SEAN SOLICITADOS A LA SOCIEDAD POR EMPRESAS, ENTIDADES O PARTICULARES",
      "mainEntityOfPage": "https://www.contratacion.euskadi.eus/webkpe00-kperoc/es/ac71aBusquedaRegistrosWar/empresa/01206",
      "_links": {
        "self": {
          "name": "BITEZ, S.L.",
          "href": "https://api.euskadi.eus/procurements/companies/01206"
        }
      }
    },
    {
      "name": "ASFALTADOS OLARRA, S.A.",
      "registrationNumber": "00033",
      "identificationNumber": "A48028435",
      "address": "C/LERSUNDI, 9-5º",
      "location": {
        "postalCode": "48009",
        "municipality": "Bilbao",
        "county": "Bizkaia",
        "municipalityId": "020",
        "countyId": "48"
      },
      "economicActivities": [
        {
          "id": "1.243.1",
          "name": "Fabricación de hormigones preparados",
          "_links": {
            "self": {
              "name": "Fabricación de hormigones preparados",
              "href": "https://api.euskadi.eus/procurements/companies/economic-activities/1.243.1"
            }
          }
        },
        {
          "id": "1.501.1",
          "name": "Construcción completa, reparación y conservación de edificaciones",
          "_links": {
            "self": {
              "name": "Construcción completa, reparación y conservación de edificaciones",
              "href": "https://api.euskadi.eus/procurements/companies/economic-activities/1.501.1"
            }
          }
        },
        {
          "id": "1.501.2",
          "name": "Construcción completa, reparación y conservación obras civiles",
          "_links": {
            "self": {
              "name": "Construcción completa, reparación y conservación obras civiles",
              "href": "https://api.euskadi.eus/procurements/companies/economic-activities/1.501.2"
            }
          }
        },
        {
          "id": "1.505.2",
          "name": "Solados y pavimentos de todas clases en cualquier tipo de obra",
          "_links": {
            "self": {
              "name": "Solados y pavimentos de todas clases en cualquier tipo de obra",
              "href": "https://api.euskadi.eus/procurements/companies/economic-activities/1.505.2"
            }
          }
        },
        {
          "id": "1.505.4",
          "name": "Colocación y aislamiento fónicos, térmicos y acústicos",
          "_links": {
            "self": {
              "name": "Colocación y aislamiento fónicos, térmicos y acústicos",
              "href": "https://api.euskadi.eus/procurements/companies/economic-activities/1.505.4"
            }
          }
        }
      ],
      "certificateStartDate": "2025-11-12",
      "certificateEndDate": "2026-05-09",
      "classification": [
        {
          "id": "S",
          "name": "Servicios",
          "groups": [
            {
              "id": "O",
              "subgroups": [
                {
                  "id": "02",
                  "name": "Conserv. y Mtto. carreteras,pistas,autopistas,autovías,calzadas y vías férreas",
                  "categories": [
                    {
                      "id": "5",
                      "name": "Mas de 1.200.000",
                      "_links": {
                        "self": {
                          "name": "Mas de 1.200.000",
                          "href": "https://api.euskadi.eus/procurements/companies/types/S/categories/5"
                        }
                      }
                    }
                  ],
                  "_links": {
                    "self": {
                      "name": "Conserv. y Mtto. carreteras,pistas,autopistas,autovías,calzadas y vías férreas",
                      "href": "https://api.euskadi.eus/procurements/companies/types/S/groups/O/subgroups/02"
                    }
                  }
                }
              ],
              "_links": {
                "self": {
                  "href": "https://api.euskadi.eus/procurements/companies/types/S/groups/O"
                }
              }
            }
          ],
          "_links": {
            "self": {
              "name": "Servicios",
              "href": "https://api.euskadi.eus/procurements/companies/types/S"
            }
          }
        }
      ],
      "object": "OBRAS PÚBLICAS Y URBANIZACIONES MUNICIPALES",
      "mainEntityOfPage": "https://www.contratacion.euskadi.eus/webkpe00-kperoc/es/ac71aBusquedaRegistrosWar/empresa/00033",
      "_links": {
        "self": {
          "name": "ASFALTADOS OLARRA, S.A.",
          "href": "https://api.euskadi.eus/procurements/companies/00033"
        }
      }
    }
  ]
}