{
  "totalItems": 9042,
  "totalPages": 905,
  "currentPage": 78,
  "itemsOfPage": 10,
  "items": [
    {
      "name": "CONSTRUCCIONES ALARCON Y ESCUDERO S.A.",
      "registrationNumber": "06374",
      "identificationNumber": "A09040098",
      "address": "C/ Ciudad de Toledo, 1",
      "location": {
        "postalCode": "09200",
        "municipality": "Miranda de Ebro",
        "county": "Burgos",
        "municipalityId": "219",
        "countyId": "09"
      },
      "economicActivities": [
        {
          "id": "1.501.1",
          "name": "Construcción completa, reparación y conservación de edificaciones",
          "_links": {
            "self": {
              "name": "Construcción completa, reparación y conservación de edificaciones",
              "href": "https://api.euskadi.eus/procurements/companies/economic-activities/1.501.1"
            }
          }
        }
      ],
      "certificateStartDate": "2026-01-15",
      "certificateEndDate": "2026-06-30",
      "object": "A) CONSOLIDACIÓN Y PREPARACIÓN DE TERRENOS, DEMOLICIÓN, PERFORACIONES PARA ALUMBRAMIENTO DE AGUAS, CIMENTACIONES, PAVIMENTACIONES Y OTRAS OBRAS PROPIAS DE LA ACTIVIDAD DE JARDINERÍA. B) EJECUCIÓN COMPLETA, POR CUENTA PROPIA O POR CONTRATA, DE OBRAS Y EDIFICACIONES PARA SU VENTA O ALQUILER, DESTINAS A VIVIENDAS, LOCALES COMERCIALES O USOS INDUSTRIALES. C) PREPARACIÓN Y MONTAJE DE ESTRUCTURAS Y CUBIERTAS, POSTES, TORRES METÁLICAS, CARRILES, COMPUERTAS, GRÚAS Y OTROS ELEMENTOS DESTINADOS A LA EDIFICACIÓN",
      "mainEntityOfPage": "https://www.contratacion.euskadi.eus/webkpe00-kperoc/es/ac71aBusquedaRegistrosWar/empresa/06374",
      "_links": {
        "self": {
          "name": "CONSTRUCCIONES ALARCON Y ESCUDERO S.A.",
          "href": "https://api.euskadi.eus/procurements/companies/06374"
        }
      }
    },
    {
      "name": "REFORMAS ASKETA, S.L.",
      "registrationNumber": "09426",
      "identificationNumber": "B56147663",
      "address": "Maxpe 3-5 Kalea bajo",
      "location": {
        "postalCode": "20820",
        "municipality": "Deba",
        "county": "Gipuzkoa",
        "municipalityId": "029",
        "countyId": "20"
      },
      "economicActivities": [
        {
          "id": "1.501.1",
          "name": "Construcción completa, reparación y conservación de edificaciones",
          "_links": {
            "self": {
              "name": "Construcción completa, reparación y conservación de edificaciones",
              "href": "https://api.euskadi.eus/procurements/companies/economic-activities/1.501.1"
            }
          }
        },
        {
          "id": "1.504.1",
          "name": "Instalaciones eléctricas en general",
          "_links": {
            "self": {
              "name": "Instalaciones eléctricas en general",
              "href": "https://api.euskadi.eus/procurements/companies/economic-activities/1.504.1"
            }
          }
        },
        {
          "id": "1.504.2",
          "name": "Instalaciones de fontanería",
          "_links": {
            "self": {
              "name": "Instalaciones de fontanería",
              "href": "https://api.euskadi.eus/procurements/companies/economic-activities/1.504.2"
            }
          }
        },
        {
          "id": "1.653.4",
          "name": "Venta al por menor de material de construcción y mobiliario de saneamiento",
          "_links": {
            "self": {
              "name": "Venta al por menor de material de construcción y mobiliario de saneamiento",
              "href": "https://api.euskadi.eus/procurements/companies/economic-activities/1.653.4"
            }
          }
        },
        {
          "id": "1.722",
          "name": "Transporte de mercancías por carretera",
          "_links": {
            "self": {
              "name": "Transporte de mercancías por carretera",
              "href": "https://api.euskadi.eus/procurements/companies/economic-activities/1.722"
            }
          }
        }
      ],
      "certificateStartDate": "2026-01-15",
      "certificateEndDate": "2026-06-26",
      "object": "(A) LA EJECUCIÓN Y MANTENIMIENTO DE INSTALACIONES ELÉCTRICA EN GENERAL, EN ALTA, BAJA Y MEDIA TENSIÓN, INSTALACIONES, INSTALACIONES DE TELECOMUNICACIÓN, INSTALACIONES ELECTRÓNICAS E INSTALACIONES DE SISTEMAS DE SEÑALIZACIÓN Y BALIZAMIENTO DE PUERTOS, AEROPUERTOS Y CARRETERAS, INSTALACIONES DE SEGURIDAD Y CONTRA INCENDIOS. (B) LA EJECUCIÓN Y MANTENIMIENTO DE INSTALACIONES MECÁNICAS EN GENERAL, INSTALACIONES DE FONTANERÍA, INSTALACIONES FRIGORÍFICAS, INSTALACIONES DE CALEFACCIÓN, VENTILACIÓN Y CLIMATIZACIÓN, INSTALACIONES ELEVADORAS Y TRANSPORTADORAS, E INSTALACIONES DE TRATAMIENTO DE AGUAS DE TODO TIPO. (C) LA CONSTRUCCIÓN COMPLETA, REPARACIÓN Y CONSERVACIÓN DE EDIFICACIONES Y OBRAS CIVILES. (D) CONTRATAR OBRAS Y SERVICIOS CON CUALQUIER ORGANISMO DE LAS ADMINISTRACIONES PÚBLICAS Y CON TODA CLASE DE ENTIDADES Y PARTICULARES. (E) LA REDACCIÓN Y CONFECCIÓN DE PROYECTOS TÉCNICOS DE TODO TIPO, DIRECCIÓN DE OBRA Y CONTROL DE CALIDAD, REALIZACIÓN DE ESTUDIOS E INFORMES Y ASESORAMIENTO TÉCNICO. (F) LA PLANTACIÓN Y MANTENIMIENTO DE PARQUES Y JARDINES. PLANTACIÓN Y MANTENIMIENTO FORESTALES, REPOBLACIÓN FORESTAL, LUCHA CONTRA PLAYAS Y LUCHA, DEFENSA Y PREVENCIÓN CONTRA INCENDIOS FORESTALES. (G) LA CONSTRUCCIÓN COMPLETA, REPARACIÓN Y CONSERVACIÓN DE TODA CLASE DE OBRAS. (H) LA LIMPIEZA DE EDIFICIOS Y LOCALES, LIMPIEZA DE CALLES, VIALES Y PISTAS; LIMPIEZA DE MONTES Y JARDINES; LIMPIEZA DE PLAYAS; LIMPIEZA DE ALCANTARILLADO, REDES DE AGUA Y ESTACIONES DEPURADORAS; LAVANDERÍA Y TINTE; SANEAMIENTO, HIGIENIZACIÓN, DESRATIZACIÓN, DESINFECCIÓN Y DESINSECTACIÓN. (I) EL TRATAMIENTO E INCINERACIÓN DE RESIDUOS; ALMACENAJE; PORTERÍA Y CONTROL DE ACCESOS (EXCLUIDA SEGURIDAD); LECTURA DE CONTADORES; VETERINARIOS; VIGILANCIA PARA PREVENCIÓN DE INCENDIOS FORESTALES; PROTECCIÓN DE ESPECIES; TRASLADO INTERIOR DE BIENES MUEBLES; RECOGIDA DE CARRITOS PORTAEQUIPAJES EN ESTACIONES Y AEROPUERTOS. (J) EL TRANSPORTE POR CUALQUIER MEDIO DE MERCANCÍAS, CARGA, PASAJEROS Y VIAJEROS; ACTIVIDADES AÉREAS DE FUMIGACIÓN Y ACTIVIDADES DE CONTROL Y EXTINCIÓN DE INCENDIOS; RECOGIDA Y TRANSPORTE DE BASURAS, DESECHOS, CONTENEDORES Y LODOS; TRANSPORTE MEDIANTE GRÚAS; MUDANZAS.",
      "mainEntityOfPage": "https://www.contratacion.euskadi.eus/webkpe00-kperoc/es/ac71aBusquedaRegistrosWar/empresa/09426",
      "_links": {
        "self": {
          "name": "REFORMAS ASKETA, S.L.",
          "href": "https://api.euskadi.eus/procurements/companies/09426"
        }
      }
    },
    {
      "name": "FUJIFILM SONOSITE IBÉRICA, S.L.",
      "registrationNumber": "04720",
      "identificationNumber": "B62601158",
      "address": "Paseo de la Castellana, 259C-Planta 18 - Torre de Cristal",
      "location": {
        "postalCode": "28046",
        "municipality": "Madrid",
        "county": "Madrid",
        "municipalityId": "079",
        "countyId": "28"
      },
      "economicActivities": [
        {
          "id": "1.619.2",
          "name": "Venta al por mayor de aparatos e instrumentos médicos, ortopédicos, ópticos",
          "_links": {
            "self": {
              "name": "Venta al por mayor de aparatos e instrumentos médicos, ortopédicos, ópticos",
              "href": "https://api.euskadi.eus/procurements/companies/economic-activities/1.619.2"
            }
          }
        },
        {
          "id": "1.859",
          "name": "Alquiler de otros bienes muebles n.c.o.p. (sin personal permanente)",
          "_links": {
            "self": {
              "name": "Alquiler de otros bienes muebles n.c.o.p. (sin personal permanente)",
              "href": "https://api.euskadi.eus/procurements/companies/economic-activities/1.859"
            }
          }
        }
      ],
      "certificateStartDate": "2026-01-15",
      "certificateEndDate": "2026-06-30",
      "object": "LA COMPRA, VENTA, IMPORTACIÓN Y EXPORTACIÓN, FABRICACIÓN, COMERCIALIZACIÓN, REPRESENTACIÓN Y DISTRIBUCIÓN DE PRODUCTOS, EQUIPAMIENTO Y MATERIAL DE USO MÉDICO Y VETERINARIO",
      "mainEntityOfPage": "https://www.contratacion.euskadi.eus/webkpe00-kperoc/es/ac71aBusquedaRegistrosWar/empresa/04720",
      "_links": {
        "self": {
          "name": "FUJIFILM SONOSITE IBÉRICA, S.L.",
          "href": "https://api.euskadi.eus/procurements/companies/04720"
        }
      }
    },
    {
      "name": "COMERCIAL AIBAK TRS, S.L.",
      "registrationNumber": "05083",
      "identificationNumber": "B82176983",
      "address": "Txalaka, nº 7",
      "location": {
        "postalCode": "20115",
        "municipality": "Astigarraga",
        "county": "Gipuzkoa",
        "municipalityId": "903",
        "countyId": "20"
      },
      "economicActivities": [
        {
          "id": "1.423.9",
          "name": "Elaboración de otros productos alimenticios n.c.o.p",
          "_links": {
            "self": {
              "name": "Elaboración de otros productos alimenticios n.c.o.p",
              "href": "https://api.euskadi.eus/procurements/companies/economic-activities/1.423.9"
            }
          }
        },
        {
          "id": "1.677.9",
          "name": "Otros servicios de alimentación propios de la restauración",
          "_links": {
            "self": {
              "name": "Otros servicios de alimentación propios de la restauración",
              "href": "https://api.euskadi.eus/procurements/companies/economic-activities/1.677.9"
            }
          }
        },
        {
          "id": "1.922",
          "name": "Servicios de limpieza",
          "_links": {
            "self": {
              "name": "Servicios de limpieza",
              "href": "https://api.euskadi.eus/procurements/companies/economic-activities/1.922"
            }
          }
        }
      ],
      "certificateStartDate": "2026-01-15",
      "certificateEndDate": "2026-06-22",
      "object": "LA PRESTACIÓN DE SERVICIOS DE ASESORAMIENTO, DISEÑO, INSTALACIÓN Y EXPLOTACIÓN DE TODO TIPO DE NEGOCIOS DE HOSTELERÍA, CAFETERÍAS, RESTAURANTES, HOTELES, COCINA INDUSTRIAL PARA COLECTIVIDADES, INCLUIDOS EL SUMINISTRO DE TODO TIPO DE PRODUCTOS RELACIONADOS CON LAS ACTIVIDADES DESCRITAS INCLUSO MATERIAS PRIMAS Y SERVICIOS DE MANTENIMIENTO Y LIMPIEZA DE TODO TIPO DE INSTALACIONES RELACIONADAS CON EL OBJETO SOCIAL",
      "mainEntityOfPage": "https://www.contratacion.euskadi.eus/webkpe00-kperoc/es/ac71aBusquedaRegistrosWar/empresa/05083",
      "_links": {
        "self": {
          "name": "COMERCIAL AIBAK TRS, S.L.",
          "href": "https://api.euskadi.eus/procurements/companies/05083"
        }
      }
    },
    {
      "name": "TCS SUMINISTROS Y EQUIPAMIENTO, S.L.",
      "registrationNumber": "07679",
      "identificationNumber": "B71098297",
      "address": "C/LOS CAMPOS, S/N",
      "location": {
        "postalCode": "31014",
        "municipality": "Pamplona/Iruña",
        "county": "Navarra",
        "municipalityId": "201",
        "countyId": "31"
      },
      "economicActivities": [
        {
          "id": "1.619.1",
          "name": "Venta al por mayor de juguetes y artículos de deporte",
          "_links": {
            "self": {
              "name": "Venta al por mayor de juguetes y artículos de deporte",
              "href": "https://api.euskadi.eus/procurements/companies/economic-activities/1.619.1"
            }
          }
        }
      ],
      "certificateStartDate": "2026-01-15",
      "certificateEndDate": "2026-07-01",
      "object": "LA DISTRIBUCION AL POR MAYOR Y MENOR DE EQUIPOS DE SEGURIDAD, MATERIAL POLICIAL, MILITAR Y DE OCIO Y LA IMPORTACION Y EXPORTACION DE MATERIALES RELACIONADOS",
      "mainEntityOfPage": "https://www.contratacion.euskadi.eus/webkpe00-kperoc/es/ac71aBusquedaRegistrosWar/empresa/07679",
      "_links": {
        "self": {
          "name": "TCS SUMINISTROS Y EQUIPAMIENTO, S.L.",
          "href": "https://api.euskadi.eus/procurements/companies/07679"
        }
      }
    },
    {
      "name": "ARQUITECTURA, RESTAURACION, CONSERVACION DE PATRIMONIO HISTORICO, S.L.",
      "registrationNumber": "08588",
      "identificationNumber": "B86607157",
      "address": "Avda. Francisco Javier Sauquillo, 26 3ºB",
      "location": {
        "postalCode": "28944",
        "municipality": "Fuenlabrada",
        "county": "Madrid",
        "municipalityId": "058",
        "countyId": "28"
      },
      "economicActivities": [
        {
          "id": "1.501.1",
          "name": "Construcción completa, reparación y conservación de edificaciones",
          "_links": {
            "self": {
              "name": "Construcción completa, reparación y conservación de edificaciones",
              "href": "https://api.euskadi.eus/procurements/companies/economic-activities/1.501.1"
            }
          }
        }
      ],
      "certificateStartDate": "2026-01-15",
      "certificateEndDate": "2026-06-10",
      "object": "A.- LA COMPRAVENTA DE SOLARES, FINCAS RÚSTICAS O URBANAS, PISOS, APARTAMENTOS E INMUEBLES EN GENERAL. B.- CONSTRUCCIÓN COMPLETA, REPARACIÓN Y CONSERVACIÓN DE EDIFICACIONES Y DE OBRAS CIVILES, URBANIZACIÓN DE TERRENOS, PROMOCIÓN Y CONSTRUCCIÓN DE EDIFICIOS PARA SÍ O PARA TERCEROS. C.- CONSOLIDACIÓN Y PREPARACIÓN DE TERRENOS PARA LA REALIZACIÓN DE OBRAS CIVILES Y EDIFICACIONES, INCLUIDOS SISTEMAS DE AGOTAMIENTO Y DRAGADOS. CIMENTACIONES Y PAVIMENTACIONES, PREPARACIÓN Y MONTAJE DE ESTRUCTURAS Y CUBIERTAS Y CUBRICIONES. D.- LA REALIZACIÓN, BIEN POR CONTRATACIÓN DIRECTA O INDIRECTA, POR CUENTA PROPIA O AJENA, DE TODA CLASE DE OBRAS PÚBLICAS Y PRIVADAS Y SU EJECUCIÓN PARA TERCEROS. E.- LA EXPLOTACIÓN DIRECTA O INDIRECTA INCLUSO BAJO LA FÓRMULA DE ARRENDAMIENTO DE FINCAS RÚSTICAS, AGRÍCOLAS, FORESTALES Y GANADERAS, EDIFICIOS Y OTRAS FINCAS URBANAS, HOTELES, MOTELES, CINES, TEATROS, SALAS DE FIESTA, CAFETERÍAS, BARES, RESTAURANTES Y EN GENERAL EL NEGOCIO DE HOSTELERÍA, ESPECTÁCULOS, PISCINAS Y SIMILARES. G.- LA COMPRAVENTA AL POR MAYOR Y POR MENOR Y LA FABRICACIÓN DE TODA CLASE DE ARTÍCULOS, MAQUINARIAS, HERRAMIENTAS, MUEBLES Y OBJETOS RELACIONADOS CON LA CONSTRUCCIÓN. H. LA REPRESENTACIÓN DE CASAS NACIONALES Y EXTRANJERAS, LA EXPLOTACIÓN DE PATENTES Y MARCAS, Y LA INTERVENCIÓN EN OTRAS SOCIEDADES MEDIANTE LA SUSCRIPCIÓN Y COMPRAVENTA DE ACCIONES DE LAS MISMAS. I.- LA PROMOCIÓN, ADQUISICIÓN Y ENAJENACIÓN, POR CUALQUIER TÍTULO DE TERRENOS, EDIFICIOS Y FINCAS EN GENERAL; LA URBANIZACIÓN, CONSTRUCCIÓN Y REHABILITACIÓN, COMPRAVENTA, ADMINISTRACIÓN Y EXPLOTACIÓN, ALQUILER Y ARRENDAMIENTO, EXCEPTUANDO EL ARRENDAMIENTO FINANCIERO, DE LOS MISMOS, YA SEAN EN SU TOTALIDAD, YA POR PISOS O PARTES, BIEN POR CUENTA PROPIA O AJENA.",
      "mainEntityOfPage": "https://www.contratacion.euskadi.eus/webkpe00-kperoc/es/ac71aBusquedaRegistrosWar/empresa/08588",
      "_links": {
        "self": {
          "name": "ARQUITECTURA, RESTAURACION, CONSERVACION DE PATRIMONIO HISTORICO, S.L.",
          "href": "https://api.euskadi.eus/procurements/companies/08588"
        }
      }
    },
    {
      "name": "HERRIBUS, S.A.",
      "registrationNumber": "03990",
      "identificationNumber": "A20215414",
      "address": "AVDA. NAVARRA, Nº 75",
      "location": {
        "postalCode": "20100",
        "municipality": "Errenteria",
        "county": "Gipuzkoa",
        "municipalityId": "067",
        "countyId": "20"
      },
      "economicActivities": [
        {
          "id": "1.721.3",
          "name": "Transporte de viajeros por carretera",
          "_links": {
            "self": {
              "name": "Transporte de viajeros por carretera",
              "href": "https://api.euskadi.eus/procurements/companies/economic-activities/1.721.3"
            }
          }
        }
      ],
      "certificateStartDate": "2026-01-15",
      "certificateEndDate": "2026-06-23",
      "classification": [
        {
          "id": "S",
          "name": "Servicios",
          "groups": [
            {
              "id": "R",
              "subgroups": [
                {
                  "id": "01",
                  "name": "Transporte de viajeros por carretera",
                  "categories": [
                    {
                      "id": "5",
                      "name": "Mas de 1.200.000",
                      "_links": {
                        "self": {
                          "name": "Mas de 1.200.000",
                          "href": "https://api.euskadi.eus/procurements/companies/types/S/categories/5"
                        }
                      }
                    }
                  ],
                  "_links": {
                    "self": {
                      "name": "Transporte de viajeros por carretera",
                      "href": "https://api.euskadi.eus/procurements/companies/types/S/groups/R/subgroups/01"
                    }
                  }
                }
              ],
              "_links": {
                "self": {
                  "href": "https://api.euskadi.eus/procurements/companies/types/S/groups/R"
                }
              }
            }
          ],
          "_links": {
            "self": {
              "name": "Servicios",
              "href": "https://api.euskadi.eus/procurements/companies/types/S"
            }
          }
        }
      ],
      "object": "EL TRANSPORTE POR CARRETERA EN TODAS LAS MODALIDADES, YA SEA POR MEDIO DE AUTOBUSES O POR CUALQUIER OTRO MEDIO ASÍ COMO EL TRANSPORTE DE MERCANCÍAS O MERCADERÍAS. ADQUISICIÓN Y TRANSMISIÓN DE CONCESIONES DE TRANSPORTE.",
      "mainEntityOfPage": "https://www.contratacion.euskadi.eus/webkpe00-kperoc/es/ac71aBusquedaRegistrosWar/empresa/03990",
      "_links": {
        "self": {
          "name": "HERRIBUS, S.A.",
          "href": "https://api.euskadi.eus/procurements/companies/03990"
        }
      }
    },
    {
      "name": "GREEN KW, S.L.",
      "registrationNumber": "09079",
      "identificationNumber": "B95895157",
      "address": "CTRA BILBAO GALDAKAO 6A 1G",
      "location": {
        "postalCode": "48004",
        "municipality": "Bilbao",
        "county": "Bizkaia",
        "municipalityId": "020",
        "countyId": "48"
      },
      "economicActivities": [
        {
          "id": "1.504.11",
          "name": "Instalaciones eléctricas en general, redes telegráficas, telefonía, tv, etc",
          "_links": {
            "self": {
              "name": "Instalaciones eléctricas en general, redes telegráficas, telefonía, tv, etc",
              "href": "https://api.euskadi.eus/procurements/companies/economic-activities/1.504.11"
            }
          }
        },
        {
          "id": "1.631",
          "name": "Intermediarios del comercio",
          "_links": {
            "self": {
              "name": "Intermediarios del comercio",
              "href": "https://api.euskadi.eus/procurements/companies/economic-activities/1.631"
            }
          }
        }
      ],
      "certificateStartDate": "2026-01-15",
      "certificateEndDate": "2026-06-11",
      "object": "SERVICIOS DE EFICIENCIA ENERGETICA E INSTALACIONES DE ILUMINACIÓN. LA VENTA AL POR MAYOR Y AL POR MENOR, IMPORTACIÓN, EXPORTACIÓN E INSTALACION DE MATERIAL ELÉCTRICO Y PRODUCTOS DE ILUMINACIÓN. LA COMERCIALIZACIÓN Y DISTRIBUCIÓN DE TODO TIPO DE PRODUCTOS ENERGÉTICOS, AGUA, GAS Y ELECTRICIDAD. LA COMPRAVENTA Y ARRENDAMIENTO DE TODO TIPO DE INMUEBLES. LA FABRICACIÓN, IMPORTACIÓN, EXPORTACIÓN, LA INTERMEDIACIÓN Y EL COMERCIO AL POR MAYOR Y MENOR DE MÁQUINAS Y MATERIAL RELACIONADO CON ORDENADORES Y PROGRAMAS PARA LOS MISMOS, APARATOS ELÉCTRICOS Y ELECTRÓNICOS, TELEFONÍA MÓVIL Y FIJA, MÁQUINAS DE OFICINA, DESARROLLO DE PROGRAMAS, ASESORAMIENTO TÉCNICO E INFORMÁTICO, SERVICIOS DE TELEFONÍA MÓVIL Y FIJA Y SU ACTUACIÓN COMO OPERADOR DE REDES, REPARACIÓN DE MÁQUINAS DE OFICINA, PROGRAMACIÓN DE AUTÓMATAS Y CONTROL INDUSTRIAL. PROCESO DE DATOS. SERVICIOS DE SECRETARÍA Y TRADUCCIONES. CURSILLOS Y SERVICIOS DE ENSEÑANZA DE TODO TI`PO. ATENCIÓN TELEFÓNICA PARA CLIENTES. LA IMPORTACIÓN, EXPORTACIÓN, COMPRAVENTA, FABRICACIÓN, DISEÑO, INTERMEDIACIÓN Y COMERCIALIZACIÓN DE TODO TIPO DE PRODUCTOS PARA LA INDUSTRIA CERÁMICA, MOLDES, TROQUELES Y SUS DERIVADOS. PRODUCCIÓN, EXHIBICIÓN, EDICIÓN, IMPORTACIÓN, EXPORTACIÓN, DISTRIBUCIÓN, COMPRAVENTA Y ALQUILER DE TODO TIPO DE PRODUCTOS CINEMATOGRÁFICOS, MUSICALES, AUDIOVISUALES Y LIBROS Y OTRAS PUBLICACIONES EN SOPORTE PAPEL, ELECTRÓNICO, AUDIO O VIDEO, ECUADERNACIONES, COMPOSICIÓN Y FOTOGRABADO. PARTICIPACIÓN EN TODO TIPO DE MUESTRAS, FDESTIVALES, FERIAS, CERTÁMENES Y OTROS RELACIONADOS CON CUALQUIER INDUSTRIA O ACTIVIDAD ARTÍSTICA Y DE COMUNICACIÓN. REPRESENTACIÓN DE PROFESIONALES Y ARTISTAS. AGENCIA DE PUBLICIDAD Y RELACIONES PÚBLICAS. DISEÑO, CONSTRUCCIÓN, MANTENIMIENTO Y EXPLOTACIÓN DE INSTALACIONES DEPORTIVAS. FORMACIÓN ENM LOS CAMPOS ARTÍSTICOS Y DEPORTIVOS. IMPORTACIÓN, EXPORTACIÓN, COMPRAVENTA E INTERMEDIACIÓN DE OBRAS DE ARTE ASÍ COMO LA EXPLOTACIÓN DE GALERÍAS DE ARTE DE TODO TIPO. DISEÑO, CONSTRUCCIÓN Y EXPLOTACIÓN DE PARQUES PRODUCTORES DE ENERGÍA EN TODAS SUS VARIANTES CONTEMPLADAS POR LA LEGISLACIÓN. INTERMEDIACIÓN EN LA REDACCIÓN DE PROYECTOS DE ARQUITECTURA, INGENIERÍA Y URBANISMO, ASÍ COMO LA INTERMEDIACIÓN EN EL ASESORAMIENTO DE EMPRESAS Y PERSONAS FÍSICAS EN SU MÁS AMPLIA ACEPCIÓN, TASACIONES, PERITACIONES, ACTIVIDADES VETERINARIAS, CENTROS SANITARIOS Y DE ANÁLISIS Y DE RECONOCIMIENTOS MÉDICOS. TODO LO ANTERIOR A TRAVÉS DE LOS OPORTUNOS PROFESIONALES QUE EN CADA CASO PROCEDA. LA REALIZACIÓN DE ACTIVIDADES DE INTERNET, ASÍ COMO EL SUMINISTRO DE SERVICIOS DE INFORMACIÓN Y FORMACIÓN. LA FABRICACIÓN, COMPRAVENTA, INTERMEDIACIÓN Y EXPLOTACIÓN, POR CUENTA PROPIA O AJENA DE MÁQUINAS EXPENDEDORAS. LA FABRICACIÓN, IMPORTACIÓN, EXPORTACIÓN, COMPRAVENTA, COMERCIO AL POR MENOR Y MAYOR, ASÍ COMO LA DISTRIBUCIÓN, INTERMEDIACIÓN Y SERVICIOS RELACIONADOS CON LOS ARTÍCULOS SANITARIOS, HIGIÉNICOS, DE LIMPIEZA, DE BELLEZA, DE PELUQUERÍA, DE ESTÉTICA, DE HOGAR, DE REGALO, JUGUETES, INSTRUMENTOS MUSICALES, DECORACIÓN, ELECTRODOMÉSTICOS, MOBILIARIO, PORCELANA, CRISTALERÍA, JOYERÍA, BISUTERÍA, ÓPTICA, EQUIPOS FOTOGRÁFICOS, FLORES, PLANTAS Y ARTÍCULOS DE DEPORTE. RECLAMOS PUBLICITARIOS DE TODO TIPO, ASÍ COMO LOS SERVICIOS RELACIONADOS CON LA PUBLICIDAD Y PROMOCIÓN EMPRESARIAL. MANTENIMIENTO Y LIMPIEZA DE VIVIENDAS, JARDINES Y ANEXOS, LOCALES COMERCIALES Y OTROS BIENES INMUEBLES. SERVICIOS DE GUARDAMUEBLES Y DEPÓSITO Y ALMACENAMIENTO DE MERCANCÍAS. IMPORTACIÓN, EXPORTACIÓN, DISEÑO, FABRICACIÓN, INTERMEDIACIÓN Y COMERCIALIZACIÓN AL POR MENOR Y MAYOR DE TODO TIPO DE ARTÍCULOS TEXTILES Y COMPLEMENTOS PARA LA MODA DE SEÑORA Y CABALLERO. ASESORAMIENTO COMERCIAL Y CAPTACIÓN DE CLIENTES PARA EMPRESAS DIVERSAS. LA REALIZACIÓN DE OBRAS, REFORMAS E INSTALACIONES EN DOMICILIOS Y EMPRESAS COORDINANDO LOS DISTINTOS GREMIOS DEL SECTOR DE LA CONSTRUCCIÓN. LA COMPRAVENTA DE PRODUCTOS DE JOYERÍA, RELOJERÍA Y ELECTRODOMÉSTICOS EN ESTABLECIMIENTO. LA COMPRAVENTA DE PRODUCTOS DE JOYERÍA, RELOJERÍA Y ELECTRODOMÉSTICOS EN ESTABLECIMIENTO. LA COMPRAVENTA, INTERMEDIACIÓN Y EXPLOTACIÓN DE MÁQUINAS DE JUEGO. LA COMPRAVENTA DE VEHÍCULOS.\n",
      "mainEntityOfPage": "https://www.contratacion.euskadi.eus/webkpe00-kperoc/es/ac71aBusquedaRegistrosWar/empresa/09079",
      "_links": {
        "self": {
          "name": "GREEN KW, S.L.",
          "href": "https://api.euskadi.eus/procurements/companies/09079"
        }
      }
    },
    {
      "name": "ARAUDI SOCIEDAD LIMITADA PROFESIONAL",
      "registrationNumber": "05990",
      "identificationNumber": "B20448833",
      "address": "PORTUETXE, 45B- PISO 2 - OFICINA 9",
      "location": {
        "postalCode": "20018",
        "municipality": "Donostia / San Sebastián",
        "county": "Gipuzkoa",
        "municipalityId": "069",
        "countyId": "20"
      },
      "economicActivities": [
        {
          "id": "1.841",
          "name": "Servicios jurídicos",
          "_links": {
            "self": {
              "name": "Servicios jurídicos",
              "href": "https://api.euskadi.eus/procurements/companies/economic-activities/1.841"
            }
          }
        },
        {
          "id": "1.843.9",
          "name": "Otros servicios técnicos n.c.o.p",
          "_links": {
            "self": {
              "name": "Otros servicios técnicos n.c.o.p",
              "href": "https://api.euskadi.eus/procurements/companies/economic-activities/1.843.9"
            }
          }
        }
      ],
      "certificateStartDate": "2026-01-15",
      "certificateEndDate": "2026-06-23",
      "object": "EJERCICIO DE LA ABOGACÍA. ASESORÍA JURÍDICA, URBANÍSTICA, PAISAJÍSTICA Y MEDIOAMBIENTAL",
      "mainEntityOfPage": "https://www.contratacion.euskadi.eus/webkpe00-kperoc/es/ac71aBusquedaRegistrosWar/empresa/05990",
      "_links": {
        "self": {
          "name": "ARAUDI SOCIEDAD LIMITADA PROFESIONAL",
          "href": "https://api.euskadi.eus/procurements/companies/05990"
        }
      }
    },
    {
      "name": "CRG GUIA DE BARRANCOS SL",
      "registrationNumber": "08294",
      "identificationNumber": "B95961769",
      "address": "C/ZEHARKALEA, 8-8ºIZQ",
      "location": {
        "postalCode": "48260",
        "municipality": "Ermua",
        "county": "Bizkaia",
        "municipalityId": "034",
        "countyId": "48"
      },
      "economicActivities": [
        {
          "id": "1.856.1",
          "name": "Alquiler de bienes de consumo",
          "_links": {
            "self": {
              "name": "Alquiler de bienes de consumo",
              "href": "https://api.euskadi.eus/procurements/companies/economic-activities/1.856.1"
            }
          }
        },
        {
          "id": "1.967.2",
          "name": "Escuelas y servicios de perfeccionamiento del deporte",
          "_links": {
            "self": {
              "name": "Escuelas y servicios de perfeccionamiento del deporte",
              "href": "https://api.euskadi.eus/procurements/companies/economic-activities/1.967.2"
            }
          }
        }
      ],
      "certificateStartDate": "2026-01-15",
      "certificateEndDate": "2026-07-15",
      "object": "REALIZACIÓN DE SERVICIOS DE TURISMO ACTIVO TALES COMO ACTIVIDADES TURÍSTICAS DE RECREO, DEPORTIVAS Y DE AVENTURA. SERVICIOS DE VIAJE COMBINADO QUE INCLUYEN SERVICIOS DE TURISMO ACTIVO ASÍ COMO ALOJAMIENTO Y DESPLAZAMIENTO.",
      "mainEntityOfPage": "https://www.contratacion.euskadi.eus/webkpe00-kperoc/es/ac71aBusquedaRegistrosWar/empresa/08294",
      "_links": {
        "self": {
          "name": "CRG GUIA DE BARRANCOS SL",
          "href": "https://api.euskadi.eus/procurements/companies/08294"
        }
      }
    }
  ]
}