{
  "totalItems": 9042,
  "totalPages": 905,
  "currentPage": 366,
  "itemsOfPage": 10,
  "items": [
    {
      "name": "NINONA PRODUCCIONES & MANAGEMENT, S.L.",
      "registrationNumber": "10087",
      "identificationNumber": "B73976193",
      "address": "Calle Plateria 44 Entlo B Plaza Joufre",
      "location": {
        "postalCode": "30001",
        "municipality": "Murcia",
        "county": "Murcia",
        "municipalityId": "030",
        "countyId": "30"
      },
      "economicActivities": [
        {
          "id": "1.965.4",
          "name": "Empresas de espectáculos",
          "_links": {
            "self": {
              "name": "Empresas de espectáculos",
              "href": "https://api.euskadi.eus/procurements/companies/economic-activities/1.965.4"
            }
          }
        },
        {
          "id": "1.983",
          "name": "Agencias de colocación de artistas",
          "_links": {
            "self": {
              "name": "Agencias de colocación de artistas",
              "href": "https://api.euskadi.eus/procurements/companies/economic-activities/1.983"
            }
          }
        }
      ],
      "certificateStartDate": "2025-03-14",
      "certificateEndDate": "2025-09-14",
      "object": "- LA REPRESENTACIÓN DE TODO TIPO DE ARTISTAS EN EJERCICIO Y DESARROLLO DE SUS ACTIVIDADES EN CUALQUIER TIPO DE MEDIO AUDIOVISUAL, CINEMATOGRÁFICO, TEATRAL, CIRCENSE, DEPORTIVO O CUALQUIER TIPO DE ESPECTÁCULO. - PROMOCIÓN, ORGANIZACIÓN, PRODUCCIÓN Y CELEBRACIÓN DE TODA CLASE DE ESPECTÁCULOS Y EVENTOS CULTURALES, ARTÍSTICOS, MUSICALES Y DE ARTES ESCÉNICAS EN GENERAL, CONCIERTOS Y GIRAS, YA SEAN EN SALAS O LOCALES O AL AIRE LIBRE.",
      "mainEntityOfPage": "https://www.contratacion.euskadi.eus/webkpe00-kperoc/es/ac71aBusquedaRegistrosWar/empresa/10087",
      "_links": {
        "self": {
          "name": "NINONA PRODUCCIONES & MANAGEMENT, S.L.",
          "href": "https://api.euskadi.eus/procurements/companies/10087"
        }
      }
    },
    {
      "name": "JOSE LUIS SAENZ MATA",
      "registrationNumber": "10084",
      "identificationNumber": "15364906D",
      "address": "ZUBIAURRE 46 1º",
      "location": {
        "postalCode": "48260",
        "municipality": "Ermua",
        "county": "Bizkaia",
        "municipalityId": "034",
        "countyId": "48"
      },
      "economicActivities": [
        {
          "id": "1.474",
          "name": "Artes gráficas (impresión gráfica)",
          "_links": {
            "self": {
              "name": "Artes gráficas (impresión gráfica)",
              "href": "https://api.euskadi.eus/procurements/companies/economic-activities/1.474"
            }
          }
        },
        {
          "id": "1.861.2",
          "name": "Alquiler de locales industriales y otros alquileres n.c.o.p",
          "_links": {
            "self": {
              "name": "Alquiler de locales industriales y otros alquileres n.c.o.p",
              "href": "https://api.euskadi.eus/procurements/companies/economic-activities/1.861.2"
            }
          }
        }
      ],
      "certificateStartDate": "2025-03-12",
      "certificateEndDate": "2025-09-12",
      "object": "ARTES GRÁFICAS (IMPRESIÓN GRÁFICA). ALQUILER DE LOCALES INDUSTRIALES Y OTROS ALQUILERES N.C.O.P.",
      "mainEntityOfPage": "https://www.contratacion.euskadi.eus/webkpe00-kperoc/es/ac71aBusquedaRegistrosWar/empresa/10084",
      "_links": {
        "self": {
          "name": "JOSE LUIS SAENZ MATA",
          "href": "https://api.euskadi.eus/procurements/companies/10084"
        }
      }
    },
    {
      "name": "JOAKIN ARANA LORAMENDI KULTUR ELKARTEA",
      "registrationNumber": "09800",
      "identificationNumber": "G20480950",
      "address": "Durana Kalea, 11 (20550)",
      "location": {
        "postalCode": "20550",
        "municipality": "Aretxabaleta",
        "county": "Gipuzkoa",
        "municipalityId": "013",
        "countyId": "20"
      },
      "economicActivities": [
        {
          "id": "1.966.9",
          "name": "Otros servicios culturales n.c.o.p",
          "_links": {
            "self": {
              "name": "Otros servicios culturales n.c.o.p",
              "href": "https://api.euskadi.eus/procurements/companies/economic-activities/1.966.9"
            }
          }
        }
      ],
      "certificateStartDate": "2025-03-11",
      "certificateEndDate": "2025-08-26",
      "object": "ARETXABALETAN EUSKARAREN NORMALIZAZIOA ETA EUSKAL KULTURA INDARTZEA. HELBURU HORIEK LORTZEKO, JARDUERA HAUEK EGINGO DIRA, EZARRITAKO LEGEZKO BETEKIZUNAK BETE ONDOREN: AIPATUTAKO HELBURUAK LORTU EDO HORIEK GARATZEKO BALIABIDEAK LORTZERA BIDERATUTA DAUDEN HEINEAN JARDUERA EKONOMIKOAK BURUTU AHAL IZATEKO. IZAERA GUZTIETAKO ONDASUNAK ESKURATU ETA EDUKITZEKO ETA MOTA GUZTIETAKO EKINTZA ETA HITZARMENAK BURUTZEKO. ESTATUTU EDO LEGEEKIN BAT DATOZEN ERA GUZTIETAKO EKINTZAK GAUZATZEKO. AURREKO IDATZ-ZATIAN AZALDUTAKO JARDUERAK GORABEHERA, ELKARTEAK, BERE XEDEAK BETETZEKO, HONAKO HAUEK EGIN AHALKO DITU: HELBURUAK BETETZEKO EDO HORRETARAKO BALIABIDEAK BILTZEKO ERA GUZTIETAKO JARDUERA EKONOMIKOAK GAUZATU. ERA GUZTIETAKO ONDASUNAK EDOZEIN TITULUREN BIDEZ ESKURATU ETA EDUKI, ETA MOTA GUZTIETAKO EGINTZAK ETA KONTRATUAK EGIN. NOLANAHIKO EKINTZAK BURUTU, BETIERE LEGEEKIN ETA ESTATUTUEKIN BAT ETORTZEKOTAN.",
      "mainEntityOfPage": "https://www.contratacion.euskadi.eus/webkpe00-kperoc/es/ac71aBusquedaRegistrosWar/empresa/09800",
      "_links": {
        "self": {
          "name": "JOAKIN ARANA LORAMENDI KULTUR ELKARTEA",
          "href": "https://api.euskadi.eus/procurements/companies/09800"
        }
      }
    },
    {
      "name": "CONSULTING DE ENERGIAS RENOVABLES SIGLO XXI, S.L.",
      "registrationNumber": "10082",
      "identificationNumber": "B06583751",
      "address": "Calle Legaz 5, bajo",
      "location": {
        "postalCode": "30850",
        "municipality": "Totana",
        "county": "Murcia",
        "municipalityId": "039",
        "countyId": "30"
      },
      "economicActivities": [
        {
          "id": "1.501.1",
          "name": "Construcción completa, reparación y conservación de edificaciones",
          "_links": {
            "self": {
              "name": "Construcción completa, reparación y conservación de edificaciones",
              "href": "https://api.euskadi.eus/procurements/companies/economic-activities/1.501.1"
            }
          }
        },
        {
          "id": "1.504.3",
          "name": "Instalaciones de frío, calor y acondicionamiento de aire",
          "_links": {
            "self": {
              "name": "Instalaciones de frío, calor y acondicionamiento de aire",
              "href": "https://api.euskadi.eus/procurements/companies/economic-activities/1.504.3"
            }
          }
        },
        {
          "id": "1.843.9",
          "name": "Otros servicios técnicos n.c.o.p",
          "_links": {
            "self": {
              "name": "Otros servicios técnicos n.c.o.p",
              "href": "https://api.euskadi.eus/procurements/companies/economic-activities/1.843.9"
            }
          }
        }
      ],
      "certificateStartDate": "2025-03-11",
      "certificateEndDate": "2025-09-11",
      "object": "- MANTENIMIENTO DE INSTALACIONES DE ENERGÍAS RENOVABLES. - CONSULTORÍA Y PLANIFICACIÓN DE PROYECTOS DE ENERGÍAS RENOVABLES. - LA INTERMEDIACIÓN EN OPERACIONES DE PROYECTOS DE ENERGÍAS RENOVABLES. - PRODUCCIÓN Y VENTA DE ENERGÍA Y VENTA DE ENERGÍA ELÉCTRICA MEDIANTE INSTALACIONES ABASTECIDAS POR RECURSOS O FUENTES DE ENERGÍA RENOVABLES NO CONSUMIBLES, UTILIZANDO COMO ENERGÍA PRIMARIA LA SOLAR, EÓLICA, BIOMASA O CUALQUIER TIPO DE BIOCARBURANTE. - LA PROMOCIÓN Y LA CONSTRUCCIÓN DE INSTALACIONES DE ENERGÍA RENOVABLE PARA SU EXPLOTACIÓN DIRECTA, VENTA O CESIÓN A TERCEROS POR CUALQUIER TÍTULO. - TRATAMIENTO, DEPURACIÓN Y MANTENIMIENTO DE AGUAS. - RECICLADO DE RESIDUOS POR CUALQUIER PROCEDIMIENTO O SISTEMA. - EJECUCIÓN, MANTENIMIENTO Y EXPLOTACIÓN DE INSTALACIONES INDUSTRIALES Y DE BAJA TENSIÓN. - SERVICIOS PROPIOS DE EMPRESAS DE SERVICIOS ENERGÉTICOS Y AUDITORÍAS ENERGÉTICAS.",
      "mainEntityOfPage": "https://www.contratacion.euskadi.eus/webkpe00-kperoc/es/ac71aBusquedaRegistrosWar/empresa/10082",
      "_links": {
        "self": {
          "name": "CONSULTING DE ENERGIAS RENOVABLES SIGLO XXI, S.L.",
          "href": "https://api.euskadi.eus/procurements/companies/10082"
        }
      }
    },
    {
      "name": "ADDIXIS CONSULTING, S.L.",
      "registrationNumber": "06697",
      "identificationNumber": "B84198134",
      "address": "CALLE ALFONSO XII, 8",
      "location": {
        "postalCode": "28014",
        "municipality": "Madrid",
        "county": "Madrid",
        "municipalityId": "079",
        "countyId": "28"
      },
      "economicActivities": [
        {
          "id": "1.849.9",
          "name": "Otros servicios independientes n.c.o.p",
          "_links": {
            "self": {
              "name": "Otros servicios independientes n.c.o.p",
              "href": "https://api.euskadi.eus/procurements/companies/economic-activities/1.849.9"
            }
          }
        }
      ],
      "certificateStartDate": "2025-03-11",
      "certificateEndDate": "2025-09-11",
      "object": "-LA CONSULTORÍA EN MATERIAL DE SEGURIDAD VIAL Y TODOS LOS ASPECTOS RELACIONADOS CON EL MUNDO DEL AUTOMÓVIL, ASÍ COMO LA FORMACIÓN O LA INTERMEDIACIÓN PARA LA FORMACIÓN EN DICHO ÁMBITO. -LA COMERCIALIZACIÓN AL POR MAYOR Y AL POR MENOR DE LOS PRODUCTOS RELACIONADOS CON LA ACTIVIDAD ANTES DESCRITA. - LA ORGANIZACIÓN DE EVENTOS RELACIONADOS CON ESTA ACTIVIDAD",
      "mainEntityOfPage": "https://www.contratacion.euskadi.eus/webkpe00-kperoc/es/ac71aBusquedaRegistrosWar/empresa/06697",
      "_links": {
        "self": {
          "name": "ADDIXIS CONSULTING, S.L.",
          "href": "https://api.euskadi.eus/procurements/companies/06697"
        }
      }
    },
    {
      "name": "BIKO KOMUNIKAZIOA KOOP. ELK. TXIKIA",
      "registrationNumber": "10079",
      "identificationNumber": "F95599734",
      "address": "jose antonio agirre lehendakaria 10",
      "location": {
        "postalCode": "48200",
        "municipality": "Durango",
        "county": "Bizkaia",
        "municipalityId": "027",
        "countyId": "48"
      },
      "economicActivities": [
        {
          "id": "1.843.9",
          "name": "Otros servicios técnicos n.c.o.p",
          "_links": {
            "self": {
              "name": "Otros servicios técnicos n.c.o.p",
              "href": "https://api.euskadi.eus/procurements/companies/economic-activities/1.843.9"
            }
          }
        }
      ],
      "certificateStartDate": "2025-03-11",
      "certificateEndDate": "2025-09-10",
      "object": "LA PRESTACIÓN DE SERVICIOS DE AGENCIA DE PUBLICIDAD, IMAGEN CORPORATIVA, CAMPAÑAS DE COMUNICACIÓN, ESTUDIO DE DISEÑO GRÁFICO, CONSULTORÍA DE MARKETING, CONTRATACIÓN DE MEDIOS DE COMUNICACIÓN, DISEÑO WEB Y MULTIMEDIA, ORGANIZACIÓN DE EVENTOS, FOTOGRAFÍA, CREATIVIDAD ARTÍSTICA INDUSTRIAL Y PUBLICITARIA, ORGANIZACIÓN, COMPRA O VENTA DE TODO OBJETO PUBLICITARIO, PLANIFICACIÓN DE MEDIOS, AGENCIA DE CONTENIDOS ON LINE Y OFF LINE, ACCIONES DE COMMUNITY MANAGER Y ADMINISTRADOR DE REDES SOCIALES.",
      "mainEntityOfPage": "https://www.contratacion.euskadi.eus/webkpe00-kperoc/es/ac71aBusquedaRegistrosWar/empresa/10079",
      "_links": {
        "self": {
          "name": "BIKO KOMUNIKAZIOA KOOP. ELK. TXIKIA",
          "href": "https://api.euskadi.eus/procurements/companies/10079"
        }
      }
    },
    {
      "name": "JACKELINE STEPHANY ZEGARRA TEJADA",
      "registrationNumber": "10072",
      "identificationNumber": "Y7996195Y",
      "address": "Barrio Zuatzaurre (48960) 12 4º iz",
      "location": {
        "postalCode": "48960",
        "municipality": "Galdakao",
        "county": "Bizkaia",
        "municipalityId": "036",
        "countyId": "48"
      },
      "economicActivities": [
        {
          "id": "2.763",
          "name": "Programadores y analistas de informática",
          "_links": {
            "self": {
              "name": "Programadores y analistas de informática",
              "href": "https://api.euskadi.eus/procurements/companies/economic-activities/2.763"
            }
          }
        }
      ],
      "certificateStartDate": "2025-03-10",
      "certificateEndDate": "2025-09-07",
      "object": "PROGRAMADORES Y ANALISTAS DE INFORMÁTICA.",
      "mainEntityOfPage": "https://www.contratacion.euskadi.eus/webkpe00-kperoc/es/ac71aBusquedaRegistrosWar/empresa/10072",
      "_links": {
        "self": {
          "name": "JACKELINE STEPHANY ZEGARRA TEJADA",
          "href": "https://api.euskadi.eus/procurements/companies/10072"
        }
      }
    },
    {
      "name": "AITOR VILLATE URIBE",
      "registrationNumber": "10071",
      "identificationNumber": "53980882C",
      "address": "Cantón Anorbin",
      "location": {
        "postalCode": "01001",
        "municipality": "Vitoria-Gasteiz",
        "county": "Araba/Álava",
        "municipalityId": "059",
        "countyId": "01"
      },
      "economicActivities": [
        {
          "id": "2.826",
          "name": "Personal docente de enseñanzas diversas",
          "_links": {
            "self": {
              "name": "Personal docente de enseñanzas diversas",
              "href": "https://api.euskadi.eus/procurements/companies/economic-activities/2.826"
            }
          }
        }
      ],
      "certificateStartDate": "2025-03-10",
      "certificateEndDate": "2025-09-07",
      "object": "PERSONAL DOCENTE DE ENSEÑANZAS DIVERSAS.",
      "mainEntityOfPage": "https://www.contratacion.euskadi.eus/webkpe00-kperoc/es/ac71aBusquedaRegistrosWar/empresa/10071",
      "_links": {
        "self": {
          "name": "AITOR VILLATE URIBE",
          "href": "https://api.euskadi.eus/procurements/companies/10071"
        }
      }
    },
    {
      "name": "ESTÉVEZ CONDUCTOS SUBTERRÁNEOS, S.L.",
      "registrationNumber": "01957",
      "identificationNumber": "B32008179",
      "address": "C/PADULETA, 43",
      "location": {
        "postalCode": "01015",
        "municipality": "Vitoria-Gasteiz",
        "county": "Araba/Álava",
        "municipalityId": "059",
        "countyId": "01"
      },
      "economicActivities": [
        {
          "id": "1.252.1",
          "name": "Fabricación de abonos",
          "_links": {
            "self": {
              "name": "Fabricación de abonos",
              "href": "https://api.euskadi.eus/procurements/companies/economic-activities/1.252.1"
            }
          }
        },
        {
          "id": "1.507",
          "name": "Construcción, reparación y conservación de toda clase obras",
          "_links": {
            "self": {
              "name": "Construcción, reparación y conservación de toda clase obras",
              "href": "https://api.euskadi.eus/procurements/companies/economic-activities/1.507"
            }
          }
        },
        {
          "id": "1.612.2",
          "name": "Venta al por mayor de cereales",
          "_links": {
            "self": {
              "name": "Venta al por mayor de cereales",
              "href": "https://api.euskadi.eus/procurements/companies/economic-activities/1.612.2"
            }
          }
        },
        {
          "id": "1.617.4",
          "name": "Venta al por mayor de materiales de construcción, vidrio y artículos instalación",
          "_links": {
            "self": {
              "name": "Venta al por mayor de materiales de construcción, vidrio y artículos instalación",
              "href": "https://api.euskadi.eus/procurements/companies/economic-activities/1.617.4"
            }
          }
        },
        {
          "id": "1.911",
          "name": "Servicios agrícolas y ganaderos",
          "_links": {
            "self": {
              "name": "Servicios agrícolas y ganaderos",
              "href": "https://api.euskadi.eus/procurements/companies/economic-activities/1.911"
            }
          }
        }
      ],
      "certificateStartDate": "2025-03-07",
      "certificateEndDate": "2025-09-03",
      "object": "- LA INSTALACIÓN DE TODA CLASE DE CONDUCTOS SUBTERRÁNEOS, EL COMERCIO AL POR MAYOR Y MENOR DE MATERIALES DE CONSTRUCCIÓN, TODA CLASE DE OBRAS PÚBLICAS Y PRIVADAS Y LA PRESTACIÓN DE SERVICIOS RELACIONADOS CON LA CONSTRUCCIÓN. - LA PROMOCIÓN, ASESORAMIENTO, FINANCIACIÓN, GESTIÓN Y EJECUCIÓN DE TODA SUERTE DE PROYECTOS INMOBILIARIOS, DE URBANIZACIÓN DE MODIFICACIÓN Y DE CONSTRUCCIÓN EN GENERAL, ARRENDAMIENTO, ADQUISICIÓN Y ENAJENACIÓN TODA CLASE DE INMUEBLES Y FINCAS RÚSTICAS O URBANAS. - LA EXPLOTACIÓN Y MANTENIMIENTO DE SERVICIOS DE ABASTECIMIENTO DE AGUA POTABLE Y SANEAMIENTOS TANTO PÚBLICOS COMO PRIVADOS, ASÍ COMO MANTENIMIENTO GENERAL DE EDIFICIOS E INSTALACIONES DEPURADORAS DE AGUA POTABLE Y RESIDUAL. ASIMISMO, LA LECTURA DE CONTADORES, A EFECTOS DE DETERMINAR EL CONSUMO DE LOS SERVICIOS PRESTADOS POR LAS ADMINISTRACIONES PÚBLICAS. - LA EJECUCIÓN Y MANTENIMIENTO DE TODA CLASE DE OBRAS PÚBLICAS Y PRIVADAS. - LA REALIZACIÓN DE TODO TIPO DE OBRAS E INSTALACIONES. - ASIMISMO PODRÁ DESARROLLAR SERVICIOS COMO: * TODO TIPO DE TRANSPORTE Y DISTRIBUCIÓN EN SU MÁS AMPLIO SENTIDO INCLUSO RETIRADA DE RESIDUOS DE TODA ÍNDOLE.  * TODO TIPO DE SERVICIOS COMO LIMPIEZA, DESRATIZACIÓN Y TRATAMIENTO DE TODO TIPO DE RESIDUOS, LECTURAS DE CONTADORES, SERVICIOS DE GESTIÓN DE COBROS Y CUALQUIER ACTIVIDAD RELACIONADA CON EL SECTOR DEL AGUA. - FABRICACIÓN Y VENTA DE TIERRA, SUSTRATOS Y ABONOS. - ACTIVIDADES DE APOYO A LA AGRICULTURA, SERVICIOS DE PREPARACIÓN, PLANTACIÓN Y MANTENIMIENTO DE JARDINES, PARQUES Y OTROS SERVICIOS AGRÍCOLAS. - CONTROL, MANTENIMIENTO Y TRATAMIENTO DE VERTEDEROS. - LIMPIEZAS VIARIAS E INDUSTRIALES, DE FOSAS SÉPTICAS Y SANEAMIENTOS. - TRANSPORTE DE RESIDUOS SÓLIDOS URBANOS, RESIDUOS INDUSTRIALES, ESCOMBROS, LODOS, MATERIALES RECICLABLES, RESIDUOS TÓXICOS Y MATERIALES VARIOS. - CONSTRUCCIÓN, GESTIÓN Y EXPLOTACIÓN DE TODO TIPO DE PLANTAS DE RECICLAJE, R.C.D., PAPEL, CARTÓN, PLÁSTICOS, MADERA, PLANTAS DE MACHAQUEO Y CANTERAS. - GESTIÓN DE AMIANTO, CONSISTENTE EN LA RETIRADA DE MATERIALES CON CONTENIDO DE AMIANTO (NO FRIABLE) TANTO TUBERÍAS DE FIBROCEMENTO, COMO OTRO TIPO DE MATERIALES QUE CONTENGAN FIBROCEMENTO, ALMACENAJE INTERMEDIO DE DICHOS RESIDUOS, FORMACIÓN EN MATERIA DE PREVENCIÓN DE RIESGOS LABORALES ACERCA DEL AMIANTO, ALQUILER DE CABINA DE DESCONTAMINACIÓN, REDACCIÓN DE PLANES DE DESAMIANTADO Y TRANSPORTE AUTORIZADO PARA EL TRASLADO DE RESIDUOS CON CONTENIDO DE AMIANTO DESDE PUNTO DE GENERACIÓN O ALMACENAJE HASTA GESTOR FINAL.\n",
      "mainEntityOfPage": "https://www.contratacion.euskadi.eus/webkpe00-kperoc/es/ac71aBusquedaRegistrosWar/empresa/01957",
      "_links": {
        "self": {
          "name": "ESTÉVEZ CONDUCTOS SUBTERRÁNEOS, S.L.",
          "href": "https://api.euskadi.eus/procurements/companies/01957"
        }
      }
    },
    {
      "name": "ARTEA GUÍAS TURÍSTICOS, S.L.",
      "registrationNumber": "03342",
      "identificationNumber": "B01413293",
      "address": "PORTAL DEL REY 6, 1º D",
      "location": {
        "postalCode": "01001",
        "municipality": "Vitoria-Gasteiz",
        "county": "Araba/Álava",
        "municipalityId": "059",
        "countyId": "01"
      },
      "economicActivities": [
        {
          "id": "1.966.9",
          "name": "Otros servicios culturales n.c.o.p",
          "_links": {
            "self": {
              "name": "Otros servicios culturales n.c.o.p",
              "href": "https://api.euskadi.eus/procurements/companies/economic-activities/1.966.9"
            }
          }
        },
        {
          "id": "1.989.2",
          "name": "Servicios de organización de congresos, asambleas y similares",
          "_links": {
            "self": {
              "name": "Servicios de organización de congresos, asambleas y similares",
              "href": "https://api.euskadi.eus/procurements/companies/economic-activities/1.989.2"
            }
          }
        }
      ],
      "certificateStartDate": "2025-03-07",
      "certificateEndDate": "2025-09-03",
      "object": "A) LA ACTIVIDAD PROPIA DE GUÍAS INTERPRETES DE TURISMO Y AZAFATAS DE CONGRESOS Y FERIAS. B) LA ACTUACIÓN COMO CONTRATISTA O SUBCONTRATISTA PARA LA PRESTACIÓN A TERCEROS DE TODO TIPO DE SERVICIOS AUXILIARES O QUE PUEDAN SER OBJETO DE CONTRATA O SUBCONTRATA EN CUALQUIER MERCADO O SECTOR ECONÓMICO, COMERCIAL O INDUSTRIAL, PARA LA ORGANIZACIÓN, ASISTENCIA TÉCNICA Y AUXILIAR EN CUALQUIER CLASE DE EVENTOS, ACTOS PÚBLICOS Y PRIVADOS, SOCIALES, CULTURALES, DEPORTIVOS, CONGRESOS, EXPOSICIONES, SEMINARIOS, CONVENCIONES, JUNTAS DE SOCIOS O ACCIONISTAS O CUALQUIER OTRA ACTIVIDAD DE APOYO  A LA GESTIÓN Y DESARROLLO QUE IMPLIQUE LA CONGREGACIÓN DE PERSONAS O PATRIMONIOS, PRESENTACIÓN, EXPOSICIÓN Y PROMOCIÓN DE PRODUCTOS DE TODA NATURALEZA, ORGANIZACIÓN Y GESTIÓN PARA EL MONTAJE DE ESPECTÁCULOS Y MOBILIARIO, SERVICIOS DE CATERING Y HOSTELERÍA EN GENERAL, MONITORES DE TIEMPO LIBRE, TODO ELLO TANTO PARA PERSONAS FÍSICAS COMO JURÍDICAS, PÚBLICAS O PRIVADAS",
      "mainEntityOfPage": "https://www.contratacion.euskadi.eus/webkpe00-kperoc/es/ac71aBusquedaRegistrosWar/empresa/03342",
      "_links": {
        "self": {
          "name": "ARTEA GUÍAS TURÍSTICOS, S.L.",
          "href": "https://api.euskadi.eus/procurements/companies/03342"
        }
      }
    }
  ]
}