{
  "totalItems": 9042,
  "totalPages": 905,
  "currentPage": 43,
  "itemsOfPage": 10,
  "items": [
    {
      "name": "GOIKUS KUDEAKETA S.L.",
      "registrationNumber": "06332",
      "identificationNumber": "B75097667",
      "address": "Igartetxe Kalea 2, 4ºC",
      "location": {
        "postalCode": "20200",
        "municipality": "Beasain",
        "county": "Gipuzkoa",
        "municipalityId": "019",
        "countyId": "20"
      },
      "economicActivities": [
        {
          "id": "1.330.2",
          "name": "Instalación de máquinas de oficina y ordenadores",
          "_links": {
            "self": {
              "name": "Instalación de máquinas de oficina y ordenadores",
              "href": "https://api.euskadi.eus/procurements/companies/economic-activities/1.330.2"
            }
          }
        },
        {
          "id": "1.644.6",
          "name": "Venta al por menor de masas fritas, productos aperitivos, golosinas",
          "_links": {
            "self": {
              "name": "Venta al por menor de masas fritas, productos aperitivos, golosinas",
              "href": "https://api.euskadi.eus/procurements/companies/economic-activities/1.644.6"
            }
          }
        },
        {
          "id": "1.963.1",
          "name": "Exhibición de películas cinematográficas y vídeos en cines",
          "_links": {
            "self": {
              "name": "Exhibición de películas cinematográficas y vídeos en cines",
              "href": "https://api.euskadi.eus/procurements/companies/economic-activities/1.963.1"
            }
          }
        },
        {
          "id": "1.965.1",
          "name": "Espectáculos en salas y locales (excepto los taurinos)",
          "_links": {
            "self": {
              "name": "Espectáculos en salas y locales (excepto los taurinos)",
              "href": "https://api.euskadi.eus/procurements/companies/economic-activities/1.965.1"
            }
          }
        }
      ],
      "certificateStartDate": "2026-01-28",
      "certificateEndDate": "2026-07-14",
      "object": "LA PRESTACIÓN DE SERVICIOS EDUCATIVOS, CULTURALES, SANITARIOS, DE OCIO Y ENTRETENIMIENTO; LAS ACTIVIDADES DE GESTIÓN Y ADMINISTRACIÓN DE SERVICIOS EDUCATIVOS, CULTURALES, SANITARIOS, DE OCIO Y ENTRETENIMIENTO. EN ESPECIAL LA EXHIBICIÓN DE PELÍCULAS CINEMATOGRÁFICAS Y ORGANIZACIÓN Y EXPLOTACIÓN DE TODO TIPO DE ESPECTÁCULOS",
      "mainEntityOfPage": "https://www.contratacion.euskadi.eus/webkpe00-kperoc/es/ac71aBusquedaRegistrosWar/empresa/06332",
      "_links": {
        "self": {
          "name": "GOIKUS KUDEAKETA S.L.",
          "href": "https://api.euskadi.eus/procurements/companies/06332"
        }
      }
    },
    {
      "name": "CAMPO Y OCHANDIANO, S.L.",
      "registrationNumber": "06402",
      "identificationNumber": "B95213823",
      "address": "Ercilla 18 1º derecha",
      "location": {
        "postalCode": "48009",
        "municipality": "Bilbao",
        "county": "Bizkaia",
        "municipalityId": "020",
        "countyId": "48"
      },
      "economicActivities": [
        {
          "id": "1.849.6",
          "name": "Servicios de colocación y suministro de personal",
          "_links": {
            "self": {
              "name": "Servicios de colocación y suministro de personal",
              "href": "https://api.euskadi.eus/procurements/companies/economic-activities/1.849.6"
            }
          }
        }
      ],
      "certificateStartDate": "2026-01-28",
      "certificateEndDate": "2026-07-19",
      "object": "LA CONSULTORIA Y AUDITORIA EN RECURSOS HUMANOS, LA CAPTACION Y SELECCION DE PERSONAL, LA FORMACIÓN, EVALUACIÓN Y PROMOCIÓN DE PERSONAL, LA ORGANIZACIÓN EMPRESARIAL, ASESORAMIENTO Y ORIENTACIÓN SOBRE NIVELES RETRIBUTIVOS DEL MERCADO DE TRABAJO, EL DISEÑO DE PRUEBAS DE EVALUACIÓN, SELECCIÓN Y OPOSICIONES Y, EN GENERAL, TODAS LAS ACTIVIDADES RELACIONADAS CON EL ÁREA DE LOS RECURSOS HUMANOS",
      "mainEntityOfPage": "https://www.contratacion.euskadi.eus/webkpe00-kperoc/es/ac71aBusquedaRegistrosWar/empresa/06402",
      "_links": {
        "self": {
          "name": "CAMPO Y OCHANDIANO, S.L.",
          "href": "https://api.euskadi.eus/procurements/companies/06402"
        }
      }
    },
    {
      "name": "SABICO SERVICIOS AUXILIARES, S.L.",
      "registrationNumber": "02880",
      "identificationNumber": "B20550109",
      "address": "ZUATZU KALEA, 6. EDIF. BIDASOA, PLANTA 2-OF. 3",
      "location": {
        "postalCode": "20018",
        "municipality": "Donostia / San Sebastián",
        "county": "Gipuzkoa",
        "municipalityId": "069",
        "countyId": "20"
      },
      "economicActivities": [
        {
          "id": "1.849.9",
          "name": "Otros servicios independientes n.c.o.p",
          "_links": {
            "self": {
              "name": "Otros servicios independientes n.c.o.p",
              "href": "https://api.euskadi.eus/procurements/companies/economic-activities/1.849.9"
            }
          }
        },
        {
          "id": "1.999",
          "name": "Otros servicios n.c.o.p",
          "_links": {
            "self": {
              "name": "Otros servicios n.c.o.p",
              "href": "https://api.euskadi.eus/procurements/companies/economic-activities/1.999"
            }
          }
        }
      ],
      "certificateStartDate": "2026-01-28",
      "certificateEndDate": "2026-07-10",
      "object": "EL COMPLEMENTAR, O EN SU CASO, SUBROGARSE EN LOS SERVICIOS DE AQUELLAS ENTIDADES, QUE DE UNA FORMA U OTRA REQUIERAN UNA ATENCIÓN CONTROLADA EN RELACIÓN A SUS FONDOS, DEPÓSITOS ASEGURADOSDE LOS MISMOS, CONTROL DE SU DISPOSICIÓN, ASÍ COMO ATENCIÓN Y MANTENIMIENTO DE LAS INSTALACIONES ADECUADAS PARA SU PUESTA A DISPOSICIÓN DEL PÚBLICO.\nASÍMISMO COMPLETARÁ TAL FUNCIÓN CON LA ASISTENCIA Y REPARACIÓN DE LAS INSTALACIONES AUTOMATIZADAS, TALES COMO CAJEROS, MÁQUINAS DE CONTABILIDAD O FUNCIONAMIENTO DE LAS QUE REGULAN LOS ASPECTOS INFORMÁTICOS O CANALES   DE ELLOS DERIVADOS, ASÍ COMO SU PERFECCIONAMIENTO EN ARAS DEL MEJOR SERVICIO INTERNO O PÚBLICO DE LAS ENTIDADES AFECTADAS.\nMANTENIMIENTO, CONTROL, SERVICIOS AUXILIARES Y ADMINISTRATIVOS EN GENERAL, EN INDUSTRIAS, ENTIDADES FINANCIERAS, CENTROS COMERCIALES, ORGANISMOS PÚBLICOS O URBANIZACIONES.\nPRESTACIÓN Y ARRENDAMIENTO DE SERVICIOS DE CONTROLADORES, SERVICIOS DE SECRETARÍA, ATENCIÓN TELEFÓNICA, RELACIONES PÚBLICAS A TRAVÉS DE AZAFATAS, PORTEROS, ORDENANZAS Y CUALQUIER OTRO RELACIONADO CON LOS ANTERIORES",
      "mainEntityOfPage": "https://www.contratacion.euskadi.eus/webkpe00-kperoc/es/ac71aBusquedaRegistrosWar/empresa/02880",
      "_links": {
        "self": {
          "name": "SABICO SERVICIOS AUXILIARES, S.L.",
          "href": "https://api.euskadi.eus/procurements/companies/02880"
        }
      }
    },
    {
      "name": "ARAN SERVICIOS MEDIOAMBIENTALES, S.L.",
      "registrationNumber": "06943",
      "identificationNumber": "B01553411",
      "address": "IRUÑEA-PAMPLONA, 33 OFICINA B",
      "location": {
        "postalCode": "01010",
        "municipality": "Vitoria-Gasteiz",
        "county": "Araba/Álava",
        "municipalityId": "059",
        "countyId": "01"
      },
      "economicActivities": [
        {
          "id": "1.999",
          "name": "Otros servicios n.c.o.p",
          "_links": {
            "self": {
              "name": "Otros servicios n.c.o.p",
              "href": "https://api.euskadi.eus/procurements/companies/economic-activities/1.999"
            }
          }
        }
      ],
      "certificateStartDate": "2026-01-28",
      "certificateEndDate": "2026-07-18",
      "object": "FOMENTAR LA PRESERVACIÓN, PRESENTE Y FUTURA, DEL MEDIO AMBIENTE NATURAL, DESARROLLANDO PARA ELLO CUALQUIER TIPO DE ACTIVIDAD TENDENTE A SU CUMPLIMIENTO, Y ENTRE OTRAS, A TÍTULO MERAMENTE ENUNCIATIVO: A) LA PRESERVACIÓN DE LA BIODIVERSIDAD, FOMENTANDO EL MANTENIMIENTO DE LOS PROCESOS ECOLÓGICOS ESENCIALES Y DE LOS SISTEMAS VITALES BÁSICOS. B) PROCURAR LA UTILIZACIÓN ORDENADA DE LOS RECURSOS NATURALES, GARANTIZANDO EL APROVECHAMIENTO SOSTENIDO DE LAS ESPECIES Y DE LOS ECOSISTEMAS, SU RESTAURACIÓN Y MEJORA. C) LA PRESERVACIÓN DE LA VARIEDAD, SINGULARIDAD Y BELLEZA DE LOS ECOSISTEMAS NATURALES DEL PAISAJE, VELANDO POR EL MANTENIMIENTO Y CONSERVACIÓN DE LOS RECURSOS NATURALES EXISTENTES, ATENDIENDO A SU ORDENADO APROVECHAMIENTO Y A LA RESTAURACIÓN DE LOS RECURSOS RENOVABLES. D) PROMOVER LA FORMACIÓN DE LA POBLACIÓN ESCOLAR EN MATERIA DE CONSERVACIÓN DE LA NATURALEZA, ASÍ COMO LA REALIZACIÓN DE PROYECTOS EDUCATIVOS Y CIENTÍFICOS, TODO ELLO EN ORDEN A FOMENTAR EL CONOCIMIENTO DE LA NATURALEZA Y LA NECESIDAD DE CONSERVACIÓN. E) EN COORDINACIÓN CON LAS ADMINISTRACIONES PÚBLICAS COMPETENTES, FOMENTAR EL DESARROLLO, DIRECTA O INDIRECTAMENTE, DE CUALQUIER ACTIVIDAD RELACIONADA CON EL MEDIO AMBIENTE. F) PREVENIR Y EVITAR, TANTO LA PRODUCCIÓN COMO SU POSTERIOR VERTIDO ILEGAL, DE CUALQUIER CLASE DE RESIDUOS (EMISIONES A LA ATMÓSFERA, RESIDUOS RADIOACTIVOS, VERTIDOS DE EFLUENTES LÍQUIDOS, DE BUQUES O AERONAVES, DE LA EXTRACCIÓN, PROSPECCIÓN O ELIMINACIÓN DE RECURSOS MINERALES, DE LA ELIMINACÓN Y TRANSOFMRAICÓN DE ANIMALES MUERTOS Y DESPERDICIOS DE ORIGEN ANIMAL, DE EXPLOTACIONES AGRÍCOLAS Y GANADERAS,) DANDO CUENTA DE LOS HECHOS A LAS AUTORIDADES COMPETENTES A FIN DE EVITAR LA DEGRADACIÓN DEL MEDIO AMBIENTE NATURAL. G) GESTIONAR Y FOMENTAR, LA RECOGIDA, ALMACENAMIENTO, TRANSPORTE, Y ELIMINACIÓN DE TODO TIPO DE RESIDUOS, ASÍ COMO LA VIGILANCIA DE ESTAS ACTIVIDADES Y DE LOS LUGARES DE DEPÓSITO O VERTIDO DE LOS MISMO. H) GESTIONAR LA RECOGIDA, ALMACENAMIENTO, TRANSPORTE, REUTILIZACIÓN, RECICLADO Y OTRAS FORMAS DE VALORIZACIÓN DEL PAPEL Y VIDRIO. I) REALIZACIÓN DE LABORES PUBLICITARIAS Y DE MARKETING DE CAMPAÑAS DE PRESERVACIÓN Y CONCIENCIACIÓN SOBRE EL MEDIO AMBIENTE. J) EL ESTUDIO, CONTRATACIÓN, PROMOCIÓN Y REAIZACIÓN DE TODA CLASE DE OBRAS DE CONSTRUCCIÓN, MEJORA Y CONSERVACIÓN, TANTO PRIVADAS, CMO PÚBLICAS, INCLUYENDO TODA CLASE DE CONSTRUCCIONES INDUSTRIALES, OBRAS DE INGENIERÍA CIVIL Y CARRETERAS, CONTRATAS DE OBRAS PÚBLICAS O PARTICULARES, CONTRATOS DE EJECUCIÓN DE OBRAS O DE SERVICIOS, OBTENCIÓN Y EXPLOTACIÓN DE CONCESIONES DE SERVICIOS PÚBLICOS Y DE CUALQUIER OTRA CLASE Y CUANTAS OTRAS ACTIVIDADES, SEAN AUXILARES O COMPLEMENTARIAS DE LA INDUSTRIA DE LA CONSTRUCCIÓN, POR CUENTA PROPIA O DE TERCEROS. K) REALIZACIÓN, DISEÑO, FABRICACIÓN, COMERCIALIZACIÓN O UTILIZACIÓN DE PRODUCTOS O ENVASES QUE FAVOREZCAN LA PREVENCIÓN DE LA GENERACIÓN DE RESIDUOS Y FACILITEN LA REUTILIZACIÓN O EL RECICLADO DE LOS RESIDUOS Y DE CUALQUIER OTRO QUE PERMITA O PROMOCIONE LA PREVENCIÓN DE LA SALUD HUMANA Y EL MEDIO AMBIENTE. L) VERIFICAR EL ESTRICTO CUMPLIMIENTO DE LA NORMATIVA MEDIOAMBIENTAL, DANDO CUENTA A LAS AUTORIDADES COMPETNTES DE CUALQUIER INFRACCIÓN QUE SE PRODUZCA, TRAMITANDO, SI LE CORRESPONDE, CUALQUIER CLASE DE EXPEDIENTE SANCIONADOR EN MATERIA DE MEDIO AMBIENTE, REALIZANDO LAS PROPUESTAS CORRESPONDIENTES A LA AUTORIDAD COMPETENTE. M) EL COBRO DE LAS TASAS, PRECIOS PÚBLICOS O CONTRIBUCIONES ESPECIALES POR LA REALIZACIÓN DE SERVICIOS QUE LE CORRESPONDAN Y DE ACUERDO CON LAS DISPOSICIONES LEGALES. N) EL PROYECTO, PRESTACIÓN Y REALIZACIÓN DE SERVICIOS DE SANEAMIENTO Y LIMPIEZA DE TODA ÍNDOLE. DISEÑO, PROYECTO, CONSTRUCCIÓN, EXPLOTACIÓN, CONSERVACIÓN, FUNCIONAMIENTO Y COMERCIALIZACIÓN DE PLANTAS INDUSTRIALES E INSTALACIONES PARA LA DEPURACIÓN DE AGUAS. TRATAMIENTO, RECUPERACIÓN Y ELIMINACÓN DE RESIDUOS Y COMERCIO DE SUBPRODUCTOS. APROVECHAMIENTO, TRANSFORMACIÓN Y COMERCIALIZACIÓN DE TODA CLASE DE AGUAS. O) CUALQUIER OTRAS ACTIVIDADES QUE, RELACIONADAS CON LAS ANTERIORES, FOMENTEN LA PRESERVACIÓN DEL MEDIO AMBIENTE NATURAL Y EVITEN SU DEGRADACIÓN SISTEMÁTICA Y EL PELIGRO PARA LA SALUD HUMANA. P) GESTIÓN DEL CICLO INTEGRAL DEL AGUA, EN LAS FASES DE ALTA (CAPTACIÓN; ADUCCIÓN, TRATAMIENTO Y POTABILIZACIÓN; DEPURACIÓN Y VERTIDO) Y BAJA (ABASTECIMIENTO Y DISTRIBUCIÓN). Q) SERVICIO DE SANEAMIENTO Y ALCANTARILLADO. R) GESTIÓN DE RECOGIDA, TRATAMIENTO Y ELIMINACIÓN DE RESIDUYOS SÓLIDOS. S) GESTIÓN DE RECOGIDA SELECTIVA DE CIERTOS RESIDUOS SÓLIDOS. T) GESTIÓN INTEGRAL DE LOS APROVECHAMIENTOS CINEGÉTICOS Y PISCÍCOLAS, INCLUYENDO EL PROCESADO Y COMERCIALIZACIÓN DE PRODUCTOS DERIVADOS DE ESTOS APROVECHAMIENTOS. U) ESTUDIOS MEDIOAMBIENTALES DE TODO TIPO Y MATERIAS, RELACIONADOS CON LA BIOLOGÍA, SANIDAD Y CONSERVACIÓN DE LAS ESPECIES SILVESTRES. V) CONTROL DE ESPECIES INVASORAS O PERJUDICIALES PARA EL EQUILIBRIO DE LOS ECOSISTEMAS TERRESTRES Y ACUÁTICOS. W) PLANIFICACIÓN GEOGRÁFICA Y TERRITORIAL. X) VIGILANCIA Y CONTROL MEDIOAMBIENTAL. Y) COBERTURA DE NECESIDADES Y SATISFACCIÓN SOCIAL, AL PROMOVER UNA ACTIVIDAD, QUE AUNQUE ES COMPETENCIA DE LAS ADMINISTRACIONES PÚBLICAS ESTAS OPTAN POR SU EXTERNALIZACIÓN, LA QUE SE DESTINA AL CUIDADO Y PROTECCIÓN DEL MEDIO AMBIENTE",
      "mainEntityOfPage": "https://www.contratacion.euskadi.eus/webkpe00-kperoc/es/ac71aBusquedaRegistrosWar/empresa/06943",
      "_links": {
        "self": {
          "name": "ARAN SERVICIOS MEDIOAMBIENTALES, S.L.",
          "href": "https://api.euskadi.eus/procurements/companies/06943"
        }
      }
    },
    {
      "name": "ASPARRENA, S.C.",
      "registrationNumber": "10016",
      "identificationNumber": "J01264670",
      "address": "Plaza Herriko enparantza",
      "location": {
        "postalCode": "01250",
        "municipality": "Asparrena",
        "county": "Araba/Álava",
        "municipalityId": "009",
        "countyId": "01"
      },
      "economicActivities": [
        {
          "id": "1.951",
          "name": "Asistencia y servicios sociales en centros residenciales",
          "_links": {
            "self": {
              "name": "Asistencia y servicios sociales en centros residenciales",
              "href": "https://api.euskadi.eus/procurements/companies/economic-activities/1.951"
            }
          }
        }
      ],
      "certificateStartDate": "2026-01-28",
      "certificateEndDate": "2026-07-08",
      "object": "GESTIÓN DEL CENTRO GERONTOLÓGICO DE ASPARRENA.",
      "mainEntityOfPage": "https://www.contratacion.euskadi.eus/webkpe00-kperoc/es/ac71aBusquedaRegistrosWar/empresa/10016",
      "_links": {
        "self": {
          "name": "ASPARRENA, S.C.",
          "href": "https://api.euskadi.eus/procurements/companies/10016"
        }
      }
    },
    {
      "name": "ECHEBARRIA SUMINISTROS S.L.",
      "registrationNumber": "07082",
      "identificationNumber": "B01308204",
      "address": "PORTAL DE GAMARRA Nº 7   PAB 6 a 11",
      "location": {
        "postalCode": "01013",
        "municipality": "Vitoria-Gasteiz",
        "county": "Araba/Álava",
        "municipalityId": "059",
        "countyId": "01"
      },
      "economicActivities": [
        {
          "id": "1.615.3",
          "name": "Venta al por mayor de aparatos electrodomésticos y ferretería",
          "_links": {
            "self": {
              "name": "Venta al por mayor de aparatos electrodomésticos y ferretería",
              "href": "https://api.euskadi.eus/procurements/companies/economic-activities/1.615.3"
            }
          }
        }
      ],
      "certificateStartDate": "2026-01-28",
      "certificateEndDate": "2026-07-14",
      "object": "EL COMERCIO AL POR MENOR Y AL POR MAYOR DE ARTÍCULOS DE FERRETERÍA Y SUMINISTROS PARA LA EMPRESA Y EL CONSUMIDOR",
      "mainEntityOfPage": "https://www.contratacion.euskadi.eus/webkpe00-kperoc/es/ac71aBusquedaRegistrosWar/empresa/07082",
      "_links": {
        "self": {
          "name": "ECHEBARRIA SUMINISTROS S.L.",
          "href": "https://api.euskadi.eus/procurements/companies/07082"
        }
      }
    },
    {
      "name": "AUTOWAG, S.L.",
      "registrationNumber": "10030",
      "identificationNumber": "B20189155",
      "address": "CR N-1 KM 419",
      "location": {
        "postalCode": "20200",
        "municipality": "Beasain",
        "county": "Gipuzkoa",
        "municipalityId": "019",
        "countyId": "20"
      },
      "economicActivities": [
        {
          "id": "1.654.1",
          "name": "Venta al por menor de vehículos terrestres",
          "_links": {
            "self": {
              "name": "Venta al por menor de vehículos terrestres",
              "href": "https://api.euskadi.eus/procurements/companies/economic-activities/1.654.1"
            }
          }
        },
        {
          "id": "1.691.2",
          "name": "Reparación de vehículos automóviles, bicicletas y otros vehículos",
          "_links": {
            "self": {
              "name": "Reparación de vehículos automóviles, bicicletas y otros vehículos",
              "href": "https://api.euskadi.eus/procurements/companies/economic-activities/1.691.2"
            }
          }
        }
      ],
      "certificateStartDate": "2026-01-28",
      "certificateEndDate": "2026-07-20",
      "object": "A) EXPLOTAR COMERCIAL O INDUSTRIALMENTE, BIEN DIRECTAMENTE O COMO CONCESIONARIOS, REPRESENTANTES O AGENTES, TODA CLASE DE INDUSTRIAS DE REACONDICIONAMIENTO Y REPARACIÓN, DE VEHÍCULOS EN GENERAL, TANTO DE TIPO INDUSTRIAL COMO DE TIPO AGRÍCOLA Y DE TURISMO. B) TODO LO RELACIONADO EN EL COMERCIO Y LA INDUSTRIA DE VEHÍCULOS Y MAQUINARIA MOTORIZADA DE TIPO INDUSTRIAL, ESPECIALMENTE LA DEDICADA A OBRAS PÚBLICAS. C) EXPLOTAR REPRESENTACIONES, CONCESIONES Y PATENTES DE TODAS CLASES, NACIONALES O EXTRANJERAS, RELACIONADAS O NO, CON LOS APARTADOS ANTERIORES. D) IMPORTAR DIRECTAMENTE O COMO REPRESENTANTES O COMO AGENTES, TODA CLASE DE MAQUINARIA, ACCESORIOS, HERRAMIENTAS O MERCANCÍAS, QUE GUARDEN RELACIÓN DIRECTA O INDIRECTA CON LAS REPRESENTACIONES, CONCESIONES Y PATENTES, A QUE SE REFIERE EL APARTADO ANTERIOR. E) DEDICARSE A CUALQUIER OTRA ACTIVIDAD DE ÍNDOLE COMERCIAL O INDUSTRIAL, AUTORIZADA POR LA LEY, CUANDO ASÍ LO ESTIME PERTINENTE LA JUNTA GENERAL DE SOCIOS.",
      "mainEntityOfPage": "https://www.contratacion.euskadi.eus/webkpe00-kperoc/es/ac71aBusquedaRegistrosWar/empresa/10030",
      "_links": {
        "self": {
          "name": "AUTOWAG, S.L.",
          "href": "https://api.euskadi.eus/procurements/companies/10030"
        }
      }
    },
    {
      "name": "AUTOBUSES JIMÉNEZ, S.L.",
      "registrationNumber": "05068",
      "identificationNumber": "B26008359",
      "address": "C/Eliseo Lerena, 4-6",
      "location": {
        "postalCode": "26580",
        "municipality": "Arnedo",
        "county": "Rioja, La",
        "municipalityId": "018",
        "countyId": "26"
      },
      "economicActivities": [
        {
          "id": "1.721.3",
          "name": "Transporte de viajeros por carretera",
          "_links": {
            "self": {
              "name": "Transporte de viajeros por carretera",
              "href": "https://api.euskadi.eus/procurements/companies/economic-activities/1.721.3"
            }
          }
        }
      ],
      "certificateStartDate": "2026-01-28",
      "certificateEndDate": "2026-07-19",
      "object": "LA EXPLOTACIÓN DE CONCESIONES DE TRANSPORTE MECÁNICO DE VIAJEROS POR CARRETERA",
      "mainEntityOfPage": "https://www.contratacion.euskadi.eus/webkpe00-kperoc/es/ac71aBusquedaRegistrosWar/empresa/05068",
      "_links": {
        "self": {
          "name": "AUTOBUSES JIMÉNEZ, S.L.",
          "href": "https://api.euskadi.eus/procurements/companies/05068"
        }
      }
    },
    {
      "name": "INSTALACIONES FOJANSA, S.L.",
      "registrationNumber": "02581",
      "identificationNumber": "B01166420",
      "address": "C/ CAPELAMENDI, 5",
      "location": {
        "postalCode": "01013",
        "municipality": "Vitoria-Gasteiz",
        "county": "Araba/Álava",
        "municipalityId": "059",
        "countyId": "01"
      },
      "economicActivities": [
        {
          "id": "1.504.3",
          "name": "Instalaciones de frío, calor y acondicionamiento de aire",
          "_links": {
            "self": {
              "name": "Instalaciones de frío, calor y acondicionamiento de aire",
              "href": "https://api.euskadi.eus/procurements/companies/economic-activities/1.504.3"
            }
          }
        },
        {
          "id": "1.699",
          "name": "Otras reparaciones n.c.o.p",
          "_links": {
            "self": {
              "name": "Otras reparaciones n.c.o.p",
              "href": "https://api.euskadi.eus/procurements/companies/economic-activities/1.699"
            }
          }
        },
        {
          "id": "1.843.1",
          "name": "Servicios técnicos de ingeniería",
          "_links": {
            "self": {
              "name": "Servicios técnicos de ingeniería",
              "href": "https://api.euskadi.eus/procurements/companies/economic-activities/1.843.1"
            }
          }
        }
      ],
      "certificateStartDate": "2026-01-28",
      "certificateEndDate": "2026-07-19",
      "object": "TANTO DIRECTAMENTE COMO DE FORMA INDIRECTA, MEDIANTE LA TITULARIDAD DE ACCIONES O PARTICIPACIONES EN SOCIEDADES CON OBJETO IDÉNTICO, LA INSTALACIÓN, REPARACIÓN Y VENTA DE TODO LO RELACIONADO CON FONTANERÍA, CALEFACCIÓN Y GAS ",
      "mainEntityOfPage": "https://www.contratacion.euskadi.eus/webkpe00-kperoc/es/ac71aBusquedaRegistrosWar/empresa/02581",
      "_links": {
        "self": {
          "name": "INSTALACIONES FOJANSA, S.L.",
          "href": "https://api.euskadi.eus/procurements/companies/02581"
        }
      }
    },
    {
      "name": "YNTEGRA SERVICIOS INTEGRALES, S.L.",
      "registrationNumber": "07642",
      "identificationNumber": "B83984898",
      "address": "C/ ROSA DE LIMA 1BIS OFICINA 12, EDIFICIO ALBA",
      "location": {
        "postalCode": "28290",
        "municipality": "Rozas de Madrid, Las",
        "county": "Madrid",
        "municipalityId": "127",
        "countyId": "28"
      },
      "economicActivities": [
        {
          "id": "1.504.3",
          "name": "Instalaciones de frío, calor y acondicionamiento de aire",
          "_links": {
            "self": {
              "name": "Instalaciones de frío, calor y acondicionamiento de aire",
              "href": "https://api.euskadi.eus/procurements/companies/economic-activities/1.504.3"
            }
          }
        },
        {
          "id": "1.849.9",
          "name": "Otros servicios independientes n.c.o.p",
          "_links": {
            "self": {
              "name": "Otros servicios independientes n.c.o.p",
              "href": "https://api.euskadi.eus/procurements/companies/economic-activities/1.849.9"
            }
          }
        }
      ],
      "certificateStartDate": "2026-01-28",
      "certificateEndDate": "2026-07-15",
      "object": "LA UBICACIÓN DE PERSONAL DE MANTENIMIENTO Y CONTROL EN TODO TIPO DE INSTALACIONES. LA REALIZACIÓN DE TRABAJOS DE LIMPIEZA DE TODO TIPO, YA SEAN A COMUNIDADES, EN VIVIENDAS, LOCALES COMERCIALES, OFICINAS Y ORGANISMOS OFICIALES. LA REALIZACIÓN DE PRODUCTOS Y APARATOS DESTINADOS A LA LIMPIEZA Y A LA EXPLOTACIÓN DE TIENDAS ESPECIALIZADAS EN ELLA. LA REALIZACIÓN DE TRABAJOS DE JARDINERÍA E INSTALACIONES DE SISTEMAS DE RIEGO, ASÍ COMO LA COMERCIALIZACIÓN DE SUS PRODUCTOS Y APARATOS. EL MANTENIMIENTO INTEGRAL DE INSTALACIONES A EMPRESAS COMUNIDADES, VIVIENDAS, LOCALES COMERCIALES, PISCINAS, OFICINAS Y DEMÁS ORGANISMOS OFICIALES. LA REALIZACIÓN DE REFORMAS Y OBRAS DE REHABILITACIÓN DE TODO TIPO. LA COMPRAVENTA, INSTALACIÓN, MANTENIMIENTO Y REPARACIÓN DE TODO TIPO DE PRODUCTOS, SISTEMAS Y APLICACIONES INFORMÁTICAS. LA COMERCIALIZACIÓN, INSTALACIÓN, MANTENIMIENTO Y REPARACIÓN DE TODO TIPO DE SISTEMAS DE TELEFONÍA FIJA, MÓVIL E INTERNET. LA VENTA, DISTRIBUCIÓN Y COMERCIALIZACIÓN DE ELECTRODOMÉSTICOS. LA FABRICACIÓN E INSTALACIÓN DE PRODUCTOS DE CERRAJERÍA DE HIERRO Y ALUMINIO. LA REALIZACIÓN Y MANTENIMIENTO DE TODO TIPO DE INSTALACIONES DE ELECTRICIDAD, CLIMATIZACIÓN, AGUA CALIENTE SANITARIA Y FONTANERÍA. EL NEGOCIO INMOBILIARIO EN GENERAL EXCLUIDO EL ARRENDAMIENTO FINANCIERO COMO LA PARTE ARRENDADORA. LA FABRICACIÓN, DISTRIBUCIÓN Y VENTA DE MUEBLES DE TODO TIPO Y SUS DERIVADOS. CONTRATACIÓN DIRECTA DE OBRAS, SERVICIOS Y SUMINISTROS RELACIONADOS CON TODO LO ANTERIOR. CONCURRENCIA A TODA CLASE DE CONCURSOS, CONCURSOS-SUBASTAS Y SUBASTAS PÚBLICAS Y RESTRINGIDAS IGUALMENTE RELACIONADAS CON LO ANTERIOR QUE REALICE LA ADMINISTRACIÓN PÚBLICA YA SEA ESTATAL, COMUNIDADES AUTÓNOMAS O MUNICIPAL Y CUALQUIER ORGANISMO ESTATAL, AUTONÓMICO, PROVINCIAL O MUNICIPAL",
      "mainEntityOfPage": "https://www.contratacion.euskadi.eus/webkpe00-kperoc/es/ac71aBusquedaRegistrosWar/empresa/07642",
      "_links": {
        "self": {
          "name": "YNTEGRA SERVICIOS INTEGRALES, S.L.",
          "href": "https://api.euskadi.eus/procurements/companies/07642"
        }
      }
    }
  ]
}