{
  "totalItems": 9042,
  "totalPages": 905,
  "currentPage": 384,
  "itemsOfPage": 10,
  "items": [
    {
      "name": "DESGUACES VIDAURRETA, S.L.",
      "registrationNumber": "09850",
      "identificationNumber": "B20151346",
      "address": "Barrio Jaitzubia",
      "location": {
        "postalCode": "20280",
        "municipality": "Hondarribia",
        "county": "Gipuzkoa",
        "municipalityId": "036",
        "countyId": "20"
      },
      "economicActivities": [
        {
          "id": "1.319.1",
          "name": "Mecánica general",
          "_links": {
            "self": {
              "name": "Mecánica general",
              "href": "https://api.euskadi.eus/procurements/companies/economic-activities/1.319.1"
            }
          }
        },
        {
          "id": "1.621",
          "name": "Venta al por mayor de chatarra y metales de desecho férreos y no férreos",
          "_links": {
            "self": {
              "name": "Venta al por mayor de chatarra y metales de desecho férreos y no férreos",
              "href": "https://api.euskadi.eus/procurements/companies/economic-activities/1.621"
            }
          }
        },
        {
          "id": "1.654.1",
          "name": "Venta al por menor de vehículos terrestres",
          "_links": {
            "self": {
              "name": "Venta al por menor de vehículos terrestres",
              "href": "https://api.euskadi.eus/procurements/companies/economic-activities/1.654.1"
            }
          }
        }
      ],
      "certificateStartDate": "2024-10-14",
      "certificateEndDate": "2025-04-08",
      "object": "LA COMPRAVENTA DE TODA CLASE DE MATERIALES NUEVOS Y USADOS RELACIONADOS CON VEHÍCULOS, MAQUINARIAS Y BARCOS, LA MANIPULACIÓN Y DESGUACE DE LOS MISMOS, LA COMPRAVENTA DE TODA CLASE DE CUBIERTAS, CÁMARAS, RUEDAS, ASÍ COMO EL MONTAJE DE LAS MISMAS, ASÍ COMO LA REALIZACIÓN DE TODA CLASE DE ACTOS QUE SE RELACIONEN DIRECTAMENTE CON LO ANTERIOR, COMPRAVENTA DE MUEBLES E INMUEBLES DESTINADOS O NO A LOS SERVICIOS QUE SE CONTRATEN, Y TRANSPORTE DE MERCANCÍAS.",
      "mainEntityOfPage": "https://www.contratacion.euskadi.eus/webkpe00-kperoc/es/ac71aBusquedaRegistrosWar/empresa/09850",
      "_links": {
        "self": {
          "name": "DESGUACES VIDAURRETA, S.L.",
          "href": "https://api.euskadi.eus/procurements/companies/09850"
        }
      }
    },
    {
      "name": "SIT PROYECTOS, DISEÑO Y CONSERVACION, S.L.",
      "registrationNumber": "06718",
      "identificationNumber": "B81027724",
      "address": "CALLE RIOJA, 5",
      "location": {
        "postalCode": "28823",
        "municipality": "Coslada",
        "county": "Madrid",
        "municipalityId": "049",
        "countyId": "28"
      },
      "economicActivities": [
        {
          "id": "1.463",
          "name": "Fabricación en serie de piezas de carpintería y parquet",
          "_links": {
            "self": {
              "name": "Fabricación en serie de piezas de carpintería y parquet",
              "href": "https://api.euskadi.eus/procurements/companies/economic-activities/1.463"
            }
          }
        },
        {
          "id": "1.619.4",
          "name": "Venta al por mayor de productos de papel y cartón",
          "_links": {
            "self": {
              "name": "Venta al por mayor de productos de papel y cartón",
              "href": "https://api.euskadi.eus/procurements/companies/economic-activities/1.619.4"
            }
          }
        },
        {
          "id": "1.757",
          "name": "Servicio de mudanzas",
          "_links": {
            "self": {
              "name": "Servicio de mudanzas",
              "href": "https://api.euskadi.eus/procurements/companies/economic-activities/1.757"
            }
          }
        },
        {
          "id": "1.966.1",
          "name": "Bibliotecas y museos",
          "_links": {
            "self": {
              "name": "Bibliotecas y museos",
              "href": "https://api.euskadi.eus/procurements/companies/economic-activities/1.966.1"
            }
          }
        }
      ],
      "certificateStartDate": "2024-10-14",
      "certificateEndDate": "2025-04-13",
      "object": "A) EL DISEÑO Y REALIZACIÓN DE PROYECTOS MUSEÍSTICOS, LA ASESORÍA TÉCNICA MUSEÍSTICA Y LA FABRICACIÓN, SUMINISTRO, EQUIPAMIENTO, INSTALACIÓN, APLICACIÓN Y MANTENIMIENTO DE TODO TIPO DE EQUIPOS, MOBILIARIO, MEDIOS AUDIOVISUALES Y MATERIAL NECESARIOS PARA LA CONSERVACIÓN Y ALMACENAMIENTO DE LAS OBRAS DE ARTE, ASÍ COMO EL PROYECTO, SUMINISTRO, DESARROLLO, IMPLANTACIÓN, MANTENIMIENTO Y PUESTA EN MARCHA DE SOLUCIONES PARA LA INSTALACIÓN DE SISTEMAS DE ILUMINACIÓN Y CLIMATIZACIÓN, ALARMAS Y SEGURIDAD DE EMERGENCIA Y UTILIZACIÓN Y LAS ACTIVIDADES AUXILIARES O COMPLEMENTARIAS DE TODAS ELLAS (CNAE 9102). B) EL SERVICIO DE TRANSPORTES TERRESTRES, MARÍTIMOS Y FLUVIALES DE VIAJEROS Y MERCANCÍAS EN TODAS SUS MODALIDADES Y POR TODOS LOS MEDIOS CONOCIDOS Y POR CONOCER, Y ENTRE CUALESQUIERA PUNTOS DEL TERRITORIO NACIONAL, DE LA UNIÓN EUROPEA Y/O DE TERCEROS PAÍSES, SIENDO LAS ACTIVIDADES PRINCIPALES EL TRANSPORTE DE MERCANCÍAS POR CARRETERA (CNAE 4941), ESPECIALMENTE EL TRANSPORTE DE OBRAS DE ARTE Y SUS OPERACIONES ACCESORIAS Y EL SERVICIO DE MUDANZAS (CNAE 4942) Y SUS OPERACIONES ACCESORIAS. C) EL DEPÓSITO Y ALMACENAMIENTO DE MERCANCÍAS (CNAE 5210) Y SUS OPERACIONES ACCESORIAS. D) LAS ACTIVIDADES ANEXAS AL TRANSPORTE TERRESTRE (CNAE 5221), COMO OPERADOR DE TRANSPORTES, FABRICACIÓN Y VENTA DE EMBALAJES Y LA VENTA DE MATERIALES, HERRAMIENTAS Y EQUIPOS RELACIONADOS CON EL EMBALAJE Y SIMILARES. E) Y TODA OTRA ACTIVIDAD ANEXA AL TRANSPORTE (CNAE 5229), COMO LA REUBICACIÓN Y SUS OPERACIONES ACCESORIAS, EL DISEÑO, MONTAJE Y DESMONTAJES DE FERIAS Y EXPOSICIONES, LA DESINSECTACIÓN, LA RESTAURACIÓN, LA REHABILITACIÓN Y, EN GENERAL, LA CONSERVACIÓN DE OBRAS DE ARTE, Y CONSTRUCCIÓN DE VITRINAS CLIMÁTICAS PARA LA MEJOR CONSERVACIÓN DE LAS OBRAS",
      "mainEntityOfPage": "https://www.contratacion.euskadi.eus/webkpe00-kperoc/es/ac71aBusquedaRegistrosWar/empresa/06718",
      "_links": {
        "self": {
          "name": "SIT PROYECTOS, DISEÑO Y CONSERVACION, S.L.",
          "href": "https://api.euskadi.eus/procurements/companies/06718"
        }
      }
    },
    {
      "name": "URBANORT OBRAS Y SERVICIOS, S.L.",
      "registrationNumber": "08512",
      "identificationNumber": "B10524189",
      "address": "PZA FERNANDO FERNANDEZ- 2 BAJO",
      "location": {
        "postalCode": "01213",
        "municipality": "Ribera Baja/Erriberabeitia",
        "county": "Araba/Álava",
        "municipalityId": "047",
        "countyId": "01"
      },
      "economicActivities": [
        {
          "id": "1.501.1",
          "name": "Construcción completa, reparación y conservación de edificaciones",
          "_links": {
            "self": {
              "name": "Construcción completa, reparación y conservación de edificaciones",
              "href": "https://api.euskadi.eus/procurements/companies/economic-activities/1.501.1"
            }
          }
        }
      ],
      "certificateStartDate": "2024-10-13",
      "certificateEndDate": "2025-04-13",
      "object": "A).- CONSTRUCCIÓN Y MANTENIMIENTO EN TODAS SUS FORMAS, Y EN CONCRETO LA REALIZACIÓN DE OBRAS DE URBANIZACIÓN, OBRA CIVIL, MOVIMIENTO DE TIERRAS, EXCAVACIÓN, CIMENTACIÓN, DEMOLICIÓN Y DERRIBOS, PAVIMENTACIÓN, Y DE LAS OBRAS DE EDIFICACIÓN RESIDENCIAL, COMERCIAL E INDUSTRIAL, LAS DE ALBAÑILERÍA, REFORMA Y LAS DE INSTALACIONES EN GENERAL, Y LAS OBRAS DE CONDUCCIONES HIDRÁULICAS, ABASTECIMIENTOS DE AGUA Y RESTO DE CANALIZACIONES, REALIZADAS TODAS ELLAS CON MEDIOS PROPIOS O DE TERCEROS, INCLUSO LA CONTRATACIÓN, SUBCONTRATACIÓN Y COORDINACIÓN DE GREMIOS, LA INTERMEDIACIÓN O REALIZACIÓN DE ESTUDIOS Y PROYECTOS, LICENCIAS Y CUALQUIER TRÁMITE O ACTIVIDAD RELACIONADAS CON LA ACTIVIDAD PRINCIPAL. B).- LA INVERSIÓN Y PARTICIPACIÓN EN OTRAS EMPRESAS AFINES, LA COMERCIALIZACIÓN DE PRODUCTOS Y SERVICIOS RELACIONADOS CON LA ACTIVIDAD PRINCIPAL, LA PROMOCIÓN DE OBRAS PROPIAS O DE TERCEROS, COMPRA VENTA Y ARRENDAMIENTO DE INMUEBLES, PARCELAS, SUELO, ASÍ COMO LOS TRABAJOS DE GESTIÓN, ADMINISTRACIÓN, REPARACIÓN, MANTENIMIENTO Y CONSERVACIÓN. C).- CUALQUIER OTRA ACTIVIDAD PREPARATORIA ANEJA, DERIVADA O COMPLEMENTARIA DE LAS ENUNCIADAS.",
      "mainEntityOfPage": "https://www.contratacion.euskadi.eus/webkpe00-kperoc/es/ac71aBusquedaRegistrosWar/empresa/08512",
      "_links": {
        "self": {
          "name": "URBANORT OBRAS Y SERVICIOS, S.L.",
          "href": "https://api.euskadi.eus/procurements/companies/08512"
        }
      }
    },
    {
      "name": "IMAGENCIA BILBAO SL",
      "registrationNumber": "09849",
      "identificationNumber": "B56144546",
      "address": "Calle Jose María Escuza (48013) 11 - 2ºizda.",
      "location": {
        "postalCode": "48013",
        "municipality": "Bilbao",
        "county": "Bizkaia",
        "municipalityId": "020",
        "countyId": "48"
      },
      "economicActivities": [
        {
          "id": "1.843.9",
          "name": "Otros servicios técnicos n.c.o.p",
          "_links": {
            "self": {
              "name": "Otros servicios técnicos n.c.o.p",
              "href": "https://api.euskadi.eus/procurements/companies/economic-activities/1.843.9"
            }
          }
        },
        {
          "id": "1.844",
          "name": "Servicios de publicidad, relaciones públicas y similares",
          "_links": {
            "self": {
              "name": "Servicios de publicidad, relaciones públicas y similares",
              "href": "https://api.euskadi.eus/procurements/companies/economic-activities/1.844"
            }
          }
        }
      ],
      "certificateStartDate": "2024-10-11",
      "certificateEndDate": "2025-03-26",
      "object": "A) LA REALIZACIÓN DE ESTUDIOS Y PROYECTOS DE INTERIORISMO Y DECORACIÓN DE INTERIORES. B) COMPRA, VENTA, DISTRIBUCIÓN Y DISEÑO DE TODO TIPO DE MOBILIARIO, OBJETOS Y APARATOS DE ILUMINACIÓN Y MATERIALES DE CONSTRUCCIÓN. C) LA PRESTACIÓN DE SERVICIOS RELACIONADOS CON LA REFORMA, REPARACIÓN, CONSERVACIÓN Y MANTENIMIENTO DE EDIFICIOS, VIVIENDAS, LOCALES COMERCIALES, OFICINAS Y NAVES INDUSTRIALES. D) LA REALIZACIÓN DE TODO TIPO DE ACTIVIDADES DE CARÁCTER INMOBILIARIO, EN ESPECIAL, LAS RELATIVAS A LA ADQUISICIÓN, TENENCIA, ARRENDAMIENTO, ENAJENACIÓN, PROMOCIÓN, REHABILITACIÓN, EXPLOTACIÓN Y VENTA POR CUALQUIER TÍTULO DE TODA CLASE DE INMUEBLES. E) LA COMUNICACIÓN INTEGRAL DE SERVICIOS DE PUBLICIDAD Y RELACIONES PÚBLICAS, MARKETING Y ESTUDIOS DE MERCADO, PROMOCIONES Y MECENAZGO, DISEÑO Y ARTES GRÁFICAS.",
      "mainEntityOfPage": "https://www.contratacion.euskadi.eus/webkpe00-kperoc/es/ac71aBusquedaRegistrosWar/empresa/09849",
      "_links": {
        "self": {
          "name": "IMAGENCIA BILBAO SL",
          "href": "https://api.euskadi.eus/procurements/companies/09849"
        }
      }
    },
    {
      "name": "ALEXANDER SANTANA COLORADO",
      "registrationNumber": "08796",
      "identificationNumber": "58014830K",
      "address": "AVENIDA SANTIAGO, 37 BAJO 01",
      "location": {
        "postalCode": "01003",
        "municipality": "Vitoria-Gasteiz",
        "county": "Araba/Álava",
        "municipalityId": "059",
        "countyId": "01"
      },
      "economicActivities": [
        {
          "id": "1.659.4",
          "name": "Venta al por menor de libros, periódicos y artículos de papelería y escritorio",
          "_links": {
            "self": {
              "name": "Venta al por menor de libros, periódicos y artículos de papelería y escritorio",
              "href": "https://api.euskadi.eus/procurements/companies/economic-activities/1.659.4"
            }
          }
        }
      ],
      "certificateStartDate": "2024-10-11",
      "certificateEndDate": "2025-04-07",
      "object": "VENTA AL POR MENOR DE LIBROS, PERIÓDICOS Y ARTÍCULOS DE PAPELERÍA Y ESCRITORIO.",
      "mainEntityOfPage": "https://www.contratacion.euskadi.eus/webkpe00-kperoc/es/ac71aBusquedaRegistrosWar/empresa/08796",
      "_links": {
        "self": {
          "name": "ALEXANDER SANTANA COLORADO",
          "href": "https://api.euskadi.eus/procurements/companies/08796"
        }
      }
    },
    {
      "name": "I-INGENIA INGENIERIA Y ARQUITECTURA, S.A.",
      "registrationNumber": "07209",
      "identificationNumber": "A95158994",
      "address": "Avenida Ribera de Axpe, 34",
      "location": {
        "postalCode": "48950",
        "municipality": "Erandio",
        "county": "Bizkaia",
        "municipalityId": "902",
        "countyId": "48"
      },
      "economicActivities": [
        {
          "id": "1.843.1",
          "name": "Servicios técnicos de ingeniería",
          "_links": {
            "self": {
              "name": "Servicios técnicos de ingeniería",
              "href": "https://api.euskadi.eus/procurements/companies/economic-activities/1.843.1"
            }
          }
        }
      ],
      "certificateStartDate": "2024-10-11",
      "certificateEndDate": "2025-04-10",
      "object": "A. LAS ACTIVIDADES DE INFRAESTRUCTURA, URBANISMO, INGENIERÍA, CONSTRUCCIÓN CIVIL Y OBRA PÚBLICA, GESTIÓN Y SERVICIOS, EDIFICACIÓN, CARTOGRAFÍA, CATASTROS, GEOTECNIA, HIDROLOGÍA Y MEDIO AMBIENTE, LA EJECUCIÓN COMPLETA O POR TRAMOS DE ALBAÑILERÍA, ASÍ COMO DE TODA CLASE DE CONSTRUCCIÓN, REPARACIÓN Y CONSERVACIÓN POR CUENTA PROPIA O DE TERCEROS. B. LA COMPRAVENTA Y ALQUILER DE EDIFICACIONES EN SU TOTALIDAD, POR PARTE O PARA LOCALES DE NEGOCIOS O INDUSTRIALES CONSTRUIDAS PARA TAL FIN, DIRECTAMENTE O POR MEDIO DE CONTRATISTAS, SUBCONTRATISTAS O EN CONSTRUCCIÓN. C. LA COMPRAVENTA DE TODA CLASE DE MATERIALES AUXILIARES O ANEJOS PARA LA CONSTRUCCIÓN, TODA CLASE DE MAQUINARIA Y ARTÍCULOS DE DECORACIÓN. D. LA REPRESENTACIÓN DE EMPRESAS NACIONALES O EXTRANJERAS PRODUCTORAS DE ARTÍCULOS Y MERCANCÍAS A QUE SE REFIEREN LOS APARTADOS ANTERIORES, ASÍ COMO LA TENENCIA, DISFRUTE Y DISPOSICIÓN DE CUALQUIER FORMA DE TODA CLASE DE ACCIONES, PARTICIPACIONES SOCIALES, OBLIGACIONES, BONOS DE CAJA, CERTIFICADOS DE DEPÓSITO DE TODA CLASE DE EMPRESAS O NEGOCIOS",
      "mainEntityOfPage": "https://www.contratacion.euskadi.eus/webkpe00-kperoc/es/ac71aBusquedaRegistrosWar/empresa/07209",
      "_links": {
        "self": {
          "name": "I-INGENIA INGENIERIA Y ARQUITECTURA, S.A.",
          "href": "https://api.euskadi.eus/procurements/companies/07209"
        }
      }
    },
    {
      "name": "MIREIA DELGADO EXPÓSITO",
      "registrationNumber": "09848",
      "identificationNumber": "44340193B",
      "address": "Calle Barrenkalea",
      "location": {
        "postalCode": "48200",
        "municipality": "Durango",
        "county": "Bizkaia",
        "municipalityId": "027",
        "countyId": "48"
      },
      "economicActivities": [
        {
          "id": "2.826",
          "name": "Personal docente de enseñanzas diversas",
          "_links": {
            "self": {
              "name": "Personal docente de enseñanzas diversas",
              "href": "https://api.euskadi.eus/procurements/companies/economic-activities/2.826"
            }
          }
        },
        {
          "id": "3.016",
          "name": "Humoristas, caricatos, excentr., charlistas, recitadores",
          "_links": {
            "self": {
              "name": "Humoristas, caricatos, excentr., charlistas, recitadores",
              "href": "https://api.euskadi.eus/procurements/companies/economic-activities/3.016"
            }
          }
        }
      ],
      "certificateStartDate": "2024-10-11",
      "certificateEndDate": "2025-04-08",
      "object": "HUMORISTAS, CARICATOS, EXCENTR., CHARLISTAS, RECITADORES.  PERSONAL DOCENTE DE ENSEÑANZAS DIVERSAS.",
      "mainEntityOfPage": "https://www.contratacion.euskadi.eus/webkpe00-kperoc/es/ac71aBusquedaRegistrosWar/empresa/09848",
      "_links": {
        "self": {
          "name": "MIREIA DELGADO EXPÓSITO",
          "href": "https://api.euskadi.eus/procurements/companies/09848"
        }
      }
    },
    {
      "name": "BARIN SA",
      "registrationNumber": "09092",
      "identificationNumber": "A28389880",
      "address": "CAÑAMARJEO, 1",
      "location": {
        "postalCode": "28110",
        "municipality": "Algete",
        "county": "Madrid",
        "municipalityId": "009",
        "countyId": "28"
      },
      "economicActivities": [
        {
          "id": "1.161.79",
          "name": "COM.MAY.INTERINDUSTRIAL EXCEP. QUIMICA",
          "_links": {
            "self": {
              "name": "COM.MAY.INTERINDUSTRIAL EXCEP. QUIMICA",
              "href": "https://api.euskadi.eus/procurements/companies/economic-activities/1.161.79"
            }
          }
        },
        {
          "id": "1.617.9",
          "name": "Venta al por mayor interindustrial de otros productos n.c.o.p",
          "_links": {
            "self": {
              "name": "Venta al por mayor interindustrial de otros productos n.c.o.p",
              "href": "https://api.euskadi.eus/procurements/companies/economic-activities/1.617.9"
            }
          }
        }
      ],
      "certificateStartDate": "2024-10-10",
      "certificateEndDate": "2025-04-08",
      "object": "- LA FABRICACIÓN, COMRCIALIZACIÓN, IMPORTACIÓN Y EXPORTACIÓN DE TODA CLASE DE MAQUINARIA, ELEMENTOS Y ACCESORIOS.  ESTA ACTIVIDAD SE CONSDIERA COMO PRINCIPAL A EFECTOS DEL ARTÍCULO 20 DE LA LEY 14/2013 DE 27 DE SEPTIEMBRE Y TIENE CNAE 4669. \n-LA INSTALACIÓN REPARACIÓN Y MANTENIMIENTO DE MAQUINARIA Y EQUIPOS ELÉCTRICOS.",
      "mainEntityOfPage": "https://www.contratacion.euskadi.eus/webkpe00-kperoc/es/ac71aBusquedaRegistrosWar/empresa/09092",
      "_links": {
        "self": {
          "name": "BARIN SA",
          "href": "https://api.euskadi.eus/procurements/companies/09092"
        }
      }
    },
    {
      "name": "FEDERICO JOSÉ SORIANO PELÁEZ",
      "registrationNumber": "06817",
      "identificationNumber": "50303648A",
      "address": "Avenida de Levante 41",
      "location": {
        "postalCode": "28016",
        "municipality": "Madrid",
        "county": "Madrid",
        "municipalityId": "079",
        "countyId": "28"
      },
      "economicActivities": [
        {
          "id": "2.411",
          "name": "Arquitectos",
          "_links": {
            "self": {
              "name": "Arquitectos",
              "href": "https://api.euskadi.eus/procurements/companies/economic-activities/2.411"
            }
          }
        }
      ],
      "certificateStartDate": "2024-10-10",
      "certificateEndDate": "2025-04-10",
      "object": "ARQUITECTO",
      "mainEntityOfPage": "https://www.contratacion.euskadi.eus/webkpe00-kperoc/es/ac71aBusquedaRegistrosWar/empresa/06817",
      "_links": {
        "self": {
          "name": "FEDERICO JOSÉ SORIANO PELÁEZ",
          "href": "https://api.euskadi.eus/procurements/companies/06817"
        }
      }
    },
    {
      "name": "NORMEDAN, S.L.L.",
      "registrationNumber": "02148",
      "identificationNumber": "B01274166",
      "address": "POLÍGONO PLAZAOLA. MANZANA F- 2º C",
      "location": {
        "postalCode": "31195",
        "municipality": "Berrioplano/Berriobeiti",
        "county": "Navarra",
        "municipalityId": "902",
        "countyId": "31"
      },
      "economicActivities": [
        {
          "id": "1.619.2",
          "name": "Venta al por mayor de aparatos e instrumentos médicos, ortopédicos, ópticos",
          "_links": {
            "self": {
              "name": "Venta al por mayor de aparatos e instrumentos médicos, ortopédicos, ópticos",
              "href": "https://api.euskadi.eus/procurements/companies/economic-activities/1.619.2"
            }
          }
        },
        {
          "id": "1.659.3",
          "name": "Venta al por menor de aparatos médicos, ortopédicos, ópticos y fotográficos",
          "_links": {
            "self": {
              "name": "Venta al por menor de aparatos médicos, ortopédicos, ópticos y fotográficos",
              "href": "https://api.euskadi.eus/procurements/companies/economic-activities/1.659.3"
            }
          }
        }
      ],
      "certificateStartDate": "2024-10-10",
      "certificateEndDate": "2025-04-02",
      "object": "LA DISTRIBUCIÓN Y COMERCIALIZACIÓN DE MATERIAL EN CENTROS MÉDICOS. LA FORMACIÓN DEL PERSONAL SANITARIOS EN UTILIZACIÓN, MANEJO Y APLICACIÓN DE LOS PRODUCTOS DISTRIBUIDOS Y COMERCIALIZADOS MEDIANTE TÉCNICAS DE DEMOSTRACIÓN, PRESENTACIONES TEÓRICAS, ESTUDIOS Y ESTUDIOS CLÍNICOS",
      "mainEntityOfPage": "https://www.contratacion.euskadi.eus/webkpe00-kperoc/es/ac71aBusquedaRegistrosWar/empresa/02148",
      "_links": {
        "self": {
          "name": "NORMEDAN, S.L.L.",
          "href": "https://api.euskadi.eus/procurements/companies/02148"
        }
      }
    }
  ]
}