{
  "totalItems": 9042,
  "totalPages": 905,
  "currentPage": 274,
  "itemsOfPage": 10,
  "items": [
    {
      "name": "RECUPERADOS ISASI, S.L.",
      "registrationNumber": "07887",
      "identificationNumber": "B75104448",
      "address": "POL.ETXEZARRETA, 15",
      "location": {
        "postalCode": "20749",
        "municipality": "Aizarnazabal",
        "county": "Gipuzkoa",
        "municipalityId": "003",
        "countyId": "20"
      },
      "economicActivities": [
        {
          "id": "1.621",
          "name": "Venta al por mayor de chatarra y metales de desecho férreos y no férreos",
          "_links": {
            "self": {
              "name": "Venta al por mayor de chatarra y metales de desecho férreos y no férreos",
              "href": "https://api.euskadi.eus/procurements/companies/economic-activities/1.621"
            }
          }
        }
      ],
      "certificateStartDate": "2025-09-15",
      "certificateEndDate": "2026-03-11",
      "object": "1.- EL COMERCIO, COMPRAVENTA DE METALES, PRODUCTOS FÉRRICOS, ACEROS, PLÁSTICOS, MADERA, PAPEL, CARTÓN, ALUMINIOS, CHATARRA Y PRODUCTOS DE DESECHO, AL POR MAYOR Y AL POR MENOR. 2.- LA REPARACIÓN, AGRUPACIÓN, ADECUACIÓN, RECICLAJE Y EMBALAJE DE TODO TIPO DE METALES, PRODUCTOS FÉRRICOS, ACEROS, PLÁSTICOS, MADERA, PAPEL, CARTÓN, ALUMINIO, CHATARRA Y PRODUCTOS DE DESECHO; ASÍ COMO LA COMPRAVENTA AL POR MAYOR Y MENOR DE LOS PRODUCTOS TERMINADOS Y RECICLADOS.",
      "mainEntityOfPage": "https://www.contratacion.euskadi.eus/webkpe00-kperoc/es/ac71aBusquedaRegistrosWar/empresa/07887",
      "_links": {
        "self": {
          "name": "RECUPERADOS ISASI, S.L.",
          "href": "https://api.euskadi.eus/procurements/companies/07887"
        }
      }
    },
    {
      "name": "GESTIONA XXI CONSULTING SL",
      "registrationNumber": "05223",
      "identificationNumber": "B95172102",
      "address": "Avda. Atxabiribil, nº 22-A, bajo dcha",
      "location": {
        "postalCode": "48600",
        "municipality": "Sopela",
        "county": "Bizkaia",
        "municipalityId": "085",
        "countyId": "48"
      },
      "economicActivities": [
        {
          "id": "1.842",
          "name": "Servicios financieros y contables",
          "_links": {
            "self": {
              "name": "Servicios financieros y contables",
              "href": "https://api.euskadi.eus/procurements/companies/economic-activities/1.842"
            }
          }
        },
        {
          "id": "1.846",
          "name": "Empresas de estudios de mercado",
          "_links": {
            "self": {
              "name": "Empresas de estudios de mercado",
              "href": "https://api.euskadi.eus/procurements/companies/economic-activities/1.846"
            }
          }
        },
        {
          "id": "1.932.1",
          "name": "Enseñanza de formación y perfeccionamiento profesional no superior",
          "_links": {
            "self": {
              "name": "Enseñanza de formación y perfeccionamiento profesional no superior",
              "href": "https://api.euskadi.eus/procurements/companies/economic-activities/1.932.1"
            }
          }
        },
        {
          "id": "1.932.2",
          "name": "Enseñanza de formación y perfeccionamiento profesional superior",
          "_links": {
            "self": {
              "name": "Enseñanza de formación y perfeccionamiento profesional superior",
              "href": "https://api.euskadi.eus/procurements/companies/economic-activities/1.932.2"
            }
          }
        },
        {
          "id": "1.934",
          "name": "Enseñanza fuera de establecimiento permanente",
          "_links": {
            "self": {
              "name": "Enseñanza fuera de establecimiento permanente",
              "href": "https://api.euskadi.eus/procurements/companies/economic-activities/1.934"
            }
          }
        }
      ],
      "certificateStartDate": "2025-09-15",
      "certificateEndDate": "2026-03-15",
      "object": "A.- LA PRESTACIÓN DE SERVICIOS A CUALESQUIERA EMPRESAS Y/O ENTIDADES PÚBLICAS O SEMIPÚBLICAS, ESPECIALMENTE A SU ALTA DIRECCIÓN E INFORMACIÓN, ESTUDIO, PROMOCIÓN, GESTIÓN, ADMINISTRACIÓN Y EXPLOTACIÓN DE NEGOCIOS Y UNIDADES EMPRESARIALES, TANTO EN EL MOMENTO DE CREACIÓN DE LAS MISMAS Y SU LANZAMIENTO AL MERCADO COMO EN SU POSTERIOR DESARROLLO,A SÍ COMO EN LO QUE TENGA RELACIÓN CON LA NECESARIA INTERLOCUCIÓN DE LAS EMPRESAS CON OTROS AGENTES ECONÓMICOS, NACIONALES E INTERNACIONALES.\r\nB.- EL ASESORAMIENTO EMPRESARIAL EN ÁREAS FUNCIONALES DE LA DIRECCIÓN DE EMPRESAS, COMO SON LA CONSULTORÍA, LA FORMACIÓN, LA ORGANIZACIÓN, LA PRODUCCIÓN, LA GESTIÓN DE RECURSOS HUMANOS, LA INTERLOCUCIÓN CON AGENTES ECONÓMICOS EXTERNOS, LA ADMINISTRACIÓN Y LAS FINANZAS, LOS ASPECTOS JURÍDICOS Y FISCALES Y LA COMERCIALIZACIÓN, PARA CUALESQUIERA NEGOCIOS Y UNIDADES EMPRESARIALES, TANTO EN EL MOMENTO DE LA CREACIÓN DE LAS MISMAS Y SU LANZAMIENTO AL MERCADO COMO SU POSTERIOR DESARROLLO. \r\nC.- LA PRESTACIÓN DE SERVICIOS DE INFORMACIÓN, INTERMEDIACIÓN Y ASESORAMIENTO FINANCIEROS EN EL ÁMBITO DE LOS MERCADOS DE INVERSIÓN, DE CAPITALES, DE DIVISAS, DE RELACIONES BANCARIAS, DE GESTIÓN DE CARTERA DE VALORES Y EN OTROS NEGOCIOS JURÍDICOS DENTRO DEL ESTRICTO ÁMBITO FINANCIERO, EXCLUÍDAS TODAS AQUELLAS ACTIVIDADES PARA CUYOS EJERCICIOS LA LEY EXIJA REQUISITOS ESPECIALES QUE NO QUEDEN CUMPLIDOS POR ESTA SOCIEDAD, ESPECIALMENTE LOS RELATIVOS A LA LEY DEL MERCADO DE VALORES Y DE INVERSIONES COLECTIVAS. \r\nD.- LA ADQUISICIÓN POR CUALQUIER TÍTULO DE BIENES MUEBLES, PARCELACIÓN Y URBANIZACIÓN DE TERRENOS, CONSTRUCCIÓN DE OBRAS Y EDIFICIOS, SU VENTA, PERMUTA, HIPOTECA Y EN GENERAL DISPOSICIÓN DE LOS TERRENOS O EDIFICIOS EN BLOQUE O POR PISOS, ASÍ COMO SU CONSERVACIÓN Y EXPLOTACIÓN EN ARRIENDO O POR CUALQUIER OTRO TÍTULO DE CESIÓN TEMPORAL, TODO ELLO DENTRO DEL MARCO DE LA LEGISLACIÓN GENERAL Y EN SU CASO DE VIVIENDAS DE PROTECCIÓN GENERAL Y EN SU CASO DE VIVIENDAS DE PROTECCIÓN OFICIAL, DE CENTROS Y ZONAS TURÍSTICAS Y CUALQUIER OTRA QUE PROCEDA, Y EN GENERAL LA PROMOCIÓN, GESTIÓN Y DESARROLLO DE TODO TIPO DE OPERACIONES INMOBILIARIAS Y URBANÍSTICAS.\r\nE.- LA PRESTACIÓN DE SERVICIOS DE ASESORAMIENTO E INTERMEDIACIÓN COMERCIAL TANTO ENTRE NACIONALES COMO EXTRANJEROS, CON LA POSIBILIDAD DE IMPORTAR Y EXPORTAR MERCANCÍAS, BIENES Y SERVICIOS EN TAL INTERMEDIACIÓN, INCLUYENDO ENTRE OTROS LOS SERVICIOS DE AGENCIA, COMISIÓN, DISTRIBUCIÓN, REPRESENTACIÓN, CONSIGNACIÓN Y MEDIACIÓN EN GENERAL, INCLUSO EN EL EXTRANJERO, EN OPERACIONES DE COMPRA Y VENTA, ASÍ COMO LOS SERVICIOS DE ASESORAMIENTO, ANÁLISIS Y GESTIÓN A EMPRESAS, EN MATERIA COMERCIAL, FINANCIERA, ADMINISTRATIVA, MARKETING Y ESTRATEGIA Y DE PERSONAL SIEMPRE RESPECTO A INTERCAMBIOS COMERCIALES CON NACIONALES Y/O EXTRANJEROS.\r\nE.- LA PRESTACIÓN DE SERVICIOS DE ASESORAMIENTO E INTERMEDIACIÓN COMERCIAL TANTO ENTRE NACIONALES COMO EXTRANJEROS, CON LA POSIBILIDAD DE IMPORTAR Y EXPORTAR MERCANCÍAS, BIENES Y SERVICIOS EN TAL INTERMEDIACIÓN, INCLUYENDO ENTRE OTROS LOS SERVICIOS DE AGENCIA, COMISIÓN, DISTRIBUCIÓN, REPRESENTACIÓN, CONSIGNACIÓN Y MEDIACIÓN EN GENERAL, INCLUSO EN EL EXTRANJERO, EN OPERACIONES DE COMPRA Y VENTA, ASÍ COMO LOS SERVICIOS DE ASESORAMIENTO, ANÁLISIS Y GESTIÓN A EMPRESAS, EN MATERIA COMERCIAL, FINANCIERA, ADMINSTRATIVA, MARKETING Y ESTRATEGIA Y DE PERSONAL SIEMPRE RESPECTO A INTERCAMBIOS COMERCIALES CON NACIONALES Y/O EXTRANJEROS.\r\nF.- EL DESARROLLO E IMPLANTACIÓN DE NUEVAS TECNOLOGÍAS DE APLICACIÓN EN EL MANAGEMENT Y GESTIÓN DE EMPRESAS, TANTO EN LO RELATIVO A LA ADMINISTRACIÓN Y FINANZAS, COMO A ASPECTOS RELACIONADOS CON LA OPTIMIZACIÓN DE PROCESOS PRODUCTIVOS Y DE COMERCIALIZACIÓN, ASUMIENDO LA RESPONSABILIDAD DE LA CONTINUIDAD, MEJORA Y FORTALECIMIENTO EN EL DISEÑO E INPLANTACIÓN DE LAS MISMAS.\r\nG.- EL ASESORAMIENTO EN LA IDENTIFICACIÓN, EL ESTUDIO, EL DESARROLLO, LA PLANIFICACIÓN, EL LANZAMIENTO Y LA GESTIÓN DE NUEVAS OPORTUNIDADES DE NEGOCIO, EN TODO LO QUE AFECTE Y QUE SEA , TANTO NECESARIO COMO ACCESORIO A SU VIABILIDAD INCLUYENDO LA FORMACIÓN EN DIFERENTES ÁREAS DE GESTIÓN Y EL ASESORAMIENTO PARA CREAR EMPRESAS; ASÍ COMO LA CONSOLIDACIÓN DE LAS MISMAS A PROMOTORES EMPRESARIALES PÚBLICOS O PRIVADOS.\r\nH.- LA PARTICIPACIÓN EN EL DESARROLLO, PROMOCIÓN Y PUESTA EN MARCHA DE NUEVAS OPORTUNIDADES DE NEGOCIO, MEDIANTE LA PARTICIPACIÓN ACCIONARIAL Y/O EN LOS ÓRGANOS DE GESTIÓN EN EMPRESAS DE NUEVA CREACIÓN O EN EMPRESAS YA EXISTENTES.\r\nI.- LA EXPLOTACIÓN Y COMERCIALIZACIÓN EN GENERAL DE PATENTES, NACIONALES O EXTRANJERAS, Y OTROS DERECHOS COMPRENDIDOS EN EL ÁMBITO DE LA PROPIEDAD INDUSTRIAL, INCLUÍDOS LOS MÉTODOS, PROCEDIMIENTOS Y TECNOLOGÍAS EN TRABAJOS INDUSTRIALES, EN ACTIVIDADES COMERCIALES, EN LA PRESTACIÓN DE SERVICIOS Y LA SISTEMÁTICA DE BÚSQUEDA DE OPORTUNIDADES",
      "mainEntityOfPage": "https://www.contratacion.euskadi.eus/webkpe00-kperoc/es/ac71aBusquedaRegistrosWar/empresa/05223",
      "_links": {
        "self": {
          "name": "GESTIONA XXI CONSULTING SL",
          "href": "https://api.euskadi.eus/procurements/companies/05223"
        }
      }
    },
    {
      "name": "ZENTA21 PROYECTOS Y EQUIPAMIENTOS, S.L.",
      "registrationNumber": "03748",
      "identificationNumber": "B95469177",
      "address": "C/ IRUÑA, 1-BIS-3º DPTO. 16",
      "location": {
        "postalCode": "48014",
        "municipality": "Bilbao",
        "county": "Bizkaia",
        "municipalityId": "020",
        "countyId": "48"
      },
      "economicActivities": [
        {
          "id": "1.501.1",
          "name": "Construcción completa, reparación y conservación de edificaciones",
          "_links": {
            "self": {
              "name": "Construcción completa, reparación y conservación de edificaciones",
              "href": "https://api.euskadi.eus/procurements/companies/economic-activities/1.501.1"
            }
          }
        },
        {
          "id": "1.843.9",
          "name": "Otros servicios técnicos n.c.o.p",
          "_links": {
            "self": {
              "name": "Otros servicios técnicos n.c.o.p",
              "href": "https://api.euskadi.eus/procurements/companies/economic-activities/1.843.9"
            }
          }
        }
      ],
      "certificateStartDate": "2025-09-15",
      "certificateEndDate": "2026-03-15",
      "object": "A) LA REALIZACIÓN DE PROYECTOS, DECORACIONES Y EQUIPAMIENTOS, ASÍ COMO REFORMAS, REHABILITACIONES, SUPERVISIÓN Y CONTROL DE OBRAS Y COORDINACIÓN DE GREMIOS. B) LA COMPRA, VENTA Y ARRENDAMIENTO DE BIENES MUEBLES, INMUEBLES Y SOLARES",
      "mainEntityOfPage": "https://www.contratacion.euskadi.eus/webkpe00-kperoc/es/ac71aBusquedaRegistrosWar/empresa/03748",
      "_links": {
        "self": {
          "name": "ZENTA21 PROYECTOS Y EQUIPAMIENTOS, S.L.",
          "href": "https://api.euskadi.eus/procurements/companies/03748"
        }
      }
    },
    {
      "name": "SEMICROL, S.L.",
      "registrationNumber": "06758",
      "identificationNumber": "B39024732",
      "address": "C/ Isabel Torres 7, Parque Científico y Tecnológico de Cantabria",
      "location": {
        "postalCode": "39011",
        "municipality": "Santander",
        "county": "Cantabria",
        "municipalityId": "075",
        "countyId": "39"
      },
      "economicActivities": [
        {
          "id": "1.659.2",
          "name": "Venta al por menor de muebles de oficina y máquinas y equipos de oficina",
          "_links": {
            "self": {
              "name": "Venta al por menor de muebles de oficina y máquinas y equipos de oficina",
              "href": "https://api.euskadi.eus/procurements/companies/economic-activities/1.659.2"
            }
          }
        },
        {
          "id": "1.845",
          "name": "Explotación electrónica por cuenta de terceros",
          "_links": {
            "self": {
              "name": "Explotación electrónica por cuenta de terceros",
              "href": "https://api.euskadi.eus/procurements/companies/economic-activities/1.845"
            }
          }
        }
      ],
      "certificateStartDate": "2025-09-15",
      "certificateEndDate": "2026-03-15",
      "object": "EL DISEÑO, FABRICACIÓN, DISTRIBUCIÓN Y VENTA DE EQUIPOS ELECTRÓNICOS, INCLUYENDO ORDENADORES, DISEÑO Y MANTENIMIENTO DE PROGRAMAS PARA TODO TIPO DE ORDENADOR, ASÍ COMO LA COMERCIALIZACIÓN DE PRODUCTOS RELACIONADOS CON LA ELECTRICIDAD EN GENERAL",
      "mainEntityOfPage": "https://www.contratacion.euskadi.eus/webkpe00-kperoc/es/ac71aBusquedaRegistrosWar/empresa/06758",
      "_links": {
        "self": {
          "name": "SEMICROL, S.L.",
          "href": "https://api.euskadi.eus/procurements/companies/06758"
        }
      }
    },
    {
      "name": "RED KUORUM, S.L.",
      "registrationNumber": "05451",
      "identificationNumber": "B01539014",
      "address": "Sancho el Sabio, núm. 10, piso 3º Izda.",
      "location": {
        "postalCode": "01008",
        "municipality": "Vitoria-Gasteiz",
        "county": "Araba/Álava",
        "municipalityId": "059",
        "countyId": "01"
      },
      "economicActivities": [
        {
          "id": "1.847",
          "name": "Servicios de consultoría",
          "_links": {
            "self": {
              "name": "Servicios de consultoría",
              "href": "https://api.euskadi.eus/procurements/companies/economic-activities/1.847"
            }
          }
        }
      ],
      "certificateStartDate": "2025-09-15",
      "certificateEndDate": "2026-03-15",
      "object": "LA PRESTACIÓN DE SERVICIOS DE CONSULTORÍA DE GESTIÓN EMPRESARIAL. C.N.A.E. ACTIVIDAD PRINCIPAL 7022",
      "mainEntityOfPage": "https://www.contratacion.euskadi.eus/webkpe00-kperoc/es/ac71aBusquedaRegistrosWar/empresa/05451",
      "_links": {
        "self": {
          "name": "RED KUORUM, S.L.",
          "href": "https://api.euskadi.eus/procurements/companies/05451"
        }
      }
    },
    {
      "name": "CORDIS MEDICAL SPAIN, S.L.",
      "registrationNumber": "08775",
      "identificationNumber": "B02702975",
      "address": "Avenida del General Perón 29, planta 16",
      "location": {
        "postalCode": "28020",
        "municipality": "Madrid",
        "county": "Madrid",
        "municipalityId": "079",
        "countyId": "28"
      },
      "economicActivities": [
        {
          "id": "1.614.1",
          "name": "Venta al por mayor de productos farmacéuticos y medicamentos",
          "_links": {
            "self": {
              "name": "Venta al por mayor de productos farmacéuticos y medicamentos",
              "href": "https://api.euskadi.eus/procurements/companies/economic-activities/1.614.1"
            }
          }
        }
      ],
      "certificateStartDate": "2025-09-15",
      "certificateEndDate": "2026-03-15",
      "object": "A) LA ACTIVIDAD DE GESTIÓN Y ADMINISTRACIÓN DE VALORES REPRESENTATIVOS DE LOS FONDOS PROPIOS DE ENTIDADES NO RESIDENTES EN TERRITORIO ESPAÑOL, MEDIANTE LA CORRESPONDIENTE ORGANIZACIÓN DE MEDIOS MATERIALES Y PERSONALES,  EN LOS TÉRMINOS DEL ARTÍCULO 107 DE LA LEY 27/2014 DE 27 DE NOVIEMBRE DEL IMPUESTO SOBRE SOCIEDADES. LA COMPRA, SUSCRIPCIÓN, TENENCIA, GESTIÓN, ADMINISTRACIÓN, PERMUTA Y VENTA DE VALORES MOBILIARIOS, NACIONALES O EXTRANJEROS POR CUENTA PROPIA Y SIN ACTIVIDAD DE INTERMEDIACIÓN, MEDIANTE LA CORRESPONDIENTE ORGANIZACIÓN DE MEDIOS MATERIALES Y PERSONALES. CÓDIGO CNAE 6420. B) LA PROMOCIÓN Y EJECUCIÓN DE TODO TIPO DE PROMOCIONES INMOBILIARIAS, URBANÍSTICAS O DE ORDENACIÓN Y DESARROLLO DEL SUELO, YA SEA CON FINES INDUSTRIALES, COMERCIALES O DE HABITACIÓN. ESTO INCLUIRÁ LA COMPRA, TENENCIA, GESTIÓN, ADMINISTRACIÓN, PERMUTA Y VENTA DE ACTIVOS INMOBILIARIOS DE TODAS CLASES. CÓDIGOS CNAE 4110 Y 6832.",
      "mainEntityOfPage": "https://www.contratacion.euskadi.eus/webkpe00-kperoc/es/ac71aBusquedaRegistrosWar/empresa/08775",
      "_links": {
        "self": {
          "name": "CORDIS MEDICAL SPAIN, S.L.",
          "href": "https://api.euskadi.eus/procurements/companies/08775"
        }
      }
    },
    {
      "name": "MICROTOOLS SISTEMAS INFORMÁTICOS, S.A.",
      "registrationNumber": "05698",
      "identificationNumber": "A20757522",
      "address": "C/ Resurreccion Mª de Azkue, 4 bajo",
      "location": {
        "postalCode": "20018",
        "municipality": "Donostia / San Sebastián",
        "county": "Gipuzkoa",
        "municipalityId": "069",
        "countyId": "20"
      },
      "economicActivities": [
        {
          "id": "1.659.2",
          "name": "Venta al por menor de muebles de oficina y máquinas y equipos de oficina",
          "_links": {
            "self": {
              "name": "Venta al por menor de muebles de oficina y máquinas y equipos de oficina",
              "href": "https://api.euskadi.eus/procurements/companies/economic-activities/1.659.2"
            }
          }
        }
      ],
      "certificateStartDate": "2025-09-15",
      "certificateEndDate": "2026-03-15",
      "object": "COMPRAVENTA, MANTENIMIENTO Y REPARACION DE ORDENADORES. COMPRAVENTA Y DISEÑO DE APLICACIONES INFORMÁTICAS Y SU CORRESPONDIENTE SOPORTE TÉCNICO. INSTALACIÓN DE TODO TIPO DE REDES INFORMÁTICAS. COMPRAVENTA DE TODO TIPO DE FUNGIBLE INFORMÁTICO. IMPARTIR FORMACIÓN EN TODO TIPO DE APLICACIONES INFORMÁTICAS, BIEN SEAN GENÉRICAS O A MEDIDA: LA ENSEÑANZA DE LENGUAJES DE PROGRAMACIÓN, SISTEMAS OPERATIVOS, REDES LOCALES Y SISTEMAS MULTIMEDIA; INSTRUCCIÓN EN EL ACCESO Y MANEJO DE REDES DE INFORMACIÓN, CORREO ELECTRÓNICO Y TELECOMERCIO. SE INCLUYE TAMBIÉN LA VENTA DE LIBROS Y MATERIAL NECESARIO EN LA IMPARTICIÓN DE LAS CLASES",
      "mainEntityOfPage": "https://www.contratacion.euskadi.eus/webkpe00-kperoc/es/ac71aBusquedaRegistrosWar/empresa/05698",
      "_links": {
        "self": {
          "name": "MICROTOOLS SISTEMAS INFORMÁTICOS, S.A.",
          "href": "https://api.euskadi.eus/procurements/companies/05698"
        }
      }
    },
    {
      "name": "MEIVCORE EUSKADI, S.L.",
      "registrationNumber": "06508",
      "identificationNumber": "B75189118",
      "address": "PG BORDA BERRI 4 C1",
      "location": {
        "postalCode": "20140",
        "municipality": "Andoain",
        "county": "Gipuzkoa",
        "municipalityId": "009",
        "countyId": "20"
      },
      "economicActivities": [
        {
          "id": "1.504.1",
          "name": "Instalaciones eléctricas en general",
          "_links": {
            "self": {
              "name": "Instalaciones eléctricas en general",
              "href": "https://api.euskadi.eus/procurements/companies/economic-activities/1.504.1"
            }
          }
        }
      ],
      "certificateStartDate": "2025-09-15",
      "certificateEndDate": "2026-03-15",
      "object": "1.INGENIRÍA, ESTUDIO Y PROYECTOS DE INSTALACIONES ELÉCTRICAS DE ALTA, MEDIA, Y BAJA TENSIÓN. 2. DIRECCIÓN DE· OBRA Y MONTAJE DE ·INSTALACIONES ELÉCTRICAS DE ALTA, MEDÍA Y ·BAJA TENSIÓN. 3. FABRICACIÓN DE· ARMARIOS ELÉCTRICOS DE POTENCIA Y CONTROL. 4. AUTOMATIZACIÓN Y CONTROL DE PROCESOS. 5. INSTALACIONES DE CLIMATIZACIÓN. 6. SISTEMAS DE COMUNICACIÓN INDUSTRIAL. 7. INSTALACIONES ESPECIALES: CONTROL DE ACCESOS, VOZ Y DATOS, CCTV, SEGURIDAD. 8. SERVICIOS DE MANTENIMIENTO ELECTROMECÁNICO EN ALTA, MEDIA Y BAJA TENSIÓN. 9 . AUDITORÍAS MECÁNICAS Y ELÉCTRICAS. 10. ASESORAMIENTO Y OPTIMIZACIÓN DE SUMINISTROS ELÉCTRICOS. 11. GESTIÓN DE MANTENIMIENTO CORRECTIVO, PREVENTIVO, ACTIVOS Y RECAMBIOS, CONTROL DE ACTIVOS/EQUIPOS. PLANIFICACIÓN PREVENTIVOS. CONTROL DE OPERARIOS. 12. TODO TIPO DE INSTALACIONES MECÁNICAS Y TRABAJOS DE SOLDADURA. 13. FABRICACIÓN DE ESTRUCTURAS.\r\n\r\nCNAES:\r\n2562-INGENIERÍA MECÁNICA POR CUENTA DE TERCEROS.\r\n3312-REPARACIÓN DE MAQUINARIA.\r\n4321-INSTALACIONES ELÉCTRICAS.\r\n",
      "mainEntityOfPage": "https://www.contratacion.euskadi.eus/webkpe00-kperoc/es/ac71aBusquedaRegistrosWar/empresa/06508",
      "_links": {
        "self": {
          "name": "MEIVCORE EUSKADI, S.L.",
          "href": "https://api.euskadi.eus/procurements/companies/06508"
        }
      }
    },
    {
      "name": "BIKAI ARQUITECTURA, S.L.",
      "registrationNumber": "08780",
      "identificationNumber": "B95967097",
      "address": "Calle Zankoeta",
      "location": {
        "postalCode": "48013",
        "municipality": "Bilbao",
        "county": "Bizkaia",
        "municipalityId": "020",
        "countyId": "48"
      },
      "economicActivities": [
        {
          "id": "1.501.1",
          "name": "Construcción completa, reparación y conservación de edificaciones",
          "_links": {
            "self": {
              "name": "Construcción completa, reparación y conservación de edificaciones",
              "href": "https://api.euskadi.eus/procurements/companies/economic-activities/1.501.1"
            }
          }
        },
        {
          "id": "1.833.21",
          "name": "Promoción de edificaciones - Cuota fija",
          "_links": {
            "self": {
              "name": "Promoción de edificaciones - Cuota fija",
              "href": "https://api.euskadi.eus/procurements/companies/economic-activities/1.833.21"
            }
          }
        },
        {
          "id": "1.843.2",
          "name": "Servicios técnicos de arquitectura y urbanismo",
          "_links": {
            "self": {
              "name": "Servicios técnicos de arquitectura y urbanismo",
              "href": "https://api.euskadi.eus/procurements/companies/economic-activities/1.843.2"
            }
          }
        }
      ],
      "certificateStartDate": "2025-09-15",
      "certificateEndDate": "2026-03-15",
      "object": "ACTIVIDAD PRINCIPAL: 7111.- SERVICIOS TÉCNICOS DE ARQUITECTURA. OTRAS ACTIVIDADES: 4110.- PROMOCIÓN INMOBILIARIA. 4121.- CONSTRUCCIÓN DE EDIFICIOS RESIDENCIALES.",
      "mainEntityOfPage": "https://www.contratacion.euskadi.eus/webkpe00-kperoc/es/ac71aBusquedaRegistrosWar/empresa/08780",
      "_links": {
        "self": {
          "name": "BIKAI ARQUITECTURA, S.L.",
          "href": "https://api.euskadi.eus/procurements/companies/08780"
        }
      }
    },
    {
      "name": "BIZIPOZ ENVEJECIMIENTO ACTIVO, S. COOP. PEQUEÑA, DE INICIATIVA SOCIAL",
      "registrationNumber": "09046",
      "identificationNumber": "F75185744",
      "address": "GOIRU KALEA 1, 4A SAIOLAN",
      "location": {
        "postalCode": "20500",
        "municipality": "Arrasate / Mondragón",
        "county": "Gipuzkoa",
        "municipalityId": "055",
        "countyId": "20"
      },
      "economicActivities": [
        {
          "id": "1.952",
          "name": "Asistencia y servicios sociales en centros no residenciales",
          "_links": {
            "self": {
              "name": "Asistencia y servicios sociales en centros no residenciales",
              "href": "https://api.euskadi.eus/procurements/companies/economic-activities/1.952"
            }
          }
        }
      ],
      "certificateStartDate": "2025-09-15",
      "certificateEndDate": "2026-03-15",
      "object": "LA PRESTACIÓN DE SERVICIOS ASISTENCIALES DE PROMOCIÓN DE LA PARTICIPACIÓN Y LA INCLUSIÓN SOCIALEN EL ÁMBITO DE LOS SERVICIOS SOCIALES. DESARROLLAR PROGRAMAS PARA PROMOVER LA PARTICIPACIÓN CIUDADANA DE LAS PERSONAS MAYORES, NIÑOS, ETC. DESARROLLAR PROYECTOS SOCIALES PARA EL BENEFICIO DE LA SOCIEDAD. CNAE 8899 OTRAS ACTIVIDADES SERV. SOC. SIN ALOJAMIENTO N.C.O.P.",
      "mainEntityOfPage": "https://www.contratacion.euskadi.eus/webkpe00-kperoc/es/ac71aBusquedaRegistrosWar/empresa/09046",
      "_links": {
        "self": {
          "name": "BIZIPOZ ENVEJECIMIENTO ACTIVO, S. COOP. PEQUEÑA, DE INICIATIVA SOCIAL",
          "href": "https://api.euskadi.eus/procurements/companies/09046"
        }
      }
    }
  ]
}