{
  "totalItems": 9042,
  "totalPages": 905,
  "currentPage": 712,
  "itemsOfPage": 10,
  "items": [
    {
      "name": "RECURSOS ESTRUCTURALES S.L.",
      "registrationNumber": "04472",
      "identificationNumber": "B01466556",
      "address": "JUNDIZ, 4 PABELLÓN 7D",
      "location": {
        "postalCode": "01015",
        "municipality": "Vitoria-Gasteiz",
        "county": "Araba/Álava",
        "municipalityId": "059",
        "countyId": "01"
      },
      "economicActivities": [
        {
          "id": "1.507",
          "name": "Construcción, reparación y conservación de toda clase obras",
          "_links": {
            "self": {
              "name": "Construcción, reparación y conservación de toda clase obras",
              "href": "https://api.euskadi.eus/procurements/companies/economic-activities/1.507"
            }
          }
        }
      ],
      "certificateStartDate": "2011-06-27",
      "certificateEndDate": "2011-11-30",
      "object": "LA ADQUISICIÓN, URBANIZACIÓN, PARCELACIÓN, PROMOCIÓN, CONSTRUCCIÓN, EDIFICACIÓN, CONSTITUCIÓN EN PROPIEDAD HORIZONTAL, REFORMA, AMPLIACIÓN, EXPLOTACIÓN DIRECTA O INDIRECTA, ENAJENACIÓN Y EN GENERAL, TODA ACTIVIDAD RELATIVA A BIENES INMUEBLES , Y TODA SUERTE DE INVERSIONES Y PROMOCIONES RELACIONADAS CON EL RAMO DE LA CONSTRUCCIÓN.\r\n\r\nLA REALIZACIÓN DE TODA CLASE DE PROYECTOS DE ARQUITECTURA.\r\n\r\n",
      "mainEntityOfPage": "https://www.contratacion.euskadi.eus/webkpe00-kperoc/es/ac71aBusquedaRegistrosWar/empresa/04472",
      "_links": {
        "self": {
          "name": "RECURSOS ESTRUCTURALES S.L.",
          "href": "https://api.euskadi.eus/procurements/companies/04472"
        }
      }
    },
    {
      "name": "STUDYBOOK, S.A.",
      "registrationNumber": "02243",
      "identificationNumber": "A01056605A",
      "address": "FUEROS, 12",
      "location": {
        "postalCode": "01004",
        "municipality": "Vitoria-Gasteiz",
        "county": "Araba/Álava",
        "municipalityId": "059",
        "countyId": "01"
      },
      "economicActivities": [
        {
          "id": "1.468.3",
          "name": "Fabricación de muebles diversos de madera, junco, mimbre y caña",
          "_links": {
            "self": {
              "name": "Fabricación de muebles diversos de madera, junco, mimbre y caña",
              "href": "https://api.euskadi.eus/procurements/companies/economic-activities/1.468.3"
            }
          }
        },
        {
          "id": "1.659.2",
          "name": "Venta al por menor de muebles de oficina y máquinas y equipos de oficina",
          "_links": {
            "self": {
              "name": "Venta al por menor de muebles de oficina y máquinas y equipos de oficina",
              "href": "https://api.euskadi.eus/procurements/companies/economic-activities/1.659.2"
            }
          }
        },
        {
          "id": "1.659.4",
          "name": "Venta al por menor de libros, periódicos y artículos de papelería y escritorio",
          "_links": {
            "self": {
              "name": "Venta al por menor de libros, periódicos y artículos de papelería y escritorio",
              "href": "https://api.euskadi.eus/procurements/companies/economic-activities/1.659.4"
            }
          }
        }
      ],
      "certificateStartDate": "2011-06-20",
      "certificateEndDate": "2011-10-19",
      "object": "LA FABRICACIÓN Y VENTA DE MOBILIARIO Y EQUIPAMIENTOS DE OFICINA. LA VENTA AL POR MAYOR Y MENOR DE ARTÍCULOS DE LIBRERÍA, PAPELERÍA, REVISTAS, PERIÓDICOS, MATERIAL DE ESCRITORIO , OBJETOS AUXILIARES DE ADMINISTRACIÓN Y PROFESIONALES Y OBJETOS DE REGALO, ASÍ COMO LA REALIZACIÓN DE TODO TIPO DE TRABAJOS DE IMPRENTA",
      "mainEntityOfPage": "https://www.contratacion.euskadi.eus/webkpe00-kperoc/es/ac71aBusquedaRegistrosWar/empresa/02243",
      "_links": {
        "self": {
          "name": "STUDYBOOK, S.A.",
          "href": "https://api.euskadi.eus/procurements/companies/02243"
        }
      }
    },
    {
      "name": "GESTION 10 GESTION & FORMACIÓN S.L.",
      "registrationNumber": "03750",
      "identificationNumber": "B48897664",
      "address": "ANTONIO GURRUCHAGA, Nº 9",
      "location": {
        "postalCode": "48920",
        "municipality": "Portugalete",
        "county": "Bizkaia",
        "municipalityId": "078",
        "countyId": "48"
      },
      "economicActivities": [
        {
          "id": "1.847",
          "name": "Servicios de consultoría",
          "_links": {
            "self": {
              "name": "Servicios de consultoría",
              "href": "https://api.euskadi.eus/procurements/companies/economic-activities/1.847"
            }
          }
        },
        {
          "id": "1.849.6",
          "name": "Servicios de colocación y suministro de personal",
          "_links": {
            "self": {
              "name": "Servicios de colocación y suministro de personal",
              "href": "https://api.euskadi.eus/procurements/companies/economic-activities/1.849.6"
            }
          }
        },
        {
          "id": "1.932.1",
          "name": "Enseñanza de formación y perfeccionamiento profesional no superior",
          "_links": {
            "self": {
              "name": "Enseñanza de formación y perfeccionamiento profesional no superior",
              "href": "https://api.euskadi.eus/procurements/companies/economic-activities/1.932.1"
            }
          }
        },
        {
          "id": "1.934",
          "name": "Enseñanza fuera de establecimiento permanente",
          "_links": {
            "self": {
              "name": "Enseñanza fuera de establecimiento permanente",
              "href": "https://api.euskadi.eus/procurements/companies/economic-activities/1.934"
            }
          }
        }
      ],
      "certificateStartDate": "2011-06-20",
      "certificateEndDate": "2011-11-03",
      "object": "LA ORGANIZACIÓN, GESTIÓN E IMPARTICIÓN DE TODO TIPO DE ACTIVIDADES DE FORMACIÓN DIRIGIDAS A CUALQUIER COLECTIVO, EL ASESORAOMIENTO Y CONSULTORÍA EN LA GESTIÓN DE TODO TIPO DE EMPRESAS, ENTIDADES Y PARTICULARES, LA INTERMEDIACIÓN LABORAL Y DE CUALQUIER TIPO Y EL ALQUILER, COMPRA, VENTA Y DISTRIBUCIÓN DE BIENES MUEBLES E INMUEBLES",
      "mainEntityOfPage": "https://www.contratacion.euskadi.eus/webkpe00-kperoc/es/ac71aBusquedaRegistrosWar/empresa/03750",
      "_links": {
        "self": {
          "name": "GESTION 10 GESTION & FORMACIÓN S.L.",
          "href": "https://api.euskadi.eus/procurements/companies/03750"
        }
      }
    },
    {
      "name": "CONSTRUCCIONES RONTEGUI, S.A.",
      "registrationNumber": "00122",
      "identificationNumber": "A48127559",
      "address": "C/ GOBELAS, Nº 25 - 1º DCHA. C",
      "location": {
        "postalCode": "48930",
        "municipality": "Getxo",
        "county": "Bizkaia",
        "municipalityId": "044",
        "countyId": "48"
      },
      "economicActivities": [
        {
          "id": "1.501.1",
          "name": "Construcción completa, reparación y conservación de edificaciones",
          "_links": {
            "self": {
              "name": "Construcción completa, reparación y conservación de edificaciones",
              "href": "https://api.euskadi.eus/procurements/companies/economic-activities/1.501.1"
            }
          }
        },
        {
          "id": "1.501.2",
          "name": "Construcción completa, reparación y conservación obras civiles",
          "_links": {
            "self": {
              "name": "Construcción completa, reparación y conservación obras civiles",
              "href": "https://api.euskadi.eus/procurements/companies/economic-activities/1.501.2"
            }
          }
        }
      ],
      "certificateStartDate": "2011-06-17",
      "certificateEndDate": "2011-11-02",
      "object": "LA CONSTRUCCIÓN, REPARACIÓN Y DECORACILON DE TODO TIPO DE EDIFICIOS Y LA REALIZACIÓN, TANTO POR CUENTA PROPIA COMO DE TERCEROS, DE CÁLCULOS, ESTUDIOS, PLANOS Y PROYECTOS PARA LA EJECUCIÓN DE TODA CLASE DE OBRAS, CONSTRUCCIONES Y EDIFICACIONES. ENTRE DICHAS OPERACIONES SE COMPRENDEN LAS DE ADQUISICIÓN DE TERRENOS, SU URBANIZACIÓN Y PARCELACIÓN, USO, ARRENDAMIENTO Y VENTA DE LOS MISMOS Y DE LAS VIVIENDAS O ELEMENTOS CONSTRUÍDOS POR LA SOCIEDAD.    ",
      "mainEntityOfPage": "https://www.contratacion.euskadi.eus/webkpe00-kperoc/es/ac71aBusquedaRegistrosWar/empresa/00122",
      "_links": {
        "self": {
          "name": "CONSTRUCCIONES RONTEGUI, S.A.",
          "href": "https://api.euskadi.eus/procurements/companies/00122"
        }
      }
    },
    {
      "name": "MARTA GATELL, S.L.",
      "registrationNumber": "02619",
      "identificationNumber": "B48923155",
      "address": "CARRETERA BILBAO-GALDAKAO, 30 - 3º",
      "location": {
        "postalCode": "48004",
        "municipality": "Bilbao",
        "county": "Bizkaia",
        "municipalityId": "020",
        "countyId": "48"
      },
      "economicActivities": [
        {
          "id": "1.475.4",
          "name": "Encuadernación",
          "_links": {
            "self": {
              "name": "Encuadernación",
              "href": "https://api.euskadi.eus/procurements/companies/economic-activities/1.475.4"
            }
          }
        }
      ],
      "certificateStartDate": "2011-06-17",
      "certificateEndDate": "2011-03-16",
      "object": "LA RESTAURACIÓN Y ENCUADERNACIÓN DE DOCUMENTOS Y LIBROS.\r\n\r\nLA COMPRAVENTA AL POR MENOR DE MATERIAL Y UTENSILIOS PARA ENCUADERNACIÓN Y RESTAURACIÓN.\r\n\r\nEDICIÓN, DISTRIBÚCIÓN Y VENTA DE LIBROS, PUBLICACIONES, DOCUMENTOS Y MATERIAL FONOGRÁFICO Y VIDEOGRÁFICO, ASÍ COMO LA ENSEÑANZA Y FORMACIÓN A EMPRESAS Y PARTICULARES.\r\n\r\nCOMPRA, VENTA, TENENCIA, DISFRUTE Y ADMINISTRACIÓN DE TODA CLASE DE TÍTULOS COMO VALORES INMOBILIARIOS , ACTIVOS FINANCIEROS, DERECHOS VALORES, CUOTAS O PARTICIPACIONES, EN EMPRESAS  INDIVIDUALES O SOCIALES, POR CUENTA PROPIA, EXCEPTUANDO LAS REGULADAS POR LA LEGISLACIÓN DEL MERCADO DE VAOLORES E INSTITUCIONES DE INVERISÓN COLECTIVA. ",
      "mainEntityOfPage": "https://www.contratacion.euskadi.eus/webkpe00-kperoc/es/ac71aBusquedaRegistrosWar/empresa/02619",
      "_links": {
        "self": {
          "name": "MARTA GATELL, S.L.",
          "href": "https://api.euskadi.eus/procurements/companies/02619"
        }
      }
    },
    {
      "name": "ETXEZARRETA ZATARAIN CONSTRUCCIONES, S.L.",
      "registrationNumber": "01469",
      "identificationNumber": "B20474060",
      "address": "C/ NUEVA, Nº 16 - BAJO.",
      "location": {
        "postalCode": "20140",
        "municipality": "Andoain",
        "county": "Gipuzkoa",
        "municipalityId": "009",
        "countyId": "20"
      },
      "economicActivities": [
        {
          "id": "1.501.1",
          "name": "Construcción completa, reparación y conservación de edificaciones",
          "_links": {
            "self": {
              "name": "Construcción completa, reparación y conservación de edificaciones",
              "href": "https://api.euskadi.eus/procurements/companies/economic-activities/1.501.1"
            }
          }
        }
      ],
      "certificateStartDate": "2011-06-14",
      "certificateEndDate": "2011-11-05",
      "object": "LA PROMOCIÓN, CONSTRUCCIÓN, REPARACIÓN Y CONSERVACIÓN DE EDIFICIOS Y OBRA CIVIL, LA ALBAÑILERÍA Y PEQUEÑOS TRABAJOS DE CONSTRUCCIÓN EN GENERAL, LA VENTA DE EDIFICACIONES Y TERRENOS QUE TENGAN LA CONSIDERACIÓN DE SUELO Y LA OBRA PÚBLICA",
      "mainEntityOfPage": "https://www.contratacion.euskadi.eus/webkpe00-kperoc/es/ac71aBusquedaRegistrosWar/empresa/01469",
      "_links": {
        "self": {
          "name": "ETXEZARRETA ZATARAIN CONSTRUCCIONES, S.L.",
          "href": "https://api.euskadi.eus/procurements/companies/01469"
        }
      }
    },
    {
      "name": "INFOTOP OBRAS Y SERVICIOS, S.L.",
      "registrationNumber": "02891",
      "identificationNumber": "B95125365",
      "address": "LANGILERIA, Nº 60-BAJO",
      "location": {
        "postalCode": "48940",
        "municipality": "Erandio",
        "county": "Bizkaia",
        "municipalityId": "902",
        "countyId": "48"
      },
      "economicActivities": [
        {
          "id": "1.843.4",
          "name": "Servicios técnicos de topografía",
          "_links": {
            "self": {
              "name": "Servicios técnicos de topografía",
              "href": "https://api.euskadi.eus/procurements/companies/economic-activities/1.843.4"
            }
          }
        },
        {
          "id": "1.845",
          "name": "Explotación electrónica por cuenta de terceros",
          "_links": {
            "self": {
              "name": "Explotación electrónica por cuenta de terceros",
              "href": "https://api.euskadi.eus/procurements/companies/economic-activities/1.845"
            }
          }
        }
      ],
      "certificateStartDate": "2011-06-10",
      "certificateEndDate": "2011-11-02",
      "object": "LA PRESTACIÓN DE TODO TIPO DE SERVICIOS RELACIONADOS CON LA TOPOGRAFÍA, GEODESIA, Y CARTOGRAFÍA.\r\nLA REALIZACIÓN Y EJECUCIÓN DE TODO TIPO DE PROYECTOS RELACIONADOS  CON OBRA CIVIL, Y TODO TIPO DE OBRAS, ASÍ COMO LOS DE ARQUITECTURA. ",
      "mainEntityOfPage": "https://www.contratacion.euskadi.eus/webkpe00-kperoc/es/ac71aBusquedaRegistrosWar/empresa/02891",
      "_links": {
        "self": {
          "name": "INFOTOP OBRAS Y SERVICIOS, S.L.",
          "href": "https://api.euskadi.eus/procurements/companies/02891"
        }
      }
    },
    {
      "name": "FEDERICO GINER, S.A.",
      "registrationNumber": "00827",
      "identificationNumber": "A46066825",
      "address": "C/ PAPA JUAN XXIII, Nº 29",
      "location": {
        "postalCode": "46760",
        "municipality": "Tavernes de la Valldigna",
        "county": "Valencia/València",
        "municipalityId": "238",
        "countyId": "46"
      },
      "economicActivities": [
        {
          "id": "1.468.2",
          "name": "Fabricación de mobiliario de madera escolar y de oficina",
          "_links": {
            "self": {
              "name": "Fabricación de mobiliario de madera escolar y de oficina",
              "href": "https://api.euskadi.eus/procurements/companies/economic-activities/1.468.2"
            }
          }
        }
      ],
      "certificateStartDate": "2011-06-08",
      "certificateEndDate": "2011-10-01",
      "object": "LA FABRICACIÓN DE MUEBLES DE TODAS CLASES, EN ESPECIAL DE MOBILIARIO ESCOLAR Y DE OFICINA, TANTO METÁLICO COMO DE MADERA",
      "mainEntityOfPage": "https://www.contratacion.euskadi.eus/webkpe00-kperoc/es/ac71aBusquedaRegistrosWar/empresa/00827",
      "_links": {
        "self": {
          "name": "FEDERICO GINER, S.A.",
          "href": "https://api.euskadi.eus/procurements/companies/00827"
        }
      }
    },
    {
      "name": "ADHOC CENTRO DE COMUNICACIÓN Y MARKETING, S.A.",
      "registrationNumber": "01788",
      "identificationNumber": "A20443172",
      "address": "C/ PASEO DE LOS OLMOS, Nº 14 - 14ª PLANTA.",
      "location": {
        "postalCode": "20016",
        "municipality": "Donostia / San Sebastián",
        "county": "Gipuzkoa",
        "municipalityId": "069",
        "countyId": "20"
      },
      "economicActivities": [
        {
          "id": "1.844",
          "name": "Servicios de publicidad, relaciones públicas y similares",
          "_links": {
            "self": {
              "name": "Servicios de publicidad, relaciones públicas y similares",
              "href": "https://api.euskadi.eus/procurements/companies/economic-activities/1.844"
            }
          }
        }
      ],
      "certificateStartDate": "2011-06-02",
      "certificateEndDate": "2011-10-26",
      "object": "POR CUENTA PROPIA O POR CUENTA DE TERCEROS: CREAR, PROYECTAR, EJECUTAR Y DISTRIBUIR CAMPAÑAS PUBLICITARIAS O DE PROPAGANDA A TRAVÉS DE TODOS LOS MEDIOS DE DIFUSIÓN, PRESTANDO SUS SERVICIOS SIMULTÁNEAMENTE A VARIOS ANUNCIANTES; PROPORCIONÁNDO- LES UNA ASISTENCIA TÉCNICA COMPLETA EN MATERIA DE INVESTIGACIÓN DE MERCADOS, PROMOCIÓN DE VENTAS, ASESORAMIENTO SOBRE LOS MEDIOS DE DIFUSIÓN, CONTROL SOBRE EL DESARROLLO Y RESULTADO DE LAS CAMPAÑAS Y LAS USUALES DE TIPO COMPLEMENTARIO DENTRO DE LA MISMA ESPECIALIDAD. TODA LA ACTIVIDAD REFERENTE A LA COMUNICACIÓN EN TODAS SUS FACETAS, ASÍ COMO LA EXPLOTACIÓN DE EXCLUSIVAS PUBLICITARIAS LOCALES Y NACIONALES; ACTIVIDADES DE DISEÑO, CREACIÓN DE NUEVOS PRODUCTOS, ASESORIA Y EJECUCIÓN EN ACTIVIDADES DE MARKETING O DE CUALQUIER OTRA FACETA EMPRESARIAL, REALIZACIÓN DE INVESTIGACIONES Y ESTUDIOS DE MERCADO, PUBLICACIONES, TODA LA ACTIVIDAD RELATIVA A RELACIONES PÚBLICAS, CURSOS Y SEMINARIOS SOBRE MARKETING, COMUNICACIÓN Y EXPRESIÓN; SELECCIÓN Y ADIESTRAMIENTO DE PERSONAL Y EN GENERAL TODAS AQUELLAS ACTIVIDADES CREATIVOS INVESTIGACIONALES, DE PROYECTO, EJECUTIVAS Y DE CONTROL EN TODOS LOS CAMPOS O MATERIAS CITADOS",
      "mainEntityOfPage": "https://www.contratacion.euskadi.eus/webkpe00-kperoc/es/ac71aBusquedaRegistrosWar/empresa/01788",
      "_links": {
        "self": {
          "name": "ADHOC CENTRO DE COMUNICACIÓN Y MARKETING, S.A.",
          "href": "https://api.euskadi.eus/procurements/companies/01788"
        }
      }
    },
    {
      "name": "A MAS L COMUNICACION, S.L.",
      "registrationNumber": "02270",
      "identificationNumber": "B48817654",
      "address": "PASEO DE URIBITARTE 7, 2º",
      "location": {
        "postalCode": "48001",
        "municipality": "Bilbao",
        "county": "Bizkaia",
        "municipalityId": "020",
        "countyId": "48"
      },
      "economicActivities": [
        {
          "id": "1.844",
          "name": "Servicios de publicidad, relaciones públicas y similares",
          "_links": {
            "self": {
              "name": "Servicios de publicidad, relaciones públicas y similares",
              "href": "https://api.euskadi.eus/procurements/companies/economic-activities/1.844"
            }
          }
        }
      ],
      "certificateStartDate": "2011-06-01",
      "certificateEndDate": "2011-10-27",
      "object": "LOS SERVICIOS DE AGENCIA Y CONSULTORÍA DE PUBLICIDAD Y COMUNICACIÓN",
      "mainEntityOfPage": "https://www.contratacion.euskadi.eus/webkpe00-kperoc/es/ac71aBusquedaRegistrosWar/empresa/02270",
      "_links": {
        "self": {
          "name": "A MAS L COMUNICACION, S.L.",
          "href": "https://api.euskadi.eus/procurements/companies/02270"
        }
      }
    }
  ]
}