{
  "totalItems": 9042,
  "totalPages": 905,
  "currentPage": 636,
  "itemsOfPage": 10,
  "items": [
    {
      "name": "PROTON ELECTRONICA, S.L.U.",
      "registrationNumber": "03914",
      "identificationNumber": "B48240543",
      "address": "POL.IND.AURRERA S/N PARQUE EMPRESARIAL INBISA PAB.3A",
      "location": {
        "postalCode": "48510",
        "municipality": "Valle de Trápaga-Trapagaran",
        "county": "Bizkaia",
        "municipalityId": "080",
        "countyId": "48"
      },
      "economicActivities": [
        {
          "id": "1.504.1",
          "name": "Instalaciones eléctricas en general",
          "_links": {
            "self": {
              "name": "Instalaciones eléctricas en general",
              "href": "https://api.euskadi.eus/procurements/companies/economic-activities/1.504.1"
            }
          }
        },
        {
          "id": "1.504.12",
          "name": "Instalaciones eléctricas en toda clase de edificios",
          "_links": {
            "self": {
              "name": "Instalaciones eléctricas en toda clase de edificios",
              "href": "https://api.euskadi.eus/procurements/companies/economic-activities/1.504.12"
            }
          }
        },
        {
          "id": "1.615.4",
          "name": "Venta al por mayor de aparatos y material radioeléctrico y electrónico",
          "_links": {
            "self": {
              "name": "Venta al por mayor de aparatos y material radioeléctrico y electrónico",
              "href": "https://api.euskadi.eus/procurements/companies/economic-activities/1.615.4"
            }
          }
        },
        {
          "id": "1.699",
          "name": "Otras reparaciones n.c.o.p",
          "_links": {
            "self": {
              "name": "Otras reparaciones n.c.o.p",
              "href": "https://api.euskadi.eus/procurements/companies/economic-activities/1.699"
            }
          }
        }
      ],
      "certificateStartDate": "2017-10-05",
      "certificateEndDate": "2018-04-04",
      "object": "A) LA CONSTRUCCIÓN Y REPARACIÓN DE APARATOS ELECTRÓNICOS Y ELÉCTRICOS EN GENERAL. B) LA COMPRAVENTA, COMERCIALIZACION, ALQUILER Y RENTING DE EQUIPOS Y MATERIALES ELECTRONICOS Y ELECTRICOS",
      "mainEntityOfPage": "https://www.contratacion.euskadi.eus/webkpe00-kperoc/es/ac71aBusquedaRegistrosWar/empresa/03914",
      "_links": {
        "self": {
          "name": "PROTON ELECTRONICA, S.L.U.",
          "href": "https://api.euskadi.eus/procurements/companies/03914"
        }
      }
    },
    {
      "name": "ADCLICK, S.A.",
      "registrationNumber": "02970",
      "identificationNumber": "A95037966",
      "address": "ALAMEDA MAZARREDO 35 - 2º A-B",
      "location": {
        "postalCode": "48009",
        "municipality": "Bilbao",
        "county": "Bizkaia",
        "municipalityId": "020",
        "countyId": "48"
      },
      "economicActivities": [
        {
          "id": "1.844",
          "name": "Servicios de publicidad, relaciones públicas y similares",
          "_links": {
            "self": {
              "name": "Servicios de publicidad, relaciones públicas y similares",
              "href": "https://api.euskadi.eus/procurements/companies/economic-activities/1.844"
            }
          }
        }
      ],
      "certificateStartDate": "2017-09-27",
      "certificateEndDate": "2018-02-28",
      "object": "EL DESARROLLO DE NEGOCIOS DIGITALES, INCUBACIÓN DE NEGOCIOS, COMERCIO ELECTRÍONICO, B2B, B2C C2C, PORTALES HORIZONTALES, PORTALES VERTICALES, MEDIOS DE COMUNICACIÓN ON-LINE, PUBLICACIONES ELECTRÓNICAS, PÁGINAS WEB, COMUNIDADES VIRTUALES, APLICACIONES PARA EL MÓVIL, WAP, GPRS, UMTS Y FUTURAS TECNOLOGÍAS PARA TERMINALES MÓVILES, MARKETING POR INTERNET, GABINETE DE PRENSA Y RELACIONES PÚBLICAS, CAMPAÑAS DE BANNERS, APLICACIONES INTERACTIVAS PARA INTERNET, CD-ROMS, COMERCIALES, CONSULTORÍA DE ESTRATEGIAS DE NEGOCIO EN INTERNET, CONSULTORÍA TECNOLÓGICA, AUDITORÍA DE PÁGINAS WEB, ALOJAMIENTO DE PÁGINAS WEB, PROGRMACIÓN PARA INTERNET, BASES DE DATOS, PROGRAMACIÓN DE SERVIDORES, DESARROLLO DE SOFTWARE, SISTEMAS DINÁMICOS, APLICACIONES ON-LINE DE GESTIÓN Y ATENCIÓN AL CLIENTE",
      "mainEntityOfPage": "https://www.contratacion.euskadi.eus/webkpe00-kperoc/es/ac71aBusquedaRegistrosWar/empresa/02970",
      "_links": {
        "self": {
          "name": "ADCLICK, S.A.",
          "href": "https://api.euskadi.eus/procurements/companies/02970"
        }
      }
    },
    {
      "name": "CENTRO DE INVESTIGACIÓN Y ESTUDIOS SOCIALES, CIES, S.L.",
      "registrationNumber": "00387",
      "identificationNumber": "B31151970",
      "address": "C/ GARCÍA CASTAÑÓN, Nº 4 - 4º IZDA.",
      "location": {
        "postalCode": "31002",
        "municipality": "Pamplona/Iruña",
        "county": "Navarra",
        "municipalityId": "201",
        "countyId": "31"
      },
      "economicActivities": [
        {
          "id": "1.846",
          "name": "Empresas de estudios de mercado",
          "_links": {
            "self": {
              "name": "Empresas de estudios de mercado",
              "href": "https://api.euskadi.eus/procurements/companies/economic-activities/1.846"
            }
          }
        }
      ],
      "certificateStartDate": "2017-09-25",
      "certificateEndDate": "2018-03-22",
      "object": "a) CONTRATACIÓN, REALIZACIÓN Y EJECUCIÓN DE TRABAJOS, ESTUDIOS E INVESTIGACIONES VINCULADOS A LAS CIENCIAS SOCIALES Y DISCIPLINAS ADYACENTES.\r\n\r\nb) EDICIÓN, ENSEÑANZA Y DIVULGACIÓN DE LAS MISMAS.\r\n\r\nc) MANTENIMIENTO DE UN SERVICIO PERMANENTE DE INFORMACIÓN Y ASESORAMIENTO A PERSONAS, ENTIDADES O INSTITUCIONES QUE LO SOLICITEN",
      "mainEntityOfPage": "https://www.contratacion.euskadi.eus/webkpe00-kperoc/es/ac71aBusquedaRegistrosWar/empresa/00387",
      "_links": {
        "self": {
          "name": "CENTRO DE INVESTIGACIÓN Y ESTUDIOS SOCIALES, CIES, S.L.",
          "href": "https://api.euskadi.eus/procurements/companies/00387"
        }
      }
    },
    {
      "name": "V.I.R THERAPEUTIC, S.L.",
      "registrationNumber": "05005",
      "identificationNumber": "B61373551",
      "address": "SICILIA, 121 - 5º - 1ª",
      "location": {
        "postalCode": "08013",
        "municipality": "Barcelona",
        "county": "Barcelona",
        "municipalityId": "019",
        "countyId": "08"
      },
      "economicActivities": [
        {
          "id": "1.619.2",
          "name": "Venta al por mayor de aparatos e instrumentos médicos, ortopédicos, ópticos",
          "_links": {
            "self": {
              "name": "Venta al por mayor de aparatos e instrumentos médicos, ortopédicos, ópticos",
              "href": "https://api.euskadi.eus/procurements/companies/economic-activities/1.619.2"
            }
          }
        }
      ],
      "certificateStartDate": "2017-09-25",
      "certificateEndDate": "2018-03-25",
      "object": "LA DISTRIBUCIÓN Y VENTA, BIEN POR CUENTA PROPIA O POR CUENTA DE TERCEROS, DE TODO TIPO DE PRODUCTOS FARMACÉUTICOS, MEDICINAS, PRÓTESIS Y MATERIAL SANITARIO EN GENERAL. LA VENTA E INSTALACIÓN DE MATERIAL CLÍNICO, Y APARATOS E INSTRUMENTAL MÉDICO Y SANITARIO",
      "mainEntityOfPage": "https://www.contratacion.euskadi.eus/webkpe00-kperoc/es/ac71aBusquedaRegistrosWar/empresa/05005",
      "_links": {
        "self": {
          "name": "V.I.R THERAPEUTIC, S.L.",
          "href": "https://api.euskadi.eus/procurements/companies/05005"
        }
      }
    },
    {
      "name": "LABORATORIO RAMÓN SALA, S.L.",
      "registrationNumber": "04582",
      "identificationNumber": "B08091316",
      "address": "GRAN CAPITÁN, 10",
      "location": {
        "postalCode": "08970",
        "municipality": "Sant Joan Despí",
        "county": "Barcelona",
        "municipalityId": "217",
        "countyId": "08"
      },
      "economicActivities": [
        {
          "id": "1.614.1",
          "name": "Venta al por mayor de productos farmacéuticos y medicamentos",
          "_links": {
            "self": {
              "name": "Venta al por mayor de productos farmacéuticos y medicamentos",
              "href": "https://api.euskadi.eus/procurements/companies/economic-activities/1.614.1"
            }
          }
        }
      ],
      "certificateStartDate": "2017-09-20",
      "certificateEndDate": "2018-03-08",
      "object": "LA FABRICACIÓN Y VENTA DE PRODUCTOS FARMACÉUTICOS Y QUÍMICOS DE TODAS CLASES, PRODUCTOS ALIMENTICIOS Y DIETÉTICOS, DE VETERINARIA, PERFUMERÍA Y COSMÉTICOS, ARTÍCULOS Y MATERIAL PARA LABORATORIO, REACTIVOS PARA ANÁLISIS Y DEMÁS PRODUCTOS DERIVADOS O RELACIONADOS CON LOS ANTERIORES. DE MODO ESPECIAL, ESTA SOCIEDAD, CONSTITUÍDA EN LABORATORIO COLECTIVO, SE DEDICARÁ A LA ELABORACIÓN Y VENTA DE ESPECIALIDADES FARMACÉUTICAS ESPAÑOLAS Y EXTRANJERAS BAJO LA DIRECCIÓN DE UN TITULAR FARMACÉUTICO QUE, A LA VEZ, ASUMIRÁ EL CARGO DE PREPARADOR Y ELABORADOR DE LAS ESPECIALIDADES ALUDIDAS, DE ACUERDO CON LA LEGISLACIÓN ESPECÍFICA SOBRE LA MATERIA",
      "mainEntityOfPage": "https://www.contratacion.euskadi.eus/webkpe00-kperoc/es/ac71aBusquedaRegistrosWar/empresa/04582",
      "_links": {
        "self": {
          "name": "LABORATORIO RAMÓN SALA, S.L.",
          "href": "https://api.euskadi.eus/procurements/companies/04582"
        }
      }
    },
    {
      "name": "APINA APLICACIONES INDUSTRIALES DE LA ABSORCIÓN, S.A.",
      "registrationNumber": "05537",
      "identificationNumber": "A20544748",
      "address": "PÒLÍGONO IND. TXIRRITA MALEO Nº 13",
      "location": {
        "postalCode": "20100",
        "municipality": "Errenteria",
        "county": "Gipuzkoa",
        "municipalityId": "067",
        "countyId": "20"
      },
      "economicActivities": [
        {
          "id": "1.329.9",
          "name": "Construcción de otras máquinas y equipos mecánicos n.c.o.p",
          "_links": {
            "self": {
              "name": "Construcción de otras máquinas y equipos mecánicos n.c.o.p",
              "href": "https://api.euskadi.eus/procurements/companies/economic-activities/1.329.9"
            }
          }
        },
        {
          "id": "1.692",
          "name": "Reparación de maquinaria industrial",
          "_links": {
            "self": {
              "name": "Reparación de maquinaria industrial",
              "href": "https://api.euskadi.eus/procurements/companies/economic-activities/1.692"
            }
          }
        }
      ],
      "certificateStartDate": "2017-09-18",
      "certificateEndDate": "2018-03-06",
      "object": "EL PROYECTO, INSTALACIÓN, MANTENIMIENTO Y REPARACIÓN DE PLANTAS FRIGORÍFICAS INDUSTRIALES DE REFRIGERACIÓN MECÁNICA Y DE ABSORCIÓN; ADQUISICIÓN, IMPORTACIÓN, FABRICACIÓN Y COMERCIALIZACIÓN DE ELEMENTOS Y EQUIPOS RELACIONADOS CON DICHAS PLANTAS",
      "mainEntityOfPage": "https://www.contratacion.euskadi.eus/webkpe00-kperoc/es/ac71aBusquedaRegistrosWar/empresa/05537",
      "_links": {
        "self": {
          "name": "APINA APLICACIONES INDUSTRIALES DE LA ABSORCIÓN, S.A.",
          "href": "https://api.euskadi.eus/procurements/companies/05537"
        }
      }
    },
    {
      "name": "HP PRINTING AND COMPUTING SOLUTIONS, S.L.",
      "registrationNumber": "02768",
      "identificationNumber": "B28260933",
      "address": "C/ JOSÉ ECHEGARAY, 18",
      "location": {
        "postalCode": "28232",
        "municipality": "Rozas de Madrid, Las",
        "county": "Madrid",
        "municipalityId": "127",
        "countyId": "28"
      },
      "economicActivities": [
        {
          "id": "1.615.4",
          "name": "Venta al por mayor de aparatos y material radioeléctrico y electrónico",
          "_links": {
            "self": {
              "name": "Venta al por mayor de aparatos y material radioeléctrico y electrónico",
              "href": "https://api.euskadi.eus/procurements/companies/economic-activities/1.615.4"
            }
          }
        }
      ],
      "certificateStartDate": "2017-09-12",
      "certificateEndDate": "2018-01-03",
      "object": "LA FABRICACIÓN, MONTAJE, INSTALACIÓN, Y PRESTACIÓN DE SERVICIOS TÉCNICOS, IMPORTACIÓN, DISTRIBUCIÓN Y VENTA DE BIENES DE EQUIPO, ESPECIALMENTE ORDENADORES, COMPUTADORES E INSTRUMENTOS Y SISTEMAS DNETRO DEL CAMPO DE LA ELECTRÓNICA Y DE LA ELECTROQUÍMICA; LA ADQUISICIÓN, EXPLOTACIÓN Y CESIÓN DE LICENCIAS, PATENTES Y DEMÁS DERECHOS DE PROPIEDAD INDUSTRIAL, Y EN GENERAL, CUALQUIER ACTIVIDAD INDUSTRIAL, COMERCIAL O FINANCIERA DIRECTAMENTE RELACIONADAS CON LOS EXPRESADOS FINES",
      "mainEntityOfPage": "https://www.contratacion.euskadi.eus/webkpe00-kperoc/es/ac71aBusquedaRegistrosWar/empresa/02768",
      "_links": {
        "self": {
          "name": "HP PRINTING AND COMPUTING SOLUTIONS, S.L.",
          "href": "https://api.euskadi.eus/procurements/companies/02768"
        }
      }
    },
    {
      "name": "SANTOS INGENIERIA ELECTRICA S.L.",
      "registrationNumber": "05665",
      "identificationNumber": "B95552600",
      "address": "URB. TEPEYAC 11",
      "location": {
        "postalCode": "48860",
        "municipality": "Zalla",
        "county": "Bizkaia",
        "municipalityId": "096",
        "countyId": "48"
      },
      "economicActivities": [
        {
          "id": "1.504.12",
          "name": "Instalaciones eléctricas en toda clase de edificios",
          "_links": {
            "self": {
              "name": "Instalaciones eléctricas en toda clase de edificios",
              "href": "https://api.euskadi.eus/procurements/companies/economic-activities/1.504.12"
            }
          }
        }
      ],
      "certificateStartDate": "2017-09-12",
      "certificateEndDate": "2017-11-30",
      "object": "INSTALACIONES ELÉCTRICAS EN GENERAL. INSTALACIÓN DE REDES TELEGRÁFICAS, TELEFÓNICAS, TELEFONÍA SIN HILOS Y TELEVISIÓN. INSTALACIONES DE SISTEMAS DE BALIZACIÓN DE PUERTOS Y AEROPUERTOS. VENTA AL POR MAYOR Y MENOR DE MATERIAL ELÉCTRICO",
      "mainEntityOfPage": "https://www.contratacion.euskadi.eus/webkpe00-kperoc/es/ac71aBusquedaRegistrosWar/empresa/05665",
      "_links": {
        "self": {
          "name": "SANTOS INGENIERIA ELECTRICA S.L.",
          "href": "https://api.euskadi.eus/procurements/companies/05665"
        }
      }
    },
    {
      "name": "ASOCIACIÓN PARA LA PROMOCIÓN Y EL FORTALECIMIENTO DEL TERCER SECTOR ST3 ELKARTEA",
      "registrationNumber": "04362",
      "identificationNumber": "G95477113",
      "address": "SIMÓN BOLIVAR, 8 B",
      "location": {
        "postalCode": "48010",
        "municipality": "Bilbao",
        "county": "Bizkaia",
        "municipalityId": "020",
        "countyId": "48"
      },
      "economicActivities": [
        {
          "id": "1.844",
          "name": "Servicios de publicidad, relaciones públicas y similares",
          "_links": {
            "self": {
              "name": "Servicios de publicidad, relaciones públicas y similares",
              "href": "https://api.euskadi.eus/procurements/companies/economic-activities/1.844"
            }
          }
        },
        {
          "id": "1.845",
          "name": "Explotación electrónica por cuenta de terceros",
          "_links": {
            "self": {
              "name": "Explotación electrónica por cuenta de terceros",
              "href": "https://api.euskadi.eus/procurements/companies/economic-activities/1.845"
            }
          }
        },
        {
          "id": "1.849.7",
          "name": "Servicios de gestión administrativa",
          "_links": {
            "self": {
              "name": "Servicios de gestión administrativa",
              "href": "https://api.euskadi.eus/procurements/companies/economic-activities/1.849.7"
            }
          }
        },
        {
          "id": "1.849.9",
          "name": "Otros servicios independientes n.c.o.p",
          "_links": {
            "self": {
              "name": "Otros servicios independientes n.c.o.p",
              "href": "https://api.euskadi.eus/procurements/companies/economic-activities/1.849.9"
            }
          }
        },
        {
          "id": "1.966.9",
          "name": "Otros servicios culturales n.c.o.p",
          "_links": {
            "self": {
              "name": "Otros servicios culturales n.c.o.p",
              "href": "https://api.euskadi.eus/procurements/companies/economic-activities/1.966.9"
            }
          }
        }
      ],
      "certificateStartDate": "2017-09-08",
      "certificateEndDate": "2018-02-28",
      "object": "-PROMOVER Y DEFENDER LA IGUALDAD DE OPORTUNIDADES Y PLENA CIUDADANÍA DE LAS PERSONAS Y COLECTIVOS, INCIDIENDO EN LA INCLUSIÓN DE AQUELLOS COLECTIVOS EN SITUAICÓN MÁS DESFAVORECIDA, DESDE LA POTENCIACIÓN DEL TERCER SECTOR Y DE SUS ORGANIZACIONES, FACILITANTO QUE DICHAS ENTIDADES TRABAJEN EN PROPICIAR UNA SOCIEDAD PARTICIPATIVA Y SOLIDARIA. - DAR APOYO Y SOPORTE A LAS ENTIDADES DE INTERÉS E INICIATIVA SOCIAL A TRAVÉS DE LA PRESTACIÓN DE SERVICIOS DE ASESORAMIENTO, CONSULTORÍA Y GESTORÍA, COMUNICACIÓN Y DISEÑO GRÁFICO, ORGANIZACIÓN DE EVENTOS, ACCESO A NUEVAS TECNOLOGÍAS DE INFORMAICÓN Y COMUNICACIÓN, DESARROLLO TECNOLÓGICO, FACILITACIÓN Y MEJORA DE EQUIPAMIENTOS Y OTRAS INFRAESTRUCTURAS Y CUALQUIER OTRO SERVICIO TÉCNICO QUE CONTRIBUYA AL DESARROLLO Y LA MEJORA DE LA GESTÓN DE LAS ORGANIZACIONES SOCIALES. - FACILITAR EL ACCESO DE LOS DISTINTOS AGENTES A PROGRAMAS, RECURSOS Y MATERIALES EDUCATIVOS ADECUADOS PARA LA REGULACIÓN DE CONFLICTOS, LA EDUCACIÓN ENVALORES Y CULTURA DE PAZ Y LOS DERECHOS HUMANOS. -PROPONER, OFERTAR Y GESTIONAR PROGRAMAS, PROYECTOS, SERVICIOS YTALLERES DENTRO DEL CAMPO DE LOS SERVICIOS SOCIALES, SOCIOCULTURALES Y SOCIOEDUCATIVOS. - ENCAUZAR, A TRAVÉS DE LA ASOCIACIÓN, AQUELLOS OTROS FINES QUE, CON EL TANSCURSO DEL TIEMPO Y CON LA EXPERIENCIA ADQUIRIDA PAREZCA CONVENIENTE ASUMIR, DENTRO DEL ESPÍRITU Y EL CARÁCTER QUE SE CONTIENEN EN ESTOS ESTATUTOS",
      "mainEntityOfPage": "https://www.contratacion.euskadi.eus/webkpe00-kperoc/es/ac71aBusquedaRegistrosWar/empresa/04362",
      "_links": {
        "self": {
          "name": "ASOCIACIÓN PARA LA PROMOCIÓN Y EL FORTALECIMIENTO DEL TERCER SECTOR ST3 ELKARTEA",
          "href": "https://api.euskadi.eus/procurements/companies/04362"
        }
      }
    },
    {
      "name": "BELLCO, S.R.L.",
      "registrationNumber": "05330",
      "identificationNumber": "N0053680E",
      "address": "VIA CAMURANA, 1",
      "location": {
        "postalCode": "41037"
      },
      "economicActivities": [
        {
          "id": "1.619.2",
          "name": "Venta al por mayor de aparatos e instrumentos médicos, ortopédicos, ópticos",
          "_links": {
            "self": {
              "name": "Venta al por mayor de aparatos e instrumentos médicos, ortopédicos, ópticos",
              "href": "https://api.euskadi.eus/procurements/companies/economic-activities/1.619.2"
            }
          }
        },
        {
          "id": "1.699",
          "name": "Otras reparaciones n.c.o.p",
          "_links": {
            "self": {
              "name": "Otras reparaciones n.c.o.p",
              "href": "https://api.euskadi.eus/procurements/companies/economic-activities/1.699"
            }
          }
        }
      ],
      "certificateStartDate": "2017-09-08",
      "certificateEndDate": "2018-02-22",
      "object": "ACTIVIDADES DE ESTUDIO, INVESTIGACIÓN, EXPERIMENTACIÓN, PRODUCCIÓN Y COMERCIALIZACIÓN EN LOS SECTORES BIOMÉDICO Y DE LA BIOINGENIERÍA, O AFINES A LOS MISMOS, INCLUIDA LA PESTACIÓN DE SERVICIOS CONEXOS, DE PRODUCTOS QUÍMICOS Y FARMACÉUTICOS, ÓRGANOS ARTIFICIALES, INSTRUMENTOS, ASÍ COMO DE TODOS AQUELLOS PRODUCTOS Y SERVICIOS QUE SEAN AFINES O TENGAN INTERÉS EN EL CAMPO BIOMÉDICO, DE LA BIOINGENIERÍA Y DEL CUIDADO DE LA SALUD, INCLUIDA LA FABRICACIÓN Y TRANSFORMACIÓN DE MATERIAS PLÁSTICAS POR CUENTA DE TERCEROS. CONSTITUCIÓN, ORGANIZACIÓN, DISEÑO, GESTIÓN Y ADMINISTRACIÓN DE CENTROS DE DIÁLISIS PÚBLICOS Y PRIVADOS, INCLUIDA LA GESTIÓN DEL PERSONAL MÉDICO Y PARAMÉDICO. SERVICIOS DE ELIMINACIÓN DE RESIDUOS HOSPITALARIOS. CERTIFICACIÓN DE LA CALIDAD DE LOS CENTROS DE DIÁLISIS",
      "mainEntityOfPage": "https://www.contratacion.euskadi.eus/webkpe00-kperoc/es/ac71aBusquedaRegistrosWar/empresa/05330",
      "_links": {
        "self": {
          "name": "BELLCO, S.R.L.",
          "href": "https://api.euskadi.eus/procurements/companies/05330"
        }
      }
    }
  ]
}