{
  "totalItems": 9042,
  "totalPages": 905,
  "currentPage": 799,
  "itemsOfPage": 10,
  "items": [
    {
      "name": "INDUMETAL RECYCLING, S.A.",
      "registrationNumber": "02755",
      "identificationNumber": "A48159149",
      "address": "CARRETERA DE LA CANTERA, 11  ASUA",
      "location": {
        "postalCode": "48950",
        "municipality": "Erandio",
        "county": "Bizkaia",
        "municipalityId": "902",
        "countyId": "48"
      },
      "economicActivities": [
        {
          "id": "1.225.9",
          "name": "Producción y primera transformación de otros metales no férreos n.c.o.p",
          "_links": {
            "self": {
              "name": "Producción y primera transformación de otros metales no férreos n.c.o.p",
              "href": "https://api.euskadi.eus/procurements/companies/economic-activities/1.225.9"
            }
          }
        }
      ],
      "certificateStartDate": "2003-11-11",
      "certificateEndDate": "2004-04-16",
      "object": "LA EXPLOTACIÓN DE UNA PLANTA INDUSTRIAL EN ASUA SONDIKA, PROVINCIA DE BIZKAIA, PARA LA REALIZACIÓN DE LAS SIGUIENTES ACTIVIDADES: \r\nA) ADQUIRIR Y RECICLAR CHATARRA DE METAL COMPLEJO, COMO POR EJEMPLO CHATARRA TELEFÓNICA, ELECTRÓNICA, COMPUTADORES O SIMILARES; ALMACENAR, VENDER Y DISTRIBUIR EL MATERIAL RECICLADO, TANTO EN EL MERCADO NACIONAL COMO EN EL EXTRANJERO.\r\n\r\nB) COMPRAR, ADQUIRIR Y CEDER, EN ARRENDAMIENTO, PERMUTA O CUALQUIER OTRA FORMA, TODA CLASE DE DERECHOS Y BIENES, MUEBLES O INMUEBLES, CONVENIENTES PARA EL DESARROLLO DE LAS REFERIDAS ACTIVIDADES.\r\n\r\nC) EL TRATAMIENTO, MANIPULACIÓN, TRANSPORTE, DEPÓSITO, CUSTODIA, ALMACENAJE, COMPRA, VENTA, COMERCIALIZACIÓN, INTERMEDIACIÓN, Y TODA FORMA DE CONTRATACIÓN, ASÍ COMO DE PRESTACIÓN DE SERVICIOS EN RELACIÓN CON BIENES MUEBLES E INMUEBLES Y,  ENTRE ELLOS, MATERIAS PRIMAS, COMMODITIES, MINERALES, METALES, CONCENTRADOS, CHATARRAS, PRODUCTOS, SUBPRODUCTOS, RESIDUOS INDUSTRIALES Y URBANOS Y CUALQUIER OTRO MATERIAL QUE CONTENGA PRODUCTOS RECUPERABLES Y CUALQUIERA OTRA COMPRENDIDA EN EL CAMPO DE LA PRESTACIÓN DE SERVICIOS A LA INDUSTRIA Y A LAS EMPRESAS.\r\n\r\nD) LA COMPRA, VENTA, ARRENDAMIENTO, PROMOCIÓN, URBANIZACIÓN Y CONSTRUCCIÓN DE TODA CLASE DE BIENES INMUEBLES Y EJECUCIÓN DE TODA CLASE DE OBRAS.\r\n\r\nE) LA PARTICIPACIÓN EN TODA CLASE DE EMPRESAS Y DE SOCIEDADES COMO SOCIO O ACCIONISTA, EL ASESORAMIENTO Y GESTIÓN DE EMPRESAS Y SOCIEDADES, LA MEDIACIÓN, CONTRATACIÓN Y PRESTACIÓN DE TODA CLASE DE ASISTENCIA  TÉCNICA Y EL ASESORAMIENTO EN TODA CLASE DE CONTRATACIÓN MERCANTIL Y DE INVERSIONES EN EL COMERCIO Y LA INDUSTRIA EN GENERAL.\r\n\r\nLA SOCIEDAD  PODRÁ REALIZAR LAS ACTIVIDADES QUE CONSTITUYEN SU OBJETO, TOTAL O PARCIALMENTE, DE UNA FORMA DIRECTA O MEDIANTE LA PARTICIPACIÓN EN OTRAS SOCIEDADES O ENTIDADES CON O SIN PERSONALIDAD JURÍDICA             ",
      "mainEntityOfPage": "https://www.contratacion.euskadi.eus/webkpe00-kperoc/es/ac71aBusquedaRegistrosWar/empresa/02755",
      "_links": {
        "self": {
          "name": "INDUMETAL RECYCLING, S.A.",
          "href": "https://api.euskadi.eus/procurements/companies/02755"
        }
      }
    },
    {
      "name": "EXCAVACIONES LURKOA, S.L.",
      "registrationNumber": "02753",
      "identificationNumber": "B20595070",
      "address": "PASEO ERROTABURU, 1-3ª",
      "location": {
        "postalCode": "20018",
        "municipality": "Donostia / San Sebastián",
        "county": "Gipuzkoa",
        "municipalityId": "069",
        "countyId": "20"
      },
      "economicActivities": [
        {
          "id": "1.501.1",
          "name": "Construcción completa, reparación y conservación de edificaciones",
          "_links": {
            "self": {
              "name": "Construcción completa, reparación y conservación de edificaciones",
              "href": "https://api.euskadi.eus/procurements/companies/economic-activities/1.501.1"
            }
          }
        },
        {
          "id": "1.501.2",
          "name": "Construcción completa, reparación y conservación obras civiles",
          "_links": {
            "self": {
              "name": "Construcción completa, reparación y conservación obras civiles",
              "href": "https://api.euskadi.eus/procurements/companies/economic-activities/1.501.2"
            }
          }
        },
        {
          "id": "1.502.3",
          "name": "Consolidación y preparación de terrenos para la realización de obras civiles",
          "_links": {
            "self": {
              "name": "Consolidación y preparación de terrenos para la realización de obras civiles",
              "href": "https://api.euskadi.eus/procurements/companies/economic-activities/1.502.3"
            }
          }
        }
      ],
      "certificateStartDate": "2003-11-10",
      "certificateEndDate": "2004-05-03",
      "object": "LAS ACTIVIDADES QUE SEGUIDAMENTE SE DETALLAN, QUE PODRÁN SER REALIZADAS POR LA SOCIEDAD, YA DIRECTAMENTE, YA INDIRECTAMENTE, INCLUSO MEDIANTE SU PARTICIPACIÓN EN OTRAS SOCIEDADES DE OBJETO IDÉNTICO Ó ANÁLOGO.\r\nEXCAVACIONES, CONSTRUCCIONES DE OBRAS PÚBLICAS, ASÍ COMO EDIFICACIONES, COMPRA, VENTA, ADMINISTRACIÓN, ARRIENDO Y EXPLOTACIÓN, ESTUDIOS E INFORMES, PROYECTOS Y DIRECCIÓN DE OBRA, ASÍ COMO SERVICIOS DE CONSERVACIÓN Y MANTENIMIENTO DE BIENES INMUEBLES, EQUIPOS E INSTALACIONES Y OTROS SERVICIOS, BAJO CUALESQUIERA DE LAS FORMAS ADMITIDAS EN DERECHO, DE TODA CLASE DE BIENES INMUEBLES, URBANOS Y RÚSTICOS, EQUIPOS E INSTALACIONES   ",
      "mainEntityOfPage": "https://www.contratacion.euskadi.eus/webkpe00-kperoc/es/ac71aBusquedaRegistrosWar/empresa/02753",
      "_links": {
        "self": {
          "name": "EXCAVACIONES LURKOA, S.L.",
          "href": "https://api.euskadi.eus/procurements/companies/02753"
        }
      }
    },
    {
      "name": "SOFTEC S.L. SOFTWARE Y TECNOLOGÍA",
      "registrationNumber": "01122",
      "identificationNumber": "A48153498",
      "address": "C/ AVENIDA CERVANTES, Nº 51 - 4º.",
      "location": {
        "postalCode": "48970",
        "municipality": "Basauri",
        "county": "Bizkaia",
        "municipalityId": "015",
        "countyId": "48"
      },
      "economicActivities": [
        {
          "id": "1.615.4",
          "name": "Venta al por mayor de aparatos y material radioeléctrico y electrónico",
          "_links": {
            "self": {
              "name": "Venta al por mayor de aparatos y material radioeléctrico y electrónico",
              "href": "https://api.euskadi.eus/procurements/companies/economic-activities/1.615.4"
            }
          }
        },
        {
          "id": "1.659.2",
          "name": "Venta al por menor de muebles de oficina y máquinas y equipos de oficina",
          "_links": {
            "self": {
              "name": "Venta al por menor de muebles de oficina y máquinas y equipos de oficina",
              "href": "https://api.euskadi.eus/procurements/companies/economic-activities/1.659.2"
            }
          }
        },
        {
          "id": "1.845",
          "name": "Explotación electrónica por cuenta de terceros",
          "_links": {
            "self": {
              "name": "Explotación electrónica por cuenta de terceros",
              "href": "https://api.euskadi.eus/procurements/companies/economic-activities/1.845"
            }
          }
        },
        {
          "id": "1.932.1",
          "name": "Enseñanza de formación y perfeccionamiento profesional no superior",
          "_links": {
            "self": {
              "name": "Enseñanza de formación y perfeccionamiento profesional no superior",
              "href": "https://api.euskadi.eus/procurements/companies/economic-activities/1.932.1"
            }
          }
        }
      ],
      "certificateStartDate": "2003-11-04",
      "certificateEndDate": "2003-10-03",
      "object": "LA PRESTACIÓN DE TODA CLASE DE SERVICIOS RELACIONADOS CON LA INFORMÁTICA Y LA ELECTRÓNICA, TALES COMO PROGRAMACIÓN, ASESORAMIENTO INFORMÁTICO, AUTOMATIZACIÓN DE SISTEMAS, MONITORIZACIÓN, ENSEÑANZA Y PUBLICACIÓN DE OBRAS DE INFORMÁTICA Y ELECTRÓNICA. PODRÁ TAMBIÉN DEDICARSE A LA FABRICACIÓN, COMERCIALIZACIÓN Y MANTENIMIENTO DE EQUIPOS Y SISTEMAS INFORMÁTICOS Y ELECTRÓNICOS. EL ARRENDAMIENTO, RENTING, CESIÓN, DEPÓSITO O POR CUAQUIER OTRO TÍTULO LA EXPLOTACIÓN Y COMERCIALIZACIÓN DE TODA CLASE DE EQUIPOS INFORMÁTICOS, ELECTRÓNICOS Y CUALESQUIERA OTROS ELEMENTOS TECNOLÓGICOS",
      "mainEntityOfPage": "https://www.contratacion.euskadi.eus/webkpe00-kperoc/es/ac71aBusquedaRegistrosWar/empresa/01122",
      "_links": {
        "self": {
          "name": "SOFTEC S.L. SOFTWARE Y TECNOLOGÍA",
          "href": "https://api.euskadi.eus/procurements/companies/01122"
        }
      }
    },
    {
      "name": "CONSTRUCCIONES Y PROMOCIONES NORBERETXEAN, S.L.",
      "registrationNumber": "02251",
      "identificationNumber": "B95052981",
      "address": "C/ LARRAÑAZUBI, Nº 12.",
      "location": {
        "postalCode": "48990",
        "municipality": "Getxo",
        "county": "Bizkaia",
        "municipalityId": "044",
        "countyId": "48"
      },
      "economicActivities": [
        {
          "id": "1.501.3",
          "name": "Albañilería y pequeños trabajos de construcción en general",
          "_links": {
            "self": {
              "name": "Albañilería y pequeños trabajos de construcción en general",
              "href": "https://api.euskadi.eus/procurements/companies/economic-activities/1.501.3"
            }
          }
        }
      ],
      "certificateStartDate": "2003-11-04",
      "certificateEndDate": "2004-04-07",
      "object": "a) LA CONSTRUCCIÓN Y PROMOCIÓN, TANTO POR CUENTA PROPIA O DE TERCEROS, DE TODO TIPO DE OBRAS CIVILES O PÚBLICAS; b) LA COMPRA, VENTA, REHABILITACIÓN, PROMOCIÓN Y CONSTRUCCIÓN DE TODO TIPO DE VIVIENDAS Y EDIFICIOS DE VIVIENDAS O PABELLONES INDUSTRIALES; c) LA ACTUACIÓN URBANÍSTICA SOBRE TODO TIPO DE FINCAS, RÚSTICAS O URBANAS.",
      "mainEntityOfPage": "https://www.contratacion.euskadi.eus/webkpe00-kperoc/es/ac71aBusquedaRegistrosWar/empresa/02251",
      "_links": {
        "self": {
          "name": "CONSTRUCCIONES Y PROMOCIONES NORBERETXEAN, S.L.",
          "href": "https://api.euskadi.eus/procurements/companies/02251"
        }
      }
    },
    {
      "name": "CONSTRUCCIONES, REHABILITACIONES Y CONTRATAS LICEMAT, S.L.",
      "registrationNumber": "02618",
      "identificationNumber": "B20718508",
      "address": "PASEO UBARBURU, 76 - PABELLÓN Nº 12",
      "location": {
        "postalCode": "20014",
        "municipality": "Donostia / San Sebastián",
        "county": "Gipuzkoa",
        "municipalityId": "069",
        "countyId": "20"
      },
      "economicActivities": [
        {
          "id": "1.505.1",
          "name": "Revestimientos exteriores e interiores de todas clases",
          "_links": {
            "self": {
              "name": "Revestimientos exteriores e interiores de todas clases",
              "href": "https://api.euskadi.eus/procurements/companies/economic-activities/1.505.1"
            }
          }
        }
      ],
      "certificateStartDate": "2003-11-03",
      "certificateEndDate": "2004-04-30",
      "object": "LA CONSTRUCCIÓN Y REHABILITACIÓN DE VIVIENDAS, EDIFICIOS, PABELLONES INDUSTRIALES Y LOCALES COMERCIALES, INCLUIDO EL TEJADO Y FACHADA DE LOS MISMOS.",
      "mainEntityOfPage": "https://www.contratacion.euskadi.eus/webkpe00-kperoc/es/ac71aBusquedaRegistrosWar/empresa/02618",
      "_links": {
        "self": {
          "name": "CONSTRUCCIONES, REHABILITACIONES Y CONTRATAS LICEMAT, S.L.",
          "href": "https://api.euskadi.eus/procurements/companies/02618"
        }
      }
    },
    {
      "name": "DATAC, S.L.",
      "registrationNumber": "02386",
      "identificationNumber": "B20225017",
      "address": "POLÍGONO MATXARIA, S/N",
      "location": {
        "postalCode": "20600",
        "municipality": "Eibar",
        "county": "Gipuzkoa",
        "municipalityId": "030",
        "countyId": "20"
      },
      "economicActivities": [
        {
          "id": "1.659.2",
          "name": "Venta al por menor de muebles de oficina y máquinas y equipos de oficina",
          "_links": {
            "self": {
              "name": "Venta al por menor de muebles de oficina y máquinas y equipos de oficina",
              "href": "https://api.euskadi.eus/procurements/companies/economic-activities/1.659.2"
            }
          }
        }
      ],
      "certificateStartDate": "2003-10-31",
      "certificateEndDate": "2004-04-15",
      "object": "LA DISTRIBUCIÓN Y VENTA DE EQUIPOS PARA EL PROCESO DE INFORMACIÓN, ACCESORIOS Y COMPLEMENTOS, ASÍ COMO EL SOFTWARE NECESARIO PARA EL FUNCIONAMIENTO DE DICHOS EQUIPOS",
      "mainEntityOfPage": "https://www.contratacion.euskadi.eus/webkpe00-kperoc/es/ac71aBusquedaRegistrosWar/empresa/02386",
      "_links": {
        "self": {
          "name": "DATAC, S.L.",
          "href": "https://api.euskadi.eus/procurements/companies/02386"
        }
      }
    },
    {
      "name": "CONGREBAS, S.L. SDAD. UNIPERSONAL",
      "registrationNumber": "02748",
      "identificationNumber": "B95106886",
      "address": "RODRÍGUEZ ARIAS, 23 - 3º",
      "location": {
        "postalCode": "48011",
        "municipality": "Bilbao",
        "county": "Bizkaia",
        "municipalityId": "020",
        "countyId": "48"
      },
      "economicActivities": [
        {
          "id": "1.989.2",
          "name": "Servicios de organización de congresos, asambleas y similares",
          "_links": {
            "self": {
              "name": "Servicios de organización de congresos, asambleas y similares",
              "href": "https://api.euskadi.eus/procurements/companies/economic-activities/1.989.2"
            }
          }
        }
      ],
      "certificateStartDate": "2003-10-31",
      "certificateEndDate": "2004-04-28",
      "object": "a) LA ORGANIZACIÓN DE CONGRESOS, EXPOSICIONES, CONVENCIONES, CONFERENCIAS, REUNIONES PROFESIOINALES O EMPRESARIALES, SEMINARIOS Y EVENTOS SOCIALES.\r\n\r\nb) LA PRESTACIÓN DE SERVICIOS DE TRADUCCIÓN E INTERPRETACIÓN.\r\n\r\nc) LA PRESTACIÓN DE SERVICIOS DE ASISTENCIA A EVENTOS SOCIALES Y DE AZAFATAS O AUXILIARES EN EVENTOS SOCIALES.\r\n\r\nd) LA PRESTACIÓN DE SERVICIOS TURÍSTICOS, CON EXPRESA INCLUSIÓN  DE LA ORGANIZACIÓN DE VIAJES GUIADOS, VISITAS TURÍSTICAS Y ASISTENCIA PROFESIONAL AL TURISMO.\r\n\r\ne) LA SELECCIÓN DE PERSONAL.",
      "mainEntityOfPage": "https://www.contratacion.euskadi.eus/webkpe00-kperoc/es/ac71aBusquedaRegistrosWar/empresa/02748",
      "_links": {
        "self": {
          "name": "CONGREBAS, S.L. SDAD. UNIPERSONAL",
          "href": "https://api.euskadi.eus/procurements/companies/02748"
        }
      }
    },
    {
      "name": "TALLERES SALTERAIN, S.L.",
      "registrationNumber": "02045",
      "identificationNumber": "B48226104",
      "address": "C/ TARTANGA, Nº 18.",
      "location": {
        "postalCode": "48950",
        "municipality": "Erandio",
        "county": "Bizkaia",
        "municipalityId": "902",
        "countyId": "48"
      },
      "economicActivities": [
        {
          "id": "1.316.3",
          "name": "Tornillería y fabricación de artículos derivados del alambre",
          "_links": {
            "self": {
              "name": "Tornillería y fabricación de artículos derivados del alambre",
              "href": "https://api.euskadi.eus/procurements/companies/economic-activities/1.316.3"
            }
          }
        }
      ],
      "certificateStartDate": "2003-10-28",
      "certificateEndDate": "2004-04-23",
      "object": "LA CONSTRUCCIÓN Y POSTERIOR VENTA DE TODO TIPO DE CARPINTERÍA METÁLICA",
      "mainEntityOfPage": "https://www.contratacion.euskadi.eus/webkpe00-kperoc/es/ac71aBusquedaRegistrosWar/empresa/02045",
      "_links": {
        "self": {
          "name": "TALLERES SALTERAIN, S.L.",
          "href": "https://api.euskadi.eus/procurements/companies/02045"
        }
      }
    },
    {
      "name": "TEST AUDITORES S.L.",
      "registrationNumber": "02453",
      "identificationNumber": "B48148241",
      "address": "ELCANO, 25-1º",
      "location": {
        "postalCode": "48008",
        "municipality": "Bilbao",
        "county": "Bizkaia",
        "municipalityId": "020",
        "countyId": "48"
      },
      "economicActivities": [
        {
          "id": "1.842",
          "name": "Servicios financieros y contables",
          "_links": {
            "self": {
              "name": "Servicios financieros y contables",
              "href": "https://api.euskadi.eus/procurements/companies/economic-activities/1.842"
            }
          }
        }
      ],
      "certificateStartDate": "2003-10-28",
      "certificateEndDate": "2004-04-17",
      "object": "LA PRESTACIÓN DE SERVICIOS PROFESIONALES DE AUDITORÍA DE CUENTAS EN SU MÁS AMPLIO SENTIDO CONFORME A LAS LEYES. QUEDA PROHIBIDO A LA SOCIEDAD EFECTUAR OTRAS OPERACIONES YA SEA COMERCIALES, INDUSTRIALES, ESPECULATIVAS  DE CUALQUIER OTRA CLASE, DISTINTAS A LAS QUE SON PROPIAS DEL OBJETO ENUNCIADO EN EL PÁRRAFO ANTERIOR, ASÍ COMO LA REALIZACIÓN DE INVERSIONES QUE NO SEAN LAS PRUDENCIALMENTE ADECUADAS PARA EL DESARROLLO DE LOS SERVICIOS PROFESIONALES QUE CONSTITUYEN SU ÚNICO OBJETO",
      "mainEntityOfPage": "https://www.contratacion.euskadi.eus/webkpe00-kperoc/es/ac71aBusquedaRegistrosWar/empresa/02453",
      "_links": {
        "self": {
          "name": "TEST AUDITORES S.L.",
          "href": "https://api.euskadi.eus/procurements/companies/02453"
        }
      }
    },
    {
      "name": "HERNÁNDEZ CABEZA, S.L.",
      "registrationNumber": "02727",
      "identificationNumber": "B74015645",
      "address": "C/ JOSÉ RAMÓN ZARAGOZA, 6 ",
      "location": {
        "postalCode": "33013",
        "municipality": "Oviedo",
        "county": "Asturias",
        "municipalityId": "044",
        "countyId": "33"
      },
      "economicActivities": [
        {
          "id": "1.619.2",
          "name": "Venta al por mayor de aparatos e instrumentos médicos, ortopédicos, ópticos",
          "_links": {
            "self": {
              "name": "Venta al por mayor de aparatos e instrumentos médicos, ortopédicos, ópticos",
              "href": "https://api.euskadi.eus/procurements/companies/economic-activities/1.619.2"
            }
          }
        }
      ],
      "certificateStartDate": "2003-10-06",
      "certificateEndDate": "2004-03-04",
      "object": "SERVICIOS DE MANTENIMIENTO DE BIENES INMUEBLES E INFRAESTRUCTURAS; SERVICIOS DE MANTENIMIENTO DE BIENES MUEBLES,TALES COMO INSTALACIONES HOSPITALARIAS Y OFICINAS; LA CONSTRUCCIÓN Y PROMOCIÓN DE EDIFICIOS, LIBRES Y DE PROTECCIÓN OFICIAL, ADQUISICIÓN DE TODA CLASE DE EDIFICACIONES Y TERRENOS, URBANIZACIÓN, PARCELACIÓN, USO, ARRENDAMIENTO Y COMPRAVENTA DE LOS MISMOS, BIEN EN BLOQUES, POR PARTES O POR PISOS, CONFORME A LA LEY DE PROPIEDAD HORIZONTAL; LA COMPRA, VENTA Y ARRENDAMIENTO DE VIVIENDAS, LOCALES, FINCAS, NAVES INDUSTRIALES O COMERCIALES Y TODA CLASE DE BIENES INMUEBLES; Y LA REALIZACIÓN DE TODA CLASE DE OBRA CIVIL EN CONTRATACIÓN DIRECTA O SUBCONTRATADA, CON EL ESTADO, COMUNIDADES AUTONOMAS Y DEMÁS ENTIDADES Y PARTICULARES; ACTIVIDAD DE ASESORÍA Y CONSULTING EN GENERAL, TALES COMO LEGAL, ECONÓMICO, DE TRANSPORTE, MEDIO AMBIENTE Y CALIDAD",
      "mainEntityOfPage": "https://www.contratacion.euskadi.eus/webkpe00-kperoc/es/ac71aBusquedaRegistrosWar/empresa/02727",
      "_links": {
        "self": {
          "name": "HERNÁNDEZ CABEZA, S.L.",
          "href": "https://api.euskadi.eus/procurements/companies/02727"
        }
      }
    }
  ]
}