{
  "totalItems": 9042,
  "totalPages": 905,
  "currentPage": 708,
  "itemsOfPage": 10,
  "items": [
    {
      "name": "GESTIÓN Y ORGANIZACIÓN DEPORTIVA, S.L.",
      "registrationNumber": "03456",
      "identificationNumber": "B48203665",
      "address": "Pº LANDABARRI, Nº 1, 2º DPTO 206",
      "location": {
        "postalCode": "48940",
        "municipality": "Leioa",
        "county": "Bizkaia",
        "municipalityId": "054",
        "countyId": "48"
      },
      "economicActivities": [
        {
          "id": "1.501.1",
          "name": "Construcción completa, reparación y conservación de edificaciones",
          "_links": {
            "self": {
              "name": "Construcción completa, reparación y conservación de edificaciones",
              "href": "https://api.euskadi.eus/procurements/companies/economic-activities/1.501.1"
            }
          }
        },
        {
          "id": "1.619.1",
          "name": "Venta al por mayor de juguetes y artículos de deporte",
          "_links": {
            "self": {
              "name": "Venta al por mayor de juguetes y artículos de deporte",
              "href": "https://api.euskadi.eus/procurements/companies/economic-activities/1.619.1"
            }
          }
        },
        {
          "id": "1.861.2",
          "name": "Alquiler de locales industriales y otros alquileres n.c.o.p",
          "_links": {
            "self": {
              "name": "Alquiler de locales industriales y otros alquileres n.c.o.p",
              "href": "https://api.euskadi.eus/procurements/companies/economic-activities/1.861.2"
            }
          }
        },
        {
          "id": "1.967.2",
          "name": "Escuelas y servicios de perfeccionamiento del deporte",
          "_links": {
            "self": {
              "name": "Escuelas y servicios de perfeccionamiento del deporte",
              "href": "https://api.euskadi.eus/procurements/companies/economic-activities/1.967.2"
            }
          }
        }
      ],
      "certificateStartDate": "2011-09-20",
      "certificateEndDate": "2012-02-18",
      "object": "EL COMERCIO  Y LA DISTRIBUCIÓN DE ARTÍCULOS Y EQUIPAMEINTOS DEPORTIVOS DE TODA CLASE. LA EXPLOTACIÓN DE CENTROS DE ENSEÑANZA E INSTALACIONES DE TODA CLASE DE DEPORTE. EL ASESORAMIENTO Y LA CONSULTORIA DEPORTIVA. LA GESTIÓN PARCIAL O INTEGRAL DE ACTIVIDADES DEPORTAVAS Y SERVICIOS DEPORTIVOS DE CARACTER INDIVIDUAL O COLECTIVO. EL ARRENDAMIENTO DE SERVICIOS DE TODA CLASE DE ACTIVIDADES DEPORTIVAS. LA GESTIÓN INGEGRAL DE RECEPCIÓN Y CONTROL DE ACCESOS DE LAS INSTALACIONES DEPORTIVAS PÚBLICAS O PRIVADAS. LA GESTIÓN YA SES INTEGRAL O PARCIAL DE TODO TIPO DE INSTALACIONES DEPROTIVAS, TANTÓ PÚBLICAS COMO PRIVADAS. INCLUYENDO CUALQUIER SERVICIO QUE PUEDA REQUERIR DICHA INSTALACION. LAS ACTIVIDADES COMERCIALES COMPRENDIDAS EN LAS AGRUPACIONES 61, 64 Y 93 DE LAS VIGENTES TARIFAS DE LA LICENCIA FISCAL DE ACTIVIDADES COMERCIALES E INDUSTRIALES, LA REFERENCIA DE ACTIVIDADES COMERCIALES E INDUSTRIALES, LA REFERENCIA DE ACTIVIDADES COMERCIALES INDUSTRIALES, LA REFERENCIA A LA LICENCIA FISCAL DEL IMPUESTO INDUSTRIAL SE HACE ABARCANDO Y COMPRENDIENDO SUS DISTINTOS GRUPOS SECCIONES Y EPÍGRAFES ASÍ COMO LA IMPORTACÓN, LA EXPORTACIÓN LA VENTA Y LA DISTRIBUCIÓN POR EL SISTEMA DE REPRESENTACIÓN Y COMISIÓN DE TODAS LAS ACTIVIDADES ENUNCIADAS, QUEDANDO EXPCEPTUADAS AQUELLAS QUE ESTÉN SOMETIDAS A DISPOSICIONES ESPECIALES DISTINTAS A LA LEY DE SOCIEDADES DE RESPONSABILIDAD LIMITADA. LOS SERVICIOS DE REPRESENTACIÓN, ASESORAMIENTO E INTERMEDIACIÓN PARA DEPORTISTAS AFICIONADOS Y PROFESIONALES, SOCIEDADES MERCANTILES Y DEPORTIVAS, CLUBES Y ASOCIACIONES DEPORTIVAS EN TODO LO REFERIDO A NEGOCIACIÓN Y RENOVAICIÓN DE CONTRATOS DE TRABAJO, DE TRANSFERENCIA , DERECHOS DE IMAGEN Y DERECHOS FEDERATIVOS. LA REPRESENTACIÓN Y CONSULTORÍA EN LA GESTIÓN DE VENTA DE DERECHOS DE IMAGEN Y MARCA DE DEPORTISTAS, CLUBES DEPORTIVOS, SOCIEDADES Y ASOCIACIONES DEPORTIVAS. ASI COMO LA SUSCRIPCIÓN, NEGOCIACIÓN Y CESIÓN POR CUENTA PROPIA Y DE TERCEROS DE CONTRATOS DE PATROCINIO. LA CREACIÓN, ORGANIZACIÓN Y DISTRIBUCIÓN DE TODO TIPO DE EVENTOS, DIRECTA O INDIRECTAMENTE VINCULADOS AL OCIO Y AL DEPORTE",
      "mainEntityOfPage": "https://www.contratacion.euskadi.eus/webkpe00-kperoc/es/ac71aBusquedaRegistrosWar/empresa/03456",
      "_links": {
        "self": {
          "name": "GESTIÓN Y ORGANIZACIÓN DEPORTIVA, S.L.",
          "href": "https://api.euskadi.eus/procurements/companies/03456"
        }
      }
    },
    {
      "name": "MAPIONIKA GEOREFERENCIAS, S.L.",
      "registrationNumber": "03916",
      "identificationNumber": "B01379114",
      "address": "MENDIGORRITXU, 138",
      "location": {
        "postalCode": "01015",
        "municipality": "Vitoria-Gasteiz",
        "county": "Araba/Álava",
        "municipalityId": "059",
        "countyId": "01"
      },
      "economicActivities": [
        {
          "id": "1.843.1",
          "name": "Servicios técnicos de ingeniería",
          "_links": {
            "self": {
              "name": "Servicios técnicos de ingeniería",
              "href": "https://api.euskadi.eus/procurements/companies/economic-activities/1.843.1"
            }
          }
        },
        {
          "id": "1.843.4",
          "name": "Servicios técnicos de topografía",
          "_links": {
            "self": {
              "name": "Servicios técnicos de topografía",
              "href": "https://api.euskadi.eus/procurements/companies/economic-activities/1.843.4"
            }
          }
        },
        {
          "id": "1.932.2",
          "name": "Enseñanza de formación y perfeccionamiento profesional superior",
          "_links": {
            "self": {
              "name": "Enseñanza de formación y perfeccionamiento profesional superior",
              "href": "https://api.euskadi.eus/procurements/companies/economic-activities/1.932.2"
            }
          }
        }
      ],
      "certificateStartDate": "2011-09-16",
      "certificateEndDate": "2012-02-16",
      "object": "TANTO DIRECTAMENTE COMO DE FORMA INDIRECTA, MEDIANTE LA TITULARIDAD DE ACCIONEES O PARTICIPACIONES EN SOCIEDADES CON OBJETO IDÉNTICO, TRA BAJOS DE INGENIERÍA Y APLICACIONEES INFORMÁTICAS EN ENTORNOS DE SISTEMAS DE INFORMACIÓN GEOGRÁFICA, SERVICIOS DE TOPOGRAFÍA, ESTUDIOS RELACIONADOS CON EL TERRITORIO Y LA GESTIÓN DE ESPACIOS Y SERVICIOS DIVERSOS A INSTITUCIONES Y EMPRESAS",
      "mainEntityOfPage": "https://www.contratacion.euskadi.eus/webkpe00-kperoc/es/ac71aBusquedaRegistrosWar/empresa/03916",
      "_links": {
        "self": {
          "name": "MAPIONIKA GEOREFERENCIAS, S.L.",
          "href": "https://api.euskadi.eus/procurements/companies/03916"
        }
      }
    },
    {
      "name": "ALBERTO ALONSO CALEFACCIÓN, S.A.",
      "registrationNumber": "00180",
      "identificationNumber": "A48061212",
      "address": "C/ ALTUBE, Nº 4.",
      "location": {
        "postalCode": "48002",
        "municipality": "Bilbao",
        "county": "Bizkaia",
        "municipalityId": "020",
        "countyId": "48"
      },
      "economicActivities": [
        {
          "id": "1.504.3",
          "name": "Instalaciones de frío, calor y acondicionamiento de aire",
          "_links": {
            "self": {
              "name": "Instalaciones de frío, calor y acondicionamiento de aire",
              "href": "https://api.euskadi.eus/procurements/companies/economic-activities/1.504.3"
            }
          }
        }
      ],
      "certificateStartDate": "2011-09-15",
      "certificateEndDate": "2012-03-01",
      "object": "EL SUMINISTRO Y MONTAJE DE INSTALACIONES DE CALEFACCIONES, AIRE ACONDICIONADO, REFRIGERACIÓN, VENTILACIÓN Y SIMILARES",
      "mainEntityOfPage": "https://www.contratacion.euskadi.eus/webkpe00-kperoc/es/ac71aBusquedaRegistrosWar/empresa/00180",
      "_links": {
        "self": {
          "name": "ALBERTO ALONSO CALEFACCIÓN, S.A.",
          "href": "https://api.euskadi.eus/procurements/companies/00180"
        }
      }
    },
    {
      "name": "LEIOA WAGEN, S.A.",
      "registrationNumber": "03042",
      "identificationNumber": "A48451801",
      "address": "AVENIDA TXIKIA, 26 ",
      "location": {
        "postalCode": "48940",
        "municipality": "Leioa",
        "county": "Bizkaia",
        "municipalityId": "054",
        "countyId": "48"
      },
      "economicActivities": [
        {
          "id": "1.615.1",
          "name": "Venta al por mayor de vehículos, motocicletas, bicicletas y sus accesorios",
          "_links": {
            "self": {
              "name": "Venta al por mayor de vehículos, motocicletas, bicicletas y sus accesorios",
              "href": "https://api.euskadi.eus/procurements/companies/economic-activities/1.615.1"
            }
          }
        },
        {
          "id": "1.654.1",
          "name": "Venta al por menor de vehículos terrestres",
          "_links": {
            "self": {
              "name": "Venta al por menor de vehículos terrestres",
              "href": "https://api.euskadi.eus/procurements/companies/economic-activities/1.654.1"
            }
          }
        },
        {
          "id": "1.655.3",
          "name": "Venta al por menor de carburantes para el surtido de vehículos",
          "_links": {
            "self": {
              "name": "Venta al por menor de carburantes para el surtido de vehículos",
              "href": "https://api.euskadi.eus/procurements/companies/economic-activities/1.655.3"
            }
          }
        },
        {
          "id": "1.691.2",
          "name": "Reparación de vehículos automóviles, bicicletas y otros vehículos",
          "_links": {
            "self": {
              "name": "Reparación de vehículos automóviles, bicicletas y otros vehículos",
              "href": "https://api.euskadi.eus/procurements/companies/economic-activities/1.691.2"
            }
          }
        }
      ],
      "certificateStartDate": "2011-09-13",
      "certificateEndDate": "2012-02-25",
      "object": "A) LA COMPRAVENTA Y COMERCIALIZACIÓN DE VEHÍCULOS DE MOTOR, ASÍ COMO LA DE SUS RECAMBIOS Y ACCESORIOS; B) LA EXPLOTACIÓN DE TALLERES DE REPARACIÓN Y REFORMA DE AUTOMÓVILES EN EL MÁS AMPLIO SENTIDO DE LA MECÁNICA",
      "mainEntityOfPage": "https://www.contratacion.euskadi.eus/webkpe00-kperoc/es/ac71aBusquedaRegistrosWar/empresa/03042",
      "_links": {
        "self": {
          "name": "LEIOA WAGEN, S.A.",
          "href": "https://api.euskadi.eus/procurements/companies/03042"
        }
      }
    },
    {
      "name": "PRODUCTOS Y SERVICIOS INFORMÁTICOS DE ÁLAVA, S.L.",
      "registrationNumber": "04679",
      "identificationNumber": "B01429661",
      "address": "KAPELAMENDI, 7 POL. IND. GAMARRA",
      "location": {
        "postalCode": "01013",
        "municipality": "Vitoria-Gasteiz",
        "county": "Araba/Álava",
        "municipalityId": "059",
        "countyId": "01"
      },
      "economicActivities": [
        {
          "id": "1.845",
          "name": "Explotación electrónica por cuenta de terceros",
          "_links": {
            "self": {
              "name": "Explotación electrónica por cuenta de terceros",
              "href": "https://api.euskadi.eus/procurements/companies/economic-activities/1.845"
            }
          }
        }
      ],
      "certificateStartDate": "2011-09-13",
      "certificateEndDate": "2012-01-18",
      "mainEntityOfPage": "https://www.contratacion.euskadi.eus/webkpe00-kperoc/es/ac71aBusquedaRegistrosWar/empresa/04679",
      "_links": {
        "self": {
          "name": "PRODUCTOS Y SERVICIOS INFORMÁTICOS DE ÁLAVA, S.L.",
          "href": "https://api.euskadi.eus/procurements/companies/04679"
        }
      }
    },
    {
      "name": "Vaillo-Irigaray y Asociados S.L.P.",
      "registrationNumber": "04600",
      "identificationNumber": "B71041131",
      "address": "Tafalla, 31 Bajo",
      "location": {
        "postalCode": "31003",
        "municipality": "Pamplona/Iruña",
        "county": "Navarra",
        "municipalityId": "201",
        "countyId": "31"
      },
      "economicActivities": [
        {
          "id": "1.843.2",
          "name": "Servicios técnicos de arquitectura y urbanismo",
          "_links": {
            "self": {
              "name": "Servicios técnicos de arquitectura y urbanismo",
              "href": "https://api.euskadi.eus/procurements/companies/economic-activities/1.843.2"
            }
          }
        }
      ],
      "certificateStartDate": "2011-09-12",
      "object": "EL EJERCICIO EN COMUN DE LA ACTIVIDAD DE LA ARQUITECTURA. DICHAS ACTIVIDADES SE REALIZARÁN A TRAVÉS DE LOS SOCIOS PROFESIONALES, QUE OSTENTAN LA TITULACIÓN REQUERIDA Y SE ENCUENTRAN COLEGIADOS EN EL CORRESPONDIENTE COLEGIO PROFESIONAL",
      "mainEntityOfPage": "https://www.contratacion.euskadi.eus/webkpe00-kperoc/es/ac71aBusquedaRegistrosWar/empresa/04600",
      "_links": {
        "self": {
          "name": "Vaillo-Irigaray y Asociados S.L.P.",
          "href": "https://api.euskadi.eus/procurements/companies/04600"
        }
      }
    },
    {
      "name": "GRÁFICAS SANTAMARÍA, S.A.",
      "registrationNumber": "00028",
      "identificationNumber": "A01012293",
      "address": "C/ BEKOLARRA, Nº 4 - PAB. 15 - A",
      "location": {
        "postalCode": "01010",
        "municipality": "Vitoria-Gasteiz",
        "county": "Araba/Álava",
        "municipalityId": "059",
        "countyId": "01"
      },
      "economicActivities": [
        {
          "id": "1.474",
          "name": "Artes gráficas (impresión gráfica)",
          "_links": {
            "self": {
              "name": "Artes gráficas (impresión gráfica)",
              "href": "https://api.euskadi.eus/procurements/companies/economic-activities/1.474"
            }
          }
        },
        {
          "id": "1.475",
          "name": "Actividades anexas a las artes gráficas",
          "_links": {
            "self": {
              "name": "Actividades anexas a las artes gráficas",
              "href": "https://api.euskadi.eus/procurements/companies/economic-activities/1.475"
            }
          }
        }
      ],
      "certificateStartDate": "2011-09-08",
      "certificateEndDate": "2012-02-24",
      "object": "LA REALIZACIÓN DE TODA CLASE DE ACTOS, NEGOCIOS Y OPERACIONES RELACIONADAS CON EL SECTOR DE LAS ARTES GRÁFICAS Y EDICIÓN, FABRICACIÓN, COMPRAVENTA, REPRESENTACIÓN, IMPORTACIÓN, EXPORTACIÓN, COMERCIALIZACIÓN, ALMACENAMIENTO Y EXPLOTACIÓN DE TODA CLASE DE MATERIALES, OBJETOS, PRODUCTOS, TÉCNICAS Y PATENTES, RELACIONADOS CON DICHO SECTOR. \r\n\r\nASIMISMO ES OBJETO DE LA SOCIEDAD LA ORDENACIÓN, URBANIZACIÓN, PARCELACIÓN, PROMOCIÓN, CONSTRUCCIÓN, ADQUISICIÓN, VENTA, CESIÓN, PERMUTA Y EXPLOTACIÓN POR CUALQUIER TÍTULO DE TODA CLASE DE TERRENOS, SOLARES, OBRAS, VIVIENDAS, LOCALES, PABELLONES E INMUEBLES.\r\n\r\n LA COMPRAVENTA, REPRESENTACIÓN, FABRICACIÓN, TRANSFORMACIÓN, COMERCIALIZACIÓN, DISEÑO, DISTRIBUCIÓN, IMPORTACIÓN Y EXPORTACIÓN, TANTO AL POR MAYOR COMO AL POR MENOR, BIEN DE FABRICACIÓN NACIONAL O EXTRANJERA DE TODA CLASE DE MÁQUINAS Y HERRAMIENTAS, ASÍ COMO DE ARTÍCULOS COMERCIALES, INDUSTRIALES, AGRÍCOLAS Y GANADEROS, CUYO DESTINO SEA SU USO Y CONSUMO EN ALIMENTACIÓN, VESTIDO, VIVIENDA Y HOGAR, DECORACIÓN, OCIO, ESPARCIMIENTO, RECREO, CULTURA Y ENSEÑANZA. \r\nSERVICIOS DE MEDIACIÓN, GESTIÓN, ALMACENAMIENTO Y EN GENERAL COMERCIALIZACIÓN Y DISTRIBUCIÓN DE TODA CLASE DE PRODUCTOS, RELACIONADOS CON ARTES GRÁFICAS Y EDICIÓN. ENSEÑANZA DE FORMACIÓN Y PERFECCIONAMIENTO PROFESIONAL, RELACIONADOS CON ARTES GRÁFICAS Y EDICIÓN. ASESORAMIENTO TÉCNICO EN TEMAS RELACIONADOS CON ARTES GRÁFICAS.\r\n\r\nLA ADQUISICIÓN, TENENCIA, ADMINISTRACIÓN, ENAJENACIÓN DE TODA CLASE DE TÍTULOS, VALORES MOBILIARIOS, ACTIVOS FINANCIEROS, DERECHOS, CUOTA O PARTICIPACIONES EN EMPRESAS INDIVIDUALES O SOCIALES, TODO ELLO POR CUENTA PROPIA, EXCLUYENDO LA INTERMEDIACIÓN Y DEJANDO A SALVO LA LEGISLACIÓN  PROPIA DEL MERCADO DE VALORES Y DE LAS INSTITUCIONES DE INVERSIÓN COLECTIVA.\r\n \r\nLA SOCIEDAD PODRÁ TAMBIÉN DESARROLLAR LAS ACTIVIDADES ANTES ESPECIFICADAS MEDIANTE LA PARTICIPACIÓN EN OTRAS SOCIEDADES.\r\nLA ENUNCIACIÓN DE LAS ACTIVIDADES SOCIALES ESPECIFICADAS NO PRESUPONE EL INMEDIATO DESENVOLVIMIENTO DE TODAS ELLAS NI LA SIMULTANEIDAD DE LAS MISMAS, SINO LA POSIBILIDAD DE SU EJERCICIO CONDICIONADO A LAS CIRCUNSTANCIAS LIBREMENTE APRECIADAS POR LA ADMINISTRACIÓN SOCIAL, EN SU CASO, QUE PODRÁ INICIAR O NO TALES ACTIVIDADES, ASÍ  COMO SUSPENDERLAS Y REEMPRENDERLAS CUANDO, A SU JUICIO, LO REQUIERA EL INTERÉS SOCIAL",
      "mainEntityOfPage": "https://www.contratacion.euskadi.eus/webkpe00-kperoc/es/ac71aBusquedaRegistrosWar/empresa/00028",
      "_links": {
        "self": {
          "name": "GRÁFICAS SANTAMARÍA, S.A.",
          "href": "https://api.euskadi.eus/procurements/companies/00028"
        }
      }
    },
    {
      "name": "EVAGRAF, S. COOP.",
      "registrationNumber": "00117",
      "identificationNumber": "F01006485",
      "address": "C/ ALIBARRA, Nº 64.",
      "location": {
        "postalCode": "01010",
        "municipality": "Vitoria-Gasteiz",
        "county": "Araba/Álava",
        "municipalityId": "059",
        "countyId": "01"
      },
      "economicActivities": [
        {
          "id": "1.474",
          "name": "Artes gráficas (impresión gráfica)",
          "_links": {
            "self": {
              "name": "Artes gráficas (impresión gráfica)",
              "href": "https://api.euskadi.eus/procurements/companies/economic-activities/1.474"
            }
          }
        },
        {
          "id": "1.475",
          "name": "Actividades anexas a las artes gráficas",
          "_links": {
            "self": {
              "name": "Actividades anexas a las artes gráficas",
              "href": "https://api.euskadi.eus/procurements/companies/economic-activities/1.475"
            }
          }
        }
      ],
      "certificateStartDate": "2011-09-08",
      "certificateEndDate": "2012-02-26",
      "object": "TODAS LAS ACTIVIDADES EMPRESARIALES Y MERCANTILES PROPIAS DE LAS ARTES GRÁFICAS, SIN LIMITACIÓN DE SISTEMAS Y CON ADAPTACIÓN A LAS NECESIDADES QUE EL MERCADO EXIJA",
      "mainEntityOfPage": "https://www.contratacion.euskadi.eus/webkpe00-kperoc/es/ac71aBusquedaRegistrosWar/empresa/00117",
      "_links": {
        "self": {
          "name": "EVAGRAF, S. COOP.",
          "href": "https://api.euskadi.eus/procurements/companies/00117"
        }
      }
    },
    {
      "name": "TRAZA DANEL, SAU",
      "registrationNumber": "04583",
      "identificationNumber": "A60402310",
      "address": "CALLE COBALTO, 7-9",
      "location": {
        "postalCode": "08038",
        "municipality": "Barcelona",
        "county": "Barcelona",
        "municipalityId": "019",
        "countyId": "08"
      },
      "economicActivities": [
        {
          "id": "1.474",
          "name": "Artes gráficas (impresión gráfica)",
          "_links": {
            "self": {
              "name": "Artes gráficas (impresión gráfica)",
              "href": "https://api.euskadi.eus/procurements/companies/economic-activities/1.474"
            }
          }
        }
      ],
      "certificateStartDate": "2011-09-07",
      "certificateEndDate": "2012-01-27",
      "object": "LA FABRICACIÓN, IMPRESIÓN Y VENTA DE TODO TIPO DE DOCUMENTOS, FORMULARIOS, COPIAS, IMPRESOS, HOJAS, ROLLOS, BANDAS, CARTAS, FICHAS SIMPLES O MÚLTIPLES, QUE CONLLEVEN O NO LOS PRINCIPIOS DE REPRODUCCIÓN, DE REPETICIÓN POR CARBÓN O CUALQUIER OTRO TIPO DE PROCESOS, PERSONALIZADOS O NO. LA IMPRESIÓN, LA MANIPULACIÓN Y TRANSFORMACIÓN DE CUALQUIER PAPEL EN GENERAL POR TODOS LOS MEDIOS. CUALQUIER TIPO DE PRESTACIÓN DE SERVICIO QUE SE AJUSTE A LAS ACTIVIDADES DESCRITAS. LA ADQUISICIÓN Y LA EXPLOTACIÓN DE CUALQUIER ACTIVO O INDUSTRIA DESTINADOS A TRANSFORMAR EL PAPEL Y SUS SUSTITUTOS",
      "mainEntityOfPage": "https://www.contratacion.euskadi.eus/webkpe00-kperoc/es/ac71aBusquedaRegistrosWar/empresa/04583",
      "_links": {
        "self": {
          "name": "TRAZA DANEL, SAU",
          "href": "https://api.euskadi.eus/procurements/companies/04583"
        }
      }
    },
    {
      "name": "VIAJES AGUIRRE BIDAIAK, S.A.",
      "registrationNumber": "00500",
      "identificationNumber": "A48269351",
      "address": "Gran Vía, 31 - 2º",
      "location": {
        "postalCode": "48009",
        "municipality": "Bilbao",
        "county": "Bizkaia",
        "municipalityId": "020",
        "countyId": "48"
      },
      "economicActivities": [
        {
          "id": "1.755",
          "name": "Agencias de viajes",
          "_links": {
            "self": {
              "name": "Agencias de viajes",
              "href": "https://api.euskadi.eus/procurements/companies/economic-activities/1.755"
            }
          }
        },
        {
          "id": "1.934",
          "name": "Enseñanza fuera de establecimiento permanente",
          "_links": {
            "self": {
              "name": "Enseñanza fuera de establecimiento permanente",
              "href": "https://api.euskadi.eus/procurements/companies/economic-activities/1.934"
            }
          }
        }
      ],
      "certificateStartDate": "2011-09-06",
      "certificateEndDate": "2012-02-12",
      "object": "EL EJERCICIO DE LAS ACTIVIDADES PROPIAS DE LAS AGENCIAS DE VIAJE, EN EL GRUPO MINORISTA, TAL Y COMO SE DEFINEN EN EL ARTICULO 5º DE LA ORDEN MINISTERIAL DE FECHA 14 DE ABRIL DE 1988",
      "mainEntityOfPage": "https://www.contratacion.euskadi.eus/webkpe00-kperoc/es/ac71aBusquedaRegistrosWar/empresa/00500",
      "_links": {
        "self": {
          "name": "VIAJES AGUIRRE BIDAIAK, S.A.",
          "href": "https://api.euskadi.eus/procurements/companies/00500"
        }
      }
    }
  ]
}