{
  "totalItems": 9042,
  "totalPages": 905,
  "currentPage": 829,
  "itemsOfPage": 10,
  "items": [
    {
      "name": "CRONOBIT, S.L.",
      "registrationNumber": "01921",
      "identificationNumber": "B20087490",
      "address": "C/ IPARRAGUIRRE, Nº 8. SÓTANO: G.",
      "location": {
        "postalCode": "20001",
        "municipality": "Donostia / San Sebastián",
        "county": "Gipuzkoa",
        "municipalityId": "069",
        "countyId": "20"
      },
      "economicActivities": [
        {
          "id": "1.691.9",
          "name": "Reparación de otros bienes de consumo n.c.o.p",
          "_links": {
            "self": {
              "name": "Reparación de otros bienes de consumo n.c.o.p",
              "href": "https://api.euskadi.eus/procurements/companies/economic-activities/1.691.9"
            }
          }
        }
      ],
      "certificateStartDate": "1999-03-11",
      "certificateEndDate": "1999-09-09",
      "object": "LA INSTALACIÓN, MANTENIMIENTO Y CONSERVACIÓN DE CRONOMETRÍA INDUSTRIAL, DEPORTIVA, MURALES Y MÁQUINAS DE OFICINA Y GESTIÓN",
      "mainEntityOfPage": "https://www.contratacion.euskadi.eus/webkpe00-kperoc/es/ac71aBusquedaRegistrosWar/empresa/01921",
      "_links": {
        "self": {
          "name": "CRONOBIT, S.L.",
          "href": "https://api.euskadi.eus/procurements/companies/01921"
        }
      }
    },
    {
      "name": "SERVICIOS DE MANTENIMIENTO INTEGRAL, S.A.",
      "registrationNumber": "00183",
      "identificationNumber": "A48131304",
      "address": "C/ PASEO CAMPO VOLANTÍN, Nº 24 - 6º.",
      "location": {
        "postalCode": "48007",
        "municipality": "Bilbao",
        "county": "Bizkaia",
        "municipalityId": "020",
        "countyId": "48"
      },
      "economicActivities": [
        {
          "id": "1.922",
          "name": "Servicios de limpieza",
          "_links": {
            "self": {
              "name": "Servicios de limpieza",
              "href": "https://api.euskadi.eus/procurements/companies/economic-activities/1.922"
            }
          }
        },
        {
          "id": "1.922.1",
          "name": "Servicios de limpieza de interiores",
          "_links": {
            "self": {
              "name": "Servicios de limpieza de interiores",
              "href": "https://api.euskadi.eus/procurements/companies/economic-activities/1.922.1"
            }
          }
        }
      ],
      "certificateStartDate": "1999-03-10",
      "certificateEndDate": "1999-07-19",
      "object": "LOS SERVICIOS DE:\r\n\r\n1.- LIMPIEZA DE EDIFICIOS Y LOCALES EN GENERAL, LIMPIEZA DE FÁBRICAS E INSTALACIONES INDUSTRIALES, HOSPITALES, AERONAVES, BUQUES, AEROPUERTOS, ESTACIONES DE FERROCARRIL, TRENES, PARQUES Y JARDINES, CONDUCCIONES INDUSTRIALES Y SANITARIAS.\r\n\r\n2.- DESRATIZACIÓN, DESINFECCIÓN, DESINSECTACIÓN E HIGIENIZACIÓN DEL MEDIO AMBIENTE EN GENERAL.\r\n\r\n3.- CUALQUIER OTRO QUE TENGA POR OBJETO EL MANTENIMIENTO DE INSTALACIONES INDUSTRIALES, EDIFICIOS DE CUALQUIER CLASE Y CONDICIÓN, TANTO EN SU ESTRUCTURA INTERNA COMO EXTERNA, PINTURA, CARPINTERÍA, ELECTRICIDAD, FONTANERÍA, DECORACIÓN DE EDIFICIOS Y LOCALES, ACUCHILLADO, LIJADO, ENCERADO, ACRISTALADO DE PISOS, ZÓCALOS Y PAREDES.\r\n\r\n4.- LIMPIEZA Y RESTAURACIÓN DE MONUMENTOS Y FACHADAS DE CUALQUIER EDIFICIO.\r\n\r\n5.- CONDIMENTACIÓN Y PREPARACIÓN DE ALIMENTOS PARA SER CONSUMIDOS EN COMEDORES COLECTIVOS (FÁBRICAS, HOSPITALES, COLEGIOS), ASÍ COMO SU DISTRIBUCIÓN Y SERVICIO A LOS USUARIOS DE ESTOS",
      "mainEntityOfPage": "https://www.contratacion.euskadi.eus/webkpe00-kperoc/es/ac71aBusquedaRegistrosWar/empresa/00183",
      "_links": {
        "self": {
          "name": "SERVICIOS DE MANTENIMIENTO INTEGRAL, S.A.",
          "href": "https://api.euskadi.eus/procurements/companies/00183"
        }
      }
    },
    {
      "name": "MABO FARMA, S.A.",
      "registrationNumber": "01790",
      "identificationNumber": "A81463374",
      "address": "C/ CTRA. M - 300, Km. 30,500.",
      "location": {
        "postalCode": "28802",
        "municipality": "Alcalá de Henares",
        "county": "Madrid",
        "municipalityId": "005",
        "countyId": "28"
      },
      "economicActivities": [
        {
          "id": "1.614.1",
          "name": "Venta al por mayor de productos farmacéuticos y medicamentos",
          "_links": {
            "self": {
              "name": "Venta al por mayor de productos farmacéuticos y medicamentos",
              "href": "https://api.euskadi.eus/procurements/companies/economic-activities/1.614.1"
            }
          }
        }
      ],
      "certificateStartDate": "1999-03-10",
      "certificateEndDate": "1999-08-24",
      "object": "LA FABRICACIÓN, PRODUCCIÓN, DISTRIBUCIÓN, EXPLOTACIÓN, IMPORTACIÓN, EXPORTACIÓN, PROMOCIÓN, PUBLICIDAD, COMPRA, VENTA, REPRESENTACIÓN Y GESTIÓN DE MATERIAS PRIMAS FARMACÉUTICAS, FÁRMACOS, PRODUCTOS FARMACÉUTICOS, SUSTANCIAS MEDICINALES, ARTÍCULOS DE USO MEDICINAL, MEDICAMENTOS, ESPECIALIDADES FARMACÉUTICAS DE CONSUMO HUMANO Y VETERINARIO, PRODUCTOS MÉDICOS, CIENTÍFICOS, HIGIÉNICOS, ALIMENTOS, BEBIDAS, ADHESIVOS, PERFUMES, COSMÉTICOS, ARTÍCULOS DE TOCADOR, ALIMENTOS PARA ANIMALES, INSTALACIONES, SERVICIOS, ARTÍCULOS, EQUIPOS Y ACCESORIOS Y SUMINISTROS DERIVADOS DE LOS ANTERIORES",
      "mainEntityOfPage": "https://www.contratacion.euskadi.eus/webkpe00-kperoc/es/ac71aBusquedaRegistrosWar/empresa/01790",
      "_links": {
        "self": {
          "name": "MABO FARMA, S.A.",
          "href": "https://api.euskadi.eus/procurements/companies/01790"
        }
      }
    },
    {
      "name": "FICHET, S.A.",
      "registrationNumber": "00163",
      "identificationNumber": "A08003592",
      "address": "C/ RIBAS, Nº 71",
      "location": {
        "postalCode": "08013",
        "municipality": "Barcelona",
        "county": "Barcelona",
        "municipalityId": "019",
        "countyId": "08"
      },
      "economicActivities": [
        {
          "id": "1.615.9",
          "name": "Venta al por mayor de otros artículos de consumo duradero n.c.o.p",
          "_links": {
            "self": {
              "name": "Venta al por mayor de otros artículos de consumo duradero n.c.o.p",
              "href": "https://api.euskadi.eus/procurements/companies/economic-activities/1.615.9"
            }
          }
        },
        {
          "id": "1.699",
          "name": "Otras reparaciones n.c.o.p",
          "_links": {
            "self": {
              "name": "Otras reparaciones n.c.o.p",
              "href": "https://api.euskadi.eus/procurements/companies/economic-activities/1.699"
            }
          }
        }
      ],
      "certificateStartDate": "1999-03-02",
      "certificateEndDate": "1999-07-27",
      "object": "LA FABRICACIÓN, COMPRA, VENTA, REVENTA, REPRESENTACIÓN, INSTALACIÓN, MANUTENCIÓN Y REPARACIÓN DE: a) CAJAS DE CAUDALES, CÁMARAS ACORAZADAS, CAJAS FUERTES, PUERTAS ACORAZADAS, ARMARIOS ACORAZADOS REFRACTARIOS, DISPOSITIVOS DE ALARMA Y DE VIGILANCIA AUTOMÁTICA Y, EN GENERAL, TODOS LOS ARTÍCULOS Y DISPOSITIVOS DE SEGURIDAD CONTRA EL ROBO Y EL INCENDIO. b) CERRADURAS DE SEGURIDAD, CANDADOS Y DEMÁS ARTÍCULOS DE CERRAJERÍA Y FERRETERÍA, EN GENERAL. c) MATERIAL Y MOBILIARIO, METÁLICO Y DE OFICINA Y EN GENERAL, CUALQUIER OPERACIÓN COMERCIAL E INDUSTRIAL ANEJA A LAS ACTIVIDADES CITADAS",
      "mainEntityOfPage": "https://www.contratacion.euskadi.eus/webkpe00-kperoc/es/ac71aBusquedaRegistrosWar/empresa/00163",
      "_links": {
        "self": {
          "name": "FICHET, S.A.",
          "href": "https://api.euskadi.eus/procurements/companies/00163"
        }
      }
    },
    {
      "name": "VASCONGADA DE AMBIENTACIÓN, S.A.",
      "registrationNumber": "01296",
      "identificationNumber": "A48116479",
      "address": "C/ VILLA DE PLENCIA, Nº 18 - BAJO.",
      "location": {
        "postalCode": "48930",
        "municipality": "Getxo",
        "county": "Bizkaia",
        "municipalityId": "044",
        "countyId": "48"
      },
      "economicActivities": [
        {
          "id": "1.504.3",
          "name": "Instalaciones de frío, calor y acondicionamiento de aire",
          "_links": {
            "self": {
              "name": "Instalaciones de frío, calor y acondicionamiento de aire",
              "href": "https://api.euskadi.eus/procurements/companies/economic-activities/1.504.3"
            }
          }
        }
      ],
      "certificateStartDate": "1999-02-25",
      "certificateEndDate": "1999-08-15",
      "object": "LA PROMOCIÓN, EJECUCIÓN, COMPRA-VENTA Y EXPLOTACIÓN, POR CUALQUIER MEDIO LÍCITO, DE TODA CLASE DE OBRAS DE CONSTRUCCIÓN, REPARACIÓN, CONSERVACIÓN Y DECORACIÓN, COMPLETA O POR TRAMOS, POR CUENTA PROPIA, AJENA, POR CONTRATA O A DESTAJO. IMPORTACIÓN, EXPORTACIÓN, ALMACENAJE Y REPRESENTACIÓN, DE TODA CLASE DE ARTÍCULOS NACIONALES O EXTRANJEROS",
      "mainEntityOfPage": "https://www.contratacion.euskadi.eus/webkpe00-kperoc/es/ac71aBusquedaRegistrosWar/empresa/01296",
      "_links": {
        "self": {
          "name": "VASCONGADA DE AMBIENTACIÓN, S.A.",
          "href": "https://api.euskadi.eus/procurements/companies/01296"
        }
      }
    },
    {
      "name": "JESÚS MARÍA PINEDO FONTECHA (J.M.P. GESTIÓN PUBLICITARIA)",
      "registrationNumber": "02101",
      "identificationNumber": "16261969A",
      "address": "C/ FUEROS, Nº 16 - 1º, OFIC. 27-1",
      "location": {
        "postalCode": "01005",
        "municipality": "Vitoria-Gasteiz",
        "county": "Araba/Álava",
        "municipalityId": "059",
        "countyId": "01"
      },
      "economicActivities": [
        {
          "id": "2.751",
          "name": "Profesionales de la publicidad, relaciones públicas y similares",
          "_links": {
            "self": {
              "name": "Profesionales de la publicidad, relaciones públicas y similares",
              "href": "https://api.euskadi.eus/procurements/companies/economic-activities/2.751"
            }
          }
        }
      ],
      "certificateStartDate": "1999-02-15",
      "certificateEndDate": "1999-07-28",
      "object": "GESTIONA LA PUBLICIDAD DE DIFERENTES MEDIOS COMO PUEDEN SER LA PRENSA ESCRITA, LA RADIO, ETC. REALIZA REVISTAS A PROFESIONALES COMO PUEDEN SER ABOGADOS, ECONOMISTAS, O GESTORÍAS EN GENERAL CON EL FIN DE DIFUNDIR SU LABOR",
      "mainEntityOfPage": "https://www.contratacion.euskadi.eus/webkpe00-kperoc/es/ac71aBusquedaRegistrosWar/empresa/02101",
      "_links": {
        "self": {
          "name": "JESÚS MARÍA PINEDO FONTECHA (J.M.P. GESTIÓN PUBLICITARIA)",
          "href": "https://api.euskadi.eus/procurements/companies/02101"
        }
      }
    },
    {
      "name": "CONSTRUCCIONES NEO-AMBIENTALES, S.L.",
      "registrationNumber": "02100",
      "identificationNumber": "B01273549",
      "address": "C/ URARTEA, Nº 16 - PAB. 10",
      "location": {
        "postalCode": "01010",
        "municipality": "Vitoria-Gasteiz",
        "county": "Araba/Álava",
        "municipalityId": "059",
        "countyId": "01"
      },
      "economicActivities": [
        {
          "id": "1.501.2",
          "name": "Construcción completa, reparación y conservación obras civiles",
          "_links": {
            "self": {
              "name": "Construcción completa, reparación y conservación obras civiles",
              "href": "https://api.euskadi.eus/procurements/companies/economic-activities/1.501.2"
            }
          }
        }
      ],
      "certificateStartDate": "1999-02-12",
      "certificateEndDate": "1999-07-29",
      "object": "\r\na) LA CONSTRUCCIÓN Y EDIFICACIÓN DE OBRAS CIVILES, ASÍ COMO DE TODA CLASE DE INMUEBLES.\r\nb) LA EXPLOTACIÓN DE EDIFICIOS, FINCAS Y CONSTRUCCIONES DE TODA CLASE.\r\nc) LA URBANIZACIÓN DE TERRENOS Y LA PROMOCIÓN INMOBILIARIA, ENTENDIENDO POR TAL LA PRÁCTICA DE CUANTAS GESTIONES ESTÉN ENCAMINADAS A LA VENTA DE INMUEBLES.\r\nd) ASESORAMIENTO TÉCNICO EN MATERIA URBANÍSTICA E INMOBILIARIA",
      "mainEntityOfPage": "https://www.contratacion.euskadi.eus/webkpe00-kperoc/es/ac71aBusquedaRegistrosWar/empresa/02100",
      "_links": {
        "self": {
          "name": "CONSTRUCCIONES NEO-AMBIENTALES, S.L.",
          "href": "https://api.euskadi.eus/procurements/companies/02100"
        }
      }
    },
    {
      "name": "IBERESE, S.A.",
      "registrationNumber": "01004",
      "identificationNumber": "A48234439",
      "address": "C/ RIBERA DE AXPE, Nº 28 - 2ª PLANTA.",
      "location": {
        "postalCode": "48950",
        "municipality": "Erandio",
        "county": "Bizkaia",
        "municipalityId": "902",
        "countyId": "48"
      },
      "economicActivities": [
        {
          "id": "1.507",
          "name": "Construcción, reparación y conservación de toda clase obras",
          "_links": {
            "self": {
              "name": "Construcción, reparación y conservación de toda clase obras",
              "href": "https://api.euskadi.eus/procurements/companies/economic-activities/1.507"
            }
          }
        },
        {
          "id": "1.843.1",
          "name": "Servicios técnicos de ingeniería",
          "_links": {
            "self": {
              "name": "Servicios técnicos de ingeniería",
              "href": "https://api.euskadi.eus/procurements/companies/economic-activities/1.843.1"
            }
          }
        }
      ],
      "certificateStartDate": "1999-02-11",
      "certificateEndDate": "1999-08-08",
      "object": "\r\n\r\n.- LA INVESTIGACIÓN, EL ANÁLISIS PRELIMINAR, LA AUDITORÍA ENERGÉTICA, EL ESTUDIO DE VIABILIDAD, LA AUDITORÍA AMBIENTAL, LA EVALUACIÓN TÉCNICO-ECONÓMICO-FINANCIERA, LA ADQUISICIÓN, SUMINISTRO, MONTAJE Y PUESTA A PUNTO DE INSTALACIONES Y BIENES DE EQUIPO, LA PRESTACIÓN DE SERVICIOS DE OPERACIÓN, CONSERVACIÓN Y MANTENIMIENTO Y LA DOTACIÓN, GESTIÓN, TRAMITACIÓN Y APORTACIÓN DE MEDIOS ECONÓMICOS EFECTUADAS SEPARADA O CONJUNTAMENTE DE LA REALIZACIÓN DE INSTALACIONES QUE PONEN EN PRÁCTICA MEDIDAS RELACIONADAS DIRECTA O INDIRECTAMENTE CON EL USO Y APLICACIÓN EFICIENTE DE LA ENERGÍA EN SUS DIFERENTES FORMAS, TANTO INDUSTRIAL COMO NO INDUSTRIAL.\r\n\r\n.- LA REPRESENTACIÓN COMO AGENTE, COMISIONISTA O CUALQUIER FORMA DE MEDIACIÓN MERCANTIL, EN TODA CLASE DE EMPRESAS NACIONALES Y EXTRANJERAS Y LA PRESTACIÓN DE SERVICIOS RELACIONADOS CON EL OBJETO ANTERIORMENTE APUNTADO, ASÍ COMO LA REALIZACIÓN DE CUANTOS ACTOS Y CONTRATOS SEAN CONSECUENCIA DIRECTA O INDIRECTA DE LO APUNTADO.\r\n\r\n.- LA CONTRATACIÓN, GESTIÓN Y EJECUCIÓN DE TODA CLASE DE OBRAS Y CONSTRUCCIONES EN SU MÁS AMPLIO SENTIDO, TANTO PÚBLICAS COMO PRIVADAS.\r\n\r\n.- LA ADQUISICIÓN, ADMINISTRACIÓN, GESTIÓN, PROMOCIÓN, EXPLOTACIÓN EN ARRENDAMIENTO O EN CUALQUIER OTRA FORMA, CONSTRUCCIÓN, COMPRA Y VENTA DE TODA CLASE DE BIENES INMUEBLES, ASÍ COMO EL ASESORAMIENTO CON RESPECTO A LAS OPERACIONES ANTERIORES.\r\n\r\n.- LA ELABORACIÓN DE TODO TIPO DE PROYECTOS Y DE INGENIERÍA Y ARQUITECTURA, ASÍ COMO LA DIRECCIÓN, SUPERVISIÓN Y ASESORAMIENTO EN LA EJECUCIÓN DE TODO TIPO DE OBRAS Y CONSTRUCCIONES.\r\n\r\n.- LA ADQUISICIÓN, TENENCIA, DISFRUTE, ADMINISTRACIÓN Y ENAJENACIÓN DE TODA CLASE DE VALORES MOBILIARIOS POR CUENTA PROPIA, QUEDANDO EXCLUÍDAS LAS ACTIVIDADES DE LA LEGISLACIÓN ESPECIAL Y, BÁSICAMENTE, LAS QUE LA LEY DEL MERCADO DE VALORES ATRIBUYE CON CARÁCTER EXCLUSIVO A OTRAS ENTIDADES.\r\n\r\n.- LA TITULARIDAD DE TODA CLASE DE CONCESIONES, SUBVENCIONES Y AUTORIZACIONES ADMINISTRATIVAS DE OBRAS, SERVICIOS Y MIXTAS DEL ESTADO, COMUNIDAD AUTÓNOMA, PROVINCIA Y MUNICIPIO, Y LA PARTICIPACIÓN ACCIONARIAL EN SOCIEDADES CONCESIONARIAS DE AQUÉLLAS.\r\n\r\n.- LA ADQUISICIÓN, EXPLOTACIÓN EN CUALQUIER FORMA, COMERCIALIZACIÓN, CESIÓN Y ENAJENACIÓN DE TODO TIPO DE PROPIEDAD INTELECTUAL Y PATENTES Y DEMÁS MODALIDADES DE PROPIEDAD INDUSTRIAL",
      "mainEntityOfPage": "https://www.contratacion.euskadi.eus/webkpe00-kperoc/es/ac71aBusquedaRegistrosWar/empresa/01004",
      "_links": {
        "self": {
          "name": "IBERESE, S.A.",
          "href": "https://api.euskadi.eus/procurements/companies/01004"
        }
      }
    },
    {
      "name": "ASFALTOS Y CONSTRUCCIONES ELSAN, S.A. UNIPERSONAL",
      "registrationNumber": "00975",
      "identificationNumber": "A28035921",
      "address": " C/ GOBELAS, Nº 47.",
      "location": {
        "postalCode": "28023",
        "municipality": "Madrid",
        "county": "Madrid",
        "municipalityId": "079",
        "countyId": "28"
      },
      "economicActivities": [
        {
          "id": "1.507",
          "name": "Construcción, reparación y conservación de toda clase obras",
          "_links": {
            "self": {
              "name": "Construcción, reparación y conservación de toda clase obras",
              "href": "https://api.euskadi.eus/procurements/companies/economic-activities/1.507"
            }
          }
        }
      ],
      "certificateStartDate": "1999-02-10",
      "certificateEndDate": "1999-07-11",
      "object": "\r\n\r\n1.- LA CONSTRUCCIÓN, REPARACIÓN Y MODIFICACIÓN DE EDIFICIOS Y CARRETERAS, PAVIMENTACIONES Y OBRAS PÚBLICAS, TANTO PARA EL ESTADO Y DEMÁS ENTES PÚBLICOS, COMO PARA PARTICULARES, SEAN PERSONAS FÍSICAS O JURÍDICAS.\r\n\r\n2.- LA TENENCIA, ADMINISTRACIÓN, ADQUISICIÓN Y ENAJENACIÓN, POR CUENTA Y MEDIOS PROPIOS, DE ACCIONES O PARTICIPACIONES EN OTRAS SOCIEDADES, CUALQUIERA QUE SEA SU OBJETO SOCIAL O ACTIVIDAD, SIN PERJUICIO DE LA OBTENCIÓN DE LAS PERTINENTES AUTORIZACIONES ADMINISTRATIVAS QUE, EN SU CASO, FUEREN EXIGIDAS POR LA LEGISLACIÓN ESPECIAL",
      "mainEntityOfPage": "https://www.contratacion.euskadi.eus/webkpe00-kperoc/es/ac71aBusquedaRegistrosWar/empresa/00975",
      "_links": {
        "self": {
          "name": "ASFALTOS Y CONSTRUCCIONES ELSAN, S.A. UNIPERSONAL",
          "href": "https://api.euskadi.eus/procurements/companies/00975"
        }
      }
    },
    {
      "name": "CELAYA, EMPARANZA Y GALDÓS INTERNACIONAL, S.A.",
      "registrationNumber": "01395",
      "identificationNumber": "A01129303",
      "address": "C/ ARTAPADURA, Nº 11.",
      "location": {
        "postalCode": "01013",
        "municipality": "Vitoria-Gasteiz",
        "county": "Araba/Álava",
        "municipalityId": "059",
        "countyId": "01"
      },
      "economicActivities": [
        {
          "id": "1.612.9",
          "name": "Venta al por mayor de otros productos alimenticios, helados de todas clases",
          "_links": {
            "self": {
              "name": "Venta al por mayor de otros productos alimenticios, helados de todas clases",
              "href": "https://api.euskadi.eus/procurements/companies/economic-activities/1.612.9"
            }
          }
        },
        {
          "id": "1.614.2",
          "name": "Venta al por mayor de productos de perfumería, droguería, higiene y belleza",
          "_links": {
            "self": {
              "name": "Venta al por mayor de productos de perfumería, droguería, higiene y belleza",
              "href": "https://api.euskadi.eus/procurements/companies/economic-activities/1.614.2"
            }
          }
        },
        {
          "id": "1.614.3",
          "name": "Venta al por mayor de productos para el mantenimiento y funcionamiento del hogar",
          "_links": {
            "self": {
              "name": "Venta al por mayor de productos para el mantenimiento y funcionamiento del hogar",
              "href": "https://api.euskadi.eus/procurements/companies/economic-activities/1.614.3"
            }
          }
        },
        {
          "id": "1.615.9",
          "name": "Venta al por mayor de otros artículos de consumo duradero n.c.o.p",
          "_links": {
            "self": {
              "name": "Venta al por mayor de otros artículos de consumo duradero n.c.o.p",
              "href": "https://api.euskadi.eus/procurements/companies/economic-activities/1.615.9"
            }
          }
        }
      ],
      "certificateStartDate": "1999-02-03",
      "certificateEndDate": "1999-07-19",
      "object": "LA PROMOCIÓN, GESTIÓN, DESARROLLO Y EXPLOTACIÓN DE TODA CLASE DE NEGOCIOS Y EMPRESAS DEDICADAS A LA COMERCIALIZACIÓN, COMPRAVENTA, REPRESENTACIÓN, IMPORTACIÓN Y EXPORTACIÓN, TANTO AL POR MAYOR COMO AL POR MENOR, DE TODA CLASE DE MATERIALES, BIENES Y PRODUCTOS DE FABRICACIÓN NACIONAL Y EXTRANJERA, POR CUENTA PROPIA O DE TERCEROS, ASÍ COMO LA PRESTACIÓN DE SERVICIOS DE ASISTENCIA TÉCNICA",
      "mainEntityOfPage": "https://www.contratacion.euskadi.eus/webkpe00-kperoc/es/ac71aBusquedaRegistrosWar/empresa/01395",
      "_links": {
        "self": {
          "name": "CELAYA, EMPARANZA Y GALDÓS INTERNACIONAL, S.A.",
          "href": "https://api.euskadi.eus/procurements/companies/01395"
        }
      }
    }
  ]
}