{
  "totalItems": 9042,
  "totalPages": 905,
  "currentPage": 858,
  "itemsOfPage": 10,
  "items": [
    {
      "name": "DOREZILAR, S.L.",
      "registrationNumber": "03842",
      "identificationNumber": "B95361739",
      "address": "C/KAREAGA, Nº 85",
      "location": {
        "postalCode": "48903",
        "municipality": "Barakaldo",
        "county": "Bizkaia",
        "municipalityId": "013",
        "countyId": "48"
      },
      "object": ".",
      "mainEntityOfPage": "https://www.contratacion.euskadi.eus/webkpe00-kperoc/es/ac71aBusquedaRegistrosWar/empresa/03842",
      "_links": {
        "self": {
          "name": "DOREZILAR, S.L.",
          "href": "https://api.euskadi.eus/procurements/companies/03842"
        }
      }
    },
    {
      "name": "HOGEIKA, S.L.",
      "registrationNumber": "03843",
      "identificationNumber": "B20996740",
      "address": "HERRIKOSORO, 125",
      "location": {
        "postalCode": "20800",
        "municipality": "Zarautz",
        "county": "Gipuzkoa",
        "municipalityId": "079",
        "countyId": "20"
      },
      "object": "pte",
      "mainEntityOfPage": "https://www.contratacion.euskadi.eus/webkpe00-kperoc/es/ac71aBusquedaRegistrosWar/empresa/03843",
      "_links": {
        "self": {
          "name": "HOGEIKA, S.L.",
          "href": "https://api.euskadi.eus/procurements/companies/03843"
        }
      }
    },
    {
      "name": "ESPACIO ACTITUDES, S.L.",
      "registrationNumber": "03850",
      "identificationNumber": "B95436366",
      "address": "LICENCIADO POZA, 59-1ºD",
      "location": {
        "postalCode": "48013",
        "municipality": "Bilbao",
        "county": "Bizkaia",
        "municipalityId": "020",
        "countyId": "48"
      },
      "object": ".",
      "mainEntityOfPage": "https://www.contratacion.euskadi.eus/webkpe00-kperoc/es/ac71aBusquedaRegistrosWar/empresa/03850",
      "_links": {
        "self": {
          "name": "ESPACIO ACTITUDES, S.L.",
          "href": "https://api.euskadi.eus/procurements/companies/03850"
        }
      }
    },
    {
      "name": "SANATORIO DE USURBIL, S.L.",
      "registrationNumber": "03859",
      "identificationNumber": "B20017802",
      "address": "BARRIO SAN ESTEBAN, Nº 48",
      "location": {
        "postalCode": "20170",
        "municipality": "Usurbil",
        "county": "Gipuzkoa",
        "municipalityId": "073",
        "countyId": "20"
      },
      "object": ".",
      "mainEntityOfPage": "https://www.contratacion.euskadi.eus/webkpe00-kperoc/es/ac71aBusquedaRegistrosWar/empresa/03859",
      "_links": {
        "self": {
          "name": "SANATORIO DE USURBIL, S.L.",
          "href": "https://api.euskadi.eus/procurements/companies/03859"
        }
      }
    },
    {
      "name": "AUTOCARES HNOS. ESCUDERO, S.L.",
      "registrationNumber": "03874",
      "identificationNumber": "B20051074",
      "address": "LOIOLAKO INAZIO HIRIBIDEA, 10-BAJO. DCHA.",
      "location": {
        "postalCode": "20730",
        "municipality": "Azpeitia",
        "county": "Gipuzkoa",
        "municipalityId": "018",
        "countyId": "20"
      },
      "object": "pte",
      "mainEntityOfPage": "https://www.contratacion.euskadi.eus/webkpe00-kperoc/es/ac71aBusquedaRegistrosWar/empresa/03874",
      "_links": {
        "self": {
          "name": "AUTOCARES HNOS. ESCUDERO, S.L.",
          "href": "https://api.euskadi.eus/procurements/companies/03874"
        }
      }
    },
    {
      "name": "CUADRA BIDEAN, S.L.",
      "registrationNumber": "03879",
      "identificationNumber": "B01387562",
      "address": "BARRIO SAN JUAN S/N",
      "location": {
        "postalCode": "20570",
        "municipality": "Bergara",
        "county": "Gipuzkoa",
        "municipalityId": "074",
        "countyId": "20"
      },
      "classification": [
        {
          "id": "S",
          "name": "Servicios",
          "groups": [
            {
              "id": "R",
              "subgroups": [
                {
                  "id": "01",
                  "name": "Transporte de viajeros por carretera",
                  "categories": [
                    {
                      "id": "5",
                      "name": "Mas de 1.200.000",
                      "_links": {
                        "self": {
                          "name": "Mas de 1.200.000",
                          "href": "https://api.euskadi.eus/procurements/companies/types/S/categories/5"
                        }
                      }
                    }
                  ],
                  "_links": {
                    "self": {
                      "name": "Transporte de viajeros por carretera",
                      "href": "https://api.euskadi.eus/procurements/companies/types/S/groups/R/subgroups/01"
                    }
                  }
                }
              ],
              "_links": {
                "self": {
                  "href": "https://api.euskadi.eus/procurements/companies/types/S/groups/R"
                }
              }
            }
          ],
          "_links": {
            "self": {
              "name": "Servicios",
              "href": "https://api.euskadi.eus/procurements/companies/types/S"
            }
          }
        }
      ],
      "object": "pte",
      "mainEntityOfPage": "https://www.contratacion.euskadi.eus/webkpe00-kperoc/es/ac71aBusquedaRegistrosWar/empresa/03879",
      "_links": {
        "self": {
          "name": "CUADRA BIDEAN, S.L.",
          "href": "https://api.euskadi.eus/procurements/companies/03879"
        }
      }
    },
    {
      "name": "EXCURSIONES TUÑEZ SANCHEZ SOCIEDAD LIMITADA",
      "registrationNumber": "03881",
      "identificationNumber": "B48109052",
      "address": "Zubiur Tarteka nº 40 Bajo Local 5 F",
      "location": {
        "postalCode": "48370",
        "municipality": "Bermeo",
        "county": "Bizkaia",
        "municipalityId": "017",
        "countyId": "48"
      },
      "classification": [
        {
          "id": "S",
          "name": "Servicios",
          "groups": [
            {
              "id": "R",
              "subgroups": [
                {
                  "id": "01",
                  "name": "Transporte de viajeros por carretera",
                  "categories": [
                    {
                      "id": "4",
                      "name": "Desde 600.001 Hasta 1.1200.000",
                      "_links": {
                        "self": {
                          "name": "Desde 600.001 Hasta 1.1200.000",
                          "href": "https://api.euskadi.eus/procurements/companies/types/S/categories/4"
                        }
                      }
                    }
                  ],
                  "_links": {
                    "self": {
                      "name": "Transporte de viajeros por carretera",
                      "href": "https://api.euskadi.eus/procurements/companies/types/S/groups/R/subgroups/01"
                    }
                  }
                }
              ],
              "_links": {
                "self": {
                  "href": "https://api.euskadi.eus/procurements/companies/types/S/groups/R"
                }
              }
            }
          ],
          "_links": {
            "self": {
              "name": "Servicios",
              "href": "https://api.euskadi.eus/procurements/companies/types/S"
            }
          }
        }
      ],
      "object": "LA SOCIEDAD TIENE COMO OBJETO SOCIAL EL TRANSPORTE DISCRECIONAL DE VIAJEROS POR CARRETERA, Y EN GENERAL, A TODO LO QUE SE ENTECEDENTE, AUXILIAR, ACCESORIO, CONSECUENCIA O SE RELACIONE, DIRECTA O INDIRECTAMENTE, CON LA FINALIDAD EXPRESADA.\nLA SOCIEDAD REALIZRA SU OBJETO CON PLENA CAPACIDAD JURIDICA, PARA TODA CLASE DE ACTOS Y CONTRATOS, CIVILES, ADMINISTRATIVOS Y MERCANTILES, INCLUSO LOS DE ADQUISION, GRAVAMEN Y DISPOSICION DE INMUEBLES, MAQUINARIA, VEHICULOS, UTILLAJES, MATERIALES Y EN GENERAL BIENES Y DERECHOS DE CUALQUIER CLASE DE NATURALEZA.",
      "mainEntityOfPage": "https://www.contratacion.euskadi.eus/webkpe00-kperoc/es/ac71aBusquedaRegistrosWar/empresa/03881",
      "_links": {
        "self": {
          "name": "EXCURSIONES TUÑEZ SANCHEZ SOCIEDAD LIMITADA",
          "href": "https://api.euskadi.eus/procurements/companies/03881"
        }
      }
    },
    {
      "name": "URRATE BERRI ERAIKUNTZAK, S..L.",
      "registrationNumber": "03894",
      "identificationNumber": "B20911921",
      "address": "Plazaola s/n bajo Apdo 44",
      "location": {
        "postalCode": "20230",
        "municipality": "Legazpi",
        "county": "Gipuzkoa",
        "municipalityId": "051",
        "countyId": "20"
      },
      "economicActivities": [
        {
          "id": "1.501.1",
          "name": "Construcción completa, reparación y conservación de edificaciones",
          "_links": {
            "self": {
              "name": "Construcción completa, reparación y conservación de edificaciones",
              "href": "https://api.euskadi.eus/procurements/companies/economic-activities/1.501.1"
            }
          }
        }
      ],
      "object": "construcción",
      "mainEntityOfPage": "https://www.contratacion.euskadi.eus/webkpe00-kperoc/es/ac71aBusquedaRegistrosWar/empresa/03894",
      "_links": {
        "self": {
          "name": "URRATE BERRI ERAIKUNTZAK, S..L.",
          "href": "https://api.euskadi.eus/procurements/companies/03894"
        }
      }
    },
    {
      "name": "ALUVITEL, S. COOP.",
      "registrationNumber": "03896",
      "identificationNumber": "F01436740",
      "address": "C/ BARRACHI, 37. PAB. 14",
      "location": {
        "postalCode": "01013",
        "municipality": "Vitoria-Gasteiz",
        "county": "Araba/Álava",
        "municipalityId": "059",
        "countyId": "01"
      },
      "object": "pte",
      "mainEntityOfPage": "https://www.contratacion.euskadi.eus/webkpe00-kperoc/es/ac71aBusquedaRegistrosWar/empresa/03896",
      "_links": {
        "self": {
          "name": "ALUVITEL, S. COOP.",
          "href": "https://api.euskadi.eus/procurements/companies/03896"
        }
      }
    },
    {
      "name": "EUSKO EVENTS, S.L.",
      "registrationNumber": "03897",
      "identificationNumber": "B95538260",
      "address": "MESTERIKA, 31",
      "location": {
        "postalCode": "48120",
        "municipality": "Meñaka",
        "county": "Bizkaia",
        "municipalityId": "064",
        "countyId": "48"
      },
      "object": "pte",
      "mainEntityOfPage": "https://www.contratacion.euskadi.eus/webkpe00-kperoc/es/ac71aBusquedaRegistrosWar/empresa/03897",
      "_links": {
        "self": {
          "name": "EUSKO EVENTS, S.L.",
          "href": "https://api.euskadi.eus/procurements/companies/03897"
        }
      }
    }
  ]
}