{
  "totalItems": 9042,
  "totalPages": 905,
  "currentPage": 741,
  "itemsOfPage": 10,
  "items": [
    {
      "name": "EFITERMIK ENERGIAS RENOVABLES, S.L.",
      "registrationNumber": "03994",
      "identificationNumber": "B20957353",
      "address": "BARRENA Nº 10 BAJO",
      "location": {
        "postalCode": "20600",
        "municipality": "Eibar",
        "county": "Gipuzkoa",
        "municipalityId": "030",
        "countyId": "20"
      },
      "economicActivities": [
        {
          "id": "1.504.1",
          "name": "Instalaciones eléctricas en general",
          "_links": {
            "self": {
              "name": "Instalaciones eléctricas en general",
              "href": "https://api.euskadi.eus/procurements/companies/economic-activities/1.504.1"
            }
          }
        },
        {
          "id": "1.504.3",
          "name": "Instalaciones de frío, calor y acondicionamiento de aire",
          "_links": {
            "self": {
              "name": "Instalaciones de frío, calor y acondicionamiento de aire",
              "href": "https://api.euskadi.eus/procurements/companies/economic-activities/1.504.3"
            }
          }
        }
      ],
      "certificateStartDate": "2009-09-17",
      "certificateEndDate": "2010-02-05",
      "object": "LA INGENIERÍA E INSTALACIÓN DE EQUIPOS BASADOS EN ENERGÍAS RENOVABLES Y EFICIENCIA ENERGÉTICA",
      "mainEntityOfPage": "https://www.contratacion.euskadi.eus/webkpe00-kperoc/es/ac71aBusquedaRegistrosWar/empresa/03994",
      "_links": {
        "self": {
          "name": "EFITERMIK ENERGIAS RENOVABLES, S.L.",
          "href": "https://api.euskadi.eus/procurements/companies/03994"
        }
      }
    },
    {
      "name": "CONSTRUCCIONES ALZOLA, S.A.",
      "registrationNumber": "01496",
      "identificationNumber": "A20035671",
      "address": "C/ AVENIDA PABLO IGLESIAS, Nº 2 - 1º.",
      "location": {
        "postalCode": "20100",
        "municipality": "Errenteria",
        "county": "Gipuzkoa",
        "municipalityId": "067",
        "countyId": "20"
      },
      "economicActivities": [
        {
          "id": "1.501.1",
          "name": "Construcción completa, reparación y conservación de edificaciones",
          "_links": {
            "self": {
              "name": "Construcción completa, reparación y conservación de edificaciones",
              "href": "https://api.euskadi.eus/procurements/companies/economic-activities/1.501.1"
            }
          }
        },
        {
          "id": "1.501.2",
          "name": "Construcción completa, reparación y conservación obras civiles",
          "_links": {
            "self": {
              "name": "Construcción completa, reparación y conservación obras civiles",
              "href": "https://api.euskadi.eus/procurements/companies/economic-activities/1.501.2"
            }
          }
        }
      ],
      "certificateStartDate": "2009-09-15",
      "certificateEndDate": "2009-12-23",
      "object": "LA CONSTRUCCIÓN DE TODO TIPO DE EDIFICACIONES, TANTO DE VIVIENDAS COMO DE CONSTRUCCIONES DE CARÁCTER INDUSTRIAL, OBRAS PÚBLICAS, VÍAS Y EXCAVACIONES, DESMONTES, VACIADOS Y NIVELACIONES DE TERRENO, ASÍ COMO ALQUILER DE MAQUINARIA PARA OBRAS PÚBLICAS",
      "mainEntityOfPage": "https://www.contratacion.euskadi.eus/webkpe00-kperoc/es/ac71aBusquedaRegistrosWar/empresa/01496",
      "_links": {
        "self": {
          "name": "CONSTRUCCIONES ALZOLA, S.A.",
          "href": "https://api.euskadi.eus/procurements/companies/01496"
        }
      }
    },
    {
      "name": "PFIZER, S.A.",
      "registrationNumber": "03304",
      "identificationNumber": "A28089225",
      "address": "AVDA. DE EUROPA, 20-B",
      "location": {
        "postalCode": "28108",
        "municipality": "Alcobendas",
        "county": "Madrid",
        "municipalityId": "006",
        "countyId": "28"
      },
      "economicActivities": [
        {
          "id": "1.614.1",
          "name": "Venta al por mayor de productos farmacéuticos y medicamentos",
          "_links": {
            "self": {
              "name": "Venta al por mayor de productos farmacéuticos y medicamentos",
              "href": "https://api.euskadi.eus/procurements/companies/economic-activities/1.614.1"
            }
          }
        },
        {
          "id": "1.619.2",
          "name": "Venta al por mayor de aparatos e instrumentos médicos, ortopédicos, ópticos",
          "_links": {
            "self": {
              "name": "Venta al por mayor de aparatos e instrumentos médicos, ortopédicos, ópticos",
              "href": "https://api.euskadi.eus/procurements/companies/economic-activities/1.619.2"
            }
          }
        },
        {
          "id": "1.854",
          "name": "Alquiler de automóviles sin conductor",
          "_links": {
            "self": {
              "name": "Alquiler de automóviles sin conductor",
              "href": "https://api.euskadi.eus/procurements/companies/economic-activities/1.854"
            }
          }
        },
        {
          "id": "1.936.1",
          "name": "Investigación en ciencias exactas y naturales",
          "_links": {
            "self": {
              "name": "Investigación en ciencias exactas y naturales",
              "href": "https://api.euskadi.eus/procurements/companies/economic-activities/1.936.1"
            }
          }
        }
      ],
      "certificateStartDate": "2009-09-14",
      "certificateEndDate": "2009-12-01",
      "object": "LA FABRICACIÓN, TRANSFORMACIÓN, EMPAQUETADO, IMPORTACIÓN, EXPORTACIÓN Y VENTA DE PRODUCTOS QUÍMICOS, FARMACÉUTICOS, MEDICINALES, BIOLÓGICOS, AGRÍCOLAS, COSMÉTICOS E INDUSTRIALES; MATERIAS PRIMAS Y SEMIMANUFACTURADOS, YA POR CUENTA DE LA SOCIEDAD O COMO AGENTE COMISIONADO ",
      "mainEntityOfPage": "https://www.contratacion.euskadi.eus/webkpe00-kperoc/es/ac71aBusquedaRegistrosWar/empresa/03304",
      "_links": {
        "self": {
          "name": "PFIZER, S.A.",
          "href": "https://api.euskadi.eus/procurements/companies/03304"
        }
      }
    },
    {
      "name": "FERNANDO LAZARO, S.L.",
      "registrationNumber": "03824",
      "identificationNumber": "B01029552",
      "address": "CAMINO SANTA LUCIA, Nº 17-BAJO",
      "location": {
        "postalCode": "01320",
        "municipality": "Oyón-Oion",
        "county": "Araba/Álava",
        "municipalityId": "043",
        "countyId": "01"
      },
      "economicActivities": [
        {
          "id": "1.501.2",
          "name": "Construcción completa, reparación y conservación obras civiles",
          "_links": {
            "self": {
              "name": "Construcción completa, reparación y conservación obras civiles",
              "href": "https://api.euskadi.eus/procurements/companies/economic-activities/1.501.2"
            }
          }
        },
        {
          "id": "1.504.2",
          "name": "Instalaciones de fontanería",
          "_links": {
            "self": {
              "name": "Instalaciones de fontanería",
              "href": "https://api.euskadi.eus/procurements/companies/economic-activities/1.504.2"
            }
          }
        },
        {
          "id": "2.321",
          "name": "Ingenieros técnicos industriales y textiles, ayudantes",
          "_links": {
            "self": {
              "name": "Ingenieros técnicos industriales y textiles, ayudantes",
              "href": "https://api.euskadi.eus/procurements/companies/economic-activities/2.321"
            }
          }
        }
      ],
      "certificateStartDate": "2009-09-04",
      "certificateEndDate": "2010-02-07",
      "object": "A) LA FABRICACIÓN, VENTA, COMERCIALIZACIÓN, IMPORTACIÓN, EXPORTACIÓN Y EXPOSICIÓN, DE TODA CLASE DE MAQUINARIA, MATERIALES, PIEZAS Y ACCESORIOS AGRÍCOLAS, INDUSTRIALES Y PARA LA CONSTRUCCIÓN, EN ESPECIAL LAS QUE TENGAN RELACIÓN CON SISTEMAS DE RIEGO, ASÍ COMO ESTRUCTURAS Y CARPINTERÍA METÁLICA.\r\nB) LA PROMOCIÓN Y CONSTRUCCIÓN DE TODA CLASE DE EDIFICACIONES Y OBRAS EN GENERAL, TANTO PÚBLICAS COMO PRIVADAS, POR CUENTA PROPIA O AJENA, SU COMPRAVENTA O NEGOCIACIÓN, ASÍ COMO LA DE SOLARES Y TERRENOS DESTINADOS A LA CONSTRUCCIÓN, Y CUALQUIER OTRA ACTIVIDAD INMOBILIARIA.\r\nC) LA REALIZACIÓN DE CÁLCULO, DISEÑO, PROYECTO E INSTALACIÓN DE CENTRALES ELÉCTRICAS, CENTROS DE TRANSFORMACIÓN, REDES ELÉCTRICAS DE ALTA Y BAJA TENSIÓN, INSTALACIONES INDUSTRIALES Y DOMÉSTICAS.\r\nD) CONFECCIÓN E INSTALACIÓN DE SISTEMAS, REDES Y EQUIPOS INFORMÁTICOS.\r\nE) VALORACIÓN, INSPECCIÓN, PERITACIÓN DE SINIESTROS DE TODO TIPO DE EDIFICIOS, CONSTRUCCIONES Y ESTRUCTURAS.\r\nF) VALORACIÓN, TASACIÓN Y REALIZACIÓN DE PERITACIONES DE SINIESTROS, FICHAS TÉCNICAS EN VEHÍCULOS.\r\nG) PERITACIÓN DE SINIESTROS EN SEGUROS AGRÍCOLAS, PERITACIÓN DE SINIESTROS DEL CONSORCIO Y OTRAS PERITACIONES",
      "mainEntityOfPage": "https://www.contratacion.euskadi.eus/webkpe00-kperoc/es/ac71aBusquedaRegistrosWar/empresa/03824",
      "_links": {
        "self": {
          "name": "FERNANDO LAZARO, S.L.",
          "href": "https://api.euskadi.eus/procurements/companies/03824"
        }
      }
    },
    {
      "name": "CONSTRUCCIONES Y PROMOCIONES ALKESA 2001, S.L.",
      "registrationNumber": "03987",
      "identificationNumber": "B20652806",
      "address": "C/SANTA MARINA, Nº 40-42",
      "location": {
        "postalCode": "20500",
        "municipality": "Arrasate / Mondragón",
        "county": "Gipuzkoa",
        "municipalityId": "055",
        "countyId": "20"
      },
      "economicActivities": [
        {
          "id": "1.501.1",
          "name": "Construcción completa, reparación y conservación de edificaciones",
          "_links": {
            "self": {
              "name": "Construcción completa, reparación y conservación de edificaciones",
              "href": "https://api.euskadi.eus/procurements/companies/economic-activities/1.501.1"
            }
          }
        }
      ],
      "certificateStartDate": "2009-09-04",
      "certificateEndDate": "2010-01-09",
      "object": "LA ALBAÑILERÍA, CONSTRUCCIÓN, PROMOCIÓN Y VENTA INMOBILIARIA, Y ALQUILER DE LOCALES",
      "mainEntityOfPage": "https://www.contratacion.euskadi.eus/webkpe00-kperoc/es/ac71aBusquedaRegistrosWar/empresa/03987",
      "_links": {
        "self": {
          "name": "CONSTRUCCIONES Y PROMOCIONES ALKESA 2001, S.L.",
          "href": "https://api.euskadi.eus/procurements/companies/03987"
        }
      }
    },
    {
      "name": "SERVICIOS Y SUMINISTROS AUXITEC, S.L.",
      "registrationNumber": "03988",
      "identificationNumber": "B01323336",
      "address": "GOIKOBERAZA 12-POL. IND. JÚNDIZ",
      "location": {
        "postalCode": "01000",
        "municipality": "Vitoria-Gasteiz",
        "county": "Araba/Álava",
        "municipalityId": "059",
        "countyId": "01"
      },
      "economicActivities": [
        {
          "id": "1.653.3",
          "name": "Venta al por menor de artículos de menaje, ferretería, adorno, regalo",
          "_links": {
            "self": {
              "name": "Venta al por menor de artículos de menaje, ferretería, adorno, regalo",
              "href": "https://api.euskadi.eus/procurements/companies/economic-activities/1.653.3"
            }
          }
        }
      ],
      "certificateStartDate": "2009-09-04",
      "certificateEndDate": "2009-11-18",
      "object": "LOS SERVICIOS DE SESORAMIENTO Y GESTIÓN COMERCIAL. LA COMERCIALIZACIÓN DE SUMINISTROS INDUSTRIALES. EL TRANSPORTE DE TODA CLASE DE MERCANCÍAS. EL MANTENIMIENTO Y SERVICIO TÉCNICO DE TODA CLASE DE MAQUINARIA, HERRAMIENTAS Y EQUIPOS INODUSTRIALES",
      "mainEntityOfPage": "https://www.contratacion.euskadi.eus/webkpe00-kperoc/es/ac71aBusquedaRegistrosWar/empresa/03988",
      "_links": {
        "self": {
          "name": "SERVICIOS Y SUMINISTROS AUXITEC, S.L.",
          "href": "https://api.euskadi.eus/procurements/companies/03988"
        }
      }
    },
    {
      "name": "ESPOLIMP, S.A.",
      "registrationNumber": "03986",
      "identificationNumber": "A28625663",
      "address": "FUNDIDORES, 63",
      "location": {
        "postalCode": "28906",
        "municipality": "Getafe",
        "county": "Madrid",
        "municipalityId": "065",
        "countyId": "28"
      },
      "economicActivities": [
        {
          "id": "1.482.1",
          "name": "Fabricación de productos semielaborados de materias plásticas",
          "_links": {
            "self": {
              "name": "Fabricación de productos semielaborados de materias plásticas",
              "href": "https://api.euskadi.eus/procurements/companies/economic-activities/1.482.1"
            }
          }
        }
      ],
      "certificateStartDate": "2009-09-03",
      "certificateEndDate": "2009-11-08",
      "object": "FABRICACIÓN, COMERCIALIZACIÓN, COMPRA, VENTA, IMPORTACIÓN Y EXPORTACIÓN DE TODA CLASE DE PRODUCTOS PARA TODO TIPO DE LIMPIEZA Y, EN ESPECIAL, PARA EL HOGAR",
      "mainEntityOfPage": "https://www.contratacion.euskadi.eus/webkpe00-kperoc/es/ac71aBusquedaRegistrosWar/empresa/03986",
      "_links": {
        "self": {
          "name": "ESPOLIMP, S.A.",
          "href": "https://api.euskadi.eus/procurements/companies/03986"
        }
      }
    },
    {
      "name": "CONSTRUCCIONES DEL RIO AGUADO, S.L.",
      "registrationNumber": "03460",
      "identificationNumber": "B95073532",
      "address": "C/ GALICIA 12",
      "location": {
        "postalCode": "48450",
        "municipality": "Etxebarri",
        "county": "Bizkaia",
        "municipalityId": "029",
        "countyId": "48"
      },
      "economicActivities": [
        {
          "id": "1.501.1",
          "name": "Construcción completa, reparación y conservación de edificaciones",
          "_links": {
            "self": {
              "name": "Construcción completa, reparación y conservación de edificaciones",
              "href": "https://api.euskadi.eus/procurements/companies/economic-activities/1.501.1"
            }
          }
        }
      ],
      "certificateStartDate": "2009-08-31",
      "certificateEndDate": "2010-02-17",
      "object": "LA PROMOCIÓN, CONSTRUCCIÓN, REHABILITACIÓN Y REPARACIÓN, POR CUENTA PROPIA O AJENA, DE TODA CLASE DE OBRAS, URBANIZACIONES, EDIFICIOS Y CONSTRUCCIONES, TANTO PÚBLICOS COMO PRIVADOS",
      "mainEntityOfPage": "https://www.contratacion.euskadi.eus/webkpe00-kperoc/es/ac71aBusquedaRegistrosWar/empresa/03460",
      "_links": {
        "self": {
          "name": "CONSTRUCCIONES DEL RIO AGUADO, S.L.",
          "href": "https://api.euskadi.eus/procurements/companies/03460"
        }
      }
    },
    {
      "name": "ANTZEZLAN PRODUCCIONES, S.L.",
      "registrationNumber": "03598",
      "identificationNumber": "B95507711",
      "address": "C/SAGARMINAGA, 9-6º ID",
      "location": {
        "postalCode": "48004",
        "municipality": "Bilbao",
        "county": "Bizkaia",
        "municipalityId": "020",
        "countyId": "48"
      },
      "economicActivities": [
        {
          "id": "1.989.2",
          "name": "Servicios de organización de congresos, asambleas y similares",
          "_links": {
            "self": {
              "name": "Servicios de organización de congresos, asambleas y similares",
              "href": "https://api.euskadi.eus/procurements/companies/economic-activities/1.989.2"
            }
          }
        }
      ],
      "certificateStartDate": "2009-08-21",
      "certificateEndDate": "2010-02-14",
      "object": "DESARROLLO INTEGRAL DE EVENTOS Y ESPECTÁCULOS Y DISTRIBUCIÓN Y REPRESENTACIÓN ARTÍSTICA. CREACIÓN, DISEÑO, PROGRAMACIÓN Y PRODUCCIÓN DE TODO TIPO DE ELEMENTOS PARA EVENTOS TALES COMO, DECORACIÓN, ILUMINACIÓN, SONIDO, VESTUARIO, ESCENOGRAFÍA, EFECTOS ESPECIALES, MEDIOS AUDIOVISUALES, ETC. DESARROLLO DE CAMPAÑAS DE FIDELIZACIÓN; ACCIONES DE MARKETING PROMOCIONAL; PRESENTACIONES Y LANZAMIENTOS DE PRODUCTOS; CONVENCIONES, REUNIONES E INCENTIVOS PARA EMPRESAS Y FERIAS PROMOCIONALES. DISEÑO, ORGANIZACIÓN E IMPARTICIÓN DE CURSOS Y TALLERES EN EL ÁMBITO TEATRAL Y ARTÍSTICO",
      "mainEntityOfPage": "https://www.contratacion.euskadi.eus/webkpe00-kperoc/es/ac71aBusquedaRegistrosWar/empresa/03598",
      "_links": {
        "self": {
          "name": "ANTZEZLAN PRODUCCIONES, S.L.",
          "href": "https://api.euskadi.eus/procurements/companies/03598"
        }
      }
    },
    {
      "name": "CARDINAL HEALTH SPAIN 219, S.L.",
      "registrationNumber": "02279",
      "identificationNumber": "B81874786",
      "address": "EDIFICIO VEGANOVA. AVDA. DE LA VEGA, Nº 1. BLOQUE 1-1ª PLANT",
      "location": {
        "postalCode": "28108",
        "municipality": "Alcobendas",
        "county": "Madrid",
        "municipalityId": "006",
        "countyId": "28"
      },
      "economicActivities": [
        {
          "id": "1.614.1",
          "name": "Venta al por mayor de productos farmacéuticos y medicamentos",
          "_links": {
            "self": {
              "name": "Venta al por mayor de productos farmacéuticos y medicamentos",
              "href": "https://api.euskadi.eus/procurements/companies/economic-activities/1.614.1"
            }
          }
        }
      ],
      "certificateStartDate": "2009-08-14",
      "certificateEndDate": "2009-09-02",
      "object": "LA COMERCIALIZACIÓN Y DISTRIBUCIÓN DE TODA CLASE DE PRODUCTOS Y SERVICIOS SANITARIOS PRESTADOS A TRAVÉS DE LOS CORRESPONDIENTES PROFESIONALES.",
      "mainEntityOfPage": "https://www.contratacion.euskadi.eus/webkpe00-kperoc/es/ac71aBusquedaRegistrosWar/empresa/02279",
      "_links": {
        "self": {
          "name": "CARDINAL HEALTH SPAIN 219, S.L.",
          "href": "https://api.euskadi.eus/procurements/companies/02279"
        }
      }
    }
  ]
}