{
  "totalItems": 9042,
  "totalPages": 905,
  "currentPage": 634,
  "itemsOfPage": 10,
  "items": [
    {
      "name": "GAURSA CENTER S.L.",
      "registrationNumber": "05323",
      "identificationNumber": "B75099945",
      "address": "AVENIDA LETXUNBORRO 89",
      "location": {
        "postalCode": "20303",
        "municipality": "Irun",
        "county": "Gipuzkoa",
        "municipalityId": "045",
        "countyId": "20"
      },
      "economicActivities": [
        {
          "id": "1.615.1",
          "name": "Venta al por mayor de vehículos, motocicletas, bicicletas y sus accesorios",
          "_links": {
            "self": {
              "name": "Venta al por mayor de vehículos, motocicletas, bicicletas y sus accesorios",
              "href": "https://api.euskadi.eus/procurements/companies/economic-activities/1.615.1"
            }
          }
        },
        {
          "id": "1.691.2",
          "name": "Reparación de vehículos automóviles, bicicletas y otros vehículos",
          "_links": {
            "self": {
              "name": "Reparación de vehículos automóviles, bicicletas y otros vehículos",
              "href": "https://api.euskadi.eus/procurements/companies/economic-activities/1.691.2"
            }
          }
        }
      ],
      "certificateStartDate": "2017-12-14",
      "certificateEndDate": "2017-11-21",
      "object": "LA EXPLOTACIÓN DE UN NEGOCIO DE VENTA DE TODA CLASE DE VEHÍCULOS NUEVOS Y USADOS, DE ACEITES Y LUBRICANTES, NEUMÁTICOS, PIEZAS DE RECAMBIO, ACCESORIOS, ARTÍCULOS RELACIONADOS CON LOS VEHÍCULOS, PRODUCTOS DE BOUTIQUE Y PRODUCTOS INDUSTRIALES PARA PROFESIONALES DE LA AUTOMOCIÓN, LA REPARACIÓN Y MANTENIMIENTO INTEGRAL DE TODA CLASE DE VEHÍCULOS, INCLUYENDO SU LIMPIEZA Y REACONDICIONAMIENTO, LA TRANSFORMACIÓN DE VEHÍCULOS, EL TRANSPORTE DE MERCANCÍAS Y VEHÍCULOS PROPIOS Y AJENOS, LA PRESTACIÓN DE SERVICIOS DE GESTIÓN, ADMINISTRACIÓN E INFORMÁTICOS A OTRAS EMPRESAS, EL ALQUILER DE TODA CLASE DE VEHÍCULOS EN TODAS SUS MODALIDADES Y LA VENTA Y ALQUILER DE INMUEBLES, MAQUINARIA, UTILLAJE Y HERRAMIENTA Y LA REALIZACIÓN POR CUENTA PROPIA O AJENA DE ACTIVIDADES DE AGENCIA DE SEGUROS, SOMETIDAS A LA LEGISLACIÓN ESPECÍFICA DE MEDIACIÓN DE SEGUROS PRIVADOS",
      "mainEntityOfPage": "https://www.contratacion.euskadi.eus/webkpe00-kperoc/es/ac71aBusquedaRegistrosWar/empresa/05323",
      "_links": {
        "self": {
          "name": "GAURSA CENTER S.L.",
          "href": "https://api.euskadi.eus/procurements/companies/05323"
        }
      }
    },
    {
      "name": "ASOCIACIÓN ADOSTEN PARA LA MEDIACIÓN Y RESOLUCIÓN DE CONFLICTOS",
      "registrationNumber": "05685",
      "identificationNumber": "G95628798",
      "address": "CALIXTO DIEZ Nº7 - 1º DEPT. 14A",
      "location": {
        "postalCode": "48012",
        "municipality": "Bilbao",
        "county": "Bizkaia",
        "municipalityId": "020",
        "countyId": "48"
      },
      "economicActivities": [
        {
          "id": "1.841",
          "name": "Servicios jurídicos",
          "_links": {
            "self": {
              "name": "Servicios jurídicos",
              "href": "https://api.euskadi.eus/procurements/companies/economic-activities/1.841"
            }
          }
        }
      ],
      "certificateStartDate": "2017-11-24",
      "object": "LOS FINES DE ESTA ASOCIACIÓN SON: \r\nA) LA PROMOCIÓN, DIVULGACIÓN Y DIFUSIÓN DE LA MEDIACIÓN Y RESOLUCIÓN ALTERNATIVA DE CONFLICTOS EN TODOS SUS CAMPOS , ENTRE OTROS MEDIACIÓN PENAL, FAMILIAR, ESCOLAR, LABORAL, COMUNITARIA, MERCANTIL, CIVIL, INTERCULTURAL, SANITARIA...)\r\nB) FAVORECER LA INVESTIGACIÓN-ACCIÓN Y/O INVESTIGACIÓN TEÓRICA SOBRE LA MEDIACIÓN Y RESOLUCIÓN ALTERNATIVA DE CONFLICTOS.\r\nC) ORGANIZAR Y PARTICIPAR EN TODAS AQUELLAS ACTIVIDADES CULTURALES, INFORMATIVAS, CIENTÍFICAS Y DOCENTES, CUYA TEMÁTICA SE ENCUENTRE RELACIONADA CON LA MEDIACIÓN ALTERNATIVA DE CONFLICTOS.\r\nD) LA GESTIÓN DE SERVICIOS O PROGRAMAS DE MEDIACIÓN O RESOLUCIÓN ALTERNATIVA DE CONFLICTOS, TANTO EN EL ÁMBITO PRIVADO COMO EN EL PÚBLICO, EN TODOS LOS CAMPOS DE LA MEDIACIÓN ANTES MENCIONADOS, MANTENIENDO RELACIONES DE COLABORACIÓN Y, EN SU CASO, CONVENIOS CON DICHOS ORGANISMOS.\r\nPARA LA CONSECUCIÓN DE DICHOS FINES SE LLEVARÁN A CABO, PREVIO EL CUMPLIMIENTO DE LOS REQUISITOS LEGALES ESTABLECIDOS, LAS SIGUIENTES ACTIVIDADES:\r\nA) PRESTACIÓN DE SERVICIOS DE MEDIACIÓN Y RESOLUCIÓN ALTERNATIVA DE CONFLICTOS EN TODOS LOS CAMPOS MENCIONADOS ANTERIORMENTE, ASÍ COMO EN LOS QUE PUDIERAN EXISTIR EN EL FUTURO.\r\nB) ASESORAMIENTO A INSTITUCIONES PÚBLICAS O PRIVADAS PARA EL DESEMPEÑO DE PROGRAMAS DE INTERVENCIÓN E INVESTIGACIÓN EN CUALQUIERA DE LAS ÁREAS SEÑALADAS.\r\nC) SUPERVISIÓN DE LAS ACTIVIDADES Y DE LOS PROFESIONALES QUE LAS REALICEN, Y QUE SEAN PROPIAS DE LOS OBJETIVOS DE LA ASOCIACIÓN Y/O CUALQUIERA OTRA INSTITUCIÓN QUE LO SOLICITASE.\r\nD) FORMALIZACIÓN EN MEDIACIÓN Y RESOLUCIÓN ALTERNATIVA DE CONFLICTOS EN TODOS LOS CAMPOS MENCIONADOS ANTERIORMENTE.\r\nE) FORMACIÓN DE FORMADORES EN LAS ÁREAS DESIGNADAS.\r\nF) DIFUSIÓN, SENSIBILIZACIÓN, DIVULGACIÓN Y PARTICIPACIÓN EN DEFINICIÓN DE POLÍTICAS Y CRITERIOS DE FORMACIÓN Y EJERCICIO PROFESIONAL DE LA MEDIACIÓN EN CUALQUIERA DE LAS ÁREAS SEÑALADAS.\r\nG) EL APOYO A ASOCIACIONES O ENTIDADES PÚBLICAS O PRIVADAS QUE DESARROLLEN PROYECTOS EN LOS QUE SE COMPARTAN LOS FINES DE ESTA ASOCIACIÓN.\r\nH) OTRAS ACTIVIDADES QUE TIENDAN A LA MEJOR CONSECUCIÓN DE LOS FINES ANTERIORMENTE EXPUESTOS.",
      "mainEntityOfPage": "https://www.contratacion.euskadi.eus/webkpe00-kperoc/es/ac71aBusquedaRegistrosWar/empresa/05685",
      "_links": {
        "self": {
          "name": "ASOCIACIÓN ADOSTEN PARA LA MEDIACIÓN Y RESOLUCIÓN DE CONFLICTOS",
          "href": "https://api.euskadi.eus/procurements/companies/05685"
        }
      }
    },
    {
      "name": "EUSKAL TELEBISTA-TELEVISIÓN VASCA, S.A.",
      "registrationNumber": "02362",
      "identificationNumber": "A48139232",
      "address": "CAMINO DE CAPUCHINOS N. 2",
      "location": {
        "postalCode": "48013",
        "municipality": "Bilbao",
        "county": "Bizkaia",
        "municipalityId": "020",
        "countyId": "48"
      },
      "economicActivities": [
        {
          "id": "1.355.2",
          "name": "Edición de soportes grabados de sonido, vídeo y de informática",
          "_links": {
            "self": {
              "name": "Edición de soportes grabados de sonido, vídeo y de informática",
              "href": "https://api.euskadi.eus/procurements/companies/economic-activities/1.355.2"
            }
          }
        },
        {
          "id": "1.476.9",
          "name": "Otras ediciones n.c.o.p",
          "_links": {
            "self": {
              "name": "Otras ediciones n.c.o.p",
              "href": "https://api.euskadi.eus/procurements/companies/economic-activities/1.476.9"
            }
          }
        },
        {
          "id": "1.961.1",
          "name": "Producción de películas cinematográficas (incluso vídeos)",
          "_links": {
            "self": {
              "name": "Producción de películas cinematográficas (incluso vídeos)",
              "href": "https://api.euskadi.eus/procurements/companies/economic-activities/1.961.1"
            }
          }
        },
        {
          "id": "1.964.2",
          "name": "Servicios de televisión",
          "_links": {
            "self": {
              "name": "Servicios de televisión",
              "href": "https://api.euskadi.eus/procurements/companies/economic-activities/1.964.2"
            }
          }
        }
      ],
      "certificateStartDate": "2017-11-23",
      "certificateEndDate": "2018-05-06",
      "object": "LA PRODUCCIÓN Y TRANSMISIÓN DE IMÁGENES Y SONIDOS SIMULTÁNEAMENTE A TRAVÉS DE ONDAS O MEDIANTE CABLES DESTINADOS, MEDIATA O INMEDIATAMENTE, AL PÚBLICO EN GENERAL, CON FINES INFORMATIVOS, CULTURALES, ARTÍSTICOS, COMERCIALES, RECREATIVOS, PUBLICITARIOS, ASÍ COMO MEDIO DE COOPERACIÓN CON EL SISTEMA EDUCATIVO Y DE FOMENTO Y DIFUSIÓN DE LA CULTURA VASCA, Y EN ESPECIAL CON EL FOMENTO Y DESARROLLO DEL EUSKERA.",
      "mainEntityOfPage": "https://www.contratacion.euskadi.eus/webkpe00-kperoc/es/ac71aBusquedaRegistrosWar/empresa/02362",
      "_links": {
        "self": {
          "name": "EUSKAL TELEBISTA-TELEVISIÓN VASCA, S.A.",
          "href": "https://api.euskadi.eus/procurements/companies/02362"
        }
      }
    },
    {
      "name": "EUSKO IRRATIA-RADIODIFUSIÓN VASCA, S.A.",
      "registrationNumber": "02417",
      "identificationNumber": "A48139224",
      "address": "CAPUCHINOS DE BASURTO Nº 2",
      "location": {
        "postalCode": "48013",
        "municipality": "Bilbao",
        "county": "Bizkaia",
        "municipalityId": "020",
        "countyId": "48"
      },
      "economicActivities": [
        {
          "id": "1.476.1",
          "name": "Edición de libros",
          "_links": {
            "self": {
              "name": "Edición de libros",
              "href": "https://api.euskadi.eus/procurements/companies/economic-activities/1.476.1"
            }
          }
        },
        {
          "id": "1.964.1",
          "name": "Servicios de radiodifusión",
          "_links": {
            "self": {
              "name": "Servicios de radiodifusión",
              "href": "https://api.euskadi.eus/procurements/companies/economic-activities/1.964.1"
            }
          }
        }
      ],
      "certificateStartDate": "2017-11-23",
      "certificateEndDate": "2018-05-06",
      "object": "A) LA PRODUCCIÓN Y TRANSMISIÓN DE IMÁGENES Y SONIDOS SIMULTÁNEAMENTE A TRAVÉS DE ONDAS O MEDIANTE CABLES DESTINADOS, MEDIATA O INMEDIATAMENTE AL PÚBLICO EN GENERAL, CON FINES INFORMATIVOS, CULTURALES, ARTÍSTICOS, COMERCIALES, RECREATIVOS, PUBLICITARIOS, ASÍ COMO MEDIO DE COOPERACIÓN CON EL SISTEMA EDUCATIVO Y DE FOMENTO Y DIFUSIÓN DE LA CULTURA VASCA, Y EN ESPECIAL CON EL FORMENTO Y DESARROLLO DEL EUSKERA.",
      "mainEntityOfPage": "https://www.contratacion.euskadi.eus/webkpe00-kperoc/es/ac71aBusquedaRegistrosWar/empresa/02417",
      "_links": {
        "self": {
          "name": "EUSKO IRRATIA-RADIODIFUSIÓN VASCA, S.A.",
          "href": "https://api.euskadi.eus/procurements/companies/02417"
        }
      }
    },
    {
      "name": "IMPRENTA IGLESIAS, S.L.",
      "registrationNumber": "00393",
      "identificationNumber": "B48100515",
      "address": "C/ ANDRÉS ISASI, Nº 8 - BAJO.",
      "location": {
        "postalCode": "48012",
        "municipality": "Bilbao",
        "county": "Bizkaia",
        "municipalityId": "020",
        "countyId": "48"
      },
      "economicActivities": [
        {
          "id": "1.474",
          "name": "Artes gráficas (impresión gráfica)",
          "_links": {
            "self": {
              "name": "Artes gráficas (impresión gráfica)",
              "href": "https://api.euskadi.eus/procurements/companies/economic-activities/1.474"
            }
          }
        }
      ],
      "certificateStartDate": "2017-11-16",
      "certificateEndDate": "2018-05-15",
      "object": "LA EXPLOTACIÓN DEL NEGOCIO DE ARTES GRÁFICAS DE TODA CLASE Y MODALIDAD, ENCUADERNACIÓN Y LIBRERÍA",
      "mainEntityOfPage": "https://www.contratacion.euskadi.eus/webkpe00-kperoc/es/ac71aBusquedaRegistrosWar/empresa/00393",
      "_links": {
        "self": {
          "name": "IMPRENTA IGLESIAS, S.L.",
          "href": "https://api.euskadi.eus/procurements/companies/00393"
        }
      }
    },
    {
      "name": "ARIDOS Y HORMIGONES CAMPINO, S.L.",
      "registrationNumber": "04909",
      "identificationNumber": "B01151992",
      "address": "PUENTE DE LABASTIDA, S/N",
      "location": {
        "postalCode": "01330",
        "municipality": "Labastida/Bastida",
        "county": "Araba/Álava",
        "municipalityId": "028",
        "countyId": "01"
      },
      "economicActivities": [
        {
          "id": "1.231.3",
          "name": "Extracción de arenas y gravas para la construcción",
          "_links": {
            "self": {
              "name": "Extracción de arenas y gravas para la construcción",
              "href": "https://api.euskadi.eus/procurements/companies/economic-activities/1.231.3"
            }
          }
        },
        {
          "id": "1.243.1",
          "name": "Fabricación de hormigones preparados",
          "_links": {
            "self": {
              "name": "Fabricación de hormigones preparados",
              "href": "https://api.euskadi.eus/procurements/companies/economic-activities/1.243.1"
            }
          }
        },
        {
          "id": "1.502.3",
          "name": "Consolidación y preparación de terrenos para la realización de obras civiles",
          "_links": {
            "self": {
              "name": "Consolidación y preparación de terrenos para la realización de obras civiles",
              "href": "https://api.euskadi.eus/procurements/companies/economic-activities/1.502.3"
            }
          }
        },
        {
          "id": "1.722",
          "name": "Transporte de mercancías por carretera",
          "_links": {
            "self": {
              "name": "Transporte de mercancías por carretera",
              "href": "https://api.euskadi.eus/procurements/companies/economic-activities/1.722"
            }
          }
        }
      ],
      "certificateStartDate": "2017-11-09",
      "certificateEndDate": "2018-05-09",
      "object": "LA EXTRACCIÓN DE ARENAS Y GRAVAS PARA LA CONSTRUCCIÓN, CONSOLIDACIÓN Y PREPARACIÓN DE TERRENOS PARA LA CONSTRUCCIÓN DE EDIFICACIONES INCLUÍDOS SISTEMAS DE AGOTAMIENTO Y DRAGADOS ASÍ COMO LA FABRICACIÓN DE CEMENTOS Y HORMIGONES. COMERCIALIZACIÓN DE BIENES INMUEBLES",
      "mainEntityOfPage": "https://www.contratacion.euskadi.eus/webkpe00-kperoc/es/ac71aBusquedaRegistrosWar/empresa/04909",
      "_links": {
        "self": {
          "name": "ARIDOS Y HORMIGONES CAMPINO, S.L.",
          "href": "https://api.euskadi.eus/procurements/companies/04909"
        }
      }
    },
    {
      "name": "VIKERS MEDICAL, S.L.",
      "registrationNumber": "03642",
      "identificationNumber": "B85161305",
      "address": "PL. PUERTO DE LA CRUZ, 3",
      "location": {
        "postalCode": "28029",
        "municipality": "Madrid",
        "county": "Madrid",
        "municipalityId": "079",
        "countyId": "28"
      },
      "economicActivities": [
        {
          "id": "1.659.3",
          "name": "Venta al por menor de aparatos médicos, ortopédicos, ópticos y fotográficos",
          "_links": {
            "self": {
              "name": "Venta al por menor de aparatos médicos, ortopédicos, ópticos y fotográficos",
              "href": "https://api.euskadi.eus/procurements/companies/economic-activities/1.659.3"
            }
          }
        }
      ],
      "certificateStartDate": "2017-11-07",
      "certificateEndDate": "2018-04-10",
      "object": "LA IMPORTACIÓN, COMERCIALIZACIÓN, DISTRIBUCIÓN Y VENTA DE EQUIPOS MÉDICOS",
      "mainEntityOfPage": "https://www.contratacion.euskadi.eus/webkpe00-kperoc/es/ac71aBusquedaRegistrosWar/empresa/03642",
      "_links": {
        "self": {
          "name": "VIKERS MEDICAL, S.L.",
          "href": "https://api.euskadi.eus/procurements/companies/03642"
        }
      }
    },
    {
      "name": "JAUREGUI INGENIERIA Y SERVICIOS INDUSTRIALES, S.A.",
      "registrationNumber": "05683",
      "identificationNumber": "A48086755",
      "address": "Asua Ibaia Etorbidea 1-A",
      "location": {
        "postalCode": "48160",
        "municipality": "Derio",
        "county": "Bizkaia",
        "municipalityId": "901",
        "countyId": "48"
      },
      "economicActivities": [
        {
          "id": "1.504.3",
          "name": "Instalaciones de frío, calor y acondicionamiento de aire",
          "_links": {
            "self": {
              "name": "Instalaciones de frío, calor y acondicionamiento de aire",
              "href": "https://api.euskadi.eus/procurements/companies/economic-activities/1.504.3"
            }
          }
        },
        {
          "id": "1.504.8",
          "name": "Montajes metálicos e instalaciones industriales completas",
          "_links": {
            "self": {
              "name": "Montajes metálicos e instalaciones industriales completas",
              "href": "https://api.euskadi.eus/procurements/companies/economic-activities/1.504.8"
            }
          }
        }
      ],
      "certificateStartDate": "2017-11-07",
      "certificateEndDate": "2018-02-28",
      "object": "Los trabajos de montajes, calderería y taller industrial; la realización y reparación de toda clase de construcciones metálicas, de madera o de otros materiales, así como instalaciones de toda índole; la fabricación o montaje de todas instalaciones , bienes o equipos industriales y de sus elementos integrantes; el mantenimiento, conservación y asistencia de todos los bienes indicados.",
      "mainEntityOfPage": "https://www.contratacion.euskadi.eus/webkpe00-kperoc/es/ac71aBusquedaRegistrosWar/empresa/05683",
      "_links": {
        "self": {
          "name": "JAUREGUI INGENIERIA Y SERVICIOS INDUSTRIALES, S.A.",
          "href": "https://api.euskadi.eus/procurements/companies/05683"
        }
      }
    },
    {
      "name": "CONSTRUCCIONES LÓPEZ DE ARMENTIA, S.L.",
      "registrationNumber": "03540",
      "identificationNumber": "B01059005",
      "address": "IZKI, 10 (ARIÑEZ)",
      "location": {
        "postalCode": "01195",
        "municipality": "Vitoria-Gasteiz",
        "county": "Araba/Álava",
        "municipalityId": "059",
        "countyId": "01"
      },
      "economicActivities": [
        {
          "id": "1.501.1",
          "name": "Construcción completa, reparación y conservación de edificaciones",
          "_links": {
            "self": {
              "name": "Construcción completa, reparación y conservación de edificaciones",
              "href": "https://api.euskadi.eus/procurements/companies/economic-activities/1.501.1"
            }
          }
        },
        {
          "id": "1.501.3",
          "name": "Albañilería y pequeños trabajos de construcción en general",
          "_links": {
            "self": {
              "name": "Albañilería y pequeños trabajos de construcción en general",
              "href": "https://api.euskadi.eus/procurements/companies/economic-activities/1.501.3"
            }
          }
        }
      ],
      "certificateStartDate": "2017-10-27",
      "certificateEndDate": "2018-04-20",
      "object": "CONSTITIYE EL OBJETO DE ESTA SOCIEDAD LA PROMOCIÓNY EJECUCIÓN COMPLETA O POR RAMOS DE TODA CLASE DE OBRAS DE CONSTRUCCIÓN, URBANIZACIÓN Y SERVICIOS, REPARACIÓN O CONSERVACIÓN, POR CUENTA PROPIO O AJENA, INCLUSO DE VIVIENDAS Y LOCALES COMERCIALES DE LOS LLAMADOS DE PROTECCIÓN OFICIAL; LA COMPRAVENTA Y ALQUILER DE EDIFICACIONES EN SU TOTALIDAD, POR PARTES O POR PISOS, BIEN PARA VIVIENDAS O PARA LOCALES DE OFICINA, DE NEGOCIO O INDUSTRIALES, CONSTRUIDAS PARA TAL FIN, DIRECTA O POR MEDIO DE CONTRATISTAS, SUBCONTRATISTA Y DESTAJISTAS, O BIEN ADQUIRIDAS YA CONSTRUIDAS O EN CONSTRUCCIÓN, COMPRAVENTA, PERMUTA, ALQUILER DE TERRENOS RÚSTICOS O URBANOS Y EXPLOTACIÓN DIRECTA O A TRAVÉS DE CONTRATOS DE CESIÓN DE USO O ARRENDAMIENTO DE GARAJES Y PARKIGS. ASIMISMO ES OBJETO DE LA SOCIEDAD, LA PARTICIPACIPACIÓN EN EL CAPITAL DE SOCIEDADES MERCANTILES, CUALQUIERA QUE SEA SU FORMA Y OBJETO Y LA PARTICIPACIÓN EN SU CAPITAL",
      "mainEntityOfPage": "https://www.contratacion.euskadi.eus/webkpe00-kperoc/es/ac71aBusquedaRegistrosWar/empresa/03540",
      "_links": {
        "self": {
          "name": "CONSTRUCCIONES LÓPEZ DE ARMENTIA, S.L.",
          "href": "https://api.euskadi.eus/procurements/companies/03540"
        }
      }
    },
    {
      "name": "TECNILÓGICA ECOSISTEMAS",
      "registrationNumber": "05680",
      "identificationNumber": "A28963767",
      "address": "PASEO DE LA FINCA, 1, BLOQUE 2",
      "location": {
        "postalCode": "28223",
        "municipality": "Pozuelo de Alarcón",
        "county": "Madrid",
        "municipalityId": "115",
        "countyId": "28"
      },
      "economicActivities": [
        {
          "id": "1.845",
          "name": "Explotación electrónica por cuenta de terceros",
          "_links": {
            "self": {
              "name": "Explotación electrónica por cuenta de terceros",
              "href": "https://api.euskadi.eus/procurements/companies/economic-activities/1.845"
            }
          }
        },
        {
          "id": "1.932.1",
          "name": "Enseñanza de formación y perfeccionamiento profesional no superior",
          "_links": {
            "self": {
              "name": "Enseñanza de formación y perfeccionamiento profesional no superior",
              "href": "https://api.euskadi.eus/procurements/companies/economic-activities/1.932.1"
            }
          }
        }
      ],
      "certificateStartDate": "2017-10-25",
      "certificateEndDate": "2018-03-19",
      "object": "EL DISEÑO, DESARROLLO, IMPLANTACIÓN, EXPLOTACIÓN Y MANTENIMIENTO DE SISTEMAS Y EQUIPOS INFORMÁTICOS, TELEMÁTICOS, OFIMÁTICOS Y AUTOMÁTICOS, PROPIOS O DE TERCEROS, Y LA CESIÓN, POR CUALQUIER TITULO, DE DERECHOS SOBRE DICHOS EQUIPOS Y SISTEMAS, ASÍ COMO LA PRESTACIÓN DE SERVICIOS RELACIONADOS  CON LOS MISMOS. LA PRESTACIÓN DE SERVICIOS DE CONSULTORÍA, ASESORAMIENTO Y GESTIÓN EMPRESARIAL. LA COMERCIALIZACIÓN DE SERVICIOS DE MANTENIMIENTO DE SISTEMAS Y SOPORTES INFORMÁTICOS AVANZADOS COMO REVENTA DE SOFTWARE Y HARDWARE, OUTSOURCING DE SISTEMAS INFORMÁTICOS Y EN GENERAL CUALQUIER OTRO SERVICIO DE VALOR AÑADIDO DEDICADO AL DESARROLLO DE NUEVOS NEGOCIOS EN EL ÁREA DE LOS SERVICIOS INFORMÁTICOS\r\n",
      "mainEntityOfPage": "https://www.contratacion.euskadi.eus/webkpe00-kperoc/es/ac71aBusquedaRegistrosWar/empresa/05680",
      "_links": {
        "self": {
          "name": "TECNILÓGICA ECOSISTEMAS",
          "href": "https://api.euskadi.eus/procurements/companies/05680"
        }
      }
    }
  ]
}