{
  "totalItems": 9042,
  "totalPages": 905,
  "currentPage": 695,
  "itemsOfPage": 10,
  "items": [
    {
      "name": "KONSIT, S.L.U.",
      "registrationNumber": "04840",
      "identificationNumber": "B95344453",
      "address": "DOCTOR AREILZA, 62 - 5º DCHA",
      "location": {
        "postalCode": "48010",
        "municipality": "Bilbao",
        "county": "Bizkaia",
        "municipalityId": "020",
        "countyId": "48"
      },
      "economicActivities": [
        {
          "id": "1.845",
          "name": "Explotación electrónica por cuenta de terceros",
          "_links": {
            "self": {
              "name": "Explotación electrónica por cuenta de terceros",
              "href": "https://api.euskadi.eus/procurements/companies/economic-activities/1.845"
            }
          }
        }
      ],
      "certificateStartDate": "2012-06-29",
      "certificateEndDate": "2012-12-14",
      "object": "ASESORAMIENTO, ASISTENCIA Y GESTIÓN COMERCIAL, ADMINISTRATIVO, DE COMERCIO EXTERIOR, CONTABLE, ECONÓMICO-FINANCIERO, LABORAL Y JURÍDICO EN GENERAL PARA TERCERAS PERSONAS, EMPRESAS O PARTICULARES; LA REALIZACIÓN DE INFORMES COMERCIALES, TÉCNICOS E INDUSTRIALES; LA REALIZACIÓN Y DIRECCIÓN DE ESTUDIOS Y PROSPECCIONES DE MERCADOS Y DE CARÁCTER ESTADÍSTICO;  LA SELECCIÓN Y FORMACIÓN DE PERSONAL PARA LAS EMPRESAS Y LA VALORACIÓN DE ÉSTAS; EL ESTUDIO Y GESTIÓN DE SISTEMAS EMPRESARIALES PARA ADECUAR LOS MEDIOS PRODUCTIVOS A LAS NECESIDADES DEL MERCADO Y EL ESTUDIO Y REDACCIÓN DE PLANES DE VIABILIDAD; LA REALIZACIÓN DE NUEVOS PROYECTOS EMPRESARIALES; EL SERVICIO DE COBRO DE CRÉDITOS MOROSOS; LA PRESTACIÓN DE SERVICIO DE VERIFICACIONES REGISTRALES, INFORMES COMERCIALES Y GRABACIONES DE DATOS; Y LA REALIZACIÓN DE PROYECTOS, CÁLCULOS, PLANOS, DIBUJOS, MEMORIAS Y DEMÁS ACTIVIDADES PROPIAS DE UNA OFICINA TÉCNICA DE TOPOGRAFÍA, INGENIERÍA, ARQUITECTURA Y DELINEACIÓN. LA FABRICACIÓN, DISTRIBUCIÓN Y COMERCIALIZACIÓN EN GENERAL DE ORDENADORES, PROGRAMAS, ACCESORIOS Y DEMÁS PRODUCTOS INFORMÁTICOS, OFIMÁTICOS Y ELECTRÓNICOS Y EL ASESORAMIENTO, FORMACIÓN Y CONSULTORÍA EN ESTOS CAMPOS; LOS SERVICIOS DE PROGRAMACIÓN; LA ASISTENCIA TÉCNICA, MONTAJE Y MANTENIMIENTO DE TALES PRODUCTOS Y SERVICIOS; Y LA ELABORAICÓN, IMPARTICIÓN Y COMERCIALIZACIÓN DE CURSOS DE FORMACIÓN RELACIONADOS CON LA INFORMÁTICA Y LA OFIMÁTICA. LA EJECUCIÓN, CONTROL Y MANTENIMIENTO DE INSTALACIONES ELÉCTRICAS EN GENERAL Y DE INSTALACIONES DE TELECOMUNICACIONES, ELECTRÓNICIAS, DE SEGURIDAD Y CONTRA INCENDIOS. LA PRESTACIÓN Y COMERCIALIZACION DE SERVICIOS DE TELECOMUNICACIONES; EL COMERCIO ELECTRÓNICO; Y LA PRESTACIÓN DE SERVICIOS DE TELEMARKETING, PUBLICIDAD Y DE TELECOMUNICACIONES, Y LOS SERVICIOS DE SEGURIDAD RELACIONADOS CON EL SECTOR DE TELECOMUNICACIONES",
      "mainEntityOfPage": "https://www.contratacion.euskadi.eus/webkpe00-kperoc/es/ac71aBusquedaRegistrosWar/empresa/04840",
      "_links": {
        "self": {
          "name": "KONSIT, S.L.U.",
          "href": "https://api.euskadi.eus/procurements/companies/04840"
        }
      }
    },
    {
      "name": "CONSTRUCCIONES URASA, S.A.",
      "registrationNumber": "02854",
      "identificationNumber": "A48154298",
      "address": "C/ LUTXANA, 1 - 2º IZDA.",
      "location": {
        "postalCode": "48008",
        "municipality": "Bilbao",
        "county": "Bizkaia",
        "municipalityId": "020",
        "countyId": "48"
      },
      "economicActivities": [
        {
          "id": "1.501.1",
          "name": "Construcción completa, reparación y conservación de edificaciones",
          "_links": {
            "self": {
              "name": "Construcción completa, reparación y conservación de edificaciones",
              "href": "https://api.euskadi.eus/procurements/companies/economic-activities/1.501.1"
            }
          }
        }
      ],
      "certificateStartDate": "2012-06-27",
      "certificateEndDate": "2012-11-11",
      "object": "A) LA PROMOCIÓN Y EJECUCIÓN, COMPLETA O POR RAMOS, DE TODA CLASE DE OBRAS DE CONSTRUCCIÓN, PARA SÍ O PARA TERCEROS, SEAN ORGANISMOS PÚBLICOS DEL ESTADO, PROVINCIA, MUNICIPIO, ENTES AUTONÓMICOS O PERSONAS FÍSICAS, POR CUENTA PROPIA O AJENA, INCLUSO VIVIENDAS Y LOCALES DE LOS DENOMINADOS DE PROTECCIÓN OFICIAL; B) LA COMPRAVENTA Y ALQUILER DE EDIFICACIONES EN SU TOTALIDAD, POR PARTES O POR PISOS, BIEN PARA VIVIENDAS O PARA LOCALES DE OFICINAS, DE NEGOCIO O INDUSTRIALES, CONSTRUIDOS PARA TAL FIN, DIRECTAMENTE O POR MEDIO DE CONTRATISTAS, SUBCONTRATISTAS Y DESTAJISTAS O BIEN ADQUIRIDAS YA CONSTRUIDAS O EN CONSTRUCCIÓN; C) LA COMPRA, VENTA, PERMUTA Y ALQUILER DE TERRENOS RÚSTICOS O URBANOS, SU EDIFICACIÓN, URBANIZACIÓN Y PARCELACIÓN",
      "mainEntityOfPage": "https://www.contratacion.euskadi.eus/webkpe00-kperoc/es/ac71aBusquedaRegistrosWar/empresa/02854",
      "_links": {
        "self": {
          "name": "CONSTRUCCIONES URASA, S.A.",
          "href": "https://api.euskadi.eus/procurements/companies/02854"
        }
      }
    },
    {
      "name": "SOCIEDAD ESPECIALISTA EN REPARACION Y CONSTRUCCION, S.A.",
      "registrationNumber": "01127",
      "identificationNumber": "A48130678",
      "address": "C/ GRAN VÍA 89-8º DPTO. D",
      "location": {
        "postalCode": "48011",
        "municipality": "Bilbao",
        "county": "Bizkaia",
        "municipalityId": "020",
        "countyId": "48"
      },
      "economicActivities": [
        {
          "id": "1.501.1",
          "name": "Construcción completa, reparación y conservación de edificaciones",
          "_links": {
            "self": {
              "name": "Construcción completa, reparación y conservación de edificaciones",
              "href": "https://api.euskadi.eus/procurements/companies/economic-activities/1.501.1"
            }
          }
        }
      ],
      "certificateStartDate": "2012-06-26",
      "certificateEndDate": "2012-12-06",
      "object": "LA COMPRA, VENTA, ALMACENAMIENTO, DEPOSITO Y DISTRIBUCION DE MERCANCIAS, PRODUCTOS, ARTICULOS Y MATERIAS DE TODAS CLASES Y DE CUALESQUIERA BIENES MUEBLES. LA ADQUISICION Y ENAJENACION POR CUALQUIER TITULO, DE FINCAS RUSTICAS Y URBANAS, YA SEAN TIERRAS, SOLARES, EDIFICIOS, LA CONSTRUCCION DE ESTOS Y LA ADMINISTRACION, TENENCIA, EXPLOTACION Y ARRENDAMIENTO, YA SEA ACTIVO O PASIVO DE TALES BIENES Y SU VENTA, TOTAL O PARCIAL, SEGUN CONVENGA, PARA SU APROVECHAMIENTO AGRICOLA, FORESTAL, URBANO, INDUSTRIAL O CUALQUIER OTRO. LOS SERVICIOS DE MEDIACION, CON BIENES PROPIOS O AJENOS, ASI COMO LOS DE CONSIGNACION, REPRESENTACION Y GESTION, INCLUSO DE TODA CLASE DE SUMINISTROS DE PRODUCTOS EN GENERAL Y PLANTAS INDUSTRIALES, NACIONALES Y EXTRANJERAS Y LAS ACTIVIDADES DE IMPORTACION Y EXPORTACION. LA ADQUISICION Y CESION, INVERSION, TENENCIA, DISFRUTE, ADMINISTRACION, GESTION Y NEGOCIACION EN GENERAL, DE VALORES MOBILIARIOS E INMUEBLES, PARTICIPACIONES SOCIALES O EN COPROPIEDAD, DE TODA CLASE DE BIENES. LA EJECUCION Y CONTRATACION, DE TODO GENERO DE OBRAS DE CARPINTERIA, ALBAÑILERIA, FONTANERIA, ELECTRICIDAD Y DECORACION. LA REALIZACION DE LAS ACTIVIDADES QUE INTEGRAN EL OBJETO SOCIAL, PODRA REALIZARSE, TOTAL O PARCIALMENTE, POR LA PROPIA SOCIEDAD DIRECTAMENTE, O BIEN, MEDIANTE LA PARTICIPACION EN OTRAS SOCIEDADES O ENTIDADES, CON O SIN PERSONALIDAD JURIDICA",
      "mainEntityOfPage": "https://www.contratacion.euskadi.eus/webkpe00-kperoc/es/ac71aBusquedaRegistrosWar/empresa/01127",
      "_links": {
        "self": {
          "name": "SOCIEDAD ESPECIALISTA EN REPARACION Y CONSTRUCCION, S.A.",
          "href": "https://api.euskadi.eus/procurements/companies/01127"
        }
      }
    },
    {
      "name": "SERVICIOS INFORMÁTICOS Y CONSULTING, S.A.",
      "registrationNumber": "00989",
      "identificationNumber": "A48216642",
      "address": "RIBERA DE AXPE, 11. BLOQUE D2-DPTO.202",
      "location": {
        "postalCode": "48950",
        "municipality": "Erandio",
        "county": "Bizkaia",
        "municipalityId": "902",
        "countyId": "48"
      },
      "economicActivities": [
        {
          "id": "1.845",
          "name": "Explotación electrónica por cuenta de terceros",
          "_links": {
            "self": {
              "name": "Explotación electrónica por cuenta de terceros",
              "href": "https://api.euskadi.eus/procurements/companies/economic-activities/1.845"
            }
          }
        },
        {
          "id": "1.849.9",
          "name": "Otros servicios independientes n.c.o.p",
          "_links": {
            "self": {
              "name": "Otros servicios independientes n.c.o.p",
              "href": "https://api.euskadi.eus/procurements/companies/economic-activities/1.849.9"
            }
          }
        },
        {
          "id": "1.932.1",
          "name": "Enseñanza de formación y perfeccionamiento profesional no superior",
          "_links": {
            "self": {
              "name": "Enseñanza de formación y perfeccionamiento profesional no superior",
              "href": "https://api.euskadi.eus/procurements/companies/economic-activities/1.932.1"
            }
          }
        }
      ],
      "certificateStartDate": "2012-06-21",
      "certificateEndDate": "2012-10-28",
      "object": "LA INGENIERÍA Y DESARROLLO DE LA INFORMÁTICA; LA PRESTACIÓN DE SERVICIOS DE ORGANIZACIÓN DE EMPRESAS; EJECUCIÓN Y DESARROLLO DE PROGRAMAS DE INFORMÁTICA Y SISTEMAS; REALIZACIÓN DE ESTUDIOS, PROYECTOS Y PROGRAMAS; LA COMPRA Y VENTA DE PRODUCTOS Y SERVICIOS EN EL ÁREA DE LA INFORMÁTICA, Y EN GENERAL, TODAS LAS ACTIVIDADES RELACIONADAS CON LA INFORMÁTICA INDUSTRIAL Y DE GESTIÓN; LA REALIZACIÓN DE LEVANTAMIENTOS, ESTUDIOS, INFORMES, CÁLCULOS, PROYECTOS, PRESUPUESTOS, REPLANTEOS, PRESTACIÓN DE SERVICIOS TÉCNICO-ADMINISTRATIVOS PARA LLEVAR LA DIRECCIÓN, ORGANIZACIÓN Y CONTROL DE TODA CLASE DE OBRAS Y CONSTRUCCIONES Y CUALQUIER OTRA ACTIVIDAD QUE PUEDA ESTAR RELACIONADA CON EL SECTOR DE LA INGENIERÍA EN GENERAL, Y ESPECIALMENTE CON LA INGENIERÍA TOPOGRÁFICA, INCLUYÉNDOSE TAMBIÉN LAS QUE SEAN PREPARATORIAS, ACCESORIAS, AUXILIARES O SE RELACIONEN DIRECTA O INDIRECTAMENTE CON ELLO",
      "mainEntityOfPage": "https://www.contratacion.euskadi.eus/webkpe00-kperoc/es/ac71aBusquedaRegistrosWar/empresa/00989",
      "_links": {
        "self": {
          "name": "SERVICIOS INFORMÁTICOS Y CONSULTING, S.A.",
          "href": "https://api.euskadi.eus/procurements/companies/00989"
        }
      }
    },
    {
      "name": "VISUAL DESIGN, S.L.",
      "registrationNumber": "01459",
      "identificationNumber": "B20137378",
      "address": "PASEO DE ERROTABURU, Nº 1 - 1ª.",
      "location": {
        "postalCode": "20009",
        "municipality": "Donostia / San Sebastián",
        "county": "Gipuzkoa",
        "municipalityId": "069",
        "countyId": "20"
      },
      "economicActivities": [
        {
          "id": "1.844",
          "name": "Servicios de publicidad, relaciones públicas y similares",
          "_links": {
            "self": {
              "name": "Servicios de publicidad, relaciones públicas y similares",
              "href": "https://api.euskadi.eus/procurements/companies/economic-activities/1.844"
            }
          }
        }
      ],
      "certificateStartDate": "2012-06-21",
      "certificateEndDate": "2012-12-15",
      "object": "EL DISEÑO GRÁFICO DE TODA CLASE DE ARTÍCULOS Y PROYECTOS. AGENCIA DE PUBLICIDAD EN GENERAL, CON DEDICACIÓN PROFESIONAL Y POR CUENTA DE TERCEROS A LA CREACIÓN, PROYECCIÓN, EJECUCIÓN Y DISTRIBUCIÓN DE CAMPAÑAS DE PUBLICIDAD Y MARKETING A TRAVÉS DE CUALQUIER MEDIO DE DIFUSIÓN",
      "mainEntityOfPage": "https://www.contratacion.euskadi.eus/webkpe00-kperoc/es/ac71aBusquedaRegistrosWar/empresa/01459",
      "_links": {
        "self": {
          "name": "VISUAL DESIGN, S.L.",
          "href": "https://api.euskadi.eus/procurements/companies/01459"
        }
      }
    },
    {
      "name": "MANPEL, S.A.",
      "registrationNumber": "04296",
      "identificationNumber": "A20070488",
      "address": "UGALDEA INDUSTRIALDEA, PAB. 11",
      "location": {
        "postalCode": "20170",
        "municipality": "Usurbil",
        "county": "Gipuzkoa",
        "municipalityId": "073",
        "countyId": "20"
      },
      "economicActivities": [
        {
          "id": "1.613.2",
          "name": "Venta al por mayor de tejidos por metros textiles para el hogar, alfombras",
          "_links": {
            "self": {
              "name": "Venta al por mayor de tejidos por metros textiles para el hogar, alfombras",
              "href": "https://api.euskadi.eus/procurements/companies/economic-activities/1.613.2"
            }
          }
        },
        {
          "id": "1.615.2",
          "name": "Venta al por mayor de muebles",
          "_links": {
            "self": {
              "name": "Venta al por mayor de muebles",
              "href": "https://api.euskadi.eus/procurements/companies/economic-activities/1.615.2"
            }
          }
        },
        {
          "id": "1.615.4",
          "name": "Venta al por mayor de aparatos y material radioeléctrico y electrónico",
          "_links": {
            "self": {
              "name": "Venta al por mayor de aparatos y material radioeléctrico y electrónico",
              "href": "https://api.euskadi.eus/procurements/companies/economic-activities/1.615.4"
            }
          }
        },
        {
          "id": "1.619.5",
          "name": "Venta al por mayor de artículos de papelería y escritorios",
          "_links": {
            "self": {
              "name": "Venta al por mayor de artículos de papelería y escritorios",
              "href": "https://api.euskadi.eus/procurements/companies/economic-activities/1.619.5"
            }
          }
        }
      ],
      "certificateStartDate": "2012-06-21",
      "certificateEndDate": "2012-11-30",
      "object": "LA COMPRA-VENTA DE ARTÍCULOS DESTINADOS A LIBRERÍAS, PAPELERÍAS, IMPRENTAS, OFICINAS, COLEGIOS, ASÍ COMO LA REPRESENTACIÓN DE FIRMAS PROVEEDORAS DE ESTOS ARTÍCULOS Y EN GENERAL AQUELLAS ACTIVIDADES CON FINES ANÁLOGOS A LOS INDICADOS",
      "mainEntityOfPage": "https://www.contratacion.euskadi.eus/webkpe00-kperoc/es/ac71aBusquedaRegistrosWar/empresa/04296",
      "_links": {
        "self": {
          "name": "MANPEL, S.A.",
          "href": "https://api.euskadi.eus/procurements/companies/04296"
        }
      }
    },
    {
      "name": "SYSTAGENIX WOUND MANAGEMENT, S.L.",
      "registrationNumber": "04649",
      "identificationNumber": "B85483998",
      "address": "CAÑADA REAL DE LAS MERINAS, 4 ",
      "location": {
        "postalCode": "28042",
        "municipality": "Madrid",
        "county": "Madrid",
        "municipalityId": "079",
        "countyId": "28"
      },
      "economicActivities": [
        {
          "id": "1.614.1",
          "name": "Venta al por mayor de productos farmacéuticos y medicamentos",
          "_links": {
            "self": {
              "name": "Venta al por mayor de productos farmacéuticos y medicamentos",
              "href": "https://api.euskadi.eus/procurements/companies/economic-activities/1.614.1"
            }
          }
        }
      ],
      "certificateStartDate": "2012-06-21",
      "certificateEndDate": "2012-11-24",
      "object": "TITULARIDAD, DESARROLLO, FABRICACIÓN, EXPLOTACIÓN, IMPORTACIÓN, COMERCIALIZACIÓN Y DISTRIBUCIÓN DE CUALQUIER CLASE DE PRODUCTOS SANITARIOS, FARMACÉUTICOS, COSMÉTICOS O QUÍMICOS",
      "mainEntityOfPage": "https://www.contratacion.euskadi.eus/webkpe00-kperoc/es/ac71aBusquedaRegistrosWar/empresa/04649",
      "_links": {
        "self": {
          "name": "SYSTAGENIX WOUND MANAGEMENT, S.L.",
          "href": "https://api.euskadi.eus/procurements/companies/04649"
        }
      }
    },
    {
      "name": "LIMPIEZAS RITUERTO, S.L.",
      "registrationNumber": "03584",
      "identificationNumber": "B01014125",
      "address": "AMIZKARRA, 2",
      "location": {
        "postalCode": "01002",
        "municipality": "Vitoria-Gasteiz",
        "county": "Araba/Álava",
        "municipalityId": "059",
        "countyId": "01"
      },
      "economicActivities": [
        {
          "id": "1.922",
          "name": "Servicios de limpieza",
          "_links": {
            "self": {
              "name": "Servicios de limpieza",
              "href": "https://api.euskadi.eus/procurements/companies/economic-activities/1.922"
            }
          }
        }
      ],
      "certificateStartDate": "2012-06-20",
      "certificateEndDate": "2012-12-20",
      "object": "LA REALIZACIÓN DE LAS ACTIVIDADES ENCAMINADAS A LA EFECTUACIÓN DE LIMPIEZAS DE EDIFICIOS EN GENERAL, TANTO SI SON LIMPIEZAS URBANAS COMO SI SON INDUSTRIALES, TANTO EN INTERIORES COMO EN EXTERIORES Y BIEN SEAN DICHAS LIMPIEZAS POR CONTRATOS DE TIEMPO INDEFINIDO, DE TIEMPO LIMITADO TEMPORALMENTE, O PARA LA EJECUCIÓN DE ACTOS AISLADOS",
      "mainEntityOfPage": "https://www.contratacion.euskadi.eus/webkpe00-kperoc/es/ac71aBusquedaRegistrosWar/empresa/03584",
      "_links": {
        "self": {
          "name": "LIMPIEZAS RITUERTO, S.L.",
          "href": "https://api.euskadi.eus/procurements/companies/03584"
        }
      }
    },
    {
      "name": "GARBI RECYCLING, S.L.",
      "registrationNumber": "04712",
      "identificationNumber": "B95605135",
      "address": "CASERIO LANDABURU, 9 - 2º",
      "location": {
        "postalCode": "48006",
        "municipality": "Bilbao",
        "county": "Bizkaia",
        "municipalityId": "020",
        "countyId": "48"
      },
      "economicActivities": [
        {
          "id": "1.623",
          "name": "Recuperación y comercio de residuos fuera de establecimiento permanente",
          "_links": {
            "self": {
              "name": "Recuperación y comercio de residuos fuera de establecimiento permanente",
              "href": "https://api.euskadi.eus/procurements/companies/economic-activities/1.623"
            }
          }
        }
      ],
      "certificateStartDate": "2012-06-20",
      "certificateEndDate": "2012-11-30",
      "object": "LA GESTIÓN DE RECOGIDA Y TRATAMIENTO DE RESIDUOS DE TODA CLASE Y VOLUMEN, TANO URBANOS COMO PROCEDENTES DE DEMOLICIONES Y CONSTRUCCIONES O, TAMBIÉN, INDUSTRIALES. LA RECOGIDA, TRASLADO, SEPARACIÓN, CLASIFICACIÓN, REDUCCIÓN, REUTILIZACIÓN, GESTIÓN Y TRATAMIENTO DE MATERIALES RECICLABLES DE RESIDUOS DE TODA CLASE Y VOLUMEN, TANTO SÓLIDOS URBANOS COMO PROCEDENTES DE DEMOLICIONES Y CONSTRUCCIONES O, TAMBIÉN, INDUSTRIALES. EL RECICLADO Y LA VALORIZACIÓN DE DICHOS RESIDUOS, INCLUIDA, EN CASO DE SER POSIBLE, SU RECUPERACIÓN ENERGÉTICA. LA GESTION DE CENTROS DE VERTIDO Y TRATAMIENTO DE RESIDUOS, SIEMPRE CONTANDO CON LOS PERMISOS Y REQUISITOS DE LA LEGISLACIÓN O NORMATIVA APLICABLE A CADA TIPO DE RESIDUOS. LA PRESTACIÓN DE SERVICIOS DE GESTIÓN E INTERMEDIACIÓN ENTRE PRODUCTORES DE RESIDUOS Y ENTIDADES O EMPRESAS DE TRATAMIENTO, RECICLADO Y VALORIZACIÓN DE RESIDUOS. LA PRESTACIÓN DE TODO TIPO DE SERVICIOS MEDIOAMBIENTALES. LA ORGANIZACIÓN E IMPARTICIÓN DE CLASES, CURSILLOS Y CUALQUIER OTRO TIPO DE FORMACIÓN; EL DISEÑO Y LA REALIZACIÓN DE TODA CLASE DE MATERIAL DIDÁCTICO, DIVULGATIVO O PUBLICITARIO, INCLUSO EXPOSICIONES, EVENTOS, VISITAS Y ENCUENTROS, ASÍ COMO LA INVESTIGACIÓN Y EL DESARROLLO DE NUEVAS INVENCIONES, PROGRAMAS, APLICACIONES Y SISTEMAS, ESPECIALMENTE, PERO NO EXCLUSIVAMENTE, LOS RELACIONADOS CON EL TRATAMIENTO DE RESIDUOS Y LA CONSERVACIÓN DEL MEDIO AMBIENTE. EL ENSAMBLAJE, FABRICACIÓN, COMPRAVENTA, DISTRIBUCIÓN Y COMERCIALIZACIÓN DE PRODUCTOS, EQUIPOS Y ACCESORIOS RELACIONADOS CON LAS ACTIVIDADES ANTERIORMENTE MENCIONADAS Y CON CUALESQUIERA OTRAS ACTIVIDADES DE LAS MISMAS. LA ADQUISICIÓN, TENENCIA, EXPLOTACIÓN Y ENAJENACIÓN DE BIENES INMUEBLES",
      "mainEntityOfPage": "https://www.contratacion.euskadi.eus/webkpe00-kperoc/es/ac71aBusquedaRegistrosWar/empresa/04712",
      "_links": {
        "self": {
          "name": "GARBI RECYCLING, S.L.",
          "href": "https://api.euskadi.eus/procurements/companies/04712"
        }
      }
    },
    {
      "name": "ETXEA INSTALACIONES, S.A.",
      "registrationNumber": "00435",
      "identificationNumber": "A48080881",
      "address": "C/ ISLAS CANARIAS, Nº 4. ",
      "location": {
        "postalCode": "48015",
        "municipality": "Bilbao",
        "county": "Bizkaia",
        "municipalityId": "020",
        "countyId": "48"
      },
      "economicActivities": [
        {
          "id": "1.504.3",
          "name": "Instalaciones de frío, calor y acondicionamiento de aire",
          "_links": {
            "self": {
              "name": "Instalaciones de frío, calor y acondicionamiento de aire",
              "href": "https://api.euskadi.eus/procurements/companies/economic-activities/1.504.3"
            }
          }
        }
      ],
      "certificateStartDate": "2012-06-19",
      "certificateEndDate": "2012-12-18",
      "object": "LA REALIZACIÓN DE ESTUDIOS, SUMINISTROS Y MONTAJES DE INSTALACIONES DE CALEFACCIÓN, REFRIGERACIÓN INDUSTRIAL, AIRE ACONDICIONADO, TRATAMIENTO DE AGUAS",
      "mainEntityOfPage": "https://www.contratacion.euskadi.eus/webkpe00-kperoc/es/ac71aBusquedaRegistrosWar/empresa/00435",
      "_links": {
        "self": {
          "name": "ETXEA INSTALACIONES, S.A.",
          "href": "https://api.euskadi.eus/procurements/companies/00435"
        }
      }
    }
  ]
}