{
  "totalItems": 9042,
  "totalPages": 905,
  "currentPage": 231,
  "itemsOfPage": 10,
  "items": [
    {
      "name": "ECO ACTRINS, S.L.",
      "registrationNumber": "09070",
      "identificationNumber": "B53205845",
      "address": "PARAJE EL SADAR S/N",
      "location": {
        "postalCode": "02640",
        "municipality": "Almansa",
        "county": "Albacete",
        "municipalityId": "009",
        "countyId": "02"
      },
      "economicActivities": [
        {
          "id": "1.622",
          "name": "Venta al por mayor de otros productos de recuperación",
          "_links": {
            "self": {
              "name": "Venta al por mayor de otros productos de recuperación",
              "href": "https://api.euskadi.eus/procurements/companies/economic-activities/1.622"
            }
          }
        },
        {
          "id": "1.722",
          "name": "Transporte de mercancías por carretera",
          "_links": {
            "self": {
              "name": "Transporte de mercancías por carretera",
              "href": "https://api.euskadi.eus/procurements/companies/economic-activities/1.722"
            }
          }
        }
      ],
      "certificateStartDate": "2025-10-06",
      "certificateEndDate": "2026-04-06",
      "object": "A) EL TRANSPORTE, TRATAMIENTO, RECUPERACIÓN, VALORIZACIÓN Y ELIMINACIÓN DE TODO TIPO DE RESIDUOS URBANOS, INDUSTRIALES, AGRÍCOLAS Y FORESTALES, TRATAMIENTO DE RECUPERACIÓN DE SUELOS Y SELLADO DE VERTEDEROS. DICHO OBJETO PODRÁ SER DESARROLLADO MEDIANTE LA ADQUISICIÓN DE PARTICIPACIONES DE OTRAS SOCIEDADES CON OBJETO IDÉNTICO O ANÁLOGO. B) LOS SERVICIOS DE SANEAMIENTO DE VÍAS PÚBLICAS Y SIMILARES; LIMPIEZA DE JARDINES, RECOGIDA DE BASURAS Y DESECHOS; EXTERMINIO DE ANIMALES DAÑINOS Y DESINFECCIÓN DE CUALQUIER CLASE; SERVICIOS DE ALCANTARILLADO, EVACUACIÓN Y DEPURACIÓN DE AGUAS RESIDUALES; SERVICIOS DE INCINERACIÓN Y ELIMINACIÓN DE BASURAS Y DESECHOS; SERVICIOS DE PROTECCIÓN Y ACONDICIONAMIENTO AMBIENTAL CONTRA RUIDOS, VIBRACIONES Y CONTAMINACIÓN, SERVICIOS DE PROTECCIÓN CONTRA INCENDIOS Y ACCIDENTES; Y SERVICIOS DE ADMINISTRACIÓN DE CEMENTERIOS. C) LA COMPRAVENTA, ENAJENACIÓN Y GRAVAMEN DE BIENES INMUEBLES, RÚSTICOS Y URBANOS. LAS ACTIVIDADES INTEGRANTES DEL OBJETO SEÑALADO, PODRÁN SER DESARROLLADAS TOTAL O PARCIALMENTE, MEDIANTE LA TITULARIDAD DE ACCIONES O PARTICIPACIONES EN SOCIEDADES CON OBJETO IDÉNTICO O ANÁLOGO.",
      "mainEntityOfPage": "https://www.contratacion.euskadi.eus/webkpe00-kperoc/es/ac71aBusquedaRegistrosWar/empresa/09070",
      "_links": {
        "self": {
          "name": "ECO ACTRINS, S.L.",
          "href": "https://api.euskadi.eus/procurements/companies/09070"
        }
      }
    },
    {
      "name": "JUAN JOSÉ GARCÍA GARCÍA",
      "registrationNumber": "05750",
      "identificationNumber": "24407938Q",
      "address": "C/ Mª Victoria Uribe Laso, nº 4-esc. dcha. 4C",
      "location": {
        "postalCode": "48012",
        "municipality": "Bilbao",
        "county": "Bizkaia",
        "municipalityId": "020",
        "countyId": "48"
      },
      "economicActivities": [
        {
          "id": "2.322",
          "name": "Técnicos en artes gráficas",
          "_links": {
            "self": {
              "name": "Técnicos en artes gráficas",
              "href": "https://api.euskadi.eus/procurements/companies/economic-activities/2.322"
            }
          }
        }
      ],
      "certificateStartDate": "2025-10-06",
      "certificateEndDate": "2026-04-06",
      "object": "ARTES GRÁFICAS Y ACTIVIDADES EDITORIALES",
      "mainEntityOfPage": "https://www.contratacion.euskadi.eus/webkpe00-kperoc/es/ac71aBusquedaRegistrosWar/empresa/05750",
      "_links": {
        "self": {
          "name": "JUAN JOSÉ GARCÍA GARCÍA",
          "href": "https://api.euskadi.eus/procurements/companies/05750"
        }
      }
    },
    {
      "name": "DACHSER SPAIN LOGISTICS, S.A.",
      "registrationNumber": "09109",
      "identificationNumber": "A15050677",
      "address": "C.L.T. de Culleredo, Rua Felipe Minguez Serrano nº 27",
      "location": {
        "postalCode": "15199",
        "municipality": "Culleredo",
        "county": "Coruña, A",
        "municipalityId": "031",
        "countyId": "15"
      },
      "economicActivities": [
        {
          "id": "1.756",
          "name": "Intermediarios del transporte",
          "_links": {
            "self": {
              "name": "Intermediarios del transporte",
              "href": "https://api.euskadi.eus/procurements/companies/economic-activities/1.756"
            }
          }
        }
      ],
      "certificateStartDate": "2025-10-06",
      "certificateEndDate": "2026-04-06",
      "object": "1. EL DEPÓSITO Y ALMACENAJE DE TODA CLASE DE MERCANCÍAS PROPIAS O DE TERCEROS Y SU RECEPCIÓN Y ENVÍO POR CUALQUIER CLASE DE MEDIO DE TRANSPORTE, INCLUIDA LA EXPLOTACIÓN DE LOS RECINTOS T.I.R. PARA EL DEPÓSITO DE MERCADERÍAS IMPORTADAS EN MODALIDAD DE TRÁNSITO. 2. EL TRANSPORTE Y DISTRIBUCIÓN, YA SEA TERRESTRE, MARÍTIMO O AÉREO, NACIONAL O INTERNACIONAL, DE TODA CLASE DE MERCANCÍA. 3. LA COMPRA, VENTA, AGENCIA, MEDIACIÓN Y ARRENDAMIENTO DE TODA CLASE DE MEDIOS DE TRANSPORTE, NAVES, DEPÓSITOS, ALMACENES, RECINTOS, EDIFICACIONES Y TERRENOS, ASÍ COMO, PROMOVER SU CONSTRUCCIÓN O EDIFICACIÓN.",
      "mainEntityOfPage": "https://www.contratacion.euskadi.eus/webkpe00-kperoc/es/ac71aBusquedaRegistrosWar/empresa/09109",
      "_links": {
        "self": {
          "name": "DACHSER SPAIN LOGISTICS, S.A.",
          "href": "https://api.euskadi.eus/procurements/companies/09109"
        }
      }
    },
    {
      "name": "EXCELENCIA IDEAS PUBLICITARIAS, S.L.",
      "registrationNumber": "06214",
      "identificationNumber": "B48813067",
      "address": "Sotera de la Mier, 8 4a",
      "location": {
        "postalCode": "48920",
        "municipality": "Portugalete",
        "county": "Bizkaia",
        "municipalityId": "078",
        "countyId": "48"
      },
      "economicActivities": [
        {
          "id": "1.844",
          "name": "Servicios de publicidad, relaciones públicas y similares",
          "_links": {
            "self": {
              "name": "Servicios de publicidad, relaciones públicas y similares",
              "href": "https://api.euskadi.eus/procurements/companies/economic-activities/1.844"
            }
          }
        }
      ],
      "certificateStartDate": "2025-10-06",
      "certificateEndDate": "2026-04-06",
      "object": "LA PRESTACIÓN DE SERVICIOS DE AGENCIA DE PUBLICIDAD PLENOS, AGENCIA DE RELACIONES PÚBLICAS, AGENCIA DE MEDIOS, COMUNICACIÓN Y SIMILARES. PRESTACIÓN DE SERVICIOS DE PUBLICIDAD, MEDIANTE ANUNCIOS, CARTELES, FOLLETOS, PELÍCULAS PUBLICITARIAS, ETC. A TRAVÉS DE PRENSA, RADIO, TELEVISIÓN, PUBLICIDAD AÉREA U OTROS MEDIOS. CREACIÓN Y DIFUSIÓN DE ANUNCIOS A CAMPAÑAS DE INFORMACIÓN PUBLICITARIA, PROPAGANDA ELECTORAL, COMUNICACIÓN INSTITUCIONAL O PÚBLICO E IMAGEN CORPORATIVA, EXCLUSIVAS DE MEDIOS PUBLICITARIOS, PUBLICIDAD EXTERIOR, PUBLICIDAD DIRECTA Y MARKETING DIRECTO, DISTRIBUIDORAS Y CENTRALES DE COMPRAS, ESTUDIOS DE PUBLICIDAD, ETC. RELACIONES PÚBLICAS, PROMOCIÓN DE VENTAS PUBLICITARIAS, REGALOS Y RECLAMOS PUBLICITARIOS Y, EN GENERAL, CUALQUIER SERVICIO INDEPENDIENTE DE PUBLICIDAD. DESARROLLO DE CAMPAÑAS PUBLICITARIAS COMPLETAS O PARCIALES, ASESORAMIENTO Y CONSULTORÍA DE SERVICIOS PUBLICITARIOS, PLANIFICACIÓN DE MEDIOS, ESTRATEGIA PUBLICITARIA Y DE MARKETING Y COORDINACIÓN DE LAS ACTIVIDADES NECESARIAS PARA LA REALIZACIÓN DE LAS CAMPAÑAS. DE FORMA MÁS CONCRETA: DESARROLLO DE LA IDEA A COMUNICAR, CREATIVIDAD PARA CONSEGUIR QUE IDEA SE TRANSMITA CORRECTAMENTE, DISEÑO, MAQUETACIÓN Y COMPOSICIÓN DE ORIGINALES Y ESTRATEGIA DE LA CAMPAÑA, PLAN DE MARKETING, ETC. REALIZACIÓN DE FOTOGRAFÍA PUBLICITARIA EN ESTUDIO O EN ESTERIOR, Y/O PERIODÍSTICA. RETOQUE FOTOGRÁFICO, MONTAJES FOTOGRÁFICOS E INFOGRAFIAS, ETC. REDACCIÓN PUBLICITARIA DE TEXTO, REPORTAJES PUBLICITARIOS, NOTICIAS, INCLUÍDA LA TRADUCCIÓN A LOS IDIOMAS NECESARIOS, ETC. REALIZACIÓN DE CUÑAS DE RADIO, PUBLIREPORTAJES RADIOFÓNICOS, PROGRAMAS PATROCINADOS O ESPONSORIZADOS. DESARROLLO DE SPOTS DE TELEVISIÓN, EDICIÓN Y MONTAJE DE LOS VIDEOS ORIGINALES. REALIZACIÓN Y EMISIÓN DE ANUNCIOS DE CINES, TEATROS, AUDITORIOS Y SALAS COMERCIALES. DISEÑO Y COMERCIALIZACIÓN DE ANUNCIOS DE PRENSA, REPORTAJES, ANUNCIOS POR PALABRAS, PUBLIREPORTAJES TANTO EN REVISTAS, PERIÓDICOS, PRENSA DE PAGO, GRATUITA, GAFAS, PUBLICACIONES TURÍSTICAS, DEPORTIVA, LOCALES, ETC. PUBLICIDAD EXTERIOR, MARQUESINAS, MUPIS, OPPIS, POSTES PUBLICITARIOS, PUBLICIDAD Y PROMOCIONES EN CENTROS COMERCIALESPUBLICIDAD AÉREA O ACÚSTICA. GESTIÓN DE PUBLICIDAD EN INTERNET, REALIZACIÓN DE BANNERS, DISEÑO DE MINISITES Y PÁGINAS WEB INCLUYENDO LA GESTIÓN DE DOMINIOS EN INTERNET. DISTRIBUCIÓN PUBLICITARIA, BUZONEOS, PARABRISEO, PERCHING, ETC. ROTULACIONES, VINILOS, ESCAPARATES PUBLICITARIOS. PATROCINIOS Y ESPONSORIZACIONES. GABINETE DE COMUNICACIÓN, GABINETE DE PRENSA Y RELACIONES PÚBLICAS. LA ORGANIZACIÓN DE CAMPAÑAS PROMOCIONALES Y/O DE CONCIENCIACIÓN CIUDADANA COMPLETAS, ASÍ COMO PROGRAMAS DE ACTUACIÓN EN TEMAS COMO RECICLAJE DE BASURAS, PREVENCIÓN DE SIDA, MINUSVALÍAS, ECOLOGÍA, DISCAPACIDADES, ANCIANOS, PREVENCIÓN DE DROGODEPENDENCIAS, PROMOCIÓN DE EMPLEO, CONSUMO, TURISMO Y EN GENERAL TEMAS RELACIONADOS CON EL BIENESTAR SOCIAL. ORGANIZACIÓN Y COORDINACIÓN DE ACTOS PROMOCIONALES Y PARQUES INFANTILES, INCLUYENDO ATRACCIONES PARA NIÑOS, HINCHABLES, TALLERES DE JUEGOS, EQUIPOS DE SONIDO E ILUMINACIÓN. LA COMPRA, VENTA, ALQUILER, PARCELACIÓN Y URBANIZACIÓN DE SOLARES, TERRENOS Y FINCAS DE CUALQUIER NATURALEZA, PUDIENDO PROCEDER A LA EDIFICACIÓN DE LOS MISMOS Y SU ENAJENACIÓN ÍNTEGRA O PARCIALMENTE",
      "mainEntityOfPage": "https://www.contratacion.euskadi.eus/webkpe00-kperoc/es/ac71aBusquedaRegistrosWar/empresa/06214",
      "_links": {
        "self": {
          "name": "EXCELENCIA IDEAS PUBLICITARIAS, S.L.",
          "href": "https://api.euskadi.eus/procurements/companies/06214"
        }
      }
    },
    {
      "name": "CUSTAR LOGISTICS Y MANAGEMENT FACILITIES, S.L.",
      "registrationNumber": "08126",
      "identificationNumber": "B01523562",
      "address": "C/ALBERTO SCHOMMER, 3 -  BAJO 5",
      "location": {
        "postalCode": "01006",
        "municipality": "Vitoria-Gasteiz",
        "county": "Araba/Álava",
        "municipalityId": "059",
        "countyId": "01"
      },
      "economicActivities": [
        {
          "id": "1.754.9",
          "name": "Otros depósitos y almacenes especiales n.c.o.p",
          "_links": {
            "self": {
              "name": "Otros depósitos y almacenes especiales n.c.o.p",
              "href": "https://api.euskadi.eus/procurements/companies/economic-activities/1.754.9"
            }
          }
        },
        {
          "id": "1.756",
          "name": "Intermediarios del transporte",
          "_links": {
            "self": {
              "name": "Intermediarios del transporte",
              "href": "https://api.euskadi.eus/procurements/companies/economic-activities/1.756"
            }
          }
        }
      ],
      "certificateStartDate": "2025-10-06",
      "certificateEndDate": "2026-04-06",
      "object": ".- LA REALIZACIÓN DE SERVICIOS LOGÍSTICOS DE ALMACENAMIENTO, TRANSPORTE Y DISTRIBUCIÓN DE TODA CLASE DE MERCANCÍAS, PRIMERAS MATERIAS, PRODUCTOS Y MAQUINARIA, ASÍ COMO EL ASESORAMIENTO Y ASISTENCIA TÉCNICA EN LA PRESTACIÓN DE DICHOS SERVICIOS. A TÍTULO ENUNCIATIVO Y NO LIMITATIVO: PRODUCTOS FARMACÉUTICOS, DE CUIDADO PERSONAL, DE AUTOMOCIÓN, DE DROGUERÍA Y PERFUMERÍA, DE ALIMENTACIÓN, DE TECNOLOGÍA Y DE ELECTRODOMÉSTICOS. .- PRESTACIÓN DE SERVICIOS DE GESTIÓN DE CORRESPONDENCIA, GESTIÓN DE ESPACIOS, GESTIÓN DE MUDANZAS INTERNAS, SERVICIOS DE ACOMODACIÓN Y REPARACIÓN APLICABLES A GRANDES ORGANIZACIONES/INSTITUCIONES.",
      "mainEntityOfPage": "https://www.contratacion.euskadi.eus/webkpe00-kperoc/es/ac71aBusquedaRegistrosWar/empresa/08126",
      "_links": {
        "self": {
          "name": "CUSTAR LOGISTICS Y MANAGEMENT FACILITIES, S.L.",
          "href": "https://api.euskadi.eus/procurements/companies/08126"
        }
      }
    },
    {
      "name": "TELLAIKESAN, S.L.",
      "registrationNumber": "08789",
      "identificationNumber": "B95568390",
      "address": "c/ General Eguia n 29 bis entreplanta E",
      "location": {
        "postalCode": "48013",
        "municipality": "Bilbao",
        "county": "Bizkaia",
        "municipalityId": "020",
        "countyId": "48"
      },
      "economicActivities": [
        {
          "id": "1.834",
          "name": "Servicios relativos a la propiedad inmobiliaria e industrial",
          "_links": {
            "self": {
              "name": "Servicios relativos a la propiedad inmobiliaria e industrial",
              "href": "https://api.euskadi.eus/procurements/companies/economic-activities/1.834"
            }
          }
        }
      ],
      "certificateStartDate": "2025-10-06",
      "certificateEndDate": "2026-04-06",
      "object": "- LA REALIZACIÓN DE TODA CLASE DE ACTIVIDADES PROPIAS DE LA INDUSTRIA DE LA MADERA; EL ASERRADO Y PREPARACIÓN INDUSTRIAL DE LA MADERA; LA FABRICACIÓN DE PRODUCTOS SEMIELABORADOS DE MADERA, DE PIEZAS DE CARPINTERÍA, DE ESTRUCTURAS DE MADERA EN GENERAL Y DE OBJETOS DIVERSOS DE MADERA; LA FABRICACIÓN, MONTAJE Y COMERCIALIZACIÓN DE MUEBLES Y DE OBRAS DE CARPINTERÍA Y EBANISTERÍA, Y DE COCINAS, ELECTRODOMÉSTICOS, BAÑOS Y APARATOS Y ACCESORIOS PARA EL HOGAR; EL TRATAMIENTO DE MADERAS. - LA PRESTACIÓN DE SERVICIOS PROFESIONALES DE ASESORAMIENTO, ASISTENCIA Y GESTIÓN COMERCIAL, ADMINISTRATIVO, DE COMERCIO EXTERIOR, FISCAL,  CONTABLE, ECONÓMICO-FINANCIERO, LABORAL Y JURÍDICO EN GENERAL PARA TERCERAS PERSONAS, EMPRESAS O PARTICULARES; LA REALIZACIÓN DE INFORMES COMERCIALES, TÉCNICOS E INDUSTRIALES; LA REALIZACIÓN Y DIRECCIÓN DE ESTUDIOS Y PROSPECCIONES DE MERCADOS Y DE CARÁCTER ESTADÍSTICO; LA SELECCIÓN Y FORMACIÓN DE PERSONAL PARA LAS EMPRESAS Y LA VALORACIÓN DE ÉSTAS; EL ESTUDIO Y GESTIÓN DE SISTEMAS EMPRESARIALES PARA ADECUAR LOS MEDIOS PRODUCTIVOS A LAS NECESIDADES DEL MERCADO Y EL ESTUDIO Y REDACCIÓN DE PLANES DE VIABILIDAD; LA REALIZACIÓN DE NUEVOS PROYECTOS EMPRESARIALES; SERVICIO DE COBRO DE CRÉDITOS MOROSOS, ESTUDIO Y REDACCIÓN DE ESTATUTOS PARA LA CONSTITUCIÓN DE ENTIDADES DE CUALQUIER NATURALEZA, ESTUDIO DE TRAMITACIÓN DE SUBVENCIONES, CRÉDITOS Y OTRAS AYUDAS FINANCIERAS DE LOS ORGANISMOS DEL ESTADO, DE LAS COMUNIDADES AUTÓNOMAS, DE LAS DIPUTACIONES Y DE TODO TIPO DE ENTIDADES PÚBLICAS Y PRIVADAS, PARA TODO TIPO DE EMPRESAS O PARTICULARES Y LA PRESTACIÓN DE SERVICIO DE VERIFICACIONES REGISTRALES, INFORMES COMERCIALES, GRABACIONES DE DATOS Y RECOBROS; Y LA REALIZACIÓN DE PROYECTOS, CÁLCULOS, PLANOS, DIBUJOS, MEMORIAS Y DEMÁS ACTIVIDADES PROPIAS DE UNA OFICINA TÉCNICA DE TOPOGRAFÍA, INGENIERÍA, ARQUITECTURA Y DELINEACIÓN. - LA FABRICACIÓN, COMPRAVENTA, IMPORTACIÓN, EXPORTACIÓN, ARRENDAMIENTO, LEASING, RENTING Y COMERCIALIZACIÓN EN GENERAL DE MATERIAL EDUCATIVO Y DOCENTE, DE PRODUCTOS RELACIONADOS CON LA IMAGEN Y EL SONIDO, DE ARTÍCULOS DE REGALO, Y SERIGRAFÍA DE LOS MISMOS, DE OBRAS DE ARTE, ANTIGÜEDADES, MONEDAS, SELLOS, JUGUETES Y OTROS OBJETOS DE COLECCIÓN, ADORNO Y DECORACIÓN; Y, EN GENERAL, OBJETOS DE BISUTERÍA Y MARROQUINERÍA. - LA REPARACIÓN, IMPORTACIÓN Y EXPORTACIÓN, MANTENIMIENTO, COMPRAVENTA, COMPRAVENTA Y COMERCIALIZACIÓN DE VEHÍCULOS (AUTOMÓVILES, CICLOS Y MAQUINARIA INDUSTRIAL Y AGRÍCOLA), NUEVOS O USADOS, Y DE SUS COMPONENTES, RECAMBIOS Y ACCESORIOS, ASÍ COMO DE MATERIAL HIDRÁULICO Y DE ACCESORIOS METÁLICOS; EL ALQUILER DE VEHÍCULOS, CON O SIN CONDUCTOR, Y DE MAQUINARIA INDUSTRIAL; Y LA EXPLOTACIÓN DE APARCAMIENTOS, ABIERTOS O CERRADOS. - LA ADQUISICIÓN, CESIÓN, TENENCIA, DISFRUTE, ADMINISTRACIÓN, GESTIÓN Y NEGOCIACIÓN POR CUENTA PROPIA DE INMUEBLES, VALORES MOBILIARIOS, TÍTULOS, ACTIVOS FINANCIEROS, PARTICIPACIONES SOCIALES O CUOTAS DE COPROPIEDAD EN EMPRESAS INDIVIDUALES O SOCIALES, QUEDANDO EXCLUIDAS LAS ACTIVIDADES QUE LA LEGISLACIÓN ESPECIAL, Y BÁSICAMENTE LA LEY DEL MERCADO DE VALORES, ATRIBUYE CON CARÁCTER EXCLUSIVO A OTRAS ENTIDADES. LAS ACTIVIDADES PROPIAS DE ALBAÑILERÍA Y PEQUEÑAS OBRAS DE CONSTRUCCIÓN; LA ADQUISICIÓN, EXPLOTACIÓN, TENENCIA, ARRENDAMIENTO Y ENAJENACIÓN DE TODA CLASE DE INMUEBLES INCLUIDA LA URBANIZACIÓN Y PARCELACIÓN DE TERRENOS; LA PROMOCIÓN, GESTIÓN Y EJECUCIÓN, POR CUALQUIER TÍTULO, DE TODA CLASE DE CONSTRUCCIONES Y OBRAS, POR CUENTA PROPIA O AJENA; LA REALIZACIÓN DE EXCAVACIONES, ALLANAMIENTOS, DESMONTES, CIMENTACIONES Y ENCOFRADOS, Y DE AISLAMIENTOS E IMPERMEABILIZACIONES; LA PAVIMENTACIÓN Y ASFALTADO DE ACERAS Y VÍAS; LA ELABORACIÓN DE TODO TIPO DE PROYECTOS DE INGENIERÍA Y ARQUITECTURA, ASÍ COMO LA SUPERVISIÓN, DIRECCIÓN Y ASESORAMIENTO EN LA EJECUCIÓN DE TODO TIPO DE OBRAS Y CONSTRUCCIONES; EL MANTENIMIENTO, REHABILITACIÓN Y ACONDICIONAMIENTO DE EDIFICIOS, LOCALES Y VIVIENDAS Y LAS DEMÁS ACTIVIDADES INMOBILIARIAS; LA REALIZACIÓN DE MONTAJES E INSTALACIONES DE ESTRUCTURAS METÁLICAS, TUBULARES Y DE OTROS MATERIALES Y MEDIANTE CUALQUIER SISTEMA TÉCNICO; LA DIRECCIÓN Y COORDINACIÓN DE GREMIOS; LA DECORACIÓN DE INTERIORES; Y LA FABRICACIÓN Y COMERCIALIZACIÓN DE PRODUCTOS, MAQUINARIA, MATERIALES DE CONSTRUCCIÓN, ELEMENTOS SANITARIOS Y MOBILIARIO EN GENERAL. LA ADMINISTRACIÓN DE FINCAS Y COMUNIDADES, TANTO DE PROPIETARIOS COMO DE AUTOPROMOTORES, Y LA PRESTACIÓN DE SERVICIOS RELACIONADOS CON EL ÁMBITO INMOBILIARIO, ARQUITECTÓNICO, DE TÉCNICA CONSTRUCTIVAS E INGENIERÍA EN GENERAL, MEDIANTE FORMULACIÓN, DESARROLLO Y PUESTA EN MARCHA DE ESTUDIOS, ACTUACIONES Y PROYECTOS. LAS ACTIVIDADES INTEGRANTES DEL OBJETO SOCIAL PODRÁN SER DESARROLLADAS POR LA SOCIEDAD, TOTAL O PARCIALMENTE, DE MODO INDIRECTO, MEDIANTE LA TITULARIDAD DE ACCIONES O PARTICIPACIONES EN OTRAS SOCIEDADES CON OBJETO IDÉNTICO O ANÁLOGO. LA SOCIEDAD NO DESARROLLARÁ NINGUNA ACTIVIDAD PARA LA QUE LAS LEYES EXIJAN CONDICIONES O LIMITACIONES ESPECÍFICAS EN TANTO NO SE DÉ EXACTO CUMPLIMIENTO A LAS MISMAS.",
      "mainEntityOfPage": "https://www.contratacion.euskadi.eus/webkpe00-kperoc/es/ac71aBusquedaRegistrosWar/empresa/08789",
      "_links": {
        "self": {
          "name": "TELLAIKESAN, S.L.",
          "href": "https://api.euskadi.eus/procurements/companies/08789"
        }
      }
    },
    {
      "name": "ASOCIACION CENTRO UNIVERSITARIO PARA LA TRANSFORMACION DE CONFLICTOS GEUZ",
      "registrationNumber": "09077",
      "identificationNumber": "G95097028",
      "address": "Mazarredo 81, 6 izq",
      "location": {
        "postalCode": "48009",
        "municipality": "Bilbao",
        "county": "Bizkaia",
        "municipalityId": "020",
        "countyId": "48"
      },
      "economicActivities": [
        {
          "id": "1.999",
          "name": "Otros servicios n.c.o.p",
          "_links": {
            "self": {
              "name": "Otros servicios n.c.o.p",
              "href": "https://api.euskadi.eus/procurements/companies/economic-activities/1.999"
            }
          }
        }
      ],
      "certificateStartDate": "2025-10-06",
      "certificateEndDate": "2026-04-06",
      "object": "EL DESARROLLO Y LA PROMOCIÓN DE LA CONVIVENCIA, LA CULTURA DE PAZ Y LA RESOLUCIÓN PACÍFICA DE CONFLICTOS EN DIVERSOS ÁMBITOS DE LAS RELACIONES SOCIALES, COMO EL COMUNITARIO, EL ESCOLAR, EL ORGANIZACIONAL, EL FAMILIAR, EL PENAL Y OTROS. EL DESARROLLO Y LA PROMOCIÓN DE LOS DERECHOS HUMANOS. LA PROMOCIÓN DE LA IGUALDAD, LA TOLERANCIA Y LA INCLUSIÓN SOCIAL.",
      "mainEntityOfPage": "https://www.contratacion.euskadi.eus/webkpe00-kperoc/es/ac71aBusquedaRegistrosWar/empresa/09077",
      "_links": {
        "self": {
          "name": "ASOCIACION CENTRO UNIVERSITARIO PARA LA TRANSFORMACION DE CONFLICTOS GEUZ",
          "href": "https://api.euskadi.eus/procurements/companies/09077"
        }
      }
    },
    {
      "name": "ELEKTRART, INNOVACIÓN CULTURAL Y TECNOLÓGICA, S.L.",
      "registrationNumber": "09089",
      "identificationNumber": "B95910303",
      "address": "Avenida Altos Hornos de Vizcaya 33-C5",
      "location": {
        "postalCode": "48901",
        "municipality": "Barakaldo",
        "county": "Bizkaia",
        "municipalityId": "013",
        "countyId": "48"
      },
      "economicActivities": [
        {
          "id": "1.843.9",
          "name": "Otros servicios técnicos n.c.o.p",
          "_links": {
            "self": {
              "name": "Otros servicios técnicos n.c.o.p",
              "href": "https://api.euskadi.eus/procurements/companies/economic-activities/1.843.9"
            }
          }
        },
        {
          "id": "1.933.9",
          "name": "Otras actividades de enseñanza tales como idiomas, mecanografía",
          "_links": {
            "self": {
              "name": "Otras actividades de enseñanza tales como idiomas, mecanografía",
              "href": "https://api.euskadi.eus/procurements/companies/economic-activities/1.933.9"
            }
          }
        },
        {
          "id": "1.961.1",
          "name": "Producción de películas cinematográficas (incluso vídeos)",
          "_links": {
            "self": {
              "name": "Producción de películas cinematográficas (incluso vídeos)",
              "href": "https://api.euskadi.eus/procurements/companies/economic-activities/1.961.1"
            }
          }
        },
        {
          "id": "1.965.4",
          "name": "Empresas de espectáculos",
          "_links": {
            "self": {
              "name": "Empresas de espectáculos",
              "href": "https://api.euskadi.eus/procurements/companies/economic-activities/1.965.4"
            }
          }
        },
        {
          "id": "1.966.9",
          "name": "Otros servicios culturales n.c.o.p",
          "_links": {
            "self": {
              "name": "Otros servicios culturales n.c.o.p",
              "href": "https://api.euskadi.eus/procurements/companies/economic-activities/1.966.9"
            }
          }
        },
        {
          "id": "1.989.2",
          "name": "Servicios de organización de congresos, asambleas y similares",
          "_links": {
            "self": {
              "name": "Servicios de organización de congresos, asambleas y similares",
              "href": "https://api.euskadi.eus/procurements/companies/economic-activities/1.989.2"
            }
          }
        }
      ],
      "certificateStartDate": "2025-10-06",
      "certificateEndDate": "2026-04-06",
      "object": "SERVICIOS DE PRODUCCIÓN, REALIZACIÓN, EDICIÓN Y CREACIÓN AUDIOVISUAL, INCLUYENDO AQUELLOS TRABAJOS DE ANIMACIÓN Y ARTE DIGITAL Y SU INTEGRACIÓN TECNOLÓGICA EN EL ÁMBITO ARTÍSTICO Y CULTURAL EN SU SENTIDO MÁS AMPLIO, INCLUYENDO ADEMÁS LOS SERVICIOS DE ORGANIZACIÓN DE EVENTOS RELACIONADOS CON EL ARTE Y LA TECNOLOGÍA, ASÍ COMO LA ORGANIZACIÓN DE JORNADAS, CONFERENCIAS, CONSULTORÍA O FORMACIÓN EN EL ÁMBITO CULTURAL Y TECNOLÓGICO. ASÍ MISMO, EL DESARROLLO DE PRODUCTOS Y SERVICIOS QUE INTEGREN TECNOLOGÍAS PARA LA PROMOCIÓN DEL ARTE, LA CULTURA Y LA GENERACIÓN DE VALOR AÑADIDO EN DIFERENTES ÁMBITOS DE LA SOCIEDAD.",
      "mainEntityOfPage": "https://www.contratacion.euskadi.eus/webkpe00-kperoc/es/ac71aBusquedaRegistrosWar/empresa/09089",
      "_links": {
        "self": {
          "name": "ELEKTRART, INNOVACIÓN CULTURAL Y TECNOLÓGICA, S.L.",
          "href": "https://api.euskadi.eus/procurements/companies/09089"
        }
      }
    },
    {
      "name": "DEKOLUIS, S.L.",
      "registrationNumber": "05755",
      "identificationNumber": "B01142819",
      "address": "C/ ZUBIBARRI 9-Pabellón A-4",
      "location": {
        "postalCode": "01013",
        "municipality": "Vitoria-Gasteiz",
        "county": "Araba/Álava",
        "municipalityId": "059",
        "countyId": "01"
      },
      "economicActivities": [
        {
          "id": "1.505.2",
          "name": "Solados y pavimentos de todas clases en cualquier tipo de obra",
          "_links": {
            "self": {
              "name": "Solados y pavimentos de todas clases en cualquier tipo de obra",
              "href": "https://api.euskadi.eus/procurements/companies/economic-activities/1.505.2"
            }
          }
        }
      ],
      "certificateStartDate": "2025-10-06",
      "certificateEndDate": "2026-04-06",
      "object": "LA DECORACIÓN DE INTERIORES EN TODA CLASE DE INMUEBLES",
      "mainEntityOfPage": "https://www.contratacion.euskadi.eus/webkpe00-kperoc/es/ac71aBusquedaRegistrosWar/empresa/05755",
      "_links": {
        "self": {
          "name": "DEKOLUIS, S.L.",
          "href": "https://api.euskadi.eus/procurements/companies/05755"
        }
      }
    },
    {
      "name": "DISTRIBUCIONES Y SUMINISTROS ALAVA, S.L.",
      "registrationNumber": "02575",
      "identificationNumber": "B01132315",
      "address": "C/ SAN BLAS, 11 (P.I. GOJAIN)",
      "location": {
        "postalCode": "01170",
        "municipality": "Legutio",
        "county": "Araba/Álava",
        "municipalityId": "058",
        "countyId": "01"
      },
      "economicActivities": [
        {
          "id": "1.652.3",
          "name": "Venta al por menor de perfumería y cosmética y artículos de aseo personal",
          "_links": {
            "self": {
              "name": "Venta al por menor de perfumería y cosmética y artículos de aseo personal",
              "href": "https://api.euskadi.eus/procurements/companies/economic-activities/1.652.3"
            }
          }
        }
      ],
      "certificateStartDate": "2025-10-06",
      "certificateEndDate": "2026-04-06",
      "object": "LA COMPRAVENTA, AL POR MAYOR, DE TODA CLASE DE PRODUCTOS DE PERFUMERÍA, DROGUERÍA E HIGIENE; MANTENIMIENTO Y FUNCIONAMIENTO DE SUPERFICIES INDUSTRIALES Y COMERCIALES. LAS ACTIVIDADES ENUMERADAS PODRÁN TAMBIÉN SER DESARROLLADAS POR LA SOCIEDAD, TOTAL O PARCIALMENTE, DE MODO INDIRECTO, MEDIANTE LA PARTICIPACIÓN EN OTRAS SOCIEDADES CON OBJETO ANÁLOGO",
      "mainEntityOfPage": "https://www.contratacion.euskadi.eus/webkpe00-kperoc/es/ac71aBusquedaRegistrosWar/empresa/02575",
      "_links": {
        "self": {
          "name": "DISTRIBUCIONES Y SUMINISTROS ALAVA, S.L.",
          "href": "https://api.euskadi.eus/procurements/companies/02575"
        }
      }
    }
  ]
}