{
  "totalItems": 9042,
  "totalPages": 905,
  "currentPage": 302,
  "itemsOfPage": 10,
  "items": [
    {
      "name": "GIRDER INGENIEROS, S.L.",
      "registrationNumber": "03066",
      "identificationNumber": "B20842639",
      "address": "CAMINO PORTUETXE, 23 B EDIFICIO CEMEI - OF. 2.13",
      "location": {
        "postalCode": "20018",
        "municipality": "Donostia / San Sebastián",
        "county": "Gipuzkoa",
        "municipalityId": "069",
        "countyId": "20"
      },
      "economicActivities": [
        {
          "id": "1.843.1",
          "name": "Servicios técnicos de ingeniería",
          "_links": {
            "self": {
              "name": "Servicios técnicos de ingeniería",
              "href": "https://api.euskadi.eus/procurements/companies/economic-activities/1.843.1"
            }
          }
        }
      ],
      "certificateStartDate": "2025-09-03",
      "certificateEndDate": "2026-03-03",
      "object": "EL EJERCICIO EN COMÚN DE LA ACTIVIDAD PROFESIONAL PROPIA DE LOS INGENIEROS DE CAMINOS, CANALES Y PUERTOS.",
      "mainEntityOfPage": "https://www.contratacion.euskadi.eus/webkpe00-kperoc/es/ac71aBusquedaRegistrosWar/empresa/03066",
      "_links": {
        "self": {
          "name": "GIRDER INGENIEROS, S.L.",
          "href": "https://api.euskadi.eus/procurements/companies/03066"
        }
      }
    },
    {
      "name": "ESNAOLA COMUNICACION, SOCIEDAD LIMITADA",
      "registrationNumber": "07771",
      "identificationNumber": "B75203927",
      "address": "PIO BAROJA 20",
      "location": {
        "postalCode": "20008",
        "municipality": "Donostia / San Sebastián",
        "county": "Gipuzkoa",
        "municipalityId": "069",
        "countyId": "20"
      },
      "economicActivities": [
        {
          "id": "1.844",
          "name": "Servicios de publicidad, relaciones públicas y similares",
          "_links": {
            "self": {
              "name": "Servicios de publicidad, relaciones públicas y similares",
              "href": "https://api.euskadi.eus/procurements/companies/economic-activities/1.844"
            }
          }
        }
      ],
      "certificateStartDate": "2025-09-03",
      "certificateEndDate": "2026-03-03",
      "object": "PRESTACIÓN DE SERVICIOS DE AGENCIA DE PUBLICIDAD EN GENERAL CON DEDICACIÓN PROFESIONAL Y POR CUENTA DE TERCEROS A LA CREACIÓN, PROYECCIÓN, EJECUCIÓN Y DISTRIBUCIÓN DE CAMPAÑAS DE PUBLICIDAD Y ESPECIALMENTE LA ASESORÍA Y EJECUCIÓN EN ACTIVIDADES DE MARKETING, COMUNICACIÓN, RELACIONES PÚBLICAS Y GABINETE DE PRENSA",
      "mainEntityOfPage": "https://www.contratacion.euskadi.eus/webkpe00-kperoc/es/ac71aBusquedaRegistrosWar/empresa/07771",
      "_links": {
        "self": {
          "name": "ESNAOLA COMUNICACION, SOCIEDAD LIMITADA",
          "href": "https://api.euskadi.eus/procurements/companies/07771"
        }
      }
    },
    {
      "name": "FIDELIZA, S.L.",
      "registrationNumber": "02982",
      "identificationNumber": "B95174983",
      "address": "GENERAL CONCHA, 25 - 7º - DPTO. 4",
      "location": {
        "postalCode": "48010",
        "municipality": "Bilbao",
        "county": "Bizkaia",
        "municipalityId": "020",
        "countyId": "48"
      },
      "economicActivities": [
        {
          "id": "1.844",
          "name": "Servicios de publicidad, relaciones públicas y similares",
          "_links": {
            "self": {
              "name": "Servicios de publicidad, relaciones públicas y similares",
              "href": "https://api.euskadi.eus/procurements/companies/economic-activities/1.844"
            }
          }
        },
        {
          "id": "1.989.2",
          "name": "Servicios de organización de congresos, asambleas y similares",
          "_links": {
            "self": {
              "name": "Servicios de organización de congresos, asambleas y similares",
              "href": "https://api.euskadi.eus/procurements/companies/economic-activities/1.989.2"
            }
          }
        }
      ],
      "certificateStartDate": "2025-09-03",
      "certificateEndDate": "2026-03-03",
      "object": "LA PRESTACIÓN DE SERVICIOS DE MARKETING, INCLUYENDO LA INVESTIGACIÓN DE MERCADOS, LA CONSULTORÍA Y LA DEFINICIÓN DE ESTRATEGIAS COMERCIALES, ASÍ COMO LA GESTIÓN DE LAS MISMAS, TANTO EN ASPECTOS DE ORGANIZACIÓN  INTERNA COMO RELACIONALES Y DE ATENCIÓN AL CLIENTE; SERVICIOS DE COMUNICACIÓN GLOBAL, ABARCANDO TAMBIÉN DESDE LA CONSULTORÍA HASTA LA GESTIÓN E IMPLANTACIÓN DE TÉCNICAS Y MEDIOS LIGADOS AL DISEÑO GRÁFICO, INDUSTRIAL, AUDIOVISUAL E INFORMÁTICO, ASÍ COMO AL DISEÑO ESPACIAL, A LA PUBLICIDAD, A LA COMUNICACIÓN DIRECTA, A LA PROMOCIÓN DE EVENTOS -INCLUÍDA LA ORGANIZACIÓN Y PROMOCIÓN DE JORNADAS, CONGRESOS, FERIAS Y EXPOSICIONES- Y A LAS RELACIONES PÚBLICAS Y CON LOS MEDIOS DE COMUNICACIÓN, SERVICIOS DE ATENCIÓN TELEFÓNICA, MARKETING, INFORMACIÓN, DOCUMENTACIÓN, RECEPCIÓN Y ASISTENCIA; PROYECTOS DE FIDELIZACIÓN DE PÚBLICOS, VENTA POR CATÁLOGO Y A DISTANCIA Y NUEVAS TECNOLOGÍAS; GESTIÓN DE PROYECTOS, EQUIPAMIENTOS Y ORGANIZACIONES  DEL ÁMBITO CULTURAL, ARTÍSTICO, DE OCIO Y ENTRETENIMIENTO, TURÍSTICO Y DEPORTIVO, ASÍ COMO DE DESARROLLO LOCAL; FORMACÓN EN CUALQUIER FORMATO; ÁMBITO TEMÁTICO Y DISCIPLINA, DENTRO O FUERA DEL SISTEMA REGLADO DE ENSEÑANZA; LABORES ADMINISTRATIVAS DE TODA ÍNDOLE, CONTROL DE ACCESOS E INFORMACIÓN AL PÚBLICO Y CUALESQUIERA OTRAS ACTIVIDADES AFINES O COMPLEMENTARIAS DE LAS SEÑALADAS",
      "mainEntityOfPage": "https://www.contratacion.euskadi.eus/webkpe00-kperoc/es/ac71aBusquedaRegistrosWar/empresa/02982",
      "_links": {
        "self": {
          "name": "FIDELIZA, S.L.",
          "href": "https://api.euskadi.eus/procurements/companies/02982"
        }
      }
    },
    {
      "name": "OBVIUM OMNIS, S.A.",
      "registrationNumber": "08576",
      "identificationNumber": "A48167191",
      "address": "Avenida Los Chopos 14",
      "location": {
        "postalCode": "48992",
        "municipality": "Getxo",
        "county": "Bizkaia",
        "municipalityId": "044",
        "countyId": "48"
      },
      "economicActivities": [
        {
          "id": "1.951",
          "name": "Asistencia y servicios sociales en centros residenciales",
          "_links": {
            "self": {
              "name": "Asistencia y servicios sociales en centros residenciales",
              "href": "https://api.euskadi.eus/procurements/companies/economic-activities/1.951"
            }
          }
        }
      ],
      "certificateStartDate": "2025-09-03",
      "certificateEndDate": "2026-03-03",
      "object": "1.- LA ATENCIÓN Y CUIDADO EN TODA SU EXTENSIÓN A LAS PERSONAS ANCIANAS O DE LAS LLAMADAS DE TERCERA EDAD. 2.- LA EXPLOTACIÓN Y DESARROLLO DE ACTIVIDADES CARACTERÍSTICAS DEL NEGOCIO DE HOSTELERÍA, BARES, DISCOTECAS Y RESTAURANTES EN LOCALES PROPIOS O AJENOS. SERVICIOS DE CATERING, NUTRICIÓN Y ASESORAMIENTO TÉCNICO ESPECIALIZADA. ASESORAMIENTO EN GESTIÓN E IMPLANTACIÓN DE RECURSOS HUMANOS A OTRAS EMPRESAS TANTO AJENAS COMO DEL GRUPO. GESTIÓN DE ABASTECIMIENTOS Y COMPRA PARA OTRAS EMPRESAS, AJENAS O DEL GRUPO. FORMACIÓN Y ENSEÑANZA TANTO EN CENTROS PROPIOS COMO EN ESTABLECIMIENTOS AJENOS. 3.- LA PROMOCIÓN, CONSTRUCCIÓN, COMPRA, VENTA, ARRENDAMIENTO Y COMERCIALIZACIÓN EN GENERAL DE TODA CLASE DE EDIFICACIONES, TERRENOS, SOLARES, FINCAS RÚSTICAS Y URBANAS; LA EDIFICACIÓN, URBANIZACIÓN, EXCAVACIÓN, CIMENTACIÓN Y DERRIBO, BIEN POR CUENTA PROPIA COMO AJENA, ASÍ COMO LA ENAJENACIÓN, VENTA, ARRIENDO O EXPLOTACIÓN, EN CUALQUIER FORMA DE TODA CLASE DE INMUEBLES, EDIFICIOS, PISOS, APARTAMENTOS, LOCALES COMERCIALES O INDUSTRIALES OFICINAS Y HOTELES O ESTABLECIMIENTOS DE HOSTELERÍA EN GENERAL. 4.- TODA CLASE DE OPERACIONES INMOBILIARIAS SOBRE FINCAS RÚSTICAS Y URBANAS, PROMOCIÓN DE CONTRATOS O REALIZACIONES DE PARCELACIONES, URBANIZACIONES, CONSTRUCCIONES Y OBRAS PRIVADAS O PÚBLICAS, LA VENTA, HIPOTECA, ARRENDAMIENTO, TRANSFORMACIÓN, MEJORA, ADMINISTRACIÓN, PUESTA EN EXPLOTACIÓN Y LA EXPLOTACIÓN MISMA, DE FINCAS RÚSTICAS Y URBANAS, LA ORGANIZACIÓN, PROMOCIÓN, ASESORAMIENTO, Y GESTIÓN EN SU CASO DE SOCIEDADES, COOPERATIVAS, COMUNIDADES, ENTIDADES, GRUPOS O EMPRESAS PARTICULARES ORIENTADAS A LA CONSTRUCCIÓN O URBANIZACIÓN, LA PLANIFICACIÓN Y ESTUDIO DE MERCADOS EN MATERIA INMOBILIARIA. 5.- LA ADMINISTRACIÓN DE FINCAS Y COMUNIDADES, TANTO DE PROPIETARIOS COMO DE AUTOPROMOTORES, ASÍ COMO LA PRESTACIÓN DE TODA CLASE DE SERVICIOS RELACIONADOS CON EL ÁMBITO INMOBILIARIO, ARQUITECTÓNICO, DE TÉCNICA DE LA CONSTRUCCIÓN E INGENIERÍA EN GENERAL, POR MEDIO DE LA FORMULACIÓN, DESARROLLO Y PUESTA EN MARCHA DE ESTUDIOS, ACTUACIONES Y PROYECTOS. 6.- LA GESTIÓN, DIRECCIÓN Y EJECUCIÓN POR CUENTA PROPIA O AJENA DE TODA CLASE DE CONSTRUCCIONES, INSTALACIONES, REFORMAS, REHABILITACIONES, DECORACIONES Y OBRAS DE RESTAURACIÓN EXTERNA E INTERNA DE ESTRUCTURAS Y REVESTIMIENTOS DE EDIFICIOS Y MONUMENTOS, LIMPIEZA, IMPERMEABILIZACIÓN, TRATAMIENTO, PINTURA, RECONSTRUCCIÓN Y LA IMPLANTACIÓN, CUIDADO Y MANTENIMIENTO DE JARDINES Y EXPLOTACIONES FORESTALES. LA SUPERVISIÓN Y CONTROL DE OBRAS, ASÍ COMO LA COORDINACIÓN DE GREMIOS, EL ASESORAMIENTO Y LA ASISTENCIA TÉCNICA EN TODO CUENTO SE RELACIONE CON EL CAMPO DE LA CONSTRUCCIÓN DE EDIFICIOS Y DE LAS OBRAS PÚBLICAS Y CIVILES. 7.- LA COMPRA, VENTA, DE TODA CLASE DE MATERIALES DE LA CONSTRUCCIÓN Y/O DECORATIVOS, ASÍ COMO CUALESQUIERA INSTALACIONES, ELEMENTOS O SERVICIOS DE LAS EDIFICACIONES; LA IMPORTACIÓN, EXPORTACIÓN, REPRESENTACIÓN, DISTRIBUCIÓN, EXPLOTACIÓN Y COMERCIALIZACIÓN DE PRODUCTOS ELABORADOS Y SEMIELABORADOS, ARTÍCULOS, BIENES, MERCADERÍAS, EQUIPOS INDUSTRIALES, MAQUINARIA, HERRAMIENTAS, UTILLAJES, REPUESTOS Y ACCESORIOS, ALIMENTOS DE CONSUMO HUMANO Y ANIMAL. 8.- LA ADQUISICIÓN, CESIÓN, TENENCIA, DISFRUTE, ADMINISTRACIÓN, GESTIÓN Y NEGOCIACIÓN EN GENERAL DE VALORES MOBILIARIOS E INMUEBLES; TODO ELLO SIN INCIDIR EN LAS ACTIVIDADES U OPERACIONES REGULADAS POR LA LEGISLACIÓN DE INSTITUCIONES DE INVERSIÓN COLECTIVA Y LEY DE MERCADO DE VALORES. 9.- EL ASESORAMIENTO Y PRESTACIÓN DE SERVICIOS A INSTITUCIONES Y PERSONAS FÍSICAS Y JURÍDICAS EN MATERIA DE SELECCIÓN DE PERSONAL Y EN CUALQUIER OTRO TIPO DE MATERIA. 10.- LA PRESTACIÓN DE SERVICIOS PROFESIONALES Y EMPRESARIALES RELACIONADOS CON LA ESTÉTICA, LA BELLEZA Y LA MEDICINA, O CUALQUIER OTRO TIPO DE ACTIVIDADES QUE TENGAN RELACIÓN CON ESTAS MATERIAS. 11.- LA FORMACIÓN E INFORMACIÓN DE TODO TIPO DE PERSONAS MEDIANTE CURSOS, SEMINARIOS, JORNADAS, TANTO DE PRESENCIA COMO A DISTANCIA EN CUALQUIER MATERIA. 12.- LA COMPRA, TENENCIA, ENAJENACIÓN Y EXPLOTACIÓN INCLUSO EN EXCLUSIVA POR Y A FAVOR DE LA SOCIEDAD, DE TÍTULOS, VALORES, ACCIONES, BONOS, OBLIGACIONES, PATENTES, LICENCIAS, MARCAS, RÓTULOS, NOMBRES COMERCIALES Y TODA CLASE DE PERTENENCIAS DE PROPIEDAD INDUSTRIAL O INTELECTUAL, Y CUALESQUIERA OTRA CLASE DE BIENES MUEBLES; TODO ELLO SIN INCIDIR EN LAS ACTIVIDADES U OPERACIONES REGULADAS POR LA LEGISLACIÓN DE INSTITUCIONES DE INVERSIÓN COLECTIVA Y LEY DE MERCADO DE VALORES. ",
      "mainEntityOfPage": "https://www.contratacion.euskadi.eus/webkpe00-kperoc/es/ac71aBusquedaRegistrosWar/empresa/08576",
      "_links": {
        "self": {
          "name": "OBVIUM OMNIS, S.A.",
          "href": "https://api.euskadi.eus/procurements/companies/08576"
        }
      }
    },
    {
      "name": "SARTORIUS SPAIN, S.A.",
      "registrationNumber": "06651",
      "identificationNumber": "A84956499",
      "address": "C/ Jose Bardasano Baos, 9  3º C y D",
      "location": {
        "postalCode": "28016",
        "municipality": "Madrid",
        "county": "Madrid",
        "municipalityId": "079",
        "countyId": "28"
      },
      "economicActivities": [
        {
          "id": "1.619.7",
          "name": "Venta al por mayor de instrumentos de precisión, medida y similares",
          "_links": {
            "self": {
              "name": "Venta al por mayor de instrumentos de precisión, medida y similares",
              "href": "https://api.euskadi.eus/procurements/companies/economic-activities/1.619.7"
            }
          }
        }
      ],
      "certificateStartDate": "2025-09-03",
      "certificateEndDate": "2026-03-03",
      "object": "LA IMPORTACIÓN, EXPORTACIÓN, PROMOCIÓN, DISTRIBUCIÓN, COMERCIALIZACIÓN, VENTA, ARRENDAMIENTO, REPARACIÓN, MANTENIMIENTO Y CALIBRACIÓN DE APARATOS DE LABORATORIO Y EQUIPOS DE CONTROL DE CALIDAD O CUALQUIER OTRO USO INDUSTRIAL, ASÍ COMO SU MATERIAL ACCESORIO Y RECAMBIOS",
      "mainEntityOfPage": "https://www.contratacion.euskadi.eus/webkpe00-kperoc/es/ac71aBusquedaRegistrosWar/empresa/06651",
      "_links": {
        "self": {
          "name": "SARTORIUS SPAIN, S.A.",
          "href": "https://api.euskadi.eus/procurements/companies/06651"
        }
      }
    },
    {
      "name": "KULTUR KABIA ZERBITZUAK SL",
      "registrationNumber": "06343",
      "identificationNumber": "B95438115",
      "address": "Zearkale Kalea 36 - 8. solairua, 6. bulegoa",
      "location": {
        "postalCode": "48260",
        "municipality": "Ermua",
        "county": "Bizkaia",
        "municipalityId": "034",
        "countyId": "48"
      },
      "economicActivities": [
        {
          "id": "1.849.7",
          "name": "Servicios de gestión administrativa",
          "_links": {
            "self": {
              "name": "Servicios de gestión administrativa",
              "href": "https://api.euskadi.eus/procurements/companies/economic-activities/1.849.7"
            }
          }
        },
        {
          "id": "1.965.3",
          "name": "Espectáculos fuera de establecimiento permanente (excepto los taurinos)",
          "_links": {
            "self": {
              "name": "Espectáculos fuera de establecimiento permanente (excepto los taurinos)",
              "href": "https://api.euskadi.eus/procurements/companies/economic-activities/1.965.3"
            }
          }
        }
      ],
      "certificateStartDate": "2025-09-03",
      "certificateEndDate": "2026-03-03",
      "object": "EUSKARAZKO KULTURAREN HEDAPENA EGITEA ETA KULTUR ZERBITZUEN ANTOLAKETA ESKAINTZEA HONAKO EZAUGARRIEKIN: ADIN ETA IZAERA ANITZEKO PUBLIKOARI ZUZENDUTAKOAK . DISZIPLINA ASKOTARIKO ESKAINTZA (KULTUR EMANALDI, TAILER, JAIALDI, LEHIAKETA ETA ABAR). IZAERA ETA FORMATU GUZTIETAKO ESKAINTZA (FORMATU HANDIKOAK, TXIKIKOAK ETA ABAR). ERA GUZTIETAKO ERAKUNDEEI ESKAINTZA ETA\nEKITALDIEN ANTOLAKUNTZA.",
      "mainEntityOfPage": "https://www.contratacion.euskadi.eus/webkpe00-kperoc/es/ac71aBusquedaRegistrosWar/empresa/06343",
      "_links": {
        "self": {
          "name": "KULTUR KABIA ZERBITZUAK SL",
          "href": "https://api.euskadi.eus/procurements/companies/06343"
        }
      }
    },
    {
      "name": "LOGINTEGRAL EXPRESS, S.L.",
      "registrationNumber": "03231",
      "identificationNumber": "B95383352",
      "address": "POLIGONO MARTIARTU, CALLE 1, Nº 36",
      "location": {
        "postalCode": "48480",
        "municipality": "Arrigorriaga",
        "county": "Bizkaia",
        "municipalityId": "011",
        "countyId": "48"
      },
      "economicActivities": [
        {
          "id": "1.722",
          "name": "Transporte de mercancías por carretera",
          "_links": {
            "self": {
              "name": "Transporte de mercancías por carretera",
              "href": "https://api.euskadi.eus/procurements/companies/economic-activities/1.722"
            }
          }
        },
        {
          "id": "1.756",
          "name": "Intermediarios del transporte",
          "_links": {
            "self": {
              "name": "Intermediarios del transporte",
              "href": "https://api.euskadi.eus/procurements/companies/economic-activities/1.756"
            }
          }
        },
        {
          "id": "1.849.5",
          "name": "Servicios de recadería y reparto y manipulación de correspondencia",
          "_links": {
            "self": {
              "name": "Servicios de recadería y reparto y manipulación de correspondencia",
              "href": "https://api.euskadi.eus/procurements/companies/economic-activities/1.849.5"
            }
          }
        }
      ],
      "certificateStartDate": "2025-09-03",
      "certificateEndDate": "2026-03-03",
      "classification": [
        {
          "id": "S",
          "name": "Servicios",
          "groups": [
            {
              "id": "R",
              "subgroups": [
                {
                  "id": "09",
                  "name": "Servicios de mensajería, correspondencia y distribución",
                  "categories": [
                    {
                      "id": "5",
                      "name": "Mas de 1.200.000",
                      "_links": {
                        "self": {
                          "name": "Mas de 1.200.000",
                          "href": "https://api.euskadi.eus/procurements/companies/types/S/categories/5"
                        }
                      }
                    }
                  ],
                  "_links": {
                    "self": {
                      "name": "Servicios de mensajería, correspondencia y distribución",
                      "href": "https://api.euskadi.eus/procurements/companies/types/S/groups/R/subgroups/09"
                    }
                  }
                }
              ],
              "_links": {
                "self": {
                  "href": "https://api.euskadi.eus/procurements/companies/types/S/groups/R"
                }
              }
            }
          ],
          "_links": {
            "self": {
              "name": "Servicios",
              "href": "https://api.euskadi.eus/procurements/companies/types/S"
            }
          }
        }
      ],
      "object": "EL SERVICIO DE MENSAJERÍA, TRANSPORTE URGENTE EN ESPECIAL POR CARRETERA Y AUXILIARES DEL TRANSPORTE, DEPÓSITO, CLASIFICACIÓN, MANIPULACIÓN Y CONSOLIDACIÓN DE DOCUMENTOS Y MERCANCÍAS; TRASLADOS, ALMACENAJES Y OTROS TRATAMIENTOS PREVIOS AL EFECTO DE MERCANCÍAS EN GENERAL",
      "mainEntityOfPage": "https://www.contratacion.euskadi.eus/webkpe00-kperoc/es/ac71aBusquedaRegistrosWar/empresa/03231",
      "_links": {
        "self": {
          "name": "LOGINTEGRAL EXPRESS, S.L.",
          "href": "https://api.euskadi.eus/procurements/companies/03231"
        }
      }
    },
    {
      "name": "HONDAKIN, S.L.",
      "registrationNumber": "06110",
      "identificationNumber": "B20797403",
      "address": "ASKARRUNTZ, AUZOA, SN",
      "location": {
        "postalCode": "20570",
        "municipality": "Bergara",
        "county": "Gipuzkoa",
        "municipalityId": "074",
        "countyId": "20"
      },
      "economicActivities": [
        {
          "id": "1.622",
          "name": "Venta al por mayor de otros productos de recuperación",
          "_links": {
            "self": {
              "name": "Venta al por mayor de otros productos de recuperación",
              "href": "https://api.euskadi.eus/procurements/companies/economic-activities/1.622"
            }
          }
        },
        {
          "id": "1.921.9",
          "name": "Otros servicios de saneamiento y similares n.c.o.p",
          "_links": {
            "self": {
              "name": "Otros servicios de saneamiento y similares n.c.o.p",
              "href": "https://api.euskadi.eus/procurements/companies/economic-activities/1.921.9"
            }
          }
        }
      ],
      "certificateStartDate": "2025-09-03",
      "certificateEndDate": "2026-03-03",
      "object": "INTERMEDIARIOS DEL COMERCIO Y GESTIÓN DE RESIDUOS, EXCEPTUANDO LAS ACTIVIDADES SOMETIDAS A LEGISLACIÓN ESPECIAL. LAS OPERACIONES INDUSTRIALES Y COMERCIALES RELACIONADAS CON LA RECOGIDA, EL AGRUPAMIENTO, TRATAMIENTO Y LA VENTA DE TODO TIPO DE RESIDUOS. LA TOMA, ADQUISICIÓN, EXPLOTACIÓN, CESIÓN Y CONCESIÓN DE TODA PATENTE, LICENCIA, PROCEDIMIENTO Y MARCA RELACIONADA CON LA ACTIVIDAD DESCRITA. LOS SERVICIOS DE LOGÍSTICA Y RESIDUOS. LA PROMOCIÓN, INSTALACIÓN E INVESTIGACIÓN DE ENERGÍAS RENOVABLES Y COMBUSTIBLES ALTERNATIVOS. EL TRANSPORTE DE SERVICIO PÚBLICO DE MERCANCÍAS POR CARRETERA Y LA ACTIVIDAD DE AGENCIA DE TRANSPORTE DE MERDANCÍAS",
      "mainEntityOfPage": "https://www.contratacion.euskadi.eus/webkpe00-kperoc/es/ac71aBusquedaRegistrosWar/empresa/06110",
      "_links": {
        "self": {
          "name": "HONDAKIN, S.L.",
          "href": "https://api.euskadi.eus/procurements/companies/06110"
        }
      }
    },
    {
      "name": "C.L.C. MAQUINARIA Y SERVICIOS, S.L.",
      "registrationNumber": "08753",
      "identificationNumber": "B20578779",
      "address": "PASEO UBARBURU 9 POLÍGONO INDUSTRIAL 27",
      "location": {
        "postalCode": "20014",
        "municipality": "Donostia / San Sebastián",
        "county": "Gipuzkoa",
        "municipalityId": "069",
        "countyId": "20"
      },
      "economicActivities": [
        {
          "id": "1.653.3",
          "name": "Venta al por menor de artículos de menaje, ferretería, adorno, regalo",
          "_links": {
            "self": {
              "name": "Venta al por menor de artículos de menaje, ferretería, adorno, regalo",
              "href": "https://api.euskadi.eus/procurements/companies/economic-activities/1.653.3"
            }
          }
        }
      ],
      "certificateStartDate": "2025-09-03",
      "certificateEndDate": "2026-03-03",
      "object": "LA VENTA Y REPARACIÓN DE MAQUINARIA Y SUMINISTROS DIVERSOS.",
      "mainEntityOfPage": "https://www.contratacion.euskadi.eus/webkpe00-kperoc/es/ac71aBusquedaRegistrosWar/empresa/08753",
      "_links": {
        "self": {
          "name": "C.L.C. MAQUINARIA Y SERVICIOS, S.L.",
          "href": "https://api.euskadi.eus/procurements/companies/08753"
        }
      }
    },
    {
      "name": "SIFRA FERRETERIA, S.L.",
      "registrationNumber": "07881",
      "identificationNumber": "B75233858",
      "address": "Avda. Letxumborro, 108",
      "location": {
        "postalCode": "20305",
        "municipality": "Irun",
        "county": "Gipuzkoa",
        "municipalityId": "045",
        "countyId": "20"
      },
      "economicActivities": [
        {
          "id": "1.615.3",
          "name": "Venta al por mayor de aparatos electrodomésticos y ferretería",
          "_links": {
            "self": {
              "name": "Venta al por mayor de aparatos electrodomésticos y ferretería",
              "href": "https://api.euskadi.eus/procurements/companies/economic-activities/1.615.3"
            }
          }
        }
      ],
      "certificateStartDate": "2025-09-03",
      "certificateEndDate": "2026-02-01",
      "object": "LA COMPRAVENTA DE SUMINISTROS DE FERRETERÍA PARA LA INDUSTRIA Y EL COMERCIO Y CUANTAS ACTIVIDADES ESTÉN DIRECTAMENTE CON ELLO RELACIONADAS. LA PRINCIPAL ACTIVIDAD DE LA SOCIEDAD CORRESPONDE CON EL CNAE 4674",
      "mainEntityOfPage": "https://www.contratacion.euskadi.eus/webkpe00-kperoc/es/ac71aBusquedaRegistrosWar/empresa/07881",
      "_links": {
        "self": {
          "name": "SIFRA FERRETERIA, S.L.",
          "href": "https://api.euskadi.eus/procurements/companies/07881"
        }
      }
    }
  ]
}