{
  "totalItems": 9042,
  "totalPages": 905,
  "currentPage": 761,
  "itemsOfPage": 10,
  "items": [
    {
      "name": "PROMOCIONES Y URBANISMO GEA, S.L.",
      "registrationNumber": "03587",
      "identificationNumber": "B31919715",
      "address": "ERROTA, 8 BAJO",
      "location": {
        "postalCode": "20150",
        "municipality": "Villabona",
        "county": "Gipuzkoa",
        "municipalityId": "075",
        "countyId": "20"
      },
      "economicActivities": [
        {
          "id": "1.501.1",
          "name": "Construcción completa, reparación y conservación de edificaciones",
          "_links": {
            "self": {
              "name": "Construcción completa, reparación y conservación de edificaciones",
              "href": "https://api.euskadi.eus/procurements/companies/economic-activities/1.501.1"
            }
          }
        }
      ],
      "certificateStartDate": "2008-06-25",
      "certificateEndDate": "2008-11-19",
      "object": "A) LA PROMOCIÓN Y CONSTRUCCIÓN DE TODA CLASE DE EDIFICIOS, INDUSTRIALES, COMERCIALES, VIVIENDAS, URBANIZACIONES, CARRETERAS, CAMINOS EXCAVACIONES, MOVIMIENTO Y TRANSPORTE DE TIERRAS, INCLUYENDO PARA ELLO CONTRATACIÓN, SUBCONTRATACION Y DESTAJO DE OBRAS PÚBLICAS. B) LA COMPRAVENTA DE INMUEBLES. C) LA VENTA DE EDIFICACIONES, EN SU TOTALIDAD, POR PARTES O POR PISOS, BIEN PARA VIVIENDAS O PARA LOCALES DE NEGOCIO, CONSTRUIDAS PARA TAL FIN DIRECTAMENTE O POR MEDIO DE CONTRATISTAS, SUBCONTRATISTAS O DESTAJISTAS, Y SUS ALQUILERES. D) Y LA PARTICIPACIÓN EN OTRAS SOCIEDADES DE ANÁLOGOS FINES",
      "mainEntityOfPage": "https://www.contratacion.euskadi.eus/webkpe00-kperoc/es/ac71aBusquedaRegistrosWar/empresa/03587",
      "_links": {
        "self": {
          "name": "PROMOCIONES Y URBANISMO GEA, S.L.",
          "href": "https://api.euskadi.eus/procurements/companies/03587"
        }
      }
    },
    {
      "name": "ACOMETIDAS Y TENDIDOS, S.A.",
      "registrationNumber": "03398",
      "identificationNumber": "A01300540",
      "address": "AVDA SAN BLAS, 6, PAB 5",
      "location": {
        "postalCode": "01170",
        "municipality": "Legutio",
        "county": "Araba/Álava",
        "municipalityId": "058",
        "countyId": "01"
      },
      "economicActivities": [
        {
          "id": "1.504.1",
          "name": "Instalaciones eléctricas en general",
          "_links": {
            "self": {
              "name": "Instalaciones eléctricas en general",
              "href": "https://api.euskadi.eus/procurements/companies/economic-activities/1.504.1"
            }
          }
        },
        {
          "id": "1.504.7",
          "name": "Instalaciones telefónicas, telegráficas, televisión, etc",
          "_links": {
            "self": {
              "name": "Instalaciones telefónicas, telegráficas, televisión, etc",
              "href": "https://api.euskadi.eus/procurements/companies/economic-activities/1.504.7"
            }
          }
        }
      ],
      "certificateStartDate": "2008-06-24",
      "certificateEndDate": "2008-10-31",
      "object": "LA PREPARACIÓN Y REALIZACIÓN DE LOS TRABAJOS NECESARIOS PARA EL DESARROLLO E INSTALACIÓN DE CANALIZACIONES DE OBRA CIVIL, E INSTALACIONES DE REDES DE CUALQUIER NATURALEZA",
      "mainEntityOfPage": "https://www.contratacion.euskadi.eus/webkpe00-kperoc/es/ac71aBusquedaRegistrosWar/empresa/03398",
      "_links": {
        "self": {
          "name": "ACOMETIDAS Y TENDIDOS, S.A.",
          "href": "https://api.euskadi.eus/procurements/companies/03398"
        }
      }
    },
    {
      "name": "AGROCARTO, S.A.",
      "registrationNumber": "00893",
      "identificationNumber": "A01055714",
      "address": "C/ ARKATXA, 1 PAB. 3",
      "location": {
        "postalCode": "01006",
        "municipality": "Vitoria-Gasteiz",
        "county": "Araba/Álava",
        "municipalityId": "059",
        "countyId": "01"
      },
      "economicActivities": [
        {
          "id": "1.843.1",
          "name": "Servicios técnicos de ingeniería",
          "_links": {
            "self": {
              "name": "Servicios técnicos de ingeniería",
              "href": "https://api.euskadi.eus/procurements/companies/economic-activities/1.843.1"
            }
          }
        }
      ],
      "certificateStartDate": "2008-06-20",
      "certificateEndDate": "2008-11-08",
      "object": "TODO TIPO DE ACTIVIDADES RELACIONADAS DIRECTA O INDIRECTAMENTE CON LA TOPOGRAFÍA, CATASTRO, FOTOGRAMETRÍA Y CARTOGRAFÍA",
      "mainEntityOfPage": "https://www.contratacion.euskadi.eus/webkpe00-kperoc/es/ac71aBusquedaRegistrosWar/empresa/00893",
      "_links": {
        "self": {
          "name": "AGROCARTO, S.A.",
          "href": "https://api.euskadi.eus/procurements/companies/00893"
        }
      }
    },
    {
      "name": "LEKBER, S.L.",
      "registrationNumber": "03131",
      "identificationNumber": "B20149159",
      "address": "C/ BARAKALDO, 17-bajo",
      "location": {
        "postalCode": "20600",
        "municipality": "Eibar",
        "county": "Gipuzkoa",
        "municipalityId": "030",
        "countyId": "20"
      },
      "economicActivities": [
        {
          "id": "1.501.1",
          "name": "Construcción completa, reparación y conservación de edificaciones",
          "_links": {
            "self": {
              "name": "Construcción completa, reparación y conservación de edificaciones",
              "href": "https://api.euskadi.eus/procurements/companies/economic-activities/1.501.1"
            }
          }
        },
        {
          "id": "1.504.2",
          "name": "Instalaciones de fontanería",
          "_links": {
            "self": {
              "name": "Instalaciones de fontanería",
              "href": "https://api.euskadi.eus/procurements/companies/economic-activities/1.504.2"
            }
          }
        }
      ],
      "certificateStartDate": "2008-06-19",
      "certificateEndDate": "2008-11-28",
      "object": "CONSTRUCCIÓN, OBRAS, EDIFICACIONES, PROYECTOS, DIRECCIONES DE OBRA Y OTRAS ACTIVIDADES RELACIONADAS CON LA CONSTRUCCIÓN, ASÍ COMO CUALQUIER OTRA ACTIVIDAD DE INDUSTRIA O NEGOCIO QUE ACUERDE LA JUNTA GENERAL CONVOCADA AL EFECTO",
      "mainEntityOfPage": "https://www.contratacion.euskadi.eus/webkpe00-kperoc/es/ac71aBusquedaRegistrosWar/empresa/03131",
      "_links": {
        "self": {
          "name": "LEKBER, S.L.",
          "href": "https://api.euskadi.eus/procurements/companies/03131"
        }
      }
    },
    {
      "name": "FUNDACIÓN LEIA CENTRO DE DESARROLLO TECNOLÓGICO",
      "registrationNumber": "01872",
      "identificationNumber": "G01179837",
      "address": "C/ LEONARDO DA VINCI, Nº 11 - BAJO, PARQUE TECNOL. DE ÁLAVA",
      "location": {
        "postalCode": "01510",
        "municipality": "Vitoria-Gasteiz",
        "county": "Araba/Álava",
        "municipalityId": "059",
        "countyId": "01"
      },
      "economicActivities": [
        {
          "id": "1.151.4",
          "name": "Producción de energía no especificada en otros epígrafes",
          "_links": {
            "self": {
              "name": "Producción de energía no especificada en otros epígrafes",
              "href": "https://api.euskadi.eus/procurements/companies/economic-activities/1.151.4"
            }
          }
        },
        {
          "id": "1.843.9",
          "name": "Otros servicios técnicos n.c.o.p",
          "_links": {
            "self": {
              "name": "Otros servicios técnicos n.c.o.p",
              "href": "https://api.euskadi.eus/procurements/companies/economic-activities/1.843.9"
            }
          }
        },
        {
          "id": "1.932.2",
          "name": "Enseñanza de formación y perfeccionamiento profesional superior",
          "_links": {
            "self": {
              "name": "Enseñanza de formación y perfeccionamiento profesional superior",
              "href": "https://api.euskadi.eus/procurements/companies/economic-activities/1.932.2"
            }
          }
        },
        {
          "id": "1.936",
          "name": "Investigación científica y técnica",
          "_links": {
            "self": {
              "name": "Investigación científica y técnica",
              "href": "https://api.euskadi.eus/procurements/companies/economic-activities/1.936"
            }
          }
        }
      ],
      "certificateStartDate": "2008-06-18",
      "certificateEndDate": "2008-11-29",
      "object": "PROMOCIONAR, FOMENTAR, DESARROLLAR Y AYUDAR NUEVAS INICIATIVAS EMPRESARIALES EN CUALQUIER RAMA DE ACTIVIDAD Y PREFERENTEMENTE EN AQUELLAS QUE DETERMINEN INVESTIGACIÓN Y DESARROLLO TECNOLÓGICO E INNOVACIÓN TECNOLÓGICA, REALIZANDO EN PARTICULAR LAS SIGUIENTES ACTIVIDADES: a) INVESTIGACIÓN Y DESARROLLO TECNOLÓGICO. b) DIFUSIÓN DE LA INNOVACIÓN Y TRANSFERENCIA DE TECNOLOGÍA. c) LA CREACIÓN, DESARROLLO Y GESTIÓN DE UNO O VARIOS LABORATORIOS DE ENSAYOS INDUSTRIALES, ANÁLISIS O CENTROS TECNOLÓGICOS. d) LA REALIZACIÓN DE TODO TIPO DE ACTIVIDADES DE INNOVACIÓN EN LA GESTIÓN EMPRESARIAL Y ASISTENCIA TÉCNICA. e) EL FOMENTO Y LA REALIZACIÓN DE ACTIVIDADES DE FORMACIÓN E INFORMACIÓN TÉCNICA. f) Y, EN GENERAL, LA REALIZACIÓN DE TODAS CUANTAS ACIVIDADES LE SEAN ENCOMENDADAS POR SUS ÓRGANOS DE DIRECCIÓN DENTRO DEL OBJETO Y FINALIDAD GENERAL DE LA FUNDACIÓN",
      "mainEntityOfPage": "https://www.contratacion.euskadi.eus/webkpe00-kperoc/es/ac71aBusquedaRegistrosWar/empresa/01872",
      "_links": {
        "self": {
          "name": "FUNDACIÓN LEIA CENTRO DE DESARROLLO TECNOLÓGICO",
          "href": "https://api.euskadi.eus/procurements/companies/01872"
        }
      }
    },
    {
      "name": "GÓMEZ-BILBAO AUDITORES CJC, S.L.",
      "registrationNumber": "01629",
      "identificationNumber": "B48114730",
      "address": "C/ DIPUTACIÓN, Nº 1 - 1º.",
      "location": {
        "postalCode": "48009",
        "municipality": "Bilbao",
        "county": "Bizkaia",
        "municipalityId": "020",
        "countyId": "48"
      },
      "economicActivities": [
        {
          "id": "1.842",
          "name": "Servicios financieros y contables",
          "_links": {
            "self": {
              "name": "Servicios financieros y contables",
              "href": "https://api.euskadi.eus/procurements/companies/economic-activities/1.842"
            }
          }
        }
      ],
      "certificateStartDate": "2008-06-17",
      "certificateEndDate": "2008-10-21",
      "object": "\r\n\r\na) LA PRESTACIÓN DE SERVICIOS PROFESIONALES COMPRENDIDOS EN EL ÁMBITO DE LA AUDITORÍA DE CUENTAS, EN LOS TÉRMINOS ESTABLECIDOS EN LA LEY DE AUDITORÍA DE CUENTAS.\r\n\r\nb) LA REALIZACIÓN DE AQUELLOS TRABAJOS QUE, NO TENIENDO LA CONSIDERACIÓN DE AUDITORÍA DE CUENTAS, ESTÉN ATRIBUIDOS POR DISPOSICIONES LEGALES O REGLAMENTARIAS A AUDITORES INSCRITOS EN EL REGISTRO OFICIAL DE AUDITORES DE CUENTAS.\r\n\r\nc) LA REALIZACIÓN DE TODAS AQUELLAS FUNCIONES ATRIBUIDAS Y RECONOCIDAS POR LAS LEYES A LOS MIEMBROS DEL INSTITUTO DE AUDITORES CENSORES JURADOS DE CUENTAS DE ESPAÑA Y POR LOS ESTATUTOS, REGLAMENTO Y DEMÁS DISPOSICIONES DE DICHA CORPORACIÓN PROFESIONAL",
      "mainEntityOfPage": "https://www.contratacion.euskadi.eus/webkpe00-kperoc/es/ac71aBusquedaRegistrosWar/empresa/01629",
      "_links": {
        "self": {
          "name": "GÓMEZ-BILBAO AUDITORES CJC, S.L.",
          "href": "https://api.euskadi.eus/procurements/companies/01629"
        }
      }
    },
    {
      "name": "SUMINISTROS QUÍMICOS GOR, S.L.",
      "registrationNumber": "00476",
      "identificationNumber": "B20042065",
      "address": "AMATEGI ALDEA AUSOA, 103. POL.IND. ALTZO /TXARAMA, PAB. 7",
      "location": {
        "postalCode": "20268",
        "municipality": "Altzo",
        "county": "Gipuzkoa",
        "municipalityId": "007",
        "countyId": "20"
      },
      "economicActivities": [
        {
          "id": "1.619.7",
          "name": "Venta al por mayor de instrumentos de precisión, medida y similares",
          "_links": {
            "self": {
              "name": "Venta al por mayor de instrumentos de precisión, medida y similares",
              "href": "https://api.euskadi.eus/procurements/companies/economic-activities/1.619.7"
            }
          }
        }
      ],
      "certificateStartDate": "2008-06-16",
      "certificateEndDate": "2008-10-03",
      "object": "EL MATERIAL CIENTÍFICO, PRODUCTOS QUÍMICOS REACTIVOS DE ANÁLISIS, VIDRIO, PORCELANA",
      "mainEntityOfPage": "https://www.contratacion.euskadi.eus/webkpe00-kperoc/es/ac71aBusquedaRegistrosWar/empresa/00476",
      "_links": {
        "self": {
          "name": "SUMINISTROS QUÍMICOS GOR, S.L.",
          "href": "https://api.euskadi.eus/procurements/companies/00476"
        }
      }
    },
    {
      "name": "EUROPRENDAS, S.L.",
      "registrationNumber": "00971",
      "identificationNumber": "B01016997",
      "address": "C/ LAKUA, Nº 1 - BAJO.",
      "location": {
        "postalCode": "01012",
        "municipality": "Vitoria-Gasteiz",
        "county": "Araba/Álava",
        "municipalityId": "059",
        "countyId": "01"
      },
      "economicActivities": [
        {
          "id": "1.651.5",
          "name": "Venta al por menor de prendas especiales",
          "_links": {
            "self": {
              "name": "Venta al por menor de prendas especiales",
              "href": "https://api.euskadi.eus/procurements/companies/economic-activities/1.651.5"
            }
          }
        }
      ],
      "certificateStartDate": "2008-06-06",
      "certificateEndDate": "2008-10-24",
      "object": "LA EXPLOTACIÓN DE UN NEGOCIO DEDICADO A LA COMERCIALIZACIÓN Y VENTA DE MATERIAL DE SEGURIDAD PARA EL TRABAJO, PRENDAS PARA EL TRABAJO, REPARACIÓN Y LIMPIEZA DE LAS MISMAS Y, EN GENERAL, CUALQUIER OTRA ACTIVIDAD LÍCITA AFÍN O QUE SE RELACIONE CON LAS EXPRESADAS",
      "mainEntityOfPage": "https://www.contratacion.euskadi.eus/webkpe00-kperoc/es/ac71aBusquedaRegistrosWar/empresa/00971",
      "_links": {
        "self": {
          "name": "EUROPRENDAS, S.L.",
          "href": "https://api.euskadi.eus/procurements/companies/00971"
        }
      }
    },
    {
      "name": "IBERDROLA, S.A.",
      "registrationNumber": "00676",
      "identificationNumber": "A48010615",
      "address": "C/ GARDOQUI, Nº 8.",
      "location": {
        "postalCode": "48008",
        "municipality": "Bilbao",
        "county": "Bizkaia",
        "municipalityId": "020",
        "countyId": "48"
      },
      "economicActivities": [
        {
          "id": "1.507",
          "name": "Construcción, reparación y conservación de toda clase obras",
          "_links": {
            "self": {
              "name": "Construcción, reparación y conservación de toda clase obras",
              "href": "https://api.euskadi.eus/procurements/companies/economic-activities/1.507"
            }
          }
        },
        {
          "id": "1.631",
          "name": "Intermediarios del comercio",
          "_links": {
            "self": {
              "name": "Intermediarios del comercio",
              "href": "https://api.euskadi.eus/procurements/companies/economic-activities/1.631"
            }
          }
        },
        {
          "id": "1.861.1",
          "name": "Alquiler de viviendas",
          "_links": {
            "self": {
              "name": "Alquiler de viviendas",
              "href": "https://api.euskadi.eus/procurements/companies/economic-activities/1.861.1"
            }
          }
        },
        {
          "id": "1.861.2",
          "name": "Alquiler de locales industriales y otros alquileres n.c.o.p",
          "_links": {
            "self": {
              "name": "Alquiler de locales industriales y otros alquileres n.c.o.p",
              "href": "https://api.euskadi.eus/procurements/companies/economic-activities/1.861.2"
            }
          }
        }
      ],
      "certificateStartDate": "2008-06-03",
      "certificateEndDate": "2008-10-02",
      "object": "1.- LA REALIZACIÓN DE TODA CLASE DE ACTIVIDADES, OBRAS Y SERVICIOS PROPIOS O RELACIONADOS CON LOS NEGOCIOS DE PRODUCCIÓN, TRANSPORTE, TRANSFORMACIÓN Y DISTRIBUCIÓN O COMERCIALIZACIÓN DE ENERGÍA ELÉCTRICA O DERIVADOS DE LA ELECTRICIDAD, DE SUS APLICACIONES Y DE LAS MATERIAS O ENERGÍAS PRIMARIAS NECESARIAS PARA SU GENERACIÓN, SERVICIOS ENERGÉTICOS, DE INGENIERÍA E INFORMÁTICOS, TELECOMUNICACIONES Y SERVICIOS RELACIONADOS CON INTERNET, TRATAMIENTO Y DISTRIBUCIÓN DE AGUAS, PRESTACIÓN INTEGRAL DE SERVICIOS URBANOS Y COMERCIALIZACIÓN DE GAS, ASÍ COMO OTRAS ACTIVIDADES GASISTAS DE ALMACENAMIENTO, REGASIFICACIÓN, TRANSPORTE O DISTRIBUCIÓN QUE SE REALIZARÁN DE FORMA INDIRECTA MEDIANTE LA TITULARIDAD DE ACCIONES O PARTICIPACIONES EN OTRAS SOCIEDADES QUE NO DESARROLLARÁN LA ACTIVIDAD DE COMERCIALIZACIÓN DE GAS; 2. LA DISTRIBUCIÓN, REPRESENTACIÓN Y COMERCIALIZACIÓN DE TODA CLASE DE BIENES Y SERVICIOS, PRODUCTOS, ARTÍCULOS, MERCADERÍAS, PROGRAMAS INFORMÁTICOS, EQUIPOS INDUSTRIALES Y MAQUINARIA, HERRAMIENTAS, UTILLAJE, REPUESTOS Y ACCESORIOS; 3. LA INVESTIGACIÓN, ESTUDIO Y PLANEAMIENTO DE PROYECTOS DE INVERSIÓN Y DE ORGANIZACIÓN DE EMPRESAS, ASÍ COMO LA PROMOCIÓN, CREACIÓN Y DESARROLLO DE EMPRESAS INDUSTRIALES, COMERCIALES O DE SERVICIOS. 4. LA PRESTACIÓN DE SERVICIOS DE ASISTENCIA O APOYO A LAS SOCIDADES Y EMPRESAS PARTICIPADAS O COMPRENDIDAS EN EL ÁMBITO DE SU GRUPO DE SOCIEDADES, A CUYO FIN PODRÁ PRESTAR, A FAVOR DE LAS MISMAS, LAS GARANTÍAS Y AFIANZAMIENTOS QUE RESULTEN OPORTUNOS",
      "mainEntityOfPage": "https://www.contratacion.euskadi.eus/webkpe00-kperoc/es/ac71aBusquedaRegistrosWar/empresa/00676",
      "_links": {
        "self": {
          "name": "IBERDROLA, S.A.",
          "href": "https://api.euskadi.eus/procurements/companies/00676"
        }
      }
    },
    {
      "name": "ARTEPEG, S.A.",
      "registrationNumber": "01008",
      "identificationNumber": "A01057983",
      "address": "C/ VENTA DE LA ESTRELLA, Nº 2 - PAB. 20",
      "location": {
        "postalCode": "01006",
        "municipality": "Vitoria-Gasteiz",
        "county": "Araba/Álava",
        "municipalityId": "059",
        "countyId": "01"
      },
      "economicActivities": [
        {
          "id": "1.475",
          "name": "Actividades anexas a las artes gráficas",
          "_links": {
            "self": {
              "name": "Actividades anexas a las artes gráficas",
              "href": "https://api.euskadi.eus/procurements/companies/economic-activities/1.475"
            }
          }
        }
      ],
      "certificateStartDate": "2008-06-03",
      "certificateEndDate": "2008-10-08",
      "object": "LA REALIZACIÓN DE TRABAJOS DE ENCUADERNACIÓN, EN CUALQUIERA DE SUS FORMAS",
      "mainEntityOfPage": "https://www.contratacion.euskadi.eus/webkpe00-kperoc/es/ac71aBusquedaRegistrosWar/empresa/01008",
      "_links": {
        "self": {
          "name": "ARTEPEG, S.A.",
          "href": "https://api.euskadi.eus/procurements/companies/01008"
        }
      }
    }
  ]
}