{
  "totalItems": 9042,
  "totalPages": 905,
  "currentPage": 139,
  "itemsOfPage": 10,
  "items": [
    {
      "name": "RUBIX IBERIA, S.A.",
      "registrationNumber": "08045",
      "identificationNumber": "A48644264",
      "address": "POLIGONO INDUSTRIAL ERLETXE PLATAFORMA D-152 PABELLON 1",
      "location": {
        "postalCode": "48960",
        "municipality": "Galdakao",
        "county": "Bizkaia",
        "municipalityId": "036",
        "countyId": "48"
      },
      "economicActivities": [
        {
          "id": "1.613.3",
          "name": "Venta al por mayor de prendas exteriores de vestir",
          "_links": {
            "self": {
              "name": "Venta al por mayor de prendas exteriores de vestir",
              "href": "https://api.euskadi.eus/procurements/companies/economic-activities/1.613.3"
            }
          }
        },
        {
          "id": "1.615.3",
          "name": "Venta al por mayor de aparatos electrodomésticos y ferretería",
          "_links": {
            "self": {
              "name": "Venta al por mayor de aparatos electrodomésticos y ferretería",
              "href": "https://api.euskadi.eus/procurements/companies/economic-activities/1.615.3"
            }
          }
        },
        {
          "id": "1.617.5",
          "name": "Venta al por mayor de maquinaria para la madera y el metal",
          "_links": {
            "self": {
              "name": "Venta al por mayor de maquinaria para la madera y el metal",
              "href": "https://api.euskadi.eus/procurements/companies/economic-activities/1.617.5"
            }
          }
        },
        {
          "id": "1.617.9",
          "name": "Venta al por mayor interindustrial de otros productos n.c.o.p",
          "_links": {
            "self": {
              "name": "Venta al por mayor interindustrial de otros productos n.c.o.p",
              "href": "https://api.euskadi.eus/procurements/companies/economic-activities/1.617.9"
            }
          }
        },
        {
          "id": "1.652.2",
          "name": "Venta al por menor de productos de droguería y productos para decoración",
          "_links": {
            "self": {
              "name": "Venta al por menor de productos de droguería y productos para decoración",
              "href": "https://api.euskadi.eus/procurements/companies/economic-activities/1.652.2"
            }
          }
        }
      ],
      "certificateStartDate": "2025-11-26",
      "certificateEndDate": "2026-05-23",
      "object": "LA COMPRAVENTA AL POR MENOR Y MAYOR Y LA DISTRIBUCION DE TODO TIPO DE PRODUCTOS Y EQUIPOS INDUSTRIALES INCLUIDOS, ENTRE OTROS, LOS SIGUIENTES: ELEMENTOS DE TRASMISION DE POTENCIA, RODAMIENTOS, POLEAS, SOLDADURA, COMPONENTES DE SELLADO, EQUIPOS NEUMÁTICOS Y DE LUBRICACIÓN, OBJETO MATERIAL O PRODUCTO DESTINADO A LA PROTECCION LABORAL, EQUIPOS DE PROTECCION INDIVIDUAL (EPI), REPUESTOS Y COMPLEMENTOS PARA LA INDUSTRIA, HERRAMIENTAS DE MANO DE TODAS CLASES, Y PIEZAS Y ELEMENTOS DE FERRETERIA. LA PRESTACION DE SERVICIOS COMPLEMENTARIOS TALES COMO LA DISTRIBUCIÓN Y RESPOSICIÓN DEL OBJETO DE SU COMERCIO EN MÁQUINAS EXPENDEDORAS DE TALES PRODUCTOS, PROPIAS O AJENAS, ASÍ COMO SU PUESTA EN MARCHA Y MANTENIMIENTO. ASIMISMO, LA INGENIERÍA RELATIVA A INSTALACIONES DE TRANSMISIÓN Y AUTOMATIZACIÓN, ENERGÍA DE FLUIDOS, MECANIZADO Y ENSAMBLAJE.",
      "mainEntityOfPage": "https://www.contratacion.euskadi.eus/webkpe00-kperoc/es/ac71aBusquedaRegistrosWar/empresa/08045",
      "_links": {
        "self": {
          "name": "RUBIX IBERIA, S.A.",
          "href": "https://api.euskadi.eus/procurements/companies/08045"
        }
      }
    },
    {
      "name": "KEIKIGUNE OCIO, S.L.",
      "registrationNumber": "08611",
      "identificationNumber": "B01525062",
      "address": "Jesus Guridi 1 2º Planta (Plaza de Abastos)",
      "location": {
        "postalCode": "01004",
        "municipality": "Vitoria-Gasteiz",
        "county": "Araba/Álava",
        "municipalityId": "059",
        "countyId": "01"
      },
      "economicActivities": [
        {
          "id": "1.966.9",
          "name": "Otros servicios culturales n.c.o.p",
          "_links": {
            "self": {
              "name": "Otros servicios culturales n.c.o.p",
              "href": "https://api.euskadi.eus/procurements/companies/economic-activities/1.966.9"
            }
          }
        }
      ],
      "certificateStartDate": "2025-11-26",
      "certificateEndDate": "2026-05-24",
      "object": "A) ELABORACIÓN, CREACIÓN Y DISEÑO DE TALLERES Y PROGRAMAS CULTURALES, EDUCATIVOS, DEPORTIVOS Y COMUNICATIVOS. LA SOCIEDAD PODRÁ PARTICIPAR EN OTRAS SOCIEDADES A TRAVÉS DE LAS CUALES PODRÁ DESARROLLAR EL ANTERIOR OBJETO SOCIAL; B) PLANIFICACIÓN, ORGANIZACIÓN DE ACCIONES CULTURALES, LÚDICAS SOCIALES, DEPORTIVAS, EDUCATIVAS Y COMUNICATIVAS ENTRE LAS QUE CABE DESTACAR, GESTIÓN DE EQUIPAMIENTOS Y SERVICIOS, CAMPAÑAS DE COMUNICACIÓN Y ORGANIZACIÓN TÉCNICA DE ACTOS, REPRESENTACIÓN DE TERCEROS PARA DICHAS ACCIONES; C) EL MONTAJE, INSTALACIÓN, VENTA Y ALQUILER DE PABELLONES INDUSTRIALES Y DEPORTIVOS, MÓVILES PARA EL DESARROLLO DE ACTIVIDADES LÚDICAS, ESPECTÁCULOS, FERIAS, PRODUCCIÓN Y FABRICACIÓN SUSCEPTIBLES DE REALIZARSE EN ESTOS RECINTOS. LA REALIZACIÓN DEL MONTAJE PODRÁ REALIZARSE PARA TERCEROS EN PABELLONES DE SU ACTIVIDAD O ALQUILADOS; D) LA ADQUISICIÓN, TENENCIA, DISFRUTE, ADMINISTRACIÓN Y ENAJENACIÓN DE TODA CLASE DE VALORES MOBILIARIOS, CON EXCEPCIÓN DE LA INTERMEDIACIÓN, DEJANDO SIEMPRE FUERA LAS ACTIVIDADES OBJETO DE LA LEGISLACIÓN DE INSTITUCIONES DE INVERSIÓN COLECTIVA Y DE MERCADO DE VALORES; E) LA ADQUISICIÓN, URBANIZACIÓN PARCELACIÓN, CONSTRUCCIÓN Y EDIFICACIÓN, CONSTITUCIÓN EN PROPIEDAD HORIZONTAL, REFORMA, REHABILITACIÓN, AMPLIACIÓN, REPARACIÓN, EXPLOTACIÓN DIRECTA E INDIRECTA DE BIENES INMUEBLES RÚSTICOS Y URBANOS Y LA REALIZACIÓN DE OBRAS PÚBLICAS Y PRIVADAS. F) COMERCIO AL POR MENOR DE MATERIAL LÚDICO.",
      "mainEntityOfPage": "https://www.contratacion.euskadi.eus/webkpe00-kperoc/es/ac71aBusquedaRegistrosWar/empresa/08611",
      "_links": {
        "self": {
          "name": "KEIKIGUNE OCIO, S.L.",
          "href": "https://api.euskadi.eus/procurements/companies/08611"
        }
      }
    },
    {
      "name": "ABS-FLUGE EUSKADI, S.L.",
      "registrationNumber": "06550",
      "identificationNumber": "B75153213",
      "address": "Zikunaga 57E Nave 1 Pab 3 Polígono Ibarluze",
      "location": {
        "postalCode": "20120",
        "municipality": "Hernani",
        "county": "Gipuzkoa",
        "municipalityId": "040",
        "countyId": "20"
      },
      "economicActivities": [
        {
          "id": "1.965.4",
          "name": "Empresas de espectáculos",
          "_links": {
            "self": {
              "name": "Empresas de espectáculos",
              "href": "https://api.euskadi.eus/procurements/companies/economic-activities/1.965.4"
            }
          }
        }
      ],
      "certificateStartDate": "2025-11-26",
      "certificateEndDate": "2026-05-23",
      "object": "EL ALQUILER, MONTAJE, INSTALACIÓN Y VENTA DE MATERIAL DE ILUMINACIÓN, SONIDO Y MATERIAL AUDIOVISUAL EN GENERAL, EL ASESORAMIENTO A TERCEROS EN TODO TIPO DE ESPECTÁCULOS PÚBLICOS Y PRIVADOS, CUALQUIERA QUE SEA SU MEDIO DE EXPRESIÓN, TALES COMO: CONCIERTOS EN DIRECTO, GRABACIONES, FESTIVALES, TEATROS, REPRESENTACIONES Y PROGRAMAS DE TELEVISIÓN, ASÍ COMO MANTENIMIENTO, CONSERVACIÓN Y RESTAURACIÓN DE MATERIALES CINEMATOGRÁFICOS Y AUDIOVISUALES, E IGUALMENTE REALIZACIÓN DE MATERIAL AUDIOVISUAL",
      "mainEntityOfPage": "https://www.contratacion.euskadi.eus/webkpe00-kperoc/es/ac71aBusquedaRegistrosWar/empresa/06550",
      "_links": {
        "self": {
          "name": "ABS-FLUGE EUSKADI, S.L.",
          "href": "https://api.euskadi.eus/procurements/companies/06550"
        }
      }
    },
    {
      "name": "INGURUMENAREN KIDEAK INGENIERIA, S.L.",
      "registrationNumber": "06348",
      "identificationNumber": "B95350674",
      "address": "AVD. CERVANTES, 51 .Edificio 10. Planta 4ª. Dpto. 7",
      "location": {
        "postalCode": "48970",
        "municipality": "Basauri",
        "county": "Bizkaia",
        "municipalityId": "015",
        "countyId": "48"
      },
      "economicActivities": [
        {
          "id": "1.843.1",
          "name": "Servicios técnicos de ingeniería",
          "_links": {
            "self": {
              "name": "Servicios técnicos de ingeniería",
              "href": "https://api.euskadi.eus/procurements/companies/economic-activities/1.843.1"
            }
          }
        },
        {
          "id": "1.845",
          "name": "Explotación electrónica por cuenta de terceros",
          "_links": {
            "self": {
              "name": "Explotación electrónica por cuenta de terceros",
              "href": "https://api.euskadi.eus/procurements/companies/economic-activities/1.845"
            }
          }
        },
        {
          "id": "1.934",
          "name": "Enseñanza fuera de establecimiento permanente",
          "_links": {
            "self": {
              "name": "Enseñanza fuera de establecimiento permanente",
              "href": "https://api.euskadi.eus/procurements/companies/economic-activities/1.934"
            }
          }
        }
      ],
      "certificateStartDate": "2025-11-26",
      "certificateEndDate": "2026-05-22",
      "object": "A) LA REALIZACIÓN DE TRABAJOS DE INGENIERÍA Y CONSULTORÍA. B) ADQUISICIÓN, TENENCIA Y DISFRUTE, ADMINISTRACIÓN, EXPLOTACIÓN, ENAJENACIÓN DE TODA CLASE DE FINCA, RÚSTICAS O URBANAS, CUALQUIERA QUE FUERA SU NATURALEZA. C) EXPLOTACIÓN DE ACTIVIDADES AGRÍCOLAS, FORESTALES Y GANADERAS. D) PROMOCIÓN, CONSTRUCCIÓN, REHABILITACIÓN DE TODA CLASE DE OBRAS, URBANIZACIONES, EDIFICIOS Y CONSTRUCCIONES. E) ASISTENCIA, GESTIÓN, DIRECCIÓN, ADMINISTRACIÓN, PROMOCIÓN, INTERVENCIÓN, PARTICIPACIÓN EN EMPRESAS O EN SU CREACIÓN, CONSTITUCIÓN O DESARROLLO. F) PROMOCIÓN, ESTUDIO Y DESARROLLO DE PRODUCTOS Y ACTIVIDADES INDUSTRIALES, COMERCIALES Y DE DISTRIBUCIÓN EN EMPRESAS PROPIAS O PARTICIPADAS Y EXPLOTACIÓN O CESIÓN DE CÁNONES, ROYALTIES Y DERECHOS DE PROPIEDAD INTELECTUAL E INDUSTRIAL. G) ADQUISICIÓN, TENENCIA Y DISFRUTE, ADMINISTRACIÓN, ENAJENACIÓN DE TODA CLASE DE TÍTULOS, VALORES MOBILIARIOS, ACTIVOS FINANCIEROS, DERECHOS VALORES, CUOTAS O PARTICIPACIONES EN EMPRESAS INDIVIDUALES O SOCIALES POR CUENTA PROPIA Y CON EXCEPCIÓN DE LA INTERMEDIACIÓN, NO INCLUYÉNDOSE EN NINGÚN CASO LAS ACTIVIDADES REGULADAS EN LA LEGISLACIÓN DE INSTITUCIONES DE INVERSIÓN COLECTIVA Y MERCADO DE VALORES. H) PRESTACIÓN DE SERVICIOS PROFESIONALES LEGALES, ESTUDIOS, INFORMES Y ASESORAMIENTO ECONÓMICOS, QUE SE REALIZARÁN A TRAVÉS DE LOS PROFESIONALES CON TITULACIÓN ADECUADA, Y MEDIANTE OBTENCIÓN DE LOS PERMISOS ADMINISTRATIVOS CORRESPONDIENTES EN SU CASO",
      "mainEntityOfPage": "https://www.contratacion.euskadi.eus/webkpe00-kperoc/es/ac71aBusquedaRegistrosWar/empresa/06348",
      "_links": {
        "self": {
          "name": "INGURUMENAREN KIDEAK INGENIERIA, S.L.",
          "href": "https://api.euskadi.eus/procurements/companies/06348"
        }
      }
    },
    {
      "name": "METALES PELAZ, S.L.",
      "registrationNumber": "10448",
      "identificationNumber": "B48053300",
      "address": "Cantera errepidea, 2",
      "location": {
        "postalCode": "48950",
        "municipality": "Erandio",
        "county": "Bizkaia",
        "municipalityId": "902",
        "countyId": "48"
      },
      "economicActivities": [
        {
          "id": "1.616.4",
          "name": "Venta al por mayor de metales no férreos en bruto y productos semielaborados",
          "_links": {
            "self": {
              "name": "Venta al por mayor de metales no férreos en bruto y productos semielaborados",
              "href": "https://api.euskadi.eus/procurements/companies/economic-activities/1.616.4"
            }
          }
        },
        {
          "id": "1.621",
          "name": "Venta al por mayor de chatarra y metales de desecho férreos y no férreos",
          "_links": {
            "self": {
              "name": "Venta al por mayor de chatarra y metales de desecho férreos y no férreos",
              "href": "https://api.euskadi.eus/procurements/companies/economic-activities/1.621"
            }
          }
        }
      ],
      "certificateStartDate": "2025-11-26",
      "certificateEndDate": "2026-05-25",
      "object": "LA COMPRAVENTA DE TODA CLASE DE CHATARRAS Y RESIDUOS METÁLICOS, FÉRRICOS Y NO FÉRRICOS Y TODO LO QUE CON ELLO SE RELACIONE.",
      "mainEntityOfPage": "https://www.contratacion.euskadi.eus/webkpe00-kperoc/es/ac71aBusquedaRegistrosWar/empresa/10448",
      "_links": {
        "self": {
          "name": "METALES PELAZ, S.L.",
          "href": "https://api.euskadi.eus/procurements/companies/10448"
        }
      }
    },
    {
      "name": "ELEGIN EUSKARA ZERBITZUA, S.L.",
      "registrationNumber": "09910",
      "identificationNumber": "B56343296",
      "address": "Zigordia Kalea",
      "location": {
        "postalCode": "20800",
        "municipality": "Zarautz",
        "county": "Gipuzkoa",
        "municipalityId": "079",
        "countyId": "20"
      },
      "economicActivities": [
        {
          "id": "1.847",
          "name": "Servicios de consultoría",
          "_links": {
            "self": {
              "name": "Servicios de consultoría",
              "href": "https://api.euskadi.eus/procurements/companies/economic-activities/1.847"
            }
          }
        },
        {
          "id": "1.849.3",
          "name": "Servicios de traducción y similares",
          "_links": {
            "self": {
              "name": "Servicios de traducción y similares",
              "href": "https://api.euskadi.eus/procurements/companies/economic-activities/1.849.3"
            }
          }
        },
        {
          "id": "1.933.9",
          "name": "Otras actividades de enseñanza tales como idiomas, mecanografía",
          "_links": {
            "self": {
              "name": "Otras actividades de enseñanza tales como idiomas, mecanografía",
              "href": "https://api.euskadi.eus/procurements/companies/economic-activities/1.933.9"
            }
          }
        }
      ],
      "certificateStartDate": "2025-11-25",
      "certificateEndDate": "2026-05-19",
      "object": "EL SERVICIO PARA EL FOMENTO DEL EUSKERA A PERSONAS FÍSICAS, JURÍDICAS Y ENTIDADES PRIVADAS Y PÚBLICAS.",
      "mainEntityOfPage": "https://www.contratacion.euskadi.eus/webkpe00-kperoc/es/ac71aBusquedaRegistrosWar/empresa/09910",
      "_links": {
        "self": {
          "name": "ELEGIN EUSKARA ZERBITZUA, S.L.",
          "href": "https://api.euskadi.eus/procurements/companies/09910"
        }
      }
    },
    {
      "name": "RAUNEL BELLO NUÑEZ",
      "registrationNumber": "09344",
      "identificationNumber": "79228625L",
      "address": "PASEO URKIZU 26 - 3DRCH",
      "location": {
        "postalCode": "20600",
        "municipality": "Eibar",
        "county": "Gipuzkoa",
        "municipalityId": "030",
        "countyId": "20"
      },
      "economicActivities": [
        {
          "id": "1.721.2",
          "name": "Transporte por autotaxis",
          "_links": {
            "self": {
              "name": "Transporte por autotaxis",
              "href": "https://api.euskadi.eus/procurements/companies/economic-activities/1.721.2"
            }
          }
        }
      ],
      "certificateStartDate": "2025-11-25",
      "certificateEndDate": "2026-05-16",
      "object": "TRANSPORTE POR AUTOTAXIS.",
      "mainEntityOfPage": "https://www.contratacion.euskadi.eus/webkpe00-kperoc/es/ac71aBusquedaRegistrosWar/empresa/09344",
      "_links": {
        "self": {
          "name": "RAUNEL BELLO NUÑEZ",
          "href": "https://api.euskadi.eus/procurements/companies/09344"
        }
      }
    },
    {
      "name": "SEMANTIC SYSTEMS, S.L.",
      "registrationNumber": "03951",
      "identificationNumber": "B95234183",
      "address": "EDIFICIO ARTEAGA. AVDA. DEL TXORIHERRI, 9-2º",
      "location": {
        "postalCode": "48160",
        "municipality": "Derio",
        "county": "Bizkaia",
        "municipalityId": "901",
        "countyId": "48"
      },
      "economicActivities": [
        {
          "id": "1.617.8",
          "name": "Venta al por mayor de máquinas y material de oficina",
          "_links": {
            "self": {
              "name": "Venta al por mayor de máquinas y material de oficina",
              "href": "https://api.euskadi.eus/procurements/companies/economic-activities/1.617.8"
            }
          }
        },
        {
          "id": "1.845",
          "name": "Explotación electrónica por cuenta de terceros",
          "_links": {
            "self": {
              "name": "Explotación electrónica por cuenta de terceros",
              "href": "https://api.euskadi.eus/procurements/companies/economic-activities/1.845"
            }
          }
        },
        {
          "id": "1.849.7",
          "name": "Servicios de gestión administrativa",
          "_links": {
            "self": {
              "name": "Servicios de gestión administrativa",
              "href": "https://api.euskadi.eus/procurements/companies/economic-activities/1.849.7"
            }
          }
        }
      ],
      "certificateStartDate": "2025-11-25",
      "certificateEndDate": "2026-05-20",
      "object": "A.- LA PRESTACIÓN DE SERVICIOS DE CONSULTORÍA INFORMÁTICA EN SU MÁS AMPLIOI SENTIDO EN TEMAS RELACIONADOS CON SOFTWARE Y HARDWARE. B.- LA PRESTACIÓN DE SRVICIOS DE HOSPEDAJE DE APLICACIONES INFORMÁTICAS, ES DECIR, DICHAS APLICACIONES RESIDIRÁN EN SERVIDORES CENTRALES O DISTRIBUIDOS GESTIONADOS POR LA EMPRESA Y LA MISMA SE ENCARGARÁ DE FACTURAR A SUS CLIENTES. C.- LA PRESTACIÓN DE SERVICIOS DE MANTENIMIENTO DE SOFTWARE Y HARDWARE A USUARIOS O EMPRESAS POR MEDIO DE UN CENTRO DE SOPORTE. D.- LA IMPLANTACIÓN DE SISTEMAS INFORMÁTICOS RELACIONADOS CON LOS CAMPOS EMPRESARIAL, LABORAL, MERCANTIL, FINANCIERO O DOMÉSTICO. E.- EL ALMACENAMIENTO, ARRENDAMIENTO Y, EN GENERAL, LA COMERCIALIZACIÓN Y DISTRIBUCIÓN DE TODA CLASE DE PRODUCTOS RELACIONADOS CON LA INFORMÁTICA. F.- LA VENTA DE SOLUCIONES SOFTWARE QUE PUEDEN IMPLICAR EL DESARROLLO DE SOFTWARE A MEDIDA, LA APLICACIÓN DE SOFTWARE ESTÁNDAR DE MERCADO, LA PERSONALIZACIÓN DE PRODUCTOS O COMPONENTES EXISTENTES O LA APLICACIÓN DE PRODUCTOS SOFTWARE O COMPONENTES PROPIOS.  G.- EL DESARROLLO Y VENTA DE TODO TIPO DE PAQUETES Y PRODUCTOS INFORMÁTICOS CON SUS CORRESPONDIENTES LICENCIAS DE USO. H.- LA PRESTACIÓN DE SERVICIOS DE CESIÓN DE RECURSOS INFORMÁTICOS (MEDIOS MATERIALES, SOFTWARE O PERSONAS) A USUARIOS O EMPRESAS. I.- LA PRESTACIÓN DE SERVICIOS DE FORMACIÓN A USUARIOS Y EMPRESAS EN TEMAS RELACIONADOS CON LA INFORMÁTICA ",
      "mainEntityOfPage": "https://www.contratacion.euskadi.eus/webkpe00-kperoc/es/ac71aBusquedaRegistrosWar/empresa/03951",
      "_links": {
        "self": {
          "name": "SEMANTIC SYSTEMS, S.L.",
          "href": "https://api.euskadi.eus/procurements/companies/03951"
        }
      }
    },
    {
      "name": "PERICA OBRAS Y SERVICIOS, S.A.",
      "registrationNumber": "01443",
      "identificationNumber": "A26022657",
      "address": "Avenida de La Rioja, 71",
      "location": {
        "postalCode": "26340",
        "municipality": "San Asensio",
        "county": "Rioja, La",
        "municipalityId": "129",
        "countyId": "26"
      },
      "economicActivities": [
        {
          "id": "1.501.2",
          "name": "Construcción completa, reparación y conservación obras civiles",
          "_links": {
            "self": {
              "name": "Construcción completa, reparación y conservación obras civiles",
              "href": "https://api.euskadi.eus/procurements/companies/economic-activities/1.501.2"
            }
          }
        },
        {
          "id": "1.612.2",
          "name": "Venta al por mayor de cereales",
          "_links": {
            "self": {
              "name": "Venta al por mayor de cereales",
              "href": "https://api.euskadi.eus/procurements/companies/economic-activities/1.612.2"
            }
          }
        },
        {
          "id": "1.911",
          "name": "Servicios agrícolas y ganaderos",
          "_links": {
            "self": {
              "name": "Servicios agrícolas y ganaderos",
              "href": "https://api.euskadi.eus/procurements/companies/economic-activities/1.911"
            }
          }
        }
      ],
      "certificateStartDate": "2025-11-25",
      "certificateEndDate": "2026-05-21",
      "object": "REALIZACIÓN DE OBRAS DE JARDINERÍA Y SERVICIOS FORESTALES TALES COMO HIDROSIEMBRAS, SIEMBRAS, PLANTACIONES, REFORESTACIONES, RECUPERACIONES MEDIOAMBIENTALES, DESBROCES, DEFENSA FRENTA A INCENDIOS FORESTALES Y PLAGAS; CONSERVACIÓN Y MANTENIMIENTO DE MONTES Y JARDINES Y SERVICIOS DE PROTECCIÓN DE ESPECIES; APERTURA DE PISTAS Y CAMINOS ASÍ COMO CONSERVACIÓN Y MANTENIMIENTO DE CARRETERAS, PISTAS, AUTOPISTAS, AUTOVÍAS Y CALZADAS, MOVIMIENTOS DE TIERRAS TALES COMO DESMONTES VACIADOS Y EXPLANACIONES; OBRAS HIDRÁULICAS DE DEFENSA DE MÁRGENES, ENCAUZAMIENTOS Y OTRAS SIN CUALIFICACIÓN ESPECÍFICA; SERVICIOS DE TRANSPORTES EN GENERAL Y RECOGIDA Y TRANSPORTE  DE TODA CLASE DE RESIDUOS; TRATAMIENTO DE RESIDUOS OLEOSOS; SERVICIOS DE LIMPIEZA EN GENERAL Y OTROS SERVICIOS NO DETERMINADOS, ASÍ COMO LA PRODUCCIÓN, ACONDICIONAMIENTO Y COMERCIALIZACIÓN DE ÁRBOLES Y PLANTAS. LA CONSTRUCCIÓN DE OBRAS PÚBLICAS Y PRIVADAS EN SU TOTALIDAD O EN CUALQUIERA DE SUS RAMAS; LA CONSTRUCCIÓN DE INMUEBLES; LA COMPRA Y VENTA DE TERRENOS Y EN GENERAL TODO CUANTO PUEDA RELACIONARSE CON LO ANTERIOR. LA PROMOCIÓN, INTERMEDIACIÓN Y GESTIÓN INMOBILIARIA EN GENERAL, REDACCIÓN, ELABORACIÓN, CONTROL Y TRAMITACIÓN DE PROYECTOS TÉCNICOS, EDIFICACIÓN Y OBRA CIVIL. DIRECCIÓN TÉCNICA Y CONTROL DE INMUEBLES, O INSTALACIONES ASÍ COMO EL TRATAMIENTO, TRANSPORTE Y RECICLADO DE LOS PRODUCTOS DERIVADOS DE ESTA ACTIVIDAD.",
      "mainEntityOfPage": "https://www.contratacion.euskadi.eus/webkpe00-kperoc/es/ac71aBusquedaRegistrosWar/empresa/01443",
      "_links": {
        "self": {
          "name": "PERICA OBRAS Y SERVICIOS, S.A.",
          "href": "https://api.euskadi.eus/procurements/companies/01443"
        }
      }
    },
    {
      "name": "GORKA URIA UNCETA",
      "registrationNumber": "06446",
      "identificationNumber": "30651042T",
      "address": "Pedro Elejalde 1, bajo",
      "location": {
        "postalCode": "48300",
        "municipality": "Gernika-Lumo",
        "county": "Bizkaia",
        "municipalityId": "046",
        "countyId": "48"
      },
      "economicActivities": [
        {
          "id": "2.411",
          "name": "Arquitectos",
          "_links": {
            "self": {
              "name": "Arquitectos",
              "href": "https://api.euskadi.eus/procurements/companies/economic-activities/2.411"
            }
          }
        },
        {
          "id": "2.421",
          "name": "Arquitectos técnicos y aparejadores",
          "_links": {
            "self": {
              "name": "Arquitectos técnicos y aparejadores",
              "href": "https://api.euskadi.eus/procurements/companies/economic-activities/2.421"
            }
          }
        }
      ],
      "certificateStartDate": "2025-11-25",
      "certificateEndDate": "2026-05-16",
      "object": "ARQUITECTOS. ARQUITECTOS TÉCNICOS Y APAREJADORES",
      "mainEntityOfPage": "https://www.contratacion.euskadi.eus/webkpe00-kperoc/es/ac71aBusquedaRegistrosWar/empresa/06446",
      "_links": {
        "self": {
          "name": "GORKA URIA UNCETA",
          "href": "https://api.euskadi.eus/procurements/companies/06446"
        }
      }
    }
  ]
}