{
  "totalItems": 9042,
  "totalPages": 905,
  "currentPage": 780,
  "itemsOfPage": 10,
  "items": [
    {
      "name": "KOBEY DEKONS, S.L.",
      "registrationNumber": "03183",
      "identificationNumber": "B20706131",
      "address": "SORGINTXULO, 4",
      "location": {
        "postalCode": "20100",
        "municipality": "Errenteria",
        "county": "Gipuzkoa",
        "municipalityId": "067",
        "countyId": "20"
      },
      "economicActivities": [
        {
          "id": "1.501.1",
          "name": "Construcción completa, reparación y conservación de edificaciones",
          "_links": {
            "self": {
              "name": "Construcción completa, reparación y conservación de edificaciones",
              "href": "https://api.euskadi.eus/procurements/companies/economic-activities/1.501.1"
            }
          }
        }
      ],
      "certificateStartDate": "2006-04-05",
      "certificateEndDate": "2006-09-09",
      "object": "LA ACTIVIDAD PROPIA DE ALBAÑILERÍA Y PEQUEÑOS TRABAJOS DE CONSTRUCCIÓN EN GENERAL",
      "mainEntityOfPage": "https://www.contratacion.euskadi.eus/webkpe00-kperoc/es/ac71aBusquedaRegistrosWar/empresa/03183",
      "_links": {
        "self": {
          "name": "KOBEY DEKONS, S.L.",
          "href": "https://api.euskadi.eus/procurements/companies/03183"
        }
      }
    },
    {
      "name": "EUGALAB, S.COOP.",
      "registrationNumber": "03186",
      "identificationNumber": "F01335835",
      "address": "C/ MANUEL IRADIER, 82 BAJO",
      "location": {
        "postalCode": "01005",
        "municipality": "Vitoria-Gasteiz",
        "county": "Araba/Álava",
        "municipalityId": "059",
        "countyId": "01"
      },
      "economicActivities": [
        {
          "id": "1.942.1",
          "name": "Consultorios médicos, centros de socorro sanitarios y urgencias",
          "_links": {
            "self": {
              "name": "Consultorios médicos, centros de socorro sanitarios y urgencias",
              "href": "https://api.euskadi.eus/procurements/companies/economic-activities/1.942.1"
            }
          }
        },
        {
          "id": "1.944",
          "name": "Servicios de naturopatía, acupuntura y otros servicios parasanitarios",
          "_links": {
            "self": {
              "name": "Servicios de naturopatía, acupuntura y otros servicios parasanitarios",
              "href": "https://api.euskadi.eus/procurements/companies/economic-activities/1.944"
            }
          }
        }
      ],
      "certificateStartDate": "2006-04-05",
      "certificateEndDate": "2006-08-20",
      "object": "LA REALIZACIÓN DE SERVICIOS EN EL CAMPO DEL LABORATORIO Y ANÁLISIS MÉDICOS E HIGIÉNICOS, ASÍ COMO LAS CONSULTAS MÉDICAS, ASISTENCIA SANITARIA Y OTRAS ACTIVIDADES QUE SE PUEDAN LLEVAR A CABO EN UN CENTRO SANITARIO EXTRAHOSPITALARIO",
      "mainEntityOfPage": "https://www.contratacion.euskadi.eus/webkpe00-kperoc/es/ac71aBusquedaRegistrosWar/empresa/03186",
      "_links": {
        "self": {
          "name": "EUGALAB, S.COOP.",
          "href": "https://api.euskadi.eus/procurements/companies/03186"
        }
      }
    },
    {
      "name": "MARÍA DEL MAR ALARCIA BRAVO",
      "registrationNumber": "03184",
      "identificationNumber": "30550914Z",
      "address": "AVDA. AIXARTE, 3 - 2ºA",
      "location": {
        "postalCode": "48480",
        "municipality": "Arrigorriaga",
        "county": "Bizkaia",
        "municipalityId": "011",
        "countyId": "48"
      },
      "economicActivities": [
        {
          "id": "1.922.1",
          "name": "Servicios de limpieza de interiores",
          "_links": {
            "self": {
              "name": "Servicios de limpieza de interiores",
              "href": "https://api.euskadi.eus/procurements/companies/economic-activities/1.922.1"
            }
          }
        }
      ],
      "certificateStartDate": "2006-04-04",
      "certificateEndDate": "2006-08-01",
      "object": "SERVICIOS DE  LIMPIEZA DE INTERIORES EN GENERAL, TANTO EN EDIFICIOS PÚLBICOS COMO EN LOCALES Y EDIFICIOS PRIVADOS\r\n",
      "mainEntityOfPage": "https://www.contratacion.euskadi.eus/webkpe00-kperoc/es/ac71aBusquedaRegistrosWar/empresa/03184",
      "_links": {
        "self": {
          "name": "MARÍA DEL MAR ALARCIA BRAVO",
          "href": "https://api.euskadi.eus/procurements/companies/03184"
        }
      }
    },
    {
      "name": "EL TALLER CONTRACT MARKETING, S.L.",
      "registrationNumber": "03088",
      "identificationNumber": "B20836474",
      "address": "FRANCISCO GRANDMONTAGNE, 1- 3  ZUATZU EDIFICIO ZURRIOLA",
      "location": {
        "postalCode": "20018",
        "municipality": "Donostia / San Sebastián",
        "county": "Gipuzkoa",
        "municipalityId": "069",
        "countyId": "20"
      },
      "economicActivities": [
        {
          "id": "1.844",
          "name": "Servicios de publicidad, relaciones públicas y similares",
          "_links": {
            "self": {
              "name": "Servicios de publicidad, relaciones públicas y similares",
              "href": "https://api.euskadi.eus/procurements/companies/economic-activities/1.844"
            }
          }
        }
      ],
      "certificateStartDate": "2006-04-03",
      "certificateEndDate": "2006-09-07",
      "object": "LA PRESTACIÓN DE SERVICIOS DE ASESORÍA Y CONSULTORÍA EN MATERIA DE MARKETING, COMUNICACIÓN Y PUBLICIDAD; LA PROMOCIÓN Y ORGANIZACIÓN DE EVENTOS RELACIONADOS CON LA EXPOSICIÓN Y VENTA DE PRODUCTOS MANUFACTURADOS, PROPIEDAD INDUSTRIAL Y PROPIEDAD INTELECTUAL, ORGANIZACIÓN DE CONGRESOS Y EXPOSICIONES, REALIZACIÓN DE ESTUDIOS Y PROSPECCIONES DE MERCADO Y CUANTAS ACTIVIDADES ESTÉN RELACIONADAS CON EL MARKETING Y LA COMUNICACIÓN. LA REDACCIÓN Y EJECUCIÓN DE PROYECTOS DE DISEÑO DE LOCALES O CENTROS COMERCIALES, OFICINAS Y VIVIENDAS",
      "mainEntityOfPage": "https://www.contratacion.euskadi.eus/webkpe00-kperoc/es/ac71aBusquedaRegistrosWar/empresa/03088",
      "_links": {
        "self": {
          "name": "EL TALLER CONTRACT MARKETING, S.L.",
          "href": "https://api.euskadi.eus/procurements/companies/03088"
        }
      }
    },
    {
      "name": "LUIS MARÍA LÓPEZ DE LUZURIAGA FERNÁNDEZ",
      "registrationNumber": "02197",
      "identificationNumber": "16204411Z",
      "address": "C/ NAGUSIA, Nº 54.",
      "location": {
        "postalCode": "01200",
        "municipality": "Agurain/Salvatierra",
        "county": "Araba/Álava",
        "municipalityId": "051",
        "countyId": "01"
      },
      "economicActivities": [
        {
          "id": "1.983",
          "name": "Agencias de colocación de artistas",
          "_links": {
            "self": {
              "name": "Agencias de colocación de artistas",
              "href": "https://api.euskadi.eus/procurements/companies/economic-activities/1.983"
            }
          }
        },
        {
          "id": "1.989.2",
          "name": "Servicios de organización de congresos, asambleas y similares",
          "_links": {
            "self": {
              "name": "Servicios de organización de congresos, asambleas y similares",
              "href": "https://api.euskadi.eus/procurements/companies/economic-activities/1.989.2"
            }
          }
        }
      ],
      "certificateStartDate": "2006-03-30",
      "certificateEndDate": "2006-07-10",
      "object": "EL MONTAJE DE ESPECTÁCULOS MUSICALES Y LÚDICOS.\r\n\r\nDENTRO DE LOS PRIMEROS SE ENCARGA DE CONTRATAR A LOS DIVERSOS GRUPOS PARA QUE ACTÚEN EN LAS FIESTAS PATRONALES DE LAS CIUDADES Y PUEBLOS QUE CONTRATAN LA INTERMEDIACIÓN DE LA EMPRESA.\r\n\r\nLOS ESPECTÁCULOS LÚDICOS, SON AQUELLOS QUE PRETENDEN, COMO SU NOMBRE INDICA, DISTRAER A LA GENTE DE TODAS LAS EDADES, Y PARA ELLO CONTRATAMOS TODOS AQUELLOS ELEMENTOS DE DIVERSIÓN QUE EXISTEN EN EL MERCADO, TALES COMO CASTILLOS HINCHABLES, TRENES CON UN RECORRIDO POR DIVERSAS ZONAS DE LA VILLA, Y VAQUILLAS SI INTERESAN.\r\n\r\nASIMISMO, ASESORA A LAS DIVERSAS ENTIDADES MUNICIPALES PARA ACOPLAR LA IDIOSINCRASIA DEL LUGAR CON EL TIPO DE MÚSICA Y JUEGOS QUE LES SEAN MÁS IDÓNEOS",
      "mainEntityOfPage": "https://www.contratacion.euskadi.eus/webkpe00-kperoc/es/ac71aBusquedaRegistrosWar/empresa/02197",
      "_links": {
        "self": {
          "name": "LUIS MARÍA LÓPEZ DE LUZURIAGA FERNÁNDEZ",
          "href": "https://api.euskadi.eus/procurements/companies/02197"
        }
      }
    },
    {
      "name": "SOCOTEC IBERIA, S.A.",
      "registrationNumber": "02659",
      "identificationNumber": "A40007460",
      "address": "AVDA. DE EUROPA, 19 EDIFICIO 2. PLANTA 1ª",
      "location": {
        "postalCode": "28224",
        "municipality": "Pozuelo de Alarcón",
        "county": "Madrid",
        "municipalityId": "115",
        "countyId": "28"
      },
      "economicActivities": [
        {
          "id": "1.843.9",
          "name": "Otros servicios técnicos n.c.o.p",
          "_links": {
            "self": {
              "name": "Otros servicios técnicos n.c.o.p",
              "href": "https://api.euskadi.eus/procurements/companies/economic-activities/1.843.9"
            }
          }
        }
      ],
      "certificateStartDate": "2006-03-30",
      "certificateEndDate": "2006-08-07",
      "object": "LA PRESTACIÓN DE SERVICIOS TENDENTES, DIRECTA O INDIRECTAMENTE, A LA PREVENCIÓN, CONTROL Y EVALUACIÓN DE RIESGOS EN LAS ÁREAS DE LA SEGURIDAD, SALUD, SANIDAD Y CONTROL INDUSTRIAL, EL MEDIO AMBIENTE Y LA EDIFICACIÓN Y CONSTRUCCIÓN, ASÍ COMO LA PRESTACIÓN DE SERVICIOS RELATIVOS A LA GESTIÓN DE LA CALIDAD. CON ESE FIN REALIZARÁ LAS SIGUIENTES ACTIVIDADES:\r\n- ASESORAMIENTO, CONSULTORÍA Y AUDITORÍA (CON EXPRESA EXCLUSIÓN DE LAS ACTIVIDADES REGULADAS POR LA LEY 19/1988, DE 12 DE JULIO, DE AUDITORÍA DE CUENTAS y normas complementarias.); -INSPECCIÓN, VERIFICACIÓN, CONTROL DE CALIDAD, REVISIÓN, EVALUACIÓN, PERITAJE Y ENSAYOS. ANÁLISIS Y ESTUDIOS TÉCNICOS Y ECONÓMICOS Y FINANCIEROS; - ASISTENCIA TÉCNICA. INVESTIGACIÓN DE MÉTODOS DE INSPECCIÓN Y DESARROLLO; - PRESTACIÓN DE SERVICIOS DE PREVENCIÓN DE RIESGOS LABORALES; - FORMACIÓN Y CAPACITACIÓN DE PERSONAL, EN ACTIVIDADES RELACIONADAS CON LAS ANTERIORMENTE DESCRITAS\r\n\r\n",
      "mainEntityOfPage": "https://www.contratacion.euskadi.eus/webkpe00-kperoc/es/ac71aBusquedaRegistrosWar/empresa/02659",
      "_links": {
        "self": {
          "name": "SOCOTEC IBERIA, S.A.",
          "href": "https://api.euskadi.eus/procurements/companies/02659"
        }
      }
    },
    {
      "name": "AITOR ELORZA GURRUTXAGA",
      "registrationNumber": "03175",
      "identificationNumber": "72439543P",
      "address": "MANUEL LEKUONA, 3-1º I",
      "location": {
        "postalCode": "20018",
        "municipality": "Donostia / San Sebastián",
        "county": "Gipuzkoa",
        "municipalityId": "069",
        "countyId": "20"
      },
      "economicActivities": [
        {
          "id": "1.966.9",
          "name": "Otros servicios culturales n.c.o.p",
          "_links": {
            "self": {
              "name": "Otros servicios culturales n.c.o.p",
              "href": "https://api.euskadi.eus/procurements/companies/economic-activities/1.966.9"
            }
          }
        }
      ],
      "certificateStartDate": "2006-03-27",
      "certificateEndDate": "2006-08-14",
      "object": "DAR UNA RESPUESTA INTEGRAL A LA DEMANDA EXISTENTE EN MATERIA DE INFRAESTRUCTURAS DE ACTOS Y/O EVENTOS, FUNDAMENTALMENTE DE CARÁCTER LÚDICO, CULTURAL Y/O DEPORTIVO.\r\nPARTIENDO DE UN PLANTEAMIENTO GLOBAL DE LAS NECESIDADES QUE PUEDE TENER CUALQUIER EMPRESA O INSTITUCIÓN, EN MATERIA DE ORGANIZACIÓN, PRODUCCIÓN Y EJECUCIÓN, DAR PERFECTA COBERTURA A LAS MISMAS CON UN SERVICIO INTEGRAL, LLAVE EN MANO.\r\nINTEGRAR LOS ACTOS EN EL CARÁCTER Y CULTURA DE LOS MISMOS, ENTRONCANDO LAS INFRAESTRUCTURAS CON LOS OBJETIVOS Y OPTIMIZÁNDOLOS PARA EL ÉXITO DE LOS MISMOS",
      "mainEntityOfPage": "https://www.contratacion.euskadi.eus/webkpe00-kperoc/es/ac71aBusquedaRegistrosWar/empresa/03175",
      "_links": {
        "self": {
          "name": "AITOR ELORZA GURRUTXAGA",
          "href": "https://api.euskadi.eus/procurements/companies/03175"
        }
      }
    },
    {
      "name": "GENERIS-FARMACEUTICA, S.A.",
      "registrationNumber": "02902",
      "identificationNumber": "A62961610",
      "address": "TRAVESERA DE GRACIA, 43 -3º 1ª ",
      "location": {
        "postalCode": "08006",
        "municipality": "Barcelona",
        "county": "Barcelona",
        "municipalityId": "019",
        "countyId": "08"
      },
      "economicActivities": [
        {
          "id": "1.254.2",
          "name": "Fabricación de especialidades y otros productos farmacéuticos",
          "_links": {
            "self": {
              "name": "Fabricación de especialidades y otros productos farmacéuticos",
              "href": "https://api.euskadi.eus/procurements/companies/economic-activities/1.254.2"
            }
          }
        }
      ],
      "certificateStartDate": "2006-03-20",
      "certificateEndDate": "2005-10-21",
      "object": "LA FABRICACIÓN, COMERCIALIZACIÓN, DISTRIBUCIÓN, REPRESENTACIÓN, IMPORTACIÓN, EXPORTACIÓN DE ESPECIALIDADES FARMACÉUTICAS, MEDICAMENTOS GENÉRICOS  Y NO GENÉRICOS, MATERIAS PRIMAS, PRINCIPIOS ACTIVOS, EXCIPIENTES Y COMPONENTES PARA LA INDUSTRIA FARMACÉUTICA, MATERIAL PARA DIAGNÓSTICOS, MATERIAL CLÍNICO Y HOSPITALARIO.  EN EL SUPUESTO DE QUE PARA TODAS O ALGUNA DE LAS ACTIVIDADES QUE CONSTITUYEN EL PRESENTE OBJETO SOCIAL SE PRECISE DE ALGÚN TIPO DE PERMISO, AUTORIZACIÓN O TRÁMITE ADMINISTRATIVO, LA SOCIEDAD NO EJERCERÁ LA ACTIVIDAD DE QUE SE TRATE HASTA QUE LEGALMENTE NO ESTÉ AUTORIZADA PARA HACERLO",
      "mainEntityOfPage": "https://www.contratacion.euskadi.eus/webkpe00-kperoc/es/ac71aBusquedaRegistrosWar/empresa/02902",
      "_links": {
        "self": {
          "name": "GENERIS-FARMACEUTICA, S.A.",
          "href": "https://api.euskadi.eus/procurements/companies/02902"
        }
      }
    },
    {
      "name": "BRUES Y FERNÁNDEZ CONSTRUCCIONES, S.A.",
      "registrationNumber": "00192",
      "identificationNumber": "A20060034",
      "address": "Pº DE ERROTABURU, Nº 1 - 10º",
      "location": {
        "postalCode": "20018",
        "municipality": "Donostia / San Sebastián",
        "county": "Gipuzkoa",
        "municipalityId": "069",
        "countyId": "20"
      },
      "economicActivities": [
        {
          "id": "1.507",
          "name": "Construcción, reparación y conservación de toda clase obras",
          "_links": {
            "self": {
              "name": "Construcción, reparación y conservación de toda clase obras",
              "href": "https://api.euskadi.eus/procurements/companies/economic-activities/1.507"
            }
          }
        }
      ],
      "certificateStartDate": "2006-03-17",
      "certificateEndDate": "2006-08-14",
      "object": "LA CONSTRUCCIÓN DE OBRAS NUEVAS EN GENERAL",
      "mainEntityOfPage": "https://www.contratacion.euskadi.eus/webkpe00-kperoc/es/ac71aBusquedaRegistrosWar/empresa/00192",
      "_links": {
        "self": {
          "name": "BRUES Y FERNÁNDEZ CONSTRUCCIONES, S.A.",
          "href": "https://api.euskadi.eus/procurements/companies/00192"
        }
      }
    },
    {
      "name": "CLÍNICA EUSKARRI S.L.UNIPERSONAL",
      "registrationNumber": "03173",
      "identificationNumber": "B01376953",
      "address": "AVDA. GASTEIZ, 78 - 6D",
      "location": {
        "postalCode": "01012",
        "municipality": "Vitoria-Gasteiz",
        "county": "Araba/Álava",
        "municipalityId": "059",
        "countyId": "01"
      },
      "economicActivities": [
        {
          "id": "1.942.1",
          "name": "Consultorios médicos, centros de socorro sanitarios y urgencias",
          "_links": {
            "self": {
              "name": "Consultorios médicos, centros de socorro sanitarios y urgencias",
              "href": "https://api.euskadi.eus/procurements/companies/economic-activities/1.942.1"
            }
          }
        }
      ],
      "certificateStartDate": "2006-03-17",
      "certificateEndDate": "2006-08-20",
      "object": "ASISTENCIA SANITARIA EN RÉGIMEN ABIERTO Y CON HOSPITALIZACION.\r\nCONSULTAS MÉDICAS Y DE ENFERMERÍA.\r\nRECONOCIMIENTOS MÉDICOS PARA CARNET DE CONDUCIR, PARA USO DE ARMAS, PARA PROFESIONALES DE SEGURIDAD, Y TODOS AQUELLOS QUE REQUIERA LA ACREDITACIÓN POR LA ADMINISTRACIÓN PÚBLICA.\r\nCONSULTA, ASESORAMIENTO Y ACTIVIDAD PERICIAL MÉDICA RELACIONADA CON LA VALORACIÓN DEL DAÑO CORPORAL, CON LA GESTIÓN DE LA INCAPACIDAD TEMPORAL Y  LA GESTIÓN DE INVALIDEZ.\r\n\r\nGESTIÓN DE TODAS LAS PRUEBAS COMPLEMENTARIAS Y ANÁLISIS DIVERSOS NECESARIOS PARA ALCANZAR TODO TIPO  DIAGNÓSTICOS.\r\n\r\nELABORACIÓN Y GESTIÓN DE SISTEMAS DE EVACUACIÓN Y DE TRANSPORTE SANITARIO PARA TODO TIPO DE ORGANIZACIÓN.\r\n\r\nCONSULTAS MÉDICAS ESPECIALIZADAS, COMPLEMENTARIAS Y NECESARIAS PARA UNA CORRECTA EVALUACIÓN DEL ESTADO DE SALUD DE LOS TRABAJADORES.\r\nCOMPORTAMIENTOS Y ACTIVIDADES TERAPÉUTICAS ENTRE LAS QUE SE INCLUYEN LAS FORMATIVAS Y LAS DE CARÁCTER PREVENTIVO.\r\n\r\nFORMACIÓN DE TODA PERSONA QUE NECESITE RECIBIR CONOCIMIENTOS QUE TENGAN RELACIÓN CON LA SALUD PERSONAL Y CON LA DE LA COLECTIVIDAD.\r\n\r\nELABORACIÓN Y GESTIÓN DE TODO TIPO DE SISTEMAS DE CALIDAD: ISO, OSHA.\r\n\r\nFORMACIÓN EN MATERIA DE CALIDAD EN COLABORACIÓN CON ORGANISMOS ACREDITADOS.\r\n\r\nELABORACIÓN Y GESTIÓN DE TODO TIPO DE SISTEMA QUE SE ENFOQUE A LA CONSERVACIÓN Y PROTECCIÓN MEDIO AMBIENTAL.\r\n\r\nFORMACIÓN EN MATERIA MEDIO-AMBIENTAL EN COLABORACIÓN CON ORGANISMOS ACREDITATOS.\r\n\r\nELABORACIÓN, GESTIÓN Y FORMACIÓN DE SISTEMAS INTEGRADOS DE PREVENCIÓN DE RIESGOS LABORALES, CALIDAD Y MEDIO AMBIENTE.\r\n\r\nASESORÍA Y CONSULTORÍA PARA TODAS LAS ÁREAS DESCRITAS CON EL FIN DE POSIBILITAR UN CORRECTO CONOCIMIENTO DE LA MATERIA Y POSTERIOR APLICACIÓN.  ",
      "mainEntityOfPage": "https://www.contratacion.euskadi.eus/webkpe00-kperoc/es/ac71aBusquedaRegistrosWar/empresa/03173",
      "_links": {
        "self": {
          "name": "CLÍNICA EUSKARRI S.L.UNIPERSONAL",
          "href": "https://api.euskadi.eus/procurements/companies/03173"
        }
      }
    }
  ]
}