{
  "totalItems": 9042,
  "totalPages": 905,
  "currentPage": 279,
  "itemsOfPage": 10,
  "items": [
    {
      "name": "COORDINACION INTEGRAL DE SERVICIOS DE MANTENIMIENTO, S.L.",
      "registrationNumber": "08038",
      "identificationNumber": "B95310017",
      "address": "C/ Muelle Tomás Olabarri, 8 bajo izda",
      "location": {
        "postalCode": "48930",
        "municipality": "Getxo",
        "county": "Bizkaia",
        "municipalityId": "044",
        "countyId": "48"
      },
      "economicActivities": [
        {
          "id": "1.849.9",
          "name": "Otros servicios independientes n.c.o.p",
          "_links": {
            "self": {
              "name": "Otros servicios independientes n.c.o.p",
              "href": "https://api.euskadi.eus/procurements/companies/economic-activities/1.849.9"
            }
          }
        }
      ],
      "certificateStartDate": "2025-09-14",
      "certificateEndDate": "2026-03-14",
      "object": "SERVICIOS DE PORTERÍA A COMUNIDADES DE VECINOS, EDIFICIOS DE OFICINAS, EMPRESAS, INSTALACIONES FABRILES; SERVICIOS DE REPARACIÓN, VIGILANCIA DE INSTALACIONES Y MANTENIMIENTO DE LAS MISMAS EN COMUNIDADES DE VECINOS, EDIFICIOS DE OFICINAS, EMPRESAS, INSTALACIONES FABRILES, COMERCIALIZACIÓN DE MAQUINARIA Y PRODUCTOS DE LIMPIEZA, ASÍ COMO ACCESORIOS DE BAÑOS Y OTROS ELEMENTOS SANITARIOS;  LIMPIEZA Y MANTENIMIENTO DE EDIFICIOS Y LOCALES INDUSTRIALES, COMERCIALES, VIVIENDAS E INMUEBLES PARTICULARES, INCLUYENDO TODOS LOS ELEMENTOS ACCESORIOS A DICHOS INMUEBLES, ASÍ COMO LA LIMPIEZA Y MANTENIMIENTO DE ENSERES; SERVICIOS DE JARDINERÍA Y RECOGIDA DE BASURAS; ALQUILER DE MAQUINARIA DE LIMPIEZA Y JARDINERÍA; TRATAMIENTOS DE PROTECCIÓN DE SUELOS Y PAREDES TANTO INTERIORES COMO EXTERIORES; PULIDO Y CRISTALIZADO DE SUELOS Y PAREDES; SERVICIOS DE DESRATIZACIÓN, DESINSECTACIÓN Y DESINFECCIÓN; SERVICIOS DE PINTURA Y ALBAÑILERÍA.",
      "mainEntityOfPage": "https://www.contratacion.euskadi.eus/webkpe00-kperoc/es/ac71aBusquedaRegistrosWar/empresa/08038",
      "_links": {
        "self": {
          "name": "COORDINACION INTEGRAL DE SERVICIOS DE MANTENIMIENTO, S.L.",
          "href": "https://api.euskadi.eus/procurements/companies/08038"
        }
      }
    },
    {
      "name": "PROYECTOS Y MONTAJES ELÉCTRICOS LDO, S.L.",
      "registrationNumber": "06007",
      "identificationNumber": "B75051870",
      "address": "Bº Ventas, 15 - 3º Local",
      "location": {
        "postalCode": "20305",
        "municipality": "Irun",
        "county": "Gipuzkoa",
        "municipalityId": "045",
        "countyId": "20"
      },
      "economicActivities": [
        {
          "id": "1.501.2",
          "name": "Construcción completa, reparación y conservación obras civiles",
          "_links": {
            "self": {
              "name": "Construcción completa, reparación y conservación obras civiles",
              "href": "https://api.euskadi.eus/procurements/companies/economic-activities/1.501.2"
            }
          }
        },
        {
          "id": "1.504.1",
          "name": "Instalaciones eléctricas en general",
          "_links": {
            "self": {
              "name": "Instalaciones eléctricas en general",
              "href": "https://api.euskadi.eus/procurements/companies/economic-activities/1.504.1"
            }
          }
        }
      ],
      "certificateStartDate": "2025-09-14",
      "certificateEndDate": "2026-03-14",
      "object": "REALIZACIÓN DE MONTAJES ELÉCTRICOS EN GENERAL. INSTALACIONES URBANAS E INDUSTRIALES; EL TENDIDO Y REPARACIÓN DE LÍNEAS ELÉCTRICAS DE TODAS CLASES; LA CONSTRUCCIÓN DE TODA CLASE DE CANALIZACIONES, PAVIMENTACIONES Y REALIZACIÓN DE PROYECTOS DE INGENIERÍA INDUSTRIAL. ESTUDIOS TOPOGRÁFICOS",
      "mainEntityOfPage": "https://www.contratacion.euskadi.eus/webkpe00-kperoc/es/ac71aBusquedaRegistrosWar/empresa/06007",
      "_links": {
        "self": {
          "name": "PROYECTOS Y MONTAJES ELÉCTRICOS LDO, S.L.",
          "href": "https://api.euskadi.eus/procurements/companies/06007"
        }
      }
    },
    {
      "name": "IOLAN PRODUCCIONES SL",
      "registrationNumber": "05676",
      "identificationNumber": "B95875308",
      "address": "C/ SIPIRI 8,  1 9",
      "location": {
        "postalCode": "48600",
        "municipality": "Sopela",
        "county": "Bizkaia",
        "municipalityId": "085",
        "countyId": "48"
      },
      "economicActivities": [
        {
          "id": "1.983",
          "name": "Agencias de colocación de artistas",
          "_links": {
            "self": {
              "name": "Agencias de colocación de artistas",
              "href": "https://api.euskadi.eus/procurements/companies/economic-activities/1.983"
            }
          }
        }
      ],
      "certificateStartDate": "2025-09-14",
      "certificateEndDate": "2026-03-14",
      "object": "LA REALIZACIÓN DE TODO TIPO DE ACTIVIDADES DE CONTRATACIÓN, PROMOCIÓN, REPRESENTACIÓN ARTÍSTICA, DIRECCIÓN O MANAGEMENT DE ORQUESTAS, MÚSICOS, CANTANTES, GRUPOS MUSICALES, VARIEDADES, COMPOSITORES, BAILARINES ETC.",
      "mainEntityOfPage": "https://www.contratacion.euskadi.eus/webkpe00-kperoc/es/ac71aBusquedaRegistrosWar/empresa/05676",
      "_links": {
        "self": {
          "name": "IOLAN PRODUCCIONES SL",
          "href": "https://api.euskadi.eus/procurements/companies/05676"
        }
      }
    },
    {
      "name": "KNOWLEDGE WORKS, S.L.",
      "registrationNumber": "08060",
      "identificationNumber": "B75203463",
      "address": "Paseo Mikeletes 12, 4-A",
      "location": {
        "postalCode": "20008",
        "municipality": "Donostia / San Sebastián",
        "county": "Gipuzkoa",
        "municipalityId": "069",
        "countyId": "20"
      },
      "economicActivities": [
        {
          "id": "1.847",
          "name": "Servicios de consultoría",
          "_links": {
            "self": {
              "name": "Servicios de consultoría",
              "href": "https://api.euskadi.eus/procurements/companies/economic-activities/1.847"
            }
          }
        }
      ],
      "certificateStartDate": "2025-09-14",
      "certificateEndDate": "2026-03-14",
      "object": "ACTIVIDAD PRINCIPAL: 7022.- OTRAS ACTIVIDADES DE CONSULTORÍA DE GESTIÓN EMPRESARIAL.",
      "mainEntityOfPage": "https://www.contratacion.euskadi.eus/webkpe00-kperoc/es/ac71aBusquedaRegistrosWar/empresa/08060",
      "_links": {
        "self": {
          "name": "KNOWLEDGE WORKS, S.L.",
          "href": "https://api.euskadi.eus/procurements/companies/08060"
        }
      }
    },
    {
      "name": "ORBELA,INVESTIGACIÓN Y EDUCACIÓN AMBIENTAL,S.L.",
      "registrationNumber": "02758",
      "identificationNumber": "B95044319",
      "address": "C/ Jon Arróspide, nº 11, planta 1 - local 9",
      "location": {
        "postalCode": "480",
        "municipality": "Bilbao",
        "county": "Bizkaia",
        "municipalityId": "020",
        "countyId": "48"
      },
      "economicActivities": [
        {
          "id": "1.843.9",
          "name": "Otros servicios técnicos n.c.o.p",
          "_links": {
            "self": {
              "name": "Otros servicios técnicos n.c.o.p",
              "href": "https://api.euskadi.eus/procurements/companies/economic-activities/1.843.9"
            }
          }
        },
        {
          "id": "1.934",
          "name": "Enseñanza fuera de establecimiento permanente",
          "_links": {
            "self": {
              "name": "Enseñanza fuera de establecimiento permanente",
              "href": "https://api.euskadi.eus/procurements/companies/economic-activities/1.934"
            }
          }
        }
      ],
      "certificateStartDate": "2025-09-13",
      "certificateEndDate": "2026-03-13",
      "object": "EL DESARROLLO DE INICIATIVAS QUE CONTRIBUYAN AL CONOCIMIENTO, CONSERVACIÓN Y MEJORA DEL PATRIMONIO NATURAL, RURAL Y URBANO, A TRAVÉS DE CUALQUIER SERVICIO TÉCNICO EN MATERIA DE MEDIO AMBIENTE, CULTURA, OCIO Y TURISMO",
      "mainEntityOfPage": "https://www.contratacion.euskadi.eus/webkpe00-kperoc/es/ac71aBusquedaRegistrosWar/empresa/02758",
      "_links": {
        "self": {
          "name": "ORBELA,INVESTIGACIÓN Y EDUCACIÓN AMBIENTAL,S.L.",
          "href": "https://api.euskadi.eus/procurements/companies/02758"
        }
      }
    },
    {
      "name": "ARABAUTO MOTOR, S.L.",
      "registrationNumber": "05305",
      "identificationNumber": "B01503069",
      "address": "PORTAL DE GAMARRA, 49",
      "location": {
        "postalCode": "01013",
        "municipality": "Vitoria-Gasteiz",
        "county": "Araba/Álava",
        "municipalityId": "059",
        "countyId": "01"
      },
      "economicActivities": [
        {
          "id": "1.615.1",
          "name": "Venta al por mayor de vehículos, motocicletas, bicicletas y sus accesorios",
          "_links": {
            "self": {
              "name": "Venta al por mayor de vehículos, motocicletas, bicicletas y sus accesorios",
              "href": "https://api.euskadi.eus/procurements/companies/economic-activities/1.615.1"
            }
          }
        },
        {
          "id": "1.691.2",
          "name": "Reparación de vehículos automóviles, bicicletas y otros vehículos",
          "_links": {
            "self": {
              "name": "Reparación de vehículos automóviles, bicicletas y otros vehículos",
              "href": "https://api.euskadi.eus/procurements/companies/economic-activities/1.691.2"
            }
          }
        },
        {
          "id": "1.854.1",
          "name": "Alquiler de automóviles sin conductor",
          "_links": {
            "self": {
              "name": "Alquiler de automóviles sin conductor",
              "href": "https://api.euskadi.eus/procurements/companies/economic-activities/1.854.1"
            }
          }
        }
      ],
      "certificateStartDate": "2025-09-13",
      "certificateEndDate": "2026-03-13",
      "object": "LA EXPLOTACIÓN DE UN NEGOCIO DE VENTA DE TODA CLASE DE VEHÍCULOS NUEVOS Y USADOS, DE ACEITES Y LUBRICANTES, NEUMÁTICOS, PIEZAS DE RECAMBIO, ACCESORIOS, ARTÍCULOS RELACIONADOS CON LOS VEHÍCULOS, PRODUCTOS DE BOUTIQUE Y PRODUCTOS INDUSTRIALES PARA PROFESIONALES DE LA AUTOMOCIÓN, LA REPARACIÓN Y MANTENIMIENTO INTEGRAL DE TODA CLASE DE VEHÍCULOS, INCLUYENDO SU LIMPIEZA Y REACONDICIONAMIENTO, LA TRANSFORMACIÓN DE VEHÍCULOS, EL TRANSPORTE DE MERCANCÍAS Y VEHÍCULOS PROPIOS Y AJENOS, LA PRESTACIÓN DE SERVICIOS DE GESTIÓN, ADMINISTRACIÓN E INFORMÁTICOS A OTRAS EMPRESAS, EL ALQUILER DE TODA CLASE DE VEHÍCULOS EN TODAS SUS MODALIDADES Y LA VENTA Y ALQUILER DE INMUEBLES, MAQUINARIA, UTILLAJE Y HERRAMIENTA Y LA REALIZACIÓN POR CUENTA PROPIA O AJENA DE ACTIVIDADES DE AGENCIA DE SEGUROS, SOMETIDAS A LA LEGISLACIÓN ESPECÍFICA DE MEDIACIÓN DE SEGUROS PRIVADOS",
      "mainEntityOfPage": "https://www.contratacion.euskadi.eus/webkpe00-kperoc/es/ac71aBusquedaRegistrosWar/empresa/05305",
      "_links": {
        "self": {
          "name": "ARABAUTO MOTOR, S.L.",
          "href": "https://api.euskadi.eus/procurements/companies/05305"
        }
      }
    },
    {
      "name": "GAURSA MOTOR, S.L.",
      "registrationNumber": "05321",
      "identificationNumber": "B75072439",
      "address": "AVDA. LETXUNBORRO, 89",
      "location": {
        "postalCode": "20303",
        "municipality": "Irun",
        "county": "Gipuzkoa",
        "municipalityId": "045",
        "countyId": "20"
      },
      "economicActivities": [
        {
          "id": "1.615.1",
          "name": "Venta al por mayor de vehículos, motocicletas, bicicletas y sus accesorios",
          "_links": {
            "self": {
              "name": "Venta al por mayor de vehículos, motocicletas, bicicletas y sus accesorios",
              "href": "https://api.euskadi.eus/procurements/companies/economic-activities/1.615.1"
            }
          }
        },
        {
          "id": "1.654.1",
          "name": "Venta al por menor de vehículos terrestres",
          "_links": {
            "self": {
              "name": "Venta al por menor de vehículos terrestres",
              "href": "https://api.euskadi.eus/procurements/companies/economic-activities/1.654.1"
            }
          }
        },
        {
          "id": "1.691.2",
          "name": "Reparación de vehículos automóviles, bicicletas y otros vehículos",
          "_links": {
            "self": {
              "name": "Reparación de vehículos automóviles, bicicletas y otros vehículos",
              "href": "https://api.euskadi.eus/procurements/companies/economic-activities/1.691.2"
            }
          }
        },
        {
          "id": "1.854.1",
          "name": "Alquiler de automóviles sin conductor",
          "_links": {
            "self": {
              "name": "Alquiler de automóviles sin conductor",
              "href": "https://api.euskadi.eus/procurements/companies/economic-activities/1.854.1"
            }
          }
        }
      ],
      "certificateStartDate": "2025-09-13",
      "certificateEndDate": "2026-03-13",
      "object": "LA EXPLOTACIÓN DE UN NEGOCIO DE VENTA DE TODA CLASE DE VEHÍCULOS NUEVOS Y USADOS, DE ACEITES Y LUBRICANTES, NEUMÁTICOS, PIEZAS DE RECAMBIO, ACCESORIOS, ARTÍCULOS RELACIONADOS CON LOS VEHÍCULOS, PRODUCTOS DE BOUTIQUE Y PRODUCTOS INDUSTRIALES PARA PROFESIONALES DE LA AUTOMOCIÓN, LA REPARACIÓN Y MANTENIMIENTO INTEGRAL DE TODA CLASE DE VEHÍCULOS, INCLUYENDO SU LIMPIEZA Y REACONDICIONAMIENTO, LA TRANSFORMACIÓN DE VEHÍCULOS, EL TRANSPORTE DE MERCANCÍAS Y VEHÍCULOS PROPIOS Y AJENOS, LA PRESTACIÓN DE SERVICIOS DE GESTIÓN, ADMINISTRACIÓN E INFORMÁTICOS A OTRAS EMPRESAS, EL ALQUILER DE TODA CLASE DE VEHÍCULOS EN TODAS SUS MODALIDADES Y LA VENTA Y ALQUILER DE INMUEBLES, MAQUINARIA, UTILLAJE Y HERRAMIENTA Y LA REALIZACIÓN POR CUENTA PROPIA O AJENA DE ACTIVIDADES DE AGENCIA DE SEGUROS, SOMETIDAS A LA LEGISLACIÓN ESPECÍFICA DE MEDIACIÓN DE SEGUROS PRIVADOS",
      "mainEntityOfPage": "https://www.contratacion.euskadi.eus/webkpe00-kperoc/es/ac71aBusquedaRegistrosWar/empresa/05321",
      "_links": {
        "self": {
          "name": "GAURSA MOTOR, S.L.",
          "href": "https://api.euskadi.eus/procurements/companies/05321"
        }
      }
    },
    {
      "name": "BIOK COMUNICACION ESTRATEGICA, S.L.",
      "registrationNumber": "06583",
      "identificationNumber": "B95754669",
      "address": "CAMPO VOLANTIN 29-1º C",
      "location": {
        "postalCode": "48007",
        "municipality": "Bilbao",
        "county": "Bizkaia",
        "municipalityId": "020",
        "countyId": "48"
      },
      "economicActivities": [
        {
          "id": "1.844",
          "name": "Servicios de publicidad, relaciones públicas y similares",
          "_links": {
            "self": {
              "name": "Servicios de publicidad, relaciones públicas y similares",
              "href": "https://api.euskadi.eus/procurements/companies/economic-activities/1.844"
            }
          }
        }
      ],
      "certificateStartDate": "2025-09-13",
      "certificateEndDate": "2026-03-13",
      "classification": [
        {
          "id": "S",
          "name": "Servicios",
          "groups": [
            {
              "id": "T",
              "subgroups": [
                {
                  "id": "01",
                  "name": "Servicios de publicidad",
                  "categories": [
                    {
                      "id": "1",
                      "name": "Desde 0 Hasta 150.000",
                      "_links": {
                        "self": {
                          "name": "Desde 0 Hasta 150.000",
                          "href": "https://api.euskadi.eus/procurements/companies/types/S/categories/1"
                        }
                      }
                    }
                  ],
                  "_links": {
                    "self": {
                      "name": "Servicios de publicidad",
                      "href": "https://api.euskadi.eus/procurements/companies/types/S/groups/T/subgroups/01"
                    }
                  }
                }
              ],
              "_links": {
                "self": {
                  "href": "https://api.euskadi.eus/procurements/companies/types/S/groups/T"
                }
              }
            }
          ],
          "_links": {
            "self": {
              "name": "Servicios",
              "href": "https://api.euskadi.eus/procurements/companies/types/S"
            }
          }
        }
      ],
      "object": "1. LA CONSTRUCCIÓN, INSTALACIONES Y MANTENIMIENTO. 2. COMERCIO AL POR MAYOR Y AL POR MENOR. DISTRIBUCIÓN COMERCIAL. IMPORTACIÓN Y EXPORTACIÓN. 3. ACTIVIDADES INMOBILIARIAS. 4. INDUSTRIAS MANUFACTURERAS Y TEXTILES. 5. TURISMO, HOSTELERÍA Y RESTAURACIÓN. 6. PRESTACIÓN DE SERVICIOS. ACTIVIDADES DE GESTIÓN Y ADMINISTRACIÓN. SERVICIOS EDUCATIVOS, DE OCIO Y ENTRETENIMIENTO. 7. TRANSPORTE Y ALMACENAMIENTO. 8. INFORMACIÓN Y COMUNICACIONES. 9. AGRICULTURA, GANADERÍA Y PESCA. 10. INFORMÁTICA, TELECOMUNICACIONES Y OFIMÁTICA. 11. ENERGÍAS ALTERNATIVAS. 12. COMPRAVENTA Y REPARACIÓN DE VEHÍCULOS. REPARACIÓN Y MANTENIMIENTO DE INSTALACIONES Y MAQUINARIA. 13. INVESTIGACIÓN, DESARROLLO E INNOVACIÓN. 14. ACTIVIDADES CIENTÍFICAS Y TÉCNICAS",
      "mainEntityOfPage": "https://www.contratacion.euskadi.eus/webkpe00-kperoc/es/ac71aBusquedaRegistrosWar/empresa/06583",
      "_links": {
        "self": {
          "name": "BIOK COMUNICACION ESTRATEGICA, S.L.",
          "href": "https://api.euskadi.eus/procurements/companies/06583"
        }
      }
    },
    {
      "name": "TÉCNICA SANITARIA AMBIENTAL T.S.A., S.L.",
      "registrationNumber": "01923",
      "identificationNumber": "B48854483",
      "address": "ALIENDALDE NÚM 7 1D",
      "location": {
        "postalCode": "48200",
        "municipality": "Durango",
        "county": "Bizkaia",
        "municipalityId": "027",
        "countyId": "48"
      },
      "economicActivities": [
        {
          "id": "1.843.1",
          "name": "Servicios técnicos de ingeniería",
          "_links": {
            "self": {
              "name": "Servicios técnicos de ingeniería",
              "href": "https://api.euskadi.eus/procurements/companies/economic-activities/1.843.1"
            }
          }
        },
        {
          "id": "1.921.3",
          "name": "Exterminio de animales dañinos y desinfección",
          "_links": {
            "self": {
              "name": "Exterminio de animales dañinos y desinfección",
              "href": "https://api.euskadi.eus/procurements/companies/economic-activities/1.921.3"
            }
          }
        }
      ],
      "certificateStartDate": "2025-09-13",
      "certificateEndDate": "2026-03-13",
      "object": "PRESERVACION, CONSERVACION Y RESTAURACION DE BIENES CULTURALES Y PATRIMONIALES. CONTROL DE FACTORES AMBIENTALES. ASESORIA EN HIGIENE ALIMENTARIA Y AMBIENTAL (CONTROL DE PUNTOS CRITICOS, ANALISIS DE RIESGOS). CONTROL DE PLAGAS",
      "mainEntityOfPage": "https://www.contratacion.euskadi.eus/webkpe00-kperoc/es/ac71aBusquedaRegistrosWar/empresa/01923",
      "_links": {
        "self": {
          "name": "TÉCNICA SANITARIA AMBIENTAL T.S.A., S.L.",
          "href": "https://api.euskadi.eus/procurements/companies/01923"
        }
      }
    },
    {
      "name": "HAZGARRI S.COOP",
      "registrationNumber": "06153",
      "identificationNumber": "F01263227",
      "address": "C/ERREKATXIKI 4-6 BAJO",
      "location": {
        "postalCode": "01003",
        "municipality": "Vitoria-Gasteiz",
        "county": "Araba/Álava",
        "municipalityId": "059",
        "countyId": "01"
      },
      "economicActivities": [
        {
          "id": "1.932.1",
          "name": "Enseñanza de formación y perfeccionamiento profesional no superior",
          "_links": {
            "self": {
              "name": "Enseñanza de formación y perfeccionamiento profesional no superior",
              "href": "https://api.euskadi.eus/procurements/companies/economic-activities/1.932.1"
            }
          }
        },
        {
          "id": "1.932.2",
          "name": "Enseñanza de formación y perfeccionamiento profesional superior",
          "_links": {
            "self": {
              "name": "Enseñanza de formación y perfeccionamiento profesional superior",
              "href": "https://api.euskadi.eus/procurements/companies/economic-activities/1.932.2"
            }
          }
        },
        {
          "id": "1.942.9",
          "name": "Otros servicios sanitarios sin internados, no clasificados",
          "_links": {
            "self": {
              "name": "Otros servicios sanitarios sin internados, no clasificados",
              "href": "https://api.euskadi.eus/procurements/companies/economic-activities/1.942.9"
            }
          }
        },
        {
          "id": "1.952",
          "name": "Asistencia y servicios sociales en centros no residenciales",
          "_links": {
            "self": {
              "name": "Asistencia y servicios sociales en centros no residenciales",
              "href": "https://api.euskadi.eus/procurements/companies/economic-activities/1.952"
            }
          }
        }
      ],
      "certificateStartDate": "2025-09-13",
      "certificateEndDate": "2026-03-13",
      "object": "A) PRESTACIÓN DE SERVICIOS SOCIALES DE LA SALUD COMUNITARIA. B) PRESTACIÓN DE ASISTENCIA CLÍNICA Y TERAPÉUTICA EN SALUD FÍSICA Y MENTAL. C) REALIZACIÓN DE PROYECTOS DE INTERVENCIÓN COMUNITARIA DIRIGIDOS A LA PREVENCIÓN Y SEGUIMIENTO DE LAS PROBLEMÁTICAS Y ENFERMEDADES QUE AFECTAN A LOS DISTINTOS GRUPOS O SECTORES DE POBLACIÓN: PADRES Y MADRES, MUJERES, HOMBRES, JÓVENES, ADOLESCENTES, INFANCIA, TERCERA EDAD, OTROS GRUPOS DE RIESGO, PROFESIONALES COMUNITARIOS, AFECTADOS POR ALGUNA MINUSVALÍA, ETC. D) REALIZACIÓN DE ESTUDIOS E INVESTIGACIONES EN LOS CAMPOS DE LA SALUD, EDUCACIÓN Y SERVICIOS SOCIALES. E) DESARROLLO DE PLANES DE FORMACIÓN DE PROFESIONALES RELACIONADOS CON LAS ACTIVIDADES ANTERIORMENTE DESCRITAS. F) ORGANIZACIÓN DE REUNIONES, CONGRESOS Y EVENTOS DE ÁMBITO NACIONAL E INTERNACIONAL SOBRE TEMAS RELACIONADOS CON DICHAS ACTIVIDADES. G) PUBLICACIÓN O EDICIÓN EN CUALQUIER TIPO DE SOPORTE, DE INVESTIGACIONES Y ESTUDIOS, ASÍ COMO DE CUALQUIER TIPO DE MATERIA QUE PUEDA SERVIR TANTO DE BASE, COMO DE APOYO A CUALQUIER PROYECTO O ESTUDIO RELACIONADO CON SUS ACTIVIDADES. H) ORIENTACIÓN LEGAL Y MEDIACIÓN.",
      "mainEntityOfPage": "https://www.contratacion.euskadi.eus/webkpe00-kperoc/es/ac71aBusquedaRegistrosWar/empresa/06153",
      "_links": {
        "self": {
          "name": "HAZGARRI S.COOP",
          "href": "https://api.euskadi.eus/procurements/companies/06153"
        }
      }
    }
  ]
}