{
  "totalItems": 9042,
  "totalPages": 905,
  "currentPage": 330,
  "itemsOfPage": 10,
  "items": [
    {
      "name": "SIROPE AGENCIA CREATIVA, S.L.",
      "registrationNumber": "07868",
      "identificationNumber": "B95943932",
      "address": "Avenida Zuberoa 18 bajo",
      "location": {
        "postalCode": "48012",
        "municipality": "Bilbao",
        "county": "Bizkaia",
        "municipalityId": "020",
        "countyId": "48"
      },
      "economicActivities": [
        {
          "id": "1.844",
          "name": "Servicios de publicidad, relaciones públicas y similares",
          "_links": {
            "self": {
              "name": "Servicios de publicidad, relaciones públicas y similares",
              "href": "https://api.euskadi.eus/procurements/companies/economic-activities/1.844"
            }
          }
        },
        {
          "id": "1.847",
          "name": "Servicios de consultoría",
          "_links": {
            "self": {
              "name": "Servicios de consultoría",
              "href": "https://api.euskadi.eus/procurements/companies/economic-activities/1.847"
            }
          }
        },
        {
          "id": "1.989.2",
          "name": "Servicios de organización de congresos, asambleas y similares",
          "_links": {
            "self": {
              "name": "Servicios de organización de congresos, asambleas y similares",
              "href": "https://api.euskadi.eus/procurements/companies/economic-activities/1.989.2"
            }
          }
        }
      ],
      "certificateStartDate": "2025-08-09",
      "certificateEndDate": "2026-02-09",
      "object": "1. LA REALIZACIÓN DE ACTIVIDADES DE AGENCIA E INTERMEDIACIÓN COMERCIAL, ASÍ COMO DE CONSULTORÍA Y DE GESTIÓN EMPRESARIAL EN EL SECTOR DE LA PUBLICIDAD, EL MARKETING, EL MERCHANDISING Y LOS ENTORNOS DIGITALES. 2. LA CREACIÓN, ADQUISICIÓN, COMERCIALIZACIÓN Y EXPLOTACIÓN EN AUQLEUIER FORMA, DIRECTA O INDIRECTAMENTE, DE MARCAS, PATENTES Y CUALQUIER OTRO TIPO DE DERECHOS DE PROPIEDAD INDUSTRIAL, INTELECTUAL O DE IMAGEN, ASÍ COMO DECUALESQUIERA OBJETOS, MODELOS O MÉTODOS SUSCEPTIBLES DE SERVIR SOPORTE PARA LA EXPLOTACIÓN DE LOS DERECHOS ANTERIORES. 3. LA TENENCIA, ADQUISICIÓN Y ENAJENACIÓN DE TODA CLASE DE VALORES MOBILIARIOS, TANTO NACIONALES COMO EXTRANJEROS, CON LAS EXCEPCIONES Y LIMITACIONES ESTABLECIDAS POR LA LEY DEL MERCADO DE VALORES Y DE INSTITUCIONES DE INVERSIÓN COLECTIVA. 4. LA ADQUISICIÓN, PROMOCIÓN, EXPLOTACIÓN, REHABILITACIÓN, ALQUILER, GESTIÓN, ADMINISTRACIÓN Y TRANSMISIÓN DE INMUEBLES RÚSTICOS O URBANOS, POR CUALQUIER TÍTULO, YA SEAN EN SU TOTALIDAD O EN PARTE, TANTO EN ESPAÑA COMO EN EL EXTRANJERO",
      "mainEntityOfPage": "https://www.contratacion.euskadi.eus/webkpe00-kperoc/es/ac71aBusquedaRegistrosWar/empresa/07868",
      "_links": {
        "self": {
          "name": "SIROPE AGENCIA CREATIVA, S.L.",
          "href": "https://api.euskadi.eus/procurements/companies/07868"
        }
      }
    },
    {
      "name": "DESARROLLOS INMOBILIARIOS ENSA, S.L.",
      "registrationNumber": "10036",
      "identificationNumber": "B95577441",
      "address": "Calle Doctor Don Luis Bilbao Libano, 42 Bajo, (48940)",
      "location": {
        "postalCode": "48940",
        "municipality": "Leioa",
        "county": "Bizkaia",
        "municipalityId": "054",
        "countyId": "48"
      },
      "economicActivities": [
        {
          "id": "1.507",
          "name": "Construcción, reparación y conservación de toda clase obras",
          "_links": {
            "self": {
              "name": "Construcción, reparación y conservación de toda clase obras",
              "href": "https://api.euskadi.eus/procurements/companies/economic-activities/1.507"
            }
          }
        }
      ],
      "certificateStartDate": "2025-08-09",
      "certificateEndDate": "2026-02-09",
      "object": "LA ADQUISICIÓN, TENENCIA, ADMINISTRACIÓN, DISFRUTE Y ENAJENACIÓN DE VALORES MOBILIARIOS, CRÉDITOS Y DERECHOS, ACCIONES Y PARTICIPACIONES SOCIALES, BONOS Y OBLIGACIONES, SEAN DEL ESTADO, CORPORACIONES LOCALES, ORGANISMOS AUTONÓMICOS O EMPRESAS PRIVADAS, ESTÉN O NO COTIZADAS EN BOLSA, POR CUENTA PROPIA O CON EXCEPCIÓN DE LA INTERMEDIACIÓN Y DEJANDO SIEMPRE FUERA LAS ACTIVIDADES OBJETO DE LA LEGISLACIÓN DE INSTITUCIONES DE INVERSIÓN COLECTIVA Y DE MARCADO DE VALORES. LA ADQUISICIÓN, TENENCIA, ADMINISTRACIÓN Y EXPLOTACIÓN EN FORMA DE ARRIENDO, SUBARRIENDO, TRASPASO O CESIÓN, DE TODA CLASE DE VIVIENDAS, LOCALES INDUSTRIALES Y DE NEGOCIO, GARAJES Y, EN GENERAL, DE TODA CLASE DE INMUEBLES, TANTO URBANOS COMO RÚSTICOS, ASÍ COMO DE BIENES MUEBLES, MAQUINARIA Y VEHÍCULOS, INDUSTRIAS O NEGOCIOS, EMPRESAS O ESTABLECIMIENTOS MERCANTILES, Y TODA CLASE DE CESIÓN POR PRECIO DEL USO O DISFRUTE DE TODA CLASE DE BIENES Y DERECHOS, INCLUSO DE PROPIEDAD INTELECTUAL O INDUSTRIAL. LA REALIZACIÓN DE SERVICIOS DE GESTIÓN DE BIENES INMOBILIARIOS, TALES COMO VALORACIÓN, TASACIÓN, INVENTARIOS ASÍ COMO INTERMEDIACIÓN EN TRANSACCIONES, COMPRAS, VENTAS, ARRENDAMIENTOS Y OTRAS GESTIONES INMOBILIARIAS POR CUENTA DE TERCEROS. LA REALIZACIÓN DE PROYECTOS, OBRAS, REFORMAS Y CONSTRUCCIONES DE TODO TIPO, PÚBLICAS Y PRIVADAS, BIEN POR EJECUCIÓN DIRECTA O POR CONTRATA, TANTO PARA SU APROVECHAMIENTO PROPIO COMO PARA SU COMERCIALIZACIÓN Y VENTA.",
      "mainEntityOfPage": "https://www.contratacion.euskadi.eus/webkpe00-kperoc/es/ac71aBusquedaRegistrosWar/empresa/10036",
      "_links": {
        "self": {
          "name": "DESARROLLOS INMOBILIARIOS ENSA, S.L.",
          "href": "https://api.euskadi.eus/procurements/companies/10036"
        }
      }
    },
    {
      "name": "VIDING FITNESS, S.L.",
      "registrationNumber": "09785",
      "identificationNumber": "B86206687",
      "address": "Calle Príncipe de Vergara, 37 - planta 1",
      "location": {
        "postalCode": "28001",
        "municipality": "Madrid",
        "county": "Madrid",
        "municipalityId": "079",
        "countyId": "28"
      },
      "economicActivities": [
        {
          "id": "1.751.2",
          "name": "Guarda y custodia de vehículos en \"parkings\"",
          "_links": {
            "self": {
              "name": "Guarda y custodia de vehículos en \"parkings\"",
              "href": "https://api.euskadi.eus/procurements/companies/economic-activities/1.751.2"
            }
          }
        },
        {
          "id": "1.967.1",
          "name": "Instalaciones deportivas",
          "_links": {
            "self": {
              "name": "Instalaciones deportivas",
              "href": "https://api.euskadi.eus/procurements/companies/economic-activities/1.967.1"
            }
          }
        }
      ],
      "certificateStartDate": "2025-08-09",
      "certificateEndDate": "2026-02-08",
      "object": "A) LA CREACIÓN, GESTIÓN, MANTENIMIENTO, ADMINISTRACIÓN Y EXPLOTACIÓN DE INSTALACIONES DEPORTIVAS, DE RECREO Y OCIO, INCLUIDOS LOS SERVICIOS DE CAFETERÍA Y RESTAURANTES. B) LA CREACIÓN, GESTIÓN, MANTENIMIENTO, ADMINISTRACIÓN Y EXPLOTACIÓN DE CENTROS DEPORTIVOS PÚBLICOS Y PRIVADOS, ASÍ COMO DE CLUB DE FITNESS, CENTROS DE SPA Y BALNEARIOS. C) LA VENTA DE ARTÍCULO DEPORTIVOS, EDUCATIVOS Y RECREATIVOS. D) LA REALIZACIÓN DE OBRAS DE CONSTRUCCIÓN, INSTALACIONES DEPORTIVAS Y RECREATIVAS. E) LA REALIZACIÓN PARA TERCEROS DE ESTUDIOS E INFORMES ECONÓMICOS Y DE MERCADO Y LA ADMINISTRACIÓN Y ASESORAMIENTO DE NEGOCIOS Y BIENES. F) LA PROMOCIÓN Y FOMENTO DE EMPRESAS MEDIANTE LA PARTICIPACIÓN TEMPORAL EN SU CAPITAL Y LA REALIZACIÓN DE LAS SIGUIENTES OPERACIONES: 1.- SUSCRIPCIÓN DE ACCIONES O PARTICIPACIONES DE SOCIEDADES DEDICADAS A ACTIVIDADES DE CARÁCTER EMPRESARIAL. 2.- DIRIGIR Y GESTIONARA LAS PARTICIPACIONES DE LAS SOCIEDADES DEDICADAS A ACTIVIDADES DE CARÁCTER EMPRESARIAL, DISPONIENDO AL EFECTO DE LA CORRESPONDIENTE ORGANIZACIÓN DE MEDIOS PERSONALES Y MATERIALES. 3.- ADQUISICIÓN DE LAS ACCIONES O PARTICIPACIONES A QUE SER REFIERE LA LETRA A) ANTERIOR, POR COMPRA DE LAS MISMAS. 4.- SUSCRIPCIÓN DE TÍTULOS DE RENTA FIJA EMITIDOS POR LAS SOCIEDADES EN QUE PARTICIPEN O CONCESIÓN DE CRÉDITOS, PARTICIPATIVOS O NO, LAS MISMAS, POR UN PLAZO SUPERIOR A CINCO AÑOS. 5.- PRESTACIÓN DE FORMA DIRECTA, A LAS SOCIEDADES EN QUE PARTICIPE, DE LOS SERVICIOS DE ASESORAMIENTO, ASISTENCIA TÉCNICA Y OTROS SIMILARES, QUE GUARDEN RELACIÓN CON LA ADMINISTRACIÓN DE SOCIEDADES PARTICIPADAS, CON UNA ESTRUCTURA FINANCIERA O CON SUS PROCESOS PRODUCTIVOS O DE COMERCIALIZACIÓN. G) LA ADQUISICIÓN, TRANSMISIÓN, ORDENACIÓN, URBANIZACIÓN, PARCELACIÓN Y PROMOCIÓN DE TODA CLASE DE INMUEBLES, RÚSTICOS Y URBANOS, Y CUALESQUIERA DERECHOS SOBRE LOS MISMOS. H) LA PRESTACIÓN DE TODA CLASE DE SERVICIOS MÉDICOS Y DE ATENCIÓN SANITARIA, FISIOTERAPIA Y NUTRICIÓN A USUARIOS PRIVADOS Y DE COMPAÑÍAS DE SEGUROS MÉDICOS, ASÍ COMO LA EMISIÓN DE INFORMES PSICOTÉCNICOS, CONSULTORÍA MÉDICA Y DESARROLLO DE CENTROS SANITARIOS Y ACTIVADES COMPLEMENTARIAS, INCLUYENDO EL ALQUILER DE INSTALACIONES, DE SALAS DE CONSULTAS, DE EQUIPOS, APARATOS E INSTALACIONES MÉDICAS.",
      "mainEntityOfPage": "https://www.contratacion.euskadi.eus/webkpe00-kperoc/es/ac71aBusquedaRegistrosWar/empresa/09785",
      "_links": {
        "self": {
          "name": "VIDING FITNESS, S.L.",
          "href": "https://api.euskadi.eus/procurements/companies/09785"
        }
      }
    },
    {
      "name": "ONDARE BABESA, S.L.",
      "registrationNumber": "09786",
      "identificationNumber": "B01298850",
      "address": "Calle Madre Teresa de Calcuta",
      "location": {
        "postalCode": "01008",
        "municipality": "Vitoria-Gasteiz",
        "county": "Araba/Álava",
        "municipalityId": "059",
        "countyId": "01"
      },
      "economicActivities": [
        {
          "id": "1.936",
          "name": "Investigación científica y técnica",
          "_links": {
            "self": {
              "name": "Investigación científica y técnica",
              "href": "https://api.euskadi.eus/procurements/companies/economic-activities/1.936"
            }
          }
        },
        {
          "id": "1.966.9",
          "name": "Otros servicios culturales n.c.o.p",
          "_links": {
            "self": {
              "name": "Otros servicios culturales n.c.o.p",
              "href": "https://api.euskadi.eus/procurements/companies/economic-activities/1.966.9"
            }
          }
        }
      ],
      "certificateStartDate": "2025-08-09",
      "certificateEndDate": "2026-08-03",
      "object": "LA ASESORÍA TÉCNICA; INTERVENCIONES Y SUPERVISIONES ARQUEOLÓGICOS; EXCAVACIONES, VALORACIONES ARQUEOLÓGICAS. ARCHIVISTA Y DOCUMENTACIÓN CULTURAL; INFORMATIZACIÓN, CATALOGACIÓN DE ARCHIVOS, DOCUMENTOS, FOTOGRAFÍAS, DIAPOSITIVAS Y MATERIAL DE EXCAVACIONES. ESTUDIOS ETNOGRÁFICOS, ARQUEOLÓGICOS Y MEJORA DEL PATRIMONIO HISTÓRICA CULTURAL. ELABORACIÓN DE GUÍAS DIDÁCTICAS SOBRE EL PATRIMONIO HISTÓRICO CULTURAL. CURSOS Y TALLERES DIDÁCTICOS. VISITAS GUIADAS; COMPRAVENTA Y ARRENDAMIENTO DE BIENES INMUEBLES.",
      "mainEntityOfPage": "https://www.contratacion.euskadi.eus/webkpe00-kperoc/es/ac71aBusquedaRegistrosWar/empresa/09786",
      "_links": {
        "self": {
          "name": "ONDARE BABESA, S.L.",
          "href": "https://api.euskadi.eus/procurements/companies/09786"
        }
      }
    },
    {
      "name": "BAIKO ERAGIN SA",
      "registrationNumber": "09257",
      "identificationNumber": "A95604799",
      "address": "URIBITARTE 8-5ºIZDA",
      "location": {
        "postalCode": "48001",
        "municipality": "Bilbao",
        "county": "Bizkaia",
        "municipalityId": "020",
        "countyId": "48"
      },
      "economicActivities": [
        {
          "id": "1.673.2",
          "name": "Otros cafés y bares",
          "_links": {
            "self": {
              "name": "Otros cafés y bares",
              "href": "https://api.euskadi.eus/procurements/companies/economic-activities/1.673.2"
            }
          }
        },
        {
          "id": "1.967.1",
          "name": "Instalaciones deportivas",
          "_links": {
            "self": {
              "name": "Instalaciones deportivas",
              "href": "https://api.euskadi.eus/procurements/companies/economic-activities/1.967.1"
            }
          }
        }
      ],
      "certificateStartDate": "2025-08-08",
      "certificateEndDate": "2026-02-04",
      "object": "- LA PRESTACIÓN DE SERVICIOS DE CONSULTORÍA Y ASESORAMIENTO EN CUENTO NO ESTÉN RESERVADAS POR LEY, A ENTIDADES PÚBLICAS, PERSONAS JURÍDICAS, PERSONAS FÍSICAS, TANTO ESPAÑOLAS COMO EXTRANJERAS EN TODO LO RELACIONADO CON LAS MATERIAS Y DERECHOS ARTÍSTICOS Y DEPORTIVOS. - EXPLOTACIÓN, GESTIÓN, COMERCIALIZACIÓN Y ADMINISTRACIÓN DE CUALQUIER MATERIA RELACIONADA CON EL DEPORTE, OCIO, ARTE O SIMILAR. - REPRESENTACIÓN, FORMACIÓN, MARKETING Y PROMOCIÓN DE LOS DEPORTISTAS YARTISTAS. - REPRESENTACIÓN Y DISTRIBUCIÓN DE MATERIAL DEPORTIVO. - ORGANIZACIÓN Y GESTIÓN DE CUALQUIER CLASE DE EVENTO DEPORTIVO O ARTÍSTICO. - ASESORAMIENTO, PRODUCCIÓN Y COMERCIALIZACIÓN DE CONTENIDOS AUDIOVISUALES RELACIONADOS CON CUALQUIER MATERIA DEPORTIVA O ARTÍSTICA, INCLUYENDO LA COPRODUCCIÓN RADAJE, SPORTS PULICITARIOS, OUTSOURCING, CONTRATACIÓN ARTÍSTICA Y DE PERSONAL PARA LAS ACTIVIDADES DEPORTIVAS O ARTÍSTICAS. - LA ADQUISICIÓN, VENTA, EXPLOTACIÓN Y COMERCIALIZACIÓN DE CONTENIDOS DE OCIO, DEPORTIVOS, ARTÍSTICOS O DE CUALQUIER OTRA NATURALEZA, POR CUALQUIER MEDIO O MODALIDAD DE DIFUSIÓN, INCLUSO MEDIANTE SU CESIÓN A TERCEROS.",
      "mainEntityOfPage": "https://www.contratacion.euskadi.eus/webkpe00-kperoc/es/ac71aBusquedaRegistrosWar/empresa/09257",
      "_links": {
        "self": {
          "name": "BAIKO ERAGIN SA",
          "href": "https://api.euskadi.eus/procurements/companies/09257"
        }
      }
    },
    {
      "name": "RESIDENCIA TABIRA BERRI, S.L.",
      "registrationNumber": "08049",
      "identificationNumber": "B95795142",
      "address": "Calle Intxaurrondo",
      "location": {
        "postalCode": "48200",
        "municipality": "Durango",
        "county": "Bizkaia",
        "municipalityId": "027",
        "countyId": "48"
      },
      "economicActivities": [
        {
          "id": "1.952",
          "name": "Asistencia y servicios sociales en centros no residenciales",
          "_links": {
            "self": {
              "name": "Asistencia y servicios sociales en centros no residenciales",
              "href": "https://api.euskadi.eus/procurements/companies/economic-activities/1.952"
            }
          }
        }
      ],
      "certificateStartDate": "2025-08-08",
      "certificateEndDate": "2026-02-02",
      "object": "EL OBJETO SOCIAL DE LA SOCIEDAD SERÁ RESIDENCIA Y CENTRO DE DÍA PARA PERSONAS MAYORES O DE LA TERCERA EDAD.",
      "mainEntityOfPage": "https://www.contratacion.euskadi.eus/webkpe00-kperoc/es/ac71aBusquedaRegistrosWar/empresa/08049",
      "_links": {
        "self": {
          "name": "RESIDENCIA TABIRA BERRI, S.L.",
          "href": "https://api.euskadi.eus/procurements/companies/08049"
        }
      }
    },
    {
      "name": "OSTAZA PROMOCIONES, S.L.",
      "registrationNumber": "09784",
      "identificationNumber": "B06972236",
      "address": "PLAZA MAESTRO ARROYO 2 BAJO",
      "location": {
        "postalCode": "26500",
        "municipality": "Calahorra",
        "county": "Rioja, La",
        "municipalityId": "036",
        "countyId": "26"
      },
      "economicActivities": [
        {
          "id": "1.833.2",
          "name": "Promoción de edificaciones",
          "_links": {
            "self": {
              "name": "Promoción de edificaciones",
              "href": "https://api.euskadi.eus/procurements/companies/economic-activities/1.833.2"
            }
          }
        }
      ],
      "certificateStartDate": "2025-08-08",
      "certificateEndDate": "2026-02-04",
      "object": "LA PROMOCIÓN INMOBILIARIA, VENTA Y/O ARRENDAMIENTO DE LA EDIFICACIÓN Y ELEMENTOS INMOBILIARIOS PRIVATIVOS DE USO RESIDENCIAL.",
      "mainEntityOfPage": "https://www.contratacion.euskadi.eus/webkpe00-kperoc/es/ac71aBusquedaRegistrosWar/empresa/09784",
      "_links": {
        "self": {
          "name": "OSTAZA PROMOCIONES, S.L.",
          "href": "https://api.euskadi.eus/procurements/companies/09784"
        }
      }
    },
    {
      "name": "PERGUT MEDICAL, S.L.",
      "registrationNumber": "01576",
      "identificationNumber": "B60366184",
      "address": "C/ ISLA DE LA PALMA, Nº 32 - NAVE: 4.",
      "location": {
        "postalCode": "28703",
        "municipality": "San Sebastián de los Reyes",
        "county": "Madrid",
        "municipalityId": "134",
        "countyId": "28"
      },
      "economicActivities": [
        {
          "id": "1.619.2",
          "name": "Venta al por mayor de aparatos e instrumentos médicos, ortopédicos, ópticos",
          "_links": {
            "self": {
              "name": "Venta al por mayor de aparatos e instrumentos médicos, ortopédicos, ópticos",
              "href": "https://api.euskadi.eus/procurements/companies/economic-activities/1.619.2"
            }
          }
        }
      ],
      "certificateStartDate": "2025-08-07",
      "certificateEndDate": "2026-02-07",
      "object": "LA FABRICACIÓN, COMPRA, DISTRIBUCIÓN, VENTA, TENENCIA O EXPLOTACIÓN, BAJO CUALQUIERA DE LAS FORMAS PERMITIDAS EN DERECHO, DE PRODUCTOS DE ENVASADO Y EMBALAJE PARA USOS MÉDICOS, FARMACÉUTICOS E INDUSTRIALES, ASÍ COMO TODO TIPO DE PRODUCTOS HOSPITALARIOS, MÉDICOS, FARMACÉUTICOS, VETERINARIOS Y DE PRODUCTOS RELACIONADOS CON LA INDUSTRIA DEL PLÁSTICO Y SUS DERIVADOS, ARTES GRÁFICAS, PAPEL Y DERIVADOS DEL MISMO",
      "mainEntityOfPage": "https://www.contratacion.euskadi.eus/webkpe00-kperoc/es/ac71aBusquedaRegistrosWar/empresa/01576",
      "_links": {
        "self": {
          "name": "PERGUT MEDICAL, S.L.",
          "href": "https://api.euskadi.eus/procurements/companies/01576"
        }
      }
    },
    {
      "name": "JULEN LARRUSKAIN OIAGA",
      "registrationNumber": "10303",
      "identificationNumber": "44168989L",
      "address": "Obaba Kalea, 4, 2B",
      "location": {
        "postalCode": "20159",
        "municipality": "Asteasu",
        "county": "Gipuzkoa",
        "municipalityId": "014",
        "countyId": "20"
      },
      "economicActivities": [
        {
          "id": "1.399",
          "name": "Fabricación de relojes y otros instrumentos n.c.o.p",
          "_links": {
            "self": {
              "name": "Fabricación de relojes y otros instrumentos n.c.o.p",
              "href": "https://api.euskadi.eus/procurements/companies/economic-activities/1.399"
            }
          }
        }
      ],
      "certificateStartDate": "2025-08-07",
      "certificateEndDate": "2026-02-05",
      "object": "FABRICACIÓN DE RELOJES Y OTROS INSTRUMENTOS N.C.O.P.",
      "mainEntityOfPage": "https://www.contratacion.euskadi.eus/webkpe00-kperoc/es/ac71aBusquedaRegistrosWar/empresa/10303",
      "_links": {
        "self": {
          "name": "JULEN LARRUSKAIN OIAGA",
          "href": "https://api.euskadi.eus/procurements/companies/10303"
        }
      }
    },
    {
      "name": "DISTRICT HEATING ECO ENERGIAS SL",
      "registrationNumber": "09190",
      "identificationNumber": "B88208731",
      "address": "CALLE CAMINO SAN SEBASTIAN 8",
      "location": {
        "postalCode": "28660",
        "municipality": "Boadilla del Monte",
        "county": "Madrid",
        "municipalityId": "022",
        "countyId": "28"
      },
      "economicActivities": [
        {
          "id": "1.843.9",
          "name": "Otros servicios técnicos n.c.o.p",
          "_links": {
            "self": {
              "name": "Otros servicios técnicos n.c.o.p",
              "href": "https://api.euskadi.eus/procurements/companies/economic-activities/1.843.9"
            }
          }
        }
      ],
      "certificateStartDate": "2025-08-07",
      "certificateEndDate": "2026-02-07",
      "object": "A) LA REHABILITACIÓN ENERGÉTICA DE ÁREAS URBANAS, SU ETUDIO, PLANIFICACIÓN, CONSTRUCCIÓN Y GESTIÓN, MEDIANTE LA PROYECCIÓN Y EJECUCIÓN DE CENTRALES TÉRMICAS DE GENERACIÓN DE AGUA CALIENTE O REFRIGERADA (HEATING/COOLING) MEDIANTE EL USO DE ENERGÍAS DERIVADAS DE FUENTES RENOVABLES PARA SU DISTRIBUCIÓN MEDIANTE REDES DE DISTRIBUCIÓN DE CALOR/FRÍO  (DISTRICT HEATING/COOLING). B) LA PRESTACIÓN DE LOS SERVICIOS DE ESTUDIO, PREPARACIÓN, CONFECCIÓN Y ASESORAMIENTO, REDACCIÓN DE PROYECTOS  TÉCNICOS, INFORME Y ASISTENCIA TÉCNICA EN MATERIA DE ENERGÍAS RENOVABLES, EFICIENCIA ENERGÉTICA O NUEVAS ENERGÍAS ESPECIALMENTE VINCULADAS A LA MEJORA Y CONSERVACIÓN DEL MEDIO AMBIENTE. LA EJECUCIÓN DE LAS OBRAS E INSTALACIONES PARA LA EJECUCIÓN DE LOS MISMOS O LA COMERCIALIZACIÓN DE DICHOS PROYECTOS, PUDIENDO REALIZAR DICHAS PRESTACIONES POR SÍ MISMA O EN COMISIÓN. C) LA INVESTIGACIÓN, EL ESTUDIO Y DIFUSIÓN DE ACTIVIDADES RELACIONADAS CON EL DISTRICT HEATING AND COOLING, LA ENERGÍA TÉRMICA, SU GENERACIÓN CON RENOVABLES, SU ALMACENAMIENTO Y LA EFICIENCIA EN SU DISTRIBUCIÓN. LA PROMOCIÓN, DESARROLLO Y GESTIÓN DE CUALESQUIERA PROYECTOS RELACIONADOS CON LA EFICIENCIA ENERGÉTICA Y LAS ENERGÍAS RENOVABLES. D) EL DISEÑO, CONSTRUCCIÓN Y EXPLOTACIÓN EN TODAS SUS FORMAS DE SISTEMAS DE PRODUCCIÓN DE ENERGÍA TÉRMICA MEDIANTE BIOMASA, COLECTORES SOLARES DE CONCENTRACIÓN U OTRAS FUENTES RENOVABLES. LA VENTA DE LA ENERGÍA PRODUCIDA Y LA PRESTACIÓN DE SERVICIOS A SUS USUARIOS RELACIONADAS CON SU INSTALACIÓN, MATENIMIENTO Y MEJORA. E) SUMINISTRO DE ENERGÍA DE ENERGÍA TÉRMICA PRA LA PRODUCCIÓN DE VAPOR, AGUA SOBRECALENTADA, CALEFACCIÓN Y AIRE ACONDICIONADO CONCRETADO EN LA ACTIVIDAD DE PRODUCCIÓN DE ENERGÍA TÉRMICA, SU DISTRIBUCIÓN Y COMERCIALIZACIÓN. LA ACTIVIDAD DE LA COMPAÑÍA SERÁ DISEÑAR, OPERAR Y EXPLOTAR OPERACIONES DE DISTRICT HEATING O RED DE CALOR, CONSISTENTES EN LA GENERACIÓN DE AGUA CALIENTE MEDIANTE EL USO DE ENERGÍAS RENOVABLES, PARA SU DISTRIBUCIÓN POSTERIOR A LOS USUARIOS EN ESPAÑA, ASÍ COMO LA PARTICIPACIÓN ENEL CAPITAL SOCIAL, EN CADA UNO DE LAS SOCIEDADES CONSTITUÍDAS \"AD HOC\" PARA CADA UNO DE LOS PROYECTOS  DESARROLLADOS POR LA COMPAÑÍA, SIENDO LA PRIMERA PARTICIPACIÓN EN LA MERCANTIL ALCALA DISTRICT HEATING, S.L.",
      "mainEntityOfPage": "https://www.contratacion.euskadi.eus/webkpe00-kperoc/es/ac71aBusquedaRegistrosWar/empresa/09190",
      "_links": {
        "self": {
          "name": "DISTRICT HEATING ECO ENERGIAS SL",
          "href": "https://api.euskadi.eus/procurements/companies/09190"
        }
      }
    }
  ]
}