{
  "totalItems": 9042,
  "totalPages": 905,
  "currentPage": 293,
  "itemsOfPage": 10,
  "items": [
    {
      "name": "ETXAJAUN XXI, S.L.",
      "registrationNumber": "05554",
      "identificationNumber": "B01396704",
      "address": "ANDRA MARI ESKOLUNBE Nº 5",
      "location": {
        "postalCode": "01193",
        "municipality": "Vitoria-Gasteiz",
        "county": "Araba/Álava",
        "municipalityId": "059",
        "countyId": "01"
      },
      "economicActivities": [
        {
          "id": "1.501.1",
          "name": "Construcción completa, reparación y conservación de edificaciones",
          "_links": {
            "self": {
              "name": "Construcción completa, reparación y conservación de edificaciones",
              "href": "https://api.euskadi.eus/procurements/companies/economic-activities/1.501.1"
            }
          }
        }
      ],
      "certificateStartDate": "2025-09-08",
      "certificateEndDate": "2026-03-07",
      "object": "ADQUISIÓN DE FINCAS, SOLARES O INMUEBLES; VENTA O TRANSMISIÓN DE LAS MISMAS POR CUALQUIER FORMA JURÍDICA; LA PROMOCIÓN Y CONSTRUCCIÓN DIRECTA O A TRAVÉS DE CONTRATOS QUE SE SUSCRIBAN CON TERCEROS, EL ALQUILER O VENTA DE LOS INMUEBLES PERTENECIENTES A ESTA SOCIEDAD",
      "mainEntityOfPage": "https://www.contratacion.euskadi.eus/webkpe00-kperoc/es/ac71aBusquedaRegistrosWar/empresa/05554",
      "_links": {
        "self": {
          "name": "ETXAJAUN XXI, S.L.",
          "href": "https://api.euskadi.eus/procurements/companies/05554"
        }
      }
    },
    {
      "name": "FRANCISCO JAVIER GARCIA UGALDE",
      "registrationNumber": "08083",
      "identificationNumber": "14960462C",
      "address": "Lersundi 4, 2º A",
      "location": {
        "postalCode": "48009",
        "municipality": "Bilbao",
        "county": "Bizkaia",
        "municipalityId": "020",
        "countyId": "48"
      },
      "economicActivities": [
        {
          "id": "1.861.2",
          "name": "Alquiler de locales industriales y otros alquileres n.c.o.p",
          "_links": {
            "self": {
              "name": "Alquiler de locales industriales y otros alquileres n.c.o.p",
              "href": "https://api.euskadi.eus/procurements/companies/economic-activities/1.861.2"
            }
          }
        },
        {
          "id": "2.411",
          "name": "Arquitectos",
          "_links": {
            "self": {
              "name": "Arquitectos",
              "href": "https://api.euskadi.eus/procurements/companies/economic-activities/2.411"
            }
          }
        }
      ],
      "certificateStartDate": "2025-09-08",
      "certificateEndDate": "2026-03-04",
      "object": "Arquitectos.",
      "mainEntityOfPage": "https://www.contratacion.euskadi.eus/webkpe00-kperoc/es/ac71aBusquedaRegistrosWar/empresa/08083",
      "_links": {
        "self": {
          "name": "FRANCISCO JAVIER GARCIA UGALDE",
          "href": "https://api.euskadi.eus/procurements/companies/08083"
        }
      }
    },
    {
      "name": "EBSCO INFORMATION SERVICES S.L.U.",
      "registrationNumber": "05994",
      "identificationNumber": "B85765766",
      "address": "Avda. de Manoteras 26, 1ºC",
      "location": {
        "postalCode": "28050",
        "municipality": "Madrid",
        "county": "Madrid",
        "municipalityId": "079",
        "countyId": "28"
      },
      "economicActivities": [
        {
          "id": "1.619.6",
          "name": "Venta al por mayor de libros , periódicos y revistas",
          "_links": {
            "self": {
              "name": "Venta al por mayor de libros , periódicos y revistas",
              "href": "https://api.euskadi.eus/procurements/companies/economic-activities/1.619.6"
            }
          }
        }
      ],
      "certificateStartDate": "2025-09-08",
      "certificateEndDate": "2026-03-08",
      "object": "A) LAS ACTIVIDADES DE LOS RAMOS DE LA MEDICINA, LA ODONTOLOGÍA, LA PSIQUIATRÍA, LA PSICOLOGÍA, EL DERECHO, LA INGENIERÍA Y LA ARQUITECTURA, CONTRATANDO EL EFECTO LOS PROFESIONALES O ENTIDADES QUE LEGAL O REGLAMENTARIAMENTE TENGAN ATRIBUÍDA COMPETENCIA PARA EJERCER DICHAS ACTIVIDADES. B) CREAR, MANTENER Y EXPLOTAR PÁGINAS Y PORTALES EN INTERNET; OFRECER SERVICIOS DE HOSPEDAJE Y MANTENIMIENTO DE PÁGINAS Y PORTALES, DE INTERMEDIACIÓN EN EL REGISTRO DE DOMINIOS Y DE CORREO ELECTRÓNICO Y DE COMUNICACIÓN MEDIANTE INTERNET Y LAS ACTIVIDADES DE LOS RAMOS DEL DISEÑO CONVENCIONAL Y TECNOLÓGICO Y DE PUBLICIDAD Y LA INTERMEDIACIÓN COMERCIAL EN ESTOS RAMOS DE ACTIVIDAD. C) PROMOVER Y GESTIONAR, PARA SÍ Y PARA TERCEROS, PROYECTOS TECNOLÓGICOS, POR LOS QUE SE VIENE OBLIGADO EN ESPAÑA AL PAGO DEL IMPUESTO SOBRE ACTIVIDADES ECONÓMICAS. D) LA COMPRA Y LA VENTA, POR CUENTA E INTERÉS POPIO, ACCIONES, PARTICIPACIONES Y, EN GENERAL DE ACTIVOS Y VALORES FINANCIERSO, EMPRESARIALES O DE CUALQUIER OTRA CLASE, CON INTERVENCIÓN EN SU CASO, DE LOS MEDIADORES QUE LEGAL O REGLAMENTARIAMENTE DEBAN HACERLO. E) LA CREACIÓN DIRECCIÓN Y APROVECHAMIENTO COMERCIAL DE REDES DE DISTRIBUCIÓN Y VENTA. F) EL ALMACENAMIENTO Y DISTRIBUCIÓN DE MERCANCÍAS. G) LAS ACTIVIDADES DEL RAMO DE LAS TELECOMUNICACIONES, INCLUÍDA LA FABRICACIÓN, IMPORTACIÓN, EXPORTACIÓN, DISTRIBUCIÓN, VENTA E INSTALACIÓN DE MATERIALES Y ELEMENTOS, LA CREACIÓN E INSTALACIÓN DE REDES, EL ASESORAMIENTO A TERCEROS Y LA INTERMEDIACIÓN COMERCIAL EN EL SECTOR. H) LAS ACTIVIDADES PROPIAS DEL RAMOS DE LA INFORMÁTICA, INCLUÍDA LA FABRICACIÓN, IMPORTACIÓN, EXPORTACIÓN, DISTRIBUCIÓN, VENTA E INSTALACIÓN DE MATERIALES Y ELEMENTOS, EL ASESORAMIENTO A TERCEROS Y LA INTERMEDIACIÓN COMERCIAL EN EL SECTOR. I) EL DESARROLLO DE ACTIVIDADES COMERCIALES PROPIAS DE LAS GRANDES SUPERFICIES, GRANDES ALMACENES E HIPERMERCADOS LO MISMO DESARROLLÁNDOLAS CONJUNTAMENTE EN UN SOLO ESTABLECIMIENTO QUE CADA UNA DE TALES ACTIVIDADES POR SEPARADO. J) LA IMPORTACIÓN Y LA EXPORTACIÓN DE MERCADERÍAS APTAS PARA EL DESARROLLO DE LAS ACTIVIDADES DEL EPÍGRAFE ANTERIOR. K) LAS ACTIVIDADES PROPIAS DEL RAMO DE HOSTELERÍA, INCLUSO EXPLOTAR ESTABLECIMIENTOS DE DICHO RAMO, DE LA ALIMENTACIÓN, INCLUÍDA LA IMPORTACIÓN, EXPORTACIÓN, DISTRIBUCIÓN Y VENTA, AL POR MAYOR Y AL POR MENOR. L) LA EDICIÓN DE LIBROS Y PUBLICACIONES PERIÓDICAS O UNITARIAS Y LAS ACTIVIDADES DEL RAMO DE LAS ARTES GRÁFICAS; LA PRODUCCIÓN DE PELÍCULAS Y SU COMERCIALIZACIÓN, EXHIBICIÓN Y EXPLOTACIÓN, LA REPRESENTACIÓN DE CREADORES, ARTISTAS MODELOS; Y LA CREACIÓN Y PRODUCCIÓN DE PROGRAMAS PARA LA RADIO, TELEVISIÓN Y CUALQUIER OTRO MEDIO DE DIFUSIÓN GENERAL, Y LA ADQUISICIÓN Y EXPLOTACIÓN E INTERMEDIACIÓN EN SU COMPRAVENTA DE DERECHOS DE PROPIEDAD INTELECTUAL O INDUSTRIAL. M) EL TRANSPORTE DE VIAJEROS Y MERCANCÍAS Y LAS ACTIVIDADES DEL RAMO DE LA AUTOMOCIÓN AÉREA, TERRESTRE Y MARÍTIMA, INCLUÍDA LA INTERMEDIACIÓN Y REPRESENTACIÓN, LA FABRICACIÓN DE COMPONENTES Y ACCESORIOS, LAS TAREAS DE REPARACIÓN Y MANTENIMIENTO Y LA COMPRA, VENTA, IMPORTACIÓN Y EXPORTACIÓN DE VEHÍCULOS, COMPONENTES Y ACCESORIOS. N) LA COMPRAVENTA Y ALQUILER DE TODO TIPO DE MAQUINARIA. O) LA PROMOCIÓN INMOBILIARIA, LA CONSTRUCCIÓN Y OFICIOS PROPIOS DE LA MISMA, LAS INSTALACIONES ELÉCTRICAS  Y DE GAS Y LOS MONTAJES ELÉCTRICOS A CUALQUIER NIVEL (ALTA, MEDIA Y BAJA TENSIÓN); LAS OBRAS PÚBLICAS Y EL URBANISMO; Y EL ASESORAMIENTO A COOPERATIVAS Y COMUNIDADES DE VIVIENDAS EN LAS ACTIVIDADES PROPIAS DE LAS MISMAS Y LA GESTIÓN DE SUS PROMOCIONES Y CONSTRUCCIONES. P) LA ADQUISICIÓN Y LA CESIÓN Y TRANSMISIÓN Y LA EXPLOTACIÓN EN CUALQUIER FORMA LEGAL DE BIENES INMUEBLES RÚSTICOS Y URBANOS Y LAS ACTIVIDADES AGRÍCOLAS Y GANADERAS. Q) LA CREACIÓN, ORGANIZACIÓN Y EXPLOTACIÓN DE ACTIVIDADES CULTURALES, LÚDICAS, EVENTOS, CONGRESOS, SEMINARIOS, FERIAS Y EXPOSICIONES, PERMANENTE U OCASIONALMENTE; LAS ACTIVIDADES DE RELACIONES PÚBLICAS. R) REALIZAR TRABAJOS DE CONSULTORÍA DE TECNOLOGÍAS Y SISTEMAS DE INFORMACIÓN, ASÍ COMO LA PRESTACIÓN DE SERVICIOS DE SOPORTE, MANTENIMIENTO Y DESARROLLO DE SOLUCIONES INTEGRALES DE HARDWARE Y SOFTWARE. ENGLOBADOS EN EL OBJETO SOCIAL DE LA MERCANTIL, SE ENCUENTRAN CUALESQUIERA OTRAS ACTIVIDADES AUXILIARES RELACIONADAS CON LA PRESTACIÓN DE LOS SERVICIOS MENCIONADOS, INCLUYÉNDOSE EXPRESAMENTE LA COMPRA, TOMA EN ARRIENDO, VENTA, CESIÓN EN SUBARRIENDO, IMPORTACIÓN Y EXPORTACIÓN DE MATERIAL INFORMÁTICO. DICHA ACTIVIDAD PODRÁ SER REALIZADA TOTAL O PARCIALMENTE DE FORMA INDIRECTA, MEDIANTE PARTICIPACIÓN EN OTRAS SOCIEDADES CON OBJETO ANÁLOGO",
      "mainEntityOfPage": "https://www.contratacion.euskadi.eus/webkpe00-kperoc/es/ac71aBusquedaRegistrosWar/empresa/05994",
      "_links": {
        "self": {
          "name": "EBSCO INFORMATION SERVICES S.L.U.",
          "href": "https://api.euskadi.eus/procurements/companies/05994"
        }
      }
    },
    {
      "name": "SISTEMAS DE OFICINA DE ALAVA, S.A.",
      "registrationNumber": "05795",
      "identificationNumber": "A01055367",
      "address": "CL Portal de gamarra, nº 23  - pab. A",
      "location": {
        "postalCode": "01013",
        "municipality": "Vitoria-Gasteiz",
        "county": "Araba/Álava",
        "municipalityId": "059",
        "countyId": "01"
      },
      "economicActivities": [
        {
          "id": "1.504.7",
          "name": "Instalaciones telefónicas, telegráficas, televisión, etc",
          "_links": {
            "self": {
              "name": "Instalaciones telefónicas, telegráficas, televisión, etc",
              "href": "https://api.euskadi.eus/procurements/companies/economic-activities/1.504.7"
            }
          }
        },
        {
          "id": "1.659.2",
          "name": "Venta al por menor de muebles de oficina y máquinas y equipos de oficina",
          "_links": {
            "self": {
              "name": "Venta al por menor de muebles de oficina y máquinas y equipos de oficina",
              "href": "https://api.euskadi.eus/procurements/companies/economic-activities/1.659.2"
            }
          }
        },
        {
          "id": "1.691.9",
          "name": "Reparación de otros bienes de consumo n.c.o.p",
          "_links": {
            "self": {
              "name": "Reparación de otros bienes de consumo n.c.o.p",
              "href": "https://api.euskadi.eus/procurements/companies/economic-activities/1.691.9"
            }
          }
        },
        {
          "id": "1.849.9",
          "name": "Otros servicios independientes n.c.o.p",
          "_links": {
            "self": {
              "name": "Otros servicios independientes n.c.o.p",
              "href": "https://api.euskadi.eus/procurements/companies/economic-activities/1.849.9"
            }
          }
        }
      ],
      "certificateStartDate": "2025-09-08",
      "certificateEndDate": "2026-03-08",
      "object": "LA VENTA EN NOMBRE PROPIO O EN COMISIÓN, DE MAQUINARIA EN GENERAL, ESPECIALMENTE DE MÁQUINAS PARA OFICINAS, FOTOGRAFÍA Y VIDEO",
      "mainEntityOfPage": "https://www.contratacion.euskadi.eus/webkpe00-kperoc/es/ac71aBusquedaRegistrosWar/empresa/05795",
      "_links": {
        "self": {
          "name": "SISTEMAS DE OFICINA DE ALAVA, S.A.",
          "href": "https://api.euskadi.eus/procurements/companies/05795"
        }
      }
    },
    {
      "name": "MAITE AGUIRREBEÑA GARITANO",
      "registrationNumber": "09841",
      "identificationNumber": "72583618B",
      "address": "Calle Zarautz (20018) 80, Bajo (URBAMA)",
      "location": {
        "postalCode": "20018",
        "municipality": "Donostia / San Sebastián",
        "county": "Gipuzkoa",
        "municipalityId": "069",
        "countyId": "20"
      },
      "economicActivities": [
        {
          "id": "2.731",
          "name": "Abogados",
          "_links": {
            "self": {
              "name": "Abogados",
              "href": "https://api.euskadi.eus/procurements/companies/economic-activities/2.731"
            }
          }
        }
      ],
      "certificateStartDate": "2025-09-08",
      "certificateEndDate": "2026-03-08",
      "object": "ABOGADOS.",
      "mainEntityOfPage": "https://www.contratacion.euskadi.eus/webkpe00-kperoc/es/ac71aBusquedaRegistrosWar/empresa/09841",
      "_links": {
        "self": {
          "name": "MAITE AGUIRREBEÑA GARITANO",
          "href": "https://api.euskadi.eus/procurements/companies/09841"
        }
      }
    },
    {
      "name": "ANDRES IZA DE LA TORRE",
      "registrationNumber": "08088",
      "identificationNumber": "30687009H",
      "address": "Heros 9 Bajo Izquierda",
      "location": {
        "postalCode": "48009",
        "municipality": "Bilbao",
        "county": "Bizkaia",
        "municipalityId": "020",
        "countyId": "48"
      },
      "economicActivities": [
        {
          "id": "1.832.2",
          "name": "Servicios de tasación y tarificación de seguros",
          "_links": {
            "self": {
              "name": "Servicios de tasación y tarificación de seguros",
              "href": "https://api.euskadi.eus/procurements/companies/economic-activities/1.832.2"
            }
          }
        },
        {
          "id": "2.411",
          "name": "Arquitectos",
          "_links": {
            "self": {
              "name": "Arquitectos",
              "href": "https://api.euskadi.eus/procurements/companies/economic-activities/2.411"
            }
          }
        },
        {
          "id": "2.824",
          "name": "Profesores de formación y perfeccionamiento profesional",
          "_links": {
            "self": {
              "name": "Profesores de formación y perfeccionamiento profesional",
              "href": "https://api.euskadi.eus/procurements/companies/economic-activities/2.824"
            }
          }
        }
      ],
      "certificateStartDate": "2025-09-08",
      "certificateEndDate": "2026-03-08",
      "object": "ARQUITECTOS. SERVICIOS DE TASACIÓN Y TARIFICACIÓN DE SEGUROS.",
      "mainEntityOfPage": "https://www.contratacion.euskadi.eus/webkpe00-kperoc/es/ac71aBusquedaRegistrosWar/empresa/08088",
      "_links": {
        "self": {
          "name": "ANDRES IZA DE LA TORRE",
          "href": "https://api.euskadi.eus/procurements/companies/08088"
        }
      }
    },
    {
      "name": "SERVICIOS INTEGRALES SERVICEX NORTE S.L.",
      "registrationNumber": "05579",
      "identificationNumber": "B01385970",
      "address": "ESKORIATZA, 12",
      "location": {
        "postalCode": "01013",
        "municipality": "Vitoria-Gasteiz",
        "county": "Araba/Álava",
        "municipalityId": "059",
        "countyId": "01"
      },
      "economicActivities": [
        {
          "id": "1.922",
          "name": "Servicios de limpieza",
          "_links": {
            "self": {
              "name": "Servicios de limpieza",
              "href": "https://api.euskadi.eus/procurements/companies/economic-activities/1.922"
            }
          }
        }
      ],
      "certificateStartDate": "2025-09-08",
      "certificateEndDate": "2026-03-08",
      "object": "EL SERVICIO DE LIMPIEZA Y MANTENIMIENTO DE INTERIORES Y EXTERIORES, ASÍ COMO EL MANTENIMIENTO GENERAL DE COMUNIDADES. TRABAJOS Y SERVICIOS RELACIONADOS CON LA ACTIVIDAD CINEMATOGRÁFICA Y AUDIOVISUAL EN LAS SIGUIENTES SECCIONES: PRODUCCIÓN CINEMATOGRÁFICA. IMPORTACIÓN Y/O DISTRIBUCIÓN CINEMATOGRÁFICA. USO Y DISPOSICIÓN DE ESTUDIOS DE RODAJE PROPIOS. USO Y DISPOSICIÓN DE ESTUDIOS DE DOBLAJE PROPIOS. EXPORTACIÓN Y/O DIFUSIÓN DE OBRAS CINEMATOGRÁFICAS. APORTACIÓN DE MEDIOS MATERIALES O TÉCNICOS PARA LA PRODUCCIÓN DE OBRAS CINEMATOGRÁFICAS. PRODUCCIÓN, IMPORTACIÓN O DISTRIBUCIÓN DE OBRAS AUDIOVISUALES EN SOPORTE NO CINEMATOGRÁFICO, DESTINADAS A COMERCIALIZACIÓN NO CINEMATOGRÁFICA. LA ASESORÍA GESTORÍA LABORAL, ALTAS Y BAJAS DE CONTRATOS, SEGUROS SOCIALES, NÓMINAS, FINIQUITOS, TC1 Y TC2. LA ASESORÍA GESTORÍA CONTABLE, ELABORACIÓN DE CONTABILIDAD RESPECTO AL PLAN GENERAL CONTABLE. LA ASESORÍA GESTORÍA FÍSICA, CONFECCIÓN Y TRAMITACIÓN DE TODOS LOS MODELOS FISCALES NECESARIOS Y OBLIGATORIOS PARA SU EMPRESA, 111, 303, 115, 390, 180, 347, IMPUESTO DE SOCIEDADES, IRPF. LA CREACIÓN DE EMPRESAS Y ALTA DE AUTÓNOMOS, EL ASESORAMIENTO EN TODO EL PROCESO DE LA CREACIÓN DE EMPRESAS Y EL ALTA COMO AUTÓNOMO",
      "mainEntityOfPage": "https://www.contratacion.euskadi.eus/webkpe00-kperoc/es/ac71aBusquedaRegistrosWar/empresa/05579",
      "_links": {
        "self": {
          "name": "SERVICIOS INTEGRALES SERVICEX NORTE S.L.",
          "href": "https://api.euskadi.eus/procurements/companies/05579"
        }
      }
    },
    {
      "name": "ANTZERKHIZKUNTZA, S.L.",
      "registrationNumber": "09290",
      "identificationNumber": "B95850806",
      "address": "Calle Don Claudio Gallastegui",
      "location": {
        "postalCode": "48003",
        "municipality": "Bilbao",
        "county": "Bizkaia",
        "municipalityId": "020",
        "countyId": "48"
      },
      "economicActivities": [
        {
          "id": "1.934",
          "name": "Enseñanza fuera de establecimiento permanente",
          "_links": {
            "self": {
              "name": "Enseñanza fuera de establecimiento permanente",
              "href": "https://api.euskadi.eus/procurements/companies/economic-activities/1.934"
            }
          }
        },
        {
          "id": "3.013",
          "name": "Actores de cine y teatro",
          "_links": {
            "self": {
              "name": "Actores de cine y teatro",
              "href": "https://api.euskadi.eus/procurements/companies/economic-activities/3.013"
            }
          }
        }
      ],
      "certificateStartDate": "2025-09-08",
      "certificateEndDate": "2026-03-08",
      "object": "- INNOVACIÓN EDUCATIVA. INVESTIGACIÓN PEDAGÓGICA. LA REALIZACIÓN DE ACTIVIDADES DE FORMACIÓN TANTO EN EL ÁMBITO FORMAL, COMO INFORMAL DE MATERIAS RELACIONADAS CON LAS ARTES ESCÉNICAS, LA DINÁMICA DE GRUPOS, EL AUTOCONOCIMIENTO Y LA DIFUSIÓN DEL EUSKERA, TANTO A ADULTOS COMO A MENORES. LA REALIZACIÓN DE ACTIVIDADES Y LA PRESTACIÓN DE SERVICIOS DIRIGIDOS A LA FORMACIÓN, INSTRUCCIÓN, EDUCACIÓN Y DOCENCIA EN TODOS SUS GRADOS Y CON TODA CLASE DE MATERIALES; LA ENSEÑANZA DE MÉTODOS Y SISTEMAS DE TÉCNICAS DE ESTUDIO; LA REALIZACIÓN DE ORIENTACIONES ESCOLARES Y PROFESIONALES, MEDIANTE LA APLICACIÓN DE TÉCNICAS PEDAGÓGICAS Y PSICOLÓGICAS ADECUADAS; EL DESARROLLO, LA INVESTIGACIÓN, LA DISTRIBUCIÓN Y LA CANALIZACIÓN DE MÉTODOS Y SISTEMAS DE TÉCNICAS DE ESTUDIO Y DE PUBLICACIONES DIDÁCTICAS; LA ORGANIZACIÓN Y PROMOCIÓN DE CURSILLOS DE ESTUDIO, VIAJES DE FORMACIÓN, INTERCAMBIOS CULTURALES, CONFERENCIAS Y SEMINARIOS; Y LA EDUCACIÓN Y FORMACIÓN COMPLEMENTARIA Y OCUPACIONAL DE PERSONAS MEDIANTE CURSOS DE ACTUALIZACIÓN Y RECICLAJE. - ACTIVIDADES PROPIAS DE LA EDUCACIÓN SOCIAL. - CREACIÓN, PRODUCCIÓN Y REALIZACIÓN DE ACTIVIDADES PROPIAS DE LAS ARTES ESCÉNICAS. LA CREACIÓN, PRODUCCIÓN Y DISTRIBUCIÓN DE OBRAS AUDIOVISUALES (PRODUCTORA-DISTRIBUIDORA DE CINE-TEATRO); LA REPRODUCCIÓN Y COMUNICACIÓN PÚBLICA DE DICHAS OBRAS, EN CUALQUIER MEDIO CINEMATOGRÁFICO Y TELEVISIVO; LA DISTRIBUCIÓN EN CUALQUIER FORMATO, INCLUIDA LA EDICIÓN DE SOPORTES GRÁFICOS O LITERARIOS Y MEDIANTE CUALQUIER SISTEMA DE COMERCIALIZACIÓN, DE OBRAS DE TEATRO Y AUDIOVISUALES, INCLUIDO EL ALQUILER Y PRÉSTAMOS DE COPIAS; LA ADAPTACIÓN Y TRANSFORMACIÓN DE OBRAS, ESPECIALMENTE LA SINCRONIZACIÓN DE IMÁGENES, LA TRADUCCIÓN, EL SUBTITULADO Y EL DOBLAJE DE LAS MISMAS. - PROMOTOR DE EVENTOS. PRODUCTOR DE DISCOS. PRODUCTOR DE OBRAS DE TEATRO. PRODUCCIÓN, EDICIÓN Y DISTRIBUCIÓN DE LIBROS EN GENERAL. - COLONIAS DE VERANO Y ORGANIZADOR DE EVENTOS INFANTILES - EXPLOTACIÓN AGRARIA Y GANADERA. - ALOJAMIENTO TURÍSTICO. LA EXPLOTACIÓN, GESTIÓN, CONSULTORÍA Y DESARROLLO DE ACTIVIDADES RELACIONADAS CON LA HOSTELERÍA, HOSPEDAJE, ALOJAMIENTO, ESPARCIMIENTO Y RECREO, INCLUIDAS EN ELLAS ESPECIAL Y EXPRESAMENTE LOS NEGOCIOS DE BAR, CAFETERÍAS, RESTAURANTES, HOTELES, RESIDENCIAS, ASADORES, SALAS DE FIESTAS, DE JUEGOS Y DE REUNIONES. - CREACIÓN Y GESTIÓN DE PÁGINAS WEB, BLOGS, ASÍ COMO FORMACIÓN Y VENTA ON-LINE.",
      "mainEntityOfPage": "https://www.contratacion.euskadi.eus/webkpe00-kperoc/es/ac71aBusquedaRegistrosWar/empresa/09290",
      "_links": {
        "self": {
          "name": "ANTZERKHIZKUNTZA, S.L.",
          "href": "https://api.euskadi.eus/procurements/companies/09290"
        }
      }
    },
    {
      "name": "TALLERES TREBIL, S.L.",
      "registrationNumber": "09553",
      "identificationNumber": "B48554224",
      "address": "Parque empresarial astikene c/errota zaharra 2",
      "location": {
        "postalCode": "48160",
        "municipality": "Derio",
        "county": "Bizkaia",
        "municipalityId": "901",
        "countyId": "48"
      },
      "economicActivities": [
        {
          "id": "1.501.1",
          "name": "Construcción completa, reparación y conservación de edificaciones",
          "_links": {
            "self": {
              "name": "Construcción completa, reparación y conservación de edificaciones",
              "href": "https://api.euskadi.eus/procurements/companies/economic-activities/1.501.1"
            }
          }
        },
        {
          "id": "1.654.5",
          "name": "Venta al por menor de toda clase de maquinaría",
          "_links": {
            "self": {
              "name": "Venta al por menor de toda clase de maquinaría",
              "href": "https://api.euskadi.eus/procurements/companies/economic-activities/1.654.5"
            }
          }
        },
        {
          "id": "1.692",
          "name": "Reparación de maquinaria industrial",
          "_links": {
            "self": {
              "name": "Reparación de maquinaria industrial",
              "href": "https://api.euskadi.eus/procurements/companies/economic-activities/1.692"
            }
          }
        }
      ],
      "certificateStartDate": "2025-09-08",
      "certificateEndDate": "2026-03-08",
      "object": "A) LA COMPRA, VENTA, EXPORTACIÓN, IMPORTACIÓN, REPRESENTACIÓN Y REPARACIÓN DE TODO TIPO DE MAQUINARIA Y MOTORES ELÉCTRICOS, ASÍ COMO DE SUS DIVERSOS COMPUESTOS Y REPUESTOS. B) LA CONTRATACIÓN Y EJECUCIÓN POR CUENTA PROPIA O DE TERCEROS, DE TODA CLASE DE OBRAS PÚBLICAS, CIVIL Y PRIVADA, CUALQUIERA QUE SEA EL SISTEMA, FORMA Y MATERIALES UTILIZADOS, MEDIANTE SUBASTA, CONCURSOS O ADJUDICACIONES DIRECTAS. C) LA PROMOCIÓN Y EJECUCIÓN DIRECTA O POR MEDIO DE SUBCONTRATISTAS, COMPLETA O POR RAMOS, DE TODA CLASE DE OBRAS DE CONSTRUCCIÓN, REPARACIÓN, MANTENIMIENTO O CONSERVACIÓN, POR CUENTA PROPIA O AJENA. D) LA COMPRAVENTA Y ALQUILER DE TERRENOS RÚSTICOS Y URBANOS, DE EDIFICACIONES EN SU TOTALIDAD, POR PARTES O POR PISOS, BIEN DE VIVIENDAS, LOCALES INDUSTRIALES, DE OFICINAS, APARCAMIENTOS, GARAJES, CONSTRUIDAS O NO PARA TAL FIN; PROCEDER A LA CONSTRUCCIÓN DE EDIFICACIONES EN GENERAL, BIEN DIRECTAMENTE O POR MEDIO DE SUBCONTRATISTAS O DESTAJISTAS. E) LA PRESTACIÓN DE TODO TIPO DE SERVICIOS DE CONSERVACIÓN Y MANTENIMIENTO DE BIENES INMUEBLES. F) LA PRESTACIÓN DE TODO TIPO DE SERVICIOS DE MANTENIMIENTO Y REPARACIÓN DE EQUIPOS E INSTALACIONES ELÉCTRICAS Y ELECTRÓNICAS; DE EQUIPOS E INSTALACIONES DE FONTANERÍA Y CONDUCCIONES DE AGUA Y GAS; DE EQUIPOS E INSTALACIONES DE CALEFACCIÓN Y AIRE ACONDICIONADO; DE EQUIPOS E INSTALACIONES DE TELECOMUNICACIÓN; DE EQUIPOS E INSTALACIONES DE SEGURIDAD Y CONTRA INCENDIOS; Y DE EQUIPOS E INSTALACIONES DE APARATOS ELEVADORES Y DE TRASLACIÓN HORIZONTAL. G) LA PRESTACIÓN DE TODO TIPO DE SERVICIOS DE MANTENIMIENTO Y REPARACIÓN DE MAQUINARIA.",
      "mainEntityOfPage": "https://www.contratacion.euskadi.eus/webkpe00-kperoc/es/ac71aBusquedaRegistrosWar/empresa/09553",
      "_links": {
        "self": {
          "name": "TALLERES TREBIL, S.L.",
          "href": "https://api.euskadi.eus/procurements/companies/09553"
        }
      }
    },
    {
      "name": "GORKA RUIZ DE EGUILAZ HERNANDEZ",
      "registrationNumber": "09560",
      "identificationNumber": "72490751H",
      "address": "CALLE DE ZARAUTZ, 124-8º A",
      "location": {
        "postalCode": "20018",
        "municipality": "Donostia / San Sebastián",
        "county": "Gipuzkoa",
        "municipalityId": "069",
        "countyId": "20"
      },
      "economicActivities": [
        {
          "id": "1.504.3",
          "name": "Instalaciones de frío, calor y acondicionamiento de aire",
          "_links": {
            "self": {
              "name": "Instalaciones de frío, calor y acondicionamiento de aire",
              "href": "https://api.euskadi.eus/procurements/companies/economic-activities/1.504.3"
            }
          }
        }
      ],
      "certificateStartDate": "2025-09-08",
      "certificateEndDate": "2026-03-08",
      "object": "INSTALACIONES DE FRÍO, CALOR Y ACONDICIONAMIENTO DE AIRE.",
      "mainEntityOfPage": "https://www.contratacion.euskadi.eus/webkpe00-kperoc/es/ac71aBusquedaRegistrosWar/empresa/09560",
      "_links": {
        "self": {
          "name": "GORKA RUIZ DE EGUILAZ HERNANDEZ",
          "href": "https://api.euskadi.eus/procurements/companies/09560"
        }
      }
    }
  ]
}