{
  "totalItems": 9042,
  "totalPages": 905,
  "currentPage": 490,
  "itemsOfPage": 10,
  "items": [
    {
      "name": "EDURNE OTXOA DE ALDA LUZURIAGA",
      "registrationNumber": "06723",
      "identificationNumber": "44677273A",
      "address": "Barrio La Landa, 20A",
      "location": {
        "postalCode": "01520",
        "municipality": "Arratzua-Ubarrundia",
        "county": "Araba/Álava",
        "municipalityId": "008",
        "countyId": "01"
      },
      "economicActivities": [
        {
          "id": "2.411",
          "name": "Arquitectos",
          "_links": {
            "self": {
              "name": "Arquitectos",
              "href": "https://api.euskadi.eus/procurements/companies/economic-activities/2.411"
            }
          }
        }
      ],
      "certificateStartDate": "2022-08-07",
      "certificateEndDate": "2023-02-07",
      "object": "ARQUITECTO",
      "mainEntityOfPage": "https://www.contratacion.euskadi.eus/webkpe00-kperoc/es/ac71aBusquedaRegistrosWar/empresa/06723",
      "_links": {
        "self": {
          "name": "EDURNE OTXOA DE ALDA LUZURIAGA",
          "href": "https://api.euskadi.eus/procurements/companies/06723"
        }
      }
    },
    {
      "name": "MIRANDAOLA SERVICIOS MEDIOAMBIENTALES, S.L.",
      "registrationNumber": "04418",
      "identificationNumber": "B20553087",
      "address": "LATXARTEGI 6, ENTRPLANTA DCHA",
      "location": {
        "postalCode": "20230",
        "municipality": "Legazpi",
        "county": "Gipuzkoa",
        "municipalityId": "051",
        "countyId": "20"
      },
      "economicActivities": [
        {
          "id": "1.843.9",
          "name": "Otros servicios técnicos n.c.o.p",
          "_links": {
            "self": {
              "name": "Otros servicios técnicos n.c.o.p",
              "href": "https://api.euskadi.eus/procurements/companies/economic-activities/1.843.9"
            }
          }
        },
        {
          "id": "1.932.2",
          "name": "Enseñanza de formación y perfeccionamiento profesional superior",
          "_links": {
            "self": {
              "name": "Enseñanza de formación y perfeccionamiento profesional superior",
              "href": "https://api.euskadi.eus/procurements/companies/economic-activities/1.932.2"
            }
          }
        }
      ],
      "certificateStartDate": "2022-08-05",
      "certificateEndDate": "2023-02-05",
      "object": "LA ASESORÍA, CONSULTORÍA, AUDITORÍA Y TRAMITACIONES SOBRE TEMAS Y ASUNTOS MEDIOAMBIENTALES Y LA COMPRAVENTA Y ARRENDAMIENTO DE BIENES INMUEBLES.",
      "mainEntityOfPage": "https://www.contratacion.euskadi.eus/webkpe00-kperoc/es/ac71aBusquedaRegistrosWar/empresa/04418",
      "_links": {
        "self": {
          "name": "MIRANDAOLA SERVICIOS MEDIOAMBIENTALES, S.L.",
          "href": "https://api.euskadi.eus/procurements/companies/04418"
        }
      }
    },
    {
      "name": "TECHNOLOGY 2050, S.L",
      "registrationNumber": "06472",
      "identificationNumber": "B66071143",
      "address": "C/LLEIDA, 63",
      "location": {
        "postalCode": "08711",
        "municipality": "Òdena",
        "county": "Barcelona",
        "municipalityId": "143",
        "countyId": "08"
      },
      "economicActivities": [
        {
          "id": "1.619.2",
          "name": "Venta al por mayor de aparatos e instrumentos médicos, ortopédicos, ópticos",
          "_links": {
            "self": {
              "name": "Venta al por mayor de aparatos e instrumentos médicos, ortopédicos, ópticos",
              "href": "https://api.euskadi.eus/procurements/companies/economic-activities/1.619.2"
            }
          }
        },
        {
          "id": "1.631",
          "name": "Intermediarios del comercio",
          "_links": {
            "self": {
              "name": "Intermediarios del comercio",
              "href": "https://api.euskadi.eus/procurements/companies/economic-activities/1.631"
            }
          }
        },
        {
          "id": "1.933.1",
          "name": "Enseñanza de conducción de vehículos terrestres, acuáticos, etc",
          "_links": {
            "self": {
              "name": "Enseñanza de conducción de vehículos terrestres, acuáticos, etc",
              "href": "https://api.euskadi.eus/procurements/companies/economic-activities/1.933.1"
            }
          }
        },
        {
          "id": "1.934",
          "name": "Enseñanza fuera de establecimiento permanente",
          "_links": {
            "self": {
              "name": "Enseñanza fuera de establecimiento permanente",
              "href": "https://api.euskadi.eus/procurements/companies/economic-activities/1.934"
            }
          }
        }
      ],
      "certificateStartDate": "2022-08-05",
      "certificateEndDate": "2023-02-05",
      "object": "CONSTRUCCIÓN, INSTALACIONES Y MANTENIMIENTO. COMERCIO AL POR MAYOR Y AL POR MENOR. DISTRIBUCIÓN COMERCIAL. IMPORTACIÓN Y EXPORTACIÓN. ACTIVIDADES INMOBILIARIAS. ACTIVIDADES PROFESIONALES. TURISMO, HOSTELERÍA Y RESTAURACIÓN. PRESTACIÓN DE SERVICIOS. ACTIVIDADES DE GESTIÓN Y ADMINISTRACIÓN. SERVICIOS EDUCATIVOS, SANITARIOS, DE OCIO Y ENTRETENIMIENTO. TRANSPORTE Y ALMACENAMIENTO. INFORMACIÓN Y COMUNICACIONES. INFORMÁTICA, TELECOMUNICACIONES Y OFIMÁTICA. ENERGÍAS ALTERNATIVAS. COMPRAVENTA Y REPARACIÓN DE VEHÍCULOS. REPARACIÓN Y MANTENIMIENTO DE INSTALACIONES Y MAQUINARÍA. INVESTIGACIÓN, DESARROLLO E INNOVACIÓN. ACTIVIDADES CIENTÍFICAS Y TÉCNICAS",
      "mainEntityOfPage": "https://www.contratacion.euskadi.eus/webkpe00-kperoc/es/ac71aBusquedaRegistrosWar/empresa/06472",
      "_links": {
        "self": {
          "name": "TECHNOLOGY 2050, S.L",
          "href": "https://api.euskadi.eus/procurements/companies/06472"
        }
      }
    },
    {
      "name": "DYNAMOBEL, S.A.",
      "registrationNumber": "06869",
      "identificationNumber": "A31007107",
      "address": "Ctra. de Madrid, km. 24",
      "location": {
        "postalCode": "31350",
        "municipality": "Peralta/Azkoien",
        "county": "Navarra",
        "municipalityId": "202",
        "countyId": "31"
      },
      "economicActivities": [
        {
          "id": "1.314.1",
          "name": "Carpintería metálica",
          "_links": {
            "self": {
              "name": "Carpintería metálica",
              "href": "https://api.euskadi.eus/procurements/companies/economic-activities/1.314.1"
            }
          }
        },
        {
          "id": "1.316.6",
          "name": "Fabricación de mobiliario metálico",
          "_links": {
            "self": {
              "name": "Fabricación de mobiliario metálico",
              "href": "https://api.euskadi.eus/procurements/companies/economic-activities/1.316.6"
            }
          }
        }
      ],
      "certificateStartDate": "2022-08-04",
      "certificateEndDate": "2022-12-30",
      "object": "EL DESARROLLO DE TODAS LAS ACTIVIDADES RELACIONADAS, DIRECTA O INDIRECTAMENTE, CON EL RAMO DE LA CONSTRUCCIÓN, VENTA Y COMERCIALIZACIÓN DE MUEBLES DE CUALQUIER CLASE, SOBRE TODO MOBILIARIO ESCOLAR, DE CAMPING, TERRAZA, BAR, DOMÉSTICOS, ETCÉTERA",
      "mainEntityOfPage": "https://www.contratacion.euskadi.eus/webkpe00-kperoc/es/ac71aBusquedaRegistrosWar/empresa/06869",
      "_links": {
        "self": {
          "name": "DYNAMOBEL, S.A.",
          "href": "https://api.euskadi.eus/procurements/companies/06869"
        }
      }
    },
    {
      "name": "KRIC KRAC SOINU TA ARGIAK. S.L.",
      "registrationNumber": "03641",
      "identificationNumber": "B48980312",
      "address": "GRUPO GASTELUONDO Nº 5",
      "location": {
        "postalCode": "48002",
        "municipality": "Bilbao",
        "county": "Bizkaia",
        "municipalityId": "020",
        "countyId": "48"
      },
      "economicActivities": [
        {
          "id": "1.856.1",
          "name": "Alquiler de bienes de consumo",
          "_links": {
            "self": {
              "name": "Alquiler de bienes de consumo",
              "href": "https://api.euskadi.eus/procurements/companies/economic-activities/1.856.1"
            }
          }
        }
      ],
      "certificateStartDate": "2022-08-04",
      "certificateEndDate": "2023-02-04",
      "object": "EL ALQUILER DE EQUIPOS DE SONIDO E ILUMINACIÓN, CONTRATACIÓN Y SUBCONTRATACIÓN DE SERVICIOS DE SONIDO E ILUMINACIÓN, COMPRAVENTA, IMPORTACIÓN Y EXPORTACIÓN DE ELEMENTOS NECESARIOS PARA LA REALIZACIÓN DE EQUIPOS DE SONIDO E ILUMINACIÓN",
      "mainEntityOfPage": "https://www.contratacion.euskadi.eus/webkpe00-kperoc/es/ac71aBusquedaRegistrosWar/empresa/03641",
      "_links": {
        "self": {
          "name": "KRIC KRAC SOINU TA ARGIAK. S.L.",
          "href": "https://api.euskadi.eus/procurements/companies/03641"
        }
      }
    },
    {
      "name": "CENTRO DISTRIBUCIÓN MATERIAL MÉDICO QUIRÚRGICO Y GERIÁTRICO ROANSA, S.L.",
      "registrationNumber": "07358",
      "identificationNumber": "B11865912",
      "address": "Calle de la minería 16",
      "location": {
        "postalCode": "11407",
        "municipality": "Jerez de la Frontera",
        "county": "Cádiz",
        "municipalityId": "020",
        "countyId": "11"
      },
      "economicActivities": [
        {
          "id": "1.614.2",
          "name": "Venta al por mayor de productos de perfumería, droguería, higiene y belleza",
          "_links": {
            "self": {
              "name": "Venta al por mayor de productos de perfumería, droguería, higiene y belleza",
              "href": "https://api.euskadi.eus/procurements/companies/economic-activities/1.614.2"
            }
          }
        },
        {
          "id": "1.619.2",
          "name": "Venta al por mayor de aparatos e instrumentos médicos, ortopédicos, ópticos",
          "_links": {
            "self": {
              "name": "Venta al por mayor de aparatos e instrumentos médicos, ortopédicos, ópticos",
              "href": "https://api.euskadi.eus/procurements/companies/economic-activities/1.619.2"
            }
          }
        },
        {
          "id": "1.619.5",
          "name": "Venta al por mayor de artículos de papelería y escritorios",
          "_links": {
            "self": {
              "name": "Venta al por mayor de artículos de papelería y escritorios",
              "href": "https://api.euskadi.eus/procurements/companies/economic-activities/1.619.5"
            }
          }
        }
      ],
      "certificateStartDate": "2022-08-04",
      "certificateEndDate": "2023-01-28",
      "object": "VENTA Y DISTRIBUCIÓN DE MATERIAL MÉDICO, QUIRÚRGICO Y GERIÁTRICO",
      "mainEntityOfPage": "https://www.contratacion.euskadi.eus/webkpe00-kperoc/es/ac71aBusquedaRegistrosWar/empresa/07358",
      "_links": {
        "self": {
          "name": "CENTRO DISTRIBUCIÓN MATERIAL MÉDICO QUIRÚRGICO Y GERIÁTRICO ROANSA, S.L.",
          "href": "https://api.euskadi.eus/procurements/companies/07358"
        }
      }
    },
    {
      "name": "TERRITORIO Y MEDIO AMBIENTE, S.A.",
      "registrationNumber": "08122",
      "identificationNumber": "A58153008",
      "address": "C/ Numancia, 36",
      "location": {
        "postalCode": "08029",
        "municipality": "Barcelona",
        "county": "Barcelona",
        "municipalityId": "019",
        "countyId": "08"
      },
      "economicActivities": [
        {
          "id": "1.843.1",
          "name": "Servicios técnicos de ingeniería",
          "_links": {
            "self": {
              "name": "Servicios técnicos de ingeniería",
              "href": "https://api.euskadi.eus/procurements/companies/economic-activities/1.843.1"
            }
          }
        }
      ],
      "certificateStartDate": "2022-08-03",
      "certificateEndDate": "2023-01-27",
      "object": "A) LA PROMOCIÓN, ELABORACIÓN, VENTA DE ESTUDIOS DE RIESGOS Y DE SEGURIDAD EN TODO EL TERRITORIO NACIONAL CERCA DE TODOS LOS ENTES PÚBLICOS Y PRIVADOS INTERESADOS O CONCERNIDOS POR ESTOS TEMAS, INCLUYENDO TODO EL MARKETING NECESARIO PARA LA DIVULGACIÓN DE ESTAS TÉCNICAS ENTRE CLIENTES POTENCIALES. B) LA COMPRA-VENTA DISTRIBUCIÓN Y COMERCIALIZACIÓN DE TODA CLASE DE PRODUCTOS Y EQUIPOS QUE PUEDAN INCORPORARSE EN PROCESOS INDUSTRIALES, MEDIOS DE LOCOMOCIÓN EDIFICIOS DE TODO TIPO, PARQUE DE ALMACENAMIENTO DE PRODUCTOS QUÍMICOS Y PETROQUÍMICOS, ETC. PARA MEJORAR SU SEGURIDAD O REDUCIR EL RIESGO QUE PUEDAN COMPORTAR FRENTE A TERCEROS, POR CAUSA DE ACCIDENTES EN SU OPERACIÓN, MONTAJE, DESMONTAJE, ETC. C) LA REPRESENTACIÓN DE FIRMAS OPERANDO EN EL CAMPO DE SEGURIDAD EN GENERAL Y DEL ANÁLISIS DE RIESGOS EN PARTICULAR, PARA LA DISTRIBUCIÓN Y COMERCIALIZACIÓN DE SUS PRODUCTOS, TECNOLOGÍAS Y SISTEMAS EN EL MERCADO NACIONAL. D) LA COMPRA-VENTA, DISTRIBUCIÓN Y COMERCIALIZACIÓN DEL MATERIAL DENOMINADO HARDWARE Y SOFTWARE A QUE ESTE FACULTADA POR LAS EMPRESAS REPRESENTADAS O QUE SEAN DE ELABORACIÓN PROPIA. E) TOMAR PARTICIPACIÓN EN BANCOS DE DATOS INFORMÁTICOS, ORGANIZACIONES NACIONALES E INTERNACIONALES QUE SE DEDIQUEN AL CONTROL, DIFUSIÓN, RECOPILACIÓN DE LAS TÉCNICAS DE ANÁLISIS DE RIESGOS Y DE SEGURIDAD EN GENERAL. LA ESPECÍFICA ENUNCIACIÓN DE LAS ACTIVIDADES QUE CONSTITUYEN LOS FINES SOCIALES NO IMPLICAN EN FORMA ALGUNA LA OBLIGATORIEDAD DE SU EJERCICIO, CONJUNTO O SIMULTÁNEO, SINO QUE EN TODO MOMENTO Y ATENDIDAS LAS CIRCUNSTANCIAS SE DESENVOLVERÁN DURANTE EL TIEMPO Y EN LA FORMA QUE ACUERDE EL O LOS ADMINISTRADORES O EL CONSEJO DE ADMINISTRACIÓN. SERÁ TAMBIÉN OBJETO DE LA SOCIEDAD LA REALIZACIÓN DE CUALESQUIERA OTRAS ACTIVIDADES QUE ACUERDE VÁLIDAMENTE LA JUNTA GENERAL Y SE INSCRIBAN EN EL REGISTRO MERCANTIL.",
      "mainEntityOfPage": "https://www.contratacion.euskadi.eus/webkpe00-kperoc/es/ac71aBusquedaRegistrosWar/empresa/08122",
      "_links": {
        "self": {
          "name": "TERRITORIO Y MEDIO AMBIENTE, S.A.",
          "href": "https://api.euskadi.eus/procurements/companies/08122"
        }
      }
    },
    {
      "name": "DEPORSA SERVICIOS Y ACTIVIDADES EDUCATIVAS Y DEPORTIVAS, S.L.",
      "registrationNumber": "08123",
      "identificationNumber": "B23682792",
      "address": "C/ JUAN XXIII S/N, BLOQUE 2, BAJO B",
      "location": {
        "postalCode": "23640",
        "municipality": "Torredelcampo",
        "county": "Jaén",
        "municipalityId": "086",
        "countyId": "23"
      },
      "economicActivities": [
        {
          "id": "1.911",
          "name": "Servicios agrícolas y ganaderos",
          "_links": {
            "self": {
              "name": "Servicios agrícolas y ganaderos",
              "href": "https://api.euskadi.eus/procurements/companies/economic-activities/1.911"
            }
          }
        },
        {
          "id": "1.933.9",
          "name": "Otras actividades de enseñanza tales como idiomas, mecanografía",
          "_links": {
            "self": {
              "name": "Otras actividades de enseñanza tales como idiomas, mecanografía",
              "href": "https://api.euskadi.eus/procurements/companies/economic-activities/1.933.9"
            }
          }
        },
        {
          "id": "1.967.1",
          "name": "Instalaciones deportivas",
          "_links": {
            "self": {
              "name": "Instalaciones deportivas",
              "href": "https://api.euskadi.eus/procurements/companies/economic-activities/1.967.1"
            }
          }
        }
      ],
      "certificateStartDate": "2022-08-03",
      "certificateEndDate": "2023-01-27",
      "object": "LA ORGANIZACIÓN, GESTIÓN Y PRESTACIÓN DE SERVICIOS Y ACTIVIDADES DEPORTIVAS TERRESTRE, ACUÁTICAS Y DE OCIO PARA NIÑOS, ADULTOS, ANCIANOS Y DISMINUIDOS FÍSICOS Y PSÍQUICOS. FORMACIÓN Y ENSEÑANZA PRESENCIAL Y A DISTANCIA. SERVICIOS RECREATIVOS Y CULTURALES. MANTENIMIENTO Y GESTIÓN DE PISCINAS. SOCORRISMO Y CURSOS DE NATACIÓN. ASISTENCIA Y SERVICIOS SOCIALES. SERVICIOS EDUCATIVOS Y ACTIVIDADES EXTRAESCOLARES. VENTA Y DISTRIBUCIÓN DE MATERIAL Y PRUEBAS DEPORTIVAS.",
      "mainEntityOfPage": "https://www.contratacion.euskadi.eus/webkpe00-kperoc/es/ac71aBusquedaRegistrosWar/empresa/08123",
      "_links": {
        "self": {
          "name": "DEPORSA SERVICIOS Y ACTIVIDADES EDUCATIVAS Y DEPORTIVAS, S.L.",
          "href": "https://api.euskadi.eus/procurements/companies/08123"
        }
      }
    },
    {
      "name": "INGEPLAN CONSULTING, S.L.",
      "registrationNumber": "04425",
      "identificationNumber": "B95557468",
      "address": "IPARRAGUIRRE 34",
      "location": {
        "postalCode": "48011",
        "municipality": "Bilbao",
        "county": "Bizkaia",
        "municipalityId": "020",
        "countyId": "48"
      },
      "economicActivities": [
        {
          "id": "1.843.1",
          "name": "Servicios técnicos de ingeniería",
          "_links": {
            "self": {
              "name": "Servicios técnicos de ingeniería",
              "href": "https://api.euskadi.eus/procurements/companies/economic-activities/1.843.1"
            }
          }
        }
      ],
      "certificateStartDate": "2022-08-03",
      "certificateEndDate": "2023-01-27",
      "object": "LA PRESTACIÓN DE SERVICIOS, ELABORACIÓN DE ESTUDIOS, ASESORAMIENTO, DIRECCIÓN Y GESTIÓN DE PROYECTOS (PROJET MANAGEMENT), EN MATERIA DE INGENIERÍA, INFRAESTRUCTURA, LOGÍSTICA, INSTALACIONES INDUSTRIALES, URBANAS, PORTUARIAS, AEROPORTUARIAS, ENERGETICAS, DE ARQUITECTURA Y CONSTRUCCIÓN DE OBRA CIVIL Y OBRA PÚBLICA, EDIFICACIÓN CARTOGRAFÍA, GEOTECNICA, CONSTRUCCIÓN Y PROMOCION INMOBILIARIA",
      "mainEntityOfPage": "https://www.contratacion.euskadi.eus/webkpe00-kperoc/es/ac71aBusquedaRegistrosWar/empresa/04425",
      "_links": {
        "self": {
          "name": "INGEPLAN CONSULTING, S.L.",
          "href": "https://api.euskadi.eus/procurements/companies/04425"
        }
      }
    },
    {
      "name": "IRARU JARDINERIA, S.L.",
      "registrationNumber": "08062",
      "identificationNumber": "B01566116",
      "address": "Calle Uribea",
      "location": {
        "postalCode": "01520",
        "municipality": "Arratzua-Ubarrundia",
        "county": "Araba/Álava",
        "municipalityId": "008",
        "countyId": "01"
      },
      "economicActivities": [
        {
          "id": "1.911",
          "name": "Servicios agrícolas y ganaderos",
          "_links": {
            "self": {
              "name": "Servicios agrícolas y ganaderos",
              "href": "https://api.euskadi.eus/procurements/companies/economic-activities/1.911"
            }
          }
        }
      ],
      "certificateStartDate": "2022-08-03",
      "certificateEndDate": "2023-01-03",
      "object": "LA REALIZACIÓN DE TRABAJOS, PROYECTOS Y ESTUDIOS DE INGENIERÍA AGRÍCOLA, DISEÑO DE JARDINES, REALIZACIÓN DE TRATAMIENTOS, PODAS, PLANTACIÓN Y TODO LO RELACIONADO CON TRABAJOS DE JARDINERÍA.",
      "mainEntityOfPage": "https://www.contratacion.euskadi.eus/webkpe00-kperoc/es/ac71aBusquedaRegistrosWar/empresa/08062",
      "_links": {
        "self": {
          "name": "IRARU JARDINERIA, S.L.",
          "href": "https://api.euskadi.eus/procurements/companies/08062"
        }
      }
    }
  ]
}