{
  "totalItems": 9042,
  "totalPages": 905,
  "currentPage": 232,
  "itemsOfPage": 10,
  "items": [
    {
      "name": "TRABIO, S.L.",
      "registrationNumber": "09349",
      "identificationNumber": "B48506612",
      "address": "Calle Jon Arrospide 11 (48014)",
      "location": {
        "postalCode": "48014",
        "municipality": "Bilbao",
        "county": "Bizkaia",
        "municipalityId": "020",
        "countyId": "48"
      },
      "economicActivities": [
        {
          "id": "1.616.6",
          "name": "Venta al por mayor de productos químicos industriales",
          "_links": {
            "self": {
              "name": "Venta al por mayor de productos químicos industriales",
              "href": "https://api.euskadi.eus/procurements/companies/economic-activities/1.616.6"
            }
          }
        },
        {
          "id": "1.921.3",
          "name": "Exterminio de animales dañinos y desinfección",
          "_links": {
            "self": {
              "name": "Exterminio de animales dañinos y desinfección",
              "href": "https://api.euskadi.eus/procurements/companies/economic-activities/1.921.3"
            }
          }
        }
      ],
      "certificateStartDate": "2025-10-06",
      "certificateEndDate": "2026-04-06",
      "object": "LA VENTA AL POR MAYOR DE PRODUCTOS BIOLÓGICOS, Y LIMPIEZA Y TRATAMIENTO DE LOS MISMOS",
      "mainEntityOfPage": "https://www.contratacion.euskadi.eus/webkpe00-kperoc/es/ac71aBusquedaRegistrosWar/empresa/09349",
      "_links": {
        "self": {
          "name": "TRABIO, S.L.",
          "href": "https://api.euskadi.eus/procurements/companies/09349"
        }
      }
    },
    {
      "name": "TRAINERA SUMINISTROS DE PAPELERIA, S.L.",
      "registrationNumber": "03471",
      "identificationNumber": "B95188926",
      "address": "POL UGALDEGUREN I PARC. 4 SEC. IV",
      "location": {
        "postalCode": "48160",
        "municipality": "Derio",
        "county": "Bizkaia",
        "municipalityId": "901",
        "countyId": "48"
      },
      "economicActivities": [
        {
          "id": "1.619.5",
          "name": "Venta al por mayor de artículos de papelería y escritorios",
          "_links": {
            "self": {
              "name": "Venta al por mayor de artículos de papelería y escritorios",
              "href": "https://api.euskadi.eus/procurements/companies/economic-activities/1.619.5"
            }
          }
        },
        {
          "id": "1.861.2",
          "name": "Alquiler de locales industriales y otros alquileres n.c.o.p",
          "_links": {
            "self": {
              "name": "Alquiler de locales industriales y otros alquileres n.c.o.p",
              "href": "https://api.euskadi.eus/procurements/companies/economic-activities/1.861.2"
            }
          }
        }
      ],
      "certificateStartDate": "2025-10-06",
      "certificateEndDate": "2026-04-06",
      "object": "LA VENTA, MANIPULACIÓN Y DISTRIBUCIÓN DE PRODUCTOS DE PAPEL, CARPETERÍA, OBJETOS DE ESCRITORIO Y PAPELERÍA EN GENERAL, ORDENADORES Y PERIFÉRICOS ASÍ COMO SUS CONSUMIBLES, MUEBLES DE OFICINA, JUGUETES, JUGUETES EDUCATIVOS. LA PRESTACIÓN DE SERVICIOS DE INTERMEDIACIÓN EN LA COMPRA Y VENTA, Y LA COMPRA Y VENTA, EN AMBOS CASOS DE CUALESQUIERA TIPO DE MERCANCÍAS ADQUIRIDAS A EMPRESAS RADICADAS FUERA DEL TERRITORIO ESPAÑOL. LA PRESTACIÓN DE SERVICIOS DE ALMACENAMIENTO, DISTRIBUCIÓN Y LOGÍSTICA EN GENERAL, DE TODO TIPO DE MERCANCÍAS",
      "mainEntityOfPage": "https://www.contratacion.euskadi.eus/webkpe00-kperoc/es/ac71aBusquedaRegistrosWar/empresa/03471",
      "_links": {
        "self": {
          "name": "TRAINERA SUMINISTROS DE PAPELERIA, S.L.",
          "href": "https://api.euskadi.eus/procurements/companies/03471"
        }
      }
    },
    {
      "name": "VINILOS DEL ESTE, S.L.",
      "registrationNumber": "09337",
      "identificationNumber": "B98395155",
      "address": "CTRA. BENETÚSSER A PAIPORTA KM-1",
      "location": {
        "postalCode": "46200",
        "municipality": "Paiporta",
        "county": "Valencia/València",
        "municipalityId": "186",
        "countyId": "46"
      },
      "economicActivities": [
        {
          "id": "1.482.1",
          "name": "Fabricación de productos semielaborados de materias plásticas",
          "_links": {
            "self": {
              "name": "Fabricación de productos semielaborados de materias plásticas",
              "href": "https://api.euskadi.eus/procurements/companies/economic-activities/1.482.1"
            }
          }
        }
      ],
      "certificateStartDate": "2025-10-06",
      "certificateEndDate": "2026-04-06",
      "object": "LA FABRICACIÓN Y VENTA DE AUTOADHESIVOS, FILM DE PVC RÍGIDO, SEMIRÍGIDO Y PLASTIFICADO, POR MÉTODO DE CALANDRADO O CUALQUIER OTRO; LA ESTAMPACIÓN DE SUPERFICIES DECORATIVAS UTILIZANDO FILM DE PVC, TELA, PAPEL Y MATERIALES ANÁLOGOS, Y LA VENTA DE LOS MANUFACTURADOS PRODUCIDOS.",
      "mainEntityOfPage": "https://www.contratacion.euskadi.eus/webkpe00-kperoc/es/ac71aBusquedaRegistrosWar/empresa/09337",
      "_links": {
        "self": {
          "name": "VINILOS DEL ESTE, S.L.",
          "href": "https://api.euskadi.eus/procurements/companies/09337"
        }
      }
    },
    {
      "name": "MEDCOM TECH, S.A.",
      "registrationNumber": "03570",
      "identificationNumber": "A83015370",
      "address": "C/ San Rafael 1, Portal 2, Planta Baja Local C",
      "location": {
        "postalCode": "28108",
        "municipality": "Alcobendas",
        "county": "Madrid",
        "municipalityId": "006",
        "countyId": "28"
      },
      "economicActivities": [
        {
          "id": "1.619.2",
          "name": "Venta al por mayor de aparatos e instrumentos médicos, ortopédicos, ópticos",
          "_links": {
            "self": {
              "name": "Venta al por mayor de aparatos e instrumentos médicos, ortopédicos, ópticos",
              "href": "https://api.euskadi.eus/procurements/companies/economic-activities/1.619.2"
            }
          }
        }
      ],
      "certificateStartDate": "2025-10-06",
      "certificateEndDate": "2026-04-06",
      "object": "EL ASESORAMIENTO, INTERMEDIACIÓN, FABRICACIÓN Y COMERCIO AL POR MENOR Y AL POR MAYOR DE APARATOS E INSTRUMENTOS MÉDICO-QUIRÚRGICOS DE TODAS CLASES",
      "mainEntityOfPage": "https://www.contratacion.euskadi.eus/webkpe00-kperoc/es/ac71aBusquedaRegistrosWar/empresa/03570",
      "_links": {
        "self": {
          "name": "MEDCOM TECH, S.A.",
          "href": "https://api.euskadi.eus/procurements/companies/03570"
        }
      }
    },
    {
      "name": "GERIATRICO LOREAK, S.L.",
      "registrationNumber": "08634",
      "identificationNumber": "B48558241",
      "address": "Calle Novia Salcedo Nº30 Piso 3",
      "location": {
        "postalCode": "48012",
        "municipality": "Bilbao",
        "county": "Bizkaia",
        "municipalityId": "020",
        "countyId": "48"
      },
      "economicActivities": [
        {
          "id": "1.951",
          "name": "Asistencia y servicios sociales en centros residenciales",
          "_links": {
            "self": {
              "name": "Asistencia y servicios sociales en centros residenciales",
              "href": "https://api.euskadi.eus/procurements/companies/economic-activities/1.951"
            }
          }
        }
      ],
      "certificateStartDate": "2025-10-06",
      "certificateEndDate": "2026-04-06",
      "object": "LA PRESTACIÓN DE SERVICIOS DE ASISTENCIA DE TODA CLASE, Y ALOJAMIENTO, EN CENTROS RESIDENCIALES, PARA ANCIANOS Y DISMINUIDOS FÍSICOS, CON CARÁCTER GENERAL.",
      "mainEntityOfPage": "https://www.contratacion.euskadi.eus/webkpe00-kperoc/es/ac71aBusquedaRegistrosWar/empresa/08634",
      "_links": {
        "self": {
          "name": "GERIATRICO LOREAK, S.L.",
          "href": "https://api.euskadi.eus/procurements/companies/08634"
        }
      }
    },
    {
      "name": "S.T.R.2000 TRATAMIENTO DE RESIDUOS SL",
      "registrationNumber": "09072",
      "identificationNumber": "B20473930",
      "address": "POLIGONO IBAIONDO 16",
      "location": {
        "postalCode": "20120",
        "municipality": "Hernani",
        "county": "Gipuzkoa",
        "municipalityId": "040",
        "countyId": "20"
      },
      "economicActivities": [
        {
          "id": "1.329.9",
          "name": "Construcción de otras máquinas y equipos mecánicos n.c.o.p",
          "_links": {
            "self": {
              "name": "Construcción de otras máquinas y equipos mecánicos n.c.o.p",
              "href": "https://api.euskadi.eus/procurements/companies/economic-activities/1.329.9"
            }
          }
        },
        {
          "id": "1.504.1",
          "name": "Instalaciones eléctricas en general",
          "_links": {
            "self": {
              "name": "Instalaciones eléctricas en general",
              "href": "https://api.euskadi.eus/procurements/companies/economic-activities/1.504.1"
            }
          }
        }
      ],
      "certificateStartDate": "2025-10-06",
      "certificateEndDate": "2026-04-06",
      "object": "LA FABRICACION Y COMERCIALIZACION DE MAQUINARIA Y ÚTILES PARA EL TRATAMIENTO DE RESIDUOS ORGÁNICOS E INORGÁNICOS TANTO DOMÉSTICOS COMO INDUSTRIALES.",
      "mainEntityOfPage": "https://www.contratacion.euskadi.eus/webkpe00-kperoc/es/ac71aBusquedaRegistrosWar/empresa/09072",
      "_links": {
        "self": {
          "name": "S.T.R.2000 TRATAMIENTO DE RESIDUOS SL",
          "href": "https://api.euskadi.eus/procurements/companies/09072"
        }
      }
    },
    {
      "name": "SEI, INGENIERIA, EQUIPOS Y MONTAJES ELECTRICOS, S.L.",
      "registrationNumber": "06050",
      "identificationNumber": "B95942876",
      "address": "LARRONDOBEKO ETORBIDEA, EDIFICIO 3, NAVE 12",
      "location": {
        "postalCode": "48180",
        "municipality": "Loiu",
        "county": "Bizkaia",
        "municipalityId": "903",
        "countyId": "48"
      },
      "economicActivities": [
        {
          "id": "1.504.12",
          "name": "Instalaciones eléctricas en toda clase de edificios",
          "_links": {
            "self": {
              "name": "Instalaciones eléctricas en toda clase de edificios",
              "href": "https://api.euskadi.eus/procurements/companies/economic-activities/1.504.12"
            }
          }
        }
      ],
      "certificateStartDate": "2025-10-06",
      "certificateEndDate": "2026-04-06",
      "classification": [
        {
          "id": "O",
          "name": "Obras",
          "groups": [
            {
              "id": "I",
              "name": "INSTALACIONES ELÉCTRICAS",
              "subgroups": [
                {
                  "id": "01",
                  "name": "Alumbrados, iluminaciones y balizamientos",
                  "categories": [
                    {
                      "id": "3",
                      "name": "Desde 360.001 Hasta 840.000",
                      "_links": {
                        "self": {
                          "name": "Desde 360.001 Hasta 840.000",
                          "href": "https://api.euskadi.eus/procurements/companies/types/O/categories/3"
                        }
                      }
                    }
                  ],
                  "_links": {
                    "self": {
                      "name": "Alumbrados, iluminaciones y balizamientos",
                      "href": "https://api.euskadi.eus/procurements/companies/types/O/groups/I/subgroups/01"
                    }
                  }
                },
                {
                  "id": "02",
                  "name": "Centrales de producción de energía",
                  "categories": [
                    {
                      "id": "3",
                      "name": "Desde 360.001 Hasta 840.000",
                      "_links": {
                        "self": {
                          "name": "Desde 360.001 Hasta 840.000",
                          "href": "https://api.euskadi.eus/procurements/companies/types/O/categories/3"
                        }
                      }
                    }
                  ],
                  "_links": {
                    "self": {
                      "name": "Centrales de producción de energía",
                      "href": "https://api.euskadi.eus/procurements/companies/types/O/groups/I/subgroups/02"
                    }
                  }
                },
                {
                  "id": "06",
                  "name": "Distribución en baja tensión",
                  "categories": [
                    {
                      "id": "4",
                      "name": "Desde 840.001 Hasta 2.400.000",
                      "_links": {
                        "self": {
                          "name": "Desde 840.001 Hasta 2.400.000",
                          "href": "https://api.euskadi.eus/procurements/companies/types/O/categories/4"
                        }
                      }
                    }
                  ],
                  "_links": {
                    "self": {
                      "name": "Distribución en baja tensión",
                      "href": "https://api.euskadi.eus/procurements/companies/types/O/groups/I/subgroups/06"
                    }
                  }
                },
                {
                  "id": "08",
                  "name": "Instalaciones electrónicas",
                  "categories": [
                    {
                      "id": "4",
                      "name": "Desde 840.001 Hasta 2.400.000",
                      "_links": {
                        "self": {
                          "name": "Desde 840.001 Hasta 2.400.000",
                          "href": "https://api.euskadi.eus/procurements/companies/types/O/categories/4"
                        }
                      }
                    }
                  ],
                  "_links": {
                    "self": {
                      "name": "Instalaciones electrónicas",
                      "href": "https://api.euskadi.eus/procurements/companies/types/O/groups/I/subgroups/08"
                    }
                  }
                },
                {
                  "id": "09",
                  "name": "Instalaciones eléctricas sin cualificación específica",
                  "categories": [
                    {
                      "id": "4",
                      "name": "Desde 840.001 Hasta 2.400.000",
                      "_links": {
                        "self": {
                          "name": "Desde 840.001 Hasta 2.400.000",
                          "href": "https://api.euskadi.eus/procurements/companies/types/O/categories/4"
                        }
                      }
                    }
                  ],
                  "_links": {
                    "self": {
                      "name": "Instalaciones eléctricas sin cualificación específica",
                      "href": "https://api.euskadi.eus/procurements/companies/types/O/groups/I/subgroups/09"
                    }
                  }
                }
              ],
              "_links": {
                "self": {
                  "name": "INSTALACIONES ELÉCTRICAS",
                  "href": "https://api.euskadi.eus/procurements/companies/types/O/groups/I"
                }
              }
            }
          ],
          "_links": {
            "self": {
              "name": "Obras",
              "href": "https://api.euskadi.eus/procurements/companies/types/O"
            }
          }
        }
      ],
      "object": "LA PROYECCIÓN, CONSTRUCCIÓN, MONTAJE, REPARACIÓN Y SUMINISTRO DE EQUIPOS Y CUADROS ELÉCTRICOS Y CUANTAS OTRAS ACTIVIDADES COMERCIALES, INDUSTRIALES O DE SERVICIOS TENGAN RELACIÓN CON LAS INSTALACIONES ELÉCTRICAS EN GENERAL O QUE DE ALGÚN MODO LAS FACILITEN O FAVOREZCA",
      "mainEntityOfPage": "https://www.contratacion.euskadi.eus/webkpe00-kperoc/es/ac71aBusquedaRegistrosWar/empresa/06050",
      "_links": {
        "self": {
          "name": "SEI, INGENIERIA, EQUIPOS Y MONTAJES ELECTRICOS, S.L.",
          "href": "https://api.euskadi.eus/procurements/companies/06050"
        }
      }
    },
    {
      "name": "EXCAVACIONES Y TRANSPORTES IRANZO EMBID, S.L.",
      "registrationNumber": "06567",
      "identificationNumber": "B95740171",
      "address": "Nº 33",
      "location": {
        "postalCode": "48890",
        "municipality": "Karrantza Harana/Valle de Carranza",
        "county": "Bizkaia",
        "municipalityId": "022",
        "countyId": "48"
      },
      "economicActivities": [
        {
          "id": "1.502.2",
          "name": "Consolidación y preparación de terrenos para la construcción de edificaciones",
          "_links": {
            "self": {
              "name": "Consolidación y preparación de terrenos para la construcción de edificaciones",
              "href": "https://api.euskadi.eus/procurements/companies/economic-activities/1.502.2"
            }
          }
        },
        {
          "id": "1.722",
          "name": "Transporte de mercancías por carretera",
          "_links": {
            "self": {
              "name": "Transporte de mercancías por carretera",
              "href": "https://api.euskadi.eus/procurements/companies/economic-activities/1.722"
            }
          }
        }
      ],
      "certificateStartDate": "2025-10-06",
      "certificateEndDate": "2026-04-06",
      "object": "A)\tEXCAVACIÓN EN GENERAL Y FORESTAL, DERRIBOS, TRANSPORTE EN GENERAL DE VEHÍCULOS, TODO TIPO DE MATERIALES, PRODUCTOS ALIMENTARIOS Y CUALESQUIERA OTROS. REALIZACION DE CONSTRUCCIÓN Y OBRA CIVIL. B) REPARACIÓN DE VEHÍCULOS EN GENERAL Y TODO TIPO DE MAQUINARIA, (MECÁNICA, CARROCERÍA, ELECTRICIDAD). C) EL ASESORAMIENTO, LA GESTIÓN, DIRECCIÓN Y EJECUCIÓN POR CUENTA PROPIA O AJENA DE TODA CLASE DE CONSTRUCCIONES, INSTALACIONES, REFORMAS, REHABILITACIONES, DECORACIONES Y OBRAS DE RESTAURACIÓN EXTERNA E INTERNA DE ESTRUCTURAS Y REVESTIMIENTOS DE EDIFICIOS Y MONUMENTOS; LIMPIEZA, IMPERMEABILIZACIÓN, TRATAMIENTO, PINTURA, RECONSTRUCCIÓN Y LA IMPLANTACIÓN, CUIDADO Y MANTENIMIENTO DE JARDINES Y EXPLOTACIONES FORESTALES. LA SUPERVISIÓN Y CONTROL DE OBRAS, ASÍ COMO LA COORDINACIÓN DE GREMIOS, EL ASESORAMIENTO Y LA ASISTENCIA TÉCNICA DE TODO CUANTO SE RELACIONE CON EL CAMPO DE LA CONSTRUCCIÓN DE EDIFICIOS Y DE LAS OBRAS PÚBLICAS O CIVILES. D) LA COMPRA, VENTA, DE TODA CLASE DE MATERIALES DE LA CONSTRUCCIÓN Y /O DECORATIVOS, ASÍ COMO CUALESQUIERA INSTALACIONES, ELEMENTOS O SERVICIOS DE LAS EDIFICACIONES; LA IMPORTACIÓN, EXPORTACIÓN, REPRESENTACIÓN, DISTRIBUCIÓN, EXPLOTACIÓN Y COMERCIALIZACIÓN DE PRODUCTOS ELABORADOS Y SEMIELABORADOS, ARTÍCULOS, BIENES, MERCADERÍAS, EQUIPOS INDUSTRIALES, MAQUINARIA, HERRAMIENTAS, UTILLAJES, REPUESTOS, ALIMENTOS DE CONSUMO HUMANO Y ANIMAL. E) LAS ACTIVIDADES DE INFRAESTRUCTURA, URBANISMO, INGENIERÍA, ELABORACIÓN DE PROYECTOS DE ARQUITECTURA, CONSTRUCCIÓN CIVIL Y OBRA PÚBLICA, GESTIÓN Y SERVICIOS, EDIFICACIÓN, CARTOGRAFÍA, CATASTROS. GEOTECNIA, HIDROLOGÍA Y MEDIO AMBIENTE, LA EJECUCIÓN COMPLETA O POR TRAMOS DE ALBAÑILERÍA, ASÍ COMO DE TODA CLASE DE CONSTRUCCIÓN, REPARACIÓN, REHABILITACIÓN Y CONSERVACIÓN POR CUENTA PROPIA O DE TERCEROS. F) LA PRESTACIÓN DE TODA CLASE DE SERVICIOS RELACIONADOS CON EL ÁMBITO INMOBILIARIO, DE TÉCNICA DE CONSTRUCCIÓN, POR MEDIO DE FORMULACIÓN, DESARROLLO Y PUESTA EN MARCHA DE ESTUDIOS, ACTUACIONES Y PROYECTOS. G) TRABAJOS DE CONSULTORÍA, AUDITORÍA, GESTIÓN EMPRESARIAL, DIRECCIÓN, ASESORAMIENTO Y MEJORAS, DE LA EFICIENCIA ENERGÉTICA, SOSTENIBILIDAD EN LA EDIFICACIÓN Y REHABILITACIÓN RESIDENCIAL, NO RESIDENCIAL, INDUSTRIAL, OBRA CIVIL Y URBANIZACIÓN, ASÍ COMO OPERACIONES DE ASEGURAMIENTO DE LA CALIDAD. H) LA ADMINISTRACIÓN DE FINCAS Y COMUNIDADES, TANTO DE PROPIETARIOS COMO DE AUTO-PROMOTORES, ASÍ COMO LA PRESTACIÓN DE TODA CLASE DE SERVICIOS RELACIONADOS CON EL ÁMBITO INMOBILIARIO, ARQUITECTÓNICO, DE TÉCNICA DE LA CONSTRUCCIÓN E INGENIERÍA EN GENERAL, POR MEDIO DE LA FORMULACIÓN, DESARROLLO Y PUESTA EN MARCHA EN ESTUDIOS, ACTUACIONES Y PROYECTOS. I) LA ADQUISICIÓN, CESIÓN, TENENCIA, DISFRUTE, ADMINISTRACIÓN, GESTIÓN Y NEGOCIACIÓN EN GENERAL DE VALORES MOBILIARIOS E INMUEBLES; TODO ELLO SIN INCLUIR EN LAS ACTIVIDADES U OPERACIONES REGULADAS POR LA LEGISLACIÓN DE INSTITUCIONES DE INVERSIÓN COLECTIVA Y LEY DE MERCADO DE VALORES. J) LA PROMOCIÓN, CONSTRUCCIÓN, COMPRA Y VENTA, ARRENDAMIENTO Y COMERCIALIZACIÓN EN GENERAL DE TODA CLASE DE EDIFICACIONES, TERRENOS, SOLARES, FINCAS RÚSTICAS Y URBANAS; LA EDIFICACIÓN, URBANIZACIÓN, EXCAVACIÓN, CIMENTACIÓN Y DERRIBO, BIEN POR CUENTA PROPIA COMO AJENA, ASÍ COMO LA ENAJENACIÓN, VENTA, ARRIENDO O EXPLOTACIÓN, EN CUALQUIER FORMA DE TODA CLASE DE INMUEBLES, EDIFICIOS, PISOS, APARTAMENTOS, LOCALES COMERCIALES O INDUSTRIALES, OFICINAS Y HOTELES O ESTABLECIMIENTOS DE HOSTELERÍA EN GENERAL. K) TODA CLASE DE OPERACIONES INMOBILIARIAS SOBRE FINCAS RÚSTICAS Y URBANAS, PROMOCIÓN DE CONTRATOS O REALIZACIONES DE PARCELARIAS, URBANIZACIONES, CONSTRUCCIONES Y OBRAS PRIVADAS O PÚBLICAS, LA VENTA, HIPOTECA, ARRENDAMIENTO, TRANSFORMACIÓN, MEJORA, ADMINISTRACIÓN, PUESTA EN EXPLOTACIÓN Y LA EXPLOTACIÓN MISMA, DE FINCAS RÚSTICAS Y URBANAS, LA ORGANIZACIÓN, PROMOCIÓN, ASESORAMIENTO Y GESTIÓN EN TODO CASO DE SOCIEDADES, COOPERATIVAS, COMUNIDADES, ENTIDADES, GRUPOS O EMPRESAS PARTICULARES ORIENTADAS A LA CONSTRUCCIÓN O URBANIZACIÓN, LA PLANIFICACIÓN Y ESTUDIO DE MERCADOS EN MATERIA INMOBILIARIA.  L) LA COMPRA, TENENCIA, ENAJENACIÓN Y EXPLOTACIÓN, INCLUSO EN EXCLUSIVA POR Y A FAVOR DE LA SOCIEDAD, DE TÍTULOS, VALORES, ACCIONES, BONOS, OBLIGACIONES, PATENTES, LICENCIAS, MARCAS, RÓTULOS, NOMBRES COMERCIALES Y TODA CLASE DE PERTENENCIAS DE PROPIEDAD INDUSTRIAL O INTELECTUAL, TODO ELLO SIN INCIDIR EN LAS ACTIVIDADES U OPERACIONES REGULADAS POR LA LEGISLACIÓN DE INSTITUCIONES DE INVERSIÓN COLECTIVA Y LEY DE MERCADO DE VALORES. M) LA CONSTITUCIÓN CON LA CONCURRENCIA DE OTRAS PERSONAS E INDIVIDUALMENTE, EN SU CASO DE TODA CLASE DE SOCIEDADES MERCANTILES, LA PARTICIPACIÓN EN OTRAS CONSTITUIDAS, PUDIENDO OSTENTAR EN TODAS ELLAS CARGOS DE ADMINISTRACIÓN, DIRECCIÓN O CONTROL MEDIANTE LA OPORTUNA DELEGACIÓN EN PERSONA FÍSICA",
      "mainEntityOfPage": "https://www.contratacion.euskadi.eus/webkpe00-kperoc/es/ac71aBusquedaRegistrosWar/empresa/06567",
      "_links": {
        "self": {
          "name": "EXCAVACIONES Y TRANSPORTES IRANZO EMBID, S.L.",
          "href": "https://api.euskadi.eus/procurements/companies/06567"
        }
      }
    },
    {
      "name": "JOSE IGNACIO UNANUE ZABALA",
      "registrationNumber": "07564",
      "identificationNumber": "15982279Q",
      "address": "JUAN BAUTISTA ERRO 1",
      "location": {
        "postalCode": "20140",
        "municipality": "Andoain",
        "county": "Gipuzkoa",
        "municipalityId": "009",
        "countyId": "20"
      },
      "economicActivities": [
        {
          "id": "1.973.1",
          "name": "Servicios fotográficos",
          "_links": {
            "self": {
              "name": "Servicios fotográficos",
              "href": "https://api.euskadi.eus/procurements/companies/economic-activities/1.973.1"
            }
          }
        }
      ],
      "certificateStartDate": "2025-10-06",
      "certificateEndDate": "2026-04-06",
      "object": "SERVICIOS FOTOGRAFICOS. VENTA AL POR MENOR DE APARATOS MÉDICOS, ORTOPÉDICOS, OPTICOS Y FOTOGRÁFICOS",
      "mainEntityOfPage": "https://www.contratacion.euskadi.eus/webkpe00-kperoc/es/ac71aBusquedaRegistrosWar/empresa/07564",
      "_links": {
        "self": {
          "name": "JOSE IGNACIO UNANUE ZABALA",
          "href": "https://api.euskadi.eus/procurements/companies/07564"
        }
      }
    },
    {
      "name": "METALURGICA MARINA, S.A.",
      "registrationNumber": "02442",
      "identificationNumber": "A48104384",
      "address": "JOSE LUIS GOYOAGA, 38",
      "location": {
        "postalCode": "48950",
        "municipality": "Erandio",
        "county": "Bizkaia",
        "municipalityId": "902",
        "countyId": "48"
      },
      "economicActivities": [
        {
          "id": "1.319.1",
          "name": "Mecánica general",
          "_links": {
            "self": {
              "name": "Mecánica general",
              "href": "https://api.euskadi.eus/procurements/companies/economic-activities/1.319.1"
            }
          }
        },
        {
          "id": "1.322.1",
          "name": "Construcción de máquinas para trabajar los metales",
          "_links": {
            "self": {
              "name": "Construcción de máquinas para trabajar los metales",
              "href": "https://api.euskadi.eus/procurements/companies/economic-activities/1.322.1"
            }
          }
        }
      ],
      "certificateStartDate": "2025-10-06",
      "certificateEndDate": "2026-04-06",
      "object": "ACTIVIDAD PRINICIPAL CON CÓDIGO CNAE 2562.- INGENIERÍA MECÁNICA POR CUENTA DE TERCEROS. LA CONSTRUCCIÓN Y REPARACIÓN E INSTALACIÓN DE TODO TIPO DE MAQUINARIA Y AUTOMATISMOS PARA LA INDUSTRIA METALÚRGICA Y NAVAL.",
      "mainEntityOfPage": "https://www.contratacion.euskadi.eus/webkpe00-kperoc/es/ac71aBusquedaRegistrosWar/empresa/02442",
      "_links": {
        "self": {
          "name": "METALURGICA MARINA, S.A.",
          "href": "https://api.euskadi.eus/procurements/companies/02442"
        }
      }
    }
  ]
}