{
  "totalItems": 9042,
  "totalPages": 905,
  "currentPage": 685,
  "itemsOfPage": 10,
  "items": [
    {
      "name": "FÁBRICA NACIONAL DE MONEDA Y TIMBRE",
      "registrationNumber": "01440",
      "identificationNumber": "Q2826004J",
      "address": "C/ JORGE JUAN, Nº 106",
      "location": {
        "postalCode": "28009",
        "municipality": "Madrid",
        "county": "Madrid",
        "municipalityId": "079",
        "countyId": "28"
      },
      "economicActivities": [
        {
          "id": "1.474",
          "name": "Artes gráficas (impresión gráfica)",
          "_links": {
            "self": {
              "name": "Artes gráficas (impresión gráfica)",
              "href": "https://api.euskadi.eus/procurements/companies/economic-activities/1.474"
            }
          }
        },
        {
          "id": "1.845",
          "name": "Explotación electrónica por cuenta de terceros",
          "_links": {
            "self": {
              "name": "Explotación electrónica por cuenta de terceros",
              "href": "https://api.euskadi.eus/procurements/companies/economic-activities/1.845"
            }
          }
        }
      ],
      "certificateStartDate": "2013-03-22",
      "certificateEndDate": "1999-03-08",
      "object": "LA ELABORACIÓN DE MONEDAS DE TODAS CLASES. LA ACUÑACIÓN DE MEDALLAS Y TRABAJOS ANÁLOGOS PARA EL ESTADO O PARTICULARES. LA ELABORACIÓN DE MONEDA O COSPELES PARA OTROS ESTADOS, PREVIA AUTORIZACIÓN DEL MINISTERIO DE ECONOMÍA Y HACIENDA. LA ELABORACIÓN DE LOS DOCUMENTOS POR LOS QUE SE HACEN EFECTIVOS CUALESQUIERA TRIBUTOS, DE LOS BILLETES, IMPRESOS Y LISTAS DE LA LOTERIA NACIONAL, ASÍ COMO CUALQUIER DOCUMENTO RELATIVO A OTROS JUEGOS QUE LE SEAN ENCOMENDADOS POR LAS ADMINISTRACIONES PÚBLICAS. LA EJECUCIÓN DE DOCUMENTOS DE VALOR QUE LE SEAN ENCARGADOS POR EL ESTADO U OTRAS ENTIDADES PÚBLICAS O PRIVADAS. LA ESTAMPACIÓN DE TODA CLASE DE DOCUMENTOS QUE SE LE ENCOMIENDEN POR LOS DIFERENTES CENTROS Y DEPENDENCIAS DEL MINISTERIO DE ECONOMÍA Y HACIENDA. LA IMPRESIÓN DE BILLETES DE BANCO. SI FUERAN DESTINADOS A OTROS PAÍSES, SERÁ NECESARIA LA AUTORIZACIÓN PREVIA DEL MINISTERIO DE ECONOMÍA Y HACIENDA. LA PRESTACIÓN O EJECUCIÓN, EN GENERAL, DE LOS SERVICIOS O LABORES RELACIONADOS CON LOS RAMOS PROPIOS DEL ESTABLECIMIENTO PARA ENTIDADES PÚBLICAS O PRIVADAS, TANTO NACIONALES COMO EXTRANJERAS",
      "mainEntityOfPage": "https://www.contratacion.euskadi.eus/webkpe00-kperoc/es/ac71aBusquedaRegistrosWar/empresa/01440",
      "_links": {
        "self": {
          "name": "FÁBRICA NACIONAL DE MONEDA Y TIMBRE",
          "href": "https://api.euskadi.eus/procurements/companies/01440"
        }
      }
    },
    {
      "name": "APLICA SOLUCIONES, S.L.",
      "registrationNumber": "02351",
      "identificationNumber": "B01246834",
      "address": "CTRA. VITORIA, 21 PAB. 7",
      "location": {
        "postalCode": "01400",
        "municipality": "Laudio/Llodio",
        "county": "Araba/Álava",
        "municipalityId": "036",
        "countyId": "01"
      },
      "economicActivities": [
        {
          "id": "1.501.1",
          "name": "Construcción completa, reparación y conservación de edificaciones",
          "_links": {
            "self": {
              "name": "Construcción completa, reparación y conservación de edificaciones",
              "href": "https://api.euskadi.eus/procurements/companies/economic-activities/1.501.1"
            }
          }
        },
        {
          "id": "1.501.2",
          "name": "Construcción completa, reparación y conservación obras civiles",
          "_links": {
            "self": {
              "name": "Construcción completa, reparación y conservación obras civiles",
              "href": "https://api.euskadi.eus/procurements/companies/economic-activities/1.501.2"
            }
          }
        },
        {
          "id": "1.502.3",
          "name": "Consolidación y preparación de terrenos para la realización de obras civiles",
          "_links": {
            "self": {
              "name": "Consolidación y preparación de terrenos para la realización de obras civiles",
              "href": "https://api.euskadi.eus/procurements/companies/economic-activities/1.502.3"
            }
          }
        },
        {
          "id": "1.504.1",
          "name": "Instalaciones eléctricas en general",
          "_links": {
            "self": {
              "name": "Instalaciones eléctricas en general",
              "href": "https://api.euskadi.eus/procurements/companies/economic-activities/1.504.1"
            }
          }
        },
        {
          "id": "1.504.7",
          "name": "Instalaciones telefónicas, telegráficas, televisión, etc",
          "_links": {
            "self": {
              "name": "Instalaciones telefónicas, telegráficas, televisión, etc",
              "href": "https://api.euskadi.eus/procurements/companies/economic-activities/1.504.7"
            }
          }
        },
        {
          "id": "1.921.7",
          "name": "Servicios de protección contra incendios y accidentes",
          "_links": {
            "self": {
              "name": "Servicios de protección contra incendios y accidentes",
              "href": "https://api.euskadi.eus/procurements/companies/economic-activities/1.921.7"
            }
          }
        }
      ],
      "certificateStartDate": "2013-03-21",
      "certificateEndDate": "2013-09-18",
      "object": "LA PRESTACIÓN DE SERVICIOS, COMERCIALIZACIÓN, INSTALACIÓN, DISTRIBUCIÓN, REPARACIÓN, PROYECTO Y MANTENIMIENTO DE INSTALACIONES, MATERIAL, EQUIPOS Y SISTEMAS DE: TELECOMUNICACIONES, INFORMÁTICOS, ELÉCTRICOS, CONTRA INCENDIOS, ELECTRÓNICOS Y DE COMUNICACIONES VÍA RADIO, SATÉLITE Y OTROS MEDIOS. EL ASESORAMIENTO Y GESTIÓN EN LA UTILIZACIÓN DE ENERGÍA, LA INGENIERÍA Y CONSULTORÍA ENERGÉTICA, LÉCTRICA Y ELECTRÓNICA; LA FORMACIÓN EN LOS CAMPOS ANTERIORMENTE CITADOS, LA COMERCIALIZACIÓN DE ARTÍCULOS MATERIALES E INMATERIALES RELACIONADOS DIRECTA O INDIRECTAMENTE CON LAS ACTIVIDADES CITADAS, LA PRESTACIÓN DE LOS SERVICIOS Y ACTIVIDADES INDICADAS CON ANTERIORIDAD A TRAVÉS DE INTERNET. LA INSTALACIÓN Y MATENIMIENTO DE LÍNEAS TELEFÓNICAS, FIBRA ÓPTICA Y CENTRALITAS. LA CONSTRUCCIÓN COMPLETA, REPARACIÓN Y CONSERVACIÓN DE EDIFICACIONEES Y DE OBRAS CIVILES. LA CONSOLIDACIÓN Y PREPARACIÓN DE TERRENOS, REDES DE ABASTECIMIENTO DE AGUAS Y DE SANEAMIENTO, CONDUCCIONES PARA SUMINISTRO DE GAS, CIMENTACIONES Y PAVIMENTACIONES. LA REALIZACIÓN DE OBRAS DE FERROCARRILES, VIALES, HIDRÁULICAS, SEÑALIZACIÓN Y BALIZAMIENTOS VIALES, ALUMBRADOS, ILUMINACIÓN Y BALIZAMIENTOS LUMINOSOS",
      "mainEntityOfPage": "https://www.contratacion.euskadi.eus/webkpe00-kperoc/es/ac71aBusquedaRegistrosWar/empresa/02351",
      "_links": {
        "self": {
          "name": "APLICA SOLUCIONES, S.L.",
          "href": "https://api.euskadi.eus/procurements/companies/02351"
        }
      }
    },
    {
      "name": "IMPRENTA TXEMISA, S.L.",
      "registrationNumber": "03891",
      "identificationNumber": "B48784011",
      "address": "P.I. UGALDEGUREN II, NAVE 15-17",
      "location": {
        "postalCode": "48016",
        "municipality": "Zamudio",
        "county": "Bizkaia",
        "municipalityId": "905",
        "countyId": "48"
      },
      "economicActivities": [
        {
          "id": "1.472",
          "name": "Fabricación de papel y cartón",
          "_links": {
            "self": {
              "name": "Fabricación de papel y cartón",
              "href": "https://api.euskadi.eus/procurements/companies/economic-activities/1.472"
            }
          }
        }
      ],
      "certificateStartDate": "2013-03-11",
      "certificateEndDate": "2013-07-29",
      "object": "ARTES GRÁFICAS, IMPRESIÓN DE TEXTOS O IMÁGENES POR CUALQUIER SISTEMA O PROCEDIMIENTO, TALES COMO TIPOGRAFÍA, OFSET, HUECO GRAVADO, SEDIGRAFÍA, FLEXOGRAFÍA, LITOGRAFÍA, CALCOGRAFÍA Y ESTAMPACIONES EN RELIEVE, IMPRESIÓN DE PRENSA DIARIA POR CUALQUIER PROCEDIMIENTO, REPRODUCCIÓN DE TEXTOS E IMÁGENES POR OTROS PROCEDIMIENTOS TALES COMO MULTICOPISTA, FOTOCOPIAS POR PROCEDIMIENTOS FOTOGRÁFICOS O ELECTROESTÁTICOS, ESTEREOTIPIA, GALVANOTIPIA, Y GALVANOPLÁSTICA, FABRICADOS DE GOMA Y CAUCHO, FABRICACIÓN DE RODILLOS Y VULCANIZADOS, COMPOSICIÓN DE TEXTOS Y ENCUADERNACIÓN, ASÍ COMO LA COMPRA-VENTA DE BIENES INMUEBLES",
      "mainEntityOfPage": "https://www.contratacion.euskadi.eus/webkpe00-kperoc/es/ac71aBusquedaRegistrosWar/empresa/03891",
      "_links": {
        "self": {
          "name": "IMPRENTA TXEMISA, S.L.",
          "href": "https://api.euskadi.eus/procurements/companies/03891"
        }
      }
    },
    {
      "name": "LEPINE IBERICA GROUPE LEPINE, S.L.",
      "registrationNumber": "02018",
      "identificationNumber": "B20217824",
      "address": "C/ JOSÉ JOAQUÍN TADEO MURGUIA, Nº 3 Y 5- BAJO",
      "location": {
        "postalCode": "20304",
        "municipality": "Irun",
        "county": "Gipuzkoa",
        "municipalityId": "045",
        "countyId": "20"
      },
      "economicActivities": [
        {
          "id": "1.659.3",
          "name": "Venta al por menor de aparatos médicos, ortopédicos, ópticos y fotográficos",
          "_links": {
            "self": {
              "name": "Venta al por menor de aparatos médicos, ortopédicos, ópticos y fotográficos",
              "href": "https://api.euskadi.eus/procurements/companies/economic-activities/1.659.3"
            }
          }
        }
      ],
      "certificateStartDate": "2013-02-28",
      "certificateEndDate": "2013-08-06",
      "object": "LA REALIZACIÓN DE ACTIVIDADES DE REPRESENTACIÓN Y COMPRAVENTA AL POR MAYOR DE MATERIAL MÉDICO QUIRÚRGICO",
      "mainEntityOfPage": "https://www.contratacion.euskadi.eus/webkpe00-kperoc/es/ac71aBusquedaRegistrosWar/empresa/02018",
      "_links": {
        "self": {
          "name": "LEPINE IBERICA GROUPE LEPINE, S.L.",
          "href": "https://api.euskadi.eus/procurements/companies/02018"
        }
      }
    },
    {
      "name": "SOGOTEK SERVICIOS, S.L.",
      "registrationNumber": "04934",
      "identificationNumber": "B95702890",
      "address": "BARRIO MENDIALDE SUR 2",
      "location": {
        "postalCode": "48850",
        "municipality": "Zalla",
        "county": "Bizkaia",
        "municipalityId": "096",
        "countyId": "48"
      },
      "economicActivities": [
        {
          "id": "1.504.1",
          "name": "Instalaciones eléctricas en general",
          "_links": {
            "self": {
              "name": "Instalaciones eléctricas en general",
              "href": "https://api.euskadi.eus/procurements/companies/economic-activities/1.504.1"
            }
          }
        }
      ],
      "certificateStartDate": "2013-02-26",
      "certificateEndDate": "2013-08-08",
      "object": "1.-LA GESTIÓN, DIRECCIÓN Y EJECUCIÓN POR CUENTA PROPIA O AJENA DE TODA CLASE DE CONSTRUCCIONES, INSTALACIONES, REFORMAS, REHABILITACIONES, DECORACIONES Y OBRAS DE RESTAURACIÓN EXTERNA E INTERNA DE ESTRUCTURAS Y REVESTIMIENTOS DE EDIFICIOS Y MONUMENTOS, LIMPIEZA, IMPERMEABILIZACIÓN, TRATAMIENTO, PINTURA, RECONSTRUCCIÓN Y LA IMPLANTACIÓN, CUIDADO Y MANTENIMIENTO DE JARDINES Y EXPLOTACIONES FORESTALES. LA SUPERVISIÓN Y CONTROL DE OBRAS, ASÍ COMO LA COORDINACIÓN DE GREMIOS, EL ASESORAMIENTO Y LA ASISTENCIA TÉCNICA EN TODO CUANTO SE RELACIONE CON EL CAMPO DE LA CONSTRUCCIÓN DE EDIFICIOS Y DE LAS OBRAS PÚBLICAS O CIVILES. 2.- LA COMPRA, VENTA, DE TODA CLASE DE MATERIALES DE LA CONSTRUCCIÓN Y/O DECORATIVOS, ASÍ COMO CUALESQUIERA INSTALACIONES, ELEMENTOS O SERVICIOS DE LAS EDIFICACIONES; LA IMPORTACIÓN, EXPORTACIÓN, REPRESENTACIÓN, DISTRIBUCIÓN, EXPLOTACIÓN Y COMERCIALIZACIÓN DE PRODUCTOS ELABORADOS Y SEMIELABORADOS, ARTÍCULOS, BIENES, MERCADERÍAS, EQUIPOS INDUSTRIALES, MAQUINARIA, HERRAMIENTAS, UTILLAJES, REPUESTOS Y ACCESORIOS, ALIMENTOS DE CONSUMO HUMANO Y ANIMAL. 3.- LA PROMOCIÓN, CONSTRUCCIÓN, COMPRA, VENTA, ARRENDAMIENTO Y COMERCIALIZACIÓN EN GENERAL DE TODA CLASE DE EDIFICACIONES, TERRENOS, SOLARES, FINCAS RÚSTICAS Y URBANAS; LA EDIFICACIÓN, URBANIZACÓN, EXCAVACIÓN, CIMENTACIÓN Y DERRIBO, BIEN POR CUENTA PROPIA COMO AJENA, ASÍ COMO LA ENAJENACIÓN, VENTA, ARRIENDA O EXPLOTACIÓN, EN CUALQUIER FORMA DE TODA CLASE DE INMUEBLES, EDIFICIOS, PISOS, APARTAMENTOS, LOCALES COMERCIALES O INDUSTRIALES, OFICINAS Y HOTELES O ESTABLECIMIENTOS DE HOSTELERÍA EN GENERAL. 4.- TODA CLASE DE OPERACIONES INMOBILIARIAS SOBRE FINCAS RÚSTICAS Y URBANAS, PROMOCIÓN DE CONTRATOS O REALIZACIONES DE PARCELACIONES, URBANIZACIONEES, CONSTRUCCIÓN Y OBRAS PRIVADAS O PÚBLICAS, LA VENTA, HIPOTECA, ARRENDAMIENTO, TRANSFORMACIÓN, MEJORA, ADMINISTRACIÓN, PUESTA EN EXPLOTACIÓN Y LA EXPLOTACIÓN MISMA, DE FINCAS RÚSTICAS Y URBANAS, LA ORGANIZACIÓN, PROMOCIÓN, ASESORAMIENTO, Y GESTIÓN EN SU CASO DE SOCIEDADES, COOPERATIVAS, COMUNIDADES, ENTIDADES, GRUPOS O EMPRESAS PARTICULARES ORIENTADAS A LA CONSTRUCCIÓN O URBANIZACIÓN, LA PLANIFICACIÓN Y ESTUDIO DE MERCADOS EN MATERIA INMOBILIARIA",
      "mainEntityOfPage": "https://www.contratacion.euskadi.eus/webkpe00-kperoc/es/ac71aBusquedaRegistrosWar/empresa/04934",
      "_links": {
        "self": {
          "name": "SOGOTEK SERVICIOS, S.L.",
          "href": "https://api.euskadi.eus/procurements/companies/04934"
        }
      }
    },
    {
      "name": "GE HEALTHCARE CLINICAL SYSTEMS, S.L.",
      "registrationNumber": "01537",
      "identificationNumber": "B81027799",
      "address": "GOBELAS  35-37",
      "location": {
        "postalCode": "28023",
        "municipality": "Madrid",
        "county": "Madrid",
        "municipalityId": "079",
        "countyId": "28"
      },
      "economicActivities": [
        {
          "id": "1.619.2",
          "name": "Venta al por mayor de aparatos e instrumentos médicos, ortopédicos, ópticos",
          "_links": {
            "self": {
              "name": "Venta al por mayor de aparatos e instrumentos médicos, ortopédicos, ópticos",
              "href": "https://api.euskadi.eus/procurements/companies/economic-activities/1.619.2"
            }
          }
        },
        {
          "id": "1.699",
          "name": "Otras reparaciones n.c.o.p",
          "_links": {
            "self": {
              "name": "Otras reparaciones n.c.o.p",
              "href": "https://api.euskadi.eus/procurements/companies/economic-activities/1.699"
            }
          }
        }
      ],
      "certificateStartDate": "2013-02-20",
      "certificateEndDate": "2012-12-19",
      "object": "COMERCIALIZACIÓN, VENTA, DISTRIBUCIÓN, IMPORTACIÓN, EXPORTACIÓN, FABRICACIÓN, ALMACENAMIENTO, MANTENIMIENTO Y ALQUILER DE EQUIPO MÉDICO Y PRODUCTOS DESECHABLES DESTINADOS AL DIAGNÓSTICO, PREVENCIÓN, CONTROL, ALIVIO O TRATAMIENTO DE ENFERMEDADES. LA CONTRATACIÓN CON EL ESTADO, LAS ADMINISTRACIONES PÚBLICAS Y ORGANISMOS OFICIALES Y PRIVADOS, ASÍ COMO SU CORRESPONDIENTE TRAMITACIÓN, GESTIÓN, EXPLOTACIÓN, PLANIFICACIÓN, DIRECCIÓN Y CONTROL, DE TODA CLASE DE SUMINISTROS Y SERVICIOS DE MANTENIMIENTO DE LOS EQUIPOS MÉDICOS Y PRODUCTOS DESECHABLES MENCIONADOS EN EL PÁRRAFO ANTERIOR",
      "mainEntityOfPage": "https://www.contratacion.euskadi.eus/webkpe00-kperoc/es/ac71aBusquedaRegistrosWar/empresa/01537",
      "_links": {
        "self": {
          "name": "GE HEALTHCARE CLINICAL SYSTEMS, S.L.",
          "href": "https://api.euskadi.eus/procurements/companies/01537"
        }
      }
    },
    {
      "name": "GECON 5 ARQUITECTOS, S.L.",
      "registrationNumber": "04511",
      "identificationNumber": "B95572780",
      "address": "GENERAL CONCHA 5, ENT. DCHA.",
      "location": {
        "postalCode": "48008",
        "municipality": "Bilbao",
        "county": "Bizkaia",
        "municipalityId": "020",
        "countyId": "48"
      },
      "economicActivities": [
        {
          "id": "1.843.2",
          "name": "Servicios técnicos de arquitectura y urbanismo",
          "_links": {
            "self": {
              "name": "Servicios técnicos de arquitectura y urbanismo",
              "href": "https://api.euskadi.eus/procurements/companies/economic-activities/1.843.2"
            }
          }
        }
      ],
      "certificateStartDate": "2013-02-14",
      "certificateEndDate": "2013-07-09",
      "object": "LA ACTIVIDAD PROPIA DEL EJERCICIO DE LA ARQUITECTURA",
      "mainEntityOfPage": "https://www.contratacion.euskadi.eus/webkpe00-kperoc/es/ac71aBusquedaRegistrosWar/empresa/04511",
      "_links": {
        "self": {
          "name": "GECON 5 ARQUITECTOS, S.L.",
          "href": "https://api.euskadi.eus/procurements/companies/04511"
        }
      }
    },
    {
      "name": "FER HIGIENE INDUSTRIAL, S.A.",
      "registrationNumber": "00545",
      "identificationNumber": "A20103438",
      "address": "POLÍGONO INDUSTRIAL UGALDETXO, S/N.",
      "location": {
        "postalCode": "20180",
        "municipality": "Oiartzun",
        "county": "Gipuzkoa",
        "municipalityId": "063",
        "countyId": "20"
      },
      "economicActivities": [
        {
          "id": "1.614.2",
          "name": "Venta al por mayor de productos de perfumería, droguería, higiene y belleza",
          "_links": {
            "self": {
              "name": "Venta al por mayor de productos de perfumería, droguería, higiene y belleza",
              "href": "https://api.euskadi.eus/procurements/companies/economic-activities/1.614.2"
            }
          }
        }
      ],
      "certificateStartDate": "2013-02-13",
      "certificateEndDate": "2012-09-15",
      "object": "LA COMPRA Y VENTA DE PRODUCTOS, ÚTILES, HERRAMIENTAS Y MAQUINARIA DE HIGIENE INDUSTRIAL, SU INSTALACIÓN, REPARACIÓN Y TRANSFORMACIÓN",
      "mainEntityOfPage": "https://www.contratacion.euskadi.eus/webkpe00-kperoc/es/ac71aBusquedaRegistrosWar/empresa/00545",
      "_links": {
        "self": {
          "name": "FER HIGIENE INDUSTRIAL, S.A.",
          "href": "https://api.euskadi.eus/procurements/companies/00545"
        }
      }
    },
    {
      "name": "NORTESA, S.L.",
      "registrationNumber": "04931",
      "identificationNumber": "B48405732",
      "address": "PG. TORRELARRAGOITI P5 E-2",
      "location": {
        "postalCode": "48170",
        "municipality": "Zamudio",
        "county": "Bizkaia",
        "municipalityId": "905",
        "countyId": "48"
      },
      "economicActivities": [
        {
          "id": "1.722",
          "name": "Transporte de mercancías por carretera",
          "_links": {
            "self": {
              "name": "Transporte de mercancías por carretera",
              "href": "https://api.euskadi.eus/procurements/companies/economic-activities/1.722"
            }
          }
        },
        {
          "id": "1.756",
          "name": "Intermediarios del transporte",
          "_links": {
            "self": {
              "name": "Intermediarios del transporte",
              "href": "https://api.euskadi.eus/procurements/companies/economic-activities/1.756"
            }
          }
        }
      ],
      "certificateStartDate": "2013-02-13",
      "certificateEndDate": "2013-07-24",
      "object": "EL TRANSPORTE EN GENERAL, DISTRIBUCIÓN, REPARTO Y ALMACENAMIENTO, DE TODA CLASE DE MERCANCIAS, UTILIZANDO CUALQUIER MEDIO DE TRANSPORTE, TANTO EN EL TERRITORIO NACIONAL COMO EN EL EXTRANJERO",
      "mainEntityOfPage": "https://www.contratacion.euskadi.eus/webkpe00-kperoc/es/ac71aBusquedaRegistrosWar/empresa/04931",
      "_links": {
        "self": {
          "name": "NORTESA, S.L.",
          "href": "https://api.euskadi.eus/procurements/companies/04931"
        }
      }
    },
    {
      "name": "DISEÑO, RADIO Y TELEVISIÓN, S.L.",
      "registrationNumber": "02675",
      "identificationNumber": "B95241949",
      "address": "JON DE ARROSPIDE, Nº 28-2º D",
      "location": {
        "postalCode": "48014",
        "municipality": "Bilbao",
        "county": "Bizkaia",
        "municipalityId": "020",
        "countyId": "48"
      },
      "economicActivities": [
        {
          "id": "1.351.2",
          "name": "Fabricación de aparatos y equipo de radiocomunicación, radiodifusión",
          "_links": {
            "self": {
              "name": "Fabricación de aparatos y equipo de radiocomunicación, radiodifusión",
              "href": "https://api.euskadi.eus/procurements/companies/economic-activities/1.351.2"
            }
          }
        },
        {
          "id": "1.504.7",
          "name": "Instalaciones telefónicas, telegráficas, televisión, etc",
          "_links": {
            "self": {
              "name": "Instalaciones telefónicas, telegráficas, televisión, etc",
              "href": "https://api.euskadi.eus/procurements/companies/economic-activities/1.504.7"
            }
          }
        }
      ],
      "certificateStartDate": "2013-02-11",
      "certificateEndDate": "2013-06-28",
      "object": "LA FABRICACIÓN, COMPRA, VENTA, IMPORTACIÓN, EXPORTACIÓN, ALQUILER, ALMACENAMIENTO, INSTALACIÓN, MANTENIMIENTO, REPARACIÓN, DISTRIBUCIÓN, REPRESENTACIÓN Y COMERCIALIZACIÓN DE TODO   TIPO DE EQUIPOS RELACIONADOS CON LA ELECTRÓNICA, MICROELECTRÓNICA Y TELECOMUNICACIONES",
      "mainEntityOfPage": "https://www.contratacion.euskadi.eus/webkpe00-kperoc/es/ac71aBusquedaRegistrosWar/empresa/02675",
      "_links": {
        "self": {
          "name": "DISEÑO, RADIO Y TELEVISIÓN, S.L.",
          "href": "https://api.euskadi.eus/procurements/companies/02675"
        }
      }
    }
  ]
}