{
  "totalItems": 9042,
  "totalPages": 905,
  "currentPage": 574,
  "itemsOfPage": 10,
  "items": [
    {
      "name": "RESIDENCIA KADAGUA S.L.",
      "registrationNumber": "07029",
      "identificationNumber": "B95373882",
      "address": "BO BERDUGAL-IBARDUGAIN ",
      "location": {
        "postalCode": "48192",
        "municipality": "Gordexola",
        "county": "Bizkaia",
        "municipalityId": "042",
        "countyId": "48"
      },
      "economicActivities": [
        {
          "id": "1.979.4",
          "name": "Adiestramiento de animales y otros servicios de atención de animales",
          "_links": {
            "self": {
              "name": "Adiestramiento de animales y otros servicios de atención de animales",
              "href": "https://api.euskadi.eus/procurements/companies/economic-activities/1.979.4"
            }
          }
        }
      ],
      "certificateStartDate": "2020-05-22",
      "certificateEndDate": "2020-11-14",
      "object": "LA RESIDENCIA DE TODA CLASE DE ANIMALES, SERVICIOS VETERINARIOS, MANUTENCIÓN DE TODA CLASE DE ANIMALES, SERVICIOS DE ALMACENAMIENTO DE TODO TIPO DE REMOLQUES DESTINADOS AL TRASLADO DE ANIMALES, AUTOCARAVANAS Y DEMAS VEHICULOS RECREACIONALES",
      "mainEntityOfPage": "https://www.contratacion.euskadi.eus/webkpe00-kperoc/es/ac71aBusquedaRegistrosWar/empresa/07029",
      "_links": {
        "self": {
          "name": "RESIDENCIA KADAGUA S.L.",
          "href": "https://api.euskadi.eus/procurements/companies/07029"
        }
      }
    },
    {
      "name": "ARRIGARRI, S.A.",
      "registrationNumber": "07030",
      "identificationNumber": "A48418925",
      "address": "Barrio Santimami 35 A",
      "location": {
        "postalCode": "48940",
        "municipality": "Leioa",
        "county": "Bizkaia",
        "municipalityId": "054",
        "countyId": "48"
      },
      "economicActivities": [
        {
          "id": "1.654.1",
          "name": "Venta al por menor de vehículos terrestres",
          "_links": {
            "self": {
              "name": "Venta al por menor de vehículos terrestres",
              "href": "https://api.euskadi.eus/procurements/companies/economic-activities/1.654.1"
            }
          }
        },
        {
          "id": "1.842",
          "name": "Servicios financieros y contables",
          "_links": {
            "self": {
              "name": "Servicios financieros y contables",
              "href": "https://api.euskadi.eus/procurements/companies/economic-activities/1.842"
            }
          }
        },
        {
          "id": "1.861.2",
          "name": "Alquiler de locales industriales y otros alquileres n.c.o.p",
          "_links": {
            "self": {
              "name": "Alquiler de locales industriales y otros alquileres n.c.o.p",
              "href": "https://api.euskadi.eus/procurements/companies/economic-activities/1.861.2"
            }
          }
        }
      ],
      "certificateStartDate": "2020-05-22",
      "certificateEndDate": "2020-11-08",
      "object": "LA PROMOCIÓN Y EJECUCIÓN, COMPLETO O POR RAMOS, DE TODA CLASE DE OBRAS DE CONSTRUCCIÓN, URBANIZACIÓN Y SERVICIOS, REPARACIÓN Y CONSERVACIÓN, POR CUENTA PROPIA O AJENA, DE VIVIENDAS Y LOCALES COMERCIALES O INDUSTRIALES. LA COMPRAVENTA Y ALQUILER DE TODA CLASE DE BIENES MUEBLES E INMUEBLES, INCLUSO EDIFICACIONES EN SU TOTALIDAD, POR PARTES O POR PISOS, BIEN DE VIVIENDAS, LOCALES INDUSTRIALES, DE OFICINAS, APARCAMIENTOS, GARAJES, CONSTRUIDAS O NO PARA TAL FIN; PROCEDER A LA CONSTRUCCIÓN DE EDIFICACIONES EN GENERAL, BIEN DIRECTAMENTE O POR MEDIO DE SUBCONTRATISTAS O DESTAJISTAS. LA ADQUISICIÓN Y ENAJENACIÓN, POR CUALQUIER TÍTULO DE FINCAS URBANAS Y RÚSTICAS, YA SEA TIERRAS, SOLARES Y EDIFICIOS, Y LA ADMINISTRACIÓN, TENENCIA, EXPLOTACIÓN Y ARRENDAMIENTO, YA SEA ACTIVO O PASIVO, DE TALES BIENES Y SERVICIOS, SU VENTA TOTAL O PARCIAL, Y PROCEDER A SU APROVECHAMIENTO, URBANO, INDUSTRIAL O CUALQUIER OTRO. LA URBANIZACIÓN Y PARCELACIÓN DE TERRENOS, CONFORME A LOS PLANES DE ORDENACIÓN URBANÍSTICA, APROBADOS POR LAS AUTORIDADES COMPETENTES EN LOS POLÍGONOS Y ZONAS DE ACTUACIÓN QUE, AL EFECTO, SEAN DESIGNADOS, Y LA REPARCELACIÓN DE DICHOS TERRENOS URBANÍSTICOS Y, EN SU CASO, LA EDIFICACIÓN Y VENTA DE LOS MISMOS O DE LAS EDIFICACIONES Y OBRAS DE URBANIZACIÓN Y SERVICIOS, A CUYO EFECTO PODRÁ FORMAR PARTE DE ASOCIACIONES DE PROPIETARIOS, EMPRESAS MIXTAS Y ENTIDADES URBANÍSTICAS COLABORADORAS, QUE PUEDAN REGLAMENTARSE, A LOS EXPRESADOS FINES. EL ASESORAMIENTO TÉCNICO POR MEDIO DE PERSONAL TITULADO AL EFECTO",
      "mainEntityOfPage": "https://www.contratacion.euskadi.eus/webkpe00-kperoc/es/ac71aBusquedaRegistrosWar/empresa/07030",
      "_links": {
        "self": {
          "name": "ARRIGARRI, S.A.",
          "href": "https://api.euskadi.eus/procurements/companies/07030"
        }
      }
    },
    {
      "name": "GAIAMBIENTE ENVIRONMENTAL CONSULTING S.L.L.",
      "registrationNumber": "07018",
      "identificationNumber": "B87858544",
      "address": "AVENIDA DE MORATALAZ 93, 5ºC",
      "location": {
        "postalCode": "28030",
        "municipality": "Madrid",
        "county": "Madrid",
        "municipalityId": "079",
        "countyId": "28"
      },
      "economicActivities": [
        {
          "id": "1.843.9",
          "name": "Otros servicios técnicos n.c.o.p",
          "_links": {
            "self": {
              "name": "Otros servicios técnicos n.c.o.p",
              "href": "https://api.euskadi.eus/procurements/companies/economic-activities/1.843.9"
            }
          }
        }
      ],
      "certificateStartDate": "2020-05-19",
      "certificateEndDate": "2020-11-14",
      "object": "CONSULTORÍA E INGENIERÍA AMBIENTAL, INCLUYENDO LOS SISTEMAS DE GESTIÓN, ESTUDIOS HIDROLÓGICOS, GESTIÓN DE RESIDUOS, ESTUDIOS DE IMPACTO AMBIENTAL, ACÚSTICA, TOPOGRAFÍA, PAISAJISMO, ENERGÍAS RENOVABLES, INFORMES DE SOSTENIBILIDAD AMBIENTAL, ESTUDIOS DE EFICIENCIA ENERGÉTICA, RESPONSABILIDAD MEDIO AMBIENTAL, INGENIERIA FORESTAL, MEDIO AMBIENTE Y EDUCACIÓN Y DIVULGACIÓN AMBIENTAL",
      "mainEntityOfPage": "https://www.contratacion.euskadi.eus/webkpe00-kperoc/es/ac71aBusquedaRegistrosWar/empresa/07018",
      "_links": {
        "self": {
          "name": "GAIAMBIENTE ENVIRONMENTAL CONSULTING S.L.L.",
          "href": "https://api.euskadi.eus/procurements/companies/07018"
        }
      }
    },
    {
      "name": "ISKANDER REBOLLO BENGOECHEA",
      "registrationNumber": "06618",
      "identificationNumber": "44689111L",
      "address": "C/ SAN VICENTE N5, 1º izq.",
      "location": {
        "postalCode": "48001",
        "municipality": "Bilbao",
        "county": "Bizkaia",
        "municipalityId": "020",
        "countyId": "48"
      },
      "economicActivities": [
        {
          "id": "2.411",
          "name": "Arquitectos",
          "_links": {
            "self": {
              "name": "Arquitectos",
              "href": "https://api.euskadi.eus/procurements/companies/economic-activities/2.411"
            }
          }
        }
      ],
      "certificateStartDate": "2020-05-18",
      "certificateEndDate": "2020-11-13",
      "object": "ARQUITECTO",
      "mainEntityOfPage": "https://www.contratacion.euskadi.eus/webkpe00-kperoc/es/ac71aBusquedaRegistrosWar/empresa/06618",
      "_links": {
        "self": {
          "name": "ISKANDER REBOLLO BENGOECHEA",
          "href": "https://api.euskadi.eus/procurements/companies/06618"
        }
      }
    },
    {
      "name": "CONSTRUCCIONES Y RESTAURACIONES RAFAEL VEGA, S.L.",
      "registrationNumber": "07012",
      "identificationNumber": "B09081415",
      "address": "C/ LOS BARBADILLO Nº 8",
      "location": {
        "postalCode": "09346",
        "municipality": "Covarrubias",
        "county": "Burgos",
        "municipalityId": "113",
        "countyId": "09"
      },
      "economicActivities": [
        {
          "id": "1.501.1",
          "name": "Construcción completa, reparación y conservación de edificaciones",
          "_links": {
            "self": {
              "name": "Construcción completa, reparación y conservación de edificaciones",
              "href": "https://api.euskadi.eus/procurements/companies/economic-activities/1.501.1"
            }
          }
        },
        {
          "id": "1.501.2",
          "name": "Construcción completa, reparación y conservación obras civiles",
          "_links": {
            "self": {
              "name": "Construcción completa, reparación y conservación obras civiles",
              "href": "https://api.euskadi.eus/procurements/companies/economic-activities/1.501.2"
            }
          }
        }
      ],
      "certificateStartDate": "2020-05-18",
      "certificateEndDate": "2020-09-11",
      "object": "LA CONSTRUCCIÓN, PROMOCIÓN Y REHABILITACIÓN DE EDIFICIOS DE TODAS CLASES Y EL MONTAJE DE TODA CLASE DE ESTRUCTURAS ASÍ COMO LA URBANIZACIÓN DE TODO TIPO DE TERRENOS\r\n",
      "mainEntityOfPage": "https://www.contratacion.euskadi.eus/webkpe00-kperoc/es/ac71aBusquedaRegistrosWar/empresa/07012",
      "_links": {
        "self": {
          "name": "CONSTRUCCIONES Y RESTAURACIONES RAFAEL VEGA, S.L.",
          "href": "https://api.euskadi.eus/procurements/companies/07012"
        }
      }
    },
    {
      "name": "LIMPIEZAS LANDAURI GARBIKETAK, S.L.",
      "registrationNumber": "04766",
      "identificationNumber": "B01434570",
      "address": "C/BUENAVISTA, 6",
      "location": {
        "postalCode": "01440",
        "municipality": "Urkabustaiz",
        "county": "Araba/Álava",
        "municipalityId": "054",
        "countyId": "01"
      },
      "economicActivities": [
        {
          "id": "1.921.1",
          "name": "Servicios de limpieza en calles, vías públicas y jardines",
          "_links": {
            "self": {
              "name": "Servicios de limpieza en calles, vías públicas y jardines",
              "href": "https://api.euskadi.eus/procurements/companies/economic-activities/1.921.1"
            }
          }
        }
      ],
      "certificateStartDate": "2020-05-15",
      "certificateEndDate": "2020-10-21",
      "object": "SERVICIO DE LIMPIEZAS INTERIORES Y EXTERIORES (A TÍTULO ENUNCIATIVO: EDIFICIOS, OFICINAS, ESTABLECIMIENTOS COMERCIALES, RESIDENCIAS, CENTROS SANITARIOS Y ESTABLECIMIENTOS INDUSTRIALES, CRISTALES, CHIMENEAS)",
      "mainEntityOfPage": "https://www.contratacion.euskadi.eus/webkpe00-kperoc/es/ac71aBusquedaRegistrosWar/empresa/04766",
      "_links": {
        "self": {
          "name": "LIMPIEZAS LANDAURI GARBIKETAK, S.L.",
          "href": "https://api.euskadi.eus/procurements/companies/04766"
        }
      }
    },
    {
      "name": "GISMA ASESORAMIENTO, S.L.",
      "registrationNumber": "07000",
      "identificationNumber": "B20930301",
      "address": "Mad. Jauregiberri Ibilbidea, 4",
      "location": {
        "postalCode": "20014",
        "municipality": "Donostia / San Sebastián",
        "county": "Gipuzkoa",
        "municipalityId": "069",
        "countyId": "20"
      },
      "economicActivities": [
        {
          "id": "1.843.9",
          "name": "Otros servicios técnicos n.c.o.p",
          "_links": {
            "self": {
              "name": "Otros servicios técnicos n.c.o.p",
              "href": "https://api.euskadi.eus/procurements/companies/economic-activities/1.843.9"
            }
          }
        },
        {
          "id": "1.849.9",
          "name": "Otros servicios independientes n.c.o.p",
          "_links": {
            "self": {
              "name": "Otros servicios independientes n.c.o.p",
              "href": "https://api.euskadi.eus/procurements/companies/economic-activities/1.849.9"
            }
          }
        }
      ],
      "certificateStartDate": "2020-05-15",
      "certificateEndDate": "2020-11-08",
      "object": "LAS LABORES DE ASESORAMIENTO, FORMACIÓN Y DESARROLLO EN MATERIAS TÉCNICAS TALES COMO CALIDAD, PREVENCIÓN, MEDIO AMBIENTE, SOFTWARE INTERNACIONALIZACIÓN...ETC, TANTO A NIVEL NACIONAL COMO INTERNACIONAL",
      "mainEntityOfPage": "https://www.contratacion.euskadi.eus/webkpe00-kperoc/es/ac71aBusquedaRegistrosWar/empresa/07000",
      "_links": {
        "self": {
          "name": "GISMA ASESORAMIENTO, S.L.",
          "href": "https://api.euskadi.eus/procurements/companies/07000"
        }
      }
    },
    {
      "name": "GRUPO DISOFIC, S.L.",
      "registrationNumber": "07003",
      "identificationNumber": "B29070943",
      "address": "C/ Castelao, nº 8, 2ª planta, Oficina 218",
      "location": {
        "postalCode": "29004",
        "municipality": "Málaga",
        "county": "Málaga",
        "municipalityId": "067",
        "countyId": "29"
      },
      "economicActivities": [
        {
          "id": "1.652.2",
          "name": "Venta al por menor de productos de droguería y productos para decoración",
          "_links": {
            "self": {
              "name": "Venta al por menor de productos de droguería y productos para decoración",
              "href": "https://api.euskadi.eus/procurements/companies/economic-activities/1.652.2"
            }
          }
        },
        {
          "id": "1.659.4",
          "name": "Venta al por menor de libros, periódicos y artículos de papelería y escritorio",
          "_links": {
            "self": {
              "name": "Venta al por menor de libros, periódicos y artículos de papelería y escritorio",
              "href": "https://api.euskadi.eus/procurements/companies/economic-activities/1.659.4"
            }
          }
        },
        {
          "id": "1.859",
          "name": "Alquiler de otros bienes muebles n.c.o.p. (sin personal permanente)",
          "_links": {
            "self": {
              "name": "Alquiler de otros bienes muebles n.c.o.p. (sin personal permanente)",
              "href": "https://api.euskadi.eus/procurements/companies/economic-activities/1.859"
            }
          }
        },
        {
          "id": "1.973.21",
          "name": "Máquinas fotográficas y copia de documentos, titular establecimiento",
          "_links": {
            "self": {
              "name": "Máquinas fotográficas y copia de documentos, titular establecimiento",
              "href": "https://api.euskadi.eus/procurements/companies/economic-activities/1.973.21"
            }
          }
        }
      ],
      "certificateStartDate": "2020-05-15",
      "certificateEndDate": "2020-09-27",
      "object": "LAS VENTAS AL POR MAYOR Y DETALLE DE ARTÍCULOS DE LIBRERÍA, PAPELERÍA, ESCRITORIO, JUGUETERÍA, REGALOS, MAQUINARIA Y MOBILIARIO DE OFICINA, UTILLAJE TÉCNICO ARQUITECTÓNICO Y DE INGENIERÍA, EQUIPOS DE MEDICIÓN Y CÁLCULO, DE PINTURA Y DIBUJO Y CUALQUIER OTRA ACTIVIDAD ANTECEDENTE, CONEXA O CONSECUENTE DE LAS ANTERIORES",
      "mainEntityOfPage": "https://www.contratacion.euskadi.eus/webkpe00-kperoc/es/ac71aBusquedaRegistrosWar/empresa/07003",
      "_links": {
        "self": {
          "name": "GRUPO DISOFIC, S.L.",
          "href": "https://api.euskadi.eus/procurements/companies/07003"
        }
      }
    },
    {
      "name": "INTERNATIONAL SOFTMACHINE SYSTEMS, S.L.",
      "registrationNumber": "07004",
      "identificationNumber": "B61476933",
      "address": "C/ Aragó, 390, 4º1º",
      "location": {
        "postalCode": "08013",
        "municipality": "Barcelona",
        "county": "Barcelona",
        "municipalityId": "019",
        "countyId": "08"
      },
      "economicActivities": [
        {
          "id": "1.659.2",
          "name": "Venta al por menor de muebles de oficina y máquinas y equipos de oficina",
          "_links": {
            "self": {
              "name": "Venta al por menor de muebles de oficina y máquinas y equipos de oficina",
              "href": "https://api.euskadi.eus/procurements/companies/economic-activities/1.659.2"
            }
          }
        }
      ],
      "certificateStartDate": "2020-05-15",
      "certificateEndDate": "2020-10-23",
      "object": "INVESTIGACIÓN TÉCNICA, DIFUSIÓN, DESARROLLO Y VENTA DE PRODUCTOS INFORMÁTICOS. DESARROLLO, DIFUSIÓN Y VENTA DE PROGRAMAS INFORMÁTICOS, COMERCIALIZACIÓN DE PRODUCTOS INFORMÁTICOS. ASESORÍA Y ENSEÑANZA INFORMÁTICA",
      "mainEntityOfPage": "https://www.contratacion.euskadi.eus/webkpe00-kperoc/es/ac71aBusquedaRegistrosWar/empresa/07004",
      "_links": {
        "self": {
          "name": "INTERNATIONAL SOFTMACHINE SYSTEMS, S.L.",
          "href": "https://api.euskadi.eus/procurements/companies/07004"
        }
      }
    },
    {
      "name": "SENIOR EUROPA, S.L",
      "registrationNumber": "07007",
      "identificationNumber": "B97808984",
      "address": "Av. Compte Torrefiel 10 1 4 ",
      "location": {
        "postalCode": "46870",
        "municipality": "Ontinyent",
        "county": "Valencia/València",
        "municipalityId": "184",
        "countyId": "46"
      },
      "economicActivities": [
        {
          "id": "1.849.9",
          "name": "Otros servicios independientes n.c.o.p",
          "_links": {
            "self": {
              "name": "Otros servicios independientes n.c.o.p",
              "href": "https://api.euskadi.eus/procurements/companies/economic-activities/1.849.9"
            }
          }
        },
        {
          "id": "1.934",
          "name": "Enseñanza fuera de establecimiento permanente",
          "_links": {
            "self": {
              "name": "Enseñanza fuera de establecimiento permanente",
              "href": "https://api.euskadi.eus/procurements/companies/economic-activities/1.934"
            }
          }
        }
      ],
      "certificateStartDate": "2020-05-15",
      "certificateEndDate": "2020-10-23",
      "object": "1.- LA INVESTIGACIÓN EN EL DISEÑO E IMPLEMENTACIÓN DE PROGRAMAS, SERVICIOS Y RECURSOS SOCIOSANITARIOS DE PROXIMIDAD. 2.- LA FORMACIÓN Y EL ASESORAMIENTO EN LA GESTIÓN PÚBLICA Y PRIVADA DE RECURSOS SOCIOSANITARIOS DOMICILIARIOS Y RESIDENCIALES. 3.- LA GESTIÓN INTEGRAL DE RECURSOS SOCIOSANITARIOS PÚBLICOS Y PRIVADOS. 4.- LA CONSULTORÍA DE CALIDAD DE LA GESTIÓN DE RECURSOS SOCIOSANITARIOS. 5.- LA PROMOCIÓN, CONSTRUCCIÓN Y EXPLOTACIÓN DE OBRAS Y CONCESIONES ADMINISTRATIVAS RELATIVAS A SERVICIOS Y RECURSOS SOCIOSANITARIOS. 6.- LA COMPRAVENTA Y EXPLOTACIÓN DE TODA CLASE DE FINCAS RÚSTICAS O URBANAS. 7.- LA URBANIZACIÓN, PARCELACIÓN, CONSTRUCCIÓN, PROMOCIÓN Y REHABILITACIÓN, POR CUENTA PROPIA O AJENA, DE TODO TIPO DE INMUEBLES POR NATURALEZA. 8.- LA SOCIEDAD PODRÁ TAMBIÉN DESARROLLAR DE MODO INDIRECTO, TOTAL O PARCIALMENTE, LAS ACTIVIDADES QUE INTEGRAN EL OBJETO SOCIAL, MEDIANTE LA TITULARIDAD DE ACCIONES O PARTICIPACIONES EN SOCIEDADES DE IDÉNTICO O ANÁLOGO OBJETO",
      "mainEntityOfPage": "https://www.contratacion.euskadi.eus/webkpe00-kperoc/es/ac71aBusquedaRegistrosWar/empresa/07007",
      "_links": {
        "self": {
          "name": "SENIOR EUROPA, S.L",
          "href": "https://api.euskadi.eus/procurements/companies/07007"
        }
      }
    }
  ]
}