{
  "totalItems": 9042,
  "totalPages": 905,
  "currentPage": 399,
  "itemsOfPage": 10,
  "items": [
    {
      "name": "SOMOS BRANDED, S.L.",
      "registrationNumber": "08656",
      "identificationNumber": "B09636465",
      "address": "PASEO TOKI EDER 119 - 1º IZQUIERDA",
      "location": {
        "postalCode": "20013",
        "municipality": "Donostia / San Sebastián",
        "county": "Gipuzkoa",
        "municipalityId": "069",
        "countyId": "20"
      },
      "economicActivities": [
        {
          "id": "1.844",
          "name": "Servicios de publicidad, relaciones públicas y similares",
          "_links": {
            "self": {
              "name": "Servicios de publicidad, relaciones públicas y similares",
              "href": "https://api.euskadi.eus/procurements/companies/economic-activities/1.844"
            }
          }
        },
        {
          "id": "1.932.2",
          "name": "Enseñanza de formación y perfeccionamiento profesional superior",
          "_links": {
            "self": {
              "name": "Enseñanza de formación y perfeccionamiento profesional superior",
              "href": "https://api.euskadi.eus/procurements/companies/economic-activities/1.932.2"
            }
          }
        }
      ],
      "certificateStartDate": "2024-08-27",
      "certificateEndDate": "2025-02-27",
      "object": "LA PUBLICIDAD Y SU COMERCIALIZACIÓN; LAS RELACIONES PÚBLICAS; LA PROMOCIÓN DE VENTAS; INVESTIGACIÓN DE MERCADOS; LA PUBLICIDAD EXTERIOR Y AGENCIA DE SERVICIOS PLENOS; ESTRATEGIA; CONSULTORÍA DE MARKETING, FORMACIÓN, EVENTOS, COMUNICACIÓN CORPORATIVA, MARKETING DIGITAL, SERVICIOS DE PRODUCCIÓN. CNAE 7021- RELACIONES PÚBLICAS Y COMUNICACIÓN 7311- AGENCIAS DE PUBLICIDAD.",
      "mainEntityOfPage": "https://www.contratacion.euskadi.eus/webkpe00-kperoc/es/ac71aBusquedaRegistrosWar/empresa/08656",
      "_links": {
        "self": {
          "name": "SOMOS BRANDED, S.L.",
          "href": "https://api.euskadi.eus/procurements/companies/08656"
        }
      }
    },
    {
      "name": "ORTOBEA, S.A.",
      "registrationNumber": "02963",
      "identificationNumber": "A20138012",
      "address": "AVDA. GUDARIS, Nº 33",
      "location": {
        "postalCode": "20140",
        "municipality": "Andoain",
        "county": "Gipuzkoa",
        "municipalityId": "009",
        "countyId": "20"
      },
      "economicActivities": [
        {
          "id": "1.389",
          "name": "Construcción de otro material de transporte n.c.o.p",
          "_links": {
            "self": {
              "name": "Construcción de otro material de transporte n.c.o.p",
              "href": "https://api.euskadi.eus/procurements/companies/economic-activities/1.389"
            }
          }
        },
        {
          "id": "1.619.2",
          "name": "Venta al por mayor de aparatos e instrumentos médicos, ortopédicos, ópticos",
          "_links": {
            "self": {
              "name": "Venta al por mayor de aparatos e instrumentos médicos, ortopédicos, ópticos",
              "href": "https://api.euskadi.eus/procurements/companies/economic-activities/1.619.2"
            }
          }
        }
      ],
      "certificateStartDate": "2024-08-27",
      "certificateEndDate": "2025-02-27",
      "object": "LA CONSTRUCCIÓN, COMERCIALIZACIÓN Y GESTIÓN DE SILLAS DE RUEDAS, AYUDAS ORTOPÉDICAS Y AYUDAS TÉCNICAS. LA SOCIEDAD PODRÁ REALIZAR SU OBJETO SOCIAL BIEN DIRECTAMENTE BIEN MEDIANTE LA PARTICIPACIÓN EN OTRAS SOCIEDADES DE IGUAL O ANÁLOGO OBJETO ",
      "mainEntityOfPage": "https://www.contratacion.euskadi.eus/webkpe00-kperoc/es/ac71aBusquedaRegistrosWar/empresa/02963",
      "_links": {
        "self": {
          "name": "ORTOBEA, S.A.",
          "href": "https://api.euskadi.eus/procurements/companies/02963"
        }
      }
    },
    {
      "name": "AVIKUSMEDIA, S.L.",
      "registrationNumber": "07974",
      "identificationNumber": "B16690398",
      "address": "lallana nº 64",
      "location": {
        "postalCode": "48530",
        "municipality": "Ortuella",
        "county": "Bizkaia",
        "municipalityId": "083",
        "countyId": "48"
      },
      "economicActivities": [
        {
          "id": "1.849.9",
          "name": "Otros servicios independientes n.c.o.p",
          "_links": {
            "self": {
              "name": "Otros servicios independientes n.c.o.p",
              "href": "https://api.euskadi.eus/procurements/companies/economic-activities/1.849.9"
            }
          }
        }
      ],
      "certificateStartDate": "2024-08-27",
      "certificateEndDate": "2025-02-27",
      "object": "5915.- ACTIVIDADES DE PRODUCCIÓN CINEMATOGRÁFICA Y DE VÍDEO. AUNQUE PODRÁ DESEMPEÑAR OTRAS ACTIVIDADES TALES COMO: 5912.- ACTIVIDADES DE POSTPRODUCCIÓN CINEMATOGRÁFICA, DE VÍDEO Y DE PROGRAMAS DE TELEVISIÓN. 5916.- ACTIVIDADES DE PRODUCCIONES DE PROGRAMAS DE TELEVISIÓN. 5920.- ACTIVIDADES DE GRABACIÓN DE SONIDO Y EDICIÓN MUSICAL.",
      "mainEntityOfPage": "https://www.contratacion.euskadi.eus/webkpe00-kperoc/es/ac71aBusquedaRegistrosWar/empresa/07974",
      "_links": {
        "self": {
          "name": "AVIKUSMEDIA, S.L.",
          "href": "https://api.euskadi.eus/procurements/companies/07974"
        }
      }
    },
    {
      "name": "NAGIVIAL ZERBITZUAK, S.L.",
      "registrationNumber": "08655",
      "identificationNumber": "B71367635",
      "address": "CALLE BARDENAS REALES 11, 2º B",
      "location": {
        "postalCode": "31621",
        "municipality": "Valle de Egüés/Eguesibar",
        "county": "Navarra",
        "municipalityId": "086",
        "countyId": "31"
      },
      "economicActivities": [
        {
          "id": "1.507",
          "name": "Construcción, reparación y conservación de toda clase obras",
          "_links": {
            "self": {
              "name": "Construcción, reparación y conservación de toda clase obras",
              "href": "https://api.euskadi.eus/procurements/companies/economic-activities/1.507"
            }
          }
        }
      ],
      "certificateStartDate": "2024-08-27",
      "certificateEndDate": "2025-02-27",
      "object": "1. LA PROMOCIÓN, CONSTRUCCIÓN Y VENTA DE TODO TIPO DE EDIFICACIONES, YA SEAN PARA USOS RESIDENCIALES, INDUSTRIALES O DE SERVICIOS, ASÍ COMO LA REHABILITACIÓN Y EL ACONDICIONAMIENTO DE EDIFICIOS YA EXISTENTES PARA LOS ANTERIORES USOS. CN.A.E.: 4299.- CONSTRUCCIÓN DE OTROS PROYECTOS DE INGENIERÍA CIVIL N.C.O.P. 2. COMPRA-VENTA Y ACONDICIONAMIENTO DE TERRENOS Y SOLARES, YA SEAN URBANIZADOS O NO, PARA USOS RESIDENCIALES O INDUSTRIALES. 3. CONSTRUCCIÓN DE TODO TIPO DE OBRA CIVIL Y DE INGENIERÍA, TANTO PARA PARTICULARES COMO PARA INSTITUCIONES, YA SEAN ESTAS PÚBLICAS O PRIVADAS. 4. MANTENIMIENTO, EXPLOTACIÓN Y CONSERVACIÓN DE EDIFICIOS PÚBLICOS O PRIVADOS, CARRETERAS, VÍAS PÚBLICAS Y URBANIZACIONES, LA REDACCIÓN Y ELABORACIÓN DE PROYECTOS RELACIONADOS CON LAS ACTIVIDADES DE LA EMPRESA. 5. CONSTRUCCIÓN Y PROMOCIÓN DE PARQUES EÓLICOS. 6. LA PRODUCCIÓN Y VENTA DE ENERGÍA ELÉCTRICA. 7. REALIZACIÓN DE LAS ACTIVIDADES PROPIAS DEL MERCADO INMOBILIARIO. 8. LA PARTICIPACIÓN EN TODA CLASE DE EMPRESAS Y SOCIEDADES CIVILES, MERCANTILES Y DE OTRA NATURALEZA, EXISTENTES O QUE SE CREEN, EXCLUSIVAMENTE CON CAPITAL PROPIO O A TRAVÉS DE SUSCRIPCIÓN, ADQUISICIÓN, POSESIÓN O PARTICIPACIÓN EN SUS TÍTULO, VALORES, OBLIGACIONES Y PARTICIPACIONES SOCIALES. 9. LA COMPRA, COMERCIALIZACIÓN, VENTA Y DISTRIBUCIÓN DE TODO TIPO DE MATERIALES, ÚTILES, MAQUINARIA Y ACCESORIOS CUYO DESTINO SEA LA CONSTRUCCIÓN EN GENERAL, SEAN ESTOS DE PROCEDENCIA NACIONAL O IMPORTACIÓN. 10. EL ALQUILER DE TODO TIPO DE MAQUINARIA Y ÚTILES PARA LA CONSTRUCCIÓN. 11. LA PROSPECCIÓN Y EXPLOTACIÓN, YA SEA DIRECTAMENTE O POR EL SISTEMA DE CONCESIONES ADMINISTRATIVAS, DE MINAS, CANTERAS Y GRAVERAS, ASÍ COMO LA COMERCIALIZACIÓN Y VENTA DE PRODUCTOS ELABORADOS O NO, EXTRAÍDOS DE LAS MISMAS.",
      "mainEntityOfPage": "https://www.contratacion.euskadi.eus/webkpe00-kperoc/es/ac71aBusquedaRegistrosWar/empresa/08655",
      "_links": {
        "self": {
          "name": "NAGIVIAL ZERBITZUAK, S.L.",
          "href": "https://api.euskadi.eus/procurements/companies/08655"
        }
      }
    },
    {
      "name": "PMC GRUP 1985, S.A.",
      "registrationNumber": "06909",
      "identificationNumber": "A58093816",
      "address": "Pol. Ind. Can Casablanques, Calle Empordà, 1",
      "location": {
        "postalCode": "08192",
        "municipality": "Sant Quirze del Vallès",
        "county": "Barcelona",
        "municipalityId": "238",
        "countyId": "08"
      },
      "economicActivities": [
        {
          "id": "1.615.2",
          "name": "Venta al por mayor de muebles",
          "_links": {
            "self": {
              "name": "Venta al por mayor de muebles",
              "href": "https://api.euskadi.eus/procurements/companies/economic-activities/1.615.2"
            }
          }
        },
        {
          "id": "1.617.8",
          "name": "Venta al por mayor de máquinas y material de oficina",
          "_links": {
            "self": {
              "name": "Venta al por mayor de máquinas y material de oficina",
              "href": "https://api.euskadi.eus/procurements/companies/economic-activities/1.617.8"
            }
          }
        },
        {
          "id": "1.619.5",
          "name": "Venta al por mayor de artículos de papelería y escritorios",
          "_links": {
            "self": {
              "name": "Venta al por mayor de artículos de papelería y escritorios",
              "href": "https://api.euskadi.eus/procurements/companies/economic-activities/1.619.5"
            }
          }
        },
        {
          "id": "1.691.9",
          "name": "Reparación de otros bienes de consumo n.c.o.p",
          "_links": {
            "self": {
              "name": "Reparación de otros bienes de consumo n.c.o.p",
              "href": "https://api.euskadi.eus/procurements/companies/economic-activities/1.691.9"
            }
          }
        }
      ],
      "certificateStartDate": "2024-08-27",
      "certificateEndDate": "2025-02-27",
      "object": "LA VENTA AL POR MAYOR Y MENOR DE ARTÍCULOS DE PAPELERÍA, DE MATERIAL DE OFICINA, DE CONSUMIBLES DE IMPRESIÓN, DE EQUIPOS INFORMÁTICOS Y SUS ACCESORIOS Y COMPLEMENTOS, ASÍ COMO LA VENTA DE SOFTWARE. VENTA AL POR MAYOR Y MENOR, ASÍ COMO LA COMERCIALIZACIÓN, DISTRIBUCIÓN Y ALQUILER DE TODO TIPO DE SOLUCIONES VISUALES Y DE EQUIPOS MULTIFUNCIÓN, MULTICOPISTAS O FOTOCOPIADORAS Y SOLUCIONES INFORMÁTICAS DE GESTIÓN. SERVICIOS DE MANTENIMIENTO Y REPARACIÓN DE EQUIPOS E INSTALACIONES INFORMÁTICAS, OFIMÁTICAS Y DE TELECOMUNICACIONES. VENTA AL POR MAYOR Y MENOR DE LA INSTALACIÓN, DEL DISEÑO Y DE LA GESTIÓN DE PROYECTOS DE OBRA Y DE MOBILIARIO PARA LA OFICINA. TODA CLASE DE TRABAJOS DE IMPRENTA EXCEPTO LA EDICIÓN DE LIBROS O PERIÓDICOS. QUEDAN EXCLUIDAS AQUELLAS ACTIVIDADES ATRIBUIDAS POR LA LEY O CON CARÁCTER EXCLUSIVA A DETERMINADAS ENTIDADES O PROFESIONALES",
      "mainEntityOfPage": "https://www.contratacion.euskadi.eus/webkpe00-kperoc/es/ac71aBusquedaRegistrosWar/empresa/06909",
      "_links": {
        "self": {
          "name": "PMC GRUP 1985, S.A.",
          "href": "https://api.euskadi.eus/procurements/companies/06909"
        }
      }
    },
    {
      "name": "IKIGAI DESIGN, S.L.",
      "registrationNumber": "09764",
      "identificationNumber": "B42885558",
      "address": "Martínez Corrochano, 29, 4C",
      "location": {
        "postalCode": "28007",
        "municipality": "Madrid",
        "county": "Madrid",
        "municipalityId": "079",
        "countyId": "28"
      },
      "economicActivities": [
        {
          "id": "1.844",
          "name": "Servicios de publicidad, relaciones públicas y similares",
          "_links": {
            "self": {
              "name": "Servicios de publicidad, relaciones públicas y similares",
              "href": "https://api.euskadi.eus/procurements/companies/economic-activities/1.844"
            }
          }
        },
        {
          "id": "1.989.2",
          "name": "Servicios de organización de congresos, asambleas y similares",
          "_links": {
            "self": {
              "name": "Servicios de organización de congresos, asambleas y similares",
              "href": "https://api.euskadi.eus/procurements/companies/economic-activities/1.989.2"
            }
          }
        },
        {
          "id": "1.999",
          "name": "Otros servicios n.c.o.p",
          "_links": {
            "self": {
              "name": "Otros servicios n.c.o.p",
              "href": "https://api.euskadi.eus/procurements/companies/economic-activities/1.999"
            }
          }
        }
      ],
      "certificateStartDate": "2024-08-27",
      "certificateEndDate": "2025-02-27",
      "object": "ACTIVIDAD PRINCIPAL: 7311 - AGENCIAS DE PUBLICIDAD. OTRAS ACTIVIDADES: 7490 - OTRAS ACTIVIDADES PROFESIONALES, CIENTÍFICAS Y TÉCNICAS N.C.O.P. 7320 - ESTUDIOS DE MERCADO Y REALIZACIÓN DE ENCUESTAS DE OPINIÓN PÚBLICA.",
      "mainEntityOfPage": "https://www.contratacion.euskadi.eus/webkpe00-kperoc/es/ac71aBusquedaRegistrosWar/empresa/09764",
      "_links": {
        "self": {
          "name": "IKIGAI DESIGN, S.L.",
          "href": "https://api.euskadi.eus/procurements/companies/09764"
        }
      }
    },
    {
      "name": "ARABA PRESS, S.L.",
      "registrationNumber": "09250",
      "identificationNumber": "B01379221",
      "address": "PLAZA DEL DANTZARI Nº 1  9  A",
      "location": {
        "postalCode": "01006",
        "municipality": "Vitoria-Gasteiz",
        "county": "Araba/Álava",
        "municipalityId": "059",
        "countyId": "01"
      },
      "economicActivities": [
        {
          "id": "1.849.9",
          "name": "Otros servicios independientes n.c.o.p",
          "_links": {
            "self": {
              "name": "Otros servicios independientes n.c.o.p",
              "href": "https://api.euskadi.eus/procurements/companies/economic-activities/1.849.9"
            }
          }
        }
      ],
      "certificateStartDate": "2024-08-26",
      "certificateEndDate": "2025-02-22",
      "object": "A) LA PRESTACIÓN DE SERVICIOS DE AGENCIA FOTOGRÁFICA Y PERIODÍSTICA. B) LA ADQUISICIÓN POR CUALQUIER TÍTULO DE FINCAS RÚSTICAS O URBANAS, LA CONSTRUCCIÓN DE ÉSTAS Y LA ADMINISTRACIÓN, TENENCIA, EXPLOTACIÓN Y ARRENDAMIENTO DE TALES BIENES Y SU VENTA TOTAL O PARCIAL.",
      "mainEntityOfPage": "https://www.contratacion.euskadi.eus/webkpe00-kperoc/es/ac71aBusquedaRegistrosWar/empresa/09250",
      "_links": {
        "self": {
          "name": "ARABA PRESS, S.L.",
          "href": "https://api.euskadi.eus/procurements/companies/09250"
        }
      }
    },
    {
      "name": "MAS MADERA CUBIERTAS 2000, S.L.",
      "registrationNumber": "09198",
      "identificationNumber": "B16987422",
      "address": "calle rio piqueras 145",
      "location": {
        "postalCode": "26151",
        "municipality": "Arrúbal",
        "county": "Rioja, La",
        "municipalityId": "019",
        "countyId": "26"
      },
      "economicActivities": [
        {
          "id": "1.505.7",
          "name": "Trabajos en yeso y escayola y decoración de edificios y locales",
          "_links": {
            "self": {
              "name": "Trabajos en yeso y escayola y decoración de edificios y locales",
              "href": "https://api.euskadi.eus/procurements/companies/economic-activities/1.505.7"
            }
          }
        }
      ],
      "certificateStartDate": "2024-08-25",
      "certificateEndDate": "2025-02-25",
      "object": "FABRICACIÓN DE OTRAS ESTRUCTURAS DE MADERA Y PIEZAS DE CARPINTERÍA Y EBANISTERÍA PARA LA CONSTRUCCIÓN. CONSTRUCCIÓN DE CUBIERTAS. CONSTRUCCIÓN COMPLETA, REPARACIÓN Y CONSERVACIÓN DE OBRAS CIVILES. LA PROMOCIÓN Y VENTA DE VIVIENDAS Y TODO TIPO DE INMUEBLES. FABRICACIÓN DE MUEBLES. COMPRAVENTA DE ARTÍCULOS PARA LA CONSTRUCCIÓN.",
      "mainEntityOfPage": "https://www.contratacion.euskadi.eus/webkpe00-kperoc/es/ac71aBusquedaRegistrosWar/empresa/09198",
      "_links": {
        "self": {
          "name": "MAS MADERA CUBIERTAS 2000, S.L.",
          "href": "https://api.euskadi.eus/procurements/companies/09198"
        }
      }
    },
    {
      "name": "ASCENDO CONSULTING-SANIDAD&FARMA, S.L.",
      "registrationNumber": "07265",
      "identificationNumber": "B86940129",
      "address": "Calle Arte 21 - 7A",
      "location": {
        "postalCode": "28033",
        "municipality": "Madrid",
        "county": "Madrid",
        "municipalityId": "079",
        "countyId": "28"
      },
      "economicActivities": [
        {
          "id": "1.849.9",
          "name": "Otros servicios independientes n.c.o.p",
          "_links": {
            "self": {
              "name": "Otros servicios independientes n.c.o.p",
              "href": "https://api.euskadi.eus/procurements/companies/economic-activities/1.849.9"
            }
          }
        },
        {
          "id": "1.936",
          "name": "Investigación científica y técnica",
          "_links": {
            "self": {
              "name": "Investigación científica y técnica",
              "href": "https://api.euskadi.eus/procurements/companies/economic-activities/1.936"
            }
          }
        }
      ],
      "certificateStartDate": "2024-08-23",
      "certificateEndDate": "2025-02-22",
      "object": "PRESTACIÓN A ENTIDADES DE CARÁCTER PÚBLICO Y PRIVADO DE SERVICIOS DE CONSULTORÍA, ASESORAMIENTO Y ELABORACIÓN DE INFORMES EN TODO LO RELACIONADO CON LOS SECTORES DE LAS CIENCIAS DE LA VIDA Y SOCIALES, INCLUYENDO LA PLANIFICACIÓN, ORGANIZACIÓN Y GESTIÓN DE DICHAS ENTIDADES Y DE LAS COLABORACIONES ENTRE ELLAS Y LA PROMOCIÓN, COMERCIALIZACIÓN, DESARROLLO, GESTIÓN E IMPLANTACIÓN DE PRODUCTOS DE INVESTIGACIÓN E INNOVACIÓN, ASÍ COMO LA REALIZACIÓN DE ACTIVIDADES DE FORMACIÓN Y DESARROLLO PROFESIONAL CONTINUO. ",
      "mainEntityOfPage": "https://www.contratacion.euskadi.eus/webkpe00-kperoc/es/ac71aBusquedaRegistrosWar/empresa/07265",
      "_links": {
        "self": {
          "name": "ASCENDO CONSULTING-SANIDAD&FARMA, S.L.",
          "href": "https://api.euskadi.eus/procurements/companies/07265"
        }
      }
    },
    {
      "name": "MOBURBAN SOSTENIBLE, S.L.",
      "registrationNumber": "08300",
      "identificationNumber": "B95821914",
      "address": "Políg. Ind. Berreteaga, Txorierri Etorbidea, 46, 1º planta",
      "location": {
        "postalCode": "48150",
        "municipality": "Sondika",
        "county": "Bizkaia",
        "municipalityId": "904",
        "countyId": "48"
      },
      "economicActivities": [
        {
          "id": "1.631",
          "name": "Intermediarios del comercio",
          "_links": {
            "self": {
              "name": "Intermediarios del comercio",
              "href": "https://api.euskadi.eus/procurements/companies/economic-activities/1.631"
            }
          }
        },
        {
          "id": "1.653.4",
          "name": "Venta al por menor de material de construcción y mobiliario de saneamiento",
          "_links": {
            "self": {
              "name": "Venta al por menor de material de construcción y mobiliario de saneamiento",
              "href": "https://api.euskadi.eus/procurements/companies/economic-activities/1.653.4"
            }
          }
        },
        {
          "id": "1.921.1",
          "name": "Servicios de limpieza en calles, vías públicas y jardines",
          "_links": {
            "self": {
              "name": "Servicios de limpieza en calles, vías públicas y jardines",
              "href": "https://api.euskadi.eus/procurements/companies/economic-activities/1.921.1"
            }
          }
        },
        {
          "id": "1.922",
          "name": "Servicios de limpieza",
          "_links": {
            "self": {
              "name": "Servicios de limpieza",
              "href": "https://api.euskadi.eus/procurements/companies/economic-activities/1.922"
            }
          }
        }
      ],
      "certificateStartDate": "2024-08-23",
      "certificateEndDate": "2025-02-23",
      "object": "COMERCIO AL POR MAYOR Y AL POR MENOR. DISTRIBUCIÓN COMERCIAL. IMPORTACIÓN Y EXPORTACIÓN.",
      "mainEntityOfPage": "https://www.contratacion.euskadi.eus/webkpe00-kperoc/es/ac71aBusquedaRegistrosWar/empresa/08300",
      "_links": {
        "self": {
          "name": "MOBURBAN SOSTENIBLE, S.L.",
          "href": "https://api.euskadi.eus/procurements/companies/08300"
        }
      }
    }
  ]
}