{
  "totalItems": 9042,
  "totalPages": 905,
  "currentPage": 733,
  "itemsOfPage": 10,
  "items": [
    {
      "name": "KOPIAK, S.A.",
      "registrationNumber": "02346",
      "identificationNumber": "A48158885",
      "address": "MARQUES DEL PUERTO, 9",
      "location": {
        "postalCode": "48008",
        "municipality": "Bilbao",
        "county": "Bizkaia",
        "municipalityId": "020",
        "countyId": "48"
      },
      "economicActivities": [
        {
          "id": "1.474",
          "name": "Artes gráficas (impresión gráfica)",
          "_links": {
            "self": {
              "name": "Artes gráficas (impresión gráfica)",
              "href": "https://api.euskadi.eus/procurements/companies/economic-activities/1.474"
            }
          }
        },
        {
          "id": "1.659.4",
          "name": "Venta al por menor de libros, periódicos y artículos de papelería y escritorio",
          "_links": {
            "self": {
              "name": "Venta al por menor de libros, periódicos y artículos de papelería y escritorio",
              "href": "https://api.euskadi.eus/procurements/companies/economic-activities/1.659.4"
            }
          }
        },
        {
          "id": "1.973.3",
          "name": "Servicios de copias de documentos con máquina fotocopiadora",
          "_links": {
            "self": {
              "name": "Servicios de copias de documentos con máquina fotocopiadora",
              "href": "https://api.euskadi.eus/procurements/companies/economic-activities/1.973.3"
            }
          }
        }
      ],
      "certificateStartDate": "2010-03-10",
      "certificateEndDate": "2010-09-01",
      "object": "LOS TRABAJOS DE IMPRENTA RÁPIDA, OBTENCIÓN DE FOTOCOPIAS, SERVICIOS DE MAILING, Y PAPELERÍA Y TODO LO RELACIONADO CON COPIAS DE DOCUMENTOS, IMPRENTA Y OBJETOS DE PAPELERÍA, E INCLUSO REPRESENTACIONES TANTO NACIONALES COMO EXTRANJERAS DE LOS CITADOS ARTÍCULOS,",
      "mainEntityOfPage": "https://www.contratacion.euskadi.eus/webkpe00-kperoc/es/ac71aBusquedaRegistrosWar/empresa/02346",
      "_links": {
        "self": {
          "name": "KOPIAK, S.A.",
          "href": "https://api.euskadi.eus/procurements/companies/02346"
        }
      }
    },
    {
      "name": "CARGONET, S.L.",
      "registrationNumber": "04378",
      "identificationNumber": "B48931141",
      "address": "POLG. IZARZA, , PARCELA 2, NAVE A-1 (ASUA)",
      "location": {
        "postalCode": "48950",
        "municipality": "Erandio",
        "county": "Bizkaia",
        "municipalityId": "902",
        "countyId": "48"
      },
      "economicActivities": [
        {
          "id": "1.722",
          "name": "Transporte de mercancías por carretera",
          "_links": {
            "self": {
              "name": "Transporte de mercancías por carretera",
              "href": "https://api.euskadi.eus/procurements/companies/economic-activities/1.722"
            }
          }
        },
        {
          "id": "1.756",
          "name": "Intermediarios del transporte",
          "_links": {
            "self": {
              "name": "Intermediarios del transporte",
              "href": "https://api.euskadi.eus/procurements/companies/economic-activities/1.756"
            }
          }
        }
      ],
      "certificateStartDate": "2010-03-10",
      "certificateEndDate": "2010-05-12",
      "object": "LOS SERVICIOS DE RECADERÍA, Y LA RECOGIDA, DEPÓSITO Y REPARTO DE FOLLETOS, SOBRES, PUBLICACIONES Y PROPAGANDA EN GENERAL; Y LA PRESTACIÓN DE SERVICIOS ADMINISTRATIVOS Y DE ASESORAMIENTO A OTRAS EMPRESAS DEL RAMO",
      "mainEntityOfPage": "https://www.contratacion.euskadi.eus/webkpe00-kperoc/es/ac71aBusquedaRegistrosWar/empresa/04378",
      "_links": {
        "self": {
          "name": "CARGONET, S.L.",
          "href": "https://api.euskadi.eus/procurements/companies/04378"
        }
      }
    },
    {
      "name": "ELECTRICIDAD ELGOIN, S.A.",
      "registrationNumber": "04379",
      "identificationNumber": "A48910178",
      "address": "ZUBIBITARTE, 6",
      "location": {
        "postalCode": "48220",
        "municipality": "Durango",
        "county": "Bizkaia",
        "municipalityId": "027",
        "countyId": "48"
      },
      "economicActivities": [
        {
          "id": "1.504.1",
          "name": "Instalaciones eléctricas en general",
          "_links": {
            "self": {
              "name": "Instalaciones eléctricas en general",
              "href": "https://api.euskadi.eus/procurements/companies/economic-activities/1.504.1"
            }
          }
        }
      ],
      "certificateStartDate": "2010-03-10",
      "certificateEndDate": "2010-08-11",
      "object": "pte",
      "mainEntityOfPage": "https://www.contratacion.euskadi.eus/webkpe00-kperoc/es/ac71aBusquedaRegistrosWar/empresa/04379",
      "_links": {
        "self": {
          "name": "ELECTRICIDAD ELGOIN, S.A.",
          "href": "https://api.euskadi.eus/procurements/companies/04379"
        }
      }
    },
    {
      "name": "PUBLIS, NÚCLEO DE COMUNICACIÓN Y MARKETING, S.A.",
      "registrationNumber": "00225",
      "identificationNumber": "A20049847",
      "address": "PORTUETXE, 23 B - PLANTA 1ª - OF. 2. EDIF. CEMEI",
      "location": {
        "postalCode": "20018",
        "municipality": "Donostia / San Sebastián",
        "county": "Gipuzkoa",
        "municipalityId": "069",
        "countyId": "20"
      },
      "economicActivities": [
        {
          "id": "1.844",
          "name": "Servicios de publicidad, relaciones públicas y similares",
          "_links": {
            "self": {
              "name": "Servicios de publicidad, relaciones públicas y similares",
              "href": "https://api.euskadi.eus/procurements/companies/economic-activities/1.844"
            }
          }
        }
      ],
      "certificateStartDate": "2010-03-08",
      "certificateEndDate": "2010-02-25",
      "object": "\r\n\r\n1.- POR CUENTA PROPIA O POR CUENTA DE TERCEROS; CREAR, PROYECTAR, EJECUTAR Y DISTRIBUIR CAMPAÑAS PUBLICITARIAS O DE PROPAGANDA A TRAVÉS DE TODOS LOS MEDIOS DE DIFUSIÓN, PRESTANDO SUS SERVICIOS SIMULTÁNEAMENTE A VARIOS ANUNCIANTES; PROPORCIONÁNDOLES UNA ASISTENCIA TÉCNICA COMPLETA EN MATERIA DE INVESTIGACIÓN DE MERCADOS, PROMOCIÓN DE VENTAS, ASESORAMIENTO SOBRE LOS MEDIOS DE DIFUSIÓN, CONTROL SOBRE EL DESARROLLO Y RESULTADO DE LAS CAMPAÑAS Y LAS USUALES DE TIPO COMPLEMENTARIO DENTRO DE LA MISMA ESPECIALIDAD\r\n\r\n2.- TODA LA ACTIVIDAD REFERENTE A LA COMUNICACIÓN EN TODAS SUS FACETAS, ASÍ COMO LA EXPLOTACIÓN DE EXCLUSIVAS PUBLICITARIAS LOCALES Y NACIONALES; ACTIVIDADES DE DISEÑO, CREACIÓN DE NUEVOS PRODUCTOS, ASESORÍA Y EJECUCIÓN EN ACTIVIDADES DE MÁRKETING O DE CUALQUIER OTRA FACETA EMPRESARIAL, REALIZACIÓN DE INVESTIGACIONES Y ESTUDIOS DE MERCADO, PUBLICACIONES, TODA LA ACTIVIDAD RELATIVA A RELACIONES PÚBLICAS, CURSOS Y SEMINARIOS SOBRE MÁRKETING, COMUNICACIÓN Y EXPRESIÓN; SELECCIÓN Y ADIESTRAMIENTO DE PERSONAL Y EN GENERAL DE TODAS AQUELLAS ACTIVIDADES CREATIVAS INVESTIGACIONALES, DE PROYECTOS, EJECUTIVAS Y DE CONTROL EN TODOS LOS CAMPOS O MATERIAS CITADOS",
      "mainEntityOfPage": "https://www.contratacion.euskadi.eus/webkpe00-kperoc/es/ac71aBusquedaRegistrosWar/empresa/00225",
      "_links": {
        "self": {
          "name": "PUBLIS, NÚCLEO DE COMUNICACIÓN Y MARKETING, S.A.",
          "href": "https://api.euskadi.eus/procurements/companies/00225"
        }
      }
    },
    {
      "name": "COMERCIAL ALBERDI, S.A.",
      "registrationNumber": "01130",
      "identificationNumber": "A01004076",
      "address": "C/ ALTO DE ARMENTIA, Nº 18 - Km 2,5.",
      "location": {
        "postalCode": "01007",
        "municipality": "Vitoria-Gasteiz",
        "county": "Araba/Álava",
        "municipalityId": "059",
        "countyId": "01"
      },
      "economicActivities": [
        {
          "id": "1.615.1",
          "name": "Venta al por mayor de vehículos, motocicletas, bicicletas y sus accesorios",
          "_links": {
            "self": {
              "name": "Venta al por mayor de vehículos, motocicletas, bicicletas y sus accesorios",
              "href": "https://api.euskadi.eus/procurements/companies/economic-activities/1.615.1"
            }
          }
        },
        {
          "id": "1.691.2",
          "name": "Reparación de vehículos automóviles, bicicletas y otros vehículos",
          "_links": {
            "self": {
              "name": "Reparación de vehículos automóviles, bicicletas y otros vehículos",
              "href": "https://api.euskadi.eus/procurements/companies/economic-activities/1.691.2"
            }
          }
        },
        {
          "id": "1.831.9",
          "name": "Otros servicios financieros n.c.o.p",
          "_links": {
            "self": {
              "name": "Otros servicios financieros n.c.o.p",
              "href": "https://api.euskadi.eus/procurements/companies/economic-activities/1.831.9"
            }
          }
        }
      ],
      "certificateStartDate": "2010-03-08",
      "certificateEndDate": "2010-08-15",
      "object": "LA COMPRA, FABRICACIÓN, DISTRIBUCIÓN Y VENTA DE TODA CLASE DE VEHÍCULOS, MAQUINARIA, HERRAMIENTAS, ACCESORIOS Y REPUESTOS. LA REPRESENTACIÓN O EXPORTACIÓN DE PRODUCTOS DE TODO TIPO, EXPLOTACIÓN DE TALLERES, GARAJES, ESTACIONES DE SERVICIO DE COMBUSTIBLES Y EN GENERAL CUALQUIER OTRA CLASE DE ACTIVIDADES QUE SEAN COMPLEMENTO O CONSECUENCIA DE LAS ANTERIORES O QUE CON ELLAS SE RELACIONEN DE MODO DIRECTO O INDIRECTO",
      "mainEntityOfPage": "https://www.contratacion.euskadi.eus/webkpe00-kperoc/es/ac71aBusquedaRegistrosWar/empresa/01130",
      "_links": {
        "self": {
          "name": "COMERCIAL ALBERDI, S.A.",
          "href": "https://api.euskadi.eus/procurements/companies/01130"
        }
      }
    },
    {
      "name": "VIAJES IBERIA, S.A.",
      "registrationNumber": "00979",
      "identificationNumber": "A07001415",
      "address": "RITA LEVI, EDIF. ORIZONIA CORPORACIÓN \"PARCBIT\"",
      "location": {
        "postalCode": "07121",
        "municipality": "Palma",
        "county": "Balears, Illes",
        "municipalityId": "040",
        "countyId": "07"
      },
      "economicActivities": [
        {
          "id": "1.755",
          "name": "Agencias de viajes",
          "_links": {
            "self": {
              "name": "Agencias de viajes",
              "href": "https://api.euskadi.eus/procurements/companies/economic-activities/1.755"
            }
          }
        },
        {
          "id": "1.755.2",
          "name": "Servicios prestados al público por las agencias de viajes",
          "_links": {
            "self": {
              "name": "Servicios prestados al público por las agencias de viajes",
              "href": "https://api.euskadi.eus/procurements/companies/economic-activities/1.755.2"
            }
          }
        }
      ],
      "certificateStartDate": "2010-03-05",
      "certificateEndDate": "2010-08-10",
      "object": "LA INDUSTRIA DEL TURISMO Y PARTICULARMENTE CUANTO SE REFIERA A LA ORGANIZACIÓN DE VIAJES POR EL INTERIOR DE LA ISLA Y FUERA DE ELLA, TANTO POR ESPAÑA COMO POR EL EXTRANJERO, LA ACOGIDA DE TURISTAS TANTO INDIVIDUALMENTE COMO EN COLECTIVIDADES QUE VISITEN MALLORCA; LA FACILITACIÓN DE ITINERARIOS, BILLETES DE FERROCARRILLES, PASAJES MARÍTIMOS Y AÉREOS, \"FORFAITS\", AUTOMÓVILES Y DEMÁS MEDIOS DE LOCOMOCIÓN, DANDO PARA ELLO TODA CLASE DE INFORMACIONES RELATIVAS A ESTE EFECTO Y PONIÉNDOSE EN CONTACTO CON TODA CLASE DE EMPRESAS NAVIERAS Y DE FERROCARRILES, AGENCIAS DE TURISMO Y DE TRANSPORTES, HOTELES, ETC; Y EN GENERAL, TODO LO QUE ESTÉ RELACIONADO CON LA INDUSTRIA DEL VIAJERO, O CUALQUIER OTRO NEGOCIO DE COMERCIO LÍCITO",
      "mainEntityOfPage": "https://www.contratacion.euskadi.eus/webkpe00-kperoc/es/ac71aBusquedaRegistrosWar/empresa/00979",
      "_links": {
        "self": {
          "name": "VIAJES IBERIA, S.A.",
          "href": "https://api.euskadi.eus/procurements/companies/00979"
        }
      }
    },
    {
      "name": "JOSÉ COVELA LÓPEZ",
      "registrationNumber": "01069",
      "identificationNumber": "76672848W",
      "address": "C/ BOLIVIA, Nº 10 - 2º B",
      "location": {
        "postalCode": "01009",
        "municipality": "Vitoria-Gasteiz",
        "county": "Araba/Álava",
        "municipalityId": "059",
        "countyId": "01"
      },
      "economicActivities": [
        {
          "id": "1.501.1",
          "name": "Construcción completa, reparación y conservación de edificaciones",
          "_links": {
            "self": {
              "name": "Construcción completa, reparación y conservación de edificaciones",
              "href": "https://api.euskadi.eus/procurements/companies/economic-activities/1.501.1"
            }
          }
        }
      ],
      "certificateStartDate": "2010-03-05",
      "certificateEndDate": "2010-08-19",
      "object": "OBRAS DE ALBAÑILERÍA",
      "mainEntityOfPage": "https://www.contratacion.euskadi.eus/webkpe00-kperoc/es/ac71aBusquedaRegistrosWar/empresa/01069",
      "_links": {
        "self": {
          "name": "JOSÉ COVELA LÓPEZ",
          "href": "https://api.euskadi.eus/procurements/companies/01069"
        }
      }
    },
    {
      "name": "THEORICA DE LA PINTURA, S.L.",
      "registrationNumber": "01792",
      "identificationNumber": "B01174580",
      "address": "C/ GENERAL ÁLAVA, Nº 30 - 2º.",
      "location": {
        "postalCode": "01005",
        "municipality": "Vitoria-Gasteiz",
        "county": "Araba/Álava",
        "municipalityId": "059",
        "countyId": "01"
      },
      "economicActivities": [
        {
          "id": "1.844",
          "name": "Servicios de publicidad, relaciones públicas y similares",
          "_links": {
            "self": {
              "name": "Servicios de publicidad, relaciones públicas y similares",
              "href": "https://api.euskadi.eus/procurements/companies/economic-activities/1.844"
            }
          }
        }
      ],
      "certificateStartDate": "2010-03-05",
      "certificateEndDate": "2010-08-24",
      "object": "LA CONFECCIÓN DE PROYECTOS Y ESTUDIOS PARA LA IMAGEN, LA COMUNICACIÓN Y EL DISEÑO",
      "mainEntityOfPage": "https://www.contratacion.euskadi.eus/webkpe00-kperoc/es/ac71aBusquedaRegistrosWar/empresa/01792",
      "_links": {
        "self": {
          "name": "THEORICA DE LA PINTURA, S.L.",
          "href": "https://api.euskadi.eus/procurements/companies/01792"
        }
      }
    },
    {
      "name": "FRANCISCO PEÑA GONZALEZ",
      "registrationNumber": "04371",
      "identificationNumber": "13123956H",
      "address": "FRANCISCO KELLER",
      "location": {
        "postalCode": "09211",
        "municipality": "Frías",
        "county": "Burgos",
        "municipalityId": "134",
        "countyId": "09"
      },
      "economicActivities": [
        {
          "id": "1.413.2",
          "name": "Fabricación de productos cárnicos de todas clases",
          "_links": {
            "self": {
              "name": "Fabricación de productos cárnicos de todas clases",
              "href": "https://api.euskadi.eus/procurements/companies/economic-activities/1.413.2"
            }
          }
        },
        {
          "id": "1.663.1",
          "name": "Venta al por menor de productos alimenticios fuera de establecimiento comercial",
          "_links": {
            "self": {
              "name": "Venta al por menor de productos alimenticios fuera de establecimiento comercial",
              "href": "https://api.euskadi.eus/procurements/companies/economic-activities/1.663.1"
            }
          }
        },
        {
          "id": "1.911",
          "name": "Servicios agrícolas y ganaderos",
          "_links": {
            "self": {
              "name": "Servicios agrícolas y ganaderos",
              "href": "https://api.euskadi.eus/procurements/companies/economic-activities/1.911"
            }
          }
        }
      ],
      "certificateStartDate": "2010-03-05",
      "certificateEndDate": "2010-07-09",
      "object": "CONSERVACIÓN DE JARDINES Y PARQUES",
      "mainEntityOfPage": "https://www.contratacion.euskadi.eus/webkpe00-kperoc/es/ac71aBusquedaRegistrosWar/empresa/04371",
      "_links": {
        "self": {
          "name": "FRANCISCO PEÑA GONZALEZ",
          "href": "https://api.euskadi.eus/procurements/companies/04371"
        }
      }
    },
    {
      "name": "ECOTERRA DESARROLLO SOSTENIBLE, S.L.",
      "registrationNumber": "04369",
      "identificationNumber": "B73542086",
      "address": "SENDA DE ENMEDIO, 10-7º C",
      "location": {
        "postalCode": "30009",
        "municipality": "Murcia",
        "county": "Murcia",
        "municipalityId": "030",
        "countyId": "30"
      },
      "economicActivities": [
        {
          "id": "1.501.1",
          "name": "Construcción completa, reparación y conservación de edificaciones",
          "_links": {
            "self": {
              "name": "Construcción completa, reparación y conservación de edificaciones",
              "href": "https://api.euskadi.eus/procurements/companies/economic-activities/1.501.1"
            }
          }
        },
        {
          "id": "1.833.2",
          "name": "Promoción de edificaciones",
          "_links": {
            "self": {
              "name": "Promoción de edificaciones",
              "href": "https://api.euskadi.eus/procurements/companies/economic-activities/1.833.2"
            }
          }
        },
        {
          "id": "1.843.1",
          "name": "Servicios técnicos de ingeniería",
          "_links": {
            "self": {
              "name": "Servicios técnicos de ingeniería",
              "href": "https://api.euskadi.eus/procurements/companies/economic-activities/1.843.1"
            }
          }
        },
        {
          "id": "1.843.9",
          "name": "Otros servicios técnicos n.c.o.p",
          "_links": {
            "self": {
              "name": "Otros servicios técnicos n.c.o.p",
              "href": "https://api.euskadi.eus/procurements/companies/economic-activities/1.843.9"
            }
          }
        },
        {
          "id": "1.846",
          "name": "Empresas de estudios de mercado",
          "_links": {
            "self": {
              "name": "Empresas de estudios de mercado",
              "href": "https://api.euskadi.eus/procurements/companies/economic-activities/1.846"
            }
          }
        },
        {
          "id": "1.911",
          "name": "Servicios agrícolas y ganaderos",
          "_links": {
            "self": {
              "name": "Servicios agrícolas y ganaderos",
              "href": "https://api.euskadi.eus/procurements/companies/economic-activities/1.911"
            }
          }
        }
      ],
      "certificateStartDate": "2010-03-02",
      "certificateEndDate": "2010-07-26",
      "object": "CONSULTORÍA AMBIENTAL, INGENIERÍA, OBRA CIVIL Y PÚBLICA, ACCIÓN ESTRATÉGICA, PROTECCIÓN Y DESARROLLO DE RECURSOS NATURALES.\r\n\r\nDINAMIZACIÓN Y SEÑALIZACIÓN RECREATIVA DEL MEDIO NATURAL.\r\n\r\nENERGÍAS RENOVABLES.\r\n\r\nPLANIFICACIÓN TERRITORIAL, DESARROLLO URBANÍSTICO Y EDIFICACION DE CARÁCTER SOSTENIBLE.\r\n\r\nPROYECTOS TERMALES Y RECREATIVOS.\r\n\r\nESTUDIOS, PROYECTOS Y PROGRAMAS PARA EL FOMENTO L.I.C. Y PROTECCIÓN EN Z.E.P.A., ASÍ COMO EL DESARROLLO DE RED NATURA.\r\n\r\nTRANSPOSICIÓN Y DESARROLLO DE DIRECTIVAS COMUNITARIAS SOBRE MEDIO AMBIENTE Y SOSTENIBILIDAD.\r\n\r\nPLANES Y PROGRAMAS DE SOSTENIBILIDAD.\r\n\r\nJARDINERÍA DEL ECOSISTEMA, REFORESTACIÓN, RECUPERACIÓN DE SUELOS, MOVIMIENTOS DE TIERRA.\r\n\r\nDISEÑO Y GESTIÓN DE CAMPOS DE GOLF.\r\n\r\nPROMOCIÓN INMOBILIARIA.\r\n\r\nCALIDAD URGANA Y PAISAJE.\r\n\r\nRECUPERACIÓN DE RIBERAS Y RÍOS.\r\n\r\nTRATAMIENTO DEL FRENTE LITORAL Y RECUPERACIÓN DE PLAYAS.\r\n\r\nDESARROLLO, RECUPERACIÓN Y MANTENIMIENTO DE VÍAS TEMÁTICAS, VÍAS VERDES Y CAMINOS RURALES.\r\n\r\nY AQUELLAS ACTIVIDADES COINCIDENTES CON LOS SIGUIENTES EPIGRAFES:\r\n\r\nA) CONSTRUCCIÓN, REPARACIÓN Y CONSERVACIÓN DE TODA CLASE DE OBRAS.\r\nB) PROMOCIÓN INMOBILIARIA\r\nC) SERVICIOS TÉCNICOS (INGENIERÍA, ARQUITECTURA, URBANISMO, ETC....)\r\nD)EMPRESAS DE ESTUDIOS DE MERCADO\r\nE) SERVICIOS AGRÍCOLAS Y GANADEROS\r\nF) SERVICIOS DE PROTECCIÓN Y ACONDICIONAMIENTO AMBIENTAL: CONTRA RUIDO, VIBRACIONES, CONTAMINACIÓN, ETC.\r\nG)ENSEÑANZA NO REGLADA DE FORMACIÓN Y PERFECCIONAMIENTO PROFESIONAL Y EDUCACIÓN SUPERIOR.\r\n\r\nTODAS LAS ACTUACIONES ANTERIORES TENDERÁN A ACCIONES ESTRATÉGICAS PARA LA PROTECCIÓN Y DESARROLLO DE LOS RECURSOS NATURALES MEDIANTE LA PLANIFICACIÓN TERRITORIAL, DESARROLLO URBANÍSTICO Y EDIFICACIÓN DE CARÁCTER SOSTENIBLE, JARDINERÍA DEL ECOSISTEMA, DINAMIZACIÓN Y SEÑALIZACIÓN RECREATIVA DEL MEDIO NATURAL Y CONTRIBUYENDO A LA CALIDAD URBANA Y DEL PAISAJE DESARROLLANDO PLANES Y PROGRAMAS DE SOSTENIBILIDAD.",
      "mainEntityOfPage": "https://www.contratacion.euskadi.eus/webkpe00-kperoc/es/ac71aBusquedaRegistrosWar/empresa/04369",
      "_links": {
        "self": {
          "name": "ECOTERRA DESARROLLO SOSTENIBLE, S.L.",
          "href": "https://api.euskadi.eus/procurements/companies/04369"
        }
      }
    }
  ]
}