{
  "totalItems": 9042,
  "totalPages": 905,
  "currentPage": 729,
  "itemsOfPage": 10,
  "items": [
    {
      "name": "DIGITAL SECURITY SOLUTIONS, S.L.",
      "registrationNumber": "03320",
      "identificationNumber": "B01320563",
      "address": "PINTOR DÍAZ DE OLANO, 18 BAJO",
      "location": {
        "postalCode": "01008",
        "municipality": "Vitoria-Gasteiz",
        "county": "Araba/Álava",
        "municipalityId": "059",
        "countyId": "01"
      },
      "economicActivities": [
        {
          "id": "1.845",
          "name": "Explotación electrónica por cuenta de terceros",
          "_links": {
            "self": {
              "name": "Explotación electrónica por cuenta de terceros",
              "href": "https://api.euskadi.eus/procurements/companies/economic-activities/1.845"
            }
          }
        }
      ],
      "certificateStartDate": "2010-05-20",
      "certificateEndDate": "2010-11-10",
      "object": "A) LA MEDIACIÓN Y COORDINACIÓN EN EL SECTOR DE SERVICIOS PROFESIONALES, DE CONSULTORÍA, ASESORAMIENTO, CONTABILIDAD, MARKETING, FINANCIEROS, SEGUROS, ESTUDIOS TÉCNICOS Y CREATIVOS, ADMINISTRATIVOS Y DE GESTIÓN, INCLUYENDO ESTUDIOS DE MERCADO Y PROMOCIÓN, SELECCIÓN, FORMACIÓN Y PERFECCIONAMIENTO DE PERSONAL, ESTUDIOS DE INGENIERÍA DENTRO Y FUERA DEL TERRITORIO NACIONAL, A TODA CLASE DE PERSONAS FÍSICAS O JURÍDICAS.\r\nB) LA REPRESENTACIÓN DE TODA CLASE DE COMERCIANTES INDIVIDUALES Y COMPAÑIAS MERCANTILES Y EXTRANJERAS ASÍ COMO LA DISTRIBUCIÓN Y COMERCIALIZACIÓN DE SUS PRODUCTOS.\r\nC) CONSULTORÍA TÉCNICA Y DE SERVICIOS, Y EN ESPECIAL, LA ELABORACIÓN DE ESTUDIOS, PROYECTOS, MEMORIAS E INFORMES DE CARÁCTER TÉCNICO, ECONÓMICO O SOCIAL.\r\n",
      "mainEntityOfPage": "https://www.contratacion.euskadi.eus/webkpe00-kperoc/es/ac71aBusquedaRegistrosWar/empresa/03320",
      "_links": {
        "self": {
          "name": "DIGITAL SECURITY SOLUTIONS, S.L.",
          "href": "https://api.euskadi.eus/procurements/companies/03320"
        }
      }
    },
    {
      "name": "MEDICAL DISS, S.L.",
      "registrationNumber": "02410",
      "identificationNumber": "B48616783",
      "address": "CTRA. BILBAO-GALDAKAO, Nº 6 A - 2º I",
      "location": {
        "postalCode": "48004",
        "municipality": "Bilbao",
        "county": "Bizkaia",
        "municipalityId": "020",
        "countyId": "48"
      },
      "economicActivities": [
        {
          "id": "1.619.2",
          "name": "Venta al por mayor de aparatos e instrumentos médicos, ortopédicos, ópticos",
          "_links": {
            "self": {
              "name": "Venta al por mayor de aparatos e instrumentos médicos, ortopédicos, ópticos",
              "href": "https://api.euskadi.eus/procurements/companies/economic-activities/1.619.2"
            }
          }
        }
      ],
      "certificateStartDate": "2010-05-17",
      "certificateEndDate": "2010-11-04",
      "object": "LA COMPRA-VENTA, DISTRIBUCIÓN Y ALQUILER DE MOBILIARIO, MATERIAL Y TODA CLASE DE PRODUCTOS DE APLICACIÓN, EN EL CAMPO DE LA ASISTENCIA SANITARIA; LA PRESTACIÓN DE ASISTENCIA SANITARIA POR CUALQUIER MEDIO, ASÍ COMO DE SERVICIOS CLÍNICOS DE ASISTENCIA Y REHABILITACIÓN, MODIFICACIÓN, DE VIVIENDAS Y ASISTENCIA SANITARIA PARA ENFERMOS, ANCIANOS E INVÁLIDOS; LA PRESTACIÓN DE PERSONAL SANITARIO, ASÍ COMO LOS SERVICIOS DE GESTIÓN HOSPITALARIA",
      "mainEntityOfPage": "https://www.contratacion.euskadi.eus/webkpe00-kperoc/es/ac71aBusquedaRegistrosWar/empresa/02410",
      "_links": {
        "self": {
          "name": "MEDICAL DISS, S.L.",
          "href": "https://api.euskadi.eus/procurements/companies/02410"
        }
      }
    },
    {
      "name": "AMAIBA INGENIERIA DE INSTALACIONES, S.L.",
      "registrationNumber": "04421",
      "identificationNumber": "B01426402",
      "address": "C/ MANUEL IRADIER, 18-3º",
      "location": {
        "postalCode": "01005",
        "municipality": "Vitoria-Gasteiz",
        "county": "Araba/Álava",
        "municipalityId": "059",
        "countyId": "01"
      },
      "economicActivities": [
        {
          "id": "1.843.1",
          "name": "Servicios técnicos de ingeniería",
          "_links": {
            "self": {
              "name": "Servicios técnicos de ingeniería",
              "href": "https://api.euskadi.eus/procurements/companies/economic-activities/1.843.1"
            }
          }
        }
      ],
      "certificateStartDate": "2010-05-17",
      "certificateEndDate": "2010-11-06",
      "object": "EL DESARROLLO DE PROYECTOS DE INGENIERÍA INDUSTRIAL, MEDIO AMBIENTAL PARA LA INDUSTRIA, PROMOCIÓN Y CONSTRUCCIÓN DE EDIFICACIONES Y TODO TIPO DE ASESORAMIENTO TÉCNICO PARA LA INDUSTRIA Y LA CONSTRUCCIÓN",
      "mainEntityOfPage": "https://www.contratacion.euskadi.eus/webkpe00-kperoc/es/ac71aBusquedaRegistrosWar/empresa/04421",
      "_links": {
        "self": {
          "name": "AMAIBA INGENIERIA DE INSTALACIONES, S.L.",
          "href": "https://api.euskadi.eus/procurements/companies/04421"
        }
      }
    },
    {
      "name": "REFORMAS Y CONTRATAS DE GIPUZKOA , S.L.",
      "registrationNumber": "02747",
      "identificationNumber": "B20449237",
      "address": "C/ BUSTINTXULO, 86 BAJO",
      "location": {
        "postalCode": "20015",
        "municipality": "Donostia / San Sebastián",
        "county": "Gipuzkoa",
        "municipalityId": "069",
        "countyId": "20"
      },
      "economicActivities": [
        {
          "id": "1.501.1",
          "name": "Construcción completa, reparación y conservación de edificaciones",
          "_links": {
            "self": {
              "name": "Construcción completa, reparación y conservación de edificaciones",
              "href": "https://api.euskadi.eus/procurements/companies/economic-activities/1.501.1"
            }
          }
        },
        {
          "id": "1.501.2",
          "name": "Construcción completa, reparación y conservación obras civiles",
          "_links": {
            "self": {
              "name": "Construcción completa, reparación y conservación obras civiles",
              "href": "https://api.euskadi.eus/procurements/companies/economic-activities/1.501.2"
            }
          }
        }
      ],
      "certificateStartDate": "2010-05-14",
      "certificateEndDate": "2010-10-29",
      "object": "LA INTERMEDIACIÓN EN TODO TIPO DE OBRAS CIVILES A REALIZAR TANTO POR PERSONAS FÍSICAS COMO JURÍDICAS, ENTRE ÉSTAS Y LOS DISTINTOS GREMIOS NECESARIOS PARA SU REALIZACIÓN; ASÍ COMO ANTE LA ADMINISTRACIÓN A EFECTOS DE GESTIONAR TODO TIPO DE LICENCIAS  Y PERMISOS ADMINISTRATIVOS; ASÍ COMO TODAS AQUELLAS ACTIVIDADES SIMILARES QUE PUEDAN RECONDUCIRSE A LAS ÁREAS CITADAS, DENTRO O FUERA DEL ESTADO.\r\nCONSOLIDACIÓN Y PREPARACIÓN DE TERRENOS, DEMOLICIONES  Y DERRIBOS, PERFORACIONES PARA ALUMBRAMIENTO DE AGUAS, CIMENTACIONES Y PAVIMENTACIONES.\r\nPREPARACIÓN Y MONTAJE DE ESTRUCTURAS Y CUBIERTAS, POSTES Y CUBRICIONES EN EDIFICACIONES.\r\nINSTALACIONES Y MONTAJES DE INSTALACIONES ELÉCTRICAS EN GENERAL, INSTALACIONES DE FONTANERÍA, ASÍ COMO INSTALACIONES DE FRÍO, CALOR Y ACONDICIONAMIENTO DE AIRE.\r\nPROMOCIÓN DE EDIFICACIONES Y TERRENOS, COMPRA Y VENTA DE TERRENOS, URBANIZACIÓN Y PARCELACIÓN DE TERRENOS, ASÍ COMO LA COMPRAVENTA DE EDIFICACIONES TOTALES O PARCIALES, CONSTRUIDAS DIRECTAMENTE O POR MEDIO DE TERCEROS, TODO ELLO CON EL FIN DE VENDERLAS.\r\nCONSTRUCCIÓN COMPLETA, REPARACIÓN Y CONSERVACIÓN  DE EDIFICACIONES.\r\nALQUILER Y COMPRAVENTA DE BIENES MUEBLES E INMUEBLES.\r\n",
      "mainEntityOfPage": "https://www.contratacion.euskadi.eus/webkpe00-kperoc/es/ac71aBusquedaRegistrosWar/empresa/02747",
      "_links": {
        "self": {
          "name": "REFORMAS Y CONTRATAS DE GIPUZKOA , S.L.",
          "href": "https://api.euskadi.eus/procurements/companies/02747"
        }
      }
    },
    {
      "name": "COMUNICACIÓN Y MARKETING DEIMOS, S.L.",
      "registrationNumber": "03391",
      "identificationNumber": "B48178537",
      "address": "IBAÑEZ DE BILBAO, 3-8º",
      "location": {
        "postalCode": "48001",
        "municipality": "Bilbao",
        "county": "Bizkaia",
        "municipalityId": "020",
        "countyId": "48"
      },
      "economicActivities": [
        {
          "id": "1.844",
          "name": "Servicios de publicidad, relaciones públicas y similares",
          "_links": {
            "self": {
              "name": "Servicios de publicidad, relaciones públicas y similares",
              "href": "https://api.euskadi.eus/procurements/companies/economic-activities/1.844"
            }
          }
        }
      ],
      "certificateStartDate": "2010-05-13",
      "certificateEndDate": "2010-11-11",
      "object": "LA SOCIEDAD TIENE POR OBJETO EL EJERCICIO DE ACTIVIDADES PUBLICITARIAS",
      "mainEntityOfPage": "https://www.contratacion.euskadi.eus/webkpe00-kperoc/es/ac71aBusquedaRegistrosWar/empresa/03391",
      "_links": {
        "self": {
          "name": "COMUNICACIÓN Y MARKETING DEIMOS, S.L.",
          "href": "https://api.euskadi.eus/procurements/companies/03391"
        }
      }
    },
    {
      "name": "CONSTRUCCIONES AMARAL DE SOUSA, S.L.",
      "registrationNumber": "01508",
      "identificationNumber": "B20374286",
      "address": "POLÍGONO BASABE, 20-A-4",
      "location": {
        "postalCode": "20550",
        "municipality": "Aretxabaleta",
        "county": "Gipuzkoa",
        "municipalityId": "013",
        "countyId": "20"
      },
      "economicActivities": [
        {
          "id": "1.501.1",
          "name": "Construcción completa, reparación y conservación de edificaciones",
          "_links": {
            "self": {
              "name": "Construcción completa, reparación y conservación de edificaciones",
              "href": "https://api.euskadi.eus/procurements/companies/economic-activities/1.501.1"
            }
          }
        },
        {
          "id": "1.501.2",
          "name": "Construcción completa, reparación y conservación obras civiles",
          "_links": {
            "self": {
              "name": "Construcción completa, reparación y conservación obras civiles",
              "href": "https://api.euskadi.eus/procurements/companies/economic-activities/1.501.2"
            }
          }
        },
        {
          "id": "1.504.1",
          "name": "Instalaciones eléctricas en general",
          "_links": {
            "self": {
              "name": "Instalaciones eléctricas en general",
              "href": "https://api.euskadi.eus/procurements/companies/economic-activities/1.504.1"
            }
          }
        }
      ],
      "certificateStartDate": "2010-05-12",
      "certificateEndDate": "2010-10-16",
      "object": "LA CONSTRUCCION COMPLETA, REPARACION Y CONSERVACION DE EDIFICACIONES URBANAS, INDUSTRIALES Y URBANIZACIONES, SANEAMIENTO Y ABASTECIMIENTO DE AGUAS, MOVIMIENTOS DE TIERRAS, CONSTRUCCION DE CARRETERAS, OBRAS HIDRAULICAS Y DE RIEGOS. OBRAS DE ALBAÑILERIA, EXCAVACIONES, DEMOLICIONES Y DERRIBOS, CONSOLIDACION Y PREPARACION DE TERRENOS, CIMENTACION Y PAVIMENTACION DE CUALQUIER CLASE, PREPARACION Y MONTAJE DE CUALQUIER TIPO DE ESTRUCTURAS, (INCLUIDA LA GRUA) Y CUBIERTAS, DE HORMIGON EN MASA, ARMADO Y PRETENSADO",
      "mainEntityOfPage": "https://www.contratacion.euskadi.eus/webkpe00-kperoc/es/ac71aBusquedaRegistrosWar/empresa/01508",
      "_links": {
        "self": {
          "name": "CONSTRUCCIONES AMARAL DE SOUSA, S.L.",
          "href": "https://api.euskadi.eus/procurements/companies/01508"
        }
      }
    },
    {
      "name": "TEA, S.COOP.",
      "registrationNumber": "04417",
      "identificationNumber": "F20457164",
      "address": "POLIGONO BORDA BERRI C-7",
      "location": {
        "postalCode": "20140",
        "municipality": "Andoain",
        "county": "Gipuzkoa",
        "municipalityId": "009",
        "countyId": "20"
      },
      "economicActivities": [
        {
          "id": "1.504.1",
          "name": "Instalaciones eléctricas en general",
          "_links": {
            "self": {
              "name": "Instalaciones eléctricas en general",
              "href": "https://api.euskadi.eus/procurements/companies/economic-activities/1.504.1"
            }
          }
        }
      ],
      "certificateStartDate": "2010-05-11",
      "certificateEndDate": "2010-09-17",
      "object": "LA INSTALACIÓN, MONTAJES Y REPARACIONES DE INSTALACIONES ELÉCTRICAS ",
      "mainEntityOfPage": "https://www.contratacion.euskadi.eus/webkpe00-kperoc/es/ac71aBusquedaRegistrosWar/empresa/04417",
      "_links": {
        "self": {
          "name": "TEA, S.COOP.",
          "href": "https://api.euskadi.eus/procurements/companies/04417"
        }
      }
    },
    {
      "name": "ORDIERES, S.L.",
      "registrationNumber": "01721",
      "identificationNumber": "B33796558",
      "address": "ALEJANDRO GOICOECHEA ORIOL, 52 (POL. MORA GARAY)",
      "location": {
        "postalCode": "33211",
        "municipality": "Gijón",
        "county": "Asturias",
        "municipalityId": "024",
        "countyId": "33"
      },
      "economicActivities": [
        {
          "id": "1.453",
          "name": "Confección en serie de toda clase de prendas de vestir",
          "_links": {
            "self": {
              "name": "Confección en serie de toda clase de prendas de vestir",
              "href": "https://api.euskadi.eus/procurements/companies/economic-activities/1.453"
            }
          }
        }
      ],
      "certificateStartDate": "2010-05-10",
      "certificateEndDate": "2010-10-07",
      "object": "LA FABRICACIÓN Y CONFECCIÓN EN SERIE, A PARTIR DE CUALQUIER TEJIDO DE TODO TIPO DE PRENDAS, COMERCIALIZACIÓN Y VENTA DE LAS MISMAS",
      "mainEntityOfPage": "https://www.contratacion.euskadi.eus/webkpe00-kperoc/es/ac71aBusquedaRegistrosWar/empresa/01721",
      "_links": {
        "self": {
          "name": "ORDIERES, S.L.",
          "href": "https://api.euskadi.eus/procurements/companies/01721"
        }
      }
    },
    {
      "name": "INTEGRACIONES ELECTRICAS Y DE TELECOMUNICACIONES EDYTA, S.L.",
      "registrationNumber": "03895",
      "identificationNumber": "B95327177",
      "address": "P.E. INBISA-ERANDIO. C/SECTOR Q S/N. PAB B2-B3",
      "location": {
        "postalCode": "48950",
        "municipality": "Erandio",
        "county": "Bizkaia",
        "municipalityId": "902",
        "countyId": "48"
      },
      "economicActivities": [
        {
          "id": "1.504.1",
          "name": "Instalaciones eléctricas en general",
          "_links": {
            "self": {
              "name": "Instalaciones eléctricas en general",
              "href": "https://api.euskadi.eus/procurements/companies/economic-activities/1.504.1"
            }
          }
        }
      ],
      "certificateStartDate": "2010-05-10",
      "certificateEndDate": "2010-10-19",
      "object": "LA COMPRA, VENTA, FABRICACIÓN, IMPORTACIÓN, EXPORTACIÓN, COMERCIALIZACIÓN, DISTRIBUCIÓN, INSTALACIÓN, MANTENIMIENTO Y REPARACIÓN DE TODO TIPO DE EQUIPOS ELÉCTRICOS DE ALTA Y BAJA TENSIÓN, ASÍ COMO SUS COMPLEMENTOS Y ACCESORIOS. LA COMPRA, VENTA, FABRICACIÓN, IMPORTACIÓN, EXPORTACIÓN, COMERCIALIZACIÓN, DISTRIBUCIÓN, INSTALACIÓN, MANTENIMIENTO Y REPARACIÓN DE TODO TIPO DE EQUIPOS ELECTRÓNICOS, INFORMÁTICOS, DE TELECOMUNICACIONES, RADIOCOMUNICACIÓN, TELEFONÍA Y TELEVISIÓN, ASÍ COMO SUS COMPLEMENTOS Y ACCESORIOS. LA COMPRA, VENTA, FABRICACIÓN, IMPORTACIÓN, EXPORTACIÓN, COMERCIALIZACIÓN, DISTRIBUCIÓN, INSTALACIÓN, MANTENIMIENTO Y REPARACIÓN DE TODO TIPO DE EQUIPOS DE CALEFACCIÓN, VENTILACIÓN, REFRIGERACIÓN Y ACONDICIONAMIENTO DE AIRE, ASÍ COMO SUS COMPLEMENTOS Y ACCESORIOS. LA REALIZACIÓN DE TODO TIPO DE ESTUDIOS, TRABAJOS Y PROYECTOS Y SU EJECUCIÓN, RELACIONADOS CON LA ELECTRÓNICA, DE ELECTRICIDAD, TELECOMUNICACIONES, INFORMÁTICA, TELEFONÍA Y TELEVISIÓN, EQUIPOS DE CALEFACCIÓN, VENTILACIÓN, REFRIGERACIÓN Y ACONDICIONAMIENTO DE AIRE.",
      "mainEntityOfPage": "https://www.contratacion.euskadi.eus/webkpe00-kperoc/es/ac71aBusquedaRegistrosWar/empresa/03895",
      "_links": {
        "self": {
          "name": "INTEGRACIONES ELECTRICAS Y DE TELECOMUNICACIONES EDYTA, S.L.",
          "href": "https://api.euskadi.eus/procurements/companies/03895"
        }
      }
    },
    {
      "name": "INTERTEK IBÉRICA SPAIN, S.A.",
      "registrationNumber": "01370",
      "identificationNumber": "A48171086",
      "address": "ALDA. RECALDE, Nº 27 - 5º",
      "location": {
        "postalCode": "48009",
        "municipality": "Bilbao",
        "county": "Bizkaia",
        "municipalityId": "020",
        "countyId": "48"
      },
      "economicActivities": [
        {
          "id": "1.752.6",
          "name": "Servicios de carga y descarga de buques",
          "_links": {
            "self": {
              "name": "Servicios de carga y descarga de buques",
              "href": "https://api.euskadi.eus/procurements/companies/economic-activities/1.752.6"
            }
          }
        },
        {
          "id": "1.936",
          "name": "Investigación científica y técnica",
          "_links": {
            "self": {
              "name": "Investigación científica y técnica",
              "href": "https://api.euskadi.eus/procurements/companies/economic-activities/1.936"
            }
          }
        }
      ],
      "certificateStartDate": "2010-05-07",
      "certificateEndDate": "2010-10-12",
      "object": "SUPERVISIÓN Y CONTROL DE CANTIDAD Y CALIDAD DE TODO TIPO DE CARGAS SECAS Y LÍQUIDAS A GRANEL CUYO TRANSPORTE SEA MARITIMO, TERRESTRE Y/O AÉREO. ANÁLISIS DE MATERIAS PRIMAS, PRODUCTOS, AGUAS Y ATMÓSFERAS EN LABORATORIOS PROPIOS CON EMISIÓN DE CERTIFICADOS DE CALIDAD O SUPERVISIÓN DE ANÁLISIS EN LABORATORIOS DE TERCEROS. CONTROL DE INSPECCIONES INDUSTRIALES. PERITAJE DE AVERIAS. CONTROL Y AUDITORÍAS DE CALIDAD. CONTROL E INSPECCIÓN DE MEDIO AMBIENTE. INPECCIONES DE LIMPIEZA DE TANQUES O CONTENEDORES CON EMISIÓN DE CERTIFICADOS PARA SU POSTERIOR CARGA. CONSULTORÍA TÉCNICA, MARÍTIMA Y TERRESTRE",
      "mainEntityOfPage": "https://www.contratacion.euskadi.eus/webkpe00-kperoc/es/ac71aBusquedaRegistrosWar/empresa/01370",
      "_links": {
        "self": {
          "name": "INTERTEK IBÉRICA SPAIN, S.A.",
          "href": "https://api.euskadi.eus/procurements/companies/01370"
        }
      }
    }
  ]
}