{
  "totalItems": 9042,
  "totalPages": 905,
  "currentPage": 526,
  "itemsOfPage": 10,
  "items": [
    {
      "name": "JUAN ANTONIO OLMO PRIETO",
      "registrationNumber": "06737",
      "identificationNumber": "22725627V",
      "address": "San Vicente 28 - 4º dcha",
      "location": {
        "postalCode": "48902",
        "municipality": "Barakaldo",
        "county": "Bizkaia",
        "municipalityId": "013",
        "countyId": "48"
      },
      "economicActivities": [
        {
          "id": "2.411",
          "name": "Arquitectos",
          "_links": {
            "self": {
              "name": "Arquitectos",
              "href": "https://api.euskadi.eus/procurements/companies/economic-activities/2.411"
            }
          }
        }
      ],
      "certificateStartDate": "2021-06-15",
      "certificateEndDate": "2021-12-10",
      "object": "ARQUITECTO",
      "mainEntityOfPage": "https://www.contratacion.euskadi.eus/webkpe00-kperoc/es/ac71aBusquedaRegistrosWar/empresa/06737",
      "_links": {
        "self": {
          "name": "JUAN ANTONIO OLMO PRIETO",
          "href": "https://api.euskadi.eus/procurements/companies/06737"
        }
      }
    },
    {
      "name": "GASTEIZFRUT, S.L.",
      "registrationNumber": "07723",
      "identificationNumber": "B01370915",
      "address": "AVENIDA LOS HUETOS, 70",
      "location": {
        "postalCode": "01010",
        "municipality": "Vitoria-Gasteiz",
        "county": "Araba/Álava",
        "municipalityId": "059",
        "countyId": "01"
      },
      "economicActivities": [
        {
          "id": "1.612.3",
          "name": "Venta al por mayor de frutas y verduras, patatas, legumbres frescas",
          "_links": {
            "self": {
              "name": "Venta al por mayor de frutas y verduras, patatas, legumbres frescas",
              "href": "https://api.euskadi.eus/procurements/companies/economic-activities/1.612.3"
            }
          }
        }
      ],
      "certificateStartDate": "2021-06-14",
      "certificateEndDate": "2021-11-20",
      "object": "LA COMPRAVENTA AL POR MAYOR DE TODO TIPO DE FRUTAS, VERDURAS Y PRODUCTOS ALIMENTICIOS EN GENERAL",
      "mainEntityOfPage": "https://www.contratacion.euskadi.eus/webkpe00-kperoc/es/ac71aBusquedaRegistrosWar/empresa/07723",
      "_links": {
        "self": {
          "name": "GASTEIZFRUT, S.L.",
          "href": "https://api.euskadi.eus/procurements/companies/07723"
        }
      }
    },
    {
      "name": "ALDABA OBRAS REUNIDAS, S.L.",
      "registrationNumber": "07724",
      "identificationNumber": "B67452946",
      "address": "C/ JOAQUIM CASTELLS, 9",
      "location": {
        "postalCode": "08980",
        "municipality": "Sant Feliu de Llobregat",
        "county": "Barcelona",
        "municipalityId": "211",
        "countyId": "08"
      },
      "economicActivities": [
        {
          "id": "1.501.1",
          "name": "Construcción completa, reparación y conservación de edificaciones",
          "_links": {
            "self": {
              "name": "Construcción completa, reparación y conservación de edificaciones",
              "href": "https://api.euskadi.eus/procurements/companies/economic-activities/1.501.1"
            }
          }
        },
        {
          "id": "1.852",
          "name": "Alquiler de maquinaria y equipo para la construcción",
          "_links": {
            "self": {
              "name": "Alquiler de maquinaria y equipo para la construcción",
              "href": "https://api.euskadi.eus/procurements/companies/economic-activities/1.852"
            }
          }
        }
      ],
      "certificateStartDate": "2021-06-14",
      "certificateEndDate": "2021-12-07",
      "object": "EL TRÁFICO INMOBILIARIO EN GENERAL Y EN CONCRETO EL DE LA EXPLOTACIÓN DE CONCESIONES Y OBRAS PÚBLICAS, REALIZANDO TODAS LAS ACTIVIDADES PROPIAS E INHERENTES A LAS MISMAS, ASÍ COMO LA CONSTRUCCIÓN EN GENERAL, POR CUENTA DE TERCEROS, SEA POR CONTRATO O POR LA ADMINISTRACIÓN, ASÍ  COMO TODO AQUELLO RELACIONADO DIRECTAMENTE CON LAS ACTIVIDADES DE UNA EMPRESA CONSTRUCTORA. CONSTITUYE TAMBIÉN EL OBJETO SOCIAL LA   CONSTRUCCIÓN,  REHABILITACIÓN,  MANTENIMIENTO Y  REPARACIÓN  DE  TODO  TIPO  DE  EDIFICACIONES  DE  OBRA  DE EDIFICACIÓN CIVIL, URBANIZACIÓN Y OTRAS PÚBLICAS  O PRIVADAS, BIEN CON PERSONAL  PROPIO O MEDIANTE SUBCONTRATACIÓN. LA ELABORACIÓN, DIRECCIÓN Y EJECUCIÓN DE PROYECTOS DE ARQUITECTURA  EN  TODOS  SUS  ÁMBITOS,  COMO  LA  ARQUITECTURA  RESIDENCIAL,  ADMINISTRATIVA,  SOCIAL, CULTURAL,  DEPORTIVA,  OCIO,  ASISTENCIAL,  DOCENTE,  RELIGIOSA,  INCLUSO LA  DE  PROYECTOS  DE INFRAESTRUCTURA. EL ARRENDAMIENTO DE LOCALES O DE NEGOCIOS DENTRO DE LOS TANATORIOS O CEMENTERIOS, Y DEMÁS BIENES INMUEBLES DE NATURALEZA URBANA NO SIENDO ÉSTOS DE VIVIENDA",
      "mainEntityOfPage": "https://www.contratacion.euskadi.eus/webkpe00-kperoc/es/ac71aBusquedaRegistrosWar/empresa/07724",
      "_links": {
        "self": {
          "name": "ALDABA OBRAS REUNIDAS, S.L.",
          "href": "https://api.euskadi.eus/procurements/companies/07724"
        }
      }
    },
    {
      "name": "ASUAMOTOR, S.L.",
      "registrationNumber": "02859",
      "identificationNumber": "B95042172",
      "address": "CRTA. LUTXANA-ASUA. KM. 12,250",
      "location": {
        "postalCode": "48950",
        "municipality": "Erandio",
        "county": "Bizkaia",
        "municipalityId": "902",
        "countyId": "48"
      },
      "economicActivities": [
        {
          "id": "1.654.1",
          "name": "Venta al por menor de vehículos terrestres",
          "_links": {
            "self": {
              "name": "Venta al por menor de vehículos terrestres",
              "href": "https://api.euskadi.eus/procurements/companies/economic-activities/1.654.1"
            }
          }
        },
        {
          "id": "1.691.2",
          "name": "Reparación de vehículos automóviles, bicicletas y otros vehículos",
          "_links": {
            "self": {
              "name": "Reparación de vehículos automóviles, bicicletas y otros vehículos",
              "href": "https://api.euskadi.eus/procurements/companies/economic-activities/1.691.2"
            }
          }
        }
      ],
      "certificateStartDate": "2021-06-12",
      "certificateEndDate": "2021-12-10",
      "object": "LA EXPOSICIÓN, ALMACENAJE, VENTA Y REPARACIÓN DE VEHÍCULOS NUEVOS Y USADOS, ALMACÉN Y COMERCIALIZACIÓN DE RECAMBIOS Y ACCESORIOS ",
      "mainEntityOfPage": "https://www.contratacion.euskadi.eus/webkpe00-kperoc/es/ac71aBusquedaRegistrosWar/empresa/02859",
      "_links": {
        "self": {
          "name": "ASUAMOTOR, S.L.",
          "href": "https://api.euskadi.eus/procurements/companies/02859"
        }
      }
    },
    {
      "name": "CRIVEL, S.A.",
      "registrationNumber": "05830",
      "identificationNumber": "A50060011",
      "address": "Polígono Industrial ARGUALAS. Nave 31",
      "location": {
        "postalCode": "50012",
        "municipality": "Zaragoza",
        "county": "Zaragoza",
        "municipalityId": "297",
        "countyId": "50"
      },
      "economicActivities": [
        {
          "id": "1.619.2",
          "name": "Venta al por mayor de aparatos e instrumentos médicos, ortopédicos, ópticos",
          "_links": {
            "self": {
              "name": "Venta al por mayor de aparatos e instrumentos médicos, ortopédicos, ópticos",
              "href": "https://api.euskadi.eus/procurements/companies/economic-activities/1.619.2"
            }
          }
        }
      ],
      "certificateStartDate": "2021-06-11",
      "certificateEndDate": "2021-12-11",
      "object": "A) LA REPRESENTACIÓN, DISTRIBUCIÓN Y VENTA DE TODA CLASE DE ARTÍCULOS DE TIPO MÉDICO-HOSPITALARIO. B) LA VENTA AL POR MENOR DE APARATOS DE ÓPTICA Y FOTOGRAFÍA. C) EL ARRENDAMIENTO, NO FINANCIERO, DE BIENES INMUEBLES",
      "mainEntityOfPage": "https://www.contratacion.euskadi.eus/webkpe00-kperoc/es/ac71aBusquedaRegistrosWar/empresa/05830",
      "_links": {
        "self": {
          "name": "CRIVEL, S.A.",
          "href": "https://api.euskadi.eus/procurements/companies/05830"
        }
      }
    },
    {
      "name": "GESTIÓN DE MEDIOS, S.A.",
      "registrationNumber": "01376",
      "identificationNumber": "A20305736",
      "address": "C/ PLAZA ZARAGOZA, Nº 1 - 4º IZDA. ",
      "location": {
        "postalCode": "20007",
        "municipality": "Donostia / San Sebastián",
        "county": "Gipuzkoa",
        "municipalityId": "069",
        "countyId": "20"
      },
      "economicActivities": [
        {
          "id": "1.844",
          "name": "Servicios de publicidad, relaciones públicas y similares",
          "_links": {
            "self": {
              "name": "Servicios de publicidad, relaciones públicas y similares",
              "href": "https://api.euskadi.eus/procurements/companies/economic-activities/1.844"
            }
          }
        }
      ],
      "certificateStartDate": "2021-06-11",
      "certificateEndDate": "2021-12-11",
      "object": "CREAR, PROYECTAR, EJECUTAR Y DISTRIBUIR POR CUENTA PROPIA O POR CUENTA DE TERCEROS CAMPAÑAS PUBLICITARIAS O DE PROPAGANDA A TRAVÉS DE TODOS LOS MEDIOS DE DIFUSIÓN",
      "mainEntityOfPage": "https://www.contratacion.euskadi.eus/webkpe00-kperoc/es/ac71aBusquedaRegistrosWar/empresa/01376",
      "_links": {
        "self": {
          "name": "GESTIÓN DE MEDIOS, S.A.",
          "href": "https://api.euskadi.eus/procurements/companies/01376"
        }
      }
    },
    {
      "name": "EL SIGLO 1870, S.L.",
      "registrationNumber": "07717",
      "identificationNumber": "B72165541",
      "address": "Calle Rosario, 14",
      "location": {
        "postalCode": "11100",
        "municipality": "San Fernando",
        "county": "Cádiz",
        "municipalityId": "031",
        "countyId": "11"
      },
      "economicActivities": [
        {
          "id": "1.453",
          "name": "Confección en serie de toda clase de prendas de vestir",
          "_links": {
            "self": {
              "name": "Confección en serie de toda clase de prendas de vestir",
              "href": "https://api.euskadi.eus/procurements/companies/economic-activities/1.453"
            }
          }
        },
        {
          "id": "1.619.7",
          "name": "Venta al por mayor de instrumentos de precisión, medida y similares",
          "_links": {
            "self": {
              "name": "Venta al por mayor de instrumentos de precisión, medida y similares",
              "href": "https://api.euskadi.eus/procurements/companies/economic-activities/1.619.7"
            }
          }
        }
      ],
      "certificateStartDate": "2021-06-11",
      "certificateEndDate": "2021-11-30",
      "object": "LA FABRICACIÓN Y VENTA MAYOR Y MENOR DE PRENDAS DE VESTIR Y COMPLEMENTOS DE SEÑORAS Y CABALLEROS, ASÍ COMO UNIFORMES CIVILES Y MILITARES, Y COMPLEMENTOS Y ARTÍCULOS DE SEGURIDAD DE LOS MISMOS. LA CONSERVACIÓN, EL MANTENIMIENTO Y REPARACIÓN DE EQUIPOS, COMPLEMENTOS Y ARTÍCULOS DE SEGURIDAD. SERVICIOS DE MANTENIMIENTO PREVENTIVOS, CORRECTIVOS Y NECESARIOS PARA ASEGURAR LA DISPONIBILIDAD Y BUEN FUNCIONAMIENTO DE CHALECOS SALVAVIDAS Y ANTIBALAS. EL SUMINISTRO Y LA COMERCIALIZACIÓN AL POR MAYOR Y AL DETALLE DE MATERIAS PRIMAS TEXTILES. EL SUMINISTRO, COMERCIALIZACIÓN, DISTRIBUCIÓN Y MANTENIMIENTO DE EQUIPOS ÓPTICOS DE DETECCIÓN, PRECISIÓN Y MEDIDA",
      "mainEntityOfPage": "https://www.contratacion.euskadi.eus/webkpe00-kperoc/es/ac71aBusquedaRegistrosWar/empresa/07717",
      "_links": {
        "self": {
          "name": "EL SIGLO 1870, S.L.",
          "href": "https://api.euskadi.eus/procurements/companies/07717"
        }
      }
    },
    {
      "name": "CIVILNOVA SOLUTIONS, S.L.",
      "registrationNumber": "07719",
      "identificationNumber": "B74353350",
      "address": "CALLE FONCALADA 6 - 1º",
      "location": {
        "postalCode": "33002",
        "municipality": "Oviedo",
        "county": "Asturias",
        "municipalityId": "044",
        "countyId": "33"
      },
      "economicActivities": [
        {
          "id": "1.843.1",
          "name": "Servicios técnicos de ingeniería",
          "_links": {
            "self": {
              "name": "Servicios técnicos de ingeniería",
              "href": "https://api.euskadi.eus/procurements/companies/economic-activities/1.843.1"
            }
          }
        },
        {
          "id": "1.845",
          "name": "Explotación electrónica por cuenta de terceros",
          "_links": {
            "self": {
              "name": "Explotación electrónica por cuenta de terceros",
              "href": "https://api.euskadi.eus/procurements/companies/economic-activities/1.845"
            }
          }
        }
      ],
      "certificateStartDate": "2021-06-11",
      "certificateEndDate": "2021-11-28",
      "object": "1-CONSTRUCCIÓN, INSTALACIONES Y MANTENIMIENTO. 2-COMERCIO AL POR MAYOR Y AL POR MENOR. DISTRIBU CIÓN COMERCIAL. IMPORTACIÓN Y EXPORTACIÓN. 3-ACTIVIDADES INMOBILIARIAS. 4-INDUSTRIAS MANUFACTURERAS Y TEXTILES. 5-TURISMO, HOSTELERÍA Y RESTAURACIÓN.\r\n6-PRESTACION DE SERVICIOS. ACTIVIDADES DE GESTION Y ADMINISTRACIÓN. SERVICIOS EDUCATIVOS,\r\nSANITARIOS, DE OCIO Y ENTRETENIMIENTO. 7-TRANSPORTE Y ALMACENAMIENTO. 8-INFORMACIÓN Y COMUNICACIONES. 9-AGRICULTURA, GANADERÍA Y PESCA. 10-INFORMÁTICA, TELECOMUNICACIONES Y OFIMÁTICA.\r\n11-ENERGÍAS ALTERNATIVAS. 12-COMPRAVENTA Y REPARACIÓN DE VEHÍCULOS. REPARACIÓN Y MANTENIMIENTO DE INSTALACIONES Y MAQUINARIA. 13-INVESTIGACIÓN, DESARROLLO E INNOVACIÓN. 14-ACTIVIDADES CIENTÍFICAS Y TÉCNICAS",
      "mainEntityOfPage": "https://www.contratacion.euskadi.eus/webkpe00-kperoc/es/ac71aBusquedaRegistrosWar/empresa/07719",
      "_links": {
        "self": {
          "name": "CIVILNOVA SOLUTIONS, S.L.",
          "href": "https://api.euskadi.eus/procurements/companies/07719"
        }
      }
    },
    {
      "name": "ASCENSORES REKALDE,S.L.",
      "registrationNumber": "07720",
      "identificationNumber": "B48148738",
      "address": "KAREAGA,7 LOCAL H1",
      "location": {
        "postalCode": "48903",
        "municipality": "Barakaldo",
        "county": "Bizkaia",
        "municipalityId": "013",
        "countyId": "48"
      },
      "economicActivities": [
        {
          "id": "1.504.6",
          "name": "Montaje e instalación de aparatos elevadores de cualquier clase",
          "_links": {
            "self": {
              "name": "Montaje e instalación de aparatos elevadores de cualquier clase",
              "href": "https://api.euskadi.eus/procurements/companies/economic-activities/1.504.6"
            }
          }
        },
        {
          "id": "1.699",
          "name": "Otras reparaciones n.c.o.p",
          "_links": {
            "self": {
              "name": "Otras reparaciones n.c.o.p",
              "href": "https://api.euskadi.eus/procurements/companies/economic-activities/1.699"
            }
          }
        }
      ],
      "certificateStartDate": "2021-06-11",
      "certificateEndDate": "2021-10-07",
      "object": "EL MONTAJE, LA INSTALACIÓN, REPARACIÓN Y CONSERVACIÓN DE APARATOS ELEVADORES DE TODA CLASE, INCLUSO ELÉCTRICOS, APLICADOS, TANTO AL USO DOMÉSTICO COMO INDUSTRIAL, ASÍ COMO ESCALERAS MECÁNICAS, MONTACARGAS Y APARATOS ANÁLOGOS INCLUSO CINTAS TRANSPORTADORAS Y APARATOS ELEVADORES Y DE TRANSPORTE PARA CARGAS Y/O PARA ELIMINAR BARRERAS ARQUITECTÓNICAS",
      "mainEntityOfPage": "https://www.contratacion.euskadi.eus/webkpe00-kperoc/es/ac71aBusquedaRegistrosWar/empresa/07720",
      "_links": {
        "self": {
          "name": "ASCENSORES REKALDE,S.L.",
          "href": "https://api.euskadi.eus/procurements/companies/07720"
        }
      }
    },
    {
      "name": "CHEMIKAN AGC SL",
      "registrationNumber": "07721",
      "identificationNumber": "B01582113",
      "address": "LARRAGANA 3",
      "location": {
        "postalCode": "01013",
        "municipality": "Vitoria-Gasteiz",
        "county": "Araba/Álava",
        "municipalityId": "059",
        "countyId": "01"
      },
      "economicActivities": [
        {
          "id": "1.616.6",
          "name": "Venta al por mayor de productos químicos industriales",
          "_links": {
            "self": {
              "name": "Venta al por mayor de productos químicos industriales",
              "href": "https://api.euskadi.eus/procurements/companies/economic-activities/1.616.6"
            }
          }
        }
      ],
      "certificateStartDate": "2021-06-11",
      "certificateEndDate": "2021-10-07",
      "object": "LA DISTRIBUCIÓN, COMERCIALIZACIÓN Y VENTA AL POR MAYOR Y POR MENOR, ALMACENAMIENTO, IMPORTACIÓN, EXPORTACIÓN DE TODA CLASE DE DETERGENTES INDUSTRIALES, PRODUCTOS DE HIGIENE Y LIMPIEZA, JABONES, PRODUCTOS DE ABRILLANTAMIENTO, PERFUMERIA, COSMÉTICOS Y PRODUCTOS QUÍMICOS Y SUS DERIVADOS. LA DISTRIBUCIÓN, COMERCIALIZACIÓN Y VENTA AL POR MAYOR Y POR MENOR, ALMACENAMIENTO, IMPORTACIÓN, EXPORTACIÓN DE FERTILIZANTES, INSECTICIDAS, ABONOS, HERBICIDAS, TRATAMIENTOS AGRÍCOLAS, PRODUCTOS FITOSANITARIOS. LA DISTRIBUCIÓN, COMERCIALIZACIÓN Y VENTA AL POR MAYOR Y POR MENOR, ALMACENAMIENTO, IMPORTACIÓN, EXPORTACIÓN, MANTENIMIENTO Y REPARACIÓN DE MÁQUINARIA Y SUS ACCESORIOS, HERRAMIENTAS Y ARTICULOS DE LIMPIEZA PARA USO INDUSTRIAL, COMERCIAL, HOSTELERÍA Y DOMÉSTICO",
      "mainEntityOfPage": "https://www.contratacion.euskadi.eus/webkpe00-kperoc/es/ac71aBusquedaRegistrosWar/empresa/07721",
      "_links": {
        "self": {
          "name": "CHEMIKAN AGC SL",
          "href": "https://api.euskadi.eus/procurements/companies/07721"
        }
      }
    }
  ]
}