{
  "totalItems": 9042,
  "totalPages": 905,
  "currentPage": 401,
  "itemsOfPage": 10,
  "items": [
    {
      "name": "DEMA SERVICIOS DEPORTIVOS, S.L.",
      "registrationNumber": "02968",
      "identificationNumber": "B48897367",
      "address": "AVDA. MADARIAGA, 37 - 3º A",
      "location": {
        "postalCode": "48014",
        "municipality": "Bilbao",
        "county": "Bizkaia",
        "municipalityId": "020",
        "countyId": "48"
      },
      "economicActivities": [
        {
          "id": "1.501.1",
          "name": "Construcción completa, reparación y conservación de edificaciones",
          "_links": {
            "self": {
              "name": "Construcción completa, reparación y conservación de edificaciones",
              "href": "https://api.euskadi.eus/procurements/companies/economic-activities/1.501.1"
            }
          }
        },
        {
          "id": "1.616.6",
          "name": "Venta al por mayor de productos químicos industriales",
          "_links": {
            "self": {
              "name": "Venta al por mayor de productos químicos industriales",
              "href": "https://api.euskadi.eus/procurements/companies/economic-activities/1.616.6"
            }
          }
        },
        {
          "id": "1.849.4",
          "name": "Servicios de custodia, seguridad y protección",
          "_links": {
            "self": {
              "name": "Servicios de custodia, seguridad y protección",
              "href": "https://api.euskadi.eus/procurements/companies/economic-activities/1.849.4"
            }
          }
        },
        {
          "id": "1.922.1",
          "name": "Servicios de limpieza de interiores",
          "_links": {
            "self": {
              "name": "Servicios de limpieza de interiores",
              "href": "https://api.euskadi.eus/procurements/companies/economic-activities/1.922.1"
            }
          }
        },
        {
          "id": "1.967.2",
          "name": "Escuelas y servicios de perfeccionamiento del deporte",
          "_links": {
            "self": {
              "name": "Escuelas y servicios de perfeccionamiento del deporte",
              "href": "https://api.euskadi.eus/procurements/companies/economic-activities/1.967.2"
            }
          }
        }
      ],
      "certificateStartDate": "2024-08-19",
      "certificateEndDate": "2025-02-05",
      "object": "SERVICIOS DE MANTENIMIENTO DE TODA CLASE DE INSTALACIONES DEPORTIVAS Y CULTURALES.\nSERVICIOS DE ENSEÑANZA EN TEMAS DEPORTIVOS Y CULTURALES Y ASESORAMIENTO Y PRESTACIÓN DE SERVICIOS. ENSEÑANZA A TODA CLASE DE PERSONAS FÍSICAS O JURÍDICAS, INDIVIDUAL O COLECTIVAMENTE, Y EN GENERAL, A TODO CUANTO SEA AUXILIAR, ACCESORIO, CONSECUENCIA, O SE RELACIONE DIRECTA O INDIRECTAMENTE CON EL DEPORTE.\nPRESTACIÓN DE SERVICIOS DEPORTIVOS Y CULTURALES DE TODA ÍNDOLE.\nSERVICIOS DE ORGANIZACIÓN DE EMPRESA, DE ASESORAMIENTO CONTABLE, DE PUBLICIDAD, DE ASESORAMIENTO Y ASISTENCIA PARA LA ORGANIZACIÓN O LA DIRECCIÓN DE NEGOCIOS, ASÍ COMO DE CONSULTING PARA LA DIRECCIÓN DE NEGOCIOS, DE RELACIONES PÚBLICAS Y VERIFICACIÓN DE LISTADOS.\nSERVICIOS DE LIMPIEZA INDUSTRIAL Y LAVANDERÍA.\nSERVICIOS DE PERITACIONES.\nSEGUROS.\nSERVICIOS DE CONSTRUCCIÓN, REPARACIÓN Y MANTENIMIENTO DE EDIFICIOS.\nCONSTRUCCIÓN Y REPARACIÓN DE MAQUINARIA EN GENERAL.\nSUMINISTROS DE MAQUINARIA, HERRAMIENTA Y MATERIAL INDUSTRIAL Y DE CONSTRUCCIÓN.\nSERVICIOS DE INTERIORISMO Y DECORACIÓN, IMAGEN CORPORATIVA.\nREPRESENTACIONES COMERCIALES DE TODA ÍNDOLE MERCANTIL.\nTRABAJOS DE MECANOGRAFIADO Y SIMILARES.\nASESORAMIENTO, CONSULTING Y ESTRATEGIA DE GESTIÓN DEPORTIVA Y CULTURAL A EMPRESAS Y ORGANISMOS PÚBLICOS Y/O PRIVADOS, INCLUSO MUTUALIDADES DEPORTIVAS, EN MATERIA DEPORTIVA Y CULTURAL.\nAGENCIA DE TRASNPORTES, DESPLAZAMIENTOS COLECTIVOS, ALOJAMIENTO Y HOSPEDAJE, SERVICIOS HOSTELEROS.\nSERVICIOS DE VIGILANCIA A  PERSONAS E INSTALACIONES, RECINTOS DEPORTIVOS Y CULTURALES, GURADAS JURADOS   ",
      "mainEntityOfPage": "https://www.contratacion.euskadi.eus/webkpe00-kperoc/es/ac71aBusquedaRegistrosWar/empresa/02968",
      "_links": {
        "self": {
          "name": "DEMA SERVICIOS DEPORTIVOS, S.L.",
          "href": "https://api.euskadi.eus/procurements/companies/02968"
        }
      }
    },
    {
      "name": "OBRAS Y REFORMAS ZELAI, S.L.",
      "registrationNumber": "06885",
      "identificationNumber": "B95665873",
      "address": "C/ JOSE Mª LIDON, 10 BAJO",
      "location": {
        "postalCode": "48004",
        "municipality": "Bilbao",
        "county": "Bizkaia",
        "municipalityId": "020",
        "countyId": "48"
      },
      "economicActivities": [
        {
          "id": "1.501.1",
          "name": "Construcción completa, reparación y conservación de edificaciones",
          "_links": {
            "self": {
              "name": "Construcción completa, reparación y conservación de edificaciones",
              "href": "https://api.euskadi.eus/procurements/companies/economic-activities/1.501.1"
            }
          }
        }
      ],
      "certificateStartDate": "2024-08-19",
      "certificateEndDate": "2025-02-05",
      "object": "LOS SERVICIOS DE REFORMAS INTEGRALES EN TODO LO QUE SE REFIERE AL RAMO DE LA CONSTRUCCIÓN, REHABILITACIÓN DE EDIFICIOS, FACHADAS, IMPERMEABILIZACIONES DE CUBIERTAS Y TEJADOS, BAJANTES Y SERVICIOS GENERALES PARA COMUNIDADES;  REFORMAS INTEGRALES DE VIVIENDAS Y LOCALES, PARA OFRECER SOLUCIONES GLOBALES DE ESPACIOS, TALES COMO REFORMAS INTEGRALES DE COCINAS Y BAÑOS, COLOCACIÓN DE PARQUET, ZÓCALOS, PLADURES, MÁRMOLES, REALIZACIÓN DE TABIQUES Y DIVISIONES DE OBRA, ENYESADOS, APLICACIÓN DE PINTURAS, CARPINTERÍAS DE ALUMINIO Y EBANISTERÍA, TECHOS, APLICACIONES DE SISTEMAS INSONORIZANTES Y AMORTIGUANTES; CLIMATIZACIÓN; INSTALACIÓN DE ACOMETIDAS DE SISTEMAS DE ELECTRICIDAD, AGUA Y GAS Y TODO CUANTO TENGA RELACIÓN CON LAS ACTIVIDADES  RELACIONADAS. PROMOCIÓN Y CONSTRUCCIÓN DE VIVIENDAS, EDIFICIOS Y OBRAS CIVILES DE TODAS CLASES, MEDIANTE LA ADQUISICIÓN DE TERRENOS, SU PARCELACIÓN Y URBANIZACIÓN; APROVECHAMIENTO O BENEFICIO, DIRECTAMENTE, MEDIANTE LA INSTALACIÓN DE EMPRESAS O NEGOCIOS MERCANTILES O INDUSTRIALES, O INDIRECTAMENTE, POR CESIÓN DE SU DISFRUTE EN ARRENDAMIENTO O EN CUALQUIER OTRA FORMA Y VENTA DE AQUELLOS TERRENOS Y DE LAS OBRAS TERMINADAS. A LA ADQUISICIÓN, ENAJENACIÓN, PROMOCIÓN, URBANIZACIÓN, CONSTRUCCIÓN Y EXPLOTACIÓN DE TODA CLASE DE INMUEBLES Y CUANTO SE RELACIONE DIRECTA O INDIRECTAMENTE, CON LA CONTRATACIÓN INMOBILIARIA",
      "mainEntityOfPage": "https://www.contratacion.euskadi.eus/webkpe00-kperoc/es/ac71aBusquedaRegistrosWar/empresa/06885",
      "_links": {
        "self": {
          "name": "OBRAS Y REFORMAS ZELAI, S.L.",
          "href": "https://api.euskadi.eus/procurements/companies/06885"
        }
      }
    },
    {
      "name": "ELE AL CUBO, S.L.",
      "registrationNumber": "08328",
      "identificationNumber": "B01733914",
      "address": "Alameda Mazarredo 25 - 1º",
      "location": {
        "postalCode": "48009",
        "municipality": "Bilbao",
        "county": "Bizkaia",
        "municipalityId": "020",
        "countyId": "48"
      },
      "economicActivities": [
        {
          "id": "1.844",
          "name": "Servicios de publicidad, relaciones públicas y similares",
          "_links": {
            "self": {
              "name": "Servicios de publicidad, relaciones públicas y similares",
              "href": "https://api.euskadi.eus/procurements/companies/economic-activities/1.844"
            }
          }
        }
      ],
      "certificateStartDate": "2024-08-19",
      "certificateEndDate": "2025-02-05",
      "object": "ACTIVIDAD PRINCIPAL.- 4619. INTERMEDIARIOS DEL COMERCIO DE PRODUCTOS DIVERSOS. OTRAS ACTIVIDADES.- 4618. INTERMEDIARIOS DEL COMERCIO ESPECIALIZADOS EN LA VENTA DE OTROS PRODUCTOS ESPECÍFICOS. 7311. AGENCIAS DE PUBLICIDAD. 8559. OTRA EDUCACIÓN N.C.O.P.. 4690. COMERCIO AL POR MAYOR NO ESPECIALIZADO. 4778. OTRO COMERCIO AL POR MENOR DE ARTÍCULOS NUEVOS EN ESTABLECIMIENTOS ESPECIALIZADOS. 6399. OTROS SERVICIOS DE INFORMACIÓN N.C.O.P. 7021. RELACIONES PÚBLICAS Y COMUNICACIÓN. 7022. OTRAS ACTIVIDADES DE CONSULTORÍA DE GESTIÓN EMPRESARIAL. 7312. SERVICIOS DE REPRESENTACIÓN DE MEDIOS DE COMUNICACIÓN. 7320. ESTUDIOS DE MERCADO Y REALIZACIÓN DE ENCUESTAS DE OPINIÓN PÚBLICA. 8551. EDUCACIÓN DEPORTIVA Y RECREATIVA. 8552. EDUCACIÓN CULTURAL. 8560. ACTIVIDADES AUXILIARES A LA EDUCACIÓN.",
      "mainEntityOfPage": "https://www.contratacion.euskadi.eus/webkpe00-kperoc/es/ac71aBusquedaRegistrosWar/empresa/08328",
      "_links": {
        "self": {
          "name": "ELE AL CUBO, S.L.",
          "href": "https://api.euskadi.eus/procurements/companies/08328"
        }
      }
    },
    {
      "name": "JUAN CARLOS ORTIZ VELASCO",
      "registrationNumber": "09424",
      "identificationNumber": "16596025F",
      "address": "CALLE MERCADERES, 2-4º D",
      "location": {
        "postalCode": "26001",
        "municipality": "Logroño",
        "county": "Rioja, La",
        "municipalityId": "089",
        "countyId": "26"
      },
      "economicActivities": [
        {
          "id": "1.504.1",
          "name": "Instalaciones eléctricas en general",
          "_links": {
            "self": {
              "name": "Instalaciones eléctricas en general",
              "href": "https://api.euskadi.eus/procurements/companies/economic-activities/1.504.1"
            }
          }
        }
      ],
      "certificateStartDate": "2024-08-19",
      "certificateEndDate": "2025-02-05",
      "object": "INSTALACIONES ELÉCTRICAS EN GENERAL.",
      "mainEntityOfPage": "https://www.contratacion.euskadi.eus/webkpe00-kperoc/es/ac71aBusquedaRegistrosWar/empresa/09424",
      "_links": {
        "self": {
          "name": "JUAN CARLOS ORTIZ VELASCO",
          "href": "https://api.euskadi.eus/procurements/companies/09424"
        }
      }
    },
    {
      "name": "MARIA ISABEL LUIS GOMEZ",
      "registrationNumber": "09438",
      "identificationNumber": "29436503E",
      "address": "CORREOS , 29, 2 DERECHA",
      "location": {
        "postalCode": "48920",
        "municipality": "Portugalete",
        "county": "Bizkaia",
        "municipalityId": "078",
        "countyId": "48"
      },
      "economicActivities": [
        {
          "id": "1.673.2",
          "name": "Otros cafés y bares",
          "_links": {
            "self": {
              "name": "Otros cafés y bares",
              "href": "https://api.euskadi.eus/procurements/companies/economic-activities/1.673.2"
            }
          }
        }
      ],
      "certificateStartDate": "2024-08-19",
      "certificateEndDate": "2025-02-05",
      "object": "OTROS CAFÉS Y BARES.",
      "mainEntityOfPage": "https://www.contratacion.euskadi.eus/webkpe00-kperoc/es/ac71aBusquedaRegistrosWar/empresa/09438",
      "_links": {
        "self": {
          "name": "MARIA ISABEL LUIS GOMEZ",
          "href": "https://api.euskadi.eus/procurements/companies/09438"
        }
      }
    },
    {
      "name": "EREAGA KIROLAK, S.L.",
      "registrationNumber": "09470",
      "identificationNumber": "B95964128",
      "address": "MUELLE EREAGA PARCELA 5 A",
      "location": {
        "postalCode": "48992",
        "municipality": "Getxo",
        "county": "Bizkaia",
        "municipalityId": "044",
        "countyId": "48"
      },
      "economicActivities": [
        {
          "id": "1.659.6",
          "name": "Venta al por menor de juguetes, artículos de deporte",
          "_links": {
            "self": {
              "name": "Venta al por menor de juguetes, artículos de deporte",
              "href": "https://api.euskadi.eus/procurements/companies/economic-activities/1.659.6"
            }
          }
        },
        {
          "id": "1.671.5",
          "name": "Restaurante un tenedor",
          "_links": {
            "self": {
              "name": "Restaurante un tenedor",
              "href": "https://api.euskadi.eus/procurements/companies/economic-activities/1.671.5"
            }
          }
        },
        {
          "id": "1.673.2",
          "name": "Otros cafés y bares",
          "_links": {
            "self": {
              "name": "Otros cafés y bares",
              "href": "https://api.euskadi.eus/procurements/companies/economic-activities/1.673.2"
            }
          }
        },
        {
          "id": "1.934",
          "name": "Enseñanza fuera de establecimiento permanente",
          "_links": {
            "self": {
              "name": "Enseñanza fuera de establecimiento permanente",
              "href": "https://api.euskadi.eus/procurements/companies/economic-activities/1.934"
            }
          }
        }
      ],
      "certificateStartDate": "2024-08-17",
      "certificateEndDate": "2025-02-17",
      "object": "1º. CONSTRUCCIÓN, EXPLOTACIÓN Y GESTIÓN DE TODO TIPO DE ESTABLECIMIENTOS DEDICADOS A LA HOSTELERÍA, RESTAURACIÓN, ACTIVIDADES DEPORTIVAS, PARQUES DE ATRACCIONES Y, EN GENERAL, DE CUALQUIER OTRA ACTIVIDAD RELACIONADA CON EL OCIO, EL DEPORTE Y LA RECREACIÓN. 2º.- EL NEGOCIO DE LA HOSTELERÍA EN TODAS SUS RAMAS. LAS INSTALACIONES DEPORTIVAS. ESCUELAS Y SERVICIOS DE PERFECCIONAMIENTO DEL DEPORTE. 3º.- DEPORTES DE AVENTURAS Y ACTIVIDADES MULTIAVENTURAS, PUB, BAR, CATERING.",
      "mainEntityOfPage": "https://www.contratacion.euskadi.eus/webkpe00-kperoc/es/ac71aBusquedaRegistrosWar/empresa/09470",
      "_links": {
        "self": {
          "name": "EREAGA KIROLAK, S.L.",
          "href": "https://api.euskadi.eus/procurements/companies/09470"
        }
      }
    },
    {
      "name": "OAZ COACHING PARA EL CAMBIO, S.L.",
      "registrationNumber": "09451",
      "identificationNumber": "B75087395",
      "address": "Arturo Campion 46 esc 4 a B",
      "location": {
        "postalCode": "20018",
        "municipality": "Donostia / San Sebastián",
        "county": "Gipuzkoa",
        "municipalityId": "069",
        "countyId": "20"
      },
      "economicActivities": [
        {
          "id": "1.849.9",
          "name": "Otros servicios independientes n.c.o.p",
          "_links": {
            "self": {
              "name": "Otros servicios independientes n.c.o.p",
              "href": "https://api.euskadi.eus/procurements/companies/economic-activities/1.849.9"
            }
          }
        },
        {
          "id": "1.934",
          "name": "Enseñanza fuera de establecimiento permanente",
          "_links": {
            "self": {
              "name": "Enseñanza fuera de establecimiento permanente",
              "href": "https://api.euskadi.eus/procurements/companies/economic-activities/1.934"
            }
          }
        }
      ],
      "certificateStartDate": "2024-08-17",
      "certificateEndDate": "2025-02-17",
      "object": "SERVICIOS DE CONSULTORÍA, ASESORAMIENTO, COACHING Y FORMACIÓN, ORIENTADOS AL DISEÑO Y GESTIÓN DE PROCESOS DE CAMBIO Y DESARROLLO INDIVIDUAL, DE EQUIPOS Y DE ORGANIZACIÓN.",
      "mainEntityOfPage": "https://www.contratacion.euskadi.eus/webkpe00-kperoc/es/ac71aBusquedaRegistrosWar/empresa/09451",
      "_links": {
        "self": {
          "name": "OAZ COACHING PARA EL CAMBIO, S.L.",
          "href": "https://api.euskadi.eus/procurements/companies/09451"
        }
      }
    },
    {
      "name": "GONZALO ALVITE MARTINEZ",
      "registrationNumber": "09459",
      "identificationNumber": "53623916Z",
      "address": "Etxeberri Kalea nº4",
      "location": {
        "postalCode": "01139",
        "municipality": "Zuia",
        "county": "Araba/Álava",
        "municipalityId": "063",
        "countyId": "01"
      },
      "economicActivities": [
        {
          "id": "2.411",
          "name": "Arquitectos",
          "_links": {
            "self": {
              "name": "Arquitectos",
              "href": "https://api.euskadi.eus/procurements/companies/economic-activities/2.411"
            }
          }
        }
      ],
      "certificateStartDate": "2024-08-17",
      "certificateEndDate": "2025-02-17",
      "object": "ARQUITECTOS.",
      "mainEntityOfPage": "https://www.contratacion.euskadi.eus/webkpe00-kperoc/es/ac71aBusquedaRegistrosWar/empresa/09459",
      "_links": {
        "self": {
          "name": "GONZALO ALVITE MARTINEZ",
          "href": "https://api.euskadi.eus/procurements/companies/09459"
        }
      }
    },
    {
      "name": "FERNANDO AGUILERA ESCALADA",
      "registrationNumber": "09217",
      "identificationNumber": "70871430N",
      "address": "C/ General Eraso 4 3º B",
      "location": {
        "postalCode": "48014",
        "municipality": "Bilbao",
        "county": "Bizkaia",
        "municipalityId": "020",
        "countyId": "48"
      },
      "economicActivities": [
        {
          "id": "2.776",
          "name": "Doctores y licenciados en ciencias políticas y sociales",
          "_links": {
            "self": {
              "name": "Doctores y licenciados en ciencias políticas y sociales",
              "href": "https://api.euskadi.eus/procurements/companies/economic-activities/2.776"
            }
          }
        }
      ],
      "certificateStartDate": "2024-08-15",
      "certificateEndDate": "2025-02-13",
      "object": "DOCTORES Y LICENCIADOS EN CIENCIAS POLÍTICAS Y SOCIALES.",
      "mainEntityOfPage": "https://www.contratacion.euskadi.eus/webkpe00-kperoc/es/ac71aBusquedaRegistrosWar/empresa/09217",
      "_links": {
        "self": {
          "name": "FERNANDO AGUILERA ESCALADA",
          "href": "https://api.euskadi.eus/procurements/companies/09217"
        }
      }
    },
    {
      "name": "ASCROIN S.A.",
      "registrationNumber": "06447",
      "identificationNumber": "A48462774",
      "address": "Polígono Santa Agueda Pab. 21",
      "location": {
        "postalCode": "48013",
        "municipality": "Bilbao",
        "county": "Bizkaia",
        "municipalityId": "020",
        "countyId": "48"
      },
      "economicActivities": [
        {
          "id": "1.504.12",
          "name": "Instalaciones eléctricas en toda clase de edificios",
          "_links": {
            "self": {
              "name": "Instalaciones eléctricas en toda clase de edificios",
              "href": "https://api.euskadi.eus/procurements/companies/economic-activities/1.504.12"
            }
          }
        }
      ],
      "certificateStartDate": "2024-08-14",
      "certificateEndDate": "2025-02-09",
      "object": "LA VIGILANCIA Y PROTECCIÓN DE BIENES, ESTABLECIMIENTOS, ESPECTÁCULOS, CERTÁMENES O CONVENCIONES; INSTALACIÓN Y MANTENIMIENTO DE APARATOS, DISPOSITIVOS Y SISTEMAS DE SEGURIDAD; EXPLOTACIÓN DE CENTRALES PARA LA RECEPCIÓN, VERIFICACIÓN Y TRANSMISIÓN DE LAS SEÑALES DE ALARMAS Y SU COMUNICACIÓN A LAS FUERZAS Y CUERPOS DE SEGURIDAD, ASÍ COMO PRESTACIÓN DE SERVICIOS DE RESPUESTA CUYA REALIZACIÓN NO SEA DE LA COMPETENCIA DE DICHAS FUERZAS Y CUERPOS; PLANIFICACIÓN Y ASESORAMIENTO DE LAS ACTIVIDADES DE SEGURIDAD CONTEMPLADAS EN ESTA LEY",
      "mainEntityOfPage": "https://www.contratacion.euskadi.eus/webkpe00-kperoc/es/ac71aBusquedaRegistrosWar/empresa/06447",
      "_links": {
        "self": {
          "name": "ASCROIN S.A.",
          "href": "https://api.euskadi.eus/procurements/companies/06447"
        }
      }
    }
  ]
}