{
  "totalItems": 9042,
  "totalPages": 905,
  "currentPage": 734,
  "itemsOfPage": 10,
  "items": [
    {
      "name": "FUNDACIÓN IKERTIA",
      "registrationNumber": "03414",
      "identificationNumber": "G95437703",
      "address": "COLON DE LARREATEGUI,26-6ºB",
      "location": {
        "postalCode": "48089",
        "municipality": "Bilbao",
        "county": "Bizkaia",
        "municipalityId": "020",
        "countyId": "48"
      },
      "economicActivities": [
        {
          "id": "1.936.9",
          "name": "Otras investigaciones científicas y técnicas n.c.o.p",
          "_links": {
            "self": {
              "name": "Otras investigaciones científicas y técnicas n.c.o.p",
              "href": "https://api.euskadi.eus/procurements/companies/economic-activities/1.936.9"
            }
          }
        }
      ],
      "certificateStartDate": "2010-02-25",
      "certificateEndDate": "2010-08-11",
      "object": "1) EL ESTABLECIMIENTO Y CONSOLIDACIÓN DE UN CENTRO DE INVESTIGACIÓN COOPERATIVA BASADO EN LA EXCELENCIA Y RECONOCIDO POR SU CULTURA ORGANIZATIVA Y RESULTADOS, EN EL QUE SE DESARROLLE LA INVESTIGACIÓN, DESARROLLO E INNOVACIÓN EN LA INDUSTRIA, Y EN PARTICULAR, EN SECTORES, TALES COMO EL DE LA ENERGÍA, LA ELECTRICIDAD, LA AUTOMOCIÓN, EL AERONÁUTICO, EL SOCIOECONÓMICO, LA CONSTRUCCIÓN, OCIO Y NUEVAS TECNOLOGÍAS DE LA COMUNICACIÓN E INFORMACIÓN, ENTRE OTROS. 2) LA PRESTACIÓN A TRAVÉS DE DICHO CENTRO DE INVESTIGACIÓN, DE SERVICIOS DE INFORMACIÓN Y ASESORAMIENTO, SOBRE LAS MATERIAS MENCIONADAS, A ADMINISTRACIONES PÚBLICAS, EMPRESAS PÚBLICAS Y PRIVADAS, ASOCIACIONES Y DEMÁS INTERESADOS. 3) FORMACIÓN EN ÁREAS VINCULADAS A LA INVESTIGACIÓN, DESARROLLO E INNOVACIÓNES TECNOLOGÍAS, ASÍ COMO ACTIVIDADES DE INSPECCIÓN, AUDITORÍA Y CERTIFICACIÓN EN DICHOS ÁMBITOS. 4) LA ORGANIZACIÓN DE CONCURSOS, CONGRESOS Y CONFERENCIAS. 5) LA EDICIÓN DE REVISTAS Y PUBLICACIONES ESPECIALIZADAS EN LA MATERIA. 6) LA PROMOCIÓN DE BECAS O AYUDAS, PREMIOS, ETC. 7) CUALESQUIERA OTROS QUE PUEDAN SER CONDUCENTES A LA REALIZACIÓN DE SUS FINALIDADES PROPIAS",
      "mainEntityOfPage": "https://www.contratacion.euskadi.eus/webkpe00-kperoc/es/ac71aBusquedaRegistrosWar/empresa/03414",
      "_links": {
        "self": {
          "name": "FUNDACIÓN IKERTIA",
          "href": "https://api.euskadi.eus/procurements/companies/03414"
        }
      }
    },
    {
      "name": "ALAVESA DE OBRAS PUBLICAS, S.L.U.",
      "registrationNumber": "03600",
      "identificationNumber": "B01440106",
      "address": "MADRE VEDRUNA, 16-BAJO",
      "location": {
        "postalCode": "01008",
        "municipality": "Vitoria-Gasteiz",
        "county": "Araba/Álava",
        "municipalityId": "059",
        "countyId": "01"
      },
      "economicActivities": [
        {
          "id": "1.507",
          "name": "Construcción, reparación y conservación de toda clase obras",
          "_links": {
            "self": {
              "name": "Construcción, reparación y conservación de toda clase obras",
              "href": "https://api.euskadi.eus/procurements/companies/economic-activities/1.507"
            }
          }
        }
      ],
      "certificateStartDate": "2010-02-23",
      "certificateEndDate": "2010-07-21",
      "object": "A) LA CONSTRUCCIÓN DE OBRAS PÚBLICAS, VIVIENDAS O CONSTRUCCIONES; B) PROMOCIÓN, CONSTRUCCIÓN Y TRÁFICO SOBRE URBANIZACIONES, EDIFICIOS, CONSTRUCCIONES Y DEMÁS BIENES INMUEBLES; C) LA PRESTACIÓN DE SERVICIOS DE CARÁCTER URBANO: -LIMPIEZA DE VÍAS PÚBLICAS, EDIFICIOS Y LOCALES. - RECOGIDA, TRANSPORTE, TRATAMIENTO, ELIMINACIÓN Y RECICLAJE DE RESIDUOS, INSTALACIÓN Y GESTIÓN DE PLANTAS, ESTACIONES DE TRANSFERENCIAS Y VERTEDEROS DESTINADOS A LA CITADA ACTIVIDAD. - TRATAMIENTO DE RESIUDOS. - ACTIVIDADES DE DEPURACIÓN DE AGUAS RESIDUALES Y ALCANTARILLADO; D) ACTIVIDADES DE MEDIO AMBIENTE",
      "mainEntityOfPage": "https://www.contratacion.euskadi.eus/webkpe00-kperoc/es/ac71aBusquedaRegistrosWar/empresa/03600",
      "_links": {
        "self": {
          "name": "ALAVESA DE OBRAS PUBLICAS, S.L.U.",
          "href": "https://api.euskadi.eus/procurements/companies/03600"
        }
      }
    },
    {
      "name": "JOSE JAVIER OLEA ZORROZA",
      "registrationNumber": "04364",
      "identificationNumber": "72254267C",
      "address": "AVDA. MADARIAGA, 11-5º IZQ.",
      "location": {
        "postalCode": "48014",
        "municipality": "Bilbao",
        "county": "Bizkaia",
        "municipalityId": "020",
        "countyId": "48"
      },
      "economicActivities": [
        {
          "id": "1.501.1",
          "name": "Construcción completa, reparación y conservación de edificaciones",
          "_links": {
            "self": {
              "name": "Construcción completa, reparación y conservación de edificaciones",
              "href": "https://api.euskadi.eus/procurements/companies/economic-activities/1.501.1"
            }
          }
        },
        {
          "id": "1.833.2",
          "name": "Promoción de edificaciones",
          "_links": {
            "self": {
              "name": "Promoción de edificaciones",
              "href": "https://api.euskadi.eus/procurements/companies/economic-activities/1.833.2"
            }
          }
        }
      ],
      "certificateStartDate": "2010-02-22",
      "certificateEndDate": "2010-05-25",
      "object": "TRABAJOS DE CONSTRUCCIÓN NUEVA CON COORDINACIÓN DE TODOS LOS GREMIOS, ASÍ COMO REFORMAS EN GENERAL",
      "mainEntityOfPage": "https://www.contratacion.euskadi.eus/webkpe00-kperoc/es/ac71aBusquedaRegistrosWar/empresa/04364",
      "_links": {
        "self": {
          "name": "JOSE JAVIER OLEA ZORROZA",
          "href": "https://api.euskadi.eus/procurements/companies/04364"
        }
      }
    },
    {
      "name": "INFLOSS WORLD, S.L.",
      "registrationNumber": "03858",
      "identificationNumber": "B95536272",
      "address": "Ibarrekolanda 36 izq 2 D",
      "location": {
        "postalCode": "48015",
        "municipality": "Bilbao",
        "county": "Bizkaia",
        "municipalityId": "020",
        "countyId": "48"
      },
      "economicActivities": [
        {
          "id": "1.845",
          "name": "Explotación electrónica por cuenta de terceros",
          "_links": {
            "self": {
              "name": "Explotación electrónica por cuenta de terceros",
              "href": "https://api.euskadi.eus/procurements/companies/economic-activities/1.845"
            }
          }
        }
      ],
      "certificateStartDate": "2010-02-12",
      "certificateEndDate": "2010-07-27",
      "object": "LA PRESTACIÓN DE SERVICIOS DE INFORMACIÓN, CONSULTORÍA TECNOLÓGICA, ASESORÍA VIRTUAL, CREACIÓN DE CONTENIDOS MULTIMEDIA, CURSOS DE FORMACIÓN Y OTRAS ACTIVIDADES RELACIONADAS CON EL DESARROLLO DE NUEVAS TECNOLOGÍAS E INTERNET RELACIONADAS CON FLOSS",
      "mainEntityOfPage": "https://www.contratacion.euskadi.eus/webkpe00-kperoc/es/ac71aBusquedaRegistrosWar/empresa/03858",
      "_links": {
        "self": {
          "name": "INFLOSS WORLD, S.L.",
          "href": "https://api.euskadi.eus/procurements/companies/03858"
        }
      }
    },
    {
      "name": "RECAMBIOS RENTERÍA, S.L.",
      "registrationNumber": "04360",
      "identificationNumber": "B20226155",
      "address": "OIARTZUN 17, BAJO",
      "location": {
        "postalCode": "20100",
        "municipality": "Errenteria",
        "county": "Gipuzkoa",
        "municipalityId": "067",
        "countyId": "20"
      },
      "economicActivities": [
        {
          "id": "1.615.1",
          "name": "Venta al por mayor de vehículos, motocicletas, bicicletas y sus accesorios",
          "_links": {
            "self": {
              "name": "Venta al por mayor de vehículos, motocicletas, bicicletas y sus accesorios",
              "href": "https://api.euskadi.eus/procurements/companies/economic-activities/1.615.1"
            }
          }
        }
      ],
      "certificateStartDate": "2010-02-12",
      "certificateEndDate": "2010-08-05",
      "object": "LA VENTA DE TODA CLASE DE RECAMBIOS MECÁNICOS, ELÉCTRICOS Y DE CARROCERÍA, TANTO PARA VEHÍCULOS NACIONALES COMO DE IMPORTACIÓN, Y LA VENTA DE MÁQUINAS, ÚTILES, HERRAMIENTAS Y EQUIPO DE TALLER",
      "mainEntityOfPage": "https://www.contratacion.euskadi.eus/webkpe00-kperoc/es/ac71aBusquedaRegistrosWar/empresa/04360",
      "_links": {
        "self": {
          "name": "RECAMBIOS RENTERÍA, S.L.",
          "href": "https://api.euskadi.eus/procurements/companies/04360"
        }
      }
    },
    {
      "name": "BIHARKO, S.A.",
      "registrationNumber": "00057",
      "identificationNumber": "A48149686",
      "address": "C/ AVENIDA MADARIAGA, Nº 83 - PARTE TRASERA.",
      "location": {
        "postalCode": "48014",
        "municipality": "Bilbao",
        "county": "Bizkaia",
        "municipalityId": "020",
        "countyId": "48"
      },
      "economicActivities": [
        {
          "id": "1.501.1",
          "name": "Construcción completa, reparación y conservación de edificaciones",
          "_links": {
            "self": {
              "name": "Construcción completa, reparación y conservación de edificaciones",
              "href": "https://api.euskadi.eus/procurements/companies/economic-activities/1.501.1"
            }
          }
        }
      ],
      "certificateStartDate": "2010-02-09",
      "certificateEndDate": "2010-07-12",
      "object": "CONSTRUCCIÓN DE OBRAS CIVILES CUALQUIERA QUE SEA SU ESTRUCTURA Y TODO CUANTO CON ELLO SE RELACIONE",
      "mainEntityOfPage": "https://www.contratacion.euskadi.eus/webkpe00-kperoc/es/ac71aBusquedaRegistrosWar/empresa/00057",
      "_links": {
        "self": {
          "name": "BIHARKO, S.A.",
          "href": "https://api.euskadi.eus/procurements/companies/00057"
        }
      }
    },
    {
      "name": "ABBOTT CIENTÍFICA, S.A.",
      "registrationNumber": "00618",
      "identificationNumber": "A28716660",
      "address": "C/ AVDA. DE BURGOS, Nº 91",
      "location": {
        "postalCode": "28050",
        "municipality": "Madrid",
        "county": "Madrid",
        "municipalityId": "079",
        "countyId": "28"
      },
      "economicActivities": [
        {
          "id": "1.619.2",
          "name": "Venta al por mayor de aparatos e instrumentos médicos, ortopédicos, ópticos",
          "_links": {
            "self": {
              "name": "Venta al por mayor de aparatos e instrumentos médicos, ortopédicos, ópticos",
              "href": "https://api.euskadi.eus/procurements/companies/economic-activities/1.619.2"
            }
          }
        }
      ],
      "certificateStartDate": "2010-02-04",
      "certificateEndDate": "2010-06-01",
      "object": "LA IMPORTACIÓN, EXPORTACIÓN, FABRICACIÓN, ELABORACIÓN, TRANSFORMACIÓN, EXPLOTACIÓN, DISTRIBUCIÓN Y COMERCIALIZACIÓN DE TODA CLASE DE MATERIAS PRIMAS, PRODUCTOS Y PREPARADOS QUÍMICOS, DE DIAGNÓSTICO, VETERINIARIOS, BIOLÓGICOS, FARMACÉUTICOS, ÍNCLUIDOS TODA CLASE DE ESPECIALIDADES FARMACÉUTICAS, ALIMENTICIOS, DIETÉTICOS, NUTRICIONALES, COSMÉTICOS, SANITARIOS Y/O HOSPITALARIOS, ELABORADOS O SEMI-ELABORADOS Y OTROS EN GENERAL, RELATIVOS AL CUIDADO DE LA SALUD Y DE LA HIGIENE. LA COMPRA, VENTA, TENENCIA, FABRICACIÓN, EXPLOTACIÓN, ARRENDAMIENTO Y COMERCIALIZACIÓN DE TODA CLASE DE BIENES Y EQUIPOS PARA USO SANITARIO, HOSPITALARIO Y DE PRÁCTICA MÉDICA EN TODAS SUS ESPECIALIDADES Y FASES, ASÍ COMO LA PRESTACIÓN DE TODO TIPO DE SERVICIOS Y LA REALIZACIÓN DE CUANTAS ACTIVIDADES FUERAN NECESARIAS O CONVENIENTES PARA EL CUMPLIMIENTO DE ESTE OBJETO SOCIAL",
      "mainEntityOfPage": "https://www.contratacion.euskadi.eus/webkpe00-kperoc/es/ac71aBusquedaRegistrosWar/empresa/00618",
      "_links": {
        "self": {
          "name": "ABBOTT CIENTÍFICA, S.A.",
          "href": "https://api.euskadi.eus/procurements/companies/00618"
        }
      }
    },
    {
      "name": "CONSTRUCCIONES AIKIA, S.L.",
      "registrationNumber": "03228",
      "identificationNumber": "B20717252",
      "address": "URIBE AUZOA, 2 BAJO",
      "location": {
        "postalCode": "20500",
        "municipality": "Arrasate / Mondragón",
        "county": "Gipuzkoa",
        "municipalityId": "055",
        "countyId": "20"
      },
      "economicActivities": [
        {
          "id": "1.501.2",
          "name": "Construcción completa, reparación y conservación obras civiles",
          "_links": {
            "self": {
              "name": "Construcción completa, reparación y conservación obras civiles",
              "href": "https://api.euskadi.eus/procurements/companies/economic-activities/1.501.2"
            }
          }
        }
      ],
      "certificateStartDate": "2010-02-03",
      "certificateEndDate": "2010-05-27",
      "object": "LA EJECUCIÓN POR CUENTA PROPIA O AJENA, YA SEAN PÚBLICAS O PRIVADAS, DE TODO TIPO DE OBRAS DE CONSTRUCCIÓN O EDIFICACIÓN DE NUEVA PLANTA, INCLUYENDO LAS INSTALACIONES PROPIAS DE LA EDIFICACIÓN, SIN QUE TENGAN CARÁCTER LIMITATIVO.\r\nLA  EJECUCIÓN DE TODO TIPO DE OBRAS DE CONSTRUCCIÓN, INCLUSO LA CONSTRUCCIÓN DE VIALES Y MOVIMIENOTS DE TIERRAS EN GENERAL, INCLUYENDO TODAS LAS ACTIVIDADES PROPIAS DE LA URBANIZACIÓN, SIN QUE TENGAN CARÁCTER LIMITATIVO.\r\nY LA REALIZACIÓN DE TODO TIPO DE TRABAJOS DE REPARACIÓN, CONSERVACIÓN Y MANTENIMIENTO DE TODA CLASE DE OBRAS DE EDIFICACIÓN Y URBANIZACIÓN, INCLUSO SUS INSTALACIONES, SIN QUE TENGAN CARÁCTER LIMITATIVO",
      "mainEntityOfPage": "https://www.contratacion.euskadi.eus/webkpe00-kperoc/es/ac71aBusquedaRegistrosWar/empresa/03228",
      "_links": {
        "self": {
          "name": "CONSTRUCCIONES AIKIA, S.L.",
          "href": "https://api.euskadi.eus/procurements/companies/03228"
        }
      }
    },
    {
      "name": "SILICON GRAPHICS, S.A.",
      "registrationNumber": "03643",
      "identificationNumber": "A79415873",
      "address": "PL. DESCUBRIDOR DIEGO DE ORDÁS, 3",
      "location": {
        "postalCode": "28003",
        "municipality": "Madrid",
        "county": "Madrid",
        "municipalityId": "079",
        "countyId": "28"
      },
      "economicActivities": [
        {
          "id": "1.659.2",
          "name": "Venta al por menor de muebles de oficina y máquinas y equipos de oficina",
          "_links": {
            "self": {
              "name": "Venta al por menor de muebles de oficina y máquinas y equipos de oficina",
              "href": "https://api.euskadi.eus/procurements/companies/economic-activities/1.659.2"
            }
          }
        }
      ],
      "certificateStartDate": "2010-02-03",
      "certificateEndDate": "2010-07-08",
      "object": "LA REALIZACIÓN DE:\r\nA) INVESTIGACIONES, DISEÑO, FABRICACIÓN, COMPRA, VENTA, IMPORTACIÓN, EXPORTACIÓN, DISTRIBUCIÓN, REPARACIÓN, MANTENIMIENTO Y, EN GENERAL, CUALQUIER PRESTACIÓN DE SERVICIOS, ASÍ COMO EL ALQUILER EN CONCEPTO DE ARRENDADOR O ARRENDATARIO, DE CUALQUIER PRODUCTO, MÁQUINA, APARATO O MECANISMO RELACIONADO CON PRODUCTOS TECNOLÓGICOS DEL CAMPO DE LA INFORMÁTICA, TALES COMO HARDWARE, SOFTWARE, ORDENARORES Y SISTEMAS INFORMÁTICOS DE CUALQUIER CLASE.\r\nB) SUMINISTROS Y PRESTACIONES DE SERVICIOS DE PERSONAL TÉCNICO Y ESPECIALIZADO EN PRODUCTOS TECNOLÓGICOS, ESPECIALMENTE EN EL ÁREA DE INFORMÁTICA.\r\nC) COMPRAR ACCIONES O PARTICIPACIONES O DE CUALQUIER OTRO MODO PARTICIPAR EN OTRAS EMPRESAS QUE TENGAN RELACIÓN CON SU OBJETO SOCIAL PRINCIPAL; INVERTIR EN NEGOCIOS O ACTIVIDADES RELACIONADOS CON SU OBJETO SOCIAL PRINCIPAL Y PARTICIPAR EN PROYECTOS",
      "mainEntityOfPage": "https://www.contratacion.euskadi.eus/webkpe00-kperoc/es/ac71aBusquedaRegistrosWar/empresa/03643",
      "_links": {
        "self": {
          "name": "SILICON GRAPHICS, S.A.",
          "href": "https://api.euskadi.eus/procurements/companies/03643"
        }
      }
    },
    {
      "name": "C.P. PROXIMITY MADRID, S.L.",
      "registrationNumber": "04305",
      "identificationNumber": "B78799632",
      "address": "CARDENAL MARCELO SPINOLA, 4, 5º",
      "location": {
        "postalCode": "28016",
        "municipality": "Madrid",
        "county": "Madrid",
        "municipalityId": "079",
        "countyId": "28"
      },
      "economicActivities": [
        {
          "id": "1.844",
          "name": "Servicios de publicidad, relaciones públicas y similares",
          "_links": {
            "self": {
              "name": "Servicios de publicidad, relaciones públicas y similares",
              "href": "https://api.euskadi.eus/procurements/companies/economic-activities/1.844"
            }
          }
        }
      ],
      "certificateStartDate": "2010-02-02",
      "certificateEndDate": "2010-04-23",
      "object": ".) ACTIVIDADES PROPIAS DE LAS AGENCIAS DE PUBLICIDAD, MARKETING DIRECTO, PATROCINIO Y PROMOCIÓN DE VENTAS, ASESORÍA Y/O DESARROLLO DE ACTIVIDADES DE RELACIONES PÚBLICAS COMPRENDIENDO LA ELABORACIÓN DE ESTRATEGIAS Y PLANES DE ACTUACIÓN Y ASISTENCIA TÉCNICA COMPLETA EN MATERIA DE INVESTIGACIÓN DE MERCADOS.\r\n\r\n.) ANÁLISIS, CONCEPCIÓN Y DESARROLLO DE PROYECTOS DE IDENTIDAD Y COMUNICACIÓN CORPORATIVA INCLUYENDO TANTO LA IMAGEN GRÁFICA (LOGOTIPOS Y SU APLICACIÓN EN PAPELERÍA, FOLLETOS Y TODO TIPO DE MATERIALES PUBLICITARIOS).\r\n\r\n.) PLANIFICACIÓN DE MEDIOS, NEGOCIACIÓN, CONTRATACIÓN Y EXPLOTACIÓN DE ESPACIOS Y TIEMPOS DE CUALQUIER MEDIO DE COMUNICACIÓN, CUALQUIERA QUE SEA LA NATURALEZA DEL MISMO Y SEA NECESARIO PARA EL BUEN DESARROLLO DE ESTE OBJETO SOCIAL.\r\n\r\n.) LA REALIZACIÓN, COORDINACIÓN Y EJECUCIÓN DE PROYECTOS INTEGRALES DE COMUNICACIÓN EN EL ENTORNO MULTIMEDIA MEDIANTE LA UTILIZACIÓN DE NUEVAS TECNOLOGÍAS.\r\n\r\n.) EL ANÁLISIS Y DESARROLLO DE SISTEMAS INFORMÁTICOS Y EN ESPECIAL DE BASES DE DATOS, LA ASESORÍA DE MERCADO DE MARKETING Y ESTRATEGIAS; Y LA EXPLOTACIÓN DE FRANQUICIAS COMERCIALES.\r\n\r\n.) LA CREACIÓN Y GESTIÓN DE CENTROS DE COMUNICACIONES DIRIGIDOS A LA PRESTACIÓN DE SERVICIOS DE TELEMARKETING, DE INFORMACIÓN, DE ASISTENCIA TÉCNICA, DE ATENCIÓN AL CLIENTE, Y EN GENERAL CUALQUEIR TIPO DE SERVICIOS DE SOPORTE.",
      "mainEntityOfPage": "https://www.contratacion.euskadi.eus/webkpe00-kperoc/es/ac71aBusquedaRegistrosWar/empresa/04305",
      "_links": {
        "self": {
          "name": "C.P. PROXIMITY MADRID, S.L.",
          "href": "https://api.euskadi.eus/procurements/companies/04305"
        }
      }
    }
  ]
}