{
  "totalItems": 9042,
  "totalPages": 905,
  "currentPage": 647,
  "itemsOfPage": 10,
  "items": [
    {
      "name": "AUTOYON, S.L.",
      "registrationNumber": "04225",
      "identificationNumber": "B01125848",
      "address": "CTRA. DE LOGROÑO, 3",
      "location": {
        "postalCode": "01320",
        "municipality": "Oyón-Oion",
        "county": "Araba/Álava",
        "municipalityId": "043",
        "countyId": "01"
      },
      "economicActivities": [
        {
          "id": "1.721.3",
          "name": "Transporte de viajeros por carretera",
          "_links": {
            "self": {
              "name": "Transporte de viajeros por carretera",
              "href": "https://api.euskadi.eus/procurements/companies/economic-activities/1.721.3"
            }
          }
        }
      ],
      "certificateStartDate": "2016-08-23",
      "certificateEndDate": "2017-02-23",
      "object": "EL TRANSPORTE DE VIAJEROS POR CARRETERA",
      "mainEntityOfPage": "https://www.contratacion.euskadi.eus/webkpe00-kperoc/es/ac71aBusquedaRegistrosWar/empresa/04225",
      "_links": {
        "self": {
          "name": "AUTOYON, S.L.",
          "href": "https://api.euskadi.eus/procurements/companies/04225"
        }
      }
    },
    {
      "name": "URALSAN, S.L.",
      "registrationNumber": "02873",
      "identificationNumber": "B20066379",
      "address": "IHURRITA BIDEA, 13 LOCAL 16",
      "location": {
        "postalCode": "20180",
        "municipality": "Oiartzun",
        "county": "Gipuzkoa",
        "municipalityId": "063",
        "countyId": "20"
      },
      "economicActivities": [
        {
          "id": "1.504.3",
          "name": "Instalaciones de frío, calor y acondicionamiento de aire",
          "_links": {
            "self": {
              "name": "Instalaciones de frío, calor y acondicionamiento de aire",
              "href": "https://api.euskadi.eus/procurements/companies/economic-activities/1.504.3"
            }
          }
        }
      ],
      "certificateStartDate": "2016-08-17",
      "certificateEndDate": "2017-02-17",
      "object": "EL MONTAJE, REPARACIÓN, MANTENIMIENTO DE INSTALACIONES DE CALEFACCIÓN, REFRIGERACIÓN, VENTILACIÓN Y AIRE ACONDICIONADO",
      "mainEntityOfPage": "https://www.contratacion.euskadi.eus/webkpe00-kperoc/es/ac71aBusquedaRegistrosWar/empresa/02873",
      "_links": {
        "self": {
          "name": "URALSAN, S.L.",
          "href": "https://api.euskadi.eus/procurements/companies/02873"
        }
      }
    },
    {
      "name": "IREBER, S.L.",
      "registrationNumber": "00200",
      "identificationNumber": "A20085460",
      "address": "C/ AVDA. DE LA LIBERTAD, 10-3º C",
      "location": {
        "postalCode": "20005",
        "municipality": "Donostia / San Sebastián",
        "county": "Gipuzkoa",
        "municipalityId": "069",
        "countyId": "20"
      },
      "economicActivities": [
        {
          "id": "1.842",
          "name": "Servicios financieros y contables",
          "_links": {
            "self": {
              "name": "Servicios financieros y contables",
              "href": "https://api.euskadi.eus/procurements/companies/economic-activities/1.842"
            }
          }
        }
      ],
      "certificateStartDate": "2016-08-08",
      "certificateEndDate": "2016-07-22",
      "object": "EL EJERCICIO DE LAS ACTIVIDADES PROPIAS DE ECONOMISTAS COLEGIADOS",
      "mainEntityOfPage": "https://www.contratacion.euskadi.eus/webkpe00-kperoc/es/ac71aBusquedaRegistrosWar/empresa/00200",
      "_links": {
        "self": {
          "name": "IREBER, S.L.",
          "href": "https://api.euskadi.eus/procurements/companies/00200"
        }
      }
    },
    {
      "name": "ZBIKOITZA, S.L.",
      "registrationNumber": "05527",
      "identificationNumber": "B95846572",
      "address": "IBERRE KALEA, 7 A. POLÍGONO SANGRONIZ",
      "location": {
        "postalCode": "48150",
        "municipality": "Sondika",
        "county": "Bizkaia",
        "municipalityId": "904",
        "countyId": "48"
      },
      "economicActivities": [
        {
          "id": "1.505.5",
          "name": "Carpintería y cerrajería",
          "_links": {
            "self": {
              "name": "Carpintería y cerrajería",
              "href": "https://api.euskadi.eus/procurements/companies/economic-activities/1.505.5"
            }
          }
        }
      ],
      "certificateStartDate": "2016-08-08",
      "certificateEndDate": "2017-01-19",
      "object": "CONSTRUCCIÓN, FABRICACIÓN, REPARACIÓN, CONSERVACIÓN, REFORMAS Y EJECUCIÓN COMPLETA O POR RAMOS DE TODA CLASE DE TRABAJOS DE CARPINTERÍA TANTO EN MADERA COMO METÁLICA, ASÍ COMO DE CERRAJERÍA, CRISTALERÍA, ESCAYOLA, ELECTRICIDAD, ILUMINACIÓN, ROTULACIÓN, TAPICERÍA, HERRERÍA, FONTANERÍA, CALEFACCIÓN, INSONORIZACIÓN, IMPERMEABILIZACIÓN, DISEÑO, FABRICACIÓN Y MONTAJE DE STANDS, TANTO EN FERIAS COMO FUERA DE ELLAS, TANTO A NIVEL NACIONAL COMO INTERNACIONAL, INCLUYENDO EL ALQUILER DE MOBILIARIO Y SUMINISTRO DE SERVICIOS DE CATERING Y TODO ELLO POR CUENTA PROPIA O AJENA",
      "mainEntityOfPage": "https://www.contratacion.euskadi.eus/webkpe00-kperoc/es/ac71aBusquedaRegistrosWar/empresa/05527",
      "_links": {
        "self": {
          "name": "ZBIKOITZA, S.L.",
          "href": "https://api.euskadi.eus/procurements/companies/05527"
        }
      }
    },
    {
      "name": "GARAJE MODERNO, S.A.",
      "registrationNumber": "00811",
      "identificationNumber": "A01000991",
      "address": "C/ AVENIDA DE SANTIAGO, Nº 47.",
      "location": {
        "postalCode": "01003",
        "municipality": "Vitoria-Gasteiz",
        "county": "Araba/Álava",
        "municipalityId": "059",
        "countyId": "01"
      },
      "economicActivities": [
        {
          "id": "1.615.1",
          "name": "Venta al por mayor de vehículos, motocicletas, bicicletas y sus accesorios",
          "_links": {
            "self": {
              "name": "Venta al por mayor de vehículos, motocicletas, bicicletas y sus accesorios",
              "href": "https://api.euskadi.eus/procurements/companies/economic-activities/1.615.1"
            }
          }
        },
        {
          "id": "1.654.1",
          "name": "Venta al por menor de vehículos terrestres",
          "_links": {
            "self": {
              "name": "Venta al por menor de vehículos terrestres",
              "href": "https://api.euskadi.eus/procurements/companies/economic-activities/1.654.1"
            }
          }
        },
        {
          "id": "1.691.2",
          "name": "Reparación de vehículos automóviles, bicicletas y otros vehículos",
          "_links": {
            "self": {
              "name": "Reparación de vehículos automóviles, bicicletas y otros vehículos",
              "href": "https://api.euskadi.eus/procurements/companies/economic-activities/1.691.2"
            }
          }
        }
      ],
      "certificateStartDate": "2016-08-04",
      "certificateEndDate": "2016-12-27",
      "object": "FABRICACIÓN, REPARACIÓN, COMPRAVENTA, ALQUILER, REPRESENTACIÓN DE MARCAS, IMPORTACIÓN Y EXPORTACIÓN DE TODO TIPO DE VEHÍCULOS, AGRÍCOLAS, DE TURISMO O INDUSTRIALES, CON O SIN MOTOR, MÁQUINAS INDUSTRIALES Y TODA CLASE DE MOTORES, SUS PIEZAS Y RECAMBIOS. LAVADO, ENGRASE, REPARACIÓN DE CHAPISTERÍA Y PINTURA DE TODO TIPO DE VEHÍCULOS Y REMOLQUES",
      "mainEntityOfPage": "https://www.contratacion.euskadi.eus/webkpe00-kperoc/es/ac71aBusquedaRegistrosWar/empresa/00811",
      "_links": {
        "self": {
          "name": "GARAJE MODERNO, S.A.",
          "href": "https://api.euskadi.eus/procurements/companies/00811"
        }
      }
    },
    {
      "name": "INSTRUMENTOS CIENTÍFICOS, S.A.",
      "registrationNumber": "04884",
      "identificationNumber": "A46245304",
      "address": "Ceramista Julio Llopis, 6",
      "location": {
        "postalCode": "46100",
        "municipality": "Burjassot",
        "county": "Valencia/València",
        "municipalityId": "078",
        "countyId": "46"
      },
      "economicActivities": [
        {
          "id": "1.619.2",
          "name": "Venta al por mayor de aparatos e instrumentos médicos, ortopédicos, ópticos",
          "_links": {
            "self": {
              "name": "Venta al por mayor de aparatos e instrumentos médicos, ortopédicos, ópticos",
              "href": "https://api.euskadi.eus/procurements/companies/economic-activities/1.619.2"
            }
          }
        }
      ],
      "certificateStartDate": "2016-07-29",
      "certificateEndDate": "2017-01-11",
      "object": "LA IMPORTACIÓN, EXPORTACIÓN, ARRENDAMIENTO NO FINANCIERO, VENTA AL POR MAYOR Y MENOR, INSTALACIÓN, CONSERVACIÓN, ENTRETENIMIENTO, REPARACIÓN Y ASISTENCIA EN TÉCNICA EN GENERAL DE EQUIPOS, INSTRUMENTOS, MATERIALES Y PRODUCTOS, INCLUSO QUÍMICOS, PARA LABORATORIOS ELECTRÓNICOS, FÍSICOS, QUÍMICOS E INDUSTRIALES EN GENERAL",
      "mainEntityOfPage": "https://www.contratacion.euskadi.eus/webkpe00-kperoc/es/ac71aBusquedaRegistrosWar/empresa/04884",
      "_links": {
        "self": {
          "name": "INSTRUMENTOS CIENTÍFICOS, S.A.",
          "href": "https://api.euskadi.eus/procurements/companies/04884"
        }
      }
    },
    {
      "name": "URBILBO, S.L.",
      "registrationNumber": "03504",
      "identificationNumber": "B95446621",
      "address": "POL IND. SONDIKALDE. C/ PORTUBIDEA PAB 4 Nº 2",
      "location": {
        "postalCode": "48150",
        "municipality": "Sondika",
        "county": "Bizkaia",
        "municipalityId": "904",
        "countyId": "48"
      },
      "economicActivities": [
        {
          "id": "1.501.1",
          "name": "Construcción completa, reparación y conservación de edificaciones",
          "_links": {
            "self": {
              "name": "Construcción completa, reparación y conservación de edificaciones",
              "href": "https://api.euskadi.eus/procurements/companies/economic-activities/1.501.1"
            }
          }
        },
        {
          "id": "1.501.2",
          "name": "Construcción completa, reparación y conservación obras civiles",
          "_links": {
            "self": {
              "name": "Construcción completa, reparación y conservación obras civiles",
              "href": "https://api.euskadi.eus/procurements/companies/economic-activities/1.501.2"
            }
          }
        },
        {
          "id": "1.507",
          "name": "Construcción, reparación y conservación de toda clase obras",
          "_links": {
            "self": {
              "name": "Construcción, reparación y conservación de toda clase obras",
              "href": "https://api.euskadi.eus/procurements/companies/economic-activities/1.507"
            }
          }
        },
        {
          "id": "1.751.5",
          "name": "Engrase y lavado de vehículos",
          "_links": {
            "self": {
              "name": "Engrase y lavado de vehículos",
              "href": "https://api.euskadi.eus/procurements/companies/economic-activities/1.751.5"
            }
          }
        }
      ],
      "certificateStartDate": "2016-07-28",
      "certificateEndDate": "2016-08-01",
      "object": "1. CONSTRUCCIÓN, REPARACIÓN Y CONSERVACIÓN DE INMUEBLES Y OBRAS CIVILES, CONSOLIDACIÓN Y PREPARACIÓN DE TERRENOS PARA LA CONSTRUCCIÓN DE EDIFICACIONES Y OBRAS CIVILES, DEMOLICIONES Y DERRIBOS, CIMENTACIONES Y PAVIMENTACIONES PARA LA CONSTRUCCIÓN DE EDIFICACIONES Y OBRAS CIVILES, ASÍ COMO LA PREPARACIÓN Y MONTAJE DE ESTRUCTURAS Y CUBIERTAS Y CUBRICIONES EN EDIFICACIONES Y OBRAS CIVILES. 2. TODA CLASE DE OPERACIONES INMOBILIARIAS SOBRE FINCAS RÚSTICAS Y URBANAS, PROMOCIÓN, CONTRATOS O REALIZACIÓN DE PARCELACIONES, UBANIZACIONES, CONSTRUCCIONES Y OBRAS PRIVADAS  O PÚBLICAS, LA VENTA, HIPOTECA, ARRENDAMIENTO, TRANSFORMACIÓN, MEJORA, ADMINISTRACIÓN PUESTA EN EXPLOTACIÓN LA EXPLOTACIÓN MISMA, BAJO CUALQUIER MODALIDAD DE FINCAS DE CUALQUIER CLASE, LA ORGANIZACIÓN, PROMOCIÓN Y ASESORAMIENTO (SALVO LAS OPERACIONES RESERVADAS A LA BANCA) Y GESTIÓN, EN SU CASO, DE SOCIEDADES, COOPERATIVAS, COMUNIDADES, ENTIDADES, GRUPOS O EMPRESAS PARTICULARES ORIENTADAS A LA CONSTRUCCIÓN O URBANIZACIÓN, LA PLANIFICACIÓN Y ESTUDIO DE MERCADOS EN MATERIA INMOBILIARIA EN GENERAL Y CUALQUIER OTRA QUE PRESENTE DIRECTA RELACIÓN CON LO ESPECIFICADO. 3. EL DESEMPEÑO DE COMISIONESY REPRESENTACIONES PARA TODO GÉNERO DE OPERACIONES DE LÍCITO COMERCIO. 4. ADQUISICIÓN, ENAJENACIÓN O CESIÓN DE BIENES DE EQUIPO, MAQUINARIA Y UTILLAJE, ASÍ COMOSU VENTA, IMPORTACIÓN O EXPORTACIÓN, POR CUALQUIERA DE LAS FORMAS ADMITIDAS EN DERECHO, ASÍ COMO TODA CLASE DE INVENTOS, LICENCIAS, PATENTES, DERECHOS DE PROPIEDAD INDUSTRIAL O INTELECTUAL, TANTO NACIONALES COMO EXTRANJEROS, ASÍ COMO LA CESIÓN DE TODA CLASE DE DERECHOS DE ARTISTAS, DEPORTISTAS Y DEMÁS, Y CUALQUIER OTRO QUE LLEVE INHERTE A LA PROFESIÓN DE DICHAS PERSONAS",
      "mainEntityOfPage": "https://www.contratacion.euskadi.eus/webkpe00-kperoc/es/ac71aBusquedaRegistrosWar/empresa/03504",
      "_links": {
        "self": {
          "name": "URBILBO, S.L.",
          "href": "https://api.euskadi.eus/procurements/companies/03504"
        }
      }
    },
    {
      "name": "TECNOCOM ESPAÑA SOLUTIONS, S.L.",
      "registrationNumber": "00959",
      "identificationNumber": "B79826251",
      "address": "C/ PASEO DE LA CASTELLANA, Nº 95. TORRE EUROPA, 13ª PLANTA. ",
      "location": {
        "postalCode": "28046",
        "municipality": "Madrid",
        "county": "Madrid",
        "municipalityId": "079",
        "countyId": "28"
      },
      "economicActivities": [
        {
          "id": "1.504.7",
          "name": "Instalaciones telefónicas, telegráficas, televisión, etc",
          "_links": {
            "self": {
              "name": "Instalaciones telefónicas, telegráficas, televisión, etc",
              "href": "https://api.euskadi.eus/procurements/companies/economic-activities/1.504.7"
            }
          }
        },
        {
          "id": "1.617.8",
          "name": "Venta al por mayor de máquinas y material de oficina",
          "_links": {
            "self": {
              "name": "Venta al por mayor de máquinas y material de oficina",
              "href": "https://api.euskadi.eus/procurements/companies/economic-activities/1.617.8"
            }
          }
        },
        {
          "id": "1.691.9",
          "name": "Reparación de otros bienes de consumo n.c.o.p",
          "_links": {
            "self": {
              "name": "Reparación de otros bienes de consumo n.c.o.p",
              "href": "https://api.euskadi.eus/procurements/companies/economic-activities/1.691.9"
            }
          }
        },
        {
          "id": "1.842",
          "name": "Servicios financieros y contables",
          "_links": {
            "self": {
              "name": "Servicios financieros y contables",
              "href": "https://api.euskadi.eus/procurements/companies/economic-activities/1.842"
            }
          }
        },
        {
          "id": "1.845",
          "name": "Explotación electrónica por cuenta de terceros",
          "_links": {
            "self": {
              "name": "Explotación electrónica por cuenta de terceros",
              "href": "https://api.euskadi.eus/procurements/companies/economic-activities/1.845"
            }
          }
        }
      ],
      "certificateStartDate": "2016-07-20",
      "certificateEndDate": "2016-12-01",
      "object": "a) LA ADQUISICIÓN, PRODUCCIÓN Y COMERCIALIZACIIÓN DE SOLUCIONES PARA EL TRATAMIENTO DE DATOS, MEDIANTE PROCEDIMIENTOS INFORMÁTICOS TANTO EN LO REFERENTE A EQUIPOS ELECTRÓNICOS COMO A LOS PROGRAMAS, SISTEMAS Y SERVICIOS NECESARIOS PARA SU FUNCIONAMIENTO, ASÍ COMO EL DESARROLLO E INVESTIGACIÓN DE PRODUCTOS Y SISTEMAS INFORMÁTICOS EN GENERAL.\r\n\r\nb) SERVICIOS DE CONSULTORÍA Y ESTUDIOS SOBRE ORGANIZACIÓN, GESTIÓN Y ADMINISTRACIIÓN DE TODO TIPO DE EMPRESAS.\r\n\r\nc) CONSULTORÍA ENERGÉTICA Y DE GESTIÓN DE PARQUES INFORMÁTICOS, CONSULTORÍA, INSTALACIÓN Y GESTIÓN DE REDES DE DATOS Y DE TELEMÁTICA EN GENERAL.\r\n\r\nd) LA ADQUISICIÓN, VENTA, FABRICACIÓN Y MANTENIMIENTO DE MÁQUINAS Y ARTÍCULOS PARA DESPACHO, MÁQUINAS DE ESCRIBIR, CALCULADORAS, ORDENADORES Y TODA CLASE DE PRODUCTOS ELECTRÓNICOS EN GENERAL Y DE INFORMÁTICA EN PARTICULAR, ASÍ COMO OTROS ARTÍCULOS PARA OFICINA Y DE FORMA ESPECIAL, LA APLICACIÓN Y ADAPTACIÓN DE TALES PRODUCTOS A LOS DESEOS E INTERESES DE LA CLIENTELA\r\n\r\n",
      "mainEntityOfPage": "https://www.contratacion.euskadi.eus/webkpe00-kperoc/es/ac71aBusquedaRegistrosWar/empresa/00959",
      "_links": {
        "self": {
          "name": "TECNOCOM ESPAÑA SOLUTIONS, S.L.",
          "href": "https://api.euskadi.eus/procurements/companies/00959"
        }
      }
    },
    {
      "name": "TXUKUN-TAZ, S.L.",
      "registrationNumber": "04828",
      "identificationNumber": "B95264388",
      "address": "JON ARROSPIDE Nº 11-3ª PTA-DPTO. 13",
      "location": {
        "postalCode": "48014",
        "municipality": "Bilbao",
        "county": "Bizkaia",
        "municipalityId": "020",
        "countyId": "48"
      },
      "economicActivities": [
        {
          "id": "1.504.3",
          "name": "Instalaciones de frío, calor y acondicionamiento de aire",
          "_links": {
            "self": {
              "name": "Instalaciones de frío, calor y acondicionamiento de aire",
              "href": "https://api.euskadi.eus/procurements/companies/economic-activities/1.504.3"
            }
          }
        },
        {
          "id": "1.855.2",
          "name": "Alquiler de embarcaciones",
          "_links": {
            "self": {
              "name": "Alquiler de embarcaciones",
              "href": "https://api.euskadi.eus/procurements/companies/economic-activities/1.855.2"
            }
          }
        }
      ],
      "certificateStartDate": "2016-07-15",
      "certificateEndDate": "2017-01-14",
      "object": "-INSTALACIÓN, MANTENIMIENTO Y COMERCIALIZACIÓN DE TODO TIPO DE SISTEMAS DE CLIMATIZACIÓN TANTO A NIVEL DOMÉSTICO COMO INDUSTRIAL, SERVICIO TÉCNICO DE SISTEMAS CLIMATIZACIÓN, TRABAJOS DE FONTANERÍA A NIVEL DOMÉSTICO E INDUSTRIAS, ASI COMO , REALIZACIÓN DE OBRA CIVIL EN GENERAL.\r\n-ALQUILER DE EMBARCACIONES\r\n-SERVICIOS TÉCNICOS NÁUTICOS",
      "mainEntityOfPage": "https://www.contratacion.euskadi.eus/webkpe00-kperoc/es/ac71aBusquedaRegistrosWar/empresa/04828",
      "_links": {
        "self": {
          "name": "TXUKUN-TAZ, S.L.",
          "href": "https://api.euskadi.eus/procurements/companies/04828"
        }
      }
    },
    {
      "name": "OBRAS ESPECIALES GIPUZKOA, S.A.",
      "registrationNumber": "03334",
      "identificationNumber": "A20812822",
      "address": "C/EDIF.IGARABURU, POKOPANDEGI BIDEA 11-2ª PL.OF.203-208",
      "location": {
        "postalCode": "20018",
        "municipality": "Donostia / San Sebastián",
        "county": "Gipuzkoa",
        "municipalityId": "069",
        "countyId": "20"
      },
      "economicActivities": [
        {
          "id": "1.507",
          "name": "Construcción, reparación y conservación de toda clase obras",
          "_links": {
            "self": {
              "name": "Construcción, reparación y conservación de toda clase obras",
              "href": "https://api.euskadi.eus/procurements/companies/economic-activities/1.507"
            }
          }
        }
      ],
      "certificateStartDate": "2016-07-11",
      "certificateEndDate": "2016-12-30",
      "object": "LA CONSTRUCCIÓN Y VENTA DE VIVIENDAS Y LOCALES COMERCIALES, PABELLONES INDUSTRIALES, GARAJES; OBRAS PÚBLICAS; ADQUISICIÓN Y VENTA DE TERRENOS; MOVIMIENTOS DE TIERRA Y PERFORACIONES; PUENTES, VIADUCTOS Y GRANDES ESTRUCTURAS; FERROCARRILES; OBRAS HIDRÁULICAS; OBRAS Y CONSTRUCCIONES MARÍTIMAS, VIALES Y PISTAS, TRANSPORTE DE PRODUCTOS FLUIDOS Y GASEOSOS; INSTALACIONES ELÉCTRICAS Y COMUNICACIONES, INSTALACIONES MECÁNICAS; CIMENTACIONES ESPECIALES; SONDEOS, INYECCIONES Y PILOTAJES; TABLESCADOS; PINTURAS Y METALIZACIONES; ORNAMENTOS Y DECORACIONES; JARDINERÍA Y PLANTACIONES; RESTAURACIÓN DE BIENES INMUEBLES HISTÓRICO-ARTÍSTICOS; ESTACIONES DE TRATAMIENTO DE AGUAS E INSTALACIONES CONTRA INCENDIOS; ESTUDIOS E INFORMES DE OBRAS PÚBLICAS; EDIFICACIÓN, URBANISMO, CARTOGRAFÍA, TOPOGRAFÍA; CATASTROS, GEOMANCIA, HIDROLOGÍA Y MEDIO AMBIENTE; ANÁLISIS, ENSAYOS Y CONTROL TÉCNICO; ESTUDIOS E INFORMES ECONÓMICOS, FINANCIEROS, COMERCIALES, SOCIALES Y LABORALES; PROYECTOS Y DIRECCIÓN DE OBRAS DE AGRICULTURA, GANADERÍA, PESCA, INDUSTRIA, ENERGÍA, MINERÍA, OBRAS PÚBLICAS, EDIFICACIÓN, URBANISMO; SERVICIOS SANITARIOS, INFORMACIÓN, PUBLICIDAD, ADMINISTRATIVOS Y COMUNICACIONES, CONSERVACIÓN Y MANTENIMIENTO DE BIENES MUEBLES E INMUEBLES, NATURALES Y NO NATURALES, LIMPIEZAS E HIGIENIZACIÓN, MANTENIMIENTO DE EQUIPOS E INSTALACIONES, TRANSPORTES; TRABAJOS Y SERVICIOS RELACIONADOS CON EL MEDIO AMBIENTE; GENERACIÓN Y COGENERACIÓN DE ENERGÍA; EXPLOTACIÓN DE MINAS, CANTERAS Y VERTEDEROS; SUMINISTROS DE TODO TIPO A PARTICULARES O A LA ADMINISTRACIÓN",
      "mainEntityOfPage": "https://www.contratacion.euskadi.eus/webkpe00-kperoc/es/ac71aBusquedaRegistrosWar/empresa/03334",
      "_links": {
        "self": {
          "name": "OBRAS ESPECIALES GIPUZKOA, S.A.",
          "href": "https://api.euskadi.eus/procurements/companies/03334"
        }
      }
    }
  ]
}