{
  "totalItems": 9042,
  "totalPages": 905,
  "currentPage": 307,
  "itemsOfPage": 10,
  "items": [
    {
      "name": "OMEI KAYAK SL",
      "registrationNumber": "10308",
      "identificationNumber": "B20793329",
      "address": "C/ Sagasti, 9 (Pab. 30)",
      "location": {
        "postalCode": "20100",
        "municipality": "Lezo",
        "county": "Gipuzkoa",
        "municipalityId": "053",
        "countyId": "20"
      },
      "economicActivities": [
        {
          "id": "1.659.6",
          "name": "Venta al por menor de juguetes, artículos de deporte",
          "_links": {
            "self": {
              "name": "Venta al por menor de juguetes, artículos de deporte",
              "href": "https://api.euskadi.eus/procurements/companies/economic-activities/1.659.6"
            }
          }
        }
      ],
      "certificateStartDate": "2025-09-02",
      "certificateEndDate": "2026-03-02",
      "object": "LA FABRICACIÓN, COMERCIALIZACIÓN, TANTO AL POR MAYOR, COMO AL POR MENOR, EXPORTACIÓN, IMPORTACIÓN, DE CANOAS, EMBARCACIONES, EQUIPOS, Y TODO TIPO DE ARTÍCULOS PARA EL DEPORTE. COMPRA, VENTA ARRENDAMIENTO, DE TODO TIPO DE BIENES MUEBLES E INMUEBLES.",
      "mainEntityOfPage": "https://www.contratacion.euskadi.eus/webkpe00-kperoc/es/ac71aBusquedaRegistrosWar/empresa/10308",
      "_links": {
        "self": {
          "name": "OMEI KAYAK SL",
          "href": "https://api.euskadi.eus/procurements/companies/10308"
        }
      }
    },
    {
      "name": "TORCON 2004, S.L.",
      "registrationNumber": "04348",
      "identificationNumber": "B95322616",
      "address": "ESTRADA MASUSTEGUI 3, 3º",
      "location": {
        "postalCode": "48002",
        "municipality": "Bilbao",
        "county": "Bizkaia",
        "municipalityId": "020",
        "countyId": "48"
      },
      "economicActivities": [
        {
          "id": "1.442.9",
          "name": "Fabricación de otros artículos de cuero n.c.o.p",
          "_links": {
            "self": {
              "name": "Fabricación de otros artículos de cuero n.c.o.p",
              "href": "https://api.euskadi.eus/procurements/companies/economic-activities/1.442.9"
            }
          }
        }
      ],
      "certificateStartDate": "2025-09-02",
      "certificateEndDate": "2026-02-28",
      "object": "A) LA FABRICACIÓN, COMERCIALIZACIÓN, IMPORTACIÓN, EXPORTACIÓN, VENTA Y DISTRIBUCIÓN DE MARROQUINERÍA; B) LA FABRICACIÓN, COMERCIALIZACIÓN, IMPORTACIÓN, EXPORTACIÓN, VENTA Y DISTRIBUCIÓN DE SUMINISTROS INDUSTRIALES, MAQUINARIA INDUSTRIAL, ELEMENTOS DE SEGURIDAD COMO CASCOS, CINTURONES, VESTUARIO, CHALECOS Y CALZADO. C) LA PUBLICIDAD",
      "mainEntityOfPage": "https://www.contratacion.euskadi.eus/webkpe00-kperoc/es/ac71aBusquedaRegistrosWar/empresa/04348",
      "_links": {
        "self": {
          "name": "TORCON 2004, S.L.",
          "href": "https://api.euskadi.eus/procurements/companies/04348"
        }
      }
    },
    {
      "name": "OPACUA, S.A.",
      "registrationNumber": "00318",
      "identificationNumber": "A01019702",
      "address": "CL DUQUE DE WELLINGTON Nº8 OF1",
      "location": {
        "postalCode": "01010",
        "municipality": "Vitoria-Gasteiz",
        "county": "Araba/Álava",
        "municipalityId": "059",
        "countyId": "01"
      },
      "economicActivities": [
        {
          "id": "1.507",
          "name": "Construcción, reparación y conservación de toda clase obras",
          "_links": {
            "self": {
              "name": "Construcción, reparación y conservación de toda clase obras",
              "href": "https://api.euskadi.eus/procurements/companies/economic-activities/1.507"
            }
          }
        },
        {
          "id": "1.833.1",
          "name": "Promoción de terrenos",
          "_links": {
            "self": {
              "name": "Promoción de terrenos",
              "href": "https://api.euskadi.eus/procurements/companies/economic-activities/1.833.1"
            }
          }
        },
        {
          "id": "1.833.2",
          "name": "Promoción de edificaciones",
          "_links": {
            "self": {
              "name": "Promoción de edificaciones",
              "href": "https://api.euskadi.eus/procurements/companies/economic-activities/1.833.2"
            }
          }
        }
      ],
      "certificateStartDate": "2025-09-02",
      "certificateEndDate": "2026-02-23",
      "object": "LA ADQUISICIÓN, URBANIZACIÓN, PARCELACIÓN, CONSTRUCCIÓN, EDIFICACIÓN, CONSTITUCIÓN EN PROPIEDAD HORIZONTAL, REFORMA, AMPLIACIÓN, EXPLOTACIÓN DIRECTA O INDIRECTA, ENAJENACIÓN Y EN GENERAL, TODA ACTIVIDAD RELATIVA A BIENES INMUEBLES, LA REALIZACIÓN DE OBRAS PÚBLICAS Y TODA SUERTE DE INVERSIONES Y PROMOCIONES RELACIONADAS CON EL RAMO DE LA CONSTRUCCIÓN",
      "mainEntityOfPage": "https://www.contratacion.euskadi.eus/webkpe00-kperoc/es/ac71aBusquedaRegistrosWar/empresa/00318",
      "_links": {
        "self": {
          "name": "OPACUA, S.A.",
          "href": "https://api.euskadi.eus/procurements/companies/00318"
        }
      }
    },
    {
      "name": "SCHMITZ MÉDICAL IBÉRICA, S.L.",
      "registrationNumber": "03701",
      "identificationNumber": "B81298937",
      "address": "C/ POLLENSA, 2 - OFIC. 4",
      "location": {
        "postalCode": "28290",
        "municipality": "Rozas de Madrid, Las",
        "county": "Madrid",
        "municipalityId": "127",
        "countyId": "28"
      },
      "economicActivities": [
        {
          "id": "1.619.2",
          "name": "Venta al por mayor de aparatos e instrumentos médicos, ortopédicos, ópticos",
          "_links": {
            "self": {
              "name": "Venta al por mayor de aparatos e instrumentos médicos, ortopédicos, ópticos",
              "href": "https://api.euskadi.eus/procurements/companies/economic-activities/1.619.2"
            }
          }
        }
      ],
      "certificateStartDate": "2025-09-01",
      "certificateEndDate": "2026-03-01",
      "object": "A) LA COMERCIALIZACIÓN, VENTA, DISTRIBUCIÓN, ALQUILER Y REPRESENTACIÓN DE TODO TIPO DE SUMINISTROS HOSPITALARIOS, INSTRUMENTAL QUIRÚRGICO Y MÉDICO, IMPLANTES DESECHABLES, FUNGIBLES, ORTOPEDIA, Y CUALQUIER OTRO MATERIAL CLÍNICO Y MOBILIARIO HOSPITALARIO, ASÍ COMO SISTEMAS DE ELECTROMEDICINA, ESTERILIZACIÓN Y TRASPLANTE.\nB) SISTEMAS Y SERVICIOS DE MANTENIMIENTO TÉCNICO DEL MATERIAL, MAQUINARIA Y MOBILIARIO HOSPITALARIO, MÉDICO Y QUIRÚRGICO.\nC) PRESTAR SERVICIOS DE ASESORAMIENTO EN CUALQUIER MATERIA COMPRENDIDA EN LOS APARTADOS ANTERIORES",
      "mainEntityOfPage": "https://www.contratacion.euskadi.eus/webkpe00-kperoc/es/ac71aBusquedaRegistrosWar/empresa/03701",
      "_links": {
        "self": {
          "name": "SCHMITZ MÉDICAL IBÉRICA, S.L.",
          "href": "https://api.euskadi.eus/procurements/companies/03701"
        }
      }
    },
    {
      "name": "INGENIERIA DE PROYECTOS BIM, S.L.",
      "registrationNumber": "08509",
      "identificationNumber": "B95845756",
      "address": "Calle Juan de Ajuriaguerra 19, Entreplanta Exterior, Local 1",
      "location": {
        "postalCode": "48009",
        "municipality": "Bilbao",
        "county": "Bizkaia",
        "municipalityId": "020",
        "countyId": "48"
      },
      "economicActivities": [
        {
          "id": "1.843.2",
          "name": "Servicios técnicos de arquitectura y urbanismo",
          "_links": {
            "self": {
              "name": "Servicios técnicos de arquitectura y urbanismo",
              "href": "https://api.euskadi.eus/procurements/companies/economic-activities/1.843.2"
            }
          }
        },
        {
          "id": "1.848.2",
          "name": "SERVICIOS DE OFICINA FLEXIBLE, \"COWORKING\" Y CENTROS DE NEGOCIOS",
          "_links": {
            "self": {
              "name": "SERVICIOS DE OFICINA FLEXIBLE, \"COWORKING\" Y CENTROS DE NEGOCIOS",
              "href": "https://api.euskadi.eus/procurements/companies/economic-activities/1.848.2"
            }
          }
        }
      ],
      "certificateStartDate": "2025-09-01",
      "certificateEndDate": "2026-02-28",
      "object": "1. LA INTERMEDIACIÓN, ORGANIZACIÓN Y COORDINACIÓN EN LA PRESTACIÓN DE TODA CLASE DE SERVICIOS RELACIONADOS CON LA TECNOLOGÍA BIM (BUILDING INFORMATION MODELING/ MODELADO CON INFORMACIÓN PARA LA CONSTRUCCIÓN), A TODO TIPO DE PERSONA FÍSICA O JURÍDICA, TANTO EN TERRITORIO NACIONAL COMO EN EL EXTRANJERO. 2. LA INTERMEDIACIÓN, ORGANIZACIÓN Y COORDINACIÓN EN LA REDACCIÓN DE PROYECTOS TÉCNICOS DE ARQUITECTURA, INGENIERÍA, INSTALACIONES, URBANISMO, ASÍ COMO PLANES DIRECTORES Y DIRECCIONES FACULTATIVAS CORRESPONDIENTES, INCLUYENDO LA DIRECCIÓN INTEGRADA DE PROYECTOS, GESTIÓN, CONTROL Y DIRECCIÓN DE OBRAS DE CUALQUIER CLASE. LA REDACCIÓN, ELABORACIÓN Y EJECUCIÓN DE TODA CLASE DE ESTUDIOS, DICTÁMENES, TASACIONES Y PROYECTOS RELACIONADOS CON LA ENERGÍA, PATRIMONIO INDUSTRIAL, AGRICULTURA Y MEDIO AMBIENTE; LA DIRECCIÓN, ASISTENCIA TÉCNICA, TRANSFERENCIA TECNOLÓGICA Y DE COMERCIALIZACIÓN, INSPECCIÓN, CONTROL Y ADMINISTRACIÓN EN TALES PROYECTOS Y ACTIVIDADES. 3. LA INTERMEDIACIÓN, ORGANIZACIÓN Y COORDINACIÓN EN LOS SERVICIOS DE ASESORÍA Y CONSULTORÍA TECNOLÓGICA PARA ASOCIACIONES PROFESIONALES Y OTRAS ORGANIZACIONES PÚBLICAS O PRIVADAS. 4. LA TITULARIDAD, EXPLOTACIÓN O CESIÓN DE DISEÑOS Y DE LA PROPIEDAD INDUSTRIAL EN TODAS SUS MODALIDADES Y CLASES. 5. LA TENENCIA, ADQUISICIÓN Y ENAJENACIÓN DE TODA CLASE DE VALORES MOBILIARIOS, TANTO NACIONALES COMO EXTRANJEROS, CON LA EXCEPCIONES Y LIMITACIONES ESTABLECIDAS POR LA LEY DEL MERCADO DE VALORES Y DE INSTITUCIONES DE INVERSIÓN COLECTIVA. 6. LA ADQUISICIÓN, EXPLOTACIÓN, ALQUILER, ADMINISTRACIÓN Y TRANSMISIÓN DE INMUEBLES RÚSTICOS O URBANOS, POR CUALQUIER TÍTULO, YA SEAN EN SU TOTALIDAD O PARTE.",
      "mainEntityOfPage": "https://www.contratacion.euskadi.eus/webkpe00-kperoc/es/ac71aBusquedaRegistrosWar/empresa/08509",
      "_links": {
        "self": {
          "name": "INGENIERIA DE PROYECTOS BIM, S.L.",
          "href": "https://api.euskadi.eus/procurements/companies/08509"
        }
      }
    },
    {
      "name": "ALTEL, S.L.U.",
      "registrationNumber": "00976",
      "identificationNumber": "B01054527",
      "address": "C/ BASALDEA, 4 - POL. IND. JUNDIZ",
      "location": {
        "postalCode": "01013",
        "municipality": "Vitoria-Gasteiz",
        "county": "Araba/Álava",
        "municipalityId": "059",
        "countyId": "01"
      },
      "economicActivities": [
        {
          "id": "1.504.1",
          "name": "Instalaciones eléctricas en general",
          "_links": {
            "self": {
              "name": "Instalaciones eléctricas en general",
              "href": "https://api.euskadi.eus/procurements/companies/economic-activities/1.504.1"
            }
          }
        }
      ],
      "certificateStartDate": "2025-09-01",
      "certificateEndDate": "2026-02-28",
      "object": "LA FABRICACIÓN, MONTAJE, INSTALACIÓN, REPARACIÓN, ASISTENCIA TÉCNICA POSTERIOR Y COMERCIALIZACIÓN DE EQUIPOS ELECTRÓNICOS Y AFINES, LA DISTRIBUCIÓN DE EQUIPOS PROPIOS O REPRESENTADOS, REALIZACIÓN DE PROYECTOS, MEMORIAS E INFORMES TÉCNICOS, PUDIENDO PARTICIPAR Y TOMAR PARTE EN CONCURSOS, SUBASTAS Y ADJUDICACIONES PÚBLICAS O PRIVADAS",
      "mainEntityOfPage": "https://www.contratacion.euskadi.eus/webkpe00-kperoc/es/ac71aBusquedaRegistrosWar/empresa/00976",
      "_links": {
        "self": {
          "name": "ALTEL, S.L.U.",
          "href": "https://api.euskadi.eus/procurements/companies/00976"
        }
      }
    },
    {
      "name": "GAYCA ASESORES, S.L.",
      "registrationNumber": "07025",
      "identificationNumber": "B20612917",
      "address": "AVENIDA IPARRALDE,10Y",
      "location": {
        "postalCode": "20302",
        "municipality": "Irun",
        "county": "Gipuzkoa",
        "municipalityId": "045",
        "countyId": "20"
      },
      "economicActivities": [
        {
          "id": "1.842",
          "name": "Servicios financieros y contables",
          "_links": {
            "self": {
              "name": "Servicios financieros y contables",
              "href": "https://api.euskadi.eus/procurements/companies/economic-activities/1.842"
            }
          }
        }
      ],
      "certificateStartDate": "2025-09-01",
      "certificateEndDate": "2026-02-25",
      "object": " EL ESTUDIO Y SOLUCIÓN TÉCNICA DE LOS PROBLEMAS DE LA ECONOMÍA GENERAL O DE LA EMPRESA, EN CUALQUIERA DE SUS ASPECTOS, REALIZANDO LOS TRABAJOS O MISIONES ADECUADOS, EMITIENDO DICTÁMENES O INFORMES PROCEDENTES Y VERIFICANDO LOS OPORTUNOS ASESORAMIENTOS Y EN GENERAL, CUALQUIER OTRA ACTIVIDAD RELACIONADA CON EL ASESORAMIENTO EMPRESARIAL",
      "mainEntityOfPage": "https://www.contratacion.euskadi.eus/webkpe00-kperoc/es/ac71aBusquedaRegistrosWar/empresa/07025",
      "_links": {
        "self": {
          "name": "GAYCA ASESORES, S.L.",
          "href": "https://api.euskadi.eus/procurements/companies/07025"
        }
      }
    },
    {
      "name": "AUZO LAGUN, S. COOP.",
      "registrationNumber": "01327",
      "identificationNumber": "F20032553",
      "address": "URIBARRI ETORBIDEA, 35-37",
      "location": {
        "postalCode": "20500",
        "municipality": "Arrasate / Mondragón",
        "county": "Gipuzkoa",
        "municipalityId": "055",
        "countyId": "20"
      },
      "economicActivities": [
        {
          "id": "1.659.4",
          "name": "Venta al por menor de libros, periódicos y artículos de papelería y escritorio",
          "_links": {
            "self": {
              "name": "Venta al por menor de libros, periódicos y artículos de papelería y escritorio",
              "href": "https://api.euskadi.eus/procurements/companies/economic-activities/1.659.4"
            }
          }
        },
        {
          "id": "1.671.5",
          "name": "Restaurante un tenedor",
          "_links": {
            "self": {
              "name": "Restaurante un tenedor",
              "href": "https://api.euskadi.eus/procurements/companies/economic-activities/1.671.5"
            }
          }
        },
        {
          "id": "1.672.3",
          "name": "Cafetería una taza",
          "_links": {
            "self": {
              "name": "Cafetería una taza",
              "href": "https://api.euskadi.eus/procurements/companies/economic-activities/1.672.3"
            }
          }
        },
        {
          "id": "1.673",
          "name": "Servicios en cafes y bares",
          "_links": {
            "self": {
              "name": "Servicios en cafes y bares",
              "href": "https://api.euskadi.eus/procurements/companies/economic-activities/1.673"
            }
          }
        },
        {
          "id": "1.677.9",
          "name": "Otros servicios de alimentación propios de la restauración",
          "_links": {
            "self": {
              "name": "Otros servicios de alimentación propios de la restauración",
              "href": "https://api.euskadi.eus/procurements/companies/economic-activities/1.677.9"
            }
          }
        },
        {
          "id": "1.849.9",
          "name": "Otros servicios independientes n.c.o.p",
          "_links": {
            "self": {
              "name": "Otros servicios independientes n.c.o.p",
              "href": "https://api.euskadi.eus/procurements/companies/economic-activities/1.849.9"
            }
          }
        },
        {
          "id": "1.922.1",
          "name": "Servicios de limpieza de interiores",
          "_links": {
            "self": {
              "name": "Servicios de limpieza de interiores",
              "href": "https://api.euskadi.eus/procurements/companies/economic-activities/1.922.1"
            }
          }
        },
        {
          "id": "1.952",
          "name": "Asistencia y servicios sociales en centros no residenciales",
          "_links": {
            "self": {
              "name": "Asistencia y servicios sociales en centros no residenciales",
              "href": "https://api.euskadi.eus/procurements/companies/economic-activities/1.952"
            }
          }
        },
        {
          "id": "1.966.9",
          "name": "Otros servicios culturales n.c.o.p",
          "_links": {
            "self": {
              "name": "Otros servicios culturales n.c.o.p",
              "href": "https://api.euskadi.eus/procurements/companies/economic-activities/1.966.9"
            }
          }
        },
        {
          "id": "1.971.1",
          "name": "Tinte, limpieza en seco, lavado y planchado de ropas",
          "_links": {
            "self": {
              "name": "Tinte, limpieza en seco, lavado y planchado de ropas",
              "href": "https://api.euskadi.eus/procurements/companies/economic-activities/1.971.1"
            }
          }
        },
        {
          "id": "1.971.3",
          "name": "Zurcido y reparación de ropas",
          "_links": {
            "self": {
              "name": "Zurcido y reparación de ropas",
              "href": "https://api.euskadi.eus/procurements/companies/economic-activities/1.971.3"
            }
          }
        }
      ],
      "certificateStartDate": "2025-09-01",
      "certificateEndDate": "2026-02-27",
      "object": "EL DESARROLLO DE FORMA ÍNTEGRA O PARCIAL DE LOS PROCESOS RELACIONADOS CON LA CADENA ALIMENTARIA, COMPRENDIENDO LAS ACTIVIDADES DE PRODUCCIÓN, SELECCIÓN, PROCESAMIENTO, TRANSPORTE Y COMERCIALIZACIÓN DE ALIMENTOS, TANTO MATERIAS PRIMAS COMO ELABORADOS Y SEMIELABORADOS, Y BEBIDAS, DESTINADOS A SU CONSUMO INDIVIDUAL O COLECTIVO, INCLUYENDO LA PRESTACIÓN DE CUALQUIER SERIVCIO ANEXO O COMPLEMENTARIO. LA PRESTACIÓN DE TODO TIPO SERVICIOS AUXILIARES O COMPLEMENTARIOS PARA COMUNIDADES, EMPRESAS, ORGANIZACIONES O INSTITUCIONES, DE CARÁCTER PÚBLICO O PRIVADO. LA REALIZACIÓN DE TAREAS, ACTIVIDADES Y/O PROCESOS COMPLEMENTARIOS O QUE FORMEN PARTE DE LOS PROCESOS DE TERCEROS QUE SEAN ENCOMENDADOS POR ÉSTOS EN LA MODALIDAD DE SUBCONTRATACIÓN. LA GESTIÓN INTEGRAL DE CUALQUIER TIPO DE SERVICIO PARA ENTIDADES EDUCATIVAS, EMPRESARIALES SANITARIAS Y SOCIOSANITARIAS, DE TITULARIDAD PÚBLICA O PRIVADA,  O QUE ESTÉN DIRECTA O INDIRECTAMENTE RELACIONADAS CON AQUÉLLAS. EL DISEÑO, PLANIFICACIÓN Y PRODUCCIÓN DE CONGRESOS, FESTIVALES, CEREMONIAS, FIESTAS, CONVENCIONES U OTRO TIPO DE REUNIONES O EVENTOS, EN CUALQUIER ÁMBITO EMPRESARIAL, CULTURAL, DEPORTIVO, POLÍTICO, OFICIAL O SOCIAL.\n",
      "mainEntityOfPage": "https://www.contratacion.euskadi.eus/webkpe00-kperoc/es/ac71aBusquedaRegistrosWar/empresa/01327",
      "_links": {
        "self": {
          "name": "AUZO LAGUN, S. COOP.",
          "href": "https://api.euskadi.eus/procurements/companies/01327"
        }
      }
    },
    {
      "name": "CONSTRUCCIONES A.C.R., S.A.",
      "registrationNumber": "01864",
      "identificationNumber": "A31039746",
      "address": "PRINCIPE DE VERGARA, 131-1ª PLANTA",
      "location": {
        "postalCode": "28002",
        "municipality": "Madrid",
        "county": "Madrid",
        "municipalityId": "079",
        "countyId": "28"
      },
      "economicActivities": [
        {
          "id": "1.507",
          "name": "Construcción, reparación y conservación de toda clase obras",
          "_links": {
            "self": {
              "name": "Construcción, reparación y conservación de toda clase obras",
              "href": "https://api.euskadi.eus/procurements/companies/economic-activities/1.507"
            }
          }
        },
        {
          "id": "1.833.21",
          "name": "Promoción de edificaciones - Cuota fija",
          "_links": {
            "self": {
              "name": "Promoción de edificaciones - Cuota fija",
              "href": "https://api.euskadi.eus/procurements/companies/economic-activities/1.833.21"
            }
          }
        }
      ],
      "certificateStartDate": "2025-09-01",
      "certificateEndDate": "2026-02-22",
      "object": "a) LA ADQUISICIÓN Y ENAJENACIÓN POR CUALQUIER TÍTULO DE FINCAS RÚSTICAS O URBANAS; SU ORDENACIÓN, PARCELACIÓN, URBANIZACIÓN Y CONSTRUCCIÓN, POR SÍ O POR MEDIO DE TERCEROS. b) LA ENAJENACIÓN O ARRENDAMIENTO DE LAS FINCAS QUE ADQUIERA O CONSTRUYA. c) LA CONSTRUCCIÓN DE TODO TIPO DE EDIFICACIONES, URBANIZACIONES Y OBRAS PÚBLICAS, POR CUENTA PROPIA O AJENA. d) LA EXPLOTACIÓN DE VEHÍCULOS, MAQUINARIA Y ELEMENTOS DE CONSTRUCCIÓN, SANEAMIENTO, URBANIZACIÓN, CARPINTERÍA TRADICIONAL, MECÁNICA O TUBULAR, APARATOS, HERRAMIENTAS Y MATERIAL AUXILIAR PARA LA CONSTRUCCIÓN",
      "mainEntityOfPage": "https://www.contratacion.euskadi.eus/webkpe00-kperoc/es/ac71aBusquedaRegistrosWar/empresa/01864",
      "_links": {
        "self": {
          "name": "CONSTRUCCIONES A.C.R., S.A.",
          "href": "https://api.euskadi.eus/procurements/companies/01864"
        }
      }
    },
    {
      "name": "ALMAS INDUSTRIES BSAFE, S.L.",
      "registrationNumber": "06862",
      "identificationNumber": "B86479078",
      "address": "avenida Fuencarral 24, Edificio Europa I",
      "location": {
        "postalCode": "28108",
        "municipality": "Alcobendas",
        "county": "Madrid",
        "municipalityId": "006",
        "countyId": "28"
      },
      "economicActivities": [
        {
          "id": "1.504.1",
          "name": "Instalaciones eléctricas en general",
          "_links": {
            "self": {
              "name": "Instalaciones eléctricas en general",
              "href": "https://api.euskadi.eus/procurements/companies/economic-activities/1.504.1"
            }
          }
        },
        {
          "id": "1.615.4",
          "name": "Venta al por mayor de aparatos y material radioeléctrico y electrónico",
          "_links": {
            "self": {
              "name": "Venta al por mayor de aparatos y material radioeléctrico y electrónico",
              "href": "https://api.euskadi.eus/procurements/companies/economic-activities/1.615.4"
            }
          }
        },
        {
          "id": "1.653.3",
          "name": "Venta al por menor de artículos de menaje, ferretería, adorno, regalo",
          "_links": {
            "self": {
              "name": "Venta al por menor de artículos de menaje, ferretería, adorno, regalo",
              "href": "https://api.euskadi.eus/procurements/companies/economic-activities/1.653.3"
            }
          }
        },
        {
          "id": "1.659.3",
          "name": "Venta al por menor de aparatos médicos, ortopédicos, ópticos y fotográficos",
          "_links": {
            "self": {
              "name": "Venta al por menor de aparatos médicos, ortopédicos, ópticos y fotográficos",
              "href": "https://api.euskadi.eus/procurements/companies/economic-activities/1.659.3"
            }
          }
        },
        {
          "id": "1.699",
          "name": "Otras reparaciones n.c.o.p",
          "_links": {
            "self": {
              "name": "Otras reparaciones n.c.o.p",
              "href": "https://api.euskadi.eus/procurements/companies/economic-activities/1.699"
            }
          }
        },
        {
          "id": "1.859",
          "name": "Alquiler de otros bienes muebles n.c.o.p. (sin personal permanente)",
          "_links": {
            "self": {
              "name": "Alquiler de otros bienes muebles n.c.o.p. (sin personal permanente)",
              "href": "https://api.euskadi.eus/procurements/companies/economic-activities/1.859"
            }
          }
        },
        {
          "id": "1.933.9",
          "name": "Otras actividades de enseñanza tales como idiomas, mecanografía",
          "_links": {
            "self": {
              "name": "Otras actividades de enseñanza tales como idiomas, mecanografía",
              "href": "https://api.euskadi.eus/procurements/companies/economic-activities/1.933.9"
            }
          }
        }
      ],
      "certificateStartDate": "2025-09-01",
      "certificateEndDate": "2026-02-11",
      "object": "A)EL DISEÑO, FABRICACIÓN, IMPORTACIÓN, EXPORTACIÓN, COMERCIALIZACIÓN Y DISTRIBUCIÓN DE EQUIPOS BIOMÉTRICOS, EQUIPOS DE RECONOCIMIENTO POR RED VENOSA, SISTEMAS Y APARATOS DE SEGURIDAD, VISIOMOBILIDAD, VIDEO-VIGILANCIA Y CONTROL DE ACCESOS, CÁMARA IP Y DESFIBRILADORES. B) LA PRESTACIÓN DE SERVICIOS EN NUEVAS TECNOLOGÍAS DENTRO DEL CAMPO DE LA INFORMÁTICA, LA ELECTRÓNICA, LA BIOMÉTRICA, LA VISIOMOBILIDAD Y DE LA SEGURIDAD Y PROTECCIÓN DE LAS PERSONAS. C) LA TOMA, ADQUISICIÓN, EXPLOTACIÓN Y CESIÓN DE PROCEDIMIENTOS, DE PATENTES Y MARCAS RELATIVAS A DICHAS ACTIVIDADES. D) LA ADQUISICIÓN, CESIÓN Y TENENCIA DE TODO TIPO DE ACCIONES Y PARTICIPACIONES, YA SEA DIRECTA O INDIRECTA, EN EL CAPITAL DE SOCIEDADES, YA SEA NACIONALES O EXTRANJERAS, CUYA ACTIVIDAD SEA DE NATURALEZA TAL QUE SIRVA A LA REALIZACIÓN DEL OBJETO SOCIAL. E) LA GESTIÓN DE LAS MENCIONADAS PARTICIPACIONES EN SOCIEDADES Y LA ADMINISTRACIÓN Y GESTIÓN DE EMPRESAS. F) LA PARTICIPACIÓN DE LA SOCIEDAD DE MANERA TOTAL O PARCIAL EN CUALQUIERA DE LAS FORMAS ADMINISTRADAS EN DERECHO, EN AQUELLAS ACTIVIDADES ANÁLOGAS O IDÉNTICAS AL OBJETO SOCIAL DE LA COMPAÑÍA. LO ANTERIOR YA SEA MEDIANTE LA CREACIÓN DE NUEVAS SOCIEDADES, LA SUSCRIPCIÓN, APORTE O COMPRA DE DERECHOS SOCIALES, LA FUSIÓN, ASÍ COMO LA ADQUISICIÓN, ALQUILER, U OTRAS FORMAS ANÁLOGAS DE FONDOS DE COMERCIO Y/O ESTABLECIMIENTOS",
      "mainEntityOfPage": "https://www.contratacion.euskadi.eus/webkpe00-kperoc/es/ac71aBusquedaRegistrosWar/empresa/06862",
      "_links": {
        "self": {
          "name": "ALMAS INDUSTRIES BSAFE, S.L.",
          "href": "https://api.euskadi.eus/procurements/companies/06862"
        }
      }
    }
  ]
}