{
  "totalItems": 9042,
  "totalPages": 905,
  "currentPage": 86,
  "itemsOfPage": 10,
  "items": [
    {
      "name": "EMAUS GIPUZKOA, S.L.",
      "registrationNumber": "03960",
      "identificationNumber": "B20615852",
      "address": "c/ Auzolan, 44",
      "location": {
        "postalCode": "20303",
        "municipality": "Irun",
        "county": "Gipuzkoa",
        "municipalityId": "045",
        "countyId": "20"
      },
      "economicActivities": [
        {
          "id": "1.656",
          "name": "Venta al por menor de bienes usados",
          "_links": {
            "self": {
              "name": "Venta al por menor de bienes usados",
              "href": "https://api.euskadi.eus/procurements/companies/economic-activities/1.656"
            }
          }
        },
        {
          "id": "1.921.2",
          "name": "Servicios de recogida de basuras y desechos",
          "_links": {
            "self": {
              "name": "Servicios de recogida de basuras y desechos",
              "href": "https://api.euskadi.eus/procurements/companies/economic-activities/1.921.2"
            }
          }
        }
      ],
      "certificateStartDate": "2026-01-13",
      "certificateEndDate": "2026-06-22",
      "classification": [
        {
          "id": "S",
          "name": "Servicios",
          "groups": [
            {
              "id": "R",
              "subgroups": [
                {
                  "id": "05",
                  "name": "Recogida y transporte de residuos",
                  "categories": [
                    {
                      "id": "3",
                      "name": "Desde 300.001 Hasta 600.000",
                      "_links": {
                        "self": {
                          "name": "Desde 300.001 Hasta 600.000",
                          "href": "https://api.euskadi.eus/procurements/companies/types/S/categories/3"
                        }
                      }
                    }
                  ],
                  "_links": {
                    "self": {
                      "name": "Recogida y transporte de residuos",
                      "href": "https://api.euskadi.eus/procurements/companies/types/S/groups/R/subgroups/05"
                    }
                  }
                }
              ],
              "_links": {
                "self": {
                  "href": "https://api.euskadi.eus/procurements/companies/types/S/groups/R"
                }
              }
            }
          ],
          "_links": {
            "self": {
              "name": "Servicios",
              "href": "https://api.euskadi.eus/procurements/companies/types/S"
            }
          }
        }
      ],
      "object": "LA RECUPERACIÓN DE MOBILIARIO, APARATOS ELÉCTRICOS Y ELECTRÓNICOS, TEXTILES Y OTROS ENSERES DESECHADOS COMO RESIDUOS U OTROS PRODUCTOS SOLIDARIOS PARA SU COMERCIALIZACIÓN A TRAVÉS DE CUYA ACTIVIDAD SE PRETENDE LA INTEGRACIÓN SOCIAL Y LABORAL DE COLECTIVOS DESFAVORECIDOS Y EL FOMENTO DE LA REUTILIZACIÓN, EL CONSUMO RESPONSABLE, EL COMERCIO JUSTO Y LA ECONOMÍA SOLIDARIA.",
      "mainEntityOfPage": "https://www.contratacion.euskadi.eus/webkpe00-kperoc/es/ac71aBusquedaRegistrosWar/empresa/03960",
      "_links": {
        "self": {
          "name": "EMAUS GIPUZKOA, S.L.",
          "href": "https://api.euskadi.eus/procurements/companies/03960"
        }
      }
    },
    {
      "name": "TRANSFORMACION DIGITAL DE ESPACIOS, S.L.",
      "registrationNumber": "07330",
      "identificationNumber": "B88122643",
      "address": "CALLE DOÑA JIMENA 1. PLANTA 2",
      "location": {
        "postalCode": "28220",
        "municipality": "Majadahonda",
        "county": "Madrid",
        "municipalityId": "080",
        "countyId": "28"
      },
      "economicActivities": [
        {
          "id": "1.659.2",
          "name": "Venta al por menor de muebles de oficina y máquinas y equipos de oficina",
          "_links": {
            "self": {
              "name": "Venta al por menor de muebles de oficina y máquinas y equipos de oficina",
              "href": "https://api.euskadi.eus/procurements/companies/economic-activities/1.659.2"
            }
          }
        },
        {
          "id": "1.844",
          "name": "Servicios de publicidad, relaciones públicas y similares",
          "_links": {
            "self": {
              "name": "Servicios de publicidad, relaciones públicas y similares",
              "href": "https://api.euskadi.eus/procurements/companies/economic-activities/1.844"
            }
          }
        }
      ],
      "certificateStartDate": "2026-01-13",
      "certificateEndDate": "2026-06-22",
      "object": "EL DESARROLLO DE LAS ACTIVIDADES CORRESPONDIENTES A LOS SIGUIENTES CÓDIGOS Y DESCRIPCIONES DE CLASIFICACIÓN NACIONAL DE ACTIVIDADES ECONÓMICAS: ACTIVIDAD PRINCIPAL: 73.11/ AGENCIAS DE PUBLICIDAD. OTRAS ACTIVIDADES: 70.22/ OTRAS ACTIVIDADES DE CONSULTORÍA DE GESTIÓN EMPRESARIAL",
      "mainEntityOfPage": "https://www.contratacion.euskadi.eus/webkpe00-kperoc/es/ac71aBusquedaRegistrosWar/empresa/07330",
      "_links": {
        "self": {
          "name": "TRANSFORMACION DIGITAL DE ESPACIOS, S.L.",
          "href": "https://api.euskadi.eus/procurements/companies/07330"
        }
      }
    },
    {
      "name": "WARQS OFICINA DE ARQUITECTURA, S.L.P.",
      "registrationNumber": "03782",
      "identificationNumber": "B31905599",
      "address": "PARQUE COMERCIAL GALARIA C/U Nº 3 LOCAL 2.4. CORDOVILLA",
      "location": {
        "postalCode": "31192",
        "municipality": "Galar",
        "county": "Navarra",
        "municipalityId": "109",
        "countyId": "31"
      },
      "economicActivities": [
        {
          "id": "1.843.2",
          "name": "Servicios técnicos de arquitectura y urbanismo",
          "_links": {
            "self": {
              "name": "Servicios técnicos de arquitectura y urbanismo",
              "href": "https://api.euskadi.eus/procurements/companies/economic-activities/1.843.2"
            }
          }
        }
      ],
      "certificateStartDate": "2026-01-13",
      "certificateEndDate": "2026-06-20",
      "object": "LA ACTIVIDAD PROPIA DEL EJERCICIO DE LA ARQUITECTURA",
      "mainEntityOfPage": "https://www.contratacion.euskadi.eus/webkpe00-kperoc/es/ac71aBusquedaRegistrosWar/empresa/03782",
      "_links": {
        "self": {
          "name": "WARQS OFICINA DE ARQUITECTURA, S.L.P.",
          "href": "https://api.euskadi.eus/procurements/companies/03782"
        }
      }
    },
    {
      "name": "INGEBIT ELECTROTECNIA E INSTRUMENTACION, S.L.",
      "registrationNumber": "06895",
      "identificationNumber": "B95285573",
      "address": "IBAIBE 29 EDIFICIO GARVE III 2º DCHA OFICINA 16",
      "location": {
        "postalCode": "48902",
        "municipality": "Barakaldo",
        "county": "Bizkaia",
        "municipalityId": "013",
        "countyId": "48"
      },
      "economicActivities": [
        {
          "id": "1.843.1",
          "name": "Servicios técnicos de ingeniería",
          "_links": {
            "self": {
              "name": "Servicios técnicos de ingeniería",
              "href": "https://api.euskadi.eus/procurements/companies/economic-activities/1.843.1"
            }
          }
        }
      ],
      "certificateStartDate": "2026-01-13",
      "certificateEndDate": "2026-06-20",
      "classification": [
        {
          "id": "S",
          "name": "Servicios",
          "groups": [
            {
              "id": "V",
              "subgroups": [
                {
                  "id": "05",
                  "name": "Explotación y control de sistemas informáticos e infraestructuras telemáticas.",
                  "categories": [
                    {
                      "id": "4",
                      "name": "Desde 600.001 Hasta 1.1200.000",
                      "_links": {
                        "self": {
                          "name": "Desde 600.001 Hasta 1.1200.000",
                          "href": "https://api.euskadi.eus/procurements/companies/types/S/categories/4"
                        }
                      }
                    }
                  ],
                  "_links": {
                    "self": {
                      "name": "Explotación y control de sistemas informáticos e infraestructuras telemáticas.",
                      "href": "https://api.euskadi.eus/procurements/companies/types/S/groups/V/subgroups/05"
                    }
                  }
                }
              ],
              "_links": {
                "self": {
                  "href": "https://api.euskadi.eus/procurements/companies/types/S/groups/V"
                }
              }
            }
          ],
          "_links": {
            "self": {
              "name": "Servicios",
              "href": "https://api.euskadi.eus/procurements/companies/types/S"
            }
          }
        }
      ],
      "object": "1. INSTALACIONES ELÉCTRICAS, PROGRAMACIÓN Y AUTOMATIZACIONES. 2. LA COMPRA, VENTA, PRODUCCIÓN, FABRICACIÓN, COMERCIALIZACIÓN, REPRESENTACIÓN, IMPORTACIÓN, EXPORTACIÓN Y DISTRIBUCIÓN DE TODA CLASE DE PRODUCTOS RELACIONADOS CON LA COMUNICACIÓN, Y ARTÍCULOS CON ELLO RELACIONADOS. 3. LA PROMOCIÓN, CONSTRUCCIÓN, COMPRA, VENTA, ARRENDAMIENTO Y COMERCIALIZACIÓN EN GENERAL DE TODA LA CLASE DE EDIFICACIONES, TERRENOS, SOLARES, FINCAS RÚSTICAS Y URBANAS; LA EDIFICACIÓN, URBANIZACIÓN, EXCAVACIÓN, CIMENTACIÓN Y DERRIBO, BIEN POR CUENTA PROPIA COMO AJENA, ASÍ COMO LA ENAJENACIÓN, VENTA, ARRENDA O EXPLOTACIÓN, EN CUALQUIER FORMA DE TODA CLASE DE INMUEBLES, EDIFICIOS, PISOS, APARTAMENTOS, LOCALES COMERCIALES O INDUSTRIALES, OFICINAS Y HOTELES O ESTABLECIMIENTOS DE HOSTELERÍA EN GENERAL. 4. TODA CLASE DE OPERACIONES INMOBILIARIAS SOBRE FINCAS RÚSTICAS Y URBANAS, PROMOCIÓN DE CONTRATOS O REALIZACIONES DE PARCELACIONES, URBANIZACIONES, CONSTRUCCIONES Y OBRAS PRIVADAS O TRANSFORMACIÓN, MEJORA, ADMINISTRACIÓN, PUESTA EN EXPLOTACIÓN Y LA EXPLOTACIÓN MISMA, DE FINCAS RÚSTICAS Y URBANAS, LA ORGANIZACIÓN, PROMOCIÓN, ASESORAMIENTO, Y GESTIÓN EN SU CASO DE SOCIEDADES, COOPERATIVAS, COMUNIDADES, ENTIDADES, GRUPOS O EMPRESAS PARTICULARES ORIENTADAS A LA CONSTRUCCIÓN O URBANIZACIÓN, LA PLANIFICACIÓN Y ESTUDIO DE MERCADOS EN MATERIA INMOBILIARIA. 5. LA ADMINISTRACIÓN DE FINCAS Y COMUNIDADES, TANTO DE PROPIETARIOS COMO DE AUTOPROMOTORES, ASÍ COMO LA PRESTACIÓN DE TODA CLASE DE SERVICIOS ARQUITECTÓNICO, DE TÉCNICA DE LA CONSTRUCCIÓN E INGENIERÍA EN GENERAL, POR MEDIO DE LA FORMULACIÓN, DESARROLLO Y PUESTA EN MARCHA DE ESTUDIOS, ACTUACIONES Y PROYECTOS. 6. LA GESTIÓN, DIRECCIÓN Y EJECUCIÓN POR CUENTA PROPIA O AJENA DE TODA CLASE DE REHABILITACIONES, DECORACIONES Y OBRAS DE RESTAURACIÓN EXTERNA E INTERNA DE ESTRUCTURAS Y IMPERMEABILIZACIÓN, TRATAMIENTO, PINTURA, RECONSTRUCCIÓN Y LA IMPLANTACIÓN, CUIDADO Y MANTENIMIENTO DE JARDINES Y EXPLOTACIONES FORESTALES. LA SUPERVISIÓN Y CONTROL DE OBRAS, ASÍ COMO LA COORDINACIÓN DE GREMIOS, EL ASESORAMIENTO Y LA ASISTENCIA TÉCNICA EN TODO CUANTO SE RELACIONE CON EL CAMPO DE LA CONSTRUCCIÓN DE EDIFICIOS Y DE LAS OBRAS PÚBLICAS O CIVILES. 7. LA COMPRA, VENTA, DE TODA CLASE DE MATERIALES DE LA CONSTRUCCIÓN Y/O DECORATIVOS, ASÍ COMO CUALESQUIERA INSTALACIONES, ELEMENTOS O EXPORTACIÓN, REPRESENTACIÓN, DISTRIBUCIÓN, ELABORADOS Y SEMIELABORADOS, ARTÍCULOS, BIENES, MERCADERÍAS, EQUIPOS INDUSTRIALES, MAQUINARIA, HERRAMIENTA, UTILLAJES, REPUESTOS Y ACCESORIOS, ALIMENTOS DE CONSUMO HUMANO Y ANIMAL. 8. LA ADQUISICIÓN, CESIÓN, TENENCIA, DISFRUTE, ADMINISTRACIÓN, GESTIÓN Y NEGOCIACIÓN EN GENERAL DE VALORES MOBILIARIOS E INMUEBLES; TODO ELLO SIN INCIDIR EN LAS ACTIVIDADES U OPERACIONES REGULADAS POR LA LEGISLACIÓN DE INSTITUCIONES DE INVERSIÓN COLECTIVA Y LA LEY DE MERCADO DE VALORES. 9. LA PRESTACIÓN DE SERVICIOS DE ASESORÍA DE EMPRESAS EN GENERAL, Y EN PARTICULAR, DE ASESORAMIENTO Y GESTIÓN FISCAL, ASESORAMIENTO Y GESTIÓN CONTABLE, ASESORAMIENTO Y GESTIÓN EN MATERIA LABORAL, ASESORÍA JURÍDICA, SERVICIO DE COBRO DE CRÉDITOS MOROSOS, VALORACIÓN DE EMPRESAS, ESTUDIO Y REDACCIÓN DE ESTATUTOS PARA LA CONSTITUCIÓN DE ENTIDADES DE CUALQUIER NATURALEZA, ESTUDIO Y REDACCIÓN DE PLANES DE VIABILIDAD, ESTUDIO DE TRAMITACIÓN DE SUBVENCIONES, CRÉDITOS Y OTRAS AYUDA FINANCIERAS DE LOS ORGANISMOS DEL ESTADO CENTRAL, DEL GOBIERNO VASCO Y DE LAS DIPUTACIONES FORALES, DE TODO TIPO DE ENTIDADES PÚBLICAS Y PRIVADAS, PARA TODO TIPO DE EMPRESAS; Y, EN CONCRETO, LA PRESTACIÓN DE SERVICIOS DE VERIFICACIONES REGISTRALES, INFORMES COMERCIALES, GRABACIONES DE DATOS Y RECOBROS. 10. LA INVESTIGACIÓN Y EL DESARROLLO DE TÉCNICAS ENERGÉTICAS, ACÚSTICAS Y ELECTRÓNICAS Y, EN GENERAL, TODA CLASE DE ASISTENCIAS O SERVICIOS RELACIONADOS CON LA INFORMÁTICA. LA REPRESENTACIÓN COMO AGENTE, COMISIONISTA, DELEGADO O CUALQUIER OTRA FORMA DE MEDIACIÓN MERCANTIL DE EMPRESA NACIONALES O EXTRANJERAS, DE TODA ÍNDOLE, ASÍ COMO LA EXPLOTACIÓN DE PATENTES, Y DEMÁS DERECHOS DE PROPIEDAD, INDUSTRIA, INCLUIDOS LOS MÉTODOS, PROCEDIMIENTOS Y ORGANIZACIÓN DE TRABAJOS INDUSTRIALES, COMERCIALES O DE OTRA ÍNDOLE. 11. LA FORMACIÓN E INFORMACIÓN DE TODO TIPO DE PERSONAS MEDIANTE CURSOS, SEMINARIOS, JORNADAS, TANTO DE PRESENCIA COMO A DISTANCIA EN CUALQUIER MATERIA, ASÍ COMO LA EDICIÓN DE LOS TEXTOS Y LIBROS ENCAMINADOS A TAL FIN, REVISTAS Y CUALQUIER OTRO MEDIO DE DIFUSIÓN QUE CONSIDERE IDÓNEO PARA SUS FINES; L AGESTIÓN, CREACIÓN, TOMA DE PARTICIPACIONES Y ASESORAMIENTO DE TODO TIPO DE EMPRESAS, CONSULTORÍA, GESTIÓN, DISTRIBUCIÓN, IMPORTACIÓN Y EXPORTACIÓN DE TODO TIPO DE PRODUCTOS CONEXOS CON DICHAS ACTIVIDADES DE FORMACIÓN, INFORMACIÓN Y ASESORAMIENTO. 12. LA COMPRA, TENENCIA, ENAJENACIÓN Y EXPLOTACIÓN, INCLUSO EN EXCLUSIVA POR Y A FAVOR DE LA SOCIEDAD, DE TÍTULOS, VALORES, ACCIONES, BONOS, OBLIGACIONES, PATENTES, LICENCIAS, MARCAS, RÓTULOS, NOMBRES COMERCIALES Y TODA CLASE DE PERTENENCIAS, DE PROPIEDAD INDUSTRIAL O INTELECTUAL, Y CUALESQUIERA OTRA CLASE DE BIENES MUEBLES; TODO ELLOS IN INCIDIR EN LAS ACTIVIDADES U OPERACIONES REGULADAS POR LA LEGISLACIÓN DE INSTITUCIONES DE INVERSIÓN COLECTIVA Y LEY DE MERCADO DE VALORES",
      "mainEntityOfPage": "https://www.contratacion.euskadi.eus/webkpe00-kperoc/es/ac71aBusquedaRegistrosWar/empresa/06895",
      "_links": {
        "self": {
          "name": "INGEBIT ELECTROTECNIA E INSTRUMENTACION, S.L.",
          "href": "https://api.euskadi.eus/procurements/companies/06895"
        }
      }
    },
    {
      "name": "SUMINISTROS ELÉCTRICOS GABYL GUIPUZCOA, S.A.",
      "registrationNumber": "08938",
      "identificationNumber": "A20796041",
      "address": "paseo ubarburu, nº40",
      "location": {
        "postalCode": "20014",
        "municipality": "Donostia / San Sebastián",
        "county": "Gipuzkoa",
        "municipalityId": "069",
        "countyId": "20"
      },
      "economicActivities": [
        {
          "id": "1.151.4",
          "name": "Producción de energía no especificada en otros epígrafes",
          "_links": {
            "self": {
              "name": "Producción de energía no especificada en otros epígrafes",
              "href": "https://api.euskadi.eus/procurements/companies/economic-activities/1.151.4"
            }
          }
        },
        {
          "id": "1.615.4",
          "name": "Venta al por mayor de aparatos y material radioeléctrico y electrónico",
          "_links": {
            "self": {
              "name": "Venta al por mayor de aparatos y material radioeléctrico y electrónico",
              "href": "https://api.euskadi.eus/procurements/companies/economic-activities/1.615.4"
            }
          }
        }
      ],
      "certificateStartDate": "2026-01-13",
      "certificateEndDate": "2026-06-20",
      "object": "LA FABRICACIÓN, MONTAJE Y COMERCIALIZACIÓN DE EQUIPOS DE FONTANERÍA, CALEFACCIÓN Y CLIMATIZACIÓN. LA FABRICACIÓN, MONTAJE Y COMERCIALIZACIÓN DE EQUIPOS ELÉCTRICOS, ELECTRÓNICOS, INFORMÁTICOS Y DE TELECOMUNICACIÓN.\n",
      "mainEntityOfPage": "https://www.contratacion.euskadi.eus/webkpe00-kperoc/es/ac71aBusquedaRegistrosWar/empresa/08938",
      "_links": {
        "self": {
          "name": "SUMINISTROS ELÉCTRICOS GABYL GUIPUZCOA, S.A.",
          "href": "https://api.euskadi.eus/procurements/companies/08938"
        }
      }
    },
    {
      "name": "LABORATORIOS MENARINI, S.A.",
      "registrationNumber": "02660",
      "identificationNumber": "A08129181",
      "address": "C/ALFONSO XII, Nº 587",
      "location": {
        "postalCode": "08918",
        "municipality": "Badalona",
        "county": "Barcelona",
        "municipalityId": "015",
        "countyId": "08"
      },
      "economicActivities": [
        {
          "id": "1.254.2",
          "name": "Fabricación de especialidades y otros productos farmacéuticos",
          "_links": {
            "self": {
              "name": "Fabricación de especialidades y otros productos farmacéuticos",
              "href": "https://api.euskadi.eus/procurements/companies/economic-activities/1.254.2"
            }
          }
        }
      ],
      "certificateStartDate": "2026-01-13",
      "certificateEndDate": "2026-06-18",
      "object": "LA FABRICACIÓN Y VENTA, IMPORTACIÓN Y EXPORTACIÓN DE TODA CLASE DE ESPECIALIDADES FARMACÉUTICAS, PRODUCTOS QUÍMICOS, QUÍMICO-FARMACÉUTICOS, FITO-FARMACEÚTICOS, DIETÉTICOS, BIOLÓGICOS, VETERINARIOS, NACIONALES Y EXTRANJEROS, APROBADOS Y AUTORIZADOS POR LA AUTORIDAD COMPETENTE, PUDIENDO DEDICARSE ADEMÁS A CUALESQUIERA OTRAS OPERACIONES COMERCIALES O INDUSTRIALES LÍCITAS QUE ACUERDE LA JUNTA GENERAL DE ACCIONISTAS.\r\n",
      "mainEntityOfPage": "https://www.contratacion.euskadi.eus/webkpe00-kperoc/es/ac71aBusquedaRegistrosWar/empresa/02660",
      "_links": {
        "self": {
          "name": "LABORATORIOS MENARINI, S.A.",
          "href": "https://api.euskadi.eus/procurements/companies/02660"
        }
      }
    },
    {
      "name": "E.D.S. INGENIERÍA Y MONTAJES, S.A.",
      "registrationNumber": "03376",
      "identificationNumber": "A48113583",
      "address": "POL.IND.ERLETXE, S/N",
      "location": {
        "postalCode": "48960",
        "municipality": "Galdakao",
        "county": "Bizkaia",
        "municipalityId": "036",
        "countyId": "48"
      },
      "economicActivities": [
        {
          "id": "1.507",
          "name": "Construcción, reparación y conservación de toda clase obras",
          "_links": {
            "self": {
              "name": "Construcción, reparación y conservación de toda clase obras",
              "href": "https://api.euskadi.eus/procurements/companies/economic-activities/1.507"
            }
          }
        }
      ],
      "certificateStartDate": "2026-01-13",
      "certificateEndDate": "2026-06-18",
      "object": "LA REALIZACIÓN DE INSTALACIONES Y MONTAJES ELÉCTRICOS DE ALTA Y BAJA TENSIÓN, LA CONSTRUCCIÓN DE EQUIPOS Y CUADROS ELÉCTRICOS Y LA REALIZACIÓN DE ESTUDIOS Y PROYECTOS, OBRAS Y TRABAJOS DE CONSTRUCCIÓN, MONTAJE Y MANTENIMIENTO DE REDES DE DISTRIBUCIÓN DE ENERGÍA ELÉCTRICA, TELEGRÁFICAS Y TELEFÓNICAS, Y TAMBIÉN PODRÁ DEDICARSE A TRABAJOS DE OBRAS PÚBLICAS, FORESTALES Y CONSTRUCCIÓN EN GENERAL. TAMBIÉN TIENE POR OBJETO LA REALIZACIÓN DE LA ACTIVIDAD DE TRANSPORTE DE MERCANCÍAS POR CARRETERA.",
      "mainEntityOfPage": "https://www.contratacion.euskadi.eus/webkpe00-kperoc/es/ac71aBusquedaRegistrosWar/empresa/03376",
      "_links": {
        "self": {
          "name": "E.D.S. INGENIERÍA Y MONTAJES, S.A.",
          "href": "https://api.euskadi.eus/procurements/companies/03376"
        }
      }
    },
    {
      "name": "I. AURREKOETXEA ETA BAZKIDEAK, S.L.P.",
      "registrationNumber": "02851",
      "identificationNumber": "B48868384",
      "address": "PLAZA PEDRO EGUILLOR, Nº 2-1º IZQ.",
      "location": {
        "postalCode": "48008",
        "municipality": "Bilbao",
        "county": "Bizkaia",
        "municipalityId": "020",
        "countyId": "48"
      },
      "economicActivities": [
        {
          "id": "1.843.2",
          "name": "Servicios técnicos de arquitectura y urbanismo",
          "_links": {
            "self": {
              "name": "Servicios técnicos de arquitectura y urbanismo",
              "href": "https://api.euskadi.eus/procurements/companies/economic-activities/1.843.2"
            }
          }
        }
      ],
      "certificateStartDate": "2026-01-13",
      "certificateEndDate": "2026-06-03",
      "object": "LA PRESTACIÓN DE SERVICIOS, ESTUDIOS, PROYECTOS, TRABAJOS DE PLANEAMIENTO, ASESORAMIENTO, DIRECCIÓN DE OBRA Y CUALQUIER OTRO TRABAJO FACULTADO PARA LA TITULACIÓN DE ARQUITECTURA Y ARQUITECTURA TÉCNICA, PROYECTOS DE INGENIERÍA VINCULADOS A LA EDIFICACIÓN Y PLANEAMIENTO URBANÍSTICO EN GENERAL EN TEMAS RELACIONADOS CON LA EDIFICACIÓN, EL URBANISMO, LA ORDENACIÓN DEL TERRITORIO Y LA DECORACIÓN, ASÍ COMO LA GESTIÓN  ADMINISTRACIÓN DE LOS ASUNTOS RELACIONADOS CON EL OBJETO SOCIAL.LA CONSTITUCIÓN CON LA CONCURRENCIA DE OTRAS PERSONAS DE TODA CLASE SE SOCIEDADES MERCANTILES, LA PARTICIPACIÓN EN OTRAS CONSTITUÍDAS, PUDIENDO OSTENTAR EN TODAS ELLAS CARGOS DE ADMINISTRACIÓN, DIRECCIÓN Ó CONTROL MEDIANTE LA OPORTUNA DELEGACIÓN EN PERSONA FÍSICA.",
      "mainEntityOfPage": "https://www.contratacion.euskadi.eus/webkpe00-kperoc/es/ac71aBusquedaRegistrosWar/empresa/02851",
      "_links": {
        "self": {
          "name": "I. AURREKOETXEA ETA BAZKIDEAK, S.L.P.",
          "href": "https://api.euskadi.eus/procurements/companies/02851"
        }
      }
    },
    {
      "name": "IMQ ANALITICAS, S.L.",
      "registrationNumber": "04729",
      "identificationNumber": "B95182903",
      "address": "Maximo Agirre 12 2º",
      "location": {
        "postalCode": "48011",
        "municipality": "Bilbao",
        "county": "Bizkaia",
        "municipalityId": "020",
        "countyId": "48"
      },
      "economicActivities": [
        {
          "id": "1.942.1",
          "name": "Consultorios médicos, centros de socorro sanitarios y urgencias",
          "_links": {
            "self": {
              "name": "Consultorios médicos, centros de socorro sanitarios y urgencias",
              "href": "https://api.euskadi.eus/procurements/companies/economic-activities/1.942.1"
            }
          }
        }
      ],
      "certificateStartDate": "2026-01-13",
      "certificateEndDate": "2026-06-17",
      "object": "LA PRESTACIÓN DE SERVICIOS MÉDICOS A TRAVÉS DE LOS CORRESPONDIENTES COLEGIADOS, Y, MUY ESPECIALMENTE, EN TODO LO RELACIONADO CON EL ESTUDIO, INVESTIGACIÓN, PROMOCIÓN, CONSULTAS Y ANÁLISIS CLÍNICOS EN TODAS LAS VARIANTES EXISTENTES O QUE SE PUEDAN DAR EN EL FUTURO RESPECTO DEL LABORATORIO CLÍNICO Y LA MEDICINA.",
      "mainEntityOfPage": "https://www.contratacion.euskadi.eus/webkpe00-kperoc/es/ac71aBusquedaRegistrosWar/empresa/04729",
      "_links": {
        "self": {
          "name": "IMQ ANALITICAS, S.L.",
          "href": "https://api.euskadi.eus/procurements/companies/04729"
        }
      }
    },
    {
      "name": "ASOCIACIÓN CULTURAL HAZIAN KULTUR ELKARTEA",
      "registrationNumber": "03566",
      "identificationNumber": "G48927172",
      "address": "Mandobide, 8-4º (entrada por Plaza Mayor)",
      "location": {
        "postalCode": "48007",
        "municipality": "Bilbao",
        "county": "Bizkaia",
        "municipalityId": "020",
        "countyId": "48"
      },
      "economicActivities": [
        {
          "id": "1.966.9",
          "name": "Otros servicios culturales n.c.o.p",
          "_links": {
            "self": {
              "name": "Otros servicios culturales n.c.o.p",
              "href": "https://api.euskadi.eus/procurements/companies/economic-activities/1.966.9"
            }
          }
        }
      ],
      "certificateStartDate": "2026-01-13",
      "certificateEndDate": "2026-06-30",
      "object": "PRESTAR SERVICIOS Y ORGANIZAR ACTIVIDADES PARA INSTITUCIONES, ENTIDADES, COLECTIVOS Y PERSONAS SOBRE TODO TIPO DE INICIATIVAS RELACIONADAS CON LA CULTURA, OCIO, TIEMPO LIBRE, ANIMACIÓN SOCIO-CULTURAL, EUSKERA, DEPORTIVAS TURÍSTICAS Y DE MEDIO AMBIENTE",
      "mainEntityOfPage": "https://www.contratacion.euskadi.eus/webkpe00-kperoc/es/ac71aBusquedaRegistrosWar/empresa/03566",
      "_links": {
        "self": {
          "name": "ASOCIACIÓN CULTURAL HAZIAN KULTUR ELKARTEA",
          "href": "https://api.euskadi.eus/procurements/companies/03566"
        }
      }
    }
  ]
}