{
  "totalItems": 9042,
  "totalPages": 905,
  "currentPage": 223,
  "itemsOfPage": 10,
  "items": [
    {
      "name": "ALEJANDRO ORTEGA AGUIRRE",
      "registrationNumber": "09892",
      "identificationNumber": "44130012G",
      "address": "C/Telesforo Aranzadi 36, Bajo A",
      "location": {
        "postalCode": "20015",
        "municipality": "Donostia / San Sebastián",
        "county": "Gipuzkoa",
        "municipalityId": "069",
        "countyId": "20"
      },
      "economicActivities": [
        {
          "id": "2.751",
          "name": "Profesionales de la publicidad, relaciones públicas y similares",
          "_links": {
            "self": {
              "name": "Profesionales de la publicidad, relaciones públicas y similares",
              "href": "https://api.euskadi.eus/procurements/companies/economic-activities/2.751"
            }
          }
        }
      ],
      "certificateStartDate": "2025-10-12",
      "certificateEndDate": "2026-04-12",
      "object": "PROFESIONALES DE LA PUBLICIDAD, RELACIONES PÚBLICAS Y SIMILARES.",
      "mainEntityOfPage": "https://www.contratacion.euskadi.eus/webkpe00-kperoc/es/ac71aBusquedaRegistrosWar/empresa/09892",
      "_links": {
        "self": {
          "name": "ALEJANDRO ORTEGA AGUIRRE",
          "href": "https://api.euskadi.eus/procurements/companies/09892"
        }
      }
    },
    {
      "name": "ZIUR WATER SERVICES, S.L.",
      "registrationNumber": "09893",
      "identificationNumber": "B70705819",
      "address": "C/ Jon Arrospide Nº17 1ª planta Local 9",
      "location": {
        "postalCode": "48014",
        "municipality": "Bilbao",
        "county": "Bizkaia",
        "municipalityId": "020",
        "countyId": "48"
      },
      "economicActivities": [
        {
          "id": "1.843.9",
          "name": "Otros servicios técnicos n.c.o.p",
          "_links": {
            "self": {
              "name": "Otros servicios técnicos n.c.o.p",
              "href": "https://api.euskadi.eus/procurements/companies/economic-activities/1.843.9"
            }
          }
        }
      ],
      "certificateStartDate": "2025-10-12",
      "certificateEndDate": "2026-04-12",
      "object": "LA PRESTACIÓN DE SERVICIOS PARA LA DETECCIÓN DE FUGAS DE AGUA, LA REALIZACIÓN DE TRABAJOS DE MANTENIMIENTO Y CONTROL DE REDES DE ABASTECIMIENTO, LA REPARACIÓN Y OTROS TRABAJOS ASOCIADOS, ASÍ COMO LA COMPRAVENTA DE TODO TIPO DE MATERIALES RELACIONADOS CON LA ACTIVIDAD.",
      "mainEntityOfPage": "https://www.contratacion.euskadi.eus/webkpe00-kperoc/es/ac71aBusquedaRegistrosWar/empresa/09893",
      "_links": {
        "self": {
          "name": "ZIUR WATER SERVICES, S.L.",
          "href": "https://api.euskadi.eus/procurements/companies/09893"
        }
      }
    },
    {
      "name": "KÖTTERMANN SPAIN, S.A.",
      "registrationNumber": "09614",
      "identificationNumber": "A81429052",
      "address": "c/Consuegra, 7. 3ºC",
      "location": {
        "postalCode": "28036",
        "municipality": "Madrid",
        "county": "Madrid",
        "municipalityId": "079",
        "countyId": "28"
      },
      "economicActivities": [
        {
          "id": "1.615.2",
          "name": "Venta al por mayor de muebles",
          "_links": {
            "self": {
              "name": "Venta al por mayor de muebles",
              "href": "https://api.euskadi.eus/procurements/companies/economic-activities/1.615.2"
            }
          }
        }
      ],
      "certificateStartDate": "2025-10-12",
      "certificateEndDate": "2026-04-12",
      "object": "LA IMPORTACIÓN, COMERCIALIZACIÓN Y DISTRIBUCIÓN DE TODA CLASE DE ARTÍCULOS RELACIONADOS CON EL EQUIPAMIENTO DE LABORATORIOS, ELABORACIÓN DE CONCEPTOS Y CONSULTORÍA PARA EL DISEÑO Y LA INSTALACIÓN DE LABORATORIOS.",
      "mainEntityOfPage": "https://www.contratacion.euskadi.eus/webkpe00-kperoc/es/ac71aBusquedaRegistrosWar/empresa/09614",
      "_links": {
        "self": {
          "name": "KÖTTERMANN SPAIN, S.A.",
          "href": "https://api.euskadi.eus/procurements/companies/09614"
        }
      }
    },
    {
      "name": "RAMON RUIZ-CUEVAS PEÑA",
      "registrationNumber": "09340",
      "identificationNumber": "16245425L",
      "address": "El Prado Kalea",
      "location": {
        "postalCode": "01005",
        "municipality": "Vitoria-Gasteiz",
        "county": "Araba/Álava",
        "municipalityId": "059",
        "countyId": "01"
      },
      "economicActivities": [
        {
          "id": "2.411",
          "name": "Arquitectos",
          "_links": {
            "self": {
              "name": "Arquitectos",
              "href": "https://api.euskadi.eus/procurements/companies/economic-activities/2.411"
            }
          }
        }
      ],
      "certificateStartDate": "2025-10-12",
      "certificateEndDate": "2026-04-12",
      "object": "ARQUITECTOS.",
      "mainEntityOfPage": "https://www.contratacion.euskadi.eus/webkpe00-kperoc/es/ac71aBusquedaRegistrosWar/empresa/09340",
      "_links": {
        "self": {
          "name": "RAMON RUIZ-CUEVAS PEÑA",
          "href": "https://api.euskadi.eus/procurements/companies/09340"
        }
      }
    },
    {
      "name": "VIROMII INNOVATION, S.L.",
      "registrationNumber": "09887",
      "identificationNumber": "B40529984",
      "address": "Calle Rioja 149",
      "location": {
        "postalCode": "46730",
        "municipality": "Gandia",
        "county": "Valencia/València",
        "municipalityId": "131",
        "countyId": "46"
      },
      "economicActivities": [
        {
          "id": "1.849.9",
          "name": "Otros servicios independientes n.c.o.p",
          "_links": {
            "self": {
              "name": "Otros servicios independientes n.c.o.p",
              "href": "https://api.euskadi.eus/procurements/companies/economic-activities/1.849.9"
            }
          }
        }
      ],
      "certificateStartDate": "2025-10-11",
      "certificateEndDate": "2026-04-11",
      "object": "EL DESARROLLO DE LAS ACTIVIDADES CORRESPONDIENTES A LOS SIGUIENTES CÓDIGOS Y DESCRIPCIONES DE LA CLASIFICACIÓN NACIONAL DE ACTIVIDADES ECONÓMICAS: 7022. OTRAS ACTIVIDADES DE CONSULTORÍA DE GESTIÓN EMPRESARIAL.",
      "mainEntityOfPage": "https://www.contratacion.euskadi.eus/webkpe00-kperoc/es/ac71aBusquedaRegistrosWar/empresa/09887",
      "_links": {
        "self": {
          "name": "VIROMII INNOVATION, S.L.",
          "href": "https://api.euskadi.eus/procurements/companies/09887"
        }
      }
    },
    {
      "name": "LABORATORIOS INDAS, S.A.",
      "registrationNumber": "00426",
      "identificationNumber": "A45002516",
      "address": "P. DEL CLUB DEPORTIVO,Nº1,ED. 18,1ª DCHA,PARQUE E. LA FINCA",
      "location": {
        "postalCode": "28224",
        "municipality": "Pozuelo de Alarcón",
        "county": "Madrid",
        "municipalityId": "115",
        "countyId": "28"
      },
      "economicActivities": [
        {
          "id": "1.254.2",
          "name": "Fabricación de especialidades y otros productos farmacéuticos",
          "_links": {
            "self": {
              "name": "Fabricación de especialidades y otros productos farmacéuticos",
              "href": "https://api.euskadi.eus/procurements/companies/economic-activities/1.254.2"
            }
          }
        }
      ],
      "certificateStartDate": "2025-10-11",
      "certificateEndDate": "2026-04-11",
      "object": "FABRICACIÓN, COMPRAVENTA, ALMACENAMIENTO, DISTRIBUCIÓN, COMERCIALIZACIÓN, IMPORTACIÓN, EXPORTACIÓN Y TRANSFORMACIÓN DE TODA CLASE DE PRODUCTOS SANITARIOS, HOSPITALARIOS, FARMACÉUTICOS, ESPECIALIDADES FARMACÉUTICAS, MÉDICO-QUIRÚRGICOS, DENTALES, MATERIAL DE LABORATORIO Y PRODUCTOS HIGIÉNICOS. DESARROLLO DE LA ACTIVIDAD DE LABORATORIO DE ESPECIALIDADES FARMACÉUTICAS. DESARROLLO DE LA ACTIVIDAD DE DISTRIBUIDOR Y/O ALMACENISTA DE ESPECIALIDADES FARMACÉUTICAS. PRESTACIÓN DE SERVICIOS SANITARIOS, DE LIMPIEZA, DE HIGIENIZACIÓN Y DE ESTERILIZACIÓN DE PRODUCTOS E INSTRUMENTAL SANITARIO Y NO SANITARIO. EXPLOTACIÓN Y TRANSFERENCIA DE TECNOLOGÍA, PATENTES, MODELOS DE UTILIDAD, LICENCIAS Y PROCESOS TÉCNICOS DE CUALQUIER TIPO. SERVICIOS DE ASESORAMIENTO DE CARÁCTER TÉCNICO, FINANCIERO-ADMINISTRATIVO, JURÍDICO, INFORMÁTICO A TERCEROS. PROMOCIÓN, CONSTRUCCIÓN, COMPRAVENTA Y ALQUILER DE BIENES MUEBLES E INMUEBLES.",
      "mainEntityOfPage": "https://www.contratacion.euskadi.eus/webkpe00-kperoc/es/ac71aBusquedaRegistrosWar/empresa/00426",
      "_links": {
        "self": {
          "name": "LABORATORIOS INDAS, S.A.",
          "href": "https://api.euskadi.eus/procurements/companies/00426"
        }
      }
    },
    {
      "name": "ANTONIO BLANCO E HIJOS, S.L.",
      "registrationNumber": "03963",
      "identificationNumber": "B48977698",
      "address": "POLIGONO BARRONDO, BARRIO UGARTE, B18",
      "location": {
        "postalCode": "48480",
        "municipality": "Zaratamo",
        "county": "Bizkaia",
        "municipalityId": "097",
        "countyId": "48"
      },
      "economicActivities": [
        {
          "id": "1.721.3",
          "name": "Transporte de viajeros por carretera",
          "_links": {
            "self": {
              "name": "Transporte de viajeros por carretera",
              "href": "https://api.euskadi.eus/procurements/companies/economic-activities/1.721.3"
            }
          }
        }
      ],
      "certificateStartDate": "2025-10-10",
      "certificateEndDate": "2026-04-10",
      "object": "EL TRANSPORTE NACIONAL E INTERNACIONAL DE VIAJEROS POR CARRETERA.",
      "mainEntityOfPage": "https://www.contratacion.euskadi.eus/webkpe00-kperoc/es/ac71aBusquedaRegistrosWar/empresa/03963",
      "_links": {
        "self": {
          "name": "ANTONIO BLANCO E HIJOS, S.L.",
          "href": "https://api.euskadi.eus/procurements/companies/03963"
        }
      }
    },
    {
      "name": "CLIGASA CLIMATIZACIONES GANUZA, S.L.",
      "registrationNumber": "10153",
      "identificationNumber": "B26032888",
      "address": "santa justa 13 bajo",
      "location": {
        "postalCode": "26005",
        "municipality": "Logroño",
        "county": "Rioja, La",
        "municipalityId": "089",
        "countyId": "26"
      },
      "economicActivities": [
        {
          "id": "1.504.3",
          "name": "Instalaciones de frío, calor y acondicionamiento de aire",
          "_links": {
            "self": {
              "name": "Instalaciones de frío, calor y acondicionamiento de aire",
              "href": "https://api.euskadi.eus/procurements/companies/economic-activities/1.504.3"
            }
          }
        },
        {
          "id": "1.653.2",
          "name": "Venta al por menor de material y aparatos eléctricos, electrodomésticos y cocina",
          "_links": {
            "self": {
              "name": "Venta al por menor de material y aparatos eléctricos, electrodomésticos y cocina",
              "href": "https://api.euskadi.eus/procurements/companies/economic-activities/1.653.2"
            }
          }
        }
      ],
      "certificateStartDate": "2025-10-10",
      "certificateEndDate": "2026-04-10",
      "object": "A) . - REALIZAR LOS TRABAJOS NECESARIOS, EN ORDEN A ESTUDIOS TÉCNICOS Y EJECUCIÓN DE OBRAS, DE INSTALACIONES DE FRÍO, CALOR Y ACONDICIONAMIENTO DE AIRE, ASÍ COMO LO RELATIVO A INSTALACIONES DE FONTANERÍA E INSTALACIONES CONTRA INCENDIOS. B) . - LA PREPARACIÓN Y EJECUCIÓN DE ESTUDIOS, CÁLCULOS Y PROYECTOS PARA INSTALACIONES Y OBRAS EN GENERAL; LA DIRECCIÓN TÉCNICA DE OBRAS, Y CUALQUIER OTRO TIPO DE SERVICIOS PROFESIONALES Y PARTICULARMENTE LOS REFERENTES A CONSULTING DE CONSTRUCCIÓN (INGENIERÍA Y DE CUALQUIER OTRAS ÍNDOLE) Y SUS INSTALACIONES. C) . - LA EXPLOTACIÓN DE TODA CLASE DE PATENTES, PROCEDIMIENTOS, MODELOS INDUSTRIALES, ETC.; REPRESENTACIONES NACIONALES O EXTRANJERAS; ALMACENAMIENTO O DEPÓSITO; INVERSIONES EN MUEBLES E INMUEBLES. LA CONSTRUCCIÓN, REPARACIÓN Y CONSERVACIÓN DE OBRAS PÚBLICAS O PRIVADAS DE TODO TIPO. LA COMPRA-VENTA DE TERRENOS; SU URBANIZACIÓN Y PARCELACIÓN; LA PROMOCIÓN DE EDIFICIOS DE TODA CLASE, ASÍ COMO EL ARRENDAMIENTO Y VENTA DE LOS MISMOS, YA SEA EN BLOQUE O POR PARTES; LAS OPERACIONES DE MEDIACIÓN EN LA COMPRA-VENTA DE TODA CLASE DE INMUEBLES.",
      "mainEntityOfPage": "https://www.contratacion.euskadi.eus/webkpe00-kperoc/es/ac71aBusquedaRegistrosWar/empresa/10153",
      "_links": {
        "self": {
          "name": "CLIGASA CLIMATIZACIONES GANUZA, S.L.",
          "href": "https://api.euskadi.eus/procurements/companies/10153"
        }
      }
    },
    {
      "name": "SERVICOM CASTILLA Y LEON, S.L.",
      "registrationNumber": "10155",
      "identificationNumber": "B47704457",
      "address": "C/Alcalleres, 7 2º",
      "location": {
        "postalCode": "47001",
        "municipality": "Valladolid",
        "county": "Valladolid",
        "municipalityId": "186",
        "countyId": "47"
      },
      "economicActivities": [
        {
          "id": "1.631",
          "name": "Intermediarios del comercio",
          "_links": {
            "self": {
              "name": "Intermediarios del comercio",
              "href": "https://api.euskadi.eus/procurements/companies/economic-activities/1.631"
            }
          }
        },
        {
          "id": "1.861.1",
          "name": "Alquiler de viviendas",
          "_links": {
            "self": {
              "name": "Alquiler de viviendas",
              "href": "https://api.euskadi.eus/procurements/companies/economic-activities/1.861.1"
            }
          }
        },
        {
          "id": "1.861.2",
          "name": "Alquiler de locales industriales y otros alquileres n.c.o.p",
          "_links": {
            "self": {
              "name": "Alquiler de locales industriales y otros alquileres n.c.o.p",
              "href": "https://api.euskadi.eus/procurements/companies/economic-activities/1.861.2"
            }
          }
        }
      ],
      "certificateStartDate": "2025-10-10",
      "certificateEndDate": "2026-04-10",
      "object": "LA COMPRAVENTA Y ALQUILER DE TODO TIPO DE MATERIAL DESTINADO AL EQUIPAMIENTO COMERCIAL. REFORMAS DE TODO TIPO DE INMUEBLES, TANTO POR CUENTA PROPIA COMO A TRAVÉS DE OTRAS EMPRESAS. LA INTERMEDIACIÓN MEDIANTE LA PROMOCIÓN DE ACTOS U OPERACIONES DE COMERCIO, ENTRE CLIENTES Y PROVEEDORES DE TODA CLASE DE ARTÍCULOS Y PRODUCTOS.",
      "mainEntityOfPage": "https://www.contratacion.euskadi.eus/webkpe00-kperoc/es/ac71aBusquedaRegistrosWar/empresa/10155",
      "_links": {
        "self": {
          "name": "SERVICOM CASTILLA Y LEON, S.L.",
          "href": "https://api.euskadi.eus/procurements/companies/10155"
        }
      }
    },
    {
      "name": "ASOCIACION AMIGOS DE LA INFORMATICA EUSKALAMIGA",
      "registrationNumber": "10152",
      "identificationNumber": "G20508933",
      "address": "POLIGONO UGARTE 102-01",
      "location": {
        "postalCode": "20720",
        "municipality": "Azkoitia",
        "county": "Gipuzkoa",
        "municipalityId": "017",
        "countyId": "20"
      },
      "economicActivities": [
        {
          "id": "1.966.9",
          "name": "Otros servicios culturales n.c.o.p",
          "_links": {
            "self": {
              "name": "Otros servicios culturales n.c.o.p",
              "href": "https://api.euskadi.eus/procurements/companies/economic-activities/1.966.9"
            }
          }
        }
      ],
      "certificateStartDate": "2025-10-10",
      "certificateEndDate": "2026-04-10",
      "object": "DESARROLLAR Y ORGANIZAR LAS SUCESIVAS \"EUSKAL AMIGA PARTY\" HOY DENOMINADA \"EUSKAL ENCOUNTER\", ACTIVIDAD EN EL CUAL SE REÚNEN VARIAS PERSONAS CON SUS ORDENADORES Y MUESTRAN SUS TRABAJOS DE TIPO LÚDICO EN ELLOS A TODOS LOS ASISTENTES Y CUANTAS ACTIVIDADES ANEJAS Y COMPLEMENTARIAS PUEDAN SUSCITARSE. PARA LA CONSECUCIÓN DE DICHOS FINES SE LLEVARÁN A CABO, PREVIO EL CUMPLIMIENTO DE LOS REQUISITOS LEGALES ESTABLECIDOS, LAS SIGUIENTES ACTIVIDADES: ORGANIZAR CON LA AYUDA DE COLABORADORES Y PATROCINADORES EL EVENTO HOY DENOMINADO \"EUSKAL ENCOUNTER\".",
      "mainEntityOfPage": "https://www.contratacion.euskadi.eus/webkpe00-kperoc/es/ac71aBusquedaRegistrosWar/empresa/10152",
      "_links": {
        "self": {
          "name": "ASOCIACION AMIGOS DE LA INFORMATICA EUSKALAMIGA",
          "href": "https://api.euskadi.eus/procurements/companies/10152"
        }
      }
    }
  ]
}