{
  "totalItems": 9042,
  "totalPages": 905,
  "currentPage": 546,
  "itemsOfPage": 10,
  "items": [
    {
      "name": "LIMPIEZAS BILUR, S.L.",
      "registrationNumber": "03313",
      "identificationNumber": "B95405247",
      "address": "BEURKO VIEJO, S/N EDIFICIO GARVE II. PLANTA 1ª",
      "location": {
        "postalCode": "48902",
        "municipality": "Barakaldo",
        "county": "Bizkaia",
        "municipalityId": "013",
        "countyId": "48"
      },
      "economicActivities": [
        {
          "id": "1.922",
          "name": "Servicios de limpieza",
          "_links": {
            "self": {
              "name": "Servicios de limpieza",
              "href": "https://api.euskadi.eus/procurements/companies/economic-activities/1.922"
            }
          }
        }
      ],
      "certificateStartDate": "2021-01-25",
      "certificateEndDate": "2021-07-01",
      "object": "LIMPIEZA, DESINFECCIÓN Y DESINFECTACIÓN DE PISOS, EDIFICIOS, LOCALES Y EN GENERAL DE INMUEBLES. LA LIMPIEZA DE EDIFICIOS Y LOCALES PÚBLICOS Y PRIVADOS. PUERTOS Y AEROPUERTOS. ELEMENTOS Y VEHÍCULOS DE TRANSPORTE. LIMPIEZA INDUSTRIAL. CONTRATAS DE LIMPIEZA Y MANTENIMIENTO INTEGRAL DE ESTABLECIMIENTOS DE TODO TIPO. RECOGIDA DE BASURAS Y ALCANTARILLADO. RESIDUOS SÓLIDOS URBANOS. TRATAMIENTO Y ELIMINACIÓN. TRANSPORTE DE RESIDUOS YA SEA DE CARÁCTER PÚBLICO Y/O PRIVADO, CONCERTADOS O GESTIONADOS DIRECTAMENTE. SERVICIOS DE LIMPIEZA DE CALLES, VÍAS PÚBLICAS Y JARDINES Y CUALQUIER OTRO SERVICIO DE SANEAMIENTO O LIMPIEZA. SERVICIOS DE JARDINERÍA, ETC.. EXTERMINIO DE ANIMALES DAÑINOS Y DISINFECCIÓN DE CUALQUIER CLASE Y EN CUALQUIER EMPLAZAMIENTO. SUMINISTRO E INSTALACIÓN DE SISTEMAS DE SOTERRAMIENTO DE CONTENEDORES PARA LA RECOGIDA DE BASURAS Y RESIDUOS URBANOS. SERVICIOS DE ALCANTARILLADO, EVACUACIÓN Y DEPURACIÓN DE AGUAS RESIDUALES. SERVICIOS DE INCINERACIÓN Y ELIMINACIÓN DE BASURAS Y DESECHOS. SERVICIOS DE ENTERRAMIENTOS",
      "mainEntityOfPage": "https://www.contratacion.euskadi.eus/webkpe00-kperoc/es/ac71aBusquedaRegistrosWar/empresa/03313",
      "_links": {
        "self": {
          "name": "LIMPIEZAS BILUR, S.L.",
          "href": "https://api.euskadi.eus/procurements/companies/03313"
        }
      }
    },
    {
      "name": "JARDINERÍA ZELAIA, S.L.",
      "registrationNumber": "03749",
      "identificationNumber": "B01154087",
      "address": "C/ LARRAGANA, 12-PAB. 10",
      "location": {
        "postalCode": "01013",
        "municipality": "Vitoria-Gasteiz",
        "county": "Araba/Álava",
        "municipalityId": "059",
        "countyId": "01"
      },
      "economicActivities": [
        {
          "id": "1.911",
          "name": "Servicios agrícolas y ganaderos",
          "_links": {
            "self": {
              "name": "Servicios agrícolas y ganaderos",
              "href": "https://api.euskadi.eus/procurements/companies/economic-activities/1.911"
            }
          }
        },
        {
          "id": "1.921.1",
          "name": "Servicios de limpieza en calles, vías públicas y jardines",
          "_links": {
            "self": {
              "name": "Servicios de limpieza en calles, vías públicas y jardines",
              "href": "https://api.euskadi.eus/procurements/companies/economic-activities/1.921.1"
            }
          }
        },
        {
          "id": "1.922",
          "name": "Servicios de limpieza",
          "_links": {
            "self": {
              "name": "Servicios de limpieza",
              "href": "https://api.euskadi.eus/procurements/companies/economic-activities/1.922"
            }
          }
        }
      ],
      "certificateStartDate": "2021-01-21",
      "certificateEndDate": "2021-07-05",
      "object": "LA PREPARACIÓN, MANTENIMIENTO, PLANTACIÓN, CULTIVO Y DISEÑO DE JARDINERÍA, ASÍ COMO TODAS Y CADA UNA DE LAS ACTIVIDADES PROPIAS DE LA JARDINERÍA.\r\nASIMISNO, SE DEDICARÁ A LA VENTA DE TODA CLASE DE PRODUCTOS Y ARTÍCULOS RELACIONADOS CON LA JARDINERÍA Y FLORISTERÍA",
      "mainEntityOfPage": "https://www.contratacion.euskadi.eus/webkpe00-kperoc/es/ac71aBusquedaRegistrosWar/empresa/03749",
      "_links": {
        "self": {
          "name": "JARDINERÍA ZELAIA, S.L.",
          "href": "https://api.euskadi.eus/procurements/companies/03749"
        }
      }
    },
    {
      "name": "ALBERTO JULIAN SAVARAIN ECHANDIA",
      "registrationNumber": "06167",
      "identificationNumber": "73602941C",
      "address": "CALLE MAIZA, 19, BAJO",
      "location": {
        "postalCode": "31839",
        "municipality": "Arbizu",
        "county": "Navarra",
        "municipalityId": "027",
        "countyId": "31"
      },
      "economicActivities": [
        {
          "id": "1.922.1",
          "name": "Servicios de limpieza de interiores",
          "_links": {
            "self": {
              "name": "Servicios de limpieza de interiores",
              "href": "https://api.euskadi.eus/procurements/companies/economic-activities/1.922.1"
            }
          }
        }
      ],
      "certificateStartDate": "2021-01-21",
      "certificateEndDate": "2021-07-14",
      "object": "SERVICIOS DE LIMPIEZA DE INTERIORES ",
      "mainEntityOfPage": "https://www.contratacion.euskadi.eus/webkpe00-kperoc/es/ac71aBusquedaRegistrosWar/empresa/06167",
      "_links": {
        "self": {
          "name": "ALBERTO JULIAN SAVARAIN ECHANDIA",
          "href": "https://api.euskadi.eus/procurements/companies/06167"
        }
      }
    },
    {
      "name": "ADUO GROUP GLOBAL EDUCATIONAL TECHNOLOGY, S.L.",
      "registrationNumber": "07464",
      "identificationNumber": "B95719910",
      "address": "C\\ Santiago de Compostela 12 2ºG",
      "location": {
        "postalCode": "48003",
        "municipality": "Bilbao",
        "county": "Bizkaia",
        "municipalityId": "020",
        "countyId": "48"
      },
      "economicActivities": [
        {
          "id": "1.846",
          "name": "Empresas de estudios de mercado",
          "_links": {
            "self": {
              "name": "Empresas de estudios de mercado",
              "href": "https://api.euskadi.eus/procurements/companies/economic-activities/1.846"
            }
          }
        },
        {
          "id": "1.849.9",
          "name": "Otros servicios independientes n.c.o.p",
          "_links": {
            "self": {
              "name": "Otros servicios independientes n.c.o.p",
              "href": "https://api.euskadi.eus/procurements/companies/economic-activities/1.849.9"
            }
          }
        },
        {
          "id": "1.861.2",
          "name": "Alquiler de locales industriales y otros alquileres n.c.o.p",
          "_links": {
            "self": {
              "name": "Alquiler de locales industriales y otros alquileres n.c.o.p",
              "href": "https://api.euskadi.eus/procurements/companies/economic-activities/1.861.2"
            }
          }
        },
        {
          "id": "1.934",
          "name": "Enseñanza fuera de establecimiento permanente",
          "_links": {
            "self": {
              "name": "Enseñanza fuera de establecimiento permanente",
              "href": "https://api.euskadi.eus/procurements/companies/economic-activities/1.934"
            }
          }
        }
      ],
      "certificateStartDate": "2021-01-20",
      "certificateEndDate": "2021-07-18",
      "object": "A) (CNAE 8559) OTRA EDUCACIÓN N.C.O.P. ENTRE DICHAS ACTIVIDADES SE ENCUENTRAN INCLUIDAS LAS SIGUIENTES: -LAS ACTIVIDADES DE FORMACIÓN PARA EL EMPLEO. -FORMACIÓN PROGRAMADA POR LAS EMPRESAS. - ACCIONES ESTRATÉGICAS FORMATIVAS. -FORMACIÓN DE OFERTA. - OFERTA FORMATIVA PARA TRABAJADORES DESEMPLEADOS. - OFERTA FORMATIVA PARA TRABAJADORES OCUPADOS. -OFERTA FORMATIVA PARA PERSONAS CON ESPECIALES DIFICULTADES DE INSERCIÓN. -FORMACIÓN TANTO EN COMPETENCIAS PROFESIONALES PROPIAS DEL SISTEMA NACIONAL DE CUALIFICACIONES PROFESIONALES, COMO EN COMPETENCIAS BÁSICAS DE ACCESO A LOS CERTIFICADOS DE PROFESIONALIDAD, O EN SU CASO A LA EDUCACIÓN SECUNDARIA OBLIGATORIA, SI ES UN MODELO COMPARTIDO CON EDUCACIÓN. -INCLUSIÓN LABORAL PARA LAS PERSONAS PARTICIPANTES EN LOS PROYECTOS MEDIANTE PRÁCTICAS, COMPROMISOS DE CONTRATACIÓN, FORMACIÓN EN ALTERNANCIA CON EL EMPLEO O CUALQUIER OTRA MEDIDA INTERRELACIONADA CON LOS PROGRAMAS DE EMPLEO VIGENTES. -PRÁCTICAS NO LABORALES. - ACCIONES FORMATIVAS DIRIGIDAS A LAS PERSONAS DESEMPLEADAS. - ACCIONES FORMATIVAS DIRIGIDAS A LOS TRABAJADORES OCUPADOS. - PROGRAMAS ESPECÍFICOS. -FORMACIÓN DUAL. -FORMACIÓN EN ALTERNANCIA CON EL EMPLEO. -FORMACIÓN VINCULADA A LOS CONTRATOS PARA LA FORMACIÓN Y EL APRENDIZAJE. - PROGRAMAS Y SERVICIOS DE INCLUSIÓN SOCIAL Y LABORAL. (INCLUIDA INTERMEDIACIÓN LABORAL). - ACCIONES DE APOYO A LA FORMACIÓN Y DE MOVILIDAD TRANSNACIONAL. -ACCIONES PARA LA DETECCIÓN DE NECESIDADES FORMATIVAS. -ACCIONES PARA LA EVALUACIÓN DE LA FORMACIÓN. - DESARROLLO DE INSTRUMENTOS, METODOLOGÍAS Y HERRAMIENTAS QUE CONTRIBUYEN A LA MEJORA DE LA PLANIFICACIÓN, ORGANIZACIÓN, DESARROLLO, IMPARTICIÓN Y EVALUACIÓN DE LA FORMACIÓN EN TODAS SUS ACEPCIONES. -PLANIFICACIÓN, DESARROLLO, GESTIÓN, IMPARTICIÓN Y EVALUACIÓN DE FORMACIÓN EN SUS DIVERSAS MODALIDADES (PRESENCIAL, TELEFORMACIÓN A DISTANCIA Y MIXTA) Y EL NEGOCIO EDITORIAL DE LAS MISMAS DIRIGIDA A EMPRESAS Y PERSONAL, MEDIANTE CURSOS Y PROGRAMAS ACADÉMICOS SOBRE MÚLTIPLES MATERIAS, EN SOLITARIO O EN COLABORACIÓN CON OTRAS ENTIDADES, Y TANTO CON MEDIOS E INSTALACIONES PROPIAS, COMO CON MEDIOS Y/O EN INSTALACIONES DE CLIENTES O COLABORADORES. -ORGANIZAR, PROMOVER Y DESARROLLAR TODO TIPO DE ACTIVIDADES, DE FORMACIÓN, ESTUDIO E INVESTIGACIÓN SOCIO LÓGICA Y DE MERCADO O MARKETING, INNOVACIÓN SOCIAL O METODOLÓGICA, TENDENTES A FACILITAR LA COMPRENSIÓN, ACTUACIÓN, ADECUACIÓN E INTEGRACIÓN DE LAS PERSONAS Y LOS TRABAJADORES EN EL ÁMBITO SOCIAL Y LABORAL. -CONSULTORÍA TECNOLÓGICA E INFORMÁTICA DE SOLUCIONES ELEARNING TANTO DE CATÁLOGO COMO DE ACCIONES FORMATIVAS Y/O PRODUCTOS CON DESARROLLO A MEDIDA. DESARROLLO Y PRODUCCIÓN DE CONTENIDOS Y MATERIALES EDUCATIVOS. DESARROLLO Y COMERCIALIZACIÓN DE APLICACIONES WEB Y/O DE GESTIÓN. B) (CNAE 7022) OTRAS ACTIVIDADES DE CONSULTORÍA DE GESTIÓN EMPRESARIAL. ENTRE DICHAS ACTIVIDADES SE ENCUENTRAN INCLUIDAS LAS SIGUIENTES: DESARROLLO INTEGRAL, A NIVEL NACIONAL E INTERNACIONAL DE SERVICIOS DE CONSULTORÍA ESTRATÉGICA, DE ORGANIZACIÓN, DE MOTIVACIÓN Y DE GESTIÓN EMOCIONAL DE LA ORGANIZACIÓN, DE DESARROLLO Y CAPACITACIÓN DE RECURSOS HUMANOS, DE GESTIÓN DEL CONOCIMIENTO Y OUTSOURCING. C) (CNAE 4791) COMERCIO AL POR MENOR POR CORRESPONDENCIA O INTERNET. ENTRE DICHAS ACTIVIDADES SE ENCUENTRAN INCLUIDAS LAS SIGUIENTES: COMPRAVENTA, DISTRIBUCIÓN Y COMERCIALIZACIÓN CON O SIN EXCLUSIVA, DE PRODUCTOS FORMATIVOS RELACIONADOS CON REDES DE VENTAS A NIVEL NACIONAL E INTERNACIONAL. COMERCIALIZACIÓN DE LIBROS, OBRAS EDITORIALES, SOFTWARE INFORMÁTICO Y MATERIAL DIDÁCTICO, POR CORRESPONDENCIA O INTERNET; ENSEÑANZA EN GENERAL, SERVICIOS DE TELECOMUNICACIONES, TELEMARKETING Y CALL CENTER. INCLUIDA BAJO MODALIDAD FRANQUICIAS",
      "mainEntityOfPage": "https://www.contratacion.euskadi.eus/webkpe00-kperoc/es/ac71aBusquedaRegistrosWar/empresa/07464",
      "_links": {
        "self": {
          "name": "ADUO GROUP GLOBAL EDUCATIONAL TECHNOLOGY, S.L.",
          "href": "https://api.euskadi.eus/procurements/companies/07464"
        }
      }
    },
    {
      "name": "CONSTRUCCIONES Y DESMONTES RIVERA NAVARRA S.A.",
      "registrationNumber": "07466",
      "identificationNumber": "A31244684",
      "address": "Polígono Industrial, Calle I, nº 9",
      "location": {
        "postalCode": "31592",
        "municipality": "Cintruénigo",
        "county": "Navarra",
        "municipalityId": "072",
        "countyId": "31"
      },
      "economicActivities": [
        {
          "id": "1.502.1",
          "name": "Demoliciones y derribos en general",
          "_links": {
            "self": {
              "name": "Demoliciones y derribos en general",
              "href": "https://api.euskadi.eus/procurements/companies/economic-activities/1.502.1"
            }
          }
        },
        {
          "id": "1.507",
          "name": "Construcción, reparación y conservación de toda clase obras",
          "_links": {
            "self": {
              "name": "Construcción, reparación y conservación de toda clase obras",
              "href": "https://api.euskadi.eus/procurements/companies/economic-activities/1.507"
            }
          }
        }
      ],
      "certificateStartDate": "2021-01-20",
      "certificateEndDate": "2021-07-19",
      "object": "A) PROMOCIÓN, CONSTRUCCIÓN, REPARACIÓN Y CONSERVACIÓN DE EDIFICACIONES Y OBRAS CIVILES, ASÍ COMO LA COMPRA, VENTA Y ARRENDAMIENTO DE FINCAS RÚSTICAS Y URBANAS DE CUALQUIER CLASE, ASÍ COMO SU ORDENAMIENTO, PARCELACIÓN Y URBANIZACIÓN. LA EJECUCIÓN DE OBRAS DE CUALQUIER CLASE, TANTO PARA PARTICULARES COMO PARA LAS ADMINISTRACIONES PÚBLICAS. B) CONSOLIDACIÓN, EXPLANACIÓN, SANEAMIENTO Y PREPARACIÓN DE TERRENOS PARA LA REALIZACIÓN DE TODO TIPO DE OBRAS CIVILES, INCLUIDOS SISTEMAS DE AGOTAMIENTO Y DRAGADOS, Y EN GENERAL TODO LO RELACIONADO CON LA EXPLANACIÓN Y MOVIMIENTO DE TIERRAS. C) DEMOLICIONES Y DERRIBOS EN GENERAL, PERFORACIONES PARA ALUMBRAMIENTO DE AGUAS, DESMONTES, CIMENTACIONES Y PAVIMENTACIONES PARA LA CONSTRUCCIÓN DE EDIFICACIONES Y OBRAS CIVILES. D) RECICLAJE Y RECUPERACIÓN DE MATERIALES DE CONSTRUCCIÓN Y DE CUALQUIER OTRO TIPO. E) COMPRA, VENTA Y ARRENDAMIENTO DE TODO TIPO DE MAQUINARIA Y UTILLAJE PARA CONSTRUCCIÓN Y OBRAS PÚBLICAS, Y PARA CUALQUIER OTRA ACTIVIDAD. F) EXPLOTACIONES AGRÍCOLAS Y GANADERAS, ASÍ COMO SERVICIOS DE CRÍA Y ENGORDE DE ANIMALES DE GRANJA. G) LA INTERMEDIACIÓN, COORDINACIÓN Y GESTIÓN ENTRE PROFESIONALES CONTRATADOS POR LA COMPAÑÍA, HABILITADOS EN SU CASO POR LOS COLEGIOS PROFESIONALES OFICIALES CORRESPONDIENTES, Y LOS CLIENTES, PARA LA REALIZACIÓN Y CONFECCIÓN DE PROYECTOS TÉCNICOS Y DE EJECUCIÓN Y EXPLOTACIÓN DE CUALQUIER ESPECIALIDAD QUE SEAN REQUERIDOS EN EL DESARROLLO DE LAS ACTIVIDADES PROPIAS DEL OBJETO SOCIAL",
      "mainEntityOfPage": "https://www.contratacion.euskadi.eus/webkpe00-kperoc/es/ac71aBusquedaRegistrosWar/empresa/07466",
      "_links": {
        "self": {
          "name": "CONSTRUCCIONES Y DESMONTES RIVERA NAVARRA S.A.",
          "href": "https://api.euskadi.eus/procurements/companies/07466"
        }
      }
    },
    {
      "name": "IBM GLOBAL SERVICES ESPAÑA, S.A.",
      "registrationNumber": "01966",
      "identificationNumber": "A80599459",
      "address": "Calle Mar Adriatico, 2",
      "location": {
        "postalCode": "28850",
        "municipality": "San Fernando de Henares",
        "county": "Madrid",
        "municipalityId": "130",
        "countyId": "28"
      },
      "economicActivities": [
        {
          "id": "1.504.1",
          "name": "Instalaciones eléctricas en general",
          "_links": {
            "self": {
              "name": "Instalaciones eléctricas en general",
              "href": "https://api.euskadi.eus/procurements/companies/economic-activities/1.504.1"
            }
          }
        },
        {
          "id": "1.699",
          "name": "Otras reparaciones n.c.o.p",
          "_links": {
            "self": {
              "name": "Otras reparaciones n.c.o.p",
              "href": "https://api.euskadi.eus/procurements/companies/economic-activities/1.699"
            }
          }
        },
        {
          "id": "1.769.2",
          "name": "Servicios de teletransmisión de datos",
          "_links": {
            "self": {
              "name": "Servicios de teletransmisión de datos",
              "href": "https://api.euskadi.eus/procurements/companies/economic-activities/1.769.2"
            }
          }
        },
        {
          "id": "1.842",
          "name": "Servicios financieros y contables",
          "_links": {
            "self": {
              "name": "Servicios financieros y contables",
              "href": "https://api.euskadi.eus/procurements/companies/economic-activities/1.842"
            }
          }
        },
        {
          "id": "1.843.1",
          "name": "Servicios técnicos de ingeniería",
          "_links": {
            "self": {
              "name": "Servicios técnicos de ingeniería",
              "href": "https://api.euskadi.eus/procurements/companies/economic-activities/1.843.1"
            }
          }
        },
        {
          "id": "1.843.9",
          "name": "Otros servicios técnicos n.c.o.p",
          "_links": {
            "self": {
              "name": "Otros servicios técnicos n.c.o.p",
              "href": "https://api.euskadi.eus/procurements/companies/economic-activities/1.843.9"
            }
          }
        },
        {
          "id": "1.845",
          "name": "Explotación electrónica por cuenta de terceros",
          "_links": {
            "self": {
              "name": "Explotación electrónica por cuenta de terceros",
              "href": "https://api.euskadi.eus/procurements/companies/economic-activities/1.845"
            }
          }
        },
        {
          "id": "1.849.6",
          "name": "Servicios de colocación y suministro de personal",
          "_links": {
            "self": {
              "name": "Servicios de colocación y suministro de personal",
              "href": "https://api.euskadi.eus/procurements/companies/economic-activities/1.849.6"
            }
          }
        },
        {
          "id": "1.849.9",
          "name": "Otros servicios independientes n.c.o.p",
          "_links": {
            "self": {
              "name": "Otros servicios independientes n.c.o.p",
              "href": "https://api.euskadi.eus/procurements/companies/economic-activities/1.849.9"
            }
          }
        },
        {
          "id": "1.932.2",
          "name": "Enseñanza de formación y perfeccionamiento profesional superior",
          "_links": {
            "self": {
              "name": "Enseñanza de formación y perfeccionamiento profesional superior",
              "href": "https://api.euskadi.eus/procurements/companies/economic-activities/1.932.2"
            }
          }
        }
      ],
      "certificateStartDate": "2021-01-19",
      "certificateEndDate": "2021-05-05",
      "object": "EL DISEÑO, DESARROLLO, GESTIÓN Y EXPLOTACIÓN DE SISTEMAS DE INFORMACIÓN BASADOS EN LA TECNOLOGÍA DE LA INFORMACIÓN, ASÍ COMO LA COMERCIALIZACIÓN DE PRODUCTOS Y SERVICIOS INFORMÁTICOS, YA DIRECTAMENTE O MEDIANTE CUALQUIER CONTRATO DE COLABORACIÓN. EL DISEÑO, INGENIERÍA, EJECUCIÓN, MANTENIMIENTO, PUESTA EN MARCHA, CONSULTORÍA Y CONTROL DE CALIDAD DE INFRAESTRUCTURAS DE OBRA CIVIL, ELECTRICIDAD, CLIMATIZACIÓN, PROTECCIÓN CONTRAINCENDIOS, TELECOMUNICACIONES Y CONTROL, INCLUYENDO LA GESTIÓN INTEGRADA DE PROYECTOS, ASÍ COMO LA DIRECCIÓN TÉCNICA Y FACULTATIVA DE LAS OBRAS. TAMBIÉN SERÁ OBJETO DE LA COMPAÑÍA LA PRESTACIÓN Y EXPLOTACIÓN DE SERVICIOS PROFESIONALES DE CONSULTORÍA, ASÍ COMO DE INGENIERÍA DE COMUNICACIONES Y, EN GENERAL, TODA CLASE DE SERVICIOS OUTSOURCING",
      "mainEntityOfPage": "https://www.contratacion.euskadi.eus/webkpe00-kperoc/es/ac71aBusquedaRegistrosWar/empresa/01966",
      "_links": {
        "self": {
          "name": "IBM GLOBAL SERVICES ESPAÑA, S.A.",
          "href": "https://api.euskadi.eus/procurements/companies/01966"
        }
      }
    },
    {
      "name": "LEIRE SAGARDUY UGALDE",
      "registrationNumber": "07459",
      "identificationNumber": "30678243S",
      "address": "LEHENDAKARI J.M. LEIZAOLA 5",
      "location": {
        "postalCode": "01230",
        "municipality": "Iruña Oka/Iruña de Oca",
        "county": "Araba/Álava",
        "municipalityId": "901",
        "countyId": "01"
      },
      "economicActivities": [
        {
          "id": "2.826",
          "name": "Personal docente de enseñanzas diversas",
          "_links": {
            "self": {
              "name": "Personal docente de enseñanzas diversas",
              "href": "https://api.euskadi.eus/procurements/companies/economic-activities/2.826"
            }
          }
        },
        {
          "id": "2.861",
          "name": "Pintores, escultores, ceramistas, artesanos, artistas y similares",
          "_links": {
            "self": {
              "name": "Pintores, escultores, ceramistas, artesanos, artistas y similares",
              "href": "https://api.euskadi.eus/procurements/companies/economic-activities/2.861"
            }
          }
        }
      ],
      "certificateStartDate": "2021-01-19",
      "certificateEndDate": "2021-05-30",
      "object": "PERSONAL DOCENTE DE ENSEÑANZAS DIVERSAS Y PINTORES, ESCULTORES, CERAMISTAS, ARTESANOS, ARTISTAS Y SIMILARES",
      "mainEntityOfPage": "https://www.contratacion.euskadi.eus/webkpe00-kperoc/es/ac71aBusquedaRegistrosWar/empresa/07459",
      "_links": {
        "self": {
          "name": "LEIRE SAGARDUY UGALDE",
          "href": "https://api.euskadi.eus/procurements/companies/07459"
        }
      }
    },
    {
      "name": "ION LARREA GONZALEZ",
      "registrationNumber": "07461",
      "identificationNumber": "29034011F",
      "address": "C/ AITA ROMAN URTIAGA, 19 B",
      "location": {
        "postalCode": "48340",
        "municipality": "Amorebieta-Etxano",
        "county": "Bizkaia",
        "municipalityId": "003",
        "countyId": "48"
      },
      "economicActivities": [
        {
          "id": "2.731",
          "name": "Abogados",
          "_links": {
            "self": {
              "name": "Abogados",
              "href": "https://api.euskadi.eus/procurements/companies/economic-activities/2.731"
            }
          }
        }
      ],
      "certificateStartDate": "2021-01-19",
      "certificateEndDate": "2021-06-11",
      "object": "ABOGADOS",
      "mainEntityOfPage": "https://www.contratacion.euskadi.eus/webkpe00-kperoc/es/ac71aBusquedaRegistrosWar/empresa/07461",
      "_links": {
        "self": {
          "name": "ION LARREA GONZALEZ",
          "href": "https://api.euskadi.eus/procurements/companies/07461"
        }
      }
    },
    {
      "name": "ESM INSTITUTO DE INVESTIGACIÓN EN SEGURIDAD Y FACTORES HUMANOS, S.L.",
      "registrationNumber": "07462",
      "identificationNumber": "B33115866",
      "address": "C/ José Mª Martínez Cachero 12 bajo",
      "location": {
        "postalCode": "33013",
        "municipality": "Oviedo",
        "county": "Asturias",
        "municipalityId": "044",
        "countyId": "33"
      },
      "economicActivities": [
        {
          "id": "1.932.2",
          "name": "Enseñanza de formación y perfeccionamiento profesional superior",
          "_links": {
            "self": {
              "name": "Enseñanza de formación y perfeccionamiento profesional superior",
              "href": "https://api.euskadi.eus/procurements/companies/economic-activities/1.932.2"
            }
          }
        },
        {
          "id": "1.936.1",
          "name": "Investigación en ciencias exactas y naturales",
          "_links": {
            "self": {
              "name": "Investigación en ciencias exactas y naturales",
              "href": "https://api.euskadi.eus/procurements/companies/economic-activities/1.936.1"
            }
          }
        }
      ],
      "certificateStartDate": "2021-01-19",
      "certificateEndDate": "2021-05-11",
      "object": "1.- FORMACIÓN E INVESTIGACIÓN CIENTÍFICA Y TECNOLÓGICA, SOBRE LA MEJORA DE LA SEGURIDAD Y LA DISMINUCIÓN Y PREVENCIÓN DE ACCIDENTES, EN CUALESQUIERA DE LOS CAMPOS DE GENERACIÓN DE RIESGO Y ÁMBITO DE LOS MISMOS Y, EN ESPECIAL, LOS RELACIONADOS CON LA INDUSTRIA, LA SANIDAD Y TODO TIPO DE TRANSPORTE YA SEA AÉREO, MARÍTIMO, POR FERROCARRIL O CARRETERA. 2.- PUBLICACIÓN DE LOS RESULTADOS OBTENIDOS EN ARTÍCULOS O REVISTAS U OTROS MEDIOS DE COMUNICACIÓN, DIVULGACIÓN DE LOS MISMOS Y DE TEMAS RELACIONADOS CON LA SEGURIDAD Y PREVENCIÓN DE ACCIDENTES EN GENERAL, INCLUSO DESARROLLANDO TECNOLOGÍAS DIDÁCTICAS, MEDIANTE CONFERENCIAS, CONGRESOS, SEMINARIOS, CURSO O CUALQUIER OTRA ACTIVIDAD QUE LO PERMITA. DESARROLLO DE TECNOLOGÍAS DIDÁCTICAS, HERRAMIENTAS Y APLICACIONES INFORMÁTICAS PARA EL CONTROL DEL RIESGO",
      "mainEntityOfPage": "https://www.contratacion.euskadi.eus/webkpe00-kperoc/es/ac71aBusquedaRegistrosWar/empresa/07462",
      "_links": {
        "self": {
          "name": "ESM INSTITUTO DE INVESTIGACIÓN EN SEGURIDAD Y FACTORES HUMANOS, S.L.",
          "href": "https://api.euskadi.eus/procurements/companies/07462"
        }
      }
    },
    {
      "name": "AKIRUTEK SL",
      "registrationNumber": "07463",
      "identificationNumber": "B95928354",
      "address": "Calle Ercilla 16, 1º",
      "location": {
        "postalCode": "48009",
        "municipality": "Bilbao",
        "county": "Bizkaia",
        "municipalityId": "020",
        "countyId": "48"
      },
      "economicActivities": [
        {
          "id": "1.659.2",
          "name": "Venta al por menor de muebles de oficina y máquinas y equipos de oficina",
          "_links": {
            "self": {
              "name": "Venta al por menor de muebles de oficina y máquinas y equipos de oficina",
              "href": "https://api.euskadi.eus/procurements/companies/economic-activities/1.659.2"
            }
          }
        },
        {
          "id": "1.843.1",
          "name": "Servicios técnicos de ingeniería",
          "_links": {
            "self": {
              "name": "Servicios técnicos de ingeniería",
              "href": "https://api.euskadi.eus/procurements/companies/economic-activities/1.843.1"
            }
          }
        }
      ],
      "certificateStartDate": "2021-01-19",
      "certificateEndDate": "2021-05-10",
      "object": "LA PRESTACIÓN DE SERVICIOS DE PERITAJE TECNOLÓGICO Y LA REALIZACIÓN DE PERITAJES INFORMÁTICOS, INFORMES, CONTRAINFORMES, CERTIFICADOS Y DICTÁMENES PERICIALES, MEDIANTE LA EXTRACCIÓN Y EL ANÁLISIS DE EVIDENCIAS DIGITALES DE DISPOSITIVOS TECNOLÓGICOS. - LA PRESTACIÓN DE SERVICIOS DE TASACIÓN Y LA REALIZACIÓN DE TASACIONES TECNOLÓGICAS. - LA PRESTACIÓN DE SERVICIOS DE LABORATORIO INFORMÁTICO FORENSE MEDIANTE LA EXTRACCIÓN DE EVIDENCIAS DIGITALES DE DISPOSITIVOS TECNOLÓGICOS. - LA REALIZACIÓN DE SERVICIOS DE RECUPERACIÓN DE DATOS DE DISPOSITIVOS DE ALMACENAMIENTO MASIVO. - LOS SERVICIOS DE CAPTURA DE INFORMACIÓN POR MEDIO DE SISTEMAS ELECTRÓNICOS, INFORMÁTICOS O TELEMÁTICOS. - EL ANÁLISIS, DESARROLLO Y MANTENIMIENTO DE INSTALACIONES INFORMÁTICAS. - LA PRESTACIÓN DE SERVICIOS DE EXPLOTACIÓN Y CONTROL DE SISTEMAS INFORMÁTICOS E INFRAESTRUCTURAS TELEMÁTICAS. - LA ASESORÍA Y CONSULTORÍA EN INFORMÁTICA FORENSE. -LA CONSULTORÍA INFORMÁTICA. - LAS ACTIVIDADES DE PROGRAMACIÓN INFORMÁTICA. -LA GESTIÓN DE RECURSOS INFORMÁTICOS. - LOS SERVICIOS TÉCNICOS DE INGENIERÍA Y ASESORAMIENTO TÉCNICO. - LOS SERVICIOS RELACIONADOS CON LAS TECNOLOGÍAS DE LA INFORMACIÓN Y LA INFORMÁTICA. - LA CONSULTORÍA DE ORGANIZACIÓN Y GESTIÓN EMPRESARIAL. - LOS SERVICIOS DE ASESORAMIENTO, CONSULTORÍA E IMPLANTACIÓN DE SISTEMAS Y PROCEDIMIENTOS DE CUMPLIMIENTO NORMATIVO SOBRE PROTECCIÓN DE DATOS. - LA GESTIÓN E IMPARTICIÓN DE FORMACIÓN EMPRESARIAL. - EL DISEÑO, DESARROLLO, PRODUCCIÓN, INTEGRACIÓN, MANTENIMIENTO, REPARACIÓN Y COMERCIALIZACIÓN DE SISTEMAS, SOLUCIONES Y PRODUCTOS QUE HAGAN USO DE LAS TECNOLOGÍAS DE LA INFORMACIÓN (INFORMÁTICA, ELECTRÓNICA Y COMUNICACIONES)",
      "mainEntityOfPage": "https://www.contratacion.euskadi.eus/webkpe00-kperoc/es/ac71aBusquedaRegistrosWar/empresa/07463",
      "_links": {
        "self": {
          "name": "AKIRUTEK SL",
          "href": "https://api.euskadi.eus/procurements/companies/07463"
        }
      }
    }
  ]
}