{
  "totalItems": 9042,
  "totalPages": 905,
  "currentPage": 385,
  "itemsOfPage": 10,
  "items": [
    {
      "name": "AKIMU PROYECTOS TURÍSTICOS, S.L.",
      "registrationNumber": "03578",
      "identificationNumber": "B01330893",
      "address": "ARANA 7. BAJO O11",
      "location": {
        "postalCode": "01510",
        "municipality": "Vitoria-Gasteiz",
        "county": "Araba/Álava",
        "municipalityId": "059",
        "countyId": "01"
      },
      "economicActivities": [
        {
          "id": "1.844",
          "name": "Servicios de publicidad, relaciones públicas y similares",
          "_links": {
            "self": {
              "name": "Servicios de publicidad, relaciones públicas y similares",
              "href": "https://api.euskadi.eus/procurements/companies/economic-activities/1.844"
            }
          }
        },
        {
          "id": "1.847",
          "name": "Servicios de consultoría",
          "_links": {
            "self": {
              "name": "Servicios de consultoría",
              "href": "https://api.euskadi.eus/procurements/companies/economic-activities/1.847"
            }
          }
        },
        {
          "id": "1.989.2",
          "name": "Servicios de organización de congresos, asambleas y similares",
          "_links": {
            "self": {
              "name": "Servicios de organización de congresos, asambleas y similares",
              "href": "https://api.euskadi.eus/procurements/companies/economic-activities/1.989.2"
            }
          }
        }
      ],
      "certificateStartDate": "2024-10-09",
      "certificateEndDate": "2025-04-09",
      "object": "LA PRESTACIÓN DE SERVICIOS DE CONSULTORÍA Y ASESORAMIENTO EN MATERIA TURÍSTICA. LA ORGANIZACIÓN Y GESTIÓN DE PROYECTOS TURÍSTICOS DE CUALQUIER ÍNDOLE. REALIZACIÓAN DE CAMPAÑAS DE MARKETING TURÍSTICO. LA REALIZACIÓN DE ESTUDIOS DE MERCADO, ELABORACIÓN DE PROYECTOS Y EMISIÓN DE INFORMES Y CUALESQUIERA OTRAS ACTIVIDADES CONSULTORAS O ASESORAS PARA EMPRESAS, INSTITUCIONES O PARTICULARES. CREACIÓN DE PRODUCTOS TURÍSTICOS POR ENCARGO DE EMPRESAS, INSTITUCIONES O PARTICULARES, ACTUANDO EN LA NEGOCIACIÓN CON PROVEEDORES, EN LA EDICIÓN DE SOPORTES DE INFORMACIÓN Y EN LAS CAMPAÑAS DE PROMOCIÓN Y COMERCIALIZACIÓN DE LOS MISMOS. ORGANIZACIÓN Y PLANIFICACIÓN Y PUESTA EN ESCENA DE EVENTOS DE PROMOCIÓN Y COMERCIALIZACIÓN TURÍSTICA, TALES COMO TALLERES DE TRABAJOS, VIAJES DE FAMILIARIZACIÓN, ASISTENCIA A FERIAS, ACCIONES DE RELACIONES PÚBLICAS, ETC. REALIZACIÓN DE VISITAS DE INTERÉS TURÍSTICO. COORDINACIÓN EN LA RREALIZACIÓN DE MATERIALES EN DISTINTOS SOPORTES DE PROMOCIÓN EN LOS DISTINTOS ÁMBITOS DE LA ACTIVIDAD TURÍSTICA. EL DISEÑO Y ORGANIZACIÓN DE EVENTOS DE CUALQUIER TIPO; EVENTOS CORPORATIVOS, PRESENTACIONES, ACTOS DE PROMOCIÓN, CONVENCIONES, VIAJES DE INCENTIVO, ETC",
      "mainEntityOfPage": "https://www.contratacion.euskadi.eus/webkpe00-kperoc/es/ac71aBusquedaRegistrosWar/empresa/03578",
      "_links": {
        "self": {
          "name": "AKIMU PROYECTOS TURÍSTICOS, S.L.",
          "href": "https://api.euskadi.eus/procurements/companies/03578"
        }
      }
    },
    {
      "name": "ACENASLU, S.L.",
      "registrationNumber": "09305",
      "identificationNumber": "B95966651",
      "address": "POLIGONO INDUSTRIAL EL JUNCAL 34-35",
      "location": {
        "postalCode": "48510",
        "municipality": "Valle de Trápaga-Trapagaran",
        "county": "Bizkaia",
        "municipalityId": "080",
        "countyId": "48"
      },
      "economicActivities": [
        {
          "id": "1.468.1",
          "name": "Fabricación de mobiliario de madera para el hogar",
          "_links": {
            "self": {
              "name": "Fabricación de mobiliario de madera para el hogar",
              "href": "https://api.euskadi.eus/procurements/companies/economic-activities/1.468.1"
            }
          }
        },
        {
          "id": "1.653.2",
          "name": "Venta al por menor de material y aparatos eléctricos, electrodomésticos y cocina",
          "_links": {
            "self": {
              "name": "Venta al por menor de material y aparatos eléctricos, electrodomésticos y cocina",
              "href": "https://api.euskadi.eus/procurements/companies/economic-activities/1.653.2"
            }
          }
        }
      ],
      "certificateStartDate": "2024-10-09",
      "certificateEndDate": "2025-04-09",
      "object": "FABRICACIÓN DE MUEBLES A MEDIDA, CNAE:3109.-FABRICACIÓN DE OTROS MUEBLES (ACTIVIDAD PRINCIPAL).",
      "mainEntityOfPage": "https://www.contratacion.euskadi.eus/webkpe00-kperoc/es/ac71aBusquedaRegistrosWar/empresa/09305",
      "_links": {
        "self": {
          "name": "ACENASLU, S.L.",
          "href": "https://api.euskadi.eus/procurements/companies/09305"
        }
      }
    },
    {
      "name": "SERVICIOS AUXILIARES SUREUSKADI, S.L.",
      "registrationNumber": "01786",
      "identificationNumber": "B20335741",
      "address": "CALLE RENTERIA 10-12 BAJO",
      "location": {
        "postalCode": "20013",
        "municipality": "Donostia / San Sebastián",
        "county": "Gipuzkoa",
        "municipalityId": "069",
        "countyId": "20"
      },
      "economicActivities": [
        {
          "id": "1.989.2",
          "name": "Servicios de organización de congresos, asambleas y similares",
          "_links": {
            "self": {
              "name": "Servicios de organización de congresos, asambleas y similares",
              "href": "https://api.euskadi.eus/procurements/companies/economic-activities/1.989.2"
            }
          }
        }
      ],
      "certificateStartDate": "2024-10-09",
      "certificateEndDate": "2025-03-23",
      "object": "LA ORGANIZACIÓN DE RECURSOS HUMANOS CONSISTENTES EN LA PRESTACIÓN A TERCEROS DE SERVICIOS DE AZAFATAS, PERSONAL AUXILIAR, TRADUCTORES, INTÉRPRETES, PERSONAL DE MONTAJE, CONTROLADORES, PORTEROS, ACOMODADORES, Y EN GENERAL CUANTOS MEDIOS HUMANOS SEAN NECESARIOS EN CONVENCIONES, REUNIONES, CONGRESOS O ACONTECIMIENTOS SOCIALES DEL MISMO TIPO",
      "mainEntityOfPage": "https://www.contratacion.euskadi.eus/webkpe00-kperoc/es/ac71aBusquedaRegistrosWar/empresa/01786",
      "_links": {
        "self": {
          "name": "SERVICIOS AUXILIARES SUREUSKADI, S.L.",
          "href": "https://api.euskadi.eus/procurements/companies/01786"
        }
      }
    },
    {
      "name": "ANGEL MUÑOYERRO GONZALEZ",
      "registrationNumber": "09541",
      "identificationNumber": "16037773B",
      "address": "C/SIMON DE OTXANDATEGI 5B - 1C -",
      "location": {
        "postalCode": "48640",
        "municipality": "Berango",
        "county": "Bizkaia",
        "municipalityId": "016",
        "countyId": "48"
      },
      "economicActivities": [
        {
          "id": "2.011",
          "name": "Doctores y licenciados en ciencias biológicas",
          "_links": {
            "self": {
              "name": "Doctores y licenciados en ciencias biológicas",
              "href": "https://api.euskadi.eus/procurements/companies/economic-activities/2.011"
            }
          }
        }
      ],
      "certificateStartDate": "2024-10-08",
      "certificateEndDate": "2025-04-08",
      "object": "DOCTORES Y LICENCIADOS EN CIENCIAS BIOLÓGICAS.",
      "mainEntityOfPage": "https://www.contratacion.euskadi.eus/webkpe00-kperoc/es/ac71aBusquedaRegistrosWar/empresa/09541",
      "_links": {
        "self": {
          "name": "ANGEL MUÑOYERRO GONZALEZ",
          "href": "https://api.euskadi.eus/procurements/companies/09541"
        }
      }
    },
    {
      "name": "THR TOURISM INDUSTRY ADVISORS, S.L.",
      "registrationNumber": "09557",
      "identificationNumber": "B67739532",
      "address": "Avenida Diagonal 605 1ª Planta 08028 Barcelona",
      "location": {
        "postalCode": "08028",
        "municipality": "Barcelona",
        "county": "Barcelona",
        "municipalityId": "019",
        "countyId": "08"
      },
      "economicActivities": [
        {
          "id": "1.846",
          "name": "Empresas de estudios de mercado",
          "_links": {
            "self": {
              "name": "Empresas de estudios de mercado",
              "href": "https://api.euskadi.eus/procurements/companies/economic-activities/1.846"
            }
          }
        },
        {
          "id": "1.934",
          "name": "Enseñanza fuera de establecimiento permanente",
          "_links": {
            "self": {
              "name": "Enseñanza fuera de establecimiento permanente",
              "href": "https://api.euskadi.eus/procurements/companies/economic-activities/1.934"
            }
          }
        }
      ],
      "certificateStartDate": "2024-10-08",
      "certificateEndDate": "2025-04-08",
      "object": "A) LA PRESENTACIÓN DE LOS SERVICIOS CONSISTENTES EN LA PROMOCIÓN Y ASESORAMIENTO DE TODO TIPO A LAS PERSONAS FÍSICAS O JURÍDICAS PROFESIONALES DEL TURISMO, VIAJE, HOSTELERÍA, OCIO, TRANSPORTE, VIAJES Y ACTIVIDADES AFINES A ESTOS SECTORES. B) LA ELABORACIÓN DE ESTUDIOS DE INVESTIGACIÓN DE MERCADO, PLANES ESTRATÉGICOS Y DE NEGOCIO Y ACTIVIDADES DE SOPORTE A LA IMPLEMENTACIÓN. C) ACTIVIDADES DE FORMACIÓN A PROFESIONALES DE LOS SECTORES DE ACTIVIDAD MENCIONADOS. D) ACTIVIDADES DE PROMOCIÓN DE DESTINOS TURÍSTICOS Y EMPRESAS INCLUYENDO, ENTRE OTRAS, LA PLANIFICACIÓN Y COMPRA DE CAMPAÑAS DE PUBLICIDAD, ORGANIZACIÓN DE EVENTOS, CREACIÓN Y PRODUCCIÓN DE MATERIAL GRÁFICO Y AUDIOVISUAL, ELABORACIÓN Y EJECUCIÓN DE ESTRATEGIAS DE COMUNICACIÓN Y REPRESENTACIÓN COMERCIAL. E) ACTIVIDADES DE TRANSFORMACIÓN DIGITAL DE DESTINOS TURÍSTICOS Y EMPRESAS. F) EN GENERAL, LA EXPLOTACIÓN DIRECTA DE CUALQUIER NEGOCIO RELACIONADO CON EL TURISMO, HOSTELERÍA Y OCIO.",
      "mainEntityOfPage": "https://www.contratacion.euskadi.eus/webkpe00-kperoc/es/ac71aBusquedaRegistrosWar/empresa/09557",
      "_links": {
        "self": {
          "name": "THR TOURISM INDUSTRY ADVISORS, S.L.",
          "href": "https://api.euskadi.eus/procurements/companies/09557"
        }
      }
    },
    {
      "name": "GU ZER GUTUNAK ZERBITZUA, S.L.",
      "registrationNumber": "09319",
      "identificationNumber": "B95856498",
      "address": "Geldos Auzoa Nº70 ",
      "location": {
        "postalCode": "48170",
        "municipality": "Zamudio",
        "county": "Bizkaia",
        "municipalityId": "905",
        "countyId": "48"
      },
      "economicActivities": [
        {
          "id": "1.849.5",
          "name": "Servicios de recadería y reparto y manipulación de correspondencia",
          "_links": {
            "self": {
              "name": "Servicios de recadería y reparto y manipulación de correspondencia",
              "href": "https://api.euskadi.eus/procurements/companies/economic-activities/1.849.5"
            }
          }
        }
      ],
      "certificateStartDate": "2024-10-08",
      "certificateEndDate": "2025-04-08",
      "object": "DESPACHO, MANIPULACIÓN Y REPARTO DE CORRESPONDENCIA, PUBLICIDAD Y CUALQUIER OTRO OBJETO POSTAL, ASÍ COMO TODA CLASE DE SERVICIOS RELACIONADOS CON LOS MISMOS. COMPRA-VENTA Y ALQUILER DE INMUEBLES.",
      "mainEntityOfPage": "https://www.contratacion.euskadi.eus/webkpe00-kperoc/es/ac71aBusquedaRegistrosWar/empresa/09319",
      "_links": {
        "self": {
          "name": "GU ZER GUTUNAK ZERBITZUA, S.L.",
          "href": "https://api.euskadi.eus/procurements/companies/09319"
        }
      }
    },
    {
      "name": "NATURAL VOX SAU",
      "registrationNumber": "06211",
      "identificationNumber": "A01116953",
      "address": "BULEVAR DE SALBURUA Nº8 1º IZQ.",
      "location": {
        "postalCode": "01002",
        "municipality": "Vitoria-Gasteiz",
        "county": "Araba/Álava",
        "municipalityId": "059",
        "countyId": "01"
      },
      "economicActivities": [
        {
          "id": "1.351.1",
          "name": "Fabricación de aparatos y equipo telefónico y telegráfico",
          "_links": {
            "self": {
              "name": "Fabricación de aparatos y equipo telefónico y telegráfico",
              "href": "https://api.euskadi.eus/procurements/companies/economic-activities/1.351.1"
            }
          }
        },
        {
          "id": "1.845",
          "name": "Explotación electrónica por cuenta de terceros",
          "_links": {
            "self": {
              "name": "Explotación electrónica por cuenta de terceros",
              "href": "https://api.euskadi.eus/procurements/companies/economic-activities/1.845"
            }
          }
        }
      ],
      "certificateStartDate": "2024-10-07",
      "certificateEndDate": "2025-04-04",
      "object": "LA CREACIÓN, DESARROLLO, FABRICACIÓN, COMERCIALIZACIÓN, INCLUIDA LA IMPORTACIÓN Y EXPORTACIÓN DE TODO TIPO DE PROGRAMAS Y SISTEMAS INFORMÁTICOS Y LOS APARATOS INFORMÁTICOS",
      "mainEntityOfPage": "https://www.contratacion.euskadi.eus/webkpe00-kperoc/es/ac71aBusquedaRegistrosWar/empresa/06211",
      "_links": {
        "self": {
          "name": "NATURAL VOX SAU",
          "href": "https://api.euskadi.eus/procurements/companies/06211"
        }
      }
    },
    {
      "name": "LA COMPAÑIA ALTA SUCRE, S.L.",
      "registrationNumber": "08488",
      "identificationNumber": "B05367255",
      "address": "Barrio Olabarrieta 45, dcha",
      "location": {
        "postalCode": "48960",
        "municipality": "Galdakao",
        "county": "Bizkaia",
        "municipalityId": "036",
        "countyId": "48"
      },
      "economicActivities": [
        {
          "id": "1.501.3",
          "name": "Albañilería y pequeños trabajos de construcción en general",
          "_links": {
            "self": {
              "name": "Albañilería y pequeños trabajos de construcción en general",
              "href": "https://api.euskadi.eus/procurements/companies/economic-activities/1.501.3"
            }
          }
        },
        {
          "id": "1.653.2",
          "name": "Venta al por menor de material y aparatos eléctricos, electrodomésticos y cocina",
          "_links": {
            "self": {
              "name": "Venta al por menor de material y aparatos eléctricos, electrodomésticos y cocina",
              "href": "https://api.euskadi.eus/procurements/companies/economic-activities/1.653.2"
            }
          }
        },
        {
          "id": "1.843.2",
          "name": "Servicios técnicos de arquitectura y urbanismo",
          "_links": {
            "self": {
              "name": "Servicios técnicos de arquitectura y urbanismo",
              "href": "https://api.euskadi.eus/procurements/companies/economic-activities/1.843.2"
            }
          }
        }
      ],
      "certificateStartDate": "2024-10-07",
      "certificateEndDate": "2025-04-07",
      "object": "ACTIVIDAD PRINCIPAL: SERVICIOS TÉCNICOS DE ARQUITECTURA. OTRAS ACTIVIDADES: FABRICACIÓN DE OTRAS ESTRUCTURAS DE MADERA Y PIEZAS DE CARPINTERÍA Y EBANISTERÍA PARA LA CONSTRUCCIÓN; FABRICACIÓN DE ENVASES Y EMBALAJES DE MADERA; REPRODUCCIÓN DE SOPORTES GRABADOS; FABRICACIÓN DE ENVASES Y EMBALAJES DE PLÁSTICO; FABRICACIÓN DE PRODUCTOS DE PLÁSTICO PARA LA CONSTRUCCIÓN; FABRICACIÓN DE OTROS PRODUCTOS DE PLÁSTICO; MANIPULADO Y TRANSFORMACIÓN DE VIDRIO PLANO; FABRICACIÓN DE VIDRIO HUECO; FABRICACIÓN Y MANIPULADO DE OTRO VIDRIO, INCLUIDO EL VIDRIO TÉCNICO; CORTE, TALLADO Y ACABADO DE LA PIEDRA; FABRICACIÓN DE LÁMPARAS Y APARATOS ELÉCTRICOS DE ILUMINACIÓN; FABRICACIÓN DE MUEBLES DE OFICINA Y DE ESTABLECIMIENTOS COMERCIALES; FABRICACIÓN DE MUEBLES DE COCINA; FABRICACIÓN DE COLCHONES; FABRICACIÓN DE OTROS MUEBLES; FABRICACIÓN DE JUEGOS Y JUGUETES; CONSTRUCCIÓN DE EDIFICIOS RESIDENCIALES; CONSTRUCCIÓN DE EDIFICIOS NO RESIDENCIALES; CONSTRUCCIÓN DE CARRETERAS Y AUTOPISTAS; CONSTRUCCIÓN DE OTROS PROYECTOS DE INGENIERÍA CIVIL N.C.O.P.; DEMOLICIÓN; INSTALACIONES ELÉCTRICAS; SERVICIOS TÉCNICOS DE INGENIERÍA Y OTRAS ACTIVIDADES RELACIONADAS CON EL ASESORAMIENTO TÉCNICO; GESTIÓN Y ADMINISTRACIÓN DE LA PROPIEDAD INMOBILIARIA; AGENTES DE LA PROPIEDAD INMOBILIARIA; COMERCIO AL POR MENOR DE MUEBLES, APARATOS DE ILUMINACIÓN Y OTROS ARTÍCULOS DE USO DOMÉSTICO EN ESTABLECIMIENTOS ESPECIALIZADOS; COMERCIO AL POR MENOR DE APARATOS ELECTRODOMÉSTICOS EN ESTABLECIMIENTOS ESPECIALIZADOS; COMERCIO AL POR MAYOR DE FERRETERÍA, FONTANERÍA Y CALEFACCIÓN;  COMERCIO AL POR MAYOR DE OTRA MAQUINARIA Y EQUIPO; COMERCIO AL POR MAYOR DE MUEBLES DE OFICINA; COMERCIO AL POR MAYOR DE MÁQUINAS HERRAMIENTA; OTRAS ACTIVIDADES DE CONSTRUCCIÓN ESPECIALIZADA N.C.O.P.; CONSTRUCCIÓN DE CUBIERTAS; OTRO ACABADO DE EDIFICIOS; PINTURA Y ACRISTALAMIENTO; REVESTIMIENTO DE SUELOS Y PAREDES; INSTALACIÓN DE CARPINTERÍA; OTRAS INSTALACIONES EN OBRAS DE CONSTRUCCIÓN; FONTANERÍA, INSTALACIONES DE SISTEMAS DE CALEFACCIÓN Y AIRE ACONDICIONADO.\n",
      "mainEntityOfPage": "https://www.contratacion.euskadi.eus/webkpe00-kperoc/es/ac71aBusquedaRegistrosWar/empresa/08488",
      "_links": {
        "self": {
          "name": "LA COMPAÑIA ALTA SUCRE, S.L.",
          "href": "https://api.euskadi.eus/procurements/companies/08488"
        }
      }
    },
    {
      "name": "RIELLO ENERDATA SLU",
      "registrationNumber": "06042",
      "identificationNumber": "B83262329",
      "address": "Parque Empr.Prado del Espino  c/Labradores, 13",
      "location": {
        "postalCode": "28660",
        "municipality": "Boadilla del Monte",
        "county": "Madrid",
        "municipalityId": "022",
        "countyId": "28"
      },
      "economicActivities": [
        {
          "id": "1.615.4",
          "name": "Venta al por mayor de aparatos y material radioeléctrico y electrónico",
          "_links": {
            "self": {
              "name": "Venta al por mayor de aparatos y material radioeléctrico y electrónico",
              "href": "https://api.euskadi.eus/procurements/companies/economic-activities/1.615.4"
            }
          }
        }
      ],
      "certificateStartDate": "2024-10-07",
      "certificateEndDate": "2025-04-07",
      "object": "LA IMPORTACIÓN, EXPORTACIÓN, COMPRA, VENTA, ALQUILER, DISTRIBUCIÓN, FABRICACIÓN, COMERCIALIZACIÓN, INSTALACIÓN, PUESTA EN FUNCIONAMIENTO, Y MANTENIMIENTO DE PRODUCTOS ELECTRÓNICOS Y ELÉCTRICOS. COMPRA-VENTA, PROMOCIÓN, CONSTRUCCIÓN Y ADMINISTRACIÓN DE BIENES INMUEBLES. ASESORÍA DE EMPRESAS. LA EJECUCIÓN DE OBRAS EN SU MÁS AMPLIO SENTIDO, YA SEAN PÚBLICAS O PRIVADAS",
      "mainEntityOfPage": "https://www.contratacion.euskadi.eus/webkpe00-kperoc/es/ac71aBusquedaRegistrosWar/empresa/06042",
      "_links": {
        "self": {
          "name": "RIELLO ENERDATA SLU",
          "href": "https://api.euskadi.eus/procurements/companies/06042"
        }
      }
    },
    {
      "name": "LANWAY CONSULTORES, S.L.",
      "registrationNumber": "09067",
      "identificationNumber": "B44735041",
      "address": "RODRIGUEZ ARIAS 71 3º DCHA",
      "location": {
        "postalCode": "48013",
        "municipality": "Bilbao",
        "county": "Bizkaia",
        "municipalityId": "020",
        "countyId": "48"
      },
      "economicActivities": [
        {
          "id": "1.847",
          "name": "Servicios de consultoría",
          "_links": {
            "self": {
              "name": "Servicios de consultoría",
              "href": "https://api.euskadi.eus/procurements/companies/economic-activities/1.847"
            }
          }
        },
        {
          "id": "1.932.2",
          "name": "Enseñanza de formación y perfeccionamiento profesional superior",
          "_links": {
            "self": {
              "name": "Enseñanza de formación y perfeccionamiento profesional superior",
              "href": "https://api.euskadi.eus/procurements/companies/economic-activities/1.932.2"
            }
          }
        }
      ],
      "certificateStartDate": "2024-10-07",
      "certificateEndDate": "2025-04-07",
      "object": "LA CONSULTORIA DE RECURSOS HUMANOS, FORMACIÓN DE TODO TIPO Y DE HABILIDADES INTERPERSONALES, PREPARACIÓN A OPOSICIONES, OUTPLACEMENT, ANÁLISIS Y GESTIÓN DE PERFILES DIRECTIVOS Y MANDOS INTERMEDIOS Y CUALQUIER ASPECTO RELACIONADO CON LOS RECURSOS HUMANOS, EL EMPLEO Y LA FORMACIÓN. LA FORMACIÓN PERMANENTE Y OTRAS ACTIVIDADES DE ENSEÑANZA A PARTICULARES A LAS EMPRESAS Y LOS ORGANISMOS `PÚBLICOS EN RELACIÓN CON: EL DISEÑO DE SISTEMAS DE CONTABILIDAD, DE PROGRAMAS DE CONTABILIDAD DE LOS COSTES Y DE PROCEDIMIENTOS DE CONTROL PRESUPUESTARIO. EL ASESORAMIENTO Y AYUDA A LAS EMPRESAS Y ORGANISMOS PÚBLICOS PARA LA PLANIFICACIÓN, LA ORGANIZACIÓN, LA EFICACIA Y EL CONTROL, LA INFORMÁTICA DE GESTIÓN. EL E-LEARNING Y7O FORMACIÓN ON-LINE. LOS SERVICIOS DE ASESORAMIENTO. ORIENTACIÓN Y ASISTENCIA PRESTADOS A PARTICULARES, A LAS EMPRESAS Y OTRAS ORGANIZACIONES EN MATERIA DE ADMINISTRACIÓN, COMO LA PLANIFICACIÓN ORGANIZATIVA Y ESTRATÉGICA DE LA EMPRESA, REINGENIERÍA DE PROCESOS EMPRESARIALES, GESTIÓN DE CAMBIOS EN LA EMPRESA, REDUCCIÓN DE COSTES Y OTRAS CUESTIONES FINANCIERAS, LOS OBJETIVOS Y POLÍTICAS DE MARKETING. LAS POLÍTICAS, LAS PRÁCTICAS Y LA PLANIFICACIÓN DE RECURSOS HUMANOS; LAS ESTRATEGIAS DE INDEMNIZACIÓN Y JUBILACIÓN, LOS PLANES DE PRODUCCIÓN Y LA PLANIFICACIÓN DE CONTROL.",
      "mainEntityOfPage": "https://www.contratacion.euskadi.eus/webkpe00-kperoc/es/ac71aBusquedaRegistrosWar/empresa/09067",
      "_links": {
        "self": {
          "name": "LANWAY CONSULTORES, S.L.",
          "href": "https://api.euskadi.eus/procurements/companies/09067"
        }
      }
    }
  ]
}