{
  "totalItems": 9042,
  "totalPages": 905,
  "currentPage": 537,
  "itemsOfPage": 10,
  "items": [
    {
      "name": "SERVICIO ASISTIDO MÉDICO URGENTE, S.L.",
      "registrationNumber": "06676",
      "identificationNumber": "B48414163",
      "address": "CLARA CAMPOAMOR 13",
      "location": {
        "postalCode": "48013",
        "municipality": "Bilbao",
        "county": "Bizkaia",
        "municipalityId": "020",
        "countyId": "48"
      },
      "certificateStartDate": "2021-04-19",
      "mainEntityOfPage": "https://www.contratacion.euskadi.eus/webkpe00-kperoc/es/ac71aBusquedaRegistrosWar/empresa/06676",
      "_links": {
        "self": {
          "name": "SERVICIO ASISTIDO MÉDICO URGENTE, S.L.",
          "href": "https://api.euskadi.eus/procurements/companies/06676"
        }
      }
    },
    {
      "name": "TRANSPORTE SANITARIO BIZKAIA, S.L.",
      "registrationNumber": "06677",
      "identificationNumber": "B95059721",
      "address": "CLARA CAMPOAMOR 13",
      "location": {
        "postalCode": "48013",
        "municipality": "Bilbao",
        "county": "Bizkaia",
        "municipalityId": "020",
        "countyId": "48"
      },
      "certificateStartDate": "2021-04-19",
      "mainEntityOfPage": "https://www.contratacion.euskadi.eus/webkpe00-kperoc/es/ac71aBusquedaRegistrosWar/empresa/06677",
      "_links": {
        "self": {
          "name": "TRANSPORTE SANITARIO BIZKAIA, S.L.",
          "href": "https://api.euskadi.eus/procurements/companies/06677"
        }
      }
    },
    {
      "name": "LA TRAMA DIGITAL PRINT, S.L.",
      "registrationNumber": "07162",
      "identificationNumber": "B95866828",
      "address": "Poligono Industrial Ugaldeguren III P18-3",
      "location": {
        "postalCode": "48170",
        "municipality": "Zamudio",
        "county": "Bizkaia",
        "municipalityId": "905",
        "countyId": "48"
      },
      "economicActivities": [
        {
          "id": "1.474.1",
          "name": "Impresión de textos o imágenes por cualquier procedimiento",
          "_links": {
            "self": {
              "name": "Impresión de textos o imágenes por cualquier procedimiento",
              "href": "https://api.euskadi.eus/procurements/companies/economic-activities/1.474.1"
            }
          }
        }
      ],
      "certificateStartDate": "2021-04-19",
      "certificateEndDate": "2021-09-18",
      "object": "1.- LA IMPRESIÓN DE TEXTOS O IMÁGENES POR CUALQUIER PROCEDIMIENTO O SISTEMA. 2.- LA REALIZACIÓN DE ACTIVIDADES DE AGENCIA E INTERMEDIACIÓN COMERCIAL, ASÍ COMO DE CONSULTORÍA Y DE GESTIÓN EMPRESARIAL EN EL SECTOR DE LA IMPRESIÓN. 3.- LA TITULARIDAD, EXPLOTACIÓN O CESIÓN DE DISEÑOS Y DE LA PROPIEDAD INDUSTRIAL EN TODAS SUS MODALIDADES Y CLASES. 4.- LA TENENCIA, ADQUISICIÓN Y ENAJENACIÓN DE TODA CLASE DE VALORES MOBILIARIOS, TANTO NACIONALES COMO EXTRANJEROS, CON LAS EXCEPCIONES Y LIMITACIONES ESTABLECIDAS POR LA LEY DEL MERCADO DE VALORES Y DE INSTITUCIONES DE INVERSIÓN COLECTIVA. 5.- LA ADQUISICIÓN, EXPLOTACIÓN, ALQUILER, ADMINISTRACIÓN Y TRANSMISIÓN DE INMUEBLES RÚSTICOS O URBANOS, POR CUALQUIER TÍTULO, YA SEAN EN SU TOTALIDAD O EN PARTE",
      "mainEntityOfPage": "https://www.contratacion.euskadi.eus/webkpe00-kperoc/es/ac71aBusquedaRegistrosWar/empresa/07162",
      "_links": {
        "self": {
          "name": "LA TRAMA DIGITAL PRINT, S.L.",
          "href": "https://api.euskadi.eus/procurements/companies/07162"
        }
      }
    },
    {
      "name": "ANTALA INDUSTRIA, S.L.",
      "registrationNumber": "07595",
      "identificationNumber": "B61524310",
      "address": "CALLE ENERGIA 96",
      "location": {
        "postalCode": "08940",
        "municipality": "Cornellà de Llobregat",
        "county": "Barcelona",
        "municipalityId": "073",
        "countyId": "08"
      },
      "economicActivities": [
        {
          "id": "1.615.3",
          "name": "Venta al por mayor de aparatos electrodomésticos y ferretería",
          "_links": {
            "self": {
              "name": "Venta al por mayor de aparatos electrodomésticos y ferretería",
              "href": "https://api.euskadi.eus/procurements/companies/economic-activities/1.615.3"
            }
          }
        }
      ],
      "certificateStartDate": "2021-04-19",
      "certificateEndDate": "2021-09-25",
      "object": "EL COMERCIO AL POR MAYOR Y AL DETALLE DE SUMINISTROS INDUSTRIALES",
      "mainEntityOfPage": "https://www.contratacion.euskadi.eus/webkpe00-kperoc/es/ac71aBusquedaRegistrosWar/empresa/07595",
      "_links": {
        "self": {
          "name": "ANTALA INDUSTRIA, S.L.",
          "href": "https://api.euskadi.eus/procurements/companies/07595"
        }
      }
    },
    {
      "name": "RAUROS ZMCOM, S.L.",
      "registrationNumber": "07596",
      "identificationNumber": "B83212118",
      "address": "Calle Calera, 3, of. 18-19, Tres Cantos, Madrid",
      "location": {
        "postalCode": "28760",
        "municipality": "Tres Cantos",
        "county": "Madrid",
        "municipalityId": "903",
        "countyId": "28"
      },
      "economicActivities": [
        {
          "id": "1.843.1",
          "name": "Servicios técnicos de ingeniería",
          "_links": {
            "self": {
              "name": "Servicios técnicos de ingeniería",
              "href": "https://api.euskadi.eus/procurements/companies/economic-activities/1.843.1"
            }
          }
        }
      ],
      "certificateStartDate": "2021-04-19",
      "certificateEndDate": "2021-10-05",
      "object": "INGENIERÍA, INFORMÁTICA, CONSTRUCCIÓN Y AUSCULTACIÓN DE FIRMES",
      "mainEntityOfPage": "https://www.contratacion.euskadi.eus/webkpe00-kperoc/es/ac71aBusquedaRegistrosWar/empresa/07596",
      "_links": {
        "self": {
          "name": "RAUROS ZMCOM, S.L.",
          "href": "https://api.euskadi.eus/procurements/companies/07596"
        }
      }
    },
    {
      "name": "EXCIBIT SOLUTIONS SPAIN, S.L.",
      "registrationNumber": "07598",
      "identificationNumber": "B87572913",
      "address": "Calle Juan de mariana 15",
      "location": {
        "postalCode": "28045",
        "municipality": "Madrid",
        "county": "Madrid",
        "municipalityId": "079",
        "countyId": "28"
      },
      "economicActivities": [
        {
          "id": "1.843.9",
          "name": "Otros servicios técnicos n.c.o.p",
          "_links": {
            "self": {
              "name": "Otros servicios técnicos n.c.o.p",
              "href": "https://api.euskadi.eus/procurements/companies/economic-activities/1.843.9"
            }
          }
        }
      ],
      "certificateStartDate": "2021-04-19",
      "certificateEndDate": "2021-10-12",
      "object": "A.- LA PRESTACIÓN DE SERVICIOS DE CONSULTORÍA TÉCNICA, EN SISTEMAS INFORMÁTICOS, COMUNICACIÓN, DESARROLLOS DE REDES Y UNIVERSO DIGITAL, ASÍ COMO LA CONTRATACIÓN, GESTIÓN, PROYECCIÓN, CONSTRUCCIÓN Y EJECUCIÓN DE TODA CLASE DE OBRAS, PROYECTOS E INSTALACIONES, TANTO PÚBLICAS COMO PRIVADAS, INCLUYENDO LA IMPORTACIÓN Y EXPORTACIÓN, COMPRA Y VENTA, COMERCIALIZACIÓN Y DISTRIBUCIÓN DE TODA CLASE DE ARTÍCULOS RELACIONADOS CON LA ANTERIOR. B.- EL DESARROLLO DE PROGRAMAS DE FORMACIÓN Y LA PRESTACIÓN DE SERVICIOS DE ENSEÑANZA, CAPACITACIÓN Y FORMACIÓN DE ALUNMOS CON CARÁCTER GENERAL, ASÍ COMO EN COMUNICACIÓN CORPORATIVA, DISEÑO DE PROGRAMAS INFORMÁTICOS Y, EN GENERAL, EN EL ÁMBITO DE LAS TECNOÓGÍAS DE LA INFORMACIÓN. C.- LA PRESTACIÓN DE SERVICIOSDE ASESORAMIENTO TÉCNICO, ECONÓMICO Y FINANCIERO A TERCEROS, YA SE TRATE DE PERSONAS FÍSICAS O JURÍDICAS, INCLUYENDO ENTRE ESTAS A LAS EMPRESAS MERCANTILES Y TODA CLASE DE CORPORACIONES Y ASOCIACIONES DE CARÁCTER PÚBLICO O PRIVADO, MEDIANDO Y ASESORANDO EN TODA SU GESTIÓN EN EL MÁS AMPLIO SENTIDO EN QUE SEAN REQUERIDOS PARA ELLO, LA REALIZACIÓN DE ESTUDIOS Y PROYECTOS DE CUALQUIER NATURALEZA",
      "mainEntityOfPage": "https://www.contratacion.euskadi.eus/webkpe00-kperoc/es/ac71aBusquedaRegistrosWar/empresa/07598",
      "_links": {
        "self": {
          "name": "EXCIBIT SOLUTIONS SPAIN, S.L.",
          "href": "https://api.euskadi.eus/procurements/companies/07598"
        }
      }
    },
    {
      "name": "SERVICIOS URRALTU, S.L.",
      "registrationNumber": "07072",
      "identificationNumber": "B95985016",
      "address": "BARRIO ZUBIETE 36",
      "location": {
        "postalCode": "48192",
        "municipality": "Gordexola",
        "county": "Bizkaia",
        "municipalityId": "042",
        "countyId": "48"
      },
      "economicActivities": [
        {
          "id": "1.912",
          "name": "Servicios forestales",
          "_links": {
            "self": {
              "name": "Servicios forestales",
              "href": "https://api.euskadi.eus/procurements/companies/economic-activities/1.912"
            }
          }
        }
      ],
      "certificateStartDate": "2021-04-16",
      "certificateEndDate": "2021-10-12",
      "object": "A) SERVICIOS DE SILVICULTURA Y OTROS SERVICIOS FORESTALES. B) EXPLOTACIÓN DE ZONAS DE MADERA. C) LIMPIEZA, MANTENIMIENTO Y JARDINERÍA. D) ALQUILER DE MAQUINARIA Y EQUIPOS PARA CONSTRUCCIÓN CIVIL. E) TRANSPORTE DE MERCANCÍAS POR CARRETERA. F) SERVICIO DE INTERMEDIACIÓN EN COMPRAVENTA DE TODO TIPO DE MADERA. G) SERVICIO DE LIMPIEZA Y REFORESTACIÓN DE BOSQUES. H) SERVICIO DE GESTIÓN Y PLANIFICACIÓN SOSTENIBLE DE BOSQUES. ESTUDIOS, TASACIONES, PLANES DE VIABILIDAD DE PLANTACIONES. FOMENTO DE ACTIVIDADES FORESTALES AMBIENTALMENTE FIABLES Y SOSTENIBLES. PLANES DE ACTUACIÓN EN FINCAS ABANDONADAS. I) REALIZACIÓN DE ESTUDIOS DE CULTIVOS ADECUADOS A LA ZONA O FINCA A TRATAR. J) SERVICIOS DE CULTIVO Y CUIDADO DE FINCAS. K) ESTUDIO DE LA CALIDAD DEL SUELO, ANÁLISIS DE TIERRAS Y PLAGAS. L) TAREAS ADMINISTRATIVAS AL SERVICIO DE LOS PROPIETARIOS DE FINCAS (SUBVENCIONES, INTERVENCIÓN CON LAS ADMINISTRACIONES). M) MANTENIMIENTO Y CUIDADO DE FINCAS. N) APROVECHAMIENTO DE RECURSOS ENERGÉTICOS SOSTENIBLES PARA SERVICIOS A LA COMUNIDAD (ESTACIÓN DE SERVICIO ELÉCTRICA, PLACAS SOLARES PARA CUBRIR NECESIDADES, BICIS, MOTOS, COCHES). O) ALQUILER DE MAQUINARIA SOSTENIBLE (MOTOS, COCHES, BICIS ELÉCTRICAS) PARA USUARIOS Y OTRAS ENTIDADES, HOTELES, CASAS RURALES. P) SERVICIOS DE PROSPECCIÓN MEDIANTE LA UTILIZACIÓN DE DRONES, TANTO EN EL SECTOR AGROFORESTAL COMO EN OTRAS DISCIPLINAS. Q) SERVICIO INTEGRAL Y CUIDADO Y LIMPIEZA DE FINCAS, CASERÍOS, LIMPIEZAS FIN DE OBRA, POR MUDANZAS, MANTENIMIENTO DE FINCAS, COMUNIDADES, VIVIENDAS Y LOCALES, GARAJES Y SUELOS",
      "mainEntityOfPage": "https://www.contratacion.euskadi.eus/webkpe00-kperoc/es/ac71aBusquedaRegistrosWar/empresa/07072",
      "_links": {
        "self": {
          "name": "SERVICIOS URRALTU, S.L.",
          "href": "https://api.euskadi.eus/procurements/companies/07072"
        }
      }
    },
    {
      "name": "IKERPARTNERS, S.L.",
      "registrationNumber": "05146",
      "identificationNumber": "B75055210",
      "address": "PASEO DE TXINGURRI, 28-4ª PLANTA",
      "location": {
        "postalCode": "20017",
        "municipality": "Donostia / San Sebastián",
        "county": "Gipuzkoa",
        "municipalityId": "069",
        "countyId": "20"
      },
      "economicActivities": [
        {
          "id": "1.847",
          "name": "Servicios de consultoría",
          "_links": {
            "self": {
              "name": "Servicios de consultoría",
              "href": "https://api.euskadi.eus/procurements/companies/economic-activities/1.847"
            }
          }
        },
        {
          "id": "1.991",
          "name": "Prestación de servicios por sociedades de desarrollo industrial",
          "_links": {
            "self": {
              "name": "Prestación de servicios por sociedades de desarrollo industrial",
              "href": "https://api.euskadi.eus/procurements/companies/economic-activities/1.991"
            }
          }
        }
      ],
      "certificateStartDate": "2021-04-15",
      "certificateEndDate": "2020-12-05",
      "object": "1. CONTRIBUIR A LA MEJORA DE LA EFICIENCIA DE LAS INSTITUCIONES DEL SECTOR PÚBLICO, TANTO A NIVEL REGIONAL COMO NACIONAL E INTERNACIONAL, MEDIANTE TRABAJOS DE APOYO ESTRATÉGICO, ASISTENCIA TÉCNICA, ASESORAMIENTO Y GESTIÓN DE ALTA DIRECCIÓN, DISEÑO DE PROYECTOS DE INNOVACIÓN SOCIAL Y FORTALECIMIENTO DEL CAPITAL HUMANO... E IMPLEMENTACIÓN DE UNA ESTRATEGIA DE ALIANZA PÚBLICO-PRIVADA PARA EL AVANCE DE LOS SEÑALADO EN EL EPÍGRAFE 2. IMPULSAR LA PROMOCIÓN Y DESARROLLO EMPRESARIAL EN DIVERSOS SECTORES ECONÓMICOS: CULTURA, CONOCIMIENTO, EDUCACIÓN/FORMACIÓN, COMERCIO Y TURISMO Y TANTO A NIVEL REGIONAL COMO NACIONAL E INTERNACIONAL (PARTICULARMENTE EN AMERICA LATINA).\r\n3. DENTRO DE ESA PERSPECTIVA DE ALIANZA PÚBLICO-PRIVADA, Y EN EL ÁMBITO ECONÓMICO-FINANCIERO SE CONTRIBUIRÁ AL DESARROLLO DE ACTIVIDAES DE ASESORAMIENTO Y GESTIÓN, SERVICIOS CORPORATIVOS DE FORTALECIMEINTO ORGANIZATIVO, CONSULTORÍA DE CAPITAL RIESGO/CRÉDITOS PARTICIPATIVOS, CAPTACIÓN DE FONDOS VÍA PATROCINIO/MECENAZGO Y A LA COLABORACIÓN/PROMICÍÓN DE REDES DE BUSINESS ANGELS. 4. EL DESARROLLO DE PROYECTOS DE INNOVACIÓN SOCIAL, CONTEMPLARÁ:\r\nA) LA IDENTIFICACIÓN DE PROYECTOS DE INTERÉS EN LOS SECTORES SEÑALADOS EN EL EPÍGRAFE 2, CON EL APOYO DE SOCI@S Y CONSULTOR@S DE SU PLANTILLA, Y DE EMPRESAS PARTICIPADAS. B) LA BÚSQUEDA E INCORPORACIÓN DE DIVERSOS SOCIOS (PARTNERS) A LA ESTRUCTURA SOCIETARIA PARA EL DESARROLLO DE DIVERSOS PROYECTOS COMPLEJOS, TALES COMO:\r\n -IKERMARKET: OFERTA INTEGRAL DE SERVICIOS A LAS EMPRESAS EN SOPORTE ON LINE Y PRESENCIAL.\r\n- IVAEC INSTITUTO VIRTUAL DE APRENDIZAJE Y EVALUACIÓN DE COMPETENCIAS.\r\n- KNOWLEDGE FEDERATION: FORTALECIMIENTO DE ACTIVIDADES GENERADORAS DE REDES EMPRESARIALES PRINCIPALMENTE EN AMÉRICA LATINA.\r\n - FEDERACIÓN DE  CONOCIMIENTO 2.0.: DESARROLLO EN INTERNET DEL PROYECTO KNOWLEDGE FEDERATION\r\n - BUSINESS ANGELS EN EL SECTOR CULTURAL Y DE EMPRESAS CREATIVAS Y DEL CONOCIMIENTO.\r\n- CONSORTIUM: MARCO DE ALIANZAS PARA EL DESARROLLO DE PROYECTOS ESTADÍSTICOS Y DE OPINIÓN PÚBLICA EN EL ÁMBITO NACIONAL E INTERNACIONAL.\r\n",
      "mainEntityOfPage": "https://www.contratacion.euskadi.eus/webkpe00-kperoc/es/ac71aBusquedaRegistrosWar/empresa/05146",
      "_links": {
        "self": {
          "name": "IKERPARTNERS, S.L.",
          "href": "https://api.euskadi.eus/procurements/companies/05146"
        }
      }
    },
    {
      "name": "T2 VITORIA, S.A.",
      "registrationNumber": "07590",
      "identificationNumber": "A01166438",
      "address": "ARROXETA S/N",
      "location": {
        "postalCode": "01015",
        "municipality": "Vitoria-Gasteiz",
        "county": "Araba/Álava",
        "municipalityId": "059",
        "countyId": "01"
      },
      "economicActivities": [
        {
          "id": "1.722",
          "name": "Transporte de mercancías por carretera",
          "_links": {
            "self": {
              "name": "Transporte de mercancías por carretera",
              "href": "https://api.euskadi.eus/procurements/companies/economic-activities/1.722"
            }
          }
        },
        {
          "id": "1.756",
          "name": "Intermediarios del transporte",
          "_links": {
            "self": {
              "name": "Intermediarios del transporte",
              "href": "https://api.euskadi.eus/procurements/companies/economic-activities/1.756"
            }
          }
        }
      ],
      "certificateStartDate": "2021-04-15",
      "certificateEndDate": "2021-10-09",
      "object": "AGENCIA DE TRANSPORTES DE CARGA FRACCIONADA",
      "mainEntityOfPage": "https://www.contratacion.euskadi.eus/webkpe00-kperoc/es/ac71aBusquedaRegistrosWar/empresa/07590",
      "_links": {
        "self": {
          "name": "T2 VITORIA, S.A.",
          "href": "https://api.euskadi.eus/procurements/companies/07590"
        }
      }
    },
    {
      "name": "VISUAL PRINT SERVICES, S.A.",
      "registrationNumber": "07591",
      "identificationNumber": "A66396235",
      "address": "C/ SANT ANTONI MARIA CLARET, 271, ENTLO",
      "location": {
        "postalCode": "08041",
        "municipality": "Barcelona",
        "county": "Barcelona",
        "municipalityId": "019",
        "countyId": "08"
      },
      "economicActivities": [
        {
          "id": "1.659.4",
          "name": "Venta al por menor de libros, periódicos y artículos de papelería y escritorio",
          "_links": {
            "self": {
              "name": "Venta al por menor de libros, periódicos y artículos de papelería y escritorio",
              "href": "https://api.euskadi.eus/procurements/companies/economic-activities/1.659.4"
            }
          }
        }
      ],
      "certificateStartDate": "2021-04-15",
      "certificateEndDate": "2021-08-26",
      "object": "1.- LA FABRICACIÓN, DISTRIBUCIÓN Y VENTA DE MATERIAS GRÁFICAS, REPROGRAFÍA, CONSUMIBLES INFORMÁTICOS Y PEQUEÑOS APARATOS DE ALIMENTACIÓN Y FARMACIA. 2.- LA COMPRA-VENTA Y DISTRIBUCIÓN DE MATERIAL PARA LA PREVENCIÓN DE RIESGOS LABORALES, APARATOS DE MEDIDA, CONTROL O PRECISIÓN",
      "mainEntityOfPage": "https://www.contratacion.euskadi.eus/webkpe00-kperoc/es/ac71aBusquedaRegistrosWar/empresa/07591",
      "_links": {
        "self": {
          "name": "VISUAL PRINT SERVICES, S.A.",
          "href": "https://api.euskadi.eus/procurements/companies/07591"
        }
      }
    }
  ]
}