{
  "totalItems": 9042,
  "totalPages": 905,
  "currentPage": 127,
  "itemsOfPage": 10,
  "items": [
    {
      "name": "STRATENERGY, S.L.",
      "registrationNumber": "05452",
      "identificationNumber": "B95778486",
      "address": "Parque Científico y Tecnológico de Bizkaia, Edif. 614 - Astondo Bidea",
      "location": {
        "postalCode": "48160",
        "municipality": "Derio",
        "county": "Bizkaia",
        "municipalityId": "901",
        "countyId": "48"
      },
      "economicActivities": [
        {
          "id": "1.504.11",
          "name": "Instalaciones eléctricas en general, redes telegráficas, telefonía, tv, etc",
          "_links": {
            "self": {
              "name": "Instalaciones eléctricas en general, redes telegráficas, telefonía, tv, etc",
              "href": "https://api.euskadi.eus/procurements/companies/economic-activities/1.504.11"
            }
          }
        },
        {
          "id": "1.831.9",
          "name": "Otros servicios financieros n.c.o.p",
          "_links": {
            "self": {
              "name": "Otros servicios financieros n.c.o.p",
              "href": "https://api.euskadi.eus/procurements/companies/economic-activities/1.831.9"
            }
          }
        }
      ],
      "certificateStartDate": "2025-12-09",
      "certificateEndDate": "2026-06-03",
      "object": "- LA REALIZACIÓN DE TODO TIPO DE OBRAS, SERVICIOS E INSTALACIONES, CON ESPECIAL ATENCIÓN AL SECTOR ELÉCTRICO Y ENERGÉTICO.\n- SERVICIOS DE ASESORAMIENTO, CONSULTORÍA, AUDITORIA ENERGÉTICA Y REALIZACIÓN DE ESTUDIOS EN MATERIA DE EFICIENCIA ENERGÉTICA CON EL OBJETO DE OPTIMIZAR LA CALIDAD Y LA REDUCCIÓN DE COSTES ENERGÉTICOS.\n- LA ADQUISICIÓN, TENENCIA, ADMINISTRACIÓN Y DISPOSICIÓN DE ACCIONES, PARTICIPACIONES SOCIALES E INTERESES EN SOCIEDADES MERCANTILES EN GENERAL.\n",
      "mainEntityOfPage": "https://www.contratacion.euskadi.eus/webkpe00-kperoc/es/ac71aBusquedaRegistrosWar/empresa/05452",
      "_links": {
        "self": {
          "name": "STRATENERGY, S.L.",
          "href": "https://api.euskadi.eus/procurements/companies/05452"
        }
      }
    },
    {
      "name": "EGALECO LAB S. COOP.",
      "registrationNumber": "09145",
      "identificationNumber": "F01609809",
      "address": "Camino Vera, 43, n.º 1",
      "location": {
        "postalCode": "30813",
        "municipality": "Lorca",
        "county": "Murcia",
        "municipalityId": "024",
        "countyId": "30"
      },
      "economicActivities": [
        {
          "id": "1.843.9",
          "name": "Otros servicios técnicos n.c.o.p",
          "_links": {
            "self": {
              "name": "Otros servicios técnicos n.c.o.p",
              "href": "https://api.euskadi.eus/procurements/companies/economic-activities/1.843.9"
            }
          }
        },
        {
          "id": "1.846",
          "name": "Empresas de estudios de mercado",
          "_links": {
            "self": {
              "name": "Empresas de estudios de mercado",
              "href": "https://api.euskadi.eus/procurements/companies/economic-activities/1.846"
            }
          }
        },
        {
          "id": "1.849.3",
          "name": "Servicios de traducción y similares",
          "_links": {
            "self": {
              "name": "Servicios de traducción y similares",
              "href": "https://api.euskadi.eus/procurements/companies/economic-activities/1.849.3"
            }
          }
        }
      ],
      "certificateStartDate": "2025-12-09",
      "certificateEndDate": "2026-06-01",
      "object": "CONSULTORÍA, ASESORAMIENTO E INFORMES DE RESULTADOS NO FINANCIEROS (RSE/RSC), ESTUDIOS DE IGUALDAD, TRADUCCIÓN E INTERPRETACIÓN E INVESTIGACIÓN. TELEMARKETING, CONTAC CENTER, DISEÑO GRÁFICO, SERVICIOS DE PUBLICIDAD, RELACIONES PÚBLICAS Y SIMILARES. LA REALIZACIÓN DE ACTIVIDADES DE INTERNET, ASÍ COMO SUMINISTROS DE INFORMACIÓN Y FORMACIÓN. ORGANIZACIÓN TELEFÓNICA DE EVENTOS. EXPLOTACIÓN ELECTRÓNICA. INFORMÁTICA. GESTIÓN COMERCIAL Y TÉCNICA. INVESTIGACIÓN DE I+D. SERVICIOS DE PROCESOS CON CARGA INNOVADORA. SERVICIOS DE EMPRESAS, JURÍDICO, LABORAL, FINANCIERO Y CONTABLE. ADMINISTRACIÓN DE EMPRESAS, COMUNIDADES DE PROPIETARIOS, OTROS SERVICIOS INDEPENDIENTES DE ASESORÍA. SERVICIOS DE MECANOGRAFÍA Y GESTIÓN ADMINISTRATIVA. CONSTRUCCIÓN Y PROMOCIÓN DE EDIFICIOS Y TERRENOS. RESTAURACIÓN Y HOSTELERÍA. ARRENDAMIENTO DE TODO TIPO. TRANSPORTE DE MERCANCÍAS POR CARRETERA. IMPORTACIÓN Y EXPORTACIÓN. COMERCIO MENOR Y MAYOR DE TODO TIPO DE PRODUCTOS. LIMPIEZAS EN GENERAL. COMUNICACIÓN.",
      "mainEntityOfPage": "https://www.contratacion.euskadi.eus/webkpe00-kperoc/es/ac71aBusquedaRegistrosWar/empresa/09145",
      "_links": {
        "self": {
          "name": "EGALECO LAB S. COOP.",
          "href": "https://api.euskadi.eus/procurements/companies/09145"
        }
      }
    },
    {
      "name": "NCUENTRA BILA, S.L.",
      "registrationNumber": "10467",
      "identificationNumber": "B95864302",
      "address": "Calle Lamana (48003), 3, 5D",
      "location": {
        "postalCode": "48003",
        "municipality": "Bilbao",
        "county": "Bizkaia",
        "municipalityId": "020",
        "countyId": "48"
      },
      "economicActivities": [
        {
          "id": "1.847",
          "name": "Servicios de consultoría",
          "_links": {
            "self": {
              "name": "Servicios de consultoría",
              "href": "https://api.euskadi.eus/procurements/companies/economic-activities/1.847"
            }
          }
        },
        {
          "id": "1.934",
          "name": "Enseñanza fuera de establecimiento permanente",
          "_links": {
            "self": {
              "name": "Enseñanza fuera de establecimiento permanente",
              "href": "https://api.euskadi.eus/procurements/companies/economic-activities/1.934"
            }
          }
        }
      ],
      "certificateStartDate": "2025-12-09",
      "certificateEndDate": "2026-06-05",
      "object": "PRESTACIÓN DE SERVICIOS PARA ESTUDIOS, ASESORÍAS, CONSULTORÍAS Y ACOMPAÑAMIENTO A LA GESTIÓN, FORMACIÓN Y DESARROLLO DE TODO TIPO DE ORGANIZACIONES Y PERSONAS FÍSICAS O JURÍDICAS EN LOS PLANOS VASCO, ESTATAL E INTERNACIONAL, EN LAS DIFERENTES ÁREAS TEMÁTICAS QUE SE CITAN A CONTINUACIÓN Y OTRAS DE SIMILAR ORIENTACIÓN: GESTIÓN ESTRATÉGICA, GESTIÓN DE PERSONAS, IGUALDAD DE MUJERES Y HOMBRES, DIVERSIDAD, COMUNICACIÓN INTERNA Y EXTERNA, RESPONSABILIDAD SOCIAL CORPORATIVA, PUBLICIDAD Y SERVICIOS DE MARKETING, REDES SOCIALES, HERRAMIENTAS PARA LA COMUNICACIÓN Y LA EDUCACIÓN, ANÁLISIS DEL MERCADO Y EL ENTORNO, ELABORACIÓN DE PROYECTOS, EMPRENDIZAJE, PSICOLOGÍA APLICADA, DESARROLLO DE POLÍTICAS PÚBLICAS, DESARROLLO DE HABILIDADES PERSONALES Y PROFESIONALES, COACHING, ETC.",
      "mainEntityOfPage": "https://www.contratacion.euskadi.eus/webkpe00-kperoc/es/ac71aBusquedaRegistrosWar/empresa/10467",
      "_links": {
        "self": {
          "name": "NCUENTRA BILA, S.L.",
          "href": "https://api.euskadi.eus/procurements/companies/10467"
        }
      }
    },
    {
      "name": "DESMA ESTUDIOS AMBIENTALES, S.L.",
      "registrationNumber": "07026",
      "identificationNumber": "B31870280",
      "address": "Calle Latsagako Bidea, 1, 2º dcha.",
      "location": {
        "postalCode": "31745",
        "municipality": "Ituren",
        "county": "Navarra",
        "municipalityId": "129",
        "countyId": "31"
      },
      "economicActivities": [
        {
          "id": "2.011",
          "name": "Doctores y licenciados en ciencias biológicas",
          "_links": {
            "self": {
              "name": "Doctores y licenciados en ciencias biológicas",
              "href": "https://api.euskadi.eus/procurements/companies/economic-activities/2.011"
            }
          }
        }
      ],
      "certificateStartDate": "2025-12-08",
      "certificateEndDate": "2026-06-08",
      "object": "LA INVESTIGACIÓN EN RECURSOS NATURALES; REALIZACIÓN DE MUESTREOS E INVENTARIOS DE FAUNA; PLANES DE GESTIÓN DE FAUNA AMENAZADA; GESTIÓN DE RECURSOS FORESTALES; ASESORÍA TÉCNICA EN MATERIA DE EVALUACIÓN DE IMPACTO AMBIENTAL; EDUCACIÓN Y DIVULGACIÓN MEDIOAMBIENTAL; TODO TIPO DE TRABAJOS RELACIONADOS CON LA BIOLOGÍA",
      "mainEntityOfPage": "https://www.contratacion.euskadi.eus/webkpe00-kperoc/es/ac71aBusquedaRegistrosWar/empresa/07026",
      "_links": {
        "self": {
          "name": "DESMA ESTUDIOS AMBIENTALES, S.L.",
          "href": "https://api.euskadi.eus/procurements/companies/07026"
        }
      }
    },
    {
      "name": "GESTIO I PROMOCIO AEROPORTUARIA, S.A.",
      "registrationNumber": "09948",
      "identificationNumber": "A61932471",
      "address": "AVINGUDA DIAGONAL 452  ",
      "location": {
        "postalCode": "08006",
        "municipality": "Barcelona",
        "county": "Barcelona",
        "municipalityId": "019",
        "countyId": "08"
      },
      "economicActivities": [
        {
          "id": "1.753.5",
          "name": "Explotación integral de aeropuertos",
          "_links": {
            "self": {
              "name": "Explotación integral de aeropuertos",
              "href": "https://api.euskadi.eus/procurements/companies/economic-activities/1.753.5"
            }
          }
        },
        {
          "id": "1.846",
          "name": "Empresas de estudios de mercado",
          "_links": {
            "self": {
              "name": "Empresas de estudios de mercado",
              "href": "https://api.euskadi.eus/procurements/companies/economic-activities/1.846"
            }
          }
        }
      ],
      "certificateStartDate": "2025-12-07",
      "certificateEndDate": "2026-06-07",
      "object": "- LA PROMOCIÓN Y DESARROLLO DEL AEROPUERTO DE BARCELONA EN GENERAL Y ESPECIALMENTE COMO CENTRO DE CARGA AÉREA. - LA PROMOCIÓN Y DESARROLLO DE LA INDUSTRIA DEL TRANSPORTE AÉREO TANTO DE PERSONAS Y SUS EQUIPAJES COMO DE MERCANCÍAS. - LA GESTIÓN Y EXPLOTACIÓN DE SERVICIOS AEROPORTUARIOS, EN CUALQUIER AEROPUERTO, RELACIONADOS CON EL TRÁFICO Y LA ATENCIÓN A PASAJEROS, EQUIPAJES Y MERCANCÍAS, ASÍ COMO EL MANTENIMIENTO Y ATENCIÓN DE INSTALACIONES Y AERONAVES. - LA GESTIÓN Y EXPLOTACIÓN DE SERVICIOS COMPLEMENTARIOS O AUXILIARES DE LA ACTIVIDAD DE TRANSPORTE EN TODAS SUS MODALIDADES, LOGÍSTICA, ESTIBA Y DESESTIBA, TRÁNSITO, CONSOLIDACIÓN Y DESCONSOLIDACIÓN DE CARGAS Y CUALQUIER OTRO, YA SEA EN RECINTOS AEROPORTUARIOS O FUERA DE ELLOS.",
      "mainEntityOfPage": "https://www.contratacion.euskadi.eus/webkpe00-kperoc/es/ac71aBusquedaRegistrosWar/empresa/09948",
      "_links": {
        "self": {
          "name": "GESTIO I PROMOCIO AEROPORTUARIA, S.A.",
          "href": "https://api.euskadi.eus/procurements/companies/09948"
        }
      }
    },
    {
      "name": "HAURTZAROA, EDUCACIÓN SOCIAL, S.L.",
      "registrationNumber": "03001",
      "identificationNumber": "B01345107",
      "address": "ARROLA, 5",
      "location": {
        "postalCode": "01400",
        "municipality": "Laudio/Llodio",
        "county": "Araba/Álava",
        "municipalityId": "036",
        "countyId": "01"
      },
      "economicActivities": [
        {
          "id": "1.951",
          "name": "Asistencia y servicios sociales en centros residenciales",
          "_links": {
            "self": {
              "name": "Asistencia y servicios sociales en centros residenciales",
              "href": "https://api.euskadi.eus/procurements/companies/economic-activities/1.951"
            }
          }
        }
      ],
      "certificateStartDate": "2025-12-06",
      "certificateEndDate": "2026-06-06",
      "object": "LA EDUCACIÓN SOCIAL, ÉSTAS ACTIVIDADES PODRÁN TAMBIÉN SER DESARROLLADAS POR LA SOCIEDAD, TOTAL O PARCIALMENTE, DE MODO INDIRECTO, MEDIANTE LA PARTICIPACIÓN EN OTRAS SOCIEDADES DE IDÉNTICO O ANÁLOGO OBJETO",
      "mainEntityOfPage": "https://www.contratacion.euskadi.eus/webkpe00-kperoc/es/ac71aBusquedaRegistrosWar/empresa/03001",
      "_links": {
        "self": {
          "name": "HAURTZAROA, EDUCACIÓN SOCIAL, S.L.",
          "href": "https://api.euskadi.eus/procurements/companies/03001"
        }
      }
    },
    {
      "name": "ALEJANDRO BARRAGAN PUERTO",
      "registrationNumber": "10245",
      "identificationNumber": "53735417B",
      "address": "C/ LA CRUZ Nº 45",
      "location": {
        "postalCode": "06410",
        "municipality": "Santa Amalia",
        "county": "Badajoz",
        "municipalityId": "120",
        "countyId": "06"
      },
      "economicActivities": [
        {
          "id": "1.856.1",
          "name": "Alquiler de bienes de consumo",
          "_links": {
            "self": {
              "name": "Alquiler de bienes de consumo",
              "href": "https://api.euskadi.eus/procurements/companies/economic-activities/1.856.1"
            }
          }
        },
        {
          "id": "1.966.9",
          "name": "Otros servicios culturales n.c.o.p",
          "_links": {
            "self": {
              "name": "Otros servicios culturales n.c.o.p",
              "href": "https://api.euskadi.eus/procurements/companies/economic-activities/1.966.9"
            }
          }
        }
      ],
      "certificateStartDate": "2025-12-05",
      "certificateEndDate": "2026-06-05",
      "object": "ALQUILER DE BIENES DE CONSUMO. OTROS SERVICIOS CULTURALES N.C.O.P.",
      "mainEntityOfPage": "https://www.contratacion.euskadi.eus/webkpe00-kperoc/es/ac71aBusquedaRegistrosWar/empresa/10245",
      "_links": {
        "self": {
          "name": "ALEJANDRO BARRAGAN PUERTO",
          "href": "https://api.euskadi.eus/procurements/companies/10245"
        }
      }
    },
    {
      "name": "SANTIAGO PEÑALBA GARMENDIA",
      "registrationNumber": "07526",
      "identificationNumber": "15919408G",
      "address": "Camino Portuetxe 63, 3ºA",
      "location": {
        "postalCode": "20018",
        "municipality": "Donostia / San Sebastián",
        "county": "Gipuzkoa",
        "municipalityId": "069",
        "countyId": "20"
      },
      "economicActivities": [
        {
          "id": "2.411",
          "name": "Arquitectos",
          "_links": {
            "self": {
              "name": "Arquitectos",
              "href": "https://api.euskadi.eus/procurements/companies/economic-activities/2.411"
            }
          }
        }
      ],
      "certificateStartDate": "2025-12-05",
      "certificateEndDate": "2026-05-17",
      "object": "ARQUITECTOS",
      "mainEntityOfPage": "https://www.contratacion.euskadi.eus/webkpe00-kperoc/es/ac71aBusquedaRegistrosWar/empresa/07526",
      "_links": {
        "self": {
          "name": "SANTIAGO PEÑALBA GARMENDIA",
          "href": "https://api.euskadi.eus/procurements/companies/07526"
        }
      }
    },
    {
      "name": "NM SOLUZIOAK, S.L.",
      "registrationNumber": "10244",
      "identificationNumber": "B75108738",
      "address": "Baxoalde 9, 1ºA",
      "location": {
        "postalCode": "20810",
        "municipality": "Orio",
        "county": "Gipuzkoa",
        "municipalityId": "061",
        "countyId": "20"
      },
      "economicActivities": [
        {
          "id": "1.504.1",
          "name": "Instalaciones eléctricas en general",
          "_links": {
            "self": {
              "name": "Instalaciones eléctricas en general",
              "href": "https://api.euskadi.eus/procurements/companies/economic-activities/1.504.1"
            }
          }
        }
      ],
      "certificateStartDate": "2025-12-05",
      "certificateEndDate": "2026-06-04",
      "object": "- ELECTRICIDAD, FONTANERÍA Y TRABAJOS DE CONSTRUCCIÓN. - COORDINACIÓN DE GREMIOS. - INGENIERÍA Y PROYECTOS. - COMPRA-VENTA, MANTENIMIENTO Y REPARACIÓN DE MAQUINARIA, APARATOS ELÉCTRICOS Y REPUESTOS DE TODO TIPO. - INTERMEDIARIO DE COMERCIO. - ADMINISTRACIÓN DE FINCAS.",
      "mainEntityOfPage": "https://www.contratacion.euskadi.eus/webkpe00-kperoc/es/ac71aBusquedaRegistrosWar/empresa/10244",
      "_links": {
        "self": {
          "name": "NM SOLUZIOAK, S.L.",
          "href": "https://api.euskadi.eus/procurements/companies/10244"
        }
      }
    },
    {
      "name": "ALBAÑILERIA DURAN, S.L.",
      "registrationNumber": "03585",
      "identificationNumber": "B01115385",
      "address": "C/ PORTAL DE ARRIAGA 17 BJ",
      "location": {
        "postalCode": "01012",
        "municipality": "Vitoria-Gasteiz",
        "county": "Araba/Álava",
        "municipalityId": "059",
        "countyId": "01"
      },
      "economicActivities": [
        {
          "id": "1.501.3",
          "name": "Albañilería y pequeños trabajos de construcción en general",
          "_links": {
            "self": {
              "name": "Albañilería y pequeños trabajos de construcción en general",
              "href": "https://api.euskadi.eus/procurements/companies/economic-activities/1.501.3"
            }
          }
        },
        {
          "id": "1.849.7",
          "name": "Servicios de gestión administrativa",
          "_links": {
            "self": {
              "name": "Servicios de gestión administrativa",
              "href": "https://api.euskadi.eus/procurements/companies/economic-activities/1.849.7"
            }
          }
        }
      ],
      "certificateStartDate": "2025-12-05",
      "certificateEndDate": "2026-05-28",
      "object": "LA ADQUISICIÓN, URBANIZACIÓN, PARCELACIÓN, CONSTRUCCIÓN, EDIFICACIÓN, CONSTITUCIÓN EN PROPIEDAD HORIZONTAL, REFORMA, REHABILITACIÓN, AMPLIACIÓN, EXPLOTACIÓN DIRECTA O INDIRECTAMENTE, ENAJENACIÓN, Y, EN GENERAL TODA ACTIVIDAD RELATIVA A BIENES INMUEBLES, ASÍ RÚSTICOS, COMO URBANOS, LA REALIZACIÓN DE OBRAS, TANTO PÚBLICAS COMO PRIVADAS, Y TODA SUERTE DE INVERSIONES Y PROMOCIONES RELACIONADAS CON EL RAMO DE LA CONSTRUCCIÓN.",
      "mainEntityOfPage": "https://www.contratacion.euskadi.eus/webkpe00-kperoc/es/ac71aBusquedaRegistrosWar/empresa/03585",
      "_links": {
        "self": {
          "name": "ALBAÑILERIA DURAN, S.L.",
          "href": "https://api.euskadi.eus/procurements/companies/03585"
        }
      }
    }
  ]
}