{
  "totalItems": 9042,
  "totalPages": 905,
  "currentPage": 372,
  "itemsOfPage": 10,
  "items": [
    {
      "name": "GEOBUZON, S.L.",
      "registrationNumber": "09502",
      "identificationNumber": "B56329295",
      "address": "CALLE HIERRO, Nº33",
      "location": {
        "postalCode": "28045",
        "municipality": "Madrid",
        "county": "Madrid",
        "municipalityId": "079",
        "countyId": "28"
      },
      "economicActivities": [
        {
          "id": "1.844",
          "name": "Servicios de publicidad, relaciones públicas y similares",
          "_links": {
            "self": {
              "name": "Servicios de publicidad, relaciones públicas y similares",
              "href": "https://api.euskadi.eus/procurements/companies/economic-activities/1.844"
            }
          }
        }
      ],
      "certificateStartDate": "2025-02-05",
      "certificateEndDate": "2025-03-07",
      "object": "PRESTACIÓN DE SERVICIOS DE PUBLICIDAD, DISTRIBUCIÓN DE FOLLETOS PUBLICITARIOS, SERVICIOS DE MENSAJERÍA EN GENERAL, ASÍ COMO SERVICIOS DE RELACIONES PÚBLICAS.",
      "mainEntityOfPage": "https://www.contratacion.euskadi.eus/webkpe00-kperoc/es/ac71aBusquedaRegistrosWar/empresa/09502",
      "_links": {
        "self": {
          "name": "GEOBUZON, S.L.",
          "href": "https://api.euskadi.eus/procurements/companies/09502"
        }
      }
    },
    {
      "name": "JOHNSON & JOHNSON, S.A.",
      "registrationNumber": "00402",
      "identificationNumber": "A28218675",
      "address": "Pº DOCE ESTRELLAS, 5-7. CAMPO DE LAS NACIONES.",
      "location": {
        "postalCode": "28042",
        "municipality": "Madrid",
        "county": "Madrid",
        "municipalityId": "079",
        "countyId": "28"
      },
      "economicActivities": [
        {
          "id": "1.613.3",
          "name": "Venta al por mayor de prendas exteriores de vestir",
          "_links": {
            "self": {
              "name": "Venta al por mayor de prendas exteriores de vestir",
              "href": "https://api.euskadi.eus/procurements/companies/economic-activities/1.613.3"
            }
          }
        },
        {
          "id": "1.619.2",
          "name": "Venta al por mayor de aparatos e instrumentos médicos, ortopédicos, ópticos",
          "_links": {
            "self": {
              "name": "Venta al por mayor de aparatos e instrumentos médicos, ortopédicos, ópticos",
              "href": "https://api.euskadi.eus/procurements/companies/economic-activities/1.619.2"
            }
          }
        },
        {
          "id": "1.619.7",
          "name": "Venta al por mayor de instrumentos de precisión, medida y similares",
          "_links": {
            "self": {
              "name": "Venta al por mayor de instrumentos de precisión, medida y similares",
              "href": "https://api.euskadi.eus/procurements/companies/economic-activities/1.619.7"
            }
          }
        },
        {
          "id": "1.619.9",
          "name": "Venta al por mayor de otros productos n.c.o.p",
          "_links": {
            "self": {
              "name": "Venta al por mayor de otros productos n.c.o.p",
              "href": "https://api.euskadi.eus/procurements/companies/economic-activities/1.619.9"
            }
          }
        },
        {
          "id": "1.843.9",
          "name": "Otros servicios técnicos n.c.o.p",
          "_links": {
            "self": {
              "name": "Otros servicios técnicos n.c.o.p",
              "href": "https://api.euskadi.eus/procurements/companies/economic-activities/1.843.9"
            }
          }
        },
        {
          "id": "1.859",
          "name": "Alquiler de otros bienes muebles n.c.o.p. (sin personal permanente)",
          "_links": {
            "self": {
              "name": "Alquiler de otros bienes muebles n.c.o.p. (sin personal permanente)",
              "href": "https://api.euskadi.eus/procurements/companies/economic-activities/1.859"
            }
          }
        }
      ],
      "certificateStartDate": "2025-02-04",
      "certificateEndDate": "2025-08-04",
      "object": "a) LA REALIZACIÓN DE ESTUDIOS ECONÓMICOS. b) LA PROMOCIÓN DE VENTAS DE TODO TIPO DE PRODUCTOS POR CUENTA DE TERCEROS. c) LA FABRICACIÓN, DISTRIBUCIÓN Y COMERCIALIZACIÓN DE PRODUCTOS QUÍMICOS, COSMÉTICOS Y TEXTILES. d) LA IMPORTACIÓN Y EXPORTACIÓN DE TODA CLASE DE PRODUCTOS Y MATERIAS PRIMAS. e) LA FABRICACIÓN, DISTRIBUCIÓN Y COMERCIALIZACIÓN DE PRODUCTOS ALIMENTICIOS Y DE PRODUCTOS FARMACÉUTICOS. f) LA FABRICACIÓN, DISTRIBUCIÓN Y COMERCIALIZACIÓN DE PRODUCTOS SANITARIOS. g) EL ALQUILER Y CESIÓN A TERCEROS DE MAQUINARIAS Y BIENES DE EQUIPO Y EL MANTENIMIENTO Y ASISTENCIA TÉCNICA DE DICHAS MAQUINARIAS Y BIENES DE EQUIPO. h) LA FABRICACIÓN, DISTRIBUCIÓN Y/O COMERCIALIZACIÓN DE PRODUCTOS DESTINADOS AL CUIDADO DE LA SALUD. i) LA FABRICACIÓN, DISTRIBUCIÓN Y/O COMERCIALIZACIÓN DE PRODUCTOS HIGIÉNICOS. j) LA FABRICACIÓN, DISTRIBUCIÓN Y/O COMERCIALIZACIÓN DE PRODUCTOS Y EQUIPOS DE USO PROFESIONAL EN LOS SECTORES MÉDICO Y SANITARIO. k) LA PRESTACIÓN DE SERVICIOS LOGÍSTICOS Y DE ADMINISTRACIÓN DE NEGOCIOS. l) LA COMPRA Y ADMINISTRACIÓN DE BIENES MUEBLES E INMUEBLES NECESARIOS PARA EL DESARROLLO Y EJECUCIÓN DE LAS ACTIVIDADES SEÑALADAS",
      "mainEntityOfPage": "https://www.contratacion.euskadi.eus/webkpe00-kperoc/es/ac71aBusquedaRegistrosWar/empresa/00402",
      "_links": {
        "self": {
          "name": "JOHNSON & JOHNSON, S.A.",
          "href": "https://api.euskadi.eus/procurements/companies/00402"
        }
      }
    },
    {
      "name": "MATEO REGLA DORRONSORO",
      "registrationNumber": "08144",
      "identificationNumber": "72512883R",
      "address": "paseo ulia 88-2º",
      "location": {
        "postalCode": "20013",
        "municipality": "Donostia / San Sebastián",
        "county": "Gipuzkoa",
        "municipalityId": "069",
        "countyId": "20"
      },
      "economicActivities": [
        {
          "id": "2.099",
          "name": "Otros profesionales relacionados con la agricultura y la ganadería",
          "_links": {
            "self": {
              "name": "Otros profesionales relacionados con la agricultura y la ganadería",
              "href": "https://api.euskadi.eus/procurements/companies/economic-activities/2.099"
            }
          }
        },
        {
          "id": "2.826",
          "name": "Personal docente de enseñanzas diversas",
          "_links": {
            "self": {
              "name": "Personal docente de enseñanzas diversas",
              "href": "https://api.euskadi.eus/procurements/companies/economic-activities/2.826"
            }
          }
        }
      ],
      "certificateStartDate": "2025-02-03",
      "certificateEndDate": "2025-07-24",
      "object": "OTROS PROFESIONALES RELACIONADOS CON LA AGRICULTURA Y LA GANADERÍA.",
      "mainEntityOfPage": "https://www.contratacion.euskadi.eus/webkpe00-kperoc/es/ac71aBusquedaRegistrosWar/empresa/08144",
      "_links": {
        "self": {
          "name": "MATEO REGLA DORRONSORO",
          "href": "https://api.euskadi.eus/procurements/companies/08144"
        }
      }
    },
    {
      "name": "HOBBY KIROLAK S.L.",
      "registrationNumber": "06067",
      "identificationNumber": "B20613824",
      "address": "AVDA DE ZARAUTZ 113 TRASERA",
      "location": {
        "postalCode": "20018",
        "municipality": "Donostia / San Sebastián",
        "county": "Gipuzkoa",
        "municipalityId": "069",
        "countyId": "20"
      },
      "economicActivities": [
        {
          "id": "1.619.1",
          "name": "Venta al por mayor de juguetes y artículos de deporte",
          "_links": {
            "self": {
              "name": "Venta al por mayor de juguetes y artículos de deporte",
              "href": "https://api.euskadi.eus/procurements/companies/economic-activities/1.619.1"
            }
          }
        }
      ],
      "certificateStartDate": "2025-02-03",
      "certificateEndDate": "2025-07-21",
      "object": "EL COMERCIO AL POR MAYOR Y MENOR DE ARTÍCULOS DE DEPORTE. LA INTERVENCIÓN EN DICHO COMERCIO A TÍTULO DE AGENTE O REPRESENTANTE DE OTRAS EMPRESAS",
      "mainEntityOfPage": "https://www.contratacion.euskadi.eus/webkpe00-kperoc/es/ac71aBusquedaRegistrosWar/empresa/06067",
      "_links": {
        "self": {
          "name": "HOBBY KIROLAK S.L.",
          "href": "https://api.euskadi.eus/procurements/companies/06067"
        }
      }
    },
    {
      "name": "MONICA GARCIA SANCHEZ",
      "registrationNumber": "10002",
      "identificationNumber": "74366986M",
      "address": "La plaza 6",
      "location": {
        "postalCode": "01213",
        "municipality": "Lantarón",
        "county": "Araba/Álava",
        "municipalityId": "902",
        "countyId": "01"
      },
      "economicActivities": [
        {
          "id": "2.861",
          "name": "Pintores, escultores, ceramistas, artesanos, artistas y similares",
          "_links": {
            "self": {
              "name": "Pintores, escultores, ceramistas, artesanos, artistas y similares",
              "href": "https://api.euskadi.eus/procurements/companies/economic-activities/2.861"
            }
          }
        }
      ],
      "certificateStartDate": "2025-01-31",
      "certificateEndDate": "2025-07-24",
      "object": "PINTORES, ESCULTORES, CERAMISTAS, ARTESANOS, ARTISTAS Y SIMILARES.",
      "mainEntityOfPage": "https://www.contratacion.euskadi.eus/webkpe00-kperoc/es/ac71aBusquedaRegistrosWar/empresa/10002",
      "_links": {
        "self": {
          "name": "MONICA GARCIA SANCHEZ",
          "href": "https://api.euskadi.eus/procurements/companies/10002"
        }
      }
    },
    {
      "name": "SERVICIOS AUXILIARES, LIMPIEZA Y MANTENIMIENTO-SALYM, S.A.",
      "registrationNumber": "00337",
      "identificationNumber": "A48141295",
      "address": "C/ PLAZA CELESTINO MARÍA DEL ARENAL, Nº 11 - BAJO.",
      "location": {
        "postalCode": "48015",
        "municipality": "Bilbao",
        "county": "Bizkaia",
        "municipalityId": "020",
        "countyId": "48"
      },
      "economicActivities": [
        {
          "id": "1.922",
          "name": "Servicios de limpieza",
          "_links": {
            "self": {
              "name": "Servicios de limpieza",
              "href": "https://api.euskadi.eus/procurements/companies/economic-activities/1.922"
            }
          }
        }
      ],
      "certificateStartDate": "2025-01-30",
      "certificateEndDate": "2025-07-06",
      "object": "LA LIMPIEZA DE EDIFICIOS Y LOCALES Y TODA CLASE DE SERVICIOS RELACIONADOS CON LA LIMPIEZA URBANA, DOMÉSTICA E INDUSTRIAL Y CUANTAS OPERACIONES Y NEGOCIOS DE LÍCITO COMERCIO SE DERIVEN O GUARDEN RELACIÓN CON EL OBJETO PRINCIPAL",
      "mainEntityOfPage": "https://www.contratacion.euskadi.eus/webkpe00-kperoc/es/ac71aBusquedaRegistrosWar/empresa/00337",
      "_links": {
        "self": {
          "name": "SERVICIOS AUXILIARES, LIMPIEZA Y MANTENIMIENTO-SALYM, S.A.",
          "href": "https://api.euskadi.eus/procurements/companies/00337"
        }
      }
    },
    {
      "name": "LASTUR BOOKIN, S.L.",
      "registrationNumber": "07856",
      "identificationNumber": "B95345989",
      "address": "CAMINO VENTOSA 46-1D",
      "location": {
        "postalCode": "48013",
        "municipality": "Bilbao",
        "county": "Bizkaia",
        "municipalityId": "020",
        "countyId": "48"
      },
      "economicActivities": [
        {
          "id": "1.965.4",
          "name": "Empresas de espectáculos",
          "_links": {
            "self": {
              "name": "Empresas de espectáculos",
              "href": "https://api.euskadi.eus/procurements/companies/economic-activities/1.965.4"
            }
          }
        },
        {
          "id": "1.983",
          "name": "Agencias de colocación de artistas",
          "_links": {
            "self": {
              "name": "Agencias de colocación de artistas",
              "href": "https://api.euskadi.eus/procurements/companies/economic-activities/1.983"
            }
          }
        }
      ],
      "certificateStartDate": "2025-01-30",
      "certificateEndDate": "2025-07-07",
      "object": "A) LA PROMOCIÓN, PREPARACIÓN, DESARROLLO, CONTRATACIÓN DE ARTISTAS DE CUALQUIER GÉNERO Y GESTIÓN Y DESARROLLO DE TODO TIPO DE FESTIVALES, DE TODA CLASE DE EVENTOS, CONCIERTOS GALAS Y CONCURSOS MUSICALES, TANTO EN EL ESTADO ESPAÑOL, COMUNIDADES AUTÓNOMAS O EN EL EXTRANJERO, ASÍ COMO EL MARKETING DE LAS MISMAS. B) LA DIRECCIÓN Y GESTIÓN COMO SOCIEDAD MATRIZ O HOLDING DE SUS SOCIEDADES FILIALES Y PARTICIPADAS, EN LOS ASPECTOS INDUSTRIALES, TÉCNICOS, COMERCIALES, FINANCIEROS Y ADMINISTRATIVOS, Y EN GENERAL, EN TODA SU DINÁMICA EMPRESARIAL. C) LA PRODUCCIÓN DISCOGRÁFICA, EDICIÓN DE DERECHOS DE AUTOR, EDITORIALES, MUSICALES, PROMOCIONES ARTÍSTICAS, DISCOGRÁFICAS Y DE OTROS PRODUCTOS MUSICALES, TEATRALES, CINEMATOGRÁFICOS, DE TV Y VRT, TANTO NACIONALES COMO EXTRANJEROS. D) LA REPRESENTACIÓN DE ARTISTAS, PRODUCCIÓN DE EVENTOS CULTURALES Y MUSICALES Y DE OCIO. E) LA GESTIÓN DE SPONSORS. F) ALQUILER DE ENSERES DE CONCIERTOS Y ALQUILER DE INMUEBLES RELACIONADOS CON OCIO Y CULTURA. G) LA EXPLOTACIÓN DE BARRAS DE HOSTELERÍA, ASÍ COMO EL ALQUILER, VENTA Y EXPLOTACIÓN DE LAS MISMAS, TANTO EN EL ESTADO ESPAÑOL, COMUNIDADES AUTÓNOMAS O EN EL EXTRANJERO. H) LA ADQUISICIÓN, CESIÓN, TENENCIA, DISFRUTE, ADMINISTRACIÓN, GESTIÓN Y NEGOCIACIÓN EN GENERAL DE VALORES MOBILIARIOS E INMUEBLES; TODO ELLO SIN INCLUIR EN LAS ACTIVIDADES U OPERACIONES REGULADAS POR LA LEGISLACIÓN DE INSTITUCIONES DE INVERSIÓN COLECTIVA Y LEY DE MERCADO DE VALORES. I) LA PRESTACIÓN DE SERVICIOS PROFESIONALES DE ASESORÍA DE EMPRESAS EN GENERAL, Y EN PARTICULAR, DE ASESORAMIENTO Y GESTIÓN FISCAL, ASESORAMIENTO Y GESTIÓN CONTABLE, ASESORAMIENTO Y GESTIÓN EN MATERIA LABORAL, ASESORÍA JURÍDICA, SERVICIOS DE COBRO DE CRÉDITOS MOROSOS, VALORACIÓN DE EMPRESAS, ESTUDIO Y REDACCIÓN DE ESTATUTOS PARA LA CONSTITUCIÓN DE ENTIDADES DE CUALQUIER NATURALEZA, ESTUDIO Y REDACCIÓN DE PLANES DE VIABILIDAD, ESTUDIO DE TRAMITACIÓN DE SUBVENCIONES, CRÉDITO Y OTRAS AYUDAS FINANCIERAS DE LOS ORGANISMOS DEL ESTADO CENTRAL, DEL GOBIERNO VASCO Y DE LAS DIPUTACIONES FORALES, DE TODO TIPO DE ENTIDADES PÚBLICAS Y PRIVADAS, PARA TODO TIPO DE EMPRESAS; Y, EN CONCRETO, LA PRESTACIÓN DE SERVICIOS DE VERIFICACIONES REGISTRALES, INFORMES COMERCIALES, GRABACIONES DE DATOS Y RECOBROS. J) LA INVESTIGACIÓN Y EL DESARROLLO DE TÉCNICAS ENERGÉTICAS, ACÚSTICAS, ELECTRÓNICAS Y, EN GENERAL, TODA CLASE DE ASISTENCIA O SERVICIOS RELACIONADOS CON LA INFORMÁTICA. LA REPRESENTACIÓN COMO AGENTE, COMISIONISTA, DELEGADO O CUALQUIER OTRA FORMA DE MEDIACIÓN MERCANTIL DE EMPRESAS NACIONALES O EXTRANJERAS, DE TODA ÍNDOLE, ASÍ COMO LA EXPLOTACIÓN DE PATENTES, Y DEMÁS DERECHOS DE PROPIEDAD, INDUSTRIA, INCLUIDOS LOS MÉTODOS, PROCEDIMIENTOS Y ORGANIZACIÓN DE TRABAJOS INDUSTRIALES, COMERCIALES O DE OTRA ÍNDOLE. K) LA FORMACIÓN E INFORMACIÓN DE TODO TIPO DE PERSONALES MEDIANTE CURSOS, SEMINARIOS, JORNADAS, TANTO DE PRESENCIA COMO A DISTANCIA EN CUALQUIER MATERIA, ASÍ COMO LA EDICIÓN DE TEXTOS Y LIBROS ENCUADERNADOS  A TAL FIN, REVISTAS Y CUALQUIER OTRO MEDIO DE DIFUSIÓN QUE CONSIDERE IDÓNEO PARA SUS FINES; LA GESTIÓN, CREACIÓN, TOMA DE PARTICIPACIONES Y ASESORAMIENTO DE TODO TIPO DE EMPRESAS, CONSULTORÍA, GESTIÓN, DISTRIBUCIÓN, IMPORTACIÓN Y EXPORTACIÓN DE TODO TIPO DE PRODUCTOS CONEXOS CON DICHAS ACTIVIDADES DE FORMACIÓN, INFORMACIÓN Y ASESORAMIENTO. L) LA COMPRA, TENENCIA, ENAJENACIÓN Y EXPLOTACIÓN, INCLUSO EN EXCLUSIVA POR Y FAVOR DE LA SOCIEDAD, DE TÍTULOS, VALORES, ACCIONES, BONOS, OBLIGACIONES, PATENTES, LICENCIAS, MARCAS, RÓTULOS, NOMBRES COMERCIALES Y TODA CLASE DE PERTENENCIAS DE PROPIEDAD INDUSTRIAL O INTELECTUAL, Y CUALESQUIERA OTRA CLASE DE BIENES MUEBLES; TODO ELLO SIN INCIDIR EN LAS ACTIVIDADES Y OPERACIONES REGULADAS POR LA LEGISLACIÓN DE INSTITUCIONES DE INVERSIÓN COLECTIVA Y LEY DE MERCADO DE VALORES. M) LA CONSTITUCIÓN CON LA CONCURRENCIA DE OTRAS PERSONAS E INDIVIDUALMENTE, EN SU CASO DE TODA CLASE DE SOCIEDADES MERCANTILES, LA PARTICIPACIÓN EN OTRAS CONSTITUIDAS, PUDIENDO OSTENTAR EN TODAS ELLAS CARGOS DE ADMINISTRACIÓN, DIRECCIÓN O CONTROL MEDIANTE LA OPORTUNA DELEGACIÓN EN PERSONA FÍSICA. N) LOS SERVICIOS LEGALMENTE PERMITIDOS DE MEDIACIÓN, CON BIENES PROPIOS O AJENOS, ASÍ COMO LOS DE CONSIGNACIÓN, REPRESENTACIÓN Y GESTIÓN, INCLUSO DE TODA CLASE DE SUMINISTROS DE PRODUCTOS EN GENERAL, NACIONALES Y EXTRANJEROS, Y LAS ACTIVIDADES DE IMPORTACIÓN Y EXPORTACIÓN",
      "mainEntityOfPage": "https://www.contratacion.euskadi.eus/webkpe00-kperoc/es/ac71aBusquedaRegistrosWar/empresa/07856",
      "_links": {
        "self": {
          "name": "LASTUR BOOKIN, S.L.",
          "href": "https://api.euskadi.eus/procurements/companies/07856"
        }
      }
    },
    {
      "name": "IC CONSULT SPAIN, S.L",
      "registrationNumber": "09986",
      "identificationNumber": "B67426403",
      "address": "Calle Tanger 86",
      "location": {
        "postalCode": "08018",
        "municipality": "Barcelona",
        "county": "Barcelona",
        "municipalityId": "019",
        "countyId": "08"
      },
      "economicActivities": [
        {
          "id": "1.845",
          "name": "Explotación electrónica por cuenta de terceros",
          "_links": {
            "self": {
              "name": "Explotación electrónica por cuenta de terceros",
              "href": "https://api.euskadi.eus/procurements/companies/economic-activities/1.845"
            }
          }
        }
      ],
      "certificateStartDate": "2025-01-29",
      "certificateEndDate": "2025-07-29",
      "object": "SERVICIOS DE CONSULTORÍA TÉCNICA DE TECNOLOGÍAS DE LA INFORMACIÓN (IT) E INTEGRACIÓN DE SISTEMAS; EL DESARROLLO DE SOFTWARE Y LA COMERCIALIZACIÓN DE PRODUCTOS DE TECNOLOGÍAS DE LA INFORMACIÓN (IT) DE TODO TIPO.",
      "mainEntityOfPage": "https://www.contratacion.euskadi.eus/webkpe00-kperoc/es/ac71aBusquedaRegistrosWar/empresa/09986",
      "_links": {
        "self": {
          "name": "IC CONSULT SPAIN, S.L",
          "href": "https://api.euskadi.eus/procurements/companies/09986"
        }
      }
    },
    {
      "name": "LIMPIEZAS JOXEAN, S.L.",
      "registrationNumber": "03037",
      "identificationNumber": "B20711388",
      "address": "PASAJE UR ZALEAK, 7 BAJO",
      "location": {
        "postalCode": "20012",
        "municipality": "Donostia / San Sebastián",
        "county": "Gipuzkoa",
        "municipalityId": "069",
        "countyId": "20"
      },
      "economicActivities": [
        {
          "id": "1.922.1",
          "name": "Servicios de limpieza de interiores",
          "_links": {
            "self": {
              "name": "Servicios de limpieza de interiores",
              "href": "https://api.euskadi.eus/procurements/companies/economic-activities/1.922.1"
            }
          }
        }
      ],
      "certificateStartDate": "2025-01-28",
      "certificateEndDate": "2025-07-15",
      "object": "LAS ACTIVIDADES QUE SEGUIDAMENTE SE DETALLAN, QUE PODRÁN SER REALIZADAS POR LA SOCIEDAD, YA DIRECTAMENTE, YA INDIRECTAMENTE, INCLUSO MEDIANTE SU PARTICIPACIÓN EN OTRAS SOCIEDADES DE OBJETO IDÉNTICO O ANÁLOGO:\r\nLA LIMPIEZA DE LOCALES COMERCIALES, OFICINAS, VIVIENDAS, COLEGIOS, CENTROS HOSPITALARIOS, CENTROS PÚBLICOS Ó PRIVADOS Y, EN GENERAL, DE TODA CLASE DE EDIFICIOS.\r\nLA COMERCIALIZACIÓN DE PRODUCTOS DE LIMPIEZA.\r\nLA PROMOCIÓN, CONSTRUCCIÓN, COMPRAVENTA, ARRENDAMIENTO  Y EXPLOTACIÓN DE TODO TIPO DE INMUEBLES ",
      "mainEntityOfPage": "https://www.contratacion.euskadi.eus/webkpe00-kperoc/es/ac71aBusquedaRegistrosWar/empresa/03037",
      "_links": {
        "self": {
          "name": "LIMPIEZAS JOXEAN, S.L.",
          "href": "https://api.euskadi.eus/procurements/companies/03037"
        }
      }
    },
    {
      "name": "LUIS ENRIQUE LOPEZ, S.L.",
      "registrationNumber": "09398",
      "identificationNumber": "B01350727",
      "address": "CARRETERA DE LAPUEBLA DE LABARCA nº6",
      "location": {
        "postalCode": "01300",
        "municipality": "Laguardia",
        "county": "Araba/Álava",
        "municipalityId": "031",
        "countyId": "01"
      },
      "economicActivities": [
        {
          "id": "1.843.2",
          "name": "Servicios técnicos de arquitectura y urbanismo",
          "_links": {
            "self": {
              "name": "Servicios técnicos de arquitectura y urbanismo",
              "href": "https://api.euskadi.eus/procurements/companies/economic-activities/1.843.2"
            }
          }
        }
      ],
      "certificateStartDate": "2025-01-28",
      "certificateEndDate": "2025-07-07",
      "object": "LA ACTIVIDAD PROPIA DE LOS PROFESIONALES DE LA ARQUITECTURA TÉCNICA O APAREJADORES.",
      "mainEntityOfPage": "https://www.contratacion.euskadi.eus/webkpe00-kperoc/es/ac71aBusquedaRegistrosWar/empresa/09398",
      "_links": {
        "self": {
          "name": "LUIS ENRIQUE LOPEZ, S.L.",
          "href": "https://api.euskadi.eus/procurements/companies/09398"
        }
      }
    }
  ]
}