{
  "totalItems": 9042,
  "totalPages": 905,
  "currentPage": 324,
  "itemsOfPage": 10,
  "items": [
    {
      "name": "ANA SAN JOSÉ AMIANO",
      "registrationNumber": "09761",
      "identificationNumber": "15260107K",
      "address": "Paseo Aixin Zolua 7, 2º B",
      "location": {
        "postalCode": "20304",
        "municipality": "Irun",
        "county": "Gipuzkoa",
        "municipalityId": "045",
        "countyId": "20"
      },
      "economicActivities": [
        {
          "id": "2.432",
          "name": "Decoradores-diseñadores de interiores",
          "_links": {
            "self": {
              "name": "Decoradores-diseñadores de interiores",
              "href": "https://api.euskadi.eus/procurements/companies/economic-activities/2.432"
            }
          }
        },
        {
          "id": "2.826",
          "name": "Personal docente de enseñanzas diversas",
          "_links": {
            "self": {
              "name": "Personal docente de enseñanzas diversas",
              "href": "https://api.euskadi.eus/procurements/companies/economic-activities/2.826"
            }
          }
        }
      ],
      "certificateStartDate": "2025-08-21",
      "certificateEndDate": "2026-02-21",
      "object": "PERSONAL DOCENTE DE ENSEÑANZAS DIVERSAS. DECORADORES-DISEÑADORES DE INTERIORES.",
      "mainEntityOfPage": "https://www.contratacion.euskadi.eus/webkpe00-kperoc/es/ac71aBusquedaRegistrosWar/empresa/09761",
      "_links": {
        "self": {
          "name": "ANA SAN JOSÉ AMIANO",
          "href": "https://api.euskadi.eus/procurements/companies/09761"
        }
      }
    },
    {
      "name": "JORDI NIUBÓ UGEDO",
      "registrationNumber": "08362",
      "identificationNumber": "46811440T",
      "address": "Calle Amandresolo",
      "location": {
        "postalCode": "48220",
        "municipality": "Abadiño",
        "county": "Bizkaia",
        "municipalityId": "001",
        "countyId": "48"
      },
      "economicActivities": [
        {
          "id": "1.474.1",
          "name": "Impresión de textos o imágenes por cualquier procedimiento",
          "_links": {
            "self": {
              "name": "Impresión de textos o imágenes por cualquier procedimiento",
              "href": "https://api.euskadi.eus/procurements/companies/economic-activities/1.474.1"
            }
          }
        }
      ],
      "certificateStartDate": "2025-08-21",
      "certificateEndDate": "2026-02-21",
      "object": "IMPRESIÓN DE TEXTOS O IMÁGENES POR CUALQUIER PROCEDIMIENTO.",
      "mainEntityOfPage": "https://www.contratacion.euskadi.eus/webkpe00-kperoc/es/ac71aBusquedaRegistrosWar/empresa/08362",
      "_links": {
        "self": {
          "name": "JORDI NIUBÓ UGEDO",
          "href": "https://api.euskadi.eus/procurements/companies/08362"
        }
      }
    },
    {
      "name": "AMBAR TELECOMUNICACIONES, S.L.",
      "registrationNumber": "04419",
      "identificationNumber": "B39363387",
      "address": "POLIGONO NUEVA EUROPA, 11",
      "location": {
        "postalCode": "39011",
        "municipality": "Santander",
        "county": "Cantabria",
        "municipalityId": "075",
        "countyId": "39"
      },
      "economicActivities": [
        {
          "id": "1.504.7",
          "name": "Instalaciones telefónicas, telegráficas, televisión, etc",
          "_links": {
            "self": {
              "name": "Instalaciones telefónicas, telegráficas, televisión, etc",
              "href": "https://api.euskadi.eus/procurements/companies/economic-activities/1.504.7"
            }
          }
        },
        {
          "id": "1.843.1",
          "name": "Servicios técnicos de ingeniería",
          "_links": {
            "self": {
              "name": "Servicios técnicos de ingeniería",
              "href": "https://api.euskadi.eus/procurements/companies/economic-activities/1.843.1"
            }
          }
        }
      ],
      "certificateStartDate": "2025-08-21",
      "certificateEndDate": "2026-02-10",
      "object": "LA COMPRA VENTA AL POR MAYOR Y POR MENOR DE APARATOS, EQUIPOS E INSTALACIONES ELÉCTRICAS, DE COMUNICACIONES Y SERVICIOS INFORMÁTICOS, ASÍ COMO LA INSTALACIÓN, MONTAJE, REPARACIÓN Y MANTENIMIENTO DE DICHOS APARATOS Y EQUIPOS ELÉCTRICOS DE COMUNICACIÓN, VOZ, DATOS Y VÍDEO, SISTEMAS INFORMÁTICOS, TELECOMUNICACIONES Y SEGURIDAD INFORMÁTICA",
      "mainEntityOfPage": "https://www.contratacion.euskadi.eus/webkpe00-kperoc/es/ac71aBusquedaRegistrosWar/empresa/04419",
      "_links": {
        "self": {
          "name": "AMBAR TELECOMUNICACIONES, S.L.",
          "href": "https://api.euskadi.eus/procurements/companies/04419"
        }
      }
    },
    {
      "name": "PRICEWATERHOUSECOOPERS TAX & LEGAL SERVICES, S.L.",
      "registrationNumber": "01706",
      "identificationNumber": "B80909278",
      "address": "PASEO DE LA CASTELLANA 259-B  \"TORRE PwC\"",
      "location": {
        "postalCode": "28046",
        "municipality": "Madrid",
        "county": "Madrid",
        "municipalityId": "079",
        "countyId": "28"
      },
      "economicActivities": [
        {
          "id": "1.834",
          "name": "Servicios relativos a la propiedad inmobiliaria e industrial",
          "_links": {
            "self": {
              "name": "Servicios relativos a la propiedad inmobiliaria e industrial",
              "href": "https://api.euskadi.eus/procurements/companies/economic-activities/1.834"
            }
          }
        },
        {
          "id": "1.841",
          "name": "Servicios jurídicos",
          "_links": {
            "self": {
              "name": "Servicios jurídicos",
              "href": "https://api.euskadi.eus/procurements/companies/economic-activities/1.841"
            }
          }
        },
        {
          "id": "1.842",
          "name": "Servicios financieros y contables",
          "_links": {
            "self": {
              "name": "Servicios financieros y contables",
              "href": "https://api.euskadi.eus/procurements/companies/economic-activities/1.842"
            }
          }
        }
      ],
      "certificateStartDate": "2025-08-21",
      "certificateEndDate": "2026-02-19",
      "object": "PRESTAR TODA CLASE DE SERVICIOS Y ASESORAMIENTOS JURÍDICOS EN GENERAL, Y FISCALES EN PARTICULAR, ASÍ COMO CONTABLES Y DE REPRESENTACIÓN, TANTO A PERSONAS FÍSICAS COMO A PERSONAS JURÍDICAS, CUALQUIERA QUE FUERA SU CLASE. ES DECIR, EL OBJETO DE LA PRESENTE SOCIEDAD ES SERVIR DE VEHÍCULO MERCANTIL DE MEDIACIÓN, ORGANIZACIÓN Y COORDINACIÓN, TANTO DE LAS DIFERENTES ACTIVIDADES QUE PRESTARÁN LOS PROFESIONALES EN ELLA INTEGRADOS, ÚNICOS QUE PUEDEN HACERLO, POR SU CARÁCTER ESTRICTAMENTE PERSONAL, COMO DE LOS PROPIOS PROFESIONALES QUE ESTARÁN CAPACITADOS PARA PRESTAR LOS SERVICIOS CITADOS EN EL PÁRRAFO ANTERIOR",
      "mainEntityOfPage": "https://www.contratacion.euskadi.eus/webkpe00-kperoc/es/ac71aBusquedaRegistrosWar/empresa/01706",
      "_links": {
        "self": {
          "name": "PRICEWATERHOUSECOOPERS TAX & LEGAL SERVICES, S.L.",
          "href": "https://api.euskadi.eus/procurements/companies/01706"
        }
      }
    },
    {
      "name": "AUTOCARES GARCIA AUTOBUSAK, S.L.",
      "registrationNumber": "05644",
      "identificationNumber": "B75170076",
      "address": "ZUMALAKARREGI 7 BAJO A",
      "location": {
        "postalCode": "20800",
        "municipality": "Zarautz",
        "county": "Gipuzkoa",
        "municipalityId": "079",
        "countyId": "20"
      },
      "economicActivities": [
        {
          "id": "1.721.3",
          "name": "Transporte de viajeros por carretera",
          "_links": {
            "self": {
              "name": "Transporte de viajeros por carretera",
              "href": "https://api.euskadi.eus/procurements/companies/economic-activities/1.721.3"
            }
          }
        }
      ],
      "certificateStartDate": "2025-08-21",
      "certificateEndDate": "2026-02-11",
      "classification": [
        {
          "id": "S",
          "name": "Servicios",
          "groups": [
            {
              "id": "R",
              "subgroups": [
                {
                  "id": "01",
                  "name": "Transporte de viajeros por carretera",
                  "categories": [
                    {
                      "id": "3",
                      "name": "Desde 300.001 Hasta 600.000",
                      "_links": {
                        "self": {
                          "name": "Desde 300.001 Hasta 600.000",
                          "href": "https://api.euskadi.eus/procurements/companies/types/S/categories/3"
                        }
                      }
                    }
                  ],
                  "_links": {
                    "self": {
                      "name": "Transporte de viajeros por carretera",
                      "href": "https://api.euskadi.eus/procurements/companies/types/S/groups/R/subgroups/01"
                    }
                  }
                }
              ],
              "_links": {
                "self": {
                  "href": "https://api.euskadi.eus/procurements/companies/types/S/groups/R"
                }
              }
            }
          ],
          "_links": {
            "self": {
              "name": "Servicios",
              "href": "https://api.euskadi.eus/procurements/companies/types/S"
            }
          }
        }
      ],
      "object": "EL TRANSPORTE DE VIAJEROS POR CARRETERA",
      "mainEntityOfPage": "https://www.contratacion.euskadi.eus/webkpe00-kperoc/es/ac71aBusquedaRegistrosWar/empresa/05644",
      "_links": {
        "self": {
          "name": "AUTOCARES GARCIA AUTOBUSAK, S.L.",
          "href": "https://api.euskadi.eus/procurements/companies/05644"
        }
      }
    },
    {
      "name": "ZIMMER BIOMET SPAIN, S.L.U.",
      "registrationNumber": "05567",
      "identificationNumber": "B29060381",
      "address": "C/ METALURGIA, 32-34",
      "location": {
        "postalCode": "08038",
        "municipality": "Barcelona",
        "county": "Barcelona",
        "municipalityId": "019",
        "countyId": "08"
      },
      "economicActivities": [
        {
          "id": "1.619.2",
          "name": "Venta al por mayor de aparatos e instrumentos médicos, ortopédicos, ópticos",
          "_links": {
            "self": {
              "name": "Venta al por mayor de aparatos e instrumentos médicos, ortopédicos, ópticos",
              "href": "https://api.euskadi.eus/procurements/companies/economic-activities/1.619.2"
            }
          }
        }
      ],
      "certificateStartDate": "2025-08-20",
      "certificateEndDate": "2026-02-20",
      "object": "LA FABRICACIÓN, DISEÑO, SERVICIO,MANTENIMIENTO, REPARACIÓN, ARRENDAMIENTO, IMPORTACIÓN, EXPORTACIÓN DISTRIBUCIÓN Y VENTA DE APARATOS Y DISPOSITIVOS MÉDICOS, ENTRE ELLOS PRODUCTOS ORTOPÉDICOS, APARATOS ELECTRÓNICOS DE USO EN MEDICINA, EQUIPOS PARA HOSPITALES, APARATOS E IMPLANTES DE USO EN CIRUGÍA, EQUIPOS DE LABORATORIO Y PRODUCTOS PARA EL CUIDADO DE PACIENTES; LA REPARACIÓN, VENTA Y TODA CLASE DE NEGOCIOS RELACIONADOS CON LAS ANTEDICHAS ACTIVIDADES, ASÍ COMO CUALQUIER ACTIVIDAD COMERCIAL O MERCANTIL CONEXA O COMPLEMENTARIA DE REPETIDAS ACTIVIDADES. SE EXCLUYEN DE ESTE OBJETO TODAS AQUELLAS ACTIVIDADES PARA CUYO EJERCICIO ALGUNA LEY EXIJA REQUISITOS ESPECIALES QUE NO QUEDEN COMPLIDOS POR ESTA SOCIEDAD",
      "mainEntityOfPage": "https://www.contratacion.euskadi.eus/webkpe00-kperoc/es/ac71aBusquedaRegistrosWar/empresa/05567",
      "_links": {
        "self": {
          "name": "ZIMMER BIOMET SPAIN, S.L.U.",
          "href": "https://api.euskadi.eus/procurements/companies/05567"
        }
      }
    },
    {
      "name": "IRRIKAZU, S.L.",
      "registrationNumber": "09521",
      "identificationNumber": "B72660590",
      "address": "POLIGONO TXAKO, 3",
      "location": {
        "postalCode": "48480",
        "municipality": "Arrigorriaga",
        "county": "Bizkaia",
        "municipalityId": "011",
        "countyId": "48"
      },
      "economicActivities": [
        {
          "id": "1.966.9",
          "name": "Otros servicios culturales n.c.o.p",
          "_links": {
            "self": {
              "name": "Otros servicios culturales n.c.o.p",
              "href": "https://api.euskadi.eus/procurements/companies/economic-activities/1.966.9"
            }
          }
        }
      ],
      "certificateStartDate": "2025-08-20",
      "certificateEndDate": "2026-02-20",
      "object": "ORGANIZACIÓN, GESTIÓN, DESARROLLO Y DINAMIZACIÓN DE SERVICIOS Y EVENTOS DE OCIO, TIEMPO LIBRE, CULTURALES, DEPORTIVOS Y EDUCATIVOS A TODO TIPO DE COLECTIVOS DESDE NIÑOS HASTA PERSONAS DE LA TERCERA EDAD, PARTICULARES, EMPRESAS… ETC.",
      "mainEntityOfPage": "https://www.contratacion.euskadi.eus/webkpe00-kperoc/es/ac71aBusquedaRegistrosWar/empresa/09521",
      "_links": {
        "self": {
          "name": "IRRIKAZU, S.L.",
          "href": "https://api.euskadi.eus/procurements/companies/09521"
        }
      }
    },
    {
      "name": "IN2DESTINATION RESEARCH AND CONSULTANCY IN TOURISM, S.L.",
      "registrationNumber": "07211",
      "identificationNumber": "B95872222",
      "address": "Cl Nicolas Alcorta 2, 4A",
      "location": {
        "postalCode": "48003",
        "municipality": "Bilbao",
        "county": "Bizkaia",
        "municipalityId": "020",
        "countyId": "48"
      },
      "economicActivities": [
        {
          "id": "1.847",
          "name": "Servicios de consultoría",
          "_links": {
            "self": {
              "name": "Servicios de consultoría",
              "href": "https://api.euskadi.eus/procurements/companies/economic-activities/1.847"
            }
          }
        },
        {
          "id": "1.849.9",
          "name": "Otros servicios independientes n.c.o.p",
          "_links": {
            "self": {
              "name": "Otros servicios independientes n.c.o.p",
              "href": "https://api.euskadi.eus/procurements/companies/economic-activities/1.849.9"
            }
          }
        }
      ],
      "certificateStartDate": "2025-08-20",
      "certificateEndDate": "2026-02-20",
      "object": "OTRAS ACTIVIDADES DE CONSULTORÍA DE GESTIÓN EMPRESARIAL (CNAE 7022), QUE CONSTITUIRÁ LA ACTIVIDAD PRINCIPAL. SI ALGUNA DE LAS ACTIVIDADES ELEGIDAS FUERA DE CARÁCTER PROFESIONAL, LA SOCIEDAD LA EJERCERÁ COMO MERA INTERMEDIADORA ENTRE EL PROFESIONAL PRESTADOR DEL SERVICIO Y EL CONSUMIDOR",
      "mainEntityOfPage": "https://www.contratacion.euskadi.eus/webkpe00-kperoc/es/ac71aBusquedaRegistrosWar/empresa/07211",
      "_links": {
        "self": {
          "name": "IN2DESTINATION RESEARCH AND CONSULTANCY IN TOURISM, S.L.",
          "href": "https://api.euskadi.eus/procurements/companies/07211"
        }
      }
    },
    {
      "name": "BEMED PRODUCTOS Y DISTRIBUCIONES, S.L.",
      "registrationNumber": "02562",
      "identificationNumber": "B95220638",
      "address": "LAUAXETA OLERKARI 52A, POL. SOGEON, EDIF. SOLOKOETXE, PAB 16-17",
      "location": {
        "postalCode": "48100",
        "municipality": "Mungia",
        "county": "Bizkaia",
        "municipalityId": "069",
        "countyId": "48"
      },
      "economicActivities": [
        {
          "id": "1.659.3",
          "name": "Venta al por menor de aparatos médicos, ortopédicos, ópticos y fotográficos",
          "_links": {
            "self": {
              "name": "Venta al por menor de aparatos médicos, ortopédicos, ópticos y fotográficos",
              "href": "https://api.euskadi.eus/procurements/companies/economic-activities/1.659.3"
            }
          }
        }
      ],
      "certificateStartDate": "2025-08-20",
      "certificateEndDate": "2026-02-20",
      "object": "LA COMPRA, VENTA, IMPORTACIÓN Y EXPORTACIÓN, ALMACENAMIENTO, DISTRIBUCIÓN Y COMERCIALIZACIÓN DE PRODUCTOS MÉDICOS, MATERIAL FUNGIBLE, IMPLANTES E INSTRUMENTAL Y EQUIPOS MÉDICOS. LAS ACTIVIDADES INTEGRANTES DEL OBJETO SOCIAL PODRÁN SER DESARROLLADAS POR LA SOCIEDAD DEMODO INDIRECTO, MEDIANTE SU PARTICIPACIÓN EN SOCIEDADES O ENTIDADES CON DISTINTA PERSONALIDAD JURÍDICA.",
      "mainEntityOfPage": "https://www.contratacion.euskadi.eus/webkpe00-kperoc/es/ac71aBusquedaRegistrosWar/empresa/02562",
      "_links": {
        "self": {
          "name": "BEMED PRODUCTOS Y DISTRIBUCIONES, S.L.",
          "href": "https://api.euskadi.eus/procurements/companies/02562"
        }
      }
    },
    {
      "name": "KAIZEN INTEGRAL, S.L.",
      "registrationNumber": "09801",
      "identificationNumber": "B75214031",
      "address": "Calle Jose Mari Iparraguirre",
      "location": {
        "postalCode": "20305",
        "municipality": "Irun",
        "county": "Gipuzkoa",
        "municipalityId": "045",
        "countyId": "20"
      },
      "economicActivities": [
        {
          "id": "1.834",
          "name": "Servicios relativos a la propiedad inmobiliaria e industrial",
          "_links": {
            "self": {
              "name": "Servicios relativos a la propiedad inmobiliaria e industrial",
              "href": "https://api.euskadi.eus/procurements/companies/economic-activities/1.834"
            }
          }
        }
      ],
      "certificateStartDate": "2025-08-20",
      "certificateEndDate": "2026-08-05",
      "object": "LA REALIZACIÓN DE ACCIONES DE DISEÑO, MARKETING Y COMERCIALIZACIÓN DE SERVICIOS Y/O SOLUCIONES, REALIZACIÓN DE DESARROLLOS, COMERCIALIZACIÓN, SOPORTE Y GESTIÓN DE SOFTWARE, REALIZACIÓN DE PROCESOS DE INVESTIGACIÓN, DESARROLLO E INNOVACIÓN, REALIZACIÓN DE SERVICIOS LIGADOS A LA ENERGÍA, LAS INSTALACIONES Y LA TECNOLOGÍA, REALIZACIÓN DE INSTALACIONES TÉCNICAS DE COMUNICACIÓN, CONTROL Y REGULACIÓN, ASESORAMIENTO Y CONSULTORÍA EN MATERIA DE DESARROLLO EMPRESARIAL, REALIZACIÓN DE SERVICIOS DE COMERCIALIZACIÓN DE PLATAFORMAS TECNOLÓGICAS O DE COMUNICACIÓN, COMERCIALIZACIÓN DE ESPACIOS PUBLICITARIOS Y DESARROLLO DE EVENTOS, CHARLAS O JORNADAS, REALIZACIÓN DE CONTENIDOS FORMATIVOS, DESARROLLO Y EJECUCIÓN DE FORMACIÓN PRESENCIAL Y ON LINE, DESARROLLO DE SERVICIOS DE INTERNACIONALIZACIÓN PARA EMPRESAS O INSTITUCIONES, SERVICIOS DE REPRESENTACIÓN COMERCIAL Y SOPORTE TÉCNICO PARA PRODUCTOS Y SERVICIOS, REALIZACIÓN DE SERVICIOS DE ATENCIÓN Y ASESORAMIENTO TELEFÓNICO, PRESENCIAL U ONLINE, SERVICIOS DE GESTIÓN, SUMINISTRO Y VENTA DE ENERGÍA TÉRMICA Y/O ELÉCTRICA, SERVICIOS DE ASESORAMIENTO Y GESTIÓN DE COMUNIDADES DE PROPIETARIOS O EDIFICIOS DE USO TERCIARIO, SERVICIOS DE GESTIÓN ECONÓMICA Y FINANCIACIÓN DE INVERSIONES LIGADAS A LA ENERGÍA O LA TECNOLOGÍA.",
      "mainEntityOfPage": "https://www.contratacion.euskadi.eus/webkpe00-kperoc/es/ac71aBusquedaRegistrosWar/empresa/09801",
      "_links": {
        "self": {
          "name": "KAIZEN INTEGRAL, S.L.",
          "href": "https://api.euskadi.eus/procurements/companies/09801"
        }
      }
    }
  ]
}