{
  "totalItems": 9042,
  "totalPages": 905,
  "currentPage": 444,
  "itemsOfPage": 10,
  "items": [
    {
      "name": "REFORMAS Y REHABILITACIONES PORTU, S.L.",
      "registrationNumber": "08023",
      "identificationNumber": "B20833836",
      "address": "Bidezarreta kalea 5, 2ª B",
      "location": {
        "postalCode": "20750",
        "municipality": "Zumaia",
        "county": "Gipuzkoa",
        "municipalityId": "081",
        "countyId": "20"
      },
      "economicActivities": [
        {
          "id": "1.501.3",
          "name": "Albañilería y pequeños trabajos de construcción en general",
          "_links": {
            "self": {
              "name": "Albañilería y pequeños trabajos de construcción en general",
              "href": "https://api.euskadi.eus/procurements/companies/economic-activities/1.501.3"
            }
          }
        }
      ],
      "certificateStartDate": "2023-10-02",
      "certificateEndDate": "2024-04-02",
      "object": "ALBAÑILERÍA, CONSTRUCCIÓN, PINTURA, REFORMA Y REHABILITACIÓN DE EDIFICIOS.",
      "mainEntityOfPage": "https://www.contratacion.euskadi.eus/webkpe00-kperoc/es/ac71aBusquedaRegistrosWar/empresa/08023",
      "_links": {
        "self": {
          "name": "REFORMAS Y REHABILITACIONES PORTU, S.L.",
          "href": "https://api.euskadi.eus/procurements/companies/08023"
        }
      }
    },
    {
      "name": "OLATZ ARRIETA BAIGES",
      "registrationNumber": "05905",
      "identificationNumber": "05205187B",
      "address": "GOIRI KALEA 30",
      "location": {
        "postalCode": "48160",
        "municipality": "Derio",
        "county": "Bizkaia",
        "municipalityId": "901",
        "countyId": "48"
      },
      "economicActivities": [
        {
          "id": "1.847",
          "name": "Servicios de consultoría",
          "_links": {
            "self": {
              "name": "Servicios de consultoría",
              "href": "https://api.euskadi.eus/procurements/companies/economic-activities/1.847"
            }
          }
        }
      ],
      "certificateStartDate": "2023-10-02",
      "certificateEndDate": "2024-04-02",
      "object": "LABORES DE CONSULTORÍA Y ASESORAMIENTO A EMPRESAS ",
      "mainEntityOfPage": "https://www.contratacion.euskadi.eus/webkpe00-kperoc/es/ac71aBusquedaRegistrosWar/empresa/05905",
      "_links": {
        "self": {
          "name": "OLATZ ARRIETA BAIGES",
          "href": "https://api.euskadi.eus/procurements/companies/05905"
        }
      }
    },
    {
      "name": "INTERNATIONAL BUSINESS MACHINES, S.A.",
      "registrationNumber": "00207",
      "identificationNumber": "A28010791",
      "address": "C/ SANTA HORTENSIA, Nº 26-28",
      "location": {
        "postalCode": "28002",
        "municipality": "Madrid",
        "county": "Madrid",
        "municipalityId": "079",
        "countyId": "28"
      },
      "economicActivities": [
        {
          "id": "1.617.8",
          "name": "Venta al por mayor de máquinas y material de oficina",
          "_links": {
            "self": {
              "name": "Venta al por mayor de máquinas y material de oficina",
              "href": "https://api.euskadi.eus/procurements/companies/economic-activities/1.617.8"
            }
          }
        },
        {
          "id": "1.843.9",
          "name": "Otros servicios técnicos n.c.o.p",
          "_links": {
            "self": {
              "name": "Otros servicios técnicos n.c.o.p",
              "href": "https://api.euskadi.eus/procurements/companies/economic-activities/1.843.9"
            }
          }
        },
        {
          "id": "1.845",
          "name": "Explotación electrónica por cuenta de terceros",
          "_links": {
            "self": {
              "name": "Explotación electrónica por cuenta de terceros",
              "href": "https://api.euskadi.eus/procurements/companies/economic-activities/1.845"
            }
          }
        },
        {
          "id": "1.853",
          "name": "Alquiler de maquinaria y equipo contable de oficina y cálculo",
          "_links": {
            "self": {
              "name": "Alquiler de maquinaria y equipo contable de oficina y cálculo",
              "href": "https://api.euskadi.eus/procurements/companies/economic-activities/1.853"
            }
          }
        }
      ],
      "certificateStartDate": "2023-10-02",
      "certificateEndDate": "2024-04-02",
      "object": "LA VENTA, EL ALQUILER Y EL MANTENIMIENTO DE EQUIPOS ELECTRÓNICOS Y ELECTROMECÁNICOS DE PROCESO DE DATOS Y CONTROL DE PROCESOS Y SISTEMAS DE TRATAMIENTO DE LA INFORMACIÓN. LA VENTA, EL ALQUILER Y EL MANTENIMIENTO DE MÁQUINAS DE OFICINA, BIEN SEAN DE ESCRIBIR, CALCULAR O COMBINADAS; DE COMPOSICIÓN AUTOMÁTICA; DE CONTROL E INDICACIÓN DE TIEMPOS; EQUIPOS DE GRABACIÓN Y DICTADO Y COPIADORAS, INDEPENDIENTE DE SI LAS ANTERIORES MÁQUINAS SON AUTOMÁTICAS O MANUALES, DE COMUNICACIÓN A DISTANCIA O NO. LA VENTA, EL ALQUILER Y EL MANTENIMIENTO DE ACCESORIOS, DISPOSITIVOS, Y DEMÁS PRODUCTOS RELACIONADOS CON LAS EXPRESADAS MÁQUINAS DE PROCESO DE DATOS Y DE LA PALABRA. LA VENTA, EL ALQUILER Y EL MANTENIMIENTO DE PRODUCTOS DE ELECTROMEDICINA. LA VENTA, EL ALQUILER Y EL MANTENIMIENTO DE PRODUCTOS DE TELECOMUNICACIÓN. LA PRESTACIÓN DE SERVICIOS DE CONSULTORÍA Y EDUCACIÓN. LA PRESTACIÓN DE SERVICIOS DE INGENIERÍA DE SISTEMAS Y DESARROLLO DE APLICACIONES DE PROCESO DE DATOS, INSTALACIÓN, MIGRACIÓN, CONVERSIÓN DE SISTEMAS OPERATIVOS Y PROGRAMAS, UTILIZANDO CUALQUIER TÉCNICA PRESENTE O FUTURA. EL ESTUDIO, DISEÑO Y CONCEPCIÓN DE EDIFICIOS INTELIGENTES, CENTROS DE PROCESO DE DATOS Y REDES; SU TOTAL O PARCIAL REALIZACIÓN, SUMINISTRO E INSTALACIÓN DE LOS ELEMENTOS NECESARIOS PARA SU COMPLETA PUESTA EN FUNCIONAMIENTO, ASÍ COMO SU EXPLOTACIÓN, GESTIÓN Y MANTENIMIENTO, TANTO DE ELLOS COMO DE LOS ELEMENTOS QUE PUDIERAN INTEGRARLOS. EL DESARROLLO, LA VENTA, EL ALQUILER, LA EXPLOTACIÓN Y EL MANTENIMIENTO DE PROGRAMAS Y PROGRAMACIÓN DE LAS REFERIDAS MÁQUINAS Y EQUIPOS Y DE SUS APLICACIONES. LA FABRICACIÓN DE EQUIPOS Y SISTEMAS DE PROCESO DE DATOS, DE PRODUCTOS DE ELECTROMEDICINA, DE CONTROL DE PROCESOS Y DE SUS MÁQUINAS, COMPONENTES, PIEZAS, ACCESORIOS Y LA FABRICACIÓN DE LOS SUMINISTROS NECESARIOS PARA SU UTILIZACIÓN, BIEN SEAN FICHAS, CINTAS, DISCOS O CUALESQUIERA OTROS, CON INDEPENDENCIA DE SU DENOMINACIÓN. LA INSTALACIÓN, DESINSTALACIÓN, EMBALAJE, TRASLADO Y REUBICACIÓN DE LOS EQUIPOS INFORMÁTICOS Y DE TELECOMUNICACIÓN",
      "mainEntityOfPage": "https://www.contratacion.euskadi.eus/webkpe00-kperoc/es/ac71aBusquedaRegistrosWar/empresa/00207",
      "_links": {
        "self": {
          "name": "INTERNATIONAL BUSINESS MACHINES, S.A.",
          "href": "https://api.euskadi.eus/procurements/companies/00207"
        }
      }
    },
    {
      "name": "COVESA 2020 PROYECTOS Y SERVICIOS, S.L.",
      "registrationNumber": "08308",
      "identificationNumber": "B42788281",
      "address": "Travesía de Opañel nº6 bajo garaje",
      "location": {
        "postalCode": "28019",
        "municipality": "Madrid",
        "county": "Madrid",
        "municipalityId": "079",
        "countyId": "28"
      },
      "economicActivities": [
        {
          "id": "1.501.3",
          "name": "Albañilería y pequeños trabajos de construcción en general",
          "_links": {
            "self": {
              "name": "Albañilería y pequeños trabajos de construcción en general",
              "href": "https://api.euskadi.eus/procurements/companies/economic-activities/1.501.3"
            }
          }
        }
      ],
      "certificateStartDate": "2023-10-02",
      "certificateEndDate": "2024-04-02",
      "object": "ACTIVIDAD PRINCIPAL: REFORMAS EN GENERAL Y CONSTRUCCIÓN, REPARACIÓN Y CONSERVACIÓN DE EDIFICACIONES (CNAE: 4121). ACTIVIDADES SECUNDARIAS: INTERVENCIÓN INMOBILIARIA EN NOMBRE PROPIO O EN NOMBRE DE TERCEROS, LIMPIEZAS EN GENERAL, TRANSPORTE DE MERCANCÍAS DE CONSTRUCCIÓN, COMPRAVENTA DE VEHÍCULOS A MOTOR.",
      "mainEntityOfPage": "https://www.contratacion.euskadi.eus/webkpe00-kperoc/es/ac71aBusquedaRegistrosWar/empresa/08308",
      "_links": {
        "self": {
          "name": "COVESA 2020 PROYECTOS Y SERVICIOS, S.L.",
          "href": "https://api.euskadi.eus/procurements/companies/08308"
        }
      }
    },
    {
      "name": "SAFETY METHS SEGURIDAD INDUSTRIAL, S.L.",
      "registrationNumber": "08307",
      "identificationNumber": "B47796487",
      "address": "Calle Plata, nº3",
      "location": {
        "postalCode": "47012",
        "municipality": "Valladolid",
        "county": "Valladolid",
        "municipalityId": "186",
        "countyId": "47"
      },
      "economicActivities": [
        {
          "id": "1.843.9",
          "name": "Otros servicios técnicos n.c.o.p",
          "_links": {
            "self": {
              "name": "Otros servicios técnicos n.c.o.p",
              "href": "https://api.euskadi.eus/procurements/companies/economic-activities/1.843.9"
            }
          }
        }
      ],
      "certificateStartDate": "2023-10-02",
      "certificateEndDate": "2024-04-02",
      "object": "DESARROLLO Y COMERCIALIZACIÓN DE SERVICIOS TÉCNICOS DE ASESORAMIENTO, COORDINACIÓN Y CONSULTORÍA EN: SEGURIDAD, LÍNEAS DE VIDA, CERTIFICACIÓN, REVISIONES Y MANTENIMIENTO. PREVENCIÓN DE RIESGOS LABORALES. SISTEMAS DE GESTIÓN EMPRESARIAL. CALIDAD Y MEDIOAMBIENTE. INFORMÁTICA Y DESARROLLO DE SOFTWARE. FORMACIÓN. ALQUILER, VENTA, MONTAJE Y MANTENIMIENTO DEL MATERIAL, EQUIPOS Y DESARROLLOS CON LOS SERVICIOS TÉCNICOS CITADOS, INCLUIDOS EQUIPOS DE PROTECCIÓN INDIVIDUAL. ELABORACIÓN DE PROYECTOS, ESTUDIOS TÉCNICOS Y DE SEGURIDAD.",
      "mainEntityOfPage": "https://www.contratacion.euskadi.eus/webkpe00-kperoc/es/ac71aBusquedaRegistrosWar/empresa/08307",
      "_links": {
        "self": {
          "name": "SAFETY METHS SEGURIDAD INDUSTRIAL, S.L.",
          "href": "https://api.euskadi.eus/procurements/companies/08307"
        }
      }
    },
    {
      "name": "ZU ETA BIOK ELKARTE KOOPERATIBOA",
      "registrationNumber": "08440",
      "identificationNumber": "F20526695",
      "address": "Pº SAN FRANCISCO",
      "location": {
        "postalCode": "20400",
        "municipality": "Tolosa",
        "county": "Gipuzkoa",
        "municipalityId": "071",
        "countyId": "20"
      },
      "economicActivities": [
        {
          "id": "1.673.2",
          "name": "Otros cafés y bares",
          "_links": {
            "self": {
              "name": "Otros cafés y bares",
              "href": "https://api.euskadi.eus/procurements/companies/economic-activities/1.673.2"
            }
          }
        },
        {
          "id": "1.922.1",
          "name": "Servicios de limpieza de interiores",
          "_links": {
            "self": {
              "name": "Servicios de limpieza de interiores",
              "href": "https://api.euskadi.eus/procurements/companies/economic-activities/1.922.1"
            }
          }
        },
        {
          "id": "1.951",
          "name": "Asistencia y servicios sociales en centros residenciales",
          "_links": {
            "self": {
              "name": "Asistencia y servicios sociales en centros residenciales",
              "href": "https://api.euskadi.eus/procurements/companies/economic-activities/1.951"
            }
          }
        },
        {
          "id": "1.952",
          "name": "Asistencia y servicios sociales en centros no residenciales",
          "_links": {
            "self": {
              "name": "Asistencia y servicios sociales en centros no residenciales",
              "href": "https://api.euskadi.eus/procurements/companies/economic-activities/1.952"
            }
          }
        }
      ],
      "certificateStartDate": "2023-10-01",
      "certificateEndDate": "2024-04-01",
      "object": "LA PRESTACIÓN DE TODO TIPO DE SERVICIOS ASISTENCIALES PARA PERSONAS VÁLIDAS Y NO VÁLIDAS, TANTO EN SUS DOMICILIOS COMO EN CENTROS DEDICADOS  A LA ATENCIÓN DE ESOS COLECTIVOS O EN QUALQUIER OTRO LUGAR DONDE PUDIERAN LOCALIZARSE LOS MISMOS. ENTRE LOS TIPOS DE SERVICIO ASISTENCIALES, SIN SER LIMITADOS, SE INCLUYEN LOS SANITARIOS SOCIALES, DE HIGIENE, LIMPIEZA, ALIMENTACIÓN, LAVANDERÍA, MANTENIMIENTO Y DE ANIMACIÓN PARA EL OCIO Y EL TIEMPO LIBRE. LOS COLECTIVOS DESTINATARIOS SE LOS SERVICIOS ASISTENCIALES SERÁN PREFERENTEMENTE AQUELLOS CON DISCAPACIDAD FÍSICA, SÍQUICA Y SOCIAL COMO LOS ANCIANOS Y ENFERMOS. TAMBIÉN SE PODRÁ REALIZAR LA EXPLOTACIÓN DE ESTABLECIMIENTO DE RESTAURANTES, CAFETERÍAS, BARES Y SIMILARES, EN LOCALES PROPIOS O AJENOS.",
      "mainEntityOfPage": "https://www.contratacion.euskadi.eus/webkpe00-kperoc/es/ac71aBusquedaRegistrosWar/empresa/08440",
      "_links": {
        "self": {
          "name": "ZU ETA BIOK ELKARTE KOOPERATIBOA",
          "href": "https://api.euskadi.eus/procurements/companies/08440"
        }
      }
    },
    {
      "name": "FEDERACION ALAVESA DE PELOTA",
      "registrationNumber": "04643",
      "identificationNumber": "G01033190",
      "address": "Plaza Amadeo García de Salazar",
      "location": {
        "postalCode": "01007",
        "municipality": "Vitoria-Gasteiz",
        "county": "Araba/Álava",
        "municipalityId": "059",
        "countyId": "01"
      },
      "economicActivities": [
        {
          "id": "1.999",
          "name": "Otros servicios n.c.o.p",
          "_links": {
            "self": {
              "name": "Otros servicios n.c.o.p",
              "href": "https://api.euskadi.eus/procurements/companies/economic-activities/1.999"
            }
          }
        }
      ],
      "certificateStartDate": "2023-09-28",
      "certificateEndDate": "2024-03-27",
      "object": "A) ORGANIZAR LA ACTIVIDAD DEPORTIVA RELACIONADA CON LAS MODALIDADES DEPORTIVAS DE PELOTA VASCA EN SU ÁMBITO TERRITORIAL. B) ORGANIZAR LAS COMPETICIONES OFICIALES Y ACTIVIDADES DE LAS MODALIDADES DEPORTIVAS DE PELOTA VASCA EN SU RESPECTIVO TERRITORIO HISTÓRICO. C) ESTABLECER SUS PROPIAS NORMAS DE PARTICIPACIÓN Y COMPETICIÓN, SIN PERJUICIO DE APLICACIÓN, EN SU CASO, DE LAS NORMAS DICTADAS POR FEDERACIONES DE ÁMBITO TERRITORIAL SUPERIOR. D) TRAMITAR LAS LICENCIAS FEDERATIVAS DE LAS MODALIDADES DEPORTIVAS DE PELOTA VASCA, PARA SU EXPEDICIÓN POR LA FEDERACIÓN DE EUSKADI DE LA MISMA MODALIDAD CONFORME A LOS REQUISITOS Y EL PROCEDIMIENTO ESTABLECIDO POR ÉSTA. E) CONOCER Y RESOLVER LOS CONFLICTOS QUE SE ORIGINEN EN EL DESARROLLO DE LA ACTIVIDAD. F) VELAR POR EL CUMPLIMIENTO DE SUS NORMAS REGLAMENTARIAS Y EJERCER LA POTESTAD DISCIPLINARIA CON ARREGLO A LAS MISMAS. G) COLABORAR CON LA FEDERACIÓN DE EUSKADI DE PELOTA VASCA EN LA PREVENCIÓN, CONTROL Y REPRESIÓN DEL USO DE SUSTANCIAS Y GRUPOS FARMACOLÓGICOS PROHIBIDOS Y MÉTODOS NO REGLAMENTARIOS EN EL DEPORTE, CONFORME A LA NORMATIVA QUE AL EFECTO SE DETERMINE. H) COLABORAR CON LA FEDERACIÓN DE EUSKADI DE PELOTA VASCA EN LA FORMACIÓN DE LOS TÉCNICOS Y JUECES QUE DESARROLLAN SU ACTIVIDAD EN LA RESPECTIVA MODALIDAD. I) ESTABLECER EL DESTINO Y LA ASIGNACIÓN DE LOS RECURSOS ECONÓMICOS PROPIOS, GESTIONAR LOS RECURSOS QUE LES TRANSFIERAN OTRAS ENTIDADES PARA EL DESARROLLO DE SU ACTIVIDAD, Y CONTROLAR LA CORRECTA APLICACIÓN DE TODOS SUS RECURSOS. J) ASIGNAR Y CONTROLAR LA APLICACIÓN DE LAS SUBVENCIONES QUE PUDIERA CONCEDER A LOS CLUBES Y AGRUPACIONES DEPORTIVAS ADSCRITOS A ELLA. K) COLABORAR CON LAS ADMINISTRACIONES DEL PAÍS VASCO EN EL CUMPLIMIENTO DE SUS FINES DE PROMOCIÓN DEPORTIVA. L) ELABORAR SUS ESTATUTOS Y REGLAMENTOS DEPORTIVOS. M) CUALQUIER OTRA QUE SE LE ASIGNE LEGAL O REGLAMENTARIAMENTE.",
      "mainEntityOfPage": "https://www.contratacion.euskadi.eus/webkpe00-kperoc/es/ac71aBusquedaRegistrosWar/empresa/04643",
      "_links": {
        "self": {
          "name": "FEDERACION ALAVESA DE PELOTA",
          "href": "https://api.euskadi.eus/procurements/companies/04643"
        }
      }
    },
    {
      "name": "ROBERTO JURADO LÓPEZ Y MIREN ITXASO SÁENZ DAÑOBEITIA, S.C.",
      "registrationNumber": "08670",
      "identificationNumber": "J95105870",
      "address": "Bilintx 2 bajo",
      "location": {
        "postalCode": "48006",
        "municipality": "Bilbao",
        "county": "Bizkaia",
        "municipalityId": "020",
        "countyId": "48"
      },
      "economicActivities": [
        {
          "id": "1.942.9",
          "name": "Otros servicios sanitarios sin internados, no clasificados",
          "_links": {
            "self": {
              "name": "Otros servicios sanitarios sin internados, no clasificados",
              "href": "https://api.euskadi.eus/procurements/companies/economic-activities/1.942.9"
            }
          }
        }
      ],
      "certificateStartDate": "2023-09-27",
      "certificateEndDate": "2024-03-27",
      "object": "1º) LA TERAPIA, TRATAMIENTO Y REHABILITACIÓN LOGOPÉDICA, PEDAGÓGICA Y LINGÜÍSTICA. 2º) CUALQUIER OTRA ACTIVIDAD QUE SEA ANTECEDENTE, COMPLEMENTO O CONSECUENCIA DE LO ANTERIOR O ESTÉ DIRECTAMENTE RELACIONADA CON ELLO.",
      "mainEntityOfPage": "https://www.contratacion.euskadi.eus/webkpe00-kperoc/es/ac71aBusquedaRegistrosWar/empresa/08670",
      "_links": {
        "self": {
          "name": "ROBERTO JURADO LÓPEZ Y MIREN ITXASO SÁENZ DAÑOBEITIA, S.C.",
          "href": "https://api.euskadi.eus/procurements/companies/08670"
        }
      }
    },
    {
      "name": "ADANTIA, S.L.",
      "registrationNumber": "06403",
      "identificationNumber": "B15503279",
      "address": "Rúa Monte dos Postes, 6 Bajo",
      "location": {
        "postalCode": "15703",
        "municipality": "Santiago de Compostela",
        "county": "Coruña, A",
        "municipalityId": "078",
        "countyId": "15"
      },
      "economicActivities": [
        {
          "id": "1.843.1",
          "name": "Servicios técnicos de ingeniería",
          "_links": {
            "self": {
              "name": "Servicios técnicos de ingeniería",
              "href": "https://api.euskadi.eus/procurements/companies/economic-activities/1.843.1"
            }
          }
        }
      ],
      "certificateStartDate": "2023-09-27",
      "certificateEndDate": "2024-03-27",
      "object": "A) SERVICIOS DE CONSULTORÍA, ASESORÍA INTEGRAL, INVESTIGACIÓN Y DESARROLLO, Y FORMACIÓN EN MATERIA DE MEDIO AMBIENTE, ORDENACIÓN TERRITORIAL, HIGIENE, SEGURIDAD, CALIDAD Y PREVENCIÓN DE RIESGOS LABORALES. B) ELABORACIÓN DE ESTUDIOS Y PROYECTOS SOBRE MEDIO AMBIENTE, ORDENACIÓN TERRITORIAL, HIGIENE, SEGURIDAD, CALIDAD Y PREVENCIÓN DE RIESGOS LABORALES Y EJECUCIÓN DE LOS MISMOS EN TODOS SUS ASPECTOS, TANTO PARA LA EMPRESA PRIVADA COMO PARA LA ADMINISTRACIÓN, PREVIO CUMPLIMIENTO DE LOS REQUISITOS LEGALES EXIGIBLES. E) IMPORTACIÓN, COMPRA, VENTA, DISEÑO, CONSTRUCCIÓN, REPARACIÓN E INSTALACIÓN DE EQUIPOS RELACIONADOS CON EL MEDIO AMBIENTE, ORDENACIÓN TERRITORIAL, HIGIENE, SEGURIDAD, CALIDAD Y PREVENCIÓN DE RIESGOS LABORALES. D) DISEÑO, PROYECTO, CONSTRUCCIÓN, CONTROL DE CALIDAD Y EXPLOTACIÓN DE INSTALACIONES DE TRATAMIENTOS DE RESIDUOS Y DEPURACIÓN. E) COORDINACIÓN DE MEDIO AMBIENTE, ORDENACIÓN TERRITORIAL, HIGIENE, SEGURIDAD, CALIDAD Y PREVENCIÓN DE RIESGOS LABORALES EN FASE DE PROYECTOS, EJECUCIÓN DE OBRA Y EXPLOTACIÓN. F) ACTIVIDADES DE TRAMITACIÓN Y GESTIÓN DE EXPEDIENTES ADMINISTRATIVOS Y DE TRIBUTOS, TANTO PARA LA EMPRESA PRIVADA COMO PARA LA ADMINISTRACIÓN, PREVIO CUMPLIMIENTO DE LOS REQUISITOS LEGALES EXIGIBLES. G) SERVICIOS DE CONSULTORÍA, ASESORÍA INTEGRAL, INVESTIGACIÓN Y DESARROLLO, Y FORMACIÓN EN MATERIA DE SISTEMAS INFORMÁTICOS, TRATAMIENTO DE INFORMACIÓN Y SOFTWARE. H) PRODUCCIÓN, DESARROLLO Y COMERCIALIZACIÓN DE SOFTWARE",
      "mainEntityOfPage": "https://www.contratacion.euskadi.eus/webkpe00-kperoc/es/ac71aBusquedaRegistrosWar/empresa/06403",
      "_links": {
        "self": {
          "name": "ADANTIA, S.L.",
          "href": "https://api.euskadi.eus/procurements/companies/06403"
        }
      }
    },
    {
      "name": "BASA ARQUITECTURA S.COOP. PEQUEÑA PROFESIONAL",
      "registrationNumber": "08389",
      "identificationNumber": "F75030320",
      "address": "Avd Pasajes San Pedro 19 Edificio Zentek Oficina 11",
      "location": {
        "postalCode": "20017",
        "municipality": "Donostia / San Sebastián",
        "county": "Gipuzkoa",
        "municipalityId": "069",
        "countyId": "20"
      },
      "economicActivities": [
        {
          "id": "1.843.2",
          "name": "Servicios técnicos de arquitectura y urbanismo",
          "_links": {
            "self": {
              "name": "Servicios técnicos de arquitectura y urbanismo",
              "href": "https://api.euskadi.eus/procurements/companies/economic-activities/1.843.2"
            }
          }
        }
      ],
      "certificateStartDate": "2023-09-27",
      "certificateEndDate": "2024-03-27",
      "object": "EL EJERCICIO EN COMÚN DE LA ACTIVIDAD DE ARQUITECTURA.",
      "mainEntityOfPage": "https://www.contratacion.euskadi.eus/webkpe00-kperoc/es/ac71aBusquedaRegistrosWar/empresa/08389",
      "_links": {
        "self": {
          "name": "BASA ARQUITECTURA S.COOP. PEQUEÑA PROFESIONAL",
          "href": "https://api.euskadi.eus/procurements/companies/08389"
        }
      }
    }
  ]
}