{
  "totalItems": 9042,
  "totalPages": 905,
  "currentPage": 80,
  "itemsOfPage": 10,
  "items": [
    {
      "name": "VALENCIA OUTDOOR, S.L",
      "registrationNumber": "07409",
      "identificationNumber": "B98876543",
      "address": "Cl Ovidi Montllor 5",
      "location": {
        "postalCode": "46960",
        "municipality": "Aldaia",
        "county": "Valencia/València",
        "municipalityId": "021",
        "countyId": "46"
      },
      "economicActivities": [
        {
          "id": "1.474",
          "name": "Artes gráficas (impresión gráfica)",
          "_links": {
            "self": {
              "name": "Artes gráficas (impresión gráfica)",
              "href": "https://api.euskadi.eus/procurements/companies/economic-activities/1.474"
            }
          }
        },
        {
          "id": "1.844",
          "name": "Servicios de publicidad, relaciones públicas y similares",
          "_links": {
            "self": {
              "name": "Servicios de publicidad, relaciones públicas y similares",
              "href": "https://api.euskadi.eus/procurements/companies/economic-activities/1.844"
            }
          }
        }
      ],
      "certificateStartDate": "2026-01-15",
      "certificateEndDate": "2026-06-27",
      "object": "- LA REALIZACIÓN DE ACTIVIDADES DE IMPRESIÓN DIGITAL Y ARTES GRÁFICAS Y LA PRESTACIÓN DE SERVICIOS PROPIOS DE UNA AGENCIA DE PUBLICIDAD. - LA COMPRAVENTA, DISTRIBUCIÓN, MEDIACIÓN, CONCESIÓN, EXPORTACIÓN, IMPORTACIÓN, ARRENDAMIENTO NO FINANCIERO DE TODA CLASE DE MATERIALES, MAQUINARIA, ACCESORIOS Y BIENES MUEBLES RELACIONADOS CON EL OBJETO PRINCIPAL EN GENERAL. - LA PRESTACIÓN DE SERVICIOS DE REPRODUCCIÓN O PROYECTO DE COMERCIALES, CORTOMETRAJES, PELÍCULAS, SERIES, DE ORIGINE AUDITIVO, VISUAL O AUDIOVISUAL, A TRAVÉS DE LAS DIVERSAS REDES Y SISTEMAS DE INFORMACIÓN ELECTRÓNICOS PRESENTES Y FUTURAS, ASÍ COMO A TRAVÉS DE CUALQUIER OTRO MEDIO DE COMUNICACIÓN LEGALMENTE ESTABLECIDO. - REALIZACIÓN DE TODOS LOS TRABAJOS DE ALBAÑILERÍA Y OBRAS DE FÁBRICA PARA LA INSTALACIÓN Y MANTENIMIENTO DE LOS ELEMENTOS NECESARIOS PARA EL DESARROLLO DE LAS ACTIVIDADES PUBLICITARIAS QUE DESEMPEÑA LA SOCIEDAD. -LA LIMPIEZA Y MANTENIMIENTO DE MOBILIARIO URBANO Y CUALQUIER ELEMENTO PUBLICITARIO.",
      "mainEntityOfPage": "https://www.contratacion.euskadi.eus/webkpe00-kperoc/es/ac71aBusquedaRegistrosWar/empresa/07409",
      "_links": {
        "self": {
          "name": "VALENCIA OUTDOOR, S.L",
          "href": "https://api.euskadi.eus/procurements/companies/07409"
        }
      }
    },
    {
      "name": "IBEROCLINIC ELECTROMEDICINA, S.L.",
      "registrationNumber": "07638",
      "identificationNumber": "B48664759",
      "address": "Paseo Lezama-Leguizamon nº11 bajo",
      "location": {
        "postalCode": "48450",
        "municipality": "Etxebarri",
        "county": "Bizkaia",
        "municipalityId": "029",
        "countyId": "48"
      },
      "economicActivities": [
        {
          "id": "1.619.2",
          "name": "Venta al por mayor de aparatos e instrumentos médicos, ortopédicos, ópticos",
          "_links": {
            "self": {
              "name": "Venta al por mayor de aparatos e instrumentos médicos, ortopédicos, ópticos",
              "href": "https://api.euskadi.eus/procurements/companies/economic-activities/1.619.2"
            }
          }
        }
      ],
      "certificateStartDate": "2026-01-15",
      "certificateEndDate": "2026-06-30",
      "object": "LA IMPORTACIÓN, EXPORTACIÓN, COMERCIALIZACIÓN, MONTAJE, REPARACIÓN, PRUEBAS Y ESTUDIOS SOBRE TODO TIPO DE ELEMENTOS, APARATOS E INSTRUMENTOS MÉDICO Y ORTOPÉDICO",
      "mainEntityOfPage": "https://www.contratacion.euskadi.eus/webkpe00-kperoc/es/ac71aBusquedaRegistrosWar/empresa/07638",
      "_links": {
        "self": {
          "name": "IBEROCLINIC ELECTROMEDICINA, S.L.",
          "href": "https://api.euskadi.eus/procurements/companies/07638"
        }
      }
    },
    {
      "name": "VILT IBERICA, S.L.",
      "registrationNumber": "08931",
      "identificationNumber": "B85045029",
      "address": "AVDA. DE LA ALBUFERA 319, 3ª, 301",
      "location": {
        "postalCode": "28031",
        "municipality": "Madrid",
        "county": "Madrid",
        "municipalityId": "079",
        "countyId": "28"
      },
      "economicActivities": [
        {
          "id": "1.843.1",
          "name": "Servicios técnicos de ingeniería",
          "_links": {
            "self": {
              "name": "Servicios técnicos de ingeniería",
              "href": "https://api.euskadi.eus/procurements/companies/economic-activities/1.843.1"
            }
          }
        }
      ],
      "certificateStartDate": "2026-01-15",
      "certificateEndDate": "2026-06-30",
      "object": "- DESARROLLO DE SOFTWARE INFORMÁTICO. - SERVICIOS DE CONSULTORÍA INFORMÁTICA. - EXPLOTACIÓN Y COMERCIALIZACIÓN DE LICENCIAS DE SOFTWARE. - PROYECTOS TÉCNICOS E INSTALACIÓN DE DISPOSITIVOS INFORMÁTICOS. - INVESTIGACIÓN Y DESARROLLO DE PROYECTOS TECNOLÓGICOS. - COMPRA VENTA DE EDIFICIOS, SOLARES E INMUEBLES DE NATURALEZA URBANA Y RÚSTICA. - VENTA EL POR MENOR DE HARDWARE.",
      "mainEntityOfPage": "https://www.contratacion.euskadi.eus/webkpe00-kperoc/es/ac71aBusquedaRegistrosWar/empresa/08931",
      "_links": {
        "self": {
          "name": "VILT IBERICA, S.L.",
          "href": "https://api.euskadi.eus/procurements/companies/08931"
        }
      }
    },
    {
      "name": "MARIA VIRGINIA ORIÑUELA FERNÁNDEZ",
      "registrationNumber": "05101",
      "identificationNumber": "16236268Q",
      "address": "Hegoalde, 2 - Apodaka",
      "location": {
        "postalCode": "01138",
        "municipality": "Zigoitia",
        "county": "Araba/Álava",
        "municipalityId": "018",
        "countyId": "01"
      },
      "economicActivities": [
        {
          "id": "1.722",
          "name": "Transporte de mercancías por carretera",
          "_links": {
            "self": {
              "name": "Transporte de mercancías por carretera",
              "href": "https://api.euskadi.eus/procurements/companies/economic-activities/1.722"
            }
          }
        }
      ],
      "certificateStartDate": "2026-01-15",
      "certificateEndDate": "2026-06-30",
      "object": "TRANSPORTES DE MERCANCÍA POR CARRETERA",
      "mainEntityOfPage": "https://www.contratacion.euskadi.eus/webkpe00-kperoc/es/ac71aBusquedaRegistrosWar/empresa/05101",
      "_links": {
        "self": {
          "name": "MARIA VIRGINIA ORIÑUELA FERNÁNDEZ",
          "href": "https://api.euskadi.eus/procurements/companies/05101"
        }
      }
    },
    {
      "name": "LAUDIO IRRATIA, S.L.",
      "registrationNumber": "06714",
      "identificationNumber": "B01040906",
      "address": "Industrialdea 001-Edificio Ceramica 3º Planta",
      "location": {
        "postalCode": "01400",
        "municipality": "Laudio/Llodio",
        "county": "Araba/Álava",
        "municipalityId": "036",
        "countyId": "01"
      },
      "economicActivities": [
        {
          "id": "1.964.1",
          "name": "Servicios de radiodifusión",
          "_links": {
            "self": {
              "name": "Servicios de radiodifusión",
              "href": "https://api.euskadi.eus/procurements/companies/economic-activities/1.964.1"
            }
          }
        }
      ],
      "certificateStartDate": "2026-01-15",
      "certificateEndDate": "2026-06-26",
      "object": "LA CREACIÓN, GESTIÓN, DIRECCIÓN, EXPLOTACIÓN Y FUNCIONAMIENTO DE UNA O MÁS EMISORAS DE RADIO, EMISORAS DE TELEVISIÓN, PRODUCCIÓN AUDIOVISUAL EN CUALESQUIERA DE SUS FORMATOS Y TRANSMISIÓN DE SUS CONTENIDOS POR CUALQUIER SOPORTE O CANAL, PRESENTE O FUTURO, Y TAMBIÉN LA PRODUCCIÓN DE CONTENIDOS IMPRESOS, PRENSA ESCRITA Y PRENSA ELECTRÓNICA, ASÍ COMO TODOS AQUÉLLOS RELACIONADOS CON LA COMUNICACIÓN SOCIAL Y QUE EN EL FUTURO SE PUEDAN DESARROLLAR",
      "mainEntityOfPage": "https://www.contratacion.euskadi.eus/webkpe00-kperoc/es/ac71aBusquedaRegistrosWar/empresa/06714",
      "_links": {
        "self": {
          "name": "LAUDIO IRRATIA, S.L.",
          "href": "https://api.euskadi.eus/procurements/companies/06714"
        }
      }
    },
    {
      "name": "SUMUN EQUIPAMIENTOS, S.L.",
      "registrationNumber": "06664",
      "identificationNumber": "B95613642",
      "address": "TORRETXU BIDEA, 5 PAB 2",
      "location": {
        "postalCode": "48150",
        "municipality": "Sondika",
        "county": "Bizkaia",
        "municipalityId": "904",
        "countyId": "48"
      },
      "economicActivities": [
        {
          "id": "1.453",
          "name": "Confección en serie de toda clase de prendas de vestir",
          "_links": {
            "self": {
              "name": "Confección en serie de toda clase de prendas de vestir",
              "href": "https://api.euskadi.eus/procurements/companies/economic-activities/1.453"
            }
          }
        },
        {
          "id": "1.613.3",
          "name": "Venta al por mayor de prendas exteriores de vestir",
          "_links": {
            "self": {
              "name": "Venta al por mayor de prendas exteriores de vestir",
              "href": "https://api.euskadi.eus/procurements/companies/economic-activities/1.613.3"
            }
          }
        },
        {
          "id": "1.619.1",
          "name": "Venta al por mayor de juguetes y artículos de deporte",
          "_links": {
            "self": {
              "name": "Venta al por mayor de juguetes y artículos de deporte",
              "href": "https://api.euskadi.eus/procurements/companies/economic-activities/1.619.1"
            }
          }
        },
        {
          "id": "1.651.2",
          "name": "Venta al por menor de prendas de ropa para el vestido y tocado",
          "_links": {
            "self": {
              "name": "Venta al por menor de prendas de ropa para el vestido y tocado",
              "href": "https://api.euskadi.eus/procurements/companies/economic-activities/1.651.2"
            }
          }
        },
        {
          "id": "1.659.6",
          "name": "Venta al por menor de juguetes, artículos de deporte",
          "_links": {
            "self": {
              "name": "Venta al por menor de juguetes, artículos de deporte",
              "href": "https://api.euskadi.eus/procurements/companies/economic-activities/1.659.6"
            }
          }
        }
      ],
      "certificateStartDate": "2026-01-15",
      "certificateEndDate": "2026-05-28",
      "object": "1. LA FABRICACIÓN, DISTRIBUCIÓN Y COMERCIALIZACIÓN DE VESTUARIO LABORAL Y SUS ACCESORIOS, CON ESPECIALIZACIÓN EN EL CORRESPONDIENTE A LOS CUERPOS Y FUERZAS DE SEGURIDAD Y SERVICIOS DE EMERGENCIAS. 2. LA COMPRA, VENTA U ORGANIZACIÓN EN TERRITORIO ESPAÑOL DE LAS ACTIVIDADES RELACIONADAS CON LAS ARMAS DE FUEGO O ASIMILADAS, SUS PIEZAS FUNDAMENTALES O MUNICIONES, NEGOCIANDO O CONCERTANDO LAS CITADAS TRANSACCIONES COMERCIALES",
      "mainEntityOfPage": "https://www.contratacion.euskadi.eus/webkpe00-kperoc/es/ac71aBusquedaRegistrosWar/empresa/06664",
      "_links": {
        "self": {
          "name": "SUMUN EQUIPAMIENTOS, S.L.",
          "href": "https://api.euskadi.eus/procurements/companies/06664"
        }
      }
    },
    {
      "name": "LOTURA GIZA GARAPENA KOOP.ELK.TXIKIA",
      "registrationNumber": "08064",
      "identificationNumber": "F75233056",
      "address": "PLAZA HIRU DAMATXO, 09, BAJO A",
      "location": {
        "postalCode": "20009",
        "municipality": "Donostia / San Sebastián",
        "county": "Gipuzkoa",
        "municipalityId": "069",
        "countyId": "20"
      },
      "economicActivities": [
        {
          "id": "1.847",
          "name": "Servicios de consultoría",
          "_links": {
            "self": {
              "name": "Servicios de consultoría",
              "href": "https://api.euskadi.eus/procurements/companies/economic-activities/1.847"
            }
          }
        },
        {
          "id": "1.952",
          "name": "Asistencia y servicios sociales en centros no residenciales",
          "_links": {
            "self": {
              "name": "Asistencia y servicios sociales en centros no residenciales",
              "href": "https://api.euskadi.eus/procurements/companies/economic-activities/1.952"
            }
          }
        }
      ],
      "certificateStartDate": "2026-01-15",
      "certificateEndDate": "2026-06-25",
      "object": "EL OBJETO DE ESTA SOCIEDAD COOPERATIVA PERSIGUE EL INTERÉS GENERAL DE LA COMUNIDAD PARA LA PREVENCIÓN, PROMOCIÓN, INCLUSIÓN Y DEFENSA DE LOS DERECHOS DE TODOS-AS LOS-AS CIUDADANOS-AS EN SITUACIÓN DE VULNERABILIDAD EN SU MÁS AMPLIO CONCEPTO. ENTENDEMOS COMO TALES, A TÍTULO EXHAUSTIVO Y NO LIMITATIVO, A LAS PERSONAS COMPRENDIDAS EN ALGUNO DE LOS SIGUIENTES COLECTIVOS O SITUACIONES: - PERSONS SIN HOGAR Y EN EXCLUSIÓN RESIDENCIAL. - PERSONAS TITULARES DE RENTAS MÍNIMAS DE INSERCIÓN O SISTEMAS DE GARANTÍA DE INGRESOS MÍNIMOS Y OTRAS PRESTACIONES SOCIALES, ASÍ COMO LAS PERSONAS QUE CONFORMAN LA UNIDAD DE CONVIVENCIA BENEFICIARIA DE ESTAS. - PERSONAS QUE NO PUEDEN SER PERCEPTORAS DE RENTAS MÍNIMAS U OTRAS PRESTACIONES POR NO CUMPLIR ALGUNO DE LOS REQUISITOS ESTABLECIDOS PERO QUE ESTÁN VIVIENDO UNA SITUACIÓN DE VULNERABILIDAD O EXCLUSIÓN SOCIAL ACREDITADA. - JÓVENES EN DESAMPARO O EN RÉGIMEN DE PROTECCIÓN, JÓVENES MAYORES DE DIECIOCHO AÑOS, PROCEDENTES DE INSTITUCIONES DE PROTECCIÓN AL MENOR, EN PROCESO DE EMANCIPACIÓN Y JÓVENES EN SITUACIÓN DE RIESGO Y/O EXCLUSIÓN CON DIFICULTADES DE ACCESO AL EMPLEO. - PERSONAS CON PROBLEMAS DE DROGODEPENDENCIA U OTROS TRASTORNOS ADICTIVOS SE ENCUENTREN O NO EN PROCESO DE TRATAMIENTO Y REHABILITACIÓN. - PERSONAS INTERNAS EN CENTROS PENITENCIARIOS, EN TERCER GRADO O EN SITUACIÓN DE LIBERTAD CONDICIONAL, ASÍ COMO LA POBLACIÓN EX-RECLUSA. - PERSONAS CON PROBLEMÁTICA DE SALUD MENTAL Y/O TRANSTORNOS PSICOLÓGICOS. - PERSONAS CON DISCAPACIDAD FÍSICA, PSÍQUICA Y/O SENSORIAL. - PERSONAS CON PROBLEMÁTICA DE EMPLEABILIDAD Y DESEMPLEADAS DE LARGA DURACIÓN. - MUJERES VÍCTIMAS DE VIOLENCIA DE GÉNERO O EN SITUACIÓN DE ALTA VULNERABILIDAD Y FAMILIAS MONOMARENTALES. - PERSONAS INMIGRANTES, INDEPENDIENTEMENTE DE SU SITUACIÓN JURÍDICA O ADMINISTRATIVA. PARA ELLO, DESARROLLAMOS LAS SIGUIENTES ACTIVIDADES: A) DISEÑO, INTERVENCIÓN, IMPLEMENTACIÓN, DESARROLLO, EVALUACIÓN Y PROMOCIÓN DE PROGRAMAS Y PROYECTOS DE INNOVACIÓN PSICO-SOCIO-SANITARIO LABORALES, EDUCATIVOS Y COMUNITARIOS EN SU MÁS AMPLIA CONSIDERACIÓN, ESPECIALMENTE: - PROGRAMAS Y PROYECTOS CON PERSONAS Y FAMILIAS EN SITUACIÓN DE VULNERABILIDAD, RIESGO, EXCLUSIÓN SOCIAL YT SINHOGARISMO PARA SU INCLUSIÓN SOCIAL. - PROGRAMAS Y PROYECTOS DE MENTORÍA SOCIAL, LABORAL, SANITARIA Y PENITENCIARIA. - PROGRAMAS Y PROYECTOS DE ATENCIÓN A LA SALUD MENTAL, EL BIENESTAR PSICOLÓGICO Y LA INTERVENCIÓN EN CRISIS. - PROGRAMAS Y PROYECTOS DE PARA EL EMPLEO Y LA INSERCIÓN SOCIOLABORAL. - PROGRAMAS Y PROYECTOS CON PERSONAS INMIGRANTES Y SOLICITANTES DE ASILO POLÍTICO. -PROGRAMAS Y PROYECTOS Y ESTRATEGIAS DE REDUCCIÓN DE RIESGOS Y DAÑOS, DE EDUCACIÓN PARA LA SALUD Y TRATAMIENTO Y REINSERCIÓN DE PERSONAS DROGODEPENDIENTES. - PROGRAMAS Y PROYECTOS CON PERSONAS RECLUSAS Y EX-RECLUSAS PARA SU INCLUSIÓN SOCIAL, MEDIACIÓN Y RESOLUCIÓN DE CONFLICTOS, PREVENCIÓN DEL DELITO, MEDIDAS ALTERNATIVAS DE CUMPLIMIENTO DE PENAS Y TRABAJOS EN BENEFICIO A LA COMUNIDAD. - PROGRAMAS DE ATENCIÓN A LA VÍCTIMA Y VICTIMIZACIÓN SECUNDARIA. - PROGRAMAS Y PROYECTOS DIRECTAMENTE VINCULADOS A LA PREVENCIÓN DE LA VIOLENCIA DE GÉNERO Y AL ÁMBITO DE LAS MUJERES EN SU MÁS AMPLIA CONSIDERACIÓN. - PROGRAMAS Y PROYECTOS E INICIATIVAS DE ECONOMÍA SOCIAL Y SOLIDARIA. - PROGRAMAS Y PROYECTOS PARA LA PROMOCIÓN PARA LA PROMOCIÓN DE LA DIVERSIDAD CULTURAL. - PROGRAMAS Y PROYECTOS PARA LA DEFENSA DE LOS DERECHOS HUMANOS EN SU MÁS AMPLIA CONSIDERACIÓN. -PROGRAMAS Y PROYECTOS VINCULADOS AL ÁMBITO CULTURAL Y ARTÍSTICO PARA LA PROMOCIÓN DE LA INTEGRACIÓN SOCIAL. - PROGRAMAS Y PROYECTOS RELACIONADOS CON LA RESPONSABILIDAD SOCIAL CORPORATIVA DE LAS EMPRESAS PRIVADAS. - PROGRAMAS, PROYECTOS VINCULADOS A LA CONSECUCIÓN DE LOS OBJETIVOS DE DESARROLLO SOSTENIBLE. EN GENERAL, TODOS AQUELLOS PROGRAMAS Y PROYECTOS VINCULADOS A LAS CIENCIAS HUMANAS Y SOCIALES QUE CONTRIBUYEN A ENRIQUECER LA DIMENSIÓN PERSONAL, SOCIAL Y COMUNITARIA DE LAS PERSONAS, EN PARTICULAR, Y DE LA COMUNIDAD, EN GENERAL. B) PRESTACIÓN DE SERVICIOS Y GESTIÓN INTEGRAL Y/O INSTALACIONES -PÚBLICAS Y PRIVADAS- EN LOS ÁMBITOS SEÑALADOS EN EL PUNTO A) DESARROLLANDO LAS TAREAS DE PREVENCIÓN, IMPLEMENTACIÓN, DESARROLLO, INTERVENCIÓN, ACOMPAÑAMIENTO, MENTORIZACIÓN, ANIMACIÓN, INFORMACIÓN, ASESORAMIENTO, ADMINISTRACIÓN, DIRECCIÓN Y GERENCIA CON INFANCIA, JUVENTUD, PERSONAS ADULTAS Y TERCERA EDAD. C) CONSULTORÍA/ASESORÍA EN EL ÁMBITO PSICO-SOCIO-SANITARIO, EDUCATIVO Y DESARROLLO COMUNITARIO Y, EN PARTICULAR, Y EN TODOS LOS ÁMBITOS SEÑALADOS EN LOS PUNTOS A) Y B), EN GENERAL. D) REALIZACIÓN DE INVESTIGACIONES, ESTUDIOS DE CAMPO, ANÁLISIS PROSPECTIVOS, TRABAJOS ESTADÍSTICOS Y EVALUACIONES, ASÍ COMO ESTRATEGIAS, PLANES DE ASESORAMIENTO, DIFUSIÓN Y COMUNICACIÓN EN CUALQUIERA DE LAS ÁREAS SEÑALADAS EN LOS PUNTOS A) Y B). E) FORMACIÓN INDIVIDUAL Y/O GRUPAL A PERSONAS, ENTIDADES, ADMINISTRACIONES PÚBLICAS Y EMPRESAS PRIVADAS EN TODAS AQUELLAS ÁREAS REFERIDAS EN LOS PUNTOS A) Y B). F) PLANIFICAR, ASESORAR, ORGANIZAR, DESARROLLAR Y/O EVALUAR TODO TIPO DE EVENTOS E INICIATIVAS RELACIONADAS CON LOS ÁMBITOS SEÑALADOS EN LOS PUNTOS A) Y B) TALES COMO: CERTÁMENES, CONGRESOS, CURSOS, JORNADAS, ENCUENTROS, SEMINARIOS, REUNIONES Y/O ACCIONES FORMATIVAS CONCRETAS. G) CREAR, COMPILAR, EDITAR Y/O DISTRIBUIR PROGRAMAS, MATERIALES, RECURSOS DE APOYO, GUÍAS DOCENTES Y -EN GENERAL- TODO TIPO DE DOCUMENTOS Y MATERIALES GRÁFICOS, VISUALES Y SONOROS RELACIONADOS CON LAS MATERIAS ESPECIFICADAS EN LOS PUNTOS A) Y B) REALIZADAS SOBRE CUALQUIER SOPORTE AUDIOVISUAL, IMPRESO, INFORMÁTICO O CUALQUIER OTRO SISTEMA DE EDICIÓN Y/O REPRODUCCIÓN. H) DESARROLLAR INICIATIVAS, ESTRATEGIAS, PROYECTOS Y PROGRAMAS DE COLABORACIÓN CON OTRAS PERSONAS, ENTIDADES, ORGANIZACIONES, ADMINISTRACIONES PÚBLICAS, EMPRESAS PRIVADAS A NIVEL PERSONAL, COMUNITARIO, MUNICIPAL, PROVINCIAL, AUTONÓMICO, ESTATAL Y EUROPEO VINCULADAS A LOS ÁMBITOS ESTABLECIDOS EN LOS PUNTOS A) Y B).",
      "mainEntityOfPage": "https://www.contratacion.euskadi.eus/webkpe00-kperoc/es/ac71aBusquedaRegistrosWar/empresa/08064",
      "_links": {
        "self": {
          "name": "LOTURA GIZA GARAPENA KOOP.ELK.TXIKIA",
          "href": "https://api.euskadi.eus/procurements/companies/08064"
        }
      }
    },
    {
      "name": "ALEJANDRO CASTRO UBETAGOYENA",
      "registrationNumber": "06741",
      "identificationNumber": "34080985E",
      "address": "Calle Urbieta nº 64 1º Izquierda",
      "location": {
        "postalCode": "20006",
        "municipality": "Donostia / San Sebastián",
        "county": "Gipuzkoa",
        "municipalityId": "069",
        "countyId": "20"
      },
      "economicActivities": [
        {
          "id": "2.731",
          "name": "Abogados",
          "_links": {
            "self": {
              "name": "Abogados",
              "href": "https://api.euskadi.eus/procurements/companies/economic-activities/2.731"
            }
          }
        }
      ],
      "certificateStartDate": "2026-01-15",
      "certificateEndDate": "2026-06-27",
      "object": "ABOGADO",
      "mainEntityOfPage": "https://www.contratacion.euskadi.eus/webkpe00-kperoc/es/ac71aBusquedaRegistrosWar/empresa/06741",
      "_links": {
        "self": {
          "name": "ALEJANDRO CASTRO UBETAGOYENA",
          "href": "https://api.euskadi.eus/procurements/companies/06741"
        }
      }
    },
    {
      "name": "RECEPTORA PRIVADA DE SERVICIOS DE SEGURIDAD, S.L.",
      "registrationNumber": "09718",
      "identificationNumber": "B01412824",
      "address": "C/ BARRATXI, 8",
      "location": {
        "postalCode": "01013",
        "municipality": "Vitoria-Gasteiz",
        "county": "Araba/Álava",
        "municipalityId": "059",
        "countyId": "01"
      },
      "economicActivities": [
        {
          "id": "1.849.4",
          "name": "Servicios de custodia, seguridad y protección",
          "_links": {
            "self": {
              "name": "Servicios de custodia, seguridad y protección",
              "href": "https://api.euskadi.eus/procurements/companies/economic-activities/1.849.4"
            }
          }
        }
      ],
      "certificateStartDate": "2026-01-15",
      "certificateEndDate": "2026-06-24",
      "classification": [
        {
          "id": "S",
          "name": "Servicios",
          "groups": [
            {
              "id": "M",
              "subgroups": [
                {
                  "id": "02",
                  "name": "Servicios de seguridad, custodia y protección",
                  "categories": [
                    {
                      "id": "4",
                      "name": "Desde 600.001 Hasta 1.1200.000",
                      "_links": {
                        "self": {
                          "name": "Desde 600.001 Hasta 1.1200.000",
                          "href": "https://api.euskadi.eus/procurements/companies/types/S/categories/4"
                        }
                      }
                    }
                  ],
                  "_links": {
                    "self": {
                      "name": "Servicios de seguridad, custodia y protección",
                      "href": "https://api.euskadi.eus/procurements/companies/types/S/groups/M/subgroups/02"
                    }
                  }
                }
              ],
              "_links": {
                "self": {
                  "href": "https://api.euskadi.eus/procurements/companies/types/S/groups/M"
                }
              }
            }
          ],
          "_links": {
            "self": {
              "name": "Servicios",
              "href": "https://api.euskadi.eus/procurements/companies/types/S"
            }
          }
        }
      ],
      "object": "LA EXPLOTACIÓN DE CENTRALES PARA LA RECEPCIÓN, VERIFICACIÓN Y TRANSMISIÓN DE SEÑALES DE ALARMAS Y SU COMUNICACIÓN A LAS FUERZAS Y CUERPOS DE SEGURIDAD, ASÍ COMO SERVICIOS DE RESPUESTA CUYA REALIZACIÓN NO SEA COMPETENCIA DE DICHAS FUERZAS Y CUERPOS, ACTIVIDADES A REALIZAR EN ÁMBITO ESTATAL.",
      "mainEntityOfPage": "https://www.contratacion.euskadi.eus/webkpe00-kperoc/es/ac71aBusquedaRegistrosWar/empresa/09718",
      "_links": {
        "self": {
          "name": "RECEPTORA PRIVADA DE SERVICIOS DE SEGURIDAD, S.L.",
          "href": "https://api.euskadi.eus/procurements/companies/09718"
        }
      }
    },
    {
      "name": "ADAKA S. COOP.DE INICIATIVA SOCIAL",
      "registrationNumber": "06296",
      "identificationNumber": "F95917100",
      "address": "Avda. Madariaga 4º",
      "location": {
        "postalCode": "48014",
        "municipality": "Bilbao",
        "county": "Bizkaia",
        "municipalityId": "020",
        "countyId": "48"
      },
      "economicActivities": [
        {
          "id": "1.934",
          "name": "Enseñanza fuera de establecimiento permanente",
          "_links": {
            "self": {
              "name": "Enseñanza fuera de establecimiento permanente",
              "href": "https://api.euskadi.eus/procurements/companies/economic-activities/1.934"
            }
          }
        },
        {
          "id": "1.936",
          "name": "Investigación científica y técnica",
          "_links": {
            "self": {
              "name": "Investigación científica y técnica",
              "href": "https://api.euskadi.eus/procurements/companies/economic-activities/1.936"
            }
          }
        },
        {
          "id": "1.951",
          "name": "Asistencia y servicios sociales en centros residenciales",
          "_links": {
            "self": {
              "name": "Asistencia y servicios sociales en centros residenciales",
              "href": "https://api.euskadi.eus/procurements/companies/economic-activities/1.951"
            }
          }
        }
      ],
      "certificateStartDate": "2026-01-14",
      "certificateEndDate": "2026-06-11",
      "object": "-PROYECTOS INTEGRALES (SOCIEDUCATIVOS, TERAPÉUTICOS,) DE ALOJAMIENTO Y CONVIVENCIA QUE PERMITAN ORIENTAR, DEFINIR Y CONSOLIDAR EL PROYECTO DE VIDA DE LAS Y LOS MENORES Y JÓVENES EN SITUACIÓN DE DESPROTECCIÓN Y/O RIESGO DE EXCLUSIÓN. -PROGRAMAS DE ACOMPAÑAMIENTO Y DE INCLUSIÓN RESIDENCIAL PARA PERSONAS MAYORES DE EDAD QUE SE ENCUENTREN EN SITUACIÓN DE INFRAVIVIENDA, VIVIENDO EN LA CALLE, O EN SITUACIÓN DE EXCLUSIÓN O DEMANDA DE APOYO SOCIAL. -PROGRAMAS DE INCORPORACIÓN SOCIAL Y/O LABORAL Y DE ACOMPAÑAMIENTO A PERSONAS EN SITUACIÓN DE RIESGO DE EXCLUSIÓN. -PROGRAMAS DE EDUCACIÓN AMBIENTAL PARA EL DESARROLLO DE LAS PERSONAS, GENERANDO CONCIENCIA Y SOLUCIONES PERTINENTES A LOS PROBLEMAS AMBIENTALES MEDIANTE ACTUACIONES DE PREVENCIÓN Y ESTRATEGIAS EN CONEXIÓN CON EL DESARROLLO COMUNITARIO. -PROGRAMAS DE EDUCACIÓN PARA LA SALUD A LO LARGO DE TODO EL CICLO VITAL, CON INCIDENCIA EN TODOS LOS ÁMBITOS DE LA VIDA DIARIA (SANITARIO, ESCOLAR, COMUNITARIO) Y CON UN ENFOQUE POSITIVO E INTEGRAL A TRAVÉS DE ACTUACIONES DE PROMOCIÓN DE ESTILOS DE VIDA SALUDABLES. -PROGRAMAS DE INTERVENCIÓN FAMILIAR Y COMUNITARIA, EDUCACIÓN FAMILAR, PARENTALIDAD POSITIVA Y APOYO PSICOSOCIAL A FAMILIAS Y PERSONAS A LO LARGO DE TODAS LAS ETAPAS DE LA VIDA. -PROGRAMAS EN EL ÁMBITO DE LA COOPERACIÓN AL DESARROLLO QUE INCIDAN EN EL PROGRESO ECONÓMICO Y SOCIAL. -GENERAR Y COMPARTIR CONOCIMIENTO SOBRE EL ÁMBITO DE ACTUACIÓN Y LAS INTERVENCIONES REALIZADAS PROMOCIONANDO ACTIVIDADES DE FORMACIÓN, INVESTIGACIÓN Y DIFUSIÓN. -APLICACIÓN EN LO POSIBLE DE NUEVAS TECNOLOGÍAS WEB, APLICACIONES MÓVILES, EDICIÓN DE VIDEOS, ETC.",
      "mainEntityOfPage": "https://www.contratacion.euskadi.eus/webkpe00-kperoc/es/ac71aBusquedaRegistrosWar/empresa/06296",
      "_links": {
        "self": {
          "name": "ADAKA S. COOP.DE INICIATIVA SOCIAL",
          "href": "https://api.euskadi.eus/procurements/companies/06296"
        }
      }
    }
  ]
}