{
  "totalItems": 9042,
  "totalPages": 905,
  "currentPage": 865,
  "itemsOfPage": 10,
  "items": [
    {
      "name": "EQUINOCCIO NATURALEZA, S.L.",
      "registrationNumber": "04278",
      "identificationNumber": "B01427871",
      "address": "C/ BUSTINZURI, 14-BAJO",
      "location": {
        "postalCode": "01008",
        "municipality": "Vitoria-Gasteiz",
        "county": "Araba/Álava",
        "municipalityId": "059",
        "countyId": "01"
      },
      "object": "pte",
      "mainEntityOfPage": "https://www.contratacion.euskadi.eus/webkpe00-kperoc/es/ac71aBusquedaRegistrosWar/empresa/04278",
      "_links": {
        "self": {
          "name": "EQUINOCCIO NATURALEZA, S.L.",
          "href": "https://api.euskadi.eus/procurements/companies/04278"
        }
      }
    },
    {
      "name": "ERYBA, ESTUDIOS DE MERCADO, S.L.",
      "registrationNumber": "04279",
      "identificationNumber": "B48176374",
      "address": "ALAMEDA DE REKALDE, 74",
      "location": {
        "postalCode": "48012",
        "municipality": "Bilbao",
        "county": "Bizkaia",
        "municipalityId": "020",
        "countyId": "48"
      },
      "object": "pte",
      "mainEntityOfPage": "https://www.contratacion.euskadi.eus/webkpe00-kperoc/es/ac71aBusquedaRegistrosWar/empresa/04279",
      "_links": {
        "self": {
          "name": "ERYBA, ESTUDIOS DE MERCADO, S.L.",
          "href": "https://api.euskadi.eus/procurements/companies/04279"
        }
      }
    },
    {
      "name": "DESBROCES Y JARDINERIA MOY, S.L.U.",
      "registrationNumber": "04280",
      "identificationNumber": "B01300854",
      "address": "Bº LA LANDA 8",
      "location": {
        "postalCode": "01192",
        "municipality": "Arratzua-Ubarrundia",
        "county": "Araba/Álava",
        "municipalityId": "008",
        "countyId": "01"
      },
      "object": "pte",
      "mainEntityOfPage": "https://www.contratacion.euskadi.eus/webkpe00-kperoc/es/ac71aBusquedaRegistrosWar/empresa/04280",
      "_links": {
        "self": {
          "name": "DESBROCES Y JARDINERIA MOY, S.L.U.",
          "href": "https://api.euskadi.eus/procurements/companies/04280"
        }
      }
    },
    {
      "name": "COOPER CARS, SOCIEDAD COOPERATIVA LIMITADA",
      "registrationNumber": "04282",
      "identificationNumber": "F48196679",
      "address": "BAGAZA 11, ENTREPLANTA",
      "location": {
        "postalCode": "48901",
        "municipality": "Barakaldo",
        "county": "Bizkaia",
        "municipalityId": "013",
        "countyId": "48"
      },
      "object": ".",
      "mainEntityOfPage": "https://www.contratacion.euskadi.eus/webkpe00-kperoc/es/ac71aBusquedaRegistrosWar/empresa/04282",
      "_links": {
        "self": {
          "name": "COOPER CARS, SOCIEDAD COOPERATIVA LIMITADA",
          "href": "https://api.euskadi.eus/procurements/companies/04282"
        }
      }
    },
    {
      "name": "EUSKADI DIGITAL MULTIMEDIA, S.L.",
      "registrationNumber": "04283",
      "identificationNumber": "B95591921",
      "address": "KAREAGA, Nº 55",
      "location": {
        "postalCode": "48903",
        "municipality": "Barakaldo",
        "county": "Bizkaia",
        "municipalityId": "013",
        "countyId": "48"
      },
      "object": ".",
      "mainEntityOfPage": "https://www.contratacion.euskadi.eus/webkpe00-kperoc/es/ac71aBusquedaRegistrosWar/empresa/04283",
      "_links": {
        "self": {
          "name": "EUSKADI DIGITAL MULTIMEDIA, S.L.",
          "href": "https://api.euskadi.eus/procurements/companies/04283"
        }
      }
    },
    {
      "name": "RAMON GARMENDIA GALPARSORO",
      "registrationNumber": "04286",
      "identificationNumber": "72436724H",
      "address": "BIDARTE AUXOA 6-2º DCHA.",
      "location": {
        "postalCode": "20250",
        "municipality": "Legorreta",
        "county": "Gipuzkoa",
        "municipalityId": "052",
        "countyId": "20"
      },
      "object": ".",
      "mainEntityOfPage": "https://www.contratacion.euskadi.eus/webkpe00-kperoc/es/ac71aBusquedaRegistrosWar/empresa/04286",
      "_links": {
        "self": {
          "name": "RAMON GARMENDIA GALPARSORO",
          "href": "https://api.euskadi.eus/procurements/companies/04286"
        }
      }
    },
    {
      "name": "ARABATEL INSTALACIONES, S.L.",
      "registrationNumber": "04287",
      "identificationNumber": "B01307651",
      "address": "PORTAL DE ZURBANO 3, BAJO 02",
      "location": {
        "postalCode": "01013",
        "municipality": "Vitoria-Gasteiz",
        "county": "Araba/Álava",
        "municipalityId": "059",
        "countyId": "01"
      },
      "mainEntityOfPage": "https://www.contratacion.euskadi.eus/webkpe00-kperoc/es/ac71aBusquedaRegistrosWar/empresa/04287",
      "_links": {
        "self": {
          "name": "ARABATEL INSTALACIONES, S.L.",
          "href": "https://api.euskadi.eus/procurements/companies/04287"
        }
      }
    },
    {
      "name": "EUSKALKORREO POSTAL MAILING, S.L.",
      "registrationNumber": "04289",
      "identificationNumber": "B95184586",
      "address": "URAZURRUTIA, 38",
      "location": {
        "postalCode": "48003",
        "municipality": "Bilbao",
        "county": "Bizkaia",
        "municipalityId": "020",
        "countyId": "48"
      },
      "object": ".",
      "mainEntityOfPage": "https://www.contratacion.euskadi.eus/webkpe00-kperoc/es/ac71aBusquedaRegistrosWar/empresa/04289",
      "_links": {
        "self": {
          "name": "EUSKALKORREO POSTAL MAILING, S.L.",
          "href": "https://api.euskadi.eus/procurements/companies/04289"
        }
      }
    },
    {
      "name": "LARREA BIZITZAK, S.L.",
      "registrationNumber": "04292",
      "identificationNumber": "B20587010",
      "address": "C/ URBIETA, 68 -1º IZDA",
      "location": {
        "postalCode": "20006",
        "municipality": "Donostia / San Sebastián",
        "county": "Gipuzkoa",
        "municipalityId": "069",
        "countyId": "20"
      },
      "object": ".",
      "mainEntityOfPage": "https://www.contratacion.euskadi.eus/webkpe00-kperoc/es/ac71aBusquedaRegistrosWar/empresa/04292",
      "_links": {
        "self": {
          "name": "LARREA BIZITZAK, S.L.",
          "href": "https://api.euskadi.eus/procurements/companies/04292"
        }
      }
    },
    {
      "name": "ISAAC IZURIETA GOYENAGA",
      "registrationNumber": "04294",
      "identificationNumber": "14579926L",
      "address": "c/ Lauaxeta, 8 - 3º A",
      "location": {
        "postalCode": "48111",
        "municipality": "Laukiz",
        "county": "Bizkaia",
        "municipalityId": "053",
        "countyId": "48"
      },
      "object": "pte",
      "mainEntityOfPage": "https://www.contratacion.euskadi.eus/webkpe00-kperoc/es/ac71aBusquedaRegistrosWar/empresa/04294",
      "_links": {
        "self": {
          "name": "ISAAC IZURIETA GOYENAGA",
          "href": "https://api.euskadi.eus/procurements/companies/04294"
        }
      }
    }
  ]
}