{
  "totalItems": 9042,
  "totalPages": 905,
  "currentPage": 380,
  "itemsOfPage": 10,
  "items": [
    {
      "name": "YOLEO EDUTAINMENT, S.L.",
      "registrationNumber": "09341",
      "identificationNumber": "B66011040",
      "address": "c/ Sant Joan de la Salle, 37",
      "location": {
        "postalCode": "08022",
        "municipality": "Barcelona",
        "county": "Barcelona",
        "municipalityId": "019",
        "countyId": "08"
      },
      "economicActivities": [
        {
          "id": "1.659.4",
          "name": "Venta al por menor de libros, periódicos y artículos de papelería y escritorio",
          "_links": {
            "self": {
              "name": "Venta al por menor de libros, periódicos y artículos de papelería y escritorio",
              "href": "https://api.euskadi.eus/procurements/companies/economic-activities/1.659.4"
            }
          }
        },
        {
          "id": "1.845",
          "name": "Explotación electrónica por cuenta de terceros",
          "_links": {
            "self": {
              "name": "Explotación electrónica por cuenta de terceros",
              "href": "https://api.euskadi.eus/procurements/companies/economic-activities/1.845"
            }
          }
        },
        {
          "id": "1.932.1",
          "name": "Enseñanza de formación y perfeccionamiento profesional no superior",
          "_links": {
            "self": {
              "name": "Enseñanza de formación y perfeccionamiento profesional no superior",
              "href": "https://api.euskadi.eus/procurements/companies/economic-activities/1.932.1"
            }
          }
        }
      ],
      "certificateStartDate": "2024-11-14",
      "certificateEndDate": "2025-05-14",
      "object": "A) REALIZACIÓN DE ACTIVIDADES EN INTERNET, ASÍ COMO EL SUMINISTRO DE SERVICIOS DE INFORMACIÓN Y FORMACIÓN. B) PRODUCCIÓN, EXHIBICIÓN, EDICIÓN, IMPORTACIÓN, EXPORTACIÓN, DISTRIBUCIÓN, COMPRAVENTA Y ALQUILER DE TODO TIPO DE PRODUCTOS CINEMATOGRÁFICOS, MUSICALES, AUDIOVISUALES Y LIBROS Y OTRAS PUBLICACIONES EN SOPORTE PAPEL, ELECTRÓNICO, AUDIO O VIDEO, ENCUADERNACIONES, COMPOSICIÓN Y FOTOGRABADO. PARTICIPACIÓN EN TODO TIPO DE MUESTRAS, FESTIVALES, FERIAS, CERTÁMENES Y OTROS RELACIONADOS CON CUALQUIER INDUSTRIA O ACTIVIDAD ARTÍSTICA Y DE COMUNICACIÓN. C) EL DISEÑO, DESARROLLO, PRODUCCIÓN, INTEGRACIÓN, MANTENIMIENTO Y VENTA DE SISTEMAS, EQUIPOS, SOLUCIONES Y PRODUCTOS BASADOS EN EL USO INTENSIVO DE LAS TECNOLOGÍAS DE LA INFORMACIÓN (INFORMÁTICO, ELECTRÓNICA Y COMUNICACIONES) ASÍ COMO LA PRESTACIÓN DE CUALQUIER TIPO DE SERVICIOS RELACIONADOS CON ELLAS. D) LA PRESTACIÓN DE SERVICIOS PROFESIONALES DE CONSULTORÍA DE NEGOCIO Y CONSULTORÍA TECNOLÓGICA Y DE SOLUCIONES.",
      "mainEntityOfPage": "https://www.contratacion.euskadi.eus/webkpe00-kperoc/es/ac71aBusquedaRegistrosWar/empresa/09341",
      "_links": {
        "self": {
          "name": "YOLEO EDUTAINMENT, S.L.",
          "href": "https://api.euskadi.eus/procurements/companies/09341"
        }
      }
    },
    {
      "name": "LUIS MARIA IBERGALLARTU FONTECHA",
      "registrationNumber": "09896",
      "identificationNumber": "30572153R",
      "address": "Egaña 3 - 4ºD",
      "location": {
        "postalCode": "48010",
        "municipality": "Bilbao",
        "county": "Bizkaia",
        "municipalityId": "020",
        "countyId": "48"
      },
      "economicActivities": [
        {
          "id": "1.932.1",
          "name": "Enseñanza de formación y perfeccionamiento profesional no superior",
          "_links": {
            "self": {
              "name": "Enseñanza de formación y perfeccionamiento profesional no superior",
              "href": "https://api.euskadi.eus/procurements/companies/economic-activities/1.932.1"
            }
          }
        },
        {
          "id": "2.751",
          "name": "Profesionales de la publicidad, relaciones públicas y similares",
          "_links": {
            "self": {
              "name": "Profesionales de la publicidad, relaciones públicas y similares",
              "href": "https://api.euskadi.eus/procurements/companies/economic-activities/2.751"
            }
          }
        }
      ],
      "certificateStartDate": "2024-11-14",
      "certificateEndDate": "2025-05-08",
      "object": "ENSEÑANZA DE FORMACIÓN Y PERFECCIONAMIENTO PROFESIONAL NO SUPERIOR. PROFESIONALES DE LA PUBLICIDAD, RELACIONES PÚBLICAS Y SIMILARES.",
      "mainEntityOfPage": "https://www.contratacion.euskadi.eus/webkpe00-kperoc/es/ac71aBusquedaRegistrosWar/empresa/09896",
      "_links": {
        "self": {
          "name": "LUIS MARIA IBERGALLARTU FONTECHA",
          "href": "https://api.euskadi.eus/procurements/companies/09896"
        }
      }
    },
    {
      "name": "DTI SOLAR PROTECTION SOLUTIONS SA",
      "registrationNumber": "06325",
      "identificationNumber": "A58226689",
      "address": "c/ TINTS, 2",
      "location": {
        "postalCode": "08830",
        "municipality": "Sant Boi de Llobregat",
        "county": "Barcelona",
        "municipalityId": "200",
        "countyId": "08"
      },
      "economicActivities": [
        {
          "id": "1.617.4",
          "name": "Venta al por mayor de materiales de construcción, vidrio y artículos instalación",
          "_links": {
            "self": {
              "name": "Venta al por mayor de materiales de construcción, vidrio y artículos instalación",
              "href": "https://api.euskadi.eus/procurements/companies/economic-activities/1.617.4"
            }
          }
        }
      ],
      "certificateStartDate": "2024-11-14",
      "certificateEndDate": "2025-05-13",
      "object": "LA IMPORTACIÓN, EXPORTACIÓN, COMPRA, VENTA E INSTALACIÓN DE TODA CLASE DE MATERIAL DE PROTECCIÓN SOLAR ASÍ COMO DE SEGURIDAD (LÁMINAS, PELÍCULAS DE MATERIAL, ETC.)",
      "mainEntityOfPage": "https://www.contratacion.euskadi.eus/webkpe00-kperoc/es/ac71aBusquedaRegistrosWar/empresa/06325",
      "_links": {
        "self": {
          "name": "DTI SOLAR PROTECTION SOLUTIONS SA",
          "href": "https://api.euskadi.eus/procurements/companies/06325"
        }
      }
    },
    {
      "name": "VIRGINIA KNÖRR COMUNICACIÓN, S.L. S.U.",
      "registrationNumber": "02914",
      "identificationNumber": "B48994735",
      "address": "GRAN VIA, Nº 45. OFICINA 107",
      "location": {
        "postalCode": "48011",
        "municipality": "Bilbao",
        "county": "Bizkaia",
        "municipalityId": "020",
        "countyId": "48"
      },
      "economicActivities": [
        {
          "id": "1.844",
          "name": "Servicios de publicidad, relaciones públicas y similares",
          "_links": {
            "self": {
              "name": "Servicios de publicidad, relaciones públicas y similares",
              "href": "https://api.euskadi.eus/procurements/companies/economic-activities/1.844"
            }
          }
        },
        {
          "id": "1.934",
          "name": "Enseñanza fuera de establecimiento permanente",
          "_links": {
            "self": {
              "name": "Enseñanza fuera de establecimiento permanente",
              "href": "https://api.euskadi.eus/procurements/companies/economic-activities/1.934"
            }
          }
        }
      ],
      "certificateStartDate": "2024-11-14",
      "certificateEndDate": "2025-05-13",
      "object": "LA PRESTACIÓN DE LOS SIGUIENTES SERVICIOS, TANTO A PERSONAS FÍSICAS COMO A TODO TIPO DE ENTES Y PERSONAS JURÍDICAS, PÚBLICOS O PRIVADOS: A) SERVICIOS DE RELACIONES PÚBLICAS, DE GABINETE DE PRENSA Y DE COMUNICACIÓN INTERNA; B) SERVICIOS DE COMUNICACIÓN INSTITUCIONAL O PÚBLICA E IMAGEN CORPORATIVA; C) ELABORACIÓN DE ESTUDIOS COMERCIALES, SOCIALES Y ECONÓMICOS, ESTUDIOS DE PUBLICIDAD, DE MERCADO Y ESTUDIOS DE OPINIÓN; D) SERVICIOS DE ASESORAMIENTO EN MATERIA DE MARKETING Y PUBLICIDAD; FORMACIÓN DE LOS RECURSOS HUMANOS EN LAS ÁREAS ANTERIORMENTE RESEÑADAS ",
      "mainEntityOfPage": "https://www.contratacion.euskadi.eus/webkpe00-kperoc/es/ac71aBusquedaRegistrosWar/empresa/02914",
      "_links": {
        "self": {
          "name": "VIRGINIA KNÖRR COMUNICACIÓN, S.L. S.U.",
          "href": "https://api.euskadi.eus/procurements/companies/02914"
        }
      }
    },
    {
      "name": "ATOS MEDICAL SPAIN S.L.",
      "registrationNumber": "05788",
      "identificationNumber": "B83945618",
      "address": "Consejo de Ciento,333 2º",
      "location": {
        "postalCode": "08007",
        "municipality": "Barcelona",
        "county": "Barcelona",
        "municipalityId": "019",
        "countyId": "08"
      },
      "economicActivities": [
        {
          "id": "1.619.2",
          "name": "Venta al por mayor de aparatos e instrumentos médicos, ortopédicos, ópticos",
          "_links": {
            "self": {
              "name": "Venta al por mayor de aparatos e instrumentos médicos, ortopédicos, ópticos",
              "href": "https://api.euskadi.eus/procurements/companies/economic-activities/1.619.2"
            }
          }
        }
      ],
      "certificateStartDate": "2024-11-13",
      "certificateEndDate": "2025-05-13",
      "object": "EL DESARROLLO, FABRICACIÓN, COMERCIALIZACIÓN Y VENTA DE PRODUCTOS DE TECNOLOGIA MEDICA, LA FABRICACIÓN DE EQUIPO E INTRUMENTOS-QUIRURGICOS Y EL COMERCIO AL POR MENOR DE PRODUCTOS FARMACEUTICOS, ARTICULOS MÉDICOS, BELLEZA E HYGIENE",
      "mainEntityOfPage": "https://www.contratacion.euskadi.eus/webkpe00-kperoc/es/ac71aBusquedaRegistrosWar/empresa/05788",
      "_links": {
        "self": {
          "name": "ATOS MEDICAL SPAIN S.L.",
          "href": "https://api.euskadi.eus/procurements/companies/05788"
        }
      }
    },
    {
      "name": "BIODIVERSITY NODE, S.L.",
      "registrationNumber": "09890",
      "identificationNumber": "B88013040",
      "address": "Sector Foresta 17, 1B",
      "location": {
        "postalCode": "28760",
        "municipality": "Tres Cantos",
        "county": "Madrid",
        "municipalityId": "903",
        "countyId": "28"
      },
      "economicActivities": [
        {
          "id": "1.843.9",
          "name": "Otros servicios técnicos n.c.o.p",
          "_links": {
            "self": {
              "name": "Otros servicios técnicos n.c.o.p",
              "href": "https://api.euskadi.eus/procurements/companies/economic-activities/1.843.9"
            }
          }
        }
      ],
      "certificateStartDate": "2024-11-12",
      "certificateEndDate": "2025-05-12",
      "object": "ACTIVIDAD PRINCIPAL: 71.12 / SERVICIOS TÉCNICOS DE INGENIERÍA Y OTRAS ACTIVIDADES RELACIONADAS CON EL ASESORAMIENTO TÉCNICO. OTRAS ACTIVIDADES: 74.90 / OTRAS ACTIVIDADES PROFESIONALES, CIENTÍFICAS Y TÉCNICAS, 70.22 / OTRAS ACTIVIDADES DE CONSULTORÍA DE GESTIÓN EMPRESARIAL.",
      "mainEntityOfPage": "https://www.contratacion.euskadi.eus/webkpe00-kperoc/es/ac71aBusquedaRegistrosWar/empresa/09890",
      "_links": {
        "self": {
          "name": "BIODIVERSITY NODE, S.L.",
          "href": "https://api.euskadi.eus/procurements/companies/09890"
        }
      }
    },
    {
      "name": "JON VALLE BRAVO",
      "registrationNumber": "09573",
      "identificationNumber": "44152254M",
      "address": "Calle Ernai (20570) 5 1ºB",
      "location": {
        "postalCode": "20570",
        "municipality": "Bergara",
        "county": "Gipuzkoa",
        "municipalityId": "074",
        "countyId": "20"
      },
      "economicActivities": [
        {
          "id": "1.468.1",
          "name": "Fabricación de mobiliario de madera para el hogar",
          "_links": {
            "self": {
              "name": "Fabricación de mobiliario de madera para el hogar",
              "href": "https://api.euskadi.eus/procurements/companies/economic-activities/1.468.1"
            }
          }
        },
        {
          "id": "1.505.6",
          "name": "Pintura, revestimientos y terminación y decoración de locales",
          "_links": {
            "self": {
              "name": "Pintura, revestimientos y terminación y decoración de locales",
              "href": "https://api.euskadi.eus/procurements/companies/economic-activities/1.505.6"
            }
          }
        }
      ],
      "certificateStartDate": "2024-11-12",
      "certificateEndDate": "2025-04-24",
      "object": "PINTURA, REVESTIMIENTOS Y TERMINACIÓN Y DECORACIÓN DE LOCALES. FABRICACIÓN DE MOBILIARIO DE MADERA PARA EL HOGAR.",
      "mainEntityOfPage": "https://www.contratacion.euskadi.eus/webkpe00-kperoc/es/ac71aBusquedaRegistrosWar/empresa/09573",
      "_links": {
        "self": {
          "name": "JON VALLE BRAVO",
          "href": "https://api.euskadi.eus/procurements/companies/09573"
        }
      }
    },
    {
      "name": "COOLMOD INFORMATICA, S.L.",
      "registrationNumber": "09605",
      "identificationNumber": "B12650719",
      "address": "Històric Regne de València Nave 2",
      "location": {
        "postalCode": "12550",
        "municipality": "Almassora",
        "county": "Castellón/Castelló",
        "municipalityId": "009",
        "countyId": "12"
      },
      "economicActivities": [
        {
          "id": "1.330",
          "name": "Construcción de máquinas de oficina y ordenadores",
          "_links": {
            "self": {
              "name": "Construcción de máquinas de oficina y ordenadores",
              "href": "https://api.euskadi.eus/procurements/companies/economic-activities/1.330"
            }
          }
        }
      ],
      "certificateStartDate": "2024-11-11",
      "certificateEndDate": "2025-05-11",
      "object": "LA VENTA, REPARACIÓN Y MANTENIMIENTO DE EQUIPOS INFORMÁTICOS, ASÍ COMO SUS COMPONENTES Y ACCESORIOS. Y EL DESARROLLO, VENTA Y MANTENIMIENTO DE PROGRAMAS INFORMÁTICOS.",
      "mainEntityOfPage": "https://www.contratacion.euskadi.eus/webkpe00-kperoc/es/ac71aBusquedaRegistrosWar/empresa/09605",
      "_links": {
        "self": {
          "name": "COOLMOD INFORMATICA, S.L.",
          "href": "https://api.euskadi.eus/procurements/companies/09605"
        }
      }
    },
    {
      "name": "ASTILLEROS DE BERMEO, S.L.",
      "registrationNumber": "08541",
      "identificationNumber": "B48281067",
      "address": "MUELLE ARTZA S/N",
      "location": {
        "postalCode": "48370",
        "municipality": "Bermeo",
        "county": "Bizkaia",
        "municipalityId": "017",
        "countyId": "48"
      },
      "economicActivities": [
        {
          "id": "1.371",
          "name": "Construcción naval",
          "_links": {
            "self": {
              "name": "Construcción naval",
              "href": "https://api.euskadi.eus/procurements/companies/economic-activities/1.371"
            }
          }
        },
        {
          "id": "1.372",
          "name": "Reparación y mantenimiento de buques",
          "_links": {
            "self": {
              "name": "Reparación y mantenimiento de buques",
              "href": "https://api.euskadi.eus/procurements/companies/economic-activities/1.372"
            }
          }
        }
      ],
      "certificateStartDate": "2024-11-07",
      "certificateEndDate": "2025-05-01",
      "object": "CONSTRUCCIÓN Y REPARACIÓN DE BUQUES, LA REDACCIÓN Y EJECUCIÓN DE PROYECTOS REFERENTES A LOS MISMOS Y, EN GENERAL, LA REALIZACIÓN DE ACTIVIDADES RELACIONADAS CON LA INDUSTRIA NAVAL Y SU COMERCIALIZACIÓN, TANTO EN ESPAÑA COMO EN EL EXTRANJERO.",
      "mainEntityOfPage": "https://www.contratacion.euskadi.eus/webkpe00-kperoc/es/ac71aBusquedaRegistrosWar/empresa/08541",
      "_links": {
        "self": {
          "name": "ASTILLEROS DE BERMEO, S.L.",
          "href": "https://api.euskadi.eus/procurements/companies/08541"
        }
      }
    },
    {
      "name": "BIZKAIKO BASALAN AKZIOZKO BALTZUA A.B. S.A.",
      "registrationNumber": "02473",
      "identificationNumber": "A48256135",
      "address": "Bº GARAIOLTZA, 26",
      "location": {
        "postalCode": "48196",
        "municipality": "Lezama",
        "county": "Bizkaia",
        "municipalityId": "081",
        "countyId": "48"
      },
      "economicActivities": [
        {
          "id": "1.912",
          "name": "Servicios forestales",
          "_links": {
            "self": {
              "name": "Servicios forestales",
              "href": "https://api.euskadi.eus/procurements/companies/economic-activities/1.912"
            }
          }
        }
      ],
      "certificateStartDate": "2024-11-07",
      "certificateEndDate": "2025-05-06",
      "object": "A) PLANIFICACIÓN, PROYECTO Y EJECUCIÓN DE TODA CLASE DE TRABAJOS FORESTALES Y DE CONSERVACIÓN DE LA NATURALEZA CON EL FIN DE POTENCIAR LA PRODUCTIVIDAD DEL BOSQUE MEDIANTE TRABAJOS DE MEJORA GENÉTICA FORESTAL, LA GESTIÓN DE VIVEROS FORESTALES Y ADECUACIÓN DE TRATAMIENTOS CULTURALES Y SELVÍCOLAS, LA REALIZACIÓN DE APROVECHAMIENTOS FORESTALES EN BASE A PLANES TÉCNICOS ADECUADOS, LA REPOBLACIÓN DE MONTES ABANDONADOS  O INACCESIBLES, LA INFRAESTRUCTURA FORESTAL MEDIANTE LA CONSTRUCCIÓN   Y REPARACIÓN DE CAMINOS FORESTALES Y OTRAS OBRAS, Y LA REALIZACIÓN DE ACTIVIDADES DE PROTECCIÓN DE LA FLORA Y FAUNA SILVESTRES; REDACCIÓN Y EJECUCIÓN  DE PLANES DE GESTIÓN  Y PLANES DE ORDENACIÓN DE MONTES ARBOLADOS A ESTOS FINES. VIGILANCIA EN PREVENCIÓN DE INCENDIOS FORESTALES Y COLABORACIÓN EN LA EXTINCIÓN DE LOS MISMOS.\n\nB) MEJORA DE LAS CONDICIONES TÉCNICAS, SOCIALES Y PRODUCTIVAS DEL SECTOR MEDIANTE LA REALIZACIÓN DE ACCIONES TENDENTES A LA AGRUPACIÓN DE SUPERFICIALES FORESTALES QUE PERMITA LLEVAR A CABO UNOS APROVECHAMIENTOS FORESTALES EN FORMA  RENTABLE, LA CONSECUCIÓN DE INFRAESTRUCTURAS  ADECUADAS, EL ALCANCE  DE UNA DIMENSIÓN EN LA EXPLOTACIÓN FORESTAL ACORDE CON UNA PLANIFICACIÓN CORRECTA, EL AUMENTO DE LA CALIDAD DE LA MADERA Y DEL VALOR AÑADIDO A LOS PRODUCTOS DERIVADOS DEL SECTOR QUE PERMITAN LA BÚSQUEDA DE NUEVAS APLICACIONES INDUSTRIALES, LA EJECUCIÓN DE ACTIVIDADES CORRECTORAS DE LOS DESEQUILIBRIOS DEL SECTOR Y LA DIVULGACIÓN DE LOS DIVERSOS ASPECTOS QUE CONCURREN EN EL SECTOR FORESTAL.\n\nC)    PLANIFICACIÓN, ESTABLECIMIENTO  Y DESARROLLO DE ACTIVIDADES DE FORMACIÓN Y PERFECCIONAMIENTO DE PROFESIONALES ESPECIALIZADOS EN TRABAJOS FORESTALES Y DE CONSERVACIÓN DE LA NATURALEZA Y DE MEJORA DE LAS CONDICIONES DE HIGIENE Y SEGURIDAD EN DICHOS TRABAJOS.\n\nD) CREACIÓN, ADECUACIÓN, MANTENIMIENTO DE ÁREAS RECREATIVAS Y LUGARES DE SERVICIO Y/O DISFRUTE DEL MEDIO NATURAL, PARQUES Y SIMILARES E INTERVENCIÓN EN LA FACETA RECREATIVA QUE POSEEN LOS MONTES Y ÁREAS FORESTALES.\n\nE) EL ASESORAMIENTO, ESTUDIO, INFORME, INVESTIGACIÓN, FORMACIÓN Y COORDINACIÓN EN RELACIÓN CON LAS ACTIVIDADES Y SERVICIOS SEÑALADOS EN LOS APARTADOS ANTERIORES, TANTO A LA DIPUTACIÓN FORAL DE BIZKAIA Y OTRAS ENTIDADES PÚBLICAS COMO PRIVADAS Y PARTICULARES.\n\nESTE OBJETO PODRÁ REALIZARSE POR LA SOCIEDAD, YA DIRECTAMENTE, YA INDIRECTAMENTE, MEDIANTE LA TITULARIDAD DE ACCIONES O PARTICIPACIONES EN SOCIEDADES CON OBJETO IDÉNTICO O ANÁLOGO.\n\n   ",
      "mainEntityOfPage": "https://www.contratacion.euskadi.eus/webkpe00-kperoc/es/ac71aBusquedaRegistrosWar/empresa/02473",
      "_links": {
        "self": {
          "name": "BIZKAIKO BASALAN AKZIOZKO BALTZUA A.B. S.A.",
          "href": "https://api.euskadi.eus/procurements/companies/02473"
        }
      }
    }
  ]
}