{
  "totalItems": 9042,
  "totalPages": 905,
  "currentPage": 747,
  "itemsOfPage": 10,
  "items": [
    {
      "name": "INFOTEC DIGITAL SOLUTIONS, S.A.U.",
      "registrationNumber": "02227",
      "identificationNumber": "A81575201",
      "address": "EDIF. AZASOL C/ CHILE, 8 - OF. 105",
      "location": {
        "postalCode": "28290",
        "municipality": "Rozas de Madrid, Las",
        "county": "Madrid",
        "municipalityId": "127",
        "countyId": "28"
      },
      "economicActivities": [
        {
          "id": "1.615.4",
          "name": "Venta al por mayor de aparatos y material radioeléctrico y electrónico",
          "_links": {
            "self": {
              "name": "Venta al por mayor de aparatos y material radioeléctrico y electrónico",
              "href": "https://api.euskadi.eus/procurements/companies/economic-activities/1.615.4"
            }
          }
        },
        {
          "id": "1.853",
          "name": "Alquiler de maquinaria y equipo contable de oficina y cálculo",
          "_links": {
            "self": {
              "name": "Alquiler de maquinaria y equipo contable de oficina y cálculo",
              "href": "https://api.euskadi.eus/procurements/companies/economic-activities/1.853"
            }
          }
        }
      ],
      "certificateStartDate": "2009-04-15",
      "certificateEndDate": "2009-09-05",
      "object": "\r\n\r\n1. COMPRA, ALMACENAJE, VENTA, DISTRIBUCIÓN Y MANTENIMIENTO DE MÁQUINAS FOTOCOPIADORAS, MÁQUINAS DE FAX Y OTROS EQUIPOS DE OFICINA, ASÍ COMO SUS COMPONENTES Y ACCESORIOS, DENTRO DEL TERRITORIO DE ESPAÑA Y PORTUGAL Y/O PARA SU EXPORTACIÓN.\r\n\r\n2. COMPRA, VENTA, ALMACENAJE Y COMERCIALIZACIÓN DE EQUIPOS, SISTEMAS, PRODUCTOS Y SERVICIOS PARA LA CAPTACIÓN Y REPRODUCCIÓN DE IMÁGENES TANTO POR SISTEMAS FOTOGRÁFICOS COMO ELECTRÓNICOS, SOPORTES MAGNÉTICOS DIGITALES Y SIMILARES, DENTRO DEL TERRITORIO DE ESPAÑA Y PORTUGAL Y/O PARA SU EXPORTACIÓN.\r\n\r\n3. COMPRA, VENTA, ALMACENAJE Y COMERCIALIZACIÓN DE PRODUCTOS QUÍMICOS Y SUS DERIVADOS, TALES COMO TEXTILES, PLÁSTICOS Y SIMILARES, DENTRO DEL TERRITORIO DE ESPAÑA Y PORTUGAL Y/O PARA SU EXPORTACIÓN.\r\n\r\n4. NEGOCIAR Y POSEER ACCIONES, PARTICIPACIONES, OBLIGACIONES, BONOS, PAGARÉS, LETRAS DE CAMBIO, ASÍ COMO OTROS VALORES PÚBLICOS O PRIVADOS, Y EN GENERAL, ACTIVOS FINANCIEROS SIN NINGUNA DE LAS CARACTERÍSTICAS PROPIAS DE ACTIVIDADES REGULADAS POR LAS LEYES DEL MERCADO DE VALORES O DE INVERSIÓN COLECTIVA.\r\n\r\n5. ADQUIRIR EN PROPIEDAD BIENES INMUEBLES, RÚSTICOS O URBANOS, CONSTRUIDOS O NO, ASÍ COMO NEGOCIAR RELACIONES CONTRACTUALES ACERCA DE LOS MISMOS",
      "mainEntityOfPage": "https://www.contratacion.euskadi.eus/webkpe00-kperoc/es/ac71aBusquedaRegistrosWar/empresa/02227",
      "_links": {
        "self": {
          "name": "INFOTEC DIGITAL SOLUTIONS, S.A.U.",
          "href": "https://api.euskadi.eus/procurements/companies/02227"
        }
      }
    },
    {
      "name": "ITELAZPI, S.A.",
      "registrationNumber": "02814",
      "identificationNumber": "A95282216",
      "address": "PARQUE TECNOLÓGICO EDIFICIO 101",
      "location": {
        "postalCode": "48170",
        "municipality": "Zamudio",
        "county": "Bizkaia",
        "municipalityId": "905",
        "countyId": "48"
      },
      "economicActivities": [
        {
          "id": "1.964.3",
          "name": "Servicios de enlace y transmisión de señales de televisión",
          "_links": {
            "self": {
              "name": "Servicios de enlace y transmisión de señales de televisión",
              "href": "https://api.euskadi.eus/procurements/companies/economic-activities/1.964.3"
            }
          }
        }
      ],
      "certificateStartDate": "2009-04-15",
      "certificateEndDate": "2009-09-24",
      "classification": [
        {
          "id": "S",
          "name": "Servicios",
          "groups": [
            {
              "id": "V",
              "subgroups": [
                {
                  "id": "04",
                  "name": "Servicios de telecomunicaciones",
                  "categories": [
                    {
                      "id": "5",
                      "name": "Mas de 1.200.000",
                      "_links": {
                        "self": {
                          "name": "Mas de 1.200.000",
                          "href": "https://api.euskadi.eus/procurements/companies/types/S/categories/5"
                        }
                      }
                    }
                  ],
                  "_links": {
                    "self": {
                      "name": "Servicios de telecomunicaciones",
                      "href": "https://api.euskadi.eus/procurements/companies/types/S/groups/V/subgroups/04"
                    }
                  }
                }
              ],
              "_links": {
                "self": {
                  "href": "https://api.euskadi.eus/procurements/companies/types/S/groups/V"
                }
              }
            }
          ],
          "_links": {
            "self": {
              "name": "Servicios",
              "href": "https://api.euskadi.eus/procurements/companies/types/S"
            }
          }
        }
      ],
      "object": "LA GESTIÓN, IMPLANTACIÓN, EXPLOTACIÓN Y MANTENIMIENTO DE SISTEMAS E INFRAESTRUCTURAS DE TELECOMUNICACIONES, CON EL OBJETIVO DE PRESTAR SERVICIOS DE TRANSPORTE Y DIFUSIÓN DE SEÑALES DE RADIO Y TELEVISIÓN, RADIOCOMUNICACIÓN, VÍDEO-COMUNICACIÓN, TRANSMISIÓN Y CONMUTACIÓN DE SEÑALES Y CUALQUIER OTRO SERVICIO DE TELECOMUNICACIÓN.\r\n\r\nLA REALIZACIÓN DE ESTUDIOOS Y PRESTACIÓN Y PRESTACIÓN DE SERVICIOS DE ASESORAMIENTO Y PLANIFICACIÓN TÉCNICA EN MATERIA DE ESPECTRO RADIOELÉCTRICO.\r\n\r\nPARTICIPAR EN EL CAPITAL DE EMPRESAS RELACIONADAS CON SU ÁMBITO DE ACTUACIÓN Y EN LAS CONDICIONES QUE EN CADA CASO SE DETERMINEN. ",
      "mainEntityOfPage": "https://www.contratacion.euskadi.eus/webkpe00-kperoc/es/ac71aBusquedaRegistrosWar/empresa/02814",
      "_links": {
        "self": {
          "name": "ITELAZPI, S.A.",
          "href": "https://api.euskadi.eus/procurements/companies/02814"
        }
      }
    },
    {
      "name": "CAMPAÑA 2000, S.L.",
      "registrationNumber": "03853",
      "identificationNumber": "B20711081",
      "address": "FCO. GRANDMONTAGNE, 1 LOCAL 3 EDIF. ZURRIOLA (ZUATZU)",
      "location": {
        "postalCode": "20018",
        "municipality": "Donostia / San Sebastián",
        "county": "Gipuzkoa",
        "municipalityId": "069",
        "countyId": "20"
      },
      "economicActivities": [
        {
          "id": "1.844",
          "name": "Servicios de publicidad, relaciones públicas y similares",
          "_links": {
            "self": {
              "name": "Servicios de publicidad, relaciones públicas y similares",
              "href": "https://api.euskadi.eus/procurements/companies/economic-activities/1.844"
            }
          }
        }
      ],
      "certificateStartDate": "2009-04-14",
      "certificateEndDate": "2009-09-11",
      "object": "LAS ACTIVIDADES RELATIVAS AL DISEÑO GRÁFICO Y LA PUBLICIDAD; EL ARRENDAMIENTO DE LOCALES",
      "mainEntityOfPage": "https://www.contratacion.euskadi.eus/webkpe00-kperoc/es/ac71aBusquedaRegistrosWar/empresa/03853",
      "_links": {
        "self": {
          "name": "CAMPAÑA 2000, S.L.",
          "href": "https://api.euskadi.eus/procurements/companies/03853"
        }
      }
    },
    {
      "name": "ARGIA GRAIFIKA, S.L.",
      "registrationNumber": "01532",
      "identificationNumber": "B48501852",
      "address": "C.E. EL ROBLE-AVDA. PINOA S/N. PARCELAS 1C Y1E",
      "location": {
        "postalCode": "48170",
        "municipality": "Zamudio",
        "county": "Bizkaia",
        "municipalityId": "905",
        "countyId": "48"
      },
      "economicActivities": [
        {
          "id": "1.475",
          "name": "Actividades anexas a las artes gráficas",
          "_links": {
            "self": {
              "name": "Actividades anexas a las artes gráficas",
              "href": "https://api.euskadi.eus/procurements/companies/economic-activities/1.475"
            }
          }
        }
      ],
      "certificateStartDate": "2009-04-08",
      "certificateEndDate": "2009-09-05",
      "object": "LA REALIZACIÓN DE TODA CLASE DE TRABAJOS EN EL SECTOR DE ARTES GRÁFICAS COMO FOTOCOMPOSICIÓN, REPRODUCCIÓN, IMPRESIÓN Y ENCUADERNACIÓN",
      "mainEntityOfPage": "https://www.contratacion.euskadi.eus/webkpe00-kperoc/es/ac71aBusquedaRegistrosWar/empresa/01532",
      "_links": {
        "self": {
          "name": "ARGIA GRAIFIKA, S.L.",
          "href": "https://api.euskadi.eus/procurements/companies/01532"
        }
      }
    },
    {
      "name": "CONSTRUCCIONES Y REFORMAS ISERCAM, S.L.",
      "registrationNumber": "03846",
      "identificationNumber": "B95467270",
      "address": "PLAZA ELORRIETA, 10-1º A",
      "location": {
        "postalCode": "48015",
        "municipality": "Bilbao",
        "county": "Bizkaia",
        "municipalityId": "020",
        "countyId": "48"
      },
      "economicActivities": [
        {
          "id": "1.501.1",
          "name": "Construcción completa, reparación y conservación de edificaciones",
          "_links": {
            "self": {
              "name": "Construcción completa, reparación y conservación de edificaciones",
              "href": "https://api.euskadi.eus/procurements/companies/economic-activities/1.501.1"
            }
          }
        }
      ],
      "certificateStartDate": "2009-04-07",
      "certificateEndDate": "2009-09-05",
      "object": "A) GESTIÓN, ADMINISTRACIÓN, PROMICÍON, ENAJENACIÓN, CONSTRUCCIÓN, REPARACIÓN, REHA BILITACIÓN Y EXPLOTACIÓN EN CUALQUIER FORMA DE SOLARES, TERRENOS, CONJUNTOS, RESIDENCIALES, URBANIZACIONES O PROMOCIONES INMOBILIARIAS Y, EN GENERAL, TODA CLASE DE INMUEBLES; B) LA ADQUISICIÓN POR CUALQUIER TÍTULO DE FINCAS RÚSTICAS O URBANAS, LA CONSTRUCCIÓN DE ÉSTAS , SU URBANIZACIÓN Y PARCELACIÓN, Y LA ADMNISTRACIÓN, TENENCIA, EXPLOTACIÓN Y ARRENDAMIENTO DE TALES BIENES Y SU VENTA TOTAL O PARCIAL, SEGÚN CONVENGA PARA SU APROVECHAMIENTO AGRÍCOLA, FORESTAL, URBANO, INDUSTRIAL O CUALQUIER OTRO. LA PROMOCIÓN Y EJECUCIÓN, COMPLETA O POR TRAMOS DE TODA CLASE DE OBRAS DE CONSTRUCCIÓN, PARA SÍ O PARA TERCEROS, SEAN ORGANISMOS PÚBLICOS DEL ESTADO, PROVINCIA, MUNICIPIO, ENTES AUTONÓMICOS O PERSONAS FÍSICAS, POR CUENTA PROPIA O AJENA, INCLUSO VIVIENDAS Y LOCALES DE LOS DENOMINADOS DE PROTECCIÓN OFICIAL. LA COMPRA, VENTA Y ALQUILER DE EDIFICACIONES EN SU TOTALIDAD, POR PARTES O POR PISOS, BIEN PARA VIVIENDAS O PARA LOCALES DE OFICINAS, DE NEGOCIO O INDUSTRIALES, CONSTRUIDAS PARA TAL FIN, DIRECTAMENTE O POR MEDIO DE CONTRATISTAS, SUBCONTRATISTAS Y DESTAJISTAS O BIEN ADQUIRIDAS YA CONSTRUIDAS O EN CONSTRUCCIÓN. LA REPARACIÓN, LIMPIEZA O CONSERVACIÓN POR CUENTA PROPIA O AJENA DE TODA CLASE DE EDIFICACIONES, POR PARTES O POR PISOS, BIEN PARA VIVIENDAS O PARA LOCALES DE NEGOCIOS Y L A LIMPIEZA EN TODA CLASE DE FACHADAS; C) LA REALIZACIÓN DE ACTIVIDADES DE PINTURA, CARPINTERÍA, ALBAÑILERÍA Y DECORACÓN EN TODAS SUS VARIANTES Y FORMAS, TANTO EN EXTERIORES  COMO EN INTERIORES, INSTALACIONES DE PAPELES PINTADOS, MOQUETAS, MADERAS Y OTROS MATERIALES ANÁLOGOS, LA COMPRA, VENTA, IMPORTACIÓN, EXPORTACIÓN, ALMACENAMIENTO, DEPÓSITO Y COMERCIALIZACIÓN AL POR MAYOR O MENOR DE PINTURAS, PAPELES PINTADOS MOQUETAS, MADERAS Y OTROS MATERIALES Y OBJETOS PARA DECORACIÓN, ALBAÑILERÍA, CARPINTERÍA Y PINTURA; ASÍ COMO DE TODA CLASE DE MATERIALES AUXILIARES O ANEJOS PARA LA CONSTRUCCIÓN",
      "mainEntityOfPage": "https://www.contratacion.euskadi.eus/webkpe00-kperoc/es/ac71aBusquedaRegistrosWar/empresa/03846",
      "_links": {
        "self": {
          "name": "CONSTRUCCIONES Y REFORMAS ISERCAM, S.L.",
          "href": "https://api.euskadi.eus/procurements/companies/03846"
        }
      }
    },
    {
      "name": "EUROPEAN VIRTUAL ENGINEERING FUNDAZIOA",
      "registrationNumber": "03272",
      "identificationNumber": "G01338292",
      "address": "AVDA. DE LOS HUETOS, Nº 79",
      "location": {
        "postalCode": "01010",
        "municipality": "Vitoria-Gasteiz",
        "county": "Araba/Álava",
        "municipalityId": "059",
        "countyId": "01"
      },
      "economicActivities": [
        {
          "id": "1.849.9",
          "name": "Otros servicios independientes n.c.o.p",
          "_links": {
            "self": {
              "name": "Otros servicios independientes n.c.o.p",
              "href": "https://api.euskadi.eus/procurements/companies/economic-activities/1.849.9"
            }
          }
        },
        {
          "id": "1.961.1",
          "name": "Producción de películas cinematográficas (incluso vídeos)",
          "_links": {
            "self": {
              "name": "Producción de películas cinematográficas (incluso vídeos)",
              "href": "https://api.euskadi.eus/procurements/companies/economic-activities/1.961.1"
            }
          }
        }
      ],
      "certificateStartDate": "2009-03-30",
      "certificateEndDate": "2009-09-04",
      "object": "CONTRIBUIR AL DESARROLLO ECONÓMICO, SOCIAL Y CIENTÍFICO A TRAVÉS DE LA INVESTIGACIÓN, DESARROLLO, INNOVACIÓN Y GENEREACIÓN DE CONOCIMIENTO  EN LA TECNOLOGÍA DE REALIDAD VIRTUAL E HIDROMETEOROLOGÍA.\r\nPARA CUMPLIR ESTE OBJETO FUNDAMENTAL, DESARROLLARÁ LAS SIGUIENTES FUNCIONES:\r\na) CAPTACIÓN, DISEÑO, GESTIÓN, DESARROLLO Y EJECUCIÓN DE PROYECTOS Y PROGRAMAS DE INVESTIGACIÓN, DESARROLLO E INNOVACIÓN Y TRANSFERENCIA TECNOLÓGICA EN LAS ÁREAS DE REALIDAD E HIDROMETEOROLOGÍA.\r\n\r\nb) APOYAR, IMPULSAR Y FACILITAR A LAS EMPRESAS Y ENTIDADES DIVERSAS EL USO DE LA TECNOLOGÍA DE REALIDAD VIRTUAL E HIDROMETEOROLOGÍA COMO INSTRUMENTOS DE MEJORA DE SU COMPETITIVIDAD EN SECTORES Y ÁREAS DIVERSAS COMO TELEVISIÓN, CONSTRUCCIÓN, PLANIFICACIÓN URBANÍSTICA, DESARROLLO Y PROTECCIÓN DE LA NATURALEZA, CONTROL MEDIOAMBIENTAL, OBRAS PÚBLICAS, INGENIERÍA DE SIMULADORES DE GRANDES SISTEMAS (AVIONES, BARCOS, TRENES...), VIGILANCIA DE RÍOS, PREDICCIÓN DE CATÁSTROFES, INFORMACIÓN Y PREDICCIÓN METEOROLÓGICA, INGENIERÍA, CINE Y MULTIMEDIA, ETC. \r\n\r\nc) DIFUSIÓN DE LA INNOVACIÓN Y TRANSFERENCIA DE LA TECNOLOGÍA DE REALIDAD VIRTUAL E HIDROMETEOROLOGÍA.\r\n\r\nd) FOMENTO Y  REALIZACIÓN DE ACTIVIDADES DE FORMACIÓN DE PERSONAL ESPECIALIZADO Y DE POSTGRADO TANTO DIRECTAMENTE COMO EN COLABORACIÓN CON CENTROS DOCENTES Y UNIVERSIDADES.\r\n\r\ne) Y EN GENERAL, LA REALIZACIÓN DE TODAS CUANTAS ACTIVIDADES LE SEAN ENCOMENDADAS POR SU ÓRGANOS DE DIRECCIÓN DENTRO DEL OBJETO Y FINALIDAD GENERAL DE LA FUNDACIÓN.\r\n\r\n",
      "mainEntityOfPage": "https://www.contratacion.euskadi.eus/webkpe00-kperoc/es/ac71aBusquedaRegistrosWar/empresa/03272",
      "_links": {
        "self": {
          "name": "EUROPEAN VIRTUAL ENGINEERING FUNDAZIOA",
          "href": "https://api.euskadi.eus/procurements/companies/03272"
        }
      }
    },
    {
      "name": "GARBITU, S.COOP.",
      "registrationNumber": "03328",
      "identificationNumber": "F20095469",
      "address": "ERREKABARREN, 3-BAJO",
      "location": {
        "postalCode": "20550",
        "municipality": "Aretxabaleta",
        "county": "Gipuzkoa",
        "municipalityId": "013",
        "countyId": "20"
      },
      "economicActivities": [
        {
          "id": "1.922",
          "name": "Servicios de limpieza",
          "_links": {
            "self": {
              "name": "Servicios de limpieza",
              "href": "https://api.euskadi.eus/procurements/companies/economic-activities/1.922"
            }
          }
        }
      ],
      "certificateStartDate": "2009-03-30",
      "certificateEndDate": "2009-09-18",
      "object": "LA PRESTACIÓN DE SERVICIOS DE LIMPIEZA Y CUANTAS ACTIVIDADES DECIDA EMPRENDER AFINES O COMPLEMENTARIAS A LAS YA INDICADAS",
      "mainEntityOfPage": "https://www.contratacion.euskadi.eus/webkpe00-kperoc/es/ac71aBusquedaRegistrosWar/empresa/03328",
      "_links": {
        "self": {
          "name": "GARBITU, S.COOP.",
          "href": "https://api.euskadi.eus/procurements/companies/03328"
        }
      }
    },
    {
      "name": "SAP ESPAÑA, SISTEMAS, APLICACIONES Y PRODUCTOS EN LA INFORMATICA, S.A.U.",
      "registrationNumber": "03350",
      "identificationNumber": "A58379629",
      "address": "C/TORRELAGUNA, 77. BLOQUE SAP.",
      "location": {
        "postalCode": "28043",
        "municipality": "Madrid",
        "county": "Madrid",
        "municipalityId": "079",
        "countyId": "28"
      },
      "economicActivities": [
        {
          "id": "1.845",
          "name": "Explotación electrónica por cuenta de terceros",
          "_links": {
            "self": {
              "name": "Explotación electrónica por cuenta de terceros",
              "href": "https://api.euskadi.eus/procurements/companies/economic-activities/1.845"
            }
          }
        },
        {
          "id": "1.932.1",
          "name": "Enseñanza de formación y perfeccionamiento profesional no superior",
          "_links": {
            "self": {
              "name": "Enseñanza de formación y perfeccionamiento profesional no superior",
              "href": "https://api.euskadi.eus/procurements/companies/economic-activities/1.932.1"
            }
          }
        }
      ],
      "certificateStartDate": "2009-03-25",
      "certificateEndDate": "2009-08-06",
      "object": "LA PRESTACIÓN DE SERVICIOS DE MANTENIMIENTO, MONTAJE Y ADAPTACIÓN DE PROGRAMAS DE SOFTWARE FABRICADOS Y DISTRIBUIDOS POR SU CASA MATRIZ; LA FORMACIÓN Y ENTRENAMIENTO DE LOS USUARIOS EN LA UTILIZACIÓN Y MANEJO DE LOS PROGRAMAS DE SOFTWARE, Y EN GENERAL LA PRESTACIÓN DE SERVICIOS DE CONSULTORÍA INFORMÁTICA Y TODAS AQUELLAS ACTIVIDADES COMPLEMENTARIAS Y AUXILIARES QUE SE CONSIDEREN NECESARIAS PARA LA REALIZACIÓN DE LAS ACTIVIDADES PRINCIPALES DE LA COMPAÑÍA",
      "mainEntityOfPage": "https://www.contratacion.euskadi.eus/webkpe00-kperoc/es/ac71aBusquedaRegistrosWar/empresa/03350",
      "_links": {
        "self": {
          "name": "SAP ESPAÑA, SISTEMAS, APLICACIONES Y PRODUCTOS EN LA INFORMATICA, S.A.U.",
          "href": "https://api.euskadi.eus/procurements/companies/03350"
        }
      }
    },
    {
      "name": "AXIMA SISTEMAS E INSTALACIONES, S.A.",
      "registrationNumber": "01385",
      "identificationNumber": "A79821369",
      "address": "C/ PASEO DE LA CASTELLANA, Nº 163.",
      "location": {
        "postalCode": "28046",
        "municipality": "Madrid",
        "county": "Madrid",
        "municipalityId": "079",
        "countyId": "28"
      },
      "economicActivities": [
        {
          "id": "1.504.3",
          "name": "Instalaciones de frío, calor y acondicionamiento de aire",
          "_links": {
            "self": {
              "name": "Instalaciones de frío, calor y acondicionamiento de aire",
              "href": "https://api.euskadi.eus/procurements/companies/economic-activities/1.504.3"
            }
          }
        }
      ],
      "certificateStartDate": "2009-03-24",
      "certificateEndDate": "2009-09-16",
      "object": "LA INGENIERÍA, PROYECTO, CONSTRUCCIÓN, MONTAJE Y MANTENIMIENTO DE TODO TIPO DE OBRAS E INSTALACIONES PARA EDIFICIOS Y PLANTAS INDUSTRIALES, Y ESPECIALMENTE LAS DE AIRE ACONDICIONADO, VENTILACIÓN, CALEFACCIÓN, REFRIGERACIÓN, FONTANERÍA, TRANSPORTE Y TRATAMIENTO DE TODA CLASE DE FLUIDOS, INSTALACIONES SANITARIAS Y DE PROTECCIÓN CONTRA INCENDIOS. LA INGENIERÍA, PROYECTO, INSTALACIÓN Y MANTENIMIENTO DE TODO TIPO DE SISTEMAS DE CONTROL DE INSTALACIONES DE EDIFICIOS E INDUSTRIAS. LA INGENIERÍA, PROYECTO, CONSTRUCCIÓN, MONTAJE Y MANTENIMIENTO DE INSTALACIONES DE FRÍO INDUSTRIAL Y COMERCIAL. LA INGENIERÍA, PROYECTO, INSTALACIÓN Y MONTAJE DE PLANTAS DE TRATAMIENTO DE AGUAS, INSTALACIONES DE GAS Y EL DESARROLLO DE TECNOLOGÍAS RELACIONADAS CON LA ENERGÍA. LA INGENIERÍA, PROYECTO, CONSTRUCCIÓN Y MONTAJE DE INSTALACIONES ELÉCTRICAS DE TODO TIPO, RELACIONADAS O NO CON LAS ACTIVIDADES AQUÍ DESCRITAS. LA FABRICACIÓN, COMPRA, VENTA, IMPORTACIÓN, EXPORTACIÓN Y DISTRIBUCIÓN DE EQUIPOS, ELEMENTOS Y MATERIALES DESTINADOS A LAS OBRAS E INSTALACIONES MENCIONADAS EN LOS APARTADOS ANTERIORES. EL MANTENIMIENTO, CONDUCCIÓN, REHABILITACIÓN Y ACONDICIONAMIENTO DE INSTALACIONES DE EDIFICIOS E INDUSTRIAS. LA PROMOCIÓN, GESTIÓN Y EJECUCIÓN DE TODO TIPO DE NEGOCIOS INMOBILIARIOS, PARA SU EXPLOTACIÓN, VENTA O ALQUILER, ASÍ COMO NEGOCIAR Y POSEER BIENES INMUEBLES, RÚSTICOS O URBANOS, CONSTRUIDOS O NO. LA ADQUISICIÓN, EXPLOTACIÓN, COMERCIALIZACIÓN, CESIÓN Y ENAJENACIÓN DE TODO TIPO DE PROPIEDAD INTELECTUAL, PATENTES, ASISTENCIA TÉCNICA Y DEMÁS MODALIDADES DE PROPIEDAD INDUSTRIAL. NEGOCIAR Y POSEER ACCIONES, PARTICIPACIONES, OBLIGACIONES, BONOS, PAGARÉS, LETRAS, Y OTROS VALORES PÚBLICOS O PRIVADOS, Y, EN GENERAL, ACTIVOS FINANCIEROS, SIN NINGUNA DE LAS CARACTERÍSTICAS PROPIAS DE ACTIVIDADES RESERVADAS A LAS SOCIEDADES DE INVERSIÓN COLECTIVA",
      "mainEntityOfPage": "https://www.contratacion.euskadi.eus/webkpe00-kperoc/es/ac71aBusquedaRegistrosWar/empresa/01385",
      "_links": {
        "self": {
          "name": "AXIMA SISTEMAS E INSTALACIONES, S.A.",
          "href": "https://api.euskadi.eus/procurements/companies/01385"
        }
      }
    },
    {
      "name": "INMENMAR, S.L.",
      "registrationNumber": "03264",
      "identificationNumber": "B48487169",
      "address": "MASTIETA BIDEA 8 BIS",
      "location": {
        "postalCode": "48630",
        "municipality": "Gorliz",
        "county": "Bizkaia",
        "municipalityId": "043",
        "countyId": "48"
      },
      "economicActivities": [
        {
          "id": "1.501.1",
          "name": "Construcción completa, reparación y conservación de edificaciones",
          "_links": {
            "self": {
              "name": "Construcción completa, reparación y conservación de edificaciones",
              "href": "https://api.euskadi.eus/procurements/companies/economic-activities/1.501.1"
            }
          }
        },
        {
          "id": "1.501.2",
          "name": "Construcción completa, reparación y conservación obras civiles",
          "_links": {
            "self": {
              "name": "Construcción completa, reparación y conservación obras civiles",
              "href": "https://api.euskadi.eus/procurements/companies/economic-activities/1.501.2"
            }
          }
        }
      ],
      "certificateStartDate": "2009-03-24",
      "certificateEndDate": "2009-09-12",
      "object": "LA PROMOCIÓN, CONSTRUCCIÓN, REHABILITACIÓN, REPARACIÓN POR CUENTA PROPIA O AJENA DE TODA CLASE DE OBRAS, URBANIZACIONES, EDIFICIOS Y CONSTRUCCIONES, TANTO PÚBLICAS COMO PRIVADAS.\r\n\r\nLA ADMINISTRACIÓN, ASESORAMIENTO, GESTIÓN DE ACTUACIONES URBANÍSTICAS Y PRESTACIONES DE SERVICIOS DE TODO TIPO CON RELACIÓN A BIENES INMUEBLES, SEGÚN CONVENGA A SU APROVECHAMIENTO AGRÍCOLA, FORESTAL, URBANO O INDUSTRIAL.\r\n\r\nLA ASISTENCIA, GESTIÓN, DIRECCIÓN, ADMINISTRACIÓN, PROMOCIÓN, INTERVENCIÓN Y PARTICIPACIÓN EN EMPRESAS O EN SU CREACIÓN, CONSTITUCIÓN O DESARROLLO.\r\n\r\nLA PROMOCIÓN, ESTUDIO Y DESARROLLO DE PRODUCTOS Y ACTIVIDADES INDUSTRIALES, COMERCIALES Y DE DISTRIBUCIÓN, EN EMPRESAS PROPIAS O PARTICIPADAS, Y EXPLOTACIÓN O CESIÓN DE CÁNONES O ROYALTIES Y DERECHOS DE PROPIEDAD INDUSTRIAL    ",
      "mainEntityOfPage": "https://www.contratacion.euskadi.eus/webkpe00-kperoc/es/ac71aBusquedaRegistrosWar/empresa/03264",
      "_links": {
        "self": {
          "name": "INMENMAR, S.L.",
          "href": "https://api.euskadi.eus/procurements/companies/03264"
        }
      }
    }
  ]
}