{
  "totalItems": 9042,
  "totalPages": 905,
  "currentPage": 488,
  "itemsOfPage": 10,
  "items": [
    {
      "name": "IÑAKI AZKARATE ARMENDARIZ",
      "registrationNumber": "08188",
      "identificationNumber": "16260165Q",
      "address": "JOSE MARDONES NÚM. 7, BAJO",
      "location": {
        "postalCode": "01004",
        "municipality": "Vitoria-Gasteiz",
        "county": "Araba/Álava",
        "municipalityId": "059",
        "countyId": "01"
      },
      "economicActivities": [
        {
          "id": "1.653.3",
          "name": "Venta al por menor de artículos de menaje, ferretería, adorno, regalo",
          "_links": {
            "self": {
              "name": "Venta al por menor de artículos de menaje, ferretería, adorno, regalo",
              "href": "https://api.euskadi.eus/procurements/companies/economic-activities/1.653.3"
            }
          }
        },
        {
          "id": "1.691.9",
          "name": "Reparación de otros bienes de consumo n.c.o.p",
          "_links": {
            "self": {
              "name": "Reparación de otros bienes de consumo n.c.o.p",
              "href": "https://api.euskadi.eus/procurements/companies/economic-activities/1.691.9"
            }
          }
        }
      ],
      "certificateStartDate": "2022-08-20",
      "certificateEndDate": "2023-02-20",
      "object": "REPARACIÓN DE OTROS BIENES DE CONSUMO N.C.O.P. VENTA AL POR MENOR DE ARTÍCULOS DE MENAJE, FERRETERÍA, ADORNO, REGALO.",
      "mainEntityOfPage": "https://www.contratacion.euskadi.eus/webkpe00-kperoc/es/ac71aBusquedaRegistrosWar/empresa/08188",
      "_links": {
        "self": {
          "name": "IÑAKI AZKARATE ARMENDARIZ",
          "href": "https://api.euskadi.eus/procurements/companies/08188"
        }
      }
    },
    {
      "name": "BEORTEK, S.A.",
      "registrationNumber": "00634",
      "identificationNumber": "A48179188",
      "address": "P.A.E. ASUARAN. EDIFICIO ARTXANDA, NAVE: 4 B.",
      "location": {
        "postalCode": "48950",
        "municipality": "Erandio",
        "county": "Bizkaia",
        "municipalityId": "902",
        "countyId": "48"
      },
      "economicActivities": [
        {
          "id": "1.619.2",
          "name": "Venta al por mayor de aparatos e instrumentos médicos, ortopédicos, ópticos",
          "_links": {
            "self": {
              "name": "Venta al por mayor de aparatos e instrumentos médicos, ortopédicos, ópticos",
              "href": "https://api.euskadi.eus/procurements/companies/economic-activities/1.619.2"
            }
          }
        }
      ],
      "certificateStartDate": "2022-08-20",
      "certificateEndDate": "2023-02-18",
      "object": "EL COMERCIO AL POR MAYOR Y MENOR, POR CUENTA PROPIA Y EN COMISIÓN, DE TODA CLASE DE MÁQUINAS, APARATOS Y ÚTILES DE USO INDUSTRIAL CON ESPECIAL DEDICACIÓN A APARATOS DE MEDIDA, ENSAYOS DE MATERIALES Y CONTROLES DE CALIDAD; VENTA AL POR MAYOR Y MENOR DE TODA CLASE DE PRODUCTOS, APARATOS, ÚTILES E INSTRUMENTAL PARA UTILIZACIÓN SANITARIA, MÉDICA, QUIRÚRGICA Y CLÍNICA, ASÍ COMO REPARACIÓN Y MANTENIMIENTO DE TODO LO ANTERIOR",
      "mainEntityOfPage": "https://www.contratacion.euskadi.eus/webkpe00-kperoc/es/ac71aBusquedaRegistrosWar/empresa/00634",
      "_links": {
        "self": {
          "name": "BEORTEK, S.A.",
          "href": "https://api.euskadi.eus/procurements/companies/00634"
        }
      }
    },
    {
      "name": "ECOFOR XXII, S.L.",
      "registrationNumber": "08545",
      "identificationNumber": "B95023115",
      "address": "Galdotxa Arana 3, behea",
      "location": {
        "postalCode": "48840",
        "municipality": "Güeñes",
        "county": "Bizkaia",
        "municipalityId": "045",
        "countyId": "48"
      },
      "economicActivities": [
        {
          "id": "1.912",
          "name": "Servicios forestales",
          "_links": {
            "self": {
              "name": "Servicios forestales",
              "href": "https://api.euskadi.eus/procurements/companies/economic-activities/1.912"
            }
          }
        }
      ],
      "certificateStartDate": "2022-08-19",
      "certificateEndDate": "2023-02-18",
      "object": "SERVICIOS FORESTALES, COMO DESBROCES, PLANTACIONES, CIERRES Y TALAS. LA SOCIEDAD TAMBIÉN PODRÁ ASUMIR INTERESES O TENER PARTICIPACIONES, ACCIONES U OBLIGACIONES EN OTRAS SOCIEDADES O EMPRESAS.",
      "mainEntityOfPage": "https://www.contratacion.euskadi.eus/webkpe00-kperoc/es/ac71aBusquedaRegistrosWar/empresa/08545",
      "_links": {
        "self": {
          "name": "ECOFOR XXII, S.L.",
          "href": "https://api.euskadi.eus/procurements/companies/08545"
        }
      }
    },
    {
      "name": "JULIÁN  GARCÍA DE ANDOIN LANZAGORTA",
      "registrationNumber": "08544",
      "identificationNumber": "30613719Y",
      "address": "Gallardi auzoa 12, 1. solairua",
      "location": {
        "postalCode": "48860",
        "municipality": "Zalla",
        "county": "Bizkaia",
        "municipalityId": "096",
        "countyId": "48"
      },
      "economicActivities": [
        {
          "id": "1.502.2",
          "name": "Consolidación y preparación de terrenos para la construcción de edificaciones",
          "_links": {
            "self": {
              "name": "Consolidación y preparación de terrenos para la construcción de edificaciones",
              "href": "https://api.euskadi.eus/procurements/companies/economic-activities/1.502.2"
            }
          }
        },
        {
          "id": "1.851",
          "name": "Alquiler de maquinaria y equipo agrícola",
          "_links": {
            "self": {
              "name": "Alquiler de maquinaria y equipo agrícola",
              "href": "https://api.euskadi.eus/procurements/companies/economic-activities/1.851"
            }
          }
        },
        {
          "id": "1.912",
          "name": "Servicios forestales",
          "_links": {
            "self": {
              "name": "Servicios forestales",
              "href": "https://api.euskadi.eus/procurements/companies/economic-activities/1.912"
            }
          }
        }
      ],
      "certificateStartDate": "2022-08-19",
      "certificateEndDate": "2023-02-18",
      "object": "CONSOLIDACIÓN Y PREPARACIÓN DE TERRENOS PARA LA CONSTRUCCIÓN DE EDIFICACIONES. ALQUILER DE MAQUINARIA Y EQUIPO AGRÍCOLA. SERVICIOS FORESTALES.",
      "mainEntityOfPage": "https://www.contratacion.euskadi.eus/webkpe00-kperoc/es/ac71aBusquedaRegistrosWar/empresa/08544",
      "_links": {
        "self": {
          "name": "JULIÁN  GARCÍA DE ANDOIN LANZAGORTA",
          "href": "https://api.euskadi.eus/procurements/companies/08544"
        }
      }
    },
    {
      "name": "OLIMPIA BASS, S.L.",
      "registrationNumber": "08543",
      "identificationNumber": "B95458949",
      "address": "Egaña, 12 A",
      "location": {
        "postalCode": "48010",
        "municipality": "Bilbao",
        "county": "Bizkaia",
        "municipalityId": "020",
        "countyId": "48"
      },
      "economicActivities": [
        {
          "id": "1.951",
          "name": "Asistencia y servicios sociales en centros residenciales",
          "_links": {
            "self": {
              "name": "Asistencia y servicios sociales en centros residenciales",
              "href": "https://api.euskadi.eus/procurements/companies/economic-activities/1.951"
            }
          }
        }
      ],
      "certificateStartDate": "2022-08-19",
      "certificateEndDate": "2023-02-18",
      "object": "A). EL CUIDADO, PROMOCIÓN, ASISTENCIA, REHABILITACIÓN, INSERCIÓN SOCIAL Y TRATAMIENTO DE TODO TIPO A PERSONAS DE TERCERA EDAD O CUALQUIERA OTRA QUE ALGUNA CARENCIA, ENFERMEDAD O MINUSVALÍA PSÍQUICA, FÍSICA Y/O ECONÓMICA, REGENTANDO, EXPLOTANDO GESTIONANDO A TAL EFECTO, CENTROS INMUEBLES PROPIO O ANEJOS EN VIRTUD DE CONTRATO DE ARRENDAMIENTO DE CUALQUIER CLASE, INCLUIDO FINANCIERO, CESIÓN, CONCESIÓN, DE CUALQUIER TIPO, TANTO GRATUITA COMO ONEROSA, HACIENDO EXPRESA EXTENSIÓN A LA ASISTENCIA DOMICILIARIA CONCERTANDO CUALQUIER TIPO DE CONTRATOS O PACTOS CON INSTITUCIONES PÚBLICAS O PRIVADAS. B). LA EXPLOTACIÓN, EN GENERAL, DE RESIDENCIAS, ELLO EN LOCALES PROPIOS O ARRENDADOS O CONCEDIENDO SU EXPLOTACIÓN A TERCERAS PERSONAS. C). LA COMPRAVENTA DE BIENES INMUEBLES, LA URBANIZACIÓN Y PARCELACIÓN DE TERRENOS EN GENERAL Y LA PROMOCIÓN DE NEGOCIOS INMOBILIARIOS. LA CONSTRUCCIÓN DE INMUEBLES O EDIFICIOS, BIEN PARA USOS RESIDENCIALES O PARA USOS COMERCIALES E INDUSTRIALES, EN CUALQUIER FORMA ADMITIDA PRO LAS LEYES EN VIGOR. LA PROMOCIÓN, VENTA GRAVAMEN O EXPLOTACIÓN, EN RÉGIMEN DE ARRENDAMIENTO (NO FINANCIERO), EDIFICIOS, BIEN COMPLETA O POR PISOS Y LOCALES. D) LA TENENCIA, ADMINISTRACIÓN CESIÓN Y DISFRUTE, EN CUALQUIERA DE LAS FORMAS RECONOCIDAS, DE TODA CLASE DE MARCAS, PATENTES, SISTEMAS Y OTROS DERECHOS COMPRENDIDOS EN LA LEY DE PROPIEDAD INDUSTRIAL. E) EL ASESORAMIENTO A EMPRESAS Y PARTICULARES EN MATERIA DE ASISTENCIA, SANITARIA, FISCAL, CONTABLE, LABORAL, FINANCIERA DE MARKETING Y/ O DE GESTIÓN, ASÍ COMO EN MATERIA ADMINISTRATIVAS, INFORMÁTICAS Y COMERCIALES, ADEMÁS DE LA PRESTACIÓN DE TODO TIPO DE SERVICIOS RELACIONADOS CON LAS ACTIVIDADES ANTERIORES. DICHAS ACTIVIDADES SERÁN DESARROLLADAS A TRAVÉS DE PROFESIONALES CON LA CAPACIDAD NECESARIA PARA REALIZARLA. F). PARA LA REALIZACIÓN DE AQUELLAS ACTIVIDADES COMPRENDIDAS EN EL OBJETO SOCIAL QUE REQUIERAN LA OBTENCIÓN DE ALGUNA AUTORIZACIÓN ADMINISTRATIVA O INSCRIPCIÓN EN ALGÚN REGISTRO ADMINISTRATIVO, SERÁ PRECISO PARA PODER COMENZAR A REALIZARLAS EL CUMPLIMIENTO DE TALES REQUISITOS. G). PARA EL DESARROLLO DE AQUELLAS ACTIVIDADES QUE REQUIERAN TITULACIÓN ESPECÍFICA, SALVO QUE ALGUNO DE LOS SOCIOS A TODOS ELLOS TENGAN U OBTENGAN TAL TITULACIÓN, LA SOCIEDAD DEBERÁ CONTRATAR LOS SERVICIOS DE LOS PROFESIONALES QUE EN CADA CASO SEAN COMPETENTE. H). LAS REFERIDAS ACTIVIDADES PODRÁN SER DESARROLLADAS POR LA SOCIEDAD, TOTAL O PARCIALMENTE, DE MODO INDIRECTO, MEDIANTE TITULARIDAD DE ACCIONES O PARTICIPACIONES EN SOCIEDADES CON OBJETO IDÉNTICO O ANÁLOGO. I). LA SOCIEDAD NO DESARROLLARÁ NINGUNA ACTIVIDAD PARA LA QUE LAS LEYES EXIJAN CONDICIONES O LIMITACIONES ESPECÍFICAS, EN TANTO NO SE DE EXACTO CUMPLIMIENTO DE LAS MISMAS. LAS ACTIVIDADES QUE INTEGRAN EL OBJETO SOCIAL PODRÁN DESARROLLARSE TOTAL O PARCIALMENTE DE MODO INDIRECTO MEDIANTE LA TITULARIDAD DE ACCIONES O PARTICIPACIONES EN SOCIEDADES DE OBJETO IDÉNTICO O ANÁLOGO.",
      "mainEntityOfPage": "https://www.contratacion.euskadi.eus/webkpe00-kperoc/es/ac71aBusquedaRegistrosWar/empresa/08543",
      "_links": {
        "self": {
          "name": "OLIMPIA BASS, S.L.",
          "href": "https://api.euskadi.eus/procurements/companies/08543"
        }
      }
    },
    {
      "name": "MAIDER, S.L.",
      "registrationNumber": "01602",
      "identificationNumber": "B48234256",
      "address": "PASEO DOLORES IBARRURI, 80 -2º DCHA. ",
      "location": {
        "postalCode": "48903",
        "municipality": "Barakaldo",
        "county": "Bizkaia",
        "municipalityId": "013",
        "countyId": "48"
      },
      "economicActivities": [
        {
          "id": "1.495.9",
          "name": "Fabricación de otros artículos n.c.o.p",
          "_links": {
            "self": {
              "name": "Fabricación de otros artículos n.c.o.p",
              "href": "https://api.euskadi.eus/procurements/companies/economic-activities/1.495.9"
            }
          }
        },
        {
          "id": "1.843.9",
          "name": "Otros servicios técnicos n.c.o.p",
          "_links": {
            "self": {
              "name": "Otros servicios técnicos n.c.o.p",
              "href": "https://api.euskadi.eus/procurements/companies/economic-activities/1.843.9"
            }
          }
        },
        {
          "id": "1.934",
          "name": "Enseñanza fuera de establecimiento permanente",
          "_links": {
            "self": {
              "name": "Enseñanza fuera de establecimiento permanente",
              "href": "https://api.euskadi.eus/procurements/companies/economic-activities/1.934"
            }
          }
        }
      ],
      "certificateStartDate": "2022-08-18",
      "certificateEndDate": "2023-02-13",
      "object": "LA PROTECCIÓN CIVIL Y SERVICIOS SOCIALES",
      "mainEntityOfPage": "https://www.contratacion.euskadi.eus/webkpe00-kperoc/es/ac71aBusquedaRegistrosWar/empresa/01602",
      "_links": {
        "self": {
          "name": "MAIDER, S.L.",
          "href": "https://api.euskadi.eus/procurements/companies/01602"
        }
      }
    },
    {
      "name": "HOLOGIC IBERIA, S.L.",
      "registrationNumber": "06433",
      "identificationNumber": "B83279331",
      "address": "CALLE ISABEL COLBRAND 10-12, Ed. ALFA III.Planta 5, Local 138",
      "location": {
        "postalCode": "28050",
        "municipality": "Madrid",
        "county": "Madrid",
        "municipalityId": "079",
        "countyId": "28"
      },
      "economicActivities": [
        {
          "id": "1.614.1",
          "name": "Venta al por mayor de productos farmacéuticos y medicamentos",
          "_links": {
            "self": {
              "name": "Venta al por mayor de productos farmacéuticos y medicamentos",
              "href": "https://api.euskadi.eus/procurements/companies/economic-activities/1.614.1"
            }
          }
        }
      ],
      "certificateStartDate": "2022-08-18",
      "certificateEndDate": "2023-02-12",
      "object": "LA FABRICACIÓN, COMERCIALIZACIÓN, IMPORTACIÓN ,EXPORTACIÓN Y VENTA DE PRODUCTOS MÉDICOS, QUIRÚRGICOS Y FARMACÉUTICOS SUJETO AL DEBIDO CUMPLIMIENTO DE LOS REQUISITOS QUE SE EXIJAN LEGAL O REGLAMENTARIAMENTE INCLUIDA LA OBTENCIÓN DE LAS LICENCIAS O AUTORIZACIONES QUE SE REQUIERAN A TALES FINES\r\n\r\n\t",
      "mainEntityOfPage": "https://www.contratacion.euskadi.eus/webkpe00-kperoc/es/ac71aBusquedaRegistrosWar/empresa/06433",
      "_links": {
        "self": {
          "name": "HOLOGIC IBERIA, S.L.",
          "href": "https://api.euskadi.eus/procurements/companies/06433"
        }
      }
    },
    {
      "name": "ESTUDIO GENESIS PROJECTS, S.L",
      "registrationNumber": "06761",
      "identificationNumber": "B43526656",
      "address": "Plaza prim,10 1º2º",
      "location": {
        "postalCode": "43201",
        "municipality": "Reus",
        "county": "Tarragona",
        "municipalityId": "123",
        "countyId": "43"
      },
      "economicActivities": [
        {
          "id": "1.844",
          "name": "Servicios de publicidad, relaciones públicas y similares",
          "_links": {
            "self": {
              "name": "Servicios de publicidad, relaciones públicas y similares",
              "href": "https://api.euskadi.eus/procurements/companies/economic-activities/1.844"
            }
          }
        }
      ],
      "certificateStartDate": "2022-08-18",
      "certificateEndDate": "2023-02-13",
      "object": "LA EXPORTACIÓN, IMPORTACIÓN, ASESORAMIENTO, COMERCIALIZACIÓN, INSTALACIÓN, SOPORTE Y MANTENIMIENTO DE EQUIPOS DE TELECOMUNICACIONES O INFORMÁTICOS, HARDWARE, SOFTWARE Y DE APLICACIONES INSTALADAS EN LOS EQUIPOS ESPECIFICADOS. EL ANÁLISIS, PROGRAMACIÓN, PREPARACIÓN Y APLICACIÓN DE SISTEMAS INFORMÁTICOS PARA TODA CLASE DE ACTIVIDADES, SU SUMINISTRO, IMPLANTACIÓN E INTEGRACIÓN, ASÍ COMO LA FORMACIÓN Y EL ASESORAMIENTO A PERSONAS Y EMPRESAS. LA PRESTACIÓN DE SERVICIOS DE PLANIFICACIÓN Y GESTIÓN DE ACCIONES FORMATIVAS PARA LOS TRABAJADORES DE EMPRESAS, ENTES PÚBLICOS Y ENTIDADES SIN ÁNIMO DE LUCRO, ASÍ COMO LA IMPARTICIÓN DE CURSOS, JORNADAS, SEMINARIOS Y OTRAS ACCIONES DIVULGATIVAS EN MATERIA INFORMÁTICA O DE TELECOMUNICACIONES O MATERIAS AFINES O COMPLEMENTARIAS\r\n",
      "mainEntityOfPage": "https://www.contratacion.euskadi.eus/webkpe00-kperoc/es/ac71aBusquedaRegistrosWar/empresa/06761",
      "_links": {
        "self": {
          "name": "ESTUDIO GENESIS PROJECTS, S.L",
          "href": "https://api.euskadi.eus/procurements/companies/06761"
        }
      }
    },
    {
      "name": "MEDICONTUR AVI S.L.",
      "registrationNumber": "05139",
      "identificationNumber": "B86753480",
      "address": "POLO SUR, 1",
      "location": {
        "postalCode": "28850",
        "municipality": "Torrejón de Ardoz",
        "county": "Madrid",
        "municipalityId": "148",
        "countyId": "28"
      },
      "economicActivities": [
        {
          "id": "1.631",
          "name": "Intermediarios del comercio",
          "_links": {
            "self": {
              "name": "Intermediarios del comercio",
              "href": "https://api.euskadi.eus/procurements/companies/economic-activities/1.631"
            }
          }
        }
      ],
      "certificateStartDate": "2022-08-18",
      "certificateEndDate": "2023-02-16",
      "object": "LA INTERMEDIACIÓN EN LA PRESTACIÓN DE SERVICIOS MÉDICOS Y SANITARIOS EN GENERAL, DE ANÁLISIS Y DIAGNÓSTICO, INCLUIDA LA INVESTIGACIÓN CLÍNICA. LA CREACIÓN, ARRENDAMIENTO, EXPLOTACIÓN Y MONTAJE DE LÍNICAS DE MEDICINA HUMANA Y/O VETERINARIA, EN TODAS SUS ESPECIALIDADES. LA CREACIÓN, ARRENDAMIENTO, EXPLOTACIÓN Y MONTAJE DE LABORATORIOS DE ANÁLISIS CLÍNICOS RELACIONADOS CON LA MEDICINA HUMANA Y/O VETERINARIA, EN TODAS SUS ESPECIALIDADES; LA COMPRA, VENTA, IMPORTACIÓN, EXPORTACIÓN, COMERCIALIZACIÓN Y DISTRIBUCIÓN DE TODA CLASE DE PRODCTOS Y MERCANCÍAS, TANTO EN NOMBRE PROPIO COMO POR CUENTA DE TERCEROS, AL POR MAYOR Y AL POR MENOR, CUYO DESTINO SEA SU USO Y CONSUMO EN LA CONSTRUCCIÓN, INGENIERÍA, VEHÍCULOS, INDUSTRIA, ALIMENTACIÓN, SANIDAD, VESTIDO, BELLEZA, CONFECCIÓN, VIVIENDA, HOGAR, DECORACIÓN, OCIO, ESPARCIMIENTO, RECREO, DEPORTES, CULTURA Y ENSEÑANZA; LA REPRESENTACIÓN DE CUALQUIER EMPRESA EXTRANJERA EN ESPAÑA O ESPAÑOLA EN EL EXTRANJERO; LA PROMOCIÓN, ADQUISICIÓN Y ENAJENACIÓN, POR CUALQUIER TÍTULO, DE TERRENOS, EDIFICIOS Y FINCAS EN GENERAL; LA URBANIZACIÓN, CONSTRUCCIÓN, COMPRAVENTA, ADMINISTRACIÓN Y EXPLOTACIÓN, ALQUILER Y ARRENDAMIENTO, EXCEPTUANDO EL ARRENDAMIENTO FINANCIERO, DE LOS MISMOS, YA SEAN EN SU TOTALIDAD, YA POR PISOS O PARTES, BIEN POR CUENTA PROPIA O AJENA",
      "mainEntityOfPage": "https://www.contratacion.euskadi.eus/webkpe00-kperoc/es/ac71aBusquedaRegistrosWar/empresa/05139",
      "_links": {
        "self": {
          "name": "MEDICONTUR AVI S.L.",
          "href": "https://api.euskadi.eus/procurements/companies/05139"
        }
      }
    },
    {
      "name": "TALDE GUNE MUSIKA ESKOLA S.L.",
      "registrationNumber": "07900",
      "identificationNumber": "B01533454",
      "address": "PASEO JUAN PABLO, 20-BAJO",
      "location": {
        "postalCode": "01015",
        "municipality": "Vitoria-Gasteiz",
        "county": "Araba/Álava",
        "municipalityId": "059",
        "countyId": "01"
      },
      "economicActivities": [
        {
          "id": "1.933.9",
          "name": "Otras actividades de enseñanza tales como idiomas, mecanografía",
          "_links": {
            "self": {
              "name": "Otras actividades de enseñanza tales como idiomas, mecanografía",
              "href": "https://api.euskadi.eus/procurements/companies/economic-activities/1.933.9"
            }
          }
        }
      ],
      "certificateStartDate": "2022-08-17",
      "certificateEndDate": "2023-02-17",
      "object": "- LA DOCENCIA MUSICAL.- PRODUCCIÓN Y OTROS SERVICIOS ARTÍSTICOS Y/O MUSICALES CÓDIGOS CNAE 9003, 8559",
      "mainEntityOfPage": "https://www.contratacion.euskadi.eus/webkpe00-kperoc/es/ac71aBusquedaRegistrosWar/empresa/07900",
      "_links": {
        "self": {
          "name": "TALDE GUNE MUSIKA ESKOLA S.L.",
          "href": "https://api.euskadi.eus/procurements/companies/07900"
        }
      }
    }
  ]
}