{
  "totalItems": 9042,
  "totalPages": 905,
  "currentPage": 621,
  "itemsOfPage": 10,
  "items": [
    {
      "name": "LEZAMA DEMOLICIONES, S.L.",
      "registrationNumber": "03482",
      "identificationNumber": "B81179897",
      "address": "TRÁPAGA ELKARTEGIA, MOD. 17-21",
      "location": {
        "postalCode": "48510",
        "municipality": "Valle de Trápaga-Trapagaran",
        "county": "Bizkaia",
        "municipalityId": "080",
        "countyId": "48"
      },
      "economicActivities": [
        {
          "id": "1.502.1",
          "name": "Demoliciones y derribos en general",
          "_links": {
            "self": {
              "name": "Demoliciones y derribos en general",
              "href": "https://api.euskadi.eus/procurements/companies/economic-activities/1.502.1"
            }
          }
        }
      ],
      "certificateStartDate": "2018-12-11",
      "certificateEndDate": "2019-04-02",
      "object": "RECUPERACIONES SUBMARINAS. VOLADURAS CONTROLADAS Y DERRIBOS. DESGUACES NAVALES E INDUSTRIALES. COMPRAVENTA DE METALES",
      "mainEntityOfPage": "https://www.contratacion.euskadi.eus/webkpe00-kperoc/es/ac71aBusquedaRegistrosWar/empresa/03482",
      "_links": {
        "self": {
          "name": "LEZAMA DEMOLICIONES, S.L.",
          "href": "https://api.euskadi.eus/procurements/companies/03482"
        }
      }
    },
    {
      "name": "URKO SERVICIOS DE PREVENCIÓN, S. COOP.",
      "registrationNumber": "04886",
      "identificationNumber": "F20668570",
      "address": "C/ Tejeria Nº 19-21 Bajo",
      "location": {
        "postalCode": "20012",
        "municipality": "Donostia / San Sebastián",
        "county": "Gipuzkoa",
        "municipalityId": "069",
        "countyId": "20"
      },
      "economicActivities": [
        {
          "id": "1.849.9",
          "name": "Otros servicios independientes n.c.o.p",
          "_links": {
            "self": {
              "name": "Otros servicios independientes n.c.o.p",
              "href": "https://api.euskadi.eus/procurements/companies/economic-activities/1.849.9"
            }
          }
        },
        {
          "id": "1.932.1",
          "name": "Enseñanza de formación y perfeccionamiento profesional no superior",
          "_links": {
            "self": {
              "name": "Enseñanza de formación y perfeccionamiento profesional no superior",
              "href": "https://api.euskadi.eus/procurements/companies/economic-activities/1.932.1"
            }
          }
        },
        {
          "id": "1.932.2",
          "name": "Enseñanza de formación y perfeccionamiento profesional superior",
          "_links": {
            "self": {
              "name": "Enseñanza de formación y perfeccionamiento profesional superior",
              "href": "https://api.euskadi.eus/procurements/companies/economic-activities/1.932.2"
            }
          }
        }
      ],
      "certificateStartDate": "2018-12-10",
      "certificateEndDate": "2019-05-29",
      "object": "OFRECER SERVICIOS RELACIONADOS CON LA PREVENCION DE RIESGOS LABORALES Y LA SEGURIDAD.\r\nIMPARTIR FORMACION OCUPACIONAL Y CONTINUA, REGLADA Y NO REGLADA",
      "mainEntityOfPage": "https://www.contratacion.euskadi.eus/webkpe00-kperoc/es/ac71aBusquedaRegistrosWar/empresa/04886",
      "_links": {
        "self": {
          "name": "URKO SERVICIOS DE PREVENCIÓN, S. COOP.",
          "href": "https://api.euskadi.eus/procurements/companies/04886"
        }
      }
    },
    {
      "name": "CLIM ESTUDIO DE ARQUITECTURA S.L.P.",
      "registrationNumber": "05194",
      "identificationNumber": "B01262641",
      "address": "RIO AYUDA Nº 5 BAJO",
      "location": {
        "postalCode": "01010",
        "municipality": "Vitoria-Gasteiz",
        "county": "Araba/Álava",
        "municipalityId": "059",
        "countyId": "01"
      },
      "economicActivities": [
        {
          "id": "1.843.2",
          "name": "Servicios técnicos de arquitectura y urbanismo",
          "_links": {
            "self": {
              "name": "Servicios técnicos de arquitectura y urbanismo",
              "href": "https://api.euskadi.eus/procurements/companies/economic-activities/1.843.2"
            }
          }
        }
      ],
      "certificateStartDate": "2018-12-05",
      "certificateEndDate": "2019-05-28",
      "object": "PRESTACION DE SERVICIOS PROFESIONALES EN EL CAMPO DE LA ARQUITECTURA Y EL URBANISMO, SIEMPRE A TRAVES DE ARQUITECTOS COLEGIADOS, ASÍ COMO LA REPRESENTACION DE TERCEROS Y POR SU CUENTA EXCLUSIVA, DE LAS ACTIVIDADES DE GESTIÓN, ASESORAMIENTO, COORDINACIÓN Y ADMINISTRACIÓN, RELACIONADAS CON LA CONDICIÓN DE ARQUITECTO",
      "mainEntityOfPage": "https://www.contratacion.euskadi.eus/webkpe00-kperoc/es/ac71aBusquedaRegistrosWar/empresa/05194",
      "_links": {
        "self": {
          "name": "CLIM ESTUDIO DE ARQUITECTURA S.L.P.",
          "href": "https://api.euskadi.eus/procurements/companies/05194"
        }
      }
    },
    {
      "name": "PREMIUM PLUS SL",
      "registrationNumber": "05963",
      "identificationNumber": "B84156777",
      "address": "CALLE VILLAR Y MACÍAS Nº 2 2ºC",
      "location": {
        "postalCode": "37002",
        "municipality": "Salamanca",
        "county": "Salamanca",
        "municipalityId": "274",
        "countyId": "37"
      },
      "economicActivities": [
        {
          "id": "1.769",
          "name": "Otros servicios de telecomunicaciones",
          "_links": {
            "self": {
              "name": "Otros servicios de telecomunicaciones",
              "href": "https://api.euskadi.eus/procurements/companies/economic-activities/1.769"
            }
          }
        }
      ],
      "certificateStartDate": "2018-12-05",
      "certificateEndDate": "2019-02-08",
      "object": "1. LA COMPRA, COMERCIALIZACIÓN, INSTALACIÓN Y ASISTENCIA TÉCNICA,  ASÍ COMO EL MANTENIMIENTO DE TODO TIPO DE EQUIPOS Y APLICACIONES DE TELECOMUNICACIONES EN SU MÁS AMPLIO CONTENIDO: VOZ, DATOS, IMÁGENES, ASÍ COMO LA INSTALACIÓN DE LAS INFRESTRUCTURAS QUE LAS SOPORTAN, SEAN FÍSICAS O INALÁBRICAS. 2. LA COMPRA, COMERCIALIZACIÓN, INSTALACIÓN Y ASISTENCIA TÉCNICA,  ASÍ COMO EL MANTENIMIENTO DE TODO TIPO DE EQUIPOS Y APLICACIONES INFORMÁTICAS, SEAN ESTAS DE DESARROLLO AJENO O PROPIO. 3. LA COMPRA, COMERCIALIZACIÓN, INSTALACIÓN Y ASISTENCIA TÉCNICA, ASÍ COMO EL MANTENIMIENTO DE TODO TIPO DE EQUIPOS Y APLICACIONES OFIMÁTICAS, SEAN ESTAS DE DESARROLLO AJENO O PROPIO. 4. LA DISTRIBUCIÓN DE LOS SERVICIOS DE LOS OPERADORES DE TELECOMUNICACIONES, SEAN ESTOS DE VOZ O DE DATOS. 5. LA CONSULTORÍA Y ASESORÍA EN PROYECTOS DE TELECOMUNICACIONES, INFORMÁTICA Y OFIMÁTICA. 6. LA COMERCIALIZACIÓN DE EQUIPOS DE TELECOMUNICACIONES, INFORMÁTICA Y OFIMÁTICA EN RÉGIMEN DE MAYORISTAS",
      "mainEntityOfPage": "https://www.contratacion.euskadi.eus/webkpe00-kperoc/es/ac71aBusquedaRegistrosWar/empresa/05963",
      "_links": {
        "self": {
          "name": "PREMIUM PLUS SL",
          "href": "https://api.euskadi.eus/procurements/companies/05963"
        }
      }
    },
    {
      "name": "VERTEX TECHNICS S.L",
      "registrationNumber": "05959",
      "identificationNumber": "B60220191",
      "address": "c/ LLOBREGAT 14",
      "location": {
        "postalCode": "08750",
        "municipality": "Molins de Rei",
        "county": "Barcelona",
        "municipalityId": "123",
        "countyId": "08"
      },
      "economicActivities": [
        {
          "id": "1.659.3",
          "name": "Venta al por menor de aparatos médicos, ortopédicos, ópticos y fotográficos",
          "_links": {
            "self": {
              "name": "Venta al por menor de aparatos médicos, ortopédicos, ópticos y fotográficos",
              "href": "https://api.euskadi.eus/procurements/companies/economic-activities/1.659.3"
            }
          }
        }
      ],
      "certificateStartDate": "2018-12-04",
      "certificateEndDate": "2019-02-28",
      "object": "LA COMPRAVENTA, COMERCIALIZACIÓN, REPRESENTACIÓN, ALMACENAMIENTO, MANIPULACIÓN Y ENSAMBLAJE, EXPORTACIÓN E IMPORTACIÓN DE TODA CLASE DE APARATOS, PRODUCTOS, ACCESORIOS Y SUS COMPLEMENTOS PARA LA INVESTIGACIÓN, ANÁLISIS, CONTROL Y FABRICACIÓN, ASÍ COMO LA MAQUINARIA ADECUADA PARA SU APLICACIÓN ",
      "mainEntityOfPage": "https://www.contratacion.euskadi.eus/webkpe00-kperoc/es/ac71aBusquedaRegistrosWar/empresa/05959",
      "_links": {
        "self": {
          "name": "VERTEX TECHNICS S.L",
          "href": "https://api.euskadi.eus/procurements/companies/05959"
        }
      }
    },
    {
      "name": "JANSSEN CILAG, S.A.",
      "registrationNumber": "03826",
      "identificationNumber": "A28925899",
      "address": "Pº DOCE ESTRELLAS, 5-7",
      "location": {
        "postalCode": "28042",
        "municipality": "Madrid",
        "county": "Madrid",
        "municipalityId": "079",
        "countyId": "28"
      },
      "economicActivities": [
        {
          "id": "1.614.1",
          "name": "Venta al por mayor de productos farmacéuticos y medicamentos",
          "_links": {
            "self": {
              "name": "Venta al por mayor de productos farmacéuticos y medicamentos",
              "href": "https://api.euskadi.eus/procurements/companies/economic-activities/1.614.1"
            }
          }
        }
      ],
      "certificateStartDate": "2018-11-30",
      "certificateEndDate": "2019-03-19",
      "object": "LA REALIZACIÓN DE ACTIVIDADES DE INVESTIGACIÓN CIENTÍFICA, LA ADQUISICIÓN, FABRICACIÓN, EMPAQUETADO, REPRESENTACIÓN, OTORGAMIENTO Y OBTENCIÓN DE LICENCIAS, VENTA, IMPORTACIÓN Y EXPORTACIÓN DE PRODUCTOS Y SERVICIOS FARMACÉUTICOS, AGROQUÍMICOS, VETERINARIOS, HOSPITALARIOS Y DE LABORATORIO, DE APARATOS ELECTRÓNICOS, ASÍ COMO DE SUS COMPONENTES; EN PARTICULAR DE LOS PRODUCTOS JANSSEN Y DE LA COMPRA Y ADMINISTRACIÓN DE BIENES MUEBLES E INMUEBLES NECESARIOS PARA EL DESARROLLO Y EJECUCIÓN DE LAS ACTIVIDADES SEÑALADAS",
      "mainEntityOfPage": "https://www.contratacion.euskadi.eus/webkpe00-kperoc/es/ac71aBusquedaRegistrosWar/empresa/03826",
      "_links": {
        "self": {
          "name": "JANSSEN CILAG, S.A.",
          "href": "https://api.euskadi.eus/procurements/companies/03826"
        }
      }
    },
    {
      "name": "CUMPLIDO ALBAÑILERIA SL",
      "registrationNumber": "05848",
      "identificationNumber": "B20828109",
      "address": "PS MARTUTENE 84",
      "location": {
        "postalCode": "20014",
        "municipality": "Donostia / San Sebastián",
        "county": "Gipuzkoa",
        "municipalityId": "069",
        "countyId": "20"
      },
      "economicActivities": [
        {
          "id": "1.501.3",
          "name": "Albañilería y pequeños trabajos de construcción en general",
          "_links": {
            "self": {
              "name": "Albañilería y pequeños trabajos de construcción en general",
              "href": "https://api.euskadi.eus/procurements/companies/economic-activities/1.501.3"
            }
          }
        }
      ],
      "certificateStartDate": "2018-11-30",
      "certificateEndDate": "2019-03-25",
      "object": "TRABAJOS DE ALBAÑILERÍA, ASÍ COMO, TODAS TAREAS NECESARIAS PARA LA REALIZACIÓN DE DICHO OBJETO",
      "mainEntityOfPage": "https://www.contratacion.euskadi.eus/webkpe00-kperoc/es/ac71aBusquedaRegistrosWar/empresa/05848",
      "_links": {
        "self": {
          "name": "CUMPLIDO ALBAÑILERIA SL",
          "href": "https://api.euskadi.eus/procurements/companies/05848"
        }
      }
    },
    {
      "name": "SISTEMAS DIDACTICOS DE LABORATORIO S.L.",
      "registrationNumber": "05954",
      "identificationNumber": "B84373125",
      "address": "AVDA. DE QUITAPESARES, 20 NAVE 42-F",
      "location": {
        "postalCode": "28670",
        "municipality": "Villaviciosa de Odón",
        "county": "Madrid",
        "municipalityId": "181",
        "countyId": "28"
      },
      "economicActivities": [
        {
          "id": "1.617.9",
          "name": "Venta al por mayor interindustrial de otros productos n.c.o.p",
          "_links": {
            "self": {
              "name": "Venta al por mayor interindustrial de otros productos n.c.o.p",
              "href": "https://api.euskadi.eus/procurements/companies/economic-activities/1.617.9"
            }
          }
        }
      ],
      "certificateStartDate": "2018-11-30",
      "certificateEndDate": "2019-03-26",
      "object": "LA PLANIFICACIÓN, DESARROLLO, PRODUCCIÓN, EXPORTACIÓN E IMPORTACIÓN, DISTRIBUCIÓN Y COMERCIALIZACIÓN DE PRODUCTOS CIENTÍFICOS, TÉCNICOS Y SISTEMAS DIDÁCTICOS E INFORMÁTICOS, MOBILIARIO ESCOLAR Y DE LABORATORIO, INCLUIDAS INSTALACIONES, MANTENIMIENTO Y PRESTACIÓN DE SERVICIOS PARA AULAS Y TALLERES DE FORMACIÓN. QUEDA EXCLUIDA DE FORMA EXPRESA EL ARRENDAMIENTO FINANCIERO O LEASING",
      "mainEntityOfPage": "https://www.contratacion.euskadi.eus/webkpe00-kperoc/es/ac71aBusquedaRegistrosWar/empresa/05954",
      "_links": {
        "self": {
          "name": "SISTEMAS DIDACTICOS DE LABORATORIO S.L.",
          "href": "https://api.euskadi.eus/procurements/companies/05954"
        }
      }
    },
    {
      "name": "IGROBE RODAR 2001, S.L.",
      "registrationNumber": "05339",
      "identificationNumber": "B62754700",
      "address": "Avda. Cornellà, 142, 4º-2º",
      "location": {
        "postalCode": "08950",
        "municipality": "Esplugues de Llobregat",
        "county": "Barcelona",
        "municipalityId": "077",
        "countyId": "08"
      },
      "economicActivities": [
        {
          "id": "1.619.2",
          "name": "Venta al por mayor de aparatos e instrumentos médicos, ortopédicos, ópticos",
          "_links": {
            "self": {
              "name": "Venta al por mayor de aparatos e instrumentos médicos, ortopédicos, ópticos",
              "href": "https://api.euskadi.eus/procurements/companies/economic-activities/1.619.2"
            }
          }
        }
      ],
      "certificateStartDate": "2018-11-29",
      "certificateEndDate": "2019-02-21",
      "object": "LA COMERCIALIZACIÓN Y DISTRIBUCIÓN POR CUENTA DE TERCEROS DE LOS SIGUIENTES TIPOS DE PRODUCTOS: A) PRODUCTOS SANITARIOS DE LAS CLASES TERAPÉUTICAS. B) PRÓTESIS E IMPLANTES MÉDICOS. C) ORTESIS. D) TODO TIPO DE APARATAJE E INSTRUMENTAL DE USO MÉDICO. ESTA COMERCIALIZACIÓ SE EFECTUARÁ EN LA TOTALIDAD DEL TERRITORIO NACIONAL Y ENLOS ÁMBITOS DE LA MEDICINA PÚBLICA Y PRIVADA. ESTA COMERCIALIZACIÓN SE EFECTUARÁ CON ARREGLO A LAS DISPOSICIONES RECOGIDAS EN LA LEY DE PRODUCTOS SANITARIOS",
      "mainEntityOfPage": "https://www.contratacion.euskadi.eus/webkpe00-kperoc/es/ac71aBusquedaRegistrosWar/empresa/05339",
      "_links": {
        "self": {
          "name": "IGROBE RODAR 2001, S.L.",
          "href": "https://api.euskadi.eus/procurements/companies/05339"
        }
      }
    },
    {
      "name": "AGUSTIN DOMINGUEZ RODRIGUEZ, S.L.",
      "registrationNumber": "04454",
      "identificationNumber": "B09491523",
      "address": "CTRA. BILBAO 24",
      "location": {
        "postalCode": "09200",
        "municipality": "Miranda de Ebro",
        "county": "Burgos",
        "municipalityId": "219",
        "countyId": "09"
      },
      "economicActivities": [
        {
          "id": "1.612.9",
          "name": "Venta al por mayor de otros productos alimenticios, helados de todas clases",
          "_links": {
            "self": {
              "name": "Venta al por mayor de otros productos alimenticios, helados de todas clases",
              "href": "https://api.euskadi.eus/procurements/companies/economic-activities/1.612.9"
            }
          }
        }
      ],
      "certificateStartDate": "2018-11-28",
      "certificateEndDate": "2019-04-26",
      "object": "A). LA FABRICACIÓN, LA DISTRIBUCIÓN Y EL COMERCIO AL POR MAYOR Y AL MENOR DE TODA CLASE DE PRODUCTOS DE DROGUERÍA, LIMPIEZA, ALIMENTACIÓN Y BEBIDAS. B). LA ACTIVIDAD INMOBILIARIA, EN GENERAL",
      "mainEntityOfPage": "https://www.contratacion.euskadi.eus/webkpe00-kperoc/es/ac71aBusquedaRegistrosWar/empresa/04454",
      "_links": {
        "self": {
          "name": "AGUSTIN DOMINGUEZ RODRIGUEZ, S.L.",
          "href": "https://api.euskadi.eus/procurements/companies/04454"
        }
      }
    }
  ]
}