{
  "totalItems": 9042,
  "totalPages": 905,
  "currentPage": 662,
  "itemsOfPage": 10,
  "items": [
    {
      "name": "NEURRI, S.L.",
      "registrationNumber": "00097",
      "identificationNumber": "B20034690B",
      "address": "C/ ALDAPA BIDE, Nº 6 - BAJO",
      "location": {
        "postalCode": "20012",
        "municipality": "Donostia / San Sebastián",
        "county": "Gipuzkoa",
        "municipalityId": "069",
        "countyId": "20"
      },
      "economicActivities": [
        {
          "id": "1.843.4",
          "name": "Servicios técnicos de topografía",
          "_links": {
            "self": {
              "name": "Servicios técnicos de topografía",
              "href": "https://api.euskadi.eus/procurements/companies/economic-activities/1.843.4"
            }
          }
        }
      ],
      "certificateStartDate": "2015-03-03",
      "certificateEndDate": "1999-08-15",
      "object": "ESTUDIOS DE LEVANTAMIENTOS TOPOGRÁFICOS, PROYECTOS DE TOPOGRAFÍA Y ANÁLOGOS",
      "mainEntityOfPage": "https://www.contratacion.euskadi.eus/webkpe00-kperoc/es/ac71aBusquedaRegistrosWar/empresa/00097",
      "_links": {
        "self": {
          "name": "NEURRI, S.L.",
          "href": "https://api.euskadi.eus/procurements/companies/00097"
        }
      }
    },
    {
      "name": "ESICE SISTEMAS FORMATIVOS S.L.",
      "registrationNumber": "05304",
      "identificationNumber": "B01379817",
      "address": "PEDRO ASUA 69 - 73",
      "location": {
        "postalCode": "01008",
        "municipality": "Vitoria-Gasteiz",
        "county": "Araba/Álava",
        "municipalityId": "059",
        "countyId": "01"
      },
      "economicActivities": [
        {
          "id": "1.932.2",
          "name": "Enseñanza de formación y perfeccionamiento profesional superior",
          "_links": {
            "self": {
              "name": "Enseñanza de formación y perfeccionamiento profesional superior",
              "href": "https://api.euskadi.eus/procurements/companies/economic-activities/1.932.2"
            }
          }
        }
      ],
      "certificateStartDate": "2015-02-20",
      "certificateEndDate": "2015-08-11",
      "object": "DESARROLLO DE CONTENIDOS FORMATIVOS PARA SU UTILIZACIÓN EN PLATAFORMAS QUE UTILICEN LA RED INTERNET. DESARROLLO DE METODOLOGÍAS DIDÁCTICAS. DESARROLLO DE PLATAFORMAS EDUCATIVAS. IMPARTACIÓN DE CURSOS, DE FORMACIÓN REGLADA Y NO REGLADA, PRESENCIALES, SEMIPRESENCIALES Y A DISTANCIA EN TODAS SUS MODALIDADES INCLUYENDO LA DENOMINADA \"ON LINE\"; ALQUILER DE EQUIPOS INFORMÁTICOS. ALQUILER  DE SOFTWARE EDUCATIVO. ALQUILER DE METODOLOGÍAS DIDÁCTICAS FRANQUICIADAS. VENTA DE MATERIAL EDUCATIVO UTILIZANDO TODOS LOS SISTEMAS DE COMUNICACIONES TANTO IMPRESOS COMO TELEMÁTICOS. ENSEÑANZA DE FORMACIÓN PROFESIONAL EN TODOS LOS NIVELES EDUCATIVOS.",
      "mainEntityOfPage": "https://www.contratacion.euskadi.eus/webkpe00-kperoc/es/ac71aBusquedaRegistrosWar/empresa/05304",
      "_links": {
        "self": {
          "name": "ESICE SISTEMAS FORMATIVOS S.L.",
          "href": "https://api.euskadi.eus/procurements/companies/05304"
        }
      }
    },
    {
      "name": "METALÚRGICAS MENDIA Y MURUA, S.L.",
      "registrationNumber": "03051",
      "identificationNumber": "B20636189",
      "address": "POLÍGONO TXIRRITA MALEO. PABELLONES 5K-L-M",
      "location": {
        "postalCode": "20100",
        "municipality": "Errenteria",
        "county": "Gipuzkoa",
        "municipalityId": "067",
        "countyId": "20"
      },
      "economicActivities": [
        {
          "id": "1.314.1",
          "name": "Carpintería metálica",
          "_links": {
            "self": {
              "name": "Carpintería metálica",
              "href": "https://api.euskadi.eus/procurements/companies/economic-activities/1.314.1"
            }
          }
        },
        {
          "id": "1.501.1",
          "name": "Construcción completa, reparación y conservación de edificaciones",
          "_links": {
            "self": {
              "name": "Construcción completa, reparación y conservación de edificaciones",
              "href": "https://api.euskadi.eus/procurements/companies/economic-activities/1.501.1"
            }
          }
        }
      ],
      "certificateStartDate": "2015-02-11",
      "certificateEndDate": "2015-08-02",
      "object": "LA EXPLOTACIÓN DE UN NEGOCIO DE CONSTRUCCIÓN DE OBRA CIVIL Y EDIFICACIONES, DE FABRICACIÓN Y COMERCIALIZACIÓN DE CONSTRUCCIONES METÁLICAS, PRODUCTOS DE CALDERERÍA, HERRERÍA, CHAPISTERÍA  Y FUNDICIÓN Y, EN GENERAL, TODO LO QUE DIRECTA O INDIRECTAMENTE SE RELACIONES CON ESTAS ACTIVIDADES",
      "mainEntityOfPage": "https://www.contratacion.euskadi.eus/webkpe00-kperoc/es/ac71aBusquedaRegistrosWar/empresa/03051",
      "_links": {
        "self": {
          "name": "METALÚRGICAS MENDIA Y MURUA, S.L.",
          "href": "https://api.euskadi.eus/procurements/companies/03051"
        }
      }
    },
    {
      "name": "SUTONER IMPRESIÓN, S.L.",
      "registrationNumber": "04811",
      "identificationNumber": "B95630489",
      "address": "AVDA. CERVANTES, 51 - PAB. 8 - MOD. A - BAJO",
      "location": {
        "postalCode": "48970",
        "municipality": "Basauri",
        "county": "Bizkaia",
        "municipalityId": "015",
        "countyId": "48"
      },
      "economicActivities": [
        {
          "id": "1.659.2",
          "name": "Venta al por menor de muebles de oficina y máquinas y equipos de oficina",
          "_links": {
            "self": {
              "name": "Venta al por menor de muebles de oficina y máquinas y equipos de oficina",
              "href": "https://api.euskadi.eus/procurements/companies/economic-activities/1.659.2"
            }
          }
        },
        {
          "id": "1.659.4",
          "name": "Venta al por menor de libros, periódicos y artículos de papelería y escritorio",
          "_links": {
            "self": {
              "name": "Venta al por menor de libros, periódicos y artículos de papelería y escritorio",
              "href": "https://api.euskadi.eus/procurements/companies/economic-activities/1.659.4"
            }
          }
        }
      ],
      "certificateStartDate": "2015-02-11",
      "certificateEndDate": "2015-08-09",
      "object": "A) LA COMPRA Y VENTA, TANTO PARA MINORISTAS OCMO A MAYORISTAS DE TODO TIPO DE PESCADOS, MARISCOS Y DERIVADOS, TANTO NACIONALES COMO INTERNACIONALES. IGUALMENTE SE INCLUYE EN EL OBJETO SOCIAL LA VENTA Y DISTRIBUCIÓN DE TODOS LOS PRODUCTOS DE PESCADERÍA, TANTO FRESCOS COMO CONGELADOS, A BARES, RESTAURANTES, COMEDORES COMUNITARIOS, COLEGIOS, FÁBRICAS Y HOSPITALES. B) LA COMPRA, VENTA, IMPORTACIÓN, EXPORTACIÓN, FABRICACIÓN, DISTRIBUCIÓN, ALMACENAMIENTO Y COMERCIALIZACIÓN, DE TODA CLASE DE PRODUCTOS ALIMENTICIOS, CARNES ANIMALES Y SUBPRODUCTOS DRIVADOS, PESCADOS, CONGELADOS AGRÍCOLAS, GANADEROS, MARINOS, PRODUCTOS CONGELADOS Y ELEMENTOS INDUSTRIALES, LA CONGELACIÓN DE DICHOS PRODUCTOS Y LA REFRIGERACIÓN DE ALIMENTOS. C) EL COMERCIO AL POR MENOR DE CARNES FRESCAS Y CONGELADAS, DSPOJOS Y PRODUCTOS DERIVADOS CÁRNICOS; ASÍ COMO DE HUEVOS, AVES, CONEJOS DE GRANJA, CAZA Y DE PRODUCTOS DERIVADOS DE LOS MISMOS. D) EL COMERCIO AL POR MENOR DE BACALAO Y OTROS PESCADOS. E) EL COMERCIO AL POR MENOR DE TODO TIPO DE PAN Y PANES ESPECIALES; DE PRODUCTOS DE PASTELERÍA, CONFITERÍA, BOLLERÍA Y REPOSTERÍA; DE OBLEAS Y BARQUILLOS, CARAMELOS, DULCES, TURRONES, HOJALDRES, PASTAS, CONSERVAS EN DULCE, GALLETAS, CACAO Y CHOCOLATE Y SUS DERIVADOS Y SUCEDÁNEOS DE LECHE, PRODUCTOS LÁCTEOS Y MIEL; HELADOS Y MIEL; FIAMBRES, CONSERVAS DE TODAS CLASES; SALSAS DE CARNES O PESCADOS, FRUTAS EN ALMÍBAR, EN MERMELADAS O EN PASTAS; INFUSIONES, CAFÉ Y SOLUBLES; BEBIDAS EMBOTELLADAS Y CON MARCA; QUESOS, EMBUTIDOS Y EMPAREDADOS. F) CONSERVAS Y PRODUCTOS ALIMENTICIOS DE TODAS CLASES, DE LOS LLAMADOS COLONIALES O ULTRAMARINOS, COMO EMBUTIDOS, FIAMBRES, JAMONES, SALCHICHONES, CHORIZOS, TOCINO FRESCO, CURADO O SALADO, CARNES Y PESCADOS, FRESCOS O CONGELADOS DE TODA CLASE, LOS LLAMADOS DESPOJOS DE RESES, COMO SESOS, LENGUAS, MANOS , CALLOS, SEBOS, ASÍ COMO LAS TRIPAS FRESCAS O EN SALAZÓN PARA TODA CLASE DE EMBUTIDOS. HUEVOS, AVES, AVES DE CAZA PREPARADAS, CONDIMENTADAS, ASADAS Y EN CONSERVA. G) TODA CLASE DE ARTÍCULOS Y PRODUCTOS ALIMENTICIOS, FRESCOS O EN CONSERVA, INCLUSO LOS APTOS PARA REGÍMENES DE NIÑOS ENFERMOS, CONVALECIENTES O ANCIANOS, ASÍ COMO PAN, DULCES, MIEL, PASTELES, BOLLOS, HOJALDRE, PASTAS, CONSERVAS, BOMBONES, CHOCOLATES, TURRONES, MAZAPANES, CARAMELOS Y DEMÁS ARTÍCULOS DE CONFITERÍS Y PASTELERÍA, HELADOS, CAFÉS, MALTES O SUCEDÁNEOS. H) TODA CLASE DE BEBIDAS ALCOHÓLICAS O NO, GASEOSAS O REFRESCANTES, AGUAS MINERALES, AGUAS MEDICINALES O NORMALES, CERVEZAS, MALTA Y SUCEDÁNEOS DE CERVEZA, SIDRAS, VINAGRES, JARABES, LICORES, AGUARDIENTES, VERMOUTHS, Y VINOS DE TODAS CLASES. I) PRODUCTOS DE LA TIERRA O RESIDUO DE LAS MISMAS, EN ESTADO NATURAL, CONGELADOS O EN CONSERVAS, GARBANZOS, JUDÍAS, ARROZ, LEGUMBRES, PATATAS, HORTALIZAS, ACEITUNAS PREPARADAS, ALIÑADAS O EN CONSERVA, QUESOS, ACEITES DE TODA CLASE PARA COCINAR, MANTEGUILLAS O MARGARINAS, FIDEOS, MACARRONES, TALLARINES, FRUTAS VERDES O NATURALES O EN CONSERVA. FLORES Y PLANTAS DE TODAS CLASES. J) EL COMERCIO AL POR MAYOR Y MENOR DE HIERBAS Y PLANTAS MEDICINALES, PREPARADOS DIETÉTICOS, DE REGÍMENES, ALIMENTOS BIOLÓGICOS, MACROBIÓTICOS Y NATURALES; PREPARADOS DE PLANTAS MEDICINALES, COSMÉTICOS NATURALES, LIBROS INFORMATIVOS Y PROGRAMAS INFORMÁTICOS SOBRE LOS PRODUCTOS ANTERIORES Y SUS APLICACIONES; LA REPRESENTACIÓN Y COMERCIALIZACIÓN DE LOS MENCIONADOS PRODUCTOS ASÍ COMO LA ADQUISICIÓN DE FRANQUICIAS DE HERBORISTERÍS EN GENERAL. K) LA ADQUISICIÓN POR CUALQUIER TÍTULO DE FINCAS RÚSTICAS O URBANAS, LA CONSTRUCCIÓN DE ESTAS, SU REHABILITACIÓN, URBANIZACIÓN Y PARCELACIÓN Y LA ADMINISTRACIÓN, TENENCIA, EXPLOTACIÓN, GESTIÓN Y ARRENDAMIENTO DE TALES BIENES Y SU VENTA TOTAL O PARCIAL, SEGÚN CONVENGA PARA SU APROVEHCAMIENTO AGRÍCOLA, FORESTAL, URBANO, INDUSTRIAL O CUALQUIER OTRO. LA PROMOCIÓN Y EJECUCIÓN, COMPLETA O POR TRAMOS DE TODA CLASE DE OBRAS DE CONSTRUCCIÓN, PARA SÍ O PARA TERCEROS, SEAN ORGANISMO PÚBLICOS DEL OBJETO SOCIAL SIN HABER OBTENIDO, PREVIAMENTE LA CORRESPONDIENTE LICENCIA O AUTORIZACIÓN ADMINISTRATIVA. L) INTERMEDIACIÓN COMERCIAL Y PRESTACIÓN DE SERVICIOS COMERCIALES. M) DISTRIBUCIÓN YCOMPRAVENTA, A NIVEL MAYORISTA Y MINORISTA, DE CONSUMIBLES Y NO CONSUMIBLES DE PRODUCTOS INFORMÁTICOS, OFIMÁTICA, PRODUCTOS DE MATERIAL DE OFICINA, A NIVEL NACIONAL E INTERNACIONAL",
      "mainEntityOfPage": "https://www.contratacion.euskadi.eus/webkpe00-kperoc/es/ac71aBusquedaRegistrosWar/empresa/04811",
      "_links": {
        "self": {
          "name": "SUTONER IMPRESIÓN, S.L.",
          "href": "https://api.euskadi.eus/procurements/companies/04811"
        }
      }
    },
    {
      "name": "EXACTECH IBERICA, S.A.",
      "registrationNumber": "04436",
      "identificationNumber": "A33975814",
      "address": "EZCURDIA 194, 4º (Edif. ARGENTA)",
      "location": {
        "postalCode": "33203",
        "municipality": "Gijón",
        "county": "Asturias",
        "municipalityId": "024",
        "countyId": "33"
      },
      "economicActivities": [
        {
          "id": "1.619.2",
          "name": "Venta al por mayor de aparatos e instrumentos médicos, ortopédicos, ópticos",
          "_links": {
            "self": {
              "name": "Venta al por mayor de aparatos e instrumentos médicos, ortopédicos, ópticos",
              "href": "https://api.euskadi.eus/procurements/companies/economic-activities/1.619.2"
            }
          }
        }
      ],
      "certificateStartDate": "2015-02-09",
      "certificateEndDate": "2011-05-23",
      "object": "A.- EL DISEÑO, LA FABRICACIÓN, EL TRATAMIENTO, LA EXPLOTACIÓN, LA DISTRIBUCIÓN Y LA COMERCIALIZACIÓN DE TODO TIPO DE PRODUCTOS PARA EL SECTOR SANITARIO Y DE LOS EQUIPOS, PIEZAS, COMPONENTES, ÚTILES, ACCESORIOS, MATERIALES AUXILIARES Y COMPLEMENTOS DE LOS MISMOS, ASÍ COMO LA PRESTACIÓN DE TODA SUERTE DE SERVICIOS RELACIONADOS CON LA SALUD Y LA EJECUCIÓN DE OBRAS DE TODA ÍNDOLE PARA ESE MERCADO.\r\nB.- LA ORGANIZACIÓN DE PRESENTACIONES, CERTÁMENES, FERIAS, CONFERENCIAS, SEMINARIOS, CONGRESOS Y CURSOS DE TODA ÍNDOLE, ASÍ COMO EL ASESORAMIENTO Y LA COLABORACIÓN EN LOS MISMOS.\r\nC.- LA PRESTACIÓN DE SERVICIOS DE TODA ESPECIE Y LA EJECUCIÓN DE OBRAS DE TODA NATURALEZA  EN MATERIA DE TECNOLOGÍAS DE LA INFORMACIÓN Y PROCESOS EMPRESARIALES.\r\nD.- LA ADQUISICIÓN, EL TRATAMIENTO, LA EXPLOTACIÓN, LA DISTRIBUCIÓN Y LA COMERCIALIZACIÓN DE TODA CLASE DE SOFTWARE Y EQUIPAMIENTO INFORMÁTICO, ASÍ COMO DE SUS SOPORTES, PIEZAS, COMPONENTES, ÚTILES, ACCESORIOS, MATERIALES AUXILIARES Y COMPLEMENTOS.",
      "mainEntityOfPage": "https://www.contratacion.euskadi.eus/webkpe00-kperoc/es/ac71aBusquedaRegistrosWar/empresa/04436",
      "_links": {
        "self": {
          "name": "EXACTECH IBERICA, S.A.",
          "href": "https://api.euskadi.eus/procurements/companies/04436"
        }
      }
    },
    {
      "name": "NORTHO SYSTEMS, S.L.",
      "registrationNumber": "01060",
      "identificationNumber": "B48306062",
      "address": "C/ AVENIDA MADARIAGA, Nº 71 - LONJA.",
      "location": {
        "postalCode": "48014",
        "municipality": "Bilbao",
        "county": "Bizkaia",
        "municipalityId": "020",
        "countyId": "48"
      },
      "economicActivities": [
        {
          "id": "1.619.2",
          "name": "Venta al por mayor de aparatos e instrumentos médicos, ortopédicos, ópticos",
          "_links": {
            "self": {
              "name": "Venta al por mayor de aparatos e instrumentos médicos, ortopédicos, ópticos",
              "href": "https://api.euskadi.eus/procurements/companies/economic-activities/1.619.2"
            }
          }
        }
      ],
      "certificateStartDate": "2015-02-05",
      "certificateEndDate": "2015-07-21",
      "object": "LA REPRESENTACIÓN, DISTRIBUCIÓN Y VENTA DE SUMINISTROS CLÍNICOS SANITARIOS, ASÍ COMO PRODUCTOS Y MATERIALES QUÍMICOS PARA LA INDUSTRIA",
      "mainEntityOfPage": "https://www.contratacion.euskadi.eus/webkpe00-kperoc/es/ac71aBusquedaRegistrosWar/empresa/01060",
      "_links": {
        "self": {
          "name": "NORTHO SYSTEMS, S.L.",
          "href": "https://api.euskadi.eus/procurements/companies/01060"
        }
      }
    },
    {
      "name": "ITURRIETA HONDEAKETAK, S.L.",
      "registrationNumber": "05299",
      "identificationNumber": "B95641106",
      "address": "ANDRA MARI, 5 - 4º DCHA",
      "location": {
        "postalCode": "48220",
        "municipality": "Abadiño",
        "county": "Bizkaia",
        "municipalityId": "001",
        "countyId": "48"
      },
      "economicActivities": [
        {
          "id": "1.502.2",
          "name": "Consolidación y preparación de terrenos para la construcción de edificaciones",
          "_links": {
            "self": {
              "name": "Consolidación y preparación de terrenos para la construcción de edificaciones",
              "href": "https://api.euskadi.eus/procurements/companies/economic-activities/1.502.2"
            }
          }
        }
      ],
      "certificateStartDate": "2015-02-05",
      "certificateEndDate": "2015-06-22",
      "object": "TRABAJOS DE EXCAVACIÓN Y MOVIMIENTO DE TIERRAS, ASÍ COMO CUALQUIER OTRO TIPO DE OBRAS Y TRANSPORTE RELACIONADOS CON LA CONSTRUCCIÓN ",
      "mainEntityOfPage": "https://www.contratacion.euskadi.eus/webkpe00-kperoc/es/ac71aBusquedaRegistrosWar/empresa/05299",
      "_links": {
        "self": {
          "name": "ITURRIETA HONDEAKETAK, S.L.",
          "href": "https://api.euskadi.eus/procurements/companies/05299"
        }
      }
    },
    {
      "name": "CENTRO INFORMÁTICO PROFESIONAL - CEINPRO, S.L.",
      "registrationNumber": "01989",
      "identificationNumber": "B20097259",
      "address": "C/ PASEO DE HERIZ, Nº 95.",
      "location": {
        "postalCode": "20008",
        "municipality": "Donostia / San Sebastián",
        "county": "Gipuzkoa",
        "municipalityId": "069",
        "countyId": "20"
      },
      "economicActivities": [
        {
          "id": "1.931.3",
          "name": "Enseñanza de bachillerato, formación profesional exclusivamente",
          "_links": {
            "self": {
              "name": "Enseñanza de bachillerato, formación profesional exclusivamente",
              "href": "https://api.euskadi.eus/procurements/companies/economic-activities/1.931.3"
            }
          }
        }
      ],
      "certificateStartDate": "2015-02-03",
      "certificateEndDate": "2015-07-22",
      "object": "LA CREACIÓN DE UN CENTRO PRIVADO DEDICADO A LA ENSEÑANZA DE INFORMÁTICA EN SU NIVEL DE FORMACIÓN PROFESIONAL DE SEGUNDO GRADO. IGUALMENTE PODRÁ DEDICARSE A LA EDICIÓN DE LIBROS, REVISTAS Y MATERIAL DIDÁCTICO EN GENERAL, ASÍ COMO SU VENTA, JUNTO CON ARTÍCULOS DE ESCRITORIO A LOS ALUMNOS DE LOS CENTROS DE EDUCACIÓN QUE ESTABLEZCA. ASIMISMO PODRÁ LLEVAR A CABO ACTIVIDADES CULTURALES, ARTÍSTICAS Y DEPORTIVAS, SIEMPRE RELACIONADAS CON LA ACTIVIDAD CULTURAL QUE ES SU PRINCIPAL OBJETO. POR OTRO LADO Y CON REFERENCIA A LA INFORMÁTICA, SERÁ OBJETO DE LA SOCIEDAD LA PRESTACIÓN DE SERVICIOS DE PROGRAMACIÓN Y ANÁLISIS, ASÍ COMO LA EJECUCIÓN, PROCESO Y PREPARACIÓN DE TRABAJOS EN DICHO MEDIO",
      "mainEntityOfPage": "https://www.contratacion.euskadi.eus/webkpe00-kperoc/es/ac71aBusquedaRegistrosWar/empresa/01989",
      "_links": {
        "self": {
          "name": "CENTRO INFORMÁTICO PROFESIONAL - CEINPRO, S.L.",
          "href": "https://api.euskadi.eus/procurements/companies/01989"
        }
      }
    },
    {
      "name": "CONSTRUCCIONES VILLANUEVA E HIJOS 2006, S.L.",
      "registrationNumber": "04291",
      "identificationNumber": "B95439519",
      "address": "Bº EL NOCEDAL, 11, CASA",
      "location": {
        "postalCode": "48800",
        "municipality": "Zalla",
        "county": "Bizkaia",
        "municipalityId": "096",
        "countyId": "48"
      },
      "economicActivities": [
        {
          "id": "1.501.1",
          "name": "Construcción completa, reparación y conservación de edificaciones",
          "_links": {
            "self": {
              "name": "Construcción completa, reparación y conservación de edificaciones",
              "href": "https://api.euskadi.eus/procurements/companies/economic-activities/1.501.1"
            }
          }
        },
        {
          "id": "1.501.2",
          "name": "Construcción completa, reparación y conservación obras civiles",
          "_links": {
            "self": {
              "name": "Construcción completa, reparación y conservación obras civiles",
              "href": "https://api.euskadi.eus/procurements/companies/economic-activities/1.501.2"
            }
          }
        },
        {
          "id": "1.502.3",
          "name": "Consolidación y preparación de terrenos para la realización de obras civiles",
          "_links": {
            "self": {
              "name": "Consolidación y preparación de terrenos para la realización de obras civiles",
              "href": "https://api.euskadi.eus/procurements/companies/economic-activities/1.502.3"
            }
          }
        }
      ],
      "certificateStartDate": "2015-01-29",
      "certificateEndDate": "2015-07-12",
      "object": "LA CONSTRUCCIÓN DE VIVIENDAS DE PROTECIÓN OFICIAL O DE CUALQUIER OTRO TIPO DE CLASE, SIN LIMITACIÓN, COMO ASIMISMO, LOCALES DE NEGOCIOS Y EDIFICACIONES, OTRAS Y CONSTRUCCIONES DE TODO TIPO, CONTRATAS DE OBRAS PÚBLICAS O PARTICULARES, CONTRATAS DE OBRAS PÚBLICAS O PARTICULARES, CONTRATOS DE EJECUCIÓN DE OBRAS Y SERVICIOS, OBTENCIÓN Y EXPLOTACIÓN DE CONCESIONES DE SERVICIOS PÚBLICOS Y DE CUALQUIER OTRA CLASE DE ADQUISICIÓN; USO, ARRENDAMIENTO, VENTA Y ENAJENACIÓN DE CUALQUIER TIPO DE EDIFICACIONES, PISOS, LOCALES Y CONSTRUCCIONES DE TODO GÉNERO, LA DQUISICIÓN, USO, ARRENDAMIENTO Y NAJENACIÓN DE IFNCAS, TERRENOS Y SOLARES, SU PARCELACIÓN Y URBANIZACIÓN, LA PROMOCIÓN Y CONSTITUCIÓN DE COMUNIDADES DE PROPIETARIOS O DE CUALQUIER OTRA FORMA DE ASOCIACIÓN O SOCIEDAD CON FINES DE EDIFICACIÓN Y URBANIZACIÓN",
      "mainEntityOfPage": "https://www.contratacion.euskadi.eus/webkpe00-kperoc/es/ac71aBusquedaRegistrosWar/empresa/04291",
      "_links": {
        "self": {
          "name": "CONSTRUCCIONES VILLANUEVA E HIJOS 2006, S.L.",
          "href": "https://api.euskadi.eus/procurements/companies/04291"
        }
      }
    },
    {
      "name": "ELECTROTÉCNICA DEL URUMEA, S.A.",
      "registrationNumber": "01657",
      "identificationNumber": "A20073508",
      "address": "POLÍGONO BORDA - BERRI. PABELLÓN: 11.",
      "location": {
        "postalCode": "20140",
        "county": "Gipuzkoa",
        "municipalityId": "0-1",
        "countyId": "20"
      },
      "economicActivities": [
        {
          "id": "1.504.1",
          "name": "Instalaciones eléctricas en general",
          "_links": {
            "self": {
              "name": "Instalaciones eléctricas en general",
              "href": "https://api.euskadi.eus/procurements/companies/economic-activities/1.504.1"
            }
          }
        }
      ],
      "certificateStartDate": "2015-01-28",
      "certificateEndDate": "2015-01-21",
      "object": "LA PRESTACION DE SERVICIOS DE ATENCION Y CONSERVACION DE MAQUINARIA, INSTALACIONES Y APARATOS, ESPECIALMENTE ELECTRICOS, ASI COMO LA INSTALACION Y MONTAJE DE LOS MISMOS Y CUANTAS OTRAS ACTIVIDADES SEAN COMPLEMENTARIAS, CONVENIENTES O DESARROLLEN LAS ANTERIORES",
      "mainEntityOfPage": "https://www.contratacion.euskadi.eus/webkpe00-kperoc/es/ac71aBusquedaRegistrosWar/empresa/01657",
      "_links": {
        "self": {
          "name": "ELECTROTÉCNICA DEL URUMEA, S.A.",
          "href": "https://api.euskadi.eus/procurements/companies/01657"
        }
      }
    }
  ]
}