{
  "totalItems": 9042,
  "totalPages": 905,
  "currentPage": 855,
  "itemsOfPage": 10,
  "items": [
    {
      "name": "GIABEKO, S.L.",
      "registrationNumber": "03620",
      "identificationNumber": "B20495115",
      "address": "C/ JOSÉ DE ARTETXE, 21",
      "location": {
        "postalCode": "20730",
        "county": "Gipuzkoa",
        "countyId": "20"
      },
      "object": "pte",
      "mainEntityOfPage": "https://www.contratacion.euskadi.eus/webkpe00-kperoc/es/ac71aBusquedaRegistrosWar/empresa/03620",
      "_links": {
        "self": {
          "name": "GIABEKO, S.L.",
          "href": "https://api.euskadi.eus/procurements/companies/03620"
        }
      }
    },
    {
      "name": "DOCU.MENT XXI, S.L.",
      "registrationNumber": "03621",
      "identificationNumber": "B20874616",
      "address": "PARQUE EMPRESARIAL ZUATZU, EDIF. ULIA PLANTA 1-LOCAL 3",
      "location": {
        "postalCode": "20018",
        "municipality": "Donostia / San Sebastián",
        "county": "Gipuzkoa",
        "municipalityId": "069",
        "countyId": "20"
      },
      "object": ".",
      "mainEntityOfPage": "https://www.contratacion.euskadi.eus/webkpe00-kperoc/es/ac71aBusquedaRegistrosWar/empresa/03621",
      "_links": {
        "self": {
          "name": "DOCU.MENT XXI, S.L.",
          "href": "https://api.euskadi.eus/procurements/companies/03621"
        }
      }
    },
    {
      "name": "BILEKOMEN, S.L.",
      "registrationNumber": "03658",
      "identificationNumber": "B48988596",
      "address": "BAILEN, 11-BAJO",
      "location": {
        "postalCode": "48003",
        "municipality": "Bilbao",
        "county": "Bizkaia",
        "municipalityId": "020",
        "countyId": "48"
      },
      "object": "pte",
      "mainEntityOfPage": "https://www.contratacion.euskadi.eus/webkpe00-kperoc/es/ac71aBusquedaRegistrosWar/empresa/03658",
      "_links": {
        "self": {
          "name": "BILEKOMEN, S.L.",
          "href": "https://api.euskadi.eus/procurements/companies/03658"
        }
      }
    },
    {
      "name": "URMAN PROYECTOS Y OBRAS, S.A.",
      "registrationNumber": "03661",
      "identificationNumber": "A015486866",
      "address": "POL. INDUSTRIAL UGARTE PAB. B-4",
      "location": {
        "postalCode": "48480",
        "municipality": "Zaratamo",
        "county": "Bizkaia",
        "municipalityId": "097",
        "countyId": "48"
      },
      "object": "pte",
      "mainEntityOfPage": "https://www.contratacion.euskadi.eus/webkpe00-kperoc/es/ac71aBusquedaRegistrosWar/empresa/03661",
      "_links": {
        "self": {
          "name": "URMAN PROYECTOS Y OBRAS, S.A.",
          "href": "https://api.euskadi.eus/procurements/companies/03661"
        }
      }
    },
    {
      "name": "ZUT SKATE PARKS, S.L.",
      "registrationNumber": "03662",
      "identificationNumber": "B95504072",
      "address": "C/PALATUETA BIDEA 5E",
      "location": {
        "postalCode": "48600",
        "municipality": "Sopela",
        "county": "Bizkaia",
        "municipalityId": "085",
        "countyId": "48"
      },
      "object": "pte",
      "mainEntityOfPage": "https://www.contratacion.euskadi.eus/webkpe00-kperoc/es/ac71aBusquedaRegistrosWar/empresa/03662",
      "_links": {
        "self": {
          "name": "ZUT SKATE PARKS, S.L.",
          "href": "https://api.euskadi.eus/procurements/companies/03662"
        }
      }
    },
    {
      "name": "AUTOCARES DISCRECIONALES DEL NORTE, S.L.",
      "registrationNumber": "03663",
      "identificationNumber": "B09007113",
      "address": "ALDA. DE URQUIJO, 30 - 1 DPTO. 5",
      "location": {
        "postalCode": "48010",
        "municipality": "Bilbao",
        "county": "Bizkaia",
        "municipalityId": "020",
        "countyId": "48"
      },
      "mainEntityOfPage": "https://www.contratacion.euskadi.eus/webkpe00-kperoc/es/ac71aBusquedaRegistrosWar/empresa/03663",
      "_links": {
        "self": {
          "name": "AUTOCARES DISCRECIONALES DEL NORTE, S.L.",
          "href": "https://api.euskadi.eus/procurements/companies/03663"
        }
      }
    },
    {
      "name": "UBIQA, TECNOLOGÍA, IDEAS Y COMUNICACIÓN, S.L.",
      "registrationNumber": "03691",
      "identificationNumber": "B95284865",
      "address": "ALAMEDA MAZARREDO, 35-5º A",
      "location": {
        "postalCode": "48009",
        "municipality": "Bilbao",
        "county": "Bizkaia",
        "municipalityId": "020",
        "countyId": "48"
      },
      "object": "pte",
      "mainEntityOfPage": "https://www.contratacion.euskadi.eus/webkpe00-kperoc/es/ac71aBusquedaRegistrosWar/empresa/03691",
      "_links": {
        "self": {
          "name": "UBIQA, TECNOLOGÍA, IDEAS Y COMUNICACIÓN, S.L.",
          "href": "https://api.euskadi.eus/procurements/companies/03691"
        }
      }
    },
    {
      "name": "ARBOLAN JARDINERÍA, SL",
      "registrationNumber": "03692",
      "identificationNumber": "B01353879",
      "address": "LARRAZABAL, 25",
      "location": {
        "postalCode": "01400",
        "municipality": "Laudio/Llodio",
        "county": "Araba/Álava",
        "municipalityId": "036",
        "countyId": "01"
      },
      "classification": [
        {
          "id": "S",
          "name": "Servicios",
          "groups": [
            {
              "id": "O",
              "subgroups": [
                {
                  "id": "06",
                  "name": "Conservación y mantenimiento de montes y jardines",
                  "categories": [
                    {
                      "id": "4",
                      "name": "Desde 600.001 Hasta 1.1200.000",
                      "_links": {
                        "self": {
                          "name": "Desde 600.001 Hasta 1.1200.000",
                          "href": "https://api.euskadi.eus/procurements/companies/types/S/categories/4"
                        }
                      }
                    }
                  ],
                  "_links": {
                    "self": {
                      "name": "Conservación y mantenimiento de montes y jardines",
                      "href": "https://api.euskadi.eus/procurements/companies/types/S/groups/O/subgroups/06"
                    }
                  }
                }
              ],
              "_links": {
                "self": {
                  "href": "https://api.euskadi.eus/procurements/companies/types/S/groups/O"
                }
              }
            }
          ],
          "_links": {
            "self": {
              "name": "Servicios",
              "href": "https://api.euskadi.eus/procurements/companies/types/S"
            }
          }
        }
      ],
      "object": ".",
      "mainEntityOfPage": "https://www.contratacion.euskadi.eus/webkpe00-kperoc/es/ac71aBusquedaRegistrosWar/empresa/03692",
      "_links": {
        "self": {
          "name": "ARBOLAN JARDINERÍA, SL",
          "href": "https://api.euskadi.eus/procurements/companies/03692"
        }
      }
    },
    {
      "name": "RED EDUCATIVA ZERBITZUAK, S.L.",
      "registrationNumber": "03693",
      "identificationNumber": "B95531240",
      "address": "C/ SAN JOSÉ, 17 - 1 D",
      "location": {
        "postalCode": "48510",
        "municipality": "Valle de Trápaga-Trapagaran",
        "county": "Bizkaia",
        "municipalityId": "080",
        "countyId": "48"
      },
      "object": "pte",
      "mainEntityOfPage": "https://www.contratacion.euskadi.eus/webkpe00-kperoc/es/ac71aBusquedaRegistrosWar/empresa/03693",
      "_links": {
        "self": {
          "name": "RED EDUCATIVA ZERBITZUAK, S.L.",
          "href": "https://api.euskadi.eus/procurements/companies/03693"
        }
      }
    },
    {
      "name": "KSB SERVICE SUCIBA, S.L.U.",
      "registrationNumber": "03696",
      "identificationNumber": "B95118105",
      "address": "C/ GORONDA BEKOA, 2",
      "location": {
        "postalCode": "48150",
        "municipality": "Sondika",
        "county": "Bizkaia",
        "municipalityId": "904",
        "countyId": "48"
      },
      "object": "pte",
      "mainEntityOfPage": "https://www.contratacion.euskadi.eus/webkpe00-kperoc/es/ac71aBusquedaRegistrosWar/empresa/03696",
      "_links": {
        "self": {
          "name": "KSB SERVICE SUCIBA, S.L.U.",
          "href": "https://api.euskadi.eus/procurements/companies/03696"
        }
      }
    }
  ]
}