{
  "totalItems": 9042,
  "totalPages": 905,
  "currentPage": 483,
  "itemsOfPage": 10,
  "items": [
    {
      "name": "MATRIX INFORMATICA S.L.",
      "registrationNumber": "06207",
      "identificationNumber": "B31689987",
      "address": "Concejo de Ardanaz, 2 bajo",
      "location": {
        "postalCode": "31016",
        "municipality": "Pamplona/Iruña",
        "county": "Navarra",
        "municipalityId": "201",
        "countyId": "31"
      },
      "economicActivities": [
        {
          "id": "1.659.2",
          "name": "Venta al por menor de muebles de oficina y máquinas y equipos de oficina",
          "_links": {
            "self": {
              "name": "Venta al por menor de muebles de oficina y máquinas y equipos de oficina",
              "href": "https://api.euskadi.eus/procurements/companies/economic-activities/1.659.2"
            }
          }
        }
      ],
      "certificateStartDate": "2022-10-04",
      "certificateEndDate": "2023-04-04",
      "object": "EL COMERCIO AL POR MENOR DE MATERIAL Y APARATOS ELÉCTRICOS, ELECTRÓNICOS, DE TELEFONÍA, INFORMÁTICOS, ELECTRODOMÉSTICOS Y OTROS APARATOS DE USO DOMÉSTICO. LA REALIZACIÓN DE TODA CLASE DE TRABAJOS DE COMPONENTES Y PROGRAMAS INFORMÁTICOS",
      "mainEntityOfPage": "https://www.contratacion.euskadi.eus/webkpe00-kperoc/es/ac71aBusquedaRegistrosWar/empresa/06207",
      "_links": {
        "self": {
          "name": "MATRIX INFORMATICA S.L.",
          "href": "https://api.euskadi.eus/procurements/companies/06207"
        }
      }
    },
    {
      "name": "R. S. CERCADOS, S.L.",
      "registrationNumber": "08617",
      "identificationNumber": "B01454701",
      "address": "José María Iparraguirre nº 9",
      "location": {
        "postalCode": "01006",
        "municipality": "Vitoria-Gasteiz",
        "county": "Araba/Álava",
        "municipalityId": "059",
        "countyId": "01"
      },
      "economicActivities": [
        {
          "id": "1.504.8",
          "name": "Montajes metálicos e instalaciones industriales completas",
          "_links": {
            "self": {
              "name": "Montajes metálicos e instalaciones industriales completas",
              "href": "https://api.euskadi.eus/procurements/companies/economic-activities/1.504.8"
            }
          }
        }
      ],
      "certificateStartDate": "2022-10-03",
      "certificateEndDate": "2023-04-03",
      "object": "- LA FABRICACIÓN, VENTA E INSTALACIÓN DE PUERTAS, ENREJADOS, ELEMENTOS Y SISTEMAS DE SEGURIDAD. - LA DISTRIBUCIÓN, VENTA E INSTALACIÓN DE ELEMENTOS METÁLICOS, RELACIONADOS CON LOS PRODUCTOS ANTERIORMENTE RESEÑADOS.",
      "mainEntityOfPage": "https://www.contratacion.euskadi.eus/webkpe00-kperoc/es/ac71aBusquedaRegistrosWar/empresa/08617",
      "_links": {
        "self": {
          "name": "R. S. CERCADOS, S.L.",
          "href": "https://api.euskadi.eus/procurements/companies/08617"
        }
      }
    },
    {
      "name": "PEDRO MARIA DE LA FUENTE CAMPO",
      "registrationNumber": "08296",
      "identificationNumber": "30633828J",
      "address": "CALLE PASEO DE ESTRASBURGO 2A OFICINA 4",
      "location": {
        "postalCode": "01002",
        "municipality": "Vitoria-Gasteiz",
        "county": "Araba/Álava",
        "municipalityId": "059",
        "countyId": "01"
      },
      "economicActivities": [
        {
          "id": "2.421",
          "name": "Arquitectos técnicos y aparejadores",
          "_links": {
            "self": {
              "name": "Arquitectos técnicos y aparejadores",
              "href": "https://api.euskadi.eus/procurements/companies/economic-activities/2.421"
            }
          }
        }
      ],
      "certificateStartDate": "2022-09-30",
      "certificateEndDate": "2023-03-28",
      "object": "ARQUITECTOS TÉCNICOS Y APAREJADORES.",
      "mainEntityOfPage": "https://www.contratacion.euskadi.eus/webkpe00-kperoc/es/ac71aBusquedaRegistrosWar/empresa/08296",
      "_links": {
        "self": {
          "name": "PEDRO MARIA DE LA FUENTE CAMPO",
          "href": "https://api.euskadi.eus/procurements/companies/08296"
        }
      }
    },
    {
      "name": "DATA BASE STORAGE SOCIEDAD LIMITADA",
      "registrationNumber": "03318",
      "identificationNumber": "B95229159",
      "address": "RIBERA DE AXPE, 11. EDIFICIO A, L.118",
      "location": {
        "postalCode": "48950",
        "municipality": "Erandio",
        "county": "Bizkaia",
        "municipalityId": "902",
        "countyId": "48"
      },
      "economicActivities": [
        {
          "id": "1.617.8",
          "name": "Venta al por mayor de máquinas y material de oficina",
          "_links": {
            "self": {
              "name": "Venta al por mayor de máquinas y material de oficina",
              "href": "https://api.euskadi.eus/procurements/companies/economic-activities/1.617.8"
            }
          }
        },
        {
          "id": "1.659.2",
          "name": "Venta al por menor de muebles de oficina y máquinas y equipos de oficina",
          "_links": {
            "self": {
              "name": "Venta al por menor de muebles de oficina y máquinas y equipos de oficina",
              "href": "https://api.euskadi.eus/procurements/companies/economic-activities/1.659.2"
            }
          }
        },
        {
          "id": "1.699",
          "name": "Otras reparaciones n.c.o.p",
          "_links": {
            "self": {
              "name": "Otras reparaciones n.c.o.p",
              "href": "https://api.euskadi.eus/procurements/companies/economic-activities/1.699"
            }
          }
        },
        {
          "id": "1.845",
          "name": "Explotación electrónica por cuenta de terceros",
          "_links": {
            "self": {
              "name": "Explotación electrónica por cuenta de terceros",
              "href": "https://api.euskadi.eus/procurements/companies/economic-activities/1.845"
            }
          }
        }
      ],
      "certificateStartDate": "2022-09-30",
      "certificateEndDate": "2023-03-25",
      "object": "LA COMPRA-VENTA Y COMERCIALIZACIÓN DE TODO TIPO DE PERIFÉRICOS PARA LA INFORMÁTICA",
      "mainEntityOfPage": "https://www.contratacion.euskadi.eus/webkpe00-kperoc/es/ac71aBusquedaRegistrosWar/empresa/03318",
      "_links": {
        "self": {
          "name": "DATA BASE STORAGE SOCIEDAD LIMITADA",
          "href": "https://api.euskadi.eus/procurements/companies/03318"
        }
      }
    },
    {
      "name": "ILAZ KONSTITUZIOKO IKASTETXEA, E.KOOP.",
      "registrationNumber": "05806",
      "identificationNumber": "F20155362",
      "address": "Konstituzio plaza, 5-1. DONOSTIA",
      "location": {
        "postalCode": "20003",
        "municipality": "Donostia / San Sebastián",
        "county": "Gipuzkoa",
        "municipalityId": "069",
        "countyId": "20"
      },
      "economicActivities": [
        {
          "id": "1.933.9",
          "name": "Otras actividades de enseñanza tales como idiomas, mecanografía",
          "_links": {
            "self": {
              "name": "Otras actividades de enseñanza tales como idiomas, mecanografía",
              "href": "https://api.euskadi.eus/procurements/companies/economic-activities/1.933.9"
            }
          }
        }
      ],
      "certificateStartDate": "2022-09-29",
      "certificateEndDate": "2023-03-29",
      "object": "EUSKARA ETA EUSKAL KULTURA HEZKUNTZA ERAKAZTEA",
      "mainEntityOfPage": "https://www.contratacion.euskadi.eus/webkpe00-kperoc/es/ac71aBusquedaRegistrosWar/empresa/05806",
      "_links": {
        "self": {
          "name": "ILAZ KONSTITUZIOKO IKASTETXEA, E.KOOP.",
          "href": "https://api.euskadi.eus/procurements/companies/05806"
        }
      }
    },
    {
      "name": "NUCLIBER, S.A.",
      "registrationNumber": "00425",
      "identificationNumber": "A28145720",
      "address": "C/ HIERRO, Nº 33, 1-3",
      "location": {
        "postalCode": "28045",
        "municipality": "Madrid",
        "county": "Madrid",
        "municipalityId": "079",
        "countyId": "28"
      },
      "economicActivities": [
        {
          "id": "1.619.7",
          "name": "Venta al por mayor de instrumentos de precisión, medida y similares",
          "_links": {
            "self": {
              "name": "Venta al por mayor de instrumentos de precisión, medida y similares",
              "href": "https://api.euskadi.eus/procurements/companies/economic-activities/1.619.7"
            }
          }
        }
      ],
      "certificateStartDate": "2022-09-29",
      "certificateEndDate": "2023-03-23",
      "object": "1. LA INVESTIGACIÓN, DESARROLLO, FABRICACIÓN, VENTA Y EXPLOTACIÓN DE APARATOS Y SISTEMAS EN LOS CAMPOS DE LA ELECTRÓNICA, ELECTROMECÁNICA, INFORMÁTICA, TELECOMUNICACIONES, NUCLEÓNICA, FÍSICA DE LAS RADIACIONES, ENSAYOS DE MATERIALES, CONTROL DE CALIDAD, RADIOQUÍMICA, RADIOFARMACIA Y APLICACIONES DE LOS RADIOISÓTOPOS, ASÍ COMO DE PRODUCTOS MÉDICOS Y FARMACÉUTICOS EN GENERAL (PREVIA LA OBTENCIÓN DE LAS PERTINENTES AUTORIZACIONES LEGALES CUANDO PROCEDIERE). 2. LA COMPRA E IMPORTACIÓN DE LOS APARATOS Y PRODUCTOS MENCIONADOS EN EL PUNTO ANTERIOR, PARA SU VENTA EN RÉGIMEN DE REPRESENTACIÓN, DISTRIBUCIÓN, AGENCIA O CUALQUIERA OTRO USUAL EN EL COMERCIO NACIONAL O INTERNACIONAL. 3. LA ACTIVIDAD DE CONSULTORÍA Y ASESORAMIENTO EN LOS CAMPOS RELACIONADOS CON LAS ACTIVIDADES OBJETO DE LOS PUNTOS ANTERIORES. 4. COMO ACTIVIDADES SECUNDARIAS O VICARIAS DE LAS ANTERIORES: A) LA ACTIVIDAD INMOBILIARIA EN GENERAL, ES DECIR: COMPRA, VENTA, TENENCIA, ALQUILER, EXPLOTACIÓN, EDIFICACIÓN, PROMOCIÓN URBANÍSTICA, ETC. B) LA COMPRA Y VENTA DE MOBILIARIO, OBJETOS DE ARTE Y ORNAMENTACIÓN.",
      "mainEntityOfPage": "https://www.contratacion.euskadi.eus/webkpe00-kperoc/es/ac71aBusquedaRegistrosWar/empresa/00425",
      "_links": {
        "self": {
          "name": "NUCLIBER, S.A.",
          "href": "https://api.euskadi.eus/procurements/companies/00425"
        }
      }
    },
    {
      "name": "SALTOKI BIZKAIA, S.A.",
      "registrationNumber": "08607",
      "identificationNumber": "A95067914",
      "address": "CARRETERA LUTXANA - ASUA 13",
      "location": {
        "postalCode": "48950",
        "municipality": "Erandio",
        "county": "Bizkaia",
        "municipalityId": "902",
        "countyId": "48"
      },
      "economicActivities": [
        {
          "id": "1.615.3",
          "name": "Venta al por mayor de aparatos electrodomésticos y ferretería",
          "_links": {
            "self": {
              "name": "Venta al por mayor de aparatos electrodomésticos y ferretería",
              "href": "https://api.euskadi.eus/procurements/companies/economic-activities/1.615.3"
            }
          }
        },
        {
          "id": "1.617.4",
          "name": "Venta al por mayor de materiales de construcción, vidrio y artículos instalación",
          "_links": {
            "self": {
              "name": "Venta al por mayor de materiales de construcción, vidrio y artículos instalación",
              "href": "https://api.euskadi.eus/procurements/companies/economic-activities/1.617.4"
            }
          }
        }
      ],
      "certificateStartDate": "2022-09-29",
      "certificateEndDate": "2023-03-28",
      "object": "A).- LA IMPORTACIÓN, ALMACENAJE, DISTRIBUCIÓN Y VENTA DE MATERIALES Y COMPLEMENTOS PARA LA CONSTRUCCIÓN, CALEFACCIÓN, FONTANERÍA, SANEAMIENTO, HERRAMIENTAS Y SIMILARES. B).- LA INSTALACIÓN Y MONTAJE DE FRÍO, CALOR Y ACONDICIONAMIENTO DE AIRE.",
      "mainEntityOfPage": "https://www.contratacion.euskadi.eus/webkpe00-kperoc/es/ac71aBusquedaRegistrosWar/empresa/08607",
      "_links": {
        "self": {
          "name": "SALTOKI BIZKAIA, S.A.",
          "href": "https://api.euskadi.eus/procurements/companies/08607"
        }
      }
    },
    {
      "name": "AUTOMOCION ANTON SOCIEDAD LIMITADA",
      "registrationNumber": "08604",
      "identificationNumber": "B03347291",
      "address": "ALCORCON Nº 3",
      "location": {
        "postalCode": "03293",
        "municipality": "Elx/Elche",
        "county": "Alicante/Alacant",
        "municipalityId": "065",
        "countyId": "03"
      },
      "economicActivities": [
        {
          "id": "1.654.1",
          "name": "Venta al por menor de vehículos terrestres",
          "_links": {
            "self": {
              "name": "Venta al por menor de vehículos terrestres",
              "href": "https://api.euskadi.eus/procurements/companies/economic-activities/1.654.1"
            }
          }
        },
        {
          "id": "1.691.2",
          "name": "Reparación de vehículos automóviles, bicicletas y otros vehículos",
          "_links": {
            "self": {
              "name": "Reparación de vehículos automóviles, bicicletas y otros vehículos",
              "href": "https://api.euskadi.eus/procurements/companies/economic-activities/1.691.2"
            }
          }
        },
        {
          "id": "1.831.9",
          "name": "Otros servicios financieros n.c.o.p",
          "_links": {
            "self": {
              "name": "Otros servicios financieros n.c.o.p",
              "href": "https://api.euskadi.eus/procurements/companies/economic-activities/1.831.9"
            }
          }
        }
      ],
      "certificateStartDate": "2022-09-28",
      "certificateEndDate": "2023-02-24",
      "object": "LA REPARACIÓN, ASÍ COMO LA COMPRA Y VENTA DE AUTOMÓVILES DE TODO TIPO.",
      "mainEntityOfPage": "https://www.contratacion.euskadi.eus/webkpe00-kperoc/es/ac71aBusquedaRegistrosWar/empresa/08604",
      "_links": {
        "self": {
          "name": "AUTOMOCION ANTON SOCIEDAD LIMITADA",
          "href": "https://api.euskadi.eus/procurements/companies/08604"
        }
      }
    },
    {
      "name": "MARIO ANTONIO ADÁN CEBALLOS",
      "registrationNumber": "03291",
      "identificationNumber": "18599671P",
      "address": "MONASTERIO DE LEIRE, 4 B-B",
      "location": {
        "postalCode": "01010",
        "municipality": "Vitoria-Gasteiz",
        "county": "Araba/Álava",
        "municipalityId": "059",
        "countyId": "01"
      },
      "economicActivities": [
        {
          "id": "1.505.5",
          "name": "Carpintería y cerrajería",
          "_links": {
            "self": {
              "name": "Carpintería y cerrajería",
              "href": "https://api.euskadi.eus/procurements/companies/economic-activities/1.505.5"
            }
          }
        },
        {
          "id": "1.699",
          "name": "Otras reparaciones n.c.o.p",
          "_links": {
            "self": {
              "name": "Otras reparaciones n.c.o.p",
              "href": "https://api.euskadi.eus/procurements/companies/economic-activities/1.699"
            }
          }
        },
        {
          "id": "1.911",
          "name": "Servicios agrícolas y ganaderos",
          "_links": {
            "self": {
              "name": "Servicios agrícolas y ganaderos",
              "href": "https://api.euskadi.eus/procurements/companies/economic-activities/1.911"
            }
          }
        }
      ],
      "certificateStartDate": "2022-09-28",
      "certificateEndDate": "2023-03-26",
      "object": "TODO TIPO DE TRABAJOS DE JARDINERÍA, TALES COMO LA PODA DE ARBOLADO, CORTA DE SETOS, MANTENIMIENTO DE PLANTAS DE INTERIOR Y EXTERIOR, DE JARDINES Y TERRAZAS, DESBROZADO Y CORTE DE HIERBA, SIEMBRA DE JARDINES, COLOCACIÓN DE TEPES ABONADOS Y FUNGICIDAS SEGÚN REQUERIMIENTO Y COLOCACIÓN DE RIEGO",
      "mainEntityOfPage": "https://www.contratacion.euskadi.eus/webkpe00-kperoc/es/ac71aBusquedaRegistrosWar/empresa/03291",
      "_links": {
        "self": {
          "name": "MARIO ANTONIO ADÁN CEBALLOS",
          "href": "https://api.euskadi.eus/procurements/companies/03291"
        }
      }
    },
    {
      "name": "ABRA INTEGRACIÓN Y TECNOLOGÍA, S.L.",
      "registrationNumber": "05691",
      "identificationNumber": "B95889952",
      "address": "Avenida Iparraguirre, nº 59, 2º ",
      "location": {
        "postalCode": "48980",
        "municipality": "Santurtzi",
        "county": "Bizkaia",
        "municipalityId": "082",
        "countyId": "48"
      },
      "economicActivities": [
        {
          "id": "1.659.2",
          "name": "Venta al por menor de muebles de oficina y máquinas y equipos de oficina",
          "_links": {
            "self": {
              "name": "Venta al por menor de muebles de oficina y máquinas y equipos de oficina",
              "href": "https://api.euskadi.eus/procurements/companies/economic-activities/1.659.2"
            }
          }
        },
        {
          "id": "1.845",
          "name": "Explotación electrónica por cuenta de terceros",
          "_links": {
            "self": {
              "name": "Explotación electrónica por cuenta de terceros",
              "href": "https://api.euskadi.eus/procurements/companies/economic-activities/1.845"
            }
          }
        }
      ],
      "certificateStartDate": "2022-09-27",
      "certificateEndDate": "2022-12-02",
      "object": "CONSULTORÍA INFORMÁTICA. EL ESTUDIO, DESARROLLO Y PUESTA EN SERVICIO DE PROYECTOS DE INFORMÁTICA Y TELECOMUNICACIONES. EL MANTENIMIENTO DE EQUIPOS E INSTALACIONES DE INFORMÁTICA, OFIMÁTICA, TELECOMUNICACIÓN, ELECTRICIDAD Y MAQUINARÍA EN GENERAL Y SU COMERCIALIZACIÓN. LA COMERCIALIZACIÓN Y VENTA DE EQUIPOS INFORMÁTICOS. LA CREACIÓN, REPRESENTACIÓN, DISTRIBUCIÓN, IMPORTACIÓN, EXPORTACIÓN, COMERCIALIZACIÓN Y VENTA DE PROGRAMAS INFORMÁTICOS. EXTERNALIZACIÓN DE SERVICIOS INFORMÁTICOS Y ADMINISTRATIVOS. SERVICIOS DE FORMACIÓN EN TECNOLOGÍAS DE LA INFORMACIÓN",
      "mainEntityOfPage": "https://www.contratacion.euskadi.eus/webkpe00-kperoc/es/ac71aBusquedaRegistrosWar/empresa/05691",
      "_links": {
        "self": {
          "name": "ABRA INTEGRACIÓN Y TECNOLOGÍA, S.L.",
          "href": "https://api.euskadi.eus/procurements/companies/05691"
        }
      }
    }
  ]
}