{
  "totalItems": 9042,
  "totalPages": 905,
  "currentPage": 744,
  "itemsOfPage": 10,
  "items": [
    {
      "name": "PIEDRAS NATURALES ERLETXES, S.L.",
      "registrationNumber": "03515",
      "identificationNumber": "B95080537",
      "address": "POL. IND. ERLETXES II- EDIF. 3A-1",
      "location": {
        "postalCode": "48960",
        "municipality": "Galdakao",
        "county": "Bizkaia",
        "municipalityId": "036",
        "countyId": "48"
      },
      "economicActivities": [
        {
          "id": "1.505.2",
          "name": "Solados y pavimentos de todas clases en cualquier tipo de obra",
          "_links": {
            "self": {
              "name": "Solados y pavimentos de todas clases en cualquier tipo de obra",
              "href": "https://api.euskadi.eus/procurements/companies/economic-activities/1.505.2"
            }
          }
        }
      ],
      "certificateStartDate": "2009-06-30",
      "certificateEndDate": "2009-10-27",
      "object": "LA ACTIVIDAD DE ELABORACIÓN DE OBRA EN PIEDRA NATURAL O ARTIFICIAL O CON MATERIALES PARA LA CONSTRUCCIÓN. PREPARACIÓN Y MONTAJE DE ESTRUCTURAS Y CUBIERTAS Y CUBRICIONES EN EDIFICACIONES. CIMENTACIONES Y PAVIMENTACIONES. CONSTRUCCIÓN COMPLETA, REPARACIÓN Y CONSERVACIÓN DE EDIFICACIONES Y OBRAS CIVILES. ALBAÑILERÍA EN GENEREAL. SOLADOS. REVESTIMIENTOS EXTERIORES E INTERIORES DE TODAS CLASES Y EN TODO TIPO DE OBRAS. IMPERMEABILIZACIONES. COLOCACIÓN DE AISLAMIETNO FÓNICOS, TÉRMICOS Y ACÚSTICOS DE CUALQUIER CLASE, ASÍ COMO LA COMPRA-VENTA DE BIENES INMUEBLES.",
      "mainEntityOfPage": "https://www.contratacion.euskadi.eus/webkpe00-kperoc/es/ac71aBusquedaRegistrosWar/empresa/03515",
      "_links": {
        "self": {
          "name": "PIEDRAS NATURALES ERLETXES, S.L.",
          "href": "https://api.euskadi.eus/procurements/companies/03515"
        }
      }
    },
    {
      "name": "ACCESSIBILITY CONSULTING, S.L.U. (MATIA INNOVA, S.L.U.)",
      "registrationNumber": "03545",
      "identificationNumber": "B20938791",
      "address": "USANDIZAGA 6",
      "location": {
        "postalCode": "20002",
        "municipality": "Donostia / San Sebastián",
        "county": "Gipuzkoa",
        "municipalityId": "069",
        "countyId": "20"
      },
      "economicActivities": [
        {
          "id": "1.847",
          "name": "Servicios de consultoría",
          "_links": {
            "self": {
              "name": "Servicios de consultoría",
              "href": "https://api.euskadi.eus/procurements/companies/economic-activities/1.847"
            }
          }
        }
      ],
      "certificateStartDate": "2009-06-30",
      "certificateEndDate": "2009-11-08",
      "object": "OFRECER UN SERVICIO DE CONSULTORÍA DIRIGIDO A AGENTES PÚBLICOS Y PRIVADOS DE DISTINTOS ÁMBITOS PARA ADECUAR SUS PRODUCTOS, SERVICIOS Y EQUIPAMIENTOS A LOS REQUERIMIENTOS DE LAS PERSONAS CON CUALQUIER TIPO Y GRADO DE DISCAPACIDAD O NECESIDADES ESPECIALES Y PARA EL DESARROLLO E IMPLANTACIÓN DE MODELOS DE ACCESIBIIDAD",
      "mainEntityOfPage": "https://www.contratacion.euskadi.eus/webkpe00-kperoc/es/ac71aBusquedaRegistrosWar/empresa/03545",
      "_links": {
        "self": {
          "name": "ACCESSIBILITY CONSULTING, S.L.U. (MATIA INNOVA, S.L.U.)",
          "href": "https://api.euskadi.eus/procurements/companies/03545"
        }
      }
    },
    {
      "name": "SEMANTIC SYSTEMS, S.A.",
      "registrationNumber": "03488",
      "identificationNumber": "A95234183",
      "address": "EDIF. ARTEAGA- AVDA TXORIHERRI 9, 2º",
      "location": {
        "postalCode": "48160",
        "municipality": "Derio",
        "county": "Bizkaia",
        "municipalityId": "901",
        "countyId": "48"
      },
      "economicActivities": [
        {
          "id": "1.617.8",
          "name": "Venta al por mayor de máquinas y material de oficina",
          "_links": {
            "self": {
              "name": "Venta al por mayor de máquinas y material de oficina",
              "href": "https://api.euskadi.eus/procurements/companies/economic-activities/1.617.8"
            }
          }
        },
        {
          "id": "1.845",
          "name": "Explotación electrónica por cuenta de terceros",
          "_links": {
            "self": {
              "name": "Explotación electrónica por cuenta de terceros",
              "href": "https://api.euskadi.eus/procurements/companies/economic-activities/1.845"
            }
          }
        }
      ],
      "certificateStartDate": "2009-06-29",
      "certificateEndDate": "2009-05-10",
      "object": "A) LA PRESTACIÓN DE SERVICIOS DE CONSULTORÍA INFORMÁTICA EN SU MÁS AMPLIO SENTIDO EN TEMAS RELACIONADOS CON SOFTWARE Y HARDWARE; B) LA PRESTACIÓN DE SERVICIOS DE HOSPEDAJE DE APLICACIONES INFORMÁTICAS, ES DECIR, DICHAS APLICACIONES RESIDIRÁN EN SERVIDORES CENTRALES O DISTRIBUIDOS GESTIONADOS POR LA EMPRESA Y LA MISMA SE ENCARGARÁ DE FACTURAR A SUS CLIENTES; C) LA PRESTACIÓN DE SERVICIOS DE MANTENIMIENTO DE SOFTWARE Y HARDWARE A USUARIOS O EMPRESAS POR MEDIO DE UN CENTRO DE SOPORTE; D) LA IMPLANTACIÓN DE SISTEMAS INFORMÁTICOS RELACIONADOS CON LOS CAMPOS EMPRESARIAL, LABORAL, MERCANTIL, FINANCIERO O DOMÉSTICO; E) EL ALMACENAMIENTO, ARRENDAMIENTO Y, EN GENERAL, LA COMERCIALIZACIÓN Y DISTRIBUCIÓN DE TODA CLASE DE PRODUCTOS RELACIONADOS CON LA INFORMÁTICA; F) LA VENTA DE SOLUCIONES SOFTWARE QUE PUEDEN IMPLICAR EL DESARROLLO DE SOFTWARE A MEDIDA, LA APLICACIÓN DE SOFTWARE ESTÁNDAR DE MERCADO, LA PERSONALIZACIÓN DE PRODUCTOS O COMPONENTES EXISTENTES O LA APLICACIÓN DE PRODUCTOS SOFTWARE O COMPONENTES PROPIOS; G) EL DESARROLLO Y VENTA DE TODO TIPO DE PAQUETES Y PRODUCTOS INFORMÁTICOS CON SUS CORRESPONDIENTES LICENCIAS DE USO; H) LA PRESTACIÓN DE SERVICIOS DE CESIÓN DE RECURSOS INFORMÁTICOS (MEDIO MATERIALES, SOFTWARE O PERSONAS) A USUARIOS O EMPRESAS; I) LA PRESTACIÓN DE SERVICIOS DE FORMACIÓN A USUARIOS Y EMPRESAS EN TEMAS RELACIONADOS CON LA INFORMÁTICA ",
      "mainEntityOfPage": "https://www.contratacion.euskadi.eus/webkpe00-kperoc/es/ac71aBusquedaRegistrosWar/empresa/03488",
      "_links": {
        "self": {
          "name": "SEMANTIC SYSTEMS, S.A.",
          "href": "https://api.euskadi.eus/procurements/companies/03488"
        }
      }
    },
    {
      "name": "UMETAL FRONTAGES AND COVERS INTERNATIONAL, S.L.",
      "registrationNumber": "03953",
      "identificationNumber": "B95333357",
      "address": "ALDA. REKALDE Nº 27, 6ª",
      "location": {
        "postalCode": "48450",
        "municipality": "Bilbao",
        "county": "Bizkaia",
        "municipalityId": "020",
        "countyId": "48"
      },
      "economicActivities": [
        {
          "id": "1.474.1",
          "name": "Impresión de textos o imágenes por cualquier procedimiento",
          "_links": {
            "self": {
              "name": "Impresión de textos o imágenes por cualquier procedimiento",
              "href": "https://api.euskadi.eus/procurements/companies/economic-activities/1.474.1"
            }
          }
        }
      ],
      "certificateStartDate": "2009-06-29",
      "certificateEndDate": "2009-12-11",
      "object": "A) LA ADQUISICIÓN POR CUALQUIER TÍTULO DE FINCAS RÚSTICAS O URBANAS, LA PROMOCIÓN, REHABILITACIÓN Y CONSTRUCCIÓN DE ESTAS Y LA ADMINISTRACIÓN, TENENCIA, EXPLOTACIÓN Y ARRENDAMIENTO DE TALES BIENES Y SU VENTA TOTAL O PARCIAL, SEGÚN CONVENGA PARA SU APROVECHAMIENTO FORESTAL, AGRÍCOLA, URBANO, INDUSTRIAL O CUALQUIER OTRO, ASÍ COMO SU ASESORAMIENTO EN COMPRA-VENTA DE INMUEBLES A TERCERAS PERSONAS FÍSICAS O JURÍDICAS; B) LA ADQUISICIÓN, CESIÓN, TENENCIA Y DISFRUTE EN GENERAL DE TODA CLASE DE TÍTULOS Y VALORES MOBILIARIOS, CON EXCLUSIÓN DE LAS ACTIVIDADES DE LA ALEY DE MERCADO DE VALORES Y DE INVERSIONES COLECTIVAS; C) EL SESORAMIENTO DE EMPRESAS, EL ESTUDIO, INVESTIGACIÓN, PROMOCIÓN Y PRESTACIÓN DE TODA CLASE DE SERVICIOS DE ASISTENCIA Y GESTIÓN TÉCNICA, ADMINISTRATIVA, COMERCIAL Y JURÍDICA, TODO ELLO EFECTUADO POR PERSONAS CON TITULACIÓN ESPECIAL; D) LA INTERMEDIACIÓN, EN REPRESENTACIÓN DE TERCEROS, PARA TRAMITACIÓN DE TODA CLASE DE PRÉSTAMOS Y CRÉDITOS; E) COMERCIO AL POR MAYOR Y MENOR DE MATERIALES DE CONSTRUCCIÓN, VIDRIO Y ARTÍCULOS DE INSTALACIÓN. COMERCIO AL POR MAYOR DE CEMENTOS, CALES, YESOS, DERIVADOS DEL CEMENTO, HORMIGONES, CARPINTERÍA METÁLICA, CALDERERÍA GRUESA, ESTRUCTURAS METÁLICAS, MATERIALES TECHADOS, REVESTIMIENTOS Y AISLAMIENTOS; F) IMPRESIÓN DE TEXTOS O IMÁGENES POR CUALQUIER PROCEDIMIENTO O SISTEMA; G) MONTAJES METÁLICOS E INSTALACIONES INDUSTRIALES COMPLETAS, SIN VENDER NI APORTAR LA MAQUINARIA NI LOS ELEMENTOS OBJETO DE LA INSTALACIÓN O MONTAJE",
      "mainEntityOfPage": "https://www.contratacion.euskadi.eus/webkpe00-kperoc/es/ac71aBusquedaRegistrosWar/empresa/03953",
      "_links": {
        "self": {
          "name": "UMETAL FRONTAGES AND COVERS INTERNATIONAL, S.L.",
          "href": "https://api.euskadi.eus/procurements/companies/03953"
        }
      }
    },
    {
      "name": "RARITY SYSTEMS, S.A.",
      "registrationNumber": "03949",
      "identificationNumber": "A01322759",
      "address": "ALDA. REKALDE 37, 1º",
      "location": {
        "postalCode": "48000",
        "municipality": "Bilbao",
        "county": "Bizkaia",
        "municipalityId": "020",
        "countyId": "48"
      },
      "economicActivities": [
        {
          "id": "1.844",
          "name": "Servicios de publicidad, relaciones públicas y similares",
          "_links": {
            "self": {
              "name": "Servicios de publicidad, relaciones públicas y similares",
              "href": "https://api.euskadi.eus/procurements/companies/economic-activities/1.844"
            }
          }
        }
      ],
      "certificateStartDate": "2009-06-26",
      "certificateEndDate": "2009-12-11",
      "object": "LA FABRICACIÓN, IMPORTACIÓN, EXPORTACIÓN, COMPRA-VENTA Y COMERCIALIZACIÓN DE SISTEMAS Y ELEMENTOS DE EXPOSICIÓN, IMAGEN CORPORATIVA Y PUBLICIDAD EN LUGAR DE VENTA",
      "mainEntityOfPage": "https://www.contratacion.euskadi.eus/webkpe00-kperoc/es/ac71aBusquedaRegistrosWar/empresa/03949",
      "_links": {
        "self": {
          "name": "RARITY SYSTEMS, S.A.",
          "href": "https://api.euskadi.eus/procurements/companies/03949"
        }
      }
    },
    {
      "name": "MARIA DEL CARMEN FABREGAT REDONDO",
      "registrationNumber": "03950",
      "identificationNumber": "15938978R",
      "address": "B. EIZMENDI C GARAY 196 A",
      "location": {
        "postalCode": "20159",
        "municipality": "Asteasu",
        "county": "Gipuzkoa",
        "municipalityId": "014",
        "countyId": "20"
      },
      "economicActivities": [
        {
          "id": "1.922.1",
          "name": "Servicios de limpieza de interiores",
          "_links": {
            "self": {
              "name": "Servicios de limpieza de interiores",
              "href": "https://api.euskadi.eus/procurements/companies/economic-activities/1.922.1"
            }
          }
        }
      ],
      "certificateStartDate": "2009-06-26",
      "certificateEndDate": "2009-11-04",
      "object": "LIMPIEZA DE EDIFICIOS Y LOCALES TANTO PÚBLICOS COMO PRIVADOS",
      "mainEntityOfPage": "https://www.contratacion.euskadi.eus/webkpe00-kperoc/es/ac71aBusquedaRegistrosWar/empresa/03950",
      "_links": {
        "self": {
          "name": "MARIA DEL CARMEN FABREGAT REDONDO",
          "href": "https://api.euskadi.eus/procurements/companies/03950"
        }
      }
    },
    {
      "name": "POOL DE COMUNICACION, S.L.",
      "registrationNumber": "03935",
      "identificationNumber": "B95331468",
      "address": "DOLORES IBARRURI Nº 5, 2º B",
      "location": {
        "postalCode": "48012",
        "municipality": "Bilbao",
        "county": "Bizkaia",
        "municipalityId": "020",
        "countyId": "48"
      },
      "economicActivities": [
        {
          "id": "1.476.2",
          "name": "Edición de periódicos y revistas",
          "_links": {
            "self": {
              "name": "Edición de periódicos y revistas",
              "href": "https://api.euskadi.eus/procurements/companies/economic-activities/1.476.2"
            }
          }
        },
        {
          "id": "1.844",
          "name": "Servicios de publicidad, relaciones públicas y similares",
          "_links": {
            "self": {
              "name": "Servicios de publicidad, relaciones públicas y similares",
              "href": "https://api.euskadi.eus/procurements/companies/economic-activities/1.844"
            }
          }
        },
        {
          "id": "1.989.2",
          "name": "Servicios de organización de congresos, asambleas y similares",
          "_links": {
            "self": {
              "name": "Servicios de organización de congresos, asambleas y similares",
              "href": "https://api.euskadi.eus/procurements/companies/economic-activities/1.989.2"
            }
          }
        }
      ],
      "certificateStartDate": "2009-06-23",
      "certificateEndDate": "2009-11-26",
      "object": "PLANES DE COMUNICACIÓN; NOTAS DE PRENSA; ORGANIZACIÓN DE JORNADAS, CONGRESOS Y EVENTOS; CONVOCATORIAS DE RUEDAS DE PRENSA; ELEBORACIÓN DE CATÁLOGOS Y MEMORIAS EMPRESARIALES; REALIZACIÓN DE INFORMES SECTORIALES; BASES DE DATOS; ASESORAMIENTO, GESTIÓN Y CONTRATACIÓN DE LAS EMPRESAS, INTERNACIONALIZACIÓN DE ACTIVIDAD Y APERTURA A NUEVOS MERCADOS; EIDICIÓN DE REVISTAS Y FOLLETOS.",
      "mainEntityOfPage": "https://www.contratacion.euskadi.eus/webkpe00-kperoc/es/ac71aBusquedaRegistrosWar/empresa/03935",
      "_links": {
        "self": {
          "name": "POOL DE COMUNICACION, S.L.",
          "href": "https://api.euskadi.eus/procurements/companies/03935"
        }
      }
    },
    {
      "name": "LANDE, S.A.",
      "registrationNumber": "03936",
      "identificationNumber": "A78006715",
      "address": "FUNDIDORES, 83",
      "location": {
        "postalCode": "28906",
        "municipality": "Getafe",
        "county": "Madrid",
        "municipalityId": "065",
        "countyId": "28"
      },
      "economicActivities": [
        {
          "id": "1.614.2",
          "name": "Venta al por mayor de productos de perfumería, droguería, higiene y belleza",
          "_links": {
            "self": {
              "name": "Venta al por mayor de productos de perfumería, droguería, higiene y belleza",
              "href": "https://api.euskadi.eus/procurements/companies/economic-activities/1.614.2"
            }
          }
        }
      ],
      "certificateStartDate": "2009-06-23",
      "certificateEndDate": "2009-11-08",
      "object": "LA PROMOCIÓN DE CUALQUIER CLASE DE PROYECTOS Y EMPRESAS INDUSTRIALES Y COMERCIALES. LA COMPRA Y VENTA AL POR MAYOR Y AL POR MENOR, IMPORTACIÓN, EXPORTACIÓN, FABRICACIÓN, INSTALACIÓN Y ALQUILER DE ARTÍCULOS, MERCANCÍAS Y APARATOS QUE SE DETALLAN A CONTINUACIÓN, ASÍ COMO LA REPRESENTACIÓN DE CASAS COMERCIALES, PRODUCTORAS O DISTRIBUIDORAS DE LOS MISMOS: ARTÍCULOS DE PERFUMERÍA, PRENDAS DE CONFECCIÓN, GÉNEROS DE PUNTO, TEJIDOS, PELETERÍA, CALZADO, ARTÍCULOS Y APARATOS MÉDICOS, CLÍNICOS, JOYERÍA, BISUTERÍA, OBJETOS DE ADORNO Y DECORACIÓN (PERSONAL O DOMÉSTICA), ARTÍCULOS DE REGALO O RECUERDO, APARATOS ELECTRODOMÉSTICOS DE TODO TIPO, MAQUINARIA INDUSTRIAL, PRODUCTOS PARA LA CONSTRUCCIÓN",
      "mainEntityOfPage": "https://www.contratacion.euskadi.eus/webkpe00-kperoc/es/ac71aBusquedaRegistrosWar/empresa/03936",
      "_links": {
        "self": {
          "name": "LANDE, S.A.",
          "href": "https://api.euskadi.eus/procurements/companies/03936"
        }
      }
    },
    {
      "name": "NOKIA SPAIN, S.A.",
      "registrationNumber": "01603",
      "identificationNumber": "A28016921",
      "address": "C/ MARIA TUBAU, 9. ",
      "location": {
        "postalCode": "28050",
        "municipality": "Madrid",
        "county": "Madrid",
        "municipalityId": "079",
        "countyId": "28"
      },
      "economicActivities": [
        {
          "id": "1.504.1",
          "name": "Instalaciones eléctricas en general",
          "_links": {
            "self": {
              "name": "Instalaciones eléctricas en general",
              "href": "https://api.euskadi.eus/procurements/companies/economic-activities/1.504.1"
            }
          }
        },
        {
          "id": "1.617.9",
          "name": "Venta al por mayor interindustrial de otros productos n.c.o.p",
          "_links": {
            "self": {
              "name": "Venta al por mayor interindustrial de otros productos n.c.o.p",
              "href": "https://api.euskadi.eus/procurements/companies/economic-activities/1.617.9"
            }
          }
        }
      ],
      "certificateStartDate": "2009-06-15",
      "certificateEndDate": "2009-09-03",
      "object": "EL DISEÑO, FABRICACIÓN, IMPORTACIÓN, VENTA, EXPORTACIÓN, ARRENDAMIENTO, INSTALACIÓN Y MANTENIMIENTO DE EQUIPOS ELECTRÓNICOS Y DE TELECOMUNICACIÓN",
      "mainEntityOfPage": "https://www.contratacion.euskadi.eus/webkpe00-kperoc/es/ac71aBusquedaRegistrosWar/empresa/01603",
      "_links": {
        "self": {
          "name": "NOKIA SPAIN, S.A.",
          "href": "https://api.euskadi.eus/procurements/companies/01603"
        }
      }
    },
    {
      "name": "CONSTRUCCIONES ETXEBERRIA ALONSO, S.L.",
      "registrationNumber": "03920",
      "identificationNumber": "B95526588",
      "address": "GOIKO TORRE, 9-1º IZDA.",
      "location": {
        "postalCode": "48003",
        "municipality": "Bilbao",
        "county": "Bizkaia",
        "municipalityId": "020",
        "countyId": "48"
      },
      "economicActivities": [
        {
          "id": "1.501.1",
          "name": "Construcción completa, reparación y conservación de edificaciones",
          "_links": {
            "self": {
              "name": "Construcción completa, reparación y conservación de edificaciones",
              "href": "https://api.euskadi.eus/procurements/companies/economic-activities/1.501.1"
            }
          }
        }
      ],
      "certificateStartDate": "2009-06-10",
      "certificateEndDate": "2009-09-18",
      "object": "A.- LA EJECUCIÓN DE TODA CLASE DE OBRAS, ASÍ COMO CUALQUIER OTRA ACTIVIDAD RELACIONADA CON LA CONSTRUCCIÓN, LA PROMOCIÓN O EJECUCIÓN COMPLETA O POR TRAMOS DE TODA CLASE DE OBRAS EN CONSTRUCCIÓN, REPARACIÓN O CONSERVACIÓN POR CUENTA PROPIA O AJENA. B.- LA COMPRAVENTA DE INMUEBLES O SOLARES, SU ACONDICIONAMIENTO, URBANIZACIÓN Y PARCELACIÓN. LA CONSTRUCCIÓN YA POR SÍ O POR MEDIO DE TERCEROS DE TODA CLASE DE EDIFICIOS, INCLUSO DE PROTECCIÓN OFICIAL, LA EXPLOTACIÓN Y LA ENAJENACIÓN DE ÉSTOS MEDIANTE ARRIENDO U OTRO TÍTULO CUALQUIERA YA SEA EN CONJUNTO O POR LOCALES INDEPENDIENTES",
      "mainEntityOfPage": "https://www.contratacion.euskadi.eus/webkpe00-kperoc/es/ac71aBusquedaRegistrosWar/empresa/03920",
      "_links": {
        "self": {
          "name": "CONSTRUCCIONES ETXEBERRIA ALONSO, S.L.",
          "href": "https://api.euskadi.eus/procurements/companies/03920"
        }
      }
    }
  ]
}