{
  "totalItems": 9042,
  "totalPages": 905,
  "currentPage": 776,
  "itemsOfPage": 10,
  "items": [
    {
      "name": "LA PREVISORA- POLICLÍNICA SAN JOSE",
      "registrationNumber": "02599",
      "identificationNumber": "G01011519",
      "address": "C/ BEATO TOMÁS DE ZUMÁRRAGA, 10",
      "location": {
        "postalCode": "01008",
        "municipality": "Vitoria-Gasteiz",
        "county": "Araba/Álava",
        "municipalityId": "059",
        "countyId": "01"
      },
      "certificateStartDate": "2006-11-27",
      "certificateEndDate": "2007-05-02",
      "object": "COLABORAR, BAJO LA DIRECCIÓN Y TUTELA DEL MINISTERIO DE TRABAJO Y ASUNTOS SOCIALES, EN LA GESTIÓN DE LAS CONTINGENCIAS DE ACCIDENTES DE TRABAJO Y ENFERMEDADES PROFESIONALES  DEL PERSONAL AL SERVICIO DE LAS EMPRESAS ASOCIADAS, ASÍ COMO LA GESTIÓN Y ADMINISTRACIÓN DE SU PATRIMONIO HISTÓRICO, SIN ÁNIMO  DE LUCRO, PUDIENDO ASIMISMO ASUMIR LA COBERTURA DE LA PRESTACIÓN ECONÓMICA POR INCAPACIDAD TEMPORAL DERIVADA DE CONTINGENCIAS COMUNES DEL PERSONAL AL SERVICIO DE LOS EMPRESARIOS ASOCIADOS, ASÍ COMO DEL SUBSIDIO POR INCAPACIDAD TEMPORAL DEL RÉGIMEN ESPECIAL DE TRABAJADORES POR CUENTA PROPIA O AUTÓNOMOS Y DE LOS TRABAJADORES POR CUENTA PROPIA INCLUIDOS EN EL RÉGIMEN ESPECIAL AGRARIO DE LA SEGURIDAS SOCIAL. ASÍ COMO LA PRESTACIÓN DE SERVICIOS SANITARIOS Y DE SEGURIDAD Y SALUD LABORAL.\r\nDEDICA ESPECIAL ATENCIÓN, COMO ENTIDAD COLABORADORA DE LA SEGURIDAD SOCIAL, A LA MEDICINA PREVENTIVA Y  A LA RECUPERACIÓN Y REHABILITACIÓN PROFESIONA L Y DEMÁS ACTIVIDADES  DE NATURALEZA SIMILAR DERIVADAS DE DICHA COLABORACIÓN, A CUYO EFECTO PODRÁ  ESTABLECER, PREVIA AUTORIZACIÓN DEL ÓRGANO ADMINISTRATIVO COMPETENTE, LAS INSTALACIONES, SERVICIOS Y CONCIERTOS NECESARIOS.\r\nDENTRO DE SU OBJETO SOCIAL Y DE ACUERDO CON LO ESTABLECIDO EN EL ARTÍCULO 32 DE LA LEY DE PREVENCIÓN DE RIESGOS LABORALES DE 8 DE NOVIEMBRE DE 1.995, PODRÁ DESARROLLAR PARA LAS EMPRESAS A ELLA ASOCIADAS LAS FUNCIONES CORRESPONDIENTES A LOS SERVICIOS DE PREVENCIÓN QUE SE ESTABLECEN EN  EL ARTÍCULO 31 DE DICHA LEY, DE CONFORMIDAD CON EL RÉGIMEN JURÍDICO, ECONÓMICO Y DE FUNCIONAMIENTO QUE ESTÉ DETERMINADO POR LAS DISPOSICIONES ESPECÍFICAS EN LA MATERIA Y CON LOS REQUISITOS EN EL ARTÍCULO 13 DE ESTOS ESTATUTOS. ESTAS FUNCIONES SERÁN COMPATIBLES E INDEPENDIENTES DE LAS MENCIONADAS EN LOS PÁRRAFOS ANTERIORES. ",
      "mainEntityOfPage": "https://www.contratacion.euskadi.eus/webkpe00-kperoc/es/ac71aBusquedaRegistrosWar/empresa/02599",
      "_links": {
        "self": {
          "name": "LA PREVISORA- POLICLÍNICA SAN JOSE",
          "href": "https://api.euskadi.eus/procurements/companies/02599"
        }
      }
    },
    {
      "name": "GESTIÓN EMPRESARIAL DE BIENES Y SERVICIOS, S.A.",
      "registrationNumber": "01698",
      "identificationNumber": "A48696058",
      "address": "C/ FONTECHA Y SALAZAR, Nº 9 - 4ª.",
      "location": {
        "postalCode": "48007",
        "municipality": "Bilbao",
        "county": "Bizkaia",
        "municipalityId": "020",
        "countyId": "48"
      },
      "economicActivities": [
        {
          "id": "1.849.4",
          "name": "Servicios de custodia, seguridad y protección",
          "_links": {
            "self": {
              "name": "Servicios de custodia, seguridad y protección",
              "href": "https://api.euskadi.eus/procurements/companies/economic-activities/1.849.4"
            }
          }
        },
        {
          "id": "1.849.9",
          "name": "Otros servicios independientes n.c.o.p",
          "_links": {
            "self": {
              "name": "Otros servicios independientes n.c.o.p",
              "href": "https://api.euskadi.eus/procurements/companies/economic-activities/1.849.9"
            }
          }
        }
      ],
      "certificateStartDate": "2006-11-24",
      "certificateEndDate": "2007-05-10",
      "object": "a) LA COMPRA, VENTA Y ARRENDAMIENTO DE TODA CLASE DE FINCAS, TERRENOS, SOLARES, LOCALES INDUSTRIALES, COMERCIALES O DE OFICINAS, VIVIENDAS Y DEMÁS INMUEBLES DE NATURALEZA RÚSTICA Y URBANA. b) LA CLASIFICACIÓN Y DISTRIBUCIÓN DE CORRESPONDENCIA, VALIJAS Y PAQUETERÍA, ENCOMENDADAS POR ORGANISMOS PÚBLICOS Y PRIVADOS QUE NO SUPONGA, EN NINGÚN CASO, EL TRANSPORTE, MANIPULACIÓN O DISTRIBUCIÓN DE EFECTIVO. c) LA ASISTENCIA TÉCNICA A APARATOS MECÁNICOS, ELÉCTRICOS O ELECTRÓNICOS EN GRANDES SUPERFICIES, ESTABLECIMIENTOS COMERCIALES, INCLUSO FINANCIEROS, QUE NO SUPONGA MANIPULACIÓN DE INSTALACIONES DE SEGURIDAD. d) INFORMACIÓN DE ACCESOS A EDIFICIOS Y/O INSTALACIONES EN GENERAL. LA CUSTODIA Y COMPROBACIÓN DEL ESTADO Y FUNCIONAMIENTO DE LAS INSTALACIONES EN GENERAL Y DE GESTIÓN AUXILIAR REALIZADAS EN CUALQUIER CLASE DE EDIFICIOS O INMUEBLES, REALIZADOS POR PORTEROS, CONSERJES Y PERSONAL ANÁLOGO. Y, EN GENERAL, LA COMPROBACIÓN Y CONTROL DEL ESTADO DE CALDERAS E INSTALACIONES GENERALES EN CUALESQUIERA CLASE DE INMUEBLES PARA GARANTIZAR SU FUNCIONAMIENTO Y SEGURIDAD FÍSICA. e) EL CONTROL DE TRÁNSITO EN ZONAS RESERVADAS O DE CIRCULACIÓN RESTRINGIDA, EN EL INTERIOR DE FÁBRICAS, PLANTAS DE PRODUCCIÓN DE ENERGÍA, GRANDES CENTROS DE PROCESOS DE DATOS, ÁREAS COMERCIALES Y SIMILARES. f) LAS TAREAS DE RECEPCIÓN, COMPROBACIÓN DE VISITANTES Y ORIENTACIÓN DE LOS MISMOS, ASÍ COMO LAS DE CONTROL DE ENTRADAS, TIKETS O CARNETS PRIVADOS, EN CUALQUIER CLASE DE EDIFICIOS O INMUEBLES",
      "mainEntityOfPage": "https://www.contratacion.euskadi.eus/webkpe00-kperoc/es/ac71aBusquedaRegistrosWar/empresa/01698",
      "_links": {
        "self": {
          "name": "GESTIÓN EMPRESARIAL DE BIENES Y SERVICIOS, S.A.",
          "href": "https://api.euskadi.eus/procurements/companies/01698"
        }
      }
    },
    {
      "name": "GREKOGRAM, S.L.",
      "registrationNumber": "03090",
      "identificationNumber": "B95378956",
      "address": "BARRIO KAREAGA, 53. POLÍGONO KAREAGA. NAVE A-2",
      "location": {
        "postalCode": "48903",
        "municipality": "Barakaldo",
        "county": "Bizkaia",
        "municipalityId": "013",
        "countyId": "48"
      },
      "economicActivities": [
        {
          "id": "1.502.2",
          "name": "Consolidación y preparación de terrenos para la construcción de edificaciones",
          "_links": {
            "self": {
              "name": "Consolidación y preparación de terrenos para la construcción de edificaciones",
              "href": "https://api.euskadi.eus/procurements/companies/economic-activities/1.502.2"
            }
          }
        }
      ],
      "certificateStartDate": "2006-11-23",
      "certificateEndDate": "2007-05-10",
      "object": "1) LA ADQUISICIÓN DE TERRENOS, ASÍ COMO SU ACONDICIONAMIENTO, PLANEAMIENTO Y URBANIZACIÓN; LA COMPRA, VENTA, ARRENDAMIENTO, PROMOCIÓN, CONSTRUCCIÓN Y COMERCIALIZACIÓN EN GENERAL, COMPLETA O POR RAMOS, DE TODA CLASE DE PARCELAS, EDIFICIOS, CHALETS E INMUEBLES EN GENERA; LA REALIZACIÓN  Y PROMOCIÓN DE TODA CLASE DE OBRAS DE CONSTRUCCIÓN, TANTO PÚBLICAS COMO PRIVADAS, DE TODA CLASE DE EDIFICIOS Y PABELLONES INDUSTRIALES, YA SEA POR SÍ  O POR MEDIO DE TERCEROS; LA REHABILITACIÓN Y REFORMA DE FACADAS, ASÍ COMO DE EDIFICIOS HISTÓRICO ARTÍSTICOS; LA PROMOCIÓN, CONSTRUCCIÓN, ACONDICIONAMIENTO Y EXPLOTACIÓN DE TODA CLASE DE APARCAMIENTOS, CAMPINGS, PUERTOS DEPORTIVOS, ATRAQUES, HOTELES, BUNGALOWS, Y ESTABLECIMIENTOS DE HOSTELERÍA EN GENERAL, ASÍ COMO LOS NEGOCIOS INMMOBILIARIOS DE TODA ÍNDOLE, INCLUÍDO LO QUE SEA ANTECEDENTE, COMPLEMENTO O CONSECUENCIA DE LO EXPUESTO.\r\n\r\n2) LA EXPLOTACIÓN DE TODO TIPO DE CONCESIONES ADMINISTRATIVAS YA SEAN ESTATALES, AUTÓNOMICAS, PROVINCIALES O MUNICIPALES.\r\n\r\n3) LOS SERVICIOS DE INGENIERÍA, ARQUITECTURA, GESTIÓN Y ASESORAMIENTO, Y EN GENERAL TODAS AQUELLAS ACTIVIDADES QUE CONLLEVEN LA CREACIÓN DE INFRAESTRUCTURA Y CONTRIBUYAN AL DESARROLLO REGIONAL, A LA CREACIÓN, DESARROLLO Y ADAPTACIÓN DE ACTIVIDADES ECONÓMICAS GENERADORAS DE RIQUEZA Y EMPLEO, ASÍ COMO A LA MODERNIZACIÓN Y RECONVERSIÓN INDUSTRIAL O URBANÍSTICA.\r\n\r\n4) LOS SERVICIOS TÉCNICOS A TERCEROS, DE ORGANIZACIÓN, ASESORAMIENTO Y GESTIÓN EMPRESARIAL, INCLUYENDO TODO TIPO DE ESTUDIOS TÉCNICOS, INDUSTRIALES DE VIABILIDAD Y PREINVERSIÓN, DIAGNÓSTICOS EN ORGANIZACIÓN Y MÉTODOS DE GESTIÓN, AUDITORÍAS TÉCNICAS, Y TAMBIÉN ESTUDIOS E INFORMES DIVERSOS SOBRE ENERGÍA, CARTOGRAFÍA, ECOLOGÍA Y MEDIOAMBIENTE, INFORMACIÓN Y DOCUMENTACIÓN TÉCNICO ECONÓMICA, Y TODDO TIPO DE ESTUDIOS COMERCIALES Y DE MERCADOS.\r\n\r\n5) EL ALQUILER Y COMPRAVENTA DE MAQUINARIA.\r\n\r\n6) LA IMPORTACIÓN, EXPORTACIÓN Y COMERCIALIZACIÓN EN GENERAL DE TODA CLASE DE MATERIALES DE CONSTRUCCIÓN, ASÍ COMO LA REPRESENTACIÓN DE EMPRESAS NACIONALES O EXTRANJERAS RELACIONADAS CON DICHOS MATERIALES.\r\n\r\n7) LA ACTIVIDAD DE CONSTRUCCIÓN, YA SEA DE MANERA DIRECTA YA POR SUBCONTRATACIÓN, INCLUSO MEDIANTE LA GESTIÓN Y COORDINACIÓN  DE TODOS LOS SUBCONTRATISTAS DE OBRAS NECESARIOS PARA LA EJECUCIÓN DE TODO TIPO DE OBRAS; TANTO PÚBLICAS Y DE URBANIZACIONES, COMO CUALQUIER OTRO TIPO DE OBRA CIVIL Y EDIFICACIONES, ASÍ COMO LA EJECUCIÓN DE TODA CLASE DE INSTALACIONES MECÁNICAS Y ELÉCTRICAS, INCLUSO LAS ESPECIALES DE INCENDIOS, SEGURIDAD, ACONDICIONAMIENTO DE AIRE Y, EN GENERAL ACTIVIDADES PROPIAS DE LA CONSTRUCCIÓN, INCLUSO LAS REALIZADAS  MEDIANTE EL SISTEMA DE INGENIERÍA LLAVE EN MANO.\r\n\r\n8) LA ADQUISICIÓN, CESIÓN, TENENCIA, DISFRUTE, ADMINISTRACIÓN, GESTIÓN Y NEGOCIACIÓN EN GENERAL DE VALORES MOBILIARIOS, BIENES MUEBLES E INMUEBLES, Y PARTICIPACIONES SOCIALES.\r\n\r\nLAS ACTIVIDADES INTEGRANTES DEL OBJETO SOCIAL, PODRÁN SER DESARROLLADAS POR LA SOCIEDAD DE MODO INDIRECTO, MEDIANTE SU PARTICIPACIÓN EN SOCIEDADES O ENTIDADES CON DISTINTA PERSONALIDAD JURÍDICA",
      "mainEntityOfPage": "https://www.contratacion.euskadi.eus/webkpe00-kperoc/es/ac71aBusquedaRegistrosWar/empresa/03090",
      "_links": {
        "self": {
          "name": "GREKOGRAM, S.L.",
          "href": "https://api.euskadi.eus/procurements/companies/03090"
        }
      }
    },
    {
      "name": "IRATI SERVICIOS AUXILIARES S. COOP",
      "registrationNumber": "03273",
      "identificationNumber": "F20902680",
      "address": "PSO SABENE Nº 5 CASA ONINTZA",
      "location": {
        "postalCode": "20014",
        "municipality": "Donostia / San Sebastián",
        "county": "Gipuzkoa",
        "municipalityId": "069",
        "countyId": "20"
      },
      "economicActivities": [
        {
          "id": "1.501.3",
          "name": "Albañilería y pequeños trabajos de construcción en general",
          "_links": {
            "self": {
              "name": "Albañilería y pequeños trabajos de construcción en general",
              "href": "https://api.euskadi.eus/procurements/companies/economic-activities/1.501.3"
            }
          }
        },
        {
          "id": "1.506.0",
          "name": "Instalaciones de andamios, cimbras, encofrados, etc",
          "_links": {
            "self": {
              "name": "Instalaciones de andamios, cimbras, encofrados, etc",
              "href": "https://api.euskadi.eus/procurements/companies/economic-activities/1.506.0"
            }
          }
        }
      ],
      "certificateStartDate": "2006-11-20",
      "certificateEndDate": "2007-04-13",
      "object": "PRESTACIONES DE SERVICIOS RELACIONADOS CON EL MONTAJE DE ANDAMIOS, A CUALESQUIERA EMPRESAS, COMUNIDADES DE BIENES, EMPRESARIOS PARTICULARES, O SIMPLEMENTE PARTICULARES QUE SOLICITEN NUESTROS SERVICIOS ",
      "mainEntityOfPage": "https://www.contratacion.euskadi.eus/webkpe00-kperoc/es/ac71aBusquedaRegistrosWar/empresa/03273",
      "_links": {
        "self": {
          "name": "IRATI SERVICIOS AUXILIARES S. COOP",
          "href": "https://api.euskadi.eus/procurements/companies/03273"
        }
      }
    },
    {
      "name": "SERGANDARA, S.L.",
      "registrationNumber": "02480",
      "identificationNumber": "B48973200",
      "address": "HUERTAS DE LA VILLA, 17 -1º IZDA.",
      "location": {
        "postalCode": "48007",
        "municipality": "Bilbao",
        "county": "Bizkaia",
        "municipalityId": "020",
        "countyId": "48"
      },
      "economicActivities": [
        {
          "id": "1.501.1",
          "name": "Construcción completa, reparación y conservación de edificaciones",
          "_links": {
            "self": {
              "name": "Construcción completa, reparación y conservación de edificaciones",
              "href": "https://api.euskadi.eus/procurements/companies/economic-activities/1.501.1"
            }
          }
        }
      ],
      "certificateStartDate": "2006-11-16",
      "certificateEndDate": "2007-04-09",
      "object": "LA  COMPRA-VENTA, PERMUTA O ARRENDAMIENTO, POR CUENTA PROPIA O DE TERCEROS  DE TODA CLASE DE FINCAS, RÚSTICAS  O URBANAS, PARCELAS O SOLARES, PISOS, LOCALES COMERCIALES Y EN GENERAL TODA CLASE DE BIENES INMUEBLES; LA PROMOCIÓN POR CUENTA  PROPIA O AJENA DE TODA CLASE DE PROYECTOS DE URBANIZACIÓN Y CONSTRUCCIÓN INMOBILIARIA, ASÍ COMO LA REALIZACIÓN DE TODA CLASE DE PROYECTOS Y OBRAS. ",
      "mainEntityOfPage": "https://www.contratacion.euskadi.eus/webkpe00-kperoc/es/ac71aBusquedaRegistrosWar/empresa/02480",
      "_links": {
        "self": {
          "name": "SERGANDARA, S.L.",
          "href": "https://api.euskadi.eus/procurements/companies/02480"
        }
      }
    },
    {
      "name": "TÉCNICAS MÉDICAS MAB, S.A.",
      "registrationNumber": "00384",
      "identificationNumber": "A08185100",
      "address": "C/ CÓRCEGA, Nº 114.",
      "location": {
        "postalCode": "08029",
        "municipality": "Barcelona",
        "county": "Barcelona",
        "municipalityId": "019",
        "countyId": "08"
      },
      "economicActivities": [
        {
          "id": "1.619.2",
          "name": "Venta al por mayor de aparatos e instrumentos médicos, ortopédicos, ópticos",
          "_links": {
            "self": {
              "name": "Venta al por mayor de aparatos e instrumentos médicos, ortopédicos, ópticos",
              "href": "https://api.euskadi.eus/procurements/companies/economic-activities/1.619.2"
            }
          }
        }
      ],
      "certificateStartDate": "2006-11-14",
      "certificateEndDate": "2007-04-19",
      "object": "LA FABRICACIÓN Y COMPRAVENTA EN GENERAL DE TODA CLASE DE ARTÍCULOS, APARATOS, INSTRUMENTOS Y OBJETOS DE USO MÉDICO, CLÍNICO Y DENTAL",
      "mainEntityOfPage": "https://www.contratacion.euskadi.eus/webkpe00-kperoc/es/ac71aBusquedaRegistrosWar/empresa/00384",
      "_links": {
        "self": {
          "name": "TÉCNICAS MÉDICAS MAB, S.A.",
          "href": "https://api.euskadi.eus/procurements/companies/00384"
        }
      }
    },
    {
      "name": "AGFA-GEVAERT, S.A.",
      "registrationNumber": "00656",
      "identificationNumber": "A08012544",
      "address": "C/ PROVENZA, Nº 392.",
      "location": {
        "postalCode": "08025",
        "municipality": "Barcelona",
        "county": "Barcelona",
        "municipalityId": "019",
        "countyId": "08"
      },
      "economicActivities": [
        {
          "id": "1.617.8",
          "name": "Venta al por mayor de máquinas y material de oficina",
          "_links": {
            "self": {
              "name": "Venta al por mayor de máquinas y material de oficina",
              "href": "https://api.euskadi.eus/procurements/companies/economic-activities/1.617.8"
            }
          }
        },
        {
          "id": "1.619.2",
          "name": "Venta al por mayor de aparatos e instrumentos médicos, ortopédicos, ópticos",
          "_links": {
            "self": {
              "name": "Venta al por mayor de aparatos e instrumentos médicos, ortopédicos, ópticos",
              "href": "https://api.euskadi.eus/procurements/companies/economic-activities/1.619.2"
            }
          }
        },
        {
          "id": "1.691.9",
          "name": "Reparación de otros bienes de consumo n.c.o.p",
          "_links": {
            "self": {
              "name": "Reparación de otros bienes de consumo n.c.o.p",
              "href": "https://api.euskadi.eus/procurements/companies/economic-activities/1.691.9"
            }
          }
        }
      ],
      "certificateStartDate": "2006-11-14",
      "certificateEndDate": "2007-04-02",
      "object": "A) LA COMPRA VENTA DE PELÍCULAS, PAPELES VÍRGENES, PLANCHAS OFFSET  Y PRODUCTOS QUÍMICOS PARA USOS FOTOGRÁFICOS, CINEMATOGRÁFICOS, FINES RADIOLÓGICOS Y ARTES GRÁFICAS.\r\n\r\nB) LA COMPRAVENTA Y LA DISTRIBUCIÓN EN TODAS SUS FORMAS:\r\n\r\n- DE APARATOS Y PRODUCTOS PARA LA FOTOGRAFÍA ASÍ COMO PARA SUS APLICACIONES, TALES COMO PAPEL,DIAPOSITIVAS  PELÍCULAS DE TODO TIPO, SISTEMAS DE REVELADO DE LAS MISMAS  E IMPRESIÓN E IMÁGENES, PLACAS Y OTRAS SUPERFICIES SENSIBLES, EMULSIONES Y PRODUCTOS QUÍMICOS FOTOGRÁFICOS.\r\n\r\n- DE TODOS LOS APARATOS, DISPOSITIVOS Y PRODUCTOS REFERENTES AL REGISTRO Y LA REPRODUCCIÓN DE IMÁGENES, DE LUZ, DE COLOR, DE SONIDO Y DE SEÑALES.\r\n\r\n-TODOS LOS APARATOS DISPOSITIVOS Y PRODUCTOS MECÁNICOS DE PRECISIÓN DE ÓPTICA FÍSICA Y ELECTRO-TÉCNICOS.\r\n \r\n- EQUIPOS PARA LA PRODUCCIÓN INDUSTRIAL Y PARA LA PRODUCCIÓN EN PUNTOS DE VENTA DETALLISTA, MAQUINARIA DE GRAN LABORATORIO Y MAQUINARIA MILILAB.\r\n\r\n-TODOS LOS MATERIALES, ARTÍCULOS Y MÁQUINAS DE OFICINA.\r\n\r\n-SISTEMAS, EQUIPOS Y MATERIALES DESTINADOS A LA INDUSTRIA GRÁFICA. TECNOLOGÍA Y SISTEMAS DE ORDENADOR A PLANCHA, SISTEMAS DE IMPRESIÓN, PRUEBAS DIGILAES, ESCÁNERES O DIGITALIZADORES DE IMAGEN, FILMADORAS, SOLUCIONES DE FLUJO DE TRABAJO, PELÍCULA, PLANCHAS Y PRODUCTOS QUÍMICOS. FUENTES TIPOGRÁFICAS EN SOPORTE DIGITAL.\r\n\r\n-TODO TIPO DE PRODUCTOS SANITARIOS, PELÍCULAS RADIOGRÁFICAS, SISTEMAS DE REVELADO DE PELÍCULAS E IMPRESIÓN DE IMÁGENES; SISTEMAS DE RADIOLOGÍA DIGITAL, SISTEMAS (HARDWARE Y SOFTWARE) DE INFORMACIÓN, GESTIÓN, ADQUISICIÓN, DIAGNÓSTICO, DICTADO, FIRMA ELECTRÓNICA, VISUALIZACIÓN, COMUNICACIÓN Y ARCHIVO.\r\n\r\nSISTEMAS Y EQUIPOS DE DIAGNÓSTICO NO DESTRUCTIVO, DIGITALIZADORES DE IMAGEN, DETECTORES DE FUGAS Y FALLOS, MEDIDORES, PELÍCULAS DE RAYOS X Y PROCESADORAS PARA EL REVELADO AUTOMÁTICO DE ÉSTAS ASÍ COMO EQUIPOS CON FUENTE IONIZANTE CONTROLADA Y SISTEMAS COMPLETOS COMPUESTOS POR CABINA Y TUBO, ASÍ COMO LA COMERCIALIZACIÓN DE SOFTWARE DE APLICACIONES PARA TODOS ESTOS SISTEMAS   \r\n\r\nC)LA PRESTACIÓN DE SERVICIOS, CAPTURA DE INFORMACIÓN POR MEDIOS ELECTRÓNICOS, INFORMÁTICOS Y TELEMÁTICOS; DESARROLLO Y MANTENIMIENTO DE PROGRAMAS DE ORDENADOR; MANTENIMIENTO Y REPARACIÓN  DE EQUIPOS E INSTALACIONES INFORMÁTICOS Y DE TELECOMUNICACIONES; TELECOMUNICACIONES; EXPLOTACIÓN Y CONTROL DE SISTEMAS INFORMÁTICOS;  FORMACIÓN DE DISTINTOS USUARIOS; MANTENIMIENTO Y REPARACIÓN DE EQUIPOS E INSTALACIONES ELÉCTRICAS,  ELECTRÓNICAS Y DE ELECTROMEDICINA; SERVICIOS DE CONSULTORÍA  RELACIONADOS CON LAS ACTIVIDADES DESCRITAS EN ESTE APARTADO.\r\n\r\n EL CUMPLIMIENTO DE TODOS LOS TRABAJOS, SERVICIOS Y PRESTACIONES CORRESPONDIENTES A LOS PRODUCTOS Y ARTÍCULOS ENUMERADOS ARRIBA.\r\n\r\nTALES ACTIVIDADES PODRÁN SER REALIZADAS POR LA SOCIEDAD, YA DIRECTAMENTE, YA INDIRECTAMENTE, INCLUSO MEDIANTE TITULARIDAD DE ACCIONES Y PARTICIPACIONES EN SOCIEDADES CON OBJETO IDÉNTICO, ANÁLOGO O PARECIDO. \r\n\r\nQUEDAN EXCLUIDAS DEL OBJETO SOCIAL TODAS AQUELLAS ACTIVIDADES PARA CUYO EJERCICIO LA LEY EXIJA REQUISITOS ESPECIALES QUFE NO QUEDEN CUMPLIDOS POR ESTA SOCIEDAD, EN CONCRETO PARA EL EJERCICIO DE LOS SERVICIOS RESERVADOS A ENTES PÚBLICOS POR LA LEGISLACIÓN EN MATERIA DE TELECOMUNICACIONES. SI LAS DISPOSICIONES LEGALES EXIGIESEN PARA EL EJERCICIO DE ALGUNAS DE LASS ACTIVIDADES COMPRENDIDAS EN EL OBJETO SOCIAL ALGÚN TÍTULO PROFESIONAL, O AUTORIZACIÓN ADMINISTRAATIVA, O INSCRIPCIÓN EN REGISTROS PÚBLICOS DE CUALQUIER CLASE, DICHAS ACTIVIDADES DEBERÁN REALIZARSE POR MEDIO DE PERSONA QUE OSTENTE DICHA TITULARIDAD PROFESIONAL, Y, EN SU CASO, NO PODRÁN INICIARSE ANTES DE QUE SE HAYAN CUMPLIDO LOS REQUISITOS ADMINISTRATIVOS EXIGIDOS. \r\n\r\n",
      "mainEntityOfPage": "https://www.contratacion.euskadi.eus/webkpe00-kperoc/es/ac71aBusquedaRegistrosWar/empresa/00656",
      "_links": {
        "self": {
          "name": "AGFA-GEVAERT, S.A.",
          "href": "https://api.euskadi.eus/procurements/companies/00656"
        }
      }
    },
    {
      "name": "MIGUEL ANGEL RUIZ ALBARRACIN",
      "registrationNumber": "03270",
      "identificationNumber": "30637757D",
      "address": "GRUPO MENDIGAIN, Nº 3-4 D",
      "location": {
        "postalCode": "48013",
        "municipality": "Bilbao",
        "county": "Bizkaia",
        "municipalityId": "020",
        "countyId": "48"
      },
      "economicActivities": [
        {
          "id": "1.501.3",
          "name": "Albañilería y pequeños trabajos de construcción en general",
          "_links": {
            "self": {
              "name": "Albañilería y pequeños trabajos de construcción en general",
              "href": "https://api.euskadi.eus/procurements/companies/economic-activities/1.501.3"
            }
          }
        }
      ],
      "certificateStartDate": "2006-11-14",
      "certificateEndDate": "2007-03-29",
      "mainEntityOfPage": "https://www.contratacion.euskadi.eus/webkpe00-kperoc/es/ac71aBusquedaRegistrosWar/empresa/03270",
      "_links": {
        "self": {
          "name": "MIGUEL ANGEL RUIZ ALBARRACIN",
          "href": "https://api.euskadi.eus/procurements/companies/03270"
        }
      }
    },
    {
      "name": "SCORPION SISTEMAS, S.A.",
      "registrationNumber": "03030",
      "identificationNumber": "A58967191",
      "address": "C/ SANCHO DE ÁVILA, 52-58",
      "location": {
        "postalCode": "08018",
        "municipality": "Barcelona",
        "county": "Barcelona",
        "municipalityId": "019",
        "countyId": "08"
      },
      "economicActivities": [
        {
          "id": "1.617.8",
          "name": "Venta al por mayor de máquinas y material de oficina",
          "_links": {
            "self": {
              "name": "Venta al por mayor de máquinas y material de oficina",
              "href": "https://api.euskadi.eus/procurements/companies/economic-activities/1.617.8"
            }
          }
        }
      ],
      "certificateStartDate": "2006-10-27",
      "certificateEndDate": "2007-03-15",
      "object": "LA COMPRAVENTA, IMPORTACIÓN, EXPORTACIÓN, INSTALACIÓN, MANTENIMIENTO, ASESORAMIENTO Y ALQUILER RELACIONADO CON CUALQUIER CLASE DE HARDWARE Y SOFTWARE",
      "mainEntityOfPage": "https://www.contratacion.euskadi.eus/webkpe00-kperoc/es/ac71aBusquedaRegistrosWar/empresa/03030",
      "_links": {
        "self": {
          "name": "SCORPION SISTEMAS, S.A.",
          "href": "https://api.euskadi.eus/procurements/companies/03030"
        }
      }
    },
    {
      "name": "ENYCA INGENIERIA Y COMUNICACIONES, S.A.",
      "registrationNumber": "03263",
      "identificationNumber": "A39616511",
      "address": "AVDA LA CERRADA 37",
      "location": {
        "postalCode": "39609",
        "municipality": "Camargo",
        "county": "Cantabria",
        "municipalityId": "016",
        "countyId": "39"
      },
      "economicActivities": [
        {
          "id": "1.845",
          "name": "Explotación electrónica por cuenta de terceros",
          "_links": {
            "self": {
              "name": "Explotación electrónica por cuenta de terceros",
              "href": "https://api.euskadi.eus/procurements/companies/economic-activities/1.845"
            }
          }
        }
      ],
      "certificateStartDate": "2006-10-24",
      "certificateEndDate": "2007-03-08",
      "object": "LA PRESTACIÓN DE SERVICIOS DE CONSULTORÍA, ENSEÑANZA YF ORMAICÓN, ASÍ COMO LA REALIZACIÓ DE PROYECTOS A NIVEL INDUSTRIAL Y DE GESTIÓN, OEN LOS CAMPOS DE LA INFORMÁTICA, ELECTRÓNICA, LAS TELECOMUNICACIONES, INSTALACIONES RADIOELÉCTRICAS Y LA SEGURIDAD Y VIGILANCIA; LA VENTA Y MANTENIMIENTO DE ORDENADORES Y DE TODO TIPO DE COMPONENTES INFORMÁTICOS DE MICROELECTRÓNICA Y MICROINFORMÁTICA; LA FABRICACIÓN, DESARROLLO, COMERCIALIZACIÓN Y MANTENIMIENTO DE APARATOS Y SISTEMAS DE SEGURIDAD EN PARTICULAR MEDIANTE LA INSTALACIÓN Y MANTENIMIENTO DE SISTEMAS FÍSICOS, ELECTRÓNICOS, ACÚSTICOS, VISUALES O INSTRUMENTOS DE VIGILANCIA Y PROTECCIÓN Y ESPECIALMENTE CON LA CONEXIÓN A CENTRO DE RECEPCIÓN DE ALARMAS; LA COMERCIALIZACIÓN DE PRODUCTOS Y TERMINALES TELEFÓNICOS, Y EN GENERAL DE TODO TIPO DE MATERIAL PROPIO DE COMUNICACIONES Y TELECOMUNICACIONES",
      "mainEntityOfPage": "https://www.contratacion.euskadi.eus/webkpe00-kperoc/es/ac71aBusquedaRegistrosWar/empresa/03263",
      "_links": {
        "self": {
          "name": "ENYCA INGENIERIA Y COMUNICACIONES, S.A.",
          "href": "https://api.euskadi.eus/procurements/companies/03263"
        }
      }
    }
  ]
}