{
  "totalItems": 9042,
  "totalPages": 905,
  "currentPage": 124,
  "itemsOfPage": 10,
  "items": [
    {
      "name": "EGITU ARQUITECTURA, INGENIERÍA y URBANISMO, S.L.P.",
      "registrationNumber": "07259",
      "identificationNumber": "B01585363",
      "address": "Pintor Teodoro Dublang, nº 7, bajo",
      "location": {
        "postalCode": "01008",
        "municipality": "Vitoria-Gasteiz",
        "county": "Araba/Álava",
        "municipalityId": "059",
        "countyId": "01"
      },
      "economicActivities": [
        {
          "id": "1.501.3",
          "name": "Albañilería y pequeños trabajos de construcción en general",
          "_links": {
            "self": {
              "name": "Albañilería y pequeños trabajos de construcción en general",
              "href": "https://api.euskadi.eus/procurements/companies/economic-activities/1.501.3"
            }
          }
        },
        {
          "id": "1.843.1",
          "name": "Servicios técnicos de ingeniería",
          "_links": {
            "self": {
              "name": "Servicios técnicos de ingeniería",
              "href": "https://api.euskadi.eus/procurements/companies/economic-activities/1.843.1"
            }
          }
        },
        {
          "id": "1.843.2",
          "name": "Servicios técnicos de arquitectura y urbanismo",
          "_links": {
            "self": {
              "name": "Servicios técnicos de arquitectura y urbanismo",
              "href": "https://api.euskadi.eus/procurements/companies/economic-activities/1.843.2"
            }
          }
        }
      ],
      "certificateStartDate": "2025-12-10",
      "certificateEndDate": "2026-05-30",
      "object": "LA REALIZACIÓN DE PROYECTOS DE INGENIERÍA TÉCNICA, ARQUITECTURA, URBANISMO Y MEDIO AMBIENTE, EN TODAS SUS RAMAS\t\r\n",
      "mainEntityOfPage": "https://www.contratacion.euskadi.eus/webkpe00-kperoc/es/ac71aBusquedaRegistrosWar/empresa/07259",
      "_links": {
        "self": {
          "name": "EGITU ARQUITECTURA, INGENIERÍA y URBANISMO, S.L.P.",
          "href": "https://api.euskadi.eus/procurements/companies/07259"
        }
      }
    },
    {
      "name": "D.T.S. OABE, S.L.",
      "registrationNumber": "07388",
      "identificationNumber": "B95218640",
      "address": "Pol. Ind. Zabale, 3",
      "location": {
        "postalCode": "48410",
        "municipality": "Orozko",
        "county": "Bizkaia",
        "municipalityId": "075",
        "countyId": "48"
      },
      "economicActivities": [
        {
          "id": "1.253.9",
          "name": "Fabricación de otros productos químicos de uso industrial n.c.o.p",
          "_links": {
            "self": {
              "name": "Fabricación de otros productos químicos de uso industrial n.c.o.p",
              "href": "https://api.euskadi.eus/procurements/companies/economic-activities/1.253.9"
            }
          }
        }
      ],
      "certificateStartDate": "2025-12-10",
      "certificateEndDate": "2026-06-07",
      "object": "LA FORMULACIÓN, FABRICACIÓN, ENVASADO, DISTRIBUCIÓN, REPRESENTACIÓN, COMERCIALIZACIÓN, IMPORTACIÓN Y EXPORTACIÓN, ELABORACIÓN DE INFORMES Y ESTUDIOS SOBRE LA EFICACIA Y VIABILIDAD, ASÍ COMO LA COMPRAVENTA DE: PRODUCTOS QUÍMICOS, SANITARIOS, FARMACÉUTICOS, FARMACÉUTICOS-VETERINARIOS, FITOSANITARIOS, ZOOSANITARIOS, PARA LA PROTECCIÓN DE LA MADERA Y BIOCIDAS DE USO AMBIENTAL, DOMÉSTICO, Y DE HIGIENE ALIMENTARIA, PRODUCTOS PARA LA ALIMENTACIÓN HUMANA Y ANIMAL, IMPORTADOS O DE PRODUCCIÓN NACIONAL, INCLUIDA SU APLICACIÓN, TANTO EN EL ESTADO ESPAÑOL COMO EN EL EXTRANJERO. LA COMPRAVENTA Y ARRENDAMIENTO DE TODA CLASE DE LOCALES COMERCIALES, VIVIENDAS, GARAJES Y TRASTEROS Y PABELLONES INDUSTRIALES",
      "mainEntityOfPage": "https://www.contratacion.euskadi.eus/webkpe00-kperoc/es/ac71aBusquedaRegistrosWar/empresa/07388",
      "_links": {
        "self": {
          "name": "D.T.S. OABE, S.L.",
          "href": "https://api.euskadi.eus/procurements/companies/07388"
        }
      }
    },
    {
      "name": "CB CONSULTORIA E INTEGRACION INFORMATICA, SL",
      "registrationNumber": "05516",
      "identificationNumber": "B84702042",
      "address": "Calle Juan Bravo, 3A",
      "location": {
        "postalCode": "28006",
        "municipality": "Madrid",
        "county": "Madrid",
        "municipalityId": "079",
        "countyId": "28"
      },
      "economicActivities": [
        {
          "id": "1.845",
          "name": "Explotación electrónica por cuenta de terceros",
          "_links": {
            "self": {
              "name": "Explotación electrónica por cuenta de terceros",
              "href": "https://api.euskadi.eus/procurements/companies/economic-activities/1.845"
            }
          }
        }
      ],
      "certificateStartDate": "2025-12-10",
      "certificateEndDate": "2026-06-08",
      "object": "LA PROGRAMACIÓN, ANÁLISIS, AUDITORÍAS Y ASESORAMIENTO DE SISTEMAS INFORMÁTICOS, COMERCIO DE ORDENADORES Y LA PRESTACIÓN DE TODO TIPO DE SERVICIOS RELACIONADOS CON LAS CITADAS ACTIVIDADES",
      "mainEntityOfPage": "https://www.contratacion.euskadi.eus/webkpe00-kperoc/es/ac71aBusquedaRegistrosWar/empresa/05516",
      "_links": {
        "self": {
          "name": "CB CONSULTORIA E INTEGRACION INFORMATICA, SL",
          "href": "https://api.euskadi.eus/procurements/companies/05516"
        }
      }
    },
    {
      "name": "DECORACIONES BIKAIN ISASA S.L.",
      "registrationNumber": "05762",
      "identificationNumber": "B20631883",
      "address": "BUSTINZURI S/N",
      "location": {
        "postalCode": "20800",
        "municipality": "Zarautz",
        "county": "Gipuzkoa",
        "municipalityId": "079",
        "countyId": "20"
      },
      "economicActivities": [
        {
          "id": "1.505.7",
          "name": "Trabajos en yeso y escayola y decoración de edificios y locales",
          "_links": {
            "self": {
              "name": "Trabajos en yeso y escayola y decoración de edificios y locales",
              "href": "https://api.euskadi.eus/procurements/companies/economic-activities/1.505.7"
            }
          }
        }
      ],
      "certificateStartDate": "2025-12-10",
      "certificateEndDate": "2026-06-08",
      "object": "LA CONSTRUCCIÓN DE TODA CLASE DE INMUEBLES, Y LA REALIZACIÓN DE OBRAS DE ALBAÑILERIA Y ESCAYOLA",
      "mainEntityOfPage": "https://www.contratacion.euskadi.eus/webkpe00-kperoc/es/ac71aBusquedaRegistrosWar/empresa/05762",
      "_links": {
        "self": {
          "name": "DECORACIONES BIKAIN ISASA S.L.",
          "href": "https://api.euskadi.eus/procurements/companies/05762"
        }
      }
    },
    {
      "name": "TELENOR COMUNICACIONES, S.L.",
      "registrationNumber": "01658",
      "identificationNumber": "B20359725",
      "address": "C/PORTUETXE, 14-3º. PUERTA 3. EDIF. IBAETA",
      "location": {
        "postalCode": "20018",
        "municipality": "Donostia / San Sebastián",
        "county": "Gipuzkoa",
        "municipalityId": "069",
        "countyId": "20"
      },
      "economicActivities": [
        {
          "id": "1.617.9",
          "name": "Venta al por mayor interindustrial de otros productos n.c.o.p",
          "_links": {
            "self": {
              "name": "Venta al por mayor interindustrial de otros productos n.c.o.p",
              "href": "https://api.euskadi.eus/procurements/companies/economic-activities/1.617.9"
            }
          }
        }
      ],
      "certificateStartDate": "2025-12-10",
      "certificateEndDate": "2026-06-07",
      "object": "LA COMERCIALIZACIÓN, VENTA, INSTALACIÓN Y MANTENIMIENTO DE PRODUCTOS DE TELECOMUNICACIÓN E INFORMÁTICA",
      "mainEntityOfPage": "https://www.contratacion.euskadi.eus/webkpe00-kperoc/es/ac71aBusquedaRegistrosWar/empresa/01658",
      "_links": {
        "self": {
          "name": "TELENOR COMUNICACIONES, S.L.",
          "href": "https://api.euskadi.eus/procurements/companies/01658"
        }
      }
    },
    {
      "name": "M.B.N. COMUNICACION",
      "registrationNumber": "03103",
      "identificationNumber": "B48617203",
      "address": "C/ SAN VICENTE 8  (EDIFICIO ALBIA I) 6º",
      "location": {
        "postalCode": "48001",
        "municipality": "Bilbao",
        "county": "Bizkaia",
        "municipalityId": "020",
        "countyId": "48"
      },
      "economicActivities": [
        {
          "id": "1.476.1",
          "name": "Edición de libros",
          "_links": {
            "self": {
              "name": "Edición de libros",
              "href": "https://api.euskadi.eus/procurements/companies/economic-activities/1.476.1"
            }
          }
        },
        {
          "id": "1.476.2",
          "name": "Edición de periódicos y revistas",
          "_links": {
            "self": {
              "name": "Edición de periódicos y revistas",
              "href": "https://api.euskadi.eus/procurements/companies/economic-activities/1.476.2"
            }
          }
        },
        {
          "id": "1.844",
          "name": "Servicios de publicidad, relaciones públicas y similares",
          "_links": {
            "self": {
              "name": "Servicios de publicidad, relaciones públicas y similares",
              "href": "https://api.euskadi.eus/procurements/companies/economic-activities/1.844"
            }
          }
        }
      ],
      "certificateStartDate": "2025-12-10",
      "certificateEndDate": "2026-06-05",
      "classification": [
        {
          "id": "S",
          "name": "Servicios",
          "groups": [
            {
              "id": "L",
              "subgroups": [
                {
                  "id": "05",
                  "name": "Organización y promoción de congresos, ferias y exposiciones",
                  "categories": [
                    {
                      "id": "1",
                      "name": "Desde 0 Hasta 150.000",
                      "_links": {
                        "self": {
                          "name": "Desde 0 Hasta 150.000",
                          "href": "https://api.euskadi.eus/procurements/companies/types/S/categories/1"
                        }
                      }
                    }
                  ],
                  "_links": {
                    "self": {
                      "name": "Organización y promoción de congresos, ferias y exposiciones",
                      "href": "https://api.euskadi.eus/procurements/companies/types/S/groups/L/subgroups/05"
                    }
                  }
                }
              ],
              "_links": {
                "self": {
                  "href": "https://api.euskadi.eus/procurements/companies/types/S/groups/L"
                }
              }
            },
            {
              "id": "M",
              "subgroups": [
                {
                  "id": "04",
                  "name": "Artes gráficas",
                  "categories": [
                    {
                      "id": "2",
                      "name": "Desde 150.001 Hasta 300.000",
                      "_links": {
                        "self": {
                          "name": "Desde 150.001 Hasta 300.000",
                          "href": "https://api.euskadi.eus/procurements/companies/types/S/categories/2"
                        }
                      }
                    }
                  ],
                  "_links": {
                    "self": {
                      "name": "Artes gráficas",
                      "href": "https://api.euskadi.eus/procurements/companies/types/S/groups/M/subgroups/04"
                    }
                  }
                }
              ],
              "_links": {
                "self": {
                  "href": "https://api.euskadi.eus/procurements/companies/types/S/groups/M"
                }
              }
            },
            {
              "id": "T",
              "subgroups": [
                {
                  "id": "01",
                  "name": "Servicios de publicidad",
                  "categories": [
                    {
                      "id": "1",
                      "name": "Desde 0 Hasta 150.000",
                      "_links": {
                        "self": {
                          "name": "Desde 0 Hasta 150.000",
                          "href": "https://api.euskadi.eus/procurements/companies/types/S/categories/1"
                        }
                      }
                    }
                  ],
                  "_links": {
                    "self": {
                      "name": "Servicios de publicidad",
                      "href": "https://api.euskadi.eus/procurements/companies/types/S/groups/T/subgroups/01"
                    }
                  }
                }
              ],
              "_links": {
                "self": {
                  "href": "https://api.euskadi.eus/procurements/companies/types/S/groups/T"
                }
              }
            }
          ],
          "_links": {
            "self": {
              "name": "Servicios",
              "href": "https://api.euskadi.eus/procurements/companies/types/S"
            }
          }
        }
      ],
      "object": "A) LA GESTIÓN DE EMPRESAS, TANTO DE NUEVA CREACIÓN COMO LAS YA EXISTENTES Y TANTO INDUSTRIALES COMO AGRÍCOLAS, COMERCIALES O DE SERVICIOS, ASÍ COMO LA PARTICIPACIÓN EN LAS MISMAS, BIEN  CON TENENCIA  DE ACCIONES O PARTICIPACIONES O CON PRESENCIA ACTIVA EN SUS ORGANOS DIRECTIVOS O DE GOBIERNO. TODAS ESTAS ACTIVIDADES PODRÁN REALIZARS EN NOMBRE DE LA SOCIEDAD O EN NOMBRE PROPIO DE CADA UNO DE LOS PARTÍCIPES O POR CUENTA DE TERCERAS PERSONAS, TANTO FÍSICAS COMO JURÍDICAS, QUE DEMANDEN TALES OPERACIONES; B) EL ESTUDIO Y ASESORAMIENTO DE NEGOCIOS, EMPRESAS Y OPERACIONES MERCANTILES TANTO DEL SECTOR INDUSTRIAL COMO AGRÍCOLA, COMERCIALES O DE SERVICIOS; C) LA REALIZACIÓN DE ACTIVIDADES DE GESTIÓN Y ASESORAMIENTO DE EMPRESAS EN LAS ÁREAS DE RECURSOS HUMANOS, ECONÓMICO-FINANCIERAS, IMAGEN Y COMUNICACIÓN, MARKETING, INFORMACIÓN BURSÁTIL, PROGRAMAS DE PRODUCCIÓN, TECNOLÓGICOS Y ORGANIZATIVOS, DE PRODUCCIÓN, TECNOLÓGICOS Y ORGANIZATIVOS, SEAN PERSONAS FÍSICAS O JURÍDICAS; D) LA ADQUISICIÓN, PROMOCIÓN Y GESTIÓN DE OPERACIONES INMOBILIARIAS Y URBANÍSTICAS Y EL ASESORAMIENTO DE LAS MISMAS; E) LA ADQUISICIÓN, ENAJENACIÓN, ADMINISTRACIÓN DE VALORES MOBILIARIOS E INMOBILIARIOS, CRÉDITOS Y CUALESQUIERA DERECHOS, PREVIO CUMPLIMIENTO DE LA NORMATIVA VIGENTE; F) LA PRESTACIÓN DE SERVICIOS DE PUBLICIDAD Y ASESORÍA DE COMUNICACIÓN, PROPAGANDA E IMAGEN CORPORATIVA, MEDIANTE CUALQUIER SISTEMA Y SU DIFUSIÓN EN MEDIOS DE COMUNICACIÓN SOCIAL, ASÍ COMO ORGANIZACIÓN DE CONGRESOS, CONVENCIONES, EXPOSICIONES, FERIAS Y RELACIONES PÚBLICAS",
      "mainEntityOfPage": "https://www.contratacion.euskadi.eus/webkpe00-kperoc/es/ac71aBusquedaRegistrosWar/empresa/03103",
      "_links": {
        "self": {
          "name": "M.B.N. COMUNICACION",
          "href": "https://api.euskadi.eus/procurements/companies/03103"
        }
      }
    },
    {
      "name": "KEPA LARREA MARRON",
      "registrationNumber": "10471",
      "identificationNumber": "72584837B",
      "address": "CALLE RODRIGUEZ ARIAS 23, 5ª PLANTA DPTO. 12 BIS",
      "location": {
        "postalCode": "48011",
        "municipality": "Bilbao",
        "county": "Bizkaia",
        "municipalityId": "020",
        "countyId": "48"
      },
      "economicActivities": [
        {
          "id": "2.421",
          "name": "Arquitectos técnicos y aparejadores",
          "_links": {
            "self": {
              "name": "Arquitectos técnicos y aparejadores",
              "href": "https://api.euskadi.eus/procurements/companies/economic-activities/2.421"
            }
          }
        }
      ],
      "certificateStartDate": "2025-12-10",
      "certificateEndDate": "2026-06-09",
      "object": "ARQUITECTOS TÉCNICOS Y APAREJADORES.",
      "mainEntityOfPage": "https://www.contratacion.euskadi.eus/webkpe00-kperoc/es/ac71aBusquedaRegistrosWar/empresa/10471",
      "_links": {
        "self": {
          "name": "KEPA LARREA MARRON",
          "href": "https://api.euskadi.eus/procurements/companies/10471"
        }
      }
    },
    {
      "name": "PROTECCIÓN Y SEGURIDAD NORTE, S.L.",
      "registrationNumber": "05441",
      "identificationNumber": "B95795993",
      "address": "Cra Erandiogoikoa Erandiondo Errepide 7",
      "location": {
        "postalCode": "48950",
        "municipality": "Erandio",
        "county": "Bizkaia",
        "municipalityId": "902",
        "countyId": "48"
      },
      "economicActivities": [
        {
          "id": "1.504.11",
          "name": "Instalaciones eléctricas en general, redes telegráficas, telefonía, tv, etc",
          "_links": {
            "self": {
              "name": "Instalaciones eléctricas en general, redes telegráficas, telefonía, tv, etc",
              "href": "https://api.euskadi.eus/procurements/companies/economic-activities/1.504.11"
            }
          }
        },
        {
          "id": "1.653.3",
          "name": "Venta al por menor de artículos de menaje, ferretería, adorno, regalo",
          "_links": {
            "self": {
              "name": "Venta al por menor de artículos de menaje, ferretería, adorno, regalo",
              "href": "https://api.euskadi.eus/procurements/companies/economic-activities/1.653.3"
            }
          }
        },
        {
          "id": "1.843.1",
          "name": "Servicios técnicos de ingeniería",
          "_links": {
            "self": {
              "name": "Servicios técnicos de ingeniería",
              "href": "https://api.euskadi.eus/procurements/companies/economic-activities/1.843.1"
            }
          }
        },
        {
          "id": "1.849.4",
          "name": "Servicios de custodia, seguridad y protección",
          "_links": {
            "self": {
              "name": "Servicios de custodia, seguridad y protección",
              "href": "https://api.euskadi.eus/procurements/companies/economic-activities/1.849.4"
            }
          }
        }
      ],
      "certificateStartDate": "2025-12-10",
      "certificateEndDate": "2026-06-06",
      "object": "LA PRESTACIÓN DE LOS SIGUIENTES SERVICIOS Y ACTIVIDADES: A) LA VIGILANCIA Y PROTECCIÓN DE BIENES, ESTABLECIMIENTOS, LUGARES Y EVENTOS, TANTO OPÚBLICOS COMO OPRIVADOS, ASÍ COMO DE LAS PERSONAS QUE PUEDIERAN ENCONTRARSE EN LOS MISMOS. B) EL ACOMPAÑAMIENTO, DEFENSA Y PROTECCIÓN DE PERSONAS FÍSICAS DETERMINADAS, INCLUÍDAS LAS QUE OSTENTEN LA CONDICIÓN LEGAL DE AUTORIDAD. C) EL DEPÓSITO, CUSTODIA, RECUENTO Y CLASIFICACIÓN DE MONEDAS Y BILLETES, TÍTULOS-VALORES, JOYAS, METALES PRECIOSOS, ANTIGÜEDADES, OBRAS DE ARTE U OTROS OBJETOS QUE, POR SU VALOR ECONÓMICO, HISTÓRICO O CULTURAL Y EXPECTATIVAS QUE GENEREN, PUEDAN REQUERIR VIGILANCIA Y PROTECCIÓN ESPECIAL. D) EL DEPÓSITO Y CUSTODIA DE EXPLOSIVOS, ARMAS, CARTUCHERÍA METÁLICA SUSTANCIAS, MATERIAS, MERCANCÍAS Y CUALESQUIERA OBJETOS QUE POR SU PELIGROSIDAD PRECISEN DE VIGILANCIA Y PROTECCIÓN ESPECIAL. E) EL TRANSPORTE Y DISTRIBUCIÓN DE LOS OBJETOS A QUE SE REFIEREN LOS DOS PÁRRAFOS ANTERIORES. F) LA INSTALACIÓN Y MANTENIMIENTO DE APARATOS, EQUIPOS, DISPOSITIVOS, SISTEMAS DE SEGURIDAD, CONECTADOS A CENTRALES RECEPTORAS DE ALARMAS O A CENTROS DE CONTROL O DE VÍDEO VIGILANCIA Y DE SISTEMAS DE PROTECCIÓN CONTRA INCENDIOS. G) LA EXPLOTACIÓN DE CENTRALES PARA LA CONEXIÓN, RECEPCIÓN, VERIFICACIÓN Y, EN SU CASO, RESPUESTA Y TRANSMISIÓN DE LAS SEÑALES DE ALARMA, ASÍ COMO LA MONITORIZACIÓN DE CUALESQUIERA SEÑALES DE DISPOSITIVOS AUXILIARES PARA LA SEGURIDAD DE PERSONAS, DE BIENES MUEBLES O INMUEBLES O DE CUMPLIMIENTO DE MEDIDAS IMPUESTAS Y LA COMUNICACIÓN A LAS FUERZAS Y CUERPOS DE SEGURIDAD COMPETENTES EN ESTOS CASOS ",
      "mainEntityOfPage": "https://www.contratacion.euskadi.eus/webkpe00-kperoc/es/ac71aBusquedaRegistrosWar/empresa/05441",
      "_links": {
        "self": {
          "name": "PROTECCIÓN Y SEGURIDAD NORTE, S.L.",
          "href": "https://api.euskadi.eus/procurements/companies/05441"
        }
      }
    },
    {
      "name": "ALMACENES ELECTRICOS VASCONGADOS, S.A.",
      "registrationNumber": "05926",
      "identificationNumber": "A48166169",
      "address": "C/GENERAL CONCHA, 25",
      "location": {
        "postalCode": "48010",
        "municipality": "Bilbao",
        "county": "Bizkaia",
        "municipalityId": "020",
        "countyId": "48"
      },
      "economicActivities": [
        {
          "id": "1.151.4",
          "name": "Producción de energía no especificada en otros epígrafes",
          "_links": {
            "self": {
              "name": "Producción de energía no especificada en otros epígrafes",
              "href": "https://api.euskadi.eus/procurements/companies/economic-activities/1.151.4"
            }
          }
        },
        {
          "id": "1.617.9",
          "name": "Venta al por mayor interindustrial de otros productos n.c.o.p",
          "_links": {
            "self": {
              "name": "Venta al por mayor interindustrial de otros productos n.c.o.p",
              "href": "https://api.euskadi.eus/procurements/companies/economic-activities/1.617.9"
            }
          }
        }
      ],
      "certificateStartDate": "2025-12-10",
      "certificateEndDate": "2026-05-27",
      "object": "LA FABRICACIÓN, MONTAJE, TRANSFORMACIÓN, REPARACIÓN, COMPRA, VENTA, ALMACENAMIENTO, DEPÓSITO, DISTRIBUCIÓN, GESTIÓN Y  COMERCIALIZACIÓN ASÍ COMO LA REPRESENTACIÓN DE MATERIAL Y APARATOS ELÉCTRICOS, INSTALACIONES ELÉCTRICAS EN GENERAL Y DE SUS ACCESORIOS Y DERIVADOS; LA CONTRATACIÓN, EJECUCIÓN DE OBRAS Y PRESTACIÓN DE SERVICIOS Y ASISTENCIA EN GENERAL DE INSTALACIONES PROPIAS Y AJENAS; LA MEDIACIÓN, GESTIÓN Y REPRESENTACIÓN DE TODA CLASE DE PRODUCTOS Y ARTÍCULOS DE LÍCITO COMERCIO, NACIONALES O EXTRANJEROS Y EN GENERAL CUANTO COMPLEMENTE O DESARROLLE LAS ACTIVIDADES PRINCIPALES ANTERIORES",
      "mainEntityOfPage": "https://www.contratacion.euskadi.eus/webkpe00-kperoc/es/ac71aBusquedaRegistrosWar/empresa/05926",
      "_links": {
        "self": {
          "name": "ALMACENES ELECTRICOS VASCONGADOS, S.A.",
          "href": "https://api.euskadi.eus/procurements/companies/05926"
        }
      }
    },
    {
      "name": "IKERKUDE, S.L.",
      "registrationNumber": "10470",
      "identificationNumber": "B02942712",
      "address": "Edificio Rectorado, Campus de Bizkaia, barrio Sarriena, S/N",
      "location": {
        "postalCode": "48940",
        "municipality": "Leioa",
        "county": "Bizkaia",
        "municipalityId": "054",
        "countyId": "48"
      },
      "economicActivities": [
        {
          "id": "1.251.2",
          "name": "Fabricación de otros productos químicos orgánicos",
          "_links": {
            "self": {
              "name": "Fabricación de otros productos químicos orgánicos",
              "href": "https://api.euskadi.eus/procurements/companies/economic-activities/1.251.2"
            }
          }
        },
        {
          "id": "1.936",
          "name": "Investigación científica y técnica",
          "_links": {
            "self": {
              "name": "Investigación científica y técnica",
              "href": "https://api.euskadi.eus/procurements/companies/economic-activities/1.936"
            }
          }
        }
      ],
      "certificateStartDate": "2025-12-10",
      "certificateEndDate": "2026-06-10",
      "object": "OTRA INVESTIGACIÓN Y DESARROLLO EXPERIMENTAL EN CIENCIAS NATURALES Y TÉCNICAS.",
      "mainEntityOfPage": "https://www.contratacion.euskadi.eus/webkpe00-kperoc/es/ac71aBusquedaRegistrosWar/empresa/10470",
      "_links": {
        "self": {
          "name": "IKERKUDE, S.L.",
          "href": "https://api.euskadi.eus/procurements/companies/10470"
        }
      }
    }
  ]
}