{
  "totalItems": 9042,
  "totalPages": 905,
  "currentPage": 436,
  "itemsOfPage": 10,
  "items": [
    {
      "name": "MELCHOR VILA MARTIARENA",
      "registrationNumber": "08777",
      "identificationNumber": "72487688Z",
      "address": "Auñamendi kalea, 4 -9.D",
      "location": {
        "postalCode": "20100",
        "municipality": "Lezo",
        "county": "Gipuzkoa",
        "municipalityId": "053",
        "countyId": "20"
      },
      "economicActivities": [
        {
          "id": "1.673.2",
          "name": "Otros cafés y bares",
          "_links": {
            "self": {
              "name": "Otros cafés y bares",
              "href": "https://api.euskadi.eus/procurements/companies/economic-activities/1.673.2"
            }
          }
        }
      ],
      "certificateStartDate": "2023-11-21",
      "certificateEndDate": "2024-05-20",
      "object": "OTROS CAFÉS Y BARES.",
      "mainEntityOfPage": "https://www.contratacion.euskadi.eus/webkpe00-kperoc/es/ac71aBusquedaRegistrosWar/empresa/08777",
      "_links": {
        "self": {
          "name": "MELCHOR VILA MARTIARENA",
          "href": "https://api.euskadi.eus/procurements/companies/08777"
        }
      }
    },
    {
      "name": "FINANZAUTO, S.A.",
      "registrationNumber": "00677",
      "identificationNumber": "A28006922",
      "address": "C/ Latón, 2",
      "location": {
        "postalCode": "28500",
        "municipality": "Arganda del Rey",
        "county": "Madrid",
        "municipalityId": "014",
        "countyId": "28"
      },
      "economicActivities": [
        {
          "id": "1.654.5",
          "name": "Venta al por menor de toda clase de maquinaría",
          "_links": {
            "self": {
              "name": "Venta al por menor de toda clase de maquinaría",
              "href": "https://api.euskadi.eus/procurements/companies/economic-activities/1.654.5"
            }
          }
        },
        {
          "id": "1.655.3",
          "name": "Venta al por menor de carburantes para el surtido de vehículos",
          "_links": {
            "self": {
              "name": "Venta al por menor de carburantes para el surtido de vehículos",
              "href": "https://api.euskadi.eus/procurements/companies/economic-activities/1.655.3"
            }
          }
        },
        {
          "id": "1.692",
          "name": "Reparación de maquinaria industrial",
          "_links": {
            "self": {
              "name": "Reparación de maquinaria industrial",
              "href": "https://api.euskadi.eus/procurements/companies/economic-activities/1.692"
            }
          }
        },
        {
          "id": "1.852",
          "name": "Alquiler de maquinaria y equipo para la construcción",
          "_links": {
            "self": {
              "name": "Alquiler de maquinaria y equipo para la construcción",
              "href": "https://api.euskadi.eus/procurements/companies/economic-activities/1.852"
            }
          }
        }
      ],
      "certificateStartDate": "2023-11-20",
      "certificateEndDate": "2024-05-17",
      "object": "LA FABRICACIÓN, COMPRA, VENTA, ARRENDAMIENTO, IMPORTACIÓN, EXPORTACIÓN, DISTRIBUCIÓN Y COMISIÓN DE ADQUISICIÓN O VENTA, DE TODA CLASE DE VEHÍCULOS Y MAQUINARIA DE OBRAS PÚBLICAS, INDUSTRIAL, AGRÍCOLA Y PARA LA CONSTRUCCIÓN, DE MOTORES Y GRUPOS ELECTRÓGENOS, DE EQUIPOS DE MANUTENCIÓN COMO CARRETILLAS, Y DE LOS DE ACCESORIOS, REPUESTOS, APARATOS Y ELEMENTOS DE TALES BIENES, CON LA ASISTENCIA TÉCNICA Y DE SERVICIOS QUE LOS MISMOS REQUIERAN. LA COMPRA, VENTA, ADMINISTRACIÓN, EXPLOTACIÓN O ARRIENDO O EN OTRA FORMA DE CUALESQUIERA OTROS BIENES MUEBLES Y DE TODA CLASE DE BIENES INMUEBLES. LA ADQUISICIÓN, SUSCRIPCIÓN, TENENCIA, DISFRUTE, ADMINISTRACIÓN Y ENAJENACIÓN DE TODA CLASE DE VALORES MOBILIARIOS POR CUENTA PROPIA",
      "mainEntityOfPage": "https://www.contratacion.euskadi.eus/webkpe00-kperoc/es/ac71aBusquedaRegistrosWar/empresa/00677",
      "_links": {
        "self": {
          "name": "FINANZAUTO, S.A.",
          "href": "https://api.euskadi.eus/procurements/companies/00677"
        }
      }
    },
    {
      "name": "SILVIA RUIZ GONZALEZ",
      "registrationNumber": "06320",
      "identificationNumber": "15995667H",
      "address": "Eguia 12",
      "location": {
        "postalCode": "20012",
        "municipality": "Donostia / San Sebastián",
        "county": "Gipuzkoa",
        "municipalityId": "069",
        "countyId": "20"
      },
      "economicActivities": [
        {
          "id": "1.861.2",
          "name": "Alquiler de locales industriales y otros alquileres n.c.o.p",
          "_links": {
            "self": {
              "name": "Alquiler de locales industriales y otros alquileres n.c.o.p",
              "href": "https://api.euskadi.eus/procurements/companies/economic-activities/1.861.2"
            }
          }
        }
      ],
      "certificateStartDate": "2023-11-15",
      "certificateEndDate": "2024-05-15",
      "object": "VENTA AL POR MENOR DE CALZADO, ROPA Y COMPLEMENTOS",
      "mainEntityOfPage": "https://www.contratacion.euskadi.eus/webkpe00-kperoc/es/ac71aBusquedaRegistrosWar/empresa/06320",
      "_links": {
        "self": {
          "name": "SILVIA RUIZ GONZALEZ",
          "href": "https://api.euskadi.eus/procurements/companies/06320"
        }
      }
    },
    {
      "name": "OMFE, S.A.",
      "registrationNumber": "09030",
      "identificationNumber": "A79144317",
      "address": "CARRETERA DE FUENCARRAL A ALCOBENDAS Nº 6",
      "location": {
        "postalCode": "28049",
        "municipality": "Madrid",
        "county": "Madrid",
        "municipalityId": "079",
        "countyId": "28"
      },
      "economicActivities": [
        {
          "id": "1.612.1",
          "name": "Venta al por mayor de toda clase de productos alimenticios, bebidas, tabaco",
          "_links": {
            "self": {
              "name": "Venta al por mayor de toda clase de productos alimenticios, bebidas, tabaco",
              "href": "https://api.euskadi.eus/procurements/companies/economic-activities/1.612.1"
            }
          }
        },
        {
          "id": "1.614.1",
          "name": "Venta al por mayor de productos farmacéuticos y medicamentos",
          "_links": {
            "self": {
              "name": "Venta al por mayor de productos farmacéuticos y medicamentos",
              "href": "https://api.euskadi.eus/procurements/companies/economic-activities/1.614.1"
            }
          }
        },
        {
          "id": "1.617.4",
          "name": "Venta al por mayor de materiales de construcción, vidrio y artículos instalación",
          "_links": {
            "self": {
              "name": "Venta al por mayor de materiales de construcción, vidrio y artículos instalación",
              "href": "https://api.euskadi.eus/procurements/companies/economic-activities/1.617.4"
            }
          }
        },
        {
          "id": "1.618.1",
          "name": "Comerciales exportadoras",
          "_links": {
            "self": {
              "name": "Comerciales exportadoras",
              "href": "https://api.euskadi.eus/procurements/companies/economic-activities/1.618.1"
            }
          }
        },
        {
          "id": "1.619.2",
          "name": "Venta al por mayor de aparatos e instrumentos médicos, ortopédicos, ópticos",
          "_links": {
            "self": {
              "name": "Venta al por mayor de aparatos e instrumentos médicos, ortopédicos, ópticos",
              "href": "https://api.euskadi.eus/procurements/companies/economic-activities/1.619.2"
            }
          }
        },
        {
          "id": "1.849.9",
          "name": "Otros servicios independientes n.c.o.p",
          "_links": {
            "self": {
              "name": "Otros servicios independientes n.c.o.p",
              "href": "https://api.euskadi.eus/procurements/companies/economic-activities/1.849.9"
            }
          }
        }
      ],
      "certificateStartDate": "2023-11-14",
      "certificateEndDate": "2024-05-14",
      "object": "1ª. LA OBTENCIÓN, LA FABRICACIÓN, EL ALMACENAMIENTO Y LA COMERCIALIZACIÓN DE MEDICAMENTOS DESTINADOS AL CONSUMO HUMANO, ESPECIALIDADES FARMACÉUTICAS, PRODUCTOS SANITARIOS Y HOSPITALARIOS, APÓSITOS, ASÍ COMO DE PRODUCTOS DIETÉTICOS. 2ª. LA OBTENCIÓN, LA FABRICACIÓN, EL ALMACENAMIENTO Y LA COMERCIALIZACIÓN DE PRODUCTOS DE PARAFARMACIA. 3ª. LA FABRICACIÓN, EL ALMACENAMIENTO Y LA COMERCIALIZACIÓN DE MATERIAL QUIRÚRGICO. 4ª. LA FABRICACIÓN, EL ALMACENAMIENTO Y LA COMERCIALIZACIÓN DE MATERIAL ORTOPÉDICO. 5ª LA FABRICACIÓN, EL ALMACENAMIENTO Y LA COMERCIALIZACIÓN DE PRODUCTOS DE PERFUMERÍA. 6ª. LA FABRICACIÓN, EL ALMACENAMIENTO Y LA COMERCIALIZACIÓN DE MUEBLES, INSTRUMENTOS TÉCNICOS Y MÁQUINAS PARA LAS OFICINAS DE FARMACIA, ASÍ COMO PARA LOS ESTABLECIMIENTOS SANITARIOS, PÚBLICOS O PRIVADOS. 7ª. LA FABRICACIÓN, DISTRIBUCIÓN Y COMERCIALIZACIÓN DE TODA CLASE DE PRODUCTOS AGRÍCOLAS, INDUSTRIALES, COMERCIALES Y DE SERVICIOS, CUYO DESTINO SEA SU USO Y CONSUMO EN LA ALIMENTACIÓN, VESTIDO, VIVIENDA Y HOGAR, DECORACIÓN, ESPARCIMIENTO, RECREO, CULTURA, EQUIPAMIENTO, ENSEÑANZA, INCLUIDOS TODA CLASE DE PRODUCTOS Y PREPARADOS QUÍMICOS, BIOLÓGICOS Y DE ORIGEN VEGETAL, PARA USO INDUSTRIAL, FARMACÉUTICO, VETERINARIO, FITOSANITARIO, COSMÉTICO Y ALIMENTICIO. 8ª. LA FABRICACIÓN, MONTAJE, COMERCIALIZACIÓN, DISTRIBUCIÓN O REPRESENTACIÓN DE TODA CLASE DE BIENES DE EQUIPO, MAQUINARIA Y UTILLAJE DE USO INDUSTRIAL. 9. LA ELABORACIÓN Y PRESTACIÓN A TERCEROS DE ESTUDIOS, ASESORAMIENTO Y GESTIONES, TANTO EN ESPAÑA COMO EN EL EXTRANJERO DE TIPO TÉCNICO, COMERCIAL O ECONÓMICO.",
      "mainEntityOfPage": "https://www.contratacion.euskadi.eus/webkpe00-kperoc/es/ac71aBusquedaRegistrosWar/empresa/09030",
      "_links": {
        "self": {
          "name": "OMFE, S.A.",
          "href": "https://api.euskadi.eus/procurements/companies/09030"
        }
      }
    },
    {
      "name": "FORESTALES MURGA S.L.",
      "registrationNumber": "06892",
      "identificationNumber": "B01132612",
      "address": "POLIGONO INDUSTRIAL AIALA NUMERO 14",
      "location": {
        "postalCode": "01479",
        "municipality": "Amurrio",
        "county": "Araba/Álava",
        "municipalityId": "002",
        "countyId": "01"
      },
      "economicActivities": [
        {
          "id": "1.912",
          "name": "Servicios forestales",
          "_links": {
            "self": {
              "name": "Servicios forestales",
              "href": "https://api.euskadi.eus/procurements/companies/economic-activities/1.912"
            }
          }
        }
      ],
      "certificateStartDate": "2023-11-12",
      "certificateEndDate": "2024-05-12",
      "object": "LA INSTALACIÓN, ADQUISICIÓN Y EXPLOTACIÓN DE ESTABLECIMIENTOS DE SERRERÍA Y ELABORACIÓN DE MADERAS DE CUALQUIER CLASE; Y LA EXPLOTACIÓN FORESTAL DE FINCAS, TERRENOS O MONTES, Y LA COMPRA, VENTA, ALQUILER O ARRENDAMIENTO DE LAS MISMAS",
      "mainEntityOfPage": "https://www.contratacion.euskadi.eus/webkpe00-kperoc/es/ac71aBusquedaRegistrosWar/empresa/06892",
      "_links": {
        "self": {
          "name": "FORESTALES MURGA S.L.",
          "href": "https://api.euskadi.eus/procurements/companies/06892"
        }
      }
    },
    {
      "name": "ALBINO DIAS ANDRADE, S.L.",
      "registrationNumber": "07821",
      "identificationNumber": "B83720029",
      "address": "Av. Garcia Barbon, 75",
      "location": {
        "postalCode": "36201",
        "municipality": "Vigo",
        "county": "Pontevedra",
        "municipalityId": "057",
        "countyId": "36"
      },
      "economicActivities": [
        {
          "id": "1.614.1",
          "name": "Venta al por mayor de productos farmacéuticos y medicamentos",
          "_links": {
            "self": {
              "name": "Venta al por mayor de productos farmacéuticos y medicamentos",
              "href": "https://api.euskadi.eus/procurements/companies/economic-activities/1.614.1"
            }
          }
        },
        {
          "id": "1.614.2",
          "name": "Venta al por mayor de productos de perfumería, droguería, higiene y belleza",
          "_links": {
            "self": {
              "name": "Venta al por mayor de productos de perfumería, droguería, higiene y belleza",
              "href": "https://api.euskadi.eus/procurements/companies/economic-activities/1.614.2"
            }
          }
        }
      ],
      "certificateStartDate": "2023-11-12",
      "certificateEndDate": "2024-05-12",
      "object": "1 - LA COMERCIALIZACIÓN DE GASAS, VENDAS Y OTROS MATERIALES DE VENDAJE. 2 - LA COMERCIALIZACIÓN DE TODO TIPO DE PRODUCTOS, SEA CUAL SEA EL MATERIAL DE QUE ESTÉN COMPUESTOS, SINTÉTICO O NATURAL, RELACIONADO CON LAS CURAS, HIGIENE E INCONTINENCIAS",
      "mainEntityOfPage": "https://www.contratacion.euskadi.eus/webkpe00-kperoc/es/ac71aBusquedaRegistrosWar/empresa/07821",
      "_links": {
        "self": {
          "name": "ALBINO DIAS ANDRADE, S.L.",
          "href": "https://api.euskadi.eus/procurements/companies/07821"
        }
      }
    },
    {
      "name": "DIMEDIX SURGICAL, S.L.",
      "registrationNumber": "08040",
      "identificationNumber": "B65246084",
      "address": "Pje. Santa Fe, 6 - 1º 4ª",
      "location": {
        "postalCode": "08191",
        "municipality": "Rubí",
        "county": "Barcelona",
        "municipalityId": "184",
        "countyId": "08"
      },
      "economicActivities": [
        {
          "id": "1.619.2",
          "name": "Venta al por mayor de aparatos e instrumentos médicos, ortopédicos, ópticos",
          "_links": {
            "self": {
              "name": "Venta al por mayor de aparatos e instrumentos médicos, ortopédicos, ópticos",
              "href": "https://api.euskadi.eus/procurements/companies/economic-activities/1.619.2"
            }
          }
        }
      ],
      "certificateStartDate": "2023-11-11",
      "certificateEndDate": "2024-05-11",
      "object": "LA PROMOCIÓN, DISTRIBUCIÓN Y COMERCIALIZACIÓN DE DIFERENTES DISPOSITIVOS MÉDICO-SANITARIOS, ENTRE ELLOS CÁNULAS PARA PERFUSIÓN DE SANGRE EN CARÓTIDAS, DISECTORES DE VENA SAFENA POR VÍA ENDOSCÓPICA, SEPARADORES ESTERNALES Y CLAMPS CORONARIOS.",
      "mainEntityOfPage": "https://www.contratacion.euskadi.eus/webkpe00-kperoc/es/ac71aBusquedaRegistrosWar/empresa/08040",
      "_links": {
        "self": {
          "name": "DIMEDIX SURGICAL, S.L.",
          "href": "https://api.euskadi.eus/procurements/companies/08040"
        }
      }
    },
    {
      "name": "COX ENERGIA COMERCIALIZADORA ESPAÑA, S.L.",
      "registrationNumber": "09303",
      "identificationNumber": "B87166435",
      "address": "calle Velázquez 4 1ªplanta  28001-Madrid",
      "location": {
        "postalCode": "28001",
        "municipality": "Madrid",
        "county": "Madrid",
        "municipalityId": "079",
        "countyId": "28"
      },
      "economicActivities": [
        {
          "id": "1.501.1",
          "name": "Construcción completa, reparación y conservación de edificaciones",
          "_links": {
            "self": {
              "name": "Construcción completa, reparación y conservación de edificaciones",
              "href": "https://api.euskadi.eus/procurements/companies/economic-activities/1.501.1"
            }
          }
        },
        {
          "id": "1.503.2",
          "name": "Preparación y montaje de estructuras y cubiertas en obras civiles",
          "_links": {
            "self": {
              "name": "Preparación y montaje de estructuras y cubiertas en obras civiles",
              "href": "https://api.euskadi.eus/procurements/companies/economic-activities/1.503.2"
            }
          }
        },
        {
          "id": "1.504.1",
          "name": "Instalaciones eléctricas en general",
          "_links": {
            "self": {
              "name": "Instalaciones eléctricas en general",
              "href": "https://api.euskadi.eus/procurements/companies/economic-activities/1.504.1"
            }
          }
        },
        {
          "id": "1.843.1",
          "name": "Servicios técnicos de ingeniería",
          "_links": {
            "self": {
              "name": "Servicios técnicos de ingeniería",
              "href": "https://api.euskadi.eus/procurements/companies/economic-activities/1.843.1"
            }
          }
        }
      ],
      "certificateStartDate": "2023-11-10",
      "certificateEndDate": "2024-05-10",
      "object": "LA COMERCIALIZACIÓN DE ENERGÍA ELÉCTRICA A CONSUMIDORES QUE TENGAN LA CONDICIÓN DE CUALIFICADOS O A CUALESQUIERA OTROS SUJETOS DEL SISTEMA ELÉCTRICO, MEDIANTE CUALQUIER TIPO DE CONTRATACIÓN LEGALMENTE PERMITIDA, ASÍ COMO LA PRESTACIÓN DE SERVICIOS DE INGENIERÍA, ASESORAMIENTO Y GESTIÓN DE TODO TIPO DE PROYECTOS ENERGÉTICOS. VENTA DE LA ENERGÍA ELÉCTRICA GENERADA A TRAVÉS DE LA PARTICIPACIÓN EN EL MERCADO DE PRODUCCIÓN Y A TRAVÉS DE VENTAS A CONSUMIDORES, INCLUYENDO LA CELEBRACIÓN DE CUALQUIER TIPO DE CONTRATO DE COMPRAVENTA DE ELECTRICIDAD, TANTO FÍSICO BILATERAL, COMO POR DIFERENCIAS O PURAMENTE FINANCIERO SOBRE LOS PRECIOS DE LA ELECTRICIDAD O DE OTROS SERVICIOS, PERO CON EXPRESA EXCLUSIÓN DE LAS ACTIVIDADES REGULADAS DE DISTRIBUCIÓN Y TRANSPORTE DE ELECTRICIDAD.",
      "mainEntityOfPage": "https://www.contratacion.euskadi.eus/webkpe00-kperoc/es/ac71aBusquedaRegistrosWar/empresa/09303",
      "_links": {
        "self": {
          "name": "COX ENERGIA COMERCIALIZADORA ESPAÑA, S.L.",
          "href": "https://api.euskadi.eus/procurements/companies/09303"
        }
      }
    },
    {
      "name": "SALVA INDUSTRIAL, S.L.",
      "registrationNumber": "08444",
      "identificationNumber": "B75211391",
      "address": "CTRA GI-636, KM 6",
      "location": {
        "postalCode": "20100",
        "municipality": "Lezo",
        "county": "Gipuzkoa",
        "municipalityId": "053",
        "countyId": "20"
      },
      "economicActivities": [
        {
          "id": "1.324.1",
          "name": "Construcción de máquinas industriales alimenticias, bebidas y tabaco",
          "_links": {
            "self": {
              "name": "Construcción de máquinas industriales alimenticias, bebidas y tabaco",
              "href": "https://api.euskadi.eus/procurements/companies/economic-activities/1.324.1"
            }
          }
        }
      ],
      "certificateStartDate": "2023-11-10",
      "certificateEndDate": "2024-05-01",
      "object": "LA FABRICACIÓN, REPARACIÓN, VENTA, COMERCIALIZACIÓN, IMPORTACIÓN Y EXPORTACIÓN DE TODA CLASE DE MAQUINARIA PARA LA INDUSTRIA DE PANADERÍA, PASTELERÍA, HOSTELERÍA Y ALIMENTACIÓN EN GENERAL. SU CNAE PRINCIPAL ES 2893 FABRICACIÓN DE MAQUINARIA PARA LA INDUSTRIA DE LA ALIMENTACIÓN, BEBIDAS Y TABACO.",
      "mainEntityOfPage": "https://www.contratacion.euskadi.eus/webkpe00-kperoc/es/ac71aBusquedaRegistrosWar/empresa/08444",
      "_links": {
        "self": {
          "name": "SALVA INDUSTRIAL, S.L.",
          "href": "https://api.euskadi.eus/procurements/companies/08444"
        }
      }
    },
    {
      "name": "BLUCOM CONSULTING, S.L.",
      "registrationNumber": "09300",
      "identificationNumber": "B95766846",
      "address": "PG/ INDUSTRIAL EL ARBOL, 25",
      "location": {
        "postalCode": "48980",
        "municipality": "Santurtzi",
        "county": "Bizkaia",
        "municipalityId": "082",
        "countyId": "48"
      },
      "economicActivities": [
        {
          "id": "1.845",
          "name": "Explotación electrónica por cuenta de terceros",
          "_links": {
            "self": {
              "name": "Explotación electrónica por cuenta de terceros",
              "href": "https://api.euskadi.eus/procurements/companies/economic-activities/1.845"
            }
          }
        }
      ],
      "certificateStartDate": "2023-11-10",
      "certificateEndDate": "2024-05-10",
      "object": "1. CONSTRUCCIÓN, INSTALACIONES Y MANTENIMIENTO. 2. COMERCIO AL POR MAYOR Y AL POR MENOR. DISTRIBUCIÓN COMERCIAL , IMPORTACIÓN Y EXPORTACIÓN. 3. ACTIVIDADES INMOBILIARIAS. 4. INDUSTRIAS MANUFACTURERAS Y TEXTILES. 5. TURISMO, HOISTELERÍA Y RESTAURACIÓN. 6. PRESTACIÓN DE SERVICIOS. ACTIVIDADES DE GESTIÓN Y ADMINISTRACIÓN. SERVICIOS EDUCATIVOS, DE OCIO Y ENTRETENIMIENTO. 7. TRANSPORTE Y ALMACENAMIENTO. 8. INFORMACIÓN Y COMUNICACIONES. 9. AGRUICULTURA, GANADERÍA Y PESCA. 10. INFORMÁTICA, TELECOMUNICACIONES Y OFIMÁTICA. 11. ENERGÍAS ALTERNATIVAS. 12. COMPRAVENTA Y REPARACIÓN DE VEHÍCULOS. REPARACIÓN Y MANTENIMIENTO DE INSTALACIONES Y MAQUINARIA. 13. INVESTIGACIÓN, DESARROLLO E INNOVACIÓN. 14. ACTIVIDADES CIENTÍFICAS Y TÉCNICAS.",
      "mainEntityOfPage": "https://www.contratacion.euskadi.eus/webkpe00-kperoc/es/ac71aBusquedaRegistrosWar/empresa/09300",
      "_links": {
        "self": {
          "name": "BLUCOM CONSULTING, S.L.",
          "href": "https://api.euskadi.eus/procurements/companies/09300"
        }
      }
    }
  ]
}