{
  "totalItems": 9042,
  "totalPages": 905,
  "currentPage": 158,
  "itemsOfPage": 10,
  "items": [
    {
      "name": "ASOCIACION DE FERIANTES AUTONOMOS DE EUSKADI",
      "registrationNumber": "10426",
      "identificationNumber": "G20153011",
      "address": "Camino Astigarragako bidea 4, planta 1ª, Local 64",
      "location": {
        "postalCode": "20180",
        "municipality": "Oiartzun",
        "county": "Gipuzkoa",
        "municipalityId": "063",
        "countyId": "20"
      },
      "economicActivities": [
        {
          "id": "1.849.9",
          "name": "Otros servicios independientes n.c.o.p",
          "_links": {
            "self": {
              "name": "Otros servicios independientes n.c.o.p",
              "href": "https://api.euskadi.eus/procurements/companies/economic-activities/1.849.9"
            }
          }
        },
        {
          "id": "1.966.9",
          "name": "Otros servicios culturales n.c.o.p",
          "_links": {
            "self": {
              "name": "Otros servicios culturales n.c.o.p",
              "href": "https://api.euskadi.eus/procurements/companies/economic-activities/1.966.9"
            }
          }
        }
      ],
      "certificateStartDate": "2025-11-17",
      "certificateEndDate": "2026-03-30",
      "object": "A) LA DEFENSA DE LOS INTERESES PECULIARES DETERMINADOS POR LA ACTIVIDAD PROFESIONAL DE QUIENES LA CONSTITUYEN, OSTENTADO LA REPRESENTACIÓN DE TODOS Y CADA UNO DE LOS ENCUADRADOS. B) EJERCER ANTE LOS TRIBUNALES, O CUALESQUIERA OTROS ORGANISMOS PÚBLICOS O SINDICALES, LAS ACCIONES QUE PROCEDAN CON ARREGLO A LAS LEYES.  C) ADHERIRSE, EN SU CASO, Y PARTICIPAR EN LA CONSTITUCIÓN DE FEDERACIONES Y CONFEDERACIONES DE LAS RAMAS DEL ESPECTÁCULO DE ÁMBITO REGIONAL O NACIONAL Y EN AQUELLOS ORGANISMOS Y ENTIDADES DE CARÁCTER NACIONAL O INTERNACIONAL QUE INTEGREN UNA LÍNEA DE ACCIÓN EMPRESARIAL COMUNITARIA. D) ADQUIRIR, POSEER Y ENAJENAR BIENES Y CONTRAER OBLIGACIONES CON SUJECIÓN A LAS NORMAS REGLAMENTARIAS. E) ORGANIZAR ACTIVIDADES DE CARÁCTER ASISTENCIAL Y COOPERATIVO Y MONTAR SERVICIOS DE ASESORAMIENTO E INFORMACIÓN EN BENEFICIO DE SUS ASOCIADOS. F) REPRESENTAR, GESTIONAR, DEFENDER LOS INTERESES PROFESIONALES DE LOS INDUSTRIALES ASOCIADOS, ANTE TODA CLASE DE PERSONAS Y ENTIDADES PÚBLICAS O PRIVADAS Y SINGULARMENTE ANTE LA ADMINISTRACIÓN Y LAS ASOCIACIONES SINDICALES DE LOS TRABAJADORES Y TÉCNICOS, PUDIENDO INTERVENIR Y PARTICIPAR EN LA CELEBRACIÓN DE SUBASTAS, CONVENIOS, PACTOS Y ACUERDOS ADMINISTRATIVOS, FISCALES, PRIVADOS, LABORALES Y SU CORRESPONDIENTE TRAMITACIÓN EN REPRESENTACIÓN DE LOS ASOCIADOS. G) LA DISTRIBUCIÓN CONTROLADA POR LA GEOGRAFÍA DE EUSKADI DE TODOS LOS INDUSTRIALES DEL RAMO A LOS FINES DE EVITAR COMPETENCIAS DESLEALES ENTRE LOS MISMOS Y QUE PUEDAN TRABAJAR POR TODA ELLA BAJO DICHO CONTROL SATISFACIENDO LAS NECESIDADES DE FERIAS, FIESTAS Y PÚBLICO CON ORDEN CONVENCIONAL DIRIGIDO POR ESTA ASOCIACIÓN PARA IMPEDIR LOS ABUSOS QUE SE COMETEN O INTENTEN COMETER POR LAS ENTIDADES CONCESIONARIOS DE LOS TERRENOS DONDE LOS INDUSTRIALES DEL RAMO HAN DE COLOCAR SUS INSTALACIONES, DURANTE EL TIEMPO REGULAR DE DURACIÓN DE LAS FERIAS Y FIESTAS DE TODA LA GEOGRAFÍA DE EUSKADI, COMO BASE DEL SISTEMA ECONÓMICO, ENTENDIDA COMO CONJUNCIÓN DE LOS FACTORES ECONÓMICOS Y SOCIALES QUE LA INTEGRAN, REFIRIÉNDOSE TODO ELLO A LOS PROPIOS ASOCIADOS.",
      "mainEntityOfPage": "https://www.contratacion.euskadi.eus/webkpe00-kperoc/es/ac71aBusquedaRegistrosWar/empresa/10426",
      "_links": {
        "self": {
          "name": "ASOCIACION DE FERIANTES AUTONOMOS DE EUSKADI",
          "href": "https://api.euskadi.eus/procurements/companies/10426"
        }
      }
    },
    {
      "name": "TAUPADA ABENTURA, S.L.",
      "registrationNumber": "08366",
      "identificationNumber": "B05275680",
      "address": "Argiñena 2b-1ºD",
      "location": {
        "postalCode": "48630",
        "municipality": "Gorliz",
        "county": "Bizkaia",
        "municipalityId": "043",
        "countyId": "48"
      },
      "economicActivities": [
        {
          "id": "1.965.2",
          "name": "Espectáculos al aire libre (excepto los taurinos)",
          "_links": {
            "self": {
              "name": "Espectáculos al aire libre (excepto los taurinos)",
              "href": "https://api.euskadi.eus/procurements/companies/economic-activities/1.965.2"
            }
          }
        },
        {
          "id": "1.967.2",
          "name": "Escuelas y servicios de perfeccionamiento del deporte",
          "_links": {
            "self": {
              "name": "Escuelas y servicios de perfeccionamiento del deporte",
              "href": "https://api.euskadi.eus/procurements/companies/economic-activities/1.967.2"
            }
          }
        }
      ],
      "certificateStartDate": "2025-11-17",
      "certificateEndDate": "2026-05-04",
      "object": "LA GESTIÓN DE ACTIVIDADES DE TURISMO ACTIVO Y DEPORTES DE AVENTURA (SENDERISMO, SURF, BODYBOARD, ESCALADA, RAPEL, MONTAÑA, RAFTING, DESCENSO DE CAÑONES Y TODAS AQUELLAS ACTIVIDADES QUE DE MANERA HABITUAL FORMAN PARTE DE LOS DECRETOS DE TURISMO ACTIVO). LA GESTIÓN DE ACTIVIDADES DE ECOTURISMO (VISITAS GUIADAS, OBSERVACIÓN E INTERPRETACIÓN DE LA NATURALEZA, EDUCACIÓN AMBIENTAL, MUNDO RURAL, CURSOS Y TALLERES). LA GESTIÓN Y ORGANIZACIÓN DE EVENTOS Y ESPECTÁCULOS DEPORTIVOS. LA GESTIÓN DE ALOJAMIENTOS TURÍSTICOS Y ALBERGUES. LA PRESTACIÓN DE SERVICIOS DE HOSTELERÍA, RESTAURACIÓN Y HOSPEDAJE. LA CONSULTORÍA, ASESORÍA, FORMACIÓN E INNOVACIÓN, PRINCIPALMENTE DIRIGIDA AL SECTOR TURÍSTICO. AGENCIA DE VIAJES. ACTIVIDADES SOCIOCULTURALES. VENTA DE MATERIAL DEPORTIVO DE PRIMERA Y SEGUNDA MANO.",
      "mainEntityOfPage": "https://www.contratacion.euskadi.eus/webkpe00-kperoc/es/ac71aBusquedaRegistrosWar/empresa/08366",
      "_links": {
        "self": {
          "name": "TAUPADA ABENTURA, S.L.",
          "href": "https://api.euskadi.eus/procurements/companies/08366"
        }
      }
    },
    {
      "name": "LEJARAZU SPORT, S.L.",
      "registrationNumber": "08231",
      "identificationNumber": "B01500834",
      "address": "Calle Etorbide (01196), 5",
      "location": {
        "postalCode": "01196",
        "municipality": "Zigoitia",
        "county": "Araba/Álava",
        "municipalityId": "018",
        "countyId": "01"
      },
      "economicActivities": [
        {
          "id": "1.619.1",
          "name": "Venta al por mayor de juguetes y artículos de deporte",
          "_links": {
            "self": {
              "name": "Venta al por mayor de juguetes y artículos de deporte",
              "href": "https://api.euskadi.eus/procurements/companies/economic-activities/1.619.1"
            }
          }
        },
        {
          "id": "1.659.6",
          "name": "Venta al por menor de juguetes, artículos de deporte",
          "_links": {
            "self": {
              "name": "Venta al por menor de juguetes, artículos de deporte",
              "href": "https://api.euskadi.eus/procurements/companies/economic-activities/1.659.6"
            }
          }
        }
      ],
      "certificateStartDate": "2025-11-16",
      "certificateEndDate": "2026-05-16",
      "object": "EL COMERCIO AL POR MAYOR Y POR MENOR DE MATERIA DE RECARGA DE CARTUCHERÍA, MUNICIÓN, Y TODO TIPO DE ARMAS. ASESORAMIENTO Y PUBLICACIÓN DE INFORMES EN MATERIAL DE CARTUCHERÍA, ARMAS Y ARTÍCULOS RELACIONADOS. CONSTRUCCIÓN, DESARROLLO Y GESTIÓN DE PÁGINAS WEB.",
      "mainEntityOfPage": "https://www.contratacion.euskadi.eus/webkpe00-kperoc/es/ac71aBusquedaRegistrosWar/empresa/08231",
      "_links": {
        "self": {
          "name": "LEJARAZU SPORT, S.L.",
          "href": "https://api.euskadi.eus/procurements/companies/08231"
        }
      }
    },
    {
      "name": "TALLERES BEDA, S.L.",
      "registrationNumber": "05211",
      "identificationNumber": "B20894143",
      "address": "ENDARA, 9",
      "location": {
        "postalCode": "20303",
        "municipality": "Irun",
        "county": "Gipuzkoa",
        "municipalityId": "045",
        "countyId": "20"
      },
      "economicActivities": [
        {
          "id": "1.654.1",
          "name": "Venta al por menor de vehículos terrestres",
          "_links": {
            "self": {
              "name": "Venta al por menor de vehículos terrestres",
              "href": "https://api.euskadi.eus/procurements/companies/economic-activities/1.654.1"
            }
          }
        },
        {
          "id": "1.691.2",
          "name": "Reparación de vehículos automóviles, bicicletas y otros vehículos",
          "_links": {
            "self": {
              "name": "Reparación de vehículos automóviles, bicicletas y otros vehículos",
              "href": "https://api.euskadi.eus/procurements/companies/economic-activities/1.691.2"
            }
          }
        }
      ],
      "certificateStartDate": "2025-11-15",
      "certificateEndDate": "2026-05-15",
      "classification": [
        {
          "id": "S",
          "name": "Servicios",
          "groups": [
            {
              "id": "Q",
              "subgroups": [
                {
                  "id": "01",
                  "name": "Mantenimiento y reparación de maquinaria",
                  "categories": [
                    {
                      "id": "5",
                      "name": "Mas de 1.200.000",
                      "_links": {
                        "self": {
                          "name": "Mas de 1.200.000",
                          "href": "https://api.euskadi.eus/procurements/companies/types/S/categories/5"
                        }
                      }
                    }
                  ],
                  "_links": {
                    "self": {
                      "name": "Mantenimiento y reparación de maquinaria",
                      "href": "https://api.euskadi.eus/procurements/companies/types/S/groups/Q/subgroups/01"
                    }
                  }
                },
                {
                  "id": "02",
                  "name": "Mantenimiento y reparación de vehículos",
                  "categories": [
                    {
                      "id": "5",
                      "name": "Mas de 1.200.000",
                      "_links": {
                        "self": {
                          "name": "Mas de 1.200.000",
                          "href": "https://api.euskadi.eus/procurements/companies/types/S/categories/5"
                        }
                      }
                    }
                  ],
                  "_links": {
                    "self": {
                      "name": "Mantenimiento y reparación de vehículos",
                      "href": "https://api.euskadi.eus/procurements/companies/types/S/groups/Q/subgroups/02"
                    }
                  }
                }
              ],
              "_links": {
                "self": {
                  "href": "https://api.euskadi.eus/procurements/companies/types/S/groups/Q"
                }
              }
            }
          ],
          "_links": {
            "self": {
              "name": "Servicios",
              "href": "https://api.euskadi.eus/procurements/companies/types/S"
            }
          }
        }
      ],
      "object": "1) LA COMERCIALIZACIÓN, ALQUILER CON EXCLUSIÓN DEL ARRENDAMIENTO FINANCIERO, REPARACIÓN Y MANTENIMIENTO DE TODO TIPO DE MAQUINARIA NUEVA O USADA, TANTO DE TRANSPORTE COMO DE PESAJE O ELEVACIÓN, AGRÍCOLA O INDUSTRIAL, ASÍ COMO DE SUS ELEMENTOS DE REPUESTO Y COMPLEMENTO. 2) LA COMERCIALIZACIÓN, ALQUILER CON EXCLUSIÓN DEL ARRENDAMIENTO FINANCIERO, REPARACIÓN Y MANTENIMIENTO DE TODO TIPO DE VEHÍCULOS NUEVOS O USADOS, TANTO TERRESTRES COMO MARÍTIMOS, ASÍ COMO SUS ELEMENTOS DE REPUESTO Y COMPLEMENTOS. 3) EL TRANSPORTE POR CUALQUIER MEDIO, TANTO PÚBLICO COMO PRIVADO, NACIONAL E INTERNACIONAL DE TODO TIPO DE MERCANCÍAS Y PERSONAS. 4) LA IMPORTACIÓN, EXPORTACIÓN Y CONSIGNACIÓN DE TODO TIPO DE MERCANCÍAS, EN NOMBRE PROPIO O POR CUENTA DE TERCEROS, REPRESENTAR A FIRMAS ESPAÑOLAS Y EXTRANJERAS PARA TODA CLASE DE ACTIVIDADES Y PRODUCTOS, TANTO EN ESPAÑA COMO EN EL EXTRANJERO, Y LA REALIZACIÓN DE FUNCIONES DE MEDIACIÓN. 5) REALIZAR OPERACIONES DE MANIPULACIÓN, ALMACENAJE, CARGA Y DESCARGA, ESTIBA, TRANSPORTE POR TIERRA , MAR O AIRE DE CUALQUIER TIPO DE MERCANCÍAS, TANTO NACIONALES COMO DE IMPORTACIÓN, Y DEMÁS INHERENTES AL COMERCIO EXTERIOR. 6) CONSTITUIRSE EN COMISIONISTAS DE ADUANAS Y TRANSPORTES PARA LA MEJOR REALIZACIÓN DE OPERACIONES RELACIONADAS CON EL COMERCIO EXTERIOR",
      "mainEntityOfPage": "https://www.contratacion.euskadi.eus/webkpe00-kperoc/es/ac71aBusquedaRegistrosWar/empresa/05211",
      "_links": {
        "self": {
          "name": "TALLERES BEDA, S.L.",
          "href": "https://api.euskadi.eus/procurements/companies/05211"
        }
      }
    },
    {
      "name": "TREK MEDIA, S.L.",
      "registrationNumber": "02736",
      "identificationNumber": "B95157467",
      "address": "ALAMEDA DE MAZARREDO, 20 -1º ",
      "location": {
        "postalCode": "48009",
        "municipality": "Bilbao",
        "county": "Bizkaia",
        "municipalityId": "020",
        "countyId": "48"
      },
      "economicActivities": [
        {
          "id": "1.845",
          "name": "Explotación electrónica por cuenta de terceros",
          "_links": {
            "self": {
              "name": "Explotación electrónica por cuenta de terceros",
              "href": "https://api.euskadi.eus/procurements/companies/economic-activities/1.845"
            }
          }
        }
      ],
      "certificateStartDate": "2025-11-15",
      "certificateEndDate": "2026-05-15",
      "object": "LA CREACIÓN Y REALIZACIÓN  DE SITIOS  Y PÁGINAS WEB, PRODUCTOS MULTIMEDIA INFORMÁTICOS, GESTIÓN Y MANTENIMIENTO DE LOS MISMOS.  ASESORÍA Y REALIZACIÓN DE PROYECTOS DE MARKETING Y COMUNICACIÓN EMPRESARIAL, COMERCIAL Y PUBLICITARIA.",
      "mainEntityOfPage": "https://www.contratacion.euskadi.eus/webkpe00-kperoc/es/ac71aBusquedaRegistrosWar/empresa/02736",
      "_links": {
        "self": {
          "name": "TREK MEDIA, S.L.",
          "href": "https://api.euskadi.eus/procurements/companies/02736"
        }
      }
    },
    {
      "name": "CONET VITORIA, S.L.",
      "registrationNumber": "09934",
      "identificationNumber": "B70754411",
      "address": "Bulevar de salburua, 8 - 2ºA",
      "location": {
        "postalCode": "01002",
        "municipality": "Vitoria-Gasteiz",
        "county": "Araba/Álava",
        "municipalityId": "059",
        "countyId": "01"
      },
      "economicActivities": [
        {
          "id": "1.501.1",
          "name": "Construcción completa, reparación y conservación de edificaciones",
          "_links": {
            "self": {
              "name": "Construcción completa, reparación y conservación de edificaciones",
              "href": "https://api.euskadi.eus/procurements/companies/economic-activities/1.501.1"
            }
          }
        },
        {
          "id": "1.849.9",
          "name": "Otros servicios independientes n.c.o.p",
          "_links": {
            "self": {
              "name": "Otros servicios independientes n.c.o.p",
              "href": "https://api.euskadi.eus/procurements/companies/economic-activities/1.849.9"
            }
          }
        }
      ],
      "certificateStartDate": "2025-11-15",
      "certificateEndDate": "2026-05-13",
      "object": "- REALIZAR LAS GESTIONES NECESARIAS PARA LLEVAR A CABO LA REFORMA DE VIVIENDAS (REALIZA EL SERVICIO COMPLETO DE ENTREGAR LA VIVIENDA REFORMADA ES DECIR LOS TERCEROS ACTORES FACTURAN A LA SOCIEDAD NO AL DUEÑO DE LA VIVIENDA). - PROMOCIONAR, COMERCIALIZAR, DISTRIBUIR Y VENDER TODO TIPO DE OPERACIONES DE FINANCIACIÓN, LEASING Y DE SEGUROS, CUANDO LA SOCIEDAD ACTÚE EN NOMBRE Y POR CUENTA DE LA ENTIDAD FINANCIERA. - CAPTAR CLIENTES PARA UNA EMPRESA SI SE REALIZA CON CARÁCTER EMPRESARIAL. - CROWDFUNDING. - DESARROLLAR UNA PLATAFORMA DIGITAL QUE FACILITA EL ENCUENTRO ENTRE PROVEEDORES DE UN PRODUCTO Y SUS CLIENTES A LA MANERA DE UN SITIO DE WEB PARA COMERCIALIZARLO (ES DECIR EL SERVICIO ES EL DE PONER A DISPOSICIÓN UN SITIO VIRTUAL PARA QUE PROVEEDORES Y CLIENTES SE RELACIONEN ENTRE SÍ). - MEDIADORES, INTERMEDIARIOS Y COMISIONISTAS. - CAPTAR Y AFILIAR SOCIOS PARA OTRA ENTIDAD. - PRESTAR POR PARTE DEL FRANQUICIADOR DE CIERTOS SERVICIOS, A LOS FRANQUICIADOS, INHERENTES A LA EXPLOTACIÓN DE LA MARCA COMERCIAL TALES COMO LA ASISTENCIA COMERCIAL Y LA ASISTENCIA TECNOLÓGICA. - COMERCIALIZAR DERECHOS DE TRASPASO Y DERECHOS DE IMAGEN DE DEPORTISTAS. - INSTALAR CARTELES PUBLICITARIOS DE VINILO PUDIENDO SER ÉSTOS ADHESIVOS O NO PEGADOS EN VEHÍCULOS U OTRA CLASE DE SUPERFICIES O MEDIOS DE TRANSPORTE. - COMERCIO AL POR MENOR DE MUEBLES DE OFICINA Y DE MÁQUINAS Y EQUIPOS DE OFICINA.",
      "mainEntityOfPage": "https://www.contratacion.euskadi.eus/webkpe00-kperoc/es/ac71aBusquedaRegistrosWar/empresa/09934",
      "_links": {
        "self": {
          "name": "CONET VITORIA, S.L.",
          "href": "https://api.euskadi.eus/procurements/companies/09934"
        }
      }
    },
    {
      "name": "SERVICIOS DE HOSTING EN INTERNET, S.A.",
      "registrationNumber": "07886",
      "identificationNumber": "A82718495",
      "address": "Avda. de Europa, 34-A",
      "location": {
        "postalCode": "28023",
        "municipality": "Madrid",
        "county": "Madrid",
        "municipalityId": "079",
        "countyId": "28"
      },
      "economicActivities": [
        {
          "id": "1.845",
          "name": "Explotación electrónica por cuenta de terceros",
          "_links": {
            "self": {
              "name": "Explotación electrónica por cuenta de terceros",
              "href": "https://api.euskadi.eus/procurements/companies/economic-activities/1.845"
            }
          }
        }
      ],
      "certificateStartDate": "2025-11-14",
      "certificateEndDate": "2026-05-14",
      "object": "PRESTACION TODO TIPO DE SERVICIOS DE INTERNET INCLUYENDO LA CESION Y ALQUILER DE EQUIPOS Y PROCESOS INFORMATICOS, MEDIOS PARA LA REALIZACION DE COMUNICACIONES A TRAVES DE INTERNET Y DEMAS MEDIOS DE COMUNICACION VIRTUAL",
      "mainEntityOfPage": "https://www.contratacion.euskadi.eus/webkpe00-kperoc/es/ac71aBusquedaRegistrosWar/empresa/07886",
      "_links": {
        "self": {
          "name": "SERVICIOS DE HOSTING EN INTERNET, S.A.",
          "href": "https://api.euskadi.eus/procurements/companies/07886"
        }
      }
    },
    {
      "name": "BIOTECNOLOGIA Y DEPURACION DE AGUAS, S.L.",
      "registrationNumber": "10209",
      "identificationNumber": "B55412365",
      "address": "AVD ALTOS HORNOS 33 C14",
      "location": {
        "postalCode": "48901",
        "municipality": "Barakaldo",
        "county": "Bizkaia",
        "municipalityId": "013",
        "countyId": "48"
      },
      "economicActivities": [
        {
          "id": "1.616.6",
          "name": "Venta al por mayor de productos químicos industriales",
          "_links": {
            "self": {
              "name": "Venta al por mayor de productos químicos industriales",
              "href": "https://api.euskadi.eus/procurements/companies/economic-activities/1.616.6"
            }
          }
        }
      ],
      "certificateStartDate": "2025-11-14",
      "certificateEndDate": "2026-05-14",
      "object": "LA COMERCIALIZACIÓN E INSTALACIÓN DE MAQUINARÍA Y PRODUCTOS PARA EL TRATAMIENTO DE AGUAS, ASÍ COMO LA PRESATACIÓN DE SERVICIOS TÉCNICOS EN MATERIA DE MEDIOAMBIENTE, DE TRATAMIENTO, CONTROL Y ANÁLISIS DE AGUAS Y SUS PROCESOS (AGUAS POTABLES, AGUAS RESIDUALES, AGUAS DE PROCESOS, AGUAS FLUVIALES, AGUAS MARINAS.",
      "mainEntityOfPage": "https://www.contratacion.euskadi.eus/webkpe00-kperoc/es/ac71aBusquedaRegistrosWar/empresa/10209",
      "_links": {
        "self": {
          "name": "BIOTECNOLOGIA Y DEPURACION DE AGUAS, S.L.",
          "href": "https://api.euskadi.eus/procurements/companies/10209"
        }
      }
    },
    {
      "name": "FUNDACION UNIVERSIDAD DE OVIEDO",
      "registrationNumber": "08197",
      "identificationNumber": "G33532912",
      "address": "C/ Principado, 3, 4º",
      "location": {
        "postalCode": "33007",
        "municipality": "Oviedo",
        "county": "Asturias",
        "municipalityId": "044",
        "countyId": "33"
      },
      "economicActivities": [
        {
          "id": "1.932.2",
          "name": "Enseñanza de formación y perfeccionamiento profesional superior",
          "_links": {
            "self": {
              "name": "Enseñanza de formación y perfeccionamiento profesional superior",
              "href": "https://api.euskadi.eus/procurements/companies/economic-activities/1.932.2"
            }
          }
        },
        {
          "id": "1.936.1",
          "name": "Investigación en ciencias exactas y naturales",
          "_links": {
            "self": {
              "name": "Investigación en ciencias exactas y naturales",
              "href": "https://api.euskadi.eus/procurements/companies/economic-activities/1.936.1"
            }
          }
        },
        {
          "id": "1.936.2",
          "name": "Investigación en ciencias médicas",
          "_links": {
            "self": {
              "name": "Investigación en ciencias médicas",
              "href": "https://api.euskadi.eus/procurements/companies/economic-activities/1.936.2"
            }
          }
        },
        {
          "id": "1.936.3",
          "name": "Investigaciones agrarias",
          "_links": {
            "self": {
              "name": "Investigaciones agrarias",
              "href": "https://api.euskadi.eus/procurements/companies/economic-activities/1.936.3"
            }
          }
        },
        {
          "id": "1.936.4",
          "name": "Investigaciones en ciencias sociales, humanidades y jurídicas",
          "_links": {
            "self": {
              "name": "Investigaciones en ciencias sociales, humanidades y jurídicas",
              "href": "https://api.euskadi.eus/procurements/companies/economic-activities/1.936.4"
            }
          }
        },
        {
          "id": "1.936.5",
          "name": "Investigación técnica industrial",
          "_links": {
            "self": {
              "name": "Investigación técnica industrial",
              "href": "https://api.euskadi.eus/procurements/companies/economic-activities/1.936.5"
            }
          }
        },
        {
          "id": "1.936.9",
          "name": "Otras investigaciones científicas y técnicas n.c.o.p",
          "_links": {
            "self": {
              "name": "Otras investigaciones científicas y técnicas n.c.o.p",
              "href": "https://api.euskadi.eus/procurements/companies/economic-activities/1.936.9"
            }
          }
        }
      ],
      "certificateStartDate": "2025-11-14",
      "certificateEndDate": "2026-05-14",
      "object": "CONCESIÓN DE BECAS Y AYUDAS A LA INVESTIGACIÓN, AL ESTUDIO Y A LA CAPACITACIÓN PROFESIONAL. B) INSTITUIR PREMIOS PARA TRABAJO Y MÉRITOS QUE PUEDAN SER DETERMINADOS POR SU PATRONATO. C) ORGANIZACIÓN DE EXPOSICIONES, CONFERENCIAS, COLOQUIOS, CURSOS O SEMINARIOS. D) PROMOVER, PRODUCIR, EDITAR, PUBLICAR Y DISTRIBUIR, TESIS DOCTORALES, TESINAS O MEMORIAS DE LICENCIATURA, TRABAJOS DE INVESTIGACIÓN DE CUALQUIER TIPO, LIBROS, REVISTAS Y OTRO TIPO DE PUBLICACIONES EN SOPORTE PAPEL DE CARÁCTER EDUCATIVO, CIENTÍFICO, CULTURAL O SOCIAL. TAMBIÉN PODRÁ PROMOVER, PRODUCIR, EDITAR, PUBLICAR Y DISTRIBUIR MATERIAL AUDIOVISUAL Y MULTIMEDIA DE CARÁCTER EDUCATIVO, CIENTÍFICO, CULTURAL O SOCIAL. E) LA PROMOCIÓN Y GESTIÓN DE ACTIVIDADES Y PROYECTOS DE INVESTIGACIÓN CIENTÍFICA Y DESARROLLO TECNOLÓGICO. F) PRESTACIÓN DE SERVICIOS DE PROMOCIÓN Y GESTIÓN SOCIAL PARA LA PROTECCIÓN DE LA JUVENTUD, PROCURANDO LA INSERCIÓN DE LOS ALUMNOS DE LOS ÚLTIMOS CURSOS DE LOS PLANES UNIVERSITARIOS, ASÍ COMO DE LOS RECIÉN TITULADOS, EN SU ÁMBITO PROFESIONAL Y LABORAL ESPECÍFICO. G) COLABORAR CON LA UNIVERSIDAD DE OVIEDO EN LAS ACTIVIDADES QUE, A JUICIO DE ÉSTA, LO REQUIERAN. H) ORGANIZACIÓN DE REPRESENTACIONES MUSICALES, COREOGRÁFICAS, TEATRALES, CINEMATOGRÁFICAS O CULTURALES EN GENERAL. I) ESTABLECER CONVENIOS Y CONCIERTOS DE COOPERACIÓN E INTERCAMBIO CON ENTIDADES PÚBLICAS, PARTICULARES E INSTITUCIONES AFINES DEL TODO EL MUNDO, Y MUY ESPECIALMENTE CON ORGANISMOS, INSTITUCIONES Y CENTROS UNIVERSITARIOS, NACIONALES Y EXTRANJEROS, QUE POSIBILITEN LA COLABORACIÓN Y LA REALIZACIÓN DE PROYECTOS COMUNES TENDENTES A FAVORECER Y MEJORAR LA INVESTIGACIÓN, LAS PRÁCTICAS DE LOS ALUMNOS UNIVERSITARIOS Y EL PERFECCIONAMIENTO PROFESIONAL DE LOS POSTGRADUADOS. J) CUALESQUIERA OTRAS ACTIVIDADES NO MENCIONADAS EXPRESAMENTE PERO QUE SEAN ADECUADAS PARA EL CUMPLIMIENTO DE LOS FINES FUNDACIONALES. PARA EL LOGRO DE ESTOS FINES PODRÁ FORMALIZAR CONVENIOS Y CONCIERTOS DE COLABORACIÓN CON OTRAS INSTITUCIONES PÚBLICAS Y PRIVADAS, ASÍ COMO CONCURRIR A LA OBTENCIÓN DE FONDOS PÚBLICOS Y PRIVADOS DESTINADOS A TAL OBJETIVO, TANTO DENTRO COMO FUERA DE ESPAÑA.",
      "mainEntityOfPage": "https://www.contratacion.euskadi.eus/webkpe00-kperoc/es/ac71aBusquedaRegistrosWar/empresa/08197",
      "_links": {
        "self": {
          "name": "FUNDACION UNIVERSIDAD DE OVIEDO",
          "href": "https://api.euskadi.eus/procurements/companies/08197"
        }
      }
    },
    {
      "name": "METROLOGIA PESAJE INDUSTRIAL, S.L.",
      "registrationNumber": "08803",
      "identificationNumber": "B48802714",
      "address": "ASTINTZE,26",
      "location": {
        "postalCode": "48160",
        "municipality": "Derio",
        "county": "Bizkaia",
        "municipalityId": "901",
        "countyId": "48"
      },
      "economicActivities": [
        {
          "id": "1.843.9",
          "name": "Otros servicios técnicos n.c.o.p",
          "_links": {
            "self": {
              "name": "Otros servicios técnicos n.c.o.p",
              "href": "https://api.euskadi.eus/procurements/companies/economic-activities/1.843.9"
            }
          }
        }
      ],
      "certificateStartDate": "2025-11-14",
      "certificateEndDate": "2025-10-26",
      "object": "EL LABORATORIO MÓVIL DE CALIBRACIÓN DE INSTRUMENTOS DE PESAJE E INGENIERÍA, REPARACIÓN, VERIFICACIÓN, COMERCIALIZACIÓN E INCORPORACIÓN DE EQUIPOS ELECTRÓNICOS E INFORMÁTICOS.",
      "mainEntityOfPage": "https://www.contratacion.euskadi.eus/webkpe00-kperoc/es/ac71aBusquedaRegistrosWar/empresa/08803",
      "_links": {
        "self": {
          "name": "METROLOGIA PESAJE INDUSTRIAL, S.L.",
          "href": "https://api.euskadi.eus/procurements/companies/08803"
        }
      }
    }
  ]
}