{
  "totalItems": 9042,
  "totalPages": 905,
  "currentPage": 694,
  "itemsOfPage": 10,
  "items": [
    {
      "name": "P3 SERVICIOS AUXILIARES, S.L.",
      "registrationNumber": "03707",
      "identificationNumber": "B95340477",
      "address": "C/ HUERTAS DE LA VILLA, 17-1º IZDA.",
      "location": {
        "postalCode": "48001",
        "municipality": "Bilbao",
        "county": "Bizkaia",
        "municipalityId": "020",
        "countyId": "48"
      },
      "economicActivities": [
        {
          "id": "1.849.4",
          "name": "Servicios de custodia, seguridad y protección",
          "_links": {
            "self": {
              "name": "Servicios de custodia, seguridad y protección",
              "href": "https://api.euskadi.eus/procurements/companies/economic-activities/1.849.4"
            }
          }
        }
      ],
      "certificateStartDate": "2012-07-19",
      "certificateEndDate": "2013-01-12",
      "object": "A) LA COMPRA, VENTA Y ARRENDAMIENTO DE TODA CLASE DE FINCAS, TERRENOS, SOLARES, LOCALES INDUSTRIALES, DE NEGOCIOS O DE OFICINAS, VIVIENDAS Y DEMÁS INMUEBLES DE NATURALEZA RÚSTICA Y URBANA.\r\nB) LA CLASIFICACIÓN Y DISTRIBUCIÓN DE CORRESPONDENCIA, Y DE TODA CLASE DE DOCUMENTOS, VALIJAS Y PAQUETERÍA, DESTRUCCIÓN DE DOCUMENTACIÓN CONFIDENCIAL, ENCOMENDADO POR ORGANISMO PÚBLICOS Y PRIVADOS, NO REALIZANDO EN NINGÚN CASO EL TRASPORTE, MANIPULACIÓN O DISTRIBUCIÓN DE EFECTIVO.\r\nC) LA ASISTENCIA TÉCNICA TANTO DE COMPROBACIÓN, COMO DE FUNCIONAMIENTO A APARATOS MECÁNICOS, ELÉCTRICOS O ELECTRÓNICOS EN GRANDES SUPERFICIES, ESTABLECIMIENTOS COMERCIALES Y FINANCIEROS Y EN GENERAL, TANTO EN EDIFICIOS Y/O EMPRESAS TANTO PRIVADAS COMO PÚBLICAS, QUE NO SUPONGA MANIPULACIÓN DE INSTALACIONES DE SEGURIDAD, TODO ELLO REALIZADO POR AUXILIARES DE SERVICIO, PORTESROS, CELADORES, CONSERJES, CONTROLADORES Y PERSONAL ANÁLOGO.\r\nD) INFORMACIÓN DE ACCESO A EDIFICIOES Y/O INSTALACIONES EN GENERAL. LA CUSTODIA Y COMPROBACIÓN DEL ESTADO Y FUNCIONAMIENTO DE LAS INSTALACIONES EN GENERAL Y DE GESTIÓN AUXILIAR REALIZADAS EN TODO TIPO DE EDIFICIOS, SUPERFICIES E INMUEBLES, REALIZADO POR AUXILIARES DE SERVICIO, PORTESROS, CELADORES, CONSERJES, CONTROLADORES Y PERSONAL ANÁLOGO. Y EN GENERAL LA COMPROBACIÓN Y CONTROL DEL ESTADO DE CALDERAS E INSTALACIONES GENERALES EN CUALQUIER CLASE DE INMUEBLES, PARA GARANTIZAR SU FUNCIONAMIENTO Y SEGURIDAD FÍSICA.\r\nE) EL CONTROL DE TRÁNSITO EN ZONAS RESERVADAS O DE CIRCULACIÓN RESTRINGIDA, EN EL INTERIOR DE FÁBRICAS, PLANTAS DE PRODUCCIÓN DE ENERGÍA, CENTROS DE PROCESOS DE DATOS, ÁREAS COMERCIALES Y SIMILARES.\r\nF) TAREAS DE RECEPCIÓN, COMPROBACIÓN DE VISITAS, Y ORIENTACIÓN DE LAS MISMAS, ASÍ COMO LAS DE CONTROL DE ACCESOS, DOCUMENTACIÓN, TICKETS O CARNÉS PRIVADOS; EN CUALQUIER CLASE DE EDIFICIO O INMUEBLES.\r\nG) PRESTACIÓN DE TODA CLASE DE SERVICIOS, DE RECEPCIÓN DE PERSONAS, CONSERJERÍA, JARDINERÍA, LIMPIEZA DE MANTENIMIENTO, Y LIMPIEZAS GENERALES EN OFICINAS, ESTABLECIMIENTOS PÚBLICOS O PRIVADOS, FÁBRICAS O INDUSTRIAS EN GENERAL.\r\nH) LA SOCIEDAD PODRÁ ADQUIRIR, TENER Y DISFRUTAR, ACCIONES, PARTICIPACIONES SOCIALES, OBLIGACIONES, BONOS DE CAJA, CERTIFICADOS DE DEPÓSITO Y PAGARÉS DE TODA CLASE DE EMPRESAS O NEGOCIOS, SIEMPRE QUE NO IMPLIQUE LA INTERMEDIACIÓN EN OPERACIONES SOBRE TÍTULOS VALORES Y QUE NO SEAN NEGOCIOS ATRIBUIDOS A ENTIDADES SUJETAS A REGULACIÓN ESPECIAL NI AQUELLAS OTRAS REGIDAS POR LAS LEYES SOBRE MERCADO DE VALORES Y DE SOCIEDADES DE INVERSIÓN COLECTIVA\r\n",
      "mainEntityOfPage": "https://www.contratacion.euskadi.eus/webkpe00-kperoc/es/ac71aBusquedaRegistrosWar/empresa/03707",
      "_links": {
        "self": {
          "name": "P3 SERVICIOS AUXILIARES, S.L.",
          "href": "https://api.euskadi.eus/procurements/companies/03707"
        }
      }
    },
    {
      "name": "DISTRIBUIDORA DE ANALÍTICA PARA LA MEDICINA IBÉRICA, S.A.",
      "registrationNumber": "01727",
      "identificationNumber": "A61071403",
      "address": "C/ RAMÓN TURRÓ, Nº 91 - 5º",
      "location": {
        "postalCode": "08005",
        "municipality": "Barcelona",
        "county": "Barcelona",
        "municipalityId": "019",
        "countyId": "08"
      },
      "economicActivities": [
        {
          "id": "1.616.6",
          "name": "Venta al por mayor de productos químicos industriales",
          "_links": {
            "self": {
              "name": "Venta al por mayor de productos químicos industriales",
              "href": "https://api.euskadi.eus/procurements/companies/economic-activities/1.616.6"
            }
          }
        }
      ],
      "certificateStartDate": "2012-07-17",
      "certificateEndDate": "2013-01-04",
      "object": "LA COMPRA, VENTA, FABRICACIÓN, EXPORTACIÓN E IMPORTACIÓN DE PRIMERAS MATERIAS, PRODUCTOS, APARATOS, DISPOSITIVOS Y MATERIAL DE ALTA TECNOLOGÍA DE USO EN EL ÁMBITO DE LAS CIENCIAS Y TÉCNICAS FÍSICAS, QUÍMICAS Y BIOLÓGICAS, ASÍ COMO EN SUS APLICACIONES EN LA INDUSTRIA, LA AGRICULTURA Y EL COMERCIO, Y EN ESPECIAL EN LA MEDICINA Y FARMACIA HUMANA Y ANIMAL",
      "mainEntityOfPage": "https://www.contratacion.euskadi.eus/webkpe00-kperoc/es/ac71aBusquedaRegistrosWar/empresa/01727",
      "_links": {
        "self": {
          "name": "DISTRIBUIDORA DE ANALÍTICA PARA LA MEDICINA IBÉRICA, S.A.",
          "href": "https://api.euskadi.eus/procurements/companies/01727"
        }
      }
    },
    {
      "name": "COMUNICACIÓN AUDIOVISUAL CANAL 6, S.A.",
      "registrationNumber": "03271",
      "identificationNumber": "A48978415",
      "address": "DOCTOR ENTRECANALES, 2",
      "location": {
        "postalCode": "48002",
        "municipality": "Bilbao",
        "county": "Bizkaia",
        "municipalityId": "020",
        "countyId": "48"
      },
      "economicActivities": [
        {
          "id": "1.844",
          "name": "Servicios de publicidad, relaciones públicas y similares",
          "_links": {
            "self": {
              "name": "Servicios de publicidad, relaciones públicas y similares",
              "href": "https://api.euskadi.eus/procurements/companies/economic-activities/1.844"
            }
          }
        }
      ],
      "certificateStartDate": "2012-07-12",
      "certificateEndDate": "2012-12-19",
      "object": "LA PRESTACIÓN DE SERVICIOS INTEGRALES EN EL CAMPO DE LA COMUNICACIÓN AUDIOVISUAL; PRODUCCIONES DE VÍDEO, REALIZACIÓN DE PUBLIREPORTAJES, DOCUMENTALES, VÍDEOS DE EMPRESA, VIDEOCATÁLOGOS, SPOTS; PRODUCCIONES DE TELEVISIÓN, SERVICIOS ENG PARA TELEVISIÓN, PROGRAMAS DE TELEVISIÓN, EMISIÓN DE PROGRAMAS VÍA SATÉLITE, VIDEOCONFERENCIAS, ALQUILER DE PLATÓ CON SERVICIOS DE ILUMINACIÓN, CAMERINOS OFFICE, DECORADOS VIRTUALES; ORGANIZACIÓN DE EVENTOS, ESPECTÁCULOS MULTIMEDIA, INSTALACIÓN DE EQUIPOS AUDIOVISUALES PARA JUNTAS DE ACCIONISTAS, CONGRESOS, FERIAS, ACTOS SOCIALES Y PRESENTACIONES; APLICACIONES INTERACTIVAS EN SOPORTES INFORMÁTICOS, CD ROM, DVD, DISQUETES, DESARROLLOS DE INFOGRAFÍA Y ANIMACIONES EN 3D, DESARROLLO DE PANTALLAS WEB PARA INTERNET, PANTALLA Y SCRIPT PARA APOYO A PONENTES EN CONGRESOS Y FERIAS, CATÁLOGOS INFORMATIZADOS Y PUNTOS DE INFORMACIÓN INTERACTIVOS, DESARROLLO DE IMÁGENES VIRTUALES; ALQUILER DE SALAS DE POSTPRODUCCIÓN BETACAM SP O POSTPRODUCCIONES NO LINEALES, SERVICIO DE DOBLAJE, COPIADO Y CONVERSIÓN DE NORMAS, ALQUILER DE VIDEOWALL, PANTALLAS GIGANTES Y PANTALLAS LCD LUZ DÍA ",
      "mainEntityOfPage": "https://www.contratacion.euskadi.eus/webkpe00-kperoc/es/ac71aBusquedaRegistrosWar/empresa/03271",
      "_links": {
        "self": {
          "name": "COMUNICACIÓN AUDIOVISUAL CANAL 6, S.A.",
          "href": "https://api.euskadi.eus/procurements/companies/03271"
        }
      }
    },
    {
      "name": "MURGIL ERAIKUNTZAK, S.L.",
      "registrationNumber": "04302",
      "identificationNumber": "B20986428",
      "address": "URBELTZ AUZOA, 39-IZDA.",
      "location": {
        "postalCode": "20012",
        "municipality": "Larraul",
        "county": "Gipuzkoa",
        "municipalityId": "048",
        "countyId": "20"
      },
      "economicActivities": [
        {
          "id": "1.501.2",
          "name": "Construcción completa, reparación y conservación obras civiles",
          "_links": {
            "self": {
              "name": "Construcción completa, reparación y conservación obras civiles",
              "href": "https://api.euskadi.eus/procurements/companies/economic-activities/1.501.2"
            }
          }
        }
      ],
      "certificateStartDate": "2012-07-06",
      "certificateEndDate": "2012-12-12",
      "object": "A) LA CONSTRUCCIÓN Y EDIFICACIÓN DE OBRAS CIVILES, ASÍ COMO DE TODA CLASE DE INMUEBLES; B) LA EXPLOTACIÓN DE EDIFICIOS, FINCAS Y CONSTRUCCIONES DE TODA CLASE; C) LA URBANIZACIÓN DE TERRENOS Y LA PROMOCIÓN INMOBILIARIA, ENTENDIENDO POR TAL LA PRÁCTICA DE CUANTAS GESTIONES ESTÉN ENCAMINADAS A LA VENTA DE INMUEBLES; D) ASESORAMIENTO TÉCNICO EN MATERIA URBANÍSTICA E INMOBILIARIA",
      "mainEntityOfPage": "https://www.contratacion.euskadi.eus/webkpe00-kperoc/es/ac71aBusquedaRegistrosWar/empresa/04302",
      "_links": {
        "self": {
          "name": "MURGIL ERAIKUNTZAK, S.L.",
          "href": "https://api.euskadi.eus/procurements/companies/04302"
        }
      }
    },
    {
      "name": "GAURTIK ERAIKUNTZAK, S.L.",
      "registrationNumber": "04761",
      "identificationNumber": "B95609160",
      "address": "LAUBIDETA, 18 BAJO",
      "location": {
        "postalCode": "48220",
        "municipality": "Abadiño",
        "county": "Bizkaia",
        "municipalityId": "001",
        "countyId": "48"
      },
      "economicActivities": [
        {
          "id": "1.501.1",
          "name": "Construcción completa, reparación y conservación de edificaciones",
          "_links": {
            "self": {
              "name": "Construcción completa, reparación y conservación de edificaciones",
              "href": "https://api.euskadi.eus/procurements/companies/economic-activities/1.501.1"
            }
          }
        },
        {
          "id": "1.501.2",
          "name": "Construcción completa, reparación y conservación obras civiles",
          "_links": {
            "self": {
              "name": "Construcción completa, reparación y conservación obras civiles",
              "href": "https://api.euskadi.eus/procurements/companies/economic-activities/1.501.2"
            }
          }
        }
      ],
      "certificateStartDate": "2012-07-06",
      "certificateEndDate": "2012-12-12",
      "object": "LA CONSTRUCCIÓN COMPLETA, EDIFICACIÓN, REPARACIÓN Y CONSERVACIÓN DE OBRAS CIVILE, ASÍ COMO DE TODA CLASE DE INMUEBLES. ALBAÑILERÍA Y PEQUEÑOS TRABAJOS DE CONSTRUCCIÓN. CONSOLIDACIÓN Y PREPARACIÓN DE TERRENOS, DEMOLICIONES, DERRIBOS, PERFORACIONES PARA ALUMBRAMIENO DE AGUAS, CIMENTACIONES Y PAVIMENTACIONES, SE INCLUYEN LOS SISTEMAS DE AGOTAMIENTO Y DRAGADOS TANTO PARA LA REALIZACIÓN DE OBRAS CIVILES COMO PARA LA CONSTRUCCIÓN DE EDIFICIOS. PREPARACIÓN Y MONTAJE DE ESTRUCTURAS Y CUBIERTAS EN EDIFICACIONES Y ORAS CIVILES. MONTAJE E INSTALACIÓN DE ESTRUCTURAS METÁLICAS PARA TRANSPORTE, PUERTOS, OBRAS HIDRÁULICAS, PUENTES, POSTES Y TORRES METÁLICAS, CARRILES, COMPUERTAS, GRÚAS. INSTALACIONES ELÉCTRICAS EN GENERAL. INSTALACIONES DE REDES TELEGRÁFICAS, TELEFÓNICAS, TELEFONÍA SIN HILOS Y TELEVISIÓN. INSTALACIONES DE SISTEMAS DE BALIDACIÓN DE PUERTOS Y AEROPUERTOS. ACABADO DE OBRAS DE TODO TIPO EN EDIFICACIONES Y OBRAS CIVILES. SERVICIOS AUXILIARES DE LA CONSTRUCCIÓN Y DRAGADOS. COMPRA VENTA Y LA EXPLOTACIÓN DE EDIFICIOS, FINCAS Y CONSTRUCCIONES DE TODA CLASE. LA URBANIZACIÓN DE TERRENOS Y LA PROMOCIÓN INMOBILIARIA, ENTENDIENDO POR TAL LA PRÁCTICA DE CUANTAS GESTIONES ESTEN ENCAMINADAS A LA VENTA DE INMUEBLES. ASESORAMIENTO TÉCNICO EN MATERIA URBANÍSTICA. SERVICIO DE MANTENIMIENTO Y CUIDADO DE COMUNIDADES, MANCOMUNIDADES, EDIFICIOS Y OBRAS. REFORMAS Y REHABILITACIÓN EN GENERAL",
      "mainEntityOfPage": "https://www.contratacion.euskadi.eus/webkpe00-kperoc/es/ac71aBusquedaRegistrosWar/empresa/04761",
      "_links": {
        "self": {
          "name": "GAURTIK ERAIKUNTZAK, S.L.",
          "href": "https://api.euskadi.eus/procurements/companies/04761"
        }
      }
    },
    {
      "name": "DERBUKA, S.A.",
      "registrationNumber": "04772",
      "identificationNumber": "A01016260",
      "address": "ZUAZOBIDEA, 8",
      "location": {
        "postalCode": "01015",
        "municipality": "Vitoria-Gasteiz",
        "county": "Araba/Álava",
        "municipalityId": "059",
        "countyId": "01"
      },
      "economicActivities": [
        {
          "id": "1.314.1",
          "name": "Carpintería metálica",
          "_links": {
            "self": {
              "name": "Carpintería metálica",
              "href": "https://api.euskadi.eus/procurements/companies/economic-activities/1.314.1"
            }
          }
        },
        {
          "id": "1.482.2",
          "name": "Fabricación de artículos acabados de materias plásticas",
          "_links": {
            "self": {
              "name": "Fabricación de artículos acabados de materias plásticas",
              "href": "https://api.euskadi.eus/procurements/companies/economic-activities/1.482.2"
            }
          }
        }
      ],
      "certificateStartDate": "2012-07-06",
      "certificateEndDate": "2012-12-28",
      "object": "LA FABRICACIÓN, INSTALACIÓN Y MANTENIMIENTO DE RÓTULOS EXTERIORES E INTERIORES, Y ARTÍCULOS DE PUBLICIDAD EN GENERAL ASÍ COMO CUANTAS ACTIVIDADES PUEDAN RELACIONARSE CON LAS INDUSTRIAS DE LA MADERA, DE LOS PLÁSTICOS Y DE LOS METALES",
      "mainEntityOfPage": "https://www.contratacion.euskadi.eus/webkpe00-kperoc/es/ac71aBusquedaRegistrosWar/empresa/04772",
      "_links": {
        "self": {
          "name": "DERBUKA, S.A.",
          "href": "https://api.euskadi.eus/procurements/companies/04772"
        }
      }
    },
    {
      "name": "VITORIANA DE CONSTRUCCIÓN, S.A.",
      "registrationNumber": "00201",
      "identificationNumber": "A01025865",
      "address": "C/ EL SALVADOR, Nº 6 - BAJO",
      "location": {
        "postalCode": "01012",
        "municipality": "Vitoria-Gasteiz",
        "county": "Araba/Álava",
        "municipalityId": "059",
        "countyId": "01"
      },
      "economicActivities": [
        {
          "id": "1.501.1",
          "name": "Construcción completa, reparación y conservación de edificaciones",
          "_links": {
            "self": {
              "name": "Construcción completa, reparación y conservación de edificaciones",
              "href": "https://api.euskadi.eus/procurements/companies/economic-activities/1.501.1"
            }
          }
        },
        {
          "id": "1.501.2",
          "name": "Construcción completa, reparación y conservación obras civiles",
          "_links": {
            "self": {
              "name": "Construcción completa, reparación y conservación obras civiles",
              "href": "https://api.euskadi.eus/procurements/companies/economic-activities/1.501.2"
            }
          }
        }
      ],
      "certificateStartDate": "2012-07-05",
      "certificateEndDate": "2012-12-15",
      "object": "ESTRUCTURA Y ALBAÑILERÍA, ASÍ COMO CUBIERTAS, SANEAMIENTOS Y PAVIMENTACIÓN DE CALLES",
      "mainEntityOfPage": "https://www.contratacion.euskadi.eus/webkpe00-kperoc/es/ac71aBusquedaRegistrosWar/empresa/00201",
      "_links": {
        "self": {
          "name": "VITORIANA DE CONSTRUCCIÓN, S.A.",
          "href": "https://api.euskadi.eus/procurements/companies/00201"
        }
      }
    },
    {
      "name": "CONSTRUCCIONES ERGA, S.L.",
      "registrationNumber": "00448",
      "identificationNumber": "B20064978",
      "address": "C/ SECUNDINO ESNAOLA, Nº 19 - 1º DCHA.",
      "location": {
        "postalCode": "20001",
        "municipality": "Donostia / San Sebastián",
        "county": "Gipuzkoa",
        "municipalityId": "069",
        "countyId": "20"
      },
      "economicActivities": [
        {
          "id": "1.501.2",
          "name": "Construcción completa, reparación y conservación obras civiles",
          "_links": {
            "self": {
              "name": "Construcción completa, reparación y conservación obras civiles",
              "href": "https://api.euskadi.eus/procurements/companies/economic-activities/1.501.2"
            }
          }
        }
      ],
      "certificateStartDate": "2012-07-02",
      "certificateEndDate": "2012-12-04",
      "object": "LA CONSTRUCCIÓN DE OBRAS PÚBLICAS EN GENERAL",
      "mainEntityOfPage": "https://www.contratacion.euskadi.eus/webkpe00-kperoc/es/ac71aBusquedaRegistrosWar/empresa/00448",
      "_links": {
        "self": {
          "name": "CONSTRUCCIONES ERGA, S.L.",
          "href": "https://api.euskadi.eus/procurements/companies/00448"
        }
      }
    },
    {
      "name": "VANOS, S.A.",
      "registrationNumber": "01895",
      "identificationNumber": "A01032630",
      "address": "MASPARRA 16 POL. IND. JUNDIZ (OESTE)",
      "location": {
        "postalCode": "01015",
        "municipality": "Vitoria-Gasteiz",
        "county": "Araba/Álava",
        "municipalityId": "059",
        "countyId": "01"
      },
      "economicActivities": [
        {
          "id": "1.501.2",
          "name": "Construcción completa, reparación y conservación obras civiles",
          "_links": {
            "self": {
              "name": "Construcción completa, reparación y conservación obras civiles",
              "href": "https://api.euskadi.eus/procurements/companies/economic-activities/1.501.2"
            }
          }
        }
      ],
      "certificateStartDate": "2012-06-29",
      "certificateEndDate": "2012-12-26",
      "object": "LA COMERCIALIZACIÓN, INSTALACIÓN, CONSERVACIÓN, MANTENIMIENTO  Y MONTAJE DE ELEMENTOS RELACIONADOS DIRECTA O INDIRECTAMENTE CON TODO TIPO DE BALIZAMIENTOS DE SEGURIDAD, BARRERAS DE SEGURIDAD, BARANDILLADO, CERRAMIENTOS, MOBILIARIO URBANO,  SEÑALIZACIÓN VERTICAL PARA: CALZADAS, CAMINOS, CARRETERAS, AUTOPISTAS, PUERTOS, AEROPUERTOS, PUENTES, OBRAS PÚBLICAS O PRIVADAS, ASÍ COMO SERVICIOS DE CONSERVACIÓN Y MANTENIMIENTO EN: CALZADAS, CARRETERAS, PISTAS, AUTOPISTAS, AUTOVÍAS, PUENTES, MONTES Y JARDINES. SERVICIOS DE CONSERVACIÓN Y MANTENIMIENTO DE MOBILIARIO URBANO. SERVICIOS DE ELABORACIÓN DE ESTUDIOS Y PLANES DE SEGURIDAD, EJECUCIÓN, SEGUIMIENTO Y SUPERVISIÓN ASÍ COMO LA SEÑALIZACIÓN DE OBRAS EN CALZADAS, CARRETERAS, PISTAS, AUTOPISTAS, AUTOVÍAS, AEROPUERTOS, PUERTOS Y PUENTESM ETC.. FABRICACIÓN DE SEÑALES LUMINOSAS Y ELEMENTOS DE SEÑALIZACIÓN LUMINOSOS DE CUALQUIER TIPO, Y CUALQUIER OTRO DE LÍCITO COMERCIO QUE LA COMPAÑÍA ACUERDE ESTABLECER, PREVIO CUMPLIMIENTO DE LOS REQUISITOS LEGALES",
      "mainEntityOfPage": "https://www.contratacion.euskadi.eus/webkpe00-kperoc/es/ac71aBusquedaRegistrosWar/empresa/01895",
      "_links": {
        "self": {
          "name": "VANOS, S.A.",
          "href": "https://api.euskadi.eus/procurements/companies/01895"
        }
      }
    },
    {
      "name": "SERVICIOS EMPRESARIALES LANKIDE, S.L.",
      "registrationNumber": "02096",
      "identificationNumber": "B01162973",
      "address": "C/ KAPELAMENDI, Nº 7. POL. IND. GAMARRA",
      "location": {
        "postalCode": "01013",
        "municipality": "Vitoria-Gasteiz",
        "county": "Araba/Álava",
        "municipalityId": "059",
        "countyId": "01"
      },
      "economicActivities": [
        {
          "id": "1.999",
          "name": "Otros servicios n.c.o.p",
          "_links": {
            "self": {
              "name": "Otros servicios n.c.o.p",
              "href": "https://api.euskadi.eus/procurements/companies/economic-activities/1.999"
            }
          }
        }
      ],
      "certificateStartDate": "2012-06-29",
      "certificateEndDate": "2012-12-08",
      "object": "LA ORGANIZACIÓN, PLANIFICACIÓN Y GESTIÓN DE ACCIONES CULTURALES, LÚDICAS, SOCIALES, DEPORTIVAS, EDUCATIVAS Y COMUNICATIVAS ENTRE LAS QUE CABE DESTACAR, GESTIÓN DE EQUIPAMIENTOS Y SERVICIOS, CAMPAÑAS DE COMUNICACIÓN Y ORGANIZACIÓN TÉCNICA DE ACTOS, REPRESENTACIÓN DE TERCEROS PARA DICHAS ACCIONES",
      "mainEntityOfPage": "https://www.contratacion.euskadi.eus/webkpe00-kperoc/es/ac71aBusquedaRegistrosWar/empresa/02096",
      "_links": {
        "self": {
          "name": "SERVICIOS EMPRESARIALES LANKIDE, S.L.",
          "href": "https://api.euskadi.eus/procurements/companies/02096"
        }
      }
    }
  ]
}