{
  "totalItems": 9042,
  "totalPages": 905,
  "currentPage": 375,
  "itemsOfPage": 10,
  "items": [
    {
      "name": "CDC DATA, S.L.",
      "registrationNumber": "09967",
      "identificationNumber": "B70972898",
      "address": "C/ EL ARBOL 25, OFIC. 4",
      "location": {
        "postalCode": "48980",
        "municipality": "Santurtzi",
        "county": "Bizkaia",
        "municipalityId": "082",
        "countyId": "48"
      },
      "economicActivities": [
        {
          "id": "1.355.2",
          "name": "Edición de soportes grabados de sonido, vídeo y de informática",
          "_links": {
            "self": {
              "name": "Edición de soportes grabados de sonido, vídeo y de informática",
              "href": "https://api.euskadi.eus/procurements/companies/economic-activities/1.355.2"
            }
          }
        },
        {
          "id": "1.844",
          "name": "Servicios de publicidad, relaciones públicas y similares",
          "_links": {
            "self": {
              "name": "Servicios de publicidad, relaciones públicas y similares",
              "href": "https://api.euskadi.eus/procurements/companies/economic-activities/1.844"
            }
          }
        },
        {
          "id": "1.849.9",
          "name": "Otros servicios independientes n.c.o.p",
          "_links": {
            "self": {
              "name": "Otros servicios independientes n.c.o.p",
              "href": "https://api.euskadi.eus/procurements/companies/economic-activities/1.849.9"
            }
          }
        }
      ],
      "certificateStartDate": "2025-01-17",
      "certificateEndDate": "2025-07-17",
      "object": "ACTIVIDAD PRINCIPAL: RELACIONES PÚBLICAS Y COMUNICACIÓN; (CÓDIGO CNAE: 7021). OTRAS ACTIVIDADES: OTRAS ACTIVIDADES DE CONSULTORÍA DE GESTIÓN EMPRESARIAL; AGENCIAS DE PUBLICIDAD; SERVICIOS DE REPRESENTACIÓN DE MEDIOS DE COMUNICACIÓN; ESTUDIOS DE MERCADO Y REALIZACIÓN DE ENCUESTAS DE OPINIÓN PÚBLICA.",
      "mainEntityOfPage": "https://www.contratacion.euskadi.eus/webkpe00-kperoc/es/ac71aBusquedaRegistrosWar/empresa/09967",
      "_links": {
        "self": {
          "name": "CDC DATA, S.L.",
          "href": "https://api.euskadi.eus/procurements/companies/09967"
        }
      }
    },
    {
      "name": "ANALIZA CONTROL DE CALIDAD, S.L.",
      "registrationNumber": "09966",
      "identificationNumber": "B09394107",
      "address": "C/ Vitoria, 274 Nave 49 Complejo Naves Taglosa Pol. Ind. Gamonal Villimar",
      "location": {
        "postalCode": "09007",
        "municipality": "Burgos",
        "county": "Burgos",
        "municipalityId": "059",
        "countyId": "09"
      },
      "economicActivities": [
        {
          "id": "1.843.9",
          "name": "Otros servicios técnicos n.c.o.p",
          "_links": {
            "self": {
              "name": "Otros servicios técnicos n.c.o.p",
              "href": "https://api.euskadi.eus/procurements/companies/economic-activities/1.843.9"
            }
          }
        },
        {
          "id": "1.932.1",
          "name": "Enseñanza de formación y perfeccionamiento profesional no superior",
          "_links": {
            "self": {
              "name": "Enseñanza de formación y perfeccionamiento profesional no superior",
              "href": "https://api.euskadi.eus/procurements/companies/economic-activities/1.932.1"
            }
          }
        }
      ],
      "certificateStartDate": "2025-01-16",
      "certificateEndDate": "2025-07-16",
      "object": "A) . - LA PRESTACIÓN DE SERVICIOS DE LABORATORIO DE ANÁLISIS AGROALIMENTARIOS Y MEDIO AMBIENTALES, Y ASESORÍA TÉCNICA Y DE CONTROL DE CALIDAD. B) . - LA PREPARACIÓN Y ELABORACIÓN DE REACTIVOS Y MEDIOS DE ANÁLISIS. C) . - LA ADQUISICIÓN, ADMINISTRACIÓN Y VENTA DE VALORES MOBILIARIOS, DE RENTA FIJA Y VARIABLE, CON Y SIN COTIZACIÓN EN BOLSA, POR CUENTA PROPIA O DE FORMA INDIRECTA A TRAVÉS DE TITULARIDAD DE ACCIONES O PARTICIPACIONES EN SOCIEDADES CON IDÉNTICO OBJETO, ANÁLOGO O SIMILAR, QUEDANDO EXPRESAMENTE EXCLUIDAS AQUELLAS ACTIVIDADES QUE LA LEGISLACIÓN VIGENTE ESPECIAL Y LA LEY DEL MERCADO DE VALORES ATRIBUYEN CON CARÁCTER EXCLUSIVO A OTRAS ENTIDADES. D) . - LA COMPRAVENTA Y ARRENDAMIENTO DE BIENES INMUEBLES.",
      "mainEntityOfPage": "https://www.contratacion.euskadi.eus/webkpe00-kperoc/es/ac71aBusquedaRegistrosWar/empresa/09966",
      "_links": {
        "self": {
          "name": "ANALIZA CONTROL DE CALIDAD, S.L.",
          "href": "https://api.euskadi.eus/procurements/companies/09966"
        }
      }
    },
    {
      "name": "SERCOIN ELECTRICIDAD, S.L.",
      "registrationNumber": "06479",
      "identificationNumber": "B95096251",
      "address": "Carretera Bilbao-Plencia, 40",
      "location": {
        "postalCode": "48950",
        "municipality": "Erandio",
        "county": "Bizkaia",
        "municipalityId": "902",
        "countyId": "48"
      },
      "economicActivities": [
        {
          "id": "1.504.12",
          "name": "Instalaciones eléctricas en toda clase de edificios",
          "_links": {
            "self": {
              "name": "Instalaciones eléctricas en toda clase de edificios",
              "href": "https://api.euskadi.eus/procurements/companies/economic-activities/1.504.12"
            }
          }
        }
      ],
      "certificateStartDate": "2025-01-15",
      "certificateEndDate": "2025-07-15",
      "object": "A).- LA ADQUISICIÓN Y ENAJENACIÓN, POR CUALQUIER TÍTULO, DE FINCAS RÚSTICAS Y URBANAS, YA SEAN TIERRAS, SOLARES, EDIFICIOS, LA CONSTRUCCIÓN DE ÉSTOS, Y LA ADMINISTRACIÓN, TENENCIA, EXPLOTACIÓN Y ARRENDAMIENTO, YA SEA ACTIVO O PASIVO, DE TALES BIENES Y SU VENTA TOTAL O PARCIAL, SEGÚN CONVENGA PARA SU APROVECHAMIENTO AGRÍCOLA, FORESTAL, URBANO, INDUSTRIAL O CUALQUIER OTRO. B).- LA COMPRA, VENTA, IMPORTACIÓN , EXPORTACIÓN , DISTRIBUCIÓN, ALMACENAMIENTO , FABRICACIÓN , COMERCIALIZACIÓN , CONSTRUCCIÓN , MONTAJE , REPARACIÓN , INSTALACIÓN Y RESTAURACIÓN DE TODA CLASE DE ELECTRODOMÉSTICOS , INSTALACIONES ELÉCTRICAS, ELEMENTOS INDUSTRIALES, TERCIARIOS, ENERGÍAS RENOVABLES Y EÓLICAS.  C).- LA PRESTACIÓN Y EXPLOTACIÓN DE TODA CLASE DE SERVICIOS PÚBLICOS O PRIVADOS DE TELECOMUNICACIÓN, Y A TAL EFECTO, EL DISEÑO, INSTALACIÓN, CONSERVACIÓN, REFACCIÓN, MEJORA, ADQUISICIÓN, ENAJENACIÓN, INTERCONEXIÓN, GESTIÓN, ADMINISTRACIÓN Y CUALQUIER OTRA ACTIVIDAD RESPECTO DE TODA CLASE DE REDES, LÍNEAS , SATÉLITES, EQUIPOS, SISTEMAS E INFRAESTRUCTURAS TÉCNICAS, ACTUALES O FUTUROS DE TELECOMUNICACIÓN; LA PRESTACIÓN Y EXPLOTACIÓN DE TODA CLASE DE SERVICIOS AUXILIARES O COMPLEMENTARIOS DERIVADOS DE LA TELECOMUNICACIÓN; LA INVESTIGACIÓN Y DESARROLLO, PROMOCIÓN Y APLICACIÓN DE TODA CLASE DE PRINCIPIOS COMPONENTES, EQUIPOS, Y SISTEMAS UTILIZADOS DIRECTA O INDIRECTAMENTE PARA LAS TELECOMUNICACIONES; LA FABRICACIÓN O PRODUCCIÓN, Y EN GENERAL,  LAS DEMÁS FORMAS DE ACTIVIDAD INDUSTRIAL RELACIONADAS CON LAS TELECOMUNICACIONES. D).- LA COMPRA, VENTA, IMPORTACIÓN, EXPORTACIÓN, COMERCIALIZACIÓN, DISTRIBUCIÓN, FABRICACIÓN, ALMACENAMIENTO Y REPRESENTACIÓN DE TODO GÉNERO DE ARTÍCULOS DEL GRAN ALMACÉN, TALES COMO TEJIDOS, LANAS Y PRENDAS DE VESTIR, ARTÍCULOS DE REGALO Y DECORACIÓN DEL HOGAR, DEPORTE  Y MOBILIARIO",
      "mainEntityOfPage": "https://www.contratacion.euskadi.eus/webkpe00-kperoc/es/ac71aBusquedaRegistrosWar/empresa/06479",
      "_links": {
        "self": {
          "name": "SERCOIN ELECTRICIDAD, S.L.",
          "href": "https://api.euskadi.eus/procurements/companies/06479"
        }
      }
    },
    {
      "name": "LOURDES BERENGUER RUZ",
      "registrationNumber": "09726",
      "identificationNumber": "30680540N",
      "address": "OLATXU 5",
      "location": {
        "postalCode": "48480",
        "municipality": "Arrigorriaga",
        "county": "Bizkaia",
        "municipalityId": "011",
        "countyId": "48"
      },
      "economicActivities": [
        {
          "id": "1.646.51",
          "name": "Venta al por menor de tabaco en máquina, titular establecimiento",
          "_links": {
            "self": {
              "name": "Venta al por menor de tabaco en máquina, titular establecimiento",
              "href": "https://api.euskadi.eus/procurements/companies/economic-activities/1.646.51"
            }
          }
        },
        {
          "id": "1.673.2",
          "name": "Otros cafés y bares",
          "_links": {
            "self": {
              "name": "Otros cafés y bares",
              "href": "https://api.euskadi.eus/procurements/companies/economic-activities/1.673.2"
            }
          }
        },
        {
          "id": "1.969.421",
          "name": "Máquinas recreativas tipo \"B\", titular del establecimiento",
          "_links": {
            "self": {
              "name": "Máquinas recreativas tipo \"B\", titular del establecimiento",
              "href": "https://api.euskadi.eus/procurements/companies/economic-activities/1.969.421"
            }
          }
        }
      ],
      "certificateStartDate": "2025-01-14",
      "certificateEndDate": "2025-06-27",
      "object": "Venta al por menor de tabaco en máquina, titular establecimiento. Otros cafés y bares. Máquinas recreativas tipo \"B\", titular del establecimiento.",
      "mainEntityOfPage": "https://www.contratacion.euskadi.eus/webkpe00-kperoc/es/ac71aBusquedaRegistrosWar/empresa/09726",
      "_links": {
        "self": {
          "name": "LOURDES BERENGUER RUZ",
          "href": "https://api.euskadi.eus/procurements/companies/09726"
        }
      }
    },
    {
      "name": "SAIRA MUEBLES, S.L.",
      "registrationNumber": "09959",
      "identificationNumber": "B20977187",
      "address": "Calle Abendaño 10",
      "location": {
        "postalCode": "20800",
        "municipality": "Zarautz",
        "county": "Gipuzkoa",
        "municipalityId": "079",
        "countyId": "20"
      },
      "economicActivities": [
        {
          "id": "1.468.1",
          "name": "Fabricación de mobiliario de madera para el hogar",
          "_links": {
            "self": {
              "name": "Fabricación de mobiliario de madera para el hogar",
              "href": "https://api.euskadi.eus/procurements/companies/economic-activities/1.468.1"
            }
          }
        },
        {
          "id": "1.615.2",
          "name": "Venta al por mayor de muebles",
          "_links": {
            "self": {
              "name": "Venta al por mayor de muebles",
              "href": "https://api.euskadi.eus/procurements/companies/economic-activities/1.615.2"
            }
          }
        },
        {
          "id": "1.653.1",
          "name": "Venta al por menor de muebles (excepto los de oficina)",
          "_links": {
            "self": {
              "name": "Venta al por menor de muebles (excepto los de oficina)",
              "href": "https://api.euskadi.eus/procurements/companies/economic-activities/1.653.1"
            }
          }
        },
        {
          "id": "1.861.2",
          "name": "Alquiler de locales industriales y otros alquileres n.c.o.p",
          "_links": {
            "self": {
              "name": "Alquiler de locales industriales y otros alquileres n.c.o.p",
              "href": "https://api.euskadi.eus/procurements/companies/economic-activities/1.861.2"
            }
          }
        }
      ],
      "certificateStartDate": "2025-01-14",
      "certificateEndDate": "2025-07-14",
      "object": "LA FABRICACIÓN Y COMERCIALIZACIÓN DE MOBILIARIO DE MADERA.",
      "mainEntityOfPage": "https://www.contratacion.euskadi.eus/webkpe00-kperoc/es/ac71aBusquedaRegistrosWar/empresa/09959",
      "_links": {
        "self": {
          "name": "SAIRA MUEBLES, S.L.",
          "href": "https://api.euskadi.eus/procurements/companies/09959"
        }
      }
    },
    {
      "name": "ISTEDOA S.COOP. PEQUEÑA",
      "registrationNumber": "05715",
      "identificationNumber": "F75031260",
      "address": "C/LABEAGA 60 4E",
      "location": {
        "postalCode": "20700",
        "municipality": "Urretxu",
        "county": "Gipuzkoa",
        "municipalityId": "077",
        "countyId": "20"
      },
      "economicActivities": [
        {
          "id": "1.501.3",
          "name": "Albañilería y pequeños trabajos de construcción en general",
          "_links": {
            "self": {
              "name": "Albañilería y pequeños trabajos de construcción en general",
              "href": "https://api.euskadi.eus/procurements/companies/economic-activities/1.501.3"
            }
          }
        },
        {
          "id": "1.847",
          "name": "Servicios de consultoría",
          "_links": {
            "self": {
              "name": "Servicios de consultoría",
              "href": "https://api.euskadi.eus/procurements/companies/economic-activities/1.847"
            }
          }
        },
        {
          "id": "1.922",
          "name": "Servicios de limpieza",
          "_links": {
            "self": {
              "name": "Servicios de limpieza",
              "href": "https://api.euskadi.eus/procurements/companies/economic-activities/1.922"
            }
          }
        }
      ],
      "certificateStartDate": "2025-01-13",
      "certificateEndDate": "2025-07-01",
      "classification": [
        {
          "id": "S",
          "name": "Servicios",
          "groups": [
            {
              "id": "L",
              "subgroups": [
                {
                  "id": "06",
                  "name": "Servicios de portería, control de accesos e información al público",
                  "categories": [
                    {
                      "id": "1",
                      "name": "Desde 0 Hasta 150.000",
                      "_links": {
                        "self": {
                          "name": "Desde 0 Hasta 150.000",
                          "href": "https://api.euskadi.eus/procurements/companies/types/S/categories/1"
                        }
                      }
                    }
                  ],
                  "_links": {
                    "self": {
                      "name": "Servicios de portería, control de accesos e información al público",
                      "href": "https://api.euskadi.eus/procurements/companies/types/S/groups/L/subgroups/06"
                    }
                  }
                }
              ],
              "_links": {
                "self": {
                  "href": "https://api.euskadi.eus/procurements/companies/types/S/groups/L"
                }
              }
            },
            {
              "id": "U",
              "subgroups": [
                {
                  "id": "01",
                  "name": "Servicios de limpieza ",
                  "categories": [
                    {
                      "id": "1",
                      "name": "Desde 0 Hasta 150.000",
                      "_links": {
                        "self": {
                          "name": "Desde 0 Hasta 150.000",
                          "href": "https://api.euskadi.eus/procurements/companies/types/S/categories/1"
                        }
                      }
                    }
                  ],
                  "_links": {
                    "self": {
                      "name": "Servicios de limpieza ",
                      "href": "https://api.euskadi.eus/procurements/companies/types/S/groups/U/subgroups/01"
                    }
                  }
                }
              ],
              "_links": {
                "self": {
                  "href": "https://api.euskadi.eus/procurements/companies/types/S/groups/U"
                }
              }
            }
          ],
          "_links": {
            "self": {
              "name": "Servicios",
              "href": "https://api.euskadi.eus/procurements/companies/types/S"
            }
          }
        }
      ],
      "object": "LA PRESTACIÓN DE SERVICIOS EN INSTALACIONES DEPORTIVAS DE ADMINISTRACIONES PÚBLICAS, SERVICIOS REGULADOS POR LA LEY DE CONTRATOS DE LAS ADMINISTRACIONES PÚBLICAS. EN CONCRETO: SERVICIOS ADMINISTRATIVOS. -SERVICIOS AUXILIARES PARA TRABAJOS ADMINISTRATIVOS DE ARCHIVO Y SIMILARES.  -ENCUESTAS, TOMA DE DATOS Y SERVICIOS ANÁLOGOS. --ORGANIZACIÓN Y PROMOCIÓN DE CONGRESOS, FERIAS Y EXPOSICIONES. --SERVICIOS DE PORTERÍA, CONTROL DE ACCESOS E INFORMACIÓN AL PÚBLICO. SERVICIOS DE MANTENIMIENTO Y REPARACIÓN DE EQUIPOS E INSTALACIONES: -MANTENIMIENTO Y REPARACIÓN DE EQUIPOS E INSTALACIONES ELÉCTRICAS Y ELECTRÓNICAS. -MANTENIMIENTO Y REPARACIÓN DE EQUIPOS E INSTALACIONES DE FONTANERÍA, CONDUCCIONES DE AGUA Y GAS. -MANTENIMIENTO Y REPARACIÓN DE EQUIPOS E INSTALACIONES DE CALEFACCIÓN Y AIRE ACONDICIONADO. -MANTENIMIENTO Y REPARACIÓN DE EQUIPOS E INSTALACIONES DE ELECTROMEDICINA. -MANTENIMIENTO Y REPARACIÓN DE EQUIPOS Y MAQUINARIA DE OFICINA. SERVICIOS GENERALES: -SERVICIOS DE LIMPIEZA EN GENERAL -LAVANDERÍA Y TINTE. -ALMACENAJE.\n",
      "mainEntityOfPage": "https://www.contratacion.euskadi.eus/webkpe00-kperoc/es/ac71aBusquedaRegistrosWar/empresa/05715",
      "_links": {
        "self": {
          "name": "ISTEDOA S.COOP. PEQUEÑA",
          "href": "https://api.euskadi.eus/procurements/companies/05715"
        }
      }
    },
    {
      "name": "LANBIETA, S.L.",
      "registrationNumber": "07255",
      "identificationNumber": "B95464632",
      "address": "PARQUE EMPRESARIAL BOROA, 19-PAB 24",
      "location": {
        "postalCode": "48340",
        "municipality": "Amorebieta-Etxano",
        "county": "Bizkaia",
        "municipalityId": "003",
        "countyId": "48"
      },
      "economicActivities": [
        {
          "id": "1.617.9",
          "name": "Venta al por mayor interindustrial de otros productos n.c.o.p",
          "_links": {
            "self": {
              "name": "Venta al por mayor interindustrial de otros productos n.c.o.p",
              "href": "https://api.euskadi.eus/procurements/companies/economic-activities/1.617.9"
            }
          }
        }
      ],
      "certificateStartDate": "2025-01-09",
      "certificateEndDate": "2025-06-15",
      "object": "LA COMPRAVENTA AL POR MAYOR Y POR MENOR, ALMACENAJE, PROMOCION Y REALIZACION DE TODO TIPO DE TRABAJOS RELACIONADOS CON FERRETERIA, SUMINISTROS INDUSTRIALES, CERRAJERIA, AUTOMATISMOS, ELECTRONICA, CIERRES METALICOS, CONSTRUCCIONES METALICAS, HERRERIA,PUERTAS Y CARPINTERIA METALICA. LAS INSTALACIONES DE TODO TIPO Y EN CONCRETO DE SISTEMAS DE SEGURIDAD. LOS TRABAJOS DE CONSTRUCCION EN GENERAL. LA COMPRAVENTA Y ALQUILER DE INMUEBLES\r\n",
      "mainEntityOfPage": "https://www.contratacion.euskadi.eus/webkpe00-kperoc/es/ac71aBusquedaRegistrosWar/empresa/07255",
      "_links": {
        "self": {
          "name": "LANBIETA, S.L.",
          "href": "https://api.euskadi.eus/procurements/companies/07255"
        }
      }
    },
    {
      "name": "ESSENTIEL OUTSOURCING, S.L.",
      "registrationNumber": "09742",
      "identificationNumber": "B67384784",
      "address": "Passeig Garcia Faria 49",
      "location": {
        "postalCode": "08019",
        "municipality": "Barcelona",
        "county": "Barcelona",
        "municipalityId": "019",
        "countyId": "08"
      },
      "economicActivities": [
        {
          "id": "1.849.9",
          "name": "Otros servicios independientes n.c.o.p",
          "_links": {
            "self": {
              "name": "Otros servicios independientes n.c.o.p",
              "href": "https://api.euskadi.eus/procurements/companies/economic-activities/1.849.9"
            }
          }
        }
      ],
      "certificateStartDate": "2025-01-09",
      "certificateEndDate": "2025-07-09",
      "object": "LA PRESENTACIÓN DE SERVICIOS DE CONSULTORÍA A SUS CLIENTES EN ÁREA DE ATENCIÓN TELEFÓNICA, TELESERVICIOS, ENTENDIDOS EN SU MÁS AMPLIO SENTIDO. ASESORAMIENTO EN ESTUDIO DE ACTIVIDADES PROPIAS DE UN CENTRO DE ATENCIÓN DE LLAMADA, CNAE PRINCIPAL 8220. PRESTACIÓN DE FORMACIÓN. PRESTACIÓN DE SERVICIOS INFORMÁTICOS. VENTA Y ALQUILER DE PRODUCTOS \"HARWARE\" Y \"SOFTWARE\" Y SU MANTENIMIENTO. PRESTACIÓN DE SERVICIOS DE MARKETING ESTRATÉGICO Y EN GENERAL, CREACIÓN Y ACTUALIZACIÓN, MANTENIMIENTO DE BASES. PRESTACIÓN, CREACIÓN Y VENTA DE PÁGINA WEB, AGENCIA DE PUBLICIDAD. PRESTACIÓN EXTERNALIZACIÓN DE SERVICIO PROPIO A UN CENTRO DE ATENCIÓN DE LLAMADAS.",
      "mainEntityOfPage": "https://www.contratacion.euskadi.eus/webkpe00-kperoc/es/ac71aBusquedaRegistrosWar/empresa/09742",
      "_links": {
        "self": {
          "name": "ESSENTIEL OUTSOURCING, S.L.",
          "href": "https://api.euskadi.eus/procurements/companies/09742"
        }
      }
    },
    {
      "name": "SANVI CONSULTING MOBILITY, S.L.",
      "registrationNumber": "09384",
      "identificationNumber": "B56631765",
      "address": "Paseo Marítimo Pablo Ruiz Picasso, 4",
      "location": {
        "postalCode": "29016",
        "municipality": "Málaga",
        "county": "Málaga",
        "municipalityId": "067",
        "countyId": "29"
      },
      "economicActivities": [
        {
          "id": "1.843.9",
          "name": "Otros servicios técnicos n.c.o.p",
          "_links": {
            "self": {
              "name": "Otros servicios técnicos n.c.o.p",
              "href": "https://api.euskadi.eus/procurements/companies/economic-activities/1.843.9"
            }
          }
        },
        {
          "id": "1.845",
          "name": "Explotación electrónica por cuenta de terceros",
          "_links": {
            "self": {
              "name": "Explotación electrónica por cuenta de terceros",
              "href": "https://api.euskadi.eus/procurements/companies/economic-activities/1.845"
            }
          }
        }
      ],
      "certificateStartDate": "2025-01-09",
      "certificateEndDate": "2025-06-30",
      "object": "ACTIVIDAD PRINCIPAL: 70.22 / OTRAS ACTIVIDADES DE CONSULTORÍA DE GESTIÓN EMPRESARIAL. OTRAS ACTIVIDADES: 82.99 / OTRAS ACTIVIDADES DE APOYO A LAS EMPRESAS, 62.02 / ACTIVIDADES DE CONSULTORÍA INFORMÁTICA, 62.09 / OTROS SERVICIOS RELACIONADOS CON LAS TECNOLOGÍAS DE LA INFORMACIÓN Y LA INFORMÁTICA, 62.01 / ACTIVIDADES DE PROGRAMACIÓN INFORMÁTICA, 62.03 / GESTIÓN DE RECURSOS INFORMÁTICOS, 71.11 / SERVICIOS TÉCNICOS DE ARQUITECTURA, 71.12 / SERVICIOS TÉCNICOS DE INGENIERÍA Y OTRAS ACTIVIDADES RELACIONADAS CON EL ASESORAMIENTO TÉCNICO, 46/19 / INTERMEDIARIOS DEL COMERCIO DE PRODUCTOS DIVERSOS.",
      "mainEntityOfPage": "https://www.contratacion.euskadi.eus/webkpe00-kperoc/es/ac71aBusquedaRegistrosWar/empresa/09384",
      "_links": {
        "self": {
          "name": "SANVI CONSULTING MOBILITY, S.L.",
          "href": "https://api.euskadi.eus/procurements/companies/09384"
        }
      }
    },
    {
      "name": "SERVICIO DE ASISTENCIA TECNICA APEL, S.L.",
      "registrationNumber": "09951",
      "identificationNumber": "B95186409",
      "address": "Pg. Ugaldeguren III, parc. 23 nº 7-8",
      "location": {
        "postalCode": "48170",
        "municipality": "Zamudio",
        "county": "Bizkaia",
        "municipalityId": "905",
        "countyId": "48"
      },
      "economicActivities": [
        {
          "id": "1.325.4",
          "name": "Construcción de maquinaria de elevación y manipulación",
          "_links": {
            "self": {
              "name": "Construcción de maquinaria de elevación y manipulación",
              "href": "https://api.euskadi.eus/procurements/companies/economic-activities/1.325.4"
            }
          }
        },
        {
          "id": "1.692",
          "name": "Reparación de maquinaria industrial",
          "_links": {
            "self": {
              "name": "Reparación de maquinaria industrial",
              "href": "https://api.euskadi.eus/procurements/companies/economic-activities/1.692"
            }
          }
        }
      ],
      "certificateStartDate": "2025-01-08",
      "certificateEndDate": "2025-07-07",
      "object": "A) LA FABRICACIÓN, COMERCIALIZACIÓN, COMPRA, VENTA, REPARACIÓN, IMPORTACIÓN Y EXPORTACIÓN, COMERCIALIZACIÓN DE TODO TIPO DE MAQUINARIA, HIDRÁULICA, NEUMÁTICA, ELÉCTRICA, MECÁNICA, INCLUIDAS GRÚAS Y POLIPASTOS, Y PIEZAS MECÁNICAS; ENSAMBLAJE Y CONSTRUCCIÓN DE MÁQUINAS, FABRICACIÓN DE TROQUELES Y TODOS SUS DERIVADOS Y SU COMERCIALIZACIÓN; TRANSFORMACIÓN DE METALES POR ELECTROEROSIÓN Y PENETRACIÓN, ESTAMPACIÓN, TRANSFORMACIÓN DE MOLDES Y SU FABRICACIÓN PARA INYECTAR O ESTRUSIONAR PIEZAS Y SU COMERCIALIZACIÓN. B) . - LA DISTRIBUCIÓN DE MAQUINARIA, EQUIPOS, REPUESTOS Y LÍQUIDOS PARA LA INDUSTRIA, ASÍ COMO INSTALACIONES PARA LA PRESERVACIÓN, CONSERVACIÓN Y MEJORA DEL MEDIO AMBIENTE. C) . - EL ASESORAMIENTO Y PRESTACIÓN DE SERVICIOS A LA EMPRESA O INSTITUCIONES PÚBLICAS O PRIVADAS. D) . - LA REDACCIÓN DE PROYECTOS, DIRECCIÓN DE OBRA, INSPECCIÓN, CONTROL DE CALIDAD, MONTAJE DE INGENIERÍA, SUPERVISIÓN TÉCNICA DE INSTALACIONES Y PRODUCTOS INDUSTRIALES, SU APLICACIÓN, UTILIZACIÓN, MONTAJE, MANTENIMIENTO, INSTALACIÓN, GESTIÓN DE COMPRA, REPRESENTACIÓN, COMERCIALIZACIÓN, COMPRA Y VENTA DE INSTALACIONES, MAQUINARIAS, EQUIPOS, ACCESORIOS Y COMPONENTES PARA LA EXTRACCIÓN, MANIPULACIÓN, TRANSFORMACIÓN O TRATAMIENTO DE PRODUCTOS SÓLIDOS, LÍQUIDOS Y GASEOSOS, ASÍ COMO LA COMPRA, VENTA DE MAQUINARIA INDUSTRIAL. ",
      "mainEntityOfPage": "https://www.contratacion.euskadi.eus/webkpe00-kperoc/es/ac71aBusquedaRegistrosWar/empresa/09951",
      "_links": {
        "self": {
          "name": "SERVICIO DE ASISTENCIA TECNICA APEL, S.L.",
          "href": "https://api.euskadi.eus/procurements/companies/09951"
        }
      }
    }
  ]
}