{
  "totalItems": 9042,
  "totalPages": 905,
  "currentPage": 759,
  "itemsOfPage": 10,
  "items": [
    {
      "name": "CODEX GESTIÓN DE ARCHIVOS-AGIRITEGI KUDEAKETA, S.L.",
      "registrationNumber": "03629",
      "identificationNumber": "B95461596",
      "address": "TXORIERRI KALEA, 41 - 2 ESK.",
      "location": {
        "postalCode": "48940",
        "municipality": "Leioa",
        "county": "Bizkaia",
        "municipalityId": "054",
        "countyId": "48"
      },
      "economicActivities": [
        {
          "id": "1.849.9",
          "name": "Otros servicios independientes n.c.o.p",
          "_links": {
            "self": {
              "name": "Otros servicios independientes n.c.o.p",
              "href": "https://api.euskadi.eus/procurements/companies/economic-activities/1.849.9"
            }
          }
        }
      ],
      "certificateStartDate": "2008-09-10",
      "certificateEndDate": "2009-01-28",
      "object": "A) SERVICIOS DE ENSEÑANZA, INVESTIGACIÓN, GESTIÓN DOCUMENTAL, TRANSCRIPCIÓN, DOCUMENTACIÓN, CATALOGACIÓN, CONSERVACIÓN, DEPÓSITO Y ALMACENAMIENTO, Y SU DIGITALIZACIÓN, AUTOMATIZACIÓN, INFORMATIZACIÓN Y SOFTWARE ESPECÍFICO, DE ARCHIVOS, TÉCNICAS ARCHIVÍSTICAS Y DOCUMENTALES, Y ASIGNATURAS Y MATERIAS CON ELLAS RELACIONADAS.\r\nB) LA ORGANIZACIÓN, GESTIÓN Y CATALOGACIÓN DE BIBLIOTECAS.\r\nC) SERVICIOS DE TRADUCCIÓN DEL INGLÉS, FRANCÉS Y/O ESUKERA AL ESPAÑOL Y VICEVERSA, DE TODO TIPO DE TEXTOS Y DOCUMENTOS.\r\nD) LA REALIZACIÓN DE ESTUDIOS RELACIONADOS CON LA GENEALOGÍA Y LA HERÁLDICA",
      "mainEntityOfPage": "https://www.contratacion.euskadi.eus/webkpe00-kperoc/es/ac71aBusquedaRegistrosWar/empresa/03629",
      "_links": {
        "self": {
          "name": "CODEX GESTIÓN DE ARCHIVOS-AGIRITEGI KUDEAKETA, S.L.",
          "href": "https://api.euskadi.eus/procurements/companies/03629"
        }
      }
    },
    {
      "name": "ERICCSON ESPAÑA, S.A.",
      "registrationNumber": "03630",
      "identificationNumber": "A28858603",
      "address": "C/ RETAMA, 1",
      "location": {
        "postalCode": "28045",
        "municipality": "Madrid",
        "county": "Madrid",
        "municipalityId": "079",
        "countyId": "28"
      },
      "economicActivities": [
        {
          "id": "1.615.4",
          "name": "Venta al por mayor de aparatos y material radioeléctrico y electrónico",
          "_links": {
            "self": {
              "name": "Venta al por mayor de aparatos y material radioeléctrico y electrónico",
              "href": "https://api.euskadi.eus/procurements/companies/economic-activities/1.615.4"
            }
          }
        },
        {
          "id": "1.843.1",
          "name": "Servicios técnicos de ingeniería",
          "_links": {
            "self": {
              "name": "Servicios técnicos de ingeniería",
              "href": "https://api.euskadi.eus/procurements/companies/economic-activities/1.843.1"
            }
          }
        },
        {
          "id": "1.936",
          "name": "Investigación científica y técnica",
          "_links": {
            "self": {
              "name": "Investigación científica y técnica",
              "href": "https://api.euskadi.eus/procurements/companies/economic-activities/1.936"
            }
          }
        }
      ],
      "certificateStartDate": "2008-09-10",
      "certificateEndDate": "2009-03-04",
      "object": "1º - LA REALIZACIÓN DE TODO TIPO DE TRABAJOS, OBRAS, SERVICIOS, ESTUDIOS E INFORMES, LA FORMACIÓN, LA INVESTIGACIÓN, LA INGENIERÍA, EL DISEÑO, EL DESARROLLO, LA INNOVACIÓN TECNOLÓGICA, LA FABRICACIÓN, LA INTEGRACIÓN DE SISTEMAS Y PLATAFORMAS, LA COMPRA, LA VENTA, LA INSTALACIÓN E IMPLANTACIÓN, LA GARANTÍA, EL MANTENIMIENTO, LA REPARACIÓN, LA EXPLOTACIÓN, EL ALQUILER, LA EXPORTACIÓN, LA IMPORTACIÓN, LA DISTRIBUCIÓN, LA REPRESENTACIÓN Y CUALESQUIERA OTRAS ACTIVIDADES RELACIONADAS CON:\r\nA) TECNOLOGÍA, COMPONENTES, EQUIPOS Y SISTEMAS ELÉCTRICOS, ELECTRÓNICOS Y DE TELECOMUNICACIONES\r\nB) TECNOLOGÍA, COMPONENTES, APARATOS, EQUIPOS, TERMINALES, SISTEMAS Y TENDIDOS TELEFÓNICOS O DE REDES DE TELEFONÍA Y CONMUTACIÓN DE VOZ Y DATOS\r\nC) INFORMÁTICA, HARDWARE, SOFTWARE, COMPONENTES, EQUIPOS DE VOZ Y DATOS, SISTEMAS DE LA INFORMACIÓN Y TECNOLOGÍA Y SISTEMAS Y EQUIPOS CUALESQUIERA VINCULADOS CON ESTOS ANTERIORES\r\n2º- LA REALIZACIÓN, PROMOCIÓN, ADQUISIÓN, INVERSIÓN, VENTA DE TODO TIPO DE SERVICIOS BASADOS EN PLATAFORMAS, SISTEMAS Y APLICACIONES, PROYECTOS, TRABAJOS, SERVICIOS PROFESIONALES, ESTUDIOS E INFORMES, LA INVESTIGACIÓN, LA INGENIERÍA, INNOVACIÓN TECNOLÓGICA, EL DISEÑO, EL DESARROLLO, LA INTEGRACIÓN DE SISTEMAS, PLATAFORMAS Y APLICACIONES, LA FORMACIÓN, CONSULTORÍA Y CUALESQUIERA OTRAS ACTIVIDADES VINCULADAS CON LOS MEDIOS Y LAS TECNOLOGÍAS DE LA INFORMACIÓN Y DE LA COMUNICACIÓN O QUE TENGAN SU BASE EN LAS MISMAS Y EN AQUELLOS CAMPOS DE ACTUACIÓN CON SOPORTE DE INTERNET, INTERNET MÓVIL Y REDES DE COMUNICACIONES MÓVILES Y/O FIJAS; SERVICIOS PRESTADOS POR REDES TELEFÓNICAS MÓVILES Y/O FIJAS PARA TODO TIPO APLICACIONES DE VOZ, DATOS, MENSAJERÍA, MULTIMEDIA, E-COMMERCE, M-COMMERCE, E-GOVERNMENT; DESARROLLO Y FOMENTO DE REDES DE BANDA ANCHA, QUE PUEDAN SER DE APLICACIÓN EN LOS ÁMBITOS DOMESTICO Y EMPRESARIAL (TURISMO, SANIDAD, BANCA, SERVICIOS DE INFORMACIÓN Y COMUNICACIÓN TANTO PARA APLICACIONES COMERCIALES COMO CULTURALES O ARTÍSTICAS, FINANCIERAS, DOMÓTICA, COMERCIO ELECTRÓNICO, FORMACIÓN, EDUCACIÓN Y OCIO, ETC.)",
      "mainEntityOfPage": "https://www.contratacion.euskadi.eus/webkpe00-kperoc/es/ac71aBusquedaRegistrosWar/empresa/03630",
      "_links": {
        "self": {
          "name": "ERICCSON ESPAÑA, S.A.",
          "href": "https://api.euskadi.eus/procurements/companies/03630"
        }
      }
    },
    {
      "name": "AZERTIA, TECNOLOGÍAS DE LA INFORMACIÓN, S.A.",
      "registrationNumber": "01774",
      "identificationNumber": "A48306260",
      "address": "RIBERA DE AXPE, 11  EDIFICIO D1-D2 ",
      "location": {
        "postalCode": "48950",
        "municipality": "Erandio",
        "county": "Bizkaia",
        "municipalityId": "902",
        "countyId": "48"
      },
      "economicActivities": [
        {
          "id": "1.617.8",
          "name": "Venta al por mayor de máquinas y material de oficina",
          "_links": {
            "self": {
              "name": "Venta al por mayor de máquinas y material de oficina",
              "href": "https://api.euskadi.eus/procurements/companies/economic-activities/1.617.8"
            }
          }
        },
        {
          "id": "1.845",
          "name": "Explotación electrónica por cuenta de terceros",
          "_links": {
            "self": {
              "name": "Explotación electrónica por cuenta de terceros",
              "href": "https://api.euskadi.eus/procurements/companies/economic-activities/1.845"
            }
          }
        }
      ],
      "certificateStartDate": "2008-09-08",
      "certificateEndDate": "2007-10-11",
      "object": "A) LAS TECNOLOGÍAS DE LA INFORMACIÓN TANTO EN LO REFERENTE A LA INFORMACIÓN ESTRUCTURADA Y FACTUAL, COMO EN LA INFORMACIÓN NO ESTRUCTURADA, UTILIZANDO LAS TECNOLOGÍAS ACTUALES O FUTURAS APLICADAS A DICHO ÁMBITO PARA: -  LA INVESTIGACIÓN, DISEÑO, ANÁLISIS, PROGRAMACIÓN, ASESORAMIENTO, FORMACIÓN, EXPLOTACIÓN DE SISTEMAS, DISTRIBUCIÓN YCUALQUIER PRESTACIÓN DE SERVICIOS INTELECTUALES Y COMERCIALES EN EL CAMPO DE LA INFORMÁTICA PARA EL TRATAMIENTO DE LA INFORMACIÓN; - LA GESTIÓN, EN LUGAR Y EN NOMBRE DE LA EMPRESA, DE SU PARQUE INFORMÁTICO Y DE COMUNICACIONES, EN EL PLANO MATERIAL Y HUMANO, ASÍ COMO EN LOS PROCESOS DE NEGOCIOS NO ESTRATÉGICOS INTENSIVOS EN EL USO DE TECNOLOGÍAS DE LA INFORMACIÓN.\r\n\r\nB) DESARROLLO, ADAPTACIÓN Y COMERCIALIZACIÓN DE APLICACIONES DE ORDENADOR (SOFTWARE) DIRIGIDAS A LA INTELIGENCIA ARTIFICIAL, A LA INFORMÁTICA AVANZADA Y A LA GESTIÓN DOCUMENTAL ASÍ COMO A LA COMERCIALIZACIÓN DE EQUIPOS FÍSICOS (HARDWARE), LICENCIAS DE PRODUCTOS Y CUALQUIER TIPO DE ACTIVIDADES COMO LA CONSULTORÍA RELACIONADAS OCN LAS ÁREAS MENCIONADAS.\r\n\r\nC) SERVICIOS DE TELECOMUNICACIONES, A TRAVÉS DE REDES PÚBLICAS O PRIVDAS, NACIONALES O INTERNACIONAL, EN PARTICULAR: SERVICIOS DE GESTIÓN DE REDES PRIVADAS VIRTUALES; SERVICIOS DE VALOR AÑADIDO O DE TELECOMUNICACIONES APLICADAS; ACCESO A BASES DE DATOS INTERNAS O EXTERNAS; SERVICIOS TELEMÁTICOS; TRANSFERENCIA DE INFORMACIÓN, INTERCAMBIO ELECTRÓNICO DE INFORMACIÓN, SUMINISTRO DE MEDIOS DE PAGO TELEMÁTICOS.\r\n\r\n D) PRESTACIÓN DE SERVICIOS RELACIONADOS CON INTERNET Y EL COMERCIO ELECTRÓNICO; DISEÑO GRÁFICO, SERVICIO DE CENTROS TECNOLÓGICOS, SERVICIO DE E-BUSINESS/E-COMERCE, CONSULTORÍA E IMPLANTACIÓN DE PRODUCTOS DE SEGURIDAD, PUBLICIDAD ON-LINE, PROVISIÓN DE CONTENIDOS MULTIMEDIA Y SERVICIOS INTERACTIVOS. \r\n\r\nE) EL DESARROLLO DE CUALESQUIERA ACTIVIDADES INDUSTRIALES, COMERCIALES O DE INVESTIGACIÓN RELACIONADAS CON LAS NUEVAS TECNOLOGÍAS, EL FOMENTO Y DESARROLLO DE NUEVAS INICIATIVAS EMPRESARIALES, LA COORDINACIÓN DE PROYECTOS DE INVESTIGACIÓN Y DESARROLLO, CONSULTORÍA TECNOLÓGICAY DE GESTIÓN, PORMOCIÓN DE SERVICIOS DE NUEVA TECNOLOGÍA, PROMOCIÓN DE NUEVOS PROYECTOS EMPRESARIALES ASÍ COMO EL DESARROLLO DE TÉCNICAS Y PROCEDIMIENTOS PARA LA GESTIÓN DE CALIDAD EN EMPRESAS INDUSTRIALES Y DE SERVICIOS.\r\n\r\nF) LA PRESTACIÓN DE SERVICIOS PARA EL DESARROLLO Y LA EDUCACIÓN DE LOS RECURSOS HUMANOS DE LA EMPRESA, INCLUYENDO ACTIVIDADES DE CONSULTORÍA, SERVICIOS  DE FORMACIÓN Y ENTRENAMIENTO DE PROFESIONALES, EL ESTABLECIMIENTO DE PLANES DE CARRERA, LA IMMPARTICIÓN Y ORGANIZACIÓN DE CUALQUIER TIPO DE ACTIVIDAD RELACIONADA CON LAS ÁREAS ANTES MENCIONADAS; LA GENERACIÓN Y COMERCIALIZACIÓN DE SOPORTES DIDÁCTICOS, DE COMUNICACIÓN Y DIFUSIÓN, Y EN GENERAL, DE PRODUCTOS Y SERVICIOS RELACIONADOS CON EL DESARROLLO DE RECURSOS HUMANOS Y DESARROLLO CORPORATIVO.\r\n\r\nG) LA REALIZACIÓN DE REVISIONES CATASTRALES Y ACTUALIZACIÓN O MANTENIMIENTO DE CATASTROS, TANTO RÚSTICOS COMO URBANOS, RESTITUCIÓN FOTOGRAMÉTRICA, DIGITALIZACIÓN Y VECTORIZACIÓN DE CARTOGRAFÍA, TANTO NUEVA COMO PREEXISTENTE Y DE TODO TIPO DE TRABAJOS TOPOGRÁFICOS.\r\n\r\nTODAS LAS ACTIVIDADES QUE INTEGRAN EL OBJETO SOCIAL MENCIONADO PODRÁN DESARROLLARSE TANTO EN ESPAÑA COMO EN EL EXTRANJERO, PUDIENDO LLEVARSE A CABO TOTAL O PARCIALMENTE DE MODO INDIRECTO, MEDIANTE LA TITULARIDAD DE ACCIONES O DE PARTICIPACIONES EN SOCIEDADES CON OBJETO IDÉNTICO O ANÁLOGO. LA SOCIEDAD NO DESARROLLARÁ NINGUNA ACTIVIDAD PARA LA QUE LAS LEYES EXIJAN CONDICIONES O LIMITACIONES ESPECÍFICAS, EN TANTO NO DE EXACTO CUMPLIMIENTO DE LAS MISMAS",
      "mainEntityOfPage": "https://www.contratacion.euskadi.eus/webkpe00-kperoc/es/ac71aBusquedaRegistrosWar/empresa/01774",
      "_links": {
        "self": {
          "name": "AZERTIA, TECNOLOGÍAS DE LA INFORMACIÓN, S.A.",
          "href": "https://api.euskadi.eus/procurements/companies/01774"
        }
      }
    },
    {
      "name": "COMPLEJOS Y URBANIZACIONES DE ALAVA, S.L.",
      "registrationNumber": "02398",
      "identificationNumber": "B01278464",
      "address": "PORTAL DE CASTILLA, 4 BAJO",
      "location": {
        "postalCode": "01000",
        "municipality": "Vitoria-Gasteiz",
        "county": "Araba/Álava",
        "municipalityId": "059",
        "countyId": "01"
      },
      "economicActivities": [
        {
          "id": "1.501.2",
          "name": "Construcción completa, reparación y conservación obras civiles",
          "_links": {
            "self": {
              "name": "Construcción completa, reparación y conservación obras civiles",
              "href": "https://api.euskadi.eus/procurements/companies/economic-activities/1.501.2"
            }
          }
        }
      ],
      "certificateStartDate": "2008-09-08",
      "certificateEndDate": "2009-01-16",
      "object": "LA CONSTRUCCIÓN, ORGANIZACIÓN, REHABILITACIÓN, ALQUILER Y COMPRAVENTA DE TODO TIPO DE BIENES INMUEBLES, INCLUIDOS COMPLETOS Y URBANIZACIONES. LA COMPRAVENTA DE TODO TIPO DE MATERIALES PARA LA CONSTRUCCIÓN. ",
      "mainEntityOfPage": "https://www.contratacion.euskadi.eus/webkpe00-kperoc/es/ac71aBusquedaRegistrosWar/empresa/02398",
      "_links": {
        "self": {
          "name": "COMPLEJOS Y URBANIZACIONES DE ALAVA, S.L.",
          "href": "https://api.euskadi.eus/procurements/companies/02398"
        }
      }
    },
    {
      "name": "JOSÉ DE EZPELETA, S.A.",
      "registrationNumber": "03027",
      "identificationNumber": "A48004493",
      "address": "CTRA. BILBAO - SAN SEBASTIÁN, KM. 16,5",
      "location": {
        "postalCode": "48340",
        "municipality": "Amorebieta-Etxano",
        "county": "Bizkaia",
        "municipalityId": "003",
        "countyId": "48"
      },
      "economicActivities": [
        {
          "id": "1.617.3",
          "name": "Venta al por mayor de madera y corcho",
          "_links": {
            "self": {
              "name": "Venta al por mayor de madera y corcho",
              "href": "https://api.euskadi.eus/procurements/companies/economic-activities/1.617.3"
            }
          }
        }
      ],
      "certificateStartDate": "2008-09-08",
      "certificateEndDate": "2008-05-23",
      "object": "LA ACTIVIDAD COMERCIAL Y TÉCNICA DE PRODUCTOS, SOLUCIONES Y APLICACIONES PARA LA CONSTRUCCIÓN, DECORACIÓN, MUEBLES, DISEÑO INDUSTRIAL",
      "mainEntityOfPage": "https://www.contratacion.euskadi.eus/webkpe00-kperoc/es/ac71aBusquedaRegistrosWar/empresa/03027",
      "_links": {
        "self": {
          "name": "JOSÉ DE EZPELETA, S.A.",
          "href": "https://api.euskadi.eus/procurements/companies/03027"
        }
      }
    },
    {
      "name": "SOCIEDAD COOPERATIVA DE ENSEÑANZA ZABALBURU, S.L.",
      "registrationNumber": "03624",
      "identificationNumber": "F48119309",
      "address": "C/ ESPERANZA, 12",
      "location": {
        "postalCode": "48005",
        "municipality": "Bilbao",
        "county": "Bizkaia",
        "municipalityId": "020",
        "countyId": "48"
      },
      "economicActivities": [
        {
          "id": "1.931.4",
          "name": "Enseñanza de varias modalidades regladas",
          "_links": {
            "self": {
              "name": "Enseñanza de varias modalidades regladas",
              "href": "https://api.euskadi.eus/procurements/companies/economic-activities/1.931.4"
            }
          }
        }
      ],
      "certificateStartDate": "2008-09-08",
      "certificateEndDate": "2009-01-23",
      "object": "LA ATENCIÓN Y PROMOCIÓN DE LA ENSEÑANZA EN TODOS SUS GRADOS Y EN ESPECIAL LA ENSEÑANZA PREUNIVERSITARIA Y B.U.P. VON ARREGLO A LAS LEYES Y PLANES VIGENTES, COLABORANDO CON LAS ENTIDADES Y ORGANISMOS PÚBLICOS Y PRIVADOS, EN ORDEN A LA APLICACIÓN DEL PRINCIPIO DE IGUALDAD DE OPORTUNIDADES EN LA PARTICIPACIÓN DE LOS BENEFICIOS DE LA CULTURA Y LA FORMACIÓN TÉCNICA, ARTÍSTICA Y DEPORTIVA, DESTACANDO LA CULTURA VASCA POR SER ESTA LA ZONA EN LA QUE ESTÁ ENCLAVADA",
      "mainEntityOfPage": "https://www.contratacion.euskadi.eus/webkpe00-kperoc/es/ac71aBusquedaRegistrosWar/empresa/03624",
      "_links": {
        "self": {
          "name": "SOCIEDAD COOPERATIVA DE ENSEÑANZA ZABALBURU, S.L.",
          "href": "https://api.euskadi.eus/procurements/companies/03624"
        }
      }
    },
    {
      "name": "AKETZA GUINEA MARDONES",
      "registrationNumber": "03616",
      "identificationNumber": "20174557S",
      "address": "JARDINES GERNIKA 28-8ºA",
      "location": {
        "postalCode": "48000",
        "municipality": "Bilbao",
        "county": "Bizkaia",
        "municipalityId": "020",
        "countyId": "48"
      },
      "economicActivities": [
        {
          "id": "1.501.1",
          "name": "Construcción completa, reparación y conservación de edificaciones",
          "_links": {
            "self": {
              "name": "Construcción completa, reparación y conservación de edificaciones",
              "href": "https://api.euskadi.eus/procurements/companies/economic-activities/1.501.1"
            }
          }
        }
      ],
      "certificateStartDate": "2008-09-05",
      "certificateEndDate": "2009-02-14",
      "object": "REFORMAS COMPLETAS DE INTERIORES EN VIVIENDAS, LOCALES COMERCIALES Y EDIFICIOS PÚBLICOS",
      "mainEntityOfPage": "https://www.contratacion.euskadi.eus/webkpe00-kperoc/es/ac71aBusquedaRegistrosWar/empresa/03616",
      "_links": {
        "self": {
          "name": "AKETZA GUINEA MARDONES",
          "href": "https://api.euskadi.eus/procurements/companies/03616"
        }
      }
    },
    {
      "name": "VIGILANCIA E INSTALACIONES DE SEGURIDAD Y ALARMA, S.A. (VISA)",
      "registrationNumber": "02534",
      "identificationNumber": "A20061131",
      "address": "AVDA. DE REKALDE, 33",
      "location": {
        "postalCode": "20009",
        "municipality": "Donostia / San Sebastián",
        "county": "Gipuzkoa",
        "municipalityId": "069",
        "countyId": "20"
      },
      "economicActivities": [
        {
          "id": "1.504.1",
          "name": "Instalaciones eléctricas en general",
          "_links": {
            "self": {
              "name": "Instalaciones eléctricas en general",
              "href": "https://api.euskadi.eus/procurements/companies/economic-activities/1.504.1"
            }
          }
        },
        {
          "id": "1.849.4",
          "name": "Servicios de custodia, seguridad y protección",
          "_links": {
            "self": {
              "name": "Servicios de custodia, seguridad y protección",
              "href": "https://api.euskadi.eus/procurements/companies/economic-activities/1.849.4"
            }
          }
        }
      ],
      "certificateStartDate": "2008-09-04",
      "certificateEndDate": "2009-01-08",
      "object": "A) VIGILANCIA Y PROTECCIÓN  DE BIENES, ESTABLECIMIENTOS,  ESPECTÁCULOS, CERTÁMENTES O CONVENCIONES.\r\n\r\nB) PROTECCIÓN DE PERSONAS DETERMINADAS, PREVIA A LA AUTORIZACIÓN CORRESPONDIENTE.\r\n\r\nC) DEPÓSITO, CUSTODIA, RECUENTO Y CLASIFICACIÓN DE MONEDAS Y BILLETES, TÍTULOS-VALORES Y DEMÁS OBJETOS QUE, POR SU VALOR ECONÓMICO Y EXPECTATIVAS QUE GENEREN, O POR SU PELIGROSIDAD, PUEDAN REQUERIR PROTECCIÓN ESPECIAL, SIN PERJUICIO DE LAS ACTIVIDADES  PROPIAS DE LAS ENTIDADES FINANCIERAS.\r\n\r\nD) TRANSPORTE Y DISTRIBUCIÓN DE LOS OBJETOS A QUE SE REFIERE EL APARATADO ANTERIOR A TRAVÉS DE LOS DISTINTOS MEDIOS, REALIZÁNDOLOS, EN SU CASO, MEDIANTE VEHÍCULOS CUYAS CARACTERÍSTICAS SERÁN DETERMINADAS POR EL MINISTERIO DEL INTERIOR, DE FORMA QUE NO PUEDAN CONFUNDIRSE CON LOS DE LAS FUERZAS DE ARMADAS NI CON LOS DE LAS FUERZAS Y CUERPOS DE SEGURIDAD.\r\n\r\nE) INSTALACIÓN Y MANTENIMIENTO DE APARATOS, DISPOSITIVOS Y SISTEMAS DE SEGURIDAD.\r\n\r\nF) EXPLOTACIÓN DE CENTRALES PARA LA RECEPCIÓN, VERIFICACIÓN Y TRANSMISIÓN DE LAS SEÑALES DE ALARMA Y SU COMUNICACIÓN A LAS FUERZAS Y CUERPOS DE SEGURIDAD, ASÍ COMO PRESTACIÓN DE SERVICIOS DE RESPUESTA CUYA REALIZACIÓN NO SEA DE LA COMPETENCIA DE DICHAS FUERZAS Y CUERPOS.\r\n\r\nG) PLANIFICACIÓN Y ASESORAMIENTO DE LAS ACTIVIDADES DE SEGURIDAD CONTEMPLADAS EN LA VIGENTE LEY DE SEGURIDAD PRIVADA.\r\n\r\nLA SOCIEDAD ES DE ÁMBITO TERRITORIAL SUPRAPROVINCIAL.\r\nLA SOCIEDAD PODRÁ REALIZAR SU OBJETO SOCIAL BIEN DIRECTAMENTE, BIEN MEDIANTE LA PARTICIPACIÓN EN OTRAS SOCIEDADES DE IGUAL Ó ANÁLOGO OBJETO.",
      "mainEntityOfPage": "https://www.contratacion.euskadi.eus/webkpe00-kperoc/es/ac71aBusquedaRegistrosWar/empresa/02534",
      "_links": {
        "self": {
          "name": "VIGILANCIA E INSTALACIONES DE SEGURIDAD Y ALARMA, S.A. (VISA)",
          "href": "https://api.euskadi.eus/procurements/companies/02534"
        }
      }
    },
    {
      "name": "EGOKIERA SUMINISTROS, S.L.L.",
      "registrationNumber": "03614",
      "identificationNumber": "B01281021",
      "address": "ZURRUPITIETA, 26 - PAB. 7-A",
      "location": {
        "postalCode": "01015",
        "municipality": "Vitoria-Gasteiz",
        "county": "Araba/Álava",
        "municipalityId": "059",
        "countyId": "01"
      },
      "economicActivities": [
        {
          "id": "1.613.3",
          "name": "Venta al por mayor de prendas exteriores de vestir",
          "_links": {
            "self": {
              "name": "Venta al por mayor de prendas exteriores de vestir",
              "href": "https://api.euskadi.eus/procurements/companies/economic-activities/1.613.3"
            }
          }
        },
        {
          "id": "1.619.4",
          "name": "Venta al por mayor de productos de papel y cartón",
          "_links": {
            "self": {
              "name": "Venta al por mayor de productos de papel y cartón",
              "href": "https://api.euskadi.eus/procurements/companies/economic-activities/1.619.4"
            }
          }
        }
      ],
      "certificateStartDate": "2008-09-02",
      "certificateEndDate": "2008-12-25",
      "object": "LA DISTRIBUCIÓN Y VENTA, DE TODO TIPO DE RECAMBIOS Y COMPLEMENTOS RELACIONADOS CON EL SECTOR Y ÁREA DEL CICLISMO, ASÍ COMO LA DISTRIBUCIÓN Y VENTA DE TODO TIPO DE ROPA Y COMPLEMENTOS DE MODA LABORAL; INCLUÍDO CALZADO; AL IGUAL QUE LA DISTRIBUCIÓN Y VENTA DE TODO TIPO DE MATERIAL DE PAQUETERÍA Y COMPLEMENTOS DE EMBALAJE, CINTAS SELLADORAS Y SIMILARES",
      "mainEntityOfPage": "https://www.contratacion.euskadi.eus/webkpe00-kperoc/es/ac71aBusquedaRegistrosWar/empresa/03614",
      "_links": {
        "self": {
          "name": "EGOKIERA SUMINISTROS, S.L.L.",
          "href": "https://api.euskadi.eus/procurements/companies/03614"
        }
      }
    },
    {
      "name": "ASESORES EN IMAGEN CORPORATIVA, S.A.",
      "registrationNumber": "00224",
      "identificationNumber": "A20137097",
      "address": "AVDA. TOLOSA, 5 - 3º LOCAL 1 IZDA.",
      "location": {
        "postalCode": "20018",
        "municipality": "Donostia / San Sebastián",
        "county": "Gipuzkoa",
        "municipalityId": "069",
        "countyId": "20"
      },
      "economicActivities": [
        {
          "id": "1.844",
          "name": "Servicios de publicidad, relaciones públicas y similares",
          "_links": {
            "self": {
              "name": "Servicios de publicidad, relaciones públicas y similares",
              "href": "https://api.euskadi.eus/procurements/companies/economic-activities/1.844"
            }
          }
        }
      ],
      "certificateStartDate": "2008-08-26",
      "certificateEndDate": "2009-01-14",
      "object": "LA ASESORÍA EN COMUNICACIÓN E IMAGEN Y LA APORTACIÓN DE IDEAS PARA ELLO",
      "mainEntityOfPage": "https://www.contratacion.euskadi.eus/webkpe00-kperoc/es/ac71aBusquedaRegistrosWar/empresa/00224",
      "_links": {
        "self": {
          "name": "ASESORES EN IMAGEN CORPORATIVA, S.A.",
          "href": "https://api.euskadi.eus/procurements/companies/00224"
        }
      }
    }
  ]
}