{
  "totalItems": 9042,
  "totalPages": 905,
  "currentPage": 463,
  "itemsOfPage": 10,
  "items": [
    {
      "name": "MECANOGRÁFICA GASTEIZ, S.L.",
      "registrationNumber": "00323",
      "identificationNumber": "B01031632",
      "address": "C/ HONDURAS, Nº 10 - BAJO.",
      "location": {
        "postalCode": "01012",
        "municipality": "Vitoria-Gasteiz",
        "county": "Araba/Álava",
        "municipalityId": "059",
        "countyId": "01"
      },
      "economicActivities": [
        {
          "id": "1.659.2",
          "name": "Venta al por menor de muebles de oficina y máquinas y equipos de oficina",
          "_links": {
            "self": {
              "name": "Venta al por menor de muebles de oficina y máquinas y equipos de oficina",
              "href": "https://api.euskadi.eus/procurements/companies/economic-activities/1.659.2"
            }
          }
        }
      ],
      "certificateStartDate": "2023-04-20",
      "certificateEndDate": "2023-10-12",
      "object": "LA COMERCIALIZACIÓN, VENTA, DISTRIBUCIÓN DE MÁQUINAS DE OFICINAS, ORDENADORES, MUEBLES DE OFICINA, ACCESORIOS Y COMPLEMENTOS, ASÍ COMO LAS REPARACIONES, MANTENIMIENTO Y SERVICIO TÉCNICO DE LOS MISMOS Y LA VENTA DE LAS PIEZAS DE REPUESTO NECESARIAS, Y, TODAS LAS OPERACIONES COMERCIALES, INDUSTRIALES Y FINANCIERAS RELACIONADAS CON LAS ENUMERADAS",
      "mainEntityOfPage": "https://www.contratacion.euskadi.eus/webkpe00-kperoc/es/ac71aBusquedaRegistrosWar/empresa/00323",
      "_links": {
        "self": {
          "name": "MECANOGRÁFICA GASTEIZ, S.L.",
          "href": "https://api.euskadi.eus/procurements/companies/00323"
        }
      }
    },
    {
      "name": "ALFAQUANTUM, S.L.",
      "registrationNumber": "08689",
      "identificationNumber": "B10958098",
      "address": "Calle Muros de San Pedro",
      "location": {
        "postalCode": "48007",
        "municipality": "Bilbao",
        "county": "Bizkaia",
        "municipalityId": "020",
        "countyId": "48"
      },
      "economicActivities": [
        {
          "id": "1.845",
          "name": "Explotación electrónica por cuenta de terceros",
          "_links": {
            "self": {
              "name": "Explotación electrónica por cuenta de terceros",
              "href": "https://api.euskadi.eus/procurements/companies/economic-activities/1.845"
            }
          }
        },
        {
          "id": "1.847",
          "name": "Servicios de consultoría",
          "_links": {
            "self": {
              "name": "Servicios de consultoría",
              "href": "https://api.euskadi.eus/procurements/companies/economic-activities/1.847"
            }
          }
        },
        {
          "id": "1.934",
          "name": "Enseñanza fuera de establecimiento permanente",
          "_links": {
            "self": {
              "name": "Enseñanza fuera de establecimiento permanente",
              "href": "https://api.euskadi.eus/procurements/companies/economic-activities/1.934"
            }
          }
        }
      ],
      "certificateStartDate": "2023-04-18",
      "certificateEndDate": "2023-10-18",
      "object": "ACTIVIDAD PRINCIPAL: 8559 /OTRA EDUCACIÓN. OTRAS ACTIVIDADES: 7490 / OTRAS ACTIVIDADES PROFESIONALES CIENTÍFICAS Y TÉCNICAS.",
      "mainEntityOfPage": "https://www.contratacion.euskadi.eus/webkpe00-kperoc/es/ac71aBusquedaRegistrosWar/empresa/08689",
      "_links": {
        "self": {
          "name": "ALFAQUANTUM, S.L.",
          "href": "https://api.euskadi.eus/procurements/companies/08689"
        }
      }
    },
    {
      "name": "CONSTRUCCIONES MURIAS, S.A.",
      "registrationNumber": "00997",
      "identificationNumber": "A20038279",
      "address": "CALLE URNIETA 19",
      "location": {
        "postalCode": "20018",
        "municipality": "Donostia / San Sebastián",
        "county": "Gipuzkoa",
        "municipalityId": "069",
        "countyId": "20"
      },
      "economicActivities": [
        {
          "id": "1.507",
          "name": "Construcción, reparación y conservación de toda clase obras",
          "_links": {
            "self": {
              "name": "Construcción, reparación y conservación de toda clase obras",
              "href": "https://api.euskadi.eus/procurements/companies/economic-activities/1.507"
            }
          }
        },
        {
          "id": "1.833.2",
          "name": "Promoción de edificaciones",
          "_links": {
            "self": {
              "name": "Promoción de edificaciones",
              "href": "https://api.euskadi.eus/procurements/companies/economic-activities/1.833.2"
            }
          }
        },
        {
          "id": "1.861.2",
          "name": "Alquiler de locales industriales y otros alquileres n.c.o.p",
          "_links": {
            "self": {
              "name": "Alquiler de locales industriales y otros alquileres n.c.o.p",
              "href": "https://api.euskadi.eus/procurements/companies/economic-activities/1.861.2"
            }
          }
        }
      ],
      "certificateStartDate": "2023-04-17",
      "certificateEndDate": "2023-09-14",
      "object": "LA PROMOCIÓN Y EJECUCIÓN DE OBRAS DE CONSTRUCCIÓN EN GENERAL, TANTO DE EDIFICACIONES COMO DE OTRA NATURALEZA, POR CUENTA PROPIA O AJENA, POR ADMINISTRACIÓN O POR CONTRATA Y TODA CLASE DE ACTIVIDADES CON ELLAS RELACIONADAS, COMO ADQUISICIÓN Y ENAJENACIÓN DE TERRERNOS Y REALIZACIÓN DE URBANIZACIONES Y REPARCELACIONES; LA ADQUISICIÓN Y ENAJENACIÓN DE INMUEBLES, REALIZACIÓN DE OBRAS DE REPARACIÓN Y MODIFICACIÓN DE LOS MISMOS, SU USO Y EXPLOTACIÓN, EN FORMA DE ARRIENDO O EN CUALQUIER OTRA Y EN GENERAL TODA CLASE DE OPERACIONES INDUSTRIALES Y MERCANTILES PROPIAS DEL RAMO DE LA CONSTRUCCIÓN, ANÁLOGAS Y COMPLEMENTARIAS",
      "mainEntityOfPage": "https://www.contratacion.euskadi.eus/webkpe00-kperoc/es/ac71aBusquedaRegistrosWar/empresa/00997",
      "_links": {
        "self": {
          "name": "CONSTRUCCIONES MURIAS, S.A.",
          "href": "https://api.euskadi.eus/procurements/companies/00997"
        }
      }
    },
    {
      "name": "OBRAS, SERVICIOS, INTERIORISMO Y ACÚSTICA JOLATZ, S.L.",
      "registrationNumber": "05599",
      "identificationNumber": "B95708327",
      "address": "PL. EL ÁRBOL, PAB. 49 2ª PLANTA",
      "location": {
        "postalCode": "48980",
        "municipality": "Santurtzi",
        "county": "Bizkaia",
        "municipalityId": "082",
        "countyId": "48"
      },
      "economicActivities": [
        {
          "id": "1.501.1",
          "name": "Construcción completa, reparación y conservación de edificaciones",
          "_links": {
            "self": {
              "name": "Construcción completa, reparación y conservación de edificaciones",
              "href": "https://api.euskadi.eus/procurements/companies/economic-activities/1.501.1"
            }
          }
        },
        {
          "id": "1.504.6",
          "name": "Montaje e instalación de aparatos elevadores de cualquier clase",
          "_links": {
            "self": {
              "name": "Montaje e instalación de aparatos elevadores de cualquier clase",
              "href": "https://api.euskadi.eus/procurements/companies/economic-activities/1.504.6"
            }
          }
        },
        {
          "id": "1.617.4",
          "name": "Venta al por mayor de materiales de construcción, vidrio y artículos instalación",
          "_links": {
            "self": {
              "name": "Venta al por mayor de materiales de construcción, vidrio y artículos instalación",
              "href": "https://api.euskadi.eus/procurements/companies/economic-activities/1.617.4"
            }
          }
        }
      ],
      "certificateStartDate": "2023-04-13",
      "certificateEndDate": "2023-10-10",
      "object": "ALQUILER DE BIENES INMUEBLES DE NATURALEZA URBANA Y RÚSTICA, INCLUÍDO EL ALQUILER DE VIVIENDAS, CON Y SIN OPCIÓN DE COMPRA, EL ALQUILER DE LOCALES INDUSTRIALES, DE NEGOCIOS Y DE TERRENOS. LA CONSTRUCCIÓN COMPLETA, REPARACIÓN Y CONSERVACIÓN DE EDIFICACIONES, INCLUYENDO LA ALBAÑILERÍA, LA CONSOLIDACIÓN Y PREPARACIÓN DE TERRENOS, DEMOLICIONES, PERFORACIONES, CIMENTACIONES Y PAVIMENTACIONES. PREPARACIÓN Y MONTAJE DE ESTRUCTURAS Y CUBIERTAS Y CUBRICIONES EN EDIFICACIONES. INSTALACIONES ELÉCTRICAS EN GENERAL, INSTALACIONES DE REDES TELEGRÁFICAS, TELEFÓNICAS, TELEFONÍA SIN HILOS Y TELEVISIÓN EN EDIFICIOS Y CONSTRUCCIONES DE CUALQUIER CLASE. INSTALACIONES DE FONTANERÍA, DE FRÍO, CALOR Y ACONDICIONAMIENTO DE AIRE. REVESTIMIENTOS EXTERIORES E INTERIORES DE TODAS CLASES Y EN TODO TIPO DE OBRAS, INCLUYENDO LA PREPARACIÓN Y COLOCACIÓN DE SOLADOS Y PAVIMENTOS DE CUALQUIER CLASE, AISLAMIENTOS FÓNICOS, TÉRMICOS, ACÚSTICOS, IMPERMEABILIZACIÓN DE TODO TIPO DE EDIFICIOS Y CONSTRUCCIONES POR CUALQUIER PROCEDIMIENTO. CARPINTERÍA, CERRAJERÍA Y TERMINACIÓN Y DECORACIÓN DE EDIFICIOS Y LOCALES, INCLUYENDO LA PINTURA Y ESCAYOLA",
      "mainEntityOfPage": "https://www.contratacion.euskadi.eus/webkpe00-kperoc/es/ac71aBusquedaRegistrosWar/empresa/05599",
      "_links": {
        "self": {
          "name": "OBRAS, SERVICIOS, INTERIORISMO Y ACÚSTICA JOLATZ, S.L.",
          "href": "https://api.euskadi.eus/procurements/companies/05599"
        }
      }
    },
    {
      "name": "ALGORITMOS, PROCESOS Y DISEÑOS, S.A.",
      "registrationNumber": "05632",
      "identificationNumber": "A28634046",
      "address": "Calle Raimundo Fernández Villaverde, 53",
      "location": {
        "postalCode": "28003",
        "municipality": "Madrid",
        "county": "Madrid",
        "municipalityId": "079",
        "countyId": "28"
      },
      "economicActivities": [
        {
          "id": "1.617.8",
          "name": "Venta al por mayor de máquinas y material de oficina",
          "_links": {
            "self": {
              "name": "Venta al por mayor de máquinas y material de oficina",
              "href": "https://api.euskadi.eus/procurements/companies/economic-activities/1.617.8"
            }
          }
        }
      ],
      "certificateStartDate": "2023-04-11",
      "certificateEndDate": "2023-10-04",
      "object": "LA IMPORTACIÓN Y EXPORTACIÓN DE TODO TIPO DE MERCANCÍAS Y REPRESENTACIÓN DE OTRAS PERSONAS, FIRMAS O SOCIEDADES, TANTO EN TERRITORIO NACIONAL, COMO EN EL EXTRANJERO. LA COMPRA Y VENTA, AL POR MAYOR Y MENOR DE TODO TIPO DE MERCANCÍAS, RELACIONADAS CON LA INFORMÁTICA. LA REALIZACIÓN DE CUALESQUIERA NEGOCIOS Y O ASUNTOS EN NOMBRE Y REPRESENTACIÓN DE LA SOCIEDAD; O EN NOMBRE Y POR CUENTA DE TERCEROS, RELACIONADOS CON LA INFORMÁTICA, CON LA CONDICIÓN DE QUE UNOS Y OTROS NO SE OPONGAN A LAS LEYES VIGENTES O FUTURAS. MONTAJE Y FABRICACIÓN DE APARATOS ELECTRÓNICOS Y MECÁNICOS. CONSULTAS TÉCNICAS Y REDACCIÓN DE PROYECTOS DE INGENIERÍA CIVIL Y DE ARQUITECTURA, ASÍ COMO LA EDICIÓN DE PUBLICACIONES TÉCNICAS PROPIAS O AJENAS\r\n",
      "mainEntityOfPage": "https://www.contratacion.euskadi.eus/webkpe00-kperoc/es/ac71aBusquedaRegistrosWar/empresa/05632",
      "_links": {
        "self": {
          "name": "ALGORITMOS, PROCESOS Y DISEÑOS, S.A.",
          "href": "https://api.euskadi.eus/procurements/companies/05632"
        }
      }
    },
    {
      "name": "EXCAVACIONES TOLOSA, S.L.",
      "registrationNumber": "04748",
      "identificationNumber": "B20934824",
      "address": "ALLIRI IBILTOKIA, 7 - 3º B",
      "location": {
        "postalCode": "20400",
        "municipality": "Tolosa",
        "county": "Gipuzkoa",
        "municipalityId": "071",
        "countyId": "20"
      },
      "economicActivities": [
        {
          "id": "1.502.3",
          "name": "Consolidación y preparación de terrenos para la realización de obras civiles",
          "_links": {
            "self": {
              "name": "Consolidación y preparación de terrenos para la realización de obras civiles",
              "href": "https://api.euskadi.eus/procurements/companies/economic-activities/1.502.3"
            }
          }
        },
        {
          "id": "1.621",
          "name": "Venta al por mayor de chatarra y metales de desecho férreos y no férreos",
          "_links": {
            "self": {
              "name": "Venta al por mayor de chatarra y metales de desecho férreos y no férreos",
              "href": "https://api.euskadi.eus/procurements/companies/economic-activities/1.621"
            }
          }
        }
      ],
      "certificateStartDate": "2023-04-11",
      "certificateEndDate": "2023-09-24",
      "object": "LA DEMOLICIÓN Y DERRIBO DE TODO TIPO DE EDIFICACIONES, ASÍ COMO LAS EXCAVACIONES Y URBANIZACIONES EN GENERAL Y EL TRANSPORTE DE MERCANCÍAS POR CARRETERA",
      "mainEntityOfPage": "https://www.contratacion.euskadi.eus/webkpe00-kperoc/es/ac71aBusquedaRegistrosWar/empresa/04748",
      "_links": {
        "self": {
          "name": "EXCAVACIONES TOLOSA, S.L.",
          "href": "https://api.euskadi.eus/procurements/companies/04748"
        }
      }
    },
    {
      "name": "ANGEA LIFES, S.L.",
      "registrationNumber": "08337",
      "identificationNumber": "B65568636",
      "address": "Calle Wellington 33",
      "location": {
        "postalCode": "08018",
        "municipality": "Barcelona",
        "county": "Barcelona",
        "municipalityId": "019",
        "countyId": "08"
      },
      "economicActivities": [
        {
          "id": "1.619.2",
          "name": "Venta al por mayor de aparatos e instrumentos médicos, ortopédicos, ópticos",
          "_links": {
            "self": {
              "name": "Venta al por mayor de aparatos e instrumentos médicos, ortopédicos, ópticos",
              "href": "https://api.euskadi.eus/procurements/companies/economic-activities/1.619.2"
            }
          }
        }
      ],
      "certificateStartDate": "2023-04-06",
      "certificateEndDate": "2023-10-05",
      "object": "A) ASISTENCIA Y SERVICIOS SOCIALES PARA NIÑOS, JÓVENES, DISMINUIDOS FÍSICOS Y ANCIANOS, EN CENTROS RESIDENCIALES. B) ASISTENCIA Y SERVICIOS SOCIALES PARA NIÑOS, JÓVENES, DISMINUIDOS FÍSICOS Y ANCIANOS, EN CENTROS NO RESIDENCIALES. C) FABRICACIÓN, REPARACIÓN, MANTENIMIENTO, COMPRAVENTA, EXPORTACIÓN, IMPORTACIÓN Y DISTRIBUCIÓN DE MATERIAL MÉDICO, QUIRÚRGICO Y GERIÁTRICO Y ACCESORIOS HOSPITALARIOS.",
      "mainEntityOfPage": "https://www.contratacion.euskadi.eus/webkpe00-kperoc/es/ac71aBusquedaRegistrosWar/empresa/08337",
      "_links": {
        "self": {
          "name": "ANGEA LIFES, S.L.",
          "href": "https://api.euskadi.eus/procurements/companies/08337"
        }
      }
    },
    {
      "name": "INGETEAM POWER TECHNOLOGY, S.A.",
      "registrationNumber": "05182",
      "identificationNumber": "A95663852",
      "address": "Parque Tecnológico Bizkaia. Edif.106-2ª pl.",
      "location": {
        "postalCode": "48170",
        "municipality": "Zamudio",
        "county": "Bizkaia",
        "municipalityId": "905",
        "countyId": "48"
      },
      "economicActivities": [
        {
          "id": "1.151.4",
          "name": "Producción de energía no especificada en otros epígrafes",
          "_links": {
            "self": {
              "name": "Producción de energía no especificada en otros epígrafes",
              "href": "https://api.euskadi.eus/procurements/companies/economic-activities/1.151.4"
            }
          }
        },
        {
          "id": "1.325.3",
          "name": "Construcción de máquinas para la siderurgia y fundición",
          "_links": {
            "self": {
              "name": "Construcción de máquinas para la siderurgia y fundición",
              "href": "https://api.euskadi.eus/procurements/companies/economic-activities/1.325.3"
            }
          }
        },
        {
          "id": "1.341.2",
          "name": "Fabricación de hilos y cables aislados para el transporte de electricidad",
          "_links": {
            "self": {
              "name": "Fabricación de hilos y cables aislados para el transporte de electricidad",
              "href": "https://api.euskadi.eus/procurements/companies/economic-activities/1.341.2"
            }
          }
        },
        {
          "id": "1.342",
          "name": "Fabricación de material eléctrico de utilización y equipamiento",
          "_links": {
            "self": {
              "name": "Fabricación de material eléctrico de utilización y equipamiento",
              "href": "https://api.euskadi.eus/procurements/companies/economic-activities/1.342"
            }
          }
        },
        {
          "id": "1.344",
          "name": "Fabricación de contadores y aparatos de medida, eléctricos",
          "_links": {
            "self": {
              "name": "Fabricación de contadores y aparatos de medida, eléctricos",
              "href": "https://api.euskadi.eus/procurements/companies/economic-activities/1.344"
            }
          }
        },
        {
          "id": "1.504.1",
          "name": "Instalaciones eléctricas en general",
          "_links": {
            "self": {
              "name": "Instalaciones eléctricas en general",
              "href": "https://api.euskadi.eus/procurements/companies/economic-activities/1.504.1"
            }
          }
        },
        {
          "id": "1.842",
          "name": "Servicios financieros y contables",
          "_links": {
            "self": {
              "name": "Servicios financieros y contables",
              "href": "https://api.euskadi.eus/procurements/companies/economic-activities/1.842"
            }
          }
        },
        {
          "id": "1.843.1",
          "name": "Servicios técnicos de ingeniería",
          "_links": {
            "self": {
              "name": "Servicios técnicos de ingeniería",
              "href": "https://api.euskadi.eus/procurements/companies/economic-activities/1.843.1"
            }
          }
        },
        {
          "id": "1.936",
          "name": "Investigación científica y técnica",
          "_links": {
            "self": {
              "name": "Investigación científica y técnica",
              "href": "https://api.euskadi.eus/procurements/companies/economic-activities/1.936"
            }
          }
        },
        {
          "id": "1.999",
          "name": "Otros servicios n.c.o.p",
          "_links": {
            "self": {
              "name": "Otros servicios n.c.o.p",
              "href": "https://api.euskadi.eus/procurements/companies/economic-activities/1.999"
            }
          }
        }
      ],
      "certificateStartDate": "2023-04-03",
      "certificateEndDate": "2023-09-21",
      "object": "EL DISEÑO, CONSTRUCCIÓN, FABRICACIÓN, VENTA, REPARACIÓN, TRANSFORMACIÓN Y CONVERSIÓN, INSTALACIÓN Y SUPERVISIÓN, MANTENIMIENTO, DISTRIBUCIÓN, IMPORTACIÓN Y EXPORTACIÓN DE EQUIPOS MECÁNICOS, ELÉCTRICOS Y ELECTRÓNICOS, ASÍ COMO DE OBRAS PARA INSTALACIONES DE GENERACIÓN Y DISTRIBUCIÓN ENERGÉTICA, INDUSTRIALES, NAVALES Y FERROVIARIAS, Y LA EXPLOTACIÓN DEL NEGOCIO DE ESTAS INSTALACIONES Y/O MEDIOS DE TRANSPORTE. LA EJECUCIÓN DE PROTOTIPOS, ANTEPROYECTOS Y LABORES DE INVESTIGACIÓN, DESARROLLO E INNOVACIÓN EN LAS ACTIVIDADES ANTERIORES, LA TENENCIA Y ADQUISICIÓN DE DERECHOS DE PROPIEDAD INDUSTRIAL, DERECHOS DE UTILIDAD, PATENTES, MARCAS Y KNOW HOW, ASÍ COMO SU USO, VENTA Y/O EXPLOTACIÓN. LA ADMINISTRACIÓN Y CESIÓN, INVERSIÓN, TENENCIA Y DISFRUTE, ADMINISTRACIÓN DE VALORES MOBILIARIOS E INMUEBLES.  PARTICIPACIONES SOCIALES O EN PROPIEDAD, DE TODA CLASE DE BIENES; TODO ELLO, POR CUENTA PROPIA Y CON EXCEPCIÓN DE LA INTERMEDIACIÓN Y DE ACTIVIDADES LEGALMENTE ATRIBUIDAS DE FORMA EXCLUSIVA A LA BANCA O A OTRAS ENTIDADES, DEJANDO SIEMPRE FUERA DE LAS ACTIVIDADES OBJETO DE LA LEGISLACIÓN DE INSTITUCIONES DE INVERSIÓN COLECTIVA Y DE MERCADO DE VALORES Y, EN TODO CASO, SIN INCIDIR EN AQUELLAS OPERACIONES QUE SE RIJAN POR LEYES ESPECIALES",
      "mainEntityOfPage": "https://www.contratacion.euskadi.eus/webkpe00-kperoc/es/ac71aBusquedaRegistrosWar/empresa/05182",
      "_links": {
        "self": {
          "name": "INGETEAM POWER TECHNOLOGY, S.A.",
          "href": "https://api.euskadi.eus/procurements/companies/05182"
        }
      }
    },
    {
      "name": "XABIER ILLARRAMENDI EGAÑA",
      "registrationNumber": "06842",
      "identificationNumber": "72463279P",
      "address": "ARRIARTE BASERRIA s/n",
      "location": {
        "postalCode": "20808",
        "municipality": "Getaria",
        "county": "Gipuzkoa",
        "municipalityId": "039",
        "countyId": "20"
      },
      "economicActivities": [
        {
          "id": "1.921.1",
          "name": "Servicios de limpieza en calles, vías públicas y jardines",
          "_links": {
            "self": {
              "name": "Servicios de limpieza en calles, vías públicas y jardines",
              "href": "https://api.euskadi.eus/procurements/companies/economic-activities/1.921.1"
            }
          }
        }
      ],
      "certificateStartDate": "2023-03-29",
      "certificateEndDate": "2023-09-21",
      "object": "SERVICIOS DE LIMPIEZA EN CALLES, VÍAS PÚBLICAS Y JARDINES",
      "mainEntityOfPage": "https://www.contratacion.euskadi.eus/webkpe00-kperoc/es/ac71aBusquedaRegistrosWar/empresa/06842",
      "_links": {
        "self": {
          "name": "XABIER ILLARRAMENDI EGAÑA",
          "href": "https://api.euskadi.eus/procurements/companies/06842"
        }
      }
    },
    {
      "name": "GALAPAGOS BIOPHARMA SPAIN, S.L.",
      "registrationNumber": "08241",
      "identificationNumber": "B67445429",
      "address": "Cuatro Torres, Paseo de la Castellana, 259C, Planta 24",
      "location": {
        "postalCode": "28046",
        "municipality": "Madrid",
        "county": "Madrid",
        "municipalityId": "079",
        "countyId": "28"
      },
      "economicActivities": [
        {
          "id": "1.614.1",
          "name": "Venta al por mayor de productos farmacéuticos y medicamentos",
          "_links": {
            "self": {
              "name": "Venta al por mayor de productos farmacéuticos y medicamentos",
              "href": "https://api.euskadi.eus/procurements/companies/economic-activities/1.614.1"
            }
          }
        }
      ],
      "certificateStartDate": "2023-03-29",
      "certificateEndDate": "2023-09-29",
      "object": "(A) REALIZAR TODO TIPO DE ACTOS, DE FORMA DIRECTA O INDIRECTA, RELACIONADOS CON LA ADQUISICIÓN, FABRICACIÓN, ACONDICIONAMIENTO O REENVASADO, MANIFESTACIÓN, OTORGAMIENTO Y OBTENCIÓN DE LICENCIA, VENTA, IMPORTACIÓN Y EXPORTACIÓN DE PRODUCTOS FARMACÉUTICOS, BIOLÓGICOS, QUÍMICOS, MÉDICOS Y CUALESQUIERA OTROS PRODUCTOS O SERVICIOS RELACIONADOS, Y DE SUMINISTROS DE LABORATORIO INCLUYENDO EQUIPOS, MÁQUINAS Y PARTES;  (B) CONSTITUIR, PARTICIPAR POR CUALQUIER MEDIO, ADMINISTRAR Y SUPERVISAR Y FINANCIAR FILIALES, SOCIEDADES DEL GRUPO Y TERCEROS;  (C) TRANSPORTE POR CUENTA DE TERCEROS;  (D) TOMAR PRESTADO, PRESTAR O RECAUDAR FONDOS, INCLUYENDO LA EMISIÓN DE BONOS, INSTRUMENTOS DE DEUDA Y OTROS TÍTULOS O EVIDENCIA DE ENDEUDAMIENTO Y SUSCRIBIR CONTRATOS EN RELACIÓN CON LAS ANTERIORES ACTIVIDADES;  (E) DAR ASESORAMIENTO Y PRESTAR SERVICIOS;  (F) OTORGAR GARANTÍAS, VINCULAR A LA SOCIEDAD Y PIGNORAR O GRAVAR SUS ACTIVOS RESPECTO DE SUS PROPIAS OBLIGACIONES, Y RESPECTO DE OBLIGACIONES DE FILIALES, SOCIEDADES DEL GRUPO O TERCEROS;   (G) ADQUIRIR, ENAJENAR, GRAVAR, ADMINISTRAR Y EXPLOTAR ACTIVOS INSCRITOS Y BIENES DE SU PROPIEDAD EN GENERAL;   (H) EXPLOTACIÓN Y COMERCIO DE PATENTES, MARCAS REGISTRADAS, LICENCIAS, KNOW-HOW, DERECHOS DE AUTOR, DERECHOS DE BASES DE DATOS Y OTROS DERECHOS DE PROPIEDAD INTELECTUAL;   (I) REALIZAR CUALQUIER Y TODA ACTIVIDAD DE NATURALEZA INDUSTRIAL, FINANCIERA O COMERCIAL.",
      "mainEntityOfPage": "https://www.contratacion.euskadi.eus/webkpe00-kperoc/es/ac71aBusquedaRegistrosWar/empresa/08241",
      "_links": {
        "self": {
          "name": "GALAPAGOS BIOPHARMA SPAIN, S.L.",
          "href": "https://api.euskadi.eus/procurements/companies/08241"
        }
      }
    }
  ]
}