{
  "totalItems": 9042,
  "totalPages": 905,
  "currentPage": 605,
  "itemsOfPage": 10,
  "items": [
    {
      "name": "AINHOA URANGA AZKUE",
      "registrationNumber": "06358",
      "identificationNumber": "72445794A",
      "address": "ELOSIAGA 761",
      "location": {
        "postalCode": "20730",
        "municipality": "Azpeitia",
        "county": "Gipuzkoa",
        "municipalityId": "018",
        "countyId": "20"
      },
      "economicActivities": [
        {
          "id": "2.421",
          "name": "Arquitectos técnicos y aparejadores",
          "_links": {
            "self": {
              "name": "Arquitectos técnicos y aparejadores",
              "href": "https://api.euskadi.eus/procurements/companies/economic-activities/2.421"
            }
          }
        }
      ],
      "certificateStartDate": "2019-07-10",
      "certificateEndDate": "2019-09-08",
      "object": "ARKITEKTURA TEKNIKOA",
      "mainEntityOfPage": "https://www.contratacion.euskadi.eus/webkpe00-kperoc/es/ac71aBusquedaRegistrosWar/empresa/06358",
      "_links": {
        "self": {
          "name": "AINHOA URANGA AZKUE",
          "href": "https://api.euskadi.eus/procurements/companies/06358"
        }
      }
    },
    {
      "name": "SIFI IBERICA, SL",
      "registrationNumber": "06365",
      "identificationNumber": "B88181201",
      "address": "C/ SAN ANTONIO Nº 5",
      "location": {
        "postalCode": "28411",
        "municipality": "Moralzarzal",
        "county": "Madrid",
        "municipalityId": "090",
        "countyId": "28"
      },
      "economicActivities": [
        {
          "id": "1.614.1",
          "name": "Venta al por mayor de productos farmacéuticos y medicamentos",
          "_links": {
            "self": {
              "name": "Venta al por mayor de productos farmacéuticos y medicamentos",
              "href": "https://api.euskadi.eus/procurements/companies/economic-activities/1.614.1"
            }
          }
        }
      ],
      "certificateStartDate": "2019-07-10",
      "certificateEndDate": "2019-09-26",
      "object": "LA ACTIVIDAD PRINCIPAL DE LA SOCIEDAD POR REFERENCIA AL CÓDIGO ACTIVIDAD ECONÓMICA DE LA CLASIFICACIÓN NACIONAL DE ACTIVIDADES ECONÓMICAS NÚMERO CNAE 2120 ES LA COMPRA, FABRICACIÓN , ALMACENAMIENTO, COMERCIALIZACIÓN Y MEDIACIÓN EN LA VENTA DE TODA CLASE DE MEDICAMENTOS , PRODUCTOS SANITARIOS Y PRODUCTOS FARMACÉUTICOS Y DE TODO TIPO DE MATERIAS PRIMAS EMPLEADAS EN LA ELABORACIÓN DE DICHOS MEDICAMENTOS, PRODUCTOS SANITARIOS Y FARMACÉUTICOS, INCLUYENDO CUALQUIER OTRA ACTIVIDAD COMPLEMENTARIA, SUBSIDIARIA DERIVADA O CONDUCENTE A ESAS ACTIVIDADES.\r\nLA SOCIEDAD PODRÁ DEDICARSE TMAIBÉN A: - LA COMPRA, FABRICACIÓN, ALMACENAMIENTO, COMERCIALIZACIÓN Y MEDIACIÓN EN LA VENTA DE COSMÉTICOS, PRODUCTOS QUÍMICOS, BIOTECNOLÓGICOS, ALIMENTICIOS Y DE DIAGNÓSTICO PARA USO HUMANO, VETERINARIO, AGROQUÍMICO Y ALIMENTICIO, ASÍ COMO DE TODA CLASE DE UTENSILIOS, COMPLEMENTOS Y ACCESORIOS PARA LA INDUSTRIA QUÍMICA, FARMACÉUTICA Y CLÍNICA, INCLUYENDO CUALQUIER OTRA ACTIVIDAD COMPLEMENTARIA, SUBSIDIARIA, DERIVADA O CONDUCENTE A ESTAS ACTIVIDADES. -LA INVESTIGACIÓN DE PRINCIPIOS Y PRODUCTOS REFERIDOS EN LOS DOS APARTADOS ANTERIORES. -LA COMPRA, VENTA, ALQUILER, PARCELACIÓN Y URBANIZACIÓN DE SOLARES, TERRENOS Y FINCAS DE CUALQUIER NATURALEZA, PUDIENDO PROCEDER A LA EDIFICACIÓN DE LOS MISMOS, ASÍ COMO A SU EXPLOTACIÓN Y ENAJENACIÓN ÍNTEGRAMENTE, EN FORMA PARCIAL O EN RÉGIMEN DE PROPIEDD HORIZONTAL. -LA DIRECCIÓN, GESTIÓN Y ADMINISTRACIÓN DE LA PARTICIPACIÓN DE LA SOCIEDAD EN EL CAPITAL SOCIAL DE OTRAS ENTIDADES MEDIANTE LA CORRESPONDIENTE ORGANIZACIÓN DE MEDIOS PERSONALES Y MATERIALES",
      "mainEntityOfPage": "https://www.contratacion.euskadi.eus/webkpe00-kperoc/es/ac71aBusquedaRegistrosWar/empresa/06365",
      "_links": {
        "self": {
          "name": "SIFI IBERICA, SL",
          "href": "https://api.euskadi.eus/procurements/companies/06365"
        }
      }
    },
    {
      "name": "TRABAJOS ESPECIALES ZUT, S.A.",
      "registrationNumber": "03257",
      "identificationNumber": "A48430193",
      "address": "POLIGONO BAKIOLA, PABELLON 11",
      "location": {
        "postalCode": "48498",
        "municipality": "Arrankudiaga-Zollo",
        "county": "Bizkaia",
        "municipalityId": "009",
        "countyId": "48"
      },
      "economicActivities": [
        {
          "id": "1.501.1",
          "name": "Construcción completa, reparación y conservación de edificaciones",
          "_links": {
            "self": {
              "name": "Construcción completa, reparación y conservación de edificaciones",
              "href": "https://api.euskadi.eus/procurements/companies/economic-activities/1.501.1"
            }
          }
        },
        {
          "id": "1.501.2",
          "name": "Construcción completa, reparación y conservación obras civiles",
          "_links": {
            "self": {
              "name": "Construcción completa, reparación y conservación obras civiles",
              "href": "https://api.euskadi.eus/procurements/companies/economic-activities/1.501.2"
            }
          }
        },
        {
          "id": "1.505.1",
          "name": "Revestimientos exteriores e interiores de todas clases",
          "_links": {
            "self": {
              "name": "Revestimientos exteriores e interiores de todas clases",
              "href": "https://api.euskadi.eus/procurements/companies/economic-activities/1.505.1"
            }
          }
        }
      ],
      "certificateStartDate": "2019-07-08",
      "certificateEndDate": "2019-12-03",
      "object": "A.- LA PRESTACIÓN, BIEN DE FORMA DIRECTA O INDIRECTA, DE TODOS LOS SERVICIOS RELATIVOS A LA CONFECCIÓN DE PROYECTOS, ASÍ COMO EL ESTUDIO, ASESORAMIENTO, CONTROL Y EJECUCIÓN DE CUALESQUIERA PROMOCIONES Y PROGRAMAS DE CONSTRUCCIÓN, INCLUIDOS LOS RELATIVOS O QUE SE PRECISEN O SEAN CONVENIENTES PARA LA LICITACIÓN O CONTRATACIÓN CON ENTES PÚBLICOS O PRIVADOS. B.- LA CONSTRUCCIÓN COMPLETA, REPARACIÓN, MONTAJE, MANTENIMINTO Y CONSERVACIÓN DE EDIFICACIONES Y OBRAS CIVILES. C.- CONTRATAR OBRAS Y SERVICIOS CON CUALQUIER ORGANISMO DE LAS ADMINISTRACIONES PÚBLICAS Y CON TODA CLASE DE ENTIDADES PARTICULARES. D.- LA EJECUCIÓN DE OBRAS PÚBLICAS Y PRIVADAS, INCLUYENDO TODAS LAS ACTIVIDADES NECESARIAS PARA ELLO, POR CUENTA PROPIA O AJENA. E.- LA CAPTACIÓN, INCLUSO EN EL EXTRANJERO, MEDIANTE ADJUDICACIÓN DIRECTA O POR SUBCONTRATACIÓN, DE TODA CLASE DE OBRAS. F.- LA COMPRA, VENTA, IMPORTACIÓN, EXPORTACIÓN, ALMACENAMIENTO, COMERCIALIZACIÓN Y DISTRIBUCIÓN DE MATERIAS PRIMAS, PRODUCTOS SEMIFACTURADOS Y BIENES DE EQUIPO PROPIOS DE LA ACTIVIDAD A LA QUE LA SOCIEDAD SE DEDICA, ASÍ COMO EL ALQUILER DE MÁQUINAS DE OBRAS PÚBLICAS, TRANSFORMACIONES, ÚTILES, HERRAMIENTAS Y ACCESORIOS RELACIONADOS CON LA INDUSTRIA DE LA CONSTRUCCIÓN. G.- LA PRESTACIÓN DE ASISTENCIA TÉCNICA, EN TODAS SUS VARIANTES; LA EXPLOTACIÓN DE PATENTES, MODELOS Y DEMÁS DERECHOS DE PROPIEDAD INDUSTRIAL, ASÍ COMO LA UTILIZACIÓN DE MÉTODOS O PROCEDIMIENTOS DE TRABAJOS CONSTRUCTIVOS Y DE REPARACIÓN. H.- LA COORDINACIÓN DE MEDIOS PERSONALES, INSTALACIONES Y MAQUINARIA CORRESPONDIENTES PARA LA EJECUCIÓN MATERIAL DE LAS OBRAS CONTRATADAS. I.- LA ELABORACIÓN POR EL GABINETE TÉCNICO DE ESTUDIOS Y PROYECTOS DE OBRAS. J.- ESTUDIO Y REALIZACIÓN DE NEGOCIOS INMOBILIARIOS, COMPRAVENTA DE LOCALES, SOLARES Y TERRENOS, EDIFICACIÓN DE NUEVAS CONSTRUCCIONES PARA SU VENTA O ALQUILER, REALIZACIÓN DE URBANIZACIONES CON SUS PROYECTOS, GESTIÓN DE COMUNIDADES, SU PLANIFICACIÓN Y DESARROLLO, PARCELACIONES, Y REPARCELACIONES. ",
      "mainEntityOfPage": "https://www.contratacion.euskadi.eus/webkpe00-kperoc/es/ac71aBusquedaRegistrosWar/empresa/03257",
      "_links": {
        "self": {
          "name": "TRABAJOS ESPECIALES ZUT, S.A.",
          "href": "https://api.euskadi.eus/procurements/companies/03257"
        }
      }
    },
    {
      "name": "MHP SERVICIOS DE CONTROL SL",
      "registrationNumber": "06356",
      "identificationNumber": "B35664879",
      "address": "AVDA. ALCALDE J. RAMIREZ BETHENCOURT, 12",
      "location": {
        "postalCode": "35004",
        "municipality": "Palmas de Gran Canaria, Las",
        "county": "Palmas, Las",
        "municipalityId": "016",
        "countyId": "35"
      },
      "economicActivities": [
        {
          "id": "1.845",
          "name": "Explotación electrónica por cuenta de terceros",
          "_links": {
            "self": {
              "name": "Explotación electrónica por cuenta de terceros",
              "href": "https://api.euskadi.eus/procurements/companies/economic-activities/1.845"
            }
          }
        }
      ],
      "certificateStartDate": "2019-07-08",
      "certificateEndDate": "2019-09-08",
      "object": "LA PRESTACIÓN DE SERVICIOS INFORMÁTICOS CON TRATAMIENTO DE DATOS Y PUESTA A DISPOSICIÓN DE EQUIPOS Y REDES DE TRATAMIENTO DE LA INFORMACIÓN",
      "mainEntityOfPage": "https://www.contratacion.euskadi.eus/webkpe00-kperoc/es/ac71aBusquedaRegistrosWar/empresa/06356",
      "_links": {
        "self": {
          "name": "MHP SERVICIOS DE CONTROL SL",
          "href": "https://api.euskadi.eus/procurements/companies/06356"
        }
      }
    },
    {
      "name": "LIMPIEZAS LA MODERNA, S.L.",
      "registrationNumber": "02655",
      "identificationNumber": "B48105704",
      "address": "Pol. Arteagoiti.C/Bereziondo, 2.Pab.6. SAN MIGUEL DE BASAURI",
      "location": {
        "postalCode": "48970",
        "municipality": "Basauri",
        "county": "Bizkaia",
        "municipalityId": "015",
        "countyId": "48"
      },
      "economicActivities": [
        {
          "id": "1.922",
          "name": "Servicios de limpieza",
          "_links": {
            "self": {
              "name": "Servicios de limpieza",
              "href": "https://api.euskadi.eus/procurements/companies/economic-activities/1.922"
            }
          }
        }
      ],
      "certificateStartDate": "2019-07-05",
      "certificateEndDate": "2020-01-04",
      "object": "LA LIMPIEZA DE LOCALES Y DE EDIFICIOS, TANTO PÚBLICOS COMO PRIVADOS, EN INTERIORES Y EXTERIORES. PULIDO DE MÁRMOLES, MOSAICOS Y OTROS PAVIMENTOS Y RECUBRIMIENTOS.\r\nLIMPIEZA DE CRISTALES, LUNAS. ",
      "mainEntityOfPage": "https://www.contratacion.euskadi.eus/webkpe00-kperoc/es/ac71aBusquedaRegistrosWar/empresa/02655",
      "_links": {
        "self": {
          "name": "LIMPIEZAS LA MODERNA, S.L.",
          "href": "https://api.euskadi.eus/procurements/companies/02655"
        }
      }
    },
    {
      "name": "SABALAIN, S.L.",
      "registrationNumber": "02558",
      "identificationNumber": "B01177609",
      "address": "JUNDIZ, 4 PAB. 7D",
      "location": {
        "postalCode": "01015",
        "municipality": "Vitoria-Gasteiz",
        "county": "Araba/Álava",
        "municipalityId": "059",
        "countyId": "01"
      },
      "economicActivities": [
        {
          "id": "1.501.1",
          "name": "Construcción completa, reparación y conservación de edificaciones",
          "_links": {
            "self": {
              "name": "Construcción completa, reparación y conservación de edificaciones",
              "href": "https://api.euskadi.eus/procurements/companies/economic-activities/1.501.1"
            }
          }
        },
        {
          "id": "1.507",
          "name": "Construcción, reparación y conservación de toda clase obras",
          "_links": {
            "self": {
              "name": "Construcción, reparación y conservación de toda clase obras",
              "href": "https://api.euskadi.eus/procurements/companies/economic-activities/1.507"
            }
          }
        }
      ],
      "certificateStartDate": "2019-07-04",
      "certificateEndDate": "2019-12-20",
      "object": "LA ADQUISICIÓN, URBANIZACIÓN, PARCELACIÓN, PROMOCIÓN, CONSTRUCCIÓN, EDIFICACIÓN, CONSTITUCIÓN EN PROPIEDAD HORIZONTAL, REFORMA, AMPLIACIÓN, EXPLOTACIÓN DIRECTA O INDIRECTA, ENAJENACIÓN, Y EN GENERAL, TODA ACTIVIDAD RELATIVA A BIENES INMUEBLES, Y TODA SUERTE DE INVERSIONES Y PROMOCIONES RELACIONADAS CON EL RAMO DE LA CONSTRUCCIÓN. LA REALIZACIÓN DE TODA CLASE DE PROYECTOS DE ARQUITECTURA.\r\nEL OBJETO SOCIAL PODRÁ REALIZARSE TANTO DIRECTAMENTE COMO DE FORMA INDIRECTA, MEDIANTE LA TITULARIDAD DE ACCIONES O PARTICIPACIONES EN SOCIEDADES CON OBJETO IDÉNTICO.   ",
      "mainEntityOfPage": "https://www.contratacion.euskadi.eus/webkpe00-kperoc/es/ac71aBusquedaRegistrosWar/empresa/02558",
      "_links": {
        "self": {
          "name": "SABALAIN, S.L.",
          "href": "https://api.euskadi.eus/procurements/companies/02558"
        }
      }
    },
    {
      "name": "LA CYCA PROJECTS AND SERVICES SL",
      "registrationNumber": "06239",
      "identificationNumber": "B63876494",
      "address": "APRESTADORA, 27 2º 4ª",
      "location": {
        "postalCode": "08902",
        "municipality": "Hospitalet de Llobregat, L'",
        "county": "Barcelona",
        "municipalityId": "101",
        "countyId": "08"
      },
      "economicActivities": [
        {
          "id": "1.501.2",
          "name": "Construcción completa, reparación y conservación obras civiles",
          "_links": {
            "self": {
              "name": "Construcción completa, reparación y conservación obras civiles",
              "href": "https://api.euskadi.eus/procurements/companies/economic-activities/1.501.2"
            }
          }
        },
        {
          "id": "1.911",
          "name": "Servicios agrícolas y ganaderos",
          "_links": {
            "self": {
              "name": "Servicios agrícolas y ganaderos",
              "href": "https://api.euskadi.eus/procurements/companies/economic-activities/1.911"
            }
          }
        },
        {
          "id": "1.912",
          "name": "Servicios forestales",
          "_links": {
            "self": {
              "name": "Servicios forestales",
              "href": "https://api.euskadi.eus/procurements/companies/economic-activities/1.912"
            }
          }
        }
      ],
      "certificateStartDate": "2019-07-04",
      "certificateEndDate": "2020-01-03",
      "object": "-COMERCIO AL MAYOR Y AL MENOR DE FLORES, PLANTAS Y PRODUCTOS DE JARDINERÍA EN GENERAL. -PROYECTOS DE JARDINERÍA, CREACIÓN Y DECORACIÓN DE ESPACIOS FLORALES JARDINES Y PARQUES. -ALQUILER DE TODO TIPO DE INMUEBLES, EXCEPTUANDO EL ARRENDAMIENTO FINANCIERO DE BIENES INMUEBLES. -CONSTRUCCIÓN E INSTALACIÓN DE OBRAS VIALES Y PISTAS. -CONSTRUCCIÓN DE OBRAS CIVILES DE URBANIZACIONES. -INSTALACIONES PARA URBANIZACIÓN Y OBRAS CIVILES. -EXCAVACIONES, TERRAPLENADOS, CONSOLIDACIÓN Y COMPACTACIÓN DE TERRENOS Y CAMINOS. - TRANSPORTE Y CARGA TERRESTRE DE MERCADERÍAS Y SUMINISTRO DE MATERIALES. -CONSERVACIÓN Y SERVICIOS DE OBRAS. -DISTRIBUCIÓN Y COMERCIALIZACIÓN DE MAQUINARIA ESPECÍFICA, ASÍ COMO SU MANTENIMIENTO Y REPARACIÓN. -OBRAS DE SEÑALIZACIÓN Y BALIZAMIENTOS VIALES. -LIMPIEZA VIARIA Y EXTERIORES\r\n",
      "mainEntityOfPage": "https://www.contratacion.euskadi.eus/webkpe00-kperoc/es/ac71aBusquedaRegistrosWar/empresa/06239",
      "_links": {
        "self": {
          "name": "LA CYCA PROJECTS AND SERVICES SL",
          "href": "https://api.euskadi.eus/procurements/companies/06239"
        }
      }
    },
    {
      "name": "AXPE CONSULTING NORTE, S.L.",
      "registrationNumber": "05432",
      "identificationNumber": "B01516186",
      "address": "Avda. de los Olmos, 1. Parque empresarial Inbisa-Gamarra",
      "location": {
        "postalCode": "01013",
        "municipality": "Vitoria-Gasteiz",
        "county": "Araba/Álava",
        "municipalityId": "059",
        "countyId": "01"
      },
      "economicActivities": [
        {
          "id": "1.845",
          "name": "Explotación electrónica por cuenta de terceros",
          "_links": {
            "self": {
              "name": "Explotación electrónica por cuenta de terceros",
              "href": "https://api.euskadi.eus/procurements/companies/economic-activities/1.845"
            }
          }
        }
      ],
      "certificateStartDate": "2019-07-01",
      "certificateEndDate": "2019-12-18",
      "object": "LA REALIZACIÓN DE ACTIVIDADES INFORMÁTICAS Y DE TRATAMIENTO AUTOMÁTICO DE LA INFORMÁTICA. POR TANTO, Y SIN QUE LA SIGUIENTE ENUMERACIÓN TENGA CARÁCTER LIMITATIVO LA SOCIEDAD PODRÁ REALIZAR CUALQUIERA DE LAS SIGUIENTES ACTIVIDADES: A) ASESORAMIENTO, CONSULTORÍA, CONCEPCIÓN, DISEÑOS, DESARROLLO, IMPLANTACIÓN, EXPLOTACIÓN Y MANTENIMIENTO DE SISTEMAS DE INFORMACIÓN Y DE COMUNICACIÓN.  B) LA REALIZACIÓN DE SISTEMAS INFORMÁTICOS Y DE INGENIERÍA DE SISTEMAS. C) DISEÑO, DESARROLLO, FABRICACIÓN Y COMERCIALIZACIÓN DE SOPORTE LÓGICO Y MATERIAL INFORMATIVA. D) PRESTACIÓN DE SERVICIOS DE FORMACIÓN Y ASISTENCIA TÉCNICA, TANTO EN EL ÁREA DE LA TÉCNICA INFORMÁTICA COMO EN LA DE SU EXPLOTACIÓN Y COMERCIALIZACIÓN. E) PRESTACIÓN DE SRVICIOS DE FORMACIÓN Y ASISTENCIA TÉCNICA, TANTO NE EL ÁREA DE LA TÉCNICA INFORMÁTICA COMO EN LA DE SU EXPLOTACIÓN Y COMERCIALIZACIÓN. F) DISEÑO, DESARROLLO Y COMERCIALIZACIÓN DE SISTEMAS EXPERTOS O INTEGRADOS, COMPRENDIDO LA MICROINFORMÁTICA, ROBÓTICA, BURÓTICA, OFIMÁTICA, ASÍ COMO LA CONCEPCIÓN, DISEÑO Y FABRICACIÓN ASISTIDA POR ORDENADOR Y , EN GENERAL, EL TRATAMIENTO DE DATOS, IMAGEN Y SONIDO MEDIANTE TÉCNICAS INFORMÁTICAS. G) ELABORACIÓN, DISTRIBUCIÓN Y COMERCIALIZACIÓN DE BASES DE DATOS PROPIAS O AJENAS, Y LA CONEXIÓN Y SERVICIOS ACCESORIOS Y COMPLEMENTARIOS A LAS MISMAS RELATIVOS A OTRAS BASES DE DATOS O CENTROS DE INFORMACIÓN. H) LA EDICIÓN Y PUBLICACIÓN DE OBRAS CUYO CONTENIDO ESTE RELACIONADO CON LAS MATERIAS PRECITADAS. I) SERVICIOS AUXILIARES PARA TRABAJOS ADMINISTRATIVOS DE ARCHIVE Y SIMILARES. J) ENCUESTAS, TOMAS DE DATOS Y SERVICIOS ANÁLOGOS",
      "mainEntityOfPage": "https://www.contratacion.euskadi.eus/webkpe00-kperoc/es/ac71aBusquedaRegistrosWar/empresa/05432",
      "_links": {
        "self": {
          "name": "AXPE CONSULTING NORTE, S.L.",
          "href": "https://api.euskadi.eus/procurements/companies/05432"
        }
      }
    },
    {
      "name": "VALORA PREVENCION SL",
      "registrationNumber": "06144",
      "identificationNumber": "B97673453",
      "address": "AV REAL MONASTERIO DE POBLET 22",
      "location": {
        "postalCode": "46930",
        "municipality": "Quart de Poblet",
        "county": "Valencia/València",
        "municipalityId": "102",
        "countyId": "46"
      },
      "economicActivities": [
        {
          "id": "1.942.1",
          "name": "Consultorios médicos, centros de socorro sanitarios y urgencias",
          "_links": {
            "self": {
              "name": "Consultorios médicos, centros de socorro sanitarios y urgencias",
              "href": "https://api.euskadi.eus/procurements/companies/economic-activities/1.942.1"
            }
          }
        },
        {
          "id": "1.999",
          "name": "Otros servicios n.c.o.p",
          "_links": {
            "self": {
              "name": "Otros servicios n.c.o.p",
              "href": "https://api.euskadi.eus/procurements/companies/economic-activities/1.999"
            }
          }
        }
      ],
      "certificateStartDate": "2019-07-01",
      "certificateEndDate": "2019-12-21",
      "object": "LA ACTUACIÓN COMO SERVICIO DE PREVENCIÓN AJENO PARA LAS EMPRESAS ASOCIADAS A MUTUA VALENCIANA LEVANTE, MUTUA DE ACCIDENTES DE TRABAJO Y ENFERMEDADES PROFESIONALES DE LA SEGURIDAD SOCIAL Nº 15, DE CONFORMIDAD CON LAS DISPOSICIONES LEGALES VIGENTES. DE IGUAL MODO, LA SOCIEDAD PODRÁ LLEVAR A CABO CUANTAS ACTIVIDADES RELACIONADAS CON LA PREVENCIÓN QUE LE SEAN ATRIBUIDAS LEGALMENTE. SI EL EJERCICIO DE LAS ACTIVIDADES QUE INTEGRAN EL OBJETO REQUIERE TÍTULO PROFESIONAL O AUTORIZACIÓN ADMINISTRATIVA, LAS MISMAS SERÁN REALIZADAS POR PERSONA QUE REÚNE LAS CONDICIONES HABILITANTES PARA PODER PRESTAR SERVICIO U OBRA POR EXIGIRLO ASÍ LAS NORMAS LEGALES Y SE ENCUENTRE LIGADO POR CUALQUIER VÍNCULO JURÍDICO A LA SOCIEDAD. ASIMISMO QUEDAN EXPRESAMENTE EXCLUIDAS DEL ÁMBITO DEL OBJETO SOCIAL AQUELLAS ACTIVIDADES REGULADAS POR DISPOSICIONES ESPECIFICAS O PARA CUYA EJECUCIÓN SE EXIJAN REQUISITOS LEGALES QUE NO CUMPLA ESTA SOCIEDAD",
      "mainEntityOfPage": "https://www.contratacion.euskadi.eus/webkpe00-kperoc/es/ac71aBusquedaRegistrosWar/empresa/06144",
      "_links": {
        "self": {
          "name": "VALORA PREVENCION SL",
          "href": "https://api.euskadi.eus/procurements/companies/06144"
        }
      }
    },
    {
      "name": "DMQ CARDIOVASC S.L.",
      "registrationNumber": "06340",
      "identificationNumber": "B86731841",
      "address": "C:\\ de Orense, 68 - 1º",
      "location": {
        "postalCode": "28020",
        "municipality": "Madrid",
        "county": "Madrid",
        "municipalityId": "079",
        "countyId": "28"
      },
      "economicActivities": [
        {
          "id": "1.619.2",
          "name": "Venta al por mayor de aparatos e instrumentos médicos, ortopédicos, ópticos",
          "_links": {
            "self": {
              "name": "Venta al por mayor de aparatos e instrumentos médicos, ortopédicos, ópticos",
              "href": "https://api.euskadi.eus/procurements/companies/economic-activities/1.619.2"
            }
          }
        }
      ],
      "certificateStartDate": "2019-07-01",
      "certificateEndDate": "2019-11-30",
      "object": "A) LA COMERCIALIZACIÓN, DISTRIBUCIÓN Y SUMINISTROS DE MATERIALES Y PRODUCTOS MÉDICO-QUIRÚRGICOS, ASÍ COMO LA INTERMEDIACIÓN EN DICHO COMERCIO. B) LA IMPORTACIÓN Y EXPLOTACIÓN DE MATERIAL MÉDICO-QUIRÚRGICO Y OTROS PRODUCTOS MÉDICO-SANITARIOS Y HOSPITALARIOS",
      "mainEntityOfPage": "https://www.contratacion.euskadi.eus/webkpe00-kperoc/es/ac71aBusquedaRegistrosWar/empresa/06340",
      "_links": {
        "self": {
          "name": "DMQ CARDIOVASC S.L.",
          "href": "https://api.euskadi.eus/procurements/companies/06340"
        }
      }
    }
  ]
}