{
  "totalItems": 9042,
  "totalPages": 905,
  "currentPage": 732,
  "itemsOfPage": 10,
  "items": [
    {
      "name": "NUEVAS ESTRATEGIAS DE MANTENIMIENTO, S.L.",
      "registrationNumber": "04385",
      "identificationNumber": "B20942926",
      "address": "Pº MIKELETEGI, 56 - 2º",
      "location": {
        "postalCode": "20009",
        "municipality": "Donostia / San Sebastián",
        "county": "Gipuzkoa",
        "municipalityId": "069",
        "countyId": "20"
      },
      "economicActivities": [
        {
          "id": "1.354.2",
          "name": "Fabricación de otros componentes electrónicos activos",
          "_links": {
            "self": {
              "name": "Fabricación de otros componentes electrónicos activos",
              "href": "https://api.euskadi.eus/procurements/companies/economic-activities/1.354.2"
            }
          }
        },
        {
          "id": "1.843.1",
          "name": "Servicios técnicos de ingeniería",
          "_links": {
            "self": {
              "name": "Servicios técnicos de ingeniería",
              "href": "https://api.euskadi.eus/procurements/companies/economic-activities/1.843.1"
            }
          }
        }
      ],
      "certificateStartDate": "2010-03-25",
      "certificateEndDate": "2010-07-18",
      "object": "EL DISEÑO, FABRICACIÓN, DESARROLLO Y COMERCIALIZACIÓN DE SOLUCIONES TECNOLÓGICAS Y DE INGENIERÍA, PARA ACTIVIDADES RELACIONADAS CON EL MANTENIMIENTO DE TODO TIPO DE ELEMENTOS, YA SEAN TRENES, EQUIPOS AUXILIARES, AFINES Y COMPLEMENTARIOS, VEHÍCULOS DE TRANSPORTE EN GENERAL, INFRAESTRUCTRA Y TODO AQUEL ELEMENTO CON  COMPONENTES DE INGENIERÍA O SIN ELLOS QUE REQUIERA DE MANTENIMIENTO, COMO TAMBIÉN TAREAS VINCULADAS CON EL PERSONAL QUE ATIENDE EL MANTENIMIENTO, A FIN DE OPTIMIZAR LAS TÉCNICAS DE MANTENIMIENTO, CONSIGUIENDO MEJORAS EN FIABILIDAD, DISPONIBILIDAD DEL MATERIAL Y OPTIMIZACIÓN DEL TIEMPO NECESARIO PARA EL MANTENIMIENTO",
      "mainEntityOfPage": "https://www.contratacion.euskadi.eus/webkpe00-kperoc/es/ac71aBusquedaRegistrosWar/empresa/04385",
      "_links": {
        "self": {
          "name": "NUEVAS ESTRATEGIAS DE MANTENIMIENTO, S.L.",
          "href": "https://api.euskadi.eus/procurements/companies/04385"
        }
      }
    },
    {
      "name": "XEROX ESPAÑA, S.A.",
      "registrationNumber": "00116",
      "identificationNumber": "A28208601",
      "address": "C/ RAMÍREZ DE ARELLANO, Nº 29",
      "location": {
        "postalCode": "28043",
        "municipality": "Madrid",
        "county": "Madrid",
        "municipalityId": "079",
        "countyId": "28"
      },
      "economicActivities": [
        {
          "id": "1.617.8",
          "name": "Venta al por mayor de máquinas y material de oficina",
          "_links": {
            "self": {
              "name": "Venta al por mayor de máquinas y material de oficina",
              "href": "https://api.euskadi.eus/procurements/companies/economic-activities/1.617.8"
            }
          }
        },
        {
          "id": "1.619.4",
          "name": "Venta al por mayor de productos de papel y cartón",
          "_links": {
            "self": {
              "name": "Venta al por mayor de productos de papel y cartón",
              "href": "https://api.euskadi.eus/procurements/companies/economic-activities/1.619.4"
            }
          }
        },
        {
          "id": "1.845",
          "name": "Explotación electrónica por cuenta de terceros",
          "_links": {
            "self": {
              "name": "Explotación electrónica por cuenta de terceros",
              "href": "https://api.euskadi.eus/procurements/companies/economic-activities/1.845"
            }
          }
        },
        {
          "id": "1.849.2",
          "name": "Servicios mecanográficos, taquigráficos, de reproducción de escritos",
          "_links": {
            "self": {
              "name": "Servicios mecanográficos, taquigráficos, de reproducción de escritos",
              "href": "https://api.euskadi.eus/procurements/companies/economic-activities/1.849.2"
            }
          }
        },
        {
          "id": "1.853",
          "name": "Alquiler de maquinaria y equipo contable de oficina y cálculo",
          "_links": {
            "self": {
              "name": "Alquiler de maquinaria y equipo contable de oficina y cálculo",
              "href": "https://api.euskadi.eus/procurements/companies/economic-activities/1.853"
            }
          }
        },
        {
          "id": "1.973.3",
          "name": "Servicios de copias de documentos con máquina fotocopiadora",
          "_links": {
            "self": {
              "name": "Servicios de copias de documentos con máquina fotocopiadora",
              "href": "https://api.euskadi.eus/procurements/companies/economic-activities/1.973.3"
            }
          }
        }
      ],
      "certificateStartDate": "2010-03-24",
      "certificateEndDate": "2010-07-27",
      "object": "COMUNICACIONES GRÁFICAS (FOTOCOPIADORAS, MÁQUINAS DE ESCRIBIR Y ELEMENTOS DE OFIMÁTICA E INGENIERÍA)",
      "mainEntityOfPage": "https://www.contratacion.euskadi.eus/webkpe00-kperoc/es/ac71aBusquedaRegistrosWar/empresa/00116",
      "_links": {
        "self": {
          "name": "XEROX ESPAÑA, S.A.",
          "href": "https://api.euskadi.eus/procurements/companies/00116"
        }
      }
    },
    {
      "name": "REDOX, S.A.",
      "registrationNumber": "02309",
      "identificationNumber": "A48232748",
      "address": "PASEO LANDABARRI, 3 - 1",
      "location": {
        "postalCode": "48940",
        "municipality": "Leioa",
        "county": "Bizkaia",
        "municipalityId": "054",
        "countyId": "48"
      },
      "economicActivities": [
        {
          "id": "1.659.2",
          "name": "Venta al por menor de muebles de oficina y máquinas y equipos de oficina",
          "_links": {
            "self": {
              "name": "Venta al por menor de muebles de oficina y máquinas y equipos de oficina",
              "href": "https://api.euskadi.eus/procurements/companies/economic-activities/1.659.2"
            }
          }
        },
        {
          "id": "1.843.1",
          "name": "Servicios técnicos de ingeniería",
          "_links": {
            "self": {
              "name": "Servicios técnicos de ingeniería",
              "href": "https://api.euskadi.eus/procurements/companies/economic-activities/1.843.1"
            }
          }
        },
        {
          "id": "1.845",
          "name": "Explotación electrónica por cuenta de terceros",
          "_links": {
            "self": {
              "name": "Explotación electrónica por cuenta de terceros",
              "href": "https://api.euskadi.eus/procurements/companies/economic-activities/1.845"
            }
          }
        },
        {
          "id": "1.849.7",
          "name": "Servicios de gestión administrativa",
          "_links": {
            "self": {
              "name": "Servicios de gestión administrativa",
              "href": "https://api.euskadi.eus/procurements/companies/economic-activities/1.849.7"
            }
          }
        },
        {
          "id": "1.933.9",
          "name": "Otras actividades de enseñanza tales como idiomas, mecanografía",
          "_links": {
            "self": {
              "name": "Otras actividades de enseñanza tales como idiomas, mecanografía",
              "href": "https://api.euskadi.eus/procurements/companies/economic-activities/1.933.9"
            }
          }
        }
      ],
      "certificateStartDate": "2010-03-24",
      "certificateEndDate": "2010-08-19",
      "object": "LA ENSEÑANZA EN GENERAL, ESPECIALIZADA, RECICLAJE A EMPRESAS, DE INFORMÁTICA. SERVICIOS INFORMÁTICOS, DE GESTIÓN, ASESORAMIENTO Y VENTA DE EQUIPOS Y PROGRMAS INFORMÁTICOS. LA PRESTACIÓN DE TODA CLASE DE SERVICIOS RELACIONADOS CON LA INFORMÁTICA, LA CONSULTORÍA DE EQUIPOS Y APLICACIONES INFORMÁTICAS; LA CREACIÓN, DESRROLLO, MANTENIMIENTO Y SUMINISTRO DE PROGRAMAS INFORMÁTICOS; PROCESO DE DATOS; ASESORAMIENTO, CREACIÓN Y MANTENIMIENTO DE BASES DE DATOS; MANTENIMIENTO Y REPARACIÓN DE MÁQUINAS DE OFICINA, CONTABILIDAD Y EQUIPOS INFORMÁTICOS; SERVICIOS DE ARQUITECTURA E INGENIERÍA Y ASESORAMIENTO TÉCNICO A EMPRESAS, INSTITUCIONES Y ORGANISMOS PÚBLICOS; SELECCIÓN Y COLOCACIÓN DE PERSONAL; CREACIÓN DE SITEMAS INFORMÁTICOS PARA EL CONTROL DE ACCESO A EDIFICIOS Y MEDIOS DE TRANSPORTE; ENSEÑANZA SUPERIOR, DE ESPECIALIZACIÓN Y POSTGRADO Y FORMACIÓN PROFESIONAL CONTINUA",
      "mainEntityOfPage": "https://www.contratacion.euskadi.eus/webkpe00-kperoc/es/ac71aBusquedaRegistrosWar/empresa/02309",
      "_links": {
        "self": {
          "name": "REDOX, S.A.",
          "href": "https://api.euskadi.eus/procurements/companies/02309"
        }
      }
    },
    {
      "name": "SOPORTES Y PRODUCCIONES INTEGRALES S.L.",
      "registrationNumber": "03910",
      "identificationNumber": "B83746495",
      "address": "C/PUERTO DE USED, 20",
      "location": {
        "postalCode": "28031",
        "municipality": "Madrid",
        "county": "Madrid",
        "municipalityId": "079",
        "countyId": "28"
      },
      "economicActivities": [
        {
          "id": "1.844",
          "name": "Servicios de publicidad, relaciones públicas y similares",
          "_links": {
            "self": {
              "name": "Servicios de publicidad, relaciones públicas y similares",
              "href": "https://api.euskadi.eus/procurements/companies/economic-activities/1.844"
            }
          }
        }
      ],
      "certificateStartDate": "2010-03-23",
      "certificateEndDate": "2010-09-08",
      "object": "LA PRESTACIÓN DE SERVICIOS DE CREATIVIDAD, DISEÑO, PLANIFICACIÓN EN LA COMPRA Y GESTIÓN EN MEDIOS O ESPACIOS, ASÍ COMO LA PRODUCCIÓN NECESARIA EN LA DIFUSIÓN DE CAMPAÑAS DE COMUNICACIÓN Y LOS TRÁMITES ADMINISTRATIVOS NECESARIOS PARA LA REALIZACIÓN DE LAS MISMAS. SERVICIOS DE CREATIVIDAD, DISEÑO Y PLANIFICACIÓN EN LA PRODUCCIÓN PARA LA ORGANIZACIÓN Y PROMOCIÓN DE CONGRESOS, EVENTOS, FERIAS Y EXPOSICIONES TANTO PERMANENTES COMO ITINERANTES. LOS SERVICIOS DE PORTERÍA, CONTROL DE ACCESOS E INFORMACIÓN Y ASESORAMIENTO AL PÚBLICO , TOMA DE DATOS, ENCUESTAS Y SERVICIOS ANÁLOGOS Y LA FORMACIÓN DE PERSONAS MEDIANTE MEDIOS PERMANENTES O ITINERANTES CON UNIDADES O AULAS MÓVILES",
      "mainEntityOfPage": "https://www.contratacion.euskadi.eus/webkpe00-kperoc/es/ac71aBusquedaRegistrosWar/empresa/03910",
      "_links": {
        "self": {
          "name": "SOPORTES Y PRODUCCIONES INTEGRALES S.L.",
          "href": "https://api.euskadi.eus/procurements/companies/03910"
        }
      }
    },
    {
      "name": "INSTALACIONES ELUR, S.L.",
      "registrationNumber": "04381",
      "identificationNumber": "B95099115",
      "address": "ELOURDIGOITIA 21, 1º DCHA",
      "location": {
        "postalCode": "48100",
        "municipality": "Mungia",
        "county": "Bizkaia",
        "municipalityId": "069",
        "countyId": "48"
      },
      "economicActivities": [
        {
          "id": "1.504.1",
          "name": "Instalaciones eléctricas en general",
          "_links": {
            "self": {
              "name": "Instalaciones eléctricas en general",
              "href": "https://api.euskadi.eus/procurements/companies/economic-activities/1.504.1"
            }
          }
        },
        {
          "id": "1.504.3",
          "name": "Instalaciones de frío, calor y acondicionamiento de aire",
          "_links": {
            "self": {
              "name": "Instalaciones de frío, calor y acondicionamiento de aire",
              "href": "https://api.euskadi.eus/procurements/companies/economic-activities/1.504.3"
            }
          }
        }
      ],
      "certificateStartDate": "2010-03-22",
      "certificateEndDate": "2011-02-25",
      "object": "LA REALIZACIÓN DE TODA CLASE DE ACTIVIDADES RELACIONADAS CON EL RAMO DE LA ELECTRICIDAD, LA PRODUCCIÓN, APROVECHAMIENTO Y CONTROL DE LA ENERGÍA; LA COMPRAVENTA, SUMINISTRO, FABRICACIÓN, TRANSFORMACIÓN, ALMACENAJE, DISTRIBUCIÓN, IMPORTACIÓN, EXPORTACIÓN Y COMERCIALIZACIÓN DE APARATOS ELÉCTRICOS  Y ELECTRÓNICOS, Y DE SUS COMPONENTES Y REPUESTOS; LA COMERCIALIZACIÓN DE MATERIAL ELECTRÓNICO; LA REDACCIÓN DE PROYECTOS DE INSTALACIONES ELÉCTRICAS Y LA EJECUCIÓN DE LOS MISMOS; LA PRESTACIÓN DE SERVICIOS DE MANTENIMIENTO, REPARACIÓN Y CONSERVACIÓN DE TODA CLASE DE TUBERÍAS Y CONDUCTORES, APARATOS E INSTALACIONES ELÉCTRICAS; LA FABRICACIÓN E INSTALACIÓN DE CONSTRUCCIONES METÁLICAS Y MONTAJES DE INSTALACIONES INDUSTRIALES EN GENERAL; Y LA PRESTACIÓN DE SERVICIOS ADMINISTRATIVOS Y DE ASESORAMIENTO A OTRAS EMPRESAS DEL SECTOR ELÉCTRICO.",
      "mainEntityOfPage": "https://www.contratacion.euskadi.eus/webkpe00-kperoc/es/ac71aBusquedaRegistrosWar/empresa/04381",
      "_links": {
        "self": {
          "name": "INSTALACIONES ELUR, S.L.",
          "href": "https://api.euskadi.eus/procurements/companies/04381"
        }
      }
    },
    {
      "name": "CONSTRUCCIONES Y PROMOCIONES MANUEL ZABALA, S.L.",
      "registrationNumber": "04382",
      "identificationNumber": "B01139674",
      "address": "CARRASCAL, 16 A",
      "location": {
        "postalCode": "01308",
        "municipality": "Lanciego/Lantziego",
        "county": "Araba/Álava",
        "municipalityId": "032",
        "countyId": "01"
      },
      "economicActivities": [
        {
          "id": "1.501.1",
          "name": "Construcción completa, reparación y conservación de edificaciones",
          "_links": {
            "self": {
              "name": "Construcción completa, reparación y conservación de edificaciones",
              "href": "https://api.euskadi.eus/procurements/companies/economic-activities/1.501.1"
            }
          }
        },
        {
          "id": "1.833.1",
          "name": "Promoción de terrenos",
          "_links": {
            "self": {
              "name": "Promoción de terrenos",
              "href": "https://api.euskadi.eus/procurements/companies/economic-activities/1.833.1"
            }
          }
        }
      ],
      "certificateStartDate": "2010-03-22",
      "certificateEndDate": "2010-07-21",
      "object": "PROMOCION INMOBILIARIA, COMPRA Y VENTA DE TERRENOS, INMUEBLES Y PARTES DE INMUEBLES EN NOMBRE Y POR CUENTA PROPIA, ASÍ COMO POR LAS UNIDADES QUE ORDENAN LA CONSTRUCCIÓN, PARCELACIÓN Y URBANIZACIÓN DE ALOJAMIENTOS. TODO ELLO CON EL FIN DE VENDERLOS. ADEMÁS REALIZARÁ LOS TRABAJOS DE CONSTRUCCIÓN Y OBRA CIVIL EN GENERAL",
      "mainEntityOfPage": "https://www.contratacion.euskadi.eus/webkpe00-kperoc/es/ac71aBusquedaRegistrosWar/empresa/04382",
      "_links": {
        "self": {
          "name": "CONSTRUCCIONES Y PROMOCIONES MANUEL ZABALA, S.L.",
          "href": "https://api.euskadi.eus/procurements/companies/04382"
        }
      }
    },
    {
      "name": "ACCION ZERO DE CULTURA Y SOCIEDAD, S.L.",
      "registrationNumber": "01737",
      "identificationNumber": "B01128925",
      "address": "C/ TORNO, Nº 2 A - 1º C.",
      "location": {
        "postalCode": "01005",
        "municipality": "Vitoria-Gasteiz",
        "county": "Araba/Álava",
        "municipalityId": "059",
        "countyId": "01"
      },
      "economicActivities": [
        {
          "id": "1.952",
          "name": "Asistencia y servicios sociales en centros no residenciales",
          "_links": {
            "self": {
              "name": "Asistencia y servicios sociales en centros no residenciales",
              "href": "https://api.euskadi.eus/procurements/companies/economic-activities/1.952"
            }
          }
        }
      ],
      "certificateStartDate": "2010-03-18",
      "certificateEndDate": "2010-09-02",
      "object": "LA GESTIÓN DE PROGRAMAS Y SERVICIOS SOCIO-CULTURALES",
      "mainEntityOfPage": "https://www.contratacion.euskadi.eus/webkpe00-kperoc/es/ac71aBusquedaRegistrosWar/empresa/01737",
      "_links": {
        "self": {
          "name": "ACCION ZERO DE CULTURA Y SOCIEDAD, S.L.",
          "href": "https://api.euskadi.eus/procurements/companies/01737"
        }
      }
    },
    {
      "name": "JORGE MARTÍN NIETO, S.L.",
      "registrationNumber": "02110",
      "identificationNumber": "B20409090",
      "address": "P.  MASTI-LOIDI  C/MASTI-LOIDI, 19-B ",
      "location": {
        "postalCode": "20100",
        "municipality": "Errenteria",
        "county": "Gipuzkoa",
        "municipalityId": "067",
        "countyId": "20"
      },
      "economicActivities": [
        {
          "id": "1.501.1",
          "name": "Construcción completa, reparación y conservación de edificaciones",
          "_links": {
            "self": {
              "name": "Construcción completa, reparación y conservación de edificaciones",
              "href": "https://api.euskadi.eus/procurements/companies/economic-activities/1.501.1"
            }
          }
        },
        {
          "id": "1.501.2",
          "name": "Construcción completa, reparación y conservación obras civiles",
          "_links": {
            "self": {
              "name": "Construcción completa, reparación y conservación obras civiles",
              "href": "https://api.euskadi.eus/procurements/companies/economic-activities/1.501.2"
            }
          }
        }
      ],
      "certificateStartDate": "2010-03-16",
      "certificateEndDate": "2010-08-01",
      "object": "LA REALIZACIÓN DE TODAS LAS ACTIVIDADES RELACIONADAS CON LA CONSTRUCCIÓN, TANTO DE OBRA CIVIL COMO EDIFICACIÓN (CONSTRUCCIÓN DE  BIENES INMUEBLES, HASTA EL TOTAL ACABADO DE LAS MISMAS, INCLUYÉNDOSE NO SÓLO CONSTRUCCIONES DE OBRAS NUEVAS, SINO TAMBIÉN RESTAURACIÓN Y MANTENIMIENTO DE LAS EXISTENTES). ASÍ COMO LA PROMOCIÓN Y COMPRA VENTA DE EDIFICIOS Y TERRENOS.",
      "mainEntityOfPage": "https://www.contratacion.euskadi.eus/webkpe00-kperoc/es/ac71aBusquedaRegistrosWar/empresa/02110",
      "_links": {
        "self": {
          "name": "JORGE MARTÍN NIETO, S.L.",
          "href": "https://api.euskadi.eus/procurements/companies/02110"
        }
      }
    },
    {
      "name": "GARATE AUTOBUSAK, S.L.",
      "registrationNumber": "04258",
      "identificationNumber": "B20623070",
      "address": "LAU-BIDE, 14",
      "location": {
        "postalCode": "20230",
        "municipality": "Legazpi",
        "county": "Gipuzkoa",
        "municipalityId": "051",
        "countyId": "20"
      },
      "economicActivities": [
        {
          "id": "1.721.3",
          "name": "Transporte de viajeros por carretera",
          "_links": {
            "self": {
              "name": "Transporte de viajeros por carretera",
              "href": "https://api.euskadi.eus/procurements/companies/economic-activities/1.721.3"
            }
          }
        }
      ],
      "certificateStartDate": "2010-03-16",
      "certificateEndDate": "2010-08-26",
      "object": "pte",
      "mainEntityOfPage": "https://www.contratacion.euskadi.eus/webkpe00-kperoc/es/ac71aBusquedaRegistrosWar/empresa/04258",
      "_links": {
        "self": {
          "name": "GARATE AUTOBUSAK, S.L.",
          "href": "https://api.euskadi.eus/procurements/companies/04258"
        }
      }
    },
    {
      "name": "1NE SERVICIOS INDUSTRIALES, S.L.",
      "registrationNumber": "02199",
      "identificationNumber": "B20478202",
      "address": "UROLA INDUSTRIALDEA, LOCAL. T-31.",
      "location": {
        "postalCode": "20230",
        "municipality": "Legazpi",
        "county": "Gipuzkoa",
        "municipalityId": "051",
        "countyId": "20"
      },
      "economicActivities": [
        {
          "id": "1.922.1",
          "name": "Servicios de limpieza de interiores",
          "_links": {
            "self": {
              "name": "Servicios de limpieza de interiores",
              "href": "https://api.euskadi.eus/procurements/companies/economic-activities/1.922.1"
            }
          }
        }
      ],
      "certificateStartDate": "2010-03-15",
      "certificateEndDate": "2010-09-03",
      "object": "CUALQUIER ACTIVIDAD RELACIONADA CON LA LIMPIEZA, TANTO INDUSTRIAL COMO A PARTICULARES, ASÍ COMO LA COMERCIALIZACIÓN DE MATERIALES Y PRODUCTOS DE LIMPIEZA. LIMPIEZA VIARIA, LIMPIEZA DE EDIFICIOS Y GRANDES SUPERFICIES COMERCIALES.\r\nGESTIÓN DE RESIDUOS, SANEAMIENTO PÚBLICO, RECOGIDA, ELIMINACIÓN Y TRATAMIENTO DE RESIDUOS SÓLIDOS URBANOS, AGUAS RESIDUALES, DESPERDICIOS DE FOSAS SÉPTICAS Y POZOS NEGROS.\r\nACTIVIDADES DE DESINFECCIÓN, DESCONTAMINACIÓN, DESINSECTACIÓN Y DESRATIZACIÓN.\r\nSELECCIÓN, VALORACIÓN Y RECICLAJE DE MATERIALES METÁLICOS Y NO METÁLICOS.\r\nDEPÓSITO, SERVICIOS DE CARGA Y DESCARGA, ALMACENAMIENTO, CLASIFICACIÓN, LOGÍSTICA Y TRANSPORTE POR TODOS LOS MEDIOS  Y VÍAS DE CLASE DE MERCANCÍAS, ASÍ COMO TODAS LAS ACTIVIDADES ANEXAS A LA ACTIVIDAD.\r\nDICHAS ACTIVIDADES PODRÁN SER REALIZADAS YA DIRECTAMENTE, YA INDIRECTAMENTE, INCLUSO MEDIANTE LA TITULARIDAD DE ACCIONES O PARTICIPACIONES EN SOCIEDADES CON OBJETO IDÉNTICO O ANÁLOGO, O DIRECTA O INDIRECTAMENTE RELACIONADO CON EL DE LA PRESENTE SOCIEDAD   ",
      "mainEntityOfPage": "https://www.contratacion.euskadi.eus/webkpe00-kperoc/es/ac71aBusquedaRegistrosWar/empresa/02199",
      "_links": {
        "self": {
          "name": "1NE SERVICIOS INDUSTRIALES, S.L.",
          "href": "https://api.euskadi.eus/procurements/companies/02199"
        }
      }
    }
  ]
}