{
  "totalItems": 9042,
  "totalPages": 905,
  "currentPage": 105,
  "itemsOfPage": 10,
  "items": [
    {
      "name": "AUDIOMIC PRODUCCIONES, S.L.",
      "registrationNumber": "02032",
      "identificationNumber": "B48537617",
      "address": "AVDA. TXORIERRI, Nº 46 - POL. IND. BERRETEAGA",
      "location": {
        "postalCode": "48150",
        "municipality": "Sondika",
        "county": "Bizkaia",
        "municipalityId": "904",
        "countyId": "48"
      },
      "economicActivities": [
        {
          "id": "1.615.4",
          "name": "Venta al por mayor de aparatos y material radioeléctrico y electrónico",
          "_links": {
            "self": {
              "name": "Venta al por mayor de aparatos y material radioeléctrico y electrónico",
              "href": "https://api.euskadi.eus/procurements/companies/economic-activities/1.615.4"
            }
          }
        },
        {
          "id": "1.856.1",
          "name": "Alquiler de bienes de consumo",
          "_links": {
            "self": {
              "name": "Alquiler de bienes de consumo",
              "href": "https://api.euskadi.eus/procurements/companies/economic-activities/1.856.1"
            }
          }
        },
        {
          "id": "1.965.4",
          "name": "Empresas de espectáculos",
          "_links": {
            "self": {
              "name": "Empresas de espectáculos",
              "href": "https://api.euskadi.eus/procurements/companies/economic-activities/1.965.4"
            }
          }
        },
        {
          "id": "1.983",
          "name": "Agencias de colocación de artistas",
          "_links": {
            "self": {
              "name": "Agencias de colocación de artistas",
              "href": "https://api.euskadi.eus/procurements/companies/economic-activities/1.983"
            }
          }
        }
      ],
      "certificateStartDate": "2025-12-30",
      "certificateEndDate": "2026-06-15",
      "object": "a) LA PRODUCCIÓN, ORGANIZACIÓN, MONTAJE E INSTALACIÓN DE CONCIERTOS, CONGRESOS, CONVENCIONES, ASAMBLEAS, ESPECTÁCULOS, GABINETES DE PRENSA, FERIAS, VERBENAS, REPRESENTACIONES Y ACTOS PÚBLICOS.\r\n\r\nb) LA ELABORACIÓN DE CAMPAÑAS DE IMAGEN DE PERSONAS, OBJETOS, BIENES Y DISEÑOS, PARA SU PROMOCIÓN PÚBLICA Y PRIVADA.\r\n\r\nc) LA CONTRATACIÓN DE ARTISTAS Y LA PRESTACIÓN DE SERVICIOS A TODA CLASE DE PERSONAS Y EMPRESAS RELACIONADAS CON EL OCIO, LA CULTURA Y EL TIEMPO LIBRE.\r\n\r\nd) LA ACTIVIDAD DE TRANSPORTES EN GENERAL, PUDIENDO EXPLOTAR LÍNEAS REGULARES Y DISCRECIONALES DE ÁMBITO INTERNACIONAL, NACIONAL, COMARCAL, PROVINCIAL Y LOCAL, ASÍ COMO EL ESTABLECIMIENTO Y EXPLOTACIÓN DE AGENCIAS DE TRANSPORTE, APARCAMIENTOS, GARAJES, CENTROS DE ESTACIONES DE SERVICIOS O DE ASISTENCIA A VEHÍCULOS.\r\n\r\ne) EL DISEÑO, PRODUCCIÓN Y COMERCIALIZACIÓN DE ANAGRAMAS, LOGOTIPOS E IMAGEN; Y LA PRESTACIÓN DE SERVICIOS INFORMATIVOS, PUBLICITARIOS, NOTICIAS ESCRITAS O POR IMAGEN, POR CUALESQUIERA MEDIOS Y SISTEMAS, A ENTIDADES PÚBLICAS, PRIVADAS, PERSONAS NATURALES O JURÍDICAS.\r\n\r\nf) LA COMPRA, VENTA, DISTRIBUCIÓN, REPARACIÓN, COMERCIALIZACIÓN Y ALQUILER, DE APARATOS Y ELEMENTOS, INDIVIDUALIZADOS Y EN EQUIPO, POR CUENTA PROPIA O DE TERCEROS, AL POR MAYOR Y MENOR, DE APARATOS Y MATERIAL DESTINADOS A LA INDUSTRIA, ELÉCTRICA, MECÁNICA, HIDRÁULICA, TELECOMUNICACIÓN Y ELECTRÓNICA; Y LA IMPORTACIÓN Y EXPORTACIÓN DE DICHOS APARATOS Y ELEMENTOS",
      "mainEntityOfPage": "https://www.contratacion.euskadi.eus/webkpe00-kperoc/es/ac71aBusquedaRegistrosWar/empresa/02032",
      "_links": {
        "self": {
          "name": "AUDIOMIC PRODUCCIONES, S.L.",
          "href": "https://api.euskadi.eus/procurements/companies/02032"
        }
      }
    },
    {
      "name": "FUNDACION CURSOS DE VERANO DE LA U.P.V. / E.H.U.",
      "registrationNumber": "10270",
      "identificationNumber": "G20448056",
      "address": "MIRAKONTXA , 48. PALACIO MIRARMAR 48",
      "location": {
        "postalCode": "20007",
        "municipality": "Donostia / San Sebastián",
        "county": "Gipuzkoa",
        "municipalityId": "069",
        "countyId": "20"
      },
      "economicActivities": [
        {
          "id": "1.932.2",
          "name": "Enseñanza de formación y perfeccionamiento profesional superior",
          "_links": {
            "self": {
              "name": "Enseñanza de formación y perfeccionamiento profesional superior",
              "href": "https://api.euskadi.eus/procurements/companies/economic-activities/1.932.2"
            }
          }
        }
      ],
      "certificateStartDate": "2025-12-27",
      "certificateEndDate": "2026-06-27",
      "object": "- LA ORGANIZACIÓN DE CURSO DE VERANO DE LA UPV/EHU. - LA ORGANIZACIÓN DE OTRAS ACTIVIDADES CUYA INTEGRACIÓN O CREACIÓN SEA ACORDADA POR EL PATRONATO DE LA \"FUNDACIÓN CURSOS DE VERANO DE LA UPV/EHU\".",
      "mainEntityOfPage": "https://www.contratacion.euskadi.eus/webkpe00-kperoc/es/ac71aBusquedaRegistrosWar/empresa/10270",
      "_links": {
        "self": {
          "name": "FUNDACION CURSOS DE VERANO DE LA U.P.V. / E.H.U.",
          "href": "https://api.euskadi.eus/procurements/companies/10270"
        }
      }
    },
    {
      "name": "VILTEC VILANOVA DESIGN, S.L.",
      "registrationNumber": "10271",
      "identificationNumber": "B55335574",
      "address": "Av. Europa, 34",
      "location": {
        "postalCode": "17800",
        "municipality": "Olot",
        "county": "Girona",
        "municipalityId": "114",
        "countyId": "17"
      },
      "economicActivities": [
        {
          "id": "1.344",
          "name": "Fabricación de contadores y aparatos de medida, eléctricos",
          "_links": {
            "self": {
              "name": "Fabricación de contadores y aparatos de medida, eléctricos",
              "href": "https://api.euskadi.eus/procurements/companies/economic-activities/1.344"
            }
          }
        }
      ],
      "certificateStartDate": "2025-12-26",
      "certificateEndDate": "2026-06-26",
      "object": "EL DISEÑO, FABRICACIÓN, COMERCIALIZACIÓN Y ARRENDAMIENTO NO FINANCIERO DE TODA CLASE DE PRODUCTOS DE USO INDUSTRIAL, DOMESTICO, RECREATIVO, NÁUTICO Y DE HOSTELERÍA.",
      "mainEntityOfPage": "https://www.contratacion.euskadi.eus/webkpe00-kperoc/es/ac71aBusquedaRegistrosWar/empresa/10271",
      "_links": {
        "self": {
          "name": "VILTEC VILANOVA DESIGN, S.L.",
          "href": "https://api.euskadi.eus/procurements/companies/10271"
        }
      }
    },
    {
      "name": "ALARA B.I.K. SL",
      "registrationNumber": "10284",
      "identificationNumber": "B70994108",
      "address": "Barrio El Pontón-Urarte 18",
      "location": {
        "postalCode": "48192",
        "municipality": "Gordexola",
        "county": "Bizkaia",
        "municipalityId": "042",
        "countyId": "48"
      },
      "economicActivities": [
        {
          "id": "1.966.9",
          "name": "Otros servicios culturales n.c.o.p",
          "_links": {
            "self": {
              "name": "Otros servicios culturales n.c.o.p",
              "href": "https://api.euskadi.eus/procurements/companies/economic-activities/1.966.9"
            }
          }
        }
      ],
      "certificateStartDate": "2025-12-26",
      "certificateEndDate": "2026-06-26",
      "object": "ORGANIZACIÓN DE EVENTOS A MEDIDA DE LA CLIENTELA, INCLUYENDO LA PRESENTACIÓN Y LA ANIMACIÓN DE LOS MISMOS. (CNAE: 9329). UDALEKUS, ACAMPADAS, EXCURSIONES Y SALIDAS. ACTIVIDADES PARA SENSIBILIZAR SOBRE IGUALDAD, INTERCULTURALIDAD, MEDIO AMBIENTE, LGTB+ Y CAMBIO CLIMÁTICO, PARA TODAS LAS EDADES. TODO TIPO DE ESPECTÁCULOS CULTURALES, (CUENTACUENTOS, TEATRO, PAYASAS, MUSICALES, CIRCENSES, HUMORÍSTICOS, MONÓLOGOS, MAGIA, DEPORTIVOS....) INDEPENDIENTEMENTE DEL FORMATO, PRESUPUESTO O ESPACIO EN EL QUE SE REALICE. ACTIVIDADES PARA EL FOMENTO DEL EUSKERA, LA CULTURA VASCA Y SUS TRADICIONES. ACTIVIDADES PARA EL FOMENTO DE LA LECTURAY/O LA ESCRITURA. ACTIVIDADES DEPORTIVAS. ACTIVIDADES RELACIONADAS CON EL BAILE Y LA MÚSICA. CHARLAS Y ENCUENTROS PARA TODAS LAS EDADES. TALLERES DE TODO TIPO, PARA PÚBLICO INFANTIL, FAMILIAR, ADOLESCENTES O PÚBLICO ADULTO. OMANUALIDADES PARA TODOS LOS PÚBLICOS. BAILABLES, DJ´S  Y ANIMACIONES MUSICALES. ACTIVIDADES DE OCIO CON TRANSVERSALIDAD O NO (SCAPEROOM, JUEGOS, RETOS, BÚSQUEDA DE TESORO, CASTILLOS HINCHABLES...), Y CUALQUIER ACTIVIDAD PARA ENTRETENER AL PÚBLICO DE TODAS LAS EDADES. ACTIVIDADES RELACIONADAS CON LA TECNOLOGÍA PARA ACERCARLA AL PÚBLICO DE TODAS LAS EDADES (REALIDAD VIRTUAL, USO DE APPS O ROBÓTICA). TODAS ELLAS ENGLOBADAS DENTRO DEL CNAE. 9329",
      "mainEntityOfPage": "https://www.contratacion.euskadi.eus/webkpe00-kperoc/es/ac71aBusquedaRegistrosWar/empresa/10284",
      "_links": {
        "self": {
          "name": "ALARA B.I.K. SL",
          "href": "https://api.euskadi.eus/procurements/companies/10284"
        }
      }
    },
    {
      "name": "ANTONIO MARIA AGUIRRE GARATE",
      "registrationNumber": "10267",
      "identificationNumber": "72434313E",
      "address": "SAN TELMO 27, 5.",
      "location": {
        "postalCode": "20750",
        "municipality": "Zumaia",
        "county": "Gipuzkoa",
        "municipalityId": "081",
        "countyId": "20"
      },
      "economicActivities": [
        {
          "id": "1.862",
          "name": "Alquiler de bienes inmuebles de naturaleza rústica",
          "_links": {
            "self": {
              "name": "Alquiler de bienes inmuebles de naturaleza rústica",
              "href": "https://api.euskadi.eus/procurements/companies/economic-activities/1.862"
            }
          }
        },
        {
          "id": "2.861",
          "name": "Pintores, escultores, ceramistas, artesanos, artistas y similares",
          "_links": {
            "self": {
              "name": "Pintores, escultores, ceramistas, artesanos, artistas y similares",
              "href": "https://api.euskadi.eus/procurements/companies/economic-activities/2.861"
            }
          }
        }
      ],
      "certificateStartDate": "2025-12-26",
      "certificateEndDate": "2026-06-26",
      "object": "PINTORES, ESCULTORES, CERAMISTAS, ARTESANOS, ARTISTAS Y SIMILARES. ALQUILER DE BIENES INMUEBLES DE NATURALEZA RÚSTICA.",
      "mainEntityOfPage": "https://www.contratacion.euskadi.eus/webkpe00-kperoc/es/ac71aBusquedaRegistrosWar/empresa/10267",
      "_links": {
        "self": {
          "name": "ANTONIO MARIA AGUIRRE GARATE",
          "href": "https://api.euskadi.eus/procurements/companies/10267"
        }
      }
    },
    {
      "name": "FERMIN LUIS SANCHEZ ROA",
      "registrationNumber": "10494",
      "identificationNumber": "18592668C",
      "address": "CALLE SALUD DE LA I Nº 15",
      "location": {
        "postalCode": "01330",
        "municipality": "Labastida/Bastida",
        "county": "Araba/Álava",
        "municipalityId": "028",
        "countyId": "01"
      },
      "economicActivities": [
        {
          "id": "2.421",
          "name": "Arquitectos técnicos y aparejadores",
          "_links": {
            "self": {
              "name": "Arquitectos técnicos y aparejadores",
              "href": "https://api.euskadi.eus/procurements/companies/economic-activities/2.421"
            }
          }
        }
      ],
      "certificateStartDate": "2025-12-26",
      "certificateEndDate": "2026-06-24",
      "object": "ARQUITECTOS TÉCNICOS Y APAREJADORES.",
      "mainEntityOfPage": "https://www.contratacion.euskadi.eus/webkpe00-kperoc/es/ac71aBusquedaRegistrosWar/empresa/10494",
      "_links": {
        "self": {
          "name": "FERMIN LUIS SANCHEZ ROA",
          "href": "https://api.euskadi.eus/procurements/companies/10494"
        }
      }
    },
    {
      "name": "MUSIKA FAKTORIA EGINEZ, S.L.",
      "registrationNumber": "10493",
      "identificationNumber": "B75045609",
      "address": "IBAI-ONDO 6",
      "location": {
        "postalCode": "20271",
        "municipality": "Irura",
        "county": "Gipuzkoa",
        "municipalityId": "046",
        "countyId": "20"
      },
      "economicActivities": [
        {
          "id": "1.505.4",
          "name": "Colocación y aislamiento fónicos, térmicos y acústicos",
          "_links": {
            "self": {
              "name": "Colocación y aislamiento fónicos, térmicos y acústicos",
              "href": "https://api.euskadi.eus/procurements/companies/economic-activities/1.505.4"
            }
          }
        },
        {
          "id": "1.631",
          "name": "Intermediarios del comercio",
          "_links": {
            "self": {
              "name": "Intermediarios del comercio",
              "href": "https://api.euskadi.eus/procurements/companies/economic-activities/1.631"
            }
          }
        },
        {
          "id": "1.657",
          "name": "Venta al por menor de instrumentos musicales y sus accesorios",
          "_links": {
            "self": {
              "name": "Venta al por menor de instrumentos musicales y sus accesorios",
              "href": "https://api.euskadi.eus/procurements/companies/economic-activities/1.657"
            }
          }
        },
        {
          "id": "1.849.9",
          "name": "Otros servicios independientes n.c.o.p",
          "_links": {
            "self": {
              "name": "Otros servicios independientes n.c.o.p",
              "href": "https://api.euskadi.eus/procurements/companies/economic-activities/1.849.9"
            }
          }
        },
        {
          "id": "1.861.2",
          "name": "Alquiler de locales industriales y otros alquileres n.c.o.p",
          "_links": {
            "self": {
              "name": "Alquiler de locales industriales y otros alquileres n.c.o.p",
              "href": "https://api.euskadi.eus/procurements/companies/economic-activities/1.861.2"
            }
          }
        },
        {
          "id": "3.019",
          "name": "Otras actividades relacionadas con el cine, el teatro y el circo",
          "_links": {
            "self": {
              "name": "Otras actividades relacionadas con el cine, el teatro y el circo",
              "href": "https://api.euskadi.eus/procurements/companies/economic-activities/3.019"
            }
          }
        }
      ],
      "certificateStartDate": "2025-12-26",
      "certificateEndDate": "2026-06-26",
      "object": "MONTAJE Y ARRENDAMIENTO DE INSTALACIONES DE EQUIPOS DE SONIDO Y OTROS COMPLEMENTOS AUDIOVISUALES. PRESTACIÓN DE SERVICIOS DE CONTROL DE PRODUCCIONES DE SONIDO Y AUDIOVISUALES. LOGÍSTICA DE TRANSPORTE Y GESTIÓN DE EVENTOS COLECTIVOS.",
      "mainEntityOfPage": "https://www.contratacion.euskadi.eus/webkpe00-kperoc/es/ac71aBusquedaRegistrosWar/empresa/10493",
      "_links": {
        "self": {
          "name": "MUSIKA FAKTORIA EGINEZ, S.L.",
          "href": "https://api.euskadi.eus/procurements/companies/10493"
        }
      }
    },
    {
      "name": "4 BUSINESS INTERNATIONAL CONSULTING PARTNERSHIP IBERIA, S.L.",
      "registrationNumber": "10492",
      "identificationNumber": "B87409181",
      "address": "Calle Velazquez 64, 4º Izquierda",
      "location": {
        "postalCode": "28001",
        "municipality": "Madrid",
        "county": "Madrid",
        "municipalityId": "079",
        "countyId": "28"
      },
      "economicActivities": [
        {
          "id": "1.631",
          "name": "Intermediarios del comercio",
          "_links": {
            "self": {
              "name": "Intermediarios del comercio",
              "href": "https://api.euskadi.eus/procurements/companies/economic-activities/1.631"
            }
          }
        }
      ],
      "certificateStartDate": "2025-12-26",
      "certificateEndDate": "2026-06-26",
      "object": "EL DESARROLLO DE LAS ACTIVIDADES CORRESPONDIENTES A LOS SIGUIENTES CÓDIGOS Y DESCRIPCIONES DE LA CLASIFICACIÓN NACIONAL DE ACTIVIDADES ECONÓMICAS: CÓDIGO: 4619 ACTIVIDAD PRINCIPAL: INTERMEDIARIOS DEL COMERCIO DE PRODUCTOS DIVERSOS. OTRAS ACTIVIDADES: 0162 ACTIVIDADES DE APOYO A LA GANADERÍA 4618 INTERMEDIARIOS DEL COMERCIO ESPECIALIZADOS EN LA VENTA DE OTROS 6201 ACTIVIDADES DE PROGRAMACIÓN INFORMÁTICA 6202 ACTIVIDADES DE CONSULTORÍA INFORMÁTICA 6619 OTRAS ACTIVIDADES AUXILIARES A LOS SERVICIOS FINANCIEROS, EXCEPTO: 7022 OTRAS ACTIVIDADES DE CONSULTORÍA DE GESTIÓN EMPRESARIAL 7112 SERVICIOS TÉCNICOS DE INGENIERÍA Y OTRAS ACTIVIDADES RELACIONADAS 7211 INVESTIGACIÓN Y DESARROLLO EXPERIMENTAL EN BIOTECNOLOGÍA 8020 SERVICIOS DE SISTEMAS DE SEGURIDAD 8299 OTRAS ACTIVIDADES DE APOYO A LAS EMPRESAS N.C.O.P.",
      "mainEntityOfPage": "https://www.contratacion.euskadi.eus/webkpe00-kperoc/es/ac71aBusquedaRegistrosWar/empresa/10492",
      "_links": {
        "self": {
          "name": "4 BUSINESS INTERNATIONAL CONSULTING PARTNERSHIP IBERIA, S.L.",
          "href": "https://api.euskadi.eus/procurements/companies/10492"
        }
      }
    },
    {
      "name": "OCIDE IRUN, S.L.",
      "registrationNumber": "10491",
      "identificationNumber": "B75384222",
      "address": "Calle Darío de Regollos 23 2A",
      "location": {
        "postalCode": "20305",
        "municipality": "Irun",
        "county": "Gipuzkoa",
        "municipalityId": "045",
        "countyId": "20"
      },
      "economicActivities": [
        {
          "id": "1.501.2",
          "name": "Construcción completa, reparación y conservación obras civiles",
          "_links": {
            "self": {
              "name": "Construcción completa, reparación y conservación obras civiles",
              "href": "https://api.euskadi.eus/procurements/companies/economic-activities/1.501.2"
            }
          }
        }
      ],
      "certificateStartDate": "2025-12-26",
      "certificateEndDate": "2026-06-26",
      "object": "TODO TIPO DE ACTIVIDADES RELACIONADAS CON EL MOVIMIENTO DE TIERRAS, CONSTRUCCIÓN EN GENERAL Y OBRA CIVIL. CNAE ACTIVIDAD PRINCIPAL 4399.",
      "mainEntityOfPage": "https://www.contratacion.euskadi.eus/webkpe00-kperoc/es/ac71aBusquedaRegistrosWar/empresa/10491",
      "_links": {
        "self": {
          "name": "OCIDE IRUN, S.L.",
          "href": "https://api.euskadi.eus/procurements/companies/10491"
        }
      }
    },
    {
      "name": "EGUR HOUSE SYSTEM,S.L.",
      "registrationNumber": "06060",
      "identificationNumber": "B01455641",
      "address": "SOLAREN,4",
      "location": {
        "postalCode": "01138",
        "municipality": "Zigoitia",
        "county": "Araba/Álava",
        "municipalityId": "018",
        "countyId": "01"
      },
      "economicActivities": [
        {
          "id": "1.463",
          "name": "Fabricación en serie de piezas de carpintería y parquet",
          "_links": {
            "self": {
              "name": "Fabricación en serie de piezas de carpintería y parquet",
              "href": "https://api.euskadi.eus/procurements/companies/economic-activities/1.463"
            }
          }
        }
      ],
      "certificateStartDate": "2025-12-25",
      "certificateEndDate": "2026-06-25",
      "object": "LA FABRICACIÓN Y CONSTRUCCIÓN DE EDIFICACIONES Y ESTRUCTURAS DE MADERA; LOS TRATAMIENTOS DE MADERA; LA COMPRA Y VENTA, COMERCIALIZACIÓN, TRANSFORMACIÓN, IMPORTACIÓN Y EXPORTACIÓN DE TODO TIPO DE MADERAS Y ACCESORIOS PARA LA INDUSTRIA DE LA MADERA, Y LA PROMOCIÓN, CONSTRUCCIÓN Y VENTA DE TODO TIPO DE EDIFICACIONES",
      "mainEntityOfPage": "https://www.contratacion.euskadi.eus/webkpe00-kperoc/es/ac71aBusquedaRegistrosWar/empresa/06060",
      "_links": {
        "self": {
          "name": "EGUR HOUSE SYSTEM,S.L.",
          "href": "https://api.euskadi.eus/procurements/companies/06060"
        }
      }
    }
  ]
}