{
  "totalItems": 9042,
  "totalPages": 905,
  "currentPage": 253,
  "itemsOfPage": 10,
  "items": [
    {
      "name": "INAP TECNICOS DE INGENIERIA Y CONSTRUCCION, S.L.",
      "registrationNumber": "09001",
      "identificationNumber": "B95527412",
      "address": "Unbe Mendi Etxetaldea nº124",
      "location": {
        "postalCode": "48111",
        "municipality": "Laukiz",
        "county": "Bizkaia",
        "municipalityId": "053",
        "countyId": "48"
      },
      "economicActivities": [
        {
          "id": "1.843.1",
          "name": "Servicios técnicos de ingeniería",
          "_links": {
            "self": {
              "name": "Servicios técnicos de ingeniería",
              "href": "https://api.euskadi.eus/procurements/companies/economic-activities/1.843.1"
            }
          }
        },
        {
          "id": "1.843.2",
          "name": "Servicios técnicos de arquitectura y urbanismo",
          "_links": {
            "self": {
              "name": "Servicios técnicos de arquitectura y urbanismo",
              "href": "https://api.euskadi.eus/procurements/companies/economic-activities/1.843.2"
            }
          }
        }
      ],
      "certificateStartDate": "2025-09-24",
      "certificateEndDate": "2026-03-23",
      "object": "LA REALIZACIÓN POR CUENTA PROPIA O AJENA DE TODA CLASE DE ESTUDIOS Y PROYECTOS, CONSTRUCCIONES, INSTALACIONES, REFORMAS, REHABILITACIONES Y DECORACIONES. LA ORGANIZACIÓN, DIRECCIÓN, SUPERVISIÓN Y CONTROL DE OBRAS, ASÍ COMO LA COORDINACIÓN Y SUBCONTRATACIÓN DE GREMIOS, EL ASESORAMIENTO Y LA ASISTENCIA TÉCNICA EN TODO CUANTO SE RELACIONE, DIRECTA O INDIRECTAMENTE CON EL CAMPO DE LA CONSTRUCCIÓN Y REHABILITACIÓN DE EDIFICIOS Y DE LAS OBRAS PÚBLICAS O CIVILES. DISEÑO Y CÁLCULOS DE INSTALACIONES EN LOS EDIFICIOS PÚBLICOS O CIVILES. DISEÑO Y CÁLCULOS DE ESTRUCTURAS RESISTENTES EN LOS EDIFICIOS PÚBLICOS O CIVILES. LA REALIZACIÓN DE ESTUDIOS, PROYECTOS Y PRESTACIÓN DE SERVICIOS ENERGÉTICOS. LA INGENIERÍA, PROMOCIÓN, INSTALACIÓN, CONSTRUCCIÓN, OPERACIÓN Y MANTENIMIENTO DE TODA CLASE DE INSTALACIONES DE PRODUCCIÓN DE ENERGÍA, DE DISTRIBUCIÓN DE FLUIDOS EN GENERAL, CLIMATIZACIÓN, SISTEMAS DE DETECCIÓN Y PROTECCIÓN DE INCENDIOS, ASÍ COMO OTROS SUMINISTROS Y SERVICIOS RELACIONADOS CON LOS MISMOS, TANTO EN EL SECTOR INDUSTRIAL, PRIMARIO Y TERCIARIO. EL DISEÑO, FABRICACIÓN, INTERMEDIACIÓN Y COMERCIALIZACIÓN DE PRODUCTOS RELACIONADOS CON EL SECTOR DE LA ENERGÍA. LA CESIÓN, ARRENDAMIENTO Y POR CUALQUIER OTRO TÍTULO, TRANSMISIÓN DE TODA CLASE PATENTES Y MARCAS. LA ADQUISICIÓN, CESIÓN, TENENCIA, DISFRUTE, ADMINISTRACIÓN, GESTIÓN Y NEGOCIACIÓN EN GENERAL DE VALORES MOBILIARIOS (COTIZADOS EN BOLSA O NO) Y PARTICIPACIONES SOCIALES. LA CONSTRUCCIÓN COMPLETA, REFORMA, REPARACIÓN Y CONSERVACIÓN DE TODO TIPO DE INMUEBLES. LA ADMINISTRACIÓN, PROMOCIÓN, COMPRA, VENTA, ARRENDAMIENTO Y EXPLOTACIÓN EN CUALQUIER FORMA DE TODA CLASE DE EDIFICACIONES, SOLARES E INMUEBLES EN GENERAL, TANTO POR CUENTA PROPIA COMO AJENA. LA CONSTITUCIÓN CON LA CONCURRENCIA DE OTRAS PERSONAS DE TODA CLASE DE SOCIEDADES MERCANTILES, LA PARTICIPACIÓN EN OTRAS CONSTITUIDAS, PUDIENDO OSTENTAR EN TODAS ELLAS CARGOS DE ADMINISTRACIÓN, DIRECCIÓN O CONTROL MEDIANTE LA OPORTUNA DELEGACIÓN EN PERSONA FÍSICA.",
      "mainEntityOfPage": "https://www.contratacion.euskadi.eus/webkpe00-kperoc/es/ac71aBusquedaRegistrosWar/empresa/09001",
      "_links": {
        "self": {
          "name": "INAP TECNICOS DE INGENIERIA Y CONSTRUCCION, S.L.",
          "href": "https://api.euskadi.eus/procurements/companies/09001"
        }
      }
    },
    {
      "name": "IMESAPI, S.A.",
      "registrationNumber": "04375",
      "identificationNumber": "A28010478",
      "address": "AVD. RAMON Y CAJAL, 107",
      "location": {
        "postalCode": "28043",
        "municipality": "Madrid",
        "county": "Madrid",
        "municipalityId": "079",
        "countyId": "28"
      },
      "economicActivities": [
        {
          "id": "1.150.7",
          "name": "CONSTRUCCION DE TODA CLASE DE OBRAS",
          "_links": {
            "self": {
              "name": "CONSTRUCCION DE TODA CLASE DE OBRAS",
              "href": "https://api.euskadi.eus/procurements/companies/economic-activities/1.150.7"
            }
          }
        }
      ],
      "certificateStartDate": "2025-09-24",
      "certificateEndDate": "2026-03-16",
      "object": "1.- LA REALIZACIÓN DE ACTIVIDADES PARA SÍ O PARA TERCEROS, TANTO SEAN PARTICULARES, SOCIEDADES, ESTADO, COMUNIDADES AUTÓNOMAS, PROVINCIAS, MUNICIPIOS, COMO CUALQUIER OTRA ENTIDAD PÚBLICA O PRIVADA, DE CONSTRUCCIÓN, EDIFICACIÓN, EJECUCIÓN, REPARACIÓN, CONSERVACIÓN Y MANTENIMIENTO DE TODA CLASE DE : OBRAS, INSTALACIONES ELÉCTRICAS; HIDRÁULICAS; DE GAS; DE DEPURACIÓN; DE TRATAMIENTO DE AGUAS; DE SANEAMIENTO; DE SEGURIDAD; DE DETECCIÓN, CONTROL Y EXTINCIÓN DE INCENCIOS, DE COGENERACIÓN; DE CONTROL DE TRÁFICO Y REDES SEMAFÓRICAS; DE FRÍO, CALOR Y ACONDICIONAMIENTO DE AIRE, DE FUENTES ARTÍSTICAS Y ORNAMENTALES; DE DETECCIÓN CONTROL Y EJECUCIÓN DE PARÁMETROS Y CONTAMINACIONES MEDIAMBIENTALES; DE TELECOMUNICACIÓN, MEGAFONÍA Y TELEFONÍA; DE SISTEMAS INFORMÁTICOS; Y DE JARDINERÍA. 2.- LA LIMPIEZA, RECOGIDA Y TRATAMIENTO DE RESIDUOS SÓLIDOS Y URBANOS; ASÍ COMO LA EXPLOTACIÓN, CONTRATACIÓN, MANTENIMIENTO Y SUMINISTRO DE TODA CLASE DE SERVICIOS PÚBLICOS. 3.- EL ESTUDIO, PROMOCIÓN, GESTIÓN, ADQUISICIÓN, VENTA, DISPOSICIÓN Y EXPLOTACIÓN EN CUALQUIER FORMA DE, SOLARES, TERRENOS, CONJUNTOS RESIDENCIALES, URBANIZACIONES O PROMOCIONES INMOBILIARIAS Y, EN GENERAL, DE TODA CLASE DE BIENES INMUEBLES. 4.- LA ADQUISICIÓN, VENTA, EXPLOTACIÓN Y, EN GENERAL, DISPOSICIÓN DE MAQUINARIA, HERRAMIENTAS, VEHÍCULOS O EN GENERAL BIENES MUEBLES EN CUALQUIERA DE LAS FORMAS LEGALMENTE ADMITIDAS; ASÍ COMO DE PINTURAS, BARNICES, REVESTIMIENTOS Y, EN GENERAL, MATERIALES DE CONSTRUCCIÓN. 5.- LA PRESTACIÓN DE SERVICIOS, ASISTENCIA, ASESORAMIENTO Y GESTIÓN, EN MATERIA ECONÓMICA, FINANCIERA, COMERCIAL Y DE GESTIÓN EMPRESARIAL. 6.- LA REPRESENTACIÓN, DISTRIBUCIÓN Y VENTA DE ARTÍCULOS DE CUALESQUIERA COMPAÑÍAS E INDUSTRIAS, TANTO NACIONALES COMO EXTRANJERAS, ASÍ COMO LA IMPORTACIÓN Y EXPORTACIÓN DE TODA CLASE DE BIENES Y ARTÍCULOS. 7.- ADQUIRIR, NEGOCIAR Y POSEER, ACCIONES, PARTICIPACIONES, OBLIGACIONES, BONOS, PAGARÉS, LETRAS Y CUALESQUIERA OTROS VALORES PÚBLICOS Y PRIVADOS Y, EN GENERAL, ACTIVOS FINANCIEROS POR CUENTA PROPIA SIN NINGUNA DE LAS CARACTERÍSTICAS PROPIAS DE LAS ACTIVIDADES RESERVADAS A LAS SOCIEDADES DE INVERSIÓN COLECTIVA Y DEJANDO A SALVO LA NORMATIVA REGULADORA DEL MERCADO DE VALORES. 8.- LECTURA DE CONSTADORES Y MEDIDAS DE CONSUMO. 9.- SERVICIOS DE PORTERÍA, CONTROL DE ACCESOS, TANTO DE PERSONAS COMO DE VEHÍCULOS, ASÍ COMO LOS SERVICIOS DE INFORMACIÓN EN LOCALES Y EDIFICIOS PÚBLICOS. 10.- LA REALIZACIÓN DE OBRAS Y SUMINISTROS Y LA PRESTACIÓN DE SERVICIOS, INCLUÍDOS LOS DE VIGILANCIA Y CONTROL, TENDENTES A LA PREVENCIÓN Y APOYO A LA EXTINCIÓN DE INCENDIOS FORESTALES. 11.-INSPECCIÓN SANITARIA DE INSTALACIONES. 12.- MANTENIMIENTO Y REPARACIÓN DE EQUIPOS A INSTALACIONES ELECTROMEDICINA Y DE APARATOS ELEVADORES Y DE TRASLACIÓN HORIZONTAL. 13.- LA PREPARACIÓN, CONSERVACIÓN Y MANTENIMIENTO DE EDIFICIOS Y MONUMENTOS, INCLUÍDOS LOS SINGULARES, Y DE CUALQUIER TIPO DE CONSTRUCCIONES E INSTALACIONES, ASI COMO LA APLICACIÓN DE PINTURAS CON MATERIALES PROPIOS O AJENOS, BARNICES, REVESTIMIENTOS DE TODA CLASE DE OBRAS E INSTALACIONES, TANTO PRIVADAS COMO PUBLICAS. 14.- LA REALIZACIÓN DE OBRAS Y SUMINISTROS, ASÍ COMO LA INSTALACIÓN, CONSERVACIÓN Y MANTENIMIENTO DE MARQUESINAS, BANCOS, MESAS, PAPELERAS, BOLARDOS Y CUALQUIER TIPO DE ELEMENTO O CONSTRUCCIÓN QUE TENGA CARÁCTER DE MOBILIARIO URBANO. 15.- LA REALIZACIÓN DE OBRAS Y SUMINISTROS, ASÍ COMO LA PRESTACIÓN DE SERVICIOS, EN ORDEN A LA CONSTRUCCIÓN, MANTENIMIENTO Y EXPLOTACIÓN, EN CUALQUIERA DE LAS FORMAS PREVISTAS POR LA LEY, DE AUTOPISTAS, AUTOVÍAS, CARRETERAS O CUALQUIER OTRA OBRA PÚBLICA O PRIVADA, ASÍ COMO LA PRESTACIÓN DE LOS SERVICIOS PARA LA ADOPCIÓN DE MEDIDAS ESPECIALES DE CIRCULACIÓN EN AUTOPISTAS, AUTOVÍAS Y CARRETERAS. 16.- LA GESTIÓN DE CENTROS Y/O SERVICIOS, TANTO PÚBLICOS COMO PRIVADOS, DE ATENCIÓN A ENFERMOS, PERSONAS DE TERCERA EDAD, O DISCAPACITADOS FÍSICOS O PSIQUICOS; ASÍ COMO LA ATENCIÓN O ASISTENCIA DOMICILIARIA INTEGRAL DE ENFERMOS, ANCIANOS, NIÑOS, DISCAPACITADOS FÍSICOS O PSIQUICOS. 17.- LA ELABORACIÓN DE ESTUDIOS, INFORMES Y PROYECTOS, LA REALIZACÍÓN DE OBRAS Y SUMINISTROS Y LA PRESTACIÓN DE SERVICIOS PPARA LA RESTAURACIÓN, CONSERVACIÓN Y MANTENIMIENTO DE MONTES, ÁREAS VERDES, INCLUÍDAS LAS FORESTALES, PARQUES Y JARDINES, ASÍ COMO LA RESTAURACIÓN, MANTENIMIENTO Y CONSERVACIÓN HIDROLÓGICA, LA DE ÁREAS DEGRADADAS Y CUALQUIER OTRA ACTIVIDAD RELACIONADA CON LA RESTAURACIÓN, PROTECCIÓN, CONSERVACIÓN Y MEJORA DEL MEDIO RURAL, INCLUÍDOS LOS TRABAJOS DE PODA, REPOSICIÓN, DESBROCE, RIEGO, ABONADO, TRATAMIENTO FITOSANITARIOS Y DEMÁS TRABAJOS AGRÍCOLAS Y FORESTALES. 18.- LA DIRECCIÓN Y EJECUCIÓN DE TODA CLASE DE OBRAS, INSTALACIONES, MONTAJES Y MANTENIMIENTOS RELACIONADOS CON LA ELECTRÓNICA DE SISTEMAS Y REDES DE COMUNICACIONES TELEFÓNICAS, TELEGRÁFICAS, SEÑALIZACIÓN, S.O.S., PROTECCIÓN CIVIL, DEFENSA Y TRÁFICO Y TRANSMISIÓN Y UTILIZACIÓN DE VOZ Y DATOS, MEDIDAS Y SEÑALES, ASÍ COMO DE PROPAGACIÓN, EMISIÓN, REPETICIÓN Y RECEPCIÓN DE ONDAS DE CUALESQUIERA CLASES, DE ANTENAS, REPETIDORES, RADIO-ENLACE, AYUDA A LA NAVEGACIÓN, EQUIPOS Y ELEMENTOS NECESARIOS PARA LA EJECUCIÓN DE TALES OBRAS, MONTAJES E INSTALACIONES. 19.- LA GESTIÓN, EXPLOTACIÓN, ADMINISTRACIÓN, MANTENIMIENTO, CONSERVACIÓN, REHABILITACIÓN Y ACONDICIONAMIENTO DE TODO TIPO DE CONCESIONES EN SU MÁS AMPLIO SENTIDO, TANTO DE AQUELLAS EN LAS QUE FORME PARTE DEL ACCIONARIADO DE LA SOCIEDAD CONCESIONARIO, COMO DE AQUELLAS CON LOS QUE MANTENGA ALGÚN TIPO DE RELACIÓN CONTRACTUAL PARA DESARROLLAR ALGUNA DE LAS ACTIVIDADES ANTES RELACIONADAS.",
      "mainEntityOfPage": "https://www.contratacion.euskadi.eus/webkpe00-kperoc/es/ac71aBusquedaRegistrosWar/empresa/04375",
      "_links": {
        "self": {
          "name": "IMESAPI, S.A.",
          "href": "https://api.euskadi.eus/procurements/companies/04375"
        }
      }
    },
    {
      "name": "ARKAITZ BARRIOLA AZALDEGUI",
      "registrationNumber": "10344",
      "identificationNumber": "44165701C",
      "address": "Herriondo Etxadia 7 1.ezk",
      "location": {
        "postalCode": "20180",
        "municipality": "Oiartzun",
        "county": "Gipuzkoa",
        "municipalityId": "063",
        "countyId": "20"
      },
      "economicActivities": [
        {
          "id": "2.751",
          "name": "Profesionales de la publicidad, relaciones públicas y similares",
          "_links": {
            "self": {
              "name": "Profesionales de la publicidad, relaciones públicas y similares",
              "href": "https://api.euskadi.eus/procurements/companies/economic-activities/2.751"
            }
          }
        }
      ],
      "certificateStartDate": "2025-09-24",
      "certificateEndDate": "2026-03-19",
      "object": "PROFESIONALES DE LA PUBLICIDAD, RELACIONES PÚBLICAS Y SIMILARES.",
      "mainEntityOfPage": "https://www.contratacion.euskadi.eus/webkpe00-kperoc/es/ac71aBusquedaRegistrosWar/empresa/10344",
      "_links": {
        "self": {
          "name": "ARKAITZ BARRIOLA AZALDEGUI",
          "href": "https://api.euskadi.eus/procurements/companies/10344"
        }
      }
    },
    {
      "name": "POKECODE, S.L.",
      "registrationNumber": "09868",
      "identificationNumber": "B10673663",
      "address": "Carrer Davallada 1, ESC B, 1.1",
      "location": {
        "postalCode": "17142",
        "municipality": "Verges",
        "county": "Girona",
        "municipalityId": "211",
        "countyId": "17"
      },
      "economicActivities": [
        {
          "id": "1.843.1",
          "name": "Servicios técnicos de ingeniería",
          "_links": {
            "self": {
              "name": "Servicios técnicos de ingeniería",
              "href": "https://api.euskadi.eus/procurements/companies/economic-activities/1.843.1"
            }
          }
        }
      ],
      "certificateStartDate": "2025-09-24",
      "certificateEndDate": "2026-03-24",
      "object": "LAS ACTIVIDADES DE CONSULTORÍA INFORMÁTICA (CNAE ACTIVIDAD PRINCIPAL: 6202).",
      "mainEntityOfPage": "https://www.contratacion.euskadi.eus/webkpe00-kperoc/es/ac71aBusquedaRegistrosWar/empresa/09868",
      "_links": {
        "self": {
          "name": "POKECODE, S.L.",
          "href": "https://api.euskadi.eus/procurements/companies/09868"
        }
      }
    },
    {
      "name": "ARRETAZ, S.L.",
      "registrationNumber": "04994",
      "identificationNumber": "B95293676",
      "address": "C/ JOSÉ MIGUEL BARANDIARAN, 7 P DPTO. 1, 2 Y 3",
      "location": {
        "postalCode": "48980",
        "municipality": "Santurtzi",
        "county": "Bizkaia",
        "municipalityId": "082",
        "countyId": "48"
      },
      "economicActivities": [
        {
          "id": "1.653.2",
          "name": "Venta al por menor de material y aparatos eléctricos, electrodomésticos y cocina",
          "_links": {
            "self": {
              "name": "Venta al por menor de material y aparatos eléctricos, electrodomésticos y cocina",
              "href": "https://api.euskadi.eus/procurements/companies/economic-activities/1.653.2"
            }
          }
        },
        {
          "id": "1.699",
          "name": "Otras reparaciones n.c.o.p",
          "_links": {
            "self": {
              "name": "Otras reparaciones n.c.o.p",
              "href": "https://api.euskadi.eus/procurements/companies/economic-activities/1.699"
            }
          }
        },
        {
          "id": "1.845",
          "name": "Explotación electrónica por cuenta de terceros",
          "_links": {
            "self": {
              "name": "Explotación electrónica por cuenta de terceros",
              "href": "https://api.euskadi.eus/procurements/companies/economic-activities/1.845"
            }
          }
        }
      ],
      "certificateStartDate": "2025-09-24",
      "certificateEndDate": "2026-03-24",
      "object": "SOLUCIONES DE SOFTWARE Y HARDWARE, MONTAJE DE REDES, SOFTWARE EN GENERAL. OUTSOURCING. FORMACIÓN EN SOFTWARE Y HARDWARE. COMERCIO AL POR MENOR Y AL POR MAYOR DE MATERIAL Y APARATOS ELÉCTRICOS, ELECTRÓNICOS, INFORMÁTICOS Y OTROS APARATOS ACCIONADOS POR TODO TIPO DE ENERGÍA, INCLUÍDOS LOS DE TELEFONÍA FIJA, MÓVIL, ETC.. ALQUILER, REPARACIÓN, MANTENIMIENTO DE EQUIPOS, MATERIAL Y APARATOS ELÉCTRICOS, ELECTRÓNICOS, INFORMÁTICOS. COMPRAVENTA DE TERRENOS, INMUEBLES Y PARTES DE INMUEBLES EN NOMBRA Y POR CUENTA PROPIA, ASÍ COMO LAS UNIDADES QUE ORDENAN LA CONSTRUCCIÓN, PARCELACIÓN, URBANIZACIÓN, ETC.. PROMOCIÓN INMOBILIARIA DE TERRENOS Y/O EDIFICACIONES. ALQUILER DE BIENES INOMUEBLES DE NATURALEZA URBANA, RÚSTICA, ETC...",
      "mainEntityOfPage": "https://www.contratacion.euskadi.eus/webkpe00-kperoc/es/ac71aBusquedaRegistrosWar/empresa/04994",
      "_links": {
        "self": {
          "name": "ARRETAZ, S.L.",
          "href": "https://api.euskadi.eus/procurements/companies/04994"
        }
      }
    },
    {
      "name": "ANTEPEYA 2002, S.L.",
      "registrationNumber": "08519",
      "identificationNumber": "B95211769",
      "address": "Ander Deuna, 33",
      "location": {
        "postalCode": "48960",
        "municipality": "Galdakao",
        "county": "Bizkaia",
        "municipalityId": "036",
        "countyId": "48"
      },
      "economicActivities": [
        {
          "id": "1.951",
          "name": "Asistencia y servicios sociales en centros residenciales",
          "_links": {
            "self": {
              "name": "Asistencia y servicios sociales en centros residenciales",
              "href": "https://api.euskadi.eus/procurements/companies/economic-activities/1.951"
            }
          }
        }
      ],
      "certificateStartDate": "2025-09-24",
      "certificateEndDate": "2026-03-24",
      "object": "1.- LA ASISTENCIA Y SERVICIOS SOCIALES PARA ANCIANOS EN CENTROS RESIDENCIALES 2.-ADQUIRIR, ENAJENAR Y ARRENDAR BIENES INMUEBLES (CONCRETAMENTE LOS DETERMINADOS EN EL ARTÍCULO 334.1 DEL CÓDIGO CIVIL), ACCIONES PARTICIPACIONES SOCIALES, OBLIGACIONES, BONOS DE CAJA, CERTIFICADOS DE DEPÓSITO Y PAGARÉS DE TODA CLASE DE EMPRESAS O NEGOCIOS. LAS ACTIVIDADES ENUMERADAS PODRÁN SER DESARROLLADAS POR LA SOCIEDAD, TOTAL O PARCIALMENTE, DE MODO INDIRECTO, O MEDIANTE LA PARTICIPACIÓN DE OTRAS SOCIEDADES CON OBJETO ANÁLOGO. QUEDA EXCLUIDO DEL OBJETO SOCIAL LA INTERMEDIACIÓN EN OPERACIONES SOBE TÍTULOS VALORES, LOS ARRENDAMIENTOS FINANCIEROS Y AQUELLOS NEGOCIOS ATRIBUIDOS A ENTIDADES SUJETAS A REGULACIÓN ESPECIAL, O QUE ESTÉN REGIDAS POR LAS LEYES SOBRE MERCADO DE VALORES Y DE SOCIEDADES DE INVERSIÓN COLECTIVA.",
      "mainEntityOfPage": "https://www.contratacion.euskadi.eus/webkpe00-kperoc/es/ac71aBusquedaRegistrosWar/empresa/08519",
      "_links": {
        "self": {
          "name": "ANTEPEYA 2002, S.L.",
          "href": "https://api.euskadi.eus/procurements/companies/08519"
        }
      }
    },
    {
      "name": "MC VALNERA, S.L.",
      "registrationNumber": "08757",
      "identificationNumber": "B39712864",
      "address": "Avenida Reina Victoria nº12 -bajo-",
      "location": {
        "postalCode": "39004",
        "municipality": "Santander",
        "county": "Cantabria",
        "municipalityId": "075",
        "countyId": "39"
      },
      "economicActivities": [
        {
          "id": "1.843.1",
          "name": "Servicios técnicos de ingeniería",
          "_links": {
            "self": {
              "name": "Servicios técnicos de ingeniería",
              "href": "https://api.euskadi.eus/procurements/companies/economic-activities/1.843.1"
            }
          }
        }
      ],
      "certificateStartDate": "2025-09-24",
      "certificateEndDate": "2026-03-24",
      "object": "1.- SERVICIOS DE CONSULTORÍA ESTRATÉGICA, OPERACIONES Y FORMACIÓN Y ASESORAMIENTO A EMPRESAS, ADMINISTRACIONES PÚBLICAS Y PERSONAS FÍSICAS. 2.- LA ELABORACIÓN Y REDACCIÓN DE TODO TIPO DE ESTUDIOS E INFORMES RELATIVOS A OBRAS, PÚBLICAS Y PRIVADAS, Y MATERIAS RELACIONADAS CON LA INGENIERÍA CIVIL, LA CONSTRUCCIÓN, EL URBANISMO Y EL MEDIO AMBIENTE.- 3.- REALIZACIÓN, REDACCIÓN Y SUPERVISIÓN DE PROYECTOS Y LA DIRECCIÓN DE OBRAS EN LOS CAMPOS DE INGENIERÍA CIVIL, LA INDUSTRIA Y LA ENERGÍA.- 3.- EL ASESORAMIENTO, DE CUALQUIER TIPO, RELACIONADA CON LOS PUERTOS Y LAS ACTIVIDADES PORTUARIAS INCLUYENDO MATERIAS COMO LA GESTIÓN DE DICHOS PUERTOS, SUS CONCESIONES Y CUALQUIER TIPO DE CONTRATOS DE SERVICIOS U OBRAS.",
      "mainEntityOfPage": "https://www.contratacion.euskadi.eus/webkpe00-kperoc/es/ac71aBusquedaRegistrosWar/empresa/08757",
      "_links": {
        "self": {
          "name": "MC VALNERA, S.L.",
          "href": "https://api.euskadi.eus/procurements/companies/08757"
        }
      }
    },
    {
      "name": "KIROL MANAGEMENT, S.L.",
      "registrationNumber": "02412",
      "identificationNumber": "B20492070",
      "address": "TRANBIA IBILBIDEA, 5- APTDO. CORREOS 73",
      "location": {
        "postalCode": "20115",
        "municipality": "Astigarraga",
        "county": "Gipuzkoa",
        "municipalityId": "903",
        "countyId": "20"
      },
      "economicActivities": [
        {
          "id": "1.844",
          "name": "Servicios de publicidad, relaciones públicas y similares",
          "_links": {
            "self": {
              "name": "Servicios de publicidad, relaciones públicas y similares",
              "href": "https://api.euskadi.eus/procurements/companies/economic-activities/1.844"
            }
          }
        },
        {
          "id": "1.849.7",
          "name": "Servicios de gestión administrativa",
          "_links": {
            "self": {
              "name": "Servicios de gestión administrativa",
              "href": "https://api.euskadi.eus/procurements/companies/economic-activities/1.849.7"
            }
          }
        },
        {
          "id": "1.849.9",
          "name": "Otros servicios independientes n.c.o.p",
          "_links": {
            "self": {
              "name": "Otros servicios independientes n.c.o.p",
              "href": "https://api.euskadi.eus/procurements/companies/economic-activities/1.849.9"
            }
          }
        }
      ],
      "certificateStartDate": "2025-09-24",
      "certificateEndDate": "2026-03-24",
      "object": "LOS SERVICIOS PROFESIONALES DE FORMACIÓN, ADMINISTRACIÓN, CATALOGACIÓN, DOCUMENTACIÓN, CONSULTORÍA, ORGANIZACIÓN, DIRECCIÓN, REESTRUCTURACIÓN, GESTIÓN DE ENTIDADES PÚBLICAS O PRIVADAS, ASESORAMIENTO JURÍDICO, CONTABLE, FISCAL, INFORMÁTICO Y CUALQUIERA DE FORMACIÓN TÉCNICA Y PROFESIONAL; ASÍ COMO OTRO TIPO DE SERVICIOS RELACIONADOS CON LAS ACTIVIDADES DEL DEPORTE Y DERIVADOS DE ÉSTE. ASIMISMO, SE DESARROLLARÁN SERVICIOS DE: A) GESTIÓN, ADMINISTRACIÓN, ASESORAMIENTO Y CONSULTORÍA DE ENTIDADES PÚBLICAS O PRIVADAS VINCULADAS CON EL DEPORTE, EN LAS ÁREAS ECONÓMICO-FINANCIERA, DE CATALOGACIÓN Y DOCUMENTACIÓN,  DE GESTIÓN DE PRODUCCIÓN, DE DISEÑO, ORGANIZACIÓN Y EJECUCIÓN DE PROGRAMAS Y PROYECTOS DE ÍNDOLE DEPORTIVA, FORMATIVA, PUBLICITARIA, INFORMÁTICA, FISCAL, JURÍDICA, CONTABLE Y LABORAL; ASÍ COMO LA ELABORACIÓN, IMPLANTACIÓN Y MANTENIMIENTO DE REDES O SISTEMAS ORGANIZATIVOS, TANTO DE CORTE MANUAL COMO INFORMATIZADOS, Y EN ESTE ÚLTIMO CASO LAS ACTUACIONES DE MANTENIMIENTO E INTERMEDIACIÓN O COMERCIALIZACIÓN DE PRODUCTOS INFORMÁTICOS, TANTO DE LA VERTIENTE FÍSICA (HARDWARE) COMO INTELECTUAL (SOFTWARE).  B) GESTIÓN, ASESORAMIENTO Y COLABORACIÓN EN LAS ENTIDADES PÚBLICAS O PRIVADAS VINCULADAS CON EL DEPORTE, DESARROLLANDO LAS TAREAS QUE SEAN REQUERIDAS DENTRO DEL CAMPO DE ACTUACIÓN DE LA GESTIÓN, DIRECCIÓN, PUBLICIDAD, INFORMÁTICA, ORGANIZACIÓN, FORMACIÓN Y ADMINISTRACIÓN. C) GESTIÓN, ASESORAMIENTO Y COLABORACIÓN EN LAS ENTIDADES PÚBLICAS O PRIVADAS VINCULADAS CON EL DEPORTE, EN LA PROMOCIÓN Y PRESTACIÓN DE SERVICIOS DE CURSOS DE FORMACIÓN TEÓRICO-PRÁCTICO Y DE RECICLAJE, SIEMPRE ORIENTADOS A ASPECTOS DEPORTIVOS Y CONECTADOS CON LAS ÁREAS ANTERIORMENTE CITADAS\r\n\r\n\r\n",
      "mainEntityOfPage": "https://www.contratacion.euskadi.eus/webkpe00-kperoc/es/ac71aBusquedaRegistrosWar/empresa/02412",
      "_links": {
        "self": {
          "name": "KIROL MANAGEMENT, S.L.",
          "href": "https://api.euskadi.eus/procurements/companies/02412"
        }
      }
    },
    {
      "name": "INDUSTRIAS ELECTRICAS HERGOROS, S.L.",
      "registrationNumber": "09575",
      "identificationNumber": "B95622817",
      "address": "POLIGONO INDUSTRIAL EL CAMPILLO, PAB. A23  GALLARTA VIZCAYA",
      "location": {
        "postalCode": "48500",
        "municipality": "Abanto y Ciérvana-Abanto Zierbena",
        "county": "Bizkaia",
        "municipalityId": "002",
        "countyId": "48"
      },
      "economicActivities": [
        {
          "id": "1.342",
          "name": "Fabricación de material eléctrico de utilización y equipamiento",
          "_links": {
            "self": {
              "name": "Fabricación de material eléctrico de utilización y equipamiento",
              "href": "https://api.euskadi.eus/procurements/companies/economic-activities/1.342"
            }
          }
        },
        {
          "id": "1.692",
          "name": "Reparación de maquinaria industrial",
          "_links": {
            "self": {
              "name": "Reparación de maquinaria industrial",
              "href": "https://api.euskadi.eus/procurements/companies/economic-activities/1.692"
            }
          }
        }
      ],
      "certificateStartDate": "2025-09-24",
      "certificateEndDate": "2026-03-24",
      "object": "LA ACTIVIDAD DE REPARACIÓN Y FABRICACIÓN DE MATERIAL ELÉCTRICO DE UTILIZACIÓN Y EQUIPAMIENTO; DE MÁQUINAS Y APARATOS PARA LA PRODUCCIÓN Y TRANSFORMACIÓN DE LA ENERGÍA ELÉCTRICA; DE ACUMULADORES ELÉCTRICOS; DE COMPONENTES ELECTRÓNICOS Y CIRCUITOS INTEGRADOS; DE APARATOS Y EQUIPOS DE TELECOMUNICACIÓN; DE APARATOS Y EQUIPOS ELECTRÓNICOS DE SEÑALIZACIÓN, CONTROL Y PROGRAMACIÓN; DE MAQUINARIA, EN GENERAL. INSTALACIONES Y MONTAJES ELÉCTRICOS EN GENERAL, ASÍ COMO LA COMERCIALIZACIÓN DE MATERIAL Y MAQUINARIA ELÉCTRICA.",
      "mainEntityOfPage": "https://www.contratacion.euskadi.eus/webkpe00-kperoc/es/ac71aBusquedaRegistrosWar/empresa/09575",
      "_links": {
        "self": {
          "name": "INDUSTRIAS ELECTRICAS HERGOROS, S.L.",
          "href": "https://api.euskadi.eus/procurements/companies/09575"
        }
      }
    },
    {
      "name": "KIRIKETAN, S.L.",
      "registrationNumber": "02372",
      "identificationNumber": "B20636239",
      "address": "EUSTASIO AMILIBIA, 4- LOCAL 37",
      "location": {
        "postalCode": "20011",
        "municipality": "Donostia / San Sebastián",
        "county": "Gipuzkoa",
        "municipalityId": "069",
        "countyId": "20"
      },
      "economicActivities": [
        {
          "id": "1.934",
          "name": "Enseñanza fuera de establecimiento permanente",
          "_links": {
            "self": {
              "name": "Enseñanza fuera de establecimiento permanente",
              "href": "https://api.euskadi.eus/procurements/companies/economic-activities/1.934"
            }
          }
        }
      ],
      "certificateStartDate": "2025-09-24",
      "certificateEndDate": "2026-03-24",
      "object": "LEKU IRAUNKORRAZ APARTEKO IRAKASKUNTZA",
      "mainEntityOfPage": "https://www.contratacion.euskadi.eus/webkpe00-kperoc/es/ac71aBusquedaRegistrosWar/empresa/02372",
      "_links": {
        "self": {
          "name": "KIRIKETAN, S.L.",
          "href": "https://api.euskadi.eus/procurements/companies/02372"
        }
      }
    }
  ]
}