{
  "totalItems": 9042,
  "totalPages": 905,
  "currentPage": 607,
  "itemsOfPage": 10,
  "items": [
    {
      "name": "AITOR LERCHUNDI OSA",
      "registrationNumber": "06120",
      "identificationNumber": "72468167C",
      "address": "SALEGI N 1 2B",
      "location": {
        "postalCode": "20800",
        "municipality": "Zarautz",
        "county": "Gipuzkoa",
        "municipalityId": "079",
        "countyId": "20"
      },
      "economicActivities": [
        {
          "id": "2.451",
          "name": "Ingenieros en geodesia y cartografía",
          "_links": {
            "self": {
              "name": "Ingenieros en geodesia y cartografía",
              "href": "https://api.euskadi.eus/procurements/companies/economic-activities/2.451"
            }
          }
        }
      ],
      "certificateStartDate": "2019-06-23",
      "certificateEndDate": "2019-12-23",
      "object": "INGENIEROS EN GEODESIA Y CARTOGRAFIA",
      "mainEntityOfPage": "https://www.contratacion.euskadi.eus/webkpe00-kperoc/es/ac71aBusquedaRegistrosWar/empresa/06120",
      "_links": {
        "self": {
          "name": "AITOR LERCHUNDI OSA",
          "href": "https://api.euskadi.eus/procurements/companies/06120"
        }
      }
    },
    {
      "name": "SOMAGA, S.A.",
      "registrationNumber": "02058",
      "identificationNumber": "A01040179",
      "address": "POLÍGONO INDUSTRIAL SAN JOSÉ DE LOS LLANOS, S/N.",
      "location": {
        "postalCode": "01230",
        "municipality": "Iruña Oka/Iruña de Oca",
        "county": "Araba/Álava",
        "municipalityId": "901",
        "countyId": "01"
      },
      "economicActivities": [
        {
          "id": "1.501.2",
          "name": "Construcción completa, reparación y conservación obras civiles",
          "_links": {
            "self": {
              "name": "Construcción completa, reparación y conservación obras civiles",
              "href": "https://api.euskadi.eus/procurements/companies/economic-activities/1.501.2"
            }
          }
        },
        {
          "id": "1.502.1",
          "name": "Demoliciones y derribos en general",
          "_links": {
            "self": {
              "name": "Demoliciones y derribos en general",
              "href": "https://api.euskadi.eus/procurements/companies/economic-activities/1.502.1"
            }
          }
        },
        {
          "id": "1.691.2",
          "name": "Reparación de vehículos automóviles, bicicletas y otros vehículos",
          "_links": {
            "self": {
              "name": "Reparación de vehículos automóviles, bicicletas y otros vehículos",
              "href": "https://api.euskadi.eus/procurements/companies/economic-activities/1.691.2"
            }
          }
        },
        {
          "id": "1.722",
          "name": "Transporte de mercancías por carretera",
          "_links": {
            "self": {
              "name": "Transporte de mercancías por carretera",
              "href": "https://api.euskadi.eus/procurements/companies/economic-activities/1.722"
            }
          }
        }
      ],
      "certificateStartDate": "2019-06-20",
      "certificateEndDate": "2019-12-11",
      "object": "LAS EXCAVACIONES, MOVIMIENTOS DE TIERRAS, OBRAS PÚBLICAS Y REPARACIÓN DE LA MAQUINARIA NECESARIA PARA ESTAS ACTIVIDADES",
      "mainEntityOfPage": "https://www.contratacion.euskadi.eus/webkpe00-kperoc/es/ac71aBusquedaRegistrosWar/empresa/02058",
      "_links": {
        "self": {
          "name": "SOMAGA, S.A.",
          "href": "https://api.euskadi.eus/procurements/companies/02058"
        }
      }
    },
    {
      "name": "HUERTO ALEGRE S. COOP. AND.",
      "registrationNumber": "06321",
      "identificationNumber": "F18035501",
      "address": "Camino Fabria de la Luz km. 2",
      "location": {
        "postalCode": "18152",
        "municipality": "Dílar",
        "county": "Granada",
        "municipalityId": "068",
        "countyId": "18"
      },
      "economicActivities": [
        {
          "id": "1.933.9",
          "name": "Otras actividades de enseñanza tales como idiomas, mecanografía",
          "_links": {
            "self": {
              "name": "Otras actividades de enseñanza tales como idiomas, mecanografía",
              "href": "https://api.euskadi.eus/procurements/companies/economic-activities/1.933.9"
            }
          }
        }
      ],
      "certificateStartDate": "2019-06-20",
      "certificateEndDate": "2019-09-12",
      "object": "DESARROLLO DE ACTIVIDADES Y PROGRAMAS DE EDUCACIÓN AMBIENTAL Y CULTURAL PARA NIÑOS, JÓVENES Y ADULTOS EN EL MEDIO RURAL, NATURAL Y URBANO. CURSOS Y SEMINARIOS DE FORMACIÓN DEL PROFESORADO. DISEÑO Y GESTIÓN DE MATERIALES DIDÁCTICOS Y PROGRAMAS SOCIALES. OTRAS ACTIVIDADES DE INVESTIGACIÓN E INNOVACIÓN EDUCATIVA",
      "mainEntityOfPage": "https://www.contratacion.euskadi.eus/webkpe00-kperoc/es/ac71aBusquedaRegistrosWar/empresa/06321",
      "_links": {
        "self": {
          "name": "HUERTO ALEGRE S. COOP. AND.",
          "href": "https://api.euskadi.eus/procurements/companies/06321"
        }
      }
    },
    {
      "name": "DISEÑO GRAFICO EDER, S.L.",
      "registrationNumber": "06323",
      "identificationNumber": "B48574941",
      "address": "Av. Zugazarte nº 32 (Edificio Biscaytik)",
      "location": {
        "postalCode": "48930",
        "municipality": "Getxo",
        "county": "Bizkaia",
        "municipalityId": "044",
        "countyId": "48"
      },
      "economicActivities": [
        {
          "id": "1.843.9",
          "name": "Otros servicios técnicos n.c.o.p",
          "_links": {
            "self": {
              "name": "Otros servicios técnicos n.c.o.p",
              "href": "https://api.euskadi.eus/procurements/companies/economic-activities/1.843.9"
            }
          }
        }
      ],
      "certificateStartDate": "2019-06-20",
      "certificateEndDate": "2019-09-20",
      "object": "DISEÑO GRÁFICO E IMPRESIÓN, INCLUIDO EL DISEÑO DE CAMPAÑAS DE MARKETING, LA ORGANIZACIÓN DE EVENTOS, CONSULTORÍA Y ASESORÍA DE MARKETING, SERVICIOS INFORMÁTICOS, TRADUCCIÓN Y DESARROLLO INFORMÁTICOS, DISEÑO Y DESARROLLO DE PÁGINAS WEB Y OUTSOURCING DE SERVICIOS (POR EJEMPLO, MARKETING, SECRETARIADO, ADMINISTRACIÓN...)",
      "mainEntityOfPage": "https://www.contratacion.euskadi.eus/webkpe00-kperoc/es/ac71aBusquedaRegistrosWar/empresa/06323",
      "_links": {
        "self": {
          "name": "DISEÑO GRAFICO EDER, S.L.",
          "href": "https://api.euskadi.eus/procurements/companies/06323"
        }
      }
    },
    {
      "name": "FLEXIRED SERVICIOS TECNOLÓGICOS GLOBALES, S.L.",
      "registrationNumber": "06324",
      "identificationNumber": "B09577115",
      "address": "Federico Olmeda, 19 4B",
      "location": {
        "postalCode": "09006",
        "municipality": "Burgos",
        "county": "Burgos",
        "municipalityId": "059",
        "countyId": "09"
      },
      "economicActivities": [
        {
          "id": "1.849.9",
          "name": "Otros servicios independientes n.c.o.p",
          "_links": {
            "self": {
              "name": "Otros servicios independientes n.c.o.p",
              "href": "https://api.euskadi.eus/procurements/companies/economic-activities/1.849.9"
            }
          }
        }
      ],
      "certificateStartDate": "2019-06-20",
      "certificateEndDate": "2019-09-15",
      "object": "LA CONSULTORÍA E INGENIERÍA TCNOLÓGICA EN TELECOMUNICACIONES, EN INFORMÁTICA Y EN SISTEMAS DE LA INFORMACIÓN Y EL ASESORAMIENTO, COMERCIALIZACIÓN, IMPLEMENTACIÓN Y MANTENIMIENTO DE PROYECTOS EN LAS MATERIAS ANTERIORMENTE INDICADAS. LA PRESTACIÓN, CONTRATACIÓN, SUBCONTRATACIÓN, ELABORACIÓN, DESARROLLO, CONTROL Y EJECUCIÓN DE TODO TIPO DE SERVICIOS INFORMÁTICOS, DE TELECOMUNICACIONES Y DE CONSULTORÍA E INTEGRACIÓN DE TECNOLOGÍAS DE LA INFORMACIÓN Y DE LAS COMUNICACIONES Y LA ELABORACIÓN, EDICIÓN, PRODUCCIÓN, PUBLICACIÓN Y COMERCIALIZACIÓN DE PRODUCTOS AUDIOVISUALES. EL ASESORAMIENTO, COMERCIALIZACIÓN, INSTALACIÓN, DESARROLLO Y SERVICIOS DE MANTENIMIENTO EN INTEGRACIÓN DE SISTEMAS Y SERVICIOS DE DISEÑO E IMPLEMENTACIÓN PARA APLICACIONES DE BANDA ANCHA Y NETWORKING, ASÍ COMO INTEGRACIÓN DE REDES Y SERVICIOS DE OPERACIÓN Y MANTENIMIENTO PARA OPERADORES DE TELECOMUNICACIONES, COMPAÑIAS ELÉCTRICAS Y TODO TIPO DE EMPRESAS. EL ASESORAMIENTO, COMERCIALIZACIÓN, INSTALACIÓN, DESARROLLO Y MANTENIMIENTO DE SOLUCIONES PARA REDES DE TELECOMUNICACIONES EN LAS TECNOLOGÍAS PLC, WI-MAX, COAXIAL E IP. ASIMISMO, EL OFRECIMIENTO DE SOLUCIONES TALES COMO ACCESO A INTERNET DE ALTA VELOCIDAD, SEGURIDAD, GESTIÓN Y MANTENIMIENTO DE REDES. LA EXPORTACIÓN, IMPORTACIÓN, ASESORAMIENTO, COMERCIALIZACIÓN, INSTALACIÓN, SOPORTE Y MANTENIMIENTO (HELP DESK) DE CUALQUIER CLASE DE EQUIPO DE TELECOMUNICACIONES O INFORMÁTICOS, HARDWARE, SOFTWARE Y DE APLICACIONES INSTALADAS EN LOS EQUIPOS ESPECIFICADOS. EL ANÁLISIS, PROGRAMACIÓN, PREPARACIÓN Y APLICACIÓN DE SISTEMAS INFORMÁTICOS PARA TODA CLASE DE ACTIVIDADES, SU SUMINISTRO, IMPLANTACIÓN E INTEGRACIÓN, ASÍ COMO LA FORMACIÓN Y EL ASESORAMIENTO A PERSONAS Y EMPRESAS. LAS SOLUCIONES INTEGRALES PARA REDES DE TELEFONÍA, CONSTRUCCIÓN E INSTALACIÓN DE INFRAESTRUCTURAS PARA TELECOMUNICACIONES, LA INGENIERÍA Y FABRICACIÓN DE SOUCIONES PARA REDUCCIÓN DE IMPACTO VISUAL, ASÍ COMO EL DESARROLLO DE REDES PARA TELEFONÍA MÓVIL Y FIJA. LA PRESTACIÓN DE SERVICIOS DE EXTERNALIZACIÓN DE OPERACIONES DE SISTEMAS, COMUNICACIONES Y RELACIONADOS CON LAS TECNOLOGÍAS DE LA INFORMACIÓN. LA CONSULTORÍA ESTRATÉGICA, TECNOLÓGICA, ORGANIZATIVA, FORMATIVA Y DE PROCESOS TANTO PARA LAS DIFERENTES ADMINISTRACIONES PÚBLICAS COMO PARA ENTIDADES MIXTAS, PRIVADAS Y PERSONAS FÍSICAS. LA REALIZACIÓN DE SERVICIOS DE GESTIÓN INTEGRADA DE PROYECTOS, DIRECCIÓN DE OBRAS Y SUMINISTROS TÉCNICOS, ACTIVIDADES DE ASESORAMIENTO Y CONSULTORÍA DE PROYECTOS ARQUITECTÓNICOS Y MUSEOLÓGICOS, ASÍ COMO LOS SERVICIOS DE CONSULTORÍA TÉCNICA EN ARQUITECTURA, INGENIERÍA Y SECTORES AFINES. LA REALIZACIÓN DE CONSULTORÍA ORGANIZATIVA, ADMINISTRATIVA, PLANIFICACIÓN ESTRATÉGICA, REINGENIERÍA DE PROCESOS Y DE ESTUDIOS DE MERCADO EN TODAS LAS CITADAS MATERIAS. LA PROMOCIÓN, CREACIÓN Y PARTICIPACIÓN EN EMPRESAS Y SOCIEDADES, INDUSTRIALES, COMERCIALES, INMOBILIARIAS, DE SERVICIOS Y DE CUALQUIER OTRO TIPO",
      "mainEntityOfPage": "https://www.contratacion.euskadi.eus/webkpe00-kperoc/es/ac71aBusquedaRegistrosWar/empresa/06324",
      "_links": {
        "self": {
          "name": "FLEXIRED SERVICIOS TECNOLÓGICOS GLOBALES, S.L.",
          "href": "https://api.euskadi.eus/procurements/companies/06324"
        }
      }
    },
    {
      "name": "JULIÁN VELASCO PRIETO",
      "registrationNumber": "02183",
      "identificationNumber": "16285102K",
      "address": "Bartolomé de las Casas nº1",
      "location": {
        "postalCode": "01015",
        "municipality": "Vitoria-Gasteiz",
        "county": "Araba/Álava",
        "municipalityId": "059",
        "countyId": "01"
      },
      "economicActivities": [
        {
          "id": "2.411",
          "name": "Arquitectos",
          "_links": {
            "self": {
              "name": "Arquitectos",
              "href": "https://api.euskadi.eus/procurements/companies/economic-activities/2.411"
            }
          }
        }
      ],
      "certificateStartDate": "2019-06-19",
      "certificateEndDate": "2019-12-06",
      "object": "DESARROLLO COMPLETO DE LAS ACTIVIDADES DE ARQUITECTURA, URBANISMO Y DISEÑO INTERIOR A TRAVÉS DE LA REDACCIÓN DE PROYECTOS Y DIRECCIONES DE OBRA ASÍ COMO DE LA ELABORACIÓN DE ESTUDIOS DE VIABILIDAD ECONÓMICA, CERTIFICADOS, PROYECTOS DE ACTIVIDAD, TASACIONES INMOBILIARIAS Y GESTIÓN Y TRAMITACIÓN DE TODO TIPO DE DOCUMENTACIÓN Y LICENCIAS",
      "mainEntityOfPage": "https://www.contratacion.euskadi.eus/webkpe00-kperoc/es/ac71aBusquedaRegistrosWar/empresa/02183",
      "_links": {
        "self": {
          "name": "JULIÁN VELASCO PRIETO",
          "href": "https://api.euskadi.eus/procurements/companies/02183"
        }
      }
    },
    {
      "name": "SOLUCIONES GRÁFICAS LASTER, S.L.",
      "registrationNumber": "03645",
      "identificationNumber": "B95346185",
      "address": "POL UGALDEGUREN III.PARCELA P-18-4",
      "location": {
        "postalCode": "48160",
        "municipality": "Zamudio",
        "county": "Bizkaia",
        "municipalityId": "905",
        "countyId": "48"
      },
      "economicActivities": [
        {
          "id": "1.475",
          "name": "Actividades anexas a las artes gráficas",
          "_links": {
            "self": {
              "name": "Actividades anexas a las artes gráficas",
              "href": "https://api.euskadi.eus/procurements/companies/economic-activities/1.475"
            }
          }
        }
      ],
      "certificateStartDate": "2019-06-19",
      "certificateEndDate": "2019-12-17",
      "object": "LA ACTIVIDAD DE ARTES GRÁFICAS EN GENERAL. COMERCIALIZACIÓN DE IMÁGENES, GRABADOS Y TEXTOS A TRAVÉS DE TODO TIPO DE MEDIOS. ESTUDIOS DE MERCADO. SERVICIOS DE PUBLICIDAD. AGENCIA E INTERMEDIACIÓN COMERCIAL, ASÍ COMO COMPRA-VENTA DE BIENES INMUEBLES",
      "mainEntityOfPage": "https://www.contratacion.euskadi.eus/webkpe00-kperoc/es/ac71aBusquedaRegistrosWar/empresa/03645",
      "_links": {
        "self": {
          "name": "SOLUCIONES GRÁFICAS LASTER, S.L.",
          "href": "https://api.euskadi.eus/procurements/companies/03645"
        }
      }
    },
    {
      "name": "ANTOLAKETA ETA ZERBITZUAK, S.L.",
      "registrationNumber": "03527",
      "identificationNumber": "B48714398",
      "address": "POL. IND. ERROTATXU, BLOQUE B. NAVE 11",
      "location": {
        "postalCode": "48000",
        "municipality": "Getxo",
        "county": "Bizkaia",
        "municipalityId": "044",
        "countyId": "48"
      },
      "economicActivities": [
        {
          "id": "1.722",
          "name": "Transporte de mercancías por carretera",
          "_links": {
            "self": {
              "name": "Transporte de mercancías por carretera",
              "href": "https://api.euskadi.eus/procurements/companies/economic-activities/1.722"
            }
          }
        },
        {
          "id": "1.754.6",
          "name": "Guardamuebles",
          "_links": {
            "self": {
              "name": "Guardamuebles",
              "href": "https://api.euskadi.eus/procurements/companies/economic-activities/1.754.6"
            }
          }
        },
        {
          "id": "1.757",
          "name": "Servicio de mudanzas",
          "_links": {
            "self": {
              "name": "Servicio de mudanzas",
              "href": "https://api.euskadi.eus/procurements/companies/economic-activities/1.757"
            }
          }
        },
        {
          "id": "1.859",
          "name": "Alquiler de otros bienes muebles n.c.o.p. (sin personal permanente)",
          "_links": {
            "self": {
              "name": "Alquiler de otros bienes muebles n.c.o.p. (sin personal permanente)",
              "href": "https://api.euskadi.eus/procurements/companies/economic-activities/1.859"
            }
          }
        },
        {
          "id": "1.965.4",
          "name": "Empresas de espectáculos",
          "_links": {
            "self": {
              "name": "Empresas de espectáculos",
              "href": "https://api.euskadi.eus/procurements/companies/economic-activities/1.965.4"
            }
          }
        }
      ],
      "certificateStartDate": "2019-06-18",
      "certificateEndDate": "2019-10-11",
      "object": "1. LA ORGANIZACIÓN Y MONTAJES TÉCNICOS, ESPECTÁCULOS O EXPOSICIONES Y MUESTRAS DE CONTENIDO CULTURAL O SOCIAL, MEDIANTE LA INSTALACIÓN DE LOS ELEMENTOS DE DECORACIÓN, SONIDO, ILUMINACIÓN U OTROS NECESARIOS PARA EL DESARROLLO DE LOS ACTOS; ORGANIZACIÓN PARA LA ASISTENCIA Y ACOMODO DE LOS ASISTENTES A LOS ACTOS; ACOGIDA DE PARTICIPANTES O EXPOSITORES Y CUALQUIER OTRAS ACTIVIDAD NECESARIA PARA EL BUEN DESARROLLO Y FIN DE LOS ACTOS PROGRAMADOS. 2. ALQUILER DE VEHÍCULOS, YA SEAN INDUSTRIALES O NO; PODRÁN SER ALQUILERES CON O SIN CONDUCTOR. VENTA DE TODO TIPO DE VEHÍCULOS. 3. ALQUILER, VENTA Y MONTAJE DE ELEMENTOS TALES COMO SILLAS, MESAS, CARPAS, ESCENARIOS, CASETAS. 4. LA REALIZACIÓN DE LIMPIEZAS GENERALES, TANTO PARA EMPRESAS PÚBLICAS COMO PRIVADAS Y PERSONAS PARTICULARES. ESTAS LIMPIEZAS SE REALIZARÁN CON MATERIALES TANTO PROPIOS COMO ALQUILADOS. TAMBIÉN SE REALIZARÁN LABORES DE DESESCOMBRO. 5. EL TRASLADO, PORTES Y MUDANZAS MEDIANTE VEHÍCULOS, PERSONAL Y ACCESORIOS PROPIOS Y ALQUILADOS A OTRAS EMPRESAS; SE REALIZARÁN LABORES DE GUARDAMUEBLES. 6. EL MONTAJE Y DESMONTAJE DE ANDAMIAJES Y ESTRUCTURAS METÁLICAS. 7. LABORES Y SERVICIOS DE PROPAGANDA Y PUBLICIDAD CON DISTRIBUCIÓN. AGENCIA DE PUBLICIDAD. 8. COORDINACIÓN DE GREMIOS PARA TODO TIPO DE OBRAS TALES COMO FONTANERÍA, ALBAÑILERÍA, JARDINERÍA, ELECTRICIDAD, PINTURA Y CARPINTERÍA; INCLUYENDO LOS SERVICIOS GENERALES DE MANTENIMIENTO. 9. EL SERVICIO DE MONITORES DEPORTIVOS, CULTURALES, DE OCIO Y TIEMPO LIBRE. 10. LA DISTRIBUCIÓN Y REPRESENTACIÓN DE MATERIALES DE CONSTRUCCIÓN Y PREFABRICADOS, ASÍ COMO SU DEPÓSITO. 11. LA REALIZACIÓN DE SERVICIOS DE DETECTIVES PRIVADOS Y COBRO DE MOROSOS. ASÍ MISMO SE REALIZARÁN LABORES DE ENVÍO DE MENSAJERÍA Y PAQUETERÍA. 12. LA PREPARACIÓN DEL CATERING PARA ESPECTÁCULOS DE TODO TIPO. 13. LA PRESTACIÓN DE SERVICIOS DE ASESORAMIENTO FISCAL Y JURÍDICO",
      "mainEntityOfPage": "https://www.contratacion.euskadi.eus/webkpe00-kperoc/es/ac71aBusquedaRegistrosWar/empresa/03527",
      "_links": {
        "self": {
          "name": "ANTOLAKETA ETA ZERBITZUAK, S.L.",
          "href": "https://api.euskadi.eus/procurements/companies/03527"
        }
      }
    },
    {
      "name": "F INICIATIVAS I MAS D MAS I, S.L.",
      "registrationNumber": "05582",
      "identificationNumber": "B62331160",
      "address": "C/ A, ED FILATURES, 4º 1ª, RI COLONIA GÜELL",
      "location": {
        "postalCode": "08690",
        "municipality": "Santa Coloma de Cervelló",
        "county": "Barcelona",
        "municipalityId": "244",
        "countyId": "08"
      },
      "economicActivities": [
        {
          "id": "1.842",
          "name": "Servicios financieros y contables",
          "_links": {
            "self": {
              "name": "Servicios financieros y contables",
              "href": "https://api.euskadi.eus/procurements/companies/economic-activities/1.842"
            }
          }
        }
      ],
      "certificateStartDate": "2019-06-18",
      "certificateEndDate": "2019-12-06",
      "object": "EL ASESORAMIENTO FINANCIERO Y ECONÓMICO A EMPRESAS",
      "mainEntityOfPage": "https://www.contratacion.euskadi.eus/webkpe00-kperoc/es/ac71aBusquedaRegistrosWar/empresa/05582",
      "_links": {
        "self": {
          "name": "F INICIATIVAS I MAS D MAS I, S.L.",
          "href": "https://api.euskadi.eus/procurements/companies/05582"
        }
      }
    },
    {
      "name": "LERTXUNDI FIGUEROA S.L.",
      "registrationNumber": "06313",
      "identificationNumber": "B20494373",
      "address": "PESCADERIA 12 ",
      "location": {
        "postalCode": "20110",
        "municipality": "Pasaia",
        "county": "Gipuzkoa",
        "municipalityId": "064",
        "countyId": "20"
      },
      "economicActivities": [
        {
          "id": "1.504.2",
          "name": "Instalaciones de fontanería",
          "_links": {
            "self": {
              "name": "Instalaciones de fontanería",
              "href": "https://api.euskadi.eus/procurements/companies/economic-activities/1.504.2"
            }
          }
        }
      ],
      "certificateStartDate": "2019-06-18",
      "certificateEndDate": "2019-09-20",
      "object": "LA REALIZACIÓN DE TODO TIPO DE TRABAJOS RELACIONADOS CON LA FONTANERÍA, MANTENIMIENTO Y REPARACIÓN DE INSTALACIONES DE GAS, CALEFACCIÓN Y OTRAS CLASES",
      "mainEntityOfPage": "https://www.contratacion.euskadi.eus/webkpe00-kperoc/es/ac71aBusquedaRegistrosWar/empresa/06313",
      "_links": {
        "self": {
          "name": "LERTXUNDI FIGUEROA S.L.",
          "href": "https://api.euskadi.eus/procurements/companies/06313"
        }
      }
    }
  ]
}