{
  "totalItems": 9042,
  "totalPages": 905,
  "currentPage": 755,
  "itemsOfPage": 10,
  "items": [
    {
      "name": "MALAY, S.A.",
      "registrationNumber": "02544",
      "identificationNumber": "A20194130",
      "address": "C/EASO, 18",
      "location": {
        "postalCode": "20006",
        "municipality": "Donostia / San Sebastián",
        "county": "Gipuzkoa",
        "municipalityId": "069",
        "countyId": "20"
      },
      "economicActivities": [
        {
          "id": "1.755.2",
          "name": "Servicios prestados al público por las agencias de viajes",
          "_links": {
            "self": {
              "name": "Servicios prestados al público por las agencias de viajes",
              "href": "https://api.euskadi.eus/procurements/companies/economic-activities/1.755.2"
            }
          }
        }
      ],
      "certificateStartDate": "2008-10-29",
      "certificateEndDate": "2009-03-15",
      "object": "EL DE LAS ACTIVIDADES PROPIAS DE AGENCIAS DE VIAJES DEL GRUPO A.  Y ESPECIALMENTE EL DESEMPEÑO DE LAS FUNCIONES Y EL EJERCICIO DE LAS ACTIVIDADES TIPIFICADAS EN LOS ARTÍCULOS 1,2,3 Y 4 DEL REGLAMENTO DE RÉGIMEN JURÍDICO DE LAS AGENCIAS DE VIAJES, APROBADO POR ORDEN MINISTERIAL DE 9 DE AGOSTO DE 1974 ",
      "mainEntityOfPage": "https://www.contratacion.euskadi.eus/webkpe00-kperoc/es/ac71aBusquedaRegistrosWar/empresa/02544",
      "_links": {
        "self": {
          "name": "MALAY, S.A.",
          "href": "https://api.euskadi.eus/procurements/companies/02544"
        }
      }
    },
    {
      "name": "CARDINAL HEALTH SPAIN 239, S.A.",
      "registrationNumber": "00728",
      "identificationNumber": "A58752858",
      "address": "EDIFICIO VEGANOVA. AVDA. DE LA VEGA, Nº 1. BLOQUE 1-1ªPLANTA",
      "location": {
        "postalCode": "28108",
        "municipality": "Alcobendas",
        "county": "Madrid",
        "municipalityId": "006",
        "countyId": "28"
      },
      "economicActivities": [
        {
          "id": "1.619.2",
          "name": "Venta al por mayor de aparatos e instrumentos médicos, ortopédicos, ópticos",
          "_links": {
            "self": {
              "name": "Venta al por mayor de aparatos e instrumentos médicos, ortopédicos, ópticos",
              "href": "https://api.euskadi.eus/procurements/companies/economic-activities/1.619.2"
            }
          }
        }
      ],
      "certificateStartDate": "2008-10-28",
      "certificateEndDate": "2009-03-01",
      "object": "LA FABRICACIÓN, COMERCIALIZACIÓN, IMPORTACIÓN, EXPORTACIÓN, VENTA Y DISTRIBUCIÓN DE MATERIALES Y EQUIPOS DE ANÁLISIS, DIAGNÓSTICO Y OTRAS APLICACIONES MÉDICAS Y SANITARIAS, ASÍ COMO MATERIALES Y EQUIPOS ELECTRÓNICOS PARA CUALESQUIERA ACTIVIDADES Y LA PRESTACIÓN DE SERVICIOS DESTINADOS AL FUNCIONAMIENTO, REPARACIÓN, MANTENIMIENTO Y CUALESQUIERA OTROS RELACIONADOS CON LOS INDICADOS MATERIALES Y EQUIPOS",
      "mainEntityOfPage": "https://www.contratacion.euskadi.eus/webkpe00-kperoc/es/ac71aBusquedaRegistrosWar/empresa/00728",
      "_links": {
        "self": {
          "name": "CARDINAL HEALTH SPAIN 239, S.A.",
          "href": "https://api.euskadi.eus/procurements/companies/00728"
        }
      }
    },
    {
      "name": "ARJOHUNTLEIGH IBERICA, S.L.U.",
      "registrationNumber": "03698",
      "identificationNumber": "B62346945",
      "address": "CTRA. DE RUBI, 88 - 1 A PLANTA A1",
      "location": {
        "postalCode": "08173",
        "municipality": "Sant Cugat del Vallès",
        "county": "Barcelona",
        "municipalityId": "205",
        "countyId": "08"
      },
      "economicActivities": [
        {
          "id": "1.659.3",
          "name": "Venta al por menor de aparatos médicos, ortopédicos, ópticos y fotográficos",
          "_links": {
            "self": {
              "name": "Venta al por menor de aparatos médicos, ortopédicos, ópticos y fotográficos",
              "href": "https://api.euskadi.eus/procurements/companies/economic-activities/1.659.3"
            }
          }
        }
      ],
      "certificateStartDate": "2008-10-28",
      "certificateEndDate": "2009-03-15",
      "object": "LA COMERCIALIZACIÓN, DISTRIBUCIÓN, IMPORTACIÓN, EXPORTACIÓN, ALQUILER, MANTENIMIENTO, REPARACIÓN, MONTAJE E INSTALACIÓN DE TODO TIPO DE EQUIPOS MÉDICOS Y SUS ACCESORIOS, ASÍ COMO CUALQUIER SOFTWARE INCORPORADO A DICHOS PRODUCTOS Y ACCESORIOS",
      "mainEntityOfPage": "https://www.contratacion.euskadi.eus/webkpe00-kperoc/es/ac71aBusquedaRegistrosWar/empresa/03698",
      "_links": {
        "self": {
          "name": "ARJOHUNTLEIGH IBERICA, S.L.U.",
          "href": "https://api.euskadi.eus/procurements/companies/03698"
        }
      }
    },
    {
      "name": "ELECTRICIDAD Y TELECOMUNICACIONES CAMACHO, S.L.",
      "registrationNumber": "03699",
      "identificationNumber": "B01437516",
      "address": "C/ ABECHUCO, 8",
      "location": {
        "postalCode": "01013",
        "municipality": "Vitoria-Gasteiz",
        "county": "Araba/Álava",
        "municipalityId": "059",
        "countyId": "01"
      },
      "economicActivities": [
        {
          "id": "1.504.1",
          "name": "Instalaciones eléctricas en general",
          "_links": {
            "self": {
              "name": "Instalaciones eléctricas en general",
              "href": "https://api.euskadi.eus/procurements/companies/economic-activities/1.504.1"
            }
          }
        },
        {
          "id": "1.504.7",
          "name": "Instalaciones telefónicas, telegráficas, televisión, etc",
          "_links": {
            "self": {
              "name": "Instalaciones telefónicas, telegráficas, televisión, etc",
              "href": "https://api.euskadi.eus/procurements/companies/economic-activities/1.504.7"
            }
          }
        }
      ],
      "certificateStartDate": "2008-10-28",
      "certificateEndDate": "2009-04-22",
      "object": "LA REALIZACIÓN DE TODA CLASE DE INSTALACIONES ELÉCTRICAS.\r\nREALIZACIÓN DE PROYECTOS, MEMORIAS E INFORMES TÉCNICOS, FABRICACIÓN, MONTAJE, INSTALACIÓN, REPARACIÓN, ASISTENCIA TÉCNICA POSTERIOR, COMERCIALIZACIÓN Y DISTRIBUCIÓN DE EQUIPOS PROPIOS O REPRESENTADOS, TODO ELLO DE ELECTRÓNICA, TELEFONÍA, TELECOMUNICACIONES Y TELEVISIÓN POR CABLE",
      "mainEntityOfPage": "https://www.contratacion.euskadi.eus/webkpe00-kperoc/es/ac71aBusquedaRegistrosWar/empresa/03699",
      "_links": {
        "self": {
          "name": "ELECTRICIDAD Y TELECOMUNICACIONES CAMACHO, S.L.",
          "href": "https://api.euskadi.eus/procurements/companies/03699"
        }
      }
    },
    {
      "name": "LABORATORIOS PEN, S.A.",
      "registrationNumber": "02583",
      "identificationNumber": "A46012704",
      "address": "AV. MARE DE DEU DE MONTSERRAT, 215",
      "location": {
        "postalCode": "08041",
        "municipality": "Barcelona",
        "county": "Barcelona",
        "municipalityId": "019",
        "countyId": "08"
      },
      "economicActivities": [
        {
          "id": "1.614.1",
          "name": "Venta al por mayor de productos farmacéuticos y medicamentos",
          "_links": {
            "self": {
              "name": "Venta al por mayor de productos farmacéuticos y medicamentos",
              "href": "https://api.euskadi.eus/procurements/companies/economic-activities/1.614.1"
            }
          }
        }
      ],
      "certificateStartDate": "2008-10-23",
      "certificateEndDate": "2007-07-08",
      "object": "LA ELABORACIÓN Y VENTA DE PRODUCTOS BIOLÓGICOS, QUÍMICOS Y FARMACÉUTICOS, CON TODAS LAS OPERACIONES NECESARIAS AL EFECTO, SIN PERJUICIO DE DEDICARSE A CUALQUIER OTRO NEGOCIO INDUSTRIAL Y MERCANTIL QUE EL CONSEJO DE ADMINISTRACIÓN CONSIDERE CONVENIENTE",
      "mainEntityOfPage": "https://www.contratacion.euskadi.eus/webkpe00-kperoc/es/ac71aBusquedaRegistrosWar/empresa/02583",
      "_links": {
        "self": {
          "name": "LABORATORIOS PEN, S.A.",
          "href": "https://api.euskadi.eus/procurements/companies/02583"
        }
      }
    },
    {
      "name": "ALATEC INGENIEROS CONSULTORES Y ARQUITECTOS, S.A.",
      "registrationNumber": "02941",
      "identificationNumber": "A28958684",
      "address": "C/ JOSÉ ECHEGARAY, 14",
      "location": {
        "postalCode": "28230",
        "municipality": "Rozas de Madrid, Las",
        "county": "Madrid",
        "municipalityId": "127",
        "countyId": "28"
      },
      "economicActivities": [
        {
          "id": "1.843.1",
          "name": "Servicios técnicos de ingeniería",
          "_links": {
            "self": {
              "name": "Servicios técnicos de ingeniería",
              "href": "https://api.euskadi.eus/procurements/companies/economic-activities/1.843.1"
            }
          }
        }
      ],
      "certificateStartDate": "2008-10-23",
      "certificateEndDate": "2009-04-15",
      "object": "A) LA CONFECCIÓN, PROGRAMACIÓN Y DESARROLLO DE TODA CLASE DE ESTUDIOS Y PROYECTOS  DE INGENIERÍA Y ARQUITECTURA Y PROSPECCIONES.\r\n\r\nB) LA CONTRATACIÓN, CONSTRUCCIÓN Y EXPLOTACIÓN DE OBRAS  Y SERVICIOS Y SUMINISTROS, PÚBLICOS O PRIVADOS, POR CUENTA AJENA O PROPIA, EN CUALESQUIERA DE LAS FORMAS ADMITIDAS EN DERECHO, INCLUSIVE  DE TODA CLASE DE CONCESIONES ADMINISTRATIVAS.\r\n\r\nC) LOS NEGOCIOS INMOBILIARIOS, RÚSTICOS Y URBANOS DE LA EDIFICACIÓN, EN TODAS SUS VARIANTES, TALES COMO COMPRA, VENTA, ARRIENDO, CONSTRUCCIÓN Y EXPLOTACIÓN DE BIENES INMUEBLES, RÚSTICOS O URBANOS; PROYECCIÓN Y REALIZACIÓN DE PLANES GENERALES O PARCIALES DE LOS INDICADOS EN LA LEY DEL SUELO Y DE PARCELACIONES Y REPARCELACIONES DE BIENES INMUEBLES.\r\n\r\nD) LA COMPRA, VENTA, ARRIENDO, CONSTRUCCIÓN Y CONSTRUCCIÓN Y EXPLOTACIÓN DE NEGOCIOS DE CARÁCTER TURÍSTICO.\r\n\r\nE) LA PROMOCIÓN, ASESORÍA, GESTIÓN Y EXPLOTACIÓN DE NEGOCIOS INDUSTRIALES Y COMERCIALES, YA SEA DIRECTA O INDIRECTAMENTE, EN FORMA TOTAL O PARCIAL, SEA COMO AGENTES ASESORES O COMISIONISTAS.\r\n\r\nF) LA REPRESENTACIÓN Y COMISIÓN COMERCIAL O TÉCNICA EN TODAS SUS RAMAS, LAS GESTIONES, ASESORÍA, ASISTENCIAS Y PERITACIONES DE TODAS CLASES.\r\n\r\nG) LA IMPORTACIÓN Y EXPORTACIÓN DE TODA CLASE DE MATERIAS Y PRODUCTOS, INCLUSO LOS INTELECTUALES Y BIENES DE EQUIPO\r\n   ",
      "mainEntityOfPage": "https://www.contratacion.euskadi.eus/webkpe00-kperoc/es/ac71aBusquedaRegistrosWar/empresa/02941",
      "_links": {
        "self": {
          "name": "ALATEC INGENIEROS CONSULTORES Y ARQUITECTOS, S.A.",
          "href": "https://api.euskadi.eus/procurements/companies/02941"
        }
      }
    },
    {
      "name": "ORSADE, S.A.",
      "registrationNumber": "03248",
      "identificationNumber": "A58627027",
      "address": "AVDA. MARE DE DEU DE MONTSERRAT, Nº 215",
      "location": {
        "postalCode": "08041",
        "municipality": "Barcelona",
        "county": "Barcelona",
        "municipalityId": "019",
        "countyId": "08"
      },
      "economicActivities": [
        {
          "id": "1.614.1",
          "name": "Venta al por mayor de productos farmacéuticos y medicamentos",
          "_links": {
            "self": {
              "name": "Venta al por mayor de productos farmacéuticos y medicamentos",
              "href": "https://api.euskadi.eus/procurements/companies/economic-activities/1.614.1"
            }
          }
        }
      ],
      "certificateStartDate": "2008-10-23",
      "certificateEndDate": "2008-05-20",
      "object": "A) LA COMPRAVENTA, ADMINISTRACIÓN Y EXPLOTACION DE BIENES MUEBLES E INMUEBLES, EXCLUYENDO LAS ACTIVIDADES RESERVADAS A INSTITUCIONES DE INVERSIÓN COLECTIVA Y A ENTIDADES SUJETAS A LA LEY DEL MERCADO DE VALORES, Y LA CONSTITUCIÓN Y PARTICIPACIÓN DE SOCIEDADES DE IGUAL O SIMILAR OBJETO SOCIAL; B) LA FABRICACIÓN, DISTRIBUCIÓN Y COMERCIALIZACIÓN DE MEDICAMENTOS, COSMÉTICOS, PRODUCTOS DIETÉTICOS Y MATERIAL SANITARIO",
      "mainEntityOfPage": "https://www.contratacion.euskadi.eus/webkpe00-kperoc/es/ac71aBusquedaRegistrosWar/empresa/03248",
      "_links": {
        "self": {
          "name": "ORSADE, S.A.",
          "href": "https://api.euskadi.eus/procurements/companies/03248"
        }
      }
    },
    {
      "name": "MONDO IBERICA, S.A.",
      "registrationNumber": "02254",
      "identificationNumber": "A50308139",
      "address": "POLÍGONO MALPICA, C/E PARCELA 13-B",
      "location": {
        "postalCode": "50057",
        "municipality": "Zaragoza",
        "county": "Zaragoza",
        "municipalityId": "297",
        "countyId": "50"
      },
      "economicActivities": [
        {
          "id": "1.494.2",
          "name": "Fabricación de artículos de deporte",
          "_links": {
            "self": {
              "name": "Fabricación de artículos de deporte",
              "href": "https://api.euskadi.eus/procurements/companies/economic-activities/1.494.2"
            }
          }
        },
        {
          "id": "1.501.1",
          "name": "Construcción completa, reparación y conservación de edificaciones",
          "_links": {
            "self": {
              "name": "Construcción completa, reparación y conservación de edificaciones",
              "href": "https://api.euskadi.eus/procurements/companies/economic-activities/1.501.1"
            }
          }
        },
        {
          "id": "1.617.4",
          "name": "Venta al por mayor de materiales de construcción, vidrio y artículos instalación",
          "_links": {
            "self": {
              "name": "Venta al por mayor de materiales de construcción, vidrio y artículos instalación",
              "href": "https://api.euskadi.eus/procurements/companies/economic-activities/1.617.4"
            }
          }
        },
        {
          "id": "1.619.1",
          "name": "Venta al por mayor de juguetes y artículos de deporte",
          "_links": {
            "self": {
              "name": "Venta al por mayor de juguetes y artículos de deporte",
              "href": "https://api.euskadi.eus/procurements/companies/economic-activities/1.619.1"
            }
          }
        },
        {
          "id": "1.856.1",
          "name": "Alquiler de bienes de consumo",
          "_links": {
            "self": {
              "name": "Alquiler de bienes de consumo",
              "href": "https://api.euskadi.eus/procurements/companies/economic-activities/1.856.1"
            }
          }
        }
      ],
      "certificateStartDate": "2008-10-22",
      "certificateEndDate": "2009-03-23",
      "object": "PRODUCCIÓN Y COMERCIALIZACIÓN DE PAVIMENTOS DE GOMA, P.V.C. (CLORURO DE POLIVINILO), OTROS PRODUCTOS SINTÉTICOS Y QUÍMICOS Y ARTÍCULOS SIMILARES. ELABORACIÓN DE PRODUCTOS COMPLEMENTARIOS NECESARIOS PARA LA FABRICACIÓN DE PRODUCTOS DE GOMA Y/O PLÁSTICOS, SINTÉTICOS Y QUÍMICOS. PRODUCCIÓN DE BALONES Y COLCHONETAS NEUMÁTICAS DE P.V.C. (CLORURO DE POLIVINILO) Y ARTÍCULOS SIMILARES. FABRICACIÓN, ELABORACIÓN Y COMERCIO DE ARTÍCULOS TÉCNICOS DE GOMA, PLÁSTICOS Y SIMILARES. COMERCIO DE EMBARCACIONES. CONSTRUIR, DESARROLLAR Y REFORMAR TODO TIPO DE INMUEBLES O INSTALACIONES DE CUALQUIER CLASE, DE USO PROPIO. FABRICACIÓN, COMERCIALIZACIÓN, MONTAJE E INSTALACIÓN DE TODA CLASE DE ARTÍCULOS RELACIONADOS CON LA PRÁCTICA DE CUALQUIER ACTIVIDAD DE CARÁCTER DEPORTIVO, ASÍ COMO TODA CLASE DE ELEMENTOS INCORPORABLES A INSTALACIONES DEDICADAS A LA CELEBRACIÓN DE ESPECTÁCULOS PÚBLICOS DE CARÁCTER DEPORTIVO O DE OTRO TIPO.",
      "mainEntityOfPage": "https://www.contratacion.euskadi.eus/webkpe00-kperoc/es/ac71aBusquedaRegistrosWar/empresa/02254",
      "_links": {
        "self": {
          "name": "MONDO IBERICA, S.A.",
          "href": "https://api.euskadi.eus/procurements/companies/02254"
        }
      }
    },
    {
      "name": "IRU-BIDE ERAIKUNTZAK, S.L.",
      "registrationNumber": "03362",
      "identificationNumber": "B20529541",
      "address": "ORIA ETORBIDEA, Nº 8-10, 5ª PLANTA. OF. E-9",
      "location": {
        "postalCode": "20160",
        "municipality": "Lasarte-Oria",
        "county": "Gipuzkoa",
        "municipalityId": "902",
        "countyId": "20"
      },
      "economicActivities": [
        {
          "id": "1.501.1",
          "name": "Construcción completa, reparación y conservación de edificaciones",
          "_links": {
            "self": {
              "name": "Construcción completa, reparación y conservación de edificaciones",
              "href": "https://api.euskadi.eus/procurements/companies/economic-activities/1.501.1"
            }
          }
        }
      ],
      "certificateStartDate": "2008-10-22",
      "certificateEndDate": "2009-04-13",
      "object": "- LA CONSTRUCCIÓN DE TODO TIPO DE EDIFICACIONES Y LA REALIZACIÓN DE OBRAS PÚBLICAS Y PRIVADAS, TANTO POR EJECUCIÓN DIRECTA COMO POR CONTRATA, YA SEA DE NUEVA CONSTRUCCIÓN O EJECUCIÓN O DE REPARACIÓN, REHABLITACIÓN O CONSERVACIÓN DE LAS EXISTENTES. - LA REPARACIÓN Y MANTENIMIENTO INTEGRAL DE TODO TIPO DE EDIFICACIONES E INSTALACIONES INDUSTRIALES, TANTO EN SU ESTRUCTURA INTERNA COMO EXTERNA. - LA CARGA Y DESCARGA DE VEHÍCULOS Y MATERIALES DE TODO TIPO, ASÍ COMO SU APILONAMIENTO Y LIMPIEZA",
      "mainEntityOfPage": "https://www.contratacion.euskadi.eus/webkpe00-kperoc/es/ac71aBusquedaRegistrosWar/empresa/03362",
      "_links": {
        "self": {
          "name": "IRU-BIDE ERAIKUNTZAK, S.L.",
          "href": "https://api.euskadi.eus/procurements/companies/03362"
        }
      }
    },
    {
      "name": "DIRU BILKETA SEGURIDAD, S.A.",
      "registrationNumber": "03561",
      "identificationNumber": "A95437042",
      "address": "POLIGONO INDUSTRIAL BOROA, PARCELA 2C2",
      "location": {
        "postalCode": "48340",
        "municipality": "Amorebieta-Etxano",
        "county": "Bizkaia",
        "municipalityId": "003",
        "countyId": "48"
      },
      "economicActivities": [
        {
          "id": "1.849.4",
          "name": "Servicios de custodia, seguridad y protección",
          "_links": {
            "self": {
              "name": "Servicios de custodia, seguridad y protección",
              "href": "https://api.euskadi.eus/procurements/companies/economic-activities/1.849.4"
            }
          }
        }
      ],
      "certificateStartDate": "2008-10-20",
      "certificateEndDate": "2009-04-15",
      "object": "A) LA VIGILANCIA Y PROTECCIÓN DE BIENES, ESTABLECIMIENTOS, ESPECTÁCULOS, CERTÁMENES O CONVENCIONES.\r\nB) LA PROTECCIÓN DE PERSONAS DETERMINADAS QUE POR SUS ESPECIALES CIRCUNSTANCIAS PERSONALES PRECISEN DEL REFERIDO SERVICIO, PREVIA LA AUTORIZACIÓN CORRESPONDIENTE POR EL ÓRGANO COMPETENTE EN ESTA MATERIA DE LA ADMINISTRACIÓN PÚBLICA DEL ESTADO.\r\nC) EL DEPÓSITO, CUSTODIA, RECUENTO Y CLASIFICACIÓN DE MONEDAS Y BILLETES DE CURSO LEGAL VÁLIDOS EN CUALQUIER PAÍS O ESTADO, ASÍ COMO DE TÍTULOVALORES Y DEMÁS OBJETO QUE, POR SU VALOR ECONÓMICO Y EXPECTATIVAS QUE GENEREN, O POR SU PELIGROSIDAD, PUEDAN REQUERIR PROTECCIÓN ESPECIAL, SIN PERJUICIO DE LAS ACTIVIDADES PROPIAS DE LAS ENTIDADES FINANCIERAS.\r\nD) EL TRANSPORTE Y DISTRIBUCIÓN DE LOS OBJETOS A QUE SE REFIERE EL APARTADO ANTERIOR A TRAVÉS DE DISTINTOS MEDIOS, REALIZÁNDOLOS, EN SU CASO, MEDIANTE VEHÍCULOS CUYAS CARACTERÍSTICAS SERÁN DETERMINADAS POR EL MINISTERIO DEL INTERIOR DE LA ADMINISTRACIÓN GENERAL DEL ESTADO ESPAÑOL, DE FORMA QUE NO PUEDAN CONFUNDIRSE CON LOS SERVICIOS ACTIVIDADES ESPECÍFICAMENTE ATRIBUIDAS A LAS FUERZAS ARMADAS NI CON LOS DE LAS FUERZAS Y CUERPOS DE SEGURIDAD DEL ESTADO.\r\nE) LA INSTALACIÓN Y MANTENIMIENTO DE APARATOS, DISPOSITIVOS Y SISTEMAS DE SEGURIDAD.\r\nF) LA EXPLOTACIÓN DE CENTRALES PARA LA RECEPCIÓN, VERIFICACIÓN Y TRANSMISIÓN DE LAS SEÑALES DE ALARMA Y SU COMUNICACIÓN CON LAS FUERZAS Y CUERPOS DE SEGURIDAD DEL ESTADO, ASÍ COMO LA PRESTACIÓN DE SERVICIOS DE RESPUESTA CUYA REALIZACIÓN NO SEA DE LA COMPETENCIA DE DICHAS FUERZAS Y CUERPOS.\r\nG) LA PLANIFICACIÓN Y ASESORAMIENTO DE LAS ACTIVIDADES DE SEGURIDAD CONTEMPLADAS EN LA ENUNCIADA LEY 23/1992, DE 30 DE JULIO, DE SEGURIDAD PRIVADA.\r\nH) LA CREACIÓN DE CENTROS DE FORMACIÓN Y ACTUALIZACIÓN PARA EL PERSONAL DE EMPRESAS DE SEGURIDAD, DE ACUERDO CON LO PREVISTO EN LA CITADA LEY",
      "mainEntityOfPage": "https://www.contratacion.euskadi.eus/webkpe00-kperoc/es/ac71aBusquedaRegistrosWar/empresa/03561",
      "_links": {
        "self": {
          "name": "DIRU BILKETA SEGURIDAD, S.A.",
          "href": "https://api.euskadi.eus/procurements/companies/03561"
        }
      }
    }
  ]
}