{
  "totalItems": 9042,
  "totalPages": 905,
  "currentPage": 247,
  "itemsOfPage": 10,
  "items": [
    {
      "name": "CAREERS & JOBS, S.L.",
      "registrationNumber": "05812",
      "identificationNumber": "B20599650",
      "address": "CALLE URDANETA 18 BAJO",
      "location": {
        "postalCode": "20006",
        "municipality": "Donostia / San Sebastián",
        "county": "Gipuzkoa",
        "municipalityId": "069",
        "countyId": "20"
      },
      "economicActivities": [
        {
          "id": "1.932.1",
          "name": "Enseñanza de formación y perfeccionamiento profesional no superior",
          "_links": {
            "self": {
              "name": "Enseñanza de formación y perfeccionamiento profesional no superior",
              "href": "https://api.euskadi.eus/procurements/companies/economic-activities/1.932.1"
            }
          }
        },
        {
          "id": "1.934",
          "name": "Enseñanza fuera de establecimiento permanente",
          "_links": {
            "self": {
              "name": "Enseñanza fuera de establecimiento permanente",
              "href": "https://api.euskadi.eus/procurements/companies/economic-activities/1.934"
            }
          }
        }
      ],
      "certificateStartDate": "2025-09-28",
      "certificateEndDate": "2026-03-28",
      "object": "LA ORIENTACIÓN LABORAL, PROFESIONAL Y EDUCATIVA, LA INTERMEDIACIÓN LABORAL, LA PROSPECCIÓN LABORAL, LA FORMACIÓN OCUPACIONAL Y CONTINUA, FORMACIÓN PARA EL EMPLEO, EL ASESORAMIENTO A EMPRESAS DE NUEVA CREACIÓN, IGUALDAD DE OPORTUNIDADES, SELECCIÓN DE PERSONAL, LA ORIENTACIÓN E INSERCIÓN LABORAL A PERSONAS EN DESEMPLEO Y PERSONAS TRABAJADORAS, A EMPRESAS, A COLECTIVOS EN SITUACIÓN O RIESGO DE EXCLUSIÓN Y/O PERSONAS CON DISCAPACIDAD Y/O PERSONAS EN SITUACIÓN DE DESVENTAJA SOCIAL O LABORAL Y/O PERSONAS PERTENECIENTES A LA COMUNIDAD GITANA Y/O PERSONAS RECLUSAS O EX RECLUSAS, LA IGUALDAD DE OPORTUNIDADES ENTRE MUJERES Y HOMBRES",
      "mainEntityOfPage": "https://www.contratacion.euskadi.eus/webkpe00-kperoc/es/ac71aBusquedaRegistrosWar/empresa/05812",
      "_links": {
        "self": {
          "name": "CAREERS & JOBS, S.L.",
          "href": "https://api.euskadi.eus/procurements/companies/05812"
        }
      }
    },
    {
      "name": "MADERAS SARATXAGA, S.L.",
      "registrationNumber": "06783",
      "identificationNumber": "B95036695",
      "address": "BARRIO GURUTZALDE, 43",
      "location": {
        "postalCode": "48480",
        "municipality": "Zaratamo",
        "county": "Bizkaia",
        "municipalityId": "097",
        "countyId": "48"
      },
      "economicActivities": [
        {
          "id": "1.617.3",
          "name": "Venta al por mayor de madera y corcho",
          "_links": {
            "self": {
              "name": "Venta al por mayor de madera y corcho",
              "href": "https://api.euskadi.eus/procurements/companies/economic-activities/1.617.3"
            }
          }
        },
        {
          "id": "1.912",
          "name": "Servicios forestales",
          "_links": {
            "self": {
              "name": "Servicios forestales",
              "href": "https://api.euskadi.eus/procurements/companies/economic-activities/1.912"
            }
          }
        }
      ],
      "certificateStartDate": "2025-09-28",
      "certificateEndDate": "2026-03-28",
      "object": "A) COMPRA, VENTA, IMPORTACIÓN, EXPORTACIÓN, MEDIACIÓN, REPRESENTACIÓN, ALMACENAMIENTO, DEPÓSITO, MANIPULACIÓN, TRANSFORMACIÓN, FABRICACIÓN Y GESTIÓN DE TODA CLASE DE MERCANCÍAS, BIENES MUEBLES Y PRODUCTOS DE USOS Y CONSUMO RELATIVOS A LOS INDUSTRIAS DE: MADERA, CORCHO, MUEBLES Y PAPEL. B) PLANIFICACIÓN, PROYECTO Y EJECUCIÓN DE TODA CLASE DE TRABAJOS FORESTALES Y DE CONSERVACIÓN DE LA NATURALEZA, ASÍ COMO EL ASESORAMIENTO Y CONSULTORÍA EN DICHAS MATERIAS. LA ENSEÑANZA Y FORMACIÓN DE PROFESIONALES ESPECIALIZADOS EN LABORES FORESTALES. LA PRESTACIÓN DE SERVICIOS DE TODO TIPO EN RELACIÓN CON LAS ACTIVIDADES SEÑALADAS EN ESTE APARTADO, SIN LIMITACIÓN ALGUNA. C) TRANSPORTE NACIONAL E INTERNACIONAL DE MERCANCÍAS Y VIAJEROS POR CUALQUIER MEDIO, TERRESTRE, MARÍTIMO O AÉREO. AGENCIA DE TRANSPORTE Y TRÁNSITO. ALQUILER Y SERVICIO DE CONTENEDORES",
      "mainEntityOfPage": "https://www.contratacion.euskadi.eus/webkpe00-kperoc/es/ac71aBusquedaRegistrosWar/empresa/06783",
      "_links": {
        "self": {
          "name": "MADERAS SARATXAGA, S.L.",
          "href": "https://api.euskadi.eus/procurements/companies/06783"
        }
      }
    },
    {
      "name": "DIDÁCTICA, S.L.",
      "registrationNumber": "00561",
      "identificationNumber": "B48150536",
      "address": "C/ BOTIKA VIEJA, 20",
      "location": {
        "postalCode": "48014",
        "municipality": "Bilbao",
        "county": "Bizkaia",
        "municipalityId": "020",
        "countyId": "48"
      },
      "economicActivities": [
        {
          "id": "1.619.1",
          "name": "Venta al por mayor de juguetes y artículos de deporte",
          "_links": {
            "self": {
              "name": "Venta al por mayor de juguetes y artículos de deporte",
              "href": "https://api.euskadi.eus/procurements/companies/economic-activities/1.619.1"
            }
          }
        },
        {
          "id": "1.619.5",
          "name": "Venta al por mayor de artículos de papelería y escritorios",
          "_links": {
            "self": {
              "name": "Venta al por mayor de artículos de papelería y escritorios",
              "href": "https://api.euskadi.eus/procurements/companies/economic-activities/1.619.5"
            }
          }
        }
      ],
      "certificateStartDate": "2025-09-27",
      "certificateEndDate": "2026-03-27",
      "object": "LA VENTA DE MATERIAL DIDÁCTICO, ESCOLAR, AUDIOVISUAL, MATERIAL DE ESCRITORIO, PAPELERÍA, MATERIAL DEPORTIVO, MÁQUINAS DE ESCRIBIR, FOTOCOPIADORAS, MULTICOPIADORAS, GRABADORES DE CLICHES, PROYECTOS DE CINE, DIAPOSITIVAS, PELÍCULAS, INSTRUMENTOS MUSICALES, EXPLOTACIÓN E IMPORTACIÓN DE LOS MISMOS, COMPRA AL POR MAYOR Y MENOR, FABRICACIÓN DE MATERIAL DE JUEGOS DIDÁCTICOS Y PAPELERÍA EN GENERAL, IMPRENTA, VENTA DE ROPA CONFECCIONADA DE UNIFORMES, EQUIPOS DE REHABILITACIÓN, MOBILIARIO ESCOLAR Y JUGUETERÍA",
      "mainEntityOfPage": "https://www.contratacion.euskadi.eus/webkpe00-kperoc/es/ac71aBusquedaRegistrosWar/empresa/00561",
      "_links": {
        "self": {
          "name": "DIDÁCTICA, S.L.",
          "href": "https://api.euskadi.eus/procurements/companies/00561"
        }
      }
    },
    {
      "name": "RIOJANA DE AUTOCARES, S.L.",
      "registrationNumber": "05225",
      "identificationNumber": "B26049825",
      "address": "La Nevera 12 ",
      "location": {
        "postalCode": "26006",
        "municipality": "Logroño",
        "county": "Rioja, La",
        "municipalityId": "089",
        "countyId": "26"
      },
      "economicActivities": [
        {
          "id": "1.721.2",
          "name": "Transporte por autotaxis",
          "_links": {
            "self": {
              "name": "Transporte por autotaxis",
              "href": "https://api.euskadi.eus/procurements/companies/economic-activities/1.721.2"
            }
          }
        },
        {
          "id": "1.721.3",
          "name": "Transporte de viajeros por carretera",
          "_links": {
            "self": {
              "name": "Transporte de viajeros por carretera",
              "href": "https://api.euskadi.eus/procurements/companies/economic-activities/1.721.3"
            }
          }
        },
        {
          "id": "1.854.1",
          "name": "Alquiler de automóviles sin conductor",
          "_links": {
            "self": {
              "name": "Alquiler de automóviles sin conductor",
              "href": "https://api.euskadi.eus/procurements/companies/economic-activities/1.854.1"
            }
          }
        },
        {
          "id": "1.861.2",
          "name": "Alquiler de locales industriales y otros alquileres n.c.o.p",
          "_links": {
            "self": {
              "name": "Alquiler de locales industriales y otros alquileres n.c.o.p",
              "href": "https://api.euskadi.eus/procurements/companies/economic-activities/1.861.2"
            }
          }
        }
      ],
      "certificateStartDate": "2025-09-27",
      "certificateEndDate": "2026-03-25",
      "object": "LA REALIZACIÓN DE SERVICIOS PÚBLICOS DE TANSPORTE MECÁNICO POR CARRETERA, DE VIAJEROS, EQUIPAJES Y ENCARGOS, TANTO REGULARES COMO DISCRECIONALES, AL AMPARO DE LAS CONCESIONES O AUTORIZACIONES OFICIALES PERTINENTES",
      "mainEntityOfPage": "https://www.contratacion.euskadi.eus/webkpe00-kperoc/es/ac71aBusquedaRegistrosWar/empresa/05225",
      "_links": {
        "self": {
          "name": "RIOJANA DE AUTOCARES, S.L.",
          "href": "https://api.euskadi.eus/procurements/companies/05225"
        }
      }
    },
    {
      "name": "LUTXANA 4, S.L.P.",
      "registrationNumber": "09074",
      "identificationNumber": "B95588638",
      "address": "LUTXANA Nº 4 - 5º DCHA.",
      "location": {
        "postalCode": "48008",
        "municipality": "Bilbao",
        "county": "Bizkaia",
        "municipalityId": "020",
        "countyId": "48"
      },
      "economicActivities": [
        {
          "id": "1.841",
          "name": "Servicios jurídicos",
          "_links": {
            "self": {
              "name": "Servicios jurídicos",
              "href": "https://api.euskadi.eus/procurements/companies/economic-activities/1.841"
            }
          }
        },
        {
          "id": "1.842",
          "name": "Servicios financieros y contables",
          "_links": {
            "self": {
              "name": "Servicios financieros y contables",
              "href": "https://api.euskadi.eus/procurements/companies/economic-activities/1.842"
            }
          }
        }
      ],
      "certificateStartDate": "2025-09-27",
      "certificateEndDate": "2026-03-25",
      "object": "LA PRESTACIÓN DE TODA CLASE DE SERVICIOS JURÍDICOS Y REALIZACIÓN DE TODAS LAS ACTIVIDADES PROPIAS DEL EJERCICIO DE LA ABOGACÍA. LA PRESTACIÓN DE SERVICIOS FINANCIEROS, CONTABLES Y FISCALES, INCLUYENDO LA PRESTACIÓN DE SERVICIOS DE CONTABILIDAD, TENEDURÍA DE LIBROS, CENSURA DE CUENTAS, AUDITORÍA, MATERIA FISCAL ECONÓMICA Y FINANCIERA Y DE OTROS SERVICIOS INDEPENDIENTESW DE ASESORÍA FISCAL Y CONTABLE, INCLUYENDO LA TASACIÓN PERICIAL EN LA MATERIA. LA ORGANIZACIÓN Y EJECUCIÓN DE ACTIVIDADES DOCENTES Y DE INVESTIGACIÓN, DISEÑO E INNOVACIÓN, Y DE DIFUSIÓN EN EL ÁMBITO DE LAS CIENCIAS SOCIALES.",
      "mainEntityOfPage": "https://www.contratacion.euskadi.eus/webkpe00-kperoc/es/ac71aBusquedaRegistrosWar/empresa/09074",
      "_links": {
        "self": {
          "name": "LUTXANA 4, S.L.P.",
          "href": "https://api.euskadi.eus/procurements/companies/09074"
        }
      }
    },
    {
      "name": "JOSE ANTONIO ECHEVARRIA ECHEVARRIA",
      "registrationNumber": "08459",
      "identificationNumber": "30610640D",
      "address": "CASERIO EGURRUTU  Bº IBARRA S/N",
      "location": {
        "postalCode": "48410",
        "municipality": "Orozko",
        "county": "Bizkaia",
        "municipalityId": "075",
        "countyId": "48"
      },
      "economicActivities": [
        {
          "id": "1.617.3",
          "name": "Venta al por mayor de madera y corcho",
          "_links": {
            "self": {
              "name": "Venta al por mayor de madera y corcho",
              "href": "https://api.euskadi.eus/procurements/companies/economic-activities/1.617.3"
            }
          }
        },
        {
          "id": "1.912",
          "name": "Servicios forestales",
          "_links": {
            "self": {
              "name": "Servicios forestales",
              "href": "https://api.euskadi.eus/procurements/companies/economic-activities/1.912"
            }
          }
        }
      ],
      "certificateStartDate": "2025-09-27",
      "certificateEndDate": "2026-03-24",
      "object": "VENTA AL POR MAYOR DE CEREALES. VENTA AL POR MAYOR DE MADERA Y CORCHO. SERVICIOS FORESTALES.",
      "mainEntityOfPage": "https://www.contratacion.euskadi.eus/webkpe00-kperoc/es/ac71aBusquedaRegistrosWar/empresa/08459",
      "_links": {
        "self": {
          "name": "JOSE ANTONIO ECHEVARRIA ECHEVARRIA",
          "href": "https://api.euskadi.eus/procurements/companies/08459"
        }
      }
    },
    {
      "name": "VICENTE MENDI GARCIA",
      "registrationNumber": "08329",
      "identificationNumber": "16541870V",
      "address": "AVENIDA ESPAÑA, 4",
      "location": {
        "postalCode": "26001",
        "municipality": "Logroño",
        "county": "Rioja, La",
        "municipalityId": "089",
        "countyId": "26"
      },
      "economicActivities": [
        {
          "id": "1.673.2",
          "name": "Otros cafés y bares",
          "_links": {
            "self": {
              "name": "Otros cafés y bares",
              "href": "https://api.euskadi.eus/procurements/companies/economic-activities/1.673.2"
            }
          }
        },
        {
          "id": "1.921.9",
          "name": "Otros servicios de saneamiento y similares n.c.o.p",
          "_links": {
            "self": {
              "name": "Otros servicios de saneamiento y similares n.c.o.p",
              "href": "https://api.euskadi.eus/procurements/companies/economic-activities/1.921.9"
            }
          }
        },
        {
          "id": "1.942.9",
          "name": "Otros servicios sanitarios sin internados, no clasificados",
          "_links": {
            "self": {
              "name": "Otros servicios sanitarios sin internados, no clasificados",
              "href": "https://api.euskadi.eus/procurements/companies/economic-activities/1.942.9"
            }
          }
        },
        {
          "id": "1.967.1",
          "name": "Instalaciones deportivas",
          "_links": {
            "self": {
              "name": "Instalaciones deportivas",
              "href": "https://api.euskadi.eus/procurements/companies/economic-activities/1.967.1"
            }
          }
        }
      ],
      "certificateStartDate": "2025-09-27",
      "certificateEndDate": "2026-03-24",
      "object": "INSTALACIONES DEPORTIVAS. OTROS SERVICIOS SANITARIOS SIN INTERNADOS, NO CLASIFICADOS. OTROS CAFÉS Y BARES.",
      "mainEntityOfPage": "https://www.contratacion.euskadi.eus/webkpe00-kperoc/es/ac71aBusquedaRegistrosWar/empresa/08329",
      "_links": {
        "self": {
          "name": "VICENTE MENDI GARCIA",
          "href": "https://api.euskadi.eus/procurements/companies/08329"
        }
      }
    },
    {
      "name": "ZABALDUZ KOOP. ELK",
      "registrationNumber": "05295",
      "identificationNumber": "F75108126",
      "address": "Ibaiondo Poligonoa 27  4º solairua Edificio Orbegozo ",
      "location": {
        "postalCode": "20120",
        "municipality": "Hernani",
        "county": "Gipuzkoa",
        "municipalityId": "040",
        "countyId": "20"
      },
      "economicActivities": [
        {
          "id": "1.951",
          "name": "Asistencia y servicios sociales en centros residenciales",
          "_links": {
            "self": {
              "name": "Asistencia y servicios sociales en centros residenciales",
              "href": "https://api.euskadi.eus/procurements/companies/economic-activities/1.951"
            }
          }
        },
        {
          "id": "1.952",
          "name": "Asistencia y servicios sociales en centros no residenciales",
          "_links": {
            "self": {
              "name": "Asistencia y servicios sociales en centros no residenciales",
              "href": "https://api.euskadi.eus/procurements/companies/economic-activities/1.952"
            }
          }
        }
      ],
      "certificateStartDate": "2025-09-26",
      "certificateEndDate": "2026-03-09",
      "object": "PROYECTOS INTEGRALES (SOCIOEDUCATIVOS, TERAPÉUTICOS) DE ALOJAMIENTO Y CONVIVENCIA QUE PERMITAN ORIENTAR, DEFINIR Y CONSOLIDAR EL PROYECTO DE VIDA DE LAS Y LOS MENORES Y JÓVENES EN SITUACIÓN DE DESPROTECCIÓN Y/O RIESGO DE EXCLUSIÓN. PROGRAMAS DE ACOMPAÑAMIENTO Y DE INCLUSIÓN RESIDENCIAL PARA PERSONAS MAYORES DE EDAD QUE SE ENCUENTREN EN SITUACIÓN DE INFRAVIVIENDA, VIVIENDO EN LA CALLE, O EN SITUACIÓN DE EXCLUSIÓN O DEMANDA DE APOYO SOCIAL. PROGRAMAS DE INCORPORACIÓN SOCIAL Y/O LABORAL Y DE ACOMPAÑAMIENTO A PERSONAS EN SITUACIÓN DE RIESGO DE EXCLUSIÓN. PROGRAMAS DE EDUCACIÓN AMBIENTAL PARA EL DESARROLLO DE LAS PERSONAS, GENERANDO CONCIENCIA Y SOLUCIONES PERTINENTES A LOS PROBLEMAS AMBIENTALES MEDIANTE ACTUACIONES DE PREVENCIÓN Y ESTRATEGIAS EN CONEXIÓN CON EL DESARROLLO COMUNITARIO. PROGRAMAS DE EDUCACIÓN PARA LA SALUD A LO LARGO DE TODO EL CICLO VITAL, CON INCIDENCIA EN TODOS LOS ÁMBITOS DE LA VIDA DIARIA (SANITARIO, ESCOLAR, COMUNITARIO, ...) Y CON UN ENFOQUE POSITIVO E INTEGRAL A TRAVÉS DE ACTUACIONES DE PROMOCIÓN DE ESTILOS DE VIDA SALUDABLES. PROGRAMAS DE INTERVENCIÓN FAMILIAR Y COMUNITARIA, EDUCACIÓN FAMILIAR, PARENTALIDAD POSITIVA Y APOYO PSICOSOCIAL A FAMILIAS Y PERSONAS A LO LARGO DE TODAS LAS ETAPAS DE LA VIDA. PROGRAMAS EN EL ÁMBITO DE LA COOPERACIÓN AL DESARROLLO QUE INCIDAN EN EL PROGRESO ECONÓMICO Y SOCIAL. GENERAR Y COMPARTIR CONOCIMIENTO SOBRE EL ÁMBITO DE ACTUACIÓN Y LAS INTERVENCIONES REALIZADAS PROMOCIONANDO ACTIVIDADES DE FORMACIÓN, INVESTIGACIÓN Y DIFUSIÓN.",
      "mainEntityOfPage": "https://www.contratacion.euskadi.eus/webkpe00-kperoc/es/ac71aBusquedaRegistrosWar/empresa/05295",
      "_links": {
        "self": {
          "name": "ZABALDUZ KOOP. ELK",
          "href": "https://api.euskadi.eus/procurements/companies/05295"
        }
      }
    },
    {
      "name": "SERVICIOS EMPRESARIALES LANKIDE BI S.L.",
      "registrationNumber": "05338",
      "identificationNumber": "B01501535",
      "address": "Capelamendi nº7",
      "location": {
        "postalCode": "01013",
        "municipality": "Vitoria-Gasteiz",
        "county": "Araba/Álava",
        "municipalityId": "059",
        "countyId": "01"
      },
      "economicActivities": [
        {
          "id": "1.849.9",
          "name": "Otros servicios independientes n.c.o.p",
          "_links": {
            "self": {
              "name": "Otros servicios independientes n.c.o.p",
              "href": "https://api.euskadi.eus/procurements/companies/economic-activities/1.849.9"
            }
          }
        }
      ],
      "certificateStartDate": "2025-09-26",
      "certificateEndDate": "2026-03-15",
      "object": "A) LA ORGANIZACIÓN, PLANIFICACIÓN Y GESTIÓN DE ACCIONES CULTURALES, LÚDICAS, SOCIALES, DEPORTIVAS, EDUCATIVAS Y COMUNICATIVAS. B) GESTIÓN DE  EQUIPAMIENTOS Y SERVICIOS, CAMPAÑAS DE COMUNICACIÓN Y ORGANIZACIÓN TÉCNICA DE ACTOS Y REPRESENTACIÓN DE TERCEROS PARA DICHAS ACCIONES",
      "mainEntityOfPage": "https://www.contratacion.euskadi.eus/webkpe00-kperoc/es/ac71aBusquedaRegistrosWar/empresa/05338",
      "_links": {
        "self": {
          "name": "SERVICIOS EMPRESARIALES LANKIDE BI S.L.",
          "href": "https://api.euskadi.eus/procurements/companies/05338"
        }
      }
    },
    {
      "name": "ELECTRICIDAD CELEDONIO NIETO, S.L.",
      "registrationNumber": "06851",
      "identificationNumber": "B48305627",
      "address": "POLIGONO BALLONTI PABELLON 3 B ",
      "location": {
        "postalCode": "48920",
        "municipality": "Portugalete",
        "county": "Bizkaia",
        "municipalityId": "078",
        "countyId": "48"
      },
      "economicActivities": [
        {
          "id": "1.504.12",
          "name": "Instalaciones eléctricas en toda clase de edificios",
          "_links": {
            "self": {
              "name": "Instalaciones eléctricas en toda clase de edificios",
              "href": "https://api.euskadi.eus/procurements/companies/economic-activities/1.504.12"
            }
          }
        }
      ],
      "certificateStartDate": "2025-09-26",
      "certificateEndDate": "2026-03-24",
      "object": "LAS INSTALACIONES Y MONTAJES ELÉCTRICOS , PARTICULARES E INDUSTRIALES",
      "mainEntityOfPage": "https://www.contratacion.euskadi.eus/webkpe00-kperoc/es/ac71aBusquedaRegistrosWar/empresa/06851",
      "_links": {
        "self": {
          "name": "ELECTRICIDAD CELEDONIO NIETO, S.L.",
          "href": "https://api.euskadi.eus/procurements/companies/06851"
        }
      }
    }
  ]
}