{
  "totalItems": 9042,
  "totalPages": 905,
  "currentPage": 458,
  "itemsOfPage": 10,
  "items": [
    {
      "name": "WEETBE, S.L.",
      "registrationNumber": "09083",
      "identificationNumber": "B42835751",
      "address": "Ribera de Zorrozaurre, 2A",
      "location": {
        "postalCode": "48014",
        "municipality": "Bilbao",
        "county": "Bizkaia",
        "municipalityId": "020",
        "countyId": "48"
      },
      "economicActivities": [
        {
          "id": "1.843.1",
          "name": "Servicios técnicos de ingeniería",
          "_links": {
            "self": {
              "name": "Servicios técnicos de ingeniería",
              "href": "https://api.euskadi.eus/procurements/companies/economic-activities/1.843.1"
            }
          }
        }
      ],
      "certificateStartDate": "2023-06-20",
      "certificateEndDate": "2023-12-19",
      "object": "EL DESARROLLO DE LAS ACTIVIDADES CORRESPONDIENTES A LOS SIGUIENTES CÓDIGOS Y DESCRIPCIONES DE LA CLASIFICACIÓN NACIONAL DE ACTIVIDADES ECONÓMICAS: ACTIVIDAD PRINCIPAL: CNAE: 7112. - SERVICIOS TÉCNICOS DE INGENIERÍA Y OTRAS ACTIVIDADES RELACIONADAS CON EL ASESORAMIENTO TÉCNICO.",
      "mainEntityOfPage": "https://www.contratacion.euskadi.eus/webkpe00-kperoc/es/ac71aBusquedaRegistrosWar/empresa/09083",
      "_links": {
        "self": {
          "name": "WEETBE, S.L.",
          "href": "https://api.euskadi.eus/procurements/companies/09083"
        }
      }
    },
    {
      "name": "ERKI CONSTRUCCION SOSTENIBLE S.L.",
      "registrationNumber": "06236",
      "identificationNumber": "B71316723",
      "address": "CALLE BERROA Nº 4 OFICINA 112",
      "location": {
        "postalCode": "31192",
        "municipality": "Pamplona/Iruña",
        "county": "Navarra",
        "municipalityId": "201",
        "countyId": "31"
      },
      "economicActivities": [
        {
          "id": "1.501.1",
          "name": "Construcción completa, reparación y conservación de edificaciones",
          "_links": {
            "self": {
              "name": "Construcción completa, reparación y conservación de edificaciones",
              "href": "https://api.euskadi.eus/procurements/companies/economic-activities/1.501.1"
            }
          }
        }
      ],
      "certificateStartDate": "2023-06-12",
      "certificateEndDate": "2023-12-12",
      "object": "LA CONSTRUCCIÓN DE OBRAS DE TODA CLASE EN ESPECIAL DE EDIFICIOS URBANOS O COMERCIALES, ASÍ COMO DE INFRAESTRUCTURAS DE SANEAMIENTO, ABASTECIMIENTO DE AGUAS, MOVIMIENTO DE TIERRAS, CARRETERAS Y URBANIZACIÓN CON CÓDIGO EN LA CLASIFICACIÓN NACIONAL DE ACTIVIDADES ECONÓMICAS O CNAE.:4121 (CONSTRUCCIÓN DE EDIFICIOS RESIDENCIALES), SIENDO ÉSTA SU ACTIVIDAD PRINCIPAL. LA INTERMEDIACIÓN EN EL ASESORAMIENTO Y LA REALIZACIÓN DE TODO TIPO DE GESTIÓN, PROMOCIÓN E INTERMEDIACIÓN EN LA ELABORACIÓN Y DISEÑO DE PROYECTOS, DIRECCIONES TÉCNICAS Y/O ECONÓMICAS DE CUALQUIER CLASE DE OBRA O INSTALACIÓN",
      "mainEntityOfPage": "https://www.contratacion.euskadi.eus/webkpe00-kperoc/es/ac71aBusquedaRegistrosWar/empresa/06236",
      "_links": {
        "self": {
          "name": "ERKI CONSTRUCCION SOSTENIBLE S.L.",
          "href": "https://api.euskadi.eus/procurements/companies/06236"
        }
      }
    },
    {
      "name": "ADDENDO ESTRATEGAS, S.L.",
      "registrationNumber": "09060",
      "identificationNumber": "B01583558",
      "address": "PORTAL DE CASTILLA 116",
      "location": {
        "postalCode": "01007",
        "municipality": "Vitoria-Gasteiz",
        "county": "Araba/Álava",
        "municipalityId": "059",
        "countyId": "01"
      },
      "economicActivities": [
        {
          "id": "1.934",
          "name": "Enseñanza fuera de establecimiento permanente",
          "_links": {
            "self": {
              "name": "Enseñanza fuera de establecimiento permanente",
              "href": "https://api.euskadi.eus/procurements/companies/economic-activities/1.934"
            }
          }
        }
      ],
      "certificateStartDate": "2023-06-09",
      "certificateEndDate": "2023-11-30",
      "object": "LA REALIZACIÓN DE ESTRATEGIAS Y ACTIVIDADES DESTINADAS A PROMOCIONAR LA CULTURA Y LA CONCIENCIA DE LA SEGURIDAD. ORGANIZACIÓN Y REALIZACIÓN DE EVENTOS Y CONGRESOS. FORMACIÓN EN AUTOPROTECCI6N Y SEGURIDAD. ELABORACIÓN DE ESTRATEGIAS Y PROTOCOLOS DE PREVENCIÓN Y CONTENCIÓN DE CONFLICTOS Y AGRESIONES. VENTA DE PRODUCTOS POR INTERNET. REALIZACIÓN DE CURSOS Y TALLERES DE PSICOLOGÍA, CRIMINOLOGÍA, DEFENSA PERSONAL Y SOCIOLOGÍA. CONSULTORÍA Y ASESORÍA DE SEGURIDAD, PROTECCIÓN, AUTODEFENSA Y CRIMINOLOGÍA AMBIENTAL PARA EMPRESAS E INSTITUCIONES. ­GESTIÓN DE RECURSOS HUMANOS. REALIZACIÓN DE ENTREVISTAS PERSONALES A LOS CANDIDATOS DE OTRAS EMPRESAS. REALIZACIÓN Y VENTA DE MATERIAL DIDÁCTICO DE DISTINTOS ÁMBITOS. PROMOCIÓN Y DEFENSA DE LOS DERECHOS HUMANOS. PREVENCIÓN CIVIL Y MARÍTIMA. PROTECCIÓN DEL MEDIO AMBIENTE. PREVENCIÓN DE\tLA CONTAMINACIÓN DEL MEDIOAMBIENTE. ORGANIZACIÓN DE JORNADAS Y ACTIVIDADES CULTURALES. MANTENIMIENTO DE REDES SOCIALES. ­REALIZACIÓN DE CARTELERÍA Y FOLLETOS. ­IMPARTICIÓN DE CURSOS DE DEFENSA PERSONAL. PROTECCIÓN DE LA INFANCIA. PREVENCIÓN DEL BULLYING. CONCIENCIACIÓN DE LOS PELIGROS DEL CONSUMO DE DROGAS Y ALCOHOL. EDUCACIÓN EN EL RECHAZO A LA VIOLENCIA. CONTRIBUIR AL BIENESTAR SOCIAL. TALLERES Y CHARLAS SOBRE CONTROL\tDE LA AGRESIVIDAD. CURSOS DE AUTODEFENSA Y CONTENCIÓN VERBAL. CURSOS DE AUTOCONTROL EMOCIONAL. TERAPIA OCUPACIONAL PARA DISTINTOS COLECTIVOS. ELABORACIÓN DE ESTUDIOS SOBRE LA VIOLENCIA Y LOS CONFLICTOS DESDE UN PRISMA   CRIMINOLÓGICO. INFORMACIÓN, ORIENTACIÓN Y SEGUIMIENTO EN LA ADOLESCENCIA Y DIVERSIÓN SEGURA. ELABORACIÓN DE MANUALES DE AUTOPROTECCIÓN. JORNADAS DE CONCIENCIACIÓN SOBRE LOS RIESGOS DE LAS NUEVAS    TECNOLOGÍAS. PREVENCIÓN DEL MOBBING. CURSOS DE GESTIÓN DE EMOCIONES NEGATIVAS Y ACTITUDES DISOCIATIVAS. CHARLAS, TALLERES Y CURSOS DE TERAPIAS HOLÍSTICAS. COLABORACIÓN EN LA CREACIÓN DE GIMNASIOS. CREACIÓN DE CENTROS DE FORMACIÓN. COLABORACIÓN EN LA CREACIÓN DE ASOCIACIONES. EMPODERAMIENTO DE LA MUJER EN TODOS LOS ÁMBITOS. ANÁLISIS DEL DELITO EN TODOS LOS ÁMBITOS. ENTRENAMIENTO EN EDUCACIÓN Y EJERCICIO FÍSICO. SERVICIO DE PREVENCIÓN DE RIESGOS LABORALES. ERRADICACIÓN DE LA VIOLENCIA POR MEDIO DE HERRAMIENTAS VARIADAS. IMPARTIR FORMACIÓN A NIVEL NACIONAL. COLABORACIÓN CON UNIVERSIDADES, EMPRESAS, SINDICATOS, ASOCIACIONES SIN ÁNIMO DE LUCRO. CONSTITUIR CLUBS DE ARTES MARCIALES.\t­CREACIÓN DE APPS. INVESTIGACIÓN DE NUEVAS TECNOLOGÍAS. CREACIÓN DE CONTENIDO MULTIMEDIA. FORMACIÓN EN LAS DIFERENTES TÉCNICAS DE AUTOPROTECCI6N. JORNADAS DE INCLUSIÓN SOCIAL. FORMACIÓN Y CAPACITACIÓN DE PROFESORES EN LOS DISTINTOS ÁMBITOS LABORALES. CREACIÓN DE AGENCIA DE PUBLICIDAD Y MARKETING. TIENE COMA OBJETO LA ESPECIALIZACI6N EN EL ÁMBITO FORMATIVO Y DE SEGURIDAD, APORTANDO UNOS SERVICIOS DESDE UNA ÓPTICA INNOVADORA E INTEGRAL EN EL ÁMBITO DE LA CULTURA HISPÁNICA Y EN APOYO DE LAS DECISIONES ESTRATÉGICAS DE EMPRESAS E INSTITUCIONES. DOTAR A LAS PERSONAS DE HERRAMIENTAS EFICACES PARA PREVENIR Y AFRONTAR CUALQUIER TIPO DE VIOLENCIA. EN DEFINITIVA, FORTALECER A LAS PERSONAS Y HACER QUE SE SIENTAN MÁS SEGURAS. LAS ACTIVIDADES DEFINIDAS EN EL ARTÍCULO 5 DE LA LEY 5/2012, DE SEIS DE JULIO, DE MEDIACIÓN EN ASUNTOS CIVILES Y MERCANTILES CORNO INSTITUCIÓN DE MEDIACIÓN.",
      "mainEntityOfPage": "https://www.contratacion.euskadi.eus/webkpe00-kperoc/es/ac71aBusquedaRegistrosWar/empresa/09060",
      "_links": {
        "self": {
          "name": "ADDENDO ESTRATEGAS, S.L.",
          "href": "https://api.euskadi.eus/procurements/companies/09060"
        }
      }
    },
    {
      "name": "T2O ADMEDIA SERVICES, S.L.",
      "registrationNumber": "08772",
      "identificationNumber": "B83859850",
      "address": "Calle del Poeta Joan Maragall 1 ",
      "location": {
        "postalCode": "28020",
        "municipality": "Madrid",
        "county": "Madrid",
        "municipalityId": "079",
        "countyId": "28"
      },
      "economicActivities": [
        {
          "id": "1.844",
          "name": "Servicios de publicidad, relaciones públicas y similares",
          "_links": {
            "self": {
              "name": "Servicios de publicidad, relaciones públicas y similares",
              "href": "https://api.euskadi.eus/procurements/companies/economic-activities/1.844"
            }
          }
        }
      ],
      "certificateStartDate": "2023-06-08",
      "certificateEndDate": "2023-12-08",
      "object": "- LA COMPRA, VENTA Y DISTRIBUCIÓN DE EQUIPOS INFORMÁTICOS (HARDWARE Y SOFTWARE) - EL DESARROLLO DE TODO TIPO DE APLICACIONES INFORMÁTICAS. - LA PUBLICIDAD POR CUALQUIER MEDIO, YA SEA TRADICIONAL O ELECTRÓNICO. - LA INGENIERÍA DE SISTEMAS. - LA CONSULTORÍA EN INTERNET.",
      "mainEntityOfPage": "https://www.contratacion.euskadi.eus/webkpe00-kperoc/es/ac71aBusquedaRegistrosWar/empresa/08772",
      "_links": {
        "self": {
          "name": "T2O ADMEDIA SERVICES, S.L.",
          "href": "https://api.euskadi.eus/procurements/companies/08772"
        }
      }
    },
    {
      "name": "FRANCISCO JAVIER FERNANDEZ FERNANDEZ",
      "registrationNumber": "08790",
      "identificationNumber": "20184146J",
      "address": "SAN PEDRO Nº2-1º CENTRO ",
      "location": {
        "postalCode": "48920",
        "municipality": "Portugalete",
        "county": "Bizkaia",
        "municipalityId": "078",
        "countyId": "48"
      },
      "economicActivities": [
        {
          "id": "2.824",
          "name": "Profesores de formación y perfeccionamiento profesional",
          "_links": {
            "self": {
              "name": "Profesores de formación y perfeccionamiento profesional",
              "href": "https://api.euskadi.eus/procurements/companies/economic-activities/2.824"
            }
          }
        }
      ],
      "certificateStartDate": "2023-06-08",
      "certificateEndDate": "2023-12-04",
      "object": "PROFESORES DE FORMACIÓN Y PERFECCIONAMIENTO PROFESIONAL.",
      "mainEntityOfPage": "https://www.contratacion.euskadi.eus/webkpe00-kperoc/es/ac71aBusquedaRegistrosWar/empresa/08790",
      "_links": {
        "self": {
          "name": "FRANCISCO JAVIER FERNANDEZ FERNANDEZ",
          "href": "https://api.euskadi.eus/procurements/companies/08790"
        }
      }
    },
    {
      "name": "CENTRO EDUCACION VIAL REKORD SOCIEDAD LIMITADA",
      "registrationNumber": "09056",
      "identificationNumber": "B48845101",
      "address": "Calle General Castaños, 9",
      "location": {
        "postalCode": "48920",
        "municipality": "Portugalete",
        "county": "Bizkaia",
        "municipalityId": "078",
        "countyId": "48"
      },
      "economicActivities": [
        {
          "id": "1.861.2",
          "name": "Alquiler de locales industriales y otros alquileres n.c.o.p",
          "_links": {
            "self": {
              "name": "Alquiler de locales industriales y otros alquileres n.c.o.p",
              "href": "https://api.euskadi.eus/procurements/companies/economic-activities/1.861.2"
            }
          }
        },
        {
          "id": "1.932.1",
          "name": "Enseñanza de formación y perfeccionamiento profesional no superior",
          "_links": {
            "self": {
              "name": "Enseñanza de formación y perfeccionamiento profesional no superior",
              "href": "https://api.euskadi.eus/procurements/companies/economic-activities/1.932.1"
            }
          }
        },
        {
          "id": "1.933.1",
          "name": "Enseñanza de conducción de vehículos terrestres, acuáticos, etc",
          "_links": {
            "self": {
              "name": "Enseñanza de conducción de vehículos terrestres, acuáticos, etc",
              "href": "https://api.euskadi.eus/procurements/companies/economic-activities/1.933.1"
            }
          }
        }
      ],
      "certificateStartDate": "2023-06-08",
      "certificateEndDate": "2023-12-07",
      "object": "ACTIVIDADES CARACTERÍSTICAS DEL NEGOCIO DE LA ENSEÑANZA PARA LA OBTENCIÓN DEL PERMISO DE CONDUCIR, REALIZACIÓN DE CURSILLOS RELACIONADOS CON LA ACTIVIDAD DE LA CONDUCCIÓN Y LA GESTIÓN  Y TRAMITACIÓN DE DOCUMENTACIÓN PERTINENTE.",
      "mainEntityOfPage": "https://www.contratacion.euskadi.eus/webkpe00-kperoc/es/ac71aBusquedaRegistrosWar/empresa/09056",
      "_links": {
        "self": {
          "name": "CENTRO EDUCACION VIAL REKORD SOCIEDAD LIMITADA",
          "href": "https://api.euskadi.eus/procurements/companies/09056"
        }
      }
    },
    {
      "name": "OKATEK SERVICIOS Y CONTROL, S.L.",
      "registrationNumber": "08779",
      "identificationNumber": "B16684672",
      "address": "Calle Abendaño (01008) 37 1d",
      "location": {
        "postalCode": "01008",
        "municipality": "Vitoria-Gasteiz",
        "county": "Araba/Álava",
        "municipalityId": "059",
        "countyId": "01"
      },
      "economicActivities": [
        {
          "id": "1.843.9",
          "name": "Otros servicios técnicos n.c.o.p",
          "_links": {
            "self": {
              "name": "Otros servicios técnicos n.c.o.p",
              "href": "https://api.euskadi.eus/procurements/companies/economic-activities/1.843.9"
            }
          }
        }
      ],
      "certificateStartDate": "2023-06-08",
      "certificateEndDate": "2023-12-06",
      "object": "LOS SERVICIOS TÉCNICOS DE INGENIERÍA Y OTRAS ACTIVIDADES RELACIONADAS CON EL ASESORAMIENTO TÉCNICO. EL CNAE DE LA ACTIVIDAD PRINCIPAL DE LA SOCIEDAD ES 7112.",
      "mainEntityOfPage": "https://www.contratacion.euskadi.eus/webkpe00-kperoc/es/ac71aBusquedaRegistrosWar/empresa/08779",
      "_links": {
        "self": {
          "name": "OKATEK SERVICIOS Y CONTROL, S.L.",
          "href": "https://api.euskadi.eus/procurements/companies/08779"
        }
      }
    },
    {
      "name": "R K ABENTURA 2008 SOCIEDAD LIMITADA",
      "registrationNumber": "09053",
      "identificationNumber": "B95526075",
      "address": "ERREMENTARI BIDEA 4 BJ",
      "location": {
        "postalCode": "48630",
        "municipality": "Gorliz",
        "county": "Bizkaia",
        "municipalityId": "043",
        "countyId": "48"
      },
      "economicActivities": [
        {
          "id": "1.968.2",
          "name": "Organización de espectáculos deportivos",
          "_links": {
            "self": {
              "name": "Organización de espectáculos deportivos",
              "href": "https://api.euskadi.eus/procurements/companies/economic-activities/1.968.2"
            }
          }
        }
      ],
      "certificateStartDate": "2023-06-07",
      "certificateEndDate": "2023-11-18",
      "object": "1.-LA PROMOCIÓN Y PRESTACIÓN DE SERVICIOS RELATIVOS AL TURISMO ACTIVO, GESTIÓN DEPORTIVA. 2.-FOMENTO DEL TURISMO RURAL, GUÍAS TURÍSTICOS, ALQUILER DE EQUIPOS DEPORTIVOS, DE OCIO Y CULTURALES. 3.- LA ADQUISICIÓN Y ENAJENACIÓN POR CUALQUIER TÍTULO DE FINCAS RÚSTICAS Y URBANAS, YA SEAN TIERRAS, SOLARES, EDIFICIOS O SUS PARTES DETERMINADAS, LA PROMOCIÓN, CONSTRUCCIÓN Y REHABILITACIÓN DE ÉSTOS, Y LA TENENCIA, EXPLOTACIÓN Y ARENDAMIENTO, YA SEA ACTIVO O PASIVO DE TALES BIENES Y SU VENTA TOTAL O PARCIAL, SEGÚN CONVENGA.4.- LA ADQUISICIÓN, ENAJENACIÓN, TENENCIA Y DISFRUTE DE ACCIONES, PARTICIPACIONES SOCIALES, OBLIGACIONES, BONOS DE CAJA, CERTIFICADOS DE DEPÓSITO Y PAGARÉS DE TODO TIPO DE EMPRESAS O NEGOCIOS, PERO SIEMPRE QUE NO SE IMPLIQUE LA INTERMEDIACIÓN EN OPERACIONES SOBRE TÍTULOS VALORES Y TAMBIÉN QUE NO SEAN NEGOCIOS ATRIBUÍDOS A ENTIDADES SUJETAS A REGULACIÓN ESPECIAL, NI AQUELLAS OTRAS REGIDAS POR LAS LEYES OSOBRE MERCADO DE VALORES Y DE SOCIEDADES DE INVERSIÓN COLECTIVA.",
      "mainEntityOfPage": "https://www.contratacion.euskadi.eus/webkpe00-kperoc/es/ac71aBusquedaRegistrosWar/empresa/09053",
      "_links": {
        "self": {
          "name": "R K ABENTURA 2008 SOCIEDAD LIMITADA",
          "href": "https://api.euskadi.eus/procurements/companies/09053"
        }
      }
    },
    {
      "name": "LOBATO, RAMIREZ Y MATIAS ABOGADOS ASOCIADOS, S.L.",
      "registrationNumber": "08433",
      "identificationNumber": "B75198564",
      "address": "Calle Loiola (20005), 13 1º IZDA",
      "location": {
        "postalCode": "20005",
        "municipality": "Donostia / San Sebastián",
        "county": "Gipuzkoa",
        "municipalityId": "069",
        "countyId": "20"
      },
      "economicActivities": [
        {
          "id": "1.841",
          "name": "Servicios jurídicos",
          "_links": {
            "self": {
              "name": "Servicios jurídicos",
              "href": "https://api.euskadi.eus/procurements/companies/economic-activities/1.841"
            }
          }
        }
      ],
      "certificateStartDate": "2023-06-07",
      "certificateEndDate": "2023-12-07",
      "object": "LA PRESTACIÓN DE SERVICIOS Y ACTIVIDAD PROFESIONAL PROPIA DE LA ABOGACÍA EN SU MÁS AMPLIA CONSIDERACIÓN Y RESTO DE ACTIVIDADES JURÍDICAS, INCLUIDAS LAS ACTIVIDADES DE CONTABILIDAD, ASESORÍA FISCAL Y LABORAL, CON EL CARÁCTER DE SOCIEDAD PROFESIONAL.",
      "mainEntityOfPage": "https://www.contratacion.euskadi.eus/webkpe00-kperoc/es/ac71aBusquedaRegistrosWar/empresa/08433",
      "_links": {
        "self": {
          "name": "LOBATO, RAMIREZ Y MATIAS ABOGADOS ASOCIADOS, S.L.",
          "href": "https://api.euskadi.eus/procurements/companies/08433"
        }
      }
    },
    {
      "name": "ORMAZABAL MEDIA TENSIÓN, S.L.",
      "registrationNumber": "06959",
      "identificationNumber": "B83829267",
      "address": "C/Morse esq Franklin  - Polígono Industrial San Marcos",
      "location": {
        "postalCode": "28906",
        "municipality": "Getafe",
        "county": "Madrid",
        "municipalityId": "065",
        "countyId": "28"
      },
      "economicActivities": [
        {
          "id": "1.617.9",
          "name": "Venta al por mayor interindustrial de otros productos n.c.o.p",
          "_links": {
            "self": {
              "name": "Venta al por mayor interindustrial de otros productos n.c.o.p",
              "href": "https://api.euskadi.eus/procurements/companies/economic-activities/1.617.9"
            }
          }
        }
      ],
      "certificateStartDate": "2023-06-06",
      "certificateEndDate": "2023-12-01",
      "object": "LA VENTA, GESTIÓN, REPRESENTACIÓN, INSTALACIÓN EN SU CASO, Y COMERCIALIZACIÓN EN GENERAL DE ELEMENTOS ELÉCTRICOS Y SUS ARTÍCULOS, PARTES, TRANSFORMADOS, SUSTITUTIVOS Y DERIVADOS DE DICHA INDUSTRIA, ASÍ COMO DE LOS ELEMENTOS SIDEROMETALÚRGICOS, ELECTROTÉCNICOS, ELECTRÓNICOS Y CONSTRUCTIVOS COMPLEMENTARIOS",
      "mainEntityOfPage": "https://www.contratacion.euskadi.eus/webkpe00-kperoc/es/ac71aBusquedaRegistrosWar/empresa/06959",
      "_links": {
        "self": {
          "name": "ORMAZABAL MEDIA TENSIÓN, S.L.",
          "href": "https://api.euskadi.eus/procurements/companies/06959"
        }
      }
    }
  ]
}