{
  "totalItems": 9042,
  "totalPages": 905,
  "currentPage": 820,
  "itemsOfPage": 10,
  "items": [
    {
      "name": "EL ESPEJO, LIMPIEZA Y MANTENIMIENTO INTEGRAL, S.A.",
      "registrationNumber": "00076",
      "identificationNumber": "A48136105",
      "address": "ESTRADA DE MALA, Nº 6 - BAJO.",
      "location": {
        "postalCode": "48012",
        "municipality": "Bilbao",
        "county": "Bizkaia",
        "municipalityId": "020",
        "countyId": "48"
      },
      "economicActivities": [
        {
          "id": "1.922.1",
          "name": "Servicios de limpieza de interiores",
          "_links": {
            "self": {
              "name": "Servicios de limpieza de interiores",
              "href": "https://api.euskadi.eus/procurements/companies/economic-activities/1.922.1"
            }
          }
        }
      ],
      "certificateStartDate": "2000-06-23",
      "certificateEndDate": "2000-12-19",
      "object": "\r\n- EL EJERCICIO DE LOS SERVICIOS DE LIMPIEZA DE LOCALES Y EDIFICIOS EN GENERAL, LIMPIEZA DE FÁBRICAS, COLEGIOS, CENTROS DE ENSEÑANZA, INSTITUCIONES PÚBLICAS, POLIDEPORTIVOS Y CAMPOS DE FUTBOL, ENTIDADES BANCARIAS, URBANIZACIONEES, CENTROS COMERCIALES, GRANDES ALMACENES, CENTROS DE ASISTENCIA SANITARIA (HOSPITALES, RESIDENCIAS, AMBULATORIOS, ETC.), CINES, TEATROS, AERONAVES, BARCOS, ASTILLEROS, CENTRALES ELÉCTRICAS, NUCLEARES, TÉRMICAS, PUERTOS, AEROPUERTOS, JARDINES, PARQUES, MONTES, BOSQUES, VIVEROS, CAMINOS, CARRETERAS, VÍAS PÚBLICAS, CONDUCCIONES INDUSTRIALES Y SANITARIAS, LA DESRATIZACIÓN Y DESINFECCIÓN DE LOS MEDIOS SEÑALADOS ANTERIORMENTE O DE CUALQUIER OTRO QUE LO PRECISE, ASÍ COMO LA RECOGIDA DOMICILIARIA DE BASURAS Y RESIDUOS INDUSTRIALES Y CUALESQUIERA OTROS SERVICIOS QUE TENGAN POR OBJETO EL MANTENIMIENTO DE LOS EDIFICIOS DE CUALQUIER CLASE Y CONDICIÓN, SU ACUCHILLADO, PULIDO, LIJADO Y ENCERADO.\r\n\r\n- LA LIMPIEZA INDUSTRIAL, QUÍMICA Y ESPECIAL, EN TANQUES DE PETRÓLEO, FÁBRICAS EN ACTIVIDAD O EN PARADAS PERIÓDICAS, FACTORÍAS Y SIMILARES.\r\n\r\n- EL DESARROLLO DE ACTIVIDADES PARA LA PURIFICACIÓN DEL MEDIO AMBIENTE Y AGUAS MARÍTIMAS Y FLUVIALES, ASÍ COMO LA LIMPIEZA DE PLAYAS Y RÍOS.\r\n\r\n- LA EJECUCIÓN DE SERVICIOS DE JARDINERÍA EN GENERAL, PREPARACIÓN Y MANTENIMIENTO DE LOS TERRENOS, SIEMBRA, PODA, PLANTACIÓN, INJERTOS.\r\n\r\n- LA PRESTACIÓN DE SERVICIOS DE:\r\n1.- LAVADO, PLANCHADO, COSIDO Y SIMILARES DE TODO TIPO DE ROPA.\r\n2.- MANTENIMIENTO, REPARACIÓN Y REPOSICIÓN DE MOBILIARIO URBANO, PAPELERAS, BANCOS, MARQUESINAS, BARANDILLAS, FAROLAS.\r\n3.- LIMPIEZA Y MANTENIMIENTO DE CABINAS TELEFÓNICAS, SU REPARACIÓN, REPOSICIÓN DE CRISTALES, COLOCACIÓN DE PUBLICIDAD, RECAUDACIÓN Y ARQUEO DE LOS IMPORTES CORRESPONDIENTES, TRANSPORTE Y GUARDA DE DICHA RECAUDACIÓN.\r\n4.- LA COLOCACIÓN DE PUBLICIDAD, EN EXTERIORES E INTERIORES, EN CUALQUIER CLASE DE SOPORTE.\r\n5.- MANESAJERÍA, REPARTO Y TRANSPORTE DE PAQUETERÍA Y DOCUMENTACIÓN.\r\n6.- GESTIÓN Y EXPLOTACIÓN INTEGRAL DE POLIDEPORTIVOS, EVENTOS, FESTIVOS CULTURALES, DEPORTIVOS Y SIMILARES.\r\n7.- ASISTENCIA DOMICILIARIA, ACOMPAÑAMIENTO, CUIDADO Y ATENCIÓN DE ANCIANOS, ENFERMOS, NIÑOS Y PERSONAS DISMINUIDAS SÍQUICA Y FÍSICAMENTE.\r\n8.- ARCHIVO PARA ALMACENAMIENTO DE DATOS EN CUALQUIER TIPO DE SOPORTE, YA SEA GRÁFICO O INFORMÁTICO.\r\n\r\n- Y LA PRESTACIÓN DE ASISTENCIA A PERSONAS FÍSICAS, JURÍDICAS, ENTIDADES PÚBLICAS O PRIVADAS, DE PROFESIONALES CUALIFICADOS DE LOS DISTINTOS GREMIOS Y CON LOS MEDIOS NECESARIOS PARA EL DESARROLLO DE CADA PROFESIÓN, TALES COMO LOS RELACIONADOS CON LA HOSTELERÍA Y RESTAURACIÓN (COCINEROS, PINCHES, CAMAREROS), LA GUARDA Y CUSTODIA DE EDIFICIOS O RECINTOS (PORTEROS, GUARDAS, VIGILANTES, TELEFONISTAS, ASCENSORISTAS), EL LAVADO Y GUARDARROPÍA, LA ATENCIÓN A ENFERMOS (ENFERMERAS, AUXILIARES) Y DE TODOS Y CADA UNO DE LOS QUE RELACIONEN DIRECTAMENTE CON EL OBJETO SOCIAL, EXCEPTUANDO TODOS AQUELLOS QUE LA LEY RESERVA A EMPRESAS DE SEGURIDAD.\r\n\r\n- LA FORMACIÓN A PROFESIONALES Y EL RECICLAJE DE LAS PERSONAS QUE PRESTEN LOS SERVICIOS EXPRESADOS ANTERIORMENTE.\r\n\r\n- PARA REALIZAR LOS SERVICIOS Y TRABAJOS ANTERIORMENTE CITADOS LA SOCIEDAD CONTARÁ CON PERSONAL ESPECIALIZADO O NO Y DISPONDRÁ DE LOS MEDIOS NECESARIOS PARA QUE PUEDAN SER UTILIZADOS TRABAJADORES DISMINUÍDOS FÍSICOS PARA REALIZAR ALGUNO DE LOS SERVICIOS RELACIONADOS",
      "mainEntityOfPage": "https://www.contratacion.euskadi.eus/webkpe00-kperoc/es/ac71aBusquedaRegistrosWar/empresa/00076",
      "_links": {
        "self": {
          "name": "EL ESPEJO, LIMPIEZA Y MANTENIMIENTO INTEGRAL, S.A.",
          "href": "https://api.euskadi.eus/procurements/companies/00076"
        }
      }
    },
    {
      "name": "MAIN & TOOL XXI, S.A.",
      "registrationNumber": "02282",
      "identificationNumber": "A95036653",
      "address": "PARQUE TECNOLÓGICO DE ZAMUDIO. EDIFICIO 105-2º",
      "location": {
        "postalCode": "48170",
        "municipality": "Zamudio",
        "county": "Bizkaia",
        "municipalityId": "905",
        "countyId": "48"
      },
      "economicActivities": [
        {
          "id": "1.847",
          "name": "Servicios de consultoría",
          "_links": {
            "self": {
              "name": "Servicios de consultoría",
              "href": "https://api.euskadi.eus/procurements/companies/economic-activities/1.847"
            }
          }
        }
      ],
      "certificateStartDate": "2000-06-21",
      "certificateEndDate": "2000-12-08",
      "object": "LA REALIZACIÓN DE LAS ACTIVIDADES QUE SE RELACIONAN A CONTINUACIÓN EN EL CAMPO DEL MEDIO AMBIENTE, LA CALIDAD Y LA PREVENCIÓN DE RIESGOS LABORALES: 1) REALIZACIÓN DE TODO TIPO DE ESTUDIOS E INVESTIGACIONES; 2) REALIZACIÓN DE AUDITORÍAS A EMPRESAS Y A LAS INSTALACIONES INDUSTRIALES; 3) EMISIÓN DE INFORMES, CERTIFICADOS Y MARCAS; 4) ASESORAMIENTO, EN GENERAL, A EMPRESAS, PERSONAS E INSTITUCIONES; 5) VENTA DE TODO TIPO DE INFORMACIÓN, EN CUALQUIER SOPORTE Y UTILIZANDO CUALQUIER CANAL, A EMPRESAS Y PARTICULARES SOBRE ASUNTOS RELACIONADOS CON EL OBJETO SOCIAL; 6) LABORES DE FORMACIÓN; 7) REDACCIÓN Y VENTA DE PUBLICACIONES; 8) REALIZACIÓN DE ESPECIFICACIONES TÉCNICAS DE INSTALACIONES Y PRODUCTOS; 9) REALIZACIÓN DE ANÁLISIS DE EMPRESAS Y SECTORES ECONÓMICOS; 10) DISEÑO, DESARROLLO Y COMERCIALIZACIÓN DE APLICACIONES INFORMÁTICAS PARA EL CONTROL Y AUTOEVALUACIÓN DE LOS SISTEMAS DE GESTIÓN IMPLANTADOS O EN RELACIÓN CON CUALESQUIERA OTROS ASUNTOS RELACIONADOS CON EL OBJETO SOCIAL; TAMBIÉN FORMA PARTE DEL OBJETO SOCIAL ADQUISICIÓN, TENENCIA, ARRENDAMIENTO, EXPLOTACIÓN Y ENAJENACIÓN DE BIENES INMUEBLES",
      "mainEntityOfPage": "https://www.contratacion.euskadi.eus/webkpe00-kperoc/es/ac71aBusquedaRegistrosWar/empresa/02282",
      "_links": {
        "self": {
          "name": "MAIN & TOOL XXI, S.A.",
          "href": "https://api.euskadi.eus/procurements/companies/02282"
        }
      }
    },
    {
      "name": "PAPELCO, S.A.",
      "registrationNumber": "02202",
      "identificationNumber": "A08707416",
      "address": "C/ ENRIC PRAT DE LA RIBA, Nº 6",
      "location": {
        "postalCode": "08830",
        "municipality": "Sant Boi de Llobregat",
        "county": "Barcelona",
        "municipalityId": "200",
        "countyId": "08"
      },
      "economicActivities": [
        {
          "id": "1.619.4",
          "name": "Venta al por mayor de productos de papel y cartón",
          "_links": {
            "self": {
              "name": "Venta al por mayor de productos de papel y cartón",
              "href": "https://api.euskadi.eus/procurements/companies/economic-activities/1.619.4"
            }
          }
        }
      ],
      "certificateStartDate": "2000-06-20",
      "certificateEndDate": "2000-11-24",
      "object": "LA IMPORTACIÓN Y EXPORTACIÓN, COMPRA, VENTA Y DISTRIBUCIÓN DE PAPEL, CARTÓN Y SUS DERIVADOS; LA PLANIFICACIÓN Y ESTUDIO DE MERCADOS DE LAS ANTERIORES ACTIVIDADES, Y CUALESQUIERA OTRAS QUE PRESENTEN DIRECTA RELACIÓN CON LO ESPECIFICADO",
      "mainEntityOfPage": "https://www.contratacion.euskadi.eus/webkpe00-kperoc/es/ac71aBusquedaRegistrosWar/empresa/02202",
      "_links": {
        "self": {
          "name": "PAPELCO, S.A.",
          "href": "https://api.euskadi.eus/procurements/companies/02202"
        }
      }
    },
    {
      "name": "JUAN CARLOS SIEIRA, S.L.",
      "registrationNumber": "01621",
      "identificationNumber": "B01176635",
      "address": "C/ PAULA MONTAL, Nº 6 - 3º D.",
      "location": {
        "postalCode": "01010",
        "municipality": "Vitoria-Gasteiz",
        "county": "Araba/Álava",
        "municipalityId": "059",
        "countyId": "01"
      },
      "economicActivities": [
        {
          "id": "1.722",
          "name": "Transporte de mercancías por carretera",
          "_links": {
            "self": {
              "name": "Transporte de mercancías por carretera",
              "href": "https://api.euskadi.eus/procurements/companies/economic-activities/1.722"
            }
          }
        },
        {
          "id": "1.756",
          "name": "Intermediarios del transporte",
          "_links": {
            "self": {
              "name": "Intermediarios del transporte",
              "href": "https://api.euskadi.eus/procurements/companies/economic-activities/1.756"
            }
          }
        }
      ],
      "certificateStartDate": "2000-06-16",
      "certificateEndDate": "2000-12-12",
      "object": "EL TRANSPORTE DE MERCANCÍAS POR CARRETERA, ALMACENAJE Y DISTRIBUCIÓN DE MERCANCÍAS, AGENCIA MEDIADORA DE TRANSPORTE DE MERCANCÍAS Y TRANSITARIOS",
      "mainEntityOfPage": "https://www.contratacion.euskadi.eus/webkpe00-kperoc/es/ac71aBusquedaRegistrosWar/empresa/01621",
      "_links": {
        "self": {
          "name": "JUAN CARLOS SIEIRA, S.L.",
          "href": "https://api.euskadi.eus/procurements/companies/01621"
        }
      }
    },
    {
      "name": "MARÍA LOURDES ROMANO AGIRRE",
      "registrationNumber": "02275",
      "identificationNumber": "15365932T",
      "address": "C/ AVENIDA DE ESTÍBALIZ, Nº 2-1º OF. 1",
      "location": {
        "postalCode": "01000",
        "municipality": "Vitoria-Gasteiz",
        "county": "Araba/Álava",
        "municipalityId": "059",
        "countyId": "01"
      },
      "economicActivities": [
        {
          "id": "1.999",
          "name": "Otros servicios n.c.o.p",
          "_links": {
            "self": {
              "name": "Otros servicios n.c.o.p",
              "href": "https://api.euskadi.eus/procurements/companies/economic-activities/1.999"
            }
          }
        }
      ],
      "certificateStartDate": "2000-05-31",
      "certificateEndDate": "2000-09-30",
      "object": "LOS SERVICIOS INTEGRADOS EN TODO EL PROCESO OPERATIVO DE PROYECTOS RELACIONADOS CON: \r\n\r\nPLANES ESTRATEGICOS DE TURISMO, DE ORDENACION TURISTICA, TERRITORIALES Y COMARCALES.\r\n\r\nCREACION Y DESARROLLO DE NUEVOS PRODUCTOS TURISTICOS Y CULTURALES.\r\n\r\nORGANIZACION Y GESTION DEL TURISMO Y DE LOS DESTINOS TURISTICOS.\r\n\r\nASESORAMIENTO DE PROYECTOS EMPRESARIALES, RELACIONADOS CON LA ACTIVIDAD TURISTICA.\r\n\r\nORGANIZACION DE CONGRESOS Y OTROS EVENTOS.\r\n  ",
      "mainEntityOfPage": "https://www.contratacion.euskadi.eus/webkpe00-kperoc/es/ac71aBusquedaRegistrosWar/empresa/02275",
      "_links": {
        "self": {
          "name": "MARÍA LOURDES ROMANO AGIRRE",
          "href": "https://api.euskadi.eus/procurements/companies/02275"
        }
      }
    },
    {
      "name": "MIGUEL PÉREZ PELÁEZ",
      "registrationNumber": "01600",
      "identificationNumber": "15248613G",
      "address": "C/ ERROTA, Nº 5 - BAJO",
      "location": {
        "postalCode": "20305",
        "municipality": "Irun",
        "county": "Gipuzkoa",
        "municipalityId": "045",
        "countyId": "20"
      },
      "economicActivities": [
        {
          "id": "1.501.1",
          "name": "Construcción completa, reparación y conservación de edificaciones",
          "_links": {
            "self": {
              "name": "Construcción completa, reparación y conservación de edificaciones",
              "href": "https://api.euskadi.eus/procurements/companies/economic-activities/1.501.1"
            }
          }
        }
      ],
      "certificateStartDate": "2000-05-30",
      "certificateEndDate": "2000-11-18",
      "object": "CONSTRUCCIÓN COMPLETA, REPARACIÓN Y CONSERVACIÓN DE EDIFICACIONES",
      "mainEntityOfPage": "https://www.contratacion.euskadi.eus/webkpe00-kperoc/es/ac71aBusquedaRegistrosWar/empresa/01600",
      "_links": {
        "self": {
          "name": "MIGUEL PÉREZ PELÁEZ",
          "href": "https://api.euskadi.eus/procurements/companies/01600"
        }
      }
    },
    {
      "name": "ASSETS VALUATION ADVISERS, S.A.",
      "registrationNumber": "01210",
      "identificationNumber": "A48479372",
      "address": "AVENIDA CERVANTES, 51 EDIFICIO DENAC",
      "location": {
        "postalCode": "48970",
        "municipality": "Basauri",
        "county": "Bizkaia",
        "municipalityId": "015",
        "countyId": "48"
      },
      "economicActivities": [
        {
          "id": "1.834",
          "name": "Servicios relativos a la propiedad inmobiliaria e industrial",
          "_links": {
            "self": {
              "name": "Servicios relativos a la propiedad inmobiliaria e industrial",
              "href": "https://api.euskadi.eus/procurements/companies/economic-activities/1.834"
            }
          }
        }
      ],
      "certificateStartDate": "2000-05-23",
      "certificateEndDate": "2000-10-10",
      "object": "LAS TASACIONES Y VALORACIONES DEL MERCADO HIPOTECARIO. CUALQUIER TIPO DE VALORACIÓN, TASACIÓN O ESTIMACIÓN VALORATIVA RESPECTO DE BIENES MUEBLES E INMUEBLES O CUALESQUIERA OTROS SUSCEPTIBLES DE CUANTIFICACIÓN MATEMÁTICA O ECONÓMICA. LA PARTICIPACIÓN EN OTRAS SOCIEDADES DE IDÉNTICO O ANÁLOGO OBJETO, PARA EL DESARROLLO DEL PROPIO DE ESTA SOCIEDAD, MEDIANTE LA SUSCRIPCION DE ACCIONES O PARTICIPACIONES EN LA FUNDACIÓN O AUMENTO DE CAPITAL DE LAS MISMAS, O LA ADQUISICIÓN DE ELLAS POR CUALQUIER TÍTULO",
      "mainEntityOfPage": "https://www.contratacion.euskadi.eus/webkpe00-kperoc/es/ac71aBusquedaRegistrosWar/empresa/01210",
      "_links": {
        "self": {
          "name": "ASSETS VALUATION ADVISERS, S.A.",
          "href": "https://api.euskadi.eus/procurements/companies/01210"
        }
      }
    },
    {
      "name": "WAGONS LITS VIAJES, S.A.",
      "registrationNumber": "02260",
      "identificationNumber": "A80333826",
      "address": "C/ PRINCESA, 5-4º",
      "location": {
        "postalCode": "28008",
        "municipality": "Madrid",
        "county": "Madrid",
        "municipalityId": "079",
        "countyId": "28"
      },
      "economicActivities": [
        {
          "id": "1.755",
          "name": "Agencias de viajes",
          "_links": {
            "self": {
              "name": "Agencias de viajes",
              "href": "https://api.euskadi.eus/procurements/companies/economic-activities/1.755"
            }
          }
        },
        {
          "id": "1.755.2",
          "name": "Servicios prestados al público por las agencias de viajes",
          "_links": {
            "self": {
              "name": "Servicios prestados al público por las agencias de viajes",
              "href": "https://api.euskadi.eus/procurements/companies/economic-activities/1.755.2"
            }
          }
        }
      ],
      "certificateStartDate": "2000-05-08",
      "certificateEndDate": "2000-09-15",
      "object": "LA PROPIA DE LAS AGENCIAS DE VIAJES MAYORISTAS Y MINORISTAS, ES DECIR, EL EJERCICIO DE TODA CLASE DE ACTIVIDADES MERCANTILES DE MEDIACION, DIRIGIDAS A PONER LOS BIENES Y SERVICIOS TURISTICOS A DISPOSICION DE QUIENES DESEEN UTILIZARLOS, DESARROLLANDO A TAL EFECTO LAS FUNCIONES RECOGIDAS EN EL ART.2 DEL DECRETO 216/1987 DE 28 DE DICIEMBRE, DE LA CONSEJERIA DE ECONOMIA DE LA COMUNIDAD DE MADRID, POR EL QUE SE APRUEBA EL REGLAMENTO DE LAS AGENCIAS DE VIAJES Y DE LA LEGISLACION COMPLEMENTARIA QUE AFECTE O PUEDA AFECTAR EN EL FUTURO A DICHA ACTIVIDAD.     ",
      "mainEntityOfPage": "https://www.contratacion.euskadi.eus/webkpe00-kperoc/es/ac71aBusquedaRegistrosWar/empresa/02260",
      "_links": {
        "self": {
          "name": "WAGONS LITS VIAJES, S.A.",
          "href": "https://api.euskadi.eus/procurements/companies/02260"
        }
      }
    },
    {
      "name": "OFYDE SISTEMAS, S.L.",
      "registrationNumber": "02069",
      "identificationNumber": "B48908222",
      "address": "C/ MÁXIMO AGUIRRE, Nº 18 BIS - 7º.",
      "location": {
        "postalCode": "48011",
        "municipality": "Bilbao",
        "county": "Bizkaia",
        "municipalityId": "020",
        "countyId": "48"
      },
      "economicActivities": [
        {
          "id": "1.659.2",
          "name": "Venta al por menor de muebles de oficina y máquinas y equipos de oficina",
          "_links": {
            "self": {
              "name": "Venta al por menor de muebles de oficina y máquinas y equipos de oficina",
              "href": "https://api.euskadi.eus/procurements/companies/economic-activities/1.659.2"
            }
          }
        }
      ],
      "certificateStartDate": "2000-05-04",
      "certificateEndDate": "2000-10-25",
      "object": "LA CONSULTORÍA Y ASESORAMIENTO DE EMPRESAS; EL ESTUDIO, INVESTIGACIÓN PROMOCIÓN Y PRESTACIÓN DE TODA CLASE DE SERVICIOS DE ASISTENCIA Y GESTIÓN TÉCNICA Y ESPECIALMENTE EN EL CAMPO DE LAS COMUNICACIONES, CONECTIVIDAD TRANSMISIÓN DE INFORMACIÓN, INFORMÁTICA Y TELEMÁTICA. ALQUILER Y VENTA DE ELEMENTOS INFORMÁTICOS Y DE COMUNICACIÓN",
      "mainEntityOfPage": "https://www.contratacion.euskadi.eus/webkpe00-kperoc/es/ac71aBusquedaRegistrosWar/empresa/02069",
      "_links": {
        "self": {
          "name": "OFYDE SISTEMAS, S.L.",
          "href": "https://api.euskadi.eus/procurements/companies/02069"
        }
      }
    },
    {
      "name": "COBE CARDIOVASCULAR ESPAÑA, S.A.",
      "registrationNumber": "02259",
      "identificationNumber": "A61928552",
      "address": "CTRA. CERDANYOLA, 75-77",
      "location": {
        "postalCode": "08190",
        "municipality": "Sant Cugat del Vallès",
        "county": "Barcelona",
        "municipalityId": "205",
        "countyId": "08"
      },
      "economicActivities": [
        {
          "id": "1.619.2",
          "name": "Venta al por mayor de aparatos e instrumentos médicos, ortopédicos, ópticos",
          "_links": {
            "self": {
              "name": "Venta al por mayor de aparatos e instrumentos médicos, ortopédicos, ópticos",
              "href": "https://api.euskadi.eus/procurements/companies/economic-activities/1.619.2"
            }
          }
        }
      ],
      "certificateStartDate": "2000-05-03",
      "certificateEndDate": "2000-09-02",
      "object": "EL DISEÑO, FABRICACIÓN, IMPORTACIÓN, EXPORTACIÓN, MONTAJE Y COMERCIALIZACIÓN DE TODO TIPO DE APARATOS BIOMÉDICOS; LA ADQUISICIÓN, OBTENCIÓN, EXPLOTACIÓN Y VENTA DE MARCAS DE FÁBRICA REGISTRADAS, MARCAS COMERCIALES, PROCESOS DE FABRICACIÓN ASÍ COMO DE PATENTES DE INVENCIÓN, LICENCIA O MODELOS REFERIDOS A PRODUCTOS INCLUÍDOS EN EL APARTADO ANTERIOR",
      "mainEntityOfPage": "https://www.contratacion.euskadi.eus/webkpe00-kperoc/es/ac71aBusquedaRegistrosWar/empresa/02259",
      "_links": {
        "self": {
          "name": "COBE CARDIOVASCULAR ESPAÑA, S.A.",
          "href": "https://api.euskadi.eus/procurements/companies/02259"
        }
      }
    }
  ]
}