{
  "totalItems": 9042,
  "totalPages": 905,
  "currentPage": 788,
  "itemsOfPage": 10,
  "items": [
    {
      "name": "DOCE-62, S.A.",
      "registrationNumber": "00185",
      "identificationNumber": "A20077673",
      "address": "PASEO DE BERIO, 11-1º C",
      "location": {
        "postalCode": "20018",
        "municipality": "Donostia / San Sebastián",
        "county": "Gipuzkoa",
        "municipalityId": "069",
        "countyId": "20"
      },
      "economicActivities": [
        {
          "id": "1.844",
          "name": "Servicios de publicidad, relaciones públicas y similares",
          "_links": {
            "self": {
              "name": "Servicios de publicidad, relaciones públicas y similares",
              "href": "https://api.euskadi.eus/procurements/companies/economic-activities/1.844"
            }
          }
        }
      ],
      "certificateStartDate": "2005-02-15",
      "certificateEndDate": "2005-08-10",
      "object": "LA CONTRATACIÓN DE PUBLICIDAD, LA CONFECCIÓN Y DISTRIBUCIÓN DE ESTUDIOS DE PUBLICIDAD",
      "mainEntityOfPage": "https://www.contratacion.euskadi.eus/webkpe00-kperoc/es/ac71aBusquedaRegistrosWar/empresa/00185",
      "_links": {
        "self": {
          "name": "DOCE-62, S.A.",
          "href": "https://api.euskadi.eus/procurements/companies/00185"
        }
      }
    },
    {
      "name": "CESS, CIA. EUROPEA DE SERVICIOS DE SEGURIDAD, S.A.",
      "registrationNumber": "02739",
      "identificationNumber": "A58311804",
      "address": "AVDA. MAS FUSTER, 131",
      "location": {
        "postalCode": "08190",
        "municipality": "Sant Cugat del Vallès",
        "county": "Barcelona",
        "municipalityId": "205",
        "countyId": "08"
      },
      "economicActivities": [
        {
          "id": "1.849.4",
          "name": "Servicios de custodia, seguridad y protección",
          "_links": {
            "self": {
              "name": "Servicios de custodia, seguridad y protección",
              "href": "https://api.euskadi.eus/procurements/companies/economic-activities/1.849.4"
            }
          }
        }
      ],
      "certificateStartDate": "2005-02-08",
      "certificateEndDate": "2005-07-13",
      "object": "LA VIGILANCIA Y PROTECCIÓN DE TODA CLASE DE BIENES MUEBLES E INMUEBLES.\r\nLA VIGILANCIA Y PROTECCIÓN DE CONVENCIONES, FERIAS, CERTÁMENES Y EVENTOS DEPORTIVOS, ARTÍSTICOS O CUALQUIER OTRO ACTO SIMILAR.\r\nLA PROTECCIÓN Y CUSTODIA DE FONDOS, VALORES, CAUDALES, JOYAS, OBJETOS PRECIOSOS Y OTROS BIENES.\r\nLA VIGILANCIA Y PROTECCIÓN DE DOCUMENTACIÓN E INFORMACIÓN PROPIEDAD DE LOS CLIENTES DE LA SOCIEDAD Y DE SUS COMUNICACIONES Y RELACIONES PRIVADAS",
      "mainEntityOfPage": "https://www.contratacion.euskadi.eus/webkpe00-kperoc/es/ac71aBusquedaRegistrosWar/empresa/02739",
      "_links": {
        "self": {
          "name": "CESS, CIA. EUROPEA DE SERVICIOS DE SEGURIDAD, S.A.",
          "href": "https://api.euskadi.eus/procurements/companies/02739"
        }
      }
    },
    {
      "name": "ISURKIDE CONSULTORES Y GESTORES, S.L.",
      "registrationNumber": "02896",
      "identificationNumber": "B01338730",
      "address": "C/ BEATO TOMÁS DE ZUMARRAGA, 1B - 1ºA",
      "location": {
        "postalCode": "01008",
        "municipality": "Vitoria-Gasteiz",
        "county": "Araba/Álava",
        "municipalityId": "059",
        "countyId": "01"
      },
      "economicActivities": [
        {
          "id": "1.846",
          "name": "Empresas de estudios de mercado",
          "_links": {
            "self": {
              "name": "Empresas de estudios de mercado",
              "href": "https://api.euskadi.eus/procurements/companies/economic-activities/1.846"
            }
          }
        }
      ],
      "certificateStartDate": "2005-02-07",
      "certificateEndDate": "2005-08-03",
      "object": "LA CONSULTORÍA GENERAL DE EMPRESAS Y ESTUDIOS DE MERCADO EN GENERAL",
      "mainEntityOfPage": "https://www.contratacion.euskadi.eus/webkpe00-kperoc/es/ac71aBusquedaRegistrosWar/empresa/02896",
      "_links": {
        "self": {
          "name": "ISURKIDE CONSULTORES Y GESTORES, S.L.",
          "href": "https://api.euskadi.eus/procurements/companies/02896"
        }
      }
    },
    {
      "name": "SUTEGUI, S.L. SOCIEDAD UNIPERSONAL",
      "registrationNumber": "01297",
      "identificationNumber": "B48478952",
      "address": "Bº IRAUREGUI, LAS DELICIAS, S/N",
      "location": {
        "postalCode": "48903",
        "municipality": "Barakaldo",
        "county": "Bizkaia",
        "municipalityId": "013",
        "countyId": "48"
      },
      "economicActivities": [
        {
          "id": "1.922",
          "name": "Servicios de limpieza",
          "_links": {
            "self": {
              "name": "Servicios de limpieza",
              "href": "https://api.euskadi.eus/procurements/companies/economic-activities/1.922"
            }
          }
        }
      ],
      "certificateStartDate": "2005-02-03",
      "certificateEndDate": "2005-07-10",
      "object": "\r\n\r\na) EL EJERCICIO DE LOS SERVICIOS DE LIMPIEZA DE LOCALES Y EDIFICIOS EN GENERAL, LIMPIEZA DE FÁBRICAS, INSTITUCIONES PÚBLICAS, POLIDEPORTIVOS Y CAMPOS DE FUTBOL, BANCOS, URBANIZACIONES, CENTROS COMERCIALES, GRANDES ALMACENES, CENTROS DE ASISTENCIA SANITARIA COMO HOSPITALES, RESIDENCIAS, AMBULATORIOS Y CUALESQUIERA OTROS; CINES, TEATROS, AERONAVES, BARCOS, ASTILLEROS, CENTRALES ELÉCTRICAS, NUCLEARES, TÉRMICAS Y CUALESQUIERA OTRAS; PUERTOS, AEROPUERTOS, JARDINES, PARQUES, MONTES, BOSQUES, VIVEROS, CAMINOS, CARRETERAS, VÍAS PÚBLICAS, ALCANTARILLAS, POZOS SÉPTICOS, CONDUCCIONES INDUSTRIALES Y SANITARIAS Y LA DESRATIZACIÓN Y DESINFECCIÓN DE LOS MEDIOS SEÑALADOS ANTERIORMENTE O DE CUALQUIER OTRO QUE LO PRECISE, ASÍ COMO LA RECOGIDA DOMICILIARIA DE BASURAS Y RESIDUOS INDUSTRIALES Y CUALESQUIERA OTROS SERVICIOS QUE TENGAN POR OBJETO EL MANTENIMIENTO DE LOS EDIFICIOS DE CUALQUIER CLASE Y CONDICIÓN, TANTO EN SU ESTRUCTURA EXTERNA COMO INTERNA, PINTURA, CARPINTERÍA, ELECTRICIDAD, FONTANERÍA, DECORACIÓN DE EDIFICIOS Y LOCALES, ACUCHILLADO, PULIDO, LIJADO, ENCERADO, ACRISTALADO DE PISOS, ZÓCALOS Y PAREDES, LIMPIEZA, PINTURA Y RESTAURACIÓN DE FACHADAS DE CUALQUIER EDIFICIO O MONUMENTO; PURIFICACIÓN DEL MEDIO AMBIENTE Y AGUAS MARÍTIMAS Y FLUVIALES, ASÍ COMO LA LIMPIEZA DE PLAYAS Y RÍOS.\r\n\r\nb) LA CONSTRUCCIÓN, EL MANTENIMIENTO Y REPARACIÓN DE CUALQUIER CLASE DE EDIFICACIÓN O MONUMENTO, CON LA INCLUSIÓN DE TODOS LOS TRABAJOS QUE ESTA ACTIVIDAD REQUIERE.\r\n\r\nc) LOS SERVICIOS DE HOSTELERÍA Y RESTAURANTE Y BAR, EN TODA SU GAMA, COCINEROS, AYUDANTES, PINCHES, CAMAREROS, LAVADO, ARREGLO Y PLANCHA DE ROPA Y CUALESQUIERA OTROS.\r\n\r\nd) LOS SERVICIOS DE JARDINERÍA EN GENERAL, PREPARACIÓN DE LOS TERRENOS, SIEMBRA, PODA, PLANTACIÓN, INJERTOS, MANTENIMIENTO O CUALESQUIERA OTROS.\r\n\r\ne) LOS SERVICIOS DE LIMPIEZA INDUSTRIAL, QUÍMICA Y ESPECIAL, EN TANQUES DE PETRÓLEO, EN FÁBRICAS EN ACTIVIDAD O EN PARADAS PERIÓDICAS, EN FACTORÍAS Y EN GENERAL EN CUALESQUIERA CENTROS FABRILES O INDUSTRIALES.\r\n\r\nf) LOS SERVICIOS DE PORTERÍA, GUARDA, VIGILANCIA DE TODO TIPO DE EDIFICOS O RECINTOS.\r\n\r\ng) LOS SERVICIOS DE TELEFONISTAS Y ASCENSORISTAS.\r\n\r\nh) LOS SERVICIOS DE LAVADO, COSIDO, PLANCHADO Y TINTE DE TODO TIPO DE ROPA.\r\n\r\ni) LOS SERVICIOS DE AUXILIARES DE CLÍNICA, ATENCIÓN A ANCIANOS, NIÑOS Y EN GENERAL TODA CLASE DE SERVICIOS ASISTENCIALES.\r\n\r\nj) LOS SERVICIOS DE MANTENIMIENTO, REPARACIÓN Y REPOSICIÓN DE PAPELERAS, BANCOS, MARQUESINAS, BARANDILLAS, FAROLAS Y EN GENERAL DE TODA CLASE DE MOBILIARIO URBANO.\r\n\r\nk) LOS SERVICIOS DE LIMPIEZA Y MANTENIMIENTO DE LAS CABINAS TELEFÓNICAS DE CUALQUIER TIPO, INCLUYENDO LA REPARACIÓN Y REPOSICIÓN DE CRISTALES, COLOCACIÓN DE PUBLICIDAD, RECAUDACIÓN Y CONTEO DE LOS IMPORTES CORRESPONDIENTES Y TRANSPORTE Y GUARDA DE DICHA RECAUDACIÓN.\r\n\r\nl) LOS SERVICIOS DE COLOCACIÓN DE PUBLICIDAD.\r\n\r\nm) LOS SERVICIOS DE MENSAJERÍA, REPARTO Y TRANSPORTE DE PAQUETERÍA Y DOCUMENTACIÓN.\r\n\r\nn) LOS SERVICIOS DE INSTALACIÓN, MANTENIMIENTO Y CONSERVACIÓN DE SISTEMAS Y APARATOS DE AIRE ACONDICIONADO E IGUALMENTE DE CALDERAS DE CALEFACCIÓN DE CUALQUIER TIPO QUE EXISTIESEN.\r\n\r\no) LOS SERVICIOS DE ESTUDIO E INSTALACIÓN DE LOS APARATOS O SISTEMAS NECESARIOS PARA EL AHORRO DE ENERGÍA DE CUALQUIER CLASE.\r\n\r\np) LOS SERVICIOS DE ASESORÍA, CONSULTORÍA, GESTIÓN, INFORMÁTICA, INVESTIGACIÓN, GESTIONES ADMINISTRATIVAS, ESTUDIOS DE MERCADO E INFORMÁTICA Y ROBÓTICA EN GENERAL.\r\n\r\nq) SERVICIO DE ASISTENCIA DOMICILIARIA, ACOMPAÑAMIENTO, CUIDADO Y ATENCIÓN DE ANCIANOS, ENFERMOS, NIÑOS, PERSONAS SOLAS O CON CUALQUIER TIPO DE PROBLEMAS.\r\n\r\nr) SERVICIOS DE ARCHIVOS, BIBLIOTECAS, PADRÓN, INVENTARIOS, CATASTROS Y ORDENACIÓN EN GENERAL.\r\n\r\ns) SERVICIOS DE GESTIÓN Y EXPLOTACIÓN INTEGRAL DE POLIDEPORTIVOS, EVENTOS FESTIVOS, CULTURALES, DEPORTIVOS Y SIMILARES.\r\n\r\nt) LA REALIZACIÓN DE CUALQUIER CLASE DE OBRA DE REMODELACIÓN, RESTAURACIÓN, MANTENIMIENTO O TRANFORMACIÓN, ASÍ COMO LA CONSTRUCCIÓN EN GENERAL DE CUALQUIER TIPO DE EDIFICIO U OBRA CIVIL.\r\n\r\nu) LA COMPRAVENTA Y ARRENDAMIENTO DE TODA CLASE DE PERSONAL Y MEDIOS NECESARIOS, CON TODAS LAS ACTIVIDADES QUE ESTO CONLLEVA.\r\n\r\nv) LOS SERVICIOS DE SELECCIÓN TEMPORAL DE TODA CLASE DE TRABAJADORES.\r\n\r\nw) LAS EXPLOTACIONES AGRÍCOLAS, GANADERAS Y PECUARIAS.\r\n\r\nx) LOS SERVICIOS DE ELABORACIÓN, CONDIMENTACIÓN Y DISTRIBUCIÓN DE COMIDAS, INCLUSO FUERA DE LAS OFICINAS DE LA EMPRESA (CATERING), PARA SUMINISTRO A TERCEROS.\r\n\r\ny) LA FORMACIÓN PROFESIONAL Y RECICLAJE DE LAS PERSONAS QUE PRESTEN LOS SERVICIOS EXPRESADOS EN LOS PUNTOS ANTERIORES.\r\n\r\nz) LA FABRICACIÓN, PRODUCCIÓN, IMPORTACIÓN, EXPORTACIÓN, COMPRA, VENTA, COMERCIALIZACIÓN Y DISTRIBUCIÓN DE PRODUCTOS DE FERRETERÍA",
      "mainEntityOfPage": "https://www.contratacion.euskadi.eus/webkpe00-kperoc/es/ac71aBusquedaRegistrosWar/empresa/01297",
      "_links": {
        "self": {
          "name": "SUTEGUI, S.L. SOCIEDAD UNIPERSONAL",
          "href": "https://api.euskadi.eus/procurements/companies/01297"
        }
      }
    },
    {
      "name": "PARQUES Y JARDINES DE ABADIANO, S.A.",
      "registrationNumber": "02017",
      "identificationNumber": "A48150262",
      "address": "CASA TORRE, Nº 2.",
      "location": {
        "postalCode": "48220",
        "municipality": "Abadiño",
        "county": "Bizkaia",
        "municipalityId": "001",
        "countyId": "48"
      },
      "economicActivities": [
        {
          "id": "1.501.2",
          "name": "Construcción completa, reparación y conservación obras civiles",
          "_links": {
            "self": {
              "name": "Construcción completa, reparación y conservación obras civiles",
              "href": "https://api.euskadi.eus/procurements/companies/economic-activities/1.501.2"
            }
          }
        },
        {
          "id": "1.911",
          "name": "Servicios agrícolas y ganaderos",
          "_links": {
            "self": {
              "name": "Servicios agrícolas y ganaderos",
              "href": "https://api.euskadi.eus/procurements/companies/economic-activities/1.911"
            }
          }
        }
      ],
      "certificateStartDate": "2005-02-01",
      "certificateEndDate": "2005-06-27",
      "object": "LA CONSTRUCCIÓN DE PARQUES Y JARDINES DE RECREO, URBANIZACIÓN, SANEAMIENTOS Y ABASTECIMIENTOS DE AGUAS, TRABAJOS DE ALBAÑILERÍA Y TRABAJOS DE CONSTRUCCIÓN",
      "mainEntityOfPage": "https://www.contratacion.euskadi.eus/webkpe00-kperoc/es/ac71aBusquedaRegistrosWar/empresa/02017",
      "_links": {
        "self": {
          "name": "PARQUES Y JARDINES DE ABADIANO, S.A.",
          "href": "https://api.euskadi.eus/procurements/companies/02017"
        }
      }
    },
    {
      "name": "CONSTRUCCIONES Y CANALIZACIONES AVENIDA, S.L.",
      "registrationNumber": "01153",
      "identificationNumber": "B01108547",
      "address": "C/ SAN VIATOR, S/N. CENTRO GAZALBIDE, LONJA: 81.",
      "location": {
        "postalCode": "01009",
        "municipality": "Vitoria-Gasteiz",
        "county": "Araba/Álava",
        "municipalityId": "059",
        "countyId": "01"
      },
      "economicActivities": [
        {
          "id": "1.501.2",
          "name": "Construcción completa, reparación y conservación obras civiles",
          "_links": {
            "self": {
              "name": "Construcción completa, reparación y conservación obras civiles",
              "href": "https://api.euskadi.eus/procurements/companies/economic-activities/1.501.2"
            }
          }
        }
      ],
      "certificateStartDate": "2005-01-27",
      "certificateEndDate": "2005-07-10",
      "object": "LA REALIZACIÓN, POR CUENTA PROPIA O AJENA, DE TODA CLASE DE CONSTRUCCIONES, OBRAS E INSTALACIONES, TANTO PÚBLICAS COMO PRIVADAS",
      "mainEntityOfPage": "https://www.contratacion.euskadi.eus/webkpe00-kperoc/es/ac71aBusquedaRegistrosWar/empresa/01153",
      "_links": {
        "self": {
          "name": "CONSTRUCCIONES Y CANALIZACIONES AVENIDA, S.L.",
          "href": "https://api.euskadi.eus/procurements/companies/01153"
        }
      }
    },
    {
      "name": "HEWLETT-PACKARD ESPAÑOLA, S.A.",
      "registrationNumber": "00250",
      "identificationNumber": "A28260933",
      "address": "CTRA. NACIONAL VI, KM 16,500",
      "location": {
        "postalCode": "28230",
        "municipality": "Rozas de Madrid, Las",
        "county": "Madrid",
        "municipalityId": "127",
        "countyId": "28"
      },
      "economicActivities": [
        {
          "id": "1.615.4",
          "name": "Venta al por mayor de aparatos y material radioeléctrico y electrónico",
          "_links": {
            "self": {
              "name": "Venta al por mayor de aparatos y material radioeléctrico y electrónico",
              "href": "https://api.euskadi.eus/procurements/companies/economic-activities/1.615.4"
            }
          }
        },
        {
          "id": "1.619.2",
          "name": "Venta al por mayor de aparatos e instrumentos médicos, ortopédicos, ópticos",
          "_links": {
            "self": {
              "name": "Venta al por mayor de aparatos e instrumentos médicos, ortopédicos, ópticos",
              "href": "https://api.euskadi.eus/procurements/companies/economic-activities/1.619.2"
            }
          }
        },
        {
          "id": "1.619.7",
          "name": "Venta al por mayor de instrumentos de precisión, medida y similares",
          "_links": {
            "self": {
              "name": "Venta al por mayor de instrumentos de precisión, medida y similares",
              "href": "https://api.euskadi.eus/procurements/companies/economic-activities/1.619.7"
            }
          }
        },
        {
          "id": "1.845",
          "name": "Explotación electrónica por cuenta de terceros",
          "_links": {
            "self": {
              "name": "Explotación electrónica por cuenta de terceros",
              "href": "https://api.euskadi.eus/procurements/companies/economic-activities/1.845"
            }
          }
        },
        {
          "id": "1.853",
          "name": "Alquiler de maquinaria y equipo contable de oficina y cálculo",
          "_links": {
            "self": {
              "name": "Alquiler de maquinaria y equipo contable de oficina y cálculo",
              "href": "https://api.euskadi.eus/procurements/companies/economic-activities/1.853"
            }
          }
        }
      ],
      "certificateStartDate": "2005-01-12",
      "certificateEndDate": "1998-03-03",
      "object": "FABRICACION, MONTAJE, INSTALACION Y PRESTACION DE SERVICIOS TECNICOS, IMPORTACION DISTRIBUCION Y VENTA DE BIENES DE EQUIPO, ESPECIALMENTE ORDENADORES, COMPUTADORES E INSTRUMENTOS Y SISTEMAS DENTRO DEL CAMPO DE LA ELECTRONICA, DE LA ELECTROQUIMICA; LA ADQUISICION EXPLOTACION Y CESION DE LICENCIAS, PATENTES Y DEMAS DERECHOS DE LA PROPIEDAD INDUSTRIAL Y EN GENERAL CUALQUIER ACTIVIDAD INDUSTRIAL, COMERCIAL O FINANCIERA RELACIONADA CON LOS EXPRESADOS FINES",
      "mainEntityOfPage": "https://www.contratacion.euskadi.eus/webkpe00-kperoc/es/ac71aBusquedaRegistrosWar/empresa/00250",
      "_links": {
        "self": {
          "name": "HEWLETT-PACKARD ESPAÑOLA, S.A.",
          "href": "https://api.euskadi.eus/procurements/companies/00250"
        }
      }
    },
    {
      "name": "CONTRATACIÓN Y EJECUCIÓN DE OBRAS, S.A.",
      "registrationNumber": "02961",
      "identificationNumber": "A26340299",
      "address": "C/ RONDA DE LOS CUARTELES,  50 - 1ºA",
      "location": {
        "postalCode": "26005",
        "municipality": "Logroño",
        "county": "Rioja, La",
        "municipalityId": "089",
        "countyId": "26"
      },
      "economicActivities": [
        {
          "id": "1.507",
          "name": "Construcción, reparación y conservación de toda clase obras",
          "_links": {
            "self": {
              "name": "Construcción, reparación y conservación de toda clase obras",
              "href": "https://api.euskadi.eus/procurements/companies/economic-activities/1.507"
            }
          }
        }
      ],
      "certificateStartDate": "2005-01-12",
      "certificateEndDate": "2005-04-25",
      "object": "A) LA ELABORACIÓN DE ESTUDIOS, TRABAJOS, INFORMES O PROYECTOS RELACIONADOS CON EL DISEÑO Y REALIZACIÓN DE OBRAS, CONSTRUCCIONES E INSTALACIONES DE CUALQUIER NATURALEZA.\r\n\r\nB) LA PREPARACIÓN, DESARROLLO Y EJECUCIÓN DE LAS ACTIVIDADES Y OPERACIONES INTEGRADAS BAJO EL CONCEPTO LEGALMENTE DEFINIDO DE AUDITORÍA MEDIOAMBIENTAL.\r\n\r\nC) LA PRESENTACIÓN DE SERVICIOS TÉCNICOS DE VERIFICACIÓN Y COMPROBACIÓN DE LA CALIDAD, TERMINACIÓN Y EJECUCIÓN DE LAS OBRAS Y ACTIVIDADES QUE SON MATERIA DE SU TRÁFICO.\r\n\r\nD) LA REALIZACIÓN Y EXPLOTACIÓN DE CONSTRUCCIONES, INSTALACIONES, EDIFICACIONES, OBRAS Y SUMINISTROS DE CUALESQUIERA CLASE Y NATURALEZA, ASÍ COMO LA REALIZACIÓN Y EXPLOTACIÓN DE SERVICIOS VINCULADOS O CONEXOS A LAS EXPRESADAS OBRAS Y SUMINISTROS, TANTO PARA PARTICULARES, EMPRESAS PRIVADAS, ADMINISTRACIONES PÚBLICAS, ESTATALES, AUTONÓMICAS O LOCALES, EMPRESAS PÚBLICAS O DE CAPITAL PÚBLICO O MIXTAS O CUALESQUIERA DE OTRA NATURALEZA.\r\n\r\nE) LA COMPRAVENTA, PERMUTA, ARRENDAMIENTO Y GESTIÓN DE TODA CLASE DE FINCAS, RÚSTICAS, URBANAS, AGRÍCOLAS, INDUSTRIALES, ETC. LA URBANIZACIÓN, PARCELACIÓN Y GESTIÓN DE TERRENOS. LA PROMOCIÓN Y CONSTRUCCIÓN DE TODA CLASE DE EDIFICIOS EN CUALQUIERA DE SUS FORMAS Y EN GENERAL LO COMPRENDIDO EN EL ÁMBITO INMOBILIARIO Y URBANÍSTICO.\r\n\r\nF) EL EJERCICIO DE ACTIVIDADES DE GESTIÓN, TRATAMIENTO, TRANSFORMACIÓN O ELIMINACIÓN DE RESIDUOS, SEAN O NO  TÓXICOS O PELIGROSOS .\r\n\r\nG) LA CONTRATACIÓN DE SERVICIOS PÚBLICOS  PRIVADOS DE RECOGIDA, TRANSPORTE, TRATAMIENTO, APROVECHAMIENTO Y ELIMINACIÓN DE RESIDUOS SÓLIDOS URBANOS, INDUSTRIALES DE CUALQUIER NATURALEZA, AGRÍCOLAS, GANADEROS, FORESTALES, MINERALES, ASÍ COMO AQUELLOS OTROS RESIDUOS QUE POR SUS TÉCNICAS DE GESTIÓN SON ASIMILABLES A LOS ANTERIORES.\r\n\r\nH) EL RECICLAJE, APROVECHAMIENTO Y RECUPERACIÓN DE LOS ELEMENTOS COMERCIALIZABLES CONTENIDOS EN LOS RESIDUOS INDICADOS, O  SUSCEPTIBLES DE CUALQUIER FORMA DE VALORACIÓN.\r\n\r\nI) EL MANTENIMIENTO Y CONSERVACIÓN DE EDIFICIOS, PARQUES Y JARDINES, REDES DE AGUAS, ALCANTARILLADO, ESTACIONES DEPURADORAS, CARRETERAS Y VÍAS PÚBLIACS, ASÍ COMO INSTALACIONES DE GAS, AIRE ACONDICIONADO, CALEFACCIÓN Y ELECTRICIDAD.\r\n\r\nJ) EL DISEÑO, INVESTIGACIÓN Y DESARROLLO, FABRICACIÓN, COMPRA, VENTA, SUMINISTRO, IMPORTACIÓN, EXPORTACIÓN, ALQUILER, MANTENIMIENTO, DISTRIBUCIÓN, REPRESENTACIÓN COMERCIAL Y EXPLOTACIÓN DE MATERIALES, EQUIPOS, MÁQUINAS E INSTALACIONES DESTINADAS A LA EJECUCIÓN DE OBRAS Y EDIFICACIONES O AL MANTENIMIENTO DE LAS MISMAS Y AL TRATAMIENTO DE TODA CLASE DE RESIDUOS, EFLUENTES Y AGUAS RESIDUALES DE CUALQUIER CLASE.\r\n\r\nK) LA COMPRA, VENTA, EXPLOTACIÓN, GESTIÓN EN CUALQUIER FORMA DE PATENTES, MODELOS, MARCAS, LICENCIAS Y DEMÁS MODALIDADES DE LA PROPIEDAD INDUSTRIAL E INTELECTUAL RELACIONADAS CON LA EJECUCIÓN O MANTENIMIENTO DE OBRAS, EDIFICACIONES, CONSTRUCCIONES E INSTALACIONES O LA GESTIÓN DEL MEDIO AMBIENTE.\r\n\r\nL) LIMPIEZA, HIGIENIZACIÓN Y DESINFECCIÓN DE EDIFICIOS PÚBLICOS O PRIVADOS Y VÍAS PÚBLICAS.\r\n\r\nM) EL TRANSPORTE PÚBLICO DISCRECIONAL DE MERCANCÍAS POR CARRETERA EN EL ÁMBITO LOCAL, NACIONAL E INTERNACIONAL   ",
      "mainEntityOfPage": "https://www.contratacion.euskadi.eus/webkpe00-kperoc/es/ac71aBusquedaRegistrosWar/empresa/02961",
      "_links": {
        "self": {
          "name": "CONTRATACIÓN Y EJECUCIÓN DE OBRAS, S.A.",
          "href": "https://api.euskadi.eus/procurements/companies/02961"
        }
      }
    },
    {
      "name": "LOYOLA AUDITORES, S.L.",
      "registrationNumber": "02956",
      "identificationNumber": "B95248548",
      "address": "C/ RODRÍGUEZ ARIAS, 14-1º IZDA.",
      "location": {
        "postalCode": "48011",
        "municipality": "Bilbao",
        "county": "Bizkaia",
        "municipalityId": "020",
        "countyId": "48"
      },
      "economicActivities": [
        {
          "id": "1.842",
          "name": "Servicios financieros y contables",
          "_links": {
            "self": {
              "name": "Servicios financieros y contables",
              "href": "https://api.euskadi.eus/procurements/companies/economic-activities/1.842"
            }
          }
        }
      ],
      "certificateStartDate": "2004-12-30",
      "certificateEndDate": "2005-04-07",
      "object": "LA PRESTACIÓN DE SERVICIOS DE AUDITORIA, REVISIÓN, CENSURA, VERIFICACIÓN Y ANÁLISIS EN GENERAL DE CUENTAS, ESTADOS FINANCIEROS Y CUALQUIER OTRA INFORMACIÓN DE ÍNDOLE CONTABLE, ECONÓMICA Y/O FINANCIERA MEDIANTE LA UTILIZACIÓN DE LAS TÉCNICAS DE REVISIÓN Y VERIFICACIÓN IDÓNEAS",
      "mainEntityOfPage": "https://www.contratacion.euskadi.eus/webkpe00-kperoc/es/ac71aBusquedaRegistrosWar/empresa/02956",
      "_links": {
        "self": {
          "name": "LOYOLA AUDITORES, S.L.",
          "href": "https://api.euskadi.eus/procurements/companies/02956"
        }
      }
    },
    {
      "name": "I MÁS D TOKI, S.L.",
      "registrationNumber": "02176",
      "identificationNumber": "B48927974",
      "address": "C/ LEDESMA, Nº 6 - 4º. DPTO. 2",
      "location": {
        "postalCode": "48001",
        "municipality": "Bilbao",
        "county": "Bizkaia",
        "municipalityId": "020",
        "countyId": "48"
      },
      "economicActivities": [
        {
          "id": "1.845",
          "name": "Explotación electrónica por cuenta de terceros",
          "_links": {
            "self": {
              "name": "Explotación electrónica por cuenta de terceros",
              "href": "https://api.euskadi.eus/procurements/companies/economic-activities/1.845"
            }
          }
        }
      ],
      "certificateStartDate": "2004-12-20",
      "certificateEndDate": "2005-04-26",
      "object": "\r\n\r\n1.- ADQUISICIÓN, ANÁLISIS, DISEÑO, DESARROLLO, DISTRIBUCIÓN Y VENTA DE PROGRAMAS INFORMÁTICOS Y APLICACIONES GENÉRICAS Y A MEDIDA ASÍ COMO SU MANTENIMIENTO.\r\n\r\n2.- ADQUISICIÓN, FABRICACIÓN, DISEÑO, VENTA Y DISTRIBUCIÓN DE ORDENADORES, COMPONENTES, PERIFÉRICOS, CONSUMIBLES Y DEMÁS PRODUCTOS RELACIONADOS CON LA OFIMÁTICA ASÍ COMO SU MANTENIMIENTO.\r\n\r\n3.- ADQUISICIÓN, DISEÑO, DESARROLLO, DISTRIBUCIÓN Y VENTA DE DOCUMENTACIÓN RELACIONADA CON PROCESOS DE GESTIÓN DE LA INFORMACIÓN.\r\n\r\n4.- PRESTACIÓN DE SERVICIOS DE ASESORAMIENTO, CONSULTORÍA Y AUDITORÍA DE SERVICIOS LABORALES, COMERCIALES, LOGÍSTICOS E INFORMÁTICOS, ASÍ COMO LA ELABORACIÓN DE ESTUDIOS, DICTÁMENES, PROYECTOS Y PLANES EN DICHAS MATERIAS Y SU EJECUCIÓN Y GESTIÓN.\r\n\r\n5.- PROMOCIÓN, ESTUDIO Y DESARROLLO DE PRODUCTOS Y ACTIVIDADES INDUSTRIALES, COMERCIALES Y DE DISTRIBUCIÓN EN EMPRESAS PROPIAS O PARTICIPADAS Y EXPLOTACIÓN O CESIÓN DE CÁNONES O ROYALTÍES, Y DERECHOS DE PROPIEDAD INDUSTRIAL.\r\n\r\n6.- SERVICIOS DE MEDIACIÓN, GESTIÓN, REPRESENTACIÓN Y COMERCIO INTERIOR Y EXTERIOR, ALMACENAMIENTO, ARRENDAMIENTO Y EN GENERAL, COMERCIALIZACIÓN Y DISTRIBUCIÓN DE TODA CLASE DE PRODUCTOS",
      "mainEntityOfPage": "https://www.contratacion.euskadi.eus/webkpe00-kperoc/es/ac71aBusquedaRegistrosWar/empresa/02176",
      "_links": {
        "self": {
          "name": "I MÁS D TOKI, S.L.",
          "href": "https://api.euskadi.eus/procurements/companies/02176"
        }
      }
    }
  ]
}