{
  "totalItems": 9042,
  "totalPages": 905,
  "currentPage": 824,
  "itemsOfPage": 10,
  "items": [
    {
      "name": "DESCOL, S.L. SOCIEDAD UNIPERSONAL",
      "registrationNumber": "02211",
      "identificationNumber": "B20218186",
      "address": "C/ PÍO BAROJA, Nº 18.",
      "location": {
        "postalCode": "20305",
        "municipality": "Irun",
        "county": "Gipuzkoa",
        "municipalityId": "045",
        "countyId": "20"
      },
      "economicActivities": [
        {
          "id": "1.921.3",
          "name": "Exterminio de animales dañinos y desinfección",
          "_links": {
            "self": {
              "name": "Exterminio de animales dañinos y desinfección",
              "href": "https://api.euskadi.eus/procurements/companies/economic-activities/1.921.3"
            }
          }
        },
        {
          "id": "1.922",
          "name": "Servicios de limpieza",
          "_links": {
            "self": {
              "name": "Servicios de limpieza",
              "href": "https://api.euskadi.eus/procurements/companies/economic-activities/1.922"
            }
          }
        }
      ],
      "certificateStartDate": "1999-11-30",
      "certificateEndDate": "2000-05-10",
      "object": "LA LIMPIEZA, ORNATO, SANEAMIENTO Y DESINFECCIÓN EN GENERAL DE LOCALES Y PABELLONES COMERCIALES E INDUSTRIALES",
      "mainEntityOfPage": "https://www.contratacion.euskadi.eus/webkpe00-kperoc/es/ac71aBusquedaRegistrosWar/empresa/02211",
      "_links": {
        "self": {
          "name": "DESCOL, S.L. SOCIEDAD UNIPERSONAL",
          "href": "https://api.euskadi.eus/procurements/companies/02211"
        }
      }
    },
    {
      "name": "TOMÁS ANIBARRO BAUSELA (LAVANDERÍA CÓNDOR)",
      "registrationNumber": "01881",
      "identificationNumber": "14230509H",
      "address": "C/ CARRETERA ASÚA - ERLECHES, Nº 50.",
      "location": {
        "postalCode": "48150",
        "municipality": "Sondika",
        "county": "Bizkaia",
        "municipalityId": "904",
        "countyId": "48"
      },
      "economicActivities": [
        {
          "id": "1.971.1",
          "name": "Tinte, limpieza en seco, lavado y planchado de ropas",
          "_links": {
            "self": {
              "name": "Tinte, limpieza en seco, lavado y planchado de ropas",
              "href": "https://api.euskadi.eus/procurements/companies/economic-activities/1.971.1"
            }
          }
        }
      ],
      "certificateStartDate": "1999-11-26",
      "certificateEndDate": "2000-05-16",
      "object": "LAVADO, PLANCHADO DE ROPA HOSPITALARIA, DE CONFECCIÓN, DE TRABAJO, ETC.",
      "mainEntityOfPage": "https://www.contratacion.euskadi.eus/webkpe00-kperoc/es/ac71aBusquedaRegistrosWar/empresa/01881",
      "_links": {
        "self": {
          "name": "TOMÁS ANIBARRO BAUSELA (LAVANDERÍA CÓNDOR)",
          "href": "https://api.euskadi.eus/procurements/companies/01881"
        }
      }
    },
    {
      "name": "ROBERTO MARTÍNEZ DE ALBÉNIZ PRECIADO (IMAR-JARDÍN)",
      "registrationNumber": "01703",
      "identificationNumber": "18600276S",
      "address": "C/ PORTAL DE BETOÑO, Nº 26 - BAJO.",
      "location": {
        "postalCode": "01013",
        "municipality": "Vitoria-Gasteiz",
        "county": "Araba/Álava",
        "municipalityId": "059",
        "countyId": "01"
      },
      "economicActivities": [
        {
          "id": "1.362",
          "name": "Construcción de carrocerías, remolques y volquetes",
          "_links": {
            "self": {
              "name": "Construcción de carrocerías, remolques y volquetes",
              "href": "https://api.euskadi.eus/procurements/companies/economic-activities/1.362"
            }
          }
        },
        {
          "id": "1.468.5",
          "name": "Actividades anexas a la industria del mueble (acabado, barnizado,...)",
          "_links": {
            "self": {
              "name": "Actividades anexas a la industria del mueble (acabado, barnizado,...)",
              "href": "https://api.euskadi.eus/procurements/companies/economic-activities/1.468.5"
            }
          }
        },
        {
          "id": "1.921.9",
          "name": "Otros servicios de saneamiento y similares n.c.o.p",
          "_links": {
            "self": {
              "name": "Otros servicios de saneamiento y similares n.c.o.p",
              "href": "https://api.euskadi.eus/procurements/companies/economic-activities/1.921.9"
            }
          }
        }
      ],
      "certificateStartDate": "1999-11-25",
      "certificateEndDate": "2000-05-18",
      "object": "SERVICIOS DE SANEAMIENTO Y SIMILARES",
      "mainEntityOfPage": "https://www.contratacion.euskadi.eus/webkpe00-kperoc/es/ac71aBusquedaRegistrosWar/empresa/01703",
      "_links": {
        "self": {
          "name": "ROBERTO MARTÍNEZ DE ALBÉNIZ PRECIADO (IMAR-JARDÍN)",
          "href": "https://api.euskadi.eus/procurements/companies/01703"
        }
      }
    },
    {
      "name": "ASOCIACIÓN EN FAVOR DE LA INFANCIA Y LA JUVENTUD IZAN",
      "registrationNumber": "01978",
      "identificationNumber": "G01143254",
      "address": "C/ FEDERICO BARAIBAR, Nº 36.",
      "location": {
        "postalCode": "01003",
        "municipality": "Vitoria-Gasteiz",
        "county": "Araba/Álava",
        "municipalityId": "059",
        "countyId": "01"
      },
      "certificateStartDate": "1999-11-22",
      "certificateEndDate": "2000-05-15",
      "object": "TRABAJAR Y ACTUAR EN FAVOR DE LA INFANCIA Y JUVENTUD CON PROBLEMAS DE ADAPTACIÓN EN SU MEDIO FAMILIAR HABITUAL. SIN PERJUICIO DE LAS ACTIVIDADES DESCRITAS EN EL APARTADO ANTERIOR, LA ASOCIACIÓN PARA EL CUMPLIMIENTO DE SUS FINES PODRÁ:\r\n\r\na) DESARROLLAR ACTIVIDADES ECONÓMICAS DE TODO TIPO, ENCAMINADAS A LA REALIZACIÓN DE SUS FINES O A LLEGAR A RECURSOS CON ESE OBJETIVO.\r\n\r\nb) ADQUIRIR Y POSEER BIENES DE TODAS CLASES Y POR CUALQUIER TÍTULO, ASÍ COMO CELEBRAR ACTOS Y CONTRATOS DE TODO GÉNERO.\r\n\r\nc) EJERCITAR TODA CLASE DE ACCIONES CONFORME A LAS LEYES O A SUS ESTATUTOS",
      "mainEntityOfPage": "https://www.contratacion.euskadi.eus/webkpe00-kperoc/es/ac71aBusquedaRegistrosWar/empresa/01978",
      "_links": {
        "self": {
          "name": "ASOCIACIÓN EN FAVOR DE LA INFANCIA Y LA JUVENTUD IZAN",
          "href": "https://api.euskadi.eus/procurements/companies/01978"
        }
      }
    },
    {
      "name": "EXCAVACIONES SATUR GÓMEZ, S.R.L.",
      "registrationNumber": "01315",
      "identificationNumber": "B48248009",
      "address": "C/ BIZKAI BURU, Nº 2 - BAJO.",
      "location": {
        "postalCode": "48370",
        "municipality": "Bermeo",
        "county": "Bizkaia",
        "municipalityId": "017",
        "countyId": "48"
      },
      "economicActivities": [
        {
          "id": "1.502.2",
          "name": "Consolidación y preparación de terrenos para la construcción de edificaciones",
          "_links": {
            "self": {
              "name": "Consolidación y preparación de terrenos para la construcción de edificaciones",
              "href": "https://api.euskadi.eus/procurements/companies/economic-activities/1.502.2"
            }
          }
        }
      ],
      "certificateStartDate": "1999-11-19",
      "certificateEndDate": "2000-05-03",
      "object": "LAS EXCAVACIONES, DEMOLICIONES, DERRIBOS, EXTRACCIONES Y CONSOLIDACIÓN Y PREPARACIÓN DE TERRENOS, ASÍ COMO LOS MOVIMIENTOS DE TIERRA, PAVIMENTACIONES, SANEAMIENTOS, JARDINERÍA Y PLANTACIONES",
      "mainEntityOfPage": "https://www.contratacion.euskadi.eus/webkpe00-kperoc/es/ac71aBusquedaRegistrosWar/empresa/01315",
      "_links": {
        "self": {
          "name": "EXCAVACIONES SATUR GÓMEZ, S.R.L.",
          "href": "https://api.euskadi.eus/procurements/companies/01315"
        }
      }
    },
    {
      "name": "MENSAJERÍAS URITRANS, S.L.",
      "registrationNumber": "01525",
      "identificationNumber": "B48539845",
      "address": "C/ AVENIDA JULIÁN GAYARRE, Nº 52 - LONJA TRASERA.",
      "location": {
        "postalCode": "48004",
        "municipality": "Bilbao",
        "county": "Bizkaia",
        "municipalityId": "020",
        "countyId": "48"
      },
      "economicActivities": [
        {
          "id": "1.754.1",
          "name": "Depósitos y almacenes generales",
          "_links": {
            "self": {
              "name": "Depósitos y almacenes generales",
              "href": "https://api.euskadi.eus/procurements/companies/economic-activities/1.754.1"
            }
          }
        },
        {
          "id": "1.756.1",
          "name": "Agencias de transporte, transitarios",
          "_links": {
            "self": {
              "name": "Agencias de transporte, transitarios",
              "href": "https://api.euskadi.eus/procurements/companies/economic-activities/1.756.1"
            }
          }
        }
      ],
      "certificateStartDate": "1999-11-12",
      "certificateEndDate": "2000-04-20",
      "object": "LA PRESTACIÓN DE TODA CLASE DE SERVICIOS RELACIONADOS CON LA CORRESPONDENCIA, COMO PREPARACIÓN DE SOBRES, DOCUMENTOS, ENTREGA DE DOCUMENTOS CON NOTIFICACIÓN, SU ENSOBRADO Y MANIPULACIÓN, EL TRANSPORTE DE VALIJAS Y PAQUETERÍA, Y TODA CLASE DE MENSAJERÍA",
      "mainEntityOfPage": "https://www.contratacion.euskadi.eus/webkpe00-kperoc/es/ac71aBusquedaRegistrosWar/empresa/01525",
      "_links": {
        "self": {
          "name": "MENSAJERÍAS URITRANS, S.L.",
          "href": "https://api.euskadi.eus/procurements/companies/01525"
        }
      }
    },
    {
      "name": "EUTELEK, S.A.",
      "registrationNumber": "01596",
      "identificationNumber": "A48406672",
      "address": "C/ GREGORIO DE LA REVILLA, Nº 3 - 2º F.",
      "location": {
        "postalCode": "48011",
        "municipality": "Bilbao",
        "county": "Bizkaia",
        "municipalityId": "020",
        "countyId": "48"
      },
      "economicActivities": [
        {
          "id": "1.849.9",
          "name": "Otros servicios independientes n.c.o.p",
          "_links": {
            "self": {
              "name": "Otros servicios independientes n.c.o.p",
              "href": "https://api.euskadi.eus/procurements/companies/economic-activities/1.849.9"
            }
          }
        }
      ],
      "certificateStartDate": "1999-10-28",
      "certificateEndDate": "2000-04-21",
      "object": "LA FABRICACIÓN DE ARTÍCULOS DE CALDERERÍA, MATERIAL ELECTRÓNICO Y APARATOS DE TELECOMUNICACIÓN, INSTALACIONES DE REDES TELEGRÁFICAS, TELEFÓNICAS, TELEFONÍA SIN HILOS, Y TELEVISIÓN.\r\n\r\nCOMERCIAL AL POR MAYOR DE APARATOS DE RADIOTELEFONÍA, TELEVISIÓN, TELEFONÍA Y TELEGRAFÍA.\r\n\r\nEL ASESORAMIENTO DE PERSONAS FÍSICAS Y JURÍDICAS, TANTO FISCAL COMO JURÍDICO, FINANCIERO O DE CUALQUIER OTRO TIPO; EL ESTUDIO, LA INVESTIGACIÓN, PROMOCIÓN Y PRESENTACIÓN DE TODA CLASE DE SERVICIOS DE ASISTENCIA Y GESTIÓN, TÉCNICA, ADMINISTRATIVA COMERCIAL Y CONTABLE, INVERSIÓN Y PARTICIPACIÓN EN EMPRESAS, CONSULTORÍA INTEGRAL EN GESTIÓN DE EMPRESAS",
      "mainEntityOfPage": "https://www.contratacion.euskadi.eus/webkpe00-kperoc/es/ac71aBusquedaRegistrosWar/empresa/01596",
      "_links": {
        "self": {
          "name": "EUTELEK, S.A.",
          "href": "https://api.euskadi.eus/procurements/companies/01596"
        }
      }
    },
    {
      "name": "HAWKER-OLDHAM, S.A.",
      "registrationNumber": "00828",
      "identificationNumber": "A48081152",
      "address": "AVENIDA PINOA, S/N",
      "location": {
        "postalCode": "48170",
        "municipality": "Zamudio",
        "county": "Bizkaia",
        "municipalityId": "905",
        "countyId": "48"
      },
      "economicActivities": [
        {
          "id": "1.342",
          "name": "Fabricación de material eléctrico de utilización y equipamiento",
          "_links": {
            "self": {
              "name": "Fabricación de material eléctrico de utilización y equipamiento",
              "href": "https://api.euskadi.eus/procurements/companies/economic-activities/1.342"
            }
          }
        },
        {
          "id": "1.343",
          "name": "Fabricación de pilas y acumuladores",
          "_links": {
            "self": {
              "name": "Fabricación de pilas y acumuladores",
              "href": "https://api.euskadi.eus/procurements/companies/economic-activities/1.343"
            }
          }
        }
      ],
      "certificateStartDate": "1999-10-26",
      "certificateEndDate": "2000-03-17",
      "object": "LA COMERCIALIZACIÓN EN GENERAL DE TODA CLASE DE PRODUCTOS O BIENES; LA REPRESENTACIÓN COMO AGENTE COMISIONISTA, DELEGADO O CUALQUIER OTRA FORMA DE MEDIACIÓN MERCANTIL DE TODA CLASE DE EMPRESAS; LA INTRODUCCIÓN, REGISTRO, EXPLOTACIÓN Y CONCESIÓN DE PATENTES; LA FABRICACIÓN, MONTAJE; EXPLOTACIÓN Y COMERCIALIZACIÓN DE PRODUCTOS MÉDICOS, QUÍMICOS, NAVALES Y ELÉCTRICOS",
      "mainEntityOfPage": "https://www.contratacion.euskadi.eus/webkpe00-kperoc/es/ac71aBusquedaRegistrosWar/empresa/00828",
      "_links": {
        "self": {
          "name": "HAWKER-OLDHAM, S.A.",
          "href": "https://api.euskadi.eus/procurements/companies/00828"
        }
      }
    },
    {
      "name": "ALMERPA, S.L.",
      "registrationNumber": "02190",
      "identificationNumber": "B01130434",
      "address": "C/ JOSÉ Mª IPARRAGUIRRE, Nº 28",
      "location": {
        "postalCode": "01006",
        "municipality": "Vitoria-Gasteiz",
        "county": "Araba/Álava",
        "municipalityId": "059",
        "countyId": "01"
      },
      "economicActivities": [
        {
          "id": "1.613.5",
          "name": "Venta al por mayor de camisería, lencéría, mercería y géneros de punto",
          "_links": {
            "self": {
              "name": "Venta al por mayor de camisería, lencéría, mercería y géneros de punto",
              "href": "https://api.euskadi.eus/procurements/companies/economic-activities/1.613.5"
            }
          }
        }
      ],
      "certificateStartDate": "1999-10-26",
      "certificateEndDate": "2000-04-04",
      "object": "EL COMERCIO AL POR MAYOR Y MENOR DE CAMISERÍA, LENCERÍA, MERCERÍA, GÉNEROS DE PUNTO, ACCESORIOS DEL VESTIDO Y OTROS PRODUCTOS TEXTILES, ARTÍCULOS DE CUERO, MARROQUINERÍA; ASÍ COMO LA FABRICACIÓN Y VENTA DE PRODUCTOS MANUFACTURADOS DE MARROQUINERÍA Y PIELES",
      "mainEntityOfPage": "https://www.contratacion.euskadi.eus/webkpe00-kperoc/es/ac71aBusquedaRegistrosWar/empresa/02190",
      "_links": {
        "self": {
          "name": "ALMERPA, S.L.",
          "href": "https://api.euskadi.eus/procurements/companies/02190"
        }
      }
    },
    {
      "name": "CENTRO DE INVESTIGACIÓN, DISEÑO Y PRODUCCIÓN DEL MUEBLE, S.L. SDAD. UNIPERSONAL",
      "registrationNumber": "02137",
      "identificationNumber": "B48946461",
      "address": "C/ SAN VICENTE, Nº 8. EDIF. ALBIA II - 9ª DCHA.",
      "location": {
        "postalCode": "48001",
        "municipality": "Bilbao",
        "county": "Bizkaia",
        "municipalityId": "020",
        "countyId": "48"
      },
      "economicActivities": [
        {
          "id": "1.501.1",
          "name": "Construcción completa, reparación y conservación de edificaciones",
          "_links": {
            "self": {
              "name": "Construcción completa, reparación y conservación de edificaciones",
              "href": "https://api.euskadi.eus/procurements/companies/economic-activities/1.501.1"
            }
          }
        },
        {
          "id": "1.659.2",
          "name": "Venta al por menor de muebles de oficina y máquinas y equipos de oficina",
          "_links": {
            "self": {
              "name": "Venta al por menor de muebles de oficina y máquinas y equipos de oficina",
              "href": "https://api.euskadi.eus/procurements/companies/economic-activities/1.659.2"
            }
          }
        }
      ],
      "certificateStartDate": "1999-10-25",
      "certificateEndDate": "2000-04-04",
      "object": "EL DISEÑO, FABRICACIÓN Y COMERCIALIZACIÓN DE MOBILIARIO",
      "mainEntityOfPage": "https://www.contratacion.euskadi.eus/webkpe00-kperoc/es/ac71aBusquedaRegistrosWar/empresa/02137",
      "_links": {
        "self": {
          "name": "CENTRO DE INVESTIGACIÓN, DISEÑO Y PRODUCCIÓN DEL MUEBLE, S.L. SDAD. UNIPERSONAL",
          "href": "https://api.euskadi.eus/procurements/companies/02137"
        }
      }
    }
  ]
}