{
  "totalItems": 9042,
  "totalPages": 905,
  "currentPage": 383,
  "itemsOfPage": 10,
  "items": [
    {
      "name": "ATE ASESORES LEGALES, S.L.P.",
      "registrationNumber": "04299",
      "identificationNumber": "B20798369",
      "address": "PLAZA TXOFRE, 4",
      "location": {
        "postalCode": "20001",
        "municipality": "Donostia / San Sebastián",
        "county": "Gipuzkoa",
        "municipalityId": "069",
        "countyId": "20"
      },
      "economicActivities": [
        {
          "id": "1.841",
          "name": "Servicios jurídicos",
          "_links": {
            "self": {
              "name": "Servicios jurídicos",
              "href": "https://api.euskadi.eus/procurements/companies/economic-activities/1.841"
            }
          }
        }
      ],
      "certificateStartDate": "2024-10-23",
      "certificateEndDate": "2025-04-20",
      "object": "LAS ACTIVIDADES PROPIAS DE LOS ABOGADOS Y ECONOMISTAS COLEGIADOS SEGÚN APARECEN TIPIFICADOS EN SUS ESTATUTOS PROFESIONALES RESPECTIVOS",
      "mainEntityOfPage": "https://www.contratacion.euskadi.eus/webkpe00-kperoc/es/ac71aBusquedaRegistrosWar/empresa/04299",
      "_links": {
        "self": {
          "name": "ATE ASESORES LEGALES, S.L.P.",
          "href": "https://api.euskadi.eus/procurements/companies/04299"
        }
      }
    },
    {
      "name": "ARABAKO LAGUNTZA S. COOP.",
      "registrationNumber": "06093",
      "identificationNumber": "F01041904",
      "address": "C/ Kutxa, 6 bajo",
      "location": {
        "postalCode": "01012",
        "municipality": "Vitoria-Gasteiz",
        "county": "Araba/Álava",
        "municipalityId": "059",
        "countyId": "01"
      },
      "economicActivities": [
        {
          "id": "1.952",
          "name": "Asistencia y servicios sociales en centros no residenciales",
          "_links": {
            "self": {
              "name": "Asistencia y servicios sociales en centros no residenciales",
              "href": "https://api.euskadi.eus/procurements/companies/economic-activities/1.952"
            }
          }
        }
      ],
      "certificateStartDate": "2024-10-22",
      "certificateEndDate": "2024-03-19",
      "object": "LA PRESTACIÓN DE TODO TIPO DE SERVICIOS DE CARÁCTER SOCIAL",
      "mainEntityOfPage": "https://www.contratacion.euskadi.eus/webkpe00-kperoc/es/ac71aBusquedaRegistrosWar/empresa/06093",
      "_links": {
        "self": {
          "name": "ARABAKO LAGUNTZA S. COOP.",
          "href": "https://api.euskadi.eus/procurements/companies/06093"
        }
      }
    },
    {
      "name": "JUAN MANUEL GOMEZ CANO",
      "registrationNumber": "08793",
      "identificationNumber": "16259237P",
      "address": "Calle Pedro de Asua 13-1ºA (01008)",
      "location": {
        "postalCode": "01008",
        "municipality": "Vitoria-Gasteiz",
        "county": "Araba/Álava",
        "municipalityId": "059",
        "countyId": "01"
      },
      "economicActivities": [
        {
          "id": "2.421",
          "name": "Arquitectos técnicos y aparejadores",
          "_links": {
            "self": {
              "name": "Arquitectos técnicos y aparejadores",
              "href": "https://api.euskadi.eus/procurements/companies/economic-activities/2.421"
            }
          }
        }
      ],
      "certificateStartDate": "2024-10-22",
      "certificateEndDate": "2025-04-22",
      "object": "ARQUITECTOS TÉCNICOS Y APAREJADORES.",
      "mainEntityOfPage": "https://www.contratacion.euskadi.eus/webkpe00-kperoc/es/ac71aBusquedaRegistrosWar/empresa/08793",
      "_links": {
        "self": {
          "name": "JUAN MANUEL GOMEZ CANO",
          "href": "https://api.euskadi.eus/procurements/companies/08793"
        }
      }
    },
    {
      "name": "GEOGRAMA GIS S.L.",
      "registrationNumber": "05774",
      "identificationNumber": "B01486737",
      "address": "Plaza del Renacimiento 9 2ªPlanta Of 2",
      "location": {
        "postalCode": "01004",
        "municipality": "Vitoria-Gasteiz",
        "county": "Araba/Álava",
        "municipalityId": "059",
        "countyId": "01"
      },
      "economicActivities": [
        {
          "id": "1.845",
          "name": "Explotación electrónica por cuenta de terceros",
          "_links": {
            "self": {
              "name": "Explotación electrónica por cuenta de terceros",
              "href": "https://api.euskadi.eus/procurements/companies/economic-activities/1.845"
            }
          }
        }
      ],
      "certificateStartDate": "2024-10-22",
      "certificateEndDate": "2025-04-15",
      "object": "- SERVICIOS, CONTENIDOS Y SISTEMAS DE INFORMACIÓN GEOGRÁFICA. - SERVICIOS DE CAPTURA DE INFORMACIÓN POR MEDIOS ELECTRÓNICOS, INFORMÁTICOS Y TELEMÁTICOS. - SERVICIOS DE DESARROLLO Y MANTENIMIENTO DE PROGRAMAS DE ORDENADOR. - SERVICIOS DE EXPLOTACIÓN Y CONTROL DE SISTEMAS INFORMÁTICOS E INFRAESTRUCTURAS TELEMÁTICAS. - SERVICIOS GEOGRÁFICOS A TRAVÉS DE INTERNET U OTRAS REDES. - SERVICIOS DE ALOJAMIENTO O HOSTING DE MAPAS E INFORMACIÓN GEOGRÁFICA\n",
      "mainEntityOfPage": "https://www.contratacion.euskadi.eus/webkpe00-kperoc/es/ac71aBusquedaRegistrosWar/empresa/05774",
      "_links": {
        "self": {
          "name": "GEOGRAMA GIS S.L.",
          "href": "https://api.euskadi.eus/procurements/companies/05774"
        }
      }
    },
    {
      "name": "HNK, INGENIERIA, URBANISMO Y MEDIO AMBIENTE, S.L.P.",
      "registrationNumber": "03153",
      "identificationNumber": "B01391697",
      "address": "CALLE PINTOR TEODORO DUBLANG, Nº 7 - BAJO",
      "location": {
        "postalCode": "01008",
        "municipality": "Vitoria-Gasteiz",
        "county": "Araba/Álava",
        "municipalityId": "059",
        "countyId": "01"
      },
      "economicActivities": [
        {
          "id": "1.843.1",
          "name": "Servicios técnicos de ingeniería",
          "_links": {
            "self": {
              "name": "Servicios técnicos de ingeniería",
              "href": "https://api.euskadi.eus/procurements/companies/economic-activities/1.843.1"
            }
          }
        },
        {
          "id": "1.843.2",
          "name": "Servicios técnicos de arquitectura y urbanismo",
          "_links": {
            "self": {
              "name": "Servicios técnicos de arquitectura y urbanismo",
              "href": "https://api.euskadi.eus/procurements/companies/economic-activities/1.843.2"
            }
          }
        }
      ],
      "certificateStartDate": "2024-10-21",
      "certificateEndDate": "2025-04-18",
      "object": "LA ACTIVIDAD PROPIA DE LOS PROFESIONALES DE LA INGENIERÍA TÉCNICA DE OBRAS PÚBLICAS",
      "mainEntityOfPage": "https://www.contratacion.euskadi.eus/webkpe00-kperoc/es/ac71aBusquedaRegistrosWar/empresa/03153",
      "_links": {
        "self": {
          "name": "HNK, INGENIERIA, URBANISMO Y MEDIO AMBIENTE, S.L.P.",
          "href": "https://api.euskadi.eus/procurements/companies/03153"
        }
      }
    },
    {
      "name": "NEW DIGITAL MEDIA EUSKADI, S.L.",
      "registrationNumber": "08978",
      "identificationNumber": "B95837654",
      "address": "PZ. CIRCULAR Nº 4 PLANTA 8",
      "location": {
        "postalCode": "48001",
        "municipality": "Bilbao",
        "county": "Bizkaia",
        "municipalityId": "020",
        "countyId": "48"
      },
      "economicActivities": [
        {
          "id": "1.961.1",
          "name": "Producción de películas cinematográficas (incluso vídeos)",
          "_links": {
            "self": {
              "name": "Producción de películas cinematográficas (incluso vídeos)",
              "href": "https://api.euskadi.eus/procurements/companies/economic-activities/1.961.1"
            }
          }
        },
        {
          "id": "1.964.2",
          "name": "Servicios de televisión",
          "_links": {
            "self": {
              "name": "Servicios de televisión",
              "href": "https://api.euskadi.eus/procurements/companies/economic-activities/1.964.2"
            }
          }
        }
      ],
      "certificateStartDate": "2024-10-18",
      "certificateEndDate": "2025-04-08",
      "object": "LA REALIZACIÓN DE LAS ACTIVIDADES RELACIONADAS CON EL DESARROLLO, PRODUCCIÓN Y COMERCIALIZACIÓN DE PRODUCTOS Y FORMATOS AUDIOVISUALES Y LA PRESTACIÓN DE SERVICIOS DE CONSULTORÍA, DISEÑO, IMPLEMENTACIÓN, MANTENIMIENTO Y PRODUCCIÓN, TODO ELLO EN EL ÁMBITO DE LAS TECNOLOGÍAS AUDIOVISUALES Y MULTIMEDIA.",
      "mainEntityOfPage": "https://www.contratacion.euskadi.eus/webkpe00-kperoc/es/ac71aBusquedaRegistrosWar/empresa/08978",
      "_links": {
        "self": {
          "name": "NEW DIGITAL MEDIA EUSKADI, S.L.",
          "href": "https://api.euskadi.eus/procurements/companies/08978"
        }
      }
    },
    {
      "name": "IDOIA ZULUAGA MARTIN",
      "registrationNumber": "09862",
      "identificationNumber": "30675410B",
      "address": "Barrio Elexalde",
      "location": {
        "postalCode": "48113",
        "municipality": "Gamiz-Fika",
        "county": "Bizkaia",
        "municipalityId": "038",
        "countyId": "48"
      },
      "economicActivities": [
        {
          "id": "1.965.3",
          "name": "Espectáculos fuera de establecimiento permanente (excepto los taurinos)",
          "_links": {
            "self": {
              "name": "Espectáculos fuera de establecimiento permanente (excepto los taurinos)",
              "href": "https://api.euskadi.eus/procurements/companies/economic-activities/1.965.3"
            }
          }
        },
        {
          "id": "2.826",
          "name": "Personal docente de enseñanzas diversas",
          "_links": {
            "self": {
              "name": "Personal docente de enseñanzas diversas",
              "href": "https://api.euskadi.eus/procurements/companies/economic-activities/2.826"
            }
          }
        }
      ],
      "certificateStartDate": "2024-10-18",
      "certificateEndDate": "2025-04-15",
      "object": "ESPECTÁCULOS FUERA DE ESTABLECIMIENTO PERMANENTE (EXCEPTO LOS TAURINOS). PERSONAL DOCENTE DE ENSEÑANZAS DIVERSAS.",
      "mainEntityOfPage": "https://www.contratacion.euskadi.eus/webkpe00-kperoc/es/ac71aBusquedaRegistrosWar/empresa/09862",
      "_links": {
        "self": {
          "name": "IDOIA ZULUAGA MARTIN",
          "href": "https://api.euskadi.eus/procurements/companies/09862"
        }
      }
    },
    {
      "name": "CARLOS FRANCISCO RUIZ GONZÁLEZ",
      "registrationNumber": "09037",
      "identificationNumber": "15940608K",
      "address": "CALLE EGIA 12 bajo",
      "location": {
        "postalCode": "20012",
        "municipality": "Donostia / San Sebastián",
        "county": "Gipuzkoa",
        "municipalityId": "069",
        "countyId": "20"
      },
      "economicActivities": [
        {
          "id": "1.651.2",
          "name": "Venta al por menor de prendas de ropa para el vestido y tocado",
          "_links": {
            "self": {
              "name": "Venta al por menor de prendas de ropa para el vestido y tocado",
              "href": "https://api.euskadi.eus/procurements/companies/economic-activities/1.651.2"
            }
          }
        }
      ],
      "certificateStartDate": "2024-10-15",
      "certificateEndDate": "2025-04-15",
      "object": "VENTA AL POR MENOR DE PRENDAS DE ROPA PARA EL VESTIDO Y TOCADO.",
      "mainEntityOfPage": "https://www.contratacion.euskadi.eus/webkpe00-kperoc/es/ac71aBusquedaRegistrosWar/empresa/09037",
      "_links": {
        "self": {
          "name": "CARLOS FRANCISCO RUIZ GONZÁLEZ",
          "href": "https://api.euskadi.eus/procurements/companies/09037"
        }
      }
    },
    {
      "name": "BERME AHOLKULARITZA, S.L.",
      "registrationNumber": "09857",
      "identificationNumber": "B75052423",
      "address": "Ibai Ondo, 10, bajo",
      "location": {
        "postalCode": "20810",
        "municipality": "Orio",
        "county": "Gipuzkoa",
        "municipalityId": "061",
        "countyId": "20"
      },
      "economicActivities": [
        {
          "id": "1.832.1",
          "name": "Agencias de seguros y corredurías de seguros",
          "_links": {
            "self": {
              "name": "Agencias de seguros y corredurías de seguros",
              "href": "https://api.euskadi.eus/procurements/companies/economic-activities/1.832.1"
            }
          }
        },
        {
          "id": "1.834",
          "name": "Servicios relativos a la propiedad inmobiliaria e industrial",
          "_links": {
            "self": {
              "name": "Servicios relativos a la propiedad inmobiliaria e industrial",
              "href": "https://api.euskadi.eus/procurements/companies/economic-activities/1.834"
            }
          }
        },
        {
          "id": "1.842",
          "name": "Servicios financieros y contables",
          "_links": {
            "self": {
              "name": "Servicios financieros y contables",
              "href": "https://api.euskadi.eus/procurements/companies/economic-activities/1.842"
            }
          }
        },
        {
          "id": "1.849.7",
          "name": "Servicios de gestión administrativa",
          "_links": {
            "self": {
              "name": "Servicios de gestión administrativa",
              "href": "https://api.euskadi.eus/procurements/companies/economic-activities/1.849.7"
            }
          }
        }
      ],
      "certificateStartDate": "2024-10-15",
      "certificateEndDate": "2025-04-15",
      "object": "LA SOCIEDAD TIENE COMO OBJETO LA PRESTACIÓN DE SERVICIOS TÉCNICO-ADMINISTRATIVOS, INFORMATIZACIÓN DE DATOS, CONFECCIÓN DE CONTABILIDADES Y ASESORAMIENTO, GESTIÓN Y  TRAMITACIÓN ADMINISTRATIVA EN LOS CAMPOS FISCAL, ECONÓMICO, CONTABLE, MERCANTIL, LABORAL  E INFORMÁTICO, Y EN CUALQUIER OTRO RELACIONADO CON LA ASESORÍA DE EMPRESAS, TANTO INDIVIDUALES COMO SOCIEDADES, Y ENTES DE CUALQUIER NATURALEZA, ASÍ COMO ACTIVIDADES AFINES A LAS RELACIONADAS, SIN CONSTITUIR SOCIEDAD PROFESIONAL.",
      "mainEntityOfPage": "https://www.contratacion.euskadi.eus/webkpe00-kperoc/es/ac71aBusquedaRegistrosWar/empresa/09857",
      "_links": {
        "self": {
          "name": "BERME AHOLKULARITZA, S.L.",
          "href": "https://api.euskadi.eus/procurements/companies/09857"
        }
      }
    },
    {
      "name": "GARAIZPE LAN, S.L.",
      "registrationNumber": "07080",
      "identificationNumber": "B75187500",
      "address": "Tranbia Ibilbidea 28 3ºA",
      "location": {
        "postalCode": "20115",
        "municipality": "Astigarraga",
        "county": "Gipuzkoa",
        "municipalityId": "903",
        "countyId": "20"
      },
      "economicActivities": [
        {
          "id": "1.501.3",
          "name": "Albañilería y pequeños trabajos de construcción en general",
          "_links": {
            "self": {
              "name": "Albañilería y pequeños trabajos de construcción en general",
              "href": "https://api.euskadi.eus/procurements/companies/economic-activities/1.501.3"
            }
          }
        },
        {
          "id": "1.504.1",
          "name": "Instalaciones eléctricas en general",
          "_links": {
            "self": {
              "name": "Instalaciones eléctricas en general",
              "href": "https://api.euskadi.eus/procurements/companies/economic-activities/1.504.1"
            }
          }
        }
      ],
      "certificateStartDate": "2024-10-14",
      "certificateEndDate": "2025-04-13",
      "object": "TODO TIPO DE TRABAJOS DE ALBAÑILERÍA Y CONSTRUCCIÓN EN GENERAL",
      "mainEntityOfPage": "https://www.contratacion.euskadi.eus/webkpe00-kperoc/es/ac71aBusquedaRegistrosWar/empresa/07080",
      "_links": {
        "self": {
          "name": "GARAIZPE LAN, S.L.",
          "href": "https://api.euskadi.eus/procurements/companies/07080"
        }
      }
    }
  ]
}