{
  "totalItems": 9042,
  "totalPages": 905,
  "currentPage": 255,
  "itemsOfPage": 10,
  "items": [
    {
      "name": "GOIENA KOMUNIKAZIO TALDEA, KOOP. E.",
      "registrationNumber": "04718",
      "identificationNumber": "F20704375",
      "address": "Otalora Lizentziaduna Kalea (20500) 31",
      "location": {
        "postalCode": "20500",
        "municipality": "Arrasate / Mondragón",
        "county": "Gipuzkoa",
        "municipalityId": "055",
        "countyId": "20"
      },
      "economicActivities": [
        {
          "id": "1.476.2",
          "name": "Edición de periódicos y revistas",
          "_links": {
            "self": {
              "name": "Edición de periódicos y revistas",
              "href": "https://api.euskadi.eus/procurements/companies/economic-activities/1.476.2"
            }
          }
        },
        {
          "id": "1.964.2",
          "name": "Servicios de televisión",
          "_links": {
            "self": {
              "name": "Servicios de televisión",
              "href": "https://api.euskadi.eus/procurements/companies/economic-activities/1.964.2"
            }
          }
        }
      ],
      "certificateStartDate": "2025-09-24",
      "certificateEndDate": "2026-03-24",
      "object": "HERRITARREK, TALDEEK, ENPRESEK, ERAKUNDE PUBLIKOEK… DITUZTEN KOMUNIKAZIO-BEHARRAK EUSKARAZ ASETZEKO ERA GUZTIETAKO ZERBITZUAK SORTU ETA KUDEATZEA. XEDE HAU GAUZATZEKO ONDORENGO JARDUERAK BURUTUKO DIRA. A) HERRITARREI INFORMAZIOA, ENTRETENIMENDUA ETA KULTUR FORMAZIOA ESKAINTZEKO ERA GUZTIETAKO KOMUNIKABIDEAK ANTOLATZEA: IKUS-ENTZUNEZKOAK, PRENTSA BIDEZKOAK ZEIN KOMUNIKABIDE ELEKTRONIKOEN BIDEZKOAK. B) HERRITARREN EUSKARAZKO GAITASUNA, SENTIBERATASUNA ETA ERABILERA AREAGOTZEA, ETA EUSKAL KULTURA SUSTATZEA, HELBURU BERA DUTEN ELKARTE ETA ERAKUNDEEKIN ELKARLANEAN JARDUNEZ. C) EUSKARAZKO HEDABIDEEN ZABALKUNDEA ETA KALITATEA AREAGOTZEA, BESTE LURRALDE BATZUETAKO ELKARTE ETA ENPRESEKIN ELKARLANEAN JARDUNEZ.",
      "mainEntityOfPage": "https://www.contratacion.euskadi.eus/webkpe00-kperoc/es/ac71aBusquedaRegistrosWar/empresa/04718",
      "_links": {
        "self": {
          "name": "GOIENA KOMUNIKAZIO TALDEA, KOOP. E.",
          "href": "https://api.euskadi.eus/procurements/companies/04718"
        }
      }
    },
    {
      "name": "MAIDER OVIEDO IRASTORZA",
      "registrationNumber": "09572",
      "identificationNumber": "72449169C",
      "address": "José Olaizola 3, bajo B",
      "location": {
        "postalCode": "20280",
        "municipality": "Hondarribia",
        "county": "Gipuzkoa",
        "municipalityId": "036",
        "countyId": "20"
      },
      "economicActivities": [
        {
          "id": "2.826",
          "name": "Personal docente de enseñanzas diversas",
          "_links": {
            "self": {
              "name": "Personal docente de enseñanzas diversas",
              "href": "https://api.euskadi.eus/procurements/companies/economic-activities/2.826"
            }
          }
        }
      ],
      "certificateStartDate": "2025-09-24",
      "certificateEndDate": "2026-03-24",
      "object": "PERSONAL DOCENTE DE ENSEÑANZAS DIVERSAS.",
      "mainEntityOfPage": "https://www.contratacion.euskadi.eus/webkpe00-kperoc/es/ac71aBusquedaRegistrosWar/empresa/09572",
      "_links": {
        "self": {
          "name": "MAIDER OVIEDO IRASTORZA",
          "href": "https://api.euskadi.eus/procurements/companies/09572"
        }
      }
    },
    {
      "name": "TRANSPORTES Y SERVICIOS JOSETXU GALARZA, S.A.",
      "registrationNumber": "03436",
      "identificationNumber": "A48260947",
      "address": "PG.IND. ETXERRE, NAVE 2 - PAB. 2",
      "location": {
        "postalCode": "48480",
        "municipality": "Zaratamo",
        "county": "Bizkaia",
        "municipalityId": "097",
        "countyId": "48"
      },
      "economicActivities": [
        {
          "id": "1.722",
          "name": "Transporte de mercancías por carretera",
          "_links": {
            "self": {
              "name": "Transporte de mercancías por carretera",
              "href": "https://api.euskadi.eus/procurements/companies/economic-activities/1.722"
            }
          }
        },
        {
          "id": "1.756",
          "name": "Intermediarios del transporte",
          "_links": {
            "self": {
              "name": "Intermediarios del transporte",
              "href": "https://api.euskadi.eus/procurements/companies/economic-activities/1.756"
            }
          }
        },
        {
          "id": "1.849.5",
          "name": "Servicios de recadería y reparto y manipulación de correspondencia",
          "_links": {
            "self": {
              "name": "Servicios de recadería y reparto y manipulación de correspondencia",
              "href": "https://api.euskadi.eus/procurements/companies/economic-activities/1.849.5"
            }
          }
        }
      ],
      "certificateStartDate": "2025-09-24",
      "certificateEndDate": "2026-03-24",
      "classification": [
        {
          "id": "S",
          "name": "Servicios",
          "groups": [
            {
              "id": "L",
              "subgroups": [
                {
                  "id": "01",
                  "name": "Servicios auxiliares para trabajos administrativos de archivo y similares",
                  "categories": [
                    {
                      "id": "1",
                      "name": "Desde 0 Hasta 150.000",
                      "_links": {
                        "self": {
                          "name": "Desde 0 Hasta 150.000",
                          "href": "https://api.euskadi.eus/procurements/companies/types/S/categories/1"
                        }
                      }
                    }
                  ],
                  "_links": {
                    "self": {
                      "name": "Servicios auxiliares para trabajos administrativos de archivo y similares",
                      "href": "https://api.euskadi.eus/procurements/companies/types/S/groups/L/subgroups/01"
                    }
                  }
                }
              ],
              "_links": {
                "self": {
                  "href": "https://api.euskadi.eus/procurements/companies/types/S/groups/L"
                }
              }
            },
            {
              "id": "R",
              "subgroups": [
                {
                  "id": "05",
                  "name": "Recogida y transporte de residuos",
                  "categories": [
                    {
                      "id": "1",
                      "name": "Desde 0 Hasta 150.000",
                      "_links": {
                        "self": {
                          "name": "Desde 0 Hasta 150.000",
                          "href": "https://api.euskadi.eus/procurements/companies/types/S/categories/1"
                        }
                      }
                    }
                  ],
                  "_links": {
                    "self": {
                      "name": "Recogida y transporte de residuos",
                      "href": "https://api.euskadi.eus/procurements/companies/types/S/groups/R/subgroups/05"
                    }
                  }
                },
                {
                  "id": "09",
                  "name": "Servicios de mensajería, correspondencia y distribución",
                  "categories": [
                    {
                      "id": "4",
                      "name": "Desde 600.001 Hasta 1.1200.000",
                      "_links": {
                        "self": {
                          "name": "Desde 600.001 Hasta 1.1200.000",
                          "href": "https://api.euskadi.eus/procurements/companies/types/S/categories/4"
                        }
                      }
                    }
                  ],
                  "_links": {
                    "self": {
                      "name": "Servicios de mensajería, correspondencia y distribución",
                      "href": "https://api.euskadi.eus/procurements/companies/types/S/groups/R/subgroups/09"
                    }
                  }
                }
              ],
              "_links": {
                "self": {
                  "href": "https://api.euskadi.eus/procurements/companies/types/S/groups/R"
                }
              }
            }
          ],
          "_links": {
            "self": {
              "name": "Servicios",
              "href": "https://api.euskadi.eus/procurements/companies/types/S"
            }
          }
        }
      ],
      "object": "1.- LA EXPLOTACIÓN POR CUENTA PROPIA O AJENA DE SERVICIOS DE TRANSPORTES MECÁNICOS DE VIAJEROS, EQUIPAJES Y MERCANCÍAS, LA DISTRIBUCIÓN, REPARTO Y ENTREGA DE LAS MERCANCÍAS, SERVICIOS QUE PODRÁN SER REGULARES DISCRECIONALES, URBANOS E INTERURBANOS, EN AUTOBUSES, ÓMNIBUS, AUTOMÓVILES CON O SIN CONDUCTOR, AUTOCAMIONES, ETC... Y, EN GENERAL, CUALQUIER OTRA ACTIVIDAD QUE SEA NECESARIA O CONVENIENTE PARA LA EJECUCIÓN DE LO ANTES EXPRESADO. 2.-  LA PRESTACIÓN DE TODA CLASE DE SERVICIOS DE MEDIACIÓN, CONSIGNACIÓN, REPRESENTACIÓN , ASESORAMEITNO Y GESTIÓN, CON MEDIOS PROPIOS Y AJENOS, Y SINGULARMENTE A LA PREPARACIÓN Y CONTRATACIÓN DE PERSONAL PARA OTRAS EMPRESAS; Y A LA EXPLOTACIÓN, ADQUISICIÓN, TENENCIA Y ENAJENACIÓN, POR CUALQUIER TÍTULO DE BIENES MUEBLES E INMUEBLES, DERECHOS, LICENCIAS, PERMISOS, MARCAS, PATENTES Y EXCLUSIVAS, NACIONALES Y EXTRANJERAS. 3.-  SERVICIOS AUXILIARES PARA TRABAJOS ADMINISTRATIVOS DE ARCHIVO Y SIMILARES. 4.-  SERVICIOS DE SEGURIDAD, CUSTODIA Y PROTECCIÓN. 5.-  ATENCIÓN Y MANEJO DE INSTALACIONES DE SEGURIDAD, TRANSPORTE DE CAJAS FUERTES Y SIMILARES. 6.-  SERVICIOS DE BIBLIOTECAS, ARCHIVOS Y MUSEOS. 7.-  TRASLADO DE ENFERMOS POR CUALQUIER MEDIO DE TRANSPORTE. 8.-  TRANSPORTE Y CUSTODIA DE FONDOS.9.-  TRANSPORTE Y RESTAURACIÓN DE OBRAS DE ARTE. 10.-  RECOGIDA Y TRANSPORTES DE TODA CLASE DE RESIDUOS. 11.- SERVICIOS DE GRÚA. 12.- SERVICIOS DE MENSAJERÍA, CORRESPONDENCIA Y DISTRIBUCIÓN. 13.-  SERVICIOS DE LIMPIEZA EN GENERAL. 14.-  ALMACENAJE Y DISTRIBUCIÓN, TANTO DE MERCANCÍAS EN GENERAL COMO MERCANCÍAS PERECEDERAS. 15.-  EL EJERCICIO DE LAS ACTIVIDADES PROPIAS DE LAS AGENCIA DE VIAJES MINORISTAS, TALES COMO LA MEDIACIÓN EN LA VENTA DE BILLETES Y RESERVAS DE PLAZAS EN TODA CLASE DE MEDIOS Y TRANSPORTES; LA RESERVA DE HABITACIONES Y SERVICIOS EN LOS ESTABLECIMIENTOS HOSTELEROS Y DEMÁS ALOJAMIENTOS TURÍSTICOS; LA ORGANIZACIÓN, VENTA Y REALIZACIÓN DE SERVICIOS COMBINADOS Y VIAJES A &quot;FORFAIT&quot;, INCLUYENDO LA RECEPCIÓN, ASISTENCIA Y TRASLADO DE CLIENTES Y LAS DEMÁS DEFINIDAS EN LAS DISOPOSICIONES NORMATIVAS VIGENTES EN MATERIA DE AGENCIA DE VIAJES. 16.- RECOGIDA DE CARROS PORTAEQUIPAJES EN ESTACIONES Y AEROPUERTOS. 17.- TRANSPORTE DE MOBILIARIO, ASÍ COMO SU DESMONTAJE, EMBALAJE Y POSTERIOR MONTAJE. 18.-  TRANSPORTE DE ENSERES, ASI COMO SU DESMONTAJE, EMBALAJE Y POSTERIOR MONTAJE; 19.-  EXPORTAR E IMPORTAR MERCANCÍAS Y OTROS BIENES; 20.-  TRANSPORTE DE EMBARCACIONES, INCLUYENDO SU EXTRACCIÓN DEL AGUA Y SU POSTERIOR BOTADURA. 21.- TRASLADO DE EMBARCACIONES DE RECREO POR MAR.22.-  DESTRUCCIÓN POR MEDIOS MECÁNICOS DE DOCUMENTACIÓN TANTO PÚBLICA COMO PRIVADA. 23.- GESTIÓN DE RECICLADO DE APARATOS ELECTRÓNICOS Y LUMINOSOS. 24.-  ORGANIZAR EVENTOS (GRADAS, ETC.) Y MONTAJE DE SUS INSTALACIONES; 25.- LIMPIEZA DE SUPERFICIE DE AGUA EN PLAYAS (LIMPIEZA LÁMINA DE AGUA). 26.- CUSTODIA Y MUDANZAS DE MUEBLES 27.- COMPRAVENTA DE MOBILIARIO, REPARACIÓN DEL MISMO, INCLUYENDO TAPIZADO Y REPARACIÓN DE SILLERÍA YY OTROS ENSERES  28.- CONSERVACIÓN Y MANTENIMIENTO DE EDIFICIOS  29.- CONSERVACIÓN Y MANTENIMIENTO DE MONTES Y JARDINES.",
      "mainEntityOfPage": "https://www.contratacion.euskadi.eus/webkpe00-kperoc/es/ac71aBusquedaRegistrosWar/empresa/03436",
      "_links": {
        "self": {
          "name": "TRANSPORTES Y SERVICIOS JOSETXU GALARZA, S.A.",
          "href": "https://api.euskadi.eus/procurements/companies/03436"
        }
      }
    },
    {
      "name": "3JUP SECURITY, S.L.",
      "registrationNumber": "09798",
      "identificationNumber": "B19936764",
      "address": "Alameda Mazarredo (48009) 25, 1º",
      "location": {
        "postalCode": "48009",
        "municipality": "Bilbao",
        "county": "Bizkaia",
        "municipalityId": "020",
        "countyId": "48"
      },
      "economicActivities": [
        {
          "id": "1.659.6",
          "name": "Venta al por menor de juguetes, artículos de deporte",
          "_links": {
            "self": {
              "name": "Venta al por menor de juguetes, artículos de deporte",
              "href": "https://api.euskadi.eus/procurements/companies/economic-activities/1.659.6"
            }
          }
        },
        {
          "id": "1.699",
          "name": "Otras reparaciones n.c.o.p",
          "_links": {
            "self": {
              "name": "Otras reparaciones n.c.o.p",
              "href": "https://api.euskadi.eus/procurements/companies/economic-activities/1.699"
            }
          }
        }
      ],
      "certificateStartDate": "2025-09-24",
      "certificateEndDate": "2026-03-24",
      "object": "ACTIVIDAD PRINCIPAL: CNAE: 4778.- OTRO COMERCIO AL POR MENOR DE ARTÍCULOS NUEVOS EN ESTABLECIMIENTOS ESPECIALIZADOS. OTRAS ACTIVIDADES: CNAE: 9511.- REPARACIÓN DE ORDENADORES Y EQUIPOS PERIFÉRICOS.",
      "mainEntityOfPage": "https://www.contratacion.euskadi.eus/webkpe00-kperoc/es/ac71aBusquedaRegistrosWar/empresa/09798",
      "_links": {
        "self": {
          "name": "3JUP SECURITY, S.L.",
          "href": "https://api.euskadi.eus/procurements/companies/09798"
        }
      }
    },
    {
      "name": "BAINET TEKNIKA, S.A.",
      "registrationNumber": "05699",
      "identificationNumber": "A95452017",
      "address": "Calle Uribitarte, 8, 5º iz",
      "location": {
        "postalCode": "48001",
        "municipality": "Bilbao",
        "county": "Bizkaia",
        "municipalityId": "020",
        "countyId": "48"
      },
      "economicActivities": [
        {
          "id": "1.961.1",
          "name": "Producción de películas cinematográficas (incluso vídeos)",
          "_links": {
            "self": {
              "name": "Producción de películas cinematográficas (incluso vídeos)",
              "href": "https://api.euskadi.eus/procurements/companies/economic-activities/1.961.1"
            }
          }
        },
        {
          "id": "1.964.3",
          "name": "Servicios de enlace y transmisión de señales de televisión",
          "_links": {
            "self": {
              "name": "Servicios de enlace y transmisión de señales de televisión",
              "href": "https://api.euskadi.eus/procurements/companies/economic-activities/1.964.3"
            }
          }
        }
      ],
      "certificateStartDate": "2025-09-24",
      "certificateEndDate": "2026-03-19",
      "object": "EL DESARROLLO Y COMERCIALIZACIÓN DE TODOS LOS TRABAJOS NECESARIOS O CONVENIENTES PARA LA REALIZACIÓN, PRODUCCIÓN Y POSTPRODUCCIÓN DE OBRAS AUDIOVISUALES, PARA SU COMUNICACIÓN PÚBLICA EN SALAS DE CINE, A TRAVÉS DE VIDEO, INTERNET O TELEVISIÓN, MEDIANTE LOS SISTEMAS ACTUALMENTE OPERATIVOS O CUALQUIER OTRO QUE PUEDA CREARSE EN EL FUTURO.TRABAJOS DE GRABACIÓN, FIJACIÓN Y EMISIÓN DE OBRAS AUDIOVISUALES Y EVENTOS MEDIANTE LA UTILIZACIÓN DE UNA UNIDAD MÓVIL DE TELEVISIÓN.",
      "mainEntityOfPage": "https://www.contratacion.euskadi.eus/webkpe00-kperoc/es/ac71aBusquedaRegistrosWar/empresa/05699",
      "_links": {
        "self": {
          "name": "BAINET TEKNIKA, S.A.",
          "href": "https://api.euskadi.eus/procurements/companies/05699"
        }
      }
    },
    {
      "name": "TEUSA TÉCNICAS DE RESTAURACIÓN, S.A.",
      "registrationNumber": "00552",
      "identificationNumber": "A20108718",
      "address": "Calle Antonio Valverde 2",
      "location": {
        "postalCode": "20014",
        "municipality": "Donostia / San Sebastián",
        "county": "Gipuzkoa",
        "municipalityId": "069",
        "countyId": "20"
      },
      "economicActivities": [
        {
          "id": "1.501.1",
          "name": "Construcción completa, reparación y conservación de edificaciones",
          "_links": {
            "self": {
              "name": "Construcción completa, reparación y conservación de edificaciones",
              "href": "https://api.euskadi.eus/procurements/companies/economic-activities/1.501.1"
            }
          }
        }
      ],
      "certificateStartDate": "2025-09-24",
      "certificateEndDate": "2026-03-11",
      "object": "LA INVESTIGACIÓN Y EL TRATAMIENTO DE ROCAS NATURALES Y ARTIFICIALES, EL TRATAMIENTO DE METALES, EL TRATAMIENTO DE MADERAS, EL TRATAMIENTO INTEGRAL DE HORMIGONES, LA CONSTRUCCIÓN Y REHABILITACIÓN DE EDIFICIOS Y URBANIZACIONES, LA RESTAURACIÓN, CONSERVACIÓN Y MANTENIMIENTO DE BIENES INMUEBLES HISTÓRICO ARTÍSTICOS, EDIFICIOS SINGULARES, MONUMENTOS Y OBRAS DE ARTE Y LOS ESTUDIOS, PROYECTOS Y DIRECCIÓN DENTRO DEL CAMPO DE ACTIVIDADES QUE ANTECEDEN. LA COMPAÑÍA PODRÁ DESARROLLAR ESTAS ACTIVIDADES DE MODO INDIRECTO MEDIANTE LA TITULARIDAD DE ACCIONES O PARTICIPACIONES EN SOCIEDADES DE IDÉNTICO O ANÁLOGO OBJETO. LA GESTIÓN, ADMINISTRACIÓN, ADQUISICIÓN, PROMOCIÓN, ENAJENACIÓN, REHABILITACIÓN Y EXPLOTACIÓN EN CUALQUIER FORMA DE SOLARES, TERRENOS, CONJUNTOS RESIDENCIALES, URBANIZACIONES O PROMOCIONES INMOBILIARIAS Y, EN GENERAL, DE TODA CLASE DE BIENES INMUEBLES. EL ALQUILER, COMPRAVENTA, IMPORTACIÓN, EXPORTACIÓN, SUMINISTRO, FABRICACIÓN, INTERMEDIACIÓN, TRANSPORTE, INSTALACIÓN, REPARACIÓN Y MANTENIMIENTO, CONTROL Y VERIFICACIÓN DE TODO TIPO DE MAQUINARIA PARA LA CONSTRUCCIÓN Y MEDIOS AUXILIARES. ASÍ COMO LA INSTALACIÓN, MONTAJE, COMERCIALIZACIÓN, VENTA Y ALQUILER DE ANDAMIOS Y MEDIOS AUXILIARES PARA LA CONSTRUCCIÓN, LA EDIFICACIÓN, LA REHABILITACIÓN, OBRA CIVIL Y LA INDUSTRIA. LA PROMOCIÓN, LA CONTRATACIÓN Y REALIZACIÓN DE TODO TIPO DE OBRAS Y SERVICIOS CON CUALQUIER ORGANISMO DE LAS ADMINISTRACIONES PÚBLICAS Y CON TODA CLASE DE ENTIDADES Y PARTICULARES, ASÍ COMO SU REPARACIÓN Y CONSERVACIÓN Y TODA CLASE DE DERRIBOS. LA REALIZACIÓN DE TODA CLASE DE INFORMES, ESTUDIOS Y PROYECTOS TÉCNICOS, PROYECTOS Y DIRECCIÓN DE OBRA, CONTROL DE CALIDAD, INGENIERÍA, SERVICIOS INTEGRALES DE CONSULTORÍA TÉCNICA, INVESTIGACIÓN Y PRESTACIÓN DE SERVICIOS DE ASISTENCIA, ASESORAMIENTO Y GESTIÓN TÉCNICA, ADMINISTRATIVA COMERCIAL, INCLUYENDO AQUELLOS RELACIONADOS CON EL MEDIO AMBIENTE EN GENERAL Y EL PATRIMONIO NACIONAL E HISTÓRICO Y AUDITORÍAS. LA REALIZACIÓN DE PROYECTOS, PROMOCIÓN, CONSTITUCIÓN Y PARTICIPACIÓN EN OTRAS SOCIEDADES EMPRESAS MEDIANTE LA SUSCRIPCIÓN, ADQUISICIÓN Y POSESIÓN DE ACCIONES, PARTICIPACIONES Y CUALESQUIERA OTROS TÍTULOS Y VALORES.",
      "mainEntityOfPage": "https://www.contratacion.euskadi.eus/webkpe00-kperoc/es/ac71aBusquedaRegistrosWar/empresa/00552",
      "_links": {
        "self": {
          "name": "TEUSA TÉCNICAS DE RESTAURACIÓN, S.A.",
          "href": "https://api.euskadi.eus/procurements/companies/00552"
        }
      }
    },
    {
      "name": "GARBINGURU SERVICIOS MEDIOAMBIENTALES, S.L.",
      "registrationNumber": "04824",
      "identificationNumber": "B01342930",
      "address": "CANCILLER AYALA, 8 BAJO",
      "location": {
        "postalCode": "01004",
        "municipality": "Vitoria-Gasteiz",
        "county": "Araba/Álava",
        "municipalityId": "059",
        "countyId": "01"
      },
      "economicActivities": [
        {
          "id": "1.911",
          "name": "Servicios agrícolas y ganaderos",
          "_links": {
            "self": {
              "name": "Servicios agrícolas y ganaderos",
              "href": "https://api.euskadi.eus/procurements/companies/economic-activities/1.911"
            }
          }
        },
        {
          "id": "1.912",
          "name": "Servicios forestales",
          "_links": {
            "self": {
              "name": "Servicios forestales",
              "href": "https://api.euskadi.eus/procurements/companies/economic-activities/1.912"
            }
          }
        },
        {
          "id": "1.921.2",
          "name": "Servicios de recogida de basuras y desechos",
          "_links": {
            "self": {
              "name": "Servicios de recogida de basuras y desechos",
              "href": "https://api.euskadi.eus/procurements/companies/economic-activities/1.921.2"
            }
          }
        }
      ],
      "certificateStartDate": "2025-09-24",
      "certificateEndDate": "2026-03-23",
      "object": "LAS ACTIVIDADES DE INSERCIÓN SOCIAL, INSERCIÓN SOCIO-LABORAL DE PERSONAS QUE PRESENTEN ESPECIALES DIFICULTADES DE ACCESO AL MERCADO LABORAL; ACTIVIDADES DE JARDINERÍA, FORESTALES Y MEDIAMBIENTALES, LIMPIEZA DE EDIFICIOS Y LOCALES, ACTIVIDADES DOCENTES RELACIONADAS CON LO ANTERIOR, ASÍ COMO LA ADQUISICIÓN DE INMUEBLES. LA RECOGIDA Y TRANSPORTE DE RESIDUOS NO PELIGROSOS",
      "mainEntityOfPage": "https://www.contratacion.euskadi.eus/webkpe00-kperoc/es/ac71aBusquedaRegistrosWar/empresa/04824",
      "_links": {
        "self": {
          "name": "GARBINGURU SERVICIOS MEDIOAMBIENTALES, S.L.",
          "href": "https://api.euskadi.eus/procurements/companies/04824"
        }
      }
    },
    {
      "name": "ANDONI MIRENA SISTIAGA OCHOA DE CHINCHETRU",
      "registrationNumber": "08253",
      "identificationNumber": "15969173C",
      "address": "EDIFICIO PORTUETXE 45B PLANTA 1 LOCAL 1",
      "location": {
        "postalCode": "20018",
        "municipality": "Donostia / San Sebastián",
        "county": "Gipuzkoa",
        "municipalityId": "069",
        "countyId": "20"
      },
      "economicActivities": [
        {
          "id": "2.411",
          "name": "Arquitectos",
          "_links": {
            "self": {
              "name": "Arquitectos",
              "href": "https://api.euskadi.eus/procurements/companies/economic-activities/2.411"
            }
          }
        }
      ],
      "certificateStartDate": "2025-09-24",
      "certificateEndDate": "2026-03-09",
      "object": "ARQUITECTOS.",
      "mainEntityOfPage": "https://www.contratacion.euskadi.eus/webkpe00-kperoc/es/ac71aBusquedaRegistrosWar/empresa/08253",
      "_links": {
        "self": {
          "name": "ANDONI MIRENA SISTIAGA OCHOA DE CHINCHETRU",
          "href": "https://api.euskadi.eus/procurements/companies/08253"
        }
      }
    },
    {
      "name": "ORKATZ, S.L.",
      "registrationNumber": "07508",
      "identificationNumber": "B01469774",
      "address": "BO TXABARRI, 5",
      "location": {
        "postalCode": "01477",
        "municipality": "Ayala/Aiara",
        "county": "Araba/Álava",
        "municipalityId": "010",
        "countyId": "01"
      },
      "economicActivities": [
        {
          "id": "1.654.1",
          "name": "Venta al por menor de vehículos terrestres",
          "_links": {
            "self": {
              "name": "Venta al por menor de vehículos terrestres",
              "href": "https://api.euskadi.eus/procurements/companies/economic-activities/1.654.1"
            }
          }
        },
        {
          "id": "1.911",
          "name": "Servicios agrícolas y ganaderos",
          "_links": {
            "self": {
              "name": "Servicios agrícolas y ganaderos",
              "href": "https://api.euskadi.eus/procurements/companies/economic-activities/1.911"
            }
          }
        },
        {
          "id": "1.912",
          "name": "Servicios forestales",
          "_links": {
            "self": {
              "name": "Servicios forestales",
              "href": "https://api.euskadi.eus/procurements/companies/economic-activities/1.912"
            }
          }
        }
      ],
      "certificateStartDate": "2025-09-24",
      "certificateEndDate": "2026-03-22",
      "object": "-LA PRESTACIÓN DE TODO TIPO DE SERVICIOS CINEGÉTICOS, EN ESPECIAL LOS CONSISTENTES EN LA REALIZACIÓN DE ESTUDIOS DE ESPECIES SILVESTRES, DESCASTES, CONTROL DE EPIZOOTIAS, GESTIÓN DE SOCIEDADES DE CAZA, CONTROL DE DAÑOS A LA AGRICULTURA Y REPOBLACIÓN DE FAUNA SALVAJE. -LA REALIZACIÓN DE TODO TIPO DE TRABAJOS AGRÍCOLAS Y FORESTALES. -LA REALIZACIÓN DE TODA CLASE DE ACTIVIDADES RELACIONADAS CON EL RESCATE Y ATENCIÓN EN EMERGENCIAS Y SALVAMENTOS FORESTALES",
      "mainEntityOfPage": "https://www.contratacion.euskadi.eus/webkpe00-kperoc/es/ac71aBusquedaRegistrosWar/empresa/07508",
      "_links": {
        "self": {
          "name": "ORKATZ, S.L.",
          "href": "https://api.euskadi.eus/procurements/companies/07508"
        }
      }
    },
    {
      "name": "AIARALDEA KOOPERATIBA ELKARTEA",
      "registrationNumber": "07160",
      "identificationNumber": "F01468248",
      "address": "Calle Errotari",
      "location": {
        "postalCode": "01400",
        "municipality": "Laudio/Llodio",
        "county": "Araba/Álava",
        "municipalityId": "036",
        "countyId": "01"
      },
      "economicActivities": [
        {
          "id": "1.476.2",
          "name": "Edición de periódicos y revistas",
          "_links": {
            "self": {
              "name": "Edición de periódicos y revistas",
              "href": "https://api.euskadi.eus/procurements/companies/economic-activities/1.476.2"
            }
          }
        },
        {
          "id": "1.662.1",
          "name": "Venta al por menor de todos los artículos en economatos y cooperativas",
          "_links": {
            "self": {
              "name": "Venta al por menor de todos los artículos en economatos y cooperativas",
              "href": "https://api.euskadi.eus/procurements/companies/economic-activities/1.662.1"
            }
          }
        },
        {
          "id": "1.677.9",
          "name": "Otros servicios de alimentación propios de la restauración",
          "_links": {
            "self": {
              "name": "Otros servicios de alimentación propios de la restauración",
              "href": "https://api.euskadi.eus/procurements/companies/economic-activities/1.677.9"
            }
          }
        },
        {
          "id": "1.844",
          "name": "Servicios de publicidad, relaciones públicas y similares",
          "_links": {
            "self": {
              "name": "Servicios de publicidad, relaciones públicas y similares",
              "href": "https://api.euskadi.eus/procurements/companies/economic-activities/1.844"
            }
          }
        },
        {
          "id": "1.849.3",
          "name": "Servicios de traducción y similares",
          "_links": {
            "self": {
              "name": "Servicios de traducción y similares",
              "href": "https://api.euskadi.eus/procurements/companies/economic-activities/1.849.3"
            }
          }
        },
        {
          "id": "1.934",
          "name": "Enseñanza fuera de establecimiento permanente",
          "_links": {
            "self": {
              "name": "Enseñanza fuera de establecimiento permanente",
              "href": "https://api.euskadi.eus/procurements/companies/economic-activities/1.934"
            }
          }
        },
        {
          "id": "1.965.1",
          "name": "Espectáculos en salas y locales (excepto los taurinos)",
          "_links": {
            "self": {
              "name": "Espectáculos en salas y locales (excepto los taurinos)",
              "href": "https://api.euskadi.eus/procurements/companies/economic-activities/1.965.1"
            }
          }
        },
        {
          "id": "1.966.9",
          "name": "Otros servicios culturales n.c.o.p",
          "_links": {
            "self": {
              "name": "Otros servicios culturales n.c.o.p",
              "href": "https://api.euskadi.eus/procurements/companies/economic-activities/1.966.9"
            }
          }
        }
      ],
      "certificateStartDate": "2025-09-24",
      "certificateEndDate": "2026-03-23",
      "object": "EUSKARAZKO KULTUR ETA HEZKUNTZA-ARLOKO JARDUEREN BIDEZ LAGUNTZA-ZERBITZUAK ESKAINTZEA, EUSKARAZ EKOITZITAKO ONDASUNEN ETA ZERBITZUEN SUSTAPENAREN ETA KUDEAKETAREN BITARTEZ, HALA BAZKIDEENTZAT NOLA GAINERAKO HERRITAR, ERAKUNDE, ENPRESA ETA INSTITUZIOENTZAT, KOMUNIKAZIOAREN, KULTURAREN, AISIALDIAREN, HEZKUNTZAREN, HIZKUNTZAREN NORMALIZAZIOAREN, ELIKADURA BURUJABETZAREN, FEMINISMOAREN, GIZARTE-EKONOMIAREN ETA ESKUALDEKO KOMUNITATE-GARAPENAREN ESPARRUETAN, GIZARTE BEHARRIZAN HORIEI MERKATUAK ERANTZUNIK EMATEN EZ DIEN HEINEAN",
      "mainEntityOfPage": "https://www.contratacion.euskadi.eus/webkpe00-kperoc/es/ac71aBusquedaRegistrosWar/empresa/07160",
      "_links": {
        "self": {
          "name": "AIARALDEA KOOPERATIBA ELKARTEA",
          "href": "https://api.euskadi.eus/procurements/companies/07160"
        }
      }
    }
  ]
}