{
  "totalItems": 9042,
  "totalPages": 905,
  "currentPage": 407,
  "itemsOfPage": 10,
  "items": [
    {
      "name": "ALABUS, S.L.",
      "registrationNumber": "01926",
      "identificationNumber": "B01203074",
      "address": "C/ ARTAPADURA, Nº 15.",
      "location": {
        "postalCode": "01013",
        "municipality": "Vitoria-Gasteiz",
        "county": "Araba/Álava",
        "municipalityId": "059",
        "countyId": "01"
      },
      "economicActivities": [
        {
          "id": "1.721.3",
          "name": "Transporte de viajeros por carretera",
          "_links": {
            "self": {
              "name": "Transporte de viajeros por carretera",
              "href": "https://api.euskadi.eus/procurements/companies/economic-activities/1.721.3"
            }
          }
        }
      ],
      "certificateStartDate": "2024-07-27",
      "certificateEndDate": "2025-01-27",
      "object": "a) EL TRANSPORTE DE VIAJEROS POR CARRETERA, EN SERVICIOS Y RUTAS TANTO NACIONALES COMO INTERNACIONALES. b) LA EXPLOTACIÓN DE BARES, CAFETERÍAS, RESTAURANTES, HOTELES, MOTELES, CAMPINGS, SALAS DE FIESTAS, DISCOTECAS; ZONAS, DEPENDENCIAS E INSTALACIONES PARA ESPARCIMIENTO Y RECREO Y ACTIVIDADES DEPORTIVAS",
      "mainEntityOfPage": "https://www.contratacion.euskadi.eus/webkpe00-kperoc/es/ac71aBusquedaRegistrosWar/empresa/01926",
      "_links": {
        "self": {
          "name": "ALABUS, S.L.",
          "href": "https://api.euskadi.eus/procurements/companies/01926"
        }
      }
    },
    {
      "name": "RALTEAM, S.L.",
      "registrationNumber": "05721",
      "identificationNumber": "B75157610",
      "address": "Paseo de Colón 7. Entlo. Oficina 1",
      "location": {
        "postalCode": "20002",
        "municipality": "Donostia / San Sebastián",
        "county": "Gipuzkoa",
        "municipalityId": "069",
        "countyId": "20"
      },
      "economicActivities": [
        {
          "id": "1.504.1",
          "name": "Instalaciones eléctricas en general",
          "_links": {
            "self": {
              "name": "Instalaciones eléctricas en general",
              "href": "https://api.euskadi.eus/procurements/companies/economic-activities/1.504.1"
            }
          }
        },
        {
          "id": "1.847",
          "name": "Servicios de consultoría",
          "_links": {
            "self": {
              "name": "Servicios de consultoría",
              "href": "https://api.euskadi.eus/procurements/companies/economic-activities/1.847"
            }
          }
        }
      ],
      "certificateStartDate": "2024-07-27",
      "certificateEndDate": "2025-01-27",
      "object": "LA INGENIERÍA, ASESORÍA, CONSULTORÍA Y REALIZACIÓN DE PROYECTOS E INSTALACIONES DE TRABAJOS RELACIONADOS CON LAS TELECOMUNICACIONES, LA MOVILIDAD, LOS SISTEMAS INTELIGENTES DE CONTROL DE SERVICIOSO PÚBLICOS Y PRIVADOS Y LA EFICIENCIA ENERGÉTICA\r\n",
      "mainEntityOfPage": "https://www.contratacion.euskadi.eus/webkpe00-kperoc/es/ac71aBusquedaRegistrosWar/empresa/05721",
      "_links": {
        "self": {
          "name": "RALTEAM, S.L.",
          "href": "https://api.euskadi.eus/procurements/companies/05721"
        }
      }
    },
    {
      "name": "GESCO2000 DESARROLLOS SL",
      "registrationNumber": "08688",
      "identificationNumber": "B95596268",
      "address": "SABINO ARANA 47 BAJO",
      "location": {
        "postalCode": "48013",
        "municipality": "Bilbao",
        "county": "Bizkaia",
        "municipalityId": "020",
        "countyId": "48"
      },
      "economicActivities": [
        {
          "id": "1.834",
          "name": "Servicios relativos a la propiedad inmobiliaria e industrial",
          "_links": {
            "self": {
              "name": "Servicios relativos a la propiedad inmobiliaria e industrial",
              "href": "https://api.euskadi.eus/procurements/companies/economic-activities/1.834"
            }
          }
        }
      ],
      "certificateStartDate": "2024-07-27",
      "certificateEndDate": "2025-01-27",
      "object": "1.- LA GESTIÓN, DIRECCIÓN Y EJECUCIÓN POR CUENTA PROPIA O AJENA DE TODA CLASE DE CONSTRUCCIONES, INSTALACIONES, REFORMAS, REHABILITACIONES, DECORACIONES Y OBRAS DE RESTAURACIÓN EXTERNA E INTERNA DE ESTRUCTURAS Y REVESTIMIENTOS DE EDIFICIOS Y MONUMENTOS; LIMPIEZA, IMPERMEABILIZACIÓN, TRATAMIENTO, PINTURA, RECONSTRUCCIÓN Y LA IMPLANTACIÓN, CUIDADO Y MANTENIMIENTO DE JARDINES Y EXPLOTACIONES FORESTALES. LA SUPERVISIÓN Y CONTROL DE OBRAS, ASÍ COMO LA COORDINACIÓN DE GREMIOS, EL ASESORAMIENTO Y LA ASISTENCIA TÉCNICA EN TODO CUANDO SE RELACIONES CON EL CAMPO DE LA CONSTRUCCIÓN DE OEDIFICIOS Y DE LAS OBRAS PÚBLICAS O CIVILES.\n2.- LA COMPRA, VENTA, DE TODA CLASE DE MATERIALES DE LA CONSTRUCCIÓN Y/O DECORATIVOS, ASÍ COMO CUALESQUIERA INSTALACIONES, ELEMENTOS O SERVICIOS DE LAS EDIFICACIONES; LA IMPORTACIÓN, EXPORTACIÓN, REPRESENTACIÓN, DISTRIBUCIÓN, EXPLOTACIÓN Y COMERCIALIZACIÓN DE PRODUCTOS ELABORADOS Y SEMIELABORADOS, ARTÍCULOS, BIENES, MERCADERÍAS, EQUIPOS INDUSTRIALES, MAQUINARIA, HERRAMIENTAS, UTILLAJES, REPUESTOS Y ACCESORIOS, ALIMENTOS DE CONSUMO HUMANO Y ANIMAL.\n3.- LA ADQUISICIÓN, CESIÓN, TENENCIA, DISFRUTE, ADMINISTRACIÓN, GESTIÓN Y NEGOCIACIÓN EN GENERAL DE VALORES MOBILIARIOS E INMUEBLES; TODO ELLO SIN INCIDIR EN LAS ACTIVIDADES U OPERACIONES REGULADAS POR LA LEGISLACIÓN DE INSTITUCIONES DE INVERSIÓN COLECTIVA Y LEY DE MERCADO DE VALORES. \n4.- TODA CLASE DE OPERACIONES INMOBILIARIAS SOBRE FINCAS RÚSTICAS Y URBANAS , PROMOCIÓN DE CONTRATOS O REALIZACIONES DE PARCELACIONES, URBANIZACIONES, CONSTRUCCIONES Y OBRAS PRIVADAS O PÚBLICAS, VENTA, HIPOTECA, ARRENDAMIENTO TRANSFORMACIÓN, MEJORA, ADMINISTRACIÓN, PUESTA EN EXPLOTACIÓN Y LA EXPLOTACIÓN MISMA, DE FINCAS RÚSTICAS Y URBANAS , LA ORGANIZACIÓN, PROMOCIÓN, ASESORAMIENTO, Y GESTIÓN EN SU CASO DE SOCIEDADES, COOPERATIVAS,COMUNIDADES , ENTIDADES, GRUPOS O EMPRESAS PARTICULARES ORIENTADAS A LA CONSTRUCCIÓN O URBANIZACIÓN, LA PLANIFICACIÓN Y ESTUDIO DE MERCADOS EN MATERIA INMOBILIARIA.\n5.- LA ADMINISTRACIÓN DE FINCAS Y COMUNIDADES, TANTO DE PROPIETARIOS COMO DE AUTO-PROMOTORES, ASÍ COMO LA PRESTACIÓN DE TODA CLASE DE SERVICIOS RELACIONADOS CON ÁMBITO INMOBILIARIO, ARQUITECTÓNICO, DE TÉCNICA DE LA CONSTRUCCIÓN E INGENIERÍA EN GENERAL, POR MEDIO DE LA FORMULACIÓN, DESARROLLO Y PUESTA EN MARCHA DE ESTUDIOS, ACTUACIONES Y PROYECTOS.\n6.- LA PROMOCIÓN, CONSTRUCCIÓN, COMPRA, VENTA, ARRENDAMIENTO Y COMERCIALIZACIÓN EN GENERAL DE TODA CLASE DE EDIFICACIONES, TERRENOS, SOLARES, FINCAS RÚSTICAS Y URBANAS; LA EDIFICACIÓN, URBANIZACIÓN, EXCAVACIÓN, CIMENTACIÓN Y DERRIBO, BIEN POR CUENTA PROPIA COMO AJENA, ASÍ CORNO LA ENAJENACIÓN, VENTA, ARRIENDO O EXPLOTACIÓN, EN CUALQUIER FORMA DE TODA CLASE DE INMUEBLES, EDIFICIOS, PISOS, APARTAMENTOS, LOCALES, COMERCIALES O INDUSTRIALES, OFICINAS Y HOTELES O ESTABLECIMIENTOS DE HOSTELERÍA EN GENERAL.\n7.- LA PRESTACIÓN DE SERVICIOS PROFESIONALES DE ASESORÍA DE EMPRESA EN GENERAL, Y EN PARTICULAR, DE GESTIÓN FISCAL, GESTIÓN CONTABLE, ASESORAMIENTO Y GESTIÓN EN MATERIA LABORAL, SERVICIO DE COBRO DE CRÉDITOS MOROSOS, VALORACIÓN DE EMPRESAS, ESTUDIO Y REDACCIÓN DE ESTATUTOS PARA LA CONSTITUCIÓN DE ENTIDADES DE CUALQUIER NATURALEZA, ESTUDIO Y REDACCIÓN DE PLANES DE VIABILIDAD, ESTUDIO DE TRAMITACIÓN DE SUBVENCIONES, CRÉDITOS Y OTRAS AYUDAS FINANCIERAS DE LOS ORGANISMOS DEL ESTADO CENTRAL, DEL GOBIERNO VASCO Y DE LAS DIPUTACIONES FORALES, DE TODO TIPO DE ENTIDADES PÚBLICAS Y PRIVADAS, PARA TODO TIPO DE EMPRESAS; Y, EN CONCRETO, LA PRESTACIÓN DE SERVICIOS DE VERIFICACIONES REGISTRALES, INFORMES COMERCIALES, GRABACIONES DE DATOS Y RECOBROS. \n8.-  LA INVESTIGACIÓN Y EL DESARROLLO DE TÉCNICAS ENERGÉTICAS, ACÚSTICAS, ELECTRÓNICAS Y, EN GENERAL, TODA CLASE DE ASISTENCIAS O SERVICIOS RELACIONADOS CON LA INFORMÁTICA. LA REPRESENTACIÓN COMO AGENTE, COMISIONISTA, DELEGADO O CUALQUIER OTRA FORMA DE MEDIACIÓN MERCANTIL DE EMPRESAS NACIONALES O EXTRANJERAS, DE TODA ÍNDOLE, ASÍ COMO LA EXPLOTACIÓN DE PATENTES, Y DEMÁS DERECHOS DE PROPIEDAD, INDUSTRIA, INCLUIDOS LOS MÉTODOS, PROCEDIMIENTOS Y ORGANIZACIÓN DE TRABAJOS INDUSTRIALES, COMERCIALES O DE OTRA ÍNDOLE.\n9.- LA FORMACIÓN E INFORMACIÓN DE TODO TIPO DE PERSONAS -MEDIANTE CURSOS, SEMINARIOS, JORNADAS, TANTO DE PRESENCIA COMO A DISTANCIA EN CUALQUIER MATERIA, ASÍ COMO, LA EDICIÓN DE LOS TEXTOS Y LIBROS ENCAMINADOS A TAL FIN, REVISTAS Y CUALQUIER OTRO MEDIO DE DIFUSIÓN QUE CONSIDERE IDÓNEO PARA SUS FINES; IA GESTIÓN, CREACIÓN, TOMA DE PARTICIPACIONES ASESORAMIENTO DE TODO TIPO DE EMPRESAS; CONSULTORÍA GESTIÓN, DISTRIBUCIÓN, IMPORTACIÓN Y EXPORTACIÓN DE TODO TIPO DE PRODUCTOS CONEXOS CON DICHAS ACTIVIDADES DE FORMACIÓN, INFORMACIÓN Y ASESORAMIENTO.\n10.- LA COMPRA TENENCIA, ENAJENACIÓN, EXPLOTACIÓN, INCLUSO EN EXCLUSIVA POR Y A FAVOR DE LA SOCIEDAD, DE TÍTULOS, VALORES, ACCIONES, BONOS, OBLIGACIONES, PATENTES, LICENCIAS, MARCAS, RÓTULOS, NOMBRES COMERCIALES Y TODA CLASE DE PERTENENCIAS DE PROPIEDAD INDUSTRIAL O INTELECTUAL TODO ELLO SIN INCIDIR EN LAS ACTIVIDADES U OPERACIONES REGULADAS POR LA LEGISLACIÓN DE INSTITUCIONES DE INVERSIÓN COLECTIVA Y LEY DE MERCADO DE VALORES.",
      "mainEntityOfPage": "https://www.contratacion.euskadi.eus/webkpe00-kperoc/es/ac71aBusquedaRegistrosWar/empresa/08688",
      "_links": {
        "self": {
          "name": "GESCO2000 DESARROLLOS SL",
          "href": "https://api.euskadi.eus/procurements/companies/08688"
        }
      }
    },
    {
      "name": "DVE SOLUCIONES, S.L.",
      "registrationNumber": "06747",
      "identificationNumber": "B95907838",
      "address": "Grupo Tomás Zubiría Ybarra Nº 14 lonja",
      "location": {
        "postalCode": "48007",
        "municipality": "Bilbao",
        "county": "Bizkaia",
        "municipalityId": "020",
        "countyId": "48"
      },
      "economicActivities": [
        {
          "id": "1.615.4",
          "name": "Venta al por mayor de aparatos y material radioeléctrico y electrónico",
          "_links": {
            "self": {
              "name": "Venta al por mayor de aparatos y material radioeléctrico y electrónico",
              "href": "https://api.euskadi.eus/procurements/companies/economic-activities/1.615.4"
            }
          }
        }
      ],
      "certificateStartDate": "2024-07-27",
      "certificateEndDate": "2025-01-27",
      "object": "EL COMERCIO AL POR MAYOR DE EQUIPOS ELECTRÓNICOS Y DE TELECOMUNICACIONES Y SUS COMPONENTES. COMERCIALIZACIÓN, INSTALACIÓN, MANTENIMIENTO, FABRICACIÓN Y PRESTACIÓN DE TODA CLASE DE SERVICIOS RELACIONADOS CON EQUIPOS DE TELECOMUNICACIÓN, VÍDEO, IMAGEN, SONIDO E INFORMÁTICA",
      "mainEntityOfPage": "https://www.contratacion.euskadi.eus/webkpe00-kperoc/es/ac71aBusquedaRegistrosWar/empresa/06747",
      "_links": {
        "self": {
          "name": "DVE SOLUCIONES, S.L.",
          "href": "https://api.euskadi.eus/procurements/companies/06747"
        }
      }
    },
    {
      "name": "CONSTRUCCIONES ARTELU Y HARGIN DE PIEDRA LABRADA, S.A.L.",
      "registrationNumber": "01962",
      "identificationNumber": "A48777130",
      "address": "C/ LEPANTO, Nº 3 - LONJA.",
      "location": {
        "postalCode": "48920",
        "municipality": "Portugalete",
        "county": "Bizkaia",
        "municipalityId": "078",
        "countyId": "48"
      },
      "economicActivities": [
        {
          "id": "1.501.1",
          "name": "Construcción completa, reparación y conservación de edificaciones",
          "_links": {
            "self": {
              "name": "Construcción completa, reparación y conservación de edificaciones",
              "href": "https://api.euskadi.eus/procurements/companies/economic-activities/1.501.1"
            }
          }
        }
      ],
      "certificateStartDate": "2024-07-27",
      "certificateEndDate": "2025-01-27",
      "object": "1) LA PROMOCIÓN, CONSTRUCCIÓN, COMPRA, VENTA, ARRENDAMIENTO Y EXPLOTACIÓN EN CUALQUIER OTRA FORMA DE TODA CLASE DE EDIFICACIONES, SOLARES E INMUEBLES EN GENERAL, TANTO POR CUENTA PROPIA COMO AJENA. 2) LA PROMOCIÓN, DESARROLLO, URBANIZACIÓN, PARCELACIÓN, EXCAVACIÓN, DERRIBO Y MEJORA DE TODA CLASE DE FINCAS URBANAS. 3) LA REALIZACIÓN DE OBRAS PÚBLICAS O CIVILES, CUALQUIERA QUE SEA LA PERSONA O ENTIDAD, PÚBLICA O PRIVADA, CON LA QUE SE CONTRATEN Y SEA CUAL FUERE LA MODALIDAD DE CONTRATACIÓN. 4) LA ADMINISTRACIÓN DE FINCAS Y COMUNIDADES, TANTO DE PROPIETARIOS COMO DE AUTOPROMOTORES, ASÍ COMO LA PRESTACIÓN DE TODA CLASE DE SERVICIOS RELACIONADOS CON EL ÁMBITO INMOBILIARIO, ARQUITECTÓNICO, DE TÉCNICA DE CONSTRUCCIÓN E INGENIERÍA EN GENERAL, POR MEDIO DE LA FORMULACIÓN, DESARROLLO Y PUESTA EN MARCHA DE ESTUDIOS, ACTUACIONES Y PROYECTOS. 5) LA REALIZACIÓN, POR CUENTA PROPIA O AJENA, DE TODA CLASE DE CONSTRUCCIONES, INSTALACIONES, REFORMAS, REHABILITACIONES Y DECORACIONES. LA SUPERVISIÓN Y CONTROL DE OBRAS, ASÍ COMO LA COORDINACIÓN DE GREMIOS, EL ASESORAMIENTO Y LA ASISTENCIA TÉCNICA EN TODO CUANTO SE RELACIONE, DIRECTA O INDIRECTAMENTE, CON EL CAMPO DE LA CONSTRUCCIÓN DE EDIFICIOS Y DE LAS OBRAS PÚBLICAS O CIVILES. 6) LA COMPRA, VENTA, IMPORTACIÓN, EXPORTACIÓN Y COMERCIALIZACIÓN EN GENERAL DE TODA CLASE DE MATERIALES DE CONSTRUCCIÓN Y/O COMPLEMENTARIOS Y/O DECORATIVOS, DISTRIBUCIÓN DE PRODUCTOS, ASÍ COMO DE CUALESQUIERA INSTALACIONES, ELEMENTOS O SERVICIOS DE LAS EDIFICACIONES",
      "mainEntityOfPage": "https://www.contratacion.euskadi.eus/webkpe00-kperoc/es/ac71aBusquedaRegistrosWar/empresa/01962",
      "_links": {
        "self": {
          "name": "CONSTRUCCIONES ARTELU Y HARGIN DE PIEDRA LABRADA, S.A.L.",
          "href": "https://api.euskadi.eus/procurements/companies/01962"
        }
      }
    },
    {
      "name": "JAVIER VIZCARGUENAGA CARRASCAL",
      "registrationNumber": "08250",
      "identificationNumber": "30584353B",
      "address": "ODIETA 1",
      "location": {
        "postalCode": "48630",
        "municipality": "Gorliz",
        "county": "Bizkaia",
        "municipalityId": "043",
        "countyId": "48"
      },
      "economicActivities": [
        {
          "id": "1.932.1",
          "name": "Enseñanza de formación y perfeccionamiento profesional no superior",
          "_links": {
            "self": {
              "name": "Enseñanza de formación y perfeccionamiento profesional no superior",
              "href": "https://api.euskadi.eus/procurements/companies/economic-activities/1.932.1"
            }
          }
        },
        {
          "id": "1.934",
          "name": "Enseñanza fuera de establecimiento permanente",
          "_links": {
            "self": {
              "name": "Enseñanza fuera de establecimiento permanente",
              "href": "https://api.euskadi.eus/procurements/companies/economic-activities/1.934"
            }
          }
        }
      ],
      "certificateStartDate": "2024-07-26",
      "certificateEndDate": "2025-01-26",
      "object": "ENSEÑANZA DE FORMACION Y PERFECCIONAMIENTO PROFESIONAL, NO SUPERIOR. ENSEÑANZA FUERA DE ESTABLECIMIENTO PERMANENTE.",
      "mainEntityOfPage": "https://www.contratacion.euskadi.eus/webkpe00-kperoc/es/ac71aBusquedaRegistrosWar/empresa/08250",
      "_links": {
        "self": {
          "name": "JAVIER VIZCARGUENAGA CARRASCAL",
          "href": "https://api.euskadi.eus/procurements/companies/08250"
        }
      }
    },
    {
      "name": "AGENCIA DE SERVICIOS GENERALES LLODIO, S.L.U.",
      "registrationNumber": "01572",
      "identificationNumber": "B01156132",
      "address": "GOIKOPLAZA 8 BAJO",
      "location": {
        "postalCode": "01400",
        "municipality": "Laudio/Llodio",
        "county": "Araba/Álava",
        "municipalityId": "036",
        "countyId": "01"
      },
      "economicActivities": [
        {
          "id": "1.849.5",
          "name": "Servicios de recadería y reparto y manipulación de correspondencia",
          "_links": {
            "self": {
              "name": "Servicios de recadería y reparto y manipulación de correspondencia",
              "href": "https://api.euskadi.eus/procurements/companies/economic-activities/1.849.5"
            }
          }
        }
      ],
      "certificateStartDate": "2024-07-24",
      "certificateEndDate": "2025-01-24",
      "object": "TODA CLASE DE SERVICIOS RELACIONADOS CON LA CORRESPONDENCIA, COMO PREPARACIÓN DE CARTAS Y SOBRES, ENTREGA DE DOCUMENTOS CON NOTIFICACIÓN, SU ENSOBRADO Y MANIPULACIÓN; SU DISTRIBUCIÓN Y REPARTO; EL TRANSPORTE DE VALIJAS Y PAQUETERÍA",
      "mainEntityOfPage": "https://www.contratacion.euskadi.eus/webkpe00-kperoc/es/ac71aBusquedaRegistrosWar/empresa/01572",
      "_links": {
        "self": {
          "name": "AGENCIA DE SERVICIOS GENERALES LLODIO, S.L.U.",
          "href": "https://api.euskadi.eus/procurements/companies/01572"
        }
      }
    },
    {
      "name": "JAVIER CARDENAS DEL CAMPO",
      "registrationNumber": "09407",
      "identificationNumber": "43190319E",
      "address": "METGE JOSEP DARDER 36 1ºB",
      "location": {
        "postalCode": "07008",
        "municipality": "Palma",
        "county": "Balears, Illes",
        "municipalityId": "040",
        "countyId": "07"
      },
      "economicActivities": [
        {
          "id": "2.411",
          "name": "Arquitectos",
          "_links": {
            "self": {
              "name": "Arquitectos",
              "href": "https://api.euskadi.eus/procurements/companies/economic-activities/2.411"
            }
          }
        }
      ],
      "certificateStartDate": "2024-07-24",
      "certificateEndDate": "2025-01-24",
      "object": "ARQUITECTOS.",
      "mainEntityOfPage": "https://www.contratacion.euskadi.eus/webkpe00-kperoc/es/ac71aBusquedaRegistrosWar/empresa/09407",
      "_links": {
        "self": {
          "name": "JAVIER CARDENAS DEL CAMPO",
          "href": "https://api.euskadi.eus/procurements/companies/09407"
        }
      }
    },
    {
      "name": "BRAINSTORM MULTIMEDIA, S.L.",
      "registrationNumber": "09405",
      "identificationNumber": "B80767445",
      "address": "Calle Coeters 9 Nave 5",
      "location": {
        "postalCode": "46980",
        "municipality": "Paterna",
        "county": "Valencia/València",
        "municipalityId": "190",
        "countyId": "46"
      },
      "economicActivities": [
        {
          "id": "1.659.2",
          "name": "Venta al por menor de muebles de oficina y máquinas y equipos de oficina",
          "_links": {
            "self": {
              "name": "Venta al por menor de muebles de oficina y máquinas y equipos de oficina",
              "href": "https://api.euskadi.eus/procurements/companies/economic-activities/1.659.2"
            }
          }
        },
        {
          "id": "1.961.1",
          "name": "Producción de películas cinematográficas (incluso vídeos)",
          "_links": {
            "self": {
              "name": "Producción de películas cinematográficas (incluso vídeos)",
              "href": "https://api.euskadi.eus/procurements/companies/economic-activities/1.961.1"
            }
          }
        }
      ],
      "certificateStartDate": "2024-07-24",
      "certificateEndDate": "2025-01-24",
      "object": "LA REALIZACIÓN DE CUANTOS ACTOS Y NEGOCIOS SE RELACIONEN CON LA CINEMATOGRAFÍA, DISCOGRAFÍA, TANTO SONORA COMO DE IMAGEN EN PARTICULAR, PRESTANDO TODA CLASE DE SERVICIOS TÉCNICOS QUE SE RELACIONEN CON SU EXPLOTACIÓN COMERCIAL, TANTO DIRECTAMENTE COMO MEDIANTE LA GESTIÓN Y ADMINISTRACIÓN DE NEGOCIOS O EMPRESAS DE TERCEROS, INCLUYENDO LA REALIZACIÓN DE PROPAGANDA, Y LA ORGANIZACIÓN Y DESARROLLO DE CURSILLOS Y SEMINARIOS SOBRE MATERIAS RELACIONADAS CON SU ACTIVIDAD. LA PRESTACIÓN DE LOS SERVICIOS ANTERIORES A TELEVISIONES.",
      "mainEntityOfPage": "https://www.contratacion.euskadi.eus/webkpe00-kperoc/es/ac71aBusquedaRegistrosWar/empresa/09405",
      "_links": {
        "self": {
          "name": "BRAINSTORM MULTIMEDIA, S.L.",
          "href": "https://api.euskadi.eus/procurements/companies/09405"
        }
      }
    },
    {
      "name": "MARIA IZA ANDRES",
      "registrationNumber": "08925",
      "identificationNumber": "12385589C",
      "address": "PLAZA DE LOS SANTOS JUANES Nº2 - 2ºIZDA",
      "location": {
        "postalCode": "48006",
        "municipality": "Bilbao",
        "county": "Bizkaia",
        "municipalityId": "020",
        "countyId": "48"
      },
      "economicActivities": [
        {
          "id": "2.411",
          "name": "Arquitectos",
          "_links": {
            "self": {
              "name": "Arquitectos",
              "href": "https://api.euskadi.eus/procurements/companies/economic-activities/2.411"
            }
          }
        }
      ],
      "certificateStartDate": "2024-07-24",
      "certificateEndDate": "2025-01-24",
      "object": "ARQUITECTOS.",
      "mainEntityOfPage": "https://www.contratacion.euskadi.eus/webkpe00-kperoc/es/ac71aBusquedaRegistrosWar/empresa/08925",
      "_links": {
        "self": {
          "name": "MARIA IZA ANDRES",
          "href": "https://api.euskadi.eus/procurements/companies/08925"
        }
      }
    }
  ]
}