{
  "totalItems": 9042,
  "totalPages": 905,
  "currentPage": 499,
  "itemsOfPage": 10,
  "items": [
    {
      "name": "TOPCON ESPAÑA, S.A.",
      "registrationNumber": "02540",
      "identificationNumber": "A58637851",
      "address": "FREDERIC MOMPOU, 4. POL.ST.JOAN DESPÍ.ESCALERA A BAJOS 3",
      "location": {
        "postalCode": "08960",
        "municipality": "Sant Just Desvern",
        "county": "Barcelona",
        "municipalityId": "221",
        "countyId": "08"
      },
      "economicActivities": [
        {
          "id": "1.619.2",
          "name": "Venta al por mayor de aparatos e instrumentos médicos, ortopédicos, ópticos",
          "_links": {
            "self": {
              "name": "Venta al por mayor de aparatos e instrumentos médicos, ortopédicos, ópticos",
              "href": "https://api.euskadi.eus/procurements/companies/economic-activities/1.619.2"
            }
          }
        },
        {
          "id": "1.691.9",
          "name": "Reparación de otros bienes de consumo n.c.o.p",
          "_links": {
            "self": {
              "name": "Reparación de otros bienes de consumo n.c.o.p",
              "href": "https://api.euskadi.eus/procurements/companies/economic-activities/1.691.9"
            }
          }
        }
      ],
      "certificateStartDate": "2022-06-17",
      "certificateEndDate": "2022-12-15",
      "object": "i) LA IMPORTACIÓN, EXPORTACIÓN, Y COMERCIALIZACIÓN DE APARATOS E INSTRUMENTOS ÓPTICOS Y FOTOGRÁFICOS CON SUS RESPECTIVOS COMPONENTES Y ACCESORIOS; APARATOS, EQUIPOS PARA LA INVESTIGACIÓN E INSTRUMENTOS DE ALTA PRECISIÓN PARA USO MÉDICO, ÓPTICO Y OFTALMOLÓGICO, ASÍ COMOS SUS RESPECTIVOS COMPONENTES  Y ACCESORIOS; APARATOS, INSTRUMENTOS Y EQUIPAMIENTOS PARA USO TOPOGRÁFICO; y ii) LA PRESTACIÓN DE SERVICIOS DE MANTENIMIENTO Y REPARACIÓN DE MATERIAL Y APARATOS MÉDICOS, QUIRÚRGICOS, TERAPÉUTICOS Y ÓPTICOS, DE TIPO ELÉCTRICO Y ELECTRÓNICO, EN LOS TÉRMINOS PREVISTOS EN EL SUBGRUPO 4 DEL GRUPO P DEL ANEXO II DEL REGLAMENTO GENERAL DE LA LEY DE CONTRATOS DE LAS ADMINISTRACIONES PÚBLICAS, APROBADO POR REAL DECRETO 1098/2001, DE 12 DE OCTUBRE",
      "mainEntityOfPage": "https://www.contratacion.euskadi.eus/webkpe00-kperoc/es/ac71aBusquedaRegistrosWar/empresa/02540",
      "_links": {
        "self": {
          "name": "TOPCON ESPAÑA, S.A.",
          "href": "https://api.euskadi.eus/procurements/companies/02540"
        }
      }
    },
    {
      "name": "COMERCIAL HOSPITALARIA GRUPO 3, S.L.",
      "registrationNumber": "08449",
      "identificationNumber": "B36769479",
      "address": "Rua Aroncal 9, Vial c, Nave 4",
      "location": {
        "postalCode": "36350",
        "municipality": "Nigrán",
        "county": "Pontevedra",
        "municipalityId": "035",
        "countyId": "36"
      },
      "economicActivities": [
        {
          "id": "1.619.2",
          "name": "Venta al por mayor de aparatos e instrumentos médicos, ortopédicos, ópticos",
          "_links": {
            "self": {
              "name": "Venta al por mayor de aparatos e instrumentos médicos, ortopédicos, ópticos",
              "href": "https://api.euskadi.eus/procurements/companies/economic-activities/1.619.2"
            }
          }
        }
      ],
      "certificateStartDate": "2022-06-16",
      "certificateEndDate": "2022-12-16",
      "object": "EL COMERCIO AL POR MAYOR DE APARATOS E INSTRUMENTOS MÉDICOS, ORTOPÉDICOS, ÓPTICOS Y FOTOGRÁFICOS, COMPRENDIENDO: APARATOS E INSTRUMENTOS DE MEDICINA, CIRUGÍA, ODONTOLOGÍA Y VETERINARIA; ORTOPÉDICOS, ÓPTICOS, FOTOGRÁFICOS Y CINEMATOGRÁFICOS. COMERCIO AL POR MAYOR DE PRODUCTOS DE PERFUMERÍA, COSMÉTICA, BELLEZA, DROGUERÍA, PINTURAS, BARNICES, LACAS, PRODUCTOS DE CONSERVACIÓN E HIGIENE.",
      "mainEntityOfPage": "https://www.contratacion.euskadi.eus/webkpe00-kperoc/es/ac71aBusquedaRegistrosWar/empresa/08449",
      "_links": {
        "self": {
          "name": "COMERCIAL HOSPITALARIA GRUPO 3, S.L.",
          "href": "https://api.euskadi.eus/procurements/companies/08449"
        }
      }
    },
    {
      "name": "TAO LIGHTING STUDIO S.L.",
      "registrationNumber": "08439",
      "identificationNumber": "B95866927",
      "address": "C/ MENDIBILE 2-4",
      "location": {
        "postalCode": "48940",
        "municipality": "Leioa",
        "county": "Bizkaia",
        "municipalityId": "054",
        "countyId": "48"
      },
      "economicActivities": [
        {
          "id": "1.614.3",
          "name": "Venta al por mayor de productos para el mantenimiento y funcionamiento del hogar",
          "_links": {
            "self": {
              "name": "Venta al por mayor de productos para el mantenimiento y funcionamiento del hogar",
              "href": "https://api.euskadi.eus/procurements/companies/economic-activities/1.614.3"
            }
          }
        }
      ],
      "certificateStartDate": "2022-06-14",
      "certificateEndDate": "2022-11-30",
      "object": "A) LA CONSULTORIA LUMÍNICA: REALIZACIÓN Y EJECUCIÓN DE PROYECTOS LUMÍNICOS DE INTERIOR, EXTERIOR Y ARQUITECTÓNICOS. B) LA COMPRA-VENTA DE MATERIAL DE ILUMINACIÓN Y ELÉCTRICO, APARATOS ELECTRODOMÉSTICOS Y MOBILIARIO.",
      "mainEntityOfPage": "https://www.contratacion.euskadi.eus/webkpe00-kperoc/es/ac71aBusquedaRegistrosWar/empresa/08439",
      "_links": {
        "self": {
          "name": "TAO LIGHTING STUDIO S.L.",
          "href": "https://api.euskadi.eus/procurements/companies/08439"
        }
      }
    },
    {
      "name": "B2MOBILITY GMBH",
      "registrationNumber": "08431",
      "identificationNumber": "N2765289J",
      "address": "AVENIDA DE LA TRANSICIÓN ESPAÑOLA 30 PE OMEGA EDIF D",
      "location": {
        "postalCode": "28108",
        "municipality": "Alcobendas",
        "county": "Madrid",
        "municipalityId": "006",
        "countyId": "28"
      },
      "economicActivities": [
        {
          "id": "1.819.9",
          "name": "Otras entidades financieras n.c.o.p",
          "_links": {
            "self": {
              "name": "Otras entidades financieras n.c.o.p",
              "href": "https://api.euskadi.eus/procurements/companies/economic-activities/1.819.9"
            }
          }
        }
      ],
      "certificateStartDate": "2022-06-09",
      "certificateEndDate": "2022-12-08",
      "object": "LA PRESTACIÓN DEL SERVICIO DE DINERO ELECTRÓNICO (ART. 1, APARTADO 2 PÁRRAFO 2 DE LA LEY DE CONTROL DE SERVICIOS DE PAGO ALEMANA [ZAG]) Y LA PRESTACIÓN DEL SERVICIO DE PAGO (ART 1, APARTADO 1, PÁRRAFO 2 DE LA LEY DE CONTROL DE SERVICIOS DE PAGO ALEMANA [ZAG]). LA EMPRESA TAMBIÉN PUEDE PRESTAR OTROS SERVICIOS EMPRESARIALES, ESTRECHAMENTE RELACIONADOS EN EL SENTIDO DE LO DISPUESTO EN EL ARTICULO 11, APARTADO 1, PÁRRAFO 2 N.º 3 DE LA LEY DE CONTROL DE SERVICIOS DE PAGO ALEMANA [ZAG], ASÍ COMO DESARROLLAR ACTIVIDADES COMERCIALES EN EL SENTIDO DE LO DISPUESTO EN EL ARTICULO 11 APARTADO 1 PÁRRAFO 2 N.º 5 DE LA MISMA LEY QUE NO CONSISTA EN LA MISMA LEY DE PRESTACIÓN DE SERVICIOS DE PAGO NI NEN LA EMISIÓN DE DINERO ELECTRÓNICO. LA FINALIDAD DE ESTAS ACTIVIDADES COMERCIALES ES, ENTRE OTRAS, LA VENTA Y DISTRIBUCIÓN DE PRODUCTOS DERIVADOS DEL PETRÓLEO, COMBUSTIBLES ALTERNATIVOS Y OTROS PRODUCTOS Y SERVICIOS.",
      "mainEntityOfPage": "https://www.contratacion.euskadi.eus/webkpe00-kperoc/es/ac71aBusquedaRegistrosWar/empresa/08431",
      "_links": {
        "self": {
          "name": "B2MOBILITY GMBH",
          "href": "https://api.euskadi.eus/procurements/companies/08431"
        }
      }
    },
    {
      "name": "ZABALO IGELTSERITZA, S.L.",
      "registrationNumber": "06588",
      "identificationNumber": "B20944237",
      "address": "KALEGOI 9",
      "location": {
        "postalCode": "20577",
        "municipality": "Antzuola",
        "county": "Gipuzkoa",
        "municipalityId": "011",
        "countyId": "20"
      },
      "economicActivities": [
        {
          "id": "1.501.1",
          "name": "Construcción completa, reparación y conservación de edificaciones",
          "_links": {
            "self": {
              "name": "Construcción completa, reparación y conservación de edificaciones",
              "href": "https://api.euskadi.eus/procurements/companies/economic-activities/1.501.1"
            }
          }
        }
      ],
      "certificateStartDate": "2022-06-09",
      "certificateEndDate": "2022-12-03",
      "object": "LA COMPRA DE TERRENOS Y SOLARES, LA PROMOCIÓN, CONSTRUCCIÓN Y REHABILITACIÓN DE EDIFICIOS PÚBLICOS Y PRIVADOS, Y COMPRAVENTA DE VIVIENDAS, APARTAMENTOS, GARAJES, TRASTEROS Y LOCALES COMERCIALES",
      "mainEntityOfPage": "https://www.contratacion.euskadi.eus/webkpe00-kperoc/es/ac71aBusquedaRegistrosWar/empresa/06588",
      "_links": {
        "self": {
          "name": "ZABALO IGELTSERITZA, S.L.",
          "href": "https://api.euskadi.eus/procurements/companies/06588"
        }
      }
    },
    {
      "name": "SEÑALIZACIONES Y SUMINISTROS 1981, S.L.",
      "registrationNumber": "08430",
      "identificationNumber": "B66659772",
      "address": "Avda. Cerdanya 91, nave 27 P.I. Pomar de Dalt",
      "location": {
        "postalCode": "08915",
        "municipality": "Badalona",
        "county": "Barcelona",
        "municipalityId": "015",
        "countyId": "08"
      },
      "economicActivities": [
        {
          "id": "1.474",
          "name": "Artes gráficas (impresión gráfica)",
          "_links": {
            "self": {
              "name": "Artes gráficas (impresión gráfica)",
              "href": "https://api.euskadi.eus/procurements/companies/economic-activities/1.474"
            }
          }
        }
      ],
      "certificateStartDate": "2022-06-09",
      "certificateEndDate": "2022-12-09",
      "object": "Fabricación y comercialización de placas de señalización para usos industriales, comerciales y particulares, así como suministro del material complementario de confección y fabricación directa y todo cuanto se relaciona con lo anterior, que sea anexo o accesorio a lo indicado.",
      "mainEntityOfPage": "https://www.contratacion.euskadi.eus/webkpe00-kperoc/es/ac71aBusquedaRegistrosWar/empresa/08430",
      "_links": {
        "self": {
          "name": "SEÑALIZACIONES Y SUMINISTROS 1981, S.L.",
          "href": "https://api.euskadi.eus/procurements/companies/08430"
        }
      }
    },
    {
      "name": "CUATROBARRAS CONSULTORES, S.L.",
      "registrationNumber": "03679",
      "identificationNumber": "B95466793",
      "address": "GENERAL EGUIA, 26 - 6 EXT.",
      "location": {
        "postalCode": "48010",
        "municipality": "Bilbao",
        "county": "Bizkaia",
        "municipalityId": "020",
        "countyId": "48"
      },
      "economicActivities": [
        {
          "id": "1.844",
          "name": "Servicios de publicidad, relaciones públicas y similares",
          "_links": {
            "self": {
              "name": "Servicios de publicidad, relaciones públicas y similares",
              "href": "https://api.euskadi.eus/procurements/companies/economic-activities/1.844"
            }
          }
        }
      ],
      "certificateStartDate": "2022-06-08",
      "certificateEndDate": "2022-12-08",
      "classification": [
        {
          "id": "S",
          "name": "Servicios",
          "groups": [
            {
              "id": "T",
              "subgroups": [
                {
                  "id": "01",
                  "name": "Servicios de publicidad",
                  "categories": [
                    {
                      "id": "2",
                      "name": "Desde 150.001 Hasta 300.000",
                      "_links": {
                        "self": {
                          "name": "Desde 150.001 Hasta 300.000",
                          "href": "https://api.euskadi.eus/procurements/companies/types/S/categories/2"
                        }
                      }
                    }
                  ],
                  "_links": {
                    "self": {
                      "name": "Servicios de publicidad",
                      "href": "https://api.euskadi.eus/procurements/companies/types/S/groups/T/subgroups/01"
                    }
                  }
                }
              ],
              "_links": {
                "self": {
                  "href": "https://api.euskadi.eus/procurements/companies/types/S/groups/T"
                }
              }
            }
          ],
          "_links": {
            "self": {
              "name": "Servicios",
              "href": "https://api.euskadi.eus/procurements/companies/types/S"
            }
          }
        }
      ],
      "object": "- LA ORGANIZACIÓN Y PROMOCIÓN DE EVENTOS CULTURALES, PROMOVIENDO EXPOSICIONES DE ARTE, ORGANIZACIÓN DE CONCURSOS Y ACTIVIDADES DE CARÁCTER CULTURAL.\r\n- LA PROMOCIÓN DE ARTISTAS DE TODO GÉNERO.\r\n- LA COMUNICACIÓN CREATIVA: DISEÑO E IDEAS CREATIVAS.\r\n- Y LA PRESTACIÓN DE SERVICIOS DE ASESORÍA INTEGRAL DE COMUNICACIÓN",
      "mainEntityOfPage": "https://www.contratacion.euskadi.eus/webkpe00-kperoc/es/ac71aBusquedaRegistrosWar/empresa/03679",
      "_links": {
        "self": {
          "name": "CUATROBARRAS CONSULTORES, S.L.",
          "href": "https://api.euskadi.eus/procurements/companies/03679"
        }
      }
    },
    {
      "name": "TEXTIL PLANAS OLIVERAS, S.A.",
      "registrationNumber": "03317",
      "identificationNumber": "A08564502",
      "address": "P.I. ELS DOLORS, C/ AVINYÓ, S/N",
      "location": {
        "postalCode": "08243",
        "municipality": "Manresa",
        "county": "Barcelona",
        "municipalityId": "113",
        "countyId": "08"
      },
      "economicActivities": [
        {
          "id": "1.254.2",
          "name": "Fabricación de especialidades y otros productos farmacéuticos",
          "_links": {
            "self": {
              "name": "Fabricación de especialidades y otros productos farmacéuticos",
              "href": "https://api.euskadi.eus/procurements/companies/economic-activities/1.254.2"
            }
          }
        },
        {
          "id": "1.431.3",
          "name": "Tejido de algodón y sus mezclas",
          "_links": {
            "self": {
              "name": "Tejido de algodón y sus mezclas",
              "href": "https://api.euskadi.eus/procurements/companies/economic-activities/1.431.3"
            }
          }
        }
      ],
      "certificateStartDate": "2022-06-07",
      "certificateEndDate": "2022-12-07",
      "object": "LA FABRICACIÓN, TRANSFORMACIÓN, CONFECCIÓN, DISTRIBUCIÓN, COMERCIALIZACIÓN Y COMPRAVENTA DE ARTÍCULOS TEXTILES EN GENERAL, HILADOS, TORCIDOS, FIBRAS Y TODA CLASE DE PRIMERAS MATERIAS TEXTILES, TRANSFORMADAS O SEMITRANSFORMADAS, NATURALES O SINTÉTICAS Y SU EXPORTACIÓN O IMPORTACIÓN, ASÍ COMO DE PRODUCTOS SANITARIOS, HOSPITALARIOS, MÉDICO QUIRÚRGICOS,  DENTALES Y PRODUCTOS HIGIÉNICOS. CON CNAE DE LA ACTIVIDAD PRINCIPAL 1320. FABRICACIÓN DE TEJIDOS TEXTILES",
      "mainEntityOfPage": "https://www.contratacion.euskadi.eus/webkpe00-kperoc/es/ac71aBusquedaRegistrosWar/empresa/03317",
      "_links": {
        "self": {
          "name": "TEXTIL PLANAS OLIVERAS, S.A.",
          "href": "https://api.euskadi.eus/procurements/companies/03317"
        }
      }
    },
    {
      "name": "ALDABE BULEGOA,S.L.",
      "registrationNumber": "08423",
      "identificationNumber": "B20805677",
      "address": "Avda. Navarra,6 bajo",
      "location": {
        "postalCode": "20305",
        "municipality": "Irun",
        "county": "Gipuzkoa",
        "municipalityId": "045",
        "countyId": "20"
      },
      "economicActivities": [
        {
          "id": "1.619.5",
          "name": "Venta al por mayor de artículos de papelería y escritorios",
          "_links": {
            "self": {
              "name": "Venta al por mayor de artículos de papelería y escritorios",
              "href": "https://api.euskadi.eus/procurements/companies/economic-activities/1.619.5"
            }
          }
        },
        {
          "id": "1.659.2",
          "name": "Venta al por menor de muebles de oficina y máquinas y equipos de oficina",
          "_links": {
            "self": {
              "name": "Venta al por menor de muebles de oficina y máquinas y equipos de oficina",
              "href": "https://api.euskadi.eus/procurements/companies/economic-activities/1.659.2"
            }
          }
        },
        {
          "id": "1.659.4",
          "name": "Venta al por menor de libros, periódicos y artículos de papelería y escritorio",
          "_links": {
            "self": {
              "name": "Venta al por menor de libros, periódicos y artículos de papelería y escritorio",
              "href": "https://api.euskadi.eus/procurements/companies/economic-activities/1.659.4"
            }
          }
        }
      ],
      "certificateStartDate": "2022-06-06",
      "certificateEndDate": "2022-12-06",
      "object": "VENTA AL POR MAYOR Y POR MENOR DE TODO TIPO DE MUEBLES DE OFICINA, ACCESORIOS Y REPUESTOS. VENTA AL POR MENOR DE MATERIAL ESCOLAR, PRENSA, REVISTAS Y MATERIAL DE ESCRITORIO Y OFICINA. VENTA AL POR MAYOR Y POR MENOR DE MATERIAL INFORMATICO.",
      "mainEntityOfPage": "https://www.contratacion.euskadi.eus/webkpe00-kperoc/es/ac71aBusquedaRegistrosWar/empresa/08423",
      "_links": {
        "self": {
          "name": "ALDABE BULEGOA,S.L.",
          "href": "https://api.euskadi.eus/procurements/companies/08423"
        }
      }
    },
    {
      "name": "SILVIA DIANA COBZARU",
      "registrationNumber": "07989",
      "identificationNumber": "X7223311T",
      "address": "Calle Kalebarria (48200), 5-3º",
      "location": {
        "postalCode": "48200",
        "municipality": "Durango",
        "county": "Bizkaia",
        "municipalityId": "027",
        "countyId": "48"
      },
      "economicActivities": [
        {
          "id": "2.731",
          "name": "Abogados",
          "_links": {
            "self": {
              "name": "Abogados",
              "href": "https://api.euskadi.eus/procurements/companies/economic-activities/2.731"
            }
          }
        }
      ],
      "certificateStartDate": "2022-06-03",
      "certificateEndDate": "2022-11-29",
      "object": "ABOGADOS",
      "mainEntityOfPage": "https://www.contratacion.euskadi.eus/webkpe00-kperoc/es/ac71aBusquedaRegistrosWar/empresa/07989",
      "_links": {
        "self": {
          "name": "SILVIA DIANA COBZARU",
          "href": "https://api.euskadi.eus/procurements/companies/07989"
        }
      }
    }
  ]
}