{
  "totalItems": 9042,
  "totalPages": 905,
  "currentPage": 807,
  "itemsOfPage": 10,
  "items": [
    {
      "name": "TECNOLOGÍA Y DESARROLLO CONSULTORES, S.L.",
      "registrationNumber": "01846",
      "identificationNumber": "B48795769",
      "address": "C/ BAILÉN, Nº 1 - 2º DPTO. 7 ",
      "location": {
        "postalCode": "48003",
        "municipality": "Bilbao",
        "county": "Bizkaia",
        "municipalityId": "020",
        "countyId": "48"
      },
      "economicActivities": [
        {
          "id": "1.845",
          "name": "Explotación electrónica por cuenta de terceros",
          "_links": {
            "self": {
              "name": "Explotación electrónica por cuenta de terceros",
              "href": "https://api.euskadi.eus/procurements/companies/economic-activities/1.845"
            }
          }
        }
      ],
      "certificateStartDate": "2002-08-13",
      "certificateEndDate": "2003-01-10",
      "object": "INFORMACIÓN, PLANIFICACIÓN, PROGRAMACIÓN, DISEÑO DE ACCIONES Y GESTIÓN ECONÓMICA Y TERRITORIAL, TANTO DE ENTIDADES Y PERSONAS PÚBLICAS COMO PRIVADAS Y QUE COMPRENDE, ENTRE OTRAS, LAS SIGUIENTES ACTIVIDADES:\r\n\r\n1.- DIRECCIÓN ESTRATÉGICA: APORTACIÓN DE INFORMACIÓN ADECUADA PARA LA TOMA DE DECISIONES EN EL ÁMBITO ECONÓMICO, COMO EN EL TERRITORIAL.\r\n\r\n2.- APOYO A LA GESTIÓN LABORAL DE ENTIDADES LOCALES; ASOCIACIONES MUNICIPALES Y MANCOMUNIDADES SOBRE ESTRATEGIAS URBANAS Y DESARROLLO, GRUPOS DE ACCIÓN Y POBLACIÓN OBJETIVA Y PROGRAMACIÓN DE RECURSOS SOCIOCOMUNITARIOS.\r\n\r\n3.- RECURSOS NATURALES Y MEDIO AMBIENTE: PLANES DE GESTIÓN PARA LA PROTECCIÓN DEL MEDIO AMBIENTE Y DESARROLLO RURAL.\r\n\r\n4.- GESTIÓN ORGANIZATIVA Y DE FORMACIÓN: ORGANIZACIÓN DE CURSOS Y CONFERENCIAS EN MATERIAS TÉCNICAS; ENCUENTROS, SIMPOSIUMS Y SEMINARIOS RELACIONADOS CON LA PROMOCIÓN SOCIAL Y ECONÓMICO A ESCALA LOCAL Y REGIONAL Y ESPECIALMENTE DE I+D.\r\n\r\n5.- GESTIÓN DE PROGRAMAS ANTE LA UNIÓN EUROPEA: INFORMACIÓN E IDENTIFICACIÓN DE RECURSOS.\r\n6.- GESTIÓN DE PROYECTOS DE COOPERACIÓN INTERNACIONAL: IDENTIFICACIÓN DE RECURSOS, TRANSFERENCIA DE TECNOLOGÍA, SEGUIMIENTO EVALUACIÓN DE PROGRAMAS.\r\n\r\n7.- ELABORACIÓN DE INFORMES RELATIVOS A ACTIVIDAD DE LA SOCIEDAD, ASÍ COMO SU PUBLICACIÓN Y DIFUSIÓN",
      "mainEntityOfPage": "https://www.contratacion.euskadi.eus/webkpe00-kperoc/es/ac71aBusquedaRegistrosWar/empresa/01846",
      "_links": {
        "self": {
          "name": "TECNOLOGÍA Y DESARROLLO CONSULTORES, S.L.",
          "href": "https://api.euskadi.eus/procurements/companies/01846"
        }
      }
    },
    {
      "name": "AVANCES EN TECNOLOGÍAS MÉDICO-DEPORTIVAS, S.L.",
      "registrationNumber": "02312",
      "identificationNumber": "B95086898",
      "address": "C/ GENERAL EGUIA, 16",
      "location": {
        "postalCode": "48010",
        "municipality": "Bilbao",
        "county": "Bizkaia",
        "municipalityId": "020",
        "countyId": "48"
      },
      "economicActivities": [
        {
          "id": "1.619.2",
          "name": "Venta al por mayor de aparatos e instrumentos médicos, ortopédicos, ópticos",
          "_links": {
            "self": {
              "name": "Venta al por mayor de aparatos e instrumentos médicos, ortopédicos, ópticos",
              "href": "https://api.euskadi.eus/procurements/companies/economic-activities/1.619.2"
            }
          }
        }
      ],
      "certificateStartDate": "2002-08-09",
      "certificateEndDate": "2003-01-10",
      "object": "\r\nLA IMPORTACIÓN, EXPORTACIÓN, DISTRIBUCIÓN, COMERCIALIZACIÓN, ALQUILER E INSTALACIÓN DE TODO TIPO DE PRODUCTOS MÉDICO-QUIRÚRGICOS Y RELACIONADOS CON EL DEPORTE, GIMNASIOS, PISCINAS, SAUNAS, INCLUSO MARCADORES, GRADAS, VESTUARIOS, MOBILIARIO, ILUMINACIÓN Y MEGAFONÍA; SALONES DE BELLEZA, ESTABLECIMIENTOS HOTELEROS, RESIDENCIAS Y ESTABLECIMIENTOS GERIÁTRICOS.   ",
      "mainEntityOfPage": "https://www.contratacion.euskadi.eus/webkpe00-kperoc/es/ac71aBusquedaRegistrosWar/empresa/02312",
      "_links": {
        "self": {
          "name": "AVANCES EN TECNOLOGÍAS MÉDICO-DEPORTIVAS, S.L.",
          "href": "https://api.euskadi.eus/procurements/companies/02312"
        }
      }
    },
    {
      "name": "EUROESTUDIOS, S.A.",
      "registrationNumber": "00128",
      "identificationNumber": "A28209203",
      "address": "C/ CASTELLÓ, Nº 128 - 7ª.",
      "location": {
        "postalCode": "28006",
        "municipality": "Madrid",
        "county": "Madrid",
        "municipalityId": "079",
        "countyId": "28"
      },
      "economicActivities": [
        {
          "id": "1.843.1",
          "name": "Servicios técnicos de ingeniería",
          "_links": {
            "self": {
              "name": "Servicios técnicos de ingeniería",
              "href": "https://api.euskadi.eus/procurements/companies/economic-activities/1.843.1"
            }
          }
        }
      ],
      "certificateStartDate": "2002-08-08",
      "certificateEndDate": "2003-01-01",
      "object": "LA EJECUCIÓN DE TODA CLASE DE ESTUDIOS Y PROYECTOS DE INGENIERÍA, INDUSTRIALES, ECONÓMICOS, COMERCIALES Y FINANCIEROS, LA PRESTACIÓN DE TODA CLASE DE SERVICIOS DE ASESORAMIENTO TÉCNICO, ASÍ COMO LA PLANIFICACIÓN Y EJECUCIÓN DE TODA CLASE DE OBRAS DE INSTALACIONES MECÁNICAS, DE CLIMATIZACIÓN Y ELÉCTRICAS, LA DIRECCIÓN Y SUPERVISIÓN DE OBRAS, LA ELABORACIÓN DE ENSAYOS DE LABORATORIO E INFORMES SOBRE CONTROL DE CALIDAD DE LA CONSTRUCCIÓN, LA INSTALACIÓN DE APARATOS Y SISTEMAS DE SEGURIDAD, FÍSICOS, ELECTRÓNICOS, VISULALES, ACÚSTICOS E INSTRUMENTALES DE VIGILANCIA Y PROTECCIÓN, EL ASESORAMIENTO Y PLANIFICACIÓN DE INSTALACIONES DE SEGURIDAD",
      "mainEntityOfPage": "https://www.contratacion.euskadi.eus/webkpe00-kperoc/es/ac71aBusquedaRegistrosWar/empresa/00128",
      "_links": {
        "self": {
          "name": "EUROESTUDIOS, S.A.",
          "href": "https://api.euskadi.eus/procurements/companies/00128"
        }
      }
    },
    {
      "name": "MYMAIN, S.A.",
      "registrationNumber": "01552",
      "identificationNumber": "A79478236",
      "address": "C/ CARDENAL MARCELO SPÍNOLA, Nº 10 - BAJO.",
      "location": {
        "postalCode": "28016",
        "municipality": "Madrid",
        "county": "Madrid",
        "municipalityId": "079",
        "countyId": "28"
      },
      "economicActivities": [
        {
          "id": "1.504.8",
          "name": "Montajes metálicos e instalaciones industriales completas",
          "_links": {
            "self": {
              "name": "Montajes metálicos e instalaciones industriales completas",
              "href": "https://api.euskadi.eus/procurements/companies/economic-activities/1.504.8"
            }
          }
        },
        {
          "id": "1.922.1",
          "name": "Servicios de limpieza de interiores",
          "_links": {
            "self": {
              "name": "Servicios de limpieza de interiores",
              "href": "https://api.euskadi.eus/procurements/companies/economic-activities/1.922.1"
            }
          }
        }
      ],
      "certificateStartDate": "2002-08-06",
      "certificateEndDate": "2003-01-02",
      "object": "LA REALIZACIÓN DE TODO TIPO DE SERVICIOS DE LIMPIEZA DE EDIFICIOS, LOCALES E INDUSTRIAS. LA REALIZACIÓN DE TODO TIPO DE SERVICIOS DE MANTENIMIENTO INTEGRAL DE INDUSTRIAS. EL ASESORAMIENTO TÉCNICO DE TODA CLASE DE EMPRESAS Y ENTIDADES. LA IMPORTACIÓN, DISTRIBUCIÓN Y VENTA EN TODO EL TERMINO ESPAÑOL DE TODA CLASE DE MERCANCÍAS Y PRODUCTOS DE ORIGEN EXTRANJERO. LA EXPORTACIÓN DE TODA CLASE DE MERCANCÍAS Y PRODUCTOS, INCLUSO SU DISTRIBUCIÓN Y VENTA EN CUALQUIER PAÍS. LA REPRESENTACIÓN, GESTIÓN, DISTRIBUCIÓN Y VENTA EN FIRME O A COMISIÓN, EN CUALQUIER PAÍS, DE PRODUCTOS Y ARTÍCULOS DE FIRMAS NACIONALES Y EXTRANJERAS. LA ADQUISICIÓN, ENAJENACIÓN Y EXPLOTACIÓN, DE TODAS LAS FORMAS PERMITIDAS EN DERECHO EN ESPAÑA Y EN EL EXTRANJERO DE PATENTES, PRIVILEGIOS, LICENCIAS MARCAS Y MODELOS DE UTILIDAD DE CUALQUIER CLASE",
      "mainEntityOfPage": "https://www.contratacion.euskadi.eus/webkpe00-kperoc/es/ac71aBusquedaRegistrosWar/empresa/01552",
      "_links": {
        "self": {
          "name": "MYMAIN, S.A.",
          "href": "https://api.euskadi.eus/procurements/companies/01552"
        }
      }
    },
    {
      "name": "AIRLAN, S.A.",
      "registrationNumber": "01248",
      "identificationNumber": "A48223689",
      "address": "RIBERA DE DEUSTO, Nº 70",
      "location": {
        "postalCode": "48014",
        "municipality": "Bilbao",
        "county": "Bizkaia",
        "municipalityId": "020",
        "countyId": "48"
      },
      "economicActivities": [
        {
          "id": "1.617.4",
          "name": "Venta al por mayor de materiales de construcción, vidrio y artículos instalación",
          "_links": {
            "self": {
              "name": "Venta al por mayor de materiales de construcción, vidrio y artículos instalación",
              "href": "https://api.euskadi.eus/procurements/companies/economic-activities/1.617.4"
            }
          }
        }
      ],
      "certificateStartDate": "2002-07-30",
      "certificateEndDate": "2002-12-11",
      "object": "LA COMERCIALIZACIÓN DE APARATOS DE AIRE ACONDICIONADO, CALEFACCIÓN, CLIMATIZACIÓN Y REFRIGERACIÓN",
      "mainEntityOfPage": "https://www.contratacion.euskadi.eus/webkpe00-kperoc/es/ac71aBusquedaRegistrosWar/empresa/01248",
      "_links": {
        "self": {
          "name": "AIRLAN, S.A.",
          "href": "https://api.euskadi.eus/procurements/companies/01248"
        }
      }
    },
    {
      "name": "FAGOR INDUSTRIAL, S. COOP.",
      "registrationNumber": "01255",
      "identificationNumber": "F20040028",
      "address": "Bº SANCHOLOPETEGUI, Nº 22",
      "location": {
        "postalCode": "20560",
        "municipality": "Oñati",
        "county": "Gipuzkoa",
        "municipalityId": "059",
        "countyId": "20"
      },
      "economicActivities": [
        {
          "id": "1.329.9",
          "name": "Construcción de otras máquinas y equipos mecánicos n.c.o.p",
          "_links": {
            "self": {
              "name": "Construcción de otras máquinas y equipos mecánicos n.c.o.p",
              "href": "https://api.euskadi.eus/procurements/companies/economic-activities/1.329.9"
            }
          }
        }
      ],
      "certificateStartDate": "2002-07-23",
      "certificateEndDate": "2003-01-12",
      "object": "LA FABRICACIÓN Y VENTA DE APARATOS INDUSTRIALES DE HOSTELERÍA Y LAVANDERÍA Y CUANTAS ACTIVIDADES (INDUSTRIALES, COMERCIALES O DE SERVICIOS) AFINES O COMPLEMENTARIAS A LAS CITADAS DECIDA EMPRENDER",
      "mainEntityOfPage": "https://www.contratacion.euskadi.eus/webkpe00-kperoc/es/ac71aBusquedaRegistrosWar/empresa/01255",
      "_links": {
        "self": {
          "name": "FAGOR INDUSTRIAL, S. COOP.",
          "href": "https://api.euskadi.eus/procurements/companies/01255"
        }
      }
    },
    {
      "name": "TECNIVAS CONSULTING, S.A.",
      "registrationNumber": "00059",
      "identificationNumber": "A48107973",
      "address": "C/ COLÓN DE LARREÁTEGUI, Nº 18 - 2º DCHA.",
      "location": {
        "postalCode": "48001",
        "municipality": "Bilbao",
        "county": "Bizkaia",
        "municipalityId": "020",
        "countyId": "48"
      },
      "economicActivities": [
        {
          "id": "1.847",
          "name": "Servicios de consultoría",
          "_links": {
            "self": {
              "name": "Servicios de consultoría",
              "href": "https://api.euskadi.eus/procurements/companies/economic-activities/1.847"
            }
          }
        }
      ],
      "certificateStartDate": "2002-07-22",
      "certificateEndDate": "2003-01-15",
      "object": "EL ESTUDIO, PROMOCIÓN, GESTIÓN, ADMINISTRACIÓN Y FINANCIACIÓN DE EMPRESAS Y OPERACIONES BURSÁTILES, INDUSTRIALES O INMOBILIARIAS Y LA PARTICIPACIÓN EN LAS MISMAS EN CUALQUIER CONCEPTO ECONÓMICO Y JURÍDICO; ASESORAMIENTO EN LA CREACIÓN DE SOCIEDADES Y DE SU LANZAMIENTO AL MERCADO DE VALORES; LA COMPRA Y VENTA, ADQUISICIÓN Y ENAJENACIÓN DE TÍTULOS-VALORES PÚBLICOS O PRIVADOS, TODO ELLO POR CUENTA PROPIA Y CON EXCEPCIÓN DE LA INTERMEDIACIÓN Y DE ACTIVIDADES LEGALMENTE ATRIBUIDAS DE FORMA EXCLUSIVA A LA BANCA O A OTRAS ENTIDADES, DEJANDO SIEMPRE FUERA LAS ACTIVIDADES OBJETO DE LA LEGISLACIÓN DE INSTITUCIONES DE INVERSIÓN COLECTIVA Y DE MERCADO DE VALORES, Y EN TODO CASO, SIN INCIDIR EN AQUELLAS OPERACIONES QUE SE RIJAN POR LEYES ESPECIALES, Y SIEMPRE A TRAVÉS DE PERSONAS CON CAPACIDAD LEGAL Y COMPETENCIA PROFESIONAL PARA EL DESARROLLO DE DICHAS ACTIVIDADES",
      "mainEntityOfPage": "https://www.contratacion.euskadi.eus/webkpe00-kperoc/es/ac71aBusquedaRegistrosWar/empresa/00059",
      "_links": {
        "self": {
          "name": "TECNIVAS CONSULTING, S.A.",
          "href": "https://api.euskadi.eus/procurements/companies/00059"
        }
      }
    },
    {
      "name": "NUEVAS PROMOCIONES-GORAPEN BERRIAK, S.L.",
      "registrationNumber": "01247",
      "identificationNumber": "B48512941",
      "address": "C/ ALAMEDA DOCTOR AREILZA, 39 - BAJO",
      "location": {
        "postalCode": "48010",
        "municipality": "Bilbao",
        "county": "Bizkaia",
        "municipalityId": "020",
        "countyId": "48"
      },
      "economicActivities": [
        {
          "id": "1.932.1",
          "name": "Enseñanza de formación y perfeccionamiento profesional no superior",
          "_links": {
            "self": {
              "name": "Enseñanza de formación y perfeccionamiento profesional no superior",
              "href": "https://api.euskadi.eus/procurements/companies/economic-activities/1.932.1"
            }
          }
        }
      ],
      "certificateStartDate": "2002-07-22",
      "certificateEndDate": "2003-01-01",
      "object": "ACADEMIA DE ENSEÑANZA, ASI COMO LA ADQUISICIÓN Y ENAJENACIÓN DE BIENES INMUEBLES",
      "mainEntityOfPage": "https://www.contratacion.euskadi.eus/webkpe00-kperoc/es/ac71aBusquedaRegistrosWar/empresa/01247",
      "_links": {
        "self": {
          "name": "NUEVAS PROMOCIONES-GORAPEN BERRIAK, S.L.",
          "href": "https://api.euskadi.eus/procurements/companies/01247"
        }
      }
    },
    {
      "name": "MGE UPS SYSTEMS ESPAÑA, S.A.",
      "registrationNumber": "02299",
      "identificationNumber": "A60768512",
      "address": "AVDA. JOSEP TARRADELLAS Nº 19-21",
      "location": {
        "postalCode": "08029",
        "municipality": "Barcelona",
        "county": "Barcelona",
        "municipalityId": "019",
        "countyId": "08"
      },
      "economicActivities": [
        {
          "id": "1.617.9",
          "name": "Venta al por mayor interindustrial de otros productos n.c.o.p",
          "_links": {
            "self": {
              "name": "Venta al por mayor interindustrial de otros productos n.c.o.p",
              "href": "https://api.euskadi.eus/procurements/companies/economic-activities/1.617.9"
            }
          }
        }
      ],
      "certificateStartDate": "2002-07-15",
      "certificateEndDate": "2002-12-06",
      "object": "A) LA COMERCIALIZACIÓN, INSTALACIÓN Y MANTENIMIENTO EN TODOS SUS TIPOS DE SISTEMAS DE ALIMENTACIÓN ININTERRUMPIDA (SAI), CON TODOS SUS ACCESORIOS, GRUPOS ELECTRÓGENOS, CUADROS ELÉCTRICOS Y BATERÍAS; B) LA GESTIÓN, ADMINISTRACIÓN, LA ADQUISICIÓN, EL ARRENDAMIENTO NO FINANCIERO CON O SIN OPCIÓN DE COMPRA, LA EXPLOTACIÓN, LA ENAJENACIÓN Y LA COLOCACIÓN EN EL MERCADO DE TODA CLASE DE BIENES INMUEBLES; C) LA PROMOCIÓN Y EJECUCIÓN DE TODO TIPO DE OPERACIONES INMOBILIARIAS, URBANÍSTICAS O DE ORDENACIÓN Y DESARROLLO DEL SUELO, YA SEA CON FINES INDUSTRIALES, COMERCIALES O DE HABITACIÓN; D) LA PROMOCIÓN Y REALIZACIÓN DE TODO TIPO DE OPERACIONES TURÍSTICAS Y HOTELERAS",
      "mainEntityOfPage": "https://www.contratacion.euskadi.eus/webkpe00-kperoc/es/ac71aBusquedaRegistrosWar/empresa/02299",
      "_links": {
        "self": {
          "name": "MGE UPS SYSTEMS ESPAÑA, S.A.",
          "href": "https://api.euskadi.eus/procurements/companies/02299"
        }
      }
    },
    {
      "name": "AFK MARKETING GLOBAL SOLUTIONS, S.A.",
      "registrationNumber": "02494",
      "identificationNumber": "A01320456",
      "address": "PORTAL DE GAMARRA, 1. OFICINA 126",
      "location": {
        "postalCode": "01013",
        "municipality": "Vitoria-Gasteiz",
        "county": "Araba/Álava",
        "municipalityId": "059",
        "countyId": "01"
      },
      "economicActivities": [
        {
          "id": "1.846",
          "name": "Empresas de estudios de mercado",
          "_links": {
            "self": {
              "name": "Empresas de estudios de mercado",
              "href": "https://api.euskadi.eus/procurements/companies/economic-activities/1.846"
            }
          }
        }
      ],
      "certificateStartDate": "2002-07-15",
      "certificateEndDate": "2003-01-08",
      "object": "SOLUCIONES GLOBALES DE MARKETING Y COMERCIO EXTERIOR, ESTUDIOS DE MERCADO Y ENCUESTAS DE OPINIÓN PÚBLICA, SERVICIOS COMERCIALES GLOBALES, PRESENCIALES Y TELEMARKETING. TODAS LAS ACTIVIDADES INTEGRANTES DEL OBJETO SOCIAL PODRÁN SER DESARROLLADAS POR LA SOCIEDAD TOTAL O PARCIALMENTE DE MODO INDIRECTO, MEDIANTE LA TITULARIDAD DE ACCIONES O PARTICIPACIONES EN SOCIEDADES CON OBJETO IDÉNTICO O ANÁLOGO",
      "mainEntityOfPage": "https://www.contratacion.euskadi.eus/webkpe00-kperoc/es/ac71aBusquedaRegistrosWar/empresa/02494",
      "_links": {
        "self": {
          "name": "AFK MARKETING GLOBAL SOLUTIONS, S.A.",
          "href": "https://api.euskadi.eus/procurements/companies/02494"
        }
      }
    }
  ]
}