{
  "totalItems": 9042,
  "totalPages": 905,
  "currentPage": 496,
  "itemsOfPage": 10,
  "items": [
    {
      "name": "RESIDENCIA EGUILEOR, S.L.",
      "registrationNumber": "08526",
      "identificationNumber": "B95030847",
      "address": "Alfredo Kraus plaza 4, behea",
      "location": {
        "postalCode": "48002",
        "municipality": "Bilbao",
        "county": "Bizkaia",
        "municipalityId": "020",
        "countyId": "48"
      },
      "economicActivities": [
        {
          "id": "1.951",
          "name": "Asistencia y servicios sociales en centros residenciales",
          "_links": {
            "self": {
              "name": "Asistencia y servicios sociales en centros residenciales",
              "href": "https://api.euskadi.eus/procurements/companies/economic-activities/1.951"
            }
          }
        }
      ],
      "certificateStartDate": "2022-07-21",
      "certificateEndDate": "2022-12-30",
      "object": "LAS ACTIVIDADES INTEGRANTES DEL OBJETO SOCIAL PODRÁN SER DESARROLLADAS POR LA SOCIEDAD, TOTAL O PARCIALMENTE, DE MODO INDIRECTO, MEDIANTE LA TITULARIDAD DE ACCIONES O PARTICIPACIONES EN OTRAS SOCIEDADES CON OBJETO IDÉNTICO O ANÁLOGO. LA SOCIEDAD NO DESARROLLARÁ NINGUNA ACTIVIDAD PARA LA QUE LAS LEYES EXIJAN CONDICIONES O LIMITACIONES ESPECIFICAS EN TANTO NO SE DÉ EXACTO CUMPLIMIENTO DE LAS MISMAS.",
      "mainEntityOfPage": "https://www.contratacion.euskadi.eus/webkpe00-kperoc/es/ac71aBusquedaRegistrosWar/empresa/08526",
      "_links": {
        "self": {
          "name": "RESIDENCIA EGUILEOR, S.L.",
          "href": "https://api.euskadi.eus/procurements/companies/08526"
        }
      }
    },
    {
      "name": "THE INSTITUTE FOR HEALTH AND STRATEGY, S.L.",
      "registrationNumber": "08523",
      "identificationNumber": "B95854543",
      "address": "Usategi plaza 1, 3. ezkerra",
      "location": {
        "postalCode": "48993",
        "municipality": "Getxo",
        "county": "Bizkaia",
        "municipalityId": "044",
        "countyId": "48"
      },
      "economicActivities": [
        {
          "id": "1.847",
          "name": "Servicios de consultoría",
          "_links": {
            "self": {
              "name": "Servicios de consultoría",
              "href": "https://api.euskadi.eus/procurements/companies/economic-activities/1.847"
            }
          }
        }
      ],
      "certificateStartDate": "2022-07-21",
      "certificateEndDate": "2023-01-11",
      "object": "DESARROLLAR SU FUNCIÓN EN COLABORACIÓN CON LA “ORGANIZACIÓN MUNDIAL DE LA SALUD”-OMS-; EL APOYO AL DESARROLLO Y LA FORMACIÓN DE LA FUNCIÓN ESTRATÉGICA EN MATERIA DE PLANIFICACIÓN Y DESARROLLO DE LA SANIDAD Y SERVICIOS SOCIALES, DE PAÍSES, REGIONES Y ORGANIZACIONES PÚBLICAS Y PRIVADAS; LA APORTACIÓN KNOW-HOW Y EXPERIENCIA EN EL DISEÑO Y LA IMPLEMENTACIÓN DE NUEVAS POLÍTICAS DE SALUD Y SERVICIOS SOCIALES. ",
      "mainEntityOfPage": "https://www.contratacion.euskadi.eus/webkpe00-kperoc/es/ac71aBusquedaRegistrosWar/empresa/08523",
      "_links": {
        "self": {
          "name": "THE INSTITUTE FOR HEALTH AND STRATEGY, S.L.",
          "href": "https://api.euskadi.eus/procurements/companies/08523"
        }
      }
    },
    {
      "name": "MIREN ARANTZAZU BENGOETXEA MARTINEZ",
      "registrationNumber": "08520",
      "identificationNumber": "30659583P",
      "address": "C/ SAN JUAN TALAKO ,1-1ºC",
      "location": {
        "postalCode": "48280",
        "municipality": "Lekeitio",
        "county": "Bizkaia",
        "municipalityId": "057",
        "countyId": "48"
      },
      "economicActivities": [
        {
          "id": "2.731",
          "name": "Abogados",
          "_links": {
            "self": {
              "name": "Abogados",
              "href": "https://api.euskadi.eus/procurements/companies/economic-activities/2.731"
            }
          }
        }
      ],
      "certificateStartDate": "2022-07-19",
      "certificateEndDate": "2022-12-27",
      "object": "ABOGADOS.",
      "mainEntityOfPage": "https://www.contratacion.euskadi.eus/webkpe00-kperoc/es/ac71aBusquedaRegistrosWar/empresa/08520",
      "_links": {
        "self": {
          "name": "MIREN ARANTZAZU BENGOETXEA MARTINEZ",
          "href": "https://api.euskadi.eus/procurements/companies/08520"
        }
      }
    },
    {
      "name": "AHEAD IDEAS S. COOP. PEQUEÑA",
      "registrationNumber": "08514",
      "identificationNumber": "F16777542",
      "address": "CALLE DOS DE MAYO 17 2ºI",
      "location": {
        "postalCode": "48003",
        "municipality": "Bilbao",
        "county": "Bizkaia",
        "municipalityId": "020",
        "countyId": "48"
      },
      "economicActivities": [
        {
          "id": "1.847",
          "name": "Servicios de consultoría",
          "_links": {
            "self": {
              "name": "Servicios de consultoría",
              "href": "https://api.euskadi.eus/procurements/companies/economic-activities/1.847"
            }
          }
        }
      ],
      "certificateStartDate": "2022-07-18",
      "certificateEndDate": "2022-12-17",
      "object": "PROPORCIONAR TRABAJO A SUS PERSONAS ASOCIADAS EN LAS MEJORES CONDICIONES POSIBLES A TRAVÉS DE LA ACTIVIDAD DE CONSULTORÍA POLÍTICA Y DE ASUNTOS PÚBLICOS Y CUALQUIER OTRA ACTIVIDAD COMPLEMENTARIA O ANEJA A LA ANTERIOR.",
      "mainEntityOfPage": "https://www.contratacion.euskadi.eus/webkpe00-kperoc/es/ac71aBusquedaRegistrosWar/empresa/08514",
      "_links": {
        "self": {
          "name": "AHEAD IDEAS S. COOP. PEQUEÑA",
          "href": "https://api.euskadi.eus/procurements/companies/08514"
        }
      }
    },
    {
      "name": "MICROBEAM, S.A.",
      "registrationNumber": "08507",
      "identificationNumber": "A58032343",
      "address": "calle mar caspio, 18, bjos 1",
      "location": {
        "postalCode": "28033",
        "municipality": "Madrid",
        "county": "Madrid",
        "municipalityId": "079",
        "countyId": "28"
      },
      "economicActivities": [
        {
          "id": "1.619.7",
          "name": "Venta al por mayor de instrumentos de precisión, medida y similares",
          "_links": {
            "self": {
              "name": "Venta al por mayor de instrumentos de precisión, medida y similares",
              "href": "https://api.euskadi.eus/procurements/companies/economic-activities/1.619.7"
            }
          }
        }
      ],
      "certificateStartDate": "2022-07-13",
      "certificateEndDate": "2023-01-12",
      "object": "FABRICACIÓN, MANTENIMIENTO Y VENTA DE MAQUINARIA ELECTRÓNICA Y ELECTROMECÁNICA.",
      "mainEntityOfPage": "https://www.contratacion.euskadi.eus/webkpe00-kperoc/es/ac71aBusquedaRegistrosWar/empresa/08507",
      "_links": {
        "self": {
          "name": "MICROBEAM, S.A.",
          "href": "https://api.euskadi.eus/procurements/companies/08507"
        }
      }
    },
    {
      "name": "SABRINA DEL CARMEN TRINIDAD",
      "registrationNumber": "08503",
      "identificationNumber": "Y0032419A",
      "address": "Calle Goienkalea",
      "location": {
        "postalCode": "48200",
        "municipality": "Durango",
        "county": "Bizkaia",
        "municipalityId": "027",
        "countyId": "48"
      },
      "economicActivities": [
        {
          "id": "1.673.2",
          "name": "Otros cafés y bares",
          "_links": {
            "self": {
              "name": "Otros cafés y bares",
              "href": "https://api.euskadi.eus/procurements/companies/economic-activities/1.673.2"
            }
          }
        }
      ],
      "certificateStartDate": "2022-07-07",
      "certificateEndDate": "2022-12-23",
      "object": "OTROS CAFÉS Y BARES.",
      "mainEntityOfPage": "https://www.contratacion.euskadi.eus/webkpe00-kperoc/es/ac71aBusquedaRegistrosWar/empresa/08503",
      "_links": {
        "self": {
          "name": "SABRINA DEL CARMEN TRINIDAD",
          "href": "https://api.euskadi.eus/procurements/companies/08503"
        }
      }
    },
    {
      "name": "FUNDACION VIZCAÍNA DE CARIDAD RESIDENCIA CONDE DE ARESTI",
      "registrationNumber": "08498",
      "identificationNumber": "G48110811",
      "address": "C/Bruno Mauricio Zabala, nº 22",
      "location": {
        "postalCode": "48003",
        "municipality": "Bilbao",
        "county": "Bizkaia",
        "municipalityId": "020",
        "countyId": "48"
      },
      "economicActivities": [
        {
          "id": "1.951",
          "name": "Asistencia y servicios sociales en centros residenciales",
          "_links": {
            "self": {
              "name": "Asistencia y servicios sociales en centros residenciales",
              "href": "https://api.euskadi.eus/procurements/companies/economic-activities/1.951"
            }
          }
        }
      ],
      "certificateStartDate": "2022-07-06",
      "certificateEndDate": "2022-12-17",
      "object": "EL AUXILIAR A PERSONAS DOMICILIADAS EN LA PROVINCIA DE VIZCAYA, QUE CAREZCAN DE LOS RECURSOS NECESARIOS ACOGIÉNDOLAS EN SU RESIDENCIA, TAMBIÉN PODRÁ FACILITAR ALIMENTO A VECINOS DE BILBAO O TRANSEÚNTES QUE SE ENCUENTREN EN SITUACIÓN DE EXTREMA NECESIDAD, ASÍ COMO CUALESQUIERA OTROS SOCORROS, AYUDAS O ATENCIONES DE TIPO SOCIAL QUE CON CARÁCTER BENÉFICO ACUERDE EL PATRONATO. LA ACTIVIDAD DE LA FUNDACIÓN, DE CARÁCTER BENÉFICO, NO PERSIGUE LUCRO ALGUNO.",
      "mainEntityOfPage": "https://www.contratacion.euskadi.eus/webkpe00-kperoc/es/ac71aBusquedaRegistrosWar/empresa/08498",
      "_links": {
        "self": {
          "name": "FUNDACION VIZCAÍNA DE CARIDAD RESIDENCIA CONDE DE ARESTI",
          "href": "https://api.euskadi.eus/procurements/companies/08498"
        }
      }
    },
    {
      "name": "SOCIEDAD GERIATRICA SANTA AGUEDA,S.L.",
      "registrationNumber": "08497",
      "identificationNumber": "B95207916",
      "address": "C/ Sociedad Santa Agueda, 1. Local 10",
      "location": {
        "postalCode": "48901",
        "municipality": "Barakaldo",
        "county": "Bizkaia",
        "municipalityId": "013",
        "countyId": "48"
      },
      "economicActivities": [
        {
          "id": "1.951",
          "name": "Asistencia y servicios sociales en centros residenciales",
          "_links": {
            "self": {
              "name": "Asistencia y servicios sociales en centros residenciales",
              "href": "https://api.euskadi.eus/procurements/companies/economic-activities/1.951"
            }
          }
        }
      ],
      "certificateStartDate": "2022-07-06",
      "certificateEndDate": "2022-12-14",
      "object": "EL CUIDADO Y ATENCIÓN DE PERSONAS MAYORES DE SESENTA AÑOS.",
      "mainEntityOfPage": "https://www.contratacion.euskadi.eus/webkpe00-kperoc/es/ac71aBusquedaRegistrosWar/empresa/08497",
      "_links": {
        "self": {
          "name": "SOCIEDAD GERIATRICA SANTA AGUEDA,S.L.",
          "href": "https://api.euskadi.eus/procurements/companies/08497"
        }
      }
    },
    {
      "name": "F. MENDOZA, S.L.",
      "registrationNumber": "08494",
      "identificationNumber": "B60314275",
      "address": "C.CANIGO,9",
      "location": {
        "postalCode": "08550",
        "municipality": "Balenyà",
        "county": "Barcelona",
        "municipalityId": "017",
        "countyId": "08"
      },
      "economicActivities": [
        {
          "id": "1.324.1",
          "name": "Construcción de máquinas industriales alimenticias, bebidas y tabaco",
          "_links": {
            "self": {
              "name": "Construcción de máquinas industriales alimenticias, bebidas y tabaco",
              "href": "https://api.euskadi.eus/procurements/companies/economic-activities/1.324.1"
            }
          }
        }
      ],
      "certificateStartDate": "2022-07-06",
      "certificateEndDate": "2022-12-16",
      "object": "LA SOCIEDAD TIENE COMO OBJETO LA FABRICACIÓN, COMERCIALIZACIÓN Y REPARACIÓN DE MAQUINARIA DE PANADERÍA, PASTELERÍA Y BOLLERÍA.",
      "mainEntityOfPage": "https://www.contratacion.euskadi.eus/webkpe00-kperoc/es/ac71aBusquedaRegistrosWar/empresa/08494",
      "_links": {
        "self": {
          "name": "F. MENDOZA, S.L.",
          "href": "https://api.euskadi.eus/procurements/companies/08494"
        }
      }
    },
    {
      "name": "ARGOIZARGI, S.L.",
      "registrationNumber": "06539",
      "identificationNumber": "B95700480",
      "address": "C/ COLON DE LARREATEGUI, 26, 4º D",
      "location": {
        "postalCode": "48009",
        "municipality": "Bilbao",
        "county": "Bizkaia",
        "municipalityId": "020",
        "countyId": "48"
      },
      "economicActivities": [
        {
          "id": "1.501.1",
          "name": "Construcción completa, reparación y conservación de edificaciones",
          "_links": {
            "self": {
              "name": "Construcción completa, reparación y conservación de edificaciones",
              "href": "https://api.euskadi.eus/procurements/companies/economic-activities/1.501.1"
            }
          }
        }
      ],
      "certificateStartDate": "2022-07-06",
      "certificateEndDate": "2022-12-21",
      "object": "1. LA PROMOCIÓN Y CONSTRUCCIÓN DE TODA CLASE DE EDIFICACIONES, BIEN SEAN VIVIENDAS, INCLUSO DE PROTECCIÓN OFICIAL, BIEN LOCALES DE NEGOCIO O INDUSTRIALES, NAVES INDUSTRIALES O CUALQUIER OTRA. 2. LA EJECUCIÓN Y REALIZACIÓN DE TODA CLASE DE OBRAS, BIEN DIRECTAMENTE, BIEN MEDIANTE CONCESIÓN ADMINISTRATIVA, CONTRATA O SUBCONTRATA. 3. LA COMPRAVENTA Y ARRENDAMIENTO DE TODA CLASE DE FINCAS RÚSTICAS Y URBANAS. 4. LA FABRICACIÓN, COMERCIALIZACIÓN, IMPORTACIÓN Y EXPORTACIÓN DE TODA CLASE DE MATERIALES DE CONSTRUCCIÓN. 5. RECOGIDA Y TRANSPORTE DE TODA CLASE DE RESIDUOS. 6. SERVICIOS DE LIMPIEZA EN GENERAL INCLUIDA LA URBANA",
      "mainEntityOfPage": "https://www.contratacion.euskadi.eus/webkpe00-kperoc/es/ac71aBusquedaRegistrosWar/empresa/06539",
      "_links": {
        "self": {
          "name": "ARGOIZARGI, S.L.",
          "href": "https://api.euskadi.eus/procurements/companies/06539"
        }
      }
    }
  ]
}