{
  "totalItems": 9042,
  "totalPages": 905,
  "currentPage": 5,
  "itemsOfPage": 10,
  "items": [
    {
      "name": "ANTEDI CONSTRUCCIONES S.L.U",
      "registrationNumber": "06534",
      "identificationNumber": "B75113282",
      "address": "Señor de aranzate 4 bajo 1 (Antedi Construcciones)",
      "location": {
        "postalCode": "20304",
        "municipality": "Irun",
        "county": "Gipuzkoa",
        "municipalityId": "045",
        "countyId": "20"
      },
      "economicActivities": [
        {
          "id": "1.507",
          "name": "Construcción, reparación y conservación de toda clase obras",
          "_links": {
            "self": {
              "name": "Construcción, reparación y conservación de toda clase obras",
              "href": "https://api.euskadi.eus/procurements/companies/economic-activities/1.507"
            }
          }
        }
      ],
      "certificateStartDate": "2026-02-10",
      "certificateEndDate": "2026-08-06",
      "object": "LA CONSTRUCCION, REFORMAS Y REHABILITACIÓN DE TODO TIPO DE EDIFICIOS",
      "mainEntityOfPage": "https://www.contratacion.euskadi.eus/webkpe00-kperoc/es/ac71aBusquedaRegistrosWar/empresa/06534",
      "_links": {
        "self": {
          "name": "ANTEDI CONSTRUCCIONES S.L.U",
          "href": "https://api.euskadi.eus/procurements/companies/06534"
        }
      }
    },
    {
      "name": "CLOISTER SERVICES 2000, S.L.",
      "registrationNumber": "08349",
      "identificationNumber": "B71092340",
      "address": "Travesía Ave María, 10 bajo",
      "location": {
        "postalCode": "31014",
        "municipality": "Pamplona/Iruña",
        "county": "Navarra",
        "municipalityId": "201",
        "countyId": "31"
      },
      "economicActivities": [
        {
          "id": "1.722",
          "name": "Transporte de mercancías por carretera",
          "_links": {
            "self": {
              "name": "Transporte de mercancías por carretera",
              "href": "https://api.euskadi.eus/procurements/companies/economic-activities/1.722"
            }
          }
        },
        {
          "id": "1.966.9",
          "name": "Otros servicios culturales n.c.o.p",
          "_links": {
            "self": {
              "name": "Otros servicios culturales n.c.o.p",
              "href": "https://api.euskadi.eus/procurements/companies/economic-activities/1.966.9"
            }
          }
        }
      ],
      "certificateStartDate": "2026-02-10",
      "certificateEndDate": "2026-08-05",
      "object": "ACTIVIDAD PRINCIPAL: -ACTIVIDADES DE MUSEOS, CON CÓDIGO C.N.A.E. 9102. OTRAS ACTIVIDADES: - LA VIGILANCIA DE SALAS, COORDINACIÓN DE GREMIOS, FORMACIÓN DE PERSONAL DE ASISTENCIA DE MUSEOS, PROYECTOS DE DIDÁCTICA ARTÍSTICA Y PEDAGOGÍA DEL ARTE. - CONSERVACIÓN Y RESTAURACIÓN DE OBRAS DE ARTE. - REGISTRO Y DOCUMENTACIÓN DE COLECCIONES Y ARTISTAS CONTEMPORÁNEOS. - DISEÑO, CONSTRUCCIÓN Y COMERCIALIZACIÓN DE EMBALAJES PARA EL TRASLADO DE OBRAS DE ARTE. - TRASLADO Y MOVIMIENTO ESPECIALIZADO DE OBRAS DE ARTE PARA EXPOSICIONES, Y MONTAJE EXPOSITIVO. - DISEÑO, REALIZACIÓN Y COMERCIALIZACIÓN DE ANCLAJES DE OBRAS DE ARTE. - DISEÑO DE PLANES DE SEGURIDAD PARA EVACUACIÓN DE OBRAS DE ARTE EN MUSEOS. - DISEÑO, REALIZACIÓN Y COMERCIALIZACIÓN DE EQUIPAMIENTO ARTÍSTICO Y DEPORTIVO. - DISEÑO, REALIZACIÓN Y COMERCIALIZACIÓN DE PRODUCTOS PROPIOS. -SERVICIO DE TRANSPORTE DE MERCANCÍAS POR CARRETERA EN VEHÍCULOS LIGEROS (HASTA 3,5 TONELADAS DE MASA MÁXIMA AUTORIZADA). ",
      "mainEntityOfPage": "https://www.contratacion.euskadi.eus/webkpe00-kperoc/es/ac71aBusquedaRegistrosWar/empresa/08349",
      "_links": {
        "self": {
          "name": "CLOISTER SERVICES 2000, S.L.",
          "href": "https://api.euskadi.eus/procurements/companies/08349"
        }
      }
    },
    {
      "name": "LORCA MARÍN, S.A.",
      "registrationNumber": "00891",
      "identificationNumber": "A30001010",
      "address": "CTRA. DE ALICANTE, Nº 28",
      "location": {
        "postalCode": "30007",
        "municipality": "Murcia",
        "county": "Murcia",
        "municipalityId": "030",
        "countyId": "30"
      },
      "economicActivities": [
        {
          "id": "1.254.2",
          "name": "Fabricación de especialidades y otros productos farmacéuticos",
          "_links": {
            "self": {
              "name": "Fabricación de especialidades y otros productos farmacéuticos",
              "href": "https://api.euskadi.eus/procurements/companies/economic-activities/1.254.2"
            }
          }
        },
        {
          "id": "1.619.2",
          "name": "Venta al por mayor de aparatos e instrumentos médicos, ortopédicos, ópticos",
          "_links": {
            "self": {
              "name": "Venta al por mayor de aparatos e instrumentos médicos, ortopédicos, ópticos",
              "href": "https://api.euskadi.eus/procurements/companies/economic-activities/1.619.2"
            }
          }
        }
      ],
      "certificateStartDate": "2026-02-10",
      "certificateEndDate": "2026-08-05",
      "object": "LA INDUSTRIA Y EL COMERCIO DE LOS PRODUCTOS SINTÉTICOS O NATURALES, SUTURAS QUIRÚRGICAS, ESTÉRILES O NO, EMPLEADAS EN CIRUGÍA Y DEMÁS APLICACIONES DE ELLOS; CUALQUIER ACTIVIDAD FABRIL O COMERCIAL O LÍCITA",
      "mainEntityOfPage": "https://www.contratacion.euskadi.eus/webkpe00-kperoc/es/ac71aBusquedaRegistrosWar/empresa/00891",
      "_links": {
        "self": {
          "name": "LORCA MARÍN, S.A.",
          "href": "https://api.euskadi.eus/procurements/companies/00891"
        }
      }
    },
    {
      "name": "VASCOASTURIANA DEMOLICIONES Y DESGUACES, S.L.",
      "registrationNumber": "05681",
      "identificationNumber": "B95458634",
      "address": "Polígono Bekea, 7",
      "location": {
        "postalCode": "48960",
        "municipality": "Galdakao",
        "county": "Bizkaia",
        "municipalityId": "036",
        "countyId": "48"
      },
      "economicActivities": [
        {
          "id": "1.502.1",
          "name": "Demoliciones y derribos en general",
          "_links": {
            "self": {
              "name": "Demoliciones y derribos en general",
              "href": "https://api.euskadi.eus/procurements/companies/economic-activities/1.502.1"
            }
          }
        },
        {
          "id": "1.621",
          "name": "Venta al por mayor de chatarra y metales de desecho férreos y no férreos",
          "_links": {
            "self": {
              "name": "Venta al por mayor de chatarra y metales de desecho férreos y no férreos",
              "href": "https://api.euskadi.eus/procurements/companies/economic-activities/1.621"
            }
          }
        }
      ],
      "certificateStartDate": "2026-02-10",
      "certificateEndDate": "2026-08-04",
      "object": "LA REALIZACIÓN DE TODO TIPO DE DESGUACES Y DEMOLICIONES. ASIMISMO, COMO ACTIVIDAD ACCESORIA, PODRÁ REALIZAR ACTIVIDADES DE COMPRAVENTA DE TODO TIPO DE CHATARRA Y METALES DERIVADOS DE LOS DESGUACES Y DEMOLICIONES LLEVADAS A CABO POR LA SOCIEDAD",
      "mainEntityOfPage": "https://www.contratacion.euskadi.eus/webkpe00-kperoc/es/ac71aBusquedaRegistrosWar/empresa/05681",
      "_links": {
        "self": {
          "name": "VASCOASTURIANA DEMOLICIONES Y DESGUACES, S.L.",
          "href": "https://api.euskadi.eus/procurements/companies/05681"
        }
      }
    },
    {
      "name": "GORKA JIMENEZ GAVILAN",
      "registrationNumber": "10537",
      "identificationNumber": "30668639W",
      "address": "Calle Bañuetaibar",
      "location": {
        "postalCode": "01470",
        "municipality": "Amurrio",
        "county": "Araba/Álava",
        "municipalityId": "002",
        "countyId": "01"
      },
      "economicActivities": [
        {
          "id": "1.721.2",
          "name": "Transporte por autotaxis",
          "_links": {
            "self": {
              "name": "Transporte por autotaxis",
              "href": "https://api.euskadi.eus/procurements/companies/economic-activities/1.721.2"
            }
          }
        }
      ],
      "certificateStartDate": "2026-02-10",
      "certificateEndDate": "2026-08-05",
      "object": "TRANSPORTE POR AUTOTAXIS.",
      "mainEntityOfPage": "https://www.contratacion.euskadi.eus/webkpe00-kperoc/es/ac71aBusquedaRegistrosWar/empresa/10537",
      "_links": {
        "self": {
          "name": "GORKA JIMENEZ GAVILAN",
          "href": "https://api.euskadi.eus/procurements/companies/10537"
        }
      }
    },
    {
      "name": "CESAR SAENZ DE SAMANIEGO ZUÑEDA",
      "registrationNumber": "10536",
      "identificationNumber": "72717538W",
      "address": "Calle Murriarte  Nº 23",
      "location": {
        "postalCode": "01307",
        "municipality": "Samaniego",
        "county": "Araba/Álava",
        "municipalityId": "052",
        "countyId": "01"
      },
      "economicActivities": [
        {
          "id": "1.721.2",
          "name": "Transporte por autotaxis",
          "_links": {
            "self": {
              "name": "Transporte por autotaxis",
              "href": "https://api.euskadi.eus/procurements/companies/economic-activities/1.721.2"
            }
          }
        }
      ],
      "certificateStartDate": "2026-02-10",
      "certificateEndDate": "2026-08-05",
      "object": "TRANSPORTE POR AUTOTAXIS.",
      "mainEntityOfPage": "https://www.contratacion.euskadi.eus/webkpe00-kperoc/es/ac71aBusquedaRegistrosWar/empresa/10536",
      "_links": {
        "self": {
          "name": "CESAR SAENZ DE SAMANIEGO ZUÑEDA",
          "href": "https://api.euskadi.eus/procurements/companies/10536"
        }
      }
    },
    {
      "name": "BILIBIN KOOP. ELK. TXIKIA",
      "registrationNumber": "08146",
      "identificationNumber": "F75217661",
      "address": "Iparragirre Kalea 16, 1.Esk. 7. Bulegoa",
      "location": {
        "postalCode": "20001",
        "municipality": "Donostia / San Sebastián",
        "county": "Gipuzkoa",
        "municipalityId": "069",
        "countyId": "20"
      },
      "economicActivities": [
        {
          "id": "1.843.9",
          "name": "Otros servicios técnicos n.c.o.p",
          "_links": {
            "self": {
              "name": "Otros servicios técnicos n.c.o.p",
              "href": "https://api.euskadi.eus/procurements/companies/economic-activities/1.843.9"
            }
          }
        },
        {
          "id": "1.847",
          "name": "Servicios de consultoría",
          "_links": {
            "self": {
              "name": "Servicios de consultoría",
              "href": "https://api.euskadi.eus/procurements/companies/economic-activities/1.847"
            }
          }
        },
        {
          "id": "1.934",
          "name": "Enseñanza fuera de establecimiento permanente",
          "_links": {
            "self": {
              "name": "Enseñanza fuera de establecimiento permanente",
              "href": "https://api.euskadi.eus/procurements/companies/economic-activities/1.934"
            }
          }
        },
        {
          "id": "1.989.2",
          "name": "Servicios de organización de congresos, asambleas y similares",
          "_links": {
            "self": {
              "name": "Servicios de organización de congresos, asambleas y similares",
              "href": "https://api.euskadi.eus/procurements/companies/economic-activities/1.989.2"
            }
          }
        }
      ],
      "certificateStartDate": "2026-02-10",
      "certificateEndDate": "2026-08-10",
      "object": "CREAR UN ESTUDIO DE ECOINNOVACIÓN A TRAVÉS DE LA CUAL SUS SOCIAS Y SOCIOS TRABAJEN POR UN MUNDO CON MENOS RESIDUOS, DESDE UNA PERSPECTIVA MÁS CIRCULAR Y HOLÍSTICA. PARA ELLO LLEVAREMOS A CABO DIVERSAS ACTIVIDADES COMO: -DISEÑAR METODOLOGÍAS PARA LA PREVENCIÓN DE RESIDUOS DENTRO DEL MARCO DE LA ECONOMÍA CIRCULAR. – LLEVAR A CABO GESTIÓN DE PROYECTOS ASÍ COMO EJECUCIÓN DE ÉSTOS O DE LAS METODOLOGÍAS RELACIONADAS CON LA ECONOMÍA CIRCULAR Y LA SOSTENIBILIDAD. – OFRECER SERVICIOS DE CONSULTORÍA Y OTROS SERVICIOS TÉCNICOS Y PROFESIONALES RELACIONADOS CON EL MEDIOAMBIENTE, LA SOSTENIBILIDAD, LA ECONOMÍA CIRCULAR, LA ECOINNOVACIÓN, LA INNOVACIÓN GASTRONÓMICA, EL DESPILFARRO ALIMENTARIO Y EL EMPRENDIMIENTO. –TRANSFERIR NUESTRO CONOCIMIENTO Y PRÁCTICA A TRAVÉS DE DOCENCIA EN TALLERES, CHARLAS, FORMACIONES Y CURSOS. – ORGANIZAR EVENTOS, EXPOSICIONES Y PRESENTACIONES SIMILARES RELACIONADOS CON LA SOSTENIBILIDAD, ECOINNOVACIÓN Y ECONOMÍA CIRCULAR DEDICADOS A OFRECER INFORMACIÓN. – DISEÑAR, FABRICAR Y COMERCIALIZAR PRODUCTOS QUE PROMUEVAN UN MENOR IMPACTO AL MEDIOAMBIENTE Y UNA PREVENCIÓN DE RESIDUOS. – GENERAR LIBROS, GUÍAS Y OTROS SOPORTES EDUCATIVOS Y AUDIOVISUALES DEDICADOS A LA COMUNICACIÓN VISUAL ASÍ COMO LA PRESTACIÓN DE TODO TIPO DE SERVICIOS RELACIONADOS CON ACTIVIDADES PUBLICITARIAS PARA DAR A CONOCER DICHO SOPORTE INFORMATIVO.",
      "mainEntityOfPage": "https://www.contratacion.euskadi.eus/webkpe00-kperoc/es/ac71aBusquedaRegistrosWar/empresa/08146",
      "_links": {
        "self": {
          "name": "BILIBIN KOOP. ELK. TXIKIA",
          "href": "https://api.euskadi.eus/procurements/companies/08146"
        }
      }
    },
    {
      "name": "GUILLEN OBRAS Y PROYECTOS, S.L.",
      "registrationNumber": "09468",
      "identificationNumber": "B31268949",
      "address": "CIUDAD DEL TRANSPORTE DE PAMPLONA - AVDA DEL ESTE 27",
      "location": {
        "postalCode": "31119",
        "municipality": "Noáin (Valle de Elorz)/Noain (Elortzibar)",
        "county": "Navarra",
        "municipalityId": "088",
        "countyId": "31"
      },
      "economicActivities": [
        {
          "id": "1.501.1",
          "name": "Construcción completa, reparación y conservación de edificaciones",
          "_links": {
            "self": {
              "name": "Construcción completa, reparación y conservación de edificaciones",
              "href": "https://api.euskadi.eus/procurements/companies/economic-activities/1.501.1"
            }
          }
        },
        {
          "id": "1.507",
          "name": "Construcción, reparación y conservación de toda clase obras",
          "_links": {
            "self": {
              "name": "Construcción, reparación y conservación de toda clase obras",
              "href": "https://api.euskadi.eus/procurements/companies/economic-activities/1.507"
            }
          }
        },
        {
          "id": "1.722",
          "name": "Transporte de mercancías por carretera",
          "_links": {
            "self": {
              "name": "Transporte de mercancías por carretera",
              "href": "https://api.euskadi.eus/procurements/companies/economic-activities/1.722"
            }
          }
        }
      ],
      "certificateStartDate": "2026-02-10",
      "certificateEndDate": "2026-07-27",
      "object": "LA PROMOCIÓN, REALIZACIÓN Y EJECUCIÓN DE REPARCELACIONES Y URBANIZACIONES DE POLÍGONOS RESIDENCIALES, TURÍSTICOS, COMERCIALES E INDUSTRIALES DE TODA CLASE. LA PROMOCIÓN Y EJECUCIÓN, PARA SÍ O PARA TERCEROS, DE CONSTRUCCIÓN DE VIVIENDAS, LOCALES, PABELLONES INDUSTRIALES Y, EN GENERAL, DE EDIFICIOS DE TODA CLASE Y DESTINO. LA REALIZACIÓN DE TODO TIPO DE OBRAS PÚBLICAS, EXCAVACIONES, DESMONTES, CAMINOS, CARRETERAS Y TODO LO QUE TENGA RELACIÓN CON LAS MISMAS. CONSTRUCCIÓN COMPLETA, REPARACIÓN, CONSERVACIÓN Y MANTENIMIENTO DE TODO TIPO DE OBRAS TANTO DE EDIFICACIÓN COMO DE OBRA CIVIL. LAS INSTALACIONES ELÉCTRICAS Y SU MANTENIMIENTO INCLUYENDO EL ALUMBRADO PÚBLICO, MEDIA Y BAJA TENSIÓN. LAS INSTALACIONES DE ALTA, MEDIA Y BAJA TENSIÓN, LAS INSTALACIONES DE TELECOMUNICACIONES, RADIOELÉCTRICAS Y ELECTRÓNICAS. LAS INSTALACIONES DE CLIMATIZACIÓN, CALEFACCIÓN Y AIRE ACONDICIONADO. FONTANERÍA, INSTALACIONES CONTRA INCENDIOS Y TODAS LAS INSTALACIONES EN GENERAL, INCLUYENDO SU CONSERVACIÓN Y MANTENIMIENTO. EL TRANSPORTE PÚBLICO DE MERCANCÍAS.",
      "mainEntityOfPage": "https://www.contratacion.euskadi.eus/webkpe00-kperoc/es/ac71aBusquedaRegistrosWar/empresa/09468",
      "_links": {
        "self": {
          "name": "GUILLEN OBRAS Y PROYECTOS, S.L.",
          "href": "https://api.euskadi.eus/procurements/companies/09468"
        }
      }
    },
    {
      "name": "SUMINISTROS MÉDICOS MEP S.L.",
      "registrationNumber": "05684",
      "identificationNumber": "B31733983",
      "address": "C/ JOSE MARIA JIMENO JURIO Nº21 BAJO",
      "location": {
        "postalCode": "31013",
        "municipality": "Ansoáin/Antsoain",
        "county": "Navarra",
        "municipalityId": "016",
        "countyId": "31"
      },
      "economicActivities": [
        {
          "id": "1.631",
          "name": "Intermediarios del comercio",
          "_links": {
            "self": {
              "name": "Intermediarios del comercio",
              "href": "https://api.euskadi.eus/procurements/companies/economic-activities/1.631"
            }
          }
        }
      ],
      "certificateStartDate": "2026-02-10",
      "certificateEndDate": "2026-08-05",
      "object": "LA IMPORTACIÓN, EXPORTACIÓN, COMPRA, VENTA, COMERCIALIZACIÓN, DISTRIBUCIÓN Y  ALMACENAMIENTO  Y DISTRIBUCIÓN DE MATERIALES Y PRODUCTOS DESTINADOS A LA APLICACIÓN MÉDICA, QUIRÚRGICA Y FARMACÉUTICA",
      "mainEntityOfPage": "https://www.contratacion.euskadi.eus/webkpe00-kperoc/es/ac71aBusquedaRegistrosWar/empresa/05684",
      "_links": {
        "self": {
          "name": "SUMINISTROS MÉDICOS MEP S.L.",
          "href": "https://api.euskadi.eus/procurements/companies/05684"
        }
      }
    },
    {
      "name": "COMUNICACION GLOBAL Y ORGANIZACION DE EVENTOS, S.L.",
      "registrationNumber": "09296",
      "identificationNumber": "B01405315",
      "address": "BULEVAR DE MARITURRI 42 BAJO",
      "location": {
        "postalCode": "01015",
        "municipality": "Vitoria-Gasteiz",
        "county": "Araba/Álava",
        "municipalityId": "059",
        "countyId": "01"
      },
      "economicActivities": [
        {
          "id": "1.844",
          "name": "Servicios de publicidad, relaciones públicas y similares",
          "_links": {
            "self": {
              "name": "Servicios de publicidad, relaciones públicas y similares",
              "href": "https://api.euskadi.eus/procurements/companies/economic-activities/1.844"
            }
          }
        },
        {
          "id": "1.989.2",
          "name": "Servicios de organización de congresos, asambleas y similares",
          "_links": {
            "self": {
              "name": "Servicios de organización de congresos, asambleas y similares",
              "href": "https://api.euskadi.eus/procurements/companies/economic-activities/1.989.2"
            }
          }
        }
      ],
      "certificateStartDate": "2026-02-10",
      "certificateEndDate": "2026-08-04",
      "object": "LA PRESTACIÓN DE SERVICIOS DE PUBLICIDAD Y RELACIONES PÚBLICAS, ASÍ COMO LA ORGANIZACIÓN DE CONGRESOS, ASAMBLEAS Y EVENTOS.",
      "mainEntityOfPage": "https://www.contratacion.euskadi.eus/webkpe00-kperoc/es/ac71aBusquedaRegistrosWar/empresa/09296",
      "_links": {
        "self": {
          "name": "COMUNICACION GLOBAL Y ORGANIZACION DE EVENTOS, S.L.",
          "href": "https://api.euskadi.eus/procurements/companies/09296"
        }
      }
    }
  ]
}