{
  "totalItems": 9042,
  "totalPages": 905,
  "currentPage": 511,
  "itemsOfPage": 10,
  "items": [
    {
      "name": "CONSTRUCCIONES Y CONTRATAS ARTS, S.L.",
      "registrationNumber": "06936",
      "identificationNumber": "B75202598",
      "address": "Zikuñaga Bailara 21W",
      "location": {
        "postalCode": "20120",
        "municipality": "Hernani",
        "county": "Gipuzkoa",
        "municipalityId": "040",
        "countyId": "20"
      },
      "economicActivities": [
        {
          "id": "1.501.1",
          "name": "Construcción completa, reparación y conservación de edificaciones",
          "_links": {
            "self": {
              "name": "Construcción completa, reparación y conservación de edificaciones",
              "href": "https://api.euskadi.eus/procurements/companies/economic-activities/1.501.1"
            }
          }
        }
      ],
      "certificateStartDate": "2021-10-18",
      "certificateEndDate": "2022-04-13",
      "object": "A) LA CONSTRUCCIÓN, REHABILITACIÓN Y URBANIZACIÓN EN GENERAL DE TODA CLASE DE OBRAS PÚBLICAS O PRIVADAS, ASÍ COMO LA EJECUCIÓN DE PROYECTOS, SU ESTUDIO Y ASESORAMIENTO, PUDIENDO REALIZAR TODOS LOS ACTOS Y CONTRATOS RELACIONADOS CON TAL FINALIDAD. B) LA ADQUISICIÓN DE INMUEBLES PARA EJECUTAR POR SÍ O POR MEDIO DE TERCEROS LA CONSTRUCCIÓN MEDIANTE SU URBANIZACIÓN, PROGRAMACIÓN, PROMOCIÓN, VENTA DE LOTES O DE UNIDADES HABITACIONALES, O LOCALES COMERCIALES O INDUSTRIALES QUE RESULTEN DE LA EDIFICACIÓN. C) EL DESARROLLO DE CONSTRUCCIONES, PARCELACIONES O URBANIZACIONES EN BIENES PROPIOS O DE TERCEROS, BIEN SEA PARA PLANES DE VIVIENDA, LOCALES COMERCIALES O INDUSTRIALES. D) LA EJECUCIÓN DE TODA CLASE DE NEGOCIOS, ADEMÁS DE LA COMPRAVENTA, RELACIONADOS CON LA COMERCIALIZACIÓN DE LA PROPIEDAD RAÍZ TALES COMO: FINANCIAMIENTO, ARRENDAMIENTO, FIDEICOMISO, ADMINISTRACIÓN, USUFRUCTO, CONSTITUCIÓN, RÉGIMEN DE PROPIEDAD HORIZONTAL, ETC. F) LA ADQUISICIÓN, PRODUCCIÓN, TRANSFORMACIÓN, DISTRIBUCIÓN Y, EN GENERAL, EL COMERCIO DE MATERIALES, ACCESORIOS, HERRAMIENTAS Y IMPLEMENTOS DE NATURALEZA DIVERSA EMPLEADOS EN LA INDUSTRIA DE LA CONSTRUCCIÓN. G) EN GENERAL, LA REALIZACIÓN DE TODAS AQUELLAS ACTIVIDADES RELACIONADAS CON LA PROMOCIÓN Y CONSTRUCCIÓN DE BIENES INMUEBLES",
      "mainEntityOfPage": "https://www.contratacion.euskadi.eus/webkpe00-kperoc/es/ac71aBusquedaRegistrosWar/empresa/06936",
      "_links": {
        "self": {
          "name": "CONSTRUCCIONES Y CONTRATAS ARTS, S.L.",
          "href": "https://api.euskadi.eus/procurements/companies/06936"
        }
      }
    },
    {
      "name": "DECAN SPORTS EQUIPMENT, SOCIEDAD LIMITADA",
      "registrationNumber": "07936",
      "identificationNumber": "B99373797",
      "address": "Ctra de Valencia Km, 8,7 Angular C/ Ruiseñor",
      "location": {
        "postalCode": "50410",
        "municipality": "Cuarte de Huerva",
        "county": "Zaragoza",
        "municipalityId": "089",
        "countyId": "50"
      },
      "economicActivities": [
        {
          "id": "1.659.6",
          "name": "Venta al por menor de juguetes, artículos de deporte",
          "_links": {
            "self": {
              "name": "Venta al por menor de juguetes, artículos de deporte",
              "href": "https://api.euskadi.eus/procurements/companies/economic-activities/1.659.6"
            }
          }
        },
        {
          "id": "1.843.1",
          "name": "Servicios técnicos de ingeniería",
          "_links": {
            "self": {
              "name": "Servicios técnicos de ingeniería",
              "href": "https://api.euskadi.eus/procurements/companies/economic-activities/1.843.1"
            }
          }
        }
      ],
      "certificateStartDate": "2021-10-18",
      "certificateEndDate": "2022-04-15",
      "object": "A) FABRICACIÓN Y COMERCIALIZACIÓN DE ARTÍCULOS DEPORTIVOS. B) IMPORTACIÓN Y EXPORTACIÓN DE PRODUCTOS DEPORTIVOS. C) ACONDICIONAMIENTO DE COMPLEJOS DEPORTIVOS.",
      "mainEntityOfPage": "https://www.contratacion.euskadi.eus/webkpe00-kperoc/es/ac71aBusquedaRegistrosWar/empresa/07936",
      "_links": {
        "self": {
          "name": "DECAN SPORTS EQUIPMENT, SOCIEDAD LIMITADA",
          "href": "https://api.euskadi.eus/procurements/companies/07936"
        }
      }
    },
    {
      "name": "ASTRAZENECA FARMACEUTICA SPAIN, S.A.",
      "registrationNumber": "02616",
      "identificationNumber": "A36002129",
      "address": "C/SERRANO GALVACHE, 56",
      "location": {
        "postalCode": "28033",
        "municipality": "Madrid",
        "county": "Madrid",
        "municipalityId": "079",
        "countyId": "28"
      },
      "economicActivities": [
        {
          "id": "1.614.1",
          "name": "Venta al por mayor de productos farmacéuticos y medicamentos",
          "_links": {
            "self": {
              "name": "Venta al por mayor de productos farmacéuticos y medicamentos",
              "href": "https://api.euskadi.eus/procurements/companies/economic-activities/1.614.1"
            }
          }
        }
      ],
      "certificateStartDate": "2021-10-15",
      "certificateEndDate": "2022-04-05",
      "object": "ADQUISICIÓN, PREPARACIÓN, FORMULACIÓN, FABRICACIÓN, DISTRIBUCIÓN Y VENTA DE PRODUCTOS Y ESPECIALIDADES FARMACÉUTICAS DE TODAS CLASES, Y ARTÍCULOS PARA USO EN MEDICINA HUMANA; LA IMPORTACIÓN, EXPORTACIÓN Y TODAS LAS OPERACIONES DE COMERCIO DE TALES PRODUCTOS, ESPECIALIDADES Y ARTÍCULOS; Y LA INVESTIGACIÓN, EXPERIMENTACIÓN Y ESTUDIO RELACIONADOS CON LOS MISMOS",
      "mainEntityOfPage": "https://www.contratacion.euskadi.eus/webkpe00-kperoc/es/ac71aBusquedaRegistrosWar/empresa/02616",
      "_links": {
        "self": {
          "name": "ASTRAZENECA FARMACEUTICA SPAIN, S.A.",
          "href": "https://api.euskadi.eus/procurements/companies/02616"
        }
      }
    },
    {
      "name": "EXCAVACIONES Y DESMONTES LAGUNAK, S.L.",
      "registrationNumber": "07120",
      "identificationNumber": "B20490553",
      "address": "Loiolako Inazio Hiribidea, 19-bajo",
      "location": {
        "postalCode": "20730",
        "municipality": "Azpeitia",
        "county": "Gipuzkoa",
        "municipalityId": "018",
        "countyId": "20"
      },
      "economicActivities": [
        {
          "id": "1.502.1",
          "name": "Demoliciones y derribos en general",
          "_links": {
            "self": {
              "name": "Demoliciones y derribos en general",
              "href": "https://api.euskadi.eus/procurements/companies/economic-activities/1.502.1"
            }
          }
        },
        {
          "id": "1.912",
          "name": "Servicios forestales",
          "_links": {
            "self": {
              "name": "Servicios forestales",
              "href": "https://api.euskadi.eus/procurements/companies/economic-activities/1.912"
            }
          }
        }
      ],
      "certificateStartDate": "2021-10-14",
      "certificateEndDate": "2022-04-14",
      "object": "LA REALIZACIÓN DE TODO TIPO DE TRABAJOS DE EXCAVACIÓN Y CONSOLIDACIÓN Y PREPARACIÓN DE TERRENOS PARA LA REALIZACIÓN DE OBRAS",
      "mainEntityOfPage": "https://www.contratacion.euskadi.eus/webkpe00-kperoc/es/ac71aBusquedaRegistrosWar/empresa/07120",
      "_links": {
        "self": {
          "name": "EXCAVACIONES Y DESMONTES LAGUNAK, S.L.",
          "href": "https://api.euskadi.eus/procurements/companies/07120"
        }
      }
    },
    {
      "name": "KIROLAISI XXI, S.L.",
      "registrationNumber": "06610",
      "identificationNumber": "B20943494",
      "address": "C/ MARIA DE LEZO, 34 -3 IZDA",
      "location": {
        "postalCode": "20100",
        "municipality": "Errenteria",
        "county": "Gipuzkoa",
        "municipalityId": "067",
        "countyId": "20"
      },
      "economicActivities": [
        {
          "id": "1.965.3",
          "name": "Espectáculos fuera de establecimiento permanente (excepto los taurinos)",
          "_links": {
            "self": {
              "name": "Espectáculos fuera de establecimiento permanente (excepto los taurinos)",
              "href": "https://api.euskadi.eus/procurements/companies/economic-activities/1.965.3"
            }
          }
        },
        {
          "id": "1.968.2",
          "name": "Organización de espectáculos deportivos",
          "_links": {
            "self": {
              "name": "Organización de espectáculos deportivos",
              "href": "https://api.euskadi.eus/procurements/companies/economic-activities/1.968.2"
            }
          }
        }
      ],
      "certificateStartDate": "2021-10-14",
      "certificateEndDate": "2022-04-14",
      "object": "COORDINACIÓN Y ORGANIZACIÓN DE ACTIVIDADES DEPORTIVAS",
      "mainEntityOfPage": "https://www.contratacion.euskadi.eus/webkpe00-kperoc/es/ac71aBusquedaRegistrosWar/empresa/06610",
      "_links": {
        "self": {
          "name": "KIROLAISI XXI, S.L.",
          "href": "https://api.euskadi.eus/procurements/companies/06610"
        }
      }
    },
    {
      "name": "CONSTRUCCIONES AROBRA, SL",
      "registrationNumber": "01281",
      "identificationNumber": "B20090841",
      "address": "PORTUETXE, 37-3º. OFICINA 9",
      "location": {
        "postalCode": "20018",
        "municipality": "Donostia / San Sebastián",
        "county": "Gipuzkoa",
        "municipalityId": "069",
        "countyId": "20"
      },
      "economicActivities": [
        {
          "id": "1.501.1",
          "name": "Construcción completa, reparación y conservación de edificaciones",
          "_links": {
            "self": {
              "name": "Construcción completa, reparación y conservación de edificaciones",
              "href": "https://api.euskadi.eus/procurements/companies/economic-activities/1.501.1"
            }
          }
        }
      ],
      "certificateStartDate": "2021-10-13",
      "certificateEndDate": "2022-03-26",
      "object": "LA CONSTRUCCIÓN EN HORMIGÓN Y ALBAÑILERÍA, CONSTRUCCIÓN, EDIFICACIÓN Y URBANIZACIÓN DE VIVIENDAS, LOCALES DE NEGOCIO, GARAGES, TRASTEROS, Y PABELLONES INDUSTRIALES",
      "mainEntityOfPage": "https://www.contratacion.euskadi.eus/webkpe00-kperoc/es/ac71aBusquedaRegistrosWar/empresa/01281",
      "_links": {
        "self": {
          "name": "CONSTRUCCIONES AROBRA, SL",
          "href": "https://api.euskadi.eus/procurements/companies/01281"
        }
      }
    },
    {
      "name": "EQUIPAMIENTO Y SERVICIOS ADISMA, S.L.",
      "registrationNumber": "07929",
      "identificationNumber": "B14955645",
      "address": "MARCONI, 57",
      "location": {
        "postalCode": "14550",
        "municipality": "Montilla",
        "county": "Córdoba",
        "municipalityId": "042",
        "countyId": "14"
      },
      "economicActivities": [
        {
          "id": "1.474",
          "name": "Artes gráficas (impresión gráfica)",
          "_links": {
            "self": {
              "name": "Artes gráficas (impresión gráfica)",
              "href": "https://api.euskadi.eus/procurements/companies/economic-activities/1.474"
            }
          }
        },
        {
          "id": "1.613.1",
          "name": "Venta al por mayor de productos textiles, confección calzado y artículos cuero",
          "_links": {
            "self": {
              "name": "Venta al por mayor de productos textiles, confección calzado y artículos cuero",
              "href": "https://api.euskadi.eus/procurements/companies/economic-activities/1.613.1"
            }
          }
        },
        {
          "id": "1.619.9",
          "name": "Venta al por mayor de otros productos n.c.o.p",
          "_links": {
            "self": {
              "name": "Venta al por mayor de otros productos n.c.o.p",
              "href": "https://api.euskadi.eus/procurements/companies/economic-activities/1.619.9"
            }
          }
        },
        {
          "id": "1.933.9",
          "name": "Otras actividades de enseñanza tales como idiomas, mecanografía",
          "_links": {
            "self": {
              "name": "Otras actividades de enseñanza tales como idiomas, mecanografía",
              "href": "https://api.euskadi.eus/procurements/companies/economic-activities/1.933.9"
            }
          }
        }
      ],
      "certificateStartDate": "2021-10-13",
      "certificateEndDate": "2022-04-13",
      "object": "- COMERCIO AL POR MAYOR DE TEXTILES, CONFECCIÓN., CALZADO Y ARTÍCULOS DE CUERO. - INTERMEDIACIÓN EN EL COMERCIO, CONSISTENTE EN PONER EN RELACIÓN A COMPRADOR Y VENDEDOR O BIEN EN REALIZAR ACTOS DE COMERCIO POR CUENTA DE SUS COMITENTES, EN TODAS LAS FASES DEL PROCESO DE COMERCIALIZACIÓN DE TODA CLASE DE PRODUCTOS. - ENSEÑANZA NO REGLADA DE FORMACIÓN Y PERFECCIONAMIENTO PROFESIONAL, ASÍ COMO OTRAS ACTIVIDADES DE ENSEÑANZA. - LA ADQUISICIÓN, TENENCIA, DISFRUTE, EXPLOTACIÓN., ADMINISTRACIÓN, USO, PROMOCIÓN, CONSTRUCCIÓN Y ENAJENACIÓN DE TERRENOS RÚSTICOS Y URBANOS, EDIFICIOS, VIVIENDAS, LOCALES, OFICINAS, NAVES Y TODA CLASE DE BIENES INMUEBLES. ARRENDAMIENTO DE TODO TIPO DE FINCAS RUSTICAS Y URBANAS, BIEN EN CALIDAD DE ARRENDADORA, BIEN EN CALIDAD DE ARRENDATARIA. - LA COMPRAVENTA, ARRENDAMIENTO Y CUALQUIER OTRA FORMA DE EXPLOTACIÓN DE TODA CLASE DE BIENES INMUEBLES. - ASISTENCIA Y SERVICIOS SOCIALES PARA NIÑOS, JÓVENES, DISMINUIDOS FÍSICOS Y ANCIANOS. TANTO EN CENTROS RESIDENCIALES, COMO NO RESIDENCIALES, ASÍ COMO EN DOMICILIOS PARTICULARES.",
      "mainEntityOfPage": "https://www.contratacion.euskadi.eus/webkpe00-kperoc/es/ac71aBusquedaRegistrosWar/empresa/07929",
      "_links": {
        "self": {
          "name": "EQUIPAMIENTO Y SERVICIOS ADISMA, S.L.",
          "href": "https://api.euskadi.eus/procurements/companies/07929"
        }
      }
    },
    {
      "name": "DERRIBOS PETRALANDA, S.L.",
      "registrationNumber": "03465",
      "identificationNumber": "B48112981",
      "address": "TXORIERRI ETORBIDEA 26 D",
      "location": {
        "postalCode": "48180",
        "municipality": "Loiu",
        "county": "Bizkaia",
        "municipalityId": "903",
        "countyId": "48"
      },
      "economicActivities": [
        {
          "id": "1.501.1",
          "name": "Construcción completa, reparación y conservación de edificaciones",
          "_links": {
            "self": {
              "name": "Construcción completa, reparación y conservación de edificaciones",
              "href": "https://api.euskadi.eus/procurements/companies/economic-activities/1.501.1"
            }
          }
        },
        {
          "id": "1.502.1",
          "name": "Demoliciones y derribos en general",
          "_links": {
            "self": {
              "name": "Demoliciones y derribos en general",
              "href": "https://api.euskadi.eus/procurements/companies/economic-activities/1.502.1"
            }
          }
        }
      ],
      "certificateStartDate": "2021-10-11",
      "certificateEndDate": "2022-04-09",
      "object": "LA DEMOLICIÓN DE EDIFICIOS Y CONSTRUCCIONES, SU APUNTALAMIENTO Y REALIZACIÓN DE OBRAS DE REPARACIÓN, RESTAURACIÓN Y DE RECONVERSIÓN; LA REALIZACIÓN DE OBRAS DE EXCAVACIÓN, DESMONTE Y PREPARACIÓN DE TERRENOS; LA CONSTRUCCIÓN POR CUENTA PROPIA O AJENA, LA PROMOCIÓN, VENTA Y ALQUILER DE EDIFICACIONES POR VIVIENDAS O APARTAMENTOS, LOCALES O PISOS. LA COMPRA, VENTA Y ALQUILER DE MAQUINARIA PARA EL DESARROLLO DE LAS ANTERIORES ACTIVIDADES Y LOS MISMOS CONCEPTOS RELACIONADOS A TODOS AQUELLOS OBJETOS Y MATERIALES RESULTANTES DE LAS OPERACIONES ANTERIORES. LA CLASIFICACIÓN, TRATAMIENTO, VALORACIÓN Y VENTA DE MATERIALES REUTILIZABLES ",
      "mainEntityOfPage": "https://www.contratacion.euskadi.eus/webkpe00-kperoc/es/ac71aBusquedaRegistrosWar/empresa/03465",
      "_links": {
        "self": {
          "name": "DERRIBOS PETRALANDA, S.L.",
          "href": "https://api.euskadi.eus/procurements/companies/03465"
        }
      }
    },
    {
      "name": "KASTA SERVICIOS INTEGRALES, S.L.",
      "registrationNumber": "03718",
      "identificationNumber": "B01334192",
      "address": "PARQUE TECNOLÓGICO DE ALAVA. EDIF. CENTRAL OF. 14 MIÑANO",
      "location": {
        "postalCode": "01510",
        "municipality": "Vitoria-Gasteiz",
        "county": "Araba/Álava",
        "municipalityId": "059",
        "countyId": "01"
      },
      "economicActivities": [
        {
          "id": "1.677.9",
          "name": "Otros servicios de alimentación propios de la restauración",
          "_links": {
            "self": {
              "name": "Otros servicios de alimentación propios de la restauración",
              "href": "https://api.euskadi.eus/procurements/companies/economic-activities/1.677.9"
            }
          }
        },
        {
          "id": "1.755",
          "name": "Agencias de viajes",
          "_links": {
            "self": {
              "name": "Agencias de viajes",
              "href": "https://api.euskadi.eus/procurements/companies/economic-activities/1.755"
            }
          }
        },
        {
          "id": "1.844",
          "name": "Servicios de publicidad, relaciones públicas y similares",
          "_links": {
            "self": {
              "name": "Servicios de publicidad, relaciones públicas y similares",
              "href": "https://api.euskadi.eus/procurements/companies/economic-activities/1.844"
            }
          }
        },
        {
          "id": "1.989.2",
          "name": "Servicios de organización de congresos, asambleas y similares",
          "_links": {
            "self": {
              "name": "Servicios de organización de congresos, asambleas y similares",
              "href": "https://api.euskadi.eus/procurements/companies/economic-activities/1.989.2"
            }
          }
        }
      ],
      "certificateStartDate": "2021-10-11",
      "certificateEndDate": "2022-04-10",
      "object": "LA ORGANIZACIÓN DE CONGRESOS, ASAMBLEAS, SIMILARES Y TODO TIPO DE EVENTOS CON TODOS LOS SERVICIOS QUE SE PRECISEN. PRESTACIÓN Y ORGANIZACIÓN DE SERVICIOS DE AZAFATAS PARA CONGRESOS, EXPOSICIONES, PROMOCIONES DE ARTÍCULOS DE TODO TIPO Y CUALQUIER OTRO TIPO DE EVENTO. PRESTACIÓN DE SERVICIOS DE RECEPCIÓN, ATENCIÓN AL PÚBLICO, REALIZACIÓN DE CAMPAÑAS Y GESTIÓN DE CENTROS MUNICIPALES O PRIVADOS CON CONTRATACIÓN DE PERSONAL AUXILIAR, ASÍ COMO RESTO DE TRABAJOS QUE EMANEN DE LA ACTIVIDAD ",
      "mainEntityOfPage": "https://www.contratacion.euskadi.eus/webkpe00-kperoc/es/ac71aBusquedaRegistrosWar/empresa/03718",
      "_links": {
        "self": {
          "name": "KASTA SERVICIOS INTEGRALES, S.L.",
          "href": "https://api.euskadi.eus/procurements/companies/03718"
        }
      }
    },
    {
      "name": "BOLLANO SERVICIOS Y MANTENIMIENTO, S.L.",
      "registrationNumber": "07928",
      "identificationNumber": "B01748672",
      "address": "Islas canarias 69 -1º ",
      "location": {
        "postalCode": "48015",
        "municipality": "Bilbao",
        "county": "Bizkaia",
        "municipalityId": "020",
        "countyId": "48"
      },
      "economicActivities": [
        {
          "id": "1.659.2",
          "name": "Venta al por menor de muebles de oficina y máquinas y equipos de oficina",
          "_links": {
            "self": {
              "name": "Venta al por menor de muebles de oficina y máquinas y equipos de oficina",
              "href": "https://api.euskadi.eus/procurements/companies/economic-activities/1.659.2"
            }
          }
        }
      ],
      "certificateStartDate": "2021-10-08",
      "certificateEndDate": "2022-03-30",
      "object": "LA COMERCIALIZACIÓN, COMPRA-VENTA Y DISTRIBUCIÓN DE MOBILIARIO PARA OFICINAS Y COLECTIVIDADES. INCLUIDA LA ARQUITECTURA INTERIOR Y DECORACIÓN CON MEDIOS PROPIOS O SUBCONTRATADOS. LA PRESTACIÓN DE SERVICIOS INTEGRALES A EDIFICIOS E INSTALACIONES",
      "mainEntityOfPage": "https://www.contratacion.euskadi.eus/webkpe00-kperoc/es/ac71aBusquedaRegistrosWar/empresa/07928",
      "_links": {
        "self": {
          "name": "BOLLANO SERVICIOS Y MANTENIMIENTO, S.L.",
          "href": "https://api.euskadi.eus/procurements/companies/07928"
        }
      }
    }
  ]
}