{
  "totalItems": 9042,
  "totalPages": 905,
  "currentPage": 538,
  "itemsOfPage": 10,
  "items": [
    {
      "name": "PALACIO Y FAMILIA, S.L.",
      "registrationNumber": "07592",
      "identificationNumber": "B95446977",
      "address": "calle zumalacarregui, Nº 10",
      "location": {
        "postalCode": "48200",
        "municipality": "Durango",
        "county": "Bizkaia",
        "municipalityId": "027",
        "countyId": "48"
      },
      "economicActivities": [
        {
          "id": "1.617.8",
          "name": "Venta al por mayor de máquinas y material de oficina",
          "_links": {
            "self": {
              "name": "Venta al por mayor de máquinas y material de oficina",
              "href": "https://api.euskadi.eus/procurements/companies/economic-activities/1.617.8"
            }
          }
        },
        {
          "id": "1.631",
          "name": "Intermediarios del comercio",
          "_links": {
            "self": {
              "name": "Intermediarios del comercio",
              "href": "https://api.euskadi.eus/procurements/companies/economic-activities/1.631"
            }
          }
        },
        {
          "id": "1.653.2",
          "name": "Venta al por menor de material y aparatos eléctricos, electrodomésticos y cocina",
          "_links": {
            "self": {
              "name": "Venta al por menor de material y aparatos eléctricos, electrodomésticos y cocina",
              "href": "https://api.euskadi.eus/procurements/companies/economic-activities/1.653.2"
            }
          }
        },
        {
          "id": "1.653.3",
          "name": "Venta al por menor de artículos de menaje, ferretería, adorno, regalo",
          "_links": {
            "self": {
              "name": "Venta al por menor de artículos de menaje, ferretería, adorno, regalo",
              "href": "https://api.euskadi.eus/procurements/companies/economic-activities/1.653.3"
            }
          }
        },
        {
          "id": "1.659.2",
          "name": "Venta al por menor de muebles de oficina y máquinas y equipos de oficina",
          "_links": {
            "self": {
              "name": "Venta al por menor de muebles de oficina y máquinas y equipos de oficina",
              "href": "https://api.euskadi.eus/procurements/companies/economic-activities/1.659.2"
            }
          }
        },
        {
          "id": "1.659.4",
          "name": "Venta al por menor de libros, periódicos y artículos de papelería y escritorio",
          "_links": {
            "self": {
              "name": "Venta al por menor de libros, periódicos y artículos de papelería y escritorio",
              "href": "https://api.euskadi.eus/procurements/companies/economic-activities/1.659.4"
            }
          }
        }
      ],
      "certificateStartDate": "2021-04-15",
      "certificateEndDate": "2021-09-30",
      "object": "VENTA DE MATERIAL DE OFICINA",
      "mainEntityOfPage": "https://www.contratacion.euskadi.eus/webkpe00-kperoc/es/ac71aBusquedaRegistrosWar/empresa/07592",
      "_links": {
        "self": {
          "name": "PALACIO Y FAMILIA, S.L.",
          "href": "https://api.euskadi.eus/procurements/companies/07592"
        }
      }
    },
    {
      "name": "SEDITEL INTEGRAL, S.L.",
      "registrationNumber": "07588",
      "identificationNumber": "B73051914",
      "address": "LUGAR CIUDAD DEL TRANSPORTE, EDIFICIO EUROPA SN",
      "location": {
        "postalCode": "30011",
        "municipality": "Murcia",
        "county": "Murcia",
        "municipalityId": "030",
        "countyId": "30"
      },
      "economicActivities": [
        {
          "id": "1.504.7",
          "name": "Instalaciones telefónicas, telegráficas, televisión, etc",
          "_links": {
            "self": {
              "name": "Instalaciones telefónicas, telegráficas, televisión, etc",
              "href": "https://api.euskadi.eus/procurements/companies/economic-activities/1.504.7"
            }
          }
        },
        {
          "id": "1.631",
          "name": "Intermediarios del comercio",
          "_links": {
            "self": {
              "name": "Intermediarios del comercio",
              "href": "https://api.euskadi.eus/procurements/companies/economic-activities/1.631"
            }
          }
        },
        {
          "id": "1.659.2",
          "name": "Venta al por menor de muebles de oficina y máquinas y equipos de oficina",
          "_links": {
            "self": {
              "name": "Venta al por menor de muebles de oficina y máquinas y equipos de oficina",
              "href": "https://api.euskadi.eus/procurements/companies/economic-activities/1.659.2"
            }
          }
        }
      ],
      "certificateStartDate": "2021-04-14",
      "certificateEndDate": "2021-08-10",
      "object": "LA COMERCIALIZACIÓN, INSTALACIÓN Y FABRICACIÓN DE INFRAESTRUCTURA, PRODUCTOS, SERVICIOS Y APLICACIONES DE TELECOMUNICACIONES E INSTALACIONES TÉCNICAS",
      "mainEntityOfPage": "https://www.contratacion.euskadi.eus/webkpe00-kperoc/es/ac71aBusquedaRegistrosWar/empresa/07588",
      "_links": {
        "self": {
          "name": "SEDITEL INTEGRAL, S.L.",
          "href": "https://api.euskadi.eus/procurements/companies/07588"
        }
      }
    },
    {
      "name": "JULEN APRAIZ MARAÑÓN",
      "registrationNumber": "07585",
      "identificationNumber": "30693786X",
      "address": "Bidebarrieta 12, 1º dpto A",
      "location": {
        "postalCode": "48005",
        "municipality": "Bilbao",
        "county": "Bizkaia",
        "municipalityId": "020",
        "countyId": "48"
      },
      "economicActivities": [
        {
          "id": "2.411",
          "name": "Arquitectos",
          "_links": {
            "self": {
              "name": "Arquitectos",
              "href": "https://api.euskadi.eus/procurements/companies/economic-activities/2.411"
            }
          }
        }
      ],
      "certificateStartDate": "2021-04-13",
      "certificateEndDate": "2021-09-15",
      "object": "ARQUITECTO",
      "mainEntityOfPage": "https://www.contratacion.euskadi.eus/webkpe00-kperoc/es/ac71aBusquedaRegistrosWar/empresa/07585",
      "_links": {
        "self": {
          "name": "JULEN APRAIZ MARAÑÓN",
          "href": "https://api.euskadi.eus/procurements/companies/07585"
        }
      }
    },
    {
      "name": "AQUA DEVELOPMENT NETWORK, S.A.",
      "registrationNumber": "07586",
      "identificationNumber": "A85788065",
      "address": "PASEO DE LA CASTELLANA 259 C ",
      "location": {
        "postalCode": "28044",
        "municipality": "Madrid",
        "county": "Madrid",
        "municipalityId": "079",
        "countyId": "28"
      },
      "economicActivities": [
        {
          "id": "1.849.9",
          "name": "Otros servicios independientes n.c.o.p",
          "_links": {
            "self": {
              "name": "Otros servicios independientes n.c.o.p",
              "href": "https://api.euskadi.eus/procurements/companies/economic-activities/1.849.9"
            }
          }
        },
        {
          "id": "1.934",
          "name": "Enseñanza fuera de establecimiento permanente",
          "_links": {
            "self": {
              "name": "Enseñanza fuera de establecimiento permanente",
              "href": "https://api.euskadi.eus/procurements/companies/economic-activities/1.934"
            }
          }
        }
      ],
      "certificateStartDate": "2021-04-13",
      "certificateEndDate": "2021-09-30",
      "object": "A) LA PRESTACIÓN DE SERVICIOS DE ASESORÍAS TÉCNICAS ESPECIALIZADAS Y SERVICIOS DE CONSULTORÍA PARA EL DESARROLLO DE PERSONAS Y ADQUISICIÓN, TRANSFERENCIA Y GESTIÓN DE CONOCIMIENTOS Y TECNOLOGÍA. B) LA PRESTACIÓN DE SERVICIOS DE SELECCIÓN, DESARROLLO, CAPACITACIÓN, EVALUACIÓN, COMPENSACIÓN Y ACREDITACIÓN DE PERSONAL Y DE EQUIPOS, IMPLANTACIÓN DE ESTRATEGIAS, HERRAMIENTAS Y PROCESOS DE ACTUACIÓN Y ORGANIZACIÓN DE RECURSOS HUMANOS. C) ORGANIZACIÓN Y/O IMPARTICIÓN DE CURSOS, MASTER Y SEMINARIOS U OTRAS FORMAS DE DIVULGACIÓN DE CONOCIMIENTO. CREACIÓN Y GESTIÓN DE PROGRAMAS EDUCATIVOS, PROYECTOS MUSEOGRÁFICOS Y EXPOSITIVOS PARA MUSEOS Y CENTROS DE INTERPRETACIÓN. D) LA PRESTACIÓN DE SERVICIOS EDITORIALES, EDITAR Y COMERCIALIZAR PUBLICACIONES MANUALES, LIBROS Y REVISTAS RELACIONADAS CON LAS ACTIVIDADES ANTERIORMENTE DESCRITAS. E) DISEÑO GESTIÓN Y EXPLOTACIÓN DE PLATAFORMAS DE GESTIÓN DEL CONOCIMIENTO, SISTEMAS DE INFORMACIÓN Y FORMACIÓN, CONSULTORÍA DE PROCESOS DE GESTIÓN DOCUMENTAL Y UNIDADES DE INFORMACIÓN; DISEÑO Y EXPLOTACIÓN DE REDES SOCIALES Y ESPACIOS COLABORATIVOS. F) GESTIÓN, EXPLOTACIÓN Y COMERCIALIZACIÓN DE DERECHOS DE PROPIEDAD INTELECTUAL E INDUSTRIAL RELACIONADAS CON AQUELLAS ACTIVIDADES QUE INTEGRAN EL CICLO INTEGRAL DEL AGUA Y EL MEDIO AMBIENTE. G) DISEÑO, EJECUCIÓN Y GESTIÓN DE PROYECTOS DE INNOVACIÓN RELACIONADAS CON AQUELLAS ACTIVIDADES QUE INTEGRAN EL CICLO INTEGRAL DEL AGUA Y EL MEDIO AMBIENTE. H) LA ACTUACIÓN COMO SOCIEDAD HOLDING PUDIENDO AL EFECTO CONSTITUIR O PARTICIPAR EN CONCEPTO DE SOCIO O ACCIONISTA EN OTRAS SOCIEDADES CUALESQUIERA QUE SEA DE NATURALEZA, U OBJETO, INCLUSO EN ASOCIACIONES Y EMPRESAS CIVILES, MEDIANTE SUSCRIPCIÓN, ADQUISICIÓN Y TENENCIA DE ACCIONES O PARTICIPACIONES, SIN INVADIR LAS ACTIVIDADES PROPIAS DE LAS INSTITUCIONES DE INVERSIÓN COLECTIVA, SOCIEDADES Y AGENCIAS DE VALORES, O AQUELLAS OTRAS ENTIDADES REGULADAS POR LEYES ESPECIALES",
      "mainEntityOfPage": "https://www.contratacion.euskadi.eus/webkpe00-kperoc/es/ac71aBusquedaRegistrosWar/empresa/07586",
      "_links": {
        "self": {
          "name": "AQUA DEVELOPMENT NETWORK, S.A.",
          "href": "https://api.euskadi.eus/procurements/companies/07586"
        }
      }
    },
    {
      "name": "EUROPA CANINA, S.L.",
      "registrationNumber": "03462",
      "identificationNumber": "B48605075",
      "address": "C/ ZABALENKANPA, 2",
      "location": {
        "postalCode": "48903",
        "municipality": "Barakaldo",
        "county": "Bizkaia",
        "municipalityId": "013",
        "countyId": "48"
      },
      "economicActivities": [
        {
          "id": "1.979.4",
          "name": "Adiestramiento de animales y otros servicios de atención de animales",
          "_links": {
            "self": {
              "name": "Adiestramiento de animales y otros servicios de atención de animales",
              "href": "https://api.euskadi.eus/procurements/companies/economic-activities/1.979.4"
            }
          }
        }
      ],
      "certificateStartDate": "2021-04-12",
      "certificateEndDate": "2021-09-30",
      "object": "LA CRIANZA, ESTANCIA Y RESIDENCIA, ADIESTRAMIENTO Y VENTA DE ANIMALES Y DE TODA CLASE DE ARTÍCULOS Y OBJETOS RELACIONADOS CON ELLOS. LA EXPLOTACIÓN DE TODO TIPO DE NEGOCIOS DE HOSTELERÍA, RESTAURANTE Y CAFETERÍAS. COMPRAVENTA DE MATERIALES, INSTALACIONES Y MENAJE CON ELLO RELACIONADO",
      "mainEntityOfPage": "https://www.contratacion.euskadi.eus/webkpe00-kperoc/es/ac71aBusquedaRegistrosWar/empresa/03462",
      "_links": {
        "self": {
          "name": "EUROPA CANINA, S.L.",
          "href": "https://api.euskadi.eus/procurements/companies/03462"
        }
      }
    },
    {
      "name": "SIT GRUPO EMPRESARIAL, S.L.",
      "registrationNumber": "07584",
      "identificationNumber": "B28139780",
      "address": "CALLE RIOJA, 5",
      "location": {
        "postalCode": "28823",
        "municipality": "Coslada",
        "county": "Madrid",
        "municipalityId": "049",
        "countyId": "28"
      },
      "economicActivities": [
        {
          "id": "1.463",
          "name": "Fabricación en serie de piezas de carpintería y parquet",
          "_links": {
            "self": {
              "name": "Fabricación en serie de piezas de carpintería y parquet",
              "href": "https://api.euskadi.eus/procurements/companies/economic-activities/1.463"
            }
          }
        },
        {
          "id": "1.722",
          "name": "Transporte de mercancías por carretera",
          "_links": {
            "self": {
              "name": "Transporte de mercancías por carretera",
              "href": "https://api.euskadi.eus/procurements/companies/economic-activities/1.722"
            }
          }
        }
      ],
      "certificateStartDate": "2021-04-08",
      "certificateEndDate": "2021-10-06",
      "object": "A) EL SERVICIO DE TRANSPORTES TERRESTRES, MARÍTIMOS YFLUVIALES DE VIAJEROS Y MERCANCÍAS EN TODAS SUS MODALIDADES Y POR TODOS LOS MEDIOS CONOCIDOS Y POR CONOCER, Y ENTRE CUALESQUIERA PUNTOS DEL TERRITORIO NACIONAL, DE LA UNIÓN EUROPEA Y/O DE TERCEROS PAÍSES, SIENDO LAS ACTIVIDADES PRINCIPALES EL TRANSPORTE DE MERCANCÍAS POR CARRETERA (CNAE 4941), ESPECIALMENTE EL TRANSPORTE DE OBRAS DE ARTE Y SUS OPERACIONES ACCESORIAS Y EL SERVICIO DE MUDANZAS (CNAE 4942) Y SUS OPERACIONES ACCESORIAS. B) EL DEPÓSITO Y ALMACENAMIENTO DE MERCANCÍAS (CNAE 5210) Y SUS OPERACIONES ACCESORIAS). C) LAS ACTIVIDADES ANEXAS AL TRANSPORTE TERRESTRE (CNAE 5221), COMO OPERADOR DE TRANSPORTES, FABRICACIÓN Y VENTA DE EMBALAJES Y LA VENTA DE MATERIALES, HERRAMIENTAS Y EQUIPOS RELACIONADOS CON EL EMBALAJE Y SIMILARES. D) Y TODA OTRA ACTIVIDAD ANEXA AL TRANSPORTE (CNAE 5229), COMO LA REUBICACIÓN Y SUS OPERACIONES ACCESORIAS, EL DISEÑO, MONTAJE Y DESMONTAJE DE FERIAS Y EXPOSICIONES, LA DESINSECTACIÓN, LA RESTAURACIÓN, LA REHABILITACIÓN Y, EN GENERAL, LA CONSERVACIÓN DE OBRAS DE ARTE, Y CONSTRUCCIÓN DE VITRINAS CLÍMÁTICAS PARA LA MEJOR CONSERVACIÓN DE LAS OBRAS. E) CUALQUIER ACTIVIDAD DIRECTA E INDIRECTAMENTE RELACIONADA CON EL TRANSPORTE DE EXPOSICIONES Y OBJETOS DE ALTA TECNOLOGÍA O ESPECIAL, ASÍ COMO LA INVESTIGACIÓN RELATIVA A NUEVAS METODOLOGÍAS Y TÉCNICAS APLICABLES AL TRANSPORTE DE OBRAS DE ARTE, A LAS OBRAS Y A LAS INSTITUCIONES ORGANIZADORAS DE LOS EVENTOS EXPOSITIVOS. F) EL DISEÑO Y REALIZACIÓN DE PROYECTOS MUSEÍSTICOS, LA ASESORÍA TÉCNICA MUSEÍSTICA Y EL SUMINISTRO, EQUIPAMIENTO, INSTALACIÓN, APLICACIÓN Y MANTENIMIENTO DE TODO TIPO DE EQUIPOS, MOBILIARIO, MEDIOS AUDIOVISUALES Y MATERIALES NECESARIOS PARA LA CONSERVACIÓN Y ALMACENAMIENTO DE LAS OBRAS, ASÍ COMO EL PROYECTO, SUMINISTRO, DESARROLLO, IMPLANTACIÓN, MANTENIMIENTO Y PUESTA EN MARCHA DE SOLUCIONES PARA LA INSTALACIÓN DE SISTEMAS DE ILUMINACIÓN Y CLIMATIZACIÓN, ALARMAS Y SEGURIDAD DE EMERGENCIA Y TILIZACIÓN (CNAE 9102). G) LA CONSIGNACIÓN DE BUQUES, LA REPRESENTACIÓN DE LAS EMPRESAS A QUE ÉSTOS PERTENEZCAN, CUALQUIERA QUE SEA EL SERVICIOS A QUE SE DEDIQUEN, DE LARGA TRAVESÍA O DE CABOTAJE. H) LA PRESTACIÓN DE SERVICIOS DE ASISTENCIA EN TEIRRA A TERCEROS COMO AGENTE. I) EL ESTABLECIMIENTO Y ORGANIZACIÓN DE AGENCIAS DE ADUANAS DE TODAS CLASES Y EN CUALQUIER FRONTERA",
      "mainEntityOfPage": "https://www.contratacion.euskadi.eus/webkpe00-kperoc/es/ac71aBusquedaRegistrosWar/empresa/07584",
      "_links": {
        "self": {
          "name": "SIT GRUPO EMPRESARIAL, S.L.",
          "href": "https://api.euskadi.eus/procurements/companies/07584"
        }
      }
    },
    {
      "name": "INSTITUTO GRIFOLS, S.A.",
      "registrationNumber": "01540",
      "identificationNumber": "A58419326",
      "address": "C/ CAN GUASCH, Nº 2. POLÍGONO LEVANTE",
      "location": {
        "postalCode": "08150",
        "municipality": "Parets del Vallès",
        "county": "Barcelona",
        "municipalityId": "159",
        "countyId": "08"
      },
      "economicActivities": [
        {
          "id": "1.254.2",
          "name": "Fabricación de especialidades y otros productos farmacéuticos",
          "_links": {
            "self": {
              "name": "Fabricación de especialidades y otros productos farmacéuticos",
              "href": "https://api.euskadi.eus/procurements/companies/economic-activities/1.254.2"
            }
          }
        }
      ],
      "certificateStartDate": "2021-04-07",
      "certificateEndDate": "2021-09-23",
      "object": "LA PRÁCTICA DE INVESTIGACIONES CLÍNICAS Y BIOLÓGICAS, LA PREPARACIÓN Y FABRICACIÓN DE HEMODERIVADOS, REACTIVOS, PRODUCTOS TERAPEÚTICOS, DIETÉTICOS Y ESPECIALIDADES FARMACEÚTICAS. LA PRESTACIÓN DE SERVICIOS SANITARIOS DE TODO TIPO EN O PARA HOSPITALES, CLÍNICAS, SANATORIOS, CONSULTORIOS, BALNEARIOS ASÍ COMO CUALESQUIERA OTROS CENTROLS MÉDICOS O TERAPEÚTICOS. LA PRESTACIÓN DE TRANSFORMACIÓN DE PLASMA SANGUÍNEO, PROVENIENTE DE LAS DONACIONES REALIZADAS A BANCOS DE SANGRE O A OTROS CENTROS DE TRANSFUSIÓN SANGUÍNEA, EN PRODUCTOS HEMODERIVADOS, ASÍ COMO LA REALIZACIÓN DE ACTIVIDADES DE DISTRIBUCIÓN DE LOS PRODUCTOS HEMODERIVADOS TRASNFORMADOS A SUS LUGARES DE ORIGEN.EL ALMACENAMIENTO Y COMERCIALIZACIÓN DE TODO TIPO DE MATERIAS PRIMAS GENERADAS COMO CONSECUENCIA O DURANTE EL PROCESO DE ELABORACIÓN DE PRODUCTOS HEMODERIVADOS. LA REALIZACIÓN DE LAS DEMÁS ACTIVIDADES FARMACEÚTICAS",
      "mainEntityOfPage": "https://www.contratacion.euskadi.eus/webkpe00-kperoc/es/ac71aBusquedaRegistrosWar/empresa/01540",
      "_links": {
        "self": {
          "name": "INSTITUTO GRIFOLS, S.A.",
          "href": "https://api.euskadi.eus/procurements/companies/01540"
        }
      }
    },
    {
      "name": "NISSEN ELEKTROBAU IBERICA, S.L.",
      "registrationNumber": "07582",
      "identificationNumber": "B01486265",
      "address": "C/ Mendizabala, 126",
      "location": {
        "postalCode": "01007",
        "municipality": "Vitoria-Gasteiz",
        "county": "Araba/Álava",
        "municipalityId": "059",
        "countyId": "01"
      },
      "economicActivities": [
        {
          "id": "1.617.9",
          "name": "Venta al por mayor interindustrial de otros productos n.c.o.p",
          "_links": {
            "self": {
              "name": "Venta al por mayor interindustrial de otros productos n.c.o.p",
              "href": "https://api.euskadi.eus/procurements/companies/economic-activities/1.617.9"
            }
          }
        }
      ],
      "certificateStartDate": "2021-04-07",
      "certificateEndDate": "2021-09-29",
      "object": "LA VENTA Y ARRENDAMIENTO DE ELEMENTOS DE SEÑALIZACIÓN Y DISPOSITIVOS ELÉCTRICOS Y ELECTRÓNICOS PARA LA SEGURIDAD DEL TRÁFICO RODADO. LA PRESTACIÓN DE SERVICIOS DE ASESORAMIENTO A TERCEROS EN LAS MATERIAS INDICADAS",
      "mainEntityOfPage": "https://www.contratacion.euskadi.eus/webkpe00-kperoc/es/ac71aBusquedaRegistrosWar/empresa/07582",
      "_links": {
        "self": {
          "name": "NISSEN ELEKTROBAU IBERICA, S.L.",
          "href": "https://api.euskadi.eus/procurements/companies/07582"
        }
      }
    },
    {
      "name": "ROSA MARIA GRANADOS HILERA",
      "registrationNumber": "07576",
      "identificationNumber": "01178902Z",
      "address": "CALLE VELERO 16",
      "location": {
        "postalCode": "28042",
        "municipality": "Madrid",
        "county": "Madrid",
        "municipalityId": "079",
        "countyId": "28"
      },
      "economicActivities": [
        {
          "id": "2.411",
          "name": "Arquitectos",
          "_links": {
            "self": {
              "name": "Arquitectos",
              "href": "https://api.euskadi.eus/procurements/companies/economic-activities/2.411"
            }
          }
        }
      ],
      "certificateStartDate": "2021-03-30",
      "certificateEndDate": "2021-08-18",
      "object": "ARQUITECTOS",
      "mainEntityOfPage": "https://www.contratacion.euskadi.eus/webkpe00-kperoc/es/ac71aBusquedaRegistrosWar/empresa/07576",
      "_links": {
        "self": {
          "name": "ROSA MARIA GRANADOS HILERA",
          "href": "https://api.euskadi.eus/procurements/companies/07576"
        }
      }
    },
    {
      "name": "MENTXA-NAU,  S.L.",
      "registrationNumber": "07569",
      "identificationNumber": "B01365261",
      "address": "AVDA  CANTABRICO 11 A PAB 1",
      "location": {
        "postalCode": "01013",
        "municipality": "Vitoria-Gasteiz",
        "county": "Araba/Álava",
        "municipalityId": "059",
        "countyId": "01"
      },
      "economicActivities": [
        {
          "id": "1.756",
          "name": "Intermediarios del transporte",
          "_links": {
            "self": {
              "name": "Intermediarios del transporte",
              "href": "https://api.euskadi.eus/procurements/companies/economic-activities/1.756"
            }
          }
        },
        {
          "id": "1.849.5",
          "name": "Servicios de recadería y reparto y manipulación de correspondencia",
          "_links": {
            "self": {
              "name": "Servicios de recadería y reparto y manipulación de correspondencia",
              "href": "https://api.euskadi.eus/procurements/companies/economic-activities/1.849.5"
            }
          }
        }
      ],
      "certificateStartDate": "2021-03-29",
      "certificateEndDate": "2021-09-23",
      "object": "LA PRESTACIÓN DE SERVICIOS DE MENSAJERÍA, RECOGIDA, TRASLADO Y ENTREGA DE PAQUETERÍA EN GENERAL Y MENSAJES, INCLUIDA LA MENSAJERÍA A TRAVÉS DE TRANSMISIÓN DE DATOS POR CORREO ELECTRÓNICO. EL TRANSPORTE DE TODA CLASE DE MERCANCÍAS Y MATERIALES POR CUALQUIER MEDIO, TERRESTRE, AÉREO Y MARÍTIMO POR TODO EL TERRITORIO NACIONAL Y EXTRANJERO, YA SEA CON SUS PROPIOS ELEMENTOS DE TRANSPORTE O A TRAVÉS DE TERCEROS, ASÍ COMO CUALQUIER OTRA PROPIA DE OPERADOR DE TRANSPORTE DE MERCANCÍAS. LA PRESTACIÓN DE SERVICIOS POSTALES Y ACTIVIDADES AUXILIARES. LA ORGANIZACIÓN, DESARROLLO Y EXPLOTACIÓN DE REDES DE FRANQUICIA PARA EL EJERCICIO DE LAS ACTIVIDADES CONTENIDAS EN LOS APARATADOS PRECEDENTES",
      "mainEntityOfPage": "https://www.contratacion.euskadi.eus/webkpe00-kperoc/es/ac71aBusquedaRegistrosWar/empresa/07569",
      "_links": {
        "self": {
          "name": "MENTXA-NAU,  S.L.",
          "href": "https://api.euskadi.eus/procurements/companies/07569"
        }
      }
    }
  ]
}