{
  "totalItems": 9042,
  "totalPages": 905,
  "currentPage": 482,
  "itemsOfPage": 10,
  "items": [
    {
      "name": "VIUDA DE SAINZ, S.A.",
      "registrationNumber": "00427",
      "identificationNumber": "A48154348",
      "address": "POLÍGONO INDUSTRIAL EL CAMPILLO, 19",
      "location": {
        "postalCode": "48500",
        "municipality": "Abanto y Ciérvana-Abanto Zierbena",
        "county": "Bizkaia",
        "municipalityId": "002",
        "countyId": "48"
      },
      "economicActivities": [
        {
          "id": "1.507",
          "name": "Construcción, reparación y conservación de toda clase obras",
          "_links": {
            "self": {
              "name": "Construcción, reparación y conservación de toda clase obras",
              "href": "https://api.euskadi.eus/procurements/companies/economic-activities/1.507"
            }
          }
        }
      ],
      "certificateStartDate": "2022-10-10",
      "certificateEndDate": "2023-03-25",
      "object": "LA REALIZACIÓN Y EXPLOTACIÓN DE TODO TIPO Y CLASE DE TRABAJOS Y ENCARGOS DE EXCAVACIÓN, REMOCIÓN, MOVIMIENTO DE TIERRAS, CONSTRUCCIÓN Y EJECUCIÓN DE OBRAS, TANTO EN RÉGIMEN DE CONTRATACIÓN PÚBLICA COMO PRIVADA, BIEN DIRECTA Y PRINCIPALMENTE O BIEN MEDIANTE SUBCONTRATACIÓN, Y LA PRESTACIÓN DE SERVICIOS, ASÍ COMO LA REALIZACIÓN DE ACTIVIDADES DE TRANSPORTE DE CUALQUIER CLASE, VINCULADO O NO CON LAS ACTIVIDADES ANTERIORES",
      "mainEntityOfPage": "https://www.contratacion.euskadi.eus/webkpe00-kperoc/es/ac71aBusquedaRegistrosWar/empresa/00427",
      "_links": {
        "self": {
          "name": "VIUDA DE SAINZ, S.A.",
          "href": "https://api.euskadi.eus/procurements/companies/00427"
        }
      }
    },
    {
      "name": "ALAMO INDUSTRIAL, S.A.",
      "registrationNumber": "07237",
      "identificationNumber": "A08663171",
      "address": "Gran Via 8-10, 2º 1º",
      "location": {
        "postalCode": "08902",
        "municipality": "Hospitalet de Llobregat, L'",
        "county": "Barcelona",
        "municipalityId": "101",
        "countyId": "08"
      },
      "economicActivities": [
        {
          "id": "1.501.2",
          "name": "Construcción completa, reparación y conservación obras civiles",
          "_links": {
            "self": {
              "name": "Construcción completa, reparación y conservación obras civiles",
              "href": "https://api.euskadi.eus/procurements/companies/economic-activities/1.501.2"
            }
          }
        },
        {
          "id": "1.504.1",
          "name": "Instalaciones eléctricas en general",
          "_links": {
            "self": {
              "name": "Instalaciones eléctricas en general",
              "href": "https://api.euskadi.eus/procurements/companies/economic-activities/1.504.1"
            }
          }
        },
        {
          "id": "1.504.11",
          "name": "Instalaciones eléctricas en general, redes telegráficas, telefonía, tv, etc",
          "_links": {
            "self": {
              "name": "Instalaciones eléctricas en general, redes telegráficas, telefonía, tv, etc",
              "href": "https://api.euskadi.eus/procurements/companies/economic-activities/1.504.11"
            }
          }
        },
        {
          "id": "1.504.3",
          "name": "Instalaciones de frío, calor y acondicionamiento de aire",
          "_links": {
            "self": {
              "name": "Instalaciones de frío, calor y acondicionamiento de aire",
              "href": "https://api.euskadi.eus/procurements/companies/economic-activities/1.504.3"
            }
          }
        },
        {
          "id": "1.861.2",
          "name": "Alquiler de locales industriales y otros alquileres n.c.o.p",
          "_links": {
            "self": {
              "name": "Alquiler de locales industriales y otros alquileres n.c.o.p",
              "href": "https://api.euskadi.eus/procurements/companies/economic-activities/1.861.2"
            }
          }
        }
      ],
      "certificateStartDate": "2022-10-10",
      "certificateEndDate": "2023-01-31",
      "object": "LA CONSTRUCCIÓN DE TODO TIPO DE OBRA, EDIFICACIÓN DE OBRA CIVIL E INSTALACIONES, EL PROYECTO, CONSTRUCCIÓN, MONTAJE, INSTALACIÓN, ASISTENCIA TÉCNICA Y MANTENIMIENTO DE TODA CLASE DE INSTALACIONES ELÉCTRICAS, DE AIRE ACONDICIONADO Y FLUIDOS, EN TODOS SUS ÁMBITOS ASÍ COMO LA COMERCIALIZACIÓN DE TODOS Y CADA UNO DE LOS ELEMENTOS, QUE INTERVIENE EN DICHAS INSTALACIONES, ASÍ COMO LA COMPRAVENTA, REPRESENTACIÓN Y COMERCIALIZACIÓN DE LOS MATERIALES RELATIVOS A ELLO. LA PRESTACIÓN DE SERVICIOS DE MANTENIMIENTO Y DE LIMPIEZA DE BIENES MUEBLES E INMUEBLES, EN EL SENTIDO MÁS AMPLIO Y A TÍTULO ENUNCIATIVO, QUE NO LIMITATIVO, LA PRESTACIÓN DE SERVICIOS DE MANTENIMIENTO DE TODO TIPO DE MAQUINARIA DESTINADA A USO INDUSTRIAL Y /O DOMÉSTICO, ASÍ COMO LOS TRABAJOS DE MANTENIMIENTO Y MONTAJE DE REDES DE APARATOS ELÉCTRICOS, TANTO INDUSTRIALES, COMO DE SERVICIO PÚBLICO Y DOMÉSTICO. LA INGENIERÍA Y PUESTA EN MARCHA DE INSTALACIONES DE CONTROL Y PROYECTOS PARA EDIFICIOS INTELIGENTES, ENTENDIENDO POR TALES, AQUELLOS EN QUE LA GESTIÓN, CONTROL, Y SUPERVISIÓN DEL FUNCIONAMIENTO SE HACE DE FORMA INTELIGENTE Y AUTOMATIZADA. LA AUTOMATIZACIÓN DE PROCESOS PRODUCTIVOS Y, EN GENERAL, DE CUALQUIER ACTIVIDAD RELACIONADA CON LA MANUTENCIÓN INDUSTRIAL, ASÍ COMO LA REALIZACIÓN DE CUALQUIER ACTIVIDAD RELATIVA A PROYECTOS Y REALIZACIONES DE INGENIERÍA. EL PROYECTO, CONSTRUCCIÓN, MONTAJE, INSTALACIÓN, ASISTENCIA TÉCNICA Y MANTENIMIENTO DE TODA CLASE DE INSTALACIONES Y EQUIPOS NAVALES, EN TODOS SUS ÁMBITOS, ASÍ COMO LA COMERCIALIZACIÓN DE TODOS Y CADA UNO DE LOS ELEMENTOS QUE INTERVIENEN EN DICHAS INSTALACIONES Y EQUIPOS, ASÍ COMO LA COMPRAVENTA, REPRESENTACIÓN Y COMERCIALIZACIÓN DE LOS MATERIALES RELATIVOS A ELLO. REPRESENTACIÓN, COMERCIALIZACIÓN Y DISTRIBUCIÓN DE PRODUCTOS Y SISTEMAS DE SEGURIDAD, EXCLUYENDO EN TODO CASO LAS ACTIVIDADES PREVISTAS EN EL ARTÍCULO 5, APARTADOS E, F Y G DE LA LEY 23/1992 DE 30 DE JULIO DE SEGURIDAD PRIVADA. LA ADQUISICIÓN, CONSERVACIÓN, ARRENDAMIENTO, VENTA O SUSTITUCIÓN DE TODA CLASE DE BIENES MUEBLES, INMUEBLES Y VALORES MOBILIARIOS Y, RESPECTO DE LOS MISMOS EL EJERCICIO DE CUALQUIER CLASE DE DERECHOS DE CONTENIDO PATRIMONIAL; LA REALIZACIÓN DE OPERACIONES ACTIVAS Y PASIVAS, MERCANTILES Y CIVILES SOBRE LOS EXPRESADOS BIENES, TÍTULOS Y DERECHOS, CELEBRANDO PARA ELLO LOS ACTOS CONSTITUTIVOS, DISPOSITIVOS Y DE ADMINISTRACIÓN QUE TENGA RELACIÓN DIRECTA CON LAS EXPRESADAS ACTIVIDADES",
      "mainEntityOfPage": "https://www.contratacion.euskadi.eus/webkpe00-kperoc/es/ac71aBusquedaRegistrosWar/empresa/07237",
      "_links": {
        "self": {
          "name": "ALAMO INDUSTRIAL, S.A.",
          "href": "https://api.euskadi.eus/procurements/companies/07237"
        }
      }
    },
    {
      "name": "BIDASOA 21 GESTION DEPORTIVA 2017, SLU",
      "registrationNumber": "06152",
      "identificationNumber": "B75168625",
      "address": "MAYOR, 30 - POLIDEPORTIVO ARTALEKU",
      "location": {
        "postalCode": "20304",
        "municipality": "Irun",
        "county": "Gipuzkoa",
        "municipalityId": "045",
        "countyId": "20"
      },
      "economicActivities": [
        {
          "id": "1.967.1",
          "name": "Instalaciones deportivas",
          "_links": {
            "self": {
              "name": "Instalaciones deportivas",
              "href": "https://api.euskadi.eus/procurements/companies/economic-activities/1.967.1"
            }
          }
        }
      ],
      "certificateStartDate": "2022-10-09",
      "certificateEndDate": "2023-04-09",
      "object": "LA GESTIÓN DE INSTALACIONES DEPORTIVAS, TANTO DE TITULARIDAD PÚBLICA COMO PRIVADA, ASÍ COMO CUALQUIER ACTIVIDAD RELACIONADA CON LA CITADA GESTIÓN DE LAS MISMAS. GESTIÓN DE INSTALACIONES DEPORTIVAS\r\n",
      "mainEntityOfPage": "https://www.contratacion.euskadi.eus/webkpe00-kperoc/es/ac71aBusquedaRegistrosWar/empresa/06152",
      "_links": {
        "self": {
          "name": "BIDASOA 21 GESTION DEPORTIVA 2017, SLU",
          "href": "https://api.euskadi.eus/procurements/companies/06152"
        }
      }
    },
    {
      "name": "FENOLICOS E INOXIDABLES, S.L.",
      "registrationNumber": "07960",
      "identificationNumber": "B99383614",
      "address": "CAMINO MILLARAZA SN  ",
      "location": {
        "postalCode": "50510",
        "municipality": "Novallas",
        "county": "Zaragoza",
        "municipalityId": "190",
        "countyId": "50"
      },
      "economicActivities": [
        {
          "id": "1.316.6",
          "name": "Fabricación de mobiliario metálico",
          "_links": {
            "self": {
              "name": "Fabricación de mobiliario metálico",
              "href": "https://api.euskadi.eus/procurements/companies/economic-activities/1.316.6"
            }
          }
        }
      ],
      "certificateStartDate": "2022-10-08",
      "certificateEndDate": "2023-04-08",
      "object": "- CARPINTERÍA FENÓLICA Y METÁLICA. - LA FABRICACIÓN Y MONTAJE DE MOBILIARIO. - LA FABRICACIÓN Y MONTAJE DE ESTRUCTURAS METÁLICAS EN GENERAL.",
      "mainEntityOfPage": "https://www.contratacion.euskadi.eus/webkpe00-kperoc/es/ac71aBusquedaRegistrosWar/empresa/07960",
      "_links": {
        "self": {
          "name": "FENOLICOS E INOXIDABLES, S.L.",
          "href": "https://api.euskadi.eus/procurements/companies/07960"
        }
      }
    },
    {
      "name": "CENTRO ELGUEZABAL, S.L.",
      "registrationNumber": "08627",
      "identificationNumber": "B95838355",
      "address": "Julio Gutiérrez Lumbreras 10, trasera.",
      "location": {
        "postalCode": "48920",
        "municipality": "Portugalete",
        "county": "Bizkaia",
        "municipalityId": "078",
        "countyId": "48"
      },
      "economicActivities": [
        {
          "id": "1.951",
          "name": "Asistencia y servicios sociales en centros residenciales",
          "_links": {
            "self": {
              "name": "Asistencia y servicios sociales en centros residenciales",
              "href": "https://api.euskadi.eus/procurements/companies/economic-activities/1.951"
            }
          }
        }
      ],
      "certificateStartDate": "2022-10-07",
      "certificateEndDate": "2023-01-08",
      "object": "ASISTENCIA EN ESTABLECIMIENTOS RESIDENCIALES PARA PERSONAS CON DISCAPACIDAD INTELECTUAL, ENFERMEDAD MENTAL Y DROGODEPENDENCIA.",
      "mainEntityOfPage": "https://www.contratacion.euskadi.eus/webkpe00-kperoc/es/ac71aBusquedaRegistrosWar/empresa/08627",
      "_links": {
        "self": {
          "name": "CENTRO ELGUEZABAL, S.L.",
          "href": "https://api.euskadi.eus/procurements/companies/08627"
        }
      }
    },
    {
      "name": "SEMA SEGURIDAD Y SISTEMAS, S.L.",
      "registrationNumber": "05619",
      "identificationNumber": "B95471397",
      "address": "CRTA. ZORROZA-CASTREJANA, 42-3º / OF. 307",
      "location": {
        "postalCode": "48013",
        "municipality": "Bilbao",
        "county": "Bizkaia",
        "municipalityId": "020",
        "countyId": "48"
      },
      "economicActivities": [
        {
          "id": "1.504.12",
          "name": "Instalaciones eléctricas en toda clase de edificios",
          "_links": {
            "self": {
              "name": "Instalaciones eléctricas en toda clase de edificios",
              "href": "https://api.euskadi.eus/procurements/companies/economic-activities/1.504.12"
            }
          }
        }
      ],
      "certificateStartDate": "2022-10-07",
      "certificateEndDate": "2023-04-06",
      "object": "LA INSTALACIÓN Y MANTENIMIENTO DE APARATOS, DISPOSITIVOS Y SISTEMAS DE SEGURIDAD",
      "mainEntityOfPage": "https://www.contratacion.euskadi.eus/webkpe00-kperoc/es/ac71aBusquedaRegistrosWar/empresa/05619",
      "_links": {
        "self": {
          "name": "SEMA SEGURIDAD Y SISTEMAS, S.L.",
          "href": "https://api.euskadi.eus/procurements/companies/05619"
        }
      }
    },
    {
      "name": "BARRIKA SURF KANP, S.L.",
      "registrationNumber": "05844",
      "identificationNumber": "B95378147",
      "address": "Urbanización Garramune, nº 39",
      "location": {
        "postalCode": "48650",
        "municipality": "Barrika",
        "county": "Bizkaia",
        "municipalityId": "014",
        "countyId": "48"
      },
      "economicActivities": [
        {
          "id": "1.659.6",
          "name": "Venta al por menor de juguetes, artículos de deporte",
          "_links": {
            "self": {
              "name": "Venta al por menor de juguetes, artículos de deporte",
              "href": "https://api.euskadi.eus/procurements/companies/economic-activities/1.659.6"
            }
          }
        },
        {
          "id": "1.687.4",
          "name": "Campamentos turísticos de tercera clase",
          "_links": {
            "self": {
              "name": "Campamentos turísticos de tercera clase",
              "href": "https://api.euskadi.eus/procurements/companies/economic-activities/1.687.4"
            }
          }
        },
        {
          "id": "1.932.1",
          "name": "Enseñanza de formación y perfeccionamiento profesional no superior",
          "_links": {
            "self": {
              "name": "Enseñanza de formación y perfeccionamiento profesional no superior",
              "href": "https://api.euskadi.eus/procurements/companies/economic-activities/1.932.1"
            }
          }
        },
        {
          "id": "1.961.1",
          "name": "Producción de películas cinematográficas (incluso vídeos)",
          "_links": {
            "self": {
              "name": "Producción de películas cinematográficas (incluso vídeos)",
              "href": "https://api.euskadi.eus/procurements/companies/economic-activities/1.961.1"
            }
          }
        },
        {
          "id": "1.967.2",
          "name": "Escuelas y servicios de perfeccionamiento del deporte",
          "_links": {
            "self": {
              "name": "Escuelas y servicios de perfeccionamiento del deporte",
              "href": "https://api.euskadi.eus/procurements/companies/economic-activities/1.967.2"
            }
          }
        }
      ],
      "certificateStartDate": "2022-10-07",
      "certificateEndDate": "2023-04-07",
      "object": "EL DESARROLLO DE LAS SIGUIENTES ACTIVIDADES: SERVICIOS DE HOSPEDAJE Y HOSTELERÍA A TURISTAS. OFRECER ACTIVIDADES DEPORTIVAS. VENTA Y ALQUILER DE DIVERSO MATERIAL DEPORTIVO",
      "mainEntityOfPage": "https://www.contratacion.euskadi.eus/webkpe00-kperoc/es/ac71aBusquedaRegistrosWar/empresa/05844",
      "_links": {
        "self": {
          "name": "BARRIKA SURF KANP, S.L.",
          "href": "https://api.euskadi.eus/procurements/companies/05844"
        }
      }
    },
    {
      "name": "FASTER EMPLEO ETT, S.A.",
      "registrationNumber": "08624",
      "identificationNumber": "A79447686",
      "address": "CALLE ORENSE 28",
      "location": {
        "postalCode": "28020",
        "municipality": "Madrid",
        "county": "Madrid",
        "municipalityId": "079",
        "countyId": "28"
      },
      "economicActivities": [
        {
          "id": "1.849.6",
          "name": "Servicios de colocación y suministro de personal",
          "_links": {
            "self": {
              "name": "Servicios de colocación y suministro de personal",
              "href": "https://api.euskadi.eus/procurements/companies/economic-activities/1.849.6"
            }
          }
        }
      ],
      "certificateStartDate": "2022-10-07",
      "certificateEndDate": "2023-04-04",
      "object": "PRESTACIÓN DE SERVICIOS DE TRABAJO TEMPORAL A EMPRESAS Y PARTICULARES.",
      "mainEntityOfPage": "https://www.contratacion.euskadi.eus/webkpe00-kperoc/es/ac71aBusquedaRegistrosWar/empresa/08624",
      "_links": {
        "self": {
          "name": "FASTER EMPLEO ETT, S.A.",
          "href": "https://api.euskadi.eus/procurements/companies/08624"
        }
      }
    },
    {
      "name": "JORGE LUIS SANCHEZ NUGRA",
      "registrationNumber": "08093",
      "identificationNumber": "34373763X",
      "address": "Calle Hamarretxeta  11  4  A",
      "location": {
        "postalCode": "20110",
        "municipality": "Pasaia",
        "county": "Gipuzkoa",
        "municipalityId": "064",
        "countyId": "20"
      },
      "economicActivities": [
        {
          "id": "1.912",
          "name": "Servicios forestales",
          "_links": {
            "self": {
              "name": "Servicios forestales",
              "href": "https://api.euskadi.eus/procurements/companies/economic-activities/1.912"
            }
          }
        }
      ],
      "certificateStartDate": "2022-10-06",
      "certificateEndDate": "2023-01-22",
      "object": "SERVICIOS FORESTALES.",
      "mainEntityOfPage": "https://www.contratacion.euskadi.eus/webkpe00-kperoc/es/ac71aBusquedaRegistrosWar/empresa/08093",
      "_links": {
        "self": {
          "name": "JORGE LUIS SANCHEZ NUGRA",
          "href": "https://api.euskadi.eus/procurements/companies/08093"
        }
      }
    },
    {
      "name": "ENVIGO RMS SPAIN, SL",
      "registrationNumber": "05778",
      "identificationNumber": "B08924458",
      "address": "Ctra. de Sant Miquel del Fai, Km. 3",
      "location": {
        "postalCode": "08182",
        "municipality": "Sant Feliu de Codines",
        "county": "Barcelona",
        "municipalityId": "210",
        "countyId": "08"
      },
      "economicActivities": [
        {
          "id": "1.069",
          "name": "Otras explotaciones ganaderas",
          "_links": {
            "self": {
              "name": "Otras explotaciones ganaderas",
              "href": "https://api.euskadi.eus/procurements/companies/economic-activities/1.069"
            }
          }
        },
        {
          "id": "1.659.7",
          "name": "Venta al por menor de semillas, abonos, flores, plantas y pequeños animales",
          "_links": {
            "self": {
              "name": "Venta al por menor de semillas, abonos, flores, plantas y pequeños animales",
              "href": "https://api.euskadi.eus/procurements/companies/economic-activities/1.659.7"
            }
          }
        }
      ],
      "certificateStartDate": "2022-10-04",
      "certificateEndDate": "2023-04-04",
      "object": "EL DESARROLLO, CRÍA Y COMERCIALIZACIÓN DE ANIMALES DE EXPERIMENTACIÓN ASÍ COMO PRODUCTOS, ARTÍCULOS Y SERVICIOS RELACIONADOS CON DICHO CAMPO; LA ASISTENCIA A CLIENTES PARA LA MEJOR UTILIZACIÓN DE LOS MISMOS Y LA CONTRIBUCIÓN AL DESARROLLO DE LA TECNOLOGÍA ESPAÑOLA EN ESTE CAMPO EN FUNCIÓN DE LAS OPORTUNIDADES DE MERCADO",
      "mainEntityOfPage": "https://www.contratacion.euskadi.eus/webkpe00-kperoc/es/ac71aBusquedaRegistrosWar/empresa/05778",
      "_links": {
        "self": {
          "name": "ENVIGO RMS SPAIN, SL",
          "href": "https://api.euskadi.eus/procurements/companies/05778"
        }
      }
    }
  ]
}