{
  "totalItems": 9042,
  "totalPages": 905,
  "currentPage": 548,
  "itemsOfPage": 10,
  "items": [
    {
      "name": "BUS MIRANDA, S.L.",
      "registrationNumber": "05080",
      "identificationNumber": "B09333394",
      "address": "Portal de Gamarra 9A. Pabellón 6",
      "location": {
        "postalCode": "01013",
        "municipality": "Vitoria-Gasteiz",
        "county": "Araba/Álava",
        "municipalityId": "059",
        "countyId": "01"
      },
      "economicActivities": [
        {
          "id": "1.721.3",
          "name": "Transporte de viajeros por carretera",
          "_links": {
            "self": {
              "name": "Transporte de viajeros por carretera",
              "href": "https://api.euskadi.eus/procurements/companies/economic-activities/1.721.3"
            }
          }
        }
      ],
      "certificateStartDate": "2021-01-11",
      "certificateEndDate": "2021-06-30",
      "object": "LA REALIZACIÓN DE TRANSPORTE DE MERCANCÍAS Y VIAJEROS, POR CUALQUIER MEDIO Y MODALIDAD, TANTO DE SERVICIO PÚBLICO COMO PRIVADO, ASÍ COMO ACTIVIDADES AUXILIARES Y COMPLEMENTARIAS DEL TRANSPORTE",
      "mainEntityOfPage": "https://www.contratacion.euskadi.eus/webkpe00-kperoc/es/ac71aBusquedaRegistrosWar/empresa/05080",
      "_links": {
        "self": {
          "name": "BUS MIRANDA, S.L.",
          "href": "https://api.euskadi.eus/procurements/companies/05080"
        }
      }
    },
    {
      "name": "ISIDORO BERAZA VIGURI",
      "registrationNumber": "06605",
      "identificationNumber": "16251168N",
      "address": "CALLE SOLOZELAY 4-2º E",
      "location": {
        "postalCode": "01400",
        "municipality": "Laudio/Llodio",
        "county": "Araba/Álava",
        "municipalityId": "036",
        "countyId": "01"
      },
      "economicActivities": [
        {
          "id": "1.320",
          "name": "INTERPRETES DE INSTRUMENTOS MUSICALES",
          "_links": {
            "self": {
              "name": "INTERPRETES DE INSTRUMENTOS MUSICALES",
              "href": "https://api.euskadi.eus/procurements/companies/economic-activities/1.320"
            }
          }
        },
        {
          "id": "1.657",
          "name": "Venta al por menor de instrumentos musicales y sus accesorios",
          "_links": {
            "self": {
              "name": "Venta al por menor de instrumentos musicales y sus accesorios",
              "href": "https://api.euskadi.eus/procurements/companies/economic-activities/1.657"
            }
          }
        },
        {
          "id": "1.933.9",
          "name": "Otras actividades de enseñanza tales como idiomas, mecanografía",
          "_links": {
            "self": {
              "name": "Otras actividades de enseñanza tales como idiomas, mecanografía",
              "href": "https://api.euskadi.eus/procurements/companies/economic-activities/1.933.9"
            }
          }
        },
        {
          "id": "1.989.2",
          "name": "Servicios de organización de congresos, asambleas y similares",
          "_links": {
            "self": {
              "name": "Servicios de organización de congresos, asambleas y similares",
              "href": "https://api.euskadi.eus/procurements/companies/economic-activities/1.989.2"
            }
          }
        },
        {
          "id": "3.032",
          "name": "Intérpretes de instrumentos musicales",
          "_links": {
            "self": {
              "name": "Intérpretes de instrumentos musicales",
              "href": "https://api.euskadi.eus/procurements/companies/economic-activities/3.032"
            }
          }
        }
      ],
      "certificateStartDate": "2021-01-11",
      "certificateEndDate": "2021-06-26",
      "object": "LA INTERPRETACIÓN DE INSTRUMENTOS MUSICALES, LA ENSEÑANZA DE INSTRUMENTOS MUSICALES, MUSICA, Y OTRAS ACTIVIDADES DE ENSEÑANZA, LA ORGANIZACIÓN DE EVENTOS Y ACTUACIONES MUSICALES, EL COMERCIO DE INSTRUMENTOS MUSICALES, LOS SERVICIOS DE ORGANIZACION DE CONGRESOS Y EVENTOS MUSICALES",
      "mainEntityOfPage": "https://www.contratacion.euskadi.eus/webkpe00-kperoc/es/ac71aBusquedaRegistrosWar/empresa/06605",
      "_links": {
        "self": {
          "name": "ISIDORO BERAZA VIGURI",
          "href": "https://api.euskadi.eus/procurements/companies/06605"
        }
      }
    },
    {
      "name": "TECYMAIN, S.L.",
      "registrationNumber": "07445",
      "identificationNumber": "B25529561",
      "address": "c/ migdia s/n",
      "location": {
        "postalCode": "25222",
        "municipality": "Sidamon",
        "county": "Lleida",
        "municipalityId": "205",
        "countyId": "25"
      },
      "economicActivities": [
        {
          "id": "1.255.1",
          "name": "Fabricación de jabones comunes, detergentes y lejías",
          "_links": {
            "self": {
              "name": "Fabricación de jabones comunes, detergentes y lejías",
              "href": "https://api.euskadi.eus/procurements/companies/economic-activities/1.255.1"
            }
          }
        },
        {
          "id": "1.616.6",
          "name": "Venta al por mayor de productos químicos industriales",
          "_links": {
            "self": {
              "name": "Venta al por mayor de productos químicos industriales",
              "href": "https://api.euskadi.eus/procurements/companies/economic-activities/1.616.6"
            }
          }
        }
      ],
      "certificateStartDate": "2021-01-11",
      "certificateEndDate": "2021-06-30",
      "object": "1.- EL COMERCIO DE PRODUCTOS DE USO INDUSTRIAL, EN ESPECIAL DE LUBRICACIÓN INDUSTRIAL. 2.- ASESORAMIENTO EN LUBRICACIÓN INDUSTRIAL. 3.- INVESTIGACIÓN, ANÁLISIS Y PRODUCCIÓN DE LUBRICANTES DE TODO TIPO",
      "mainEntityOfPage": "https://www.contratacion.euskadi.eus/webkpe00-kperoc/es/ac71aBusquedaRegistrosWar/empresa/07445",
      "_links": {
        "self": {
          "name": "TECYMAIN, S.L.",
          "href": "https://api.euskadi.eus/procurements/companies/07445"
        }
      }
    },
    {
      "name": "CRAYON SOFTWARE EXPERTS SPAIN, S.L.",
      "registrationNumber": "07446",
      "identificationNumber": "B87135968",
      "address": "Paseo Recoletos 37",
      "location": {
        "postalCode": "28004",
        "municipality": "Madrid",
        "county": "Madrid",
        "municipalityId": "079",
        "countyId": "28"
      },
      "economicActivities": [
        {
          "id": "1.845",
          "name": "Explotación electrónica por cuenta de terceros",
          "_links": {
            "self": {
              "name": "Explotación electrónica por cuenta de terceros",
              "href": "https://api.euskadi.eus/procurements/companies/economic-activities/1.845"
            }
          }
        }
      ],
      "certificateStartDate": "2021-01-11",
      "certificateEndDate": "2021-06-04",
      "object": "LA CONCESIÓN DE LICENCIAS DE SOFTWARE (ES DECIR, VENTA DE LICENCIAS) Y SOFTWARE ASSET MANAGEMENT (ES DECIR, SERVICIOS DE ASESORÍA Y CONSULTORÍA)",
      "mainEntityOfPage": "https://www.contratacion.euskadi.eus/webkpe00-kperoc/es/ac71aBusquedaRegistrosWar/empresa/07446",
      "_links": {
        "self": {
          "name": "CRAYON SOFTWARE EXPERTS SPAIN, S.L.",
          "href": "https://api.euskadi.eus/procurements/companies/07446"
        }
      }
    },
    {
      "name": "KYT IMPLANTES DENTALES, S.L.",
      "registrationNumber": "07441",
      "identificationNumber": "B06650790",
      "address": "LUIS ALVAREZ LENCERO ",
      "location": {
        "postalCode": "06011",
        "municipality": "Badajoz",
        "county": "Badajoz",
        "municipalityId": "015",
        "countyId": "06"
      },
      "economicActivities": [
        {
          "id": "1.614.1",
          "name": "Venta al por mayor de productos farmacéuticos y medicamentos",
          "_links": {
            "self": {
              "name": "Venta al por mayor de productos farmacéuticos y medicamentos",
              "href": "https://api.euskadi.eus/procurements/companies/economic-activities/1.614.1"
            }
          }
        },
        {
          "id": "1.615.4",
          "name": "Venta al por mayor de aparatos y material radioeléctrico y electrónico",
          "_links": {
            "self": {
              "name": "Venta al por mayor de aparatos y material radioeléctrico y electrónico",
              "href": "https://api.euskadi.eus/procurements/companies/economic-activities/1.615.4"
            }
          }
        },
        {
          "id": "1.619.2",
          "name": "Venta al por mayor de aparatos e instrumentos médicos, ortopédicos, ópticos",
          "_links": {
            "self": {
              "name": "Venta al por mayor de aparatos e instrumentos médicos, ortopédicos, ópticos",
              "href": "https://api.euskadi.eus/procurements/companies/economic-activities/1.619.2"
            }
          }
        }
      ],
      "certificateStartDate": "2021-01-08",
      "certificateEndDate": "2021-06-09",
      "object": "-COMPRAVENTA AL POR MAYOR Y DISTRIBUCIÓN DE PRODUCTOS Y APARATOS SANITARIOS Y PRÓTESIS. - ALQUILER Y CESIÓN DE EQUIPOS, PRODUCTOS SANITARIOS E INSTRUMENTAL MÉDICO. - ORGANIZACIÓN DE EVENTOS MÉDICO-SANITARIOS. - COMPRAVENTA Y ALQUILER DE INMUEBLES, ASÍ COMO DE VEHÍCULOS TERRESTRES. PODRÁ REALIZAR ADEMÁS TODO AQUELLO QUE FUERE PREPARATORIO, ACCESORIO, INCIDENTAL O COMPLEMENTARIO CON EL INDICADO OBJETO SOCIAL",
      "mainEntityOfPage": "https://www.contratacion.euskadi.eus/webkpe00-kperoc/es/ac71aBusquedaRegistrosWar/empresa/07441",
      "_links": {
        "self": {
          "name": "KYT IMPLANTES DENTALES, S.L.",
          "href": "https://api.euskadi.eus/procurements/companies/07441"
        }
      }
    },
    {
      "name": "NUEVA SIBOL, S.L.",
      "registrationNumber": "07442",
      "identificationNumber": "B95409504",
      "address": "P.I.TORRELARRAGOITI VIAL A PARC-P5A2",
      "location": {
        "postalCode": "48170",
        "municipality": "Zamudio",
        "county": "Bizkaia",
        "municipalityId": "905",
        "countyId": "48"
      },
      "economicActivities": [
        {
          "id": "1.482.2",
          "name": "Fabricación de artículos acabados de materias plásticas",
          "_links": {
            "self": {
              "name": "Fabricación de artículos acabados de materias plásticas",
              "href": "https://api.euskadi.eus/procurements/companies/economic-activities/1.482.2"
            }
          }
        }
      ],
      "certificateStartDate": "2021-01-08",
      "certificateEndDate": "2021-04-27",
      "object": "EL ESTUDIO, INVESTIGACIÓN, PROMOCIÓN Y ASESORAMIENTO EN TODA CLASE DE SERVICIOS DE ASISTENCIA Y GESTIÓN TÉCNICA, ADMINISTRATIVA, COMERCIAL, O DE CUALQUIER ÍNDOLE, RELACIONADA CON LA SEGURIDAD E HIGIENE INDUSTRIAL, ASÍ COMO LA INSTALACIÓN Y EXPLOTACIÓN EN CUALQUIER FORMA, DE ALMACENES, ESTABLECIMIENTOS, NEGOCIOS Y COMERCIOS DEDICADOS AL DEPÓSITO, MEDIACIÓN EN CUALQUIER FORMA O VENTA AL POR MAYOR O MENOR, DE MERCADERÍAS, PRODUCTOS, ARTÍCULOS Y MATERIAS DE CUALQUIER CLASE QUE TENGAN RELACIÓN O SEAN CONSECUENCIA, DERIVACIÓN Y SE RELACIONEN DIRECTA O INDIRECTAMENTE CON EL OBJETO SOCIAL",
      "mainEntityOfPage": "https://www.contratacion.euskadi.eus/webkpe00-kperoc/es/ac71aBusquedaRegistrosWar/empresa/07442",
      "_links": {
        "self": {
          "name": "NUEVA SIBOL, S.L.",
          "href": "https://api.euskadi.eus/procurements/companies/07442"
        }
      }
    },
    {
      "name": "GAIZKA PORTILLO BENITO",
      "registrationNumber": "07443",
      "identificationNumber": "78894310D",
      "address": "BARRIO EL LONGAR 1",
      "location": {
        "postalCode": "48860",
        "municipality": "Zalla",
        "county": "Bizkaia",
        "municipalityId": "096",
        "countyId": "48"
      },
      "economicActivities": [
        {
          "id": "1.961.1",
          "name": "Producción de películas cinematográficas (incluso vídeos)",
          "_links": {
            "self": {
              "name": "Producción de películas cinematográficas (incluso vídeos)",
              "href": "https://api.euskadi.eus/procurements/companies/economic-activities/1.961.1"
            }
          }
        },
        {
          "id": "2.224",
          "name": "Dibujantes técnicos",
          "_links": {
            "self": {
              "name": "Dibujantes técnicos",
              "href": "https://api.euskadi.eus/procurements/companies/economic-activities/2.224"
            }
          }
        },
        {
          "id": "2.763",
          "name": "Programadores y analistas de informática",
          "_links": {
            "self": {
              "name": "Programadores y analistas de informática",
              "href": "https://api.euskadi.eus/procurements/companies/economic-activities/2.763"
            }
          }
        },
        {
          "id": "2.899",
          "name": "Otros profesionales",
          "_links": {
            "self": {
              "name": "Otros profesionales",
              "href": "https://api.euskadi.eus/procurements/companies/economic-activities/2.899"
            }
          }
        }
      ],
      "certificateStartDate": "2021-01-08",
      "certificateEndDate": "2021-07-07",
      "object": "PRODUCCIÓN DE PELÍCULAS CINEMATOGRÁFICAS (INCLUSO VÍDEOS). PROGRAMADORES Y ANALISTAS DE INFORMÁTICA. DIBUJANTES TÉCNICOS. OTROS PROFESIONALES",
      "mainEntityOfPage": "https://www.contratacion.euskadi.eus/webkpe00-kperoc/es/ac71aBusquedaRegistrosWar/empresa/07443",
      "_links": {
        "self": {
          "name": "GAIZKA PORTILLO BENITO",
          "href": "https://api.euskadi.eus/procurements/companies/07443"
        }
      }
    },
    {
      "name": "LUCIO JOSÉ SÁDABA MODREGO",
      "registrationNumber": "07444",
      "identificationNumber": "17713573P",
      "address": "Alfonso X , el Sabio, 2 4ºD",
      "location": {
        "postalCode": "50006",
        "municipality": "Zaragoza",
        "county": "Zaragoza",
        "municipalityId": "297",
        "countyId": "50"
      },
      "economicActivities": [
        {
          "id": "1.314.1",
          "name": "Carpintería metálica",
          "_links": {
            "self": {
              "name": "Carpintería metálica",
              "href": "https://api.euskadi.eus/procurements/companies/economic-activities/1.314.1"
            }
          }
        },
        {
          "id": "1.654.1",
          "name": "Venta al por menor de vehículos terrestres",
          "_links": {
            "self": {
              "name": "Venta al por menor de vehículos terrestres",
              "href": "https://api.euskadi.eus/procurements/companies/economic-activities/1.654.1"
            }
          }
        },
        {
          "id": "1.654.2",
          "name": "Venta al por menor de accesorios, piezas de recambio de vehículos terrestres",
          "_links": {
            "self": {
              "name": "Venta al por menor de accesorios, piezas de recambio de vehículos terrestres",
              "href": "https://api.euskadi.eus/procurements/companies/economic-activities/1.654.2"
            }
          }
        },
        {
          "id": "1.691.2",
          "name": "Reparación de vehículos automóviles, bicicletas y otros vehículos",
          "_links": {
            "self": {
              "name": "Reparación de vehículos automóviles, bicicletas y otros vehículos",
              "href": "https://api.euskadi.eus/procurements/companies/economic-activities/1.691.2"
            }
          }
        },
        {
          "id": "1.999",
          "name": "Otros servicios n.c.o.p",
          "_links": {
            "self": {
              "name": "Otros servicios n.c.o.p",
              "href": "https://api.euskadi.eus/procurements/companies/economic-activities/1.999"
            }
          }
        },
        {
          "id": "2.511",
          "name": "Agentes comerciales",
          "_links": {
            "self": {
              "name": "Agentes comerciales",
              "href": "https://api.euskadi.eus/procurements/companies/economic-activities/2.511"
            }
          }
        }
      ],
      "certificateStartDate": "2021-01-08",
      "certificateEndDate": "2021-05-18",
      "object": "VENTA AL POR MENOR DE VEHÍCULOS TERRESTRES. VENTA AL POR MENOR DE ACCESORIOS, PIEZAS DE RECAMBIO DE VEHÍCULOS TERRESTRES. REPARACIÓN DE VEHÍCULOS AUTOMÓVILES, BICICLETAS Y OTROS VEHÍCULOS. CARPINTERÍA METÁLICA. OTROS SERVICIOS N.C.O.P. AGENTES COMERCIALES.",
      "mainEntityOfPage": "https://www.contratacion.euskadi.eus/webkpe00-kperoc/es/ac71aBusquedaRegistrosWar/empresa/07444",
      "_links": {
        "self": {
          "name": "LUCIO JOSÉ SÁDABA MODREGO",
          "href": "https://api.euskadi.eus/procurements/companies/07444"
        }
      }
    },
    {
      "name": "INNOCAN SISTEMAS, S.L.",
      "registrationNumber": "07440",
      "identificationNumber": "B76567577",
      "address": "C/ RAMON Y CAJAL, 3, LOCAL 10",
      "location": {
        "postalCode": "38003",
        "municipality": "Santa Cruz de Tenerife",
        "county": "Santa Cruz de Tenerife",
        "municipalityId": "038",
        "countyId": "38"
      },
      "economicActivities": [
        {
          "id": "1.845",
          "name": "Explotación electrónica por cuenta de terceros",
          "_links": {
            "self": {
              "name": "Explotación electrónica por cuenta de terceros",
              "href": "https://api.euskadi.eus/procurements/companies/economic-activities/1.845"
            }
          }
        }
      ],
      "certificateStartDate": "2021-01-05",
      "certificateEndDate": "2021-04-30",
      "object": "EL DESARROLLO, LA COMPRA, VENTA DIRECTA O CUALQUIER MODO DE VENTA, PERMUTA, CONSIGNACIÓN, ACOPIO, IMPORTACIÓN, EXPORTACIÓN, LEASING, PRODUCCIÓN Y DISTRIBUCIÓN DE SOFTWARE Y HARDWARE, AL POR MAYOR O AL POR MENOR, APLICABLES A CUALQUIER TIPO DE INDUSTRIA, Y DEMÁS ACTIVIDADES COMPLEMENTARIAS Y/O RELACIONADAS INCLUYENDO, SIN LIMITACIÓN, LA EXPLOTACIÓN EN EL PAÍS Y/O EN EL EXTERIOR DE PATENTES DE INVENCIÓN, MODELOS DE UTILIDAD, SOFTWARE, PROGRAMAS DE ORDENADOR, MARCAS DE FÁBRICA, DISEÑOS Y MODELOS INDUSTRIALES",
      "mainEntityOfPage": "https://www.contratacion.euskadi.eus/webkpe00-kperoc/es/ac71aBusquedaRegistrosWar/empresa/07440",
      "_links": {
        "self": {
          "name": "INNOCAN SISTEMAS, S.L.",
          "href": "https://api.euskadi.eus/procurements/companies/07440"
        }
      }
    },
    {
      "name": "STRATTON SUMINISTROS, S.L.",
      "registrationNumber": "07430",
      "identificationNumber": "B88039680",
      "address": "Av. Monasterio de El Escorial, 73 - Portal B Bajo C",
      "location": {
        "postalCode": "28049",
        "municipality": "Madrid",
        "county": "Madrid",
        "municipalityId": "079",
        "countyId": "28"
      },
      "economicActivities": [
        {
          "id": "1.619.9",
          "name": "Venta al por mayor de otros productos n.c.o.p",
          "_links": {
            "self": {
              "name": "Venta al por mayor de otros productos n.c.o.p",
              "href": "https://api.euskadi.eus/procurements/companies/economic-activities/1.619.9"
            }
          }
        }
      ],
      "certificateStartDate": "2020-12-30",
      "certificateEndDate": "2021-05-04",
      "object": "LA IMPORTACIÓN, EXPORTACIÓN, DISTRIBUCIÓN Y COMERCIALIZACIÓN DE PRODUCTOS SANITARIOS, PRODUCTOS SANITARIOS IN VITRO, EQUIPOS DE PROTECCIÓN INDIVIDUAL, Y DE PARAFARMACIA (ACTIVIDAD PRINCIPAL CNAE 4646). COMERCIO AL POR MAYOR DE APARATOS SANITARIOS. COMERCIO AL POR MENOR DE FERRETERÍA, PINTURA Y VIDRIO EN ESTABLECIMIENTOS ESPECIALIZADOS. COMERCIO AL POR MAYOR DE FERRETERÍA, FONTANERÍA Y CALEFACCIÓN",
      "mainEntityOfPage": "https://www.contratacion.euskadi.eus/webkpe00-kperoc/es/ac71aBusquedaRegistrosWar/empresa/07430",
      "_links": {
        "self": {
          "name": "STRATTON SUMINISTROS, S.L.",
          "href": "https://api.euskadi.eus/procurements/companies/07430"
        }
      }
    }
  ]
}