{
  "totalItems": 9042,
  "totalPages": 905,
  "currentPage": 287,
  "itemsOfPage": 10,
  "items": [
    {
      "name": "BAK, S.COOP. PEQUEÑA",
      "registrationNumber": "06858",
      "identificationNumber": "F75095034",
      "address": "IBAIETA IBILBIDEA Nº9",
      "location": {
        "postalCode": "20304",
        "municipality": "Irun",
        "county": "Gipuzkoa",
        "municipalityId": "045",
        "countyId": "20"
      },
      "economicActivities": [
        {
          "id": "1.504.8",
          "name": "Montajes metálicos e instalaciones industriales completas",
          "_links": {
            "self": {
              "name": "Montajes metálicos e instalaciones industriales completas",
              "href": "https://api.euskadi.eus/procurements/companies/economic-activities/1.504.8"
            }
          }
        }
      ],
      "certificateStartDate": "2025-09-10",
      "certificateEndDate": "2026-03-10",
      "object": "EL OBJETO DE ESTA SOCIEDAD COOPERATIVA ES LA REALIZACIÓN DE REFORMAS DE CUBIERTAS Y FACHADAS INDUSTRIALES, CERRAMIENTOS NUEVOS TANTO DE CUBIERTA COMO DE FACHADA, MANTENIMIENTO DE CUBIERTAS, INSTALACIÓN DE LÍNEAS DE VIDA, INSTALACIÓN DE AIREACIÓN, IMPERMEABILIZACIÓN DE CUBIERTAS, REPARACIÓN DE NAVES EN GENERAL, INCLUSO MONTAJE Y FABRICACIÓN DE ESTRUCTURAS METÁLICAS, FORJADOS Y ENTREPLANTAS",
      "mainEntityOfPage": "https://www.contratacion.euskadi.eus/webkpe00-kperoc/es/ac71aBusquedaRegistrosWar/empresa/06858",
      "_links": {
        "self": {
          "name": "BAK, S.COOP. PEQUEÑA",
          "href": "https://api.euskadi.eus/procurements/companies/06858"
        }
      }
    },
    {
      "name": "THE LEARNING SPACES 2.016, S.L.",
      "registrationNumber": "07965",
      "identificationNumber": "B95880209",
      "address": "Calle Larrauri 1 PTL B",
      "location": {
        "postalCode": "48160",
        "municipality": "Derio",
        "county": "Bizkaia",
        "municipalityId": "901",
        "countyId": "48"
      },
      "economicActivities": [
        {
          "id": "1.501.1",
          "name": "Construcción completa, reparación y conservación de edificaciones",
          "_links": {
            "self": {
              "name": "Construcción completa, reparación y conservación de edificaciones",
              "href": "https://api.euskadi.eus/procurements/companies/economic-activities/1.501.1"
            }
          }
        }
      ],
      "certificateStartDate": "2025-09-10",
      "certificateEndDate": "2026-03-10",
      "object": "PRINCIPAL: - CONSTRUCCIÓN COMPLETA, REPARACIÓN Y CONSERVACIÓN DE OBRAS CIVILES. SECUNDARIOS: - SERVICIOS TÉCNICOS DE ARQUITECTURA. PROYECTOS Y EJECUCIÓN DE OBRAS. - OBRAS E INSTALACIONES MOBILIARIAS. - DISEÑO GRÁFICO E INDUSTRIAL. DISEÑO Y CREACIÓN DE MOBILIARIO. - COMPRA, VENTA Y ALQUILER DE TODO TIPO DE INMUEBLES.",
      "mainEntityOfPage": "https://www.contratacion.euskadi.eus/webkpe00-kperoc/es/ac71aBusquedaRegistrosWar/empresa/07965",
      "_links": {
        "self": {
          "name": "THE LEARNING SPACES 2.016, S.L.",
          "href": "https://api.euskadi.eus/procurements/companies/07965"
        }
      }
    },
    {
      "name": "LACUESTA Y MAZA, S.L.",
      "registrationNumber": "10100",
      "identificationNumber": "B01476902",
      "address": "C/FLORIDA 40 BAJO",
      "location": {
        "postalCode": "01005",
        "municipality": "Vitoria-Gasteiz",
        "county": "Araba/Álava",
        "municipalityId": "059",
        "countyId": "01"
      },
      "economicActivities": [
        {
          "id": "1.501.3",
          "name": "Albañilería y pequeños trabajos de construcción en general",
          "_links": {
            "self": {
              "name": "Albañilería y pequeños trabajos de construcción en general",
              "href": "https://api.euskadi.eus/procurements/companies/economic-activities/1.501.3"
            }
          }
        }
      ],
      "certificateStartDate": "2025-09-10",
      "certificateEndDate": "2026-03-10",
      "object": "A) - PROMOCIÓN , CONSTRUCCIÓN, REPARACIÓN, REHABILITACIÓN, DEMOLICIÓN Y DERRIBO POR CUENTA PROPIA O AJENA, DE TODA CLASE DE EDIFICACIONES Y OBRAS CIVILES, TANTO PÚBLICAS COMO PRIVADAS; LA COMPRAVENTA Y EXPLOTACIÓN DE TODA CLASE DE INMUEBLES, LA CONSOLIDACIÓN Y PREPARACIÓN DE TERRENOS, ASÍ COMO LA REALIZACIÓN DE TODO DIPO DE TRABAJOS DE ALBAÑILERÍA. B) - LA REALIZACIÓN DE ESTUDIOS Y REDACCIÓN DE PROYECTOS DE DE ARQUITECTURA, INGENIERÍA  Y DECORACIÓN, DIRECCIÓN FACULTATIVA, E INSPECCIÓN DE OBRAS DE CONSTRUCCIÓN, PÚBLICAS O PRIVADAS, PROPIAS O DE TERCEROS Y ASISTENCIA TÉCNICA. LA REALIZACIÓN DE INFORMES O DICTÁMENES, PERITACIONES Y CERTIFICACIONES DE TODOS LOS TRABAJOS RELACIONADOS CON LA CONSTRUCCIÓN, EDIFICACIÓN Y URBANISMO, ASÍ COMO TASACIONES DE TODO TIPO DE INMUEBLES. C) LA GESTIÓN, ADMINISTRACIÓN , ASESORAMIENTO Y REPRESENTACIÓN DE TODA CLASE DE EMPRESAS Y ENTIDADES.",
      "mainEntityOfPage": "https://www.contratacion.euskadi.eus/webkpe00-kperoc/es/ac71aBusquedaRegistrosWar/empresa/10100",
      "_links": {
        "self": {
          "name": "LACUESTA Y MAZA, S.L.",
          "href": "https://api.euskadi.eus/procurements/companies/10100"
        }
      }
    },
    {
      "name": "ALMACENES ELECTRICOS VITORIA SL",
      "registrationNumber": "09310",
      "identificationNumber": "B01024421",
      "address": "Calle Vitoriabidea, 21",
      "location": {
        "postalCode": "01010",
        "municipality": "Vitoria-Gasteiz",
        "county": "Araba/Álava",
        "municipalityId": "059",
        "countyId": "01"
      },
      "economicActivities": [
        {
          "id": "1.617.9",
          "name": "Venta al por mayor interindustrial de otros productos n.c.o.p",
          "_links": {
            "self": {
              "name": "Venta al por mayor interindustrial de otros productos n.c.o.p",
              "href": "https://api.euskadi.eus/procurements/companies/economic-activities/1.617.9"
            }
          }
        }
      ],
      "certificateStartDate": "2025-09-10",
      "certificateEndDate": "2026-03-10",
      "object": "LA COMERCIALIZACIÓN, VENTA Y REVENTA, TANTO AL POR MAYOR COMO AL DETALLE DE TODO TIPO DE MAQUINARIA Y MATERIAL ELÉCTRICO.",
      "mainEntityOfPage": "https://www.contratacion.euskadi.eus/webkpe00-kperoc/es/ac71aBusquedaRegistrosWar/empresa/09310",
      "_links": {
        "self": {
          "name": "ALMACENES ELECTRICOS VITORIA SL",
          "href": "https://api.euskadi.eus/procurements/companies/09310"
        }
      }
    },
    {
      "name": "ABELLA LEGAL, S.L.",
      "registrationNumber": "08465",
      "identificationNumber": "B95428140",
      "address": "PLAZA JOSÉ RAMÓN AKETXE 5, 1A",
      "location": {
        "postalCode": "48940",
        "municipality": "Leioa",
        "county": "Bizkaia",
        "municipalityId": "054",
        "countyId": "48"
      },
      "economicActivities": [
        {
          "id": "1.841",
          "name": "Servicios jurídicos",
          "_links": {
            "self": {
              "name": "Servicios jurídicos",
              "href": "https://api.euskadi.eus/procurements/companies/economic-activities/1.841"
            }
          }
        },
        {
          "id": "1.847",
          "name": "Servicios de consultoría",
          "_links": {
            "self": {
              "name": "Servicios de consultoría",
              "href": "https://api.euskadi.eus/procurements/companies/economic-activities/1.847"
            }
          }
        },
        {
          "id": "1.933.9",
          "name": "Otras actividades de enseñanza tales como idiomas, mecanografía",
          "_links": {
            "self": {
              "name": "Otras actividades de enseñanza tales como idiomas, mecanografía",
              "href": "https://api.euskadi.eus/procurements/companies/economic-activities/1.933.9"
            }
          }
        }
      ],
      "certificateStartDate": "2025-09-10",
      "certificateEndDate": "2026-03-10",
      "object": "LA PRESTACIÓN DE SERVICIOS RELACIONADOS CON EL DERECHO Y CUALQUIERA DE SUS RAMAS, ASÍ COMO LA REPRESENTACIÓN Y DEFENSA EN LOS JUZGADOS Y TRIBUNALES Y OTROS ÁMBITOS RELACIONADOS CON LA JUSTICIA. LA PRESTACIÓN DE SERVICIOS RELACIONADOS CON LA IGUALDAD, LA INTERSECCIONALIDAD, LA JUSTICIA SOCIAL, LOS FEMINISMOS, LA LIBERTAD Y EL RESTO DE LOS DERECHOS HUMANOS. LA PRESTACIÓN DE SERVICIOS RELACIONADOS CON LA DIGNIDAD Y LA CONCIENCIA; LA SORORIDAD Y LA FRATERNIDAD; LA INTEGRACIÓN Y LIBRE DESARROLLO DE LAS PERSONAS, ESPECIALMENTE EL EMPODERAMIENTO INDIVIDUAL Y COLECTIVO; EL BIENESTAR FÍSICO, EMOCIONAL Y MENTAL; LA VIDA SALUDABLE Y EL DESARROLLO, CRECIMIENTO Y TRANSFORMACIÓN HUMANOS. LOS SERVICIOS ABARCAN, ENTRE OTROS, EL ASESORAMIENTO, LA CONSULTORÍA, LA FORMACIÓN, LA DIFUSIÓN Y LA COMUNICACIÓN, LA ORGANIZACIÓN DE EVENTOS Y JORNADAS, LA INVESTIGACIÓN Y REALIZACIÓN DE ESTUDIOS, LA PUBLICACIÓN, LA COMPRA, LA VENTA, LA MERA TENENCIA, POR CUENTA EN INTERÉS PROPIO, DE ACCIONES, PARTICIPACIONES Y, EN GENERAL, DE ACTIVOS Y VALORES FINANCIEROS, EMPRESARIALES O DE CUALQUIER OTRA CLASE, Y LA COMPRAVENTA Y ARRENDAMIENTOS DE INMUEBLES.",
      "mainEntityOfPage": "https://www.contratacion.euskadi.eus/webkpe00-kperoc/es/ac71aBusquedaRegistrosWar/empresa/08465",
      "_links": {
        "self": {
          "name": "ABELLA LEGAL, S.L.",
          "href": "https://api.euskadi.eus/procurements/companies/08465"
        }
      }
    },
    {
      "name": "IKER MARTINEZ DE LA PERA LOPEZ",
      "registrationNumber": "09845",
      "identificationNumber": "72745386C",
      "address": "Avenida Iruña-Veleia",
      "location": {
        "postalCode": "01015",
        "municipality": "Vitoria-Gasteiz",
        "county": "Araba/Álava",
        "municipalityId": "059",
        "countyId": "01"
      },
      "economicActivities": [
        {
          "id": "1.504.1",
          "name": "Instalaciones eléctricas en general",
          "_links": {
            "self": {
              "name": "Instalaciones eléctricas en general",
              "href": "https://api.euskadi.eus/procurements/companies/economic-activities/1.504.1"
            }
          }
        }
      ],
      "certificateStartDate": "2025-09-10",
      "certificateEndDate": "2026-03-10",
      "object": "INSTALACIONES ELÉCTRICAS EN GENERAL.",
      "mainEntityOfPage": "https://www.contratacion.euskadi.eus/webkpe00-kperoc/es/ac71aBusquedaRegistrosWar/empresa/09845",
      "_links": {
        "self": {
          "name": "IKER MARTINEZ DE LA PERA LOPEZ",
          "href": "https://api.euskadi.eus/procurements/companies/09845"
        }
      }
    },
    {
      "name": "INDUSTRIAS HIDRÁULICAS PARDO, S.L.",
      "registrationNumber": "05867",
      "identificationNumber": "B50057322",
      "address": "LOS ANGELES ,5, POL.IND. CENTROVIA",
      "location": {
        "postalCode": "50198",
        "municipality": "Muela, La",
        "county": "Zaragoza",
        "municipalityId": "182",
        "countyId": "50"
      },
      "economicActivities": [
        {
          "id": "1.316.6",
          "name": "Fabricación de mobiliario metálico",
          "_links": {
            "self": {
              "name": "Fabricación de mobiliario metálico",
              "href": "https://api.euskadi.eus/procurements/companies/economic-activities/1.316.6"
            }
          }
        },
        {
          "id": "1.615.2",
          "name": "Venta al por mayor de muebles",
          "_links": {
            "self": {
              "name": "Venta al por mayor de muebles",
              "href": "https://api.euskadi.eus/procurements/companies/economic-activities/1.615.2"
            }
          }
        },
        {
          "id": "1.619.2",
          "name": "Venta al por mayor de aparatos e instrumentos médicos, ortopédicos, ópticos",
          "_links": {
            "self": {
              "name": "Venta al por mayor de aparatos e instrumentos médicos, ortopédicos, ópticos",
              "href": "https://api.euskadi.eus/procurements/companies/economic-activities/1.619.2"
            }
          }
        },
        {
          "id": "1.859",
          "name": "Alquiler de otros bienes muebles n.c.o.p. (sin personal permanente)",
          "_links": {
            "self": {
              "name": "Alquiler de otros bienes muebles n.c.o.p. (sin personal permanente)",
              "href": "https://api.euskadi.eus/procurements/companies/economic-activities/1.859"
            }
          }
        }
      ],
      "certificateStartDate": "2025-09-10",
      "certificateEndDate": "2026-03-10",
      "object": "A) LA FABRICACIÓN Y COMERCIALIZACIÓN, EN SU MÁS AMPLIO SENTIDO Y BAJO CUALQUIER FORMA, DE COLCHONES, SOMIERES, BASES, ALMOHADAS, ASÍ COMO DE CUALQUIER OTRO ARTÍCULO DESTINADO AL DESCANSO RELACIONADO CON EL AMUEBLAMIENTO, LA DECORACIÓN Y SUS COMPLEMENTOS, SIN LIMITACIÓN ALGUNA; LA OBTENCIÓN, FABRICACIÓN, TRANSFORMACIÓN, COMPRA Y VENTA DE TODAS LAS PRIMERAS MATERIAS Y MAQUINARIA PARA EL DESARROLLO DE LAS PRECEDENTES ACTIVIDADES. B) EL TRANSPORTE POR CUALQUIER MEDIO, DE TODA CLASE DE MERCANCÍAS, PROPIAS O AJENAS. C) LAS INVERSIONES FINANCIERAS Y MOBILIARIAS Y, PARA ELLO, LA COMPRA, VENTA Y PIGNORACIÓN DE TODA CLASE DE TÍTULOS Y VALORES, SEAN O NO DE CONTRATACIÓN BURSÁTIL, POR CUENTA PROPIA, QUEDANDO EXPRESAMENTE EXCLUIDAS LAS ACTIVIDADES RELATIVAS A LAS INSTITUCIONES DE INVERSIÓN COLECTIVA, LAS COMPRENDIDAS EN LA LEY DE MERCADO DE VALORES Y, EN SU CASO, LAS RESERVADAS POR LEYES ESPECIALES A DETERMINADAS ENTIDADES. EN NINGÚN CASO PODRÁ CAPTAR PÚBLICAMENTE FONDOS, BIENES O DERECHOS PARA GESTIONARLOS, NI TAMPOCO CAPTARÁ RECURSOS PARA SU GESTIÓN, MEDIANTE EL CONTRATO DE CUENTAS EN PARTICIPACIÓN Y CUALQUIER FORMA DE COMUNIDAD DE BIENES Y DERECHOS",
      "mainEntityOfPage": "https://www.contratacion.euskadi.eus/webkpe00-kperoc/es/ac71aBusquedaRegistrosWar/empresa/05867",
      "_links": {
        "self": {
          "name": "INDUSTRIAS HIDRÁULICAS PARDO, S.L.",
          "href": "https://api.euskadi.eus/procurements/companies/05867"
        }
      }
    },
    {
      "name": "INTUATE, S.L.",
      "registrationNumber": "10325",
      "identificationNumber": "B62654504",
      "address": "C RIEGO, NUM 10 PLANTA EN, PUERTA 2",
      "location": {
        "postalCode": "08014",
        "municipality": "Barcelona",
        "county": "Barcelona",
        "municipalityId": "019",
        "countyId": "08"
      },
      "economicActivities": [
        {
          "id": "1.617.8",
          "name": "Venta al por mayor de máquinas y material de oficina",
          "_links": {
            "self": {
              "name": "Venta al por mayor de máquinas y material de oficina",
              "href": "https://api.euskadi.eus/procurements/companies/economic-activities/1.617.8"
            }
          }
        }
      ],
      "certificateStartDate": "2025-09-10",
      "certificateEndDate": "2026-03-10",
      "object": "LA COMERCIALIZACIÓN, DISTRIBUCIÓN E INSTALACIÓN DE PRODUCTOS INFORMÁTICOS DE TODO TIPO, ASÍ COMO EL DESARROLLO TÉCNICO DE LOS MISMOS.",
      "mainEntityOfPage": "https://www.contratacion.euskadi.eus/webkpe00-kperoc/es/ac71aBusquedaRegistrosWar/empresa/10325",
      "_links": {
        "self": {
          "name": "INTUATE, S.L.",
          "href": "https://api.euskadi.eus/procurements/companies/10325"
        }
      }
    },
    {
      "name": "ALDIKAR AUTOAK, S.L.",
      "registrationNumber": "04965",
      "identificationNumber": "B20613501",
      "address": "AVENIDA ORIA, 6",
      "location": {
        "postalCode": "20160",
        "municipality": "Lasarte-Oria",
        "county": "Gipuzkoa",
        "municipalityId": "902",
        "countyId": "20"
      },
      "economicActivities": [
        {
          "id": "1.654.1",
          "name": "Venta al por menor de vehículos terrestres",
          "_links": {
            "self": {
              "name": "Venta al por menor de vehículos terrestres",
              "href": "https://api.euskadi.eus/procurements/companies/economic-activities/1.654.1"
            }
          }
        },
        {
          "id": "1.691.2",
          "name": "Reparación de vehículos automóviles, bicicletas y otros vehículos",
          "_links": {
            "self": {
              "name": "Reparación de vehículos automóviles, bicicletas y otros vehículos",
              "href": "https://api.euskadi.eus/procurements/companies/economic-activities/1.691.2"
            }
          }
        }
      ],
      "certificateStartDate": "2025-09-10",
      "certificateEndDate": "2026-03-04",
      "object": "LA EXPLOTACIÓN DE UN NEGOCIO DEDICADO A LA COMPRAVENTA Y ALQUILER DE VEHÍCULOS A MOTOR Y TRANSPORTE, DE SUS ACCESORIOS Y REPUESTOS, TANTO EN LO REFERENTE A LA REPARACIÓN DE MOTORES Y MECÁNICA EN GENERAL COMO A LA REPARACIÓN Y CONSTRUCCIÓN DE CARROCERÍAS, RECAMBIOS DE PIEZAS, ALMACÉN DE REPUESTOS Y EN GENERAL CUALQUIER ACTIVIDAD RELACIONADA CON ESTA RAMA DE LA INDUSTRIA, SU TRANSFORMACIÓN Y COMERCIALIZACIÓN.",
      "mainEntityOfPage": "https://www.contratacion.euskadi.eus/webkpe00-kperoc/es/ac71aBusquedaRegistrosWar/empresa/04965",
      "_links": {
        "self": {
          "name": "ALDIKAR AUTOAK, S.L.",
          "href": "https://api.euskadi.eus/procurements/companies/04965"
        }
      }
    },
    {
      "name": "MIREN SAROA VICANDI LOPEZ",
      "registrationNumber": "08442",
      "identificationNumber": "78888684H",
      "address": "barrenkalea 38 beko pisua",
      "location": {
        "postalCode": "48200",
        "municipality": "Durango",
        "county": "Bizkaia",
        "municipalityId": "027",
        "countyId": "48"
      },
      "economicActivities": [
        {
          "id": "1.355.2",
          "name": "Edición de soportes grabados de sonido, vídeo y de informática",
          "_links": {
            "self": {
              "name": "Edición de soportes grabados de sonido, vídeo y de informática",
              "href": "https://api.euskadi.eus/procurements/companies/economic-activities/1.355.2"
            }
          }
        },
        {
          "id": "1.934",
          "name": "Enseñanza fuera de establecimiento permanente",
          "_links": {
            "self": {
              "name": "Enseñanza fuera de establecimiento permanente",
              "href": "https://api.euskadi.eus/procurements/companies/economic-activities/1.934"
            }
          }
        },
        {
          "id": "2.824",
          "name": "Profesores de formación y perfeccionamiento profesional",
          "_links": {
            "self": {
              "name": "Profesores de formación y perfeccionamiento profesional",
              "href": "https://api.euskadi.eus/procurements/companies/economic-activities/2.824"
            }
          }
        },
        {
          "id": "3.016",
          "name": "Humoristas, caricatos, excentr., charlistas, recitadores",
          "_links": {
            "self": {
              "name": "Humoristas, caricatos, excentr., charlistas, recitadores",
              "href": "https://api.euskadi.eus/procurements/companies/economic-activities/3.016"
            }
          }
        }
      ],
      "certificateStartDate": "2025-09-10",
      "certificateEndDate": "2026-03-09",
      "object": "HUMORISTAS, CARICATOS, EXCÉNTRICOS, CHARLISTAS, RECITADORES. PROFESORES DE FORMACIÓN Y PERFECCIONAMIENTO PROFESIONAL. EDICIÓN DE SOPORTES GRABADOS DE SONIDO, VÍDEO Y DE INFORMÁTICA.",
      "mainEntityOfPage": "https://www.contratacion.euskadi.eus/webkpe00-kperoc/es/ac71aBusquedaRegistrosWar/empresa/08442",
      "_links": {
        "self": {
          "name": "MIREN SAROA VICANDI LOPEZ",
          "href": "https://api.euskadi.eus/procurements/companies/08442"
        }
      }
    }
  ]
}