{
  "totalItems": 9042,
  "totalPages": 905,
  "currentPage": 590,
  "itemsOfPage": 10,
  "items": [
    {
      "name": "SAFETIC ASESORES LEGALES EN TECNOLOGÍA, S.L.U.",
      "registrationNumber": "06684",
      "identificationNumber": "B01469824",
      "address": "calle Pío XII, nº2 Entreplanta Izda",
      "location": {
        "postalCode": "01004",
        "municipality": "Vitoria-Gasteiz",
        "county": "Araba/Álava",
        "municipalityId": "059",
        "countyId": "01"
      },
      "economicActivities": [
        {
          "id": "1.841",
          "name": "Servicios jurídicos",
          "_links": {
            "self": {
              "name": "Servicios jurídicos",
              "href": "https://api.euskadi.eus/procurements/companies/economic-activities/1.841"
            }
          }
        },
        {
          "id": "1.847",
          "name": "Servicios de consultoría",
          "_links": {
            "self": {
              "name": "Servicios de consultoría",
              "href": "https://api.euskadi.eus/procurements/companies/economic-activities/1.847"
            }
          }
        }
      ],
      "certificateStartDate": "2019-12-03",
      "certificateEndDate": "2020-03-13",
      "object": "LA CONSULTORÍA, FORMACIÓN Y ASESORAMIENTO EN PROTECCIÓN DE DATOS DE CARÁCTER PERSONAL, SEGURIDAD DE LA INFORMACIÓN, SEGURIDAD INFORMÁTICA, COMERCIO ELECTRÓNICO, CONTRATACIÓN INFORMÁTICA, DELITOS INFORMÁTICOS, NOMBRES DE DOMINIO, FIRMA ELECTRÓNICA, ADMINISTRACIÓN ELECTRÓNICA, PROPIEDAD INTELECTUAL E INDUSTRIAL, Y CUALQUIER OTRO ASPECTO RELACIONADO CON LOS MATERIALES ANTERIORES Y CON LAS TECNOLOGÍAS DE LA INFORMACIÓN Y DE LAS COMUNICACIONES",
      "mainEntityOfPage": "https://www.contratacion.euskadi.eus/webkpe00-kperoc/es/ac71aBusquedaRegistrosWar/empresa/06684",
      "_links": {
        "self": {
          "name": "SAFETIC ASESORES LEGALES EN TECNOLOGÍA, S.L.U.",
          "href": "https://api.euskadi.eus/procurements/companies/06684"
        }
      }
    },
    {
      "name": "TACTICAL SOLUTIONS, S.L.",
      "registrationNumber": "06687",
      "identificationNumber": "B85711521",
      "address": "Calle de la Reina 36 11",
      "location": {
        "postalCode": "28300",
        "municipality": "Aranjuez",
        "county": "Madrid",
        "municipalityId": "013",
        "countyId": "28"
      },
      "economicActivities": [
        {
          "id": "1.619.1",
          "name": "Venta al por mayor de juguetes y artículos de deporte",
          "_links": {
            "self": {
              "name": "Venta al por mayor de juguetes y artículos de deporte",
              "href": "https://api.euskadi.eus/procurements/companies/economic-activities/1.619.1"
            }
          }
        },
        {
          "id": "1.631",
          "name": "Intermediarios del comercio",
          "_links": {
            "self": {
              "name": "Intermediarios del comercio",
              "href": "https://api.euskadi.eus/procurements/companies/economic-activities/1.631"
            }
          }
        },
        {
          "id": "1.651.5",
          "name": "Venta al por menor de prendas especiales",
          "_links": {
            "self": {
              "name": "Venta al por menor de prendas especiales",
              "href": "https://api.euskadi.eus/procurements/companies/economic-activities/1.651.5"
            }
          }
        },
        {
          "id": "1.659.6",
          "name": "Venta al por menor de juguetes, artículos de deporte",
          "_links": {
            "self": {
              "name": "Venta al por menor de juguetes, artículos de deporte",
              "href": "https://api.euskadi.eus/procurements/companies/economic-activities/1.659.6"
            }
          }
        }
      ],
      "certificateStartDate": "2019-12-03",
      "certificateEndDate": "2020-05-15",
      "object": "-LA COMPRA Y VENTA DE TODO TIPO DE MATERIALES PARA LOS CUERPOS DE SEGURIDAD DEL ESTADO. -LA IMPORTACIÓN Y EXPORTACIÓN DE EQUIPAMIENTOS Y MATERIALES DE POLICÍA Y CUERPOS DE SEGURIDAD. -LA FABRICACIÓN DE MATERIALES DE SEGURIDAD. - EL ASESORAMIENTO Y FORMACIÓN EN MATERIAS DE SEGURIDAD TANTO PÚBLICA COMO PRIVADA. - EL COMERCIO ELECTRÓNICO DE TODO TIPO DE MATERIAL DE SEGURIDAD. - LA EXPLOTACIÓN COMERCIAL DE TODA CLASE DE BIENES INMUEBLES",
      "mainEntityOfPage": "https://www.contratacion.euskadi.eus/webkpe00-kperoc/es/ac71aBusquedaRegistrosWar/empresa/06687",
      "_links": {
        "self": {
          "name": "TACTICAL SOLUTIONS, S.L.",
          "href": "https://api.euskadi.eus/procurements/companies/06687"
        }
      }
    },
    {
      "name": "MORA ROMAN, MANFRED DANIEL",
      "registrationNumber": "06690",
      "identificationNumber": "79128163K",
      "address": "CAMINO CALZADA 8",
      "location": {
        "postalCode": "48195",
        "municipality": "Larrabetzu",
        "county": "Bizkaia",
        "municipalityId": "052",
        "countyId": "48"
      },
      "economicActivities": [
        {
          "id": "1.912",
          "name": "Servicios forestales",
          "_links": {
            "self": {
              "name": "Servicios forestales",
              "href": "https://api.euskadi.eus/procurements/companies/economic-activities/1.912"
            }
          }
        }
      ],
      "certificateStartDate": "2019-12-03",
      "certificateEndDate": "2020-01-19",
      "object": "TRABAJOS FORESTALES",
      "mainEntityOfPage": "https://www.contratacion.euskadi.eus/webkpe00-kperoc/es/ac71aBusquedaRegistrosWar/empresa/06690",
      "_links": {
        "self": {
          "name": "MORA ROMAN, MANFRED DANIEL",
          "href": "https://api.euskadi.eus/procurements/companies/06690"
        }
      }
    },
    {
      "name": "ARTURO RODRIGUEZ GUTIERREZ",
      "registrationNumber": "06680",
      "identificationNumber": "16276671P",
      "address": "ZADORRA, 21",
      "location": {
        "postalCode": "01200",
        "municipality": "Agurain/Salvatierra",
        "county": "Araba/Álava",
        "municipalityId": "051",
        "countyId": "01"
      },
      "economicActivities": [
        {
          "id": "1.151.4",
          "name": "Producción de energía no especificada en otros epígrafes",
          "_links": {
            "self": {
              "name": "Producción de energía no especificada en otros epígrafes",
              "href": "https://api.euskadi.eus/procurements/companies/economic-activities/1.151.4"
            }
          }
        },
        {
          "id": "1.683",
          "name": "Fondas, casas de huéspedes y alojamientos turísticos agrícolas",
          "_links": {
            "self": {
              "name": "Fondas, casas de huéspedes y alojamientos turísticos agrícolas",
              "href": "https://api.euskadi.eus/procurements/companies/economic-activities/1.683"
            }
          }
        }
      ],
      "certificateStartDate": "2019-12-02",
      "certificateEndDate": "2020-01-30",
      "object": "FONDAS, CASAS DE HUÉSPEDES Y ALOJAMIENTOS TURÍSTICOS AGRÍCOLAS",
      "mainEntityOfPage": "https://www.contratacion.euskadi.eus/webkpe00-kperoc/es/ac71aBusquedaRegistrosWar/empresa/06680",
      "_links": {
        "self": {
          "name": "ARTURO RODRIGUEZ GUTIERREZ",
          "href": "https://api.euskadi.eus/procurements/companies/06680"
        }
      }
    },
    {
      "name": "PEOPLE PLUS INNOVATION, S.L.",
      "registrationNumber": "06682",
      "identificationNumber": "B64907975",
      "address": "Carrer Can Pi, 15",
      "location": {
        "postalCode": "08908",
        "municipality": "Hospitalet de Llobregat, L'",
        "county": "Barcelona",
        "municipalityId": "101",
        "countyId": "08"
      },
      "economicActivities": [
        {
          "id": "1.952",
          "name": "Asistencia y servicios sociales en centros no residenciales",
          "_links": {
            "self": {
              "name": "Asistencia y servicios sociales en centros no residenciales",
              "href": "https://api.euskadi.eus/procurements/companies/economic-activities/1.952"
            }
          }
        }
      ],
      "certificateStartDate": "2019-12-02",
      "certificateEndDate": "2020-05-20",
      "object": "A) EN GENERAL, LA PRESTACIÓN DE SERVICIOS AUXILIARES A TODO TIPO DE PROCESOS INDUSTRIALES, DE FÁBRICA ACCIÓN, PRODUCTIVOS O COMERCIALES, INCLUYENDO LOS SERVICIOS AUXILIARES, VINCULADOS A LOS PROCESOS DE MONTAJE Y PREMONTAJE INDUSTRIAL DE TODA CLASE, INCLUSIVE ELÉCTRICOS O ELECTRÓNICO O ELECTRÓNICOS. B) EL DISEÑO, LA IMPLANTACIÓN Y LA GESTIÓN DE PROCESOS DE INTERNALIZACIÓN Y OPTIMIZACIÓN DE CUALQUIER TIPO DE ACTIVIDAD CONSIDERADA COMO SECUNDARIA EN CUALQUIER SECTOR, INCLUYENDO LOS REFERIDOS PROCESOS INDUSTRIALES, PRODUCTIVOS Y COMERCIALES. C) LA PRESTACIÓN DE SERVICIOS AUXILIARES DE VIGILANCIA, PORTERÍA, CONSERJERÍA, RECEPCIÓN, AZAFATAS O ATENCIÓN AL PÚBLICO. D) LA PRESTACIÓN DE SERVICIOS AUXILIARES DE MANTENIMIENTO, CONTROL, JARDINERÍA, COCINA, BAR, HABITACIONES TRANSPORTE, LIMPIEZA, LAVANDERÍA, MENSAJERÍA, ALMACENAJE O CATERING. E) LA PRESTACIÓN DE CUALQUIER TIPO DE SERVICIOS AUXILIARES DE CARÁCTER ADMINISTRATIVO O DE OFICINA. F) LA PRESTACIÓN DE SERVICIOS AUXILIARES DE TODA CLASE VINCULADOS A LA GESTIÓN Y EJECUCIÓN DE EVENTOS Y A ACTOS PUBLICITARIOS. G) LA PRESTACIÓN DE SERVICOS DE ATENCIÓN DOMICILIARIA DE TODA CLASE. ASIMISMO, LA COMPAÑÍA TAMBIÉN SE PODRÁ DEDICAR A LA GESTIÓN DE EQUIPAMIENTOS RESIDENCIALES Y CENTROS DE DÍA PARA EL SOPORTE Y ASISTENCIA A LAS PERSONAS DEPENDIENTES Y A SUS FAMILIAS. H) LA GESTIÓN Y EJECUCIÓN DE CENTROS ESPECIALIZADOS DE EMPLEO U OTRAS ENTIDADES QUE PUDIERAN CREARSE EN UN FUTURO COMO FORMA IDÓNEA DE PROMOCIÓN LABORAL DE TRABAJADORES DISCAPACITADOS. I) LA GESTIÓN, MANTENIMIENTO O LIMPIEZA DE JARDINES E INSTALACIONES DEPORTIVAS O RECREATIVAS, LA EJECUCIÓN DE TRABAJOS DE JARDINERÍA Y PLANTACIÓN, REVEGETACIÓN, REFORESTACIÓN, TRATAMIENTOS SILVÍCOLAS, MANTENIMIENTO Y CONSERVACIÓN DE PARQUES, JARDINES Y ELEMENTOS, EXPLOTACIONES AGRÍCOLAS, PECUARIAS Y FORESTALES. J) LA RECOGIDA, TRATAMIENTO Y ELIMINACIÓN DE RESIDUOS URBANOS, RESIDUOS INDUSTRIALES E INERTES, SANITARIOS, VETERINARIOS O ASIMILABLES A CUALQUIERA DE LAS CATEGORÍAS ENUNCIADAS. K) LA LIMPIEZA, LAVADO, PLANCHADO, CLASIFICACIÓN Y TRANSPORTE DE ROPA. L) LA INSPECCIÓN SANITARIA DE INSTALACIONES DE TODO TIPO, LA LIMPIEZA DE VIALES Y DE VÍAS DE COMUNICACIÓN DE CUALQUIER CLASE, ASÍ COMO LA INSTALACIÓN, MANTENIMIENTO, LIMPIEZA Y CONSERVACIÓN DE TODO TIPO DE MOBILIARIO URBANO Y ELEMENTOS SIMILARES. M) EL TRANSPORTE DE PERSONAS O MERCANCÍAS MEDIANTE LA CONDUCCIÓN DE VEHÍCULOS PROPIOS O AJENOS. N) LA INSPECCIÓN Y CONTROL DE CALIDAD, INSPECCIONES TÉCNICAS Y CONTROL DE PASAJEROS PARA TODO TIPO DE TRANSPORTE. O) LA ATENCIÓN O REPOSICIÓN Y MANTENIMIENTO DE EQUIPOS, MAQUINARIA Y DISPENSADORES DE TODO TIPO. P) LA GESTIÓN Y EXPLOTACIÓN, TOTAL O PARCIAL, DE EQUIPAMIENTOS DIURNOS Y NOCTURNOS, ESCUELAS Y CENTROS EDUCATIVOS, SERVICIOS DE ORIENTACIÓN Y PREVENTIVOS PARA PERSONAS EN RIESGO DE EXCLUSIÓN SOCIAL, RESIDENCIAS, GERIÁTRICAS, PISOS TUTELADOS, COMUNIDADES TERAPÉUTICAS, GUARDERÍAS INFANTILES Y OTROS CENTROS DE ACOGIDA, REINSERCIÓN Y REHABILITACIÓN. Q) LA PRESTACIÓN DE SERVICIOS DE ASESORAMIENTO TÉCNICO Y COMERCIAL, INTERMEDIACIÓN COMERCIAL, ASISTENCIA TÉCNICA O COMERCIAL Y EJECUCIÓN DE TRABAJOS ADMINISTRATIVOS, TÉCNICOS, ORGANIZATIVOS E INFORMÁTICOS. R) LA ORGANIZACIÓN O IMPARTICIÓN A TERCEROS DE TODO TIPO DE CURSOS Y PROGRAMAS DE ENSEÑANZA Y FORMACIÓN DIRIGIDOS, PRINCIPALMENTE AL PERFECCIONAMIENTO Y CAPACITACIÓN PERSONAL PROFESIONAL Y OCUPACIONAL YA SEA EN INSTALACIONES PROPIAS O DE TERCEROS, DESARROLLO DE PLANES DE FORMACIÓN Y DE SELECCIÓN DE PERSONAL. S) LA MEDICIÓN Y MEDIACIÓN DE TEMPERATURA Y HUMEDAD EN VIALES Y, EN GENERAL, EN TODO TIPO DE BIENES MUEBLES, INSTALACIONES PÚBLICAS Y PRIVADAS, REALIZANDO TODOS AQUELLOS CONTROLES NECESARIOS PARA LA CONSERVACIÓN Y EL MANTENIMIENTO CORRECTO DE LOS MISMOS, O DE LOS BIENES EN ELLOS DEPOSITADOS O CUSTODIADOS, LECTURA DE CONTADORES Y GESTIÓN DE COBROS. T) LA PRESTACIÓN DE SERVICIOS DE CONSERVACIÓN, REPARACIÓN E INSTALACIÓN PARA EL MANTENIMIENTO INTEGRAL DE MÉTODO TIPO DE INSTALACIONES INDUSTRIALES Y DE EDIFICIOS EN GENERAL, INCLUIDA LA EJECUCIÓN DE OBRAS, MEDIANTE TRABAJOS DE ELECTRICIDAD, DE ACONDICIONAMIENTO DE AIRE ACONDICIONADO, CALEFACCIÓN, FONTANERÍA CARPINTERÍA PINTURA ALBAÑILERÍA, MANTENIMIENTO DE ASCENSORES Y APARATOS DE ELEVACIÓN Y TRANSPORTE DE CARGAS, ACTUACIONES EN ACOMETIDA EN REDES DE DISTRIBUCIÓN INTERIOR Y EXTERIOR DE GAS Y OTROS COMBUSTIBLES O SUMINISTROS",
      "mainEntityOfPage": "https://www.contratacion.euskadi.eus/webkpe00-kperoc/es/ac71aBusquedaRegistrosWar/empresa/06682",
      "_links": {
        "self": {
          "name": "PEOPLE PLUS INNOVATION, S.L.",
          "href": "https://api.euskadi.eus/procurements/companies/06682"
        }
      }
    },
    {
      "name": "ASLAN ASESORES & ABOGADOS, S.L.",
      "registrationNumber": "03676",
      "identificationNumber": "B95507737",
      "address": "C/ LOJENDIO, 5 - 2 D",
      "location": {
        "postalCode": "48008",
        "municipality": "Bilbao",
        "county": "Bizkaia",
        "municipalityId": "020",
        "countyId": "48"
      },
      "economicActivities": [
        {
          "id": "1.841",
          "name": "Servicios jurídicos",
          "_links": {
            "self": {
              "name": "Servicios jurídicos",
              "href": "https://api.euskadi.eus/procurements/companies/economic-activities/1.841"
            }
          }
        },
        {
          "id": "1.845",
          "name": "Explotación electrónica por cuenta de terceros",
          "_links": {
            "self": {
              "name": "Explotación electrónica por cuenta de terceros",
              "href": "https://api.euskadi.eus/procurements/companies/economic-activities/1.845"
            }
          }
        }
      ],
      "certificateStartDate": "2019-11-29",
      "certificateEndDate": "2020-05-06",
      "object": "A) ESTUDIOS ECONÓMICOS, TÉCNICOS, FINANCIEROS, PATRIMONIALES, COMERCIALES Y TODOS AQUELLOS INFORMES QUE PRECISE EL CONSEJO DE ADMINISTRACIÓN, PARTÍCIPES, ADMINISTRADORES O DIRECTORES DE EMPRESAS, TANTO INDIVIDUALES COMO ENTIDADES JURÍDICAS, PRIVADAS O PÚ BLICAS.\r\nB) LA PRESTACIÓN DE SERVICIOS LABORALES, FISCALES, CONTABLES, ADMINISTRATIVOS, MERCANTILES Y TODOS AQUELLAS SERVICIOS QUE PRECISE CUALQUIER PERSONA FÍSICA O JURÍDICA, PÚBLICA O PRIVADA.\r\nC) LA REALIZACIÓN DE ACTIVIDADES DE CONSULTING EMPRESARIAL, ASÍ COMO DE SERVICIOS PARA ENTIDADES INSTITUCIONALES, PÚBLICAS O PRIVADAS; ESTUDIOS SOBRE ESTRUCTURA Y ORGANIZACIÓN EMPRESARIAL, ESTUDIOS SOCIOECONÓMICOS, ESTUDIOS DE VIABILIDAD Y PREINVERSIÓN, ESTUDIOS SOBRE ASPECTOS TÉCNICOS, COMERCIALES, Y ECONÓMICO-FINANCIEROS, SERVICIOS DIRIGIDOS AL ÁREA DE RECURSOS HUMANOS, INCLUYENDO LA SELECCIÓN DE PERSONAL, SERVICIOS DE AUDITORIA, DE INFORMÁTICA, DE COMERCIO EXTERIOR Y DE ASESORAMIENTO.\r\nD) EL ESTUDIO, PROMOSIÓN, GESTIÓN, ADMINISTRACIÓN Y FINANCIACIÓN DE CUALESQUIERA, EMPRESAS Y DE TODA CLASE DE OPERACIONES MERCANTILES, Y LA PARTICIPACIÓN DE LAS MISMAS EN CUALQUIER TRÁMITE, ECONÓMICO Y JURÍDICO",
      "mainEntityOfPage": "https://www.contratacion.euskadi.eus/webkpe00-kperoc/es/ac71aBusquedaRegistrosWar/empresa/03676",
      "_links": {
        "self": {
          "name": "ASLAN ASESORES & ABOGADOS, S.L.",
          "href": "https://api.euskadi.eus/procurements/companies/03676"
        }
      }
    },
    {
      "name": "TECNALABAQUA, A.I.E.",
      "registrationNumber": "06678",
      "identificationNumber": "V01526516",
      "address": "C/ Leonardo da vinci 11",
      "location": {
        "postalCode": "01510",
        "municipality": "Vitoria-Gasteiz",
        "county": "Araba/Álava",
        "municipalityId": "059",
        "countyId": "01"
      },
      "economicActivities": [
        {
          "id": "1.843.9",
          "name": "Otros servicios técnicos n.c.o.p",
          "_links": {
            "self": {
              "name": "Otros servicios técnicos n.c.o.p",
              "href": "https://api.euskadi.eus/procurements/companies/economic-activities/1.843.9"
            }
          }
        }
      ],
      "certificateStartDate": "2019-11-29",
      "certificateEndDate": "2020-05-05",
      "object": "1.-EL CONTROL Y ANÁLISIS DE CALIDAD DE TODO TIPO DE AGUAS, INCLUYENDO LAS DE CONSUMO PÚBLICO O PRIVADO, POTABLES O PARA EL RIEGO, INDUSTRIALES, REUTILIZADAS, CON FINES RECREATIVOS Y LAS AGUAS DE BAÑO, SEA CUAL FUERE SU TIPO Y PROCEDENCIA, ASÍ COMO LAS ENVASADAS Y/O MINEROMEDICINALES. 2.- EL CONTROL Y ANÁLISIS DE AGUAS RESIDUALES, FECALES Y DE CUALQUIER OTRO TIPO QUE EXISTA, ASÍ COMO CUALQUIER PRODUCTO O RESIDUO RELACIONADO CON LA DEPURACIÓN DE LAS AGUAS, LODOS Y TIERRAS O SUELOS EN GENERAL, DIRECTA O INDIRECTAMENTE. 3.- EL CONTROL Y ANÁLISIS DE RESIDUOS, TANTO URBANOS COMO INDUSTRIALES, SANITARIOS Y DE CUALQUIER OTRA PROCEDENCIA. 4.- EL CONTROL Y ANÁLISIS DE CUALQUIER TIPO DE EMISIÓN A LA ATMÓSFERA, O CALIDAD DEL AIRE, ASÍ COMO ESTUDIOS DE INMISIÓN. 5.- REALIZACIÓN DE TOMA DE MUESTRAS EN CUALESQUIERA DE LAS MATRICES ANTES ENUNCIADAS. 6.- REALIZACIÓN DE ACTIVIDADES DE INSPECCIÓN MEDIOAMBIENTAL, CONFORME A LOS CRITERIOS RECOGIDOS EN LA NORMATIVA APLICABLE, ASÍ COMO INSPECCIÓN SANITARIA DE CUALQUIER TIPO DE INSTALACIONES O EDIFICACIONES",
      "mainEntityOfPage": "https://www.contratacion.euskadi.eus/webkpe00-kperoc/es/ac71aBusquedaRegistrosWar/empresa/06678",
      "_links": {
        "self": {
          "name": "TECNALABAQUA, A.I.E.",
          "href": "https://api.euskadi.eus/procurements/companies/06678"
        }
      }
    },
    {
      "name": "BYCO, S.A. Sociedad Unipersonal",
      "registrationNumber": "00266",
      "identificationNumber": "A48105472",
      "address": "CR/ BILBAO - PLENCIA, 31 - 2º OF. 204",
      "location": {
        "postalCode": "48950",
        "municipality": "Erandio",
        "county": "Bizkaia",
        "municipalityId": "902",
        "countyId": "48"
      },
      "economicActivities": [
        {
          "id": "1.501.1",
          "name": "Construcción completa, reparación y conservación de edificaciones",
          "_links": {
            "self": {
              "name": "Construcción completa, reparación y conservación de edificaciones",
              "href": "https://api.euskadi.eus/procurements/companies/economic-activities/1.501.1"
            }
          }
        },
        {
          "id": "1.501.2",
          "name": "Construcción completa, reparación y conservación obras civiles",
          "_links": {
            "self": {
              "name": "Construcción completa, reparación y conservación obras civiles",
              "href": "https://api.euskadi.eus/procurements/companies/economic-activities/1.501.2"
            }
          }
        }
      ],
      "certificateStartDate": "2019-11-28",
      "certificateEndDate": "2020-05-13",
      "object": "A) LA CONSTRUCCIÓN EN GENERAL DE VIVIENDAS DE PROTECCIÓN OFICIAL O DE CUALQUIER OTRA CLASE, SIN LIMITACIÓN, COMO ASIMISMO LOCALES DE NEGOCIOS Y EDIFICACIONES, OBRAS Y CONSTRUCCIONES DE TODO TIPO, CONTRATAS DE OBRAS PÚBLICAS O PARTICULARES, CONTRATOS DE EJECUCIÓN DE OBRAS Y PRESTACIÓN DE SERVICIOS, URBANIZACOINES, OBTENCIÓN Y EXPLOTACIÓN DE CONCESIONES DE SERVICIOS PÚBLICOS Y PRIVADOS  DE CUALQUEIR OTRA CLASE DE ADQUISICIÓN, USO, ARRENDAMIENTO, VENTA Y ENAJENACIÓN POR CUALQUIER TIPO DE EDIFICACIONES, PISOS, LOCALES Y CONSTRUCCIONES DE TODO GÉNERO, LA ADQUISICIÓN, USO, ARRENDAMIENTO Y ENAJENACIÓN DE FINCAS, TERRENOS Y SOLARES, SU PARCELACIÓN Y URBANIZACIÓN, LA POROMOCIÓN Y CONSTITUCIÓN DE COMUNIDADES DE PROPIETARIOS O CUALQUIER OTRA FORMA DE ASOCIACIÓN O SOCIEDAD CON FINES DE EDIFICACIÓN Y URBANIZACIÓN.\r\nMANTENIMIENTO DE EDIFICIOS, PRESTACIÓN DE PERSONAL A OTRAS EMPRESAS O COMUNIDADES.\r\nB) LA COMPRAVENTA, ADMINISTRACIÓN, ARRIENDO Y EXPLOTACIÓN DE TERRENOS RÚSTICOS Y URBANOS, SOLARES, CONSTRUCCIONES, EDIFICACIONES, VIVIENDAS Y EXPLOTACIONES INDUSTRIALES, MINERAS, AGRÍCOLAS, PESQUERAS, PECUARIAS Y FORESTALES.\r\nC) TODA CLASE DE OPERACIONES INMOBILIARIAS SOBRE FINCAS RÚSTICAS O URBANAS, PROMOCIÓN DE CONTRATOS O REALIZACIONES DE PARCELACIONES, URBANIZACIONES, CONSTRUCCIONES Y OBRAS PRIVADAS Y PÚBLICAS, LA VENTA, HIPOTECA, ARRENDAMIENTO, TRANSFORMACIÓN, MEJORA, ADMINISTRACIÓN, PUESTA EN EXPLOTACIÓN Y LA EXPLOTACIÓN MISMA,  BAJO CUALQUIER MODALIDAD DE FINCAS DE CUALQUIER CLASE, LA ORGANIZACIÓN, PROMOCIÓN Y ASESORAMIENTO (SALVO OPERACIONES RESERVADAS A LA BANCA), Y GESTIÓN EN SU CASO DE SOCIEDADES, COOPERATIVAS, COMUNIDADES, ENTIDADES, GRUPO O EMPRESAS PARTICULARES ORIENTADAS A LA CONSTRUCCIÓN O URBANIZACIÓN, LA PLANIFICACIÓN Y ESTUDIO DE MERCADOS EN MATERIA INMOBILIARIA.\r\nLA SOCIEDAD PODRÁ REALIZAR LAS ACTIVIDADES QUE CONSTITUYEN SU OBJETO, TOTAL O PARCIALMENTE DE UNA FORMA DIRECTA O MEDIANTE LA PARTICIPACIÓN EN OTRAS SOCIEDADES O ENTIDADES CON O SIN PERSONALIDAD JURÍDICA.\r\nLA SOCIEDAD NO REALIZARÁ NINGUNA DE LAS ACTIVIDADES SUJETAS A RÉGIMEN DE AUTORIZACIÓN ESPECIAL Y LEGISLACIÓN ESPECIAL",
      "mainEntityOfPage": "https://www.contratacion.euskadi.eus/webkpe00-kperoc/es/ac71aBusquedaRegistrosWar/empresa/00266",
      "_links": {
        "self": {
          "name": "BYCO, S.A. Sociedad Unipersonal",
          "href": "https://api.euskadi.eus/procurements/companies/00266"
        }
      }
    },
    {
      "name": "INFRAESTRUCTURAS VALDIN 2001, S.A.",
      "registrationNumber": "05571",
      "identificationNumber": "A95123568",
      "address": "C/BERTENDONA Nº 4-3º DEP. 3",
      "location": {
        "postalCode": "48008",
        "municipality": "Bilbao",
        "county": "Bizkaia",
        "municipalityId": "020",
        "countyId": "48"
      },
      "economicActivities": [
        {
          "id": "1.501.1",
          "name": "Construcción completa, reparación y conservación de edificaciones",
          "_links": {
            "self": {
              "name": "Construcción completa, reparación y conservación de edificaciones",
              "href": "https://api.euskadi.eus/procurements/companies/economic-activities/1.501.1"
            }
          }
        }
      ],
      "certificateStartDate": "2019-11-26",
      "certificateEndDate": "2020-05-25",
      "object": "LA CONSTRUCCIÓN, EDIFICACIÓN, PROMOCIÓN, REHABILITACIÓN, COMPRA , VENTA, ARRENDAMIENTO Y EXPLOTACIÓN POR CUALQUIER TÍTULO DE TODA CLASE DE BIENES INMUEBLES. LA EJECUCIÓN DE OBRAS DE CONSTRUCCIÓN DE CUALQUIER CLASE, YA SEAN PÚBLICAS O PRIVADAS. EL ESTUDIO, ASESORAMIENTO Y REALIZACIÓN DE PROYECTOS RELATIVOS A LA CONSTRUCCIÓN DE INMUEBLES Y DE TODO TIPO DE OBRAS CIVILES DE CONSTRUCCIÓN",
      "mainEntityOfPage": "https://www.contratacion.euskadi.eus/webkpe00-kperoc/es/ac71aBusquedaRegistrosWar/empresa/05571",
      "_links": {
        "self": {
          "name": "INFRAESTRUCTURAS VALDIN 2001, S.A.",
          "href": "https://api.euskadi.eus/procurements/companies/05571"
        }
      }
    },
    {
      "name": "SUM VALUE, S.L.",
      "registrationNumber": "06670",
      "identificationNumber": "B98730674",
      "address": "Avda. del Sur, 6, izq.",
      "location": {
        "postalCode": "46920",
        "municipality": "Mislata",
        "county": "Valencia/València",
        "municipalityId": "169",
        "countyId": "46"
      },
      "economicActivities": [
        {
          "id": "1.842",
          "name": "Servicios financieros y contables",
          "_links": {
            "self": {
              "name": "Servicios financieros y contables",
              "href": "https://api.euskadi.eus/procurements/companies/economic-activities/1.842"
            }
          }
        },
        {
          "id": "1.843.1",
          "name": "Servicios técnicos de ingeniería",
          "_links": {
            "self": {
              "name": "Servicios técnicos de ingeniería",
              "href": "https://api.euskadi.eus/procurements/companies/economic-activities/1.843.1"
            }
          }
        }
      ],
      "certificateStartDate": "2019-11-26",
      "certificateEndDate": "2020-02-29",
      "object": "1.- LA REALIZACIÓN DE PERITACIONES Y VALORACIONES DE TODO TIPO DE BIENES. LA REALIZACIÓN DE PERITACIONES EN CUALQUIER ORDEN JURISDICCIONAL, ASÍ COMO VALORACIONES DE TODO TIPO DE BIENES, TANGIBLES E INTANGIBLES, DERECHOS, EMPRESAS Y PATRIMONIOS, ADEMÁS DE LA ELABORACIÓN DE ESTUDIOS DE MERCADO, ESTUDIOS ECONÓMICOS, ESTUDIOS FINANCIEROS, Y TODA CLASE DE SONDEOS Y ENCUESTAS. QUEDAN EXCLUIDAS LAS VALORACIONES INMOBILIARIA PARA EL MERCADO HIPOTECARIO. 2.- LA PRESTACIÓN DE SERVICIOS DE FORMACIÓN, CONSULTORÍA DE EMPRESAS O ADMINISTRACIONES PÚBLICAS, GESTIÓN DE PATRIMONIOS, Y GESTIÓN DE INVENTARIOS, DONDE TAMBIÉN SE INCLUYE LA REVISIÓN Y ACTUALIZACIÓN DE INVENTARIOS, CONCILIACIÓN CONTABLE Y MANTENIMIENTO DE LA INFORMACIÓN. 3.- LA ADQUISICIÓN, EXPLOTACIÓN Y ENAJENACIÓN DE BIENES INMUEBLES TANTO RÚSTICOS COMO URBANOS. CNAE NÚMERO 7490, (OTRAS ACTIVIDAD PROFESIONALES, CIENTÍFICAS Y TÉCNICAS N.C.O.P.)",
      "mainEntityOfPage": "https://www.contratacion.euskadi.eus/webkpe00-kperoc/es/ac71aBusquedaRegistrosWar/empresa/06670",
      "_links": {
        "self": {
          "name": "SUM VALUE, S.L.",
          "href": "https://api.euskadi.eus/procurements/companies/06670"
        }
      }
    }
  ]
}