{
  "totalItems": 9042,
  "totalPages": 905,
  "currentPage": 96,
  "itemsOfPage": 10,
  "items": [
    {
      "name": "INSTITUTO DE REINTEGRACIÓN SOCIAL DE EUSKADI",
      "registrationNumber": "03292",
      "identificationNumber": "G48242259",
      "address": "ALAMEDA DE RECALDE 27- 3º DPTO 7",
      "location": {
        "postalCode": "48009",
        "municipality": "Bilbao",
        "county": "Bizkaia",
        "municipalityId": "020",
        "countyId": "48"
      },
      "economicActivities": [
        {
          "id": "1.951",
          "name": "Asistencia y servicios sociales en centros residenciales",
          "_links": {
            "self": {
              "name": "Asistencia y servicios sociales en centros residenciales",
              "href": "https://api.euskadi.eus/procurements/companies/economic-activities/1.951"
            }
          }
        },
        {
          "id": "1.952",
          "name": "Asistencia y servicios sociales en centros no residenciales",
          "_links": {
            "self": {
              "name": "Asistencia y servicios sociales en centros no residenciales",
              "href": "https://api.euskadi.eus/procurements/companies/economic-activities/1.952"
            }
          }
        }
      ],
      "certificateStartDate": "2026-01-08",
      "certificateEndDate": "2026-06-03",
      "object": "LA PREVENCIÓN Y EL TRATAMIENTO DE LA DELINCUENCIA EN/CON MEDIOS ABIERTOS INCIDIENDO EN LAS CAUSAS INDIVIDUALES Y SOCIALES QUE LA PROVOCAN, OFRECIENDO ASISTENCIA Y ASESORAMIENTO A TODA PERSONA QUE DENTRO DEL ÁMBITO TERRITORIAL DEL MISMO SEA DETENIDA, EXCARCELADA O, SEA PUESTO EN PERIODO DE PRE-LIBERTAD CONDICIONAL. TIENE POR OBJETO IGUALMENTE, PROMOVER SOCIAL, CULTURAL, ECONÓMICO, LABORAL Y EDUCATIVAMENTE A AQUELLAS PERSONAS QUE, MARGINADAS, DE CONDUCTAS MARCADAMENTE DELICTIVAS Y ANTISOCIALES, Y CON DIFICULTADES DE ADAPTACIÓN QUE LO REQUIERAN. DAR A CONOCER LOS PROBLEMAS HUMANOS Y SOCIALES A LA COMUNIDAD DEL MENCIONADO COLECTIVO. REIVINDICACIÓN DE LOS DERECHOS DE ÉSTOS ANTE TODAS LAS INSTANCIAS PÚBLICAS Y PRIVADAS. CUALQUIER OTRO FIN QUE, DE MODO DIRECTO O INDIRECTO, CONTRIBUYA A LA REALIZACIÓN DE LOS OBJETIVOS DEL INSTITUTO O REDUNDE EN BENEFICIO DEL MENCIONADO COLECTIVO MARGINAL, DE SUS FAMILIARES Y DE SU ENTORNO SOCIAL",
      "mainEntityOfPage": "https://www.contratacion.euskadi.eus/webkpe00-kperoc/es/ac71aBusquedaRegistrosWar/empresa/03292",
      "_links": {
        "self": {
          "name": "INSTITUTO DE REINTEGRACIÓN SOCIAL DE EUSKADI",
          "href": "https://api.euskadi.eus/procurements/companies/03292"
        }
      }
    },
    {
      "name": "SORMEN CREATIVOS, S.A.",
      "registrationNumber": "00324",
      "identificationNumber": "A01040724",
      "address": "C/ ANDALUCÍA, Nº 2 - BAJO.",
      "location": {
        "postalCode": "01003",
        "municipality": "Vitoria-Gasteiz",
        "county": "Araba/Álava",
        "municipalityId": "059",
        "countyId": "01"
      },
      "economicActivities": [
        {
          "id": "1.699",
          "name": "Otras reparaciones n.c.o.p",
          "_links": {
            "self": {
              "name": "Otras reparaciones n.c.o.p",
              "href": "https://api.euskadi.eus/procurements/companies/economic-activities/1.699"
            }
          }
        },
        {
          "id": "1.844",
          "name": "Servicios de publicidad, relaciones públicas y similares",
          "_links": {
            "self": {
              "name": "Servicios de publicidad, relaciones públicas y similares",
              "href": "https://api.euskadi.eus/procurements/companies/economic-activities/1.844"
            }
          }
        }
      ],
      "certificateStartDate": "2026-01-08",
      "certificateEndDate": "2026-06-10",
      "object": "LA CREACIÓN Y REALIZACIÓN MATERIAL, A INSTANCIA PROPIA, O POR ENCARGO DE TERCEROS, DE TODA CLASE DE DISEÑOS ESCRITOS O GRÁFICOS CON LA FINALIDAD DE COMUNICAR, INCLUSO PUBLICITARIAMENTE, TODA CLASE DE ACTIVIDADES INDUSTRIALES, COMERCIALES, PROFESIONALES, E INSTITUCIONALES, EJECUTANDO PARA TODO ELLO LAS CORRESPONDIENTES ACCIONES, ELEMENTOS Y OBJETOS. SE COMPRENDE TAMBIÉN EN ESTE OBJETO CUALQUIER OTRA ACTIVIDAD DENTRO DE LA DECORACIÓN DE INTERIORES Y EXTERIORES DE INMUEBLES, TALES COMO LA CREACIÓN, REALIZACIÓN Y EJECUCIÓN DE DISEÑOS PARA EXPOSICIONES, MUSEOS, DE TODAS CLASES, COMERCIALES, CULTURALES E INSTITUCIONALES. PARA TODO ELLO PODRÁ EJERCITAR TODA CLASE DE ACTUACIONES DENTRO DEL CAMPO DE LA IMAGEN, LA COMUNICACIÓN Y LA PUBLICIDAD Y CONCRETARLAS POR TODOS LOS MEDIOS EN QUE DICHO CAMPO SE MATERIALICE, COMO ANUNCIOS, RÓTULOS, IMAGEN CORPORATIVA, IMPRESOS, MEMBRETES, ESCRITOS, FOLLETOS, CATÁLOGOS, PUBLICACIONES, FACSIMILES, CIRCULARES, GRABADOS, PINTURAS, FOTOGRAFÍAS, PELÍCULAS, VÍDEOS, MICROFILMS, SOPORTES ELECTRO-MAGNÉTICOS Y OTROS SIMILARES. DENTRO DE SU ÁMBITO PODRÁ, EN EL MÁS AMPLIO SENTIDO, COMPRAR, VENDER, CEDER, ARRENDAR Y EN GENERAL COMERCIALIZAR LOS RESULTADOS DE SU ACTIVIDAD",
      "mainEntityOfPage": "https://www.contratacion.euskadi.eus/webkpe00-kperoc/es/ac71aBusquedaRegistrosWar/empresa/00324",
      "_links": {
        "self": {
          "name": "SORMEN CREATIVOS, S.A.",
          "href": "https://api.euskadi.eus/procurements/companies/00324"
        }
      }
    },
    {
      "name": "SHEILA ORDÓÑEZ MALAGÓN",
      "registrationNumber": "10237",
      "identificationNumber": "72829469S",
      "address": "Calle Cuchillería, 33 -2ºA (01001)",
      "location": {
        "postalCode": "01001",
        "municipality": "Vitoria-Gasteiz",
        "county": "Araba/Álava",
        "municipalityId": "059",
        "countyId": "01"
      },
      "economicActivities": [
        {
          "id": "2.399",
          "name": "Otros profesionales relacionados con otras industrias manufactureras",
          "_links": {
            "self": {
              "name": "Otros profesionales relacionados con otras industrias manufactureras",
              "href": "https://api.euskadi.eus/procurements/companies/economic-activities/2.399"
            }
          }
        },
        {
          "id": "2.826",
          "name": "Personal docente de enseñanzas diversas",
          "_links": {
            "self": {
              "name": "Personal docente de enseñanzas diversas",
              "href": "https://api.euskadi.eus/procurements/companies/economic-activities/2.826"
            }
          }
        }
      ],
      "certificateStartDate": "2026-01-08",
      "certificateEndDate": "2026-06-09",
      "object": "OTROS PROFESIONALES RELACIONADOS CON OTRAS INDUSTRIAS MANUFACTURERAS. PERSONAL DOCENTE DE ENSEÑANZAS DIVERSAS.",
      "mainEntityOfPage": "https://www.contratacion.euskadi.eus/webkpe00-kperoc/es/ac71aBusquedaRegistrosWar/empresa/10237",
      "_links": {
        "self": {
          "name": "SHEILA ORDÓÑEZ MALAGÓN",
          "href": "https://api.euskadi.eus/procurements/companies/10237"
        }
      }
    },
    {
      "name": "SERVICIOS VASCONAVARROS DE ALIMENTACION Y LIMPIEZA, S.L.",
      "registrationNumber": "09209",
      "identificationNumber": "B31494578",
      "address": "POLÍGONO LANDABEN, CALLE D, S/N",
      "location": {
        "postalCode": "31012",
        "municipality": "Pamplona/Iruña",
        "county": "Navarra",
        "municipalityId": "201",
        "countyId": "31"
      },
      "economicActivities": [
        {
          "id": "1.671.5",
          "name": "Restaurante un tenedor",
          "_links": {
            "self": {
              "name": "Restaurante un tenedor",
              "href": "https://api.euskadi.eus/procurements/companies/economic-activities/1.671.5"
            }
          }
        },
        {
          "id": "1.677.9",
          "name": "Otros servicios de alimentación propios de la restauración",
          "_links": {
            "self": {
              "name": "Otros servicios de alimentación propios de la restauración",
              "href": "https://api.euskadi.eus/procurements/companies/economic-activities/1.677.9"
            }
          }
        }
      ],
      "certificateStartDate": "2026-01-08",
      "certificateEndDate": "2026-05-24",
      "object": "A) LA EXPLOTACIÓN Y ARRENDAMIENTO DE TODO TIPO DE NEGOCIOS RELACIONADOS CON LA HOSTELERÍA, COMO COMEDORES COLECTIVOS, BARES, CAFETERÍAS-PASTELERÍAS, RESTAURANTES, HOSTALES Y HOTELES.\nB) LA DISTRIBUCIÓN, COMERCIALIZACIÓN, ALMACENAMIENTO, AL POR MAYOR Y MENOR, ASÍ COMO LA IMPORTACIÓN Y EXPORTACIÓN DE COMESTIBLES, VINOS, LICORES, CAFÉ Y, EN GENERAL TODA CLASE DE BEBIDAS Y ALIMENTOS QUE TENGAN RELACIÓN CON LA HOSTELERÍA.\nC) EL MANTENIMIENTO, ORGANIZACIÓN, GESTIÓN Y EXPLOTACIÓN INTEGRAL DE SERVICIOS GENERALES PARA PARTICULARES, EMPRESAS, RESIDENCIAS, HOSPITALES, COMUNIDADES Y TODO TIPO DE PERSONAS, TANTO FÍSICAS COMO JURÍDICAS, PÚBLICAS O PRIVADAS.",
      "mainEntityOfPage": "https://www.contratacion.euskadi.eus/webkpe00-kperoc/es/ac71aBusquedaRegistrosWar/empresa/09209",
      "_links": {
        "self": {
          "name": "SERVICIOS VASCONAVARROS DE ALIMENTACION Y LIMPIEZA, S.L.",
          "href": "https://api.euskadi.eus/procurements/companies/09209"
        }
      }
    },
    {
      "name": "AUDIDAT 3.0 SOCIEDAD LIMITADA",
      "registrationNumber": "09140",
      "identificationNumber": "B02482545",
      "address": "PASEO DE LA CASTELLANA, 182, 6ª PLANTA",
      "location": {
        "postalCode": "28046",
        "municipality": "Madrid",
        "county": "Madrid",
        "municipalityId": "079",
        "countyId": "28"
      },
      "economicActivities": [
        {
          "id": "1.841",
          "name": "Servicios jurídicos",
          "_links": {
            "self": {
              "name": "Servicios jurídicos",
              "href": "https://api.euskadi.eus/procurements/companies/economic-activities/1.841"
            }
          }
        },
        {
          "id": "1.849.9",
          "name": "Otros servicios independientes n.c.o.p",
          "_links": {
            "self": {
              "name": "Otros servicios independientes n.c.o.p",
              "href": "https://api.euskadi.eus/procurements/companies/economic-activities/1.849.9"
            }
          }
        }
      ],
      "certificateStartDate": "2026-01-08",
      "certificateEndDate": "2026-06-04",
      "object": "-EL ASESORAMIENTO, GESTIÓN Y FORMACIÓN EN MATERIA DE PROTECCIÓN DE DATOS A EMPRESAS, PARTICULARES E INSTITUCIONES. -LA ADQUISICIÓN, TENENCIA Y ENAJENACIÓN, POR CUALQUIER TÍTULO, DE SOLARES, EDIFICIOS Y FINCAS URBANAS Y RÚSTICAS EN GENERAL; LA COMPRAVENTA Y ALQUILER O ARRENDAMIENTO, SALVO EL FINANCIERO, DE LAS MISMAS, YA SEA EN SU TOTALIDAD, YA POR PISOS O PLANTAS, EN SU CASO.\n",
      "mainEntityOfPage": "https://www.contratacion.euskadi.eus/webkpe00-kperoc/es/ac71aBusquedaRegistrosWar/empresa/09140",
      "_links": {
        "self": {
          "name": "AUDIDAT 3.0 SOCIEDAD LIMITADA",
          "href": "https://api.euskadi.eus/procurements/companies/09140"
        }
      }
    },
    {
      "name": "TECMENA, S.L.",
      "registrationNumber": "08807",
      "identificationNumber": "B79178059",
      "address": "CLARA DEL REY, 22 1ºb,",
      "location": {
        "postalCode": "28002",
        "municipality": "Madrid",
        "county": "Madrid",
        "municipalityId": "079",
        "countyId": "28"
      },
      "economicActivities": [
        {
          "id": "1.911",
          "name": "Servicios agrícolas y ganaderos",
          "_links": {
            "self": {
              "name": "Servicios agrícolas y ganaderos",
              "href": "https://api.euskadi.eus/procurements/companies/economic-activities/1.911"
            }
          }
        }
      ],
      "certificateStartDate": "2026-01-08",
      "certificateEndDate": "2026-06-16",
      "object": "LA REALIZACIÓN DE ESTUDIOS, PROYECTOS, TRABAJOS Y ACTIVIDADES DE TODO TIPO, RELACIONADOS CON EL SECTOR FORESTAL O DE JARDINERÍA, ASÍ COMO CUALQUIER OTRA ACTIVIDAD CONEXA O COMPLEMENTARIA DE LAS ANTERIORES DESTINADAS A LA DEFENSA Y RESTAURACIÓN DEL MEDIO AMBIENTE.",
      "mainEntityOfPage": "https://www.contratacion.euskadi.eus/webkpe00-kperoc/es/ac71aBusquedaRegistrosWar/empresa/08807",
      "_links": {
        "self": {
          "name": "TECMENA, S.L.",
          "href": "https://api.euskadi.eus/procurements/companies/08807"
        }
      }
    },
    {
      "name": "GRUPO CLAVE SERVICIOS LABORALES, S.L.",
      "registrationNumber": "07975",
      "identificationNumber": "B70304076",
      "address": "C/ BOLIVIA 1 1º DER",
      "location": {
        "postalCode": "15004",
        "municipality": "Coruña, A",
        "county": "Coruña, A",
        "municipalityId": "030",
        "countyId": "15"
      },
      "economicActivities": [
        {
          "id": "1.849.9",
          "name": "Otros servicios independientes n.c.o.p",
          "_links": {
            "self": {
              "name": "Otros servicios independientes n.c.o.p",
              "href": "https://api.euskadi.eus/procurements/companies/economic-activities/1.849.9"
            }
          }
        }
      ],
      "certificateStartDate": "2026-01-08",
      "certificateEndDate": "2026-06-13",
      "object": "-FORMACIÓN EN MATERIA LABORAL Y DE PREVENCIÓN DE RIESGOS LABORALES. –OFRECER SERVICIOS DE ASESORAMIENTO JURÍDICO Y GESTIÓN, COMPRENDIENDO TODAS LAS RAMAS DEL DERECHO, INCLUYENDO PREVENCIÓN DE RIESGOS LABORALES, ASESORÍA FISCAL, LABORAL, CIVIL, MERCANTIL, ADMINISTRATIVO, PENAL, DERECHO DEL TRÁFICO, RECUPERACIÓN DE CRÉDITOS MOROSOS, CREACIÓN DE EMPRESAS, CONSTITUCIÓN DE SOCIEDADES, PROPIEDAD INTELECTUAL, PROPIEDAD INDUSTRIAL, ASESORAMIENTO EN LA IMPLANTACIÓN DE LA LOPD Y TRAMITACIÓN DE EXPEDIENTES DE EXTRANJERÍA; INCLUYENDO REPRESENTACIÓN DE SOCIEDADES EN TODA CLASE DE NEGOCIOS Y CONTRATOS Y EN PROCEDIMIENTOS JUDICIALES DE CUALQUIER ÍNDOLE. –TENDRÁ ASIMISMO COMO ACTIVIDAD, ADQUIRIR POR CUALQUIER TÍTULO, DISFRUTAR O ENAJENAR, ACCIONES Y PARTICIPACIONES REPRESENTATIVAS DEL CAPITAL DE CUALQUIER TIPOS DE SOCIEDADES, CON EXCEPCIÓN DE LAS ACTIVIDADES CONTEMPLADAS EN LA LEY DE INSTITUCIONES DE INVERSIÓN COLECTIVA DE 26 DE DICIEMBRE DE 1.984 Y EN LA LEY DEL MERCADO DE VALORES DE 28 DE JULIO DE 1.988, DIRIGIENDO Y GESTIONANDO EL CONJUNTO DE ACTIVIDADES EMPRESARIALES DE DICHAS SOCIEDADES MEDIANTE LA CORRESPONDIENTE ORGANIZACIÓN DE MEDIOS PERSONALES Y MATERIALES.",
      "mainEntityOfPage": "https://www.contratacion.euskadi.eus/webkpe00-kperoc/es/ac71aBusquedaRegistrosWar/empresa/07975",
      "_links": {
        "self": {
          "name": "GRUPO CLAVE SERVICIOS LABORALES, S.L.",
          "href": "https://api.euskadi.eus/procurements/companies/07975"
        }
      }
    },
    {
      "name": "BULTZ-LAN CONSULTING, S.L.",
      "registrationNumber": "06058",
      "identificationNumber": "B48299028",
      "address": "ALCALDE UHAGON, 12 - 2º",
      "location": {
        "postalCode": "48010",
        "municipality": "Bilbao",
        "county": "Bizkaia",
        "municipalityId": "020",
        "countyId": "48"
      },
      "economicActivities": [
        {
          "id": "1.847",
          "name": "Servicios de consultoría",
          "_links": {
            "self": {
              "name": "Servicios de consultoría",
              "href": "https://api.euskadi.eus/procurements/companies/economic-activities/1.847"
            }
          }
        },
        {
          "id": "1.932.1",
          "name": "Enseñanza de formación y perfeccionamiento profesional no superior",
          "_links": {
            "self": {
              "name": "Enseñanza de formación y perfeccionamiento profesional no superior",
              "href": "https://api.euskadi.eus/procurements/companies/economic-activities/1.932.1"
            }
          }
        }
      ],
      "certificateStartDate": "2026-01-08",
      "certificateEndDate": "2026-07-08",
      "object": "LOS SERVICIOS DE ASESORAMIENTO JURÍDICO, FISCAL, CONTABLE Y FINANCIERO DE TODA CLASE DE ENTIDADES JURÍDICAS Y DE PERSONAS FÍSICAS. LOS SERVICIOS DE ORGANIZACIÓN, PLANIFICACIÓN Y ADMINISTRACIÓN DE EMPRESAS Y PARTICULARES. LOS SERVICIOS DE INFORMACIÓN ECONÓMICA, LA REVISIÓN DE CUENTAS Y ESTUDIOS DE CARÁCTER MERCANTIL, TRIBUTARIO Y LABORAL. LOS SERVICIOS DE REPRESENTACIÓN O MEDIACIÓN DE OPERACIONES FINANCIERAS Y DE INVERSIÓN",
      "mainEntityOfPage": "https://www.contratacion.euskadi.eus/webkpe00-kperoc/es/ac71aBusquedaRegistrosWar/empresa/06058",
      "_links": {
        "self": {
          "name": "BULTZ-LAN CONSULTING, S.L.",
          "href": "https://api.euskadi.eus/procurements/companies/06058"
        }
      }
    },
    {
      "name": "LABORATORIOS BROMATOLÓGICOS ARABA, S.A.U.",
      "registrationNumber": "01974",
      "identificationNumber": "A01052422",
      "address": "C/ VITORIABIDEA 14E (01010)",
      "location": {
        "postalCode": "01010",
        "municipality": "Vitoria-Gasteiz",
        "county": "Araba/Álava",
        "municipalityId": "059",
        "countyId": "01"
      },
      "economicActivities": [
        {
          "id": "1.933.9",
          "name": "Otras actividades de enseñanza tales como idiomas, mecanografía",
          "_links": {
            "self": {
              "name": "Otras actividades de enseñanza tales como idiomas, mecanografía",
              "href": "https://api.euskadi.eus/procurements/companies/economic-activities/1.933.9"
            }
          }
        },
        {
          "id": "1.936",
          "name": "Investigación científica y técnica",
          "_links": {
            "self": {
              "name": "Investigación científica y técnica",
              "href": "https://api.euskadi.eus/procurements/companies/economic-activities/1.936"
            }
          }
        }
      ],
      "certificateStartDate": "2026-01-08",
      "certificateEndDate": "2026-06-07",
      "object": "LA REALIZACIÓN DE ANÁLISIS MICROBIOLÓGICOS, FÍSICO-QUÍMICOS DE ALIMENTOS Y CLÍNICOS EN EL TERRITORIO HISTÓRICO DE ÁLAVA",
      "mainEntityOfPage": "https://www.contratacion.euskadi.eus/webkpe00-kperoc/es/ac71aBusquedaRegistrosWar/empresa/01974",
      "_links": {
        "self": {
          "name": "LABORATORIOS BROMATOLÓGICOS ARABA, S.A.U.",
          "href": "https://api.euskadi.eus/procurements/companies/01974"
        }
      }
    },
    {
      "name": "TALLERES GARBI, S.A.",
      "registrationNumber": "01059",
      "identificationNumber": "A48104764",
      "address": "C/ LEHENDAKARI AGUIRRE, Nº 99",
      "location": {
        "postalCode": "48970",
        "municipality": "Basauri",
        "county": "Bizkaia",
        "municipalityId": "015",
        "countyId": "48"
      },
      "economicActivities": [
        {
          "id": "1.654.1",
          "name": "Venta al por menor de vehículos terrestres",
          "_links": {
            "self": {
              "name": "Venta al por menor de vehículos terrestres",
              "href": "https://api.euskadi.eus/procurements/companies/economic-activities/1.654.1"
            }
          }
        },
        {
          "id": "1.691.2",
          "name": "Reparación de vehículos automóviles, bicicletas y otros vehículos",
          "_links": {
            "self": {
              "name": "Reparación de vehículos automóviles, bicicletas y otros vehículos",
              "href": "https://api.euskadi.eus/procurements/companies/economic-activities/1.691.2"
            }
          }
        },
        {
          "id": "1.722",
          "name": "Transporte de mercancías por carretera",
          "_links": {
            "self": {
              "name": "Transporte de mercancías por carretera",
              "href": "https://api.euskadi.eus/procurements/companies/economic-activities/1.722"
            }
          }
        }
      ],
      "certificateStartDate": "2026-01-08",
      "certificateEndDate": "2026-06-15",
      "classification": [
        {
          "id": "S",
          "name": "Servicios",
          "groups": [
            {
              "id": "Q",
              "subgroups": [
                {
                  "id": "02",
                  "name": "Mantenimiento y reparación de vehículos",
                  "categories": [
                    {
                      "id": "2",
                      "name": "Desde 150.001 Hasta 300.000",
                      "_links": {
                        "self": {
                          "name": "Desde 150.001 Hasta 300.000",
                          "href": "https://api.euskadi.eus/procurements/companies/types/S/categories/2"
                        }
                      }
                    }
                  ],
                  "_links": {
                    "self": {
                      "name": "Mantenimiento y reparación de vehículos",
                      "href": "https://api.euskadi.eus/procurements/companies/types/S/groups/Q/subgroups/02"
                    }
                  }
                }
              ],
              "_links": {
                "self": {
                  "href": "https://api.euskadi.eus/procurements/companies/types/S/groups/Q"
                }
              }
            }
          ],
          "_links": {
            "self": {
              "name": "Servicios",
              "href": "https://api.euskadi.eus/procurements/companies/types/S"
            }
          }
        }
      ],
      "object": "LA VENTA Y REPARACIÓN DE VEHÍCULOS DE MOTOR, TANTO EN SU ASPECTO MECÁNICO COMO DE CHAPA, ABARCANDO ASIMISMO SU OBJETO A LA VENTA DE REPUESTOS Y, EN GENERAL, CUALQUIER TIPO DE ACTIVIDAD RELACIONADA CON ESTA RAMA DE LA INDUSTRIA, SU TRANSFORMACIÓN Y COMERCIALIZACIÓN",
      "mainEntityOfPage": "https://www.contratacion.euskadi.eus/webkpe00-kperoc/es/ac71aBusquedaRegistrosWar/empresa/01059",
      "_links": {
        "self": {
          "name": "TALLERES GARBI, S.A.",
          "href": "https://api.euskadi.eus/procurements/companies/01059"
        }
      }
    }
  ]
}