{
  "totalItems": 9042,
  "totalPages": 905,
  "currentPage": 144,
  "itemsOfPage": 10,
  "items": [
    {
      "name": "MAINST REHABILITACIONES, S.L.",
      "registrationNumber": "10443",
      "identificationNumber": "B01910215",
      "address": "ERANDIOGOIKOA-URIBEÑA BIDEA, 7",
      "location": {
        "postalCode": "48950",
        "municipality": "Erandio",
        "county": "Bizkaia",
        "municipalityId": "902",
        "countyId": "48"
      },
      "economicActivities": [
        {
          "id": "1.501.3",
          "name": "Albañilería y pequeños trabajos de construcción en general",
          "_links": {
            "self": {
              "name": "Albañilería y pequeños trabajos de construcción en general",
              "href": "https://api.euskadi.eus/procurements/companies/economic-activities/1.501.3"
            }
          }
        },
        {
          "id": "1.722",
          "name": "Transporte de mercancías por carretera",
          "_links": {
            "self": {
              "name": "Transporte de mercancías por carretera",
              "href": "https://api.euskadi.eus/procurements/companies/economic-activities/1.722"
            }
          }
        }
      ],
      "certificateStartDate": "2025-11-24",
      "certificateEndDate": "2026-05-21",
      "object": "A) OTRAS ACTIVIDADES DE CONSTRUCCIÓN ESPECIALIZADA (CNAE: 4399-OTRAS ACTIVIDADES DE CONSTRUCCIÓN ESPECIALIZADA N.C.O.P.). B) LA INDUSTRIA DE TRANSPORTE TERRESTRE PRIVADO DE TODO TIPO DE MERCADERÍAS Y LA PRESTACIÓN DE SERVICIOS MEDIANTE LA UTILIZACIÓN DE VEHÍCULOS PROPIOS O AJENOS EN TANTO TALES SERVICIOS NO SE HALLEN SUJETOS A UNA LEGISLACIÓN ESPECIAL (CNAE: 4941-TRANSPORTE DE MERCANCÍAS POR CARRETERA): - LA ACTIVIDAD DEL TRANSPORTE EN GENERAL, PUDIENDO EXPLOTAR LÍNEAS REGULARES Y DISCRECIONALES DE ÁMBITO INTERNACIONAL, NACIONAL, COMARCAL, PROVINCIAL Y LOCAL, ASÍ COMO EL ESTABLECIMIENTO Y EXPLOTACIÓN DE AGENCIAS DE TRANSPORTE, APARCAMIENTOS, GARAJES, CENTROS DE ESTACIONES DE SERVICIOS O DE ASISTENCIA A VEHÍCULOS. – LA EXPLOTACIÓN BAJO CUALQUIER MODALIDAD LEGAL DE ESTACIONES DE SERVICIOS DE CARBURANTES, COMBUSTIBLES LÍQUIDOS Y LUBRICANTES, ASÍ COMO OTROS PRODUCTOS PARA LA AUTOMOCIÓN; LA DISTRIBUCIÓN Y VENTA DE TODO TIPO DE PRODUCTOS PETROLÍFEROS; LA REALIZACIÓN DE TODA TIPO DE SERVICIOS, EXPLOTACIÓN, ARRENDAMIENTO, IMPORTACIÓN, EXPORTACIÓN, PROMOCIÓN Y COMERCIALIZACIÓN DE TODA CLASE DE ARTÍCULOS, PRODUCTOS Y ESTABLECIMIENTOS EN GRANDES ÁREAS. – EL ALQUILER DE TODA CLASE DE VEHÍCULOS DE MOTOR, CON O SIN CONDUCTOR, LA IMPORTACIÓN, EXPORTACIÓN, COMPRA, VENTA, ALQUILER, DISTRIBUCIÓN, REPRESENTACIÓN Y CUALQUIER CLASE DE COMERCIO DE VEHÍCULOS A MOTOR, TANTO DE MARCAS NACIONALES COMO EXTRANJERAS, ASÍ COMO DE FABRICACIÓN NACIONAL O EXTRANJERA, LA AGENCIA DE SEGUROS DE AUTOMÓVILES Y EL LAVADO DE TODA CLASE DE VEHÍCULOS. – LA EXPLOTACIÓN DE UNA EMPRESA DEDICADA A LA REPARACIÓN DE VEHÍCULOS A MOTOR, TALLER MECÁNICO Y DE CHAPA Y PINTURA, MECANIZACIÓN DE PIEZAS, CURVADO DE TUBOS, ASISTENCIA DE VEHÍCULOS; LA COMPRA, VENTA, ALMACENAMIENTO, COMERCIALIZACIÓN, IMPORTACIÓN Y EXPORTACIÓN DE VEHÍCULOS A MOTOR Y SUS ACCESORIOS, TANTO EN MARCAS NACIONALES COMO EXTRANJERAS, ASÍ COMO DE FABRICACIÓN NACIONAL O EXTRANJERA, BAJO EL RÉGIMEN DIRECTO DE COMPRA O MEDIANTE CONTRATOS DE REPRESENTACIÓN, DISTRIBUCIÓN Y RÉGIMEN DE CONCESIÓN. – ADQUISICIÓN DE BIENES MUEBLES E INMUEBLES, FINCAS RÚSTICAS O URBANAS CUALQUIERA QUE FUERA SU NATURALEZA.",
      "mainEntityOfPage": "https://www.contratacion.euskadi.eus/webkpe00-kperoc/es/ac71aBusquedaRegistrosWar/empresa/10443",
      "_links": {
        "self": {
          "name": "MAINST REHABILITACIONES, S.L.",
          "href": "https://api.euskadi.eus/procurements/companies/10443"
        }
      }
    },
    {
      "name": "CAMPOMAR SUMINISTROS, S.L.",
      "registrationNumber": "10442",
      "identificationNumber": "B09391269",
      "address": "POLIGONO LA VEGA, AVD. BURGOS, 57",
      "location": {
        "postalCode": "09240",
        "municipality": "Briviesca",
        "county": "Burgos",
        "municipalityId": "056",
        "countyId": "09"
      },
      "economicActivities": [
        {
          "id": "1.653.3",
          "name": "Venta al por menor de artículos de menaje, ferretería, adorno, regalo",
          "_links": {
            "self": {
              "name": "Venta al por menor de artículos de menaje, ferretería, adorno, regalo",
              "href": "https://api.euskadi.eus/procurements/companies/economic-activities/1.653.3"
            }
          }
        },
        {
          "id": "1.654.2",
          "name": "Venta al por menor de accesorios, piezas de recambio de vehículos terrestres",
          "_links": {
            "self": {
              "name": "Venta al por menor de accesorios, piezas de recambio de vehículos terrestres",
              "href": "https://api.euskadi.eus/procurements/companies/economic-activities/1.654.2"
            }
          }
        },
        {
          "id": "1.692",
          "name": "Reparación de maquinaria industrial",
          "_links": {
            "self": {
              "name": "Reparación de maquinaria industrial",
              "href": "https://api.euskadi.eus/procurements/companies/economic-activities/1.692"
            }
          }
        },
        {
          "id": "1.851",
          "name": "Alquiler de maquinaria y equipo agrícola",
          "_links": {
            "self": {
              "name": "Alquiler de maquinaria y equipo agrícola",
              "href": "https://api.euskadi.eus/procurements/companies/economic-activities/1.851"
            }
          }
        }
      ],
      "certificateStartDate": "2025-11-24",
      "certificateEndDate": "2026-05-24",
      "object": "A) COMERCIO MAYOR Y MENOR DE ARTÍCULOS DE DECORACIÓN Y REGALO ASÍ COMO SU INSTALACIÓN. B) COMERCIO MAYOR Y MENOR DE ARTÍCULOS DE FERRETERÍA, ELECTRODOMÉSTICOS Y BISUTERÍA. C) COMERCIO MAYOR Y MENOR DE MAQUINARIA, ASÍ COMO ARTÍCULOS ACCESORIOS Y PIEZAS DE RECAMBIOS PARA VEHÍCULOS. D) LA EXPLOTACIÓN, TENENCIA Y DISFRUTE DE FINCAS, TANTO RÚSTICAS COMO URBANAS, ASÍ COMO EL TRÁFICO DE LAS MISMAS. ALQUILER Y REPARACIÓN DE MAQUINARIA Y HERRAMIENTA.",
      "mainEntityOfPage": "https://www.contratacion.euskadi.eus/webkpe00-kperoc/es/ac71aBusquedaRegistrosWar/empresa/10442",
      "_links": {
        "self": {
          "name": "CAMPOMAR SUMINISTROS, S.L.",
          "href": "https://api.euskadi.eus/procurements/companies/10442"
        }
      }
    },
    {
      "name": "VIVO INGENIERIA Y DESARROLLO S.L.",
      "registrationNumber": "09206",
      "identificationNumber": "B02871408",
      "address": "Calle Las Escuelas, nº 10 . Oficina13",
      "location": {
        "postalCode": "01001",
        "municipality": "Vitoria-Gasteiz",
        "county": "Araba/Álava",
        "municipalityId": "059",
        "countyId": "01"
      },
      "economicActivities": [
        {
          "id": "1.843.1",
          "name": "Servicios técnicos de ingeniería",
          "_links": {
            "self": {
              "name": "Servicios técnicos de ingeniería",
              "href": "https://api.euskadi.eus/procurements/companies/economic-activities/1.843.1"
            }
          }
        }
      ],
      "certificateStartDate": "2025-11-24",
      "certificateEndDate": "2026-05-18",
      "object": "-SERVICIOS TÉNICOS DE INGENIERÍA Y OTRAS ACTIVIDADES RELACIONADAS CON EL ASESORAMIENTO TÉCNICO. -CONSULTORÍA Y DESARROLLO DE PROYECTOS TÉCNICOS. -GESTIÓN DE CONTRATACIÓN, SUMINISTRO, FABRICACIÓN Y MONTAJE DE ESTRUCTURAS E INSTALACIONES RELACIONADOS CON EL SECTOR INDUSTRIAL Y ENERGÉTICO. -INGENIERÍA MECÁNICA POR CUENTA DE TERCEROS.-INGENIERÍA CIVIL. -ACTIVIDADES DE CONSULTORÍA DE GESTIÓN EMPRESARIAL. ASESORAMIENTO, ORIENTACIÓN Y ASISTENCIA PRESTADOS A LAS EMPRESAS Y OTRAS ORGANIZACIONES EN MATERIA DE ADMINISTRACIÓN, COMO LA PLANIFICACIÓN ORGANIZATIVA Y ESTRATÉGICA DE LA EMPRESA, REINGENIERÍA DE PROCESOS EMPRESARIALES O GESTIÓN DE CAMBIOS  EN LA EMPRESA. -ALQUILER DE MAQUINARIA Y EQUIPO PARA LA CONSTRUCCIÓN E INGENIERÍA CIVIL. -SERVICIOS DE ALQUILER Y ARRENDAMIENTO DE BIENES TANGIBLES O INTANGIBLES NO FINANCIEROS, INCLUÍDA UNA AMPLIA VARIEDAD DE BIENES TANGIBLES COMO LOS AUTOMÓVILES, LOS ORDENADORES, EQUIPO DE OFICINA, LOS BIENES DE CONSUMO Y LOS EQUIPOS DE MAQUINARIA INDUSTRIAL, ARRENDAMIENTO DE LA PROPIEDAD INTELECTUAL Y PRODUCTOS SIMILARES, EIXCEPTO TRABAJOS PROTEGIDOS POR LOS DERECHOS DE AUTOR; REALIZADO CON LOS CLIENTES A CAMBIO DE UN PAGO PERIÓDICO EN CONCEPTO DE ALQUILER O ARRENDAMIENTO O UN CANON POR USO. -LA COMPRAVENTA O PERMUTA, ADMINISTRACIÓN, GESTIÓN Y EXPLOTACIÓN DE TODO TIPO DE SOLARES, TERRENOS Y BIENES INIMUEBLES, SEAN ESTOS RÚSTICOS O URBANOS. LA PROMOCIÓN, PARCELACIÓN, REPARCELACIÓN, PLANIFICACIÓN, CONSTRUCCIÓN Y EDIFICACIÓN, POR SÍ MISMA O A TRAVÉS DE TERCEROS, TANTO EN SUELO RÚSTICO COMO URBANO, LLEVANDO A EFECTO URBANIZACIONES, SUS INSTALACIONES, ADECUACIONES AL MEDIO AMBIENTE, ZONAS DEPORTIVAS, COMERCIALES Y DE SERVICIOS. -LA PRESTACIÓN DE SERVICIOS DE GESTIÓN Y ADMINISTRACIÓN DE LAS EMPRESAS PARTICIPADAS, Y EN ESPECIAL, LAS DEL GRUPO EMPRESARIAL. LA ADQUISICIÓN, TENENCIA, DISFRUTE Y ADMINISTRACIÓN DE VALORES MOBILIARIOS Y CUALESQUIERA OTROS ACTIVOS FINANCIEROS, POR CUENTA PROPIA, EN TODO TIPO DE SOCIEDADES, DEJANDO SIEMPRE FUERA LAS ACTIVIDADES OBJETO DE LA LEGISLACIÓN DE INSTITUCIONES DE INVERSIÓN COLECTIVA Y DE MERCADO DE VALORES. LA PROMOCIÓN DE EMPRESAS, ENTENDIENDO POR ELLO TODOS LOS ESTUDIOS, GESTIONES, NEGOCIACIONES, ACTOS Y CONTRATOS QUE TENGA POR OBJETO LA CONSTITUCIÓN Y ESTABLECIMIENTO DE NUEVAS SOCIEDADES MERCANTILES CON ACTIVIDAD INDUSTRIAL, COMERCIAL, DE SERVICIOS Y FINANCIERA, ASÍ COMO TODAS LAS GESTIONES ORIENTADAS AL DESARROLLO, FUSIÓN, ESCISIÓN O CONSTITUCIÓN DE GRUPOS DE SOCIEDADES Y CONCENTRACIÓN DE EMPRESAS. -ACTIVIDADES INMOBILIARIAS. COMPRENDE EL EJERCICIO COMO ARRENDADOR, AGENTE O INTERMEDIARIO EN UNA O VARIAS DE LAS ACTIVIDADES COMO LO SON: VENTA O ADQUISICIÓN DE PROPIEDAD INMOBILIARIA, ALQUILER DE PROPIEDAD INMOBILIARIA, PROVISIÓN DE OTROS SERVICIOS RELACIONADOS CON LA PROPIEDAD INMOBILIARIA COMO LA TASACIÓN DE ÉSTA O EL EJERCICIO COMO AGENTE INMOBILIARIO FIDUCIARIO. LAS ACTIVIDADES DE ESTA SECCIÓN PUEDEN LLEVARSE A CABO CON BIENES PROPIOS O ARRENDADOS, POR CUENTA DE TERCEROS.",
      "mainEntityOfPage": "https://www.contratacion.euskadi.eus/webkpe00-kperoc/es/ac71aBusquedaRegistrosWar/empresa/09206",
      "_links": {
        "self": {
          "name": "VIVO INGENIERIA Y DESARROLLO S.L.",
          "href": "https://api.euskadi.eus/procurements/companies/09206"
        }
      }
    },
    {
      "name": "MIESA INGENIERÍA, S.A.",
      "registrationNumber": "05348",
      "identificationNumber": "A48145783",
      "address": "Avda. Ambrosio de los Heros, s/n",
      "location": {
        "postalCode": "48540",
        "municipality": "Abanto y Ciérvana-Abanto Zierbena",
        "county": "Bizkaia",
        "municipalityId": "002",
        "countyId": "48"
      },
      "economicActivities": [
        {
          "id": "1.504.11",
          "name": "Instalaciones eléctricas en general, redes telegráficas, telefonía, tv, etc",
          "_links": {
            "self": {
              "name": "Instalaciones eléctricas en general, redes telegráficas, telefonía, tv, etc",
              "href": "https://api.euskadi.eus/procurements/companies/economic-activities/1.504.11"
            }
          }
        }
      ],
      "certificateStartDate": "2025-11-24",
      "certificateEndDate": "2026-05-15",
      "object": "SERVICIOS DE PROYECCIÓN, MONTAJE Y MANTENIMIENTO DE INSTRUMENTACIÓN ELÉCTRICA Y MECÁNICA, INCLUIDAS LAS OPERACIONES DE COMPRA, TRANSFORMACIÓN Y VENTA DE TODO TIPO DE INSTRUMENTOS Y APARATOS ELÉCTRICOS Y MECÁNICOS",
      "mainEntityOfPage": "https://www.contratacion.euskadi.eus/webkpe00-kperoc/es/ac71aBusquedaRegistrosWar/empresa/05348",
      "_links": {
        "self": {
          "name": "MIESA INGENIERÍA, S.A.",
          "href": "https://api.euskadi.eus/procurements/companies/05348"
        }
      }
    },
    {
      "name": "COMPOSICIONES RALI, S.A.",
      "registrationNumber": "00100",
      "identificationNumber": "A48138655",
      "address": "C/ PARTICULAR DE COSTA, Nº 8 - 10, 7ª.",
      "location": {
        "postalCode": "48010",
        "municipality": "Bilbao",
        "county": "Bizkaia",
        "municipalityId": "020",
        "countyId": "48"
      },
      "economicActivities": [
        {
          "id": "1.474",
          "name": "Artes gráficas (impresión gráfica)",
          "_links": {
            "self": {
              "name": "Artes gráficas (impresión gráfica)",
              "href": "https://api.euskadi.eus/procurements/companies/economic-activities/1.474"
            }
          }
        },
        {
          "id": "1.475",
          "name": "Actividades anexas a las artes gráficas",
          "_links": {
            "self": {
              "name": "Actividades anexas a las artes gráficas",
              "href": "https://api.euskadi.eus/procurements/companies/economic-activities/1.475"
            }
          }
        },
        {
          "id": "1.476.1",
          "name": "Edición de libros",
          "_links": {
            "self": {
              "name": "Edición de libros",
              "href": "https://api.euskadi.eus/procurements/companies/economic-activities/1.476.1"
            }
          }
        }
      ],
      "certificateStartDate": "2025-11-24",
      "certificateEndDate": "2026-05-07",
      "object": "LA COMPOSICIÓN, TRATAMIENTO E INTEGRACIÓN DE TEXTOS E IMÁGENES, A PARTIR DE MANUSCRITOS O ARCHIVOS ELECTRÓNICOS, POR SISTEMAS MANUALES O INFORMÁTICOS. ESCANEO, RETOQUE DE COLOR POR ORDENADOR, E IMTEGRACIÓN DE IMÁGENES, DISEÑO Y MAQUETACIÓN, IMPOSICIÓN, FIRMACIÓN E IMPRESIÓN DE FOLETOS, CATÁLOGOS PUBLICITARIOS Y LIBROS. REALIZACIÓN DE APLICACIONES INFORMÁTICAS, Y REPLICACIONES, EN SOPORTES ELECTRÓNICOS (DISQUETES, CD-ROM, DISCOS ÓPTICOS, DVD).\r\n\r\nLA ADQUISICIÓN POR CUALQUIER TÍTULO DE FINCAS RÚSTICAS Y URBANAS, LA CONSTRUCCIÓN DE ÉSTAS Y LA ADMINISTRACIÓN, TENENCIA, EXPLOTACIÓN, Y ARRENDAMIENOT DE TALES BIENES, Y SU VENTA TOTAL O PARCIAL, SEGÚN CONVENGA, PARA SU APROVECHAMIENTO AGRÍCOLA, FORESTAL, URBANO, INDUSTRIAL O DE CUALQUIER OTRO.\r\n\r\nLA ADQUISICIÓN, CESIÓN, INVERSIÓN, TENENCIA, DISFRUTE, ADMINISTRACIÓN, GESTIÓN Y NEGOCIACIÓN EN GENERAL DE TODA CLASE DE TÍTULOS Y VALORES MOBILIARIOS, COTIZADOS EN BOLSA O NO, SIN INCIDIR EN LAS OPERACIONES A QUE SE REFIERE LA lEY 46/84 DE INVERSIONES COLECTIVAS.\r\n\r\nEL ALMACENAMIENTO, DEPÓSITO, DISTRIBUCIÓN, IMPORTACIÓN DE TODA CLASE DE MERCANCÍAS, PRODUCTOS, ARTÍCULOS Y MATERIAS DE TODAS CLASES Y EN GENERAL DE BIENES INMUEBLES.\r\n\r\nEL ASESORAMIENTO DE EMPRESAS, TANTO FISCAL COMO JURÍDICO-FINANCIERO O DE CUALQUIER OTRO TIPO; EL ESTUDIO, INVESTIGACIÓN, PROMOCIÓN Y PRESTACIÓN DE TODO TIPO DE SERVICIOS DE ASISTENCIA Y GESTIÓN, TÉCNICA, ADMINISTRATIVA, COMERCIAL Y CONTABLE.",
      "mainEntityOfPage": "https://www.contratacion.euskadi.eus/webkpe00-kperoc/es/ac71aBusquedaRegistrosWar/empresa/00100",
      "_links": {
        "self": {
          "name": "COMPOSICIONES RALI, S.A.",
          "href": "https://api.euskadi.eus/procurements/companies/00100"
        }
      }
    },
    {
      "name": "FIDES VITA, S.L.",
      "registrationNumber": "10441",
      "identificationNumber": "B95200812",
      "address": "LARRONDOBEKO ETORB. ED.5 NV.7",
      "location": {
        "postalCode": "48180",
        "municipality": "Loiu",
        "county": "Bizkaia",
        "municipalityId": "903",
        "countyId": "48"
      },
      "economicActivities": [
        {
          "id": "1.616.6",
          "name": "Venta al por mayor de productos químicos industriales",
          "_links": {
            "self": {
              "name": "Venta al por mayor de productos químicos industriales",
              "href": "https://api.euskadi.eus/procurements/companies/economic-activities/1.616.6"
            }
          }
        },
        {
          "id": "1.617.9",
          "name": "Venta al por mayor interindustrial de otros productos n.c.o.p",
          "_links": {
            "self": {
              "name": "Venta al por mayor interindustrial de otros productos n.c.o.p",
              "href": "https://api.euskadi.eus/procurements/companies/economic-activities/1.617.9"
            }
          }
        }
      ],
      "certificateStartDate": "2025-11-24",
      "certificateEndDate": "2026-05-21",
      "object": "LA COMERCIALIZACIÓN, COMPRAVENTA Y DISTRIBUCIÓN DE TODA CLASE DE PRODUCTOS DE LIMPIEZA INDUSTRIAL, ASÍ COMO LA COMPRAVENTA, ARRENDAMIENTO, REPARACIÓN Y MANTENIMIENTO DE TODA CLASE DE MAQUINARIA DE LIMPIEZA INDUSTRIAL.",
      "mainEntityOfPage": "https://www.contratacion.euskadi.eus/webkpe00-kperoc/es/ac71aBusquedaRegistrosWar/empresa/10441",
      "_links": {
        "self": {
          "name": "FIDES VITA, S.L.",
          "href": "https://api.euskadi.eus/procurements/companies/10441"
        }
      }
    },
    {
      "name": "CONSULTORES DE GESTIÓN PÚBLICA SL",
      "registrationNumber": "06209",
      "identificationNumber": "B81823809",
      "address": "Casp Nº 78 4ª - 3ª",
      "location": {
        "postalCode": "08010",
        "municipality": "Barcelona",
        "county": "Barcelona",
        "municipalityId": "019",
        "countyId": "08"
      },
      "economicActivities": [
        {
          "id": "1.849.9",
          "name": "Otros servicios independientes n.c.o.p",
          "_links": {
            "self": {
              "name": "Otros servicios independientes n.c.o.p",
              "href": "https://api.euskadi.eus/procurements/companies/economic-activities/1.849.9"
            }
          }
        },
        {
          "id": "1.934",
          "name": "Enseñanza fuera de establecimiento permanente",
          "_links": {
            "self": {
              "name": "Enseñanza fuera de establecimiento permanente",
              "href": "https://api.euskadi.eus/procurements/companies/economic-activities/1.934"
            }
          }
        }
      ],
      "certificateStartDate": "2025-11-24",
      "certificateEndDate": "2026-05-23",
      "object": "LAS ACTIVIDADES, SERVICIOS, TRABAJOS DE INVESTIGACIÓN, CONSULTORÍA Y FORMACIÓN ENCAMINADOS AL DESARROLLO Y MEJORA DEL FUNCIONAMIENTO DE ORGANIZACIONES PÚBLICAS EN EMPRESAS PÚBLICAS Y PRIVADAS, MEDIANTE LA CREACIÓN Y DIFUSIÓN DE MÉTODOS Y PROCEDIMIENTOS ADECUADOS A LAS CIRCUNSTANCIAS, TALES COMO: INTERVENCIONES DIRECTAS QUE COMPRENDEN OPERACIONES DE ANÁLISIS, DISEÑO E IMPLANTACIÓN ORGANIZATIVA Y TECNOLÓGICA, EN EL SENO DE LAS INSTITUCIONES. DISEÑO DE ESTRUCTURAS Y DE SISTEMAS DE GOBIERNO Y DIRECCIÓN, ASESORAMIENTO PARA LA NEGOCIACIÓN Y FORMALIZACIÓN DE EQUIPOS Y COALICIONES DE GOBIERNO, ELABORACIÓN DE REGLAMENTOS INTERNOS, AYUDA EN LA TOMA DE DECISIONES. DIAGNÓSTICO Y PLANES DE MEJORA DE LA DIRECCIÓN DE PERSONAL, VALORACIÓN DE PUESTOS DE TRABAJO, DISEÑO DE SISTEMAS DE RETRIBUCIÓN, DE CATÁLOGOS DE PUESTOS DE TRABAJO, SELECCIÓN DE PERSONAL, DESARROLLO DE COMPETENCIAS PERSONALES, EVALUACIÓN DEL DESEMPEÑO, ASISTENCIA EN PROCESOS DE NEGOCIACIÓN COLECTIVA Y RELACIONES LABORALES. ACTIVIDADES FORMATIVAS E INFORMATIVAS QUE COMPRENDEN CURSOS DE APRENDIZAJE Y SEMINARIOS, SESIONES DE DEBATE, REFLEXIÓN E INFORMACIÓN. PUBLICACIÓN DE MANUALES ORGANIZATIVOS Y DE APLICACIONES INFORMÁTICAS, QUE PERMITAN A LAS INSTITUCIONES PONER EN PRÁCTICA MEJORAS ORGANIZATIVAS. DESARROLLO Y EXPLOTACIÓN DE ENTORNOS DE FORMACIÓN VIRTUAL. ANÁLISIS, DISEÑO Y EVALUACIÓN DE SERVICIOS Y POLÍTICAS PÚBLICAS, PLANIFICACIÓN ESTRATÉGICA, CONTROL DE GESTIÓN. MANTENIMIENTO, DESARROLLO, IMPLEMENTACIÓN, CREACIÓN, ADECUACIÓN Y COMERCIALIZACIÓN DE APLICACIONES INFORMÁTICAS DE TODO TIPO. PUBLICACIÓN DE MANUALES Y DOCUMENTOS DE TRABAJO, SOBRE CUESTIONES TÉCNICAS, JURÍDICAS, ORGANIZATIVAS, METODOLÓGICAS Y DE DIFUSIÓN DE EXPERIENCIAS. LAS ACTIVIDADES RELACIONADAS CON LAS ANTERIORES QUE LA EVOLUCIÓN TECNOLÓGICA Y SOCIAL HAGA ACONSEJABLE PARA LA CONSECUCIÓN DEL FIN SOCIAL PERSEGUIDO. LA ADQUISICIÓN, EXPLOTACIÓN Y ENAJENACIÓN DE BIENES INMUEBLES. Y EL ASESORAMIENTO JURÍDICO VERBAL Y POR ESCRITO, MATERIALIZÁNDOSE, ENTRE OTROS, EN LA EMISIÓN DE NOTAS, DICTÁMENES E INFORMES JURÍDICOS ASÍ COMO LA ASISTENCIA LETRADA EN LAS MATERIAS DE RECURSOS HUMANOS, PROCEDIMIENTO ADMINISTRATIVO, Y CONTRATACIÓN PÚBLICA, CALIDAD Y MEJORA ORGANIZATIVA, ATENCIÓN A LA CIUDADANÍA Y CALIDAD. EL CNAE DE LA ACTIVIDAD PRINCIPAL DE ESTA SOCIEDAD ES EL 7022-OTRAS ACTIVIDADES DE CONSULTORÍA DE GESTIÓN EMPRESARIAL\r\n",
      "mainEntityOfPage": "https://www.contratacion.euskadi.eus/webkpe00-kperoc/es/ac71aBusquedaRegistrosWar/empresa/06209",
      "_links": {
        "self": {
          "name": "CONSULTORES DE GESTIÓN PÚBLICA SL",
          "href": "https://api.euskadi.eus/procurements/companies/06209"
        }
      }
    },
    {
      "name": "SUSPERGINTZA, ASOCIACION DE INTERVENCION SOCIAL",
      "registrationNumber": "01553",
      "identificationNumber": "G48264030",
      "address": "C/ SIMÓN BOLÍVAR, Nº 8 B.",
      "location": {
        "postalCode": "48010",
        "municipality": "Bilbao",
        "county": "Bizkaia",
        "municipalityId": "020",
        "countyId": "48"
      },
      "economicActivities": [
        {
          "id": "1.683.1",
          "name": "SERVICIO DE HOSTELERIA EN FONDAS Y CASAS DE HUESPEDES                         ",
          "_links": {
            "self": {
              "name": "SERVICIO DE HOSTELERIA EN FONDAS Y CASAS DE HUESPEDES                         ",
              "href": "https://api.euskadi.eus/procurements/companies/economic-activities/1.683.1"
            }
          }
        },
        {
          "id": "1.951",
          "name": "Asistencia y servicios sociales en centros residenciales",
          "_links": {
            "self": {
              "name": "Asistencia y servicios sociales en centros residenciales",
              "href": "https://api.euskadi.eus/procurements/companies/economic-activities/1.951"
            }
          }
        },
        {
          "id": "1.952",
          "name": "Asistencia y servicios sociales en centros no residenciales",
          "_links": {
            "self": {
              "name": "Asistencia y servicios sociales en centros no residenciales",
              "href": "https://api.euskadi.eus/procurements/companies/economic-activities/1.952"
            }
          }
        }
      ],
      "certificateStartDate": "2025-11-23",
      "certificateEndDate": "2026-05-21",
      "object": "1. PROMOVER Y DEFENDER LA IGUALDAD DE OPORTUNIDADES Y PLENA CIUDADANÍA DE LAS PERSONAS Y COLECTIVOS, INCIDIENDO EN LA INCLUSIÓN DE AQUELLOS COLECTIVOS EN SITUACIÓN MÁS DESFAVORECIDA, DESDE EL DESARROLLO DE PROGRAMAS DE INTERVENCIÓN SOCIAL, EDUCATIVA Y CULTURAL, QUE CONTRIBUYAN A PROPICIAR UNA SOCIEDAD PARTICIPATIVA Y SOLIDARIA. 2.- INVESTIGAR EN EL CAMPO DE LA ANIMACIÓN SOCIOCULTURAL, DE LA EDUCACIÓN EN EL TIEMPO LIBRE, DE LOS SERVICIOS SOCIALES, DEL MEDIO AMBIENTE Y LA EDUCACIÓN PARA LA SOSTENIBILIDAD. 3.- PROPONER, OFERTAR Y GESTIONAR PROYECTOS Y SERVICIOS DENTRO DEL CAMPO DE LOS SERVICIOS SOCIALES, CULTURALES Y EDUCATIVOS Y EN ESPECIAL DE LA ANIMACIÓN SOCIOCULTURAL Y  DE LA EDUCACIÓN EN EL TIEMPO LIBRE PARA ASOCIACIONES, ENTIDADES PÚBLICAS Y/O PRIVADAS, PRESTANDO ESPECIAL ATENCIÓN A LOS SIGUIENTES ÁMBITOS DE INTERVENCIÓN: INFORMACIÓN JUVENIL, GESTIÓN DE EQUIPAMIENTOS CULTURALES, GESTIÓN DE ALBERGUES Y OTRAS INFRAESTRUCTURAS, ETC. 4.- TRABAJAR EN LA PROMOCIÓN E INCLUSIÓN DE COLECTIVOS DESFAVORECIDOS, CON ATENCIÓN ESPECIAL A : INFANCIA, ADOLESCENCIA Y JUVENTUD, TERCERA EDAD, MUJER MARGINADA, PERSONAS EX-TOXICÓMANAS, POBLACIÓN INMIGRANTE, PERSONAS CON DISPCAPACIDAD, PERSONAS SIN TECHO, ETC...5.- FOMENTAR LA IGUALDAD DE OPORTUNIDADES Y TRABAJAR EN Y PARA LA PROMOCIÓN DE LA MUJER. 6.- LA PROMOCIÓN DEL EMPLEO Y LA INSERCIÓN SOCIOLABORAL DE LAS PERSONAS CON DIFICULTADES DE ACCESO AL MERCADO LABORAL, PROMOVIENDO PARA ELLO, SI ES PRECISO, LA CONSTITUCIÓN DE EMPRESAS DE INSERCIÓN. 7.- FACILITAR EL ACCESO DE LOS DISTINTOS AGENTES A PROGRAMAS, RECURSOS Y MATERIALES EDUCATIVOS ADECUADOS PARA LA REGULACIÓN DE CONFLICTOS, LA EDUCACIÓN EN VALORES Y CULTURA DE PAZ Y LOS DERECHOS HUMANOS. 8.- TRABAJAR POR LA MEJORA Y RECUPERACIÓN DEL MEDIO AMBIENTE, ENTENDIDO ÉSTE COMO EL COMPENDIO DE VALORES NATURALES, SOCIALES Y CULTURALES; INTERVINIENDO Y DESARROLLANDO PROYECTOS EDUCATIVOS Y SOCIALES DE CARÁCTER MEDIOAMBIENTAL. 9.- POTENCIAR LA CULTURA EUSKALDUN, CON ESPECIAL ATENCIÓN AL EUSKERA. 10.- LA DIFUSIÓN Y PROMOCIÓN DE LA INNOVACIÓN. 10.- FOMENTAR LA ECONOMÍA SOCIAL Y EL DESARROLLO SOLIDARIO DE LOS PUEBLOS. 11.- POTENCIAR EL TRABAJO EN RED Y EL ENTRAMADO DE LA SOCIEDAD CIVIL A TRAVÉS DE LA COORDINACIÓN CON OTRAS ORGANIZACIONES SIMILARES, CON ESPECIAL SENSIBILIDAD A ESTABLECER RELACIONES CON ENTIDADES DE PAÍSES DESFAVORECIDOS Y EN VÍAS DE DESARROLLO. 12.- ENCAUZAR, A TRAVÉS DE LA ASOCIACIÓN,  AQUELLOS OTROS FINES QUE, CON EL TRANSCURSO DEL TIEMPO Y CON LA EXPERIENCIA ADQUIRIDA PAREZCA CONVENIENTE ASUMIR, DENTRO DEL ESPÍRITU Y EL CARÁCTER QUE SE CONTIENEN EN ESTOS ESTATUTOS",
      "mainEntityOfPage": "https://www.contratacion.euskadi.eus/webkpe00-kperoc/es/ac71aBusquedaRegistrosWar/empresa/01553",
      "_links": {
        "self": {
          "name": "SUSPERGINTZA, ASOCIACION DE INTERVENCION SOCIAL",
          "href": "https://api.euskadi.eus/procurements/companies/01553"
        }
      }
    },
    {
      "name": "JOYERIA ZULUAGA, S.A.",
      "registrationNumber": "09122",
      "identificationNumber": "A02876654",
      "address": "C/ JUAN BAUTISTA URIARTE 49",
      "location": {
        "postalCode": "48960",
        "municipality": "Galdakao",
        "county": "Bizkaia",
        "municipalityId": "036",
        "countyId": "48"
      },
      "economicActivities": [
        {
          "id": "1.619.3",
          "name": "Venta al por mayor de metales preciosos, artículos de joyería, bisutéría",
          "_links": {
            "self": {
              "name": "Venta al por mayor de metales preciosos, artículos de joyería, bisutéría",
              "href": "https://api.euskadi.eus/procurements/companies/economic-activities/1.619.3"
            }
          }
        }
      ],
      "certificateStartDate": "2025-11-22",
      "certificateEndDate": "2026-05-20",
      "object": "COMPRAVENTA AL POR MAYOR Y AL POR MENOR DE TODO TIPO DE PRODUCTOS DE RELOJERÍA, JOYERÍA, BISUTERÍA Y COMPLEMENTOS TANTO PARA HOMBRE COMO PARA SEÑORA, ASÍ COMO SU REPARACIÓN, FABRICACIÓN Y ELABORACIÓN. SERVICIO DE JOYERÍA: DISEÑO, ALEACIÓN, LAMINADO, TREFILADO, ENTORCHADO, ARMADO, TEJIDO, SOLDADO, BLANQUEADO, ACABADO, LAVADO, EMPACADO DE JOYAS, SORTIJAS, CADENAS, PULSERAS, RELOJES EN ORO, PLATA, BRONCE, ACERO Y AFINES. DISEÑO Y ELABORACIÓN DE ARTÍCULOS Y PRODUCTOS DE JOYERÍA, BISUTERÍA Y RELOJERÍA. IMPORTACIÓN, EXPORTACIÓN, COMERCIALIZACIÓN, DISTRIBUCIÓN Y REPRESENTACIÓN COMERCIAL DE ORO Y OTROS MATERIALES PRECIOSOS, SUMINISTROS PARA LA JOYERÍA Y BISUTERÍA. IMPORTACIÓN, EXPORTACIÓN, COMERCIALIZACIÓN, DISTRIBUCIÓN U REPRESENTACIÓN COMERCIAL DE REPUESTOS, EQUIPOS Y MAQUINARIA PARA LA INDUSTRIA JOYERA. SERVICIO DE CAPACITACIÓN MEDIANTE TALLERES DE MANUALIDADES EN JOYERÍA Y BISUTERÍA.",
      "mainEntityOfPage": "https://www.contratacion.euskadi.eus/webkpe00-kperoc/es/ac71aBusquedaRegistrosWar/empresa/09122",
      "_links": {
        "self": {
          "name": "JOYERIA ZULUAGA, S.A.",
          "href": "https://api.euskadi.eus/procurements/companies/09122"
        }
      }
    },
    {
      "name": "LAIA KOOPERATIBA ELKARTE TXIKIA",
      "registrationNumber": "06482",
      "identificationNumber": "F20852018",
      "address": "Martina Maiz Kalea 3, 3. bulegoa (20200)",
      "location": {
        "postalCode": "20200",
        "municipality": "Beasain",
        "county": "Gipuzkoa",
        "municipalityId": "019",
        "countyId": "20"
      },
      "economicActivities": [
        {
          "id": "1.843.9",
          "name": "Otros servicios técnicos n.c.o.p",
          "_links": {
            "self": {
              "name": "Otros servicios técnicos n.c.o.p",
              "href": "https://api.euskadi.eus/procurements/companies/economic-activities/1.843.9"
            }
          }
        },
        {
          "id": "1.933.9",
          "name": "Otras actividades de enseñanza tales como idiomas, mecanografía",
          "_links": {
            "self": {
              "name": "Otras actividades de enseñanza tales como idiomas, mecanografía",
              "href": "https://api.euskadi.eus/procurements/companies/economic-activities/1.933.9"
            }
          }
        }
      ],
      "certificateStartDate": "2025-11-21",
      "certificateEndDate": "2026-05-17",
      "object": "LOS SERVICIOS DE ASESORÍA, FORMACIÓN Y REALIZACIÓN DE PROYECTOS RELACIONADOS CON EL DESARROLLO SOSTENIBLE, MEDIO AMBIENTE, CALIDAD, SEGURIDAD Y PREVENCIÓN DE RIESGOS LABORALES",
      "mainEntityOfPage": "https://www.contratacion.euskadi.eus/webkpe00-kperoc/es/ac71aBusquedaRegistrosWar/empresa/06482",
      "_links": {
        "self": {
          "name": "LAIA KOOPERATIBA ELKARTE TXIKIA",
          "href": "https://api.euskadi.eus/procurements/companies/06482"
        }
      }
    }
  ]
}