{
  "totalItems": 9042,
  "totalPages": 905,
  "currentPage": 149,
  "itemsOfPage": 10,
  "items": [
    {
      "name": "GEFEPRO, S.L.",
      "registrationNumber": "10435",
      "identificationNumber": "B20587796",
      "address": "C/ Gabiria, 2 VSQ",
      "location": {
        "postalCode": "20305",
        "municipality": "Irun",
        "county": "Gipuzkoa",
        "municipalityId": "045",
        "countyId": "20"
      },
      "economicActivities": [
        {
          "id": "1.651.5",
          "name": "Venta al por menor de prendas especiales",
          "_links": {
            "self": {
              "name": "Venta al por menor de prendas especiales",
              "href": "https://api.euskadi.eus/procurements/companies/economic-activities/1.651.5"
            }
          }
        }
      ],
      "certificateStartDate": "2025-11-20",
      "certificateEndDate": "2026-05-20",
      "object": "LA VENTA AL POR MENOR DE VESTUARIO Y MATERIAL DE PROTECCIÓN LABORAL.",
      "mainEntityOfPage": "https://www.contratacion.euskadi.eus/webkpe00-kperoc/es/ac71aBusquedaRegistrosWar/empresa/10435",
      "_links": {
        "self": {
          "name": "GEFEPRO, S.L.",
          "href": "https://api.euskadi.eus/procurements/companies/10435"
        }
      }
    },
    {
      "name": "FX-MEDIA AUDIO VIDEO, S.L.",
      "registrationNumber": "04692",
      "identificationNumber": "B01438951",
      "address": "Calle Lapurdi nº4, lonja ",
      "location": {
        "postalCode": "48960",
        "municipality": "Galdakao",
        "county": "Bizkaia",
        "municipalityId": "036",
        "countyId": "48"
      },
      "economicActivities": [
        {
          "id": "1.961.1",
          "name": "Producción de películas cinematográficas (incluso vídeos)",
          "_links": {
            "self": {
              "name": "Producción de películas cinematográficas (incluso vídeos)",
              "href": "https://api.euskadi.eus/procurements/companies/economic-activities/1.961.1"
            }
          }
        },
        {
          "id": "1.961.2",
          "name": "Doblaje y montaje de películas",
          "_links": {
            "self": {
              "name": "Doblaje y montaje de películas",
              "href": "https://api.euskadi.eus/procurements/companies/economic-activities/1.961.2"
            }
          }
        }
      ],
      "certificateStartDate": "2025-11-20",
      "certificateEndDate": "2026-04-30",
      "object": "A) LA PRODUCCIÓN Y PRESTACIÓN DE SERVICIOS RELACIONADOS OCN LA ACTIVIDAD AUDIOVISUAL, DE VIDEOS Y DE PELÍCULAS CINEMATOGRÁFICAS, ASÍ COMO LA VENTA, REPRODUCCIÓN Y ALQUILER DE LAS PELÍCULAS PRODUCIDAS. B) LA PRESTACIÓN DE SERVICIOS AUDIOVISUALES Y TÉCNICOS DE SONIDO. C) LA RETRANSMISIÓN DE CUALQUIER TIPO DE EVENTO. D) LA COMPRA, VENTA Y ALQUILER DE MAQUINARIA RELACIONADA CON LA ACTIVIDAD AUDIOVISUAL Y VIDEOS",
      "mainEntityOfPage": "https://www.contratacion.euskadi.eus/webkpe00-kperoc/es/ac71aBusquedaRegistrosWar/empresa/04692",
      "_links": {
        "self": {
          "name": "FX-MEDIA AUDIO VIDEO, S.L.",
          "href": "https://api.euskadi.eus/procurements/companies/04692"
        }
      }
    },
    {
      "name": "FRANCISCO JAVIER ALVARO BRAVO",
      "registrationNumber": "08407",
      "identificationNumber": "30581502N",
      "address": "Avda Zumalacarregui 93",
      "location": {
        "postalCode": "48007",
        "municipality": "Bilbao",
        "county": "Bizkaia",
        "municipalityId": "020",
        "countyId": "48"
      },
      "economicActivities": [
        {
          "id": "1.612.2",
          "name": "Venta al por mayor de cereales",
          "_links": {
            "self": {
              "name": "Venta al por mayor de cereales",
              "href": "https://api.euskadi.eus/procurements/companies/economic-activities/1.612.2"
            }
          }
        },
        {
          "id": "1.652.1",
          "name": "Farmacias",
          "_links": {
            "self": {
              "name": "Farmacias",
              "href": "https://api.euskadi.eus/procurements/companies/economic-activities/1.652.1"
            }
          }
        },
        {
          "id": "1.861.2",
          "name": "Alquiler de locales industriales y otros alquileres n.c.o.p",
          "_links": {
            "self": {
              "name": "Alquiler de locales industriales y otros alquileres n.c.o.p",
              "href": "https://api.euskadi.eus/procurements/companies/economic-activities/1.861.2"
            }
          }
        }
      ],
      "certificateStartDate": "2025-11-20",
      "certificateEndDate": "2026-05-20",
      "object": "VENTA AL POR MAYOR DE CEREALES. FARMACIAS. ALQUILER DE LOCALES INDUSTRIALES Y OTROS ALQUILERES N.C.O.P.",
      "mainEntityOfPage": "https://www.contratacion.euskadi.eus/webkpe00-kperoc/es/ac71aBusquedaRegistrosWar/empresa/08407",
      "_links": {
        "self": {
          "name": "FRANCISCO JAVIER ALVARO BRAVO",
          "href": "https://api.euskadi.eus/procurements/companies/08407"
        }
      }
    },
    {
      "name": "AROMA  BOUQUET, S.L.",
      "registrationNumber": "10434",
      "identificationNumber": "B01522556",
      "address": "Calle Oreitiasolo (01006) 3, Pabellón 1 y 2",
      "location": {
        "postalCode": "01006",
        "municipality": "Vitoria-Gasteiz",
        "county": "Araba/Álava",
        "municipalityId": "059",
        "countyId": "01"
      },
      "economicActivities": [
        {
          "id": "1.612.1",
          "name": "Venta al por mayor de toda clase de productos alimenticios, bebidas, tabaco",
          "_links": {
            "self": {
              "name": "Venta al por mayor de toda clase de productos alimenticios, bebidas, tabaco",
              "href": "https://api.euskadi.eus/procurements/companies/economic-activities/1.612.1"
            }
          }
        }
      ],
      "certificateStartDate": "2025-11-20",
      "certificateEndDate": "2026-05-20",
      "object": "COMERCIO AL MAYOR, MENOR, IMPORTACIÓN, EXPORTACIÓN Y FABRICACIÓN DE TODO TIPO DE ARTÍCULOS Y PRODUCTOS DE ALIMENTACIÓN Y BEBIDAS. NEGOCIOS DE HOSTELERÍA, RESTAURANTES, CAFETERÍAS, SALAS DE FIESTAS, DISCOTECAS Y PUBS. COMERCIO AL MAYOR, MENOR, IMPORTACIÓN, EXPORTACIÓN, FABRICACIÓN, DISTRIBUCIÓN, PLATOS PREPARADOS COCINADOS, ALIMENTACIÓN, CONFITERÍA, PASTELERÍA, BOLLERÍA, REPOSTERÍA, HELADERÍA, PLATOS COCINADOS, PAN DE TODAS CLASES, PRODUCTOS LÁCTEOS, PRODUCTOS DE APERITIVO, FRUTOS SECOS, GOLOSINAS, BEBIDAS. TENENCIA, ADMINISTRACIÓN, ADQUISICIÓN Y ENAJENACIÓN DE VALORES MOBILIARIOS Y PARTICIPACIONES SOCIALES DE EMPRESAS, RESPETANDO, EN TODO, LA NORMATIVA DE LA LEY DEL MERCADO DE VALORES. SE EXCLUYEN EXPRESAMENTE LAS ACTIVIDADES REGULADAS EN LA LEGISLACIÓN DE INSTITUCIONES DE INVERSIÓN COLECTIVA Y MERCADO DE VALORES.",
      "mainEntityOfPage": "https://www.contratacion.euskadi.eus/webkpe00-kperoc/es/ac71aBusquedaRegistrosWar/empresa/10434",
      "_links": {
        "self": {
          "name": "AROMA  BOUQUET, S.L.",
          "href": "https://api.euskadi.eus/procurements/companies/10434"
        }
      }
    },
    {
      "name": "ARABAKO BERTSOZALE ELKARTEA",
      "registrationNumber": "07079",
      "identificationNumber": "G01151414",
      "address": "Benito Perez Galdos z/g",
      "location": {
        "postalCode": "01002",
        "municipality": "Vitoria-Gasteiz",
        "county": "Araba/Álava",
        "municipalityId": "059",
        "countyId": "01"
      },
      "economicActivities": [
        {
          "id": "1.932.1",
          "name": "Enseñanza de formación y perfeccionamiento profesional no superior",
          "_links": {
            "self": {
              "name": "Enseñanza de formación y perfeccionamiento profesional no superior",
              "href": "https://api.euskadi.eus/procurements/companies/economic-activities/1.932.1"
            }
          }
        },
        {
          "id": "1.966.9",
          "name": "Otros servicios culturales n.c.o.p",
          "_links": {
            "self": {
              "name": "Otros servicios culturales n.c.o.p",
              "href": "https://api.euskadi.eus/procurements/companies/economic-activities/1.966.9"
            }
          }
        }
      ],
      "certificateStartDate": "2025-11-20",
      "certificateEndDate": "2026-05-11",
      "object": "HELBURU NAGUSIA, BERTSOLARITZAREN SUSTATZAILE ETA BABESLE IZATEA DA ETA BERTSOLARITZAREN AHALEGINETIK EUSKARAREN DEFENTSAN ETA NORMALKUNTZA JARDUERAN LANKIDE BILAKATZEA: 1. BERTSOLARITZAREN INGURUAN MUGIMENDU BAT BULTZATUZ, ETA HORRETARAKO BEHARREZKO DIREN EKIMENAK BIDERATUZ. 2. BERTSO ESKOLEK BEHAR DUTEN KOORDINAZIO EGITURA, LAGUNTZA DIDAKTIKO ETA GAINETIKOAK ESKAINIZ. 3. BERTSOLARITZAK BERE OHIKO IHARDUNEAN SORTU DITZAKEEN DESOREKEN AURREAN PARTE HARTUZ: ANTOLAKUNtZA, GAI-JARTZE, SAIOEN EGITURA, AURKEZPEN-LANAK,...4. PROBINTZIA MAILAKO TXAPELKETAREN ANTOLAKUNTZA BERE GAIN HARTUZ. 5. EUSKAL KULTURGINTZAN ETA EUSKARAREN NORMALKUNTZA LANETAN DIHARDUTEN ELKARTEEKIN ETA BERDIN HERRI ERAKUNDEEKIN ELKARLANEAN LOTUZ. 6. BERTSOGINTZAK ETA BERTSOLARITZAK SORTU DEZAKEEN ONDAREA BILKETA ZEREGINETAN, BESTE ELKARTE KIDEEKIN KOORDINATURIK LAN EGINEZ. HELBURU HORIEK LORTZEKO, JARDUERA HAUEK EGINGO DIRA, EZARRITAKO LEGEZKO BETEKIZUNAK BETE ONDOREN: -TXAPELKETAK, SARIKETAK. -BERTSO-ESKOLAK. -IKASTAROAK. -JARDUNALDIAK. -ETA SUSTAPENERAKO, TRANSMISIORAKO ETA IKERKUNTZARAKO JARDUERAK. AURREKO IDATZ-ZATIAN AZALDUTAKO JARDUERAK GORABEHERA, ELKARTEAK, BERE XEDEAK BETETZEKO, HONAKO HAUEK EGIN AHALKO DITU: -HELBURUAK BETETZEKO EDO HORRETARAKO BALIABIDEAK BILTZEKO ERA GUZTIETAKO JARDUERA EKONOMIKOAK GAUZATU. - ERA GUZTIETAKO ONDASUNAK EDOZEIN TITULUREN BIDEZ ESKURATU ETA EDUKI, ETA MOTA GUZTIETAKO EGINTZAK ETA KONTRATUAK EGIN. -NOLANAHIKO EKINTZAK BURUTU, BETIERE LEGEEKIN ETA ESTATUTUEKIN BAT ETORTZEKOTAN",
      "mainEntityOfPage": "https://www.contratacion.euskadi.eus/webkpe00-kperoc/es/ac71aBusquedaRegistrosWar/empresa/07079",
      "_links": {
        "self": {
          "name": "ARABAKO BERTSOZALE ELKARTEA",
          "href": "https://api.euskadi.eus/procurements/companies/07079"
        }
      }
    },
    {
      "name": "FDET ABOGADOS ASOCIADOS, S.L.P.",
      "registrationNumber": "06401",
      "identificationNumber": "B01506286",
      "address": "Manuel Iradier, 3 bajo - derecha",
      "location": {
        "postalCode": "01005",
        "municipality": "Vitoria-Gasteiz",
        "county": "Araba/Álava",
        "municipalityId": "059",
        "countyId": "01"
      },
      "economicActivities": [
        {
          "id": "1.841",
          "name": "Servicios jurídicos",
          "_links": {
            "self": {
              "name": "Servicios jurídicos",
              "href": "https://api.euskadi.eus/procurements/companies/economic-activities/1.841"
            }
          }
        }
      ],
      "certificateStartDate": "2025-11-20",
      "certificateEndDate": "2026-05-15",
      "object": "LA ACTIVIDAD PROPIA DE LOS PROFESIONALES DE LA ABOGACÍA",
      "mainEntityOfPage": "https://www.contratacion.euskadi.eus/webkpe00-kperoc/es/ac71aBusquedaRegistrosWar/empresa/06401",
      "_links": {
        "self": {
          "name": "FDET ABOGADOS ASOCIADOS, S.L.P.",
          "href": "https://api.euskadi.eus/procurements/companies/06401"
        }
      }
    },
    {
      "name": "DINAM INGENIERÍA, S.L.",
      "registrationNumber": "05998",
      "identificationNumber": "B95448387",
      "address": "Parque Tecnológico de Bizkaia. Edif 804.",
      "location": {
        "postalCode": "48160",
        "municipality": "Derio",
        "county": "Bizkaia",
        "municipalityId": "901",
        "countyId": "48"
      },
      "economicActivities": [
        {
          "id": "1.843.1",
          "name": "Servicios técnicos de ingeniería",
          "_links": {
            "self": {
              "name": "Servicios técnicos de ingeniería",
              "href": "https://api.euskadi.eus/procurements/companies/economic-activities/1.843.1"
            }
          }
        }
      ],
      "certificateStartDate": "2025-11-20",
      "certificateEndDate": "2026-05-07",
      "object": "ASESORAR, AUDITAR, DESARROLLAR, GESTIONAR, INSPECCIONAR, ADMINISTRAR, EVALUAR, PERITAR, CONTROLAR, DICTAMINAR, PROTEGER, ESTUDIAR, PROYECTAR, FORMAR, INVESTIGAR, ANALIZAR, EJECUTAR Y EXPLOTAR TODA CLASE DE ACTIVIDADES E INFRAESTRUCTURAS MEDIOAMBIENTALES, NATURALES, INDUSTRIALES, SOCIALES, INCLUSO LAS RELACIONADAS CON LOS RIESGOS Y SUS CONSECUENCIAS, INCLUYENDO LOS ASPECTOS GEOLÓGICOS, LAS PERITACIONES A COMPAÑÍAS DE SEGUROS Y LA INVESTIGACIÓN, DESARROLLO, IMPLANTACIÓN, EJECUCIÓN Y EXPLOTACIÓN DE SOLUCIONES INNOVADORAS RELACIONADAS CON LAS TECNOLOGÍAS AMBIENTALES, ENTENDIENDO ÉSTAS COMO AQUELLAS ACTUACIONES LIGADAS A LA PREVENCIÓN, CORRECCIÓN, SANEAMIENTO, RECUPERACIÓN Y TRATAMIENTO ENCAMINADAS A LA MINIMIZACIÓN O ELIMINACIÓN DE IMPACTOS NEGATIVOS SOBRE EL MEDIO AMBIENTE Y LA SALUD HUMANA. EL DESEMPEÑO DE COMISÍONES Y REPRESENTACIONES PARA TODO GÉNERO DE OPERACIONES DE LÍCITO COMERCIO. TODA CLASE DE OPERACIONES INMOBILIARIAS SOBRE FINCAS RÚSTICAS Y URBANAS, PROMOCIÓN, CONTRATOS O REALIZACIÓN DE PARCELACIONES, URBANIZACIONES, CONSTRUCCIONES Y OBRAS PRIVADAS O PÚBLICAS, LA VENTA, HIPOTECA, ARRENDAMIENTO, TRANSFORMACIÓN, MEJORA, ADMINISTRACIÓN PUESTA EN EXPLOTACIÓN Y LA EXPLOTACIÓN MISMA, BAJO CUALQUIER MODALIDAD DE FINCAS DE CUALQUIER CLASE, LA ORGANIZACIÓN, PROMOCIÓN Y ASESORAMIENTO (SALVO LAS OPERACIONES RESERVADAS A LA BANCA) Y GESTIÓN, EN SU CASO, DE SOCIEDADES, COOPERATIVAS, COMUNIDADES, ENTIDADES, GRUPOS O EMPRESAS PARTICULARES ORIENTADAS A LA CONSTRUCCIÓN O URBANIZACIÓN, LA PLANIFICACIÓN Y ESTUDIO DE MERCADOS EN MATERIA INMOBILIARIA EN GENERAL Y CUALQUIER OTRA QUE PRESENTE DIRECTA RELACIÓN CON LO ESPECIFICADO",
      "mainEntityOfPage": "https://www.contratacion.euskadi.eus/webkpe00-kperoc/es/ac71aBusquedaRegistrosWar/empresa/05998",
      "_links": {
        "self": {
          "name": "DINAM INGENIERÍA, S.L.",
          "href": "https://api.euskadi.eus/procurements/companies/05998"
        }
      }
    },
    {
      "name": "DORLET, S.A.",
      "registrationNumber": "01097",
      "identificationNumber": "A20181343",
      "address": "PARQUE TECNOLÓGICO DE ALAVA. C/ Albert Einstein, 34.",
      "location": {
        "postalCode": "01510",
        "municipality": "Vitoria-Gasteiz",
        "county": "Araba/Álava",
        "municipalityId": "059",
        "countyId": "01"
      },
      "economicActivities": [
        {
          "id": "1.354",
          "name": "Fabricación de componentes electrónicos y circuitos integrados",
          "_links": {
            "self": {
              "name": "Fabricación de componentes electrónicos y circuitos integrados",
              "href": "https://api.euskadi.eus/procurements/companies/economic-activities/1.354"
            }
          }
        }
      ],
      "certificateStartDate": "2025-11-20",
      "certificateEndDate": "2026-04-24",
      "object": "LA INVESTIGACIÓN, DESARROLLO, DISEÑO, PRODUCCIÓN Y COMERCIALIZACIÓN DE TODA CLASE DE PROCESOS, SISTEMAS Y MECANISMOS DE SEGURIDAD, ASÍ COMO CUALQUIER OTRO OBJETO DE LÍCITO COMERCIO QUE SE RELACIONE DIRECTA O INDIRECTAMENTE CON EL SEÑALADO",
      "mainEntityOfPage": "https://www.contratacion.euskadi.eus/webkpe00-kperoc/es/ac71aBusquedaRegistrosWar/empresa/01097",
      "_links": {
        "self": {
          "name": "DORLET, S.A.",
          "href": "https://api.euskadi.eus/procurements/companies/01097"
        }
      }
    },
    {
      "name": "SHARMA AUSOLAN, S.L.",
      "registrationNumber": "10433",
      "identificationNumber": "B81958134",
      "address": "URIBARRI ETORBIDEA, 35-37",
      "location": {
        "postalCode": "20500",
        "municipality": "Arrasate / Mondragón",
        "county": "Gipuzkoa",
        "municipalityId": "055",
        "countyId": "20"
      },
      "certificateStartDate": "2025-11-20",
      "certificateEndDate": "2026-05-03",
      "object": "- AGENCIA DE SERVICIOS PLENOS, ESPECIALIZADOS EN MARKETING Y COMUNICACIÓN CORPORATIVA. - LA ORGANIZACIÓN INTEGRAL DE EVENTOS, EMPRESARIALES, MUSICALES, CULTURALES, DEPORTIVOS, ASÍ COMO TODO TIPO DE ESPECTÁCULOS EN GENERAL. - ACTIVIDADES PROPIAS DE LAS AGENCIAS DE PUBLICIDAD DE SERVICIOS PLENOS. - CONSULTORÍA Y ASESORÍA Y/O DESARROLLO DE ACTIVIDADES DE RELACIONES PÚBLICAS. - REALIZACIÓN, PRODUCCIÓN Y EDICIÓN DE SPOTS PUBLICITARIOS. SISTEMAS AUDIOVISUALES, COMPRA Y VENTA Y CUALQUIER CLASE DE CONTRATACIÓN PUBLICITARIA EN TODO TIPO DE MEDIOS DE COMUNICACIÓN. - ELABORACIÓN, CONDIMENTACIÓN, DISTRIBUCIÓN Y SERVICIO DE COMIDAS, DESTINADAS A SER CONSUMIDAS DE FORMA COLECTIVA O INDIVIDUAL.",
      "mainEntityOfPage": "https://www.contratacion.euskadi.eus/webkpe00-kperoc/es/ac71aBusquedaRegistrosWar/empresa/10433",
      "_links": {
        "self": {
          "name": "SHARMA AUSOLAN, S.L.",
          "href": "https://api.euskadi.eus/procurements/companies/10433"
        }
      }
    },
    {
      "name": "HEWLETT PACKARD SERVICIOS ESPAÑA, S.L.",
      "registrationNumber": "05406",
      "identificationNumber": "B82591470",
      "address": "Vicente Aleixandre, 1",
      "location": {
        "postalCode": "28230",
        "municipality": "Rozas de Madrid, Las",
        "county": "Madrid",
        "municipalityId": "127",
        "countyId": "28"
      },
      "economicActivities": [
        {
          "id": "1.615.4",
          "name": "Venta al por mayor de aparatos y material radioeléctrico y electrónico",
          "_links": {
            "self": {
              "name": "Venta al por mayor de aparatos y material radioeléctrico y electrónico",
              "href": "https://api.euskadi.eus/procurements/companies/economic-activities/1.615.4"
            }
          }
        },
        {
          "id": "1.845",
          "name": "Explotación electrónica por cuenta de terceros",
          "_links": {
            "self": {
              "name": "Explotación electrónica por cuenta de terceros",
              "href": "https://api.euskadi.eus/procurements/companies/economic-activities/1.845"
            }
          }
        },
        {
          "id": "1.856.1",
          "name": "Alquiler de bienes de consumo",
          "_links": {
            "self": {
              "name": "Alquiler de bienes de consumo",
              "href": "https://api.euskadi.eus/procurements/companies/economic-activities/1.856.1"
            }
          }
        }
      ],
      "certificateStartDate": "2025-11-20",
      "certificateEndDate": "2026-05-11",
      "object": "1. LA COMERCIALIZACIÓN DE TECNOLOGÍAS DE LA INFORMACIÓN EN EL ÁMBITO INDUSTRIAL, COMERCIAL Y DE SERVICIOS, TANTO A ENTIDADES PÚBLICAS O PRIVADAS, NACIONALES O INTERNACIONALES, COMPRENDIENDO TANTO SERVICIOS COMO PRODUCTOS SOFTWARE Y HARDWARE, MEDIANTE ENTRE OTRAS: A. SU VENTA, TRANSFERENCIA, CESIÓN, ARRENDAMIENTO, LICENCIAMIENTO, SUMINISTRO, Y B. LA PRESTACIÓN DE SERVICIOS DE INSTALACIÓN, PUESTA EN MARCHA, REPARACIÓN Y MANTENIMIENTO DE HARDWARE E INFRAESTRUCTURAS. 2. LA PRESTACIÓN DE SERVICIOS DE CONSULTORÍA, ASESORÍA, FORMACIÓN Y DE GESTIÓN A TERCEROS EN RELACIÓN CON LAS TECNOLOGÍAS DE LA INFORMACIÓN, INCLUYENDO LA GESTIÓN DE PROCESOS DE NEGOCIO Y ÁREAS ESPECÍFICAS O COMPLEMENTARIAS, ASÍ COMO EL ESTUDIO, IMPLANTACIÓN, DESARROLLO Y GESTIÓN DE MEJORAS O MODIFICACIONES A DICHOS PROCESOS O ÁREAS. 3. LA INVESTIGACIÓN, CREACIÓN, ANÁLISIS, ESTUDIO Y DESARROLLO DE TECNOLOGÍAS DE LA INFORMACIÓN EN GENERAL, INCLUYENDO SOFTWARE Y HARDWARE PARA SOLUCIONES, SERVICIOS Y REDES DE TELECOMUNICACIONES Y DE PROCESAMIENTO DE DATOS INFORMATIZADOS DE CARÁCTER PERSONAL O NO. 4. LA ADQUISICIÓN DE TECNOLOGÍAS DE LA INFORMACIÓN MEDIANTE SU COMPRA, TRANSFERENCIA, ARRENDAMIENTO O LICENCIAMIENTO.",
      "mainEntityOfPage": "https://www.contratacion.euskadi.eus/webkpe00-kperoc/es/ac71aBusquedaRegistrosWar/empresa/05406",
      "_links": {
        "self": {
          "name": "HEWLETT PACKARD SERVICIOS ESPAÑA, S.L.",
          "href": "https://api.euskadi.eus/procurements/companies/05406"
        }
      }
    }
  ]
}