{
  "totalItems": 9042,
  "totalPages": 905,
  "currentPage": 377,
  "itemsOfPage": 10,
  "items": [
    {
      "name": "JESUS MARIA VAZQUEZ PECIÑA",
      "registrationNumber": "09939",
      "identificationNumber": "16284813P",
      "address": "Calle Principal nº 52",
      "location": {
        "postalCode": "01191",
        "municipality": "Vitoria-Gasteiz",
        "county": "Araba/Álava",
        "municipalityId": "059",
        "countyId": "01"
      },
      "economicActivities": [
        {
          "id": "2.882",
          "name": "Guías de turismo",
          "_links": {
            "self": {
              "name": "Guías de turismo",
              "href": "https://api.euskadi.eus/procurements/companies/economic-activities/2.882"
            }
          }
        },
        {
          "id": "2.899",
          "name": "Otros profesionales",
          "_links": {
            "self": {
              "name": "Otros profesionales",
              "href": "https://api.euskadi.eus/procurements/companies/economic-activities/2.899"
            }
          }
        }
      ],
      "certificateStartDate": "2024-12-17",
      "certificateEndDate": "2025-06-16",
      "object": "GUÍAS DE TURISMO. OTROS PROFESIONALES.",
      "mainEntityOfPage": "https://www.contratacion.euskadi.eus/webkpe00-kperoc/es/ac71aBusquedaRegistrosWar/empresa/09939",
      "_links": {
        "self": {
          "name": "JESUS MARIA VAZQUEZ PECIÑA",
          "href": "https://api.euskadi.eus/procurements/companies/09939"
        }
      }
    },
    {
      "name": "CONSTRUCCIONES EGINETXE",
      "registrationNumber": "02732",
      "identificationNumber": "B48284921",
      "address": "C/HENAO, Nº 7-6º Dpto. 8",
      "location": {
        "postalCode": "48009",
        "municipality": "Bilbao",
        "county": "Bizkaia",
        "municipalityId": "020",
        "countyId": "48"
      },
      "economicActivities": [
        {
          "id": "1.501.1",
          "name": "Construcción completa, reparación y conservación de edificaciones",
          "_links": {
            "self": {
              "name": "Construcción completa, reparación y conservación de edificaciones",
              "href": "https://api.euskadi.eus/procurements/companies/economic-activities/1.501.1"
            }
          }
        },
        {
          "id": "1.833.2",
          "name": "Promoción de edificaciones",
          "_links": {
            "self": {
              "name": "Promoción de edificaciones",
              "href": "https://api.euskadi.eus/procurements/companies/economic-activities/1.833.2"
            }
          }
        }
      ],
      "certificateStartDate": "2024-12-16",
      "certificateEndDate": "2025-05-29",
      "object": "PROYECTOS, COMERCIALIZACIÓN, REALIZACIÓN Y PROMOCIÓN DE VIVIENDAS, LOCALES COMERCIALES E INDUSTRIALES, URBANIZACIONES Y DEMÁS OBRAS DE CONSTRUCCIÓN EN GENERAL, ASÍ COMO COMPRA VENTA DE TERRENOS Y SOLARES.\r\nLAS ACTIVIDADES ENUMERADAS PODRÁN SER DESARROLLADAS POR LA SOCIEDAD, TOTAL O PARCIALMENTE, DE MODO INDIRECTO, MEDIANTE LA PARTICIPACIÓN EN OTRAS SOCIEDADES CON OBJETO ANÁLOGO. QUEDAN EXCLUIDAS DEL OBJETO SOCIAL, AQUELLAS ACTIVIDADES PARA CUYO EJERCICIO LA LEY EXIJA REQUISITOS ESPECIALES QUE NO CUMPLA LA SOCIEDAD",
      "mainEntityOfPage": "https://www.contratacion.euskadi.eus/webkpe00-kperoc/es/ac71aBusquedaRegistrosWar/empresa/02732",
      "_links": {
        "self": {
          "name": "CONSTRUCCIONES EGINETXE",
          "href": "https://api.euskadi.eus/procurements/companies/02732"
        }
      }
    },
    {
      "name": "DUALIA TELETRADUCCIONES S.L.",
      "registrationNumber": "06204",
      "identificationNumber": "B20822144",
      "address": "Goiru 1",
      "location": {
        "postalCode": "20500",
        "municipality": "Arrasate / Mondragón",
        "county": "Gipuzkoa",
        "municipalityId": "055",
        "countyId": "20"
      },
      "economicActivities": [
        {
          "id": "1.847",
          "name": "Servicios de consultoría",
          "_links": {
            "self": {
              "name": "Servicios de consultoría",
              "href": "https://api.euskadi.eus/procurements/companies/economic-activities/1.847"
            }
          }
        },
        {
          "id": "1.849.3",
          "name": "Servicios de traducción y similares",
          "_links": {
            "self": {
              "name": "Servicios de traducción y similares",
              "href": "https://api.euskadi.eus/procurements/companies/economic-activities/1.849.3"
            }
          }
        }
      ],
      "certificateStartDate": "2024-12-13",
      "certificateEndDate": "2025-05-30",
      "object": "A) LA PRESTACIÓN DE SERVICIOS DE INTERPRETACIÓN DE LENGUAS A DISTANCIA EN LAS MODALIDADES TELEFÓNICA, CONSECUTIVA, SUSURRADA, SIMULTANEA EN VIDEO A TRAVÉS DE TECNOLOGÍAS DE COMUNICACIÓN COMO INTERNET O LAS REDES DE TELEFONÍA TRADICIONAL. CNAE 7430. B) LA CONSULTORÍA DE IMPLANTACIÓN DE SOLUCIONES ORIENTADAS A LAS LENGUAS. CNAE 702.\n\n",
      "mainEntityOfPage": "https://www.contratacion.euskadi.eus/webkpe00-kperoc/es/ac71aBusquedaRegistrosWar/empresa/06204",
      "_links": {
        "self": {
          "name": "DUALIA TELETRADUCCIONES S.L.",
          "href": "https://api.euskadi.eus/procurements/companies/06204"
        }
      }
    },
    {
      "name": "BAM BULEGO TEKNIKOA, S.L.",
      "registrationNumber": "06695",
      "identificationNumber": "B95929667",
      "address": "pz. Venzuela nº 1, 1º dpto. dcha izda",
      "location": {
        "postalCode": "48001",
        "municipality": "Bilbao",
        "county": "Bizkaia",
        "municipalityId": "020",
        "countyId": "48"
      },
      "economicActivities": [
        {
          "id": "1.843.2",
          "name": "Servicios técnicos de arquitectura y urbanismo",
          "_links": {
            "self": {
              "name": "Servicios técnicos de arquitectura y urbanismo",
              "href": "https://api.euskadi.eus/procurements/companies/economic-activities/1.843.2"
            }
          }
        }
      ],
      "certificateStartDate": "2024-12-12",
      "certificateEndDate": "2025-05-29",
      "object": "LA ACTIVIDAD PROPIA DE LOS PROFESIONALES DE LA ARQUITECTURA Y EL URBANISMO",
      "mainEntityOfPage": "https://www.contratacion.euskadi.eus/webkpe00-kperoc/es/ac71aBusquedaRegistrosWar/empresa/06695",
      "_links": {
        "self": {
          "name": "BAM BULEGO TEKNIKOA, S.L.",
          "href": "https://api.euskadi.eus/procurements/companies/06695"
        }
      }
    },
    {
      "name": "TISA CONGRESOS, S.L.",
      "registrationNumber": "02546",
      "identificationNumber": "B48667299",
      "address": "SAN VICENTE, 8  EDIFICIO ALBIA II - 7º ",
      "location": {
        "postalCode": "48001",
        "municipality": "Bilbao",
        "county": "Bizkaia",
        "municipalityId": "020",
        "countyId": "48"
      },
      "economicActivities": [
        {
          "id": "1.989.2",
          "name": "Servicios de organización de congresos, asambleas y similares",
          "_links": {
            "self": {
              "name": "Servicios de organización de congresos, asambleas y similares",
              "href": "https://api.euskadi.eus/procurements/companies/economic-activities/1.989.2"
            }
          }
        }
      ],
      "certificateStartDate": "2024-12-11",
      "certificateEndDate": "2025-05-30",
      "classification": [
        {
          "id": "S",
          "name": "Servicios",
          "groups": [
            {
              "id": "L",
              "subgroups": [
                {
                  "id": "05",
                  "name": "Organización y promoción de congresos, ferias y exposiciones",
                  "categories": [
                    {
                      "id": "2",
                      "name": "Desde 150.001 Hasta 300.000",
                      "_links": {
                        "self": {
                          "name": "Desde 150.001 Hasta 300.000",
                          "href": "https://api.euskadi.eus/procurements/companies/types/S/categories/2"
                        }
                      }
                    }
                  ],
                  "_links": {
                    "self": {
                      "name": "Organización y promoción de congresos, ferias y exposiciones",
                      "href": "https://api.euskadi.eus/procurements/companies/types/S/groups/L/subgroups/05"
                    }
                  }
                },
                {
                  "id": "06",
                  "name": "Servicios de portería, control de accesos e información al público",
                  "categories": [
                    {
                      "id": "2",
                      "name": "Desde 150.001 Hasta 300.000",
                      "_links": {
                        "self": {
                          "name": "Desde 150.001 Hasta 300.000",
                          "href": "https://api.euskadi.eus/procurements/companies/types/S/categories/2"
                        }
                      }
                    }
                  ],
                  "_links": {
                    "self": {
                      "name": "Servicios de portería, control de accesos e información al público",
                      "href": "https://api.euskadi.eus/procurements/companies/types/S/groups/L/subgroups/06"
                    }
                  }
                }
              ],
              "_links": {
                "self": {
                  "href": "https://api.euskadi.eus/procurements/companies/types/S/groups/L"
                }
              }
            }
          ],
          "_links": {
            "self": {
              "name": "Servicios",
              "href": "https://api.euskadi.eus/procurements/companies/types/S"
            }
          }
        }
      ],
      "object": "A) LA ORGANIZACIÓN DE CONGRESOS, REUNIONES, JORNADAS, EXPOSICIONES, SEMINARIOS, CURSOS, INAUGURACIONES, ANIVERSARIOS Y EVENTOS EN GENERAL.&#13;\n&#13;\nB) LA COORDINACIÓN Y GESTIÓN DE ALOJAMIENTOS, DESPLAZAMIENTOS, VISITAS CULTURALES Y TURÍSTICAS Y RESTAURACIÓN PARA ASISTENTES, PONENETES E INVITADOS A DIFERENTES EVENTOS.&#13;\n&#13;\nC) ALQUILER E INSTALACIÓN DE EQUIPOS AUDIOVISUALES, TRADUCCIÓN SIMULTÁNEA Y MATERIAL AUXILIAR PARA EVENTOS EN GENERAL.&#13;\n&#13;\nD) DISEÑO, PROYECTO Y REALIZACIÓN DE EXPOSICIONES Y STANDS, ASÍ COMO LA DECORACIÓN Y SEÑALÍTICA DE DIFERENTES EVENTOS.&#13;\n&#13;\nE) LA RECOPILACIÓN, TRASCRIPCIÓN, IMPRESIÓN, EDICIÓN Y PUBLICACIÓN DE MATERIAL DIVERSO.&#13;\n&#13;\nF) TRADUCCIONES TÉCNICAS, COMERCIALES, JURÍDICAS, LITERARIAS, ETC.&#13;\n&#13;\nG) INTERPRETACIONES SIMULTÁNEAS Y CONSECUTIVAS.&#13;\n&#13;\nH) LA PRESTACIÓN DE SERVICIOS DE AZAFATAS, PROMOTORES, RECEPCIONISTAS, GUÍAS, MONITORES, ANIMADORES SOCIOCULTURALES, ACOMPAÑANTES DE TRANSPORTE ESCOLAR, MERCHANDISING, VISITADORES, VENDEDORES, TITULADORES, ADMINISTRATIVOS, CONTABLES, TELEMARKETING E INFORMÁTICOS.&#13;\n&#13;\nI) LA PRESTACIÓN DE SERVICIOS DE ATENCIÓN DE CONSERJERÍAS, RECEPCIONES Y CENTRALITAS TELEFÓNICAS.&#13;\n&#13;\nJ) LA IMPARTICIÓN DE CURSOS ESPECÍFICOS Y DE FORMACIÓN PROFESIONAL EN RELACIÓN CON LAS ACTIVIDADES Y SERVICIOS CITADOS.&#13;\n&#13;\nK) LA PRESTACIÓN DE SERVICIOS DE MAILINGS, ENTREGAS DE INVITACIONES, OBSEQUIOS, ETC.&#13;\n&#13;\nL) GESTIÓN INTEGRAL DE CENTROS DE NEGOCIOS, SALAS DE ACTOS Y EVENTOS EN GENERAL.&#13;\n&#13;\nLL) ASESORÍA DE RECURSOS HUMANOS Y DE SELECCIÓN DE PERSONAL.&#13;\n&#13;\nM) LA PRESTACIÓN DE SERVICIOS EN GENERAL.&#13;\n&#13;\nQUEDAN EXCLUÍDAS TODAS AQUELLAS ACTIVIDADES PARA CUYO EJERCICIO LA LEY EXIJA REQUISITOS ESPECIALES QUE NO QUEDEN CUMPLIDOS POR ESTA SOCIEDAD.&#13;\n&#13;\nTODAS LAS ACTIVIDADES QUE INTEGRAN EL OBJETO SOCIAL MENCIONADO PODRÁN DESARROLLARSE TANTO EN ESPAÑA COMO EN EL EXTRANJERO, PUDIENDO LLEVARSE A CABO TOTAL O PARCIALMENTE DE MODO INDIRECTO, MEDIANTE LA TITULARIDAD DE ACCIONES O DE PARTICIPACIONES EN SOCIEDADES CON OBJETO  IDÉNTICO O ANÁLOGO",
      "mainEntityOfPage": "https://www.contratacion.euskadi.eus/webkpe00-kperoc/es/ac71aBusquedaRegistrosWar/empresa/02546",
      "_links": {
        "self": {
          "name": "TISA CONGRESOS, S.L.",
          "href": "https://api.euskadi.eus/procurements/companies/02546"
        }
      }
    },
    {
      "name": "VESISMIN, S.L.",
      "registrationNumber": "07567",
      "identificationNumber": "B48910756",
      "address": "c/ Lluçà 28 5º",
      "location": {
        "postalCode": "08028",
        "municipality": "Barcelona",
        "county": "Barcelona",
        "municipalityId": "019",
        "countyId": "08"
      },
      "economicActivities": [
        {
          "id": "1.255.9",
          "name": "Fabricación de otros productos químicos de uso final",
          "_links": {
            "self": {
              "name": "Fabricación de otros productos químicos de uso final",
              "href": "https://api.euskadi.eus/procurements/companies/economic-activities/1.255.9"
            }
          }
        }
      ],
      "certificateStartDate": "2024-12-11",
      "certificateEndDate": "2025-06-03",
      "object": "LA INVESTIGACIÓN, LA PRODUCCIÓN, EL DESARROLLO Y LA DISTRIBUCIÓN DE CUALQUIER PRODUCTO Y SERVICIO RELACIONADO CON EL CONTROL DE INFECCIONES Y, EN GENERAL, DE TODO TIPO DE PRODUCTOS QUÍMICOS Y FARMACÉUTICOS",
      "mainEntityOfPage": "https://www.contratacion.euskadi.eus/webkpe00-kperoc/es/ac71aBusquedaRegistrosWar/empresa/07567",
      "_links": {
        "self": {
          "name": "VESISMIN, S.L.",
          "href": "https://api.euskadi.eus/procurements/companies/07567"
        }
      }
    },
    {
      "name": "EUSKO-VILLANUEVA, S.L.",
      "registrationNumber": "09653",
      "identificationNumber": "B01499144",
      "address": "BARRIO ZUBIETE 40, NAVE 4 GORDEXOLA (Vizcaya)",
      "location": {
        "postalCode": "48192",
        "municipality": "Gordexola",
        "county": "Bizkaia",
        "municipalityId": "042",
        "countyId": "48"
      },
      "economicActivities": [
        {
          "id": "1.504.7",
          "name": "Instalaciones telefónicas, telegráficas, televisión, etc",
          "_links": {
            "self": {
              "name": "Instalaciones telefónicas, telegráficas, televisión, etc",
              "href": "https://api.euskadi.eus/procurements/companies/economic-activities/1.504.7"
            }
          }
        }
      ],
      "certificateStartDate": "2024-12-09",
      "certificateEndDate": "2025-05-19",
      "object": "LA REALIZACIÓN Y MONTAJE DE INSTALACIONES ELÉCTRICAS, REDES TELEGRÁFICAS Y TELEFÓNICAS; LA INSTALACIÓN Y MANTENIMIENTO DE LINEAS TELEFÓNICAS, FIBRA ÓPTICA Y CENTRALITAS.",
      "mainEntityOfPage": "https://www.contratacion.euskadi.eus/webkpe00-kperoc/es/ac71aBusquedaRegistrosWar/empresa/09653",
      "_links": {
        "self": {
          "name": "EUSKO-VILLANUEVA, S.L.",
          "href": "https://api.euskadi.eus/procurements/companies/09653"
        }
      }
    },
    {
      "name": "JOPACARSAN REFORMAS Y CONSTRUCCION, S.L.",
      "registrationNumber": "09326",
      "identificationNumber": "B10839355",
      "address": "GALIZA 1 LOCAL",
      "location": {
        "postalCode": "48902",
        "municipality": "Barakaldo",
        "county": "Bizkaia",
        "municipalityId": "013",
        "countyId": "48"
      },
      "economicActivities": [
        {
          "id": "1.501.1",
          "name": "Construcción completa, reparación y conservación de edificaciones",
          "_links": {
            "self": {
              "name": "Construcción completa, reparación y conservación de edificaciones",
              "href": "https://api.euskadi.eus/procurements/companies/economic-activities/1.501.1"
            }
          }
        },
        {
          "id": "1.834",
          "name": "Servicios relativos a la propiedad inmobiliaria e industrial",
          "_links": {
            "self": {
              "name": "Servicios relativos a la propiedad inmobiliaria e industrial",
              "href": "https://api.euskadi.eus/procurements/companies/economic-activities/1.834"
            }
          }
        }
      ],
      "certificateStartDate": "2024-12-04",
      "certificateEndDate": "2025-05-20",
      "object": "A) LA PROMOCIÓN Y EJECUCIÓN, COMPLETA O POR RAMOS, DE TODA CLASE DE OBRAS DE CONSTRUCCIÓN, ACONDICIONAMIENTO, URBANIZACIÓN, PARCELACIÓN, SERVICIOS, REPARACIÓN, REHABILITACIÓN, DECORACIÓN Y CONSERVACIÓN, POR CUENTA PROPIA O AJENA, YA SEA POR SÍ O POR MEDIO DE TERCEROS, DE TODA CLASE DE EDIFICACIONES, VIVIENDAS Y LOCALES COMERCIALES O INDUSTRIALES, E INCLUSO, DE VIVIENDAS DE PROTECCIÓN OFICIAL. B) LA ADQUISICIÓN, ENAJENACIÓN E INTERMEDIACIÓN, POR CUALQUIER TÍTULO, DE INMUEBLES, FINCAS URBANAS Y RÚSTICAS, YA SEAN TIERRAS, SOLARES Y EDIFICIOS, Y LA ADMINISTRACIÓN, TENENCIA, EXPLOTACIÓN Y ARRENDAMIENTO, YA SEA ACTIVO O PASIVO, MEDIANTE ARRIENDO U OTRO MODO CUALQUIERA, DE TALES BIENES, Y SU VENTA O ENAJENACIÓN TOTAL O PARCIAL, Y PROCEDER A SU APROVECHAMIENTO, URBANO, INDUSTRIAL O CUALQUIER OTRO. C) LA REALIZACIÓN DIRECTA O INDIRECTA DE OBRAS DE ALBAÑILERÍA Y ELECTRICIDAD Y TRABAJOS DE CONSTRUCCIÓN, REPARACIÓN Y CONSERVACIÓN DE OBRAS EN GENERAL, REFORMAS DE PISOS Y LOCALES, ACABADOS DE OBRAS, SOLADOS Y PAVIMENTOS, ASILAMIENTO E IMPERMEABILIZACIONES.",
      "mainEntityOfPage": "https://www.contratacion.euskadi.eus/webkpe00-kperoc/es/ac71aBusquedaRegistrosWar/empresa/09326",
      "_links": {
        "self": {
          "name": "JOPACARSAN REFORMAS Y CONSTRUCCION, S.L.",
          "href": "https://api.euskadi.eus/procurements/companies/09326"
        }
      }
    },
    {
      "name": "ADANOVA SOLUCIONES, S.L.",
      "registrationNumber": "09932",
      "identificationNumber": "B55375984",
      "address": "Calle Lukategitxu Bidea",
      "location": {
        "postalCode": "48640",
        "municipality": "Berango",
        "county": "Bizkaia",
        "municipalityId": "016",
        "countyId": "48"
      },
      "economicActivities": [
        {
          "id": "1.617.8",
          "name": "Venta al por mayor de máquinas y material de oficina",
          "_links": {
            "self": {
              "name": "Venta al por mayor de máquinas y material de oficina",
              "href": "https://api.euskadi.eus/procurements/companies/economic-activities/1.617.8"
            }
          }
        },
        {
          "id": "1.845",
          "name": "Explotación electrónica por cuenta de terceros",
          "_links": {
            "self": {
              "name": "Explotación electrónica por cuenta de terceros",
              "href": "https://api.euskadi.eus/procurements/companies/economic-activities/1.845"
            }
          }
        },
        {
          "id": "1.847",
          "name": "Servicios de consultoría",
          "_links": {
            "self": {
              "name": "Servicios de consultoría",
              "href": "https://api.euskadi.eus/procurements/companies/economic-activities/1.847"
            }
          }
        }
      ],
      "certificateStartDate": "2024-12-04",
      "certificateEndDate": "2025-06-03",
      "object": "ACTIVIDAD PRINCIPAL: 62.02 / ACTIVIDADES DE CONSULTORÍA INFORMÁTICA. OTRAS ACTIVIDADES: 62.03 / GESTIÓN DE RECURSOS INFORMÁTICOS, 62.09 / OTROS SERVICIOS RELACIONADOS CON LAS TECNOLOGÍA DE LA INFORMACIÓN Y LA INFORMÁTICA, 62.01 / ACTIVIDADES DE PROGRAMACIÓN INFORMÁTICA.",
      "mainEntityOfPage": "https://www.contratacion.euskadi.eus/webkpe00-kperoc/es/ac71aBusquedaRegistrosWar/empresa/09932",
      "_links": {
        "self": {
          "name": "ADANOVA SOLUCIONES, S.L.",
          "href": "https://api.euskadi.eus/procurements/companies/09932"
        }
      }
    },
    {
      "name": "WEBPIXELA, S.L.",
      "registrationNumber": "09082",
      "identificationNumber": "B75054981",
      "address": "POLIGONO INDUSTRIAL TXIRRITA MALEO Nº1, 1ºPISO",
      "location": {
        "postalCode": "20100",
        "municipality": "Errenteria",
        "county": "Gipuzkoa",
        "municipalityId": "067",
        "countyId": "20"
      },
      "certificateStartDate": "2024-12-03",
      "certificateEndDate": "2025-04-22",
      "object": "A) LA PRESTACIÓN DE TODA CLASE DE SERVICIOS INFORMÁTICOS COMO POR EJEMPLO Y SIN QUE ESTA ENUMERACIÓN SEA LIMITATIVA, EL DESARROLLO DE CUALQUIER TIPO DE PÁGINA WEB, LA GESTIÓN DE SERVICIOS ASOCIADOS A DOMINIOS, LA INSTALACIÓN, CONFIGURACIÓN Y MANTENIMIENTO DE SERVIDORES WEB, EL DESARROLLO DE PROGRAMAS A MEDIDA Y LA CONFIGURACIÓN DE EQUIPOS Y REDES. B) LA CREACIÓN Y DISEÑO DE PÁGINAS WEB. C) CREACIÓN DE IMAGEN CORPORATIVA, PUBLICIDAD Y COMUNICACIÓN GRÁFICA. PODRÁ DESARROLLARSE DE MODO INDIRECTO MEDIANTE LA PARTICIPACIÓN EN OTRAS SOCIEDADES DE OBJETO ANÁLOGO. D) PRESTACIÓN DE SERVICIOS DOCENTES RELACIONADOS CON EL ÁMBITO INFORMÁTICO.",
      "mainEntityOfPage": "https://www.contratacion.euskadi.eus/webkpe00-kperoc/es/ac71aBusquedaRegistrosWar/empresa/09082",
      "_links": {
        "self": {
          "name": "WEBPIXELA, S.L.",
          "href": "https://api.euskadi.eus/procurements/companies/09082"
        }
      }
    }
  ]
}