{
  "totalItems": 9042,
  "totalPages": 905,
  "currentPage": 466,
  "itemsOfPage": 10,
  "items": [
    {
      "name": "FRANCISCO JAVIER COLMENERO AGUIAR",
      "registrationNumber": "08904",
      "identificationNumber": "15390949Q",
      "address": "EGOGAIN 8 5-C",
      "location": {
        "postalCode": "20600",
        "municipality": "Eibar",
        "county": "Gipuzkoa",
        "municipalityId": "030",
        "countyId": "20"
      },
      "economicActivities": [
        {
          "id": "2.899",
          "name": "Otros profesionales",
          "_links": {
            "self": {
              "name": "Otros profesionales",
              "href": "https://api.euskadi.eus/procurements/companies/economic-activities/2.899"
            }
          }
        }
      ],
      "certificateStartDate": "2023-03-08",
      "certificateEndDate": "2023-09-08",
      "object": "OTROS PROFESIONALES.",
      "mainEntityOfPage": "https://www.contratacion.euskadi.eus/webkpe00-kperoc/es/ac71aBusquedaRegistrosWar/empresa/08904",
      "_links": {
        "self": {
          "name": "FRANCISCO JAVIER COLMENERO AGUIAR",
          "href": "https://api.euskadi.eus/procurements/companies/08904"
        }
      }
    },
    {
      "name": "EMERENCIANA ANTONIA JUSTEL CALVO",
      "registrationNumber": "08623",
      "identificationNumber": "30619050R",
      "address": "Calle Calixto Díez 7 -3º dpto 31",
      "location": {
        "postalCode": "48012",
        "municipality": "Bilbao",
        "county": "Bizkaia",
        "municipalityId": "020",
        "countyId": "48"
      },
      "economicActivities": [
        {
          "id": "2.723",
          "name": "Administradores de fincas",
          "_links": {
            "self": {
              "name": "Administradores de fincas",
              "href": "https://api.euskadi.eus/procurements/companies/economic-activities/2.723"
            }
          }
        }
      ],
      "certificateStartDate": "2023-03-07",
      "certificateEndDate": "2023-09-07",
      "object": "ADMINISTRADORES DE FINCAS.",
      "mainEntityOfPage": "https://www.contratacion.euskadi.eus/webkpe00-kperoc/es/ac71aBusquedaRegistrosWar/empresa/08623",
      "_links": {
        "self": {
          "name": "EMERENCIANA ANTONIA JUSTEL CALVO",
          "href": "https://api.euskadi.eus/procurements/companies/08623"
        }
      }
    },
    {
      "name": "REVENGA INGENIEROS, S.A.",
      "registrationNumber": "07551",
      "identificationNumber": "A28301729",
      "address": "C/ Fragua, 6",
      "location": {
        "postalCode": "28760",
        "municipality": "Tres Cantos",
        "county": "Madrid",
        "municipalityId": "903",
        "countyId": "28"
      },
      "economicActivities": [
        {
          "id": "1.504.11",
          "name": "Instalaciones eléctricas en general, redes telegráficas, telefonía, tv, etc",
          "_links": {
            "self": {
              "name": "Instalaciones eléctricas en general, redes telegráficas, telefonía, tv, etc",
              "href": "https://api.euskadi.eus/procurements/companies/economic-activities/1.504.11"
            }
          }
        }
      ],
      "certificateStartDate": "2023-03-07",
      "certificateEndDate": "2023-08-20",
      "object": "A) LA FABRICACIÓN, SUMINISTRO, INSTALACIÓN, COMERCIALIZACIÓN Y MANTENIMIENTO DE PRODUCTOS DE TELECOMUNICACIONES, ELECTRÓNICOS Y ELÉCTRICOS. B) REDACCIÓN, ASISTENCIA TÉCNICA Y DIRECCIÓN DE TODO TIPO DE PROYECTOS. C) SOLUCIONES DE TERMOGRAFÍA APLICADAS A SEGURIDAD, DETECCIÓN DE INCENDIOS, ANTI-INTRUSIÓN, CONTROL DE VEHÍCULOS, CONTROL DE PUERTOS, CONTROL DE FRONTERAS, PROCESOS INDUSTRIALES DE CALIDAD Y SEGURIDAD, TRANSPORTE FERROVIARIO, TRANSPORTE DE CARRETERAS, TRANSPORTE AÉREO Y A CUALQUIER SECTOR INDUSTRIAL Y COMERCIAL DONDE TENGA APLICACIÓN ESTA TECNOLOGÍA INFRARROJA. D) DISTRIBUCIÓN COMERCIAL E IMPORTACIÓN DE PRODUCTOS DE TERMOGRAFÍA: CÁMARAS TÉRMICAS, ETC. E) DESARROLLO, FABRICACIÓN Y DISTRIBUCIÓN DE SISTEMAS DE TELECOMUNICACIONES, DE PRODUCTOS DE TECNOLOGÍAS DE LA INFORMACIÓN E INFORMÁTICA, SEGURIDAD ELECTRÓNICA. VIDEO-VIGILANCIA, INSTALACIONES DE SEGURIDAD PERIMETRAL Y SISTEMAS DE ALARMAS Y ADQUISICIÓN DE INFORMACIÓN. F) ADQUISICIÓN Y TRANSMISIÓN DE INFORMACÓN, Y SEGURIDAD ELECTRÓNICA EN GENERAL. G) DESARROLLO DE APLICACIONES DE SOFTWARE PARA LOS CAMPOS MENCIONADOS ANTERIORMENTE. H) SERVICIOS DE CONSULTORÍA, INGENIERÍA EN LOS CAMPOS MENCIONADOS ANTERIORMENTE. I) EJECUCIÓN DE TODO TIPO DE OBRAS. J).CUALQUIER OTRO TIPO DE ACTIVIDADES TÉCNICO-COMERCIALES QUE SE RELACIONEN DIRECTAMENTE CON LAS MENCIONADAS EN LOS APARTADOS ANTERIORES. K) EL ESTUDIO DE VIABILIDAD, I+D, DISEÑO, INGENIERÍA, TRAMITACIÓN ANTE LAS ADMINISTRACIONES PÚBLICAS, PROMOCIÓN, ASISTENCIA, TÉCNICA, EJECUCIÓN, EXPLOTACIÓN Y MANTENIMIENTO DE CUALQUIER TIPO DE PROYECTO DE ENERGÍAS RENOVABLES Y EFICIENCIA ENERGÉTICA. K)FABRICACIÓN, SUMINISTRO, INSTALACIÓN, REPARACIÓN Y MANTENIMIENTO DE EQUIPOS Y TECNOLOGÍAS DE ENERGÍAS RENOVABLES Y EFICIENCIA ENERGÉTICA. L) FABRICACIÓN, SUMINISTRO, INSTALACIÓN, REPARACIÓN Y MANTENIMIENTO DEEQUIPOS Y TECNOLOGÍAS DE ENERGÍAS RENOVABLES Y EFICIENCIA ENERGÉTICA. M) INGENIERÍA, EJECUCIÓN Y MANTENIMIENTO DE INSTALACIONES ELÉCTRICAS DE BAJA, MEDIA Y ALTA TENSIÓN, ASÍ COMO CENTROS DE TRANSFORMACIÓN. N) LA REALIZACIÓN DE SERVICIOS DE AUDITORÍA ENERGÉTICA, GESTIÓN DE PRODUCCIÓN DE LA ENERGÍA Y VENTA DE ENERGÍA. O) GESTIÓN DE RESIDUOS SÓLIDOS URBANOS, INDUSTRIALES, AGRÍCOLAS Y GANADEROS. GESTIÓN MEDIOAMBIENTAL. P) LA COMPRAVENTA DE BIENES INMUEBLES, URBANOS Y RÚSTICOS, Y EL ARRENDAMIENTO Y EXPLOTACIÓN EN CUALQUIER FORMA DE LOS MISMOS. Q) LA FABRICACIÓN, ELABORACIÓN, VENTA E INCLUSO DISTRIBUCIÓN DE TODA CLASE DE MATERIALES DE CONSTRUCCIÓN. R) PRESTACIÓN DE SERVICIOS DE DISEÑO Y REMODELACIÓN DE ESPACIÓS, LA REALIZACIÓN DE OBRAS MENORES DE CONSTRUCCIÓN, DECORACIÓN Y ARQUITECTURA DE INTERIORES",
      "mainEntityOfPage": "https://www.contratacion.euskadi.eus/webkpe00-kperoc/es/ac71aBusquedaRegistrosWar/empresa/07551",
      "_links": {
        "self": {
          "name": "REVENGA INGENIEROS, S.A.",
          "href": "https://api.euskadi.eus/procurements/companies/07551"
        }
      }
    },
    {
      "name": "AZKAR ETA ERREZ, S.L.",
      "registrationNumber": "08582",
      "identificationNumber": "B75190330",
      "address": "Andre Kale 62",
      "location": {
        "postalCode": "20120",
        "municipality": "Hernani",
        "county": "Gipuzkoa",
        "municipalityId": "040",
        "countyId": "20"
      },
      "economicActivities": [
        {
          "id": "1.501.1",
          "name": "Construcción completa, reparación y conservación de edificaciones",
          "_links": {
            "self": {
              "name": "Construcción completa, reparación y conservación de edificaciones",
              "href": "https://api.euskadi.eus/procurements/companies/economic-activities/1.501.1"
            }
          }
        }
      ],
      "certificateStartDate": "2023-03-07",
      "certificateEndDate": "2023-09-04",
      "object": "REPARACIÓN Y CONSERVACIÓN DE EDIFICACIONES.",
      "mainEntityOfPage": "https://www.contratacion.euskadi.eus/webkpe00-kperoc/es/ac71aBusquedaRegistrosWar/empresa/08582",
      "_links": {
        "self": {
          "name": "AZKAR ETA ERREZ, S.L.",
          "href": "https://api.euskadi.eus/procurements/companies/08582"
        }
      }
    },
    {
      "name": "IÑIGO SIERRA GÓMEZ",
      "registrationNumber": "08898",
      "identificationNumber": "78890974P",
      "address": "Múgica y Butrón 2 2º dcha",
      "location": {
        "postalCode": "48007",
        "municipality": "Bilbao",
        "county": "Bizkaia",
        "municipalityId": "020",
        "countyId": "48"
      },
      "economicActivities": [
        {
          "id": "1.973.1",
          "name": "Servicios fotográficos",
          "_links": {
            "self": {
              "name": "Servicios fotográficos",
              "href": "https://api.euskadi.eus/procurements/companies/economic-activities/1.973.1"
            }
          }
        }
      ],
      "certificateStartDate": "2023-03-03",
      "certificateEndDate": "2023-09-02",
      "object": "SERVICIOS FOTOGRÁFICOS.",
      "mainEntityOfPage": "https://www.contratacion.euskadi.eus/webkpe00-kperoc/es/ac71aBusquedaRegistrosWar/empresa/08898",
      "_links": {
        "self": {
          "name": "IÑIGO SIERRA GÓMEZ",
          "href": "https://api.euskadi.eus/procurements/companies/08898"
        }
      }
    },
    {
      "name": "IBAN VAQUERO GARBISU",
      "registrationNumber": "08896",
      "identificationNumber": "44550633R",
      "address": "Gaskoinen 2, 2ºB",
      "location": {
        "postalCode": "20280",
        "municipality": "Hondarribia",
        "county": "Gipuzkoa",
        "municipalityId": "036",
        "countyId": "20"
      },
      "economicActivities": [
        {
          "id": "1.399",
          "name": "Fabricación de relojes y otros instrumentos n.c.o.p",
          "_links": {
            "self": {
              "name": "Fabricación de relojes y otros instrumentos n.c.o.p",
              "href": "https://api.euskadi.eus/procurements/companies/economic-activities/1.399"
            }
          }
        },
        {
          "id": "1.861.2",
          "name": "Alquiler de locales industriales y otros alquileres n.c.o.p",
          "_links": {
            "self": {
              "name": "Alquiler de locales industriales y otros alquileres n.c.o.p",
              "href": "https://api.euskadi.eus/procurements/companies/economic-activities/1.861.2"
            }
          }
        }
      ],
      "certificateStartDate": "2023-03-02",
      "certificateEndDate": "2023-09-02",
      "object": "ALQUILER DE LOCALES INDUSTRIALES Y OTROS ALQUILERES N.C.O.P. FABRICACIÓN DE RELOJES Y OTROS INSTRUMENTOS N.C.O.P.",
      "mainEntityOfPage": "https://www.contratacion.euskadi.eus/webkpe00-kperoc/es/ac71aBusquedaRegistrosWar/empresa/08896",
      "_links": {
        "self": {
          "name": "IBAN VAQUERO GARBISU",
          "href": "https://api.euskadi.eus/procurements/companies/08896"
        }
      }
    },
    {
      "name": "JOSE FELIX APRAIZ JAYO",
      "registrationNumber": "08278",
      "identificationNumber": "30565157C",
      "address": "don tello 14 bajo",
      "location": {
        "postalCode": "48300",
        "municipality": "Gernika-Lumo",
        "county": "Bizkaia",
        "municipalityId": "046",
        "countyId": "48"
      },
      "economicActivities": [
        {
          "id": "2.731",
          "name": "Abogados",
          "_links": {
            "self": {
              "name": "Abogados",
              "href": "https://api.euskadi.eus/procurements/companies/economic-activities/2.731"
            }
          }
        }
      ],
      "certificateStartDate": "2023-03-01",
      "certificateEndDate": "2023-09-01",
      "object": "ABOGADOS. AGENTES REPRESENTANTES Y CORREDORES DE SEGUROS.",
      "mainEntityOfPage": "https://www.contratacion.euskadi.eus/webkpe00-kperoc/es/ac71aBusquedaRegistrosWar/empresa/08278",
      "_links": {
        "self": {
          "name": "JOSE FELIX APRAIZ JAYO",
          "href": "https://api.euskadi.eus/procurements/companies/08278"
        }
      }
    },
    {
      "name": "IBAN TOLEDO IBAÑEZ",
      "registrationNumber": "08893",
      "identificationNumber": "72453250F",
      "address": "Agerre baserria, sakabanatua 17A",
      "location": {
        "postalCode": "20216",
        "municipality": "Ormaiztegi",
        "county": "Gipuzkoa",
        "municipalityId": "062",
        "countyId": "20"
      },
      "economicActivities": [
        {
          "id": "1.355.2",
          "name": "Edición de soportes grabados de sonido, vídeo y de informática",
          "_links": {
            "self": {
              "name": "Edición de soportes grabados de sonido, vídeo y de informática",
              "href": "https://api.euskadi.eus/procurements/companies/economic-activities/1.355.2"
            }
          }
        },
        {
          "id": "1.961.1",
          "name": "Producción de películas cinematográficas (incluso vídeos)",
          "_links": {
            "self": {
              "name": "Producción de películas cinematográficas (incluso vídeos)",
              "href": "https://api.euskadi.eus/procurements/companies/economic-activities/1.961.1"
            }
          }
        }
      ],
      "certificateStartDate": "2023-03-01",
      "certificateEndDate": "2023-09-01",
      "object": "PRODUCCIÓN DE PELÍCULAS CINEMATOGRÁFICAS (INCLUSO VÍDEOS). EDICIÓN DE SOPORTES GRABADOS DE SONIDO, VÍDEO Y DE INFORMÁTICA.",
      "mainEntityOfPage": "https://www.contratacion.euskadi.eus/webkpe00-kperoc/es/ac71aBusquedaRegistrosWar/empresa/08893",
      "_links": {
        "self": {
          "name": "IBAN TOLEDO IBAÑEZ",
          "href": "https://api.euskadi.eus/procurements/companies/08893"
        }
      }
    },
    {
      "name": "ANTONIO IGLESIAS LOPEZ",
      "registrationNumber": "08892",
      "identificationNumber": "30572908C",
      "address": "aretxaga nº 11 lonja izquierda",
      "location": {
        "postalCode": "48003",
        "municipality": "Bilbao",
        "county": "Bizkaia",
        "municipalityId": "020",
        "countyId": "48"
      },
      "economicActivities": [
        {
          "id": "1.966.9",
          "name": "Otros servicios culturales n.c.o.p",
          "_links": {
            "self": {
              "name": "Otros servicios culturales n.c.o.p",
              "href": "https://api.euskadi.eus/procurements/companies/economic-activities/1.966.9"
            }
          }
        }
      ],
      "certificateStartDate": "2023-03-01",
      "certificateEndDate": "2023-08-16",
      "object": "OTROS SERVICIOS CULTURALES N.C.O.P.",
      "mainEntityOfPage": "https://www.contratacion.euskadi.eus/webkpe00-kperoc/es/ac71aBusquedaRegistrosWar/empresa/08892",
      "_links": {
        "self": {
          "name": "ANTONIO IGLESIAS LOPEZ",
          "href": "https://api.euskadi.eus/procurements/companies/08892"
        }
      }
    },
    {
      "name": "GAIA GREEN TECH, S.L.",
      "registrationNumber": "08891",
      "identificationNumber": "B40571002",
      "address": "Calle de Felipe Salvador 11, 2°, 9ª",
      "location": {
        "postalCode": "46022",
        "municipality": "València",
        "county": "Valencia/València",
        "municipalityId": "250",
        "countyId": "46"
      },
      "economicActivities": [
        {
          "id": "1.342",
          "name": "Fabricación de material eléctrico de utilización y equipamiento",
          "_links": {
            "self": {
              "name": "Fabricación de material eléctrico de utilización y equipamiento",
              "href": "https://api.euskadi.eus/procurements/companies/economic-activities/1.342"
            }
          }
        },
        {
          "id": "1.504.1",
          "name": "Instalaciones eléctricas en general",
          "_links": {
            "self": {
              "name": "Instalaciones eléctricas en general",
              "href": "https://api.euskadi.eus/procurements/companies/economic-activities/1.504.1"
            }
          }
        },
        {
          "id": "1.843.9",
          "name": "Otros servicios técnicos n.c.o.p",
          "_links": {
            "self": {
              "name": "Otros servicios técnicos n.c.o.p",
              "href": "https://api.euskadi.eus/procurements/companies/economic-activities/1.843.9"
            }
          }
        },
        {
          "id": "1.845",
          "name": "Explotación electrónica por cuenta de terceros",
          "_links": {
            "self": {
              "name": "Explotación electrónica por cuenta de terceros",
              "href": "https://api.euskadi.eus/procurements/companies/economic-activities/1.845"
            }
          }
        }
      ],
      "certificateStartDate": "2023-02-28",
      "certificateEndDate": "2023-08-17",
      "object": "A) . - LA INVESTIGACIÓN, APLICACIÓN, MANTENIMIENTO, DESARROLLO, FABRICACIÓN, EXPLOTACIÓN, COMERCIALIZACIÓN, POR CUENTA PROPIA O DE TERCEROS, VENTA Y REPARACIÓN DE TODO TIPO DE MATERIAL Y ELEMENTOS INFORMÁTICOS (SOFTWARE Y HARDWARE), DE TELEFONÍA, TELECOMUNICACIÓN, TELEINFORMÁTICA, AUDIOVISUALES Y CIBERNÉTICA; PROGRAMACIÓN INFORMÁTICA; TRATAMIENTO Y ALMACENAMIENTO DE DATOS, MANTENIMIENTO Y ALOJAMIENTO DEL SERVIDOR (CNAE 6201). B) . - LA COMERCIALIZACIÓN, ALQUILER, CON SIN CONDUCTOR, DISTRIBUCIÓN, IMPORTACIÓN Y EXPORTACIÓN DE AUTOMÓVILES Y CUALESQUIERA VEHÍCULOS ELÉCTRICOS O DE MOTOR DE EXPLOSIÓN, ASÍ COMO MAQUINARIA INDUSTRIAL. C) . - LA PRESTACIÓN DE SERVICIOS DE DISEÑO GRÁFICO Y DISEÑO INDUSTRIAL. D) . - LA PRODUCCIÓN, COMERCIALIZACIÓN, INSTALACIÓN Y MANTENIMIENTO DE UNIDADES PRODUCTORAS DE ENERGÍA SOLAR, FOTOVOLTAICA Y CUALESQUIERA OTRAS ENERGÍAS RENOVABLES.",
      "mainEntityOfPage": "https://www.contratacion.euskadi.eus/webkpe00-kperoc/es/ac71aBusquedaRegistrosWar/empresa/08891",
      "_links": {
        "self": {
          "name": "GAIA GREEN TECH, S.L.",
          "href": "https://api.euskadi.eus/procurements/companies/08891"
        }
      }
    }
  ]
}