{
  "totalItems": 9042,
  "totalPages": 905,
  "currentPage": 639,
  "itemsOfPage": 10,
  "items": [
    {
      "name": "URSSA, S. COOP.",
      "registrationNumber": "02713",
      "identificationNumber": "F01002385",
      "address": "C/ CAMPO DE LOS PALACIOS, 18",
      "location": {
        "postalCode": "01006",
        "municipality": "Vitoria-Gasteiz",
        "county": "Araba/Álava",
        "municipalityId": "059",
        "countyId": "01"
      },
      "economicActivities": [
        {
          "id": "1.313",
          "name": "Tratamiento y recubrimiento de los metales",
          "_links": {
            "self": {
              "name": "Tratamiento y recubrimiento de los metales",
              "href": "https://api.euskadi.eus/procurements/companies/economic-activities/1.313"
            }
          }
        },
        {
          "id": "1.314.2",
          "name": "Fabricación de estructuras metálicas",
          "_links": {
            "self": {
              "name": "Fabricación de estructuras metálicas",
              "href": "https://api.euskadi.eus/procurements/companies/economic-activities/1.314.2"
            }
          }
        },
        {
          "id": "1.315",
          "name": "Construcción de grandes depósitos y calderería gruesa",
          "_links": {
            "self": {
              "name": "Construcción de grandes depósitos y calderería gruesa",
              "href": "https://api.euskadi.eus/procurements/companies/economic-activities/1.315"
            }
          }
        },
        {
          "id": "1.501.1",
          "name": "Construcción completa, reparación y conservación de edificaciones",
          "_links": {
            "self": {
              "name": "Construcción completa, reparación y conservación de edificaciones",
              "href": "https://api.euskadi.eus/procurements/companies/economic-activities/1.501.1"
            }
          }
        },
        {
          "id": "1.503.2",
          "name": "Preparación y montaje de estructuras y cubiertas en obras civiles",
          "_links": {
            "self": {
              "name": "Preparación y montaje de estructuras y cubiertas en obras civiles",
              "href": "https://api.euskadi.eus/procurements/companies/economic-activities/1.503.2"
            }
          }
        },
        {
          "id": "1.861.2",
          "name": "Alquiler de locales industriales y otros alquileres n.c.o.p",
          "_links": {
            "self": {
              "name": "Alquiler de locales industriales y otros alquileres n.c.o.p",
              "href": "https://api.euskadi.eus/procurements/companies/economic-activities/1.861.2"
            }
          }
        }
      ],
      "certificateStartDate": "2017-07-19",
      "certificateEndDate": "2018-01-12",
      "object": "A) INGENIERÍA, SUMINISTRO, FABRICACIÓN, TRATAMIENTO SUPERFICIAL, TRANSPORTE Y MONTAJE DE CONSTRUCCIONES METÁLICAS. B) EXTRUSIÓN Y COMERCIALIZACIÓN DE PERFILES DE PVC. C) CUANTAS ACTIVIDADES COMPLEMENTARIAS DE LAS ANTERIORES DECIDA EMPRENDER EN EL FUTURO. EL OBJETO INDICADO PODRÁ SER DESARROLLADO DIRECTAMENTE POR LA PROPIA COOPERATIVA O A TRAVÉS DE OTRAS ENTIDADES EN LAS QUE LA MISMA PARTICIPE O CON LAS QUE LLEGUE A ACUERDOS DE COLABORACIÓN. LA COOPERATIVA DEBERÁ DESARROLLAR CON LA MAYOR EFICACIA POSIBLE TANTO SU ACTIVIDAD EMPRESARIAL COMO LA PROMOCIÓN HUMANA, ECONÓMICA Y SOCIAL DE SUS SOCIOS Y DE LA COMUNIDAD EN LA QUE ESTÁN INSERTOS",
      "mainEntityOfPage": "https://www.contratacion.euskadi.eus/webkpe00-kperoc/es/ac71aBusquedaRegistrosWar/empresa/02713",
      "_links": {
        "self": {
          "name": "URSSA, S. COOP.",
          "href": "https://api.euskadi.eus/procurements/companies/02713"
        }
      }
    },
    {
      "name": "SEOM REHABILITACIONES Y OBRAS S.L.",
      "registrationNumber": "05651",
      "identificationNumber": "B75123414",
      "address": "C/ GURUTZEGI 17, D-6 P. BELARTZA",
      "location": {
        "postalCode": "20018",
        "municipality": "Donostia / San Sebastián",
        "county": "Gipuzkoa",
        "municipalityId": "069",
        "countyId": "20"
      },
      "economicActivities": [
        {
          "id": "1.501.1",
          "name": "Construcción completa, reparación y conservación de edificaciones",
          "_links": {
            "self": {
              "name": "Construcción completa, reparación y conservación de edificaciones",
              "href": "https://api.euskadi.eus/procurements/companies/economic-activities/1.501.1"
            }
          }
        }
      ],
      "certificateStartDate": "2017-07-14",
      "certificateEndDate": "2017-12-29",
      "object": "CONSTRUCCIÓN, INSTALACIONES Y MANTENIMIENTO, CONCRETÁNDOSE LAS MISMAS EN LAS ACTIVIDADES RELACIONADAS CON LA REHABILITACIÓN Y OBRAS EN TODA CLASE DE EDIFICIOS E INSTALACIONES",
      "mainEntityOfPage": "https://www.contratacion.euskadi.eus/webkpe00-kperoc/es/ac71aBusquedaRegistrosWar/empresa/05651",
      "_links": {
        "self": {
          "name": "SEOM REHABILITACIONES Y OBRAS S.L.",
          "href": "https://api.euskadi.eus/procurements/companies/05651"
        }
      }
    },
    {
      "name": "IASIST, S.A.U.",
      "registrationNumber": "02964",
      "identificationNumber": "A59769463",
      "address": "RAMBLA DE CATALUNYA, 2-4; 6º",
      "location": {
        "postalCode": "08007",
        "municipality": "Barcelona",
        "county": "Barcelona",
        "municipalityId": "019",
        "countyId": "08"
      },
      "economicActivities": [
        {
          "id": "1.845",
          "name": "Explotación electrónica por cuenta de terceros",
          "_links": {
            "self": {
              "name": "Explotación electrónica por cuenta de terceros",
              "href": "https://api.euskadi.eus/procurements/companies/economic-activities/1.845"
            }
          }
        },
        {
          "id": "1.846",
          "name": "Empresas de estudios de mercado",
          "_links": {
            "self": {
              "name": "Empresas de estudios de mercado",
              "href": "https://api.euskadi.eus/procurements/companies/economic-activities/1.846"
            }
          }
        }
      ],
      "certificateStartDate": "2017-07-08",
      "certificateEndDate": "2018-01-08",
      "object": "LA PRESTACIÓN DE SERVICIOS DE SOPORTE PARA LA GESTIÓN DE LOS SERVICIOS SANITARIOS, PRIORITARIAMENTE EN LOS HOSPITALES, MEDIANTE EL DESARROLLO DE SISTEMAS DE INFORMACIÓN  Y BASES DE DATOS. EL OBJETO SOCIAL PODRÁ REALIZARSE POR LA SOCIEDAD DE MANERA DIRECTA O INDIRECTA, MEDIANTE LA PARTICIPACIÓN EN OTRAS SOCIEDADES DE OBJETO IDÉNTICO O ANÁLOGO, O ADQUIRIÉNDOLAS POR CUALQUIER TÍTULO ",
      "mainEntityOfPage": "https://www.contratacion.euskadi.eus/webkpe00-kperoc/es/ac71aBusquedaRegistrosWar/empresa/02964",
      "_links": {
        "self": {
          "name": "IASIST, S.A.U.",
          "href": "https://api.euskadi.eus/procurements/companies/02964"
        }
      }
    },
    {
      "name": "ZOSMAMEDIA, S.A.",
      "registrationNumber": "02358",
      "identificationNumber": "A20714465",
      "address": "EASO, 77 - BAJO",
      "location": {
        "postalCode": "20006",
        "municipality": "Donostia / San Sebastián",
        "county": "Gipuzkoa",
        "municipalityId": "069",
        "countyId": "20"
      },
      "economicActivities": [
        {
          "id": "1.844",
          "name": "Servicios de publicidad, relaciones públicas y similares",
          "_links": {
            "self": {
              "name": "Servicios de publicidad, relaciones públicas y similares",
              "href": "https://api.euskadi.eus/procurements/companies/economic-activities/1.844"
            }
          }
        }
      ],
      "certificateStartDate": "2017-07-05",
      "certificateEndDate": "2017-12-13",
      "object": "LA ACTIVIDAD PUBLICITARIA Y LA ACTIVIDAD  DE COMUNICACIÓN E IMAGEN EN TODAS SUS FORMAS Y MEDIOS",
      "mainEntityOfPage": "https://www.contratacion.euskadi.eus/webkpe00-kperoc/es/ac71aBusquedaRegistrosWar/empresa/02358",
      "_links": {
        "self": {
          "name": "ZOSMAMEDIA, S.A.",
          "href": "https://api.euskadi.eus/procurements/companies/02358"
        }
      }
    },
    {
      "name": "DEUSTO SISTEMAS G.I., S.L.",
      "registrationNumber": "04006",
      "identificationNumber": "B01432103",
      "address": "Plaza del Museo nº 1- 3º",
      "location": {
        "postalCode": "48009",
        "municipality": "Bilbao",
        "county": "Bizkaia",
        "municipalityId": "020",
        "countyId": "48"
      },
      "economicActivities": [
        {
          "id": "1.845",
          "name": "Explotación electrónica por cuenta de terceros",
          "_links": {
            "self": {
              "name": "Explotación electrónica por cuenta de terceros",
              "href": "https://api.euskadi.eus/procurements/companies/economic-activities/1.845"
            }
          }
        }
      ],
      "certificateStartDate": "2017-07-05",
      "certificateEndDate": "2018-01-02",
      "object": "A) LA ADQUISICIÓN POR CUALQUIER TÍTULO, DE FINCAS RÚSTICAS O URBANAS, LA CONSTRUCCIÓN DE ÉSTAS Y LA ADMINISTRACIÓN, TENENCIA, EXPLOTACIÓN Y ARRENDAMIENTO DE TALES BIENES Y SU VENTA TOTAL O PARCIAL, SEGÚN CONVENGA, PARA SU APROVECHAMIENTO FORESTAL, AGRÍCOLA, URGANO, INDUSTRIAL O CUALQUIER OTRO A REALIZAR TODO ELLO POR CUENTA PROPIA; B) LA ADQUISICIÓN, CESIÓN, TENENCIA, DISFRUTE, EN GENERAL, DE TODA CLASE DE TÍTULOS Y VALORES MOBILIARIOS, SIN INCIDIR EN LAS OPERACIONES REGULADAS POR LEYES ESPECIALES; C) LA PRESTACIÓN DE SERVICIOS DE ASISTENCIA ADMINISTRATIVA, COMERCIAL, CONTABLE Y DE GESTIÓN EMPRESARIAL; D) LA PRESTACIÓN DE SERVICIOS DE INFORMÁTICA Y TELECOMUNICACIONES",
      "mainEntityOfPage": "https://www.contratacion.euskadi.eus/webkpe00-kperoc/es/ac71aBusquedaRegistrosWar/empresa/04006",
      "_links": {
        "self": {
          "name": "DEUSTO SISTEMAS G.I., S.L.",
          "href": "https://api.euskadi.eus/procurements/companies/04006"
        }
      }
    },
    {
      "name": "KUKUMA ESKOLAKO MATERIALA, S.L.",
      "registrationNumber": "04722",
      "identificationNumber": "B48467278",
      "address": "KONDOR II INDUSTRIALDEA B, 1-2 PABILOIAK",
      "location": {
        "postalCode": "48340",
        "municipality": "Amorebieta-Etxano",
        "county": "Bizkaia",
        "municipalityId": "003",
        "countyId": "48"
      },
      "economicActivities": [
        {
          "id": "1.615.2",
          "name": "Venta al por mayor de muebles",
          "_links": {
            "self": {
              "name": "Venta al por mayor de muebles",
              "href": "https://api.euskadi.eus/procurements/companies/economic-activities/1.615.2"
            }
          }
        },
        {
          "id": "1.619.1",
          "name": "Venta al por mayor de juguetes y artículos de deporte",
          "_links": {
            "self": {
              "name": "Venta al por mayor de juguetes y artículos de deporte",
              "href": "https://api.euskadi.eus/procurements/companies/economic-activities/1.619.1"
            }
          }
        },
        {
          "id": "1.619.6",
          "name": "Venta al por mayor de libros , periódicos y revistas",
          "_links": {
            "self": {
              "name": "Venta al por mayor de libros , periódicos y revistas",
              "href": "https://api.euskadi.eus/procurements/companies/economic-activities/1.619.6"
            }
          }
        }
      ],
      "certificateStartDate": "2017-07-05",
      "certificateEndDate": "2017-12-15",
      "object": "LA PROMOCIÓN, DISTRIBUCIÓN, COMPRA-VENTA, COMERCIALIZACIÓN, ALQUILER DE TODO TIPO DE CLASE Y MATERIAL DIDÁCTICO YA SEA IMPRESO, CUALQUIER SISTEMA AUDIO-VISUAL, MANUAL, ELÉCTRICO O DE CUALQUIER MODALIDAD, HACIENDO ESPECIAL HINCAPIÉ EN EUSKERA, EN CUALQUIERA DE SUS MODALIDADES O DIALECTOS",
      "mainEntityOfPage": "https://www.contratacion.euskadi.eus/webkpe00-kperoc/es/ac71aBusquedaRegistrosWar/empresa/04722",
      "_links": {
        "self": {
          "name": "KUKUMA ESKOLAKO MATERIALA, S.L.",
          "href": "https://api.euskadi.eus/procurements/companies/04722"
        }
      }
    },
    {
      "name": "ENRAF NONIUS IBÉRICA, S.A.",
      "registrationNumber": "01049",
      "identificationNumber": "A79062279",
      "address": "P.I. Nº 1 C/ F Nº 15 ",
      "location": {
        "postalCode": "28938",
        "municipality": "Móstoles",
        "county": "Madrid",
        "municipalityId": "092",
        "countyId": "28"
      },
      "economicActivities": [
        {
          "id": "1.619.2",
          "name": "Venta al por mayor de aparatos e instrumentos médicos, ortopédicos, ópticos",
          "_links": {
            "self": {
              "name": "Venta al por mayor de aparatos e instrumentos médicos, ortopédicos, ópticos",
              "href": "https://api.euskadi.eus/procurements/companies/economic-activities/1.619.2"
            }
          }
        }
      ],
      "certificateStartDate": "2017-07-02",
      "certificateEndDate": "2018-01-02",
      "object": "LA DISTRIBUCIÓN, VENTA E INSTALACIÓN EN ESPAÑA DE CUALQUIER PRODUCTO DESARROLLADO, DISTRIBUIDO Y FABRICADO ACTUALMENTE O EN EL FUTURO POR EL GRUPO DE COMPAÑÍAS PERTENECIENTES A DELFT INTRUMENTS NV EN EL CAMPO DE LA FISIOTERAPIA, ATENCIÓN MÉDICA EN CASA Y REHABILITACIÓN, ASÍ COMO DE AQUELLOS OTROS PRODUCTOS FABRICADOS POR OTRAS ENTIDADES EN TANTO SEA COMPLEMENTARIOS A LOS REFERIDOS PRODUCTOS",
      "mainEntityOfPage": "https://www.contratacion.euskadi.eus/webkpe00-kperoc/es/ac71aBusquedaRegistrosWar/empresa/01049",
      "_links": {
        "self": {
          "name": "ENRAF NONIUS IBÉRICA, S.A.",
          "href": "https://api.euskadi.eus/procurements/companies/01049"
        }
      }
    },
    {
      "name": "PALL ESPAÑA, S.A.",
      "registrationNumber": "01741",
      "identificationNumber": "A78788270",
      "address": "C/ ISLA DE CÓRCEGA, Nº 2.",
      "location": {
        "postalCode": "28100",
        "municipality": "Alcobendas",
        "county": "Madrid",
        "municipalityId": "006",
        "countyId": "28"
      },
      "economicActivities": [
        {
          "id": "1.619.2",
          "name": "Venta al por mayor de aparatos e instrumentos médicos, ortopédicos, ópticos",
          "_links": {
            "self": {
              "name": "Venta al por mayor de aparatos e instrumentos médicos, ortopédicos, ópticos",
              "href": "https://api.euskadi.eus/procurements/companies/economic-activities/1.619.2"
            }
          }
        }
      ],
      "certificateStartDate": "2017-06-29",
      "certificateEndDate": "2017-12-16",
      "object": "LA REPRESENTACIÓN, DISTRIBUCIÓN, IMPORTACIÓN, EXPORTACIÓN, FABRICACIÓN, INSTALACIÓN, COMPRA, VENTA, SUMINISTRO, COMERCIALIZACIÓN, SERVICIO POST-VENTA, SERVICIOS TÉCNICOS DE APOYO E INVESTIGACIÓN, DE MATERIALES INDUSTRIALES Y CIENTÍFICOS, INCLUÍDOS, PERO NO LIMITADOS A, TODO TIPO DE FILTROS Y EQUIPOS O APARATOS DE FILTRACIÓN, UTILIZADOS EN LOS SECTORES DE AGRICULTURA, INDUSTRIA Y SERVICIOS, INCLUYENDO ESPECÍFICAMENTE, PERO NO LIMITATIVAMENTE, LA INDUSTRIA FARMACÉUTICA, QUÍMICA, BIOLÓGICA, BIOPROCESADO, TRATAMIENTO DE AGUAS, HIDRÁULICA, MÉDICA, AEROESPACIAL, ALIMENTOS Y BEBIDAS; ASÍ COMO CUALQUIER OTRO EQUIPO AUXILIAR O ACCESORIO QUE ESTÉ RELACIONADO CON EL OBJETO SOCIAL PRINCIPAL",
      "mainEntityOfPage": "https://www.contratacion.euskadi.eus/webkpe00-kperoc/es/ac71aBusquedaRegistrosWar/empresa/01741",
      "_links": {
        "self": {
          "name": "PALL ESPAÑA, S.A.",
          "href": "https://api.euskadi.eus/procurements/companies/01741"
        }
      }
    },
    {
      "name": "GERONA GRUP BILBAO, S.L.",
      "registrationNumber": "03158",
      "identificationNumber": "B95226932",
      "address": "C/ SALSIDU, Nº 10-3º. DPTO. 1",
      "location": {
        "postalCode": "48991",
        "municipality": "Getxo",
        "county": "Bizkaia",
        "municipalityId": "044",
        "countyId": "48"
      },
      "economicActivities": [
        {
          "id": "1.989.2",
          "name": "Servicios de organización de congresos, asambleas y similares",
          "_links": {
            "self": {
              "name": "Servicios de organización de congresos, asambleas y similares",
              "href": "https://api.euskadi.eus/procurements/companies/economic-activities/1.989.2"
            }
          }
        }
      ],
      "certificateStartDate": "2017-06-23",
      "certificateEndDate": "2017-12-22",
      "object": "LA CONSULTORÍA INTEGRAL, ASESORAMIENTO, DIRECCIÓN, DISEÑO, ORGANIZACIÓN, GESTIÓN, PRODUCCIÓN, PROMOCIÓN Y COMUNICACIÓN DE PROYECTOS DE CIUDAD, CITY MARKETING, PROMOCIÓN ECONÓMICA, ACTIVIDADES CULTURALES, FESTIVALES, ESPECTÁCULOS, PRESENTACIONES, CONVENCIONES, CONGRESOS, INAUGURACIONES, CELEBRACIONES, EVENTOS SINGULARES Y OTROS PROYECTOS CREATIVOS.\r\nLAS ACTIVIDADES SOCIALES  PODRÁN SER DESARROLLADAS POR LA ENTIDAD, TOTAL O PARCIALMENTE, DE MODO INDIRECTO, MEDIANTE LA PARTICIPACIÓN EN OTRAS ENTIDADES CON OBJETO IDÉNTICO O ANÁLOGO",
      "mainEntityOfPage": "https://www.contratacion.euskadi.eus/webkpe00-kperoc/es/ac71aBusquedaRegistrosWar/empresa/03158",
      "_links": {
        "self": {
          "name": "GERONA GRUP BILBAO, S.L.",
          "href": "https://api.euskadi.eus/procurements/companies/03158"
        }
      }
    },
    {
      "name": "COMPAÑIA AUTOBUSES VASCONGADOS, S.A.",
      "registrationNumber": "04310",
      "identificationNumber": "A48815922",
      "address": "POLG. IND. UGALDEGUREN, SECTOR 1 P5-P5",
      "location": {
        "postalCode": "48160",
        "municipality": "Derio",
        "county": "Bizkaia",
        "municipalityId": "901",
        "countyId": "48"
      },
      "economicActivities": [
        {
          "id": "1.721.3",
          "name": "Transporte de viajeros por carretera",
          "_links": {
            "self": {
              "name": "Transporte de viajeros por carretera",
              "href": "https://api.euskadi.eus/procurements/companies/economic-activities/1.721.3"
            }
          }
        }
      ],
      "certificateStartDate": "2017-06-21",
      "certificateEndDate": "2017-12-20",
      "object": "LA ADQUISICIÓN Y EXPLOTACIÓN DE TODA CLASE DE LÍNEAS DE TRANSPORTE MECÁNICO POR CARRETERAS Y AUTOVÍAS, YA SE TRATE DE CONCESIONES CON DERECHO A LA EXCLUSIVA O NO Y SEAN DE VIAJEROS O DE MERCANCÍAS, EN COMBINACIÓN O NO CON FERROCARRILEES Y TRANVÍAS; LA COMPRA DE CUANTOS ELEMENTOS Y PROPIEDADES DE TODA CLASE SEAN NECESARIAS O CONVENIENTES PARA LA CONSECUCIÓN DE SUS FINES Y EL ESTABLECIMIENTO Y EXPLOTACIÓN DE CUANTOS MEDIOS SUPLETORIOS SEAN CONDUCENTES AL MAYOR DESENVOLVIMIENTO COMERCIAL DEL NEGOCIO, COMO DESPACHOS CENTRALES PARA EXPEDICIÓN DE BILLETES COMBINADOS CON OTROS MEDIOS DE TRANSPORTE, RECEPCIÓN Y ENTREGA DE MERCANCÍAS",
      "mainEntityOfPage": "https://www.contratacion.euskadi.eus/webkpe00-kperoc/es/ac71aBusquedaRegistrosWar/empresa/04310",
      "_links": {
        "self": {
          "name": "COMPAÑIA AUTOBUSES VASCONGADOS, S.A.",
          "href": "https://api.euskadi.eus/procurements/companies/04310"
        }
      }
    }
  ]
}