{
  "totalItems": 9042,
  "totalPages": 905,
  "currentPage": 679,
  "itemsOfPage": 10,
  "items": [
    {
      "name": "EXCAVACIONES Y CONTRATAS SARASOLA, S.A.",
      "registrationNumber": "01492",
      "identificationNumber": "A20103958",
      "address": "C/ PASEO DE ONDARRETA, Nº 14 - BAJO.",
      "location": {
        "postalCode": "20008",
        "municipality": "Donostia / San Sebastián",
        "county": "Gipuzkoa",
        "municipalityId": "069",
        "countyId": "20"
      },
      "economicActivities": [
        {
          "id": "1.501.2",
          "name": "Construcción completa, reparación y conservación obras civiles",
          "_links": {
            "self": {
              "name": "Construcción completa, reparación y conservación obras civiles",
              "href": "https://api.euskadi.eus/procurements/companies/economic-activities/1.501.2"
            }
          }
        },
        {
          "id": "1.502.1",
          "name": "Demoliciones y derribos en general",
          "_links": {
            "self": {
              "name": "Demoliciones y derribos en general",
              "href": "https://api.euskadi.eus/procurements/companies/economic-activities/1.502.1"
            }
          }
        },
        {
          "id": "1.502.3",
          "name": "Consolidación y preparación de terrenos para la realización de obras civiles",
          "_links": {
            "self": {
              "name": "Consolidación y preparación de terrenos para la realización de obras civiles",
              "href": "https://api.euskadi.eus/procurements/companies/economic-activities/1.502.3"
            }
          }
        }
      ],
      "certificateStartDate": "2013-09-10",
      "certificateEndDate": "2014-01-24",
      "object": "LAS OBRAS, EXCAVACIONES Y EXTRACCIONES DE TIERRAS Y PIEDRAS; Y EL TRANSPORTE DE LOS PRODUCTOS EXTRAÍDOS",
      "mainEntityOfPage": "https://www.contratacion.euskadi.eus/webkpe00-kperoc/es/ac71aBusquedaRegistrosWar/empresa/01492",
      "_links": {
        "self": {
          "name": "EXCAVACIONES Y CONTRATAS SARASOLA, S.A.",
          "href": "https://api.euskadi.eus/procurements/companies/01492"
        }
      }
    },
    {
      "name": "EXCAVACIONES ARRIAGA, S.A.",
      "registrationNumber": "01758",
      "identificationNumber": "A01037795",
      "address": "C/ JÚNDIZ, Nº 4. PABELLÓN: 17 - 18, NAVE: D.",
      "location": {
        "postalCode": "01015",
        "municipality": "Vitoria-Gasteiz",
        "county": "Araba/Álava",
        "municipalityId": "059",
        "countyId": "01"
      },
      "economicActivities": [
        {
          "id": "1.501.1",
          "name": "Construcción completa, reparación y conservación de edificaciones",
          "_links": {
            "self": {
              "name": "Construcción completa, reparación y conservación de edificaciones",
              "href": "https://api.euskadi.eus/procurements/companies/economic-activities/1.501.1"
            }
          }
        },
        {
          "id": "1.501.2",
          "name": "Construcción completa, reparación y conservación obras civiles",
          "_links": {
            "self": {
              "name": "Construcción completa, reparación y conservación obras civiles",
              "href": "https://api.euskadi.eus/procurements/companies/economic-activities/1.501.2"
            }
          }
        }
      ],
      "certificateStartDate": "2013-09-09",
      "certificateEndDate": "2014-03-05",
      "object": "a) PROMOCIONAR, FABRICAR, CONSTRUIR Y VENDER TODO TIPO DE ESTRUCTURAS Y CERRAMIENTOS, ASÍ COMO LA REALIZACIÓN DE OBRAS DE CONSTRUCCIÓN, TANTO DE VIVIENDAS COMO DE OBRAS PÚBLICAS. b) LA REALIZACIÓN DE EXCAVACIONES Y DERRIBOS DE BIENES INMUEBLES. c) EL TRANSPORTE DE MERCANCÍAS EN GENERAL",
      "mainEntityOfPage": "https://www.contratacion.euskadi.eus/webkpe00-kperoc/es/ac71aBusquedaRegistrosWar/empresa/01758",
      "_links": {
        "self": {
          "name": "EXCAVACIONES ARRIAGA, S.A.",
          "href": "https://api.euskadi.eus/procurements/companies/01758"
        }
      }
    },
    {
      "name": "TALAPE PRODUCCIONES AUDIOVISUALES, TPA, S.L.",
      "registrationNumber": "02459",
      "identificationNumber": "B48766463",
      "address": "C/ ONITURRI, S/N",
      "location": {
        "postalCode": "48000",
        "municipality": "Durango",
        "county": "Bizkaia",
        "municipalityId": "027",
        "countyId": "48"
      },
      "economicActivities": [
        {
          "id": "1.844",
          "name": "Servicios de publicidad, relaciones públicas y similares",
          "_links": {
            "self": {
              "name": "Servicios de publicidad, relaciones públicas y similares",
              "href": "https://api.euskadi.eus/procurements/companies/economic-activities/1.844"
            }
          }
        },
        {
          "id": "1.961.1",
          "name": "Producción de películas cinematográficas (incluso vídeos)",
          "_links": {
            "self": {
              "name": "Producción de películas cinematográficas (incluso vídeos)",
              "href": "https://api.euskadi.eus/procurements/companies/economic-activities/1.961.1"
            }
          }
        },
        {
          "id": "1.962.1",
          "name": "Distribución y venta de películas",
          "_links": {
            "self": {
              "name": "Distribución y venta de películas",
              "href": "https://api.euskadi.eus/procurements/companies/economic-activities/1.962.1"
            }
          }
        }
      ],
      "certificateStartDate": "2013-09-09",
      "certificateEndDate": "2014-01-17",
      "object": "LA PRESTACIÓN DE SERVICIOS DE PUBLICIDAD, MEDIANTE ANUNCIOS, CARTELES, FOLLETOS, PELÍCULAS PUBLICITARIAS, ETC. A TRAVÉS DE PRENSA, RADIO, TELEVISIÓN, PUBLICIDAD AÉREA  U OTROS MEDIOS.\r\n\r\nCREACIÓN Y DIFUSIÓN DE ANUNCIOS O CAMPAÑAS DE INFORMACIÓN PUBLICITARIA, PROPAGANDA ELECTORAL, COMUNICACIÓN INSTITUCIONAL O PÚBLICA, IMAGEN CORPORATIVA.\r\nEXCLUSIVAS DE MEDIOS PUBLICITARIOS, PUBLICIDAD EXTERIOR, PUBLICIDAD DIRECTA Y MARKETING DIRECTO, ESTUDIOS DE PUBLICIDAD, PROMOCION DE VENTAS PUBLICITARIAS, REGALOS Y RECLAMOS PUBLICITARIOS, Y EN GENERAL CUALQUIER SERVICIO INDEPENDIENTE DE PUBLICIDAD.\r\n\r\nPRODUCCIÓN Y COMERCIALIZACIÓN Y DISTRIBUCIÓN  DE PELÍCULAS CINEMATOGRÁFICAS, VÍDEOS Y DVD;  PRODUCCIÓN, COMERCIALIZACIÓN Y DISTRIBUCIÓN, EN CUALQUIERA DE SUS FASES O EN TODO EL PROCESO DE CINE (PROPIO O AJENO), EN FORMATO DVD O EN CUALQUIER OTRO, Y DE MÚSICA, DE PRODUCCIÓNPROPIA O AJENA, EN FORMATO CDS Ó EN CUALQUIERA QUE PUDIERA SURGIR,   PROGRAMAS DE TELEVISIÓN EN DIVERSOS FORMATOS (ANALÓGICO, DIGITAL O CUALQUIER OTRO; ASÍ COMO PRODUCCIONES AUDIOVISUALES, PELÍCULAS DE ANIMACIÓN O CUALQUIER OTRO TIPO DE PRODUCCIONES AUDIOVISUALES EN LOS FORMATOS EXISTENTES EN LA ACTUALIDAD U OTROS QUE PUDIERAN SURGIR EN EL FUTURO.",
      "mainEntityOfPage": "https://www.contratacion.euskadi.eus/webkpe00-kperoc/es/ac71aBusquedaRegistrosWar/empresa/02459",
      "_links": {
        "self": {
          "name": "TALAPE PRODUCCIONES AUDIOVISUALES, TPA, S.L.",
          "href": "https://api.euskadi.eus/procurements/companies/02459"
        }
      }
    },
    {
      "name": "GUIPASA, S.A.",
      "registrationNumber": "01515",
      "identificationNumber": "A20311064",
      "address": "C/ANTONIO VALVERDE Nº 2",
      "location": {
        "postalCode": "20014",
        "municipality": "Donostia / San Sebastián",
        "county": "Gipuzkoa",
        "municipalityId": "069",
        "countyId": "20"
      },
      "economicActivities": [
        {
          "id": "1.249",
          "name": "Industrias de otros productos minerales no metálicos n.c.o.p",
          "_links": {
            "self": {
              "name": "Industrias de otros productos minerales no metálicos n.c.o.p",
              "href": "https://api.euskadi.eus/procurements/companies/economic-activities/1.249"
            }
          }
        },
        {
          "id": "1.507",
          "name": "Construcción, reparación y conservación de toda clase obras",
          "_links": {
            "self": {
              "name": "Construcción, reparación y conservación de toda clase obras",
              "href": "https://api.euskadi.eus/procurements/companies/economic-activities/1.507"
            }
          }
        }
      ],
      "certificateStartDate": "2013-09-04",
      "certificateEndDate": "2014-03-04",
      "object": "LA FABRICACIÓN Y VENTA DE PRODUCTOS ASFÁLTICOS, AGLOMERADOS, RIEGOS E IMPERMEABILIZACIONES, ASÍ COMO DE ESTRUCTURAS DE HORMIGÓN ARMADO, METÁLICAS O MIXTAS. LA EXPLOTACIÓN DE CANTERAS PARA LA EXTRACCIÓN DE MINERALES NECESARIOS A LOS ANTERIORES FINES. LA REALIZACIÓN DE TODA CLASE DE OBRAS DE CONSTRUCCIÓN, MEJORA Y CONSERVACIÓN, TANTO PRIVADAS COMO PÚBLICAS, INCLUYENDO TODA CLASE DE CONSTRUCCIONES INDUSTRIALES, OBRAS DE INGENIERÍA CIVIL Y CARRETERAS Y LA ADQUISICIÓN Y DISPOSICIÓN DE BIENES DE CUALQUIER CLASE O NATURALEZA RELACIONADOS CON LAS MISMAS",
      "mainEntityOfPage": "https://www.contratacion.euskadi.eus/webkpe00-kperoc/es/ac71aBusquedaRegistrosWar/empresa/01515",
      "_links": {
        "self": {
          "name": "GUIPASA, S.A.",
          "href": "https://api.euskadi.eus/procurements/companies/01515"
        }
      }
    },
    {
      "name": "FACHADAS RIVENTI, S.L.",
      "registrationNumber": "04734",
      "identificationNumber": "B09369653",
      "address": "MERINDAD DE VALDEPORRES, 6 (POL.IND.VILLALONQUEJAR)",
      "location": {
        "postalCode": "09001",
        "municipality": "Burgos",
        "county": "Burgos",
        "municipalityId": "059",
        "countyId": "09"
      },
      "economicActivities": [
        {
          "id": "1.314.1",
          "name": "Carpintería metálica",
          "_links": {
            "self": {
              "name": "Carpintería metálica",
              "href": "https://api.euskadi.eus/procurements/companies/economic-activities/1.314.1"
            }
          }
        },
        {
          "id": "1.936",
          "name": "Investigación científica y técnica",
          "_links": {
            "self": {
              "name": "Investigación científica y técnica",
              "href": "https://api.euskadi.eus/procurements/companies/economic-activities/1.936"
            }
          }
        }
      ],
      "certificateStartDate": "2013-09-04",
      "certificateEndDate": "2014-03-04",
      "object": "EL DISEÑO, FABRICACIÓN E INSTALACIÓN DE FACHADAS DE ALUMINIO Y VIDRIO; EL DISEÑO, FABRICACIÓN E INSTALACIÓN DE VENTANAS, PUERTAS Y SUS ELEMENTOS COMPLEMENTARIOS; Y LA COMERCIALIZACIÓN DE LOS ANTERIORES PRODUCTOS Y ELEMENTOS BIEN COMPLETOS O SEPARADAMENTE. EL ESTUDIO DE PROYECTOS DE INVESTIGACIÓN, DESARROLLO, INNOVACIÓN, PREPARACIÓN DE PROTOTIPOS, PUESTA A PUNTO Y MODIFICACIONES PERTINENTES DERIVADAS DE LAS PRUEBAS A QUE SERÁN SOMETIDAS HASTA SU PUESTA EN EL MERCADO; EL DESARROLLO DE DICHOS PROYECTOS ESTARÁ RELACIONADO CON NUEVAS TECNOLOGÍAS APLICADAS A CERRAMIENTOS, BIEN EN PARAMENTOS VERTICALES O EN CUALQUIER OTRA POSICIÓN, PRINCIPALMENTE EMPLEADOS PARA LA CUBRICIÓN DE FACHADAS DE EDIFICIOS U OTRAS APLICACIONES RELACIONADAS CON EL CERRAMIENTO DE LOS MISMOS",
      "mainEntityOfPage": "https://www.contratacion.euskadi.eus/webkpe00-kperoc/es/ac71aBusquedaRegistrosWar/empresa/04734",
      "_links": {
        "self": {
          "name": "FACHADAS RIVENTI, S.L.",
          "href": "https://api.euskadi.eus/procurements/companies/04734"
        }
      }
    },
    {
      "name": "COMPAÑÍA PAVIMENTOS ALAVESES, S.A. (COPALSA)",
      "registrationNumber": "00138",
      "identificationNumber": "A01007889",
      "address": "C/ HERACLIO FOURNIER, Nº 4 B - 1º.",
      "location": {
        "postalCode": "01006",
        "county": "Araba/Álava",
        "countyId": "01"
      },
      "economicActivities": [
        {
          "id": "1.501.2",
          "name": "Construcción completa, reparación y conservación obras civiles",
          "_links": {
            "self": {
              "name": "Construcción completa, reparación y conservación obras civiles",
              "href": "https://api.euskadi.eus/procurements/companies/economic-activities/1.501.2"
            }
          }
        }
      ],
      "certificateStartDate": "2013-09-03",
      "certificateEndDate": "2014-03-03",
      "object": "1.- LA EXPLOTACIÓN DE PLANTAS DE AGLOMERADO ASFÁLTICO Y DE HORMIGONES, ASÍ COMO ADQUIRIR, EXPLOTAR, REHABILITAR Y GESTIONAR CUALQUIER TIPO DE CANTERA; 2.- LA FABRICACIÓN, VENTA Y COLOCACIÓN DE PRODUCTOS QUÍMICOS, ESPECIALMENTE RELACIONADOS CON EL ASFALTO, COMO IMPERMEABILIZANTES, EMULSIONES O ADITIVOS, ASÍ COMO LA COMERCIALIZACIÓN DE PRODUCTOS INDUSTRIALES EN GENERAL, MAQUINARIA, VENTA DE ADITIVOS Y REPRESENTACIONES SEAN COMERCIALES, INDUSTRIALES O DE SERVICIOS; 3.- LA PROMOCIÓN, LA CONTRATACIÓN Y REALIZACIÓN DE TODO TIPO DE OBRAS Y SERVICIOS CON CUALQUIER ORGANISMO DE LAS ADMINISTRACIONES PÚBLICAS Y CON TODA CLASE DE ENTIDADES Y PARTICULARES, ASÍ COMO SU REPARACIÓN Y CONSERVACIÓN Y TODA CLASE DE DERRIBOS; 4.- LA CONSERVACIÓN, MANTENIMIENTO O EXPLOTACIÓN DE VIALES E INFRAESTRUCTURAS, AUTOPISTAS, CARRETERAS, VÍAS Y FERROCARRILES, TÚNELES U OTRAS INFRAESTRUCTURAS VIARIAS, O TRAMOS DE ELLAS, ASÍ COMO LA CONSTRUCCIÓN, EJECUCIÓN, EXPLOTACIÓN Y PRESTACIÓN DE TODO TIPO DE SERVICIOS RELACIONADOS CON LA INFRAESTRUCTURA DEL TRANSPORTE, YA SEA POR VÍA TERRESTRE, MARÍTIMA O AÉREA; 5.- LA EJECUCIÓN Y MANTENIMIENTO DE INSTALACIONES ELÉCTRICAS EN GENERAL, INSTALACIONES DE TELECOMUNICACIÓN, INSTALACIONES ELECTRÓNICAS E INSTALACIONES DE SISTEMAS DE SEÑALIZACIÓN Y BALIZAMIENTO DE PUERTOS, AEROPUERTOS Y CARRETERAS, INSTALACIONES DE SEGURIDAD Y CONTRA INCENDIOS. LA EJECUCIÓN Y MATENIMIENTO DE INSTALACIONES MECÁNICAS EN GENERAL, INSTALACIONES DE FONTANERÍA, INSTALACIONES FRIGORÍFICAS, INSTALACIONES DE CALEFACCIÓN, VENTILACIÓN Y CLIMATIZACIÓN E INSTALACIONES ELEVADORAS Y TRANSPORTADORAS; 6.-LA CONSTRUCCIÓN, MANTENIMIENTO, EXPLOTACIÓN Y GESTIÓN DE REDES DE ABASTECIMIENTO DE AGUAS; LA EJECUCIÓN, MANTENIMIENTO Y EXPLOTACIÓN DE OBRAS DE JARDINERÍA Y SERVICIOS DE MANTENIMIENTO, CONSERVACIÓN, EXPLOTACIÓN Y GESTIÓN DE PLAYAS Y RÍOS; 7.- LA REALIZACIÓN DE TODA CLASE DE INFORMES, ESTUDIOS Y PROEYCTOS TÉCNICOS, PROYECTOS Y DIRECCIÓN DE OBRA, CONTROL DE CALIDAD, INGENIERÍA, SERVICIOS INTEGRALES DE CONSULTORÍA TÉCNICA, INVESTIGACIÓN Y PRESTACIÓN DE SERVICIOS DE ASISTENCIA, ASESORAMIENTO Y GESTIÓN TÉCNICA, ADMINISTRATIVA Y COMERCIAL, INCLUYENDO AQUELLOS RELACIONADOS CON EL MEDIO AMBIENTE EN GENERAL Y EL PATRIMONIO NACIONAL E HISTÓRICO Y AUDITORÍAS; 8.- LA GESTIÓN, ADMINISTRACIÓN, ADQUISICIÓN, PROMOCIÓN, ENAJENACÓN, REHABILITACIÓN Y EXPLOTACIÓN EN CUALQUIER FORMA DE SOLARES, TERRENOS, CONJUNTOS RESIDENCIALES, URANIZACIONES O PROMOCIONES INMOBILIARIAS Y, EN GENERAL, DE TODA CLASE DE BIENES INMUEBLES, ASÍ COMO EL MANTENIMIENTO INTEGRAL DE EDIFICIOS. LA CONSTRUCCIÓN, EL MANTENIMIENTO Y EXPLOTACIÓN DE PARKINGS DE VEHÍCULOS; 9.- LA REALIZACIÓN DE PROYECTOS, PROMOCIÓN, CONSTITUCIÓN Y PARTICIPACIÓN EN OTRAS SOCIEDADES Y EMPRESAS MEDIANTE LA SUSCRIPCIÓN, AQUISICIÓN Y POSESIÓN DE ACCIONES, PARTICIPACIONES Y CUALESQUIERA OTROS TÍTULOS Y VALORES, ASÍ COMO TODA CLASE DE NEGOCIOS RELACIONADOS CON LA COMPRAVENTA Y SUSCRIPCIÓN DE VALORES MOBILIARIOS, TANTO DE RENTA FIJA, COMO VARIABLE, POR CUENTA PROPIA, EXCLUYENDO LA INTERMEDIACIÓN FINANCIERA Y LA CAPTACIÓN DE AHORRO PÚBLICO Y LAS ACTIVIDADES PROPIAS DE LAS INSTITUCIONES DE INVERSIÓN COLECTIVA Y DE LOS MIEMBROS DE LAS BOLSAS DE VALORES; 10.- LA TITULARIDAD DE TODA CLASE DE CONCESIONES, SUBCONCESIONES, AUTORIZACIONES Y LICENCIAS ADMINISTRATIVAS DE OBRAS, SERVICIOS Y MIXTAS, DEL ESTADO, COMUNIDADES AUTÓNOMAS, PROVINCIAS, MUNICIPIOS, ORGANISMOS AUTÓNOMOS, ENTIDADES AUTÓNOMAS, ASÍ COMO DE CUALQUIER ESTADO EXTRANJERO O INSTITUCIONES INTERNACIONALES; 11.- EL TRATAMIENTO Y GESTIÓN DE RESIDUOS DE TODO TIPO, LAS ACTIVIDADES DE RECUPERACIÓN Y RECICLAJE, EXPLOTACIÓN DE ENERGÍAS ALTERNATIVAS. LA DESCONTAMINACIÓN DE SUELOS Y LA GESTIÓN DE ESPACIOS NATURALES, REFORESTACIÓN DE SUELOS Y RESTAURACIÓN INDUSTRIAL, INCLUYENDO ESTUDIOS E INSTALACIONES DE TRATAMIENTO DE AGUA, AIRE Y GASES, CONTAMINACIÓN ATMOSFÉRICA, ASÍ COMO VERTEDEROS Y ESTACIONES DE TRATAMIENTO DE LIXIVIADOS, RESIDUOS Y OTROS. LA CONSTRUCCIÓN, EXPLOTACIÓN, ADECUACIÓN Y MANTENIMIENTO DE ESCOMBRERAS. EL TRATAMIENTO DE RESIDUOS Y LÍQUIDOS DE TODO TIPO. EL SERVICIO DE GESTIÓN INTEGRADA DE BASURAS, TANTO EN LO QUE SE REFIERE A SU RECOGIDA COMO A SU DEPURACIÓN, TRANSFORMACIÓN Y TRATAMIENTO, ASÍ COMO PRESTACIÓN DE SERVICIOS RELACIONADOS CON EL MEDIO AMBIENTE; EL CONTROL DE HUMOS Y RUIDOS",
      "mainEntityOfPage": "https://www.contratacion.euskadi.eus/webkpe00-kperoc/es/ac71aBusquedaRegistrosWar/empresa/00138",
      "_links": {
        "self": {
          "name": "COMPAÑÍA PAVIMENTOS ALAVESES, S.A. (COPALSA)",
          "href": "https://api.euskadi.eus/procurements/companies/00138"
        }
      }
    },
    {
      "name": "SERVICIO DE AUDIO Y VÍDEO, S.A. (SOAVI, S.A.)",
      "registrationNumber": "00222",
      "identificationNumber": "A48210876",
      "address": "C/ AVENIDA IPARRAGUIRRE, Nº 84. Apdo. 118",
      "location": {
        "postalCode": "48940",
        "municipality": "Leioa",
        "county": "Bizkaia",
        "municipalityId": "054",
        "countyId": "48"
      },
      "economicActivities": [
        {
          "id": "1.653.2",
          "name": "Venta al por menor de material y aparatos eléctricos, electrodomésticos y cocina",
          "_links": {
            "self": {
              "name": "Venta al por menor de material y aparatos eléctricos, electrodomésticos y cocina",
              "href": "https://api.euskadi.eus/procurements/companies/economic-activities/1.653.2"
            }
          }
        }
      ],
      "certificateStartDate": "2013-09-03",
      "certificateEndDate": "2014-03-03",
      "object": "DISTRIBUCIÓN, COMPRA-VENTA Y ALQUILER DE EQUIPOS DE AUDIO Y VÍDEO, EQUIPOS INFORMÁTICOS, ELÉCTRICOS Y ELECTRÓNICOS, EQUIPOS AUDIOVISUALES E ILUMINACIÓN. INGENIERÍA, INSTALACIÓN Y REPARACIÓN DE TODO LO QUE RECOGEN LOS ANTERIORES CAMPOS. DISTRIBUCIÓN, PRODUCCIÓN, COMPRA-VENTA Y ALQUILER DE MATERIAL AUDIOVISUAL, SOPORTE MAGNÉTICO Y MATERIAL DE CONSUMO, RELACIONADO CON LOS CAMPOS ANTERIORES",
      "mainEntityOfPage": "https://www.contratacion.euskadi.eus/webkpe00-kperoc/es/ac71aBusquedaRegistrosWar/empresa/00222",
      "_links": {
        "self": {
          "name": "SERVICIO DE AUDIO Y VÍDEO, S.A. (SOAVI, S.A.)",
          "href": "https://api.euskadi.eus/procurements/companies/00222"
        }
      }
    },
    {
      "name": "PRAXAIR ESPAÑA, S.L.",
      "registrationNumber": "00432",
      "identificationNumber": "B28062339",
      "address": "C/ ORENSE, Nº 11 - 5ª PLANTA.",
      "location": {
        "postalCode": "28020",
        "municipality": "Madrid",
        "county": "Madrid",
        "municipalityId": "079",
        "countyId": "28"
      },
      "economicActivities": [
        {
          "id": "1.251.3",
          "name": "Fabricación de productos químicos inorgánicos",
          "_links": {
            "self": {
              "name": "Fabricación de productos químicos inorgánicos",
              "href": "https://api.euskadi.eus/procurements/companies/economic-activities/1.251.3"
            }
          }
        },
        {
          "id": "1.253.1",
          "name": "Fabricación de gases comprimidos",
          "_links": {
            "self": {
              "name": "Fabricación de gases comprimidos",
              "href": "https://api.euskadi.eus/procurements/companies/economic-activities/1.253.1"
            }
          }
        },
        {
          "id": "1.322.1",
          "name": "Construcción de máquinas para trabajar los metales",
          "_links": {
            "self": {
              "name": "Construcción de máquinas para trabajar los metales",
              "href": "https://api.euskadi.eus/procurements/companies/economic-activities/1.322.1"
            }
          }
        },
        {
          "id": "1.342",
          "name": "Fabricación de material eléctrico de utilización y equipamiento",
          "_links": {
            "self": {
              "name": "Fabricación de material eléctrico de utilización y equipamiento",
              "href": "https://api.euskadi.eus/procurements/companies/economic-activities/1.342"
            }
          }
        },
        {
          "id": "1.504.2",
          "name": "Instalaciones de fontanería",
          "_links": {
            "self": {
              "name": "Instalaciones de fontanería",
              "href": "https://api.euskadi.eus/procurements/companies/economic-activities/1.504.2"
            }
          }
        },
        {
          "id": "1.504.3",
          "name": "Instalaciones de frío, calor y acondicionamiento de aire",
          "_links": {
            "self": {
              "name": "Instalaciones de frío, calor y acondicionamiento de aire",
              "href": "https://api.euskadi.eus/procurements/companies/economic-activities/1.504.3"
            }
          }
        },
        {
          "id": "1.616.6",
          "name": "Venta al por mayor de productos químicos industriales",
          "_links": {
            "self": {
              "name": "Venta al por mayor de productos químicos industriales",
              "href": "https://api.euskadi.eus/procurements/companies/economic-activities/1.616.6"
            }
          }
        },
        {
          "id": "1.617.9",
          "name": "Venta al por mayor interindustrial de otros productos n.c.o.p",
          "_links": {
            "self": {
              "name": "Venta al por mayor interindustrial de otros productos n.c.o.p",
              "href": "https://api.euskadi.eus/procurements/companies/economic-activities/1.617.9"
            }
          }
        },
        {
          "id": "1.942.9",
          "name": "Otros servicios sanitarios sin internados, no clasificados",
          "_links": {
            "self": {
              "name": "Otros servicios sanitarios sin internados, no clasificados",
              "href": "https://api.euskadi.eus/procurements/companies/economic-activities/1.942.9"
            }
          }
        }
      ],
      "certificateStartDate": "2013-08-28",
      "certificateEndDate": "2014-01-22",
      "object": "LA FABRICACIÓN, DISTRIBUCIÓN Y VENTA DE GASES DE APLICACIÓN INDUSTRIAL Y MEDICINAL ASÍ COMO LOS DERIVADOS Y MEZCLAS DE ESTOS; LA FABRICACIÓN, DISTRIBUCIÓN Y VENTA DE EQUIPOS Y APARATOS RELACIONADOS CON EL USO DE AQUELLOS PRODUCTOS ASÍ COMO LA PRESTACIÓN DE SERVICIOS QUE LOS UTILICEN Y/O RELACIONADOS CON EL USO, PRODUCCIÓN, DISTRIBUCIÓN Y VENTA DE LOS PRODUCTOS ANTES ENUMERADOS INCLUYENDO LA EJECUCIÓN DE TODO TIPO DE MONTAJES E INSTALACIONES. PRESTACIÓN DE TODA CLASE DE SERVICIOS RELATIVOS A LA OPERACIÓN DE PLANTAS Y EQUIPOS INDUSTRIALES, INCLUIDA LA CESIÓN POR CUALQUIER TÍTULO BIEN COMO CEDENTE BIEN COMO CESIONARIO",
      "mainEntityOfPage": "https://www.contratacion.euskadi.eus/webkpe00-kperoc/es/ac71aBusquedaRegistrosWar/empresa/00432",
      "_links": {
        "self": {
          "name": "PRAXAIR ESPAÑA, S.L.",
          "href": "https://api.euskadi.eus/procurements/companies/00432"
        }
      }
    },
    {
      "name": "CONSTRUCCIONES G. GONZÁLEZ, S.A.",
      "registrationNumber": "00278",
      "identificationNumber": "A01023498",
      "address": "C/ AVENIDA GASTEIZ, Nº 25 - 1º B.",
      "location": {
        "postalCode": "01008",
        "municipality": "Vitoria-Gasteiz",
        "county": "Araba/Álava",
        "municipalityId": "059",
        "countyId": "01"
      },
      "economicActivities": [
        {
          "id": "1.501.2",
          "name": "Construcción completa, reparación y conservación obras civiles",
          "_links": {
            "self": {
              "name": "Construcción completa, reparación y conservación obras civiles",
              "href": "https://api.euskadi.eus/procurements/companies/economic-activities/1.501.2"
            }
          }
        }
      ],
      "certificateStartDate": "2013-08-20",
      "certificateEndDate": "2014-02-20",
      "object": "LA PROMOCIÓN Y EJECUCIÓN COMPLETA O POR RAMOS DE TODA CLASE DE OBRAS DE CONSTRUCCIÓN, URBANIZACIÓN Y SERVICIOS, REPARACIÓN O CONSERVACIÓN POR CUENTA PROPIA O AJENA DE VIVIENDAS Y LOCALES COMERCIALES, INCLUSO DE LAS LLAMADAS DE PROTECCIÓN OFICIAL; LA COMPRAVENTA Y ALQUILER DE EDIFICACIONES EN SU TOTALIDAD, POR PARTES O POR PISOS,  BIEN PARA VIVIENDAS O PARA LOCALES DE OFICINA, DE NEGOCIO O INDUSTRIALES, CONSTRUÍDAS PARA TAL FIN DIRECTAMENTE O POR MEDIO DE CONTRATISTAS, SUBCONTRATISTAS Y DESTAJISTAS, O BIEN ADQUIRIDAS YA CONSTRUÍDAS O EN CONSTRUCCIÓN; COMPRAVENTA, ALQUILER DE TERRENOS RÚSTICOS O URBANOS Y EXPLOTACIÓN DIRECTA O A TRAVÉS DE CONTRATOS DE CESIÓN, DE USO O ARRENDAMIENTO DE GARAGES Y PARKINGS",
      "mainEntityOfPage": "https://www.contratacion.euskadi.eus/webkpe00-kperoc/es/ac71aBusquedaRegistrosWar/empresa/00278",
      "_links": {
        "self": {
          "name": "CONSTRUCCIONES G. GONZÁLEZ, S.A.",
          "href": "https://api.euskadi.eus/procurements/companies/00278"
        }
      }
    },
    {
      "name": "BETULA INGENIERÍA MEDIOAMBIENTAL, S.L.",
      "registrationNumber": "04789",
      "identificationNumber": "B39735337",
      "address": "BARRIO LA LASTRA, 7B-Nº 2",
      "location": {
        "postalCode": "39477",
        "municipality": "Piélagos",
        "county": "Cantabria",
        "municipalityId": "052",
        "countyId": "39"
      },
      "economicActivities": [
        {
          "id": "1.843.1",
          "name": "Servicios técnicos de ingeniería",
          "_links": {
            "self": {
              "name": "Servicios técnicos de ingeniería",
              "href": "https://api.euskadi.eus/procurements/companies/economic-activities/1.843.1"
            }
          }
        }
      ],
      "certificateStartDate": "2013-08-20",
      "certificateEndDate": "2014-02-20",
      "object": "LA ELABORACIÓN, DIRECCIÓN Y SEGUIMIENTO DE PROYECTOS MEDIOAMBIENTALES, ASÍ COMO LA GESTIÓN DE CALIDAD, MEDIOAMBIENTE Y PREVENCIÓN DE RIESGOS LABORALES DE SUS CLIENTES; Y PARA EL DESARROLLO DE SUS FINES, LA COMPRAVENTA Y EL ALQUILER DE BIENES INMUEBLES",
      "mainEntityOfPage": "https://www.contratacion.euskadi.eus/webkpe00-kperoc/es/ac71aBusquedaRegistrosWar/empresa/04789",
      "_links": {
        "self": {
          "name": "BETULA INGENIERÍA MEDIOAMBIENTAL, S.L.",
          "href": "https://api.euskadi.eus/procurements/companies/04789"
        }
      }
    }
  ]
}