{
  "totalItems": 9042,
  "totalPages": 905,
  "currentPage": 535,
  "itemsOfPage": 10,
  "items": [
    {
      "name": "ASOCIACIÓN DE MEDIACIÓN INTERCULTURAL- 3. KULTURA",
      "registrationNumber": "07617",
      "identificationNumber": "G95971115",
      "address": "ZEARKALE 35,1-7",
      "location": {
        "postalCode": "48260",
        "municipality": "Ermua",
        "county": "Bizkaia",
        "municipalityId": "034",
        "countyId": "48"
      },
      "economicActivities": [
        {
          "id": "1.934",
          "name": "Enseñanza fuera de establecimiento permanente",
          "_links": {
            "self": {
              "name": "Enseñanza fuera de establecimiento permanente",
              "href": "https://api.euskadi.eus/procurements/companies/economic-activities/1.934"
            }
          }
        }
      ],
      "certificateStartDate": "2021-04-26",
      "certificateEndDate": "2021-06-07",
      "object": "INFORMACIÓN NORMATIVA, EDUCATIVA Y SOCIAL EN EL CONTEXTO DE LA MEDIACIÓN. TRADUCCIÓN E INTERPRETACIÓN DE LENGUAS EXTRANJERAS. TALLERES, CHARLAS, JORNADAS, CURSOS DE FORMACIÓN. ACOMPAÑAMIENTO SOCIAL A PERSONAS Y FAMILIAS. ORIENTACIÓN EN MATERIA DE INTEGRACIÓN INTERCULTURAL A PROFESIONALES. CAMPAÑA DE SENSIBILIZACIÓN. ACTIVIDADES DE INVESTIGACIÓN, COOPERACIÓN INTERNACIONAL Y DESARROLLO. DESARROLLO DE PROYECTOS EN COLABORACIÓN CON OTRAS ENTIDADES",
      "mainEntityOfPage": "https://www.contratacion.euskadi.eus/webkpe00-kperoc/es/ac71aBusquedaRegistrosWar/empresa/07617",
      "_links": {
        "self": {
          "name": "ASOCIACIÓN DE MEDIACIÓN INTERCULTURAL- 3. KULTURA",
          "href": "https://api.euskadi.eus/procurements/companies/07617"
        }
      }
    },
    {
      "name": "ARTES GRÁFICAS BOTELLA GÓMEZ, S.L.",
      "registrationNumber": "07618",
      "identificationNumber": "B98908601",
      "address": "Calle San Sebastian, 3 bajo",
      "location": {
        "postalCode": "46113",
        "municipality": "Montcada/Moncada",
        "county": "Valencia/València",
        "municipalityId": "171",
        "countyId": "46"
      },
      "economicActivities": [
        {
          "id": "1.474",
          "name": "Artes gráficas (impresión gráfica)",
          "_links": {
            "self": {
              "name": "Artes gráficas (impresión gráfica)",
              "href": "https://api.euskadi.eus/procurements/companies/economic-activities/1.474"
            }
          }
        },
        {
          "id": "1.659.4",
          "name": "Venta al por menor de libros, periódicos y artículos de papelería y escritorio",
          "_links": {
            "self": {
              "name": "Venta al por menor de libros, periódicos y artículos de papelería y escritorio",
              "href": "https://api.euskadi.eus/procurements/companies/economic-activities/1.659.4"
            }
          }
        }
      ],
      "certificateStartDate": "2021-04-26",
      "certificateEndDate": "2021-10-20",
      "object": "LA REALIZACIÓN DE TRABAJOS DE IMPRESIÓN, EDICIÓN, MANIPULACIÓN, ELABORACIÓN Y DEMÁS TAREAS RELACIONADAS CON LAS ARTES GRÁFICAS Y LA EDICIÓN, COMERCIALIZACIÓN, DISTRIBUCIÓN DE MATERIALES Y PRODUCTOS RELACIONADOS CON LAS ARTES GRÁFICAS Y LA EDICIÓN, Y LA COMERCIALIZACIÓN DE MATERIAL Y PRODUCTOS DE OFICINA",
      "mainEntityOfPage": "https://www.contratacion.euskadi.eus/webkpe00-kperoc/es/ac71aBusquedaRegistrosWar/empresa/07618",
      "_links": {
        "self": {
          "name": "ARTES GRÁFICAS BOTELLA GÓMEZ, S.L.",
          "href": "https://api.euskadi.eus/procurements/companies/07618"
        }
      }
    },
    {
      "name": "ESTALI LA KARPA S.L.U.",
      "registrationNumber": "05555",
      "identificationNumber": "B75144436",
      "address": "Inbisa enpresagune D4, 140 buleg Los Olmos Etorb",
      "location": {
        "postalCode": "01008",
        "municipality": "Vitoria-Gasteiz",
        "county": "Araba/Álava",
        "municipalityId": "059",
        "countyId": "01"
      },
      "economicActivities": [
        {
          "id": "1.615.9",
          "name": "Venta al por mayor de otros artículos de consumo duradero n.c.o.p",
          "_links": {
            "self": {
              "name": "Venta al por mayor de otros artículos de consumo duradero n.c.o.p",
              "href": "https://api.euskadi.eus/procurements/companies/economic-activities/1.615.9"
            }
          }
        },
        {
          "id": "1.859",
          "name": "Alquiler de otros bienes muebles n.c.o.p. (sin personal permanente)",
          "_links": {
            "self": {
              "name": "Alquiler de otros bienes muebles n.c.o.p. (sin personal permanente)",
              "href": "https://api.euskadi.eus/procurements/companies/economic-activities/1.859"
            }
          }
        },
        {
          "id": "1.989.2",
          "name": "Servicios de organización de congresos, asambleas y similares",
          "_links": {
            "self": {
              "name": "Servicios de organización de congresos, asambleas y similares",
              "href": "https://api.euskadi.eus/procurements/companies/economic-activities/1.989.2"
            }
          }
        }
      ],
      "certificateStartDate": "2021-04-23",
      "certificateEndDate": "2021-10-23",
      "object": "INSTALACIÓN, MONTAJE, ALQUILERES Y VENTA DE CARPAS Y COMPLEMENTOS",
      "mainEntityOfPage": "https://www.contratacion.euskadi.eus/webkpe00-kperoc/es/ac71aBusquedaRegistrosWar/empresa/05555",
      "_links": {
        "self": {
          "name": "ESTALI LA KARPA S.L.U.",
          "href": "https://api.euskadi.eus/procurements/companies/05555"
        }
      }
    },
    {
      "name": "GASTECOM, S.L.",
      "registrationNumber": "07615",
      "identificationNumber": "B01204320",
      "address": "Calle Paduleta, 63 Pabellón 14",
      "location": {
        "postalCode": "01015",
        "municipality": "Vitoria-Gasteiz",
        "county": "Araba/Álava",
        "municipalityId": "059",
        "countyId": "01"
      },
      "economicActivities": [
        {
          "id": "1.653.2",
          "name": "Venta al por menor de material y aparatos eléctricos, electrodomésticos y cocina",
          "_links": {
            "self": {
              "name": "Venta al por menor de material y aparatos eléctricos, electrodomésticos y cocina",
              "href": "https://api.euskadi.eus/procurements/companies/economic-activities/1.653.2"
            }
          }
        },
        {
          "id": "1.761.1",
          "name": "Servicios telefónicos en domicilios particulares",
          "_links": {
            "self": {
              "name": "Servicios telefónicos en domicilios particulares",
              "href": "https://api.euskadi.eus/procurements/companies/economic-activities/1.761.1"
            }
          }
        },
        {
          "id": "1.769",
          "name": "Otros servicios de telecomunicaciones",
          "_links": {
            "self": {
              "name": "Otros servicios de telecomunicaciones",
              "href": "https://api.euskadi.eus/procurements/companies/economic-activities/1.769"
            }
          }
        }
      ],
      "certificateStartDate": "2021-04-23",
      "certificateEndDate": "2021-10-19",
      "object": "LA VENTA AL POR MENOR DE ARTÍCULOS DE TELECOMUNICACIÓN Y BASES DE DESCANSO",
      "mainEntityOfPage": "https://www.contratacion.euskadi.eus/webkpe00-kperoc/es/ac71aBusquedaRegistrosWar/empresa/07615",
      "_links": {
        "self": {
          "name": "GASTECOM, S.L.",
          "href": "https://api.euskadi.eus/procurements/companies/07615"
        }
      }
    },
    {
      "name": "CONSTRUCCIONES SUKIA ERAIKUNTZAK, S.A.",
      "registrationNumber": "00049",
      "identificationNumber": "A20040598",
      "address": "CASA TXINDOKIPE, S/N.",
      "location": {
        "postalCode": "20247",
        "municipality": "Zaldibia",
        "county": "Gipuzkoa",
        "municipalityId": "078",
        "countyId": "20"
      },
      "economicActivities": [
        {
          "id": "1.501.1",
          "name": "Construcción completa, reparación y conservación de edificaciones",
          "_links": {
            "self": {
              "name": "Construcción completa, reparación y conservación de edificaciones",
              "href": "https://api.euskadi.eus/procurements/companies/economic-activities/1.501.1"
            }
          }
        },
        {
          "id": "1.507",
          "name": "Construcción, reparación y conservación de toda clase obras",
          "_links": {
            "self": {
              "name": "Construcción, reparación y conservación de toda clase obras",
              "href": "https://api.euskadi.eus/procurements/companies/economic-activities/1.507"
            }
          }
        },
        {
          "id": "1.833.1",
          "name": "Promoción de terrenos",
          "_links": {
            "self": {
              "name": "Promoción de terrenos",
              "href": "https://api.euskadi.eus/procurements/companies/economic-activities/1.833.1"
            }
          }
        },
        {
          "id": "1.833.2",
          "name": "Promoción de edificaciones",
          "_links": {
            "self": {
              "name": "Promoción de edificaciones",
              "href": "https://api.euskadi.eus/procurements/companies/economic-activities/1.833.2"
            }
          }
        },
        {
          "id": "1.833.21",
          "name": "Promoción de edificaciones - Cuota fija",
          "_links": {
            "self": {
              "name": "Promoción de edificaciones - Cuota fija",
              "href": "https://api.euskadi.eus/procurements/companies/economic-activities/1.833.21"
            }
          }
        }
      ],
      "certificateStartDate": "2021-04-22",
      "certificateEndDate": "2021-01-02",
      "object": "LA CONTRATACIÓN, GESTIÓN Y EJECUCIÓN DE TODA CLASE DE OBRAS Y CONSTRUCCIONES EN SU MÁS AMPLIO SENTIDO, TANTO PÚBLICAS COMO PRIVADAS. LA ADQUISICIÓN, ADMINISTRACIÓN, GESTIÓN, PROMOCIÓN, EXPLOTACIÓN EN ARRENDAMIENTO O EN CUALQUIER OTRA FORMA, CONSTRUCCIÓN, COMPRA Y VENTA DE TODA CLASE DE BIENES INMUEBLES, ASÍ COMO EL ASESORAMIENTO RESPECTO A LAS OPERACIONES ANTERIORES. LA ELABORACIÓN DE TODO TIPO DE PROYECTOS DE INGENIERÍA Y ARQUITECTURA ASÍ COMO LA SUPERVISIÓN, DIRECCIÓN Y ASESORAMIENTO EN LA EJECUCIÓN DE TODO TIPO DE OBRAS Y CONSTRUCCIONES. MANTENIMIENTO, REHABILITACIÓN Y ACONDICIONAMIENTO DE EDIFICIOS. PROMOCIÓN, GESTIÓN Y EJECUCIÓN DE TODO TIPO DE NEGOCIOS INMOBILIARIOS, TANTO EN SU VERTIENTE URBANÍSTICA, COMO DE LA CONSTRUCCIÓN EN SI, PARA SU EXPLOTACIÓN, VENTA O ALQUILER. LA ADQUISICIÓN, TENENCIA, DISFRUTE, ADMINISTRACIÓN Y ENAJENACIÓN DE TODA CLASE DE VALORES MOBILIARIOS POR CUENTA PROPIA, QUEDANDO EXCLUIDAS LAS ACTIVIDADES QUE LA LEGISLACIÓN ESPECIAL Y BÁSICAMENTE LA LEY DEL MERCADO DE VALORES ATRIBUYE CON CARÁCTER EXCLUSIVO A OTRAS ENTIDADES. LA TITULARIDAD DE TODA CLASE DE CONCESIONES, SUBCONCESIONES, Y AUTORIZACIONES ADMINISTRATIVAS DE OBRAS, SERVICIOS Y MIXTAS DEL ESTADO, COMUNIDAD AUTÓNOMA, PROVINCIA Y MUNICIPIO Y LA PARTICIPACIÓN ACCIONARIAL EN SOCIEDADES CONCESIONARIAS DE AQUELLAS. LA EXPLOTACIÓN DE MINAS Y CANTERAS Y LA COMERCIALIZACIÓN DE SUS PRODUCTOS. LA FABRICACIÓN, COMPRA, VENTA, IMPORTACIÓN, EXPORTACIÓN Y DISTRIBUCIÓN DE EQUIPOS, INSTALACIÓN DE ELEMENTOS Y MATERIALES DE CONSTRUCCIÓN O DESTINADOS A LA MISMA, AL AMUEBLAMIENTO DE INMUEBLES Y MOBILIARIO URBANO. ADQUISICIÓN, EXPLOTACIÓN, EN CUALQUIER FORMA, COMERCIALIZACIÓN, CESIÓN Y ENAJENACIÓN DE TODO TIPO DE PROPIEDAD INTELECTUAL Y PATENTES Y DEMAS MODALIDADES DE PROPIEDAD INDUSTRIAL",
      "mainEntityOfPage": "https://www.contratacion.euskadi.eus/webkpe00-kperoc/es/ac71aBusquedaRegistrosWar/empresa/00049",
      "_links": {
        "self": {
          "name": "CONSTRUCCIONES SUKIA ERAIKUNTZAK, S.A.",
          "href": "https://api.euskadi.eus/procurements/companies/00049"
        }
      }
    },
    {
      "name": "METAINNOVA SOLUTIONS, S.L.U.",
      "registrationNumber": "07611",
      "identificationNumber": "B95849980",
      "address": "ALDAPA, 18, 4º IZQ",
      "location": {
        "postalCode": "48901",
        "municipality": "Barakaldo",
        "county": "Bizkaia",
        "municipalityId": "013",
        "countyId": "48"
      },
      "economicActivities": [
        {
          "id": "1.659.2",
          "name": "Venta al por menor de muebles de oficina y máquinas y equipos de oficina",
          "_links": {
            "self": {
              "name": "Venta al por menor de muebles de oficina y máquinas y equipos de oficina",
              "href": "https://api.euskadi.eus/procurements/companies/economic-activities/1.659.2"
            }
          }
        },
        {
          "id": "1.843.1",
          "name": "Servicios técnicos de ingeniería",
          "_links": {
            "self": {
              "name": "Servicios técnicos de ingeniería",
              "href": "https://api.euskadi.eus/procurements/companies/economic-activities/1.843.1"
            }
          }
        }
      ],
      "certificateStartDate": "2021-04-22",
      "certificateEndDate": "2021-09-16",
      "object": "INSTALACIÓN Y MANTENIMIENTO DE INFRAESTRUCTURAS INFORMÁTICAS. SERVICIOS A EMPRESAS DE MANENIMIENTO: EQUIPOS, REDES, IMPRESORAS Y SERVIDORES. VENTA DE EQUIPOS Y SERVIDORES",
      "mainEntityOfPage": "https://www.contratacion.euskadi.eus/webkpe00-kperoc/es/ac71aBusquedaRegistrosWar/empresa/07611",
      "_links": {
        "self": {
          "name": "METAINNOVA SOLUTIONS, S.L.U.",
          "href": "https://api.euskadi.eus/procurements/companies/07611"
        }
      }
    },
    {
      "name": "MANTENIMIENTO INSTRUMENTACIÓN PRODUCTOS ELECTRÓNICOS, S.A.",
      "registrationNumber": "07612",
      "identificationNumber": "A79065868",
      "address": "AVENIDA JUAN CARAMUEL, 7 - PARQUE TECNOLOGICO LEGANES",
      "location": {
        "postalCode": "28919",
        "municipality": "Leganés",
        "county": "Madrid",
        "municipalityId": "074",
        "countyId": "28"
      },
      "economicActivities": [
        {
          "id": "1.654.5",
          "name": "Venta al por menor de toda clase de maquinaría",
          "_links": {
            "self": {
              "name": "Venta al por menor de toda clase de maquinaría",
              "href": "https://api.euskadi.eus/procurements/companies/economic-activities/1.654.5"
            }
          }
        },
        {
          "id": "1.843.9",
          "name": "Otros servicios técnicos n.c.o.p",
          "_links": {
            "self": {
              "name": "Otros servicios técnicos n.c.o.p",
              "href": "https://api.euskadi.eus/procurements/companies/economic-activities/1.843.9"
            }
          }
        }
      ],
      "certificateStartDate": "2021-04-22",
      "certificateEndDate": "2021-10-06",
      "object": "LA FABRICACIÓN Y COMERCIALIZACIÓN DE MAQUINARIA Y COMPONENTES ELECTRÓNICOS. LA REALIZACIÓN DE INSTALACIONES EÉCTRICAS Y DE CONTROL. EL MANTENIMIENTO INTEGRAL, SUMINISTRO Y COMERCIALIZACIÓN DE TODO TIPO DE PRODUCTOS, INSTRUMENTOS, MATERIALES Y BIENES PARA LA INDUSTRIA O PARA CUALQUIER ORGANISMO OFICIAL O EMPRESA PRIVADA",
      "mainEntityOfPage": "https://www.contratacion.euskadi.eus/webkpe00-kperoc/es/ac71aBusquedaRegistrosWar/empresa/07612",
      "_links": {
        "self": {
          "name": "MANTENIMIENTO INSTRUMENTACIÓN PRODUCTOS ELECTRÓNICOS, S.A.",
          "href": "https://api.euskadi.eus/procurements/companies/07612"
        }
      }
    },
    {
      "name": "GARSANSIANOR, S.L.",
      "registrationNumber": "06613",
      "identificationNumber": "B95108106",
      "address": "POL..iND. LA GENERAL PAB 12A",
      "location": {
        "postalCode": "48510",
        "municipality": "Valle de Trápaga-Trapagaran",
        "county": "Bizkaia",
        "municipalityId": "080",
        "countyId": "48"
      },
      "economicActivities": [
        {
          "id": "1.505.1",
          "name": "Revestimientos exteriores e interiores de todas clases",
          "_links": {
            "self": {
              "name": "Revestimientos exteriores e interiores de todas clases",
              "href": "https://api.euskadi.eus/procurements/companies/economic-activities/1.505.1"
            }
          }
        },
        {
          "id": "1.653.3",
          "name": "Venta al por menor de artículos de menaje, ferretería, adorno, regalo",
          "_links": {
            "self": {
              "name": "Venta al por menor de artículos de menaje, ferretería, adorno, regalo",
              "href": "https://api.euskadi.eus/procurements/companies/economic-activities/1.653.3"
            }
          }
        },
        {
          "id": "1.934",
          "name": "Enseñanza fuera de establecimiento permanente",
          "_links": {
            "self": {
              "name": "Enseñanza fuera de establecimiento permanente",
              "href": "https://api.euskadi.eus/procurements/companies/economic-activities/1.934"
            }
          }
        }
      ],
      "certificateStartDate": "2021-04-21",
      "certificateEndDate": "2021-10-07",
      "object": "1-LOS REVESTIMIENTOS EXTERIORES E INTERIORES EN TODO TIPO DE OBRAS. 2-EL ACABADO DE OBRAS EN GENERAL. 3-LA CONSTRUCCIÓN COMPLETA, REPARACIÓN Y CONSERVACIÓN DE OBRAS CIVILES. 4-LA PREPARACIÓN Y EL MONTAJE DE ESTRUCTURAS CUBIERTAS. 5-LA ENSEÑANZA, FORMACIÓN Y PERFECCIONAMIENTO PROFESIONAL DEL PERSONAL QUE DESARROLLE CUALQUIERA DE LAS ACTIVIDADES QUE CONSTITUYEN EL OBJETO SOCIAL. 6-LA FABRICACIÓN, COMERCIALIZACIÓN, VENTA MAYOR Y MENOR DE ARTÍCULOS DE CUEROS INDUSTRIALES Y MATERIALES DE PROTECCIÓN PARA OBREROS. 7-INSTALACIÓN Y MANTENIMIENTO DE SISTEMAS DE SEGURIDAD LABORAL, INDIVIDUALES Y COLECTIVOS. 8-LA PROMOCIÓN, COORDINACIÓN Y EJECUCIÓN DE CONFERENCIAS, CHARLAS, COLOQUIOS Y CURSOS",
      "mainEntityOfPage": "https://www.contratacion.euskadi.eus/webkpe00-kperoc/es/ac71aBusquedaRegistrosWar/empresa/06613",
      "_links": {
        "self": {
          "name": "GARSANSIANOR, S.L.",
          "href": "https://api.euskadi.eus/procurements/companies/06613"
        }
      }
    },
    {
      "name": "DEMOTEX AMIANTO Y GESTIÓN, S.L.",
      "registrationNumber": "07605",
      "identificationNumber": "B01665595",
      "address": "MAXIMO AGUIRRE, 18-BIS. 5- DPTO 10",
      "location": {
        "postalCode": "48011",
        "municipality": "Bilbao",
        "county": "Bizkaia",
        "municipalityId": "020",
        "countyId": "48"
      },
      "economicActivities": [
        {
          "id": "1.502.1",
          "name": "Demoliciones y derribos en general",
          "_links": {
            "self": {
              "name": "Demoliciones y derribos en general",
              "href": "https://api.euskadi.eus/procurements/companies/economic-activities/1.502.1"
            }
          }
        }
      ],
      "certificateStartDate": "2021-04-21",
      "certificateEndDate": "2021-10-19",
      "object": "LA RECOGIDA, TRATAMIENTO Y ELIMINACIÓN DE RESIDUOS.... ACTIVIDADES DE DESCONTAMINACIÓN Y OTROS SERVICIOS DE GESTIÓN DE RESIDUOS. ACTIVIDADES DE DEMOLICIÓN EN GENERAL. LA ADQUISICIÓN DE TERRENOS Y SOLARES PARA SU URBANIZACIÓN, PARCELACIÓN Y USO, ASÍ COMO LA ADQUISICIÓN, PROMOCIÓN Y CONSTRUCCIÓN DE TODA CLASE DE INMUEBLES EN TODO CASO, TANTO PARA SU AFECTACIÓN A LAS ACTIVIDADES SOCIALES CUANTO PARA LA VENTA COMO PARA EL ARRENDAMIENTO DE UNOS Y OTROS. LA ADQUISICIÓN POR CUALQUIER TÍTULO, TENENCIA, ADMINISTRACIÓN GESTIÓN Y ENAJENACIÓN, SIEMPRE POR CUENTA PROPIA, DE ACTIVOS FINANCIEROS Y TÍTULOS VALORES, SEAN DE CARÁCTER PÚBLICO O PRIVADO ADMITIDOS A COTIZACIÓN O NO\r\n",
      "mainEntityOfPage": "https://www.contratacion.euskadi.eus/webkpe00-kperoc/es/ac71aBusquedaRegistrosWar/empresa/07605",
      "_links": {
        "self": {
          "name": "DEMOTEX AMIANTO Y GESTIÓN, S.L.",
          "href": "https://api.euskadi.eus/procurements/companies/07605"
        }
      }
    },
    {
      "name": "SERAMNOR 18, S.L.",
      "registrationNumber": "07606",
      "identificationNumber": "B75195594",
      "address": "CAMINO PORTUETXE 47 PORTAL 3 OF 34",
      "location": {
        "postalCode": "20018",
        "municipality": "Donostia / San Sebastián",
        "county": "Gipuzkoa",
        "municipalityId": "069",
        "countyId": "20"
      },
      "economicActivities": [
        {
          "id": "1.614.2",
          "name": "Venta al por mayor de productos de perfumería, droguería, higiene y belleza",
          "_links": {
            "self": {
              "name": "Venta al por mayor de productos de perfumería, droguería, higiene y belleza",
              "href": "https://api.euskadi.eus/procurements/companies/economic-activities/1.614.2"
            }
          }
        }
      ],
      "certificateStartDate": "2021-04-21",
      "certificateEndDate": "2021-08-15",
      "object": "LA COMPRAVENTA Y COMERCIALIZACIÓN DE AMBIENTADORES, CELULOSAS, MÓDULOS DE HIGIENE, DETERGENTES Y MAQUINARIA DE LIMPIEZA",
      "mainEntityOfPage": "https://www.contratacion.euskadi.eus/webkpe00-kperoc/es/ac71aBusquedaRegistrosWar/empresa/07606",
      "_links": {
        "self": {
          "name": "SERAMNOR 18, S.L.",
          "href": "https://api.euskadi.eus/procurements/companies/07606"
        }
      }
    }
  ]
}