{
  "totalItems": 9042,
  "totalPages": 905,
  "currentPage": 297,
  "itemsOfPage": 10,
  "items": [
    {
      "name": "DEITEL DIRECT, S.L.",
      "registrationNumber": "02140",
      "identificationNumber": "B20564720",
      "address": "Portuetxe 53b oficina 316 20018",
      "location": {
        "postalCode": "20005",
        "municipality": "Donostia / San Sebastián",
        "county": "Gipuzkoa",
        "municipalityId": "069",
        "countyId": "20"
      },
      "economicActivities": [
        {
          "id": "1.845",
          "name": "Explotación electrónica por cuenta de terceros",
          "_links": {
            "self": {
              "name": "Explotación electrónica por cuenta de terceros",
              "href": "https://api.euskadi.eus/procurements/companies/economic-activities/1.845"
            }
          }
        },
        {
          "id": "1.849.9",
          "name": "Otros servicios independientes n.c.o.p",
          "_links": {
            "self": {
              "name": "Otros servicios independientes n.c.o.p",
              "href": "https://api.euskadi.eus/procurements/companies/economic-activities/1.849.9"
            }
          }
        }
      ],
      "certificateStartDate": "2025-09-07",
      "certificateEndDate": "2026-03-07",
      "object": ".*LA PLANIFICACIÓN Y EJECUCIÓN DE CAMPAÑAS DE MARKETING DIRECTO, EN ESPECIAL AQUÉLLAS QUE UTILICEN EL TELEMARKETING (TÉCNICAS DE ATENCIÓN Y VENTA TELEFÓNICA) COMO SOPORTE DE DIFUSIÓN DE SUS MENSAJES.* LA PLANIFICACIÓN Y EJECUCIÓN DE EVENTOS PÚBLICOS Y CONGRESOS.* LA PRESTACIÓN DE SERVICIOS DE ATENCIÓN AL PÚBLICO BIEN SEA DE FORMA DIRECTA O A TRAVÉS DE MEDIOS TELEFÓNICOS.* LA CONFIGURACIÓN DE SERVICIOS DE ATENCIÓN AL PÚBLICO PARA OTRAS ENTIDADES PÚBLICAS O PRIVADAS QUE ASÍ SE LO SOLICITEN.* LA IMPARTICIÓN DE CURSOS DE FORMACIÓN EN LAS MATERIAS OBJETO DE SU ACTIVIDAD DESTINADOS TANTO A SU PROPIO PERSONAL, COMO A PERSONAS O EMPRESAS AJENAS.* LA CREACIÓN Y COMERCIALIZACIÓN DE BASES DE DATOS DOCUMENTALES QUE RESULTEN DE INTERÉS PARA EMPRESAS Y ENTIDADES. * LA PRESTACIÓN DE SERFVICIOS DE CAPTURA DE DATOS A TRAVÉS DE CUALQUIER MEDIO, ENTRE OTROS, LA GRABACIÓN MANUAL MEDIANTE ORDENADORES Y PROGRAMAS IFNORMÁTICOS, LA COMPROBACIÓN Y VERIFIDACIÓN DE DATOS PROCEDENTES DE SISTEMAS TELEMÁTICOS, DISQUETES U OTROS SOPORTES, SISTEMAS DE LECTURA ÓPTICA, ETC. *LA REALIZACIÓN DE ENCUESTAS Y ESTUDIOS ESTADÍSTICOS QUE INCLUYEN TRABAJO DE CAMPO, GRABACIÓ Y VALIDACIÓN INFORMÁTICA DE DATOS, ELABORACIÓN DE INFORMES Y, EN GENERAL, TODAS AQUELLAS TAREAS RELACIONADAS CON LA REALIZACIÓN DE ESTE TIPO DE ESTUDIOS. *LA PRESTACIÓN DE SERVICIOS ADMINISTRATIVOS, MEDIANTE LA UTILIZACIÓN DE RECURSOS PROPIOS O PRESTANDO APOYO DE RECURSOS HUMANOS Y/O RECURSOS TÉCNICOS A TERCEROS.",
      "mainEntityOfPage": "https://www.contratacion.euskadi.eus/webkpe00-kperoc/es/ac71aBusquedaRegistrosWar/empresa/02140",
      "_links": {
        "self": {
          "name": "DEITEL DIRECT, S.L.",
          "href": "https://api.euskadi.eus/procurements/companies/02140"
        }
      }
    },
    {
      "name": "PROMOCIONES BEIÑ, S.A.",
      "registrationNumber": "08046",
      "identificationNumber": "A48264139",
      "address": "Plaza Zeroetxe",
      "location": {
        "postalCode": "48160",
        "municipality": "Derio",
        "county": "Bizkaia",
        "municipalityId": "901",
        "countyId": "48"
      },
      "economicActivities": [
        {
          "id": "1.501.1",
          "name": "Construcción completa, reparación y conservación de edificaciones",
          "_links": {
            "self": {
              "name": "Construcción completa, reparación y conservación de edificaciones",
              "href": "https://api.euskadi.eus/procurements/companies/economic-activities/1.501.1"
            }
          }
        },
        {
          "id": "1.833.21",
          "name": "Promoción de edificaciones - Cuota fija",
          "_links": {
            "self": {
              "name": "Promoción de edificaciones - Cuota fija",
              "href": "https://api.euskadi.eus/procurements/companies/economic-activities/1.833.21"
            }
          }
        }
      ],
      "certificateStartDate": "2025-09-07",
      "certificateEndDate": "2026-03-07",
      "classification": [
        {
          "id": "O",
          "name": "Obras",
          "groups": [
            {
              "id": "C",
              "name": "EDIFICACIONES",
              "subgroups": [
                {
                  "id": "01",
                  "name": "DEMOLICIONES",
                  "categories": [
                    {
                      "id": "4",
                      "name": "Desde 840.001 Hasta 2.400.000",
                      "_links": {
                        "self": {
                          "name": "Desde 840.001 Hasta 2.400.000",
                          "href": "https://api.euskadi.eus/procurements/companies/types/O/categories/4"
                        }
                      }
                    }
                  ],
                  "_links": {
                    "self": {
                      "name": "DEMOLICIONES",
                      "href": "https://api.euskadi.eus/procurements/companies/types/O/groups/C/subgroups/01"
                    }
                  }
                },
                {
                  "id": "02",
                  "name": "ESTRUCTURAS DE FABRICA U HORMIGÓN",
                  "categories": [
                    {
                      "id": "4",
                      "name": "Desde 840.001 Hasta 2.400.000",
                      "_links": {
                        "self": {
                          "name": "Desde 840.001 Hasta 2.400.000",
                          "href": "https://api.euskadi.eus/procurements/companies/types/O/categories/4"
                        }
                      }
                    }
                  ],
                  "_links": {
                    "self": {
                      "name": "ESTRUCTURAS DE FABRICA U HORMIGÓN",
                      "href": "https://api.euskadi.eus/procurements/companies/types/O/groups/C/subgroups/02"
                    }
                  }
                },
                {
                  "id": "03",
                  "name": "ESTRUCTURAS METALICAS",
                  "categories": [
                    {
                      "id": "4",
                      "name": "Desde 840.001 Hasta 2.400.000",
                      "_links": {
                        "self": {
                          "name": "Desde 840.001 Hasta 2.400.000",
                          "href": "https://api.euskadi.eus/procurements/companies/types/O/categories/4"
                        }
                      }
                    }
                  ],
                  "_links": {
                    "self": {
                      "name": "ESTRUCTURAS METALICAS",
                      "href": "https://api.euskadi.eus/procurements/companies/types/O/groups/C/subgroups/03"
                    }
                  }
                },
                {
                  "id": "04",
                  "name": "ALBAÑILERIA, REVOCOS Y REVESTIDOS",
                  "categories": [
                    {
                      "id": "4",
                      "name": "Desde 840.001 Hasta 2.400.000",
                      "_links": {
                        "self": {
                          "name": "Desde 840.001 Hasta 2.400.000",
                          "href": "https://api.euskadi.eus/procurements/companies/types/O/categories/4"
                        }
                      }
                    }
                  ],
                  "_links": {
                    "self": {
                      "name": "ALBAÑILERIA, REVOCOS Y REVESTIDOS",
                      "href": "https://api.euskadi.eus/procurements/companies/types/O/groups/C/subgroups/04"
                    }
                  }
                },
                {
                  "id": "05",
                  "name": "CANTERIA Y MARMOLERIA",
                  "categories": [
                    {
                      "id": "4",
                      "name": "Desde 840.001 Hasta 2.400.000",
                      "_links": {
                        "self": {
                          "name": "Desde 840.001 Hasta 2.400.000",
                          "href": "https://api.euskadi.eus/procurements/companies/types/O/categories/4"
                        }
                      }
                    }
                  ],
                  "_links": {
                    "self": {
                      "name": "CANTERIA Y MARMOLERIA",
                      "href": "https://api.euskadi.eus/procurements/companies/types/O/groups/C/subgroups/05"
                    }
                  }
                },
                {
                  "id": "06",
                  "name": "PAVIMENTOS, SOLADOS Y ALICATADOS",
                  "categories": [
                    {
                      "id": "4",
                      "name": "Desde 840.001 Hasta 2.400.000",
                      "_links": {
                        "self": {
                          "name": "Desde 840.001 Hasta 2.400.000",
                          "href": "https://api.euskadi.eus/procurements/companies/types/O/categories/4"
                        }
                      }
                    }
                  ],
                  "_links": {
                    "self": {
                      "name": "PAVIMENTOS, SOLADOS Y ALICATADOS",
                      "href": "https://api.euskadi.eus/procurements/companies/types/O/groups/C/subgroups/06"
                    }
                  }
                },
                {
                  "id": "07",
                  "name": "AISLAMIENTOS E IMPERMEABILIZACIONES",
                  "categories": [
                    {
                      "id": "4",
                      "name": "Desde 840.001 Hasta 2.400.000",
                      "_links": {
                        "self": {
                          "name": "Desde 840.001 Hasta 2.400.000",
                          "href": "https://api.euskadi.eus/procurements/companies/types/O/categories/4"
                        }
                      }
                    }
                  ],
                  "_links": {
                    "self": {
                      "name": "AISLAMIENTOS E IMPERMEABILIZACIONES",
                      "href": "https://api.euskadi.eus/procurements/companies/types/O/groups/C/subgroups/07"
                    }
                  }
                },
                {
                  "id": "08",
                  "name": "CARPINTERIA DE MADERA",
                  "categories": [
                    {
                      "id": "4",
                      "name": "Desde 840.001 Hasta 2.400.000",
                      "_links": {
                        "self": {
                          "name": "Desde 840.001 Hasta 2.400.000",
                          "href": "https://api.euskadi.eus/procurements/companies/types/O/categories/4"
                        }
                      }
                    }
                  ],
                  "_links": {
                    "self": {
                      "name": "CARPINTERIA DE MADERA",
                      "href": "https://api.euskadi.eus/procurements/companies/types/O/groups/C/subgroups/08"
                    }
                  }
                },
                {
                  "id": "09",
                  "name": "CARPINTERIA METALICA",
                  "categories": [
                    {
                      "id": "4",
                      "name": "Desde 840.001 Hasta 2.400.000",
                      "_links": {
                        "self": {
                          "name": "Desde 840.001 Hasta 2.400.000",
                          "href": "https://api.euskadi.eus/procurements/companies/types/O/categories/4"
                        }
                      }
                    }
                  ],
                  "_links": {
                    "self": {
                      "name": "CARPINTERIA METALICA",
                      "href": "https://api.euskadi.eus/procurements/companies/types/O/groups/C/subgroups/09"
                    }
                  }
                }
              ],
              "_links": {
                "self": {
                  "name": "EDIFICACIONES",
                  "href": "https://api.euskadi.eus/procurements/companies/types/O/groups/C"
                }
              }
            }
          ],
          "_links": {
            "self": {
              "name": "Obras",
              "href": "https://api.euskadi.eus/procurements/companies/types/O"
            }
          }
        }
      ],
      "object": "PROYECTOS, REALIZACIÓN, COMERCIALIZACIÓN Y PROMOCIÓN DE VIVIENDAS, LOCALES Y EDIFICIOS INDUSTRIALES, URBANIZACIONES Y DEMÁS OBRAS DE CONSTRUCCIÓN EN GENERAL, ASÍ COMO COMPRA-VENTA DE TERRENOS Y SOLARES Y PROMOCIÓN DE EMPRESAS, PARTICIPACIÓN Y CREACIÓN DE Y EN EMPRESAS. LA TENENCIA Y POSESIÓN DE TODA CLASE DE PATRIMONIOS, BIENES, DERECHOS ACCIONES O PARTICIPACIONES Y NEGOCIOS EN GENERAL Y LA REPRESENTACIÓN, GESTIÓN, ADMINISTRACIÓN Y CUSTODIA DE LOS MISMOS.",
      "mainEntityOfPage": "https://www.contratacion.euskadi.eus/webkpe00-kperoc/es/ac71aBusquedaRegistrosWar/empresa/08046",
      "_links": {
        "self": {
          "name": "PROMOCIONES BEIÑ, S.A.",
          "href": "https://api.euskadi.eus/procurements/companies/08046"
        }
      }
    },
    {
      "name": "IGNACIO IBARRONDO GARCÍA",
      "registrationNumber": "09029",
      "identificationNumber": "16291670B",
      "address": "larrazketa 2",
      "location": {
        "postalCode": "01440",
        "municipality": "Urkabustaiz",
        "county": "Araba/Álava",
        "municipalityId": "054",
        "countyId": "01"
      },
      "economicActivities": [
        {
          "id": "2.411",
          "name": "Arquitectos",
          "_links": {
            "self": {
              "name": "Arquitectos",
              "href": "https://api.euskadi.eus/procurements/companies/economic-activities/2.411"
            }
          }
        }
      ],
      "certificateStartDate": "2025-09-06",
      "certificateEndDate": "2026-03-06",
      "mainEntityOfPage": "https://www.contratacion.euskadi.eus/webkpe00-kperoc/es/ac71aBusquedaRegistrosWar/empresa/09029",
      "_links": {
        "self": {
          "name": "IGNACIO IBARRONDO GARCÍA",
          "href": "https://api.euskadi.eus/procurements/companies/09029"
        }
      }
    },
    {
      "name": "HPC IBÉRICA, S.A.",
      "registrationNumber": "03815",
      "identificationNumber": "A58620808",
      "address": "París, 184",
      "location": {
        "postalCode": "08036",
        "municipality": "Barcelona",
        "county": "Barcelona",
        "municipalityId": "019",
        "countyId": "08"
      },
      "economicActivities": [
        {
          "id": "1.501.2",
          "name": "Construcción completa, reparación y conservación obras civiles",
          "_links": {
            "self": {
              "name": "Construcción completa, reparación y conservación obras civiles",
              "href": "https://api.euskadi.eus/procurements/companies/economic-activities/1.501.2"
            }
          }
        },
        {
          "id": "1.619.1",
          "name": "Venta al por mayor de juguetes y artículos de deporte",
          "_links": {
            "self": {
              "name": "Venta al por mayor de juguetes y artículos de deporte",
              "href": "https://api.euskadi.eus/procurements/companies/economic-activities/1.619.1"
            }
          }
        }
      ],
      "certificateStartDate": "2025-09-06",
      "certificateEndDate": "2026-03-06",
      "object": "IMPORTACIÓN, EXPORTACIÓN, FABRICACIÓN, COMERCIALIZACIÓN, DISTRIBUCIÓN Y VENTA AL POR MAYOR Y DETALLE, Y ARRENDAMIENTO (EXCLUIDOS EL ARRENDAMIENTO FINANCIERO) DE BIENES, EQUIPOS E INSTALACIONES DE USO PÚBLICO O PRIVADO DESTINADOS AL RECREO, ESPARCIMIENTO, JUEGOS Y DEPORTES, INCLUIDO EL MOBILIARIO EXTERIOR, ELEMENTOS DE JARDINERÍA Y MATERIAL COMPLEMENTARIO TALES COMO JUEGOS INFANTILES, DIDÁCTICOS, PEDAGÓGICOS, MATERIAL ESCOLAR Y DEPORTIVO. TODA ACTIVIDAD U OPERACIÓN YA FUERE COMERCIAL, INDUSTRIAL MOBILIARIO O INMOBILIARIO, SALVO LAS DE ARRENDAMIENTO FINANCIERO, QUE ESTÉN DIRECTAMENTE RELACIONADAS CON EL OBJETO SOCIAL O FACILITAREN SU REALIZACIÓN. CUALQUIER OTRA ACTIVIDAD DE LÍCITO COMERCIO, INDUSTRIA DIRECTA O INDIRECTAMENTE RELACIONADAS CON LAS ANTERIORES QUE ACUERDE EN LEGAL FORMA LA JUNTA GENERAL DE ACCIONISTAS, Y SE INSCRIBA DEBIDAMENTE EN EL REGISTRO MERCANTIL. LA EJECUCIÓN COMPLETA DE OBRA CIVIL, POR CUENTA PROPIA O A TRAVÉS DE TERCEROS; CONSTRUCCIÓN DE PARQUES Y JARDINES, ZONAS DE JUEGOS O RECREO CON TODAS SUS INSTALACIONES; EXCAVACIÓN Y MOVIMIENTO DE TIERRAS; SANEAMIENTOS Y ABASTECIMIENTO DE AGUA; REALIZACIÓN DE OBRAS DE URBANIZACIÓN COMPLETA DE VIALES O TERRENOS DE USO PÚBLICO O URBANIZACIONES PRIVADAS. LA REPARACIÓN Y CONSERVACIÓN DE LAS OBRAS CITADAS ANTERIORMENTE, Y EN GENERAL, LA CONSTRUCCIÓN, CONSERVACIÓN Y MANTENIMIENTO DE TODA CLASE DE EDIFICIOS PÚBLICOS O PRIVADOS",
      "mainEntityOfPage": "https://www.contratacion.euskadi.eus/webkpe00-kperoc/es/ac71aBusquedaRegistrosWar/empresa/03815",
      "_links": {
        "self": {
          "name": "HPC IBÉRICA, S.A.",
          "href": "https://api.euskadi.eus/procurements/companies/03815"
        }
      }
    },
    {
      "name": "DIMENSION EX AGENCIA DE PUBLICIDAD, S.L.",
      "registrationNumber": "06884",
      "identificationNumber": "B75227819",
      "address": "Pº Txingurri, 27",
      "location": {
        "postalCode": "20017",
        "municipality": "Donostia / San Sebastián",
        "county": "Gipuzkoa",
        "municipalityId": "069",
        "countyId": "20"
      },
      "economicActivities": [
        {
          "id": "1.844",
          "name": "Servicios de publicidad, relaciones públicas y similares",
          "_links": {
            "self": {
              "name": "Servicios de publicidad, relaciones públicas y similares",
              "href": "https://api.euskadi.eus/procurements/companies/economic-activities/1.844"
            }
          }
        }
      ],
      "certificateStartDate": "2025-09-06",
      "certificateEndDate": "2026-03-06",
      "object": "LA EXPLOTACIÓN DE UN NEGOCIO DEDICADO A: - REALIZACIÓN, POR CUENTA DE TERCEROS, DE ACTIVIDADES DE ASESORAMIENTO, CREACIÓN, PROYECCIÓN, EJECUCIÓN Y DISTRIBUCIÓN DE CAMPAÑAS DE PUBLICIDAD Y MARKETING DIRECTO, IMÁGENES DE MARCA Y CORPORATIVAS Y OTROS COMETIDOS RELACIONADOS CON EL MARKETING EMPRESARIAL, TODO ELLO EN CUALQUIER TIPO DE SOPORTE, VISUAL, GRÁFICO, ELECTRÓNICO Y OTRO SOPORTE EXISTENTE O QUE PUEDA DESARROLLARSE EN EL FUTURO; - CONTRATACIÓN, COMPRA Y VENTA DE TODOS LOS MATERIALES Y SERVICIOS RELACIONADOS CON LAS ACTIVIDADES Y SOPORTES MENCIONADOS EN EL APARTADO ANTERIOR; COMPRAVENTA, ARENDAMIENTO Y EXPLOTACIÓN DE TODO TIPO DE BIENES MUEBLES E INMUEBLES. CNAE: 7311. AGENCIAS DE PUBLICIDAD, DERECHOS, PATENTES Y MARCAS.",
      "mainEntityOfPage": "https://www.contratacion.euskadi.eus/webkpe00-kperoc/es/ac71aBusquedaRegistrosWar/empresa/06884",
      "_links": {
        "self": {
          "name": "DIMENSION EX AGENCIA DE PUBLICIDAD, S.L.",
          "href": "https://api.euskadi.eus/procurements/companies/06884"
        }
      }
    },
    {
      "name": "PIROTECNIA GLOBAL FOC, S.L.",
      "registrationNumber": "06376",
      "identificationNumber": "B98390453",
      "address": "C/HERALDO DALHANDER, 3 BAJO",
      "location": {
        "postalCode": "46113",
        "municipality": "Montcada/Moncada",
        "county": "Valencia/València",
        "municipalityId": "171",
        "countyId": "46"
      },
      "economicActivities": [
        {
          "id": "1.255.5",
          "name": "Fabricación de artículos pirotécnicos, cerillas y fósforos",
          "_links": {
            "self": {
              "name": "Fabricación de artículos pirotécnicos, cerillas y fósforos",
              "href": "https://api.euskadi.eus/procurements/companies/economic-activities/1.255.5"
            }
          }
        }
      ],
      "certificateStartDate": "2025-09-05",
      "certificateEndDate": "2026-03-05",
      "object": "LA FABRICACIÓN, ELABORACIÓN, PREPARACIÓN, COMPRA-VENTA, COMERCIALIZACIÓN, INSTALACIÓN, MONTAJE, Y PUESTA EN FUNCIONAMIENTO DE TODA CLASE DE ARTÍCULOS DE PIROTECNIA, ASÍ COMO LA EXPORTACIÓN E IMPORTACIÓN DE TODA CLASE DE PRODUCTOS, PRIMERAS MATERIAS Y ELEMENTOS PIROTÉCNICOS",
      "mainEntityOfPage": "https://www.contratacion.euskadi.eus/webkpe00-kperoc/es/ac71aBusquedaRegistrosWar/empresa/06376",
      "_links": {
        "self": {
          "name": "PIROTECNIA GLOBAL FOC, S.L.",
          "href": "https://api.euskadi.eus/procurements/companies/06376"
        }
      }
    },
    {
      "name": "BASERRIGINTZA BERRIA, S.L.",
      "registrationNumber": "09549",
      "identificationNumber": "B95379905",
      "address": "Calle Igorreko Industrialdea",
      "location": {
        "postalCode": "48140",
        "municipality": "Igorre",
        "county": "Bizkaia",
        "municipalityId": "094",
        "countyId": "48"
      },
      "economicActivities": [
        {
          "id": "1.501.1",
          "name": "Construcción completa, reparación y conservación de edificaciones",
          "_links": {
            "self": {
              "name": "Construcción completa, reparación y conservación de edificaciones",
              "href": "https://api.euskadi.eus/procurements/companies/economic-activities/1.501.1"
            }
          }
        }
      ],
      "certificateStartDate": "2025-09-05",
      "certificateEndDate": "2026-03-05",
      "object": "A).- LA ADQUISICIÓN, TENENCIA, DISFRUTE, EXPLOTACIÓN Y ENAJENACIÓN DE TODA CLASE DE FINCAS, RÚSTICAS O URBANAS, CUALQUIERA QUE SEA SU NATURALEZA. B).- LA PROMOCIÓN, CONSTRUCCIÓN, REHABILITACIÓN, REPARACIÓN, INSTALACIÓN Y CONSERVACIÓN POR CUENTA PROPIA O AJENA, DE TODA CLASE DE OBRAS, URBANIZACIONES, EDIFICIOS Y CONSTRUCCIONES, TANTO PÚBLICOS COMO PRIVADOS. C).- LA ADMINISTRACIÓN, ASESORAMIENTO, GESTIÓN DE ACTUACIONES URBANÍSTICAS Y PRESTACIÓN DE SERVICIOS DE TODO TIPO CON RELACIÓN A BIENES INMUEBLES, SEGÚN CONVENGA A SU APROVECHAMIENTO AGRÍCOLA, FORESTAL, URBANO, INDUSTRIAL O DE CUALQUIER OTRA NATURALEZA. D).- LA ASISTENCIA, GESTIÓN, DIRECCIÓN, ADMINISTRACIÓN, PROMOCIÓN, INTERVENCIÓN Y PARTICIPACIÓN EN EMPRESAS O EN SU CREACIÓN, CONSTITUCIÓN O DESARROLLO. E).- LA PROMOCIÓN, ESTUDIO Y DESARROLLO DE PRODUCTOS Y ACTIVIDADES INDUSTRIALES, COMERCIALES Y DE DISTRIBUCIÓN, EN EMPRESAS PROPIAS O PARTICIPADAS, Y EXPLOTACIÓN O CESIÓN DE CÁNONES O ROYALTIES Y DERECHOS DE PROPIEDAD INDUSTRIAL. F).- LOS SERVICIOS DE MEDIACIÓN, GESTIÓN, REPRESENTACIÓN Y COMERCIO INTERIOR Y EXTERIOR, ALMACENAMIENTO, ARRENDAMIENTO Y, EN GENERAL, LA COMERCIALIZACIÓN Y DISTRIBUCIÓN DE TODA CLASE DE PRODUCTOS. G).- LA ADQUISICIÓN, TENENCIA, DISFRUTE, ADMINISTRACIÓN Y ENAJENACIÓN DE TODA CLASE DE TÍTULOS COMO VALORES MOBILIARIOS, ACTIVOS FINANCIEROS, DERECHOS VALORES, CUOTAS O PARTICIPACIONES EN EMPRESAS INDIVIDUALES O SOCIALES POR CUENTA PROPIA Y CON EXCEPCIÓN DE LA INTERMEDIACIÓN, NO INCLUYÉNDOSE EN NINGÚN CASO LAS ACTIVIDADES OBJETO DE LA LEGISLACIÓN DE INSTITUCIONES DE INVERSIÓN COLECTIVA Y DE MERCADO DE VALORES.",
      "mainEntityOfPage": "https://www.contratacion.euskadi.eus/webkpe00-kperoc/es/ac71aBusquedaRegistrosWar/empresa/09549",
      "_links": {
        "self": {
          "name": "BASERRIGINTZA BERRIA, S.L.",
          "href": "https://api.euskadi.eus/procurements/companies/09549"
        }
      }
    },
    {
      "name": "ASOCIACIÓN DEPORTIVA Y CULTURAL TXIMELETA",
      "registrationNumber": "10096",
      "identificationNumber": "G75114967",
      "address": "PASEO DE LOS OLMOS, 14-3º IZDA",
      "location": {
        "postalCode": "20016",
        "municipality": "Donostia / San Sebastián",
        "county": "Gipuzkoa",
        "municipalityId": "069",
        "countyId": "20"
      },
      "economicActivities": [
        {
          "id": "1.931.1",
          "name": "Guardería y enseñanza de educación infantil, exclusivamente",
          "_links": {
            "self": {
              "name": "Guardería y enseñanza de educación infantil, exclusivamente",
              "href": "https://api.euskadi.eus/procurements/companies/economic-activities/1.931.1"
            }
          }
        },
        {
          "id": "1.933.9",
          "name": "Otras actividades de enseñanza tales como idiomas, mecanografía",
          "_links": {
            "self": {
              "name": "Otras actividades de enseñanza tales como idiomas, mecanografía",
              "href": "https://api.euskadi.eus/procurements/companies/economic-activities/1.933.9"
            }
          }
        },
        {
          "id": "1.967.2",
          "name": "Escuelas y servicios de perfeccionamiento del deporte",
          "_links": {
            "self": {
              "name": "Escuelas y servicios de perfeccionamiento del deporte",
              "href": "https://api.euskadi.eus/procurements/companies/economic-activities/1.967.2"
            }
          }
        }
      ],
      "certificateStartDate": "2025-09-05",
      "certificateEndDate": "2026-03-05",
      "object": "- DESARROLLO SOCIO-EDUCATIVO DE LAS PERSONAS, PARA SU CRECIMIENTO PERSONAL Y SU FORMACIÓN INTEGRAL EN LOS DIFERENTES ASPECTOS DE SALUD, DESARROLLO PERSONAL, PARTICIPACIÓN SOCIAL Y OTRAS HABILIDADES SOCIALES. - FACILITAR A LAS PERSONAS SU INTEGRACIÓN SOCIAL Y FOMENTAR LA MEJORA DE SU CALIDAD DE VIDA. - FOMENTAR LA EDUCACIÓN DE LAS PERSONAS EN VALORES SOCIALES POSITIVOS ENCAMINADOS A SU PROPIO DESARROLLO HUMANO Y SU PARTICIPACIÓN E INTEGRACIÓN EN SU ENTORNO SOCIAL Y CULTURAL. - EL FOMENTO Y LA PRÁCTICA DEL DEPORTE COMO ACTIVIDAD PERSONAL BENEFICIOSA Y SU ADECUACIÓN A LOS DIFERENTES COLECTIVOS ESPECÍFICOS, PRINCIPALMENTE EL DEPORTE INFANTIL Y ESCOLAR, EL DEPORTE FEMENINO Y LAS ACTIVIDADES DEPORTIVAS O PARA-DEPORTIVAS DIRIGIDAS A PERSONAS DISCAPACITADAS. ",
      "mainEntityOfPage": "https://www.contratacion.euskadi.eus/webkpe00-kperoc/es/ac71aBusquedaRegistrosWar/empresa/10096",
      "_links": {
        "self": {
          "name": "ASOCIACIÓN DEPORTIVA Y CULTURAL TXIMELETA",
          "href": "https://api.euskadi.eus/procurements/companies/10096"
        }
      }
    },
    {
      "name": "INT VITORIA, S.L.",
      "registrationNumber": "08454",
      "identificationNumber": "B01319839",
      "address": "Avenida 8 de marzo 14, 1ºA",
      "location": {
        "postalCode": "01002",
        "municipality": "Vitoria-Gasteiz",
        "county": "Araba/Álava",
        "municipalityId": "059",
        "countyId": "01"
      },
      "economicActivities": [
        {
          "id": "1.845",
          "name": "Explotación electrónica por cuenta de terceros",
          "_links": {
            "self": {
              "name": "Explotación electrónica por cuenta de terceros",
              "href": "https://api.euskadi.eus/procurements/companies/economic-activities/1.845"
            }
          }
        }
      ],
      "certificateStartDate": "2025-09-05",
      "certificateEndDate": "2026-03-05",
      "object": "ASESORAMIENTO E INSTALACIÓN DE SISTEMAS INFORMÁTICOS.",
      "mainEntityOfPage": "https://www.contratacion.euskadi.eus/webkpe00-kperoc/es/ac71aBusquedaRegistrosWar/empresa/08454",
      "_links": {
        "self": {
          "name": "INT VITORIA, S.L.",
          "href": "https://api.euskadi.eus/procurements/companies/08454"
        }
      }
    },
    {
      "name": "ADIMEN INVESTIGACIÓN, S.L.",
      "registrationNumber": "06031",
      "identificationNumber": "B01474543",
      "address": "Calle Bulevar de Mariturri",
      "location": {
        "postalCode": "01015",
        "municipality": "Vitoria-Gasteiz",
        "county": "Araba/Álava",
        "municipalityId": "059",
        "countyId": "01"
      },
      "economicActivities": [
        {
          "id": "1.846",
          "name": "Empresas de estudios de mercado",
          "_links": {
            "self": {
              "name": "Empresas de estudios de mercado",
              "href": "https://api.euskadi.eus/procurements/companies/economic-activities/1.846"
            }
          }
        }
      ],
      "certificateStartDate": "2025-09-05",
      "certificateEndDate": "2026-03-05",
      "object": "LA PRESTACIÓN DE SERVICIOS EN EL ÁREA DE MARKETING, ESTUDIOS DE MERCADO; ENCUESTAS Y SONDEOS DE OPINIÓN; SERVICIOS TÉCNICOS DE INVESTIGACIÓN OPERATIVA, ASESORAMIENTO, ORGANIZACIÓN Y TRATAMIENTO DE LA INFORMACIÓN; ASESORAMIENTO Y ORGANIZACIÓN INFORMÁTICA Y SERVICIOS DE DIFUSIÓN DE PUBLICIDAD Y SOBRE CUALQUIER MATERIA, ORGANIZAR CURSOS, JORNADAS Y SEMINARIOS DESTINADOS A LA FORMACIÓN DE PERSONAL.",
      "mainEntityOfPage": "https://www.contratacion.euskadi.eus/webkpe00-kperoc/es/ac71aBusquedaRegistrosWar/empresa/06031",
      "_links": {
        "self": {
          "name": "ADIMEN INVESTIGACIÓN, S.L.",
          "href": "https://api.euskadi.eus/procurements/companies/06031"
        }
      }
    }
  ]
}