{
  "totalItems": 9042,
  "totalPages": 905,
  "currentPage": 486,
  "itemsOfPage": 10,
  "items": [
    {
      "name": "OREBE HEZKUNTZA, S.L.",
      "registrationNumber": "03591",
      "identificationNumber": "B20920062",
      "address": "EUSTASIO AMILIBIA, 11-1ºD",
      "location": {
        "postalCode": "20011",
        "municipality": "Donostia / San Sebastián",
        "county": "Gipuzkoa",
        "municipalityId": "069",
        "countyId": "20"
      },
      "economicActivities": [
        {
          "id": "1.999",
          "name": "Otros servicios n.c.o.p",
          "_links": {
            "self": {
              "name": "Otros servicios n.c.o.p",
              "href": "https://api.euskadi.eus/procurements/companies/economic-activities/1.999"
            }
          }
        }
      ],
      "certificateStartDate": "2022-09-12",
      "certificateEndDate": "2023-03-12",
      "object": "LA ASESORÍA Y FORMACIÓN EN MATERIA EDUCATIVA Y LA CREACIÓN, DISTRIBUCIÓN Y COMERCIALIZACIÓN DE LOS MEDIOS NECESARIOS PARA ELLO. QUEDAN EXCLUIDAS TODAS AQUELLAS ACTIVIDADES PARA CUYO EJERCICIO LA LEY EXIJA REQUISITOS ESPECIALES QUE NO QUEDAN CUMPLIDOS POR ESTA SOCIEDAD",
      "mainEntityOfPage": "https://www.contratacion.euskadi.eus/webkpe00-kperoc/es/ac71aBusquedaRegistrosWar/empresa/03591",
      "_links": {
        "self": {
          "name": "OREBE HEZKUNTZA, S.L.",
          "href": "https://api.euskadi.eus/procurements/companies/03591"
        }
      }
    },
    {
      "name": "MANTENIMIENTO Y REPARACION SANMAR, S.L.",
      "registrationNumber": "08069",
      "identificationNumber": "B95748232",
      "address": "VENANCIO ECHEBARRÍA, 15, 1º D",
      "location": {
        "postalCode": "48930",
        "municipality": "Getxo",
        "county": "Bizkaia",
        "municipalityId": "044",
        "countyId": "48"
      },
      "economicActivities": [
        {
          "id": "1.692",
          "name": "Reparación de maquinaria industrial",
          "_links": {
            "self": {
              "name": "Reparación de maquinaria industrial",
              "href": "https://api.euskadi.eus/procurements/companies/economic-activities/1.692"
            }
          }
        }
      ],
      "certificateStartDate": "2022-09-08",
      "certificateEndDate": "2023-03-08",
      "object": "LA REPARACIÓN Y MANTENIMIENTO DE INSTALACIONES Y MAQUINARIA (13), Y EN ESPECIAL, EL SERVICIO DE ASISTENCIA TÉCNICA DE MAQUINARIA Y SISTEMAS ELECTRÓNICOS.",
      "mainEntityOfPage": "https://www.contratacion.euskadi.eus/webkpe00-kperoc/es/ac71aBusquedaRegistrosWar/empresa/08069",
      "_links": {
        "self": {
          "name": "MANTENIMIENTO Y REPARACION SANMAR, S.L.",
          "href": "https://api.euskadi.eus/procurements/companies/08069"
        }
      }
    },
    {
      "name": "JOSE ANGEL DELGADO MORO",
      "registrationNumber": "08087",
      "identificationNumber": "30586244Q",
      "address": "plaza lehendakari leizaola 5  4ºa",
      "location": {
        "postalCode": "48170",
        "municipality": "Zamudio",
        "county": "Bizkaia",
        "municipalityId": "905",
        "countyId": "48"
      },
      "economicActivities": [
        {
          "id": "1.961.1",
          "name": "Producción de películas cinematográficas (incluso vídeos)",
          "_links": {
            "self": {
              "name": "Producción de películas cinematográficas (incluso vídeos)",
              "href": "https://api.euskadi.eus/procurements/companies/economic-activities/1.961.1"
            }
          }
        },
        {
          "id": "1.989.2",
          "name": "Servicios de organización de congresos, asambleas y similares",
          "_links": {
            "self": {
              "name": "Servicios de organización de congresos, asambleas y similares",
              "href": "https://api.euskadi.eus/procurements/companies/economic-activities/1.989.2"
            }
          }
        },
        {
          "id": "2.798",
          "name": "Otros profesionales relacionados con actividades financieras y jurídicas",
          "_links": {
            "self": {
              "name": "Otros profesionales relacionados con actividades financieras y jurídicas",
              "href": "https://api.euskadi.eus/procurements/companies/economic-activities/2.798"
            }
          }
        },
        {
          "id": "2.826",
          "name": "Personal docente de enseñanzas diversas",
          "_links": {
            "self": {
              "name": "Personal docente de enseñanzas diversas",
              "href": "https://api.euskadi.eus/procurements/companies/economic-activities/2.826"
            }
          }
        }
      ],
      "certificateStartDate": "2022-09-07",
      "certificateEndDate": "2023-03-07",
      "object": "PERSONAL DOCENTE DE ENSEÑANZAS DIVERSAS. OTROS PROFESIONALES RELACIONADOS CON ACTIVIDADES FINANCIERAS Y JURÍDICAS. SERVICIOS DE ORGANIZACIÓN DE CONGRESOS, ASAMBLEAS Y SIMILARES. PRODUCCIÓN DE PELÍCULAS CINEMATOGRÁFICAS (INCLUSO VÍDEOS).",
      "mainEntityOfPage": "https://www.contratacion.euskadi.eus/webkpe00-kperoc/es/ac71aBusquedaRegistrosWar/empresa/08087",
      "_links": {
        "self": {
          "name": "JOSE ANGEL DELGADO MORO",
          "href": "https://api.euskadi.eus/procurements/companies/08087"
        }
      }
    },
    {
      "name": "FRANCISCO JAVIER FERNANDEZ NEGRO",
      "registrationNumber": "07926",
      "identificationNumber": "11930204N",
      "address": "CL FUNDACION HOGAR NUMERO 1-2",
      "location": {
        "postalCode": "48980",
        "municipality": "Santurtzi",
        "county": "Bizkaia",
        "municipalityId": "082",
        "countyId": "48"
      },
      "economicActivities": [
        {
          "id": "1.505.6",
          "name": "Pintura, revestimientos y terminación y decoración de locales",
          "_links": {
            "self": {
              "name": "Pintura, revestimientos y terminación y decoración de locales",
              "href": "https://api.euskadi.eus/procurements/companies/economic-activities/1.505.6"
            }
          }
        }
      ],
      "certificateStartDate": "2022-09-05",
      "certificateEndDate": "2023-03-05",
      "object": "PINTURA, REVESTIMIENTOS Y TERMINACIÓN Y DECORACIÓN DE LOCALES.",
      "mainEntityOfPage": "https://www.contratacion.euskadi.eus/webkpe00-kperoc/es/ac71aBusquedaRegistrosWar/empresa/07926",
      "_links": {
        "self": {
          "name": "FRANCISCO JAVIER FERNANDEZ NEGRO",
          "href": "https://api.euskadi.eus/procurements/companies/07926"
        }
      }
    },
    {
      "name": "ALBIA SERVICIOS INTEGRALES DE LIMPIEZA, S.L.",
      "registrationNumber": "08085",
      "identificationNumber": "B95171682",
      "address": "JOSE LUIS GOYOAGA, 32 - OFICINA 101",
      "location": {
        "postalCode": "48950",
        "municipality": "Erandio",
        "county": "Bizkaia",
        "municipalityId": "902",
        "countyId": "48"
      },
      "economicActivities": [
        {
          "id": "1.922",
          "name": "Servicios de limpieza",
          "_links": {
            "self": {
              "name": "Servicios de limpieza",
              "href": "https://api.euskadi.eus/procurements/companies/economic-activities/1.922"
            }
          }
        }
      ],
      "certificateStartDate": "2022-09-02",
      "certificateEndDate": "2023-02-03",
      "object": "LA LIMPIEZA Y MANTENIMIENTO DE COMUNIDADES DE VECINOS Y GARAJES, LOCALES COMERCIALES, OFICINAS, PISOS Y PABELLONES. LA LIMPIEZA DE CRISTALES. EL ABRILLANTADO Y PULIDO DE SUELOS. LA LIMPIEZA DE MOQUETAS, ALFOMBRAS Y TRESILLOS. EL ENCENDIDO DE CALDERAS Y SERVICIOS DE CALEFACCIÓN A COMUNIDADES. EL MANTENIMIENTO Y SERVICIOS DE JARDINERÍA. LA DESRATIZACIÓN, TRATAMIENTO ANTIPOLILLAS Y DESINFECCIÓN. LA COORDINACIÓN DE GREMIOS DE ELECTRICIDAD, ALBAÑILERÍA, FONTANERÍA Y PINTURA. INSTALACIONES ELÉCTRICAS, DE FONTANERÍA, TRABAJOS DE PINTURA Y DE ALBAÑILERÍA. ASESORAMIENTO INTEGRAL DE EMPRESAS.",
      "mainEntityOfPage": "https://www.contratacion.euskadi.eus/webkpe00-kperoc/es/ac71aBusquedaRegistrosWar/empresa/08085",
      "_links": {
        "self": {
          "name": "ALBIA SERVICIOS INTEGRALES DE LIMPIEZA, S.L.",
          "href": "https://api.euskadi.eus/procurements/companies/08085"
        }
      }
    },
    {
      "name": "MARIA LUISA GARCIA ARRIAGA",
      "registrationNumber": "08217",
      "identificationNumber": "15366003W",
      "address": "Calle Legarre",
      "location": {
        "postalCode": "20600",
        "municipality": "Eibar",
        "county": "Gipuzkoa",
        "municipalityId": "030",
        "countyId": "20"
      },
      "economicActivities": [
        {
          "id": "1.673.2",
          "name": "Otros cafés y bares",
          "_links": {
            "self": {
              "name": "Otros cafés y bares",
              "href": "https://api.euskadi.eus/procurements/companies/economic-activities/1.673.2"
            }
          }
        }
      ],
      "certificateStartDate": "2022-08-31",
      "certificateEndDate": "2023-02-28",
      "object": "OTROS CAFÉS Y BARES.",
      "mainEntityOfPage": "https://www.contratacion.euskadi.eus/webkpe00-kperoc/es/ac71aBusquedaRegistrosWar/empresa/08217",
      "_links": {
        "self": {
          "name": "MARIA LUISA GARCIA ARRIAGA",
          "href": "https://api.euskadi.eus/procurements/companies/08217"
        }
      }
    },
    {
      "name": "SOLUCIONES SOLURBAN, S.L.",
      "registrationNumber": "06824",
      "identificationNumber": "B86589991",
      "address": "Avda. Cerro del Águila ",
      "location": {
        "postalCode": "28703",
        "municipality": "San Sebastián de los Reyes",
        "county": "Madrid",
        "municipalityId": "134",
        "countyId": "28"
      },
      "economicActivities": [
        {
          "id": "1.501.1",
          "name": "Construcción completa, reparación y conservación de edificaciones",
          "_links": {
            "self": {
              "name": "Construcción completa, reparación y conservación de edificaciones",
              "href": "https://api.euskadi.eus/procurements/companies/economic-activities/1.501.1"
            }
          }
        }
      ],
      "certificateStartDate": "2022-08-31",
      "certificateEndDate": "2023-02-28",
      "object": "A) LA ADQUISICIÓN, EXPLOTACIÓN Y ENAJENACIÓN, POR CUALQUIER TÍTULO, DE BIENES INMUEBLES, RÚSTICOS Y URBANOS, LA EJECUCIÓN DE TODA CLASE DE OBRAS CUALESQUIERA QUE SEA Y LA ADMINISTRACIÓN, TENENCIA, PROMOCIÓN, EXPLOTACIÓN Y ARRENDAMIENTO DE TALES BIENES Y SU VENTA TOTAL Y PARCIAL SEGÚN CONVENGA PARA SU APROVECHAMIENTO. B) LA COMPRAVENTA, ADMINISTRACIÓN Y TENENCIA DE PARTICIPACIONES SOCIALES, ACTIVOS FINANCIEROS Y VALORES COTIZABLES O NO EN MERCADOS OFICIALES, POR CUENTA PROPIA Y CON LA FINALIDAD DE DIRIGIR, ADMINISTRAR Y GESTIONAR DICHAS PARTICIPACIONES, CON EXCLUSIÓN DE LAS ACTIVIDADES PROPIAS DE LAS SOCIEDADES DE INVERSIÓN INMOBILIARIA Y DE LAS SOCIEDADES GESTORAS. C) ASESORAMIENTO ECONÓMICO, DESARROLLO DE PLANES DE MARKETING, COMERCIALES TANTO A PERSONAS FÍSICAS COMO JURÍDICAS; ASÍ COMO EL ASESORAMIENTO EN LA OBTENCIÓN DE LOS DERECHOS DE LA PROPIEDAD INTELECTUAL E INDUSTRIAL. D) LA INTERMEDIACIÓN COMERCIAL EN GENERAL, CREACIÓN, EXPLOTACIÓN DE PÁGINAS WEB Y PORTALES DE INTERNET, REGISTRO DE DOMINIOS, VENTA DE EQUIPOS INFORMÁTICOS, OFIMÁTICA Y TELEFONÍA MÓVIL. E) ALMACENAMIENTO, LOGÍSTICA, DISTRIBUCIÓN DE MERCANCÍAS, TRANSPORTES EN GENERAL, IMPORTACIÓN Y EXPORTACIÓN DE MERCADERÍAS. LA COMPRAVENTA Y ALQUILER DE TODO TIPO DE MAQUINARIA. F) ACTIVIDADES PROPIAS DEL RAMO DE LA ENSEÑANZA",
      "mainEntityOfPage": "https://www.contratacion.euskadi.eus/webkpe00-kperoc/es/ac71aBusquedaRegistrosWar/empresa/06824",
      "_links": {
        "self": {
          "name": "SOLUCIONES SOLURBAN, S.L.",
          "href": "https://api.euskadi.eus/procurements/companies/06824"
        }
      }
    },
    {
      "name": "SAVAC CONSULTORES, S.L.",
      "registrationNumber": "07013",
      "identificationNumber": "B48989990",
      "address": "Calle Máximo Aguirre nº 18bis 3ª planta",
      "location": {
        "postalCode": "48011",
        "municipality": "Bilbao",
        "county": "Bizkaia",
        "municipalityId": "020",
        "countyId": "48"
      },
      "economicActivities": [
        {
          "id": "1.845",
          "name": "Explotación electrónica por cuenta de terceros",
          "_links": {
            "self": {
              "name": "Explotación electrónica por cuenta de terceros",
              "href": "https://api.euskadi.eus/procurements/companies/economic-activities/1.845"
            }
          }
        }
      ],
      "certificateStartDate": "2022-08-31",
      "certificateEndDate": "2023-02-28",
      "object": "A) COMPRAVENTA, COMERCIALIZACIÓN, DISTRIBUCIÓN, EXPORTACIÓN E IMPORTACIÓN DE TODO TIPO DE SISTEMAS DE INFORMACIÓN Y DE TODOS SUS ELEMENTOS Y ACCESORIOS. B) REALIZACIÓN, DIRECTA O INDIRECTAMENTE, DE TRABAJOS DE ANÁLISIS, PROGRAMACIÓN, GRABACIÓN Y FORMACIÓN DE TODO TIPO DE SISTEMAS DE INFORMACIÓN. C) EXPLOTACIÓN, ADQUISICIÓN Y ENAJENACIÓN POR CUALQUIER TÍTULO DE LICENCIAS, PERMISOS, MARCAS, PATENTES Y EXCLUSIVAS NACIONALES Y EXTRANJERAS. D) REPRESENTACIÓN DE EMPRESAS NACIONALES Y EXTRANJERAS\r\n",
      "mainEntityOfPage": "https://www.contratacion.euskadi.eus/webkpe00-kperoc/es/ac71aBusquedaRegistrosWar/empresa/07013",
      "_links": {
        "self": {
          "name": "SAVAC CONSULTORES, S.L.",
          "href": "https://api.euskadi.eus/procurements/companies/07013"
        }
      }
    },
    {
      "name": "FRANCISCO JAVIER ONDARRA RUIZ",
      "registrationNumber": "07685",
      "identificationNumber": "30550746F",
      "address": "ELEXABARRI Nº 7",
      "location": {
        "postalCode": "48002",
        "municipality": "Bilbao",
        "county": "Bizkaia",
        "municipalityId": "020",
        "countyId": "48"
      },
      "economicActivities": [
        {
          "id": "2.411",
          "name": "Arquitectos",
          "_links": {
            "self": {
              "name": "Arquitectos",
              "href": "https://api.euskadi.eus/procurements/companies/economic-activities/2.411"
            }
          }
        }
      ],
      "certificateStartDate": "2022-08-31",
      "certificateEndDate": "2023-02-28",
      "object": "ARQUITECTOS",
      "mainEntityOfPage": "https://www.contratacion.euskadi.eus/webkpe00-kperoc/es/ac71aBusquedaRegistrosWar/empresa/07685",
      "_links": {
        "self": {
          "name": "FRANCISCO JAVIER ONDARRA RUIZ",
          "href": "https://api.euskadi.eus/procurements/companies/07685"
        }
      }
    },
    {
      "name": "ERRE DE HIERRO, S.C.",
      "registrationNumber": "07364",
      "identificationNumber": "J01483064",
      "address": "Fuente de la Salud, 12 Bajo",
      "location": {
        "postalCode": "01003",
        "municipality": "Vitoria-Gasteiz",
        "county": "Araba/Álava",
        "municipalityId": "059",
        "countyId": "01"
      },
      "economicActivities": [
        {
          "id": "1.973.1",
          "name": "Servicios fotográficos",
          "_links": {
            "self": {
              "name": "Servicios fotográficos",
              "href": "https://api.euskadi.eus/procurements/companies/economic-activities/1.973.1"
            }
          }
        }
      ],
      "certificateStartDate": "2022-08-31",
      "certificateEndDate": "2023-02-28",
      "object": "LA EXPLOTACIÓN DE UNA ACTIVIDAD DE SERVICIOS FOTOGRÁFICOS UBICADA EN EL LUGAR SEÑALADO COMO DOMICILIO SOCIAL EN LA ESTIPULACIÓN ANTERIOR",
      "mainEntityOfPage": "https://www.contratacion.euskadi.eus/webkpe00-kperoc/es/ac71aBusquedaRegistrosWar/empresa/07364",
      "_links": {
        "self": {
          "name": "ERRE DE HIERRO, S.C.",
          "href": "https://api.euskadi.eus/procurements/companies/07364"
        }
      }
    }
  ]
}