{
  "totalItems": 9042,
  "totalPages": 905,
  "currentPage": 358,
  "itemsOfPage": 10,
  "items": [
    {
      "name": "KOLDOBIKA PUENTE FRIAS",
      "registrationNumber": "10166",
      "identificationNumber": "79425656D",
      "address": "Gipuzkoa 1",
      "location": {
        "postalCode": "48300",
        "municipality": "Gernika-Lumo",
        "county": "Bizkaia",
        "municipalityId": "046",
        "countyId": "48"
      },
      "economicActivities": [
        {
          "id": "1.999",
          "name": "Otros servicios n.c.o.p",
          "_links": {
            "self": {
              "name": "Otros servicios n.c.o.p",
              "href": "https://api.euskadi.eus/procurements/companies/economic-activities/1.999"
            }
          }
        }
      ],
      "certificateStartDate": "2025-05-06",
      "certificateEndDate": "2025-11-06",
      "object": "OTROS SERVICIOS N.C.O.P.",
      "mainEntityOfPage": "https://www.contratacion.euskadi.eus/webkpe00-kperoc/es/ac71aBusquedaRegistrosWar/empresa/10166",
      "_links": {
        "self": {
          "name": "KOLDOBIKA PUENTE FRIAS",
          "href": "https://api.euskadi.eus/procurements/companies/10166"
        }
      }
    },
    {
      "name": "JOSÉ RAMIRO HIGUERA HIGUERA",
      "registrationNumber": "09902",
      "identificationNumber": "05166130P",
      "address": "eplaza 7",
      "location": {
        "postalCode": "48007",
        "municipality": "Bilbao",
        "county": "Bizkaia",
        "municipalityId": "020",
        "countyId": "48"
      },
      "economicActivities": [
        {
          "id": "2.411",
          "name": "Arquitectos",
          "_links": {
            "self": {
              "name": "Arquitectos",
              "href": "https://api.euskadi.eus/procurements/companies/economic-activities/2.411"
            }
          }
        }
      ],
      "certificateStartDate": "2025-05-05",
      "certificateEndDate": "2025-10-30",
      "object": "ARQUITECTOS.",
      "mainEntityOfPage": "https://www.contratacion.euskadi.eus/webkpe00-kperoc/es/ac71aBusquedaRegistrosWar/empresa/09902",
      "_links": {
        "self": {
          "name": "JOSÉ RAMIRO HIGUERA HIGUERA",
          "href": "https://api.euskadi.eus/procurements/companies/09902"
        }
      }
    },
    {
      "name": "DAVID ASTIGARRAGA MALLAGARAY",
      "registrationNumber": "09650",
      "identificationNumber": "78873794D",
      "address": "INTXAURRONDO 7",
      "location": {
        "postalCode": "48200",
        "municipality": "Durango",
        "county": "Bizkaia",
        "municipalityId": "027",
        "countyId": "48"
      },
      "economicActivities": [
        {
          "id": "2.411",
          "name": "Arquitectos",
          "_links": {
            "self": {
              "name": "Arquitectos",
              "href": "https://api.euskadi.eus/procurements/companies/economic-activities/2.411"
            }
          }
        }
      ],
      "certificateStartDate": "2025-05-05",
      "certificateEndDate": "2025-11-05",
      "object": "ARQUITECTOS.",
      "mainEntityOfPage": "https://www.contratacion.euskadi.eus/webkpe00-kperoc/es/ac71aBusquedaRegistrosWar/empresa/09650",
      "_links": {
        "self": {
          "name": "DAVID ASTIGARRAGA MALLAGARAY",
          "href": "https://api.euskadi.eus/procurements/companies/09650"
        }
      }
    },
    {
      "name": "DISTRIBUIDORA FARMACEUTICA DE GIPUZKOA GIPUZKOAKO FARMAZI BANATZAILEA S.A.",
      "registrationNumber": "05896",
      "identificationNumber": "A75031708",
      "address": "CALLE TXALDATXUR Nº 2. P.I. ESKUZAITZETA",
      "location": {
        "postalCode": "20160",
        "municipality": "Donostia / San Sebastián",
        "county": "Gipuzkoa",
        "municipalityId": "069",
        "countyId": "20"
      },
      "economicActivities": [
        {
          "id": "1.614.1",
          "name": "Venta al por mayor de productos farmacéuticos y medicamentos",
          "_links": {
            "self": {
              "name": "Venta al por mayor de productos farmacéuticos y medicamentos",
              "href": "https://api.euskadi.eus/procurements/companies/economic-activities/1.614.1"
            }
          }
        },
        {
          "id": "1.614.2",
          "name": "Venta al por mayor de productos de perfumería, droguería, higiene y belleza",
          "_links": {
            "self": {
              "name": "Venta al por mayor de productos de perfumería, droguería, higiene y belleza",
              "href": "https://api.euskadi.eus/procurements/companies/economic-activities/1.614.2"
            }
          }
        },
        {
          "id": "1.756.1",
          "name": "Agencias de transporte, transitarios",
          "_links": {
            "self": {
              "name": "Agencias de transporte, transitarios",
              "href": "https://api.euskadi.eus/procurements/companies/economic-activities/1.756.1"
            }
          }
        },
        {
          "id": "1.847",
          "name": "Servicios de consultoría",
          "_links": {
            "self": {
              "name": "Servicios de consultoría",
              "href": "https://api.euskadi.eus/procurements/companies/economic-activities/1.847"
            }
          }
        },
        {
          "id": "1.861.1",
          "name": "Alquiler de viviendas",
          "_links": {
            "self": {
              "name": "Alquiler de viviendas",
              "href": "https://api.euskadi.eus/procurements/companies/economic-activities/1.861.1"
            }
          }
        },
        {
          "id": "1.861.2",
          "name": "Alquiler de locales industriales y otros alquileres n.c.o.p",
          "_links": {
            "self": {
              "name": "Alquiler de locales industriales y otros alquileres n.c.o.p",
              "href": "https://api.euskadi.eus/procurements/companies/economic-activities/1.861.2"
            }
          }
        }
      ],
      "certificateStartDate": "2025-05-03",
      "certificateEndDate": "2025-10-30",
      "object": "(A) LA ADQUISICIÓN, FABRICACIÓN, PREPARACIÓN, ALMACENAMIENTO, CONSERVACIÓN, CUSTODIA, MANIPULACIÓN, ADECUACIÓN, DISTRIBUCIÓN Y COMERCIO DE MEDICAMENTOS DE USO HUMANO Y MEDICAMENTOS DE USO VETERINARIO EN SUS DIVERSAS CLASIFICACIONES, MATERIAL DE ORTOPEDIA, MATERIAL MÉDICO-QUIRÚRGICO, PRODUCTOS QUÍMICOS, PRODUCTOS DE DERMOFARMACIA, PRODUCTOS DE HERBORISTERÍA, PRODUCTOS DIETOTERÁPICOS, PRODUCTOS DE ALIMENTACIÓN, AGUAS MINERO-MEDICINALES, PRODUCTOS SANITARIOS, PRODUCTOS DE HIGIENE, PRODUCTOS DE PERFUMERÍA, PRODUCTOS DE COSMÉTICA, DROGAS INDUSTRIALES Y CUANTOS ARTÍCULOS SE RELACIONEN CON EL EJERCICIO DE LA PROFESIÓN FARMACÉUTICA YA SEAN DE ORIGEN NACIONAL COMO EXTRANJERO. (B) LA CREACIÓN, DESARROLLO, ADQUISICIÓN, ALMACENAMIENTO, CONSERVACIÓN, CUSTODIA, MANIPULACIÓN, ADECUACIÓN, DISTRIBUCIÓN, Y COMERCIO DE TODO TIPO DE SERVICIOS RELATIVOS A LA LOGÍSTICA SANITARIA, GESTIÓN INTEGRAL FARMACÉUTICA, GESTIÓN DE MATERIALES FARMACÉUTICOS Y PRODUCTOS FARMACO-TERAPÉUTICOS, SISTEMAS DE GESTIÓN SANITARIA Y HOMECARE (TELE-ASISTENCIA, AYUDA DOMICILIARIA, ETC.), SISTEMAS DE DISPENSACIÓN DE MEDICAMENTOS Y OTRAS LÍNEAS Y SERVICIOS PARA EL SECTOR SALUD. (C) LA PRESTACIÓN, GESTIÓN Y DESARROLLO DE SERVICIOS DE APOYO Y COLABORACIÓN CON LOS SERVICIOS FARMACÉUTICOS, GESTIÓN INTEGRAL FARMACÉUTICA, SERGUIMIENTO FARMACO-TERAPÉUTICO, SERVICIOS FARMACÉUTICOS PARA LAS ADMINISTRACIONES PÚBLICAS Y CUALQUIER OTRO TIPO DE INSTALACIONES SANITARIAS Y SOCIO-SANITARIAS; Y (D) LA INVESTIGACIÓN, DESARROLLO E INNOVACIÓN EN MATERIA FARMACÉUTICA Y, EN GENERAL DEL SECTOR SALUD",
      "mainEntityOfPage": "https://www.contratacion.euskadi.eus/webkpe00-kperoc/es/ac71aBusquedaRegistrosWar/empresa/05896",
      "_links": {
        "self": {
          "name": "DISTRIBUIDORA FARMACEUTICA DE GIPUZKOA GIPUZKOAKO FARMAZI BANATZAILEA S.A.",
          "href": "https://api.euskadi.eus/procurements/companies/05896"
        }
      }
    },
    {
      "name": "SERNIVEL 3, S.L.",
      "registrationNumber": "05650",
      "identificationNumber": "B86246253",
      "address": "Avenida Sabino Arana 20, 6º Departamento 1",
      "location": {
        "postalCode": "48013",
        "municipality": "Bilbao",
        "county": "Bizkaia",
        "municipalityId": "020",
        "countyId": "48"
      },
      "economicActivities": [
        {
          "id": "1.843.1",
          "name": "Servicios técnicos de ingeniería",
          "_links": {
            "self": {
              "name": "Servicios técnicos de ingeniería",
              "href": "https://api.euskadi.eus/procurements/companies/economic-activities/1.843.1"
            }
          }
        }
      ],
      "certificateStartDate": "2025-04-30",
      "certificateEndDate": "2025-10-29",
      "classification": [
        {
          "id": "S",
          "name": "Servicios",
          "groups": [
            {
              "id": "V",
              "subgroups": [
                {
                  "id": "04",
                  "name": "Servicios de telecomunicaciones",
                  "categories": [
                    {
                      "id": "3",
                      "name": "Desde 300.001 Hasta 600.000",
                      "_links": {
                        "self": {
                          "name": "Desde 300.001 Hasta 600.000",
                          "href": "https://api.euskadi.eus/procurements/companies/types/S/categories/3"
                        }
                      }
                    }
                  ],
                  "_links": {
                    "self": {
                      "name": "Servicios de telecomunicaciones",
                      "href": "https://api.euskadi.eus/procurements/companies/types/S/groups/V/subgroups/04"
                    }
                  }
                }
              ],
              "_links": {
                "self": {
                  "href": "https://api.euskadi.eus/procurements/companies/types/S/groups/V"
                }
              }
            }
          ],
          "_links": {
            "self": {
              "name": "Servicios",
              "href": "https://api.euskadi.eus/procurements/companies/types/S"
            }
          }
        }
      ],
      "object": "LA VENTA Y ARRENDAMIENTO DE EQUIPOS INFORMÁTICOS Y ELECTRÓNICOS. LA PRESTACIÓN DE SERVICIOS EN LA INSTALACIÓN, MANTENIMIENTO Y ASESORAMIENTO EN REDES DE TELECOMUNICACIÓN, SISTEMAS INFORMÁTICOS, DESARROLLOS DE SOFTWARE, Y FORMACIÓN ON LINE. ASESORAMIENTO Y FORMACIÓN DE PERSONAL, OUT SOURCING Y GESTIONES EN LA CONTRATACIÓN DE PERSONAL ESPECIALIZADO EN REDES DE TELECOMUNICACIÓN, SISTEMAS INFORMÁTICOS, DESARROLLOS DE SOFTWARE, Y FORMACIÓN ON LINE",
      "mainEntityOfPage": "https://www.contratacion.euskadi.eus/webkpe00-kperoc/es/ac71aBusquedaRegistrosWar/empresa/05650",
      "_links": {
        "self": {
          "name": "SERNIVEL 3, S.L.",
          "href": "https://api.euskadi.eus/procurements/companies/05650"
        }
      }
    },
    {
      "name": "LUIS JAVIER ROS LÓPEZ",
      "registrationNumber": "08477",
      "identificationNumber": "72570907L",
      "address": "Aizkorri, 24 entlo. C",
      "location": {
        "postalCode": "20230",
        "municipality": "Legazpi",
        "county": "Gipuzkoa",
        "municipalityId": "051",
        "countyId": "20"
      },
      "economicActivities": [
        {
          "id": "1.475.2",
          "name": "Composición de textos por cualquier procedimiento",
          "_links": {
            "self": {
              "name": "Composición de textos por cualquier procedimiento",
              "href": "https://api.euskadi.eus/procurements/companies/economic-activities/1.475.2"
            }
          }
        },
        {
          "id": "1.849.2",
          "name": "Servicios mecanográficos, taquigráficos, de reproducción de escritos",
          "_links": {
            "self": {
              "name": "Servicios mecanográficos, taquigráficos, de reproducción de escritos",
              "href": "https://api.euskadi.eus/procurements/companies/economic-activities/1.849.2"
            }
          }
        }
      ],
      "certificateStartDate": "2025-04-29",
      "certificateEndDate": "2025-10-21",
      "object": "COMPOSICIÓN DE TEXTOS POR CUALQUIER PROCEDIMIENTO. SERVICIOS MECANOGRÁFICOS, TAQUIGRÁFICOS, DE REPRODUCCIÓN DE ESCRITOS.",
      "mainEntityOfPage": "https://www.contratacion.euskadi.eus/webkpe00-kperoc/es/ac71aBusquedaRegistrosWar/empresa/08477",
      "_links": {
        "self": {
          "name": "LUIS JAVIER ROS LÓPEZ",
          "href": "https://api.euskadi.eus/procurements/companies/08477"
        }
      }
    },
    {
      "name": "MENDIBIL ARQUITECTURA Y URBANISMO S.L.P.U.",
      "registrationNumber": "06411",
      "identificationNumber": "B95231866",
      "address": "Fueros 7 local comercial",
      "location": {
        "postalCode": "48992",
        "municipality": "Getxo",
        "county": "Bizkaia",
        "municipalityId": "044",
        "countyId": "48"
      },
      "economicActivities": [
        {
          "id": "1.843.2",
          "name": "Servicios técnicos de arquitectura y urbanismo",
          "_links": {
            "self": {
              "name": "Servicios técnicos de arquitectura y urbanismo",
              "href": "https://api.euskadi.eus/procurements/companies/economic-activities/1.843.2"
            }
          }
        }
      ],
      "certificateStartDate": "2025-04-28",
      "certificateEndDate": "2025-10-28",
      "object": "EL EJERCICIO DE LA ACTIVIDAD PROFESIONAL DE LA ARQUITECTURA Y EL URBANISMO",
      "mainEntityOfPage": "https://www.contratacion.euskadi.eus/webkpe00-kperoc/es/ac71aBusquedaRegistrosWar/empresa/06411",
      "_links": {
        "self": {
          "name": "MENDIBIL ARQUITECTURA Y URBANISMO S.L.P.U.",
          "href": "https://api.euskadi.eus/procurements/companies/06411"
        }
      }
    },
    {
      "name": "ORTOPEDIA ORTOKA, S.L.",
      "registrationNumber": "09889",
      "identificationNumber": "B95259230",
      "address": "DR AREILZA 4",
      "location": {
        "postalCode": "48011",
        "municipality": "Bilbao",
        "county": "Bizkaia",
        "municipalityId": "020",
        "countyId": "48"
      },
      "economicActivities": [
        {
          "id": "1.392.2",
          "name": "Fabricación de aparatos de prótesis y ortopedia",
          "_links": {
            "self": {
              "name": "Fabricación de aparatos de prótesis y ortopedia",
              "href": "https://api.euskadi.eus/procurements/companies/economic-activities/1.392.2"
            }
          }
        },
        {
          "id": "1.659.3",
          "name": "Venta al por menor de aparatos médicos, ortopédicos, ópticos y fotográficos",
          "_links": {
            "self": {
              "name": "Venta al por menor de aparatos médicos, ortopédicos, ópticos y fotográficos",
              "href": "https://api.euskadi.eus/procurements/companies/economic-activities/1.659.3"
            }
          }
        }
      ],
      "certificateStartDate": "2025-04-26",
      "certificateEndDate": "2025-10-26",
      "object": "LA ACTIVIDAD DE FABRICACIÓN Y COMERCIALIZACIÓN DE APARATOS, PRÓTESIS E INSTRUMENTOS MÉDICOS, ORTOPÉDICOS Y ORTOPROTÉSICOS, ADEMÁS DE SUS PIEZAS Y ACCESORIOS. COMERCIALIZACIÓN DE PRENDAS DE VESTIR PARA USO MÉDICO Y ROPA DE TRABAJO EN GENERAL. COMERCIALIZACIÓN DE MAQUINARIA PARA APLICACIONES MÉDICAS EN GENERAL. AGENCIA E INTERMEDIACIÓN COMERCIAL, ASÍ COMO LA COMPRA-VENTA DE BIENES INMUEBLES.",
      "mainEntityOfPage": "https://www.contratacion.euskadi.eus/webkpe00-kperoc/es/ac71aBusquedaRegistrosWar/empresa/09889",
      "_links": {
        "self": {
          "name": "ORTOPEDIA ORTOKA, S.L.",
          "href": "https://api.euskadi.eus/procurements/companies/09889"
        }
      }
    },
    {
      "name": "MARIA ROSA CARMONA DIAZ",
      "registrationNumber": "10154",
      "identificationNumber": "51423994L",
      "address": "Calle de Joaquín María López, 70",
      "location": {
        "postalCode": "28015",
        "municipality": "Madrid",
        "county": "Madrid",
        "municipalityId": "079",
        "countyId": "28"
      },
      "economicActivities": [
        {
          "id": "2.399",
          "name": "Otros profesionales relacionados con otras industrias manufactureras",
          "_links": {
            "self": {
              "name": "Otros profesionales relacionados con otras industrias manufactureras",
              "href": "https://api.euskadi.eus/procurements/companies/economic-activities/2.399"
            }
          }
        }
      ],
      "certificateStartDate": "2025-04-25",
      "certificateEndDate": "2025-10-25",
      "object": "OTROS PROFESIONALES RELACIONADOS CON OTRAS INDUSTRIAS MANUFACTURERAS.",
      "mainEntityOfPage": "https://www.contratacion.euskadi.eus/webkpe00-kperoc/es/ac71aBusquedaRegistrosWar/empresa/10154",
      "_links": {
        "self": {
          "name": "MARIA ROSA CARMONA DIAZ",
          "href": "https://api.euskadi.eus/procurements/companies/10154"
        }
      }
    },
    {
      "name": "EGUSKIALDE, S.L.",
      "registrationNumber": "05718",
      "identificationNumber": "B95333480",
      "address": "Bº Zubiete, 54",
      "location": {
        "postalCode": "48192",
        "municipality": "Gordexola",
        "county": "Bizkaia",
        "municipalityId": "042",
        "countyId": "48"
      },
      "economicActivities": [
        {
          "id": "1.501.1",
          "name": "Construcción completa, reparación y conservación de edificaciones",
          "_links": {
            "self": {
              "name": "Construcción completa, reparación y conservación de edificaciones",
              "href": "https://api.euskadi.eus/procurements/companies/economic-activities/1.501.1"
            }
          }
        }
      ],
      "certificateStartDate": "2025-04-25",
      "certificateEndDate": "2025-10-24",
      "object": "LA CONSTRUCCIÓN DE VIVIENDAS DE PROTECCIÓN OFICIAL O DE CUALQUIER OTRO TIPO DE CLASE, SIN LIMITACIÓN, COMO ASIMISMO, LOCALES DE NEGOCIOS Y EDIFICACIONES, OBRAS Y CONSTRUCCIONES DE TODO TIPO, CONTRATAS DE OBRAS PÚBLICAS O PARTICULARES, CONTRATOS DE EJECUCIÓNDE OBRAS Y SERVICIOS, OBTENCIÓN Y EXPLOTACIÓN DE CONCESIONES DE SERVICIOS Y DE CUALQUIER OTRA CLASE DE ADQUISICIÓN, USO, ARRENDAMIENTO, VENTA Y ENAJENACIÓN POR CUALQUIER TÍTULO DE EDIFICACIONES, PISOS, LOCALES Y CONSTRUCCIONES DE TODO GÉNERO, LA ADQUISICIÓN, USO, ARRENDAMIENTO Y ENAJENACIÓN DE FINCAS, TERRENOS, SOLARES, SU PARCELACIÓN Y URBANIZACIÓN, LA PROMOCIÓN Y CONSTITUCIÓN DE COMUNIDADES DE PROPIETARIOS O DE CUALQUIER OTRA FORMA DE ASOCIACIÓN O SOCIEDAD CON FINES DE EDIFICACIÓN Y URBANIZACIÓN",
      "mainEntityOfPage": "https://www.contratacion.euskadi.eus/webkpe00-kperoc/es/ac71aBusquedaRegistrosWar/empresa/05718",
      "_links": {
        "self": {
          "name": "EGUSKIALDE, S.L.",
          "href": "https://api.euskadi.eus/procurements/companies/05718"
        }
      }
    }
  ]
}