{
  "totalItems": 9042,
  "totalPages": 905,
  "currentPage": 416,
  "itemsOfPage": 10,
  "items": [
    {
      "name": "SEI RENOVABLES, S.L.",
      "registrationNumber": "09672",
      "identificationNumber": "B44612307",
      "address": "Camino Pokopandegi 11 (20008)",
      "location": {
        "postalCode": "20008",
        "municipality": "Donostia / San Sebastián",
        "county": "Gipuzkoa",
        "municipalityId": "069",
        "countyId": "20"
      },
      "economicActivities": [
        {
          "id": "1.504.1",
          "name": "Instalaciones eléctricas en general",
          "_links": {
            "self": {
              "name": "Instalaciones eléctricas en general",
              "href": "https://api.euskadi.eus/procurements/companies/economic-activities/1.504.1"
            }
          }
        }
      ],
      "certificateStartDate": "2024-06-24",
      "certificateEndDate": "2024-12-24",
      "object": "LA CONSTRUCCIÓN, DESARROLLO, MANTENIMIENTO Y EXPLOTACIÓN DE SISTEMAS DE GENERACIÓN, MEDIDA, CARGA O ALMACENAMIENTO ENERGÉTICO, ASÍ COMO SOLUCIONES PARA MOVILIDAD, INFRAESTRUCTURAS, NEGOCIOS E INMUEBLES. LA REALIZACIÓN DE CUALQUIER TIPO DE OBRAS CIVILES, URBANIZACIÓN E INSTALACIONES, INCLUIDAS LA ELÉCTRICAS DE BAJA, ALTA TENSIÓN Y PROYECTOS RELACIONADOS. LA PROMOCIÓN, VENTA, EXPLOTACIÓN Y MANTENIMIENTO DE PARQUES ENERGÉTICOS. LA INSTALACIÓN Y VENTA DE EQUIPOS DE RECARGA PARA TODO TIPO DE VEHÍCULOS ELÉCTRICOS. LA INSTALACIÓN Y VENTA DE EQUIPOS DE RECARGA PARA TODO TIPO DE VEHÍCULOS ELÉCTRICOS. LA INSTALACIÓN, VENTA, GESTIÓN Y MANTENIMIENTO DE CUALQUIER EQUIPO DE MEDIDA O EFICIENCIA ENERGÉTICA. LA PRESTACIÓN DE SERVICIOS ENERGÉTICOS RELACIONADOS CON LA MEJORA DE LA EFICIENCIA ENERGÉTICA, QUE PUEDAN COMPRENDER EL SUMINISTRO ENERGÉTICO MEDIANTE SU ADQUISICIÓN A PRODUCTORES O COMERCIALIZADORES DE ENERGÍA, LA GESTIÓN ENERGÉTICA, LA OPERACIÓN Y EL MANTENIMIENTO DE LAS INSTALACIONES CONSUMIDORAS.",
      "mainEntityOfPage": "https://www.contratacion.euskadi.eus/webkpe00-kperoc/es/ac71aBusquedaRegistrosWar/empresa/09672",
      "_links": {
        "self": {
          "name": "SEI RENOVABLES, S.L.",
          "href": "https://api.euskadi.eus/procurements/companies/09672"
        }
      }
    },
    {
      "name": "DELOITTE ADVISORY, S.L.",
      "registrationNumber": "04918",
      "identificationNumber": "B86466448",
      "address": "PLAZA PABLO RUIZ PACASSO,1. TORRE PICASSO",
      "location": {
        "postalCode": "28020",
        "municipality": "Madrid",
        "county": "Madrid",
        "municipalityId": "079",
        "countyId": "28"
      },
      "economicActivities": [
        {
          "id": "1.842",
          "name": "Servicios financieros y contables",
          "_links": {
            "self": {
              "name": "Servicios financieros y contables",
              "href": "https://api.euskadi.eus/procurements/companies/economic-activities/1.842"
            }
          }
        },
        {
          "id": "1.845",
          "name": "Explotación electrónica por cuenta de terceros",
          "_links": {
            "self": {
              "name": "Explotación electrónica por cuenta de terceros",
              "href": "https://api.euskadi.eus/procurements/companies/economic-activities/1.845"
            }
          }
        },
        {
          "id": "1.847",
          "name": "Servicios de consultoría",
          "_links": {
            "self": {
              "name": "Servicios de consultoría",
              "href": "https://api.euskadi.eus/procurements/companies/economic-activities/1.847"
            }
          }
        }
      ],
      "certificateStartDate": "2024-06-23",
      "certificateEndDate": "2024-12-23",
      "object": "A) REALIZAR TODA CLASE DE TRABAJOS DE CONSULTORÍA, ASESORAMIENTO, ESTUDIOS SECTORIALES O EMPRESARIALES Y CONSULTORÍA EN EL ÁMBITO NACIONAL E INTERNACIONAL TANTO EN ENTIDADES PÚBLICAS COMO PRIVADAS SOBRE TEMAS ECONÓMICOS, FINANCIEROS, CONTABLES, SECTORIALES, DE GESTIÓN DE LA EMPRESA Y, EN GENERAL, SOBRE TODOS AQUELLOS RELACIONADOS CON LA INFORMACIÓN, ORGANIZACIÓN Y PLANIFICACIÓN EMPRESARIAL Y DE INSTITUCIONES, INCLUÍDOS LOS SERVICIOS DE CONSULTORÍA Y ASESORAMIENTO RELATIVOS AL DISEÑO Y MEJORA DE LOS PROCESOS DE GESTIÓN, ANÁLISIS Y ESTRUCTURA DE COSTES, VALORACIÓN DE PUESTOS DE TRABAJO, GESTIÓN DE RECURSOS HUMANOS, PLANIFICACIÓN ESTRATÉGICA, GESTIÓN DE CALIDAD, GESTIÓN MEDIOAMBIENTAL, MEJORA DEL CONOCIMIENTO ORGANIZATIVO, DISEÑO E IMPLANTACIÓN DE SISTEMAS DE INFORMACIÓN, GESTIÓN Y CONTROL DE TESORERÍA Y DERIVADOS FINANCIEROS, EXTERNALIZACIÓN DE LOS DEPARTAMENTOS DE AUDITORÍA INTERNA Y MEJORA DE SU FUNCIONAMIENTO, ANÁLISIS SOBRE LA VIABILIDAD DE LAS EMPRESAS, GESTIÓN DEL RIESGO INFORMÁTICO Y ANÁLISIS DE SEGURIDAD EN EL TRATAMIENTO INFORMATIZADO DE DATOS, O EN EL TRATAMIENTO DE INFORMACÓN EN INTERNET Y EN SU TRANSMISIÓN Y COMUNICACIÓN, DISEÑO DE DISTEMAS DE CONTROL INTERNO Y PARA EL CONTROL DE RIESGOS DE TODO TIPO (FINANCIEROS, DE MATERIAS PRIMAS, DERIVADOS) Y ANÁLISIS FINANCIEROS. B) EFECTUAR AUDITORÍAS Y ASESORÍAS MEDIOAMBIENTALES Y CONSULTORÍA EN GESTIÓN DE PATRIMONIOS Y PROYECTOS INMOBILIARIOS, ASÍ COMO AUDITORÍAS Y EVALUACIONES EXTERNAS DE SISTEMAS DE PREVENCIÓN DE RIESGOS LABORALES. C) REALIZAR ACTIVIDADES DE FORMACIÓN EMPRESARIAL Y PROFESIONAL, ASÍ COMO DISEÑAR, CREAR, EDITAR Y DISTRIBUIR CURSOS, MANUALES, LIBROS, VÍDEOS, SOFTWARE, Y EN GENERAL CUALQUIER PRODUCTO AUDIOVISUAL DESTINADO A LA FORMACIÓN Y DESARROLLO PROFESIONAL DE DIRECTIVOS, EMPRESARIOS, EMPLEADOS Y PERSONAS RELACIONADAS CON EL ÁMBITO EMPRESARIAL. D) PRESTAR TODA CLASE DE SERVICIOS EN EL ÁMBITO DE LAS TECNOLOGÍAS DE LA INFORMACIÓN Y LAS COMUNICACIONES, Y EN CONCRETO. PLANIFICACIÓN, DESARROLLO E IMPLANTACIÓN DE ESTRATEGIAS DE SISTEMAS Y TECNOLOGÍAS DE LA INFORMACIÓN, GESTIÓN Y OPERACIÓN DE LA SEGURIDAD DE LA INFORMACIÓN (INCLUYENDO PLANES DE SEGURIDAD Y PLANES DE CONTINGENCIA Y RECUPERACIÓN ANTE DESASTRES); SERVICIOS DE CAPTURA DE INFORMACIÓN Y POR MEDIOS ELECTRÓNICOS, INFORMÁTICOS Y TELEMÁTICOS; SERVICIOS DE DESARROLLO Y MANTENIMIENTO DE PROGRAMAS DE ORDENADOR; SERVICIOS DE TELECOMUNICACIONES; SERVICIOS DE EXPLOTACIÓN Y CONTROL DE SISTEMAS INFORMÁTICOS E INFRAESTRUCTRUAS TELEMÁTICAS; SERVICIOS DE CERTIFICACIÓN ELECTRÓNICA; SERVICIOS DE EVALUACIÓN Y CERTIFICACIÓN TECNOLÓGICA; ASÍ COMO CUALESQUIERA OTROS SERVICIOS INFORMÁTICOS O DE TELECOMUNICACIONES NO INCLUÍDOS EN LAS CATEGORÍAS ANTERIORES, DEBIENDO ENTENDER INCLUÍDOS EN TODOS LOS ANTERIORES SERVICIOS TODAS LAS ACTIVIDADES CONCRETAS DESCRITAS PARA EL GUPO V EN EL ANEXO II DEL REAL DECRETO 1098/2001, DE 12 DE OCTUBRE, POR EL QUE SE APRUEBA EL REGLAMENTO GENERAL DE LA LEY DE CONTRATOS DE LAS ADMINISTRACIONES PÚBLICAS. 2. LA SOCIEDAD Y SUS SOCIOS RESPETARÁN Y CUMPLIRÁN LAS NORMAS DEONTOLÓGICAS DE LOS COLEGIOS Y ORGANIZACIONES PROFESIONALES QUE REGULEN LAS ACTIVIDADES PROFESIONALES QUE CONSTITUYEN SU OBJETO SOCIAL, ASÍ COMO DE CUALQUIER DISPOSICIÓN NORMATIVA QUE AFECTE A DICHAS ACTIVIDADES. 3. EN EL SUPUESTO EN QUE EL DESARROLLO DEL OBJETO SOCIAL REQUIERA LA OBTENCIÓN DE CUALQUIER TIPO DE CONCESIÓN, LICENCIA O AUTORIZACIÓN ADMINISTRATIVA, ÉSTA SE OBTENDRÁ CON CARÁCTER PREVIO AL INICIO DE LA ACTIVIDAD. 4. LAS ACTIVIDADES INTEGRANTES DEL OBJETO SOCIAL PODRÁN SER DESARROLLADAS, TOTAL O PARCIALMENTE, DE MODO INDIRECTO, MEDIANTE LA TITULARIDAD DE ACCIONES O PARTICIPACIONES EN SOCIEDADES DE OBJETO IDÉNTICO O ANÁLOGO. QUEDAN EXCLUÍDAS TODAS AQUELLAS ACTIVIDADES  PARA CUYO EJERCICIO LA LEY EXIJA REQUISITOS QUE NO QUEDEN CUMPLIDOS POR ESTA SOCIEDAD",
      "mainEntityOfPage": "https://www.contratacion.euskadi.eus/webkpe00-kperoc/es/ac71aBusquedaRegistrosWar/empresa/04918",
      "_links": {
        "self": {
          "name": "DELOITTE ADVISORY, S.L.",
          "href": "https://api.euskadi.eus/procurements/companies/04918"
        }
      }
    },
    {
      "name": "SINTEI SECURE, S.L.",
      "registrationNumber": "06660",
      "identificationNumber": "B95940847",
      "address": "CALLE DOCTOR ESPINOSA ORIBE 15- 1º A",
      "location": {
        "postalCode": "48003",
        "municipality": "Bilbao",
        "county": "Bizkaia",
        "municipalityId": "020",
        "countyId": "48"
      },
      "economicActivities": [
        {
          "id": "1.699",
          "name": "Otras reparaciones n.c.o.p",
          "_links": {
            "self": {
              "name": "Otras reparaciones n.c.o.p",
              "href": "https://api.euskadi.eus/procurements/companies/economic-activities/1.699"
            }
          }
        }
      ],
      "certificateStartDate": "2024-06-23",
      "certificateEndDate": "2024-12-23",
      "object": "EL DESARROLLO DE LAS ACTIVIDADES CORRESPONDIENTES A LOS SIGUIENTES CÓDIGOS Y DESCRIPCIONES DE LA CLASIFICACIÓN NACIONAL DE ACTIVIDADES ECONÓMICAS: ACTIVIDAD PRINCIPAL.- 6209.-OTROS SERVICIOS RELACIONADOS CON LAS TECNOLOGÍAS DE LA INFORMACIÓN Y LA INFORMÁTICA. OTRAS ACTIVIDADES.- 6311.-PROCESO DE DATOS, HOSTING Y ACTIVIDADES RELACIONADAS. 7022.-OTRAS ACTIVIDADES DE CONSULTORÍA DE GESTIÓN EMPRESARIAL. 6399.-OTROS SERVICIOS DE INFORMACIÓN N.C.O.P.-4690.-COMERCIO AL POR MAYOR NO ESPECIALIZADO.-6201.-ACTIVIDADES DE PROGRAMACIÓN INFORMÁTICA.-6312.-PORTALES WEB.-4741.-COMERCIO AL POR MENOR DE ORDENADORES, EQUIPOS PERIFÉRICOS Y PROGRAMAS INFORMÁTICOS EN ESTABLECIMIENTOS ESPECIALIZADOS.6203.-GESTIÓN DE RECURSOS INFORMÁTICOS.4799.-OTRO COMERCIO AL POR MENOR NO REALIZADO NI EN ESTABLECIMIENTOS, NI EN PUESTO DE VENTA NI EN MERCADILLOS.4778.-OTRO COMERCIO AL POR MENOR DE ARTÍCULOS NUEVOS EN ESTABLECIMIENTOS ESPECIALIZADOS.4651.-COMERCIO AL POR MAYOR DE ORDENADORES, EQUIPOS PERIFÉRICOS Y PROGRAMAS INFORMÁTICOS.6202.-ACTIVIDADES DE CONSULTORÍA INFORMÁTICA.4754.-COMERCIO AL POR MENOR DE APARATOS ELECTRODOMÉSTICOS EN ESTABLECIMIENTOS ESPECIALIZADOS.3313.-REPARACIÓN DE EQUIPOS ELECTRÓNICOS Y ÓPTICOS.3314.-REPARACIÓN DE EQUIPOS ELÉCTRICOS.3319.-REPARACIÓN DE OTROS EQUIPOS.3312.-REPARACIÓN DE MAQUINARIA",
      "mainEntityOfPage": "https://www.contratacion.euskadi.eus/webkpe00-kperoc/es/ac71aBusquedaRegistrosWar/empresa/06660",
      "_links": {
        "self": {
          "name": "SINTEI SECURE, S.L.",
          "href": "https://api.euskadi.eus/procurements/companies/06660"
        }
      }
    },
    {
      "name": "IBAI FORESTAL, S.L.",
      "registrationNumber": "08452",
      "identificationNumber": "B95683900",
      "address": "C/ GENERAL EGUIA, 1, 1º DCHA.",
      "location": {
        "postalCode": "48010",
        "municipality": "Bilbao",
        "county": "Bizkaia",
        "municipalityId": "020",
        "countyId": "48"
      },
      "economicActivities": [
        {
          "id": "1.631",
          "name": "Intermediarios del comercio",
          "_links": {
            "self": {
              "name": "Intermediarios del comercio",
              "href": "https://api.euskadi.eus/procurements/companies/economic-activities/1.631"
            }
          }
        },
        {
          "id": "1.912",
          "name": "Servicios forestales",
          "_links": {
            "self": {
              "name": "Servicios forestales",
              "href": "https://api.euskadi.eus/procurements/companies/economic-activities/1.912"
            }
          }
        }
      ],
      "certificateStartDate": "2024-06-20",
      "certificateEndDate": "2024-12-18",
      "object": "LA REALIZACIÓN, EJECUCIÓN, ESTUDIO, PROGRAMACIÓN DE ACTIVIDADES FORESTALES TALES COMO LA COMPRAVENTA DE VUELO DE MONTES, TALA DE MONTES, ARRASTRE DE ÁRBOLES Y TRONCOS Y SU TRANSPORTE HASTA SU DESTINO FINAL. LA INTERMEDIACIÓN EN LA REALIZACIÓN DE LAS ACTIVIDADES SEÑALADAS, ASÍ COMO EL ASESORAMIENTO A PERSONAS FÍSICAS O JURÍDICAS EN LAS MISMAS MATERIAS.",
      "mainEntityOfPage": "https://www.contratacion.euskadi.eus/webkpe00-kperoc/es/ac71aBusquedaRegistrosWar/empresa/08452",
      "_links": {
        "self": {
          "name": "IBAI FORESTAL, S.L.",
          "href": "https://api.euskadi.eus/procurements/companies/08452"
        }
      }
    },
    {
      "name": "ERANOVUM E-MOBILITY, S.L.",
      "registrationNumber": "08858",
      "identificationNumber": "B05482310",
      "address": " Calle Suero de Quiñones, 34 - 36",
      "location": {
        "postalCode": "28002",
        "municipality": "Madrid",
        "county": "Madrid",
        "municipalityId": "079",
        "countyId": "28"
      },
      "economicActivities": [
        {
          "id": "1.151.6",
          "name": "Comercialización de energía eléctrica",
          "_links": {
            "self": {
              "name": "Comercialización de energía eléctrica",
              "href": "https://api.euskadi.eus/procurements/companies/economic-activities/1.151.6"
            }
          }
        }
      ],
      "certificateStartDate": "2024-06-19",
      "certificateEndDate": "2024-12-19",
      "object": "IMPORTACIÓN, VENTA, INSTALACIÓN Y MANTENIMIENTO DE CARGADORES LENTOS, SEMIRRÁPIDOS, RÁPIDOS Y SUPERRÁPIDOS PARA TODO TIPO DE VEHÍCULOS ELÉCTRICOS (COCHES, VEHÍCULOS DE TRANSPORTE DE PERSONAS Y MERCANCÍAS, VEHÍCULOS INDUSTRIALES, VEHÍCULOS DE SERVICIOS URBANOS).",
      "mainEntityOfPage": "https://www.contratacion.euskadi.eus/webkpe00-kperoc/es/ac71aBusquedaRegistrosWar/empresa/08858",
      "_links": {
        "self": {
          "name": "ERANOVUM E-MOBILITY, S.L.",
          "href": "https://api.euskadi.eus/procurements/companies/08858"
        }
      }
    },
    {
      "name": "ARABAOBRA, S.L.",
      "registrationNumber": "09159",
      "identificationNumber": "B01527860",
      "address": "AVENIDA LOS OLMOS 1A, OFICINA 109",
      "location": {
        "postalCode": "01013",
        "municipality": "Vitoria-Gasteiz",
        "county": "Araba/Álava",
        "municipalityId": "059",
        "countyId": "01"
      },
      "economicActivities": [
        {
          "id": "1.501.3",
          "name": "Albañilería y pequeños trabajos de construcción en general",
          "_links": {
            "self": {
              "name": "Albañilería y pequeños trabajos de construcción en general",
              "href": "https://api.euskadi.eus/procurements/companies/economic-activities/1.501.3"
            }
          }
        }
      ],
      "certificateStartDate": "2024-06-19",
      "certificateEndDate": "2024-12-19",
      "object": "A) TRABAJOS DE ALBAÑILERÍA EN GENERAL. B) ENCOFRADOS PARA LA CONSTRUCCIÓN C) TRABAJOS DE CONSTRUCCIÓN, REHABILITACIÓN, REPARACIÓN, CONTRATACIÓN, DE TODO TIPO DE EDIFICIOS Y OBRAS, TANTO PÚBLICAS COMO PRIVADAS, TANTO POR CUENTA PROPIA COMO AJENA. D) URBANIZACIÓN, PARCELACIÓN, ADQUISICIÓN, VENTA, PROMOCIÓN Y CONSTRUCCIÓN DE TODA CLASE DE TERRENOS, SOLARES, OBRAS, VIVIENDAS, APARTAMENTOS, LOCALES, PABELLONES, Y CUALQUIER OTRO TIPO DE INMUEBLE. E) ARRENDAMIENTO, COMPRA Y VENTA DE INMUEBLES. F) PRESTACIÓN DE SERVICIOS, INFORMES Y ESTUDIOS INMOBILIARIOS Y REFERENTES A LA CONSTRUCCIÓN. CNAE (4110, 4312, 4333, 6810).",
      "mainEntityOfPage": "https://www.contratacion.euskadi.eus/webkpe00-kperoc/es/ac71aBusquedaRegistrosWar/empresa/09159",
      "_links": {
        "self": {
          "name": "ARABAOBRA, S.L.",
          "href": "https://api.euskadi.eus/procurements/companies/09159"
        }
      }
    },
    {
      "name": "IKASLEARGAIZ, S.L.",
      "registrationNumber": "07460",
      "identificationNumber": "B01248491",
      "address": "AVENIDA DEL CANTABRICO, 11-A",
      "location": {
        "postalCode": "01013",
        "municipality": "Vitoria-Gasteiz",
        "county": "Araba/Álava",
        "municipalityId": "059",
        "countyId": "01"
      },
      "economicActivities": [
        {
          "id": "1.612.1",
          "name": "Venta al por mayor de toda clase de productos alimenticios, bebidas, tabaco",
          "_links": {
            "self": {
              "name": "Venta al por mayor de toda clase de productos alimenticios, bebidas, tabaco",
              "href": "https://api.euskadi.eus/procurements/companies/economic-activities/1.612.1"
            }
          }
        },
        {
          "id": "1.612.9",
          "name": "Venta al por mayor de otros productos alimenticios, helados de todas clases",
          "_links": {
            "self": {
              "name": "Venta al por mayor de otros productos alimenticios, helados de todas clases",
              "href": "https://api.euskadi.eus/procurements/companies/economic-activities/1.612.9"
            }
          }
        },
        {
          "id": "1.647.1",
          "name": "Venta al por menor de productos alimenticios y bebidas con vendedor",
          "_links": {
            "self": {
              "name": "Venta al por menor de productos alimenticios y bebidas con vendedor",
              "href": "https://api.euskadi.eus/procurements/companies/economic-activities/1.647.1"
            }
          }
        }
      ],
      "certificateStartDate": "2024-06-19",
      "certificateEndDate": "2024-12-19",
      "object": "LA COMERCIALIZACIÓN AL POR MAYOR DE TODA CLASE DE PRODUCTOS ALIMENTICIOS Y BEBIDAS",
      "mainEntityOfPage": "https://www.contratacion.euskadi.eus/webkpe00-kperoc/es/ac71aBusquedaRegistrosWar/empresa/07460",
      "_links": {
        "self": {
          "name": "IKASLEARGAIZ, S.L.",
          "href": "https://api.euskadi.eus/procurements/companies/07460"
        }
      }
    },
    {
      "name": "TK ELEVADORES ESPAÑA, S.L.",
      "registrationNumber": "03277",
      "identificationNumber": "B46001897",
      "address": "C/ CONDADO DE TREVIÑO, 2",
      "location": {
        "postalCode": "28021",
        "municipality": "Madrid",
        "county": "Madrid",
        "municipalityId": "079",
        "countyId": "28"
      },
      "economicActivities": [
        {
          "id": "1.501.3",
          "name": "Albañilería y pequeños trabajos de construcción en general",
          "_links": {
            "self": {
              "name": "Albañilería y pequeños trabajos de construcción en general",
              "href": "https://api.euskadi.eus/procurements/companies/economic-activities/1.501.3"
            }
          }
        },
        {
          "id": "1.504.1",
          "name": "Instalaciones eléctricas en general",
          "_links": {
            "self": {
              "name": "Instalaciones eléctricas en general",
              "href": "https://api.euskadi.eus/procurements/companies/economic-activities/1.504.1"
            }
          }
        },
        {
          "id": "1.504.6",
          "name": "Montaje e instalación de aparatos elevadores de cualquier clase",
          "_links": {
            "self": {
              "name": "Montaje e instalación de aparatos elevadores de cualquier clase",
              "href": "https://api.euskadi.eus/procurements/companies/economic-activities/1.504.6"
            }
          }
        },
        {
          "id": "1.507",
          "name": "Construcción, reparación y conservación de toda clase obras",
          "_links": {
            "self": {
              "name": "Construcción, reparación y conservación de toda clase obras",
              "href": "https://api.euskadi.eus/procurements/companies/economic-activities/1.507"
            }
          }
        },
        {
          "id": "1.617.9",
          "name": "Venta al por mayor interindustrial de otros productos n.c.o.p",
          "_links": {
            "self": {
              "name": "Venta al por mayor interindustrial de otros productos n.c.o.p",
              "href": "https://api.euskadi.eus/procurements/companies/economic-activities/1.617.9"
            }
          }
        },
        {
          "id": "1.692",
          "name": "Reparación de maquinaria industrial",
          "_links": {
            "self": {
              "name": "Reparación de maquinaria industrial",
              "href": "https://api.euskadi.eus/procurements/companies/economic-activities/1.692"
            }
          }
        },
        {
          "id": "1.699",
          "name": "Otras reparaciones n.c.o.p",
          "_links": {
            "self": {
              "name": "Otras reparaciones n.c.o.p",
              "href": "https://api.euskadi.eus/procurements/companies/economic-activities/1.699"
            }
          }
        },
        {
          "id": "1.843.1",
          "name": "Servicios técnicos de ingeniería",
          "_links": {
            "self": {
              "name": "Servicios técnicos de ingeniería",
              "href": "https://api.euskadi.eus/procurements/companies/economic-activities/1.843.1"
            }
          }
        },
        {
          "id": "1.932.1",
          "name": "Enseñanza de formación y perfeccionamiento profesional no superior",
          "_links": {
            "self": {
              "name": "Enseñanza de formación y perfeccionamiento profesional no superior",
              "href": "https://api.euskadi.eus/procurements/companies/economic-activities/1.932.1"
            }
          }
        }
      ],
      "certificateStartDate": "2024-06-18",
      "certificateEndDate": "2024-12-18",
      "object": "EL INDUSTRIAL Y COMERCIAL QUE SE RELACIONE CON TODO LO CONCERNIENTE A LOS APARATOS ELEVADORES, DE CUALQUER TIPO Y APLICACIÓN, SIN DETERMINACIÓN DE SISTEMAS NI DE FUERZAS CAUSANTES, CON EXTENSIÓN TAMBIÉN A TODO LO QUE CONSTITUYA TRASLACIÓN CONTINUA DE PERSONAS U OBJETOS, EN CUALQUIER SENTIDO, ASCENDENTE, DESCENDENTE U HORIZONTAL. LA REALIZACIÓN DE TODO TIPO DE ESTRUCTURAS METÁLICAS RELACIONADAS CON LA EDIFICACIÓN, ASÍ COMO DE TRABAJOS DE ALBAÑILERÍA, REVOCOS Y REVESTIDOS, CARPINTERÍA METÁLICA, TRABAJOS DE PINTURA Y METALIZACIONES DE TODO TIPO. LA REALIZACIÓN DE INSTALACIONES ELÉCTRICAS  Y ELECTRÓNICAS DE TODO TIPO. LA ELABORACIÓN DE ESTUDIOS E INFORMES, QUE TENGAN POR OBJETO EL ANÁLISIS DE LA VIABILIDAD, TRÁFICO, IDONEIDAD Y COSTE DE LA BABRICACIÓN, INSTALACIÓN Y MANTENIMIENTO DE APARATOS ELEVADORES. LA ELABORACIÓN DE PROYECTOS, CON O SIN SU CONSIGUIENTE DIRECCIÓN DE OBRAS, REALTIVOS A INSTALACIONES INDUSTRIALES, TANTO PRINCIPALES COMO ACCESORIAS. LA PRESTACIÓN DE SERVICIOS DE CONSERVACIÓN Y MANTENIMIENTO DE BIENES INMUEBLES, CON O SIN APORTACIÓN DE MATERIALES. EL MANTENIMIENTO Y CONSERVACIÓN DE EQUIPOS E INSTALACIONES INDUSTRIALES, TANTO PRINCIPALES COMO ACCESORIAS, ASÍ COMO LA PRESTACIÓN DE CUALESQUIERA  OTROS SERVICIOS RELACIONADOS CON EQUIPOS E INSTALACIONES INDUSTRIALES. GESTIÓN Y ADMINISTRACIÓN DE VALORES REPRESENTATIVOS DE LOS FONDOS PROPIOS DE ENTIDADES NO RESIDENTES EN TERRITORIO ESPAÑOL, MEDIANTE LA CORRESPONDIENTE ORGANIZACIÓN DE MEDIOS MATERIALES Y PERSONALES     ",
      "mainEntityOfPage": "https://www.contratacion.euskadi.eus/webkpe00-kperoc/es/ac71aBusquedaRegistrosWar/empresa/03277",
      "_links": {
        "self": {
          "name": "TK ELEVADORES ESPAÑA, S.L.",
          "href": "https://api.euskadi.eus/procurements/companies/03277"
        }
      }
    },
    {
      "name": "GRUPO DAYHE DEVOLPMENT AND INVESTMENT SL",
      "registrationNumber": "06894",
      "identificationNumber": "B97881742",
      "address": "Calle En Sanz 3 pta 1",
      "location": {
        "postalCode": "46001",
        "municipality": "València",
        "county": "Valencia/València",
        "municipalityId": "250",
        "countyId": "46"
      },
      "economicActivities": [
        {
          "id": "1.843.1",
          "name": "Servicios técnicos de ingeniería",
          "_links": {
            "self": {
              "name": "Servicios técnicos de ingeniería",
              "href": "https://api.euskadi.eus/procurements/companies/economic-activities/1.843.1"
            }
          }
        }
      ],
      "certificateStartDate": "2024-06-18",
      "certificateEndDate": "2024-12-18",
      "object": "EL PLANEAMIENTO URBANÍSTICO, ESTUDIOS Y PROYECTOS DE INGENIERÍA CIVIL, MEDIOAMBIENTALES, ARQUITECTURA, TOPOGRÁFICOS Y CARTOGRÁFICOS E INDUSTRIALES, EJECUCIÓN DE OBRA CIVIL, OBRA MEDIOAMBIENTAL, OBRA DE EDIFICACIÓN, OBRA INDUSTRIAL Y EJECUCIÓN DE TRABAJOS TOPOGRÁFICOS Y CARTOGRÁFICOS",
      "mainEntityOfPage": "https://www.contratacion.euskadi.eus/webkpe00-kperoc/es/ac71aBusquedaRegistrosWar/empresa/06894",
      "_links": {
        "self": {
          "name": "GRUPO DAYHE DEVOLPMENT AND INVESTMENT SL",
          "href": "https://api.euskadi.eus/procurements/companies/06894"
        }
      }
    },
    {
      "name": "TRAIL INGENIEROS, S.L.",
      "registrationNumber": "07136",
      "identificationNumber": "B95753745",
      "address": "C/ Ibañez de Bilbao 13 entresuelo derecha",
      "location": {
        "postalCode": "48009",
        "municipality": "Bilbao",
        "county": "Bizkaia",
        "municipalityId": "020",
        "countyId": "48"
      },
      "economicActivities": [
        {
          "id": "1.843.9",
          "name": "Otros servicios técnicos n.c.o.p",
          "_links": {
            "self": {
              "name": "Otros servicios técnicos n.c.o.p",
              "href": "https://api.euskadi.eus/procurements/companies/economic-activities/1.843.9"
            }
          }
        }
      ],
      "certificateStartDate": "2024-06-18",
      "certificateEndDate": "2024-12-11",
      "object": "A.- LA PRESTACIÓN DE SERVICIOS, ELABORACIÓN DE ESTUDIOS, ASESORAMIENTO, DIRECCIÓN Y GESTIÓN DE PROYECTOS (PROJECT MANAGEMENT), EN MATERIA DE INGENIERÍA, ARQUITECTURA, CONSULTORÍA, Y REALIZACIÓN DE TODO TIPO DE OBRAS EN MATERIA DE MEDIO AMBIENTE, AIRE, AGUA Y SUELO, EVALUACIÓN AMBIENTAL, GESTIÓN Y TRATAMIENTO DE RESIDUOS, SUELO CONTAMINADO, MINERÍA, INFRAESTRUCTURAS, PLANTAS INDUSTRIALES, TRANSPORTE Y LOGÍSTICA, GEOFÍSICA, GEODESIA, GEOLOGÍA, GEOQUÍMICA, GEOTECNIA, OCEANOGRAFÍA, TOPOGRAFÍA, CLIMATOLOGÍA, EDAFOLOGÍA, AGRONOMÍA, GESTIÓN Y CONSTRUCCIÓN, RESTAURACIÓN, REHABILITACIÓN, PAISAJISMO, INGENIERÍA CIVIL, INDUSTRIAL, DE MINAS O DE CUALQUIER TIPO, RECURSOS NATURALES, Y ENERGÍA EN TODAS SUS MODALIDADES Y TÉCNICAS. B.- LA REALIZACIÓN DE INFORMES, ESTUDIOS, ASESORAMIENTO LEGAL Y ECONÓMICO, MEDIANTE CONTRATACIÓN CON PROFESIONALES PROVISTOS DE TITULACIÓN ADECUADA Y MEDIANTE OBTENCIÓN DE LOS PERMISOS ADMINISTRATIVOS Y ACREDITACIONES, CORRESPONDIENTES EN SU CASO. C.- LA RECOGIDA, TRANSPORTE, ALMACENAMIENTO, TRATAMIENTO, ELIMINACIÓN, VALORIZACIÓN, RECICLAJE Y COMERCIALIZACIÓN DE TODO TIPO DE RESIDUOS Y SUBPRODUCTOS ASÍ COMO LA CONSTRUCCIÓN DE INSTALACIONES Y GESTIÓN DE TODA CLASE DE PLANTAS, ESTACIONES DE TRANSFERENCIA Y VERTEDEROS, EN TODOS LOS ÁMBITOS Y SECTORES Y EN ESPECIAL, LOS QUE REQUIERAN LA APLICACIÓN DE TECNOLOGÍAS MEDIOAMBIENTALES, QUÍMICAS, TECNOLOGÍAS LIMPIAS, TECNOLOGÍAS DE RECUPERACIÓN ASÍ COMO TODAS AQUELLAS DESTINADAS A LA REDUCCIÓN, MINIMIZACIÓN Y PREVENCIÓN DE LA CONTAMINACIÓN. D.- LA REALIZACIÓN DE LIMPIEZAS INDUSTRIALES, DESCONTAMINACIÓN DE TERRENOS Y RUINAS INDUSTRIALES, LIMPIEZA E INERTIZACIÓN DE DEPÓSITOS DE COMBUSTIBLE Y DE PRODUCTOS QUÍMICOS. E.- LA PRESTACIÓN DE ASISTENCIA TÉCNICA EN PROYECTOS DE APROVECHAMIENTO ENERGÉTICO, MEDIANTE EL APROVECHAMIENTO DE BIOMASA, GEOTERMIA Y GAS DE VERTEDEROS. F.- LA PRESTACIÓN DE ASISTENCIA TÉCNICA Y SUMINISTRO DE EQUIPOS Y MATERIALES EN EL DESARROLLO DE LA INDUSTRIA DE FRACKING. G.- LA FABRICACIÓN, IMPORTACIÓN, EXPORTACIÓN, REPRESENTACIÓN, DISTRIBUCIÓN, COMPRA, VENTA Y ALQUILER DE TODA CLASE DE MERCANCÍAS, MAQUINARIA, PIEZAS ÚTILES Y ARTÍCULOS, HERRAMIENTAS, PRODUCTOS, MOBILIARIO EN GENERAL, EQUIPOS Y REPUESTOS NECESARIOS PARA LAS ACTIVIDADES ANTES INDICADAS O RELACIONADAS CON ELLAS. I.-LA PROMOCIÓN Y CONSTRUCCIÓN POR CUENTA PROPIA O AJENA DE TODO TIPO DE OBRAS E INSTALACIONES, INCLUSO EN EL DENOMINADO SISTEMA DE &quot;LLAVE EN MANO&quot;, REFORMAS Y REHABILITACIÓN DE INMUEBLES E INSTALACIONES, ASÍ COMO LA EXPLOTACIÓN Y MANTENIMIENTO SUCESIVO DE LO CONSTRUIDO, EDIFICADO O INSTALADO, RELACIONADOS CON LAS ACTIVIDADES CITADAS",
      "mainEntityOfPage": "https://www.contratacion.euskadi.eus/webkpe00-kperoc/es/ac71aBusquedaRegistrosWar/empresa/07136",
      "_links": {
        "self": {
          "name": "TRAIL INGENIEROS, S.L.",
          "href": "https://api.euskadi.eus/procurements/companies/07136"
        }
      }
    }
  ]
}