{
  "totalItems": 9042,
  "totalPages": 905,
  "currentPage": 146,
  "itemsOfPage": 10,
  "items": [
    {
      "name": "ASOCIACION DE VICTIMAS 3 DE MARZO - MARTXOAK 3 ELKARTEA",
      "registrationNumber": "10218",
      "identificationNumber": "G01292036",
      "address": "Plaza San Antón 8 - 6º Iz",
      "location": {
        "postalCode": "01002",
        "municipality": "Vitoria-Gasteiz",
        "county": "Araba/Álava",
        "municipalityId": "059",
        "countyId": "01"
      },
      "economicActivities": [
        {
          "id": "1.849.7",
          "name": "Servicios de gestión administrativa",
          "_links": {
            "self": {
              "name": "Servicios de gestión administrativa",
              "href": "https://api.euskadi.eus/procurements/companies/economic-activities/1.849.7"
            }
          }
        }
      ],
      "certificateStartDate": "2025-11-21",
      "certificateEndDate": "2026-05-18",
      "object": "- ORGANIZAR Y DAR CABIDA EN LA MISMA A TODAS LAS VICTIMAS Y FAMILIARES DE VICTIMAS DE LOS SUCESOS EN TORNO AL 3 DE MARZO DE 1976 QUE LO ESTIMEN OPORTUNO, ASÍ COMO A TODAS AQUELLAS PERSONAS QUE DESEEN COLABORAR CON LA ASOCIACIÓN Y COMPARTAN SUS OBJETIVOS. - LOGRAR EL RECONOCIMIENTO DE LA CONDICIÓN DE VÍCTIMAS DEL TERRORISMO PARA TODAS LAS PERSONAS AFECTADAS POR LOS SUCESOS OCURRIDOS EN TORNO AL 3 DE MARZO DE 1976 - CONTRIBUIR Y REALIZAR LAS GESTIONES PERTINENTES PARA ACLARAR Y DIFUNDIR LA VERDAD DE AQUELLOS HECHOS AL TIEMPO QUE EXIGIR JUSTICIA Y TODO TIPO DE RESPONSABILIDADES QUE PUDIERAN DERIVARSE DE LA COMISIÓN DE LOS MISMOS. - LLEVAR A CABO LAS ACCIONES OPORTUNAS PARA LOGRAR UNA TOTAL INSERCIÓN SOCIAL Y LA SUPERACIÓN DE LAS CONSECUENCIAS FÍSICAS Y PSICOLÓGICAS ORIGINADAS TRAS LA VIOLENTA ACTUACIÓN LLEVADA A CABO, Y QUE HAN AFECTADO Y AFECTAN A LAS VICTIMAS Y A SU ENTORNO FAMILIAR Y SOCIAL. - PROMOVER TODA SERIE DE MEDIDAS TENDENTES A LA APLICACIÓN DE LA LEGISLACIÓN INTERNACIONAL EN MATERIA DE DERECHOS HUMANOS, QUE CONLLEVEN UN TRATO IGUALITARIO Y EL RECONOCIMIENTO EFECTIVO PARA LAS PERSONAS AFECTADAS POR LOS HECHOS EN TORNO AL 3 DE MARZO DE 1976, QUE CONTRIBUYA A PROPICIAR EL DESARROLLO PLENO DE UNA CONVIVENCIA SOCIAL BASADA EN LA CULTURA Y DEFENSA DE LOS DERECHOS HUMANOS. PARA LA CONSECUCIÓN DE DICHOS FINES SE LLEVARAN A CABO, PREVIO EL CUMPLIMIENTO DE LOS REQUISITOS LEGALES ESTABLECIDOS, LAS SIGUIENTES ACTIVIDADES: - IMPULSAR DEMANDAS JUDICIALES EN LOS DIFERENTES TRIBUNALES DE JUSTICIA, TANTO NACIONALES COMO INTERNACIONALES, PARA ESTABLECER RESPONSABILIDADES DERIVADAS DE LA TRÁGICA ACTUACIÓN. - PROMOVER TODO TIPO DE ACTUACIONES A TRAVÉS DE INSTITUCIONES Y ORGANISMOS TANTO PUBLICAS COMO PRIVADAS DIRIGIDAS A INVESTIGAR Y ESTABLECER LA VERDAD DE LO OCURRIDO. - DIFUNDIR LAS CONCLUSIONES DE LAS INVESTIGACIONES REALIZADAS A FIN DE DEJAR CLARO ANTE LA SOCIEDAD EL CARÁCTER LEGITIMO Y DEMOCRÁTICO DE LA LUCHA LLEVADA A CABO EN MARZO DE 1976 EN VITORIA-GASTEIZ POR LA CLASE TRABAJADORA EN ARAS DE LOGRAR MEJORAS EN LAS CONDICIONES LABORALES Y SOCIALES Y POR LA CONSECUCIÓN DE PLENOS DERECHOS Y LIBERTADES.",
      "mainEntityOfPage": "https://www.contratacion.euskadi.eus/webkpe00-kperoc/es/ac71aBusquedaRegistrosWar/empresa/10218",
      "_links": {
        "self": {
          "name": "ASOCIACION DE VICTIMAS 3 DE MARZO - MARTXOAK 3 ELKARTEA",
          "href": "https://api.euskadi.eus/procurements/companies/10218"
        }
      }
    },
    {
      "name": "INNUBA SOCIAL INNOVATION, S.L.",
      "registrationNumber": "10226",
      "identificationNumber": "B87428918",
      "address": "Calle Juan Duque 12",
      "location": {
        "postalCode": "28005",
        "municipality": "Madrid",
        "county": "Madrid",
        "municipalityId": "079",
        "countyId": "28"
      },
      "economicActivities": [
        {
          "id": "1.844",
          "name": "Servicios de publicidad, relaciones públicas y similares",
          "_links": {
            "self": {
              "name": "Servicios de publicidad, relaciones públicas y similares",
              "href": "https://api.euskadi.eus/procurements/companies/economic-activities/1.844"
            }
          }
        },
        {
          "id": "1.849.9",
          "name": "Otros servicios independientes n.c.o.p",
          "_links": {
            "self": {
              "name": "Otros servicios independientes n.c.o.p",
              "href": "https://api.euskadi.eus/procurements/companies/economic-activities/1.849.9"
            }
          }
        },
        {
          "id": "1.932.2",
          "name": "Enseñanza de formación y perfeccionamiento profesional superior",
          "_links": {
            "self": {
              "name": "Enseñanza de formación y perfeccionamiento profesional superior",
              "href": "https://api.euskadi.eus/procurements/companies/economic-activities/1.932.2"
            }
          }
        }
      ],
      "certificateStartDate": "2025-11-21",
      "certificateEndDate": "2026-05-21",
      "object": "1.- CONSULTORÍA, ASESORAMIENTO Y DESARROLLO DE PROYECTOS EN MATERIAS DE GESTIÓN, CREATIVIDAD, MARKETING, IMAGEN, PUBLICIDAD Y COMUNICACIÓN EN TODAS SUS FACETAS PARA ENTIDADES PÚBLICAS Y PRIVADAS. CNAE 70.22 OTRAS ACTIVIDADES DE CONSULTORÍA DE GESTIÓN EMPRESARIAL. 2.- ASESORAMIENTO, EJECUCIÓN Y SUPERVISIÓN DE CAMPAÑAS DE MARKETING Y PUBLICIDAD EN CUALQUIER MEDIO DE COMUNICACIÓN Y SOPORTE PUBLICITARIO. CNAE 73.11 AGENCIAS DE PUBLICIDAD. 3.- DECORACIÓN DE INTERIORES, DISEÑO GRÁFICO Y DISEÑO INDUSTRIAL. CNAE 74.10 ACTIVIDADES DE DISEÑO ESPECIALIZADO. 4.- FORMACIÓN SUPERIOR, DE POSTGRADO, CONTINUA, RECICLAJE PROFESIONAL Y OCUPACIONAL EN EL ÁMBITO DEL MARKETING DIGITAL, INNOVACIÓN, CREATIVIDAD, DESARROLLO DEL TALENTO, PRODUCTIVIDAD, BRANDING, TECNOLOGÍA, DISEÑO, PROGRAMACIÓN Y COMUNICACIÓN. CNAE 85.59 OTRA EDUCACIÓN.",
      "mainEntityOfPage": "https://www.contratacion.euskadi.eus/webkpe00-kperoc/es/ac71aBusquedaRegistrosWar/empresa/10226",
      "_links": {
        "self": {
          "name": "INNUBA SOCIAL INNOVATION, S.L.",
          "href": "https://api.euskadi.eus/procurements/companies/10226"
        }
      }
    },
    {
      "name": "CONSTRUCCIONES JOMETON S.L.",
      "registrationNumber": "06176",
      "identificationNumber": "B09338492",
      "address": "C/ CID Nº 22 - BAJO",
      "location": {
        "postalCode": "09200",
        "municipality": "Miranda de Ebro",
        "county": "Burgos",
        "municipalityId": "219",
        "countyId": "09"
      },
      "economicActivities": [
        {
          "id": "1.501.1",
          "name": "Construcción completa, reparación y conservación de edificaciones",
          "_links": {
            "self": {
              "name": "Construcción completa, reparación y conservación de edificaciones",
              "href": "https://api.euskadi.eus/procurements/companies/economic-activities/1.501.1"
            }
          }
        }
      ],
      "certificateStartDate": "2025-11-21",
      "certificateEndDate": "2026-05-17",
      "object": " LA CONSTRUCCIÓN DE OBRAS EN GENERAL Y REPARACIÓN DE EDIFICIOS Y LOCALES\n",
      "mainEntityOfPage": "https://www.contratacion.euskadi.eus/webkpe00-kperoc/es/ac71aBusquedaRegistrosWar/empresa/06176",
      "_links": {
        "self": {
          "name": "CONSTRUCCIONES JOMETON S.L.",
          "href": "https://api.euskadi.eus/procurements/companies/06176"
        }
      }
    },
    {
      "name": "EPTISA-CINSA INGENIERÍA Y CALIDAD, S.A.",
      "registrationNumber": "00639",
      "identificationNumber": "A48402267",
      "address": "AVENIDA IPARRAGUIRRE, 82 ",
      "location": {
        "postalCode": "48940",
        "municipality": "Leioa",
        "county": "Bizkaia",
        "municipalityId": "054",
        "countyId": "48"
      },
      "economicActivities": [
        {
          "id": "1.843.1",
          "name": "Servicios técnicos de ingeniería",
          "_links": {
            "self": {
              "name": "Servicios técnicos de ingeniería",
              "href": "https://api.euskadi.eus/procurements/companies/economic-activities/1.843.1"
            }
          }
        }
      ],
      "certificateStartDate": "2025-11-21",
      "certificateEndDate": "2026-05-15",
      "object": "LA REALIZACIÓN DE SERVICIOS Y TRABAJOS DE CONSULTORÍA EN EL CAMPO DE LA DIRECCIÓN DE EMPRESAS EN CUALQUIERA DE SUS ÁREAS O ACTIVIDADES, DE ESTUDIOS MACRO Y MICROECONÓMICOS, TANTO PARA EMPRESAS, SECTORES O AGRUPACIONES EMPRESARIALES Y DEL SECTOR PÚBLICO, ASÍ COMO DE LA ADMINISTRACIÓN DEL ESTADO, COMUNIDADES AUTÓNOMAS, COMUNIDADES EUROPEAS, DIPUTACIONES DE RÉGIMEN COMÚN Y FORAL, AYUNTAMIENTOS O CUALQUIER OTRO ORGANISMO, DE ESTUDIOS Y APLICACIONES DE CUALQUIER ÍNDOLE RELACIONADAS CON EL ÁMBITO EMPRESARIAL Y/O SECTORIAL Y/O DE LA ADMINISTRACIÓN DEL ESTADO, COMUNIDADES AUTÓNOMAS, COMUNIDADES EUROPEAS, DIPUTACIONES DE RÉGIMEN COMÚN FORAL, AYUNTAMIENTO O CUALQUIER OTRO ORGANISMO. LA REALIZACIÓN Y DESARROLLO DE TRABAJOS Y SERVICIOS DE INGENIERÍA, ARQUITECTURA, ORDENACIÓN DEL TERRITORIO Y URBANISMO RELACIONADOS CON LA CONSTRUCCIÓN Y COORDINACIÓN, INCLUIDOS EL CONTROL Y DIRECCIÓN DE OBRA, GESTIÓN DE CONSTRUCCIÓN, PROYECTOS, ESTUDIOS, INFORMES, VALORACIONES, ANTEPROYECTOS, INCLUIDOS LOS DE CONSULTORÍA Y ASESORAMIENTO TÉCNICO EN LAS DIFERENTES ESPECIALIDADES DE LA INGENIERÍA. LA REALIZACIÓN DE ESTUDIOS ECONÓMICOS Y FINANCIEROS, ASÍ COMO EL ASESORAMIENTO PROFESIONAL DE TODO TIPO DE SECTORES Y EMPRESAS, TANTO FÍSICAS COMO JURÍDICAS. LA PROMOCIÓN Y DESARROLLO DE EMPRESAS COMERCIALES, INDUSTRIALES Y DE SERVICIOS. LA REALIZACIÓN DE TRABAJOS Y SERVICIOS DE INFORMÁTICA CON CUALQUIER DESTINO. TODA ACTIVIDAD DE MEDIACIÓN, PROMOCIÓN, GESTIÓN Y DIRECCIÓN DE OBRAS, CONTRATOS Y SUMINISTROS. DESEMPEÑO DE COMISIONES O REPRESENTACIONES TANTO EN ESPAÑA COMO EN EL EXTRANJERO ",
      "mainEntityOfPage": "https://www.contratacion.euskadi.eus/webkpe00-kperoc/es/ac71aBusquedaRegistrosWar/empresa/00639",
      "_links": {
        "self": {
          "name": "EPTISA-CINSA INGENIERÍA Y CALIDAD, S.A.",
          "href": "https://api.euskadi.eus/procurements/companies/00639"
        }
      }
    },
    {
      "name": "A-2 ALQUILER AUDIOVISUAL, S.L.",
      "registrationNumber": "09149",
      "identificationNumber": "B95801361",
      "address": "Astintze 6 C1 Nave 43",
      "location": {
        "postalCode": "48160",
        "municipality": "Derio",
        "county": "Bizkaia",
        "municipalityId": "901",
        "countyId": "48"
      },
      "economicActivities": [
        {
          "id": "1.849.7",
          "name": "Servicios de gestión administrativa",
          "_links": {
            "self": {
              "name": "Servicios de gestión administrativa",
              "href": "https://api.euskadi.eus/procurements/companies/economic-activities/1.849.7"
            }
          }
        },
        {
          "id": "1.856.1",
          "name": "Alquiler de bienes de consumo",
          "_links": {
            "self": {
              "name": "Alquiler de bienes de consumo",
              "href": "https://api.euskadi.eus/procurements/companies/economic-activities/1.856.1"
            }
          }
        }
      ],
      "certificateStartDate": "2025-11-21",
      "certificateEndDate": "2026-04-08",
      "object": "EL ALQUILER DE MATERIAL AUDIOVISUAL. CENAE 7739.",
      "mainEntityOfPage": "https://www.contratacion.euskadi.eus/webkpe00-kperoc/es/ac71aBusquedaRegistrosWar/empresa/09149",
      "_links": {
        "self": {
          "name": "A-2 ALQUILER AUDIOVISUAL, S.L.",
          "href": "https://api.euskadi.eus/procurements/companies/09149"
        }
      }
    },
    {
      "name": "MAITE PRADO MEDIAVILLA",
      "registrationNumber": "10440",
      "identificationNumber": "13142766Z",
      "address": "Pasaje Eulogio Serdan",
      "location": {
        "postalCode": "01012",
        "municipality": "Vitoria-Gasteiz",
        "county": "Araba/Álava",
        "municipalityId": "059",
        "countyId": "01"
      },
      "economicActivities": [
        {
          "id": "1.933.9",
          "name": "Otras actividades de enseñanza tales como idiomas, mecanografía",
          "_links": {
            "self": {
              "name": "Otras actividades de enseñanza tales como idiomas, mecanografía",
              "href": "https://api.euskadi.eus/procurements/companies/economic-activities/1.933.9"
            }
          }
        },
        {
          "id": "2.774",
          "name": "Traductores e intérpretes",
          "_links": {
            "self": {
              "name": "Traductores e intérpretes",
              "href": "https://api.euskadi.eus/procurements/companies/economic-activities/2.774"
            }
          }
        }
      ],
      "certificateStartDate": "2025-11-21",
      "certificateEndDate": "2026-05-14",
      "object": "OTRAS ACTIVIDADES DE ENSEÑANZA TALES COMO IDIOMAS, MECANOGRAFÍA. TRADUCTORES E INTÉRPRETES.",
      "mainEntityOfPage": "https://www.contratacion.euskadi.eus/webkpe00-kperoc/es/ac71aBusquedaRegistrosWar/empresa/10440",
      "_links": {
        "self": {
          "name": "MAITE PRADO MEDIAVILLA",
          "href": "https://api.euskadi.eus/procurements/companies/10440"
        }
      }
    },
    {
      "name": "LAMIKIZ ABOGADOS SCP",
      "registrationNumber": "05980",
      "identificationNumber": "J95887436",
      "address": "Gran Vía Diego Lopez de Haro 36-1º",
      "location": {
        "postalCode": "48009",
        "municipality": "Bilbao",
        "county": "Bizkaia",
        "municipalityId": "020",
        "countyId": "48"
      },
      "economicActivities": [
        {
          "id": "1.841",
          "name": "Servicios jurídicos",
          "_links": {
            "self": {
              "name": "Servicios jurídicos",
              "href": "https://api.euskadi.eus/procurements/companies/economic-activities/1.841"
            }
          }
        }
      ],
      "certificateStartDate": "2025-11-21",
      "certificateEndDate": "2026-05-13",
      "object": "LAS ACTIVIDADES PROPIAS DEL EJERCICIO DE LA ABOGACÍA",
      "mainEntityOfPage": "https://www.contratacion.euskadi.eus/webkpe00-kperoc/es/ac71aBusquedaRegistrosWar/empresa/05980",
      "_links": {
        "self": {
          "name": "LAMIKIZ ABOGADOS SCP",
          "href": "https://api.euskadi.eus/procurements/companies/05980"
        }
      }
    },
    {
      "name": "ONDO ASCENSORES, S.L.",
      "registrationNumber": "09360",
      "identificationNumber": "B95894564",
      "address": "POL IND UGARTE Bº BARRONDO PAB C18",
      "location": {
        "postalCode": "48480",
        "municipality": "Zaratamo",
        "county": "Bizkaia",
        "municipalityId": "097",
        "countyId": "48"
      },
      "economicActivities": [
        {
          "id": "1.504.6",
          "name": "Montaje e instalación de aparatos elevadores de cualquier clase",
          "_links": {
            "self": {
              "name": "Montaje e instalación de aparatos elevadores de cualquier clase",
              "href": "https://api.euskadi.eus/procurements/companies/economic-activities/1.504.6"
            }
          }
        }
      ],
      "certificateStartDate": "2025-11-21",
      "certificateEndDate": "2026-05-17",
      "object": "LA PRESTACIÓN DE CUALQUIER TIPO DE SERVICIOS RELACIONADOS CON EL MANTENIMIENTO, CONSERVACIÓN, REPARACIÓN, INSTALACIÓN, ASÍ COMO DE CUALQUIER OBRA AUXILIAR, INCLUIDA OBRA CIVIL, EN APARATOS DE ELEVACIÓN DE TODO TIPO. COMERCIO AL POR MENOR DE MATERIAL DE ELEVACIÓN.",
      "mainEntityOfPage": "https://www.contratacion.euskadi.eus/webkpe00-kperoc/es/ac71aBusquedaRegistrosWar/empresa/09360",
      "_links": {
        "self": {
          "name": "ONDO ASCENSORES, S.L.",
          "href": "https://api.euskadi.eus/procurements/companies/09360"
        }
      }
    },
    {
      "name": "ARI KIROL PROIEKTUAK, S.L.",
      "registrationNumber": "10439",
      "identificationNumber": "B22599278",
      "address": "Iturbide Kalea 11 2 DCHA",
      "location": {
        "postalCode": "20810",
        "municipality": "Orio",
        "county": "Gipuzkoa",
        "municipalityId": "061",
        "countyId": "20"
      },
      "economicActivities": [
        {
          "id": "3.049",
          "name": "Otras actividades relacionadas con el deporte n.c.o.p",
          "_links": {
            "self": {
              "name": "Otras actividades relacionadas con el deporte n.c.o.p",
              "href": "https://api.euskadi.eus/procurements/companies/economic-activities/3.049"
            }
          }
        }
      ],
      "certificateStartDate": "2025-11-21",
      "certificateEndDate": "2026-05-21",
      "object": "LAS ACTIVIDADES DEPORTIVAS; LA GESTIÓN Y ORGANIZACIÓN DE EVENTOS DEPORTIVOS; LA CONSULTORÍA Y ASESORAMIENTO A ENTIDADES DEPORTIVA Y LA GESTIÓN DE INSTALACIONES DEPORTIVAS.",
      "mainEntityOfPage": "https://www.contratacion.euskadi.eus/webkpe00-kperoc/es/ac71aBusquedaRegistrosWar/empresa/10439",
      "_links": {
        "self": {
          "name": "ARI KIROL PROIEKTUAK, S.L.",
          "href": "https://api.euskadi.eus/procurements/companies/10439"
        }
      }
    },
    {
      "name": "ERROTA AZPIEGITURAK ETA PRODUKZIOAK, S.L.",
      "registrationNumber": "06606",
      "identificationNumber": "B95949889",
      "address": "GR. IBAI-ONDO, 5 - 1º IZQ",
      "location": {
        "postalCode": "48277",
        "municipality": "Etxebarria",
        "county": "Bizkaia",
        "municipalityId": "030",
        "countyId": "48"
      },
      "economicActivities": [
        {
          "id": "1.859",
          "name": "Alquiler de otros bienes muebles n.c.o.p. (sin personal permanente)",
          "_links": {
            "self": {
              "name": "Alquiler de otros bienes muebles n.c.o.p. (sin personal permanente)",
              "href": "https://api.euskadi.eus/procurements/companies/economic-activities/1.859"
            }
          }
        },
        {
          "id": "1.965.2",
          "name": "Espectáculos al aire libre (excepto los taurinos)",
          "_links": {
            "self": {
              "name": "Espectáculos al aire libre (excepto los taurinos)",
              "href": "https://api.euskadi.eus/procurements/companies/economic-activities/1.965.2"
            }
          }
        }
      ],
      "certificateStartDate": "2025-11-21",
      "certificateEndDate": "2026-05-17",
      "object": "LA PRODUCCIÓN, ORGANIZACIÓN, MONTAJE E INSTALACIÓN DE CONCIERTOS, CONGRESOS, CONVENCIONES, ASAMBLEAS, ESPECTÁCULOS, GABINETES DE PRENSA, FERIAS, VERBENAS, REPRESENTACIONES, ACTOS PÚBLICOS, PARQUES INFANTILES E INFRAESTRUCTURAS TALES COMO CARPAS, ESCENARIOS, TARIMAS Y BAÑOS PORTÁTILES. LA ELABORACIÓN DE CAMPAÑAS DE IMAGEN DE PERSONAS, OBJETOS, BIENES Y DISEÑOS, PARA SU PROMOCIÓN PÚBLICA Y PRIVADA. LA CONTRATACIÓN DE ARTISTAS Y LA PRESTACIÓN DE SERVICIOS A TODA CLASE DE PERSONAS Y EMPRESAS RELACIONADAS CON EL OCIO, LA CULTURA Y EL TIEMPO LIBRE\r\n",
      "mainEntityOfPage": "https://www.contratacion.euskadi.eus/webkpe00-kperoc/es/ac71aBusquedaRegistrosWar/empresa/06606",
      "_links": {
        "self": {
          "name": "ERROTA AZPIEGITURAK ETA PRODUKZIOAK, S.L.",
          "href": "https://api.euskadi.eus/procurements/companies/06606"
        }
      }
    }
  ]
}