{
  "totalItems": 9042,
  "totalPages": 905,
  "currentPage": 612,
  "itemsOfPage": 10,
  "items": [
    {
      "name": "JOSÉ MARÍA ALONSO ARBURU",
      "registrationNumber": "06217",
      "identificationNumber": "15237161Y",
      "address": "LOPE DE IRIGOYEN, 8 - BAJO",
      "location": {
        "postalCode": "20301",
        "municipality": "Irun",
        "county": "Gipuzkoa",
        "municipalityId": "045",
        "countyId": "20"
      },
      "economicActivities": [
        {
          "id": "2.411",
          "name": "Arquitectos",
          "_links": {
            "self": {
              "name": "Arquitectos",
              "href": "https://api.euskadi.eus/procurements/companies/economic-activities/2.411"
            }
          }
        }
      ],
      "certificateStartDate": "2019-05-03",
      "certificateEndDate": "2019-08-16",
      "object": "ARQUITECTO",
      "mainEntityOfPage": "https://www.contratacion.euskadi.eus/webkpe00-kperoc/es/ac71aBusquedaRegistrosWar/empresa/06217",
      "_links": {
        "self": {
          "name": "JOSÉ MARÍA ALONSO ARBURU",
          "href": "https://api.euskadi.eus/procurements/companies/06217"
        }
      }
    },
    {
      "name": "PABLO AGUIRREGOMEZCORTA MATA",
      "registrationNumber": "06218",
      "identificationNumber": "16298806V",
      "address": "CALLE LARRAGANA Nº3",
      "location": {
        "postalCode": "01013",
        "municipality": "Vitoria-Gasteiz",
        "county": "Araba/Álava",
        "municipalityId": "059",
        "countyId": "01"
      },
      "economicActivities": [
        {
          "id": "1.616.6",
          "name": "Venta al por mayor de productos químicos industriales",
          "_links": {
            "self": {
              "name": "Venta al por mayor de productos químicos industriales",
              "href": "https://api.euskadi.eus/procurements/companies/economic-activities/1.616.6"
            }
          }
        }
      ],
      "certificateStartDate": "2019-05-03",
      "certificateEndDate": "2019-07-30",
      "object": "VENTA AL POR MAYOR DE PRODUCTOS QUÍMICOS INDUSTRIALES",
      "mainEntityOfPage": "https://www.contratacion.euskadi.eus/webkpe00-kperoc/es/ac71aBusquedaRegistrosWar/empresa/06218",
      "_links": {
        "self": {
          "name": "PABLO AGUIRREGOMEZCORTA MATA",
          "href": "https://api.euskadi.eus/procurements/companies/06218"
        }
      }
    },
    {
      "name": "AURTENETXEA S.A.",
      "registrationNumber": "06219",
      "identificationNumber": "A48245849",
      "address": "TXORIERRI 46 POLIGONO BERRETEAGA",
      "location": {
        "postalCode": "48150",
        "municipality": "Sondika",
        "county": "Bizkaia",
        "municipalityId": "904",
        "countyId": "48"
      },
      "economicActivities": [
        {
          "id": "1.617.5",
          "name": "Venta al por mayor de maquinaria para la madera y el metal",
          "_links": {
            "self": {
              "name": "Venta al por mayor de maquinaria para la madera y el metal",
              "href": "https://api.euskadi.eus/procurements/companies/economic-activities/1.617.5"
            }
          }
        }
      ],
      "certificateStartDate": "2019-05-03",
      "certificateEndDate": "2019-09-08",
      "object": "LA COMPRA, VENTA, IMPORTACIÓN, EXPORTACIÓN Y COMERCIALIZACIÓN, DE TODA CLASE DE HERRAMIENTAS, MAQUINARIA Y SUMINISTROS INDUSTRIALES, ASÍ COMO LA REALIZACIÓN DE TRABAJOS INDUSTRIALES, DE MONTAJE, FABRILES, NAVALES U OTROS SIMILARES",
      "mainEntityOfPage": "https://www.contratacion.euskadi.eus/webkpe00-kperoc/es/ac71aBusquedaRegistrosWar/empresa/06219",
      "_links": {
        "self": {
          "name": "AURTENETXEA S.A.",
          "href": "https://api.euskadi.eus/procurements/companies/06219"
        }
      }
    },
    {
      "name": "COMERCIAL DE INTERCOMUNICACIÓN Y ELECTRÓNICA, S.L.",
      "registrationNumber": "00268",
      "identificationNumber": "B48059257",
      "address": "C/ AURELIANO VALLE, 1- ENTREPLANTA ",
      "location": {
        "postalCode": "48010",
        "municipality": "Bilbao",
        "county": "Bizkaia",
        "municipalityId": "020",
        "countyId": "48"
      },
      "economicActivities": [
        {
          "id": "1.504.7",
          "name": "Instalaciones telefónicas, telegráficas, televisión, etc",
          "_links": {
            "self": {
              "name": "Instalaciones telefónicas, telegráficas, televisión, etc",
              "href": "https://api.euskadi.eus/procurements/companies/economic-activities/1.504.7"
            }
          }
        },
        {
          "id": "1.615.4",
          "name": "Venta al por mayor de aparatos y material radioeléctrico y electrónico",
          "_links": {
            "self": {
              "name": "Venta al por mayor de aparatos y material radioeléctrico y electrónico",
              "href": "https://api.euskadi.eus/procurements/companies/economic-activities/1.615.4"
            }
          }
        }
      ],
      "certificateStartDate": "2019-05-02",
      "certificateEndDate": "2019-10-11",
      "object": "LA INSTALACIÓN DE TELEFONÍA Y ELECTRÓNICA INDUSTRIAL EN GENERAL, LA FABRICACIÓN, DESARROLLO, COMERCIALIZACIÓN, ASESORAMIENTO, MANTENIMIENTO Y PLANIFICACIÓN DE INSTALACIONES DE SEGURIDAD, APARATOS Y SISTEMAS DE SEGURIDAD, MEDIANTE LA INSTALACIÓN  Y MANTENIMIENTOS DE SISTEMAS FÍSICOS, ELECTRÓNICOS, VISUALES, ACÚSTICOS O INSTRUMENTALES DE VIGILANCIA Y PROTECCIÓN, Y ESPECIALMENTE, CON LA CONEXIÓN A CENTROS DE RECEPCIÓN DE ALARMAS",
      "mainEntityOfPage": "https://www.contratacion.euskadi.eus/webkpe00-kperoc/es/ac71aBusquedaRegistrosWar/empresa/00268",
      "_links": {
        "self": {
          "name": "COMERCIAL DE INTERCOMUNICACIÓN Y ELECTRÓNICA, S.L.",
          "href": "https://api.euskadi.eus/procurements/companies/00268"
        }
      }
    },
    {
      "name": "IBÉRICA DE MANTENIMIENTO, S.A.",
      "registrationNumber": "02087",
      "identificationNumber": "A50158997",
      "address": "AVENIDA DIAGONAL PLAZA, Nº 14. NAVE 61",
      "location": {
        "postalCode": "50197",
        "municipality": "Zaragoza",
        "county": "Zaragoza",
        "municipalityId": "297",
        "countyId": "50"
      },
      "economicActivities": [
        {
          "id": "1.504.1",
          "name": "Instalaciones eléctricas en general",
          "_links": {
            "self": {
              "name": "Instalaciones eléctricas en general",
              "href": "https://api.euskadi.eus/procurements/companies/economic-activities/1.504.1"
            }
          }
        }
      ],
      "certificateStartDate": "2019-05-02",
      "certificateEndDate": "2019-10-30",
      "object": "A) CALIBRACIÓN DE EQUIPOS ELECTROMÉDICOS, SERVICIOS RELACIONADOS CON LA REPARACIÓN, MANTENIMIENTO Y CALIBRACIÓN DE EQUIPOS DE MEDIDA DE CUALQUIER MAGNITUD SEAN DE TECNOLOGÍA ELECTRÓNICA DIGITAL O DE CUALQUIER OTRO TIPO DE CUALQUIER FABRICANTE.\r\nB) REPARACIÓN DE INSTRUMENTOS DE PESAJE NO AUTOMÁTICOS, ASÍ COMO DE CUALQUIER OTRO TIPO DE INSTRUMENTO SUJETO A CONTROL METROLÓGICO. \r\nC) MANTENIMIENTO, REPARACIÓN Y REVISIÓN PREVIA A LA INSPECCIÓN REGLAMENTARIA DE LOS APARATOS PARA LA EXPOSICIÓN DE LA PIEL A RADIACIONES ULTRAVIOLETAS EN LOS CENTROS DE ESTÉTICA Y BRONCEADO. \r\nD) LA REALIZACIÓN DE ESTUDIOS, PROYECTOS, EJECUCIÓN Y MANTENIMIENTO DE TODO TIPO DE INSTALACIONES, YA SEAN AUTÓNOMAS O EN EDIFICACIONES Y EN OBRAS CIVILES,\r\nCUALQUIERA QUE SEA SU USO, PÚBLICAS O PRIVADAS, CIVILES O MILITARES Y EN CONCRETO, A TÍTULO MERAMENTE ENUNCIATIVO Y NO LIMITATIVO, LAS SIGUIENTES: \r\n- ACONDICIONAMIENTO POR AIRE, CALEFACCIÓN, INCLUSO DE FRÍO INDUSTRIAL. \r\n- FONTANERIA, TRATAMIENTO DE AGUAS. \r\n- MECÁNICAS. \r\n- ELÉCTRICAS DE BAJA Y MEDIA TENSIÓN ASÍ COMO DE ALTA TENSIÓN, SUBESTACIONES , ESTACIONES TRANSFORMADORAS, LÍNEAS DE DISTRIBUCIÓN DE ENERGÍA. \r\n- ELECTRÓNICAS. ELECTROMEDICINA (EQUIPOS MÉDICOS) \r\n- INFORMÁTICAS. \r\n- TELECOMUNICACIONES Y DESPLIEGUE DE INFRAESTRUCTURAS. \r\n- SISTEMAS DE SEÑALIZACIÓN ESTÁTICA Y DINÁMICA. \r\n- INSTALACIONES DE SEGURIDAD (CIRCUITO CERRADO DE TELEVISIÓN, ALARMA Y TELECONTROL). \r\n- SISTEMAS DE PROTECCIÓN CONTRA INCENDIOS. \r\n- MEGAFONÍA Y SISTEMAS EN EL CAMPO DE LA ACÚSTICA. \r\n- SISTEMAS Y SERVICIOS DE TRANSMISIÓN Y RECEPCIÓN DE IMAGEN, VOZ Y DATOS POR VÍA SATÉLITE, CABLE (COAXIAL Y FIBRA ÓPTICA) O TERRESTRE Y CUALQUIER OTRO MEDIO O TECNOLOGÍA QUE EN FUTURO PUEDA SURGIR. \r\n- TRATAMIENTO DE GASES.\r\nE) PRESTACIÓN DE SERVICIOS INFORMÁTICOS Y DE TELECOMUNICACIÓN, ASÍ COMO EL DESARROLLO DE PROGRAMAS DE ORDENADOR, EN PARTICULAR LA GESTIÓN INFORMÁTICA, INCLUYENDO ENTRE OTROS, LA VENTA, ALQUILER, INSTALACIÓN, PROGRAMACIÓN, GESTIÓN Y MANTENIMIENTO EN PROGRAMAS, EQUIPOS INFORMÁTICOS Y TELECOMUNICACIÓN. \r\nF) CONSULTORÍA Y ASESORAMIENTO CIENTÍFICO, TECNOLÓGICO, TÉCNICO Y ECONÓMICO, ESTRATEGIAS GLOBALES Y DE ORGANIZACIÓN, AUDITORÍAS Y EVALUACIÓN SOBRE RECURSOS, GESTIÓN, EXPLOTACIÓN Y RESULTADOS, GESTIÓN, ADMINISTRACIÓN Y COORDINACIÓN, IMPLANTACIÓN DE SISTEMAS DE GESTIÓN DE CALIDAD Y MEDIO AMBIENTE, PROTOCOLOS Y METODOLOGÍA SOBRE: ORGANIZACIONES E INSTITUCIONES SANITARIAS, TANTO PÚBLICAS COMO PRIVADAS;  HOSPITALES, CLÍNICAS Y CENTROS SANITARIOS BAJO CUALESQUIERA DE LAS FORMAS QUE PUEDAN ADOPTAR: FUNDACIONES, CONSORCIOS; COOPERATIVAS, ETC, Y DE LAS TITULARIDADES QUE TENGAN PÚBLICAS O PRIVADAS; LOS PROCESOS Y SERVICIOS DESARROLLADOS PARA  LOS ANTERIORES COMO ACTIVIDADES NECESARIAS Y COMPLEMENTARIAS PARA LA ASISTENCIA SANITARIA, BIEN SE REALICEN EN LOS PROPIOS CENTROS O DE FORMA EXTERNA O INDEPENDIENTE Y SE EJECUTEN POR PERSONAL PROPIO O POR TERCEROS, INCLUYENDO EN LOS MISMOS LOS SERVICIOS CENTRALES SIGUIENTES: - LABORATORIOS DE ANÁLISIS CLÍNICOS, ANATOMÍA PATOLÓGICA, BANCOS DE SANGRE, FARMACIA, DIAGNÓSTICO POR IMAGEN, ESTERILIZACIÓN, NUTRICIÓN, DOCUMENTACIÓN CLINICA. - LOGÍSTICA. COMPRAS, SUMINISTROS, ALMACENAJE, DISTRIBUCIÓN Y EN GENERAL TODOS LOS SERVICIOS DE ADMINISTRACIÓN. - INGENIERÍA, COMUNICACIONES, SISTEMAS DE INFORMACIÓN, SISTEMAS DE SEGURIDAD, MANTENIMIENTO DE EDIFICIOS, INSTALACIONES, EQUIPOS MÉDICOS, EQUIPAMIENTO CLÍNICO. - SERVICIOS DE HOSTELERÍA, LIMPIEZA, GESTIÓN DE RESIDUOS, JARDINERÍA, LAVANDERÍA Y LENCERÍA, RESTAURACIÓN COLECTIVA, VIGILANCIA Y GESTIÓN DEL CONFORT. \r\nG) GESTIÓN INTEGRAL DE EDIFICIOS E INSTALACIONES, CUALQUIERA QUE SEA SU USO, PRESTANDO SERVICIOS DE HOSTELERÍA, SEGURIDAD, LIMPIEZA, GESTIÓN DE RESIDUOS, HIGIENIZACIÓN Y JARDINERÍA. \r\nH) LA PRESTACIÓN A FAVOR DE CUALESQUIERA ENTIDADES PÚBLICAS O PRIVADAS DE SERVICIOS DE ESTUDIO, ASISTENCIA Y ASESORAMIENTO, ASISTENCIA TÉCNICA O COMERCIAL, ASESORAMIENTO ECONÓMICO-CONTABLE, CONSULTORÍA FINANCIERA, CON EXCLUSIÓN DE LAS ACTIVIDADES PROPIAS DE LA LEY DEL MERCADO DE VALORES, DE ORGANIZACIÓN, MARKETING, RECURSOS HUMANOS, COMUNICACIÓN, DE CONTROL Y GESTIÓN DE EMPRESAS Y EJECUCIÓN DE TRABAJOS ADMINISTRATIVOS, TÉCNICOS, JURÍDICOS, ORGANIZATIVOS, PUBLICITARIOS E INFORMÁTICOS (INCLUIDOS LOS DE DESARROLLO DE PROGRAMAS), EN LA GESTIÓN Y DESARROLLO DE CONTRATOS DE SERVICIOS CON TODO TIPO DE PROVEEDORES.\r\nI) ESTUDIOS, DISEÑO, PROYECTOS Y EVALUACIONES TÉCNICAS Y ECONÓMICAS SOBRE EDIFICIOS, LOCALES, ESPACIOS, INSTALACIONES, EQUIPOS TÉCNICOS Y CIENTÍFICOS, EQUIPAMIENTO CLÍNICO, TÉCNICO, LOGÍSTICO Y HOTELERO, NECESARIOS Y REQUERIDOS EN LOS ANTERIORES ÁMBITOS.\r\nJ) GESTIÓN INTEGRAL DE IMPORTACIÓN, EXPORTACIÓN, DISTRIBUCIÓN, VENTA DIRECTA O INDIRECTA, ADQUISICIÓN, ENAJENACIÓN, SUMINISTRO, EQUIPAMIENTO, FINANCIACIÓN, PUESTA A DISPOSICIÓN, INSTALACIÓN Y OBRAS QUE FUESEN NECESARIAS, PUESTA EN MARCHA Y RETIRADA, REVISIÓN, REPARACIÓN, MANTENIMIENTO, REPOSICIÓN, TRASLADO, ACTUALIZACIÓN Y RENOVACIÓN TECNOLÓGICA DE TODO EL EQUIPAMIENTO CLÍNICO ASISTENCIAL Y GENERAL, DE LOS EQUIPOS E INSTALACIONES PARA USO ELECTROMÉDICO Y DE TODO EL MOBILIARIO ASISTENCIAL QUE PUDIESE ENCONTRARSE DENTRO DE UN CENTRO SANITARIO; FORMACIÓN EN EL MANEJO DE LOS EQUIPOS INSTALADOS Y PARA LA CAPACITACIÓN DE NUEVAS HABILIDADES SOBRE EL EQUIPAMIENTO, INSTALACIONES Y MOBILIARIO AQUÍ REFERENCIADO, ASESORAMIENTO ADICIONAL SOBRE LA EVOLUCIÓN TÉCNICA DE LOS EQUIPOS Y LA ADAPTACIÓN A LAS NUEVAS PRESCRIPCIONES LEGALES. \r\nK) EL ESTUDIO, DISEÑO, DESARROLLO, COMPRAVENTA, COMERCIALIZACIÓN, DISTRIBUCIÓN, IMPORTACIÓN, EXPORTACIÓN, SERVICIO POSTVENTA Y ASISTENCIA TÉCNICA DE TODO TIPO DE COMPONENTES, PRODUCTOS, SISTEMAS Y EQUIPOS RELACIONADOS CON LAS ACTIVIDADES ANTERIORES, TANTO PROPIOS COMO DE OTRAS EMPRESAS. \r\nL) REALIZACIÓN DE ACTUACIONES GLOBALES E INTEGRADAS QUE, ADEMÁS DE LA FINANCIACIÓN DE INVERSIONES INMATERIALES, DE OBRAS O DE SUMINISTROS NECESARIOS PARA EL CUMPLIMIENTO DE DETERMINADOS OBJETIVOS DE SERVICIO PÚBLICO O RELACIONADOS CON ACTUACIONES DE INTERÉS GENERAL, COMPRENDA ALGUNA DE LAS SIGUIENTES PRESTACIONES: \r\n- LA CONSTRUCCIÓN, INSTALACIÓN O TRANSFORMACIÓN DE OBRAS, EQUIPOS, SISTEMAS, Y PRODUCTOS O BIENES COMPLEJOS, ASÍ COMO SU MANTENIMIENTO, ACTUALIZACIÓN O RENOVACIÓN, SU EXPLOTACIÓN O SU GESTIÓN. \r\n- LA GESTIÓN INTEGRAL DEL MANTENIMIENTO DE INSTALACIONES COMPLEJAS. \r\n- LA FABRICACIÓN DE BIENES Y LA PRESTACIÓN DE SERVICIOS QUE INCORPOREN TECNOLOGÍA ESPECÍFICAMENTE DESARROLLADA CON EL PROPÓSITO DE APORTAR SOLUCIONES MÁS AVANZADAS Y ECONÓMICAMENTE MÁS VENTAJOSAS QUE LAS EXISTENTES EN EL MERCADO.\r\n- OTRAS PRESTACIONES DE SERVICIOS LIGADAS AL DESARROLLO POR LA ADMINISTRACIÓN DEL SERVICIO PÚBLICO O ACTUACIÓN DE INTERÉS GENERAL QUE LE HAYA SIDO ENCOMENDADO. \r\nM) CONSTRUCCIÓN, REFORMA, REHABILITACIÓN Y MANTENIMIENTO INTEGRAL DE TODO TIPO DE INMUEBLES, EDIFICACIONES, OBRAS, PLANTAS E INSTALACIONES CUALQUIERA QUE SEA SU USO, INCLUSO INDUSTRIALES, HOSPITALARIAS, HOTELERAS, MILITARES. \r\nN) PRESTACIÓN DE SERVICIOS ENERGÉTICOS. GESTIÓN Y AUDITORÍA ENERGÉTICA, EJECUCIÓN Y APLICACIÓN DE SOLUCIONES PARA LA MEJORA DE LA EFICIENCIA ENERGÉTICA EN INSTALACIONES E INFRAESTRUCTURAS, INCLUSO LA COMPRA Y VENTA DE ENERGÍA. A TAL EFECTO SE HACE CONSTAR QUE SE CUMPLEN LAS EXIGENCIAS DE SEPARACIÓN DE ACTIVIDADES Y DE CUENTAS ESTABLECIDAS EN LOS ARTÍCULOS 12 Y 20 DE LA LEY 24/2013, DE 26 DE DICIEMBRE, DEL SECTOR ELÉCTRICO. \r\nO) TODAS LAS OPERACIONES RELACIONADAS CON LAS ANTERIORES Y CUALESQUIERA OTRAS, INDUSTRIALES O COMERCIALES, QUE SEAN PREPARATORIAS , CONEXAS, DERIVADAS, ACCESORIAS O COMPLEMENTARIAS QUE, DE MODO DIRECTO O INDIRECTO, SE RELACIONEN CON DICHO OBJETO. \r\nP) TODOS LOS ANTERIORES, SE PODRÁN REALIZAR DIRECTAMENTE O A TRAVÉS DE LA PARTICIPACIÓN EN OTRAS ENTIDADES CON IGUAL O SIMILAR OBJETO SOCIAL, YA SEA PÚBLICAS, PRIVADAS O MIXTAS, ESPAÑOLAS O EXTRANJERAS, DE FORMA CONTINUADA, O A TRAVÉS DE UTE O ENTIDADES DE IGUAL NATURALEZA. LAS ACTIVIDADES INTEGRANTES DEL OBJETO SOCIAL PODRÁN SER DESARROLLADAS POR LA SOCIEDAD TOTAL O PARCIALMENTE DE MODO INDIRECTO, MEDIANTE LA TITULARIDAD DE ACCIONES O DE PARTICIPACIONES EN SOCIEDADES CON OBJETO IDÉNTICO O ANÁLOGO.",
      "mainEntityOfPage": "https://www.contratacion.euskadi.eus/webkpe00-kperoc/es/ac71aBusquedaRegistrosWar/empresa/02087",
      "_links": {
        "self": {
          "name": "IBÉRICA DE MANTENIMIENTO, S.A.",
          "href": "https://api.euskadi.eus/procurements/companies/02087"
        }
      }
    },
    {
      "name": "INTERIORISMO MODULAR INTEGRAL S.L.",
      "registrationNumber": "06208",
      "identificationNumber": "B26321927",
      "address": "PI LA PORTALADA II CALLE PLANILLO 10",
      "location": {
        "postalCode": "26006",
        "municipality": "Logroño",
        "county": "Rioja, La",
        "municipalityId": "089",
        "countyId": "26"
      },
      "economicActivities": [
        {
          "id": "1.505.5",
          "name": "Carpintería y cerrajería",
          "_links": {
            "self": {
              "name": "Carpintería y cerrajería",
              "href": "https://api.euskadi.eus/procurements/companies/economic-activities/1.505.5"
            }
          }
        },
        {
          "id": "1.659.2",
          "name": "Venta al por menor de muebles de oficina y máquinas y equipos de oficina",
          "_links": {
            "self": {
              "name": "Venta al por menor de muebles de oficina y máquinas y equipos de oficina",
              "href": "https://api.euskadi.eus/procurements/companies/economic-activities/1.659.2"
            }
          }
        }
      ],
      "certificateStartDate": "2019-04-30",
      "certificateEndDate": "2019-09-11",
      "object": "REFORMA Y DECORACIÓN INTEGRAL DE ESPACIOS, OBRAS CIVILES, E INSTALACIONES. DECORACIÓN DE INTERIORES Y VENTA DE EQUIPAMIENTOS AUXILIARES. DISTRIBUCIÓN DE EQUIPAMIENTOS Y MATERIALES AFINES.",
      "mainEntityOfPage": "https://www.contratacion.euskadi.eus/webkpe00-kperoc/es/ac71aBusquedaRegistrosWar/empresa/06208",
      "_links": {
        "self": {
          "name": "INTERIORISMO MODULAR INTEGRAL S.L.",
          "href": "https://api.euskadi.eus/procurements/companies/06208"
        }
      }
    },
    {
      "name": "ARRETA PAGOETA SLL",
      "registrationNumber": "06212",
      "identificationNumber": "B20879045",
      "address": "Gozategi enparantza z/g",
      "location": {
        "postalCode": "20809",
        "municipality": "Aia",
        "county": "Gipuzkoa",
        "municipalityId": "016",
        "countyId": "20"
      },
      "economicActivities": [
        {
          "id": "1.849.9",
          "name": "Otros servicios independientes n.c.o.p",
          "_links": {
            "self": {
              "name": "Otros servicios independientes n.c.o.p",
              "href": "https://api.euskadi.eus/procurements/companies/economic-activities/1.849.9"
            }
          }
        },
        {
          "id": "1.934",
          "name": "Enseñanza fuera de establecimiento permanente",
          "_links": {
            "self": {
              "name": "Enseñanza fuera de establecimiento permanente",
              "href": "https://api.euskadi.eus/procurements/companies/economic-activities/1.934"
            }
          }
        }
      ],
      "certificateStartDate": "2019-04-30",
      "certificateEndDate": "2019-09-12",
      "object": "LA EDUCACIÓN NO REGLADA INCLUYENDO LA MEDIOAMBIENTAL EN SUS DISTINTAS VARIANTES DEL DISEÑO CURRICULAR BASE DE EDUCACIÓN INFANTIL, PRIMARIA, Y EDUCACIÓN SECUNDARIA OBLIGATORIA, ADEMÁS DE PODER REALIZAR ESTA LABOR CON COLECTIVOS DE DISTINTAS EDADES. CREACIÓN, ELABORACIÓN, DISEÑO Y EDICIÓN DE MATERIAL EDUCATIVO Y CULTURAL, TANTO IMPRESO COMO AUDIOVISUAL. CREACIÓN, DISEÑO Y GESTIÓN DE SERVICIOS TURÍSTICOS, ACTIVIDADES CULTURALES, Y SERVICIO DE GUÍAS TURÍSTICOS. GESTIÓN DE LOCALES, MUSEOS Y CENTROS DE INTERPRETACIÓN HISTÓRICOS, TURÍSTICOS Y DE NATURALEZA, ADEMÁS DE PODER DISEÑAR SUS  CONTENIDOS. GESTIÓN DE PRODUCTOS TURÍSTICOS Y TODO LO RELACIONADO CON EL TEMA. GESTIÓN, CREACIÓN Y DISEÑO DE ACTIVIDADES DE OCIO Y DEPORTE, INCLUSO DEPORTES DE AVENTURA",
      "mainEntityOfPage": "https://www.contratacion.euskadi.eus/webkpe00-kperoc/es/ac71aBusquedaRegistrosWar/empresa/06212",
      "_links": {
        "self": {
          "name": "ARRETA PAGOETA SLL",
          "href": "https://api.euskadi.eus/procurements/companies/06212"
        }
      }
    },
    {
      "name": "SCIENCE & INNOVATION LINK OFFICE, S.L.",
      "registrationNumber": "06201",
      "identificationNumber": "B86407319",
      "address": "Calle Velázquez, 24 - 4º derecha",
      "location": {
        "postalCode": "28001",
        "municipality": "Madrid",
        "county": "Madrid",
        "municipalityId": "079",
        "countyId": "28"
      },
      "economicActivities": [
        {
          "id": "1.843.9",
          "name": "Otros servicios técnicos n.c.o.p",
          "_links": {
            "self": {
              "name": "Otros servicios técnicos n.c.o.p",
              "href": "https://api.euskadi.eus/procurements/companies/economic-activities/1.843.9"
            }
          }
        }
      ],
      "certificateStartDate": "2019-04-25",
      "certificateEndDate": "2019-05-26",
      "object": "ASESORÍA ESTRATÉGICA Y FINANCIERA, CON ESPECIAL ÉNFASIS EN LOS ÁMBITOS CIENTÍFICO-TECNOLÓGICO, INTERNACIONALIZACIÓN DE EMPRESAS Y LANZAMIENTO DE NUEVOS PROYECTOS TECNOLÓGICOS. DISEÑO E IMPARTICIÓN DE CONFERENCIAS, ELABORACIÓN DE INFORMES Y ESTUDIOS RELACIONADOS CON EL ÁMBITO CIENTÍFICO-TECNOLÓGICO. BÚSQUEDA DE FINANCIACIÓN PARA PROYECTOS O EMPRESAS RELACIONADOS CON EL ÁMBITO CIENTÍFICO-TECNOLÓGICO; PROYECTOS, INSTITUCIONES (MECENAZGO) O EMPRESAS. BÚSQUEDA DE DIRECTIVOS RELACIONADOS CON EL SECTOR CIENTÍFICO-TECNOLÓGICO. LA GESTIÓN TEMPORAL DE EMPRESAS U ORGANIZACIONES",
      "mainEntityOfPage": "https://www.contratacion.euskadi.eus/webkpe00-kperoc/es/ac71aBusquedaRegistrosWar/empresa/06201",
      "_links": {
        "self": {
          "name": "SCIENCE & INNOVATION LINK OFFICE, S.L.",
          "href": "https://api.euskadi.eus/procurements/companies/06201"
        }
      }
    },
    {
      "name": "ERABILGARRI GESTION S.L.",
      "registrationNumber": "06203",
      "identificationNumber": "B95837480",
      "address": "C/ LAUBIDETA (MATIENA), 18 BJO.",
      "location": {
        "postalCode": "48220",
        "municipality": "Abadiño",
        "county": "Bizkaia",
        "municipalityId": "001",
        "countyId": "48"
      },
      "economicActivities": [
        {
          "id": "1.501.1",
          "name": "Construcción completa, reparación y conservación de edificaciones",
          "_links": {
            "self": {
              "name": "Construcción completa, reparación y conservación de edificaciones",
              "href": "https://api.euskadi.eus/procurements/companies/economic-activities/1.501.1"
            }
          }
        }
      ],
      "certificateStartDate": "2019-04-25",
      "certificateEndDate": "2019-06-18",
      "object": "A) LA REALIZACIÓN, DIRECCIÓN, CONSTRUCCIÓN, MONTAJE, ASESORAMIENTO, Y CONTROL DE SERVICIOS DE INGENIERIA CIVIL E INDUSTRIAL. B) LA REALIZACIÓN, DIRECCIÓN, CONSTRUCCIÓN, MONTAJE, ASESORAMIENTO, Y CONTROL DE SERVICIOS DE ARQUITECTURA Y SERVICIOS TÉCNICOS RELACIONADOS CON LA ARQUITECTURA. C) ASESORAMIENTO, GESTIONES Y TRAMITACIONES EN SUBVENCIONES Y CONCURSOS. D) LA INTERMEDIACIÓN EN LA COMPRA, VENTA O ARRENDAMIENTO DE TERRENOS, ASÍ COMO EN LA COMPRA, VENTA, CONSTRUCCIÓN O ARRENDAMIENTO DE INMUEBLES O PARTE DE INMUEBLES. E) LA TENENCIA, GESTIÓN, PROMOCIÓN, ARRENDAMIENTO Y EXPLOTACIÓN DE BIENES INMUEBLES, ASÍ COMO LA PRESTACIÓN DE TODO TIPO DE SERVICIOS INMOBILIARIOS. F) COMPRAVENTA DE SOLARES Y TERRENOS URBANOS O RÚSTICOS, ASÍ COMO EL ARRENDAMIENTO Y VENTA DE LOS MISMOS. G) ASESORAMIENTO, CONSULTORÍA Y GESTIÓN EN ASUNTOS TANTO MERCANTILES COMO URBANÍSTICOS TANTO EN ESPAÑA COMO EN EL EXTRANJERO TAN AMPLIO COMO RECONOZCA EL DERECHO",
      "mainEntityOfPage": "https://www.contratacion.euskadi.eus/webkpe00-kperoc/es/ac71aBusquedaRegistrosWar/empresa/06203",
      "_links": {
        "self": {
          "name": "ERABILGARRI GESTION S.L.",
          "href": "https://api.euskadi.eus/procurements/companies/06203"
        }
      }
    },
    {
      "name": "IBOR ORTOPEDIA Y MEDICINA S.L.",
      "registrationNumber": "06199",
      "identificationNumber": "B22154637",
      "address": "calle Zaragoza nº 9",
      "location": {
        "postalCode": "22002",
        "municipality": "Huesca",
        "county": "Huesca",
        "municipalityId": "125",
        "countyId": "22"
      },
      "economicActivities": [
        {
          "id": "1.619.2",
          "name": "Venta al por mayor de aparatos e instrumentos médicos, ortopédicos, ópticos",
          "_links": {
            "self": {
              "name": "Venta al por mayor de aparatos e instrumentos médicos, ortopédicos, ópticos",
              "href": "https://api.euskadi.eus/procurements/companies/economic-activities/1.619.2"
            }
          }
        }
      ],
      "certificateStartDate": "2019-04-24",
      "certificateEndDate": "2019-09-26",
      "object": "EL COMERCIO MAYOR Y MENOR DE APARATOS ORTOPÉDICOS Y MATERIAL DE USO MÉDICO Y HOSPITALARIO",
      "mainEntityOfPage": "https://www.contratacion.euskadi.eus/webkpe00-kperoc/es/ac71aBusquedaRegistrosWar/empresa/06199",
      "_links": {
        "self": {
          "name": "IBOR ORTOPEDIA Y MEDICINA S.L.",
          "href": "https://api.euskadi.eus/procurements/companies/06199"
        }
      }
    }
  ]
}