{
  "totalItems": 9042,
  "totalPages": 905,
  "currentPage": 665,
  "itemsOfPage": 10,
  "items": [
    {
      "name": "OSTEOMEDIC, S.L.",
      "registrationNumber": "02876",
      "identificationNumber": "B95256897",
      "address": "EGAÑA, 17 - 4º -DPTO. 6",
      "location": {
        "postalCode": "48010",
        "municipality": "Bilbao",
        "county": "Bizkaia",
        "municipalityId": "020",
        "countyId": "48"
      },
      "economicActivities": [
        {
          "id": "1.619.2",
          "name": "Venta al por mayor de aparatos e instrumentos médicos, ortopédicos, ópticos",
          "_links": {
            "self": {
              "name": "Venta al por mayor de aparatos e instrumentos médicos, ortopédicos, ópticos",
              "href": "https://api.euskadi.eus/procurements/companies/economic-activities/1.619.2"
            }
          }
        }
      ],
      "certificateStartDate": "2014-11-14",
      "certificateEndDate": "2015-04-22",
      "object": "LA VENTA Y COMERCIALIZACIÓN DE APARATOS CLÍNICOS QUIRÚRGICOS.\r\nLA IMPORTACIÓN, EXPORTACIÓN, COMERCIALIZACIÓN, MONTAJE, REPARACIÓN, PRUEBAS Y ESTUDIOS SOBRE TODO TIPO DE ELEMENTOS, APARATOS E INSTRUMENTAL MÉDICO Y ORTOPÉDICO",
      "mainEntityOfPage": "https://www.contratacion.euskadi.eus/webkpe00-kperoc/es/ac71aBusquedaRegistrosWar/empresa/02876",
      "_links": {
        "self": {
          "name": "OSTEOMEDIC, S.L.",
          "href": "https://api.euskadi.eus/procurements/companies/02876"
        }
      }
    },
    {
      "name": "HYGOLET IBERIA, S.L.",
      "registrationNumber": "02764",
      "identificationNumber": "B48450282",
      "address": "POL.IND. URAZANDI-PARCELA 1 NAVE 6",
      "location": {
        "postalCode": "48950",
        "municipality": "Erandio",
        "county": "Bizkaia",
        "municipalityId": "902",
        "countyId": "48"
      },
      "economicActivities": [
        {
          "id": "1.617.4",
          "name": "Venta al por mayor de materiales de construcción, vidrio y artículos instalación",
          "_links": {
            "self": {
              "name": "Venta al por mayor de materiales de construcción, vidrio y artículos instalación",
              "href": "https://api.euskadi.eus/procurements/companies/economic-activities/1.617.4"
            }
          }
        },
        {
          "id": "1.691.9",
          "name": "Reparación de otros bienes de consumo n.c.o.p",
          "_links": {
            "self": {
              "name": "Reparación de otros bienes de consumo n.c.o.p",
              "href": "https://api.euskadi.eus/procurements/companies/economic-activities/1.691.9"
            }
          }
        },
        {
          "id": "1.861.2",
          "name": "Alquiler de locales industriales y otros alquileres n.c.o.p",
          "_links": {
            "self": {
              "name": "Alquiler de locales industriales y otros alquileres n.c.o.p",
              "href": "https://api.euskadi.eus/procurements/companies/economic-activities/1.861.2"
            }
          }
        }
      ],
      "certificateStartDate": "2014-11-13",
      "certificateEndDate": "2015-04-22",
      "object": "LA IMPORTACIÓN, DISTRIBUCIÓN Y COMERCIALIZACIÓN DE PRODUCTOS RELACIONADOS CON LA HIGIENE Y CON ARTÍCULOS SANITARIOS.\r\nLA PRESTACIÓN DE TODA CLASE DE SERVICIOS Y MANTENIMIENTOS DE TODO TIPO DE EQUIPOS E INSTALACIONES DE APARATOS SANITARIOS E HIGIÉNICOS",
      "mainEntityOfPage": "https://www.contratacion.euskadi.eus/webkpe00-kperoc/es/ac71aBusquedaRegistrosWar/empresa/02764",
      "_links": {
        "self": {
          "name": "HYGOLET IBERIA, S.L.",
          "href": "https://api.euskadi.eus/procurements/companies/02764"
        }
      }
    },
    {
      "name": "LIBCOM IBÉRICA, S.A.",
      "registrationNumber": "04407",
      "identificationNumber": "A28564490",
      "address": "CHILE 10, EDIF. MADRID 92, OF 247/248",
      "location": {
        "postalCode": "28290",
        "municipality": "Rozas de Madrid, Las",
        "county": "Madrid",
        "municipalityId": "127",
        "countyId": "28"
      },
      "economicActivities": [
        {
          "id": "1.613.4",
          "name": "Venta al por mayor de calzado, peletería, artículos de cuero, marroquinería",
          "_links": {
            "self": {
              "name": "Venta al por mayor de calzado, peletería, artículos de cuero, marroquinería",
              "href": "https://api.euskadi.eus/procurements/companies/economic-activities/1.613.4"
            }
          }
        },
        {
          "id": "1.618.1",
          "name": "Comerciales exportadoras",
          "_links": {
            "self": {
              "name": "Comerciales exportadoras",
              "href": "https://api.euskadi.eus/procurements/companies/economic-activities/1.618.1"
            }
          }
        }
      ],
      "certificateStartDate": "2014-11-06",
      "certificateEndDate": "2015-04-24",
      "object": "1.- PRESTAR EN EL ÁMBITO DE LOS SERVICIOS DE SALUD EN GENERAL, EN LOS SISTEMAS DE SALUD PÚBLICA Y PRIVADA, Y EN EL DE LAS ORGANIZACIONES E INFRAESTRUCTURAS MÉDICAS Y HOSPITALARIAS PÚBLICAS Y PRIVADAS:a) ASESORÍAS, CONSULTORÍAS, CAPACITACIÓN DEL PERSONAL Y ASISTENCIA TÉCNICA DE TODA ÍNDOLE ORGANIZATIVA, ADMINISTRATIVA, FINANCIERA, CONTABLE, COMERCIAL, TÉCNICA Y JURÍDICA. b) LA GESTIÓN INTEGRAL O PARCIAL POR CUENTA PROPIA O DE TERCEROS DE CENTROS DE PRESTACIÓN DE SERVICIOS SOCIALES, ASISTENCIALES Y MÉDICOS Y CLÍNICAS Y HOSPITALES EN TODOS SUS NIVELES DE ATENCIÓN. c) LA INGENIERÍA, ARQUITECTURA, CONSTRUCCIÓN Y PUESTA EN FUNCIONAMIENTO DE LOS ANTERIORES CENTROS, ASÍ COMO EL SUMINISTRO, LA INSTALACIÓN Y EL MANTENIMIENTO DE LOS EQUIPOS TÉCNICOS Y MÉDICOS, Y LA FABRICACIÓN, IMPORTACIÓN, DISTRIBUCIÓN Y EXPORTACIÓN DE TODO TIPO DE PRODUCTOS SANITARIOS (INCLUYENDO LOS DE DIAGNÓSTICO IN VITRO), DESINFECTANTES, ANTISÉPTICOS PARA PIEL INTACTA Y BIOCIDAS, MEDICAMENTOS, COSMÉTICOS, IMPLANTES ACTIVOS, ASÍ COMO MOBILIARIO Y EQUIPAMIENTO MÉDICO Y TODO CUALQUIER OTRO TIPO DE MATERIAL DE USO EN HOSPITALES Y CLÍNICAS. D) OPERACIONES DE ADQUISICIÓN, CESIÓN, TRANSFERENCIA DE TECNOLOGÍA Y KNOW-HOW.\r\n2.- LA COMERCIALIZACIÓN AL MAYOR Y AL MENOR, IMPORTACIÓN Y EXPORTACIÓN DE: \r\na) MAQUINARIA PARA LA INDUSTRIA DE AUTOMOCIÓN, ASÍ COMO LAS PIEZAS DE RECAMBIO, ÚTILES Y ACCESORIOS. b) PIEZAS DE RECAMBIO, ÚTILES, HERRAMIENTAS Y ACCESORIOS DE VEHÍCULOS AUTOMOTORES. c) MATERIALES PARA LA CONSTRUCCIÓN Y DECORACIÓN, TANTO ELABORADOS COMO EN MATERIAS PRIMAS. Y MÁS CONCRETAMENTE LOS UTILIZADOS EN CENTROS HOSPITALARIOS. d) TODA CLASE DE CONFECCIONES, ELABORADAS EN TODO TIPO DE MATERIALES, NATURALES Y SINTÉTICOS, ASÍ COMO LOS TEJIDOS SIN ELABORAR. e) PIELES CURTIDAS Y SIN CURTIR, ASÍ COMO PRENDAS DE VESTIR, ACCESORIOS DE CONFECCIÓN, MARROQUINERÍA, BOLSOS Y MALETAS, REALIZADAS CON ESTE MATERIAL. 3.- ASESORAMIENTO DE EMPRESAS: a) EN IMPORTACIÓN, EXPORTACIÓN Y COMERCIALIZACIÓN INTERNACIONAL. b) EN EL ÁREA COMERCIAL DE LA EMPRESA, COMERCIALIZACIÓN, DISTRIBUCIÓN Y ESTUDIOS DE MERCADO.\r\n4.- ASISTIR Y PARTICIPAR EN CONCURSOS CONVOCADOS POR ORGANISMOS Y ENTIDADES PÚBLICOS Y PRIVADOS TANTO NACIONALES COMO EXTRANJEROS, QUE TENGAN POR OBJETO LAS ANTERIORES ACTIVIDADES\r\n\r\n",
      "mainEntityOfPage": "https://www.contratacion.euskadi.eus/webkpe00-kperoc/es/ac71aBusquedaRegistrosWar/empresa/04407",
      "_links": {
        "self": {
          "name": "LIBCOM IBÉRICA, S.A.",
          "href": "https://api.euskadi.eus/procurements/companies/04407"
        }
      }
    },
    {
      "name": "KONFIA, SERVICIOS DE CONCILIACIÓN, S.L.",
      "registrationNumber": "04466",
      "identificationNumber": "B20949319",
      "address": "C/IÑIGO DE LOYOLA, 17-BAJO",
      "location": {
        "postalCode": "20160",
        "municipality": "Lasarte-Oria",
        "county": "Gipuzkoa",
        "municipalityId": "902",
        "countyId": "20"
      },
      "economicActivities": [
        {
          "id": "1.847",
          "name": "Servicios de consultoría",
          "_links": {
            "self": {
              "name": "Servicios de consultoría",
              "href": "https://api.euskadi.eus/procurements/companies/economic-activities/1.847"
            }
          }
        },
        {
          "id": "1.849.9",
          "name": "Otros servicios independientes n.c.o.p",
          "_links": {
            "self": {
              "name": "Otros servicios independientes n.c.o.p",
              "href": "https://api.euskadi.eus/procurements/companies/economic-activities/1.849.9"
            }
          }
        },
        {
          "id": "1.922.1",
          "name": "Servicios de limpieza de interiores",
          "_links": {
            "self": {
              "name": "Servicios de limpieza de interiores",
              "href": "https://api.euskadi.eus/procurements/companies/economic-activities/1.922.1"
            }
          }
        },
        {
          "id": "1.931.1",
          "name": "Guardería y enseñanza de educación infantil, exclusivamente",
          "_links": {
            "self": {
              "name": "Guardería y enseñanza de educación infantil, exclusivamente",
              "href": "https://api.euskadi.eus/procurements/companies/economic-activities/1.931.1"
            }
          }
        },
        {
          "id": "1.931.2",
          "name": "Enseñanza de educación general básica exclusivamente",
          "_links": {
            "self": {
              "name": "Enseñanza de educación general básica exclusivamente",
              "href": "https://api.euskadi.eus/procurements/companies/economic-activities/1.931.2"
            }
          }
        },
        {
          "id": "1.932.1",
          "name": "Enseñanza de formación y perfeccionamiento profesional no superior",
          "_links": {
            "self": {
              "name": "Enseñanza de formación y perfeccionamiento profesional no superior",
              "href": "https://api.euskadi.eus/procurements/companies/economic-activities/1.932.1"
            }
          }
        },
        {
          "id": "1.952",
          "name": "Asistencia y servicios sociales en centros no residenciales",
          "_links": {
            "self": {
              "name": "Asistencia y servicios sociales en centros no residenciales",
              "href": "https://api.euskadi.eus/procurements/companies/economic-activities/1.952"
            }
          }
        }
      ],
      "certificateStartDate": "2014-11-06",
      "certificateEndDate": "2015-03-22",
      "object": "GUARDERÍA INFANTIL Y SERVICIOS A LA INFANCIA. SERVICIOS DE ATENCIÓN DOMICILIARIA. ATENCIÓN A PERSONAS DE TERCERA EDAD Y DEPENDIENTES. FORMACIÓN. MANTENIMIENTO Y REPARACIÓN DE INMUEBLES EN GENERAL. TRABAJOS DE CONSULTORÍA EN EL ÁREA DE CONCILIACIÓN E IGUALDAD DE OPORTUNIDADES. SERVICIOS DE CONCILIACIÓN EN GENERAL. INSERCIÓN SOCIOLABORAL DE PERSONAS EN SITUACIÓN O RIESGO DE EXCLUSIÓN SOCIAL",
      "mainEntityOfPage": "https://www.contratacion.euskadi.eus/webkpe00-kperoc/es/ac71aBusquedaRegistrosWar/empresa/04466",
      "_links": {
        "self": {
          "name": "KONFIA, SERVICIOS DE CONCILIACIÓN, S.L.",
          "href": "https://api.euskadi.eus/procurements/companies/04466"
        }
      }
    },
    {
      "name": "CONSULTORIA AIZAK SL",
      "registrationNumber": "03852",
      "identificationNumber": "B01454172",
      "address": "JOSE MARDONES Nº 8 - 1º D",
      "location": {
        "postalCode": "01003",
        "municipality": "Vitoria-Gasteiz",
        "county": "Araba/Álava",
        "municipalityId": "059",
        "countyId": "01"
      },
      "economicActivities": [
        {
          "id": "1.847",
          "name": "Servicios de consultoría",
          "_links": {
            "self": {
              "name": "Servicios de consultoría",
              "href": "https://api.euskadi.eus/procurements/companies/economic-activities/1.847"
            }
          }
        }
      ],
      "certificateStartDate": "2014-10-30",
      "certificateEndDate": "2015-04-30",
      "object": "CONSULTORIA  Y ASESORIA SOBRE LA IGUALDAD ENTRE HOMBRES Y MUJERES. ORGANIZACIÓN DE ACTOS, CONFERENCIAS, CURSOS, SEMINARIOS CON LA FINALIDAD DE CONSEGUIR DICHA IGUALDAD. ESTUDIO Y MANTENIMIENTO DE PÁGINAS WEB (INTERNET) RELACIONADAS CON LA FEMINIDAD Y LA MASCULINIDAD",
      "mainEntityOfPage": "https://www.contratacion.euskadi.eus/webkpe00-kperoc/es/ac71aBusquedaRegistrosWar/empresa/03852",
      "_links": {
        "self": {
          "name": "CONSULTORIA AIZAK SL",
          "href": "https://api.euskadi.eus/procurements/companies/03852"
        }
      }
    },
    {
      "name": "ANA ISABEL BASTIDA VILDOSOLA",
      "registrationNumber": "05264",
      "identificationNumber": "15357535K",
      "address": "C/ Iturralde 1- Entreplanta",
      "location": {
        "postalCode": "01470",
        "municipality": "Amurrio",
        "county": "Araba/Álava",
        "municipalityId": "002",
        "countyId": "01"
      },
      "economicActivities": [
        {
          "id": "2.726",
          "name": "Graduados sociales",
          "_links": {
            "self": {
              "name": "Graduados sociales",
              "href": "https://api.euskadi.eus/procurements/companies/economic-activities/2.726"
            }
          }
        }
      ],
      "certificateStartDate": "2014-10-29",
      "certificateEndDate": "2015-04-07",
      "object": "LA PRESTACIÓN Y APOYO TÉCNICO A TODO TIPO DE EMPRESAS, BIEN SEAN PERSONALES, INDIVIDUALES, JURÍDICAS, PÚBLICAS Y PRIVADAS EN MATERIA LABORAL Y SOCIAL",
      "mainEntityOfPage": "https://www.contratacion.euskadi.eus/webkpe00-kperoc/es/ac71aBusquedaRegistrosWar/empresa/05264",
      "_links": {
        "self": {
          "name": "ANA ISABEL BASTIDA VILDOSOLA",
          "href": "https://api.euskadi.eus/procurements/companies/05264"
        }
      }
    },
    {
      "name": "ATOM, S.A.",
      "registrationNumber": "00391",
      "identificationNumber": "A08346017",
      "address": "Costa Brava, nº 30. Planta 6, puerta A",
      "location": {
        "postalCode": "08030",
        "municipality": "Barcelona",
        "county": "Barcelona",
        "municipalityId": "019",
        "countyId": "08"
      },
      "economicActivities": [
        {
          "id": "1.619.2",
          "name": "Venta al por mayor de aparatos e instrumentos médicos, ortopédicos, ópticos",
          "_links": {
            "self": {
              "name": "Venta al por mayor de aparatos e instrumentos médicos, ortopédicos, ópticos",
              "href": "https://api.euskadi.eus/procurements/companies/economic-activities/1.619.2"
            }
          }
        }
      ],
      "certificateStartDate": "2014-10-28",
      "certificateEndDate": "2015-04-02",
      "object": "COMERCIALIZACIÓN, FABRICACIÓN, MONTAJE, INTERMEDIACIÓN, DISTRIBUCIÓN, IMPORTACIÓN, EXPORTACIÓN, REPRESENTACIÓN Y ASISTENCIA TÉCNICA Y MATERIAL DE TODO TIPO DE UTENSILIOS, MAQUINARIA, MATERIALES Y PRODUCTOS PARA LABORATORIOS Y SIMILARES",
      "mainEntityOfPage": "https://www.contratacion.euskadi.eus/webkpe00-kperoc/es/ac71aBusquedaRegistrosWar/empresa/00391",
      "_links": {
        "self": {
          "name": "ATOM, S.A.",
          "href": "https://api.euskadi.eus/procurements/companies/00391"
        }
      }
    },
    {
      "name": "CONSULTORÍA TECNOLÓGICA PARA EL COMERCIO, S.L.",
      "registrationNumber": "01795",
      "identificationNumber": "B48677033",
      "address": "C/ José María Escurza, nº 1-3, 1º izda.",
      "location": {
        "postalCode": "48013",
        "municipality": "Bilbao",
        "county": "Bizkaia",
        "municipalityId": "020",
        "countyId": "48"
      },
      "economicActivities": [
        {
          "id": "1.845",
          "name": "Explotación electrónica por cuenta de terceros",
          "_links": {
            "self": {
              "name": "Explotación electrónica por cuenta de terceros",
              "href": "https://api.euskadi.eus/procurements/companies/economic-activities/1.845"
            }
          }
        },
        {
          "id": "1.932.1",
          "name": "Enseñanza de formación y perfeccionamiento profesional no superior",
          "_links": {
            "self": {
              "name": "Enseñanza de formación y perfeccionamiento profesional no superior",
              "href": "https://api.euskadi.eus/procurements/companies/economic-activities/1.932.1"
            }
          }
        },
        {
          "id": "1.932.2",
          "name": "Enseñanza de formación y perfeccionamiento profesional superior",
          "_links": {
            "self": {
              "name": "Enseñanza de formación y perfeccionamiento profesional superior",
              "href": "https://api.euskadi.eus/procurements/companies/economic-activities/1.932.2"
            }
          }
        },
        {
          "id": "1.934",
          "name": "Enseñanza fuera de establecimiento permanente",
          "_links": {
            "self": {
              "name": "Enseñanza fuera de establecimiento permanente",
              "href": "https://api.euskadi.eus/procurements/companies/economic-activities/1.934"
            }
          }
        }
      ],
      "certificateStartDate": "2014-10-28",
      "certificateEndDate": "2015-04-19",
      "object": "LA PRESTACIÓN DE SERVICIOS DE FORMACIÓN, CONSULTORÍA, INFORMACIÓN, ASESORAMIENTO SOBRE PROGRAMAS Y EQUIPOS INFORMÁTICOS E INFORMÁTICA DE EMPRESAS; EL SUMINISTRO, COMPRA, VENTA, ALMACENAMIENTO, DISTRIBUCIÓN, EXPLOTACIÓN, MANTENIMIENTO Y REPARACIÓN DE EQUIPOS Y PROGRAMAS INFORMÁTICOS Y EQUIPOS TECNOLÓGICOS, ASÍ COMO DE CUALQUIER MATERIAL O PRODUCTO RELACIONADO CON LA INFORMÁTICA O TECNOLOGÍA. LA GENERACIÓN Y COMERCIALIZACIÓN DE SOPORTES DIDÁCTICOS, DE COMUNICACIÓN Y DE DIFUSIÓN, Y DE PRODUCTOS Y SERVICIOS RELACIONADOS CON EL DESARROLLO DE LOS RECURSOS HUMANOS Y EL DESARROLLO CORPORATIVO. LA ELABORACIÓN DE ESTUDIOS ECONÓMICOS, FINANCIEROS, SOBRE EMPRESAS; ASÍ COMO LA PRESTACIÓN DE SERVICIOS DE ASESORAMIENTO SOBRE MATERIAS RELACIONADAS CON LA DIRECCIÓN, ADMINISTRACIÓN, PLANIFICACIÓN, CONTROL, CONTABILIDAD, TRIBUTACIÓN, REVISIÓN; LA ADMINISTRACIÓN Y GESTIÓN DE PATRIMONIOS",
      "mainEntityOfPage": "https://www.contratacion.euskadi.eus/webkpe00-kperoc/es/ac71aBusquedaRegistrosWar/empresa/01795",
      "_links": {
        "self": {
          "name": "CONSULTORÍA TECNOLÓGICA PARA EL COMERCIO, S.L.",
          "href": "https://api.euskadi.eus/procurements/companies/01795"
        }
      }
    },
    {
      "name": "MULTISERVICIOS JUMESO, S.L. UNIPERSONAL",
      "registrationNumber": "04814",
      "identificationNumber": "B01366954",
      "address": "C/ Errekatxiki, 12-Bajo",
      "location": {
        "postalCode": "01003",
        "municipality": "Vitoria-Gasteiz",
        "county": "Araba/Álava",
        "municipalityId": "059",
        "countyId": "01"
      },
      "economicActivities": [
        {
          "id": "1.501.1",
          "name": "Construcción completa, reparación y conservación de edificaciones",
          "_links": {
            "self": {
              "name": "Construcción completa, reparación y conservación de edificaciones",
              "href": "https://api.euskadi.eus/procurements/companies/economic-activities/1.501.1"
            }
          }
        },
        {
          "id": "1.504.2",
          "name": "Instalaciones de fontanería",
          "_links": {
            "self": {
              "name": "Instalaciones de fontanería",
              "href": "https://api.euskadi.eus/procurements/companies/economic-activities/1.504.2"
            }
          }
        },
        {
          "id": "1.653.1",
          "name": "Venta al por menor de muebles (excepto los de oficina)",
          "_links": {
            "self": {
              "name": "Venta al por menor de muebles (excepto los de oficina)",
              "href": "https://api.euskadi.eus/procurements/companies/economic-activities/1.653.1"
            }
          }
        },
        {
          "id": "1.653.4",
          "name": "Venta al por menor de material de construcción y mobiliario de saneamiento",
          "_links": {
            "self": {
              "name": "Venta al por menor de material de construcción y mobiliario de saneamiento",
              "href": "https://api.euskadi.eus/procurements/companies/economic-activities/1.653.4"
            }
          }
        }
      ],
      "certificateStartDate": "2014-10-20",
      "certificateEndDate": "2015-03-29",
      "object": "LA REALIZACIÓN DE TRABAJOS DE FONTANERÍA, ALBAÑILERÍA, PINTURA, COORDINACIÓN DE GREMIOS. LA PROMOCIÓN Y EJECUCIÓN DE TODA CLASE DE OBRAS DE CONSTRUCCIÓN, URBANIZACIÓN Y SERVICIOS, REPARACIÓN Y CONSERVACIÓN. LA EXPLOTACIÓN DE BIENES INMUEBLES, TANTO RÚSTICOS COMO URBANOS, ASÍ COMO LA PROMOCIÓN Y CONSTRUCCIÓN DE CUALQUIER TIPO DE EDIFICACIONES. LA COMPRAVENTA DE SOLARES URBANOS Y URBANIZABLES, DE FINCAS RÚSTICAS, EXPLOTACIONES AGRÍCOLAS, FORESTALES, GANADERAS, MINERAS E INDUSTRIALES. LA PARCELACIÓN, URBANIZACIÓN, CONSTRUCCIÓN TENENCIA, DISFRUTE, ADMINISTRACIÓN Y EXPLOTACIÓN DIRECTA O INDIRECTA, INCLUSO BAJO FORMA DE ARRENDAMIENTO, DE FINCAS RÚSTICAS Y URBANAS, ASÍ COMO LA COMERCIALIZACIÓN DE LOS PRODUCTOS PRODUCIDOS",
      "mainEntityOfPage": "https://www.contratacion.euskadi.eus/webkpe00-kperoc/es/ac71aBusquedaRegistrosWar/empresa/04814",
      "_links": {
        "self": {
          "name": "MULTISERVICIOS JUMESO, S.L. UNIPERSONAL",
          "href": "https://api.euskadi.eus/procurements/companies/04814"
        }
      }
    },
    {
      "name": "SERVIMAX SERVICIOS GENERALES, S.A.",
      "registrationNumber": "04367",
      "identificationNumber": "A79098851",
      "address": "PAJARITOS 24",
      "location": {
        "postalCode": "28007",
        "municipality": "Madrid",
        "county": "Madrid",
        "municipalityId": "079",
        "countyId": "28"
      },
      "economicActivities": [
        {
          "id": "1.849.9",
          "name": "Otros servicios independientes n.c.o.p",
          "_links": {
            "self": {
              "name": "Otros servicios independientes n.c.o.p",
              "href": "https://api.euskadi.eus/procurements/companies/economic-activities/1.849.9"
            }
          }
        }
      ],
      "certificateStartDate": "2014-10-16",
      "certificateEndDate": "2015-04-01",
      "object": "LA PRESTACIÓN Y DESARROLLO, A NIVEL NACIONAL E INTERNACIONAL, DE LOS SIGUIENTES SERVICIOS Y ACTIVIDADES: a) PRESTACIÓN DE SERVICIOS DE MENSAJERÍA, PAQUETERÍA, TRANSPORTE Y REPARTO DE MATERIALES, OBJETOS Y DOCUMENTACIÓN b) MANIPULACIÓN, REPARTO Y CUSTODIOA DE OBJETOS Y DOCUMENTACIÓN COMERCIAL Y CONTABLE. c) INSTALACIÓN Y MANTENIMIENTO DE EQUIPOS Y MAQUINARIA, Y LIMPIEZA DE LOCALES E INSTALACIONES. d) PRESTACIÓN DE SERVICIOS DE ASISTENCIA AUXILIAR EN CENTROS COMERCIALES, ORGANISMOS OFICIALES Y DEPENDENCIAS ADMINISTRATIVAS, INSTALACIONES DEPORTIVAS, MUSEOS, RECINTOS FERIALES, SALAS DE EXPOSICIONES, CONFERENCIAS Y CONGRESOS, HOSPITALES, CONVENCIONES, INAUGURACIONES, CENTROS CULTURALES Y DEPORTIVOS, EVENTOS DEPORTIVOS, SOCIALES Y CULTURALES, JUNTAS GENERALES DE ACCIONISTAS Y DE COMUNIDADES DE PROPIETARIOS, RECEPCIONES, RUEDAS DE PRENSA, CENTROS DOCENTES, RECINTOS DE RECREO Y DE ESPECTÁCULOS Y, EN GENERAL, EN TODA CLASE DE INMUEBLES, ESTABLECIMIENTOS Y EVENTOS, POR MEDIO DE CONSERJES, ORDENANZAS, BEDELES, UJIERES, CELADORES O CONTROLADORES, OPERADORES DE CONSOLA, PERSONAL DE SALA, PORTEROS, RECEPCIONISTAS, TAQUILLEROS (INCLUYENDO RECOGIDA DE ENTRADAS), TELEFONISTAS, ACOMODADORES, COBRADORES, CUIDADORES, SOCORRISTAS, AZAFATAS E IGUAL PERSONAL IDÓNEO. e) PRESTACIÓN DE SERVICIOS DE PUBLICIDAD DIRECTA, FRANQUEO Y CURSO POR CORREO DE IMPRESOS PUBLICITARIOS, PROPAGANDÍSTICOS Y, EN GENERAL, DE TODO TIPO DE DOCUMENTOS Y PAQUETES, POR CUENTA DE SUS CLIENTES. f) APERTURA , CIERRE Y CUSTODIA DE LLAVES. g) ENCENDIDO, APAGADO, REARME, MANEJO, SUPERVISIÓN, ENTRETENIMIENTO, MANTENIMIENTO, LIMPIEZA Y REPARACIÓN DE MOTORES E INSTALACIONES DE CALOR, FRÍO Y ELECTRICIDAD, ASCENSORES, CONDUCCIONES DE AGUA, GAS Y OTROS SUMINISTROS, FLUÍDOS O COMBUSTIBLES, SISTEMAS Y APARATOS DE PREVENCIÓN DE INCENDIOS, COMPRESORES E INSTALACIONES AUTOMÁTICAS. h) LECTURA DE CONTADORES DE TODO TIPO DE FLUÍDOS, SUMINISTROS O CONSUMIBLES; CORTE, MANTENIMIENTO, REPARACIÓN Y REPOSICIÓN DE LOS MISMOS, ESCUCHA Y TRANSCRIPCIÓN DE LECTURAS, INSPECCIÓN DE CONTADORES, TOMA Y ACTUALIZACIÓN DE DATOS, Y COLOCACIÓN DE AVISOS. i) EXPLOTACIÓN DE SISTEMAS DE COMUNICACIÓN RÁPIDA CON SERVICIOS PÚBLICOS ASISTENCIALES: POLICÍA, BOMBEROS, SERVICIOS DE URGENCIA, HOSPITALES Y CENTROS MÉDICOS. j) SERVICIOS DE PREVENCIÓN Y LUCHA CONTRA INCENDIOS EN GENERAL EN MONTES, BOSQUES, FINCAS RÚSTICAS, VIVIENDAS E INSTALACIONES INDUSTRIALES Y URBANAS. k) CONTROL DE CALIDAD DE SERVICIOS O PRODUCTOS.l) COBROS Y CUADRE DE CAJA; CONFECCIÓN, RECOGIDA  Y COBRO DE EFECTOS Y/O RECIBOS; GESTIÓN DE COBROS Y RECAUDACIÓN EJECUTIVA. m) CARGA, DESCARGA, ESTIBA Y DESESTIBA, TRANSPORTE, DISTRIBUCIÓN, COLOCACIÓN, CLASIFICACIÓN, CONTROL DE ALMACÉN, PREPARACIÓN DE INVENTARIOS, REPOSICIÓN, CONTROL DE EXISTENCIAS EN ALMACENES Y ALMACENAMIENTO DE TODO TIPO DE MERCANCÍAS. n) CONDUCCIÓN DE VEHÍCULOS PROPIOS O AJENOS PARA EL TRANSPORTE DE PERSONAS O MERCANCÍAS. ñ) CONTROL Y VIGILANCIA DE EXÁMENES O PRUEBAS DE APTITUD, ASÍ COMO SERVICIOS AUXILIARES RELACIONADOS CON LA ENSEÑANZA. o) SERVICIOS DE APOYO EN PROCESOS COMERCIALES O INDUSTRIALES EN CUALQUIERA DE SUS FASES. p) ATENCIÓN, REPOSICIÓN Y MANTENIMIENTO DE EQUIPOS, MAQUINARIA Y DISPENSADORES. q) PRESTACIÓN, TANTO A PERSONAS FÍSICAS COMO JURÍDICAS, DE SERVICIOS DE ASISTENCIA TÉCNICA Y/O COMERCIAL, ADMINISTRATIVOS, INFORMÁTICOS, DE ASESORÍA CONTABLE, FINANCIERA, FISCAL, LABORAL Y JURÍDICA; SERVICIOS DE CONSULTORÍA Y GESTIÓN EN MATERIA DE SELECCIÓN Y FORMACIÓN DE PERSONAL, VALORACIÓN DE PUESTOS DE TRABAJO, CLIMA LABORAL, ESTUDIO DE PLANTILLAS Y, EN GENERAL, CUALQUIER OTRO ASESORAMIENTO RELACIONADO CON LA GESTIÓN DE RECURSOS HUMANOS. r) ASESORAMIENTO Y GESTIÓN DE OPERACIONES FINANCIERAS Y DE COMERCIO EXTERIOR. s) ASESORAMIENTO Y REALIZACIÓN DE ESTUDIOS DE MERCADO",
      "mainEntityOfPage": "https://www.contratacion.euskadi.eus/webkpe00-kperoc/es/ac71aBusquedaRegistrosWar/empresa/04367",
      "_links": {
        "self": {
          "name": "SERVIMAX SERVICIOS GENERALES, S.A.",
          "href": "https://api.euskadi.eus/procurements/companies/04367"
        }
      }
    }
  ]
}