{
  "totalItems": 9042,
  "totalPages": 905,
  "currentPage": 180,
  "itemsOfPage": 10,
  "items": [
    {
      "name": "INSTALACIONES ELECTRICAS HER-JAI, S.L.",
      "registrationNumber": "04615",
      "identificationNumber": "B95017299",
      "address": "CAMPA SAN JUSTO, 15",
      "location": {
        "postalCode": "48003",
        "municipality": "Bilbao",
        "county": "Bizkaia",
        "municipalityId": "020",
        "countyId": "48"
      },
      "economicActivities": [
        {
          "id": "1.504.12",
          "name": "Instalaciones eléctricas en toda clase de edificios",
          "_links": {
            "self": {
              "name": "Instalaciones eléctricas en toda clase de edificios",
              "href": "https://api.euskadi.eus/procurements/companies/economic-activities/1.504.12"
            }
          }
        }
      ],
      "certificateStartDate": "2025-11-03",
      "certificateEndDate": "2026-04-29",
      "classification": [
        {
          "id": "O",
          "name": "Obras",
          "groups": [
            {
              "id": "I",
              "name": "INSTALACIONES ELÉCTRICAS",
              "subgroups": [
                {
                  "id": "05",
                  "name": "Centros de transformación y distribución en alta tensión",
                  "categories": [
                    {
                      "id": "4",
                      "name": "Desde 840.001 Hasta 2.400.000",
                      "_links": {
                        "self": {
                          "name": "Desde 840.001 Hasta 2.400.000",
                          "href": "https://api.euskadi.eus/procurements/companies/types/O/categories/4"
                        }
                      }
                    }
                  ],
                  "_links": {
                    "self": {
                      "name": "Centros de transformación y distribución en alta tensión",
                      "href": "https://api.euskadi.eus/procurements/companies/types/O/groups/I/subgroups/05"
                    }
                  }
                },
                {
                  "id": "09",
                  "name": "Instalaciones eléctricas sin cualificación específica",
                  "categories": [
                    {
                      "id": "4",
                      "name": "Desde 840.001 Hasta 2.400.000",
                      "_links": {
                        "self": {
                          "name": "Desde 840.001 Hasta 2.400.000",
                          "href": "https://api.euskadi.eus/procurements/companies/types/O/categories/4"
                        }
                      }
                    }
                  ],
                  "_links": {
                    "self": {
                      "name": "Instalaciones eléctricas sin cualificación específica",
                      "href": "https://api.euskadi.eus/procurements/companies/types/O/groups/I/subgroups/09"
                    }
                  }
                }
              ],
              "_links": {
                "self": {
                  "name": "INSTALACIONES ELÉCTRICAS",
                  "href": "https://api.euskadi.eus/procurements/companies/types/O/groups/I"
                }
              }
            }
          ],
          "_links": {
            "self": {
              "name": "Obras",
              "href": "https://api.euskadi.eus/procurements/companies/types/O"
            }
          }
        }
      ],
      "object": "LA EJECUCIÓN DE TODA CLASE DE PROYECTOS, INSTALACIONES Y MONTAJES ELÉCTRICOS Y LA REALIZACIÓN DE LOS TRABAJOS DE MANTENIMIENTO Y CONSERVACIÓN DE LOS MISMOS.",
      "mainEntityOfPage": "https://www.contratacion.euskadi.eus/webkpe00-kperoc/es/ac71aBusquedaRegistrosWar/empresa/04615",
      "_links": {
        "self": {
          "name": "INSTALACIONES ELECTRICAS HER-JAI, S.L.",
          "href": "https://api.euskadi.eus/procurements/companies/04615"
        }
      }
    },
    {
      "name": "GUK KOMUNIKAZIO AHOLKULARITZA, S.L.",
      "registrationNumber": "04798",
      "identificationNumber": "B95550471",
      "address": "HERNANI, 3",
      "location": {
        "postalCode": "48003",
        "municipality": "Bilbao",
        "county": "Bizkaia",
        "municipalityId": "020",
        "countyId": "48"
      },
      "economicActivities": [
        {
          "id": "1.844",
          "name": "Servicios de publicidad, relaciones públicas y similares",
          "_links": {
            "self": {
              "name": "Servicios de publicidad, relaciones públicas y similares",
              "href": "https://api.euskadi.eus/procurements/companies/economic-activities/1.844"
            }
          }
        }
      ],
      "certificateStartDate": "2025-11-03",
      "certificateEndDate": "2026-04-26",
      "object": "ASESORÍA Y CONSULTORÍA DE COMUNICACIÓN DIRIGIDA A LA GESTIÓN DE ACTIVOS DE COMUNICACIÓN DE LAS EMPRESAS PRIVADAS, ENTIDADES PÚBLICAS Y ASOCIACIONES. ELABORACIÓN DE PLANES Y ESTRATEGIAS INTEGRALES DE COMUNICACIÓN. ORGANIZACIÓN DE EVENTOS, CONGRESOS, JORNADAS PROFESIONALES, WORK-SHOPS, ACCIONES OUTDOOR PARA EMPRESAS. DISEÑO DE ESTRATEGIAS DE IMAGEN, COMUNICACIÓN Y MARKETING A TRAVÉS DE DIFERENTES SOPORTES (CAMPAÑAS DE PUBLICIDAD, MARKETING DIRECTO, MARKETING RELACIONAL, MARKETING MOBILE, STREET MARKETING, PRESENTACIONES DE PRODUCTO...). DISEÑO DE ESTRATEGIAS DE RELACIONES PÚBLICAS CON EL OBJETIVO DE CONSTRUIR LAS HERRAMIENTAS ADECUADAS PARA POSICIONAR UNA IMAGEN CORPORATIVA, MARCA O PRODUCTO DE EMPRESAS E INSTITUCIONES PÚBLICAS. ACCIONES/EVENTOS DE PROMOCIÓN EN VÍA PÚBLICA O ESPACIOS PÚBLICOS/PRIVADOS DIRIGIDOS A LA DIFUSIÓN Y PROMOCIÓN DE PRODUCTOS, MARCAS O ENTIDADES DE DIFERENTE SIGNO. ORGANIZACIÓN DE ESPECTÁCULOS FESTIVOS, CONCIERTOS DE MÚSICA, REPRESENTACIONES ARTÍSTICAS (TEATRO, DANZA,ETC.) O DEPORTIVAS. EDICIÓN DE PUBLICACIONES, REVISTAS, PERIÓDICOS. ELABORACIÓN DE PÁGINAS WEB, BLOGS Y REDES SOCIALES. ELABORACIÓN DE CONTENIDOS PARA MEDIOS AUDIOVISUALES, GESTIÓN DE VÍDEOS CORPORATIVOS, LOCUCIONES RADIOFÓNICAS. ACCIONES DE RELACIONES INSTITUCIONALES, REPRESENTACIÓN DE EMPRESAS O INSTITUCIONES Y GESTIÓN DEL PROTOCOLO. ACTIVIDADES DE FORMACIÓN RELACIONADA CON LA COMUNICACIÓN",
      "mainEntityOfPage": "https://www.contratacion.euskadi.eus/webkpe00-kperoc/es/ac71aBusquedaRegistrosWar/empresa/04798",
      "_links": {
        "self": {
          "name": "GUK KOMUNIKAZIO AHOLKULARITZA, S.L.",
          "href": "https://api.euskadi.eus/procurements/companies/04798"
        }
      }
    },
    {
      "name": "UNIKO ESTUDIO CREATIVO, S.L.",
      "registrationNumber": "08876",
      "identificationNumber": "B95633442",
      "address": "C/ Pintor Antonio Guezala 19, semisótano izquierda",
      "location": {
        "postalCode": "48015",
        "municipality": "Bilbao",
        "county": "Bizkaia",
        "municipalityId": "020",
        "countyId": "48"
      },
      "economicActivities": [
        {
          "id": "1.844",
          "name": "Servicios de publicidad, relaciones públicas y similares",
          "_links": {
            "self": {
              "name": "Servicios de publicidad, relaciones públicas y similares",
              "href": "https://api.euskadi.eus/procurements/companies/economic-activities/1.844"
            }
          }
        },
        {
          "id": "1.961.1",
          "name": "Producción de películas cinematográficas (incluso vídeos)",
          "_links": {
            "self": {
              "name": "Producción de películas cinematográficas (incluso vídeos)",
              "href": "https://api.euskadi.eus/procurements/companies/economic-activities/1.961.1"
            }
          }
        }
      ],
      "certificateStartDate": "2025-11-03",
      "certificateEndDate": "2026-04-26",
      "object": "1- LA PRODUCCIÓN CINEMATOGRÁFICA Y DE VIDEO; Y CUANTAS ACTIVIDADES, LÍCITAS FUEREN APROPIADAS, PARA EL PLENO LOGRO DEL OBJETO ANTERIOR, EN TAL SENTIDO, Y A TÍTULO DE EJEMPLO: LA PRODUCCIÓN DE PRODUCTOS AUDIOVISUALES, LA GESTIÓN DE PLANES DE COMUNICACIÓN ASÍ COMO LOS SERVICIOS Y ASESORÍA TÉCNICA EN IMAGEN, SONIDO Y MULTIMEDIA.",
      "mainEntityOfPage": "https://www.contratacion.euskadi.eus/webkpe00-kperoc/es/ac71aBusquedaRegistrosWar/empresa/08876",
      "_links": {
        "self": {
          "name": "UNIKO ESTUDIO CREATIVO, S.L.",
          "href": "https://api.euskadi.eus/procurements/companies/08876"
        }
      }
    },
    {
      "name": "ASIER LARRAÑAGA ORBEGOZO",
      "registrationNumber": "07248",
      "identificationNumber": "72474326S",
      "address": "LA SALBE 6-3A",
      "location": {
        "postalCode": "20730",
        "municipality": "Azpeitia",
        "county": "Gipuzkoa",
        "municipalityId": "018",
        "countyId": "20"
      },
      "economicActivities": [
        {
          "id": "1.502.2",
          "name": "Consolidación y preparación de terrenos para la construcción de edificaciones",
          "_links": {
            "self": {
              "name": "Consolidación y preparación de terrenos para la construcción de edificaciones",
              "href": "https://api.euskadi.eus/procurements/companies/economic-activities/1.502.2"
            }
          }
        },
        {
          "id": "1.852",
          "name": "Alquiler de maquinaria y equipo para la construcción",
          "_links": {
            "self": {
              "name": "Alquiler de maquinaria y equipo para la construcción",
              "href": "https://api.euskadi.eus/procurements/companies/economic-activities/1.852"
            }
          }
        },
        {
          "id": "1.912",
          "name": "Servicios forestales",
          "_links": {
            "self": {
              "name": "Servicios forestales",
              "href": "https://api.euskadi.eus/procurements/companies/economic-activities/1.912"
            }
          }
        }
      ],
      "certificateStartDate": "2025-11-03",
      "certificateEndDate": "2026-05-03",
      "object": "LA CONSOLIDACIÓN Y PREPARACIÓN DE TERRENOS PARA LA CONSTRUCCIÓN DE EDIFICACIONES . ALQUILER DE MAQUINARIA Y EQUIPO PARA LA CONSTRUCCIÓN. SERVICIOS FORESTALES.",
      "mainEntityOfPage": "https://www.contratacion.euskadi.eus/webkpe00-kperoc/es/ac71aBusquedaRegistrosWar/empresa/07248",
      "_links": {
        "self": {
          "name": "ASIER LARRAÑAGA ORBEGOZO",
          "href": "https://api.euskadi.eus/procurements/companies/07248"
        }
      }
    },
    {
      "name": "SERVICIOS OFIMATICOS SAMITEK, S.L.",
      "registrationNumber": "04839",
      "identificationNumber": "B20918801",
      "address": "LAMISINGO ITURRIA 1, OFICINA 209 (EDIF. UGALDE)",
      "location": {
        "postalCode": "20303",
        "municipality": "Irun",
        "county": "Gipuzkoa",
        "municipalityId": "045",
        "countyId": "20"
      },
      "economicActivities": [
        {
          "id": "1.659.2",
          "name": "Venta al por menor de muebles de oficina y máquinas y equipos de oficina",
          "_links": {
            "self": {
              "name": "Venta al por menor de muebles de oficina y máquinas y equipos de oficina",
              "href": "https://api.euskadi.eus/procurements/companies/economic-activities/1.659.2"
            }
          }
        },
        {
          "id": "1.691.9",
          "name": "Reparación de otros bienes de consumo n.c.o.p",
          "_links": {
            "self": {
              "name": "Reparación de otros bienes de consumo n.c.o.p",
              "href": "https://api.euskadi.eus/procurements/companies/economic-activities/1.691.9"
            }
          }
        }
      ],
      "certificateStartDate": "2025-11-03",
      "certificateEndDate": "2026-05-03",
      "object": "VENTA Y MANTENIMIENTO DE EQUIPOS DE OFICINA",
      "mainEntityOfPage": "https://www.contratacion.euskadi.eus/webkpe00-kperoc/es/ac71aBusquedaRegistrosWar/empresa/04839",
      "_links": {
        "self": {
          "name": "SERVICIOS OFIMATICOS SAMITEK, S.L.",
          "href": "https://api.euskadi.eus/procurements/companies/04839"
        }
      }
    },
    {
      "name": "TRAKIUM, S.L.",
      "registrationNumber": "10414",
      "identificationNumber": "B22585269",
      "address": "CALLE LENGUAS N 16, ESC2, PUERTA 3",
      "location": {
        "postalCode": "28021",
        "municipality": "Madrid",
        "county": "Madrid",
        "municipalityId": "079",
        "countyId": "28"
      },
      "economicActivities": [
        {
          "id": "1.504.1",
          "name": "Instalaciones eléctricas en general",
          "_links": {
            "self": {
              "name": "Instalaciones eléctricas en general",
              "href": "https://api.euskadi.eus/procurements/companies/economic-activities/1.504.1"
            }
          }
        },
        {
          "id": "1.653.2",
          "name": "Venta al por menor de material y aparatos eléctricos, electrodomésticos y cocina",
          "_links": {
            "self": {
              "name": "Venta al por menor de material y aparatos eléctricos, electrodomésticos y cocina",
              "href": "https://api.euskadi.eus/procurements/companies/economic-activities/1.653.2"
            }
          }
        },
        {
          "id": "1.653.9",
          "name": "Venta al por menor de otros artículos para el equipamiento del hogar",
          "_links": {
            "self": {
              "name": "Venta al por menor de otros artículos para el equipamiento del hogar",
              "href": "https://api.euskadi.eus/procurements/companies/economic-activities/1.653.9"
            }
          }
        },
        {
          "id": "1.769",
          "name": "Otros servicios de telecomunicaciones",
          "_links": {
            "self": {
              "name": "Otros servicios de telecomunicaciones",
              "href": "https://api.euskadi.eus/procurements/companies/economic-activities/1.769"
            }
          }
        }
      ],
      "certificateStartDate": "2025-11-03",
      "certificateEndDate": "2026-05-03",
      "object": "ACTIVIDAD PRINCIPAL: 33.14 / REPARACIÓN Y MANTENIMIENTO DE EQUIPOS ELÉCTRICOS. OTRAS ACTIVIDADES: 61.10 / ACTIVIDADES DE TELECOMUNICACIONES POR CABLE, INALÁMBRICAS Y POR SATÉLITE, 47.54 / COMERCIO AL POR MENOR DE APARATOS ELECTRODOMÉSTICOS, 80.09 / SERVICIOS DE SEGURIDAD N.C.O.P., 43.21 / INSTALACIONES ELÉCTRICAS, 61.20 / ACTIVIDADES DE REVENTA DE TELECOMUNICACIONES Y SERVICIOS DE INTERMEDIACIÓN PARA TELECOMUNICACIONES, 61.90 / OTRAS ACTIVIDADES DE TELECOMUNICACIONES, 42.22 / CONSTRUCCIÓN DE REDES ELÉCTRICAS Y DE TELECOMUNICACIONES.",
      "mainEntityOfPage": "https://www.contratacion.euskadi.eus/webkpe00-kperoc/es/ac71aBusquedaRegistrosWar/empresa/10414",
      "_links": {
        "self": {
          "name": "TRAKIUM, S.L.",
          "href": "https://api.euskadi.eus/procurements/companies/10414"
        }
      }
    },
    {
      "name": "IÑAKI GOIKOETXEA GOMEZ",
      "registrationNumber": "10413",
      "identificationNumber": "30575503Q",
      "address": "C/MEDICO ANTONIO EGILUZ 10, 4º-A",
      "location": {
        "postalCode": "48004",
        "municipality": "Bilbao",
        "county": "Bizkaia",
        "municipalityId": "020",
        "countyId": "48"
      },
      "economicActivities": [
        {
          "id": "1.646.51",
          "name": "Venta al por menor de tabaco en máquina, titular establecimiento",
          "_links": {
            "self": {
              "name": "Venta al por menor de tabaco en máquina, titular establecimiento",
              "href": "https://api.euskadi.eus/procurements/companies/economic-activities/1.646.51"
            }
          }
        },
        {
          "id": "1.659.4",
          "name": "Venta al por menor de libros, periódicos y artículos de papelería y escritorio",
          "_links": {
            "self": {
              "name": "Venta al por menor de libros, periódicos y artículos de papelería y escritorio",
              "href": "https://api.euskadi.eus/procurements/companies/economic-activities/1.659.4"
            }
          }
        },
        {
          "id": "2.873",
          "name": "Expendedores no oficiales autorizados, recepción apuestas",
          "_links": {
            "self": {
              "name": "Expendedores no oficiales autorizados, recepción apuestas",
              "href": "https://api.euskadi.eus/procurements/companies/economic-activities/2.873"
            }
          }
        }
      ],
      "certificateStartDate": "2025-11-03",
      "certificateEndDate": "2026-04-20",
      "object": "VENTA AL POR MENOR DE LIBROS, PERIÓDICOS Y ARTÍCULOS DE PAPELERÍA Y ESCRITORIO. VENTA AL POR MENOR DE TABACO EN MÁQUINA, TITULAR ESTABLECIMIENTO. EXPENDEDORES NO OFICIALES AUTORIZADOS, RECEPCIÓN APUESTAS.",
      "mainEntityOfPage": "https://www.contratacion.euskadi.eus/webkpe00-kperoc/es/ac71aBusquedaRegistrosWar/empresa/10413",
      "_links": {
        "self": {
          "name": "IÑAKI GOIKOETXEA GOMEZ",
          "href": "https://api.euskadi.eus/procurements/companies/10413"
        }
      }
    },
    {
      "name": "AGENCIA PUBLICITARIA FEELING, S.L.",
      "registrationNumber": "10176",
      "identificationNumber": "B05460167",
      "address": "Calle Luzarra 3, piso 2, Deusto",
      "location": {
        "postalCode": "48014",
        "municipality": "Bilbao",
        "county": "Bizkaia",
        "municipalityId": "020",
        "countyId": "48"
      },
      "economicActivities": [
        {
          "id": "1.844",
          "name": "Servicios de publicidad, relaciones públicas y similares",
          "_links": {
            "self": {
              "name": "Servicios de publicidad, relaciones públicas y similares",
              "href": "https://api.euskadi.eus/procurements/companies/economic-activities/1.844"
            }
          }
        }
      ],
      "certificateStartDate": "2025-11-03",
      "certificateEndDate": "2026-04-29",
      "object": "ACTIVIDAD PRINCIPAL: CNAE: 7311.- AGENCIAS DE PUBLICIDAD.",
      "mainEntityOfPage": "https://www.contratacion.euskadi.eus/webkpe00-kperoc/es/ac71aBusquedaRegistrosWar/empresa/10176",
      "_links": {
        "self": {
          "name": "AGENCIA PUBLICITARIA FEELING, S.L.",
          "href": "https://api.euskadi.eus/procurements/companies/10176"
        }
      }
    },
    {
      "name": "SOCIEDAD DE INGENIERIA Y DIRECCION DE OBRAS, S.L.",
      "registrationNumber": "08142",
      "identificationNumber": "B48861900",
      "address": "Parque Tecnológico - Edificio 805",
      "location": {
        "postalCode": "48160",
        "municipality": "Derio",
        "county": "Bizkaia",
        "municipalityId": "901",
        "countyId": "48"
      },
      "economicActivities": [
        {
          "id": "1.330",
          "name": "Construcción de máquinas de oficina y ordenadores",
          "_links": {
            "self": {
              "name": "Construcción de máquinas de oficina y ordenadores",
              "href": "https://api.euskadi.eus/procurements/companies/economic-activities/1.330"
            }
          }
        },
        {
          "id": "1.504.11",
          "name": "Instalaciones eléctricas en general, redes telegráficas, telefonía, tv, etc",
          "_links": {
            "self": {
              "name": "Instalaciones eléctricas en general, redes telegráficas, telefonía, tv, etc",
              "href": "https://api.euskadi.eus/procurements/companies/economic-activities/1.504.11"
            }
          }
        },
        {
          "id": "1.507",
          "name": "Construcción, reparación y conservación de toda clase obras",
          "_links": {
            "self": {
              "name": "Construcción, reparación y conservación de toda clase obras",
              "href": "https://api.euskadi.eus/procurements/companies/economic-activities/1.507"
            }
          }
        },
        {
          "id": "1.843.1",
          "name": "Servicios técnicos de ingeniería",
          "_links": {
            "self": {
              "name": "Servicios técnicos de ingeniería",
              "href": "https://api.euskadi.eus/procurements/companies/economic-activities/1.843.1"
            }
          }
        },
        {
          "id": "1.861.2",
          "name": "Alquiler de locales industriales y otros alquileres n.c.o.p",
          "_links": {
            "self": {
              "name": "Alquiler de locales industriales y otros alquileres n.c.o.p",
              "href": "https://api.euskadi.eus/procurements/companies/economic-activities/1.861.2"
            }
          }
        }
      ],
      "certificateStartDate": "2025-11-03",
      "certificateEndDate": "2026-04-20",
      "object": "A) EL ALMACENAMIENTO, DEPÓSITO Y DISTRIBUCIÓN DE MERCANCÍAS, ARTÍCULOS Y MATERIALES DE TODAS CLASES. B) LA ADQUISICIÓN Y ENAJENACIÓN POR CUALQUIER TÍTULO, DE FINCAS RÚSTICAS Y URBANAS, YA SEAN TIERRAS, SOLARES Y EDIFICIOS; LA CONSTRUCCIÓN DE ÉSTOS Y LA ADMINISTRACIÓN, TENENCIA EXPLOTACIÓN Y ARRENDAMIENTO, YA SEA ACTIVO O PASIVO, DE TALES BIENES Y SU VENTA TOTAL O PARCIAL, SEGÚN CONVENGA, PARA SU APROVECHAMIENTO AGRÍCOLA, FORESTAL, URBANO, INDUSTRIAL O CUALQUIER OTRO. C) LA PROMOCIÓN, EJECUCIÓN Y EXPLOTACIÓN DE TODA CLASE DE PRODUCTOS Y ELABORADOS NATURALES, DE MATERIAS PRIMAS Y DE SUS TRANSFORMADOS O PRODUCTOS MANUFACTURADOS, SEMIELABORADOS, RELACIONADAS CON LA AGRICULTURA, GANADERÍA, TRANSPORTE DE CUALQUIER CLASE Y NATURALEZA, TELECOMUNICACIÓN, INDUSTRIAL, FORESTAL, SIDEROMETALÚRGICA, MECÁNICA, NAVAL, ELECTROMECÁNICA, QUÍMICA, ALIMENTARIA, TEXTIL O BIOQUÍMICA. D) LOS SERVICIOS DE MEDIACIÓN CON BIENES PROPIOS O AJENOS, ASÍ COMO LOS DE CONSIGNACIÓN, REPRESENTACIÓN Y GESTIÓN, INCLUSO DE TODA CLASE DE SUMINISTROS DE PRODUCTOS EN GENERAL Y PLANTAS INDUSTRIALES, NACIONALES Y EXTRANJERAS, Y LAS ACTIVIDADES DE IMPORTACIÓN Y EXPORTACIÓN. E) EL ESTUDIO, INVESTIGACIÓN, PROMOCIÓN Y ASESORAMIENTO DE TODA CLASE DE SERVICIOS DE ASISTENCIA Y GESTIÓN TÉCNICA, ADMINISTRATIVA, COMERCIAL, CONTABLE Y FISCAL, ASÍ COMO LA EXPLOTACIÓN Y PARTICIPACIÓN EN NEGOCIOS INCLUSO LA MECÁNICA CONTABLE. F) LA PROMOCIÓN, EJECUCIÓN Y EXPLOTACIÓN DE LOS NEGOCIOS DE SUMINISTROS PÚBLICOS Y PRIVADOS, INCLUIDA LA PROPIA EXPLOTACIÓN DE LOS SERVICIOS DE LOS SERVICIOS DE AQUELLAS, COMO ESPECTÁCULOS, TRANSPORTES, HOTELES Y ALOJAMIENTOS. G) LOS TRATAMIENTOS TÉRMICOS Y CONTROLES DE CALIDAD. H) LA CONSTITUCIÓN CON LA CONCURRENCIA DE OTRAS PERSONAS DE TODA CLASE DE SOCIEDADES MERCANTILES, LA PARTICIPACIÓN EN OTRAS YA CONSTITUIDAS, OSTENTANDO EN TODAS ELLAS CARGOS DE ADMINISTRACIÓN, DIRECCIÓN O CONTROL MEDIANTE LA OPORTUNA DELEGACIÓN EN PERSONA FÍSICA. I) LA EJECUCIÓN Y MANTENIMIENTO DE INSTALACIONES ELÉCTRICAS EN GENERAL, EN ALTA, BAJA Y MEDIA TENSIÓN, INSTALACIONES DE TELECOMUNICACIONES, INSTALACIONES ELECTRÓNICAS E INSTALACIONES DE SISTEMAS DE SEÑALIZACIÓN Y BALIZAMIENTO DE PUERTOS AEROPUERTOS Y CARRETERAS, E INSTALACIONES DE SEGURIDAD Y CONTRA INCENDIOS. J) LA EJECUCIÓN Y MANTENIMIENTO DE INSTALACIONES MECÁNICAS EN GENERAL, INSTALACIONES DE FONTANERÍA, INSTALACIONES FRIGORÍFICAS, INSTALACIONES DE CALEFACCIÓN, VENTILACIÓN Y CLIMATIZACIÓN, INSTALACIONES ELEVADORES Y TRANSPORTADORAS, E INSTALACIONES DE TRATAMIENTO DE AGUAS DE TODO TIPO. K) LA CONSTRUCCIÓN COMPLETA, REPARACIÓN Y CONSERVACIÓN DE EDIFICACIONES Y OBRAS CIVILES EN GENERAL. L) LA CONTRATACIÓN DE OBRAS Y SERVICIOS CON CUALQUIER ORGANISMO DE LAS ADMINISTRACIONES PÚBLICAS Y CON TODA CLASE DE ENTIDADES PARTICULARES. M) LA REDACCIÓN Y CONFECCIÓN DE PROYECTOS TÉCNICOS DE TODO TIPO, LA DIRECCIÓN DE OBRAS Y CONTROL DE CALIDAD, Y LA REALIZACIÓN DE ESTUDIOS E INFORMES Y DE ASESORAMIENTO TÉCNICO. N) Y LA IMPLANTACIÓN Y MANTENIMIENTOS DE PARQUES Y JARDINES, LA PLANTACIÓN Y MANTENIMIENTO FORESTALES; LA REPOBLACIÓN FORESTAL; LA LUCHA CONTRA PLAGAS; Y LA LUCHA Y PREVENCIÓN CONTRA INCENDIOS FORESTALES.",
      "mainEntityOfPage": "https://www.contratacion.euskadi.eus/webkpe00-kperoc/es/ac71aBusquedaRegistrosWar/empresa/08142",
      "_links": {
        "self": {
          "name": "SOCIEDAD DE INGENIERIA Y DIRECCION DE OBRAS, S.L.",
          "href": "https://api.euskadi.eus/procurements/companies/08142"
        }
      }
    },
    {
      "name": "CONSTRUCCIONES KOLDO KEREJETA, S.L.",
      "registrationNumber": "02215",
      "identificationNumber": "B20654984",
      "address": "C/ HELBARRENA, Nº 27- 2º IZDA.",
      "location": {
        "postalCode": "20211",
        "municipality": "Ataun",
        "county": "Gipuzkoa",
        "municipalityId": "015",
        "countyId": "20"
      },
      "economicActivities": [
        {
          "id": "1.501.1",
          "name": "Construcción completa, reparación y conservación de edificaciones",
          "_links": {
            "self": {
              "name": "Construcción completa, reparación y conservación de edificaciones",
              "href": "https://api.euskadi.eus/procurements/companies/economic-activities/1.501.1"
            }
          }
        }
      ],
      "certificateStartDate": "2025-11-03",
      "certificateEndDate": "2026-04-21",
      "object": "TRABAJOS DE CONSTRUCCIÓN Y ALBAÑILERÍA EN GENERAL",
      "mainEntityOfPage": "https://www.contratacion.euskadi.eus/webkpe00-kperoc/es/ac71aBusquedaRegistrosWar/empresa/02215",
      "_links": {
        "self": {
          "name": "CONSTRUCCIONES KOLDO KEREJETA, S.L.",
          "href": "https://api.euskadi.eus/procurements/companies/02215"
        }
      }
    }
  ]
}