{
  "totalItems": 9042,
  "totalPages": 905,
  "currentPage": 424,
  "itemsOfPage": 10,
  "items": [
    {
      "name": "AMARBE S.L.",
      "registrationNumber": "06291",
      "identificationNumber": "B48291421",
      "address": "C/ Malmasin nº 9 Lonja",
      "location": {
        "postalCode": "48003",
        "municipality": "Bilbao",
        "county": "Bizkaia",
        "municipalityId": "020",
        "countyId": "48"
      },
      "economicActivities": [
        {
          "id": "1.501.1",
          "name": "Construcción completa, reparación y conservación de edificaciones",
          "_links": {
            "self": {
              "name": "Construcción completa, reparación y conservación de edificaciones",
              "href": "https://api.euskadi.eus/procurements/companies/economic-activities/1.501.1"
            }
          }
        },
        {
          "id": "1.501.2",
          "name": "Construcción completa, reparación y conservación obras civiles",
          "_links": {
            "self": {
              "name": "Construcción completa, reparación y conservación obras civiles",
              "href": "https://api.euskadi.eus/procurements/companies/economic-activities/1.501.2"
            }
          }
        }
      ],
      "certificateStartDate": "2024-05-09",
      "certificateEndDate": "2024-11-09",
      "object": "A) LA ADQUISICIÓN, TENENCIA Y DISFRUTE, EXPLOTACIÓN, ENAJENACIÓN DE TODA CLASE DE FINCAS RÚSTICAS Y URBANAS. B) LA PROMOCIÓN, CONSTRUCCIÓN, REHABILITACIÓN, REPARACIÓN POR CUENTA PROPIA O AJENA, DE TODA CLASE DE OBRAS, URBANIZACIONES, EDIFICIOS Y CONSTRUCCIONES TANTO PÚBLICOS COMO PRIVADOS. C) LA ADMINISTRACIÓN, ASESORAMIENTO, GESTIÓN DE ACTUACIONES URBANÍSTICAS Y PRESTACIÓN DE SERVICIOS DE TODO TIPO CON RELACIÓN A BIENES INMUEBLES, SEGÚN CONVENGA A SU APROVECHAMIENTO AGRÍCOLA, FORESTAL, URBANO, INDUSTRIAL O DE CUALQUIER OTRA NATURALEZA. D) LA ASISTENCIA, GESTIÓN, DIRECCIÓN, ADMINISTRACIÓN, PROMOCIÓN, INTERVENCIÓN Y PARTICIPACIÓN EN EMPRESAS O EN SU CREACIÓN, CONSTITUCIÓN O DESARROLLO. E) LA PROMOCIÓN, ESTUDIO Y DESARROLLO DE PRODUCTOS Y ACTIVIDADES INDUSTRIALES, COMERCIALES Y DE DISTRIBUCIÓN, EN EMPRESAS PROPIAS O PARTICIPADAS Y EXPLOTACIÓN O CESIÓN DE CÁNONES O ROYALTIES Y DERECHOS DE PROPIEDAD INDUSTRIAL. F) LOS SERVICIOS DE MEDIACIÓN, GESTIÓN, REPRESENTACIÓN Y COMERCIO INTERIOR Y EXTERIOR, ALMACENAMIENTO, ARRENDAMIENTO Y EN GENERAL, LA COMERCIALIZACIÓN Y DISTRIBUCIÓN DE TODA CLASE DE PRODUCTOS. G) LA GESTIÓN Y ADMINISTRACIÓN DE PATRIMONIOS DE CARTERA DE VALORES MOBILIARIOS Y DEMÁS ACTIVOS FINANCIEROS PROPIOS O DE TERCEROS. ADQUISICIÓN, TENENCIA, DISFRUTE, ADMINISTRACIÓN, ENAJENACIÓN DE TODA CLASE DE TÍTULOS, VALORES MOBILIARIOS, ACTIVOS FINANCIEROS, DERECHOS VALORES, CUOTAS O PARTICIPACIONES EN EMPRESAS INDIVIDUALES O SOCIALES, NO INCLUYÉNDOSE EN NINGÚN CASO LAS ACTIVIDADES OBJETO DE LA LEGISLACIÓN DE INSTITUCIONES DE INVERSIÓN COLECTIVA Y DE MERCADO DE VALORES.",
      "mainEntityOfPage": "https://www.contratacion.euskadi.eus/webkpe00-kperoc/es/ac71aBusquedaRegistrosWar/empresa/06291",
      "_links": {
        "self": {
          "name": "AMARBE S.L.",
          "href": "https://api.euskadi.eus/procurements/companies/06291"
        }
      }
    },
    {
      "name": "PENTAX MEDICAL IBERIA, S.A.",
      "registrationNumber": "06143",
      "identificationNumber": "A82866591",
      "address": "AV. SISTEMA SOLAR",
      "location": {
        "postalCode": "28830",
        "municipality": "San Fernando de Henares",
        "county": "Madrid",
        "municipalityId": "130",
        "countyId": "28"
      },
      "economicActivities": [
        {
          "id": "1.619.2",
          "name": "Venta al por mayor de aparatos e instrumentos médicos, ortopédicos, ópticos",
          "_links": {
            "self": {
              "name": "Venta al por mayor de aparatos e instrumentos médicos, ortopédicos, ópticos",
              "href": "https://api.euskadi.eus/procurements/companies/economic-activities/1.619.2"
            }
          }
        },
        {
          "id": "1.691.9",
          "name": "Reparación de otros bienes de consumo n.c.o.p",
          "_links": {
            "self": {
              "name": "Reparación de otros bienes de consumo n.c.o.p",
              "href": "https://api.euskadi.eus/procurements/companies/economic-activities/1.691.9"
            }
          }
        }
      ],
      "certificateStartDate": "2024-05-08",
      "certificateEndDate": "2024-10-24",
      "object": "COMPRA, VENTA DE TODO TIPO DE MATERIAL MÉDICO AL POR MAYOR Y AL DETALLE, LA IMPORTACIÓN Y DISTRIBUCIÓN DE APARATOS Y UTENSILIOS MÉDICOS, MATERIAL CLÍNICO, CUALQUIER INSTRUMENTAL SUSCEPTIBLE DE SER UTILIZADO POR INSTITUCIONES O PERSONAS DEL ENTORNO SANITARIO, ASÍ COMO EQUIPOS INFORMÁTICOS, AUDIOVISUALES, ÓPTICOS, FOTOGRÁFICOS, SISTEMAS DE TELEVISIÓN, VÍDEO, ETC., ASÍ COMO LA PRESTACIÓN DE ASISTENCIA TÉCNICA, MANTENIMIENTO Y REPARACIÓN DE TODO LO ANTERIOR. LA ADQUISICIÓN, EXPLOTACIÓN Y ENAJENACIÓN DE BIENES INMUEBLES",
      "mainEntityOfPage": "https://www.contratacion.euskadi.eus/webkpe00-kperoc/es/ac71aBusquedaRegistrosWar/empresa/06143",
      "_links": {
        "self": {
          "name": "PENTAX MEDICAL IBERIA, S.A.",
          "href": "https://api.euskadi.eus/procurements/companies/06143"
        }
      }
    },
    {
      "name": "CARPINTERIA DE ALUMINIO MORALES, S.A.",
      "registrationNumber": "09569",
      "identificationNumber": "A20186201",
      "address": "MATEO ERROTA, 3",
      "location": {
        "postalCode": "20014",
        "municipality": "Donostia / San Sebastián",
        "county": "Gipuzkoa",
        "municipalityId": "069",
        "countyId": "20"
      },
      "economicActivities": [
        {
          "id": "1.314.1",
          "name": "Carpintería metálica",
          "_links": {
            "self": {
              "name": "Carpintería metálica",
              "href": "https://api.euskadi.eus/procurements/companies/economic-activities/1.314.1"
            }
          }
        }
      ],
      "certificateStartDate": "2024-05-08",
      "certificateEndDate": "2024-11-08",
      "object": "LA EXPLOTACIÓN DE UN NEGOCIO DE CARPINTERÍA DE ALUMINIO EN GENERAL Y CRISTALERÍA.",
      "mainEntityOfPage": "https://www.contratacion.euskadi.eus/webkpe00-kperoc/es/ac71aBusquedaRegistrosWar/empresa/09569",
      "_links": {
        "self": {
          "name": "CARPINTERIA DE ALUMINIO MORALES, S.A.",
          "href": "https://api.euskadi.eus/procurements/companies/09569"
        }
      }
    },
    {
      "name": "INKEMA SISTEMAS , S.L.",
      "registrationNumber": "09568",
      "identificationNumber": "B64231822",
      "address": "Carretera de Cardedeu C251 km3 ",
      "location": {
        "postalCode": "08520",
        "municipality": "Franqueses del Vallès, Les",
        "county": "Barcelona",
        "municipalityId": "086",
        "countyId": "08"
      },
      "economicActivities": [
        {
          "id": "1.325.4",
          "name": "Construcción de maquinaria de elevación y manipulación",
          "_links": {
            "self": {
              "name": "Construcción de maquinaria de elevación y manipulación",
              "href": "https://api.euskadi.eus/procurements/companies/economic-activities/1.325.4"
            }
          }
        }
      ],
      "certificateStartDate": "2024-05-08",
      "certificateEndDate": "2024-10-30",
      "object": "LA ACTIVIDAD DE FABRICACIÓN, COMERCIALIZACIÓN, DISTRIBUCIÓN E INSTALACIÓN DE EQUIPOS DE CARGA Y PUERTAS INDUSTRIALES.",
      "mainEntityOfPage": "https://www.contratacion.euskadi.eus/webkpe00-kperoc/es/ac71aBusquedaRegistrosWar/empresa/09568",
      "_links": {
        "self": {
          "name": "INKEMA SISTEMAS , S.L.",
          "href": "https://api.euskadi.eus/procurements/companies/09568"
        }
      }
    },
    {
      "name": "FIELATO GASTRONOMICO, S.L.",
      "registrationNumber": "09565",
      "identificationNumber": "B95466272",
      "address": "PLAZA ARRIKIBAR, 4",
      "location": {
        "postalCode": "48008",
        "municipality": "Bilbao",
        "county": "Bizkaia",
        "municipalityId": "020",
        "countyId": "48"
      },
      "economicActivities": [
        {
          "id": "1.671.5",
          "name": "Restaurante un tenedor",
          "_links": {
            "self": {
              "name": "Restaurante un tenedor",
              "href": "https://api.euskadi.eus/procurements/companies/economic-activities/1.671.5"
            }
          }
        },
        {
          "id": "1.673.2",
          "name": "Otros cafés y bares",
          "_links": {
            "self": {
              "name": "Otros cafés y bares",
              "href": "https://api.euskadi.eus/procurements/companies/economic-activities/1.673.2"
            }
          }
        }
      ],
      "certificateStartDate": "2024-05-07",
      "certificateEndDate": "2024-11-06",
      "object": "EXPLOTACIÓN DEL NEGOCIO DE RESTAURACIÓN, HOSTELERÍA Y ALIMENTACIÓN EN RESTAURANTES, CAFETERÍAS, BARES, ASÍ COMO SERVICIO DE CATERING, TANTO EN LOCALES PROPIOS COMO ARRENDADOS, CEDIDOS O EN RÉGIMEN DE CONCESIÓN.",
      "mainEntityOfPage": "https://www.contratacion.euskadi.eus/webkpe00-kperoc/es/ac71aBusquedaRegistrosWar/empresa/09565",
      "_links": {
        "self": {
          "name": "FIELATO GASTRONOMICO, S.L.",
          "href": "https://api.euskadi.eus/procurements/companies/09565"
        }
      }
    },
    {
      "name": "JUAN CARLOS MALET RODRIGUEZ",
      "registrationNumber": "06821",
      "identificationNumber": "15977223C",
      "address": "Prim, 7 - 3º Dcha. Izda.",
      "location": {
        "postalCode": "20006",
        "municipality": "Donostia / San Sebastián",
        "county": "Gipuzkoa",
        "municipalityId": "069",
        "countyId": "20"
      },
      "economicActivities": [
        {
          "id": "1.849.9",
          "name": "Otros servicios independientes n.c.o.p",
          "_links": {
            "self": {
              "name": "Otros servicios independientes n.c.o.p",
              "href": "https://api.euskadi.eus/procurements/companies/economic-activities/1.849.9"
            }
          }
        }
      ],
      "certificateStartDate": "2024-05-06",
      "certificateEndDate": "2024-11-06",
      "object": " LOS SERVICIOS DE CONSULTORÍA Y ASESORAMIENTO EN COMUNICACIÓN Y DESARROLLO CORPORATIVO",
      "mainEntityOfPage": "https://www.contratacion.euskadi.eus/webkpe00-kperoc/es/ac71aBusquedaRegistrosWar/empresa/06821",
      "_links": {
        "self": {
          "name": "JUAN CARLOS MALET RODRIGUEZ",
          "href": "https://api.euskadi.eus/procurements/companies/06821"
        }
      }
    },
    {
      "name": "LAST TOUR CONCERTS, SOCIEDAD LIMITADA",
      "registrationNumber": "07843",
      "identificationNumber": "B95551750",
      "address": "CAMINO VENTOSA 46-1D",
      "location": {
        "postalCode": "48013",
        "municipality": "Bilbao",
        "county": "Bizkaia",
        "municipalityId": "020",
        "countyId": "48"
      },
      "economicActivities": [
        {
          "id": "1.849.7",
          "name": "Servicios de gestión administrativa",
          "_links": {
            "self": {
              "name": "Servicios de gestión administrativa",
              "href": "https://api.euskadi.eus/procurements/companies/economic-activities/1.849.7"
            }
          }
        },
        {
          "id": "1.965.4",
          "name": "Empresas de espectáculos",
          "_links": {
            "self": {
              "name": "Empresas de espectáculos",
              "href": "https://api.euskadi.eus/procurements/companies/economic-activities/1.965.4"
            }
          }
        }
      ],
      "certificateStartDate": "2024-05-03",
      "certificateEndDate": "2024-10-17",
      "object": "A) LA DIRECCIÓN Y GESTIÓN COMO SOCIEDAD MATRIZ O HOLDING, DE SUS SOCIEDADES FILIALES Y PARTICIPADAS, EN LOS ASPECTOS INDUSTRIALES TÉCNICOS, COMERCIALES FINANCIEROS, Y ADMINISTRATIVOS, Y, EN GENERAL, EN TODA SU DINÁMICA EMPRESARIAL. B) LA PRODUCCIÓN DISCOGRÁFICA, EDICIÓN DE DERECHOS DE AUTOR, EDITORIALES, MUSICALES, PROMOCIONES ARTÍSTICAS, DISCOGRÁFICAS Y DE OTROS PRODUCTOS MUSICALES, TEATRALES, CINEMATOGRÁFICOS, DE TV Y VRT, TANTO NACIONALES COMO EXTRANJEROS. C) LA REPRESENTACIÓN DE ARTISTAS, PRODUCCIÓN DE EVENTOS CULTURALES Y MUSICALES Y DE OCIO. D) LA PROMOCIÓN, PREPARACIÓN, DESARROLLO, CONTRATACIÓN DE ARTISTAS DE CUALQUIER GÉNERO Y GESTIÓN Y DESARROLLO DE TODO TIPO DE FESTIVALES, DE TODA CLASE DE EVENTOS, CONCIERTOS GALAS Y CONCURSOS MUSICALES, TANTO EN EL ESTADO ESPAÑOL, COMUNIDADES AUTÓNOMAS O EN EL EXTRANJERO, ASÍ COMO EL MARKETING DE LAS MISMAS. E) LA GESTIÓN DE SPONSORS. F) ALQUILER DE ENSERES DE CONCIERTOS Y ALQUILER DE INMUEBLES RELACIONADOS CON OCIO Y CULTURA. G) LA EXPLOTACIÓN DE BARRAS DE HOSTELERÍA, ASÍ COMO EL ALQUILER, VENTA Y EXPLOTACIÓN DE LAS MISMAS, TANTO EN EL ESTADO ESPAÑOL, COMUNIDADES AUTÓNOMAS O EN EL EXTRANJERO. H) LA PROMOCIÓN, CONSTRUCCIÓN, COMPRA Y VENTA, ARRENDAMIENTO Y COMERCIALIZACIÓN EN GENERAL DE TODA CLASE DE EDIFICACIONES, TERRENOS, SOLARES, FINCAS RÚSTICAS Y URBANAS; LA EDIFICACIÓN, URBANIZACIÓN, EXCAVACIÓN, CIMENTACIÓN Y DERRIBO, BIEN POR CUENTA PROPIA COMO AJENA, ASÍ COMO LA ENAJENACIÓN, VENTA, ARRIENDO O EXPLOTACIÓN, EN CUALQUIER FORMA DE TODA CLASE DE INMUEBLES, EDIFICIOS, PISOS, APARTAMENTOS, LOCALES COMERCIALES O INDUSTRIALES, OFICINAS Y HOTELES O ESTABLECIMIENTOS DE HOSTELERÍA EN GENERAL. I) TODA CLASE DE OPERACIONES INMOBILIARIAS SOBRE FINCAS RÚSTICAS Y URBANAS, PROMOCIÓN DE CONTRATOS O REALIZACIONES DE PARCELARIAS, URBANIZACIONES, CONSTRUCCIONES Y OBRAS PRIVADAS O PÚBLICAS, LA VENTA, HIPOTECA, ARRENDAMIENTO, TRANSFORMACIÓN, MEJORA, ADMINISTRACIÓN, PUESTA EN EXPLOTACIÓN Y LA EXPLOTACIÓN MISMA, DE FINCAS RÚSTICAS Y URBANAS, LA ORGANIZACIÓN, PROMOCIÓN, ASESORAMIENTO GESTIÓN EN TODO CASO DE SOCIEDADES, COOPERATIVAS, COMUNIDADES, ENTIDADES, GRUPOS O EMPRESAS PARTICULARES ORIENTADAS A LA CONSTRUCCIÓN O URBANIZACIÓN, LA PLANIFICACIÓN Y ESTUDIO DE MERCADOS EN MATERIA INMOBILIARIA. J) LA GESTIÓN, DIRECCIÓN Y EJECUCIÓN POR CUENTA PROPIA O AJENA DE TODA CLASE DE CONSTRUCCIONES, INSTALACIONES, REFORMAS, REHABILITACIONES, DECORACIONES Y OBRAS DE RESTAURACIÓN EXTERNA E INTERNA DE ESTRUCTURAS Y REVESTIMIENTOS DE EDIFICIOS Y MONUMENTOS; LIMPIEZA, IMPERMEABILIZACIÓN, TRATAMIENTO, PINTURA, RECONSTRUCCIÓN Y LA IMPLANTACIÓN, CUIDADO Y MANTENIMIENTO DE JARDINES Y EXPLOTACIONES FORESTALES. LA SUPERVISIÓN Y CONTROL DE OBRAS, ASÍ COMO LA COORDINACIÓN DE GREMIOS, EL ASESORAMIENTO Y LA ASISTENCIA TÉCNICA DE TODO CUANTO SE RELACIONE CON EL CAMPO DE LA CONSTRUCCIÓN DE EDIFICIOS Y DE LAS OBRAS PÚBLICAS O CIVILES. K) LA ADMINISTRACIÓN DE FINCAS Y COMUNIDADES, TANTO DE PROPIETARIOS COMO DE AUTOPROMOTORES, ASÍ COMO LA PRESTACIÓN DE TODA CLASE DE SERVICIOS RELACIONADOS CON EL ÁMBITO INMOBILIARIO, ARQUITECTÓNICO, DE TÉCNICA DE CONSTRUCCIÓN E INGENIERÍA EN GENERAL, POR MEDIO DE FORMULACIÓN, DESARROLLO Y PUESTA EN MARCHA DE ESTUDIOS, ACTUACIONES Y PROYECTOS. L) LA COMPRA, VENTA, DE TODA CLASE DE MATERIALES DE CONSTRUCCIÓN Y / O DECORATIVOS, ASÍ COMO CUALESQUIERA INSTALACIONES, ELEMENTOS O SERVICIOS DE LAS EDIFICACIONES; LA IMPORTACIÓN, EXPORTACIÓN, REPRESENTACIÓN, DISTRIBUCIÓN, EXPLOTACIÓN Y COMERCIALIZACIÓN DE PRODUCTOS ELABORADOS Y SEMIELABORADOS, ARTÍCULOS, BIENES, MERCADERÍAS, EQUIPOS INDUSTRIALES, MAQUINARIA, HERRAMIENTAS, UTILLAJES, REPUESTOS, ALIMENTOS DE CONSUMO HUMANO Y ANIMAL. M) LA ADQUISICIÓN, CESIÓN, TENENCIA, DISFRUTE, ADMINISTRACIÓN, GESTIÓN Y NEGOCIACIÓN EN GENERAL DE VALORES MOBILIARIOS E INMUEBLES; TODO ELLO SIN INCLUIR EN LAS ACTIVIDADES U OPERACIONES REGULADAS POR LA LEGISLACIÓN DE INSTITUCIONES DE INVERSIÓN COLECTIVA Y LEY DE MERCADO DE VALORES. N) LA PRESTACIÓN DE SERVICIOS PROFESIONALES DE ASESORÍA DE EMPRESAS EN GENERAL, Y EN PARTICULAR, DE ASESORAMIENTO Y GESTIÓN FISCAL, ASESORAMIENTO Y GESTIÓN CONTABLE, ASESORAMIENTO Y GESTIÓN EN MATERIA LABORAL, ASESORÍA JURÍDICA, SERVICIOS DE COBRO DE CRÉDITOS MOROSOS, VALORACIÓN DE EMPRESAS, ESTUDIO Y REDACCIÓN DE ESTATUTOS PARA LA CONSTITUCIÓN DE ENTIDADES DE CUALQUIER NATURALEZA, ESTUDIO Y REDACCIÓN DE ESTATUTOS PARA LA CONSTITUCIÓN DE ENTIDADES DE CUALQUIER NATURALEZA, ESTUDIO Y REDACCIÓN DE PLANES DE VIABILIDAD, ESTUDIO DE TRAMITACIÓN DE SUBVENCIONES, CRÉDITOS Y OTRAS AYUDAS FINANCIERAS DE LOS ORGANISMOS DEL ESTADO CENTRAL, DEL GOBIERNO VASCO Y DE LAS DIPUTACIONES FORALES, DE TODO TIPO DE ENTIDADES PÚBLICAS Y PRIVADAS, PARA TODO TIPO DE EMPRESAS; Y, EN CONCRETO, LA PRESTACIÓN DE SERVICIOS DE VERIFICACIONES REGISTRALES, INFORMES COMERCIALES, GRABACIONES DE DATOS Y RECOBROS. O) LA INVESTIGACIÓN Y EL DESARROLLO DE TÉCNICAS ENERGÉTICAS, ACÚSTICAS, ELECTRÓNICAS Y, EN GENERAL, TODA CLASE DE ASISTENCIAS O SERVICIOS RELACIONADOS CON LA INFORMÁTICA. LA REPRESENTACIÓN COMO AGENTE, COMISIONISTA, DELEGADO O CUALQUIER OTRA FORMA DE MEDIACIÓN MERCANTIL DE EMPRESAS NACIONALES O EXTRANJERAS, DE TODA ÍNDOLE, ASÍ COMO LA EXPLOTACIÓN DE PATENTES, Y DEMÁS DERECHOS DE PROPIEDAD, INDUSTRIA, INCLUIDOS LOS MÉTODOS, PROCEDIMIENTOS Y ORGANIZACIÓN DE TRABAJOS INDUSTRIALES, COMERCIALES O DE OTRA ÍNDOLE. P) LA FORMACIÓN E INFORMACIÓN DE TODO TIPO DE PERSONAS MEDIANTE CURSOS, SEMINARIOS, JORNADAS, TANTO DE PRESENCIA COMO A DISTANCIA EN CUALQUIER MATERIA, ASÍ COMO LA EDICIÓN DE TEXTOS Y LIBROS ENCUADERNADOS A TAL FIN, REVISTAS Y CUALQUIER OTRO MEDIO DE DIFUSIÓN QUE CONSIDERE IDÓNEO PARA SUS FINES; LA GESTIÓN, CREACIÓN, TOMA DE PARTICIPACIONES Y ASESORAMIENTO DE TODO TIPO DE EMPRESAS, CONSULTORÍA, GESTIÓN, DISTRIBUCIÓN, IMPORTACIÓN Y EXPORTACIÓN DE TODO TIPO DE PRODUCTOS CONEXOS CON DICHAS ACTIVIDADES DE FORMACIÓN, INFORMACIÓN Y ASESORAMIENTO. Q) LA COMPRA, TENENCIA, ENAJENACIÓN Y EXPLOTACIÓN, INCLUSO EN EXCLUSIVA POR Y A FAVOR DE LA SOCIEDAD, DE TÍTULOS, VALORES, ACCIONES, BONOS, OBLIGACIONES, PATENTES, LICENCIAS, MARCAS, RÓTULOS, NOMBRES COMERCIALES Y TODA CLASE DE PERTENENCIAS DE PROPIEDAD INDUSTRIAL O INTELECTUAL, Y CUALESQUIERA OTRA CLASE DE BIENES MUEBLES; TODO ELLO SIN INCIDIR EN LAS ACTIVIDADES U OPERACIONES REGULADAS POR LA LEGISLACIÓN DE INSTITUCIONES DE INVERSIÓN COLECTIVA Y LEY DE MERCADO DE VALORES. R) LA CONSTITUCIÓN CON LA CONCURRENCIA DE OTRAS PERSONAS E INDIVIDUALMENTE, EN SU CASO DE TODA CLASE DE SOCIEDADES MERCANTILES, LA PARTICIPACIÓN EN OTRAS CONSTITUIDAS, PUDIENDO OSTENTAR EN TODAS ELLAS CARGOS DE ADMINISTRACIÓN, DIRECCIÓN O CONTROL MEDIANTE LA OPORTUNA DELEGACIÓN EN PERSONA FÍSICA. S) LOS SERVICIOS LEGALMENTE PERMITIDOS DE MEDIACIÓN, CON BIENES PROPIOS O AJENOS, ASÍ COMO LOS DE CONSIGNACIÓN, REPRESENTACIÓN Y GESTIÓN, INCLUSO DE TODA CLASE DE SUMINISTROS DE PRODUCTOS EN GENERAL, NACIONALES Y EXTRANJEROS, Y LAS ACTIVIDADES DE IMPORTACIÓN Y EXPORTACIÓN",
      "mainEntityOfPage": "https://www.contratacion.euskadi.eus/webkpe00-kperoc/es/ac71aBusquedaRegistrosWar/empresa/07843",
      "_links": {
        "self": {
          "name": "LAST TOUR CONCERTS, SOCIEDAD LIMITADA",
          "href": "https://api.euskadi.eus/procurements/companies/07843"
        }
      }
    },
    {
      "name": "MOTOS EL RUBIO, S.C.",
      "registrationNumber": "09298",
      "identificationNumber": "J01044726",
      "address": "REYES CATOLICOS 5 BJ",
      "location": {
        "postalCode": "01013",
        "municipality": "Vitoria-Gasteiz",
        "county": "Araba/Álava",
        "municipalityId": "059",
        "countyId": "01"
      },
      "economicActivities": [
        {
          "id": "1.654.1",
          "name": "Venta al por menor de vehículos terrestres",
          "_links": {
            "self": {
              "name": "Venta al por menor de vehículos terrestres",
              "href": "https://api.euskadi.eus/procurements/companies/economic-activities/1.654.1"
            }
          }
        }
      ],
      "certificateStartDate": "2024-05-02",
      "certificateEndDate": "2024-10-24",
      "object": "A).- LA VENTA, AL POR MAYOR Y/O MENOR, Y REPARACIÓN DE TODA CLASE DE BICICLETAS Y MOTOCICLETAS, ASÍ COMO DE SUS ACCESORIOS, PIEZAS DE REPUESTO, ETC. B).- LA COMPRA, VENTA, IMPORTACIÓN Y EXPORTACIÓN DE TODO TIPO DE MARCAS Y MODELOS DE VEHÍCULOS A MOTOR O NO, INCLUSO LOS SEÑALADOS EN LA LETRA A), ASÍ COMO DE SUS ACCESORIOS PROPIOS O RELACIONADOS CON ESTA ACTIVIDAD COMERCIAL. C).- LA VENTA APLAZADA Y LA FINANCIACIÓN DE SUS PROPIAS OPERACIONES. D).- CUALESQUIERA OTRA ACTIVIDAD DE LÍCITO COMERCIO, RELACIONADO O NO CON LAS ANTERIORMENTE DESCRITAS, Y SIEMPRE PREVIO ACUERDO SOCIAL TOMADO AL EFECTO.",
      "mainEntityOfPage": "https://www.contratacion.euskadi.eus/webkpe00-kperoc/es/ac71aBusquedaRegistrosWar/empresa/09298",
      "_links": {
        "self": {
          "name": "MOTOS EL RUBIO, S.C.",
          "href": "https://api.euskadi.eus/procurements/companies/09298"
        }
      }
    },
    {
      "name": "ELECTRICIDAD JNA S. COOP.",
      "registrationNumber": "08155",
      "identificationNumber": "F20595047",
      "address": "POLG. TXIRRITA MALEO LOCAL 3H",
      "location": {
        "postalCode": "20100",
        "municipality": "Errenteria",
        "county": "Gipuzkoa",
        "municipalityId": "067",
        "countyId": "20"
      },
      "economicActivities": [
        {
          "id": "1.504.1",
          "name": "Instalaciones eléctricas en general",
          "_links": {
            "self": {
              "name": "Instalaciones eléctricas en general",
              "href": "https://api.euskadi.eus/procurements/companies/economic-activities/1.504.1"
            }
          }
        }
      ],
      "certificateStartDate": "2024-05-02",
      "certificateEndDate": "2024-10-17",
      "object": "ES LA INSTALACIÓN Y MANTENIMIENTO DE REDES ELÉCTRICAS Y TELEFÓNICAS.",
      "mainEntityOfPage": "https://www.contratacion.euskadi.eus/webkpe00-kperoc/es/ac71aBusquedaRegistrosWar/empresa/08155",
      "_links": {
        "self": {
          "name": "ELECTRICIDAD JNA S. COOP.",
          "href": "https://api.euskadi.eus/procurements/companies/08155"
        }
      }
    },
    {
      "name": "ARTEFAKTO ESTUDIO, S.L.",
      "registrationNumber": "07276",
      "identificationNumber": "B95824629",
      "address": "URIORTU 9, 2º B ",
      "location": {
        "postalCode": "48007",
        "municipality": "Bilbao",
        "county": "Bizkaia",
        "municipalityId": "020",
        "countyId": "48"
      },
      "economicActivities": [
        {
          "id": "1.844",
          "name": "Servicios de publicidad, relaciones públicas y similares",
          "_links": {
            "self": {
              "name": "Servicios de publicidad, relaciones públicas y similares",
              "href": "https://api.euskadi.eus/procurements/companies/economic-activities/1.844"
            }
          }
        },
        {
          "id": "1.847",
          "name": "Servicios de consultoría",
          "_links": {
            "self": {
              "name": "Servicios de consultoría",
              "href": "https://api.euskadi.eus/procurements/companies/economic-activities/1.847"
            }
          }
        }
      ],
      "certificateStartDate": "2024-05-01",
      "certificateEndDate": "2024-11-01",
      "object": "A) EL DISEÑO GRÁFICO Y ESTILISMO. B) LA REPRODUCCIÓN DE TEXTOS O IMÁGENES DESTINADAS A LA IMPRESIÓN. C) EL ASESORAMIENTO DE EMPRESAS, COMERCIAL, DE IMAGEN Y MARCAS Y EN GENERAL DE COMUNICACIÓN VISUAL",
      "mainEntityOfPage": "https://www.contratacion.euskadi.eus/webkpe00-kperoc/es/ac71aBusquedaRegistrosWar/empresa/07276",
      "_links": {
        "self": {
          "name": "ARTEFAKTO ESTUDIO, S.L.",
          "href": "https://api.euskadi.eus/procurements/companies/07276"
        }
      }
    }
  ]
}