{
  "totalItems": 9042,
  "totalPages": 905,
  "currentPage": 177,
  "itemsOfPage": 10,
  "items": [
    {
      "name": "GALDAKAUTO, S.L.",
      "registrationNumber": "09652",
      "identificationNumber": "B48996243",
      "address": "IRU BIDE 3",
      "location": {
        "postalCode": "48960",
        "municipality": "Galdakao",
        "county": "Bizkaia",
        "municipalityId": "036",
        "countyId": "48"
      },
      "economicActivities": [
        {
          "id": "1.654.1",
          "name": "Venta al por menor de vehículos terrestres",
          "_links": {
            "self": {
              "name": "Venta al por menor de vehículos terrestres",
              "href": "https://api.euskadi.eus/procurements/companies/economic-activities/1.654.1"
            }
          }
        },
        {
          "id": "1.691.2",
          "name": "Reparación de vehículos automóviles, bicicletas y otros vehículos",
          "_links": {
            "self": {
              "name": "Reparación de vehículos automóviles, bicicletas y otros vehículos",
              "href": "https://api.euskadi.eus/procurements/companies/economic-activities/1.691.2"
            }
          }
        },
        {
          "id": "1.854.1",
          "name": "Alquiler de automóviles sin conductor",
          "_links": {
            "self": {
              "name": "Alquiler de automóviles sin conductor",
              "href": "https://api.euskadi.eus/procurements/companies/economic-activities/1.854.1"
            }
          }
        }
      ],
      "certificateStartDate": "2025-11-05",
      "certificateEndDate": "2026-04-28",
      "object": "A).- LA COMPRAVENTA DE VEHÍCULOS AUTOMÓVILES NUEVOS, ASÍ COMO LA REPARACIÓN DE LOS MISMOS Y LA VENTA DE SUS RECAMBIOS Y ACCESORIOS. B).- LA COMPRAVENTA DE VEHÍCULOS AUTOMÓVILES USADOS DERIVADA DE LA ACTIVIDAD ANTERIOR. C).- EL ARRENDAMIENTO SIN CONDUCTOR, DE VEHÍCULOS AUTOMÓVILES. D).- LA MEDIACIÓN DE SEGUROS.",
      "mainEntityOfPage": "https://www.contratacion.euskadi.eus/webkpe00-kperoc/es/ac71aBusquedaRegistrosWar/empresa/09652",
      "_links": {
        "self": {
          "name": "GALDAKAUTO, S.L.",
          "href": "https://api.euskadi.eus/procurements/companies/09652"
        }
      }
    },
    {
      "name": "EKIRAUTO, S.L.",
      "registrationNumber": "09646",
      "identificationNumber": "B48845010",
      "address": "IRU BIDE 3",
      "location": {
        "postalCode": "48960",
        "municipality": "Galdakao",
        "county": "Bizkaia",
        "municipalityId": "036",
        "countyId": "48"
      },
      "economicActivities": [
        {
          "id": "1.654.1",
          "name": "Venta al por menor de vehículos terrestres",
          "_links": {
            "self": {
              "name": "Venta al por menor de vehículos terrestres",
              "href": "https://api.euskadi.eus/procurements/companies/economic-activities/1.654.1"
            }
          }
        },
        {
          "id": "1.691.2",
          "name": "Reparación de vehículos automóviles, bicicletas y otros vehículos",
          "_links": {
            "self": {
              "name": "Reparación de vehículos automóviles, bicicletas y otros vehículos",
              "href": "https://api.euskadi.eus/procurements/companies/economic-activities/1.691.2"
            }
          }
        }
      ],
      "certificateStartDate": "2025-11-05",
      "certificateEndDate": "2026-04-27",
      "object": "A) . - LA COMPRAVENTA, COMERCIALIZACIÓN Y ALQUILER DE TODO TIPO DE AUTOMÓVILES, SU REPARACIÓN Y MANTENIMIENTO, ASÍ COMO LA COMPRAVENTA TODO TIPO DE PIEZAS DE RECAMBIO Y ACCESORIOS RELACIONADOS CON EL AUTOMÓVIL. B) . - LA RECTIFICACIÓN DE MOTORES, LA FABRICACIÓN DE TODO TIPO DE PIEZAS METÁLICAS, ASÍ COMO LOS RECUBRIMIENTOS ELECTROQUÍMICOS.",
      "mainEntityOfPage": "https://www.contratacion.euskadi.eus/webkpe00-kperoc/es/ac71aBusquedaRegistrosWar/empresa/09646",
      "_links": {
        "self": {
          "name": "EKIRAUTO, S.L.",
          "href": "https://api.euskadi.eus/procurements/companies/09646"
        }
      }
    },
    {
      "name": "GALBIZ NEUMATICOS, S.A.",
      "registrationNumber": "10181",
      "identificationNumber": "A48937643",
      "address": "Polígono Ugaldeguren s/n",
      "location": {
        "postalCode": "48160",
        "municipality": "Derio",
        "county": "Bizkaia",
        "municipalityId": "901",
        "countyId": "48"
      },
      "economicActivities": [
        {
          "id": "1.691.2",
          "name": "Reparación de vehículos automóviles, bicicletas y otros vehículos",
          "_links": {
            "self": {
              "name": "Reparación de vehículos automóviles, bicicletas y otros vehículos",
              "href": "https://api.euskadi.eus/procurements/companies/economic-activities/1.691.2"
            }
          }
        }
      ],
      "certificateStartDate": "2025-11-05",
      "certificateEndDate": "2026-04-30",
      "object": "COMPRAVENTA AL POR MAYOR Y AL POR MENOR DE TODO TIPO DE RECAMBIOS, ACCESORIOS Y NEUMÁTICOS PARA TODO TIPO DE VEHÍCULOS, TURISMOS, FURGONETAS, CAMIONES, TRACTORES Y DEMÁS VEHÍCULOS AUTOMOTRICES. REPARACIÓN Y ASISTENCIA TÉCNICA DEL MISMO TIPO DE VEHÍCULOS, ASÍ COMO LAVADO Y ENGRASE.",
      "mainEntityOfPage": "https://www.contratacion.euskadi.eus/webkpe00-kperoc/es/ac71aBusquedaRegistrosWar/empresa/10181",
      "_links": {
        "self": {
          "name": "GALBIZ NEUMATICOS, S.A.",
          "href": "https://api.euskadi.eus/procurements/companies/10181"
        }
      }
    },
    {
      "name": "JARKATZA MEDIA, S.L.",
      "registrationNumber": "04948",
      "identificationNumber": "B95329173",
      "address": "Bº ZUBIETA, 17 - MODULO B",
      "location": {
        "postalCode": "48330",
        "municipality": "Lemoa",
        "county": "Bizkaia",
        "municipalityId": "055",
        "countyId": "48"
      },
      "economicActivities": [
        {
          "id": "1.504.11",
          "name": "Instalaciones eléctricas en general, redes telegráficas, telefonía, tv, etc",
          "_links": {
            "self": {
              "name": "Instalaciones eléctricas en general, redes telegráficas, telefonía, tv, etc",
              "href": "https://api.euskadi.eus/procurements/companies/economic-activities/1.504.11"
            }
          }
        },
        {
          "id": "1.961.1",
          "name": "Producción de películas cinematográficas (incluso vídeos)",
          "_links": {
            "self": {
              "name": "Producción de películas cinematográficas (incluso vídeos)",
              "href": "https://api.euskadi.eus/procurements/companies/economic-activities/1.961.1"
            }
          }
        }
      ],
      "certificateStartDate": "2025-11-05",
      "certificateEndDate": "2026-04-29",
      "object": "LA CREACIÓN, PRODUCCIÓN Y DISTRIBUCIÓN DE OBRAS AUDIOVISUALES; LA REPRODUCCIÓN Y COMUNICACIÓN PÚBLICA DE DICHAS OBRAS, EN CUALQUIER MEDIO CINEMATOGRÁFICO Y TELEVISIVO; LA DISTRIBUCIÓN EN CUALQUIER FORMATO, INCLUÍDA LA EDICIÓN DE SOPORTES GRÁFICOS O LITERARIOS Y MEDIANTE CUALQUIER SISTEMA DE COMERCIALIZACIÓN, DE OBRAS DE TEATRO Y AUDIOVISUALES, INCLUÍDO EL ALQUILER Y PRÉSTAMOS DE COPIAS; LA ADAPTACIÓN Y TRANSFORMACIÓN DE OBRAS, ESPECIALMENTE LA SINCRONIZACIÓN DE IMÁGENES, LA TRADUCCIÓN, EL SUBTITULADO Y EL DOBLAJE DE LAS MISMAS; LA FABRICACIÓN, COMPRAVENTA, IMPORTACIÓN, EXPORTACIÓN, ARRENDAMIENTO, LEASING Y COMERCIALIZACIÓN EN GENERAL Y POR CUALQUIER MEDIO, DE PRODUCTOS RELACIONADOS CON LA IMAGEN Y EL SONIDO; LA COMPOSICIÓN, REPRODUCCIÓN Y GRABADO DE TEXTOS E IMÁGENES POR CUALQUIER SISTEMA O PROCEDIMIENTO; LA EDICIÓN Y PUBLICACIÓN DE PERIÓDICOS Y REVISTAS,LIBROS Y DISCOS; Y LA COMERCIALIZACIÓN EN GENERAL DE TODA CLASE DE EQUIPOS Y MEDIOS AUDIOVISUALES",
      "mainEntityOfPage": "https://www.contratacion.euskadi.eus/webkpe00-kperoc/es/ac71aBusquedaRegistrosWar/empresa/04948",
      "_links": {
        "self": {
          "name": "JARKATZA MEDIA, S.L.",
          "href": "https://api.euskadi.eus/procurements/companies/04948"
        }
      }
    },
    {
      "name": "TEVA PHARMA, S.L.",
      "registrationNumber": "03189",
      "identificationNumber": "B83959379",
      "address": "ANABEL SEGURA, 11-1º EDIF. ALBATROS B",
      "location": {
        "postalCode": "28108",
        "municipality": "Alcobendas",
        "county": "Madrid",
        "municipalityId": "006",
        "countyId": "28"
      },
      "economicActivities": [
        {
          "id": "1.614.1",
          "name": "Venta al por mayor de productos farmacéuticos y medicamentos",
          "_links": {
            "self": {
              "name": "Venta al por mayor de productos farmacéuticos y medicamentos",
              "href": "https://api.euskadi.eus/procurements/companies/economic-activities/1.614.1"
            }
          }
        }
      ],
      "certificateStartDate": "2025-11-05",
      "certificateEndDate": "2026-05-03",
      "object": "LA FABRICACIÓN, TRATAMIENTO Y COMERCIALIZACIÓN, INCLUYÉNDOSE ACTIVIDADES DE IMPORTACIÓN Y EXPORTACIÓN, DE PRODUCTOS QUÍMICOS Y FARMACÉUTICOS. LA COMPRA, VENTA Y EXPLOTACIÓN DE BIENES INMUEBLES.  LA PARTICIPACIÓN EN NEGOCIOS DESARROLLADOS POR OTROS EMPRESARIOS INDIVIDUALES O SOCIALES, MEDIANTE LA TENENCIA DE ACCIONES O PARTICIPACIONES SOCIALES, MEDIANTE LA TENENCIA DE ACCIONES O PARTICIPACIONES SOCIALES REPRESENTATIVAS DE SU CAPITAL SOCIAL Y CON INTERVENCIÓN EN LA GESTIÓN, ADMINISTRACIÓN, DIRECCIÓN O ASESORAMIENTO DE LOS NEGOCIOS PARTICIPADOS. LA CONCESIÓN, ADQUISICIÓN, EXPLOTACIÓN Y VENTA DE LICENCIAS, PATENTES Y MARCAS ASÍ COMO TODO TIPO DE DERECHOS DE PROPIEDAD INTELECTUAL",
      "mainEntityOfPage": "https://www.contratacion.euskadi.eus/webkpe00-kperoc/es/ac71aBusquedaRegistrosWar/empresa/03189",
      "_links": {
        "self": {
          "name": "TEVA PHARMA, S.L.",
          "href": "https://api.euskadi.eus/procurements/companies/03189"
        }
      }
    },
    {
      "name": "GLOBAL FACTORY, S.L.",
      "registrationNumber": "03730",
      "identificationNumber": "B95100178",
      "address": "C/ NERVIÓN, 3 - 5ª PLANTA",
      "location": {
        "postalCode": "48001",
        "municipality": "Bilbao",
        "county": "Bizkaia",
        "municipalityId": "020",
        "countyId": "48"
      },
      "economicActivities": [
        {
          "id": "1.841",
          "name": "Servicios jurídicos",
          "_links": {
            "self": {
              "name": "Servicios jurídicos",
              "href": "https://api.euskadi.eus/procurements/companies/economic-activities/1.841"
            }
          }
        },
        {
          "id": "1.845",
          "name": "Explotación electrónica por cuenta de terceros",
          "_links": {
            "self": {
              "name": "Explotación electrónica por cuenta de terceros",
              "href": "https://api.euskadi.eus/procurements/companies/economic-activities/1.845"
            }
          }
        },
        {
          "id": "1.932.1",
          "name": "Enseñanza de formación y perfeccionamiento profesional no superior",
          "_links": {
            "self": {
              "name": "Enseñanza de formación y perfeccionamiento profesional no superior",
              "href": "https://api.euskadi.eus/procurements/companies/economic-activities/1.932.1"
            }
          }
        }
      ],
      "certificateStartDate": "2025-11-05",
      "certificateEndDate": "2026-04-30",
      "object": "LA PRESTACIÓN A TODA CLASE DE ENTIDADES Y EMPRESAS PÚBLICAS Y PRIVADAS DE SERVICIOS DE TECNOLOGÍAS DE LA INFORMACIÓN, SERVICIOS DE CONSULTORÍA Y DESARROLLO DE SOFTWARE,  SERVICIOS DE CONSULTORÍA EN EQUIPOS INFORMÁTICOS, SERVICIOS DE PROGRAMACIÓN DE SOFTWARE, SERVICIOS DE INTERNET, SERVICIOS INFORMÁTICOS, SERVICIOS DE APOYO INFORMÁTICO Y DE CONSULTORÍA, SERVICIOS DE ENSAYO Y AUDITORÍA INFORMÁTICA, SERVICIOS JURÍDICOS EN TECNOLOGÍAS DE LA INFORMACIÓN, ASESORÍA JURÍDICO-TECNOLÓGICA, SERVICIOS DE DELEGADO DE PROTECCIÓN DE DATOS “DPD / DPO”, SERVICIOS DE ADECUACIÓN, CONSULTORÍA Y AUDITORÍA AL REGLAMENTO GENERAL DE PROTECCIÓN DE DATOS “RGPD / GDPR”, SERVICIOS DE REPRESENTACIÓN JURÍDICO-TECNOLÓGICA, SERVICIOS DE CERTIFICACIÓN TECNOLÓGICA TIC, SERVICIOS DE ASESORÍA E INFORMACIÓN JURÍDICO-TECNOLÓGICA, SERVICIOS DE CONSULTORÍA EN PROTECCIÓN Y CONTROL DE RIESGOS, SERVICIOS FISCALES DE RENTA PERSONAS FÍSICAS, SERVICIOS DE GESTIÓN DE NÓMINAS, SERVICIOS DE CONSULTORÍA DE RECURSOS HUMANOS, SERVICIOS DE CONSULTORÍA EN GESTIÓN, SERVICIOS DE CONSULTORÍA EN SEGURIDAD INFORMÁTICA, SERVICIOS DE AYUDA EN FUNCIONES DE OFICINA, SERVICIOS DE CENTRALITAS TELEFÓNICAS, CENTRO DE LLAMADAS “CALL CENTER”, SERVICIOS TELEFÓNICOS Y DE TRANSMISIÓN DE DATOS, SERVICIOS DE TELECOMUNICACIONES, SERVICIOS DE IMPRESIÓN Y SERVICIOS CONEXOS, SERVICIOS DE ESCANEO, DIGITALIZACIÓN Y FACTURACIÓN, SERVICIOS DE FORMACIÓN PROFESIONAL EN TIC “TECNOLOGÍAS DE LA INFORMACIÓN Y COMUNICACIÓN”, SERVICIOS DE TRATAMIENTOS DE DATOS, SERVICIOS DE DOCUMENTACIÓN, SERVICIOS DE TRATAMIENTO DE ARCHIVOS, VENTA DE SOFTWARE, HARDWARE Y SUMINISTROS INFORMÁTICOS, SERVICIOS DE PREPARACIÓN DE DECLARACIÓN DE IMPUESTOS, SERVICIOS DE INTERCAMBIO ELECTRÓNICO DE DATOS, SERVICIOS DE ASISTENCIA TÉCNICA, SERVICIOS DE CONSULTARÍA DE SISTEMAS Y CONSULTORÍA TÉCNICA, SERVICIOS DE TELEMÁTICA, SERVICIOS DE CENTRO DE CÁLCULO, SERVICIOS DE AUDITORÍA INFORMÁTICA, SERVICIOS DE BIBLIOTECAS, ARCHIVOS, MUSEOS Y OTROS SERVICIOS CULTURALES, SERVICIOS DE ATENCIÓN AL CLIENTE.\n",
      "mainEntityOfPage": "https://www.contratacion.euskadi.eus/webkpe00-kperoc/es/ac71aBusquedaRegistrosWar/empresa/03730",
      "_links": {
        "self": {
          "name": "GLOBAL FACTORY, S.L.",
          "href": "https://api.euskadi.eus/procurements/companies/03730"
        }
      }
    },
    {
      "name": "AUTOBUSES JUANTXU, S.L.",
      "registrationNumber": "03851",
      "identificationNumber": "B48568935",
      "address": "C7 GOYA, 1 - 4 DCHA.",
      "location": {
        "postalCode": "48902",
        "municipality": "Barakaldo",
        "county": "Bizkaia",
        "municipalityId": "013",
        "countyId": "48"
      },
      "economicActivities": [
        {
          "id": "1.721.3",
          "name": "Transporte de viajeros por carretera",
          "_links": {
            "self": {
              "name": "Transporte de viajeros por carretera",
              "href": "https://api.euskadi.eus/procurements/companies/economic-activities/1.721.3"
            }
          }
        }
      ],
      "certificateStartDate": "2025-11-05",
      "certificateEndDate": "2026-04-26",
      "object": "LA PROMOCIÓN Y GESTIÓN DEL SERVICIO DE TRANSPORTES, TANTO DE VIAJEROS COMO DE MERCANCÍAS, EN CUALQUIERA DE SUS FORMAS Y CON LOS MEDIOS IDÓNEOS PARA TODA CLASE DE TRANSPORTES: SERVICIO DE PAQUETERÍA, MENSAJERÍAS, MUDANZAS DE AJUARES DOMÉSTICOS Y DE MAQUINARIA, TRANSPORTES ESPECIALES, TANTO EN VEHÍCULOS PROPIOS, COMO AJENOS. LA COMPRA, VENTA O ALQUILERES, CON O SIN CONDUCTOR, DE TODA CLASE DE VEHÍCULOS",
      "mainEntityOfPage": "https://www.contratacion.euskadi.eus/webkpe00-kperoc/es/ac71aBusquedaRegistrosWar/empresa/03851",
      "_links": {
        "self": {
          "name": "AUTOBUSES JUANTXU, S.L.",
          "href": "https://api.euskadi.eus/procurements/companies/03851"
        }
      }
    },
    {
      "name": "GEORGE Y MILDRED, S. COOP. PEQUEÑA",
      "registrationNumber": "08951",
      "identificationNumber": "F95649349",
      "address": "av. Juan Antonio Zunzunegui, 5 bis - Departamento1",
      "location": {
        "postalCode": "48013",
        "municipality": "Bilbao",
        "county": "Bizkaia",
        "municipalityId": "020",
        "countyId": "48"
      },
      "economicActivities": [
        {
          "id": "1.844",
          "name": "Servicios de publicidad, relaciones públicas y similares",
          "_links": {
            "self": {
              "name": "Servicios de publicidad, relaciones públicas y similares",
              "href": "https://api.euskadi.eus/procurements/companies/economic-activities/1.844"
            }
          }
        }
      ],
      "certificateStartDate": "2025-11-04",
      "certificateEndDate": "2026-04-16",
      "object": "LA DEDICACIÓN PROFESIONAL, DE MANERA ORGANIZADA Y POR CUENTA DE TERCEROS A CREAR PROYECTOS, DISEÑAR, PROGRAMAS, EJECUTAR Y DISTRIBUIR CAMPAÑAS DE PUBLICIDAD A TRAVÉS DE CUALQUIER MEDIO DE DIFUSIÓN. SE OFRECERÁ AL CLIENTE UNA ASISTENCIA COMPLETA TANTO EN MATERIA DE INVESTIGACIÓN, ESTRATEGIAS DE MERCADOTECNIA, CREATIVIDAD, PLAN DE MEDIOS, PRODUCCIÓN, COSTES, INFORMACIÓN AL SECTOR, FACTURACIÓN Y PAGOS.",
      "mainEntityOfPage": "https://www.contratacion.euskadi.eus/webkpe00-kperoc/es/ac71aBusquedaRegistrosWar/empresa/08951",
      "_links": {
        "self": {
          "name": "GEORGE Y MILDRED, S. COOP. PEQUEÑA",
          "href": "https://api.euskadi.eus/procurements/companies/08951"
        }
      }
    },
    {
      "name": "HARA DISEINU PRODUKZIOAK, S.L.",
      "registrationNumber": "09068",
      "identificationNumber": "B75218008",
      "address": "Elutx 13 Behea-A",
      "location": {
        "postalCode": "20170",
        "municipality": "Usurbil",
        "county": "Gipuzkoa",
        "municipalityId": "073",
        "countyId": "20"
      },
      "economicActivities": [
        {
          "id": "3.019",
          "name": "Otras actividades relacionadas con el cine, el teatro y el circo",
          "_links": {
            "self": {
              "name": "Otras actividades relacionadas con el cine, el teatro y el circo",
              "href": "https://api.euskadi.eus/procurements/companies/economic-activities/3.019"
            }
          }
        }
      ],
      "certificateStartDate": "2025-11-04",
      "certificateEndDate": "2026-05-04",
      "object": "EL DISEÑO Y CONSTRUCCIÓN DE ESCENOGRAFÍA, DECORADOS PARA TELEVISIÓN, CINE, TEATRO, DISEÑO DE EXPOSICIONES, STANDS DE FERIA, INSTALACIONES EFÍMERAS Y OTROS. ATREZZADO Y AMBIENTACIÓN DE ESCENOGRAFÍAS Y DECORADOS. DISEÑO GRÁFICO, INFOGRAFÍA 3D.",
      "mainEntityOfPage": "https://www.contratacion.euskadi.eus/webkpe00-kperoc/es/ac71aBusquedaRegistrosWar/empresa/09068",
      "_links": {
        "self": {
          "name": "HARA DISEINU PRODUKZIOAK, S.L.",
          "href": "https://api.euskadi.eus/procurements/companies/09068"
        }
      }
    },
    {
      "name": "ESPARZA ARQUITECTURA Y REHABILITACION SOSTENIBLE, S.L.P.",
      "registrationNumber": "08875",
      "identificationNumber": "B01479310",
      "address": "PLAZA AMÁRICA, Nº3 - BAJO",
      "location": {
        "postalCode": "01005",
        "municipality": "Vitoria-Gasteiz",
        "county": "Araba/Álava",
        "municipalityId": "059",
        "countyId": "01"
      },
      "economicActivities": [
        {
          "id": "1.843.2",
          "name": "Servicios técnicos de arquitectura y urbanismo",
          "_links": {
            "self": {
              "name": "Servicios técnicos de arquitectura y urbanismo",
              "href": "https://api.euskadi.eus/procurements/companies/economic-activities/1.843.2"
            }
          }
        }
      ],
      "certificateStartDate": "2025-11-04",
      "certificateEndDate": "2026-05-04",
      "object": "LA MEDIACIÓN Y COORDINACIÓN DE SERVICIOS DE ARQUITECTURA Y URBANISMO; TASACIONES INMOBILIARIAS; COORDINACIONES DE SEGURIDAD Y SALUD; PROJECT MANAGEMENT; COORDINACIÓN DE GREMIOS (CNAE 7111).",
      "mainEntityOfPage": "https://www.contratacion.euskadi.eus/webkpe00-kperoc/es/ac71aBusquedaRegistrosWar/empresa/08875",
      "_links": {
        "self": {
          "name": "ESPARZA ARQUITECTURA Y REHABILITACION SOSTENIBLE, S.L.P.",
          "href": "https://api.euskadi.eus/procurements/companies/08875"
        }
      }
    }
  ]
}