{
  "totalItems": 9042,
  "totalPages": 905,
  "currentPage": 116,
  "itemsOfPage": 10,
  "items": [
    {
      "name": "KAIZENGESTION SLU",
      "registrationNumber": "06519",
      "identificationNumber": "B01526045",
      "address": "Pedro Asua, 69",
      "location": {
        "postalCode": "01008",
        "municipality": "Vitoria-Gasteiz",
        "county": "Araba/Álava",
        "municipalityId": "059",
        "countyId": "01"
      },
      "economicActivities": [
        {
          "id": "1.847",
          "name": "Servicios de consultoría",
          "_links": {
            "self": {
              "name": "Servicios de consultoría",
              "href": "https://api.euskadi.eus/procurements/companies/economic-activities/1.847"
            }
          }
        },
        {
          "id": "1.966.9",
          "name": "Otros servicios culturales n.c.o.p",
          "_links": {
            "self": {
              "name": "Otros servicios culturales n.c.o.p",
              "href": "https://api.euskadi.eus/procurements/companies/economic-activities/1.966.9"
            }
          }
        }
      ],
      "certificateStartDate": "2025-12-16",
      "certificateEndDate": "2026-06-10",
      "object": "LA PRESTACIÓN Y REALIZACIÓN DE CUALESQUIERA SERVICIOS Y ACTIVIDADES RELACIONADOS CON LA CULTURA, MEDIO AMBIENTE, DESARROLLO REGIONAL Y LOCAL, COOPERACIÓN AL DESARROLLO, PATRIMONIO ARTÍSTICO, HISTÓRICO, NATURALÍSTICO Y CULTURAL, TURISMO, EDUCACIÓN, NUEVAS TECNOLOGÍAS Y FORMACIÓN, INCLUIDOS SU GESTIÓN Y ADMINISTRACIÓN BAJO CUALQUIER MODALIDAD. EL DISEÑO, ARTICULACIÓN, IMPLANTACIÓN, LIDERAZGO, PARTICIPACIÓN, SEGUIMIENTO, CONTROL, EVALUACIÓN, GESTIÓN, SUPERVISIÓN, CONSULTORÍA Y FISCALIZACIÓN DE TODO TIPO DE PROYECTOS RELACIONADOS CON LOS CAMPOS ANTERIORES, TANTO DE ÁMBITO NACIONAL COMO INTERNACIONAL. LA GESTIÓN DE RECURSOS NATURALES Y CULTURALES, LA PRESTACIÓN DE SERVICIOS ADMINISTRATIVOS, PORTERÍA, CONTROL DE ACCESOS, VIGILANCIA, LIMPIEZA, MANTENIMIENTO, INFORMACIÓN AL PÚBLICO, REALIZACIÓN DE ACTIVIDADES CIENTÍFICAS, DIVULGATIVAS Y FORMATIVAS EN EQUIPAMIENTOS DE CARÁCTER CULTURAL, MUSEÍSTICO, ARTÍSTICO, ARCHIVÍSTICO, HISTÓRICO, AMBIENTAL, TURÍSTICO, DEPORTIVO, FORMATIVO, ASOCIATIVO Y OTRAS DOTACIONES SIMILARES, ASÍ COMO EN ESPACIOS NATURALES Y CULTURALES.LA ORGANIZACIÓN DE CONGRESOS, JORNADAS, EVENTOS, FERIAS, EXPOSICIONES Y SIMILARES EN LOS ÁMBITOS MENCIONADOS",
      "mainEntityOfPage": "https://www.contratacion.euskadi.eus/webkpe00-kperoc/es/ac71aBusquedaRegistrosWar/empresa/06519",
      "_links": {
        "self": {
          "name": "KAIZENGESTION SLU",
          "href": "https://api.euskadi.eus/procurements/companies/06519"
        }
      }
    },
    {
      "name": "PKF ATTEST ITC, S.L.",
      "registrationNumber": "03613",
      "identificationNumber": "B95187290",
      "address": "ALAMEDA RECALDE, 36 - 8º ",
      "location": {
        "postalCode": "48009",
        "municipality": "Bilbao",
        "county": "Bizkaia",
        "municipalityId": "020",
        "countyId": "48"
      },
      "economicActivities": [
        {
          "id": "1.659.2",
          "name": "Venta al por menor de muebles de oficina y máquinas y equipos de oficina",
          "_links": {
            "self": {
              "name": "Venta al por menor de muebles de oficina y máquinas y equipos de oficina",
              "href": "https://api.euskadi.eus/procurements/companies/economic-activities/1.659.2"
            }
          }
        },
        {
          "id": "1.845",
          "name": "Explotación electrónica por cuenta de terceros",
          "_links": {
            "self": {
              "name": "Explotación electrónica por cuenta de terceros",
              "href": "https://api.euskadi.eus/procurements/companies/economic-activities/1.845"
            }
          }
        },
        {
          "id": "1.847",
          "name": "Servicios de consultoría",
          "_links": {
            "self": {
              "name": "Servicios de consultoría",
              "href": "https://api.euskadi.eus/procurements/companies/economic-activities/1.847"
            }
          }
        },
        {
          "id": "1.932.2",
          "name": "Enseñanza de formación y perfeccionamiento profesional superior",
          "_links": {
            "self": {
              "name": "Enseñanza de formación y perfeccionamiento profesional superior",
              "href": "https://api.euskadi.eus/procurements/companies/economic-activities/1.932.2"
            }
          }
        }
      ],
      "certificateStartDate": "2025-12-16",
      "certificateEndDate": "2026-05-23",
      "object": "1.-LA PROMOCIÓN, DIFUSIÓN Y PRESTACIÓN DE SERVICIOS AVANZADOS DE TELECOMUNICACIONES Y DE TRATAMIENTO DE LA INFORMAICÓN. PARA LA CONSECUCIÓN DE ESTE OBJETIVO LA SOCIEDAD OFRECE SERVICIOS DE INFORMACIÓN, FORMACIÓN, ASESORAMIENTO, DIFUSIÓN, INFRAESTRUCTURA Y SERVICIOS BASADOS EN LOS PROCEDIMIENTOS Y TECNOLOGÍAS MÁS AVANZADAS, ENTENDIENDO COMO TALES Y SOLO A TÍTULO ENUNCIATIVO, EL CORREO ELECTRÓNICO, LA MENSAJERÍA DE VOZ ELECTRÓNICA, ACCESOS A BASES DE DATOS, AUDIOVIDEOCONFERENCIA, INTERCAMBIO Y TRANSFERENCIA ELECTRÓNICA DE INFORMAICÓN Y DE DATOS, TECNOLOGÍA INTERNET, ETC. 2.- ADQUIRIR, ENAJENAR Y ARRENDAR BIENES INMUEBLES (CONCRETAMIENTE LOS DETERMINADOS EN EL ARTÍCULO 334.1 DEL CÓDIGO CIVIL), ACCIONES PARTICIPACIONES SOCIALES, OBLIGACIONES, BONOS DE CAJA, CERTIFICADOS DE DEPÓSITO Y PAGARÉS DE TODA CLASE DE EMPRESAS O NEGOCIOS",
      "mainEntityOfPage": "https://www.contratacion.euskadi.eus/webkpe00-kperoc/es/ac71aBusquedaRegistrosWar/empresa/03613",
      "_links": {
        "self": {
          "name": "PKF ATTEST ITC, S.L.",
          "href": "https://api.euskadi.eus/procurements/companies/03613"
        }
      }
    },
    {
      "name": "MALLA TALUD CANTABRIA, S.L.",
      "registrationNumber": "10478",
      "identificationNumber": "B39414487",
      "address": "Alfonso Álvarez Miranda, 25",
      "location": {
        "postalCode": "39408",
        "municipality": "Corrales de Buelna, Los",
        "county": "Cantabria",
        "municipalityId": "025",
        "countyId": "39"
      },
      "economicActivities": [
        {
          "id": "1.503.2",
          "name": "Preparación y montaje de estructuras y cubiertas en obras civiles",
          "_links": {
            "self": {
              "name": "Preparación y montaje de estructuras y cubiertas en obras civiles",
              "href": "https://api.euskadi.eus/procurements/companies/economic-activities/1.503.2"
            }
          }
        }
      ],
      "certificateStartDate": "2025-12-16",
      "certificateEndDate": "2026-06-16",
      "object": "LA CONSTRUCCIÓN COMPLETA, REPARACIÓN Y CONSERVACIÓN DE EDIFICACIONES Y OBRAS CIVILES.",
      "mainEntityOfPage": "https://www.contratacion.euskadi.eus/webkpe00-kperoc/es/ac71aBusquedaRegistrosWar/empresa/10478",
      "_links": {
        "self": {
          "name": "MALLA TALUD CANTABRIA, S.L.",
          "href": "https://api.euskadi.eus/procurements/companies/10478"
        }
      }
    },
    {
      "name": "A.M.A., AGRUPACION MUTUAL ASEGURADORA, MUTUA DE SEGUROS A PRIMA FIJA",
      "registrationNumber": "10477",
      "identificationNumber": "G28177657",
      "address": "Calle Vía de los Poblados nº3; Parque Empresarial Cristalia; Edificio 4. ",
      "location": {
        "postalCode": "28033",
        "municipality": "Madrid",
        "county": "Madrid",
        "municipalityId": "079",
        "countyId": "28"
      },
      "economicActivities": [
        {
          "id": "1.823",
          "name": "Otras entidades aseguradoras (montepíos, cajas de pensiones)",
          "_links": {
            "self": {
              "name": "Otras entidades aseguradoras (montepíos, cajas de pensiones)",
              "href": "https://api.euskadi.eus/procurements/companies/economic-activities/1.823"
            }
          }
        },
        {
          "id": "1.844",
          "name": "Servicios de publicidad, relaciones públicas y similares",
          "_links": {
            "self": {
              "name": "Servicios de publicidad, relaciones públicas y similares",
              "href": "https://api.euskadi.eus/procurements/companies/economic-activities/1.844"
            }
          }
        },
        {
          "id": "1.861.2",
          "name": "Alquiler de locales industriales y otros alquileres n.c.o.p",
          "_links": {
            "self": {
              "name": "Alquiler de locales industriales y otros alquileres n.c.o.p",
              "href": "https://api.euskadi.eus/procurements/companies/economic-activities/1.861.2"
            }
          }
        }
      ],
      "certificateStartDate": "2025-12-16",
      "certificateEndDate": "2026-06-02",
      "object": "LA PRÁCTICA DE LOS SIGUIENTES RAMOS DE SEGUROS AUTORIZADOS POR LA LEGISLACIÓN VIGENTE, SIN QUE TALES OPERACIONES SEAN OBJETO DE INDUSTRIA: ACCIDENTES – RAMO I, VEHÍCULOS TERRESTRES NO FERROVIARIOS.",
      "mainEntityOfPage": "https://www.contratacion.euskadi.eus/webkpe00-kperoc/es/ac71aBusquedaRegistrosWar/empresa/10477",
      "_links": {
        "self": {
          "name": "A.M.A., AGRUPACION MUTUAL ASEGURADORA, MUTUA DE SEGUROS A PRIMA FIJA",
          "href": "https://api.euskadi.eus/procurements/companies/10477"
        }
      }
    },
    {
      "name": "AKO MARKETING, S.L.",
      "registrationNumber": "04875",
      "identificationNumber": "B95627725",
      "address": "Urzabal, 1Avenida Zugazarte, 32 Piso 1º, puerta 14 ",
      "location": {
        "postalCode": "48930",
        "municipality": "Getxo",
        "county": "Bizkaia",
        "municipalityId": "044",
        "countyId": "48"
      },
      "economicActivities": [
        {
          "id": "1.845",
          "name": "Explotación electrónica por cuenta de terceros",
          "_links": {
            "self": {
              "name": "Explotación electrónica por cuenta de terceros",
              "href": "https://api.euskadi.eus/procurements/companies/economic-activities/1.845"
            }
          }
        }
      ],
      "certificateStartDate": "2025-12-16",
      "certificateEndDate": "2026-05-30",
      "object": "LA ORGANIZACIÓN Y GESTIÓN INTEGRAL DE EVENTOS CULTURALES, SOCIALES, ACADÉMICOS Y ESPECTÁCULOS, EN SUS  MÁS AMPLIOS TÉRMINOS, TALES COMO CONVENCIONES, REUNIONES, COMPETICIONES DEPORTIVAS, CONCENTRACIONES, ETC.; LA GESTIÓN, DIRECTA O INDIRECTA, DE PATROCINIOS DE EVENTOS CULTURALES, SOCIALES, ACADÉMICOS, DEPORTIVOS; LA GESTIÓN, DE FORMA DIRECTA O INDIRECTA, DE INSTALACIONES O ESPACIOS CULTURALES, TALES COMO TEATROS, SALAS DE EXPOSICIONES Y CONGRESOS, INSTALACIONES DEPORTIVAS, POLIDEPORTIVOS, ETC., ARTICULANDO LOS MEDIOS MATERIALES Y PERSONALES PARA ELLO; LA ACTIVIDAD DE RELACIONES PÚBLICOAS Y COMUNICACIÓN, PUBLICIDAD E IMAGEN; ORGANIZACIÓN Y GESTIÓN DE CURSO DE FORMACIÓN PARA DIRECTIVOS Y PROFESIONALES ASÍ COMO LA ORGANIZACIÓN Y VENTA DE VIAJES; LA ADQUISICIÓN, TENENCIA Y ADMINISTRACIÓN DE VALORES, ACCIONES O PARTICIPACIONES EN SOCIEDADES CIVILES O MERCANTILES. LA PLANIFICACIÓN INTEGRA E IMPLATACIÓN DE PLANES DE COMUNICACIÓN Y RELACIONES PÚBLICAS ON LINE Y OFF LINE;GESTIÓN DE REDES SOCIALES, CREACIÓN Y MANTENIMIENTO DE BLOGS; DISEÑO GRÁFICO; COMUNICACIÓN INSTITUCIONAL; MARKETING DE CONTENIDOS; CREACIÓN Y MANTENIMIENTO DE WEBS Y GESTIÓN DE CONTENIDOS; GABINETE DE PRENSA; ELABORACIÓN DE CONTENIDOS AUDIOVISUALES; COMUNICACIÓN INTERNA; Y, ASESORAMIENTO EN EL AMBITO DE LA COMUNICACIÓN. EL ASESORAMIENTO TÉCNICO, ECONÓMICO, FINANCIERO, CONSULTORIA Y EN GENERAL LA PRESTACIÓN DE SERVICIOS DE APOYO A SOCIEDADES CUYO OBJETO SOCIAL SEA CUALQUIER ACTIVIDAD DE CARÁCTER INFORMÁTICO, DE TELECOMUNICACIONES O DE DESARROLLO DE NUEVAS TECNOLOGÍAS, INCLUIDAS LA CONSULTORÍA, LAS AREAS DE SOFTWARE Y HARDWARE, TODAS LAS TAREAS Y SERVICIOS RELACIONADOS CON LA ORGANIZACIÓN DE EMPRESAS, LA REALIZACIÓN DE ESTUDIOS, TRABAJOS Y APLICACIONES INFORMÁTICAS, LA APROBACIÓN DE TODA GAMA DE SERVICIOS RELACIONADOS CON EL PROCESAMIENTO DE LA INFORMACIÓN TALES COMO CONSULTORÍA, ANÁLISIS, PROGRAMACIÓN, IMPLATACIÓN, GRABACIÓN O CUALQUIER OTRO; LA SELECCIÓN Y FORMACIÓN DE PERSONAL INFORMÁTICO, EL ASESORAMIENTO INFORMÁTICO A EMPRESAS, ORGANISMOS E INSTITUCIONES, ASÍ COMO LA REALIZACIÓN DE CHEQUEOS, AUDITORIAS Y REVISIONES INFORMÁTICAS",
      "mainEntityOfPage": "https://www.contratacion.euskadi.eus/webkpe00-kperoc/es/ac71aBusquedaRegistrosWar/empresa/04875",
      "_links": {
        "self": {
          "name": "AKO MARKETING, S.L.",
          "href": "https://api.euskadi.eus/procurements/companies/04875"
        }
      }
    },
    {
      "name": "AINHOA DEL RIO BARDECI",
      "registrationNumber": "10476",
      "identificationNumber": "72744245Y",
      "address": "Bulevar De Salburua 8, 2A",
      "location": {
        "postalCode": "01002",
        "municipality": "Vitoria-Gasteiz",
        "county": "Araba/Álava",
        "municipalityId": "059",
        "countyId": "01"
      },
      "economicActivities": [
        {
          "id": "2.421",
          "name": "Arquitectos técnicos y aparejadores",
          "_links": {
            "self": {
              "name": "Arquitectos técnicos y aparejadores",
              "href": "https://api.euskadi.eus/procurements/companies/economic-activities/2.421"
            }
          }
        }
      ],
      "certificateStartDate": "2025-12-15",
      "certificateEndDate": "2026-06-12",
      "object": "ARQUITECTOS TÉCNICOS Y APAREJADORES.",
      "mainEntityOfPage": "https://www.contratacion.euskadi.eus/webkpe00-kperoc/es/ac71aBusquedaRegistrosWar/empresa/10476",
      "_links": {
        "self": {
          "name": "AINHOA DEL RIO BARDECI",
          "href": "https://api.euskadi.eus/procurements/companies/10476"
        }
      }
    },
    {
      "name": "ALQUILERES MAX DURANGO, S.L.",
      "registrationNumber": "10475",
      "identificationNumber": "B95114294",
      "address": "POLIGONO INDUSTRIAL EITUA, 71-C",
      "location": {
        "postalCode": "48240",
        "municipality": "Berriz",
        "county": "Bizkaia",
        "municipalityId": "019",
        "countyId": "48"
      },
      "economicActivities": [
        {
          "id": "1.852",
          "name": "Alquiler de maquinaria y equipo para la construcción",
          "_links": {
            "self": {
              "name": "Alquiler de maquinaria y equipo para la construcción",
              "href": "https://api.euskadi.eus/procurements/companies/economic-activities/1.852"
            }
          }
        }
      ],
      "certificateStartDate": "2025-12-15",
      "certificateEndDate": "2026-06-11",
      "object": "EL ALQUILER, COMPRAVENTA, IMPORTACIÓN, EXPORTACIÓN, SUMINISTRO, FABRICACIÓN, INTERMEDIACIÓN, TRANSPORTE, INSTALACIÓN, CONTROL Y VERIFICACIÓN, SERVICIOS AUXILIARES, REPARACIÓN Y MANTENIMIENTO DE MAQUINARIA, ANDAMIAJE, VEHÍCULOS, ELEMENTOS DE AISLAMIENTO E IMPERMEABILIZACIÓN, MATERIALES, ELEMENTOS DE CERRAMIENTO, CIMBRA Y ENCOFRADO, COMPLEMENTOS, ÚTILES Y ACCESORIOS PARA LA CONSTRUCCIÓN, OBRAS PÚBLICAS, ACTIVIDADES INDUSTRIALES, COMERCIALES Y DE SERVICIOS. ASIMISMO TENDRÁ POR OBJETO LA PROMOCIÓN Y EJECUCIÓN, COMPLETA O POR RAMOS, DE TODA CLASE DE OBRAS DE CONSTRUCCIÓN, URBANIZACIÓN, REPARACIÓN, URBANIZACIÓN O SERVICIOS, POR CUENTA PROPIA O AJENA, UTILIZANDO MEDIOS PROPIOS O AJENOS, DE TODA CLASE DE EDIFICACIONES.",
      "mainEntityOfPage": "https://www.contratacion.euskadi.eus/webkpe00-kperoc/es/ac71aBusquedaRegistrosWar/empresa/10475",
      "_links": {
        "self": {
          "name": "ALQUILERES MAX DURANGO, S.L.",
          "href": "https://api.euskadi.eus/procurements/companies/10475"
        }
      }
    },
    {
      "name": "CARMELO FERNÁNDEZ LEÓN",
      "registrationNumber": "06444",
      "identificationNumber": "15827689D",
      "address": "C/ castillar nº 18",
      "location": {
        "postalCode": "31392",
        "municipality": "Pitillas",
        "county": "Navarra",
        "municipalityId": "205",
        "countyId": "31"
      },
      "economicActivities": [
        {
          "id": "2.011",
          "name": "Doctores y licenciados en ciencias biológicas",
          "_links": {
            "self": {
              "name": "Doctores y licenciados en ciencias biológicas",
              "href": "https://api.euskadi.eus/procurements/companies/economic-activities/2.011"
            }
          }
        }
      ],
      "certificateStartDate": "2025-12-13",
      "certificateEndDate": "2026-06-13",
      "object": "DOCTORES Y LICENCIADOS EN BIOLOGÍA",
      "mainEntityOfPage": "https://www.contratacion.euskadi.eus/webkpe00-kperoc/es/ac71aBusquedaRegistrosWar/empresa/06444",
      "_links": {
        "self": {
          "name": "CARMELO FERNÁNDEZ LEÓN",
          "href": "https://api.euskadi.eus/procurements/companies/06444"
        }
      }
    },
    {
      "name": "CONSTRUCCIONES ZABALANDI SL",
      "registrationNumber": "02311",
      "identificationNumber": "B48534317",
      "address": "C/ ARTUNDUAGA Nº 10 BAJO. POL. ARTUNDUAGA",
      "location": {
        "postalCode": "48970",
        "municipality": "Basauri",
        "county": "Bizkaia",
        "municipalityId": "015",
        "countyId": "48"
      },
      "economicActivities": [
        {
          "id": "1.501.1",
          "name": "Construcción completa, reparación y conservación de edificaciones",
          "_links": {
            "self": {
              "name": "Construcción completa, reparación y conservación de edificaciones",
              "href": "https://api.euskadi.eus/procurements/companies/economic-activities/1.501.1"
            }
          }
        },
        {
          "id": "1.501.2",
          "name": "Construcción completa, reparación y conservación obras civiles",
          "_links": {
            "self": {
              "name": "Construcción completa, reparación y conservación obras civiles",
              "href": "https://api.euskadi.eus/procurements/companies/economic-activities/1.501.2"
            }
          }
        }
      ],
      "certificateStartDate": "2025-12-13",
      "certificateEndDate": "2026-06-11",
      "object": "A) LA COMPRAVENTA DE INMUEBLES Y SOLARES; SU ACONDICIONAMIENTO, URBANIZACIÓN Y PARCELACIÓN; LA CONSTRUCCIÓN, YA POR SÍ O POR MEDIO DE TERCEROS, DE TODA CLASE DE EDIFICIOS, INCLUSO DE PROTECCIÓN OFICIAL, LA EXPLOTACIÓN Y ENAJENACIÓN DE ÉSTOS, MEDIANTE ARRIENDO Y OTRO TÍTULO CUALQUIERA, YA SEA EN CONJUNTO O POR LOCALES INDEPENDIENTES; LA EJECUCIÓN DE TODA CLASE DE OBRAS; B) LA PROMOCIÓN Y EJECUCIÓN COMPLETA O POR RAMOS DE TODA CLASE DE EDIFICIOS  DE CONSTRUCCIÓN, REPARACIÓN O CONSERVACIÓN POR CUENTA PROPIA O AJENA; C) LA COMPRAVENTA Y ALQUILER DE EDIFICACIONES EN SU TOTALIDAD, POR PARTE O POR PISOS, BIEN PARA VIVIENDAS O PARA LOCALES DE NEGOCIO O INDUSTRIALES, CONSTRUIDAS PARA TAL FIN DIRECTAMENTE O POR MEDIO DE CONTRATISTAS, SUBCONTRATISTAS Y DESTAJISTAS O BIEN ADQUIRIDAS YA CONSTRUIDAS O EN CONSTRUCCIÓN; D) COMPRAVENTA Y ALQUILER DE TERRENOS RÚSTICOS; F) EJECUCIÓN  COMPLETA, CONSERVACIÓN Y MANTENIMIENTO DE TODO TIPO DE OBRAS DE EDIFICACIÓN Y ASÍ COMO CUALQUIER CLASE DE OBRAS CIVILES Y DE TODO TIPO DE INSTALACIONES TANTO PÚBLICAS COMO PRIVADAS, Y POR CUENTA PROPIA O DE TERCEROS. ",
      "mainEntityOfPage": "https://www.contratacion.euskadi.eus/webkpe00-kperoc/es/ac71aBusquedaRegistrosWar/empresa/02311",
      "_links": {
        "self": {
          "name": "CONSTRUCCIONES ZABALANDI SL",
          "href": "https://api.euskadi.eus/procurements/companies/02311"
        }
      }
    },
    {
      "name": "RICARDO GARCIA MARTINEZ DE IBARRETA",
      "registrationNumber": "09957",
      "identificationNumber": "16264352V",
      "address": "Plaza Heraclio Fournier,12-bajo (01006)",
      "location": {
        "postalCode": "01006",
        "municipality": "Vitoria-Gasteiz",
        "county": "Araba/Álava",
        "municipalityId": "059",
        "countyId": "01"
      },
      "economicActivities": [
        {
          "id": "2.826",
          "name": "Personal docente de enseñanzas diversas",
          "_links": {
            "self": {
              "name": "Personal docente de enseñanzas diversas",
              "href": "https://api.euskadi.eus/procurements/companies/economic-activities/2.826"
            }
          }
        }
      ],
      "certificateStartDate": "2025-12-13",
      "certificateEndDate": "2026-06-11",
      "object": "PERSONAL DOCENTE DE ENSEÑANZAS DIVERSAS.",
      "mainEntityOfPage": "https://www.contratacion.euskadi.eus/webkpe00-kperoc/es/ac71aBusquedaRegistrosWar/empresa/09957",
      "_links": {
        "self": {
          "name": "RICARDO GARCIA MARTINEZ DE IBARRETA",
          "href": "https://api.euskadi.eus/procurements/companies/09957"
        }
      }
    }
  ]
}