{
  "totalItems": 9042,
  "totalPages": 905,
  "currentPage": 715,
  "itemsOfPage": 10,
  "items": [
    {
      "name": "RECYOIL ENERGY, S.L.",
      "registrationNumber": "04320",
      "identificationNumber": "B01437862",
      "address": "CAPELAMENDI Nº 18-2º INTERIOR POLÍGONO BETOÑO",
      "location": {
        "postalCode": "01013",
        "municipality": "Vitoria-Gasteiz",
        "county": "Araba/Álava",
        "municipalityId": "059",
        "countyId": "01"
      },
      "economicActivities": [
        {
          "id": "1.622",
          "name": "Venta al por mayor de otros productos de recuperación",
          "_links": {
            "self": {
              "name": "Venta al por mayor de otros productos de recuperación",
              "href": "https://api.euskadi.eus/procurements/companies/economic-activities/1.622"
            }
          }
        }
      ],
      "certificateStartDate": "2011-03-30",
      "certificateEndDate": "2011-09-14",
      "object": "EL RECICLAJE DE DERIVADOS ALIMENTARIOS Y TODO TIPO DE ACTIVIDADES COMPLEMENTARIAS A LA ANTERIOR. LA ADQUISICIÓN, URBANISZACIÓN, PARCELACÓN, PROMOCIÓN, CONSTRUCCIÓN, EDIFICACIÓN , CONSTITUCIÓN EN PROPIEDAD HORIZONTAL, REFORMA, AMPLIACIÓN, ENAJENACIÓN Y, EN GENERAL, TODA ACTIVIDAD RELATIVA A BIENES INMUEBLES Y TODA SUERTE DE INVERSIONES Y PROMOCIONES RELACIONADAS CON EL RAMO DDE LA CONSTRUCCIÓN",
      "mainEntityOfPage": "https://www.contratacion.euskadi.eus/webkpe00-kperoc/es/ac71aBusquedaRegistrosWar/empresa/04320",
      "_links": {
        "self": {
          "name": "RECYOIL ENERGY, S.L.",
          "href": "https://api.euskadi.eus/procurements/companies/04320"
        }
      }
    },
    {
      "name": "ESTUDIO DE ESTRATEGIAS ARQUITECTÓNICAS-SAS, S.L.",
      "registrationNumber": "03911",
      "identificationNumber": "B31685191",
      "address": "C/ TAFALLA 31 BAJO",
      "location": {
        "postalCode": "31003",
        "municipality": "Pamplona/Iruña",
        "county": "Navarra",
        "municipalityId": "201",
        "countyId": "31"
      },
      "economicActivities": [
        {
          "id": "1.843.2",
          "name": "Servicios técnicos de arquitectura y urbanismo",
          "_links": {
            "self": {
              "name": "Servicios técnicos de arquitectura y urbanismo",
              "href": "https://api.euskadi.eus/procurements/companies/economic-activities/1.843.2"
            }
          }
        }
      ],
      "certificateStartDate": "2011-03-28",
      "certificateEndDate": "2011-09-10",
      "object": "A. LA INTERMEDIACIÓN, COORDINACIÓN Y GESTIÓN ENTRE LOS PROFESIONALES CONTRATADOS POR LA COMPAÑÍA, HABILITADOS POR LOS COLEGIOS PROFESIONALES OFICIALES DE ARQUITECTOS Y DE APAREJADORES, Y LOS CLIENTES PARA LA REALIZACIÓN Y CONFECCIÓN DE PROYECTOS TÉCNICOS Y DE EJECUCIÓN DE CUALQUIER ESPECIALIDAD, INSTALACIONES GENERALES Y OBRAS DE LOCALES Y EDIFICIOS, REDACCIÓN DE INSTRUMENTOS DE PLANEAMIENTO, GESTIÓN Y ASESORAMIENTO URBANÍSTICO Y DE SUELO, ASÍ COMO DIRECCIONES DE OBRA; B. LA ADQUISICIÓN O ENAJENACIÓN DE SOLARES EDIFICABLES  Y TERRENOS EN GENERAL, CON POSIBILIDAD DE EDIFICACIÓN, O CUALESQUIERA ORAS O CONSTRUCCIONES; C. LA REALIZACIÓN DE TODA CLASE DE EDIFICACIONES Y CONSTRUCCIONES DE TODO TIPO, INCLUSO LA CONSTRUCCIÓN DE VIVIENDAS DE PROTECCIÓN OFICIAL, INCLUYENDO LA CONTRATACIÓN DEL PERSONAL NECESARIO, LA COMPRA O ALQUILER DE MAQUINARIA DE CONSTRUCCIÓN, LA ADQUISICIÓN DE MATERIALES Y SUMINISTROS D EOBRA, O LA CONTRATACIÓN DE CUALESQUIERA TRABAJOS O PERSONAL TÉCNICO, ASÍ COMO LA PRÁCTICA DE LOS TRÁMITES LEGALES, ADMINISTRATIVOS O FINANCIEROS; D. LA ENAJENACIÓN, ARRENDAMIENTO Y EXPLOTCIÓN, A TÍTULO ONEROSO POR CUALQUIER MEDIO, DE LAS CONSTRUCCIONES REALIZADAS; E. LA REALIZACIÓN DE ESTUDIOS URBANÍSTICOS, URBANIZACIONES, GESTIÓN Y EXPLOTACIÓN DE LAS OBRAS Y SERVICIOS RESULTANTES DE LA URBANIZACIÓN, PUDIENDO ADQUIRIR, TRANSMITIR, CONSTITUIR O MODIFICAR TODA CLASE DE DERECHOS SOBRE BIENES MUEBLES E INMUEBLES, REALIZAR CONVENIOS CON LOS ORGANISMOS COMPETENTES, CORPORACIONES LOCALES O CON PERSONAS Y ENTIDADES QUE ACTÚEN EN INTERÉS PRIVADO. ENAJENAR LAS PARCELAS RESULTANTES DE LA ORDENACIÓN Y EJERCITAR LA GESTIÓN DE LOS SERVICIOS IMPLANTADOS HASTA QUE SEAN ASUMIDOS FORMALMENTE POR LA CORPORACIÓN LOCAL, ORGANISMO COMPETENTE O PERSONA O ENTIDADES QUE ACTÚEN EN INTERÉS PRIVADO. EN NINGÚN CASO CONSTITUIRÁN EL OBJETO DE LA SOCIEDAD AQUELLAS ACTIVIDADES PARA CUYO EJERCICIO SE EXIJAN POR LA LEGISLACIÓN ESPECIAL APLICABLE, DETERMINADAS CONDICIONES Y AUTORIZACIONES QUE ESTA SOCIEDAD NO CUMPLA.",
      "mainEntityOfPage": "https://www.contratacion.euskadi.eus/webkpe00-kperoc/es/ac71aBusquedaRegistrosWar/empresa/03911",
      "_links": {
        "self": {
          "name": "ESTUDIO DE ESTRATEGIAS ARQUITECTÓNICAS-SAS, S.L.",
          "href": "https://api.euskadi.eus/procurements/companies/03911"
        }
      }
    },
    {
      "name": "OMBUDS COMPAÑÍA DE SEGUROS, S.A.",
      "registrationNumber": "04585",
      "identificationNumber": "A81262404",
      "address": "COLQUIDE, 6, PORTAL 1, 2ª PLANTA",
      "location": {
        "postalCode": "28231",
        "municipality": "Rozas de Madrid, Las",
        "county": "Madrid",
        "municipalityId": "127",
        "countyId": "28"
      },
      "economicActivities": [
        {
          "id": "1.849.4",
          "name": "Servicios de custodia, seguridad y protección",
          "_links": {
            "self": {
              "name": "Servicios de custodia, seguridad y protección",
              "href": "https://api.euskadi.eus/procurements/companies/economic-activities/1.849.4"
            }
          }
        }
      ],
      "certificateStartDate": "2011-03-25",
      "certificateEndDate": "2011-07-11",
      "object": "A) VIGILANCIA Y PROTECCIÓN DE BIENES, ESTABLECIMIENTOS, ESPECTÁCULOS CERTÁMENES O CONVENCIONES. B) PROTECCIÓN DE PERSONAS DETERMINADAS, PREVIA LA AUTORIZACIÓN CORRESPONDIENTE. C) DEPÓSITO, CUSTODIA, RECUENTO Y CLASIFICACIÓN DE MONEDAS Y BILLETES, TÍTULOS-VALORES, Y DEMÁS OBJETO QUE, POR SU VALOR ECONÓMICO Y EXPECTATIVAS QUE GENEREN O POR SU PELIGROSIDAD, PUEDAN REQUERIR PROTECCIÓN ESPECIAL, SIN PERJUICIO DE LAS ACTIVIDADES PROPIAS DE LAS ENTIDADES FINANCIERAS. D) TRANSPORTE Y DISTRIBUCIÓN DE LOS OBJETOS A QUE SE REFIERE EL APARTADO ANTEIOR, A TAVÉS DE LOS DISTINTOS MEDIOS, REALIZÁNDOLOS, EN SU CASO, MEDIANTE VEHÍCULOS CUYAS CARACTERÍSTICAS SERÁN DETERMINADAS POR EL MINISTERIO DE JUSTICIA E INTERIOR, DE FORMA QUE NO PUEDAN CONFUNDIRSE CON LOS DE LAS FUERZAS ARMADAS NI CON LOS DE LAS FUERZAS Y CUERPOS DE SEGURIDAD. E) INSTALACIÓN Y MANTENIMIENTO DE APARATOS, DISPOSITIVOS Y SISTEMAS DE SEGURIDAD. F) EXPLOTACIÓN DE CENTRALES PARA LA RECEPCIÓN, VERIFICACIÓN Y TRANSMISIÓN DE LAS SEÑALES DE ALARMAS Y SU COMUNICACIÓN A LAS FUERZAS Y CUERPOS DE SEGURIDAD, ASÍ COMO PRESTACIÓN DE SERVICIOS DE RESPUESTA CUYA REALIZACIÓN NO SEA DE LA COMPETENCIA DE DICHAS FUERZAS Y CUERPOS. G) PLANIFICACIÓN Y ASESORAMIENTO DE LAS ACTIVIDADES DE SEGURIDAD",
      "mainEntityOfPage": "https://www.contratacion.euskadi.eus/webkpe00-kperoc/es/ac71aBusquedaRegistrosWar/empresa/04585",
      "_links": {
        "self": {
          "name": "OMBUDS COMPAÑÍA DE SEGUROS, S.A.",
          "href": "https://api.euskadi.eus/procurements/companies/04585"
        }
      }
    },
    {
      "name": "SIALKA, S.A.",
      "registrationNumber": "01379",
      "identificationNumber": "A48406185",
      "address": "C/ IDORSOLO, 13. DPTOS. 16-17. EDIFICIO SAN ISIDRO I",
      "location": {
        "postalCode": "48160",
        "municipality": "Derio",
        "county": "Bizkaia",
        "municipalityId": "901",
        "countyId": "48"
      },
      "economicActivities": [
        {
          "id": "1.843.1",
          "name": "Servicios técnicos de ingeniería",
          "_links": {
            "self": {
              "name": "Servicios técnicos de ingeniería",
              "href": "https://api.euskadi.eus/procurements/companies/economic-activities/1.843.1"
            }
          }
        },
        {
          "id": "1.843.2",
          "name": "Servicios técnicos de arquitectura y urbanismo",
          "_links": {
            "self": {
              "name": "Servicios técnicos de arquitectura y urbanismo",
              "href": "https://api.euskadi.eus/procurements/companies/economic-activities/1.843.2"
            }
          }
        }
      ],
      "certificateStartDate": "2011-03-21",
      "certificateEndDate": "2011-07-11",
      "object": "EL ESTUDIO, PROMOCIÓN, REALIZACIÓN, EJECUCIÓN Y DIRECCIÓN: A) DE TODA CLASE DE PROYECTOS Y OBRAS DE INGENIERÍA. B) DE TODA CLASE DE PLANOS, TEMARIOS, O INFORMES, DE CARÁCTER TÉCNICO, ECONÓMICO, U OTROS ANÁLOGOS. C) DE TODA CLASE DE INSTALACIONES VARIAS. D) DE TODO TIPO DE CONSERVACIÓN Y MANTENIMIENTO. E) DE TODA CLASE DE REALIZACIÓN DE SERVICIOS TÉCNICOS ECONÓMICOS, INDUSTRIALES O COMERCIALES. F) DE TODA CLASE DE OBRAS DE PRIMER ESTABLECIMIENTO, REPARACIONES MENORES, CONSERVACIÓN, MANTENIMIENTO Y SERVICIOS COMPLEMENTARIOS. G) DE TODA CLASE DE OBRAS DE CONSTRUCCIÓN, MEJORA, CONSERVACIÓN. H) DE TODA CLASE DE OBRAS DE REFORMA, DE AMPLIACIÓN, MEJORA, ADAPTACIÓN. ADECUACIÓN O REFUERZO, DE UN BIEN INMUEBLE YA EXISTENTE. I) DE TODA CLASE DE OBRAS DE REFORMA, REPARACIÓN O DEMOLICIÓN DE LOS DEFINIDOS ANTERIORMENTE. J) DE TODA CLASE DE OBRAS QUE MODIFIQUEN LA FORMA O SUSTANCIA DEL TERRENO O SUBSUELO, COMO DRAGADOS, SONDEOS, PROSPECCIONES, INYECCIONES, ETC. K) DE TODO TIPO DE SUMINISTROS DE BIENES, HOMOLOGADOS O NO",
      "mainEntityOfPage": "https://www.contratacion.euskadi.eus/webkpe00-kperoc/es/ac71aBusquedaRegistrosWar/empresa/01379",
      "_links": {
        "self": {
          "name": "SIALKA, S.A.",
          "href": "https://api.euskadi.eus/procurements/companies/01379"
        }
      }
    },
    {
      "name": "SISTEMAS DE OFICINAS DE VIZCAYA CINCO, S.A.",
      "registrationNumber": "02056",
      "identificationNumber": "A48416127",
      "address": "C/ JUAN DE AJURIAGUERRA, Nº 5 y 7.",
      "location": {
        "postalCode": "48009",
        "municipality": "Bilbao",
        "county": "Bizkaia",
        "municipalityId": "020",
        "countyId": "48"
      },
      "economicActivities": [
        {
          "id": "1.504.7",
          "name": "Instalaciones telefónicas, telegráficas, televisión, etc",
          "_links": {
            "self": {
              "name": "Instalaciones telefónicas, telegráficas, televisión, etc",
              "href": "https://api.euskadi.eus/procurements/companies/economic-activities/1.504.7"
            }
          }
        },
        {
          "id": "1.659.2",
          "name": "Venta al por menor de muebles de oficina y máquinas y equipos de oficina",
          "_links": {
            "self": {
              "name": "Venta al por menor de muebles de oficina y máquinas y equipos de oficina",
              "href": "https://api.euskadi.eus/procurements/companies/economic-activities/1.659.2"
            }
          }
        },
        {
          "id": "1.849.9",
          "name": "Otros servicios independientes n.c.o.p",
          "_links": {
            "self": {
              "name": "Otros servicios independientes n.c.o.p",
              "href": "https://api.euskadi.eus/procurements/companies/economic-activities/1.849.9"
            }
          }
        }
      ],
      "certificateStartDate": "2011-03-21",
      "certificateEndDate": "2011-08-15",
      "object": "LA VENTA Y REPRESENTACIÓN DE MAQUINARIA EN GENERAL, ESPECIALMENTE DE EQUIPO DE REPROGRAFÍA Y FOTOGRAFÍA, Y CUALQUIER OTRO EN RELACIÓN O COMPLEMENTARIO CON EL ANTERIOR",
      "mainEntityOfPage": "https://www.contratacion.euskadi.eus/webkpe00-kperoc/es/ac71aBusquedaRegistrosWar/empresa/02056",
      "_links": {
        "self": {
          "name": "SISTEMAS DE OFICINAS DE VIZCAYA CINCO, S.A.",
          "href": "https://api.euskadi.eus/procurements/companies/02056"
        }
      }
    },
    {
      "name": "ERAIMEN, S.L.",
      "registrationNumber": "02479",
      "identificationNumber": "B48583744",
      "address": "POL. TORRELARRAGOITI, PARCELA P-7, NAVE 2",
      "location": {
        "postalCode": "48170",
        "municipality": "Zamudio",
        "county": "Bizkaia",
        "municipalityId": "905",
        "countyId": "48"
      },
      "economicActivities": [
        {
          "id": "1.507",
          "name": "Construcción, reparación y conservación de toda clase obras",
          "_links": {
            "self": {
              "name": "Construcción, reparación y conservación de toda clase obras",
              "href": "https://api.euskadi.eus/procurements/companies/economic-activities/1.507"
            }
          }
        }
      ],
      "certificateStartDate": "2011-03-21",
      "certificateEndDate": "2011-08-08",
      "object": "LAS CONSTRUCCIONES Y OBRAS CIVILES EN EDIFICACIONES, URBANIZACIONES, CIMENTACIONES Y NAVES INDUSTRIALES, MOVIMIENTOS DE TIERRA Y SERVICIOS DE ELABORACIÓN DE PROYECTOS, DIRECCIONES DE OBRA, COORDINACIÓN DE GREMIOS Y CUALQUIER OTRA ACTIVIDAD DIRECTA O INDIRECTAMENTE RELACIONADA CON LAS ANTERIORES. LA SOCIEDAD TIENE PLENA CAPACIDAD JURÍDICA EN EL DESARROLLO DE SU OBJETO SOCIAL, PUDIENDO REALIZAR ACTAS Y FORMALIZAR CONTRATOS DE CUALQUIER NATURALEZA, INCLUSO NEGOCIOS DE ADQUISICIÓN Y DISPOSICIÓN DE BIENES MUEBLES E INMUEBLES.",
      "mainEntityOfPage": "https://www.contratacion.euskadi.eus/webkpe00-kperoc/es/ac71aBusquedaRegistrosWar/empresa/02479",
      "_links": {
        "self": {
          "name": "ERAIMEN, S.L.",
          "href": "https://api.euskadi.eus/procurements/companies/02479"
        }
      }
    },
    {
      "name": "SASTRERÍA JUAN UGARTE, S.L.",
      "registrationNumber": "00404",
      "identificationNumber": "B48024640",
      "address": "C/ ARTECALLE 40, BAJO",
      "location": {
        "postalCode": "48005",
        "municipality": "Bilbao",
        "county": "Bizkaia",
        "municipalityId": "020",
        "countyId": "48"
      },
      "economicActivities": [
        {
          "id": "1.454",
          "name": "Confección a medida de prendas de vestir y sus complementos",
          "_links": {
            "self": {
              "name": "Confección a medida de prendas de vestir y sus complementos",
              "href": "https://api.euskadi.eus/procurements/companies/economic-activities/1.454"
            }
          }
        },
        {
          "id": "1.651.2",
          "name": "Venta al por menor de prendas de ropa para el vestido y tocado",
          "_links": {
            "self": {
              "name": "Venta al por menor de prendas de ropa para el vestido y tocado",
              "href": "https://api.euskadi.eus/procurements/companies/economic-activities/1.651.2"
            }
          }
        }
      ],
      "certificateStartDate": "2011-03-17",
      "certificateEndDate": "2011-08-07",
      "object": "LA EXPLOTACIÓN DEL NEGOCIO DE SASTRERÍA AL POR MENOR, CONFECCIÓN DE TODO TIPO DE PRENDAS DE VESTIR, Y SU VENTA AL PÚBLICO",
      "mainEntityOfPage": "https://www.contratacion.euskadi.eus/webkpe00-kperoc/es/ac71aBusquedaRegistrosWar/empresa/00404",
      "_links": {
        "self": {
          "name": "SASTRERÍA JUAN UGARTE, S.L.",
          "href": "https://api.euskadi.eus/procurements/companies/00404"
        }
      }
    },
    {
      "name": "JESUS MARTINEZ DE LIZARDUY MADINA",
      "registrationNumber": "04576",
      "identificationNumber": "16297643G",
      "address": "ALKARANA AUZOA 6B",
      "location": {
        "postalCode": "01206",
        "municipality": "Barrundia",
        "county": "Araba/Álava",
        "municipalityId": "013",
        "countyId": "01"
      },
      "economicActivities": [
        {
          "id": "1.912",
          "name": "Servicios forestales",
          "_links": {
            "self": {
              "name": "Servicios forestales",
              "href": "https://api.euskadi.eus/procurements/companies/economic-activities/1.912"
            }
          }
        }
      ],
      "certificateStartDate": "2011-03-16",
      "certificateEndDate": "2011-08-28",
      "object": ".",
      "mainEntityOfPage": "https://www.contratacion.euskadi.eus/webkpe00-kperoc/es/ac71aBusquedaRegistrosWar/empresa/04576",
      "_links": {
        "self": {
          "name": "JESUS MARTINEZ DE LIZARDUY MADINA",
          "href": "https://api.euskadi.eus/procurements/companies/04576"
        }
      }
    },
    {
      "name": "SPORTURIS 2002, S.L.",
      "registrationNumber": "04579",
      "identificationNumber": "B26329250",
      "address": "AGRICULTURA 2/16",
      "location": {
        "postalCode": "26200",
        "municipality": "Haro",
        "county": "Rioja, La",
        "municipalityId": "071",
        "countyId": "26"
      },
      "economicActivities": [
        {
          "id": "1.615.9",
          "name": "Venta al por mayor de otros artículos de consumo duradero n.c.o.p",
          "_links": {
            "self": {
              "name": "Venta al por mayor de otros artículos de consumo duradero n.c.o.p",
              "href": "https://api.euskadi.eus/procurements/companies/economic-activities/1.615.9"
            }
          }
        }
      ],
      "certificateStartDate": "2011-03-14",
      "certificateEndDate": "2011-07-28",
      "object": "FABRICACIÓN, MANIPULACIÓN, COMERCIALIZACIÓN, IMPORTACIÓN Y EXPORTAI´CON TANTO POR CUENTA PROPIA COMO AJENA, DE ARTÍCULOS DE RECLAMO, REGALO O PUBLICIDAD. LA COMPRA-VENTA, ALQUILER, PERMUTA Y PROMOCIÓN DE BIENES INMUEBLES (VIVIENDAS, LOCALES, NAVES INDUSTRIALES GARAJES Y LOCALES DE OCIO, ETC.), ASÍ COMO DE TERRENOS RÚSTICOS, URBANOS, DOTACIONALES, DE RECREO Y OCIO, E INDUSTRIALES",
      "mainEntityOfPage": "https://www.contratacion.euskadi.eus/webkpe00-kperoc/es/ac71aBusquedaRegistrosWar/empresa/04579",
      "_links": {
        "self": {
          "name": "SPORTURIS 2002, S.L.",
          "href": "https://api.euskadi.eus/procurements/companies/04579"
        }
      }
    },
    {
      "name": "MC INFORTÉCNICA, S.L.",
      "registrationNumber": "02692",
      "identificationNumber": "B80089303",
      "address": "C/PUERTO DE CANENCIA, 21",
      "location": {
        "postalCode": "28000",
        "municipality": "Móstoles",
        "county": "Madrid",
        "municipalityId": "092",
        "countyId": "28"
      },
      "economicActivities": [
        {
          "id": "1.619.2",
          "name": "Venta al por mayor de aparatos e instrumentos médicos, ortopédicos, ópticos",
          "_links": {
            "self": {
              "name": "Venta al por mayor de aparatos e instrumentos médicos, ortopédicos, ópticos",
              "href": "https://api.euskadi.eus/procurements/companies/economic-activities/1.619.2"
            }
          }
        },
        {
          "id": "1.659.3",
          "name": "Venta al por menor de aparatos médicos, ortopédicos, ópticos y fotográficos",
          "_links": {
            "self": {
              "name": "Venta al por menor de aparatos médicos, ortopédicos, ópticos y fotográficos",
              "href": "https://api.euskadi.eus/procurements/companies/economic-activities/1.659.3"
            }
          }
        }
      ],
      "certificateStartDate": "2011-03-10",
      "certificateEndDate": "2011-07-17",
      "object": "- LA COMPRAVENTA, IMPORTACIÓN, EXPORTACION Y DISTRIBUCIÓN, ASÍ COMO EL MONTAJE, ENSAMBLAMIENTO, FABRICACIÓN, REPARACIÓN Y MANTENIMIENTO DE ARTÍCULOS PERTENECIENTES AL SECTOR DE LA ELECTROMEDICINA, INCLUYENDO EQUIPOS, ACCESORIOS, MATERIAL FUNGIBLE Y DESESABLE, ORDENADORES Y LABORATORIOS, Y EN GENERAL MATERIALES O PRODUCTOS DE CARÁCTER CIENTÍFICO, INFORMÁTICO O PROPIO DE LA ACTIVIDAD ADMINISTRATIVA.\r\n\r\n- LA COMERCIALIZACIÓN, INCLUÍDA LA IMPORTACIÓN Y EXPORTACIÓN DE APARATOS Y PRODUCTOS CON DESTINO A LA ESTÉTICA Y COSMÉTICA.\r\n\r\n- LA PREPARACIÓN, DEFINICIÓN, ANÁLISIS Y EJECUCIÓN DE ESTUDIOS TÉCNICOS E INDUSTRIALES, QUE TENGAN RELACIÓN CON EL OBJETO SOCIAL.",
      "mainEntityOfPage": "https://www.contratacion.euskadi.eus/webkpe00-kperoc/es/ac71aBusquedaRegistrosWar/empresa/02692",
      "_links": {
        "self": {
          "name": "MC INFORTÉCNICA, S.L.",
          "href": "https://api.euskadi.eus/procurements/companies/02692"
        }
      }
    }
  ]
}