{
  "totalItems": 9042,
  "totalPages": 905,
  "currentPage": 292,
  "itemsOfPage": 10,
  "items": [
    {
      "name": "SVP BROADCAST MICROWAVE, S.L.",
      "registrationNumber": "09533",
      "identificationNumber": "B95136719",
      "address": "calle arriluzea 3",
      "location": {
        "postalCode": "48200",
        "municipality": "Durango",
        "county": "Bizkaia",
        "municipalityId": "027",
        "countyId": "48"
      },
      "economicActivities": [
        {
          "id": "1.351.2",
          "name": "Fabricación de aparatos y equipo de radiocomunicación, radiodifusión",
          "_links": {
            "self": {
              "name": "Fabricación de aparatos y equipo de radiocomunicación, radiodifusión",
              "href": "https://api.euskadi.eus/procurements/companies/economic-activities/1.351.2"
            }
          }
        },
        {
          "id": "1.856.1",
          "name": "Alquiler de bienes de consumo",
          "_links": {
            "self": {
              "name": "Alquiler de bienes de consumo",
              "href": "https://api.euskadi.eus/procurements/companies/economic-activities/1.856.1"
            }
          }
        }
      ],
      "certificateStartDate": "2025-09-09",
      "certificateEndDate": "2026-02-18",
      "object": "FABRICACIÓN, INSTALACIÓN, COMERCIALIZACIÓN Y DISTRIBUCIÓN DE TODO TIPO DE APARATOS ELECTRÓNICOS Y DE TELECOMUNICAMCIONES.",
      "mainEntityOfPage": "https://www.contratacion.euskadi.eus/webkpe00-kperoc/es/ac71aBusquedaRegistrosWar/empresa/09533",
      "_links": {
        "self": {
          "name": "SVP BROADCAST MICROWAVE, S.L.",
          "href": "https://api.euskadi.eus/procurements/companies/09533"
        }
      }
    },
    {
      "name": "AGENCIA DE TRANSPORTES TRANSFERBI, S.A.",
      "registrationNumber": "03615",
      "identificationNumber": "A48249163",
      "address": "POL.IND.TORRELARRAGOITI PARC 7 NAVES 3-4",
      "location": {
        "postalCode": "48170",
        "municipality": "Zamudio",
        "county": "Bizkaia",
        "municipalityId": "905",
        "countyId": "48"
      },
      "economicActivities": [
        {
          "id": "1.722",
          "name": "Transporte de mercancías por carretera",
          "_links": {
            "self": {
              "name": "Transporte de mercancías por carretera",
              "href": "https://api.euskadi.eus/procurements/companies/economic-activities/1.722"
            }
          }
        },
        {
          "id": "1.756",
          "name": "Intermediarios del transporte",
          "_links": {
            "self": {
              "name": "Intermediarios del transporte",
              "href": "https://api.euskadi.eus/procurements/companies/economic-activities/1.756"
            }
          }
        }
      ],
      "certificateStartDate": "2025-09-09",
      "certificateEndDate": "2026-03-05",
      "object": "LA EXPLOTACIÓN DEL NEGOCIO DE TRANSPORTES, EN ESPECIAL POR CARRETERA, Y AUXILIARES DEL TRANSPORTE, DEPÓSITOS, CLASIFICACIÓN DE DOCUMENTOS Y MERCANCIAS, ALMACENAJES, EMBARQUES, DESEMBARQUES, CONSIGNACIONES, TRASLADOS, CONSERVACIÓN CON ENVASADOS U OTROS TRATAMIENTOS PRECISOS AL EFECTO DE MERCADERÍAS, EN GENERAL O CUALIFICADOS",
      "mainEntityOfPage": "https://www.contratacion.euskadi.eus/webkpe00-kperoc/es/ac71aBusquedaRegistrosWar/empresa/03615",
      "_links": {
        "self": {
          "name": "AGENCIA DE TRANSPORTES TRANSFERBI, S.A.",
          "href": "https://api.euskadi.eus/procurements/companies/03615"
        }
      }
    },
    {
      "name": "COPIADORAS INDAUTXU, S.A.L.",
      "registrationNumber": "04888",
      "identificationNumber": "A48525695",
      "address": "IPARRAGUIRRE, 54",
      "location": {
        "postalCode": "48010",
        "municipality": "Bilbao",
        "county": "Bizkaia",
        "municipalityId": "020",
        "countyId": "48"
      },
      "economicActivities": [
        {
          "id": "1.659.2",
          "name": "Venta al por menor de muebles de oficina y máquinas y equipos de oficina",
          "_links": {
            "self": {
              "name": "Venta al por menor de muebles de oficina y máquinas y equipos de oficina",
              "href": "https://api.euskadi.eus/procurements/companies/economic-activities/1.659.2"
            }
          }
        },
        {
          "id": "1.691.9",
          "name": "Reparación de otros bienes de consumo n.c.o.p",
          "_links": {
            "self": {
              "name": "Reparación de otros bienes de consumo n.c.o.p",
              "href": "https://api.euskadi.eus/procurements/companies/economic-activities/1.691.9"
            }
          }
        }
      ],
      "certificateStartDate": "2025-09-09",
      "certificateEndDate": "2026-03-08",
      "object": "LA COMPRA, VENTA, IMPORTACIÓN, EXPORTACIÓN Y COMERCIALIZACIÓN EN GENERAL DE MÁQUINAS COPIADORAS O REPRODUCTORAS, MICROODENADORES, ORDENADORES, MOBILIARIO, UTILES Y ENSERES DE OFICINA, ASÍ COMO SU REPARACIÓN, CONSERVACIÓN Y MANTENIMIENTO; LA PRESTACIÓN DE ASISTENCIA Y DE AQUELLOS SERVICIOS PRECISOS Y CONVENIENTES PARA UNA ADECUADA UTILIZACIÓN O RENDIMIENTO DE TODOS LOS EQUIPOS INFORMÁTICOS Y MÁQUINAS COPIADORAS O REPRODUCTORAS. EL DESARROLLO, REALIZACIÓN Y COMERCIALIZACIÓN EN GENERAL DE SISTEMAS INFORMÁTICOS; LA ACTIVIDAD INFORMÁTICA EN GENERAL Y LA PRESTACIÓN DE TODOS LOS SERVICIOS CON ELLA REALACIONADOS, INCLUIDA LA ENSEÑANZA DE MATERIAS CON ELLA RELACIONADAS. LA FORMACIÓN DE PERSONAL ESPECIALISTA, LA LLEVANZA DE CONTABILIDADES, LA REALIZACIÓN DE ANÁLISIS, PROYECTOS Y ESTUDIOS DE TODO GÉNERO, ASÍ COMO LA CONFECCIÓN, APLICACIÓN Y COMERCIALIZACIÓN DE PROGRAMAS. LA REPRESENTACIÓN COMO AGENTE, DISTRIBUIDOR, COMISIONISTA, DELEGADO O CUALQUIER OTRA FORMA DE MEDIACIÓN MERCANTIL, DE TODA CLASE DE EMPRESAS NACIONALES Y EXTRANJERAS QUE SE RELACIONEN DIRECTAMENTE CON EL OBJETO APUNTADO EN LOS APARTADOS PRECEDENTES, ASÍ COMO LA EXPLOTACIÓN DE PATENTES, MÉTODOS, PROCEDIMIENTOS O ESTUDIOS EN GENERAL",
      "mainEntityOfPage": "https://www.contratacion.euskadi.eus/webkpe00-kperoc/es/ac71aBusquedaRegistrosWar/empresa/04888",
      "_links": {
        "self": {
          "name": "COPIADORAS INDAUTXU, S.A.L.",
          "href": "https://api.euskadi.eus/procurements/companies/04888"
        }
      }
    },
    {
      "name": "SMART PRODUCTS CONNECTION S.A.",
      "registrationNumber": "03259",
      "identificationNumber": "A01042878",
      "address": "C/ LEONARDO D VINCI 14. MIÑANO",
      "location": {
        "postalCode": "01510",
        "municipality": "Vitoria-Gasteiz",
        "county": "Araba/Álava",
        "municipalityId": "059",
        "countyId": "01"
      },
      "economicActivities": [
        {
          "id": "1.504.7",
          "name": "Instalaciones telefónicas, telegráficas, televisión, etc",
          "_links": {
            "self": {
              "name": "Instalaciones telefónicas, telegráficas, televisión, etc",
              "href": "https://api.euskadi.eus/procurements/companies/economic-activities/1.504.7"
            }
          }
        },
        {
          "id": "1.615.4",
          "name": "Venta al por mayor de aparatos y material radioeléctrico y electrónico",
          "_links": {
            "self": {
              "name": "Venta al por mayor de aparatos y material radioeléctrico y electrónico",
              "href": "https://api.euskadi.eus/procurements/companies/economic-activities/1.615.4"
            }
          }
        },
        {
          "id": "1.665",
          "name": "Venta al por menor por correo o catálogo de productos diversos",
          "_links": {
            "self": {
              "name": "Venta al por menor por correo o catálogo de productos diversos",
              "href": "https://api.euskadi.eus/procurements/companies/economic-activities/1.665"
            }
          }
        },
        {
          "id": "1.834",
          "name": "Servicios relativos a la propiedad inmobiliaria e industrial",
          "_links": {
            "self": {
              "name": "Servicios relativos a la propiedad inmobiliaria e industrial",
              "href": "https://api.euskadi.eus/procurements/companies/economic-activities/1.834"
            }
          }
        },
        {
          "id": "1.849.9",
          "name": "Otros servicios independientes n.c.o.p",
          "_links": {
            "self": {
              "name": "Otros servicios independientes n.c.o.p",
              "href": "https://api.euskadi.eus/procurements/companies/economic-activities/1.849.9"
            }
          }
        },
        {
          "id": "1.861.2",
          "name": "Alquiler de locales industriales y otros alquileres n.c.o.p",
          "_links": {
            "self": {
              "name": "Alquiler de locales industriales y otros alquileres n.c.o.p",
              "href": "https://api.euskadi.eus/procurements/companies/economic-activities/1.861.2"
            }
          }
        }
      ],
      "certificateStartDate": "2025-09-09",
      "certificateEndDate": "2026-03-09",
      "object": "LA INVESTIGACIÓN, DESARROLLO, PROYECTO, DISEÑO, FABRICACIÓN, INSTALACIÓN, MONTAJE, REPARACIÓN Y MATENIMIENTO DE TODA CLASE DE BIENES DE LAS SIGUIENTES CARACTERÍSTICAS: EQUIPOS, SISTEMAS Y APARATOS DE TELECOMUNICACIÓN Y TELEFONÍA, TERRESTRES, MARÍTIMOS Y AÉREOS; ALARMAS, SEGURIDAD, EQUIPOS DE INFORMÁTICA, ORDENADORES DE CUALQUIER TIPO Y GAMA, ASÍ COMO LA PRESTACIÓN DE SERVICIOS DE PROGRAMACIÓN Y FORMACIÓN TÉCNICA DE PERSONAL, EQUIPOS AUDIOVISUALES, UTILIZANDO PARA TODAS ESTAS ACTIVIDADES APARATOS O MATERIAL MECÁNICO, ELÉCTRICO Y ELECTRÓNICO; APARATOS Y EQUIPOS PARA LA FILTRACIÓN Y DESCALCIFICACIÓN DEL AGUA, PARA EL TRATAMIENTO DE PURIFICACIÓN Y ESTERILIZACIÓN DEL AGUA, APARATOS PARA POTABILIZACIÓN Y REUTILIZACIÓN DEL AGUA, ASÍ COMO CUALQUIER APARATO O EQUIPO DE NATURALEZA SIMILAR O ANÁLOGA, Y, COMPRAR, VENDER, IMPORTAR Y EXPORTAR, TANTO AL POR MAYOR COMO AL POR MENOR, MATERIAL, ELEMENTOS Y ACCESORIOS PRECISOS AL OBJETO INDICADO, A TRAVÉS DE ESTABLECIMIENTOS ABIERTOS EN EL TERRITORIO ESPAÑOL O EXTRANJERO",
      "mainEntityOfPage": "https://www.contratacion.euskadi.eus/webkpe00-kperoc/es/ac71aBusquedaRegistrosWar/empresa/03259",
      "_links": {
        "self": {
          "name": "SMART PRODUCTS CONNECTION S.A.",
          "href": "https://api.euskadi.eus/procurements/companies/03259"
        }
      }
    },
    {
      "name": "GUNE MUSIC, S.L.",
      "registrationNumber": "10091",
      "identificationNumber": "B01475466",
      "address": "Calle Rafael Alberti, 22",
      "location": {
        "postalCode": "01010",
        "municipality": "Vitoria-Gasteiz",
        "county": "Araba/Álava",
        "municipalityId": "059",
        "countyId": "01"
      },
      "economicActivities": [
        {
          "id": "1.657",
          "name": "Venta al por menor de instrumentos musicales y sus accesorios",
          "_links": {
            "self": {
              "name": "Venta al por menor de instrumentos musicales y sus accesorios",
              "href": "https://api.euskadi.eus/procurements/companies/economic-activities/1.657"
            }
          }
        }
      ],
      "certificateStartDate": "2025-09-09",
      "certificateEndDate": "2026-03-02",
      "object": "EL COMERCIO AL POR MAYOR Y MENOR , EXPORTACIÓN E IMPORTACIÓN, DE TODA CLASE DE BIENES RELACIONADOS CON EL SECTOR MUSICAL, ASÍ COMO LA REPARACIÓN DE TODA CLASE DE INSTRUMENTOS MUSICALES.",
      "mainEntityOfPage": "https://www.contratacion.euskadi.eus/webkpe00-kperoc/es/ac71aBusquedaRegistrosWar/empresa/10091",
      "_links": {
        "self": {
          "name": "GUNE MUSIC, S.L.",
          "href": "https://api.euskadi.eus/procurements/companies/10091"
        }
      }
    },
    {
      "name": "IÑORSA TRABAJOS ELECTRICOS, S.L.",
      "registrationNumber": "09184",
      "identificationNumber": "B95023628",
      "address": "POLIGONO INDUSTRIAL ERLETXE, PLATAFORMA E115, NAVE 24",
      "location": {
        "postalCode": "48960",
        "municipality": "Galdakao",
        "county": "Bizkaia",
        "municipalityId": "036",
        "countyId": "48"
      },
      "economicActivities": [
        {
          "id": "1.151.4",
          "name": "Producción de energía no especificada en otros epígrafes",
          "_links": {
            "self": {
              "name": "Producción de energía no especificada en otros epígrafes",
              "href": "https://api.euskadi.eus/procurements/companies/economic-activities/1.151.4"
            }
          }
        },
        {
          "id": "1.504.12",
          "name": "Instalaciones eléctricas en toda clase de edificios",
          "_links": {
            "self": {
              "name": "Instalaciones eléctricas en toda clase de edificios",
              "href": "https://api.euskadi.eus/procurements/companies/economic-activities/1.504.12"
            }
          }
        }
      ],
      "certificateStartDate": "2025-09-09",
      "certificateEndDate": "2026-03-03",
      "object": "LA REALIZACIÓN DE TRABAJOS DE INSTALACIÓN Y PROYECTOS ELÉCTRICOS. PRESTAR SERVICIOS DE MANTENIMIENTO Y REPARACIONES ELÉCTRICAS. COMERCIALIZACIÓN DE APARATOLOGÍA ELÉCTRICA.",
      "mainEntityOfPage": "https://www.contratacion.euskadi.eus/webkpe00-kperoc/es/ac71aBusquedaRegistrosWar/empresa/09184",
      "_links": {
        "self": {
          "name": "IÑORSA TRABAJOS ELECTRICOS, S.L.",
          "href": "https://api.euskadi.eus/procurements/companies/09184"
        }
      }
    },
    {
      "name": "ALAMO LAEN BERRIA 2017,  S.L.",
      "registrationNumber": "09208",
      "identificationNumber": "B95864393",
      "address": "Calle Kale Nagusia, 23",
      "location": {
        "postalCode": "48970",
        "municipality": "Basauri",
        "county": "Bizkaia",
        "municipalityId": "015",
        "countyId": "48"
      },
      "economicActivities": [
        {
          "id": "1.505.5",
          "name": "Carpintería y cerrajería",
          "_links": {
            "self": {
              "name": "Carpintería y cerrajería",
              "href": "https://api.euskadi.eus/procurements/companies/economic-activities/1.505.5"
            }
          }
        }
      ],
      "certificateStartDate": "2025-09-09",
      "certificateEndDate": "2026-03-08",
      "object": "EL DESARROLLO DE LA ACTIVIDADES CORRESPONDIENTES A LOS SIGUIENTES CÓDIGOS Y DESCRIPCIONES DE LA CLASIFICACIÓN NACIONAL DE ACTIVIDADES ECONÓMICAS: 4332, INSTALACIÓN DE CARPINTERÍA. ACTIVIDAD PRINCIPAL: 4332 INSTALACIÓN DE CARPINTERÍA.",
      "mainEntityOfPage": "https://www.contratacion.euskadi.eus/webkpe00-kperoc/es/ac71aBusquedaRegistrosWar/empresa/09208",
      "_links": {
        "self": {
          "name": "ALAMO LAEN BERRIA 2017,  S.L.",
          "href": "https://api.euskadi.eus/procurements/companies/09208"
        }
      }
    },
    {
      "name": "DINGEMAS INGENIERÍA SLPU",
      "registrationNumber": "07353",
      "identificationNumber": "B39736293",
      "address": "Zoco Gran Santander Local 136",
      "location": {
        "postalCode": "39011",
        "municipality": "Santander",
        "county": "Cantabria",
        "municipalityId": "075",
        "countyId": "39"
      },
      "economicActivities": [
        {
          "id": "1.843.1",
          "name": "Servicios técnicos de ingeniería",
          "_links": {
            "self": {
              "name": "Servicios técnicos de ingeniería",
              "href": "https://api.euskadi.eus/procurements/companies/economic-activities/1.843.1"
            }
          }
        }
      ],
      "certificateStartDate": "2025-09-09",
      "certificateEndDate": "2026-03-09",
      "object": "EL EJERCICIO EN COMÚN DE LAS ACTIVIDADES PROFESIONALES DE LA INGENIERÍA",
      "mainEntityOfPage": "https://www.contratacion.euskadi.eus/webkpe00-kperoc/es/ac71aBusquedaRegistrosWar/empresa/07353",
      "_links": {
        "self": {
          "name": "DINGEMAS INGENIERÍA SLPU",
          "href": "https://api.euskadi.eus/procurements/companies/07353"
        }
      }
    },
    {
      "name": "ALKAR & URALAN SL",
      "registrationNumber": "08467",
      "identificationNumber": "B75230086",
      "address": "PASEO HERRERA N30 BAJO LOCAL 3 Y 4",
      "location": {
        "postalCode": "20017",
        "municipality": "Donostia / San Sebastián",
        "county": "Gipuzkoa",
        "municipalityId": "069",
        "countyId": "20"
      },
      "economicActivities": [
        {
          "id": "1.504.2",
          "name": "Instalaciones de fontanería",
          "_links": {
            "self": {
              "name": "Instalaciones de fontanería",
              "href": "https://api.euskadi.eus/procurements/companies/economic-activities/1.504.2"
            }
          }
        }
      ],
      "certificateStartDate": "2025-09-08",
      "certificateEndDate": "2026-03-08",
      "classification": [
        {
          "id": "S",
          "name": "Servicios",
          "groups": [
            {
              "id": "P",
              "subgroups": [
                {
                  "id": "02",
                  "name": "Mtto. y reparación equipos e instalac.de fontanería, conducciones de agua y gas",
                  "categories": [
                    {
                      "id": "4",
                      "name": "Desde 600.001 Hasta 1.1200.000",
                      "_links": {
                        "self": {
                          "name": "Desde 600.001 Hasta 1.1200.000",
                          "href": "https://api.euskadi.eus/procurements/companies/types/S/categories/4"
                        }
                      }
                    }
                  ],
                  "_links": {
                    "self": {
                      "name": "Mtto. y reparación equipos e instalac.de fontanería, conducciones de agua y gas",
                      "href": "https://api.euskadi.eus/procurements/companies/types/S/groups/P/subgroups/02"
                    }
                  }
                }
              ],
              "_links": {
                "self": {
                  "href": "https://api.euskadi.eus/procurements/companies/types/S/groups/P"
                }
              }
            }
          ],
          "_links": {
            "self": {
              "name": "Servicios",
              "href": "https://api.euskadi.eus/procurements/companies/types/S"
            }
          }
        }
      ],
      "object": "LAS INSTALACIONES DE FONTANERÍA, CALEFACCIÓN, AIRE ACONDICIONADO Y GAS.",
      "mainEntityOfPage": "https://www.contratacion.euskadi.eus/webkpe00-kperoc/es/ac71aBusquedaRegistrosWar/empresa/08467",
      "_links": {
        "self": {
          "name": "ALKAR & URALAN SL",
          "href": "https://api.euskadi.eus/procurements/companies/08467"
        }
      }
    },
    {
      "name": "TETRALOGIK, S.L.L.",
      "registrationNumber": "05180",
      "identificationNumber": "B95714598",
      "address": "ANDRÉS ISASI, 11 - 2º / MÓDULO 2",
      "location": {
        "postalCode": "48012",
        "municipality": "Bilbao",
        "county": "Bizkaia",
        "municipalityId": "020",
        "countyId": "48"
      },
      "economicActivities": [
        {
          "id": "1.653.2",
          "name": "Venta al por menor de material y aparatos eléctricos, electrodomésticos y cocina",
          "_links": {
            "self": {
              "name": "Venta al por menor de material y aparatos eléctricos, electrodomésticos y cocina",
              "href": "https://api.euskadi.eus/procurements/companies/economic-activities/1.653.2"
            }
          }
        },
        {
          "id": "1.843.1",
          "name": "Servicios técnicos de ingeniería",
          "_links": {
            "self": {
              "name": "Servicios técnicos de ingeniería",
              "href": "https://api.euskadi.eus/procurements/companies/economic-activities/1.843.1"
            }
          }
        }
      ],
      "certificateStartDate": "2025-09-08",
      "certificateEndDate": "2026-03-04",
      "object": "LA FABRICACIÓN, IMPORTACIÓN, EXPORTACIÓN, LA INTERMEDIACIÓN Y EL COMERCIO AL POR MAYOR Y MENOR, ASÍ COMO LA REPARACIÓN Y MANTENIMIENTO DE MÁQUINAS Y MATERIAL RELACIONADO CON ORDENADORES Y PROGRAMAS PARA LAOS MISMOS, APARATOS ELÉCTIRCOS Y ELECTRÓNICOS, RADIOTELEFONÍA, ANALÓGICA Y DIGITAL, TELEFONÍA MÓVIL Y FIJA, MÁQUINAS DE OFICINA, DESARROLLO DE PROGRAMAS, ASESORAMIENTO TÉCNICO E INFORMÁTICO, SERVICIOS DE TELEFONÍA MÓVIL Y FIJA Y SU ACTUACIÓN COMO OPERADOR DE REDES, REPARACIÓN DE MÁQUINAS DE OFICINA, PROGRAMACIÓN DE AUTÓMATAS Y CONTROL INDUSTRIAL. PROCESO DE DATOS. LA REALIZACIÓN DE ACTIVIDADES DE INTERNET, ASÍ COMO EL SUMINISTRO DE SERVICIOS DE INFORMACIÓN Y FORMACIÓN. REDACCIÓN DE PROYECTOS DE INGENIERÍA, ASÍ COMO LA INTERMEDIACIÓN EN EL ASESORAMIENTO DE EMPRESAS Y PERSONAS FÍSICAS EN SU MÁS AMPLIA ACEPCIÓN, TASACIONES Y PERITACIONES. INTERMEDIACIÓN EN LA REDACCIÓN DE PROYECTOS DE NGENIERÍA, ASÍ COMO LA INTERMEDIACIÓN EN EL ASESORAMIENTO DE EMPRESAS Y PERSONAS FÍSICAS EN SU MÁS AMPLIA ACEPCION, TASACIONES Y PERITACIONES",
      "mainEntityOfPage": "https://www.contratacion.euskadi.eus/webkpe00-kperoc/es/ac71aBusquedaRegistrosWar/empresa/05180",
      "_links": {
        "self": {
          "name": "TETRALOGIK, S.L.L.",
          "href": "https://api.euskadi.eus/procurements/companies/05180"
        }
      }
    }
  ]
}