{
  "totalItems": 9042,
  "totalPages": 905,
  "currentPage": 465,
  "itemsOfPage": 10,
  "items": [
    {
      "name": "DERIVADOS DE AVES Y CONEJOS, S.L.",
      "registrationNumber": "01601",
      "identificationNumber": "B31475767",
      "address": "C/MENDARO, 1-3-5",
      "location": {
        "postalCode": "01013",
        "municipality": "Vitoria-Gasteiz",
        "county": "Araba/Álava",
        "municipalityId": "059",
        "countyId": "01"
      },
      "economicActivities": [
        {
          "id": "1.413.1",
          "name": "Sacrificio y despiece de ganado en general",
          "_links": {
            "self": {
              "name": "Sacrificio y despiece de ganado en general",
              "href": "https://api.euskadi.eus/procurements/companies/economic-activities/1.413.1"
            }
          }
        },
        {
          "id": "1.413.2",
          "name": "Fabricación de productos cárnicos de todas clases",
          "_links": {
            "self": {
              "name": "Fabricación de productos cárnicos de todas clases",
              "href": "https://api.euskadi.eus/procurements/companies/economic-activities/1.413.2"
            }
          }
        },
        {
          "id": "1.423.9",
          "name": "Elaboración de otros productos alimenticios n.c.o.p",
          "_links": {
            "self": {
              "name": "Elaboración de otros productos alimenticios n.c.o.p",
              "href": "https://api.euskadi.eus/procurements/companies/economic-activities/1.423.9"
            }
          }
        },
        {
          "id": "1.612.4",
          "name": "Venta al por mayor de carnes, huevos, aves y caza",
          "_links": {
            "self": {
              "name": "Venta al por mayor de carnes, huevos, aves y caza",
              "href": "https://api.euskadi.eus/procurements/companies/economic-activities/1.612.4"
            }
          }
        }
      ],
      "certificateStartDate": "2023-03-14",
      "certificateEndDate": "2023-09-10",
      "object": "LA COMPRA, EN VIVO O PREVIAMENTE SACRIFICADOS, DE AVES Y ANIMALES DE GRANJA, MATERIAS PRIMAS ANIMALES Y SUS DERIVADOS; SU TRANSFORMACIÓN Y CONVERSIÓN EN PRODUCTOS TERMINADOS COMO EMBUTIDOS Y CONSERVAS, ASÍ COMO SUB-PRODUCTOS DERIVADOS DE ESTOS, SEAN PIENSOS, HARINAS O CUALQUIER OTRO PREPARADO. SU COMERCIALIZACIÓN Y VENTA, INSTALANDO O ARRENDANDO PARA ELLO CUANTAS FÁBRICAS Y FACTORIAS FUEREN NECESARIAS. LA CRIA DE AVES Y ANIMALES DE GRANJA PARA SU COMERCIALIZACIÓN EN VIVO O PREVIAMENTE SACRIFICADOS; Y A TAL FIN, LA INSTALACIÓN, ARRIENDO Y EXPLOTACIÓN DE GRANJAS Y MATADEROS INDUSTRIALES. LAS ACTIVIDADES INMOBILIARIAS",
      "mainEntityOfPage": "https://www.contratacion.euskadi.eus/webkpe00-kperoc/es/ac71aBusquedaRegistrosWar/empresa/01601",
      "_links": {
        "self": {
          "name": "DERIVADOS DE AVES Y CONEJOS, S.L.",
          "href": "https://api.euskadi.eus/procurements/companies/01601"
        }
      }
    },
    {
      "name": "CONGELADOS ACENOMAR, S.A.",
      "registrationNumber": "07540",
      "identificationNumber": "A48116305",
      "address": "barrio arteagoiti 1",
      "location": {
        "postalCode": "48970",
        "municipality": "Basauri",
        "county": "Bizkaia",
        "municipalityId": "015",
        "countyId": "48"
      },
      "economicActivities": [
        {
          "id": "1.612.1",
          "name": "Venta al por mayor de toda clase de productos alimenticios, bebidas, tabaco",
          "_links": {
            "self": {
              "name": "Venta al por mayor de toda clase de productos alimenticios, bebidas, tabaco",
              "href": "https://api.euskadi.eus/procurements/companies/economic-activities/1.612.1"
            }
          }
        }
      ],
      "certificateStartDate": "2023-03-13",
      "certificateEndDate": "2023-09-06",
      "object": "LA COMPRA, VENTA, IMPORTACIÓN, EXPORTACIÓN Y COMERCIALIZACIÓN EN GENERAL DE TODA CLASE DE PRODUCTOS CONGELADOS, PUDIENDO TAMBIÉN EXTENDER SU ACTIVIDAD A CUALQUIER OTRO PRODUCTO ALIMENTICIO",
      "mainEntityOfPage": "https://www.contratacion.euskadi.eus/webkpe00-kperoc/es/ac71aBusquedaRegistrosWar/empresa/07540",
      "_links": {
        "self": {
          "name": "CONGELADOS ACENOMAR, S.A.",
          "href": "https://api.euskadi.eus/procurements/companies/07540"
        }
      }
    },
    {
      "name": "JOSE LUIS DE MIGUEL PARRA",
      "registrationNumber": "08592",
      "identificationNumber": "22738575Q",
      "address": "Calle La Dinamita",
      "location": {
        "postalCode": "48903",
        "municipality": "Barakaldo",
        "county": "Bizkaia",
        "municipalityId": "013",
        "countyId": "48"
      },
      "economicActivities": [
        {
          "id": "1.721.2",
          "name": "Transporte por autotaxis",
          "_links": {
            "self": {
              "name": "Transporte por autotaxis",
              "href": "https://api.euskadi.eus/procurements/companies/economic-activities/1.721.2"
            }
          }
        }
      ],
      "certificateStartDate": "2023-03-12",
      "certificateEndDate": "2023-09-12",
      "object": "TRANSPORTE POR AUTOTAXIS.",
      "mainEntityOfPage": "https://www.contratacion.euskadi.eus/webkpe00-kperoc/es/ac71aBusquedaRegistrosWar/empresa/08592",
      "_links": {
        "self": {
          "name": "JOSE LUIS DE MIGUEL PARRA",
          "href": "https://api.euskadi.eus/procurements/companies/08592"
        }
      }
    },
    {
      "name": "SILVIA HOSPITAL ALVAREZ",
      "registrationNumber": "08593",
      "identificationNumber": "30671424G",
      "address": "Calle La Dinamita",
      "location": {
        "postalCode": "48903",
        "municipality": "Barakaldo",
        "county": "Bizkaia",
        "municipalityId": "013",
        "countyId": "48"
      },
      "economicActivities": [
        {
          "id": "1.721.2",
          "name": "Transporte por autotaxis",
          "_links": {
            "self": {
              "name": "Transporte por autotaxis",
              "href": "https://api.euskadi.eus/procurements/companies/economic-activities/1.721.2"
            }
          }
        }
      ],
      "certificateStartDate": "2023-03-12",
      "certificateEndDate": "2023-09-12",
      "object": "TRANSPORTE POR AUTOTAXIS.",
      "mainEntityOfPage": "https://www.contratacion.euskadi.eus/webkpe00-kperoc/es/ac71aBusquedaRegistrosWar/empresa/08593",
      "_links": {
        "self": {
          "name": "SILVIA HOSPITAL ALVAREZ",
          "href": "https://api.euskadi.eus/procurements/companies/08593"
        }
      }
    },
    {
      "name": "IGNACIO FERNANDEZ PORTILLA",
      "registrationNumber": "08591",
      "identificationNumber": "14593631Q",
      "address": "PATXI BENGOA 1 4º C",
      "location": {
        "postalCode": "48450",
        "municipality": "Etxebarri",
        "county": "Bizkaia",
        "municipalityId": "029",
        "countyId": "48"
      },
      "economicActivities": [
        {
          "id": "1.721.2",
          "name": "Transporte por autotaxis",
          "_links": {
            "self": {
              "name": "Transporte por autotaxis",
              "href": "https://api.euskadi.eus/procurements/companies/economic-activities/1.721.2"
            }
          }
        }
      ],
      "certificateStartDate": "2023-03-12",
      "certificateEndDate": "2023-09-12",
      "object": "TRANSPORTE POR AUTOTAXIS.",
      "mainEntityOfPage": "https://www.contratacion.euskadi.eus/webkpe00-kperoc/es/ac71aBusquedaRegistrosWar/empresa/08591",
      "_links": {
        "self": {
          "name": "IGNACIO FERNANDEZ PORTILLA",
          "href": "https://api.euskadi.eus/procurements/companies/08591"
        }
      }
    },
    {
      "name": "JOSE MANUEL HERMIDA SANJURJO",
      "registrationNumber": "08290",
      "identificationNumber": "15950653S",
      "address": "CALLE MONTE HERNIO Nº 6 - 3º C",
      "location": {
        "postalCode": "20014",
        "municipality": "Donostia / San Sebastián",
        "county": "Gipuzkoa",
        "municipalityId": "069",
        "countyId": "20"
      },
      "economicActivities": [
        {
          "id": "1.921.9",
          "name": "Otros servicios de saneamiento y similares n.c.o.p",
          "_links": {
            "self": {
              "name": "Otros servicios de saneamiento y similares n.c.o.p",
              "href": "https://api.euskadi.eus/procurements/companies/economic-activities/1.921.9"
            }
          }
        },
        {
          "id": "1.999",
          "name": "Otros servicios n.c.o.p",
          "_links": {
            "self": {
              "name": "Otros servicios n.c.o.p",
              "href": "https://api.euskadi.eus/procurements/companies/economic-activities/1.999"
            }
          }
        }
      ],
      "certificateStartDate": "2023-03-12",
      "certificateEndDate": "2023-09-12",
      "object": "OTROS SERVICIOS DE SANEAMIENTO Y SIMILARES N.C.O.P. OTROS SERVICIOS N.C.O.P.",
      "mainEntityOfPage": "https://www.contratacion.euskadi.eus/webkpe00-kperoc/es/ac71aBusquedaRegistrosWar/empresa/08290",
      "_links": {
        "self": {
          "name": "JOSE MANUEL HERMIDA SANJURJO",
          "href": "https://api.euskadi.eus/procurements/companies/08290"
        }
      }
    },
    {
      "name": "AITOR VIEJO ANDRES",
      "registrationNumber": "08595",
      "identificationNumber": "22742755X",
      "address": "CALLE UGARTE, 17, 3 DCHA",
      "location": {
        "postalCode": "48510",
        "municipality": "Valle de Trápaga-Trapagaran",
        "county": "Bizkaia",
        "municipalityId": "080",
        "countyId": "48"
      },
      "economicActivities": [
        {
          "id": "1.474",
          "name": "Artes gráficas (impresión gráfica)",
          "_links": {
            "self": {
              "name": "Artes gráficas (impresión gráfica)",
              "href": "https://api.euskadi.eus/procurements/companies/economic-activities/1.474"
            }
          }
        },
        {
          "id": "1.963.3",
          "name": "Exhibición de películas y vídeos fuera de establecimiento permanente",
          "_links": {
            "self": {
              "name": "Exhibición de películas y vídeos fuera de establecimiento permanente",
              "href": "https://api.euskadi.eus/procurements/companies/economic-activities/1.963.3"
            }
          }
        },
        {
          "id": "1.965.4",
          "name": "Empresas de espectáculos",
          "_links": {
            "self": {
              "name": "Empresas de espectáculos",
              "href": "https://api.euskadi.eus/procurements/companies/economic-activities/1.965.4"
            }
          }
        }
      ],
      "certificateStartDate": "2023-03-12",
      "certificateEndDate": "2023-09-12",
      "object": "EMPRESAS DE ESPECTÁCULOS. EXHIBICIÓN DE PELÍCULAS Y VÍDEOS FUERA DE ESTABLECIMIENTO PERMANENTE. ARTES GRÁFICAS (IMPRESIÓN GRÁFICA).",
      "mainEntityOfPage": "https://www.contratacion.euskadi.eus/webkpe00-kperoc/es/ac71aBusquedaRegistrosWar/empresa/08595",
      "_links": {
        "self": {
          "name": "AITOR VIEJO ANDRES",
          "href": "https://api.euskadi.eus/procurements/companies/08595"
        }
      }
    },
    {
      "name": "IKER DORRONSORO RODRIGUEZ",
      "registrationNumber": "07452",
      "identificationNumber": "44683800K",
      "address": "C/ DEL TREN VASCO NAVARRO, 4",
      "location": {
        "postalCode": "01120",
        "municipality": "Arraia-Maeztu",
        "county": "Araba/Álava",
        "municipalityId": "037",
        "countyId": "01"
      },
      "economicActivities": [
        {
          "id": "1.501.3",
          "name": "Albañilería y pequeños trabajos de construcción en general",
          "_links": {
            "self": {
              "name": "Albañilería y pequeños trabajos de construcción en general",
              "href": "https://api.euskadi.eus/procurements/companies/economic-activities/1.501.3"
            }
          }
        }
      ],
      "certificateStartDate": "2023-03-11",
      "certificateEndDate": "2023-09-11",
      "object": "ALBAÑILERIA Y PEQUEÑOS TRABAJOS DE CONSTRUCCION EN GENERAL",
      "mainEntityOfPage": "https://www.contratacion.euskadi.eus/webkpe00-kperoc/es/ac71aBusquedaRegistrosWar/empresa/07452",
      "_links": {
        "self": {
          "name": "IKER DORRONSORO RODRIGUEZ",
          "href": "https://api.euskadi.eus/procurements/companies/07452"
        }
      }
    },
    {
      "name": "IGNACIO UNAMUNO FERNÁNDEZ",
      "registrationNumber": "08168",
      "identificationNumber": "16298415V",
      "address": "Ojarbe nº2-2º C",
      "location": {
        "postalCode": "01213",
        "municipality": "Ribera Baja/Erriberabeitia",
        "county": "Araba/Álava",
        "municipalityId": "047",
        "countyId": "01"
      },
      "economicActivities": [
        {
          "id": "1.504.1",
          "name": "Instalaciones eléctricas en general",
          "_links": {
            "self": {
              "name": "Instalaciones eléctricas en general",
              "href": "https://api.euskadi.eus/procurements/companies/economic-activities/1.504.1"
            }
          }
        }
      ],
      "certificateStartDate": "2023-03-10",
      "certificateEndDate": "2023-07-24",
      "object": "INSTALACIONES ELÉCTRICAS EN GENERAL.",
      "mainEntityOfPage": "https://www.contratacion.euskadi.eus/webkpe00-kperoc/es/ac71aBusquedaRegistrosWar/empresa/08168",
      "_links": {
        "self": {
          "name": "IGNACIO UNAMUNO FERNÁNDEZ",
          "href": "https://api.euskadi.eus/procurements/companies/08168"
        }
      }
    },
    {
      "name": "ERAKUS ARQUITECTURA DE INTERIORES, S.A.",
      "registrationNumber": "01892",
      "identificationNumber": "A48843106",
      "address": "INDUSTRIAL  MARTIARTU, 1 NAVE 32",
      "location": {
        "postalCode": "48480",
        "municipality": "Arrigorriaga",
        "county": "Bizkaia",
        "municipalityId": "011",
        "countyId": "48"
      },
      "economicActivities": [
        {
          "id": "1.319.9",
          "name": "Talleres mecánicos n.c.o.p",
          "_links": {
            "self": {
              "name": "Talleres mecánicos n.c.o.p",
              "href": "https://api.euskadi.eus/procurements/companies/economic-activities/1.319.9"
            }
          }
        },
        {
          "id": "1.505.5",
          "name": "Carpintería y cerrajería",
          "_links": {
            "self": {
              "name": "Carpintería y cerrajería",
              "href": "https://api.euskadi.eus/procurements/companies/economic-activities/1.505.5"
            }
          }
        }
      ],
      "certificateStartDate": "2023-03-08",
      "certificateEndDate": "2023-09-02",
      "object": "LA DECORACIÓN DE INTERIORES Y EXTERIORES, EL MONTAJE DE STANDS, LA CONSTRUCCIÓN Y ACABADO DE OBRAS, LA ACTUACIÓN COMO CONTRATISTA O SUBCONTRATISTA PARA LA PRESTACIÓN A TERCEROS DE TOD TIPO DE SERVICFIOS AUXILIARES O QUE PUEDAN SER OBJETO DE CONTRATA O SUBCONTRATA EN CUALQUIER MERCADO O SECTOR ECONÓMICO, COMERCIAL O INDUSTRIAL, PARA LA ORGANIZACIÓN, ASISTENCIA TÉCNICA Y AUXILIAR EN CUALQUIER CLASE DE EVENTOS, ACTOS PÚBLICOS Y PRIVADOS, SOCIALES, CULTURALES, DEPORTIVOS, CONGRESOS, EXPOSICIONES, SEMINARIOS, CONVENCIONES, JUNTAS DE SOCIOS O ACCIONISTAS O CUALQUIER OTRA ACTIVIDAD DE APOYO A LA GESTIÓN Y DESARROLLO QUE IMPLIQUE LA CONGREGACIÓN DE PERSONAS O PATRIMONIOS, PRESENTACIÓN, EXPOSICIÓN Y PROMOCIÓN DE PRODUCTOS DE TODA NATURALEZA, ORGANIZACIÓN Y GESTIÓN PARA EL MONTAJE DE ESPECTÁCULOS Y MOBILIARIO, SERVICIOS DE CATTERING Y DE HOSTELERÍA EN GENERAL, MONITORES DE TIEMPO LIBRE, TODO ELLO TANTO PARA PERSONAS FÍSICAS COMO JURÍDICAS, PÚBLICAS O PRIVADAS",
      "mainEntityOfPage": "https://www.contratacion.euskadi.eus/webkpe00-kperoc/es/ac71aBusquedaRegistrosWar/empresa/01892",
      "_links": {
        "self": {
          "name": "ERAKUS ARQUITECTURA DE INTERIORES, S.A.",
          "href": "https://api.euskadi.eus/procurements/companies/01892"
        }
      }
    }
  ]
}