{
  "totalItems": 9042,
  "totalPages": 905,
  "currentPage": 638,
  "itemsOfPage": 10,
  "items": [
    {
      "name": "ASOCIACIÓN KAIA GIZARTE ZERBITZUAK",
      "registrationNumber": "05592",
      "identificationNumber": "G75085209",
      "address": "C/ Salinas 7 Bajo",
      "location": {
        "postalCode": "20110",
        "municipality": "Pasaia",
        "county": "Gipuzkoa",
        "municipalityId": "064",
        "countyId": "20"
      },
      "economicActivities": [
        {
          "id": "1.952",
          "name": "Asistencia y servicios sociales en centros no residenciales",
          "_links": {
            "self": {
              "name": "Asistencia y servicios sociales en centros no residenciales",
              "href": "https://api.euskadi.eus/procurements/companies/economic-activities/1.952"
            }
          }
        }
      ],
      "certificateStartDate": "2017-08-07",
      "certificateEndDate": "2018-01-13",
      "object": "PRESTACIÓN DE SERVICIOS ASISTENCIALES DE HIGIENE, LIMPIEZA, ALIMENTACIÓN Y DEMÁS AYUDAS, A ANCIANOS Y CUANTAS PERSONAS LO SOLICITEN",
      "mainEntityOfPage": "https://www.contratacion.euskadi.eus/webkpe00-kperoc/es/ac71aBusquedaRegistrosWar/empresa/05592",
      "_links": {
        "self": {
          "name": "ASOCIACIÓN KAIA GIZARTE ZERBITZUAK",
          "href": "https://api.euskadi.eus/procurements/companies/05592"
        }
      }
    },
    {
      "name": "BARD DE ESPAÑA, S.A.",
      "registrationNumber": "01259",
      "identificationNumber": "A08780249",
      "address": "Plaza Europa, 41-43 (Edificio Torre Realia)-5ª pl.",
      "location": {
        "postalCode": "08908",
        "municipality": "Hospitalet de Llobregat, L'",
        "county": "Barcelona",
        "municipalityId": "101",
        "countyId": "08"
      },
      "economicActivities": [
        {
          "id": "1.619.2",
          "name": "Venta al por mayor de aparatos e instrumentos médicos, ortopédicos, ópticos",
          "_links": {
            "self": {
              "name": "Venta al por mayor de aparatos e instrumentos médicos, ortopédicos, ópticos",
              "href": "https://api.euskadi.eus/procurements/companies/economic-activities/1.619.2"
            }
          }
        }
      ],
      "certificateStartDate": "2017-08-04",
      "certificateEndDate": "2017-08-02",
      "object": "LA IMPORTACIÓN, EXPORTACIÓN Y VENTA DE PRODUCTOS MÉDICOS Y ORTOPÉDICOS",
      "mainEntityOfPage": "https://www.contratacion.euskadi.eus/webkpe00-kperoc/es/ac71aBusquedaRegistrosWar/empresa/01259",
      "_links": {
        "self": {
          "name": "BARD DE ESPAÑA, S.A.",
          "href": "https://api.euskadi.eus/procurements/companies/01259"
        }
      }
    },
    {
      "name": "IPSEN PHARMA, S.A.",
      "registrationNumber": "04517",
      "identificationNumber": "A20005088",
      "address": "TORRE REALIA - PZA. EUROPA, 41-43 - PLANTA 7",
      "location": {
        "postalCode": "08908",
        "municipality": "Hospitalet de Llobregat, L'",
        "county": "Barcelona",
        "municipalityId": "101",
        "countyId": "08"
      },
      "economicActivities": [
        {
          "id": "1.614.1",
          "name": "Venta al por mayor de productos farmacéuticos y medicamentos",
          "_links": {
            "self": {
              "name": "Venta al por mayor de productos farmacéuticos y medicamentos",
              "href": "https://api.euskadi.eus/procurements/companies/economic-activities/1.614.1"
            }
          }
        }
      ],
      "certificateStartDate": "2017-08-03",
      "certificateEndDate": "2018-01-27",
      "object": "LA ELABORACIÓN, FABRICACIÓN, COMPRA Y VENTA DE PRODUCTOS QUÍMICOS Y ESEPCIALIDADES FARMACEÚTICAS Y PERFUMERÍA, BIEN SEAN PRODUCTOS PROPIOS O BIEN ARRENDADOS",
      "mainEntityOfPage": "https://www.contratacion.euskadi.eus/webkpe00-kperoc/es/ac71aBusquedaRegistrosWar/empresa/04517",
      "_links": {
        "self": {
          "name": "IPSEN PHARMA, S.A.",
          "href": "https://api.euskadi.eus/procurements/companies/04517"
        }
      }
    },
    {
      "name": "ESC SERVICIOS GENERALES, S.L.",
      "registrationNumber": "05149",
      "identificationNumber": "B15704364",
      "address": "LOS PAJARITOS, 24",
      "location": {
        "postalCode": "28007",
        "municipality": "Madrid",
        "county": "Madrid",
        "municipalityId": "079",
        "countyId": "28"
      },
      "economicActivities": [
        {
          "id": "1.504.1",
          "name": "Instalaciones eléctricas en general",
          "_links": {
            "self": {
              "name": "Instalaciones eléctricas en general",
              "href": "https://api.euskadi.eus/procurements/companies/economic-activities/1.504.1"
            }
          }
        },
        {
          "id": "1.849.9",
          "name": "Otros servicios independientes n.c.o.p",
          "_links": {
            "self": {
              "name": "Otros servicios independientes n.c.o.p",
              "href": "https://api.euskadi.eus/procurements/companies/economic-activities/1.849.9"
            }
          }
        }
      ],
      "certificateStartDate": "2017-08-02",
      "certificateEndDate": "2017-11-03",
      "object": "LA PRESTACIÓN DE TODOS LOS SERVICIOS AUXILIARES Y COMPLEMENTARIOS EN FINCAS URBANAS E INMUEBLES, COMUNIDADES Y COOPERATIVAS DE VIVIENDAS, URBANIZACIONES Y COMPLEJOS INDUSTRIALES. LA PRESTACIÓN DE SERVICIOS DE CELADURÍA Y CONTROL, PORTERÍA, CONSERJERÍA, MENSAJERÍA, DISTRIBUCIÓN DE MERCANCÍAS, CORRESPONDENCIA Y PAQUETERÍA, ASISTENCIA A CONGRESOS Y CONVENCIONES, GUÍAS, ORDENANZAS, UJIERES, GUARDAS, SERENO, COBRADORES, BEDELES Y AZAFATAS, SERVICIOS DE LIMPIEZA, ALUMBRADO, RESTAURACIÓN, RECONSTRUCCIÓN Y MANTENIMIENTO DE TODO TIPO DE VIVIENDAS, INSTALACIONES Y EDIFICACIONES; LA ATENCIÓN Y SERVICIO A LOS USUARIOS, OCUPANTES Y VISITANTES DE DICHOS ESTABLECIMIENTOS. LAS DE INFORMACIÓN EN LOS ACCESOS, CUSTODIA Y COMPROBACIÓN DEL ESTADO Y FUNCIONAMIENTO DE INSTALACIONES, Y DE GESTIÓN AUXILIAR, REALIZADAS EN EDIFICIOS PARTICULARES POR PORTEROS, CONSERJES Y PERSONAL ANÁLOGO. LA COMPROBACIÓN Y CONTROL DEL ESTADO DE CALDERAS E INSTALACIONES GENERALES EN CUALESQUIERA CLASE DE INMUEBLES, PARA GARANTIZAR SU FUNCIONAMIENTO Y SEGURIDAD FÍSICA. EL CONTROL DE TRÁNSITO EN ZONAS RESERVADAS O DE CIRCULACIÓN RESTRINGIDA EN EL INTERIOR DE FÁBRICAS, PLANTAS DE PRODUCCIÓN DE ENERGÍA, GRANDES CENTROS DE PROCESO DE DATOS Y SIMILARES. LAS TAREAS  DE RECPECIÓN, COMPROBACIÓN  DE VISITANTES Y ORIENTACIÓN DE LOS MISMOS, ASÍ COMO LAS DE CONTROL DE ENTRADAS, DOCUMENTOS O CARNÉS PRIVADOS, EN CUALQUIER CLASE DE EDIFICIOS O INMUEBLES. LA ADMINISTRACIÓN Y GESTIÓN DE SOCIEDADES. LA FORMACIÓN PROFESIONAL Y RECICLAJE DEL PERSONAL QUE PRESTE LOS SERVICIOS EXPRESADOS ANTERIORMENTE. LA PRESTACIÓN DE SERVICIOS DE ASESORAMEINTO Y CONTROL EN LAS ACTIVIDADES ANTERIORMENTE REFERIDAS",
      "mainEntityOfPage": "https://www.contratacion.euskadi.eus/webkpe00-kperoc/es/ac71aBusquedaRegistrosWar/empresa/05149",
      "_links": {
        "self": {
          "name": "ESC SERVICIOS GENERALES, S.L.",
          "href": "https://api.euskadi.eus/procurements/companies/05149"
        }
      }
    },
    {
      "name": "4UXL, S.L.U",
      "registrationNumber": "05659",
      "identificationNumber": "B98547250",
      "address": "C/Teruel, 15-2B",
      "location": {
        "postalCode": "46008",
        "municipality": "València",
        "county": "Valencia/València",
        "municipalityId": "250",
        "countyId": "46"
      },
      "economicActivities": [
        {
          "id": "1.844",
          "name": "Servicios de publicidad, relaciones públicas y similares",
          "_links": {
            "self": {
              "name": "Servicios de publicidad, relaciones públicas y similares",
              "href": "https://api.euskadi.eus/procurements/companies/economic-activities/1.844"
            }
          }
        }
      ],
      "certificateStartDate": "2017-08-02",
      "certificateEndDate": "2017-12-21",
      "object": "PRESTACIÓN DE SERVICIOS EN LA GESTIÓN DE CAMPAÑAS DE PUBLICIDAD",
      "mainEntityOfPage": "https://www.contratacion.euskadi.eus/webkpe00-kperoc/es/ac71aBusquedaRegistrosWar/empresa/05659",
      "_links": {
        "self": {
          "name": "4UXL, S.L.U",
          "href": "https://api.euskadi.eus/procurements/companies/05659"
        }
      }
    },
    {
      "name": "3S EFICIENCIA, S.L.",
      "registrationNumber": "05658",
      "identificationNumber": "B71037923",
      "address": "Avda de Guipuzcoa 40, Planta 1 Oficina 3",
      "location": {
        "postalCode": "31012",
        "municipality": "Pamplona/Iruña",
        "county": "Navarra",
        "municipalityId": "201",
        "countyId": "31"
      },
      "economicActivities": [
        {
          "id": "1.843.1",
          "name": "Servicios técnicos de ingeniería",
          "_links": {
            "self": {
              "name": "Servicios técnicos de ingeniería",
              "href": "https://api.euskadi.eus/procurements/companies/economic-activities/1.843.1"
            }
          }
        }
      ],
      "certificateStartDate": "2017-07-31",
      "certificateEndDate": "2018-01-21",
      "object": "A) LA EJECUCIÓN DE PROYECTOS, CONSTRUCCIÓN, INSTALACIÓN MANTENIMIENTO, PROMOCIÓN, INTERMEDIACIÓN Y EXPLOTACIÓN DE PLANTAS DE PRODUCCIÓN DE ENRGÍA SOLAR U OTRAS ENERGÍAS RENOVABLES. B) LA GENERACIÓN Y COMERCIALIZACIÓN DE ENERGÍA ELÉCTRICA. C) LA ADQUISICIÓN, ARRENDAMIENTO Y ENAJENACIÓN, TOTAL O PARCIAL, DE INMUEBLES Y FINCAS, RÚSTICAS Y URBANAS",
      "mainEntityOfPage": "https://www.contratacion.euskadi.eus/webkpe00-kperoc/es/ac71aBusquedaRegistrosWar/empresa/05658",
      "_links": {
        "self": {
          "name": "3S EFICIENCIA, S.L.",
          "href": "https://api.euskadi.eus/procurements/companies/05658"
        }
      }
    },
    {
      "name": "BIDARTE REFORMAS, S.L.",
      "registrationNumber": "04479",
      "identificationNumber": "B95365862",
      "address": "Bº ZUATZAURRE, 17",
      "location": {
        "postalCode": "48960",
        "municipality": "Galdakao",
        "county": "Bizkaia",
        "municipalityId": "036",
        "countyId": "48"
      },
      "economicActivities": [
        {
          "id": "1.501.1",
          "name": "Construcción completa, reparación y conservación de edificaciones",
          "_links": {
            "self": {
              "name": "Construcción completa, reparación y conservación de edificaciones",
              "href": "https://api.euskadi.eus/procurements/companies/economic-activities/1.501.1"
            }
          }
        }
      ],
      "certificateStartDate": "2017-07-26",
      "certificateEndDate": "2018-01-17",
      "object": "LA ADQUISICIÓN Y ENAJENACIÓN POR CUALQUIER TÍTULO DE FINCAS RÚSTICAS Y URBANAS, YA SEAN TIERRAS, SOLARES, EDIFICIOS, LA CONSTRUCCIÓN DE ESTOS Y SU ADMINISTRACIÓN, TENENCIA Y EXPLOTACIÓN; LA URBANIZACIÓN Y PARCELACIÓN DE TERRENOS, CONFORME A LOS PLANES DE ORDENACIÓN URBANÍSTICAS APROBADOS POR LAS AUTORIDADES COMPETENTES EN LOS POLÍGONOS Y ZONAS  DE ACTUACIÓN QUE AL EFECTO SEAN DESIGNADOS Y LA REPARCELACÓN DE DICHOS TERRENOS URBANÍSTICOS Y, EN SU CASO, EDIFICACIONES Y VENTA DE LOS MISMOS O DE LAS EDIFICACIONES Y OBRAS DE URBANIZACIÓN Y SERVICIOS, A CUYO EFECTO, PODRÁ FORMAR PARTE DE ASOCIACIONES DE PROPIETARIOS, EMPRESAS MIXTAS Y ENTIDADES URBANÍSTICAS COLABORADORAS QUE PUEDAN REGLAMENTARSE A LOS EXPRESADOS FINES; LA PROMOCIÓN Y EJECUCIÓN COMPLETA O POR RAMOS DE TODA CLASE DE OBRAS DE CONSTRUCCIÓN, OBRAS CIVILES, URBANIZACIÓN Y SERVICIOS, REPARACIÓNO Y CONSERVACIÓN POR CUENTA PROPIA O AJENA, INCLUSO VIVIENDAS Y LOCALES DE LOS LLAMADOS DE PROTECCIÓN OFICIAL; LA COMPRA-VENTA Y ALQUILER DE EDIFICACIONES EN SU TOTALIDAD, POR PARTES  O POR PISOS, BIEN PARA VIVIENDAS, APARCAMIENTOS, PARA LOCALES DE OFICINAS, DE NEGOCIOS O INDUSTRIALES, CONSTRUIDOS A TAL FIN, DIRECTAMENTE O POR MEDIO DE CONTRATISTAS, SUBCONTRATISTAS Y DESTAJISTAS O BIEN ADQUIRIDOS YA CONSTRUIDOS O EN CONSTRUCCIÓN; LA ALBAÑILERÍA, FONTANERÍA, CARPINTERÍA Y ACTIVIDADES VINCULADAS A LA CONSTRUCCIÓN, REPARACIÓN Y PROMOCIONES DE OBRAS; LA COMPRA, VENTA, ALMACENAMIENTO, DEPÓSITO Y DISTRIBUCIÓN DE TODO TIPO DE MAQUINARIA Y MATERIALES DE CONSTRUCCIÓN",
      "mainEntityOfPage": "https://www.contratacion.euskadi.eus/webkpe00-kperoc/es/ac71aBusquedaRegistrosWar/empresa/04479",
      "_links": {
        "self": {
          "name": "BIDARTE REFORMAS, S.L.",
          "href": "https://api.euskadi.eus/procurements/companies/04479"
        }
      }
    },
    {
      "name": "CERRAJERÍA INDARKI",
      "registrationNumber": "05639",
      "identificationNumber": "72748441Q",
      "address": "LAS NEVERAS 2-1º B",
      "location": {
        "postalCode": "01006",
        "municipality": "Vitoria-Gasteiz",
        "county": "Araba/Álava",
        "municipalityId": "059",
        "countyId": "01"
      },
      "economicActivities": [
        {
          "id": "1.505.5",
          "name": "Carpintería y cerrajería",
          "_links": {
            "self": {
              "name": "Carpintería y cerrajería",
              "href": "https://api.euskadi.eus/procurements/companies/economic-activities/1.505.5"
            }
          }
        }
      ],
      "certificateStartDate": "2017-07-26",
      "certificateEndDate": "2017-12-02",
      "object": "LA CARPINTERÍA Y CERRAJERÍA",
      "mainEntityOfPage": "https://www.contratacion.euskadi.eus/webkpe00-kperoc/es/ac71aBusquedaRegistrosWar/empresa/05639",
      "_links": {
        "self": {
          "name": "CERRAJERÍA INDARKI",
          "href": "https://api.euskadi.eus/procurements/companies/05639"
        }
      }
    },
    {
      "name": "CLEQUALI, S.L.",
      "registrationNumber": "02991",
      "identificationNumber": "B83463331",
      "address": "C/ COLOMBIA, 64 - 1ºA",
      "location": {
        "postalCode": "28016",
        "municipality": "Madrid",
        "county": "Madrid",
        "municipalityId": "079",
        "countyId": "28"
      },
      "economicActivities": [
        {
          "id": "1.849.9",
          "name": "Otros servicios independientes n.c.o.p",
          "_links": {
            "self": {
              "name": "Otros servicios independientes n.c.o.p",
              "href": "https://api.euskadi.eus/procurements/companies/economic-activities/1.849.9"
            }
          }
        },
        {
          "id": "1.922",
          "name": "Servicios de limpieza",
          "_links": {
            "self": {
              "name": "Servicios de limpieza",
              "href": "https://api.euskadi.eus/procurements/companies/economic-activities/1.922"
            }
          }
        }
      ],
      "certificateStartDate": "2017-07-24",
      "certificateEndDate": "2018-01-03",
      "object": "1) LA ADQUISICIÓN, CESIÓN, TENENCIA, DISFRUTE, ADMINISTRACIÓN, GESTIÓN Y NEGOCIACIÓN EN GENERAL DE VALORES MOBILIBARIOS E INMUEBLES, PARTICIPACIONES SOCIALES O EN COPROPIEDAD DE TODA CLASE DE BIENES.\r\n\r\n2) LA CONSTITUCIÓN CON LA CONCURRENCIA DE OTRAS PERSONAS DE TODA CLASE DE SOCIEDADES MERCANTILES, LA PARTICIPACIÓN EN OTRAS CONSTITUIDAD, PUDIENDO OSTENTAR EN TODAS ELLAS CARGOS DE ADMINISTRACIÓN, DIRECCIÓN O CONTROL MEDIANTE LA OPORTUNA DELEGACIÓN EN PERSONA FÍSICA.\r\n\r\n3) LA ADQUISICIÓN Y ENAJENACIÓN POR CUALQUIER TÍTULO DE FINCAS RÚSTICAS Y URBANAS, YA SEAN TIERRAS, SOLARES, EDIFICIOS, LA CONSTRUCCIÓN DE ÉSTOS, Y LA TENENCIA, EXPLOTACIÓN Y ARRENDAMIENTO, YA SEA ACTIVO O PASIVO DE TALES BIENES Y SU VENTA TOTAL O PARCIAL, SEGÚN CONVENGA.\r\n\r\n4) EL ARRENDAMIENTO Y CUALQUIER OTRA FÓRMULA DE CESIÓN, USO O DISFRUTE QUE ABARQUE TODO O PARTE  DE LOS EPÍGRAFES ANTERIORES.\r\n\r\n5) DISEÑOS DE PROYECTOS  DE INGENIERÍA Y ARQUITECTURA.\r\n\r\n6) INSTALACIONES Y ACONDICIONAMIENTO DE OBRAS.\r\n\r\n7) CONSULTORÍA Y ASESORAMIENTO TÉCNICO.\r\n\r\n8) DISEÑO GRÁFICO Y PUBLICITARIO, DISEÑO INDUSTRIAL, EDICIÓN E IMPRESIÓN DE TODO TIPO DE DOCUMENTOS.\r\n\r\n9) PROYECTOS DE MARKETING Y ASESORAMIENTO DE IMAGEN.\r\n\r\n10) SUMINISTRO DE EQUIPOS Y MATERIALES PARA TODO TIPO DE INSTALACIONES.\r\n\r\n11) SUMINISTRO DE MATERIAL PUBLICITARIO Y DE REGALO.\r\n\r\n12) LA PRESTACIÓN POR MEDIOS PROPIOS O AJENOS A TRAVÉS DE PERSONAL ESPECIALIZADO, DE LOS SIGUIENTES SERVICIOS:\r\n12a) REALIZACIÓN DE TODA CLASE DE SERVICIOS Y MONTAJES A LA INDUSTRIA EN GENERAL\r\n12b) LIMPIEZA Y MANTENIMIENTO INTEGRAL DE INDUSTRIAS, EDIFICIOS Y LOCALES, VIALES, PARQUES, JARDINES, TRANSPORTES Y QUÍMICAS, EXPLOTACIONES FORESTALES, URBANIZACIONES Y ADMINISTRACIÓN PÚBLICA.\r\n12c) GESTIÓN INTEGRAL DE EXTINCIÓN DE INCENDIOS, TRATAMIENTOS PLAGUICIDAS, ALMACENES, TRANSPORTE EN GENERAL.\r\n12d) GESTIÓN INTEGRAL DE ROPA LABORAL: RENTING DE PRENDAS, LAVADO DE ROPA INDUSTRIAL Y GESTIÓN Y MANTENIMIENTO DEL PROCESO.\r\n12e) TRATAMIENTO DE RESIDUOS: MINIMACIÓN, ANÁLISIS, TRATAMIENTO, TRANSPORTE, EVACUACIÓN, ALMACENAJE Y ELIMINACIÓN DE LOS MISMOS.\r\n12f) FOTOCOMPOSICIÓN: AUTOEDICIÓN, REPROGRÁFICA E IMPRENTA.\r\n12g) GESTIÓN DE OBRAS MENORES: INTERIORISMO, REFORMAS, RESTAURACIÓN Y REPARACIONES DE VIVIENDAS, EDIFICIOS E INSTALACIONES EN GENERAL.\r\n12h) GESTIÓN INTEGRAL DE FORMACIÓN: FORMACIÓN, SELECCIÓN Y ORGANIZACIÓN DE PERSONAL Y EMPRESAS.\r\n\r\n13) EL ASESORAMIENTO TÉCNICO DE TODA CLASE DE EMPRESAS Y ENTIDADES.\r\n\r\n14) LA IMPORTACIÓN, DISTRIBUCIÓN Y VENTA EN TODO EL TÉRMINO ESPAÑOL DE TODA CLASE DE MERCANCÍAS Y PRODUCTOS DE ORIGEN EXTRANJERO.\r\n\r\n15) LA EXPORTACIÓN DE TODA CLASE DE MERCANCÍAS Y PRODUCTOS, INCLUSO SU DISTRIBUCIÓN Y VENTA EN CUALQUIER PAÍS.\r\n\r\n16) LA REPRESENTACIÓN, GESTIÓN, DISTRIBUCIÓN Y VENTA EN FIRME O A COMISIÓN, EN CUALQUIER PAÍS, DE PRODUCTOS Y ARTÍCULOS DE FIRMAS NACIONALES Y EXTRANJERAS.\r\n\r\n17) LA ADQUISICIÓN, ENAJENACIÓN Y EXPLOTACIÓN, DE TODAS LAS FORMAS PERMITIDAS EN DERECHO EN ESPAÑA Y EN EL EXTRANJERO DE PATENTES, PRIVILEGIOS, LICENCIAS, MARCAS Y MODELOS DE UTILIDAD DE CUALQUIER CLASE.\r\n\r\n18) PRESTACIÓN DE TODO TIPO DE SERVICIOS AUXILIARES DE PREVENCIÓN DE RIESGOS LABORALES Y LUCHA CONTRA INCENDIOS, INTEGRADOS FUNCIONALMENTE Y BAJO LAS CONDICIONES DE LOS RESPECTIVOS SERVICIOS DE PREVENCIÓN, DESARROLLANDO ACTIVIDADES DE VIGILANCIA, CONTROL Y REVISIÓN CONTINUADA DEL PERSONAL, EQUIPOS E INSTALACIONES EN LO QUE RESPECTA: \r\n\r\n18a) A LAS CONDICIONES DE SEGURIDAD Y EFICACIA DE LAS MEDIDAS PREVENTIVAS TANTO COLECTIVAS COMO INDIVIDUALES (EPIS).\r\n18b) MANTENIMIENTO DE LAS CONDICIONES DE USO DE LOS SISTEMAS DE PREVENCIÓN Y ALARMA CONTRA INCENDIOS, ASÍ COMO DETECCIÓN DE GASES, HUMOS, ETC., VERIFICANDO PERIÓDICAMENTE SU ESTADO PARA GARANTIZAR SU CORRECTO FUNCIONAMIENTO.\r\n18c) IDENTIFICACIÓN DE PELIGROS DERIVADOS DE CUALQUIER AGENTE, PARA DETECTAR LOS RIESGOS EXISTENTES Y PROPONER LA ELIMINACIÓN O REDUCCIÓN DE LOS MISMOS.\r\n18d) GESTIONAR LA SEÑALIZACIÓN DE SEGURIDAD DE LAS ÁREAS Y EQUIPOS DE TRABAJO MEDIANTE LA ADQUISICIÓN, SI FUERA NECESARIO, ASÍ COMO LA INSTALACIÓN Y REVISIÓN DE LAS SEÑALES CORRESPONDIENTES PARA LA IDENTIFICACIÓN DE LOS RIESGOS Y LAS MEDIDAS PREVENTIVAS EXISTENTES EN LA ACTUALIDAD.\r\n18e) CONTROLAR LAS CONDICIONES DE SEGURIDAD EN QUE SE REALIZAN LAS ACTIVIDADES PELIGROSAS, COMPROBANDO LOS MÉTODOS Y PROCEDIMIENTOS ESTABLECIDOS PARA ELIMINAR O REDUCIR LOS RIESGOS DERIVADOS DE LOS MISMOS,\r\n18f) LABORES DE MEDIACIÓN Y COMPROBACIÓN DE LAS ATMÓSFERAS Y TENSIONES ELÉCTRICAS DE SEGURIDAD DE RECINTOS CONFINADOS, ZONAS CERRADAS  Y ZONAS HÚMEDAS O CON AGUA.\r\n18g) ASESORAMIENTO Y COLABORACIÓN A LOS RESPECTIVOS SERVICIOS DE PREVENCIÓN EN LA IMPLANTACIÓN Y DESARROLLO DE LA POLÍTICA DE PREVENCIÓN (EVALUACIÓN DE RIESGOS, PLANES DE SEGURIDAD, PLANES DE EMERGENCIA, ETC...)\r\n18i) COMPROBACIÓN DE ETIQUETADO, ENVASADO Y ALMACENAMIENTO DE LOS PRODUCTOS QUÍMICOS, SIGUIENDO LA NORMATIVA VIGENTE APLICABLE A LA ACTIVIDAD, PARA GARANTIZAR EL USO SEGURO DE PRODUCTOS QUÍMICOS.\r\n18j) CONDUCCIÓN DE ACCIONES DE EMERGENCIA Y PRIMEROS AUXILIOS SIGUIENDO LOS PLANOS ESTABLECIDOS Y APLICANDO LAS TÉCNICAS CORRESPONDIENTES.\r\n18k) CUALESQUIERA OTRAS ACTIVIDADES RELACIONADAS, BAJO LAS CONDICIONES Y CRITERIOS ESTABLECIDOS EN LOS RESPECTIVOS SERVICIOS DE PREVENCIÓN.\r\n\r\n19) LA ORGANIZACIÓN Y GESTIÓN DE RECURSOS HUMANOS, MATERIALES O DE CUALQUIER ÍNDOLE, PARA REALIZAR SERVICIOS DE CONSERJERÍA, RECEPCIÓN, SERVICIOS DE CELADORES, CONTROL DE ACCESOS, MENSAJERÍA, ADMINISTRACIÓN, COMERCIAL, MANTENIMIENTO DE EQUIPOS DE TRABAJO, MANTENIMIENTO DE SOFTWARE, O CUALESQUIERA OTROS ÍMPLICITOS O RELACIONADOS QUE LOS CLIENTES O USUARIOS PUEDAN DEMANDAR, TANTO EN EL ÁMBITO PÚBLICO COMO PRIVADO, SEGÚN LA ACTIVIDAD DE LA EMPRESA  U ORGANISMO Y DE ACUERDO CON LAS NORMAS ESTABLECIDAS Y LA NORMA LEGAL VIGENTE.\r\n\r\n20) GESTIÓN INTEGRAL DE ÁREAS Y EQUIPAMIENTOS SOCIO-CULTURALES Y DE SERVICIOS DEPORTIVOS, CULTURALES, DE FORMACIÓN, TANTO PÚBLICOS COMO PRIVADOS, PARA GESTIONAR, ORGANIZAR E INTERVENIR EN TODO TIPO DE ACTIVIDADES RELACIONADAS O DIRIGIDAS TANTO A LA INFANCIA, JUVENTUD, ADULTOS Y A LA TERCERA EDAD; Y ENTRE ELLO:\r\n20a) SERVICIOS DE GUÍAS Y VISITAS GUÍADAS A MUSEOS, PUEBLOS, IGLESIAS Y TODO LO REFERENTE AL PATRIMONIO CULTURAL Y NATURAL.\r\n20b) GESTIÓN INTEGRAL DE PATRIMONIO CULTURAL Y NATURAL: INVESTIGACIÓN, CONSERVACIÓN, DIFUSIÓN, INTERPRETACIÓN, DINAMIZACIÓN, SPONSORIZACIÓN, PATROCINIO Y MECENAZGO.\r\n20c) GESTIÓN, ADMINISTRACIÓN Y DIRECCIÓN DE MUSEOS O CUALQUIER OTRA INSTITUCIÓN CULTURAL.\r\n20d) PRODUCCIÓN Y VENTA DE OBJETOS CULTURALES O MERCHANDISING CULTURAL.\r\n20e) ORGANIZACIÓN DE CHARLAS, JORNADAS, CONCIERTOS, EXPOSICIONES, ETC. COMISARIADO, DISEÑO Y PRODUCCIÓN DE EXPOSICIONES.\r\n20f) EDICIÓN DE MATERIAL IMPRESO O EN CUALQUIER OTRA TECNOLOGÍA (CDROM, SOFTWARE, CINTAS, MAQUETAS, ETC.).\r\n20g) FORMACIÓN Y ACTIVIDADES PEDAGÓGICAS.\r\n20h) ORGANIZACIÓN Y GESTIÓN ECONÓMICA DE EVENTOS CULTURALES Y FESTIVOS.\r\n\r\n21) LA ADQUISICIÓN, GESTIÓN, ADMINISTRACIÓN Y EXPLOTACIÓN DE HOTELES, RESTAURANTES, INSTALCACIONES Y COMPLEJOS HOTELEROS Y LA PRESTACIÓN DE TODO GÉNERO DE SERVICIOS DE HOSTELERÍA.\r\n\r\n22) INSTALACIÓN, MANTENIMIENTO Y GESTIÓN INTEGRAL DE ÁREAS Y EQUIPAMIENTOS DEPORTIVOS.\r\n\r\n23) LA PROMOCIÓN, ESTUDIO, DESARROLLO, ADMINISTRACIÓN, ASESORAMIENTO Y GESTIÓN DE ACTUACIONES DEPORTIVAS DE TODO TIPO, TANTO EN LOCALES CERRADOS COMO AL AIRE LIBRE Y LA PRESTACIÓN DE SERVICIOS DE CUALQUIER CLASE A TERCEROS RELACIONADOS CON EL DEPORTE EN CUALQUIERA DE SUS MANIFESTACIONES Y CON LAS INSTALACIONES DONDE SE DESARROLLEN LOS MISMOS.\r\n\r\n24) LA GESTIÓN, ADMINISTRACIÓN, LIMPIEZA, MANTENIMIENTO, CONSERVACIÓN, REHABILITACIÓN Y REPARACIÓN DE CENTROS DE ASISTENCIA A LA TERCERA EDAD, TANTO PRIVADOS COMO PÚBLICOS Y SEAN ÉSTOS MUNICIPALES, PROVINCIALES, ESTATALES O AUTONÓMICOS.\r\n\r\n25) LA PROMOCIÓN, GESTIÓN, ADMINISTRACIÓN Y ASESORAMIENTO DE ACTIVIDADES CULTURALES, DEPORTIVAS Y RECREATIVAS, INCLUSO LAS PATROCINADAS O PROPICIADAS POR AYUNTAMIENTOS, DIPUTACIONES, ASOCIACIONES, COMISIONES DE FIESTAS Y CUALQUIER OTRA  ENTIDAD U ORGANISMO, PÚBLICO O PRIVADO, TANTO EN LOCALES CERRADOS COMO AL AIRE LIBRE.\r\n\r\n26) LA PRESTACIÓN DE SERVICIOS DE ASISTENCIA SOCIAL, DE CARÁCTER PÚBLICO O PRIVADO A PERSONAS INDIVIDUALES O COLECTIVOS, MEDIANTE LA GESTIÓN, TRATAMIENTO Y PROCESO DE LLAMADAS DE ALARMA DOMICILIARIA DE CARÁCTER MEDICO-SANITARIO O ASISTENCIAS POR PARTE DE LOS USUARIOS Y PUESTA EN ACCIÓN DE LOS MEDIOS PERSONALES Y MATERIALES NECESARIOS PARA PRESTAR EN CADA CASO LA ASISTENCIA PRECISA, SEGÚN INSTRUCCIONES PREVIAMENTE FACILITADAS POR AQUELLOS.\r\n\r\n27) LA GESTIÓN DE BASES DE DATOS DE LOS USUARIOS, ASÍ COMO DE MEDIOS ASISTENCIALES.\r\n\r\n28) LA CONTRATACIÓN O SUBCONTRATACIÓN DE ASISTENCIAS TÉCNICAS, MÉDICAS, DE TRANSPORTE DE ENFERMOS O MINUSVÁLIDOS O DE AYUDAS DOMICILIARIAS, PRESTACIÓN DE TODO TIPO DE AYUDAS A LOS USUARIOS, FUNDAMENTALMENTE EN CASOS DE URGENCIA O NECESIDAD MÉDICO-SANITARIA O PERSONAL.\r\n\r\n29) LA COMPRAVENTA, ALQUILER Y MANTENIMIENTO DE EQUIPOS EMISORES O RECEPTORES, ASÍ COMO LA INSTALACIÓN DE LOS MISMOS.\r\n\r\n30) LA PRESTACIÓN DE SERVICIOS COMPLETOS Y DIARIOS DE ALIMENTOS PARA COLECTIVOS O PERSONAS INDIVIDUALES, ESPECIALMENTE ANCIANOS Y MINUSVÁLIDOS, ASÍ COMO LA ELABORACIÓN DE LAS COMIDAS NECESARIAS PARA LA PRESTAICÓN DE TALES SERVICIOS.\r\n\r\n31) LA GESTIÓN, LA ADMINISTRACIÓN Y EXPLOTACIÓN DE CENTROS DE DÍA Y RESIDENCIAS PARA LA ATENCIÓN A LA TERCERA EDAD, DE TITULARIDAD PÚBLICA (AYUNTAMIENTOS, DIPUTACIONES, COMUNIDADES AUTÓNOMAS O ESTATALES) Y/O PRIVADAS, ESTÉN O NO INTEGRADOS EN OTROS CENTROS CUYA FINALIDAD ASISTENCIAL SEA MÁS AMPLIA EN VIRTUD DE LA ATENCIÓN E INTEGRACIÓN CON OTROS COLECTIVOS COMO PUEDEN SER, ENTRE OTROS, INFANCIA, JUVENTUD, ADULTOS, DISCAPACITADOS O NO, O CUALQUIER COLECTIVO",
      "mainEntityOfPage": "https://www.contratacion.euskadi.eus/webkpe00-kperoc/es/ac71aBusquedaRegistrosWar/empresa/02991",
      "_links": {
        "self": {
          "name": "CLEQUALI, S.L.",
          "href": "https://api.euskadi.eus/procurements/companies/02991"
        }
      }
    },
    {
      "name": "LOOP, S.L.",
      "registrationNumber": "03638",
      "identificationNumber": "B48194690",
      "address": "VILLARÍAS, nº 10-5º. Dpto. 504",
      "location": {
        "postalCode": "48001",
        "municipality": "Bilbao",
        "county": "Bizkaia",
        "municipalityId": "020",
        "countyId": "48"
      },
      "economicActivities": [
        {
          "id": "1.845",
          "name": "Explotación electrónica por cuenta de terceros",
          "_links": {
            "self": {
              "name": "Explotación electrónica por cuenta de terceros",
              "href": "https://api.euskadi.eus/procurements/companies/economic-activities/1.845"
            }
          }
        },
        {
          "id": "1.932.1",
          "name": "Enseñanza de formación y perfeccionamiento profesional no superior",
          "_links": {
            "self": {
              "name": "Enseñanza de formación y perfeccionamiento profesional no superior",
              "href": "https://api.euskadi.eus/procurements/companies/economic-activities/1.932.1"
            }
          }
        }
      ],
      "certificateStartDate": "2017-07-22",
      "certificateEndDate": "2018-01-21",
      "object": "LA INFORMACIÓN Y ESTUDIOS EMPRESARIALES, ASÍ COMO LA ASISTENCIA A EMPRESAS Y/O CUALQUIER CLASE DE GESTIÓN, INCLUSO INTEGRAL",
      "mainEntityOfPage": "https://www.contratacion.euskadi.eus/webkpe00-kperoc/es/ac71aBusquedaRegistrosWar/empresa/03638",
      "_links": {
        "self": {
          "name": "LOOP, S.L.",
          "href": "https://api.euskadi.eus/procurements/companies/03638"
        }
      }
    }
  ]
}