{
  "totalItems": 9042,
  "totalPages": 905,
  "currentPage": 668,
  "itemsOfPage": 10,
  "items": [
    {
      "name": "AERLAN SERVICIOS SL",
      "registrationNumber": "05066",
      "identificationNumber": "B20925889",
      "address": "FERMIN CALBETÓN Nº 45 - ENTRESUELO OF.1",
      "location": {
        "postalCode": "20003",
        "municipality": "Donostia / San Sebastián",
        "county": "Gipuzkoa",
        "municipalityId": "069",
        "countyId": "20"
      },
      "economicActivities": [
        {
          "id": "1.922",
          "name": "Servicios de limpieza",
          "_links": {
            "self": {
              "name": "Servicios de limpieza",
              "href": "https://api.euskadi.eus/procurements/companies/economic-activities/1.922"
            }
          }
        },
        {
          "id": "1.952",
          "name": "Asistencia y servicios sociales en centros no residenciales",
          "_links": {
            "self": {
              "name": "Asistencia y servicios sociales en centros no residenciales",
              "href": "https://api.euskadi.eus/procurements/companies/economic-activities/1.952"
            }
          }
        }
      ],
      "certificateStartDate": "2014-08-20",
      "certificateEndDate": "2015-02-20",
      "object": "LA GESTIÓN Y PRESTACIÓN DE SERVICIOS DE ATENCIÓN Y CUIDADO PERSONAL, AYUDA A DOMICILIO, TELEASISTENCIA, LIMPIEZA DOMÉSTICA, LIMPIEZA INDUSTRIAL Y CUALESQUIERA OTRAS ACTIVIDADES RELACIONADAS CON DICHO OBJETO",
      "mainEntityOfPage": "https://www.contratacion.euskadi.eus/webkpe00-kperoc/es/ac71aBusquedaRegistrosWar/empresa/05066",
      "_links": {
        "self": {
          "name": "AERLAN SERVICIOS SL",
          "href": "https://api.euskadi.eus/procurements/companies/05066"
        }
      }
    },
    {
      "name": "GARDEN CONSULTING S.L. Y ASOCIADOS",
      "registrationNumber": "03226",
      "identificationNumber": "B48619803",
      "address": "C/ Txosna Auzoa, 1",
      "location": {
        "postalCode": "48160",
        "municipality": "Derio",
        "county": "Bizkaia",
        "municipalityId": "901",
        "countyId": "48"
      },
      "economicActivities": [
        {
          "id": "1.631",
          "name": "Intermediarios del comercio",
          "_links": {
            "self": {
              "name": "Intermediarios del comercio",
              "href": "https://api.euskadi.eus/procurements/companies/economic-activities/1.631"
            }
          }
        },
        {
          "id": "1.654.5",
          "name": "Venta al por menor de toda clase de maquinaría",
          "_links": {
            "self": {
              "name": "Venta al por menor de toda clase de maquinaría",
              "href": "https://api.euskadi.eus/procurements/companies/economic-activities/1.654.5"
            }
          }
        }
      ],
      "certificateStartDate": "2014-08-19",
      "certificateEndDate": "2015-02-19",
      "object": "LA CONSULTORÍA DE HOSTELERÍA PARA HOSPITALES, HOTELES, RESTAURANTES Y LA REPRESENTACIÓN DE MAQUINARIA DE HOSTELERÍA.\r\nLAS ACTIVIDADES INTEGRANTES DEL OBJETO SOCIAL PODRÁN SER DESARROLLADAS POR LA SOCIEDAD DE MODO INDIRECTO, MEDIANTE SU PARTICIPACIÓN EN SOCIEDADES O ENTIDADES CON DISTINTA PERSONALIDAD JURÍDICA",
      "mainEntityOfPage": "https://www.contratacion.euskadi.eus/webkpe00-kperoc/es/ac71aBusquedaRegistrosWar/empresa/03226",
      "_links": {
        "self": {
          "name": "GARDEN CONSULTING S.L. Y ASOCIADOS",
          "href": "https://api.euskadi.eus/procurements/companies/03226"
        }
      }
    },
    {
      "name": "ALKAR BIZIZ, S.L.",
      "registrationNumber": "04812",
      "identificationNumber": "B95314605",
      "address": "HERNANI, 5 - BAJO",
      "location": {
        "postalCode": "48003",
        "municipality": "Bilbao",
        "county": "Bizkaia",
        "municipalityId": "020",
        "countyId": "48"
      },
      "economicActivities": [
        {
          "id": "1.951",
          "name": "Asistencia y servicios sociales en centros residenciales",
          "_links": {
            "self": {
              "name": "Asistencia y servicios sociales en centros residenciales",
              "href": "https://api.euskadi.eus/procurements/companies/economic-activities/1.951"
            }
          }
        }
      ],
      "certificateStartDate": "2014-08-19",
      "certificateEndDate": "2015-02-19",
      "object": "EL CUIDADO DE LAS PERSONAS A TRAVÉS DE: - LA GESTIÓN Y PRSTACIÓ  DE ASISTENICA Y CUIDADOS A LAS PERSONAS MAYORES, MEDIANTE LA FACILITACIÓN DE COMPAÑÍA A LOS MISMOS Y BAJO SU SUPERVISIÓN Y VIGILANCIA, YA SEA EN RESIDENCIAS, HOGARES COMPARTIDOS, HOSPITALES O CENTROS SIMILARES E INCLUSO A DOMICILIO; EL FAVORECIMIENTO DE ACTIVIDADES LÚDICAS POR PARTE DE LAS PERSONAS MAYORES; LA DINAMIZACIÓN DE LAS MISMAS; LA PESTACIÓN DE CUIDADOS, COMPAÑÍA, CURA Y CONSUELO EN GENERAL, Y ESPECIALMENTE EN CASO DE ENFERMEDAD; LA AYUDA EN LAS TAREAS DIARIAS DE AUTO HIGIENE, VESTIMENTA Y CUALQUIER OTRA RELACIONADA CON LA FALTA DE HABILIDAD DE LA PERSONA MAYOR PARA VALERSE POR SI MISMA, ASÍ COMO EL FAVORECIMIENTO DE LA INTEGRACIÓN SOCIAL DE LAS PERSONAS DE EDAD AVANZADA. IGUALMENTE PODRÁ LA SOCIEDAD REALIZAR ACTOS JURÍDICOS EN NOMBRE DE LAS PERSONAS MAYORES, TALES COMO EL COBRO DE SU PENSIÓN U OTRAS INDEMNIZACIONES, LA APERTURA, CANCELACIÓN Y MODIFICACIÓN DE DEPÓSITOS, CUENTAS CORRIENTES Y OTROS NEGOCIOS BANCARIOS , Y LA REPRESENTACIÓN DEFENSA Y GESTIÓN DE ASUNTOS E INTERESES DE LAS PERSONAS ANTE ORGANISMOS PÚBLICOS O PRIVADOS, SALVO QUE ALGUNA DE EESTAS ACTIVIDADES ESTUVIERA PROHIBIDA POR LEY O SUJETA A REGULACIÓN ESPECIAL. - LA PRESTACIÓN DE SERVICIOS DESTINADOS AL CUIDADO DE MENORES, SERVICIOS DE GUARDERÍA, RECOGIDA Y ENTRETENIMIENTO DE NIÑOS (COMO CENTRO INFANTIL, LUDOTECA Y PARQUE DE OCIO INFANTIL), Y A LA FORMACIÓN, INSTRUCCIÓN Y EDUCACIÓN DE LOS MISMOS EN TODOS SUS GRADOS Y CON TODA CLASE DE MATERIALES. - LAS ACTIVIDADES DE INSERCIÓN SOCIO-LABORAL DE PERSONAS EN SITUACIÓN DE EXCLUSIÓN SOCIAL Y EN SITUACIÓN DE RIESGO DE EXCLUSIÓN SOCIAL, CON ESPECIAL ATENCIÓN HACIA LAS MUJERES. - LAS ACTIVIDADES FORMATIVAS Y DE ORIENTACIÓN PARA EL EMPLEO NORMALIZADO DE LAS PERSONAS EN PROCESO DE INSERCIÓN SOCIOLABORAL. - LAS ACTIVIDADES DE FOMENTO DEL DESARROLLO COMUNITARIO Y CUALESQUIERA ACTIVIDADES CUYA FINALIDAD SEA LA MEJORA DE LA CALIDAD DE VIDA DE LAS PERSONAS INDICADAS EN ESTE OBJETO SOCIL. -Y LA ADQUISICIÓN DE INMUEBLES Y CUALESQUIERA OTRAS FORMAS DE CONSTITUCIÓN DE DERECHOS REALES SOBRE LOS MISMOS",
      "mainEntityOfPage": "https://www.contratacion.euskadi.eus/webkpe00-kperoc/es/ac71aBusquedaRegistrosWar/empresa/04812",
      "_links": {
        "self": {
          "name": "ALKAR BIZIZ, S.L.",
          "href": "https://api.euskadi.eus/procurements/companies/04812"
        }
      }
    },
    {
      "name": "CONSTRUCCIONES GAUZA, S.A.",
      "registrationNumber": "03274",
      "identificationNumber": "A48776173",
      "address": "POLÍGONO UGARTE - FASE I  - BARRONDO, 20",
      "location": {
        "postalCode": "48480",
        "municipality": "Zaratamo",
        "county": "Bizkaia",
        "municipalityId": "097",
        "countyId": "48"
      },
      "economicActivities": [
        {
          "id": "1.501.1",
          "name": "Construcción completa, reparación y conservación de edificaciones",
          "_links": {
            "self": {
              "name": "Construcción completa, reparación y conservación de edificaciones",
              "href": "https://api.euskadi.eus/procurements/companies/economic-activities/1.501.1"
            }
          }
        },
        {
          "id": "1.501.2",
          "name": "Construcción completa, reparación y conservación obras civiles",
          "_links": {
            "self": {
              "name": "Construcción completa, reparación y conservación obras civiles",
              "href": "https://api.euskadi.eus/procurements/companies/economic-activities/1.501.2"
            }
          }
        }
      ],
      "certificateStartDate": "2014-08-12",
      "certificateEndDate": "2015-02-06",
      "object": "a) EL ESTUDIO, PROMOCIÓN Y REALIZACIÓN DE TODA CLASE DE OBRAS DE CONSTRUCCIÓN, MEJORA Y CONSERVACIÓN, TANTO PRIVADAS COMO PÚBLICAS, INCLUYENDO TODA CLASE DE CONSTRUCCIONES INDUSTRIALES, DE VIVIENDAS Ó DE CUALQUIER OTRO TIPO; CONSTRUCCIÓN DE VIVIENDAS DE PROTECCIÓN OFICIAL O DE CUALQUIER OTRO TIPO, CONTRATAS DE OBRAS PÚBLICAS Ó PARTICULARES, CONTRATOS DE EJECUCIÓN DE OBRAS Y SERVICIOS, OBTENCIÓN Y EXPLOTACIÓN DE CONCESIONES DE SERVICIOS PÚBLICOS Y DE CUALQUIER OTRA CLASE.\r\n\r\nb) LA ADQUISICIÓN, EXPLOTACIÓN Y ENAJENACIÓN DE TODA CLASE DE TERRENOS, SU URBANIZACIÓN Y PARCELACIÓN, LA CONSTRUCCIÓN DE EDIFICIOS DE TODA CLASE; EL USO, ARRENDAMIENTO Y VENTA DE LOS EDIFICIOS REFERIDOS Y DE CUALQUIER OTRA CLASE, ASÍ COMO, EN GENERAL, LA REALIZACIÓN DE OPERACIONES INMOBILIARIAS EN TODA SU AMPLITUD    ",
      "mainEntityOfPage": "https://www.contratacion.euskadi.eus/webkpe00-kperoc/es/ac71aBusquedaRegistrosWar/empresa/03274",
      "_links": {
        "self": {
          "name": "CONSTRUCCIONES GAUZA, S.A.",
          "href": "https://api.euskadi.eus/procurements/companies/03274"
        }
      }
    },
    {
      "name": "INDUSTRIAL DE MATERIAL PEDAGÓGICO Y ESCOLAR, S.L. IMPESA",
      "registrationNumber": "02371",
      "identificationNumber": "B48151286",
      "address": "C / PRIM, 45-47",
      "location": {
        "postalCode": "48006",
        "municipality": "Bilbao",
        "county": "Bizkaia",
        "municipalityId": "020",
        "countyId": "48"
      },
      "economicActivities": [
        {
          "id": "1.505.1",
          "name": "Revestimientos exteriores e interiores de todas clases",
          "_links": {
            "self": {
              "name": "Revestimientos exteriores e interiores de todas clases",
              "href": "https://api.euskadi.eus/procurements/companies/economic-activities/1.505.1"
            }
          }
        },
        {
          "id": "1.619.5",
          "name": "Venta al por mayor de artículos de papelería y escritorios",
          "_links": {
            "self": {
              "name": "Venta al por mayor de artículos de papelería y escritorios",
              "href": "https://api.euskadi.eus/procurements/companies/economic-activities/1.619.5"
            }
          }
        }
      ],
      "certificateStartDate": "2014-08-11",
      "certificateEndDate": "2015-02-10",
      "object": "LA PRODUCCIÓN, COMERCIALIZACIÓN, IMPORTACIÓN Y EXPORTACIÓN DE MATERIAL DOCENTE EN GENERAL, TANTO IMPRESO COMO MANIPULATIVO O TÉCNNICO, EN REPRESENTACIÓN, PROPIEDAD O DEPÓSITO, LA DE SUS ACCESORIOS Y REPUESTOS EN GENERAL. EL ESTUDIO, PROMOCIÓN Y DESARROLLO DE TODA CLASE DE EMPRESAS INDUSTRIALES, COMERCIALES Y DE SERVICIOS, ASÍ COMO LA PRESTACIÓN A ESTAS EMPRESAS DE SERVICIOS CONSISTENTES EN LA INVESTIGACIÓN Y ESTUDIO DE LOS PROBLEMAS QUE A LOS MISMOS Y A SUS  OPERACIONES AFECTEN, TALES COMO ORGANIZACIÓN GENERAL, INVESTIGACIÓN OPERATIVA, INGENIERÍA DE INSTALACIONES Y PROCESOS.\r\n",
      "mainEntityOfPage": "https://www.contratacion.euskadi.eus/webkpe00-kperoc/es/ac71aBusquedaRegistrosWar/empresa/02371",
      "_links": {
        "self": {
          "name": "INDUSTRIAL DE MATERIAL PEDAGÓGICO Y ESCOLAR, S.L. IMPESA",
          "href": "https://api.euskadi.eus/procurements/companies/02371"
        }
      }
    },
    {
      "name": "EXCAVACIONES GALDAMES, S.L.",
      "registrationNumber": "03213",
      "identificationNumber": "B48284772",
      "address": "BARRIO MERCADILLO Nº 80",
      "location": {
        "postalCode": "48190",
        "municipality": "Sopuerta",
        "county": "Bizkaia",
        "municipalityId": "086",
        "countyId": "48"
      },
      "economicActivities": [
        {
          "id": "1.501.1",
          "name": "Construcción completa, reparación y conservación de edificaciones",
          "_links": {
            "self": {
              "name": "Construcción completa, reparación y conservación de edificaciones",
              "href": "https://api.euskadi.eus/procurements/companies/economic-activities/1.501.1"
            }
          }
        },
        {
          "id": "1.501.2",
          "name": "Construcción completa, reparación y conservación obras civiles",
          "_links": {
            "self": {
              "name": "Construcción completa, reparación y conservación obras civiles",
              "href": "https://api.euskadi.eus/procurements/companies/economic-activities/1.501.2"
            }
          }
        },
        {
          "id": "1.722",
          "name": "Transporte de mercancías por carretera",
          "_links": {
            "self": {
              "name": "Transporte de mercancías por carretera",
              "href": "https://api.euskadi.eus/procurements/companies/economic-activities/1.722"
            }
          }
        }
      ],
      "certificateStartDate": "2014-08-07",
      "certificateEndDate": "2015-01-08",
      "classification": [
        {
          "id": "O",
          "name": "Obras",
          "groups": [
            {
              "id": "A",
              "name": "MOVIMIENTO DE TIERRAS Y PERFORACIONES",
              "subgroups": [
                {
                  "id": "01",
                  "name": "DESMONTES Y VACIADOS",
                  "categories": [
                    {
                      "id": "3",
                      "name": "Desde 360.001 Hasta 840.000",
                      "_links": {
                        "self": {
                          "name": "Desde 360.001 Hasta 840.000",
                          "href": "https://api.euskadi.eus/procurements/companies/types/O/categories/3"
                        }
                      }
                    }
                  ],
                  "_links": {
                    "self": {
                      "name": "DESMONTES Y VACIADOS",
                      "href": "https://api.euskadi.eus/procurements/companies/types/O/groups/A/subgroups/01"
                    }
                  }
                },
                {
                  "id": "04",
                  "name": "POZOS Y GALERIAS",
                  "categories": [
                    {
                      "id": "1",
                      "name": "Desde 0 Hasta 150.000",
                      "_links": {
                        "self": {
                          "name": "Desde 0 Hasta 150.000",
                          "href": "https://api.euskadi.eus/procurements/companies/types/O/categories/1"
                        }
                      }
                    }
                  ],
                  "_links": {
                    "self": {
                      "name": "POZOS Y GALERIAS",
                      "href": "https://api.euskadi.eus/procurements/companies/types/O/groups/A/subgroups/04"
                    }
                  }
                }
              ],
              "_links": {
                "self": {
                  "name": "MOVIMIENTO DE TIERRAS Y PERFORACIONES",
                  "href": "https://api.euskadi.eus/procurements/companies/types/O/groups/A"
                }
              }
            },
            {
              "id": "E",
              "name": "HIDRAULICAS",
              "subgroups": [
                {
                  "id": "01",
                  "name": "ABASTECIMIENTOS Y SANEAMIENTOS",
                  "categories": [
                    {
                      "id": "0",
                      "_links": {
                        "self": {
                          "href": "https://api.euskadi.eus/procurements/companies/types/O/categories/0"
                        }
                      }
                    }
                  ],
                  "_links": {
                    "self": {
                      "name": "ABASTECIMIENTOS Y SANEAMIENTOS",
                      "href": "https://api.euskadi.eus/procurements/companies/types/O/groups/E/subgroups/01"
                    }
                  }
                }
              ],
              "_links": {
                "self": {
                  "name": "HIDRAULICAS",
                  "href": "https://api.euskadi.eus/procurements/companies/types/O/groups/E"
                }
              }
            }
          ],
          "_links": {
            "self": {
              "name": "Obras",
              "href": "https://api.euskadi.eus/procurements/companies/types/O"
            }
          }
        }
      ],
      "object": "A) LA EJECUCIÓN Y EXPLOTACIÓN DE EXCAVACIONES Y CONTRATAS Y EN GENERAL LA DE PROMOCIÓN, EJECUCIÓN Y EXPLOTACIÓN TOTAL O PARCIAL O POR RAMOS O COMO DESTAJISTA, DE CUALQUIER OBRA PÚBLICA O PRIVADA, CON O SIN SUMINISTRO DE MATERIALES O SUS CONTRATAS POR CUENTA PROPIA O AJENA Y EL ESTUDIO Y CESIÓN DE PROYECTOS RELACIONADOS CON AQUELLOS; B) TODA CLASE DE ACTIVIDADES DE CARÁCTER INMOBILIARIO, DE URBANIZACIÓN Y PARCELACIÓN DE EDIFICIOS, TERRENOS, VIVIENDAS Y LOCALES, EN CUALQUIER FORMA Y NATURALEZA JURÍDICA; C) LA COMPRAVENTA, GESTIÓN Y REPRESENTACIÓN DE MAQUINARIA E INSTALACIONES, MATEIRAS PRIMAS, MATERIALES Y SUMINISTROS A LA INDUSTRIA Y AL COMERCIO DE CONSTRUCCIÓN, ASÍ COMO DE SUS TRANSFORMADOS; D) LA FABRICACIÓN Y VENTA DE MATERIALES AUXILIARES Y ANEJOS DE LA CONSTRUCCIÓN Y EXPLOTACIÓN FORESTALES O MINERAS; E) TRANSPORTE PÚBLICO DE MERCANCÍAS",
      "mainEntityOfPage": "https://www.contratacion.euskadi.eus/webkpe00-kperoc/es/ac71aBusquedaRegistrosWar/empresa/03213",
      "_links": {
        "self": {
          "name": "EXCAVACIONES GALDAMES, S.L.",
          "href": "https://api.euskadi.eus/procurements/companies/03213"
        }
      }
    },
    {
      "name": "TRANSPORTES COLECTIVOS, S.A.",
      "registrationNumber": "03492",
      "identificationNumber": "A48018360",
      "address": "FRANCISCO MACÍA 4-2º",
      "location": {
        "postalCode": "48014",
        "municipality": "Bilbao",
        "county": "Bizkaia",
        "municipalityId": "020",
        "countyId": "48"
      },
      "economicActivities": [
        {
          "id": "1.721.1",
          "name": "Transporte urbano colectivo",
          "_links": {
            "self": {
              "name": "Transporte urbano colectivo",
              "href": "https://api.euskadi.eus/procurements/companies/economic-activities/1.721.1"
            }
          }
        },
        {
          "id": "1.721.3",
          "name": "Transporte de viajeros por carretera",
          "_links": {
            "self": {
              "name": "Transporte de viajeros por carretera",
              "href": "https://api.euskadi.eus/procurements/companies/economic-activities/1.721.3"
            }
          }
        }
      ],
      "certificateStartDate": "2014-08-07",
      "certificateEndDate": "2015-01-15",
      "object": "EL TRANSPORTE DE VIAJEROS Y MERCANCÍAS, LIBREMENTE O POR EXPLOTACIÓN DE CONCESIONES ADMINISTRATIVAS DE LÍNEAS DE TRANSPORTE, AUTORIZACIONES ADMINISTRATIVAS, O CUALQUIER OTRO TIPO DE COMPROMISOS O CONTRATOS PARA LA PRESTACIÓN DE SERVICOS DE TRANSPORTE Y CUANTO DIRECTA O INDIRECTAMENTE SE RELACIONE CON EL OBJETO EXPRESADO",
      "mainEntityOfPage": "https://www.contratacion.euskadi.eus/webkpe00-kperoc/es/ac71aBusquedaRegistrosWar/empresa/03492",
      "_links": {
        "self": {
          "name": "TRANSPORTES COLECTIVOS, S.A.",
          "href": "https://api.euskadi.eus/procurements/companies/03492"
        }
      }
    },
    {
      "name": "ACTIVIDADES MEDIOAMBIENTALES, S.L.",
      "registrationNumber": "02217",
      "identificationNumber": "B48445654",
      "address": "Auntzetxeta nº 1. Lonja. ",
      "location": {
        "postalCode": "48002",
        "municipality": "Bilbao",
        "county": "Bizkaia",
        "municipalityId": "020",
        "countyId": "48"
      },
      "economicActivities": [
        {
          "id": "1.911",
          "name": "Servicios agrícolas y ganaderos",
          "_links": {
            "self": {
              "name": "Servicios agrícolas y ganaderos",
              "href": "https://api.euskadi.eus/procurements/companies/economic-activities/1.911"
            }
          }
        }
      ],
      "certificateStartDate": "2014-08-04",
      "certificateEndDate": "2015-02-03",
      "object": "LA REALIZACIÓN DE OBRAS, ELABORACIÓN DE PROYECTOS Y PRESTACIÓN DE SERVICIOS DE JARDINERÍA, ORDENACIÓN DE LOS RECURSOS NATURALES, RECUPERACIONES PAISAJÍSTICAS Y MEDIOAMBIENTALES DE GRANDES OBRAS CIVILES Y OTRAS ACTUACIONES HUMANAS, SIEMBRAS Y PLANTACIONES EN BORDES DE CARRETERAS, CREACIÓN DE PANTALLAS VEGETALES, CINTURONES VERDES ANTICONTAMINANTES O DE OCULTACIÓN DE OBRAS, RESTAURACIÓN PAISAJÍSTICA DE EXPLOTACIONES A CIELO ABIERTO, ESTABILIZACIÓN VEGETAL DE SUELOS, CORRECCIONES HIDROLÓGICO-FORESTALES DE CUENCAS, RECUPERACIONES Y CONSERVACIÓN DE ECOSISTEMAS, REPOBLACIONES PROTECTORAS, RECREATIVAS, PAISAJÍSTICAS Y DE PRODUCCIÓN, CAMINOS AGROFORESTALES, CREACIÓN Y MEJORA DE PASTIZALES, TRABAJOS SILVOCULTURALES, IMPLANTACIÓN DE VIVEROS, REGADÍOS, INSTALACIONES AGROPECUARIAS, GESTIÓN Y ADMINISTRACIÓN DE MONTES, CREACIÓN DE PARQUES Y JARDINES URBANOS, ESTABLECIMIENTO DE PANTALLAS ANTISÓNICAS, CONTROL DE LA EROSIÓN, MEDIANTE ESTABILIZACIÓN VEGETAL DE SUELOS Y CUALQUIERA OTRA ACTIVIDAD, RELACIONADA, CONECTADA Y/O ACCESORIA DE LA PRINCIPAL DESCRITA",
      "mainEntityOfPage": "https://www.contratacion.euskadi.eus/webkpe00-kperoc/es/ac71aBusquedaRegistrosWar/empresa/02217",
      "_links": {
        "self": {
          "name": "ACTIVIDADES MEDIOAMBIENTALES, S.L.",
          "href": "https://api.euskadi.eus/procurements/companies/02217"
        }
      }
    },
    {
      "name": "PAMOL MEDIC, S.L.",
      "registrationNumber": "04704",
      "identificationNumber": "B08721334",
      "address": "MURCIA, 39 - P.I. CAN CALDERÓN",
      "location": {
        "postalCode": "08830",
        "municipality": "Sant Boi de Llobregat",
        "county": "Barcelona",
        "municipalityId": "200",
        "countyId": "08"
      },
      "economicActivities": [
        {
          "id": "1.613.4",
          "name": "Venta al por mayor de calzado, peletería, artículos de cuero, marroquinería",
          "_links": {
            "self": {
              "name": "Venta al por mayor de calzado, peletería, artículos de cuero, marroquinería",
              "href": "https://api.euskadi.eus/procurements/companies/economic-activities/1.613.4"
            }
          }
        }
      ],
      "certificateStartDate": "2014-08-02",
      "certificateEndDate": "2015-02-02",
      "object": "LA COMPRAVENTA Y DISTRIBUCIÓN DE MATERIAL MÉDICO-QUIRÚRGICO, INCLUYENDO LA IMPORTACIÓN Y EXPORTACIÓN DEL MISMO",
      "mainEntityOfPage": "https://www.contratacion.euskadi.eus/webkpe00-kperoc/es/ac71aBusquedaRegistrosWar/empresa/04704",
      "_links": {
        "self": {
          "name": "PAMOL MEDIC, S.L.",
          "href": "https://api.euskadi.eus/procurements/companies/04704"
        }
      }
    },
    {
      "name": "DOMOLAN SYSTEMS, S.L.",
      "registrationNumber": "04849",
      "identificationNumber": "B95639027",
      "address": "C/ ERMENDURU, nº 5-3º dcha.",
      "location": {
        "postalCode": "48360",
        "municipality": "Mundaka",
        "county": "Bizkaia",
        "municipalityId": "068",
        "countyId": "48"
      },
      "economicActivities": [
        {
          "id": "1.504.1",
          "name": "Instalaciones eléctricas en general",
          "_links": {
            "self": {
              "name": "Instalaciones eléctricas en general",
              "href": "https://api.euskadi.eus/procurements/companies/economic-activities/1.504.1"
            }
          }
        },
        {
          "id": "1.504.3",
          "name": "Instalaciones de frío, calor y acondicionamiento de aire",
          "_links": {
            "self": {
              "name": "Instalaciones de frío, calor y acondicionamiento de aire",
              "href": "https://api.euskadi.eus/procurements/companies/economic-activities/1.504.3"
            }
          }
        },
        {
          "id": "1.699",
          "name": "Otras reparaciones n.c.o.p",
          "_links": {
            "self": {
              "name": "Otras reparaciones n.c.o.p",
              "href": "https://api.euskadi.eus/procurements/companies/economic-activities/1.699"
            }
          }
        }
      ],
      "certificateStartDate": "2014-07-31",
      "certificateEndDate": "2014-12-09",
      "object": "EL MANTENIMIENTO INTEGRAL DE EDIFICIOS Y LA REALIZACIÓN Y REPARACIÓN DE TODO TIPO DE INSTALACIONES EN LOS MISMOS",
      "mainEntityOfPage": "https://www.contratacion.euskadi.eus/webkpe00-kperoc/es/ac71aBusquedaRegistrosWar/empresa/04849",
      "_links": {
        "self": {
          "name": "DOMOLAN SYSTEMS, S.L.",
          "href": "https://api.euskadi.eus/procurements/companies/04849"
        }
      }
    }
  ]
}