{
  "totalItems": 9042,
  "totalPages": 905,
  "currentPage": 657,
  "itemsOfPage": 10,
  "items": [
    {
      "name": "IHG (Sucesores de Bernabé Apestegui), S.L.",
      "registrationNumber": "04478",
      "identificationNumber": "B20628848",
      "address": "ARABA, 3 - 1º DCHA",
      "location": {
        "postalCode": "20800",
        "municipality": "Zarautz",
        "county": "Gipuzkoa",
        "municipalityId": "079",
        "countyId": "20"
      },
      "economicActivities": [
        {
          "id": "1.843.2",
          "name": "Servicios técnicos de arquitectura y urbanismo",
          "_links": {
            "self": {
              "name": "Servicios técnicos de arquitectura y urbanismo",
              "href": "https://api.euskadi.eus/procurements/companies/economic-activities/1.843.2"
            }
          }
        }
      ],
      "certificateStartDate": "2015-07-29",
      "certificateEndDate": "2016-01-27",
      "object": "LA ACTIVIDAD PROPIA DE LA ARQUITECTURA",
      "mainEntityOfPage": "https://www.contratacion.euskadi.eus/webkpe00-kperoc/es/ac71aBusquedaRegistrosWar/empresa/04478",
      "_links": {
        "self": {
          "name": "IHG (Sucesores de Bernabé Apestegui), S.L.",
          "href": "https://api.euskadi.eus/procurements/companies/04478"
        }
      }
    },
    {
      "name": "D.M. GREEN 3415, S.L.",
      "registrationNumber": "02503",
      "identificationNumber": "B48582969",
      "address": "PASEO LANDABARRI, 76 - 1º B",
      "location": {
        "postalCode": "48940",
        "municipality": "Leioa",
        "county": "Bizkaia",
        "municipalityId": "054",
        "countyId": "48"
      },
      "economicActivities": [
        {
          "id": "1.476.1",
          "name": "Edición de libros",
          "_links": {
            "self": {
              "name": "Edición de libros",
              "href": "https://api.euskadi.eus/procurements/companies/economic-activities/1.476.1"
            }
          }
        },
        {
          "id": "1.844",
          "name": "Servicios de publicidad, relaciones públicas y similares",
          "_links": {
            "self": {
              "name": "Servicios de publicidad, relaciones públicas y similares",
              "href": "https://api.euskadi.eus/procurements/companies/economic-activities/1.844"
            }
          }
        }
      ],
      "certificateStartDate": "2015-07-28",
      "certificateEndDate": "2016-01-27",
      "object": "A) PUBLICIDAD Y MARKETING EN TODOS LOS MEDIOS DE COMUNICACIÓN SOCIAL. B)\r\nEDICION DE LIBROS, CATÁLOGOS, GUÍAS Y CUALQUIER OTRO TIPO DE DOCUMENTACIÓN ENCAMINADOS A LA PRODUCCION IMPRESA Y DIGITAL. DISEÑO GRÁFICO Y MAQUETACIÓN DE PRODUCTOS GRÁFICOS, ADEMÁS DE TODOS LOS TRABAJOS RELACIONADOS CON LAS ARTES GRÁFICAS, SOBRE CUALQUIER SUPERFICIE Y CON CUALQUIER TIPO DE MATERIA. C) SOCIAL MEDIA MARKETING, SOCIAL BRANDING, CONSULTORÍA DE SOCIAL MEDIA, CREACION DE CONTENIDOS, PROFESIONAL ENGAGEMENT. POSICIONAMIENTO DE PAGINAS WEB EN BUSCADORES EN INTERNET. D) DISEÑO Y DESARROLLO DE SITIOS WEB PARA TODOS LOS MEDIOS, PLATAFORMAS Y REDES, QUE PUEDEN INCORPORAR LAS SIGUIENTES CARACTERISTICAS: NEGOCIO ELECTRONICO, MARKETING ON-LINE, SISTEMAS DE COMPRAS, \r\nCOMERCIO ELECTRÓNICO, MERCADOS VIRTUALES, TRANSACCIONES COMERCIALES, INTRANETS Y/O EXTRANETS QUE OPTIMICEN LA COMUNICACIÓN ENTRE LOS TRABAJADORES DE LA EMPRESA Y LA DE ÉSTA CON SUS CLIENTES Y PROVEEDORES, SISTEMAS DE COMUNICACIÓN, OTROS PROYECTOS DE IMPLANTACIÓN DE LAS TECNOLOGÍAS DE LA INFORMACIÓN Y LA COMUNICACIÓN. E) DISEÑO Y PRODUCCIÓN MULTIMEDIA Y FOTOGRAFÍA. F) ORGANIZACIÓN DE EVENTOS DE TODO TIPO QUE TENGAN COMO FIN LA DIFUSIÓN COMERCIAL O DE ACTIVIDAD: REUNIONES, EXPOSICIONES, FERIAS Y CUALQUIER CONCENTRACIÓN DE PERSONAS Y/O EMPRESAS. G) COMERCIALIZACIÓN DE TODO TIPO DE PRODUCTO QUE TENGA COMO OBJETO LA DIFUSIÓN PUBLICITARIA Y LA EXPANSIÓN SOCIAL DEL NOMBRE, MARCA O ACTIVIDAD DE PERSONAS O EMPRESAS. COMERCIALIZACIÓN DE PRODUCTOS PUBLICITARIOS. J) FORMACIÓN EN TODO TIPO DE CONTENIDOS GRÁFICOS, DE DISEÑO, Y REFERENTE A INTERNET, SOCIAL MEDIA.",
      "mainEntityOfPage": "https://www.contratacion.euskadi.eus/webkpe00-kperoc/es/ac71aBusquedaRegistrosWar/empresa/02503",
      "_links": {
        "self": {
          "name": "D.M. GREEN 3415, S.L.",
          "href": "https://api.euskadi.eus/procurements/companies/02503"
        }
      }
    },
    {
      "name": "CASA REINA, S.A.",
      "registrationNumber": "04873",
      "identificationNumber": "A48227920",
      "address": "CTRA. GATZARRIÑE, 67",
      "location": {
        "postalCode": "48600",
        "municipality": "Sopela",
        "county": "Bizkaia",
        "municipalityId": "085",
        "countyId": "48"
      },
      "economicActivities": [
        {
          "id": "1.659.7",
          "name": "Venta al por menor de semillas, abonos, flores, plantas y pequeños animales",
          "_links": {
            "self": {
              "name": "Venta al por menor de semillas, abonos, flores, plantas y pequeños animales",
              "href": "https://api.euskadi.eus/procurements/companies/economic-activities/1.659.7"
            }
          }
        },
        {
          "id": "1.662.2",
          "name": "Venta al por menor de toda clase de artículos, pequeños establecimientos",
          "_links": {
            "self": {
              "name": "Venta al por menor de toda clase de artículos, pequeños establecimientos",
              "href": "https://api.euskadi.eus/procurements/companies/economic-activities/1.662.2"
            }
          }
        },
        {
          "id": "1.911",
          "name": "Servicios agrícolas y ganaderos",
          "_links": {
            "self": {
              "name": "Servicios agrícolas y ganaderos",
              "href": "https://api.euskadi.eus/procurements/companies/economic-activities/1.911"
            }
          }
        }
      ],
      "certificateStartDate": "2015-07-24",
      "certificateEndDate": "2015-12-24",
      "object": "LA EXPLOTACIÓN DE VIVIEROS DE PLANTAS; CRÍA; SIEMBRA; PLANTACIÓN DE TODO TIPO DE PLANTAS; ÁRBOLES Y ARBUSTOS; COMPRA Y VENTA A MAYORISTAS Y/O MINORISTAS DE PLANTAS, ÁRBOLES Y ARBUSTOS; COMERCIALIZACIÓN Y FABRICACIÓN DE TODO TIPO DE OBJETOS, ÚTILES, HERRAMIENTAS Y PRODUCTOS PARA JARDINERÍA Y EXPLOTACIONES AGRÍCOLAS; DISEÑO, CREACIÓN, PLANTACIÓN DE JARDINES, MACETAS Y  ORNAMENTOS FLORALES",
      "mainEntityOfPage": "https://www.contratacion.euskadi.eus/webkpe00-kperoc/es/ac71aBusquedaRegistrosWar/empresa/04873",
      "_links": {
        "self": {
          "name": "CASA REINA, S.A.",
          "href": "https://api.euskadi.eus/procurements/companies/04873"
        }
      }
    },
    {
      "name": "TXINGURRI BUS, S.L.L.",
      "registrationNumber": "03872",
      "identificationNumber": "B20781589",
      "address": "Pº TXINGURRI, 22-BAJO",
      "location": {
        "postalCode": "20017",
        "municipality": "Donostia / San Sebastián",
        "county": "Gipuzkoa",
        "municipalityId": "069",
        "countyId": "20"
      },
      "economicActivities": [
        {
          "id": "1.721.3",
          "name": "Transporte de viajeros por carretera",
          "_links": {
            "self": {
              "name": "Transporte de viajeros por carretera",
              "href": "https://api.euskadi.eus/procurements/companies/economic-activities/1.721.3"
            }
          }
        }
      ],
      "certificateStartDate": "2015-07-23",
      "certificateEndDate": "2016-01-14",
      "object": "LA ACTIVIDAD DE ALQUILER DE VEHÍCULOS CON CONDUCTOR, TRANSPORTE DISCRECIONAL DE VIAJEROS EN AUTOBUSES, MICROBUSES Y CUALQUIER OTRO TIPO DE VEHÍCULO POR CARRETERA, ASÍ COMO LA PRESTACIÓN DE SERVICIOS DE GESTIÓN RELATIVOS AL TRANSPORTE DE VIAJEROS",
      "mainEntityOfPage": "https://www.contratacion.euskadi.eus/webkpe00-kperoc/es/ac71aBusquedaRegistrosWar/empresa/03872",
      "_links": {
        "self": {
          "name": "TXINGURRI BUS, S.L.L.",
          "href": "https://api.euskadi.eus/procurements/companies/03872"
        }
      }
    },
    {
      "name": "CPU SERVICIOS DE HIGIENIZACIÓN, S.L.",
      "registrationNumber": "04465",
      "identificationNumber": "B95080693",
      "address": "Bº SAN ANTONIO. POLIGONO INBISA. PARCELA 11-B",
      "location": {
        "postalCode": "48340",
        "municipality": "Amorebieta-Etxano",
        "county": "Bizkaia",
        "municipalityId": "003",
        "countyId": "48"
      },
      "economicActivities": [
        {
          "id": "1.921.3",
          "name": "Exterminio de animales dañinos y desinfección",
          "_links": {
            "self": {
              "name": "Exterminio de animales dañinos y desinfección",
              "href": "https://api.euskadi.eus/procurements/companies/economic-activities/1.921.3"
            }
          }
        },
        {
          "id": "1.922",
          "name": "Servicios de limpieza",
          "_links": {
            "self": {
              "name": "Servicios de limpieza",
              "href": "https://api.euskadi.eus/procurements/companies/economic-activities/1.922"
            }
          }
        }
      ],
      "certificateStartDate": "2015-07-22",
      "certificateEndDate": "2016-01-21",
      "object": "EL EXTERMINIO DE ANIMALES DAÑINOS Y DESINFECCIÓN DE CUALQUIER CLASE, ASÍ COMO LA PRESTACIÓN DE SERVICIOS DE LIMPIEZA",
      "mainEntityOfPage": "https://www.contratacion.euskadi.eus/webkpe00-kperoc/es/ac71aBusquedaRegistrosWar/empresa/04465",
      "_links": {
        "self": {
          "name": "CPU SERVICIOS DE HIGIENIZACIÓN, S.L.",
          "href": "https://api.euskadi.eus/procurements/companies/04465"
        }
      }
    },
    {
      "name": "BASKORED, S.L.",
      "registrationNumber": "04854",
      "identificationNumber": "B95302303",
      "address": "JULIO URQUIJO, 6 - BAJO",
      "location": {
        "postalCode": "48014",
        "municipality": "Bilbao",
        "county": "Bizkaia",
        "municipalityId": "020",
        "countyId": "48"
      },
      "economicActivities": [
        {
          "id": "1.756.1",
          "name": "Agencias de transporte, transitarios",
          "_links": {
            "self": {
              "name": "Agencias de transporte, transitarios",
              "href": "https://api.euskadi.eus/procurements/companies/economic-activities/1.756.1"
            }
          }
        },
        {
          "id": "1.849.5",
          "name": "Servicios de recadería y reparto y manipulación de correspondencia",
          "_links": {
            "self": {
              "name": "Servicios de recadería y reparto y manipulación de correspondencia",
              "href": "https://api.euskadi.eus/procurements/companies/economic-activities/1.849.5"
            }
          }
        }
      ],
      "certificateStartDate": "2015-07-21",
      "certificateEndDate": "2016-01-20",
      "object": "LAS ACTIVIDADES AUXILIARES Y COMPLEMENTARIAS DEL TRANSPORTE. EL TRANSPORTE DE MERCANCÍAS DE TODO TIPO, EN ESPECIAL, EL TRANSPORTE Y DISTRIBUCIÓN DE PAQUETERÍA Y CARTAS, EN CUANTO SERVICIOS USUALMENTE DENOMINADOS DE MENSAJERÍA O TRANSPORTE URGENTE, Y LAS ACTIVIDADES AUXILIARES Y COMPLEMENTARIAS DEL TRANSPORTE. LA PRESTACIÓN DE SERVICIOS DE RECADERÍA, REPARTO Y MANIPULACIÓN DE CORRESPONDENCIA. LA PROMOCIÓN, CONSTRUCCIÓN, DECORACIÓN, REDACCIÓN DE PROYECTOS, USO, ARRENDAMIENTO Y VENTA DE VIVIENDAS, LOCALES, GARAJES, ASÍ COMO LA ADQUISICIÓN DE TERRENOS, SU PARCELACIÓN Y URBANIZACIÓN, USO, ARRENDAMIENTO Y VENTA DE LOS MISMOS, LA REALIZACIÓN DE TODO TIPO DE OBRAS; LA COMPRAVENTA DE MATERIALES DE CONSTRUCCIÓN, DE ARTÍCULOS Y ELEMENTOS SANITARIOS Y DE MOBILIARIO EN GENERAL. LA INDUSTRIA DE FABRICACIÓN, PRODUCCIÓN, TRANSFORMACIÓN Y VENTA, TANTO EN EL COMERCIO INTERIOR COMO EN EL EXTERIOR, DE CONSERVAS, SEMICONSERVAS Y SALAZONES DE PESCADOS, VEGETALES O PECUARIOS PROCEDENTES DE LA RIQUEZA MARÍTIMA, FLUVIAL, AGRÍCOLA Y PECUARIA, Y EL APROVECHAMIENTO MEDIANTE SUS TRANSFORMACIONES Y MANIPULACIONES CONVENIENTES A TODA CLASE DE PRODUCTOS ALIMENTICIOS, INCLUSO CONGELADOS, DISECADOS Y CONDIMENTOS. LA COMPRA, VENTA AL POR MAYOR Y AL POR MENOR, ALMACENAJE, TRANSFORMACIÓN, TRANSPORTE Y DISTRIBUCIÓN DE TODO TIPO DE PRODUCTOS ALIMENTICIOS, TANTO FRESCOS COMO CONGELADOS, ASÍ COMO SU IMPORTACIÓN Y EXPORTACIÓN. LA REALIZACIÓN DE TODO TIPO DE TRABAJOS Y LABORES DE HOSTELERÍA COMO LA EXPLOTACIÓN DE BARES, RESTAURANTES, HOTELES, HOSPEDAJES, DISCOTECAS, CAMPING Y PUBS. EL TRANSPORTE DE TODO TIPO DE MERCANCÍAS, ANIMALES Y PERSONAS POR CUALQUIER MEDIO, TANTO POR TIERRA COMO MAR O AIRE",
      "mainEntityOfPage": "https://www.contratacion.euskadi.eus/webkpe00-kperoc/es/ac71aBusquedaRegistrosWar/empresa/04854",
      "_links": {
        "self": {
          "name": "BASKORED, S.L.",
          "href": "https://api.euskadi.eus/procurements/companies/04854"
        }
      }
    },
    {
      "name": "CONSTRUCCIONES MARTINEZ-MIGUELEZ, S.L.",
      "registrationNumber": "02218",
      "identificationNumber": "B01126739",
      "address": "LOS ISUNZA, N.7-BAJO",
      "location": {
        "postalCode": "01002",
        "municipality": "Vitoria-Gasteiz",
        "county": "Araba/Álava",
        "municipalityId": "059",
        "countyId": "01"
      },
      "economicActivities": [
        {
          "id": "1.501.1",
          "name": "Construcción completa, reparación y conservación de edificaciones",
          "_links": {
            "self": {
              "name": "Construcción completa, reparación y conservación de edificaciones",
              "href": "https://api.euskadi.eus/procurements/companies/economic-activities/1.501.1"
            }
          }
        }
      ],
      "certificateStartDate": "2015-07-20",
      "certificateEndDate": "2016-01-14",
      "object": "LA SOCIEDAD TIENE POR OBJETO LA REALIZACION DE LOS TRABAJOS DE CONSTRUCCION Y ALBAÑILERIA EN GENERAL. COMPRA -VENTA DE TODA CLASE DE BIENES INMUEBLES. LA PROMOCIÓN, CONSTRUCCION Y VENTA DE TODA CLASE DE EDIFICIOS, PABELLONES INDUSTRIALES, VIVIENDAS Y LOCALES POR CUENTA PROPIA O AJENA, PUDIENDO PARTICIPAR EN TODO TIPO DE SOCIEDADES PARA LA REALIZACIÓN DE ESTE OBJETO SOCIAL. ESTAS ACTIVIDADES ENUMERADAS PODRAN TAMBIEN SER DESARROLLADAS POR LA SOCIEDAD, TOTAL O PARCIALMENTE DE MODO INDIRECTO, MEDIANTE LA PARTICIPACION EN OTRAS SOCIEDADES CON OBJETO ANALOGO.",
      "mainEntityOfPage": "https://www.contratacion.euskadi.eus/webkpe00-kperoc/es/ac71aBusquedaRegistrosWar/empresa/02218",
      "_links": {
        "self": {
          "name": "CONSTRUCCIONES MARTINEZ-MIGUELEZ, S.L.",
          "href": "https://api.euskadi.eus/procurements/companies/02218"
        }
      }
    },
    {
      "name": "SUGGIERO, S.L.",
      "registrationNumber": "05063",
      "identificationNumber": "B95208336",
      "address": "ERCILLA, 26 - 1º DCHA.",
      "location": {
        "postalCode": "48011",
        "municipality": "Bilbao",
        "county": "Bizkaia",
        "municipalityId": "020",
        "countyId": "48"
      },
      "economicActivities": [
        {
          "id": "1.845",
          "name": "Explotación electrónica por cuenta de terceros",
          "_links": {
            "self": {
              "name": "Explotación electrónica por cuenta de terceros",
              "href": "https://api.euskadi.eus/procurements/companies/economic-activities/1.845"
            }
          }
        },
        {
          "id": "1.934",
          "name": "Enseñanza fuera de establecimiento permanente",
          "_links": {
            "self": {
              "name": "Enseñanza fuera de establecimiento permanente",
              "href": "https://api.euskadi.eus/procurements/companies/economic-activities/1.934"
            }
          }
        }
      ],
      "certificateStartDate": "2015-07-20",
      "certificateEndDate": "2016-01-19",
      "object": "LA PRESTACIÓN DE SERVICIOS RELACIONADOS CON LAS TECNOLOGÍAS DE LA INFORMACIÓN Y COMUNICACIÓN TALES COMO EL DESARROLLO DE APLICACIONES, CONSULTORÍA TECNOLÓGICA, DISEÑO MULTIMEDIA, PRODUCCIÓN DE CONTENIDOS DIGITALES, COMERCIALIZACIÓN DE SOFTWARE Y HARDWARE, FORMACIÓN TECNOLÓGICA Y MARKETING ONLINE",
      "mainEntityOfPage": "https://www.contratacion.euskadi.eus/webkpe00-kperoc/es/ac71aBusquedaRegistrosWar/empresa/05063",
      "_links": {
        "self": {
          "name": "SUGGIERO, S.L.",
          "href": "https://api.euskadi.eus/procurements/companies/05063"
        }
      }
    },
    {
      "name": "BRM DESARROLLOS E INNOVACIONES DE LA CONSTRUCCIÓN,            S.L.",
      "registrationNumber": "05404",
      "identificationNumber": "B95450771",
      "address": "PLAZA SAN JUAN IBARRA, 1   1º",
      "location": {
        "postalCode": "48300",
        "municipality": "Gernika-Lumo",
        "county": "Bizkaia",
        "municipalityId": "046",
        "countyId": "48"
      },
      "economicActivities": [
        {
          "id": "1.505.1",
          "name": "Revestimientos exteriores e interiores de todas clases",
          "_links": {
            "self": {
              "name": "Revestimientos exteriores e interiores de todas clases",
              "href": "https://api.euskadi.eus/procurements/companies/economic-activities/1.505.1"
            }
          }
        },
        {
          "id": "1.505.7",
          "name": "Trabajos en yeso y escayola y decoración de edificios y locales",
          "_links": {
            "self": {
              "name": "Trabajos en yeso y escayola y decoración de edificios y locales",
              "href": "https://api.euskadi.eus/procurements/companies/economic-activities/1.505.7"
            }
          }
        }
      ],
      "certificateStartDate": "2015-07-20",
      "certificateEndDate": "2015-12-01",
      "object": "ASESORAMIENTO TÉCNICO Y EJECUCIÓN DE PROYECTOS DE DECORACIÓN DIRIGIDOS AL SECTOR PÚBLICO Y PRIVADO. TRABAJOS DE ALBAÑILERÍA, FONTANERÍA Y CARPINTERÍA. LA PROMOCIÓN, CONSTRUCCIÓN, COMPRAVENTA, ALQUILER, REALQUILER, PARCELACIÓN Y URBANIZACIÓN DE SOLARES, TERRENOS Y FINCAS, DE CUALQUIER NATURALEZA, PUDIENDO PROCEDER A LA EDIFICACIÓN DE LAS MISMAS Y A SU ENAJENACIÓN ÍNTEGRA O PARCIALMENTE O EN RÉGIMEN DE PROPIEDAD HORIZONTAL",
      "mainEntityOfPage": "https://www.contratacion.euskadi.eus/webkpe00-kperoc/es/ac71aBusquedaRegistrosWar/empresa/05404",
      "_links": {
        "self": {
          "name": "BRM DESARROLLOS E INNOVACIONES DE LA CONSTRUCCIÓN,            S.L.",
          "href": "https://api.euskadi.eus/procurements/companies/05404"
        }
      }
    },
    {
      "name": "ARTES GRAFICAS MUNGUIA, S.L.",
      "registrationNumber": "00926",
      "identificationNumber": "B48266084",
      "address": "CTRA. BERMEO, S/N (Bº TROBIKA)",
      "location": {
        "postalCode": "48000",
        "municipality": "Mungia",
        "county": "Bizkaia",
        "municipalityId": "069",
        "countyId": "48"
      },
      "economicActivities": [
        {
          "id": "1.474",
          "name": "Artes gráficas (impresión gráfica)",
          "_links": {
            "self": {
              "name": "Artes gráficas (impresión gráfica)",
              "href": "https://api.euskadi.eus/procurements/companies/economic-activities/1.474"
            }
          }
        }
      ],
      "certificateStartDate": "2015-07-16",
      "certificateEndDate": "2015-12-09",
      "object": "LA EXPLOTACIÓN DE UNA EMPRESA DEDICADA A INDUSTRIAS DE ARTES GRÁFICAS DE TODA CLASE Y MODALIDAD PARA LA REALIZACIÓN DE TRABAJOS DE CUALQUIER NATURALEZA; VENTA AL POR MAYOR Y MENOR DE ARTÍCULOS DE LIBRERÍA, PAPELERÍA Y MATERIAL DE OFICINA, ASÍ COMO CUALQUIER OTRA ACTIVIDAD QUE SEA PREPARATORIA, DERIVADA O COMPLEMENTARIA DE LAS ANTERIORES",
      "mainEntityOfPage": "https://www.contratacion.euskadi.eus/webkpe00-kperoc/es/ac71aBusquedaRegistrosWar/empresa/00926",
      "_links": {
        "self": {
          "name": "ARTES GRAFICAS MUNGUIA, S.L.",
          "href": "https://api.euskadi.eus/procurements/companies/00926"
        }
      }
    }
  ]
}