{
  "totalItems": 9042,
  "totalPages": 905,
  "currentPage": 840,
  "itemsOfPage": 10,
  "items": [
    {
      "name": "GOMOSA, S.A. (CENTRO SANITARIO VIRGEN DEL PILAR)",
      "registrationNumber": "02219",
      "identificationNumber": "A-20052577",
      "address": "Pº ZARATEGUI N.10",
      "location": {
        "postalCode": "20013",
        "municipality": "Donostia / San Sebastián",
        "county": "Gipuzkoa",
        "municipalityId": "069",
        "countyId": "20"
      },
      "object": "PENDIENTE",
      "mainEntityOfPage": "https://www.contratacion.euskadi.eus/webkpe00-kperoc/es/ac71aBusquedaRegistrosWar/empresa/02219",
      "_links": {
        "self": {
          "name": "GOMOSA, S.A. (CENTRO SANITARIO VIRGEN DEL PILAR)",
          "href": "https://api.euskadi.eus/procurements/companies/02219"
        }
      }
    },
    {
      "name": "SERVICIOS GENERALES MARÍTIMOS, S.A.",
      "registrationNumber": "02234",
      "identificationNumber": "A48059083",
      "address": "C/ ELCANO, Nº 11.",
      "location": {
        "postalCode": "48011",
        "municipality": "Bilbao",
        "county": "Bizkaia",
        "municipalityId": "020",
        "countyId": "48"
      },
      "object": "PENDIENTE",
      "mainEntityOfPage": "https://www.contratacion.euskadi.eus/webkpe00-kperoc/es/ac71aBusquedaRegistrosWar/empresa/02234",
      "_links": {
        "self": {
          "name": "SERVICIOS GENERALES MARÍTIMOS, S.A.",
          "href": "https://api.euskadi.eus/procurements/companies/02234"
        }
      }
    },
    {
      "name": "BEKALAN-96, S.L.",
      "registrationNumber": "02237",
      "identificationNumber": "B48847404",
      "address": "C/ ALBERDI, Nº 8 - BAJO (LLANO).",
      "location": {
        "postalCode": "48903",
        "municipality": "Barakaldo",
        "county": "Bizkaia",
        "municipalityId": "013",
        "countyId": "48"
      },
      "object": ".",
      "mainEntityOfPage": "https://www.contratacion.euskadi.eus/webkpe00-kperoc/es/ac71aBusquedaRegistrosWar/empresa/02237",
      "_links": {
        "self": {
          "name": "BEKALAN-96, S.L.",
          "href": "https://api.euskadi.eus/procurements/companies/02237"
        }
      }
    },
    {
      "name": "AMARRADORES PUERTO DE BILBAO, S.A.",
      "registrationNumber": "02238",
      "identificationNumber": "A48437743",
      "address": "C/ MANUEL CALVO, Nº 22",
      "location": {
        "postalCode": "48920",
        "municipality": "Portugalete",
        "county": "Bizkaia",
        "municipalityId": "078",
        "countyId": "48"
      },
      "object": "PENDIENTE",
      "mainEntityOfPage": "https://www.contratacion.euskadi.eus/webkpe00-kperoc/es/ac71aBusquedaRegistrosWar/empresa/02238",
      "_links": {
        "self": {
          "name": "AMARRADORES PUERTO DE BILBAO, S.A.",
          "href": "https://api.euskadi.eus/procurements/companies/02238"
        }
      }
    },
    {
      "name": "BASALDE BI, S.A.",
      "registrationNumber": "02276",
      "identificationNumber": "A01230754",
      "address": "C/ POSTAS, Nº 10 - BAJO",
      "location": {
        "postalCode": "01001",
        "municipality": "Vitoria-Gasteiz",
        "county": "Araba/Álava",
        "municipalityId": "059",
        "countyId": "01"
      },
      "object": "CONSTRUCCION",
      "mainEntityOfPage": "https://www.contratacion.euskadi.eus/webkpe00-kperoc/es/ac71aBusquedaRegistrosWar/empresa/02276",
      "_links": {
        "self": {
          "name": "BASALDE BI, S.A.",
          "href": "https://api.euskadi.eus/procurements/companies/02276"
        }
      }
    },
    {
      "name": "OBRAS Y SERVICIOS OTE, S.A.",
      "registrationNumber": "02285",
      "identificationNumber": "A20675831",
      "address": "PASEO DE IGELDO, 4",
      "location": {
        "postalCode": "20008",
        "municipality": "Donostia / San Sebastián",
        "county": "Gipuzkoa",
        "municipalityId": "069",
        "countyId": "20"
      },
      "object": "PENDIENTE\r\n",
      "mainEntityOfPage": "https://www.contratacion.euskadi.eus/webkpe00-kperoc/es/ac71aBusquedaRegistrosWar/empresa/02285",
      "_links": {
        "self": {
          "name": "OBRAS Y SERVICIOS OTE, S.A.",
          "href": "https://api.euskadi.eus/procurements/companies/02285"
        }
      }
    },
    {
      "name": "TECCON INGENIEROS, S.L.U.",
      "registrationNumber": "02286",
      "identificationNumber": "B-48931299",
      "address": "C/ HENAO, 7 -5º. DPTO. 5",
      "location": {
        "postalCode": "48009",
        "municipality": "Bilbao",
        "county": "Bizkaia",
        "municipalityId": "020",
        "countyId": "48"
      },
      "object": "PENDIENTE",
      "mainEntityOfPage": "https://www.contratacion.euskadi.eus/webkpe00-kperoc/es/ac71aBusquedaRegistrosWar/empresa/02286",
      "_links": {
        "self": {
          "name": "TECCON INGENIEROS, S.L.U.",
          "href": "https://api.euskadi.eus/procurements/companies/02286"
        }
      }
    },
    {
      "name": "DECORACIONES ARTEGI, S.L.",
      "registrationNumber": "02306",
      "identificationNumber": "B48681738",
      "address": "SOTERA DE LA MIER, 8",
      "location": {
        "postalCode": "48920",
        "municipality": "Portugalete",
        "county": "Bizkaia",
        "municipalityId": "078",
        "countyId": "48"
      },
      "object": "DECORACION",
      "mainEntityOfPage": "https://www.contratacion.euskadi.eus/webkpe00-kperoc/es/ac71aBusquedaRegistrosWar/empresa/02306",
      "_links": {
        "self": {
          "name": "DECORACIONES ARTEGI, S.L.",
          "href": "https://api.euskadi.eus/procurements/companies/02306"
        }
      }
    },
    {
      "name": "CONSTRUCCIONES ANTONIO SANTANDER E HIJOS, S.L.",
      "registrationNumber": "02308",
      "identificationNumber": "B01013945",
      "address": "CALLE SALUSTIANO OLOZAGA, Nº 1-BAJO IZDA.",
      "location": {
        "postalCode": "01320",
        "municipality": "Oyón-Oion",
        "county": "Araba/Álava",
        "municipalityId": "043",
        "countyId": "01"
      },
      "object": "construccion",
      "mainEntityOfPage": "https://www.contratacion.euskadi.eus/webkpe00-kperoc/es/ac71aBusquedaRegistrosWar/empresa/02308",
      "_links": {
        "self": {
          "name": "CONSTRUCCIONES ANTONIO SANTANDER E HIJOS, S.L.",
          "href": "https://api.euskadi.eus/procurements/companies/02308"
        }
      }
    },
    {
      "name": "ROVIFRES, S.L.",
      "registrationNumber": "02332",
      "identificationNumber": "B48252340",
      "address": "BUENAVISTA, 5",
      "location": {
        "postalCode": "48920",
        "municipality": "Portugalete",
        "county": "Bizkaia",
        "municipalityId": "078",
        "countyId": "48"
      },
      "object": "FABRICACION PIEZAS MADERA",
      "mainEntityOfPage": "https://www.contratacion.euskadi.eus/webkpe00-kperoc/es/ac71aBusquedaRegistrosWar/empresa/02332",
      "_links": {
        "self": {
          "name": "ROVIFRES, S.L.",
          "href": "https://api.euskadi.eus/procurements/companies/02332"
        }
      }
    }
  ]
}