{
  "totalItems": 9042,
  "totalPages": 905,
  "currentPage": 556,
  "itemsOfPage": 10,
  "items": [
    {
      "name": "AT-BIOTECH TRACEABILITY INFORMATION SYSTEMS, S.L.",
      "registrationNumber": "07322",
      "identificationNumber": "B92991900",
      "address": "C/Reyes Magos 18 , bajo derecha",
      "location": {
        "postalCode": "28009",
        "municipality": "Madrid",
        "county": "Madrid",
        "municipalityId": "079",
        "countyId": "28"
      },
      "economicActivities": [
        {
          "id": "1.845",
          "name": "Explotación electrónica por cuenta de terceros",
          "_links": {
            "self": {
              "name": "Explotación electrónica por cuenta de terceros",
              "href": "https://api.euskadi.eus/procurements/companies/economic-activities/1.845"
            }
          }
        }
      ],
      "certificateStartDate": "2020-10-22",
      "certificateEndDate": "2021-03-03",
      "object": "LA EXPLOTACIÓN ECONÓMICA DEL NEGOCIO DE EMPRESA ESPECIALIZADA EN EL DESARROLLO DE SISTEMAS DE CONTROL DE TRAZABILIDAD DE MATERALES BIOLÓGICOS",
      "mainEntityOfPage": "https://www.contratacion.euskadi.eus/webkpe00-kperoc/es/ac71aBusquedaRegistrosWar/empresa/07322",
      "_links": {
        "self": {
          "name": "AT-BIOTECH TRACEABILITY INFORMATION SYSTEMS, S.L.",
          "href": "https://api.euskadi.eus/procurements/companies/07322"
        }
      }
    },
    {
      "name": "MEDANCLI, S.L.",
      "registrationNumber": "07323",
      "identificationNumber": "B15947088",
      "address": "JORGE GUILLEN, N 5",
      "location": {
        "postalCode": "15174",
        "municipality": "Culleredo",
        "county": "Coruña, A",
        "municipalityId": "031",
        "countyId": "15"
      },
      "economicActivities": [
        {
          "id": "1.501.1",
          "name": "Construcción completa, reparación y conservación de edificaciones",
          "_links": {
            "self": {
              "name": "Construcción completa, reparación y conservación de edificaciones",
              "href": "https://api.euskadi.eus/procurements/companies/economic-activities/1.501.1"
            }
          }
        },
        {
          "id": "1.504.3",
          "name": "Instalaciones de frío, calor y acondicionamiento de aire",
          "_links": {
            "self": {
              "name": "Instalaciones de frío, calor y acondicionamiento de aire",
              "href": "https://api.euskadi.eus/procurements/companies/economic-activities/1.504.3"
            }
          }
        },
        {
          "id": "1.507",
          "name": "Construcción, reparación y conservación de toda clase obras",
          "_links": {
            "self": {
              "name": "Construcción, reparación y conservación de toda clase obras",
              "href": "https://api.euskadi.eus/procurements/companies/economic-activities/1.507"
            }
          }
        }
      ],
      "certificateStartDate": "2020-10-22",
      "certificateEndDate": "2021-03-08",
      "object": "A) LA COMPRAVENTA, IMPORTACIÓN, EXPORTACIÓN, ALMACENAMIENTO, TRANSPORTE, DISTRIBUCIÓN, Y CESIÓN DE USO POR CUALQUIER TÍTULO, DE MAQUINARIA, EQUIPOS, MATERIALES Y ELEMENTOS PARA TODO TIPO DE INSTALACIONES, CANALIZACIONES Y CONDUCCIONES DE FLUIDOS, GASES, ONDAS, SEÑALES DE TODO GÉNERO, PRODUCTOS PETROLÍFEROS Y ENERGÍA, TANTO DOMÉSTICAS COMO PÚBLICAS, COLECTIVAS O INDUSTRIALES, TALES COMO INSTALACIONES ELÉCTRICAS, DE RADIOTELEVISIÓN, DE AGUA, DE GASES DE CUALQUIER NATURALEZA, REDES INFORMÁTICAS Y SISTEMAS CONTRAINCENDIOS, DE CONTROL, VIGILANCIA Y SEGURIDAD, Y DE CLIMATIZACIÓN. B) LA EJECUCIÓN DE OTRAS Y PRESTACIÓN DE SERVICIOS DE DISEÑO, CONSTRUCCIÓN, INSTALACIÓN, MONTAJE, REPARACIÓN Y MANTENIMIENTO DE TODOTIPO DE TRABAJOS DE FONTANERÍA, CALEFACCIÓN, CLIMATIZACIÓN Y AGUA CALIENTE SANITARIA, FRÍO INDUSTRIAL, CONTRAINCENDIOS, ELECTRICIDAD, TELECOMUNICACIONES, CONTROL, VIGILANCIA, SEGURIDAD, APARATOS A PRESIÓN, ENERGÍAS RENOVABLES, CANALIZACIONES Y CONDUCCIONES DE FLUIDOS, GASES, ONDAS, SEÑALES DE TODO GÉNERO, PRODUCTOS PETROLÍFEROS Y ENERGÍA, TANTO DOMÉSTICAS COMO PÚBLICAS, COLECTIVAS O INDUSTRIALES. IGUALMENTE, LA FABRICACIÓN Y EJECUCIÓN DE ELEMENTOS, MATERIALES, PIEZAS Y COMPONENTES DE LAS INSTALACIONES Y MÁQUINAS OPRECISAS PARA LAS ACTIVIDADES ANTERIORES. C) EL TRASPORTE Y MANIPULACIÓN DE FLUIDOS Y GASES. D) LA MEDIACIÓN EN LA REALIZACIÓN DE PROYECTOS Y ESTUDIOS TÉCNICOS. E) LA PRESTACIÓN DE SERVICIOS ADMINISTRATIVOS, CONTABLES, DE IMPLANTACIÓN DE TÉCNICAS COMERCIALES E INDUSTRIALES, DE ADMINISTRACIÓN, DIRECCIÓN Y GESTIÓN DE EMPRESAS Y NEGOCIOS, ASÍ COMO DE PROCESAMIENTO DE DATOS POR MEDIOS INFORMÁTICOS. F) LA COMERCIALIZACIÓN, INSTALACIÓN Y ASISTENCIA TÉCNICA EN PROYECTOS DE METALES FÉRRICOS Y ALEADOS, EN TUBOS, PLANCHAS, AROS Y CUALESQUIERA OTRAS FORMAS, ASÍ COMO DE APARATOS DE USO DOMÉSTICO E INDUSTRIAL PARA CALEFACCIÓN, REFRIGERACIÓN, VENTILACIÓN, CONTRAINCENDIOS, INSTALACIÓN DE CALEFACCIÓN, FONTANERÍA Y GAS. G) EXPLOTACIÓN DE LA MADERA. H) LA PRODUCCIÓN DE ENERGÍA HIDROELÉCTRICA, ENERGÍA ELÉCTRICA DE ORIGEN TÉRMICO CONVENCIONAL, DE ORIGEN EÓLICO Y DE OTROS TIPOS; EL SUMINISTRO DE VAPOR Y AIRE ACONDICIONADO. I) LA PROMOCIÓN, CONSTRUCCIÓN Y REHABILITACIÓN INMOBILIARIA, TANTO DE EDIFICIOS RESIDENCIALES COMO NO RESIDENCIALES. J) LA CONSTRUCCIÓN DE CARRETERAS Y VÍAS FÉRREAS, TANTO EN SUPERFICIE COMO SUBTERRÁNEAS, PUENTES Y TÚNELES; LA CONSTRUCCIÓN DE REDES PARA FLUIDOS, REDES ELÉCTRICAS Y DE TELECOMUNICACIONES; LAS OBRAS HIDRÁULICAS Y OTROS PROYECTOS DE INGENIERÍA CIVIL. K) LAS ACTIVIDADES DE CONSTRUCCIÓN ESPECIALIZADA Y CONEXAS: DEMOLICIÓN, PREPARACIÓN DE TERRENOS, PERFORACIONES Y SONDEOS; REVOCAMIENTO DE EDIFICIOS, INSTALACIÓN DE CARPINTERÍA, REVESTIMIENTO DE SUELOS Y PAREDES, PINTURA Y ACRISTALAMIENTO Y EN GENERAL EL ACABADO DE EDIFICIOS; LA CONSTRUCCIÓN DE CUBIERTAS Y OTRAS ACTIVIDADES DE CONSTRUCCIÓN ESPECIALIZADA. L) EL COMERCIO AL POR MAYOR DE COMBUSTIBLES SÓLIDOS, LÍQUIDOS Y GASEOSOS, Y PRODUCTOS SIMILARES Y EL COMERCIO AL POR MENOR DE COMBUSTIBLE PARA LA AUTOMOCIÓN EN ESTABLCIMIENTOS ESPECIALIZADOS. M) TRANSPORTE DE MERCANCÍAS POR CARRETERA. N) LA INTERMEDIACIÓN Y COORDINACIÓN EN LA PRESTACIÓN DE SERVICIOS TÉCNICOS DE ARQUITECTURA E INGENIERÍA Y OTRAS ACTIVIDADES RELACIONADAS CON EL ASESORAMIENTO TÉCNICO. Ñ) LA PRESTACIÓN DE SERVICIOS INTEGRALES A EDIFICIOS E INSTALACIONES Y ACTIVIDADES DE JARDINERÍA. CNAE PRINCIPAL: 4322",
      "mainEntityOfPage": "https://www.contratacion.euskadi.eus/webkpe00-kperoc/es/ac71aBusquedaRegistrosWar/empresa/07323",
      "_links": {
        "self": {
          "name": "MEDANCLI, S.L.",
          "href": "https://api.euskadi.eus/procurements/companies/07323"
        }
      }
    },
    {
      "name": "HUBER TECHNOLOGY ESPAÑA S.L.U.",
      "registrationNumber": "07317",
      "identificationNumber": "B82916503",
      "address": "C/POLLENSA 2 (EDIF.ARTEMISA). PL.BAJA. OFICINA 5",
      "location": {
        "postalCode": "28290",
        "municipality": "Rozas de Madrid, Las",
        "county": "Madrid",
        "municipalityId": "127",
        "countyId": "28"
      },
      "economicActivities": [
        {
          "id": "1.843.1",
          "name": "Servicios técnicos de ingeniería",
          "_links": {
            "self": {
              "name": "Servicios técnicos de ingeniería",
              "href": "https://api.euskadi.eus/procurements/companies/economic-activities/1.843.1"
            }
          }
        }
      ],
      "certificateStartDate": "2020-10-21",
      "certificateEndDate": "2021-04-09",
      "object": "LA COMERCIALIZACION DE EQUIPOS Y PLANTAS PARA EL TRATAMIENTO DE AGUAS, INCLUYENDO LOS TRABAJOS DE ASESORAMIENTO, DISEÑO, EJECUCION DE PROYECTOS, INSTALACION, MANTENIMIENTO Y SERVICIO TECNICO",
      "mainEntityOfPage": "https://www.contratacion.euskadi.eus/webkpe00-kperoc/es/ac71aBusquedaRegistrosWar/empresa/07317",
      "_links": {
        "self": {
          "name": "HUBER TECHNOLOGY ESPAÑA S.L.U.",
          "href": "https://api.euskadi.eus/procurements/companies/07317"
        }
      }
    },
    {
      "name": "ESTRUCTURAS TECNICAS Y SERVICIOS DE REHABILITACION S.L.",
      "registrationNumber": "07320",
      "identificationNumber": "B86258183",
      "address": "Glorieta Cuatro Caminos, 6 7ª Pl. Ofc 702",
      "location": {
        "postalCode": "28020",
        "municipality": "Madrid",
        "county": "Madrid",
        "municipalityId": "079",
        "countyId": "28"
      },
      "economicActivities": [
        {
          "id": "1.501.2",
          "name": "Construcción completa, reparación y conservación obras civiles",
          "_links": {
            "self": {
              "name": "Construcción completa, reparación y conservación obras civiles",
              "href": "https://api.euskadi.eus/procurements/companies/economic-activities/1.501.2"
            }
          }
        }
      ],
      "certificateStartDate": "2020-10-21",
      "certificateEndDate": "2021-03-01",
      "object": "A) LA SUSCRIPCIÓN, ADQUISICIÓN, TENENCIA Y ENAJENACIÓN DE ACCIONES Y PARTICIPACIONES EN EL CAPITAL DE SOCIEDADES DE TODA CLASE, CIVILES O MERCANTILES, Y TODO ELLOPORCUENTA PROPIA, QUEDANDO  EXCLUÍDAS LAS ACTIVIDADES REGULADAS PORLA LEY DE INSTITUCIONES DE INVERSIÓN COLECTIVA Y MERCADO DE VALORES. B) LA CONTRATACIÓN, REALIZACIÓN Y EJECUCIÓN DE OBRAS PÚBLICAS, INFRAESTRUCTURAS Y CONSTRUCCIONES EN GENERAL Y, EN PARTICULAR, LA FABRICACIÓN, COMERCIALIZACIÓN, VENTA Y EMPLEO DE PRODUCTOS ASFÁLTICOS DE TODA CLASE, AGLOMERADOS, RIEGOS E IMPERMEABILIZACIONES, FABRICACIÓN Y EMPLEO DE HORMIGONES, ESTRUCTURAS DE TODO TIPO DE MATERIALES PARA LA CONSTRUCCIÓN Y PROMOCIÓN DE CUALQUIER CLASE DE OBRAS DE CARÁCTER PÚBLICO O PRIVADO. C) LA PROMOCIÓN, COMPRAVENTA, ARRENDAMIENTO, CONSTRUCCIÓN Y REHABILITACIÓN DE INMUEBLES. D) LA ELABORACIÓN DE ESTUDIOS E INFORMES DE PATOLOGÍA DE TODO TIPO DE ESTRUCTURAS, REDACCIÓN DE PROYECTOS Y ANTEPROYECTOS, SISTEMAS DE GESTIÓN DE INFRAESTRUCTURAS, INVENTARIO E INSPECCIÓN DE TODO TIPO DE  ESTRUCTURAS, MEDIANTE CONTRATACIÓN PÚBLICA O PRIVADA DE CUALQUIER CLASE Y CON CUALESQUIERA PERSONAS NATURALES O JURÍDICAS",
      "mainEntityOfPage": "https://www.contratacion.euskadi.eus/webkpe00-kperoc/es/ac71aBusquedaRegistrosWar/empresa/07320",
      "_links": {
        "self": {
          "name": "ESTRUCTURAS TECNICAS Y SERVICIOS DE REHABILITACION S.L.",
          "href": "https://api.euskadi.eus/procurements/companies/07320"
        }
      }
    },
    {
      "name": "CLICK COIN, S.L.",
      "registrationNumber": "07313",
      "identificationNumber": "B65387185",
      "address": "Carrer Alemania 16-20",
      "location": {
        "postalCode": "08769",
        "municipality": "Castellví de Rosanes",
        "county": "Barcelona",
        "municipalityId": "066",
        "countyId": "08"
      },
      "economicActivities": [
        {
          "id": "1.482.2",
          "name": "Fabricación de artículos acabados de materias plásticas",
          "_links": {
            "self": {
              "name": "Fabricación de artículos acabados de materias plásticas",
              "href": "https://api.euskadi.eus/procurements/companies/economic-activities/1.482.2"
            }
          }
        }
      ],
      "certificateStartDate": "2020-10-20",
      "certificateEndDate": "2021-01-31",
      "object": "A) LA FABRICACIÓN, MANIPULACIÓN Y COMERCIALIZACIÓN DE PRODUCTOS DE TODA CLASE, EN ESPECIAL LA FABRICACIÓN, VENTA Y COMERCIALIZACIÓN DE ENVASES, EMBALAJES, BOLSAS DE PLÁSTICO, PRECINTOS DE SEGURIDAD Y DE CUALESQUIERA OTROS MATERIALES SINTÉTICOS. B) LA PRESTACIÓN DE SERVICIOS DE GESTIÓN Y DIRECCIÓN, ASESORAMIENTO FINANCIERO Y CONTABLE E INFORMÁTICO Y AQUELLOS RELATIVOS A LA PLANIFICACIÓN Y MEJORA DE LA ACTIVIDAD INDUSTRIAL, LA GESTIÓN COMERCIAL Y LA ORGANIZACIÓN TÉCNICA DE EMPRESAS. C) LA FABRICACIÓN, COMERCIALIZACIÓN, IMPORTACIÓN Y EXPORTACIÓN DE MAQUINARIA Y UTILLAJE EN GENERAL PARA CONSTRUIR, FABRICAR O ACONDICIONAR ENVASES Y EMBALAJES DE TODO TIPO, BOLSAS DE PLÁSTICO, PRECINTOS DE SEGURIDAD, MOLDES Y MATRICES, ASÍ COMO LA FABRICACIÓN Y COMERCIALIZACIÓN DE TODOS AQUELLOS MATERIALES ACCESORIOS RELACIONADOS",
      "mainEntityOfPage": "https://www.contratacion.euskadi.eus/webkpe00-kperoc/es/ac71aBusquedaRegistrosWar/empresa/07313",
      "_links": {
        "self": {
          "name": "CLICK COIN, S.L.",
          "href": "https://api.euskadi.eus/procurements/companies/07313"
        }
      }
    },
    {
      "name": "TEIRLOG INGENIERIA, S.L.",
      "registrationNumber": "04524",
      "identificationNumber": "B27721323",
      "address": "CRONOS 63, 3ª planta, Of. 6",
      "location": {
        "postalCode": "28037",
        "municipality": "Madrid",
        "county": "Madrid",
        "municipalityId": "079",
        "countyId": "28"
      },
      "economicActivities": [
        {
          "id": "1.843.1",
          "name": "Servicios técnicos de ingeniería",
          "_links": {
            "self": {
              "name": "Servicios técnicos de ingeniería",
              "href": "https://api.euskadi.eus/procurements/companies/economic-activities/1.843.1"
            }
          }
        }
      ],
      "certificateStartDate": "2020-10-19",
      "certificateEndDate": "2021-04-19",
      "object": "A) LA ACTIVIDAD DE CONSULTORÍA, ASESORAMIENTO TÉCNICO, COLABORACIÓN Y PRESTACIÓN Y EJECUCIÓN DE SERVICIOS INTEGRALES DE INGENIERÍA Y DE LOGÍSTICA COMERC IAL Y EMPRESARIAL, TANTO PARA PARTICULARES Y EMPRESAS PRIVADAS, COMO TAMBIÉN  PARA LAS ADMINISTRACIONES PÚBLICAS DE TODO ÁMBITO Y TENOR, Y DEMÁS ORGANISMOS, ENTIDADES Y EMPRESAS PÚBLICAS, O MMIXTAS, DE ÁMBITO NACIONAL E INTERNACIONAL. B) LA EXPLOTACIÓN DE LOS NEGOCIOS RELACIONADOS CON EL TRANSPORTE DE MERCANCÍAS POR LOS DISTINTOS MODOS Y MEDIOS DE TRANSPORTE. C) LA REALIZACIÓN DE ACTIVIDADES Y PRESTACIÓN DE SERVICIOS RELATIVOS A LA INFRAESTRUCTURA, LA LOGÍSTICA Y LA EXPLOTACIÓN DE MODOS Y MEDIOS DE TRANSPORTE. D) LA COMPRAVENTA Y ARRENDAMIENTO DE TODA CLASE DE BIENES MUEBLES E INMUEBLES",
      "mainEntityOfPage": "https://www.contratacion.euskadi.eus/webkpe00-kperoc/es/ac71aBusquedaRegistrosWar/empresa/04524",
      "_links": {
        "self": {
          "name": "TEIRLOG INGENIERIA, S.L.",
          "href": "https://api.euskadi.eus/procurements/companies/04524"
        }
      }
    },
    {
      "name": "YOLANDA SOBRON LARRIMBE",
      "registrationNumber": "06410",
      "identificationNumber": "16280003M",
      "address": "CALLE ARQUITECTO JESUS GUINEA 46 BAJO",
      "location": {
        "postalCode": "01426",
        "municipality": "Valdegovía/Gaubea",
        "county": "Araba/Álava",
        "municipalityId": "055",
        "countyId": "01"
      },
      "economicActivities": [
        {
          "id": "1.966.9",
          "name": "Otros servicios culturales n.c.o.p",
          "_links": {
            "self": {
              "name": "Otros servicios culturales n.c.o.p",
              "href": "https://api.euskadi.eus/procurements/companies/economic-activities/1.966.9"
            }
          }
        },
        {
          "id": "2.599",
          "name": "Otros profesionales relacionados con el comercio y hostelería",
          "_links": {
            "self": {
              "name": "Otros profesionales relacionados con el comercio y hostelería",
              "href": "https://api.euskadi.eus/procurements/companies/economic-activities/2.599"
            }
          }
        },
        {
          "id": "2.826",
          "name": "Personal docente de enseñanzas diversas",
          "_links": {
            "self": {
              "name": "Personal docente de enseñanzas diversas",
              "href": "https://api.euskadi.eus/procurements/companies/economic-activities/2.826"
            }
          }
        }
      ],
      "certificateStartDate": "2020-10-19",
      "certificateEndDate": "2021-04-14",
      "object": "OTROS SERVICIOS CULTURALES",
      "mainEntityOfPage": "https://www.contratacion.euskadi.eus/webkpe00-kperoc/es/ac71aBusquedaRegistrosWar/empresa/06410",
      "_links": {
        "self": {
          "name": "YOLANDA SOBRON LARRIMBE",
          "href": "https://api.euskadi.eus/procurements/companies/06410"
        }
      }
    },
    {
      "name": "RELASA 2015, S.L.",
      "registrationNumber": "07307",
      "identificationNumber": "B95805487",
      "address": "Pgno Astikene, C/Orroño 17",
      "location": {
        "postalCode": "48160",
        "municipality": "Derio",
        "county": "Bizkaia",
        "municipalityId": "901",
        "countyId": "48"
      },
      "economicActivities": [
        {
          "id": "1.342",
          "name": "Fabricación de material eléctrico de utilización y equipamiento",
          "_links": {
            "self": {
              "name": "Fabricación de material eléctrico de utilización y equipamiento",
              "href": "https://api.euskadi.eus/procurements/companies/economic-activities/1.342"
            }
          }
        },
        {
          "id": "1.504.12",
          "name": "Instalaciones eléctricas en toda clase de edificios",
          "_links": {
            "self": {
              "name": "Instalaciones eléctricas en toda clase de edificios",
              "href": "https://api.euskadi.eus/procurements/companies/economic-activities/1.504.12"
            }
          }
        },
        {
          "id": "1.691.2",
          "name": "Reparación de vehículos automóviles, bicicletas y otros vehículos",
          "_links": {
            "self": {
              "name": "Reparación de vehículos automóviles, bicicletas y otros vehículos",
              "href": "https://api.euskadi.eus/procurements/companies/economic-activities/1.691.2"
            }
          }
        }
      ],
      "certificateStartDate": "2020-10-19",
      "certificateEndDate": "2021-04-08",
      "object": "EL MANTENIMIENTO Y LA REALIZACIÓN DE TODA CLASE DE INSTALACIONES ELÉCTRICAS, MANTENIMIENTO Y REPARACIÓN DE MAQUINARIA INDUSTRIAL, MOTORES, BOMBAS Y CAMIONES DE BOMBEROS, REBOBINADO DE MOTORES Y TRANSFORMADORES, ASÍ COMO EL DISEÑO Y CONSTRUCCIÓN DE CUADROS DE AUTOMATISMO",
      "mainEntityOfPage": "https://www.contratacion.euskadi.eus/webkpe00-kperoc/es/ac71aBusquedaRegistrosWar/empresa/07307",
      "_links": {
        "self": {
          "name": "RELASA 2015, S.L.",
          "href": "https://api.euskadi.eus/procurements/companies/07307"
        }
      }
    },
    {
      "name": "OBRIA OBRAS Y SERVICIOS, S.L.",
      "registrationNumber": "07308",
      "identificationNumber": "B95875886",
      "address": "PASEO URIBITARTE 11 BAJO",
      "location": {
        "postalCode": "48001",
        "municipality": "Bilbao",
        "county": "Bizkaia",
        "municipalityId": "020",
        "countyId": "48"
      },
      "economicActivities": [
        {
          "id": "1.507",
          "name": "Construcción, reparación y conservación de toda clase obras",
          "_links": {
            "self": {
              "name": "Construcción, reparación y conservación de toda clase obras",
              "href": "https://api.euskadi.eus/procurements/companies/economic-activities/1.507"
            }
          }
        }
      ],
      "certificateStartDate": "2020-10-19",
      "certificateEndDate": "2021-03-30",
      "object": "A) CONSTRUCCIÓN COMPLETA, REPARACIÓN Y CONSERVACIÓN DE EDIFICACIONES, TANTO PARA INSTITUCIONES PÚBLICAS COMO PRIVADAS, INCLUYENDO TRABAJOS DE ALBAÑILERÍA, TRABAJOS DE ELABORACIÓN DE OBRA DE PIEDRA NATURAL, DEMOLICIONES, DERRIBOS, CONSOLIDACIÓN Y PREPARACIÓN DE TERRENOS, CIMENTACIONES Y PAVIMENTACIONES, PREPARACIÓN Y MONTAJE DE ESTRUCTURAS Y CUBIERTAS, POSTES Y TORRES METÁLICAS, CARRILES, COMPUERTAS, GRÚAS, ETC. Y TODO TIPO DE INSTALACIONES Y MONTAJES, RELACIONADOS CON LA CONSTRUCCIÓN. B) REVESTIMIENTOS INTERIORES Y EXTERIORES EN TODA CLASE DE OBRAS, SOLADOS Y PAVIMENTOS DE TODAS CLASES, CARPINTERÍA, CERRAJERÍA, FONTANERÍA, PINTURA TRABAJOS EN YESO Y ESCAYOLA Y TERMINACIÓN Y DECORACIÓN DE EDIFICIOS Y LOCALES. D) LA CONSTITUCIÓN, CON LA CONCURRENCIA DE OTRAS PERSONAS FÍSICAS O JURÍDICAS, DE TODA CLASE DE SOCIEDADES MERCANTILES, LA PARTICIPACIÓN EN OTRAS CONSTITUIDAS, PUDIENDO OSTENTAR EN TODAS ELLAS CARGOS DE ADMINISTRACIÓN, DIRECCIÓN O CONTROL MEDIANTE LA OPORTUNA DELEGACIÓN, EN PERSONA FÍSICA. E) COMERCIALIZACIÓN, VENTA Y DISTRIBUCIÓN, TANTO AL POR MAYOR COMO AL POR MENOR, DE TODA CLASE DE PRODUCTOS RELACIONADOS CON LA CONSTRUCCIÓN. F) LA COMPRA, TENENCIA, ENAJENACIÓN Y EXPLOTACIÓN, INCLUSO EN EXCLUSIVA POR O A FAVOR DE LA SOCIEDAD, DE TÍTULOS, VALORES, ACCIONES, BONOS, OBLIGACIONES, PATENTES, LICENCIAS, MARCAS, MODELOS, RÓTULOS, NOMBRES COMERCIALES Y TODA CLASE DE PERTENECÍAS DE PROPIEDAD INDUSTRIAL E INTELECTUAL Y CUALESQUIERA OTRA CLASE DE BIENES MUEBLES; TODO ELLO SIN INCIDIR EN ACTIVIDADES REGULADAS POR LA LEGISLACIÓN DE INSTITUCIONES DE INVERSIÓN COLECTIVA Y LEY DE MERCADO DE VALORES. G) LA COMPRA Y VENTA DE BIENES INMUEBLES, PARA LA CONSTRUCCIÓN O EXPLOTACIÓN DE LOS MISMOS, INCLUSO EN RÉGIMEN DE ARRENDAMIENTO, LA CONSTRUCCIÓN POR CUENTA PROPIA O AJENA, ASÍ COMO LA URBANIZACIÓN DE TODA CLASE DE TERRENOS",
      "mainEntityOfPage": "https://www.contratacion.euskadi.eus/webkpe00-kperoc/es/ac71aBusquedaRegistrosWar/empresa/07308",
      "_links": {
        "self": {
          "name": "OBRIA OBRAS Y SERVICIOS, S.L.",
          "href": "https://api.euskadi.eus/procurements/companies/07308"
        }
      }
    },
    {
      "name": "VILELA ELECTRICIDAD, S.L.",
      "registrationNumber": "07309",
      "identificationNumber": "B70469036",
      "address": "CALLE ALFONSO CASTELAO Nº9 BAJO",
      "location": {
        "postalCode": "15800",
        "municipality": "Melide",
        "county": "Coruña, A",
        "municipalityId": "046",
        "countyId": "15"
      },
      "economicActivities": [
        {
          "id": "1.504.1",
          "name": "Instalaciones eléctricas en general",
          "_links": {
            "self": {
              "name": "Instalaciones eléctricas en general",
              "href": "https://api.euskadi.eus/procurements/companies/economic-activities/1.504.1"
            }
          }
        }
      ],
      "certificateStartDate": "2020-10-19",
      "certificateEndDate": "2021-01-23",
      "object": "LA PRESTACIÓN DE SERVICIOS Y REALIZACIÓN DE ACTIVIDADES TENDENTES A LA EJECUCIÓN DE INSTALACIONES Y MONTAJES ELÉCTRICOS DE ALTA Y BAJA TENSIÓN, MONTAJES INDUSTRIALES, SUMINISTROS TÉCNICOS, DE MATERIAL Y MAQUINARIA ELÉCTRICA ",
      "mainEntityOfPage": "https://www.contratacion.euskadi.eus/webkpe00-kperoc/es/ac71aBusquedaRegistrosWar/empresa/07309",
      "_links": {
        "self": {
          "name": "VILELA ELECTRICIDAD, S.L.",
          "href": "https://api.euskadi.eus/procurements/companies/07309"
        }
      }
    }
  ]
}