{
  "totalItems": 9042,
  "totalPages": 905,
  "currentPage": 800,
  "itemsOfPage": 10,
  "items": [
    {
      "name": "CONSTRUCCIONES TEUS, S.A.",
      "registrationNumber": "00725",
      "identificationNumber": "A20089892",
      "address": "C/ PORTUETXE, 53 A -  OF. 104",
      "location": {
        "postalCode": "20015",
        "municipality": "Donostia / San Sebastián",
        "county": "Gipuzkoa",
        "municipalityId": "069",
        "countyId": "20"
      },
      "economicActivities": [
        {
          "id": "1.501.1",
          "name": "Construcción completa, reparación y conservación de edificaciones",
          "_links": {
            "self": {
              "name": "Construcción completa, reparación y conservación de edificaciones",
              "href": "https://api.euskadi.eus/procurements/companies/economic-activities/1.501.1"
            }
          }
        }
      ],
      "certificateStartDate": "2003-10-03",
      "certificateEndDate": "2004-03-16",
      "object": "LA CONSTRUCCIÓN EN TODAS SUS VARIEDADES, TANTO VIVIENDAS COMO PABELLONES INDUSTRIALES, URBANIZACIONES POR CUENTA PROPIA O POR ENCARGO DE TERCEROS.",
      "mainEntityOfPage": "https://www.contratacion.euskadi.eus/webkpe00-kperoc/es/ac71aBusquedaRegistrosWar/empresa/00725",
      "_links": {
        "self": {
          "name": "CONSTRUCCIONES TEUS, S.A.",
          "href": "https://api.euskadi.eus/procurements/companies/00725"
        }
      }
    },
    {
      "name": "SERVIRECORD, S.A.",
      "registrationNumber": "02093",
      "identificationNumber": "A50308840",
      "address": "EDIF. EXPOZARAGOZA, ESC. 1 - OF. 6, CTRA. DE MADRID KM 315,8",
      "location": {
        "postalCode": "50012",
        "municipality": "Zaragoza",
        "county": "Zaragoza",
        "municipalityId": "297",
        "countyId": "50"
      },
      "economicActivities": [
        {
          "id": "1.952",
          "name": "Asistencia y servicios sociales en centros no residenciales",
          "_links": {
            "self": {
              "name": "Asistencia y servicios sociales en centros no residenciales",
              "href": "https://api.euskadi.eus/procurements/companies/economic-activities/1.952"
            }
          }
        }
      ],
      "certificateStartDate": "2003-10-01",
      "certificateEndDate": "2004-02-29",
      "object": "\r\n\r\na) SERVICIOS DE MARKETING, PUBLICIDAD, MERCHANDASING, PROMOCIONES PUBLICITARIAS, AZAFATAS DE CONGRESOS, FERIAS, GESTIÓN Y ADMINISTRACIÓN DE EMPRESAS, DE COMUNIDADES Y DE PARTICULARES.\r\n\r\nb) SERVICIOS DE MANTENIMIENTO Y LIMPIEZA DE EDIFICIOS E INSTALACIONES COMERCIALES, ADMINISTRATIVOS E INDUSTRIALES Y LIMPIEZA EN GENERAL INCLUSO DE COMUNIDADES Y PARTICULARES.\r\n\r\nc) SERVICIOS DE BUZONEO, ENVÍO DE CORRESPONDENCIA, LISTADOS DE CORREOS, Y PUBLICIDAD A TRAVÉS DE CUALQUIER MEDIO.\r\n\r\nd) SERVICIOS Y OBRAS DE CARÁCTER SOCIAL DESTINADAS A CUALQUIER SECTOR DE LA POBLACIÓN (YA SEAN PRESTADOS POR NUESTRA CUENTA O POR CUENTA DE OTROS), CON O SIN CONTRAPRESTACIÓN POR PARTE DE QUIEN RECIBE EL SERVICIO   ",
      "mainEntityOfPage": "https://www.contratacion.euskadi.eus/webkpe00-kperoc/es/ac71aBusquedaRegistrosWar/empresa/02093",
      "_links": {
        "self": {
          "name": "SERVIRECORD, S.A.",
          "href": "https://api.euskadi.eus/procurements/companies/02093"
        }
      }
    },
    {
      "name": "SUMINISTROS Y DISTRIBUCIONES SANITARIAS, S.A.",
      "registrationNumber": "02203",
      "identificationNumber": "A80663040",
      "address": "C/ AVENIDA VALDELAPARRA, Nº 27. EDIFICIO: 1 - 3ª PLANTA.",
      "location": {
        "postalCode": "28100",
        "municipality": "Alcobendas",
        "county": "Madrid",
        "municipalityId": "006",
        "countyId": "28"
      },
      "economicActivities": [
        {
          "id": "1.619.2",
          "name": "Venta al por mayor de aparatos e instrumentos médicos, ortopédicos, ópticos",
          "_links": {
            "self": {
              "name": "Venta al por mayor de aparatos e instrumentos médicos, ortopédicos, ópticos",
              "href": "https://api.euskadi.eus/procurements/companies/economic-activities/1.619.2"
            }
          }
        },
        {
          "id": "1.659.2",
          "name": "Venta al por menor de muebles de oficina y máquinas y equipos de oficina",
          "_links": {
            "self": {
              "name": "Venta al por menor de muebles de oficina y máquinas y equipos de oficina",
              "href": "https://api.euskadi.eus/procurements/companies/economic-activities/1.659.2"
            }
          }
        },
        {
          "id": "1.699",
          "name": "Otras reparaciones n.c.o.p",
          "_links": {
            "self": {
              "name": "Otras reparaciones n.c.o.p",
              "href": "https://api.euskadi.eus/procurements/companies/economic-activities/1.699"
            }
          }
        }
      ],
      "certificateStartDate": "2003-09-26",
      "certificateEndDate": "2004-03-17",
      "object": "\r\n\r\na) LA CONSTRUCCIÓN, PROMOCIÓN Y VENTA POR CUENTA PROPIA O AJENA, DE EDIFICACIONES PARA VIVIENDAS O USOS INDUSTRIALES Y COMERCIALES, ASÍ COMO LA REALIZACIÓN DE TODA CLASE DE OBRAS, TANTO PÚBLICAS COMO PRIVADAS Y LA URBANIZACIÓN Y PARCELACIÓN DE TODA CLASE DE TERRENOS.\r\n\r\nb) LA COMPRA, VENTA, SUMINISTRO, MONTAJE, FABRICACIÓN, INSTALACIÓN, ARRENDAMIENTO DE TODA CLASE DE MATERIAL, ENSERES Y MUEBLES DESTINADOS A SERVICIO MÉDICO-QUIRÚRGICO Y ORTOPEDIA, ASÍ COMO INSTRUMENTAL Y APARATOS.\r\n\r\nc) LA PRESTACIÓN DE SERVICIOS A PERSONAS FÍSICAS O JURÍDICAS, PÚBLICAS O PRIVADAS, DE ASESORAMIENTO PROFESIONAL EN LOS CAMPOS JURÍDICOS, LABORAL, CONTABLE, FISCAL Y ADMINISTRATIVO, CON TODO CUANTO A TAL OBJETO SEA INHERENTE O COMPLEMENTARIO",
      "mainEntityOfPage": "https://www.contratacion.euskadi.eus/webkpe00-kperoc/es/ac71aBusquedaRegistrosWar/empresa/02203",
      "_links": {
        "self": {
          "name": "SUMINISTROS Y DISTRIBUCIONES SANITARIAS, S.A.",
          "href": "https://api.euskadi.eus/procurements/companies/02203"
        }
      }
    },
    {
      "name": "ELOSA NORTE, S.A.",
      "registrationNumber": "01554",
      "identificationNumber": "A48428601",
      "address": "C/ VILLA DE PLENCIA, 32-bajo",
      "location": {
        "postalCode": "48930",
        "municipality": "Getxo",
        "county": "Bizkaia",
        "municipalityId": "044",
        "countyId": "48"
      },
      "economicActivities": [
        {
          "id": "1.922",
          "name": "Servicios de limpieza",
          "_links": {
            "self": {
              "name": "Servicios de limpieza",
              "href": "https://api.euskadi.eus/procurements/companies/economic-activities/1.922"
            }
          }
        },
        {
          "id": "1.922.1",
          "name": "Servicios de limpieza de interiores",
          "_links": {
            "self": {
              "name": "Servicios de limpieza de interiores",
              "href": "https://api.euskadi.eus/procurements/companies/economic-activities/1.922.1"
            }
          }
        }
      ],
      "certificateStartDate": "2003-09-24",
      "certificateEndDate": "2004-01-15",
      "object": "CONTRATACIÓN Y PRESTACIÓN POR SÍ O MEDIANTE TERCEROS DE CUALQUIER CLASE DE SERVICIOS PARA LA LIMPIEZA Y MANTENIMIENTO DE LOCALES Y EDIFICIOS, EN SU SENTIDO MÁS AMPLIO, INCLUIDAS ZONAS AJARDINADAS Y PISCINAS, ASÍ COMO DESINFECCIONES, DESINSECTACIONES, DESRATIZACIONES, E IGNIFUGACIONES. REALIZACIÓN DE OBRAS Y REPARACIONES MENORES PARA LA RESTAURACIÓN Y CONSERVACIÓN DE EXTERIORES E INTERIORES DE EDIFICIOS, INSTALACIONES Y MOBILIARIO. DECORACIÓN INTERIOR DE LOCALES Y EDIFICIOS. VENTA Y SUMINISTRO DE CUANTOS MATERIALES, OBJETOS, HERRAMIENTAS O MAQUINARIA SE PRECISE PARA LA PRESTACIÓN DE LOS SERVICIOS Y TRABAJOS RELACIONADOS EN LOS APARTADOS ANTERIORES. PREPARACIÓN, CONDIMENTACIÓN Y SERVICIO DE TODA CLASE DE COMIDAS Y BEBIDAS A PARTICULARES, EMPRESAS Y ORGANISMOS OFICIALES EN SUS RESPECTIVOS DOMICILIOS O SEDES, ASÍ COMO EN LOCALES ARRENDADOS A ESTE FIN. LA COMPRA-VENTA DE TODA CLASE DE MERCANCÍAS, ASÍ COMO LA IMPORTACIÓN Y EXPORTACIÓN DE LAS MISMAS, POR CUENTA PROPIA O MEDIANTE REPRESENTACIÓN",
      "mainEntityOfPage": "https://www.contratacion.euskadi.eus/webkpe00-kperoc/es/ac71aBusquedaRegistrosWar/empresa/01554",
      "_links": {
        "self": {
          "name": "ELOSA NORTE, S.A.",
          "href": "https://api.euskadi.eus/procurements/companies/01554"
        }
      }
    },
    {
      "name": "ASOCIACIÓN CENTRO DE TECNOLOGÍAS DE INTERACCIÓN VISUAL Y COMUNICACIONES VICOMTEC",
      "registrationNumber": "02566",
      "identificationNumber": "G20718839",
      "address": "PASEO MIKELETEGI, 57 BAJO",
      "location": {
        "postalCode": "20009",
        "municipality": "Donostia / San Sebastián",
        "county": "Gipuzkoa",
        "municipalityId": "069",
        "countyId": "20"
      },
      "economicActivities": [
        {
          "id": "1.936.5",
          "name": "Investigación técnica industrial",
          "_links": {
            "self": {
              "name": "Investigación técnica industrial",
              "href": "https://api.euskadi.eus/procurements/companies/economic-activities/1.936.5"
            }
          }
        }
      ],
      "certificateStartDate": "2003-09-24",
      "certificateEndDate": "2004-03-09",
      "object": "LA PROMOCIÓN Y EL DESARROLLO DE CUANTAS ACTIVIDADES DE INVESTIGACIÓN CIENTÍFICA Y DESARROLLO TECNOLÓGICO EN EL SECTOR DE LAS TECNOLOGÍAS Y SISTEMAS DE LA INFORMACIÓN, COMUNICACIONES Y TELECOMUNICACIONES SEAN DE INTERÉS PARA LA INDUSTRIA EN GENERAL",
      "mainEntityOfPage": "https://www.contratacion.euskadi.eus/webkpe00-kperoc/es/ac71aBusquedaRegistrosWar/empresa/02566",
      "_links": {
        "self": {
          "name": "ASOCIACIÓN CENTRO DE TECNOLOGÍAS DE INTERACCIÓN VISUAL Y COMUNICACIONES VICOMTEC",
          "href": "https://api.euskadi.eus/procurements/companies/02566"
        }
      }
    },
    {
      "name": "JOSEBA REMENTERIA NATXITUBE-ARQUITECTO",
      "registrationNumber": "02722",
      "identificationNumber": "50393310B",
      "address": "DOLORIAGA, 15-5º",
      "location": {
        "postalCode": "48370",
        "municipality": "Bermeo",
        "county": "Bizkaia",
        "municipalityId": "017",
        "countyId": "48"
      },
      "economicActivities": [
        {
          "id": "2.411",
          "name": "Arquitectos",
          "_links": {
            "self": {
              "name": "Arquitectos",
              "href": "https://api.euskadi.eus/procurements/companies/economic-activities/2.411"
            }
          }
        }
      ],
      "certificateStartDate": "2003-09-05",
      "certificateEndDate": "2003-12-09",
      "object": "REDACCIÓN DE  PROYECTOS Y DIRECCIÓN DE OBRAS DE EDIFICACIÓN, URBANIZACIÓN Y CIVILES; TRABAJOS DE URBANISMO, ASESORAMIENTO, INFORMACIÓN Y PERITACIÓN, DESLINDES, MEDICIONES Y TASACIONES, Y DEMÁS ACTIVIDADES PROPIAS Y RELACIONADAS CON LA ARQUITECTURA  Y EL URBANISMO.\r\nDIRECCIÓN, COORDINACIÓN Y COLABORACIÓN EN EQUIPOS UNI Y MULTIDISCIPLINARES PARA TRABAJOS DE ORDENACIÓN DEL TERRITORIO Y MEDIO AMBIENTE. ",
      "mainEntityOfPage": "https://www.contratacion.euskadi.eus/webkpe00-kperoc/es/ac71aBusquedaRegistrosWar/empresa/02722",
      "_links": {
        "self": {
          "name": "JOSEBA REMENTERIA NATXITUBE-ARQUITECTO",
          "href": "https://api.euskadi.eus/procurements/companies/02722"
        }
      }
    },
    {
      "name": "CENTERPULSE IBERICA, S.A.",
      "registrationNumber": "01885",
      "identificationNumber": "A28529568",
      "address": "RONDA DE PONIENTE, 19. EDIFICIO FITENI VI",
      "location": {
        "postalCode": "28760",
        "municipality": "Tres Cantos",
        "county": "Madrid",
        "municipalityId": "903",
        "countyId": "28"
      },
      "economicActivities": [
        {
          "id": "1.619.2",
          "name": "Venta al por mayor de aparatos e instrumentos médicos, ortopédicos, ópticos",
          "_links": {
            "self": {
              "name": "Venta al por mayor de aparatos e instrumentos médicos, ortopédicos, ópticos",
              "href": "https://api.euskadi.eus/procurements/companies/economic-activities/1.619.2"
            }
          }
        }
      ],
      "certificateStartDate": "2003-09-01",
      "certificateEndDate": "2004-02-13",
      "object": "LA COMERCIALIZACIÓN, MEDIANTE COMPRAVENTA O REPRESENTACIONES O CUALQUIER OTRA FÓRMULA, EN EL MERCADO NACIONAL O INTERNACIONAL DE CUALQUIER TIPO DE IMPLANTES, PRÓTESIS, INSTRUMENTOS MÉDICO-QUIRÚRGICOS, CEMENTOS ACRÍLICOS PARA USO QUIRÚRGICO, ASÍ COMO APARATOS MÉDICOS DE PRODUCCIÓN NACIONAL O EXTRANJERA. LA ACTIVIDAD DE RENTING PARA RENTAR A HOSPITALES CUALQUIER TIPO DE INSTRUMENTAL Y PROGRAMAS DE ORDENADOR Y CUALQUIER TIPO DE SOFTWARE YA SEA DE CREACIÓN PROPIA O PREVIA ADQUISICIÓN AL FABRICANTE, DISTRIBUIDOR O TERCERO QUE SEA DE APLICACIÓN A LA CIRUGÍA ORTOPÉDICA",
      "mainEntityOfPage": "https://www.contratacion.euskadi.eus/webkpe00-kperoc/es/ac71aBusquedaRegistrosWar/empresa/01885",
      "_links": {
        "self": {
          "name": "CENTERPULSE IBERICA, S.A.",
          "href": "https://api.euskadi.eus/procurements/companies/01885"
        }
      }
    },
    {
      "name": "SIEMENS CERBERUS, S.A.",
      "registrationNumber": "00847",
      "identificationNumber": "A08269292",
      "address": "C/ MARÍA DÍAZ DE HARO, 10 BIS ",
      "location": {
        "postalCode": "48000",
        "municipality": "Bilbao",
        "county": "Bizkaia",
        "municipalityId": "020",
        "countyId": "48"
      },
      "economicActivities": [
        {
          "id": "1.504.1",
          "name": "Instalaciones eléctricas en general",
          "_links": {
            "self": {
              "name": "Instalaciones eléctricas en general",
              "href": "https://api.euskadi.eus/procurements/companies/economic-activities/1.504.1"
            }
          }
        }
      ],
      "certificateStartDate": "2003-08-26",
      "certificateEndDate": "2003-11-07",
      "object": "LA CONSTRUCCIÓN Y COMERCIALIZACIÓN, EN SU MÁS AMPLIO SENTIDO, DE MATERIAL, APARATOS E INSTALACIONES DE SEGURIDAD (DETECCIÓN Y PROTECCIÓN DE TODA CLASE DE RIESGOS), CON SU CORRESPONDIENTE ASESORAMIENTO, PLANIFICACIÓN, INSTALACIÓN Y MANTENIMIENTO",
      "mainEntityOfPage": "https://www.contratacion.euskadi.eus/webkpe00-kperoc/es/ac71aBusquedaRegistrosWar/empresa/00847",
      "_links": {
        "self": {
          "name": "SIEMENS CERBERUS, S.A.",
          "href": "https://api.euskadi.eus/procurements/companies/00847"
        }
      }
    },
    {
      "name": "BERAKO, S.A.",
      "registrationNumber": "01497",
      "identificationNumber": "A20052072",
      "address": "C/ CARRETERA SAN VICENTE, S/N. POL. IBARZAHARRA. P 9 y 10.",
      "location": {
        "postalCode": "48510",
        "municipality": "Valle de Trápaga-Trapagaran",
        "county": "Bizkaia",
        "municipalityId": "080",
        "countyId": "48"
      },
      "economicActivities": [
        {
          "id": "1.692",
          "name": "Reparación de maquinaria industrial",
          "_links": {
            "self": {
              "name": "Reparación de maquinaria industrial",
              "href": "https://api.euskadi.eus/procurements/companies/economic-activities/1.692"
            }
          }
        },
        {
          "id": "1.921.9",
          "name": "Otros servicios de saneamiento y similares n.c.o.p",
          "_links": {
            "self": {
              "name": "Otros servicios de saneamiento y similares n.c.o.p",
              "href": "https://api.euskadi.eus/procurements/companies/economic-activities/1.921.9"
            }
          }
        }
      ],
      "certificateStartDate": "2003-08-21",
      "certificateEndDate": "2004-01-28",
      "object": "LA PRESTACIÓN DE SERVICIOS DE LIMPIEZA DE CALDERAS, CIRCUITOS, DEPÓSITOS, ALCANTARILLAS, ETC., DE TODO TIPO DE EMPRESAS INDUSTRIALES U ORGANISMOS MUNICIPALES, PROVINCIALES O ESTATALES",
      "mainEntityOfPage": "https://www.contratacion.euskadi.eus/webkpe00-kperoc/es/ac71aBusquedaRegistrosWar/empresa/01497",
      "_links": {
        "self": {
          "name": "BERAKO, S.A.",
          "href": "https://api.euskadi.eus/procurements/companies/01497"
        }
      }
    },
    {
      "name": "UNIÓN CONSTRUCTORA Y DESARROLLO URBANO, S.A.",
      "registrationNumber": "02641",
      "identificationNumber": "A31700024",
      "address": "C/ ITURRAMA, 15 ENTREPLANTA",
      "location": {
        "postalCode": "31007",
        "municipality": "Pamplona/Iruña",
        "county": "Navarra",
        "municipalityId": "201",
        "countyId": "31"
      },
      "economicActivities": [
        {
          "id": "1.501.1",
          "name": "Construcción completa, reparación y conservación de edificaciones",
          "_links": {
            "self": {
              "name": "Construcción completa, reparación y conservación de edificaciones",
              "href": "https://api.euskadi.eus/procurements/companies/economic-activities/1.501.1"
            }
          }
        }
      ],
      "certificateStartDate": "2003-08-11",
      "certificateEndDate": "2004-01-15",
      "object": "A) LA COMPRA, VENTA, PERMUTA Y, EN GENERAL ADQUISICIÓN O ENAJENACIÓN POR CUALQUIER TÍTULO DE TERRENOS, SOLARES, DE FINCAS RÚSTICAS O URBANAS DE CUALQUIER ESPECIE, ASÍ COMO SU ORDENACIÓN, PARCELACIÓN Y URBANIZACIÓN .\r\n\r\n B) LA PROMOCIÓN DE POLÍGONOS INDUSTRIALES Y URBANOS, ASÍ COMO SU ORDENACIÓN, PLANIFICACIÓN, PARCELACIÓN Y URBANIZACIÓN, E INSTALACIÓN DE TODO O PARTE DE LOS SERVICIOS ADECUADOS.\r\n\r\nC) LA EXPLOTACIÓN EN FORMA DE VENTA, SOCIEDAD, ARRIENDO, SUPERFICIE Y OTRAS CUALESQUIERA, DE POLÍGONOS, SOLARES, PARCELAS O TERRENOS, QUE ADQUIERA, ORDENE O URBANICE, ASÍ COMO CONSTRUCCIONES QUE ADQUIERA, PROMUEVA O CONSTRUYA.\r\n\r\nD) LA PARTICIPACIÓN EN OTRAS SOCIEDADES O EMPRESAS, CUYAS ACTIVIDADES SEAN SIMILARES O ANÁLOGAS CON LAS EXPRESADAS.\r\n\r\nE) LAS ACTIVIDADES RELACIONADAS CON LAS INDUSTRIAS DE CONSTRUCCIÓN DE CARRETERAS, CAMINOS, EDIFICIOS, FINCAS URBANAS, POR CUENTA PROPIA O AJENA, ASÍ COMO LA ASESORÍA, OCORDINACIÓN E INTEMEDIACIÓN EN DIRECCIÓN DE OBRAS.\r\n\r\nF) LA EXPLOTACIÓN DE INDUSTRIAS BÁSICAS Y AUXILIARES, NEGOCIACIÓN, COMERCIALIZACIÓN Y DISTRIBUCIÓN DE TODA CLASE  DE MATERIAS PRIMAS, PRODUCTOS Y  FABRICADOS, VEHÍCULOS, MAQUINARIA Y ELEMENTOS DE CONSTRUCCIÓN, SANEAMIENTOS Y URBANIZACIÓN, CARPINTERÍA, INCLUSO METÁLICA Y TUBULAR, APARATOS, HERRAMIENTAS Y MATERIAL AUXILIAR PARA LA CONSTRUCCIÓN.\r\n\r\nG) LA REALIZACIÓN POR SÍ SOLO O POR MEDIO DE OTRAS EMPRESAS DE TODAS LAS OBRAS, SEAN CUALES FUEREN SU NATURALEZA QUE SE PRECISEN PARA LA EJECUCIÓN DE TODOS Y CADA UNO DE LOS FINES O ACTIVIDAES A QUE SE REFIEREN LOS APARTADOS PRECEDENTES.\r\n\r\nH) LA ADQUISICIÓN, EXPLOTACIÓN Y CONCESIÓN DE PRODUCTOS, MARCAS Y PATENTES NACIONALES O EXTRANJERAS\r\n\r\nI) LAS IMPORTACIONES  Y EXPORTACIONES DE TODA CLASE Y  TIPO\r\n\r\nJ) LA ACTIVIDAD INMOBILIARIA.\r\n\r\n   ",
      "mainEntityOfPage": "https://www.contratacion.euskadi.eus/webkpe00-kperoc/es/ac71aBusquedaRegistrosWar/empresa/02641",
      "_links": {
        "self": {
          "name": "UNIÓN CONSTRUCTORA Y DESARROLLO URBANO, S.A.",
          "href": "https://api.euskadi.eus/procurements/companies/02641"
        }
      }
    }
  ]
}