{
  "totalItems": 9042,
  "totalPages": 905,
  "currentPage": 811,
  "itemsOfPage": 10,
  "items": [
    {
      "name": "JOSÉ MIGUEL URRETABIZKAIA ÁLVAREZ DE ARKAIA (J.M. URRETABIZKAIA MOBILIARIO)",
      "registrationNumber": "01672",
      "identificationNumber": "16200090V",
      "address": "C/ PLAZA SANTA BÁRBARA, Nº 8 - BAJO.",
      "location": {
        "postalCode": "01004",
        "municipality": "Vitoria-Gasteiz",
        "county": "Araba/Álava",
        "municipalityId": "059",
        "countyId": "01"
      },
      "economicActivities": [
        {
          "id": "1.653.1",
          "name": "Venta al por menor de muebles (excepto los de oficina)",
          "_links": {
            "self": {
              "name": "Venta al por menor de muebles (excepto los de oficina)",
              "href": "https://api.euskadi.eus/procurements/companies/economic-activities/1.653.1"
            }
          }
        },
        {
          "id": "1.659.2",
          "name": "Venta al por menor de muebles de oficina y máquinas y equipos de oficina",
          "_links": {
            "self": {
              "name": "Venta al por menor de muebles de oficina y máquinas y equipos de oficina",
              "href": "https://api.euskadi.eus/procurements/companies/economic-activities/1.659.2"
            }
          }
        }
      ],
      "certificateStartDate": "2002-02-14",
      "certificateEndDate": "2002-08-05",
      "object": "COMERCIO AL POR MENOR DE MUEBLES Y EQUIPOS DE OFICINA",
      "mainEntityOfPage": "https://www.contratacion.euskadi.eus/webkpe00-kperoc/es/ac71aBusquedaRegistrosWar/empresa/01672",
      "_links": {
        "self": {
          "name": "JOSÉ MIGUEL URRETABIZKAIA ÁLVAREZ DE ARKAIA (J.M. URRETABIZKAIA MOBILIARIO)",
          "href": "https://api.euskadi.eus/procurements/companies/01672"
        }
      }
    },
    {
      "name": "SERVICIOS Y MONTAJES VIZCAÍNOS, S.A. (SYMVISA)",
      "registrationNumber": "01568",
      "identificationNumber": "A48156939",
      "address": "C/ ARAGÓN, Nº 2 - 2º",
      "location": {
        "postalCode": "48015",
        "municipality": "Bilbao",
        "county": "Bizkaia",
        "municipalityId": "020",
        "countyId": "48"
      },
      "economicActivities": [
        {
          "id": "1.503.1",
          "name": "Preparación y montaje de estructuras y cubiertas en edificaciones",
          "_links": {
            "self": {
              "name": "Preparación y montaje de estructuras y cubiertas en edificaciones",
              "href": "https://api.euskadi.eus/procurements/companies/economic-activities/1.503.1"
            }
          }
        },
        {
          "id": "1.504.1",
          "name": "Instalaciones eléctricas en general",
          "_links": {
            "self": {
              "name": "Instalaciones eléctricas en general",
              "href": "https://api.euskadi.eus/procurements/companies/economic-activities/1.504.1"
            }
          }
        },
        {
          "id": "1.504.3",
          "name": "Instalaciones de frío, calor y acondicionamiento de aire",
          "_links": {
            "self": {
              "name": "Instalaciones de frío, calor y acondicionamiento de aire",
              "href": "https://api.euskadi.eus/procurements/companies/economic-activities/1.504.3"
            }
          }
        },
        {
          "id": "1.671.5",
          "name": "Restaurante un tenedor",
          "_links": {
            "self": {
              "name": "Restaurante un tenedor",
              "href": "https://api.euskadi.eus/procurements/companies/economic-activities/1.671.5"
            }
          }
        },
        {
          "id": "1.921.3",
          "name": "Exterminio de animales dañinos y desinfección",
          "_links": {
            "self": {
              "name": "Exterminio de animales dañinos y desinfección",
              "href": "https://api.euskadi.eus/procurements/companies/economic-activities/1.921.3"
            }
          }
        },
        {
          "id": "1.922.1",
          "name": "Servicios de limpieza de interiores",
          "_links": {
            "self": {
              "name": "Servicios de limpieza de interiores",
              "href": "https://api.euskadi.eus/procurements/companies/economic-activities/1.922.1"
            }
          }
        }
      ],
      "certificateStartDate": "2002-02-05",
      "certificateEndDate": "2002-07-04",
      "object": "\r\n\r\na) LA REALIZACIÓN DE TODA CLASE DE SERVICIOS Y MONTAJES A LA INDUSTRIA EN GENERAL.\r\n\r\nb) LA PRESTACIÓN POR MEDIOS PROPIOS O AJENOS A TRAVÉS DE PERSONAL ESPECIALIZADO, DE LOS SIGUIENTES SERVICIOS:\r\n  b.1.- LIMPIEZA Y MANTENIMIENTO INTEGRAL DE EDIFICIOS Y LOCALES, VIALES, PARQUES, JARDINES, TRANSPORTES Y QUÍMICAS, EXPLOTACIONES FORESTALES, URBANIZACIONES Y ADMINISTRACIÓN PÚBLICA.\r\n  b.2.- GESTIÓN INTEGRAL DE EXTINCIÓN DE INCENDIOS, TRATAMIENTOS PLAGUICIDAS, ALMACENES, TRANSPORTE EN GENERAL.\r\n  b.3.- GESTIÓN INTEGRAL DE ROPA LABORAL: RENTING DE PRENDAS, LAVADO DE ROPA INDUSTRIAL Y GESTIÓN Y MANTENIMIENTO DEL PROCESO.\r\n  b.4.- TRATAMIENTO DE RESIDUOS: MINIMACIÓN, ANÁLISIS, TRATAMIENTO, TRANSPORTE, EVACUACIÓN, ALMACENAJE Y ELIMINACIÓN DE LOS MISMO.\r\n  b.5.- FOTOCOMPOSICIÓN: AUTOEDICIÓN, REPROGRAFÍA E IMPRENTA.\r\n  b.6.- GESTIÓN DE OBRAS MENORES: INTERIORISMO, REFORMAS, RESTAURACIÓN Y REPARACIÓN DE VIVIENDAS, EDIFICIOS E INSTALACIONES EN GENERAL.\r\n  b.7.- GESTIÓN INTEGRAL DE FORMACIÓN: FORMACIÓN, SELECCIÓN Y ORGANIZACIÓN DE PERSONAL Y EMPRESAS.\r\n\r\nc) LA REPRESENTACIÓN COMO AGENTE, DELEGADO, COMISIONISTA O CUALQUIER OTRA FORMA DE MEDIACIÓN MERCANTIL DE TODA CLASE DE EMPRESAS NACIONALES O EXTRANJERAS RELACIONADAS CON LOS MENCIONADOS SERVICIOS U OBJETOS O ELEMENTOS NECESARIOS PARA LA PRESTACIÓN DE LOS MISMOS",
      "mainEntityOfPage": "https://www.contratacion.euskadi.eus/webkpe00-kperoc/es/ac71aBusquedaRegistrosWar/empresa/01568",
      "_links": {
        "self": {
          "name": "SERVICIOS Y MONTAJES VIZCAÍNOS, S.A. (SYMVISA)",
          "href": "https://api.euskadi.eus/procurements/companies/01568"
        }
      }
    },
    {
      "name": "GRÁFICAS VICUÑA, S.L.",
      "registrationNumber": "02502",
      "identificationNumber": "B01277045",
      "address": "C/ PINTORERÍA, 49",
      "location": {
        "postalCode": "01001",
        "municipality": "Vitoria-Gasteiz",
        "county": "Araba/Álava",
        "municipalityId": "059",
        "countyId": "01"
      },
      "economicActivities": [
        {
          "id": "1.474",
          "name": "Artes gráficas (impresión gráfica)",
          "_links": {
            "self": {
              "name": "Artes gráficas (impresión gráfica)",
              "href": "https://api.euskadi.eus/procurements/companies/economic-activities/1.474"
            }
          }
        }
      ],
      "certificateStartDate": "2002-02-04",
      "certificateEndDate": "2002-07-24",
      "object": "LA REALIZACIÓN DE TRABAJOS DE IMPRESIÓN, ARTES GRÁFICAS Y ACTIVIDADES ANEXAS A LAS MISMAS. LA EDICIÓN DE LIBROS, PERIÓDICOS, REVISTAS Y OTRAS EDICIONES TALES COMO TARJETAS, GRABADOS, FOLLETOS, ALMANAQUES, CALENDARIOS, ETC. LA COMPRA, VENTA, PROMOCIÓN, CONSTRUCCIÓN Y ARRENDAMIENTO NO FINANCIERO DE BIENES INMUEBLES.  ",
      "mainEntityOfPage": "https://www.contratacion.euskadi.eus/webkpe00-kperoc/es/ac71aBusquedaRegistrosWar/empresa/02502",
      "_links": {
        "self": {
          "name": "GRÁFICAS VICUÑA, S.L.",
          "href": "https://api.euskadi.eus/procurements/companies/02502"
        }
      }
    },
    {
      "name": "STE CONSULTING, S.A.",
      "registrationNumber": "02497",
      "identificationNumber": "A60101656",
      "address": "C/ CUENCA, 6-8",
      "location": {
        "postalCode": "08980",
        "municipality": "Sant Feliu de Llobregat",
        "county": "Barcelona",
        "municipalityId": "211",
        "countyId": "08"
      },
      "economicActivities": [
        {
          "id": "1.845",
          "name": "Explotación electrónica por cuenta de terceros",
          "_links": {
            "self": {
              "name": "Explotación electrónica por cuenta de terceros",
              "href": "https://api.euskadi.eus/procurements/companies/economic-activities/1.845"
            }
          }
        }
      ],
      "certificateStartDate": "2002-01-29",
      "certificateEndDate": "2002-06-18",
      "object": "LA CONSULTORÍA Y AUDITORÍA DE PROGRAMAS DE SOFTWARE DE INFORMÁTICA, LA COMERCIALIZACIÓN Y VENTA DE LOS MISMOS, YA SEA DE CONFECCIÓN PROPIA, BIEN ACTUANDO COMO DISTRIBUIDOR, REVENDEDOR O AGENTE DE TERCEROS, LA COMPRAVENTA DE EQUIPOS INFORMÁTICOS DE PROCESO DE DATOS, EL ASESORAMIENTO SOBRE TEMAS INFORMÁTICOS ",
      "mainEntityOfPage": "https://www.contratacion.euskadi.eus/webkpe00-kperoc/es/ac71aBusquedaRegistrosWar/empresa/02497",
      "_links": {
        "self": {
          "name": "STE CONSULTING, S.A.",
          "href": "https://api.euskadi.eus/procurements/companies/02497"
        }
      }
    },
    {
      "name": "CENTRO DE TRATAMIENTO DE INFORMACIÓN, S.A.",
      "registrationNumber": "01913",
      "identificationNumber": "A08242315",
      "address": "C/ CÓRCEGA, Nº 373.",
      "location": {
        "postalCode": "08037",
        "municipality": "Barcelona",
        "county": "Barcelona",
        "municipalityId": "019",
        "countyId": "08"
      },
      "economicActivities": [
        {
          "id": "1.617.8",
          "name": "Venta al por mayor de máquinas y material de oficina",
          "_links": {
            "self": {
              "name": "Venta al por mayor de máquinas y material de oficina",
              "href": "https://api.euskadi.eus/procurements/companies/economic-activities/1.617.8"
            }
          }
        },
        {
          "id": "1.845",
          "name": "Explotación electrónica por cuenta de terceros",
          "_links": {
            "self": {
              "name": "Explotación electrónica por cuenta de terceros",
              "href": "https://api.euskadi.eus/procurements/companies/economic-activities/1.845"
            }
          }
        }
      ],
      "certificateStartDate": "2002-01-25",
      "certificateEndDate": "2002-03-13",
      "object": "EL DOMINIO DE LAS TECNOLOGÍAS DE LA INFORMACIÓN TANTO EN LO REFERENTE A LA INFORMACIÓN ESTRUCTURADA Y FACTUAL, COMO EN LA INFORMACIÓN NO ESTRUCTURADA, UTILIZANDO LAS TECNOLOGÍAS ACTUALES O FUTURAS APLICADAS A DICHO ÁMBITO PARA:\r\n\r\n- LA INVESTIGACIÓN, DISEÑO, ANÁLISIS, PROGRAMACIÓN, ASESORAMIENTO, FORMACIÓN, EXPLOTACIÓN DE SISTEMAS, DISTRIBUCIÓN Y CUALQUIER PRESTACIÓN DE SERVICIOS INTELECTUALES Y COMERCIALES EN EL CAMPO DE LA INFORMÁTICA PARA EL TRATAMIENTO DE LA INFORMACIÓN, O EN EL CAMPO DE LAS COMUNICACIONES PARA HACER DISPONIBLE LA INFORMACIÓN EN EL TIEMPO Y EL LUGAR QUE SEA NECESARIO.\r\n\r\n- LA GESTIÓN, EN LUGAR Y EN NOMBRE DE UNA EMPRESA, DE SU PARQUE INFORMÁTICO Y DE COMUNICACIONES, EN EL PLANO MATERIAL Y HUMANO",
      "mainEntityOfPage": "https://www.contratacion.euskadi.eus/webkpe00-kperoc/es/ac71aBusquedaRegistrosWar/empresa/01913",
      "_links": {
        "self": {
          "name": "CENTRO DE TRATAMIENTO DE INFORMACIÓN, S.A.",
          "href": "https://api.euskadi.eus/procurements/companies/01913"
        }
      }
    },
    {
      "name": "GF SEIS MEDIA, S.L.",
      "registrationNumber": "02493",
      "identificationNumber": "B95111803",
      "address": "C/ MÁXIMO AGUIRRE, 18-BIS",
      "location": {
        "postalCode": "48011",
        "municipality": "Bilbao",
        "county": "Bizkaia",
        "municipalityId": "020",
        "countyId": "48"
      },
      "economicActivities": [
        {
          "id": "1.845",
          "name": "Explotación electrónica por cuenta de terceros",
          "_links": {
            "self": {
              "name": "Explotación electrónica por cuenta de terceros",
              "href": "https://api.euskadi.eus/procurements/companies/economic-activities/1.845"
            }
          }
        }
      ],
      "certificateStartDate": "2002-01-23",
      "certificateEndDate": "2002-07-07",
      "object": "LA PRESTACIÓN DE TODO TIPO DE SERVICIOS INFORMÁTICOS, MULTIMEDIA Y DE FORMACIÓN QUE RECOJAN EL ESTUDIO Y ANÁLISIS DE PROCESOS, PROGRAMACIÓN, CONSULTORÍA Y ASISTENCIA TÉCNICA, TANTO POR CUENTA PROPIA COMO DE TERCEROS, ASÍ COMO LA COMPRA, VENTA Y SUMINISTROS DE TODO TIPO DE MATERIAL INFORMÁTICO, ELÉCTRICO Y ELECTRÓNICO; LA PRESTACIÓN DE SERVICIOS CONEXOS A LA INDUSTRIA.",
      "mainEntityOfPage": "https://www.contratacion.euskadi.eus/webkpe00-kperoc/es/ac71aBusquedaRegistrosWar/empresa/02493",
      "_links": {
        "self": {
          "name": "GF SEIS MEDIA, S.L.",
          "href": "https://api.euskadi.eus/procurements/companies/02493"
        }
      }
    },
    {
      "name": "CORMÉDICA, S.A.",
      "registrationNumber": "00575",
      "identificationNumber": "A58218793",
      "address": "C/ JUAN SEBASTIÁN BACH, Nº 12.",
      "location": {
        "postalCode": "08021",
        "municipality": "Barcelona",
        "county": "Barcelona",
        "municipalityId": "019",
        "countyId": "08"
      },
      "economicActivities": [
        {
          "id": "1.619.2",
          "name": "Venta al por mayor de aparatos e instrumentos médicos, ortopédicos, ópticos",
          "_links": {
            "self": {
              "name": "Venta al por mayor de aparatos e instrumentos médicos, ortopédicos, ópticos",
              "href": "https://api.euskadi.eus/procurements/companies/economic-activities/1.619.2"
            }
          }
        }
      ],
      "certificateStartDate": "2002-01-18",
      "certificateEndDate": "2001-11-16",
      "object": "LA COMPRAVENTA, FABRICACIÓN, IMPORTACIÓN, EXPORTACIÓN, COMERCIALIZACIÓN, VENTA Y DISTRIBUCIÓN DE PRODUCTOS DE USO Y CONSUMO HOSPITALARIO, ASÍ COMO LA PRESTACIÓN DE SERVICIOS HOSPITALARIOS Y OTROS SERVICIOS Y PRODUCTOS DESTINADOS A LA SALUD PÚBLICA, OTORGANDO Y RECIBIENDO LICENCIAS SOBRE LOS MISMOS Y PUDIENDOSE DEDICAR ADEMAS A CUALQUIER OTRA ACTIVIDAD DIRECTA O INDIRECTAMENTE RELACIONADA CON LAS ANTERIORES",
      "mainEntityOfPage": "https://www.contratacion.euskadi.eus/webkpe00-kperoc/es/ac71aBusquedaRegistrosWar/empresa/00575",
      "_links": {
        "self": {
          "name": "CORMÉDICA, S.A.",
          "href": "https://api.euskadi.eus/procurements/companies/00575"
        }
      }
    },
    {
      "name": "BIOMAG, S.L.",
      "registrationNumber": "02339",
      "identificationNumber": "B01037241",
      "address": "C/ RAFAEL ALBERTI, 24",
      "location": {
        "postalCode": "01008",
        "municipality": "Vitoria-Gasteiz",
        "county": "Araba/Álava",
        "municipalityId": "059",
        "countyId": "01"
      },
      "economicActivities": [
        {
          "id": "1.617.8",
          "name": "Venta al por mayor de máquinas y material de oficina",
          "_links": {
            "self": {
              "name": "Venta al por mayor de máquinas y material de oficina",
              "href": "https://api.euskadi.eus/procurements/companies/economic-activities/1.617.8"
            }
          }
        }
      ],
      "certificateStartDate": "2002-01-15",
      "certificateEndDate": "2002-07-11",
      "object": "LA COMERCIALIZACIÓN DE EQUIPOS INFORMÁTICOS, ELECTRÓNICOS Y DE TELECOMUNICACIONES. LA PRESTACIÓN DE SERVICIOS INFORMÁTICOS DE MANTENIMENTO Y REPARACIÓN E INSTALACIÓN; LA FABRICACIÓN E INSTALACIÓN DE REDES Y EQUIPOS INFORMÁTICOS  Y LA ENSEÑANZA DE INFORMÁTICA Y OFIMÁTICA.  ",
      "mainEntityOfPage": "https://www.contratacion.euskadi.eus/webkpe00-kperoc/es/ac71aBusquedaRegistrosWar/empresa/02339",
      "_links": {
        "self": {
          "name": "BIOMAG, S.L.",
          "href": "https://api.euskadi.eus/procurements/companies/02339"
        }
      }
    },
    {
      "name": "ALMIKE PROMOCIÓN Y GESTIÓN INMOBILIARIA, S.L.",
      "registrationNumber": "02489",
      "identificationNumber": "B95122636",
      "address": "LEHENDAKARI AGIRRE, 11 - 1º DPTO. 10",
      "location": {
        "postalCode": "48014",
        "municipality": "Bilbao",
        "county": "Bizkaia",
        "municipalityId": "020",
        "countyId": "48"
      },
      "economicActivities": [
        {
          "id": "1.501.1",
          "name": "Construcción completa, reparación y conservación de edificaciones",
          "_links": {
            "self": {
              "name": "Construcción completa, reparación y conservación de edificaciones",
              "href": "https://api.euskadi.eus/procurements/companies/economic-activities/1.501.1"
            }
          }
        }
      ],
      "certificateStartDate": "2002-01-15",
      "certificateEndDate": "2002-05-02",
      "object": "LA COMPRA, VENTA, ALQUILER Y GESTIÓN DE TERRENOS URBANIZADOS O NO,  FINCAS RÚSTICAS   Y URBANAS E INMUEBLES DESTINADOS A CUALQUIER FÍN LÍCITO.\r\nLA PROMOCIÓN, CONSTRUCCIÓN  Y EJECUCIÓN DE TODA CLASE DE PROYECTOS Y OBRAS DE INGENIERÍA. \r\nLA REALIZACIÓN DE TODA CLASE DE OBRAS DE CONSTRUCCIÓN, CONSERVACIÓN, MANTENIMIENTO, PRIMER ESTABLECIMIENTO, REFORMAS MENORES Y SERVICIOS COMPLEMENTARIOS.\r\nLA EJECUCIÓN DE TODA CLASE DE OBRAS DE REFORMA, AMPLIACIÓN, MEJORA, ADAPTACIÓN, ADECUACIÓN O REFUERZO DE UN INMUEBLE YA EXISTENTE.\r\nLA REALIZACIÓN DE TODA CLASE DE OBRAS QUE MODIFIQUEN LA FORMA O SUSTANCIA DEL TERRENO Y/O SUBSUELO, TALES COMO DRAGADOS, SONDEOS, PROSPECCIONES, INYECCIONES Y DEMÁS OPERACIONES ANÁLOGAS.\r\nDE TODO TIPO DE SUMINISTROS DE BIENES HOMOLOGADOS O NO.\r\nLAS ACTIVIDADES  INTEGRANTES DEL OBJETO SOCIAL PODRÁN SER DESARROLLADAS POR LA SOCIEDAD D EMODO INDIRECTO, MEDIANTE SU PARTICIPACIÓN EN SOCIEDADES O ENTIDADES CON DISTINTA PERSONALIDAD JURÍDICA.\r\nLA SOCIEDAD NO DESARROLLARÁ NINGUNA ACTIVIDAD PARA LA QUE LAS LEYES EXIJAN CONDICIONES O LIMITACIONES ESPECÍFICAS, EN TANTO NO DÉ EXACTO CUMPLIMIENTO A LAS MISMAS.  ",
      "mainEntityOfPage": "https://www.contratacion.euskadi.eus/webkpe00-kperoc/es/ac71aBusquedaRegistrosWar/empresa/02489",
      "_links": {
        "self": {
          "name": "ALMIKE PROMOCIÓN Y GESTIÓN INMOBILIARIA, S.L.",
          "href": "https://api.euskadi.eus/procurements/companies/02489"
        }
      }
    },
    {
      "name": "CENTRO DE ESTUDIOS TÉCNICOS, S.L.",
      "registrationNumber": "01278",
      "identificationNumber": "B48062194",
      "address": "C/ GENERAL CONCHA, Nº 25 - 1º y 2º.",
      "location": {
        "postalCode": "48010",
        "municipality": "Bilbao",
        "county": "Bizkaia",
        "municipalityId": "020",
        "countyId": "48"
      },
      "economicActivities": [
        {
          "id": "1.845",
          "name": "Explotación electrónica por cuenta de terceros",
          "_links": {
            "self": {
              "name": "Explotación electrónica por cuenta de terceros",
              "href": "https://api.euskadi.eus/procurements/companies/economic-activities/1.845"
            }
          }
        },
        {
          "id": "1.932.1",
          "name": "Enseñanza de formación y perfeccionamiento profesional no superior",
          "_links": {
            "self": {
              "name": "Enseñanza de formación y perfeccionamiento profesional no superior",
              "href": "https://api.euskadi.eus/procurements/companies/economic-activities/1.932.1"
            }
          }
        }
      ],
      "certificateStartDate": "2002-01-08",
      "certificateEndDate": "2002-07-07",
      "object": "LA ENSEÑANZA EN TODOS LOS NIVELES Y GRADOS DEL SISTEMA EDUCATIVO, LA ENSEÑANZA DE IDIOMAS, LA FORMACIÓN O EL RECICLAJE PROFESIONAL, ENSEÑANZA DE GRABACIÓN, ETC., ESTUDIO, APLICACIONES, INVESTIGACIÓN, PROMOCIÓN Y ASESORAMIENTO EN TODA CLASE DE SERVICIOS DE ASISTENCIA EMPRESARIAL Y GESTIÓN TÉCNICA, ADMINISTRATIVA, COMERCIAL, CONTABLE, FISCAL, INFORMÁTICA O DE CUALQUIER OTRA ÍNDOLE. SERVICIOS DE INFORMÁTICA, ANÁLISIS, PROGRAMACIÓN, INSTALACIÓN DE APLICACIONES INFORMÁTICAS, SERVICIOS DE EXPLOTACIÓN DE DATOS PARA TERCEROS, CAPTURA DE DATOS, GRABACIÓN-VERIFICACIÓN Y TODAS LAS ACTIVIDADES QUE SE DERIVEN DE LA ESPECIALIDAD INFORMÁTICA. LA PROMOCIÓN, EJECUCIÓN Y EXPLOTACIÓN DE NEGOCIOS DE PRESTACIÓN DE SERVICIOS Y SUMINISTROS PÚBLICOS Y PRIVADOS. REALIZACIÓN DE TODA CLASE DE TRABAJOS DE CATASTRO, CARTOGRAFÍA, IMPUESTOS, CONTRIBUCIONES, ARBITRIOS, TASAS DE TODAS CLASES, TANTO PROVINCIALES COMO MUNICIPALES, DEL ESTADO, ÓRGANOS DE LA ADMINISTRACIÓN AUTÓNOMA Y DE LA PROPIA ADMINISTRACIÓN AUTONÓMICA O DEPENDIENTES DE LA DIPUTACIÓN FORAL O DE LA PROPIA DIPUTACIÓN FORAL. TOPOGRAFÍA, DISEÑO GRÁFICO Y DIGITALIZACIÓN CARTOGRÁFICA, CON MEDIOS MECÁNICOS O MANUALES. LA INSTALACIÓN Y EXPLOTACIÓN EN CUALQUIER FORMA DE ALMACENES, ESTABLECIMIENTOS, NEGOCIOS Y COMERCIOS DEDICADOS AL DEPÓSITO, MEDIACIÓN EN CUALQUIER FORMA O VENTA, AL POR MAYOR Y MENOR, ALQUILER Y CONTRATOS DE MANTENIMIENTO, DE MERCADERÍAS, PRODUCTOS, ARTÍCULOS Y MATERIAS DE CUALQUIER CLASE, ESPECIALMENTE LAS RELACIONADAS CON LOS MEDIOS INFORMÁTICOS, SERVICIOS FOTOGRAFICOS Y DE REPRODUCCIÓN POR CUALQUIER MEDIO. EL COMERCIO EN GENERAL, YA RECAIGA SOBRE BIENES MUEBLES O INMUEBLES, O DERECHOS, YA SEA EJERCICIO BAJO LA FORMA DE COMPRA, VENTA, COMISIÓN, MEDIACIÓN, REPRESENTACIÓN O CUALQUIER OTRA FORMA JURÍDICA. LA ADQUISICIÓN DE PATENTES, LICENCIAS Y AUTORIZACIONES, ASÍ COMO LA INVESTIGACIÓN Y DESARROLLO DE NUEVOS PROCEDIMIENTOS Y TÉCNICAS DE FABRICACIÓN, LA EXPLOTACIÓN DE LOS CONOCIMIENTOS Y DERECHOS DE PROPIEDAD INDUSTRIAL O INTELECTUAL ADQUIRIDOS DE ESTE MODO Y LA CONCESIÓN DE AUTORIZACIONES Y LICENCIAS PARA SU USO POR TERCEROS. LA CONSTITUCIÓN, EN CONCURRENCIA CON OTRAS PERSONAS, DE TODA CLASE DE SOCIEDADES MERCANTILES O CIVILES Y LA PARTICIPACIÓN EN OTRAS YA CONSTITUIDAS, CUALQUIERA QUE SEA LA FORMA QUE ADOPTE LA PARTICIPACIÓN. CUALQUIER OTRA ACTIVIDAD QUE SEA OBJETO DE LÍCITO COMERCIO Y QUE SE ACUERDE POR LA JUNTA DE SOCIOS",
      "mainEntityOfPage": "https://www.contratacion.euskadi.eus/webkpe00-kperoc/es/ac71aBusquedaRegistrosWar/empresa/01278",
      "_links": {
        "self": {
          "name": "CENTRO DE ESTUDIOS TÉCNICOS, S.L.",
          "href": "https://api.euskadi.eus/procurements/companies/01278"
        }
      }
    }
  ]
}