{
  "totalItems": 9042,
  "totalPages": 905,
  "currentPage": 676,
  "itemsOfPage": 10,
  "items": [
    {
      "name": "INICIACIÓN PROFESIONAL Y RECICLAJE, S.L.",
      "registrationNumber": "01836",
      "identificationNumber": "B01051408",
      "address": "C/ BASALDEA, 25 (POL. IND. JUNDIZ)",
      "location": {
        "postalCode": "01195",
        "municipality": "Vitoria-Gasteiz",
        "county": "Araba/Álava",
        "municipalityId": "059",
        "countyId": "01"
      },
      "economicActivities": [
        {
          "id": "1.691.2",
          "name": "Reparación de vehículos automóviles, bicicletas y otros vehículos",
          "_links": {
            "self": {
              "name": "Reparación de vehículos automóviles, bicicletas y otros vehículos",
              "href": "https://api.euskadi.eus/procurements/companies/economic-activities/1.691.2"
            }
          }
        },
        {
          "id": "1.932.1",
          "name": "Enseñanza de formación y perfeccionamiento profesional no superior",
          "_links": {
            "self": {
              "name": "Enseñanza de formación y perfeccionamiento profesional no superior",
              "href": "https://api.euskadi.eus/procurements/companies/economic-activities/1.932.1"
            }
          }
        }
      ],
      "certificateStartDate": "2013-11-26",
      "certificateEndDate": "2014-05-21",
      "object": "LA FORMACIÓN PROFESIONAL, RECICLAJE, PROMOCIÓN, PREPARACIÓN E IMPARTICIÓN DE TODO TIPO DE ENSEÑANZAS, TEÓRICAS Y PRÁCTICAS",
      "mainEntityOfPage": "https://www.contratacion.euskadi.eus/webkpe00-kperoc/es/ac71aBusquedaRegistrosWar/empresa/01836",
      "_links": {
        "self": {
          "name": "INICIACIÓN PROFESIONAL Y RECICLAJE, S.L.",
          "href": "https://api.euskadi.eus/procurements/companies/01836"
        }
      }
    },
    {
      "name": "EQUIPOS MECANIZADOS, S.L.",
      "registrationNumber": "04852",
      "identificationNumber": "B26026377",
      "address": "Saturnino Ulargui, 7",
      "location": {
        "postalCode": "26001",
        "municipality": "Logroño",
        "county": "Rioja, La",
        "municipalityId": "089",
        "countyId": "26"
      },
      "economicActivities": [
        {
          "id": "1.659.2",
          "name": "Venta al por menor de muebles de oficina y máquinas y equipos de oficina",
          "_links": {
            "self": {
              "name": "Venta al por menor de muebles de oficina y máquinas y equipos de oficina",
              "href": "https://api.euskadi.eus/procurements/companies/economic-activities/1.659.2"
            }
          }
        },
        {
          "id": "1.691.9",
          "name": "Reparación de otros bienes de consumo n.c.o.p",
          "_links": {
            "self": {
              "name": "Reparación de otros bienes de consumo n.c.o.p",
              "href": "https://api.euskadi.eus/procurements/companies/economic-activities/1.691.9"
            }
          }
        }
      ],
      "certificateStartDate": "2013-11-18",
      "certificateEndDate": "2014-05-18",
      "object": "LA COMPRAVENTA, REPARACIÓN E IMPORTACIÓN DE TODO TIPO DE MÁQUINAS, INSTRUMENTOS Y EQUIPOS DE OFICINA Y SIMILARES",
      "mainEntityOfPage": "https://www.contratacion.euskadi.eus/webkpe00-kperoc/es/ac71aBusquedaRegistrosWar/empresa/04852",
      "_links": {
        "self": {
          "name": "EQUIPOS MECANIZADOS, S.L.",
          "href": "https://api.euskadi.eus/procurements/companies/04852"
        }
      }
    },
    {
      "name": "CORREDURÍA DE SEGUROS COASE, S.L.",
      "registrationNumber": "05093",
      "identificationNumber": "B01046176",
      "address": "AVDA. GASTEIZ, 33 - 1º D",
      "location": {
        "postalCode": "01008",
        "municipality": "Vitoria-Gasteiz",
        "county": "Araba/Álava",
        "municipalityId": "059",
        "countyId": "01"
      },
      "economicActivities": [
        {
          "id": "1.832.1",
          "name": "Agencias de seguros y corredurías de seguros",
          "_links": {
            "self": {
              "name": "Agencias de seguros y corredurías de seguros",
              "href": "https://api.euskadi.eus/procurements/companies/economic-activities/1.832.1"
            }
          }
        }
      ],
      "certificateStartDate": "2013-11-18",
      "certificateEndDate": "2014-04-16",
      "object": "LA REALIZACIÓN DE ACTIVIDADES DE CORREDURÍA DE SEGUROS, ASÍ COMO LA PRODUCCIÓN DE SEGUROS PRIVADOS COMO ACTIVIDAD MERCANTIL DE PROMOCIÓN, MEDIACIÓN Y ASESORAMIENTO PREPARATORIO DE LA FORMALIZACIÓN DE CONTRATOS DE SEGUROS PRIVADOS ENTRE PERSONAS FÍSICAS O JURÍDICAS Y ENTIDADES ASEGURADORAS LEGALMENTE AUTORIZADAS O ÉSTAS ENTRE SI, COMPRENDIENDO TALES ACTIVIDADES LA POSTERIOR ASISTENCIA AL TOMADOR DEL SEGURO Y AL ASEGURADO O AL BENEFICIARIO CONFORME DETERMINA EL ARTÍCULO 2º DE LA LEY DE MEDIACIÓN EN SEGUROS PRIVADOS DE 30 DE ABRIL DE 1992. QUEDA EXPRESAMENTE SOMETIDA A LA LEGISLACIÓN ESPECÍFICA DE MEDIACIÓN EN SEGUROS PRIVADOS",
      "mainEntityOfPage": "https://www.contratacion.euskadi.eus/webkpe00-kperoc/es/ac71aBusquedaRegistrosWar/empresa/05093",
      "_links": {
        "self": {
          "name": "CORREDURÍA DE SEGUROS COASE, S.L.",
          "href": "https://api.euskadi.eus/procurements/companies/05093"
        }
      }
    },
    {
      "name": "SODA NEW TV S.L.",
      "registrationNumber": "04820",
      "identificationNumber": "B95513313",
      "address": "C/ Costa nº 12",
      "location": {
        "postalCode": "48010",
        "municipality": "Bilbao",
        "county": "Bizkaia",
        "municipalityId": "020",
        "countyId": "48"
      },
      "economicActivities": [
        {
          "id": "1.844",
          "name": "Servicios de publicidad, relaciones públicas y similares",
          "_links": {
            "self": {
              "name": "Servicios de publicidad, relaciones públicas y similares",
              "href": "https://api.euskadi.eus/procurements/companies/economic-activities/1.844"
            }
          }
        },
        {
          "id": "1.961.1",
          "name": "Producción de películas cinematográficas (incluso vídeos)",
          "_links": {
            "self": {
              "name": "Producción de películas cinematográficas (incluso vídeos)",
              "href": "https://api.euskadi.eus/procurements/companies/economic-activities/1.961.1"
            }
          }
        }
      ],
      "certificateStartDate": "2013-11-13",
      "certificateEndDate": "2014-04-08",
      "object": "LA PRESTACIÓN, GESTIÓN, COMERCIALIZACIÓN Y REALIZACIÓN DE TODA CLASE DE ACTIVIDADES Y SERVICIOS RELACIONADOS CON LA PRODUCCIÓN DE AUDIOVISUALES, COMUNICACIÓN, PUBLICIDAD, RELACIONES PÚBLICAS, MARKETING E IMAGEN. LA PRESTACIÓN, INTERMEDIACIÓN Y COMERCIALIZACIÓN DE TODA CLASE DE SERVICIOS DE FILMACIÓN, REPRODUCCIÓN, GRABACIÓN Y DOBLAJE DE IMÁGENES Y SONIDOS, INCLUIDA SU DISTRIBUCIÓN Y EXHIBICIÓN PÚBLICA. LA EXPLOTACIÓN DE TODA CLASE DE NEGOCIOS DE ESPECTÁCULOS",
      "mainEntityOfPage": "https://www.contratacion.euskadi.eus/webkpe00-kperoc/es/ac71aBusquedaRegistrosWar/empresa/04820",
      "_links": {
        "self": {
          "name": "SODA NEW TV S.L.",
          "href": "https://api.euskadi.eus/procurements/companies/04820"
        }
      }
    },
    {
      "name": "EDATALIA DATA SOLUTIONS,  S.L.",
      "registrationNumber": "05091",
      "identificationNumber": "B20935532",
      "address": "Manuel Vazquez de Montalban 12",
      "location": {
        "postalCode": "20018",
        "municipality": "Donostia / San Sebastián",
        "county": "Gipuzkoa",
        "municipalityId": "069",
        "countyId": "20"
      },
      "economicActivities": [
        {
          "id": "1.653.2",
          "name": "Venta al por menor de material y aparatos eléctricos, electrodomésticos y cocina",
          "_links": {
            "self": {
              "name": "Venta al por menor de material y aparatos eléctricos, electrodomésticos y cocina",
              "href": "https://api.euskadi.eus/procurements/companies/economic-activities/1.653.2"
            }
          }
        },
        {
          "id": "1.845",
          "name": "Explotación electrónica por cuenta de terceros",
          "_links": {
            "self": {
              "name": "Explotación electrónica por cuenta de terceros",
              "href": "https://api.euskadi.eus/procurements/companies/economic-activities/1.845"
            }
          }
        },
        {
          "id": "1.932.2",
          "name": "Enseñanza de formación y perfeccionamiento profesional superior",
          "_links": {
            "self": {
              "name": "Enseñanza de formación y perfeccionamiento profesional superior",
              "href": "https://api.euskadi.eus/procurements/companies/economic-activities/1.932.2"
            }
          }
        }
      ],
      "certificateStartDate": "2013-11-12",
      "certificateEndDate": "2014-04-10",
      "object": "LA COMERCIALIZACIÓN DE PROGRAMAS INFORMÁTICOS. SERVICIOS DE CONSULTORÍA Y ASESORAMIENTO SOBRE NUEVAS TECNOLOGÍAS. FORMACIÓN PARA PROFESIONALES, OUTSOURCING DE SERVICIOS TECNOLÓGICOS. DISEÑO Y PUESTA EN MARCHA DE PROYECTOS RELACIONADOS CON LAS NUEVAS TECNOLOGÍAS",
      "mainEntityOfPage": "https://www.contratacion.euskadi.eus/webkpe00-kperoc/es/ac71aBusquedaRegistrosWar/empresa/05091",
      "_links": {
        "self": {
          "name": "EDATALIA DATA SOLUTIONS,  S.L.",
          "href": "https://api.euskadi.eus/procurements/companies/05091"
        }
      }
    },
    {
      "name": "MEDIA FOR FUTURE, S.L.",
      "registrationNumber": "05092",
      "identificationNumber": "B95537452",
      "address": "Capuchinos de Basurto Nº 2 ",
      "location": {
        "postalCode": "48013",
        "municipality": "Bilbao",
        "county": "Bizkaia",
        "municipalityId": "020",
        "countyId": "48"
      },
      "economicActivities": [
        {
          "id": "1.849.9",
          "name": "Otros servicios independientes n.c.o.p",
          "_links": {
            "self": {
              "name": "Otros servicios independientes n.c.o.p",
              "href": "https://api.euskadi.eus/procurements/companies/economic-activities/1.849.9"
            }
          }
        }
      ],
      "certificateStartDate": "2013-11-12",
      "certificateEndDate": "2014-04-23",
      "object": "A.- LA PRESTACIÓN DE SERVICIOS DE COMUNICACIÓN PARA NUEVOS SOPORTES, TALES COMO INTERNET, TELEVISIÓN CORPORATIVA, WEB TELEVISIÓN U OTROS QUE PUEDAN SURGIR EN EL FUTURO. B.- EL DESARROLLO, DISEÑO Y MANTENIMIENTO DE CANALES DE COMUNICACIÓN Y LA PRODUCCIÓN DE CONTENIDOS MULTIMEDIA. C.- LA PRESTACIÓN DE SERVICIOS DE SELECCIÓN Y GESTIÓN DE RECURSOS HUMANOS. D.- LA PRESTACIÓN DE SERVICIOS DE ASESORAMIENTO, CONSEJO O DIRECCIÓN DE PLANES, PROYECTOS O ESTUDIOS EN EL ÁMBITO DE LA COMUNICACIÓN",
      "mainEntityOfPage": "https://www.contratacion.euskadi.eus/webkpe00-kperoc/es/ac71aBusquedaRegistrosWar/empresa/05092",
      "_links": {
        "self": {
          "name": "MEDIA FOR FUTURE, S.L.",
          "href": "https://api.euskadi.eus/procurements/companies/05092"
        }
      }
    },
    {
      "name": "ALGODONES DEL BAGES, S.A.",
      "registrationNumber": "04990",
      "identificationNumber": "A08723926",
      "address": "C/ FREDERIC MOMPOU, S/N",
      "location": {
        "postalCode": "08295",
        "municipality": "Sant Vicenç de Castellet",
        "county": "Barcelona",
        "municipalityId": "262",
        "countyId": "08"
      },
      "economicActivities": [
        {
          "id": "1.254.2",
          "name": "Fabricación de especialidades y otros productos farmacéuticos",
          "_links": {
            "self": {
              "name": "Fabricación de especialidades y otros productos farmacéuticos",
              "href": "https://api.euskadi.eus/procurements/companies/economic-activities/1.254.2"
            }
          }
        },
        {
          "id": "1.495.9",
          "name": "Fabricación de otros artículos n.c.o.p",
          "_links": {
            "self": {
              "name": "Fabricación de otros artículos n.c.o.p",
              "href": "https://api.euskadi.eus/procurements/companies/economic-activities/1.495.9"
            }
          }
        },
        {
          "id": "1.614.1",
          "name": "Venta al por mayor de productos farmacéuticos y medicamentos",
          "_links": {
            "self": {
              "name": "Venta al por mayor de productos farmacéuticos y medicamentos",
              "href": "https://api.euskadi.eus/procurements/companies/economic-activities/1.614.1"
            }
          }
        },
        {
          "id": "1.614.2",
          "name": "Venta al por mayor de productos de perfumería, droguería, higiene y belleza",
          "_links": {
            "self": {
              "name": "Venta al por mayor de productos de perfumería, droguería, higiene y belleza",
              "href": "https://api.euskadi.eus/procurements/companies/economic-activities/1.614.2"
            }
          }
        }
      ],
      "certificateStartDate": "2013-11-07",
      "certificateEndDate": "2014-03-23",
      "object": "LA ELABORACIÓN, FABRICACIÓN, COMPRA-VENTA AL MAYOR Y DETALL, COMERCIALIZACIÓN Y DISTRIBUCIÓN DE ALGODONOES, GASAS, HIDRÓFILOS Y SUS DERIVADOS Y CUANTAS OTRAS SEAN ANTECEDENTES O COMPLEMENTO DE LAS INDICADAS Y, EN GENERAL, CUALQUIER OTRA ACTIVIDAD DE LÍCITO COMERCIO O INDUSTRIAL, PREVIO ACUERDO DE LA JUNTA, DEBIDAMENTE INSCRITO EN EL REGISTRO MERCANTIL",
      "mainEntityOfPage": "https://www.contratacion.euskadi.eus/webkpe00-kperoc/es/ac71aBusquedaRegistrosWar/empresa/04990",
      "_links": {
        "self": {
          "name": "ALGODONES DEL BAGES, S.A.",
          "href": "https://api.euskadi.eus/procurements/companies/04990"
        }
      }
    },
    {
      "name": "BECKMAN COULTER ESPAÑA, S.A.",
      "registrationNumber": "00538",
      "identificationNumber": "A28726875",
      "address": "AVDA. LLANO CASTELLANO, Nº 15 - 1º",
      "location": {
        "postalCode": "28034",
        "municipality": "Madrid",
        "county": "Madrid",
        "municipalityId": "079",
        "countyId": "28"
      },
      "economicActivities": [
        {
          "id": "1.619.7",
          "name": "Venta al por mayor de instrumentos de precisión, medida y similares",
          "_links": {
            "self": {
              "name": "Venta al por mayor de instrumentos de precisión, medida y similares",
              "href": "https://api.euskadi.eus/procurements/companies/economic-activities/1.619.7"
            }
          }
        },
        {
          "id": "1.699",
          "name": "Otras reparaciones n.c.o.p",
          "_links": {
            "self": {
              "name": "Otras reparaciones n.c.o.p",
              "href": "https://api.euskadi.eus/procurements/companies/economic-activities/1.699"
            }
          }
        },
        {
          "id": "1.859",
          "name": "Alquiler de otros bienes muebles n.c.o.p. (sin personal permanente)",
          "_links": {
            "self": {
              "name": "Alquiler de otros bienes muebles n.c.o.p. (sin personal permanente)",
              "href": "https://api.euskadi.eus/procurements/companies/economic-activities/1.859"
            }
          }
        }
      ],
      "certificateStartDate": "2013-11-06",
      "certificateEndDate": "1999-11-26",
      "object": "LA IMPORTACIÓN, EXPORTACIÓN, ALQUILER, VENTA Y COMERCIALIZACIÓN BAJO CUALQUIER FÓRMULA JURÍDICA DE PRODUCTOS, INSTRUMENTOS Y APARATOS FABRICADOS POR LAS EMPRESAS DEL GRUPO BECKMAN, ASÍ COMO LA PRESTACIÓN DE SERVICIOS Y ASISTENCIA",
      "mainEntityOfPage": "https://www.contratacion.euskadi.eus/webkpe00-kperoc/es/ac71aBusquedaRegistrosWar/empresa/00538",
      "_links": {
        "self": {
          "name": "BECKMAN COULTER ESPAÑA, S.A.",
          "href": "https://api.euskadi.eus/procurements/companies/00538"
        }
      }
    },
    {
      "name": "DC CONSTRUCCIÓN, INGENIERÍA Y GESTIÓN DE OBRAS, S.A.",
      "registrationNumber": "02060",
      "identificationNumber": "A20040580",
      "address": "C/ Portuetxe, nº 57-3º D",
      "location": {
        "postalCode": "20018",
        "municipality": "Donostia / San Sebastián",
        "county": "Gipuzkoa",
        "municipalityId": "069",
        "countyId": "20"
      },
      "economicActivities": [
        {
          "id": "1.501.1",
          "name": "Construcción completa, reparación y conservación de edificaciones",
          "_links": {
            "self": {
              "name": "Construcción completa, reparación y conservación de edificaciones",
              "href": "https://api.euskadi.eus/procurements/companies/economic-activities/1.501.1"
            }
          }
        },
        {
          "id": "1.501.2",
          "name": "Construcción completa, reparación y conservación obras civiles",
          "_links": {
            "self": {
              "name": "Construcción completa, reparación y conservación obras civiles",
              "href": "https://api.euskadi.eus/procurements/companies/economic-activities/1.501.2"
            }
          }
        }
      ],
      "certificateStartDate": "2013-11-06",
      "certificateEndDate": "2014-05-04",
      "object": "LA CONSTRUCCIÓN Y VENTA DE VIVIENDAS Y LOCALES COMERCIALES, PABELLONES INDUSTRIALES, GARAJES; OBRAS PÚBLICAS; ADQUISICIÓN Y VENTA DE TERRENOS; MOVIMIENTOS DE TIERRA Y PERFORACIONES; PUENTES, VIADUCTOS Y GRANDES ESTRUCTURAS; FERROCARRILES; OBRAS HIDRÁULICAS; OBRAS Y CONSTRUCCIONES MARÍTIMAS; VIALES Y PISTAS; TRANSPORTE DE PRODUCTOS FLUIDOS Y GASEOSOS; INSTALACIONES ELÉCTRICAS Y COMUNICACIONES, INSTALACIONES MECÁNICAS; CIMENTACIONES ESPECIALES; SONDEOS, INYECCIONES Y PILOTAJES; TABLESCADOS; PINTURAS Y METALIZACIONES; ORNAMENTOS Y DECORACIONES; JARDINERÍA Y PLANTACIONES; RESTAURACIÓN DE BIENES INMUEBLES HISTÓRICO-ARTÍSTICOS; ESTACIONES DE TRATAMIENTO DE AGUAS E INSTALACIONES CONTRA INCENDIOS; ESTUDIOS E INFORMES DE OBRAS PÚBLICAS, EDIFICACIÓN, URBANISMO, CARTOGRAFÍA, TOPOGRAFÍA; CATASTROS, GEOMANCIA, HIDROLOGÍA Y MEDIO AMBIENTE; ANÁLISIS, ENSAYOS Y CONTROL TÉCNICO; ESTUDIOS E INFORMES ECONÓMICOS, FINANCIEROS, COMERCIALES SOCIALES Y LABORALES; PROYECTOS Y DIRECCIÓN DE OBRAS DE AGRICULTURA, GANADERÍA, PESCA, INDUSTRIA, ENERGÍA, MINERÍA, OBRAS PÚBLICAS, EDIFICACIÓN, URBANISMO; SERVICIOS SANITARIOS, INFORMACIÓN, PUBLICIDAD, ADMINISTRATIVOS Y COMUNICACIONES, CONSERVACIÓN Y MANTENIMIENTO DE BIENES MUEBLES E INMUEBLES, NATURALES Y NO NATURALES, LIMPIEZAS E HIGIENIZACIÓN, MANTENIMIENTO DE EQUIPOS E INSTALACIONES, TRANSPORTES; TRABAJOS Y SERVICIOS RELACIONADOS CON EL MEDIO AMBIENTE; GENERACIÓN Y COGENERACIÓN DE ENERGÍA; EXPLOTACIÓN DE MINAS, CANTERAS Y VERTEDEROS; SUMINISTROS DE TODO TIPO A PARTICULARES O A LA ADMINISTRACIÓN",
      "mainEntityOfPage": "https://www.contratacion.euskadi.eus/webkpe00-kperoc/es/ac71aBusquedaRegistrosWar/empresa/02060",
      "_links": {
        "self": {
          "name": "DC CONSTRUCCIÓN, INGENIERÍA Y GESTIÓN DE OBRAS, S.A.",
          "href": "https://api.euskadi.eus/procurements/companies/02060"
        }
      }
    },
    {
      "name": "CAMPEZO CONSTRUCCIÓN, S.A.",
      "registrationNumber": "00080",
      "identificationNumber": "A01000751",
      "address": "ANTONIO VALVERDE Nº 2",
      "location": {
        "postalCode": "20014",
        "municipality": "Donostia / San Sebastián",
        "county": "Gipuzkoa",
        "municipalityId": "069",
        "countyId": "20"
      },
      "economicActivities": [
        {
          "id": "1.507",
          "name": "Construcción, reparación y conservación de toda clase obras",
          "_links": {
            "self": {
              "name": "Construcción, reparación y conservación de toda clase obras",
              "href": "https://api.euskadi.eus/procurements/companies/economic-activities/1.507"
            }
          }
        }
      ],
      "certificateStartDate": "2013-11-05",
      "certificateEndDate": "2014-05-05",
      "object": "1.-LA EXPLOTACIÓN DE PLANTAS DE AGLOMERACIÓN ASFÁLTICO Y DE HORMIGONES, ASÍ COMO ADQUIRIR, EXPLOTAR, REHABILITAR Y GESTIONAR CUALQUIER TIPO DE CANTERA.\r\n\r\n2.-LA FABRICACIÓN, VENTA Y COLOCACIÓN DE PRODUCTOS QUÍMICOS, ESPECIALMENTE RELACIONADOS CON EL ASFALTO, COMO IMPERMEABILIZANTES, EMULSIONES O ADITIVOS, ASÍ COMO LA COMERCIALIZACIÓN DE PRODUCTOS INDUSTRIALES EN GENERAL, MAQUINARIA, VENTA DE ADITIVOS Y REPRESENTACIONES SEAN COMERCIALES, INDUSTRIALES O DE SERVICIOS.\r\n\r\n3.-LA PROMOCIÓN, LA CONTRATACIÓN Y LA REALIZACIÓN DE TODO TIPO DE OBRAS Y SERVICIOS CON CUALQUIER ORGANISMO DE LAS ADMINISTRACIONES PÚBLICAS Y CON TODA CLASE DE ENTIDADES Y PARTICULARES, ASÍ COMO SU REPARACIÓN Y CONSERVACIÓN Y TODA CLASE DE DERRIBOS.\r\n\r\n4.-LA CONSERVACIÓN, MANTENIMIENTO O EXPLOTACIÓN DE VIALES E INFRAESTRUCTURAS, AUTIPISTAS, CARRETERAS, VÍAS Y FERROCARRILES, TÚNELES U OTRAS INFRAESTRUCTURAS VIARIAS, O TRAMOS DE ELLLAS, ASÍ COMO LA CONSTRUCCIÓN EJECUCIÓN, EXPLOTACIÓN Y PRESTACIÓN DE TODO TIPO DE SERVICIOS RELACIONADOS CON LA INFRAESTRUCTURA DEL TRANSPORTE, YA SEA POR VÍA TERRESTRE, MARÍTIMA O AÉREA.\r\n\r\n5.-LA EJECUCIÓN Y MANTENIMIENTO DE INSTALACIONES ELÉCTRICAS EN GENERAL, INSTALACIONES DE TELECOMUNICACIÓN, INSTALACIONES ELECTRÓNICAS E INSTALACIONES DE SISTEMAS DE SEÑALIZACIÓN Y BALIZAMIENTO DE PUERTOS, AEROPUERTOS Y CARRETERAS, INSTALACIONES DE SEGURIDAD Y CONTRA INCENDIOS. LA EJECUCIÓN Y MANTENIMIENTO DE INSTALACIONES MECÁNICAS EN GENERAL, INSTALACIONES DE FONTANERÍA, INSTALACIONES FRIGORÍFICAS, INSTALACIONES DE CALEFACCIÓN VENTILACIÓN Y CLIMATIZACIÓN E INSTALACIONES ELEVADORAS Y TRANSPORTADORAS.\r\n\r\n6.-LA CONSTRUCCIÓN, MANTENIMIENTO, EXPLOTACIÓN Y GESTIÓN DE REDES DE ABASTECIMIENTO DE AGUAS; LA EJECUCIÓN, MANTENIMIENTO Y EXPLOTACIÓN DE OBRAS DE JARDINERÁI Y SERVICIOS DE MANTENIMIENTO, CONSERVACIÓN, EXPLOTACIÓN Y GESTIÓN DE PLAYAS Y RÍOS.\r\n\r\n7.-LA REALIZACIÓN DE TODA CLASE DE INFORMES, ESTUDIOS Y PROYECTOS TÉCNICOS, PROYECTOS Y DIRECCIÓN DE OBRA, CONTROL DE CALIDAD, INGENIERÍA, SERVICIOS INTEGRALES DE CONSULTORÍA TÉCNICA, INVESTIGACIÓN Y PRESTACIÓN DE SERVICIOS DE ASISTENCIA, ASESORAMIENTO Y GESTIÓN TÉCNICA, ADMINISTRATIVA Y COMERCIAL, INCLUYENDO AQUÉLLOS RELACIONADOS CON EL MEDIO AMBIENTE EN GENERAL Y EL PATRIMONIO NACIONAL E HISTÓRICO Y AUDITORÍAS.\r\n\r\n8.-LA GESTIÓN, ADMINISTRACIÓN, ADQUISICIÓN, PROMOCIÓN, ENAJENACIÓN, REHABILITACIÓN Y EXPLOTACIÓN EN CUALQUIER FORMA DE SOLARES, TERRENOS, CONJUNTOS RESIDENCIALES, URBANIZACIONES O PROMOCIONES INMOBILIARIAS Y, EN GENERAL, DE TODA CLASE DE BIENES INMUEBLES, ASÍ COMO EL MANTENIMIENTO INTEGRAL DE EDIFICIOS. LA CONSTRUCCIÓN, EL MANTENIMIENTO Y EXPLOTACIÓN DE PARKINGS DE VEHÍCULOS.\r\n\r\n9.-LA REALIZACIÓN DE PROYECTOS, PROMOCIÓN, CONSTITUCIÓN Y PARTICIPACIÓN EN OTRAS SOCIEDADES Y EMPRESAS MEDIANTE LA SUSCRIPCIÓN, ADQUISICIÓN Y POSESIÓN DE ACCIONES, PARTICIPACIONES Y CUALESQUIERA OTROS TÍTULOS Y VALORES, ASÍ COMO TODA CLASE DE NEGOCIOS RELACIONADOS CON LA COMPRAVENTA Y SUSCRIPCIÓN DE VALORES MOBILIARIOS, TANTO DE RENTA FIJA COMO VARIABLE, POR CUENTA PROPIA, EXCLUYENDO LA INTERMEDIACIÓN FINANCIERA Y LA CAPTACIÓN DE AHORRO PÚBLICO Y LAS ACTIVIDADES PROPIAS DE LAS INSTITUCIONES DE INVERSIÓN COLECTIVA Y DE LOS MIEMBROS DE LAS BOLSAS DE VALORES.\r\n\r\n10.-LA TITULARIDAD DE TODA CLASE DE CONCESIONES, SUBCONCESIONES, AUTORIZACIONES Y LICENCIAS ADMINISTRATIVAS DE OBRAS, SERVICIOS Y MIXTAS, DEL ESTADO, COMUNIDADES AUTÓNOMAS, PROVINCIAS, MUNICIPIOS, ORGANISMOS AUTÓNOMOS, ENTIDADES AUTÓNOMAS, ASÍ COMO DE CUALQUIER ESTADO EXTRANJERO O INSTITUCIONES INTERNACIONALES.\r\n\r\n11.-EL TRATAMIENTO Y GESTIÓN DE RESIDUOS DE TODO TIPO, LAS ACTIVIDADES DE RECUPERACIÓN Y RECICLAJE, EXPLOTACIÓN DE ENERGÍAS ALTERNATIVAS. LA DESCONTAMINACIÓN DE SUELOS Y LA GESTIÓN DE ESPACIOS NATURALES, REFORESTACIÓN DE SUELOS Y RESTAURACIÓN INDUSTRIAL, INCLUYENDO ESTUDIOS E INSTALACIONES DE TRATAMIENTO DE AGUA, AIRE Y GASES, CONTAMINACIÓN ATMOSFÉRICA, ASÍ COMO VERTEDEROS Y ESTACIONES DE TRATAMIENTO DE LIXIVIADOS, RESIDUOS Y OTROS. LA CONSTRUCCIÓN, EXPLOTACIÓN, ADECUACIÓN Y MANTENIMIENTO DE ESCOMBRERAS. EL TRATAMIENTO DE RESIDUOS Y LÍQUIDOS DE TODO TIPO. EL SERVICIO DE GESTÓN INTEGRADA DE BASURAS, TANTO EN LO QUE SE REFIERE A SU RECOGIDA COMO A SU DEPURACIÓN, TRANSFORMACIÓN Y TRATAMIENTO, ASÍ COMO PRESTACIÓN DE SERVICIOS RELACIONADOS CON EL MEDIO AMBIENTE; EL CONTROL DE HUMOS Y RUIDOS\r\n\r\nLAS ACTIVIDADES ENUMERADAS PODERÁN TAMBIÉN SER DESARROLLDAS POR LA SOCIEDAD, TOTAL O PERCIALMENTE, DE MODO INDIRECTO, MEDIANTE LA PARTICIPACIÓN EN OTAS SOCIEDADES CON OBJETO ANÁLOGO",
      "mainEntityOfPage": "https://www.contratacion.euskadi.eus/webkpe00-kperoc/es/ac71aBusquedaRegistrosWar/empresa/00080",
      "_links": {
        "self": {
          "name": "CAMPEZO CONSTRUCCIÓN, S.A.",
          "href": "https://api.euskadi.eus/procurements/companies/00080"
        }
      }
    }
  ]
}