{
  "totalItems": 9042,
  "totalPages": 905,
  "currentPage": 554,
  "itemsOfPage": 10,
  "items": [
    {
      "name": "MUÑOZ BOSCH, S.L.U.",
      "registrationNumber": "07347",
      "identificationNumber": "B97828446",
      "address": "AVENIDA LUIS SANTANGEL, 69-71",
      "location": {
        "postalCode": "46136",
        "municipality": "Museros",
        "county": "Valencia/València",
        "municipalityId": "177",
        "countyId": "46"
      },
      "economicActivities": [
        {
          "id": "1.316.2",
          "name": "Fabricación de artículos de ferretería y cerrajería",
          "_links": {
            "self": {
              "name": "Fabricación de artículos de ferretería y cerrajería",
              "href": "https://api.euskadi.eus/procurements/companies/economic-activities/1.316.2"
            }
          }
        },
        {
          "id": "1.504.5",
          "name": "Montaje e instalación de cocinas de todo tipo y clase",
          "_links": {
            "self": {
              "name": "Montaje e instalación de cocinas de todo tipo y clase",
              "href": "https://api.euskadi.eus/procurements/companies/economic-activities/1.504.5"
            }
          }
        },
        {
          "id": "1.614.2",
          "name": "Venta al por mayor de productos de perfumería, droguería, higiene y belleza",
          "_links": {
            "self": {
              "name": "Venta al por mayor de productos de perfumería, droguería, higiene y belleza",
              "href": "https://api.euskadi.eus/procurements/companies/economic-activities/1.614.2"
            }
          }
        },
        {
          "id": "1.843.9",
          "name": "Otros servicios técnicos n.c.o.p",
          "_links": {
            "self": {
              "name": "Otros servicios técnicos n.c.o.p",
              "href": "https://api.euskadi.eus/procurements/companies/economic-activities/1.843.9"
            }
          }
        }
      ],
      "certificateStartDate": "2020-11-05",
      "certificateEndDate": "2021-04-10",
      "object": "COMERCIO AL POR MAYOR DE PRODUCTOS DE LIMPIEZA",
      "mainEntityOfPage": "https://www.contratacion.euskadi.eus/webkpe00-kperoc/es/ac71aBusquedaRegistrosWar/empresa/07347",
      "_links": {
        "self": {
          "name": "MUÑOZ BOSCH, S.L.U.",
          "href": "https://api.euskadi.eus/procurements/companies/07347"
        }
      }
    },
    {
      "name": "OLAVE & ARANZABAL CONSTRUCCIONES, S.L.",
      "registrationNumber": "03957",
      "identificationNumber": "B01269117",
      "address": "AVENIDA DEL CANTÁBRICO, 12 PAB. 42",
      "location": {
        "postalCode": "01013",
        "municipality": "Vitoria-Gasteiz",
        "county": "Araba/Álava",
        "municipalityId": "059",
        "countyId": "01"
      },
      "economicActivities": [
        {
          "id": "1.501.1",
          "name": "Construcción completa, reparación y conservación de edificaciones",
          "_links": {
            "self": {
              "name": "Construcción completa, reparación y conservación de edificaciones",
              "href": "https://api.euskadi.eus/procurements/companies/economic-activities/1.501.1"
            }
          }
        },
        {
          "id": "1.843.9",
          "name": "Otros servicios técnicos n.c.o.p",
          "_links": {
            "self": {
              "name": "Otros servicios técnicos n.c.o.p",
              "href": "https://api.euskadi.eus/procurements/companies/economic-activities/1.843.9"
            }
          }
        }
      ],
      "certificateStartDate": "2020-11-04",
      "certificateEndDate": "2021-05-04",
      "object": "LA COMPRAVENTA DE FINCAS, LA CONTRATA Y EJECUCIÓN DE OBRAS, PROPIAS O AJENAS, PÚBLICAS O PRIVADAS Y EN GENERAL, TODAS LAS ACTIVIDADES CARACTERÍSTICAS DE LA INDUSTRIA DE CONSTRUCCIÓN, O QUE SE RFELACIONEN CON LA PROPIEDAD INMOBILIARIA",
      "mainEntityOfPage": "https://www.contratacion.euskadi.eus/webkpe00-kperoc/es/ac71aBusquedaRegistrosWar/empresa/03957",
      "_links": {
        "self": {
          "name": "OLAVE & ARANZABAL CONSTRUCCIONES, S.L.",
          "href": "https://api.euskadi.eus/procurements/companies/03957"
        }
      }
    },
    {
      "name": "JAVIER BENGOA VISCARRET",
      "registrationNumber": "07344",
      "identificationNumber": "44153566Y",
      "address": "LEGAZPI KALEA, 6 3º EZK",
      "location": {
        "postalCode": "20700",
        "municipality": "Zumarraga",
        "county": "Gipuzkoa",
        "municipalityId": "080",
        "countyId": "20"
      },
      "economicActivities": [
        {
          "id": "2.731",
          "name": "Abogados",
          "_links": {
            "self": {
              "name": "Abogados",
              "href": "https://api.euskadi.eus/procurements/companies/economic-activities/2.731"
            }
          }
        }
      ],
      "certificateStartDate": "2020-11-04",
      "certificateEndDate": "2021-03-28",
      "object": "ABOGADOS",
      "mainEntityOfPage": "https://www.contratacion.euskadi.eus/webkpe00-kperoc/es/ac71aBusquedaRegistrosWar/empresa/07344",
      "_links": {
        "self": {
          "name": "JAVIER BENGOA VISCARRET",
          "href": "https://api.euskadi.eus/procurements/companies/07344"
        }
      }
    },
    {
      "name": "LOGISTIUM, SERVICIOS LOGÍSTICOS,  S.A.",
      "registrationNumber": "07345",
      "identificationNumber": "A03466604",
      "address": "Aureliano Ibarra 16",
      "location": {
        "postalCode": "03009",
        "municipality": "Alacant/Alicante",
        "county": "Alicante/Alacant",
        "municipalityId": "014",
        "countyId": "03"
      },
      "economicActivities": [
        {
          "id": "1.616.6",
          "name": "Venta al por mayor de productos químicos industriales",
          "_links": {
            "self": {
              "name": "Venta al por mayor de productos químicos industriales",
              "href": "https://api.euskadi.eus/procurements/companies/economic-activities/1.616.6"
            }
          }
        },
        {
          "id": "1.616.9",
          "name": "Otro comercio al por mayor interindustria de la minería n.c.o.p",
          "_links": {
            "self": {
              "name": "Otro comercio al por mayor interindustria de la minería n.c.o.p",
              "href": "https://api.euskadi.eus/procurements/companies/economic-activities/1.616.9"
            }
          }
        },
        {
          "id": "1.617.9",
          "name": "Venta al por mayor interindustrial de otros productos n.c.o.p",
          "_links": {
            "self": {
              "name": "Venta al por mayor interindustrial de otros productos n.c.o.p",
              "href": "https://api.euskadi.eus/procurements/companies/economic-activities/1.617.9"
            }
          }
        }
      ],
      "certificateStartDate": "2020-11-04",
      "certificateEndDate": "2021-04-13",
      "object": "A) LA COMERCIALIZACIÓN Y SUMINISTRO DE MATERIALES, TUBERÍAS, PIEZAS, CONTADORES, APARATOS DE CONTROL, DE INVESTIGACIÓN Y PROSPECCIÓN, DE CONTROL DE CALIDAD; Y EN GENERAL EL SUMINISTRO DE CUALQUIER UTILLAJE, TECNOLOGÍA O LA REALIZACIÓN DE CUALQUIER SERVICIO, OBRA, PROYECTO, CONSTRUCCIÓN O INSTALACIÓN QUE TENGA RELACIÓN CON LA CAPTACIÓN, ELEVACIÓN, DISTRIBUCIÓN Y DEPURACIÓN DEL AGUA PARA ABASTECIMIENTOS, RIEGO Y CUALQUIER OTRO USO PÚBLICO O PRIVADO. B) EL SUMINISTRO, INSTALACIÓN, COMERCIALIZACIÓN, MANTENIMIENTO O REPARACIÓN DE TODO TIPO DE EQUIPOS ELECTROMECÁNICOS, EQUIPAMIENTO Y MATERIAL DE TELEMANDO, TELEMEDIDA, ELECTRÓNICO, RADIOELÉCTRICO Y TELECOMUNICACIÓN EN GENERAL; LA REALIZACIÓN DE SERVICIOS DE CONSULTORÍA, ASESORAMIENTO TÉCNICO, DISEÑO, DESARROLLO Y FORMULACIÓN DE TODA CLASE DE INFORMES, ESTUDIOS Y PROYECTOS RELACIONADOS CON LAS ACTIVIDADES ANTERIORMENTE DESCRITAS, ASÍ COMO CUANTO SEA COMPLEMENTARIO O INCIDENTAL EN LA PRESTACIÓN DE LOS MISMOS O SEAN LABORES AUXILIARES DE AQUELLOS. C) LA COMERCIALIZACIÓN Y SUMINISTRO DE PRODUCTOS QUÍMICOS DESTINADOS AL TRATAMIENTO DE AGUA, YA SEA PARA POTABILIZACIÓN O DEPURACIÓN",
      "mainEntityOfPage": "https://www.contratacion.euskadi.eus/webkpe00-kperoc/es/ac71aBusquedaRegistrosWar/empresa/07345",
      "_links": {
        "self": {
          "name": "LOGISTIUM, SERVICIOS LOGÍSTICOS,  S.A.",
          "href": "https://api.euskadi.eus/procurements/companies/07345"
        }
      }
    },
    {
      "name": "GURIA CATERING, S.A.",
      "registrationNumber": "07342",
      "identificationNumber": "A48152524",
      "address": "CALLE ITURRIBIDE 65 - ENTREPLANTA",
      "location": {
        "postalCode": "48006",
        "municipality": "Bilbao",
        "county": "Bizkaia",
        "municipalityId": "020",
        "countyId": "48"
      },
      "economicActivities": [
        {
          "id": "1.612.1",
          "name": "Venta al por mayor de toda clase de productos alimenticios, bebidas, tabaco",
          "_links": {
            "self": {
              "name": "Venta al por mayor de toda clase de productos alimenticios, bebidas, tabaco",
              "href": "https://api.euskadi.eus/procurements/companies/economic-activities/1.612.1"
            }
          }
        }
      ],
      "certificateStartDate": "2020-11-02",
      "certificateEndDate": "2021-04-05",
      "object": "SERVICIO DE RESTAURACIÓN, DE CAFÉ Y DE BAR PRESTADO A LAS AERONAVES\r\n",
      "mainEntityOfPage": "https://www.contratacion.euskadi.eus/webkpe00-kperoc/es/ac71aBusquedaRegistrosWar/empresa/07342",
      "_links": {
        "self": {
          "name": "GURIA CATERING, S.A.",
          "href": "https://api.euskadi.eus/procurements/companies/07342"
        }
      }
    },
    {
      "name": "DENTSPLY SIRONA IBERIA, S.A.U.",
      "registrationNumber": "01628",
      "identificationNumber": "A60874674",
      "address": "PASEO DE LA ZONA FRANCA 111, TORRE AUDITORI (PORTA FIRAL) PISO 5º",
      "location": {
        "postalCode": "08038",
        "municipality": "Barcelona",
        "county": "Barcelona",
        "municipalityId": "019",
        "countyId": "08"
      },
      "economicActivities": [
        {
          "id": "1.619.2",
          "name": "Venta al por mayor de aparatos e instrumentos médicos, ortopédicos, ópticos",
          "_links": {
            "self": {
              "name": "Venta al por mayor de aparatos e instrumentos médicos, ortopédicos, ópticos",
              "href": "https://api.euskadi.eus/procurements/companies/economic-activities/1.619.2"
            }
          }
        },
        {
          "id": "1.659.3",
          "name": "Venta al por menor de aparatos médicos, ortopédicos, ópticos y fotográficos",
          "_links": {
            "self": {
              "name": "Venta al por menor de aparatos médicos, ortopédicos, ópticos y fotográficos",
              "href": "https://api.euskadi.eus/procurements/companies/economic-activities/1.659.3"
            }
          }
        }
      ],
      "certificateStartDate": "2020-10-31",
      "certificateEndDate": "2021-04-30",
      "object": "LA IMPORTACIÓN, EXPORTACIÓN, PRODUCCIÓN Y DISTRIBUCIÓN DE PRODUCTOS SANITARIOS Y MÉDICOS",
      "mainEntityOfPage": "https://www.contratacion.euskadi.eus/webkpe00-kperoc/es/ac71aBusquedaRegistrosWar/empresa/01628",
      "_links": {
        "self": {
          "name": "DENTSPLY SIRONA IBERIA, S.A.U.",
          "href": "https://api.euskadi.eus/procurements/companies/01628"
        }
      }
    },
    {
      "name": "PUBLIKA GESTIÓN PUBLICITARIA, S.L.",
      "registrationNumber": "07340",
      "identificationNumber": "B98012859",
      "address": "avda textil 53 a",
      "location": {
        "postalCode": "46870",
        "municipality": "Ontinyent",
        "county": "Valencia/València",
        "municipalityId": "184",
        "countyId": "46"
      },
      "economicActivities": [
        {
          "id": "1.619.9",
          "name": "Venta al por mayor de otros productos n.c.o.p",
          "_links": {
            "self": {
              "name": "Venta al por mayor de otros productos n.c.o.p",
              "href": "https://api.euskadi.eus/procurements/companies/economic-activities/1.619.9"
            }
          }
        },
        {
          "id": "1.844",
          "name": "Servicios de publicidad, relaciones públicas y similares",
          "_links": {
            "self": {
              "name": "Servicios de publicidad, relaciones públicas y similares",
              "href": "https://api.euskadi.eus/procurements/companies/economic-activities/1.844"
            }
          }
        }
      ],
      "certificateStartDate": "2020-10-30",
      "certificateEndDate": "2021-03-11",
      "object": "LAS LABORES DE GESTIÓN Y PROMOCIÓN PUBLICITARIA PARA EMPRESAS Y PARTICULARES",
      "mainEntityOfPage": "https://www.contratacion.euskadi.eus/webkpe00-kperoc/es/ac71aBusquedaRegistrosWar/empresa/07340",
      "_links": {
        "self": {
          "name": "PUBLIKA GESTIÓN PUBLICITARIA, S.L.",
          "href": "https://api.euskadi.eus/procurements/companies/07340"
        }
      }
    },
    {
      "name": "ALEGRIA ACTIVITY, S.L.",
      "registrationNumber": "02626",
      "identificationNumber": "B01286442",
      "address": "LANDALUCIA, 24",
      "location": {
        "postalCode": "01015",
        "municipality": "Vitoria-Gasteiz",
        "county": "Araba/Álava",
        "municipalityId": "059",
        "countyId": "01"
      },
      "economicActivities": [
        {
          "id": "1.362",
          "name": "Construcción de carrocerías, remolques y volquetes",
          "_links": {
            "self": {
              "name": "Construcción de carrocerías, remolques y volquetes",
              "href": "https://api.euskadi.eus/procurements/companies/economic-activities/1.362"
            }
          }
        },
        {
          "id": "1.504.1",
          "name": "Instalaciones eléctricas en general",
          "_links": {
            "self": {
              "name": "Instalaciones eléctricas en general",
              "href": "https://api.euskadi.eus/procurements/companies/economic-activities/1.504.1"
            }
          }
        },
        {
          "id": "1.617.8",
          "name": "Venta al por mayor de máquinas y material de oficina",
          "_links": {
            "self": {
              "name": "Venta al por mayor de máquinas y material de oficina",
              "href": "https://api.euskadi.eus/procurements/companies/economic-activities/1.617.8"
            }
          }
        },
        {
          "id": "1.654.1",
          "name": "Venta al por menor de vehículos terrestres",
          "_links": {
            "self": {
              "name": "Venta al por menor de vehículos terrestres",
              "href": "https://api.euskadi.eus/procurements/companies/economic-activities/1.654.1"
            }
          }
        },
        {
          "id": "1.844",
          "name": "Servicios de publicidad, relaciones públicas y similares",
          "_links": {
            "self": {
              "name": "Servicios de publicidad, relaciones públicas y similares",
              "href": "https://api.euskadi.eus/procurements/companies/economic-activities/1.844"
            }
          }
        }
      ],
      "certificateStartDate": "2020-10-29",
      "certificateEndDate": "2021-04-22",
      "object": "LA PRESTACIÓN DE SERVICIOS PÚBLICOS DE TRANSPORTE DE VIAJEROS POR CARRETERA, EN SUS MODALIDADES DE SERVICIOS PÚBLICOS REGULARES Y SERVICIOS PÚBLICOS DISCRECIONALES. LA REALIZACIÓN Y DESARROLLO DE ESTUDIOS, PROGRAMAS E INFORMES RELACIONADOS CON EL TRANSPORTE EN GENERAL. TRATAMIENTO DE LA INFORMACIÓN (INFORMÁTICA). ACTUALIZACIÓN DE PROGRMAS Y APLICACIONES INFORMÁTICAS. ACTIVIDADES DE CREACIÓN, PREPARACIÓN, PROGRAMACIÓN, DISTRIBUCIÓN Y DIFUSIÓN DE ANUNCIOS O CAMPAÑAS DE PUBLICIDAD. COMUNICACIÓN PÚBLICA E INSTITUCIONAL. PROPAGANDA E IMAGEN CORPORATIVA. PRODUCCIÓN DE MEDIOS AUDIOVISUALES. SERVICIOS DE INFORMACIÓN, ATENCIÓN TELEFÓNICA Y SIMILARES. ASESORAMIENTO, DIRECCIÓN, DISEÑO, ORGANIZACIÓN Y PROMOCIÓN DE CONGRESOS, FERIAS, CONVENCIONES Y EXPOSICIONES. PUBLICACIONES. CURSOS DE FORMACIÓN DE PERSONAL. ACTIVIDADES ADMINISTRATIVAS, TALES COMO MECANOGRAFIADO, GRABACIÓN DE DATOS  Y TRATAMIENTO DE TEXTOS. EXPLOTACIÓN DE GARAGES, ALQUILER Y REPARACIÓN DE VEHÍCULOS Y ACCESORIOS. DISEÑO, INVESTIGACIÓN, DESARROLLO, TRANSFORMACIÓN, CONSTRUCIÓN, COMERCIALIZACIÓN DE TODO TIPO DE CARROCERÍAS, ELEMENTOS Y UNIDADES DE TRANSPORTE POR CARRETERA, ASÍ COMO DE PRODUCTOS AUXILIARES DE AUTOMOCIÓN. PROMOCIÓN, ESTUDIO, ASESORAMIENTO, GESTIÓN Y EJECUCIÓN DE TODA SUERTE DE PROYECTOS INMOBILIARIOS, DE URBANIZACIÓN, DE EDIFICACIÓN Y DE CONSTRUCCIÓN; COMPRAVENTA, ARRENDAMIENTO, ADMINISTRACIÓN Y ENAJENACIÓN DE TODA CLASE DE IMNUEBLES; FABRICACIÓN, COMERCIALIZACIÓN Y EXPLOTACIÓN DE PRODUCTOS, TÉCNICAS, BIENES Y MATERIALES, PRINCIPALMENTE PARA LA CONSTRUCCIÓN; ACTIVIDADES RELACIONADAS CON AGENCIAS DE LA PROPIEDAD INMOBILIARIA, EXPLOTACIÓN DE HOTELES, HOSTALES, MOTELES, APARTAMENTOS, RESTAURANTES, BARES, CAFETERÍAS Y OTROS DEL RAMO DE HOSTELERÍA, SALAS DE FIESTAS Y ESPARCIMIENTO, CINEMATÓGRAFOS, TEATROS, APARCAMIENTOS, GARAGES, PELUQUERÍAS, SALONES DE BELLEZA, SAUNAS, GIMNASIOS, PISCINAS, SUPERMERCADOS, HIPERMERCADOS, ALMACENES, TIENDAS Y BAZARES",
      "mainEntityOfPage": "https://www.contratacion.euskadi.eus/webkpe00-kperoc/es/ac71aBusquedaRegistrosWar/empresa/02626",
      "_links": {
        "self": {
          "name": "ALEGRIA ACTIVITY, S.L.",
          "href": "https://api.euskadi.eus/procurements/companies/02626"
        }
      }
    },
    {
      "name": "BIDARTEKO LANAK, S.L.",
      "registrationNumber": "07337",
      "identificationNumber": "B95926630",
      "address": "GARBE 24 1º A",
      "location": {
        "postalCode": "48140",
        "municipality": "Igorre",
        "county": "Bizkaia",
        "municipalityId": "094",
        "countyId": "48"
      },
      "economicActivities": [
        {
          "id": "1.921.1",
          "name": "Servicios de limpieza en calles, vías públicas y jardines",
          "_links": {
            "self": {
              "name": "Servicios de limpieza en calles, vías públicas y jardines",
              "href": "https://api.euskadi.eus/procurements/companies/economic-activities/1.921.1"
            }
          }
        }
      ],
      "certificateStartDate": "2020-10-29",
      "certificateEndDate": "2021-04-26",
      "object": "-TRABAJOS DE JARDINERÍA Y FORESTALES. PRESTACIÓN DE SERVICIOS DE LIMPIEZA Y DESBROCE DE JARDINES, CUNETAS Y MÁRGENES DE VIALES. (CNAE 8130) QUE CORRESPONDE A LA ACTIVIDAD PRINCIPAL DE LA SOCIEDAD. -TRABAJOS DE CONSTRUCCIÓN, DEMOLICIONES Y DERRIBOS, CONSOLIDACIÓN Y PREPARACIÓN PARA LA CONSTRUCCIÓN DE EDIFICACIONES, INCLUIDOS SISTEMAS DE AGOTAMIENTO Y DRAGADOS, CONSOLIDACIÓN Y PREPARACIÓN DE TERRENOS PARA LA REALIZACIÓN DE OBRAS CIVILES, ASÍ COMO DE SISTEMAS DE AGOTAMIENTO Y DRAGOS, CIMENTACIONES Y PAVIMENTACIONES PARA LA CONSTRUCCIÓN DE EDIFICACIONES, PERFORACIONES PARA ALUMBRAMIENTO DE AGUAS, PREPARACIÓN Y MONTAJE DE ESTRUCTURAS Y CUBIERTAS, POSTES Y TORRES METÁLICAS, CARRILES, RAILES FERROVIARIOS, COMPUERTAS, Y GRÚAS, PREPARACIÓN Y MONTAJE DE ESTRUCTURAS Y CUBIERTAS Y CUBRICIONES, Y MONTAJE, INHALACIÓN DE ESTRUCTURAS METÁLICAS PARA TRANSPORTES, PUERTOS, OBRAS HIDRÁULICAS, PUENTES, POSTES, TORRES METÁLICAS, Y CARRILES, ELABORACIÓN DE OBRA EN PIEDRA NATURAL O ARTIFICIAL, O CON MATERIALES PARA LA CONSTRUCCIÓN, COLOCACIÓN DE LOS TRABAJOS REALIZADOS EN SUS TALLERES EN LAS DISTINTAS OBRAS.- COORDINACIÓN DE TODO TIPO DE GREMIOS RELACIONADOS CON LOS ANTERIORMENTE CITADOS. Y COMPRAVENTA DE TODO TIPO DE ARTÍCULOS RELACIONADOS CON LAS ACTIVIDADES ANTERIORMENTE DESCRITAS",
      "mainEntityOfPage": "https://www.contratacion.euskadi.eus/webkpe00-kperoc/es/ac71aBusquedaRegistrosWar/empresa/07337",
      "_links": {
        "self": {
          "name": "BIDARTEKO LANAK, S.L.",
          "href": "https://api.euskadi.eus/procurements/companies/07337"
        }
      }
    },
    {
      "name": "BARTOLOME CRESPI SANTANDREU",
      "registrationNumber": "07338",
      "identificationNumber": "42944877J",
      "address": "ELKANO 7 PPAL",
      "location": {
        "postalCode": "48011",
        "municipality": "Bilbao",
        "county": "Bizkaia",
        "municipalityId": "020",
        "countyId": "48"
      },
      "economicActivities": [
        {
          "id": "1.841",
          "name": "Servicios jurídicos",
          "_links": {
            "self": {
              "name": "Servicios jurídicos",
              "href": "https://api.euskadi.eus/procurements/companies/economic-activities/1.841"
            }
          }
        },
        {
          "id": "1.842",
          "name": "Servicios financieros y contables",
          "_links": {
            "self": {
              "name": "Servicios financieros y contables",
              "href": "https://api.euskadi.eus/procurements/companies/economic-activities/1.842"
            }
          }
        },
        {
          "id": "1.861.2",
          "name": "Alquiler de locales industriales y otros alquileres n.c.o.p",
          "_links": {
            "self": {
              "name": "Alquiler de locales industriales y otros alquileres n.c.o.p",
              "href": "https://api.euskadi.eus/procurements/companies/economic-activities/1.861.2"
            }
          }
        }
      ],
      "certificateStartDate": "2020-10-29",
      "certificateEndDate": "2021-04-06",
      "object": "SERVICIOS JURÍDICOS. SERVICIOS FINANCIEROS Y CONTABLES",
      "mainEntityOfPage": "https://www.contratacion.euskadi.eus/webkpe00-kperoc/es/ac71aBusquedaRegistrosWar/empresa/07338",
      "_links": {
        "self": {
          "name": "BARTOLOME CRESPI SANTANDREU",
          "href": "https://api.euskadi.eus/procurements/companies/07338"
        }
      }
    }
  ]
}