{
  "totalItems": 9042,
  "totalPages": 905,
  "currentPage": 905,
  "itemsOfPage": 2,
  "items": [
    {
      "name": "ALMERIA TECNICOS CONSTRUCTORES-2007 S.L.",
      "registrationNumber": "10507",
      "identificationNumber": "B04593752",
      "address": "CALLE MARQUES DE COMILLAS, 13. PLANTA 2",
      "location": {
        "postalCode": "04004",
        "municipality": "Almería",
        "county": "Almería",
        "municipalityId": "013",
        "countyId": "04"
      },
      "classification": [
        {
          "id": "O",
          "name": "Obras",
          "groups": [
            {
              "id": "A",
              "name": "MOVIMIENTO DE TIERRAS Y PERFORACIONES",
              "subgroups": [
                {
                  "id": "01",
                  "name": "DESMONTES Y VACIADOS",
                  "categories": [
                    {
                      "id": "3",
                      "name": "Desde 360.001 Hasta 840.000",
                      "_links": {
                        "self": {
                          "name": "Desde 360.001 Hasta 840.000",
                          "href": "https://api.euskadi.eus/procurements/companies/types/O/categories/3"
                        }
                      }
                    }
                  ],
                  "_links": {
                    "self": {
                      "name": "DESMONTES Y VACIADOS",
                      "href": "https://api.euskadi.eus/procurements/companies/types/O/groups/A/subgroups/01"
                    }
                  }
                }
              ],
              "_links": {
                "self": {
                  "name": "MOVIMIENTO DE TIERRAS Y PERFORACIONES",
                  "href": "https://api.euskadi.eus/procurements/companies/types/O/groups/A"
                }
              }
            },
            {
              "id": "C",
              "name": "EDIFICACIONES",
              "subgroups": [
                {
                  "id": "01",
                  "name": "DEMOLICIONES",
                  "categories": [
                    {
                      "id": "3",
                      "name": "Desde 360.001 Hasta 840.000",
                      "_links": {
                        "self": {
                          "name": "Desde 360.001 Hasta 840.000",
                          "href": "https://api.euskadi.eus/procurements/companies/types/O/categories/3"
                        }
                      }
                    }
                  ],
                  "_links": {
                    "self": {
                      "name": "DEMOLICIONES",
                      "href": "https://api.euskadi.eus/procurements/companies/types/O/groups/C/subgroups/01"
                    }
                  }
                },
                {
                  "id": "02",
                  "name": "ESTRUCTURAS DE FABRICA U HORMIGÓN",
                  "categories": [
                    {
                      "id": "3",
                      "name": "Desde 360.001 Hasta 840.000",
                      "_links": {
                        "self": {
                          "name": "Desde 360.001 Hasta 840.000",
                          "href": "https://api.euskadi.eus/procurements/companies/types/O/categories/3"
                        }
                      }
                    }
                  ],
                  "_links": {
                    "self": {
                      "name": "ESTRUCTURAS DE FABRICA U HORMIGÓN",
                      "href": "https://api.euskadi.eus/procurements/companies/types/O/groups/C/subgroups/02"
                    }
                  }
                },
                {
                  "id": "03",
                  "name": "ESTRUCTURAS METALICAS",
                  "categories": [
                    {
                      "id": "3",
                      "name": "Desde 360.001 Hasta 840.000",
                      "_links": {
                        "self": {
                          "name": "Desde 360.001 Hasta 840.000",
                          "href": "https://api.euskadi.eus/procurements/companies/types/O/categories/3"
                        }
                      }
                    }
                  ],
                  "_links": {
                    "self": {
                      "name": "ESTRUCTURAS METALICAS",
                      "href": "https://api.euskadi.eus/procurements/companies/types/O/groups/C/subgroups/03"
                    }
                  }
                },
                {
                  "id": "04",
                  "name": "ALBAÑILERIA, REVOCOS Y REVESTIDOS",
                  "categories": [
                    {
                      "id": "3",
                      "name": "Desde 360.001 Hasta 840.000",
                      "_links": {
                        "self": {
                          "name": "Desde 360.001 Hasta 840.000",
                          "href": "https://api.euskadi.eus/procurements/companies/types/O/categories/3"
                        }
                      }
                    }
                  ],
                  "_links": {
                    "self": {
                      "name": "ALBAÑILERIA, REVOCOS Y REVESTIDOS",
                      "href": "https://api.euskadi.eus/procurements/companies/types/O/groups/C/subgroups/04"
                    }
                  }
                },
                {
                  "id": "05",
                  "name": "CANTERIA Y MARMOLERIA",
                  "categories": [
                    {
                      "id": "3",
                      "name": "Desde 360.001 Hasta 840.000",
                      "_links": {
                        "self": {
                          "name": "Desde 360.001 Hasta 840.000",
                          "href": "https://api.euskadi.eus/procurements/companies/types/O/categories/3"
                        }
                      }
                    }
                  ],
                  "_links": {
                    "self": {
                      "name": "CANTERIA Y MARMOLERIA",
                      "href": "https://api.euskadi.eus/procurements/companies/types/O/groups/C/subgroups/05"
                    }
                  }
                },
                {
                  "id": "06",
                  "name": "PAVIMENTOS, SOLADOS Y ALICATADOS",
                  "categories": [
                    {
                      "id": "3",
                      "name": "Desde 360.001 Hasta 840.000",
                      "_links": {
                        "self": {
                          "name": "Desde 360.001 Hasta 840.000",
                          "href": "https://api.euskadi.eus/procurements/companies/types/O/categories/3"
                        }
                      }
                    }
                  ],
                  "_links": {
                    "self": {
                      "name": "PAVIMENTOS, SOLADOS Y ALICATADOS",
                      "href": "https://api.euskadi.eus/procurements/companies/types/O/groups/C/subgroups/06"
                    }
                  }
                },
                {
                  "id": "07",
                  "name": "AISLAMIENTOS E IMPERMEABILIZACIONES",
                  "categories": [
                    {
                      "id": "3",
                      "name": "Desde 360.001 Hasta 840.000",
                      "_links": {
                        "self": {
                          "name": "Desde 360.001 Hasta 840.000",
                          "href": "https://api.euskadi.eus/procurements/companies/types/O/categories/3"
                        }
                      }
                    }
                  ],
                  "_links": {
                    "self": {
                      "name": "AISLAMIENTOS E IMPERMEABILIZACIONES",
                      "href": "https://api.euskadi.eus/procurements/companies/types/O/groups/C/subgroups/07"
                    }
                  }
                },
                {
                  "id": "08",
                  "name": "CARPINTERIA DE MADERA",
                  "categories": [
                    {
                      "id": "3",
                      "name": "Desde 360.001 Hasta 840.000",
                      "_links": {
                        "self": {
                          "name": "Desde 360.001 Hasta 840.000",
                          "href": "https://api.euskadi.eus/procurements/companies/types/O/categories/3"
                        }
                      }
                    }
                  ],
                  "_links": {
                    "self": {
                      "name": "CARPINTERIA DE MADERA",
                      "href": "https://api.euskadi.eus/procurements/companies/types/O/groups/C/subgroups/08"
                    }
                  }
                },
                {
                  "id": "09",
                  "name": "CARPINTERIA METALICA",
                  "categories": [
                    {
                      "id": "3",
                      "name": "Desde 360.001 Hasta 840.000",
                      "_links": {
                        "self": {
                          "name": "Desde 360.001 Hasta 840.000",
                          "href": "https://api.euskadi.eus/procurements/companies/types/O/categories/3"
                        }
                      }
                    }
                  ],
                  "_links": {
                    "self": {
                      "name": "CARPINTERIA METALICA",
                      "href": "https://api.euskadi.eus/procurements/companies/types/O/groups/C/subgroups/09"
                    }
                  }
                }
              ],
              "_links": {
                "self": {
                  "name": "EDIFICACIONES",
                  "href": "https://api.euskadi.eus/procurements/companies/types/O/groups/C"
                }
              }
            },
            {
              "id": "E",
              "name": "HIDRAULICAS",
              "subgroups": [
                {
                  "id": "01",
                  "name": "ABASTECIMIENTOS Y SANEAMIENTOS",
                  "categories": [
                    {
                      "id": "2",
                      "name": "Desde 150.001 Hasta 360.000",
                      "_links": {
                        "self": {
                          "name": "Desde 150.001 Hasta 360.000",
                          "href": "https://api.euskadi.eus/procurements/companies/types/O/categories/2"
                        }
                      }
                    }
                  ],
                  "_links": {
                    "self": {
                      "name": "ABASTECIMIENTOS Y SANEAMIENTOS",
                      "href": "https://api.euskadi.eus/procurements/companies/types/O/groups/E/subgroups/01"
                    }
                  }
                },
                {
                  "id": "04",
                  "name": "ACEQUIAS Y DESAGÜES",
                  "categories": [
                    {
                      "id": "2",
                      "name": "Desde 150.001 Hasta 360.000",
                      "_links": {
                        "self": {
                          "name": "Desde 150.001 Hasta 360.000",
                          "href": "https://api.euskadi.eus/procurements/companies/types/O/categories/2"
                        }
                      }
                    }
                  ],
                  "_links": {
                    "self": {
                      "name": "ACEQUIAS Y DESAGÜES",
                      "href": "https://api.euskadi.eus/procurements/companies/types/O/groups/E/subgroups/04"
                    }
                  }
                },
                {
                  "id": "05",
                  "name": "DEFENSAS DE MARGENES Y ENCAUZAMIENTOS",
                  "categories": [
                    {
                      "id": "2",
                      "name": "Desde 150.001 Hasta 360.000",
                      "_links": {
                        "self": {
                          "name": "Desde 150.001 Hasta 360.000",
                          "href": "https://api.euskadi.eus/procurements/companies/types/O/categories/2"
                        }
                      }
                    }
                  ],
                  "_links": {
                    "self": {
                      "name": "DEFENSAS DE MARGENES Y ENCAUZAMIENTOS",
                      "href": "https://api.euskadi.eus/procurements/companies/types/O/groups/E/subgroups/05"
                    }
                  }
                },
                {
                  "id": "07",
                  "name": "OBRAS HIDRAULICAS SIN CUALIFICACION ESPECIFICA",
                  "categories": [
                    {
                      "id": "2",
                      "name": "Desde 150.001 Hasta 360.000",
                      "_links": {
                        "self": {
                          "name": "Desde 150.001 Hasta 360.000",
                          "href": "https://api.euskadi.eus/procurements/companies/types/O/categories/2"
                        }
                      }
                    }
                  ],
                  "_links": {
                    "self": {
                      "name": "OBRAS HIDRAULICAS SIN CUALIFICACION ESPECIFICA",
                      "href": "https://api.euskadi.eus/procurements/companies/types/O/groups/E/subgroups/07"
                    }
                  }
                }
              ],
              "_links": {
                "self": {
                  "name": "HIDRAULICAS",
                  "href": "https://api.euskadi.eus/procurements/companies/types/O/groups/E"
                }
              }
            },
            {
              "id": "K",
              "name": "ESPECIALES",
              "subgroups": [
                {
                  "id": "04",
                  "name": "Pinturas y metalizaciones",
                  "categories": [
                    {
                      "id": "1",
                      "name": "Desde 0 Hasta 150.000",
                      "_links": {
                        "self": {
                          "name": "Desde 0 Hasta 150.000",
                          "href": "https://api.euskadi.eus/procurements/companies/types/O/categories/1"
                        }
                      }
                    }
                  ],
                  "_links": {
                    "self": {
                      "name": "Pinturas y metalizaciones",
                      "href": "https://api.euskadi.eus/procurements/companies/types/O/groups/K/subgroups/04"
                    }
                  }
                }
              ],
              "_links": {
                "self": {
                  "name": "ESPECIALES",
                  "href": "https://api.euskadi.eus/procurements/companies/types/O/groups/K"
                }
              }
            }
          ],
          "_links": {
            "self": {
              "name": "Obras",
              "href": "https://api.euskadi.eus/procurements/companies/types/O"
            }
          }
        }
      ],
      "object": "La sociedad tiene como objeto o finalidad la mediación entre los tomadores de seguros o de reaseguros y asegurados, de una parte, y de las entidades aseguradores o reaseguradoras privadas, de otra. A tales efectos, se entenderá por mediación aquellas actividades consistentes en la presentación propuesta o realización de trabajos previos a la celebración de un contrato de seguro o de reaseguro, o de celebración de estos contratos, así como la asistencia en la gestión y ejecución de dichos contratos, en particular en caso de siniestro; todo ello de forma exclusiva, previa autorización administrativa y con sometimiento a la legislación de seguros privados.\nAsimismo, la sociedad también tiene por objeto:\n-\tLa construcción y promoción de toda clase de edificaciones, así como la compraventa de inmuebles rústicos y urbanos.\n-\tLa prestación de servicios fiscales, de inversiones e inmobiliario, la realización de proyectos y estudios, la gestión de licencias y permisos de toda clase índole y la relación de estudios de mercado.",
      "mainEntityOfPage": "https://www.contratacion.euskadi.eus/webkpe00-kperoc/es/ac71aBusquedaRegistrosWar/empresa/10507",
      "_links": {
        "self": {
          "name": "ALMERIA TECNICOS CONSTRUCTORES-2007 S.L.",
          "href": "https://api.euskadi.eus/procurements/companies/10507"
        }
      }
    },
    {
      "name": "ENERGIA WEPOWER DOHA SL",
      "registrationNumber": "10508",
      "identificationNumber": "B88127535",
      "address": "PASEO DE LOS LAGOS, Nº 2 CASA 62",
      "location": {
        "postalCode": "28223",
        "municipality": "Pozuelo de Alarcón",
        "county": "Madrid",
        "municipalityId": "115",
        "countyId": "28"
      },
      "classification": [
        {
          "id": "O",
          "name": "Obras",
          "groups": [
            {
              "id": "I",
              "name": "INSTALACIONES ELÉCTRICAS",
              "subgroups": [
                {
                  "id": "09",
                  "name": "Instalaciones eléctricas sin cualificación específica",
                  "categories": [
                    {
                      "id": "4",
                      "name": "Desde 840.001 Hasta 2.400.000",
                      "_links": {
                        "self": {
                          "name": "Desde 840.001 Hasta 2.400.000",
                          "href": "https://api.euskadi.eus/procurements/companies/types/O/categories/4"
                        }
                      }
                    }
                  ],
                  "_links": {
                    "self": {
                      "name": "Instalaciones eléctricas sin cualificación específica",
                      "href": "https://api.euskadi.eus/procurements/companies/types/O/groups/I/subgroups/09"
                    }
                  }
                }
              ],
              "_links": {
                "self": {
                  "name": "INSTALACIONES ELÉCTRICAS",
                  "href": "https://api.euskadi.eus/procurements/companies/types/O/groups/I"
                }
              }
            }
          ],
          "_links": {
            "self": {
              "name": "Obras",
              "href": "https://api.euskadi.eus/procurements/companies/types/O"
            }
          }
        }
      ],
      "object": "La sociedad tiene por objeto: \n- La producción, venta, almacenamiento y comercialización de energía eléctrica y térmica de origen renovable, así como la explotación y desarrollo de proyectos relacionados con energías de origen renovable (eólica, fotovoltaica, y de cualquier otro tipo).\n- La promoción, construcción, y subsiguiente explotación o venta de centrales de energía eléctrica producida por el aprovechamiento de recursos eólicos.\n- La compraventa de maquinaria.\n- La gestión desarrollo y mantenimiento de parques eólicos y la producción de energía eléctrica y su venta. El diseño, proyecto y construcción de equipos, instalaciones y plantas para los anteriores fines para usos propios y para terceros. La intermediación en la prestación de servicios de ingeniería, asesoramiento y gestión de todo tipo de proyectos relacionados con los recursos energéticos para usos propios y terceros.",
      "mainEntityOfPage": "https://www.contratacion.euskadi.eus/webkpe00-kperoc/es/ac71aBusquedaRegistrosWar/empresa/10508",
      "_links": {
        "self": {
          "name": "ENERGIA WEPOWER DOHA SL",
          "href": "https://api.euskadi.eus/procurements/companies/10508"
        }
      }
    }
  ]
}