{
  "totalItems": 9042,
  "totalPages": 905,
  "currentPage": 790,
  "itemsOfPage": 10,
  "items": [
    {
      "name": "BEARINGPOINT BUSINESS CONSULTING ESPAÑA, S.L.",
      "registrationNumber": "02046",
      "identificationNumber": "C81815763",
      "address": "C/ RAIMUNDO FERNÁNDEZ VILLAVERDE, Nº 65",
      "location": {
        "postalCode": "28003",
        "municipality": "Madrid",
        "county": "Madrid",
        "municipalityId": "079",
        "countyId": "28"
      },
      "economicActivities": [
        {
          "id": "1.842",
          "name": "Servicios financieros y contables",
          "_links": {
            "self": {
              "name": "Servicios financieros y contables",
              "href": "https://api.euskadi.eus/procurements/companies/economic-activities/1.842"
            }
          }
        },
        {
          "id": "1.843.9",
          "name": "Otros servicios técnicos n.c.o.p",
          "_links": {
            "self": {
              "name": "Otros servicios técnicos n.c.o.p",
              "href": "https://api.euskadi.eus/procurements/companies/economic-activities/1.843.9"
            }
          }
        },
        {
          "id": "1.845",
          "name": "Explotación electrónica por cuenta de terceros",
          "_links": {
            "self": {
              "name": "Explotación electrónica por cuenta de terceros",
              "href": "https://api.euskadi.eus/procurements/companies/economic-activities/1.845"
            }
          }
        },
        {
          "id": "1.847",
          "name": "Servicios de consultoría",
          "_links": {
            "self": {
              "name": "Servicios de consultoría",
              "href": "https://api.euskadi.eus/procurements/companies/economic-activities/1.847"
            }
          }
        },
        {
          "id": "1.932.1",
          "name": "Enseñanza de formación y perfeccionamiento profesional no superior",
          "_links": {
            "self": {
              "name": "Enseñanza de formación y perfeccionamiento profesional no superior",
              "href": "https://api.euskadi.eus/procurements/companies/economic-activities/1.932.1"
            }
          }
        }
      ],
      "certificateStartDate": "2004-11-03",
      "certificateEndDate": "2005-02-06",
      "object": "\r\n\r\n1.- REALIZAR TODA CLASE DE TRABAJOS DE ASESORAMIENTO Y CONSULTORÍA SOBRE TEMAS ECONÓMICOS, FINANCIEROS, CONTABLES Y, EN GENERAL, SOBRE TODOS AQUELLOS RELACIONADOS CON LA INFORMACIÓN, ORGANIZACIÓN Y PLANIFICACIÓN, INCLUIDOS LOS SERVICIOS DE CONSULTORÍA Y ASESORAMIENTO RELATIVOS AL DISEÑO Y MEJORA DE LOS PROCESOS DE GESTIÓN, ANÁLISIS Y ESTRUCTURA DE COSTES, GESTIÓN DE RECURSOS HUMANOS, PLANIFICACIÓN ESTRATÉGICA, GESTIÓN DE CALIDAD, GESTIÓN MEDIOAMBIENTAL, MEJORA DEL CONOCIMIENTO ORGANIZATIVO, DISEÑO E IMPLANTACIÓN DE SISTEMAS DE INFORMACIÓN, ANÁLISIS DE SEGURIDAD EN EL TRATAMIENTO INFORMATIZADO DE DATOS Y EN SU TRASMISIÓN Y COMUNICACIÓN, DISEÑO DE SISTEMAS DE CONTROL INTERNO Y PARA EL CONTROL DE RIESGOS Y ANÁLISIS FINANCIEROS.\r\n\r\n2.- DESARROLLAR SISTEMAS PROPIOS DE TRATAMIENTO DE DATOS E INFORMACIÓN.\r\n\r\n3.- REALIZAR ACTIVIDADES DE FORMACIÓN EMPRESARIAL Y PROFESIONAL, ASÍ COMO DISEÑAR, CREAR, EDITAR Y DISTRIBUIR CURSOS, MANUALES, LIBROS, VÍDEOS, SOFTWARES, Y EN GENERAL CUALQUIER PRODUCTO AUDIOVISUAL DESTINADO A LA FORMACIÓN Y DESARROLLO PROFESIONAL DE DIRECTIVOS, EMPRESARIOS, EMPLEADOS Y PERSONAS RELACIONADAS CON EL ÁMBITO EMPRESARIAL",
      "mainEntityOfPage": "https://www.contratacion.euskadi.eus/webkpe00-kperoc/es/ac71aBusquedaRegistrosWar/empresa/02046",
      "_links": {
        "self": {
          "name": "BEARINGPOINT BUSINESS CONSULTING ESPAÑA, S.L.",
          "href": "https://api.euskadi.eus/procurements/companies/02046"
        }
      }
    },
    {
      "name": "DARGALO SOFTWARE, S.L.L.",
      "registrationNumber": "02705",
      "identificationNumber": "B01343532",
      "address": "C/ LOS ISUNZA, , 7 - 1ºA",
      "location": {
        "postalCode": "01002",
        "municipality": "Vitoria-Gasteiz",
        "county": "Araba/Álava",
        "municipalityId": "059",
        "countyId": "01"
      },
      "economicActivities": [
        {
          "id": "1.933.9",
          "name": "Otras actividades de enseñanza tales como idiomas, mecanografía",
          "_links": {
            "self": {
              "name": "Otras actividades de enseñanza tales como idiomas, mecanografía",
              "href": "https://api.euskadi.eus/procurements/companies/economic-activities/1.933.9"
            }
          }
        }
      ],
      "certificateStartDate": "2004-10-28",
      "certificateEndDate": "2005-04-21",
      "object": "LA VENTA DE DESARROLLO Y PRODUCTOS INFORMÁTICOS DE SOFTWARE Y HARDWARE.\r\nLA IMPARTICIÓN DE CURSOS EN EL ÁREA DE LAS NUEVAS TECNOLOGÍAS.\r\nASESORAMIENTO DE SOLUCIONES INFORMÁTICAS  Y TECNOLÓGICAS.\r\nIMPLANTACIÓN DE SOLUCIONES INFORMÁTICAS Y TECNOLÓGICAS.\r\nGESTIÓN Y TRAMITACIÓN DE LAS NECESIDADES INFORMÁTICAS Y TECNOLÓGICAS DEL CLIENTE. ",
      "mainEntityOfPage": "https://www.contratacion.euskadi.eus/webkpe00-kperoc/es/ac71aBusquedaRegistrosWar/empresa/02705",
      "_links": {
        "self": {
          "name": "DARGALO SOFTWARE, S.L.L.",
          "href": "https://api.euskadi.eus/procurements/companies/02705"
        }
      }
    },
    {
      "name": "LITOGRAFÍA VALVERDE, S.A.L.",
      "registrationNumber": "01711",
      "identificationNumber": "A20415790",
      "address": "C/ GABIRIA, Nº 46.",
      "location": {
        "postalCode": "20305",
        "municipality": "Irun",
        "county": "Gipuzkoa",
        "municipalityId": "045",
        "countyId": "20"
      },
      "economicActivities": [
        {
          "id": "1.474",
          "name": "Artes gráficas (impresión gráfica)",
          "_links": {
            "self": {
              "name": "Artes gráficas (impresión gráfica)",
              "href": "https://api.euskadi.eus/procurements/companies/economic-activities/1.474"
            }
          }
        }
      ],
      "certificateStartDate": "2004-10-21",
      "certificateEndDate": "2005-04-18",
      "object": "LA INDUSTRIA DE IMPRENTA Y LITOGRAFÍA Y A CUANTAS OPERACIONES INDUSTRIALES Y COMERCIALES GUARDEN RELACIÓN CON EL OBJETO ENUNCIADO. LA ACTIVIDAD INMOBILIARIA",
      "mainEntityOfPage": "https://www.contratacion.euskadi.eus/webkpe00-kperoc/es/ac71aBusquedaRegistrosWar/empresa/01711",
      "_links": {
        "self": {
          "name": "LITOGRAFÍA VALVERDE, S.A.L.",
          "href": "https://api.euskadi.eus/procurements/companies/01711"
        }
      }
    },
    {
      "name": "ZUTARRI, S.L.",
      "registrationNumber": "02150",
      "identificationNumber": "B20343638",
      "address": "C/ ZERKAOSTETA, Nº 17 - BAJO.",
      "location": {
        "postalCode": "20500",
        "municipality": "Arrasate / Mondragón",
        "county": "Gipuzkoa",
        "municipalityId": "055",
        "countyId": "20"
      },
      "economicActivities": [
        {
          "id": "1.501.1",
          "name": "Construcción completa, reparación y conservación de edificaciones",
          "_links": {
            "self": {
              "name": "Construcción completa, reparación y conservación de edificaciones",
              "href": "https://api.euskadi.eus/procurements/companies/economic-activities/1.501.1"
            }
          }
        },
        {
          "id": "1.507",
          "name": "Construcción, reparación y conservación de toda clase obras",
          "_links": {
            "self": {
              "name": "Construcción, reparación y conservación de toda clase obras",
              "href": "https://api.euskadi.eus/procurements/companies/economic-activities/1.507"
            }
          }
        }
      ],
      "certificateStartDate": "2004-10-19",
      "certificateEndDate": "2005-03-30",
      "object": "\r\n\r\na) LA COMPRAVENTA DE SOLARES PARA URBANIZAR, LA CONSTRUCCIÓN Y VENTA DE VIVIENDAS DE PROTECCIÓN OFICIAL Y LIBRE, YA SEAN DE OBRA NUEVA O DE REFORMA. b) LA SUBCONTRATACIÓN A GREMIOS DE CONSTRUCCIÓN. c) LA CONSTRUCCIÓN Y VENTA DE PABELLONES INDUSTRIALES Y LOCALES DE NEGOCIO. d) LA URBANIZACIÓN DE SOLARES Y TERRENOS URBANIZABLES. e) LA REALIZACIÓN Y FABRICACIÓN DE CUANTOS ELEMENTOS SEAN NECESARIOS PARA LA TOTAL HABILITACIÓN DE LOS INMUEBLES",
      "mainEntityOfPage": "https://www.contratacion.euskadi.eus/webkpe00-kperoc/es/ac71aBusquedaRegistrosWar/empresa/02150",
      "_links": {
        "self": {
          "name": "ZUTARRI, S.L.",
          "href": "https://api.euskadi.eus/procurements/companies/02150"
        }
      }
    },
    {
      "name": "WACREES. S.L.",
      "registrationNumber": "02420",
      "identificationNumber": "B79937926",
      "address": "EMILIANO BARRAL, 5 - LOCAL 2",
      "location": {
        "postalCode": "28043",
        "municipality": "Madrid",
        "county": "Madrid",
        "municipalityId": "079",
        "countyId": "28"
      },
      "economicActivities": [
        {
          "id": "1.659.3",
          "name": "Venta al por menor de aparatos médicos, ortopédicos, ópticos y fotográficos",
          "_links": {
            "self": {
              "name": "Venta al por menor de aparatos médicos, ortopédicos, ópticos y fotográficos",
              "href": "https://api.euskadi.eus/procurements/companies/economic-activities/1.659.3"
            }
          }
        }
      ],
      "certificateStartDate": "2004-10-15",
      "certificateEndDate": "2003-03-02",
      "object": "LA DISTRIBUCIÓN, FABRICACIÓN, IMPORTACIÓN, EXPORTACIÓN, COMPRAVENTA Y COMERCIALIZACIÓN DE TODO TIPO DE INSTRUMENTOS Y MATERIAL MÉDICO-QUIRÚRGICO Y SANITARIO, ASÍ COMO LA REPRESENTACIÓN A LOS MISMOS FINES, DE EMPRESAS NACIONALES O EXTRANJERAS.",
      "mainEntityOfPage": "https://www.contratacion.euskadi.eus/webkpe00-kperoc/es/ac71aBusquedaRegistrosWar/empresa/02420",
      "_links": {
        "self": {
          "name": "WACREES. S.L.",
          "href": "https://api.euskadi.eus/procurements/companies/02420"
        }
      }
    },
    {
      "name": "GETINGE IBÉRICA, S.L.",
      "registrationNumber": "02837",
      "identificationNumber": "B81534463",
      "address": "POLÍGONO INDUSTRIAL ALCOBENDAS C/ SAN RAFAEL, 6",
      "location": {
        "postalCode": "28108",
        "municipality": "Madrid",
        "county": "Madrid",
        "municipalityId": "079",
        "countyId": "28"
      },
      "economicActivities": [
        {
          "id": "1.659.3",
          "name": "Venta al por menor de aparatos médicos, ortopédicos, ópticos y fotográficos",
          "_links": {
            "self": {
              "name": "Venta al por menor de aparatos médicos, ortopédicos, ópticos y fotográficos",
              "href": "https://api.euskadi.eus/procurements/companies/economic-activities/1.659.3"
            }
          }
        }
      ],
      "certificateStartDate": "2004-10-14",
      "certificateEndDate": "2005-03-21",
      "object": "LA FABRICACIÓN, LA COMPRA, LA VENTA, LA COMISIÓN, LA DISTRIBUCIÓN, LA IMPORTACIÓN, EL MANTENIMIENTO, LA TRANSFERENCIA DE TECNOLOGÍA DE FABRICACIÓN Y LA EXPORTACIÓN DE TODO TIPO DE PRODUCTOS Y MATERIALES DE ESTERILIZACIÓN, LAVADO Y DESINFECCIÓN DESTINADOS A HOSPITALES, CLÍNICAS, SANATORIOS, LABORATORIOS MÉDICOS O PARAMÉDICOS O PROVEEDORES DE LA INDUSTRIA FARMACÉUTICA.  ",
      "mainEntityOfPage": "https://www.contratacion.euskadi.eus/webkpe00-kperoc/es/ac71aBusquedaRegistrosWar/empresa/02837",
      "_links": {
        "self": {
          "name": "GETINGE IBÉRICA, S.L.",
          "href": "https://api.euskadi.eus/procurements/companies/02837"
        }
      }
    },
    {
      "name": "NORVERTICAL, S.L.",
      "registrationNumber": "02905",
      "identificationNumber": "B01363274",
      "address": "PORTAL DE GAMARRA, 9. PAB. 13",
      "location": {
        "postalCode": "01013",
        "municipality": "Vitoria-Gasteiz",
        "county": "Araba/Álava",
        "municipalityId": "059",
        "countyId": "01"
      },
      "economicActivities": [
        {
          "id": "1.501.3",
          "name": "Albañilería y pequeños trabajos de construcción en general",
          "_links": {
            "self": {
              "name": "Albañilería y pequeños trabajos de construcción en general",
              "href": "https://api.euskadi.eus/procurements/companies/economic-activities/1.501.3"
            }
          }
        },
        {
          "id": "1.503.1",
          "name": "Preparación y montaje de estructuras y cubiertas en edificaciones",
          "_links": {
            "self": {
              "name": "Preparación y montaje de estructuras y cubiertas en edificaciones",
              "href": "https://api.euskadi.eus/procurements/companies/economic-activities/1.503.1"
            }
          }
        }
      ],
      "certificateStartDate": "2004-10-14",
      "certificateEndDate": "2005-03-10",
      "object": "TRABAJOS VERTICALES DE CONSTRUCCIÓN Y MONTAJES, FORMACIÓN DE TÉCNICOS VERTICALES, FABRICACIÓN Y VENTA DE ESTRUCTURAS DE MADERA LAMINADA Y MECÁNICAS ",
      "mainEntityOfPage": "https://www.contratacion.euskadi.eus/webkpe00-kperoc/es/ac71aBusquedaRegistrosWar/empresa/02905",
      "_links": {
        "self": {
          "name": "NORVERTICAL, S.L.",
          "href": "https://api.euskadi.eus/procurements/companies/02905"
        }
      }
    },
    {
      "name": "EDITORIAL DEL PUEBLO VASCO, S.A.",
      "registrationNumber": "02899",
      "identificationNumber": "A48429609",
      "address": "CAMINO CAPUCHINOS DE BASURTO, 2",
      "location": {
        "postalCode": "48013",
        "municipality": "Bilbao",
        "county": "Bizkaia",
        "municipalityId": "020",
        "countyId": "48"
      },
      "economicActivities": [
        {
          "id": "1.476.2",
          "name": "Edición de periódicos y revistas",
          "_links": {
            "self": {
              "name": "Edición de periódicos y revistas",
              "href": "https://api.euskadi.eus/procurements/companies/economic-activities/1.476.2"
            }
          }
        },
        {
          "id": "1.844",
          "name": "Servicios de publicidad, relaciones públicas y similares",
          "_links": {
            "self": {
              "name": "Servicios de publicidad, relaciones públicas y similares",
              "href": "https://api.euskadi.eus/procurements/companies/economic-activities/1.844"
            }
          }
        }
      ],
      "certificateStartDate": "2004-09-29",
      "certificateEndDate": "2005-01-07",
      "object": "LA CREACIÓN, PUBLICACIÓN, EDICIÓN, DISTRIBUCIÓN Y VENTA DE PERIÓDICOS Y REVISTAS, ASÍ COMO DE OTROS MEDIOS INFORMATIVOS, AUDIOVISUALES, ETC., PARA LO CUAL TENDRÁ CARÁCTER QUE A ESTAS EMPRESAS OTORGA LA NORMATIVA VIGENTE, ASÍ COMO LAS DISPOSICIONES QUE POSTERIORMENTE SE PROMULGUEN  PARA SU REGULACIÓN LEGAL.  TAMBIÉN CONSTITUIRÁ EL OBJETO DE LA SOCIEDAD CUALQUIER OTRA ACTIVIDAD INDUSTRIAL Y COMERCIAL Y DE CRÉDITO, RELACIONADO CON ESTAS FUNCIONES  INFORMATIVAS Y CONEXAS A LAS MISMAS",
      "mainEntityOfPage": "https://www.contratacion.euskadi.eus/webkpe00-kperoc/es/ac71aBusquedaRegistrosWar/empresa/02899",
      "_links": {
        "self": {
          "name": "EDITORIAL DEL PUEBLO VASCO, S.A.",
          "href": "https://api.euskadi.eus/procurements/companies/02899"
        }
      }
    },
    {
      "name": "NRG COMUNICACIONES, S.A.",
      "registrationNumber": "00642",
      "identificationNumber": "A58420704",
      "address": "C/ AVENIDA ALCALDE BARNILS, S/N.",
      "location": {
        "postalCode": "08190",
        "municipality": "Sant Cugat del Vallès",
        "county": "Barcelona",
        "municipalityId": "205",
        "countyId": "08"
      },
      "economicActivities": [
        {
          "id": "1.617.8",
          "name": "Venta al por mayor de máquinas y material de oficina",
          "_links": {
            "self": {
              "name": "Venta al por mayor de máquinas y material de oficina",
              "href": "https://api.euskadi.eus/procurements/companies/economic-activities/1.617.8"
            }
          }
        },
        {
          "id": "1.853",
          "name": "Alquiler de maquinaria y equipo contable de oficina y cálculo",
          "_links": {
            "self": {
              "name": "Alquiler de maquinaria y equipo contable de oficina y cálculo",
              "href": "https://api.euskadi.eus/procurements/companies/economic-activities/1.853"
            }
          }
        }
      ],
      "certificateStartDate": "2004-09-28",
      "certificateEndDate": "2005-01-20",
      "object": "LA IMPORTACIÓN, DISTRIBUCIÓN, COMPRA Y VENTA DE MATERIAL Y EQUIPOS DE OFICINA",
      "mainEntityOfPage": "https://www.contratacion.euskadi.eus/webkpe00-kperoc/es/ac71aBusquedaRegistrosWar/empresa/00642",
      "_links": {
        "self": {
          "name": "NRG COMUNICACIONES, S.A.",
          "href": "https://api.euskadi.eus/procurements/companies/00642"
        }
      }
    },
    {
      "name": "PROCOMAPE, S.L.",
      "registrationNumber": "02817",
      "identificationNumber": "B01208206",
      "address": "HERMINIO MADINABEITIA, 16-18 PAB. 12",
      "location": {
        "postalCode": "01006",
        "municipality": "Vitoria-Gasteiz",
        "county": "Araba/Álava",
        "municipalityId": "059",
        "countyId": "01"
      },
      "economicActivities": [
        {
          "id": "1.501.1",
          "name": "Construcción completa, reparación y conservación de edificaciones",
          "_links": {
            "self": {
              "name": "Construcción completa, reparación y conservación de edificaciones",
              "href": "https://api.euskadi.eus/procurements/companies/economic-activities/1.501.1"
            }
          }
        },
        {
          "id": "1.501.2",
          "name": "Construcción completa, reparación y conservación obras civiles",
          "_links": {
            "self": {
              "name": "Construcción completa, reparación y conservación obras civiles",
              "href": "https://api.euskadi.eus/procurements/companies/economic-activities/1.501.2"
            }
          }
        }
      ],
      "certificateStartDate": "2004-09-22",
      "certificateEndDate": "2005-03-07",
      "object": "LA REALIZACIÓN DE LAS SIGUIENTES ACTIVIDADES: PROMOCIÓN  Y CONSTRUCCIÓN DE INMUEBLES. DICHAS ACTIVIDADES PODRÁN SER DESAROLLADAS POR LA SOCIEDAD, TOTAL O PARCIALMENTE, DE MODO INDIRECTO, MEDIANTE LA TITULARIDAD DE ACCIONES O PARTICIPACIONES EN SOCIEDADES CON OBJETO IDÉNTICO O ANÁLOGO. QUEDAN EXCLUÍDAS TODAS AQUELLAS ACTIVIDADES PARA CUYO EJERCICIO LA LEY EXIJA REQUISITOS ESPOECIALES QUE NO QUEDEN CUMPLIDOS POR ESTA SOCIEDAD",
      "mainEntityOfPage": "https://www.contratacion.euskadi.eus/webkpe00-kperoc/es/ac71aBusquedaRegistrosWar/empresa/02817",
      "_links": {
        "self": {
          "name": "PROCOMAPE, S.L.",
          "href": "https://api.euskadi.eus/procurements/companies/02817"
        }
      }
    }
  ]
}