{
  "totalItems": 9042,
  "totalPages": 905,
  "currentPage": 802,
  "itemsOfPage": 10,
  "items": [
    {
      "name": "EIDICIONES PUBLICITARIAS Y AUDIOVISUALES EDICIÓN EXTRA, S.L.",
      "registrationNumber": "02610",
      "identificationNumber": "B48929590",
      "address": "C/ TELESFORO ARANZADI, 3-2",
      "location": {
        "postalCode": "48008",
        "municipality": "Bilbao",
        "county": "Bizkaia",
        "municipalityId": "020",
        "countyId": "48"
      },
      "economicActivities": [
        {
          "id": "1.844",
          "name": "Servicios de publicidad, relaciones públicas y similares",
          "_links": {
            "self": {
              "name": "Servicios de publicidad, relaciones públicas y similares",
              "href": "https://api.euskadi.eus/procurements/companies/economic-activities/1.844"
            }
          }
        }
      ],
      "certificateStartDate": "2003-05-29",
      "certificateEndDate": "2003-11-21",
      "object": "LA PRESTACIÓN DE SERVICIOS DE PUBLICIDAD, MEDIANTE ANUNCIOS, CARTELES, FOLLETOS, PELÍCULAS PUBLICITARIAS, A TRAVÉS DE PRENSA, RADIO, TELEVISIÓN, PUBLICIDAD AÉREA U OTROS MEDIOS. LA EDICIÓN DE LIBROS Y REVISTAS TANTO PROPIOS COMO AJENOS. LA PRODUCCIÓN DE PROGRAMAS DE RADIO Y TELEVISIÓN ",
      "mainEntityOfPage": "https://www.contratacion.euskadi.eus/webkpe00-kperoc/es/ac71aBusquedaRegistrosWar/empresa/02610",
      "_links": {
        "self": {
          "name": "EIDICIONES PUBLICITARIAS Y AUDIOVISUALES EDICIÓN EXTRA, S.L.",
          "href": "https://api.euskadi.eus/procurements/companies/02610"
        }
      }
    },
    {
      "name": "PAUSOKA, S.A.",
      "registrationNumber": "02683",
      "identificationNumber": "A48257380",
      "address": "C/  GRAN VÍA, 6 -2º IZDA. ",
      "location": {
        "postalCode": "48001",
        "municipality": "Bilbao",
        "county": "Bizkaia",
        "municipalityId": "020",
        "countyId": "48"
      },
      "economicActivities": [
        {
          "id": "1.476.9",
          "name": "Otras ediciones n.c.o.p",
          "_links": {
            "self": {
              "name": "Otras ediciones n.c.o.p",
              "href": "https://api.euskadi.eus/procurements/companies/economic-activities/1.476.9"
            }
          }
        },
        {
          "id": "1.961.1",
          "name": "Producción de películas cinematográficas (incluso vídeos)",
          "_links": {
            "self": {
              "name": "Producción de películas cinematográficas (incluso vídeos)",
              "href": "https://api.euskadi.eus/procurements/companies/economic-activities/1.961.1"
            }
          }
        }
      ],
      "certificateStartDate": "2003-05-29",
      "certificateEndDate": "2003-10-08",
      "object": "LA INVESTIGACIÓN, CREACIÓN, COMPRAVENTA Y COMERCIALIZACIÓN EN GENERAL DE PRODUCTOS INFORMÁTICOS, ELECTRÓNICOS, AUDIOVISUALES Y DE ANIMACIÓN (HECHA ÉSTA A MANO O COMPUTERIZADA), EN CUALQUIER FORMATO Y MATERIAL; LA EDICIÓN DE OBRAS MUSICALES; EL ASESORAMIENTO DE EMPRESAS; EL ESTUDIO, INVESTIGACIÓN, PROMOCIÓN Y PRESTACIÓN DE SERVICIOS DE ASISTENCIA Y GESTIÓN TÉCNICA, ADMINISTRATIVA Y COMERCIAL, RELACIONADOS CON LOS PRODUCTOS Y SEÑALADOS; Y LA ADDQUISICIÓN, TENENCIA, EXPLOTACIÓN Y ENAJENACIÓN DE INMUEBLES. ",
      "mainEntityOfPage": "https://www.contratacion.euskadi.eus/webkpe00-kperoc/es/ac71aBusquedaRegistrosWar/empresa/02683",
      "_links": {
        "self": {
          "name": "PAUSOKA, S.A.",
          "href": "https://api.euskadi.eus/procurements/companies/02683"
        }
      }
    },
    {
      "name": "SABINO UNZAGA, S.A.",
      "registrationNumber": "00699",
      "identificationNumber": "A01023050",
      "address": "C/ TRES CRUCES, 11",
      "location": {
        "postalCode": "01400",
        "municipality": "Laudio/Llodio",
        "county": "Araba/Álava",
        "municipalityId": "036",
        "countyId": "01"
      },
      "economicActivities": [
        {
          "id": "1.501.1",
          "name": "Construcción completa, reparación y conservación de edificaciones",
          "_links": {
            "self": {
              "name": "Construcción completa, reparación y conservación de edificaciones",
              "href": "https://api.euskadi.eus/procurements/companies/economic-activities/1.501.1"
            }
          }
        },
        {
          "id": "1.507",
          "name": "Construcción, reparación y conservación de toda clase obras",
          "_links": {
            "self": {
              "name": "Construcción, reparación y conservación de toda clase obras",
              "href": "https://api.euskadi.eus/procurements/companies/economic-activities/1.507"
            }
          }
        },
        {
          "id": "1.833.2",
          "name": "Promoción de edificaciones",
          "_links": {
            "self": {
              "name": "Promoción de edificaciones",
              "href": "https://api.euskadi.eus/procurements/companies/economic-activities/1.833.2"
            }
          }
        }
      ],
      "certificateStartDate": "2003-05-14",
      "certificateEndDate": "2003-10-16",
      "object": "LA ADQUISICIÓN, URBANIZACIÓN, PARCELACIÓN, CONSTRUCCIÓN, EDIFICACIÓN, REFORMA, AMPLIACIÓN, ETC..., ASÍ COMO LA REALIZACIÓN DE OBRAS PÚBLICAS Y PROMOCIONES RELACIONADAS CON EL RAMO DE LA CONSTRUCCIÓN    ",
      "mainEntityOfPage": "https://www.contratacion.euskadi.eus/webkpe00-kperoc/es/ac71aBusquedaRegistrosWar/empresa/00699",
      "_links": {
        "self": {
          "name": "SABINO UNZAGA, S.A.",
          "href": "https://api.euskadi.eus/procurements/companies/00699"
        }
      }
    },
    {
      "name": "TRUPP CREATIVIDAD & DISEÑO, S. COOP.",
      "registrationNumber": "00686",
      "identificationNumber": "F48233050",
      "address": "C/ ALAMEDA MAZARREDO, Nº 20, 1º. LOCAL: 1.",
      "location": {
        "postalCode": "48009",
        "municipality": "Bilbao",
        "county": "Bizkaia",
        "municipalityId": "020",
        "countyId": "48"
      },
      "economicActivities": [
        {
          "id": "1.844",
          "name": "Servicios de publicidad, relaciones públicas y similares",
          "_links": {
            "self": {
              "name": "Servicios de publicidad, relaciones públicas y similares",
              "href": "https://api.euskadi.eus/procurements/companies/economic-activities/1.844"
            }
          }
        },
        {
          "id": "1.845",
          "name": "Explotación electrónica por cuenta de terceros",
          "_links": {
            "self": {
              "name": "Explotación electrónica por cuenta de terceros",
              "href": "https://api.euskadi.eus/procurements/companies/economic-activities/1.845"
            }
          }
        }
      ],
      "certificateStartDate": "2003-05-13",
      "certificateEndDate": "2003-11-09",
      "object": "LA REALIZACIÓN DE TODO TIPO DE SERVICIOS QUE PUEDA EFECTUAR UNA AGENCIA DE PUBLICIDAD GENERAL; LA REALIZACIÓN DE SERVICIOS DE INFORMÁTICA, GESTIÓN Y DESARROLLO DE PROGRAMAS INFORMÁTICOS, DE SISTEMAS DE INFORMACIÓN Y SERVICIOS CONEXOS Y EL ASESORAMIENTO EN ESTAS MATERIAS A TODO TIPO DE ENTIDADES; LAS ACTIVIDADES QUE INTEGRAN EL OBJETO SOCIAL HABRÁN DE SER DESARROLLADAS, AL MENOS EN LOS ASPECTOS BÁSICOS DEL COMPROMISO COOPERATIVO, DIRECTAMENTE POR LA MISMA Y POR SUS SOCIOS COOPERADORES; QUEDAN EXCLUÍDAS TODAS AQUELLAS ACTIVIDADES PARA CUYO EJERCICIO LA LEY EXIJA REQUISITOS ESPECIALES QUE NO QUEDEN CUMPLIDOS POR ESTA SOCIEDAD",
      "mainEntityOfPage": "https://www.contratacion.euskadi.eus/webkpe00-kperoc/es/ac71aBusquedaRegistrosWar/empresa/00686",
      "_links": {
        "self": {
          "name": "TRUPP CREATIVIDAD & DISEÑO, S. COOP.",
          "href": "https://api.euskadi.eus/procurements/companies/00686"
        }
      }
    },
    {
      "name": "TRANSICIEL MADRID, S.A.U.",
      "registrationNumber": "02672",
      "identificationNumber": "A80189509",
      "address": "C/ FERNÁNDEZ DE LA HOZ, 52",
      "location": {
        "postalCode": "28010",
        "municipality": "Madrid",
        "county": "Madrid",
        "municipalityId": "079",
        "countyId": "28"
      },
      "economicActivities": [
        {
          "id": "1.845",
          "name": "Explotación electrónica por cuenta de terceros",
          "_links": {
            "self": {
              "name": "Explotación electrónica por cuenta de terceros",
              "href": "https://api.euskadi.eus/procurements/companies/economic-activities/1.845"
            }
          }
        }
      ],
      "certificateStartDate": "2003-05-13",
      "certificateEndDate": "2003-10-11",
      "object": "LA REALIZACIÓN, ESTUDIO, DISEÑO, ANÁLISIS Y PROGRAMACIÓN DE TODA CLASE DE PROGRAMAS INFORMÁTICOS; LA COMPRA, VENTA, IMPORTACIÓN Y EXPORTACIÓN DE LOS MISMOS Y DE LOS MATERIALES FUNGIBLES DESTINADOS A LA INFORMÁTICA Y LA REALIZACIÓN DE CURSOS DE PROGRAMACIÓN Y OPERACIÓN DE EQUIPOS INFORMÁTICOS.",
      "mainEntityOfPage": "https://www.contratacion.euskadi.eus/webkpe00-kperoc/es/ac71aBusquedaRegistrosWar/empresa/02672",
      "_links": {
        "self": {
          "name": "TRANSICIEL MADRID, S.A.U.",
          "href": "https://api.euskadi.eus/procurements/companies/02672"
        }
      }
    },
    {
      "name": "TRIVIA FORMACIÓN Y DESARROLLO, S.L.",
      "registrationNumber": "02669",
      "identificationNumber": "B95227989",
      "address": "C/ SANTA ANA, 24 - POLÍGONO BARRONDO",
      "location": {
        "postalCode": "48450",
        "municipality": "Etxebarria",
        "county": "Bizkaia",
        "municipalityId": "030",
        "countyId": "48"
      },
      "economicActivities": [
        {
          "id": "1.934",
          "name": "Enseñanza fuera de establecimiento permanente",
          "_links": {
            "self": {
              "name": "Enseñanza fuera de establecimiento permanente",
              "href": "https://api.euskadi.eus/procurements/companies/economic-activities/1.934"
            }
          }
        }
      ],
      "certificateStartDate": "2003-05-09",
      "certificateEndDate": "2003-10-04",
      "object": "A). LA PRESTACIÓN DE SERVICIOS DE FORMACIÓN, EN ESPECIAL LA FORMACIÓN EN IGUALDAD DE OPORTUNIDADES. ASESORÍA, CONSULTORÍA Y ASESORAMIENTO. ACTIVIDADES DESTINADAS A INCORPORAR LA PERSPECTIVA DE GÉNERO EN LOS DIFERENTES ÁMBITOS DE ACTUACIÓN. ACTIVIDADES EDUCATIVAS EN EL ÁMBITO DE LA PREVENCIÓN DE RIESGOS LABORALES; ELABORACIÓN DE ESTUDIOS Y PLANES DE PREVENCIÓN DE RIESGOS; GESTIÓN Y ORGANIZACIÓN DE ASOCIACIONES NO GUBERNAMENTALES Y DE ECONOMÍA SOCIAL.\r\nB). ACTIVIDADES RELACIONADAS CON LA FORMACIÓN A CARGO DE LA EMPRESA TANTO DE FUTUROS EMPLEADOS COMO A TERCEROS.\r\nC). ASESORÍA Y CONSULTORÍA.\r\nD). LA PROMOCIÓN, CONSTRUCCIÓN, COMPRA, VENTA, ARRENDAMIENTO Y COMERCIALIZACIÓN EN GENERAL DE TODA CLASE DE EDIFICACIONES, TERRENOS, SOLARES, FINCAS RÚSTICAS Y URBANAS; LA EDIFICACIÓN, URBANIZACIÓN, EXCAVACIÓN, CIMENTACIÓN Y DERRIBO, BIEN POR CUENTA PROPIA COMO AJENA, ASÍ COMO LA ENAJENACIÓN, VENTA, ARRIENDO O EXPLOTACIÓN, EN CUALQUIER FORMA DE TODA CLASE DE INMUEBLES, EDIFICIOS, PISOS, APARTAMENTOS, LOCALES COMERCIALES O INDUSTRIALES, OFICINAS Y HOTELES O ESTABLECIMIENTOS DE HOSTELERÍA EN GENERAL.\r\nE). TODA CLASE DE OPERACIONES INMOBILIARIAS SOBRE FINCAS RÚSTICAS Y URBANAS, PROMOCIÓN DE CONTRATOS O REALIZACIONES DE PARCELACIONES, URBANIZACIONES, CONSTRUCCIONES Y OBRAS PRIVADAS O PÚBLICAS, LA VENTA, HIPOTECA, ARRENDAMIENTO, TRANSFORMACIÓN, MEJORA, ADMINISTRACIÓN, PUESTA EN EXPLOTACIÓN Y LA EXPLOTACIÓN MISMA, DE FINCAS RÚSTICAS Y URBANAS, LA ORGANIZACIÓN, PROMOCIÓN, ASESORAMIENTO, Y GESTIÓN EN SU CASO DE SOCIEDADES, COOPERATIVAS, COMUNIDADES, ENTIDADES, GRUPOS O EMPRESAS PARTICULARES ORIENTADAS A LA CONSTRUCCIÓN O URBANIZACIÓN, LA PLANIFICACIÓN Y ESTUDIO DE MERCADOS EN MATERIA INMOBILIARIA.\r\nF). LA GESTIÓN, DIRECCIÓN Y EJECUCIÓN POR CUENTA PROPIA O AJENA DE TODA CLASE DE CONSTRUCCIONES, INSTALACIONES, REFORMAS, REHABILITACIONES, DECORACIONES Y OBRAS DE RESTAURACIÓN EXTERNA E INTERNA DE ESTRUCTURAS Y REVESTIMIENTOS DE EDIFICIOS Y MONUMENTOS, LIMPIEZA, IMPERMEABILIZACIÓN, TRATAMIENTO, PINTURA, RECONSTRUCCIÓN Y LA IMPLANTACIÓN, CUIDADO Y MANTENIMIENTO DE JARDINES Y EXPLOTACIONES FORESTALES. LA SUPERVISIÓN Y CONTROL DE OBRAS, ASÍ COMO LA COORDINACIÓN DE GREMIOS, EL ASESORAMIENTO Y LA ASISTENCIA TÉCNICA DE TODO CUANTO SE RELACIONE CON EL CAMPO DE LA CONSTRUCCIÓN DE EDIFICIOS Y DE LAS OBRAS PÚBLICAS O CIVILES.\r\nG. ADQUISICIÓN, TENENCIA, DISFRUTE, ADMINISTRACIÓN Y ENAJENACIÓN DE VALORES MOBILIARIOS DE RENTA FIJA O VARIABLE, EMITIDOS POR TODA CLASE DE EMPRESAS, POR CUENTA PROPIA Y CON EXCEPCIÓN DE LA INTERMEDIACIÓN, QUEDANDO FUERA LAS ACTIVIDADES OBJETO DE LA LEGISLACIÓN DE INSTITUCIONES DE INVERSIÓN COLECTIVA Y DE MERCADO DE VALORES.\r\nH). PRESTACIÓN DE SERVICIOS DE ASESORAMIENTO CONTABLE, ECONÓMICO, FINANCIERO, COMERCIAL, ADMINISTRATIVO Y TRIBUTARIO.",
      "mainEntityOfPage": "https://www.contratacion.euskadi.eus/webkpe00-kperoc/es/ac71aBusquedaRegistrosWar/empresa/02669",
      "_links": {
        "self": {
          "name": "TRIVIA FORMACIÓN Y DESARROLLO, S.L.",
          "href": "https://api.euskadi.eus/procurements/companies/02669"
        }
      }
    },
    {
      "name": "BILBAO EXPRESS, S.A.",
      "registrationNumber": "02310",
      "identificationNumber": "A48205231",
      "address": "C/ AVDA. DE LOS CHOPOS, 33 - BAJO",
      "location": {
        "postalCode": "48992",
        "municipality": "Getxo",
        "county": "Bizkaia",
        "municipalityId": "044",
        "countyId": "48"
      },
      "economicActivities": [
        {
          "id": "1.755",
          "name": "Agencias de viajes",
          "_links": {
            "self": {
              "name": "Agencias de viajes",
              "href": "https://api.euskadi.eus/procurements/companies/economic-activities/1.755"
            }
          }
        },
        {
          "id": "1.755.2",
          "name": "Servicios prestados al público por las agencias de viajes",
          "_links": {
            "self": {
              "name": "Servicios prestados al público por las agencias de viajes",
              "href": "https://api.euskadi.eus/procurements/companies/economic-activities/1.755.2"
            }
          }
        }
      ],
      "certificateStartDate": "2003-05-06",
      "certificateEndDate": "2003-10-16",
      "object": "\r\nLA REALIZACIÓN DE LAS ACTIVIDADES ESPECÍFICAMENTE ENMARCADAS EN EL DENOMINADO GRUPO \"A\" EN LA ORDEN DE 9 DE AGOSTO DE 1974, por la que se regula el Reglamento del Régimen Jurídico de las Agencias de Viajes (BOE de 26 de septiembre de 1974 -número 231-) ",
      "mainEntityOfPage": "https://www.contratacion.euskadi.eus/webkpe00-kperoc/es/ac71aBusquedaRegistrosWar/empresa/02310",
      "_links": {
        "self": {
          "name": "BILBAO EXPRESS, S.A.",
          "href": "https://api.euskadi.eus/procurements/companies/02310"
        }
      }
    },
    {
      "name": "TEMIS, S.L. DISEÑO GRÁFICO Y EDITORIAL",
      "registrationNumber": "02591",
      "identificationNumber": "B31482888",
      "address": "JOSÉ ERBINA, Nº 11- BAJO",
      "location": {
        "postalCode": "01005",
        "municipality": "Vitoria-Gasteiz",
        "county": "Araba/Álava",
        "municipalityId": "059",
        "countyId": "01"
      },
      "economicActivities": [
        {
          "id": "1.844",
          "name": "Servicios de publicidad, relaciones públicas y similares",
          "_links": {
            "self": {
              "name": "Servicios de publicidad, relaciones públicas y similares",
              "href": "https://api.euskadi.eus/procurements/companies/economic-activities/1.844"
            }
          }
        }
      ],
      "certificateStartDate": "2003-05-06",
      "certificateEndDate": "2003-10-25",
      "object": "EL DISEÑO GRÁFICO Y EDITORIAL, DISEÑO ARTÍSTICO Y POSTERIOR VENTA DE LOS MISMOS",
      "mainEntityOfPage": "https://www.contratacion.euskadi.eus/webkpe00-kperoc/es/ac71aBusquedaRegistrosWar/empresa/02591",
      "_links": {
        "self": {
          "name": "TEMIS, S.L. DISEÑO GRÁFICO Y EDITORIAL",
          "href": "https://api.euskadi.eus/procurements/companies/02591"
        }
      }
    },
    {
      "name": "NABIL DE CUATRO, S.L.",
      "registrationNumber": "02532",
      "identificationNumber": "B95035036",
      "address": "PASEO LANDABARRI, Nº4-2º",
      "location": {
        "postalCode": "48940",
        "municipality": "Leioa",
        "county": "Bizkaia",
        "municipalityId": "054",
        "countyId": "48"
      },
      "economicActivities": [
        {
          "id": "1.501.1",
          "name": "Construcción completa, reparación y conservación de edificaciones",
          "_links": {
            "self": {
              "name": "Construcción completa, reparación y conservación de edificaciones",
              "href": "https://api.euskadi.eus/procurements/companies/economic-activities/1.501.1"
            }
          }
        }
      ],
      "certificateStartDate": "2003-04-04",
      "certificateEndDate": "2003-09-25",
      "object": "a) LA  ADQUISICIÓN Y ENAJENACIÓN POR CUALQUIER TÍTULO DE FINCAS RÚSTICAS Y URBANAS, YA SEAN TIERRAS, SOLARES, EDIFICIOS, LA CONSTRUCCIÓN DE ÉSTOS Y SU ADMINISTRACIÓN, TENENCIA Y EXPLOTACIÓN; LA URBANIZACIÓN Y PARCELACIÓN DE TERRENOS, CONFORME A LOS PLANES DE ORDENACIÓN URBANÍSTICA APROBADOS POR LAS AUTORIDADES COMPETENTES EN LOS POLÍGONOSS Y ZONAS DE ACTUACIÓN QUE AL EFECTO SEAN DESIGNADOS Y LA REPARCELACIÓN DE DICHOS TERRENOS URBANÍSTICOS Y, EN SU CASO, EDIFICACIOINES Y VENTA DE LOS MISMOS O DE LAS EDIFICACIONES Y OBRAS DE URBANIZACIÓN Y SERVICIOS, A CUYO EFECTO, PODRÁ FORMAR PARTE DE ASOCIACIONES DE PROPIETARIOS, EMPRESAS MIXTAS Y ENTIDADES URBANÍSTICAS COLABORADORAS, QUE PUEDAN REGLAMENTARSE A LOS EXPRESADOS FINES; LA PROMOCIÓN Y EJECUCIÓN COMPLETA O POR RAMOS DE TODA CLASE DE OBRAS DE CONSTRUCCIÓN, OBRAS CIVILES, URBANIZACIÓN Y SERVICIOS, REPARACIÓN Y CONSERVACIÓN POR CUENTA PROPIA O AJENA, INCLUSO VIVIENDAS Y LOCALES DE LOS LLAMADOS DE PROTECCIÓN OFICIAL; LA COMPRA-VENTA Y ALQUILER  DE EDIFICACIONES EN SU TOTALIDAD, POR PARTES O POR PISOS, BIEN PARA VIVIENDAS, APARCAMIENTOS, PARA LOCALES DE OFICINAS, DE NEGOCIOS O INDUSTRIALES, CONSTRUIDOS A TAL FIN, DIRECTAMENTE O POR MEDIO DE CONTRATISTAS, SUBCONTRATISTAS Y DESTAJISTAS O BIEN ADQUIRIDOS YA CONSTRUIDOS  O EN SU CONSTRUCCIÓN; LA COMPRA, VENTA, ALMACENAMIENTO, DEPÓSITO Y DISTRIBUCIÓN DE TODO TIPO DE MAQUINARIA Y MATERIALES DE CONSTRUCCIÓN.\r\n\r\nb)LA EXPLOTACIÒN, COMERCIALIZACIÓN, TRATAMIENTO Y CONVERSIÓN DE LA ENERGÍA HIDRÁULICA U OTRAS ENERGÍAS ALTERNATIVAS, BAJO TODO TIPO DE RÉGIMEN O NEGOCIO JURÍDICO, COMO, POR EJEMPLO, BAJO CONCESIÓN ADMINISTRATIVA O PRIVADA, O COMO GESTIÓN DE SERVICIO PÚBLICO O PRIVADO.\r\n\r\nc)LA REDACCIÓN Y ELABORACIÓN DE PROYECTOS DE OBRA, ASÍ COMO LA DIRECCIÓN TÉCNICA Y FACULTATIVA DE TODA CLASE OBRAS DEL SECTOR DE LA CONSTRUCCIÓN.\r\n\r\nLAS ACTIVIDADES INTEGRANTES DEL OBJETO SOCIAL PODRÁN SER DESARROLLADAS POR LA SOCIEDAD DE MODO INDIRECTO, MEDIANTE SU PARTICIPACIÓN EN SOCIEDADES O ENTIDADES CON DISTINTA PERSONALIDAD JURÍDICA.\r\nLA SOCIEDAD  NO DESARROLLARÁ NINGUNA ACTIVIDAD PARA  LA QUE LAS LEYES EXIJAN CONDICIONES O LIMITACIONES ESPECÍFICAS, EN TANTO NO DÉ EXACTO CUMPLIMIENTO A LAS MISMAS.  ",
      "mainEntityOfPage": "https://www.contratacion.euskadi.eus/webkpe00-kperoc/es/ac71aBusquedaRegistrosWar/empresa/02532",
      "_links": {
        "self": {
          "name": "NABIL DE CUATRO, S.L.",
          "href": "https://api.euskadi.eus/procurements/companies/02532"
        }
      }
    },
    {
      "name": "MECALAB, S.L.",
      "registrationNumber": "01763",
      "identificationNumber": "B48242994",
      "address": "POLÍGONO ATXUKARRO, Nº 2.",
      "location": {
        "postalCode": "48480",
        "municipality": "Arrigorriaga",
        "county": "Bizkaia",
        "municipalityId": "011",
        "countyId": "48"
      },
      "economicActivities": [
        {
          "id": "1.463",
          "name": "Fabricación en serie de piezas de carpintería y parquet",
          "_links": {
            "self": {
              "name": "Fabricación en serie de piezas de carpintería y parquet",
              "href": "https://api.euskadi.eus/procurements/companies/economic-activities/1.463"
            }
          }
        }
      ],
      "certificateStartDate": "2003-03-26",
      "certificateEndDate": "2003-09-11",
      "object": "\r\n\r\na) LA FABRICACIÓN, PREPARACIÓN E INSTALACIÓN, PROMOCIÓN Y COMERCIALIZACIÓN DE TODA CLASE DE ARTÍCULOS DE MADERA Y SUS ACCESORIOS.\r\n\r\nb) LA COMPRA, VENTA, AL POR MAYOR Y POR MENOR, DIRECTAMENTE O EN COMISIÓN, IMPORTACIÓN Y EXPORTACIÓN DE TODA CLASE DE ARTÍCULOS DE MADERA.\r\n\r\nc) LA ADQUISICIÓN, TENENCIA Y DISFRUTE, EXPLOTACIÓN, ENAJENACIÓN, DE TODA CLASE DE FINCAS RÚSTICAS O URBANAS CUALQUIERA QUE FUERA SU NATURALEZA.\r\n\r\nd) PROMOCIÓN, CONSTRUCCIÓN, REHABILITACIÓN, REPARACIÓN POR CUENTA PROPIA O AJENA DE TODA CLASE DE OBRAS, URBANIZACIONES, EDIFICIOS Y CONSTRUCCIONES, TANTO PÚBLICOS COMO PRIVADOS.\r\n\r\ne) ASISTENCIA, GESTIÓN, DIRECCIÓN, ADMINISTRACIÓN, PROMOCIÓN, INTERVENCIÓN, PARTICIPACIÓN EN EMPRESAS O EN SU CREACIÓN, CONSTITUCIÓN O DESARROLLO.\r\n\r\nf) PROMOCIÓN, ESTUDIO Y DESARROLLO DE PRODUCTOS Y ACTIVIDADES INDUSTRIALES, COMERCIALES Y DE DISTRIBUCIÓN EN EMPRESAS PROPIAS O PARTICIPADAS Y EXPLOTACIÓN O CESIÓN DE CÁNONES O ROYALTÍES, Y DERECHOS DE PROPIEDAD INDUSTRIAL.\r\n\r\ng) SERVICIOS DE MEDIACIÓN, GESTIÓN, REPRESENTACIÓN Y COMERCIO INTERIOR Y EXTERIOR, ALMACENAMIENTO, ARRENDAMIENTO, Y EN GENERAL COMERCIALIZACIÓN Y DISTRIBUCIÓN DE TODA CLASE DE ARTÍCULOS DE MADERA Y SUS ACCESORIOS",
      "mainEntityOfPage": "https://www.contratacion.euskadi.eus/webkpe00-kperoc/es/ac71aBusquedaRegistrosWar/empresa/01763",
      "_links": {
        "self": {
          "name": "MECALAB, S.L.",
          "href": "https://api.euskadi.eus/procurements/companies/01763"
        }
      }
    }
  ]
}