{
  "totalItems": 9042,
  "totalPages": 905,
  "currentPage": 513,
  "itemsOfPage": 10,
  "items": [
    {
      "name": "I.T. CONSULTING NAHITEK S.L.",
      "registrationNumber": "06284",
      "identificationNumber": "B95266383",
      "address": "C/ Máximo Aguirre 18 bis, 8",
      "location": {
        "postalCode": "48011",
        "municipality": "Bilbao",
        "county": "Bizkaia",
        "municipalityId": "020",
        "countyId": "48"
      },
      "economicActivities": [
        {
          "id": "1.845",
          "name": "Explotación electrónica por cuenta de terceros",
          "_links": {
            "self": {
              "name": "Explotación electrónica por cuenta de terceros",
              "href": "https://api.euskadi.eus/procurements/companies/economic-activities/1.845"
            }
          }
        }
      ],
      "certificateStartDate": "2021-09-27",
      "certificateEndDate": "2022-02-28",
      "object": "A) SERVICIOS DE ASESORAMIENTO, TRADUCCIONES, TRABAJOS DE SECRETARÍA, LABORES DE INTERMEDIACIÓN, ORGANIZACIÓN DE REUNIONES, CONVENCIONES, CONGRESOS Y TRÁMITES CON ADMINISTRACIONES PÚBLICAS Y SUS ORGANISMOS AUTÓNOMOS, EN EL ÁMBITO LOCAL, AUTONÓMICO, NACIONAL E INTERNACIONAL, ASÍ COMO A EMPRESAS Y PARTICULARES. B) LA PRESTACIÓN DE SERVICIOS ADMINISTRATIVOS, INFORMÁTICOS, DE CONSULTORÍA O DE GESTIÓN Y ASESORAMIENTO CONTABLE, JURÍDICO, MERCANTIL, LABORAL O FISCAL, A INSTITUCIONES, ORGANISMOS, EMPRESAS O PARTICULARES. C) LA INFORMATIZACIÓN DE EMPRESAS E INSTITUCIONES PÚBLICAS, COMPRA Y VENTA DE EQUIPOS INFORMÁTICOS, ORDENADORES Y ACCESORIOS, HARDWARE Y SOFTWARE. D) PRESTACIÓN DE SERVICIOS DE DISEÑO, DESARROLLO, IMPLANTACIÓN Y MANTENIMIENTO DE SISTEMAS INFORMÁTICOS, TANTO PARA SUS COMPONENTES HARDWARE COMO SOFTWARE, PARA INSTITUCIONES PÚBLICAS Y EMPRESAS. E) PRESTACIÓN DE SERVICIOS DE ENSEÑANZA Y FORMACIÓN EN EL ÁMBITO DE LA INFORMÁTICA Y DE LAS TECNOLOGÍAS DE LA INFORMACIÓN. F) DISTRIBUCIÓN, REPRESENTACIÓN, COMERCIALIZACIÓN, IMPORTACIÓN Y EXPORTACIÓN DE PRODUCTOS DE SOFTWARE Y HARDWARE Y DE SERVICIOS PERTENECIENTES A OTRAS EMPRESAS, NACIONALES O EXTRANJERAS, DENTRO DEL ÁMBITO DE LA CONSULTORÍA Y DE LOS SERVICIOS INFORMÁTICOS. G) SERVICIOS DE CAPTURA DE INFORMACIÓN POR MEDIOS ELECTRÓNICOS, INFORMÁTICOS Y TELEMÁTICOS. H) SERVICIOS DE DESARROLLO Y MANTENIMIENTO DE PROGRAMAS DE ORDENADOR. I) SERVICIOS DE MANTENIMIENTO Y REPARACIÓN DE EQUIPOS E INSTALACIONES INFORMÁTICOS Y TELECOMUNICACIONES. J) SERVICIOS DE TELECOMUNICACIONES. K) SERVICIOS DE EXPLOTACIÓN Y CONTROL DE SISTEMAS INFORMÁTICOS E INFRAESTRUCTURAS TELEMÁTICAS. L) SERVICIO DE CERTIFICACIÓN ELECTRÓNICA. M) SERVICIOS DE EVALUACIÓN Y CERTIFICACIÓN TECNOLÓGICA. N) OTROS SERVICIOS INFORMÁTICOS O DE TELECOMUNICACIONES. O) SERVICIOS AUXILIARES PARA TRABAJOS ADMINISTRATIVOS DE ARCHIVO Y SIMILARES. P) SERVICIOS DE GESTIÓN DE COBROS (ENTRE OTROS, DE MULTAS, SANCIONES E IMPUESTOS DE LA ADMINISTRACIÓN PÚBLICA Y ENTIDADES LOCALES). Q) ENCUESTAS, TOMA DE DATOS Y SERVICIOS ANÁLOGOS. R) LECTURAS DE CONTADORES. S) ORGANIZACIÓN Y PROMOCIÓN DE CONGRESOS, FERIAS Y EXPOSICIONES. T) SERVICIOS DE PORTERÍA, CONTROL DE ACCESOS E INFORMACIÓN AL PÚBLICO. TALES ACTIVIDADES PODRÁN SER DESARROLLADAS POR LA SOCIEDAD EN FORMA DIRECTA, O BIEN EN CUALESQUIERA OTRAS FORMAS ADMITIDAS EN DERECHO, COMO LA PARTICIPACIÓN EN CALIDAD DE SOCIO EN OTRAS ENTIDADES DE OBJETO IDÉNTICO O ANÁLOGO",
      "mainEntityOfPage": "https://www.contratacion.euskadi.eus/webkpe00-kperoc/es/ac71aBusquedaRegistrosWar/empresa/06284",
      "_links": {
        "self": {
          "name": "I.T. CONSULTING NAHITEK S.L.",
          "href": "https://api.euskadi.eus/procurements/companies/06284"
        }
      }
    },
    {
      "name": "CICOMTEC SISTEMAS, S.L.",
      "registrationNumber": "07913",
      "identificationNumber": "B86212388",
      "address": "C/ Casas de Miravete 24a 1p . Oficina 3.",
      "location": {
        "postalCode": "28031",
        "municipality": "Madrid",
        "county": "Madrid",
        "municipalityId": "079",
        "countyId": "28"
      },
      "economicActivities": [
        {
          "id": "1.615.4",
          "name": "Venta al por mayor de aparatos y material radioeléctrico y electrónico",
          "_links": {
            "self": {
              "name": "Venta al por mayor de aparatos y material radioeléctrico y electrónico",
              "href": "https://api.euskadi.eus/procurements/companies/economic-activities/1.615.4"
            }
          }
        },
        {
          "id": "1.653.2",
          "name": "Venta al por menor de material y aparatos eléctricos, electrodomésticos y cocina",
          "_links": {
            "self": {
              "name": "Venta al por menor de material y aparatos eléctricos, electrodomésticos y cocina",
              "href": "https://api.euskadi.eus/procurements/companies/economic-activities/1.653.2"
            }
          }
        },
        {
          "id": "1.692",
          "name": "Reparación de maquinaria industrial",
          "_links": {
            "self": {
              "name": "Reparación de maquinaria industrial",
              "href": "https://api.euskadi.eus/procurements/companies/economic-activities/1.692"
            }
          }
        }
      ],
      "certificateStartDate": "2021-09-27",
      "certificateEndDate": "2022-03-13",
      "object": "- LA IMPORTACIÓN, DISTRIBUCIÓN, VENTA, EXPORTACIÓN, ALQUILER Y FABRICACIÓN DE MATERIAL ELECTRÓNICO DE SEGURIDAD TALES COMO: SISTEMAS PARA LA PROTECCIÓN DE LAS COMUNICACIONES POR MEDIOS ELECTRÓNICOS EN TODAS SUS MODALIDADES. SISTEMAS PARA LA PROTECCIÓN FÍSICA PERIMETRAL Y DE ACCESOS. SISTEMAS DE POSICIONAMIENTO Y PROTECCIÓN POR MEDIO DE COMUNICACIONES TERRESTRES Y SATÉLITE. SISTEMAS DE GRABACIÓN DE VIDEO Y AUDIO. SISTEMAS DE TRANSMISIÓN DE VIDEO Y AUDIO POR DIFERENTES CANALES DE COMUNICACIÓN TERRESTRE O SATÉLITE. SISTEMAS DE ALMACENAMIENTO DE AUDIO Y TRANSFERENCIA DEL MISMO EN MODO REMOTO. SISTEMAS DE CONTROL Y BLOQUEO DE TELEFONÍA MÓVIL. SISTEMAS DE BLOQUEO DE TELEMANDOS Y MEDIOS DE COMANDO PARA DISPOSITIVOS REMOTOS. SISTEMAS DE MEJORA Y PROCESO DE IMÁGENES DE VIDEO. SISTEMAS DE IDENTIFICACIÓN BASADOS EN FUENTES DE VIDEO ANALÓGICO Y DIGITAL. SISTEMAS DE DETECCIÓN POR MEDIOS ELECTRÓNICOS DE EXPLOSIVOS O SUSTANCIAS PROHIBIDAS. SISTEMAS DE CONTROL Y MONITORIZACIÓN DE REDES DE COMUNICACIONES POR MEDIO DE SONDAS O SOFTWARE DE ANÁLISIS. SISTEMAS DE OBSERVACIÓN Y ANÁLISIS DE LA SUPERFICIE TERRESTRE",
      "mainEntityOfPage": "https://www.contratacion.euskadi.eus/webkpe00-kperoc/es/ac71aBusquedaRegistrosWar/empresa/07913",
      "_links": {
        "self": {
          "name": "CICOMTEC SISTEMAS, S.L.",
          "href": "https://api.euskadi.eus/procurements/companies/07913"
        }
      }
    },
    {
      "name": "BPW TRAPACO, S.L.",
      "registrationNumber": "06833",
      "identificationNumber": "B81567075",
      "address": "calle miguel servet 12",
      "location": {
        "postalCode": "28806",
        "municipality": "Alcalá de Henares",
        "county": "Madrid",
        "municipalityId": "005",
        "countyId": "28"
      },
      "economicActivities": [
        {
          "id": "1.615.1",
          "name": "Venta al por mayor de vehículos, motocicletas, bicicletas y sus accesorios",
          "_links": {
            "self": {
              "name": "Venta al por mayor de vehículos, motocicletas, bicicletas y sus accesorios",
              "href": "https://api.euskadi.eus/procurements/companies/economic-activities/1.615.1"
            }
          }
        },
        {
          "id": "1.654.2",
          "name": "Venta al por menor de accesorios, piezas de recambio de vehículos terrestres",
          "_links": {
            "self": {
              "name": "Venta al por menor de accesorios, piezas de recambio de vehículos terrestres",
              "href": "https://api.euskadi.eus/procurements/companies/economic-activities/1.654.2"
            }
          }
        }
      ],
      "certificateStartDate": "2021-09-27",
      "certificateEndDate": "2022-01-12",
      "object": "-LA INTERMEDIACIÓN, COMISIONAMIENTO, IMPORTACIÓN, EXPORTACIÓN, COMPRAVENTA Y FABRICACIÓN DE RECAMBIOS Y COMPONENTES DE AUTOMÓVILES Y VEHÍCULOS INDUSTRIALES Y DE OBRAS PÚBLICAS, ASÍ COMO DE CUALQUIER OTRO PRODUCTO LÍCITO RELACIONADO CON LO ANTERIOR. -LA IMPORTACIÓN, EXPORTACIÓN, COMERCIALIZACIÓN Y FABRICACIÓN, EN GENERAL DE TECNOLOGÍA, HERRAMIENTAS, MAQUINARIA, RECAMBIOS Y ACCESORIOS, PARA VEHÍCULOS DE TODO TIPO, CON CUANTAS OPERACIONES Y ACTIVIDADES SE RELACIONEN CON DICHO OBJETO. -LA ADQUISICIÓN, EXPLOTACIÓN Y ENAJENACIÓN DE BIENES INMUEBLES",
      "mainEntityOfPage": "https://www.contratacion.euskadi.eus/webkpe00-kperoc/es/ac71aBusquedaRegistrosWar/empresa/06833",
      "_links": {
        "self": {
          "name": "BPW TRAPACO, S.L.",
          "href": "https://api.euskadi.eus/procurements/companies/06833"
        }
      }
    },
    {
      "name": "THINKING FORWARD XXI, S.L.",
      "registrationNumber": "07912",
      "identificationNumber": "B65234601",
      "address": "Calle Torroella de Montgrí 17 Local",
      "location": {
        "postalCode": "08027",
        "municipality": "Barcelona",
        "county": "Barcelona",
        "municipalityId": "019",
        "countyId": "08"
      },
      "economicActivities": [
        {
          "id": "1.849.9",
          "name": "Otros servicios independientes n.c.o.p",
          "_links": {
            "self": {
              "name": "Otros servicios independientes n.c.o.p",
              "href": "https://api.euskadi.eus/procurements/companies/economic-activities/1.849.9"
            }
          }
        }
      ],
      "certificateStartDate": "2021-09-24",
      "certificateEndDate": "2022-03-06",
      "object": "LA INVESTIGACIÓN, DESARROLLO, INNOVACIÓN, APLICACIÓN, CONSULTORÍA CIENTÍFICA Y TECNOLÓGICA, FORMACIÓN, ASISTENCIA TÉCNICA, FABRICACIÓN, COMERCIALIZACIÓN Y PROVEIMIENTO DE PRODUCTO Y SERVICIOS EN RELACIÓN A SISTEMAS DE MANTENIMIENTO PREVENTIVO Y PREDICCIÓN DE AVERÍAS DE MOTORES Y MAQUINARIAS.",
      "mainEntityOfPage": "https://www.contratacion.euskadi.eus/webkpe00-kperoc/es/ac71aBusquedaRegistrosWar/empresa/07912",
      "_links": {
        "self": {
          "name": "THINKING FORWARD XXI, S.L.",
          "href": "https://api.euskadi.eus/procurements/companies/07912"
        }
      }
    },
    {
      "name": "MARTÍNEZ DE QUEL, S.L.",
      "registrationNumber": "07910",
      "identificationNumber": "B26028852",
      "address": "Cm. Valdegastea , 8",
      "location": {
        "postalCode": "26006",
        "municipality": "Logroño",
        "county": "Rioja, La",
        "municipalityId": "089",
        "countyId": "26"
      },
      "economicActivities": [
        {
          "id": "1.612.1",
          "name": "Venta al por mayor de toda clase de productos alimenticios, bebidas, tabaco",
          "_links": {
            "self": {
              "name": "Venta al por mayor de toda clase de productos alimenticios, bebidas, tabaco",
              "href": "https://api.euskadi.eus/procurements/companies/economic-activities/1.612.1"
            }
          }
        },
        {
          "id": "1.612.8",
          "name": "Venta al por mayor de pescados y otros productos de pesca y acuicultura",
          "_links": {
            "self": {
              "name": "Venta al por mayor de pescados y otros productos de pesca y acuicultura",
              "href": "https://api.euskadi.eus/procurements/companies/economic-activities/1.612.8"
            }
          }
        },
        {
          "id": "1.643.1",
          "name": "Venta al por menor de pescados y otros productos de la pesca",
          "_links": {
            "self": {
              "name": "Venta al por menor de pescados y otros productos de la pesca",
              "href": "https://api.euskadi.eus/procurements/companies/economic-activities/1.643.1"
            }
          }
        }
      ],
      "certificateStartDate": "2021-09-24",
      "certificateEndDate": "2022-02-21",
      "object": "LA COMPRAVENTA, AL MAYOR Y MENOR, IMPORTACIÓN Y EXPORTACIÓN DE TODA CLASE DE MERCANCÍAS, YA SEA DIRECTAMENTE O POR REPRESENTACIÓN, Y ESPECIALMENTE, A TÍTULO INDICATIVO DE ARTÍCULOS DE ALIMENTACIÓN",
      "mainEntityOfPage": "https://www.contratacion.euskadi.eus/webkpe00-kperoc/es/ac71aBusquedaRegistrosWar/empresa/07910",
      "_links": {
        "self": {
          "name": "MARTÍNEZ DE QUEL, S.L.",
          "href": "https://api.euskadi.eus/procurements/companies/07910"
        }
      }
    },
    {
      "name": "CONSTRUCCIONES AREZA, S.L.",
      "registrationNumber": "02288",
      "identificationNumber": "B48204465",
      "address": "GOIKO IBARRA, Nº 22",
      "location": {
        "postalCode": "48000",
        "municipality": "Gernika-Lumo",
        "county": "Bizkaia",
        "municipalityId": "046",
        "countyId": "48"
      },
      "economicActivities": [
        {
          "id": "1.501.2",
          "name": "Construcción completa, reparación y conservación obras civiles",
          "_links": {
            "self": {
              "name": "Construcción completa, reparación y conservación obras civiles",
              "href": "https://api.euskadi.eus/procurements/companies/economic-activities/1.501.2"
            }
          }
        },
        {
          "id": "1.507",
          "name": "Construcción, reparación y conservación de toda clase obras",
          "_links": {
            "self": {
              "name": "Construcción, reparación y conservación de toda clase obras",
              "href": "https://api.euskadi.eus/procurements/companies/economic-activities/1.507"
            }
          }
        },
        {
          "id": "1.722",
          "name": "Transporte de mercancías por carretera",
          "_links": {
            "self": {
              "name": "Transporte de mercancías por carretera",
              "href": "https://api.euskadi.eus/procurements/companies/economic-activities/1.722"
            }
          }
        }
      ],
      "certificateStartDate": "2021-09-24",
      "certificateEndDate": "2022-02-11",
      "object": "LA CONSTRUCCIÓN EN GENERAL Y EL TRANSPORTE NACIONAL E INTERNACIONAL DE MERCANCÍAS",
      "mainEntityOfPage": "https://www.contratacion.euskadi.eus/webkpe00-kperoc/es/ac71aBusquedaRegistrosWar/empresa/02288",
      "_links": {
        "self": {
          "name": "CONSTRUCCIONES AREZA, S.L.",
          "href": "https://api.euskadi.eus/procurements/companies/02288"
        }
      }
    },
    {
      "name": "BIGARA EQUIPAMIENTO DE OFICINA, S.L.",
      "registrationNumber": "05792",
      "identificationNumber": "B20731352",
      "address": "PORTUETXE 53 A BAJO",
      "location": {
        "postalCode": "20018",
        "municipality": "Donostia / San Sebastián",
        "county": "Gipuzkoa",
        "municipalityId": "069",
        "countyId": "20"
      },
      "economicActivities": [
        {
          "id": "1.501.1",
          "name": "Construcción completa, reparación y conservación de edificaciones",
          "_links": {
            "self": {
              "name": "Construcción completa, reparación y conservación de edificaciones",
              "href": "https://api.euskadi.eus/procurements/companies/economic-activities/1.501.1"
            }
          }
        },
        {
          "id": "1.653.1",
          "name": "Venta al por menor de muebles (excepto los de oficina)",
          "_links": {
            "self": {
              "name": "Venta al por menor de muebles (excepto los de oficina)",
              "href": "https://api.euskadi.eus/procurements/companies/economic-activities/1.653.1"
            }
          }
        },
        {
          "id": "1.659.2",
          "name": "Venta al por menor de muebles de oficina y máquinas y equipos de oficina",
          "_links": {
            "self": {
              "name": "Venta al por menor de muebles de oficina y máquinas y equipos de oficina",
              "href": "https://api.euskadi.eus/procurements/companies/economic-activities/1.659.2"
            }
          }
        }
      ],
      "certificateStartDate": "2021-09-23",
      "certificateEndDate": "2022-03-23",
      "object": "LA COMERCIALIZACIÓN, VENTA, PRESTACIÓN DE SERVICIOS, ASESORAMIENTO Y TODAS AQUELLAS ACTIVIDADES RELACIONADAS CON EL EQUIPAMIENTO DE MATERIAL, MOBILIARIO Y DECORACIÓN DE OFICINAS, LOCALES, PABELLONES, VIVIENDAS E INMUEBLES EN GENERAL",
      "mainEntityOfPage": "https://www.contratacion.euskadi.eus/webkpe00-kperoc/es/ac71aBusquedaRegistrosWar/empresa/05792",
      "_links": {
        "self": {
          "name": "BIGARA EQUIPAMIENTO DE OFICINA, S.L.",
          "href": "https://api.euskadi.eus/procurements/companies/05792"
        }
      }
    },
    {
      "name": "SPORA INGURUMEN ZERBITZUAK, S.L.",
      "registrationNumber": "05958",
      "identificationNumber": "B75043125",
      "address": "Polígono Akarregi, P-4-A",
      "location": {
        "postalCode": "20120",
        "municipality": "Hernani",
        "county": "Gipuzkoa",
        "municipalityId": "040",
        "countyId": "20"
      },
      "economicActivities": [
        {
          "id": "1.849.9",
          "name": "Otros servicios independientes n.c.o.p",
          "_links": {
            "self": {
              "name": "Otros servicios independientes n.c.o.p",
              "href": "https://api.euskadi.eus/procurements/companies/economic-activities/1.849.9"
            }
          }
        }
      ],
      "certificateStartDate": "2021-09-23",
      "certificateEndDate": "2022-03-23",
      "object": "LA RESTAURACIÓN DEL PATRIMONIO NATURAL; ESTUDIOS Y APLICACIONES DE SISTEMAS DE GESTIÓN AMBIENTAL PARA ADMINISTRACIONES PÚBLICAS Y EMPRESAS PRIVADAS; GESTIÓN AMBIENTAL EN EL ÁMBITO MUNICIPAL; ELABORACIÓN DE PLANES DE PROTECCIÓN CIVIL; ELABORACIÓN DE LA AGENDA 21 PARA MUNICIPIOS; ESTUDIOS DE IMPACTO AMBIENTAL; DIRECCIÓN Y EJECUCIÓN DE PROYECTOS DE INGENIERÍA AMBIENTAL; DIRECCIÓN Y EJECUCIÓN DE PROYECTOS FORESTALES; GESTIÓN DE RESIDUOS; EMISIÓN DE CURSOS DE FORMACIÓN MEDIOAMBIENTAL; AUDITORÍAS MEDIOAMBIENTALES; FABRICACIÓN, COMPRA-VENTA, DISTRIBUCIÓN DE PRODUCTOS Y ARTÍCULOS RELACIONADOS CON EL OBJETO SOCIAL",
      "mainEntityOfPage": "https://www.contratacion.euskadi.eus/webkpe00-kperoc/es/ac71aBusquedaRegistrosWar/empresa/05958",
      "_links": {
        "self": {
          "name": "SPORA INGURUMEN ZERBITZUAK, S.L.",
          "href": "https://api.euskadi.eus/procurements/companies/05958"
        }
      }
    },
    {
      "name": "GVB-SPES ESPO S.L.",
      "registrationNumber": "06009",
      "identificationNumber": "B98938541",
      "address": "AV.MARE NOSTRUM 7 PTA 3-4 LOCAL BC3-4",
      "location": {
        "postalCode": "46120",
        "municipality": "Alboraia/Alboraya",
        "county": "Valencia/València",
        "municipalityId": "013",
        "countyId": "46"
      },
      "economicActivities": [
        {
          "id": "1.619.2",
          "name": "Venta al por mayor de aparatos e instrumentos médicos, ortopédicos, ópticos",
          "_links": {
            "self": {
              "name": "Venta al por mayor de aparatos e instrumentos médicos, ortopédicos, ópticos",
              "href": "https://api.euskadi.eus/procurements/companies/economic-activities/1.619.2"
            }
          }
        }
      ],
      "certificateStartDate": "2021-09-22",
      "certificateEndDate": "2022-03-22",
      "object": "A) COMERCIO AL POR MAYOR DE OTRA MAQUINARIA Y EQUIPO. B) COMERCIALIZACIÓN DE PRODUCTOS MÉDICOS",
      "mainEntityOfPage": "https://www.contratacion.euskadi.eus/webkpe00-kperoc/es/ac71aBusquedaRegistrosWar/empresa/06009",
      "_links": {
        "self": {
          "name": "GVB-SPES ESPO S.L.",
          "href": "https://api.euskadi.eus/procurements/companies/06009"
        }
      }
    },
    {
      "name": "ASESORIA TORREALDAY, S.A..",
      "registrationNumber": "07389",
      "identificationNumber": "A48163562",
      "address": "Carlos Gangoiti, 28 bajo",
      "location": {
        "postalCode": "48300",
        "municipality": "Gernika-Lumo",
        "county": "Bizkaia",
        "municipalityId": "046",
        "countyId": "48"
      },
      "economicActivities": [
        {
          "id": "1.842",
          "name": "Servicios financieros y contables",
          "_links": {
            "self": {
              "name": "Servicios financieros y contables",
              "href": "https://api.euskadi.eus/procurements/companies/economic-activities/1.842"
            }
          }
        }
      ],
      "certificateStartDate": "2021-09-22",
      "certificateEndDate": "2022-03-20",
      "object": "ASESORÍA FISCAL, CONTABLE Y FINANCIERA",
      "mainEntityOfPage": "https://www.contratacion.euskadi.eus/webkpe00-kperoc/es/ac71aBusquedaRegistrosWar/empresa/07389",
      "_links": {
        "self": {
          "name": "ASESORIA TORREALDAY, S.A..",
          "href": "https://api.euskadi.eus/procurements/companies/07389"
        }
      }
    }
  ]
}