{
  "totalItems": 9042,
  "totalPages": 905,
  "currentPage": 839,
  "itemsOfPage": 10,
  "items": [
    {
      "name": "ASOCIACIÓN PARA EL DESARROLLO DE PROYECTOS DE INTERV. SOCIAL \"BETA\"",
      "registrationNumber": "02008",
      "identificationNumber": "G01162700",
      "address": "PZA. GERARDO ARMESTO, S/N",
      "location": {
        "postalCode": "01008",
        "municipality": "Vitoria-Gasteiz",
        "county": "Araba/Álava",
        "municipalityId": "059",
        "countyId": "01"
      },
      "object": "1. REALIZAR ESTUDIOS SOBRE LA FAMILIA Y LA INTERVENCIÓN FAMILIAR.\r\n2. PROMOVER EL RECONOCIMIENTO DE LA IMPORTANCIA DE LA FAMILIA EN EL DESARROLLO DE UNA SOCIEDAD SANA.\r\n3. PROCURAR ATENCIÓN ESPECIALIZADA A AQUELLAS FAMILIAS QUE LO NECESITEN Y DEMANDEN.\r\n4. CONSEGUIR QUE LAS ADMINISTRACIONES PÚBLICAS SEAN SENSIBLES A LAS NECESIDADES DE PROTECCIÓN DE LA FAMILIA, EN ESPECIAL A SUS MIEMBROS MÁS VULNERABLES, Y PROCUREN LOS RECURSOS ADECUADOS PARA ELLOS.\r\n5. DISEÑAR Y DESARROLLAR PROGRAMAS DE INTERVENCIÓN CON MENORES.\r\n6. DISEÑAR, DESARROLLAR Y EVALUAR PROGRAMAS DE INTEVENCIÓN SOCIAL.\r\n7. PROMOVER Y DESARROLLAR LÍNEAS DE FORMACIÓN COMPATIBLES CON LOS OBJETIVOS QUE ANTECEDEN.\r\n",
      "mainEntityOfPage": "https://www.contratacion.euskadi.eus/webkpe00-kperoc/es/ac71aBusquedaRegistrosWar/empresa/02008",
      "_links": {
        "self": {
          "name": "ASOCIACIÓN PARA EL DESARROLLO DE PROYECTOS DE INTERV. SOCIAL \"BETA\"",
          "href": "https://api.euskadi.eus/procurements/companies/02008"
        }
      }
    },
    {
      "name": "SIRIMIRI, SERVICIOS SOCIO-CULTURALES, S.L.",
      "registrationNumber": "02059",
      "identificationNumber": "B01212463",
      "address": "C/ ZAPATERIA, 77 - BAJO",
      "location": {
        "postalCode": "01001",
        "municipality": "Vitoria-Gasteiz",
        "county": "Araba/Álava",
        "municipalityId": "059",
        "countyId": "01"
      },
      "object": "PRESTACIÓN DE SERVICIOS SOCIO-CULTURALES, CON ESPECIAL INCIDENCIA EL DE LA TERCERA EDAD.\r\n",
      "mainEntityOfPage": "https://www.contratacion.euskadi.eus/webkpe00-kperoc/es/ac71aBusquedaRegistrosWar/empresa/02059",
      "_links": {
        "self": {
          "name": "SIRIMIRI, SERVICIOS SOCIO-CULTURALES, S.L.",
          "href": "https://api.euskadi.eus/procurements/companies/02059"
        }
      }
    },
    {
      "name": "JOSEBA ARAMBURU LOITEGUI",
      "registrationNumber": "02094",
      "identificationNumber": "44147345H",
      "address": "C/ LAS DUNAS, Nº 3 - 2º IZDA.",
      "location": {
        "postalCode": "20002",
        "municipality": "Donostia / San Sebastián",
        "county": "Gipuzkoa",
        "municipalityId": "069",
        "countyId": "20"
      },
      "object": "PENDIENTE\r\n",
      "mainEntityOfPage": "https://www.contratacion.euskadi.eus/webkpe00-kperoc/es/ac71aBusquedaRegistrosWar/empresa/02094",
      "_links": {
        "self": {
          "name": "JOSEBA ARAMBURU LOITEGUI",
          "href": "https://api.euskadi.eus/procurements/companies/02094"
        }
      }
    },
    {
      "name": "ESQUERON, S.L.L.",
      "registrationNumber": "02131",
      "identificationNumber": "B50739531",
      "address": "C/ SAN MIGUEL, Nº 19",
      "location": {
        "postalCode": "50001",
        "municipality": "Zaragoza",
        "county": "Zaragoza",
        "municipalityId": "297",
        "countyId": "50"
      },
      "object": "PENDIENTE",
      "mainEntityOfPage": "https://www.contratacion.euskadi.eus/webkpe00-kperoc/es/ac71aBusquedaRegistrosWar/empresa/02131",
      "_links": {
        "self": {
          "name": "ESQUERON, S.L.L.",
          "href": "https://api.euskadi.eus/procurements/companies/02131"
        }
      }
    },
    {
      "name": "CONSTRUCCIONES BIDEGI, S.L.",
      "registrationNumber": "02153",
      "identificationNumber": "B01269901",
      "address": "C/ ARTAPADURA, 13",
      "location": {
        "postalCode": "01013",
        "municipality": "Vitoria-Gasteiz",
        "county": "Araba/Álava",
        "municipalityId": "059",
        "countyId": "01"
      },
      "object": "PENDIENTE",
      "mainEntityOfPage": "https://www.contratacion.euskadi.eus/webkpe00-kperoc/es/ac71aBusquedaRegistrosWar/empresa/02153",
      "_links": {
        "self": {
          "name": "CONSTRUCCIONES BIDEGI, S.L.",
          "href": "https://api.euskadi.eus/procurements/companies/02153"
        }
      }
    },
    {
      "name": "BERZIK INGENIERÍA EN RECUPERACIÓN DE ENVASES, S.L.",
      "registrationNumber": "02169",
      "identificationNumber": "B20578357",
      "address": "LEGAZPIKO INDUSTRIALDEA, Nº 27 - 28.",
      "location": {
        "postalCode": "20230",
        "municipality": "Legazpi",
        "county": "Gipuzkoa",
        "municipalityId": "051",
        "countyId": "20"
      },
      "object": "PENDIENTE",
      "mainEntityOfPage": "https://www.contratacion.euskadi.eus/webkpe00-kperoc/es/ac71aBusquedaRegistrosWar/empresa/02169",
      "_links": {
        "self": {
          "name": "BERZIK INGENIERÍA EN RECUPERACIÓN DE ENVASES, S.L.",
          "href": "https://api.euskadi.eus/procurements/companies/02169"
        }
      }
    },
    {
      "name": "ASOCIACIÓN EDUCATIVA PARA MENORES EN RIESGO \"GAZTAROAN EKIN\"",
      "registrationNumber": "02170",
      "identificationNumber": "G01191576",
      "address": "C/ SANCHO EL SABIO,  Nº 8 - 4º DCHA.",
      "location": {
        "postalCode": "01008",
        "municipality": "Vitoria-Gasteiz",
        "county": "Araba/Álava",
        "municipalityId": "059",
        "countyId": "01"
      },
      "object": "PENDIENTE",
      "mainEntityOfPage": "https://www.contratacion.euskadi.eus/webkpe00-kperoc/es/ac71aBusquedaRegistrosWar/empresa/02170",
      "_links": {
        "self": {
          "name": "ASOCIACIÓN EDUCATIVA PARA MENORES EN RIESGO \"GAZTAROAN EKIN\"",
          "href": "https://api.euskadi.eus/procurements/companies/02170"
        }
      }
    },
    {
      "name": "FUNDACIÓN PEÑASCAL",
      "registrationNumber": "02171",
      "identificationNumber": "G48537518",
      "address": "PL. BELATEGI, Nº 1 - BAJO",
      "location": {
        "postalCode": "48002",
        "municipality": "Bilbao",
        "county": "Bizkaia",
        "municipalityId": "020",
        "countyId": "48"
      },
      "object": "pendiente",
      "mainEntityOfPage": "https://www.contratacion.euskadi.eus/webkpe00-kperoc/es/ac71aBusquedaRegistrosWar/empresa/02171",
      "_links": {
        "self": {
          "name": "FUNDACIÓN PEÑASCAL",
          "href": "https://api.euskadi.eus/procurements/companies/02171"
        }
      }
    },
    {
      "name": "FRANCISCO JAVIER RIVAS, S.L.",
      "registrationNumber": "02192",
      "identificationNumber": "B48139323",
      "address": "C/ SANTA CLARA, Nº 9 - BAJO A.",
      "location": {
        "postalCode": "48006",
        "municipality": "Bilbao",
        "county": "Bizkaia",
        "municipalityId": "020",
        "countyId": "48"
      },
      "object": "PENDIENTE",
      "mainEntityOfPage": "https://www.contratacion.euskadi.eus/webkpe00-kperoc/es/ac71aBusquedaRegistrosWar/empresa/02192",
      "_links": {
        "self": {
          "name": "FRANCISCO JAVIER RIVAS, S.L.",
          "href": "https://api.euskadi.eus/procurements/companies/02192"
        }
      }
    },
    {
      "name": "HAIZEA BARRIKA CONSTRUCCIONES, S.A.",
      "registrationNumber": "02193",
      "identificationNumber": "A48864649",
      "address": "PL. LANDABASO, Nº 6 - 1º",
      "location": {
        "postalCode": "48015",
        "municipality": "Bilbao",
        "county": "Bizkaia",
        "municipalityId": "020",
        "countyId": "48"
      },
      "object": "PENDIENTE",
      "mainEntityOfPage": "https://www.contratacion.euskadi.eus/webkpe00-kperoc/es/ac71aBusquedaRegistrosWar/empresa/02193",
      "_links": {
        "self": {
          "name": "HAIZEA BARRIKA CONSTRUCCIONES, S.A.",
          "href": "https://api.euskadi.eus/procurements/companies/02193"
        }
      }
    }
  ]
}