{
  "totalItems": 9042,
  "totalPages": 905,
  "currentPage": 628,
  "itemsOfPage": 10,
  "items": [
    {
      "name": "JAKIMATIK, S.L.",
      "registrationNumber": "05815",
      "identificationNumber": "B75073510",
      "address": "IZOTZALDE, 42",
      "location": {
        "postalCode": "20492",
        "municipality": "Berastegi",
        "county": "Gipuzkoa",
        "municipalityId": "022",
        "countyId": "20"
      },
      "economicActivities": [
        {
          "id": "1.345.1",
          "name": "Fabricación de cocinas, hornos, placas y otros aparatos eléctricos de cocina",
          "_links": {
            "self": {
              "name": "Fabricación de cocinas, hornos, placas y otros aparatos eléctricos de cocina",
              "href": "https://api.euskadi.eus/procurements/companies/economic-activities/1.345.1"
            }
          }
        }
      ],
      "certificateStartDate": "2018-07-13",
      "certificateEndDate": "2018-11-23",
      "object": "LA FABRICACIÓN, COMERCIALIZACIÓN Y SERVICIO DE ASISTENCIA TÉCNICA DE TODO TIPO DE MÁQUINAS DE PLANCHAS DE COCINA INDUSTRIALES, DE PLANCHAS DE COCINA DE GAMA BLANCA, DE MÁQUINAS DE TIPO VENDING, DE TARJETAS PCB, DE MONEDEROS, TERMOSTATOS, RESISTENCIAS Y PULSADORES; LA FABRICACIÓN, COMERCIALIZACIÓN Y SERVICIO DE ASISTENCIA TÉCNICA DE ARTÍCULOS DE MENAJE; LA COMPRAVENTA Y ALQUILER DE TODO TIPO DE MAQUINARIA; LA EXPORTACIÓN E IMPORTACIÓN DE MAQUINARIA; LA COMPRAVENTA DE COMIDA.",
      "mainEntityOfPage": "https://www.contratacion.euskadi.eus/webkpe00-kperoc/es/ac71aBusquedaRegistrosWar/empresa/05815",
      "_links": {
        "self": {
          "name": "JAKIMATIK, S.L.",
          "href": "https://api.euskadi.eus/procurements/companies/05815"
        }
      }
    },
    {
      "name": "DATINET SOLUCIONES INFORMATICAS, S.L.",
      "registrationNumber": "03267",
      "identificationNumber": "B95305579",
      "address": "PLAZA PABLO RUIZ PICASSO, 1 (TORRE PICASSO)",
      "location": {
        "postalCode": "28020",
        "municipality": "Madrid",
        "county": "Madrid",
        "municipalityId": "079",
        "countyId": "28"
      },
      "economicActivities": [
        {
          "id": "1.845",
          "name": "Explotación electrónica por cuenta de terceros",
          "_links": {
            "self": {
              "name": "Explotación electrónica por cuenta de terceros",
              "href": "https://api.euskadi.eus/procurements/companies/economic-activities/1.845"
            }
          }
        }
      ],
      "certificateStartDate": "2018-07-06",
      "certificateEndDate": "2014-04-01",
      "object": "LOS SERVICIOS INFORMÁTICOS DE TODO TIPO. TAL ACTVIDAD PODRÁ SER REALIZADA POR LA SOCIEDAD YA DIRECTAMENTE, YA INDIRECTAMENTE, MEDIANTE LA TITULARIDAD DE ACCIONES O PARTICIPACIONES EN SOCIEDADES DE OBJETO ANÁLOGO  O MEDIANTE CUALESQUIERA OTRAS FORMAS ADMITIDAS EN DERECHO",
      "mainEntityOfPage": "https://www.contratacion.euskadi.eus/webkpe00-kperoc/es/ac71aBusquedaRegistrosWar/empresa/03267",
      "_links": {
        "self": {
          "name": "DATINET SOLUCIONES INFORMATICAS, S.L.",
          "href": "https://api.euskadi.eus/procurements/companies/03267"
        }
      }
    },
    {
      "name": "IPURU, S.L.",
      "registrationNumber": "00990",
      "identificationNumber": "B20334728",
      "address": "C/ AVENIDA DE LA LIBERTAD, Nº 7 - 4º F.",
      "location": {
        "postalCode": "20004",
        "municipality": "Donostia / San Sebastián",
        "county": "Gipuzkoa",
        "municipalityId": "069",
        "countyId": "20"
      },
      "economicActivities": [
        {
          "id": "1.501.1",
          "name": "Construcción completa, reparación y conservación de edificaciones",
          "_links": {
            "self": {
              "name": "Construcción completa, reparación y conservación de edificaciones",
              "href": "https://api.euskadi.eus/procurements/companies/economic-activities/1.501.1"
            }
          }
        },
        {
          "id": "1.501.2",
          "name": "Construcción completa, reparación y conservación obras civiles",
          "_links": {
            "self": {
              "name": "Construcción completa, reparación y conservación obras civiles",
              "href": "https://api.euskadi.eus/procurements/companies/economic-activities/1.501.2"
            }
          }
        },
        {
          "id": "1.833.2",
          "name": "Promoción de edificaciones",
          "_links": {
            "self": {
              "name": "Promoción de edificaciones",
              "href": "https://api.euskadi.eus/procurements/companies/economic-activities/1.833.2"
            }
          }
        }
      ],
      "certificateStartDate": "2018-07-05",
      "certificateEndDate": "2018-11-30",
      "object": "LA EJECUCIÓN DE OBRAS INMOBILIARIAS DE URBANIZACIÓN, EDIFICACIÓN Y REFORMA",
      "mainEntityOfPage": "https://www.contratacion.euskadi.eus/webkpe00-kperoc/es/ac71aBusquedaRegistrosWar/empresa/00990",
      "_links": {
        "self": {
          "name": "IPURU, S.L.",
          "href": "https://api.euskadi.eus/procurements/companies/00990"
        }
      }
    },
    {
      "name": "PEDRO MORAL RUEDA",
      "registrationNumber": "05809",
      "identificationNumber": "16515843A",
      "address": "GRAN VIA JUAN CARLOS I, Nº 14, PISO 18º A",
      "location": {
        "postalCode": "26002",
        "municipality": "Logroño",
        "county": "Rioja, La",
        "municipalityId": "089",
        "countyId": "26"
      },
      "economicActivities": [
        {
          "id": "2.411",
          "name": "Arquitectos",
          "_links": {
            "self": {
              "name": "Arquitectos",
              "href": "https://api.euskadi.eus/procurements/companies/economic-activities/2.411"
            }
          }
        }
      ],
      "certificateStartDate": "2018-07-04",
      "certificateEndDate": "2018-12-05",
      "object": "PRESTACION DE SERVICIOS TECNICOS DE ARQUITECTURA Y URBANISMO",
      "mainEntityOfPage": "https://www.contratacion.euskadi.eus/webkpe00-kperoc/es/ac71aBusquedaRegistrosWar/empresa/05809",
      "_links": {
        "self": {
          "name": "PEDRO MORAL RUEDA",
          "href": "https://api.euskadi.eus/procurements/companies/05809"
        }
      }
    },
    {
      "name": "EMAUS BILBAO SOCIEDAD COOPERATIVA DE INICIATIVA SOCIAL",
      "registrationNumber": "03604",
      "identificationNumber": "F48927123",
      "address": "AVDA. SABINO ARANA, 42 - BAJO",
      "location": {
        "postalCode": "48013",
        "municipality": "Bilbao",
        "county": "Bizkaia",
        "municipalityId": "020",
        "countyId": "48"
      },
      "economicActivities": [
        {
          "id": "1.691.2",
          "name": "Reparación de vehículos automóviles, bicicletas y otros vehículos",
          "_links": {
            "self": {
              "name": "Reparación de vehículos automóviles, bicicletas y otros vehículos",
              "href": "https://api.euskadi.eus/procurements/companies/economic-activities/1.691.2"
            }
          }
        },
        {
          "id": "1.849.7",
          "name": "Servicios de gestión administrativa",
          "_links": {
            "self": {
              "name": "Servicios de gestión administrativa",
              "href": "https://api.euskadi.eus/procurements/companies/economic-activities/1.849.7"
            }
          }
        },
        {
          "id": "1.932.1",
          "name": "Enseñanza de formación y perfeccionamiento profesional no superior",
          "_links": {
            "self": {
              "name": "Enseñanza de formación y perfeccionamiento profesional no superior",
              "href": "https://api.euskadi.eus/procurements/companies/economic-activities/1.932.1"
            }
          }
        },
        {
          "id": "1.934",
          "name": "Enseñanza fuera de establecimiento permanente",
          "_links": {
            "self": {
              "name": "Enseñanza fuera de establecimiento permanente",
              "href": "https://api.euskadi.eus/procurements/companies/economic-activities/1.934"
            }
          }
        },
        {
          "id": "1.952",
          "name": "Asistencia y servicios sociales en centros no residenciales",
          "_links": {
            "self": {
              "name": "Asistencia y servicios sociales en centros no residenciales",
              "href": "https://api.euskadi.eus/procurements/companies/economic-activities/1.952"
            }
          }
        }
      ],
      "certificateStartDate": "2018-06-28",
      "certificateEndDate": "2018-11-04",
      "object": "LA RECUPERACIÓN Y COMERCIO DE TODO TIPO DE DESPERDICIOS, A TRAVÉS DE CUYA ACTIVIDAD SE PRETENCDE LA INTEGRACIÓN SOCIAL Y LABORAL DE COLECTIVOS DESFAVORECIDOS. PARA ELLO, SE CONSTITUYE SIN ÁNIMO DE LUCRO; LA PROMOCIÓN Y/O IMPLANTACIÓN, EN CUALQUIERA DE LOS ÁMBITOS QUE PARA ELLO FUERA NECESARIO, DE NUEVAS INICIATIVAS PRODUCTIVAS O ASISTENCIALES, CON CARÁCTER DEPENDIENTE O AUTÓNOMO, DESTINADAS A FAVORECER LA INSERCIÓN SOCIAL Y/O LABORAL DE PERSONAS EN SISTUACIONES DE EXCLUSIÓN O EN RIESGO DE ELLA; EL DESARROLLO DE ACTIVIDADES PRODUCTIVAS Y/O ASISTENCIALES CUALESQUIERA SEAN SU TIPOLOGÍA QUE APOYEN LA CONSECUCIÓN DE OBJETIVOS DE INSERCIÓN SOCIAL Y/O LABORAL DE PERSONAS PERTENECIENTES A COLECTIVOS \r\nDESFAVORECIDOS\r\nEL DESARROLLO Y PRESTACIÓN DE SERVICIOS DE MOVILIDAD SOSTENIBLE, INCLUYÉNDOSE ENTRE OTRAS EL MANTENIMIENTO Y SERVICIO DE PRÉSTAMO DE BICLICLETAS, ASÍ COMO OTROS SOPORTES AUTOMÁTICOS O NO, QUE PROMUEVAN EL TRANSPORTE NO CONTAMINANTE",
      "mainEntityOfPage": "https://www.contratacion.euskadi.eus/webkpe00-kperoc/es/ac71aBusquedaRegistrosWar/empresa/03604",
      "_links": {
        "self": {
          "name": "EMAUS BILBAO SOCIEDAD COOPERATIVA DE INICIATIVA SOCIAL",
          "href": "https://api.euskadi.eus/procurements/companies/03604"
        }
      }
    },
    {
      "name": "CONSTRUCCIONES NIGURKO, S.L.",
      "registrationNumber": "04242",
      "identificationNumber": "B20559456",
      "address": "POL. IND. 110 - C/ IPINTZA, 39",
      "location": {
        "postalCode": "20100",
        "municipality": "Lezo",
        "county": "Gipuzkoa",
        "municipalityId": "053",
        "countyId": "20"
      },
      "economicActivities": [
        {
          "id": "1.501.1",
          "name": "Construcción completa, reparación y conservación de edificaciones",
          "_links": {
            "self": {
              "name": "Construcción completa, reparación y conservación de edificaciones",
              "href": "https://api.euskadi.eus/procurements/companies/economic-activities/1.501.1"
            }
          }
        }
      ],
      "certificateStartDate": "2018-06-25",
      "certificateEndDate": "2018-10-26",
      "object": "LOS TRABAJOS DE ALBAÑILERÍA EN GENERAL, ASÍ COMO LA REALIZACIÓN POR CUENTA AJENA DE OBRAS Y REFORMAS EN TODA CLASE DE EDIFICACIONES",
      "mainEntityOfPage": "https://www.contratacion.euskadi.eus/webkpe00-kperoc/es/ac71aBusquedaRegistrosWar/empresa/04242",
      "_links": {
        "self": {
          "name": "CONSTRUCCIONES NIGURKO, S.L.",
          "href": "https://api.euskadi.eus/procurements/companies/04242"
        }
      }
    },
    {
      "name": "INDUSTRIAS TÉCNICAS ITC, S.L.",
      "registrationNumber": "02026",
      "identificationNumber": "B48918486",
      "address": "ISLAS CANARIAS, 69 -3ºP",
      "location": {
        "postalCode": "48015",
        "municipality": "Bilbao",
        "county": "Bizkaia",
        "municipalityId": "020",
        "countyId": "48"
      },
      "economicActivities": [
        {
          "id": "1.692",
          "name": "Reparación de maquinaria industrial",
          "_links": {
            "self": {
              "name": "Reparación de maquinaria industrial",
              "href": "https://api.euskadi.eus/procurements/companies/economic-activities/1.692"
            }
          }
        }
      ],
      "certificateStartDate": "2018-06-21",
      "certificateEndDate": "2018-11-02",
      "object": "LA SOCIEDAD TIENE POR OBJETO LA FABRICACIÓN, COMERCIALIZACIÓN Y REPARACIÓN DE TODO TIPO DE MAQUINARIA ELECTRÓNICA, ASÍ COMO LA ADQUISICIÓN DE BIENES INMUEBLES\r\n",
      "mainEntityOfPage": "https://www.contratacion.euskadi.eus/webkpe00-kperoc/es/ac71aBusquedaRegistrosWar/empresa/02026",
      "_links": {
        "self": {
          "name": "INDUSTRIAS TÉCNICAS ITC, S.L.",
          "href": "https://api.euskadi.eus/procurements/companies/02026"
        }
      }
    },
    {
      "name": "FERNANDO ZALDO SAIZ",
      "registrationNumber": "05797",
      "identificationNumber": "71263595G",
      "address": "OLAGUIBEL 54 2º DCHA",
      "location": {
        "postalCode": "01003",
        "municipality": "Vitoria-Gasteiz",
        "county": "Araba/Álava",
        "municipalityId": "059",
        "countyId": "01"
      },
      "economicActivities": [
        {
          "id": "1.612.2",
          "name": "Venta al por mayor de cereales",
          "_links": {
            "self": {
              "name": "Venta al por mayor de cereales",
              "href": "https://api.euskadi.eus/procurements/companies/economic-activities/1.612.2"
            }
          }
        },
        {
          "id": "1.617.3",
          "name": "Venta al por mayor de madera y corcho",
          "_links": {
            "self": {
              "name": "Venta al por mayor de madera y corcho",
              "href": "https://api.euskadi.eus/procurements/companies/economic-activities/1.617.3"
            }
          }
        },
        {
          "id": "1.911",
          "name": "Servicios agrícolas y ganaderos",
          "_links": {
            "self": {
              "name": "Servicios agrícolas y ganaderos",
              "href": "https://api.euskadi.eus/procurements/companies/economic-activities/1.911"
            }
          }
        },
        {
          "id": "1.912",
          "name": "Servicios forestales",
          "_links": {
            "self": {
              "name": "Servicios forestales",
              "href": "https://api.euskadi.eus/procurements/companies/economic-activities/1.912"
            }
          }
        }
      ],
      "certificateStartDate": "2018-06-20",
      "certificateEndDate": "2018-11-24",
      "object": "SERVICIOS AGRÍCOLAS Y GANADEROS",
      "mainEntityOfPage": "https://www.contratacion.euskadi.eus/webkpe00-kperoc/es/ac71aBusquedaRegistrosWar/empresa/05797",
      "_links": {
        "self": {
          "name": "FERNANDO ZALDO SAIZ",
          "href": "https://api.euskadi.eus/procurements/companies/05797"
        }
      }
    },
    {
      "name": "OFTALTECH, S.A.",
      "registrationNumber": "02600",
      "identificationNumber": "A61498036",
      "address": "C/ MARTIRES CONCEPCIONISTAS, 19-21",
      "location": {
        "postalCode": "28006",
        "municipality": "Madrid",
        "county": "Madrid",
        "municipalityId": "079",
        "countyId": "28"
      },
      "economicActivities": [
        {
          "id": "1.619.2",
          "name": "Venta al por mayor de aparatos e instrumentos médicos, ortopédicos, ópticos",
          "_links": {
            "self": {
              "name": "Venta al por mayor de aparatos e instrumentos médicos, ortopédicos, ópticos",
              "href": "https://api.euskadi.eus/procurements/companies/economic-activities/1.619.2"
            }
          }
        }
      ],
      "certificateStartDate": "2018-06-18",
      "certificateEndDate": "2018-11-28",
      "object": "LA VENTA Y DISTRIBUCIÓN AL DETALLE Y AL MAYOR DE MATERIAL MÉDICO",
      "mainEntityOfPage": "https://www.contratacion.euskadi.eus/webkpe00-kperoc/es/ac71aBusquedaRegistrosWar/empresa/02600",
      "_links": {
        "self": {
          "name": "OFTALTECH, S.A.",
          "href": "https://api.euskadi.eus/procurements/companies/02600"
        }
      }
    },
    {
      "name": "NOVICO MÉDICA, S.A.",
      "registrationNumber": "01757",
      "identificationNumber": "A60921400",
      "address": "C/ VENEZUELA, Nº 122",
      "location": {
        "postalCode": "08019",
        "municipality": "Barcelona",
        "county": "Barcelona",
        "municipalityId": "019",
        "countyId": "08"
      },
      "economicActivities": [
        {
          "id": "1.619.2",
          "name": "Venta al por mayor de aparatos e instrumentos médicos, ortopédicos, ópticos",
          "_links": {
            "self": {
              "name": "Venta al por mayor de aparatos e instrumentos médicos, ortopédicos, ópticos",
              "href": "https://api.euskadi.eus/procurements/companies/economic-activities/1.619.2"
            }
          }
        }
      ],
      "certificateStartDate": "2018-06-12",
      "certificateEndDate": "2018-11-22",
      "object": "LA FABRICACIÓN Y COMERCIALIZACIÓN DE PRODUCTOS MÉDICOS, SANITARIOS, DE HIGIENE, SALUD Y BELLEZA PARA PERSONAS Y ANIMALES",
      "mainEntityOfPage": "https://www.contratacion.euskadi.eus/webkpe00-kperoc/es/ac71aBusquedaRegistrosWar/empresa/01757",
      "_links": {
        "self": {
          "name": "NOVICO MÉDICA, S.A.",
          "href": "https://api.euskadi.eus/procurements/companies/01757"
        }
      }
    }
  ]
}