{
  "totalItems": 9042,
  "totalPages": 905,
  "currentPage": 374,
  "itemsOfPage": 10,
  "items": [
    {
      "name": "IZERTIS, S.A.",
      "registrationNumber": "07384",
      "identificationNumber": "A33845009",
      "address": "Avda. Jardín Botánico, 1345",
      "location": {
        "postalCode": "33203",
        "municipality": "Gijón",
        "county": "Asturias",
        "municipalityId": "024",
        "countyId": "33"
      },
      "economicActivities": [
        {
          "id": "1.659.2",
          "name": "Venta al por menor de muebles de oficina y máquinas y equipos de oficina",
          "_links": {
            "self": {
              "name": "Venta al por menor de muebles de oficina y máquinas y equipos de oficina",
              "href": "https://api.euskadi.eus/procurements/companies/economic-activities/1.659.2"
            }
          }
        },
        {
          "id": "1.843.9",
          "name": "Otros servicios técnicos n.c.o.p",
          "_links": {
            "self": {
              "name": "Otros servicios técnicos n.c.o.p",
              "href": "https://api.euskadi.eus/procurements/companies/economic-activities/1.843.9"
            }
          }
        },
        {
          "id": "1.844",
          "name": "Servicios de publicidad, relaciones públicas y similares",
          "_links": {
            "self": {
              "name": "Servicios de publicidad, relaciones públicas y similares",
              "href": "https://api.euskadi.eus/procurements/companies/economic-activities/1.844"
            }
          }
        }
      ],
      "certificateStartDate": "2025-01-23",
      "certificateEndDate": "2025-07-20",
      "object": "LA CONSULTORÍA E INGENIERÍA EN TECNOLOGÍAS DE LA INFORMACIÓN Y DE LAS COMUNICACIONES, Y EL ASESORAMIENTO, COMERCIALIZACIÓN, IMPLEMENTACIÓN Y MANTENIMIENTO DE PROYECTOS RELACIONADOS CON LAS TIC. LA CONSULTORÍA DE FORMACIÓN, IMPARTICIÓN DE FORMACIÓN MEDIANTE MEDIOS PRESENCIALES O A DISTANCIA, ELEARMING, EL DESARROLLO DE MATERIAL DIDÁCTICO, DE CONTENIDOS FORMATIVOS Y CUALQUIER OTRA ACTIVIDAD RELACIONADA CON LA FORMACIÓN. LA REALIZACIÓN DE SERVICIOS DE GESTIÓN DE PROYECTOS, OFICINAS TÉCNICAS Y DIRECCIÓN DE PROYECTOS. LA COMERCIALIZACIÓN, INSTALACIÓN, FORMACIÓN, SOPORTE Y MANTENIMIENTO DE CUALQUIER ELEMENTO HARDWARE Y SOFTWARE. LA PRESTACIÓN DE SERVICIOS DE EXTERNALIZACIÓN DE OPERACIONES DE SISTEMAS, COMUNICACIONES, DEL DESARROLLO Y MANTENIMIENTO DE APLICACIONES, DE SERVICIOS DE ATENCIÓN A LOS USUARIOS Y LA EXTERNALIZACIÓN DE CUALQUIER OTRO SERVICIO RELACIONADO CON LAS TIC. EL DESARROLLO DE APLICACIONES Y PRODUCTOS SOFTWARE, PORTALES Y SERVICIOS ELECTRÓNICOS, ASÍ COMO LAS PRESTACIONES DE TODO TIPO DE SERVICIOS RELACIONADOS CON INTERNET. LA PRESTACIÓN DE SERVICIOS DE CENTRO DE PROCESO DE DATOS, HOUSING, HOSTING, INFRAESTRUCTURA COMO SERVICIO Y APLICACIONES COMO SERVICIO, MEDIANTE MEDIOS PROPIOS O DE TERCEROS. LA PRESTACIÓN DE SERVICIOS GESTIONADOS DE CUALQUIER DE CUALQUIER CARÁCTER MEDIANTE CENTROS DE SOPORTE REMOTO UTILIZANDO PARA ELLOS LAS TECNOLOGÍAS DE LA INFORMACIÓN Y LAS COMUNICACIONES. LA PRESTACIÓN DE SERVICIOS DE EXTERNALIZACIÓN DE PROCESOS DE NEGOCIO. LA REALIZACIÓN DE SERVICIOS DE CONSULTORÍA ORGANIZATIVA TECNOLÓGICA, DE INNOVACIÓN, FORMATIVA, DE RECURSOS HUMANOS, ADMINISTRATIVO, PLANIFICACIÓN ESTRATÉGICA, DE PROCESOS Y DE ESTUDIOS DE MERCADO",
      "mainEntityOfPage": "https://www.contratacion.euskadi.eus/webkpe00-kperoc/es/ac71aBusquedaRegistrosWar/empresa/07384",
      "_links": {
        "self": {
          "name": "IZERTIS, S.A.",
          "href": "https://api.euskadi.eus/procurements/companies/07384"
        }
      }
    },
    {
      "name": "REFORMAS SANJURJO, S.L.",
      "registrationNumber": "09971",
      "identificationNumber": "B72559859",
      "address": "Calle Cuesta del Hospital Bajo (48980) 27",
      "location": {
        "postalCode": "48980",
        "municipality": "Santurtzi",
        "county": "Bizkaia",
        "municipalityId": "082",
        "countyId": "48"
      },
      "economicActivities": [
        {
          "id": "1.507",
          "name": "Construcción, reparación y conservación de toda clase obras",
          "_links": {
            "self": {
              "name": "Construcción, reparación y conservación de toda clase obras",
              "href": "https://api.euskadi.eus/procurements/companies/economic-activities/1.507"
            }
          }
        }
      ],
      "certificateStartDate": "2025-01-23",
      "certificateEndDate": "2025-07-22",
      "object": "OTRO ACABADO DE EDIFICIOS.",
      "mainEntityOfPage": "https://www.contratacion.euskadi.eus/webkpe00-kperoc/es/ac71aBusquedaRegistrosWar/empresa/09971",
      "_links": {
        "self": {
          "name": "REFORMAS SANJURJO, S.L.",
          "href": "https://api.euskadi.eus/procurements/companies/09971"
        }
      }
    },
    {
      "name": "GEOGRAMA, S.L.",
      "registrationNumber": "02112",
      "identificationNumber": "B01267541",
      "address": "Plaza del Renacimiento, 9 2ª Planta Of.2",
      "location": {
        "postalCode": "01004",
        "municipality": "Vitoria-Gasteiz",
        "county": "Araba/Álava",
        "municipalityId": "059",
        "countyId": "01"
      },
      "economicActivities": [
        {
          "id": "1.845",
          "name": "Explotación electrónica por cuenta de terceros",
          "_links": {
            "self": {
              "name": "Explotación electrónica por cuenta de terceros",
              "href": "https://api.euskadi.eus/procurements/companies/economic-activities/1.845"
            }
          }
        }
      ],
      "certificateStartDate": "2025-01-22",
      "certificateEndDate": "2025-04-15",
      "object": "LA INTERMEDIACIÓN EN LA PRESTACIÓN DE SERVICIOS ENTRE EL CLIENTE FINAL Y LOS PROFESIONALES PERSONAS FÍSICAS QUE DESARROLLEN LAS ACTIVIDADES, ASÍ COMO LA COORDINACIÓN DE LAS DIFERENTES PRESTACIONES ESPECÍFICAS Y LOS MEDIOS NECESARIOS PARA QUE LOS PROFESIONALES DESARROLLEN SERVICIOS Y ACTIVIDADES DE:&#13;- SERVICIOS Y CONSULTORÍA DE TOPOGRAFÍA, CARTOGRAFÍA Y SISTEMAS DE INFORMACIÓN GEOGRÁFICA.&#13; - SERVICIOS DE CAPTURA DE INFORMACIÓN POR MEDIOS ELECTRÓNICOS, INFORMÁTICOS Y TELEMÁTICOS.&#13; - SERVICIOS DE DESARROLLO Y MANTENIMIENTO DE PROGRAMAS DE ORDENADOR.&#13; - SERVICIOS DE EXPLOTACIÓN Y CONTROL DE SISTEMAS INFORMÁTICOS E INFRAESTRUCTURAS TELEMÁTICAS.&#13; - SERVICIOS GEOGRÁFICOS A TRAVÉS DE INTERNET U OTRAS REDES.&#13; - SERVICIOS DE ALOJAMIENTO O HOSTING DE MAPAS E INFORMACIÓN GEOGRÁFICA&#13; - TRATAMIENTO DE INFORMACIÓN GEOGRÁFICA&#13; - LA ADQUISICIÓN, VENTA Y EXPLOTACIÓN MEDIANTE ARRENDAMIENTO O CUALQUIER OTRA FORMA JURÍDICA, DE BIENES INMUEBLES, PROPIOS O AJENOS A LA SOCIEDAD&#13;\n",
      "mainEntityOfPage": "https://www.contratacion.euskadi.eus/webkpe00-kperoc/es/ac71aBusquedaRegistrosWar/empresa/02112",
      "_links": {
        "self": {
          "name": "GEOGRAMA, S.L.",
          "href": "https://api.euskadi.eus/procurements/companies/02112"
        }
      }
    },
    {
      "name": "CLINTER TRADUCCIONES E INTERPRETACIONES, S.A.",
      "registrationNumber": "09970",
      "identificationNumber": "A84192038",
      "address": "GRAN VÍA 57, 7ºH",
      "location": {
        "postalCode": "28013",
        "municipality": "Madrid",
        "county": "Madrid",
        "municipalityId": "079",
        "countyId": "28"
      },
      "economicActivities": [
        {
          "id": "1.849.3",
          "name": "Servicios de traducción y similares",
          "_links": {
            "self": {
              "name": "Servicios de traducción y similares",
              "href": "https://api.euskadi.eus/procurements/companies/economic-activities/1.849.3"
            }
          }
        }
      ],
      "certificateStartDate": "2025-01-22",
      "certificateEndDate": "2025-07-22",
      "object": "ASISTIR Y ASESORAR A ENTIDADES PÚBLICAS, EMPRESAS Y PARTICULARES EN EL TRÁFICO INTERNACIONAL Y PARA ELLO, EN PARTICULAR: A) REALIZAR TRABAJOS DE TRADUCCIÓN E INTERPRETACIÓN DE TODAS CLASES; B) REALIZAR TRABAJOS MULTIMEDIA Y EN CUALQUIER SOPORTE QUE FUEREN PRECISOS; C) PREPARAR TODA LA DOCUMENTACIÓN QUE REQUIERAN LAS AUTORIDADES COMPETENTES PARA REALIZAR LA IMPORTACIÓN DE BIENES Y SERVICIOS, Y PRESTAR LA ASISTENCIA PERTINENTE; D) REALIZAR EDITORIALES, DIRECTAMENTE O A TRAVÉS DE TERCEROS; E) ASESORAMIENTO JURÍDICO, FISCAL FINANCIERO Y CONTABLE, QUE SERÁ EFECTUADO POR AQUELLOS ACCIONISTAS, ASOCIADOS O EMPLEADOS QUE REÚNAN LOS REQUISITOS LEGALES PERTINENTES; F) ADQUIRIR BIENES INMUEBLES Y MUEBLES EN ESPAÑA O EL EXTRANJERO PARA LA REALIZACIÓN DE SUS FINES SOCIALES; G) CREAR Y PARTICIPAR EN SOCIEDADES DE IDÉNTICO O ANÁLOGO CONTENIDO, TANTO EN ESPAÑA COMO EN EL EXTRANJERO.",
      "mainEntityOfPage": "https://www.contratacion.euskadi.eus/webkpe00-kperoc/es/ac71aBusquedaRegistrosWar/empresa/09970",
      "_links": {
        "self": {
          "name": "CLINTER TRADUCCIONES E INTERPRETACIONES, S.A.",
          "href": "https://api.euskadi.eus/procurements/companies/09970"
        }
      }
    },
    {
      "name": "DOMINGO AQUESOLO VIZCARGUENAGA",
      "registrationNumber": "08548",
      "identificationNumber": "14550404Y",
      "address": "AV, LEHENDAKARI AGIRRE 7, 3C",
      "location": {
        "postalCode": "48140",
        "municipality": "Igorre",
        "county": "Bizkaia",
        "municipalityId": "094",
        "countyId": "48"
      },
      "economicActivities": [
        {
          "id": "1.912",
          "name": "Servicios forestales",
          "_links": {
            "self": {
              "name": "Servicios forestales",
              "href": "https://api.euskadi.eus/procurements/companies/economic-activities/1.912"
            }
          }
        }
      ],
      "certificateStartDate": "2025-01-20",
      "certificateEndDate": "2025-07-20",
      "object": "SERVICIOS FORESTALES.",
      "mainEntityOfPage": "https://www.contratacion.euskadi.eus/webkpe00-kperoc/es/ac71aBusquedaRegistrosWar/empresa/08548",
      "_links": {
        "self": {
          "name": "DOMINGO AQUESOLO VIZCARGUENAGA",
          "href": "https://api.euskadi.eus/procurements/companies/08548"
        }
      }
    },
    {
      "name": "SASOIA TERCERA EDAD, S.L.",
      "registrationNumber": "05769",
      "identificationNumber": "B95020657",
      "address": "IBAIZABAL, 3- PORTAL E, 1º CENTRO",
      "location": {
        "postalCode": "48200",
        "municipality": "Durango",
        "county": "Bizkaia",
        "municipalityId": "027",
        "countyId": "48"
      },
      "economicActivities": [
        {
          "id": "1.934",
          "name": "Enseñanza fuera de establecimiento permanente",
          "_links": {
            "self": {
              "name": "Enseñanza fuera de establecimiento permanente",
              "href": "https://api.euskadi.eus/procurements/companies/economic-activities/1.934"
            }
          }
        },
        {
          "id": "1.952",
          "name": "Asistencia y servicios sociales en centros no residenciales",
          "_links": {
            "self": {
              "name": "Asistencia y servicios sociales en centros no residenciales",
              "href": "https://api.euskadi.eus/procurements/companies/economic-activities/1.952"
            }
          }
        }
      ],
      "certificateStartDate": "2025-01-20",
      "certificateEndDate": "2025-01-29",
      "object": "OFRECER SERVICIOS INTEGRALES EN EL CAMPO DE LA GERIATRÍA Y LA GERONTOLOGÍA, TALES COMO: CONSULTORÍA. SERVICIOS DE INFORMACIÓN SOBRE RESIDENCIAS, VIAJES, OCIO Y SERVICIO DE ASESORAMIENTO. ESTUDIOS DE NECESIDADES Y ESTUDIOS DE MERCADO. CURSOS DE SENSIBILIZACIÓN, FORMACIÓN Y ESPECIALIZACIÓN PARA DISTINTOS COLECTIVOS RELACIONADOS CON LA GERIATRÍA Y GERONTOLOGÍA (AUXILIARES DE CLÍNICA, AUXILIARES DOMICILIARIAS, TRABJADORES SOCIALES). ASISTENCIA A LA TERCERA EDAD EN ASOCIACIONES Y HOGARES O CLUBS DEL JUBILADO Y RESIDENCIAS DE ANCIANOS (INDIVIDUAL Y COLECTIVA). INTERVENCIÓN PSICOLÓGICA Y SOCIAL. ANIMACIÓN SOCIO-CULTURAL (ACTIVIADES CULTURALES Y RECREATIVAS). DESARROLLO DE PROGRAMAS DE EDUCACIÓN PARA LA SALUD. ASISTENCIA DIRECTA A LA TERCERA EDAD EN RESIDENCIAS (HIGIENE, CUIDADOS, ALIMENTACIÓN) Y CENTROS DE DÍA. SERVICIO DE LIMPIEZA, LAVANDERÍA, MANTENIMIENTO, COCINA Y HOSTELERÍA EN RESIDENCIAS Y CENTROS DE DÍA. SERVICIOS PROFESIONALES, TANTO DE MÉDICOS, PSICÓLOGOS, MASAJE, PODÓLOGOS, ATS, TERAPEUTA OCUPACIONAL, FISIOTERAPEUTA, EN RESIDENCIAS Y CENTROS DE DÍA. ASISTENCIA A LA TERCERA EDAD EN DOMICILIOS, REALIZANDO TAREAS DOMÉSTICAS Y TAREAS PERSONALES. GESTIÓN INTEGRAL DE RESIDENCIAS Y CENTROS DE DÍA",
      "mainEntityOfPage": "https://www.contratacion.euskadi.eus/webkpe00-kperoc/es/ac71aBusquedaRegistrosWar/empresa/05769",
      "_links": {
        "self": {
          "name": "SASOIA TERCERA EDAD, S.L.",
          "href": "https://api.euskadi.eus/procurements/companies/05769"
        }
      }
    },
    {
      "name": "BAI INSTALACIONES DEPORTIVAS, S.L.",
      "registrationNumber": "09177",
      "identificationNumber": "B13694773",
      "address": "BULEVAR DE MARITURRI 38",
      "location": {
        "postalCode": "01015",
        "municipality": "Vitoria-Gasteiz",
        "county": "Araba/Álava",
        "municipalityId": "059",
        "countyId": "01"
      },
      "economicActivities": [
        {
          "id": "1.619.1",
          "name": "Venta al por mayor de juguetes y artículos de deporte",
          "_links": {
            "self": {
              "name": "Venta al por mayor de juguetes y artículos de deporte",
              "href": "https://api.euskadi.eus/procurements/companies/economic-activities/1.619.1"
            }
          }
        }
      ],
      "certificateStartDate": "2025-01-20",
      "certificateEndDate": "2025-07-20",
      "object": "COMERCIALIZACIÓN AL POR MAYOR Y AL POR MENOR EN ESPAÑA Y EN EL EXTRANJERO DE TODO TIPO DE EQUIPAMIENTO, MATERIAL E INSTALACIONES DEPORTIVAS",
      "mainEntityOfPage": "https://www.contratacion.euskadi.eus/webkpe00-kperoc/es/ac71aBusquedaRegistrosWar/empresa/09177",
      "_links": {
        "self": {
          "name": "BAI INSTALACIONES DEPORTIVAS, S.L.",
          "href": "https://api.euskadi.eus/procurements/companies/09177"
        }
      }
    },
    {
      "name": "CENTRO DE DIAGNOSTICO Y REHABILITACION CARDIACA, S.L.",
      "registrationNumber": "09699",
      "identificationNumber": "B20456844",
      "address": "Calle Los Amezketa",
      "location": {
        "postalCode": "20010",
        "municipality": "Donostia / San Sebastián",
        "county": "Gipuzkoa",
        "municipalityId": "069",
        "countyId": "20"
      },
      "economicActivities": [
        {
          "id": "1.942.1",
          "name": "Consultorios médicos, centros de socorro sanitarios y urgencias",
          "_links": {
            "self": {
              "name": "Consultorios médicos, centros de socorro sanitarios y urgencias",
              "href": "https://api.euskadi.eus/procurements/companies/economic-activities/1.942.1"
            }
          }
        }
      ],
      "certificateStartDate": "2025-01-20",
      "certificateEndDate": "2025-07-20",
      "object": "LA REALIZACIÓN DE DIAGNÓSTICOS, CONTROLES Y TRATAMIENTOS DE PATOLOGÍAS; Y EN GENERAL, LAS ACTIVIDADES PROPIAS DEL EJERCICIO DE LA MEDICINA.",
      "mainEntityOfPage": "https://www.contratacion.euskadi.eus/webkpe00-kperoc/es/ac71aBusquedaRegistrosWar/empresa/09699",
      "_links": {
        "self": {
          "name": "CENTRO DE DIAGNOSTICO Y REHABILITACION CARDIACA, S.L.",
          "href": "https://api.euskadi.eus/procurements/companies/09699"
        }
      }
    },
    {
      "name": "BEITU DIGITALA, S.L.",
      "registrationNumber": "05084",
      "identificationNumber": "B95313557",
      "address": "POLIGONO IGELTZERA NAVE 1 C/ ANTSONEKOA 2",
      "location": {
        "postalCode": "48610",
        "municipality": "Urduliz",
        "county": "Bizkaia",
        "municipalityId": "089",
        "countyId": "48"
      },
      "economicActivities": [
        {
          "id": "1.504.11",
          "name": "Instalaciones eléctricas en general, redes telegráficas, telefonía, tv, etc",
          "_links": {
            "self": {
              "name": "Instalaciones eléctricas en general, redes telegráficas, telefonía, tv, etc",
              "href": "https://api.euskadi.eus/procurements/companies/economic-activities/1.504.11"
            }
          }
        }
      ],
      "certificateStartDate": "2025-01-17",
      "certificateEndDate": "2025-12-16",
      "object": "INSTALACIÓN, FABRICACIÓN, MANTENIMIENTO Y COMERCIALIZACIÓN DE SISTEMAS DE SEGURIDAD, EN SU MÁS AMPLIO SENTIDO.",
      "mainEntityOfPage": "https://www.contratacion.euskadi.eus/webkpe00-kperoc/es/ac71aBusquedaRegistrosWar/empresa/05084",
      "_links": {
        "self": {
          "name": "BEITU DIGITALA, S.L.",
          "href": "https://api.euskadi.eus/procurements/companies/05084"
        }
      }
    },
    {
      "name": "JON URDANETA ZEBERIO SANTOS",
      "registrationNumber": "08690",
      "identificationNumber": "51097340B",
      "address": "C LIZARRE 20 1D",
      "location": {
        "postalCode": "48600",
        "municipality": "Sopela",
        "county": "Bizkaia",
        "municipalityId": "085",
        "countyId": "48"
      },
      "economicActivities": [
        {
          "id": "1.501.1",
          "name": "Construcción completa, reparación y conservación de edificaciones",
          "_links": {
            "self": {
              "name": "Construcción completa, reparación y conservación de edificaciones",
              "href": "https://api.euskadi.eus/procurements/companies/economic-activities/1.501.1"
            }
          }
        },
        {
          "id": "2.411",
          "name": "Arquitectos",
          "_links": {
            "self": {
              "name": "Arquitectos",
              "href": "https://api.euskadi.eus/procurements/companies/economic-activities/2.411"
            }
          }
        }
      ],
      "certificateStartDate": "2025-01-17",
      "certificateEndDate": "2025-07-06",
      "object": "ARQUITECTOS. CONSTRUCCIÓN COMPLETA, REPARACIÓN Y CONSERVACIÓN DE EDIFICACIONES.",
      "mainEntityOfPage": "https://www.contratacion.euskadi.eus/webkpe00-kperoc/es/ac71aBusquedaRegistrosWar/empresa/08690",
      "_links": {
        "self": {
          "name": "JON URDANETA ZEBERIO SANTOS",
          "href": "https://api.euskadi.eus/procurements/companies/08690"
        }
      }
    }
  ]
}