{
  "totalItems": 9042,
  "totalPages": 905,
  "currentPage": 750,
  "itemsOfPage": 10,
  "items": [
    {
      "name": "CONMUNICA MEDIATRADER, S.L.",
      "registrationNumber": "02664",
      "identificationNumber": "A48781256",
      "address": "PARQUE TECNOLÓGICO EDIFICIO 105 -1º",
      "location": {
        "postalCode": "48170",
        "municipality": "Zamudio",
        "county": "Bizkaia",
        "municipalityId": "905",
        "countyId": "48"
      },
      "economicActivities": [
        {
          "id": "1.845",
          "name": "Explotación electrónica por cuenta de terceros",
          "_links": {
            "self": {
              "name": "Explotación electrónica por cuenta de terceros",
              "href": "https://api.euskadi.eus/procurements/companies/economic-activities/1.845"
            }
          }
        }
      ],
      "certificateStartDate": "2009-01-28",
      "certificateEndDate": "2009-01-17",
      "object": "a)  EDITAR, CREAR, ADQUIRIR, DISEÑAR, DISTRIBUIR, EMPAQUETAR, ORGANIZAR, EXPLOTAR, DIFUNDIR  Y COMERCIALIZAR CONTENIDOS INOFORMATIVOS, LITERARIOS, EDUCATIVOS, PUBLICITARIOS, DE OPINIÓN, O DE CUALQUIRE OTRA ÍNDOLE, POR LA REDE DE INTERNET O POR CUALQUIER OTRO TIPO DE SOPORTE O MEDIO DISPONIBLE, YA SEAN DE NATURALEZA ELECTRÓNICA, DIGITAL, IMPRESA O DE CUALQUIER OTRA NATURALEZA, PUDIENDO REALIZAR LA EXPLOTACIÓN, DIFUSIÓN Y COMERCIALIZACIÓN DE DICHOS CONTENIDOS POR MEDIOS PROPIOS O MEDIANTE SU CESIÓN A ATERCEROS.\r\n\r\nPROMOVER EL COMERCIO ELECTRÓNICO Y LA PUBLICIDAD SOBRE INTERNET Y SOBRE CUALESQUIERA OTROS MEDIOS DISPONIBLES DE NATURALEZA DIGITAL O DE CUALQUIER OTRA ÍNDOLE, REALIZAR PROYECTOS DE INTERNET, EDITORIALES DE ARTES GRÁFICAS Ó DE CUALQUIER OTRA NATURALEZA.\r\n \r\nPRESTAR SERVICIOS DE INTERPRETACIÓN Y TRADUCCIÓN DE IDIOMAS SIN LIMITACIÓN, DE AGENCIA INFORMATIVA Y DE NOTICIAS EN GENERAL Y DE ASESORAMIENTO EN MATERIA DE ACTIVIDADES DE COMUNICACIÓN SOCIAL, INCLUYENDO LA ELABORACIÓN DE NOTRAS DE PRENSA POR CUALQUIER TIPO DE SOPORTES O MEDIOS.\r\n\r\n ADQUIRIR, REALIZAR Y COMERCIALIZAR REPORTAJES FOTOGRÁFIOCOS, VÍDEOS Y CUALESQUIERA OTRA CLASE DE PRODUCCIONES AUDIOVISUALES.\r\n\r\nCREAR,  COMPRAR, VENDER, ORGANIZAR, COMERCIALIZAR Y GESTIONAR BASES DE DATOS DE TODO TIPO EN TODO LO QUE NO SUPONGA COLISIÓN  CON LAS ACTIVIDADES LEGALMENTE RESERVADAS POR LA LEGISLACIÓN ESPECIAL Y LA NORMATIVA VIGENTE EN MATERIA DE PROTECCIÓN DE DATOS DE CARÁCTER PERSONAL.\r\n\r\nTODAS LAS ACTIVIDADES QUE INTEGRAN EL OBJETO SOCIAL MENCIONADO,  PODRÁN DESARROLLARSE TANTO EN ESPAÑA COM EN EL EXTRANJERO, PUDIENDO LLEVARSE A CABO, TOTAL O PARCIALMENTE, DE MODO INDIRECTO, MEDIANTE LA TITULARIDAD DE ACCIONES Ó PARTICIPACIONES SOCIALES EN SOCIEDADES CON OBJETO IDÉNTICO Ó ANÁLOGO.  ",
      "mainEntityOfPage": "https://www.contratacion.euskadi.eus/webkpe00-kperoc/es/ac71aBusquedaRegistrosWar/empresa/02664",
      "_links": {
        "self": {
          "name": "CONMUNICA MEDIATRADER, S.L.",
          "href": "https://api.euskadi.eus/procurements/companies/02664"
        }
      }
    },
    {
      "name": "OIHAR KOOP. ELK.",
      "registrationNumber": "03109",
      "identificationNumber": "F01355379",
      "address": "LA VENTANILLA, Nº 48",
      "location": {
        "postalCode": "01409",
        "municipality": "Okondo",
        "county": "Araba/Álava",
        "municipalityId": "042",
        "countyId": "01"
      },
      "economicActivities": [
        {
          "id": "1.617.3",
          "name": "Venta al por mayor de madera y corcho",
          "_links": {
            "self": {
              "name": "Venta al por mayor de madera y corcho",
              "href": "https://api.euskadi.eus/procurements/companies/economic-activities/1.617.3"
            }
          }
        },
        {
          "id": "1.722",
          "name": "Transporte de mercancías por carretera",
          "_links": {
            "self": {
              "name": "Transporte de mercancías por carretera",
              "href": "https://api.euskadi.eus/procurements/companies/economic-activities/1.722"
            }
          }
        },
        {
          "id": "1.912",
          "name": "Servicios forestales",
          "_links": {
            "self": {
              "name": "Servicios forestales",
              "href": "https://api.euskadi.eus/procurements/companies/economic-activities/1.912"
            }
          }
        }
      ],
      "certificateStartDate": "2009-01-27",
      "certificateEndDate": "2009-06-16",
      "object": "COMPRA DE VUELOS DE MONTES, TALA DE MONTES, ARRASTRE DE ARBOLES Y TRONCOS Y SU TRANSPORTE HASTA SU DESTINO FINAL",
      "mainEntityOfPage": "https://www.contratacion.euskadi.eus/webkpe00-kperoc/es/ac71aBusquedaRegistrosWar/empresa/03109",
      "_links": {
        "self": {
          "name": "OIHAR KOOP. ELK.",
          "href": "https://api.euskadi.eus/procurements/companies/03109"
        }
      }
    },
    {
      "name": "SEMICONDUCTORES Y SISTEMAS, S.A.",
      "registrationNumber": "03787",
      "identificationNumber": "A08747388",
      "address": "PERE IV 78-82 2º 2ª",
      "location": {
        "postalCode": "08005",
        "municipality": "Barcelona",
        "county": "Barcelona",
        "municipalityId": "019",
        "countyId": "08"
      },
      "economicActivities": [
        {
          "id": "1.845",
          "name": "Explotación electrónica por cuenta de terceros",
          "_links": {
            "self": {
              "name": "Explotación electrónica por cuenta de terceros",
              "href": "https://api.euskadi.eus/procurements/companies/economic-activities/1.845"
            }
          }
        }
      ],
      "certificateStartDate": "2009-01-26",
      "certificateEndDate": "2009-05-21",
      "object": "1) COMERCIALIZACIÓN Y FABRICACIÓN DE MÁQUINAS, APARATOS E INSTRUMENTOS MECÁNICOS, ELÉCTRICOS Y ELECTRÓNICOS, ASÍ COMO COMPONENTES, RECAMBIOS, ACCESORIOS Y ELEMENTOS PARA LOS MISMOS.\r\n2) LA CONTRATACIÓN CON OTRAS SOCIEDADES Y EMPRESAS DE SU ACTUACIÓN COMO DELEGADA, REPRESENTANTE O CONCESIONARIA",
      "mainEntityOfPage": "https://www.contratacion.euskadi.eus/webkpe00-kperoc/es/ac71aBusquedaRegistrosWar/empresa/03787",
      "_links": {
        "self": {
          "name": "SEMICONDUCTORES Y SISTEMAS, S.A.",
          "href": "https://api.euskadi.eus/procurements/companies/03787"
        }
      }
    },
    {
      "name": "EGURRE, S.L.",
      "registrationNumber": "03785",
      "identificationNumber": "B95549044",
      "address": "C/LUIS FERNÁNDEZ GOMEZ, 14",
      "location": {
        "postalCode": "48920",
        "municipality": "Portugalete",
        "county": "Bizkaia",
        "municipalityId": "078",
        "countyId": "48"
      },
      "economicActivities": [
        {
          "id": "1.505.5",
          "name": "Carpintería y cerrajería",
          "_links": {
            "self": {
              "name": "Carpintería y cerrajería",
              "href": "https://api.euskadi.eus/procurements/companies/economic-activities/1.505.5"
            }
          }
        }
      ],
      "certificateStartDate": "2009-01-22",
      "certificateEndDate": "2009-06-02",
      "object": "A) INSTALACIONES DE CARPINTERÍA EN GENERAL.\r\nB) FABRICACIÓN, MONTAJE Y MANTENIMIENTO DE MOBILIARIO URBANO, VALLAS, PÉRGOLAS, TEJADOS Y ESTRUCTURAS DE MADERA EN GENERAL.\r\nC) FABRICACIÓN, MONTAJE Y MANTENIMIENTO DE JUEGOS INFANTILES Y PARQUES TEMÁTICOS.\r\nD) JARDINERÍA EN GENERAL",
      "mainEntityOfPage": "https://www.contratacion.euskadi.eus/webkpe00-kperoc/es/ac71aBusquedaRegistrosWar/empresa/03785",
      "_links": {
        "self": {
          "name": "EGURRE, S.L.",
          "href": "https://api.euskadi.eus/procurements/companies/03785"
        }
      }
    },
    {
      "name": "TECNOCONTROL, S.A.",
      "registrationNumber": "00782",
      "identificationNumber": "A08422149",
      "address": "C/ MARÍA AUXILIADORA, Nº 9.",
      "location": {
        "postalCode": "08017",
        "municipality": "Barcelona",
        "county": "Barcelona",
        "municipalityId": "019",
        "countyId": "08"
      },
      "economicActivities": [
        {
          "id": "1.501.1",
          "name": "Construcción completa, reparación y conservación de edificaciones",
          "_links": {
            "self": {
              "name": "Construcción completa, reparación y conservación de edificaciones",
              "href": "https://api.euskadi.eus/procurements/companies/economic-activities/1.501.1"
            }
          }
        },
        {
          "id": "1.504.1",
          "name": "Instalaciones eléctricas en general",
          "_links": {
            "self": {
              "name": "Instalaciones eléctricas en general",
              "href": "https://api.euskadi.eus/procurements/companies/economic-activities/1.504.1"
            }
          }
        },
        {
          "id": "1.504.2",
          "name": "Instalaciones de fontanería",
          "_links": {
            "self": {
              "name": "Instalaciones de fontanería",
              "href": "https://api.euskadi.eus/procurements/companies/economic-activities/1.504.2"
            }
          }
        },
        {
          "id": "1.504.3",
          "name": "Instalaciones de frío, calor y acondicionamiento de aire",
          "_links": {
            "self": {
              "name": "Instalaciones de frío, calor y acondicionamiento de aire",
              "href": "https://api.euskadi.eus/procurements/companies/economic-activities/1.504.3"
            }
          }
        },
        {
          "id": "1.692",
          "name": "Reparación de maquinaria industrial",
          "_links": {
            "self": {
              "name": "Reparación de maquinaria industrial",
              "href": "https://api.euskadi.eus/procurements/companies/economic-activities/1.692"
            }
          }
        }
      ],
      "certificateStartDate": "2009-01-21",
      "certificateEndDate": "2009-07-08",
      "object": "LA PRESTACIÓN DE SERVICIOS DE MANTENIMIENTO EN LAS INSTALACIONES DE INGENIERÍA Y OBRA CIVIL DE EDIFICIOS, ESPECIALMENTE GRANDES INSTALACIONES TÉCNICAS DE USO PÚBLICO, INSTALACIONES HOTELERAS, HOSPITALARIAS E INDUSTRIALES, ASÍ COMO LA CONSERVACIÓN, CONTROL Y REPARACIÓN DEL EQUIPO TÉCNICO, MECÁNICO, ELÉCTRICO O ELECTRÓNICO USADO EN DICHAS INSTALACIONES",
      "mainEntityOfPage": "https://www.contratacion.euskadi.eus/webkpe00-kperoc/es/ac71aBusquedaRegistrosWar/empresa/00782",
      "_links": {
        "self": {
          "name": "TECNOCONTROL, S.A.",
          "href": "https://api.euskadi.eus/procurements/companies/00782"
        }
      }
    },
    {
      "name": "STI WORLD, S.L.",
      "registrationNumber": "03339",
      "identificationNumber": "B31654452",
      "address": "C/ PAULINO CABALLERO 51, 1, OFICINA 1",
      "location": {
        "postalCode": "31004",
        "municipality": "Pamplona/Iruña",
        "county": "Navarra",
        "municipalityId": "201",
        "countyId": "31"
      },
      "economicActivities": [
        {
          "id": "1.849.3",
          "name": "Servicios de traducción y similares",
          "_links": {
            "self": {
              "name": "Servicios de traducción y similares",
              "href": "https://api.euskadi.eus/procurements/companies/economic-activities/1.849.3"
            }
          }
        },
        {
          "id": "1.989.2",
          "name": "Servicios de organización de congresos, asambleas y similares",
          "_links": {
            "self": {
              "name": "Servicios de organización de congresos, asambleas y similares",
              "href": "https://api.euskadi.eus/procurements/companies/economic-activities/1.989.2"
            }
          }
        }
      ],
      "certificateStartDate": "2009-01-20",
      "certificateEndDate": "2009-07-08",
      "object": "TODAS LAS MODALIDADES DE TRADUCCIÓN E INTERPRETACIÓN. ACTIVIDADES RELACIONADAS CON LA ORGANIZACIÓN Y CELEBRACIÓN DE REUNIONES, CONFERENCIAS Y CONGRESOS",
      "mainEntityOfPage": "https://www.contratacion.euskadi.eus/webkpe00-kperoc/es/ac71aBusquedaRegistrosWar/empresa/03339",
      "_links": {
        "self": {
          "name": "STI WORLD, S.L.",
          "href": "https://api.euskadi.eus/procurements/companies/03339"
        }
      }
    },
    {
      "name": "TECNEI ARQUITECTURA, S.A.",
      "registrationNumber": "02539",
      "identificationNumber": "A95169033",
      "address": "IBAÑEZ DE BILBAO, 28-5º A",
      "location": {
        "postalCode": "48009",
        "municipality": "Bilbao",
        "county": "Bizkaia",
        "municipalityId": "020",
        "countyId": "48"
      },
      "economicActivities": [
        {
          "id": "1.843.2",
          "name": "Servicios técnicos de arquitectura y urbanismo",
          "_links": {
            "self": {
              "name": "Servicios técnicos de arquitectura y urbanismo",
              "href": "https://api.euskadi.eus/procurements/companies/economic-activities/1.843.2"
            }
          }
        }
      ],
      "certificateStartDate": "2009-01-16",
      "certificateEndDate": "2009-06-30",
      "object": "LA REALIZACIÓN, COORDINACIÓN, GESTIÓN Y PROMOCIÓN DE PROYECTOS DE OBRAS Y REFORMAS DE ARQUITECTURA E INGENIERÍA, YA SEAN PÚBLICAS O PRIVADAS, ASÍ COMO LA DIRECCIÓN Y EJECUCIÓN DE OBRAS DE EDIFICACIÓN Y CONSTRUCCIÓN  DE INMUEBLES, LA EJECUCIÓN DE OBRAS DE URBANIZACIÓN",
      "mainEntityOfPage": "https://www.contratacion.euskadi.eus/webkpe00-kperoc/es/ac71aBusquedaRegistrosWar/empresa/02539",
      "_links": {
        "self": {
          "name": "TECNEI ARQUITECTURA, S.A.",
          "href": "https://api.euskadi.eus/procurements/companies/02539"
        }
      }
    },
    {
      "name": "INDUSTRIAS HIDRÁULICAS PARDO, S.A.",
      "registrationNumber": "03632",
      "identificationNumber": "A50057322",
      "address": "AUTOVÍA DE LOGROÑO, KM 5,800",
      "location": {
        "postalCode": "50011",
        "municipality": "Zaragoza",
        "county": "Zaragoza",
        "municipalityId": "297",
        "countyId": "50"
      },
      "economicActivities": [
        {
          "id": "1.316.6",
          "name": "Fabricación de mobiliario metálico",
          "_links": {
            "self": {
              "name": "Fabricación de mobiliario metálico",
              "href": "https://api.euskadi.eus/procurements/companies/economic-activities/1.316.6"
            }
          }
        },
        {
          "id": "1.455.9",
          "name": "Confección de otros artículos con materias textiles n.c.o.p",
          "_links": {
            "self": {
              "name": "Confección de otros artículos con materias textiles n.c.o.p",
              "href": "https://api.euskadi.eus/procurements/companies/economic-activities/1.455.9"
            }
          }
        },
        {
          "id": "1.615.2",
          "name": "Venta al por mayor de muebles",
          "_links": {
            "self": {
              "name": "Venta al por mayor de muebles",
              "href": "https://api.euskadi.eus/procurements/companies/economic-activities/1.615.2"
            }
          }
        }
      ],
      "certificateStartDate": "2009-01-16",
      "certificateEndDate": "2009-07-07",
      "mainEntityOfPage": "https://www.contratacion.euskadi.eus/webkpe00-kperoc/es/ac71aBusquedaRegistrosWar/empresa/03632",
      "_links": {
        "self": {
          "name": "INDUSTRIAS HIDRÁULICAS PARDO, S.A.",
          "href": "https://api.euskadi.eus/procurements/companies/03632"
        }
      }
    },
    {
      "name": "IPARASU PROMOCIÓN Y GESTIÓN, S.L.",
      "registrationNumber": "03780",
      "identificationNumber": "B95499224",
      "address": "C/ERREMENTARIENA",
      "location": {
        "postalCode": "48993",
        "municipality": "Getxo",
        "county": "Bizkaia",
        "municipalityId": "044",
        "countyId": "48"
      },
      "economicActivities": [
        {
          "id": "1.833.2",
          "name": "Promoción de edificaciones",
          "_links": {
            "self": {
              "name": "Promoción de edificaciones",
              "href": "https://api.euskadi.eus/procurements/companies/economic-activities/1.833.2"
            }
          }
        },
        {
          "id": "1.843.5",
          "name": "Servicios técnicos de delineación",
          "_links": {
            "self": {
              "name": "Servicios técnicos de delineación",
              "href": "https://api.euskadi.eus/procurements/companies/economic-activities/1.843.5"
            }
          }
        }
      ],
      "certificateStartDate": "2009-01-16",
      "certificateEndDate": "2009-07-08",
      "object": "LA CONSTRUCCIÓN, REFORMA Y REHABILITACIÓN DE VIVIENDAS, LOCALES COMERCIALES, PABELLONES INDUSTRIALES Y TODA CLASE DE EDIFICIOS, SU VENTA Y ARRENDAMIENTO, ASÍ COMO LA REALIZACIÓN DE TODO TIPO DE OBRAS Y REFORMAS.\r\nLA ADQUISICIÓN, POR CUALQUIER TÍTULO, DE FINCAS RÚSTICAS O URBANAS, LA ADMINISTRACIÓN, EXPLOTACIÓN Y ARRENDAMIENTO DE TALES BINES, SU VENTA, TOTAL O PARCIAL, SEGÚN CONVENGA, PARA SU APROVECHAMIENTO FORESTAL, AGRÍCOLA, URBANO O INDUSTRIAL.\r\nLA REALIZACIÓN DE PROYECTOS, DISEÑOS, DIBUJOS Y DELINEACIÓN, CÁLCULOS DE ESTRUCTURAS E INSTALACIONES DE CUALQUIER TIPO DE EDIFICIO, INSTALACIÓN, CONSTRUCCIÓN Y URBANIZACIÓN.\r\nPROMOVER, GESTIONAR, PLANIFICAR, REPARCELAR, PARCELAR Y REALIZAR PROYECTOS DE PLANEAMIENTO URBANÍSTICO Y PROYECTOS DE GESTIÓN SOBRE CUALQUIER TIPO DE TERRENO, SECTOR O ÁREA DEL TERRITORIO",
      "mainEntityOfPage": "https://www.contratacion.euskadi.eus/webkpe00-kperoc/es/ac71aBusquedaRegistrosWar/empresa/03780",
      "_links": {
        "self": {
          "name": "IPARASU PROMOCIÓN Y GESTIÓN, S.L.",
          "href": "https://api.euskadi.eus/procurements/companies/03780"
        }
      }
    },
    {
      "name": "CONSTRUCCIONES BIO-ETXE, S.L.",
      "registrationNumber": "03251",
      "identificationNumber": "B20584926",
      "address": "BARRIO OTELARRE, 1",
      "location": {
        "postalCode": "20150",
        "municipality": "Villabona",
        "county": "Gipuzkoa",
        "municipalityId": "075",
        "countyId": "20"
      },
      "economicActivities": [
        {
          "id": "1.501.1",
          "name": "Construcción completa, reparación y conservación de edificaciones",
          "_links": {
            "self": {
              "name": "Construcción completa, reparación y conservación de edificaciones",
              "href": "https://api.euskadi.eus/procurements/companies/economic-activities/1.501.1"
            }
          }
        }
      ],
      "certificateStartDate": "2009-01-13",
      "certificateEndDate": "2009-04-28",
      "object": "LA CONSTRUCCIÓN, REPARACIÓN Y CONSERVACIÓN DE TODO TIPO DE EDIFICACIONES",
      "mainEntityOfPage": "https://www.contratacion.euskadi.eus/webkpe00-kperoc/es/ac71aBusquedaRegistrosWar/empresa/03251",
      "_links": {
        "self": {
          "name": "CONSTRUCCIONES BIO-ETXE, S.L.",
          "href": "https://api.euskadi.eus/procurements/companies/03251"
        }
      }
    }
  ]
}