{
  "totalItems": 9042,
  "totalPages": 905,
  "currentPage": 534,
  "itemsOfPage": 10,
  "items": [
    {
      "name": "COR OUTSOURCING, S.L.",
      "registrationNumber": "07636",
      "identificationNumber": "B63736813",
      "address": "Calle Las Mercedes nº 31, 1ª planta",
      "location": {
        "postalCode": "48930",
        "municipality": "Getxo",
        "county": "Bizkaia",
        "municipalityId": "044",
        "countyId": "48"
      },
      "economicActivities": [
        {
          "id": "1.849.9",
          "name": "Otros servicios independientes n.c.o.p",
          "_links": {
            "self": {
              "name": "Otros servicios independientes n.c.o.p",
              "href": "https://api.euskadi.eus/procurements/companies/economic-activities/1.849.9"
            }
          }
        }
      ],
      "certificateStartDate": "2021-05-04",
      "certificateEndDate": "2021-10-14",
      "object": "LA PRESTACIÓN DE LOS SIGUIENTES SERVICIOS: SERVICIOS ADMINISTRATIVOS: SERVICIOS AUXILIARES PARA TRABAJOS ADMINISTRATIVOS DE ARCHIVO Y SIMILARES. SERVICIO DE GESTIÓN DE COBROS. ENCUESTAS. TOMA DE DATOS Y SERVICIOS ANÁLOGOS. LECTURA DE CONTADORES. ORGANIZACIÓN Y PROMOCIÓN DE CONGRESOS, FERIAS Y EXPOSICIONES. SERVICIOS DE PORTERÍA, CONTROL DE ACCESO E INFORMACIÓN AL PUBLICO.\r\nSERVICIOS ESPECIALIZADOS :HIGIENIZACIÓN , DESINFECCIÓN, DESINSECTACIÓN Y DESRATIZACIÓN. SERVICIOS DE SEGURIDAD, CUSTODIA Y PROTECCIÓN. ATENCIÓN Y MANEJO DE INSTALACIONES DE SEGURIDAD, ARTES GRAFICAS .SERVICIOS DE BIBLIOTECA, ARCHIVOS Y MUSEOS. HOSTELERÍA Y SERVICIOS DE COMIDA. PREVENCIÓN DE INCENDIOS FORESTALES. SERVICIOS DE PROTECCIÓN DE ESPECIES. SERVICIOS CUALIFICADOS: ACTIVIDADES\r\nMEDICAS Y SANITARIAS. INSPECCIÓN SANITARIA DE INSTALACIONES. SERVICIOS VETERINARIOS PARA LA SALUD.\r\nSERVICIOS DE ESTERILIZACIÓN DE MATERIAL SANITARIO. RESTAURACIÓN DE OBRAS DE ARTE. MANTENIMIENTO, CONSERVACIÓN Y RESTAURACIÓN DE MATERIALES CINEMATOGRÁFICOS Y AUDIOVISUALES. SERVICIOS DE CONSERVACIÓN Y MANTENIMIENTO DE BIENES INMUEBLES. CONSERVACIÓN Y MANTENIMIENTO DE EDIFICIOS, CONSERVACIÓN Y MANTENIMIENTO DE CARRETERAS, PISTA, AUTOPISTAS, AUTOVÍAS Y CALZADAS. CONSERVACIÓN Y MANTENIMIENTO DE REDES DE AGUA Y ALCANTARILLADO, CONSERVACIÓN Y MANTENIMIENTO INTEGRAL DE ESTACIONES DEPURADORAS. CONSERVACIÓN Y MANTENIMIENTO DE MOBILIARIO URBANO. CONSERVACIÓN DE MONTES Y JARDINES. CONSERVACIÓN Y MANTENIMIENTO DE MONUMENTOS Y EDIFICIOS SINGULARES. SERVICIOS DE MANTENIMIENTO Y REPARACIÓN DE EQUIPOS E INSTALACIONES. MANTENIMIENTO Y REPARACIÓN DE EQUIPOS E INSTALACIONES ELÉCTRICAS Y ELECTRÓNICAS .MANTENIMIENTO Y REPARACIÓN DE EQUIPOS E INSTALACIONES DE FONTANERÍA, CONDUCCIONES DE GAS Y AGUA. MANTENIMIENTOS Y REPARACIÓN DE EQUIPOS E INSTALACIONES DE CALEFACCIÓN Y AIRE ACONDICIONADO. MANTENIMIENTO Y REPARACIÓN DE EQUIPOS DE INSTALACIONES DE ELECTROMEDICINA. MANTENIMIENTO Y REPARACIÓN DE EQUIPOS E INSTALACIONES DE SEGURIDAD Y CONTRAINCENDIOS. MANTENIMIENTO Y REPARACIÓN DE EQUIPOS Y MAQUINARIA DE OFICINA. MANTENIMIENTO Y REPARACIÓN DE EQUIPOS E INSTALACIONES DE APARATOS ELEVADORES Y DE TRASLACIÓN HORIZONTAL. SERVICIOS DE MANTENIMIENTO Y REPARACIÓN DE MAQUINARIA. MANTENIMIENTO Y REPARACIÓN DE VEHÍCULOS AUTOMOTORES, INCLUIDOS BUQUES Y AERONAVES. DESMONTAJE DE ARMAMENTO Y DESTRUCCIÓN DE MUNICIÓN DESGUACES. SERVICIOS DE TRANSPORTE. TRANSPORTE EN GENERAL, TRANSPORTE DE ENFERMOS POR CUALQUIER MEDIO DE TRANSPORTE. TRASLADO Y CUSTODIA DE FONDOS. TRANSPORTE DE OBRAS DE ARTE. RECOGIDA Y TRANSPORTE DE CUALQUIER CLASE DE RESIDUOS. SERVICIOS AÉREOS DE FUMIGACIÓN, CONTROL VIGILANCIA AÉREA Y EXTINCIÓN DE INCENDIOS. SERVICIOS DE GRÚA, REMOLQUES DE BUQUES, SERVICIOS DE MENSAJERÍA, CORRESPONDENCIA Y DISTRIBUCIÓN. SERVICIOS DE TRATAMIENTO DE RESIDUOS Y DESHECHOS. TRATAMIENTO INCINERACIÓN DE RESIDUOS Y DESHECHOS URBANOS. TRATAMIENTO D LODOS, TRATAMIENTO D E RESIDUOS RADIACTIVOS Y DE RESIDUOS DE CENTROS SANITARIOS Y CLÍNICAS VETERINARIAS, TRATAMIENTOS DE RESIDUOS OLEOSOS. SERVICIOS DE CONTENIDO. SERVICIOS DE DE RADIO Y TELEVISIÓN, AGENCIA DE NOTICIAS, REALIZACIÓN DE MATERIAL AUDIOVISUAL, SERVICIOS DE TRADUCTORES E INTERPRETES. SERVICIOS GENERALES. SERVICIO DE LIMPIEZA EN GENERAL, LAVANDERÍA Y TINTE. ALMACENAJE. AGENCIA DE VIAJES. GUARDERÍAS INFANTILES. RECOGIDAS DE CARROS PORTAEQUIPAJES, EN ESTACIONE Y AEROPUERTOS. OTROS SERVICIOS NO DETERMINADOS.SERVICIOS DE TECNOLOGÍAS DE LA INFORMACIÓN Y COMUNICACIONES. SERVICIOS DE CAPTURA DE INFORMACIÓN POR MEDIOS ELECTRÓNICOS, INFORMÁTICOS Y TELEMÁTICOS. SERVICIOS DE DESARROLLO Y MANTENIMIENTO DE PROGRAMAS DE ORDENADOR, SERVICIOS DE MANTENIMIENTO DE REPARACIÓN DE EQUIPOS E INSTALACIO0NE INFORMÁTICAS Y DE TELECOMUNICACIONES. SERVICIOS DE TELECOMUNICACIONES. SERVICIOS DE EXPLOTACIÓN Y CONTROL DE SISTEMAS INFORMÁTICOS E INFRAESTRUCTURAS TELEMÁTICAS. SERVICIOS DE CERTIFICACIÓN ELECTRÓNICA. SERVICIOS DE VALORACIÓN Y CERTIFICACIÓN TECNOLÓGICA. OTROS SERVICIOS INFORMÁTICOS O DE TELECOMUNICACIONES. LA SELECCIÓN DE PERSONAL EN GENERAL, LA PRESTACIÓN DE TODO TIPO DE SERVICIOS DE CONSULTORÍA , DESARROLLO Y GESTIÓN DE RECURSOS HUMANOS, TALES COMO ENTRE OTROS DESCRIPCIÓN DE PUESTOS, ANÁLISIS DE DESEMPEÑO, DIAGNÓSTICOS DE NECESIDADES FORMATICAS..ETC. LA PRESTACIÓN DE SERVICIOS DE LIMPIEZA DE FINAL DE OBRA. LA PRESTACIÓN DE SERVICIOS DE SANEAMIENTO Y LIMPIEZA DESINFECCIÓN , MANTENIMIENTO , PROTECCIÓN CONTRA INCENDIOS Y ACCIDENTES EN INTERIORES Y EXTERIORES, TALES COMO NAVES INDUSTRIALES , PABELLONES, TALLERES, VIVIENDAS OFICINAS ESTABLECIMIENTOS COMERCIALES E INDUSTRIALES, RESIDENCIAS, CENTROS SANITARIOS, EDIFICIOS EN GENERAL, CALLES, PARQUES, JARDINES, VÍAS Y ESPACIOS PÚBLICOS , ASÍ COMO TAMBIÉN EN BUQUES Y AERONAVES Y LA PRESTACIÓN DE OTROS SERVICIOS ESPECIALIZADOS DE LIMPIEZA , TALES COMO CRISTALES, CHIMENEAS, FACHADAS, ETC. LA PRESTACIÓN DE SERVICIOS FORESTALES POR CUENTA DE TERCEROS, TALES COMO LA TALA, Y PODA DE ARBOLES , LIMPIEZA , LUCHA CONTRA PLAGAS Y DEFENSA CONTRA INCENDIOS EN TODA CLASE DE BOSQUES , MONTES, TERRENOS, PARQUES Y JARDINES PUBLICO O PRIVADOS. LA PINTURA , TRABAJOS EN YESO Y ESCAYOLA, TERMINACIÓN Y DECORACIÓN D EDIFICIOS, LOCALES Y ACABADOS Y SEÑALIZACIÓN DE VÍAS PÚBLICAS, ADEMÁS DE LA PRESTACIÓN DE SERVICIOS DE REPARACIÓN Y MANTENIMIENTO EN MATERIA DE ALBAÑILERÍA ELECTRICIDAD DE BAJA Y ALTA TENSIÓN, FONTANERÍA, CARPINTERÍA Y DE TODOS AQUELLOS PROFESIONALES RELACIONADOS CON LA ACTIVIDAD DE CONSTRUCCIÓN Y OBRA PÚBLICA QUE PUDIERAN SER SOLICITADOS EN UN MOMENTO DETERMINADO, TANTO POR UNA EMPRESA COMO POR UN PARTICULAR. LA PRESTACIÓN D TODO TIPO DE SERVICIOS COMPLEMENTARIOS QUE PUEDAN AFECTAR VA LAS DIFERENTES AREAS DE GESTIÓN Y PRODUCCIÓN DE LAS EMPRESAS O NEGOCIOS. LA PRESTACIÓN DE TODO TIPO DE SERVICIOS A CUALQUIER CLASE DE EMPRESA QUE QUIERA EXTERNALIZAR Y/O DESCENTRALIZAR DICHOS SERVICIOS",
      "mainEntityOfPage": "https://www.contratacion.euskadi.eus/webkpe00-kperoc/es/ac71aBusquedaRegistrosWar/empresa/07636",
      "_links": {
        "self": {
          "name": "COR OUTSOURCING, S.L.",
          "href": "https://api.euskadi.eus/procurements/companies/07636"
        }
      }
    },
    {
      "name": "IPLAY URBAN DESIGN S.L.",
      "registrationNumber": "06315",
      "identificationNumber": "B20993580",
      "address": "`PORTUETXE 23A-3º EDIFICIO CEMEI OFNA.7 LOCAL 1",
      "location": {
        "postalCode": "20018",
        "municipality": "Donostia / San Sebastián",
        "county": "Gipuzkoa",
        "municipalityId": "069",
        "countyId": "20"
      },
      "economicActivities": [
        {
          "id": "1.617.4",
          "name": "Venta al por mayor de materiales de construcción, vidrio y artículos instalación",
          "_links": {
            "self": {
              "name": "Venta al por mayor de materiales de construcción, vidrio y artículos instalación",
              "href": "https://api.euskadi.eus/procurements/companies/economic-activities/1.617.4"
            }
          }
        }
      ],
      "certificateStartDate": "2021-05-03",
      "certificateEndDate": "2021-10-28",
      "object": "LA COMERCIALIZACIÓN Y DISTRIBUCIÓN DE MOBILIARIO URBANO Y JUEGOS INFANTILES",
      "mainEntityOfPage": "https://www.contratacion.euskadi.eus/webkpe00-kperoc/es/ac71aBusquedaRegistrosWar/empresa/06315",
      "_links": {
        "self": {
          "name": "IPLAY URBAN DESIGN S.L.",
          "href": "https://api.euskadi.eus/procurements/companies/06315"
        }
      }
    },
    {
      "name": "COMERCIAL RAFER, S.L.",
      "registrationNumber": "04894",
      "identificationNumber": "B50045988",
      "address": "UNCASTILLO, 19",
      "location": {
        "postalCode": "50008",
        "municipality": "Zaragoza",
        "county": "Zaragoza",
        "municipalityId": "297",
        "countyId": "50"
      },
      "economicActivities": [
        {
          "id": "1.619.7",
          "name": "Venta al por mayor de instrumentos de precisión, medida y similares",
          "_links": {
            "self": {
              "name": "Venta al por mayor de instrumentos de precisión, medida y similares",
              "href": "https://api.euskadi.eus/procurements/companies/economic-activities/1.619.7"
            }
          }
        }
      ],
      "certificateStartDate": "2021-04-30",
      "certificateEndDate": "2021-10-27",
      "object": "LA VENTA AL MAYOR Y MENOR, IMPORTACIÓN, FABRICACIÓN Y REPARACIÓN DE: A) TODO TIPO DE MATERIALES, PRODUCTOS, APARATOS O INSTRUMENTOS EMPLEADOS EN LOS LABORATORIOS, CUALQUIERA QUE SEA LA ESPECIALIDAD DE ÉSTOS. B) TODO TIPO DE MATERIALES, PRODUCTOS, APARATOS O INSTRUMENTOS MÉDICOS O QUIRÚRGICOS",
      "mainEntityOfPage": "https://www.contratacion.euskadi.eus/webkpe00-kperoc/es/ac71aBusquedaRegistrosWar/empresa/04894",
      "_links": {
        "self": {
          "name": "COMERCIAL RAFER, S.L.",
          "href": "https://api.euskadi.eus/procurements/companies/04894"
        }
      }
    },
    {
      "name": "ASOCIACIÓN DE ACCIÓN SOCIAL AUSARTZEN",
      "registrationNumber": "06161",
      "identificationNumber": "G95709101",
      "address": "Antón Fernandez 3 bajo ",
      "location": {
        "postalCode": "48950",
        "municipality": "Erandio",
        "county": "Bizkaia",
        "municipalityId": "902",
        "countyId": "48"
      },
      "economicActivities": [
        {
          "id": "1.933.9",
          "name": "Otras actividades de enseñanza tales como idiomas, mecanografía",
          "_links": {
            "self": {
              "name": "Otras actividades de enseñanza tales como idiomas, mecanografía",
              "href": "https://api.euskadi.eus/procurements/companies/economic-activities/1.933.9"
            }
          }
        }
      ],
      "certificateStartDate": "2021-04-29",
      "certificateEndDate": "2021-10-19",
      "object": "LOS FINES DE ESTA ASOCIACIÓN SON: A) ACOMPAÑAR EL PROCESO DE DESARROLLO DE LOS MENORES, JÓVENES Y SUS FAMILIAS EN CONTEXTOS DE VULNERABILIDAD, FACILITANDO SITUACIONES EDUCATIVAS EN LAS QUE POTENCIAR VARIABLES DE PROTECCIÓN Y ESTIMULAR LAS COMPETENCIAS PERSONALES Y SOCIALES NECESARIAS PARA SU PLENA INTEGRACIÓN. B) INTERVENIR EN CONTEXTOS DE VULNERABILIDAD O RIESGO, ESPECIALMENTE EN LO REFERENTE A MENORES, MUJERES Y SUS FAMILIAS. C) APOYAR EL DESARROLLO INDIVIDUAL DE MENORES Y JÓVENES EN CONTEXTOS DE VULNERABILIDAD CON EL FIN DE QUE ÉSTOS ALCANCEN LA PLENA INTEGRACIÓN A TRAVÉS DEL DESARROLLO DE ACTUACIONES INTEGRALES Y DE UN ACOMPAÑAMIENTO PERSONALIZADO. D) FAVORECER LA INICIACIÓN Y CAPACITACIÓN PROFESIONAL ESPECIALMENTE DE MENORES Y JÓVENES, ASÍ COMO DE COLECTIVOS CON UN PERFIL DE BAJA EMPLEABILIDAD O DIFÍCIL INTEGRACIÓN LABORAL. E) DESARROLLAR PROGRAMAS ESPECÍFICOS DE MEDIACIÓN FAMILIAR Y DE INTERMEDIACIÓN CONVIVENCIAL. F) FACILITAR ITINERARIOS DE FORMACIÓN CONTINUA A LAS PERSONAS RELACIONADAS CON LA ASOCIACIÓN, TALES COMO SOCIOS, TÉCNICOS, VOLUNTARIOS Y OTRAS PERSONAS SENSIBLES A LOS FINES DE LA ASOCIACIÓN. G) IMPULSAR ACCIONES SOCIOEDUCATIVAS ORIENTADAS A LA PREVENCIÓN, PRIMARIA O SECUNDARIA, DE CONDUCTAS DE RIESGO: CONSUMO DE TÓXICOS, RELACIONES SEXUALES DE RIESGO, ETC. H) IMPULSO DE ACCIONES RELACIONADAS CON EL EUSKERA. I) DESARROLLAR ACCIONES EDUCATIVAS DESTINADAS A LA SENSIBILIZACIÓN Y FOMENTO DEL RESPETO MEDIOAMBIENTAL. J) TRABAJAR EN RED CON OTROS AGENTES SOCIALES EN EL DESARROLLO DE INICIATIVAS Y PROYECTOS DESTINADOS A LA POBLACIÓN EN DESVENTAJA SOCIAL O EXCLUSIÓN. K) PROMOVER EN EL ENTORNO LOS VALORES DE LA CORRESPONSABILIDAD, LA IGUALDAD DE OPORTUNIDADES Y LA PARTICIPACIÓN SOCIAL COMO PILARES DEL DESARROLLO COMUNITARIO. L) REALIZAR ACTIVIDADES DE SENSIBILIZACIÓN Y EDUCACIÓN PARA LA JUSTICIA Y LA PAZ Y DE SOLIDARIDAD CON LOS PAÍSES EMPOBRECIDOS, ESPECIALMENTE EN INSTITUCIONES EDUCATIVAS DEL ÁMBITO MARISTA. M) DISEÑAR PLANES DE PROMOCIÓN Y FORMACIÓN DE VOLUNTARIADO SOCIAL. N) PROMOVER LA INVESTIGACIÓN Y LA FORMACIÓN EN ACTUACIONES DIRIGIDAS A SATISFACER LA ADECUADA RESPUESTA A LAS NECESIDADES Y DERECHOS DE LA INFANCIA. O) TODOS AQUELLOS OTROS FINES QUE ACUERDEN LOS ÓRGANOS DE GOBIERNO DE LA ASOCIACIÓN Y SEAN CONFORME A DERECHO, RELACIONADOS CON LOS OBJETIVOS DE LA ASOCIACIÓN. PARA LA CONSECUCIÓN DE DICHOS FINES SE LLEVARÁN A CABO, PREVIO EL CUMPLIMIENTO DE LOS REQUISITOS LEGALES ESTABLECIDOS, LAS SIGUIENTES ACTIVIDADES: A) DESARROLLAR CUANTOS PROYECTOS E INTERVENCIONES DE TIPO EDUCATIVO, FORMATIVO Y SOCIAL, CONSIDERE OPORTUNO Y VIABLE CON EL FIN DE DAR RESPUESTA A LAS NECESIDADES Y EXPECTATIVAS DE DESARROLLO DE LAS PERSONAS EN SITUACIÓN DE VULNERABILIDAD O RIESGO, ESPECIALMENTE DE MENORES Y JÓVENES. B) DISEÑAR Y PROPONER PLANES DE FORMACIÓN Y DESARROLLO DE COMPETENCIAS EN MATERIA SOCIAL Y EDUCATIVA, PARA SUS SOCIOS, VOLUNTARIOS Y PERSONAL CONTRATADO. C) REALIZAR ACTIVIDADES DE PROMOCIÓN Y DIFUSIÓN DE LOS VALORES DE LA CORRESPONSABILIDAD, LA IGUALDAD DE OPORTUNIDADES Y LA PARTICIPACIÓN SOCIAL COMO PILARES DEL DESARROLLO COMUNITARIO. D) TRABAJAR EN RED CON LOS AGENTES SOCIALES DEL ENTORNO, EN FAVOR DE LA JUSTICIA SOCIAL Y DE LA OBSERVANCIA DE LOS DERECHOS UNIVERSALES DE LA INFANCIA. SIN PERJUDICIO DE LAS ACTIVIDADES DESCRITAS EN EL APARTADO ANTERIOR, LA ASOCIACIÓN, PARA EL CUMPLIMIENTO DE SUS FINES PODRÁ: DESARROLLAR ACTIVIDADES ECONÓMICAS DE TODO TIPO, ENCAMINADAS A LA REALIZACIÓN DE SUS FINES O A ALLEGAR RECURSOS CON ESE OBJETIVO; ADQUIRIR Y POSEER BIENES DE TODAS CLASES Y POR CUALQUIER TÍTULO, ASÍ COMO CELEBRAR ACTOS Y CONTRATOS DE TODO GÉNERO; EJERCITAR TODA CLASE DE ACCIONES CONFORME A LAS LEYES O A SUS ESTATUTOS",
      "mainEntityOfPage": "https://www.contratacion.euskadi.eus/webkpe00-kperoc/es/ac71aBusquedaRegistrosWar/empresa/06161",
      "_links": {
        "self": {
          "name": "ASOCIACIÓN DE ACCIÓN SOCIAL AUSARTZEN",
          "href": "https://api.euskadi.eus/procurements/companies/06161"
        }
      }
    },
    {
      "name": "ECOSTUDI SIMA, S.L.",
      "registrationNumber": "07621",
      "identificationNumber": "B64642325",
      "address": "Partida Sot de fontanet 7",
      "location": {
        "postalCode": "25197",
        "municipality": "Lleida",
        "county": "Lleida",
        "municipalityId": "120",
        "countyId": "25"
      },
      "economicActivities": [
        {
          "id": "1.936.9",
          "name": "Otras investigaciones científicas y técnicas n.c.o.p",
          "_links": {
            "self": {
              "name": "Otras investigaciones científicas y técnicas n.c.o.p",
              "href": "https://api.euskadi.eus/procurements/companies/economic-activities/1.936.9"
            }
          }
        }
      ],
      "certificateStartDate": "2021-04-29",
      "certificateEndDate": "2021-10-26",
      "object": "LA REALIZACIÓN DE TODO TIPO DE TRABAJO, OBRAS, ESTUDIOS, INFORMES, PROYECTOS, DIRECCIÓN DE OBRAS, CONSULTORÍAS, ASISTENCIA TÉCNICA, CONSERVACIÓN, REGENERACIÓN, MEJORA DEL MEDIO AMBIENTE, EN LOS ÁMBITOS DEL MEDIO NATURAL, DE LA CALIDAD AMBIENTAL, DE LA GESTIÓN EMPRESARIAL, DE LAS INFRAESTRUCTURAS AMBIENTALES, DE LA AGRICULTURA, DE LA GANADERÍA, ASÍ COMO COMERCIALIZACIÓN Y VENTA DE PRODUCTOS DERIVADOS DE ESTOS. LA REALIZACIÓN DE ESTUDIOS DE MEJORA TECNOLÓGICA E INNOVACIÓN EN EL CAMPO DEL MEDIO AMBIENTE. LA REALIZACIÓN Y GESTIÓN DE CUALQUIER OTRA ACTIVIDAD RELACIONADA CON LOS SERVICIOS, ESTUDIOS Y ACTIVIDADES COMPLEMENTARIAS DE LOS SECTORES DESCRITOS",
      "mainEntityOfPage": "https://www.contratacion.euskadi.eus/webkpe00-kperoc/es/ac71aBusquedaRegistrosWar/empresa/07621",
      "_links": {
        "self": {
          "name": "ECOSTUDI SIMA, S.L.",
          "href": "https://api.euskadi.eus/procurements/companies/07621"
        }
      }
    },
    {
      "name": "ABEGLAN, S.L.",
      "registrationNumber": "07622",
      "identificationNumber": "B01559178",
      "address": "PAULA MONTAL 20-10ºC",
      "location": {
        "postalCode": "01010",
        "municipality": "Vitoria-Gasteiz",
        "county": "Araba/Álava",
        "municipalityId": "059",
        "countyId": "01"
      },
      "economicActivities": [
        {
          "id": "1.501.1",
          "name": "Construcción completa, reparación y conservación de edificaciones",
          "_links": {
            "self": {
              "name": "Construcción completa, reparación y conservación de edificaciones",
              "href": "https://api.euskadi.eus/procurements/companies/economic-activities/1.501.1"
            }
          }
        }
      ],
      "certificateStartDate": "2021-04-29",
      "certificateEndDate": "2021-10-20",
      "object": "CONSTRUCCIÓN, REHABILITACIONES Y REFORMAS",
      "mainEntityOfPage": "https://www.contratacion.euskadi.eus/webkpe00-kperoc/es/ac71aBusquedaRegistrosWar/empresa/07622",
      "_links": {
        "self": {
          "name": "ABEGLAN, S.L.",
          "href": "https://api.euskadi.eus/procurements/companies/07622"
        }
      }
    },
    {
      "name": "CARROCERÍAS DE AUTOMOCIÓN GIL, S.L.",
      "registrationNumber": "07624",
      "identificationNumber": "B48825087",
      "address": "Calle Jon Arrospide nº 11, 3º",
      "location": {
        "postalCode": "48014",
        "municipality": "Bilbao",
        "county": "Bizkaia",
        "municipalityId": "020",
        "countyId": "48"
      },
      "economicActivities": [
        {
          "id": "1.654.1",
          "name": "Venta al por menor de vehículos terrestres",
          "_links": {
            "self": {
              "name": "Venta al por menor de vehículos terrestres",
              "href": "https://api.euskadi.eus/procurements/companies/economic-activities/1.654.1"
            }
          }
        },
        {
          "id": "1.691.2",
          "name": "Reparación de vehículos automóviles, bicicletas y otros vehículos",
          "_links": {
            "self": {
              "name": "Reparación de vehículos automóviles, bicicletas y otros vehículos",
              "href": "https://api.euskadi.eus/procurements/companies/economic-activities/1.691.2"
            }
          }
        }
      ],
      "certificateStartDate": "2021-04-29",
      "certificateEndDate": "2021-10-13",
      "object": "A) LA REPARACIÓN, CONSERVACIÓN, MANTENIMIENTO Y RESTAURACIÓN DE VEHÍCULOS DE MOTOR, NUEVOS O USADOS, NACIONALES O EXTRANJEROS. B) LA COMPRAVENTA, ALMACENAMIENTO, COMERCIALIZACIÓN, DISTRIBUCIÓN Y MEDIACIÓN DE RECAMBIOS, PIEZAS Y DEMÁS ELEMENTOS DE VEHÍCULOS DE MOTOR DE CUALQUIER CLASE Y GÉNERO",
      "mainEntityOfPage": "https://www.contratacion.euskadi.eus/webkpe00-kperoc/es/ac71aBusquedaRegistrosWar/empresa/07624",
      "_links": {
        "self": {
          "name": "CARROCERÍAS DE AUTOMOCIÓN GIL, S.L.",
          "href": "https://api.euskadi.eus/procurements/companies/07624"
        }
      }
    },
    {
      "name": "PAYMA COTAS EUSKADI, S.L.",
      "registrationNumber": "07625",
      "identificationNumber": "B95723490",
      "address": "P.I.Astolabeitia nº4-2ºD",
      "location": {
        "postalCode": "48220",
        "municipality": "Abadiño",
        "county": "Bizkaia",
        "municipalityId": "001",
        "countyId": "48"
      },
      "economicActivities": [
        {
          "id": "1.843.1",
          "name": "Servicios técnicos de ingeniería",
          "_links": {
            "self": {
              "name": "Servicios técnicos de ingeniería",
              "href": "https://api.euskadi.eus/procurements/companies/economic-activities/1.843.1"
            }
          }
        }
      ],
      "certificateStartDate": "2021-04-29",
      "certificateEndDate": "2021-10-15",
      "object": "A) ESTUDIOS PREVIOS, INFORMES TÉCNICOS, ESTUDIOS DE VIABILIDAD, ESTUDIOS INFORMATIVOS, ANTEPROYECTOS, PLANES DE SEGURIDAD Y SALUD, PROYECTOS DE TRAZADO, PROYECTOS DE CONSTRUCCIÓN, PROYECTOS DE LICITACIÓN, PROYECTOS DE CONCESIÓN, AUDITORÍAS DE PROYECTOS, ESTUDIOS MEDIOAMBIENTALES Y GESTIÓN INTEGRADA DE PROYECTOS. B) DIRECCIÓN FACULTATIVA, ASISTENCIA TÉCNICA, DIRECCIÓN DE EJECUCIÓN, COORDINACIÓN DE SEGURIDAD Y SALUD, DIRECCIÓN MEDIOAMBIENTAL, ASESORÍA TÉCNICA EN EJECUCIÓN DE OBRA. C) ESTUDIOS DE ESTADO DE INFRAESTRUCTURAS, ESTUDIOS DE PATOLOGÍAS, PROYECTOS DE REHABILITACIÓN PROYECTOS D REPARACIÓN ESTRUCTURAS, PROYECTOS DE EXPLOTACIÓN Y MANTENIMIENTO. D) CONTROL TÉCNICO EN EJECUCIÓN DE OBRAS DE INFRAESTRUCTURAS, INSTALACIONES INDUSTRIALES Y EDIFICACIÓN. E) DIRECCIÓN Y GESTIÓN DE CONSERVACIÓN Y EXPLOTACIÓN DE INFRAESTRUCTURAS INSTALACIONES INDUSTRIALES Y EDIFICACIÓN. E) DIR4ECCIÓN Y GESTIÓN DE CONSERVACIÓN Y EXPLOTACIÓN DE INFRAESTRUCTURAS, INSTALACIONES INDUSTRIALES Y EDIFICACIÓN. F) PLANES DE ENSAYOS DE MATERIALES, INFORMES DE CALIDAD EN EJECUCIÓN DE OBRAS. G) ESTUDIOS GEOTÉCNICOS, TOPOGRÁFICOS, BARIMÉTRICOS, FOTOGRAMÉTRICOS Y AGRONÓMICOS. H) GESTIÓN DE SERVICIOS ADMINISTRATIVOS, TÉCNICOS E INFORMÁTICOS. I) PROYECTOS INFORMÁTICOS Y DE SOFTWARE. J) REALIZACIÓN DE ENSAYOS Y ANÁLISIS, EN LABORATORIO Y CAMPO, RELATIVOS A MATERIALES E INSTALACIONES PARA OBRAS, EN LOS ÁMBITOS DE URBANIZACIONES, CARRETERAS, FERROCARRILES, AEROPUERTOS, PUERTOS, OBRAS HIDRÁULICAS Y DE TODO TIPO DE OBRA PÚBLICA, EDIFICIOS DE TODO TIPO, NAVES, PLANTAS INDUSTRIALES, INGENIERÍA MECÁNICA, ENERGÉTICA O QUÍMICA, OLEODUCTOS, GASODUCTOS, MAQUINARIA E INSTALACIONES EN GENERAL, ASÍ COMO DEL TRANSPORTE DE CUALQUIER TIPO Y CLASE",
      "mainEntityOfPage": "https://www.contratacion.euskadi.eus/webkpe00-kperoc/es/ac71aBusquedaRegistrosWar/empresa/07625",
      "_links": {
        "self": {
          "name": "PAYMA COTAS EUSKADI, S.L.",
          "href": "https://api.euskadi.eus/procurements/companies/07625"
        }
      }
    },
    {
      "name": "KPMG ASESORES, S.L.",
      "registrationNumber": "05293",
      "identificationNumber": "B82498650",
      "address": "PASEO DE LA CASTELLANA, 95",
      "location": {
        "postalCode": "28046",
        "municipality": "Madrid",
        "county": "Madrid",
        "municipalityId": "079",
        "countyId": "28"
      },
      "economicActivities": [
        {
          "id": "1.842",
          "name": "Servicios financieros y contables",
          "_links": {
            "self": {
              "name": "Servicios financieros y contables",
              "href": "https://api.euskadi.eus/procurements/companies/economic-activities/1.842"
            }
          }
        }
      ],
      "certificateStartDate": "2021-04-27",
      "certificateEndDate": "2021-09-29",
      "object": "LA PRESTACIÓN DE SERVICIOS PROFESIONALES DE ASESORAMIENTO EN LA GESTIÓN ECONÓMICA, ADMINISTRATIVA, FINANCIERA, CORPORATIVA, DE ORGANIZACIÓN Y ESTRUCTURACION INTERNA Y EXTERNA DE TODO TIPO DE ENTIDADES Y EMPRESAS, ASÍ COMO EL ASESORAMIENTO A LAS MISMAS EN MATERIA DE PLANIFICACIÓN Y DESARROLLO, SISTEMAS DE TECNOLOGÍAS DE LA INFORMACIÓN Y LAS COMUNICACIONES, GESTIÓN DEL CONOCIMIENTO, GESTIÓN DE CONTRATACIÓN, FORMACIÓN DE PERSONAL, CUESTIONES MEDIOAMBIENTALES, CUMPLIMIENTO DE NORMAS DE CALIDAD, PROTECCIÓN Y ORGANIZACIÓN DEL ACTIVO INTANGIBLE, ORGANIZACIÓN DE RECURSOS MATERIALES Y HUMANOS, FUSIONES, ADQUISICIONES Y ESCISIONES Y VALORACIÓN DE EMPRESAS, INCLUYENDO LA ACTUACIÓN COMO EXPTEROTS O PERITOS INDEPENDIENTES EN CUALUQIERA DE LAS CITADAS ACTIVIDADES. LA PRESTACIÓN DE LOS SERVICIOS ENUMERADOS EN EL APARTADO ANTERIOR CON CARÁCTER AUTÓNOMO O INDEPENDIENTE DE LA ACTIVIDAD DE ASESORAMIENTO Y, ESPECÍFICAMENTE, LA PRESTACIÓN DE SERVICIOS PROFESIONALES EN LOS SECTORES DE LA INFORMÁTICA, LAS TECNOLOGÍAS DE LA INFORMACIÓN Y LAS TELECOMUNICACIONES TALES COMO, CON CARÁCTER NO LIMITATIVO NI EXCLUYENTE, LOS QUE SE ENUMERAN A CONTINUACIÓN: 1. CREACIÓN, EXPLOTACIÓN, DISTRIBUCIÓN, DESARROLLO, ANÁLISIS, PROGRAMACIÓN, INSTALACIÓN, MANTENIMIENTO Y OPERACIÓN DE PRODUCTOS O APLICACIONES INFORMÁTICAS. 2. DISEÑO, CONFIGURACIÓN, ADMINISTRACIÓN, INSTALACIÓN, INTEGRACIÓN Y MANTENIMIENTO DE SISTEMAS OPERATIVOS Y DE GESTIÓN DE BASES DE DATOS. 3. PRESTACIÓN DE SOPORTE INFORMÁTICO AVANZADO PARA SOLCIONES INFORMÁTICAS COMPLETAS ASÍ COMO LA REALIZACIÓN, EJECUCIÓN DE PROYECTOS DE SISTEMAS DE INFORMACIÓN, TECNOLOGÍA DE LA INFORMACIÓN Y DE AUTOMATIZACIÓN. 4. CREACIÓN, DISEÑO Y DESARROLLO DE PORTALES Y PÁGINAS WEB. 5. SERVICOS DE EXPLOTACIÓN Y CONTROL DE SISTEMAS INFORMÁTICOS E INFRAESTRUCTURAS TELEMÁTICAS. SERVICIOS DE EVALUACIÓN Y CERTIFICACIÓN TECNOLÓGICA. 6. SERVICIOS DE CAPTURA DE IFNORMACIÓN POR MEDIOS ELECTRÓNICOS, INFORMÁTICOS Y TELEMÁTICOS. 7. CUALESQUIERA OTROS SERVICIOS EN LOS SECTORES DE LA INFORMÁTICA, LAS TECNOLOGÍAS DE LA INFORMACIÓN Y LAS TELECOMUNICACIONES, YA EXISTENTES EN LA ACTUALIDAD O DE NUEVA CREACIÓN, NO ESPECÍFICAMENTE RECOGIDOS EN LOS ANTERIORES APARTADOS",
      "mainEntityOfPage": "https://www.contratacion.euskadi.eus/webkpe00-kperoc/es/ac71aBusquedaRegistrosWar/empresa/05293",
      "_links": {
        "self": {
          "name": "KPMG ASESORES, S.L.",
          "href": "https://api.euskadi.eus/procurements/companies/05293"
        }
      }
    },
    {
      "name": "HIBERUS SISTEMAS INFORMÁTICOS, S.L.",
      "registrationNumber": "07354",
      "identificationNumber": "B99045379",
      "address": "Calle Bari 25 duplicado, escalera 1, 2ª planta",
      "location": {
        "postalCode": "50197",
        "municipality": "Zaragoza",
        "county": "Zaragoza",
        "municipalityId": "297",
        "countyId": "50"
      },
      "economicActivities": [
        {
          "id": "1.659.2",
          "name": "Venta al por menor de muebles de oficina y máquinas y equipos de oficina",
          "_links": {
            "self": {
              "name": "Venta al por menor de muebles de oficina y máquinas y equipos de oficina",
              "href": "https://api.euskadi.eus/procurements/companies/economic-activities/1.659.2"
            }
          }
        }
      ],
      "certificateStartDate": "2021-04-27",
      "certificateEndDate": "2021-10-13",
      "object": "LA VENTA DE EQUIPOS INFORMÁTICOS, ORDENADORES, IMPRESORAS Y SIMILARES (HARDWARE), REDES, REPARACIÓN Y SERVICIO TÉCNICO PARA TALES PRODUCTOS, INSTALACIÓN DE ORDENADORES, SERVIDORES Y SERVICIOS DE SEGURIDAD DE TALES EQUIPOS",
      "mainEntityOfPage": "https://www.contratacion.euskadi.eus/webkpe00-kperoc/es/ac71aBusquedaRegistrosWar/empresa/07354",
      "_links": {
        "self": {
          "name": "HIBERUS SISTEMAS INFORMÁTICOS, S.L.",
          "href": "https://api.euskadi.eus/procurements/companies/07354"
        }
      }
    }
  ]
}