{
  "totalItems": 9042,
  "totalPages": 905,
  "currentPage": 724,
  "itemsOfPage": 10,
  "items": [
    {
      "name": "CONSTRUCCIONES ERDOIZA, S.A.",
      "registrationNumber": "04059",
      "identificationNumber": "A48109284",
      "address": "ANTSO EZTEGIZ ZUMARDIA, 26",
      "location": {
        "postalCode": "48200",
        "municipality": "Durango",
        "county": "Bizkaia",
        "municipalityId": "027",
        "countyId": "48"
      },
      "economicActivities": [
        {
          "id": "1.501.1",
          "name": "Construcción completa, reparación y conservación de edificaciones",
          "_links": {
            "self": {
              "name": "Construcción completa, reparación y conservación de edificaciones",
              "href": "https://api.euskadi.eus/procurements/companies/economic-activities/1.501.1"
            }
          }
        }
      ],
      "certificateStartDate": "2010-09-27",
      "certificateEndDate": "2011-03-17",
      "object": "-) LA CONSTRUCCIÓN DE OBRA PRIVADA Y PÚBLICA, DE EDIFICACIONES DE TODAS CLASES DE VIVIENDAS, PABELLONES, LOCALES; ADQUISICIÓN DE TERRENOS CON DESTINO A LA CONSTRUCCIÓN, ASÍ COMO SU VENTA, CON PARCELACIÓN O NO DE LOS MISMOS; EXPLOTACIÓN DE VIVIENDAS Y LOCALES EN ARRENDAMIENTO Y ALQUILER. CONSTRUCCIÓN DE OBRA PROPIA Y A TERCEROS Y CARPINTERÍA.\n-) ASIMISMO LA SOCIEDAD PODRÁ ADQUIRIR, ENAJENAR Y ARRENDAR, TENER, DISFRUTAR Y DISPONER EN CUALQUIER FORMA DE TODA CLASE DE BIENES INMUEBLES, ACCIONES, PARTICIPACIONES SOCIALES, OBLIGACIONES, BONOS DE CAJA, CERTIFICADO DE DEPÓSITO DE TODA CLASE DE EMPRESAS O NEGOCIOS.",
      "mainEntityOfPage": "https://www.contratacion.euskadi.eus/webkpe00-kperoc/es/ac71aBusquedaRegistrosWar/empresa/04059",
      "_links": {
        "self": {
          "name": "CONSTRUCCIONES ERDOIZA, S.A.",
          "href": "https://api.euskadi.eus/procurements/companies/04059"
        }
      }
    },
    {
      "name": "FACTOR CO2 INTEGRAL SERVICES, S.L.",
      "registrationNumber": "03807",
      "identificationNumber": "B95308367",
      "address": "PO. CAMPO VOLANTÍN, 20-3º",
      "location": {
        "postalCode": "48007",
        "municipality": "Bilbao",
        "county": "Bizkaia",
        "municipalityId": "020",
        "countyId": "48"
      },
      "economicActivities": [
        {
          "id": "1.847",
          "name": "Servicios de consultoría",
          "_links": {
            "self": {
              "name": "Servicios de consultoría",
              "href": "https://api.euskadi.eus/procurements/companies/economic-activities/1.847"
            }
          }
        }
      ],
      "certificateStartDate": "2010-09-23",
      "certificateEndDate": "2011-03-13",
      "object": "EL DESARROLLO INTEGRAL DE SERVICIOS Y LA PUESTA EN MARCHA DE PROYECTOS Y ACTUACIONES EN RELACIÓN CON EL CAMBIO CLIMÁTICO Y EL COMERCIO DE EMISIONES DE GASES DE EFECTO INVERNADERO. DE FORMA ESPECIAL SE DESARROLLARÁN LAS SIGUIENTES ACTIVIDADES:\r\n- FACILITAR LA ADAPTACIÓN A LA NORMATIVA APLICABLE EN MATERIA DE CAMBIO CLIMÁTICO, ASÍ COMO ASESORAR EN EL DISEÑO Y ELABORACIÓN DE NUEVA NORMATIVA.\r\n- COLABORAR EN EL DESARROLLO DE POLÍTICAS Y ESTRATEGIAS RELACIONADAS CON EL CAMBIO CLIMÁTICO.\r\n- COLABORAR Y ASESORAR EN LA PUESTA EN MARCHA DE MEDIDAS LEGALES, TÉCNICAS, ECONÓMICAS, SOCIALES Y AMBIENTALES ADECUADAS EN RELACIÓN CON EL CAMBIO CLIMÁTICO.\r\n- DESARROLLAR Y PARTICIPAR PROYECTOS DE INVERSIÓN, ASÍ COMO DE INVESTIGACIÓN Y DESARROLLO RELACIONADOS CON EL CAMBIO CLIMÁTICO.\r\n- SENSIBILIZAR AL SECTOR INDUSTRIAL, ADMINISTRACIONES Y AL PÚBLICO EN GENERAL DE LAS IMPLICACIONES DEL CAMBIO CLIMÁTICO.\r\n- OFRECER ASESORAMIENTO Y APOYO EN RELACIÓN CON MERCADOS DE DERECHOS DE EMISIÓN DE GASES DE EFECTO INVERNADERO.\r\n- INTERMEDIAR EN LAS TRANSACCIONES DERIVADAS DE LA PUESTA EN MARCHA DEL MERCADO DE EMISIONES DE GASES DE EFECTO INVERNADERO, CON ESPECIAL ATENCIÓN AL CO2, INCLUSO FINANCIACIÓN DE LAS MISMAS.\r\n- COMPRA VENTA E INTERMEDIACIÓN DE TECNOLOGÍAS RELACIONADAS CON LAS INTERVENCIÓN SOBRE LAS CAUSAS Y LOS EFECTOS DEL CAMBIO CLIMÁTICO Y DERECHOS INDUSTRIALES E INTELECTUALES RELACIONADOS CON LAS MISMAS",
      "mainEntityOfPage": "https://www.contratacion.euskadi.eus/webkpe00-kperoc/es/ac71aBusquedaRegistrosWar/empresa/03807",
      "_links": {
        "self": {
          "name": "FACTOR CO2 INTEGRAL SERVICES, S.L.",
          "href": "https://api.euskadi.eus/procurements/companies/03807"
        }
      }
    },
    {
      "name": "AYSCOM CELULAR DE SERVICIOS, S.L.",
      "registrationNumber": "04499",
      "identificationNumber": "B83742080",
      "address": "AVDA. CARDENAL ORIA 63, 3º",
      "location": {
        "postalCode": "28034",
        "municipality": "Madrid",
        "county": "Madrid",
        "municipalityId": "079",
        "countyId": "28"
      },
      "economicActivities": [
        {
          "id": "1.654.5",
          "name": "Venta al por menor de toda clase de maquinaría",
          "_links": {
            "self": {
              "name": "Venta al por menor de toda clase de maquinaría",
              "href": "https://api.euskadi.eus/procurements/companies/economic-activities/1.654.5"
            }
          }
        }
      ],
      "certificateStartDate": "2010-09-23",
      "certificateEndDate": "2011-03-01",
      "object": "EL DESARROLLO Y COMERCIALIZACIÓN DE PRODUCTOS Y SERVICIOS DE COMUNICACIONES E INGENIERÍA, LA COMERCIALIZACIÓN Y DISTRIBUCIÓN DE PRODUCTOS INFORMÁTICOS EN SUS VERTIENTES DE SOFWARE Y HARDWARE; CREACIÓN, FABRICACIÓN Y DISEÑO DE DICHOS PRODUCTOS, PRESTACIÓN DE SERVICIOS, MANTENIMIENTO Y CONSULTORÍA EN RELACIÓN CON LOS MISMOS. TODA CLASE DE ASISTENCIA TÉCNICA DE INGENIERÍA DE CUALQUIER ESPECIALIDAD, ASI COMO LA REALIZACIÓN DE AUDITORÍAS TÉCNICAS, INDUSTRIALES O ECONÓMICAS.",
      "mainEntityOfPage": "https://www.contratacion.euskadi.eus/webkpe00-kperoc/es/ac71aBusquedaRegistrosWar/empresa/04499",
      "_links": {
        "self": {
          "name": "AYSCOM CELULAR DE SERVICIOS, S.L.",
          "href": "https://api.euskadi.eus/procurements/companies/04499"
        }
      }
    },
    {
      "name": "SANOFI PASTEUR MSD, S.A.",
      "registrationNumber": "03284",
      "identificationNumber": "A60051190",
      "address": "Pº DE LA CASTELLANA, Nº 141, 2ª PLANTA",
      "location": {
        "postalCode": "28046",
        "municipality": "Madrid",
        "county": "Madrid",
        "municipalityId": "079",
        "countyId": "28"
      },
      "economicActivities": [
        {
          "id": "1.614.1",
          "name": "Venta al por mayor de productos farmacéuticos y medicamentos",
          "_links": {
            "self": {
              "name": "Venta al por mayor de productos farmacéuticos y medicamentos",
              "href": "https://api.euskadi.eus/procurements/companies/economic-activities/1.614.1"
            }
          }
        }
      ],
      "certificateStartDate": "2010-09-22",
      "certificateEndDate": "2011-02-18",
      "object": "LA FABRICACIÓN, ELABORACIÓN E INVESTIGACIÓN, CONTROL DE CALIDAD, CIRCULACIÓN, DISTRIBUCIÓN, COMERCIALIZACIÓN, INFORMACIÓN Y PUBLICIDAD Y ALMACENAMIENTO DE TODO TIPO DE MEDICAMENTOS Y PRODUCTOS FARMACÉUTICOS DEDICADOS AL USO HUMANO Y LA COMERCIALIZACIÓN, COMPRAVENTA, IMPORTACIÓN Y EXPORTACIÓN DE MATERIAS PRIMAS PARA LA FABRICACIÓN DE SERUMS DE TODO TIPO    ",
      "mainEntityOfPage": "https://www.contratacion.euskadi.eus/webkpe00-kperoc/es/ac71aBusquedaRegistrosWar/empresa/03284",
      "_links": {
        "self": {
          "name": "SANOFI PASTEUR MSD, S.A.",
          "href": "https://api.euskadi.eus/procurements/companies/03284"
        }
      }
    },
    {
      "name": "IZULAN, S.L.",
      "registrationNumber": "01955",
      "identificationNumber": "B20344909",
      "address": "C/ ZABALETA, Nº 2 - 1º. DPTOS. 6 y 7",
      "location": {
        "postalCode": "20002",
        "municipality": "Donostia / San Sebastián",
        "county": "Gipuzkoa",
        "municipalityId": "069",
        "countyId": "20"
      },
      "economicActivities": [
        {
          "id": "1.617.4",
          "name": "Venta al por mayor de materiales de construcción, vidrio y artículos instalación",
          "_links": {
            "self": {
              "name": "Venta al por mayor de materiales de construcción, vidrio y artículos instalación",
              "href": "https://api.euskadi.eus/procurements/companies/economic-activities/1.617.4"
            }
          }
        },
        {
          "id": "1.651.5",
          "name": "Venta al por menor de prendas especiales",
          "_links": {
            "self": {
              "name": "Venta al por menor de prendas especiales",
              "href": "https://api.euskadi.eus/procurements/companies/economic-activities/1.651.5"
            }
          }
        }
      ],
      "certificateStartDate": "2010-09-20",
      "certificateEndDate": "2011-03-08",
      "object": "LA ADQUISICIÓN, COMERCIALIZACIÓN Y VENTA DE BIENES DE CONSUMO",
      "mainEntityOfPage": "https://www.contratacion.euskadi.eus/webkpe00-kperoc/es/ac71aBusquedaRegistrosWar/empresa/01955",
      "_links": {
        "self": {
          "name": "IZULAN, S.L.",
          "href": "https://api.euskadi.eus/procurements/companies/01955"
        }
      }
    },
    {
      "name": "ASCENSORES URBIL, S.A.",
      "registrationNumber": "03179",
      "identificationNumber": "A95065025",
      "address": "C/ IKEA Nº 3, TRASERA LONJA",
      "location": {
        "postalCode": "48940",
        "municipality": "Leioa",
        "county": "Bizkaia",
        "municipalityId": "054",
        "countyId": "48"
      },
      "economicActivities": [
        {
          "id": "1.504.6",
          "name": "Montaje e instalación de aparatos elevadores de cualquier clase",
          "_links": {
            "self": {
              "name": "Montaje e instalación de aparatos elevadores de cualquier clase",
              "href": "https://api.euskadi.eus/procurements/companies/economic-activities/1.504.6"
            }
          }
        }
      ],
      "certificateStartDate": "2010-09-13",
      "certificateEndDate": "2011-01-20",
      "object": ".",
      "mainEntityOfPage": "https://www.contratacion.euskadi.eus/webkpe00-kperoc/es/ac71aBusquedaRegistrosWar/empresa/03179",
      "_links": {
        "self": {
          "name": "ASCENSORES URBIL, S.A.",
          "href": "https://api.euskadi.eus/procurements/companies/03179"
        }
      }
    },
    {
      "name": "INCOHISA INSTALACIONES, S.A.",
      "registrationNumber": "04489",
      "identificationNumber": "A48450522",
      "address": "JARDINES DE GERNIKA 11",
      "location": {
        "postalCode": "48003",
        "municipality": "Bilbao",
        "county": "Bizkaia",
        "municipalityId": "020",
        "countyId": "48"
      },
      "economicActivities": [
        {
          "id": "1.504.2",
          "name": "Instalaciones de fontanería",
          "_links": {
            "self": {
              "name": "Instalaciones de fontanería",
              "href": "https://api.euskadi.eus/procurements/companies/economic-activities/1.504.2"
            }
          }
        }
      ],
      "certificateStartDate": "2010-09-03",
      "certificateEndDate": "2011-01-01",
      "object": "EL DESARROLLO DE CUANTAS ACTIVIDADES SE RELACIONEN CON LA RAMA DE LA CONSTRUCCIÓN, ACTIVIDADES TALES COMO ALBAÑILERÍA, FONTANERÍA, INSTALACIONES ELÉCTRICAS Y DE CALEFACCIÓN, INSTALACIONES CONTRA INCENDIOS, ASÍ COMO LA FABRICACIÓN, COMERCIO, GESTIÓN Y REPRESENTACIÓN DE TODA CLASE DE SUMINISTROS",
      "mainEntityOfPage": "https://www.contratacion.euskadi.eus/webkpe00-kperoc/es/ac71aBusquedaRegistrosWar/empresa/04489",
      "_links": {
        "self": {
          "name": "INCOHISA INSTALACIONES, S.A.",
          "href": "https://api.euskadi.eus/procurements/companies/04489"
        }
      }
    },
    {
      "name": "EUSKAL DOMOTIC, S.L.",
      "registrationNumber": "01571",
      "identificationNumber": "B48573059",
      "address": "GOIKO KALEA, Nº 31 - 3º DCHA.",
      "location": {
        "postalCode": "48360",
        "municipality": "Mundaka",
        "county": "Bizkaia",
        "municipalityId": "068",
        "countyId": "48"
      },
      "economicActivities": [
        {
          "id": "1.504.2",
          "name": "Instalaciones de fontanería",
          "_links": {
            "self": {
              "name": "Instalaciones de fontanería",
              "href": "https://api.euskadi.eus/procurements/companies/economic-activities/1.504.2"
            }
          }
        },
        {
          "id": "1.699",
          "name": "Otras reparaciones n.c.o.p",
          "_links": {
            "self": {
              "name": "Otras reparaciones n.c.o.p",
              "href": "https://api.euskadi.eus/procurements/companies/economic-activities/1.699"
            }
          }
        }
      ],
      "certificateStartDate": "2010-09-02",
      "certificateEndDate": "2011-02-12",
      "object": "A) EL CONTROL, MANTENIMIENTO Y LIMPIEZA, POR CUENTA Y CON MEDIOS PROPIOS O DE TERCEROS, DE TODO TIPO DE EDIFICIOS E INMUEBLES Y LA REALIZACIÓN Y MANTENIMIENTO DE TODAS SUS INSTALACIONES Y EN PARTICULAR, LAS DE AGUA CALIENTE SANITARIA Y FONTANERÍA; AIRE ACONDICIONADO Y CLIMATIZACIÓN; INSTALACIONES ELÉCTRICAS DE BAJA Y ALTA TENSIÓN; INSTALACIONES DE SISTEMAS INFORMÁTICOS Y/O ELECTRÓNICOS Y DE CONTROL; SISTEMAS CONTRA INCENDIOS, INSTALACIONES DE GAS, JARDINERÍA, ETC.\r\n\r\nB) EL MONTAJE, DISEÑO, ESTUDIOS TÉCNICOS, INFORMES, ASISTENCIA TÉCNICA, SUMINISTRO Y MANTENIMIENTO DE INSTALACIONES Y APARATOS ELECTRÓNICOS, QUE CONSTITUYAN SISTEMAS DE CONTROL",
      "mainEntityOfPage": "https://www.contratacion.euskadi.eus/webkpe00-kperoc/es/ac71aBusquedaRegistrosWar/empresa/01571",
      "_links": {
        "self": {
          "name": "EUSKAL DOMOTIC, S.L.",
          "href": "https://api.euskadi.eus/procurements/companies/01571"
        }
      }
    },
    {
      "name": "TROEM EGA TRANSFORMERS, S.L.L.",
      "registrationNumber": "04488",
      "identificationNumber": "B95575783",
      "address": "Bº ASTEPE, S/N",
      "location": {
        "postalCode": "48340",
        "municipality": "Amorebieta-Etxano",
        "county": "Bizkaia",
        "municipalityId": "003",
        "countyId": "48"
      },
      "economicActivities": [
        {
          "id": "1.312",
          "name": "Forja, estampado, embutición, troquelado, corte y repulsado",
          "_links": {
            "self": {
              "name": "Forja, estampado, embutición, troquelado, corte y repulsado",
              "href": "https://api.euskadi.eus/procurements/companies/economic-activities/1.312"
            }
          }
        }
      ],
      "certificateStartDate": "2010-09-02",
      "certificateEndDate": "2011-01-08",
      "object": "LA TRANSFORMACIÓN DE METALES, CORTE Y DEFORMACIÓN DE CHAPA, PLEGADOS, CURVOS, CORTE Y CURVADOS DE TUBOS, DEFORMACÓN EN GENERAL DE CHAPA Y TUBO. ESTAMPACIÓN EN FRÍO DE PIEZAS",
      "mainEntityOfPage": "https://www.contratacion.euskadi.eus/webkpe00-kperoc/es/ac71aBusquedaRegistrosWar/empresa/04488",
      "_links": {
        "self": {
          "name": "TROEM EGA TRANSFORMERS, S.L.L.",
          "href": "https://api.euskadi.eus/procurements/companies/04488"
        }
      }
    },
    {
      "name": "JUAN MANUEL QUINTANA LÓPEZ (COORDINADORA DE CULTURA AMA-LUR)",
      "registrationNumber": "00930",
      "identificationNumber": "14696440S",
      "address": "C/ AVENIDA ABARO, Nº 2 - 2º.",
      "location": {
        "postalCode": "48920",
        "municipality": "Portugalete",
        "county": "Bizkaia",
        "municipalityId": "078",
        "countyId": "48"
      },
      "economicActivities": [
        {
          "id": "2.851",
          "name": "Representantes técnicos del espectáculo",
          "_links": {
            "self": {
              "name": "Representantes técnicos del espectáculo",
              "href": "https://api.euskadi.eus/procurements/companies/economic-activities/2.851"
            }
          }
        }
      ],
      "certificateStartDate": "2010-08-20",
      "certificateEndDate": "2011-02-18",
      "object": "PROMOVER ACTIVIDADES CULTURALES Y RECREATIVAS",
      "mainEntityOfPage": "https://www.contratacion.euskadi.eus/webkpe00-kperoc/es/ac71aBusquedaRegistrosWar/empresa/00930",
      "_links": {
        "self": {
          "name": "JUAN MANUEL QUINTANA LÓPEZ (COORDINADORA DE CULTURA AMA-LUR)",
          "href": "https://api.euskadi.eus/procurements/companies/00930"
        }
      }
    }
  ]
}