{
  "totalItems": 9042,
  "totalPages": 905,
  "currentPage": 614,
  "itemsOfPage": 10,
  "items": [
    {
      "name": "JUAN JOSÉ CANALES ECHANOVE",
      "registrationNumber": "06166",
      "identificationNumber": "16032975C",
      "address": "marutze Auzoa, 16-3ºB",
      "location": {
        "postalCode": "48610",
        "municipality": "Urduliz",
        "county": "Bizkaia",
        "municipalityId": "089",
        "countyId": "48"
      },
      "economicActivities": [
        {
          "id": "1.501.3",
          "name": "Albañilería y pequeños trabajos de construcción en general",
          "_links": {
            "self": {
              "name": "Albañilería y pequeños trabajos de construcción en general",
              "href": "https://api.euskadi.eus/procurements/companies/economic-activities/1.501.3"
            }
          }
        },
        {
          "id": "2.012",
          "name": "Ingenieros agrónomos y de montes",
          "_links": {
            "self": {
              "name": "Ingenieros agrónomos y de montes",
              "href": "https://api.euskadi.eus/procurements/companies/economic-activities/2.012"
            }
          }
        }
      ],
      "certificateStartDate": "2019-04-04",
      "certificateEndDate": "2019-07-08",
      "object": "ALBAÑILERÍA Y PEQUEÑOS TRABAJOS DE CONSTRUCCIÓN EN GENERAL E INGENIEROS AGRÓNOMOS Y DE MONTES (MANTENIMIENTO DE PISCINAS)",
      "mainEntityOfPage": "https://www.contratacion.euskadi.eus/webkpe00-kperoc/es/ac71aBusquedaRegistrosWar/empresa/06166",
      "_links": {
        "self": {
          "name": "JUAN JOSÉ CANALES ECHANOVE",
          "href": "https://api.euskadi.eus/procurements/companies/06166"
        }
      }
    },
    {
      "name": "NEUMATICOS VALORACION RECYCLING, S.L.",
      "registrationNumber": "06169",
      "identificationNumber": "B95413423",
      "address": "POLIGONO  VALLEGON, PARCELA 48",
      "location": {
        "postalCode": "39709",
        "municipality": "Castro-Urdiales",
        "county": "Cantabria",
        "municipalityId": "020",
        "countyId": "39"
      },
      "economicActivities": [
        {
          "id": "1.622",
          "name": "Venta al por mayor de otros productos de recuperación",
          "_links": {
            "self": {
              "name": "Venta al por mayor de otros productos de recuperación",
              "href": "https://api.euskadi.eus/procurements/companies/economic-activities/1.622"
            }
          }
        }
      ],
      "certificateStartDate": "2019-04-04",
      "certificateEndDate": "2019-08-21",
      "object": "EL TRANSPORTE Y LA GESTIÓN DE RESIDUOS NO ESPECIALES. ADQUISICIÓN, TENENCIA Y DISFRUTE , EXPLOTACIÓN Y ENAJENACIÓN DE TODA CLASE DE FINCAS RÚSTICAS O URBANAS, CUALQUIERA QUE FUERA SU NATURALEZA. PROMOCIÓN, CONSTRUCCIÓN, REHABILITACIÓN, REPARACIÓN POR CUENTA PROPIA O AJENA, DE TODA CLASE DE OBRAS , URBANIZACIONES, EDIFICIOS Y CONSTRUCCIONES, TANTO PÚBLICOS COMO PRIVADOS. ADMINISTRACIÓN, ASESORAMIENTO,GESTIÓN DE SITUACIONES URBANÍSTICAS Y PRESTACIÓN DE SERVICIOS DE TODO TIPO CON RELACIÓN A BIENES INMUEBLES, SEGÚN CONVENGA A SU APROVECHAMIENTO AGRÍCOLA, FORESTAL, URBANO, INDUSTRIAL O DE CUALQUIER NATURALEZA. ASISTENCIA, GESTIÓN, DIRECCIÓN, ADMINISTRACIÓN, INTERVENCIÓN, PARTICIPACIÓN EN EMPRESAS O EN SU CREACIÓN CONSTITUCIÓN O DESARROLLO. PROMOCIÓN, ESTUDIO Y DESARROLLO DE PRODUCTOS Y ACTIVIDADES INDUSTRIALES, COMERCIALES Y DE DISTRIBUCIÓN EN EMPRESAS PROPIAS O PARTICIPADAS Y EXPLOTACIÓN O CESIÓN DE CÁNORICS, ROYALTIES, Y DERECHOS DE LA PROPIEDAD INTELECTUAL E INDUSTRIAL. SERVICIOS DE MEDIACIÓN, GESTIÓN, REPRESENTACIÓN Y COMERCIO INTERIOR Y EXTERIOR, ALMACENAMIENTO, ARRENDAMIENTO, Y, EN GENERAL, COMERCIALIZACIÓN Y DISTRIBUCIÓN DE TODA CLASE DE PRODUCTOS. ADQUISICIÓN, TENENCIA Y DISFRUTE, ADMINISTRACIÓN, ENAJENACIÓN DE TODA CLASE DE TÍTULOS, VALORES INMOBILIARIOS, ACTIVOS FINANCIEROS, DERECHOS DE VALORES, CUOTAS O PARTICIPACIONES EN EMPRESAS INDIVIDUALES O SOCIALES POR CUENTA PROPIA Y CON LA EXCEPCIÓN DE LA INTERMEDIACIÓN, NO INCLUYÉNDOSE EN NINGÚN CASO LAS ACTIVIDADES REGULADAS EN LA LEGISLACIÓN DE INSTITUCIONES DE INVERSIÓN COLECTIVA Y MERCADO DE VALORES\r\n",
      "mainEntityOfPage": "https://www.contratacion.euskadi.eus/webkpe00-kperoc/es/ac71aBusquedaRegistrosWar/empresa/06169",
      "_links": {
        "self": {
          "name": "NEUMATICOS VALORACION RECYCLING, S.L.",
          "href": "https://api.euskadi.eus/procurements/companies/06169"
        }
      }
    },
    {
      "name": "DIVAKIA S. COOP. PEQUEÑA",
      "registrationNumber": "06160",
      "identificationNumber": "F95907598",
      "address": "Sasikoa 26, 2ºCD",
      "location": {
        "postalCode": "48200",
        "municipality": "Durango",
        "county": "Bizkaia",
        "municipalityId": "027",
        "countyId": "48"
      },
      "economicActivities": [
        {
          "id": "1.849.9",
          "name": "Otros servicios independientes n.c.o.p",
          "_links": {
            "self": {
              "name": "Otros servicios independientes n.c.o.p",
              "href": "https://api.euskadi.eus/procurements/companies/economic-activities/1.849.9"
            }
          }
        }
      ],
      "certificateStartDate": "2019-04-02",
      "certificateEndDate": "2019-08-04",
      "object": "EL DESARROLLO Y MANTENIMIENTO DE SOFTWARE PARA EMPRESAS DEL SECTOR ENERGÉTICO",
      "mainEntityOfPage": "https://www.contratacion.euskadi.eus/webkpe00-kperoc/es/ac71aBusquedaRegistrosWar/empresa/06160",
      "_links": {
        "self": {
          "name": "DIVAKIA S. COOP. PEQUEÑA",
          "href": "https://api.euskadi.eus/procurements/companies/06160"
        }
      }
    },
    {
      "name": "XABIER GOIRIA BONILLA",
      "registrationNumber": "06157",
      "identificationNumber": "78887012W",
      "address": "CALLE DON TELLO 28 P01 IZQ",
      "location": {
        "postalCode": "48300",
        "municipality": "Gernika-Lumo",
        "county": "Bizkaia",
        "municipalityId": "046",
        "countyId": "48"
      },
      "economicActivities": [
        {
          "id": "1.981.2",
          "name": "Jardines de recreo en los que la entrada es por precio",
          "_links": {
            "self": {
              "name": "Jardines de recreo en los que la entrada es por precio",
              "href": "https://api.euskadi.eus/procurements/companies/economic-activities/1.981.2"
            }
          }
        }
      ],
      "certificateStartDate": "2019-03-29",
      "certificateEndDate": "2019-09-26",
      "object": "JARDINES DE RECREO EN LOS QUE LA ENTRADA ES POR PRECIO",
      "mainEntityOfPage": "https://www.contratacion.euskadi.eus/webkpe00-kperoc/es/ac71aBusquedaRegistrosWar/empresa/06157",
      "_links": {
        "self": {
          "name": "XABIER GOIRIA BONILLA",
          "href": "https://api.euskadi.eus/procurements/companies/06157"
        }
      }
    },
    {
      "name": "JOSU GOMEZ BARRUTIA",
      "registrationNumber": "06158",
      "identificationNumber": "47500887E",
      "address": "calle doctor sopeña 7 casa 6",
      "location": {
        "postalCode": "41340",
        "municipality": "Tocina",
        "county": "Sevilla",
        "municipalityId": "092",
        "countyId": "41"
      },
      "economicActivities": [
        {
          "id": "2.799",
          "name": "Otros profesionales relacionados con actividades de seguros y de alquileres",
          "_links": {
            "self": {
              "name": "Otros profesionales relacionados con actividades de seguros y de alquileres",
              "href": "https://api.euskadi.eus/procurements/companies/economic-activities/2.799"
            }
          }
        }
      ],
      "certificateStartDate": "2019-03-29",
      "certificateEndDate": "2019-04-18",
      "object": "OTROS PROFESIONALES RELACIONADOS CON ACTIVIDADES DE SEGUROS Y DE ALQUILERES",
      "mainEntityOfPage": "https://www.contratacion.euskadi.eus/webkpe00-kperoc/es/ac71aBusquedaRegistrosWar/empresa/06158",
      "_links": {
        "self": {
          "name": "JOSU GOMEZ BARRUTIA",
          "href": "https://api.euskadi.eus/procurements/companies/06158"
        }
      }
    },
    {
      "name": "BASQUE TEAM 2020, S.L.",
      "registrationNumber": "06151",
      "identificationNumber": "B95518726",
      "address": "RIBERA DE AXPE(ALTZAGA)11B-1º",
      "location": {
        "postalCode": "48950",
        "municipality": "Erandio",
        "county": "Bizkaia",
        "municipalityId": "902",
        "countyId": "48"
      },
      "economicActivities": [
        {
          "id": "1.613.1",
          "name": "Venta al por mayor de productos textiles, confección calzado y artículos cuero",
          "_links": {
            "self": {
              "name": "Venta al por mayor de productos textiles, confección calzado y artículos cuero",
              "href": "https://api.euskadi.eus/procurements/companies/economic-activities/1.613.1"
            }
          }
        },
        {
          "id": "1.651.2",
          "name": "Venta al por menor de prendas de ropa para el vestido y tocado",
          "_links": {
            "self": {
              "name": "Venta al por menor de prendas de ropa para el vestido y tocado",
              "href": "https://api.euskadi.eus/procurements/companies/economic-activities/1.651.2"
            }
          }
        },
        {
          "id": "1.659.6",
          "name": "Venta al por menor de juguetes, artículos de deporte",
          "_links": {
            "self": {
              "name": "Venta al por menor de juguetes, artículos de deporte",
              "href": "https://api.euskadi.eus/procurements/companies/economic-activities/1.659.6"
            }
          }
        }
      ],
      "certificateStartDate": "2019-03-28",
      "certificateEndDate": "2019-08-07",
      "object": "LA FABRICACIÓN, COMERCIALIZACIÓN, COMPRAVENTA, IMPORTACIÓN, EXPORTACIÓN, AL POR MAYOR Y AL POR MENOR, DE TODA CLASE DE ROPA DE VESTIR Y DEPORTIVA, ASÍ COMO TODA CLASE DE MATERIALES Y ARTÍCULOS RELACIONADOS CON EL DEPORTE. LA EXPLOTACIÓN DE LOCALES-GIMNASIOS E INSTALACIONES DEPORTIVAS, DESTINADOS A LA PRÁCTICA DEL DEPORTE EN TODAS SUS MODALIDADES. LA ADMINISTRACIÓN, CESIÓN, INVERSIÓN, TENENCIA, DISFRUTE, GESTIÓN Y NEGOCIACIÓN EN GENERAL, DE VALORES MOBILIARIOS E INMUEBLES, PARTICIPACIONES SOCIALES O EN COPROPIEDAD, DE TODA CLASE DE BIENES, EXCLUYENDO LAS ACTIVIDADES REGULADAS POR LA LEY DE MERCADOS DE VALORES, SOCIEDADES DE INVERSIÓN INMOBILIARIA U OTRA LEGISLACIÓN ESPECIAL. LA ADQUISICIÓN Y ENAJENACIÓN, POR CUALQUIER TÍTULO, DE FINCAS RÚSTICAS Y URBANAS, YA SEAN TIERRAS, SOLARES Y EDIFICIOS, LA CONSTRUCCIÓN DE ÉSTOS, LA ADMINISTRACIÓN, TENENCIA, EXPLOTACIÓN Y ARRENDAMIENTO, YA SEA ACTIVO O PASIVO, DE TALES BIENES Y SU VENTA, TOTAL O PARCIAL, SEGÚN CONVENGA PARA SU APROVECHAMIENTO AGRÍCOLA, FORESTAL, URBANO, INDUSTRIAL O CUALQUIER OTRO; ASÍ COMO LA REALIZACIÓN DE TODO TIPO DE OBRAS Y REFORMAS. LA PROMOCIÓN Y ESTUDIO DE TODA CLASE DE PROYECTOS Y EMPRESAS COMERCIALES E INDUSTRIALES EN GENERAL. LA PRODUCCIÓN AUDIOVISUAL EN SU SENTIDO MÁS AMPLIO: TEATRO, RADIO, CINE Y TELEVISIÓN; Y COMPRENDIENDO LA REALIZACIÓN DE GUIONES AUDIOVISUALES Y EL ASESORAMIENTO EN CUALQUIER ASPECTO RELACIONADO CON LA PRODUCCIÓN AUDIOVISUAL EN CUALQUIERA DE SUS FACETAS, ENTENDIENDO INCLUIDA EN ESTA ACTIVIDAD LA PRODUCCIÓN, EDICIÓN, PUBLICACIÓN Y COMERCIALIZACIÓN DE LIBROS, DISCOS, CINTAS, CASSETTES Y MATERIAL ANÁLOGO. LA EXPLOTACIÓN DE HOTELES, RESTAURANTES, BARES, CAFETERÍAS, DISCOTECAS Y ESTABLECIMIENTOS SEMEJANTES. LA ADQUISICIÓN, ENAJENACIÓN O CESIÓN DE BIENES DE EQUIPO, MAQUINARIA Y UTILLAJE, ASÍ COMO SU VENTA, IMPORTACIÓN O EXPORTACIÓN, POR CUALQUIERA DE LAS FORMAS ADMITIDAS EN DERECHO, ASÍ COMO TODA CLASE DE INVENTOS, LICENCIAS, PATENTES, DERECHOS DE PROPIEDAD INDUSTRIAL O INTELECTUAL, TANTO NACIONALES COMO EXTRANJEROS, ASÍ COMO LA CESIÓN DE TODA CLASE DE DERECHOS DE ARTISTAS, DEPORTISTAS, TOREROS, Y DEMÁS, Y CUALQUIER OTRO QUE LLEVE INHERENTE A LA PROFESIÓN DE PERSONAS, ASÍ COMO LOS DERECHOS DE IMAGEN Y PUBLICIDAD DE LOS MISMOS. LA REPRESENTACIÓN DE TODO TIPO DE DEPORTISTAS, CLUBES, Y DEMÁS PERSONAS O ENTIDADES RELACIONADAS CON EL MUNDO DEL DEPORTE, TANTO NACIONALES COMO EXTRANJERAS Y EN RELACIÓN CON TODAS AQUELLAS ACTIVIDADES Y GESTIONES QUE CONLLEVA LA PRÁCTICA DEL DEPORTE",
      "mainEntityOfPage": "https://www.contratacion.euskadi.eus/webkpe00-kperoc/es/ac71aBusquedaRegistrosWar/empresa/06151",
      "_links": {
        "self": {
          "name": "BASQUE TEAM 2020, S.L.",
          "href": "https://api.euskadi.eus/procurements/companies/06151"
        }
      }
    },
    {
      "name": "PHOTON LINES OPTICA, S.L.",
      "registrationNumber": "06155",
      "identificationNumber": "B84365741",
      "address": "Calle Sanchorreja 11 6B",
      "location": {
        "postalCode": "28011",
        "municipality": "Madrid",
        "county": "Madrid",
        "municipalityId": "079",
        "countyId": "28"
      },
      "economicActivities": [
        {
          "id": "1.619.2",
          "name": "Venta al por mayor de aparatos e instrumentos médicos, ortopédicos, ópticos",
          "_links": {
            "self": {
              "name": "Venta al por mayor de aparatos e instrumentos médicos, ortopédicos, ópticos",
              "href": "https://api.euskadi.eus/procurements/companies/economic-activities/1.619.2"
            }
          }
        }
      ],
      "certificateStartDate": "2019-03-28",
      "certificateEndDate": "2019-07-25",
      "object": "1. LA COMPRA, VENTA Y DISTRIBUCIÓN DE CUALQUIER MANERA Y BAJO CUALQUIER FORMA, DE MATERIAL ÓPTICO Y ELECTRO-ÓPTICO Y EN GENERAL LA REALIZACIÓN DE CUALQUIER ACTIVIDAD INDUSTRIAL, COMERCIAL O FINANCIERA EN ESPAÑA O EN EL EXTRANJERO, RELACIONADA CON LA FABRICACIÓN Y COMERCIALIZACIÓN DE MATERIAL ÓPTICO Y ELECTRO-ÓPTICO. 2. LA COMPRA, SUSCRIPCIÓN, PERMUTA Y VENTA DE VALORES MOBILIARIOS, NACIONALES Y EXTRANJEROS, POR CUENTA PROPIA Y SIN ACTIVIDAD DE INTERMEDIACIÓN, CON LA FINALIDAD DE DIRIGIR, ADMINISTRAR Y GESTIONAR DICHAS PARTICIPACIONES. SE EXCEPTÚAN LAS ACTIVIDADES EXPRESAMENTE RESERVADAS POR LA LEY A LAS INSTITUCIONES DE INVERSIÓN COLECTIVA, ASÍ COMO LO EXPRESAMENTE RESERVADO POR LA LEY DEL MERCADO DE VALORES A LAS AGENCIAS Y/O SOCIEDADES DE VALORES Y BOLSA. IGUALMENTE, QUEDAN EXCLUIDAS DEL OBJETO SOCIAL LAS OPERACIONES RESERVADAS\r\nPOR LA LEY A TODA CLASE DE SOCIEDADES CON REGULACIÓN ESPECIAL Y EN ESPECIAL, A BANCOS, CAJAS DE AHORRO O ENTIDADES FINANCIERAS Y DE INVERSIÓN. 3. LA ADQUISICIÓN, POSESIÓN, EXPLOTACIÓN, CESIÓN, USO, ARRENDAMIENTO DE ACTIVO, DISPOSICIÓN Y TRANSMISIÓN, BAJO CUALQUIER FORMA JURÍDICA, DE PROPIEDADES INMOBILIARIAS, YA SEAN RÚSTICAS O URBANAS, EN ESPAÑA O EN EL EXTRANJERO",
      "mainEntityOfPage": "https://www.contratacion.euskadi.eus/webkpe00-kperoc/es/ac71aBusquedaRegistrosWar/empresa/06155",
      "_links": {
        "self": {
          "name": "PHOTON LINES OPTICA, S.L.",
          "href": "https://api.euskadi.eus/procurements/companies/06155"
        }
      }
    },
    {
      "name": "EXCAVACIONES SOROA SL",
      "registrationNumber": "06147",
      "identificationNumber": "B20806006",
      "address": "BO LARRAITZ 31",
      "location": {
        "postalCode": "20260",
        "municipality": "Alegia",
        "county": "Gipuzkoa",
        "municipalityId": "005",
        "countyId": "20"
      },
      "economicActivities": [
        {
          "id": "1.502.1",
          "name": "Demoliciones y derribos en general",
          "_links": {
            "self": {
              "name": "Demoliciones y derribos en general",
              "href": "https://api.euskadi.eus/procurements/companies/economic-activities/1.502.1"
            }
          }
        }
      ],
      "certificateStartDate": "2019-03-26",
      "certificateEndDate": "2019-07-09",
      "object": "LA DEMOLICIÓN Y DERRIBO DE TODA CLASE DE CONSTRUCCIONES, LA EXCAVACIÓN, LA CONSTRUCCIÓN DE EDIFICACIONES DE CUALQUIER CLASE, LA CREACIÓN Y DESENVOLVIMIENTO DE URBANIZACIONES, LA CONSTRUCCIÓN DE OBRAS PÚBLICAS MEDIANTE CONTRATA CON LA ADMINISTRACIÓN DEL ESTADO, COMUNIDADES AUTÓNOMAS, PROVINCIAS, MUNICIPIOS Y ORGANISMOS PÚBLICOS EN GENERAL",
      "mainEntityOfPage": "https://www.contratacion.euskadi.eus/webkpe00-kperoc/es/ac71aBusquedaRegistrosWar/empresa/06147",
      "_links": {
        "self": {
          "name": "EXCAVACIONES SOROA SL",
          "href": "https://api.euskadi.eus/procurements/companies/06147"
        }
      }
    },
    {
      "name": "RECOGIDA DE ACEITES HERSA SL",
      "registrationNumber": "06142",
      "identificationNumber": "B39517370",
      "address": "LA LLANADA, NAVE 3",
      "location": {
        "postalCode": "39311",
        "municipality": "Cartes",
        "county": "Cantabria",
        "municipalityId": "018",
        "countyId": "39"
      },
      "economicActivities": [
        {
          "id": "1.921.2",
          "name": "Servicios de recogida de basuras y desechos",
          "_links": {
            "self": {
              "name": "Servicios de recogida de basuras y desechos",
              "href": "https://api.euskadi.eus/procurements/companies/economic-activities/1.921.2"
            }
          }
        },
        {
          "id": "1.922",
          "name": "Servicios de limpieza",
          "_links": {
            "self": {
              "name": "Servicios de limpieza",
              "href": "https://api.euskadi.eus/procurements/companies/economic-activities/1.922"
            }
          }
        }
      ],
      "certificateStartDate": "2019-03-22",
      "certificateEndDate": "2019-05-29",
      "object": "TODO EL CONJUNTO DE ACTIVIDADES RELACIONADAS CON LA RECOGIDA Y RECICLAJE DE TODO TIPO DE ACEITES Y GRASAS",
      "mainEntityOfPage": "https://www.contratacion.euskadi.eus/webkpe00-kperoc/es/ac71aBusquedaRegistrosWar/empresa/06142",
      "_links": {
        "self": {
          "name": "RECOGIDA DE ACEITES HERSA SL",
          "href": "https://api.euskadi.eus/procurements/companies/06142"
        }
      }
    },
    {
      "name": "CODISA LEVANTE, S.L.",
      "registrationNumber": "06138",
      "identificationNumber": "B98229065",
      "address": "LA IGLESIA, 2 - 2ª",
      "location": {
        "postalCode": "46114",
        "municipality": "Vinalesa",
        "county": "Valencia/València",
        "municipalityId": "260",
        "countyId": "46"
      },
      "economicActivities": [
        {
          "id": "1.619.2",
          "name": "Venta al por mayor de aparatos e instrumentos médicos, ortopédicos, ópticos",
          "_links": {
            "self": {
              "name": "Venta al por mayor de aparatos e instrumentos médicos, ortopédicos, ópticos",
              "href": "https://api.euskadi.eus/procurements/companies/economic-activities/1.619.2"
            }
          }
        }
      ],
      "certificateStartDate": "2019-03-21",
      "certificateEndDate": "2019-08-26",
      "object": "1.- LA REALIZACIÓN DE ACTIVIDADES PROPIAS DE INSTALACIÓN, MANTENIMIENTO Y REPARACIÓN DE CUALESQUIERA EQUIPOS E INSTALACIONES DE ELECTROMEDICINA, EQUIPOS E INSTALACIONES ELÉCTRICAS Y ELECTRÓNICAS, EQUIPOS E INSTALACIONES DE FONTANERÍA, ASÍ COMO CONDUCCIONES DE GAS Y AGUA. 2.- LA ADQUISICIÓN, COMERCIALIZACIÓN AL MAYOR Y AL MENOR DE MATERIAL MÉDICO, QUIRÚRGICO, CLÍNICO Y CIENTÍFICO, ASÍ COMO CUALESQUIERA PRODUCTOS SANITARIOS Y DE HIGIENE PERSONAL. 3.- LA ADQUISICIÓN, COMERCIALIZACIÓN AL MAYOR Y AL MENOR Y DISTRIBUCIÓN DE ROPA, ALIMENTOS Y MATERIAL DEPORTIVO, PRODUCTOS HERBOLARIOS, EQUIPOS, APARATOS Y MAQUINARIA PARA LA ACTIVIDAD DE FITNESS Y EL EJERCICIO FÍSICO EN GENERAL. 4.- LA INSTALACIÓN, MANTENIMIENTO Y REPARACIÓN DE LABORATORIOS. 5.- LA REPRESENTACIÓN COMERCIAL DE CUALESQUIERA TIPOS DE EMPRESAS Y ENTIDADES DE NATURALEZA MERCANTIL. 6.- LA COMPRAVENTA Y ARRENDAMIENTO DE EDIFICIOS DESTINADOS A VIVIENDAS O LOCALES DE NEGOCIO, NAVES INDUSTRIALES Y URBANIZACIONES, CONSTRUIDOS O EN CONSTRUCCIÓN, SOLARES, FINCAS RÚSTICAS, CASAS RURALES O CUALESQUIERA OTROS BIENES INMUEBLES POR NATURALEZA, CON EXCEPCIÓN DEL ARRENDAMIENTO FINANCIERO.7.- LA INTERMEDIACIÓN EN TODO TIPO DE OPERACIONES INMOBILIARIAS",
      "mainEntityOfPage": "https://www.contratacion.euskadi.eus/webkpe00-kperoc/es/ac71aBusquedaRegistrosWar/empresa/06138",
      "_links": {
        "self": {
          "name": "CODISA LEVANTE, S.L.",
          "href": "https://api.euskadi.eus/procurements/companies/06138"
        }
      }
    }
  ]
}