{
  "totalItems": 9042,
  "totalPages": 905,
  "currentPage": 656,
  "itemsOfPage": 10,
  "items": [
    {
      "name": "NUEVAS TÉCNICAS DE CONSTRUCCIÓN NUTECO, S.L.",
      "registrationNumber": "02517",
      "identificationNumber": "B01124502",
      "address": "C/ VICENTE ALEIXANDRE, 24 BAJO",
      "location": {
        "postalCode": "01003",
        "municipality": "Vitoria-Gasteiz",
        "county": "Araba/Álava",
        "municipalityId": "059",
        "countyId": "01"
      },
      "economicActivities": [
        {
          "id": "1.501.1",
          "name": "Construcción completa, reparación y conservación de edificaciones",
          "_links": {
            "self": {
              "name": "Construcción completa, reparación y conservación de edificaciones",
              "href": "https://api.euskadi.eus/procurements/companies/economic-activities/1.501.1"
            }
          }
        }
      ],
      "certificateStartDate": "2015-09-03",
      "certificateEndDate": "2016-02-28",
      "object": "LA PROMOCIÓN, CONSTRUCCIÓN, COMPRA, VENTA, ARRENDAMIENTO Y EXPLOTACIÓN EN CUALQUIER FORMA, DE TODA CLASE DE EDIFICACIONES, SOLARES E INMUEBLES EN GENERAL, TANTO POR CUENTA AJENA COMO PROPIA.\r\nPRESTACIÓN DE SERVICIOS RELACIONADOS CON EL ÁMBITO INMOBILIARIO, ARQUITECTÓNICO Y PUESTA EN MARCHA DE ESTUDIOS, ACTUACIONES  Y PROYECTOS.\r\nLA REALIZACIÓN POR CUENTA PROPIA O AJENA DE TODA CLASE DE CONSTRUCCIONES, INSTALACIONES, REFORMAS, REHABILITACIONES Y DECORACIÓN, LA SUPERVISIÓN Y CONTROL DE OBRAS, ASÍ COMO LA COORDINACIÓN DE GREMIO, EL ASESORAMIENTO Y LA ASISTENCIA TÉCNICA DE TODO CUANTO SE RELACIONE, DIRECTA O INDIRECTAMENTE CON LA CONSTRUCCIÓN DE EDIFICIOS  ",
      "mainEntityOfPage": "https://www.contratacion.euskadi.eus/webkpe00-kperoc/es/ac71aBusquedaRegistrosWar/empresa/02517",
      "_links": {
        "self": {
          "name": "NUEVAS TÉCNICAS DE CONSTRUCCIÓN NUTECO, S.L.",
          "href": "https://api.euskadi.eus/procurements/companies/02517"
        }
      }
    },
    {
      "name": "URITRANS SAN SEBASTIAN, S.L.L.",
      "registrationNumber": "04568",
      "identificationNumber": "B20798526",
      "address": "POL.IND.IGARA. C/IRIBAR 9 -1",
      "location": {
        "postalCode": "20018",
        "municipality": "Donostia / San Sebastián",
        "county": "Gipuzkoa",
        "municipalityId": "069",
        "countyId": "20"
      },
      "economicActivities": [
        {
          "id": "1.849.5",
          "name": "Servicios de recadería y reparto y manipulación de correspondencia",
          "_links": {
            "self": {
              "name": "Servicios de recadería y reparto y manipulación de correspondencia",
              "href": "https://api.euskadi.eus/procurements/companies/economic-activities/1.849.5"
            }
          }
        }
      ],
      "certificateStartDate": "2015-09-03",
      "certificateEndDate": "2016-02-25",
      "object": "ALMACENAMIENTO, DISTRIBUCIÓN, ENVÍO Y MENSAJERÍA DE PAQUETERÍA Y TODA CLASE DE DOCUMENTACIÓN",
      "mainEntityOfPage": "https://www.contratacion.euskadi.eus/webkpe00-kperoc/es/ac71aBusquedaRegistrosWar/empresa/04568",
      "_links": {
        "self": {
          "name": "URITRANS SAN SEBASTIAN, S.L.L.",
          "href": "https://api.euskadi.eus/procurements/companies/04568"
        }
      }
    },
    {
      "name": "SEBIA HISPANIA, S.A.",
      "registrationNumber": "02476",
      "identificationNumber": "A62512579",
      "address": "C/ SICILIA,  394",
      "location": {
        "postalCode": "08025",
        "municipality": "Barcelona",
        "county": "Barcelona",
        "municipalityId": "019",
        "countyId": "08"
      },
      "economicActivities": [
        {
          "id": "1.619.2",
          "name": "Venta al por mayor de aparatos e instrumentos médicos, ortopédicos, ópticos",
          "_links": {
            "self": {
              "name": "Venta al por mayor de aparatos e instrumentos médicos, ortopédicos, ópticos",
              "href": "https://api.euskadi.eus/procurements/companies/economic-activities/1.619.2"
            }
          }
        }
      ],
      "certificateStartDate": "2015-08-17",
      "certificateEndDate": "2016-01-27",
      "object": "LA FABRICACIÓN, COMERCIALIZACIÓN, VENTA Y DISTRIBUCIÓN DE EQUIPOS Y REACTIVOS DE LABORATORIO PARA EL DIAGNÓSTICO BIOLÓGICO EN EL SECTOR CLÍNICO, ASÍ COMO LA INVESTIGACIÓN EN DIAGNÓSTICO BIOLÓGICO DENTRO DEL SECTOR CLÍNICO.\r\nLA SOCIEDAD PODRÁ DESARROLLAR LAS ACTIVIDADES INTEGRANTES DEL OBJETO SOCIAL, ESPECIFICADAS EN EL APARTADO ANTERIOR, TOTAL O PARCIALMENTE, YA DIRECTAMENTE, YA INDIRECTAMENTE E, INCLUSO, MEDIANTE LA TITULARIDAD DE ACCIONES O PARTICIPACIONES EN OTRAS SOCIEDADES CON OBJETO SOCIAL IDÉNTICO, ANÁLOGO O PARECIDO.\r\nQUEDAN EXCLUIDAS DEL OBJETO SOCIAL TODAS AQUELLAS ACTIVIDADES PARA CUYO EJERCICIO LA LEY EXIJA REQUISITOS ESPECIALES QUE NO QUEDEN CUMPLIDOS POR ESTA SOCIEDAD.\r\nSI LAS DISPOSICIONES LEGALES PARA EL EJERCICIO DE ALGUNAS DE LAS ACTIVIDADES COMPRENDIDAS EN EL OBJETO SOCIAL EXIGIERAN ALGÚN TÍTULO PROFESIONAL, AUTORIZACIÓN ADMINISTRATIVA O INSCRIPCIÓN EN REGISTROS PÚBLICOS, DICHAS ACTIVIDADES DEBERÁN REALIZARSE POR MEDIO DE PERSONAS QUE OSTENTEN DICHA TITULARIDAD PROFESIONAL Y, EN TODO CASO, NO PODRÁN INICIARSE ANTES DE QUE HAYAN CUMPLIDO LOS REQUISITOS ADMINISTRATIVOS EXIGIDOS ",
      "mainEntityOfPage": "https://www.contratacion.euskadi.eus/webkpe00-kperoc/es/ac71aBusquedaRegistrosWar/empresa/02476",
      "_links": {
        "self": {
          "name": "SEBIA HISPANIA, S.A.",
          "href": "https://api.euskadi.eus/procurements/companies/02476"
        }
      }
    },
    {
      "name": "LABORATORIOS GRIFOLS, S.A.",
      "registrationNumber": "01441",
      "identificationNumber": "A58852617",
      "address": "C/ CAN GUASCH, Nº 2. POLÍGONO LEVANTE.",
      "location": {
        "postalCode": "08150",
        "municipality": "Parets del Vallès",
        "county": "Barcelona",
        "municipalityId": "159",
        "countyId": "08"
      },
      "economicActivities": [
        {
          "id": "1.254.2",
          "name": "Fabricación de especialidades y otros productos farmacéuticos",
          "_links": {
            "self": {
              "name": "Fabricación de especialidades y otros productos farmacéuticos",
              "href": "https://api.euskadi.eus/procurements/companies/economic-activities/1.254.2"
            }
          }
        },
        {
          "id": "1.619.2",
          "name": "Venta al por mayor de aparatos e instrumentos médicos, ortopédicos, ópticos",
          "_links": {
            "self": {
              "name": "Venta al por mayor de aparatos e instrumentos médicos, ortopédicos, ópticos",
              "href": "https://api.euskadi.eus/procurements/companies/economic-activities/1.619.2"
            }
          }
        }
      ],
      "certificateStartDate": "2015-08-14",
      "certificateEndDate": "2016-01-31",
      "object": "LA PRÁCTICA DE INVESTIGACIONES CLÍNICAS Y BIOLÓGICAS Y LA PREPARACIÓN DE REACTIVOS Y PRODUCTOS TERAPÉUTICOS Y DIETÉTICOS, Y EN ESPECIAL EN LOS SERVICIOS DE BANCO DE SANGRE Y DERIVADOS, EN LAS TÉCNICAS ANALÍTICO-CLÍNICAS Y BIOLÓGICAS PROPIAS DE LAS MISMAS",
      "mainEntityOfPage": "https://www.contratacion.euskadi.eus/webkpe00-kperoc/es/ac71aBusquedaRegistrosWar/empresa/01441",
      "_links": {
        "self": {
          "name": "LABORATORIOS GRIFOLS, S.A.",
          "href": "https://api.euskadi.eus/procurements/companies/01441"
        }
      }
    },
    {
      "name": "PRESTASER FACILITY SERVICES, S.L.",
      "registrationNumber": "05269",
      "identificationNumber": "B01527340",
      "address": "C/ Kapelamendi, 7",
      "location": {
        "postalCode": "01013",
        "municipality": "Vitoria-Gasteiz",
        "county": "Araba/Álava",
        "municipalityId": "059",
        "countyId": "01"
      },
      "economicActivities": [
        {
          "id": "1.911",
          "name": "Servicios agrícolas y ganaderos",
          "_links": {
            "self": {
              "name": "Servicios agrícolas y ganaderos",
              "href": "https://api.euskadi.eus/procurements/companies/economic-activities/1.911"
            }
          }
        },
        {
          "id": "1.921.1",
          "name": "Servicios de limpieza en calles, vías públicas y jardines",
          "_links": {
            "self": {
              "name": "Servicios de limpieza en calles, vías públicas y jardines",
              "href": "https://api.euskadi.eus/procurements/companies/economic-activities/1.921.1"
            }
          }
        },
        {
          "id": "1.921.4",
          "name": "Servicios de alcantarillado, evacuación y depuración de aguas residuales",
          "_links": {
            "self": {
              "name": "Servicios de alcantarillado, evacuación y depuración de aguas residuales",
              "href": "https://api.euskadi.eus/procurements/companies/economic-activities/1.921.4"
            }
          }
        },
        {
          "id": "1.922",
          "name": "Servicios de limpieza",
          "_links": {
            "self": {
              "name": "Servicios de limpieza",
              "href": "https://api.euskadi.eus/procurements/companies/economic-activities/1.922"
            }
          }
        }
      ],
      "certificateStartDate": "2015-08-14",
      "certificateEndDate": "2016-01-03",
      "object": "LA REALIZACIÓN DE PROYECTOS Y EJECUCIÓN DE TODA CLASE DE OBRAS DE SANEAMIENTO. REALIZACIÓN DE SERVICIOS, MANTENIMIENTOS Y CONSERVACIÓN DE BIENES INMUEBLES, LIMPIEZA E HIGIENIZACIÓN. SERVICIOS DE PORTERÍA, CONTROL DE ACCESOS E INFORMACIÓN AL PÚBLICO. HIGIENIZACIÓN, DESINFECCIÓN, DESINSECTACIÓN Y DESRATIZACIÓN. LIMPIEZA URBANA. ALQUILER, VENTA, INSTALACIÓN, EXPLORACIÓN Y MANTENIMIENTO DE INSTALACIONES DEPORTIVAS. CONSERVACIÓN Y MANTENIMIENTO DE EDIFICIOS. CONSERVACIÓN Y MANTENIMIENTO DE REDES DE AGUA Y ALCANTARILLADO. CONSERVACIÓN Y MANTENIMIENTO DE MONTES Y JARDINES. RECOGIDA Y TRANSPORTE DE TODA CLASE DE RESIDUOS. TRATAMEINTO E INCINERACIÓN DE RESIDUOS Y DESECHOS URBANOS. TRATAMIENTO DE RESIDUOS DE CENTORS SANITARIOS Y CLÍNICAS VETERINARIAS",
      "mainEntityOfPage": "https://www.contratacion.euskadi.eus/webkpe00-kperoc/es/ac71aBusquedaRegistrosWar/empresa/05269",
      "_links": {
        "self": {
          "name": "PRESTASER FACILITY SERVICES, S.L.",
          "href": "https://api.euskadi.eus/procurements/companies/05269"
        }
      }
    },
    {
      "name": "ALAVA INGENIEROS TELECOM, S.L.U.",
      "registrationNumber": "04452",
      "identificationNumber": "B80070113",
      "address": "ALBASANZ, 16 EDIFICIO ANTALIA.",
      "location": {
        "postalCode": "28037",
        "municipality": "Madrid",
        "county": "Madrid",
        "municipalityId": "079",
        "countyId": "28"
      },
      "economicActivities": [
        {
          "id": "1.617.9",
          "name": "Venta al por mayor interindustrial de otros productos n.c.o.p",
          "_links": {
            "self": {
              "name": "Venta al por mayor interindustrial de otros productos n.c.o.p",
              "href": "https://api.euskadi.eus/procurements/companies/economic-activities/1.617.9"
            }
          }
        }
      ],
      "certificateStartDate": "2015-08-09",
      "certificateEndDate": "2016-02-09",
      "object": "LA IMPORTACIÓN, EXPORTACIÓN, VENTA AL POR MAYOR Y MENOR, REPRESENTACIÓN, FABRICACIÓN, INSTALACIÓN, MONTAJE Y REPARACIÓN DE APARATOS, MATERIAL Y EQUIPOS ELÉCTRICOS, ELECTRÓNICOS, FÍSICOS, QUÍMICOS Y MECÁNICOS",
      "mainEntityOfPage": "https://www.contratacion.euskadi.eus/webkpe00-kperoc/es/ac71aBusquedaRegistrosWar/empresa/04452",
      "_links": {
        "self": {
          "name": "ALAVA INGENIEROS TELECOM, S.L.U.",
          "href": "https://api.euskadi.eus/procurements/companies/04452"
        }
      }
    },
    {
      "name": "IBEX SERVICIOS INFORMÁTICOS, S.L.",
      "registrationNumber": "01530",
      "identificationNumber": "B48682868",
      "address": "ALDA. MAZARREDO, Nº 69 - 8º A",
      "location": {
        "postalCode": "48009",
        "municipality": "Bilbao",
        "county": "Bizkaia",
        "municipalityId": "020",
        "countyId": "48"
      },
      "economicActivities": [
        {
          "id": "1.845",
          "name": "Explotación electrónica por cuenta de terceros",
          "_links": {
            "self": {
              "name": "Explotación electrónica por cuenta de terceros",
              "href": "https://api.euskadi.eus/procurements/companies/economic-activities/1.845"
            }
          }
        },
        {
          "id": "1.932.1",
          "name": "Enseñanza de formación y perfeccionamiento profesional no superior",
          "_links": {
            "self": {
              "name": "Enseñanza de formación y perfeccionamiento profesional no superior",
              "href": "https://api.euskadi.eus/procurements/companies/economic-activities/1.932.1"
            }
          }
        }
      ],
      "certificateStartDate": "2015-08-04",
      "certificateEndDate": "2016-01-20",
      "object": "A) LA COMPRA, VENTA, ARRENDAMIENTO Y REPRESENTACIÓN, EN CUALQUIERA DE SUS FÓRMULAS COMERCIALES, LA IMPORTACIÓN, EXPORTACIÓN, COMERCIALIZACIÓN, INDUSTRIALIZACIÓN Y DISTRIBUCIÓN DE ORDENADORES, COMPUTADORAS, CEREBROS ELECTRÓNICOS Y TODA CLASE DE APARATOS, ELEMENTOS, MAQUINARIA Y SUS COMPONENTES, RELACIONADOS CON LA INFORMÁTICA, LA ELECTRÓNICA Y LAS TELECOMUNICACIONES.\r\nB) EL ASESORAMIENTO Y COMERCIALIZACIÓN DE PRODUCTOS Y SERVICIOS, IMPLANTACIÓN Y ADAPTACIÓN DE PROGRAMAS, RELACIONADOS CON LA INFORMÁTICA, LA ELECTRÓNICA Y LAS TELECOMUNICACIONES.\r\nC) LA ENSEÑANZA IMPARTIDA, TANTO EN AULAS PROPIAS O ALQUILADAS, COMO EN EL DOMICILIO DEL ALUMNO, O A DISTANCIAS, BIEN POR CORRESPONDENCIA O POR OTROS SISTEMAS, EN TODOS LOS GRADOS Y DISCIPLINAS DEL CAMPO DE LA INFORMÁTICA",
      "mainEntityOfPage": "https://www.contratacion.euskadi.eus/webkpe00-kperoc/es/ac71aBusquedaRegistrosWar/empresa/01530",
      "_links": {
        "self": {
          "name": "IBEX SERVICIOS INFORMÁTICOS, S.L.",
          "href": "https://api.euskadi.eus/procurements/companies/01530"
        }
      }
    },
    {
      "name": "EXCLUSIVAS CIRCUITO, S.L.",
      "registrationNumber": "04463",
      "identificationNumber": "B48510549",
      "address": "C/RODRIGUEZ ARIAS, 6-6º",
      "location": {
        "postalCode": "48011",
        "municipality": "Bilbao",
        "county": "Bizkaia",
        "municipalityId": "020",
        "countyId": "48"
      },
      "economicActivities": [
        {
          "id": "1.844",
          "name": "Servicios de publicidad, relaciones públicas y similares",
          "_links": {
            "self": {
              "name": "Servicios de publicidad, relaciones públicas y similares",
              "href": "https://api.euskadi.eus/procurements/companies/economic-activities/1.844"
            }
          }
        },
        {
          "id": "1.861.2",
          "name": "Alquiler de locales industriales y otros alquileres n.c.o.p",
          "_links": {
            "self": {
              "name": "Alquiler de locales industriales y otros alquileres n.c.o.p",
              "href": "https://api.euskadi.eus/procurements/companies/economic-activities/1.861.2"
            }
          }
        }
      ],
      "certificateStartDate": "2015-08-04",
      "certificateEndDate": "2015-12-22",
      "object": "LA REALIZACIÓN, CONTRATACIÓN, PRESTACIÓN Y EXPLOTACIÓN DE SERVICIOS PUBLICITARIOS Y EXCLUSIVAS COMERCIALES",
      "mainEntityOfPage": "https://www.contratacion.euskadi.eus/webkpe00-kperoc/es/ac71aBusquedaRegistrosWar/empresa/04463",
      "_links": {
        "self": {
          "name": "EXCLUSIVAS CIRCUITO, S.L.",
          "href": "https://api.euskadi.eus/procurements/companies/04463"
        }
      }
    },
    {
      "name": "COMPUTER AIDED ELEARNING, S.A.",
      "registrationNumber": "04944",
      "identificationNumber": "A46154225",
      "address": "Av. de Francia, 34",
      "location": {
        "postalCode": "46026",
        "municipality": "València",
        "county": "Valencia/València",
        "municipalityId": "250",
        "countyId": "46"
      },
      "economicActivities": [
        {
          "id": "1.932.1",
          "name": "Enseñanza de formación y perfeccionamiento profesional no superior",
          "_links": {
            "self": {
              "name": "Enseñanza de formación y perfeccionamiento profesional no superior",
              "href": "https://api.euskadi.eus/procurements/companies/economic-activities/1.932.1"
            }
          }
        }
      ],
      "certificateStartDate": "2015-08-04",
      "certificateEndDate": "2016-01-20",
      "object": "LA DISTRIBUCIÓN, VENTA Y PROMOCIÓN DE ORDENADORES, ASÍ COMO TAMBIÉN EL ANÁLISIS Y PROGRAMACIÓN DE LOS MISMOS. EL DESARROLLO Y DISTRIBUCIÓN DE CURSOS DE ENSEÑANZA Y DE FORMACÓN,PRESTACIÓN DE SERVICIOS A LOS CENTROS DE FORMACIÓN. DESARROLLO Y VENTA AL POR MAYOR Y MENOR DE CURSOS INTERACTIVOS, MANUALES (IMPRESOS O DIGITALES) Y EJERCICIOS, MEDIANTE PROGRAMAS INFORMÁTICOS E INTERNET. PORTALES DE INTERNET PARA LA GESTIÓN DE COMPRA Y VENTA DE PROGRAMAS INFORMÁTICOS, COURSOS, SEMINARIOS Y CONFERENCIAS. DESARROLLO Y VENTA DE PROGRMAS VÍA WEB E INTERNET",
      "mainEntityOfPage": "https://www.contratacion.euskadi.eus/webkpe00-kperoc/es/ac71aBusquedaRegistrosWar/empresa/04944",
      "_links": {
        "self": {
          "name": "COMPUTER AIDED ELEARNING, S.A.",
          "href": "https://api.euskadi.eus/procurements/companies/04944"
        }
      }
    },
    {
      "name": "CONFLUENTIA SERVICIOS INtEGRALES PARA LA SOSTENIBILIDAD A.I.E.",
      "registrationNumber": "05411",
      "identificationNumber": "V95698312",
      "address": "SAN VICENTE 8-6-8 (EDIFICIO ALBIA I)",
      "location": {
        "postalCode": "48001",
        "municipality": "Bilbao",
        "county": "Bizkaia",
        "municipalityId": "020",
        "countyId": "48"
      },
      "economicActivities": [
        {
          "id": "1.843.1",
          "name": "Servicios técnicos de ingeniería",
          "_links": {
            "self": {
              "name": "Servicios técnicos de ingeniería",
              "href": "https://api.euskadi.eus/procurements/companies/economic-activities/1.843.1"
            }
          }
        }
      ],
      "certificateStartDate": "2015-08-04",
      "certificateEndDate": "2015-11-18",
      "object": "PROMOVER, EJECUTAR Y COMERCIALIZAR LOS SERVICIOS INTEGRALES PARA LA SOSTENIBILIDAD, LA INGENIERÍA, INNOVACIÓN MEDIOAMBIENTAL, LA PROMOCIÓN DE LOS NEGOCIOS DE LAS EMPRESAS CONSTITUYENTES, LA INTERNACIONALIZACIÓN Y EL DESARROLLO DE LOS TRABAJOS DE I+D+i, DESARROLLANDO LA ACTIVIDAD ECONÓMICA AUXILIAR DE LA QUE DESARROLLEN SUS SOCIOS, QUE ES LA QUE SE HACE CONSTAR A CONTINUACIÓN: LA ACTIVIDAD DEL SOCIO \"A.A.C. CENTRO DE ACÚSTICA APLICADA, S.L.\", ES LA REDACCIÓN Y EJECUCIÓN DE PROYECTOS Y ESTUDIOS; ASESORAMIENTO, EVALUACIÓN, CERTIFICACIONES DE PRODUCTOS, ENSAYOS DE MATERIALES, DESARROLLO DE DISEÑOS, FABRICACIÓN Y VENTA DE EQUIPOS ELECTRÓNICOS PARA MEDIDA DE REGISTROS ACÚSTICOS. LA ACTIVIDAD DEL SOCIO \"BASOINSA, S.L.\" ES LA PRESTACIÓN DE SERVICIOS Y ELABORACIÓN DE ESTUDIOS Y PROYECTOS RELACIONADOS CON EL MEDIO AMBIENTE. ESTA ACTIVIDAD SE REALIZARÁ TANTO EN EL ÁMBITO DE LA NATURALEZA (ORDENACIÓN DEL TERRITORIO, IMPACTO MEDIOAMBIENTAL, PAISAJISMO, INGENIERÍA AGROFORESTAL, MEDIDAS CORRECTORAS DE ALTERACIONES MEDIOAMBIENTALES), COMO EN LOS PROCESOS INDUSTRIALES (AUDITORÍAS AMBIENTALES EN RELACIÓN CON RESIDUOS Y CONTAMINACIÓN), ASÍ COMO EN LA GESTIÓN DE MEDIO FÍSICO, SISTEMAS INFORMÁTICOS DE INFORMACIÓN GEOGRÁFICA, TELEDETECCIÓN Y CUALQUIER OTRA ACTIVIDAD QUE ESTÉ RELACIONADA, CONECTADA O Y/O ACCESORIA DE LA RELACIONADA. LA ACTIVIDAD DEL SOCIO \"GEOGRAMA, S.L.\" ES LA INTERMEDIACIÓN EN LA PRESTACIÓN DE SERVICIOS ENTRE EL CLIENTE FINAL Y LOS PROFESIONALES EN LAS SIGUIENTES ACTIVIDADES: SERVICIOS Y CONSULTORÍA DE TOPOGRAFÍA, CARTOGRAFÍA. SERVICIOS DE CAPTURA DE INFORMACIÓN POR MEDIOS ELECTRÓNICOS, SERVICIOS DE DESARROLLO Y MANTENIMIENTO DE PROGRAMAS DE ORDENADOR, SERVICIOS GEOGRÁFICOS A TRAVÉS DE INTERNET, SERVICIOS DE ALOJAMIENTO O HOSTING DE MAPAS E INFORMACIÓN GEOGRÁFICA. LA ADQUISICIÓN, VENTA Y EXPLOTACIÓN MEDIANTE ARRENDAMIENTO O CUALQUIER OTRA FORMA JURÍDICA, DE BIENES INMUEBLES. LA ACTIVIDAD DEL SOCIO \"LAVOLA 1981, S.A.\" ES LA PRESTACIÓN DE TODA CLASE DE SERVICIOS, EN EL SENTIDO MÁS AMPLIO DE CONSULTORÍA Y ASESORAMIENTO AMBIENTAL, DE INGENIERÍA AMBIENTADO, DE EDUCACIÓN, DIVULGACIÓN FORMACIÓN E INFORMACIÓN SOCIAL Y AMBIENTAL, ASÍ COMO DE COMUNICACIÓN, PUBLICIDAD Y RELACIONES PÚBLICAS. ESTOS SERVICIOS COMPRENDERÁN, DE MANERA ENUNCIATIVA Y NO LIMITATIVA: 1. EN EL CAMPO DE LA ASESORÍA Y CONSULTORÍA POR LA SOSTENIBILIDAD LOS SERVICIOS DE DISEÑO, EJECUCIÓN Y/O GESTIÓN DE: - PLANES DE MOVILIDAD -PLANES DE LUCHA CONTRA EL CAMBIO CLIMÁTICO. ESTRATEGIAS DE DESARROLLO SOSTENIBLE Y COMPENSACIÓN DE LAS EMISIONES DE CARBONO -PLANOS DE SOSTENIBILIDAD ENERGÉTICA -PROCESOS DE PARTICIPACIÓN REDACCIÓN DE AGENCIAS 21 LOCALES - PROYECTOS TURÍSTICOS SOSTENIBLES -IMPLANTACIÓN DE CERTIFICACIONES, DISTINTIVOS Y ECOETIQUETAS -IMPLANTACIÓN DE SISTEMAS DE GESTIÓN AMBIENTAL Y ENERGÉTICA -ELABORACIÓN DE CENSOS -PLANES DE ACCIÓN A ZONAS ACÚSTICAS. EVALUACIONES AMBIENTALES. PREVENCIÓN DE RIESGOS -MANTENIMIENTO, INFORMACIÓN Y VIGILANCIA AMBIENTAL - ASISTENCIAS TÉCNICAS - REDACCIÓN DE INFORMES Y ESTUDIOS - PLANES ESTRATÉGICOS DE RESPONSABILIDAD SOCIAL. 2 EN EL CAMPO DE INGENIERÍA AMBIENTAL, LOS SERVICIOS DE DISEÑO, EJECUCIÓN Y/O GESTIÓN DE: -PROYECTO Y OBRAS DE INSTALACIÓN DE PANELES SOLARES, TÉRMICOS, FOTOVOLTAICOS, DE AEROGENERADORES, DE COGENERACIÓN, DE BIOMASA Y OTROS SISTEMAS -ASESORAMIENTO ENERGÉTICO. EVALUACIONES ENERGÉTICAS - ESTUDIOS Y PROYECTOS DE MEJORA DE LA EFICIENCIA ENERGÉTICA DE UNA INSTALACIÓN -CAMPAÑAS DE AYUDAS -TRABAJOS DE GESTIÓN Y ADMINISTRACIÓN DE PLANES. EMPRENDIDAS DE SERVICIOS DE ESTIÓN ENERGÉTICA. 3. EN EL CAMPO DE LA EDUCACIÓN, DIVULGACIÓN, FORMACIÓN E INFORMACIÓN AMBIENTAL Y SOCIAL, LOS SERVICIOS DE DISEÑO, EJECUCIÓN Y/O GESTIÓN DE: -PROGRAMAS Y ACTIVIDADES EDUCATIVAS, DE TIEMPO LIBRE, TURÍSTICAS, DE ANIMACIÓN SOCIOCULTURAL, DEPORTIVA. EQUIPAMIENTOS - OFICINAS- SERVICIOSDE EDUCACIÓN - SERVICIOS DE INFORMACIÓN - SERVICIOS DE GUÍAS - ESTABLECIMIENTOS TURÍSTICOS- CENTROS EDUCATIVOS - CENTROS DE ASISTENCIA A PERSONAS -CENTROS DE ASISTENCIA Y ACOGIDA A MENORES - CENTROS DE EDUCACIÓN SOCIO AMBIENTAL COMO GRANJAS ESCUELA, MUSEOS, ENTIDADES PÚBLICAS O PRIVADAS DE TODO TIPO - VISITAS EDUCATIVAS Y CULTURALES - SERVICIOS DE DOCUMENTACIÓN 4. EN EL CAMPO DE LA COMUNICACIÓN, PUBLICIDAD RELACIONES PÚBLICAS, LOS SERVICIOS DE DISEÑO, EJECUCIÓN Y/O GESTIÓN DE: ORGANIZACIÓN Y PROMOCIÓN DE CONGRESOS, FERIAS Y EXPOSICIONES, JORNADAS TÉCNICAS, CURSOS Y ACTAS Y FESTIVOS, EVENTOS, CON O SIN APORTACIÓN DE RECURSOS HUMANOS Y MATERIALES -ANTEPROYECTOS Y PROYECTOS EJECUTIVOS DE ESPACIOS - EXPOSICIONES CON O SIN APORTACIÓN DE RECURSOS HUMANOS Y MATERIALES -DISEÑO, DIRECCIÓN, CONSTRUCCIÓN, MONTAJE Y DESMONTAJE Y SUPERVISIÓN DE ESTANDS - DISEÑO, REALIZACIÓN Y GESTIÓN INTEGRAL DE MUSEOS, TANTO CON APORTACIÓN COMO SIN DE RECURSOS HUMANOS Y MATERIALES -SERVICIOS DE PUBLICIDAD MEDIANTE ANUNCIOS, CARTELES, HOJAS INFORMATIVAS, POR EL -*LICULES PUBLICITARIAS ENTRE OTROS A TRAVÉS DE PRENSA, RADIO, TELEVISIÓN, PUBLICIDAD AÉREA O BIEN OTROS MEDIOS - SERVICIOS DE PUBLCIDAD OFF-LINE; MEDIOS DECOMUNICACIÓN, MARKETING DIRECTO, PUBLICIDAD EXTERIOR -SERVICIOS DE PUBLICIDAD ON LINE: PRESENCIA A INTERNADO, BANNERS MARKETING VIRAL, POSTALES VIRTUALES -DISEÑO, CONCEPTUALIZACIÓN Y EJECUCIÓN DE CAMPAÑAS INFORMATIVAS Y DE SENSIBILIZACIÓN Y EDUCACIÓN CON APORTACIÓN DE RECURSOS HUMANOS, MATERIALES, SOFTWARE Y HARDWARE -DISEÑO, DESARROLLO Y EJECUCIÓN DE PLANES DE COMUNICACIÓN -ASESORAMIENTO EN EL DISEÑO DE LA IMAGEN CORPORATIVA: IMÁGENES GRÁFICAS, MARCAS -ELABORACIÓN, DISEÑO, EDICIÓN Y MAQUETACIÓN DE CUALQUIER ELEMENTO GRÁFICO - DISEÑO, DISTRIBUCIÓN Y SUMINISTRO DE MATERIALES Y BIENES DE EQUIPAMIENTO -REALIZACIÓN DE MATERIAL AUDIOVISUAL (PRODUCCIÓN DE PELÍCULAS, VIDEOS, FOTOGRAFÍAS) Y MULTIMEDIA (CD-ROM, DVD, BLUE-RAY) Y SUMINISTRO DE EQUIPOS AUDIOVISUALES E INFORMÁTICOS - SERVICIOS DE ARTES GRÁFICAS - CREACIÓN, PRODUCCIÓN Y COMERCIALIZACIÓN DE PRODUCTOS: GADGETS, PRODUCCIONES DE DISEÑO INDUSTRIAL, DISEÑO DE ECO PRODUCTOS, ELEMENTOS DE MERCHANDISING - CREACIÓN, EDICIÓN Y DISTRIBUCIÓN DE TODO TIPO DE MATERIAL INFORMATIVO, DIVULGATIVO Y EDUCATIVO EN CUALQUIER FORMATO. 5. EN EL CAMPO DE LAS TECNOLOGÍAS DE LA INFORMACIÓN Y LA COMUNICACIÓN SERIVCIOS VARIOS DE: -DESARROLLO DE APLICACIONES INFORMÁTICAS -DOSEÑO Y PROGRAMACIÓN DE PORTALES Y PÁGINAS WEB 6. FORMACIÓN RELACIONADA CON CUALQUIER DE LOS APARTADOS ANTERIORES. LA ACTIVIDAD DEL SOCIO \"INGURU, INGENIERÍA Y GESTIÓN AMBIENTAL, S.L.\" ES LA REALIZACIÓN DE PROYECTOS, ESTUDIOS, AUDITORÍAS, PERITACIONES Y ASESORÍAS EN MATERIA DE MEDIO AMBIENTE; ANÁLISIS DE AGUA, ETC. - LAS ACTIVIDADES VENDRÁN DEFINIDAS EN EL PLAN DE GESTIÓN. ESTE PLAN RECOGERÁ LOS OBJETIVOS, ESTRATEGIAS, ACTIVIDADES Y PRESUPUESTO DEL EJERCICIO CORRESPONDIENTE. ESTE PLAN DE GESTIÓN SERÁ REDACTADO CON ANTERIORIDAD AL INICIO DE CADA EJERCICIO Y SE CONSIDERARÁ APLICABLE CUANDO SEA APROBADO POR EL 75 % DE LOS SOCIOS. TAMBIÉN SE INCLUIRÁ LA ESTRATEGIA A SEGUIR EN LOS DISTINTOS PAÍSES EN LOS QUE OPERE EL CONSORCIO, PRIORIZANDO ENTRE LOS DISTINTOS PAÍSES EN FUNCIÓN DE LA OPORTUNIDAD Y LAS CAPACIDADES DEL CONSORCIO",
      "mainEntityOfPage": "https://www.contratacion.euskadi.eus/webkpe00-kperoc/es/ac71aBusquedaRegistrosWar/empresa/05411",
      "_links": {
        "self": {
          "name": "CONFLUENTIA SERVICIOS INtEGRALES PARA LA SOSTENIBILIDAD A.I.E.",
          "href": "https://api.euskadi.eus/procurements/companies/05411"
        }
      }
    }
  ]
}