{
  "totalItems": 9042,
  "totalPages": 905,
  "currentPage": 332,
  "itemsOfPage": 10,
  "items": [
    {
      "name": "TAPUNTU, KOOP. ELK. TXIKIA",
      "registrationNumber": "09483",
      "identificationNumber": "F75137216",
      "address": "CALLE ZUBIAURRENEA 6",
      "location": {
        "postalCode": "20170",
        "municipality": "Usurbil",
        "county": "Gipuzkoa",
        "municipalityId": "073",
        "countyId": "20"
      },
      "economicActivities": [
        {
          "id": "1.845",
          "name": "Explotación electrónica por cuenta de terceros",
          "_links": {
            "self": {
              "name": "Explotación electrónica por cuenta de terceros",
              "href": "https://api.euskadi.eus/procurements/companies/economic-activities/1.845"
            }
          }
        },
        {
          "id": "1.933.9",
          "name": "Otras actividades de enseñanza tales como idiomas, mecanografía",
          "_links": {
            "self": {
              "name": "Otras actividades de enseñanza tales como idiomas, mecanografía",
              "href": "https://api.euskadi.eus/procurements/companies/economic-activities/1.933.9"
            }
          }
        }
      ],
      "certificateStartDate": "2025-08-02",
      "certificateEndDate": "2026-02-02",
      "object": "COLABORAR EN LA CONSECUCIÓN DE LOS OBJETIVOS DE LAS INSTITUCIONES PÚBLICAS, PRIVADAS O COMUNITARIAS ASÍ COMO DE PERSONAS INDIVIDUALES A TRAVÉS DE LOS SERVICIOS DE DESARROLLO DE PÁGINAS WEB, DISEÑO GRÁFICO, TRABAJOS MULTIMEDIA, FORMACIÓN Y SERVICIOS INTEGRALES DE COMUNICACIÓN (INCLUYENDO ASESORAMIENTO). OFRECEMOS ESTOS SERVICIOS DE FORMA INTEGRAL PARA PODER SATISFACER Y ADECUAR LAS NECESIDADES DE LA CLIENTELA EN SU CONJUNTO. ADEMÁS, LA COOPERATIVA SE ADHIERE AL OBJETO ASOCIATIVO DE LA RED OLATUKOOP, POR LO QUE NOS ENCUADRAMOS DENTRO DE LA ECONOMÍA SOCIAL TRANSFORMADORA (EST) PARA CUMPLIR LAS SIGUIENTES FUNCIONES: 1/ TOMANDO COMO EJE LA SOBERANÍA DEL TRABAJO, PONER LA ECONOMÍA AL SERVICIO DE LA VIDA,  Y EN EL CENTRO UNA VIDA Y TRABAJO DIGNO. AL MARGEN DE LOS PARÁMETROS DE BENEFICIO Y COMPETITIVIDAD, SE HARÁ UNA ECONOMÍA SOCIAL. PARA LOGRARLO, EN NUESTRA COOPERATIVA PONDREMOS EN PRÁCTICA LOS SIGUIENTES CRITERIOS: - LA DEMOCRACIA ECONÓMICA: ESTRUCTURAS DEMOCRÁTICAS DE DECISIÓN. - TRABAJO AUTOCONSTITUIDO Y PARTICIPACIÓN INTEGRAL, TRANSPARENTE, IGUALITARIO E INCLUSIVO. - REPARTO JUSTO DE LA RIQUEZA. - PROPIEDAD COLECTIVA. - LA INTERIORIZACIÓN DE LA ECONOMÍA FEMINISTA Y EL RECONOCIMIENTO DE TRABAJOS PRODUCTIVOS Y REPRODUCTIVOS VITALES PARA EL SOSTENIMIENTO DE LA VIDA. - SOSTENIBILIDAD ECONÓMICA RESILIENTE Y FINANCIACIÓN ÉTICA Y EQUITATIVA. 2/LA TRANSFORMACIÓN DE LAS PERSONAS DE LA COOPERATIVA NO SÓLO SE CENTRARÁ EN LA PERSONA, SINO TAMBIÉN EN LA TRANSFORMACIÓN SOCIAL Y TERRITORIAL Y EN LA CONTRIBUCIÓN DE NUESTRAS ACTIVIDADES SOCIOECONÓMICAS AL PATRIMONIO COMÚN. PARA ELLO TRABAJAREMOS LAS SIGUIENTES LÍNEAS: - DESPLIEGUE DE LA EST EN NUESTRO TERRITORIO Y/O ÁREA DE INFLUENCIA, PROMOVIENDO LA RED DE AGENTES LOCALES Y LA INTERCOOPERACIÓN. - PROMOCIÓN ACTIVA DE PROGRAMAS DE EMPRENDIMIENTO SOCIAL Y COOPERATIVO HACIA UN DESARROLLO LOCAL INDEPENDIENTE QUE SATISFAGA LAS NECESIDADES SOCIOCULTURALES Y ECONÓMICAS DE LA CIUDADANÍA, ACCESIBLE PARA TODAS LAS PERSONAS. - CUIDADO MEDIO AMBIENTAL Y ACTITUD ECOLÓGICA.",
      "mainEntityOfPage": "https://www.contratacion.euskadi.eus/webkpe00-kperoc/es/ac71aBusquedaRegistrosWar/empresa/09483",
      "_links": {
        "self": {
          "name": "TAPUNTU, KOOP. ELK. TXIKIA",
          "href": "https://api.euskadi.eus/procurements/companies/09483"
        }
      }
    },
    {
      "name": "AVENTO CONSULTORIA SL",
      "registrationNumber": "06466",
      "identificationNumber": "B20851424",
      "address": "POKOPANDEGI 11 OFICINA 012",
      "location": {
        "postalCode": "20018",
        "municipality": "Donostia / San Sebastián",
        "county": "Gipuzkoa",
        "municipalityId": "069",
        "countyId": "20"
      },
      "economicActivities": [
        {
          "id": "1.847",
          "name": "Servicios de consultoría",
          "_links": {
            "self": {
              "name": "Servicios de consultoría",
              "href": "https://api.euskadi.eus/procurements/companies/economic-activities/1.847"
            }
          }
        }
      ],
      "certificateStartDate": "2025-08-02",
      "certificateEndDate": "2026-02-02",
      "object": "EL ASESORAMIENTO Y GESTIÓN DE CLUBES DEPORTIVOS, SOCIEDADES ANÓNIMAS DEPORTIVAS Y ORGANIZACIONES DEDICADAS AL OCIO Y EL DEPORTE; LA ORGANIZACIÓN DE EVENTOS DEPORTIVOS Y DE OCIO; LA REALIZACIÓN DE TODO TIPO DE GESTIONES COMO AGENTES DEPORTIVOS Y DE OCIO Y LA COMPRA-VENTA, GESTIÓN Y DISTRIBUCIÓN DE TODO TIPO DE ARTÍCULOS DEPORTIVOS, DE OCIO Y DE PUBLICIDAD",
      "mainEntityOfPage": "https://www.contratacion.euskadi.eus/webkpe00-kperoc/es/ac71aBusquedaRegistrosWar/empresa/06466",
      "_links": {
        "self": {
          "name": "AVENTO CONSULTORIA SL",
          "href": "https://api.euskadi.eus/procurements/companies/06466"
        }
      }
    },
    {
      "name": "K1 EKOPAISAIA, S.L.L.",
      "registrationNumber": "05553",
      "identificationNumber": "B75113449",
      "address": "Carretera Urrestilla ",
      "location": {
        "postalCode": "20730",
        "municipality": "Azpeitia",
        "county": "Gipuzkoa",
        "municipalityId": "018",
        "countyId": "20"
      },
      "economicActivities": [
        {
          "id": "1.482.2",
          "name": "Fabricación de artículos acabados de materias plásticas",
          "_links": {
            "self": {
              "name": "Fabricación de artículos acabados de materias plásticas",
              "href": "https://api.euskadi.eus/procurements/companies/economic-activities/1.482.2"
            }
          }
        },
        {
          "id": "1.494.2",
          "name": "Fabricación de artículos de deporte",
          "_links": {
            "self": {
              "name": "Fabricación de artículos de deporte",
              "href": "https://api.euskadi.eus/procurements/companies/economic-activities/1.494.2"
            }
          }
        },
        {
          "id": "1.501.3",
          "name": "Albañilería y pequeños trabajos de construcción en general",
          "_links": {
            "self": {
              "name": "Albañilería y pequeños trabajos de construcción en general",
              "href": "https://api.euskadi.eus/procurements/companies/economic-activities/1.501.3"
            }
          }
        },
        {
          "id": "1.659.7",
          "name": "Venta al por menor de semillas, abonos, flores, plantas y pequeños animales",
          "_links": {
            "self": {
              "name": "Venta al por menor de semillas, abonos, flores, plantas y pequeños animales",
              "href": "https://api.euskadi.eus/procurements/companies/economic-activities/1.659.7"
            }
          }
        },
        {
          "id": "1.911",
          "name": "Servicios agrícolas y ganaderos",
          "_links": {
            "self": {
              "name": "Servicios agrícolas y ganaderos",
              "href": "https://api.euskadi.eus/procurements/companies/economic-activities/1.911"
            }
          }
        },
        {
          "id": "1.912",
          "name": "Servicios forestales",
          "_links": {
            "self": {
              "name": "Servicios forestales",
              "href": "https://api.euskadi.eus/procurements/companies/economic-activities/1.912"
            }
          }
        },
        {
          "id": "1.921.1",
          "name": "Servicios de limpieza en calles, vías públicas y jardines",
          "_links": {
            "self": {
              "name": "Servicios de limpieza en calles, vías públicas y jardines",
              "href": "https://api.euskadi.eus/procurements/companies/economic-activities/1.921.1"
            }
          }
        },
        {
          "id": "1.932.2",
          "name": "Enseñanza de formación y perfeccionamiento profesional superior",
          "_links": {
            "self": {
              "name": "Enseñanza de formación y perfeccionamiento profesional superior",
              "href": "https://api.euskadi.eus/procurements/companies/economic-activities/1.932.2"
            }
          }
        }
      ],
      "certificateStartDate": "2025-08-02",
      "certificateEndDate": "2026-02-02",
      "classification": [
        {
          "id": "O",
          "name": "Obras",
          "groups": [
            {
              "id": "K",
              "name": "ESPECIALES",
              "subgroups": [
                {
                  "id": "06",
                  "name": "Jardinería y plantaciones",
                  "categories": [
                    {
                      "id": "3",
                      "name": "Desde 360.001 Hasta 840.000",
                      "_links": {
                        "self": {
                          "name": "Desde 360.001 Hasta 840.000",
                          "href": "https://api.euskadi.eus/procurements/companies/types/O/categories/3"
                        }
                      }
                    }
                  ],
                  "_links": {
                    "self": {
                      "name": "Jardinería y plantaciones",
                      "href": "https://api.euskadi.eus/procurements/companies/types/O/groups/K/subgroups/06"
                    }
                  }
                }
              ],
              "_links": {
                "self": {
                  "name": "ESPECIALES",
                  "href": "https://api.euskadi.eus/procurements/companies/types/O/groups/K"
                }
              }
            }
          ],
          "_links": {
            "self": {
              "name": "Obras",
              "href": "https://api.euskadi.eus/procurements/companies/types/O"
            }
          }
        },
        {
          "id": "S",
          "name": "Servicios",
          "groups": [
            {
              "id": "O",
              "subgroups": [
                {
                  "id": "06",
                  "name": "Conservación y mantenimiento de montes y jardines",
                  "categories": [
                    {
                      "id": "3",
                      "name": "Desde 300.001 Hasta 600.000",
                      "_links": {
                        "self": {
                          "name": "Desde 300.001 Hasta 600.000",
                          "href": "https://api.euskadi.eus/procurements/companies/types/S/categories/3"
                        }
                      }
                    }
                  ],
                  "_links": {
                    "self": {
                      "name": "Conservación y mantenimiento de montes y jardines",
                      "href": "https://api.euskadi.eus/procurements/companies/types/S/groups/O/subgroups/06"
                    }
                  }
                }
              ],
              "_links": {
                "self": {
                  "href": "https://api.euskadi.eus/procurements/companies/types/S/groups/O"
                }
              }
            }
          ],
          "_links": {
            "self": {
              "name": "Servicios",
              "href": "https://api.euskadi.eus/procurements/companies/types/S"
            }
          }
        }
      ],
      "object": "LA ACTIVIDAD DE JARDINERÍA, COMPRA Y VENTA DE FLORES Y OBJETOS DE DECORACIÓN, FORMACIÓN, INNOVACIÓN, INVESTIGACIÓN Y DESARROLLO EN ACTIVIDADES RELACIONADAS CON EL MEDIO AMBIENTE, LIMPIEZA VIARIA, ALBAÑILERÍA Y PEQUEÑOS TRABAJOS DE CONSTRUCCIÓN EN GENERAL, ASÍ COMO TODAS AQUELLAS ACTIVIDADES ANÁLOGAS Y COMPLEMENTARIAS",
      "mainEntityOfPage": "https://www.contratacion.euskadi.eus/webkpe00-kperoc/es/ac71aBusquedaRegistrosWar/empresa/05553",
      "_links": {
        "self": {
          "name": "K1 EKOPAISAIA, S.L.L.",
          "href": "https://api.euskadi.eus/procurements/companies/05553"
        }
      }
    },
    {
      "name": "OBRAS Y REFORMAS CEMAN, S.L.",
      "registrationNumber": "04359",
      "identificationNumber": "B95183323",
      "address": "PLAZA ZAMARRIPA, 2-1º B",
      "location": {
        "postalCode": "48170",
        "municipality": "Zamudio",
        "county": "Bizkaia",
        "municipalityId": "905",
        "countyId": "48"
      },
      "economicActivities": [
        {
          "id": "1.501.1",
          "name": "Construcción completa, reparación y conservación de edificaciones",
          "_links": {
            "self": {
              "name": "Construcción completa, reparación y conservación de edificaciones",
              "href": "https://api.euskadi.eus/procurements/companies/economic-activities/1.501.1"
            }
          }
        }
      ],
      "certificateStartDate": "2025-08-02",
      "certificateEndDate": "2026-02-02",
      "object": "LA EJECUCIÓN COMPLETA O POR TRAMOS DE ALBAÑILERÍA, ASÍ COMO DE TODA CLASE DE CONSTRUCCIÓN, REPARACIÓN Y CONSERVACIÓN POR CUENTA PROPIA O DE TERCEROS. COORDINACIÓN DE GREMIOS. LA COMPRAVENTA Y ALQUILER DE EDIFICACIONES EN SU TOTALIDAD POR PARTE O PARA LOCALES DE NEGOCIOS O INDUSTRIALES CONSTRUIDAS PARA TAL FIN DIRECTAMENTE O POR MEDIO DE CONSTRATISTAS, SUBCONTRATISTAS O EN CONSTRUCCIÓN. COMPRAVENTA DE TODA CLASE DE MATERIALES AUXILIARES O ANEJOS PARA LA CONSTRUCCIÓN. LA COMPRAVENTA DE TODA CLASE DE MAQUINARIA Y DE ARTÍCULOS DE DECORACIÓN. LA REPRESENTACIÓN DE EMPRESAS NACIONALES O EXTRANJERAS PRODUCTORAS DE ARTÍCULOS Y MERCANCÍAS A QUE SE REFIEREN LOS APARTADOS ANTERIORES. ADQUIRIR, ENAJENAR Y ARRENDAR BIENES INMUEBLES, CONCRETAMENTE LOS DETERMINADOS EN EL ARTÍCULO 334.1 DEL DÓDIGO CIVIL, ACCIONES, PARTICIPACIONES SOCIALES, OBLIGACIONES, BONOS DE CAJA, CERTIFICADOS DE DEPÓSITO Y PAGARÉS DE TODA CLASE DE EMPRESAS O NEGOCIOS",
      "mainEntityOfPage": "https://www.contratacion.euskadi.eus/webkpe00-kperoc/es/ac71aBusquedaRegistrosWar/empresa/04359",
      "_links": {
        "self": {
          "name": "OBRAS Y REFORMAS CEMAN, S.L.",
          "href": "https://api.euskadi.eus/procurements/companies/04359"
        }
      }
    },
    {
      "name": "UNAI ELORZA CAPARRÓS",
      "registrationNumber": "06405",
      "identificationNumber": "20176776A",
      "address": "J.M. Barandiaran 20 2º dcha",
      "location": {
        "postalCode": "48980",
        "municipality": "Santurtzi",
        "county": "Bizkaia",
        "municipalityId": "082",
        "countyId": "48"
      },
      "economicActivities": [
        {
          "id": "2.751",
          "name": "Profesionales de la publicidad, relaciones públicas y similares",
          "_links": {
            "self": {
              "name": "Profesionales de la publicidad, relaciones públicas y similares",
              "href": "https://api.euskadi.eus/procurements/companies/economic-activities/2.751"
            }
          }
        }
      ],
      "certificateStartDate": "2025-08-01",
      "certificateEndDate": "2026-02-01",
      "object": "VENTA AL POR MENOR DE TODA CLASE DE ARTÍCULOS, PEQUEÑOS ESTABLECIMIENTOS; SERVICIOS FOTOGRÁFICOS; PROFESIONALES DE LA PUBLICIDAD, RELACIONES PÚBLICAS Y SIMILARES; PROFESORES DE FORMACIÓN Y PERFECCIONAMIENTO PROFESIONAL",
      "mainEntityOfPage": "https://www.contratacion.euskadi.eus/webkpe00-kperoc/es/ac71aBusquedaRegistrosWar/empresa/06405",
      "_links": {
        "self": {
          "name": "UNAI ELORZA CAPARRÓS",
          "href": "https://api.euskadi.eus/procurements/companies/06405"
        }
      }
    },
    {
      "name": "DEBA BEHEKO GARAPEN EKONOMIKORAKO ELKARTEA S.A.",
      "registrationNumber": "06496",
      "identificationNumber": "A20098349",
      "address": "Polígono Industrial Azitain, 3 bis",
      "location": {
        "postalCode": "20600",
        "municipality": "Eibar",
        "county": "Gipuzkoa",
        "municipalityId": "030",
        "countyId": "20"
      },
      "economicActivities": [
        {
          "id": "1.151.4",
          "name": "Producción de energía no especificada en otros epígrafes",
          "_links": {
            "self": {
              "name": "Producción de energía no especificada en otros epígrafes",
              "href": "https://api.euskadi.eus/procurements/companies/economic-activities/1.151.4"
            }
          }
        },
        {
          "id": "1.861.2",
          "name": "Alquiler de locales industriales y otros alquileres n.c.o.p",
          "_links": {
            "self": {
              "name": "Alquiler de locales industriales y otros alquileres n.c.o.p",
              "href": "https://api.euskadi.eus/procurements/companies/economic-activities/1.861.2"
            }
          }
        },
        {
          "id": "1.932.1",
          "name": "Enseñanza de formación y perfeccionamiento profesional no superior",
          "_links": {
            "self": {
              "name": "Enseñanza de formación y perfeccionamiento profesional no superior",
              "href": "https://api.euskadi.eus/procurements/companies/economic-activities/1.932.1"
            }
          }
        },
        {
          "id": "1.932.2",
          "name": "Enseñanza de formación y perfeccionamiento profesional superior",
          "_links": {
            "self": {
              "name": "Enseñanza de formación y perfeccionamiento profesional superior",
              "href": "https://api.euskadi.eus/procurements/companies/economic-activities/1.932.2"
            }
          }
        },
        {
          "id": "1.999",
          "name": "Otros servicios n.c.o.p",
          "_links": {
            "self": {
              "name": "Otros servicios n.c.o.p",
              "href": "https://api.euskadi.eus/procurements/companies/economic-activities/1.999"
            }
          }
        }
      ],
      "certificateStartDate": "2025-08-01",
      "certificateEndDate": "2026-02-01",
      "object": "LA REALIZACIÓN DE CUANTAS ACTUACIONES SEAN DE INTERÉS PARA EL FOMENTO Y PROMOCIÓN DEL BAJO DEBA Y SUS MUNICIPIOS DE EIBAR, ELGOIBAR, PLANCECIA, DEBA, MUTRIKU Y MENDARO. PODRÁ LLEVAR A EFECTO PROMOCIONES EMPRESARIALES, DE NEGOCIOS, EXPERIMENTALES Y DE INVESTIGACIÓN, ASÍ COMO ACTIVIDADES MERCANTILES Y NEGOCIACIÓN DE CONTRATOS; FOMENTO DE INSTITUCIONES DE INVESTIGACIÓN Y DESARROLLO TECNOLÓGICO Y EN DEFINITIVA, LA GESTIÓN DE CUANTOS ASUNTOS TENGAN INTERÉS DIRECTO O INDIRECTO PARA DICHA ZONA",
      "mainEntityOfPage": "https://www.contratacion.euskadi.eus/webkpe00-kperoc/es/ac71aBusquedaRegistrosWar/empresa/06496",
      "_links": {
        "self": {
          "name": "DEBA BEHEKO GARAPEN EKONOMIKORAKO ELKARTEA S.A.",
          "href": "https://api.euskadi.eus/procurements/companies/06496"
        }
      }
    },
    {
      "name": "BILBOELEC 2000, S.L.",
      "registrationNumber": "08322",
      "identificationNumber": "B48854343",
      "address": "C/Iberre, 3 mod. 21 (Pol. Ind. Sangroniz)",
      "location": {
        "postalCode": "48150",
        "municipality": "Sondika",
        "county": "Bizkaia",
        "municipalityId": "904",
        "countyId": "48"
      },
      "economicActivities": [
        {
          "id": "1.504.11",
          "name": "Instalaciones eléctricas en general, redes telegráficas, telefonía, tv, etc",
          "_links": {
            "self": {
              "name": "Instalaciones eléctricas en general, redes telegráficas, telefonía, tv, etc",
              "href": "https://api.euskadi.eus/procurements/companies/economic-activities/1.504.11"
            }
          }
        }
      ],
      "certificateStartDate": "2025-08-01",
      "certificateEndDate": "2026-01-17",
      "object": "LA EJECUCIÓN DE TODA CLASE DE PROYECTOS, INSTALACIONES Y MONTAJES ELÉCTRICOS Y LA REALIZACIÓN DE LOS TRABAJOS DE MANTENIMIENTO Y CONSERVACIÓN DE LOS MISMOS.",
      "mainEntityOfPage": "https://www.contratacion.euskadi.eus/webkpe00-kperoc/es/ac71aBusquedaRegistrosWar/empresa/08322",
      "_links": {
        "self": {
          "name": "BILBOELEC 2000, S.L.",
          "href": "https://api.euskadi.eus/procurements/companies/08322"
        }
      }
    },
    {
      "name": "ARQUITECTURA Y EDIFICACION JASANGARRI, S.L.",
      "registrationNumber": "09985",
      "identificationNumber": "B95993242",
      "address": "Calle Ametzabide 56",
      "location": {
        "postalCode": "48100",
        "municipality": "Mungia",
        "county": "Bizkaia",
        "municipalityId": "069",
        "countyId": "48"
      },
      "economicActivities": [
        {
          "id": "1.501.1",
          "name": "Construcción completa, reparación y conservación de edificaciones",
          "_links": {
            "self": {
              "name": "Construcción completa, reparación y conservación de edificaciones",
              "href": "https://api.euskadi.eus/procurements/companies/economic-activities/1.501.1"
            }
          }
        },
        {
          "id": "1.843.2",
          "name": "Servicios técnicos de arquitectura y urbanismo",
          "_links": {
            "self": {
              "name": "Servicios técnicos de arquitectura y urbanismo",
              "href": "https://api.euskadi.eus/procurements/companies/economic-activities/1.843.2"
            }
          }
        }
      ],
      "certificateStartDate": "2025-08-01",
      "certificateEndDate": "2026-01-31",
      "object": "ACTIVIDAD PRINCIPAL.- 4121. CONSTRUCCIÓN EDIFICIOS RESIDENCIALES. OTRAS ACTIVIDADES.- 4110. PROMOCIÓN INMOBILIARIA. 4122. CONSTRUCCIÓN DE EDIFICIOS NO RESIDENCIALES. 6810. COMPRAVENTA DE BIENES INMOBILIARIOS POR CUENTA PROPIA. 7111. SERVICIOS TÉCNICOS DE ARQUITECTURA. 4329. OTRAS INSTALACIONES EN OBRAS DE CONSTRUCCIÓN. 4339. OTRO ACABADO EN EDIFICIOS. 6832. GESTIÓN Y ADMINISTRACIÓN DE LA PROPIEDAD INMOBILIARIA.",
      "mainEntityOfPage": "https://www.contratacion.euskadi.eus/webkpe00-kperoc/es/ac71aBusquedaRegistrosWar/empresa/09985",
      "_links": {
        "self": {
          "name": "ARQUITECTURA Y EDIFICACION JASANGARRI, S.L.",
          "href": "https://api.euskadi.eus/procurements/companies/09985"
        }
      }
    },
    {
      "name": "GAINSA, GABINETE DE INGENIERIA, ARQUITECTURA Y SERVICIOS, S.L.",
      "registrationNumber": "05971",
      "identificationNumber": "B48127070",
      "address": "ALAMEDA RECALDE, 64-BIS. Entreplanta., B48127070",
      "location": {
        "postalCode": "48010",
        "municipality": "Bilbao",
        "county": "Bizkaia",
        "municipalityId": "020",
        "countyId": "48"
      },
      "economicActivities": [
        {
          "id": "1.843.1",
          "name": "Servicios técnicos de ingeniería",
          "_links": {
            "self": {
              "name": "Servicios técnicos de ingeniería",
              "href": "https://api.euskadi.eus/procurements/companies/economic-activities/1.843.1"
            }
          }
        }
      ],
      "certificateStartDate": "2025-08-01",
      "certificateEndDate": "2026-01-31",
      "object": "LA EJECUCIÓN Y DESARROLLO DE CÁLCULOS Y PROYECTOS PARA TODO TIPO DE CONSTRUCCIONES, CON TECNOLOGÍA PROPIA O EN COLABORACIÓN CON OTRAS EMPRESAS, FIRMAS O SISTEMAS NACIONALES Y EXTRANJERAS, ASÍ COMO REPRESENTACIONES DE TODO TIPO DE ARTÍCULOS, PRODUCTOS O SISTEMAS PARA LA CONSTRUCCIÓN Y LA ELECTRÓNICA",
      "mainEntityOfPage": "https://www.contratacion.euskadi.eus/webkpe00-kperoc/es/ac71aBusquedaRegistrosWar/empresa/05971",
      "_links": {
        "self": {
          "name": "GAINSA, GABINETE DE INGENIERIA, ARQUITECTURA Y SERVICIOS, S.L.",
          "href": "https://api.euskadi.eus/procurements/companies/05971"
        }
      }
    },
    {
      "name": "ZONA ARQUITECTURA Y URBANISMO, S.C.P.",
      "registrationNumber": "04983",
      "identificationNumber": "J95462115",
      "address": "C/ Estartetxe, nº 5- Dpto. 105",
      "location": {
        "postalCode": "48940",
        "municipality": "Leioa",
        "county": "Bizkaia",
        "municipalityId": "054",
        "countyId": "48"
      },
      "economicActivities": [
        {
          "id": "1.843.2",
          "name": "Servicios técnicos de arquitectura y urbanismo",
          "_links": {
            "self": {
              "name": "Servicios técnicos de arquitectura y urbanismo",
              "href": "https://api.euskadi.eus/procurements/companies/economic-activities/1.843.2"
            }
          }
        }
      ],
      "certificateStartDate": "2025-08-01",
      "certificateEndDate": "2026-01-31",
      "object": "PRESTACIÓN DE SERVICIOS Y REALIZACIÓN DE ACTIVIDADES RELACIONADAS CON LA ARQUITECTURA Y EL DISEÑO",
      "mainEntityOfPage": "https://www.contratacion.euskadi.eus/webkpe00-kperoc/es/ac71aBusquedaRegistrosWar/empresa/04983",
      "_links": {
        "self": {
          "name": "ZONA ARQUITECTURA Y URBANISMO, S.C.P.",
          "href": "https://api.euskadi.eus/procurements/companies/04983"
        }
      }
    }
  ]
}