{
  "totalItems": 9042,
  "totalPages": 905,
  "currentPage": 707,
  "itemsOfPage": 10,
  "items": [
    {
      "name": "IGOAN SOLAR, S.L.",
      "registrationNumber": "03669",
      "identificationNumber": "B01261841",
      "address": "C/ ALBERT EINSTEIN, 36-B. PARQUE TECN. MIÑANO",
      "location": {
        "postalCode": "01510",
        "municipality": "Vitoria-Gasteiz",
        "county": "Araba/Álava",
        "municipalityId": "059",
        "countyId": "01"
      },
      "economicActivities": [
        {
          "id": "1.151.4",
          "name": "Producción de energía no especificada en otros epígrafes",
          "_links": {
            "self": {
              "name": "Producción de energía no especificada en otros epígrafes",
              "href": "https://api.euskadi.eus/procurements/companies/economic-activities/1.151.4"
            }
          }
        },
        {
          "id": "1.504.1",
          "name": "Instalaciones eléctricas en general",
          "_links": {
            "self": {
              "name": "Instalaciones eléctricas en general",
              "href": "https://api.euskadi.eus/procurements/companies/economic-activities/1.504.1"
            }
          }
        },
        {
          "id": "1.504.3",
          "name": "Instalaciones de frío, calor y acondicionamiento de aire",
          "_links": {
            "self": {
              "name": "Instalaciones de frío, calor y acondicionamiento de aire",
              "href": "https://api.euskadi.eus/procurements/companies/economic-activities/1.504.3"
            }
          }
        }
      ],
      "certificateStartDate": "2011-10-11",
      "certificateEndDate": "2012-03-22",
      "object": "INGENIERÍA, COMERCIALIZACIÓN E INSTALACIÓN DE ENERGÍAS RENOVABLES. LA ADQUISICIÓN, VENTA Y EXPLOTACIÓN, MEDIANTE ARRENDAMIENTO O CUALQUIER OTRA FORMA JURÍDICA, DE BIENES INMUEBLES, PROPIOS O AJENOS A LA SOCIEDAD",
      "mainEntityOfPage": "https://www.contratacion.euskadi.eus/webkpe00-kperoc/es/ac71aBusquedaRegistrosWar/empresa/03669",
      "_links": {
        "self": {
          "name": "IGOAN SOLAR, S.L.",
          "href": "https://api.euskadi.eus/procurements/companies/03669"
        }
      }
    },
    {
      "name": "DEIKA, S.A.",
      "registrationNumber": "02341",
      "identificationNumber": "A48078034",
      "address": "PASEO CAMPO VOLANTÍN, 20",
      "location": {
        "postalCode": "48007",
        "municipality": "Bilbao",
        "county": "Bizkaia",
        "municipalityId": "020",
        "countyId": "48"
      },
      "economicActivities": [
        {
          "id": "1.844",
          "name": "Servicios de publicidad, relaciones públicas y similares",
          "_links": {
            "self": {
              "name": "Servicios de publicidad, relaciones públicas y similares",
              "href": "https://api.euskadi.eus/procurements/companies/economic-activities/1.844"
            }
          }
        }
      ],
      "certificateStartDate": "2011-10-10",
      "certificateEndDate": "2012-03-05",
      "object": "LA  CREACIÓN, PROYECCIÓN, EJECUCIÓN O DISTRIBUCIÓN DE CAMPAÑAS DE PUBLICIDAD  A TRAVÉS DE CUALQUIER MEDIO DE DIFUSIÓN, GESTIONANDO LA REALIZACIÓN DE PROGRAMAS PUBLICITARIOS, LLEVÁNDOLOS  A EFECTO POR  LOS PROCEDIMIENTOS TÉCNICOS ADECUADOS A CADA CASO Y, EN GENERAL, CUALESQUIERA ACTIVIDADES RELACIONADAS DIRECTAMENTE CON LAS INDICADAS  ",
      "mainEntityOfPage": "https://www.contratacion.euskadi.eus/webkpe00-kperoc/es/ac71aBusquedaRegistrosWar/empresa/02341",
      "_links": {
        "self": {
          "name": "DEIKA, S.A.",
          "href": "https://api.euskadi.eus/procurements/companies/02341"
        }
      }
    },
    {
      "name": "ABCARQUITECTURA MODULAR, S.L.",
      "registrationNumber": "04432",
      "identificationNumber": "B96341193",
      "address": "AUSIAS MARCH, S/N",
      "location": {
        "postalCode": "46185",
        "municipality": "Pobla de Vallbona, la",
        "county": "Valencia/València",
        "municipalityId": "202",
        "countyId": "46"
      },
      "economicActivities": [
        {
          "id": "1.314.2",
          "name": "Fabricación de estructuras metálicas",
          "_links": {
            "self": {
              "name": "Fabricación de estructuras metálicas",
              "href": "https://api.euskadi.eus/procurements/companies/economic-activities/1.314.2"
            }
          }
        },
        {
          "id": "1.501.1",
          "name": "Construcción completa, reparación y conservación de edificaciones",
          "_links": {
            "self": {
              "name": "Construcción completa, reparación y conservación de edificaciones",
              "href": "https://api.euskadi.eus/procurements/companies/economic-activities/1.501.1"
            }
          }
        },
        {
          "id": "1.859",
          "name": "Alquiler de otros bienes muebles n.c.o.p. (sin personal permanente)",
          "_links": {
            "self": {
              "name": "Alquiler de otros bienes muebles n.c.o.p. (sin personal permanente)",
              "href": "https://api.euskadi.eus/procurements/companies/economic-activities/1.859"
            }
          }
        }
      ],
      "certificateStartDate": "2011-10-07",
      "certificateEndDate": "2012-03-13",
      "object": "A) LA FABRICACIÓN, VENTA Y ALQUILER DE MÓDULOS PREFABRICADOS, CONTENEDORES, ACCESORIOS Y CUALESQUIERA OTROS ELEMENTOS O CONSTRUCCIONES MÓVILES Y SUS EQUIPAMIENTOS. B) LA FABRICACIÓN VENTA Y ALQUILER DE OCNSTRUCCIÓN INDUSTRIALIZADA. C) LA CONSTRUCCIÓN COMPLETA, REPARACIÓN, CONSERVACIÓN Y MANTENIMIENTO DE TODO TIPO DE EDIFICACIONES Y OBRAS. D) LA REALIZACIÓN DE INSTALACIONES EN GENERAL, INSTALACIONES ELÉCTRICAS, DE AIRE ACONDICIONADO, ASÍ COMO ACTIVIDADES DE FONTANERÍA, ALBAÑILERÍA Y EL MANTENIMIENTO DE LAS MISMAS",
      "mainEntityOfPage": "https://www.contratacion.euskadi.eus/webkpe00-kperoc/es/ac71aBusquedaRegistrosWar/empresa/04432",
      "_links": {
        "self": {
          "name": "ABCARQUITECTURA MODULAR, S.L.",
          "href": "https://api.euskadi.eus/procurements/companies/04432"
        }
      }
    },
    {
      "name": "RISO IBERICA, S.A.",
      "registrationNumber": "04691",
      "identificationNumber": "A60229168",
      "address": "AVDA. DE LES GARRIGUES, 38-44. MAS BLAU II",
      "location": {
        "postalCode": "08820",
        "municipality": "Prat de Llobregat, El",
        "county": "Barcelona",
        "municipalityId": "169",
        "countyId": "08"
      },
      "economicActivities": [
        {
          "id": "1.617.8",
          "name": "Venta al por mayor de máquinas y material de oficina",
          "_links": {
            "self": {
              "name": "Venta al por mayor de máquinas y material de oficina",
              "href": "https://api.euskadi.eus/procurements/companies/economic-activities/1.617.8"
            }
          }
        }
      ],
      "certificateStartDate": "2011-09-29",
      "certificateEndDate": "2011-12-06",
      "object": "LA FABRICACIÓN, IMPORTACIÓN, DISTRIBUCIÓN Y COMERCIALIZACIÓN DE MATERIALES Y EQUIPOS DE OFICINA EN GENERAL, TALES COMO MÁQUINAS DUPLICADORAS, FOTOCOPIADORAS, DUPLICADORAS DIGITALES, ORDENADORES Y EN GENERAL CUALQUIER APARATO, MÁQUINA O ACCESORIO DE REPROGRAFÍA, OFIMÁTICA E INFORMÁTICA, INCLUYENDO SERVICIOS TÉCNICOS Y DE MANTENIMIENTO",
      "mainEntityOfPage": "https://www.contratacion.euskadi.eus/webkpe00-kperoc/es/ac71aBusquedaRegistrosWar/empresa/04691",
      "_links": {
        "self": {
          "name": "RISO IBERICA, S.A.",
          "href": "https://api.euskadi.eus/procurements/companies/04691"
        }
      }
    },
    {
      "name": "TRIBECA PROYECTOS Y CONSTRUCCIONES, S.L.",
      "registrationNumber": "03731",
      "identificationNumber": "B01374701",
      "address": "C/ GORBEA, 22-BAJO",
      "location": {
        "postalCode": "01012",
        "municipality": "Vitoria-Gasteiz",
        "county": "Araba/Álava",
        "municipalityId": "059",
        "countyId": "01"
      },
      "economicActivities": [
        {
          "id": "1.501.1",
          "name": "Construcción completa, reparación y conservación de edificaciones",
          "_links": {
            "self": {
              "name": "Construcción completa, reparación y conservación de edificaciones",
              "href": "https://api.euskadi.eus/procurements/companies/economic-activities/1.501.1"
            }
          }
        },
        {
          "id": "1.833.2",
          "name": "Promoción de edificaciones",
          "_links": {
            "self": {
              "name": "Promoción de edificaciones",
              "href": "https://api.euskadi.eus/procurements/companies/economic-activities/1.833.2"
            }
          }
        }
      ],
      "certificateStartDate": "2011-09-28",
      "certificateEndDate": "2012-03-06",
      "object": "A) LA REALIZACIÓN DE OBRAS Y CONSTRUCCIONES DE TODO TIPO, LA ADQUISICIÓN, USO, ARRENDAMIENTO, VENTA Y ENAJENACIÓN DE FINCAS, TERRENOS, LOCALES Y SOLARES, SU PARCELACIÓN Y URBANIZACIÓN, LA PROMOCIÓN Y CONSTITUCIÓN DE COMUNIDADES DE PROPIETARIOS O CUALQUIER OTRA FORMA DE ASOCIACIÓN O SOCIEDAD CON FINES DE EDIFICACIÓN Y URBANIZACIÓN.\r\nB) PROMOVER, CONSTRUIR Y VENDER VIVIENDAS, NAVES Y TERRENOS DE CARÁCTER URBANO O RURAL, BIEN DE DESTINO LIBRE O ACOGIDAS A CUALQUIERA DE LOS BENEFICIOS DE LAS DIFERENTES CLASES DE VIVIENDAS DE PROTECCIÓN OFICIAL, DE ACUERDO CON LA LEY VIGENTE EN CADA MOMENTO Y LAS DISPOSICIONES QUE PARA LAS MISMAS PROMULGUE EL MINISTERIO DE OBRAS PÚBLICAS Y URBANISMO O DE LOS ÓRGANOS DE LAS ENTIDADES AUTONÓMICAS QUE LO SUSTITUYAN.\r\nC) EL ESTUDIO, PROMOCIÓN Y REALIZACIÓN DE TODA CLASE DE OBRAS DE CONSTRUCCIÓN, MEJORA, CONSERVACIÓN, RESTAURACIÓN, REHABILITACIÓN, TANTO PRIVADAS COMO PÚBLICAS, POR CUENTA PROPIA O AJENA.\r\nD) LA GESTIÓN DE SOCIEDADES INMOBILIARIAS Y COOPERATIVAS.\r\nE) TRAMITACIÓN DE LA CALIFICACIÓN DE SOLARES URBANOS PARA DIVERSOS FINES: VIVIENDAS, INDUSTRIAS, COMERCIO, SERVICIOS TERCIARIOS, CULTURALES, RECREATIVOS, ESCOLARES, SOCIALES, ASISTENCIALES O SANITARIOS, CEMENTERIOS, VERTEDEROS Y OTROS ANÁLOGOS, PARTICIENDO DE SUELOS RÚSTICOS, NO URBANIZABLES PROGRAMADOS, NO PROGRAMADOS Y URBANO Y CUALQUIER OTRA CLASIFICACIÓN QUE SUSTITUYA A LA VIGENTE. AL EFECTO, REALIZAR LAS CORRESPONDIENTES GESTIONES Y LOS RESPECTIVOS PROYECTOS INCLUYENDO PLANES GENERALES, COMARCALES, PARCIALES, ESTUDIOS DE DETALLE, PROYECTOS BÁSICOS INCLUYENDO LOS DE URBANISMO, REPARCELACIÓN POR LAS VÍAS DE ACTUACIÓN BIEN DE COMPENSACIÓN, BIEN COOPERACIÓN, QUE MARQUE LA LEY COMO UTILIZABLES, EXTENDIÉNDOSE EN TALES CASOS EL OBJETO A LA GESTIÒN Y PROMOCIÓN DE JUNTAS; ASÍ COMO, LA GESTIÒN, PROMOCIÓN DE ENTIDADES URBANÍSTICAS COLABORADORAS DE TODO TIPO",
      "mainEntityOfPage": "https://www.contratacion.euskadi.eus/webkpe00-kperoc/es/ac71aBusquedaRegistrosWar/empresa/03731",
      "_links": {
        "self": {
          "name": "TRIBECA PROYECTOS Y CONSTRUCCIONES, S.L.",
          "href": "https://api.euskadi.eus/procurements/companies/03731"
        }
      }
    },
    {
      "name": "MECSA, S.A.",
      "registrationNumber": "00903",
      "identificationNumber": "A78879483",
      "address": "C/URQUIJO, 22-2ª PLANTA.LAS ARENAS",
      "location": {
        "postalCode": "48930",
        "municipality": "Getxo",
        "county": "Bizkaia",
        "municipalityId": "044",
        "countyId": "48"
      },
      "economicActivities": [
        {
          "id": "1.843.1",
          "name": "Servicios técnicos de ingeniería",
          "_links": {
            "self": {
              "name": "Servicios técnicos de ingeniería",
              "href": "https://api.euskadi.eus/procurements/companies/economic-activities/1.843.1"
            }
          }
        },
        {
          "id": "1.843.2",
          "name": "Servicios técnicos de arquitectura y urbanismo",
          "_links": {
            "self": {
              "name": "Servicios técnicos de arquitectura y urbanismo",
              "href": "https://api.euskadi.eus/procurements/companies/economic-activities/1.843.2"
            }
          }
        }
      ],
      "certificateStartDate": "2011-09-23",
      "certificateEndDate": "2012-01-14",
      "object": "1- LA REALIZACIÓN DE ESTUDIOS E INFORMES DE CARÁCTER TÉCNICO, SOCIOECONÓMICOY FINANCIERO EN EL ÁMBITO DE LA INGENIERÍA Y LA ARQUITECTURA Y, EN PARTICULAR EN LOS CAMPOS DE LA OBRAS PÚBLICAS, EDIFICACIÓN, URBANISMO, ORDENACIÓN DEL TERRITORIO, MEDIO AMBIENTE, AGRICULTURA, TURISMO, ENERGÍA Y TELECOMUNICACIÓN. 2- LA REALIZACIÓN DE ESTUDIOS , INFORMES Y OTROS TRABAJOS TÉCNICOS DE CARTOGRAFÍA, CATASTRO, CENSOS, INVENTARIOS, GEOLOGÍA, GEOTÉCNICA, HIDROLOGÍA Y MEDIO AMBIENTE. 3- LA REALIZACIÓN DE PROYECTOS, DIRECCIÓN DE OBRAS, EL CONTROL DE OBRAS, EL CONTROL DE CALIDAD, LA PROGRAMACIÓN Y COORDINACIÓN DE ACTIVIDADES EN LOS CAMPOS REFERIDOS EN LOS PUNTOS 1 Y 2. 4- EL ANÁLISIS, LOS ENSAYOS Y EL CONTROL TÉCNICO DE PROYECTOS, MATERILES, OBRAS E INSTALACIONES. 5- LA REALIZACIÓN DE ESTUDIOS, INFORMES, PROYECTOS Y DIRECCIÓN DE ACTUACIONES EN RELACIÓN CON EL MEDIO AMBIENTE Y LA NATURALEZA, LA REVISIÓN, INSPECCIÓN Y VERIFICACIÓN MEDIOAMBIENTALES Y, EN PARTICULAR LA REALIZACIÓN DE ESTUDIOS DE IMPACTO AMBIENTALY CUANTAS ACTIVIDADES DE INGENIERÍA SE RELACIONEN CON EL MEDIO AMBIENTE Y LA NATURALEZA. 6- LA REALIZACIÓN DE ESTUDIOS TERRITORIALES, DE DESARROLLO REGIONAL Y LOCAL Y DE DESARROLLO TURÍSTICO, EN MEDIO RURAL Y URBANO. 7- LA CONSULTORÍA DE EMPRESAS, EN PARTICULAR LA CONSULTORÍA DE GESTIÓN Y ORGANIZATIVA, ASÍ COMO LA ASESORÍA DE CARÁCTER INSTITUCIONAL, APOYO A LA TRAMITACIÓN ADMINISTRATIVA, Y, EN GENERAL LA CONSULTORÍA REGULATORIA RELACIONADA CON LAS CONCESIONES ADMINISTRATIVAS. 8- LA CONSULTORÍA DE CALIDAD EN LOS SECTORES DE CONSTRUCCIÓN, DE SERVICIOS Y DE LA INDUSTRIA. LA REALIZACIÓN DE TODO TIPO DE DIAGNÓSTICOS, ANÁLISIS, ESTUDIOS, INFORMES, PROYECTOS, ACCIONES DE FORMACIÓN, IMPLANTACIÓN DE SISTEMAS DE CALIDAD, ASÍ COMO LA VALIDACIÓN Y HOMOLOGACIÓN DE PROCESOS Y PRODUCTOS. 9- LA PRESTACIÓN DE SERVICIOS ADMINISTRATIVOS Y AUXILIARES RELACIONADOS CON LAS DEMÁS ACTIVIDADES SOCIETARIAS, Y EN PARTICULAR LAS RELACIONADAS CON ENCUESTAS Y TOMA DE DATOS, ASÍ COMO LAS RELATIVAS A LA ORGANIZACIÓN DE CONGRESOS, FERIAS Y EXPOSICIONES. 10- LA PRESTACIÓN DE SERVICIOS RELATIVOS A LA CONSERVACIÓN Y MANTENIMIENTO Y EN SU CASO GESTIÓN Y EXPLOTACIÓN DE BIENES INMUEBLES, EN PARTICULAR LOS RELACIONADOS CON EDIFICIOS Y GRANDES EQUIPAMIENTOS, CARRETERAS, PISTAS, AUTOPISTAS, AUTOVÍAS, PRESAS, CANALES, ACEQUIAS, REDES DE AGUA, ALCATARILLADO, ESTACIONES DEPURADORAS, SEÑALIZACIÓN Y MOBILIARIO URBANO, MONTES Y JARDINES, ASÍ COMO MONUMENTOS Y EDIFICIOS SINGULARES. 11- LA PRESTACIÓN DE SERVICIOS DE MANTENIMIENTO Y REPARACIÓN DE INSTALACIONES Y EQUIPOS ELÉCTRICO Y ELECTRÓNICOS, OLEODUCTOS, GASODUCTOS Y ACUEDUCTOS, DE TELECOMUNICACIÓN DE SEÑALIZACIÓN Y ENCLAVAMIENTO, ASÍ COMO LOS SERVICIOS ESPECIALIZADOS ASOCIADOS. 12-LOS SERVICIOS DE TRATAMIENTO DE RESIDUOS Y DESECHOS, EN PARTICULAR LOS DE RECOGIDA, ALMACENAMIENTO, RECUPERACIÓN Y, EN SU CASO, INCINERACIÓN DE RESIDUOS URBANOS E INDUSTRIALES, ASÍ COMO LOS DE LIMPIEZA E HIGIENE URBANA. 13- LOS SERVICIOS DE TECNOLOGÍAS DE LA INFORMACIÓN, LAS COMUNICACIONES RELATIVAS A CAPTURA DE LA INFORMACIÓN POR MEDIOS ELECTRÓNICOS ,  INFORMÁTICOS Y TELEMÁTICOS, LOS SERVICIOS DE MANTENIMIENTO Y REPARACIÓN DE EQUIPOS E INSTALACIONES INFORMÁTICOS Y DE TELECOMUNICACIONES, LOS SERVICIOS DE TELECOMUNICACIONES, LOS SERVICIOS DE EXPLOTACIÓN Y CONTROL DE SISTEMAS INFORMÁTICOS E INFRESTRUCTURAS TELEMÁTICAS, LOS SERVICIOS DE CERTIFICACIÓN ELECTRÓNICA, LOS SERVICIOS DE EVALUACIÓN Y CERTIFICACIÓN TECNOLÓGICA. 14- LA PROMOCIÓN, GESTIÓN E INTERMEDIACIÓN DE TODA CLASE DE INSTALACIONES, OBRAS, EDIFICIOS, INFRESTRUCTURAS Y, EN GENERAL TODO TIPO DE INMUEBLES. 15- LA PRESTACIÓN DE TODO TIPO DE SERVICIOS PROPIOS DE LAS CONCESIONES ADMINISTRATIVAS, TANTO DE OBRA, DE SERVICIO O DE DOMINIO PÚBLICO RELACIONADOS CON LOS APARTADOS ANTERIORES. 16- LA EJECUCIÓN DE CONTRATOS DE SUMINISTRO DE CONTRATOS DE ADOPCIÓN DE TODO EN GENERAL, ESPECIALMENTE LOS REFERENTES A SUMINISTRO DE SOFTWARE, EL CONTROL DE PRESENCIA Y ELEMENTOS DE SEGURIDAD, ASÍ COMO LAS APLICACIONES ESPECIALES. 17- LA PRESTACIÓN DE SERVICIOS DE INFORMÁTICA Y ALOJAMIENTO WEB. 18.- LA INVESTIGACIÓN, DESARROLLO, INNOVACIÓN Y EXPLOTACIÓN DE NUEVAS TECNOLOGÍAS, PRINCIPALMENTE EN EL ÁMBITO DE LOS SISTEMAS DE INFORMACIÓN, DE LOCALIZACIÓN Y DE TELECOMUNICACIONES, AUTOMATIZACIÓN DE PROCESOS Y TELECONTROL DE DISPOSITIVOS REMOTOS. 19- EL DESARROLLO IMPLANTACIÓN Y MANTENIMIENTO DE SISTEMAS DE AYUDA A LA EXPLOTACIÓN PARA EL TRANSPORTE DE VIAJEROS Y DISPOSITIVOS MÓVILES, SISTEMAS DE INFORMACIÓN DINÁMICA  A USUARIOS, SISTEMA INTELIGENTES DE TRANSPORTE (ITS), SISTEMAS DE TELECONTROL DE DISPOSITIVOS MÓVILES Y DE INFRAESTRUCTURAS FIJAS, SITEMAS DE SEGURIDAD Y CENTROS DE CONTROL",
      "mainEntityOfPage": "https://www.contratacion.euskadi.eus/webkpe00-kperoc/es/ac71aBusquedaRegistrosWar/empresa/00903",
      "_links": {
        "self": {
          "name": "MECSA, S.A.",
          "href": "https://api.euskadi.eus/procurements/companies/00903"
        }
      }
    },
    {
      "name": "SECTOR VERTICAL, S.L.",
      "registrationNumber": "02892",
      "identificationNumber": "B20823308",
      "address": "C/ LÓPEZ IRIGOYEN, Nº 31-1º B",
      "location": {
        "postalCode": "20301",
        "municipality": "Irun",
        "county": "Gipuzkoa",
        "municipalityId": "045",
        "countyId": "20"
      },
      "economicActivities": [
        {
          "id": "1.501.1",
          "name": "Construcción completa, reparación y conservación de edificaciones",
          "_links": {
            "self": {
              "name": "Construcción completa, reparación y conservación de edificaciones",
              "href": "https://api.euskadi.eus/procurements/companies/economic-activities/1.501.1"
            }
          }
        },
        {
          "id": "1.504.2",
          "name": "Instalaciones de fontanería",
          "_links": {
            "self": {
              "name": "Instalaciones de fontanería",
              "href": "https://api.euskadi.eus/procurements/companies/economic-activities/1.504.2"
            }
          }
        },
        {
          "id": "1.615.3",
          "name": "Venta al por mayor de aparatos electrodomésticos y ferretería",
          "_links": {
            "self": {
              "name": "Venta al por mayor de aparatos electrodomésticos y ferretería",
              "href": "https://api.euskadi.eus/procurements/companies/economic-activities/1.615.3"
            }
          }
        }
      ],
      "certificateStartDate": "2011-09-23",
      "certificateEndDate": "2012-03-06",
      "object": "LA ACTIVIDAD DE ALBAÑILERÍA, PINTURA, FONTANERÍA, HERRERÍA, SOLDADURA, ASÍ COMO LA CONSTRUCCIÓN, REPARACIÓN Y CONSERVACIÓN DE OBRAS ",
      "mainEntityOfPage": "https://www.contratacion.euskadi.eus/webkpe00-kperoc/es/ac71aBusquedaRegistrosWar/empresa/02892",
      "_links": {
        "self": {
          "name": "SECTOR VERTICAL, S.L.",
          "href": "https://api.euskadi.eus/procurements/companies/02892"
        }
      }
    },
    {
      "name": "ITZURUN COMUNICACIONES, S.L.",
      "registrationNumber": "03563",
      "identificationNumber": "B20871240",
      "address": "Carrer Montserrat Roig, nº 51",
      "location": {
        "postalCode": "48350",
        "municipality": "Cambrils",
        "county": "Tarragona",
        "municipalityId": "038",
        "countyId": "43"
      },
      "economicActivities": [
        {
          "id": "1.653.2",
          "name": "Venta al por menor de material y aparatos eléctricos, electrodomésticos y cocina",
          "_links": {
            "self": {
              "name": "Venta al por menor de material y aparatos eléctricos, electrodomésticos y cocina",
              "href": "https://api.euskadi.eus/procurements/companies/economic-activities/1.653.2"
            }
          }
        }
      ],
      "certificateStartDate": "2011-09-22",
      "certificateEndDate": "2012-01-25",
      "object": "EL DESARROLLO DE NUEVAS TECNOLOGÍAS, EL DESARROLLO DE TODO TIPO DE TELECOMUNICACIONES Y MEDIOS AUDIOVISUALES Y LA OPTIMIZACIÓN ENERGÉTICA",
      "mainEntityOfPage": "https://www.contratacion.euskadi.eus/webkpe00-kperoc/es/ac71aBusquedaRegistrosWar/empresa/03563",
      "_links": {
        "self": {
          "name": "ITZURUN COMUNICACIONES, S.L.",
          "href": "https://api.euskadi.eus/procurements/companies/03563"
        }
      }
    },
    {
      "name": "PFIZER, S.L.U.",
      "registrationNumber": "04685",
      "identificationNumber": "B28089225",
      "address": "AVDA. EUROPA, 20-B",
      "location": {
        "postalCode": "28108",
        "municipality": "Alcobendas",
        "county": "Madrid",
        "municipalityId": "006",
        "countyId": "28"
      },
      "economicActivities": [
        {
          "id": "1.614.1",
          "name": "Venta al por mayor de productos farmacéuticos y medicamentos",
          "_links": {
            "self": {
              "name": "Venta al por mayor de productos farmacéuticos y medicamentos",
              "href": "https://api.euskadi.eus/procurements/companies/economic-activities/1.614.1"
            }
          }
        },
        {
          "id": "1.614.4",
          "name": "Venta al por mayor de productos zoosanitarios",
          "_links": {
            "self": {
              "name": "Venta al por mayor de productos zoosanitarios",
              "href": "https://api.euskadi.eus/procurements/companies/economic-activities/1.614.4"
            }
          }
        },
        {
          "id": "1.619.2",
          "name": "Venta al por mayor de aparatos e instrumentos médicos, ortopédicos, ópticos",
          "_links": {
            "self": {
              "name": "Venta al por mayor de aparatos e instrumentos médicos, ortopédicos, ópticos",
              "href": "https://api.euskadi.eus/procurements/companies/economic-activities/1.619.2"
            }
          }
        }
      ],
      "certificateStartDate": "2011-09-21",
      "certificateEndDate": "2011-12-03",
      "object": "LA FABRICACIÓN, TRANSFORMACIÓN, EMPAQUETADO, IMPORTACIÓN, EXPORTACIÓN, DISTRIBUCIÓN Y VENTA, EXLUIDA LA VENTA AL POR MENOR, DE PRODUCTOS QUÍMICOS, FARMACÉUTICOS, MEDICINALES, BIOLÓGICOS, AGRÍCOLAS, COSMÉTICOS, SANITARIOS, ALIMENTICIOS E INDUSTRIALES, MATERIAS PRIMAS Y SEMIMANUFACTURADOS, YA POR CUENTA DE LA SOCIEDAD O COMO AGENTE COMISIONADO",
      "mainEntityOfPage": "https://www.contratacion.euskadi.eus/webkpe00-kperoc/es/ac71aBusquedaRegistrosWar/empresa/04685",
      "_links": {
        "self": {
          "name": "PFIZER, S.L.U.",
          "href": "https://api.euskadi.eus/procurements/companies/04685"
        }
      }
    },
    {
      "name": "INCHAUSTI Y OTAEGUI, S.A.",
      "registrationNumber": "00397",
      "identificationNumber": "A20053708",
      "address": "POL. IND. REKALDE, Nº 2",
      "location": {
        "postalCode": "20160",
        "municipality": "Lasarte-Oria",
        "county": "Gipuzkoa",
        "municipalityId": "902",
        "countyId": "20"
      },
      "economicActivities": [
        {
          "id": "1.653.1",
          "name": "Venta al por menor de muebles (excepto los de oficina)",
          "_links": {
            "self": {
              "name": "Venta al por menor de muebles (excepto los de oficina)",
              "href": "https://api.euskadi.eus/procurements/companies/economic-activities/1.653.1"
            }
          }
        },
        {
          "id": "1.659.2",
          "name": "Venta al por menor de muebles de oficina y máquinas y equipos de oficina",
          "_links": {
            "self": {
              "name": "Venta al por menor de muebles de oficina y máquinas y equipos de oficina",
              "href": "https://api.euskadi.eus/procurements/companies/economic-activities/1.659.2"
            }
          }
        }
      ],
      "certificateStartDate": "2011-09-20",
      "certificateEndDate": "2012-03-05",
      "object": " LA INDUSTRIA DE CARPINTERÍA, EBANISTERÍA, MECÁNICA O ARTESANAL. CONSTRUCCIÓN Y VENTA DE MUEBLES. DECORACIÓN: REALIZACIÓN DE PROYECTOS DE DECORACIÓN Y SU EJECUCIÓN CON MEDIOS PROPIOS O DE TERCEROS Y COMERCIALIZACIÓN DE MOBILIARIO Y COMPLEMENTOS",
      "mainEntityOfPage": "https://www.contratacion.euskadi.eus/webkpe00-kperoc/es/ac71aBusquedaRegistrosWar/empresa/00397",
      "_links": {
        "self": {
          "name": "INCHAUSTI Y OTAEGUI, S.A.",
          "href": "https://api.euskadi.eus/procurements/companies/00397"
        }
      }
    }
  ]
}