{
  "totalItems": 9042,
  "totalPages": 905,
  "currentPage": 721,
  "itemsOfPage": 10,
  "items": [
    {
      "name": "CONSTRUCCIONES Y REHABILITACIONES IÑIGO, S.L.",
      "registrationNumber": "02408",
      "identificationNumber": "B01267863",
      "address": "NUEVA FUERA, 23-BAJO",
      "location": {
        "postalCode": "01001",
        "municipality": "Vitoria-Gasteiz",
        "county": "Araba/Álava",
        "municipalityId": "059",
        "countyId": "01"
      },
      "economicActivities": [
        {
          "id": "1.501.1",
          "name": "Construcción completa, reparación y conservación de edificaciones",
          "_links": {
            "self": {
              "name": "Construcción completa, reparación y conservación de edificaciones",
              "href": "https://api.euskadi.eus/procurements/companies/economic-activities/1.501.1"
            }
          }
        }
      ],
      "certificateStartDate": "2010-11-19",
      "certificateEndDate": "2011-05-04",
      "object": "LA ADQUISICIÓN, URBANIZACIÓN, PARCELACIÓN, CONSTRUCCIÓN, EDIFICACIÓN, CONSTITUCIÓN EN PROPIEDAD HORIZONTAL, REFORMA, REHABILITACIÓN, AMPLIACIÓN, EXPLOTACIÓN DIRECTA O INDIRECTA, ENAJENACIÓN Y, EN GENERAL, TODA ACTIVIDAD RELACIONADA CON BIENES INMUEBLES, ASÍ RÚSTICOS COMO URBANOS Y LA REALIZACIÓN DE OBRAS PÚBLICAS Y TODA SUERTE DE INVERSIOINES Y PROMOCIONES RELACIONADAS CON EL RAMO DE LA CONSTRUCCIÓN   ",
      "mainEntityOfPage": "https://www.contratacion.euskadi.eus/webkpe00-kperoc/es/ac71aBusquedaRegistrosWar/empresa/02408",
      "_links": {
        "self": {
          "name": "CONSTRUCCIONES Y REHABILITACIONES IÑIGO, S.L.",
          "href": "https://api.euskadi.eus/procurements/companies/02408"
        }
      }
    },
    {
      "name": "CONSTRUCCIONES LANGOITIA, S.L.U.",
      "registrationNumber": "03556",
      "identificationNumber": "B95413829",
      "address": "PABLO ALZOLA, 5-BAJO",
      "location": {
        "postalCode": "48012",
        "municipality": "Bilbao",
        "county": "Bizkaia",
        "municipalityId": "020",
        "countyId": "48"
      },
      "economicActivities": [
        {
          "id": "1.501.1",
          "name": "Construcción completa, reparación y conservación de edificaciones",
          "_links": {
            "self": {
              "name": "Construcción completa, reparación y conservación de edificaciones",
              "href": "https://api.euskadi.eus/procurements/companies/economic-activities/1.501.1"
            }
          }
        }
      ],
      "certificateStartDate": "2010-11-18",
      "certificateEndDate": "2011-05-02",
      "object": "A) LA PROMOCIÓN Y EJECUCIÓN COMPLETA O POR RAMAS DE TODA CLASE DE OBRAS DE CONSTRUCCIÓN O CONSERVACIÓN, POR CUENTA PROPIA O AJENA, DE TODA CLASE DE BIENES INMUEBLES, INCLUSO VIVIENDAS Y LOCALES COMERCIALES LIBRES O DE LAS LLAMADAS DE PROTECCIÓN OFICIAL. LA REALIZACIÓN DE INSTALACIONES; MONTAJES, DISEÑO Y CÁLCULO DE ESTRUCTURAS. B) LA URBANIZACIÓN Y PARCELACIÓN DE TERRENOS CONFORME A LOS PLANES DE ORDENACIÓN URBANÍSTICA, APROBADOS POR LAS AUTORIDADES COMPETENTES EN LOS POLÍGONOS Y ZONAS DE ACTUACIÓN QUE AL EFECTO SEAN DESIGNADOS Y LA REPARCELACIÓN DE DICHOS TERRENOS URBANIZADOS Y EN SU CASO, EDIFICACIÓN Y VENTA DE LOS MISMOS, O DE LAS EDIFICACIONES Y OBRAS DE URBANIZACIÓN Y SERVICIOS A CUYO OBJETO PODRÁ FORMAR PARTE DE ASOCIACIONES DE PROPIETARIOS, EMPRESAS MIXTAS Y ENTIDADES URBANÍSTICAS COLABORAODRAS QUE PUEDAN REGLAMENTARSE A LOS EXPRESADOS FINES. C) LA ADQUISICIÓN, TENENCIA, DISFRUTE, ALQUILER, EXPLOTACIÓN, Y ENAJENACIÓN DE TODA CLASE DE FINCAS, RÚSTICAS O URBANAS, Y EDIFICACIONES, EN SU TOTALIDAD, POR PARTES O POR PISOS, BIEN PARA VIVIENDAS O PARA LOCALES DE OFICINAS DE NEGOCIO O INDUSTRIALES, CONSTRUÍRLAS PARA TAL FIN DIRECTAMENTE O POR MEDIO DE CONTRATISTAS, SUBCONTRATISTAS Y DESTAJISTA O BIEN ADQUIRIDAS YA CONSTRUÍDAS O EN CONSTRUCCIÓN",
      "mainEntityOfPage": "https://www.contratacion.euskadi.eus/webkpe00-kperoc/es/ac71aBusquedaRegistrosWar/empresa/03556",
      "_links": {
        "self": {
          "name": "CONSTRUCCIONES LANGOITIA, S.L.U.",
          "href": "https://api.euskadi.eus/procurements/companies/03556"
        }
      }
    },
    {
      "name": "OPTIZE BUREAU INFO, S.A.",
      "registrationNumber": "04520",
      "identificationNumber": "A82751660",
      "address": "VIRGILIO, Nº 23",
      "location": {
        "postalCode": "28223",
        "municipality": "Pozuelo de Alarcón",
        "county": "Madrid",
        "municipalityId": "115",
        "countyId": "28"
      },
      "economicActivities": [
        {
          "id": "1.659.2",
          "name": "Venta al por menor de muebles de oficina y máquinas y equipos de oficina",
          "_links": {
            "self": {
              "name": "Venta al por menor de muebles de oficina y máquinas y equipos de oficina",
              "href": "https://api.euskadi.eus/procurements/companies/economic-activities/1.659.2"
            }
          }
        }
      ],
      "certificateStartDate": "2010-11-16",
      "certificateEndDate": "2011-03-20",
      "object": "-EL DESARROLLO DE TODO TIPO DE NEGOCIOS DE COMERCIO ELECTRÓNICO, CON PARTICULAR DEDICACIÓN E INCIDENCIA EN EL MERCADO DE LA PEQUEÑA Y MEDIANA EMPRESA. LA CREACIÓN, CINLUÍDA LA INVENCIÓN Y EL DESARROLLO DE LAS PLATAFORMAS E INFRAESTRUCTURAS TECNOLÓGICAS A TAL EFECTO APROPIADAS; EN ESPECIAL, EL ESTABLECIMIENTO Y LA GESTIÓN DE MERCADOS DIGITALES.\r\n-LA PRESTACIÓN DE SERVICIOS PROPIOS DE LA TECNOLOGÍA D ELA INFORMACIÓN, INCLUYENDO CON CARÁCTER E NUNCIATIVO: EL PROCESAMIENTODE DATOS INFORMATIZADOS, CON RESPETO EN TODO CASO A LAS LIMITACIONES IMPUESTAS POR LA NORMATIVA VIGENTE DE PROTECCIÓN DE DATOS DE CARÁCTER PERSONAL Y DEMÁS APLICABLE; EL DESARROLLO Y SUMINISTRO DE \"SOFTWARE\" Y DE \"HARDWARE\"; LA PRESTACIÓN DE SERVICIOS DE COMUNICACIONES Y TELECOMUNICACIONES; Y LA REALIZACIÓN DE PROYECTOS DE INTEGRACIÓN DE SISTEMAS INFORMÁTICOS.\r\n-LA ADQUISICIÓN, TENENCIA, DISFRUTE Y ENAJENACIÓN DE TODA CLASE DE VALORES Y ACTIVOS MOBILIARIOS POR CUENTA PROPIA.\r\n-EL ASESORAMIENTO Y LA GESTIÓN DE ENTIDADES MERCANTILES EN LAS QUE LA SOCIEDAD MANTENGA, DIRECTA O INDIRECTAMENTE, PARTICIPACIÓN.",
      "mainEntityOfPage": "https://www.contratacion.euskadi.eus/webkpe00-kperoc/es/ac71aBusquedaRegistrosWar/empresa/04520",
      "_links": {
        "self": {
          "name": "OPTIZE BUREAU INFO, S.A.",
          "href": "https://api.euskadi.eus/procurements/companies/04520"
        }
      }
    },
    {
      "name": "LOVADER MIX, S.L.",
      "registrationNumber": "01800",
      "identificationNumber": "B20556247",
      "address": "C/ PRIM, Nº 51 - ENTLO. IZDA.",
      "location": {
        "postalCode": "20006",
        "municipality": "Donostia / San Sebastián",
        "county": "Gipuzkoa",
        "municipalityId": "069",
        "countyId": "20"
      },
      "economicActivities": [
        {
          "id": "1.844",
          "name": "Servicios de publicidad, relaciones públicas y similares",
          "_links": {
            "self": {
              "name": "Servicios de publicidad, relaciones públicas y similares",
              "href": "https://api.euskadi.eus/procurements/companies/economic-activities/1.844"
            }
          }
        }
      ],
      "certificateStartDate": "2010-11-11",
      "certificateEndDate": "2011-04-06",
      "object": "LA PRESTACIÓN DE SERVICIOS DE PUBLICIDAD, MEDIANTE ANUNCIOS, CARTELES, FOLLETOS, PELÍCULAS PUBLICITARIAS, ETC. A TRAVÉS DE PRENSA, RADIO, TELEVISIÓN, PUBLICIDAD AÉREA, REDES INFORMÁTICAS Y DE TELECOMUNICACIONES, SISTEMAS MULTIMEDIA U OTROS MEDIOS. DEDICACIÓN, COMO AGENCIA DE PUBLICIDAD, A LA CREACIÓN Y DIFUSIÓN DE ANUNCIOS O CAMPAÑAS DE INFORMACIÓN PUBLICITARIA, PROPAGANDA ELECTORAL, COMUNICACIÓN INSTITUCIONAL O PÚBLICA O IMÁGEN CORPORATIVA, ASÍ COMO OTRAS MODALIDADES PUBLICITARIAS, TALES COMO EXCLUSIVISTAS DE MEDIOS PUBLICITARIOS, PUBLICIDAD EXTERIOR, PUBLICIDAD DIRECTA Y MARKETING DIRECTO, DISTRIBUIDORES Y CENTRALES DE COMPRAS, ESTUDIOS DE PUBLICIDAD, ETC. ASIMISMO, DEDICACIÓN A LAS RELACIONES PÚBLICAS, PROMOCIÓN DE VENTAS PUBLICITARIAS, REGALOS Y RECLAMOS PUBLICITARIOS Y, EN GENERAL, CUALQUIER SERVICIO INDEPENDIENTE DE PUBLICIDAD. TAMBIÉN, REALIZARÁ ACTIVIDADES EMPRESARIALES DE ARTES GRÁFICAS Y SUS ACTIVIDADES ANEXAS; Y LA EDICIÓN DE REVISTAS, PERIÓDICOS, LIBROS Y OTRAS EDICIONES",
      "mainEntityOfPage": "https://www.contratacion.euskadi.eus/webkpe00-kperoc/es/ac71aBusquedaRegistrosWar/empresa/01800",
      "_links": {
        "self": {
          "name": "LOVADER MIX, S.L.",
          "href": "https://api.euskadi.eus/procurements/companies/01800"
        }
      }
    },
    {
      "name": "GAIN, URBANISMO E INGENIERÍA CIVIL, S.A.",
      "registrationNumber": "00044",
      "identificationNumber": "A20085759",
      "address": "P.E. ZUATZU. EDIFICIO DONOSTI, PLANTA 2ª. OFICINA 3",
      "location": {
        "postalCode": "20018",
        "municipality": "Donostia / San Sebastián",
        "county": "Gipuzkoa",
        "municipalityId": "069",
        "countyId": "20"
      },
      "economicActivities": [
        {
          "id": "1.847",
          "name": "Servicios de consultoría",
          "_links": {
            "self": {
              "name": "Servicios de consultoría",
              "href": "https://api.euskadi.eus/procurements/companies/economic-activities/1.847"
            }
          }
        }
      ],
      "certificateStartDate": "2010-11-08",
      "certificateEndDate": "2011-04-28",
      "object": "ESTUDIOS, PROYECTOS Y DIRECCIÓN DE OBRAS RELACIONADAS CON EL ÁMBITO DE INGENIEROS DE CAMINOS, CANALES Y PUERTOS",
      "mainEntityOfPage": "https://www.contratacion.euskadi.eus/webkpe00-kperoc/es/ac71aBusquedaRegistrosWar/empresa/00044",
      "_links": {
        "self": {
          "name": "GAIN, URBANISMO E INGENIERÍA CIVIL, S.A.",
          "href": "https://api.euskadi.eus/procurements/companies/00044"
        }
      }
    },
    {
      "name": "ALTIA CONSULTORES, S.L.",
      "registrationNumber": "02382",
      "identificationNumber": "B15456585",
      "address": "AVDA. PASAJE, 32 - BLOQUE 1º, 2ºA-B",
      "location": {
        "postalCode": "15006",
        "municipality": "Coruña, A",
        "county": "Coruña, A",
        "municipalityId": "030",
        "countyId": "15"
      },
      "economicActivities": [
        {
          "id": "1.845",
          "name": "Explotación electrónica por cuenta de terceros",
          "_links": {
            "self": {
              "name": "Explotación electrónica por cuenta de terceros",
              "href": "https://api.euskadi.eus/procurements/companies/economic-activities/1.845"
            }
          }
        }
      ],
      "certificateStartDate": "2010-11-08",
      "certificateEndDate": "2010-09-25",
      "object": "1. SERVICIOS DE ASESORAMIENTO Y CONSULTORÍA EN MATERIA DE PLANIFICACIÓN TECNOLÓGICA, CALIDAD, ORGANIZACIÓN Y SISTEMAS DE INFORMACIÓN, MEJORA, RACIONALIZACIÓN Y CAMBIO DE LA GESTIÓN DE CONTINGENCIAS Y MANTENIMIENTO DEL NEGOCIO.\r\n\r\n2. ANÁLISIS, DISEÑO, CONSTRUCCIÓN, PRUEBAS, INTEGRACIÓN, IMPLANTACIÓN Y MANTENIMIENTO DE SISTEMAS DE INFORMACIÓN EN SU MÁS AMPLIO SENTIDO.\r\n\r\n3. SERVICIOS DE PUESTA EN FUNCIONAMIENTO, SEGUIMIENTO, EXPLOTACIÓN, GESTIÓN Y CONTROL DE EQUIPOS Y SISTEMAS INFORMÁTICOS Y DE INFRAESTRUCTURAS TELEMÁTICAS.\r\n\r\n4. CAPTURA, GRABACIÓN Y GESTIÓN DE DATOS POR MEDIOS ELECTRÓICOS, INFORMÁTICOS Y TELEMÁTICOS.\r\n\r\n5. ACTIVIDADES DE FORMACIÓN PRESENCIAL, A DISTANCIA U ON-LINE EN MATERIA DE PLANIFICACIIÓN Y ORGANIZACIÓN TECNOLÓGICA, SEGURIDAD INFORMÁTICA, METODOLOGÍAS, ANÁLISIS, DISEÑO Y PROGRAMACIÓN Y PRODUCTOS Y SOLUCIONES PROPIAS O DE TERCEROS, INCLUYENDO LA PREPARACIÓN Y DISTRIBUCIÓN DEL MATERIAL DIDÁCTICO RELACIONADO CON DICHAS ACTIVIDADES DE FORMACIÓN.\r\n\r\n6. GESTIÓN EXTERNA DE TODOS O PARTE DE LOS PROCESOS INFORMÁTICOS DE TODO TIPO DE EMPRESAS E INSTITUCIONES PÚBLICAS Y PRIVADAS.\r\n\r\n7. SUMINISTRO, IMPLANTACIÓN, INTEGRACIÓN Y MANTENIMIENTO DE SOLUCIONES INFORMÁTICAS PROPIAS Y DE TERCEROS, INCLUYENDO LA VENTA, CESIÓN, LICENCIA Y ARRENDAMIENTO DE DERECHOS DE PROPIEDAD INTELECTUAL E INDUSTRIAL SOBRE ELSOFTWARE DE BASE O DE APLICACIÓN.\r\n\r\n8. SUMINISTRO, MANTENIMIENTO Y REPARACIÓN DE INFRAESTRUCTURAS E INSTALACIONES TECNOLÓGICAS TALES COMO EQUIPOS DE CAPTURA, PROCESAMIENTO, ALMACENAMIENTO, TRANSMISIÓN, RECEPCIÓN Y REPRODUCCIÓN DE LA INFORMACIÓN.",
      "mainEntityOfPage": "https://www.contratacion.euskadi.eus/webkpe00-kperoc/es/ac71aBusquedaRegistrosWar/empresa/02382",
      "_links": {
        "self": {
          "name": "ALTIA CONSULTORES, S.L.",
          "href": "https://api.euskadi.eus/procurements/companies/02382"
        }
      }
    },
    {
      "name": "CELULOSAS VASCAS, S.L.",
      "registrationNumber": "02716",
      "identificationNumber": "B48119390",
      "address": "PARQUE EMPRESARIAL BOROA. PARCELA 2A-1B",
      "location": {
        "postalCode": "48340",
        "municipality": "Amorebieta-Etxano",
        "county": "Bizkaia",
        "municipalityId": "003",
        "countyId": "48"
      },
      "economicActivities": [
        {
          "id": "1.614.2",
          "name": "Venta al por mayor de productos de perfumería, droguería, higiene y belleza",
          "_links": {
            "self": {
              "name": "Venta al por mayor de productos de perfumería, droguería, higiene y belleza",
              "href": "https://api.euskadi.eus/procurements/companies/economic-activities/1.614.2"
            }
          }
        }
      ],
      "certificateStartDate": "2010-11-08",
      "certificateEndDate": "2011-05-03",
      "object": "EJERCER LA INDUSTRIA Y EL COMERCIO EN MATERIA DE REPRESENTACIÓN, COMERCIALIZACIÓN, COMPRAVENTA AL POR MAYOR Y MENOR DE TODA CLASE DE CELULOSAS, PLÁSTICOS MANUFACTURADOS Y SUMINISTROS INDUSTRIALES. TALES ACTIVIDADES PODRÁN SER TAMBIÉN DESARROLLADAS POR LA SOCIEDAD INDIRECTAMENTE MEDIANTE LA PARTICIPACIÓN EN OTRAS SOCIEDADES O ENTIDADES DE IGUAL O ANÁLOGO OBJETO SOCIAL, CON O SIN PERSONALIDAD JURÍDICA.\r\n",
      "mainEntityOfPage": "https://www.contratacion.euskadi.eus/webkpe00-kperoc/es/ac71aBusquedaRegistrosWar/empresa/02716",
      "_links": {
        "self": {
          "name": "CELULOSAS VASCAS, S.L.",
          "href": "https://api.euskadi.eus/procurements/companies/02716"
        }
      }
    },
    {
      "name": "TREVIÑO GESTIÓN, S.L.U.",
      "registrationNumber": "04468",
      "identificationNumber": "B09373754",
      "address": "GENERAL ALAVA, 10-5º. OFICINA 7",
      "location": {
        "postalCode": "01005",
        "municipality": "Vitoria-Gasteiz",
        "county": "Araba/Álava",
        "municipalityId": "059",
        "countyId": "01"
      },
      "economicActivities": [
        {
          "id": "1.501.1",
          "name": "Construcción completa, reparación y conservación de edificaciones",
          "_links": {
            "self": {
              "name": "Construcción completa, reparación y conservación de edificaciones",
              "href": "https://api.euskadi.eus/procurements/companies/economic-activities/1.501.1"
            }
          }
        }
      ],
      "certificateStartDate": "2010-11-08",
      "certificateEndDate": "2011-04-15",
      "object": "LA PROMOCIÓN Y CONSTRUCCIÓN INMOBILIARIA",
      "mainEntityOfPage": "https://www.contratacion.euskadi.eus/webkpe00-kperoc/es/ac71aBusquedaRegistrosWar/empresa/04468",
      "_links": {
        "self": {
          "name": "TREVIÑO GESTIÓN, S.L.U.",
          "href": "https://api.euskadi.eus/procurements/companies/04468"
        }
      }
    },
    {
      "name": "DE PRADA COLOR, S.L.",
      "registrationNumber": "03450",
      "identificationNumber": "B95063822",
      "address": "PLAZA DE HARO, 5 Y 6",
      "location": {
        "postalCode": "48006",
        "municipality": "Bilbao",
        "county": "Bizkaia",
        "municipalityId": "020",
        "countyId": "48"
      },
      "economicActivities": [
        {
          "id": "1.505.6",
          "name": "Pintura, revestimientos y terminación y decoración de locales",
          "_links": {
            "self": {
              "name": "Pintura, revestimientos y terminación y decoración de locales",
              "href": "https://api.euskadi.eus/procurements/companies/economic-activities/1.505.6"
            }
          }
        }
      ],
      "certificateStartDate": "2010-11-04",
      "certificateEndDate": "2011-04-26",
      "object": "EL REVESTIMIENTO DE EDIFICIOS, LOCALES, VIVIENDAS, PABELLONES, STANDS, YA SEAN PÚBLICOS O PRIVADOS, CON PINTURAS, YESOS , ESCAYOLAS, PAPELES, TAPICES, PLÁSTICOS, MADERAS U OTROS MATERIALES DECORATIVOS, TANTO EN EL INTERIOR COMO EN EL EXTERIOR DE LOS MISMOS, LA COORDINACIÓN DE GREMIOS DE DECORACIÓN, ALBAÑILERÍA, CARPINTERÍA, FONTANERÍA, POR SÍ MISMOS O DE TERCEROS",
      "mainEntityOfPage": "https://www.contratacion.euskadi.eus/webkpe00-kperoc/es/ac71aBusquedaRegistrosWar/empresa/03450",
      "_links": {
        "self": {
          "name": "DE PRADA COLOR, S.L.",
          "href": "https://api.euskadi.eus/procurements/companies/03450"
        }
      }
    },
    {
      "name": "EMTE, S.A.",
      "registrationNumber": "03000",
      "identificationNumber": "A08133670",
      "address": "AVDA. BAIX LLOBREGAT, 10",
      "location": {
        "postalCode": "08950",
        "municipality": "Esplugues de Llobregat",
        "county": "Barcelona",
        "municipalityId": "077",
        "countyId": "08"
      },
      "economicActivities": [
        {
          "id": "1.504.1",
          "name": "Instalaciones eléctricas en general",
          "_links": {
            "self": {
              "name": "Instalaciones eléctricas en general",
              "href": "https://api.euskadi.eus/procurements/companies/economic-activities/1.504.1"
            }
          }
        }
      ],
      "certificateStartDate": "2010-11-03",
      "certificateEndDate": "2011-04-04",
      "object": "LA REALIZACIÓN DE OBRAS DE TODO TIPO, EN EL SENTIDO MÁS AMPLIO, POR CUENTA PROPIA O DE TERCEROS, INCLUYENDO LAS EDIFICACIÓN URBANA, INDUSTRIAL, DE URBANIZACIÓN, SANEAMIENTO, ABASTECIMIENTO DE AGUAS, EXCAVACIONES, MOVIMIENTOS DE TIERRAS, CARRETERAS, OBRAS HIDRÁULICAS, RIEGOS, DRENAJES Y  SIMILARES, ASÍ COMO LA PRESTACIÓN DE SERCICIOS DE CONSERVACIÓN, MANTENIMIENOT Y EXPLOTACIÓN DE ESTAS OBRAS. EN PARTICULAR  SE INCLUYEN AL OBJETO DE LA SOCIEDAD DE LAS SIGUIENTES ACTIVIDADES:\r\n\r\n1) EL DISEÑO Y LA EJECUCIÓN DE TODO TIPO DE OBRAS PÚBLICAS Y PRIVADAS EN EL ÁMBITO DE LA EDIFICACIÓN (RESIDENCIAL, EDIFICIOS PÚBLICOS, INDUSTRIALES Y AGROPECUARIOS) Y DE LAS OBRAS CIVILES (PRESAS, CANALES, CONDUCCIONES, PUERTOS, AUTOPISTAS, AUTOVÍAS, PISTAS DE ATERRIZAJE, FERROCARRILES, TÚNELES, URBANIZACIÓN, INFRAESTRUCTURAS VIARIAS Y MARÍTIMAS).\r\n\r\n2) EL DISEÑO Y LA REALIZACIÓN DE TODO TIPO DE INSTALACIONES ELECTROMECÁNICAS ASOCIADAS A LA EDIFICACIÓN Y A LAS OBRAS CIVILES, INCLUYENDO LAS INSTALACIONES DE ELECTRICIDAD, MECÁNICAS, DE CLIMATIZACIÓN, ELECTRÓNICAS, DE TELECOMUNICACIONES Y DE FLUIDOS.\r\n\r\n3) LA PRESTACIÓN DE TODO TIPO DE SERVICIOS DE MANTENIMIENTO INTEGRAL, CONSERVACIÓN Y EXPLOTACIÓN DE BIENES INMUEBLES (EDIFICIOS, CARRETERAS Y VÍAS PÚBLICAS, REDES DE AGUAS, ALCANTARILLA, ELÉCTRICAS, ILUMINACIÓN, COMUNICACIONES ELECTRÓNICAS, ESTACIONES DEPURADORAS Y DE TRATAMIENTO DE AGUAS, MOBILIARIO URBANO, MONTES Y JARDINES, MONUMENTOS Y EDIFICIOS SINGULARES, APARCAMIENTOS, INFRAESTRUCTURAS MARÍTIMAS, INFRAESTRUCTURAS FERROVIARIAS Y DE TRANSPORTE EN GENERAL.\r\n\r\n4) LA PROMOCIÓN, DISEÑO, CONSTRUCCIÓN Y EXPLOTACIÓN DE TODO TIPO DE PLANTAS E INSTALACIONES ASOCIADAS A LA RECOGIDA, TRATAMIENTO Y DEPOSICIÓN DE RESIDUOS Y TRATAMIENTO DE AGUAS.\r\n\r\n5) LA PROMOCIÓN, DISEÑO, CONSTRUCCIÓN Y EXPLOTACIÓN DE PLANTAS DE PRODUCCIÓN DE ENERGÍA Y SUS REDES DE DISTRIBUCIÓN, INCLUYENDO PLANTAS DE PRODUCCIÓN EÓLICA, DE BIOMASA Y DE COGENERACIÓN.\r\n\r\n6) LA PRESTACIÓN DE SERVICIOS DE INGENIERÍA Y/O ASISTENCIA TÉCNICA TANTO EN ORGANISMOS PÚBLICOS COMO PRIVADOS EN LOS CAMPOS ANTES RESEÑADOS.\r\n\r\nEN EL DESARROLLO DE SUS NEGOCIOS, LA SOCIEDAD TENDRÁ PLENA CAPACIDAD JURÍDICA PARA CONVENIR CUALQUIER FORMA DE PAGO Y CONTRATAR SOBRE TODA CLASE DE BIENES, INCLUYENDO INMUEBLES Y SUS DERECHOS REALES, ASÍ COMO PARTICIPAR EN OTRAS SOCIEDADES Y POSEER BAJO CUALQUIERA DE LAS FORMAS ADMITIDAS EN DERECHO, VALORES MOBILIARIOS DE TODA CLASE.\r\nLAS ACTIVIDADES DEL OBJETO SOCIAL QUE PRECISEN AUTORIZACIÓN ADMINISTRATIVA PARA SER EJERCIDAS SE INICIARÁN EN EL MOMENTO EN QUE  SE OBTENGA ÉSTA O BIEN EN EL MOMENTO DE SU INSCRIPCIÓN EN LOS REGISTROS ADMINISTRATIVOS CORRESPONDIENTES, CUANDO SEA NECESARIO ",
      "mainEntityOfPage": "https://www.contratacion.euskadi.eus/webkpe00-kperoc/es/ac71aBusquedaRegistrosWar/empresa/03000",
      "_links": {
        "self": {
          "name": "EMTE, S.A.",
          "href": "https://api.euskadi.eus/procurements/companies/03000"
        }
      }
    }
  ]
}