{
  "totalItems": 9042,
  "totalPages": 905,
  "currentPage": 838,
  "itemsOfPage": 10,
  "items": [
    {
      "name": "BULL (ESPAÑA), S.A.",
      "registrationNumber": "00123",
      "identificationNumber": "A28111912",
      "address": "ARTURO SORIA, Nº 107",
      "location": {
        "postalCode": "28043",
        "municipality": "Madrid",
        "county": "Madrid",
        "municipalityId": "079",
        "countyId": "28"
      },
      "economicActivities": [
        {
          "id": "1.615.4",
          "name": "Venta al por mayor de aparatos y material radioeléctrico y electrónico",
          "_links": {
            "self": {
              "name": "Venta al por mayor de aparatos y material radioeléctrico y electrónico",
              "href": "https://api.euskadi.eus/procurements/companies/economic-activities/1.615.4"
            }
          }
        },
        {
          "id": "1.617.8",
          "name": "Venta al por mayor de máquinas y material de oficina",
          "_links": {
            "self": {
              "name": "Venta al por mayor de máquinas y material de oficina",
              "href": "https://api.euskadi.eus/procurements/companies/economic-activities/1.617.8"
            }
          }
        },
        {
          "id": "1.845",
          "name": "Explotación electrónica por cuenta de terceros",
          "_links": {
            "self": {
              "name": "Explotación electrónica por cuenta de terceros",
              "href": "https://api.euskadi.eus/procurements/companies/economic-activities/1.845"
            }
          }
        },
        {
          "id": "1.847",
          "name": "Servicios de consultoría",
          "_links": {
            "self": {
              "name": "Servicios de consultoría",
              "href": "https://api.euskadi.eus/procurements/companies/economic-activities/1.847"
            }
          }
        },
        {
          "id": "1.853",
          "name": "Alquiler de maquinaria y equipo contable de oficina y cálculo",
          "_links": {
            "self": {
              "name": "Alquiler de maquinaria y equipo contable de oficina y cálculo",
              "href": "https://api.euskadi.eus/procurements/companies/economic-activities/1.853"
            }
          }
        }
      ],
      "certificateStartDate": "1998-01-01",
      "certificateEndDate": "1998-05-04",
      "object": "FABRICACION, COMPRA, VENTA, ARRENDAMIENTO, REPARACION, ENTRETENIMIENTO Y EN GENERAL EL COMERCIO DE MAQUINAS DE TARJETAS PERFORADAS Y DE CALCULAR, ELECTRONICAS, ASI COMO PIEZAS DE RECAMBIO, ACCESORIOS RELATIVOS A ESTAS MAQUINAS",
      "mainEntityOfPage": "https://www.contratacion.euskadi.eus/webkpe00-kperoc/es/ac71aBusquedaRegistrosWar/empresa/00123",
      "_links": {
        "self": {
          "name": "BULL (ESPAÑA), S.A.",
          "href": "https://api.euskadi.eus/procurements/companies/00123"
        }
      }
    },
    {
      "name": "SUREUSKADI TRABAJO TEMPORAL, S.L.",
      "registrationNumber": "01785",
      "identificationNumber": "B20504510",
      "address": "C/ URBIETA, Nº 36 - 1º",
      "location": {
        "postalCode": "20006",
        "municipality": "Donostia / San Sebastián",
        "county": "Gipuzkoa",
        "municipalityId": "069",
        "countyId": "20"
      },
      "economicActivities": [
        {
          "id": "1.849.2",
          "name": "Servicios mecanográficos, taquigráficos, de reproducción de escritos",
          "_links": {
            "self": {
              "name": "Servicios mecanográficos, taquigráficos, de reproducción de escritos",
              "href": "https://api.euskadi.eus/procurements/companies/economic-activities/1.849.2"
            }
          }
        }
      ],
      "certificateStartDate": "1997-08-04",
      "certificateEndDate": "1998-01-24",
      "object": "PONER A DISPOSICIÓN DE OTRA EMPRESA USUARIA, CON CARÁCTER TEMPORAL, TRABAJADORES POR ELLA CONTRATADOS",
      "mainEntityOfPage": "https://www.contratacion.euskadi.eus/webkpe00-kperoc/es/ac71aBusquedaRegistrosWar/empresa/01785",
      "_links": {
        "self": {
          "name": "SUREUSKADI TRABAJO TEMPORAL, S.L.",
          "href": "https://api.euskadi.eus/procurements/companies/01785"
        }
      }
    },
    {
      "name": "EMERGENCIA 2000 PAÍS VASCO, S.L.",
      "registrationNumber": "01862",
      "identificationNumber": "B20523544",
      "address": "PSO. DE LA SIDRA, S/N - POLG. 26",
      "location": {
        "postalCode": "20115",
        "municipality": "Astigarraga",
        "county": "Gipuzkoa",
        "municipalityId": "903",
        "countyId": "20"
      },
      "economicActivities": [
        {
          "id": "1.619.2",
          "name": "Venta al por mayor de aparatos e instrumentos médicos, ortopédicos, ópticos",
          "_links": {
            "self": {
              "name": "Venta al por mayor de aparatos e instrumentos médicos, ortopédicos, ópticos",
              "href": "https://api.euskadi.eus/procurements/companies/economic-activities/1.619.2"
            }
          }
        },
        {
          "id": "1.653.2",
          "name": "Venta al por menor de material y aparatos eléctricos, electrodomésticos y cocina",
          "_links": {
            "self": {
              "name": "Venta al por menor de material y aparatos eléctricos, electrodomésticos y cocina",
              "href": "https://api.euskadi.eus/procurements/companies/economic-activities/1.653.2"
            }
          }
        }
      ],
      "certificateStartDate": "1997-06-17",
      "certificateEndDate": "1998-05-21",
      "object": " LA COMPRA Y VENTA DE TODA CLASE DE PRODUCTOS RELACIONADOS CON LAS TELECOMUNICACIONES, LA TELEFONÍA, MATERIAL DE PRIMEROS AUXILIOS Y EMERGENCIAS, MATERIAL SANITARIO, MATERIAL DE SEÑALIZACIÓN Y PREFERENCIA DE PASO, MATERIAL DE PROTECCIÓN Y PREVENCIÓN DE LAS COSAS Y DE LAS PERSONAS, ASÍ COMO SU REPARACIÓN, REVISIÓN Y MANTENIMIENTO, GUARDA, CUSTODIA Y ALMACENAJE DE LAS MATERIAS RELACIONADAS CON DICHAS ÁREAS. PRESTACIÓN DE SERVICIOS DENTRO DEL ÁREA SOCIO-SANITARIA, TALES COMO ASISTENCIA DOMICILIARIA PRIMARIA Y SECUNDARIA, TELEASISTENCIA, TRANSPORTE SANITARIO URGENTE, SECUNDARIO Y MEDICALIZADO, CUIDADO Y TRANSPORTE DE ENFERMOS Y DISCAPACITADOS, ASÍ COMO LA FABRICACIÓN, TRANSFORMACIÓN Y VENTA DE TODA CLASE DE VEHÍCULOS ESPECIALMENTE ADAPTADOS PARA LA REALIZACIÓN DE LOS CITADOS SERVICIOS, ASÍ COMO CUALQUIER OTRA ACTIVIDAD ENCAMINADA A CUBRIR LAS NECESIDADES SOCIO-SANITARIAS QUE PUDIERAN DERIVARSE DEL TRÁFICO MERCANTIL. IMPARTIR Y ASESORAR POR MEDIO DE CURSOS, CHARLAS, ESTUDIOS, SEMINARIOS, JORNADAS SOBRE TEMAS RELACIONADOS CON EL OBJETO DE LA SOCIEDAD ENTRE LOS QUE SE INCLUYEN A MODO ENUNCIATIVO: LA PROTECCIÓN DE LAS PERSONAS Y LAS COSAS, AUTOPROTECCIÓN, TELECOMUNICACIONES, TRANSPORTE SANITARIO, TELEASISTENCIA, TRANSPORTE ADAPTADO, ETC; ESTABLECER SUCURSALES, AGENCIAS Y DELEGACIONES EN EL EXTRANJERO",
      "mainEntityOfPage": "https://www.contratacion.euskadi.eus/webkpe00-kperoc/es/ac71aBusquedaRegistrosWar/empresa/01862",
      "_links": {
        "self": {
          "name": "EMERGENCIA 2000 PAÍS VASCO, S.L.",
          "href": "https://api.euskadi.eus/procurements/companies/01862"
        }
      }
    },
    {
      "name": "URBASER, S.A.",
      "registrationNumber": "01803",
      "identificationNumber": "A78999273",
      "address": "AVDA. TENERIFE, Nº 4-6",
      "location": {
        "postalCode": "28700",
        "municipality": "San Sebastián de los Reyes",
        "county": "Madrid",
        "municipalityId": "134",
        "countyId": "28"
      },
      "economicActivities": [
        {
          "id": "1.507",
          "name": "Construcción, reparación y conservación de toda clase obras",
          "_links": {
            "self": {
              "name": "Construcción, reparación y conservación de toda clase obras",
              "href": "https://api.euskadi.eus/procurements/companies/economic-activities/1.507"
            }
          }
        },
        {
          "id": "1.721.4",
          "name": "Transporte sanitario en ambulancias",
          "_links": {
            "self": {
              "name": "Transporte sanitario en ambulancias",
              "href": "https://api.euskadi.eus/procurements/companies/economic-activities/1.721.4"
            }
          }
        },
        {
          "id": "1.843.1",
          "name": "Servicios técnicos de ingeniería",
          "_links": {
            "self": {
              "name": "Servicios técnicos de ingeniería",
              "href": "https://api.euskadi.eus/procurements/companies/economic-activities/1.843.1"
            }
          }
        },
        {
          "id": "1.911",
          "name": "Servicios agrícolas y ganaderos",
          "_links": {
            "self": {
              "name": "Servicios agrícolas y ganaderos",
              "href": "https://api.euskadi.eus/procurements/companies/economic-activities/1.911"
            }
          }
        },
        {
          "id": "1.921.1",
          "name": "Servicios de limpieza en calles, vías públicas y jardines",
          "_links": {
            "self": {
              "name": "Servicios de limpieza en calles, vías públicas y jardines",
              "href": "https://api.euskadi.eus/procurements/companies/economic-activities/1.921.1"
            }
          }
        },
        {
          "id": "1.921.2",
          "name": "Servicios de recogida de basuras y desechos",
          "_links": {
            "self": {
              "name": "Servicios de recogida de basuras y desechos",
              "href": "https://api.euskadi.eus/procurements/companies/economic-activities/1.921.2"
            }
          }
        },
        {
          "id": "1.922",
          "name": "Servicios de limpieza",
          "_links": {
            "self": {
              "name": "Servicios de limpieza",
              "href": "https://api.euskadi.eus/procurements/companies/economic-activities/1.922"
            }
          }
        }
      ],
      "certificateStartDate": "1997-04-14",
      "certificateEndDate": "1998-07-13",
      "object": "LA PRESTACIÓN DE TODO TIPO DE SERVICIOS PÚBLICOS Y PRIVADOS DE CARÁCTER URBANO, INCLUIDA LA EJECUCIÓN DE OBRAS E INSTALACIONES QUE HUBIEREN DE REALIZARSE, YA SEA EN RÉGIMEN DE CONCESIÓN ADMINISTRATIVA Y ARRENDAMIENTO. LOS SERVICIOS DE LIMPIEZA DE OFICINAS, LOCALES COMERCIALES Y LUGARES PÚBLICOS. LOS MONTAJES E INSTALACIONES DE ARTÍCULOS METÁLICOS, TALES COMO MESAS, ESTANTERÍAS, MATERIAL DE OFICINA Y AFINES. LOS TRABAJOS DE REPARACIÓN Y CONSERVACIÓN DE OBRAS, OBRAS NUEVAS DE EDIFICACIÓN URBANA, INDUSTRIAL, URBANIZACIÓN, SANEAMIENTO Y ABASTECIMIENTO DE AGUAS, MOVIMIENTO DE TIERRAS Y SIMILARES, OBRAS NUEVAS DE CARRETERA, FERROCARRILES, HIDRÁULICAS, RIEGOS, PUENTES, AEROPUERTOS, DRAGADOS Y SIMILARES",
      "mainEntityOfPage": "https://www.contratacion.euskadi.eus/webkpe00-kperoc/es/ac71aBusquedaRegistrosWar/empresa/01803",
      "_links": {
        "self": {
          "name": "URBASER, S.A.",
          "href": "https://api.euskadi.eus/procurements/companies/01803"
        }
      }
    },
    {
      "name": "OTAZU, S.A.",
      "registrationNumber": "01652",
      "identificationNumber": "A01047018",
      "address": "PORTAL DE VILLARREAL, Nº 31",
      "location": {
        "postalCode": "01013",
        "municipality": "Vitoria-Gasteiz",
        "county": "Araba/Álava",
        "municipalityId": "059",
        "countyId": "01"
      },
      "economicActivities": [
        {
          "id": "1.659.4",
          "name": "Venta al por menor de libros, periódicos y artículos de papelería y escritorio",
          "_links": {
            "self": {
              "name": "Venta al por menor de libros, periódicos y artículos de papelería y escritorio",
              "href": "https://api.euskadi.eus/procurements/companies/economic-activities/1.659.4"
            }
          }
        }
      ],
      "certificateStartDate": "1995-12-04",
      "certificateEndDate": "1998-04-22",
      "object": "LA FABRICACIÓN Y COMERCIALIZACIÓN DE MATERIAL Y MOBILIARIO DE OFICINA, LA FABRICACIÓN, COMERCIALIZACIÓN Y REPARACIÓN DE MAQUINARIA Y HERRAMIENTA, Y EL TRANSPORTE DE MERCANCIAS PROPIAS",
      "mainEntityOfPage": "https://www.contratacion.euskadi.eus/webkpe00-kperoc/es/ac71aBusquedaRegistrosWar/empresa/01652",
      "_links": {
        "self": {
          "name": "OTAZU, S.A.",
          "href": "https://api.euskadi.eus/procurements/companies/01652"
        }
      }
    },
    {
      "name": "CONTRATAS Y VENTAS, S.A.",
      "registrationNumber": "01631",
      "identificationNumber": "A33014218",
      "address": "AVDA. GENERAL PERÓN, Nº 36",
      "location": {
        "postalCode": "28020",
        "municipality": "Madrid",
        "county": "Madrid",
        "municipalityId": "079",
        "countyId": "28"
      },
      "economicActivities": [
        {
          "id": "1.507",
          "name": "Construcción, reparación y conservación de toda clase obras",
          "_links": {
            "self": {
              "name": "Construcción, reparación y conservación de toda clase obras",
              "href": "https://api.euskadi.eus/procurements/companies/economic-activities/1.507"
            }
          }
        }
      ],
      "certificateStartDate": "1995-11-07",
      "certificateEndDate": "1997-08-25",
      "object": "LA CONSTRUCCION Y EJECUCION DE OBRAS DE CARACTER PUBLICO O PRIVADO. EL DISEÑO, FABRICACION, COMPRA, VENTA, SUMINISTRO, IMPORTACION, EXPORTACION, ALQUILER, MANTENIMIENTO, DISTRIBUCION, REPRESENTACION Y EXPLOTACION, INCLUSO PUBLICITARIA, DE MAQUINARIA, HERRAMIENTAS, VEHICULOS, INSTALACIONES, MATERIALES Y EQUIPOS, MOBILIARIO Y, EQUIPAMIENTO URBANO ENTENDIDO EN SU MAS AMPLIA ACEPCION, ASI COMO ELEMENTOS DE SEÑALIZACION, TANTO EN POBLACIONES COMO EN VIAS INTERURBANAS DE COMUNICACION. SERVICIOS DE INSTALACION Y MONTAJES ELECTRICOS, ELECTRONICOS Y DE TELECOMUNICACION, ASI COMO EL DISEÑO, INVESTIGACION, DESARROLLO Y COMERCIALIZACION DE PRODUCTOS RELACIONADOS CON DICHOS SERVICIOS",
      "mainEntityOfPage": "https://www.contratacion.euskadi.eus/webkpe00-kperoc/es/ac71aBusquedaRegistrosWar/empresa/01631",
      "_links": {
        "self": {
          "name": "CONTRATAS Y VENTAS, S.A.",
          "href": "https://api.euskadi.eus/procurements/companies/01631"
        }
      }
    },
    {
      "name": "AURORA VIDA, S.A. DE SEGUROS Y REASEGUROS",
      "registrationNumber": "01559",
      "identificationNumber": "A48464606",
      "address": "C/ BUENOS AIRES, nº 12",
      "location": {
        "postalCode": "48001",
        "municipality": "Bilbao",
        "county": "Bizkaia",
        "municipalityId": "020",
        "countyId": "48"
      },
      "economicActivities": [
        {
          "id": "1.821",
          "name": "Entidades aseguradoras de vida y capitalización",
          "_links": {
            "self": {
              "name": "Entidades aseguradoras de vida y capitalización",
              "href": "https://api.euskadi.eus/procurements/companies/economic-activities/1.821"
            }
          }
        }
      ],
      "certificateStartDate": "1995-06-29",
      "certificateEndDate": "1995-06-30",
      "object": "EL ASESORAMIENTO, ESTUDIO, ELABORACIÓN DE PROYECTOS Y LA PLANIFICACIÓN EN EL RAMO DEL SEGURO DE VIDA SIN INCLUIRSE DENTRO DEL OBJETO SOCIAL NI LA INTERMEDIACIÓN DE SEGUROS NI LA CONTRATACIÓN DE LOS MISMOS",
      "mainEntityOfPage": "https://www.contratacion.euskadi.eus/webkpe00-kperoc/es/ac71aBusquedaRegistrosWar/empresa/01559",
      "_links": {
        "self": {
          "name": "AURORA VIDA, S.A. DE SEGUROS Y REASEGUROS",
          "href": "https://api.euskadi.eus/procurements/companies/01559"
        }
      }
    },
    {
      "name": "FOMENTO DE CONSTRUCCIONES Y CONTRATAS, S.A.",
      "registrationNumber": "01402",
      "identificationNumber": "A28037224",
      "address": "AVDA. GENERAL PERÓN, Nº 36",
      "location": {
        "postalCode": "28020",
        "municipality": "Madrid",
        "county": "Madrid",
        "municipalityId": "079",
        "countyId": "28"
      },
      "economicActivities": [
        {
          "id": "1.501.2",
          "name": "Construcción completa, reparación y conservación obras civiles",
          "_links": {
            "self": {
              "name": "Construcción completa, reparación y conservación obras civiles",
              "href": "https://api.euskadi.eus/procurements/companies/economic-activities/1.501.2"
            }
          }
        }
      ],
      "certificateStartDate": "1995-02-10",
      "certificateEndDate": "1998-03-08",
      "object": "LA CONSTRUCCION Y EJECUCION DE OBRAS DE CARACTER PUBLICO O PRIVADO. LA PRESTACION DE SERVICIOS DE SANEAMIENTO, LIMPIEZA Y MANTENIMIENTO, TANTO A ENTIDADES DE CARACTER PUBLICO COMO PRIVADO. EL ESTUDIO, PROMOCION, ASESORAMIENTO, ADMINISTRACION, GESTION, ADQUISICION, VENTA Y EXPLOTACION EN CUALQUIER FORMA DE SOLARES, TERRENOS, CONJUNTOS RESIDENCIALES, URBANIZACIONES O PROMOCIONES INMOBILIARIAS Y EN GENERAL, DE TODA CLASE DE BIENES INMUEBLES. EL DISEÑO, FABRICACION, COMPRA, VENTA, SUMINISTRO, IMPORTACION, EXPORTACION, ALQUILER, MANTENIMIENTO, DISTRIBUCION, REPRESENTACION Y EXPLOTACION, INCLUSO PUBLICITARIA, DE MAQUINARIA, HERRAMIENTAS, VEHICULOS, INSTALACIONES, MATERIALES Y EQUIPOS; MOBILIARIO Y, EQUIPAMIENTO URBANO ENTENDIDO EN SU MAS AMPLIA ACEPCION, ASI COMO ELEMENTOS DE SEÑALIZACION, TANTO EN POBLACIONES COMO EN VIAS INTERURBANAS DE COMUNICACION. COMPRA, VENTA, EXPLOTACION Y CESION, EN CUALQUIER FORMA, DE PATENTES, MODELOS, MARCAS, LICENCIAS Y DEMAS MODALIDADES DE LA PROPIEDAD INDUSTRIAL O INTELECTUAL. EL DISEÑO, INVESTIGACION, DESARROLLO, CONSTRUCCION, EXPLOTACION, MANTENIMIENTO Y COMERCIALIZACION DE PLANTAS E INSTALACIONES DE TRATAMIENTO Y DEPURACION DE AGUAS Y RESIDUOS, LA RECUPERACION Y ELIMINACION DE RESIDUOS, ASI COMO LA COMPRAVENTA DE LOS SUBPRODUCTOS QUE SE ORIGINEN DE DICHOS TRATAMIENTOS. APROVECHAMIENTO, TRANSFORMACION Y COMERCIALIZACION DE TODA CLASE DE AGUAS. EL ESTUDIO, PROYECTO, ADQUISICION, CESION, ENAJENACION, CONSTRUCCION, PROMOCION, ASESORAMIENTO, ADMINISTRACION, GESTION, EXPLOTACION EN ARRENDAMIENTO O EN CUALQUIER OTRA FORMA, DE CENTROS COMERCIALES. LA ADQUISICION, CESION, ENAJENACION, CONSTRUCCION, PROMOCION, ASESORAMIENTO, ADMINISTRACION, GESTION, EXPLOTACION EN ARRENDAMIENTO O EN CUALQUIER OTRA FORMA, DE CENTROS RESIDENCIALES GERIATRICOS. LA INVESTIGACION Y APROVECHAMIENTO DE YACIMIENTOS MINERALES ASI COMO LA ADQUISICION, USO Y DISFRUTE DE PERMISOS, CONCESIONES Y DEMAS DERECHOS E INTERESES MINEROS; LA INDUSTRIALIZACION Y COMERCIALIZACION DE LOS PRODUCTOS MINEROS DERIVADOS DE AQUELLOS DERECHOS. LA CREACION, DESARROLLO Y EXPLOTACION DE INDUSTRIAS DEL SECTOR ALIMENTARIO. LA PRESTACION DE SERVICIOS TECNICOS DE INGENIERIA, INCLUIDOS PROYECTOS, ESTUDIOS E INFORMES, ASI COMO LA REALIZACION DE ESTUDIOS DE PRE-INVERSION, CONTROLES DE CALIDAD, AUDITORIAS INTERNAS Y EXPLOTACION ELECTRONICA DE DATOS. SERVICIOS DE INSTALACION Y MONTAJES ELECTRICOS, ELECTRONICOS Y DE TELECOMUNICACION, ASI COMO EL DISEÑO, INVESTIGACION, DESARROLLO Y COMERCIALIZACION DE PRODUCTOS RELACIONADOS CON DICHOS SERVICIOS. LA PARTICIPACION EN OTRAS SOCIEDADES Y EMPRESAS, NACIONALES O EXTRANJERAS, MEDIANTE LA SUSCRIPCION, ADQUISICION, NEGOCIACION Y TENENCIA DE ACCIONES, PARTICIPACIONES Y CUALESQUIERA OTROS TITULOS, YA SEAN DE RENTA FIJA O VARIABLES. EN NINGUN CASO LA SOCIEDAD REALIZARA LAS ACTIVIDADES PROPIAS DE LAS SOCIEDADES E INSTITUCIONES DE INVERSION COLECTIVA, REGULADAS POR LA LEY 46/84, DE 26 DE DICIEMBRE, DE INSTITUCIONES DE INVERSION COLECTIVA",
      "mainEntityOfPage": "https://www.contratacion.euskadi.eus/webkpe00-kperoc/es/ac71aBusquedaRegistrosWar/empresa/01402",
      "_links": {
        "self": {
          "name": "FOMENTO DE CONSTRUCCIONES Y CONTRATAS, S.A.",
          "href": "https://api.euskadi.eus/procurements/companies/01402"
        }
      }
    },
    {
      "name": "AURORA POLAR, S.A. DE SEGUROS Y REASEGUROS",
      "registrationNumber": "01389",
      "identificationNumber": "A48001093",
      "address": "PL. FEDERICO MOYÚA, Nº 4",
      "location": {
        "postalCode": "48009",
        "municipality": "Bilbao",
        "county": "Bizkaia",
        "municipalityId": "020",
        "countyId": "48"
      },
      "economicActivities": [
        {
          "id": "1.822",
          "name": "Entidades aseguradoras de enfermedad y riesgos diversos",
          "_links": {
            "self": {
              "name": "Entidades aseguradoras de enfermedad y riesgos diversos",
              "href": "https://api.euskadi.eus/procurements/companies/economic-activities/1.822"
            }
          }
        }
      ],
      "certificateStartDate": "1994-09-21",
      "certificateEndDate": "1995-06-30",
      "object": "DEDICARSE A TODAS LAS OPERACIONES DE SEGUROS Y REASEGUROS, TANTO MARÍTIMOS COMO TERRESTRES Y AÉREOS, DE MERCANCÍAS, DE TRANSPORTE, DE INCENDIOS, DE VIDA, DE ACCIDENTES, DE RESPONSABILIDAD CIVIL, COMO A LOS DEMÁS RAMOS QUE EXISTAN O QUE SE CREEN Y CUALESQUIERA OTROS NEGOCIOS QUE, DIRECTA O INDIRECTAMENTE, TENGAN RELACIÓN CON LA INDUSTRIA DEL SEGURO Y DEL REASEGURO",
      "mainEntityOfPage": "https://www.contratacion.euskadi.eus/webkpe00-kperoc/es/ac71aBusquedaRegistrosWar/empresa/01389",
      "_links": {
        "self": {
          "name": "AURORA POLAR, S.A. DE SEGUROS Y REASEGUROS",
          "href": "https://api.euskadi.eus/procurements/companies/01389"
        }
      }
    },
    {
      "name": "ALENSA, S.L.",
      "registrationNumber": "01980",
      "identificationNumber": "B20200036",
      "address": "AUZOLAN, Nº 68",
      "location": {
        "postalCode": "20303",
        "municipality": "Irun",
        "county": "Gipuzkoa",
        "municipalityId": "045",
        "countyId": "20"
      },
      "object": "CONSTITUYE EL OBJETO SOCIAL LA ACTIVIDAD DE INSTALACIONES ELÉCTRICAS, REPARACIONES, SUMINISTRO Y VENTA AL POR MAYOR Y MENOR DE ARTÍCULOS ELÉCTRICOS Y ASIMILADOS.",
      "mainEntityOfPage": "https://www.contratacion.euskadi.eus/webkpe00-kperoc/es/ac71aBusquedaRegistrosWar/empresa/01980",
      "_links": {
        "self": {
          "name": "ALENSA, S.L.",
          "href": "https://api.euskadi.eus/procurements/companies/01980"
        }
      }
    }
  ]
}