{
  "totalItems": 9042,
  "totalPages": 905,
  "currentPage": 795,
  "itemsOfPage": 10,
  "items": [
    {
      "name": "ASESORÍA CONSULTORÍA ARTEAGA, S.L.",
      "registrationNumber": "02832",
      "identificationNumber": "B95056610",
      "address": "C/ ENRIQUE ARESTI, 2-2º",
      "location": {
        "postalCode": "48990",
        "municipality": "Getxo",
        "county": "Bizkaia",
        "municipalityId": "044",
        "countyId": "48"
      },
      "economicActivities": [
        {
          "id": "1.842",
          "name": "Servicios financieros y contables",
          "_links": {
            "self": {
              "name": "Servicios financieros y contables",
              "href": "https://api.euskadi.eus/procurements/companies/economic-activities/1.842"
            }
          }
        }
      ],
      "certificateStartDate": "2004-05-03",
      "certificateEndDate": "2004-09-18",
      "object": "LA REALIZACIÓN DE ACTIVIDADES DE CORREDURÍA DE SEGUROS, CON EXPRESO SOMETIMIENTO A LA LEGISLACIÓN ESPECÍFICA DE MEDIACIÓN DE SEGUROS PRIVADOS, A LAS NUEVAS LEYES O DISPOSICIONES QUE PUEDAN PROMULGARSE SOBRE LA MATERIA. PUDIENDO PRODUCIR, GESTIONAR Y PROPONER LA CONTRATACIÓN DE TODO TIPO DE SEGUROS PRIVADOS Y CUALQUIER OTRA ACTIVIDAD DE PROMOCIÓN, MEDIACIÓN Y ASESORAMIENTO EN SEGUROS Y QUE SE RELACIONEN CON LA CORREDURÍA DE SEGUROS QUE EXISTA O SE CREE DE ACUERDO A LA LEGISLACIÓN VIGENTE.\r\n\r\nLA PRESTACIÓN DE TODA CLASE DE SERVICIOS DE ASESORAMIENTO, GESTIÓN, MEDIACIÓN Y ESTUDIOS DE RECURSOS HUMANOS, COMERCIALES, DE MARKETING, DE COMUNICACIÓN, DE IMAGEN, RELACIONES PÚBLICAS, PROMOCIÓN Y PUBLICIDAD, ASÍ COMO LA GESTIÓN DE NEGOCIOS CONSECUENCIA DE DICHOS SERVICIOS. LA ELABORACIÓN DE MANUALES DE SEGURIDAD Y PLANES DE PREVENCIÓN PARA EMPRESAS, REALIZACIÓN DE DIAGNÓSTICOS Y EVALUACIONES DE RIESGOS LABORALES, EVALUACIÓN DE LOS SISTEMAS  DE PREVENCIÓN DE EMPRESAS, ASESORAMIENTO Y DESARROLLO DE TODO TIPO DE SERVICIOS EN LAS EMPRESAS INDUSTRIALES Y DE SERVICIOS TANTO PÚBLICAS COMO PRIVADAS, ENCAMINADAS A LA MEJORA DE LA SALUD Y SEGURIDAD EN EL TRABAJO Y A LA PREVENCIÓN DE LOS RIESGOS DERIVADOS DE LA ACTIVIDAD LABORAL.\r\nSERVICIOS  DE PUBLICIDAD, RELACIONES PÚBLICAS QUE COMPRENDE LA PRESTACIÓN DE SERVICIOS DE PUBLICIDAD MEDIANTE CARTELES, ANUNCIOS, FOLLETOS, PELÍCULAS PUBLICITARIAS, A TRAVÉS DE PRENSA, RADIO, TELEVISIÓN, PUBLICIDAD AÉREA U OTROS MEDIOS. ASÍMISMO SE INCLUYE LA PROMOCIÓN DE VENTAS PUBLICITARIAS, REGALOS Y RECLAMOS PUBLICITARIOS.\r\n\r\nSERVICIOS DE ENSEÑANZA DE MECANOGRAFÍA, TAQUIGRAFÍA, PREPARACIÓN DE EXÁMENES Y OPOSICIONES.\r\nSERVICIOS DE TRADUCCIÓN DE CUALQUIER TIPO DE IDIOMA, ASÍ COMO SU ENSEÑANZA.\r\nSERVICIOS DE RECADERÍA, REPARTO Y MANIPULACIÓN DE CORRESPONDENCIA.\r\nSERVICIOS DE SUMINISTROS Y COLOCACIÓN DE PERSONAL LABORAL EN CUALQUIER TIPO DE EMPRESA, ASÍ COMO SU SELECCIÓN Y FORMACIÓN PROFESIONAL SI SE REQUIERE.\r\nENSEÑANZA Y PERFECCIONAMIENTO PROFESIONAL, ASÍ COMO SU EDUCACIÓN, TANTO ENSEÑANZA DE TIPO SUPERIOR  COMO NO SUPERIOR, ASÍ COMO EN ESTABLECIMIENTO PERMANENTE O NO PERMANENTE.\r\nLA PROMOCIÓN DE CURSOS ASÍ COMO SU INFORMACIÓN Y ASESORAMIENTO.\r\nDESARROLLO Y COMERCIALIZACIÓN DE SISTEMAS, METODOLOGÍA, CONSULTORÍA, ASESORAMIENTO, PROMOCIÓN Y FINANCIACIÓN DE SOFTWARE, HARDWARE Y CUALQUIER SERVICIO DE VALOR AÑADIDO EN INFORMÁTICA Y COMUNICACIONES.\r\n\r\nLA ACTUACIÓN COMO REPRESENTANTE EN NOMBRE Y POR CUENTA DE UNA ÚNICA SOCIEDAD DE VALORES EN OPERACIONES COMPRENDIDAS EN EL ÁMBITO DE LA DECLARACIÓN DE ACTIVIDADES DE LA SOCIEDAD DE VALORES, DE CONFORMIDAD CON LA NORMATIVA VIGENTE. SE EXCLUYEN EXPRESAMENTE TODAS AQUELLAS ACTIVIDADES SUJETAS A LEGISLACIÓN ESPECIAL Y, EN CONCRETO, A LAS RESERVADAS POR LA LEY A LAS INSTITUCIONES DE INVERSIONES COLECTIVAS, ASÍ COMO LO EXPRESAMENTE RESERVADO POR LA LEY DEL MERCADO DE VALORES A LAS AGENCIAS Y/O SOCIEDADES DE VALORES Y BOLSA.\r\n\r\nEL ASESORAMIENTO FISCAL, LABORAL, CONTABLE O JURÍDICO A CUALESQUIERA PERSONAS FÍSICAS O JURÍDICAS, LA LLEVANZA DE CONTABILIDADES CON APLICACIÓN DE TODO TIPO DE SISTEMAS, GESTIÓN Y TRAMITACIÓN DE EXPEDIENTES ADMINISTRATIVOS Y LA ADMINISTRACIÓN  Y GESTIÓN DE PATRIMONIOS.\r\nLA ELABORACIÓN DE ESTUDIOS DE MERCADO Y LOS SERVICIOS DE CONSULTORÍA EN GENERAL PARA TODA CLASE DE NEGOCIOS Y EMPRESAS.\r\n\r\nLA ADMINISTRACIÓN DE FINCAS, EL ARRENDAMIENTO Y COMPRA-VENTA DE CUALESQUIERA INMUEBLES RÚSTICOS O URBANOS (CONCRETAMENTE LOS DETERMINADOS EN EL ART.334.1 DEL CÓDIGO CIVIL), Y EL ASESORAMIENTO EN MATERIA DE ADQUISICIÓN, VENTA Y ARRENDAMIENTO DE BIENES INMUEBLES       ",
      "mainEntityOfPage": "https://www.contratacion.euskadi.eus/webkpe00-kperoc/es/ac71aBusquedaRegistrosWar/empresa/02832",
      "_links": {
        "self": {
          "name": "ASESORÍA CONSULTORÍA ARTEAGA, S.L.",
          "href": "https://api.euskadi.eus/procurements/companies/02832"
        }
      }
    },
    {
      "name": "PREVENCILAN, S.L.",
      "registrationNumber": "02298",
      "identificationNumber": "B20607206",
      "address": "ZUATZU KALEA, 4. EDIFICIO EASO. PLANTA 2ª. LOCAL 6",
      "location": {
        "postalCode": "20000",
        "municipality": "Donostia / San Sebastián",
        "county": "Gipuzkoa",
        "municipalityId": "069",
        "countyId": "20"
      },
      "economicActivities": [
        {
          "id": "1.843.9",
          "name": "Otros servicios técnicos n.c.o.p",
          "_links": {
            "self": {
              "name": "Otros servicios técnicos n.c.o.p",
              "href": "https://api.euskadi.eus/procurements/companies/economic-activities/1.843.9"
            }
          }
        },
        {
          "id": "1.933.9",
          "name": "Otras actividades de enseñanza tales como idiomas, mecanografía",
          "_links": {
            "self": {
              "name": "Otras actividades de enseñanza tales como idiomas, mecanografía",
              "href": "https://api.euskadi.eus/procurements/companies/economic-activities/1.933.9"
            }
          }
        }
      ],
      "certificateStartDate": "2004-04-30",
      "certificateEndDate": "2004-10-15",
      "object": "LAS ACTIVIDADES ENCAMINADAS A LA PREVENCIÓN DE RIESGOS LABORALES, ASÍ COMO LA INFORMACIÓN, LA FORMACIÓN Y EL ASESORAMIENTO A PROFESIONALES, A EMPRESAS PRIVADAS, A ENTIDADES PUBLICAS Y A EXPERTOS EN PREVENCIÓN, ASÍ COMO A LOS AUDITORES. ",
      "mainEntityOfPage": "https://www.contratacion.euskadi.eus/webkpe00-kperoc/es/ac71aBusquedaRegistrosWar/empresa/02298",
      "_links": {
        "self": {
          "name": "PREVENCILAN, S.L.",
          "href": "https://api.euskadi.eus/procurements/companies/02298"
        }
      }
    },
    {
      "name": "BARCELONA TECNOLOGÍAS DE LA INFORMACIÓN, S.A.",
      "registrationNumber": "02737",
      "identificationNumber": "A61835385",
      "address": "PASEO DE GRACIA, Nº 6. DPTO. 1. PUERTA 1.",
      "location": {
        "postalCode": "08007",
        "municipality": "Barcelona",
        "county": "Barcelona",
        "municipalityId": "019",
        "countyId": "08"
      },
      "economicActivities": [
        {
          "id": "1.845",
          "name": "Explotación electrónica por cuenta de terceros",
          "_links": {
            "self": {
              "name": "Explotación electrónica por cuenta de terceros",
              "href": "https://api.euskadi.eus/procurements/companies/economic-activities/1.845"
            }
          }
        }
      ],
      "certificateStartDate": "2004-04-22",
      "certificateEndDate": "2004-09-29",
      "object": "LA PRESTACIÓN DE SERVICIOS, ESTUDIOS, ANÁLISIS DE PROCESOS, PROGRAMACIONES, PARA EQUPOS ELECTRÓNICOS, Y/O ORDENADORES, ASÍ COMO, LA VENTA DE PROGRAMAS INFORMÁTICOS, EL MANTENIMIENTO, EL PROCESO DE DATOS POR CUENTA DE TERCEROS, Y OTROS SERVICIOS RELACIONADOS CON LAS APLICACIONES INFORMÁTICAS DE ELABORACIÓN DE DATOS Y TABULACIÓN ",
      "mainEntityOfPage": "https://www.contratacion.euskadi.eus/webkpe00-kperoc/es/ac71aBusquedaRegistrosWar/empresa/02737",
      "_links": {
        "self": {
          "name": "BARCELONA TECNOLOGÍAS DE LA INFORMACIÓN, S.A.",
          "href": "https://api.euskadi.eus/procurements/companies/02737"
        }
      }
    },
    {
      "name": "IÑIGUEZ DE HEREDIA CONSTRUCCIONES, S.L.",
      "registrationNumber": "02663",
      "identificationNumber": "B01309467",
      "address": "C/ PAMPLONA, 33 OFIC. B",
      "location": {
        "postalCode": "01010",
        "municipality": "Vitoria-Gasteiz",
        "county": "Araba/Álava",
        "municipalityId": "059",
        "countyId": "01"
      },
      "economicActivities": [
        {
          "id": "1.501.1",
          "name": "Construcción completa, reparación y conservación de edificaciones",
          "_links": {
            "self": {
              "name": "Construcción completa, reparación y conservación de edificaciones",
              "href": "https://api.euskadi.eus/procurements/companies/economic-activities/1.501.1"
            }
          }
        }
      ],
      "certificateStartDate": "2004-04-21",
      "certificateEndDate": "2004-09-05",
      "object": "LA FABRICACIÓN Y COMERCIALIZACIÓN DE MATERIALES PARA LA CONSTRUCCIÓN.\r\nLA PROMOCIÓN Y CONSTRUCCIÓN DE TODA CLASE DE EDIFICIOS.\r\nLA REALIZACIÓN DE TODA CLASE DE OBRAS PÚBLICAS.\r\nLA REALIZACIÓN A CARGO DE LOS PROFESIONALES SOCIOS, CON LA COLABORACIÓN, EN SU CASO, DE OTROS PROFESIONALES LEGALMENTE COMPETENTES, DE ESTUDIOS Y REDACCIÓN DE PROYECTOS DE ARQUITECTURA E INGENIERÍA, DIRECCIÓN FACULTATIVA E INSPECCIÓN DE OBRAS DE CONSTRUCCIÓN, PÚBLICAS O PRIVADAS, PROPIAS O DE TERCEROS, ASISTENCIA TÉCNICA Y COORDINACIÓN DE GREMIOS PARA LA CONSTRUCCIÓN DE TODA CLASE DE OBRAS.\r\nLA COMPRA, VENTA, EXPORTACIÓN E IMPORTACIÓN DE AERONAVES, Y EL TRANSPORTE AÉREO. ",
      "mainEntityOfPage": "https://www.contratacion.euskadi.eus/webkpe00-kperoc/es/ac71aBusquedaRegistrosWar/empresa/02663",
      "_links": {
        "self": {
          "name": "IÑIGUEZ DE HEREDIA CONSTRUCCIONES, S.L.",
          "href": "https://api.euskadi.eus/procurements/companies/02663"
        }
      }
    },
    {
      "name": "DELTALAB, S.A.",
      "registrationNumber": "02630",
      "identificationNumber": "A60186558",
      "address": "PLAZA DE LA VERNEDA, 1 - P.I. LA LLANA",
      "location": {
        "postalCode": "08191",
        "municipality": "Rubí",
        "county": "Barcelona",
        "municipalityId": "184",
        "countyId": "08"
      },
      "economicActivities": [
        {
          "id": "1.619.2",
          "name": "Venta al por mayor de aparatos e instrumentos médicos, ortopédicos, ópticos",
          "_links": {
            "self": {
              "name": "Venta al por mayor de aparatos e instrumentos médicos, ortopédicos, ópticos",
              "href": "https://api.euskadi.eus/procurements/companies/economic-activities/1.619.2"
            }
          }
        }
      ],
      "certificateStartDate": "2004-04-16",
      "certificateEndDate": "2004-01-03",
      "object": "LA FABRICACIÓN DE INSTRUMENTOS DE LABORATORIO DE INVESTIGACIÓN Y EL COMERCIO AL POR MAYOR DE APARATOS E INSTRUMENTOS DE FÍSICA, QUÍMICA Y FISIOQUÍMICA CON DESTINO A LABORATORIOS DE ANÁLISIS, INVESTIGACIÓN O ENSAYO Y DE ACCESORIOS Y PRODUCTOS ESPECIALES PARA USO  O EMPLEO EN LOS MISMOS, TALES COMO BALANZA DE PRECISIÓN, ESTUFAS DE CULTIVOS Y DESECACIÓN, TUBOS DE ENSAYO, EMPALMES DE CAUCHO, PAPEL DE FILTRO, SOLUCIONES VALORADAS, ANTÍGENOS, INDICADORES Y EN GENERAL CUANTOS POR SUS CARACTERÍSTICAS Y ESPECÍFICAS EXPLICACIONES SEAN DE USO NORMAL Y DEFINIDO EN LOS EXPRESADOS LABORATORIOS ",
      "mainEntityOfPage": "https://www.contratacion.euskadi.eus/webkpe00-kperoc/es/ac71aBusquedaRegistrosWar/empresa/02630",
      "_links": {
        "self": {
          "name": "DELTALAB, S.A.",
          "href": "https://api.euskadi.eus/procurements/companies/02630"
        }
      }
    },
    {
      "name": "EUGENIO RODRÍGUEZ ROSADO PROMOCIÓN Y CONSTRUCCIÓN, S.A.",
      "registrationNumber": "00299",
      "identificationNumber": "A01037308",
      "address": "C/LOS ASTRÓNOMOS, 16 - BAJO",
      "location": {
        "postalCode": "01003",
        "municipality": "Vitoria-Gasteiz",
        "county": "Araba/Álava",
        "municipalityId": "059",
        "countyId": "01"
      },
      "economicActivities": [
        {
          "id": "1.501.1",
          "name": "Construcción completa, reparación y conservación de edificaciones",
          "_links": {
            "self": {
              "name": "Construcción completa, reparación y conservación de edificaciones",
              "href": "https://api.euskadi.eus/procurements/companies/economic-activities/1.501.1"
            }
          }
        },
        {
          "id": "1.833.2",
          "name": "Promoción de edificaciones",
          "_links": {
            "self": {
              "name": "Promoción de edificaciones",
              "href": "https://api.euskadi.eus/procurements/companies/economic-activities/1.833.2"
            }
          }
        }
      ],
      "certificateStartDate": "2004-04-15",
      "certificateEndDate": "2004-10-07",
      "object": "PROMOCIÓN, CONSTRUCCIÓN, REALIZACIÓN, REHABILITACIÓN Y URBANIZACIÓN DE TODO TIPO DE INMUEBLES, INCLUSO VIVIENDAS DE PROTECCIÓN OFICIAL, BIEN POR CUENTA PROPIA O POR ENCARGO DE TERCEROS, YA SEAN PERSONAS FÍSICAS O JURÍDICAS, PÚBLICAS O PRIVADAS, LA ADQUISICIÓN, TENENCIA, ADMINISTRACIÓN Y EXPLOTACIÓN DE TODA CLASE DE BIENES INMUEBLES, SU ENAJENACIÓN Y ARRENDAMIENTO.  ",
      "mainEntityOfPage": "https://www.contratacion.euskadi.eus/webkpe00-kperoc/es/ac71aBusquedaRegistrosWar/empresa/00299",
      "_links": {
        "self": {
          "name": "EUGENIO RODRÍGUEZ ROSADO PROMOCIÓN Y CONSTRUCCIÓN, S.A.",
          "href": "https://api.euskadi.eus/procurements/companies/00299"
        }
      }
    },
    {
      "name": "VIALES DE NAVARRA, S.A.",
      "registrationNumber": "02134",
      "identificationNumber": "A31147515",
      "address": "C/ CASTILLO DE MAYA, 40 - 7º",
      "location": {
        "postalCode": "31000",
        "municipality": "Pamplona/Iruña",
        "county": "Navarra",
        "municipalityId": "201",
        "countyId": "31"
      },
      "economicActivities": [
        {
          "id": "1.501.2",
          "name": "Construcción completa, reparación y conservación obras civiles",
          "_links": {
            "self": {
              "name": "Construcción completa, reparación y conservación obras civiles",
              "href": "https://api.euskadi.eus/procurements/companies/economic-activities/1.501.2"
            }
          }
        },
        {
          "id": "1.504.1",
          "name": "Instalaciones eléctricas en general",
          "_links": {
            "self": {
              "name": "Instalaciones eléctricas en general",
              "href": "https://api.euskadi.eus/procurements/companies/economic-activities/1.504.1"
            }
          }
        },
        {
          "id": "1.912",
          "name": "Servicios forestales",
          "_links": {
            "self": {
              "name": "Servicios forestales",
              "href": "https://api.euskadi.eus/procurements/companies/economic-activities/1.912"
            }
          }
        }
      ],
      "certificateStartDate": "2004-04-01",
      "certificateEndDate": "2004-09-26",
      "object": "LA FABRICACIÓN, RPRESENTACIÓN, IMPORTACIÓN Y EXPORTACIÓN, COMPRA Y VENTA AL POR MAYOR O MENOR, DE MAQUINARIA DE CUALQUIER TIPO, INCLUSO PARA MINERÍA, PLANTAS PETROQUÍMICAS, CARRETERAS, FERROCARRILES, PUERTOS Y AEROPUERTOS. LA FABRICACIÓN, REPRESENTACIÓN, IMPORTACIÓN Y EXPORTACIÓN PARA USO PROPIO, INSTALACIÓN O VENTA DE TODO TIPO DE MATERIALES, INCLUSO AGLOMERADOS ASFÁLTICOS, FIRMES Y PRODUCTOS ANTIDESLIZANTES, JUNTAS DE DILATACIÓN, BETUNES Y PRODUCTOS PARA EL SELLADO DE GRIETAS, CAPTAFAROS DE CUALQUIER TIPO, SEÑALES VERTICALES DE TODAS CLASES, PINTURAS, COLORANTES, RESINAS, TERMOPLÁSTICOS, PLÁSTICOS EN FRÍO Y VINILOS, MATERIALES ACRÍLICOS DE UNO O MÁS COMPONENTES, MICROESFERAS DE VIDRIO Y EN GENERAL TODA CLASE DE PRODUCTOS, MATERIALES Y MAQUINARIA PARA LA CONSTRUCCIÓN, EXPLOTACIÓN, REPARACIÓN, CONSERVACIÓN Y SEÑALIZACIÓN DE CARRETERAS, PUENTES, AEROPUERTOS, AUTOPISTAS",
      "mainEntityOfPage": "https://www.contratacion.euskadi.eus/webkpe00-kperoc/es/ac71aBusquedaRegistrosWar/empresa/02134",
      "_links": {
        "self": {
          "name": "VIALES DE NAVARRA, S.A.",
          "href": "https://api.euskadi.eus/procurements/companies/02134"
        }
      }
    },
    {
      "name": "CONSTRUCCIONES GUERECA Y BALENCIAGA, S.L.",
      "registrationNumber": "02815",
      "identificationNumber": "B20810966",
      "address": "HERRERIETA, 35",
      "location": {
        "postalCode": "20808",
        "municipality": "Getaria",
        "county": "Gipuzkoa",
        "municipalityId": "039",
        "countyId": "20"
      },
      "economicActivities": [
        {
          "id": "1.501.2",
          "name": "Construcción completa, reparación y conservación obras civiles",
          "_links": {
            "self": {
              "name": "Construcción completa, reparación y conservación obras civiles",
              "href": "https://api.euskadi.eus/procurements/companies/economic-activities/1.501.2"
            }
          }
        }
      ],
      "certificateStartDate": "2004-03-30",
      "certificateEndDate": "2004-09-12",
      "object": "LAS ACTIVIDADES QUE SEGUIDAMENTE SE DETALLAN, QUE PODRÁN SER REALIZADAS POR LA SOCIEDAD, YA DIRECTAMENTE, YA INDIRECTAMENTE, INCLUSO MEDIANTE SU PARTICIPACIÓN EN OTRAS SOCIEDADES, DE OBJETO IDÉNTICO O ANÁLOGO: LA CONSTRUCCIÓN COMPLETA, REPARACIÓN Y CONSERVACIÓN DE OBRAS CIVILES",
      "mainEntityOfPage": "https://www.contratacion.euskadi.eus/webkpe00-kperoc/es/ac71aBusquedaRegistrosWar/empresa/02815",
      "_links": {
        "self": {
          "name": "CONSTRUCCIONES GUERECA Y BALENCIAGA, S.L.",
          "href": "https://api.euskadi.eus/procurements/companies/02815"
        }
      }
    },
    {
      "name": "CONSTRUCCIONES SAN PRUDENCIO, S.A.",
      "registrationNumber": "01283",
      "identificationNumber": "A01033331",
      "address": "C/ ARCA, Nº 3 - BAJO.",
      "location": {
        "postalCode": "01005",
        "municipality": "Vitoria-Gasteiz",
        "county": "Araba/Álava",
        "municipalityId": "059",
        "countyId": "01"
      },
      "economicActivities": [
        {
          "id": "1.507",
          "name": "Construcción, reparación y conservación de toda clase obras",
          "_links": {
            "self": {
              "name": "Construcción, reparación y conservación de toda clase obras",
              "href": "https://api.euskadi.eus/procurements/companies/economic-activities/1.507"
            }
          }
        },
        {
          "id": "1.833.2",
          "name": "Promoción de edificaciones",
          "_links": {
            "self": {
              "name": "Promoción de edificaciones",
              "href": "https://api.euskadi.eus/procurements/companies/economic-activities/1.833.2"
            }
          }
        }
      ],
      "certificateStartDate": "2004-03-17",
      "certificateEndDate": "2004-09-03",
      "object": "LA CONSTRUCCIÓN Y EDIFICACIÓN DE TODO TIPO DE INMUEBLES. LA COMPRAVENTA Y EXPLOTACIÓN DE BIENES, TANTO MUEBLES COMO INMUEBLES, ASÍ COMO TODO TIPO Y CLASE DE NEGOCIOS, COMO TITULARES O ARRENDATARIOS. Y EN GENERAL, EL DESARROLLO DE CUALQUIER OTRA ACTIVIDAD, QUE SEA COMPLEMENTARIA, ACCESORIA O SIMILAR DE LAS ANTERIORES O QUE SE RELACIONEN DIRECTA O INDIRECTAMENTE CON LAS MISMAS",
      "mainEntityOfPage": "https://www.contratacion.euskadi.eus/webkpe00-kperoc/es/ac71aBusquedaRegistrosWar/empresa/01283",
      "_links": {
        "self": {
          "name": "CONSTRUCCIONES SAN PRUDENCIO, S.A.",
          "href": "https://api.euskadi.eus/procurements/companies/01283"
        }
      }
    },
    {
      "name": "LESAER CONSULTORES, S.L.",
      "registrationNumber": "02463",
      "identificationNumber": "B95173944",
      "address": "ELKARTEGI DE BARAKALDO. C/ FANDERIA, 1. MÓDULO 314",
      "location": {
        "postalCode": "48901",
        "municipality": "Barakaldo",
        "county": "Bizkaia",
        "municipalityId": "013",
        "countyId": "48"
      },
      "economicActivities": [
        {
          "id": "1.845",
          "name": "Explotación electrónica por cuenta de terceros",
          "_links": {
            "self": {
              "name": "Explotación electrónica por cuenta de terceros",
              "href": "https://api.euskadi.eus/procurements/companies/economic-activities/1.845"
            }
          }
        }
      ],
      "certificateStartDate": "2004-03-15",
      "certificateEndDate": "2004-08-24",
      "object": "LA REALIZACIÓN DE SERVICIOS DE INFORMÁTICA, GESTIÓN Y DESARROLLO DE PROGRAMAS INFORMÁTICOS, DE SISTEMAS DE INFORMACIÓN Y SERVICIOS CONEXOS Y EL ASESORAMIENTO EN ESTAS MATERIAS A TODO TIPO DE ENTIDADES",
      "mainEntityOfPage": "https://www.contratacion.euskadi.eus/webkpe00-kperoc/es/ac71aBusquedaRegistrosWar/empresa/02463",
      "_links": {
        "self": {
          "name": "LESAER CONSULTORES, S.L.",
          "href": "https://api.euskadi.eus/procurements/companies/02463"
        }
      }
    }
  ]
}