{
  "totalItems": 9042,
  "totalPages": 905,
  "currentPage": 34,
  "itemsOfPage": 10,
  "items": [
    {
      "name": "DERRIBOS ENKARTADOS SL",
      "registrationNumber": "09268",
      "identificationNumber": "B48954630",
      "address": "POLIGONO INDUSTRIAL EL LONGAR S/N",
      "location": {
        "postalCode": "48860",
        "municipality": "Zalla",
        "county": "Bizkaia",
        "municipalityId": "096",
        "countyId": "48"
      },
      "economicActivities": [
        {
          "id": "1.502.1",
          "name": "Demoliciones y derribos en general",
          "_links": {
            "self": {
              "name": "Demoliciones y derribos en general",
              "href": "https://api.euskadi.eus/procurements/companies/economic-activities/1.502.1"
            }
          }
        },
        {
          "id": "1.502.2",
          "name": "Consolidación y preparación de terrenos para la construcción de edificaciones",
          "_links": {
            "self": {
              "name": "Consolidación y preparación de terrenos para la construcción de edificaciones",
              "href": "https://api.euskadi.eus/procurements/companies/economic-activities/1.502.2"
            }
          }
        }
      ],
      "certificateStartDate": "2026-01-30",
      "certificateEndDate": "2026-07-25",
      "object": "EXCAVACIONES; MOVIMIENTOS DE TIERRA; OBRAS CIVILES; COMPRA, VENTA PERMUTA Y ARRENDAMIENTOS, DE BIENES INMUEBLES ; LA ACTIVIDAD DE DEMOLICIÓN.",
      "mainEntityOfPage": "https://www.contratacion.euskadi.eus/webkpe00-kperoc/es/ac71aBusquedaRegistrosWar/empresa/09268",
      "_links": {
        "self": {
          "name": "DERRIBOS ENKARTADOS SL",
          "href": "https://api.euskadi.eus/procurements/companies/09268"
        }
      }
    },
    {
      "name": "IÑAKI GALDOS IBAÑEZ DE OPACUA-GONZALO ARECHEDERRA URQUIDI-JOSE MANUEL ITURRATE ANDECHAGA",
      "registrationNumber": "08434",
      "identificationNumber": "J42976001",
      "address": "C/HENAO 1 PR-IZDA",
      "location": {
        "postalCode": "48009",
        "municipality": "Bilbao",
        "county": "Bizkaia",
        "municipalityId": "020",
        "countyId": "48"
      },
      "economicActivities": [
        {
          "id": "1.841",
          "name": "Servicios jurídicos",
          "_links": {
            "self": {
              "name": "Servicios jurídicos",
              "href": "https://api.euskadi.eus/procurements/companies/economic-activities/1.841"
            }
          }
        }
      ],
      "certificateStartDate": "2026-01-30",
      "certificateEndDate": "2026-07-26",
      "object": "EL OBJETO DE LA ENTIDAD SERA LA PRESTACION DE SERVICIOS JURIDICOS PARA VERIFICACION DE NORMATIVA LABORAL; CNAE 6910 &quot;ACTIVIDADES JURIDICAS&quot;, IAE EPIGRAFE 841 DEL GRUPO 1 &quot;SERVICIOS JURIDICOS&quot;",
      "mainEntityOfPage": "https://www.contratacion.euskadi.eus/webkpe00-kperoc/es/ac71aBusquedaRegistrosWar/empresa/08434",
      "_links": {
        "self": {
          "name": "IÑAKI GALDOS IBAÑEZ DE OPACUA-GONZALO ARECHEDERRA URQUIDI-JOSE MANUEL ITURRATE ANDECHAGA",
          "href": "https://api.euskadi.eus/procurements/companies/08434"
        }
      }
    },
    {
      "name": "REFORMAS ALFON, S.L.",
      "registrationNumber": "08969",
      "identificationNumber": "B95222493",
      "address": "MATIKO 18 BIS BAJO",
      "location": {
        "postalCode": "48007",
        "municipality": "Bilbao",
        "county": "Bizkaia",
        "municipalityId": "020",
        "countyId": "48"
      },
      "economicActivities": [
        {
          "id": "1.501.3",
          "name": "Albañilería y pequeños trabajos de construcción en general",
          "_links": {
            "self": {
              "name": "Albañilería y pequeños trabajos de construcción en general",
              "href": "https://api.euskadi.eus/procurements/companies/economic-activities/1.501.3"
            }
          }
        }
      ],
      "certificateStartDate": "2026-01-30",
      "certificateEndDate": "2026-07-26",
      "object": "A) LA ADQUISICIÓN, EXPLOTACIÓN Y ENAJENACIÓN DE TODA CLASE DE TERRENOS, SOLARES, PARCELAS, NAVES INDUSTRIALES O DE CARÁCTER AGRARIO Y EDIFICIOS Y PISOS O PLANTAS COMERCIALES; LA URBANIZACIÓN Y PARCELACIÓN DE TERRENOS; LA ADQUISICIÓN DE DERECHOS CONCESIONALES SOBRE TERRENOS O PARCELAS; LA CONSTRUCCIÓN DE EDIFICIOS EN DICHOS TERRENOS O PARCELAS; EL USO, ARRENDAMIENTO Y VENTA DE LOS TERRENOS, PARCELAS, PISOS, NAVES Y LOCALES REFERIDOS; CONSTRUCCIÓN, REPARACIÓN Y RESTAURACIÓN DE TODA CLASE DE EDIFICIOS DE PROMOCIÓN PÚBLICA YA SEAN ADJUDICADOS EN SUBASTA O POR ADJUDICACIÓN DIRECTA. B) LA REALIZACIÓN DE ESTUDIOS Y PROYECTOS PARA RESTAURAR, DECORAR Y AMUEBLAR TODO TIPO DE EDIFICIOS, LOCALES Y VIVIENDAS. C) LA REPRESENTACIÓN, COMERCIALIZACIÓN Y VENTA DE MATERIALES DESTINADOS A LA CONSTRUCCIÓN DE LO QUE SE ESPECIFICA EN EL APARTADO PRECEDENTE, DESTINADO A LA CARPINTERÍA, ALBAÑILERÍA, FONTANERÍA, CARPINTERÍA METÁLICA Y DE HORMIGÓN Y ELECTRICIDAD, Y, REPRESENTACIONES Y ACTIVIDADES DE MEDIACIÓN, TANTO PARA LA INDUSTRIA COMO PARA EL COMERCIO, INCLUIDOS LOS SERVICIOS, TANTO TÉCNICOS COMO DE ASISTENCIA, ALMACENISTA, MAYORISTA, EXCLUSIVISTA, CON SU IMPORTACIÓN Y EXPORTACIÓN. D) EL ESTUDIO Y RESOLUCIÓN DE TODAS CUANTAS CUESTIONES TÉCNICAS Y DE CUALQUIER ORDEN, RELACIONADAS CON EL OBJETO Y OBJETOS PRINCIPALES PUEDAN PLANTEARSE. E) LA TENENCIA DE BIENES, TANTO INMUEBLES COMO MUEBLES O VALORES MOBILIARIOS, PUDIENDO OBTENER DE LOS MISMOS LOS RENDICIMIENTOS SUSCEPTIBLES DE UNA BUENA ADMINISTRACIÓN. F) LA REALIZACIÓN DE PROYECTOS Y EN GENERAL DESARROLLAR EN TODOS SUS CAMPOS, TODA CLASE DE ACTIVIDADES INMOBILIARIAS, DE CONSTRUCCIÓN, DE REALIZACIÓN DE OBRAS, YA SEAN PÚBLICAS O CIVILES; LA ADQUISICIÓN, COMERCIALIZACIÓN , VENTA , ARRIENDO Y EXPLOTACIÓN DE TODO TIPO DE INMUEBLES, RÚSTICOS O URBANOS, TERRENOS, SOLARES, EDIFICIOS, APARTAMENTOS , VIVIENDAS, LOCALES, HOTELES, OFICINAS, CHALETS, ETC, LA REALIZACIÓN DE PROYECTOS DE EDIFICACIÓN; LAS CIMENTACIONES, EXCAVACIONES Y DERRIBOS DE TODA NATURALEZA.",
      "mainEntityOfPage": "https://www.contratacion.euskadi.eus/webkpe00-kperoc/es/ac71aBusquedaRegistrosWar/empresa/08969",
      "_links": {
        "self": {
          "name": "REFORMAS ALFON, S.L.",
          "href": "https://api.euskadi.eus/procurements/companies/08969"
        }
      }
    },
    {
      "name": "ORGANIZACIÓN DE SISTEMAS DE DOCUMENTACIÓN Y ARCHIVOS, S.L.",
      "registrationNumber": "08698",
      "identificationNumber": "B48277586",
      "address": "CALLE DOCTOR ALBERCA 2-4º B",
      "location": {
        "postalCode": "48007",
        "municipality": "Bilbao",
        "county": "Bizkaia",
        "municipalityId": "020",
        "countyId": "48"
      },
      "economicActivities": [
        {
          "id": "1.849.9",
          "name": "Otros servicios independientes n.c.o.p",
          "_links": {
            "self": {
              "name": "Otros servicios independientes n.c.o.p",
              "href": "https://api.euskadi.eus/procurements/companies/economic-activities/1.849.9"
            }
          }
        }
      ],
      "certificateStartDate": "2026-01-30",
      "certificateEndDate": "2026-07-25",
      "object": "ORGANIZACIÓN, GESTIÓN Y ASESORAMIENTO SOBRE SISTEMAS DE DOCUMENTACIÓN Y ARCHIVOS.\n\n",
      "mainEntityOfPage": "https://www.contratacion.euskadi.eus/webkpe00-kperoc/es/ac71aBusquedaRegistrosWar/empresa/08698",
      "_links": {
        "self": {
          "name": "ORGANIZACIÓN DE SISTEMAS DE DOCUMENTACIÓN Y ARCHIVOS, S.L.",
          "href": "https://api.euskadi.eus/procurements/companies/08698"
        }
      }
    },
    {
      "name": "MADERPLAY, S.L.",
      "registrationNumber": "08055",
      "identificationNumber": "B71407357",
      "address": "Pol. Ind. Comarca II C/A nº25",
      "location": {
        "postalCode": "31191",
        "municipality": "Galar",
        "county": "Navarra",
        "municipalityId": "109",
        "countyId": "31"
      },
      "economicActivities": [
        {
          "id": "1.494.2",
          "name": "Fabricación de artículos de deporte",
          "_links": {
            "self": {
              "name": "Fabricación de artículos de deporte",
              "href": "https://api.euskadi.eus/procurements/companies/economic-activities/1.494.2"
            }
          }
        }
      ],
      "certificateStartDate": "2026-01-30",
      "certificateEndDate": "2026-07-27",
      "object": "LA FABRICACIÓN DE ARTÍCULOS DE DEPORTE Y DE MOBILIARIO PARA PARQUES INFANTILES. CNAE 1629.",
      "mainEntityOfPage": "https://www.contratacion.euskadi.eus/webkpe00-kperoc/es/ac71aBusquedaRegistrosWar/empresa/08055",
      "_links": {
        "self": {
          "name": "MADERPLAY, S.L.",
          "href": "https://api.euskadi.eus/procurements/companies/08055"
        }
      }
    },
    {
      "name": "NEXPUBLICA IBERIA, S.L.",
      "registrationNumber": "10049",
      "identificationNumber": "B16443293",
      "address": "Calle Licenciado Poza, 55, planta 2ª- 5-1ª",
      "location": {
        "postalCode": "48013",
        "municipality": "Bilbao",
        "county": "Bizkaia",
        "municipalityId": "020",
        "countyId": "48"
      },
      "economicActivities": [
        {
          "id": "1.845",
          "name": "Explotación electrónica por cuenta de terceros",
          "_links": {
            "self": {
              "name": "Explotación electrónica por cuenta de terceros",
              "href": "https://api.euskadi.eus/procurements/companies/economic-activities/1.845"
            }
          }
        }
      ],
      "certificateStartDate": "2026-01-30",
      "certificateEndDate": "2026-07-27",
      "object": "I. COMPRAVENTA, CONCEPCIÓN, DESARROLLO, REALIZACIÓN, DISTRIBUCIÓN, LICENCIAMIENTO, EXPORTACIÓN, IMPORTACIÓN Y EXPLOTACIÓN DE SISTEMAS, PRODUCTOS Y PROGRAMAS INFORMÁTICOS PROPIOS Y DE TERCEROS Y, GENERALMENTE TODAS LAS OPERACIONES COMERCIALES Y FINANCIERAS, QUE DEPENDAN DIRECTA O INDIRECTAMENTE DEL OBJETO SOCIAL O SEAN SUSCEPTIBLES DE FACILITAR SU EXTENSIÓN O DESARROLLO. II. PRESTACIÓN DE SERVICIOS Y DE CONSULTORÍA, RELATIVOS AL ESTUDIO, CONCEPCIÓN, EQUIPAMIENTO, INSTALACIÓN, GESTIÓN, UTILIZACIÓN, DESARROLLO, INTEGRACIÓN Y MEJORA DE SISTEMAS, PRODUCTOS Y PROGRAMAS INFORMÁTICOS Y REDES INFORMÁTICAS. III. ALOJAMIENTO INFORMÁTICO, EN EL SENTIDO MÁS AMPLIO, INCLUYENDO HOSTING, HOUSING Y CUALQUIER SERVICIO EN LA NUBE.",
      "mainEntityOfPage": "https://www.contratacion.euskadi.eus/webkpe00-kperoc/es/ac71aBusquedaRegistrosWar/empresa/10049",
      "_links": {
        "self": {
          "name": "NEXPUBLICA IBERIA, S.L.",
          "href": "https://api.euskadi.eus/procurements/companies/10049"
        }
      }
    },
    {
      "name": "SORMEN KOMUNIKAZIOA, S.L.",
      "registrationNumber": "06001",
      "identificationNumber": "B95760328",
      "address": "c/ RODRIGUEZ ARIAS, 23 - 6ª PLANTA - DPTO. 5",
      "location": {
        "postalCode": "48011",
        "municipality": "Bilbao",
        "county": "Bizkaia",
        "municipalityId": "020",
        "countyId": "48"
      },
      "economicActivities": [
        {
          "id": "1.843.9",
          "name": "Otros servicios técnicos n.c.o.p",
          "_links": {
            "self": {
              "name": "Otros servicios técnicos n.c.o.p",
              "href": "https://api.euskadi.eus/procurements/companies/economic-activities/1.843.9"
            }
          }
        },
        {
          "id": "1.844",
          "name": "Servicios de publicidad, relaciones públicas y similares",
          "_links": {
            "self": {
              "name": "Servicios de publicidad, relaciones públicas y similares",
              "href": "https://api.euskadi.eus/procurements/companies/economic-activities/1.844"
            }
          }
        },
        {
          "id": "1.849.9",
          "name": "Otros servicios independientes n.c.o.p",
          "_links": {
            "self": {
              "name": "Otros servicios independientes n.c.o.p",
              "href": "https://api.euskadi.eus/procurements/companies/economic-activities/1.849.9"
            }
          }
        }
      ],
      "certificateStartDate": "2026-01-30",
      "certificateEndDate": "2026-07-26",
      "object": "PRESTACIÓN DE SERVICIOS, Y EN ESPECIAL: LA PRESTACIÓN DE TODA CLASE DE SERVICIOS PROPIOS DE LA COMUNICACIÓN, LA IMAGEN Y LA ACTIVIDAD PUBLICITARIA. LA REALIZACIÓN Y COMERCIALIZACIÓN DE TODA CLASE DE DISEÑOS GRÁFICOS Y LOGOTIPOS. EL PROYECTO Y LA ELABORACIÓN DE PROGRAMAS Y CAMPAÑAS PUBLICITARIAS PARA CUALQUIER TIPO DE SERVICIO Y PRODUCTOS, SU EJECUCIÓN, GESTIÓN, IMPLANTACIÓN Y SEGUIMIENTO. LA EDICIÓN, PUBLICACIÓN Y DISTRIBUCIÓN DE PRODUCTOS DE DISEÑO Y PUBLICIDAD EN PAPEL O EN CUALQUIER OTRO SOPORTE COMO AUDIO, CINE, VIDEO O SOPORTES INFORMÁTICOS DE CUALQUIER TIPO, CD-ROM, DVD Y DEMÁS UTILIZABLES EN ORDENADORES Y REDES DE COMUNICACIÓN, INTERNET U OTRAS MODALIDADES. LA COMPRA, VENTA, IMPORTACIÓN Y EXPORTACIÓN DE SISTEMAS Y PRODUCTOS DE DISEÑO GRÁFICO, ASÍ COMO LA REPRESENTACIÓN DE FIRMAS COMERCIALES DEL SECTOR. LA FORMACIÓN Y CAPACITACIÓN EN MATERIA DE IMAGEN Y COMUNICACIÓN. EDICIÓN, DISEÑO Y PRODUCCIÓN DE LIBROS Y REVISTAS",
      "mainEntityOfPage": "https://www.contratacion.euskadi.eus/webkpe00-kperoc/es/ac71aBusquedaRegistrosWar/empresa/06001",
      "_links": {
        "self": {
          "name": "SORMEN KOMUNIKAZIOA, S.L.",
          "href": "https://api.euskadi.eus/procurements/companies/06001"
        }
      }
    },
    {
      "name": "ARJU PIOJOS, S.L.",
      "registrationNumber": "09794",
      "identificationNumber": "B95825899",
      "address": "Bitorialanda, 11 Pab 4",
      "location": {
        "postalCode": "01010",
        "municipality": "Vitoria-Gasteiz",
        "county": "Araba/Álava",
        "municipalityId": "059",
        "countyId": "01"
      },
      "economicActivities": [
        {
          "id": "1.921.3",
          "name": "Exterminio de animales dañinos y desinfección",
          "_links": {
            "self": {
              "name": "Exterminio de animales dañinos y desinfección",
              "href": "https://api.euskadi.eus/procurements/companies/economic-activities/1.921.3"
            }
          }
        }
      ],
      "certificateStartDate": "2026-01-30",
      "certificateEndDate": "2026-07-26",
      "object": "TRATAMIENTOS CAPILARES, PELUQUERÍA ESTÉTICA. COMERCIO AL POR MAYOR Y AL POR MENOR. DISTRIBUCIÓN COMERCIAL. IMPORTACIÓN Y EXPORTACIÓN. ACTIVIDADES INMOBILIARIAS. PRESTACIÓN DE SERVICIOS. ACTIVIDADES DE GESTIÓN Y ADMINISTRACIÓN. SERVICIOS EDUCATIVOS, SANITARIOS, DE OCIO Y ENTRETENIMIENTO. INFORMÁTICA, TELECOMUNICACIÓN Y OFIMÁTICA. Y ADEMÁS LA DESINFECCIÓN, DESINSECTACIÓN, DESRATIZACIÓN Y DESHIERBE. LOS TRATAMIENTOS CUARATIVOS DE LA MADERA, EL CONTROL DE PLAGAS Y OTROS ANIMALES. LOS DISPOSITIVOS FÍSICOS, Y QUÍMICOS PARA EL CONTROL DE PALOMAS Y OTRAS AVES. EL CONTROL Y ESTUDIO DEL \"SÍNDROME DE EDIFICIO ENFERMO\". FABRICACIÓN, DISTRIBUCIÓN, VENTA Y COLOCACIÓN DE DISPOSITIVOS DE CAPTURA DE ANIMALES. LA LIMPIEZA EN GENERAL Y LOS ESTUDIOS MEDIOAMBIENTALES.",
      "mainEntityOfPage": "https://www.contratacion.euskadi.eus/webkpe00-kperoc/es/ac71aBusquedaRegistrosWar/empresa/09794",
      "_links": {
        "self": {
          "name": "ARJU PIOJOS, S.L.",
          "href": "https://api.euskadi.eus/procurements/companies/09794"
        }
      }
    },
    {
      "name": "FUNDACIÓN EDEX",
      "registrationNumber": "06638",
      "identificationNumber": "G48974737",
      "address": "Calle Indautxu, 9",
      "location": {
        "postalCode": "48011",
        "municipality": "Bilbao",
        "county": "Bizkaia",
        "municipalityId": "020",
        "countyId": "48"
      },
      "economicActivities": [
        {
          "id": "1.476.1",
          "name": "Edición de libros",
          "_links": {
            "self": {
              "name": "Edición de libros",
              "href": "https://api.euskadi.eus/procurements/companies/economic-activities/1.476.1"
            }
          }
        },
        {
          "id": "1.952",
          "name": "Asistencia y servicios sociales en centros no residenciales",
          "_links": {
            "self": {
              "name": "Asistencia y servicios sociales en centros no residenciales",
              "href": "https://api.euskadi.eus/procurements/companies/economic-activities/1.952"
            }
          }
        }
      ],
      "certificateStartDate": "2026-01-30",
      "certificateEndDate": "2026-07-24",
      "object": "LOS FINES DE ESTA FUNDACIÓN, SIN QUE SU ORDEN INDIQUE PRIORIDAD, SON LOS SIGUIENTES: 1. PROMOVER Y DESARROLLAR TODO TIPO DE INICIATIVAS Y SERVICIOS QUE CONTRIBUYAN A ENRIQUECER LA DIMENSIÓN SOCIAL DE LOS INDIVIDUOS Y DE LA COMUNIDAD, EN SU MÁS AMPLIA CONSIDERACIÓN, FOMENTANTO TODO GÉNERO DE ACCIONES EN LOS ÁMBITOS ASISTENCIALES, SOCIALES, FORMATIVOS, SOCIO-CULTURALES, SOCIO-SANITARIOS, Y, EN GENERAL, CUANTOS FAVOREZCAN LAS RELACIONES HUMANAS Y SOCIALES Y CONSTITUYAN FÓRMULAS DE MEJORA DE LO QUE SE HA CONVENIDO EN DENOMINAR &quot;BIENESTAR SOCIAL&quot; DESDE SU CONCEPCIÓN MÁS HUMANISTA, DEMOCRÁTICA Y SOLIDARIA. 2. FOMENTAR LA CREACIÓN DE HÁBITOS Y ACTITUDES DE VIDA CÍVICOS Y SALUDABLES ENTRE LA POBLACIÓN EN GENERAL Y LOS NIÑOS Y JÓVENES EN PARTICULA, ELABORANDO Y DESARROLLANDO PROYECTOS DE INTERCULTURALIDAD, EDUCACIÓN PARA LA SALUD, LA PAZ, EL MEDIO AMBIENTE Y LA SOLIDARIDAD Y ACCIONES DE TODA ÍNDOLE EN LOS ÁMBITOS DE LA PREVENCIÓN, ASISTENCIA Y REINSERSIÓN DE LAS DROGODEPENDENCIAS O DE CUALQUIER OTRA CAUSA DE EXCLUSIÓN SOCIAL. 3. PONER EN MARCHA TODO TIPO DE PROGRAMAS, DE CARÁCTER SOCIAL, DE COOPERACIÓN PARA EL DESARROLLO DE LOS PAÍSES EMPOBRECIDOS, DE ATENCIÓN A LOS COLECTIVOS DE INMIGRANTES, ASÍ COMO INICIATIVAS DE INSERCIÓN EN INTERVENCIÓN COMUNITARIA QUE FAVOREZCAN LA PLENA INTEGRACIÓN SOCIAL DE LOS INDIVIDUOS Y LAS COMUNIDADES, FACILITANDO LA IGUALDAD Y LA ELIMINACIÓN DE LAS DISCRIMINACIONES EN CUALQUIER GRADO Y GÉNERO. 4. IMPULSAR Y DESARROLLAR INICIATIVAS DE INVESTIGACIÓN SOCIAL, DE SENSIBILIZACIÓN Y FORMACIÓN DE AGENTES SOCIOCOMUNITARIOS, DE FOMENTO DEL VOLUNTARIADO SOCIAL Y DE ATENCIÓN A COLECTIVOS DE TERCERA EDAD, INFANCIA, JUVENTUD, MUJER Y, EN GENERAL, A AQUELLOS SECTORES EN SITUACIÓN DE DESVENTAJA SOCIAL, SEA CUAL SEA EL ORIGEN DE ÉSTA.\nACTIVIDADES FUNDACIONALES: PARA ALCANZAR LOS CITADOS FINES, LA FUNDACIÓN, PREVIO CUMPLIMIENTO DE LOS REQUISITOS LEGALES ESTABLECIDOS, LLEVARÁ A CABO LAS ACTIVIDADES SIGUIENTES, CITADAS SIN ÁNIMO DE EXHAUSTIVIDAD Y SIN QUE SU ORDEN IMPLIQUE PREFERENCIA: 1. PLANIFICACIÓN, ORGANIZACIÓN Y EVALUACIÓN DE EVENTOS E INICIATIVAS DE TODO GÉNERO EN LOS ÁMBITOS DEFINIDOS EN LOS FINES SOCIALES. 2. DIRECCIÓN, ASESORAMIENTO O PARTICIPACIÓN EN SERVICIOS, INICIATIVAS Y CENTROS RELACIONADOS, DE CUALQUIER MANERA, CON LA PROMOCIÓN SOCIO-CULTURAL, EL BIENESTAR SOCIAL Y EL DESARROLLO COMUNITARIO. CREACIÓN O MANTENIMIENTO DE PROGRAMAS Y SERVICIOS DE ATENCIÓN A LA TERCERA EDAD, LA INFANCIA, LA JUVENTUD, LA MUJER, LA POBLACIÓN INMIGRANTE Y DEMÁS COLECTIVOS EN SITUACIÓN DE DESVENTAJA SOCIAL, TALES COMO OFICINAS DE ASESORAMIENTO E INFORMACIÓN, CENTROS DE ACOGIDA O ATENCIÓN, ACTIVIDADES DE FORMACIÓN O INSERCIÓN PROFESIONAL Y SIMILARES. 4. CREACIÓN Y DESARROLLO DE SERVICIOS, PROGRAMAS DE TRABAJO, MATERIALES Y RECURSOS DE APOYO PARA LA PRÁCTICA DE ACCIONES EN MATERIA DE EDUCACIÓN PARA LA SALUD, LA INTERCULTURALIDAD, LA PAZ Y LA SOLIDARIDAD, ASÍ COMO PARA LA PREVENCIÓN, CONTROL, TRATAMIENTO O REINSERCIÓN DE LAS DROGODEPENDENCIAS Y PROBLEMAS ASOCIADOS, TANTO POR INICIATIVA PROPIA, COMO POR ENCARGO DE TERCEROS O MEDIANTE EL ESTABLECIMIENTO DE PROGRAMAS DE COLABORACIÓN O COOPERACIÓN NACIONAL O INTERNACIONAL. 5. HABILITACIÓN DE ARCHIVOS Y FONDOS DOCUMENTALES DE TODA NATURALEZA Y SOBRE CUALQUIER SOPORTE O SISTEMA DE CONSERVACIÓN O REPRODUCCIÓN. 6. DESARROLLO DE PROGRAMAS DE INTERVENCIÓN Y ACCIÓN SOCIAL O DESARROLLO COMUNITARIO CON SECTORES O NÚCLEOS DE POBLACIÓN ESPECIALMENTE DESFAVORECIDOS. 7. ORGANIZACIÓN DE ENCUENTROS, INTERCAMBIOS, CONGRESOS, EXPOSICIONES Y CUALQUIERA OTRAS FÓRMULAS SIMILARES DE INTERCOMUNICACIÓN Y DIFUSIÓN DE TEMAS Y MATERIAS ACORDES CON LOS FINES SOCIALES DE LA FUNDACIÓN. 8. ESTABLECIMIENTO DE INICIATIVAS DE COLABORACIÓN CON ORGANIZACIONES NO GUBERNAMENTALES Y TODO TIPO DE INSTITUCIONES, ORGANISMOS Y ADMINISTRACIONES, TANTO ESPAÑOLAS, COMO EXTRANJERAS, RELACIONADAS CON LOS FINES SOCIALES DE LA FUNDACIÓN. 9. ELABORACIÓN DE INVESTIGACIONES, ESTUDIOS DE CAMPO, TRABAJOS ESTADÍSTICOS Y PROCEDIMIENTOS SIMILARES EN LOS ÁMBITOS CONCORDANTES CON LOS FINES DE LA FUNDACIÓN. 10. ELABORACIÓN Y PUESTA EN MARCHA DE PROYECTOS DE COOPERACIÓN PARA EL DESARROLLO EN REGIONES Y PAÍSES EMPOBRECIDOS, ESTABLECIENDO PARA ELLO CUANTOS CONVENIOS, ACUERDOS O FÓRMULAS DE ADHESIÓN RESULTARAN CONVENIENTES. 11. REALIZACIÓN DE CAMPAÑAS Y ACCIONES DE INFORMACIÓN, FORMACIÓN Y SENSIBILIZACIÓN ENTRE LA POBLACIÓN EN GENERAL Y DE AUTORIDADES Y AGENTES SOCIALES EN PARTICULAR, TALES COMO REPRESENTANTES INSTITUCIONALES, LÍDERES SINDICALES, TRABAJADORES SOCIALES, REPRESENTANTES DE ORGANIZACIONES NO GUBERNAMENTALES, ASOCIACIONES DE PADRES DE ALUMNOS, EDUCADORES, AGENTES DE ORDEN PÚBLICO, PROFESIONALES DE LA SALUD, VOLUNTARIADO SOCIAL, ETC. 12. EDICIÓN Y/O PUBLICACIÓN Y DISTRIBUCIÓN DE MONOGRAFÍAS, ESTUDIOS, MANUALES, TRATADOS Y, EN GENERAL, TODO TIPO DE DOCUMENTOS Y MATERIALES QUE CONTRIBUYA A DIFUNDIR LAS MATERIAS RELACIONADAS CON LOS FINES SOCIALES DE LA FUNDACIÓN. TALES DOCUMENTOS SE PODRÁN REALIZAR SOBRE TODO GÉNERO DE SOPORTE AUDIO-VISUAL, IMPRESO, INFORMÁTICO O CUALQUIER OTRO SISTEMA DE IMPRESIÓN O REPRODUCCIÓN. DICHOS RECURSOS PODRÁN SER ELABORADOS POR LA PROPIA FUNDACIÓN O MIEMBROS COLABORADORES, ASÍ COMO POR PERSONAS FÍSICAS O JURÍDICAS, ASOCIACIONES Y FUNDACIONES, INSTITUCIONES O ADMINISTRACIONES PÚBLICAS CON LAS QUE SE PUDIERAN ESTABLECER VÍNCULOS, CONTRATOS O CONVENIOS DE COLABORACIÓN SOBRE EL PARTICULAR. 13. REALIZACIÓN DE PLANES DE APOYO Y ATENCIÓN DE INTERNOS EN CENTROS PENITENCIARIOS, TRANSEÚNTES Y POBLACIÓN INMIGRANTE EN CENTROS DE ACOGIDA Y SIMILARES. 14. CONVOCATORIA DE BOLSAS DE AYUDA O BECAS CUYO OBJETO SEA COINCIDENTE CON LOS FINES SOCIALES DE LA FUNDACIÓN. 15. REALIZACIÓN DE PROGRAMAS DE CAPACITACIÓN Y PRÁCTICA DEL VOLUNTARIADO SOCIAL\n",
      "mainEntityOfPage": "https://www.contratacion.euskadi.eus/webkpe00-kperoc/es/ac71aBusquedaRegistrosWar/empresa/06638",
      "_links": {
        "self": {
          "name": "FUNDACIÓN EDEX",
          "href": "https://api.euskadi.eus/procurements/companies/06638"
        }
      }
    },
    {
      "name": "ASOCIACION EMANKOR PRESTADORA DE SERVICIOS PARA EL DESARROLLO COMUNITARIO",
      "registrationNumber": "09716",
      "identificationNumber": "G48421747",
      "address": "Calle Fernando Jiménez Miembro de la Dya",
      "location": {
        "postalCode": "48004",
        "municipality": "Bilbao",
        "county": "Bizkaia",
        "municipalityId": "020",
        "countyId": "48"
      },
      "economicActivities": [
        {
          "id": "1.952",
          "name": "Asistencia y servicios sociales en centros no residenciales",
          "_links": {
            "self": {
              "name": "Asistencia y servicios sociales en centros no residenciales",
              "href": "https://api.euskadi.eus/procurements/companies/economic-activities/1.952"
            }
          }
        },
        {
          "id": "3.039",
          "name": "Otras actividades relacionadas con la música n.c.o.p",
          "_links": {
            "self": {
              "name": "Otras actividades relacionadas con la música n.c.o.p",
              "href": "https://api.euskadi.eus/procurements/companies/economic-activities/3.039"
            }
          }
        }
      ],
      "certificateStartDate": "2026-01-30",
      "certificateEndDate": "2026-07-23",
      "object": "PRESTAR SERVICIOS PARA EL DESARROLLO COMUNITARIO ESPECIALMENTE EN LOS CAMPOS RELACIONADOS CON: LA EDUCACIÓN EN GENERAL Y ESPECIALMENTE EL DESARROLLO DE PROYECTOS EDUCATIVOS Y CULTURALES PARA NIÑOS/AS Y JÓVENES EN EDADES COMPRENDIDAS ENTRE 0 Y 25 AÑOS. PROMOVER EL ENCUENTRO Y EL OCIO FORMATIVO DE LOS/AS NIÑOS/AS JÓVENES FACILITANDO LAS RELACIONES INTERPERSONALES. LA PREVENCIÓN DE TOXICOMANÍAS. LA CULTURA. LA TERCERA EDAD, FACILITANDO LA ASISTENCIA A ESTE COLECTIVO, ASÍ COMO A LOS GRUPOS DESFAVORECIDOS (DISCAPACITADOS). LA ANIMACIÓN SOCIO-CULTURAL. EL TRABAJO SOCIAL, LA INSERCIÓN Y/O LABORAL DE AQUELLOS COLECTIVOS EN ESPECIALES DIFICULTADES. \tLA ANIMACIÓN SOCIO-ECONÓMICA, FORMACIÓN Y CAPACITACIÓN PROFESIONAL, DE FORMA ESPECIAL LA FORMACIÓN PARA EL EMPLEO, EL RECICLAJE PROFESIONAL, LA ORIENTACIÓN E INFORMACIÓN PARA EL EMPLEO. IMPULSAR Y DESARROLLAR PROYECTOS DE DIFUSIÓN Y FORMACIÓN DE OCIO, EDUCATIVOS, CULTURALES, ARTÍSTICOS Y DEPORTIVOS. CONTRIBUIR AL DESARROLLO SOCIOEDUCATIVO, IMPULSANDO Y GESTIONANDO AQUELLAS INICIATIVAS TURÍSTICAS SOSTENIBLES Y COMPROMETIDAS CON EL MEDIO AMBIENTE. PROMOCIÓN TURÍSTICA. COOPERACIÓN INTERNACIONAL Y EDUCACIÓN PARA EL DESARROLLO Y LA CIUDADANÍA GLOBAL. CUALQUIER OTRA QUE TENGA QUE VER CON LAS ÁREAS DESCRITAS. PARA LA CONSECUCIÓN DE DICHOS FINES SE LLEVARÁN A CABO, PREVIO EL CUMPLIMIENTO DE LOS REQUISITOS LEGALES ESTABLECIDOS, LAS SIGUIENTES ACTIVIDADES: \tPROMOVER, ELABORAR, DESARROLLAR Y EJECUTAR A INICIATIVA PROPIA O PETICIÓN DE OTROS, ACTIVIDADES, PROYECTOS, ETC, RELACIONADOS CON LAS ÁREAS DESCRITAS EN LOS FINES, ASÍ COMO CUALQUIER OTRA ACTIVIDAD QUE SEA CONSIDERADA POR LA ASOCIACIÓN Y TENGA RELACIÓN CON LOS FINES MENCIONADOS. SIN PERJUICIO DE LAS ACTIVIDADES DESCRITAS EN EL APARTADO ANTERIOR, LA ASOCIACIÓN, PARA EL CUMPLIMIENTO DE SUS FINES PODRÁ: DESARROLLAR ACTIVIDADES ECONÓMICAS DE TODO TIPO, ENCAMINADAS A LA REALIZACIÓN DE SUS FINES O A ALLEGAR RECURSOS CON ESE OBJETIVO. ADQUIRIR Y POSEER BIENES DE TODAS CLASES Y POR CUALQUIER TÍTULO, ASÍ COMO CELEBRAR ACTOS Y CONTRATOS DE TODO GÉNERO. EJERCITAR TODA CLASE DE ACCIONES CONFORME A LAS LEYES O A SUS ESTATUTOS.",
      "mainEntityOfPage": "https://www.contratacion.euskadi.eus/webkpe00-kperoc/es/ac71aBusquedaRegistrosWar/empresa/09716",
      "_links": {
        "self": {
          "name": "ASOCIACION EMANKOR PRESTADORA DE SERVICIOS PARA EL DESARROLLO COMUNITARIO",
          "href": "https://api.euskadi.eus/procurements/companies/09716"
        }
      }
    }
  ]
}