{
  "totalItems": 9042,
  "totalPages": 905,
  "currentPage": 664,
  "itemsOfPage": 10,
  "items": [
    {
      "name": "SENDAL, S.A.",
      "registrationNumber": "03607",
      "identificationNumber": "A10048700",
      "address": "CTRA. MADRID-CÁCERES, S/N",
      "location": {
        "postalCode": "10350",
        "municipality": "Almaraz",
        "county": "Cáceres",
        "municipalityId": "019",
        "countyId": "10"
      },
      "economicActivities": [
        {
          "id": "1.352",
          "name": "Fabricación de aparatos y equipo electromédico y de uso profesional",
          "_links": {
            "self": {
              "name": "Fabricación de aparatos y equipo electromédico y de uso profesional",
              "href": "https://api.euskadi.eus/procurements/companies/economic-activities/1.352"
            }
          }
        }
      ],
      "certificateStartDate": "2014-12-12",
      "certificateEndDate": "2015-02-19",
      "object": "CONSTITUYE EL OBJETO DE LA SOCIEDAD EL COMERCIO DE IMPORTACIÓN Y EXPORTACIÓN, FABRICACIÓN DE PRODUCTOS Y MAQUINARIA EN PLÁSTICOS, ESPECIALMENTE EN EL CAMPO MÉDICO TERAPÉUTICO, INCLUYENDO NO SÓLO LA INYECCIÓN DE PLÁSTICOS Y UTILIZACIÓN DE APARATOS SIN DE CUALQUIER OTROS PRODUCTOS TANTO NACIONALES COMO EXTRANJEROS PERTENECIENTES  A ESTE CAMPO; ASÍ COMO EL ENSAMBLAJE DE COMPONENTES DE PLÁSTICOS PARA USO MÉDICO; Y CUANTO SE RELACIONE DENTRO DE LA LEGISLACIÓN VIGENTE CON LA PROFESIÓN MÉDICA; PUDIENDO COMPRAR, VENDER Y UTILIZAR TODA CLASE DE MARCAS Y PATENTES DIRECTAMENTE RELACIONADAS CON SU OBJETO",
      "mainEntityOfPage": "https://www.contratacion.euskadi.eus/webkpe00-kperoc/es/ac71aBusquedaRegistrosWar/empresa/03607",
      "_links": {
        "self": {
          "name": "SENDAL, S.A.",
          "href": "https://api.euskadi.eus/procurements/companies/03607"
        }
      }
    },
    {
      "name": "SENDAL, S.L.",
      "registrationNumber": "05273",
      "identificationNumber": "B10048700",
      "address": "Carretera Madrid-Cáceres, s/n",
      "location": {
        "postalCode": "10350",
        "municipality": "Almaraz",
        "county": "Cáceres",
        "municipalityId": "019",
        "countyId": "10"
      },
      "economicActivities": [
        {
          "id": "1.352",
          "name": "Fabricación de aparatos y equipo electromédico y de uso profesional",
          "_links": {
            "self": {
              "name": "Fabricación de aparatos y equipo electromédico y de uso profesional",
              "href": "https://api.euskadi.eus/procurements/companies/economic-activities/1.352"
            }
          }
        }
      ],
      "certificateStartDate": "2014-12-12",
      "certificateEndDate": "2015-05-03",
      "object": "EL COMERCIO DE IMPORTACIÓN Y EXPORTACIÓN, FABRICACIÓN DE PRODUCTOS Y MAQUINARIA EN PLÁSTICOS, ESPECIALMENTE EN EL CAMPO MÉDICO TERAPÉUTICO, INCLUYENDO NO SÓLO LA INYECCIÓN DE PLÁSTICOS Y UTILIZACIÓN DE APARATOS SIN DE CUALQUIER OTROS PRODUCTOS TANTO NACIONALES COMO EXTRANJEROS PERTENECIENTES  A ESTE CAMPO; ASÍ COMO EL ENSAMBLAJE DE COMPONENTES DE PLÁSTICOS PARA USO MÉDICO; Y CUANTO SE RELACIONE DENTRO DE LA LEGISLACIÓN VIGENTE CON LA PROFESIÓN MÉDICA; PUDIENDO COMPRAR, VENDER Y UTILIZAR TODA CLASE DE MARCAS Y PATENTES DIRECTAMENTE RELACIONADAS CON SU OBJETO",
      "mainEntityOfPage": "https://www.contratacion.euskadi.eus/webkpe00-kperoc/es/ac71aBusquedaRegistrosWar/empresa/05273",
      "_links": {
        "self": {
          "name": "SENDAL, S.L.",
          "href": "https://api.euskadi.eus/procurements/companies/05273"
        }
      }
    },
    {
      "name": "MASTERCLIN, S.A.",
      "registrationNumber": "00620",
      "identificationNumber": "A48258636",
      "address": "C/ AUTONOMÍA, Nº 28 - 1º D.",
      "location": {
        "postalCode": "48010",
        "municipality": "Bilbao",
        "county": "Bizkaia",
        "municipalityId": "020",
        "countyId": "48"
      },
      "economicActivities": [
        {
          "id": "1.922",
          "name": "Servicios de limpieza",
          "_links": {
            "self": {
              "name": "Servicios de limpieza",
              "href": "https://api.euskadi.eus/procurements/companies/economic-activities/1.922"
            }
          }
        },
        {
          "id": "1.922.1",
          "name": "Servicios de limpieza de interiores",
          "_links": {
            "self": {
              "name": "Servicios de limpieza de interiores",
              "href": "https://api.euskadi.eus/procurements/companies/economic-activities/1.922.1"
            }
          }
        }
      ],
      "certificateStartDate": "2014-12-04",
      "certificateEndDate": "2015-05-28",
      "object": "EL EJERCICIO DE LOS SERVICIOS DE LIMPIEZA DE LOCALES, EDIFICIOS Y LUGARES PÚBLICOS EN GENERAL; DESRATIZACIÓN Y DESINFECCIÓN; RECOGIDA DOMICILIARIA DE BASURAS; LOS SERVICIOS DE HOSTELERÍA, RESTAURANTE Y BAR EN TODA SU GAMA; LOS SERVICIOS DE LIMPIEZA INDUSTRIAL, QUÍMICA; LOS SERVICIOS DE AUXILIARES DE CLÍNICA",
      "mainEntityOfPage": "https://www.contratacion.euskadi.eus/webkpe00-kperoc/es/ac71aBusquedaRegistrosWar/empresa/00620",
      "_links": {
        "self": {
          "name": "MASTERCLIN, S.A.",
          "href": "https://api.euskadi.eus/procurements/companies/00620"
        }
      }
    },
    {
      "name": "JARDINERÍA PORTAL DE GAMARRA 1, S.L.",
      "registrationNumber": "03500",
      "identificationNumber": "B01314244",
      "address": "PORTAL DE GAMARRA 1, EDIF DEBA, OFICINA 401",
      "location": {
        "postalCode": "01013",
        "municipality": "Vitoria-Gasteiz",
        "county": "Araba/Álava",
        "municipalityId": "059",
        "countyId": "01"
      },
      "economicActivities": [
        {
          "id": "1.476.1",
          "name": "Edición de libros",
          "_links": {
            "self": {
              "name": "Edición de libros",
              "href": "https://api.euskadi.eus/procurements/companies/economic-activities/1.476.1"
            }
          }
        },
        {
          "id": "1.911",
          "name": "Servicios agrícolas y ganaderos",
          "_links": {
            "self": {
              "name": "Servicios agrícolas y ganaderos",
              "href": "https://api.euskadi.eus/procurements/companies/economic-activities/1.911"
            }
          }
        }
      ],
      "certificateStartDate": "2014-12-02",
      "certificateEndDate": "2015-06-01",
      "object": "LA PRESTACIÓN DE SERVICIOS A LA AGRICULTURA, CON O SIN MAQUINARIA QUE SE REALIZAN EN LA MISMA EXPLOTACIÓN, TALES COMO SERVICIOS DE PLANTACIÓN Y MANTENIMIENTO DE JARDINES Y PARQUES, SERVICIOS DE PRODUCCIÓN DE CULTIVOS, COMO PREPARACIÓN DE LA TIERRA, PODA, RIEGO, SERVICIOS DE RECOLECCIÓN Y PREPARACIÓN DE COSECHAS; Y OTROS SERVICIOS AGRÍCOLAS INSTALACIÓN Y COMERCIALIZACIÓN DE MOBILIARIO Y COMPLEMETOS DE JARDÍN. PRODUCCIÓN, EDICIÓN, DISTRIBUCIÓN Y COMERCIALIZACIÓN TANTO EN EL TERRITORIO NACIONAL COMO EN EL EXTRANJERO DE LIBROS Y OTRAS PUBLICACIONES NO PERIÓDICAS CON SUJECIÓN A LA LEGALIDAD ESPECIAL VIGENTE. PROMOCIÓN, FOMENTO DE EMPRESAS MEDIANTE LA PARTICIPACIÓN TEMPORAL O NO EN SU CAPITAL, MEDIANTE LA SUSCRIPCIÓN O ADQUISICIÓN DE ACCIONES O PARTICIPACIONES DE SOCIEDADES O AGRUPACIONES DEDICADAS A ACTIVIDADES DE CARÁCTER EMPRESARIAL. SUSCRIPCIÓN DE TITULOS DE RENTA FIJA EMITIDOS POR LAS ENTIDADES O AGRUPACIONES EN LAS QUE PARTICIPE, ASÍ COMO LA CONCESIÓN DE PRÉSTAMOS PARTICIPATIVOS Y CUENTAS EN PARTICIPACIÓN A LAS MISMAS",
      "mainEntityOfPage": "https://www.contratacion.euskadi.eus/webkpe00-kperoc/es/ac71aBusquedaRegistrosWar/empresa/03500",
      "_links": {
        "self": {
          "name": "JARDINERÍA PORTAL DE GAMARRA 1, S.L.",
          "href": "https://api.euskadi.eus/procurements/companies/03500"
        }
      }
    },
    {
      "name": "CROMA PHARMA, S.L.",
      "registrationNumber": "04376",
      "identificationNumber": "B60040623",
      "address": "Pº DEL FERROARRIL 339, 1º 1ª",
      "location": {
        "postalCode": "08860",
        "municipality": "Castelldefels",
        "county": "Barcelona",
        "municipalityId": "056",
        "countyId": "08"
      },
      "economicActivities": [
        {
          "id": "1.619.2",
          "name": "Venta al por mayor de aparatos e instrumentos médicos, ortopédicos, ópticos",
          "_links": {
            "self": {
              "name": "Venta al por mayor de aparatos e instrumentos médicos, ortopédicos, ópticos",
              "href": "https://api.euskadi.eus/procurements/companies/economic-activities/1.619.2"
            }
          }
        }
      ],
      "certificateStartDate": "2014-11-26",
      "certificateEndDate": "2015-05-26",
      "object": "LA DISTRIBUCIÓN EN EL TERRITORIO NACIONAL DE LENTES INTRAOCULARES, DE PRODUCTOS VISCOELÁSTICOS, DE PRODUCTOS FARMACEÚTICOS DE ARTÍCULOS DE ÓPTICA E INSTRUMENTOS QUIRÚRGICOS",
      "mainEntityOfPage": "https://www.contratacion.euskadi.eus/webkpe00-kperoc/es/ac71aBusquedaRegistrosWar/empresa/04376",
      "_links": {
        "self": {
          "name": "CROMA PHARMA, S.L.",
          "href": "https://api.euskadi.eus/procurements/companies/04376"
        }
      }
    },
    {
      "name": "DONOSTIA ESTRÉS Y COACHING CENTER, S.L.",
      "registrationNumber": "05270",
      "identificationNumber": "B20902599",
      "address": "Doctor Claudio Delgado, nº 3 - bajo",
      "location": {
        "postalCode": "20001",
        "municipality": "Donostia / San Sebastián",
        "county": "Gipuzkoa",
        "municipalityId": "069",
        "countyId": "20"
      },
      "economicActivities": [
        {
          "id": "1.932.1",
          "name": "Enseñanza de formación y perfeccionamiento profesional no superior",
          "_links": {
            "self": {
              "name": "Enseñanza de formación y perfeccionamiento profesional no superior",
              "href": "https://api.euskadi.eus/procurements/companies/economic-activities/1.932.1"
            }
          }
        },
        {
          "id": "1.942.9",
          "name": "Otros servicios sanitarios sin internados, no clasificados",
          "_links": {
            "self": {
              "name": "Otros servicios sanitarios sin internados, no clasificados",
              "href": "https://api.euskadi.eus/procurements/companies/economic-activities/1.942.9"
            }
          }
        }
      ],
      "certificateStartDate": "2014-11-26",
      "certificateEndDate": "2015-05-05",
      "object": "ANÁLISIS, EVALUACIÓN, PREVENCIÓN, INTERVENCIÓN Y FORMACIÓN DEL ESTRÉS Y DE LOS DEMÁS PROBLEMAS PSICOSOCIALES QUE SE PRESENTAN EN LAS ORGANIZACIONES LABORALES, TANTO DESDE EL PUNTO DE VISTA INDIVIDUAL COMO COLECTIVO. FACILITAR LOS PROCESOS DE APRENDIZAJE Y CAMBIO A NIVEL DIRECTIVO Y PERSONAL, TANTO EN EL CONTEXTO EMPRESARIAL COMO EXTRALABORAL MEDIANTE LA METODOLOGÍA DEL COACHING",
      "mainEntityOfPage": "https://www.contratacion.euskadi.eus/webkpe00-kperoc/es/ac71aBusquedaRegistrosWar/empresa/05270",
      "_links": {
        "self": {
          "name": "DONOSTIA ESTRÉS Y COACHING CENTER, S.L.",
          "href": "https://api.euskadi.eus/procurements/companies/05270"
        }
      }
    },
    {
      "name": "OREKAN BIZI S.L.",
      "registrationNumber": "04574",
      "identificationNumber": "B95439014",
      "address": "PINTOR AURELIO ARTETA Nº 1 EN IZ",
      "location": {
        "postalCode": "48004",
        "municipality": "Bilbao",
        "county": "Bizkaia",
        "municipalityId": "020",
        "countyId": "48"
      },
      "economicActivities": [
        {
          "id": "1.967.2",
          "name": "Escuelas y servicios de perfeccionamiento del deporte",
          "_links": {
            "self": {
              "name": "Escuelas y servicios de perfeccionamiento del deporte",
              "href": "https://api.euskadi.eus/procurements/companies/economic-activities/1.967.2"
            }
          }
        }
      ],
      "certificateStartDate": "2014-11-19",
      "certificateEndDate": "2015-05-11",
      "object": "LA REHABILITACIÓN DEPORTIVA, RECUPERACIÓN DE LESIONES (DEPORTIVAS, TRAUMÁTICAS, PRE Y POST OPERATORIAS, DEGENERATIVAS Y GENÉRICAS), ORIENTACIÓN DEPORTIVA, PLANIFICAICÓN DEPORTIVA-SALUD INDIVIDUAL Y COLECTIVA, ENTRENAMIENTO PERSONALIZADO, SERVICIOS ESTÉTICOS, Y SERVICIO DE REHABILITACIÓN A DOMICILIO. LA VENTA DE PRODUCTOS DEPORTIVOS, DE SALUD, ESTÉTICOS Y ERGONÓMICOS. LA ORGANIZACIÓN DE ACTIVIDADES DEPORTIVAS, DE RELAJACIÓN Y FORMATIVAS. LA COMERCIALIACIÓ AL POR MAYORO Y POR MENOR, ASÍ COMO LA REPRESENTACÓN, DE TODO LO RELACIONADO CON ROPAS Y PRENDAS DEPORTIVAS. LA COMPRAVENTA, PERMUTA, ADMINISTRACIÓN GESTIÓN Y EXPLOTACIÓN, BIEN DIRECTAMENTEO O EN ARRRENDAMIENTO, DE TODO TIPO DE BIENES INMUEBLES, SEAN RÚSTICOS O URBANOS Y PATRIMONIOS. LA PROMOCIÓN, PARCELACIÓN, REPARCELACIÓN, PLANIFICACIÓN, CONSTRUCCIÓN Y EDIFICACIÓN, POR SI MISMA O A TRAVÉS DE TERCEROS, TANTO EN SUELO RÚSTICO COMO URBANO; LLEVANDO A EFECTO URBANIZACIONES, SUS INSTALACIONES, ADECUACIONES AL MEDIO AMBIENTE, ZONAS DEPORTIVAS, COMERCIALES Y DE SERVICIOS. LA ADQUISICIÓN Y TENENCIA, POR CUENTA PROPIA Y SIN INCIDIR EN ACTIVIDAD ESPECIALMENTE REGLADA, DE ACCIONES O PARTICIPACIONES DE OTRAS SOCIEDADES, ASÍ COMO VALORES MOBILIARIOS O INMOBILIARIOS. TOMAR PARTE EN LOS NEGOCIOS DE OTRAS SOCIEDADES CUYO OBJETO ESTÉ RELAICONADO CON LAS ACTIVIDADES DESCRITAS EN LOS APARTADOS ANTEIRORES Y TODO ELLO MEDIANTE LA COMPRA DE ACCIONES O PARTICIPACIONES, SUSCRIPCIÓN DE OBLIGACIONES Y AMPLIACIÓN DE CAPITAL. LA GESTIÓN, ORGANIZACIÓN, ASESORAMIENTO Y COORDINACIÓN DE TODO TIPO DE INSTALACIONES  DEPORTIVAS, CULTURALES, ESTÉTICA Y SALUD; ASÍ COMO DE TODO TIPO DE ACTIVIDADES, EVENTOS Y COMPETICIONES RELAICONADAS CON LAS MISMAS. LA GESTIÓN, ORGANIZACIÓN, ASESORAMIENTO Y COORDINACIÓN DE TODO TIPO DE CURSOS Y EVENTOS DE FORMACIÓN Y DIVULGACIÓN DEPORTIVA, CULTURAL, SALUD Y ESTÉTICA, ASÍ COMO LA VENTA DE LIBROS RELACIONADOS CON TODO ELLO. LA INVESTIGACIÓN, ANÁLISIS, ASESORAMIENTO Y DIVULGACIÓN DE TEMAS RELACIONADOS CON LAS ACTIVIDADES DESCRITAS ANTERIORMENTE. LAS ACTIVIDADES Y GESTIÓN DE TODO TIPO DE MÁQUINAS DE VENDIG. LA GESTIÓN DE LA ACITVIDAD DE HOSTELERÍA, TANOT FUERA COMO DENTRO DE LOS LOCALES DONDE LA SOCIEDAD DESARROLLE SU NEGOCIO ",
      "mainEntityOfPage": "https://www.contratacion.euskadi.eus/webkpe00-kperoc/es/ac71aBusquedaRegistrosWar/empresa/04574",
      "_links": {
        "self": {
          "name": "OREKAN BIZI S.L.",
          "href": "https://api.euskadi.eus/procurements/companies/04574"
        }
      }
    },
    {
      "name": "IC CONSTRUCCIÓN, INGENIERÍA Y GESTIÓN DE OBRAS, S.A.",
      "registrationNumber": "02824",
      "identificationNumber": "A31084817",
      "address": "CARRETERA ARTICA, 29. ARTICA",
      "location": {
        "postalCode": "31013",
        "municipality": "Pamplona/Iruña",
        "county": "Navarra",
        "municipalityId": "201",
        "countyId": "31"
      },
      "economicActivities": [
        {
          "id": "1.507",
          "name": "Construcción, reparación y conservación de toda clase obras",
          "_links": {
            "self": {
              "name": "Construcción, reparación y conservación de toda clase obras",
              "href": "https://api.euskadi.eus/procurements/companies/economic-activities/1.507"
            }
          }
        },
        {
          "id": "1.722",
          "name": "Transporte de mercancías por carretera",
          "_links": {
            "self": {
              "name": "Transporte de mercancías por carretera",
              "href": "https://api.euskadi.eus/procurements/companies/economic-activities/1.722"
            }
          }
        }
      ],
      "certificateStartDate": "2014-11-18",
      "certificateEndDate": "2015-05-03",
      "object": "a) LA PROMOCIÓN Y EJECUCIÓN DE URBANIZACIONES Y PAVIMENTACIONES Y CONSTRUCCIÓN EN GENERAL, TANTO EN TERRITORIO NACIONAL COMO EN EL EXTRANJERO, CONSTRUCCIÓN DE TODO TIPO DE EDIFICIOS.\r\n\r\nb) LA COMPRA Y VENTA DE FINCAS RÚSTICAS Y URBANAS EN LA QUE EXISTIERAN CONSTRUCCIONES DE CUALQUIER TIPO.\r\n\r\nc) LA EXPLOTACIÓN DE LOCALES COMERCIALES Y GARAJES.\r\n\r\nd) LA COMPRA Y VENTA DE TODA CLASE DE  MATERIALES, MERCANCÍAS, MAQUINARIA O PRODUCTOS RELACIONADOS CON LOS APARTADOS ANTERIORES.\r\n\r\ne) LA ADQUISICIÓN, DISFRUTE, PIGNORACIÓN O ENAJENACIÓN POR CUENTA PROPIA  DE ACCIONES, OBLIGACIONES SIMPLES O HIPOTECARIAS; PARTICIPACIÓN EN SOCIEDADES CIVILES O MERCANTILES, ASOCIACIONES O COOPERATIVAS.    ",
      "mainEntityOfPage": "https://www.contratacion.euskadi.eus/webkpe00-kperoc/es/ac71aBusquedaRegistrosWar/empresa/02824",
      "_links": {
        "self": {
          "name": "IC CONSTRUCCIÓN, INGENIERÍA Y GESTIÓN DE OBRAS, S.A.",
          "href": "https://api.euskadi.eus/procurements/companies/02824"
        }
      }
    },
    {
      "name": "MIESA INGENIERÍA, S.L.",
      "registrationNumber": "03984",
      "identificationNumber": "B95275780",
      "address": "AMBROSIO DE LOS HEROS, S/N",
      "location": {
        "postalCode": "48549",
        "municipality": "Abanto y Ciérvana-Abanto Zierbena",
        "county": "Bizkaia",
        "municipalityId": "002",
        "countyId": "48"
      },
      "economicActivities": [
        {
          "id": "1.504.1",
          "name": "Instalaciones eléctricas en general",
          "_links": {
            "self": {
              "name": "Instalaciones eléctricas en general",
              "href": "https://api.euskadi.eus/procurements/companies/economic-activities/1.504.1"
            }
          }
        }
      ],
      "certificateStartDate": "2014-11-18",
      "certificateEndDate": "2015-05-15",
      "object": "SERVICIOS DE PROYECCIÓN DE INSTRUMENTACIÓN ELÉCTRICA Y MECÁNICA, INCLUIDAS LAS OPERACIONES DE COMPRA, TRANSFORMACIÓN Y VENTA DE TODO TIPO DE INSTRUMENTOS Y APARATOS ELÉCTRICOS Y MECÁNICOS",
      "mainEntityOfPage": "https://www.contratacion.euskadi.eus/webkpe00-kperoc/es/ac71aBusquedaRegistrosWar/empresa/03984",
      "_links": {
        "self": {
          "name": "MIESA INGENIERÍA, S.L.",
          "href": "https://api.euskadi.eus/procurements/companies/03984"
        }
      }
    },
    {
      "name": "NEMONICA DISEÑO Y COMUNICACIÓN, S.L.",
      "registrationNumber": "02810",
      "identificationNumber": "B95119673",
      "address": "Alda. Mazarredo 35 7C - D",
      "location": {
        "postalCode": "48009",
        "municipality": "Bilbao",
        "county": "Bizkaia",
        "municipalityId": "020",
        "countyId": "48"
      },
      "economicActivities": [
        {
          "id": "1.844",
          "name": "Servicios de publicidad, relaciones públicas y similares",
          "_links": {
            "self": {
              "name": "Servicios de publicidad, relaciones públicas y similares",
              "href": "https://api.euskadi.eus/procurements/companies/economic-activities/1.844"
            }
          }
        }
      ],
      "certificateStartDate": "2014-11-17",
      "certificateEndDate": "2015-05-17",
      "object": "1) LA ADQUISICIÓN, EXPLOTACIÓN Y ENAJENACIÓN DE TODA CLASE DE BIENES INMUEBLES, TALES COMO OFICINAS, LONJAS, PABELLONES INDUSTRIALES O TERRENOS, TANTO RÚSTICOS COMO URBANOS, SU PLANTACIÓN O CULTIVO, O SU URBANIZACIÓN O PARCELACIÓN; EL USO, ARRENDAMIENTO, VENTA O TRANSMISIÓN POR CUALQUIER TÍTULO DE LOS EDIFICIOS O DE LAS VIVIENDAS O LOCALES DE LOS MISMOS.\r\n\r\n2) EL ESTUDIO, DISEÑO, COMERCIALIZACIÓN Y EXPLOTACIÓN DE PORTALES Y COMUNIDADES VIRTUALES QUE OPERAN BAJO LAS REDES MUNDIALES DE COMUNICACIÓN, INTERNET, MEDIANTE SERVICIOS AVANZADOS EN TELECOMUNICACIONES TANTO CON REDES Y CONEXIONES PROPIAS COMO AJENA, MEDIANTE TÉCNICAS AUDIOVISUALES Y TELEMÁTICAS TANTO DE CREACIÓN PROPIA COMO AJENA, ASÍ COMO CON EQUIPAMIENTOS PROPIOS O AJENOS.\r\n\r\n3) LA COMERCIALIZACIÓN, IMPORTACIÓN, EXPORTACIÓN, VENTA, INTERMEDIACIÓN E INFOMEDIACIÓN, EN CALIDAD DE INTERMEDIARIOS TANTO DE Y A  MAYORISTA COMO DE MINORISTAS, DE PRODUCTOS BIENES Y SERVICIOS UTILIZANDO A TALES EFECTOS EL MARCO DE LOS PORTALES, VORTALES Y COMUNIDADES VIRTUALES, QUE OPERAN BAJO LAS REDES MUNIDALES DE COMUNICACIÓN, INTERNET.\r\n\r\n4) EDICIÓN GRÁFICA Y DIGITAL, INSERCIÓN DE ANUNCIOS PUBLICITARIOS Y PROMOCIÓN EN EL MERCADO DE TDA CLASE DE PRODUCTOS.\r\n\r\nLA SOCIEDAD PODRÁ REALIZAR LAS ACTIVIDADES QUE CONSTITUYEN SU OBJETO, TOTAL O PARCIALMENTE DE UNA FORMA DIRECTA O MEDIANTE LA PARTICIPACIÓN EN OTRAS SOCIEDADES O ENTIDADES CON O SIN PERSONALIDAD JURÍDICA, CON IDÉNTICO O ANÁLOGO OBJETO SOCIAL",
      "mainEntityOfPage": "https://www.contratacion.euskadi.eus/webkpe00-kperoc/es/ac71aBusquedaRegistrosWar/empresa/02810",
      "_links": {
        "self": {
          "name": "NEMONICA DISEÑO Y COMUNICACIÓN, S.L.",
          "href": "https://api.euskadi.eus/procurements/companies/02810"
        }
      }
    }
  ]
}