{
  "totalItems": 9042,
  "totalPages": 905,
  "currentPage": 501,
  "itemsOfPage": 10,
  "items": [
    {
      "name": "MANTENIMIENTO ELECTROMÉDICO, S.A.",
      "registrationNumber": "02086",
      "identificationNumber": "A31116015",
      "address": "AVDA. DEL BARRIO, Nº 3",
      "location": {
        "postalCode": "31500",
        "municipality": "Tudela",
        "county": "Navarra",
        "municipalityId": "232",
        "countyId": "31"
      },
      "economicActivities": [
        {
          "id": "1.150.41",
          "name": "INSTALACIONES ELECTRICAS EN GENERAL",
          "_links": {
            "self": {
              "name": "INSTALACIONES ELECTRICAS EN GENERAL",
              "href": "https://api.euskadi.eus/procurements/companies/economic-activities/1.150.41"
            }
          }
        },
        {
          "id": "1.692",
          "name": "Reparación de maquinaria industrial",
          "_links": {
            "self": {
              "name": "Reparación de maquinaria industrial",
              "href": "https://api.euskadi.eus/procurements/companies/economic-activities/1.692"
            }
          }
        }
      ],
      "certificateStartDate": "2022-05-27",
      "certificateEndDate": "2022-11-18",
      "object": "A)CALIBRACIÓN DE EQUIPOS ELECTROMÉDÌCOS, SERVICIOS RELACIONADOS CON LA REPARACIÓN, MANTENIMIENTO Y CALIBRACIÓN DE EQUIPOS DE MEDIDA\tDE CUALQUIER MAGNITUD SEAN DE TECNOLOGÍA ELECTRÓNICA DIGITAL O DE CUALQUIER OTRO TIPO DE CUALQUIER FABRICANTE. B) REPARACIÓN DE\t INSTRUMENTOS DE PESAJE NO\tAUTOMÁTICOS, ASÍ COMO DE CUALQUIER OTRO TIPO DE INSTRUMENTO SUJETO\tA CONTROL\tMETROLÓGICO. C)MANTENIMIENTO, REPARACIÓN Y REVISIÓN PREVIA A LA INSPECCIÓN REGLAMENTARIA DE LOS APARATOS PARA LA EXPOSICIÓN DE LA PIEL A RADIACIONES ULTRAVIOLETAS EN LOS CENTROS DE ESTÉTICA Y BRONCEADO. D) OBRAS CIVILES, CUALQUIERA QUE SEA\tSU USO, PÚBLICAS O\tPRIVADAS,\tCIVILES O MILITARES Y\tEN CONCRETO, A TÍTULO MERAMENTE ENUNCIATIVO Y NO LIMITATIVO LAS SIGUIENTES:-  ACONDICIONAMIENTO POR AIRE, CALEFACCIÓN O INCLUSO FRIO INDUSTRIAL.- FONTANERÍA, TRATAMIENTO DE\tAGUAS. - MECÁNICAS. - ELÉCTRICAS DE BAJA\tY\tMEDIA\tTENSIÓN\tASÍ\tCOMO\tDE\tALTA\r\n\tTENSIÓN,\tSUBESTACIONES,\t ESTACIONES\tTRANSFORMADORAS, \tLÍNEAS\tDE\tDISTRIBUCIÓN\tDE\tENERGÍA.\r\n\r\n-\tELECTRÓNICAS.\tELECTROMEDLCLNA\t(EQUIPOS\tMÉDICOS) \r\n-   INFORMÁTICAS. \r\n-  TELECOMUNICACIONES\tY\tDESPLIEGUE\t\tDE\tINFRAESTRUCTURAS.\r\nSISTEMAS\tDE\tSEÑALIZACIÓN\tESTÁTICA\tY\tDINÁMICA. \tINSTALACIONES\tDE SEGURIDAD\t (CIRCUITO\tCERRADO\tDE \tTELEVISIÓN, \tALARMA\tY\tTELECONTROL).\r\nSISTEMAS\tDE\tPROTECCIÓN CONTRA\tINCENDIOS.\r\nMEGAFONÍA\tY\tSISTEMAS\tEN\tEL\tCAMPO\tDE\tLA\tACÚSTICA.\r\nSISTEMAS\tY\tSERVICIOS\t\tDE\tTRANSMISIÓN\tY\tRECEPCIÓN \tDE  IMAGEN, VOZ\tY\tDATOS\tPOR\t\tVÍA\tSATÉLITE,\tCABLE\t(COAXIAL\tY  FIBRA\tÓPTICA) O\tTERRESTRE\tY\tCUALQUIER\tOTRO\tMEDIO\tO \tTECNOLOGÍA QUE\t\tEN\tFUTURO PUEDA\tSURGIR.\r\nTRATAMIENTO\tDE\tGASES.\r\n\r\n E)\tPRESTACIÓN\tDE\tSERVICIOS\t\tINFORMÁTICOS\t\tY\tDE\tTELECOMUNICACIÓN,\tASÍ \tCOMO\tEL\tDESARROLLO \tDE\tPROGRAMAS\tDE\tORDENADOR.\tEN\tPARTICULAR\tLA \tGESTIÓN\tINFORMÁTICA,\tINCLUYENDO\tENTRE\tOTROS, VENTA,\tALQUILER, \tINSTALACIÓN,\tPROGRAMACIÓN,\tGESTIÓN\tY\tMANTENIMIENTO\tEN\tPROGRAMAS, \tEQUIPOS\tINFORMÁTICOS\tY\tTELECOMUNICACIÓN.\r\nF)  EVALUACIÓN\tSOBRE\tRECURSOS,\tGESTIÓN,\tEXPLOTACIÓN\tY\tRESULTADOS,\t\tGESTIÓN, ADMINISTRACIÓN\tY\tCOORDINACIÓN,\tIMPLANTACIÓN\tDE\tSISTEMAS\tDE\tGESTIÓN  DE\tCALIDAD\tY\tMEDIO\tAMBIENTE,\t PROTOCOLOS\tY         METODOLOGÍA\tSOBRE:\r\n- ORGANIZACIONES\tE\tINSTITUCIONES\tSANITARIAS,\tTANTO\tPÚBLICAS COMO PRIVADAS.\r\n- HOSPITALES,\tCLÍNICAS\tY\tCENTROS\tSANITARIOS \tBAJO\tCUALESQUIERA\tDE\r\nLAS\tFORMAS\tQUE\tPUEDAN\t\tADOPTAR:\t\tFUNDACIONES,\tCONSORCIOS,\r\nCOOPERATIVAS,\tETC.,\tY\tDE\tLAS\tTITULARIDADES\tQUE\tTENGAN\tPÚBLICAS\tO PRIVADAS.\r\n \r\n-  LOS\tPROCESOS\tY\tSERVICIOS\tDESARROLLADOS\tPARA\tLOS\tANTERIORES \tCOMO ACTIVIDADES\tNECESARIAS\tY\tCOMPLEMENTARIAS\t\tPARA \tIA\r\nASISTENCIA\t\tSANITARIA,\t\tBIEN\tSE\tREALICEN\t\tEN\t\tLOS\tPROPIOS CENTROS\tO \t\tDE\tFORMA\tEXTERNA\tO\tINDEPENDIENTE\tY\tSE  EJECUTEN POR\tPERSONAL \tPROPIO\tO\tPOR\tTERCEROS,\tINCLUYENDO\tEN\tLOS\tMISMOS LOS SERVICIOS \tCENTRALES\tSIGUIENTES:\r\n- LABORATORIOS\t\tDE\tANÁLISIS\tCLÍNICOS,\tANATOMÍA\tPATOLÓGICA,\tBANCOS\tDE SANGRE,\tFARMACIA, \tDIAGNÓSTICO\tPOR\t\tIMAGEN,\tESTERILIZACIÓN, NUTRICIÓN, DOCUMENTACIÓN\tCLÍNICA LOGÍSTICA,\tCOMPRAS,\tSUMINISTROS, ALMACENAJE, DISTRIBUCIÓN\tY\tEN\tGENERAL\tTODOS\tLOS\tSERVICIOS\tDE ADMINISTRACIÓN. \r\n- INGENIERÍA,\tCOMUNICACIONES,\tSISTEMAS\tDE INFORMACIÓN,\tSISTEMAS\tDE SEGURIDAD,\tMANTENIMIENTO  DE\tEDIFICIOS,\tINSTALACIONES,\tEQUIPOS\tMÉDICOS, EQUIPAMIENTO \tCLÍNICO,\r\n - SERVICIOS DE\tHOSTELERÍA,\tLIMPIEZA,\t\tGESTIÓN\tDE \tRESIDUOS,\tJARDINERÍA, LAVANDERÍA\tY\tLENCERÍA, \tRESTAURACIÓN\tCOLECTIVA,\tVIGILANCIA\tY\tGESTIÓN DEL CONFORT.\r\n G)\tGESTIÓN\tINTEGRAL\tDE\tEDIFICIOS\t\tE\tINSTALACIONES,\tCUALQUIERA\tQUE\tSEA\tSU \tUSO,\tPRESTANDO \tSERVICIOS\tDE\tHOSTELERÍA,\tSEGURIDAD,\tLIMPIEZA,\tGESTIÓN  DE\tRESIDUOS,\tHIGIENIZACIÓN\tY JARDINERÍA.\r\nH)\tLA PRESTACIÓN\tA\t\tFAVOR\t DE\tCUALESQUIERA\t\tENTIDADES \tPÚBLICAS\tO\tPRIVADAS\tDE\tSERVICIOS\tDE\tESTUDIO,\tASISTENCIA\t Y\tASESORAMIENTO,\tASISTENCIA \tTÉCNICA \tO\tCOMERCIAL,\tASESORAMIENTO\t ECONÓMICO-  CONTABLE,\tCONSULTORÍA \t\tFINANCIERA,\tCON\tEXCLUSIÓN\tDE\tLAS\tACTIVIDADES\tPROPIAS\tDE\tLA\tLEY\tDEL \tMERCADO\tDE\tVALORES,\tDE\tORGANIZACIÓN,\tMARKETING,\tRECURSOS\tHUMANOS, \tCOMUNICACIÓN,\tDE\tCONTROL\tY\tGESTIÓN\tDE\tEMPRESAS\tY\tEJECUCIÓN\tDE \tTRABAJOS\tADMINISTRATIVOS,\tTÉCNICOS,\tJURÍDICOS,\tORGANIZATIVOS, \tPUBLICITARIO\tE\tINFORMÁTICOS\t(INCLUIDOS\tLOS\tDE\tDESARROLLO\t DE\tPROGRAMAS),\tEN\tLA\tGESTIÓN\tY\tDESARROLLO \tDE\tCONTRATOS\tDE\tSERVICIOS\tCON\tTODO\tTIPO\tDE\tPROVEEDORES.\r\n\r\n I)\tESTUDIOS,\tDISEÑO,\tPROYECTOS\tY\tEVALUACIONES\tTÉCNICAS\tY\tECONÓMICAS\r\n\tSOBRE\tEDIFICIOS,\tLOCALES,\tESPACIOS,\tINSTALACIONES,\tEQUIPOS\tTÉCNICOS\tY\r\n\tCIENTÍFICOS,\tEQUIPAMIENTO\t\tCLÍNICO,\tTÉCNICO,\tLOGÍSTICO\tY\tHOTELERO, \tNECESARIOS\t\tY\tREQUERIDOS\tEN\tLOS\tANTERIORES\tÁMBITOS.\r\n J)\tGESTIÓN\tINTEGRAL\tDE\tIMPORTACIÓN,\tEXPORTACIÓN, DISTRIBUCIÓN,\tVENTA\r\n\tDIRECTA O\tINDIRECTA,\tADQUISICIÓN,\tENAJENACIÓN,\tSUMINISTRO,\r\nEQUIPAMIENTO,\tFINANCIACIÓN,\tPUESTA\tA\tDISPOSICIÓN,\tINSTALACIÓN\tY\tOBRAS OBJETIVOS DE SERVICIO\tPÚBLICO \tO\tRELACIONADOS\tCON\t\tACTUACIONES\tDE\tINTERÉS\tGENERAL,  COMPRENDA\tALGUNA\tDE\tLAS\tSIGUIENTES\tPRESTACIONES:\r\n * LA\tCONSTRUCCIÓN,\tINSTALACIÓN\tO\tTRANSFORMACIÓN\tDE\tOBRAS, EQUIPOS, SISTEMAS,\tY\tPRODUCTOS\tO\tBIENES\tCOMPLEJOS, ASÍ\tCORNOSU\tMANTENIMIENTO, ACTUALIZACIÓN\tO\tRENOVACIÓN,\tSU\tEXPLOTACIÓN \tO\tSU\tGESTIÓN.\r\n* LA\tGESTIÓN\tINTEGRAR\tDEL\tMANTENIMIENTO\tDE\tINSTALACIONES \tCOMPLEJAS\r\n* LA\tFABRICACIÓN\tDE\tBIENES\tY\tLA PRESTACIÓN\tDE\tSERVICIOS\t\tQUE   INCORPOREN \tTECNOLOGÍA\tESPECÍFICAMENTE\tDESARROLLADA\tCON\tEL  PROPÓSITO DE\tAPORTAR\tSOLUCIONES\tMÁS\tAVANZADAS\tY \tECONÓMICAMENTE\tMÁS VENTAJOSAS\tQUE\tLAS\tEXISTENTES\tEN\tEL MERCADO,\r\n* OTRAS PRESTACIONES DE SERVICIOS LIGADAS AL DESARROLLO POR LA  ADMINISTRACIÓN\t DEL \tSERVICIO\tPÚBLICO\tO\tACTUACIÓN\tDE\tINTERÉS \tGENERAL\tQUE\tLE\tHAYA SIDO\tENCOMENDADO.\r\nK)\tEL\tESTUDIO,\tDISEÑO,\tDESARROLLO,\tCOMPRAVENTA,\tCOMERCIALIZACIÓN,\r\nASISTENCIA \tTÉCNICA\tDE\tTODO\tTIPO\tDE\tCOMPONENTES,\tPRODUCTOS, SISTEMAS\r\nY\tEQUIPOS\tRELACIONADOS\tCON\tLAS\tACTIVIDADES\tANTERIORES,\tTANTO PROPIOS\r\nCOMO\tDE\tOTRAS \tEMPRESAS.\r\n\r\nL) REALIZACIÓN DE ACTUACIONES GLOBALES E INTEGRADAS QUE, ADEMÁS DE LA FINANCIACIÓN DE INVERSIONES INMATERIALES, DE OBRAS O DE SUMINISTROS NECESARIOS PARA\tEL\tCUMPLIMIENTO\t\tDE\tDETERMINADOS\tOBJETIVOS\t\tDE  SERVICIO PÚBLICO\t\tO\t\tRELACIONADOS\tCON\t\tACTUACIONES\tDE\tINTERÉS GENERAL, COMPRENDA \tALGUNA\tDE\tLAS\tSIGUIENTES\tPRESTACIONES:\r\n \r\n*\tLA\tCONSTRUCCIÓN,\tINSTALACIÓN\tO\tTRANSFORMACIÓN\tDE\tOBRAS,\r\n\tEQUIPOS,\tSISTEMAS,\tY\tPRODUCTOS\tO\tBIENES\tCOMPLEJOS, ASÍ\tCORNO\r\n\tSU\tMANTENIMIENTO,\tACTUALIZACIÓN\tO\tRENOVACIÓN,\tSU\tEXPLOTACIÓN\r\n\tO\tSU\tGESTIÓN.\r\n \r\n¿\tLA\tGESTIÓN\tINTEGRAL\tDEL\tMANTENIMIENTO\tDE\tINSTALACIONES\tCOMPLEJAS.\r\n \r\n¿\tLA\tFABRICACIÓN\tDE\tBIENES\tY\tLA PRESTACIÓN\tDE\tSERVICIOS\t\tQUE \t\tINCORPOREN\tTECNOLOGÍA\tESPECÍFICAMENTE\tDESARROLLADA\tCON\tEL \tPROPÓSITO\tDE\tAPORTAR\tSOLUCIONES\tMÁS\tAVANZADAS\tY\r\n ECONÓMICAMENTE\tMÁS\tVENTAJOSAS\tQUE\tLAS\tEXISTENTES\tEN\tEL\r\nMERCADO,\r\n * OTRAS PRESTACIONES DE SERVICIOS LIGADAS AL DESARROLLO POR LA ADMINISTRACIÓN DEL SERVICIO\tPÚBLICO\tO\tACTUACIÓN\tDE\tINTERÉS \tGENERAL\tQUE\tLE\tHAYA SIDOENCOMENDADO.\r\n \r\n\r\nM)\tCONSTRUCCIÓN,\tREFORMA,\tREHABILITACIÓN\tY\tMANTENIMIENTO\t\tINTEGRAL\tDE\r\n\tTODO\tTIPO\tDE\tINMUEBLES,\t\tEDIFICACIONES,\t\tOBRAS,\tPLANTAS\tE\tINSTALACIONES \tCUALQUIERA\tQUE\tSEA\tSU\tUSO,\tINCLUSO  INDUSTRIALES,\tHOSPITALARIAS, \tHOTELERAS,\tMILITARES.\r\nN)\tPRESTACIÓN\tDE\tSERVICIOS\tENERGÉTICOS.\tGESTIÓN\tY\tAUDITORÍA\t\tENERGÉTICA, \tEJECUCIÓN\tY\tAPLICACIÓN\tDE\tSOLUCIONES\t\tPARA\tLA\t\tMEJORA\tDE\tLA\tEFICIENCIA \tENERGÉTICA\tEN\tINSTALACIONES\tE\tINFRAESTRUCTURAS,\tINCLUSO\tLA COMPRA \tY VENTA DE ENERGÍA.\r\n A\tTAL\tEFECTO\tSE HACE\tCONSTAR\tQUE\tSE\tCUMPLEN\tLAS\tEXIGENCIAS\tDE\tSEPARACIÓN\tDE  ACTIVIDADES \tY\tDE\tCUENTAS\tESTABLECIDAS\tEN LOS\tARTÍCULOS\t12\tY\t20\tDE\tLA\tLEY 24/2013)\tDE\t26\tDE\tDICIEMBRE,\tDEL\tSECTOR\tELÉCTRICO\r\n",
      "mainEntityOfPage": "https://www.contratacion.euskadi.eus/webkpe00-kperoc/es/ac71aBusquedaRegistrosWar/empresa/02086",
      "_links": {
        "self": {
          "name": "MANTENIMIENTO ELECTROMÉDICO, S.A.",
          "href": "https://api.euskadi.eus/procurements/companies/02086"
        }
      }
    },
    {
      "name": "ALBALÁ GESTIÓN DOCUMENTAL, S.L.",
      "registrationNumber": "08394",
      "identificationNumber": "B42891978",
      "address": "ORENSE, 12, 2ª PLANTA, OFICINA 2A",
      "location": {
        "postalCode": "28020",
        "municipality": "Madrid",
        "county": "Madrid",
        "municipalityId": "079",
        "countyId": "28"
      },
      "economicActivities": [
        {
          "id": "1.845",
          "name": "Explotación electrónica por cuenta de terceros",
          "_links": {
            "self": {
              "name": "Explotación electrónica por cuenta de terceros",
              "href": "https://api.euskadi.eus/procurements/companies/economic-activities/1.845"
            }
          }
        }
      ],
      "certificateStartDate": "2022-05-25",
      "certificateEndDate": "2022-11-11",
      "object": "A) LA INVESTIGACIÓN, DESARROLLO, CREACIÓN, PRODUCCIÓN, GESTIÓN, COMERCIALIZACIÓN, VENTAS O SUBCONTRATACIÓN DE PROGRAMAS INFORMÁTICOS (SOFTWARE), BANCOS Y BASES DE DATOS, ARCHIVOS, CENTROS DE DOCUMENTACIÓN, APARATOS, SERVICIOS DE TELEDOCUMENTACIÓN Y TELEMÁTICA Y, EN GENERAL, TODO TIPO DE TÉCNICAS Y SISTEMAS RELACIONADOS CON LA INFORMACIÓN Y LA COMUNICACIÓN EN GENERAL; B) LA DISTRIBUCIÓN DE MATERIAL, MAQUINARIA Y EQUIPOS INFORMÁTICOS; C) LA CONTRATACIÓN, REALIZACIÓN, TRATAMIENTO, VENTA O SUBCONTRATACIÓN DE SERVICIOS GENERALES Y ASESORAMIENTO A EMPRESAS PRIVADAS, PÚBLICAS, ORGANISMOS Y ENTIDADES OFICIALES Y, EN ESPECIAL, LA REALIZACIÓN Y VENTA DE ESTUDIOS TÉCNICOS, DE MERCADO, VIABILIDAD ECONÓMICA, SERVICIOS Y CAMPAÑAS DE RELACIONES PÚBLICAS PARA TERCEROS; SERVICIOS DE INFORMACIÓN, DOCUMENTACIÓN Y SERVICIOS DE MARKETING, TANTO EN EL MERCADO NACIONAL COMO EN EL INTERNACIONAL. TIENE POR OBJETO LA DEDICACIÓN COMO SOCIEDAD DE INGENIERÍA DE LA INFORMACIÓN Y LA COMUNICACIÓN.\n",
      "mainEntityOfPage": "https://www.contratacion.euskadi.eus/webkpe00-kperoc/es/ac71aBusquedaRegistrosWar/empresa/08394",
      "_links": {
        "self": {
          "name": "ALBALÁ GESTIÓN DOCUMENTAL, S.L.",
          "href": "https://api.euskadi.eus/procurements/companies/08394"
        }
      }
    },
    {
      "name": "VULCANIZADOS LUIS, S.A.",
      "registrationNumber": "08391",
      "identificationNumber": "A48093611",
      "address": "ENRIQUE EGUREN 8 BAJO",
      "location": {
        "postalCode": "48012",
        "municipality": "Bilbao",
        "county": "Bizkaia",
        "municipalityId": "020",
        "countyId": "48"
      },
      "economicActivities": [
        {
          "id": "1.616.6",
          "name": "Venta al por mayor de productos químicos industriales",
          "_links": {
            "self": {
              "name": "Venta al por mayor de productos químicos industriales",
              "href": "https://api.euskadi.eus/procurements/companies/economic-activities/1.616.6"
            }
          }
        },
        {
          "id": "1.691.2",
          "name": "Reparación de vehículos automóviles, bicicletas y otros vehículos",
          "_links": {
            "self": {
              "name": "Reparación de vehículos automóviles, bicicletas y otros vehículos",
              "href": "https://api.euskadi.eus/procurements/companies/economic-activities/1.691.2"
            }
          }
        }
      ],
      "certificateStartDate": "2022-05-24",
      "certificateEndDate": "2022-11-24",
      "object": "LA COMERCIALIZACIÓN Y REPARACIÓN DE CUBIERTAS, VULCANIZADOS Y AFINES.",
      "mainEntityOfPage": "https://www.contratacion.euskadi.eus/webkpe00-kperoc/es/ac71aBusquedaRegistrosWar/empresa/08391",
      "_links": {
        "self": {
          "name": "VULCANIZADOS LUIS, S.A.",
          "href": "https://api.euskadi.eus/procurements/companies/08391"
        }
      }
    },
    {
      "name": "ANDREA ORONOZ PEÑALBA",
      "registrationNumber": "08390",
      "identificationNumber": "72501516L",
      "address": "Calle Larramendi (20006), 6 - 6º izda",
      "location": {
        "postalCode": "20006",
        "municipality": "Donostia / San Sebastián",
        "county": "Gipuzkoa",
        "municipalityId": "069",
        "countyId": "20"
      },
      "economicActivities": [
        {
          "id": "1.842",
          "name": "Servicios financieros y contables",
          "_links": {
            "self": {
              "name": "Servicios financieros y contables",
              "href": "https://api.euskadi.eus/procurements/companies/economic-activities/1.842"
            }
          }
        }
      ],
      "certificateStartDate": "2022-05-24",
      "certificateEndDate": "2022-11-14",
      "object": "SERVICIOS FINANCIEROS Y CONTABLES",
      "mainEntityOfPage": "https://www.contratacion.euskadi.eus/webkpe00-kperoc/es/ac71aBusquedaRegistrosWar/empresa/08390",
      "_links": {
        "self": {
          "name": "ANDREA ORONOZ PEÑALBA",
          "href": "https://api.euskadi.eus/procurements/companies/08390"
        }
      }
    },
    {
      "name": "FUNDACIÓ EURECAT",
      "registrationNumber": "08387",
      "identificationNumber": "G66210345",
      "address": "Parc Tecnològic del Vallès, Av. Universitat Autònoma, 23",
      "location": {
        "postalCode": "08290",
        "municipality": "Cerdanyola del Vallès",
        "county": "Barcelona",
        "municipalityId": "266",
        "countyId": "08"
      },
      "economicActivities": [
        {
          "id": "1.932.1",
          "name": "Enseñanza de formación y perfeccionamiento profesional no superior",
          "_links": {
            "self": {
              "name": "Enseñanza de formación y perfeccionamiento profesional no superior",
              "href": "https://api.euskadi.eus/procurements/companies/economic-activities/1.932.1"
            }
          }
        },
        {
          "id": "1.936",
          "name": "Investigación científica y técnica",
          "_links": {
            "self": {
              "name": "Investigación científica y técnica",
              "href": "https://api.euskadi.eus/procurements/companies/economic-activities/1.936"
            }
          }
        },
        {
          "id": "1.999",
          "name": "Otros servicios n.c.o.p",
          "_links": {
            "self": {
              "name": "Otros servicios n.c.o.p",
              "href": "https://api.euskadi.eus/procurements/companies/economic-activities/1.999"
            }
          }
        }
      ],
      "certificateStartDate": "2022-05-20",
      "certificateEndDate": "2022-10-20",
      "object": "A) LA INVESTIGACIÓN Y EL DESARROLLO TECNOLÓGICO. B) EL DESARROLLO DE PROYECTOS DE INNOVACIÓN, INVESTIGACIÓN INDUSTRIAL E INVESTIGACIÓN. C) LA INNOVACIÓN EMPRESARIAL. D) ACTIVIDADES DE CONSULTORÍA, INGENIERÍA, REALIZACIÓN DE CERTIFICACIONES, DICTÁMENES Y CUALQUIER OTRO SERVICIO BASADO EN EL CONOCIMIENTO TECNOLÓGICO Y EMPRESARIAL PARA EMPRESAS Y ORGANIZACIONES EN GENERAL. E) EL DESARROLLO DE PROYECTOS DE EMPRENDIMIENTO E INTERNACIONALIZACIÓN. F) LA FORMACIÓN. G) ACTIVIDADES RELACIONADAS CON EL DESPLIEGUE DE TALENTO TECNOLÓGICO Y DE APOYO A LA GESTIÓN DE RECURSOS HUMANOS EN LAS EMPRESAS. H) ACTIVIDADES DE GESTIÓN INTEGRAL DE PROYECTOS O UNIDADES TECNOLÓGICAS O DE NEGOCIO PARA TERCEROS. I) ACTIVIDADES DE PROMOCIÓN DE LA CULTURA CIENTÍFICO-TECNOLÓGICA Y DE DIFUSIÓN DEL IMPACTO TRANSFORMADOR DE LAS TECNOLOGÍAS EN LOS NEGOCIOS. J) PARTICIPACIÓN Y LIDERAZGO DE ASOCIACIONES EMPRESARIALES INNOVADORES (AEI) Y OTROS INICIATIVAS PARA PROMOVER LA INNOVACIÓN ABIERTA Y COLABORATIVA Y EL FORTALECIMIENTO DEL TEJIDO EMPRESARIAL CATALÁN.",
      "mainEntityOfPage": "https://www.contratacion.euskadi.eus/webkpe00-kperoc/es/ac71aBusquedaRegistrosWar/empresa/08387",
      "_links": {
        "self": {
          "name": "FUNDACIÓ EURECAT",
          "href": "https://api.euskadi.eus/procurements/companies/08387"
        }
      }
    },
    {
      "name": "OKINDEGI GOZOTOKIA EL TALO, S.L.",
      "registrationNumber": "08378",
      "identificationNumber": "B01176155",
      "address": "BARRIO DE GARABO N.1",
      "location": {
        "postalCode": "01195",
        "municipality": "Iruña Oka/Iruña de Oca",
        "county": "Araba/Álava",
        "municipalityId": "901",
        "countyId": "01"
      },
      "economicActivities": [
        {
          "id": "1.419.1",
          "name": "Industria del pan y de la bollería",
          "_links": {
            "self": {
              "name": "Industria del pan y de la bollería",
              "href": "https://api.euskadi.eus/procurements/companies/economic-activities/1.419.1"
            }
          }
        }
      ],
      "certificateStartDate": "2022-05-19",
      "certificateEndDate": "2022-11-19",
      "object": "LA FABRICACIÓN DE PAN DE TODAS CLASES Y DE BOLLERÍA, EL COMERCIO AL POR MENOR DE PAN, PASTELERÍA, CONFITERÍA Y SIMILARES, DE LECHE Y DE PRODUCTOS LÁCTEOS, ASÍ COMO EL COMERCIO AL POR MENOR DE LIBROS, PERIÓDICOS, ARTÍCULOS DE PAPELERÍA Y ESCRITORIO Y ARTÍCULOS DE DIBUJO Y BELLAS ARTES.",
      "mainEntityOfPage": "https://www.contratacion.euskadi.eus/webkpe00-kperoc/es/ac71aBusquedaRegistrosWar/empresa/08378",
      "_links": {
        "self": {
          "name": "OKINDEGI GOZOTOKIA EL TALO, S.L.",
          "href": "https://api.euskadi.eus/procurements/companies/08378"
        }
      }
    },
    {
      "name": "GABINETE EGIA CORREDURÍA DE SEGUROS, S.A.",
      "registrationNumber": "01043",
      "identificationNumber": "A48162598",
      "address": "C/ GRAN VÍA, Nº 38 - 7ª.",
      "location": {
        "postalCode": "48009",
        "municipality": "Bilbao",
        "county": "Bizkaia",
        "municipalityId": "020",
        "countyId": "48"
      },
      "economicActivities": [
        {
          "id": "1.832.1",
          "name": "Agencias de seguros y corredurías de seguros",
          "_links": {
            "self": {
              "name": "Agencias de seguros y corredurías de seguros",
              "href": "https://api.euskadi.eus/procurements/companies/economic-activities/1.832.1"
            }
          }
        }
      ],
      "certificateStartDate": "2022-05-19",
      "certificateEndDate": "2022-11-17",
      "object": "LA CORREDURÍA DE SEGUROS PUDIENDO PRODUCIR, GESTIONAR Y PROPONER LA CONTRATACIÓN DE TODA CLASE DE SEGUROS Y CUALQUIER OTRA ACTIVIDAD LÍCITA DE PROMOCIÓN MEDIACIÓN Y ASESORAMIENTO EN SEGUROS Y QUE SE RELACIONE CON LA CORREDURÍA DE SEGUROS QUE EXISTA O SE CREE EN EL FUTURO DE ACUERDO CON LAS DISPOSICIONES LEGALES VIGENTES EN SU MOMENTO",
      "mainEntityOfPage": "https://www.contratacion.euskadi.eus/webkpe00-kperoc/es/ac71aBusquedaRegistrosWar/empresa/01043",
      "_links": {
        "self": {
          "name": "GABINETE EGIA CORREDURÍA DE SEGUROS, S.A.",
          "href": "https://api.euskadi.eus/procurements/companies/01043"
        }
      }
    },
    {
      "name": "NORTE PINTORES, S. C.",
      "registrationNumber": "08376",
      "identificationNumber": "J01471887",
      "address": "Calle Castillo de Quejana 64 - 4º A",
      "location": {
        "postalCode": "01007",
        "municipality": "Vitoria-Gasteiz",
        "county": "Araba/Álava",
        "municipalityId": "059",
        "countyId": "01"
      },
      "economicActivities": [
        {
          "id": "1.505.6",
          "name": "Pintura, revestimientos y terminación y decoración de locales",
          "_links": {
            "self": {
              "name": "Pintura, revestimientos y terminación y decoración de locales",
              "href": "https://api.euskadi.eus/procurements/companies/economic-activities/1.505.6"
            }
          }
        }
      ],
      "certificateStartDate": "2022-05-18",
      "certificateEndDate": "2022-11-03",
      "object": "LA APLICACIÓN DE PINTURA DE CUALQUIER TIPO Y CLASE Y REVESTIMIENTOS CON PAPEL, TEJIDOS O PLÁSTICOS Y TERMINACIÓN Y DECORACIÓN DE EDIFICIOS Y LOCALES.",
      "mainEntityOfPage": "https://www.contratacion.euskadi.eus/webkpe00-kperoc/es/ac71aBusquedaRegistrosWar/empresa/08376",
      "_links": {
        "self": {
          "name": "NORTE PINTORES, S. C.",
          "href": "https://api.euskadi.eus/procurements/companies/08376"
        }
      }
    },
    {
      "name": "SARA MARTINEZ AGUILLO",
      "registrationNumber": "07075",
      "identificationNumber": "30663034D",
      "address": "ALBERTO ACERO 11, 2-IZDA",
      "location": {
        "postalCode": "01400",
        "municipality": "Laudio/Llodio",
        "county": "Araba/Álava",
        "municipalityId": "036",
        "countyId": "01"
      },
      "economicActivities": [
        {
          "id": "2.411",
          "name": "Arquitectos",
          "_links": {
            "self": {
              "name": "Arquitectos",
              "href": "https://api.euskadi.eus/procurements/companies/economic-activities/2.411"
            }
          }
        }
      ],
      "certificateStartDate": "2022-05-18",
      "certificateEndDate": "2022-11-13",
      "object": "ARQUITECTURA",
      "mainEntityOfPage": "https://www.contratacion.euskadi.eus/webkpe00-kperoc/es/ac71aBusquedaRegistrosWar/empresa/07075",
      "_links": {
        "self": {
          "name": "SARA MARTINEZ AGUILLO",
          "href": "https://api.euskadi.eus/procurements/companies/07075"
        }
      }
    },
    {
      "name": "CONSTRUCCIONES UBARRI, S.L.",
      "registrationNumber": "07182",
      "identificationNumber": "B95879292",
      "address": "Arria z/g",
      "location": {
        "postalCode": "48200",
        "municipality": "Garai",
        "county": "Bizkaia",
        "municipalityId": "039",
        "countyId": "48"
      },
      "economicActivities": [
        {
          "id": "1.501.1",
          "name": "Construcción completa, reparación y conservación de edificaciones",
          "_links": {
            "self": {
              "name": "Construcción completa, reparación y conservación de edificaciones",
              "href": "https://api.euskadi.eus/procurements/companies/economic-activities/1.501.1"
            }
          }
        }
      ],
      "certificateStartDate": "2022-05-17",
      "certificateEndDate": "2022-11-17",
      "object": "1.- LA PROMOCIÓN, CONSTRUCCIÓN, COMPRA, VENTA, ARRENDAMIENTO Y EXPLOTACIÓN EN CUALQUIER FORMA DE TODA CLASE DE EDIFICACIONES, SOLARES E INMUEBLES EN GENERAL, TANTO POR CUENTA PROPIA COMO AJENA. LA REALIZACIÓN, GESTIÓN Y EJECUCIÓN, POR CUALQUIER TÍTULO, DE TODO TIPO DE OBRAS, ALBAÑILERÍA, PINTURA, REFORMAS Y OBRAS EN GENERAL, POR CUENTA PROPIA O AJENA; LA REALIZACIÓN DE SONDEOS, PERFORACIONES, ALLANAMIENTOS, DESMONTES Y CIMENTACIONES, Y DE AISLAMIENTOS E IMPERMEABILIZACIONES; LA SUPERVISIÓN, DIRECCIÓN Y ASESORAMIENTO EN LA EJECUCIÓN DE OBRAS Y CONSTRUCCIONES; LA REHABILITACIÓN Y ACONDICIONAMIENTO DE EDIFICIOS Y LAS DEMÁS ACTIVIDADES INMOBILIARIAS. LA PERFORACIÓN PARA ALUMBRAMIENTO Y ABASTECIMIENTO DE AGUAS. 2.- LA COMPRA, VENTA, IMPORTACIÓN, EXPORTACIÓN Y COMERCIALIZACIÓN EN GENERAL DE TODA CLASE DE MATERIALES DE LA CONSTRUCCIÓN Y/O COMPLEMENTARIOS Y/O DECORATIVOS, MAQUINARÍA INDUSTRIAL, ASÍ COMO CUALQUIERA INSTALACIONES, ELEMENTOS O SERVICIOS DE LAS EDIFICACIONES. 3.- REALIZACIÓN DE ACTIVIDADES DE CONSOLIDACIÓN, RESTAURACIÓN Y PREPARACIÓN DE TERRENOS, MOVIMIENTOS DE TIERRAS, EXCAVACIONES, DERRIBOS, DEMOLICIONES, PERFORACIONES PARA ALUMBRAMIENTO DE AGUAS, CIMENTACIONES Y PAVIMENTACIONES. PREPARACIÓN Y MONTAJE DE ESTRUCTURAS Y CUBIERTAS, POSTES Y TORRES METÁLICAS, CARRILES, COMPUESTAS, GRÚAS. EL RELLENO DE PIEDRA, TIERRA Y RESIDUOS DE CONSTRUCCIÓN NO CONTAMINADOS Y PROCEDENTES DE EXCEDENTES DE OBRAS Y EXCAVACIONES, SU ALMACENAMIENTO, SU TRATAMIENTO, SU CLASIFICACIÓN Y SU RECICLADO PARA SU POSTERIOR COMERCIALIZACIÓN Y VENTA. ESTAS ACTIVIDADES TAMBIÉN PODRÁN SER DESARROLLADAS, DE MODO INDIRECTO, MEDIANTE LA PARTICIPACIÓN EN SOCIEDADES DE ANÁLOGO OBJETO.4.- LA REALIZACIÓN Y CONTRATACIÓN DE TRANSPORTE POR CARRETERA DE MERCANCÍAS DE CUALQUIER TIPO, YA SEA PÚBLICO O PRIVADO, INTERIOR O INTERNACIONAL, ORDINARIO O ESPECIAL, ASÍ COMO LA REALIZACIÓN DE ACTIVIDADES AUXILIARES Y COMPLEMENTARIAS DEL MISMO, YA SE TRATE DE ACTIVIDADES DE MEDIACIÓN, DE CENTRO DE INFORMACIÓN  Y DISTRIBUCIÓN DE CARGAS, DE ALMACENISTAS DISTRIBUIDORES, DE ESTACIONES DE TRANSPORTE O ARRENDAMIENTO DE VEHÍCULOS, ASÍ COMO EL ALMACENAJE Y DISTRIBUCIÓN DE MERCANCÍAS. LA COMPRAVENTA, IMPORTACIÓN Y EXPORTACIÓN Y REPARACIÓN DE VEHÍCULOS AUTOMÓVILES, MAQUINARIA Y ACCESORIOS RELACIONADOS CON LOS MISMOS. LA CONTRATACIÓN DE OBRAS Y SERVICIOS CON CUALQUIER ORGANISMO DE LAS ADMINISTRACIONES PÚBLICAS Y CON ENTIDADES Y PARTICULARES.5.- LA REPRESENTACIÓN COMO AGENTE, COMISIONISTA, DELEGADO O CUALQUIER OTRA FORMA DE MEDIACIÓN MERCANTIL DE EMPRESAS NACIONALES O EXTRANJERAS, DE TODA ÍNDOLE, ASÍ COMO LA EXPLOTACIÓN DE PATENTES, Y DEMÁS DERECHOS DE PROPIEDAD, INDUSTRIA, INCLUIDOS LOS MÉTODOS, PROCEDIMIENTOS Y ORGANIZACIÓN DE TRABAJOS INDUSTRIALES, COMERCIALES O DE OTRA ÍNDOLE. 6.- LA COMPRAVENTA, ARRENDAMIENTO NO FINANCIERO, ADMINISTRACIÓN Y GESTIÓN DE TODO TIPO DE FINCAS Y TODO TIPO DE SERVICIOS INMOBILIARIOS, Y EN GENERAL LA INTERMEDIACIÓN EN EL SECTOR INMOBILIARIO",
      "mainEntityOfPage": "https://www.contratacion.euskadi.eus/webkpe00-kperoc/es/ac71aBusquedaRegistrosWar/empresa/07182",
      "_links": {
        "self": {
          "name": "CONSTRUCCIONES UBARRI, S.L.",
          "href": "https://api.euskadi.eus/procurements/companies/07182"
        }
      }
    }
  ]
}