{
  "totalItems": 9042,
  "totalPages": 905,
  "currentPage": 629,
  "itemsOfPage": 10,
  "items": [
    {
      "name": "FER HIGIENE INDUSTRIAL, S.L.",
      "registrationNumber": "04932",
      "identificationNumber": "B20103438",
      "address": "ASTIGARRAGAKO BIDEA, 2 - 3º DCHA. OF. 8",
      "location": {
        "postalCode": "20180",
        "municipality": "Oiartzun",
        "county": "Gipuzkoa",
        "municipalityId": "063",
        "countyId": "20"
      },
      "economicActivities": [
        {
          "id": "1.614.2",
          "name": "Venta al por mayor de productos de perfumería, droguería, higiene y belleza",
          "_links": {
            "self": {
              "name": "Venta al por mayor de productos de perfumería, droguería, higiene y belleza",
              "href": "https://api.euskadi.eus/procurements/companies/economic-activities/1.614.2"
            }
          }
        }
      ],
      "certificateStartDate": "2018-06-12",
      "certificateEndDate": "2018-12-11",
      "object": "EL DESARROLLO DE LAS SIGUIENTES ACTIVIDADES: LA COMPRA, VENTA, IMPORTACIÓN Y EXPORTACIÓN DE PRODUCTOS, UTILLAJE, HERRAMIENTAS Y MAQUINARIA DE HIGIENE INDUSTRIAL; LA INTERVENCIÓN EN EL COMERCIO DE LOS REFERIDOS PRODUCTOS COMO COMISIONISTA MERCANTIL O REPRESENTANTE, EXCLUSIVO O NO, DE OTRAS FIRMAS FABRICANTES O COMERCIALIZADORAS; EL MANTENIMIENTO Y REPARACIÓN DE MAQUINARIA DE HIGIENE INDUSTRIAL",
      "mainEntityOfPage": "https://www.contratacion.euskadi.eus/webkpe00-kperoc/es/ac71aBusquedaRegistrosWar/empresa/04932",
      "_links": {
        "self": {
          "name": "FER HIGIENE INDUSTRIAL, S.L.",
          "href": "https://api.euskadi.eus/procurements/companies/04932"
        }
      }
    },
    {
      "name": "LURGINTZA, S.L.",
      "registrationNumber": "01858",
      "identificationNumber": "B48723092",
      "address": "Barrio Oxinaga, nº 9",
      "location": {
        "postalCode": "48170",
        "municipality": "Zamudio",
        "county": "Bizkaia",
        "municipalityId": "905",
        "countyId": "48"
      },
      "economicActivities": [
        {
          "id": "1.501.1",
          "name": "Construcción completa, reparación y conservación de edificaciones",
          "_links": {
            "self": {
              "name": "Construcción completa, reparación y conservación de edificaciones",
              "href": "https://api.euskadi.eus/procurements/companies/economic-activities/1.501.1"
            }
          }
        },
        {
          "id": "1.501.2",
          "name": "Construcción completa, reparación y conservación obras civiles",
          "_links": {
            "self": {
              "name": "Construcción completa, reparación y conservación obras civiles",
              "href": "https://api.euskadi.eus/procurements/companies/economic-activities/1.501.2"
            }
          }
        },
        {
          "id": "1.911",
          "name": "Servicios agrícolas y ganaderos",
          "_links": {
            "self": {
              "name": "Servicios agrícolas y ganaderos",
              "href": "https://api.euskadi.eus/procurements/companies/economic-activities/1.911"
            }
          }
        }
      ],
      "certificateStartDate": "2018-06-11",
      "certificateEndDate": "2018-11-02",
      "object": "LA CONTRATACIÓN Y SUBCONTRATACIÓN DE TRABAJOS DE JARDINERÍA, FORMACIÓN, PLANTACIÓN, CONSERVACIÓN, MANTENIMIENTO INTEGRAL, REPOBLACIÓN DE ZONAS AJARDINADAS, TALUDES Y ARBOLADOS, ASÍ COMO EL CULTIVO Y EXPLOTACIÓN DE VIVEROS Y SEMILLEROS. LA COMPRAVENTA, EXPORTACIÓN, IMPORTACIÓN, Y COMERCIALIZACIÓN DE MATERIALES, MAQUINARIA Y VEHÍCULOS PROPIOS DE JARDINERÍA, TANTO POR CUENTA PROPIA COMO AJENA, Y TANTO EN OBRA PÚBLICA COMO PRIVADA",
      "mainEntityOfPage": "https://www.contratacion.euskadi.eus/webkpe00-kperoc/es/ac71aBusquedaRegistrosWar/empresa/01858",
      "_links": {
        "self": {
          "name": "LURGINTZA, S.L.",
          "href": "https://api.euskadi.eus/procurements/companies/01858"
        }
      }
    },
    {
      "name": "CLAN TECNOLOGICA,SL.",
      "registrationNumber": "05784",
      "identificationNumber": "B91514190",
      "address": "C/AZAFRAN 15",
      "location": {
        "postalCode": "41927",
        "municipality": "Mairena del Aljarafe",
        "county": "Sevilla",
        "municipalityId": "059",
        "countyId": "41"
      },
      "economicActivities": [
        {
          "id": "1.654.5",
          "name": "Venta al por menor de toda clase de maquinaría",
          "_links": {
            "self": {
              "name": "Venta al por menor de toda clase de maquinaría",
              "href": "https://api.euskadi.eus/procurements/companies/economic-activities/1.654.5"
            }
          }
        }
      ],
      "certificateStartDate": "2018-06-06",
      "certificateEndDate": "2018-11-09",
      "object": "LA VENTA AL POR MENOR DE INSTRUMENTOS CIENTIFICOS Y TECNICOS ",
      "mainEntityOfPage": "https://www.contratacion.euskadi.eus/webkpe00-kperoc/es/ac71aBusquedaRegistrosWar/empresa/05784",
      "_links": {
        "self": {
          "name": "CLAN TECNOLOGICA,SL.",
          "href": "https://api.euskadi.eus/procurements/companies/05784"
        }
      }
    },
    {
      "name": "ANATRAC A&I, S.A.",
      "registrationNumber": "05785",
      "identificationNumber": "A43689876",
      "address": "C/ SEBASTIÁN ELCANO, 30-32, 1, 19",
      "location": {
        "postalCode": "28012",
        "municipality": "Madrid",
        "county": "Madrid",
        "municipalityId": "079",
        "countyId": "28"
      },
      "economicActivities": [
        {
          "id": "1.617.9",
          "name": "Venta al por mayor interindustrial de otros productos n.c.o.p",
          "_links": {
            "self": {
              "name": "Venta al por mayor interindustrial de otros productos n.c.o.p",
              "href": "https://api.euskadi.eus/procurements/companies/economic-activities/1.617.9"
            }
          }
        },
        {
          "id": "1.843.1",
          "name": "Servicios técnicos de ingeniería",
          "_links": {
            "self": {
              "name": "Servicios técnicos de ingeniería",
              "href": "https://api.euskadi.eus/procurements/companies/economic-activities/1.843.1"
            }
          }
        }
      ],
      "certificateStartDate": "2018-06-06",
      "certificateEndDate": "2018-09-27",
      "object": "LA FABRICACIÓN, VENTA, IMPORTACIÓN, EXPORTACIÓN, MANTENIMIENTO, MONTAJE Y EXPLOTACIÓN DE MÁQUINAS, APARATOS ÚTILES, HERRAMIENTAS Y ACCESORIOS DE APLICACIÓN INDUSTRIAL Y AGRÍCOLA; EL ESTUDIO, PROYECCIÓN Y REALIZACIÓN, MANTENIMIENTO Y REPARACIÓN, DE TODA CLASE DE INSTALACIONES ELÉCTRICAS, ELECTRÓNICAS, INSTRUMENTACIÓN, ANALIZADORES, SISTEMAS DE CONTROL, REGULACIÓN, SISTEMAS DE SEGURIDAD, DETECCIÓN Y EXTINCIÓN DE INCENDIOS, DE FONTANERÍA, MECÁNICA, CARPINTERÍA, ALBAÑILERÍA, DE SEÑALIZACIÓN Y ELECTRIFICACIÓN, DE DISTRIBUCIÓN, CONDUCCIÓN Y EVACUACIÓN DE LÍQUIDOS Y GASES, DE FRÍO, CALOR Y ACONDICIONAMIENTO, DE AIRE, DE APARATOS ELEVADORES DE TODA CLASE, TELEFÓNICAS, TELEGRÁFICAS, DE TELEVISIÓN Y SISTEMAS DE TELECOMUNICACIONES DE TODO TIPO E ÍNDOLE, PARA USOS URBANOS O INDUSTRIALES EN TODA CLASE DE EDIFICIOS, INDUSTRIAS Y CONSTRUCCIONES PÚBLICAS O PRIVADAS. - LA FABRICACIÓN, REPRESENTACIÓN, COMERCIALIZACIÓN, DISTRIBUCIÓN, IMPORTACIÓN Y EXPORTACIÓN DE PANELES Y EQUIPOS ELÉCTRICOS, ANALÍTICOS, INSTRUMENTACIÓN, DE RADIOFRECUENCIA, SISTEMAS DE SEGURIDAD, DETECCIÓN Y EXTINCIÓN DE INCENDIOS Y MECÁNICOS. - LA REALIZACIÓN DE ESTUDIOS, PROYECTOS, LEGALIZACION, CONSULTORÍA Y ASESORAMIENTO TÉCNICO A OTRAS EMPRESAS Y LA REALIZACIÓN DE CUALQUIER CLASE DE TRABAJOS DE INGENIERÍA, Y EN ESPECIAL, LOS TRABAJOS DE INGENIERÍA ELECTRÓNICA (DE INSTRUMENTACIÓN , ANALIZADORES, SISTEMAS DE CONTROL Y REGULACIÓN), DE RADIOELÉCTRICA, MECÁNICA, TELECOMUNICACIONES, GAS Y SISTEMAS DE SEGURIDAD EN GENERAL. - EL MONTAJE Y MANTENIMIENTO DE CUALQUIER TIPO DE INSTALACIONES ELÉCTRICAS DE BAJA Y ALTA TENSIÓN, INSTRUMENTACIÓN, TELECOMUNICACIONES, DE GAS Y SISTEMAS DE SEGURIDAD EN GENERAL, TANTO INDUSTRIALES COMO URBANAS Y DOMÉSTICAS. - LA REALIZACIÓN DE ESTUDIOS Y TRABAJOS RELACIONADOS CON TODAS LAS ACTIVIDADES INDUSTRIALES O COMERCIALES QUE TENGAN POR OBJETO LA REGULACIÓN Y EL CONTROL AUTOMÁTICO, ES DECIR DE UN MODO GENERAL, LA AUTOMATIZACIÓN. - COMPRA, VENTA, IMPORTACIÓN, EXPORTACIÓN, MONTAJE Y EXPLOTACIÓN DE MÁQUINAS, APARATOS ÚTILES, HERRAMIENTAS Y ACCESORIOS DE APLICACIÓN INDUSTRIAL, COMERCIAL Y AGRARIA. - LA ACTIVIDAD DE ARRENDAMIENTO DE EMPRESAS, BIENES E INSTALACIONES DE TODAS CLASES. - PODRÁ CONSTRUIR, ADQUIRIR, GRAVAR Y ENAJENAR BIENES INMUEBLES, TOMAR O CEDER EN ARRIENDO Y SUBARRIENDO LOCALES, INSTALACIONES Y SERVICIOS, TANTO EN CALIDAD DE ARRENDADOR COMO DE ARRENDATARIO, TOMAR PARTICIPACIONES EN OTRAS EMPRESAS O SOCIEDADES MEDIANTE LA PERTINENTE SUSCRIPCIÓN O ADQUISICIÓN DE ACCIONES O EN CUALQUIER FORMA PERMITIDA POR LA LEY. - LA PARTICIPACIÓN EN OTRAS SOCIEDADES DE IDÉNTICO O ANÁLOGO OBJETO, PARA EL DESARROLLO DEL PROPIO DE ESTA SOCIEDAD, MEDIANTE LA SUSCRIPCIÓN DE ACCIONES O PARTICIPACIONES EN LA FUNDACIÓN O AUMENTO DE CAPITAL DE LAS MISMAS O LA ADQUISICIÓN DE ELLAS POR CUALQUIER TÍTULO. - CONSULTORÍA DE ASESORAMIENTO, AUDITORÍAS, REALIZACIÓN Y/O GESTIÓN PARA LA EMISIÓN DE CERTIFICADOS, ACREDITACIONES Y MARCADO, DE INSTALACIONES, MAQUINARIAS, APARATOS, ÚTILES, EQUIPOS, HERRAMIENTAS Y ACCESORIOS EN LOS ÁMBITOS DE APLICACIÓN INDUSTRIAL, MEDIOAMBIENTAL, COMERCIAL, AGRARIO Y DOMÉSTICO, COMO ORGANISMO NOTIFICADO Y/O ENTIDAD COLABORADORA ACREDITADA POR LA ADMINISTRACIÓN. - CLASIFICAR EMPLAZAMIENTOS CON PRESENCIA DE LÍQUIDOS, GASES Y/O POLVOS INFLAMABLES Y/O COMBUSTIBLES, SELECCIÓN DE EQUIPOS E INSTRUMENTOS PARA DICHOS EMPLAZAMIENTOS, EMISIÓN DE CERTIFICADOS O DOCUMENTOS, MARCADO DE EQUIPOS E INSTRUMENTOS, ELABORACIÓN DE PROYECTOS, AUTORIZACIONES DE PUESTA EN SERVICIO, INSPECCIONES, REVISIONES Y MANTENIMIENTO INCLUIDAS REPARACIONES, PARA EQUIPOS ANTIDEFLAGRANTES, CANALIZACIONES, EQUIPOS Y SISTEMAS DE SEGURIDAD INTRÍNSECA, BUSES DE COMUNICACIONES, EQUIPOS DE SEGURIDAD AUMENTADA, INSTALACIONES PRESURIDAS, CASETAS Y/O RECINTOS DE SISTEMAS DE CONTROL, ELÉCTRICOS, INSTRUMENTACIÓN Y ANALIZADORES, Y CUALQUIER OTRA INSTALACIÓN EN ATMÓSFERAS EXPLOSIVAS Y EMPLAZAMIENTOS PELIGROSOS. - PLANIFICAR, DESARROLLAR, DIFUNDIR E IMPARTIR FORMACIÓN A CLIENTES, USUARIOS, CENTROS, INSTITUCIONES Y ASOCIACIONES EDUCATIVAS, COLECTIVOS O INDIVIDUALES, PÚBLICOS Y PRIVADOS, PROPORCIONANDO LOS MEDIOS MATERIALES, DIDÁCTICOS Y PEDAGÓGICOS ACORDES A CADA NECESIDAD FORMATIVA, EVALUAR LOS RESULTADOS Y EXTENDER LOS DIPLOMAS ACREDITATIVOS, PARA TODAS LAS ACTIVIDADES QUE, ACTUALMENTE, LA SOCIEDAD TENDRÁ POR OBJETO, INHERENTES DE LA MISMA Y DESCRITAS EN ESTE MISMO ARTÍCULO, Y LAS QUE EN UN FUTURO PRÓXIMO PUDIERA AÑADIR A SU OBJETO SOCIAL",
      "mainEntityOfPage": "https://www.contratacion.euskadi.eus/webkpe00-kperoc/es/ac71aBusquedaRegistrosWar/empresa/05785",
      "_links": {
        "self": {
          "name": "ANATRAC A&I, S.A.",
          "href": "https://api.euskadi.eus/procurements/companies/05785"
        }
      }
    },
    {
      "name": "SAKURA PRODUCTOS HOSPITALARIOS, S.A.",
      "registrationNumber": "01526",
      "identificationNumber": "A39038963",
      "address": "C/ FUENTELVIEJO, Nº 55.",
      "location": {
        "postalCode": "28022",
        "municipality": "Madrid",
        "county": "Madrid",
        "municipalityId": "079",
        "countyId": "28"
      },
      "economicActivities": [
        {
          "id": "1.619.2",
          "name": "Venta al por mayor de aparatos e instrumentos médicos, ortopédicos, ópticos",
          "_links": {
            "self": {
              "name": "Venta al por mayor de aparatos e instrumentos médicos, ortopédicos, ópticos",
              "href": "https://api.euskadi.eus/procurements/companies/economic-activities/1.619.2"
            }
          }
        }
      ],
      "certificateStartDate": "2018-06-05",
      "certificateEndDate": "2018-11-17",
      "object": "LA DISTRIBUCIÓN Y VENTA EN ESPAÑA DE INSTRUMENTOS Y EQUIPOS DE ELECTROMEDICINA Y ELECTRORRADIOLOGÍA, CON DESTINO A CENTROS MÉDICOS, CLÍNICAS, INDUSTRIAS Y EMPRESAS DE INVESTIGACIÓN, TANTO PÚBLICOS COMO PRIVADOS, ASÍ COMO LA DISTRIBUCIÓN Y VENTA DE PELÍCULAS O FILMES RADIOLÓGICOS, MATERIALES CONSUMIBLES DE ALGÚN MODO RELACIONADOS CON EL FUNCIONAMIENTO DE DICHOS EQUIPOS E INSTRUMENTOS, EXCLUÍDOS EN TODO CASO PRODUCTOS FARMACÉUTICOS, ASÍ COMO LAS ACTIVIDADES RELATIVAS A LA ASISTENCIA TÉCNICA, CONSERVACIÓN, MANTENIMIENTO Y REPARACIÓN DE LOS CITADOS INSTRUMENTOS Y EQUIPOS. DISEÑO, FABRICACIÓN, IMPORTACIÓN, SUMINISTRO, ARRENDAMIENTO CON Y SIN OPCIÓN DE COMPRA, COMPRAVENTA, COMERCIALIZACIÓN, INSTALACIÓN Y REPARACIÓN DE PRODUCTOS Y EQUIPOS MÉDICOS, RADIOLÓGICOS, DE ELECTROMEDICINA E INFORMÁTICOS (SISTEMAS PARA TRATAMIENTO, ALMACENAMIENTO Y GESTIÓN DE IMÁGENES MÉDICAS). LA INGENERÍA Y LOS SERVICIOS EN EL ÁMBITO SANITARIO Y NUEVOS DESARROLLOS DE LAS TELECOMUNICACIONES. DENTRO DE LOS SERVICIOS SE INCLUIRÁ LA CONSULTORÍA, INGENIERÍA, INTEGRACIÓN DE SISTEMAS, DESARROLLO DE SOFTWARE, COMERCIALIZACIÓN DE EQUIPOS INFORMÁTICOS Y DE TELECOMUNICACIONES, COMERCIALIZACIÓN DE PRODUCTOS, LICENCIAS  APLICACIONES SOFTWARE Y, EN GENERAL, CUALQUIER OTRO SERVICIO DE VALOR AÑADIDO DEDICADO AL DESARROLLO DE NUEVOS NEGOCIOS EN EL ÁREA DE TELEMEDICINA, LAS TELECOMUNICACIONES E INTERNET. LA FABRICACIÓN DE PRODUCTOS QUÍMICOS NO FARMACÉUTICOS. LA EXPLOTACIÓN AGRÍCOLA DE TODA CLASE DE TERRENOS RÚSTICOS. LA EXPLOTACIÓN DE GANADERÍA DE TODAS CLASES. EL DISFRUTE Y LA EXPLOTACIÓN DE COTOS DE CAZA MAYOR Y MENOR. LA ELABORACIÓN POR CUALQUIER MEDIO O PROCEDIMIENTO DE TODA CLASE DE VINOS Y LICORES, CERVEZAS Y, EN GENERAL, TODA CLASE DE BEBIDAS ALCOHÓLICAS, EN BODEGAS, FÁBRICAS O DESTILERÍAS DE CUALQUIER TIPO, SEAN O NO PROPIEDAD DE LA SOCIEDAD, INCLUÍDA LA ADQUISICIÓN DE LAS MATERIAS PRIMAS NEDESARIAS Y EL ENVASADO DE LOS PRODUCTOS ELABORADOS. LA COMERCIALIZACIÓN Y EXPLOTACIÓN DIRECTA O INDIRECTA DE TALES PRODUCTOS, CUALQUIERA QUE SEA EL MEDIO O PROCEDIMIENTO QUE SE UTILICE A TALES EFECTOS",
      "mainEntityOfPage": "https://www.contratacion.euskadi.eus/webkpe00-kperoc/es/ac71aBusquedaRegistrosWar/empresa/01526",
      "_links": {
        "self": {
          "name": "SAKURA PRODUCTOS HOSPITALARIOS, S.A.",
          "href": "https://api.euskadi.eus/procurements/companies/01526"
        }
      }
    },
    {
      "name": "IRUDIA COMUNICACIÓN, S.L.",
      "registrationNumber": "05783",
      "identificationNumber": "B01361716",
      "address": "Uribe 2-2A",
      "location": {
        "postalCode": "01240",
        "municipality": "Alegría-Dulantzi",
        "county": "Araba/Álava",
        "municipalityId": "001",
        "countyId": "01"
      },
      "economicActivities": [
        {
          "id": "1.631",
          "name": "Intermediarios del comercio",
          "_links": {
            "self": {
              "name": "Intermediarios del comercio",
              "href": "https://api.euskadi.eus/procurements/companies/economic-activities/1.631"
            }
          }
        },
        {
          "id": "1.659.3",
          "name": "Venta al por menor de aparatos médicos, ortopédicos, ópticos y fotográficos",
          "_links": {
            "self": {
              "name": "Venta al por menor de aparatos médicos, ortopédicos, ópticos y fotográficos",
              "href": "https://api.euskadi.eus/procurements/companies/economic-activities/1.659.3"
            }
          }
        },
        {
          "id": "1.845",
          "name": "Explotación electrónica por cuenta de terceros",
          "_links": {
            "self": {
              "name": "Explotación electrónica por cuenta de terceros",
              "href": "https://api.euskadi.eus/procurements/companies/economic-activities/1.845"
            }
          }
        },
        {
          "id": "1.934",
          "name": "Enseñanza fuera de establecimiento permanente",
          "_links": {
            "self": {
              "name": "Enseñanza fuera de establecimiento permanente",
              "href": "https://api.euskadi.eus/procurements/companies/economic-activities/1.934"
            }
          }
        },
        {
          "id": "1.936",
          "name": "Investigación científica y técnica",
          "_links": {
            "self": {
              "name": "Investigación científica y técnica",
              "href": "https://api.euskadi.eus/procurements/companies/economic-activities/1.936"
            }
          }
        },
        {
          "id": "1.966.9",
          "name": "Otros servicios culturales n.c.o.p",
          "_links": {
            "self": {
              "name": "Otros servicios culturales n.c.o.p",
              "href": "https://api.euskadi.eus/procurements/companies/economic-activities/1.966.9"
            }
          }
        }
      ],
      "certificateStartDate": "2018-06-04",
      "certificateEndDate": "2018-11-30",
      "object": "CURSOS DE FORMACIÓN Y SOPORTE TÉCNICO DENTRO DEL SECTOR AUDIOVISUAL. LA EDICIÓN Y POSTPRODUCCIÓN DE VIDEO Y AUDIO. EL DISEÑO Y GESTIÓN DE PÁGINES WEB",
      "mainEntityOfPage": "https://www.contratacion.euskadi.eus/webkpe00-kperoc/es/ac71aBusquedaRegistrosWar/empresa/05783",
      "_links": {
        "self": {
          "name": "IRUDIA COMUNICACIÓN, S.L.",
          "href": "https://api.euskadi.eus/procurements/companies/05783"
        }
      }
    },
    {
      "name": "SETOLAZAR ENERGIA Y MEDIOAMBIENTE,S.L.",
      "registrationNumber": "05775",
      "identificationNumber": "B86392164",
      "address": "c/ Los Nardos, 14 ",
      "location": {
        "postalCode": "28970",
        "municipality": "Humanes de Madrid",
        "county": "Madrid",
        "municipalityId": "073",
        "countyId": "28"
      },
      "economicActivities": [
        {
          "id": "1.315",
          "name": "Construcción de grandes depósitos y calderería gruesa",
          "_links": {
            "self": {
              "name": "Construcción de grandes depósitos y calderería gruesa",
              "href": "https://api.euskadi.eus/procurements/companies/economic-activities/1.315"
            }
          }
        },
        {
          "id": "1.843.1",
          "name": "Servicios técnicos de ingeniería",
          "_links": {
            "self": {
              "name": "Servicios técnicos de ingeniería",
              "href": "https://api.euskadi.eus/procurements/companies/economic-activities/1.843.1"
            }
          }
        }
      ],
      "certificateStartDate": "2018-05-30",
      "certificateEndDate": "2018-10-06",
      "object": "LA REALIZACIÓN Y PRESTACIÓN DE SERVICIOS, POR ENCARGO Y EN INTERÉS DE OTRAS EMPRESAS YA SEAN PRIVADAS O PÚBLICAS, INCLUÍDA LA ADMINISTRACIÓN PÚBLICA ESTATAL, AUTONÓMICA Y LOCAL, EN TODOS SUS NIVELES, ASÍ COMO SUS ORGANISMOS DEPENDIENTES, EN MATERIA DE: A) ASESORAMIENTO Y CONSULTORÍA; INVESTIGACIÓN, PREPARACIÓN Y REDACCIÓN DE ESTUDIOS DE INGENIERÍA, GESTIÓN Y REALIZACIÓN DE PROYECTOS; DISEÑO BÁSICO E INGENIERÍA DE INTEGRACIÓN Y DE DETALLE; SUPERVISIÓN DE CONSTRUCCIÓN Y MONTAJE; CONTROL, VIGILANCIA E INSPECCIÓN DE EQUIPOS, OBRAS E INSTALACIONES; DIRECCIÓN DE OBRAS; REALIZACIÓN DE PLANTAS \"LLAVE EN MANO\", CONSERVACIÓN Y MANTENIMIENTO Y OTROS SERVICIOS COMO REPRESENTACIÓN COMERCIAL DE PRODUCTOS, FORMACIÓN DE PERSONAL, TRATAMIENTOS INFORMÁTICOS, SISTEMAS Y CONTROL DE CALIDAD, ENCUESTAS, INVENTARIOS, SERVICIOS DE APOYO A LA EXPLOTACIÓN Y DE OPERACIÓN DE INSTALACIONES ELÉCTRICAS, ETC., RELACIONADOS TODOS ELLOS CON LAS ACTIVIDADES O GRUPOS DE ACTIVIDAD DE ECOLOGÍA, ENERGÍAS RENOVABLES Y MEDIOAMBIENTE EN GENERAL, TRATAMIENTO DE RESIDUOS; PLANTAS PARA LA PRODUCCIÓN O TRANSFORMACIÓN DE ENERGÍA; LÍNEAS DE TRANSPORTE Y SISTEMAS DE DISTRIBUCIÓN DE PRODUCTOS ENERGÉTICOS Y OTROS FLUIDOS; PLANTAS INDUSTRIALES DE TODO TIPO; URBANISMO Y EDIFICACIÓN; EDIFICACIONES E INSTALACIONES DEPORTIVAS O LÚDICAS, DEPURACIÓN INDUSTRIAL Y URBANA; PLANTAS QUÍMICAS E INSTALACIONES DE SEGURIDAD. B) ESTUDIOS ECONÓMICOS Y COMERCIALES; INGENIERÍA Y CONSULTORÍA DE GESTIÓN, COMERCIAL, ADMINISTRATIVA, INFORMÁTICA, DE RECURSOS HUMANOS, ECONÓMICO-ADMINISTRATIVA, DE PREVENCIÓN DE RIESGOS LABORALES, DE ORGANIZACIÓN Y DE PLANIFICACIÓN DE INVERSIONES; AUTOMATIZACIÓN; ETC..., Y, EN GENERAL, TODA CLASE DE ESTUDIOS, PROYECTOS Y OBRAS, PRIVADOS Y PÚBLICOS INCLUYENDO LOS RELATIVOS A LA INVESTIGACIÓN, DESARROLLO E INNOVACIÓN EN LOS ÁMBITOS INDICADOS EN EL APARTADO ANTERIOR. 2) LA REALIZACIÓN Y PRESTACIÓN DE SERVICIOS EN EL ÁMBITO ENERGÉTICO, EN GENERAL, Y EN CONCRETO EN ACTIVIDADES DE CONSTRUCCIÓN, MONTAJE Y OPERACIÓN DE EQUIPOS PARA PRODUCCIÓN DE ENERGÍA ELÉCTRICA, AUTOMATIZACIÓN Y CONTROL DE LA ENERGÍA, COGENERACIÓN, MICROGENERACIÓN, ENERGÍA SOLAR, APROVECHAMIENTO ENERGÉTICO DE RESIDUOS Y ENERGÍAS RENOVABLES EN GENERAL",
      "mainEntityOfPage": "https://www.contratacion.euskadi.eus/webkpe00-kperoc/es/ac71aBusquedaRegistrosWar/empresa/05775",
      "_links": {
        "self": {
          "name": "SETOLAZAR ENERGIA Y MEDIOAMBIENTE,S.L.",
          "href": "https://api.euskadi.eus/procurements/companies/05775"
        }
      }
    },
    {
      "name": "PROYECTOS DEL NORTE 2011, S.L.",
      "registrationNumber": "05773",
      "identificationNumber": "B95655205",
      "address": "POLIGONO INDUSTRIAL ISASI PARCELA 40 NAVE 5",
      "location": {
        "postalCode": "48192",
        "municipality": "Gordexola",
        "county": "Bizkaia",
        "municipalityId": "042",
        "countyId": "48"
      },
      "economicActivities": [
        {
          "id": "1.502.3",
          "name": "Consolidación y preparación de terrenos para la realización de obras civiles",
          "_links": {
            "self": {
              "name": "Consolidación y preparación de terrenos para la realización de obras civiles",
              "href": "https://api.euskadi.eus/procurements/companies/economic-activities/1.502.3"
            }
          }
        },
        {
          "id": "1.852",
          "name": "Alquiler de maquinaria y equipo para la construcción",
          "_links": {
            "self": {
              "name": "Alquiler de maquinaria y equipo para la construcción",
              "href": "https://api.euskadi.eus/procurements/companies/economic-activities/1.852"
            }
          }
        }
      ],
      "certificateStartDate": "2018-05-29",
      "certificateEndDate": "2018-09-01",
      "object": "ALQUILER Y VENTA DE TODO TIPO DE MAQUINARIA INDUSTRIAL, ASÍ COMO DE VEHÍCULOS INDUSTRIALES",
      "mainEntityOfPage": "https://www.contratacion.euskadi.eus/webkpe00-kperoc/es/ac71aBusquedaRegistrosWar/empresa/05773",
      "_links": {
        "self": {
          "name": "PROYECTOS DEL NORTE 2011, S.L.",
          "href": "https://api.euskadi.eus/procurements/companies/05773"
        }
      }
    },
    {
      "name": "IMPRENTA SACAL, S.L.",
      "registrationNumber": "02510",
      "identificationNumber": "B01025709",
      "address": "C/ BARRACHI, 2 -Pabellones 8-10",
      "location": {
        "postalCode": "01013",
        "municipality": "Vitoria-Gasteiz",
        "county": "Araba/Álava",
        "municipalityId": "059",
        "countyId": "01"
      },
      "economicActivities": [
        {
          "id": "1.474",
          "name": "Artes gráficas (impresión gráfica)",
          "_links": {
            "self": {
              "name": "Artes gráficas (impresión gráfica)",
              "href": "https://api.euskadi.eus/procurements/companies/economic-activities/1.474"
            }
          }
        }
      ],
      "certificateStartDate": "2018-05-25",
      "certificateEndDate": "2018-11-03",
      "object": "LA EXPLOTACIÓN DEL NEGOCIO DE IMPRENTA Y LIBRERÍA, ES DECIR, TIPOGRAFÍA Y OFFSET, ASÍ COMO COMPRAVENTA DE LIBROS, MATERIAL ESCOLAR Y DE OFICINA",
      "mainEntityOfPage": "https://www.contratacion.euskadi.eus/webkpe00-kperoc/es/ac71aBusquedaRegistrosWar/empresa/02510",
      "_links": {
        "self": {
          "name": "IMPRENTA SACAL, S.L.",
          "href": "https://api.euskadi.eus/procurements/companies/02510"
        }
      }
    },
    {
      "name": "VARIAN MEDICAL SYSTEMS IBÉRICA, S.L.",
      "registrationNumber": "03383",
      "identificationNumber": "B82246422",
      "address": "AVDA DE LA INDUSTRIA, 9-EDF ISÓSCELES 1º-2º",
      "location": {
        "postalCode": "28108",
        "municipality": "Alcobendas",
        "county": "Madrid",
        "municipalityId": "006",
        "countyId": "28"
      },
      "economicActivities": [
        {
          "id": "1.619.7",
          "name": "Venta al por mayor de instrumentos de precisión, medida y similares",
          "_links": {
            "self": {
              "name": "Venta al por mayor de instrumentos de precisión, medida y similares",
              "href": "https://api.euskadi.eus/procurements/companies/economic-activities/1.619.7"
            }
          }
        },
        {
          "id": "1.692",
          "name": "Reparación de maquinaria industrial",
          "_links": {
            "self": {
              "name": "Reparación de maquinaria industrial",
              "href": "https://api.euskadi.eus/procurements/companies/economic-activities/1.692"
            }
          }
        }
      ],
      "certificateStartDate": "2018-05-24",
      "certificateEndDate": "2018-09-05",
      "object": "COMPRA, VENTA, REPRESENTACIÓN SEA CUAL FUERE LA FORMA, MANTENIMIENTO, REPARACIÓN, ESTUDIO Y FABRICACIÓN DE EQUIPO MÉDICO EN GENERAL Y CONCRETAMENTE PARA EL TRATAMIENTO DEL CÁNCER Y DE IMAGEN, LA PRESTACIÓN DE SERVICIOS EN EL CAMPO DE DICHOS EQUIPOS MÉDICOS Y LA ADQUISICIÓN DE PARTICIPACIONES EN SOCIEDADES CUYA ACTIVIDAD PUDIERA ESTAR RELACIONADA CON LOS MENCIONADOS EQUIPOS MÉDICOS",
      "mainEntityOfPage": "https://www.contratacion.euskadi.eus/webkpe00-kperoc/es/ac71aBusquedaRegistrosWar/empresa/03383",
      "_links": {
        "self": {
          "name": "VARIAN MEDICAL SYSTEMS IBÉRICA, S.L.",
          "href": "https://api.euskadi.eus/procurements/companies/03383"
        }
      }
    }
  ]
}