{
  "totalItems": 9042,
  "totalPages": 905,
  "currentPage": 120,
  "itemsOfPage": 10,
  "items": [
    {
      "name": "ASFALTIA, S.L.",
      "registrationNumber": "05145",
      "identificationNumber": "B47607775",
      "address": "ANTONIO VALVERDE, 2",
      "location": {
        "postalCode": "20014",
        "municipality": "Donostia / San Sebastián",
        "county": "Gipuzkoa",
        "municipalityId": "069",
        "countyId": "20"
      },
      "economicActivities": [
        {
          "id": "1.249",
          "name": "Industrias de otros productos minerales no metálicos n.c.o.p",
          "_links": {
            "self": {
              "name": "Industrias de otros productos minerales no metálicos n.c.o.p",
              "href": "https://api.euskadi.eus/procurements/companies/economic-activities/1.249"
            }
          }
        },
        {
          "id": "1.507",
          "name": "Construcción, reparación y conservación de toda clase obras",
          "_links": {
            "self": {
              "name": "Construcción, reparación y conservación de toda clase obras",
              "href": "https://api.euskadi.eus/procurements/companies/economic-activities/1.507"
            }
          }
        }
      ],
      "certificateStartDate": "2025-12-11",
      "certificateEndDate": "2026-06-05",
      "object": "LA EXPLOTACIÓN DE PLANTAS DE AGLOMERADO ASFÁLTICO Y DE HORMIGONES, ASÍ COMO ADQUIRIR, EXPLOTAR, REHABILITAR Y GESTIONAR CUALQUIER TIPO DE CANTERA. LA FABRICACIÓN, VENTA Y COLOCACIÓN DE PRODUCTOS QUÍMICOS ESPECIALMENTE RELACIONADOS CON EL ASFALTO, COMO IMPERMEABILIZANTES, EMULSIONES O ADITIVOS, ASÍ COMO LA COMERCIALIZACIÓN DE PRODUCTOS INDUSTRIALES EN GENERAL, MAQUINARIA, VENTA DE ADITIVOS Y REPRESENTACIONES SEAN COMERCIALES, INDUSTRIALES O DE SERVICIOS. LA PROMOCIÓN, LA CONTRATACIÓN Y REALIZACIÓN DE TODO TIPO DE OBRAS Y SERVICIOS CON CUALQUIER ORGANISMO DE LAS ADMINISTRACIONES PÚBLICAS Y CON TODA CLASE DE ENTIDADES Y PARTICULARES, ASÍ COMO SU REPARACIÓN Y CONSERVACIÓN Y TODA CLASE DE DERRIBOS. LA CONSERVACIÓN, MANTENIMIENTO O EXPLOTACIÓN DE VIALES E INFRAESTRUCTURAS, AUTOPISTAS, CARRETERAS, VÍAS Y FERROCARRILES, TÚNELES U OTRAS INFRAESTRUCTURAS VIARIAS, O TRAMOS DE ELLAS, ASÍ COMO LA CONSTRUCCIÓN EJECUCIÓN, EXPLOTACIÓN Y PRESTACIÓN DE TODO TIPO DE SERVICIOS RELACIONADOS CON LA INFRAESTRUCTURA DEL TRANSPORTE, YA SEA POR VÍA TERRESTRE, MARÍTIMA O AÉREA. LA EJECUCIÓN Y MANTENIMIENTO DE INSTALACIONES ELÉCTRICAS EN GENERAL, INSTALACIONES DE TELECOMUNICACIÓN, INSTALACIONES ELECTRÓNICAS E INSTALACIONES DE SISTEMAS DE SEÑALIZACIÓN Y BALIZAMIENTO DE PUERTOS, AEROPUERTOS Y CARRETERAS, INSTALACIONES DE SEGURIDAD Y CONTRA INCENDIOS. LA EJECUCIÓN Y MANTENIMIENTO DE INSTALACIONES MECÁNICAS EN GENERAL, INSTALACIONES DE FONTANERÍA, INSTALACIONES FRIGORÍFICAS, INSTALACIONES DE CALEFACCIÓN, VENTILACIÓN Y CLIMATIZACIÓN E INSTALACIONES ELEVADORAS Y TRANSPORTADORAS. LA CONSTRUCCIÓN, MANTENIMIENTO, EXPLOTACIÓN Y GESTIÓN DE REDES DE ABASTECIMIENTO DE AGUAS; LA EJECUCIÓN, MANTENIMIENTO Y EXPLOTACIÓN DE OBRAS DE JARDINERÍA Y SERVICIOS DE MANTENIMIENTO, CONSERVACIÓN, EXPLOTACIÓN Y GESTIÓN DE PLAYAS Y RÍOS. LA REALIZACIÓN DE TODA CLASE DE INFORMES, ESTUDIOS Y PROYECTOS TÉCNICOS, PROYECTOS Y DIRECCIÓN DE OBRA, CONTROL DE CALIDAD, INGENIERÍA, SERVICIOS INTEGRALES DE CONSULTORÍA TÉCNICA, INVESTIGACIÓN Y PRESTACIÓN DE SERVICIOS DE ASISTENCIA, ASESORAMIENTO Y GESTIÓN TÉCNICA, ADMINISTRATIVA Y COMERCIAL, INCLUYENDO AQUELLOS RELACONADOS CON EL MEDIO AMBIENTE EN GENERAL Y EL PATRIMONIO NACIONAL E HISTÓRICO Y AUDITORÍAS. LA GESTIÓN, ADMINISTRACIÓN, ADQUISICIÓN, PROMOCIÓN, ENAJENACIÓN, REHABILITACIÓN Y EXPLOTACIÓN EN CUALQUIER FORMA DE SOLARES, TERRENOS, CONJUNTOS RESIDENCIALES, URBANIZACIONES O PROMOCIONES INMOBILIARIAS Y, EN GENERAL, DE TODA CLASE DE BIENES INMUEBLES, ASÍ COMO EL MANTENIMIENTO INTEGRAL DE EDIFICIOS. LA CONSTRUCCIÓN, EL MANTENIMIENTO Y EXPLOTACIÓN DE PARKINGS DE VEHÍCULOS. LA REALIZACIÓN DE PROYECTOS, PROMOCIÓN, CONSTITUCIÓN Y PARTICIPACIÓN EN OTRAS SOCIEDADES Y EMPRESAS MEDIANTE LA SUSCRIPCIÓN, ADQUISICIÓN Y POSESIÓN DE ACCIONES, PARTICIPACIONES Y CUALESQUIERA OTROS TÍTULOS Y VALORES, ASÍ COMO TODA CLASE DE NEGOCIOS RELACIONADOS CON LA COMPRAVENTA Y SUSCRIPCIÓN DE VALORES MOBILIARIOS, TANTO DE RENTA FIJA COMO VARIABLE, POR CUENTA PROPIA, EXCLUYENDO LA INTERMEDIACIÓN FINANCIERA Y LA CAPTACIÓN DE AHORRO PÚBLICO Y LAS ACTIVIDADES PROPIAS DE LAS INSTITUCIONES DE INVERSIÓN COLECTIVA Y DE LOS MIEMBROS DE LAS BOLSAS DE VALORES. LA TITULARIDAD DE TODA CLASE DE CONCESIONES, SUBCONCESIONES, AUTORIZACIONES Y LICENCIAS ADMINISTRATIVAS DE OBRAS, SERVICIOS Y MIXTAS, DEL ESTADO, COMUNIDADES AUTÓNOMAS, PROVINCIAS, MUNICIPIOS, ORGANISMOS AUTÓNOMOS, ENTIDADES AUTÓNOMAS, ASÍ COMO DE CUALQUIER ESTADO EXTRANJERO O INSTITUCIONES INTERNACIONALES. EL TRATAMIENTO Y GESTIÓN DE RESIDUOS DE TODO TIPO, LAS ACTIVIDADES DE RECUPERACIÓN Y RECICLAJE, EXPLOTACIÓN DE ENERGÍAS ALTERNATIVAS. LA DESCONTAMINACIÓN DE SUELOS Y LA GESTIÓN DE ESPACIOS NATURALES, REFORESTACIÓN DE SUELOS Y RESTAURACIÓN INDUSTRIAL, INCLUYENDO ESTUDIOS E INSTALACIONES DE TRATAMIENTO DE AGUA, AIRE Y GASES, CONTAMINACIÓN ATMOSFÉRICA, ASÍ COMO VERTEDEROS Y ESTACIONES DE TRATAMIENTO DE LIXIVIADOS, RESIDUOS Y OTROS. LA CONSTRUCCIÓN, EXPLOTACIÓN, ADECUACIÓN Y MANTENIMIENTO DE ESCOMBRERAS. EL TRATAMIENTO DE RESIDUOS Y LÍQUIDOS DE TODO TIPO. EL SERVICIO DE GESTIÓN INTEGRADA DE BASURAS, TANTO EN LO QUE SE REFIERE A SU RECOGIDA COMO A SU DEPURACIÓN, TRANSFORMACIÓN Y TRATAMIENTO, ASÍ COMO PRESTACIÓN DE SERVICIOS RELACIONADOS CON EL MEDIO AMBIENTE; EL CONTROL DE HUMOS Y RUIDOS",
      "mainEntityOfPage": "https://www.contratacion.euskadi.eus/webkpe00-kperoc/es/ac71aBusquedaRegistrosWar/empresa/05145",
      "_links": {
        "self": {
          "name": "ASFALTIA, S.L.",
          "href": "https://api.euskadi.eus/procurements/companies/05145"
        }
      }
    },
    {
      "name": "ULACIA BIDAIAK, S.L.",
      "registrationNumber": "03871",
      "identificationNumber": "B20515672",
      "address": "ALTZOLA KALEA, 7-3º DCHA.",
      "location": {
        "postalCode": "20800",
        "municipality": "Zarautz",
        "county": "Gipuzkoa",
        "municipalityId": "079",
        "countyId": "20"
      },
      "economicActivities": [
        {
          "id": "1.721.3",
          "name": "Transporte de viajeros por carretera",
          "_links": {
            "self": {
              "name": "Transporte de viajeros por carretera",
              "href": "https://api.euskadi.eus/procurements/companies/economic-activities/1.721.3"
            }
          }
        }
      ],
      "certificateStartDate": "2025-12-11",
      "certificateEndDate": "2026-06-05",
      "classification": [
        {
          "id": "S",
          "name": "Servicios",
          "groups": [
            {
              "id": "R",
              "subgroups": [
                {
                  "id": "01",
                  "name": "Transporte de viajeros por carretera",
                  "categories": [
                    {
                      "id": "5",
                      "name": "Mas de 1.200.000",
                      "_links": {
                        "self": {
                          "name": "Mas de 1.200.000",
                          "href": "https://api.euskadi.eus/procurements/companies/types/S/categories/5"
                        }
                      }
                    }
                  ],
                  "_links": {
                    "self": {
                      "name": "Transporte de viajeros por carretera",
                      "href": "https://api.euskadi.eus/procurements/companies/types/S/groups/R/subgroups/01"
                    }
                  }
                }
              ],
              "_links": {
                "self": {
                  "href": "https://api.euskadi.eus/procurements/companies/types/S/groups/R"
                }
              }
            }
          ],
          "_links": {
            "self": {
              "name": "Servicios",
              "href": "https://api.euskadi.eus/procurements/companies/types/S"
            }
          }
        }
      ],
      "object": "EL TRANSPORTE DE VIAJEROS POR CARRETERA TANTO NACIONAL COMO INTERNACIONAL",
      "mainEntityOfPage": "https://www.contratacion.euskadi.eus/webkpe00-kperoc/es/ac71aBusquedaRegistrosWar/empresa/03871",
      "_links": {
        "self": {
          "name": "ULACIA BIDAIAK, S.L.",
          "href": "https://api.euskadi.eus/procurements/companies/03871"
        }
      }
    },
    {
      "name": "SISTEMAS AVANZADOS DE TECNOLOGÍA, S.A.",
      "registrationNumber": "02478",
      "identificationNumber": "A33117995",
      "address": "AVDA. DE EUROPA, 34 A",
      "location": {
        "postalCode": "28023",
        "municipality": "Madrid",
        "county": "Madrid",
        "municipalityId": "079",
        "countyId": "28"
      },
      "economicActivities": [
        {
          "id": "1.843.1",
          "name": "Servicios técnicos de ingeniería",
          "_links": {
            "self": {
              "name": "Servicios técnicos de ingeniería",
              "href": "https://api.euskadi.eus/procurements/companies/economic-activities/1.843.1"
            }
          }
        },
        {
          "id": "1.845",
          "name": "Explotación electrónica por cuenta de terceros",
          "_links": {
            "self": {
              "name": "Explotación electrónica por cuenta de terceros",
              "href": "https://api.euskadi.eus/procurements/companies/economic-activities/1.845"
            }
          }
        },
        {
          "id": "1.932.2",
          "name": "Enseñanza de formación y perfeccionamiento profesional superior",
          "_links": {
            "self": {
              "name": "Enseñanza de formación y perfeccionamiento profesional superior",
              "href": "https://api.euskadi.eus/procurements/companies/economic-activities/1.932.2"
            }
          }
        }
      ],
      "certificateStartDate": "2025-12-11",
      "certificateEndDate": "2026-05-27",
      "object": "LA COMERCIALIZACIÓN DE EQUIPOS Y SERVICIOS INFORMÁTICOS Y PRODUCTOS RELACIONADOS CON ELLOS, ASÍ COMO LOS SERVICIOS DE MANENIMIENTO DE LOS MISMOS. PRESTACIÓN DE SERVICIOS DE CONSULTORÍA Y ASESORÍA",
      "mainEntityOfPage": "https://www.contratacion.euskadi.eus/webkpe00-kperoc/es/ac71aBusquedaRegistrosWar/empresa/02478",
      "_links": {
        "self": {
          "name": "SISTEMAS AVANZADOS DE TECNOLOGÍA, S.A.",
          "href": "https://api.euskadi.eus/procurements/companies/02478"
        }
      }
    },
    {
      "name": "DEBA BEHEKO KONTENEDOREAK, S.L.",
      "registrationNumber": "05944",
      "identificationNumber": "B48631253",
      "address": "Barrio Okinzuri  25(48260)",
      "location": {
        "postalCode": "48260",
        "municipality": "Ermua",
        "county": "Bizkaia",
        "municipalityId": "034",
        "countyId": "48"
      },
      "economicActivities": [
        {
          "id": "1.622",
          "name": "Venta al por mayor de otros productos de recuperación",
          "_links": {
            "self": {
              "name": "Venta al por mayor de otros productos de recuperación",
              "href": "https://api.euskadi.eus/procurements/companies/economic-activities/1.622"
            }
          }
        },
        {
          "id": "1.722",
          "name": "Transporte de mercancías por carretera",
          "_links": {
            "self": {
              "name": "Transporte de mercancías por carretera",
              "href": "https://api.euskadi.eus/procurements/companies/economic-activities/1.722"
            }
          }
        }
      ],
      "certificateStartDate": "2025-12-11",
      "certificateEndDate": "2026-05-10",
      "object": "ALQUILER, CARGA Y DESCARGA DE CONTENEDORES, Y EL TRANSPORTE DE MERCANCIAS POR CARRETERA.",
      "mainEntityOfPage": "https://www.contratacion.euskadi.eus/webkpe00-kperoc/es/ac71aBusquedaRegistrosWar/empresa/05944",
      "_links": {
        "self": {
          "name": "DEBA BEHEKO KONTENEDOREAK, S.L.",
          "href": "https://api.euskadi.eus/procurements/companies/05944"
        }
      }
    },
    {
      "name": "BASAERAIKI SOCIEDAD LIMITADA",
      "registrationNumber": "08277",
      "identificationNumber": "B95639084",
      "address": "balendin berriotxoa, 21 bajo",
      "location": {
        "postalCode": "48970",
        "municipality": "Basauri",
        "county": "Bizkaia",
        "municipalityId": "015",
        "countyId": "48"
      },
      "economicActivities": [
        {
          "id": "1.501.1",
          "name": "Construcción completa, reparación y conservación de edificaciones",
          "_links": {
            "self": {
              "name": "Construcción completa, reparación y conservación de edificaciones",
              "href": "https://api.euskadi.eus/procurements/companies/economic-activities/1.501.1"
            }
          }
        }
      ],
      "certificateStartDate": "2025-12-11",
      "certificateEndDate": "2026-06-07",
      "object": "LA CONSTRUCCIÓN, PROMOCIÓN, PROYECTO, DIRECCIÓN TÉCNICA, DE TODO TIPO DE OBRAS PÚBLICAS Y PRIVADAS, INCLUSO VIVIENDAS DE PROTECCIÓN OFICIAL, EN TODAS SUS CATEGORÍAS; LA PARTICIPACIÓN EN LA REDACCIÓN DE PLANES DE URBANISMO Y SU EJECUCIÓN PRÁCTICA; LA CONTRATACIÓN Y SUBCONTRATACIÓN DE OBRAS DE TODO TIPO. LA ADQUISICIÓN Y ENAJENACIÓN POR CUALQUIER TÍTULO, DE FINCAS RÚSTICAS Y URBANAS, YA SEAN TIERRAS, SOLARES O EDIFICIOS; LA CONSTRACCIÓN DE ÉSTOS Y LA ADMIISTRACIÓN, TENENCIA, EXPLOTACIÓN Y ARRENDAMIENTO, YA SEA ACTIVO O PASIVO, EN TALES BIENES Y SU VENTA, TOTAL O PARCIAL, SEGÚN CONVENGA, PARA SU APROVECHAMIENTO AGRÍCOLA, FORESTAL, URBANO, INDUSTRIAL O CUALQUIER OTRO. TENENCIA DE PARTICIPACIONES DE LAS SOCIEDADES FILIALES EN LAS QUE PARTICIPA. PRESTACIÓN DE SERVICIOS DE ASESORAMIENTO ECONÓMICO. INTERMEDIACIÓN COMERCIAL REALIZACIÓN DE ACTOS DE COMERCIO POR CUENTA DE SUS COMITENTES EN TODAS LAS FASES DE LA COMERCIALIZACIÓN DE TODA CLASE DE PRODUCTOS. ADQUIRIR, ENAJENAR Y ARRENDAR BIENEES INMUEBLES (CONCRETAMENTE LOS DETERMINADOS EN EL ARTÍCULO 334.1 DEL CÓDIGO CIVIL), ACCIONES, PARTICIPACIONES SOCIALES, OBLIGACIONES, BONOS DE CAJA, CERTIFICADOS DE DEPÓSITO Y PAGARÉS DE TODA CLASE DE EMPRESAS O NEGOCIOS",
      "mainEntityOfPage": "https://www.contratacion.euskadi.eus/webkpe00-kperoc/es/ac71aBusquedaRegistrosWar/empresa/08277",
      "_links": {
        "self": {
          "name": "BASAERAIKI SOCIEDAD LIMITADA",
          "href": "https://api.euskadi.eus/procurements/companies/08277"
        }
      }
    },
    {
      "name": "EKIALDEBUS, S.L.",
      "registrationNumber": "08880",
      "identificationNumber": "B75024638",
      "address": "POLIGONO INDUSTRIAL TXIPLAU 29",
      "location": {
        "postalCode": "20280",
        "municipality": "Hondarribia",
        "county": "Gipuzkoa",
        "municipalityId": "036",
        "countyId": "20"
      },
      "economicActivities": [
        {
          "id": "1.655.2",
          "name": "Venta al por menor de gases combustibles de todas clases",
          "_links": {
            "self": {
              "name": "Venta al por menor de gases combustibles de todas clases",
              "href": "https://api.euskadi.eus/procurements/companies/economic-activities/1.655.2"
            }
          }
        },
        {
          "id": "1.721.3",
          "name": "Transporte de viajeros por carretera",
          "_links": {
            "self": {
              "name": "Transporte de viajeros por carretera",
              "href": "https://api.euskadi.eus/procurements/companies/economic-activities/1.721.3"
            }
          }
        }
      ],
      "certificateStartDate": "2025-12-11",
      "certificateEndDate": "2026-06-06",
      "classification": [
        {
          "id": "S",
          "name": "Servicios",
          "groups": [
            {
              "id": "R",
              "subgroups": [
                {
                  "id": "01",
                  "name": "Transporte de viajeros por carretera",
                  "categories": [
                    {
                      "id": "5",
                      "name": "Mas de 1.200.000",
                      "_links": {
                        "self": {
                          "name": "Mas de 1.200.000",
                          "href": "https://api.euskadi.eus/procurements/companies/types/S/categories/5"
                        }
                      }
                    }
                  ],
                  "_links": {
                    "self": {
                      "name": "Transporte de viajeros por carretera",
                      "href": "https://api.euskadi.eus/procurements/companies/types/S/groups/R/subgroups/01"
                    }
                  }
                }
              ],
              "_links": {
                "self": {
                  "href": "https://api.euskadi.eus/procurements/companies/types/S/groups/R"
                }
              }
            }
          ],
          "_links": {
            "self": {
              "name": "Servicios",
              "href": "https://api.euskadi.eus/procurements/companies/types/S"
            }
          }
        }
      ],
      "object": "EL TRANSPORTE PÚBLICO DE VIAJEROS EN SUPERFICIE EN CUALQUIERA DE SUS MODALIDADES.",
      "mainEntityOfPage": "https://www.contratacion.euskadi.eus/webkpe00-kperoc/es/ac71aBusquedaRegistrosWar/empresa/08880",
      "_links": {
        "self": {
          "name": "EKIALDEBUS, S.L.",
          "href": "https://api.euskadi.eus/procurements/companies/08880"
        }
      }
    },
    {
      "name": "PREVITASA, S.L",
      "registrationNumber": "05064",
      "identificationNumber": "B20702502",
      "address": "Pº GALICIA, 26 BAJO",
      "location": {
        "postalCode": "20015",
        "municipality": "Donostia / San Sebastián",
        "county": "Gipuzkoa",
        "municipalityId": "069",
        "countyId": "20"
      },
      "economicActivities": [
        {
          "id": "1.843.9",
          "name": "Otros servicios técnicos n.c.o.p",
          "_links": {
            "self": {
              "name": "Otros servicios técnicos n.c.o.p",
              "href": "https://api.euskadi.eus/procurements/companies/economic-activities/1.843.9"
            }
          }
        },
        {
          "id": "1.861.2",
          "name": "Alquiler de locales industriales y otros alquileres n.c.o.p",
          "_links": {
            "self": {
              "name": "Alquiler de locales industriales y otros alquileres n.c.o.p",
              "href": "https://api.euskadi.eus/procurements/companies/economic-activities/1.861.2"
            }
          }
        }
      ],
      "certificateStartDate": "2025-12-11",
      "certificateEndDate": "2026-05-30",
      "object": "LA GESTION DE LA PREVENCION DE RIESGOS LABORALES",
      "mainEntityOfPage": "https://www.contratacion.euskadi.eus/webkpe00-kperoc/es/ac71aBusquedaRegistrosWar/empresa/05064",
      "_links": {
        "self": {
          "name": "PREVITASA, S.L",
          "href": "https://api.euskadi.eus/procurements/companies/05064"
        }
      }
    },
    {
      "name": "HOSFRINOR, S.L.",
      "registrationNumber": "07447",
      "identificationNumber": "B20401253",
      "address": "POKOPANDEGI, 8",
      "location": {
        "postalCode": "20018",
        "municipality": "Donostia / San Sebastián",
        "county": "Gipuzkoa",
        "municipalityId": "069",
        "countyId": "20"
      },
      "economicActivities": [
        {
          "id": "1.504.3",
          "name": "Instalaciones de frío, calor y acondicionamiento de aire",
          "_links": {
            "self": {
              "name": "Instalaciones de frío, calor y acondicionamiento de aire",
              "href": "https://api.euskadi.eus/procurements/companies/economic-activities/1.504.3"
            }
          }
        },
        {
          "id": "1.654.5",
          "name": "Venta al por menor de toda clase de maquinaría",
          "_links": {
            "self": {
              "name": "Venta al por menor de toda clase de maquinaría",
              "href": "https://api.euskadi.eus/procurements/companies/economic-activities/1.654.5"
            }
          }
        }
      ],
      "certificateStartDate": "2025-12-11",
      "certificateEndDate": "2026-06-08",
      "object": "LA VENTA E INSTALACIÓN DE MAQUINARIA, MATERIAL Y ELEMENTOS PARA LA HOSTELERÍA",
      "mainEntityOfPage": "https://www.contratacion.euskadi.eus/webkpe00-kperoc/es/ac71aBusquedaRegistrosWar/empresa/07447",
      "_links": {
        "self": {
          "name": "HOSFRINOR, S.L.",
          "href": "https://api.euskadi.eus/procurements/companies/07447"
        }
      }
    },
    {
      "name": "ELAI SERBITZUAK, S.L.",
      "registrationNumber": "03366",
      "identificationNumber": "B95279907",
      "address": "CL/ EL ARBOL, PABELLÓN 19",
      "location": {
        "postalCode": "48980",
        "municipality": "Santurtzi",
        "county": "Bizkaia",
        "municipalityId": "082",
        "countyId": "48"
      },
      "economicActivities": [
        {
          "id": "1.911",
          "name": "Servicios agrícolas y ganaderos",
          "_links": {
            "self": {
              "name": "Servicios agrícolas y ganaderos",
              "href": "https://api.euskadi.eus/procurements/companies/economic-activities/1.911"
            }
          }
        }
      ],
      "certificateStartDate": "2025-12-11",
      "certificateEndDate": "2026-05-23",
      "object": "A- PRODUCCIÓN DE PLANTAS ORNAMENTALES Y MANTENIMIENTO DE JARDINES. B- ACTIVIDADES RELACIONADAS CON LA FORMACIÓN A CARGO DE LA EMPRESA TANTO DE FUTUROS EMPLEADOS COMO A TERCEROS. C- ASESORÍA Y CONSULTORÍA. LAS ACTIVIDADES QUE LO REQUIEREN SE REALIZARÁN POR PROFESIONALES DEBIDAMENTE TITULADOS. D- LA PROMOCIÓN, CONSTRUCCIÓN, COMPRA, VENTA, ARRENDAMIENTO Y COMERCIALIZACIÓN EN GENERAL DE TODA CLASE DE EDIFICACIONES, TERRENOS, SOLARES, FINCAS RÚSTICAS Y URBANAS; LA EDIFICACIÓN, URBANIZACIÓN, EXCAVACIÓN, CIMENTACIÓN Y DERRIBO, BIEN POR CUENTA PROPIA COMO AJENA, ASÍ COMO LA ENAJENACIÓN, VENTA, ARRIENDO O EXPLOTACIÓN, EN CUALQUIER FORMA DE TODA CLASE DE INMUEBLES, EDIFICIOS, PISOS, APARTAMENTOS, LOCALES COMERCIALES O INDUSTRIALES, OFICINAS Y HOTELES O ESTABLECIMIENTOS DE HOSTELERÍA EN GENERAL. E- TODA CLASE DE OPERACIONES INMOBILIARIAS SOBRE FINCAS RÚSTICAS Y URBANAS, PROMOCIÓN DE CONTRATOS O REALIZACIONES DE PARCELACIONES, UBANIZACIONES, CONSTRUCCIONES Y OBRAS PRIVADAS O PÚBLICAS, LA VENTA, HIPOTECA, ARRENDAMIENTO, TRANSFORMACIÓN, MEJORA, ADMINISTRACIÓN, PUESTA EN EXPLOTACIÓN Y LA EXPLOTACIÓN MISMA, DE FINCAS RÚSTICAS Y URBANAS, LA ORGANIZACIÓN, PROMOCIÓN, ASESORAMIENTO Y GESTIÓN EN SU CASO DE SOCIEDADES, COOPERATIVAS, COMUNIDADES, ENTIDADES, GRUPOS O EMPRESAS PARTICULARES ORIENTADAS A LA CONSTRUCCIÓN O URBANIZACIÓN, LA PLANIFICACIÓN Y ESTUDIO DE MERCADOS EN MATERIA INMOBILIARIA. F- LA GESTIÓN, DIRECCIÓN Y EJECUCIÓN POR CUENTA PROPIA O AJENA DE TODA CLASE DE CONSTRUCCIONES, INSTALACIONES, REFORMAS, REHABILITACIONES, DECORACIONES Y OBRAS DE RESTAURACIÓN EXTERNA E INTERNA DE ESTRUCTURAS Y REVESTIMIENTOS DE EDIFICIOS Y MONUMENTOS, LIMPIEZA, IMPERMEABILIZACIÓN, TRATAMIENTO, PINTURA, RECONSTRUCCIÓN Y LA IMPLANTACIÓN, CUIDADO Y MANTENIMIENTO DE JARDINES Y EXPLOTACIONES FORESTALES. LA SUPERVISIÓN Y CONTROL DE OBRAS, ASÍ COMO LA COORDINACIÓN DE GREMIOS, EL ASESORAMIETNO Y LA ASISTENCIA TÉCNICA EN TODO CUENTO SE RELACIONE CON EL CAMPO DE LA CONSTRUCCIÓN DE EDIFICIOS Y DE LAS OBRAS PÚBLICAS O CIVILES. G- ADQUISICIÓN, TENENCIA, DISFRUTE, ADMINISTRACIÓN Y ENAJENACIÓN DE VALORES MOBILIARIOS DE RENTA FIJA O VARIABLE, EMITIDOS POR TODA CLASE DE EMPRESAS, POR CUENTA PROPIA Y CON EXCEPCIÓN DE LA INTERMEDIACIÓN, QUEDANDO FUERA LAS ACTIVIDADES OBJETO DE LA LEGISLACIÓN DE INSTITUCIONES DE INVERSIÓN COLECTIVA Y DE MERCADO DE VALORES. H- PRESTACIÓN DE SERVICIOS DE ASESORAMIENTO CONTABLE, ECONÓMICO, FINANCIERO, COMERIAL ADMINISTRATIVO Y TRIBUTARIO.",
      "mainEntityOfPage": "https://www.contratacion.euskadi.eus/webkpe00-kperoc/es/ac71aBusquedaRegistrosWar/empresa/03366",
      "_links": {
        "self": {
          "name": "ELAI SERBITZUAK, S.L.",
          "href": "https://api.euskadi.eus/procurements/companies/03366"
        }
      }
    },
    {
      "name": "INGENIERIA CRUZ MARQUÉS, S.L.P.",
      "registrationNumber": "07208",
      "identificationNumber": "B26312769",
      "address": "C/BLANCO LAC  12 BAJO",
      "location": {
        "postalCode": "26005",
        "municipality": "Logroño",
        "county": "Rioja, La",
        "municipalityId": "089",
        "countyId": "26"
      },
      "economicActivities": [
        {
          "id": "1.504.1",
          "name": "Instalaciones eléctricas en general",
          "_links": {
            "self": {
              "name": "Instalaciones eléctricas en general",
              "href": "https://api.euskadi.eus/procurements/companies/economic-activities/1.504.1"
            }
          }
        },
        {
          "id": "1.843.1",
          "name": "Servicios técnicos de ingeniería",
          "_links": {
            "self": {
              "name": "Servicios técnicos de ingeniería",
              "href": "https://api.euskadi.eus/procurements/companies/economic-activities/1.843.1"
            }
          }
        }
      ],
      "certificateStartDate": "2025-12-11",
      "certificateEndDate": "2026-06-07",
      "object": "LA ACTIVIDAD PROPIA DEL EJERCICIO DE LA INGENIERÍA TÉCNICA INDUSTRIAL",
      "mainEntityOfPage": "https://www.contratacion.euskadi.eus/webkpe00-kperoc/es/ac71aBusquedaRegistrosWar/empresa/07208",
      "_links": {
        "self": {
          "name": "INGENIERIA CRUZ MARQUÉS, S.L.P.",
          "href": "https://api.euskadi.eus/procurements/companies/07208"
        }
      }
    }
  ]
}