{
  "totalItems": 9042,
  "totalPages": 905,
  "currentPage": 846,
  "itemsOfPage": 10,
  "items": [
    {
      "name": "GUIÑADONA, S.L.",
      "registrationNumber": "02786",
      "identificationNumber": "B95285953",
      "address": "C/ RAFAELA IBARRA, 6 - 4º DCHA.",
      "location": {
        "postalCode": "48014",
        "municipality": "Bilbao",
        "county": "Bizkaia",
        "municipalityId": "020",
        "countyId": "48"
      },
      "object": "PENDIENTE",
      "mainEntityOfPage": "https://www.contratacion.euskadi.eus/webkpe00-kperoc/es/ac71aBusquedaRegistrosWar/empresa/02786",
      "_links": {
        "self": {
          "name": "GUIÑADONA, S.L.",
          "href": "https://api.euskadi.eus/procurements/companies/02786"
        }
      }
    },
    {
      "name": "SERVICIOS Y TRÁFICOS FLUVIALES DEL NERVIÓN, S.L.",
      "registrationNumber": "02799",
      "identificationNumber": "B95222659",
      "address": "SAN VICENTE, 8. EDIFICIO ALBIA, I-PLANTA 9ª",
      "location": {
        "postalCode": "48001",
        "municipality": "Bilbao",
        "county": "Bizkaia",
        "municipalityId": "020",
        "countyId": "48"
      },
      "object": "pendiente",
      "mainEntityOfPage": "https://www.contratacion.euskadi.eus/webkpe00-kperoc/es/ac71aBusquedaRegistrosWar/empresa/02799",
      "_links": {
        "self": {
          "name": "SERVICIOS Y TRÁFICOS FLUVIALES DEL NERVIÓN, S.L.",
          "href": "https://api.euskadi.eus/procurements/companies/02799"
        }
      }
    },
    {
      "name": "AIXERROTA 2000, S.L.",
      "registrationNumber": "02801",
      "identificationNumber": "B95256475",
      "address": "MAIDAGAN, 7-2º C",
      "location": {
        "postalCode": "48993",
        "municipality": "Getxo",
        "county": "Bizkaia",
        "municipalityId": "044",
        "countyId": "48"
      },
      "object": "1",
      "mainEntityOfPage": "https://www.contratacion.euskadi.eus/webkpe00-kperoc/es/ac71aBusquedaRegistrosWar/empresa/02801",
      "_links": {
        "self": {
          "name": "AIXERROTA 2000, S.L.",
          "href": "https://api.euskadi.eus/procurements/companies/02801"
        }
      }
    },
    {
      "name": "MUGURUZA ETXEGINTZA, S.A.",
      "registrationNumber": "02834",
      "identificationNumber": "A20766572",
      "address": "SAN JUAN, 20 1º- EDIFICIO AXIRI",
      "location": {
        "postalCode": "20720",
        "municipality": "Azkoitia",
        "county": "Gipuzkoa",
        "municipalityId": "017",
        "countyId": "20"
      },
      "object": "1",
      "mainEntityOfPage": "https://www.contratacion.euskadi.eus/webkpe00-kperoc/es/ac71aBusquedaRegistrosWar/empresa/02834",
      "_links": {
        "self": {
          "name": "MUGURUZA ETXEGINTZA, S.A.",
          "href": "https://api.euskadi.eus/procurements/companies/02834"
        }
      }
    },
    {
      "name": "SAIATU ETXEGINTZA, S.A.",
      "registrationNumber": "02877",
      "identificationNumber": "A20190948",
      "address": "PABLO VI, 18 BAJO",
      "location": {
        "postalCode": "20730",
        "municipality": "Azpeitia",
        "county": "Gipuzkoa",
        "municipalityId": "018",
        "countyId": "20"
      },
      "object": "pte",
      "mainEntityOfPage": "https://www.contratacion.euskadi.eus/webkpe00-kperoc/es/ac71aBusquedaRegistrosWar/empresa/02877",
      "_links": {
        "self": {
          "name": "SAIATU ETXEGINTZA, S.A.",
          "href": "https://api.euskadi.eus/procurements/companies/02877"
        }
      }
    },
    {
      "name": "MOGILUR, S.L.",
      "registrationNumber": "02878",
      "identificationNumber": "B20780359",
      "address": "NAFARROA KALEA, 50",
      "location": {
        "postalCode": "20800",
        "municipality": "Zarautz",
        "county": "Gipuzkoa",
        "municipalityId": "079",
        "countyId": "20"
      },
      "object": "pte.",
      "mainEntityOfPage": "https://www.contratacion.euskadi.eus/webkpe00-kperoc/es/ac71aBusquedaRegistrosWar/empresa/02878",
      "_links": {
        "self": {
          "name": "MOGILUR, S.L.",
          "href": "https://api.euskadi.eus/procurements/companies/02878"
        }
      }
    },
    {
      "name": "EQUIPAMIENTO INTEGRAL PARA STANDS MOLINOS, S.L.",
      "registrationNumber": "02881",
      "identificationNumber": "B95111514",
      "address": "POLÍGONO INDUSTRIAL GRANADA MODULOS E1, E2, E3",
      "location": {
        "postalCode": "48530",
        "municipality": "Ortuella",
        "county": "Bizkaia",
        "municipalityId": "083",
        "countyId": "48"
      },
      "object": "pte",
      "mainEntityOfPage": "https://www.contratacion.euskadi.eus/webkpe00-kperoc/es/ac71aBusquedaRegistrosWar/empresa/02881",
      "_links": {
        "self": {
          "name": "EQUIPAMIENTO INTEGRAL PARA STANDS MOLINOS, S.L.",
          "href": "https://api.euskadi.eus/procurements/companies/02881"
        }
      }
    },
    {
      "name": "JOSE JAVIER PANGUA SUSAETA",
      "registrationNumber": "02884",
      "identificationNumber": "15970050T",
      "address": "JESUS GURIDI, 3 - BAJO",
      "location": {
        "postalCode": "20100",
        "municipality": "Errenteria",
        "county": "Gipuzkoa",
        "municipalityId": "067",
        "countyId": "20"
      },
      "object": "Pendiente",
      "mainEntityOfPage": "https://www.contratacion.euskadi.eus/webkpe00-kperoc/es/ac71aBusquedaRegistrosWar/empresa/02884",
      "_links": {
        "self": {
          "name": "JOSE JAVIER PANGUA SUSAETA",
          "href": "https://api.euskadi.eus/procurements/companies/02884"
        }
      }
    },
    {
      "name": "MIREN ESTÍBALIZ MARTÍNEZ DE LUNA UNANUE",
      "registrationNumber": "02886",
      "identificationNumber": "16287328Q",
      "address": "C/TENERÍAS 1-2º C",
      "location": {
        "postalCode": "01012",
        "municipality": "Vitoria-Gasteiz",
        "county": "Araba/Álava",
        "municipalityId": "059",
        "countyId": "01"
      },
      "object": "Pte",
      "mainEntityOfPage": "https://www.contratacion.euskadi.eus/webkpe00-kperoc/es/ac71aBusquedaRegistrosWar/empresa/02886",
      "_links": {
        "self": {
          "name": "MIREN ESTÍBALIZ MARTÍNEZ DE LUNA UNANUE",
          "href": "https://api.euskadi.eus/procurements/companies/02886"
        }
      }
    },
    {
      "name": "SIGE CONTRATAS Y CONSTRUCCIONES, S.L.",
      "registrationNumber": "02917",
      "identificationNumber": "B95176434",
      "address": "AVDA. JOSE LUIS GOIOAGA, 32 - 3º OFIC. 307",
      "location": {
        "postalCode": "48950",
        "municipality": "Erandio",
        "county": "Bizkaia",
        "municipalityId": "902",
        "countyId": "48"
      },
      "classification": [
        {
          "id": "O",
          "name": "Obras",
          "groups": [
            {
              "id": "C",
              "name": "EDIFICACIONES",
              "subgroups": [
                {
                  "id": "01",
                  "name": "DEMOLICIONES",
                  "categories": [
                    {
                      "id": "3",
                      "name": "Desde 360.001 Hasta 840.000",
                      "_links": {
                        "self": {
                          "name": "Desde 360.001 Hasta 840.000",
                          "href": "https://api.euskadi.eus/procurements/companies/types/O/categories/3"
                        }
                      }
                    }
                  ],
                  "_links": {
                    "self": {
                      "name": "DEMOLICIONES",
                      "href": "https://api.euskadi.eus/procurements/companies/types/O/groups/C/subgroups/01"
                    }
                  }
                },
                {
                  "id": "02",
                  "name": "ESTRUCTURAS DE FABRICA U HORMIGÓN",
                  "categories": [
                    {
                      "id": "3",
                      "name": "Desde 360.001 Hasta 840.000",
                      "_links": {
                        "self": {
                          "name": "Desde 360.001 Hasta 840.000",
                          "href": "https://api.euskadi.eus/procurements/companies/types/O/categories/3"
                        }
                      }
                    }
                  ],
                  "_links": {
                    "self": {
                      "name": "ESTRUCTURAS DE FABRICA U HORMIGÓN",
                      "href": "https://api.euskadi.eus/procurements/companies/types/O/groups/C/subgroups/02"
                    }
                  }
                },
                {
                  "id": "03",
                  "name": "ESTRUCTURAS METALICAS",
                  "categories": [
                    {
                      "id": "3",
                      "name": "Desde 360.001 Hasta 840.000",
                      "_links": {
                        "self": {
                          "name": "Desde 360.001 Hasta 840.000",
                          "href": "https://api.euskadi.eus/procurements/companies/types/O/categories/3"
                        }
                      }
                    }
                  ],
                  "_links": {
                    "self": {
                      "name": "ESTRUCTURAS METALICAS",
                      "href": "https://api.euskadi.eus/procurements/companies/types/O/groups/C/subgroups/03"
                    }
                  }
                },
                {
                  "id": "04",
                  "name": "ALBAÑILERIA, REVOCOS Y REVESTIDOS",
                  "categories": [
                    {
                      "id": "3",
                      "name": "Desde 360.001 Hasta 840.000",
                      "_links": {
                        "self": {
                          "name": "Desde 360.001 Hasta 840.000",
                          "href": "https://api.euskadi.eus/procurements/companies/types/O/categories/3"
                        }
                      }
                    }
                  ],
                  "_links": {
                    "self": {
                      "name": "ALBAÑILERIA, REVOCOS Y REVESTIDOS",
                      "href": "https://api.euskadi.eus/procurements/companies/types/O/groups/C/subgroups/04"
                    }
                  }
                },
                {
                  "id": "05",
                  "name": "CANTERIA Y MARMOLERIA",
                  "categories": [
                    {
                      "id": "3",
                      "name": "Desde 360.001 Hasta 840.000",
                      "_links": {
                        "self": {
                          "name": "Desde 360.001 Hasta 840.000",
                          "href": "https://api.euskadi.eus/procurements/companies/types/O/categories/3"
                        }
                      }
                    }
                  ],
                  "_links": {
                    "self": {
                      "name": "CANTERIA Y MARMOLERIA",
                      "href": "https://api.euskadi.eus/procurements/companies/types/O/groups/C/subgroups/05"
                    }
                  }
                },
                {
                  "id": "06",
                  "name": "PAVIMENTOS, SOLADOS Y ALICATADOS",
                  "categories": [
                    {
                      "id": "3",
                      "name": "Desde 360.001 Hasta 840.000",
                      "_links": {
                        "self": {
                          "name": "Desde 360.001 Hasta 840.000",
                          "href": "https://api.euskadi.eus/procurements/companies/types/O/categories/3"
                        }
                      }
                    }
                  ],
                  "_links": {
                    "self": {
                      "name": "PAVIMENTOS, SOLADOS Y ALICATADOS",
                      "href": "https://api.euskadi.eus/procurements/companies/types/O/groups/C/subgroups/06"
                    }
                  }
                },
                {
                  "id": "07",
                  "name": "AISLAMIENTOS E IMPERMEABILIZACIONES",
                  "categories": [
                    {
                      "id": "3",
                      "name": "Desde 360.001 Hasta 840.000",
                      "_links": {
                        "self": {
                          "name": "Desde 360.001 Hasta 840.000",
                          "href": "https://api.euskadi.eus/procurements/companies/types/O/categories/3"
                        }
                      }
                    }
                  ],
                  "_links": {
                    "self": {
                      "name": "AISLAMIENTOS E IMPERMEABILIZACIONES",
                      "href": "https://api.euskadi.eus/procurements/companies/types/O/groups/C/subgroups/07"
                    }
                  }
                },
                {
                  "id": "08",
                  "name": "CARPINTERIA DE MADERA",
                  "categories": [
                    {
                      "id": "3",
                      "name": "Desde 360.001 Hasta 840.000",
                      "_links": {
                        "self": {
                          "name": "Desde 360.001 Hasta 840.000",
                          "href": "https://api.euskadi.eus/procurements/companies/types/O/categories/3"
                        }
                      }
                    }
                  ],
                  "_links": {
                    "self": {
                      "name": "CARPINTERIA DE MADERA",
                      "href": "https://api.euskadi.eus/procurements/companies/types/O/groups/C/subgroups/08"
                    }
                  }
                },
                {
                  "id": "09",
                  "name": "CARPINTERIA METALICA",
                  "categories": [
                    {
                      "id": "3",
                      "name": "Desde 360.001 Hasta 840.000",
                      "_links": {
                        "self": {
                          "name": "Desde 360.001 Hasta 840.000",
                          "href": "https://api.euskadi.eus/procurements/companies/types/O/categories/3"
                        }
                      }
                    }
                  ],
                  "_links": {
                    "self": {
                      "name": "CARPINTERIA METALICA",
                      "href": "https://api.euskadi.eus/procurements/companies/types/O/groups/C/subgroups/09"
                    }
                  }
                }
              ],
              "_links": {
                "self": {
                  "name": "EDIFICACIONES",
                  "href": "https://api.euskadi.eus/procurements/companies/types/O/groups/C"
                }
              }
            }
          ],
          "_links": {
            "self": {
              "name": "Obras",
              "href": "https://api.euskadi.eus/procurements/companies/types/O"
            }
          }
        }
      ],
      "object": "Pte",
      "mainEntityOfPage": "https://www.contratacion.euskadi.eus/webkpe00-kperoc/es/ac71aBusquedaRegistrosWar/empresa/02917",
      "_links": {
        "self": {
          "name": "SIGE CONTRATAS Y CONSTRUCCIONES, S.L.",
          "href": "https://api.euskadi.eus/procurements/companies/02917"
        }
      }
    }
  ]
}