{
  "totalItems": 9042,
  "totalPages": 905,
  "currentPage": 709,
  "itemsOfPage": 10,
  "items": [
    {
      "name": "KARBER EDIFICACIÓN Y OBRA CIVIL, S.L.U.",
      "registrationNumber": "02866",
      "identificationNumber": "B20682829",
      "address": "Polígono Txiplau 12",
      "location": {
        "postalCode": "20280",
        "municipality": "Hondarribia",
        "county": "Gipuzkoa",
        "municipalityId": "036",
        "countyId": "20"
      },
      "economicActivities": [
        {
          "id": "1.501.1",
          "name": "Construcción completa, reparación y conservación de edificaciones",
          "_links": {
            "self": {
              "name": "Construcción completa, reparación y conservación de edificaciones",
              "href": "https://api.euskadi.eus/procurements/companies/economic-activities/1.501.1"
            }
          }
        },
        {
          "id": "1.501.2",
          "name": "Construcción completa, reparación y conservación obras civiles",
          "_links": {
            "self": {
              "name": "Construcción completa, reparación y conservación obras civiles",
              "href": "https://api.euskadi.eus/procurements/companies/economic-activities/1.501.2"
            }
          }
        }
      ],
      "certificateStartDate": "2011-09-06",
      "certificateEndDate": "2012-02-17",
      "object": "La realización de toda clase de operaciones relacionadas con la construcción, tanto públicas como privadas, incluso contrucción de viviendas y cualquier tipo de actividades con ella relacionadas, sea en forma directa como indirecta. La compra y venta de bienes inmuebles y su explotación, realizando construcciones sobre los mismos y procediendo a la venta o arrendamiento de las fincas que se construyan. Almacenamiento y comercialización de toda clase de materiales de construcción y prefabricados para la misma. La realización de cuantas actividades se relacionen con la construcción, tales como carpintería, fontanería, calefacción, ejecución de estructuras, etc. que la sociedad desee acometer directamente. La realización de todo tipo de contratas y subcontratas con gremios relacionados con la construcción. Todas aquellas actividades relacionadas directamente con las anteriores y permitidas por la Ley. Para desarrollar este objeto social podrá realizar todas las operaciones patrimoniales, económicas, urbanísticas y financieras que tenga la sociedad por conveniente.",
      "mainEntityOfPage": "https://www.contratacion.euskadi.eus/webkpe00-kperoc/es/ac71aBusquedaRegistrosWar/empresa/02866",
      "_links": {
        "self": {
          "name": "KARBER EDIFICACIÓN Y OBRA CIVIL, S.L.U.",
          "href": "https://api.euskadi.eus/procurements/companies/02866"
        }
      }
    },
    {
      "name": "MENDILANKOR, KOOP. E.",
      "registrationNumber": "03239",
      "identificationNumber": "F95360582",
      "address": "Xemein Etorbidea, 12",
      "location": {
        "postalCode": "48270",
        "municipality": "Markina-Xemein",
        "county": "Bizkaia",
        "municipalityId": "060",
        "countyId": "48"
      },
      "economicActivities": [
        {
          "id": "1.476.9",
          "name": "Otras ediciones n.c.o.p",
          "_links": {
            "self": {
              "name": "Otras ediciones n.c.o.p",
              "href": "https://api.euskadi.eus/procurements/companies/economic-activities/1.476.9"
            }
          }
        },
        {
          "id": "1.501.1",
          "name": "Construcción completa, reparación y conservación de edificaciones",
          "_links": {
            "self": {
              "name": "Construcción completa, reparación y conservación de edificaciones",
              "href": "https://api.euskadi.eus/procurements/companies/economic-activities/1.501.1"
            }
          }
        },
        {
          "id": "1.501.2",
          "name": "Construcción completa, reparación y conservación obras civiles",
          "_links": {
            "self": {
              "name": "Construcción completa, reparación y conservación obras civiles",
              "href": "https://api.euskadi.eus/procurements/companies/economic-activities/1.501.2"
            }
          }
        },
        {
          "id": "1.755",
          "name": "Agencias de viajes",
          "_links": {
            "self": {
              "name": "Agencias de viajes",
              "href": "https://api.euskadi.eus/procurements/companies/economic-activities/1.755"
            }
          }
        },
        {
          "id": "1.755.2",
          "name": "Servicios prestados al público por las agencias de viajes",
          "_links": {
            "self": {
              "name": "Servicios prestados al público por las agencias de viajes",
              "href": "https://api.euskadi.eus/procurements/companies/economic-activities/1.755.2"
            }
          }
        },
        {
          "id": "1.843.2",
          "name": "Servicios técnicos de arquitectura y urbanismo",
          "_links": {
            "self": {
              "name": "Servicios técnicos de arquitectura y urbanismo",
              "href": "https://api.euskadi.eus/procurements/companies/economic-activities/1.843.2"
            }
          }
        },
        {
          "id": "1.847",
          "name": "Servicios de consultoría",
          "_links": {
            "self": {
              "name": "Servicios de consultoría",
              "href": "https://api.euskadi.eus/procurements/companies/economic-activities/1.847"
            }
          }
        },
        {
          "id": "1.912",
          "name": "Servicios forestales",
          "_links": {
            "self": {
              "name": "Servicios forestales",
              "href": "https://api.euskadi.eus/procurements/companies/economic-activities/1.912"
            }
          }
        }
      ],
      "certificateStartDate": "2011-09-02",
      "certificateEndDate": "2012-01-28",
      "object": "INGURUMENAREKIN LOTUTAKO PROIEKTU DESBERDINEN KUDEAKETA (AZTERKETA, DISEINUA ETA EXEKUZIOA), ONDARE NATURAL ETA KULTURALAREN BERRESKURAPEN, KONTSERBAZIO ETA BABES LANAK BESTERIK BESTE, ETA BERE GARAPENERAKO EGOKIAK DIREN BESTE JARDUERA BATZUK, AISIALDIAKO JARDUERAK BARNE, INGURUMENAREN BABESA ETA GAI HONEKIKO GIZARTEAREN SENTSIBILIZAZIOA AZKEN HELBURUAK IZANIK. KOOPERATIBAREN JARDUERA DESBERDINAK HAUEK IZANGO DIRA: - BIDE ZIDOR ETA IBILBIDE DESBERDINEN BERRESKURAPEN ETA MANTENTZE LANAK, ETA GUZTIETAKO SEINALIZAZIOA EGITEA ETA HONEN INSTALAZIOA. - ERAIKIN DESBERDINEN ERABERRITZE PROIEKTUEN DISEINUA ERA BERRERAIKUNTZA, ETA ONDASUN HIGIGARRI ETA HIGIEZINEN ERABERRITZE ETA MANTENTZE LANAK. - EKIPAMENDU MUSEISTIKOAK, AISIALDI GUNE ETA ZIRKULU DESBERDINEN DISEINU ETA INSTALAZIOA. - INGURUMEN HEZKUNTZA: KIROL ETA AISIALDI JARDUERAK, SENTSIBILIZAZIO KANPAINAK, IKASTARO HITZALDI ETA TOPAKETA DESBERDINEN ANTOLAKETA. - ROKODROMO ETA ESKALADA ZIRKUITUEN DISEINUA ETA INSTALAZIOA. - ERREKA, LAKU ETA ANTZEKOEN GARBIKETA ETA EGOKITZE LANAK. - GIDA, ARGAZKI, ALDIZKARI, LIBURU ETA ANTZEKOEN DISEINUA, EDIZIOA, BANAKETA ETA SALMENTA. - GIZARTE, INGURUMEN ETA EKONOMI IKERKETAK.",
      "mainEntityOfPage": "https://www.contratacion.euskadi.eus/webkpe00-kperoc/es/ac71aBusquedaRegistrosWar/empresa/03239",
      "_links": {
        "self": {
          "name": "MENDILANKOR, KOOP. E.",
          "href": "https://api.euskadi.eus/procurements/companies/03239"
        }
      }
    },
    {
      "name": "ISODE GASTEIZ, S.L.",
      "registrationNumber": "04549",
      "identificationNumber": "B01447291",
      "address": "MEXICO 14, 1º B",
      "location": {
        "postalCode": "01009",
        "municipality": "Vitoria-Gasteiz",
        "county": "Araba/Álava",
        "municipalityId": "059",
        "countyId": "01"
      },
      "economicActivities": [
        {
          "id": "1.849.9",
          "name": "Otros servicios independientes n.c.o.p",
          "_links": {
            "self": {
              "name": "Otros servicios independientes n.c.o.p",
              "href": "https://api.euskadi.eus/procurements/companies/economic-activities/1.849.9"
            }
          }
        }
      ],
      "certificateStartDate": "2011-08-31",
      "certificateEndDate": "2011-12-13",
      "object": "SERVICIOS A INSTITUCIONES, ORGANIZACIONES, AMPAS, CENTROS EDUCATIVOS Y ONGS. ORGANIZACIÓN DE TALLERES, CURSOS, CHARLAS, CONGRESOS, MESAS REDONDAS, EXPOSICIONES Y CAMPAÑAS DE PROMOCIÓN. SERVICIOS DE GESTIÓN Y ASESORÍA EXTERNA A ONGS E INSTITUCIONES EN LA PREPARACIÓN, DESARROLLO Y EVALUACIÓN DE SUS PROYECTOS DE COOPERACIÓN Y EN GENERAL SERVICIO DE FORMACIÓN",
      "mainEntityOfPage": "https://www.contratacion.euskadi.eus/webkpe00-kperoc/es/ac71aBusquedaRegistrosWar/empresa/04549",
      "_links": {
        "self": {
          "name": "ISODE GASTEIZ, S.L.",
          "href": "https://api.euskadi.eus/procurements/companies/04549"
        }
      }
    },
    {
      "name": "MONTAJES ELECTRICOS MONTELEC, S.L.",
      "registrationNumber": "02714",
      "identificationNumber": "B20631149",
      "address": "INDUSTRIAL REKALDE. EDIFICIO HIRUBIDE, LOCAL Nº 13",
      "location": {
        "postalCode": "20018",
        "municipality": "Lasarte-Oria",
        "county": "Gipuzkoa",
        "municipalityId": "902",
        "countyId": "20"
      },
      "economicActivities": [
        {
          "id": "1.504.1",
          "name": "Instalaciones eléctricas en general",
          "_links": {
            "self": {
              "name": "Instalaciones eléctricas en general",
              "href": "https://api.euskadi.eus/procurements/companies/economic-activities/1.504.1"
            }
          }
        }
      ],
      "certificateStartDate": "2011-08-30",
      "certificateEndDate": "2012-01-12",
      "object": "LAS ACTIVIDADES  QUE SEGUIDAMENTE SE DETALLAN, QUE PODRÁN SER REALIZADAS POR LA SOCIEDAD, YA DIRECTAMENTE, YA INDIRECTAMENTE, INCLUSO MEDIANTE SU PARTICIPACIÓN EN OTRAS SOCIEDADES, DE OBJETO IDÉNTICO O ANÁLOGO: LAS ACTIVIDADES RELATIVAS A INSTALACIONES ELÉCTRICAS ",
      "mainEntityOfPage": "https://www.contratacion.euskadi.eus/webkpe00-kperoc/es/ac71aBusquedaRegistrosWar/empresa/02714",
      "_links": {
        "self": {
          "name": "MONTAJES ELECTRICOS MONTELEC, S.L.",
          "href": "https://api.euskadi.eus/procurements/companies/02714"
        }
      }
    },
    {
      "name": "LORTZEN SARTU S.L.",
      "registrationNumber": "04570",
      "identificationNumber": "B95451605",
      "address": "POLIGONO UGALDEGUREN Nº 1 PARCELA 6 PAB. 11",
      "location": {
        "postalCode": "48160",
        "municipality": "Derio",
        "county": "Bizkaia",
        "municipalityId": "901",
        "countyId": "48"
      },
      "economicActivities": [
        {
          "id": "1.473.9",
          "name": "Fabricación de otros manipulados de papel y cartón n.c.o.p",
          "_links": {
            "self": {
              "name": "Fabricación de otros manipulados de papel y cartón n.c.o.p",
              "href": "https://api.euskadi.eus/procurements/companies/economic-activities/1.473.9"
            }
          }
        }
      ],
      "certificateStartDate": "2011-08-30",
      "certificateEndDate": "2012-01-27",
      "object": "LA REALIZACIÓN, DESARROLLO Y FOMENTO DE TODO TIPO DE ACTIVIDADES ECONÓMICAS DESTINADAS A LA INSERCIÓN SOCIOLABORAL DE COLECTIVOS DESFAVORECIDOS, EN ESPECIAL DISCAPACITADOS",
      "mainEntityOfPage": "https://www.contratacion.euskadi.eus/webkpe00-kperoc/es/ac71aBusquedaRegistrosWar/empresa/04570",
      "_links": {
        "self": {
          "name": "LORTZEN SARTU S.L.",
          "href": "https://api.euskadi.eus/procurements/companies/04570"
        }
      }
    },
    {
      "name": "BIPLAX INDUSTRIAS DEL MUEBLE, S.A.",
      "registrationNumber": "00031",
      "identificationNumber": "A48064190",
      "address": "C/ CAMINO DE IZARZA, Nº 18.",
      "location": {
        "postalCode": "48150",
        "municipality": "Sondika",
        "county": "Bizkaia",
        "municipalityId": "904",
        "countyId": "48"
      },
      "economicActivities": [
        {
          "id": "1.316.6",
          "name": "Fabricación de mobiliario metálico",
          "_links": {
            "self": {
              "name": "Fabricación de mobiliario metálico",
              "href": "https://api.euskadi.eus/procurements/companies/economic-activities/1.316.6"
            }
          }
        }
      ],
      "certificateStartDate": "2011-08-17",
      "certificateEndDate": "2012-01-20",
      "object": "LA FABRICACIÓN Y VENTA SILLERÍA METÁLICA TAPIZADA",
      "mainEntityOfPage": "https://www.contratacion.euskadi.eus/webkpe00-kperoc/es/ac71aBusquedaRegistrosWar/empresa/00031",
      "_links": {
        "self": {
          "name": "BIPLAX INDUSTRIAS DEL MUEBLE, S.A.",
          "href": "https://api.euskadi.eus/procurements/companies/00031"
        }
      }
    },
    {
      "name": "XABIDE GESTIÓN CULTURAL, S.L.",
      "registrationNumber": "02983",
      "identificationNumber": "B20842571",
      "address": "C/ PORTUETXE, Nº 51",
      "location": {
        "postalCode": "20018",
        "municipality": "Donostia / San Sebastián",
        "county": "Gipuzkoa",
        "municipalityId": "069",
        "countyId": "20"
      },
      "economicActivities": [
        {
          "id": "1.847",
          "name": "Servicios de consultoría",
          "_links": {
            "self": {
              "name": "Servicios de consultoría",
              "href": "https://api.euskadi.eus/procurements/companies/economic-activities/1.847"
            }
          }
        }
      ],
      "certificateStartDate": "2011-08-17",
      "certificateEndDate": "2012-01-12",
      "object": "EL OBJETO SOCIAL DE ESTA SOCIEDAD ES LA GESTIÓN CULTURAL, ARTÍSTICA, DE OCIO Y DEPORTE EN TODOS SUS CAMPOS, EXPRESIONES Y DISCIPLINAS, INCLUIDA LA GESTIÓN, SERVICIO Y MANTENIMIENTO DE BIBLIOTECAS, ARCHIVOS Y MUSEOS; LA INFORMACIÓN Y COMUNICACIÓN A DIFERENTES NIVELES, Y CON DIVERSAS TÉCNICAS, MEDIOS Y SOPORTES, INCLUIDO EL DISEÑO GRÁFICO Y ESPACIAL, LOS SERVICIOS DE PUBLICIDAD EN SU MÁS AMPLIO SENTIDO -CON EXPRESA INCLUSIÓN DE ARTES GRÁFICAS Y ELABORACIÓN DE MATERIAL AUDIOVISUAL-, LA COMUNICACIÓN DIRECTA, LA GESTIÓN Y PROMOCIÓN DE EVENTOS DE TODO TIPO -INCLUIDA LA ORGANIZACIÓN Y PROMOCIÓN DE JORNADAS, CONGRESOS, FERIAS Y EXPOSICIONES-, LAS RELACIONES CON LOS MEDIOS DE COMUNICACIÓN Y LAS RELACIONES CON LOS MEDIOS DE COMUNICACIÓN Y LAS RELACIONES PÚBLICAS; LOS SERVICIOS DE ATENCIÓN TELEFÓNICA, MARKETING, INFORMACIÓN Y DOCUMENTACIÓN -INCLUIDOS LOS SERVICIOS DE CAPTURA DE INFORMACIÓN POR MEDIOS MEDIOS ELECTRÓNICOS, INFORMATIVOS Y TELEMÁTICOS-, RECEPCIÓN Y ASISTENCIA; LAS LABORES ADMINISTRATIVAS DE TODA ÍNDOLE, EL CONTROL DE ACCESOS Y LA INFORMACIÓN AL PÚBLICO; LOS PROYECTOS DE FIDELIZACIÓN DE PÚBLICOS; LA FORMACIÓN EN CUALQUIER FORMATO, ÁMBITO TEMÁTICO Y DISCIPLINA, DENTRO O FUERA DEL SISTEMA REGLADO DE ENSEÑANZA -INCLUIDO, PARA TALES FINES, EL DESARROLLO Y MANTENIMIENTO DE PROGRAMAS DE ORDENADOR-; LA CONSULTORÍA Y EL ASESORAMIENTO EN CUALTURA, ARTES, EDUCACIÓN, OCIO, TURISMO, DEPORTE, SERVICIOS PÚBLICOS DESARROLLO LOCAL Y COMUNICACIÓN; Y AQUELLAS ACTIVIDADES AFINES O COMPLEMENTARIAS DE LAS SEÑALADAS. LAS ACTIVIDADES ENUMERADAS PODRÁN TAMBIÉN SER DESARROLLADAS POR LA SOCIEDAD, TOTAL O PARCIALMENTE, DE MODO INDIRECTO, MEDIANTE LA PARTICIPACIÓN EN OTRAS SOCIEDADES DE IDÉNTICO O ANÁLOGO OBJETO O QUE TENGAS ENTRE SUS FINALIDADES LA PRESTACIÓN DE SERVICIOS A LA MISMA. QUEDAN EXCLUIDAS TODAS AQUELLAS ACTIVIDADES PARA CUYO EJERCICIO LA LEY EXIJA REQUISITOS ESPECIALES QUE NO QUEDEN CUMPLIDOS POR ESTA SOCIEDAD.",
      "mainEntityOfPage": "https://www.contratacion.euskadi.eus/webkpe00-kperoc/es/ac71aBusquedaRegistrosWar/empresa/02983",
      "_links": {
        "self": {
          "name": "XABIDE GESTIÓN CULTURAL, S.L.",
          "href": "https://api.euskadi.eus/procurements/companies/02983"
        }
      }
    },
    {
      "name": "ANTARES CONSULTING, S.A.",
      "registrationNumber": "04552",
      "identificationNumber": "A82026691",
      "address": "AV. JOSEP TARRADELLAS, 8-10, 4ª PLANTA",
      "location": {
        "postalCode": "08029",
        "municipality": "Barcelona",
        "county": "Barcelona",
        "municipalityId": "019",
        "countyId": "08"
      },
      "economicActivities": [
        {
          "id": "1.849.9",
          "name": "Otros servicios independientes n.c.o.p",
          "_links": {
            "self": {
              "name": "Otros servicios independientes n.c.o.p",
              "href": "https://api.euskadi.eus/procurements/companies/economic-activities/1.849.9"
            }
          }
        }
      ],
      "certificateStartDate": "2011-08-16",
      "certificateEndDate": "2012-02-08",
      "object": "A) PRESTACIÓN DE TODA CLASE DE SERVICIOS DE CONSULTORÍA Y ASESORAMIENTO SOBRE ORGANIZACIÓN, PLANIFICACIÓN, GESTIÓN Y ADMINISTRACIÓN DE TODO TIPO DE EMPRESAS Y ORGANIZACIONES, INCLUIDA LA REALIZACIÓN DE TRABAJOS DE CAMPO DE TOMA DE DATOS PARA ESTUDIOS DE MERCADO, ESTADOS DE OPINIÓN Y OTRO TIPO DE ENCUESTAS. B) GESTIÓN TOTAL O PARCIAL DE EMPRESAS, DE ORGANIZACIONES O DE PRESTACIONES, POR TIEMPO LIMITADO. C) PRESTACIÓN Y GESTIÓN DE SERVICIOS A CLIENTES COMO INFORMACIÓN, EVALUACIÓN, ORIENTACIÓN Y SEGUIMIENTO EN EL ÁMBITO SOCIAL, SOCIO SANITARIO Y DE SALUD. D) REALIZACIÓN DE TODA CLASE DE SERVICIOS DE CONSULTORÍA Y ASESORAMIENTO SOBRE DESARROLLO, INSTALACIÓN, INTEGRACIÓN Y MANTENIMIENTO DE SISTEMAS Y SOPORTES INFORMÁTICOS Y DE COMUNICACIONES PARA TODO TIPO DE EMPRESAS Y ORGANIZAICONES. E) DISEÑO, DESARROLLO, COMERCIALIZACIÓN, IMPLANTAICÓN Y MANTENIMIENTO DE SISTEMAS Y EQUIPOS DE TRATAMIENTO DE DATOS INFORMÁTICOS, TELEMÁTICOS, OFIMÁTICOS Y AUTOMÁTICOS, ASÍ COMO LA PRESTAICÓN DE TODA CLASE DE SERVICIOS RELACIONADOS CON DICHOS SISTEMAS Y EQUIPOS. F) ADQUISICIÓN, PRODUCCIÓN, COMERCIALIZACIÓN, IMPLANTACIÓN Y MANTENIMIENTO DE SOLUCIONES PARA EL TRATAMIENTO DE DATOS, MEDIANTE PROCEDIMIENTOS INFORMÁTICOS, TANTO EN LOS REFERENTE A EQUIPOS ELECTRÓNICOS OCMO A LOS PROGRAMAS, SISTEMAS Y SERVICIOS NECESARIOS PARA SU FUNCIONAMIENTO, ASÍ COMO EL DESARROLLO E INVESTIGACIÓN DE PRODUCTOS Y SISTEMAS INFORMATICOS EN GENERAL. G) VENDER LICENCIAS, MANTENIMIENTO Y SERVICIOS RELACIONADOS CON LA ADAPTACIÓN DE SOFTWARE. H) ADQUISICIÓN, TENENCIA, DISFRUTE, ADMINISTRACIÓN Y ENAJENACIÓN DE DERECHOS Y ACCIONES EN OTRAS SOCIEDADES MERCANTILES, CUALQUIERA QUE SEA SU FORMA JURÍDICA, ASÍ COMO BIENES INMUEBLES Y PATRIMONIOS, EXCLUYENDO LAS ACTIVIDADES SUJETAS A LA LEGISLACIÓN SOBRE MERCADO DE VALORES E INSTITUCIONES DE INVERSIÓN COLECTIVA",
      "mainEntityOfPage": "https://www.contratacion.euskadi.eus/webkpe00-kperoc/es/ac71aBusquedaRegistrosWar/empresa/04552",
      "_links": {
        "self": {
          "name": "ANTARES CONSULTING, S.A.",
          "href": "https://api.euskadi.eus/procurements/companies/04552"
        }
      }
    },
    {
      "name": "SADIEL TECNOLOGÍAS DE LA INFORMACIÓN, S.A.",
      "registrationNumber": "04581",
      "identificationNumber": "A41132036",
      "address": "ISAAC NEWTON, Nº 3",
      "location": {
        "postalCode": "41092",
        "municipality": "Sevilla",
        "county": "Sevilla",
        "municipalityId": "091",
        "countyId": "41"
      },
      "economicActivities": [
        {
          "id": "1.615.4",
          "name": "Venta al por mayor de aparatos y material radioeléctrico y electrónico",
          "_links": {
            "self": {
              "name": "Venta al por mayor de aparatos y material radioeléctrico y electrónico",
              "href": "https://api.euskadi.eus/procurements/companies/economic-activities/1.615.4"
            }
          }
        },
        {
          "id": "1.843.1",
          "name": "Servicios técnicos de ingeniería",
          "_links": {
            "self": {
              "name": "Servicios técnicos de ingeniería",
              "href": "https://api.euskadi.eus/procurements/companies/economic-activities/1.843.1"
            }
          }
        },
        {
          "id": "1.843.9",
          "name": "Otros servicios técnicos n.c.o.p",
          "_links": {
            "self": {
              "name": "Otros servicios técnicos n.c.o.p",
              "href": "https://api.euskadi.eus/procurements/companies/economic-activities/1.843.9"
            }
          }
        },
        {
          "id": "1.845",
          "name": "Explotación electrónica por cuenta de terceros",
          "_links": {
            "self": {
              "name": "Explotación electrónica por cuenta de terceros",
              "href": "https://api.euskadi.eus/procurements/companies/economic-activities/1.845"
            }
          }
        }
      ],
      "certificateStartDate": "2011-08-11",
      "certificateEndDate": "2011-12-28",
      "object": "Desarrollo de actividades en el ámbito de las tecnologías de la información, la informática, la electrónica, las telecomunicaciones, la defensa y aeroespacial, incluyendo la investigación y desarrollo de nuevos productos, la ingeniería, la asistencia técnica, la consultoría, el desarrollo y explotación de sistemas, la organización, la elboración de estudios, informes y publicaciones, la formación, la distribución de infraestructuras y en general el desarrollo de actividades y prestación de servicios relacionados con las materias anteriores y en general con las nuevas tecnologías de forma tanto directa como indirecta, comprendiendo la participación en otras entidades, como uniones o agrupaciones de empresas, fundaciones, cualquiera que sea su forma o denominación, incluyendo la tenencia de acciones o la participación en el capital social de otras entidades",
      "mainEntityOfPage": "https://www.contratacion.euskadi.eus/webkpe00-kperoc/es/ac71aBusquedaRegistrosWar/empresa/04581",
      "_links": {
        "self": {
          "name": "SADIEL TECNOLOGÍAS DE LA INFORMACIÓN, S.A.",
          "href": "https://api.euskadi.eus/procurements/companies/04581"
        }
      }
    },
    {
      "name": "EXCAVACIONES ASTIGARRAGA, S.L.",
      "registrationNumber": "02437",
      "identificationNumber": "B20182945",
      "address": "IPARRALDE BIDEA (CASA TAULA AZPI)",
      "location": {
        "postalCode": "20000",
        "municipality": "Astigarraga",
        "county": "Gipuzkoa",
        "municipalityId": "903",
        "countyId": "20"
      },
      "economicActivities": [
        {
          "id": "1.231.2",
          "name": "Extracción de rocas y pizarras para la construcción",
          "_links": {
            "self": {
              "name": "Extracción de rocas y pizarras para la construcción",
              "href": "https://api.euskadi.eus/procurements/companies/economic-activities/1.231.2"
            }
          }
        },
        {
          "id": "1.501.1",
          "name": "Construcción completa, reparación y conservación de edificaciones",
          "_links": {
            "self": {
              "name": "Construcción completa, reparación y conservación de edificaciones",
              "href": "https://api.euskadi.eus/procurements/companies/economic-activities/1.501.1"
            }
          }
        },
        {
          "id": "1.501.2",
          "name": "Construcción completa, reparación y conservación obras civiles",
          "_links": {
            "self": {
              "name": "Construcción completa, reparación y conservación obras civiles",
              "href": "https://api.euskadi.eus/procurements/companies/economic-activities/1.501.2"
            }
          }
        },
        {
          "id": "1.502.3",
          "name": "Consolidación y preparación de terrenos para la realización de obras civiles",
          "_links": {
            "self": {
              "name": "Consolidación y preparación de terrenos para la realización de obras civiles",
              "href": "https://api.euskadi.eus/procurements/companies/economic-activities/1.502.3"
            }
          }
        },
        {
          "id": "1.722",
          "name": "Transporte de mercancías por carretera",
          "_links": {
            "self": {
              "name": "Transporte de mercancías por carretera",
              "href": "https://api.euskadi.eus/procurements/companies/economic-activities/1.722"
            }
          }
        }
      ],
      "certificateStartDate": "2011-08-04",
      "certificateEndDate": "2011-12-23",
      "object": "TODO TIPO DE EXCAVACIONES, EXTRACCIOINES DE TIERRAS Y PIEDRAS, EXPLANACIONES Y MOVIMIENTOS DE TIERRAS, EL TRANSPORTE DE LOS PRODUCTOS EXTRAÍDOS Y SU COMERCIALIZACIÓN, LA REALIZACIÓN DE DICHOS TRABAJOS PARA TERCERAS PERSONAS; EL TRANSPORTE PÚBLICO DE MERCANCÍAS POR CARRETERA; ASÍ COMO LA CONSTRUCCIÓN COMPLETA, REPARACIÓN Y CONSERVACIÓN DE EDIFICACIONES, OBRAS CIVILES Y PÚBLICAS, ASÍ COMO EL CONTRATAR OBRAS Y SERVICIOS CON CUALQUIER ORGANISMO DE LAS ADMINISTRACIONES PÚBLICAS Y CON TODA CLASE DE ENTIDADES Y PARTICULARES.",
      "mainEntityOfPage": "https://www.contratacion.euskadi.eus/webkpe00-kperoc/es/ac71aBusquedaRegistrosWar/empresa/02437",
      "_links": {
        "self": {
          "name": "EXCAVACIONES ASTIGARRAGA, S.L.",
          "href": "https://api.euskadi.eus/procurements/companies/02437"
        }
      }
    }
  ]
}