{
  "totalItems": 9042,
  "totalPages": 905,
  "currentPage": 282,
  "itemsOfPage": 10,
  "items": [
    {
      "name": "BECLEVER, S.L.",
      "registrationNumber": "05606",
      "identificationNumber": "B95669073",
      "address": "Alameda Mazarredo nº 27, 4 Izquierda",
      "location": {
        "postalCode": "48009",
        "municipality": "Bilbao",
        "county": "Bizkaia",
        "municipalityId": "020",
        "countyId": "48"
      },
      "economicActivities": [
        {
          "id": "1.659.2",
          "name": "Venta al por menor de muebles de oficina y máquinas y equipos de oficina",
          "_links": {
            "self": {
              "name": "Venta al por menor de muebles de oficina y máquinas y equipos de oficina",
              "href": "https://api.euskadi.eus/procurements/companies/economic-activities/1.659.2"
            }
          }
        },
        {
          "id": "1.843.1",
          "name": "Servicios técnicos de ingeniería",
          "_links": {
            "self": {
              "name": "Servicios técnicos de ingeniería",
              "href": "https://api.euskadi.eus/procurements/companies/economic-activities/1.843.1"
            }
          }
        },
        {
          "id": "1.845",
          "name": "Explotación electrónica por cuenta de terceros",
          "_links": {
            "self": {
              "name": "Explotación electrónica por cuenta de terceros",
              "href": "https://api.euskadi.eus/procurements/companies/economic-activities/1.845"
            }
          }
        }
      ],
      "certificateStartDate": "2025-09-12",
      "certificateEndDate": "2026-03-03",
      "object": "LA OFERTA DE SOLUCIONES DE TECNOLOGÍA DE LA INFORMACIÓN  (TI), TALES COMO CONSULTORÍA, IMPLEMENTACIÓN Y GESTIÓN DE SOLUCIONES EN LAS ÁREAS DE INFRAESTRUCTURA Y APLICACIONES, GESTIÓN DE DATOS Y CIBERSEGURIDAD.",
      "mainEntityOfPage": "https://www.contratacion.euskadi.eus/webkpe00-kperoc/es/ac71aBusquedaRegistrosWar/empresa/05606",
      "_links": {
        "self": {
          "name": "BECLEVER, S.L.",
          "href": "https://api.euskadi.eus/procurements/companies/05606"
        }
      }
    },
    {
      "name": "IRONTEC, INTERNET Y SISTEMAS SOBRE GNU/LINUX, S.L",
      "registrationNumber": "06233",
      "identificationNumber": "B95274890",
      "address": "Uribitarte 6, 2º",
      "location": {
        "postalCode": "48001",
        "municipality": "Bilbao",
        "county": "Bizkaia",
        "municipalityId": "020",
        "countyId": "48"
      },
      "economicActivities": [
        {
          "id": "1.615.9",
          "name": "Venta al por mayor de otros artículos de consumo duradero n.c.o.p",
          "_links": {
            "self": {
              "name": "Venta al por mayor de otros artículos de consumo duradero n.c.o.p",
              "href": "https://api.euskadi.eus/procurements/companies/economic-activities/1.615.9"
            }
          }
        },
        {
          "id": "1.845",
          "name": "Explotación electrónica por cuenta de terceros",
          "_links": {
            "self": {
              "name": "Explotación electrónica por cuenta de terceros",
              "href": "https://api.euskadi.eus/procurements/companies/economic-activities/1.845"
            }
          }
        }
      ],
      "certificateStartDate": "2025-09-12",
      "certificateEndDate": "2026-03-06",
      "object": "1) LA CREACIÓN, APLICACIÓN Y DESARROLLO DE APLICACIONES WEB. DISEÑO DE PÁGINAS WEB, GRÁFICO Y MULTIMEDIA. CREACIÓN DE CONTENIDOS DE INTERNET. CREACIÓN DE ARTE GRÁFICO. 2) SERVICIOS DE EXPLOTACIÓN ELECTRÓNICA POR CUENTA DE TERCEROS. 3)DISEÑO CORPORATIVO. 4) SERVICIOS DE PUBLICIDAD EN INTERNET Y MARKETING ON-LINE PARA EMPRESAS Y CONSUMIDORES FINALES. SERVICIOS DE PUBLICIDAD VÍA ON LINE. PRESTACIÓN DE SERVICIOS DE PUBLICIDAD, MEDIANTE ANUNCIOS, CARTELES, FOLLETOS, PELÍCULAS PUBLICITARIAS ETC, A TRAVÉS DE PRENSA, RADIO, TELEVISIÓN, PUBLICIDAD ÁREA U OTROS MEDIOS. ELABORACIÓN Y DESARROLLO DE ESTRATEGIAS DE COMUNICACIÓN AUDIOVISUAL. AGENCIA DE PUBLICIDAD Y DISEÑO, DEDICADA A LA CREACIÓN DE ANUNCIOS O CAMPAÑAS DE INFORMACIÓN PUBLICITARIA, IMAGEN CORPORATIVA, PROPAGANDA ELECTORAL, COMUNICACIÓN INSTITUCIONAL O PÚBLICA, PUBLICIDAD EXTERIOR, PUBLICIDAD DIRECTA Y MARKETING DIRECTO. EN GENERAL CUALQUIER SERVICIO INDEPENDIENTE DE PUBLICIDAD. 5)  COMERCIO ELECTRÓNICO, VENTA DE ARTÍCULOS ON LINE, VENTA DE MERCHANDISING ON LINE. 6)  MANTENIMIENTO Y ADMINISTRACIÓN DE SISTEMAS INFORMÁTICOS. 7) DISEÑO, INSTALACIÓN Y MANTENIMIENTO DE REDES. 8) APLICACIONES DE SOFTWARE A MEDIDA, DISEÑO Y DESARROLLO DE SOFTWARE INFORMÁTICO, ADAPTACIÓN DE SOFTWARE COMERCIAL. 9) HOSTING DE PÁGINAS WEB Y HOSTING DE APLICACIONES CRM/ERP Y OTROS. PORTAL DE CONTENIDO, SERVICIOS, PORTAL DE COMUNIDADES ON LINE, PORTAL VARIEDADES DE INTERNET. 10) VENTA DE EQUIPOS INFORMÁTICOS Y VENTA DE SOFTWARE, ALQUILER DE EQUIPOS INFORMÁTICOS Y ALQUILER DE SOFTWARE. 11) PROVEEDORES DE SERVICIOS DE INTERNET. 12) ASESORÍA Y CONSULTORÍA INFORMÁTICA. ASESORÍA E IMPLANTACIÓN DE NUEVAS TECNOLOGÍAS EN LAS EMPRESAS. INVESTIGACIÓN Y DESARROLLO DE NUEVAS TECNOLOGÍAS. SEGURIDAD INFORMÁTICA. 13) MONTAJE E INSTALACIÓN DE EQUIPOS INFORMÁTICOS. 14) CONFIGURACIÓN DE EQUIPOS INFORMÁTICOS. 15) RECICLAJE DE EQUIPOS INFORMÁTICOS. 16) DISEÑO E INFOGRAFÍAS ASISTIDO POR ORDENADOR. 17) DISEÑO INSTALACIÓN Y MANTENIMIENTO DE DOMÓTICA. 18) DISEÑO INDUSTRIAL. 19) IMPARTICIÓN DE FORMACIÓN PRESENCIAL Y NO PRESENCIAL A EMPRESAS, CLIENTES Y TERCERAS PERSONAS. ESTAS ACTIVIDADES TAMBIÉN PODRÁN SER DESARROLLADAS DE MODO INDIRECTO MEDIANTE LA PARTICIPACIÓN EN SOCIEDADES CON ANÁLOGO OBJETO",
      "mainEntityOfPage": "https://www.contratacion.euskadi.eus/webkpe00-kperoc/es/ac71aBusquedaRegistrosWar/empresa/06233",
      "_links": {
        "self": {
          "name": "IRONTEC, INTERNET Y SISTEMAS SOBRE GNU/LINUX, S.L",
          "href": "https://api.euskadi.eus/procurements/companies/06233"
        }
      }
    },
    {
      "name": "R2M SOLUTION SPAIN, S.L.",
      "registrationNumber": "08801",
      "identificationNumber": "B87348470",
      "address": "Calle Cervera 59, 1 D",
      "location": {
        "postalCode": "28033",
        "municipality": "Madrid",
        "county": "Madrid",
        "municipalityId": "079",
        "countyId": "28"
      },
      "economicActivities": [
        {
          "id": "1.843.9",
          "name": "Otros servicios técnicos n.c.o.p",
          "_links": {
            "self": {
              "name": "Otros servicios técnicos n.c.o.p",
              "href": "https://api.euskadi.eus/procurements/companies/economic-activities/1.843.9"
            }
          }
        }
      ],
      "certificateStartDate": "2025-09-12",
      "certificateEndDate": "2026-03-10",
      "object": "-(CNAE 74.90) - OTRAS ACTIVIDADES PROFESIONALES, CIENTÍFICAS Y TÉCNICAS N.C.O.P. - ASESORAMIENTO SOBRE MEDIO AMBIENTE Y EFICIENCIA ENERGÉTICA. - OTRO ASESORAMIENTO TÉCNICO. -(CNAE 70.22) - OTRAS ACTIVIDADES DE CONSULTORÍA DE GESTIÓN EMPRESARIAL. -CONSULTORÍA EN MERCADEO DE RESULTADOS DE INVESTIGACIÓN Y DESARROLLO. -CONSULTORÍA EN LA ELABORACIÓN DE PROPUESTAS PARA CONSEGUIR FINANCIACIÓN PARA INVESTIGACIÓN, DESARROLLO E INNOVACIÓN, ASÍ COMO EN LA EJECUCIÓN, DISEMINACIÓN Y MERCADEO DE DICHOS PROYECTOS. -CONSULTORÍA EN START-UP, MODELO DE NEGOCIOS, BRANDING, ETC. -CONSULTORÍA EN DERECHO DE LA UNIÓN EUROPEA. -CONSULTORÍA EN DERECHO PROPIEDAD INTELECTUAL, DERECHOS DE AUTOR, DERECHO DE LA COMPETENCIA, DERECHO EN TECNOLOGÍAS DE LA INFORMACIÓN Y LA COMUNICACIÓN Y REDES SOCIALES. - CNAE 3514 COMERCIO DE ENERGÍA ELÉCTRICA, PRESTACIÓN DE SERVICIOS DE PLANIFICACIÓN, REALIZACIÓN Y FINANCIACIÓN DE MEDIDAS DE MEJORA DE EFICIENCIA ENERGÉTICA EN INSTALACIONES, CON EL FIN DE OPTIMIZAR EL SUMINISTRO Y EL USO DE LA ENERGÍA. -CNAE 3513 DISTRIBUCIÓN DE ENERGÍA ELÉCTRICA. -CNAE 3522 DISTRIBUCIÓN POR TUBERÍA DE COMBUSTIBLES GASEOSOS. -CNAE 3523 COMERCIO DE GAS POR TUBERÍA. -CNAE 3530 SUMINISTRO DE VAPOR Y AIRE ACONDICIONADO. -CNAE 4618 INTERMEDIARIOS DEL COMERCIO ESPECIALIZADOS EN LA VENTA DE OTROS PRODUCTOS ESPECÍFICOS. -CNAE 7112 SERVICIOS TÉCNICOS DE INGENIERÍA Y OTRAS ACTIVIDADES RELACIONADAS CON EL ASESORAMIENTO TÉCNICO.",
      "mainEntityOfPage": "https://www.contratacion.euskadi.eus/webkpe00-kperoc/es/ac71aBusquedaRegistrosWar/empresa/08801",
      "_links": {
        "self": {
          "name": "R2M SOLUTION SPAIN, S.L.",
          "href": "https://api.euskadi.eus/procurements/companies/08801"
        }
      }
    },
    {
      "name": "LIMPIEZA Y MANTENIMIENTO IMPACTO, S.L.",
      "registrationNumber": "00082",
      "identificationNumber": "B39021217",
      "address": "Carretera Galdakao, nº 6 A-3º B",
      "location": {
        "postalCode": "48450",
        "municipality": "Etxebarri",
        "county": "Bizkaia",
        "municipalityId": "029",
        "countyId": "48"
      },
      "economicActivities": [
        {
          "id": "1.922",
          "name": "Servicios de limpieza",
          "_links": {
            "self": {
              "name": "Servicios de limpieza",
              "href": "https://api.euskadi.eus/procurements/companies/economic-activities/1.922"
            }
          }
        },
        {
          "id": "1.922.1",
          "name": "Servicios de limpieza de interiores",
          "_links": {
            "self": {
              "name": "Servicios de limpieza de interiores",
              "href": "https://api.euskadi.eus/procurements/companies/economic-activities/1.922.1"
            }
          }
        },
        {
          "id": "1.951",
          "name": "Asistencia y servicios sociales en centros residenciales",
          "_links": {
            "self": {
              "name": "Asistencia y servicios sociales en centros residenciales",
              "href": "https://api.euskadi.eus/procurements/companies/economic-activities/1.951"
            }
          }
        }
      ],
      "certificateStartDate": "2025-09-12",
      "certificateEndDate": "2026-03-11",
      "object": "1- EL EJERCICIO DE LOS SERVICIOS DE LIMPIEZA DE LOCALES Y EDIFICIOS EN GENERAL, LIMPIEZA DE FÁBRICAS, COLEGIOS, CENTROS DE ENSEÑANZA, INSTITUCIONES PÚBLICAS, POLIDEPORTIVOS Y CAMPOS DE FÚTBOL, ENTIDADES BANCARIAS, URBANIZACIONES, CENTROS COMERCIALES, GRANDES ALMACENES, CENTROS DE ASISTENCIA SANITARIA (HOSPITALES, RESIDENCIAS, AMBULATORIOS, ETC.), CINES, TEATROS, AERONAVES, BARCOS, ASTILLEROS, CENTRALES ELÉCTRICAS, NUCLEARES, TÉRMICAS, PUERTOS, AEROPUERTOS, JARDINES, PARQUES, MONTES, BOSQUES, VIVEROS, CAMINOS, CARRETERAS, VÍAS PÚBLICAS, CONDUCCIONES INDUSTRIALES Y SANITARIAS. LA DESRATIZACIÓN, DESINSECTACIÓN, DESINFECCIÓN Y LUCHA CONTRA PLAGAS DE LOS MEDIOS SEÑALADOS ANTERIORMENTE O DE CUALQUIER OTRO QUE LO PRECISE, ASÍ COMO LA RECOGIDA DOMICILIARIA DE BASURAS Y RESIDUOS INDUSTRIALES Y CUALESQUIERA OTROS SERVICIOS QUE TENGAN POR OBJETO EL MANTENIMIENTO DE LOS EDIFICIOS DE CUALQUIER CLASE Y CONDICIÓN, SU ACUCHILLADO, PULIDO, LIJADO Y ENCERADO. 2- LA LIMPIEZA INDUSTRIAL, QUÍMICA Y ESPECIAL, EN TANQUES DE PETRÓLEO, FÁBRICAS EN ACTIVIDAD O EN PARADAS PERIÓDICAS, FACTORÍAS Y SIMILARES. 3- EL DESARROLLO DE ACTIVIDADES PARA LA PURIFICACIÓN DEL MEDIO AMBIENTE Y AGUAS MARÍTIMAS Y FLUVIALES, ASÍ COMO LA LIMPIEZA DE PLAYAS Y RÍOS. 4- LA EJECUCIÓN DE SERVICIOS DE JARDINERÍA EN GENERAL, CUIDADO Y MANTENIMIENTO DE PARQUES Y JARDINES PÚBLICOS Y PRIVADOS, PREPARACIÓN Y MANTENIMIENTO DE LOS TERRENOS, SIEMBRA, PODA, PLANTACIÓN E INJERTOS. ADECUACIÓN Y CONSERVACIÓN DE RIBERAS, MÁRGENES DE RÍOS Y PLAYAS. PAISAJISMO Y RECUPERACIÓN MEDIOAMBIENTAL. SERVICIOS FORESTALES INTEGRALES, GUARDAS FORESTALES, REPOBLACIÓN, LUCHA CONTRA INCENDIOS Y ACCIONES CONTRA LA DESERTIZACIÓN. 5- LA COLOCACIÓN Y REPOSICIÓN DE TODA CLASE DE ARTÍCULOS EN CUALQUIER LOCAL INDUSTRIAL O COMERCIAL (GRANDES SUPERFICIES, ALMACENES, ETC.); LA CARGA, DESCARGA Y MANIPULACIÓN DE LOS MISMOS, ASÍ COMO LA COLOCACIÓN DE CARROS DE COMPRA EN GRANDES SUPERFICIES Y, EN GENERAL, LA GESTIÓN LOGÍSTICA DE TODO TIPO DE MERCANCÍAS. LOS SERVICIOS DE CAJA Y LA REALIZACIÓN DE CUALQUIER ACTIVIDAD PROMOCIONAL EN TODO TIPO DE ESTABLECIMIENTOS. 6- SERVICIOS DE GESTIÓN INTEGRAL DE ARCHIVOS Y ALMACENES. RECEPCIÓN Y EXPEDICIÓN DE MERANCÍAS Y MATERIALES, DE VALIJAS DE MERCANCÍAS O DOCUMENTACIÓN, ASÍ COMO LA ORDENACIÓN, CLASIFICACIÓN, EXPURGO Y CONTROL DE TODO TIPO DE DOCUMENTOS Y ALMACENAMIENTO DE DATOS, TANTO EN SOPORTE MANUAL COMO INFORMÁTICO. 7- MENSAJERÍA. REPARTO Y TRANSPORTE DE PAQUETERÍA, DOCUMENTACIÓN Y TODA CLASE DE CORRESPONDIENCIA Y MERCANCÍAS BIEN SEA DE FORMA INTERNA O EXTERNA. REPARTO DE PUBLICIDAD, BUZONEO Y MARKETING A DOMICILIO. ENCUESTAS Y ESTUDIOS DE MERCADO. 8- REALIZACIÓN DE TODA TAREA ADMINISTRATIVA QUE PROVENGA DE LA EXTERNALIZACIÓN DE LOS SERVICIOS ADMINISTRATIVOS PROPIOS DE CUALQUIER ENTIDAD PÚBLICA O PRIVADA. 9- GESTIÓN Y EXPLOTACIÓN INTEGRAL DE POLIDEPORTIVOS Y CENTROS Y EVENTOS FESTIVOS, CULTURALES, DEPORTIVOS, DE ESPECTÁCULOS Y SIMILARES. GESTIÓN INTEGRAL DE CONGRESOS, FERIAS, EXPOSICIONES Y CUALESQUIERA EVENTOS QUE IMPLIQUEN LA REUNIÓN DE PERSONAS O PATRIMONIOS, ASÍ COMO DE TODAS LAS ACTIVIDADES AUXILIARES VINCULADAS A LOS MISMOS. 10- ASISTENCIA SOCIAL, SANITARIA Y DOMICILIARIA, ACOMPAÑAMIENTO, CUIDADO ANIMACIÓN Y ATENCIÓN A ANCIANOS, ENFERMOS, NIÑOS Y PERSONAS DISMINUIDAS SÍQUICA O FÍSICAMENTE CON PERSONAL DEBIDAMENTE CUALIFICADO. PERSONAL AUXILIAR EN CENTROS EDUCATIVOS, CUIDADORES, ANIMADORES, MONITORES DE TIEMPO LIBRE, ETC. GESTIÓN INEGRAL DE RESIDENCIAS DE LA 3ª EDAD, TANTO PÚBLICAS COMO PRIVADAS. 11- SERVICIO DE CONSERJERÍA, GUARDA, GUARDARROPÍA Y MANTENIMIENTO INTEGRAL DE EDIFICIOS O CUALQUIER TIPO DE RECINTOS CON PORTEROS, VIGILANTES, TELEFONISTAS, ASCENSORISTAS Y CUANTOS TÉCNICOS SE REQUIERAN PARA LA PERFECTA CONSERVACIÓN DE LOS MISMOS. 12- LOS SERVICIOS RELACIONADOS CON LA HOSTELERÍA Y RESTAURACIÓN, TALES COMO COCINEROS, PINCHES, CAMAREROS, ASÍ COMO LOS SERIVIOS DE CATERING Y RESTAURACIÓN COLECTIVA, YA SEA DE FORMA REGULAR O PUNTURAL EN BANQUETES, CONFERENCIAS U OTROS TIPOS DE ACTOS Y CELEBRACIONES. 13- SERVICIOS DE TELEFONISTAS, RECEPCIONISTAS, ORDENANZAS Y ASÍ COMO ATENCIÓN TELEFÓNICA A CLIENTES, PRESTACIÓN A DISTANCIA DE SERVICIOS DE ASISTENCIA Y DE CONSULTA Y TODO TIPO DESERVICIOS DE MARKETING TELEFÓNICO. 14- SERVICIO DE AZAFATAS EN CONGRESOS, FERIAS, CONFERENCIAS, EXPOSICIONES Y EVENTOS SOCIO-CULTURALES DE TODO TIPO. GUÍAS TURÍSTICOS. TRADUCTORES E INTÉRPRETES. 15 &#8211; LA GESTIÓN DEL SERVICIO DE LECTURA DE CONTADORES DE AGUA, LUZ, GAS, ETC. ASÍ COMO LA DISTRIBUCIÓN Y GESTIÓN DE LAS FACTURAS ASOCIADAS AL MISMO. 16.- EL LAVADO, PLANCHADO, COSIDO Y SIMILARES DE TODO TIPO DE ROPA. 17- MANTENIMIENTO, REPARACIÓN Y REPOSICIÓN DE MOBILIARIO URBANO, PAPELERAS, BANCOS, MARQUESINAS, BARANDILLAS, FAROLAS. 18- LA GESTIÓN Y CONSERVACIÓN DE CABINAS TELEFÓNICAS, CAJEROS AUTOMÁTICOS, MÁQUINAS VENDEDORAS O EXPENDEDORAS DE TODO TIPO DE ARTÍCULOS, MÁQUINAS RECREATIVAS, ETC., QUE INCLUYE LA REPARACIÓN, COLOCACIÓN DE PUBLICIDAD, RECAUDACIÓN, ARQUEO, TRANSPORTE Y GUARDA DE LOS IMPORTES COBRADOS Y LA REPOSICIÓN DE LOS ARTÍCULOS CONSUMIDOS. 19- LA COLOCACIÓN DE PUBLICIDAD, EXTERIOR E INTERIOR, EN CUALQUIER CLASE DE SOPORTE. 20- LA RECOGIDA DE BASURAS Y RESIDUOS EN CUALQUIER TIPO DE EDIFICIOS Y SU TRASLADO A LOS LUGARES LEGALMENTE AUTORIZADOS. 21- SERVICIO DE CONDUCTORES Y TRASLADO DE PERSONAL A CENTROS DE TRABAJO. 22- LOS PROCESOS DE MONTAJE Y ENSAMBLAJE EN FÁBRICAS E INSTALACIONES PRODUCTIVAS. 23- ARCHIVO Y ALMACENAMIENTO DE DATOS EN CUALQUIER TIPO DE SOPORTE, YA SEA GRÁFICO O INFORMÁTICO. 24- LA FORMACIÓN A PROFESIONALES Y EL RECICLAJE DE LAS PERSONAS QUE PRESTEN LOS SERVICIOS EXPRESADOS ANTERIORMENTE. 25- Y EN GENERAL LA PRESTACIÓN A PERSONAS FÍSICAS, JURÍDICAS, ENTIDADES PÚBLICAS O PRIVADAS DE PROFESIONALES CUALIFICADOS DE LOS DISTINTOS GREMIOS Y CON LOS MEDIOS NECESARIOS PARA EL DESARROLLO DE CUALQUIER PROFESIOÓN Y EN ESPECIAL DE TODAS Y CADA UNA DE LAS QUE SE RELACIONAN DIRECTAMENTE CON EL OBJETO SOCIAL, EXCEPTUANDO TODAS AQUELLAS QUE LA LEY RESERVA A EMPRESAS DE SEGURIDAD.",
      "mainEntityOfPage": "https://www.contratacion.euskadi.eus/webkpe00-kperoc/es/ac71aBusquedaRegistrosWar/empresa/00082",
      "_links": {
        "self": {
          "name": "LIMPIEZA Y MANTENIMIENTO IMPACTO, S.L.",
          "href": "https://api.euskadi.eus/procurements/companies/00082"
        }
      }
    },
    {
      "name": "OSCAR IBAÑEZ BERMEJO-PEDRO MARIA IBAÑEZ BERMEJO-PEDRO IBAÑEZ SOMALO",
      "registrationNumber": "10329",
      "identificationNumber": "J95384640",
      "address": "Calle San Vicente (48902) nº 9 - local",
      "location": {
        "postalCode": "48902",
        "municipality": "Barakaldo",
        "county": "Bizkaia",
        "municipalityId": "013",
        "countyId": "48"
      },
      "economicActivities": [
        {
          "id": "1.659.2",
          "name": "Venta al por menor de muebles de oficina y máquinas y equipos de oficina",
          "_links": {
            "self": {
              "name": "Venta al por menor de muebles de oficina y máquinas y equipos de oficina",
              "href": "https://api.euskadi.eus/procurements/companies/economic-activities/1.659.2"
            }
          }
        },
        {
          "id": "1.659.4",
          "name": "Venta al por menor de libros, periódicos y artículos de papelería y escritorio",
          "_links": {
            "self": {
              "name": "Venta al por menor de libros, periódicos y artículos de papelería y escritorio",
              "href": "https://api.euskadi.eus/procurements/companies/economic-activities/1.659.4"
            }
          }
        },
        {
          "id": "1.691.9",
          "name": "Reparación de otros bienes de consumo n.c.o.p",
          "_links": {
            "self": {
              "name": "Reparación de otros bienes de consumo n.c.o.p",
              "href": "https://api.euskadi.eus/procurements/companies/economic-activities/1.691.9"
            }
          }
        }
      ],
      "certificateStartDate": "2025-09-12",
      "certificateEndDate": "2026-03-11",
      "object": "EXPLOTACIÓN DE UN NEGOCIO DE VENTA MENOR DE EQUIPAMIENTOS INFORMÁTICOS DE MATERIAL DE PAPELERÍA Y ASISTENCIA TÉCNICA INFORMÁTICA.",
      "mainEntityOfPage": "https://www.contratacion.euskadi.eus/webkpe00-kperoc/es/ac71aBusquedaRegistrosWar/empresa/10329",
      "_links": {
        "self": {
          "name": "OSCAR IBAÑEZ BERMEJO-PEDRO MARIA IBAÑEZ BERMEJO-PEDRO IBAÑEZ SOMALO",
          "href": "https://api.euskadi.eus/procurements/companies/10329"
        }
      }
    },
    {
      "name": "TXINTA KOOPERATIBA ELKARTEA",
      "registrationNumber": "10328",
      "identificationNumber": "F95242822",
      "address": "DONE BIKENDI, 2-4.",
      "location": {
        "postalCode": "48001",
        "municipality": "Bilbao",
        "county": "Bizkaia",
        "municipalityId": "020",
        "countyId": "48"
      },
      "economicActivities": [
        {
          "id": "1.843.9",
          "name": "Otros servicios técnicos n.c.o.p",
          "_links": {
            "self": {
              "name": "Otros servicios técnicos n.c.o.p",
              "href": "https://api.euskadi.eus/procurements/companies/economic-activities/1.843.9"
            }
          }
        },
        {
          "id": "1.933.9",
          "name": "Otras actividades de enseñanza tales como idiomas, mecanografía",
          "_links": {
            "self": {
              "name": "Otras actividades de enseñanza tales como idiomas, mecanografía",
              "href": "https://api.euskadi.eus/procurements/companies/economic-activities/1.933.9"
            }
          }
        }
      ],
      "certificateStartDate": "2025-09-12",
      "certificateEndDate": "2026-03-10",
      "object": "EUSKAL KOMUNITATEA TRINKOTZEKO ETA INDARTZEKO ESPAZIOAK ETA BALIABIDEAK SORTZEA ETA KUDEATZEA, EUSKARA-IRAKASKUNTZA ETA ZABALKUNTZAREN BIDEZ ETA KULTURA-JARDUERAK GAUZATUZ: EUSKARA-IKASTAROAK, BARNETEGIAK, MINTEGIAK, EGONALDIAK; IKUS-ENTZUNEZKO HEDABIDEAK ZEIN HEDABIDE IDATZIAK; MULTIMEDIA ETA TRANSMEDIA EKOIZPENAK; KULTUR ARGITALPENAK ZEIN DIDAKTIKOAK; KULTUR EKITALDIAK ETA AISIALDI-JARDUERAK; OSTALARITZA-ZERBITZUAK…",
      "mainEntityOfPage": "https://www.contratacion.euskadi.eus/webkpe00-kperoc/es/ac71aBusquedaRegistrosWar/empresa/10328",
      "_links": {
        "self": {
          "name": "TXINTA KOOPERATIBA ELKARTEA",
          "href": "https://api.euskadi.eus/procurements/companies/10328"
        }
      }
    },
    {
      "name": "BAUSCH & LOMB, S.A.",
      "registrationNumber": "03346",
      "identificationNumber": "A60567922",
      "address": "AVDA. VALDELAPARRA, 4",
      "location": {
        "postalCode": "28108",
        "municipality": "Alcobendas",
        "county": "Madrid",
        "municipalityId": "006",
        "countyId": "28"
      },
      "economicActivities": [
        {
          "id": "1.614.1",
          "name": "Venta al por mayor de productos farmacéuticos y medicamentos",
          "_links": {
            "self": {
              "name": "Venta al por mayor de productos farmacéuticos y medicamentos",
              "href": "https://api.euskadi.eus/procurements/companies/economic-activities/1.614.1"
            }
          }
        },
        {
          "id": "1.619.2",
          "name": "Venta al por mayor de aparatos e instrumentos médicos, ortopédicos, ópticos",
          "_links": {
            "self": {
              "name": "Venta al por mayor de aparatos e instrumentos médicos, ortopédicos, ópticos",
              "href": "https://api.euskadi.eus/procurements/companies/economic-activities/1.619.2"
            }
          }
        },
        {
          "id": "1.619.9",
          "name": "Venta al por mayor de otros productos n.c.o.p",
          "_links": {
            "self": {
              "name": "Venta al por mayor de otros productos n.c.o.p",
              "href": "https://api.euskadi.eus/procurements/companies/economic-activities/1.619.9"
            }
          }
        }
      ],
      "certificateStartDate": "2025-09-12",
      "certificateEndDate": "2026-03-12",
      "object": "LA FABRICACIÓN, COMPRAVENTA, COMERCIALIZACIÓN, DISTRIBUCIÓN, ALMACENAMIENTO, REPRESENTACIÓN, PROMOCIÓN, IMPORTACIÓN Y EXPORTACIÓN, EN SU PROPIO NOMBRE O POR CUENTA DE TERCEROS, DE MEDICAMENTOS, PRODUCTOS SANITARIOS, PLANTAS MEDICINALES, COMPLEMENTOS ALIMENTICIOS, PRODUCTOS DIETÉTICOS, COSMÉTICOS, PRODUCTOS DE HIGIENE PERSONAL, CUALQUIER OTRO PRODUCTO RELACIONADO CON EL NEGOCIO DE LA ÓPTICA EN GENERAL, INSTRUMENTOS Y UTENSILIOS ÓPTICOS Y OFTÁLMICOS DE TODA CLASE Y BARÓMETROS E INSTRUMENTOS BAROMÉTRICOS. ",
      "mainEntityOfPage": "https://www.contratacion.euskadi.eus/webkpe00-kperoc/es/ac71aBusquedaRegistrosWar/empresa/03346",
      "_links": {
        "self": {
          "name": "BAUSCH & LOMB, S.A.",
          "href": "https://api.euskadi.eus/procurements/companies/03346"
        }
      }
    },
    {
      "name": "RDT SPAIN NORTH, S.L.",
      "registrationNumber": "09835",
      "identificationNumber": "B64227382",
      "address": "PARQUE TECNOLOGICO DE BIZKAIA, EDIF 103, PB",
      "location": {
        "postalCode": "48170",
        "municipality": "Zamudio",
        "county": "Bizkaia",
        "municipalityId": "905",
        "countyId": "48"
      },
      "economicActivities": [
        {
          "id": "1.843.1",
          "name": "Servicios técnicos de ingeniería",
          "_links": {
            "self": {
              "name": "Servicios técnicos de ingeniería",
              "href": "https://api.euskadi.eus/procurements/companies/economic-activities/1.843.1"
            }
          }
        }
      ],
      "certificateStartDate": "2025-09-12",
      "certificateEndDate": "2026-03-09",
      "object": "LA REALIZACIÓN, ORGANIZACIÓN Y COORDINACIÓN DE TODA LA CLASE DE PROYECTOS TÉCNICOS Y EJECUCIÓN, ESTUDIOS, INFORMES Y TRABAJOS DE CONSULTORIA Y ASISTENCIA TÉCNICA DESARROLLADOS EN EL CAMPO DE LA INGENIERÍA, INCLUIDA LA ELÉCTRICA, LA MECÁNICA, LA DE TUBERÍAS, LA DE INSTRUMENTACIÓN, DISEÑO, CÁLCULO, LA INDUSTRIAL, I+D, ELECTRÓNICA, FOTÓNICA, IT ASÍ COMO OTRAS DISCIPLINAS DE INGENIERÍA EN LAS DIFERENTES ÁREAS QUE INTEGRAN LA EJECUCIÓN DE PRODUCTOS, SERVICIOS Y PROYECTOS INTEGRALES DE INGENIERÍA TANTO NACIONALES E INTERNACIONALES.",
      "mainEntityOfPage": "https://www.contratacion.euskadi.eus/webkpe00-kperoc/es/ac71aBusquedaRegistrosWar/empresa/09835",
      "_links": {
        "self": {
          "name": "RDT SPAIN NORTH, S.L.",
          "href": "https://api.euskadi.eus/procurements/companies/09835"
        }
      }
    },
    {
      "name": "JULIO GALDER ANTON MARTINEZ",
      "registrationNumber": "09474",
      "identificationNumber": "78999311S",
      "address": "Calle El Perro",
      "location": {
        "postalCode": "48005",
        "municipality": "Bilbao",
        "county": "Bizkaia",
        "municipalityId": "020",
        "countyId": "48"
      },
      "economicActivities": [
        {
          "id": "1.961.3",
          "name": "Decoraciones escénicas para películas",
          "_links": {
            "self": {
              "name": "Decoraciones escénicas para películas",
              "href": "https://api.euskadi.eus/procurements/companies/economic-activities/1.961.3"
            }
          }
        }
      ],
      "certificateStartDate": "2025-09-12",
      "certificateEndDate": "2026-03-02",
      "object": "DECORACIONES ESCÉNICAS PARA PELÍCULAS.",
      "mainEntityOfPage": "https://www.contratacion.euskadi.eus/webkpe00-kperoc/es/ac71aBusquedaRegistrosWar/empresa/09474",
      "_links": {
        "self": {
          "name": "JULIO GALDER ANTON MARTINEZ",
          "href": "https://api.euskadi.eus/procurements/companies/09474"
        }
      }
    },
    {
      "name": "JOSE FRANCISCO DE ASSAS YAGÜES",
      "registrationNumber": "09844",
      "identificationNumber": "34100603K",
      "address": "Calle Zarautz (20018) 80, bajo (URBAMA)",
      "location": {
        "postalCode": "20018",
        "municipality": "Donostia / San Sebastián",
        "county": "Gipuzkoa",
        "municipalityId": "069",
        "countyId": "20"
      },
      "economicActivities": [
        {
          "id": "2.731",
          "name": "Abogados",
          "_links": {
            "self": {
              "name": "Abogados",
              "href": "https://api.euskadi.eus/procurements/companies/economic-activities/2.731"
            }
          }
        }
      ],
      "certificateStartDate": "2025-09-12",
      "certificateEndDate": "2026-03-10",
      "object": "ABOGADOS.",
      "mainEntityOfPage": "https://www.contratacion.euskadi.eus/webkpe00-kperoc/es/ac71aBusquedaRegistrosWar/empresa/09844",
      "_links": {
        "self": {
          "name": "JOSE FRANCISCO DE ASSAS YAGÜES",
          "href": "https://api.euskadi.eus/procurements/companies/09844"
        }
      }
    }
  ]
}