{
  "totalItems": 9042,
  "totalPages": 905,
  "currentPage": 512,
  "itemsOfPage": 10,
  "items": [
    {
      "name": "ALIUM CONSULTING, S.L.",
      "registrationNumber": "03470",
      "identificationNumber": "B48971089",
      "address": "Gran Vía, 58-4º Izda.",
      "location": {
        "postalCode": "48011",
        "municipality": "Bilbao",
        "county": "Bizkaia",
        "municipalityId": "020",
        "countyId": "48"
      },
      "economicActivities": [
        {
          "id": "1.846",
          "name": "Empresas de estudios de mercado",
          "_links": {
            "self": {
              "name": "Empresas de estudios de mercado",
              "href": "https://api.euskadi.eus/procurements/companies/economic-activities/1.846"
            }
          }
        },
        {
          "id": "1.932.1",
          "name": "Enseñanza de formación y perfeccionamiento profesional no superior",
          "_links": {
            "self": {
              "name": "Enseñanza de formación y perfeccionamiento profesional no superior",
              "href": "https://api.euskadi.eus/procurements/companies/economic-activities/1.932.1"
            }
          }
        },
        {
          "id": "1.934",
          "name": "Enseñanza fuera de establecimiento permanente",
          "_links": {
            "self": {
              "name": "Enseñanza fuera de establecimiento permanente",
              "href": "https://api.euskadi.eus/procurements/companies/economic-activities/1.934"
            }
          }
        }
      ],
      "certificateStartDate": "2021-10-05",
      "certificateEndDate": "2022-04-05",
      "object": "EL ASESORAMIENTO DE PESONAS FÍSICAS Y JURÍDICAS TANTO FISCAL COMO JURÍDICO Y FINANCIERO; EL ESTUDIO, INVESTIGACIÓN, PROMOCIÓN Y PRESTACIÓN DE SERVICIOS DE ASISTENCIA ADMINISTRATIVA, COMERCIAL, TÉCNICA Y CONTABLE, LA PROMOCIÓN, ESTUDIO Y REALIZACIÓN DE TODO TIPO DE PROYECTOS EMPRESARIALES PARA TERCERAS PERSONAS",
      "mainEntityOfPage": "https://www.contratacion.euskadi.eus/webkpe00-kperoc/es/ac71aBusquedaRegistrosWar/empresa/03470",
      "_links": {
        "self": {
          "name": "ALIUM CONSULTING, S.L.",
          "href": "https://api.euskadi.eus/procurements/companies/03470"
        }
      }
    },
    {
      "name": "NERBIOIALDEKO ZERBITZUAK, KOOP. ELK. TXIKIA",
      "registrationNumber": "07925",
      "identificationNumber": "F95833315",
      "address": "Kale Barria, 13 2º E",
      "location": {
        "postalCode": "48460",
        "municipality": "Urduña/Orduña",
        "county": "Bizkaia",
        "municipalityId": "074",
        "countyId": "48"
      },
      "economicActivities": [
        {
          "id": "1.504.1",
          "name": "Instalaciones eléctricas en general",
          "_links": {
            "self": {
              "name": "Instalaciones eléctricas en general",
              "href": "https://api.euskadi.eus/procurements/companies/economic-activities/1.504.1"
            }
          }
        }
      ],
      "certificateStartDate": "2021-10-05",
      "certificateEndDate": "2022-03-29",
      "object": "A) REALIZACIÓN DE TRABAJOS DE INSTALACIONES Y PROYECTOS ELÉCTRICOS. B) PRESTAR SERVICIOS DE MANTENIMIENTO Y REPARACIONES ELÉCTRICAS Y DE MAQUINARIA INDUSTRIAL. C) COMERCIALIZACIÓN DE APARATOLOGÍA ELÉCTRICA Y PRODUCTOS INDUSTRIALES. D) COORDINACIÓN DE SEGURIDAD Y SALUD ASÍ COMO LA LEGALIZACIÓN DE LAS INSTALACIONES. E) CALIFICACIÓN ENERGÉTICA DE EDIFICIOS Y ESTUDIOS DE EFICIENCIA ENERGÉTICA. F) CONSULTORÍA ENERGÉTICA Y FORMACIÓN",
      "mainEntityOfPage": "https://www.contratacion.euskadi.eus/webkpe00-kperoc/es/ac71aBusquedaRegistrosWar/empresa/07925",
      "_links": {
        "self": {
          "name": "NERBIOIALDEKO ZERBITZUAK, KOOP. ELK. TXIKIA",
          "href": "https://api.euskadi.eus/procurements/companies/07925"
        }
      }
    },
    {
      "name": "SOLUCIONES ECOLÓGICAS KIMU 2000, S.L.",
      "registrationNumber": "07924",
      "identificationNumber": "B01104892",
      "address": "Calle Gerezpea Nº2",
      "location": {
        "postalCode": "01015",
        "municipality": "Vitoria-Gasteiz",
        "county": "Araba/Álava",
        "municipalityId": "059",
        "countyId": "01"
      },
      "economicActivities": [
        {
          "id": "1.614.2",
          "name": "Venta al por mayor de productos de perfumería, droguería, higiene y belleza",
          "_links": {
            "self": {
              "name": "Venta al por mayor de productos de perfumería, droguería, higiene y belleza",
              "href": "https://api.euskadi.eus/procurements/companies/economic-activities/1.614.2"
            }
          }
        },
        {
          "id": "1.616.6",
          "name": "Venta al por mayor de productos químicos industriales",
          "_links": {
            "self": {
              "name": "Venta al por mayor de productos químicos industriales",
              "href": "https://api.euskadi.eus/procurements/companies/economic-activities/1.616.6"
            }
          }
        }
      ],
      "certificateStartDate": "2021-10-05",
      "certificateEndDate": "2022-03-14",
      "object": "LA COMPRA-VENTA Y DISTRIBUCIÓN DE PRODUCTOS QUÍMICOS, DE LIMPIEZA Y LUBRICANTES",
      "mainEntityOfPage": "https://www.contratacion.euskadi.eus/webkpe00-kperoc/es/ac71aBusquedaRegistrosWar/empresa/07924",
      "_links": {
        "self": {
          "name": "SOLUCIONES ECOLÓGICAS KIMU 2000, S.L.",
          "href": "https://api.euskadi.eus/procurements/companies/07924"
        }
      }
    },
    {
      "name": "ELKOR BIZKAIA, S.L.",
      "registrationNumber": "07923",
      "identificationNumber": "B42807040",
      "address": "Pol. Artunduaga 7, PABELLÓN 27",
      "location": {
        "postalCode": "48970",
        "municipality": "Basauri",
        "county": "Bizkaia",
        "municipalityId": "015",
        "countyId": "48"
      },
      "economicActivities": [
        {
          "id": "1.504.12",
          "name": "Instalaciones eléctricas en toda clase de edificios",
          "_links": {
            "self": {
              "name": "Instalaciones eléctricas en toda clase de edificios",
              "href": "https://api.euskadi.eus/procurements/companies/economic-activities/1.504.12"
            }
          }
        }
      ],
      "certificateStartDate": "2021-10-04",
      "certificateEndDate": "2022-03-30",
      "object": "LA INTERMEDIACIÓN EN LA REALIZACIÓN DE PROYECTOS DE INGENIERÍA ELÉCTRICA, ASÍ COMO LA FABRICACIÓN, INSTALACIÓN, MANTENIMIENTO, REPARACIÓN Y GESTIÓN DE TODO  TIPO DE INSTALACIONES ELÉCTRICAS DE ALTA Y BAJA TENSIÓN, INCLUSO VINCULADAS A ENERGÍAS RENOVABLES, SISTEMAS INFORMÁTICOS Y TELECOMUNICACIONES",
      "mainEntityOfPage": "https://www.contratacion.euskadi.eus/webkpe00-kperoc/es/ac71aBusquedaRegistrosWar/empresa/07923",
      "_links": {
        "self": {
          "name": "ELKOR BIZKAIA, S.L.",
          "href": "https://api.euskadi.eus/procurements/companies/07923"
        }
      }
    },
    {
      "name": "GRUAUTO ASISTENCIA, S.L.",
      "registrationNumber": "05486",
      "identificationNumber": "B48538987",
      "address": "Crta. Basurto a Castrejana, 139",
      "location": {
        "postalCode": "48002",
        "municipality": "Bilbao",
        "county": "Bizkaia",
        "municipalityId": "020",
        "countyId": "48"
      },
      "economicActivities": [
        {
          "id": "1.722",
          "name": "Transporte de mercancías por carretera",
          "_links": {
            "self": {
              "name": "Transporte de mercancías por carretera",
              "href": "https://api.euskadi.eus/procurements/companies/economic-activities/1.722"
            }
          }
        }
      ],
      "certificateStartDate": "2021-10-04",
      "certificateEndDate": "2022-04-04",
      "object": "LOS SERVICIOS DE GRÚAS PARA REMOLQUE Y TRANSPORTES DE VEHÍCULOS INDUSTRIALES, AUTOMÓVILES Y MOTOCICLETAS. TRANSPORTES DE MERCANCÍAS. ALQUILER Y ESTANCIA DE VEHÍCULOS. TRANSPORTES DE VIAJEROS POR CARRETERA, YA SEAN CARRETERAS LOCALES, COMARCALES, NACIONALES, O INCLUSO DE OTROS PAÍSES, O DE LA COMUNIDAD ECONÓMICA EUROPEA. ASISTENCIA Y REPARACIÓN DE VEHÍCULOS EN CARRETERA. TRANSPORTES POR AUTOTAXIS",
      "mainEntityOfPage": "https://www.contratacion.euskadi.eus/webkpe00-kperoc/es/ac71aBusquedaRegistrosWar/empresa/05486",
      "_links": {
        "self": {
          "name": "GRUAUTO ASISTENCIA, S.L.",
          "href": "https://api.euskadi.eus/procurements/companies/05486"
        }
      }
    },
    {
      "name": "ASOCIACION BATERATZE PARA EL DESARROLLO PERSONAL Y COMUNITARIO",
      "registrationNumber": "07921",
      "identificationNumber": "G95329728",
      "address": "Avenida Julian Gaiarre, 62 2º C I",
      "location": {
        "postalCode": "48004",
        "municipality": "Bilbao",
        "county": "Bizkaia",
        "municipalityId": "020",
        "countyId": "48"
      },
      "economicActivities": [
        {
          "id": "1.931.3",
          "name": "Enseñanza de bachillerato, formación profesional exclusivamente",
          "_links": {
            "self": {
              "name": "Enseñanza de bachillerato, formación profesional exclusivamente",
              "href": "https://api.euskadi.eus/procurements/companies/economic-activities/1.931.3"
            }
          }
        },
        {
          "id": "1.932.1",
          "name": "Enseñanza de formación y perfeccionamiento profesional no superior",
          "_links": {
            "self": {
              "name": "Enseñanza de formación y perfeccionamiento profesional no superior",
              "href": "https://api.euskadi.eus/procurements/companies/economic-activities/1.932.1"
            }
          }
        }
      ],
      "certificateStartDate": "2021-09-30",
      "certificateEndDate": "2022-02-28",
      "object": "PRESTAR SERVICIOS PARA EL DESARROLLO PERSONAL Y COMUNITARIO ESPECIALMENTE EN LOS ÁMBITOS RELACIONADOS CON: - LA EDUCACIÓN. - FORMACIÓN Y CAPACITACIÓN PERSONAL. - ANIMACIÓN SOCIO-CULTURAL. - EDUCACIÓN MEDIOAMBIENTAL. - TRABAJO SOCIAL. - EDUCACIÓN E INTEGRACIÓN SOCIAL. - CUALQUIER OTRO QUE TENGA RELACIÓN CON LAS TAREAS AQUÍ DESCRITAS. PARA LO CONSECUCIÓN DE DICHOS FINES SE LLEVARÁN A CABO, PREVIO EL CUMPLIMIENTO DE LOS REQUISITOS LEGALES ESTABLECIDOS, LAS SIGUIENTES ACTIVIDADES: - ESTUDIAR, PROPONER, ELABORAR, DESARROLLAR Y EJECUTAR, A INICIATIVA PROPIA O A PETICIÓN DE OTROS, ACTIVIDADES, PROYECTOS, ETC... RELACIONADO EN EL ART. 2 PÁRRAFO 1º. - CUALQUIER OTRA ACTIVIDAD QUE SEA CONSIDERADA POR LA ASOCIACIÓN Y TENGA RELACIÓN CON LOS FINES DESCRITOS. SIN PERJUICIO DE LAS ACTIVIDADES DESCRITAS EN EL APARTADO ANTERIOR, LA ASOCIACIÓN, PARA EL CUMPLIMIENTO DE SUS FINES PODRÁ: - DESARROLLAR ACTIVIDADES ECONÓMICAS DE TODO TIPO, ENCAMINADAS A LA REALIZACIÓN DE SUS FINES O A ALLEGAR RECURSOS CON ESE OBJETIVO. - ADQUIRIR Y POSEER BIENES DE TODAS CLASES Y POR CUALQUIER TÍTULO, ASÍ COMO CELEBRAR ACTOS Y CONTRATOS DE TODO GÉNERO. EJERCITAR TODA CLASE DE ACCIONES CONFORME A LAS LEYES O A SUS ESTATUTOS",
      "mainEntityOfPage": "https://www.contratacion.euskadi.eus/webkpe00-kperoc/es/ac71aBusquedaRegistrosWar/empresa/07921",
      "_links": {
        "self": {
          "name": "ASOCIACION BATERATZE PARA EL DESARROLLO PERSONAL Y COMUNITARIO",
          "href": "https://api.euskadi.eus/procurements/companies/07921"
        }
      }
    },
    {
      "name": "CASCO ANTIGUO COMERCIAL, S.L.",
      "registrationNumber": "07918",
      "identificationNumber": "B79683579",
      "address": "CALLE JORGE JUAN 118",
      "location": {
        "postalCode": "28028",
        "municipality": "Madrid",
        "county": "Madrid",
        "municipalityId": "079",
        "countyId": "28"
      },
      "economicActivities": [
        {
          "id": "1.453",
          "name": "Confección en serie de toda clase de prendas de vestir",
          "_links": {
            "self": {
              "name": "Confección en serie de toda clase de prendas de vestir",
              "href": "https://api.euskadi.eus/procurements/companies/economic-activities/1.453"
            }
          }
        },
        {
          "id": "1.494.2",
          "name": "Fabricación de artículos de deporte",
          "_links": {
            "self": {
              "name": "Fabricación de artículos de deporte",
              "href": "https://api.euskadi.eus/procurements/companies/economic-activities/1.494.2"
            }
          }
        },
        {
          "id": "1.619.1",
          "name": "Venta al por mayor de juguetes y artículos de deporte",
          "_links": {
            "self": {
              "name": "Venta al por mayor de juguetes y artículos de deporte",
              "href": "https://api.euskadi.eus/procurements/companies/economic-activities/1.619.1"
            }
          }
        }
      ],
      "certificateStartDate": "2021-09-29",
      "certificateEndDate": "2022-03-12",
      "object": "A) DISEÑO, FABRICACIÓN, VENTA Y POSTVENTA (REPARACIÓN Y MANTENIMIENTO), ALQUILER, DISTRIBUCIÓN Y COMERCIALIZACIÓN MAYORISTA Y MINORISTA DE: -EQUIPOS DE PROTECCIÓN INDIVIDUAL. -MATERIAL DE MONTAÑA, ESQUÍ, NÁUTICA Y DEPORTE. -MATERIAL DE BUCEO DEPORTIVO Y DE BUCEO PROFESIONAL Y MILITAR, INCLUIDOS EQUIPOS, HERRAMIENTAS Y UTILLAJES DE APOYO EN SUPERFICIE. -MATERIAL DE RESCATE, SALVAMENTO Y SEGURIDAD MARÍTIMA. -ROPA TÉCNICA Y CALZADO TÉCNICO PARA TRABAJOS PROFESIONALES. -UNIFORMES Y SUS ACCESORIOS, GUANTES, CINTURONES, PRENDAS DE CABEZA, GÉNEROS DE GUARNICIONERÍA, ARTÍCULOS DE LONA, SACAS Y BOLSAS. B) LA PRESTACIÓN DE SERVICIOS TÉCNICOS SUBACUÁTICOS DE BUCEO PROFESIONAL, BUCEO DEPORTIVO, ESCUELA DE BUCEO RECREATIVO Y SERVICIOS DE BUCEO CIENTÍFICO Y TÉCNICO. C) CARGA DE AIRE COMPRIMIDO Y MEZCLAS RESPIRABLES",
      "mainEntityOfPage": "https://www.contratacion.euskadi.eus/webkpe00-kperoc/es/ac71aBusquedaRegistrosWar/empresa/07918",
      "_links": {
        "self": {
          "name": "CASCO ANTIGUO COMERCIAL, S.L.",
          "href": "https://api.euskadi.eus/procurements/companies/07918"
        }
      }
    },
    {
      "name": "IBERSURGICAL, S.L.",
      "registrationNumber": "07917",
      "identificationNumber": "B46960795",
      "address": "VALLE DE LA BALLESTERA 64 BAJO",
      "location": {
        "postalCode": "46015",
        "municipality": "València",
        "county": "Valencia/València",
        "municipalityId": "250",
        "countyId": "46"
      },
      "economicActivities": [
        {
          "id": "1.619.2",
          "name": "Venta al por mayor de aparatos e instrumentos médicos, ortopédicos, ópticos",
          "_links": {
            "self": {
              "name": "Venta al por mayor de aparatos e instrumentos médicos, ortopédicos, ópticos",
              "href": "https://api.euskadi.eus/procurements/companies/economic-activities/1.619.2"
            }
          }
        },
        {
          "id": "1.659.2",
          "name": "Venta al por menor de muebles de oficina y máquinas y equipos de oficina",
          "_links": {
            "self": {
              "name": "Venta al por menor de muebles de oficina y máquinas y equipos de oficina",
              "href": "https://api.euskadi.eus/procurements/companies/economic-activities/1.659.2"
            }
          }
        }
      ],
      "certificateStartDate": "2021-09-29",
      "certificateEndDate": "2021-12-11",
      "object": "1.- LAS ACTIVIDADES DE ALMACENAMIENTO Y DEPÓSITO DE MERCANCÍAS (CNAE 5210). 2.- LA COMERCIALIZACIÓN DE MATERIAL CLÍNICO, CIENTÍFICO Y MÉDICO QUIRÚRGICO. 3.- LA INSTALACIÓN Y MANTENIMIENTO DE LABORATORIOS. 4.- EL DESARROLLO DE ACTIVIDADES DE MANTENIMIENTO Y REPARACIÓN DE EQUIPOS E INSTALACIONES DE ELECTROMEDICINA. 5.- EL MANTENIMIENTO Y REPARACIÓN DE EQUIPOS E INSTALACIONES DE FONTANERÍA, CONDUCCIONES DE AGUA Y GAS. 6.- EL MANTENIMIENTO Y REPARACIÓN DE EQUIPOS E INSTALACIONES ELÉCTRICAS Y ELECTRÓNICAS. 7.- Y LA CONSERVACIÓN Y MANTENIMIENTO INTEGRAL DE ESTACIONES DEPURADORAS",
      "mainEntityOfPage": "https://www.contratacion.euskadi.eus/webkpe00-kperoc/es/ac71aBusquedaRegistrosWar/empresa/07917",
      "_links": {
        "self": {
          "name": "IBERSURGICAL, S.L.",
          "href": "https://api.euskadi.eus/procurements/companies/07917"
        }
      }
    },
    {
      "name": "INYPSA CW INFRASTRUCTURES S.L.",
      "registrationNumber": "07916",
      "identificationNumber": "B79069555",
      "address": "C/General Díaz Porlier 49",
      "location": {
        "postalCode": "28001",
        "municipality": "Madrid",
        "county": "Madrid",
        "municipalityId": "079",
        "countyId": "28"
      },
      "economicActivities": [
        {
          "id": "1.843.1",
          "name": "Servicios técnicos de ingeniería",
          "_links": {
            "self": {
              "name": "Servicios técnicos de ingeniería",
              "href": "https://api.euskadi.eus/procurements/companies/economic-activities/1.843.1"
            }
          }
        }
      ],
      "certificateStartDate": "2021-09-29",
      "certificateEndDate": "2022-03-07",
      "object": "A) EN LOS CAMPOS DE LA INGENIERÍA Y ARQUITECTURA, CONSIDERÁNDOSE INCLUIDAS LAS ACTIVIDADES QUE SE REFIEREN A AGRICULTURA, GANADERÍA, PESCA, INDUSTRIA, ENERGÍA, MINERÍA, OBRAS PÚBLICAS, EDIFICACIÓN, URBANISMO, INSTALACIONES ELECTRÓNICAS, INSTALACIONES RADIOELÉCTRICAS, CARTOGRAFÍA, CATASTROS, GEOTECNIA, HIDROLOGÍA Y MEDIO AMBIENTE: LA REALIZACIÓN DE ESTUDIOS E INFORMES, PROYECTOS, DIRECCIÓN O EJECUCIÓN DE OBRAS, EL MANTENIMIENTO Y EXPLOTACIÓN DE LAS MISMAS, ASÍ COMO LA PRESTACIÓN DE SERVICIOS, INCLUIDOS LOS DE ANÁLISIS, ENSAYOS Y CONTROL TÉCNICO. B) EN LOS CAMPOS DEL MARKETING, LA ECONOMÍA Y FINANZAS, LO SOCIAL Y LO LABORAL: LA REALIZACIÓN DE ESTUDIOS E INFORMES. C) LA PRESTACIÓN DE SERVICIOS DE MANTENIMIENTO DE EQUIPOS E INSTALACIONES. D) LA PRESTACIÓN DE SERVICIOS DE INFORMACIÓN, PUBLICIDAD, ADMINISTRATIVOS Y COMUNICACIONES. E) LA PRESTACIÓN DE SERVICIOS ADMINISTRATIVOS ESPECÍFICAMENTE EN MATERIA DE ENCUESTAS TOMA DE DATOS Y SERVICIOS ANÁLOGOS. F) LA PRESTACIÓN DE SERVICIOS ESPECIALIZADOS DE HIGIENIZACIÓN, DESINFECCIÓN, DESINSECTACIÓN Y DESRATIZACIÓN. G) LA PRESTACIÓN DE SERVICIOS DE RECOGIDA, TRATAMIENTO E INCINERACIÓN DE RESIDUOS Y DESECHOS URBANOS. H) LA PRESTACIÓN DE SERVICIOS DE TRATAMIENTO DE LODOS. I) LA PRESTACIÓN DE SERVICIOS DE TRATAMIENTO DE RESIDUOS RADIACTIVOS Y ÁCIDOS. J) LA PRESTACIÓN DE SERVICIOS DE TRATAMIENTO DE RESIDUOS DE CENTROS SANITARIOS Y CLÍNICAS VETERINARIAS. K) LA PRESTACIÓN DE SERVICIOS DE TRATAMIENTO DE RESIDUOS OLEOSOS. L) LA PRESTACIÓN DE SERVICIOS DE MANTENIMIENTO Y REPARACIÓN DE EQUIPOS E INSTALACIONES INFORMÁTICAS Y TELECOMUNICACIONES. M) LA PRESTACIÓN DE SERVICIOS DE TECNOLOGÍAS DE LA INFORMACIÓN Y LAS COMUNICACIONES, INCLUYENDO LA CAPTURA DE INFORMACIÓN POR MEDIOS ELECTRÓNICOS, INFORMÁTICOS Y TELEMÁTICOS; EL DESARROLLO Y MANTENIMIENTO DE PROGRAMAS DE ORDENADOR; LAS TELECOMUNICACIONES; LA EXPLOTACIÓN Y CONTROL DE SISTEMAS INFORMÁTICOS E INFRAESTRUCTURAS TELEMÁTICAS, INCLUYENDO LOS SERVICIOS DE LOCALIZACIÓN Y MOVILIDAD; LOS SERVICIOS DE CERTIFICACIÓN ELECTRÓNICA; LOS DE EVALUACIÓN Y CERTIFICACIÓN TECNOLÓGICA Y, EN GENERAL, LA REALIZACIÓN DE TODO TIPO DE SERVICIOS INFORMÁTICOS Y TELEMÁTICOS EN SU MÁS AMPLIO SENTIDO. N) LA PRESTACIÓN DE SERVICIOS DE LIMPIEZA URBANA. Ñ) LA PROMOCIÓN, CONSTRUCCIÓN Y EXPLOTACIÓN DE CENTROS DE RESIDENCIA GERIÁTRICA",
      "mainEntityOfPage": "https://www.contratacion.euskadi.eus/webkpe00-kperoc/es/ac71aBusquedaRegistrosWar/empresa/07916",
      "_links": {
        "self": {
          "name": "INYPSA CW INFRASTRUCTURES S.L.",
          "href": "https://api.euskadi.eus/procurements/companies/07916"
        }
      }
    },
    {
      "name": "HEDIMA CUSTOM LEARNING SERVICES, S.L.",
      "registrationNumber": "07914",
      "identificationNumber": "B86762465",
      "address": "Avenida Ensanche de vallecas, 44. Planta 1ª",
      "location": {
        "postalCode": "28051",
        "municipality": "Madrid",
        "county": "Madrid",
        "municipalityId": "079",
        "countyId": "28"
      },
      "economicActivities": [
        {
          "id": "1.932.1",
          "name": "Enseñanza de formación y perfeccionamiento profesional no superior",
          "_links": {
            "self": {
              "name": "Enseñanza de formación y perfeccionamiento profesional no superior",
              "href": "https://api.euskadi.eus/procurements/companies/economic-activities/1.932.1"
            }
          }
        }
      ],
      "certificateStartDate": "2021-09-28",
      "certificateEndDate": "2022-03-13",
      "object": "(I) LA ENSEÑANZA EN TODOS SUS NIVELES Y MODALIDADES, DE PRESENCIA, CORRESPONDENCIA Y A DISTANCIA, CONVENIDA DE CURSOS, CURSILLOS Y OPOSICIONES; ASESORÍA A TODO TIPO DE CENTROS DE ESTUDIOS, DE CENTROS Y ACADEMIAS, ORGANISMOS PÚBLICOS Y PRIVADOS, ASÍ COMO A MUNICIPIOS Y COMUNIDADES AUTÓNOMAS, PUDIENDO COLABORAR CON EL INEM, IMSERSO Y OTRAS INSTITUCIONES. (II) LA PRESTACIÓN DE SERVICIOS DE ASESORAMIENTO EMPRESARIAL, GESTIÓN ADMINISTRATIVA, LABORAL Y DE RECURSOS HUMANOS, INCLUYENDO LA PRESTACIÓN DE SERVICIOS DE FOMENTO DE EMPLEO Y DE VOLUNTARIADO PARA TODO TIPO DE COLECTIVOS A TRAVÉS DE CONTRATOS O CONVENIOS CON LAS ADMINISTRACIONES PÚBLICAS. (III) LA PRESTACIÓN DE SERVICIOS DE CONSULTORÍA, AUDITORÍA INTEGRAL, ASISTENCIA, DIAGNÓSTICO, ELABORACIÓN DE PROGRAMAS, GESTIÓN, EVALUACIÓN DE SERVICIOS, TERMALISMO SOCIAL, VACACIONES, CENTROS DE DÍA, ESTANCIAS DIURNAS, CENTROS DE TRATAMIENTOS, CENTROS DE REHABILITACIÓN, CENTROS DE EMPLEO, FORMACIÓN OCUPACIONAL, FORMACIÓN CONTINUA Y CENTROS RESIDENCIALES. (IV) LA PRESTACIÓN DE SERVICIOS SOCIALES, SANITARIOS, ASISTENCIALES, RECREATIVOS, CULTURALES, INFORMATIVOS, ORIENTATIVOS Y DE GESTIÓN PARA MENORES, JÓVENES, ADULTOS, DISMINUIDOS FÍSICOS, DISMINUIDOS PSÍQUICOS, DISMINUIDOS SENSORIALES, MUJERES, ANCIANOS Y MINORÍAS ÉTNICAS. (V) LA COMPRAVENTA, FABRICACIÓN, IMPORTACIÓN, EXPORTACIÓN, MANIPULACIÓN Y DISTRIBUCIÓN DE TODA CLASE DE MATERIAL DIDÁCTICO, ARTÍCULOS DE PAPELERÍA Y ESCRITORIO. (VI) LA EDICIÓN Y DISTRIBUCIÓN DE MATERIAL DIDÁCTICO, IMPRESOS, FOLLETOS, EPÍSTOLAS, ESCRITOS, DISCURSOS Y ALOCUCIONES, INFORMES FORENSES, EXPLICACIONES DE CÁTEDRA, TANTO PARA PROFESIONALES COMO A NIVEL DE APRENDIZAJE. (VII) LA ADQUISICIÓN, ENAJENACIÓN, EXPLOTACIÓN Y COMERCIALIZACIÓN DE BIENES INMUEBLES. (VIII) PUBLICIDAD EN GENERAL, TANTO EN RADIO, PRENSA, TELEVISIÓN, VÍDEO, CINE O CUALQUIER OTRO SOPORTE DE LÍCITO COMERCIO. RECLAMOS PUBLICITARIOS, SOPORTE INFORMÁTICO. FOTOGRAFÍAS PUBLICITARIAS, REVISTAS, CATÁLOGOS. EDICIONES DE REVISTAS. LIBROS Y PELÍCULAS, TANTO EN CINE COMO EN VÍDEO, SOPORTE INFORMÁTICO. GUÍAS PUBLICITARIAS, TURÍSTICAS, INFORMATIVAS, PROFESIONALES, INDUSTRIALES Y COMERCIALES",
      "mainEntityOfPage": "https://www.contratacion.euskadi.eus/webkpe00-kperoc/es/ac71aBusquedaRegistrosWar/empresa/07914",
      "_links": {
        "self": {
          "name": "HEDIMA CUSTOM LEARNING SERVICES, S.L.",
          "href": "https://api.euskadi.eus/procurements/companies/07914"
        }
      }
    }
  ]
}