{
  "totalItems": 9042,
  "totalPages": 905,
  "currentPage": 460,
  "itemsOfPage": 10,
  "items": [
    {
      "name": "G.R.A. HEMISFERIO DE ACTIVIDADES MULTIMEDIA, S.L.",
      "registrationNumber": "03458",
      "identificationNumber": "B01400704",
      "address": "SAN PRUDENCIO, 4-BAJO",
      "location": {
        "postalCode": "01005",
        "municipality": "Vitoria-Gasteiz",
        "county": "Araba/Álava",
        "municipalityId": "059",
        "countyId": "01"
      },
      "economicActivities": [
        {
          "id": "1.844",
          "name": "Servicios de publicidad, relaciones públicas y similares",
          "_links": {
            "self": {
              "name": "Servicios de publicidad, relaciones públicas y similares",
              "href": "https://api.euskadi.eus/procurements/companies/economic-activities/1.844"
            }
          }
        }
      ],
      "certificateStartDate": "2023-05-31",
      "certificateEndDate": "2023-11-30",
      "object": "PROYECTAR, CREAR Y EJECUTAR ESTRATEGIAS DE COMUNICACIÓN COMERCIAL PARA TERCEROS, INCLUYENDO LA RALIZACIÓN DE CAMPAÑAS DE PUBLICIDAD PARA TERCEROS Y EL DISEÑO DE TODO TIPO DE ELEMENTOS QUE INTERVIENEN EN ELLAS. EN ESTE OBJETO IMPLICARÁN TODOS LOS SOCIOS TRABAJADORES SU PERSONAL TRABAJO",
      "mainEntityOfPage": "https://www.contratacion.euskadi.eus/webkpe00-kperoc/es/ac71aBusquedaRegistrosWar/empresa/03458",
      "_links": {
        "self": {
          "name": "G.R.A. HEMISFERIO DE ACTIVIDADES MULTIMEDIA, S.L.",
          "href": "https://api.euskadi.eus/procurements/companies/03458"
        }
      }
    },
    {
      "name": "URIBE KOSTA ASESORES, S.L.",
      "registrationNumber": "09035",
      "identificationNumber": "B16957359",
      "address": "CL AKILINO ARRIOLA, 51",
      "location": {
        "postalCode": "48600",
        "municipality": "Sopela",
        "county": "Bizkaia",
        "municipalityId": "085",
        "countyId": "48"
      },
      "economicActivities": [
        {
          "id": "1.849.9",
          "name": "Otros servicios independientes n.c.o.p",
          "_links": {
            "self": {
              "name": "Otros servicios independientes n.c.o.p",
              "href": "https://api.euskadi.eus/procurements/companies/economic-activities/1.849.9"
            }
          }
        }
      ],
      "certificateStartDate": "2023-05-31",
      "certificateEndDate": "2023-11-08",
      "object": "OTRAS ACTIVIDADES DE CONSULTORÍA DE GESTIÓN EMPRESARIAL.",
      "mainEntityOfPage": "https://www.contratacion.euskadi.eus/webkpe00-kperoc/es/ac71aBusquedaRegistrosWar/empresa/09035",
      "_links": {
        "self": {
          "name": "URIBE KOSTA ASESORES, S.L.",
          "href": "https://api.euskadi.eus/procurements/companies/09035"
        }
      }
    },
    {
      "name": "INKATEC AUTOMATIZACION Y ROBOTICA, S.L.",
      "registrationNumber": "08524",
      "identificationNumber": "B95790572",
      "address": "Avenida Antonio Alzaga",
      "location": {
        "postalCode": "48980",
        "municipality": "Santurtzi",
        "county": "Bizkaia",
        "municipalityId": "082",
        "countyId": "48"
      },
      "economicActivities": [
        {
          "id": "1.653.2",
          "name": "Venta al por menor de material y aparatos eléctricos, electrodomésticos y cocina",
          "_links": {
            "self": {
              "name": "Venta al por menor de material y aparatos eléctricos, electrodomésticos y cocina",
              "href": "https://api.euskadi.eus/procurements/companies/economic-activities/1.653.2"
            }
          }
        },
        {
          "id": "1.843.1",
          "name": "Servicios técnicos de ingeniería",
          "_links": {
            "self": {
              "name": "Servicios técnicos de ingeniería",
              "href": "https://api.euskadi.eus/procurements/companies/economic-activities/1.843.1"
            }
          }
        }
      ],
      "certificateStartDate": "2023-05-29",
      "certificateEndDate": "2023-11-29",
      "object": "SUMINISTROS, INSTALACIONES Y MANTENIMIENTO DE BIENES Y EQUIPOS PARA INSTALACIONES ELÉCTRICAS Y DE FLUIDOS (HIDRÁULICOS, NEUMÁTICOS Y AGUA), ASÍ COMO EL MONTAJE INDUSTRIAL DE MAQUINARIA, REALIZACIÓN DE PROYECTOS ELÉCTRICOS-NEUMÁTICOS, AUTOMATIZACIONES Y PROGRAMACIONES, ROBÓTICA; SUMINISTROS DE MATERIALES NEUMÁTICOS , HIDRÁULICOS Y DE FLUIDOS.",
      "mainEntityOfPage": "https://www.contratacion.euskadi.eus/webkpe00-kperoc/es/ac71aBusquedaRegistrosWar/empresa/08524",
      "_links": {
        "self": {
          "name": "INKATEC AUTOMATIZACION Y ROBOTICA, S.L.",
          "href": "https://api.euskadi.eus/procurements/companies/08524"
        }
      }
    },
    {
      "name": "DESATASCOS ISURBIDE, S.L.",
      "registrationNumber": "05244",
      "identificationNumber": "B95079844",
      "address": "Beurko Viejo Nº 7",
      "location": {
        "postalCode": "48902",
        "municipality": "Barakaldo",
        "county": "Bizkaia",
        "municipalityId": "013",
        "countyId": "48"
      },
      "economicActivities": [
        {
          "id": "1.504.2",
          "name": "Instalaciones de fontanería",
          "_links": {
            "self": {
              "name": "Instalaciones de fontanería",
              "href": "https://api.euskadi.eus/procurements/companies/economic-activities/1.504.2"
            }
          }
        },
        {
          "id": "1.921.4",
          "name": "Servicios de alcantarillado, evacuación y depuración de aguas residuales",
          "_links": {
            "self": {
              "name": "Servicios de alcantarillado, evacuación y depuración de aguas residuales",
              "href": "https://api.euskadi.eus/procurements/companies/economic-activities/1.921.4"
            }
          }
        }
      ],
      "certificateStartDate": "2023-05-27",
      "certificateEndDate": "2023-11-27",
      "object": "EL DESATASCO Y MANTENIMIENTO DE TUBERÍAS, SERVICIOS DE FONTANERÍA Y LIMPIEZAS INDUSTRIALES",
      "mainEntityOfPage": "https://www.contratacion.euskadi.eus/webkpe00-kperoc/es/ac71aBusquedaRegistrosWar/empresa/05244",
      "_links": {
        "self": {
          "name": "DESATASCOS ISURBIDE, S.L.",
          "href": "https://api.euskadi.eus/procurements/companies/05244"
        }
      }
    },
    {
      "name": "CBL INFORMATICA, S.L.",
      "registrationNumber": "07664",
      "identificationNumber": "B48654503",
      "address": "Avenida Cervantes 51 Edificio 10 Pta 4 Dpto 4",
      "location": {
        "postalCode": "48970",
        "municipality": "Basauri",
        "county": "Bizkaia",
        "municipalityId": "015",
        "countyId": "48"
      },
      "economicActivities": [
        {
          "id": "1.845",
          "name": "Explotación electrónica por cuenta de terceros",
          "_links": {
            "self": {
              "name": "Explotación electrónica por cuenta de terceros",
              "href": "https://api.euskadi.eus/procurements/companies/economic-activities/1.845"
            }
          }
        }
      ],
      "certificateStartDate": "2023-05-25",
      "certificateEndDate": "2023-11-25",
      "object": "A) LA COMPRA, VENTA, ARRENDAMIENTO Y REPRESENTACIÓN, EN CUALQUIERA DE SUS FÓRMULAS COMERCIALES, LA IMPORTACIÓN, EXPORTACIÓN, COMERCIALIZACIÓN, INDUSTRIALIZACIÓN Y DISTRIBUCIÓN DE ORDENADORES, COMPUTADORAS, CEREBROS ELECTRÓNICOS Y TODA CLASE DE APARATOS, ELEMENTOS, MAQUINARIA Y SUS COMPONENTES RELACIONADOS CON LA INFORMÁTICA Y LA ELECTRÓNICA. B) EL ASESORAMIENTO Y COMERCIALIZACIÓN DE PRODUCTOS Y SERVICIOS, IMPLANTACIÓN Y ADAPTACIÓN DE PROGRAMAS, RELACIONADOS CON LA INFORMÁTICA Y LA ELECTRÓNICA. C) LA ENSEÑANZA IMPARTIDA, TANTO EN AULAS PROPIAS O ALQUILADAS, COMO EN EL DOMICILIO DEL ALUMNO, O A DISTANCIA, BIEN POR CORRESPONDENCIA O POR OTROS SISTEMAS, EN TODOS LOS GRADOS Y DISCIPLINAS DEL CAMPO DE LA INFORMÁTICA\r\n",
      "mainEntityOfPage": "https://www.contratacion.euskadi.eus/webkpe00-kperoc/es/ac71aBusquedaRegistrosWar/empresa/07664",
      "_links": {
        "self": {
          "name": "CBL INFORMATICA, S.L.",
          "href": "https://api.euskadi.eus/procurements/companies/07664"
        }
      }
    },
    {
      "name": "NAVEN INGENIEROS SL",
      "registrationNumber": "09025",
      "identificationNumber": "B31765266",
      "address": "PASEO SANTXIKI 2, ED. L, OF. 114",
      "location": {
        "postalCode": "31192",
        "municipality": "Aranguren",
        "county": "Navarra",
        "municipalityId": "023",
        "countyId": "31"
      },
      "economicActivities": [
        {
          "id": "1.843.1",
          "name": "Servicios técnicos de ingeniería",
          "_links": {
            "self": {
              "name": "Servicios técnicos de ingeniería",
              "href": "https://api.euskadi.eus/procurements/companies/economic-activities/1.843.1"
            }
          }
        }
      ],
      "certificateStartDate": "2023-05-24",
      "certificateEndDate": "2023-11-16",
      "object": "A) LA INTERMEDIACIÓN Y COORDINACIÓN EN LA REALIZACIÓN, POR PROFESIONALES CON LA TITULACIÓN REQUERIDA POR LAS RESPECTIVAS LEYES, DE PROYECTOS, DIRECCIÓN TÉCNICAS Y DISEÑOS TÉCNICOS DE INSTALACIONES INDUSTRIALES, COMERCIALES O DE EQUIPAMIENTO EN GENERAL. B) COMERCIO, AL POR MAYOR, INTERINDUSTRIAL DE MAQUINARIA Y PRODUCTOS INDUSTRIALES. C) INSTALACIONES TÉCNICAS Y DE MANTENIMIENTO PARA EL SECTOR INDUSTRIAL, COMERCIAL Y DE EQUIPAMIENTO EN GENERAL.",
      "mainEntityOfPage": "https://www.contratacion.euskadi.eus/webkpe00-kperoc/es/ac71aBusquedaRegistrosWar/empresa/09025",
      "_links": {
        "self": {
          "name": "NAVEN INGENIEROS SL",
          "href": "https://api.euskadi.eus/procurements/companies/09025"
        }
      }
    },
    {
      "name": "IDOYA URRALBURU SOTO",
      "registrationNumber": "09022",
      "identificationNumber": "33430137M",
      "address": "PLAZA VIRGEN BLANCA 3, 2º IZ",
      "location": {
        "postalCode": "01001",
        "municipality": "Vitoria-Gasteiz",
        "county": "Araba/Álava",
        "municipalityId": "059",
        "countyId": "01"
      },
      "economicActivities": [
        {
          "id": "2.411",
          "name": "Arquitectos",
          "_links": {
            "self": {
              "name": "Arquitectos",
              "href": "https://api.euskadi.eus/procurements/companies/economic-activities/2.411"
            }
          }
        }
      ],
      "certificateStartDate": "2023-05-23",
      "certificateEndDate": "2023-11-09",
      "object": "ARQUITECTOS.",
      "mainEntityOfPage": "https://www.contratacion.euskadi.eus/webkpe00-kperoc/es/ac71aBusquedaRegistrosWar/empresa/09022",
      "_links": {
        "self": {
          "name": "IDOYA URRALBURU SOTO",
          "href": "https://api.euskadi.eus/procurements/companies/09022"
        }
      }
    },
    {
      "name": "AGIRILAN, S.L.",
      "registrationNumber": "08463",
      "identificationNumber": "B48423727",
      "address": "Colón de Larreategui, 12,3 D",
      "location": {
        "postalCode": "48001",
        "municipality": "Bilbao",
        "county": "Bizkaia",
        "municipalityId": "020",
        "countyId": "48"
      },
      "economicActivities": [
        {
          "id": "1.849.3",
          "name": "Servicios de traducción y similares",
          "_links": {
            "self": {
              "name": "Servicios de traducción y similares",
              "href": "https://api.euskadi.eus/procurements/companies/economic-activities/1.849.3"
            }
          }
        },
        {
          "id": "1.849.9",
          "name": "Otros servicios independientes n.c.o.p",
          "_links": {
            "self": {
              "name": "Otros servicios independientes n.c.o.p",
              "href": "https://api.euskadi.eus/procurements/companies/economic-activities/1.849.9"
            }
          }
        }
      ],
      "certificateStartDate": "2023-05-23",
      "certificateEndDate": "2023-11-23",
      "object": "LA ORDENACIÓN E INVENTARIADO DE ARCHIVOS Y FONDOS DOCUMENTALES; TRANSCRIPCIÓN, INFORMATIZACIÓN Y EDICIÓN DE DOCUMENTOS ANTIGUOS Y MODERNOS; ELABORACIÓN DE INFORMES Y CONSULTORÍAS TÉCNICAS; REALIZACIÓN DE PERITAJES CALIGRÁFICOS; TRADUCCIONES; MONTAJE DE EXPOSICIONES Y TRABAJOS RELACIONES CON ARCHIVOS, BIBLIOTECAS, PUBLICACIONES Y ACTIVIDADES CULTURALES EN GENERAL.",
      "mainEntityOfPage": "https://www.contratacion.euskadi.eus/webkpe00-kperoc/es/ac71aBusquedaRegistrosWar/empresa/08463",
      "_links": {
        "self": {
          "name": "AGIRILAN, S.L.",
          "href": "https://api.euskadi.eus/procurements/companies/08463"
        }
      }
    },
    {
      "name": "SERGIO RIVAS IBAÑEZ",
      "registrationNumber": "09021",
      "identificationNumber": "72575755Z",
      "address": "DOMINGO ITURBE 49",
      "location": {
        "postalCode": "20690",
        "municipality": "Elgeta",
        "county": "Gipuzkoa",
        "municipalityId": "033",
        "countyId": "20"
      },
      "economicActivities": [
        {
          "id": "2.826",
          "name": "Personal docente de enseñanzas diversas",
          "_links": {
            "self": {
              "name": "Personal docente de enseñanzas diversas",
              "href": "https://api.euskadi.eus/procurements/companies/economic-activities/2.826"
            }
          }
        }
      ],
      "certificateStartDate": "2023-05-23",
      "certificateEndDate": "2023-11-23",
      "object": "PERSONAL DOCENTE DE ENSEÑANZAS DIVERSAS.",
      "mainEntityOfPage": "https://www.contratacion.euskadi.eus/webkpe00-kperoc/es/ac71aBusquedaRegistrosWar/empresa/09021",
      "_links": {
        "self": {
          "name": "SERGIO RIVAS IBAÑEZ",
          "href": "https://api.euskadi.eus/procurements/companies/09021"
        }
      }
    },
    {
      "name": "LA KOLMENA DIGITAL, S.L.",
      "registrationNumber": "08732",
      "identificationNumber": "B95422978",
      "address": "Henao 7, 4ª Planta Dpto.4",
      "location": {
        "postalCode": "48009",
        "municipality": "Bilbao",
        "county": "Bizkaia",
        "municipalityId": "020",
        "countyId": "48"
      },
      "economicActivities": [
        {
          "id": "1.843.9",
          "name": "Otros servicios técnicos n.c.o.p",
          "_links": {
            "self": {
              "name": "Otros servicios técnicos n.c.o.p",
              "href": "https://api.euskadi.eus/procurements/companies/economic-activities/1.843.9"
            }
          }
        },
        {
          "id": "1.844",
          "name": "Servicios de publicidad, relaciones públicas y similares",
          "_links": {
            "self": {
              "name": "Servicios de publicidad, relaciones públicas y similares",
              "href": "https://api.euskadi.eus/procurements/companies/economic-activities/1.844"
            }
          }
        }
      ],
      "certificateStartDate": "2023-05-17",
      "certificateEndDate": "2023-11-17",
      "object": "A) EL DISEÑO GRÁFICO B) INFOGRAFÍAS C) ANIMACIÓN 2D Y 3D D) MULTIMEDIA E) PROGRAMACIÓN F) RENDER-FARM G) PÁGINAS WEB H) PUBLICIDAD I) INSTALACIÓN DE REDES J) VENTA Y PREPARACIÓN DE ESTACIONES GRÁFICAS.",
      "mainEntityOfPage": "https://www.contratacion.euskadi.eus/webkpe00-kperoc/es/ac71aBusquedaRegistrosWar/empresa/08732",
      "_links": {
        "self": {
          "name": "LA KOLMENA DIGITAL, S.L.",
          "href": "https://api.euskadi.eus/procurements/companies/08732"
        }
      }
    }
  ]
}