{
  "totalItems": 9042,
  "totalPages": 905,
  "currentPage": 109,
  "itemsOfPage": 10,
  "items": [
    {
      "name": "IDOM CONSULTING, ENGINEERING, ARCHITECTURE, S.A.",
      "registrationNumber": "00978",
      "identificationNumber": "A48283964",
      "address": "AVDA. ZARANDOA, 23",
      "location": {
        "postalCode": "48015",
        "municipality": "Bilbao",
        "county": "Bizkaia",
        "municipalityId": "020",
        "countyId": "48"
      },
      "economicActivities": [
        {
          "id": "1.501.1",
          "name": "Construcción completa, reparación y conservación de edificaciones",
          "_links": {
            "self": {
              "name": "Construcción completa, reparación y conservación de edificaciones",
              "href": "https://api.euskadi.eus/procurements/companies/economic-activities/1.501.1"
            }
          }
        },
        {
          "id": "1.843.1",
          "name": "Servicios técnicos de ingeniería",
          "_links": {
            "self": {
              "name": "Servicios técnicos de ingeniería",
              "href": "https://api.euskadi.eus/procurements/companies/economic-activities/1.843.1"
            }
          }
        },
        {
          "id": "1.843.2",
          "name": "Servicios técnicos de arquitectura y urbanismo",
          "_links": {
            "self": {
              "name": "Servicios técnicos de arquitectura y urbanismo",
              "href": "https://api.euskadi.eus/procurements/companies/economic-activities/1.843.2"
            }
          }
        },
        {
          "id": "1.845",
          "name": "Explotación electrónica por cuenta de terceros",
          "_links": {
            "self": {
              "name": "Explotación electrónica por cuenta de terceros",
              "href": "https://api.euskadi.eus/procurements/companies/economic-activities/1.845"
            }
          }
        },
        {
          "id": "1.847",
          "name": "Servicios de consultoría",
          "_links": {
            "self": {
              "name": "Servicios de consultoría",
              "href": "https://api.euskadi.eus/procurements/companies/economic-activities/1.847"
            }
          }
        },
        {
          "id": "1.849.7",
          "name": "Servicios de gestión administrativa",
          "_links": {
            "self": {
              "name": "Servicios de gestión administrativa",
              "href": "https://api.euskadi.eus/procurements/companies/economic-activities/1.849.7"
            }
          }
        },
        {
          "id": "1.861.2",
          "name": "Alquiler de locales industriales y otros alquileres n.c.o.p",
          "_links": {
            "self": {
              "name": "Alquiler de locales industriales y otros alquileres n.c.o.p",
              "href": "https://api.euskadi.eus/procurements/companies/economic-activities/1.861.2"
            }
          }
        },
        {
          "id": "1.936",
          "name": "Investigación científica y técnica",
          "_links": {
            "self": {
              "name": "Investigación científica y técnica",
              "href": "https://api.euskadi.eus/procurements/companies/economic-activities/1.936"
            }
          }
        }
      ],
      "certificateStartDate": "2025-12-18",
      "certificateEndDate": "2026-06-05",
      "object": "EL EJERCICIO DE LAS ACTIVIDADES DE INGENIERÍA, CONSULTORÍA, AUDITORÍA Y ASESORAMIENTO PROFESIONAL, EN SU MÁS AMPLIO SENTIDO, LA REALIZACIÓN Y PRESTACIÓN A TERCEROS, POR SÍ O MEDIANTE CONTRATACIÓN AL EFECTO, DE ESTUDIOS Y PROYECTOS, TÉCNICOS, ECONÓMICOS, DE MERCADO, ORGANIZACIÓN Y VIABILIDAD DE ACTIVIDADES EMPRESARIALES ASUMIDAS O A ASUMIR POR AQUELLOS. LA ADMINISTRACIÓN, TENENCIA, ADQUISICIÓN, ARRENDAMIENTO ACTIVA O PASIVAMENTE, EXPLOTACIÓN, VENTA Y GRAVAMEN DE FINCAS URBANAS O RÚSTICAS Y EN GENERAL DE INMUEBLES DE TODA CLASE, LA ADQUISICIÓN, TENENCIA, DISFRUTE, ADMINISTRACIÓN, VENTA Y GRAVAMEN TANTO DE TÍTULOS VALORES Y DE VALORES MOBILIARIOS, DE RENTA FIJA O VARIABLE, NACIONALES O EXTRANJEROS, PÚBLICOS O PRIVADOS, OPERACIONES DE SUMINISTRO DE EQUIPOS E INSTALACIONES INDUSTRIALES. EL ESTUDIO, PROMOCIÓN, PLANEAMENTO, DIRECCIÓN, EJECUCIÓN O DESARROLLO, POR CUENTA PROPIA O AJENA, DIRECTAMENTE O A TRAVÉS DE TERCEROS, DE TODA CLASE DE PROYECTOS, OBRAS O EMPRESAS INDUSTRIALES, AGRÍCOLAS, COMERCIALES Y DE SERVICIOS, EN PARTICIPACIÓN DIRECTA O INDIRECTA EN SUS OPERACIONES Y EN SU CAPITAL O SIMPLEMENTE PARTICIPANDO EN LA DIRECCIÓN O GESTIÓN DE TALES PROYECTOS; LA DISTRIBUCIÓN DE TODA CLASE DE BIENES MUEBLES, MERCANCÍAS, PRODUCTOS DE USO, CONSUMO O PRODUCCIÓN, BIEN SEA POR CUENTA PROPIA O DE TERCEROS, EN RÉGIMEN DE REPRESENTACIÓN MEDIANTE CONCESIONES DE VENTA, SEAN O NO EN EXCLUSIVA, O POR CUALQUIER OTRO MEDIO ADMITIDO EN DERECHO, LA REALIZACIÓN DE CUANTOS ACTOS LÍCITOS SEAN PREVIOS, COADYUVANTES, ACCESORIOS O COMPLEMENTARIOS DE LOS YA RESEÑADOS, ASÍ COMO CUALQUIER OTRA ACTIVIDAD LEGALMENTE ADMITIDA QUE ACUERDE LA JUNTA GENERAL DE ACCIONISTAS PREVIA MODIFICACIÓN ESTATUTARIA",
      "mainEntityOfPage": "https://www.contratacion.euskadi.eus/webkpe00-kperoc/es/ac71aBusquedaRegistrosWar/empresa/00978",
      "_links": {
        "self": {
          "name": "IDOM CONSULTING, ENGINEERING, ARCHITECTURE, S.A.",
          "href": "https://api.euskadi.eus/procurements/companies/00978"
        }
      }
    },
    {
      "name": "ASIER LOPEZ FERNANDEZ-ISABEL LOPEZ DE LA TORRE, S.C.",
      "registrationNumber": "09006",
      "identificationNumber": "J95835039",
      "address": "Av/ Cervantes 51, edf 10, plt 5",
      "location": {
        "postalCode": "48970",
        "municipality": "Basauri",
        "county": "Bizkaia",
        "municipalityId": "015",
        "countyId": "48"
      },
      "economicActivities": [
        {
          "id": "1.844",
          "name": "Servicios de publicidad, relaciones públicas y similares",
          "_links": {
            "self": {
              "name": "Servicios de publicidad, relaciones públicas y similares",
              "href": "https://api.euskadi.eus/procurements/companies/economic-activities/1.844"
            }
          }
        },
        {
          "id": "1.966.9",
          "name": "Otros servicios culturales n.c.o.p",
          "_links": {
            "self": {
              "name": "Otros servicios culturales n.c.o.p",
              "href": "https://api.euskadi.eus/procurements/companies/economic-activities/1.966.9"
            }
          }
        }
      ],
      "certificateStartDate": "2025-12-18",
      "certificateEndDate": "2026-06-18",
      "object": "1º) SERVICIOS DE DISEÑO GRÁFICO, PÁGINAS WEB, PUBLICIDAD, ETC. 2º) CUALQUIER OTRA ACTIVIDAD QUE SEA ANTECEDENTE, COMPLEMENTO O CONSECUENCIA DE LO ANTERIOR O ESTÉ DIRECTAMENTE RELACIONADA CON ELLO.",
      "mainEntityOfPage": "https://www.contratacion.euskadi.eus/webkpe00-kperoc/es/ac71aBusquedaRegistrosWar/empresa/09006",
      "_links": {
        "self": {
          "name": "ASIER LOPEZ FERNANDEZ-ISABEL LOPEZ DE LA TORRE, S.C.",
          "href": "https://api.euskadi.eus/procurements/companies/09006"
        }
      }
    },
    {
      "name": "HEXACATH ESPAÑA, S.L.",
      "registrationNumber": "02614",
      "identificationNumber": "B62461249",
      "address": "C/ RIU D´OR, 36-BAJOS",
      "location": {
        "postalCode": "08034",
        "municipality": "Barcelona",
        "county": "Barcelona",
        "municipalityId": "019",
        "countyId": "08"
      },
      "economicActivities": [
        {
          "id": "1.619.2",
          "name": "Venta al por mayor de aparatos e instrumentos médicos, ortopédicos, ópticos",
          "_links": {
            "self": {
              "name": "Venta al por mayor de aparatos e instrumentos médicos, ortopédicos, ópticos",
              "href": "https://api.euskadi.eus/procurements/companies/economic-activities/1.619.2"
            }
          }
        }
      ],
      "certificateStartDate": "2025-12-18",
      "certificateEndDate": "2026-06-18",
      "object": "LA COMERCIALIZACIÓN DE PRODUCTOS CLÍNICOS Y SANITARIOS. DICHAS ACTIVIDADES PODRÁN SER REALIZADAS POR LA SOCIEDAD BIEN DIRECTAMENTE, BIEN MEDIANTE LA PARTICIPACIÓN EN OTRAS SOCIEDADES DE OBJETO IDÉNTICO O ANÁLOGO.",
      "mainEntityOfPage": "https://www.contratacion.euskadi.eus/webkpe00-kperoc/es/ac71aBusquedaRegistrosWar/empresa/02614",
      "_links": {
        "self": {
          "name": "HEXACATH ESPAÑA, S.L.",
          "href": "https://api.euskadi.eus/procurements/companies/02614"
        }
      }
    },
    {
      "name": "FUNDACIÓN PRIVADA INSTITUTO DE SALUD GLOBAL BARCELONA",
      "registrationNumber": "09698",
      "identificationNumber": "G65341695",
      "address": "Rosselló, 132",
      "location": {
        "postalCode": "08036",
        "municipality": "Barcelona",
        "county": "Barcelona",
        "municipalityId": "019",
        "countyId": "08"
      },
      "economicActivities": [
        {
          "id": "1.931.5",
          "name": "Enseñanza de educación superior",
          "_links": {
            "self": {
              "name": "Enseñanza de educación superior",
              "href": "https://api.euskadi.eus/procurements/companies/economic-activities/1.931.5"
            }
          }
        },
        {
          "id": "1.999",
          "name": "Otros servicios n.c.o.p",
          "_links": {
            "self": {
              "name": "Otros servicios n.c.o.p",
              "href": "https://api.euskadi.eus/procurements/companies/economic-activities/1.999"
            }
          }
        }
      ],
      "certificateStartDate": "2025-12-18",
      "certificateEndDate": "2026-06-18",
      "object": "LA FUNDACIÓN TIENE POR FINALIDAD CONTRIBUIR A FORTALECER LA SALUD GLOBAL MEDIANTE LA GENERACIÓN DE CONOCIMIENTO A TRAVÉS DE LA INVESTIGACIÓN CIENTÍFICA, LA TRANSMISIÓN Y TRANSFERENCIA DE CONOCIMIENTO Y LA INNOVACIÓN, TANTO EN PAÍSES DESARROLLADOS COMO EN LOS QUE SE ENCUENTRAN EN VÍAS DE DESARROLLO, CON ÉNFASIS PARTICULAR EN LAS POBLACIONES MÁS DESFAVORECIDAS, PROMOVIENDO ASÍ LA EQUIDAD EN SALUD AL CONTRIBUIR A ROMPER EL CÍRCULO VICIOSO DE \"POBREZA-ENFERMEDAD\", EN COHERENCIA CON LOS OBJETIVOS DE DESARROLLO DEL MILENIO DE LA ORGANIZACIÓN DE NACIONES UNIDAS QUE HACEN REFERENCIA AL ÁMBITO DE LA SALUD. EN CONCRETO, Y SIN ÁNIMO EXHAUSTIVO, SON FINALIDADES ESPECÍFICAS DE LA FUNDACIÓN: A) EN EL ÁMBITO DE LA INVESTIGACIÓN: IDENTIFICAR, POTENCIAR, DESARROLLAR, FOMENTAR, Y REALIZAR ACTIVIDADES DE INVESTIGACIÓN BIOMÉDICA QUE CONTRIBUYAN A AVANZAR EN SOLUCIONES A LOS GRANDES RETOS DE LA SALUD GLOBAL Y SALUD PÚBLICA, ESPECIALMENTE DE AQUELLOS RELACIONADOS CON LA POBREZA, EL SUBDESARROLLO Y LA FALTA DE EQUIDAD, Y TRANSFERIR SUS RESULTADOS, PARA LO QUE IMPULSARÁ LA MÁS ESTRECHA INTERRELACIÓN ENTRE LA INVESTIGACIÓN BÁSICA, APLICADA Y SU TRANSFERENCIA A LA SOCIEDAD, INCLUIDA LA ACTIVIDAD ECONÓMICA. B) EN EL ÁMBITO DE LA FORMACIÓN: PROMOVER Y DIVULGAR EL CONOCIMIENTO EN SALUD GLOBAL TANTO A NIVEL NACIONAL COMO INTERNACIONAL, Y LIDERAR Y COORDINAR LA FORMACIÓN EN SALUD GLOBAL DENTRO DEL MARCO DE LA UNIVERSIDAD DE BARCELONA Y DE LAS DEMÁS UNIVERSIDADES QUE FORMEN PARTE DEL PATRONATO, Y , CUANDO SE CONSIDERE OPORTUNO, EN COLABORACIÓN CON OTROS CENTROS ACADÉMICOS EUROPEOS Y DEL RESTO DEL MUNDO. LA ACTIVIDAD IRÁ DIRIGIDA PRINCIPALMENTE AL PERSONAL INVESTIGADOR Y A PROFESIONALES QUE TRABAJAN EN EL ÁMBITO DE LA SALUD GLOBAL Y LA SALUD PÚBLICA, EN ESPECIAL A AQUELLOS PROCEDENTES DE LOS PAÍSES MÁS DESFAVORECIDOS CON EL FIN DE PROMOVER LA TRANSFERENCIA DE CONOCIMIENTO Y TECNOLOGÍA Y DE CREAR CAPACIDADES A NIVEL LOCAL. C) LABORATORIO DE IDEAS, ANÁLISIS Y PROSPECTIVA: CREAR, EVALUAR Y DISEMINAR IDEAS Y REALIZAR ANÁLISIS RIGUROSOS E INDEPENDIENTES QUE CONTRIBUYAN AL DEBATE EN EL ÁMBITO DE LA SALUD GLOBAL Y LA SALUD PÚBLICA Y PROPORCIONEN INFORMACIÓN RELEVANTE A LOS RESPONSABLES POLÍTICOS, TÉCNICOS Y DE GESTIÓN, Y OTROS ACTORES CON INTERÉS EN ESTE ÁMBITO, TANTO EN LOS PAÍSES DESARROLLADOS COMO EN LOS QUE SE ENCUENTRAN EN VÍAS DE DESARROLLO, ASÍ COMO LLEVAR A CABO TAREAS DE SENSIBILIZACIÓN Y DIFUSIÓN DE LA SOCIEDAD. D) CONSULTORÍA Y ASESORÍA: PRESTAR SERVICIOS INTERDISCIPLINARIOS, MULTI-FUNCIONALES E INNOVADORES A TODOS LOS RESPONSABLES POLÍTICOS, CIENTÍFICOS, TÉCNICOS Y DE GESTIÓN, Y A OTROS ACTORES EN EL CAMPO DE LA SALUD GLOBAL Y LA SALUD PÚBLICA EN DIVERSOS ENTORNOS DE ACTUACIÓN, INCLUIDO EL PREVENTIVO, EL CIENTÍFICO Y EL ASISTENCIAL. INTERCAMBIAR EXPERIENCIAS E IDEAS CON ACTORES DE TODOS LOS SECTORES DE ACTIVIDAD QUE TENGAN QUE VER CON LA SALUD GLOBAL Y LA SALUD PÚBLICA PROMOVER POLÍTICAS Y PRÁCTICAS ADECUADAS PARA FACILITAR MEJORAS NECESARIAS EN ESTE CAMPO. ESTABLECER Y POTENCIAR SINERGIAS ENTRE LOS PROGRAMAS DE COOPERACIÓN PARA LA INTERVENCIÓN EN SALUD GLOBAL DESARROLLADOS POR LAS INSTITUCIONES PRESENTES EN EL PATRONATO DE LA FUNDACIÓN Y OTRAS ENTIDADES E INSTITUCIONES RELACIONADAS CON LAS LÍNEAS DE ACTIVIDAD DE LA FUNDACIÓN QUE EL PATRONATO CONSIDERE PERTINENTES. E) DAR SOPORTE A LOS SERVICIOS DE SALUD EN LA ATENCIÓN DE PERSONAS CON PROBLEMAS DE SALUD O CON CARACTERÍSTICAS RELACIONADAS CON LA SALUD GLOBAL. F) CUALQUIER OTRA FINALIDAD ESPECÍFICA QUE CONTRIBUYA A LA CONSECUCIÓN DE LAS FINALIDADES PREVISTAS EN EL ARTÍCULO 6.1.",
      "mainEntityOfPage": "https://www.contratacion.euskadi.eus/webkpe00-kperoc/es/ac71aBusquedaRegistrosWar/empresa/09698",
      "_links": {
        "self": {
          "name": "FUNDACIÓN PRIVADA INSTITUTO DE SALUD GLOBAL BARCELONA",
          "href": "https://api.euskadi.eus/procurements/companies/09698"
        }
      }
    },
    {
      "name": "JOSE MARIA ECHEVARRIA OCHOA",
      "registrationNumber": "09758",
      "identificationNumber": "72716339E",
      "address": "CL AVDA DON SIXTO CAMARA 9",
      "location": {
        "postalCode": "26240",
        "municipality": "Castañares de Rioja",
        "county": "Rioja, La",
        "municipalityId": "043",
        "countyId": "26"
      },
      "economicActivities": [
        {
          "id": "1.673.2",
          "name": "Otros cafés y bares",
          "_links": {
            "self": {
              "name": "Otros cafés y bares",
              "href": "https://api.euskadi.eus/procurements/companies/economic-activities/1.673.2"
            }
          }
        }
      ],
      "certificateStartDate": "2025-12-18",
      "certificateEndDate": "2026-06-11",
      "object": "OTROS CAFÉS Y BARES.",
      "mainEntityOfPage": "https://www.contratacion.euskadi.eus/webkpe00-kperoc/es/ac71aBusquedaRegistrosWar/empresa/09758",
      "_links": {
        "self": {
          "name": "JOSE MARIA ECHEVARRIA OCHOA",
          "href": "https://api.euskadi.eus/procurements/companies/09758"
        }
      }
    },
    {
      "name": "PRICEWATERHOUSECOOPERS AUDITORES, S.L.",
      "registrationNumber": "00768",
      "identificationNumber": "B79031290",
      "address": "C/ PASEO DE LA CASTELLANA, Nº 259B",
      "location": {
        "postalCode": "28046",
        "municipality": "Madrid",
        "county": "Madrid",
        "municipalityId": "079",
        "countyId": "28"
      },
      "economicActivities": [
        {
          "id": "1.842",
          "name": "Servicios financieros y contables",
          "_links": {
            "self": {
              "name": "Servicios financieros y contables",
              "href": "https://api.euskadi.eus/procurements/companies/economic-activities/1.842"
            }
          }
        },
        {
          "id": "1.845",
          "name": "Explotación electrónica por cuenta de terceros",
          "_links": {
            "self": {
              "name": "Explotación electrónica por cuenta de terceros",
              "href": "https://api.euskadi.eus/procurements/companies/economic-activities/1.845"
            }
          }
        },
        {
          "id": "1.933.2",
          "name": "Promoción de cursos y estudios en el extranjero",
          "_links": {
            "self": {
              "name": "Promoción de cursos y estudios en el extranjero",
              "href": "https://api.euskadi.eus/procurements/companies/economic-activities/1.933.2"
            }
          }
        }
      ],
      "certificateStartDate": "2025-12-18",
      "certificateEndDate": "2026-06-04",
      "object": "LA AUDITORÍA DE CUENTAS, DEFINIDA POR LA LEY 19/1988 COMO ACTIVIDAD CONSISTENTE EN LA REVISIÓN Y VERIFICACIÓN DE DOCUMENTOS CONTABLES, SIEMPRE QUE TENGA POR OBJETO LA EMISIÓN DE UN INFORME QUE PUEDA TENER EFECTOS FRENTE A TERCEROS, BIEN SE TRATE DE AUDITORÍA DE CUENTAS ANUALES, BIEN SEA DE OTRA CLASE. ASIMISMO LA SOCIEDAD TENDRÁ POR OBJETO CUALQUIER OTRA ACTIVIDAD DE REVISIÓN O VERIFICACIÓN CONTABLE QUE, DE ACUERDO CON LO ESTABLECIDO EN LA LEY DE AUDITORÍA DE CUENTAS 19/1988 DE 12 DE JULIO, DEBA CALIFICARSE LEGALMENTE COMO AUDITORÍA DE CUENTAS. IGUALMENTE LA SOCIEDAD TENDRÁ POR OBJETO ACTIVIDADES DE CONSULTORÍA DE EMPRESAS, EN SU MÁS AMPLIO SENTIDO Y DE ASESORAMIENTO FINANCIERO Y FISCAL. ASIMISMO LA SOCIEDAD TIENE POR OBJETO LA ADMINISTRACIÓN DE EMPRESAS, LA ORGANIZACIÓN DE CURSOS TANTO EN ESPAÑA COMO EN EL EXTRANJERO Y FORMACIÓN DE PERSONAL. IGUALMENTE TIENE POR OBJETO LA PRESTACIÓN DE SERVICIOS INFORMÁTICOS, TRATAMIENTO DE TEXTOS, ACTUALIZACIÓN DE PROGRAMAS Y APLICACIONES INFORMÁTICAS Y GRABACIÓN DE DATOS",
      "mainEntityOfPage": "https://www.contratacion.euskadi.eus/webkpe00-kperoc/es/ac71aBusquedaRegistrosWar/empresa/00768",
      "_links": {
        "self": {
          "name": "PRICEWATERHOUSECOOPERS AUDITORES, S.L.",
          "href": "https://api.euskadi.eus/procurements/companies/00768"
        }
      }
    },
    {
      "name": "DIEZ INGENIERIA E INSTALACIONES, S.L.",
      "registrationNumber": "04541",
      "identificationNumber": "B48782312",
      "address": "AV. SAN ADRIAN 2",
      "location": {
        "postalCode": "48003",
        "municipality": "Bilbao",
        "county": "Bizkaia",
        "municipalityId": "020",
        "countyId": "48"
      },
      "economicActivities": [
        {
          "id": "1.504.3",
          "name": "Instalaciones de frío, calor y acondicionamiento de aire",
          "_links": {
            "self": {
              "name": "Instalaciones de frío, calor y acondicionamiento de aire",
              "href": "https://api.euskadi.eus/procurements/companies/economic-activities/1.504.3"
            }
          }
        },
        {
          "id": "1.861.1",
          "name": "Alquiler de viviendas",
          "_links": {
            "self": {
              "name": "Alquiler de viviendas",
              "href": "https://api.euskadi.eus/procurements/companies/economic-activities/1.861.1"
            }
          }
        },
        {
          "id": "1.861.2",
          "name": "Alquiler de locales industriales y otros alquileres n.c.o.p",
          "_links": {
            "self": {
              "name": "Alquiler de locales industriales y otros alquileres n.c.o.p",
              "href": "https://api.euskadi.eus/procurements/companies/economic-activities/1.861.2"
            }
          }
        }
      ],
      "certificateStartDate": "2025-12-18",
      "certificateEndDate": "2026-05-30",
      "object": "INSTALACIONES DE GAS, CALEFACCIÓN Y AIRE ACONDICIONADO. INSTALACIÓN DE REDES DE FONTANERÍA Y DE TUBERÍAS",
      "mainEntityOfPage": "https://www.contratacion.euskadi.eus/webkpe00-kperoc/es/ac71aBusquedaRegistrosWar/empresa/04541",
      "_links": {
        "self": {
          "name": "DIEZ INGENIERIA E INSTALACIONES, S.L.",
          "href": "https://api.euskadi.eus/procurements/companies/04541"
        }
      }
    },
    {
      "name": "J.M. VIGIOLA, S.A.",
      "registrationNumber": "01527",
      "identificationNumber": "A48416820",
      "address": "C/ BARRIO SANTA JULIANA, Nº 30.",
      "location": {
        "postalCode": "48509",
        "municipality": "Abanto y Ciérvana-Abanto Zierbena",
        "county": "Bizkaia",
        "municipalityId": "002",
        "countyId": "48"
      },
      "economicActivities": [
        {
          "id": "1.721.3",
          "name": "Transporte de viajeros por carretera",
          "_links": {
            "self": {
              "name": "Transporte de viajeros por carretera",
              "href": "https://api.euskadi.eus/procurements/companies/economic-activities/1.721.3"
            }
          }
        }
      ],
      "certificateStartDate": "2025-12-18",
      "certificateEndDate": "2026-06-09",
      "object": "LA REALIZACIÓN DE TODO TIPO DE SERVICIOS CON Y PARA AUTOBUSES, SERVICIO DE VIAJEROS, MANTENIMIENTOS, REPARACIÓN, CONSERVACIÓN, ALQUILER Y COMPRA-VENTA DE LOS MISMOS",
      "mainEntityOfPage": "https://www.contratacion.euskadi.eus/webkpe00-kperoc/es/ac71aBusquedaRegistrosWar/empresa/01527",
      "_links": {
        "self": {
          "name": "J.M. VIGIOLA, S.A.",
          "href": "https://api.euskadi.eus/procurements/companies/01527"
        }
      }
    },
    {
      "name": "PROYECTOS DIURVI, S.L.",
      "registrationNumber": "09394",
      "identificationNumber": "B13931894",
      "address": "CALLE PINTOR JESUS APELLANIZ, N.19-BAJO",
      "location": {
        "postalCode": "01008",
        "municipality": "Vitoria-Gasteiz",
        "county": "Araba/Álava",
        "municipalityId": "059",
        "countyId": "01"
      },
      "economicActivities": [
        {
          "id": "1.843.1",
          "name": "Servicios técnicos de ingeniería",
          "_links": {
            "self": {
              "name": "Servicios técnicos de ingeniería",
              "href": "https://api.euskadi.eus/procurements/companies/economic-activities/1.843.1"
            }
          }
        }
      ],
      "certificateStartDate": "2025-12-18",
      "certificateEndDate": "2026-06-06",
      "object": "LA INTERMEDIACIÓN EN LA PRESTACIÓN DE SERVICIOS TÉCNICOS DE INGENIERÍA Y ASESORAMIENTO DE PROYECTOS URBANOS.",
      "mainEntityOfPage": "https://www.contratacion.euskadi.eus/webkpe00-kperoc/es/ac71aBusquedaRegistrosWar/empresa/09394",
      "_links": {
        "self": {
          "name": "PROYECTOS DIURVI, S.L.",
          "href": "https://api.euskadi.eus/procurements/companies/09394"
        }
      }
    },
    {
      "name": "GAZTEOK MANAGEMENT KULTUR LANAK, S.L.",
      "registrationNumber": "02673",
      "identificationNumber": "B95103636",
      "address": "P.I. ERLETXE PLATAFORMA H, EDIFICIO 2 PAB. 4 PLANTA 1ª",
      "location": {
        "postalCode": "48960",
        "municipality": "Galdakao",
        "county": "Bizkaia",
        "municipalityId": "036",
        "countyId": "48"
      },
      "economicActivities": [
        {
          "id": "1.355.2",
          "name": "Edición de soportes grabados de sonido, vídeo y de informática",
          "_links": {
            "self": {
              "name": "Edición de soportes grabados de sonido, vídeo y de informática",
              "href": "https://api.euskadi.eus/procurements/companies/economic-activities/1.355.2"
            }
          }
        },
        {
          "id": "1.645",
          "name": "Venta al por menor de vinos y bebidas de todas clases",
          "_links": {
            "self": {
              "name": "Venta al por menor de vinos y bebidas de todas clases",
              "href": "https://api.euskadi.eus/procurements/companies/economic-activities/1.645"
            }
          }
        },
        {
          "id": "1.861.2",
          "name": "Alquiler de locales industriales y otros alquileres n.c.o.p",
          "_links": {
            "self": {
              "name": "Alquiler de locales industriales y otros alquileres n.c.o.p",
              "href": "https://api.euskadi.eus/procurements/companies/economic-activities/1.861.2"
            }
          }
        },
        {
          "id": "1.965.2",
          "name": "Espectáculos al aire libre (excepto los taurinos)",
          "_links": {
            "self": {
              "name": "Espectáculos al aire libre (excepto los taurinos)",
              "href": "https://api.euskadi.eus/procurements/companies/economic-activities/1.965.2"
            }
          }
        }
      ],
      "certificateStartDate": "2025-12-18",
      "certificateEndDate": "2026-06-08",
      "object": "LA PRODUCCIÓN, ORGANIZACIÓN, MONTAJE E INSTALACIÓN DE CONCIERTOS, CONGRESOS, CONVENCIONES, ASAMBLEAS, ESPECTÁCULOS, GABINETES DE PRENSA, FERIAS, VERBENAS, REPRESENTACIONES Y ACTOS PUBLICOS.\r\n\r\nLA ELABORACIÓN DE CAMPAÑAS DE IMAGEN, OBJETOS, BIENES Y DISEÑOS, PARA SU PROMOCIÓN PÚBLICA Y PRIVADA.\r\n\r\nLA CONTRATACIÓN DE ARTISTAS Y LA PRESTACIÓN DE SERVICIOS A TODA CLASE DE PERSONAS Y EMPRESAS RELACIONADAS CON EL OCIO, LA CULTURA Y EL TIEMPO LIBRE. LAS ACTIVIDADES ENUMERADAS PODRÁN SER DESARROLLADAS POR LA SOCIEDAD, TOTAL O PARCIALMENTE, DE MODO INDIRECTO, MEDIANTE LA PARTICIPACIÓN EN OTRAS SOCIEDADES CON OBJETO ANÁLOGO.\r\n\r\nQUEDAN EXCLUÍDAS DEL OBJETO SOCIAL, AQUELLAS ACTIVIDADES PARA CUYO EJERCICIO LA LEY EXIJA REQUISITOS ESPECIALES QUE NO CUMPLA LA SOCIEDAD",
      "mainEntityOfPage": "https://www.contratacion.euskadi.eus/webkpe00-kperoc/es/ac71aBusquedaRegistrosWar/empresa/02673",
      "_links": {
        "self": {
          "name": "GAZTEOK MANAGEMENT KULTUR LANAK, S.L.",
          "href": "https://api.euskadi.eus/procurements/companies/02673"
        }
      }
    }
  ]
}