{
  "totalItems": 9042,
  "totalPages": 905,
  "currentPage": 406,
  "itemsOfPage": 10,
  "items": [
    {
      "name": "INGENIERIA Y CONSULTORIA PARA EL CONTROL AUTOMATICO, S.L.",
      "registrationNumber": "08597",
      "identificationNumber": "B84423979",
      "address": "CALLE POLLENSA, 2, CE. TARTESSOS, ED. APOLO, OF. 6",
      "location": {
        "postalCode": "28290",
        "municipality": "Rozas de Madrid, Las",
        "county": "Madrid",
        "municipalityId": "127",
        "countyId": "28"
      },
      "economicActivities": [
        {
          "id": "1.845",
          "name": "Explotación electrónica por cuenta de terceros",
          "_links": {
            "self": {
              "name": "Explotación electrónica por cuenta de terceros",
              "href": "https://api.euskadi.eus/procurements/companies/economic-activities/1.845"
            }
          }
        }
      ],
      "certificateStartDate": "2024-07-30",
      "certificateEndDate": "2025-01-30",
      "object": "EL ASESORAMIENTO INTEGRAL A TODA CLASE DE PERSONAS TANTO FÍSICAS COMO JURÍDICAS, RELACIONADO CON TEMAS DE INGENIERÍA, EMPRESARIALES, INDUSTRIALES, INFORMATIVOS DE TECNOLOGÍAS DE LA INFORMACIÓN Y LAS COMUNICACIONES, AUTOMÁTICA, ROBÓTICA, DOMÓTICA Y NUEVAS TECNOLOGÍAS EN GENERAL. EL DISEÑO, DESARROLLO, DISTRIBUCIÓN E IMPLANTACIÓN DE TODO TIPO DE SOFTWARE, FIRMWARE O HARDWARE DESTINADO A CUALQUIER SECTOR EMPRESARIAL Y PARA TODA CLASE DE PERSONAS TANTO FÍSICAS COMO JURÍDICAS. LA REALIZACIÓN DE CUALQUIER TIPO DE INFORME, DICTAMEN, ESTUDIO, ANÁLISIS, ETC, A TODA CLASE DE PERSONAS TANTO FÍSICAS COMO JURÍDICAS, RELACIONADO CON TEMAS DE INGENIERÍA, EMPRESARIALES, INDUSTRIALES, INFORMÁTICOS, DE TECNOLOGÍAS DE LA INFORMACIÓN Y LAS COMUNICACIONES, AUTOMÁTICAS, ROBÓTICA, DOMÓTICA Y NUEVAS TECNOLOGÍAS EN GENERAL. LA REALIZACIÓN DE TRABAJOS DE CONSULTORÍA DE CUALQUIER TIPO A TODA CLASE DE PERSONAS TANTO FÍSICAS COMO JURÍDICAS. LA FORMACIÓN A TODA CLASE DE PERSONAS TANTO FÍSICAS COMO JURÍDICAS, RELACIONADA CON TEMAS EMPRESARIALES, INDUSTRIALES, INFORMÁTICOS, DE TECNOLOGÍAS DE LA INFORMACIÓN Y LAS COMUNICACIONES, AUTOMÁTICA, ROBÓTICA, DOMÓTICA Y NUEVAS TECNOLOGÍAS EN GENERAL. LA ADQUISICIÓN, TENENCIA, DISFRUTE, EXPLOTACIÓN, ADMINISTRACIÓN, USO, PROMOCIÓN, CONSTRUCCIÓN, URBANIZACIÓN, PARCELACIÓN Y ENAJENACIÓN DE TERRENOS RÚSTICOS Y URBANOS, EDIFICIOS, VIVIENDAS, LOCALES, OFICINAS, NAVES Y TODA CLASE DE BIENES INMUEBLES, TANTO PROPIOS COMO AJENO, E INCLUSO CONCESIONES ADMINISTRATIVAS DE BIENES, OBRAS Y SERVICIOS. LA CONSTRUCCIÓN COMPLETA, REHABILITACIÓN, REPARACIÓN Y CONSERVACIÓN DE TODA CLASE DE EDIFICACIONES, VIVIENDA Y OBRAS PÚBLICAS, BIEN DEBAN EJECUTARSE POR ADMINISTRACIÓN, SUBASTA, CONCURSO O CUALQUIER OTRO PROCEDIMIENTO Y CUALQUIERA QUE SEA SU NATURALEZA. LA INTERMEDIACIÓN EN LA COMPRAVENTA DE TODA CLASE DE INMUEBLES Y FINCAS RUSTICAS Y URBANAS, BIEN EN CALIDAD DE ARRENDADORA, BIEN EN CALIDAD DE ARRENDATARIA.",
      "mainEntityOfPage": "https://www.contratacion.euskadi.eus/webkpe00-kperoc/es/ac71aBusquedaRegistrosWar/empresa/08597",
      "_links": {
        "self": {
          "name": "INGENIERIA Y CONSULTORIA PARA EL CONTROL AUTOMATICO, S.L.",
          "href": "https://api.euskadi.eus/procurements/companies/08597"
        }
      }
    },
    {
      "name": "RESIDENCIA PRIVADA LAKUA, S.L.",
      "registrationNumber": "09194",
      "identificationNumber": "B01483486",
      "address": "PORTAL DE FORONDA 15",
      "location": {
        "postalCode": "01010",
        "municipality": "Vitoria-Gasteiz",
        "county": "Araba/Álava",
        "municipalityId": "059",
        "countyId": "01"
      },
      "economicActivities": [
        {
          "id": "1.951",
          "name": "Asistencia y servicios sociales en centros residenciales",
          "_links": {
            "self": {
              "name": "Asistencia y servicios sociales en centros residenciales",
              "href": "https://api.euskadi.eus/procurements/companies/economic-activities/1.951"
            }
          }
        }
      ],
      "certificateStartDate": "2024-07-30",
      "certificateEndDate": "2025-01-30",
      "object": "LA EXPLOTACIÓN Y REALIZACIÓN DE CUALQUIER TIPO DE EXPLOTACIÓN DE CENTROS DE BIENESTAR SOCIAL PARA USO DE RESIDENCIA MIXTA DE TERCERA EDAD, PRESTACIÓN DE TODA CLASE DE SERVICIOS RELACIONADOS CON LO ANTERIOR Y LA GESTIÓN DE ESTABLECIMIENTOS PARA PERSONAS MAYORES.",
      "mainEntityOfPage": "https://www.contratacion.euskadi.eus/webkpe00-kperoc/es/ac71aBusquedaRegistrosWar/empresa/09194",
      "_links": {
        "self": {
          "name": "RESIDENCIA PRIVADA LAKUA, S.L.",
          "href": "https://api.euskadi.eus/procurements/companies/09194"
        }
      }
    },
    {
      "name": "ROTULOS OKETA, S.L.",
      "registrationNumber": "06548",
      "identificationNumber": "B01324805",
      "address": "AVDA. CANTABRICO, 12 P.8",
      "location": {
        "postalCode": "01013",
        "municipality": "Vitoria-Gasteiz",
        "county": "Araba/Álava",
        "municipalityId": "059",
        "countyId": "01"
      },
      "economicActivities": [
        {
          "id": "1.475",
          "name": "Actividades anexas a las artes gráficas",
          "_links": {
            "self": {
              "name": "Actividades anexas a las artes gráficas",
              "href": "https://api.euskadi.eus/procurements/companies/economic-activities/1.475"
            }
          }
        }
      ],
      "certificateStartDate": "2024-07-30",
      "certificateEndDate": "2025-01-30",
      "object": "CREACIÓN E INSTALACIÓN DE RÓTULOS PUBLICITARIOS. LA REPRODUCCIÓN DE TEXTOS E IMÁGENES POR CUALQUIER SISTEMA",
      "mainEntityOfPage": "https://www.contratacion.euskadi.eus/webkpe00-kperoc/es/ac71aBusquedaRegistrosWar/empresa/06548",
      "_links": {
        "self": {
          "name": "ROTULOS OKETA, S.L.",
          "href": "https://api.euskadi.eus/procurements/companies/06548"
        }
      }
    },
    {
      "name": "EXCAVACIONES JOIZ, S.L.",
      "registrationNumber": "03023",
      "identificationNumber": "B95159331",
      "address": "Pol. Ind. El Campillo, Edif. Meatza, Plt. 1, Dep. 1",
      "location": {
        "postalCode": "48500",
        "municipality": "Abanto y Ciérvana-Abanto Zierbena",
        "county": "Bizkaia",
        "municipalityId": "002",
        "countyId": "48"
      },
      "economicActivities": [
        {
          "id": "1.502.2",
          "name": "Consolidación y preparación de terrenos para la construcción de edificaciones",
          "_links": {
            "self": {
              "name": "Consolidación y preparación de terrenos para la construcción de edificaciones",
              "href": "https://api.euskadi.eus/procurements/companies/economic-activities/1.502.2"
            }
          }
        },
        {
          "id": "1.722",
          "name": "Transporte de mercancías por carretera",
          "_links": {
            "self": {
              "name": "Transporte de mercancías por carretera",
              "href": "https://api.euskadi.eus/procurements/companies/economic-activities/1.722"
            }
          }
        }
      ],
      "certificateStartDate": "2024-07-30",
      "certificateEndDate": "2025-01-13",
      "object": "LA EXCAVACIÓN DE TERRENOS Y CONSTRUCCIÓN DE VIVIENDAS, UNIFAMILIARES O PLURIFAMILIARES, GARAJES, CAMAROTES Y LOCALES COMERCIALES Y PARA ELLO LA ADQUISICIÓN Y ENAJENACIÓN POR CUALQUIER TÍTULO DE FINCAS RÚSTICAS Y URBANAS, YA SEAN TIERRAS, SOLARES, EDIFICIOS, LA CONSTRUCCIÓN DE ÉSTOS Y LA ADMINISTRACIÓN, TENENCIA, VENTA, EXPLOTACIÓN Y ARRENDAMIENTO, YA SEA ACTIVO O PASIVO, DE TALES BIENES Y SU COMPRAVENTA TOTAL O PARCIAL, SEGÚN CONVENGA PARA SU APROVECHAMIENTO INMOBILIARIO. EL TRANSPORTE DE MERCANCÍAS PROPIAS O AJENAS, EN LOS ÁMBITOS NACIONAL E INTERNACIONAL.",
      "mainEntityOfPage": "https://www.contratacion.euskadi.eus/webkpe00-kperoc/es/ac71aBusquedaRegistrosWar/empresa/03023",
      "_links": {
        "self": {
          "name": "EXCAVACIONES JOIZ, S.L.",
          "href": "https://api.euskadi.eus/procurements/companies/03023"
        }
      }
    },
    {
      "name": "MEDICAL SOREVAN, S.L.",
      "registrationNumber": "04593",
      "identificationNumber": "B79356218",
      "address": "CALIBRE,39 POLIG. IND. P-29",
      "location": {
        "postalCode": "28400",
        "municipality": "Collado Villalba",
        "county": "Madrid",
        "municipalityId": "047",
        "countyId": "28"
      },
      "economicActivities": [
        {
          "id": "1.619.2",
          "name": "Venta al por mayor de aparatos e instrumentos médicos, ortopédicos, ópticos",
          "_links": {
            "self": {
              "name": "Venta al por mayor de aparatos e instrumentos médicos, ortopédicos, ópticos",
              "href": "https://api.euskadi.eus/procurements/companies/economic-activities/1.619.2"
            }
          }
        },
        {
          "id": "1.699",
          "name": "Otras reparaciones n.c.o.p",
          "_links": {
            "self": {
              "name": "Otras reparaciones n.c.o.p",
              "href": "https://api.euskadi.eus/procurements/companies/economic-activities/1.699"
            }
          }
        }
      ],
      "certificateStartDate": "2024-07-30",
      "certificateEndDate": "2025-01-17",
      "object": "LA SOCIEDAD TENDRA POR OBJETO LA COMPRA, COMERCIALIZACIÓN, VENTA, MANTENIMIENTO Y REPARACIÓNDE APARATOS DE ELECTROMEDICINA E INSTRUMENTOS MÉDICO QUIRÚRGICOS PARA TERAPEÚTICA, INVESTIGACIÓN CLIÍNICA, MÉDICA, QUIRÚRGICA, RADIOLÓGICA Y ODONTOLÓGICA; DE APARATOS E INSTRUMENTOS DE FÍSICA,QUÍMICA Y FISIOQUÍMICA PARA LABORATORIOS DE ANÁLISIS CLÍNICOS Y QUIRÚRGICOS, DE INVESTIGACIÓN O ENSAYO, ASÍ COMO DE ACCESORIOS, COMPLEMENTOS Y EFECTOS DE USO PARA HIGIENE, TERAPÉUTICA, HEMODIALÍSIS, ORTOPEDÍA ODONTOLOGÍA Y OTROS CUALQUIERA RELACIONADOS CON LA MEDICINA O LA INVESTIGACIÓN, ASÍ COMO CUALQUIER OTRA ACTIVIDAD LÍCITA QUE SEA PREPARATORIA, AUXILIAR, DERIVADA, COMPLEMENTARIA O RELACIONADA CON LO ANTERIOR",
      "mainEntityOfPage": "https://www.contratacion.euskadi.eus/webkpe00-kperoc/es/ac71aBusquedaRegistrosWar/empresa/04593",
      "_links": {
        "self": {
          "name": "MEDICAL SOREVAN, S.L.",
          "href": "https://api.euskadi.eus/procurements/companies/04593"
        }
      }
    },
    {
      "name": "MOVE BRANDING, S.L.",
      "registrationNumber": "05960",
      "identificationNumber": "B20979597",
      "address": "Avenida de Tolosa 5, 4º Piso Oficina 1 Dcha",
      "location": {
        "postalCode": "20018",
        "municipality": "Donostia / San Sebastián",
        "county": "Gipuzkoa",
        "municipalityId": "069",
        "countyId": "20"
      },
      "economicActivities": [
        {
          "id": "1.844",
          "name": "Servicios de publicidad, relaciones públicas y similares",
          "_links": {
            "self": {
              "name": "Servicios de publicidad, relaciones públicas y similares",
              "href": "https://api.euskadi.eus/procurements/companies/economic-activities/1.844"
            }
          }
        }
      ],
      "certificateStartDate": "2024-07-30",
      "certificateEndDate": "2025-01-30",
      "object": "SERVICIOS DE PUBLICIDAD, RELACIONES PÚBLICAS Y SIMILARES",
      "mainEntityOfPage": "https://www.contratacion.euskadi.eus/webkpe00-kperoc/es/ac71aBusquedaRegistrosWar/empresa/05960",
      "_links": {
        "self": {
          "name": "MOVE BRANDING, S.L.",
          "href": "https://api.euskadi.eus/procurements/companies/05960"
        }
      }
    },
    {
      "name": "LIMPEDUR, S.L.",
      "registrationNumber": "02957",
      "identificationNumber": "B20675922",
      "address": "KARAEZ KALEA, Nº 10",
      "location": {
        "postalCode": "20180",
        "municipality": "Oiartzun",
        "county": "Gipuzkoa",
        "municipalityId": "063",
        "countyId": "20"
      },
      "economicActivities": [
        {
          "id": "1.501.1",
          "name": "Construcción completa, reparación y conservación de edificaciones",
          "_links": {
            "self": {
              "name": "Construcción completa, reparación y conservación de edificaciones",
              "href": "https://api.euskadi.eus/procurements/companies/economic-activities/1.501.1"
            }
          }
        },
        {
          "id": "1.922",
          "name": "Servicios de limpieza",
          "_links": {
            "self": {
              "name": "Servicios de limpieza",
              "href": "https://api.euskadi.eus/procurements/companies/economic-activities/1.922"
            }
          }
        }
      ],
      "certificateStartDate": "2024-07-30",
      "certificateEndDate": "2025-01-30",
      "object": "LIMPIEZA GENERAL, MANTENIMIENTO Y CONSERVACIÓN, ORDENAMIENTO, ADECUACIÓN, MOVIMIENTO Y TRASLADO DE ELEMENTOS POR Y PARA LIMPIEZA DE: CENTRO OFICIALES, OFICINAS, BANCOS, COLEGIOS, FACHADAS, MOQUETAS, PISOS, CRISTALES, PORTALES, ETC., LOCALES COMERCIALES E INDUSTRIALES Y DE CUALQUIER OTRO TIPO. LA GESTIÓN INTEGRAL DE INSTALACIONES DEPORTIVAS, DE OCIO, CULTURALES, RECREATIVAS Y DE SALUD, PRESENTES EN TODO EL TERRITORIO NACIONAL, TANTO PÚBLICAS (MUNICIPALES), COMO PRIVADAS, EN LOCALES CERRADOS O A CIELO ABIERTO (GESTIÓN DE ACTIVIDADES, GESTIÓN DE PERSONAL AFECTOS A INSTALACIONES DEPORTIVAS, DE OCIO, CULTURALES, RECREATIVAS Y DE SALUD, GESTIÓN DEL MANTENIMIENTO Y GESTIÓN DE LA LIMPIEZA, GESTIÓN DE EVENTOS Y GESTIÓN DE LOGÍSTICA), INCLUYE TAMBIÉN LAS SOCIEDADES O ASOCIACIONES RECREATIVAS CULTURALES Y DEPORTIVAS. LIMPIEZA DE MAQUINARIA INDUSTRIAL. LA IMPARTICIÓN DE CURSOS DE FORMACIÓN, TANTO PROPIOS COMO EXTERNOS, DE ENSEÑANZA DE TÉCNICAS DE LIMPIEZA EN GENERAL. LA PROMOCIÓN DE LA IMAGEN DE LA EMPRESA MEDIANTE EL PATROCINIO Y/O LA ESPONSORIZACIÓN A DEPORTISTAS Y EVENTOS CULTURALES, RECREATIVOS Y DEPORTIVOS, ESPECIALMENTE LOS DE MODALIDAD HÍPICA. TRABAJOS DE JARDINERÍA PÚBLICA (MUNICIPAL) Y PRIVADA EN GENERAL. IMPARTICIÓN DE CURSOS DE FORMACIÓN, TANTO PROPIOS COMO EXTERNOS, DE ENSEÑANZA DE TÉCNICAS DE JARDINERÍA Y HORTICULTURA",
      "mainEntityOfPage": "https://www.contratacion.euskadi.eus/webkpe00-kperoc/es/ac71aBusquedaRegistrosWar/empresa/02957",
      "_links": {
        "self": {
          "name": "LIMPEDUR, S.L.",
          "href": "https://api.euskadi.eus/procurements/companies/02957"
        }
      }
    },
    {
      "name": "GILTEC ARQUITECTOS TÉCNICOS, S.L.",
      "registrationNumber": "03286",
      "identificationNumber": "B01346998",
      "address": "C/ FUEROS, 1  BAJO",
      "location": {
        "postalCode": "01001",
        "municipality": "Vitoria-Gasteiz",
        "county": "Araba/Álava",
        "municipalityId": "059",
        "countyId": "01"
      },
      "economicActivities": [
        {
          "id": "1.501.1",
          "name": "Construcción completa, reparación y conservación de edificaciones",
          "_links": {
            "self": {
              "name": "Construcción completa, reparación y conservación de edificaciones",
              "href": "https://api.euskadi.eus/procurements/companies/economic-activities/1.501.1"
            }
          }
        },
        {
          "id": "1.843.2",
          "name": "Servicios técnicos de arquitectura y urbanismo",
          "_links": {
            "self": {
              "name": "Servicios técnicos de arquitectura y urbanismo",
              "href": "https://api.euskadi.eus/procurements/companies/economic-activities/1.843.2"
            }
          }
        }
      ],
      "certificateStartDate": "2024-07-29",
      "certificateEndDate": "2025-01-29",
      "object": "a) LA CONSTRUCCIÓN, REPARACIÓN, REHABILITACIÓN, DEMOLICIÓN Y DERRIBO POR CUENTA PROPIA O AJENA, DE TODA CLASE DE EDIFICACIONES Y OBRAS CIVILES, TANTO PÚBLICAS COMO PRIVADAS; LA CONSOLIDACIÓN Y PREPARACIÓN DE TERRENOS, ASÍ COMO LA REALIZACIÓN DE TODO TIPO DE TRABAJOS DE ALBAÑILERÍA.\r\n\r\nb) LA REALIZACIÓN A CARGO DE LOS PROFESIONALES SOCIOS, CON LA COLABORACIÓN, EN SU CASO, DE OTROS PROFESIONALES LEGALMENTE COMPETENTES, DE: -) ESTUDIOS Y REDACCIÓN DE PROYECTOS DE ARQUITECTURA, INGENIERÍA Y DECORACIÓN, DIRECCIÓN FACULTATIVA E INSPECCIÓN DE OBRAS DE CONSTRUCCIÓN, PÚBLIAS O PRIVADAS, PROPIAS O DE TERCERSO, Y ASISTENCIA TÉCNICA. -) INFORMES, DICTÁMENES, PERITACIONES  Y CERTIFICADOS DE TODOS LOS TRABAJOS RELACIONADOS CON LA CONSTRUCCIÓN, EDIFICACIÓN Y URBANISMO, ASÍ COMO TASACIONES DE TODO TIPO DE BIENES INMUEBLES",
      "mainEntityOfPage": "https://www.contratacion.euskadi.eus/webkpe00-kperoc/es/ac71aBusquedaRegistrosWar/empresa/03286",
      "_links": {
        "self": {
          "name": "GILTEC ARQUITECTOS TÉCNICOS, S.L.",
          "href": "https://api.euskadi.eus/procurements/companies/03286"
        }
      }
    },
    {
      "name": "SOLARFAM INGENIERIA, S.L.",
      "registrationNumber": "09743",
      "identificationNumber": "B71098982",
      "address": "C/RIO EGA, 25, OFICINA B, ENTREPLANTA",
      "location": {
        "postalCode": "31006",
        "municipality": "Pamplona/Iruña",
        "county": "Navarra",
        "municipalityId": "201",
        "countyId": "31"
      },
      "economicActivities": [
        {
          "id": "1.504.1",
          "name": "Instalaciones eléctricas en general",
          "_links": {
            "self": {
              "name": "Instalaciones eléctricas en general",
              "href": "https://api.euskadi.eus/procurements/companies/economic-activities/1.504.1"
            }
          }
        },
        {
          "id": "1.843.1",
          "name": "Servicios técnicos de ingeniería",
          "_links": {
            "self": {
              "name": "Servicios técnicos de ingeniería",
              "href": "https://api.euskadi.eus/procurements/companies/economic-activities/1.843.1"
            }
          }
        }
      ],
      "certificateStartDate": "2024-07-29",
      "certificateEndDate": "2025-01-24",
      "object": "1. LA COORDINACIÓN EN LA INVESTIGACIÓN, INGENIERÍA, DESARROLLO, FABRICACIÓN, MONTAJE Y MANTENIMIENTO DE EQUIPOS PARA LA PRODUCCIÓN DE ENERGÍA DE FUENTES DE ENERGÍA RENOVABLES. 2. LA COORDINACIÓN EN INGENIERÍA, PROMOCIÓN, CONSTRUCCIÓN, MANTENIMIENTO Y EXPLOTACIÓN DE INSTALACIONES Y PLANTAS PARA EL APROVECHAMIENTO DE FUENTES DE ENERGÍA RENOVABLES, ASÍ COMO LA COMERCIALIZACIÓN DE ENERGÍA Y PRODUCTOS ENERGÉTICOS. 3. LA PRESTACIÓN DE SERVICIOS PROPIOS DE LA ACTIVIDAD DE INGENIERÍA TALES COMO REALIZACIÓN Y COORDINACIÓN DE PROYECTOS, DIRECCIONES DE OBRA, ESTUDIOS E INFORMES. 4. PROPORCIONAR SERVICIOS ENERGÉTICOS O DE MEJORA DE LA EFICIENCIA ENERGÉTICA DE INSTALACIONES O LOCALES. 5. LA CONTRATACIÓN, GESTIÓN, COORDINACIÓN E INTERMEDIACIÓN DE PROYECTOS DE CONSTRUCCIÓN Y EJECUCIÓN DE CUALQUIER CLASE DE OBRA O INSTALACIÓN. 6. LA PROMOCIÓN Y PRESTACIÓN DE SERVICIOS DE FORMACIÓN EN INGENIERÍA Y ENERGÍA. 7. LA INVESTIGACIÓN, INGENIERÍA, DESARROLLO Y FABRICACIÓN DE PRODUCTOS Y SERVICIOS INFORMÁTICOS, ELECTRÓNICOS Y DE TELECOMUNICACIÓN. SI ALGUNA DE LAS ACTIVIDADES ENUMERADAS, ASÍ LO PRECISARE, DEBERÁ SER EJERCITADA A TRAVÉS DE PROFESIONALES CON LA TITULACIÓN ADECUADA O, EN SU CASO, DEBERÁ SER EJERCITADA PREVIA LAS CORRESPONDIENTES AUTORIZACIONES O LICENCIAS ADMINISTRATIVAS.\n",
      "mainEntityOfPage": "https://www.contratacion.euskadi.eus/webkpe00-kperoc/es/ac71aBusquedaRegistrosWar/empresa/09743",
      "_links": {
        "self": {
          "name": "SOLARFAM INGENIERIA, S.L.",
          "href": "https://api.euskadi.eus/procurements/companies/09743"
        }
      }
    },
    {
      "name": "3M ESPAÑA, S.L.",
      "registrationNumber": "05258",
      "identificationNumber": "B28078020",
      "address": "C/ Juan Ignacio Luca de Tena, nº 19-25",
      "location": {
        "postalCode": "28027",
        "municipality": "Madrid",
        "county": "Madrid",
        "municipalityId": "079",
        "countyId": "28"
      },
      "economicActivities": [
        {
          "id": "1.614.1",
          "name": "Venta al por mayor de productos farmacéuticos y medicamentos",
          "_links": {
            "self": {
              "name": "Venta al por mayor de productos farmacéuticos y medicamentos",
              "href": "https://api.euskadi.eus/procurements/companies/economic-activities/1.614.1"
            }
          }
        },
        {
          "id": "1.614.2",
          "name": "Venta al por mayor de productos de perfumería, droguería, higiene y belleza",
          "_links": {
            "self": {
              "name": "Venta al por mayor de productos de perfumería, droguería, higiene y belleza",
              "href": "https://api.euskadi.eus/procurements/companies/economic-activities/1.614.2"
            }
          }
        },
        {
          "id": "1.614.4",
          "name": "Venta al por mayor de productos zoosanitarios",
          "_links": {
            "self": {
              "name": "Venta al por mayor de productos zoosanitarios",
              "href": "https://api.euskadi.eus/procurements/companies/economic-activities/1.614.4"
            }
          }
        },
        {
          "id": "1.615.4",
          "name": "Venta al por mayor de aparatos y material radioeléctrico y electrónico",
          "_links": {
            "self": {
              "name": "Venta al por mayor de aparatos y material radioeléctrico y electrónico",
              "href": "https://api.euskadi.eus/procurements/companies/economic-activities/1.615.4"
            }
          }
        },
        {
          "id": "1.619.2",
          "name": "Venta al por mayor de aparatos e instrumentos médicos, ortopédicos, ópticos",
          "_links": {
            "self": {
              "name": "Venta al por mayor de aparatos e instrumentos médicos, ortopédicos, ópticos",
              "href": "https://api.euskadi.eus/procurements/companies/economic-activities/1.619.2"
            }
          }
        },
        {
          "id": "1.619.5",
          "name": "Venta al por mayor de artículos de papelería y escritorios",
          "_links": {
            "self": {
              "name": "Venta al por mayor de artículos de papelería y escritorios",
              "href": "https://api.euskadi.eus/procurements/companies/economic-activities/1.619.5"
            }
          }
        },
        {
          "id": "1.619.9",
          "name": "Venta al por mayor de otros productos n.c.o.p",
          "_links": {
            "self": {
              "name": "Venta al por mayor de otros productos n.c.o.p",
              "href": "https://api.euskadi.eus/procurements/companies/economic-activities/1.619.9"
            }
          }
        },
        {
          "id": "1.845",
          "name": "Explotación electrónica por cuenta de terceros",
          "_links": {
            "self": {
              "name": "Explotación electrónica por cuenta de terceros",
              "href": "https://api.euskadi.eus/procurements/companies/economic-activities/1.845"
            }
          }
        }
      ],
      "certificateStartDate": "2024-07-28",
      "certificateEndDate": "2025-01-28",
      "object": "1º.- LA PRODUCCIÓN, ELABORACIÓN, FABRICACIÓN, CREACIÓN, CONVERSIÓN, TRATAMIENTO, ACABADO, MANIPULACIÓN, COMPRAVENTA, ARRENDAMIENTO, IMPORTACIÓN Y EXPORTACIÓN Y EN GENERAL LA COMERCIALIZACIÓN POR CUALQUIER PROCEDIMIENTO -INCLUÍDA LA PRESTSACIÓN DE SERVICIOS-  DE LOS SIGUIENTES PRODUCTOS Y SERVICIOS Y DE SUS MATERIAS PRIMAS O SEMIELABORADAS: INDUSTRIAL Y ELECTRÓNICO.  - CINTAS SENSIBLES A LA PRESIÓN.- ABRASIVOS PARA REVESTIMIENTOS. - ABRASIVOS DE BAJA DENSIDAD.- ADHESIVOS, REVESTIMIENTOS Y SELLANTES. - PRODUCTOS FLUOROQUÍMICOS.- ESPECIALIDADES PELÍCULAS Y QUÍMICOS.- GRÁNULOS PARA CUBIERTAS.- SISTEMAS DE SEGURIDAD. - ALMOHADILLAS PARA SUELO.- PRODUCTOS PARA EL MANTENIMIENTO DEL SUELO. - MATERIALES NO DESLIZANTES PARA SUPERFICIES.- MATERIALES CERÁMICOS AVANZADOS.- PRODUCTOS PARA EL CONTROL DE LA ENERGÍA.- LÁMINAS DECORATIVAS PARA MARCAR. - SUMINISTRADORES DE VENTAS Y EQUIPOS DE APLICACIÓN.- CONECTORES ELÉCTRICOS Y ELECTRÓNICOS.- PRODUCTOS DE CABLES Y ALAMBRES.- MATERIALES AISLANTES Y CONDUCTORES.- MATERIALES DE COMBUSTIÓN LENTA.- PRODUCTOS PROTECTORES. - PRODUCTOS PARA PRUEBAS Y MEDIDAS.- PRODUCTOS Y SISTEMAS DE FIBRA ÓPTICA. TECNOLOGÍA DE INFORMACIÓN Y DE IMAGEN.- LÁMINAS Y PLACAS DE LITOGRAFÍA. - SISTEMAS PARA PRUEBAS DE COLOR.- PELÍCULAS FOTOGRÁFICAS.- PELÍCULAS DE RAYOS X Y PANTALLAS.- SISTEMAS DE PROYECTORES.- PELÍCULAS GRÁFICAS.- SISTEMAS DE PROCESO DE IMAGEN DIGITAL.- PRODUCTOS MICOGRÁFICOS.- CINTAS COMPUTADORAS DE AUDIO Y DE VÍDEO. -;DISKETTES Y CARTUCHOS PARA DATOS.- PELÍCULAS DE PLATA EN SECO.- SISTEMAS ÓPTICOS DE LÁSER;. CIENCIAS MÉDICAS Y BIOLÓGICAS.- CINTAS DE CIERRE PARA PAÑALES.- AISLAMIENTOS PARA TEJIDOS.- PRODUCTOS DE PROTECCIÓN PARA LA RESPIRACIÓN.- MATERIALES Y SISTEMAS PARA EL CONTROL DEL TRÁFICO.- APARATOS PARA VIGILANCIA Y CONTROL.- LÁMINAS DE SEGURIDAD.- SISTEMAS DE FILTRACIÓN.- COMPONENTES ÓPTICOS.- ESPECIALIDADES FARMACÉUTICAS.- PAÑOS QUIRÚRGICOS Y MASCARILLAS.- ESPARADRAPOS Y APÓSITOS.- SUTURAS. - PRODUCTOS OFTALMOLÓGICOS. - MATERIALES DE ESCAYOLA.- MOTORES NEUMÁTICOS.- MATERIALES DENTALES. - PRODUCTOS DE ORTODONCIA.- ELECTRODOS.- MÁQUINAS PARA PULMÓN-CORAZÓN. - OXIGENADORES.- SISTEMAS DE INFUSIÓN INTRAVENOSA.- SISTEMAS DE ADMINISTRACIÓN DE MEDICAMENTOS.- PRODUCTOS DE ESTERILIZACIÓN. - APARATOS PARA EL CONTROL ELECTRÓNICO DEL DOLOR.- PRODUCTOS VETERINARIOS.- PRODUCTOS PARA DIAGNÓSTICO. - SISTEMAS INFORMÁTICOS DE HOSPITAL.- SOLUCIONES PARA PREPARACIÓN DE LA PIEL. - GRAPAS PARA UTILIZACIÓN INTERNA Y EXTERNA.- FONENDOSCOPIOS. COMERCIAL Y CONSUMO.- PRODUCTOS PARA LA LIMPIEZA DOMÉSTICA.- PROTECTORES Y LIMPIADORES QUÍMICOS.- SISTEMAS PARA AISLAMIENTOS EN VENTANAS.- MATERIALES PARA MARCAJES. - CINTAS SENSIBLES A LA PRESIÓN.- PRODUCTOS DE PAPEL RECAMBIABLE.- PAPEL COPIA SIN CALCO.- ABRASIVOS PARA REVESTIMIENTO.- PRODUCTOS PARA EL CUIDADO PERSONAL. - PUBLICIDAD EXTERIOR.- MEDIOS DE PUBLICIDAD IMPRESA.- LISTADOS PARA COMPRAS DE COMPUTADORES PARA ANUNCIANTES.- SISTEMAS DE MÚSICA Y DE MENSAJES. 2º.- LA COMERCIALIZACIÓN Y PRESTACIÓN DE SERVICIOS DE EXPLOTACIÓN, INSTALACIÓN, PUESTA EN FUNCIONAMIENTO, SEGUIMIENTO, GESTIÓN, CONTROL, MANTENIMIENTO PREVENTIVO, CORRECTIVO O PERFECTIVO Y DE REPARACIÓN DE EQUIPOS, INSTALACIONES, SOFTWARES, SISTEMAS E INFRAESTRUCTURAS, TANTO FÍSICOS Y LÓGICOS PARA EL TRATAMIENTO DE CUALQUIER TIPO DE INFORMACIÓN, INCLUÍDA LA DESTINADA A MONITORIZACIÓN ELECTRÓNICA DE PERSONAS, GESTIÓN DE INVENTARIOS Y TRAZABILIDAD DE PRODUCTOS, ENTRE OTROS, COMO CUALESQUIERA OTROS EQUIPOS, INSTALACIONES, SOFTWARES, SISTEMAS E INFRAESTRUCTURAS INFORMÁTICAS, TELEMÁTICAS Y DE TELECOMUNICACIONES, ASÍ COMO DE SUS DISPOSITIVOS, APLICACIONES, EQUIPOS EMISORES Y RECEPTORES Y SUS CORRESPONDIENTES SISTEMAS Y MEDIOS DE TRANSMISICÓN. 3º.- LA PRODUCCIÓN, ELABORACIÓN, FABRICACIÓN, CREACIÓN, CONVERSIÓN, TRATAMIENTO, ACABADO, MANIPULACIÓN, COMPRAVENTA, ARRENDAMIENTO, IMPORTACIÓN Y EXPORTACIÓN Y EN GENERAL LA COMERCIALIZACIÓN POR CUALQUIER PROCEDIMIENTO -INCLUÍDA LA PRESTACIÓN DE SERVICIOS- DE PRODUCTOS ANÁLOGOS A LOS DESCRITOS QUE PUEDA CREAR, DESARROLLAR Y PRODUCIR LA COMPAÑÍA;3M COMPANY(DE ST. PAUL, MINNESOTA, ESTADOS UNIDOS) SOBRE LA BASE DE PATENTES, PROCEDIMIENTOS, TÉCNICAS O SISTEMAS DE FABRICACIÓN DE LA CITADA COMPAÑÍA O CUALQUIERA DE SUS FILIALES ASOCIADAS.",
      "mainEntityOfPage": "https://www.contratacion.euskadi.eus/webkpe00-kperoc/es/ac71aBusquedaRegistrosWar/empresa/05258",
      "_links": {
        "self": {
          "name": "3M ESPAÑA, S.L.",
          "href": "https://api.euskadi.eus/procurements/companies/05258"
        }
      }
    }
  ]
}