{
  "totalItems": 9042,
  "totalPages": 905,
  "currentPage": 767,
  "itemsOfPage": 10,
  "items": [
    {
      "name": "N.T.W., S.L.",
      "registrationNumber": "01151",
      "identificationNumber": "B20335501",
      "address": "PORTUETXE, 59-3º A",
      "location": {
        "postalCode": "20018",
        "municipality": "Donostia / San Sebastián",
        "county": "Gipuzkoa",
        "municipalityId": "069",
        "countyId": "20"
      },
      "economicActivities": [
        {
          "id": "1.844",
          "name": "Servicios de publicidad, relaciones públicas y similares",
          "_links": {
            "self": {
              "name": "Servicios de publicidad, relaciones públicas y similares",
              "href": "https://api.euskadi.eus/procurements/companies/economic-activities/1.844"
            }
          }
        }
      ],
      "certificateStartDate": "2007-10-19",
      "certificateEndDate": "2008-04-16",
      "object": "EL DESARROLLO DE ACTIVIDADES PROPIAS DE UNA EMPRESA DE SERVICIOS DE COMUNICACIÓN INTEGRAL, TALES COMO DISEÑO CORPORATIVO, DISEÑO GRÁFICO, PUBLICIDAD, GABINETE DE PRENSA, RELACIONES PÚBLICAS, ESPONSORING, PRODUCCIÓN AUDIOVISUAL, INTERACTIVA Y MULTIMEDIA",
      "mainEntityOfPage": "https://www.contratacion.euskadi.eus/webkpe00-kperoc/es/ac71aBusquedaRegistrosWar/empresa/01151",
      "_links": {
        "self": {
          "name": "N.T.W., S.L.",
          "href": "https://api.euskadi.eus/procurements/companies/01151"
        }
      }
    },
    {
      "name": "SORIN GROUP ESPAÑA, S.L.",
      "registrationNumber": "03449",
      "identificationNumber": "B28544161",
      "address": "AVDA. DE LES CORTS CATALANES, 8-3ª PLANTA",
      "location": {
        "postalCode": "08173",
        "municipality": "Sant Cugat del Vallès",
        "county": "Barcelona",
        "municipalityId": "205",
        "countyId": "08"
      },
      "economicActivities": [
        {
          "id": "1.619.2",
          "name": "Venta al por mayor de aparatos e instrumentos médicos, ortopédicos, ópticos",
          "_links": {
            "self": {
              "name": "Venta al por mayor de aparatos e instrumentos médicos, ortopédicos, ópticos",
              "href": "https://api.euskadi.eus/procurements/companies/economic-activities/1.619.2"
            }
          }
        },
        {
          "id": "1.699",
          "name": "Otras reparaciones n.c.o.p",
          "_links": {
            "self": {
              "name": "Otras reparaciones n.c.o.p",
              "href": "https://api.euskadi.eus/procurements/companies/economic-activities/1.699"
            }
          }
        }
      ],
      "certificateStartDate": "2007-10-19",
      "certificateEndDate": "2008-03-18",
      "object": "EL DISEÑO, FABRICACIÓN, IMPORTACIÓN, EXPORTACIÓN, MONTAJE Y COMERCIALIZACIÓN DE TODO TIPO DE APARATOS BIOMÉDICOS, TALES COMO MARCAPASOS IMPLANTABLES, ESTIMULADORES DE UTILIZACIÓN EXTERNA, OXIGENADORES, RIÑONES ARTIFICIALES Y FILTROS, PRODUCTOS PARA EL ANÁLISIS Y SUS COMPONENTES, INCLUIDOS LOS PRODUCTOS RADIO-FARMACÉUTICOS, ASÍ COMO LOS PRODUCTOS DE NATURALEZA SIMILAR. LA ADQUISICIÓN, OBTENCIÓN Y EXPLOTACIÓN O VENTA DE MARCAS DE FÁBRICA REGISTRADAS, MARCAS COMERCIALES, Y DE TODOS LOS PROCESOS DE FABRICACIÓN, ASÍ COMO TODAS LAS PATENTES DE INVENCIÓN, LICENCIA O MODELOS, REFERIDOS A PRODUCTOS INCLUIDOS EN EL APARTADO ANTERIOR. TODA CLASE DE OPERACIONES DE PRÉSTAMOS Y CUALQUIER OTRA FORMA DE CRÉDITO PRACTICABLE A CORTO, A LARGO PLAZO Y CON GARANTÍA PERSONAL, PRENDARIA HIPOTECARIA O MIXTA ENTRE EMPRESAS DEL GRUPO AL QUE LA SOCIEDAD PERTENECE",
      "mainEntityOfPage": "https://www.contratacion.euskadi.eus/webkpe00-kperoc/es/ac71aBusquedaRegistrosWar/empresa/03449",
      "_links": {
        "self": {
          "name": "SORIN GROUP ESPAÑA, S.L.",
          "href": "https://api.euskadi.eus/procurements/companies/03449"
        }
      }
    },
    {
      "name": "BILBAO VERTICAL, S.L.",
      "registrationNumber": "03373",
      "identificationNumber": "B95349072",
      "address": "LARRONDO BEHEKO EDIF 3 NAVE 16",
      "location": {
        "postalCode": "48180",
        "municipality": "Loiu",
        "county": "Bizkaia",
        "municipalityId": "903",
        "countyId": "48"
      },
      "economicActivities": [
        {
          "id": "1.501.1",
          "name": "Construcción completa, reparación y conservación de edificaciones",
          "_links": {
            "self": {
              "name": "Construcción completa, reparación y conservación de edificaciones",
              "href": "https://api.euskadi.eus/procurements/companies/economic-activities/1.501.1"
            }
          }
        }
      ],
      "certificateStartDate": "2007-10-17",
      "certificateEndDate": "2008-04-02",
      "object": "LA REALIZACIÓN DE OBRAS DE CONSTRUCCIÓN TANTO A NIVEL INDUSTRIAL COMO PARTICULAR, LA REALIZACIÓN DE TRABAJOS VERTICALES; MANTENIMIENTO, ACONDICIONAMIENTO Y REHABILITACIÓN DE TODA CLASE DE INMUEBLES; INSTALACIÓN, MANTENIMIENTO DE SISTEMAS DE CLIMATIZACIÓN, CALEFACCIÓN Y REALIZACIÓN DE OBRA CIVIL. ADQUIRIR, ENAJENAR Y ARRENDAR BIENES INMUEBLES (CONCRETAMENTE LOS DETERMINADOS EN EL ARTÍCULO 334.1 DEL CÓDIGO CIVIL), ACCIONES PARTICIPACIONES SOCIALES, OBLIGACIONES, BONOS DE CAJA, CERTIFICADOS DE DEPÓSITO Y PAGARÉS DE TODA CLASE DE EMPRESAS O NEGOCIOS",
      "mainEntityOfPage": "https://www.contratacion.euskadi.eus/webkpe00-kperoc/es/ac71aBusquedaRegistrosWar/empresa/03373",
      "_links": {
        "self": {
          "name": "BILBAO VERTICAL, S.L.",
          "href": "https://api.euskadi.eus/procurements/companies/03373"
        }
      }
    },
    {
      "name": "MARIA EUGENIA SARASOLA ANZOLA",
      "registrationNumber": "03358",
      "identificationNumber": "16029137T",
      "address": "FERNANDEZ DEL CAMPO, 21-6º IZDA.",
      "location": {
        "postalCode": "48010",
        "municipality": "Bilbao",
        "county": "Bizkaia",
        "municipalityId": "020",
        "countyId": "48"
      },
      "economicActivities": [
        {
          "id": "2.776",
          "name": "Doctores y licenciados en ciencias políticas y sociales",
          "_links": {
            "self": {
              "name": "Doctores y licenciados en ciencias políticas y sociales",
              "href": "https://api.euskadi.eus/procurements/companies/economic-activities/2.776"
            }
          }
        }
      ],
      "certificateStartDate": "2007-10-03",
      "certificateEndDate": "2008-02-03",
      "object": "CONSULTORA DE GÉNERO Y COACHING",
      "mainEntityOfPage": "https://www.contratacion.euskadi.eus/webkpe00-kperoc/es/ac71aBusquedaRegistrosWar/empresa/03358",
      "_links": {
        "self": {
          "name": "MARIA EUGENIA SARASOLA ANZOLA",
          "href": "https://api.euskadi.eus/procurements/companies/03358"
        }
      }
    },
    {
      "name": "LANDA CONSTRUCCIONES Y REHABILITACIONES, S.L.",
      "registrationNumber": "03439",
      "identificationNumber": "B01314954",
      "address": "C/ GORBEA 24 BAJO",
      "location": {
        "postalCode": "01012",
        "municipality": "Vitoria-Gasteiz",
        "county": "Araba/Álava",
        "municipalityId": "059",
        "countyId": "01"
      },
      "economicActivities": [
        {
          "id": "1.501.1",
          "name": "Construcción completa, reparación y conservación de edificaciones",
          "_links": {
            "self": {
              "name": "Construcción completa, reparación y conservación de edificaciones",
              "href": "https://api.euskadi.eus/procurements/companies/economic-activities/1.501.1"
            }
          }
        }
      ],
      "certificateStartDate": "2007-10-03",
      "certificateEndDate": "2008-03-17",
      "object": "LA COMPRAVENTA DE TODA CLASE DE INMUEBLES, SU EXPLOTACIÓN EN RÉGIMEN DE ALQUILER, LA PROMOCIÓN, CONSTRUCCIÓN Y REHABLIITACIÓN DE TODO TIPO DE EDIFICIOS; LA REALIZACIÓN DE ESTUDIOS E INFORMES EN MATERIA DE INVERSIONES INMOBILIARIAS. LA PROMOCIÓN Y EJECUCIÓN COMPLETA O POR RAMOS DE TODA CLASE DE OBRAS DE CONSTRUCCIÓN, OBRAS PÚBLICAS, URBANIZACIÓN DE TERRENOS, REPARACIÓN Y CONSERVACIÓN DE EDIFICIOS, POR CUENTA AJENA O PROPIA. LA COMPRAVENTA DE TODO TIPO DE MATERIALES PARA LA CONSTRUCCIÓN O REHABILITACIÓN DE EDIFICIOS",
      "mainEntityOfPage": "https://www.contratacion.euskadi.eus/webkpe00-kperoc/es/ac71aBusquedaRegistrosWar/empresa/03439",
      "_links": {
        "self": {
          "name": "LANDA CONSTRUCCIONES Y REHABILITACIONES, S.L.",
          "href": "https://api.euskadi.eus/procurements/companies/03439"
        }
      }
    },
    {
      "name": "PREST TALLER DE EVENTOS, S.L.",
      "registrationNumber": "03446",
      "identificationNumber": "B95466710",
      "address": "LEDESMA 7, 1º A",
      "location": {
        "postalCode": "48001",
        "municipality": "Bilbao",
        "county": "Bizkaia",
        "municipalityId": "020",
        "countyId": "48"
      },
      "economicActivities": [
        {
          "id": "1.989.2",
          "name": "Servicios de organización de congresos, asambleas y similares",
          "_links": {
            "self": {
              "name": "Servicios de organización de congresos, asambleas y similares",
              "href": "https://api.euskadi.eus/procurements/companies/economic-activities/1.989.2"
            }
          }
        }
      ],
      "certificateStartDate": "2007-10-03",
      "certificateEndDate": "2008-03-17",
      "object": "1- LA ORGANIZACIÓN, COMERCIALIZACIÓN Y PLANIFICACIÓN DE EVENTOS, CONGRESOS, FERIAS, JORNADAS TÉCNICAS, ASAMBLEAS Y ACONTECIMIENTOS DEPORTIVOS, ARTÍSTICOS Y LÚDICOS EN GENERAL. 2- LA GESTIÓN DE ESPECTÁCULOS, CONSULTORÍA, SERVICIOS DE PROTOCOLO, FORMACIÓN, PUBLICIDAD Y MARKETING RELACIONADO CON EVENTOS DE CUALQUIER TIPO. 3- LA PRESTACIÓN DE SERVICIOS DE MANTENIMIENTO, CUIDADO, ATENCIÓN, CONTROL DE ACCESOS, ENTRADAS E INSTALACIONES DONDE SE CELEBREN LAS ACTIVIDADES ARRIBA DESCRITAS",
      "mainEntityOfPage": "https://www.contratacion.euskadi.eus/webkpe00-kperoc/es/ac71aBusquedaRegistrosWar/empresa/03446",
      "_links": {
        "self": {
          "name": "PREST TALLER DE EVENTOS, S.L.",
          "href": "https://api.euskadi.eus/procurements/companies/03446"
        }
      }
    },
    {
      "name": "ÁFORA, S.A.",
      "registrationNumber": "01873",
      "identificationNumber": "A08086662",
      "address": "C/ ARIBAU, Nº 240 - 6º",
      "location": {
        "postalCode": "08006",
        "municipality": "Barcelona",
        "county": "Barcelona",
        "municipalityId": "019",
        "countyId": "08"
      },
      "economicActivities": [
        {
          "id": "1.616.6",
          "name": "Venta al por mayor de productos químicos industriales",
          "_links": {
            "self": {
              "name": "Venta al por mayor de productos químicos industriales",
              "href": "https://api.euskadi.eus/procurements/companies/economic-activities/1.616.6"
            }
          }
        },
        {
          "id": "1.619.7",
          "name": "Venta al por mayor de instrumentos de precisión, medida y similares",
          "_links": {
            "self": {
              "name": "Venta al por mayor de instrumentos de precisión, medida y similares",
              "href": "https://api.euskadi.eus/procurements/companies/economic-activities/1.619.7"
            }
          }
        }
      ],
      "certificateStartDate": "2007-10-02",
      "certificateEndDate": "2008-03-12",
      "object": "LA FABRICACIÓN Y COMERCIO DE APARATOS, OBJETOS Y ARTÍCULOS ÚTILES PARA LABORATORIOS QUÍMICOS",
      "mainEntityOfPage": "https://www.contratacion.euskadi.eus/webkpe00-kperoc/es/ac71aBusquedaRegistrosWar/empresa/01873",
      "_links": {
        "self": {
          "name": "ÁFORA, S.A.",
          "href": "https://api.euskadi.eus/procurements/companies/01873"
        }
      }
    },
    {
      "name": "LAUVAL CORREDURÍA DE SEGUROS, S.L.",
      "registrationNumber": "01899",
      "identificationNumber": "B01121581",
      "address": "C/ PRADO, Nº 11 - 1º IZDA.",
      "location": {
        "postalCode": "01005",
        "municipality": "Vitoria-Gasteiz",
        "county": "Araba/Álava",
        "municipalityId": "059",
        "countyId": "01"
      },
      "economicActivities": [
        {
          "id": "1.832.1",
          "name": "Agencias de seguros y corredurías de seguros",
          "_links": {
            "self": {
              "name": "Agencias de seguros y corredurías de seguros",
              "href": "https://api.euskadi.eus/procurements/companies/economic-activities/1.832.1"
            }
          }
        }
      ],
      "certificateStartDate": "2007-10-02",
      "certificateEndDate": "2008-03-06",
      "object": "LOS SERVICIOS DE CORREDURÍA DE SEGUROS DE TODAS CLASES, CON SOMETIMIENTO A LA LEGISLACIÓN ESPECÍFICA DE MEDIACIÓN DE SEGUROS PRIVADOS EN CUANTO A LA REALIZACIÓN DE ACTIVIDADES DE DICHA CORREDURÍA DE SEGUROS",
      "mainEntityOfPage": "https://www.contratacion.euskadi.eus/webkpe00-kperoc/es/ac71aBusquedaRegistrosWar/empresa/01899",
      "_links": {
        "self": {
          "name": "LAUVAL CORREDURÍA DE SEGUROS, S.L.",
          "href": "https://api.euskadi.eus/procurements/companies/01899"
        }
      }
    },
    {
      "name": "ARITEKO, S. COOP.",
      "registrationNumber": "02051",
      "identificationNumber": "F01125012",
      "address": "C/ PRUDENCIO Mª DE VERÁSTEGUI, Nº 14 - 2º IZDA.",
      "location": {
        "postalCode": "01002",
        "municipality": "Vitoria-Gasteiz",
        "county": "Araba/Álava",
        "municipalityId": "059",
        "countyId": "01"
      },
      "economicActivities": [
        {
          "id": "1.849.4",
          "name": "Servicios de custodia, seguridad y protección",
          "_links": {
            "self": {
              "name": "Servicios de custodia, seguridad y protección",
              "href": "https://api.euskadi.eus/procurements/companies/economic-activities/1.849.4"
            }
          }
        },
        {
          "id": "1.967.2",
          "name": "Escuelas y servicios de perfeccionamiento del deporte",
          "_links": {
            "self": {
              "name": "Escuelas y servicios de perfeccionamiento del deporte",
              "href": "https://api.euskadi.eus/procurements/companies/economic-activities/1.967.2"
            }
          }
        }
      ],
      "certificateStartDate": "2007-10-01",
      "certificateEndDate": "2008-03-18",
      "object": "TODAS LAS ACTIVIDADES RELACIONADAS CON EL DEPORTE, SU ENSEÑANZA, DIFUSIÓN Y ANIMACIÓN, INCLUIDO EL SOCORRISMO ACUÁTICO Y TERRESTRE. LA GESTIÓN, ADMINISTRACIÓN Y CONTROL DE INSTALACIONES DEPORTIVAS, INCLUÍDA SU LIMPIEZA Y MANTENIMIENTO, LA REGULACIÓN Y CONTROL DE ACCESOS A LAS MISMAS, LA INFORMACIÓN Y VIGILANCIA, LA GESTIÓN DE SUS SERVICIOS SANITARIOS, SU EQUIPAMIENTO Y DINAMIZACIÓN. EL ALQUILER, EQUIPACIÓN Y VENTA DE PRENDAS Y EQUIPOS DEPORTIVOS",
      "mainEntityOfPage": "https://www.contratacion.euskadi.eus/webkpe00-kperoc/es/ac71aBusquedaRegistrosWar/empresa/02051",
      "_links": {
        "self": {
          "name": "ARITEKO, S. COOP.",
          "href": "https://api.euskadi.eus/procurements/companies/02051"
        }
      }
    },
    {
      "name": "PHARMION, S.L.",
      "registrationNumber": "03108",
      "identificationNumber": "B83158089",
      "address": "C/ CAMINO DE LA ZARZUELA, 21 -3º",
      "location": {
        "postalCode": "28023",
        "municipality": "Madrid",
        "county": "Madrid",
        "municipalityId": "079",
        "countyId": "28"
      },
      "economicActivities": [
        {
          "id": "1.614.1",
          "name": "Venta al por mayor de productos farmacéuticos y medicamentos",
          "_links": {
            "self": {
              "name": "Venta al por mayor de productos farmacéuticos y medicamentos",
              "href": "https://api.euskadi.eus/procurements/companies/economic-activities/1.614.1"
            }
          }
        }
      ],
      "certificateStartDate": "2007-10-01",
      "certificateEndDate": "2008-03-14",
      "object": "LA DISTRIBUCIÓN  AL POR MAYOR (INCLUYENDO LA VENTA A HOSPITALES) DE PRODUCTOS FARMACÉUTICOS DE TODO TIPO, EL APOYO PROMOCIONAL A FABRICANTES DE PRODUCTOS FARMACÉUTICOS (INCLUYENDO, ENTRE OTRAS, LAS PRESENTACIONES A QUIENES  PRESCRIBAN ESTOS PRODUCTOS Y LA ASISTENCIA A EXHIBICIONES), Y LA GESTIÓN DE PRUEBAS  CLÍNICAS DIRIGIDAS POR ORGANIZACIONES DE LA INVESTIGACIÓN CLÍNICAS.\r\nLA SOCIEDAD PODRÁ, BIEN EN EL  TERRITORIO NACIONAL O EN EL DE CUALQUIER OTRO PAÍS EUROPEO, CONSTITUIR FILIALES O SUCURSALES DE OBJETO SIMILAR, COMPRAR OTRAS COMPAÑÍAS O PARTICIPAR EN LAS MISMAS, ASÍ COMO LLEVAR A CABO CUALQUIER OPERACIÓN DE NEGOCIOS ADECUADA PARA EL DESARROLLO DEL OBJETO SOCIAL DE LA COMPAÑÍA.\r\nTALES ACTIVIDADES PODRÁN SER DESARROLLADAS POR LA SOCIEDAD BIEN EN FORMA DIRECTA, O BIEN EN CUALESQUIERA OTRAS FORMAS ADMITIIDAS EN DERECHO, COMO LA PARTICIPACIÓN EN CALIDAD DE SOCIO Y/O ACCIONISTA EN OTRAS ENTIDADES DE OBJETO IDÉNTICO O ANÁLOGO",
      "mainEntityOfPage": "https://www.contratacion.euskadi.eus/webkpe00-kperoc/es/ac71aBusquedaRegistrosWar/empresa/03108",
      "_links": {
        "self": {
          "name": "PHARMION, S.L.",
          "href": "https://api.euskadi.eus/procurements/companies/03108"
        }
      }
    }
  ]
}