{
  "totalItems": 9042,
  "totalPages": 905,
  "currentPage": 844,
  "itemsOfPage": 10,
  "items": [
    {
      "name": "CONSTRUCCIONES LANTEGUI, S.A.",
      "registrationNumber": "02635",
      "identificationNumber": "A20159380",
      "address": "URTAKI INDUSTRIGUNEA, 24",
      "location": {
        "postalCode": "20150",
        "municipality": "Aduna",
        "county": "Gipuzkoa",
        "municipalityId": "002",
        "countyId": "20"
      },
      "object": ".pte",
      "mainEntityOfPage": "https://www.contratacion.euskadi.eus/webkpe00-kperoc/es/ac71aBusquedaRegistrosWar/empresa/02635",
      "_links": {
        "self": {
          "name": "CONSTRUCCIONES LANTEGUI, S.A.",
          "href": "https://api.euskadi.eus/procurements/companies/02635"
        }
      }
    },
    {
      "name": "ECHEAN, S.A. CONSTRUCCIONES",
      "registrationNumber": "02648",
      "identificationNumber": "A48054316",
      "address": "ESCULTOR FCO. DURRIO, N1 BAJO",
      "location": {
        "postalCode": "48015",
        "municipality": "Bilbao",
        "county": "Bizkaia",
        "municipalityId": "020",
        "countyId": "48"
      },
      "object": "El suyo",
      "mainEntityOfPage": "https://www.contratacion.euskadi.eus/webkpe00-kperoc/es/ac71aBusquedaRegistrosWar/empresa/02648",
      "_links": {
        "self": {
          "name": "ECHEAN, S.A. CONSTRUCCIONES",
          "href": "https://api.euskadi.eus/procurements/companies/02648"
        }
      }
    },
    {
      "name": "CONSTRUCCIONES Y CANALIZACIONES 2000, S.L.",
      "registrationNumber": "02649",
      "identificationNumber": "B95105136",
      "address": "GP. DOCTOR AREILZA, 15-LONJA. BARRIO DE GALLARTA.",
      "location": {
        "postalCode": "48500",
        "municipality": "Abanto y Ciérvana-Abanto Zierbena",
        "county": "Bizkaia",
        "municipalityId": "002",
        "countyId": "48"
      },
      "object": "construccion",
      "mainEntityOfPage": "https://www.contratacion.euskadi.eus/webkpe00-kperoc/es/ac71aBusquedaRegistrosWar/empresa/02649",
      "_links": {
        "self": {
          "name": "CONSTRUCCIONES Y CANALIZACIONES 2000, S.L.",
          "href": "https://api.euskadi.eus/procurements/companies/02649"
        }
      }
    },
    {
      "name": "PROMOCIONES LANTEKIN, S.L.",
      "registrationNumber": "02650",
      "identificationNumber": "B95047114",
      "address": "AVDA. AUTONOMÍA, 2",
      "location": {
        "postalCode": "48940",
        "municipality": "Leioa",
        "county": "Bizkaia",
        "municipalityId": "054",
        "countyId": "48"
      },
      "object": "CONSTRUCCION",
      "mainEntityOfPage": "https://www.contratacion.euskadi.eus/webkpe00-kperoc/es/ac71aBusquedaRegistrosWar/empresa/02650",
      "_links": {
        "self": {
          "name": "PROMOCIONES LANTEKIN, S.L.",
          "href": "https://api.euskadi.eus/procurements/companies/02650"
        }
      }
    },
    {
      "name": "ELECTRICIDAD IRAZOLA, S.L.",
      "registrationNumber": "02651",
      "identificationNumber": "B48124531",
      "address": "ARANEKO, 1",
      "location": {
        "postalCode": "48014",
        "municipality": "Bilbao",
        "county": "Bizkaia",
        "municipalityId": "020",
        "countyId": "48"
      },
      "object": "El suyo",
      "mainEntityOfPage": "https://www.contratacion.euskadi.eus/webkpe00-kperoc/es/ac71aBusquedaRegistrosWar/empresa/02651",
      "_links": {
        "self": {
          "name": "ELECTRICIDAD IRAZOLA, S.L.",
          "href": "https://api.euskadi.eus/procurements/companies/02651"
        }
      }
    },
    {
      "name": "ASTILLEROS DE MURUETA, S.A.",
      "registrationNumber": "02652",
      "identificationNumber": "A48001051",
      "address": "BARRIO MALLOAPE, S/N",
      "location": {
        "postalCode": "48394",
        "municipality": "Murueta",
        "county": "Bizkaia",
        "municipalityId": "908",
        "countyId": "48"
      },
      "object": "El suyo",
      "mainEntityOfPage": "https://www.contratacion.euskadi.eus/webkpe00-kperoc/es/ac71aBusquedaRegistrosWar/empresa/02652",
      "_links": {
        "self": {
          "name": "ASTILLEROS DE MURUETA, S.A.",
          "href": "https://api.euskadi.eus/procurements/companies/02652"
        }
      }
    },
    {
      "name": "ATEMPO DISEÑO E INTERIORISMO, S.A.",
      "registrationNumber": "02666",
      "identificationNumber": "A48768089",
      "address": "C/ IBÁÑEZ DE BILBAO, 28 - 5º",
      "location": {
        "postalCode": "48009",
        "municipality": "Bilbao",
        "county": "Bizkaia",
        "municipalityId": "020",
        "countyId": "48"
      },
      "object": "El suyo",
      "mainEntityOfPage": "https://www.contratacion.euskadi.eus/webkpe00-kperoc/es/ac71aBusquedaRegistrosWar/empresa/02666",
      "_links": {
        "self": {
          "name": "ATEMPO DISEÑO E INTERIORISMO, S.A.",
          "href": "https://api.euskadi.eus/procurements/companies/02666"
        }
      }
    },
    {
      "name": "ROTOATLÁNTICA, S.L.",
      "registrationNumber": "02677",
      "identificationNumber": "B48475388",
      "address": "AVDA. SANTA ANA, 7 -1º ",
      "location": {
        "postalCode": "48940",
        "municipality": "Leioa",
        "county": "Bizkaia",
        "municipalityId": "054",
        "countyId": "48"
      },
      "object": "el suyo",
      "mainEntityOfPage": "https://www.contratacion.euskadi.eus/webkpe00-kperoc/es/ac71aBusquedaRegistrosWar/empresa/02677",
      "_links": {
        "self": {
          "name": "ROTOATLÁNTICA, S.L.",
          "href": "https://api.euskadi.eus/procurements/companies/02677"
        }
      }
    },
    {
      "name": "LURGINTZA NEKAZAL KOOPERATIBA ELKARTEA",
      "registrationNumber": "02679",
      "identificationNumber": "F20035846",
      "address": "JOSE ARTETXE, 3 ",
      "location": {
        "postalCode": "20730",
        "municipality": "Azpeitia",
        "county": "Gipuzkoa",
        "municipalityId": "018",
        "countyId": "20"
      },
      "object": "serv agricolas",
      "mainEntityOfPage": "https://www.contratacion.euskadi.eus/webkpe00-kperoc/es/ac71aBusquedaRegistrosWar/empresa/02679",
      "_links": {
        "self": {
          "name": "LURGINTZA NEKAZAL KOOPERATIBA ELKARTEA",
          "href": "https://api.euskadi.eus/procurements/companies/02679"
        }
      }
    },
    {
      "name": "REMOLCANORTE, S.L.",
      "registrationNumber": "02681",
      "identificationNumber": "B20592564",
      "address": "JULIO BEOBIDE,. 15-BAJO",
      "location": {
        "postalCode": "20750",
        "municipality": "Zumaia",
        "county": "Gipuzkoa",
        "municipalityId": "081",
        "countyId": "20"
      },
      "object": "remolque y salvamento de buques",
      "mainEntityOfPage": "https://www.contratacion.euskadi.eus/webkpe00-kperoc/es/ac71aBusquedaRegistrosWar/empresa/02681",
      "_links": {
        "self": {
          "name": "REMOLCANORTE, S.L.",
          "href": "https://api.euskadi.eus/procurements/companies/02681"
        }
      }
    }
  ]
}