{
  "totalItems": 9042,
  "totalPages": 905,
  "currentPage": 243,
  "itemsOfPage": 10,
  "items": [
    {
      "name": "BARIK REFORMAS 2019, S.L.",
      "registrationNumber": "09000",
      "identificationNumber": "B95971156",
      "address": "Plaza El Botxo",
      "location": {
        "postalCode": "48901",
        "municipality": "Barakaldo",
        "county": "Bizkaia",
        "municipalityId": "013",
        "countyId": "48"
      },
      "economicActivities": [
        {
          "id": "1.501.3",
          "name": "Albañilería y pequeños trabajos de construcción en general",
          "_links": {
            "self": {
              "name": "Albañilería y pequeños trabajos de construcción en general",
              "href": "https://api.euskadi.eus/procurements/companies/economic-activities/1.501.3"
            }
          }
        },
        {
          "id": "1.861.1",
          "name": "Alquiler de viviendas",
          "_links": {
            "self": {
              "name": "Alquiler de viviendas",
              "href": "https://api.euskadi.eus/procurements/companies/economic-activities/1.861.1"
            }
          }
        }
      ],
      "certificateStartDate": "2025-09-30",
      "certificateEndDate": "2026-03-22",
      "object": "PRINCIPAL: REALIZACIÓN DIRECTA O INDIRECTA EN SUS MÁS AMPLIOS TÉRMINOS DE OBRAS DE ALBAÑILERÍA Y TRABAJOS DE CONSTRUCCIÓN, REPARACIÓN Y CONSERVACIÓN DE OBRAS EN GENERAL, REFORMAS DE PISOS Y LOCALES, ACABADOS DE OBRAS, REVESTIMIENTOS EXTERIORES E INTERIORES, SOLADOS DE OBRAS Y PAVIMENTOS, AISLAMIENTOS E IMPERMEABILIZACIÓN, TERMINACIÓN Y DECORACIÓN DE EDIFICIOS Y LOCALES Y MONTAJE DE ANDAMIOS. (CNAE: 4399). SECUNDARIOS: 1.- INSTALACIONES DE TODO TIPO: ELÉCTRICAS, DE FONTANERÍA, DE GASES Y LÍQUIDOS, FRÍO Y CALOR, ASÍ COMO SU MANTENIMIENTO. 2.- LA ADQUISICIÓN POR CUALQUIER TÍTULO DE FINCAS RÚSTICAS O URBANAS, LA CONSTRUCCIÓN DE ÉSTAS, SU URBANIZACIÓN Y PARCELACIÓN Y LA ADMINISTRACIÓN, TENENCIA Y EXPLOTACIÓN Y ARRENDAMIENTO DE TALES BIENES Y SU VENTA TOTAL Y PARCIAL. 3.- COMPRAVENTA DE TODO TIPO DE MATERIALES RELACIONADOS DIRECTA O INDIRECTAMENTE CON LA CONSTRUCCIÓN, INCLUSO PROGRAMACIÓN DE TODO TIPO DE SOFTWARE INFORMÁTICO Y HARDWARE Y COMPONENTES ELECTRÓNICOS. 4.- OPERAR CON PINTURA TANTO INDUSTRIAL COMO LOCAL. 5.- SOLDADURA CALIENTE. 6.- CARPINTERÍA DE MADERA Y METÁLICA. 7.- FONTANERÍA, CLIMATIZACIÓN Y MATERIAL CONTRA INCENDIOS.",
      "mainEntityOfPage": "https://www.contratacion.euskadi.eus/webkpe00-kperoc/es/ac71aBusquedaRegistrosWar/empresa/09000",
      "_links": {
        "self": {
          "name": "BARIK REFORMAS 2019, S.L.",
          "href": "https://api.euskadi.eus/procurements/companies/09000"
        }
      }
    },
    {
      "name": "VALDEGOVIA GESTIÓN SOCIAL, S.L.",
      "registrationNumber": "06512",
      "identificationNumber": "B01327360",
      "address": "LA IGLESIA 20",
      "location": {
        "postalCode": "01426",
        "municipality": "Valdegovía/Gaubea",
        "county": "Araba/Álava",
        "municipalityId": "055",
        "countyId": "01"
      },
      "economicActivities": [
        {
          "id": "1.952",
          "name": "Asistencia y servicios sociales en centros no residenciales",
          "_links": {
            "self": {
              "name": "Asistencia y servicios sociales en centros no residenciales",
              "href": "https://api.euskadi.eus/procurements/companies/economic-activities/1.952"
            }
          }
        }
      ],
      "certificateStartDate": "2025-09-30",
      "certificateEndDate": "2026-03-29",
      "object": "A) EN GENERAL, LA PRESTACIÓN DE SERVICIOS SOCIALES TANTO A COLECTIVOS COMO A PARTICULARES. B) LA GESTIÓN DE RESIDENCIAS DE ANCIANOS, GUARDERÍAS, COMEDORES, CENTROS DE DÍA, GERIÁTRICOS, HOSPITALES Y OTROS CENTROS DE SIMILAR CONSIDERACIÓN. C) GESTIÓN DE SERVICIOS DE JUVENTUD, ANIMACIÓN CULTURAL, DINAMIZACIÓN DE GRUPOS. D) CONSULTORÍA Y ASESORAMIENTO SOBRE RECURSOS SOCIALES. E) CUALQUIERA OTRAS DE ANÁLOGA CONSIDERACIÓN O QUE PUDIERAN ENTERDERSE NECESARIA PARA EL CUMPLIMIENTO DEL OBJETO SOCIAL.",
      "mainEntityOfPage": "https://www.contratacion.euskadi.eus/webkpe00-kperoc/es/ac71aBusquedaRegistrosWar/empresa/06512",
      "_links": {
        "self": {
          "name": "VALDEGOVIA GESTIÓN SOCIAL, S.L.",
          "href": "https://api.euskadi.eus/procurements/companies/06512"
        }
      }
    },
    {
      "name": "INDUSTRIAS DEL ACERO CIANCO, S.L.",
      "registrationNumber": "10357",
      "identificationNumber": "B20409538",
      "address": "Camino Artxipi",
      "location": {
        "postalCode": "20017",
        "municipality": "Donostia / San Sebastián",
        "county": "Gipuzkoa",
        "municipalityId": "069",
        "countyId": "20"
      },
      "economicActivities": [
        {
          "id": "1.316.2",
          "name": "Fabricación de artículos de ferretería y cerrajería",
          "_links": {
            "self": {
              "name": "Fabricación de artículos de ferretería y cerrajería",
              "href": "https://api.euskadi.eus/procurements/companies/economic-activities/1.316.2"
            }
          }
        }
      ],
      "certificateStartDate": "2025-09-30",
      "certificateEndDate": "2026-03-30",
      "object": "LOS TRANSFORMADOS DE ACERO INOXIDABLE.",
      "mainEntityOfPage": "https://www.contratacion.euskadi.eus/webkpe00-kperoc/es/ac71aBusquedaRegistrosWar/empresa/10357",
      "_links": {
        "self": {
          "name": "INDUSTRIAS DEL ACERO CIANCO, S.L.",
          "href": "https://api.euskadi.eus/procurements/companies/10357"
        }
      }
    },
    {
      "name": "SERVICIOS DE COCHES DE LUJO DE ALAVA, S.L.",
      "registrationNumber": "04483",
      "identificationNumber": "B01151968",
      "address": "PORTAL DE GAMARRA 11",
      "location": {
        "postalCode": "01013",
        "municipality": "Vitoria-Gasteiz",
        "county": "Araba/Álava",
        "municipalityId": "059",
        "countyId": "01"
      },
      "economicActivities": [
        {
          "id": "1.721.2",
          "name": "Transporte por autotaxis",
          "_links": {
            "self": {
              "name": "Transporte por autotaxis",
              "href": "https://api.euskadi.eus/procurements/companies/economic-activities/1.721.2"
            }
          }
        },
        {
          "id": "1.854.1",
          "name": "Alquiler de automóviles sin conductor",
          "_links": {
            "self": {
              "name": "Alquiler de automóviles sin conductor",
              "href": "https://api.euskadi.eus/procurements/companies/economic-activities/1.854.1"
            }
          }
        }
      ],
      "certificateStartDate": "2025-09-30",
      "certificateEndDate": "2026-03-26",
      "object": "EL ALQUILER DE VEHÍCULOS CON CONDUCTOR.",
      "mainEntityOfPage": "https://www.contratacion.euskadi.eus/webkpe00-kperoc/es/ac71aBusquedaRegistrosWar/empresa/04483",
      "_links": {
        "self": {
          "name": "SERVICIOS DE COCHES DE LUJO DE ALAVA, S.L.",
          "href": "https://api.euskadi.eus/procurements/companies/04483"
        }
      }
    },
    {
      "name": "URRATS EUSKALTEGIA KOOPERATIBA ELKARTEA",
      "registrationNumber": "06104",
      "identificationNumber": "F20186284",
      "address": "Karlos I.aren Hiribidea, 10 - behea",
      "location": {
        "postalCode": "20011",
        "municipality": "Donostia / San Sebastián",
        "county": "Gipuzkoa",
        "municipalityId": "069",
        "countyId": "20"
      },
      "economicActivities": [
        {
          "id": "1.849.9",
          "name": "Otros servicios independientes n.c.o.p",
          "_links": {
            "self": {
              "name": "Otros servicios independientes n.c.o.p",
              "href": "https://api.euskadi.eus/procurements/companies/economic-activities/1.849.9"
            }
          }
        },
        {
          "id": "1.933.9",
          "name": "Otras actividades de enseñanza tales como idiomas, mecanografía",
          "_links": {
            "self": {
              "name": "Otras actividades de enseñanza tales como idiomas, mecanografía",
              "href": "https://api.euskadi.eus/procurements/companies/economic-activities/1.933.9"
            }
          }
        }
      ],
      "certificateStartDate": "2025-09-30",
      "certificateEndDate": "2026-03-23",
      "object": "EUSKARA ETA EUSKAL KULTURAREN IRAKASKUNTZA DA, HALA NOLA HELBURU HONEN GARAPENERAKO IZANGO DIREN JARDUERA OSAGARRIENA",
      "mainEntityOfPage": "https://www.contratacion.euskadi.eus/webkpe00-kperoc/es/ac71aBusquedaRegistrosWar/empresa/06104",
      "_links": {
        "self": {
          "name": "URRATS EUSKALTEGIA KOOPERATIBA ELKARTEA",
          "href": "https://api.euskadi.eus/procurements/companies/06104"
        }
      }
    },
    {
      "name": "ALFAVI, S.A.",
      "registrationNumber": "10122",
      "identificationNumber": "A48111025",
      "address": "RIBERA DE ERANDIO,5",
      "location": {
        "postalCode": "48950",
        "municipality": "Erandio",
        "county": "Bizkaia",
        "municipalityId": "902",
        "countyId": "48"
      },
      "economicActivities": [
        {
          "id": "1.654.1",
          "name": "Venta al por menor de vehículos terrestres",
          "_links": {
            "self": {
              "name": "Venta al por menor de vehículos terrestres",
              "href": "https://api.euskadi.eus/procurements/companies/economic-activities/1.654.1"
            }
          }
        },
        {
          "id": "1.691.2",
          "name": "Reparación de vehículos automóviles, bicicletas y otros vehículos",
          "_links": {
            "self": {
              "name": "Reparación de vehículos automóviles, bicicletas y otros vehículos",
              "href": "https://api.euskadi.eus/procurements/companies/economic-activities/1.691.2"
            }
          }
        }
      ],
      "certificateStartDate": "2025-09-30",
      "certificateEndDate": "2026-03-22",
      "object": "LA COMPRAVENTA DE AUTOMÓVILES Y CAMIONES, GÓNDOLAS, CARAVANAS, REMOLQUES Y DEMÁS ELEMENTOS COMPLEMENTARIOS; LA COMPRAVENTA DE PIEZAS DE RECAMBIO Y ACCESORIOS DEL AUTOMÓVIL.",
      "mainEntityOfPage": "https://www.contratacion.euskadi.eus/webkpe00-kperoc/es/ac71aBusquedaRegistrosWar/empresa/10122",
      "_links": {
        "self": {
          "name": "ALFAVI, S.A.",
          "href": "https://api.euskadi.eus/procurements/companies/10122"
        }
      }
    },
    {
      "name": "SERVICIOS EDUCATIVOS IKUSER, .S.L",
      "registrationNumber": "09054",
      "identificationNumber": "B95477915",
      "address": "ARITZ BIDEA, 75 (POLÍGONO BELAKO -C/Eneperi, 13-)",
      "location": {
        "postalCode": "48100",
        "municipality": "Mungia",
        "county": "Bizkaia",
        "municipalityId": "069",
        "countyId": "48"
      },
      "economicActivities": [
        {
          "id": "1.933.9",
          "name": "Otras actividades de enseñanza tales como idiomas, mecanografía",
          "_links": {
            "self": {
              "name": "Otras actividades de enseñanza tales como idiomas, mecanografía",
              "href": "https://api.euskadi.eus/procurements/companies/economic-activities/1.933.9"
            }
          }
        }
      ],
      "certificateStartDate": "2025-09-30",
      "certificateEndDate": "2026-03-29",
      "object": "LA PRESTACIÓN DE SERVICIOS DE ENSEÑANZA EN MATERIA DE NUTRICIÓN Y SEGURIDAD ALIMENTARIA TANTO A TÍTULO INDIVIDUAL COMO COLECTIVO, CON ATENCIÓN PUESTA EN LA EDUCACIÓN DE LA INFANCIA Y LA JUVENTUD. EN ESPECIAL, LLEVARÁ A CABO LA IMPLEMENTACIÓN DE PROYECTOS EDUCATIVOS EN COLABORACIÓN CON CENTROS PÚBLICOS Y PRIVADOS DE ENSEÑANZA, CUYO OBJETO SEA LA PROPIA FORMACIÓN DE SU ALUMNADO EN MATERIAS NUTRICIONALES, DE HÁBITOS DE ALIMENTACIÓN, COMPORTAMIENTO Y SOCIALIZACIÓN EN LA MESA, CONOCIMIENTOS DE LOS PRODUCTOS, HIGIENE Y SEGURIDAD ACTIVA ANTE LOS ALIMENTOS. LOS CITADOS SERVICIOS DE ENSEÑANZA PODRÁN PRESTARSE TANTO EN LAS INSTALACIONES DEL CENTRO M O CENTROS DE ENSEÑANZA PROPIOS DE LA SOCIEDAD, COMO EN CENTROS ESCOLARES, INSTITUTOS, UNIVERSIDADES Y SIMILARES, MEDIANTE IMPLANTACIÓN EN ESTOS ÚLTIMOS Y DE MANERA COORDINADA DE ACTUACIONES FORMATIVAS INTEGRADAS EN LOS OBJETIVOS PROPIOS DE LOS CENTROS Y EN SU LÍNEA PEDAGÓGICA. LA ACTIVIDAD PODRÁ COMPLEMENTARSE CON LA ENTREGA DE MATERIALES, PRODUCTOS U OTROS ELEMENTOS Y CON LA REALIZACIÓN DE PRESTACIONES DE SERVICIOS QUE ESTÉN DIRECTAMENTE RELACIONADOS CON LA PROPIA ENSEÑANZA EN MATERIA DE NUTRICIÓN Y SEGURIDAD ALIMENTARIA. DICHAS ACTIVIDADES SE DESARROLLARÁN FUNDAMENTALMENTE EN TIEMPOS ENTRE CASES LECTIVAS: ANTES, DURANTE Y DESPUÉS DE LAS COMIDAS. LA ENSEÑANZA DEBERÁ SIEMPRE PRESTARSE EN EL MARCO DE UN PROYECTO Y/O PLAN FORMATIVO DISEÑADO POR EL EQUIPO ACADÉMICO DE LA SOCIEDAD, ORIENTANDO EL TRABAJO EDUCATIVO EN LA MISMA DIRECCIÓN PEDAGÓGICA Y DE VALORES QUE OFERTEN CADA UNO DE LOS CENTROS EDUCATIVOS DE ACUERDO CON LAS DIRECTRICES DE SU CONSEJO ESCOLAR Y CON LA COLABORACIÓN DE LOS RESPONSABLES DE LOS COMEDORES. EN TODO CASO LA EMPRESA DEBERÁ PROVEERSE DEL PERSONAL CON LA CAPACITACIÓN NECESARIA PARA ELABORAR LAS PROGRAMACIONES DE CADA CENTRO, RESPONSABILIZARSE DE SU PUESTA EN PRÁCTICA, Y PARTICIPAR EN SU EVALUACIÓN. CUALQUIER ACTUACIÓN QUE NO SE AJUSTE A LO RECOGIDO EN ESTE PÁRRAFO, AUNQUE SE TRATE DE ACTIVIDADES COMPLEMENTARIAS DE LAS CITADAS EN EL PÁRRAFO ANTERIOR, SE ENTENDERÁ QUE NO ESTÁ AMPARADA POR SU OBJETO SOCIAL. CON LAS REFERIDAS PREVENCIONES, SIEMPRE Y CUANDO SE TRATE DE ACTIVIDADES DESTINADAS AL OBJETO PRINCIPAL DE FORMACIÓN EN NUTRICIÓN Y SEGURIDAD ALIMENTARIAS, Y  NO TENER UN CARÁCTER MERAMENTE RECREATIVO, LA SOCIEDAD PODRÁ REALIZAR TAMBIÉN LAS SIGUIENTES: A)ACTIVIDADES DE EDUCACIÓN REGLADA Y NO REGLADA, IMPARTIDA EN EL PROPIO COMEDOR ESCOLAR O EN EL PATIO EN HORARIO LECTIVO, EN EXTRAESCOLARES Y EN AULAS MATINALES, COMO REFUERZO ESCOLAR, EN CAMPAMENTOS, URBANOS Y OTRAS RELACIONADAS DIRECTAMENTE CON LA EDUCACIÓN EN LAS CITADAS MATERIAS, INCLUSO FORMANDO PARTE DE PROGRAMAS SOCIOCULTURALES Y, EDUCATIVOS, DIRIGIDOS A CENTROS CÍVICOS, BIBLIOTECAS, SALAS DE LECTURA O ENCUENTRO, EQUIPAMIENTOS JUVENILES, SERVICIOS DE INFORMACIÓN JUVENIL, LUDOTECAS, CENTROS DE TIEMPO LIBRE, MUSEOS Y SEMANAS CULTURALES. B) ACTIVIDADES EN EL OCIO, DE EDUCACIÓN NO FORMAL, O COMPLEMENTARIAS DE OTRAS COMO LA GUARDIA, Y CUSTODIA EN PERIODO DE TRANSPORTE ESCOLAR SIEMPRE QUE TENGAN PRINCIPALMENTE U CONTENIDO EDUCATIVO, INCLUSO PRESTADAS AL AIRE LIBRE TANTO EN ENTORNOS NATURALES COMO URBANOS, EN CASAS DE COLONIAS Y ALBERGUES INFANTILES Y JUVENILES, CAMPAMENTOS, TALLERES, EXPOSICIONES, EN PROGRAMAS DE DINAMIZACIÓN Y ACONTECIMIENTOS DE ACCIÓN CULTURAL DIRIGIDOS A LA FORMACIÓN EN ESTAS MATERIAS.",
      "mainEntityOfPage": "https://www.contratacion.euskadi.eus/webkpe00-kperoc/es/ac71aBusquedaRegistrosWar/empresa/09054",
      "_links": {
        "self": {
          "name": "SERVICIOS EDUCATIVOS IKUSER, .S.L",
          "href": "https://api.euskadi.eus/procurements/companies/09054"
        }
      }
    },
    {
      "name": "JENNIFER ZORRAQUINO VITORIA",
      "registrationNumber": "10356",
      "identificationNumber": "78950210L",
      "address": "GR. REVERENDO VICENTE GARAMENDI, 6 - 10 A",
      "location": {
        "postalCode": "48006",
        "municipality": "Bilbao",
        "county": "Bizkaia",
        "municipalityId": "020",
        "countyId": "48"
      },
      "economicActivities": [
        {
          "id": "1.854",
          "name": "Alquiler de automóviles sin conductor",
          "_links": {
            "self": {
              "name": "Alquiler de automóviles sin conductor",
              "href": "https://api.euskadi.eus/procurements/companies/economic-activities/1.854"
            }
          }
        },
        {
          "id": "1.942.9",
          "name": "Otros servicios sanitarios sin internados, no clasificados",
          "_links": {
            "self": {
              "name": "Otros servicios sanitarios sin internados, no clasificados",
              "href": "https://api.euskadi.eus/procurements/companies/economic-activities/1.942.9"
            }
          }
        },
        {
          "id": "2.751",
          "name": "Profesionales de la publicidad, relaciones públicas y similares",
          "_links": {
            "self": {
              "name": "Profesionales de la publicidad, relaciones públicas y similares",
              "href": "https://api.euskadi.eus/procurements/companies/economic-activities/2.751"
            }
          }
        }
      ],
      "certificateStartDate": "2025-09-30",
      "certificateEndDate": "2026-03-29",
      "object": "PROFESIONALES DE LA PUBLICIDAD, RELACIONES PÚBLICAS Y SIMILARES. OTROS SERVICIOS SANITARIOS SIN INTERNADOS, NO CLASIFICADOS. ALQUILER DE AUTOMÓVILES SIN CONDUCTOR",
      "mainEntityOfPage": "https://www.contratacion.euskadi.eus/webkpe00-kperoc/es/ac71aBusquedaRegistrosWar/empresa/10356",
      "_links": {
        "self": {
          "name": "JENNIFER ZORRAQUINO VITORIA",
          "href": "https://api.euskadi.eus/procurements/companies/10356"
        }
      }
    },
    {
      "name": "JARDINERÍA ILUNTZE TALDEA, S.L.U",
      "registrationNumber": "04986",
      "identificationNumber": "B95683389",
      "address": "POLIGONO INDUSTRIAL ZIARRUSTA",
      "location": {
        "postalCode": "48141",
        "municipality": "Dima",
        "county": "Bizkaia",
        "municipalityId": "026",
        "countyId": "48"
      },
      "economicActivities": [
        {
          "id": "1.851",
          "name": "Alquiler de maquinaria y equipo agrícola",
          "_links": {
            "self": {
              "name": "Alquiler de maquinaria y equipo agrícola",
              "href": "https://api.euskadi.eus/procurements/companies/economic-activities/1.851"
            }
          }
        },
        {
          "id": "1.911",
          "name": "Servicios agrícolas y ganaderos",
          "_links": {
            "self": {
              "name": "Servicios agrícolas y ganaderos",
              "href": "https://api.euskadi.eus/procurements/companies/economic-activities/1.911"
            }
          }
        },
        {
          "id": "1.921.1",
          "name": "Servicios de limpieza en calles, vías públicas y jardines",
          "_links": {
            "self": {
              "name": "Servicios de limpieza en calles, vías públicas y jardines",
              "href": "https://api.euskadi.eus/procurements/companies/economic-activities/1.921.1"
            }
          }
        }
      ],
      "certificateStartDate": "2025-09-30",
      "certificateEndDate": "2026-03-29",
      "classification": [
        {
          "id": "S",
          "name": "Servicios",
          "groups": [
            {
              "id": "O",
              "subgroups": [
                {
                  "id": "06",
                  "name": "Conservación y mantenimiento de montes y jardines",
                  "categories": [
                    {
                      "id": "5",
                      "name": "Mas de 1.200.000",
                      "_links": {
                        "self": {
                          "name": "Mas de 1.200.000",
                          "href": "https://api.euskadi.eus/procurements/companies/types/S/categories/5"
                        }
                      }
                    }
                  ],
                  "_links": {
                    "self": {
                      "name": "Conservación y mantenimiento de montes y jardines",
                      "href": "https://api.euskadi.eus/procurements/companies/types/S/groups/O/subgroups/06"
                    }
                  }
                }
              ],
              "_links": {
                "self": {
                  "href": "https://api.euskadi.eus/procurements/companies/types/S/groups/O"
                }
              }
            }
          ],
          "_links": {
            "self": {
              "name": "Servicios",
              "href": "https://api.euskadi.eus/procurements/companies/types/S"
            }
          }
        }
      ],
      "object": "CONSTITUYE EL OBJETO DE LA SOCIEDAD \"VICTOR MANUEL ELVIRA ELVIRA\" LA EJECUCIÓN DE SERVICIOS DE JARDINERÍA, SERVICIOS FORESTALES, MANTENIMIENTO DE VÍAS PÚBLICAS, AGRICULTURA, PRODUCCIÓN DE PLANTAS, CONSTRUCCIÓN EN GENERAL, PROMOCIÓN INMOBILIARIA, EXCAVACIONES, LIMPIEZA, HOSTELERÍA, TRANSPORTE DE MERCANCÍAS, TRANSPORTE DE VIAJEROS, COMERCIO EN GENERAL, EXPORTACIÓN E IMPORTACIÓN DE TODO TIPO DE BIENES MUEBLES, ALQUILER DE VEHÍCULOS, SERVICIOS DE GUARDERÍA, PELUQUERÍA Y ESTÉTICA, ARTES GRÁFICAS, MANTENIMIENTO Y REPARACIÓN DE TODO TIPO DE BIENES MUEBLES, ALQUILER DE MUEBLES E INMUEBLES",
      "mainEntityOfPage": "https://www.contratacion.euskadi.eus/webkpe00-kperoc/es/ac71aBusquedaRegistrosWar/empresa/04986",
      "_links": {
        "self": {
          "name": "JARDINERÍA ILUNTZE TALDEA, S.L.U",
          "href": "https://api.euskadi.eus/procurements/companies/04986"
        }
      }
    },
    {
      "name": "MOTOS DEUSTO SIGLO XXI, S.L.",
      "registrationNumber": "10355",
      "identificationNumber": "B95525390",
      "address": "c/ Jon Arrospide, 14-16",
      "location": {
        "postalCode": "48014",
        "municipality": "Bilbao",
        "county": "Bizkaia",
        "municipalityId": "020",
        "countyId": "48"
      },
      "economicActivities": [
        {
          "id": "1.654.1",
          "name": "Venta al por menor de vehículos terrestres",
          "_links": {
            "self": {
              "name": "Venta al por menor de vehículos terrestres",
              "href": "https://api.euskadi.eus/procurements/companies/economic-activities/1.654.1"
            }
          }
        },
        {
          "id": "1.654.2",
          "name": "Venta al por menor de accesorios, piezas de recambio de vehículos terrestres",
          "_links": {
            "self": {
              "name": "Venta al por menor de accesorios, piezas de recambio de vehículos terrestres",
              "href": "https://api.euskadi.eus/procurements/companies/economic-activities/1.654.2"
            }
          }
        },
        {
          "id": "1.691.2",
          "name": "Reparación de vehículos automóviles, bicicletas y otros vehículos",
          "_links": {
            "self": {
              "name": "Reparación de vehículos automóviles, bicicletas y otros vehículos",
              "href": "https://api.euskadi.eus/procurements/companies/economic-activities/1.691.2"
            }
          }
        }
      ],
      "certificateStartDate": "2025-09-30",
      "certificateEndDate": "2026-03-29",
      "object": "LA COMPRA, VENTA Y ALQUILER DE TODA CLASE DE VEHÍCULOS A MOTOR, ESPECIALMENTE MOTOS, CON O SIN CONDUCTOR, LA IMPORTACIÓN, EXPORTACIÓN, COMPRA, VENTA, ALQUILER, DISTRIBUCIÓN, ALMACENAMIENTO, REPRESENTACIÓN Y CUALQUIER CLASE DE COMERCIO DE VEHÍCULOS A MOTOR Y SUS ACCESORIOS, TANTO DE MARCAS NACIONALES COMO EXTRANJERAS, ASÍ COMO DE FABRICACIÓN  NACIONAL O EXTRANJERA, BAJO EL RÉGIMEN DIRECTO DE COMPRA O MEDIANTE CONTRATOS DE REPRESENTACIÓN , DISTRIBUCIÓN O RÉGIMEN DE CONCESIÓN; LA AGENCIA DE SEGUROS DE AUTOMÓVILES Y EL LAVADO DE TODA CLASE DE VEHÍCULOS. LA REPARACIÓN DE VEHÍCULOS A MOTOR, TALLER MECÁNICO Y DE CHAPA Y PINTURA, MECANIZACIÓN DE PIEZAS, CURVADO DE TUBOS Y LA ASISTENCIA A VEHÍCULOS.",
      "mainEntityOfPage": "https://www.contratacion.euskadi.eus/webkpe00-kperoc/es/ac71aBusquedaRegistrosWar/empresa/10355",
      "_links": {
        "self": {
          "name": "MOTOS DEUSTO SIGLO XXI, S.L.",
          "href": "https://api.euskadi.eus/procurements/companies/10355"
        }
      }
    }
  ]
}