{
  "totalItems": 9042,
  "totalPages": 905,
  "currentPage": 402,
  "itemsOfPage": 10,
  "items": [
    {
      "name": "EDIN MAURICIO RAMON SILVA",
      "registrationNumber": "09431",
      "identificationNumber": "72848248A",
      "address": "Calle La Estación 17, 1IZQ",
      "location": {
        "postalCode": "09200",
        "municipality": "Miranda de Ebro",
        "county": "Burgos",
        "municipalityId": "219",
        "countyId": "09"
      },
      "economicActivities": [
        {
          "id": "1.501.3",
          "name": "Albañilería y pequeños trabajos de construcción en general",
          "_links": {
            "self": {
              "name": "Albañilería y pequeños trabajos de construcción en general",
              "href": "https://api.euskadi.eus/procurements/companies/economic-activities/1.501.3"
            }
          }
        }
      ],
      "certificateStartDate": "2024-08-14",
      "certificateEndDate": "2025-02-09",
      "object": "ALBAÑILERÍA Y PEQUEÑOS TRABAJOS DE CONSTRUCCIÓN EN GENERAL.",
      "mainEntityOfPage": "https://www.contratacion.euskadi.eus/webkpe00-kperoc/es/ac71aBusquedaRegistrosWar/empresa/09431",
      "_links": {
        "self": {
          "name": "EDIN MAURICIO RAMON SILVA",
          "href": "https://api.euskadi.eus/procurements/companies/09431"
        }
      }
    },
    {
      "name": "ANALISIS DE MERCADO Y OPINION, SOCIEDAD MICROCOOPERATIVA",
      "registrationNumber": "07749",
      "identificationNumber": "F71401814",
      "address": "c/ SANCHO EL MAYOR, 5 - 1º IZDA.",
      "location": {
        "postalCode": "31002",
        "municipality": "Pamplona/Iruña",
        "county": "Navarra",
        "municipalityId": "201",
        "countyId": "31"
      },
      "economicActivities": [
        {
          "id": "1.846",
          "name": "Empresas de estudios de mercado",
          "_links": {
            "self": {
              "name": "Empresas de estudios de mercado",
              "href": "https://api.euskadi.eus/procurements/companies/economic-activities/1.846"
            }
          }
        }
      ],
      "certificateStartDate": "2024-08-14",
      "certificateEndDate": "2025-02-09",
      "object": "LA CONTRATACIÓN, REALIZACIÓN Y EJECUCIÓN DE TRABAJOS, ESTUDIOS E INVESTIGACIONES VINCULADOS A LAS CIENCIAS SOCIALES Y DISCIPLINAS ADYACENTES; LA EDICIÓN, ENSEÑANZA Y DIVULGACIÓN DE LAS MISMAS; EL MANTENIMIENTO DE UN SERVICIO PERMANENTE DE INFORMACIÓN Y ASESORAMIENTO A PERSONAS, ENTIDADES O INSTITUCIONES QUE LO SOLICITEN; Y LA EVALUACIÓN, VALORACIÓN Y ASISTENCIA EN ESTUDIOS SOCIALES",
      "mainEntityOfPage": "https://www.contratacion.euskadi.eus/webkpe00-kperoc/es/ac71aBusquedaRegistrosWar/empresa/07749",
      "_links": {
        "self": {
          "name": "ANALISIS DE MERCADO Y OPINION, SOCIEDAD MICROCOOPERATIVA",
          "href": "https://api.euskadi.eus/procurements/companies/07749"
        }
      }
    },
    {
      "name": "ANBIOTEK BIOTECHNOLOGIES S.L.",
      "registrationNumber": "06221",
      "identificationNumber": "B95936670",
      "address": "Polígono Industrial Axpe - Ribera de Axpe, 11 B201",
      "location": {
        "postalCode": "48950",
        "municipality": "Erandio",
        "county": "Bizkaia",
        "municipalityId": "902",
        "countyId": "48"
      },
      "economicActivities": [
        {
          "id": "1.936",
          "name": "Investigación científica y técnica",
          "_links": {
            "self": {
              "name": "Investigación científica y técnica",
              "href": "https://api.euskadi.eus/procurements/companies/economic-activities/1.936"
            }
          }
        }
      ],
      "certificateStartDate": "2024-08-14",
      "certificateEndDate": "2025-02-09",
      "object": "LA PRESTACIÓN DE SERVICIOS DE CONSULTORÍA INTEGRAL, CONCRETADOS EN ASESORAMIENTO, CONSULTORÍA DE GESTIÓN, ORGANIZACIÓN Y FORMACIÓN, TANTO A EMPRESAS COMO A ENTIDADES PÚBLICAS Y PRIVADAS, EN MATERIA DE INVESTIGACIÓN, ANÁLISIS, CONTROL Y GESTIÓN BIOTECNOLÓGICA PRINCIPALMENTE EN EL CAMPO MEDIOAMBIENTAL, ASÍ COMO LA PRESTACIÓN DE OTROS SERVICIOS EN RELACIÓN CON LA BIOTECNOLOGÍA. COMO ACTIVIDAD COMPLEMENTARIA SE INCLUYE EN EL OBJETO DE LA SOCIEDAD, LA IMPORTACIÓN, EXPORTACIÓN, REPRESENTACIÓN Y COMERCIALIZACIÓN DE APARATOS, SOFTWARE, PUBLICACIONES Y OTROS ARTÍCULOS EN RELACIÓN CON LA BIOTECNOLOGÍA",
      "mainEntityOfPage": "https://www.contratacion.euskadi.eus/webkpe00-kperoc/es/ac71aBusquedaRegistrosWar/empresa/06221",
      "_links": {
        "self": {
          "name": "ANBIOTEK BIOTECHNOLOGIES S.L.",
          "href": "https://api.euskadi.eus/procurements/companies/06221"
        }
      }
    },
    {
      "name": "DH PROYECTOS DE INGENIERÍA, S.L.P.",
      "registrationNumber": "07765",
      "identificationNumber": "B26432955",
      "address": "C/ Purita Ugalde 4",
      "location": {
        "postalCode": "26005",
        "municipality": "Logroño",
        "county": "Rioja, La",
        "municipalityId": "089",
        "countyId": "26"
      },
      "certificateStartDate": "2024-08-13",
      "certificateEndDate": "2025-02-13",
      "object": "LA ACTIVIDAD PROPIA DEL EJERCICIO DE LA INGENIERÍA DE CAMINOS, CANALES Y PUERTOS",
      "mainEntityOfPage": "https://www.contratacion.euskadi.eus/webkpe00-kperoc/es/ac71aBusquedaRegistrosWar/empresa/07765",
      "_links": {
        "self": {
          "name": "DH PROYECTOS DE INGENIERÍA, S.L.P.",
          "href": "https://api.euskadi.eus/procurements/companies/07765"
        }
      }
    },
    {
      "name": "JESUS MARIA SIERRA ORTIZ",
      "registrationNumber": "09211",
      "identificationNumber": "30669885Y",
      "address": "SANTA MARIA 2C BAJO LOCAL 4",
      "location": {
        "postalCode": "48190",
        "municipality": "Sopuerta",
        "county": "Bizkaia",
        "municipalityId": "086",
        "countyId": "48"
      },
      "economicActivities": [
        {
          "id": "1.501.3",
          "name": "Albañilería y pequeños trabajos de construcción en general",
          "_links": {
            "self": {
              "name": "Albañilería y pequeños trabajos de construcción en general",
              "href": "https://api.euskadi.eus/procurements/companies/economic-activities/1.501.3"
            }
          }
        }
      ],
      "certificateStartDate": "2024-08-13",
      "certificateEndDate": "2025-02-13",
      "object": "ALBAÑILERÍA Y PEQUEÑOS TRABAJOS DE CONSTRUCCIÓN EN GENERAL.",
      "mainEntityOfPage": "https://www.contratacion.euskadi.eus/webkpe00-kperoc/es/ac71aBusquedaRegistrosWar/empresa/09211",
      "_links": {
        "self": {
          "name": "JESUS MARIA SIERRA ORTIZ",
          "href": "https://api.euskadi.eus/procurements/companies/09211"
        }
      }
    },
    {
      "name": "MARIA SERRANO OLASCOAGA",
      "registrationNumber": "09437",
      "identificationNumber": "44560290K",
      "address": "San Pedro 31, 3 ",
      "location": {
        "postalCode": "20280",
        "municipality": "Hondarribia",
        "county": "Gipuzkoa",
        "municipalityId": "036",
        "countyId": "20"
      },
      "economicActivities": [
        {
          "id": "2.863",
          "name": "Periodistas y otros profesionales de la información y la comunicación",
          "_links": {
            "self": {
              "name": "Periodistas y otros profesionales de la información y la comunicación",
              "href": "https://api.euskadi.eus/procurements/companies/economic-activities/2.863"
            }
          }
        }
      ],
      "certificateStartDate": "2024-08-13",
      "certificateEndDate": "2025-02-11",
      "object": "PERIODISTAS Y OTROS PROFESIONALES DE LA INFORMACIÓN Y LA COMUNICACIÓN.",
      "mainEntityOfPage": "https://www.contratacion.euskadi.eus/webkpe00-kperoc/es/ac71aBusquedaRegistrosWar/empresa/09437",
      "_links": {
        "self": {
          "name": "MARIA SERRANO OLASCOAGA",
          "href": "https://api.euskadi.eus/procurements/companies/09437"
        }
      }
    },
    {
      "name": "AÑANA LAN, S.L.",
      "registrationNumber": "09443",
      "identificationNumber": "B01549716",
      "address": "Calle La Fuente nº15",
      "location": {
        "postalCode": "01423",
        "municipality": "Lantarón",
        "county": "Araba/Álava",
        "municipalityId": "902",
        "countyId": "01"
      },
      "economicActivities": [
        {
          "id": "1.501.1",
          "name": "Construcción completa, reparación y conservación de edificaciones",
          "_links": {
            "self": {
              "name": "Construcción completa, reparación y conservación de edificaciones",
              "href": "https://api.euskadi.eus/procurements/companies/economic-activities/1.501.1"
            }
          }
        }
      ],
      "certificateStartDate": "2024-08-12",
      "certificateEndDate": "2025-02-12",
      "object": "A.-LA CONSTRUCCIÓN Y EDIFICACIÓN DE OBRAS CIVILES, ASÍ COMO TODA CLASE DE INMUEBLES. B.- LA EXPLOTACIÓN DE EDIFICIOS, FINCAS Y CONSTRUCCIONES DE TODA CLASE. C.- LA URBANIZACIÓN DE TERRENOS Y LA PROMOCIÓN INMOBILIARIA, ENTENDIENDO POR TAL LA PRÁCTICA DE CUANTAS GESTIONES ESTÉN ENCAMINADAS A LA VENTA DE INMUEBLES. D.- ASESORAMIENTO TÉCNICO EN MATERIA URBANÍSTICA E INMOBILIARIA. E.- LA REALIZACIÓN DE SERVICIOS DE RECOGIDAS DE BASURAS Y EN GENERAL, DE MANTENIMIENTO Y LIMPIEZA DE INMUEBLES.",
      "mainEntityOfPage": "https://www.contratacion.euskadi.eus/webkpe00-kperoc/es/ac71aBusquedaRegistrosWar/empresa/09443",
      "_links": {
        "self": {
          "name": "AÑANA LAN, S.L.",
          "href": "https://api.euskadi.eus/procurements/companies/09443"
        }
      }
    },
    {
      "name": "IKARO DIGITAL SYSTEMS, S.L.",
      "registrationNumber": "09436",
      "identificationNumber": "B87887360",
      "address": "Avda. de Majadahonda, nº1",
      "location": {
        "postalCode": "28223",
        "municipality": "Pozuelo de Alarcón",
        "county": "Madrid",
        "municipalityId": "115",
        "countyId": "28"
      },
      "economicActivities": [
        {
          "id": "1.619.9",
          "name": "Venta al por mayor de otros productos n.c.o.p",
          "_links": {
            "self": {
              "name": "Venta al por mayor de otros productos n.c.o.p",
              "href": "https://api.euskadi.eus/procurements/companies/economic-activities/1.619.9"
            }
          }
        },
        {
          "id": "1.859",
          "name": "Alquiler de otros bienes muebles n.c.o.p. (sin personal permanente)",
          "_links": {
            "self": {
              "name": "Alquiler de otros bienes muebles n.c.o.p. (sin personal permanente)",
              "href": "https://api.euskadi.eus/procurements/companies/economic-activities/1.859"
            }
          }
        }
      ],
      "certificateStartDate": "2024-08-11",
      "certificateEndDate": "2025-02-11",
      "object": "- LA COMERCIALIZACIÓN, COMPRAVENTA, IMPORTACIÓN/EXPORTACIÓN, ARRENDAMIENTO, MONTAJE, INSTALACIÓN Y MANTENIMIENTO DE EQUIPOS AUDIOVISUALES, PANTALLAS, SOPORTES PUBLICITARIOS Y EQUIPOS ELECTRÓNICOS. - LA EXPLOTACIÓN DE SERVICIOS DE PUBLICIDAD EN CUALQUIER TIPO DE SOPORTE, GRÁFICO O AUDIOVISUAL. - EL DISEÑO DE SOPORTES PUBLICITARIOS DE CUALQUIER TIPO. - LA CREACIÓN Y GESTIÓN DE SUBIDA DE CONTENIDOS PUBLICITARIOS Y DE ANIMACIÓN A CUALQUIER TIPO DE SOPORTE, GRÁFICO O AUDIOVISUAL. - LA CONSULTORÍA DE EMPRESAS. - LA PROMOCIÓN INMOBILIARIA. - LA GESTIÓN, ASESORAMIENTO, INTERMEDIACIÓN Y DESARROLLO DE TODO TIPO DE OPERACIONES INMOBILIARIAS Y URBANÍSTICAS, BIEN POR SÍ O POR CUENTA DE TERCEROS. - LA ADQUISICIÓN, ENAJENACIÓN, TENENCIA, ADMINISTRACIÓN, CESIÓN, ARRENDAMIENTO, PARCELACIÓN, URBANIZACIÓN, EDIFICACIÓN, CONSTRUCCIÓN Y EXPLOTACIÓN DE TODA CLASE DE BIENES INMUEBLES Y OBRAS, PÚBLICAS O PRIVADAS, DE LA NATURALEZA QUE FUEREN, BIEN POR SÍ O POR CUENTA DE TERCERO. - LA COMPRA, TENENCIA, ADMINISTRACIÓN, PERMUTA Y VENTA DE TODA CLASE DE VALORES MOBILIARIOS, TANTO PÚBLICOS COMO PRIVADOS, NACIONALES Y EXTRANJEROS. TODO ELLO SIN INCIDIR EN OPERACIONES REGULADAS POR LA LEGISLACIÓN ESPECIAL DEL MERCADO DE VALORES Y DE INSTITUCIONES DE INVERSIÓN COLECTIVA.",
      "mainEntityOfPage": "https://www.contratacion.euskadi.eus/webkpe00-kperoc/es/ac71aBusquedaRegistrosWar/empresa/09436",
      "_links": {
        "self": {
          "name": "IKARO DIGITAL SYSTEMS, S.L.",
          "href": "https://api.euskadi.eus/procurements/companies/09436"
        }
      }
    },
    {
      "name": "POR QUE NO INNOVAR DISEÑAR CRECER SL",
      "registrationNumber": "09227",
      "identificationNumber": "B99497208",
      "address": "C/ Alfonso Solans 41",
      "location": {
        "postalCode": "50014",
        "municipality": "Zaragoza",
        "county": "Zaragoza",
        "municipalityId": "297",
        "countyId": "50"
      },
      "economicActivities": [
        {
          "id": "1.842",
          "name": "Servicios financieros y contables",
          "_links": {
            "self": {
              "name": "Servicios financieros y contables",
              "href": "https://api.euskadi.eus/procurements/companies/economic-activities/1.842"
            }
          }
        },
        {
          "id": "1.934",
          "name": "Enseñanza fuera de establecimiento permanente",
          "_links": {
            "self": {
              "name": "Enseñanza fuera de establecimiento permanente",
              "href": "https://api.euskadi.eus/procurements/companies/economic-activities/1.934"
            }
          }
        }
      ],
      "certificateStartDate": "2024-08-11",
      "certificateEndDate": "2025-02-11",
      "object": "EL DESARROLLO DE LAS ACTIVIDADES CORRESPONDIENTES A LOS SIGUIENTES CÓDIGOS Y DESCRIPCIONES DE CLASIFICACIÓN NACIONAL DE ACTIVIDADES ECONÓMICAS: 7022 OTRAS ACTIVIDADES DE CONSULTORÍA DE GESTIÓN EMPRESARIAL; 8560 ACTIVIDADES AUXILIARES A LA EDUCACIÓN; 8559 OTRA EDUCACIÓN N.C.O.P.",
      "mainEntityOfPage": "https://www.contratacion.euskadi.eus/webkpe00-kperoc/es/ac71aBusquedaRegistrosWar/empresa/09227",
      "_links": {
        "self": {
          "name": "POR QUE NO INNOVAR DISEÑAR CRECER SL",
          "href": "https://api.euskadi.eus/procurements/companies/09227"
        }
      }
    },
    {
      "name": "INDUSTRIAS METÁLICAS DE GUIPUZCOA, S.A.",
      "registrationNumber": "07950",
      "identificationNumber": "A20019527",
      "address": "C/ ZUMARRALDE 10,12",
      "location": {
        "postalCode": "20216",
        "municipality": "Ormaiztegi",
        "county": "Gipuzkoa",
        "municipalityId": "062",
        "countyId": "20"
      },
      "economicActivities": [
        {
          "id": "1.316.6",
          "name": "Fabricación de mobiliario metálico",
          "_links": {
            "self": {
              "name": "Fabricación de mobiliario metálico",
              "href": "https://api.euskadi.eus/procurements/companies/economic-activities/1.316.6"
            }
          }
        }
      ],
      "certificateStartDate": "2024-08-11",
      "certificateEndDate": "2025-02-11",
      "object": "LA FABRICACIÓN, COMPRA Y VENTA, DE DIVERSOS MATERIALES, TALES COMO TIRAFONDOS, TORNILLOS, CLAVOS, TUERCAS, ARANDELAS , REMACHES, ETC., ASÍ COMO MUEBLES, RESORTES, Y TODO CUANTO TENGA RELACIÓN CON LA INDUSTRIA SIDEROMETALURGICA EN CUANTO A MATERIALES AUXILIARES.",
      "mainEntityOfPage": "https://www.contratacion.euskadi.eus/webkpe00-kperoc/es/ac71aBusquedaRegistrosWar/empresa/07950",
      "_links": {
        "self": {
          "name": "INDUSTRIAS METÁLICAS DE GUIPUZCOA, S.A.",
          "href": "https://api.euskadi.eus/procurements/companies/07950"
        }
      }
    }
  ]
}