{
  "totalItems": 9042,
  "totalPages": 905,
  "currentPage": 678,
  "itemsOfPage": 10,
  "items": [
    {
      "name": "CAMBIO DE IMAGEN, S.L.",
      "registrationNumber": "04386",
      "identificationNumber": "B95174710",
      "address": "LUTXANA 4, 6º",
      "location": {
        "postalCode": "48008",
        "municipality": "Bilbao",
        "county": "Bizkaia",
        "municipalityId": "020",
        "countyId": "48"
      },
      "economicActivities": [
        {
          "id": "1.849.9",
          "name": "Otros servicios independientes n.c.o.p",
          "_links": {
            "self": {
              "name": "Otros servicios independientes n.c.o.p",
              "href": "https://api.euskadi.eus/procurements/companies/economic-activities/1.849.9"
            }
          }
        },
        {
          "id": "1.964.2",
          "name": "Servicios de televisión",
          "_links": {
            "self": {
              "name": "Servicios de televisión",
              "href": "https://api.euskadi.eus/procurements/companies/economic-activities/1.964.2"
            }
          }
        }
      ],
      "certificateStartDate": "2013-10-15",
      "certificateEndDate": "2014-04-08",
      "object": "- LA ELABORACIÓN Y GESTIÓN DE INFORMACIÓN, SERVICIOS DE COMUNICACIÓN E IMAGEN, ESTUDIOS SOCIOLÓGICOS Y DE MERCADO, CREACIÓN ARTÍSTICA Y PUBLICIDAD, TANTO PARA SU EMISIÓN ELECTRÓNICA POR INTERNET COMO PARA SU DISTRIBUCIÓN FÍSICA EN PUBLICACIONES, CAMPAÑAS O SOPORTES VIDEOGRÁFICOS; EL COMERCIO ELECTRÓNICO DE INFORMACIÓN, SERVICIOS DE COMUNICACIÓN E IMAGEN, PUBLICIDAD Y OTROS SERVICIOS Y PRODUCTOS A TRAVÉS DE INTERNET; LA CREACIÓN, COMERCIALIZACIÓN Y GESTIÓN DE SERVICIOS GENERALES Y EN GENERAL LA PRESTACIÓN DE TODO TIPO DE SERVICIOS. \r\n- LA COORDINACIÓN, REDACCIÓN Y GESTIÓN DE PROYECTOS PARA LA CONSTRUCCIÓN DE INSTALACIONES SUBMARINAS DESTINADAS AL BUCEO RECREATIVO Y A LA GENERACIÓN DE BIOMASA EN BASE AL HUDIMINETO CONTROLADO DE BARCOS U OTRAS ESTRUCTURAS SUSCEPTIBLES DE DEVENIR EN ARRECIFES ARTIFICIALES. \r\n- LA GESTIÓN DE SU CONSERVACIÓN, REPARACIÓN Y MANTENIMIENTO, ASÍ COMO LA EXPLOTACIÓN DE DICHAS INSTALACIONES SUBMARINAS ",
      "mainEntityOfPage": "https://www.contratacion.euskadi.eus/webkpe00-kperoc/es/ac71aBusquedaRegistrosWar/empresa/04386",
      "_links": {
        "self": {
          "name": "CAMBIO DE IMAGEN, S.L.",
          "href": "https://api.euskadi.eus/procurements/companies/04386"
        }
      }
    },
    {
      "name": "B.Z.Z. MOBILIARIO, S.L.",
      "registrationNumber": "02871",
      "identificationNumber": "B20557880",
      "address": "AVDA. DONOSTI, 102. POL. INDUSTRIAL 26",
      "location": {
        "postalCode": "20115",
        "municipality": "Astigarraga",
        "county": "Gipuzkoa",
        "municipalityId": "903",
        "countyId": "20"
      },
      "economicActivities": [
        {
          "id": "1.659.2",
          "name": "Venta al por menor de muebles de oficina y máquinas y equipos de oficina",
          "_links": {
            "self": {
              "name": "Venta al por menor de muebles de oficina y máquinas y equipos de oficina",
              "href": "https://api.euskadi.eus/procurements/companies/economic-activities/1.659.2"
            }
          }
        }
      ],
      "certificateStartDate": "2013-10-08",
      "certificateEndDate": "2014-04-08",
      "object": "LA COMERCIALIZACIÓN, COMPRA, VENTA, TANTO AL POR  MAYOR, COMO AL POR MENOR, FABRICACIÓN, INSTALACIÓN, IMPORTACIÓN, EXPORTACIÓN, SUMINISTRO, REPARACIÓN, ATENCIÓN POSTVENTA, DE TODO TIPO DE MOBILIARIO, COMPLEMENTOS DE MOBILIARIO Y ELEMENTOS DE COMPARTIMENTACIONES Y COLECTIVIDADES.\r\n\r\nCONSTRUCCIÓN, EDIFICACIÓN Y EJECUCIÓN DE TODA CLASE DE OBRAS CIVILES, TANTO PÚBLICAS COMO PRIVADAS, BIEN COMO CONTRATISTA GENERAL, BIEN COMO CADA UNO DE LOS GREMIOS QUE INTERVIENEN EN LA CONSTRUCCIÓN.\r\n\r\nPODRÁ CONTRATAR LAS MISMAS CON TODA CLASE DE PERSONAS FÍSICAS, JURÍDICAS O ENTIDADES PÚBLICAS DE CARÁCTER ESTATAL, PROVINCIAL, MUNICIPAL O AUTONÓMICO.\r\n\r\nPODRÁ INTERVENIR EN TODA CLASE DE CONCURSOS, SUBASTAS Y LICITACIONES, REALIZANDO PROPOSICIONES Y PUJAS Y EJERCITANDO LOS DERECHOS DE TANTEO Y RECTRACTO, CONCURSAR, ASÍ COMO ACUDIR A SUBASTAS Y LICITACIONES, RESPECTO A CUALQUIER PERSONA FÍSICA, JURÍDICA O PÚBLICA, INCLUSO DEL ESTADO, COMUNIDADES AUTONÓMAS, LA PROVINCIA Y EL MUNICIPIO, ORGANISMOS AUTÓNOMOS DE LA ADMINISTRACIÓN DEL ESTADO Y DE LAS COMUNIDADES AUTÓNOMAS, ASÍ COMO EN TODO AQUELLO QUE DIRECTA O INDIRECTAMENTE, GUARDE RELACIÓN CON LO INDICADO.\r\nLA SOCIEDAD PODRÁ REALIZAR LAS OPERACIONES MENCIONADAS EN EL OBJETO SOCIAL, DIRECTAMENTE O SUBCONTRATANDO LAS OPERACIONES CON CUALQUIER OTRA PERSONA FÍSICA O JURÍDICA.",
      "mainEntityOfPage": "https://www.contratacion.euskadi.eus/webkpe00-kperoc/es/ac71aBusquedaRegistrosWar/empresa/02871",
      "_links": {
        "self": {
          "name": "B.Z.Z. MOBILIARIO, S.L.",
          "href": "https://api.euskadi.eus/procurements/companies/02871"
        }
      }
    },
    {
      "name": "ARLAN JASOGAILUAK, S.L.",
      "registrationNumber": "03221",
      "identificationNumber": "B95130191",
      "address": "SANGRONIZ BIDEA, 2",
      "location": {
        "postalCode": "48150",
        "municipality": "Sondika",
        "county": "Bizkaia",
        "municipalityId": "904",
        "countyId": "48"
      },
      "economicActivities": [
        {
          "id": "1.504.6",
          "name": "Montaje e instalación de aparatos elevadores de cualquier clase",
          "_links": {
            "self": {
              "name": "Montaje e instalación de aparatos elevadores de cualquier clase",
              "href": "https://api.euskadi.eus/procurements/companies/economic-activities/1.504.6"
            }
          }
        },
        {
          "id": "1.617.5",
          "name": "Venta al por mayor de maquinaria para la madera y el metal",
          "_links": {
            "self": {
              "name": "Venta al por mayor de maquinaria para la madera y el metal",
              "href": "https://api.euskadi.eus/procurements/companies/economic-activities/1.617.5"
            }
          }
        },
        {
          "id": "1.843.1",
          "name": "Servicios técnicos de ingeniería",
          "_links": {
            "self": {
              "name": "Servicios técnicos de ingeniería",
              "href": "https://api.euskadi.eus/procurements/companies/economic-activities/1.843.1"
            }
          }
        },
        {
          "id": "1.852",
          "name": "Alquiler de maquinaria y equipo para la construcción",
          "_links": {
            "self": {
              "name": "Alquiler de maquinaria y equipo para la construcción",
              "href": "https://api.euskadi.eus/procurements/companies/economic-activities/1.852"
            }
          }
        }
      ],
      "certificateStartDate": "2013-10-03",
      "certificateEndDate": "2014-04-03",
      "object": "A) LA REALIZACIÓN DE TODO TIPO DE SERVICIOS DE MONTAJE Y DESMONTAJE, ASISTENCIA TÉCNICA PARA LA REPARACIÓN DE AVERÍAS DE MAQUINARIA DE CONSTRUCCIÓN Y UTILLAJE, ASÍ COMO SU MANTENIMIENTO.\r\nB) LA COMMPRA Y VENTA DE TODO TIPO DE MAQUINARIA Y MEDIOS AUXILIARES PARA LA CONSTRUCCIÓN.\r\nC) LA ADQUISICIÓN, TRANSFORMACIÓN Y VENTA DE BIENES DE EQUIPO CON DESTINO INDUSTRIAL Y SERVICIOS.\r\nD) LA CONSTRUCCIÓN, ADQUISICIÓN Y VENTA DE MAQUINARIA DE ELEVACIÓN Y MANIPULACIÓN.\r\nE) EL ALQUILER DE TODOS LOS ELEMENOS MENCIONADOS A LAS LETRAS ANTERIORES ASÍ COMO DE LOS MEDIOS AUXILIARES DE LA CONSTRUCCIÓN Y SERVICIOS EN GENERAL.\r\nF) LA IMPORTACIÓN Y DISTRIBUCIÓN EN EL MERCADO NACIONAL, ASÍ COMO LA EXPORTACIÓN DE MÁQUINAS Y ÚTILES PARA LA INDUSTRIA, LA CONSTRUCCIÓN Y SECTOR SERVICIOS EN GENERAL, CON LA INTENCIÓN DE ESTABLECER EXCLUSIVAS DE DISTRIBUCIÓN DE LOS PRODUCTOS IMPORTADOS Y EXPORTADOS.\r\nG) LA REALIZACIÓN Y ESTUDIO DE PROYECTOS PARA EL MONTAJE Y DESMONTAJE DE MAQUINARIA AL SERVICIO DE LA INDUSTRIA, LA CONSTRUCCIÓN Y EL SECTOR SERVICIOS, EN GENERAL\r\n ",
      "mainEntityOfPage": "https://www.contratacion.euskadi.eus/webkpe00-kperoc/es/ac71aBusquedaRegistrosWar/empresa/03221",
      "_links": {
        "self": {
          "name": "ARLAN JASOGAILUAK, S.L.",
          "href": "https://api.euskadi.eus/procurements/companies/03221"
        }
      }
    },
    {
      "name": "INCAFRI, S.A.",
      "registrationNumber": "01560",
      "identificationNumber": "A01015635",
      "address": "C/ GUATEMALA, Nº 8 - BAJO",
      "location": {
        "postalCode": "01012",
        "municipality": "Vitoria-Gasteiz",
        "county": "Araba/Álava",
        "municipalityId": "059",
        "countyId": "01"
      },
      "economicActivities": [
        {
          "id": "1.504.1",
          "name": "Instalaciones eléctricas en general",
          "_links": {
            "self": {
              "name": "Instalaciones eléctricas en general",
              "href": "https://api.euskadi.eus/procurements/companies/economic-activities/1.504.1"
            }
          }
        },
        {
          "id": "1.504.3",
          "name": "Instalaciones de frío, calor y acondicionamiento de aire",
          "_links": {
            "self": {
              "name": "Instalaciones de frío, calor y acondicionamiento de aire",
              "href": "https://api.euskadi.eus/procurements/companies/economic-activities/1.504.3"
            }
          }
        },
        {
          "id": "1.843.1",
          "name": "Servicios técnicos de ingeniería",
          "_links": {
            "self": {
              "name": "Servicios técnicos de ingeniería",
              "href": "https://api.euskadi.eus/procurements/companies/economic-activities/1.843.1"
            }
          }
        }
      ],
      "certificateStartDate": "2013-09-26",
      "certificateEndDate": "2014-03-24",
      "object": "MONTAJES DE CALEFACCION, AIRE ACONDICIONADO, VENTILACION, INSTALACIONES DE AGUA, VAPOR, AGUA SOBRECALENTADA, AIRE COMPRIMIDO, VACIO GAS, SANITARIAS Y TODO TIPO DE INSTALACIONES INDUSTRIALES",
      "mainEntityOfPage": "https://www.contratacion.euskadi.eus/webkpe00-kperoc/es/ac71aBusquedaRegistrosWar/empresa/01560",
      "_links": {
        "self": {
          "name": "INCAFRI, S.A.",
          "href": "https://api.euskadi.eus/procurements/companies/01560"
        }
      }
    },
    {
      "name": "ARISTOS 94, S.L.",
      "registrationNumber": "04937",
      "identificationNumber": "B48667844",
      "address": "C/ Bizkargi, 6",
      "location": {
        "postalCode": "48195",
        "municipality": "Larrabetzu",
        "county": "Bizkaia",
        "municipalityId": "052",
        "countyId": "48"
      },
      "economicActivities": [
        {
          "id": "1.659.2",
          "name": "Venta al por menor de muebles de oficina y máquinas y equipos de oficina",
          "_links": {
            "self": {
              "name": "Venta al por menor de muebles de oficina y máquinas y equipos de oficina",
              "href": "https://api.euskadi.eus/procurements/companies/economic-activities/1.659.2"
            }
          }
        },
        {
          "id": "1.845",
          "name": "Explotación electrónica por cuenta de terceros",
          "_links": {
            "self": {
              "name": "Explotación electrónica por cuenta de terceros",
              "href": "https://api.euskadi.eus/procurements/companies/economic-activities/1.845"
            }
          }
        }
      ],
      "certificateStartDate": "2013-09-24",
      "certificateEndDate": "2014-03-19",
      "object": "LA INGENIERÍA Y DESARROLLO DE LA INFORMÁTICA; LA PRESTACIÓN DE SERVICIOS DE ORGANIZACIÓN DE EMPRESAS; LA EJECUCIÓN Y DESARROLLO DE PROGRAMAS DE INFORMÁTICA Y SISTEMAS; LA REALIZACIÓN DE ESTUDIOS, PROYECTOS Y PROGRAMAS; LA COMPRA Y VENTA DE PRODUCTOS Y SERVICIOS EN EL ÁREA INFORMÁTICA, LA INSTALACIÓN Y MANTENIMIENTO DE SISTEMAS ELECTRÓNICOS Y DE COMUNICACIONES",
      "mainEntityOfPage": "https://www.contratacion.euskadi.eus/webkpe00-kperoc/es/ac71aBusquedaRegistrosWar/empresa/04937",
      "_links": {
        "self": {
          "name": "ARISTOS 94, S.L.",
          "href": "https://api.euskadi.eus/procurements/companies/04937"
        }
      }
    },
    {
      "name": "MANUEL ORTIZ",
      "registrationNumber": "05057",
      "identificationNumber": "11917111Y",
      "address": "AV CARLOS VII, 3, 5C",
      "location": {
        "postalCode": "48920",
        "municipality": "Portugalete",
        "county": "Bizkaia",
        "municipalityId": "078",
        "countyId": "48"
      },
      "economicActivities": [
        {
          "id": "1.843.1",
          "name": "Servicios técnicos de ingeniería",
          "_links": {
            "self": {
              "name": "Servicios técnicos de ingeniería",
              "href": "https://api.euskadi.eus/procurements/companies/economic-activities/1.843.1"
            }
          }
        }
      ],
      "certificateStartDate": "2013-09-24",
      "certificateEndDate": "2014-02-28",
      "object": "SERVICIOS TÉCNICOS DE INGENIERÍA. FORMACIÓN Y CONSULTORIA",
      "mainEntityOfPage": "https://www.contratacion.euskadi.eus/webkpe00-kperoc/es/ac71aBusquedaRegistrosWar/empresa/05057",
      "_links": {
        "self": {
          "name": "MANUEL ORTIZ",
          "href": "https://api.euskadi.eus/procurements/companies/05057"
        }
      }
    },
    {
      "name": "LANBIDE EMPRESA CONSTRUCTORA, S.A.",
      "registrationNumber": "00034",
      "identificationNumber": "A01007541",
      "address": "C/ AVENIDA DE LOS OLMOS, Nº 4.",
      "location": {
        "postalCode": "01013",
        "municipality": "Vitoria-Gasteiz",
        "county": "Araba/Álava",
        "municipalityId": "059",
        "countyId": "01"
      },
      "economicActivities": [
        {
          "id": "1.507",
          "name": "Construcción, reparación y conservación de toda clase obras",
          "_links": {
            "self": {
              "name": "Construcción, reparación y conservación de toda clase obras",
              "href": "https://api.euskadi.eus/procurements/companies/economic-activities/1.507"
            }
          }
        },
        {
          "id": "1.722",
          "name": "Transporte de mercancías por carretera",
          "_links": {
            "self": {
              "name": "Transporte de mercancías por carretera",
              "href": "https://api.euskadi.eus/procurements/companies/economic-activities/1.722"
            }
          }
        },
        {
          "id": "1.833.2",
          "name": "Promoción de edificaciones",
          "_links": {
            "self": {
              "name": "Promoción de edificaciones",
              "href": "https://api.euskadi.eus/procurements/companies/economic-activities/1.833.2"
            }
          }
        }
      ],
      "certificateStartDate": "2013-09-23",
      "certificateEndDate": "2014-03-12",
      "object": "LA CONSTRUCCIÓN DE OBRAS PÚBLICAS EN GENERAL Y EN PARTICULAR, MOVIMIENTOS DE TIERRAS, CIMENTACIONES, AFIRMADOS, RIEGOS ASFÁLTICOS, FABRICACIÓN Y EMPLEO DE AGLOMERADOS, SANEAMIENTO, CONDUCCIONES DE AGUA, CANALIZACIONES EN GENERAL Y EN ESPECIAL CANALIZACIONES DE GAS, ESTRUCTURAS DE HORMIGÓN ARMADO Y METÁLICAS, FABRICACIÓN DE MATERIALES PARA LA CONSTRUCCIÓN Y PROMOCIÓN DE VIVIENDAS, PABELLONES INDUSTRIALES Y CUALESQUIERA OTRAS OBRAS DE CARÁCTER PÚBLICO Y PRIVADO Y EL TRANSPORTE PÚBLICO EN GENERAL.",
      "mainEntityOfPage": "https://www.contratacion.euskadi.eus/webkpe00-kperoc/es/ac71aBusquedaRegistrosWar/empresa/00034",
      "_links": {
        "self": {
          "name": "LANBIDE EMPRESA CONSTRUCTORA, S.A.",
          "href": "https://api.euskadi.eus/procurements/companies/00034"
        }
      }
    },
    {
      "name": "ENARA JARDINERÍA, S.L.",
      "registrationNumber": "02579",
      "identificationNumber": "B95086500",
      "address": "JUAN PEREZ DE ARANA, Nº 2",
      "location": {
        "postalCode": "48920",
        "municipality": "Portugalete",
        "county": "Bizkaia",
        "municipalityId": "078",
        "countyId": "48"
      },
      "economicActivities": [
        {
          "id": "1.911",
          "name": "Servicios agrícolas y ganaderos",
          "_links": {
            "self": {
              "name": "Servicios agrícolas y ganaderos",
              "href": "https://api.euskadi.eus/procurements/companies/economic-activities/1.911"
            }
          }
        }
      ],
      "certificateStartDate": "2013-09-23",
      "certificateEndDate": "2013-12-14",
      "object": "a) TODAS LAS ACTIVIDADES QUE SE ENGLOBAN DENTRO DE LA JARDINERÍA, COMO SON PLANTACIÓN DE ÁRBOLES, ARBUSTOS Y FLOR DE TEMPORADA, PODAS, RIEGOS, SEGADO Y, SIEMBRA DE CÉSPEDES, DESBROCE DE MONTES, COLOCACIÓN DE T.P DE CÉSPED. b) MATENIMIENTO DE JARDINES DE COMUNIDADES, LIMPIEZA DE COMUNIDADES, CIERRE DE FINCAS, TRATAMIENTO DE FILTROS SANITARIOS Y TRATAMIENTOS HERBICIDAS, INSTALACIONES DE RIEGOS AUTOMÁTICOS, MANTENIMIENTO DE PISCINAS, TANTO PÚBLICAS COMO PARTICULARES. c) COMPRA Y VENTA Y COMERCIALIZACIÓN DE MATERIALES, PRODUCTOS Y HERRAMIENTAS DE JARDINERÍA",
      "mainEntityOfPage": "https://www.contratacion.euskadi.eus/webkpe00-kperoc/es/ac71aBusquedaRegistrosWar/empresa/02579",
      "_links": {
        "self": {
          "name": "ENARA JARDINERÍA, S.L.",
          "href": "https://api.euskadi.eus/procurements/companies/02579"
        }
      }
    },
    {
      "name": "MIKEL CUADRA SOBRÓN",
      "registrationNumber": "03059",
      "identificationNumber": "30643372N",
      "address": "C/ LOMBO, 2-5º A",
      "location": {
        "postalCode": "48480",
        "municipality": "Arrigorriaga",
        "county": "Bizkaia",
        "municipalityId": "011",
        "countyId": "48"
      },
      "economicActivities": [
        {
          "id": "1.721.2",
          "name": "Transporte por autotaxis",
          "_links": {
            "self": {
              "name": "Transporte por autotaxis",
              "href": "https://api.euskadi.eus/procurements/companies/economic-activities/1.721.2"
            }
          }
        }
      ],
      "certificateStartDate": "2013-09-20",
      "certificateEndDate": "2014-03-19",
      "object": "TRANSPORTE DE VIAJEROS EN AUTOTAXI",
      "mainEntityOfPage": "https://www.contratacion.euskadi.eus/webkpe00-kperoc/es/ac71aBusquedaRegistrosWar/empresa/03059",
      "_links": {
        "self": {
          "name": "MIKEL CUADRA SOBRÓN",
          "href": "https://api.euskadi.eus/procurements/companies/03059"
        }
      }
    },
    {
      "name": "AUTOBERRI, S.L.",
      "registrationNumber": "03118",
      "identificationNumber": "B20793956",
      "address": "BARRIO SAN ANDRÉS, 8",
      "location": {
        "postalCode": "20500",
        "municipality": "Arrasate / Mondragón",
        "county": "Gipuzkoa",
        "municipalityId": "055",
        "countyId": "20"
      },
      "economicActivities": [
        {
          "id": "1.615.1",
          "name": "Venta al por mayor de vehículos, motocicletas, bicicletas y sus accesorios",
          "_links": {
            "self": {
              "name": "Venta al por mayor de vehículos, motocicletas, bicicletas y sus accesorios",
              "href": "https://api.euskadi.eus/procurements/companies/economic-activities/1.615.1"
            }
          }
        },
        {
          "id": "1.654.1",
          "name": "Venta al por menor de vehículos terrestres",
          "_links": {
            "self": {
              "name": "Venta al por menor de vehículos terrestres",
              "href": "https://api.euskadi.eus/procurements/companies/economic-activities/1.654.1"
            }
          }
        },
        {
          "id": "1.691.2",
          "name": "Reparación de vehículos automóviles, bicicletas y otros vehículos",
          "_links": {
            "self": {
              "name": "Reparación de vehículos automóviles, bicicletas y otros vehículos",
              "href": "https://api.euskadi.eus/procurements/companies/economic-activities/1.691.2"
            }
          }
        },
        {
          "id": "1.722",
          "name": "Transporte de mercancías por carretera",
          "_links": {
            "self": {
              "name": "Transporte de mercancías por carretera",
              "href": "https://api.euskadi.eus/procurements/companies/economic-activities/1.722"
            }
          }
        },
        {
          "id": "1.854",
          "name": "Alquiler de automóviles sin conductor",
          "_links": {
            "self": {
              "name": "Alquiler de automóviles sin conductor",
              "href": "https://api.euskadi.eus/procurements/companies/economic-activities/1.854"
            }
          }
        }
      ],
      "certificateStartDate": "2013-09-12",
      "certificateEndDate": "2014-02-19",
      "object": "A) VENTA Y REPARACIÓN DE VEHÍCULOS A MOTOR, TANTO EN LO REFERENTE A LA REPARACIÓN DE MOTORES Y MECÁNICA EN GENERAL, COMO EN LO REFERENTE A LA REPARACIÓN Y CONSTRUCCIÓN DE CARROCERÍAS; RECAMBIO DE PIEZAS Y ALMACÉN DE REPUESTOS; Y ALQUILER, TRANSPORTE Y ASISTENCIA EN CARRETERA DE VEHÍCULOS; B) COMPRAVENTA, ARRENDAMIENTO Y EXPLOTACIÓN DE SOLARES Y TERRENOS DE TODAS CLASES, EDIFICIOS, INMUEBLES EN GENERAL, PARA ENAJENAR POR BLOQUES COMPLETOS O POR PISOS Y LOCALES; CONSTRUCCIÓN DE TODA CLASE DE EDIFICIOS U OBRAS, YA SEAN PARA LA PROPIA SOCIEDAD O POR ENCARGO O CONTRATO CON TERCERAS PERSONAS; Y EXPLOTACIÓN DE FORMA DIRECTA O INDIRECTA DE LOS LOCALES EXPRESADOS ANTERIORMENTE, INCLUSO TOMANDO O DANDO EN ARRIENDO O EN CUALQUIER OTRA FORMA",
      "mainEntityOfPage": "https://www.contratacion.euskadi.eus/webkpe00-kperoc/es/ac71aBusquedaRegistrosWar/empresa/03118",
      "_links": {
        "self": {
          "name": "AUTOBERRI, S.L.",
          "href": "https://api.euskadi.eus/procurements/companies/03118"
        }
      }
    }
  ]
}