{
  "totalItems": 9042,
  "totalPages": 905,
  "currentPage": 558,
  "itemsOfPage": 10,
  "items": [
    {
      "name": "VIARIUM INGENIERÍA, S.L.",
      "registrationNumber": "07292",
      "identificationNumber": "B05225131",
      "address": "C/ POLLENSA, 6 BAJO B - EDIF. ECU II",
      "location": {
        "postalCode": "28290",
        "municipality": "Rozas de Madrid, Las",
        "county": "Madrid",
        "municipalityId": "127",
        "countyId": "28"
      },
      "economicActivities": [
        {
          "id": "1.843.1",
          "name": "Servicios técnicos de ingeniería",
          "_links": {
            "self": {
              "name": "Servicios técnicos de ingeniería",
              "href": "https://api.euskadi.eus/procurements/companies/economic-activities/1.843.1"
            }
          }
        }
      ],
      "certificateStartDate": "2020-10-13",
      "certificateEndDate": "2021-04-02",
      "object": "1. CONSULTORÍA Y ASESORÍA DE INGENIERÍA DE OBRA CIVIL, EDIFICACIÓN Y OTRAS RAMAS DE LA INGENIERÍA COMO RENOVABLES, MEDIOAMBIENTALES, INDUSTRIAL Y AERONÁUTICA. 2. REDACCIÓN DE ESTUDIOS TÉCNICOS Y DE LICITACIONES DE OBRAS. 3. REDACCIÓN DE PROYECTOS Y ESTUDIOS DE OBRA CIVIL, EDIFICACIÓN Y OTRAS RAMAS DE LA INGENIERÍA COMO RENOVABLES, MEDIOAMBIENTAL, INDUSTRIAL Y AERONÁUTICA. 4. ASISTENCIA TÉCNICA A DIRECCIONES FACULTATIVAS, GESTIÓN TÉCNICA Y ECONÓMICA DE OBRAS E INFRAESTRUCTURAS. 5. LA CONSTRUCCIÓN DE OBRA CIVIL Y EL DISEÑO, CONSTRUCCIÓN Y MANTENIMIENTO DE INFRAESTRUCTURAS",
      "mainEntityOfPage": "https://www.contratacion.euskadi.eus/webkpe00-kperoc/es/ac71aBusquedaRegistrosWar/empresa/07292",
      "_links": {
        "self": {
          "name": "VIARIUM INGENIERÍA, S.L.",
          "href": "https://api.euskadi.eus/procurements/companies/07292"
        }
      }
    },
    {
      "name": "ORAIN21 S.C",
      "registrationNumber": "06216",
      "identificationNumber": "J01507417",
      "address": "AVENIDA MEDITERRANEO 15, BAJO",
      "location": {
        "postalCode": "01015",
        "municipality": "Vitoria-Gasteiz",
        "county": "Araba/Álava",
        "municipalityId": "059",
        "countyId": "01"
      },
      "economicActivities": [
        {
          "id": "1.476.2",
          "name": "Edición de periódicos y revistas",
          "_links": {
            "self": {
              "name": "Edición de periódicos y revistas",
              "href": "https://api.euskadi.eus/procurements/companies/economic-activities/1.476.2"
            }
          }
        },
        {
          "id": "1.843.9",
          "name": "Otros servicios técnicos n.c.o.p",
          "_links": {
            "self": {
              "name": "Otros servicios técnicos n.c.o.p",
              "href": "https://api.euskadi.eus/procurements/companies/economic-activities/1.843.9"
            }
          }
        },
        {
          "id": "1.844",
          "name": "Servicios de publicidad, relaciones públicas y similares",
          "_links": {
            "self": {
              "name": "Servicios de publicidad, relaciones públicas y similares",
              "href": "https://api.euskadi.eus/procurements/companies/economic-activities/1.844"
            }
          }
        },
        {
          "id": "1.933.9",
          "name": "Otras actividades de enseñanza tales como idiomas, mecanografía",
          "_links": {
            "self": {
              "name": "Otras actividades de enseñanza tales como idiomas, mecanografía",
              "href": "https://api.euskadi.eus/procurements/companies/economic-activities/1.933.9"
            }
          }
        }
      ],
      "certificateStartDate": "2020-10-09",
      "certificateEndDate": "2021-03-29",
      "object": "- SERVICIOS DE ASISTENCIA TÉCNICA EN MATERIA DE DESARROLLO SOSTENIBLE Y AGENDA LOCAL 21. - SERVICIOS DE COORDINACIÓN DE AGENDA 21 ESCOLAR. - DISEÑO Y MAQUETACIÓN DE CAMPAÑAS CREATIVAS Y DE SENSIBILIZACIÓN. - SERVICIOS DE CONSULTORÍA MEDIOAMBIENTAL",
      "mainEntityOfPage": "https://www.contratacion.euskadi.eus/webkpe00-kperoc/es/ac71aBusquedaRegistrosWar/empresa/06216",
      "_links": {
        "self": {
          "name": "ORAIN21 S.C",
          "href": "https://api.euskadi.eus/procurements/companies/06216"
        }
      }
    },
    {
      "name": "ANTIS OBRA CIVIL S.L.",
      "registrationNumber": "07289",
      "identificationNumber": "B26379545",
      "address": "CALLE ESTAMBRERA 30, BAJO ",
      "location": {
        "postalCode": "26006",
        "municipality": "Logroño",
        "county": "Rioja, La",
        "municipalityId": "089",
        "countyId": "26"
      },
      "economicActivities": [
        {
          "id": "1.501.2",
          "name": "Construcción completa, reparación y conservación obras civiles",
          "_links": {
            "self": {
              "name": "Construcción completa, reparación y conservación obras civiles",
              "href": "https://api.euskadi.eus/procurements/companies/economic-activities/1.501.2"
            }
          }
        },
        {
          "id": "1.507",
          "name": "Construcción, reparación y conservación de toda clase obras",
          "_links": {
            "self": {
              "name": "Construcción, reparación y conservación de toda clase obras",
              "href": "https://api.euskadi.eus/procurements/companies/economic-activities/1.507"
            }
          }
        }
      ],
      "certificateStartDate": "2020-10-08",
      "certificateEndDate": "2021-02-11",
      "object": "LA CONSTRUCCIÓN Y OBRA CIVIL, LA REALIZACIÓN DE OBRAS Y DE INSTALACIONES ELÉCTRICAS O DE OTRO TIPO, COMPRAVENTA Y ALQUILER DE INMUEBLES",
      "mainEntityOfPage": "https://www.contratacion.euskadi.eus/webkpe00-kperoc/es/ac71aBusquedaRegistrosWar/empresa/07289",
      "_links": {
        "self": {
          "name": "ANTIS OBRA CIVIL S.L.",
          "href": "https://api.euskadi.eus/procurements/companies/07289"
        }
      }
    },
    {
      "name": "ALCON HEALTHCARE, S.A.",
      "registrationNumber": "06391",
      "identificationNumber": "A08015836",
      "address": "World Trade Center Almeda Park, Plaça de la Pau s/n, Edif. 6, pl. 3ª ",
      "location": {
        "postalCode": "08940",
        "municipality": "Cornellà de Llobregat",
        "county": "Barcelona",
        "municipalityId": "073",
        "countyId": "08"
      },
      "economicActivities": [
        {
          "id": "1.614.1",
          "name": "Venta al por mayor de productos farmacéuticos y medicamentos",
          "_links": {
            "self": {
              "name": "Venta al por mayor de productos farmacéuticos y medicamentos",
              "href": "https://api.euskadi.eus/procurements/companies/economic-activities/1.614.1"
            }
          }
        },
        {
          "id": "1.619.2",
          "name": "Venta al por mayor de aparatos e instrumentos médicos, ortopédicos, ópticos",
          "_links": {
            "self": {
              "name": "Venta al por mayor de aparatos e instrumentos médicos, ortopédicos, ópticos",
              "href": "https://api.euskadi.eus/procurements/companies/economic-activities/1.619.2"
            }
          }
        },
        {
          "id": "1.631",
          "name": "Intermediarios del comercio",
          "_links": {
            "self": {
              "name": "Intermediarios del comercio",
              "href": "https://api.euskadi.eus/procurements/companies/economic-activities/1.631"
            }
          }
        }
      ],
      "certificateStartDate": "2020-10-06",
      "certificateEndDate": "2021-04-05",
      "object": "LA INVESTIGACIÓN Y DESARROLLO, TITULARIDAD, IMPORTACIÓN, EXPORTACIÓN, DISTRIBUCIÓN, COMERCIALIZACIÓN, SUMINISTRO Y/O VENTA DE PRODUCTOS QUÍMICOS, MEDICAMENTOS, PRODUCTOS PARAFARMACÉUTICOS, PRODUCTOS SANITARIOS Y UTENSILIOS YA SEAN PROPIOS O DE TERCEROS PARA EL CUIDADO DE LA SALUD HUMANA Y VETERINARIA, ASÍ COMO SERVICIOS POSTVENTA INCLUIDOS ASISTENCIA TÉCNICA, FORMACIÓN Y CONSULTORÍA, RELACIONADOS CON EL ÁMBITO DE ACTIVIDAD DE LA SOCIEDAD",
      "mainEntityOfPage": "https://www.contratacion.euskadi.eus/webkpe00-kperoc/es/ac71aBusquedaRegistrosWar/empresa/06391",
      "_links": {
        "self": {
          "name": "ALCON HEALTHCARE, S.A.",
          "href": "https://api.euskadi.eus/procurements/companies/06391"
        }
      }
    },
    {
      "name": "CANNOR OBRAS Y SERVICIOS DE CANTABRIA, S.L.",
      "registrationNumber": "07281",
      "identificationNumber": "B39772447",
      "address": "ALTO DE LAS VENERAS S/N",
      "location": {
        "postalCode": "39478",
        "municipality": "Piélagos",
        "county": "Cantabria",
        "municipalityId": "052",
        "countyId": "39"
      },
      "economicActivities": [
        {
          "id": "1.507",
          "name": "Construcción, reparación y conservación de toda clase obras",
          "_links": {
            "self": {
              "name": "Construcción, reparación y conservación de toda clase obras",
              "href": "https://api.euskadi.eus/procurements/companies/economic-activities/1.507"
            }
          }
        }
      ],
      "certificateStartDate": "2020-10-06",
      "certificateEndDate": "2021-03-11",
      "object": "LA PROMOCIÓN Y EJECUCIÓN DE OBRAS PÚBLICAS Y PRIVADAS DE CUALQUIER CLASE Y CONSTRUCCIONES EN GENERAL, EXPLOTACIÓN DE CANTERAS Y PRÉSTAMOS. EL DISEÑO, CONSTRUCCIÓN, EJECUCIÓN, EXPLOTACIÓN, GESTIÓN, ADMINISTRACIÓN Y CONSERVACIÓN INTEGRAL DE INFRAESTRUCTURAS TANTO PÚBLICAS O PRIVADAS, DIRECTAMENTE O NO A TRAVÉS DE PARTICIPACIONES EN SOCIEDADES DE CUALQUIER OTRA FORMA JURÍDICA ANÁLOGA LEGALMENTE PERMITIDA. REALIZACIÓN DE SERVICIOS RELACIONADOS CON LA CONSERVACIÓN, REPARACIÓN Y MANTENIMIENTO DE JARDINES Y MONTES, TANTO A ENTIDADES PÚBLICAS COMO PRIVADAS. LIMPIEZA EN GENERAL DE TODO TIPO DE OBRAS, INSTALACIONES Y SERVICIOS TANTO PARA ENTIDADES PÚBLICAS COMO PRIVADAS. REALIZACIÓN DE PROYECTOS, INFORMES Y ESTUDIOS DERIVADOS DE LA ACTIVIDAD DE LA INGENIERÍA. REALIZACIÓN DE SERVICIOS RELACIONADOS CON LA RECOGIDA DE BASURAS Y GESTIÓN DEL MEDIO AMBIENTE, REFERIDO A LA RECOGIDA DE BASURAS, DEPURACIÓN, TRANSFORMACIÓN Y TRATAMIENTO\r\n",
      "mainEntityOfPage": "https://www.contratacion.euskadi.eus/webkpe00-kperoc/es/ac71aBusquedaRegistrosWar/empresa/07281",
      "_links": {
        "self": {
          "name": "CANNOR OBRAS Y SERVICIOS DE CANTABRIA, S.L.",
          "href": "https://api.euskadi.eus/procurements/companies/07281"
        }
      }
    },
    {
      "name": "MACUA AUDITORES, S.L.",
      "registrationNumber": "07282",
      "identificationNumber": "B48266910",
      "address": "PLAZA IBAIONDO, NUM 4, PLANTA 2 DPTO 203",
      "location": {
        "postalCode": "48940",
        "municipality": "Leioa",
        "county": "Bizkaia",
        "municipalityId": "054",
        "countyId": "48"
      },
      "economicActivities": [
        {
          "id": "1.842",
          "name": "Servicios financieros y contables",
          "_links": {
            "self": {
              "name": "Servicios financieros y contables",
              "href": "https://api.euskadi.eus/procurements/companies/economic-activities/1.842"
            }
          }
        }
      ],
      "certificateStartDate": "2020-10-06",
      "certificateEndDate": "2021-03-23",
      "object": "1. REALIZAR, CONFORME A LO DISPUESTO EN LA LEY 19/1988, DE 12 DE JULIO, LA ACTIVIDAD DE AUDITORÍA DE CUENTAS, EN EL ÁMBITO NACIONAL O INTERNACIONAL, MEDIANTE LA UTILIZACIÓN DE DETERMINADAS TÉCNICAS DE REVISIÓN Y VERIFICACIÓN DE DOCUMENTOS CONTABLES, CON OBJETO DE EMITIR INFORMES SOBRE LA FIABILIDAD DE LOS DOCUMENTOS CONTABLES AUDITADOS. 2. REALIZAR TODA CLASE DE TRABAJOS DE ASESORAMIENTO Y CONSULTORÍA, EN EL ÁMBITO NACIONAL O INTERNACIONAL, SOBRE TEMAS ECONÓMICOS, FINANCIEROS, CONTABLES, SECTORIALES Y, EN GENERAL, SOBRE TODOS AQUELLOS RELACIONADOS CON LA INFORMACIÓN Y ORGANIZACIÓN EMPRESARIAL. 3. PRESTAR, MEDIANTE ASESORAMIENTO, AYUDA DIRECTA A LAS PEQUEÑAS Y MEDIANAS EMPRESAS, PARA MEJORAR LAS ÁREAS CONTABLES, ECONÓMICO-FINANCIERAS, ADMINISTRATIVAS Y, EN GENERAL, LA GESTIÓN GLOBAL DE ESTAS EMPRESAS. 4. REALIZAR ACTIVIDADES DE FORMACIÓN EMPRESARIAL Y PROFESIONAL, ASÍ COMO DISAÑAR, CREAR, EDITAR Y DISTRIBUIR CURSOS, MANUALES, LIBROS, VIDEOS, SOFTWARES Y, EN GENERAL, CUALQUIER PRODUCTO AUDIOVISUAL, DESTINADO A LA FORMACIÓN Y DESARROLLO PROFESIONAL DE DIRECTIVOS, EMPRESARIOS, EMPLEADOS Y PERSONAS, RELACIONADAS CON EL ÁMBITO EMPRESARIAL",
      "mainEntityOfPage": "https://www.contratacion.euskadi.eus/webkpe00-kperoc/es/ac71aBusquedaRegistrosWar/empresa/07282",
      "_links": {
        "self": {
          "name": "MACUA AUDITORES, S.L.",
          "href": "https://api.euskadi.eus/procurements/companies/07282"
        }
      }
    },
    {
      "name": "GRUAS GORA, S.L.",
      "registrationNumber": "07283",
      "identificationNumber": "B75178145",
      "address": "CL USABAL D4D6 410",
      "location": {
        "postalCode": "20400",
        "municipality": "Tolosa",
        "county": "Gipuzkoa",
        "municipalityId": "071",
        "countyId": "20"
      },
      "economicActivities": [
        {
          "id": "1.325.4",
          "name": "Construcción de maquinaria de elevación y manipulación",
          "_links": {
            "self": {
              "name": "Construcción de maquinaria de elevación y manipulación",
              "href": "https://api.euskadi.eus/procurements/companies/economic-activities/1.325.4"
            }
          }
        }
      ],
      "certificateStartDate": "2020-10-06",
      "certificateEndDate": "2021-03-28",
      "object": "EL MANTENIMIENTO, REPARACIÓN Y VENTA DE PUENTES GRÚA",
      "mainEntityOfPage": "https://www.contratacion.euskadi.eus/webkpe00-kperoc/es/ac71aBusquedaRegistrosWar/empresa/07283",
      "_links": {
        "self": {
          "name": "GRUAS GORA, S.L.",
          "href": "https://api.euskadi.eus/procurements/companies/07283"
        }
      }
    },
    {
      "name": "EQUIPOS DE SIMULACIÓN Y ENSAYO, S.L.",
      "registrationNumber": "07284",
      "identificationNumber": "B66092776",
      "address": "Metalurgia, 8",
      "location": {
        "postalCode": "08551",
        "municipality": "Tona",
        "county": "Barcelona",
        "municipalityId": "283",
        "countyId": "08"
      },
      "economicActivities": [
        {
          "id": "1.353",
          "name": "Fabricación de aparatos y equipo electrónico de señalización, control",
          "_links": {
            "self": {
              "name": "Fabricación de aparatos y equipo electrónico de señalización, control",
              "href": "https://api.euskadi.eus/procurements/companies/economic-activities/1.353"
            }
          }
        }
      ],
      "certificateStartDate": "2020-10-06",
      "certificateEndDate": "2021-01-03",
      "object": "EL DISEÑO, FABRICACIÓN Y COMERCIALIZACIÓN DE EQUIPOS DE SIMULACIÓN Y ENSAYO, INSTRUMENTACIÓN Y EQUIPAMIENTO DE LABORATORIO",
      "mainEntityOfPage": "https://www.contratacion.euskadi.eus/webkpe00-kperoc/es/ac71aBusquedaRegistrosWar/empresa/07284",
      "_links": {
        "self": {
          "name": "EQUIPOS DE SIMULACIÓN Y ENSAYO, S.L.",
          "href": "https://api.euskadi.eus/procurements/companies/07284"
        }
      }
    },
    {
      "name": "HIDRIA, CIENCIA, AMBIENTE Y DESARROLLO, S.L.",
      "registrationNumber": "07285",
      "identificationNumber": "B36974988",
      "address": "CALLE CONDE DE TORRECEDEIRA 63 6F",
      "location": {
        "postalCode": "36202",
        "municipality": "Vigo",
        "county": "Pontevedra",
        "municipalityId": "057",
        "countyId": "36"
      },
      "economicActivities": [
        {
          "id": "1.843.9",
          "name": "Otros servicios técnicos n.c.o.p",
          "_links": {
            "self": {
              "name": "Otros servicios técnicos n.c.o.p",
              "href": "https://api.euskadi.eus/procurements/companies/economic-activities/1.843.9"
            }
          }
        }
      ],
      "certificateStartDate": "2020-10-06",
      "certificateEndDate": "2021-03-03",
      "object": "A) LA GESTIÓN, ASESORAMIENTO Y DESARROLLO DE TODO TIPO DE PROYECTOS DE INVESTIGACIÓN, INNOVACIÓN, PLANIFICACIÓN Y DESARROLLO PARA EMPRESAS O ENTIDADADES PÚBLICAS O PRIVADAS. B) LA CONSULTORÍA Y PLANIFICACIÓN INTEGRAL DE PROYECTOS EN EL ÁMBITO DE LA CIENCIA, EL MEDIO AMBIENTE, EL TURISMO, EL PATRIMONIO Y EL DESARROLLO HUMANO\r\n",
      "mainEntityOfPage": "https://www.contratacion.euskadi.eus/webkpe00-kperoc/es/ac71aBusquedaRegistrosWar/empresa/07285",
      "_links": {
        "self": {
          "name": "HIDRIA, CIENCIA, AMBIENTE Y DESARROLLO, S.L.",
          "href": "https://api.euskadi.eus/procurements/companies/07285"
        }
      }
    },
    {
      "name": "AYADER SOLUCIONES INTEGRALES, S.L.",
      "registrationNumber": "06501",
      "identificationNumber": "B95837803",
      "address": "Avd. San Antonio 18",
      "location": {
        "postalCode": "48450",
        "municipality": "Etxebarri",
        "county": "Bizkaia",
        "municipalityId": "029",
        "countyId": "48"
      },
      "economicActivities": [
        {
          "id": "1.617.8",
          "name": "Venta al por mayor de máquinas y material de oficina",
          "_links": {
            "self": {
              "name": "Venta al por mayor de máquinas y material de oficina",
              "href": "https://api.euskadi.eus/procurements/companies/economic-activities/1.617.8"
            }
          }
        },
        {
          "id": "1.631",
          "name": "Intermediarios del comercio",
          "_links": {
            "self": {
              "name": "Intermediarios del comercio",
              "href": "https://api.euskadi.eus/procurements/companies/economic-activities/1.631"
            }
          }
        },
        {
          "id": "1.691.9",
          "name": "Reparación de otros bienes de consumo n.c.o.p",
          "_links": {
            "self": {
              "name": "Reparación de otros bienes de consumo n.c.o.p",
              "href": "https://api.euskadi.eus/procurements/companies/economic-activities/1.691.9"
            }
          }
        }
      ],
      "certificateStartDate": "2020-10-05",
      "certificateEndDate": "2021-03-01",
      "object": "1-LA VENTA Y SERVICIO DE EQUIPOS INFORMÁTICOS, DE EQUIPOS OFIMÁTICOS, DE VIDEO VIGILANCIA, DE SOLUCIONES EN TELECOMUNICACIONES. 2-LA VENTA Y EL MONTAJE DE MOBILIARIO. 3-ACTIVIDADES EN FORMACIÓN\r\n",
      "mainEntityOfPage": "https://www.contratacion.euskadi.eus/webkpe00-kperoc/es/ac71aBusquedaRegistrosWar/empresa/06501",
      "_links": {
        "self": {
          "name": "AYADER SOLUCIONES INTEGRALES, S.L.",
          "href": "https://api.euskadi.eus/procurements/companies/06501"
        }
      }
    }
  ]
}