{
  "totalItems": 9042,
  "totalPages": 905,
  "currentPage": 506,
  "itemsOfPage": 10,
  "items": [
    {
      "name": "DESARROLLOS GRUPO ERBAUER, S.L.",
      "registrationNumber": "06711",
      "identificationNumber": "B95677357",
      "address": "C/ HENAO, 36-4EXT.DCHA.",
      "location": {
        "postalCode": "48009",
        "municipality": "Bilbao",
        "county": "Bizkaia",
        "municipalityId": "020",
        "countyId": "48"
      },
      "economicActivities": [
        {
          "id": "1.501.1",
          "name": "Construcción completa, reparación y conservación de edificaciones",
          "_links": {
            "self": {
              "name": "Construcción completa, reparación y conservación de edificaciones",
              "href": "https://api.euskadi.eus/procurements/companies/economic-activities/1.501.1"
            }
          }
        },
        {
          "id": "1.833.21",
          "name": "Promoción de edificaciones - Cuota fija",
          "_links": {
            "self": {
              "name": "Promoción de edificaciones - Cuota fija",
              "href": "https://api.euskadi.eus/procurements/companies/economic-activities/1.833.21"
            }
          }
        },
        {
          "id": "1.834",
          "name": "Servicios relativos a la propiedad inmobiliaria e industrial",
          "_links": {
            "self": {
              "name": "Servicios relativos a la propiedad inmobiliaria e industrial",
              "href": "https://api.euskadi.eus/procurements/companies/economic-activities/1.834"
            }
          }
        }
      ],
      "certificateStartDate": "2022-02-09",
      "certificateEndDate": "2022-08-03",
      "object": "1. LA CONSTRUCCIÓN, INSTALACIONES Y MANTENIMIENTO. 2. ACTIVIDADES INMOBILIARIAS",
      "mainEntityOfPage": "https://www.contratacion.euskadi.eus/webkpe00-kperoc/es/ac71aBusquedaRegistrosWar/empresa/06711",
      "_links": {
        "self": {
          "name": "DESARROLLOS GRUPO ERBAUER, S.L.",
          "href": "https://api.euskadi.eus/procurements/companies/06711"
        }
      }
    },
    {
      "name": "SMITHS MEDICAL ESPAÑA, S.L.",
      "registrationNumber": "03443",
      "identificationNumber": "B83886176",
      "address": "AVDA. DIAGONAL, Nº635, PISO 1º",
      "location": {
        "postalCode": "08028",
        "municipality": "Barcelona",
        "county": "Barcelona",
        "municipalityId": "019",
        "countyId": "08"
      },
      "economicActivities": [
        {
          "id": "1.619.2",
          "name": "Venta al por mayor de aparatos e instrumentos médicos, ortopédicos, ópticos",
          "_links": {
            "self": {
              "name": "Venta al por mayor de aparatos e instrumentos médicos, ortopédicos, ópticos",
              "href": "https://api.euskadi.eus/procurements/companies/economic-activities/1.619.2"
            }
          }
        }
      ],
      "certificateStartDate": "2022-02-09",
      "certificateEndDate": "2022-08-08",
      "object": "LA IMPORTACIÓN, EXPORTACIÓN, DISTRIBUCIÓN, PROMOCIÓN, COMPRA Y VENTA, AL POR MAYOR Y AL POR MENOR, DE PRODUCTOS, MAQUINARIA, EQUIPOS, APARATOS, COMPONENTES Y MATERIAS PRIMAS RELACIONADOS CON LA MEDICINA ASÍ COMO CUALQUIER OTRA ACTIVIDAD COMPLEMENTARIA QUE SEA NECESARIA PARA DESARROLLAR LAS ACTIVIDADES EN ESTE PÁRRAFO RESEÑADAS",
      "mainEntityOfPage": "https://www.contratacion.euskadi.eus/webkpe00-kperoc/es/ac71aBusquedaRegistrosWar/empresa/03443",
      "_links": {
        "self": {
          "name": "SMITHS MEDICAL ESPAÑA, S.L.",
          "href": "https://api.euskadi.eus/procurements/companies/03443"
        }
      }
    },
    {
      "name": "TIEMPO ACTIVO, S.L.",
      "registrationNumber": "08100",
      "identificationNumber": "B09394438",
      "address": "Ctra. Madrid-Irún, km. 233,5 - Naves Prado 11A",
      "location": {
        "postalCode": "09001",
        "municipality": "Burgos",
        "county": "Burgos",
        "municipalityId": "059",
        "countyId": "09"
      },
      "economicActivities": [
        {
          "id": "1.659.6",
          "name": "Venta al por menor de juguetes, artículos de deporte",
          "_links": {
            "self": {
              "name": "Venta al por menor de juguetes, artículos de deporte",
              "href": "https://api.euskadi.eus/procurements/companies/economic-activities/1.659.6"
            }
          }
        },
        {
          "id": "1.755",
          "name": "Agencias de viajes",
          "_links": {
            "self": {
              "name": "Agencias de viajes",
              "href": "https://api.euskadi.eus/procurements/companies/economic-activities/1.755"
            }
          }
        },
        {
          "id": "1.845",
          "name": "Explotación electrónica por cuenta de terceros",
          "_links": {
            "self": {
              "name": "Explotación electrónica por cuenta de terceros",
              "href": "https://api.euskadi.eus/procurements/companies/economic-activities/1.845"
            }
          }
        },
        {
          "id": "1.849.9",
          "name": "Otros servicios independientes n.c.o.p",
          "_links": {
            "self": {
              "name": "Otros servicios independientes n.c.o.p",
              "href": "https://api.euskadi.eus/procurements/companies/economic-activities/1.849.9"
            }
          }
        },
        {
          "id": "1.965.4",
          "name": "Empresas de espectáculos",
          "_links": {
            "self": {
              "name": "Empresas de espectáculos",
              "href": "https://api.euskadi.eus/procurements/companies/economic-activities/1.965.4"
            }
          }
        },
        {
          "id": "1.967.2",
          "name": "Escuelas y servicios de perfeccionamiento del deporte",
          "_links": {
            "self": {
              "name": "Escuelas y servicios de perfeccionamiento del deporte",
              "href": "https://api.euskadi.eus/procurements/companies/economic-activities/1.967.2"
            }
          }
        },
        {
          "id": "1.968.2",
          "name": "Organización de espectáculos deportivos",
          "_links": {
            "self": {
              "name": "Organización de espectáculos deportivos",
              "href": "https://api.euskadi.eus/procurements/companies/economic-activities/1.968.2"
            }
          }
        },
        {
          "id": "1.989.2",
          "name": "Servicios de organización de congresos, asambleas y similares",
          "_links": {
            "self": {
              "name": "Servicios de organización de congresos, asambleas y similares",
              "href": "https://api.euskadi.eus/procurements/companies/economic-activities/1.989.2"
            }
          }
        },
        {
          "id": "1.989.3",
          "name": "Parques o recintos feriales",
          "_links": {
            "self": {
              "name": "Parques o recintos feriales",
              "href": "https://api.euskadi.eus/procurements/companies/economic-activities/1.989.3"
            }
          }
        }
      ],
      "certificateStartDate": "2022-02-04",
      "certificateEndDate": "2022-08-01",
      "object": "-A) ORGANIZACIÓN, GESTIÓN Y DESARROLLO DE FERIAS Y EVENTOS DE TODO TIPO, CULTURALES, TEMÁTICOS, LÚDICOS, DEPORTIVOS. -B) SERVICIOS DE ANIMACIÓN PARA TODOS LOS SEGMENTOS DE POBLACIÓN. -C) SERVICIOS SOCIALES. -D) SERVICIOS DE GESTIÓN, ORGANIZACIÓN Y EXPLOTACIÓN DE CENTROS E INSTALACIONES PÚBLICAS Y PRIVADAS (CENTROS CÍVICOS, INSTALACIONES DEPORTIVAS, RESIDENCIAS DE ESTUDIANTES, TERCERA EDAD Y CUALQUIER OTRA). -E) ORGANIZACIÓN, GESTIÓN Y DESARROLLO DE ACTIVIDADES COLECTIVAS DE OCIO Y TIEMPO LIBRE. -F) ORGANIZACIÓN, GESTIÓN, PROMOCIÓN Y DESARROLLO DE ACTIVIDADES PROPIAS DEL TURISMO ACTIVO Y DE AVENTURA. G) DISEÑO, ORGANIZACIÓN Y DESARROLLO DE PROGRAMAS PARA ADMINISTRACIONES PÚBLICAS Y PERSONAS Y ENTIDADES PRIVADAS, DESTINADOS A TODOS LOS PÚBLICOS Y TODAS LAS SITUACIONES SOCIALES. -H) DISEÑO, ORGANIZACIÓN, GESTIÓN Y DESARROLLO DE CAMPAMENTOS. -I) CREACIÓN, GESTIÓN Y DESARROLLO DE SERVICIOS DEPORTIVOS, ACTIVIDADES EXTRAESCOLARES, ESCUELAS DEPORTIVAS Y TODO TIPO DE ACTIVIDADES COLECTIVAS. -J) DISEÑO, DESARROLLO Y VENTA DE PRODUCTOS Y SERVICIOS RELACIONADOS CON LA ACTIVIDAD FÍSICA Y LA SALUD. -K) CREACIÓN, DISEÑO, GESTIÓN Y DESARROLLO DE TODO TIPO DE ACTIVIDADES Y ESPECTÁCULOS. -I) INSTALACIÓN DE INFRAESTRUCTURAS PARA EVENTOS CULTURALES, TEMÁTICOS, LÚDICOS, DE OCIO, DEPORTIVOS Y ESPECTÁCULOS. -J) LA MEDIACIÓN EN LA VENTA DE BILLETES O RESERVA DE PLAZAS EN TODA CLASE DE MEDIOS DE TRANSPORTE, ASÍ COMO EN LA RESERVA DE ALOJAMIENTO Y OTROS SERVICIOS QUE PRESTEN LAS EMPRESAS TURÍSTICAS. -K) LA ORGANIZACIÓN Y VENTA DE VIAJES COMBINADOS, DE ACUERDO CON LA LEGISLACIÓN QUE LOS REGULE. -L) LA ORGANIZACIÓN Y VENTA CONJUNTA Y A UN PRECIO GLOBAL DE DOS O MÁS SERVICIOS TURÍSTICOS. -M) INFORMACIÓN Y DIFUSIÓN TURÍSTICA. -N) CAMBIO DE DIVISAS Y VENTA Y CAMBIO DE CHEQUES DE VIAJE. -Ñ) EXPEDICIÓN Y TRANSFERENCIA DE EQUIPAJES POR CUALQUIER MEDIO DE TRANSPORTE. -O) FORMALIZACIÓN DE PÓLIZAS DE SEGURO DE ASISTENCIA EN VIAJE. -P) ALQUILER DE VEHÍCULOS CON Y SIN CONDUCTOR. -Q) RESERVA, ADQUISICIÓN Y VENTA DE BILLETES O ENTRADAS PARA ESPECTÁCULOS, MUSEOS, MONUMENTOS Y ANÁLOGOS. -R) ALQUILER DE ÚTILES Y EQUIPOS DESTINADOS A LA PRÁCTICA DE ACTIVIDADES TURÍSTICAS. -S) FLETAR AERONAVES, BARCOS, AUTOBUSES, TRENES ESPECIALES Y OTROS MEDIOS DE TRANSPORTE PARA LA REALIZACIÓN DE SERVICIOS TURÍSTICOS PROPIOS DE SU ACTIVIDAD. -T) LA ACTUACIÓN COMO REPRESENTANTE DE OTRAS AGENCIAS NACIONALES O EXTRANJERAS PARA LA PRESTACIÓN, EN SU NOMBRE Y A LA CLIENTELA DE ÉSTAS, DE CUALQUIERA DE LOS SERVICIOS ENUMERADOS ANTERIORMENTE. -U) PRESTACIÓN DE CUALESQUIERA OTROS SERVICIOS TURÍSTICOS QUE COMPLEMENTEN LOS ENUMERADOS ANTERIORMENTE. ",
      "mainEntityOfPage": "https://www.contratacion.euskadi.eus/webkpe00-kperoc/es/ac71aBusquedaRegistrosWar/empresa/08100",
      "_links": {
        "self": {
          "name": "TIEMPO ACTIVO, S.L.",
          "href": "https://api.euskadi.eus/procurements/companies/08100"
        }
      }
    },
    {
      "name": "MANUFACTURAS JUPE, S.A.",
      "registrationNumber": "06918",
      "identificationNumber": "A20053732",
      "address": "OIALUME BIDEA, 35 - POL. ZAMOKA",
      "location": {
        "postalCode": "20115",
        "municipality": "Astigarraga",
        "county": "Gipuzkoa",
        "municipalityId": "903",
        "countyId": "20"
      },
      "economicActivities": [
        {
          "id": "1.501.3",
          "name": "Albañilería y pequeños trabajos de construcción en general",
          "_links": {
            "self": {
              "name": "Albañilería y pequeños trabajos de construcción en general",
              "href": "https://api.euskadi.eus/procurements/companies/economic-activities/1.501.3"
            }
          }
        },
        {
          "id": "1.615.2",
          "name": "Venta al por mayor de muebles",
          "_links": {
            "self": {
              "name": "Venta al por mayor de muebles",
              "href": "https://api.euskadi.eus/procurements/companies/economic-activities/1.615.2"
            }
          }
        }
      ],
      "certificateStartDate": "2022-02-03",
      "certificateEndDate": "2022-07-07",
      "object": "LA FABRICACIÓN DE MUEBLES APOYADOS EN EL METAL, PLÁSTICO, MADERA O CRISTAL, ASÍ COMO TODA CLASE DE ARTÍCULOS DE UTILIZACIÓN DOMÉSTICA O INDUSTRIAL EN LOS QUE LA BASE IPREFERENTE SEA LA COMBINACIÓN DE MATERIALES PLÁSTICOS, MADERA Y CRISTAL, CON EL METAL. LA CONSTRUCCIÓN, REPARACIÓN Y REHABILITACIÓN DE EDIFICACIONES. LA COMERCIALIZACIÓN, INSTALACIÓN Y MONTAJE DE MOBILIARIO. EL CNAE CORRESPONDIENTE A LA SOCIEDAD ES: 4339",
      "mainEntityOfPage": "https://www.contratacion.euskadi.eus/webkpe00-kperoc/es/ac71aBusquedaRegistrosWar/empresa/06918",
      "_links": {
        "self": {
          "name": "MANUFACTURAS JUPE, S.A.",
          "href": "https://api.euskadi.eus/procurements/companies/06918"
        }
      }
    },
    {
      "name": "PAPERLESS SOLUTIONS, S.L.",
      "registrationNumber": "06549",
      "identificationNumber": "B95720900",
      "address": "CALLE MAMARIGA 7-B",
      "location": {
        "postalCode": "48980",
        "municipality": "Santurtzi",
        "county": "Bizkaia",
        "municipalityId": "082",
        "countyId": "48"
      },
      "economicActivities": [
        {
          "id": "1.849.7",
          "name": "Servicios de gestión administrativa",
          "_links": {
            "self": {
              "name": "Servicios de gestión administrativa",
              "href": "https://api.euskadi.eus/procurements/companies/economic-activities/1.849.7"
            }
          }
        }
      ],
      "certificateStartDate": "2022-02-02",
      "certificateEndDate": "2022-07-19",
      "object": "LA PRESTACIÓN DE SERVICIOS DE GESTIÓN ADMINISTRATIVA, CONTABLE, FINANCIERO, LABORAL, INFORMÁTICA Y CONSULTORÍA EMPRESARIAL, SERVICIOS DE DIGITALIZACIÓN, CERTIFICACIÓN DIGITAL, GESTIÓN DOCUMENTAL. SERVICIOS DE INTERMEDIACIÓN Y REPRESENTACIÓN O AGENCIA Y LA REALIZACIÓN DE OPERACIONES DE IMPORTACIÓN, EXPORTACIÓN DE ARTÍCULOS, BIEN POR CUENTA PROPIA O AJENA",
      "mainEntityOfPage": "https://www.contratacion.euskadi.eus/webkpe00-kperoc/es/ac71aBusquedaRegistrosWar/empresa/06549",
      "_links": {
        "self": {
          "name": "PAPERLESS SOLUTIONS, S.L.",
          "href": "https://api.euskadi.eus/procurements/companies/06549"
        }
      }
    },
    {
      "name": "TOMAS MINTEGUI URIGUEN, S.A.",
      "registrationNumber": "08092",
      "identificationNumber": "A48080014",
      "address": "calle gernika 36-bajo",
      "location": {
        "postalCode": "48960",
        "municipality": "Galdakao",
        "county": "Bizkaia",
        "municipalityId": "036",
        "countyId": "48"
      },
      "economicActivities": [
        {
          "id": "1.691.2",
          "name": "Reparación de vehículos automóviles, bicicletas y otros vehículos",
          "_links": {
            "self": {
              "name": "Reparación de vehículos automóviles, bicicletas y otros vehículos",
              "href": "https://api.euskadi.eus/procurements/companies/economic-activities/1.691.2"
            }
          }
        }
      ],
      "certificateStartDate": "2022-02-01",
      "certificateEndDate": "2022-07-24",
      "object": "LA CONSTRUCCIÓN, REPARACIÓN, VENTA DE ACCESORIOS DE VEHÍCULOS MECÁNICOS, CAMIONES, IMPORTACIÓN DE MOTORES Y UTENSILIOS PARA CAMIONES Y SU DISTRIBUCIÓN.",
      "mainEntityOfPage": "https://www.contratacion.euskadi.eus/webkpe00-kperoc/es/ac71aBusquedaRegistrosWar/empresa/08092",
      "_links": {
        "self": {
          "name": "TOMAS MINTEGUI URIGUEN, S.A.",
          "href": "https://api.euskadi.eus/procurements/companies/08092"
        }
      }
    },
    {
      "name": "ZAER MOTOR, SOCIEDAD ANÓNIMA",
      "registrationNumber": "08066",
      "identificationNumber": "A20143947",
      "address": "BARRIO APALATEGUI Nº1",
      "location": {
        "postalCode": "20600",
        "municipality": "Eibar",
        "county": "Gipuzkoa",
        "municipalityId": "030",
        "countyId": "20"
      },
      "economicActivities": [
        {
          "id": "1.615.1",
          "name": "Venta al por mayor de vehículos, motocicletas, bicicletas y sus accesorios",
          "_links": {
            "self": {
              "name": "Venta al por mayor de vehículos, motocicletas, bicicletas y sus accesorios",
              "href": "https://api.euskadi.eus/procurements/companies/economic-activities/1.615.1"
            }
          }
        },
        {
          "id": "1.654.1",
          "name": "Venta al por menor de vehículos terrestres",
          "_links": {
            "self": {
              "name": "Venta al por menor de vehículos terrestres",
              "href": "https://api.euskadi.eus/procurements/companies/economic-activities/1.654.1"
            }
          }
        },
        {
          "id": "1.691.2",
          "name": "Reparación de vehículos automóviles, bicicletas y otros vehículos",
          "_links": {
            "self": {
              "name": "Reparación de vehículos automóviles, bicicletas y otros vehículos",
              "href": "https://api.euskadi.eus/procurements/companies/economic-activities/1.691.2"
            }
          }
        }
      ],
      "certificateStartDate": "2022-01-20",
      "certificateEndDate": "2022-06-23",
      "object": "LA COMPRA-VENTA DE VEHÍCULOS NUEVOS, USADOS, Y RECAMBIOS PARA LOS MISMOS, ASÍ COMO LA REPARACIÓN TOTAL O PARCIAL DE VEHÍCULOS.",
      "mainEntityOfPage": "https://www.contratacion.euskadi.eus/webkpe00-kperoc/es/ac71aBusquedaRegistrosWar/empresa/08066",
      "_links": {
        "self": {
          "name": "ZAER MOTOR, SOCIEDAD ANÓNIMA",
          "href": "https://api.euskadi.eus/procurements/companies/08066"
        }
      }
    },
    {
      "name": "GESTIÓN X-LAN INFORMATICA, S.A.",
      "registrationNumber": "02694",
      "identificationNumber": "A20550604",
      "address": "ZUATZU KALEA, 1 - EDIF. ULIA. P.B. LOCAL 2",
      "location": {
        "postalCode": "20018",
        "municipality": "Donostia / San Sebastián",
        "county": "Gipuzkoa",
        "municipalityId": "069",
        "countyId": "20"
      },
      "economicActivities": [
        {
          "id": "1.330",
          "name": "Construcción de máquinas de oficina y ordenadores",
          "_links": {
            "self": {
              "name": "Construcción de máquinas de oficina y ordenadores",
              "href": "https://api.euskadi.eus/procurements/companies/economic-activities/1.330"
            }
          }
        },
        {
          "id": "1.659.2",
          "name": "Venta al por menor de muebles de oficina y máquinas y equipos de oficina",
          "_links": {
            "self": {
              "name": "Venta al por menor de muebles de oficina y máquinas y equipos de oficina",
              "href": "https://api.euskadi.eus/procurements/companies/economic-activities/1.659.2"
            }
          }
        }
      ],
      "certificateStartDate": "2022-01-19",
      "certificateEndDate": "2022-06-17",
      "object": "FABRICAR Y VENDER EQUIPOS INFORMÁTICOS, REPARACIÓN Y MANTENIMIENTO DE ORDENADORES Y PERIFÉRICOS E INSTALACIONES DE REDES INFORMÁTICAS CON SU CABLEADO",
      "mainEntityOfPage": "https://www.contratacion.euskadi.eus/webkpe00-kperoc/es/ac71aBusquedaRegistrosWar/empresa/02694",
      "_links": {
        "self": {
          "name": "GESTIÓN X-LAN INFORMATICA, S.A.",
          "href": "https://api.euskadi.eus/procurements/companies/02694"
        }
      }
    },
    {
      "name": "SANTIAGO GURIDI ZUBIZARRETA",
      "registrationNumber": "08059",
      "identificationNumber": "72443858E",
      "address": "MITXELENA, Nº 65 -4D",
      "location": {
        "postalCode": "20800",
        "municipality": "Zarautz",
        "county": "Gipuzkoa",
        "municipalityId": "079",
        "countyId": "20"
      },
      "economicActivities": [
        {
          "id": "1.654.1",
          "name": "Venta al por menor de vehículos terrestres",
          "_links": {
            "self": {
              "name": "Venta al por menor de vehículos terrestres",
              "href": "https://api.euskadi.eus/procurements/companies/economic-activities/1.654.1"
            }
          }
        },
        {
          "id": "1.722",
          "name": "Transporte de mercancías por carretera",
          "_links": {
            "self": {
              "name": "Transporte de mercancías por carretera",
              "href": "https://api.euskadi.eus/procurements/companies/economic-activities/1.722"
            }
          }
        },
        {
          "id": "1.861.2",
          "name": "Alquiler de locales industriales y otros alquileres n.c.o.p",
          "_links": {
            "self": {
              "name": "Alquiler de locales industriales y otros alquileres n.c.o.p",
              "href": "https://api.euskadi.eus/procurements/companies/economic-activities/1.861.2"
            }
          }
        }
      ],
      "certificateStartDate": "2022-01-18",
      "certificateEndDate": "2022-07-18",
      "object": "ALQUILER DE LOCALES INDUSTRIALES Y OTROS ALQUILERES N.C.O.P. TRANSPORTE DE MERCANCÍAS POR CARRETERA. VENTA AL POR MENOR DE VEHÍCULOS TERRESTRES.",
      "mainEntityOfPage": "https://www.contratacion.euskadi.eus/webkpe00-kperoc/es/ac71aBusquedaRegistrosWar/empresa/08059",
      "_links": {
        "self": {
          "name": "SANTIAGO GURIDI ZUBIZARRETA",
          "href": "https://api.euskadi.eus/procurements/companies/08059"
        }
      }
    },
    {
      "name": "AVALON TECNOLOGÍAS DE LA INFORMACIÓN, S.L.",
      "registrationNumber": "03151",
      "identificationNumber": "B84043470",
      "address": "CALLE ALCALA, 63 3º",
      "location": {
        "postalCode": "28014",
        "municipality": "Madrid",
        "county": "Madrid",
        "municipalityId": "079",
        "countyId": "28"
      },
      "economicActivities": [
        {
          "id": "1.845",
          "name": "Explotación electrónica por cuenta de terceros",
          "_links": {
            "self": {
              "name": "Explotación electrónica por cuenta de terceros",
              "href": "https://api.euskadi.eus/procurements/companies/economic-activities/1.845"
            }
          }
        }
      ],
      "certificateStartDate": "2022-01-12",
      "certificateEndDate": "2022-06-01",
      "object": "1.-EL DESARROLLO DE SOFTWARE. 2.-LA CONSULTORÍA DE SEGURIDAD INFORMÁTICA. 3.-LA CONSULTORÍA E IMPLANTACIÓN DE SISTEMAS DE TELECOMUNICACIONES. 4.-CONSULTORÍA, DESARROLLO E IMPLANTACIÓN DE SISTEMAS DE INFORMACIÓN. 5.-SERVICIOS INFORMÁTICOS. 6.-VENTA DE LICENCIAS DE SOFTWARE. 7.-VENTA AL POR MENOR DE ARTÍCULOS DE INFORMÁTICA",
      "mainEntityOfPage": "https://www.contratacion.euskadi.eus/webkpe00-kperoc/es/ac71aBusquedaRegistrosWar/empresa/03151",
      "_links": {
        "self": {
          "name": "AVALON TECNOLOGÍAS DE LA INFORMACIÓN, S.L.",
          "href": "https://api.euskadi.eus/procurements/companies/03151"
        }
      }
    }
  ]
}