{
  "totalItems": 9042,
  "totalPages": 905,
  "currentPage": 173,
  "itemsOfPage": 10,
  "items": [
    {
      "name": "JUAN ANGEL RODRIGUEZ CUESTA",
      "registrationNumber": "10416",
      "identificationNumber": "72669346H",
      "address": "C/IPARRAGUIRRE 17, 7º DCHA.",
      "location": {
        "postalCode": "48009",
        "municipality": "Bilbao",
        "county": "Bizkaia",
        "municipalityId": "020",
        "countyId": "48"
      },
      "economicActivities": [
        {
          "id": "2.013",
          "name": "Veterinarios",
          "_links": {
            "self": {
              "name": "Veterinarios",
              "href": "https://api.euskadi.eus/procurements/companies/economic-activities/2.013"
            }
          }
        }
      ],
      "certificateStartDate": "2025-11-07",
      "certificateEndDate": "2026-05-04",
      "object": "VETERINARIOS.",
      "mainEntityOfPage": "https://www.contratacion.euskadi.eus/webkpe00-kperoc/es/ac71aBusquedaRegistrosWar/empresa/10416",
      "_links": {
        "self": {
          "name": "JUAN ANGEL RODRIGUEZ CUESTA",
          "href": "https://api.euskadi.eus/procurements/companies/10416"
        }
      }
    },
    {
      "name": "ARANCONTA METERING, S.L.U.",
      "registrationNumber": "06000",
      "identificationNumber": "B20926739",
      "address": "Pilotegui Bidea, 12.  Oficina G-12",
      "location": {
        "postalCode": "20018",
        "municipality": "Donostia / San Sebastián",
        "county": "Gipuzkoa",
        "municipalityId": "069",
        "countyId": "20"
      },
      "economicActivities": [
        {
          "id": "1.659.9",
          "name": "Venta al por menor de otros productos no especificados en esta agrupación",
          "_links": {
            "self": {
              "name": "Venta al por menor de otros productos no especificados en esta agrupación",
              "href": "https://api.euskadi.eus/procurements/companies/economic-activities/1.659.9"
            }
          }
        },
        {
          "id": "1.857.9",
          "name": "Lectura y conservación a tanto alzado de contadores de agua",
          "_links": {
            "self": {
              "name": "Lectura y conservación a tanto alzado de contadores de agua",
              "href": "https://api.euskadi.eus/procurements/companies/economic-activities/1.857.9"
            }
          }
        }
      ],
      "certificateStartDate": "2025-11-07",
      "certificateEndDate": "2026-05-05",
      "object": "A) VENTA, INSTALACIÓN, MANTENIMIENTO, LECTURA Y GESTIÓN DE CONTADORES DE SUMINISTROS DE AGUA, ENERGÍA, GASÓLEO, GAS Y ELECTRICIDAD. B)  CONFECCIÓN Y COBRO DE RECIBOS DE SUMINISTRO DE AGUA, ENERGÍA, GASÓLEO, GAS Y ELECTRICIDAD Y SERVICIO DE ATENCIÓN A LOS USUARIOS. C) VENTA INSTALACIÓN Y MANTENIMIENTO DE EQUIPOS Y CONTADORES EN GENERAL",
      "mainEntityOfPage": "https://www.contratacion.euskadi.eus/webkpe00-kperoc/es/ac71aBusquedaRegistrosWar/empresa/06000",
      "_links": {
        "self": {
          "name": "ARANCONTA METERING, S.L.U.",
          "href": "https://api.euskadi.eus/procurements/companies/06000"
        }
      }
    },
    {
      "name": "AUTOBUSES URBANOS IRUN FUENTERRABIA, S.L.",
      "registrationNumber": "04260",
      "identificationNumber": "B20038949",
      "address": "HILANDERAS 5",
      "location": {
        "postalCode": "20305",
        "municipality": "Irun",
        "county": "Gipuzkoa",
        "municipalityId": "045",
        "countyId": "20"
      },
      "economicActivities": [
        {
          "id": "1.721.1",
          "name": "Transporte urbano colectivo",
          "_links": {
            "self": {
              "name": "Transporte urbano colectivo",
              "href": "https://api.euskadi.eus/procurements/companies/economic-activities/1.721.1"
            }
          }
        },
        {
          "id": "1.721.3",
          "name": "Transporte de viajeros por carretera",
          "_links": {
            "self": {
              "name": "Transporte de viajeros por carretera",
              "href": "https://api.euskadi.eus/procurements/companies/economic-activities/1.721.3"
            }
          }
        }
      ],
      "certificateStartDate": "2025-11-07",
      "certificateEndDate": "2026-05-05",
      "classification": [
        {
          "id": "S",
          "name": "Servicios",
          "groups": [
            {
              "id": "R",
              "subgroups": [
                {
                  "id": "01",
                  "name": "Transporte de viajeros por carretera",
                  "categories": [
                    {
                      "id": "5",
                      "name": "Mas de 1.200.000",
                      "_links": {
                        "self": {
                          "name": "Mas de 1.200.000",
                          "href": "https://api.euskadi.eus/procurements/companies/types/S/categories/5"
                        }
                      }
                    }
                  ],
                  "_links": {
                    "self": {
                      "name": "Transporte de viajeros por carretera",
                      "href": "https://api.euskadi.eus/procurements/companies/types/S/groups/R/subgroups/01"
                    }
                  }
                }
              ],
              "_links": {
                "self": {
                  "href": "https://api.euskadi.eus/procurements/companies/types/S/groups/R"
                }
              }
            }
          ],
          "_links": {
            "self": {
              "name": "Servicios",
              "href": "https://api.euskadi.eus/procurements/companies/types/S"
            }
          }
        }
      ],
      "object": "LA ACTIVIDAD DE TRANSPORTE DE VIAJEROS POR CARRETERA, POR SÍ MISMA O A TRAVÉS DE OTRAS SOCIEDADES.",
      "mainEntityOfPage": "https://www.contratacion.euskadi.eus/webkpe00-kperoc/es/ac71aBusquedaRegistrosWar/empresa/04260",
      "_links": {
        "self": {
          "name": "AUTOBUSES URBANOS IRUN FUENTERRABIA, S.L.",
          "href": "https://api.euskadi.eus/procurements/companies/04260"
        }
      }
    },
    {
      "name": "WERFEN ESPAÑA, S.A.",
      "registrationNumber": "00578",
      "identificationNumber": "A28114742",
      "address": "PZA. EUROPA, 21-23",
      "location": {
        "postalCode": "08908",
        "municipality": "Hospitalet de Llobregat, L'",
        "county": "Barcelona",
        "municipalityId": "101",
        "countyId": "08"
      },
      "economicActivities": [
        {
          "id": "1.619.2",
          "name": "Venta al por mayor de aparatos e instrumentos médicos, ortopédicos, ópticos",
          "_links": {
            "self": {
              "name": "Venta al por mayor de aparatos e instrumentos médicos, ortopédicos, ópticos",
              "href": "https://api.euskadi.eus/procurements/companies/economic-activities/1.619.2"
            }
          }
        },
        {
          "id": "1.619.7",
          "name": "Venta al por mayor de instrumentos de precisión, medida y similares",
          "_links": {
            "self": {
              "name": "Venta al por mayor de instrumentos de precisión, medida y similares",
              "href": "https://api.euskadi.eus/procurements/companies/economic-activities/1.619.7"
            }
          }
        },
        {
          "id": "1.699",
          "name": "Otras reparaciones n.c.o.p",
          "_links": {
            "self": {
              "name": "Otras reparaciones n.c.o.p",
              "href": "https://api.euskadi.eus/procurements/companies/economic-activities/1.699"
            }
          }
        },
        {
          "id": "1.845",
          "name": "Explotación electrónica por cuenta de terceros",
          "_links": {
            "self": {
              "name": "Explotación electrónica por cuenta de terceros",
              "href": "https://api.euskadi.eus/procurements/companies/economic-activities/1.845"
            }
          }
        }
      ],
      "certificateStartDate": "2025-11-06",
      "certificateEndDate": "2026-05-04",
      "object": "EL DISEÑO, FABRICACIÓN, COMERCIALIZACIÓN, IMPORTACIÓN, EXPORTACIÓN, CONSERVACIÓN, REPARACIÓN, MONTAJE E INSTALACIÓN DE: TODO TIPO DE APARATOS, EQUIPOS, ACCESORIOS Y COMPLEMENTOS, ASÍ COMO MATERIALES Y PRODUCTOS DE USO HOSPITALARIO, DE INVESTIGACIÓN, LABORATORIO Y/O ELECTROMEDICINA. SISTEMAS DE AUTOMATIZACIÓN (ROBOTIZACIÓN). SISTEMAS INFORMÁTICOS Y PROGRAMAS DE LABORATORIO, CERRADOS Y A MEDIDA, ASÍ COMO SUS PERIFÉRICOS. B) LA REPRESENTACIÓN EN ESPAÑA DE FIRMAS NACIONALES Y EXTRANJERAS; C) EL ENVASADO Y PREPARACIÓN DE REACTIVOS QUÍMICOS; D) LA ACTIVIDAD DE GESTIÓN Y ADMINISTRACIÓN DE VALORES REPRESENTATIVOS DE LOS FONDOS PROPIOS DE ENTIDADES NO RESIDENTES EN TERRITORIO ESPAÑOL",
      "mainEntityOfPage": "https://www.contratacion.euskadi.eus/webkpe00-kperoc/es/ac71aBusquedaRegistrosWar/empresa/00578",
      "_links": {
        "self": {
          "name": "WERFEN ESPAÑA, S.A.",
          "href": "https://api.euskadi.eus/procurements/companies/00578"
        }
      }
    },
    {
      "name": "ETXARRI ARQUITECTURA, S.L.",
      "registrationNumber": "08163",
      "identificationNumber": "B02753309",
      "address": "Calle Ibañez de Bilbao",
      "location": {
        "postalCode": "48001",
        "municipality": "Bilbao",
        "county": "Bizkaia",
        "municipalityId": "020",
        "countyId": "48"
      },
      "economicActivities": [
        {
          "id": "1.843.2",
          "name": "Servicios técnicos de arquitectura y urbanismo",
          "_links": {
            "self": {
              "name": "Servicios técnicos de arquitectura y urbanismo",
              "href": "https://api.euskadi.eus/procurements/companies/economic-activities/1.843.2"
            }
          }
        }
      ],
      "certificateStartDate": "2025-11-06",
      "certificateEndDate": "2026-04-26",
      "object": "SERVICIOS TÉCNICOS DE ARQUITECTURA.",
      "mainEntityOfPage": "https://www.contratacion.euskadi.eus/webkpe00-kperoc/es/ac71aBusquedaRegistrosWar/empresa/08163",
      "_links": {
        "self": {
          "name": "ETXARRI ARQUITECTURA, S.L.",
          "href": "https://api.euskadi.eus/procurements/companies/08163"
        }
      }
    },
    {
      "name": "EMAUS - COMERCIO JUSTO, S.L.",
      "registrationNumber": "09663",
      "identificationNumber": "B20851994",
      "address": "Calle Mundaitz",
      "location": {
        "postalCode": "20012",
        "municipality": "Donostia / San Sebastián",
        "county": "Gipuzkoa",
        "municipalityId": "069",
        "countyId": "20"
      },
      "economicActivities": [
        {
          "id": "1.501.3",
          "name": "Albañilería y pequeños trabajos de construcción en general",
          "_links": {
            "self": {
              "name": "Albañilería y pequeños trabajos de construcción en general",
              "href": "https://api.euskadi.eus/procurements/companies/economic-activities/1.501.3"
            }
          }
        },
        {
          "id": "1.922.1",
          "name": "Servicios de limpieza de interiores",
          "_links": {
            "self": {
              "name": "Servicios de limpieza de interiores",
              "href": "https://api.euskadi.eus/procurements/companies/economic-activities/1.922.1"
            }
          }
        }
      ],
      "certificateStartDate": "2025-11-06",
      "certificateEndDate": "2026-05-06",
      "object": "LA PRESTACIÓN DE SERVICIOS DE MANTENIMIENTO (INCLUIDA LA REPARACIÓN DE APARATOS ELÉCTRICOS Y ELECTRÓNICOS, INCLUSO LOS DESECHADOS COMO RESIDUOS DOMICILIARIOS), SEGURIDAD, LIMPIEZA Y OFFICE DE VIVIENDAS, CENTROS RESIDENCIALES U OTROS EDIFICIOS Y LOCALES, ASÍ COMO CUALESQUIERA OTROS SERVICIOS PERSONALIZADOS QUE PUDIERAN SURGIR QUE TENGAN QUE VER CON EL CUIDADO Y LA MEJORA DE LA CALIDAD DE VIDA DE LAS PERSONAS QUE HABITAN O TRABAJAN EN ELLOS, A TRAVÉS DE CUYA ACTIVIDAD SE PRETENDE LA INTEGRACIÓN SOCIAL Y LABORAL DE PERSONAS EN SITUACIÓN O RIESGO DE EXCLUSIÓN SOCIAL CON ESPECIALES DIFICULTADES DE ACCESO AL EMPLEO Y EL FOMENTO DE LA ECONOMÍA SOCIAL Y SOLIDARIA.",
      "mainEntityOfPage": "https://www.contratacion.euskadi.eus/webkpe00-kperoc/es/ac71aBusquedaRegistrosWar/empresa/09663",
      "_links": {
        "self": {
          "name": "EMAUS - COMERCIO JUSTO, S.L.",
          "href": "https://api.euskadi.eus/procurements/companies/09663"
        }
      }
    },
    {
      "name": "IPAR HOTZ, S.L.",
      "registrationNumber": "10186",
      "identificationNumber": "B20827242",
      "address": "Pol Ubegun, pab 1 y 2",
      "location": {
        "postalCode": "20150",
        "municipality": "Villabona",
        "county": "Gipuzkoa",
        "municipalityId": "075",
        "countyId": "20"
      },
      "economicActivities": [
        {
          "id": "1.504.3",
          "name": "Instalaciones de frío, calor y acondicionamiento de aire",
          "_links": {
            "self": {
              "name": "Instalaciones de frío, calor y acondicionamiento de aire",
              "href": "https://api.euskadi.eus/procurements/companies/economic-activities/1.504.3"
            }
          }
        }
      ],
      "certificateStartDate": "2025-11-06",
      "certificateEndDate": "2026-05-06",
      "object": "LA INSTALACIÓN DE TODA CLASE DE APARATOS DE FRÍO Y CALOR, AIRE ACONDICIONADO, ETC.",
      "mainEntityOfPage": "https://www.contratacion.euskadi.eus/webkpe00-kperoc/es/ac71aBusquedaRegistrosWar/empresa/10186",
      "_links": {
        "self": {
          "name": "IPAR HOTZ, S.L.",
          "href": "https://api.euskadi.eus/procurements/companies/10186"
        }
      }
    },
    {
      "name": "EXEL EVENTOS, S.L.",
      "registrationNumber": "10190",
      "identificationNumber": "B95773495",
      "address": "Calle Luzarra 3, piso 2, Desuto",
      "location": {
        "postalCode": "48014",
        "municipality": "Bilbao",
        "county": "Bizkaia",
        "municipalityId": "020",
        "countyId": "48"
      },
      "economicActivities": [
        {
          "id": "1.965.4",
          "name": "Empresas de espectáculos",
          "_links": {
            "self": {
              "name": "Empresas de espectáculos",
              "href": "https://api.euskadi.eus/procurements/companies/economic-activities/1.965.4"
            }
          }
        },
        {
          "id": "1.989.2",
          "name": "Servicios de organización de congresos, asambleas y similares",
          "_links": {
            "self": {
              "name": "Servicios de organización de congresos, asambleas y similares",
              "href": "https://api.euskadi.eus/procurements/companies/economic-activities/1.989.2"
            }
          }
        }
      ],
      "certificateStartDate": "2025-11-06",
      "certificateEndDate": "2026-05-06",
      "object": "1.- LA ORGANIZACIÓN DE TODO TIPO DE EVENTOS DE OCIO, DEPORTIVOS, MUSICALES, TEATRALES, CULTURALES O CUALESQUIERA OTROS QUE PUEDAN TENER CABIDA EN LAS INSTALACIONES GESTIONADAS POR LA SOCIEDAD O QUE SE DESARROLLEN EN OTROS ESPACIOS. 2.- CAPTACIÓN, GESTIÓN Y EXPLOTACIÓN DE PATROCINIOS, MECENAZGOS Y SERVICIOS PUBLICITARIOS PARA LA FINANCIACIÓN DE LOS EVENTOS QUE SE CELEBREN EN SUS INSTALACIONES U OTROS ESPACIOS, ASÍ COMO DE LA DE LOS ESPACIOS QUE CONTRIBUYAN AL CUMPLIMIENTO DE SUS FINES. SOLICITAR Y GESTIONAR TODO TIPO DE AYUDAS Y SUBVENCIONES PARA EL CUMPLIMIENTO DE SUS FINES. EL COBRO DE LAS TARIFAS DEVENGADAS. 3.- SERVICIOS DE CONSULTORÍA EN EL MARCO DEL OCIO Y LA EXPERIENCIA OCIOSA A PARTICULARES Y/U OTRAS ORGANIZACIONES.",
      "mainEntityOfPage": "https://www.contratacion.euskadi.eus/webkpe00-kperoc/es/ac71aBusquedaRegistrosWar/empresa/10190",
      "_links": {
        "self": {
          "name": "EXEL EVENTOS, S.L.",
          "href": "https://api.euskadi.eus/procurements/companies/10190"
        }
      }
    },
    {
      "name": "SANGÜESA, S.A.",
      "registrationNumber": "06889",
      "identificationNumber": "A58312455",
      "address": "Gran Vía de Hortaleza, 71 2º 1ª",
      "location": {
        "postalCode": "28043",
        "municipality": "Madrid",
        "county": "Madrid",
        "municipalityId": "079",
        "countyId": "28"
      },
      "economicActivities": [
        {
          "id": "1.619.2",
          "name": "Venta al por mayor de aparatos e instrumentos médicos, ortopédicos, ópticos",
          "_links": {
            "self": {
              "name": "Venta al por mayor de aparatos e instrumentos médicos, ortopédicos, ópticos",
              "href": "https://api.euskadi.eus/procurements/companies/economic-activities/1.619.2"
            }
          }
        }
      ],
      "certificateStartDate": "2025-11-06",
      "certificateEndDate": "2026-05-06",
      "object": "LA DISTRIBUCIÓN, COMERCIALIZACIÓN DE TODO TIPO DE PRODUCTOS Y MATERIALES RELACIONADOS CON EL SECTOR HOSPITALARIO PUDIENDO DEDICARSE A CUALQUIER OTRA ACTIVIDAD DE LÍCITO COMERCIO PREVIO ACUERDO DE LA JUNTA GENERAL",
      "mainEntityOfPage": "https://www.contratacion.euskadi.eus/webkpe00-kperoc/es/ac71aBusquedaRegistrosWar/empresa/06889",
      "_links": {
        "self": {
          "name": "SANGÜESA, S.A.",
          "href": "https://api.euskadi.eus/procurements/companies/06889"
        }
      }
    },
    {
      "name": "NORCESPED SL",
      "registrationNumber": "06222",
      "identificationNumber": "B95614897",
      "address": "C/ Marques de Arriluce C-6, Puerto Deportivo ",
      "location": {
        "postalCode": "48992",
        "municipality": "Getxo",
        "county": "Bizkaia",
        "municipalityId": "044",
        "countyId": "48"
      },
      "economicActivities": [
        {
          "id": "1.505.1",
          "name": "Revestimientos exteriores e interiores de todas clases",
          "_links": {
            "self": {
              "name": "Revestimientos exteriores e interiores de todas clases",
              "href": "https://api.euskadi.eus/procurements/companies/economic-activities/1.505.1"
            }
          }
        }
      ],
      "certificateStartDate": "2025-11-06",
      "certificateEndDate": "2026-05-06",
      "object": "LA DISTRIBUCIÓN, VENTA E INSTALACIÓN DE CUALESQUIERA CLASE DE ELEMENTOS NATURALES O ARTIFICIALES DE JARDINERÍA O RELACIONADOS CON LA JARDINERÍA O COMPLEMENTOS DE LA MISMA Y ESPECIALMENTE CÉSPED ARTIFICIAL",
      "mainEntityOfPage": "https://www.contratacion.euskadi.eus/webkpe00-kperoc/es/ac71aBusquedaRegistrosWar/empresa/06222",
      "_links": {
        "self": {
          "name": "NORCESPED SL",
          "href": "https://api.euskadi.eus/procurements/companies/06222"
        }
      }
    }
  ]
}