{
  "totalItems": 9042,
  "totalPages": 905,
  "currentPage": 652,
  "itemsOfPage": 10,
  "items": [
    {
      "name": "TV LINK & BROADCAST S.L.",
      "registrationNumber": "05475",
      "identificationNumber": "B20975967",
      "address": "c/ Juan Gisasola 5 Bajo",
      "location": {
        "postalCode": "20600",
        "municipality": "Eibar",
        "county": "Gipuzkoa",
        "municipalityId": "030",
        "countyId": "20"
      },
      "economicActivities": [
        {
          "id": "1.845",
          "name": "Explotación electrónica por cuenta de terceros",
          "_links": {
            "self": {
              "name": "Explotación electrónica por cuenta de terceros",
              "href": "https://api.euskadi.eus/procurements/companies/economic-activities/1.845"
            }
          }
        }
      ],
      "certificateStartDate": "2016-02-24",
      "certificateEndDate": "2016-07-29",
      "object": "A) SERVICIOS INFORMÁTICOS Y DE TELECOMUNICACIONES EN EL SECTOR AUDIOVISUAL; SERVICIO DE GRAFISMO PARA EMISORAS DE TELEVISIÓN EN PROGRAMAS DEPORTIVOS. CONCURSOS, ELECTORALES Y DE OTRO TIPO; SERVICIOS AUDIOVISUALES A LOS VIAJEROS EN TRENES Y OTROS MEDIOS DE TRANSPORTE Y SERVICIO DE TRANSMISIÓN DE SEÑALES DE AUDIO VIDEO EN DIFERENTES EVENTOS. B) SERVICIOS INFORMÁTICOS, DE TELECOMUNICACIONES, CRONOMETRAJE Y CONTROL DE GPS EN EVENTOS DEPORTIVOS. C) PRODUCTOS ESPECIALIZADOS A MEDIDA EN EL SECTOR AUDIOVISUAL O SECTOR DEPORTIVO, CON DESARROLLO DE PRODUCTOS INFORMÁTICOS Y DE TELECOMUNICACIONES A MEDIDA. D) COMPRAVENTA DE EQUIPOS INFORMÁTICOS Y SUS PAQUETES, ASÍ COMO SERVICIOS DE MANTENIMIENTO INFORMÁTICO PARA EMPRESAS",
      "mainEntityOfPage": "https://www.contratacion.euskadi.eus/webkpe00-kperoc/es/ac71aBusquedaRegistrosWar/empresa/05475",
      "_links": {
        "self": {
          "name": "TV LINK & BROADCAST S.L.",
          "href": "https://api.euskadi.eus/procurements/companies/05475"
        }
      }
    },
    {
      "name": "AUXILIARTE FACTORÍA, S.L.",
      "registrationNumber": "05474",
      "identificationNumber": "B95301917",
      "address": "Cortes 8 lonja",
      "location": {
        "postalCode": "48003",
        "municipality": "Bilbao",
        "county": "Bizkaia",
        "municipalityId": "020",
        "countyId": "48"
      },
      "economicActivities": [
        {
          "id": "1.476.2",
          "name": "Edición de periódicos y revistas",
          "_links": {
            "self": {
              "name": "Edición de periódicos y revistas",
              "href": "https://api.euskadi.eus/procurements/companies/economic-activities/1.476.2"
            }
          }
        }
      ],
      "certificateStartDate": "2016-02-23",
      "certificateEndDate": "2016-07-13",
      "object": "1.- LAS ACTIVIDADES PROPIAS DEL SECTOR DE LAS ARTES GRÁFICAS Y LA COMUNICACIÓN, CONCRETAMENTE: - DISEÑOS REALIZADOS CON CUALQUIER HERRAMIENTA Y PUBLICADOS EN CUALQUIER SOPORTE., - MAQUETACIONES REALIZADOS CON CUALQUIER HERRAMIENTA Y PUBLICADOS EN CUALQUIER SOPORTE, - ELABORACIÓN Y EDICIÓN DE CONTENIDOS TANTO ESCRITOS COMO GRÁFICOS PARA PUBLICAR EN CUALQUIER SOPORTE, - DISTRIBUCIÓN DE CUALQUIER TIPO DE PUBLICACIÓN, - VENTA Y CONTRATACIÓN DE ESPACIOS PUBLICITARIOS EN CUALQUIER MEDIO Y SOPORTE, - VENTA DE CUALQUIER TIPO DE PUBLICACIONES - PRESTACIÓN DE CUALQUIER OTRO SERVICIO RELACIONADO CON LAS ARTES GRÁFICAS Y LA COMUNICACIÓN. 2.- ADQUIRIR, ENAJENAR Y ARRENDAR BIENES INMUEBLES (CONCRETAMENTE LOS DETERMINADOS EN EL ARTÍCULO 334.1 DEL CÓDIGO CIVIL), ACCIONES, PARTICIPACIONES SOCIALES, OBLIGACIONES, BONOS DE CAJA, CERTIFICADOS DE DEPÓSITO Y PAGARÉS DE TODA CLASE DE EMPRESAS O NEGOCIOS",
      "mainEntityOfPage": "https://www.contratacion.euskadi.eus/webkpe00-kperoc/es/ac71aBusquedaRegistrosWar/empresa/05474",
      "_links": {
        "self": {
          "name": "AUXILIARTE FACTORÍA, S.L.",
          "href": "https://api.euskadi.eus/procurements/companies/05474"
        }
      }
    },
    {
      "name": "FORMACIÓN Y SERVICIOS, ESCUELA DE CONDUCCIÓN, S.L.",
      "registrationNumber": "05473",
      "identificationNumber": "B01459791",
      "address": "Gorbea nº 52, 5º dcha",
      "location": {
        "postalCode": "01002",
        "municipality": "Vitoria-Gasteiz",
        "county": "Araba/Álava",
        "municipalityId": "059",
        "countyId": "01"
      },
      "economicActivities": [
        {
          "id": "1.932.1",
          "name": "Enseñanza de formación y perfeccionamiento profesional no superior",
          "_links": {
            "self": {
              "name": "Enseñanza de formación y perfeccionamiento profesional no superior",
              "href": "https://api.euskadi.eus/procurements/companies/economic-activities/1.932.1"
            }
          }
        }
      ],
      "certificateStartDate": "2016-02-19",
      "certificateEndDate": "2016-08-08",
      "object": "EL TRANSPORTE, TRANSPORTE DE VEHÍCULOS, FORMACIÓN PARA EL TRANSPORTE (TIERRA, MAR Y AIRE), COMPRA-VENTA DE VEHÍCULOS, ORGANIZACIÓN DE EVENTOS (NACIONAL E INTERNACIONAL), LOGÍSTICA NACIONAL E INTERNACIONAL PARA EL TRANSPORTE, TRANSITARIOS, ALMACENAJE Y DISTRIBUCIÓN, FORMACIÓN DE CONDUCTORES, FORMACIÓN DE CONDUCTORES PROFESIONALES -CAP DE MERCANCÍAS Y VIAJEROS-, FORMACIÓN DE CONDUCTORES DE MERCANCÍAS PELIGROSAS, FORMACIÓN DE CONDUCTORES DE MERCANCÍAS PERECEDERAS, FORMACIÓN DE CONDUCTORES DE ANIMALES VIVOS, FORMACIÓN DE CONSEJEROS DE SEGURIDAD, AUTOESCUELA -FORMACIÓN DE CONDUCTORES NOVELES-, FORMACIÓN DE PILOTOS, FORMACIÓN DE TCP, FORMACIÓN PARA LA CAPACITACIÓN PROFESIONAL DE TRANSPORTISTAS, FORMACIÓN TÉCNICAS DE CONDUCCIÓN RACIONAL Y EN SITUACIONES DE RIESGO, REALIZACIÓN DE INFORMES TÉCNICOS Y PERITAJE DE VEHÍCULOS, PRUEBAS DE VEHÍCULOS",
      "mainEntityOfPage": "https://www.contratacion.euskadi.eus/webkpe00-kperoc/es/ac71aBusquedaRegistrosWar/empresa/05473",
      "_links": {
        "self": {
          "name": "FORMACIÓN Y SERVICIOS, ESCUELA DE CONDUCCIÓN, S.L.",
          "href": "https://api.euskadi.eus/procurements/companies/05473"
        }
      }
    },
    {
      "name": "VIFASA 2012, S.L.",
      "registrationNumber": "04953",
      "identificationNumber": "B95675740",
      "address": "POL. IND. GRANADA FASE II NAVE 11",
      "location": {
        "postalCode": "48530",
        "municipality": "Ortuella",
        "county": "Bizkaia",
        "municipalityId": "083",
        "countyId": "48"
      },
      "economicActivities": [
        {
          "id": "1.314.1",
          "name": "Carpintería metálica",
          "_links": {
            "self": {
              "name": "Carpintería metálica",
              "href": "https://api.euskadi.eus/procurements/companies/economic-activities/1.314.1"
            }
          }
        },
        {
          "id": "1.505.5",
          "name": "Carpintería y cerrajería",
          "_links": {
            "self": {
              "name": "Carpintería y cerrajería",
              "href": "https://api.euskadi.eus/procurements/companies/economic-activities/1.505.5"
            }
          }
        }
      ],
      "certificateStartDate": "2016-02-17",
      "certificateEndDate": "2016-07-04",
      "object": ".",
      "mainEntityOfPage": "https://www.contratacion.euskadi.eus/webkpe00-kperoc/es/ac71aBusquedaRegistrosWar/empresa/04953",
      "_links": {
        "self": {
          "name": "VIFASA 2012, S.L.",
          "href": "https://api.euskadi.eus/procurements/companies/04953"
        }
      }
    },
    {
      "name": "LOREA MATERIAL CIENTÍFICO, S.L.",
      "registrationNumber": "01234",
      "identificationNumber": "B20339339",
      "address": "C/ AVENIDA DE ATEGORRIETA, Nº 11 - BAJO.",
      "location": {
        "postalCode": "20013",
        "municipality": "Donostia / San Sebastián",
        "county": "Gipuzkoa",
        "municipalityId": "069",
        "countyId": "20"
      },
      "economicActivities": [
        {
          "id": "1.619.7",
          "name": "Venta al por mayor de instrumentos de precisión, medida y similares",
          "_links": {
            "self": {
              "name": "Venta al por mayor de instrumentos de precisión, medida y similares",
              "href": "https://api.euskadi.eus/procurements/companies/economic-activities/1.619.7"
            }
          }
        }
      ],
      "certificateStartDate": "2016-02-16",
      "certificateEndDate": "2016-07-29",
      "object": "LA VENTA Y DISTRIBUCIÓN DE REACTIVOS Y MATERIAL PARA LABORATORIO. LAS ACTIVIDADES ENUMERADAS PODRÁN SER REALIZADAS POR LA SOCIEDAD, YA DIRECTAMENTE, YA INDIRECTAMENTE, INCLUSO MEDIANTE SU PARTICIPACIÓN EN OTRAS SOCIEDADES DE OBJETO IDÉNTICO O ANÁLOGO",
      "mainEntityOfPage": "https://www.contratacion.euskadi.eus/webkpe00-kperoc/es/ac71aBusquedaRegistrosWar/empresa/01234",
      "_links": {
        "self": {
          "name": "LOREA MATERIAL CIENTÍFICO, S.L.",
          "href": "https://api.euskadi.eus/procurements/companies/01234"
        }
      }
    },
    {
      "name": "J.A. PERAL, S.L.",
      "registrationNumber": "01935",
      "identificationNumber": "B48525000",
      "address": "POL. IND. EL CAMPILLO - EDIF. MEATZA 2º - DEP. 7",
      "location": {
        "postalCode": "48500",
        "municipality": "Abanto y Ciérvana-Abanto Zierbena",
        "county": "Bizkaia",
        "municipalityId": "002",
        "countyId": "48"
      },
      "economicActivities": [
        {
          "id": "1.921.1",
          "name": "Servicios de limpieza en calles, vías públicas y jardines",
          "_links": {
            "self": {
              "name": "Servicios de limpieza en calles, vías públicas y jardines",
              "href": "https://api.euskadi.eus/procurements/companies/economic-activities/1.921.1"
            }
          }
        },
        {
          "id": "1.921.2",
          "name": "Servicios de recogida de basuras y desechos",
          "_links": {
            "self": {
              "name": "Servicios de recogida de basuras y desechos",
              "href": "https://api.euskadi.eus/procurements/companies/economic-activities/1.921.2"
            }
          }
        },
        {
          "id": "1.922.1",
          "name": "Servicios de limpieza de interiores",
          "_links": {
            "self": {
              "name": "Servicios de limpieza de interiores",
              "href": "https://api.euskadi.eus/procurements/companies/economic-activities/1.922.1"
            }
          }
        }
      ],
      "certificateStartDate": "2016-02-12",
      "certificateEndDate": "2016-07-18",
      "object": "LA RECOGIDA DE BASURAS, SERVICIO DE LIMPIEZA. CONSTRUCCIÓN DE OBRAS, TANTO PÚBLICAS COMO PRIVADAS. CONTRATACIÓN DE SERVICIOS TANTO PÚBLICOS COMO PRIVADOS. EXCAVACIONES. BAR, RESTAURANTES, SALAS DE FIESTAS Y DISCOBARES",
      "mainEntityOfPage": "https://www.contratacion.euskadi.eus/webkpe00-kperoc/es/ac71aBusquedaRegistrosWar/empresa/01935",
      "_links": {
        "self": {
          "name": "J.A. PERAL, S.L.",
          "href": "https://api.euskadi.eus/procurements/companies/01935"
        }
      }
    },
    {
      "name": "AR-CLIN, S.A.",
      "registrationNumber": "01415",
      "identificationNumber": "A58313990",
      "address": "C/ CASPE, Nº 85 - 87, ENTLO. 3ª.",
      "location": {
        "postalCode": "08013",
        "municipality": "Barcelona",
        "county": "Barcelona",
        "municipalityId": "019",
        "countyId": "08"
      },
      "economicActivities": [
        {
          "id": "1.619.2",
          "name": "Venta al por mayor de aparatos e instrumentos médicos, ortopédicos, ópticos",
          "_links": {
            "self": {
              "name": "Venta al por mayor de aparatos e instrumentos médicos, ortopédicos, ópticos",
              "href": "https://api.euskadi.eus/procurements/companies/economic-activities/1.619.2"
            }
          }
        }
      ],
      "certificateStartDate": "2016-02-10",
      "certificateEndDate": "2016-07-05",
      "object": "LA VENTA Y DISTRIBUCIÓN DE TODO TIPO DE MEDICAMENTOS Y PRODUCTOS FARMACÉUTICOS. LA VENTA, INSTALACIÓN Y REPARACIÓN DE TODO TIPO DE APARATOS MÉDICOS, MÉDICO-QUIRÚRGICOS, ORTOPÉDICOS, ASÍ COMO SUS PIEZAS Y ACCESORIOS",
      "mainEntityOfPage": "https://www.contratacion.euskadi.eus/webkpe00-kperoc/es/ac71aBusquedaRegistrosWar/empresa/01415",
      "_links": {
        "self": {
          "name": "AR-CLIN, S.A.",
          "href": "https://api.euskadi.eus/procurements/companies/01415"
        }
      }
    },
    {
      "name": "ORIZKI, S.A.",
      "registrationNumber": "04500",
      "identificationNumber": "A20089710",
      "address": "MAYOR, Nº 12-3º",
      "location": {
        "postalCode": "20280",
        "municipality": "Hondarribia",
        "county": "Gipuzkoa",
        "municipalityId": "036",
        "countyId": "20"
      },
      "economicActivities": [
        {
          "id": "1.501.1",
          "name": "Construcción completa, reparación y conservación de edificaciones",
          "_links": {
            "self": {
              "name": "Construcción completa, reparación y conservación de edificaciones",
              "href": "https://api.euskadi.eus/procurements/companies/economic-activities/1.501.1"
            }
          }
        }
      ],
      "certificateStartDate": "2016-02-09",
      "certificateEndDate": "2016-07-18",
      "object": "CONSTRUCCIÓN, PROMOCIÓN Y VENTA DE OBRAS, TANTO PÚBLICAS COMO PRIVADAS",
      "mainEntityOfPage": "https://www.contratacion.euskadi.eus/webkpe00-kperoc/es/ac71aBusquedaRegistrosWar/empresa/04500",
      "_links": {
        "self": {
          "name": "ORIZKI, S.A.",
          "href": "https://api.euskadi.eus/procurements/companies/04500"
        }
      }
    },
    {
      "name": "ADOS RED DE CAMPO, S.L.",
      "registrationNumber": "03171",
      "identificationNumber": "B20898623",
      "address": "KASKOTEGI, 8-2º C",
      "location": {
        "postalCode": "20305",
        "municipality": "Irun",
        "county": "Gipuzkoa",
        "municipalityId": "045",
        "countyId": "20"
      },
      "economicActivities": [
        {
          "id": "1.846",
          "name": "Empresas de estudios de mercado",
          "_links": {
            "self": {
              "name": "Empresas de estudios de mercado",
              "href": "https://api.euskadi.eus/procurements/companies/economic-activities/1.846"
            }
          }
        }
      ],
      "certificateStartDate": "2016-01-25",
      "certificateEndDate": "2016-07-05",
      "object": "ESTUDIOS DE MERCADO, ESTUDIOS DE OPINIÓN Y DE HÁBITOS DE COMPRA, ANÁLISIS Y GRABACIÓN DE DATOS, REALIZACIÓN DE ENCUESTAS POR DIVERSOS MEDIOS, ASÍ COMO OTROS SERVICIOS INDEPENDIENTES DE INFORMACIÓN E INVESTIGACIÓN COMERCIAL",
      "mainEntityOfPage": "https://www.contratacion.euskadi.eus/webkpe00-kperoc/es/ac71aBusquedaRegistrosWar/empresa/03171",
      "_links": {
        "self": {
          "name": "ADOS RED DE CAMPO, S.L.",
          "href": "https://api.euskadi.eus/procurements/companies/03171"
        }
      }
    },
    {
      "name": "SANTUCHU GRUPO EMPRESARIAL, S.A.",
      "registrationNumber": "02380",
      "identificationNumber": "A48070858",
      "address": "SANTUTXU, 37",
      "location": {
        "postalCode": "48004",
        "municipality": "Bilbao",
        "county": "Bizkaia",
        "municipalityId": "020",
        "countyId": "48"
      },
      "economicActivities": [
        {
          "id": "1.501.1",
          "name": "Construcción completa, reparación y conservación de edificaciones",
          "_links": {
            "self": {
              "name": "Construcción completa, reparación y conservación de edificaciones",
              "href": "https://api.euskadi.eus/procurements/companies/economic-activities/1.501.1"
            }
          }
        },
        {
          "id": "1.504.2",
          "name": "Instalaciones de fontanería",
          "_links": {
            "self": {
              "name": "Instalaciones de fontanería",
              "href": "https://api.euskadi.eus/procurements/companies/economic-activities/1.504.2"
            }
          }
        },
        {
          "id": "1.631",
          "name": "Intermediarios del comercio",
          "_links": {
            "self": {
              "name": "Intermediarios del comercio",
              "href": "https://api.euskadi.eus/procurements/companies/economic-activities/1.631"
            }
          }
        },
        {
          "id": "1.653.4",
          "name": "Venta al por menor de material de construcción y mobiliario de saneamiento",
          "_links": {
            "self": {
              "name": "Venta al por menor de material de construcción y mobiliario de saneamiento",
              "href": "https://api.euskadi.eus/procurements/companies/economic-activities/1.653.4"
            }
          }
        }
      ],
      "certificateStartDate": "2016-01-22",
      "certificateEndDate": "2016-06-01",
      "object": "LA REALIZACIÓN DE TODAS LAS OPERACIONES INDUSTRIALES, COMERCIALES Y DE SERVICIOS, RELACIONADAS CON LA CRISTALERÍA, FONTANERÍA, HOJALATERÍA Y ACTIVIDADES ANÁLOGAS, PARA EL ACONDICINAMIENTO Y MANUTENCIÓN DE TODA CLASE DE EDIFICIOS Y SUS SERVICIOS.\r\nASÍMISMO LA EMPRESA PODRÁ REALIZAR TODO TIPO DE OBRAS E INSTALACIONES EN SU MÁS AMPLIO SENTIDO",
      "mainEntityOfPage": "https://www.contratacion.euskadi.eus/webkpe00-kperoc/es/ac71aBusquedaRegistrosWar/empresa/02380",
      "_links": {
        "self": {
          "name": "SANTUCHU GRUPO EMPRESARIAL, S.A.",
          "href": "https://api.euskadi.eus/procurements/companies/02380"
        }
      }
    }
  ]
}