{
  "totalItems": 9042,
  "totalPages": 905,
  "currentPage": 328,
  "itemsOfPage": 10,
  "items": [
    {
      "name": "INSTALACIONES DE HOSTELERIA IBAÑEZ, S.L.",
      "registrationNumber": "09983",
      "identificationNumber": "B95106647",
      "address": "Juan de Ajuriaguerra, 35 bajo",
      "location": {
        "postalCode": "48009",
        "municipality": "Bilbao",
        "county": "Bizkaia",
        "municipalityId": "020",
        "countyId": "48"
      },
      "economicActivities": [
        {
          "id": "1.654.5",
          "name": "Venta al por menor de toda clase de maquinaría",
          "_links": {
            "self": {
              "name": "Venta al por menor de toda clase de maquinaría",
              "href": "https://api.euskadi.eus/procurements/companies/economic-activities/1.654.5"
            }
          }
        }
      ],
      "certificateStartDate": "2025-08-14",
      "certificateEndDate": "2026-02-13",
      "object": "1) .- LA REALIZACIÓN DE ESTUDIOS, PROYECTOS, PLANIFICACIONES, INSTALACIONES Y TRABAJOS DIRIGIDOS A LOS GREMIOS DE HOSTELERÍA, CARNICERÍAS Y PESCADERÍAS, INCLUIDAS LAS INSTALACIONES DE FRIO, CALOR Y ACONDICIONAMIENTO DE AIRE, INSONORIZACIONES, PROYECTOS GLOBALES, LLAVE EN MANO; Y, EN RELACIÓN CON LO APUNTADO, LA COMPRA, VENTA, COMERCIALIZACIÓN, DISTRIBUCIÓN, REPARACIÓN, IMPORTACIÓN Y EXPORTACIÓN DE MAQUINARIAS, MOBILIARIO Y PRODUCTOS QUE TENGAN RELACIÓN DIRECTA CON DICHOS RAMOS. 2) .- EL ESTUDIO DE PROYECTOS, PARA RESTAURAR, DECORAR Y AMUEBLAR LOS NEGOCIOS QUE TENGAN RELACIÓN DIRECTA CON LOS INDICADOS GREMIOS DE HOSTELERÍA, CARNICERÍAS Y PESCADERÍAS; 3) .- LA REPRESENTACIÓN, COMERCIALIZACIÓN Y VENTA DE MAQUINARIA, MOBILIARIO Y MATERIALES DESTINADOS A LAS ACTIVIDADES QUE SE ESPECÍFICA EN LOS APARTADOS PRECEDENTES; Y, REPRESENTACIONES Y ACTIVIDADES DE MEDIACIÓN, TANTO PARA LA INDUSTRIA COMO PARA EL COMERCIO, INCLUIDOS LOS SERVICIOS, TANTO TÉCNICOS COMO DE ASISTENCIA, ALMACENISTA, MAYORISTA, EXCLUSIVISTA, CON SU IMPORTACIÓN Y EXPORTACIÓN. 4) .- EL ESTUDIO Y RESOLUCIÓN DE TODAS CUANTAS  CUESTIONES TÉCNICAS Y DE CUALQUIER ORDEN, RELACIONADAS CON EL OBJETO Y OBJETOS PRINCIPALES PUEDAN  PLANTEARSE.",
      "mainEntityOfPage": "https://www.contratacion.euskadi.eus/webkpe00-kperoc/es/ac71aBusquedaRegistrosWar/empresa/09983",
      "_links": {
        "self": {
          "name": "INSTALACIONES DE HOSTELERIA IBAÑEZ, S.L.",
          "href": "https://api.euskadi.eus/procurements/companies/09983"
        }
      }
    },
    {
      "name": "SERVICIOS ENKARTERRI SL",
      "registrationNumber": "05924",
      "identificationNumber": "B95180568",
      "address": "VIRGEN DE GRACIA 17",
      "location": {
        "postalCode": "48800",
        "municipality": "Balmaseda",
        "county": "Bizkaia",
        "municipalityId": "090",
        "countyId": "48"
      },
      "economicActivities": [
        {
          "id": "1.659.7",
          "name": "Venta al por menor de semillas, abonos, flores, plantas y pequeños animales",
          "_links": {
            "self": {
              "name": "Venta al por menor de semillas, abonos, flores, plantas y pequeños animales",
              "href": "https://api.euskadi.eus/procurements/companies/economic-activities/1.659.7"
            }
          }
        },
        {
          "id": "1.911",
          "name": "Servicios agrícolas y ganaderos",
          "_links": {
            "self": {
              "name": "Servicios agrícolas y ganaderos",
              "href": "https://api.euskadi.eus/procurements/companies/economic-activities/1.911"
            }
          }
        },
        {
          "id": "1.912",
          "name": "Servicios forestales",
          "_links": {
            "self": {
              "name": "Servicios forestales",
              "href": "https://api.euskadi.eus/procurements/companies/economic-activities/1.912"
            }
          }
        },
        {
          "id": "1.922",
          "name": "Servicios de limpieza",
          "_links": {
            "self": {
              "name": "Servicios de limpieza",
              "href": "https://api.euskadi.eus/procurements/companies/economic-activities/1.922"
            }
          }
        }
      ],
      "certificateStartDate": "2025-08-14",
      "certificateEndDate": "2026-01-29",
      "object": "1.- SERVICIOS DE JARDINERÍA YLIMPIEZA DE CAMINOS Y CARRETERAS. LIMPIEZA DE EDIFICIOS Y LOCALES. 2.- SERVICIOS FORETALES, COMO DESBROCES, PLNTACIONES, CIERRES Y TALAS. 3.- COMPRA Y VENTA DE ÁRBOLES Y PLANTAS. 4.- COMPRA Y VENTA DE TODA CLASE DE FINCAS RÚSTICAS Y URBANAS, OSEA, DE INMUEBLES EN GENERAL. 5.-VENTA DE FITOSANITARIOS, ABONOS Y PRODUCTOS RELACIONADOS CON LA AGRICULTURA Y JARDINERÍA. 6.- VENTA Y REPARACIÓN DE MAQUINARIA AGRÍCOLA Y DE JARDINERÍA",
      "mainEntityOfPage": "https://www.contratacion.euskadi.eus/webkpe00-kperoc/es/ac71aBusquedaRegistrosWar/empresa/05924",
      "_links": {
        "self": {
          "name": "SERVICIOS ENKARTERRI SL",
          "href": "https://api.euskadi.eus/procurements/companies/05924"
        }
      }
    },
    {
      "name": "TRADUCTORES-INTÉRPRETES GDS, S.L.",
      "registrationNumber": "02089",
      "identificationNumber": "B01270347",
      "address": "C/ SEBASTIÁN FDEZ. DE LECETA, Nº 7 - 2º C",
      "location": {
        "postalCode": "01009",
        "municipality": "Vitoria-Gasteiz",
        "county": "Araba/Álava",
        "municipalityId": "059",
        "countyId": "01"
      },
      "economicActivities": [
        {
          "id": "1.844",
          "name": "Servicios de publicidad, relaciones públicas y similares",
          "_links": {
            "self": {
              "name": "Servicios de publicidad, relaciones públicas y similares",
              "href": "https://api.euskadi.eus/procurements/companies/economic-activities/1.844"
            }
          }
        },
        {
          "id": "1.849.3",
          "name": "Servicios de traducción y similares",
          "_links": {
            "self": {
              "name": "Servicios de traducción y similares",
              "href": "https://api.euskadi.eus/procurements/companies/economic-activities/1.849.3"
            }
          }
        }
      ],
      "certificateStartDate": "2025-08-13",
      "certificateEndDate": "2026-02-13",
      "object": "LA REALIZACIÓN DE TRABAJOS DE TRADUCCIONES DE DOCUMENTOS A TODA CLASE DE IDIOMAS",
      "mainEntityOfPage": "https://www.contratacion.euskadi.eus/webkpe00-kperoc/es/ac71aBusquedaRegistrosWar/empresa/02089",
      "_links": {
        "self": {
          "name": "TRADUCTORES-INTÉRPRETES GDS, S.L.",
          "href": "https://api.euskadi.eus/procurements/companies/02089"
        }
      }
    },
    {
      "name": "ESTUDIOS DURERO, S.L.",
      "registrationNumber": "02469",
      "identificationNumber": "B48994214",
      "address": "POLÍGONO UGALDEGUREN III. PARCELA P-29-2",
      "location": {
        "postalCode": "48170",
        "municipality": "Zamudio",
        "county": "Bizkaia",
        "municipalityId": "905",
        "countyId": "48"
      },
      "certificateStartDate": "2025-08-13",
      "certificateEndDate": "2026-02-13",
      "object": "LA ACTIVIDAD DE REPRODUCCIÓN DE TEXTOS O IMÁGENES DESTINADOS A LA IMPRESIÓN, COMPOSICIÓN E IMPRESIÓN DE TEXTOS O IMÁGENES POR CUALQUIER PROCEDIMIENTO O SISTEMA, LABORATORIO FOTOGRÁFICO Y CINEMATOGRÁFICO, INTERMEDIACIÓN Y AGENCIA COMERCIAL, COMERCIALIZACIÓN DE APARATOS Y MAQUINARIA DESTINADOS A LA IMPRESIÓN, COMPOSICIÓN Y REPRODUCCIÓN DE TEXTOS O IMÁGENES, DIBUJO TÉCNICO, ALQUILER DE MAQUINARIA INDUSTRIAL, ASÍ COMO LA COMPRA-VENTA DE BIENES INMUEBLES.",
      "mainEntityOfPage": "https://www.contratacion.euskadi.eus/webkpe00-kperoc/es/ac71aBusquedaRegistrosWar/empresa/02469",
      "_links": {
        "self": {
          "name": "ESTUDIOS DURERO, S.L.",
          "href": "https://api.euskadi.eus/procurements/companies/02469"
        }
      }
    },
    {
      "name": "NOVOTEC CONSULTORES, S.A.",
      "registrationNumber": "02023",
      "identificationNumber": "A78068202",
      "address": "C/ ARTURO SORIA, Nº 343.",
      "location": {
        "postalCode": "28033",
        "municipality": "Madrid",
        "county": "Madrid",
        "municipalityId": "079",
        "countyId": "28"
      },
      "economicActivities": [
        {
          "id": "1.843.1",
          "name": "Servicios técnicos de ingeniería",
          "_links": {
            "self": {
              "name": "Servicios técnicos de ingeniería",
              "href": "https://api.euskadi.eus/procurements/companies/economic-activities/1.843.1"
            }
          }
        },
        {
          "id": "1.843.9",
          "name": "Otros servicios técnicos n.c.o.p",
          "_links": {
            "self": {
              "name": "Otros servicios técnicos n.c.o.p",
              "href": "https://api.euskadi.eus/procurements/companies/economic-activities/1.843.9"
            }
          }
        },
        {
          "id": "1.847",
          "name": "Servicios de consultoría",
          "_links": {
            "self": {
              "name": "Servicios de consultoría",
              "href": "https://api.euskadi.eus/procurements/companies/economic-activities/1.847"
            }
          }
        },
        {
          "id": "1.932.1",
          "name": "Enseñanza de formación y perfeccionamiento profesional no superior",
          "_links": {
            "self": {
              "name": "Enseñanza de formación y perfeccionamiento profesional no superior",
              "href": "https://api.euskadi.eus/procurements/companies/economic-activities/1.932.1"
            }
          }
        },
        {
          "id": "1.932.2",
          "name": "Enseñanza de formación y perfeccionamiento profesional superior",
          "_links": {
            "self": {
              "name": "Enseñanza de formación y perfeccionamiento profesional superior",
              "href": "https://api.euskadi.eus/procurements/companies/economic-activities/1.932.2"
            }
          }
        }
      ],
      "certificateStartDate": "2025-08-13",
      "certificateEndDate": "2026-02-11",
      "object": "LA REALIZACIÓN DE TODO TIPO DE SERVICIOS RELACIONADOS CON LA ORGANIZACIÓN, LA CALIDAD, LA FIABILIDAD Y LA SEGURIDAD DE PRODUCTOS Y PLANTAS INDUSTRIALES, MEDIOS DE DEFENSA NACIONAL, MEDIO AMBIENTE, EDIFICACIONES E INSTALACIONES FABRILES, DE TRANSPORTES, COMUNICACIONES O DE SERVICIOS EN GENERAL, Y DEL SOFTWARE Y HARDWARE UTILIZADOS EN LA INFORMÁTICA. LA PRESTACIÓN DE ESTOS SERVICIOS SE REALIZARÁ BAJO LA FORMA DE ASISTENCIA TÉCNICA, ASESORÍA LEGAL, ESTUDIOS, CONSULTORÍA, SUPERVISIÓN, INSPECCIÓN, AUDITORÍA, FORMACIÓN Y CUALIFICACIÓN PERSONAL TÉCNICO, O CUALQUIER OTRO QUE TIENDA A GARANTIZAR UNA MEJOR GESTIÓN DE LA CALIDAD Y DE LA SEGURIDAD; UNA MEJOR GESTIÓN DE LOS PROYECTOS, DE LA PRODUCCIÓN Y DEL MANTENIMIENTO, Y UNA MEJOR ORGANIZACIÓN EN GENERAL. LOS SERVICIOS CITADOS SE REALIZAN EN CUALQUIER FASE DE LOS PROCESOS PRODUCTIVOS: DISEÑO, COMPRAS, FABRICACIÓN, CONSTRUCCIÓN, MONTAJE, PUESTA EN MARCHA, MANTENIMIENTO Y PRODUCCIÓN, Y PODRÁN REFERIRSE A CUALQUIERA DE LAS ÁREAS TÉCNICAS: MECÁNICA, ELÉCTRICA, ELECTRÓNICA, MICROELECTRÓNICA, INFORMÁTICA, CONSTRUCCIÓN CIVIL Y NUEVAS TECNOLOGÍAS EN GENERAL",
      "mainEntityOfPage": "https://www.contratacion.euskadi.eus/webkpe00-kperoc/es/ac71aBusquedaRegistrosWar/empresa/02023",
      "_links": {
        "self": {
          "name": "NOVOTEC CONSULTORES, S.A.",
          "href": "https://api.euskadi.eus/procurements/companies/02023"
        }
      }
    },
    {
      "name": "SERVICIOS DE MANTENIMIENTO HERCA, S.A.",
      "registrationNumber": "07429",
      "identificationNumber": "A48148613",
      "address": "CAMINO SANGRONIZ, Nº 6 (ELKARTEGIA) - MODULO 5 B",
      "location": {
        "postalCode": "48150",
        "municipality": "Sondika",
        "county": "Bizkaia",
        "municipalityId": "904",
        "countyId": "48"
      },
      "economicActivities": [
        {
          "id": "1.507",
          "name": "Construcción, reparación y conservación de toda clase obras",
          "_links": {
            "self": {
              "name": "Construcción, reparación y conservación de toda clase obras",
              "href": "https://api.euskadi.eus/procurements/companies/economic-activities/1.507"
            }
          }
        }
      ],
      "certificateStartDate": "2025-08-12",
      "certificateEndDate": "2026-02-12",
      "object": "-\tLA REALIZACIÓN DE MONTAJES E INSTALACIONES INDUSTRIALES, CALDERERÍAS, TUBERÍAS Y DEMÁS PRODUCTOS SIDEROMETALÚRGICOS DE SIMILAR ÍNDOLE, ASÍ COMO SU TRATAMIENTO, RECOMPOSICIÓN, REPARACIÓN, REVISIÓN, MANTENIMIENTO Y DEMÁS ACTIVIDADES DIRECTA O INDIRECTAMENTE RELACIONADAS CON EL MISMO. -\tLA CONTRATACIÓN Y CONSTRUCCIÓN DE TODA CLASE DE OBRAS POR CUENTA PROPIA O AJENA, Y SIN QUE ESTO SEA LIMITATIVO, YA SE TRATE DE EDIFICIOS PARA LA VIVIENDA, LA INDUSTRIA O EL COMERCIO, TÚNELES, CAMINOS, VIALES, PISTAS, CALLES, URBANIZACIONES EN GENERAL, OBRAS DE INFRAESTRUCTURA, OBRAS PÚBLICAS, CIMENTACIONES, EXCAVACIONES Y EXPLANACIONES, DEMOLICIONES, MOVIMIENTOS DE TIERRAS Y MATERIALES DE TODO TIPO, Y YA SE TRATE DE CONTRATACIÓN CON PARTICULARES O ENTIDADES, CON EL ESTADO, COMUNIDADES AUTÓNOMAS, CORPORACIONES LOCALES, O ENTIDADES PARAESTATALES, BIEN POR CONCIERTO DIRECTO, CONCURSO, CONCURSO-SUBASTAS, DESTAJO, CESIÓN O CUALQUIER OTRO CONTRATO, LA PROMOCIÓN DE VIVIENDAS TANTO DE LAS DENOMINADAS DE PROTECCIÓN OFICIAL, COMO LIBRES, LA URBANIZACIÓN , ACONDICIONAMIENTO Y PREPARACIÓN DE TERRENO PARA CUALQUIER TIPO DE CONSTRUCCIÓN. -\tLA COMPRA-VENTA Y ALQUILER DE MAQUINARIA, VEHÍCULOS INDUSTRIALES, MOTORES, ACCESORIOS, TANTO VENTA AL CONTADO COMO A LARGO PLAZO, ASÍ COMO IMPORTACIÓN Y EXPORTACIÓN, INSTALACIÓN Y EXPLOTACIÓN DE TALLER DE REPARACIÓN DE MOTORES Y MAQUINARIA. -\tCONSTRUCCIÓN REPARACIÓN Y CONSERVACIÓN DE TODA CLASE DE OBRAS. -\tMONTAJES METALICOS E INSTALACIONES INDUSTRIALES COMPLETAS SIN VENDER NI APORTAR MAQUINARIA OBJETO DE LA INSTALACIÓN O MONTAJE.\n",
      "mainEntityOfPage": "https://www.contratacion.euskadi.eus/webkpe00-kperoc/es/ac71aBusquedaRegistrosWar/empresa/07429",
      "_links": {
        "self": {
          "name": "SERVICIOS DE MANTENIMIENTO HERCA, S.A.",
          "href": "https://api.euskadi.eus/procurements/companies/07429"
        }
      }
    },
    {
      "name": "MAILUK MUSIKA ETA KULTURA, S.L.",
      "registrationNumber": "10050",
      "identificationNumber": "B75311795",
      "address": "Avenida Iruña-Veleia (01015) 87, 3B",
      "location": {
        "postalCode": "01015",
        "municipality": "Vitoria-Gasteiz",
        "county": "Araba/Álava",
        "municipalityId": "059",
        "countyId": "01"
      },
      "economicActivities": [
        {
          "id": "1.390",
          "name": "OTRAS ACTIVIDADES RELACIONADAS CON LA MUSICA",
          "_links": {
            "self": {
              "name": "OTRAS ACTIVIDADES RELACIONADAS CON LA MUSICA",
              "href": "https://api.euskadi.eus/procurements/companies/economic-activities/1.390"
            }
          }
        },
        {
          "id": "1.933.9",
          "name": "Otras actividades de enseñanza tales como idiomas, mecanografía",
          "_links": {
            "self": {
              "name": "Otras actividades de enseñanza tales como idiomas, mecanografía",
              "href": "https://api.euskadi.eus/procurements/companies/economic-activities/1.933.9"
            }
          }
        }
      ],
      "certificateStartDate": "2025-08-12",
      "certificateEndDate": "2026-07-28",
      "object": "-LA ENSEÑANZA Y FORMACIÓN MUSICAL EN TODAS SUS MODALIDADES, INCLUYENDO LA IMPARTICIÓN DE CLASES DE MÚSICA, TANTO TEÓRICAS COMO PRÁCTICAS, PARA TODO TIPO DE INSTRUMENTOS Y ESTILOS MUSICALES, ASÍ COMO LA ORGANIZACIÓN DE TALLERES, CURSOS Y ACTIVIDADES DIDÁCTICAS RELACIONADAS CON LA MÚSICA Y OTRAS DISCIPLINAS ARTÍSTICAS. -LA ORGANIZACIÓN, PRODUCCIÓN Y PROMOCIÓN DE ESPECTÁCULOS TEATRALES, MUSICALES, Y DE OTROS EVENTOS CULTURALES. -LA REPRESENTACIÓN Y GESTIÓN DE ARTISTAS, MÚSICOS, GRUPOS MUSICALES, ACTORES Y OTROS PROFESIONALES DEL ÁMBITO CULTURAL. -LA PRODUCCIÓN, EDICIÓN, GRABACIÓN Y DISTRIBUCIÓN DE OBRAS MUSICALES, AUDIOVISUALES Y TEATRALES. -LA GESTIÓN Y EXPLOTACIÓN DE LOCALES E INSTALACIONES DEDICADAS A LA MÚSICA, EL TEATRO Y OTRAS ACTIVIDADES CULTURALES. -LA COMERCIALIZACIÓN, DISTRIBUCIÓN Y VENTA DE PRODUCTOS RELACIONADOS CON LA MÚSICA Y LAS ARTES. -LA PRESTACIÓN DE SERVICIOS DE ASESORAMIENTO Y CONSULTORÍA EN EL ÁMBITO DE LA CULTURA Y EL ENTRETENIMIENTO.",
      "mainEntityOfPage": "https://www.contratacion.euskadi.eus/webkpe00-kperoc/es/ac71aBusquedaRegistrosWar/empresa/10050",
      "_links": {
        "self": {
          "name": "MAILUK MUSIKA ETA KULTURA, S.L.",
          "href": "https://api.euskadi.eus/procurements/companies/10050"
        }
      }
    },
    {
      "name": "GRUPO ASTER EXCLUSIVAS INDUSTRIALES SL",
      "registrationNumber": "08419",
      "identificationNumber": "B31700560",
      "address": "Poligono Noain Esquiroz  G54",
      "location": {
        "postalCode": "31191",
        "municipality": "Galar",
        "county": "Navarra",
        "municipalityId": "109",
        "countyId": "31"
      },
      "economicActivities": [
        {
          "id": "1.501.3",
          "name": "Albañilería y pequeños trabajos de construcción en general",
          "_links": {
            "self": {
              "name": "Albañilería y pequeños trabajos de construcción en general",
              "href": "https://api.euskadi.eus/procurements/companies/economic-activities/1.501.3"
            }
          }
        },
        {
          "id": "1.653.9",
          "name": "Venta al por menor de otros artículos para el equipamiento del hogar",
          "_links": {
            "self": {
              "name": "Venta al por menor de otros artículos para el equipamiento del hogar",
              "href": "https://api.euskadi.eus/procurements/companies/economic-activities/1.653.9"
            }
          }
        }
      ],
      "certificateStartDate": "2025-08-12",
      "certificateEndDate": "2026-02-10",
      "object": "LA COMPRA, VENTA, DISEÑO, MONTAJE, INSTALACIÓN, REPARACIÓN, MANTENIMIENTO Y COMERCIALIZACIÓN DE ELECTRODOMÉSTICOS, MAQUINARIA PARA HOSTELERÍA Y MOBILIARIO DE TODO TIPO, EN UN PLANO INDUSTRIAL Y COMERCIAL. LA COMPRA, VENTA Y COMERCIALIZACIÓN DE PRODUCTOS QUÍMICOS DE USO INDUSTRIAL Y DE LIMPIEZA.",
      "mainEntityOfPage": "https://www.contratacion.euskadi.eus/webkpe00-kperoc/es/ac71aBusquedaRegistrosWar/empresa/08419",
      "_links": {
        "self": {
          "name": "GRUPO ASTER EXCLUSIVAS INDUSTRIALES SL",
          "href": "https://api.euskadi.eus/procurements/companies/08419"
        }
      }
    },
    {
      "name": "LOGIMOBEL XXI, S.L.",
      "registrationNumber": "02908",
      "identificationNumber": "B95262655",
      "address": "POLÍGONO MARTIARTU, CALLE II, 23 (NAVE)",
      "location": {
        "postalCode": "48480",
        "municipality": "Arrigorriaga",
        "county": "Bizkaia",
        "municipalityId": "011",
        "countyId": "48"
      },
      "economicActivities": [
        {
          "id": "1.505.5",
          "name": "Carpintería y cerrajería",
          "_links": {
            "self": {
              "name": "Carpintería y cerrajería",
              "href": "https://api.euskadi.eus/procurements/companies/economic-activities/1.505.5"
            }
          }
        },
        {
          "id": "1.722",
          "name": "Transporte de mercancías por carretera",
          "_links": {
            "self": {
              "name": "Transporte de mercancías por carretera",
              "href": "https://api.euskadi.eus/procurements/companies/economic-activities/1.722"
            }
          }
        }
      ],
      "certificateStartDate": "2025-08-12",
      "certificateEndDate": "2026-02-05",
      "object": "EL ALMACENAMIENTO, MUDANZA, TRANSPORTE Y MONTAJE DE MUEBLES, ASÍ COMO EL TRANSPORTE DE MERCANCÍAS POR CARRETERA, TANTO A NIVEL NACIONAL COMO INTERNACIONAL",
      "mainEntityOfPage": "https://www.contratacion.euskadi.eus/webkpe00-kperoc/es/ac71aBusquedaRegistrosWar/empresa/02908",
      "_links": {
        "self": {
          "name": "LOGIMOBEL XXI, S.L.",
          "href": "https://api.euskadi.eus/procurements/companies/02908"
        }
      }
    },
    {
      "name": "JOSE MANUEL LOPEZ SANZ",
      "registrationNumber": "10026",
      "identificationNumber": "15360389T",
      "address": "Avenida Bizkaia 1 - 1º B",
      "location": {
        "postalCode": "48260",
        "municipality": "Ermua",
        "county": "Bizkaia",
        "municipalityId": "034",
        "countyId": "48"
      },
      "economicActivities": [
        {
          "id": "1.849.5",
          "name": "Servicios de recadería y reparto y manipulación de correspondencia",
          "_links": {
            "self": {
              "name": "Servicios de recadería y reparto y manipulación de correspondencia",
              "href": "https://api.euskadi.eus/procurements/companies/economic-activities/1.849.5"
            }
          }
        }
      ],
      "certificateStartDate": "2025-08-12",
      "certificateEndDate": "2026-01-30",
      "object": "SERVICIOS DE RECADERÍA Y REPARTO Y MANIPULACIÓN DE CORRESPONDENCIA.",
      "mainEntityOfPage": "https://www.contratacion.euskadi.eus/webkpe00-kperoc/es/ac71aBusquedaRegistrosWar/empresa/10026",
      "_links": {
        "self": {
          "name": "JOSE MANUEL LOPEZ SANZ",
          "href": "https://api.euskadi.eus/procurements/companies/10026"
        }
      }
    }
  ]
}