{
  "totalItems": 9042,
  "totalPages": 905,
  "currentPage": 598,
  "itemsOfPage": 10,
  "items": [
    {
      "name": "SANTIAGO GARCIA ORDOÑEZ",
      "registrationNumber": "06485",
      "identificationNumber": "14598322S",
      "address": "CALLE VICTOR, Nº 4 - 1º A",
      "location": {
        "postalCode": "48005",
        "municipality": "Bilbao",
        "county": "Bizkaia",
        "municipalityId": "020",
        "countyId": "48"
      },
      "economicActivities": [
        {
          "id": "2.731",
          "name": "Abogados",
          "_links": {
            "self": {
              "name": "Abogados",
              "href": "https://api.euskadi.eus/procurements/companies/economic-activities/2.731"
            }
          }
        }
      ],
      "certificateStartDate": "2019-09-24",
      "certificateEndDate": "2020-03-09",
      "object": "ABOGADOS",
      "mainEntityOfPage": "https://www.contratacion.euskadi.eus/webkpe00-kperoc/es/ac71aBusquedaRegistrosWar/empresa/06485",
      "_links": {
        "self": {
          "name": "SANTIAGO GARCIA ORDOÑEZ",
          "href": "https://api.euskadi.eus/procurements/companies/06485"
        }
      }
    },
    {
      "name": "ARENAL GRUPO CONSULTOR, SL",
      "registrationNumber": "06486",
      "identificationNumber": "B41287103",
      "address": "Calle Progreso, 5",
      "location": {
        "postalCode": "41013",
        "municipality": "Sevilla",
        "county": "Sevilla",
        "municipalityId": "091",
        "countyId": "41"
      },
      "economicActivities": [
        {
          "id": "1.999",
          "name": "Otros servicios n.c.o.p",
          "_links": {
            "self": {
              "name": "Otros servicios n.c.o.p",
              "href": "https://api.euskadi.eus/procurements/companies/economic-activities/1.999"
            }
          }
        }
      ],
      "certificateStartDate": "2019-09-24",
      "certificateEndDate": "2020-02-19",
      "object": "LA REALIZACIÓN DE ESTUDIOS  Y PROYECTOS DE CARÁCTER TÉCNICO PARA EL ASESORAMIENTO A EMPRESAS Y PLANIFICACIÓN DE INVERSIONES Y LA REALIZACIÓN EN SU MÁS AMPLIO SENTIDO DE ESTUDIOS DE PLANIFICACIÓN PARA ORGANISMOS PÚBLICOS, QUE PODRÁ LLEVAR A CABO INCLUSO INDIRECTAMENTE MEDIANTE LA TITULARIDAD DE ACCIONES O PARTICIPACIONES DE SOCIEDADES DE ANÁLOGO O IDÉNTICO OBJETO ",
      "mainEntityOfPage": "https://www.contratacion.euskadi.eus/webkpe00-kperoc/es/ac71aBusquedaRegistrosWar/empresa/06486",
      "_links": {
        "self": {
          "name": "ARENAL GRUPO CONSULTOR, SL",
          "href": "https://api.euskadi.eus/procurements/companies/06486"
        }
      }
    },
    {
      "name": "BIASCLAP, S.L.",
      "registrationNumber": "03606",
      "identificationNumber": "B95350476",
      "address": "C/ JOSÉ Mª ESCUZA, 25 EN. DCHA.",
      "location": {
        "postalCode": "48013",
        "municipality": "Bilbao",
        "county": "Bizkaia",
        "municipalityId": "020",
        "countyId": "48"
      },
      "economicActivities": [
        {
          "id": "1.619.2",
          "name": "Venta al por mayor de aparatos e instrumentos médicos, ortopédicos, ópticos",
          "_links": {
            "self": {
              "name": "Venta al por mayor de aparatos e instrumentos médicos, ortopédicos, ópticos",
              "href": "https://api.euskadi.eus/procurements/companies/economic-activities/1.619.2"
            }
          }
        },
        {
          "id": "1.843.9",
          "name": "Otros servicios técnicos n.c.o.p",
          "_links": {
            "self": {
              "name": "Otros servicios técnicos n.c.o.p",
              "href": "https://api.euskadi.eus/procurements/companies/economic-activities/1.843.9"
            }
          }
        }
      ],
      "certificateStartDate": "2019-09-23",
      "certificateEndDate": "2020-03-17",
      "object": "- CREACIÓN, DISEÑO Y EJECUCIÓN DE ESPACIOS Y ESTRUCTURAS ESCÉNICOS PARA TEATROS, AUDITORIOS, POLIDEPORTIVOS, CASAS DE CULTURA, \"PLATEAUX\" Y EN GENERAL CUALQUIER ESPACIO EN EL QUE DEBAN O PUEDAN EFECTUARSE TALES INSTALACIONES, ASÍ COMO LA CREACIÓN, EL DISEÑO Y LA EJECUCIÓN DE ELEMENTOS PERIFÉRICOS A DICHOS ESPACIOS Y ESTRUCTURAS (CAMERINOS, SALAS DE ENSAYOS, ALMACENES, ÁREAS DE CARGA Y DESCARGA DE ESCENOGRAFÍAS). - INGENIERÍA DE ESPACIOS ESCÉNICOS, DE ESTRUCTURAS ESCÉNICAS, DE ACÚSTICA Y DE MEDIOS AUDIOVISUALES, ASÍ COMO ILUMINACIÓN. - CREACIÓN, DISEÑO Y EJECUCIÓN DE COMPOSICIONES DE ILUMINACIÓN ESCÉNICA, DE MEDIOS AUDIOVISUALES Y DE ARQUITECTURA DE MAQUINARIA ESCÉNICA PARA ESPECTÁCULOS TEATRALES, MUSICALES, OPERÍSTICOS, DE BALLET, REUNIONES, CONVENCIONES, CONGRESOS Y ADMEÁS ACTIVIDADES SIMILARES. - CONSULTORÍA, ASESORAMIENTO Y EJECUCIÓN  SOBRE ARQUITECTURA ESCÉNICA E ILUMINACIÓN PARA LOCALES DE CUALQUIER TIPO Y OBJETO TANTO EN RECINTOS CERRADOS COMO AL AIRE LIBRE. - EQUIPAMIENTO Y VENTA DE TODO TIPO DE ELEMENTOS ESCÉNICOS, TALES COMO ESTRUCTURAS, MAQUINARIA, TEXTILES, EQUIPOS DE SONIDO, EQUIPOS DE ILUMINACIÓN, MOBILIARIO, ACABADOS, MEGAFONÍA, CAMPANAS ACÚSTICAS Y ELEMENTOS EFECTIVOS AUXILIARES. - iMPORTACIÓN DE EQUIPOS ELECTRÓNICOS Y DE ESTRUCTURAS FIJAS Y MÓVILES PARA ESPECTÁCULOS DE TODA ÍNDOLE. - COMPRA Y VENTA DE TODO TIPO DE EQUIPOS ELECTRÓNICOS Y ELÉCTRICOS. -COMPRA Y VENTA DE ESTRUCTURAS TÉCNICAS PARA ESPECTÁCULOS, DE ELEMENTOS AUXILIARES PARA EL ESPECTÁCULO, DE CABLEADOS ELÉCTRICOS Y DE CABLES ESPECIALES. - FABRICACIÓN DE MAQUINARIA PARA EVENTOS DE TODA ÍNDOLE. - PRODUCCIÓN DE TODO TIPO DE EVENTOS ARTÍSTICOS. - PRESTACIÓN DE SERVICIOS DE ASISTENCIA TÉCNICA PARA EVENTOS DE TODO TIPO. - ALQUILER DE EQUIPO Y DE MAQUINARIA PARA EVENTOS DE TODO TIPO. - COMPRA Y VENTA DE INMUEBLES. - RECOGIDA, RECICLAJE, TRANSPORTE, COMPRA Y VENTA DE RECAUCHUTADOS DE NEUMÁTICOS FUERA DE USO. - TRANSPORTE DE TODO TIPO DE MERCANCÍAS POR VÍA TERRESTRE, FÉRREA, MARÍTIMA Y AÉREA. -COMERCIO A TRAVÉS DE INTERNET. - CONSIGNACIÓN DE MERCANCÍAS, REPRESENTACIÓN DE EMPRESAS DE TRANSPORTE Y DE OPERADORES LOGÍSTICOS",
      "mainEntityOfPage": "https://www.contratacion.euskadi.eus/webkpe00-kperoc/es/ac71aBusquedaRegistrosWar/empresa/03606",
      "_links": {
        "self": {
          "name": "BIASCLAP, S.L.",
          "href": "https://api.euskadi.eus/procurements/companies/03606"
        }
      }
    },
    {
      "name": "IKER ORTIZ DE ZARATE FERNANDEZ DE ARANGUIZ",
      "registrationNumber": "06478",
      "identificationNumber": "72719299S",
      "address": "Santiago 21, 9ºdcha",
      "location": {
        "postalCode": "01003",
        "municipality": "Vitoria-Gasteiz",
        "county": "Araba/Álava",
        "municipalityId": "059",
        "countyId": "01"
      },
      "economicActivities": [
        {
          "id": "2.411",
          "name": "Arquitectos",
          "_links": {
            "self": {
              "name": "Arquitectos",
              "href": "https://api.euskadi.eus/procurements/companies/economic-activities/2.411"
            }
          }
        }
      ],
      "certificateStartDate": "2019-09-23",
      "certificateEndDate": "2019-12-11",
      "object": " LOS SERVICIOS DE ARQUITECTURA",
      "mainEntityOfPage": "https://www.contratacion.euskadi.eus/webkpe00-kperoc/es/ac71aBusquedaRegistrosWar/empresa/06478",
      "_links": {
        "self": {
          "name": "IKER ORTIZ DE ZARATE FERNANDEZ DE ARANGUIZ",
          "href": "https://api.euskadi.eus/procurements/companies/06478"
        }
      }
    },
    {
      "name": "TRANSPORTES PESA, S.A.",
      "registrationNumber": "04317",
      "identificationNumber": "A20026084",
      "address": "Paseo Martutene, nº 3",
      "location": {
        "postalCode": "20014",
        "municipality": "Donostia / San Sebastián",
        "county": "Gipuzkoa",
        "municipalityId": "069",
        "countyId": "20"
      },
      "economicActivities": [
        {
          "id": "1.721.3",
          "name": "Transporte de viajeros por carretera",
          "_links": {
            "self": {
              "name": "Transporte de viajeros por carretera",
              "href": "https://api.euskadi.eus/procurements/companies/economic-activities/1.721.3"
            }
          }
        },
        {
          "id": "1.855.9",
          "name": "Alquiler de otros medios de transporte n.c.o.p",
          "_links": {
            "self": {
              "name": "Alquiler de otros medios de transporte n.c.o.p",
              "href": "https://api.euskadi.eus/procurements/companies/economic-activities/1.855.9"
            }
          }
        },
        {
          "id": "1.861.2",
          "name": "Alquiler de locales industriales y otros alquileres n.c.o.p",
          "_links": {
            "self": {
              "name": "Alquiler de locales industriales y otros alquileres n.c.o.p",
              "href": "https://api.euskadi.eus/procurements/companies/economic-activities/1.861.2"
            }
          }
        }
      ],
      "certificateStartDate": "2019-09-19",
      "certificateEndDate": "2020-02-28",
      "object": "LA EXPLOTACIÓN DE SERVICIOS PÚBLICOS DE TRANSPORTE DE VIAJEROS, DE MERCANCIAS O MIXTOS, POR CARRETERA",
      "mainEntityOfPage": "https://www.contratacion.euskadi.eus/webkpe00-kperoc/es/ac71aBusquedaRegistrosWar/empresa/04317",
      "_links": {
        "self": {
          "name": "TRANSPORTES PESA, S.A.",
          "href": "https://api.euskadi.eus/procurements/companies/04317"
        }
      }
    },
    {
      "name": "CIRILO ABAD DE LAFUENTE",
      "registrationNumber": "06474",
      "identificationNumber": "30580918A",
      "address": "C/ MENA, 17-3º-C",
      "location": {
        "postalCode": "48003",
        "municipality": "Bilbao",
        "county": "Bizkaia",
        "municipalityId": "020",
        "countyId": "48"
      },
      "economicActivities": [
        {
          "id": "1.721.2",
          "name": "Transporte por autotaxis",
          "_links": {
            "self": {
              "name": "Transporte por autotaxis",
              "href": "https://api.euskadi.eus/procurements/companies/economic-activities/1.721.2"
            }
          }
        }
      ],
      "certificateStartDate": "2019-09-19",
      "certificateEndDate": "2019-12-12",
      "object": "TRANSPORTE DE VIAJEROS POR AUTOTAXI",
      "mainEntityOfPage": "https://www.contratacion.euskadi.eus/webkpe00-kperoc/es/ac71aBusquedaRegistrosWar/empresa/06474",
      "_links": {
        "self": {
          "name": "CIRILO ABAD DE LAFUENTE",
          "href": "https://api.euskadi.eus/procurements/companies/06474"
        }
      }
    },
    {
      "name": "Cristina Ubani Bazán",
      "registrationNumber": "06475",
      "identificationNumber": "15248263E",
      "address": "Berrotaran 5 3º izda",
      "location": {
        "postalCode": "20302",
        "municipality": "Irun",
        "county": "Gipuzkoa",
        "municipalityId": "045",
        "countyId": "20"
      },
      "economicActivities": [
        {
          "id": "2.899",
          "name": "Otros profesionales",
          "_links": {
            "self": {
              "name": "Otros profesionales",
              "href": "https://api.euskadi.eus/procurements/companies/economic-activities/2.899"
            }
          }
        }
      ],
      "certificateStartDate": "2019-09-19",
      "certificateEndDate": "2019-11-11",
      "object": "OTROS PROFESIONALES RELACIONADOS CON SERVICIOS (Asesoría Técnica en gestión de proyectos de cooperación Internacional al Desarrollo, Igualdad y Deporte)",
      "mainEntityOfPage": "https://www.contratacion.euskadi.eus/webkpe00-kperoc/es/ac71aBusquedaRegistrosWar/empresa/06475",
      "_links": {
        "self": {
          "name": "Cristina Ubani Bazán",
          "href": "https://api.euskadi.eus/procurements/companies/06475"
        }
      }
    },
    {
      "name": "QUALITAS INSTRUMENTS, S.A.",
      "registrationNumber": "06051",
      "identificationNumber": "A83460782",
      "address": "CL TORONGA 31 1º",
      "location": {
        "postalCode": "28043",
        "municipality": "Madrid",
        "county": "Madrid",
        "municipalityId": "079",
        "countyId": "28"
      },
      "economicActivities": [
        {
          "id": "1.843.1",
          "name": "Servicios técnicos de ingeniería",
          "_links": {
            "self": {
              "name": "Servicios técnicos de ingeniería",
              "href": "https://api.euskadi.eus/procurements/companies/economic-activities/1.843.1"
            }
          }
        }
      ],
      "certificateStartDate": "2019-09-18",
      "certificateEndDate": "2020-03-18",
      "object": "LA EXPORTACIÓN, IMPORTACIÓN, FABRICACIÓN Y MANIPULACIÓN DE TODA CLASE DE BIENES MUEBLES Y DE SUS DERIVADOS, Y EN ESPECIAL DE APARATOS DE MEDIDA, CONTROL Y REGULACIÓN Y DE INSTALACIONES DESTINADAS A LA TÉCNICA DEL AGUA, EL MEDIOAMBIENTE, PUERTOS, COSTAS, LA GENERACIÓN DE ENERGÍA Y LA METEOROLOGÍA. LA ADQUISICIÓN, UTILIZACIÓN Y ENAJENACIÓN DE TODA CLASE DE BIENES INMUEBLES Y DERECHOS, INCLUSO PATENTES, LICENCIAS Y PROCEDIMIENTOS INDUSTRIALES. LA CONTRATACIÓN DE TODA CLASE DE BIENES MUEBLES E INMUEBLES CON CUALQUIER PERSONA SEA PÚBLICA O PRIVADA, NACIONAL O EXTRANJERA, FÍSICA O JURÍDICA Y EN ESPECIAL CON EL ESTADO, LA PROVINCIA, EL MUNICIPIO, ENTIDADES Y ORGANISMOS AUTÓNOMOS Y LAS CORPORACIONES PÚBLICAS EN GENERAL, ASÍ COMO CON LA ENTIDADES DEPENDIENTES O RELACIONADAS CON ELLAS. LA TENENCIA, ADQUISICIÓN, EXPLOTACIÓN, DISFRUTE Y ENAJENACIÓN DE FINCAS URBANAS, RÚSTICAS, FORESTALES O GANADERAS. LA TENENCIA, ADQUISICIÓN, ADMINISTRACIÓN, DISFRUTE Y ENAJENACIÓN DE VALORES MOBILIARIOS, NACIONALES O EXTRANJEROS, DE RENTA FIJA O VARIABLE, CON EXCLUSIÓN DE LOS REGULADOS EN LA LEY DEL MERCANDO DE VALORES. CONTRATAR TODA CLASE DE EJECUCIÓN DE OBRAS O PRESTACIÓN DE SERVICIOS, PARA EJECUTAR POR SÍ LOS CONTRATOS O CEDERLOS A TERCEROS. LAS ACTIVIDADES PROPIAS DE LOS COMISIONISTAS, AGENTES, MANDATARIOS Y DEMÁS INTERMEDIARIOS PARA TODO GÉNERO DE ASUNTOS. LA ADMINISTRACIÓN DE TODA CLASE DE BIENES O NEGOCIOS",
      "mainEntityOfPage": "https://www.contratacion.euskadi.eus/webkpe00-kperoc/es/ac71aBusquedaRegistrosWar/empresa/06051",
      "_links": {
        "self": {
          "name": "QUALITAS INSTRUMENTS, S.A.",
          "href": "https://api.euskadi.eus/procurements/companies/06051"
        }
      }
    },
    {
      "name": "SILVIA PAMPIN ARTIÑANO",
      "registrationNumber": "06467",
      "identificationNumber": "78926716P",
      "address": "CL TENOR CONSTANTINO, 1-5º IZQ",
      "location": {
        "postalCode": "48003",
        "municipality": "Bilbao",
        "county": "Bizkaia",
        "municipalityId": "020",
        "countyId": "48"
      },
      "economicActivities": [
        {
          "id": "1.721.2",
          "name": "Transporte por autotaxis",
          "_links": {
            "self": {
              "name": "Transporte por autotaxis",
              "href": "https://api.euskadi.eus/procurements/companies/economic-activities/1.721.2"
            }
          }
        }
      ],
      "certificateStartDate": "2019-09-18",
      "certificateEndDate": "2019-12-13",
      "object": "EL TRANSPORTE POR AUTOTAXI",
      "mainEntityOfPage": "https://www.contratacion.euskadi.eus/webkpe00-kperoc/es/ac71aBusquedaRegistrosWar/empresa/06467",
      "_links": {
        "self": {
          "name": "SILVIA PAMPIN ARTIÑANO",
          "href": "https://api.euskadi.eus/procurements/companies/06467"
        }
      }
    },
    {
      "name": "BIP&DRIVE EDE, S.A.",
      "registrationNumber": "06468",
      "identificationNumber": "A86969607",
      "address": "c/ Serrano 45 Planta 2",
      "location": {
        "postalCode": "28001",
        "municipality": "Madrid",
        "county": "Madrid",
        "municipalityId": "079",
        "countyId": "28"
      },
      "economicActivities": [
        {
          "id": "1.831.9",
          "name": "Otros servicios financieros n.c.o.p",
          "_links": {
            "self": {
              "name": "Otros servicios financieros n.c.o.p",
              "href": "https://api.euskadi.eus/procurements/companies/economic-activities/1.831.9"
            }
          }
        }
      ],
      "certificateStartDate": "2019-09-18",
      "certificateEndDate": "2020-02-27",
      "object": "LA SOCIEDAD SE CONFIGURA COMO UNA ENTIDAD DE DINERO ELECTRÓNICO, DESARROLLANDO SU ACTIVIDAD DE CONFORMIDAD CON LO ESTABLECIDO EN LA LEY 21/2011, DE 26 DE JULIO, DE DINERO ELECTRÓNICO Y EN LAS DEMÁS DISPOSICIONES VIGENTES QUE LAS DESARROLLEN O COMPLEMENTEN. EN SU CONDICIÓN DE ENTIDAD DE DINERO ELECTRÓNICO, LA SOCIEDAD LLEVARÁ A CABO LAS ACTIVIDADES PROPIAS DE TALES ENTIDADES, INCLUYENDO, EN PARTICULAR, LAS SIGUIENTES: A. LA EMISIÓN Y REEMBOLSO DE DINERO ELECTRÓNICO DE CONFORMIDAD CON LO PREVISTO EN LOS ARTÍCULOS 1 Y 2 DE LA LEY 21/2011, DE 26 DE JULIO, DE DINERO ELECTRÓNICO. B. LA PRESTACIÓN DE LOS SIGUIENTES SERVICIOS DE PAGO: - LA EMISIÓN Y ADQUISICIÓN DE INSTRUMENTOS DE PAGO, TAL Y COMO DICHO SERVICIO VIENE RECOGIDO EN EL ARTÍCULO 1.2.E) DE LA LEY 16/2009, DE 13 DE NOVIEMBRE, DE SERVICIOS DE PAGO. - LA EJECUCIÓN DE OPERACIONES DE PAGO, INCLUIDA LA TRANSFERENCIA DE FONDOS, A TRAVÉS DE UNA CUENTA DE PAGO EN EL PROVEEDOR DE SERVICIOS DE PAGO DEL USUARIO U OTRO PROVEEDOR DE SERVICIOS DE PAGO, TAL Y COMO DICHO SERVICIO VIENE RECOGIDO EN EL ARTÍCULO 1.2.C) DE LA LEY 16/2009, DE 13 DE NOVIEMBRE, DE SERVICIOS DE PAGO, EN SU MODALIDAD DE: EJECUCIÓN DE OPERACIONES DE PAGO MEDIANTE TARJETA DE PAGO O DISPOSITIVO SIMILAR. -LA EJECUCIÓN DE OPERACIONES DE PAGO CUANDO LOS FONDOS ESTÉN CUBIERTOS POR UNA LÍNEA DE CRÉDITO ABIERTA PARA UN USUARIO DE SERVICIOS DE PAGO, TAL Y COMO DICHO SERVICIO VIENE RECOGIDO EN EL ARTÍCULO 1.2.D) DE LA LEY 16/2009, DE 13 DE NOVIEMBRE, DE SERVICIOS DE PAGO, EN SU MODALIDAD DE: EJECUCIÓN DE OPERACIONES DE PAGO MEDIANTE TARJETA DE PAGO O DISPOSITIVO SIMILAR.  C. LA PRESTACIÓN DE SERVICIOS OPERATIVOS O SERVICIOS AUXILIARES ESTRECHAMENTE RELACIONADOS CON LAS ACTIVIDADES DE PAGO CONFORME A LO PREVISTO EN EL ARTÍCULO 9.1. A) DE LA LEY 16/2009, DE 13 DE NOVIEMBRE, DE SERVICIOS DE PAGO",
      "mainEntityOfPage": "https://www.contratacion.euskadi.eus/webkpe00-kperoc/es/ac71aBusquedaRegistrosWar/empresa/06468",
      "_links": {
        "self": {
          "name": "BIP&DRIVE EDE, S.A.",
          "href": "https://api.euskadi.eus/procurements/companies/06468"
        }
      }
    }
  ]
}