{
  "totalItems": 9042,
  "totalPages": 905,
  "currentPage": 620,
  "itemsOfPage": 10,
  "items": [
    {
      "name": "PRHOINSA",
      "registrationNumber": "05991",
      "identificationNumber": "A82310905",
      "address": "Calle José Abascal nº 55, 2º drcha",
      "location": {
        "postalCode": "28003",
        "municipality": "Madrid",
        "county": "Madrid",
        "municipalityId": "079",
        "countyId": "28"
      },
      "economicActivities": [
        {
          "id": "1.619.2",
          "name": "Venta al por mayor de aparatos e instrumentos médicos, ortopédicos, ópticos",
          "_links": {
            "self": {
              "name": "Venta al por mayor de aparatos e instrumentos médicos, ortopédicos, ópticos",
              "href": "https://api.euskadi.eus/procurements/companies/economic-activities/1.619.2"
            }
          }
        }
      ],
      "certificateStartDate": "2018-12-27",
      "certificateEndDate": "2019-03-05",
      "object": "LA COMERCIALIZACIÓN DE EQUIPAMIENTO MÉDICO DE TODO TIPO, BIEN SEA DE FABRICACIÓN PROPIA, TOTAL O PARCIAL, O DE FABRICACIÓN AJENA, TANTO NACIONAL COMO INTERNACIONAL",
      "mainEntityOfPage": "https://www.contratacion.euskadi.eus/webkpe00-kperoc/es/ac71aBusquedaRegistrosWar/empresa/05991",
      "_links": {
        "self": {
          "name": "PRHOINSA",
          "href": "https://api.euskadi.eus/procurements/companies/05991"
        }
      }
    },
    {
      "name": "L&M INGENIEROS S.L.",
      "registrationNumber": "05993",
      "identificationNumber": "B71054613",
      "address": "c/ Txiki, nº 2 bajo",
      "location": {
        "postalCode": "31800",
        "municipality": "Altsasu/Alsasua",
        "county": "Navarra",
        "municipalityId": "010",
        "countyId": "31"
      },
      "economicActivities": [
        {
          "id": "1.507",
          "name": "Construcción, reparación y conservación de toda clase obras",
          "_links": {
            "self": {
              "name": "Construcción, reparación y conservación de toda clase obras",
              "href": "https://api.euskadi.eus/procurements/companies/economic-activities/1.507"
            }
          }
        }
      ],
      "certificateStartDate": "2018-12-27",
      "certificateEndDate": "2019-03-07",
      "object": "EL DISEÑO, FABRICACIÓN Y SUMINISTRO DE ESTRUCTURAS Y CERRAMIENTOS DE TODAS CLASES",
      "mainEntityOfPage": "https://www.contratacion.euskadi.eus/webkpe00-kperoc/es/ac71aBusquedaRegistrosWar/empresa/05993",
      "_links": {
        "self": {
          "name": "L&M INGENIEROS S.L.",
          "href": "https://api.euskadi.eus/procurements/companies/05993"
        }
      }
    },
    {
      "name": "ANA MARIA REBELO",
      "registrationNumber": "05982",
      "identificationNumber": "20168003Q",
      "address": "Batalla de Padura 3, 5ºA",
      "location": {
        "postalCode": "48012",
        "municipality": "Bilbao",
        "county": "Bizkaia",
        "municipalityId": "020",
        "countyId": "48"
      },
      "economicActivities": [
        {
          "id": "1.475.4",
          "name": "Encuadernación",
          "_links": {
            "self": {
              "name": "Encuadernación",
              "href": "https://api.euskadi.eus/procurements/companies/economic-activities/1.475.4"
            }
          }
        }
      ],
      "certificateStartDate": "2018-12-21",
      "certificateEndDate": "2019-02-28",
      "object": "ENCUADERNACION Y RESTAURACION ARTESANAL",
      "mainEntityOfPage": "https://www.contratacion.euskadi.eus/webkpe00-kperoc/es/ac71aBusquedaRegistrosWar/empresa/05982",
      "_links": {
        "self": {
          "name": "ANA MARIA REBELO",
          "href": "https://api.euskadi.eus/procurements/companies/05982"
        }
      }
    },
    {
      "name": "SISTEMAS INFORMÁTICOS DESINOR DATA, S.A.",
      "registrationNumber": "02769",
      "identificationNumber": "A95254140",
      "address": "RIBERA DE AXPE 11- EDIFICIO D1- OFICINA 209",
      "location": {
        "postalCode": "48950",
        "municipality": "Erandio",
        "county": "Bizkaia",
        "municipalityId": "902",
        "countyId": "48"
      },
      "economicActivities": [
        {
          "id": "1.845",
          "name": "Explotación electrónica por cuenta de terceros",
          "_links": {
            "self": {
              "name": "Explotación electrónica por cuenta de terceros",
              "href": "https://api.euskadi.eus/procurements/companies/economic-activities/1.845"
            }
          }
        },
        {
          "id": "1.933.9",
          "name": "Otras actividades de enseñanza tales como idiomas, mecanografía",
          "_links": {
            "self": {
              "name": "Otras actividades de enseñanza tales como idiomas, mecanografía",
              "href": "https://api.euskadi.eus/procurements/companies/economic-activities/1.933.9"
            }
          }
        }
      ],
      "certificateStartDate": "2018-12-19",
      "certificateEndDate": "2019-06-08",
      "object": "CUALQUIER ACTIVIDAD DE CARÁCTER INFORMÁTICO Y DE TELECOMUNICACIONES, YA SEA DENTRO DEL ÁREA DEL SOFTWARE COMO DEL HARDWARE, ASÍ COMO A TODAS LAS TAREAS Y SERVICIOS RELACIONADOS CON LA ORGANIZACIÓN DE EMPRESAS. A MODO MERAMENTE INFORMATIVO Y NO LIMITATIVO, LAS SIGUIENTES: \r\nLA REALIZACIÓN DE ESTUDIOS, TRABAJOS Y APLICACIONES INFORMÁTICAS.\r\nLA APROBACIÓN DE TODA LA GAMA  DE SERVICIOS RELACIONADOS CON EL PROCESAMIENTO DE LA INFORMACIÓN, TALES COMO CONSULTORÍA, ANÁLISIS, PROGRAMACIÓN, IMPLANTACIÓN, GRABACIÓN O CUALQUIER OTRO. \r\nLA SELECCIÓN Y FORMACIÓN DE PERSONAL INFORMÁTICO.\r\nEL ASESORAMIENTO INFORMÁTICO A EMPRESAS, ORGANISMOS E INSTITUCIONES.\r\nLA REALIZACIÓN DE CHEQUEOS, AUDITORÍAS, REVISITONES O CUALQUIER OTRO SERVICIO ",
      "mainEntityOfPage": "https://www.contratacion.euskadi.eus/webkpe00-kperoc/es/ac71aBusquedaRegistrosWar/empresa/02769",
      "_links": {
        "self": {
          "name": "SISTEMAS INFORMÁTICOS DESINOR DATA, S.A.",
          "href": "https://api.euskadi.eus/procurements/companies/02769"
        }
      }
    },
    {
      "name": "BABESTEN GIPUZKOA, S.L.U.",
      "registrationNumber": "05807",
      "identificationNumber": "B20995668",
      "address": "PASEO PORTUETXE 53, 301",
      "location": {
        "postalCode": "20018",
        "municipality": "Donostia / San Sebastián",
        "county": "Gipuzkoa",
        "municipalityId": "069",
        "countyId": "20"
      },
      "economicActivities": [
        {
          "id": "1.951",
          "name": "Asistencia y servicios sociales en centros residenciales",
          "_links": {
            "self": {
              "name": "Asistencia y servicios sociales en centros residenciales",
              "href": "https://api.euskadi.eus/procurements/companies/economic-activities/1.951"
            }
          }
        }
      ],
      "certificateStartDate": "2018-12-19",
      "certificateEndDate": "2019-04-15",
      "object": "LA PRESTACIÓN DE TODO TIPO DE SERVICIOS DE ASISTENCIA SOCIAL, SANITARIA, GERONTOLÓGICO, ASISTENCIAL Y PSICOLÓGICA MEDIANTE PERSONAL CUALIFICADO (MÉDICOS, PSICÓLOGOS, PEDAGOGOS, DIPLOMADOS UNIVERSITARIOS EN ENFERMERÍA, ASISTENTES SOCIALES, FISIOTERAPEUTAS OCUPACIONALES, ETC.) A LOS SIGUIENTES COLECTIVOS: ANCIANOS, MINUSVÁLIDOS, FAMILIAS, INFANCIA, MUJERES SOLITARIAS CON CARGAS FAMILIARES NO COMPARTIDAS, DISCAPACITADOS FÍSICOS Y PSÍQUICOS Y PERSONAS O GRUPOS DE POBLACIÓN EN SITUACIÓN DE NECESIDAD, MEDIANTE LA REALIZACIÓN DE LAS SIGUIENTES TAREAS: TELE ASISTENCIA DOMICILIARIAS Y SOCIOSANITARIA. EXPLOTACIÓN O GESTIÓN, TOTAL O PARCIAL DE RESIDENCIAS, PISOS TUTELADOS, CENTROS DE DÍA, COMUNIDADES TERAPÉUTICAS Y OTROS CENTROS DE ACOGIDA Y REHABILITACIÓN. TRASLADO Y ACOMPAÑAMIENTO DE LOS COLECTIVOS ANTES CITADOS. HOSPITALIZACIÓN A DOMICILIO Y AYUDA MÉDICA Y DE ENFERMERÍA A DOMICILIO. LA FORMACIÓN PROFESIONAL Y RECICLAJE DE LAS PERSONAS QUE PRESTEN LOS SERVICIOS EXPRESADOS EN LOS PUNTOS ANTERIORES. LA EXPLOTACIÓN DE SISTEMAS DE COMUNICACIÓN RÁPIDA CON SERVICIOS PÚBLICOS ASISTENCIALES, COMO PUEDEN SER: POLICÍA, BOMBEROS, HOSPITALES, CENTROS MÉDICOS, ETC. REALIZAR INVESTIGACIONES, PROYECTOS Y ESTUDIOS EN ÁREAS ASISTENCIALES, SOCIALES, RECURSOS COMUNITARIOS Y TODOS AQUELLOS QUE SE REFIERAN A LOS SERVICIOS ENUMERADOS EN EL PUNTO 1. ELABORACIÓN, CONDIMENTACIÓN Y DISTRIBUCIÓN DE COMIDAS, INCLUSO FUERA DE LAS OFICINAS DE LA EMPRESA (CATERING), PARA SUMINISTRO A TERCEROS. PRESTACIÓN DE SERVICIOS DE AYUDA DOMICILIARIA, A TODAS AQUELLAS PERSONAS QUE, BIEN POR SU EDAD, CONDICIÓN FÍSICA, MENTAL, O DISMINUCIÓN DE TODAS AQUELLAS EN GENERAL, NO PUEDEN VALERSE POR SI MISMAS Y PRECISEN DE ESTE SERVICIO. ADMINISTRACIÓN Y GESTIÓN DE SERVICIOS SOCIALES DE BASE INCLUIDOS EN INSTITUCIONES PÚBLICAS MUNICIPALES, PROVINCIALES, AUTONÓMICAS Y ESTATALES O DE CUALQUIER OTRA INDOLE. PRESTACIÓN DE SERVICIOS DEPORTIVOS Y ORGANIZACIÓN DE ACTIVIDADES DEPORTIVAS, TANTO EN LOCALES O INFRAESTRUCTURAS DEPORTIVAS (POLIDEPORTIVOS, PATIOS ESCOLARES Y OTRAS INSTALACIONES), COMO AL AIRE LIBRE. CONSULTORÍA DEPORTIVA EN CUANTO A ORGANIZACIÓN A PLANES DE FORMACIÓN, CHARLAS, CONFERENCIAS, ASESORAMIENTO SOBRE DISEÑO DE INSTALACIONES DEPORTIVAS Y PREVENCIÓN DE RIESGOS EN LOCALES DEPORTIVOS",
      "mainEntityOfPage": "https://www.contratacion.euskadi.eus/webkpe00-kperoc/es/ac71aBusquedaRegistrosWar/empresa/05807",
      "_links": {
        "self": {
          "name": "BABESTEN GIPUZKOA, S.L.U.",
          "href": "https://api.euskadi.eus/procurements/companies/05807"
        }
      }
    },
    {
      "name": "GAZTELUPEKO HOTSAK SL",
      "registrationNumber": "05981",
      "identificationNumber": "B20770277",
      "address": "Rabal  23  2º",
      "location": {
        "postalCode": "20590",
        "municipality": "Soraluze-Placencia de las Armas",
        "county": "Gipuzkoa",
        "municipalityId": "065",
        "countyId": "20"
      },
      "economicActivities": [
        {
          "id": "1.355.2",
          "name": "Edición de soportes grabados de sonido, vídeo y de informática",
          "_links": {
            "self": {
              "name": "Edición de soportes grabados de sonido, vídeo y de informática",
              "href": "https://api.euskadi.eus/procurements/companies/economic-activities/1.355.2"
            }
          }
        },
        {
          "id": "1.476.1",
          "name": "Edición de libros",
          "_links": {
            "self": {
              "name": "Edición de libros",
              "href": "https://api.euskadi.eus/procurements/companies/economic-activities/1.476.1"
            }
          }
        },
        {
          "id": "1.476.9",
          "name": "Otras ediciones n.c.o.p",
          "_links": {
            "self": {
              "name": "Otras ediciones n.c.o.p",
              "href": "https://api.euskadi.eus/procurements/companies/economic-activities/1.476.9"
            }
          }
        },
        {
          "id": "1.659.9",
          "name": "Venta al por menor de otros productos no especificados en esta agrupación",
          "_links": {
            "self": {
              "name": "Venta al por menor de otros productos no especificados en esta agrupación",
              "href": "https://api.euskadi.eus/procurements/companies/economic-activities/1.659.9"
            }
          }
        },
        {
          "id": "1.673.1",
          "name": "Bar categoría especial",
          "_links": {
            "self": {
              "name": "Bar categoría especial",
              "href": "https://api.euskadi.eus/procurements/companies/economic-activities/1.673.1"
            }
          }
        },
        {
          "id": "1.849.9",
          "name": "Otros servicios independientes n.c.o.p",
          "_links": {
            "self": {
              "name": "Otros servicios independientes n.c.o.p",
              "href": "https://api.euskadi.eus/procurements/companies/economic-activities/1.849.9"
            }
          }
        },
        {
          "id": "1.861.2",
          "name": "Alquiler de locales industriales y otros alquileres n.c.o.p",
          "_links": {
            "self": {
              "name": "Alquiler de locales industriales y otros alquileres n.c.o.p",
              "href": "https://api.euskadi.eus/procurements/companies/economic-activities/1.861.2"
            }
          }
        },
        {
          "id": "1.933.1",
          "name": "Enseñanza de conducción de vehículos terrestres, acuáticos, etc",
          "_links": {
            "self": {
              "name": "Enseñanza de conducción de vehículos terrestres, acuáticos, etc",
              "href": "https://api.euskadi.eus/procurements/companies/economic-activities/1.933.1"
            }
          }
        },
        {
          "id": "1.965.4",
          "name": "Empresas de espectáculos",
          "_links": {
            "self": {
              "name": "Empresas de espectáculos",
              "href": "https://api.euskadi.eus/procurements/companies/economic-activities/1.965.4"
            }
          }
        }
      ],
      "certificateStartDate": "2018-12-19",
      "certificateEndDate": "2019-04-15",
      "object": "LA EXPLOTACIÓN DE UNA EMPRESA DEDICADA A LOS ESPECTÁCULOS, PROMOCIÓN DE GRUPOS MUSICALES, EDICIÓN MUSICAL, EDICIÓN DE DISCOS DE SOPORTE SONORO Y AUDIO, CONTRATACIÓN DE CONCIERTOS",
      "mainEntityOfPage": "https://www.contratacion.euskadi.eus/webkpe00-kperoc/es/ac71aBusquedaRegistrosWar/empresa/05981",
      "_links": {
        "self": {
          "name": "GAZTELUPEKO HOTSAK SL",
          "href": "https://api.euskadi.eus/procurements/companies/05981"
        }
      }
    },
    {
      "name": "BEROIL,S.L",
      "registrationNumber": "05976",
      "identificationNumber": "B09417957",
      "address": "Crta Madrid Irún Km 247",
      "location": {
        "postalCode": "09199",
        "municipality": "Rubena",
        "county": "Burgos",
        "municipalityId": "326",
        "countyId": "09"
      },
      "economicActivities": [
        {
          "id": "1.655.1",
          "name": "Venta al por menor de combustibles de todas clases, excepto gases",
          "_links": {
            "self": {
              "name": "Venta al por menor de combustibles de todas clases, excepto gases",
              "href": "https://api.euskadi.eus/procurements/companies/economic-activities/1.655.1"
            }
          }
        }
      ],
      "certificateStartDate": "2018-12-17",
      "certificateEndDate": "2019-04-30",
      "object": "LA COMPRAVENTA Y DISTRIBUCIÓN DE HIDROCARBUROS. EL TRANSPORTE DE TODO TIPO DE MERCANCÍAS, ASÍ COMO EL DE AGENCIA DE TRANSPORTE. EL TRÁFICO SOBRE BIENES INMUEBLES Y ESPECIALMENTE LA ACTIVIDAD DE ALQUILERES. ADMINISTRACIÓN DE FINCAS URBANAS, GESTIÓN Y ADMINISTRACIÓN DE COMUNIDADES Y COOPERATIVAS. PROMOCIÓN DE EDIFICIOS RESIDENCIALES, INDUSTRIALES O COMERCIALES Y DE OCIO, Y REALIZACIÓN DE OBRAS. LA COMPRA, TENENCIA, EXPLOTACIÓN, ADMINISTRACIÓN, DISFRUTE Y ENAJENACIÓN DE ESTABLECIMIENTOS DE HOSTELERÍA Y COMERCIO, Y EN PARTICULAR, CASAS RURALES, HOTELES, RESIDENCIAS, HOSTALES, MOTELES, RESTAURANTES, BARES, CAFETERÍAS, DISCO-BARES, PUBS, SALAS DE FIESTA, SELF-SERVICE, ÁREAS DE SERVICIO EN CARRETERAS Y AUTOPISTAS, ASÍ COMO ESTABLECIMIENTOS COMERCIALES DE PASTELERÍA, REPOSTERÍA, OBJETOS DE REGALO Y OTROS RELACIONADOS CON EL TURISMO Y COMERCIOS DE COMPRAVENTA AL POR MAYOR Y MENOR DE ROPAS, COMESTIBLES Y BEBIDAS. LA INSTALACIÓN Y EXPLOTACIÓN DE ESTACIONES DE SERVICIO PARA EL SUMINISTRO Y VENTA DE CARBURANTES, COMBUSTIBLES Y LUBRICANTES EN TODO EL TERRITORIO NACIONAL. COMERCIO AL POR MAYOR Y MENOR DE PIENSOS, ABONOS Y CEREALES. VENTA AL POR MAYOR Y MENOR DE PIEZAS DE REPUESTO PARA AUTOMÓVILES Y CAMIONES",
      "mainEntityOfPage": "https://www.contratacion.euskadi.eus/webkpe00-kperoc/es/ac71aBusquedaRegistrosWar/empresa/05976",
      "_links": {
        "self": {
          "name": "BEROIL,S.L",
          "href": "https://api.euskadi.eus/procurements/companies/05976"
        }
      }
    },
    {
      "name": "FUJITSU TECHNOLOGY SOLUTIONS, S.A.",
      "registrationNumber": "03063",
      "identificationNumber": "A28472819",
      "address": "CAMINO CERRO DE LOS GAMOS, 1",
      "location": {
        "postalCode": "28224",
        "municipality": "Pozuelo de Alarcón",
        "county": "Madrid",
        "municipalityId": "115",
        "countyId": "28"
      },
      "economicActivities": [
        {
          "id": "1.504.7",
          "name": "Instalaciones telefónicas, telegráficas, televisión, etc",
          "_links": {
            "self": {
              "name": "Instalaciones telefónicas, telegráficas, televisión, etc",
              "href": "https://api.euskadi.eus/procurements/companies/economic-activities/1.504.7"
            }
          }
        },
        {
          "id": "1.617.8",
          "name": "Venta al por mayor de máquinas y material de oficina",
          "_links": {
            "self": {
              "name": "Venta al por mayor de máquinas y material de oficina",
              "href": "https://api.euskadi.eus/procurements/companies/economic-activities/1.617.8"
            }
          }
        },
        {
          "id": "1.659.2",
          "name": "Venta al por menor de muebles de oficina y máquinas y equipos de oficina",
          "_links": {
            "self": {
              "name": "Venta al por menor de muebles de oficina y máquinas y equipos de oficina",
              "href": "https://api.euskadi.eus/procurements/companies/economic-activities/1.659.2"
            }
          }
        },
        {
          "id": "1.699",
          "name": "Otras reparaciones n.c.o.p",
          "_links": {
            "self": {
              "name": "Otras reparaciones n.c.o.p",
              "href": "https://api.euskadi.eus/procurements/companies/economic-activities/1.699"
            }
          }
        },
        {
          "id": "1.769.9",
          "name": "Otros servicios privados de telecomunicación n.c.o.p",
          "_links": {
            "self": {
              "name": "Otros servicios privados de telecomunicación n.c.o.p",
              "href": "https://api.euskadi.eus/procurements/companies/economic-activities/1.769.9"
            }
          }
        },
        {
          "id": "1.843.9",
          "name": "Otros servicios técnicos n.c.o.p",
          "_links": {
            "self": {
              "name": "Otros servicios técnicos n.c.o.p",
              "href": "https://api.euskadi.eus/procurements/companies/economic-activities/1.843.9"
            }
          }
        },
        {
          "id": "1.845",
          "name": "Explotación electrónica por cuenta de terceros",
          "_links": {
            "self": {
              "name": "Explotación electrónica por cuenta de terceros",
              "href": "https://api.euskadi.eus/procurements/companies/economic-activities/1.845"
            }
          }
        },
        {
          "id": "1.853",
          "name": "Alquiler de maquinaria y equipo contable de oficina y cálculo",
          "_links": {
            "self": {
              "name": "Alquiler de maquinaria y equipo contable de oficina y cálculo",
              "href": "https://api.euskadi.eus/procurements/companies/economic-activities/1.853"
            }
          }
        }
      ],
      "certificateStartDate": "2018-12-14",
      "certificateEndDate": "2019-04-29",
      "object": "1. EL DISEÑO, DESARROLLO, INGENIERÍA, ENSAMBLAJE, EXPORTACIÓN, IMPORTACÓN, COMERCIALIZACIÓN BAJO CUALQUIER FORMA, INSTALACIÓN, MANTENIMIENTO Y REPARACIÓN DE EQUIPOS INFORMÁTICOS Y DE EQUIPOS PARA LA COMUNICACIÓN, INCLUYENDO LOS DESTINADOS A LA TRANSMISIÓN DE VOZ, DATOS E IMAGEN Y A REDES; 2. ELABORACIÓN, DESARROLLO, ADQUISICIÓN, REPRODUCCIÓN, DISTRIBUCIÓN Y MANTENIMIENTO DE TODO TIPO DE SOFTWARE, SEA BÁSICO O DE APLICACIÓN, DE FIRMWARE Y DE CUALQUIER TIPO DE PROGRAMAS DE ORDENADOR; 3. LA PRESTACIÓN DE SERVICIOS EN LAS ÁREAS DE INFORMÁTICA Y COMUNICACIÓN INCLUYENDO DISEÑO Y REALIZACIÓN DE SOLUCIONES, REALIZACIÓN DE PROYECTOS Y DIRECCIÓN DE OBRA, SERVICIOS DE INTEGRACIÓN DE SISTEMAS, DE EXTERNALIZACIÓN, DE CONSULTORÍA, DE SOPORTE IN SITU O REMOTO POR MEDIOS TELEMÁTICOS Y DE LA SOCIEDAD DE LA INFORMACIÓN; 4. LA SOCIEDAD PODRÁ REALIZAR INDIRECTAMENTE LAS ANTERIORES ACTIVIDADES COMPRENDIDAS EN SU OBJETO SOCIAL, MEDIANTE LA CONSTITUCIÓN DE OTRAS SOCIEDADES O LA PARTICIPACIÓN EN SOCIEDADES YA CONSTITUÍDAS DE OBJETO IDÉNTICO O ANÁLOGO, PUDIENDO PARA ELLO SUSCRIBIR O POR CUALQUIER OTRO TÍTULO ADQUIRIR Y ENAJENAR ACCIONES Y PARTICIPACIONES SOCIALES",
      "mainEntityOfPage": "https://www.contratacion.euskadi.eus/webkpe00-kperoc/es/ac71aBusquedaRegistrosWar/empresa/03063",
      "_links": {
        "self": {
          "name": "FUJITSU TECHNOLOGY SOLUTIONS, S.A.",
          "href": "https://api.euskadi.eus/procurements/companies/03063"
        }
      }
    },
    {
      "name": "AIC GESTION DE CAPITAL INTELECTUAL, S.A.",
      "registrationNumber": "03486",
      "identificationNumber": "A20180659",
      "address": "PS. TXINGURRI, 28-2º",
      "location": {
        "postalCode": "20017",
        "municipality": "Donostia / San Sebastián",
        "county": "Gipuzkoa",
        "municipalityId": "069",
        "countyId": "20"
      },
      "economicActivities": [
        {
          "id": "1.847",
          "name": "Servicios de consultoría",
          "_links": {
            "self": {
              "name": "Servicios de consultoría",
              "href": "https://api.euskadi.eus/procurements/companies/economic-activities/1.847"
            }
          }
        }
      ],
      "certificateStartDate": "2018-12-12",
      "certificateEndDate": "2014-02-06",
      "object": "ELABORACIÓN  DE ESTUDIOS, INVESTIGACIÓN Y DESARROLLO PARA LA OBTENCIÓN DE HERRAMIENTAS DE APOYO GERENCIAL Y ASISTENCIA TÉCNICA, TANTO EN EL SECTOR PÚBLICO COMO PRIVADO, DIRIGIDA A MEJORAR LA EFICACIA DE PERSONAS Y ORGANIZACIONES, PARTICULARMENTE EN GESTIÓN DEL CONOCIMIENTO, EDUCACIÓN/FORMACIÓN, CULTURA, TECNOLOGÍA E INNOVACIÓN.",
      "mainEntityOfPage": "https://www.contratacion.euskadi.eus/webkpe00-kperoc/es/ac71aBusquedaRegistrosWar/empresa/03486",
      "_links": {
        "self": {
          "name": "AIC GESTION DE CAPITAL INTELECTUAL, S.A.",
          "href": "https://api.euskadi.eus/procurements/companies/03486"
        }
      }
    },
    {
      "name": "JAKINCODE, S.L.",
      "registrationNumber": "05969",
      "identificationNumber": "B01528538",
      "address": "C/ ADRIANO VI 20, 4º OFICINA 6",
      "location": {
        "postalCode": "01008",
        "municipality": "Vitoria-Gasteiz",
        "county": "Araba/Álava",
        "municipalityId": "059",
        "countyId": "01"
      },
      "economicActivities": [
        {
          "id": "1.843.1",
          "name": "Servicios técnicos de ingeniería",
          "_links": {
            "self": {
              "name": "Servicios técnicos de ingeniería",
              "href": "https://api.euskadi.eus/procurements/companies/economic-activities/1.843.1"
            }
          }
        }
      ],
      "certificateStartDate": "2018-12-12",
      "certificateEndDate": "2019-04-18",
      "object": "A) EL DISEÑO, DESARROLLO, PRODUCCIÓN, INTEGRACIÓN Y MANTENIMIENTO DE SISTEMAS, EQUIPOS, SOLUCIONES Y PRODUCTOS BASADOS EN EL USO INTENSIVO DE LAS TECNOLOGÍAS DE LA INFORMACIÓN (INFORMÁTICA, ELECTRÓNICA Y COMUNICACIONES). B) LA VENTA, ALQUILER, CESIÓN Y EXPLOTACIÓN POR CUALQUIER TÍTULO DE PROGRAMAS INFORMÁTICOS. C) LA PRESTACIÓN DE SERVICIOS PROFESIONALES ASOCIADOS, TALES COMO, CONSULTORÍA DE NEGOCIO Y CONSULTORÍA TECNOLÓGICA, DE SOLUCIONES, AUDITORÍA, FORMACIÓN Y PRESTACIÓN DE SERVICIOS PROFESIONALES RELATIVOS A LOS PROGRAMAS INFORMÁTICOS COMERCIALIZADOS Y DESARROLLADOS, CONSULTORÍA DE PRIVACIDAD Y SEGURIDAD\r\nINFORMÁTICA, REALIZACIÓN DE AUDITORÍAS INFORMÁTICAS; DESARROLLO DE PROGRAMAS DE SOFTWARE. SERVICIOS DE FORMACIÓN Y DOCENCIA. LA CONSULTORÍA, INGENIERÍA Y ASESORAMIENTO TECNOLÓGICO EN INFORMÁTICA Y EN SISTEMAS DE LA INFORMACIÓN. Y LA COMERCIALIZACIÓN, IMPLEMENTACIÓN Y MANTENIMIENTO DE PROYECTOS EN LAS MATERIAS ANTERIORMENTE MENCIONADAS\r\n",
      "mainEntityOfPage": "https://www.contratacion.euskadi.eus/webkpe00-kperoc/es/ac71aBusquedaRegistrosWar/empresa/05969",
      "_links": {
        "self": {
          "name": "JAKINCODE, S.L.",
          "href": "https://api.euskadi.eus/procurements/companies/05969"
        }
      }
    }
  ]
}