{
  "totalItems": 9042,
  "totalPages": 905,
  "currentPage": 555,
  "itemsOfPage": 10,
  "items": [
    {
      "name": "IDEXX LABORATORIOS,S.L.",
      "registrationNumber": "06418",
      "identificationNumber": "B61740361",
      "address": "C/ Plom,2-8 3º",
      "location": {
        "postalCode": "08038",
        "municipality": "Barcelona",
        "county": "Barcelona",
        "municipalityId": "019",
        "countyId": "08"
      },
      "economicActivities": [
        {
          "id": "1.619.2",
          "name": "Venta al por mayor de aparatos e instrumentos médicos, ortopédicos, ópticos",
          "_links": {
            "self": {
              "name": "Venta al por mayor de aparatos e instrumentos médicos, ortopédicos, ópticos",
              "href": "https://api.euskadi.eus/procurements/companies/economic-activities/1.619.2"
            }
          }
        },
        {
          "id": "1.942.9",
          "name": "Otros servicios sanitarios sin internados, no clasificados",
          "_links": {
            "self": {
              "name": "Otros servicios sanitarios sin internados, no clasificados",
              "href": "https://api.euskadi.eus/procurements/companies/economic-activities/1.942.9"
            }
          }
        }
      ],
      "certificateStartDate": "2020-10-28",
      "certificateEndDate": "2021-04-28",
      "object": "A) EL DESARROLLO, FABRICACIÓN, COMERCIALIZACIÓN Y DISTRIBUCIÓN DE PRODUCTOS PARA USO VETERINARIO, ALIMENTACIÓN Y MEDIOAMBIENTAL, INCLUYENDO INSTRUMENTOS, REACTIVOS, PROGRAMAS Y EQUIPOS INFORMÁTICOS; B) LA PRESTACIÓN DE SERVICIOS DE LABORATORIO PARA EL MERCADO VETERINARIO, ALIMENTICIO Y MEDIOAMBIENTAL; C) LA PRESTACIÓN DE SERVICIOS DE IMPORTACIÓN Y EXPORTACIÓN PARA EL MERCADO VETERINARIO, ALIMENTICIO Y MEDIO AMBIENTAL; D) LA PRESTACIÓN DE SERVIIOS DE CONSULTORÍA DE APOYO EN RELACIÓN CON LOS PRODUCTOS Y SERVICIOS ANTERIORMENTE MENCIONADOS. EN NINGÚN CASO EL OBJETO DE LA SOCIEDAD SE ENTENDERÁ REFERIDO A LAS ACTIVIDADES PROPIAS DE UNA COMPAÑÍA FARMACÉUTICA SUJETA A LA LEGISLACIÓN ESPAÑOLA DE ESTE TIPO DE SOCIEDADES\r\n",
      "mainEntityOfPage": "https://www.contratacion.euskadi.eus/webkpe00-kperoc/es/ac71aBusquedaRegistrosWar/empresa/06418",
      "_links": {
        "self": {
          "name": "IDEXX LABORATORIOS,S.L.",
          "href": "https://api.euskadi.eus/procurements/companies/06418"
        }
      }
    },
    {
      "name": "SAVIA PROYECTOS Y MANTENIMIENTOS, S.L.",
      "registrationNumber": "07331",
      "identificationNumber": "B57283814",
      "address": "POU DE SA SINI 24",
      "location": {
        "postalCode": "07350",
        "municipality": "Binissalem",
        "county": "Balears, Illes",
        "municipalityId": "008",
        "countyId": "07"
      },
      "economicActivities": [
        {
          "id": "1.463",
          "name": "Fabricación en serie de piezas de carpintería y parquet",
          "_links": {
            "self": {
              "name": "Fabricación en serie de piezas de carpintería y parquet",
              "href": "https://api.euskadi.eus/procurements/companies/economic-activities/1.463"
            }
          }
        },
        {
          "id": "1.501.1",
          "name": "Construcción completa, reparación y conservación de edificaciones",
          "_links": {
            "self": {
              "name": "Construcción completa, reparación y conservación de edificaciones",
              "href": "https://api.euskadi.eus/procurements/companies/economic-activities/1.501.1"
            }
          }
        }
      ],
      "certificateStartDate": "2020-10-28",
      "certificateEndDate": "2021-02-25",
      "object": "LA COMERCIALIZACIÓN E INSTALACIÓN DE EQUIPAMIENTOS DE MADERA PARA EXTERIOR, PARQUES INFANTILES, PARQUES DE AVENTURA, CASAS DE MADERA Y CUALQUIER EDIFICACIÓN EN MADERA PARA EXTERIOR, COMPLEMENTOS DE JARDINERÍA, ELEMENTOS PARA ZONAS DEPORTIVAS Y ZONAS HOTELERAS Y TURÍSTICAS.  LA REALIZACIÓN DE OBRA CIVIL NECESARIA PARA LA INSTALACIÓN DE LOS ELEMENTOS ANTERIORES. EL MANTENIMIENTO DE ZONAS DE OCIO PARA TODOS LOS SECTORES, EL MANTENIMIENTO DE PARQUES INFANTILES, ESTRUCTURAS DE MADERA, ZONAS DEPORTIVAS, ETC. LA IMPORTACIÓN Y COMERCIALIZACIÓN N DE PRODUCTOS COMPLEMENTARIOS PARA EL SECTOR DE OCIO. LA EXPORTACIÓN DE PRODUCTOS PARA EL SECTOR DE OCIO Y TURISMO",
      "mainEntityOfPage": "https://www.contratacion.euskadi.eus/webkpe00-kperoc/es/ac71aBusquedaRegistrosWar/empresa/07331",
      "_links": {
        "self": {
          "name": "SAVIA PROYECTOS Y MANTENIMIENTOS, S.L.",
          "href": "https://api.euskadi.eus/procurements/companies/07331"
        }
      }
    },
    {
      "name": "ADVANCED MEDICAL SYSTEMS, S. L.",
      "registrationNumber": "07333",
      "identificationNumber": "B84386317",
      "address": "CALLE VALENCIA 25, 1º 8",
      "location": {
        "postalCode": "28012",
        "municipality": "Madrid",
        "county": "Madrid",
        "municipalityId": "079",
        "countyId": "28"
      },
      "economicActivities": [
        {
          "id": "1.619.2",
          "name": "Venta al por mayor de aparatos e instrumentos médicos, ortopédicos, ópticos",
          "_links": {
            "self": {
              "name": "Venta al por mayor de aparatos e instrumentos médicos, ortopédicos, ópticos",
              "href": "https://api.euskadi.eus/procurements/companies/economic-activities/1.619.2"
            }
          }
        },
        {
          "id": "1.849.9",
          "name": "Otros servicios independientes n.c.o.p",
          "_links": {
            "self": {
              "name": "Otros servicios independientes n.c.o.p",
              "href": "https://api.euskadi.eus/procurements/companies/economic-activities/1.849.9"
            }
          }
        }
      ],
      "certificateStartDate": "2020-10-28",
      "certificateEndDate": "2020-04-15",
      "object": "LA DISTRIBUCIÓN, VENTA, IMPORTACIÓN, EXPORTACIÓN, REPARACIÓN, MANTENIMIENTO Y COMERCIO AL POR MAYOR Y AL POR MENOR DE APARATOS Y MATERIAL PARA USOS HOSPITALARIOS Y MÉDICOS EN GENERAL, OSTENTANDO TODA CLASE DE REPRESENTACIONES COMERCIALES, TANTO NACIONALES COMO EXTRANJERAS. Y LA PRESTACIÓN DE TODA CLASE DE SERVICIOS DE ESTUDIO, ASESORAMIENTO, FORMACIÓN, ASISTENCIA TÉCNICA E INTERMEDIACIÓN EN RELACIÓN CON LA PRMOCIÓN, CREACIÓN, DESARROLLO Y EQUIPAMIENTO DE CENTROS MÉDICOS",
      "mainEntityOfPage": "https://www.contratacion.euskadi.eus/webkpe00-kperoc/es/ac71aBusquedaRegistrosWar/empresa/07333",
      "_links": {
        "self": {
          "name": "ADVANCED MEDICAL SYSTEMS, S. L.",
          "href": "https://api.euskadi.eus/procurements/companies/07333"
        }
      }
    },
    {
      "name": "SAREKIN S.L.",
      "registrationNumber": "07335",
      "identificationNumber": "B20712758",
      "address": "Yurramendi, 14-3.",
      "location": {
        "postalCode": "20130",
        "municipality": "Urnieta",
        "county": "Gipuzkoa",
        "municipalityId": "072",
        "countyId": "20"
      },
      "economicActivities": [
        {
          "id": "1.966.9",
          "name": "Otros servicios culturales n.c.o.p",
          "_links": {
            "self": {
              "name": "Otros servicios culturales n.c.o.p",
              "href": "https://api.euskadi.eus/procurements/companies/economic-activities/1.966.9"
            }
          }
        }
      ],
      "certificateStartDate": "2020-10-28",
      "certificateEndDate": "2021-04-14",
      "object": "FOMENTAR, IMPULSAR, PROMOVER Y DESARROLLAR, PERMUTAR, COMPRAR Y VENDER, Y EN SU CASO GESTIONAR Y ADMINISTRAR TODA CLASE DE SERVICIOS RELACIONADOS CON PROYECTOS TANTO CULTURALES COMO PEDAGÓGICOS, ENTRE LOS CUALES COMPRENDE LA PRODUCCIÓN AUDIOVISUAL, PRODUCCIÓN ESCÉNICA, ASESORAMIENTO DE ESPACIOS ESCÉNICOS Y AUDIOVISUALES, SERVICIOS DE ALQUILER DE ESPACIOS Y MATERIAL, DISTRIBUCIÓN DE CORTOMETRAJES Y ESPECTÁCULOS",
      "mainEntityOfPage": "https://www.contratacion.euskadi.eus/webkpe00-kperoc/es/ac71aBusquedaRegistrosWar/empresa/07335",
      "_links": {
        "self": {
          "name": "SAREKIN S.L.",
          "href": "https://api.euskadi.eus/procurements/companies/07335"
        }
      }
    },
    {
      "name": "ANGEL GABARDOS GALINDO SUCESORES, S.L.",
      "registrationNumber": "07326",
      "identificationNumber": "B50666437",
      "address": "C/ CARAVIS , 36",
      "location": {
        "postalCode": "50197",
        "municipality": "Zaragoza",
        "county": "Zaragoza",
        "municipalityId": "297",
        "countyId": "50"
      },
      "economicActivities": [
        {
          "id": "1.453",
          "name": "Confección en serie de toda clase de prendas de vestir",
          "_links": {
            "self": {
              "name": "Confección en serie de toda clase de prendas de vestir",
              "href": "https://api.euskadi.eus/procurements/companies/economic-activities/1.453"
            }
          }
        }
      ],
      "certificateStartDate": "2020-10-27",
      "certificateEndDate": "2021-03-29",
      "object": "CONFECCION Y VENTA DE TODA CLASE DE PRENDAS DE VESTIR",
      "mainEntityOfPage": "https://www.contratacion.euskadi.eus/webkpe00-kperoc/es/ac71aBusquedaRegistrosWar/empresa/07326",
      "_links": {
        "self": {
          "name": "ANGEL GABARDOS GALINDO SUCESORES, S.L.",
          "href": "https://api.euskadi.eus/procurements/companies/07326"
        }
      }
    },
    {
      "name": "SANGALLI, CORONEL Y ASOCIADOS, S.L.",
      "registrationNumber": "07327",
      "identificationNumber": "B20976635",
      "address": "Montesol 24",
      "location": {
        "postalCode": "20016",
        "municipality": "Donostia / San Sebastián",
        "county": "Gipuzkoa",
        "municipalityId": "069",
        "countyId": "20"
      },
      "economicActivities": [
        {
          "id": "1.653.4",
          "name": "Venta al por menor de material de construcción y mobiliario de saneamiento",
          "_links": {
            "self": {
              "name": "Venta al por menor de material de construcción y mobiliario de saneamiento",
              "href": "https://api.euskadi.eus/procurements/companies/economic-activities/1.653.4"
            }
          }
        },
        {
          "id": "1.843.1",
          "name": "Servicios técnicos de ingeniería",
          "_links": {
            "self": {
              "name": "Servicios técnicos de ingeniería",
              "href": "https://api.euskadi.eus/procurements/companies/economic-activities/1.843.1"
            }
          }
        },
        {
          "id": "1.843.2",
          "name": "Servicios técnicos de arquitectura y urbanismo",
          "_links": {
            "self": {
              "name": "Servicios técnicos de arquitectura y urbanismo",
              "href": "https://api.euskadi.eus/procurements/companies/economic-activities/1.843.2"
            }
          }
        },
        {
          "id": "1.843.9",
          "name": "Otros servicios técnicos n.c.o.p",
          "_links": {
            "self": {
              "name": "Otros servicios técnicos n.c.o.p",
              "href": "https://api.euskadi.eus/procurements/companies/economic-activities/1.843.9"
            }
          }
        },
        {
          "id": "1.847",
          "name": "Servicios de consultoría",
          "_links": {
            "self": {
              "name": "Servicios de consultoría",
              "href": "https://api.euskadi.eus/procurements/companies/economic-activities/1.847"
            }
          }
        },
        {
          "id": "1.989.2",
          "name": "Servicios de organización de congresos, asambleas y similares",
          "_links": {
            "self": {
              "name": "Servicios de organización de congresos, asambleas y similares",
              "href": "https://api.euskadi.eus/procurements/companies/economic-activities/1.989.2"
            }
          }
        }
      ],
      "certificateStartDate": "2020-10-27",
      "certificateEndDate": "2021-04-14",
      "object": "EL CULTIVO, PRODUCCIÓN Y COMERCIALIZACIÓN DE PLANTAS VIVAS. LA COMERCIALIZACIÓN DE ELEMENTOS DE JARDINERÍA Y MATERIALES DE CONSTRUCCIÓN. LA REALIZACIÓN DE PROYECTOS DE JARDINERÍA, MEDIO AMBIENTE, PAISAJISMO Y TRABAJOS DE ARQUITECTURA. ASESORAMIENTO TÉCNICO Y COMERCIAL A VIVEROS, CENTROS DE JARDINERÍA, JARDINEROS, ARQUITECTOS, INGENIEROS, CONSTRUCTORAS Y ADMINISTRACIONES. REALIZACIÓN DE ESTUDIOS DE MERCADO Y ESTUDIOS DE IMPACTO AMBIENTAL. IMPARTICIÓN Y ORGANIZACIÓN DE CURSOS, JORNADAS, CONGRESOS, PONENCIAS Y CONFERENCIAS. VENTA DE OBRAS DE ARTE PROPIAS",
      "mainEntityOfPage": "https://www.contratacion.euskadi.eus/webkpe00-kperoc/es/ac71aBusquedaRegistrosWar/empresa/07327",
      "_links": {
        "self": {
          "name": "SANGALLI, CORONEL Y ASOCIADOS, S.L.",
          "href": "https://api.euskadi.eus/procurements/companies/07327"
        }
      }
    },
    {
      "name": "DXD APLICATIONS & IT SOLUTIONS, S.L.U.",
      "registrationNumber": "04866",
      "identificationNumber": "B83347138",
      "address": "PZA. PABLO RUIZ PICASSO 1, TORRE PICASSO",
      "location": {
        "postalCode": "28020",
        "municipality": "Madrid",
        "county": "Madrid",
        "municipalityId": "079",
        "countyId": "28"
      },
      "economicActivities": [
        {
          "id": "1.843.1",
          "name": "Servicios técnicos de ingeniería",
          "_links": {
            "self": {
              "name": "Servicios técnicos de ingeniería",
              "href": "https://api.euskadi.eus/procurements/companies/economic-activities/1.843.1"
            }
          }
        },
        {
          "id": "1.845",
          "name": "Explotación electrónica por cuenta de terceros",
          "_links": {
            "self": {
              "name": "Explotación electrónica por cuenta de terceros",
              "href": "https://api.euskadi.eus/procurements/companies/economic-activities/1.845"
            }
          }
        }
      ],
      "certificateStartDate": "2020-10-23",
      "certificateEndDate": "2021-04-13",
      "object": "1. PRESTAR TODA CLASE DE SERVICIOS EN EL ÁMBITO DE LAS TECNOLOGÍAS DE LA INFORMACIÓN Y LAS COMUNICACIONES, Y EN CONCRETO: SERVICIOS DE ASESORAMIENTO Y ESTUDIOS TECNOLÓGICOS; ASESORAMIENTO RELATIVOS AL DISEÑO Y MEJORA DE LOS PROCESOS DE GESTIÓN DE TECNOLOGÍA, METODOLOGÍAS Y ESTÁNDARES, ANÁLISIS Y ESTRUCTURA  DE COSTES, VALORACIÓN DE PUESTOS DE TRABAJO DE LAS ÁREAS DE IT, GESTIÓN DE RECURSOS HUMANOS; PLANIFICACIÓN, DESARROLLO E IMPLANTACIÓN DE ESTRATEGIAS DE SISTEMAS Y TECNOLOGÍAS DE LA INFORMACIÓN, GESTIÓN DEL RIESGO INFORMÁTICO; DEFINICIÓN ANÁLISIS, IMPLANTACIÓN, GESTIÓN Y GESTIÓN Y OPERACIÓN DE LA SEGURIDFAD DE LA INFORMACIÓN (INCLUYENDO PLANES DE SEGURIDAD Y PLANES DE CONTINGENCIA Y RECUPERACIÓN  ANTE DESASTRES); SERVICIOS DE CAPTURA DE INFORMACIÓN POR MEDIOS ELECTRÓNICOS, INFORMÁTICOS Y TELEMÁTICOS; SERVICIOS DE DESARROLLO Y MANTENIMIENTO DE PROGRAMAS DE ORDENADOR; SERVICIOS DE PARAMETRIZACIÓN Y DISTRIBUCIÓN DE CUALESQUIERA PAQUETES O SOLUCIONES TECNOLÓGICAS, TANTO COMO DISTRIBUIDORES EXCLUSIVOS, COMO REVENDEDORES O COMERCIALIZADORES E IMPLANTADORES DE LOS MISMOS; SERVICIOS DE CREACIÓN, ADAPTACIÓN O PUESTA EN MARCHA Y MANTENIMIENTO DE SISTEMAS DE INFORMACIÓN, Y DE GESTIÓN ADMINISTRATIVA EN INTERNET/INTRANET, SIGUIENDO LOS ESQUEMAS Y DISRECTRICES ESTABLECIDOS EN RELACIÓN CON LA IMPLANTACIÓN DE LA ADMINISTRACIÓN ELECTRÓNICA; SERVICIOS DE TELECOMUNICACIONES; SERVICIOS DE EXPLOTACIÓN Y CONTROL DE SISTEMAS INFORMÁTICOS E INFRAESTRUCTURAS TELEMÁTICAS; SERVICIOS DE EVALUACIÓN Y CERTIFICACIÓN TECNOLÓGICA; SERVICIOS DE FORMACIÓN TECNOLÓGICA, ASÍ COMO DISEÑAR, CREAR, EDITAR Y DISTRIBUIR CURSOS, MANUALES, LIBROS, VÍDEOS, SOFTWARE Y EN GENERAL CUALQUIER PRODUCTO AUDIOVISUAL DESTINADO A LA FORMACIÓN Y DESARROLLO PROFESIONAL DE DIRECTIVOS, EMPRESARIOS, EMPLEADOS Y PERSONAS RELACIONADS CON EL ÁMBITO DE LAS TECNOLOGÍAS DE LA INFORMACIÓN, ASÍ COMO CUALESQUIERA OTROS SERVICIOS INFORMÁTICOS O DE TELECOMUNICACIONES NO INCLUÍDOS EN LAS CATEGORÍAS ANTERIORES, DEBIENDO ENTENDER INCLUÍDOS EN TODOS LOS ANTERIORES SERVICIOS TODAS LAS ACTIVIDADES COMERCIALES DESCRITAS PARA EL GRUPO V EN EL ANEXO II DEL REAL DECRETO 1098/2001, DE 12 DE OCTUBRE, POR EL QUE SE APRUEBA EL REGLAMENTO GENERAL DE LA LEY DE CONTRATOS DE LAS ADMINISTRACIONES PUBLICAS",
      "mainEntityOfPage": "https://www.contratacion.euskadi.eus/webkpe00-kperoc/es/ac71aBusquedaRegistrosWar/empresa/04866",
      "_links": {
        "self": {
          "name": "DXD APLICATIONS & IT SOLUTIONS, S.L.U.",
          "href": "https://api.euskadi.eus/procurements/companies/04866"
        }
      }
    },
    {
      "name": "TÉCNICAS Y RECURSOS DE INSTALACIONES, S.L.",
      "registrationNumber": "07324",
      "identificationNumber": "B74419326",
      "address": "POLIGONO LA BARREDA, PARCELA 8, NAVE 2",
      "location": {
        "postalCode": "33180",
        "municipality": "Noreña",
        "county": "Asturias",
        "municipalityId": "042",
        "countyId": "33"
      },
      "economicActivities": [
        {
          "id": "1.504.1",
          "name": "Instalaciones eléctricas en general",
          "_links": {
            "self": {
              "name": "Instalaciones eléctricas en general",
              "href": "https://api.euskadi.eus/procurements/companies/economic-activities/1.504.1"
            }
          }
        },
        {
          "id": "1.504.3",
          "name": "Instalaciones de frío, calor y acondicionamiento de aire",
          "_links": {
            "self": {
              "name": "Instalaciones de frío, calor y acondicionamiento de aire",
              "href": "https://api.euskadi.eus/procurements/companies/economic-activities/1.504.3"
            }
          }
        }
      ],
      "certificateStartDate": "2020-10-23",
      "certificateEndDate": "2021-04-07",
      "object": "INSTALACIONES ELÉCTRICAS (CNAE 4321), CONSTITUCIÓN DE EDIFICIOS (CNAE 41), INGENIERÍA CIVIL (CNAE 42), ACTIVIDADES DE CONSTRUCCIÓN ESPECIALIZADA (CNAE 43), VENTA Y REPARACIÓN DE VEHÍCULOS DE MOTOR Y MOTOCICLETAS (CNAE 45), TELECOMUNICACIONES (CNAE 61), PROGRAMACIÓN, CONSULTORÍA Y OTRAS ACTIVIDADES RELACIONADAS CON LA INFORMÁTICA (CNAE 62), SERVICIOS DE INFORMACIÓN (CNAE 63), ACTIVIDADES INMOBILIARIAS (CNAE 68), SERVICIOS TÉCNICOS DE ARQUITECTURA E INGENIERÍA, ENSAYOS Y ANÁLISIS TÉCNICOS (CNAE 71)",
      "mainEntityOfPage": "https://www.contratacion.euskadi.eus/webkpe00-kperoc/es/ac71aBusquedaRegistrosWar/empresa/07324",
      "_links": {
        "self": {
          "name": "TÉCNICAS Y RECURSOS DE INSTALACIONES, S.L.",
          "href": "https://api.euskadi.eus/procurements/companies/07324"
        }
      }
    },
    {
      "name": "MEMAN 3000, S.L.",
      "registrationNumber": "07236",
      "identificationNumber": "B95424529",
      "address": "calle Bidearte, nº 6 - 3º iz.",
      "location": {
        "postalCode": "48930",
        "municipality": "Getxo",
        "county": "Bizkaia",
        "municipalityId": "044",
        "countyId": "48"
      },
      "economicActivities": [
        {
          "id": "1.841",
          "name": "Servicios jurídicos",
          "_links": {
            "self": {
              "name": "Servicios jurídicos",
              "href": "https://api.euskadi.eus/procurements/companies/economic-activities/1.841"
            }
          }
        }
      ],
      "certificateStartDate": "2020-10-22",
      "certificateEndDate": "2021-01-14",
      "object": "A) LA PRESTACIÓN DE SERVICIOS PROFESIONALES DE ASESORAMIENTO LEGAL. EN RELACIÓN CON AQUELLOS SERVICIOS PROFESIONALES INCLUIDOS DENTRO DEL OBJETO SOCIAL QUE, CONFORME A LA NORMATIVA VIGENTE, DEBAN SER REALIZADOS POR PERSONAS FÍSICAS CON TITULACIÓN ACADÉMICA Y/O COLEGIACIÓN PROFESIONAL SUFICIENTE, LA SOCIEDAD PODRÁ REALIZAR FUNCIONES DE MEDIACIÓN ENTRE QUIENES SOLICITEN TALES SERVICIOS EN SU PROPIO NOMBRE. EN RELACIÓN CON ESTOS SERVICIOS, LA SOCIEDAD REALIZARÁ ASIMISMO LAS FUNCIONES DE COORDINACIÓN QUE SE INDICAN EN EL SIGUIENTE APARTADO. B) LA COORDINACIÓN DE LAS ACTIVIDADES PROFESIONALES REALIZADAS POR LOS PROFESIONALES Y EMPLEADOS QUE PUDIERAN FORMAR PARTE DE LA PLANTILLA DE LA MERCANTIL. C) LA SOCIEDAD Y SUS SOCIOS RESPETARÁN Y CUMPLIRÁN LAS NORMAS DEONTOLÓGICAS DE LOS COLEGIOS PROFESIONALES QUE REGULEN LAS ACTIVIDADES PROFESIONALES QUE CONSTITUYEN SU OBJETO SOCIAL, ASÍ COMO CUALQUIER DISPOSICIÓN NORMATIVA QUE AFECTE A DICHAS ACTIVIDADES. D) EN EL SUPUESTO EN QUE EL DESARROLLO DEL OBJETO SOCIAL REQUIERA LA OBTENCIÓN DE CUALQUIER TIPO DE CONCESIÓN, LICENCIA O AUTORIZACIÓN ADMINISTRATIVA, ÉSTA SE OBTENDRÁ CON CARÁCTER PREVIO AL INICIO DE LA ACTIVIDAD",
      "mainEntityOfPage": "https://www.contratacion.euskadi.eus/webkpe00-kperoc/es/ac71aBusquedaRegistrosWar/empresa/07236",
      "_links": {
        "self": {
          "name": "MEMAN 3000, S.L.",
          "href": "https://api.euskadi.eus/procurements/companies/07236"
        }
      }
    },
    {
      "name": "C. ANDRÉS & LL. MASIÁ, S.L.P.",
      "registrationNumber": "07321",
      "identificationNumber": "B86242518",
      "address": "Avda. Reina Victoria 10, 1ºA",
      "location": {
        "postalCode": "28003",
        "municipality": "Madrid",
        "county": "Madrid",
        "municipalityId": "079",
        "countyId": "28"
      },
      "economicActivities": [
        {
          "id": "1.843.2",
          "name": "Servicios técnicos de arquitectura y urbanismo",
          "_links": {
            "self": {
              "name": "Servicios técnicos de arquitectura y urbanismo",
              "href": "https://api.euskadi.eus/procurements/companies/economic-activities/1.843.2"
            }
          }
        }
      ],
      "certificateStartDate": "2020-10-22",
      "certificateEndDate": "2021-03-03",
      "object": "LA PRESTACIÓN DE SERVICIOS PROFESIONALES EN LOS CAMPOS DE LA ARQUITECTURA Y EL URBANISMO A CARGO DE LOS ARQUITECTOS SOCIOS, CON LA COLABORACIÓN, EN SU CASO, DE OTROS PROFESIONALES LEGALMENTE COMPETENTES. COMPLEMENTARIAMENTE SE INCLUYE EN EL OBJETO SOCIAL LA ASUNCIÓN POR LA ENTIDAD, EN REPRESENTACIÓN DE LOS CLIENTES Y POR CUENTA EXCLUSIVA DE LOS MISMOS, DE LAS ACTIVIDADES DE GESTIÓN, ASESORAMIENTO, COORDINACIÓN Y ADMINISTRACIÓN QUE GUARDEN RELACIÓN Y SEAN COMPATIBLES CON LA REALIZACIÓN DE LAS MISIONES PROFESIONALES ENCARGADAS. TAMBIÉN SE CONTEMPLA LA EXPLOTACIÓN DE DERECHOS DE PROPIEDAD INTELECTUAL O INDUSTRIAL DERIVADOS DE LA ACTIVIDAD PROFESIONAL DE LOS SOCIOS DE LA SOCIEDAD",
      "mainEntityOfPage": "https://www.contratacion.euskadi.eus/webkpe00-kperoc/es/ac71aBusquedaRegistrosWar/empresa/07321",
      "_links": {
        "self": {
          "name": "C. ANDRÉS & LL. MASIÁ, S.L.P.",
          "href": "https://api.euskadi.eus/procurements/companies/07321"
        }
      }
    }
  ]
}