{
  "totalItems": 9042,
  "totalPages": 905,
  "currentPage": 731,
  "itemsOfPage": 10,
  "items": [
    {
      "name": "EXCAVACIONES UGARTE, S.L.",
      "registrationNumber": "04388",
      "identificationNumber": "B20597894",
      "address": "CTRA. MOLINO, 39",
      "location": {
        "postalCode": "20303",
        "municipality": "Irun",
        "county": "Gipuzkoa",
        "municipalityId": "045",
        "countyId": "20"
      },
      "economicActivities": [
        {
          "id": "1.502.2",
          "name": "Consolidación y preparación de terrenos para la construcción de edificaciones",
          "_links": {
            "self": {
              "name": "Consolidación y preparación de terrenos para la construcción de edificaciones",
              "href": "https://api.euskadi.eus/procurements/companies/economic-activities/1.502.2"
            }
          }
        }
      ],
      "certificateStartDate": "2010-04-13",
      "certificateEndDate": "2010-07-18",
      "object": "CONSOLIDACIÓN Y PREPARACIÓN DE TERRENOS PARA TODO TIPO DE OBRAS, DEMOLICIONES, ALQUILER DE MAQUINARIA Y EQUIPOS PARA LA CONSTRUCCIÓN, ASÍ COMO EL SERVICIO PÚBLICO DE TRANSPORTE NACIONAL DE MERCANCIAS POR CARRETERA ",
      "mainEntityOfPage": "https://www.contratacion.euskadi.eus/webkpe00-kperoc/es/ac71aBusquedaRegistrosWar/empresa/04388",
      "_links": {
        "self": {
          "name": "EXCAVACIONES UGARTE, S.L.",
          "href": "https://api.euskadi.eus/procurements/companies/04388"
        }
      }
    },
    {
      "name": "5 W, S.L.",
      "registrationNumber": "04389",
      "identificationNumber": "B20202750",
      "address": "MIKELETEGI 56, OF. 311",
      "location": {
        "postalCode": "20009",
        "municipality": "Donostia / San Sebastián",
        "county": "Gipuzkoa",
        "municipalityId": "069",
        "countyId": "20"
      },
      "economicActivities": [
        {
          "id": "1.844",
          "name": "Servicios de publicidad, relaciones públicas y similares",
          "_links": {
            "self": {
              "name": "Servicios de publicidad, relaciones públicas y similares",
              "href": "https://api.euskadi.eus/procurements/companies/economic-activities/1.844"
            }
          }
        }
      ],
      "certificateStartDate": "2010-04-13",
      "certificateEndDate": "2010-09-22",
      "object": "LA EXPLOTACIÓN DE UNA AGENCIA DE TELEVISIÓN, ABARCANDO TODO EL CAMPO DE PRODUCCIÓN, DISTRIBUCIÓN, PUBLICIDAD Y DERECHOS DE PRODUCCIÓN AUDIOVISUAL Y CUANTAS ACTIVIDADES SE RELACIONEN DIRECTAMENTE CON DICHO OBJETO PRINCIPAL",
      "mainEntityOfPage": "https://www.contratacion.euskadi.eus/webkpe00-kperoc/es/ac71aBusquedaRegistrosWar/empresa/04389",
      "_links": {
        "self": {
          "name": "5 W, S.L.",
          "href": "https://api.euskadi.eus/procurements/companies/04389"
        }
      }
    },
    {
      "name": "GACOVAS 2002, S.L.",
      "registrationNumber": "04390",
      "identificationNumber": "B95227922",
      "address": "C/ MIRIBILLA, Nº 4- LONJA",
      "location": {
        "postalCode": "48003",
        "municipality": "Bilbao",
        "county": "Bizkaia",
        "municipalityId": "020",
        "countyId": "48"
      },
      "economicActivities": [
        {
          "id": "1.501.3",
          "name": "Albañilería y pequeños trabajos de construcción en general",
          "_links": {
            "self": {
              "name": "Albañilería y pequeños trabajos de construcción en general",
              "href": "https://api.euskadi.eus/procurements/companies/economic-activities/1.501.3"
            }
          }
        }
      ],
      "certificateStartDate": "2010-04-13",
      "certificateEndDate": "2010-09-24",
      "object": "A) LA ADQUISICIÓN, TENENCIA, DISFRUTE, ADMINISTRACIÓN, VENTA Y EXPLOTACIÓN DE TERRENOS SOLARES Y EN GENERAL TODA CLASE DE BIENES INMUEBLES, INCLUIDA LA URBANIZACIÓN, PROMOCIÓN, CONSTRUCCIÓN, REHABILITACIÓN Y ENAJENACIÓN DE TERRENOS Y EDIFICACIONES Y SUS DERIVADOS. B) LAS OPERACIONES DE GESTIÓN, COMERCIALIZACIÓN, REPRESENTACIÓN, ADMINISTRACIÓN, PRESTACIÓN Y EJECUCIÓN DE SERVICIOS A TERCERAS PERSONAS. C) REALIZAR Y CONTRATAR OBRAS PÚBLICAS Y PRIVADAS, EJECUTARLAS Y PRESTAR SERVICIOS DE CUALQUIER CLASE Y NATURALEZA , CON Y SIN SUMINISTROS DE MATERIALES Y SUS COMBINACIONES Y ACTOS DERIVATIVOS. D) LA ADQUISICIÓN, PROMOCIÓN Y CONSTRUCCIÓN DE TODA CLASE DE FINCAS RÚSTICAS Y URBANAS PARA SER EXPLOTADAS EN RÉGIMEN DE ARRENDAMIENTO",
      "mainEntityOfPage": "https://www.contratacion.euskadi.eus/webkpe00-kperoc/es/ac71aBusquedaRegistrosWar/empresa/04390",
      "_links": {
        "self": {
          "name": "GACOVAS 2002, S.L.",
          "href": "https://api.euskadi.eus/procurements/companies/04390"
        }
      }
    },
    {
      "name": "BIOMAT, S.A.",
      "registrationNumber": "02040",
      "identificationNumber": "A59861856",
      "address": "C/ JESÚS Y MARÍA, Nº 6",
      "location": {
        "postalCode": "08022",
        "municipality": "Barcelona",
        "county": "Barcelona",
        "municipalityId": "019",
        "countyId": "08"
      },
      "economicActivities": [
        {
          "id": "1.942.9",
          "name": "Otros servicios sanitarios sin internados, no clasificados",
          "_links": {
            "self": {
              "name": "Otros servicios sanitarios sin internados, no clasificados",
              "href": "https://api.euskadi.eus/procurements/companies/economic-activities/1.942.9"
            }
          }
        }
      ],
      "certificateStartDate": "2010-04-08",
      "certificateEndDate": "2010-09-12",
      "object": "LA RECOGIDA, APROVECHAMIENTO Y SEPARACIÓN DE CUALQUIER TIPO DE PRODUCTO DE ORIGEN BIOLÓGICO, PARA SU TRATAMIENTO, INVESTIGACIÓN, MANIPULACIÓN Y DISTRIBUCIÓN A TERCEROS PARA SU POSTERIOR ELABORACIÓN O TRATAMIENTO",
      "mainEntityOfPage": "https://www.contratacion.euskadi.eus/webkpe00-kperoc/es/ac71aBusquedaRegistrosWar/empresa/02040",
      "_links": {
        "self": {
          "name": "BIOMAT, S.A.",
          "href": "https://api.euskadi.eus/procurements/companies/02040"
        }
      }
    },
    {
      "name": "INFINITY CARDS, S.L.",
      "registrationNumber": "04323",
      "identificationNumber": "B01317130",
      "address": "C/ LEONARDO DA VINCI, 9-E5 (P.TEC.ALAVA)",
      "location": {
        "postalCode": "01510",
        "municipality": "Vitoria-Gasteiz",
        "county": "Araba/Álava",
        "municipalityId": "059",
        "countyId": "01"
      },
      "economicActivities": [
        {
          "id": "1.355.2",
          "name": "Edición de soportes grabados de sonido, vídeo y de informática",
          "_links": {
            "self": {
              "name": "Edición de soportes grabados de sonido, vídeo y de informática",
              "href": "https://api.euskadi.eus/procurements/companies/economic-activities/1.355.2"
            }
          }
        },
        {
          "id": "1.617.8",
          "name": "Venta al por mayor de máquinas y material de oficina",
          "_links": {
            "self": {
              "name": "Venta al por mayor de máquinas y material de oficina",
              "href": "https://api.euskadi.eus/procurements/companies/economic-activities/1.617.8"
            }
          }
        },
        {
          "id": "1.845",
          "name": "Explotación electrónica por cuenta de terceros",
          "_links": {
            "self": {
              "name": "Explotación electrónica por cuenta de terceros",
              "href": "https://api.euskadi.eus/procurements/companies/economic-activities/1.845"
            }
          }
        }
      ],
      "certificateStartDate": "2010-04-08",
      "certificateEndDate": "2010-09-18",
      "object": "LA TITULARIDAD DE ACCIONES O PARTICPACIONES EN SOCIEDADES CON OBJETO IDÉNTICO, LA PRODUCCIÓN, COMERCIALIZACIÓN Y DISTRIBUCIÓN DE SOPORTES INFORMÁTICOS Y TECNOLÓGICOS",
      "mainEntityOfPage": "https://www.contratacion.euskadi.eus/webkpe00-kperoc/es/ac71aBusquedaRegistrosWar/empresa/04323",
      "_links": {
        "self": {
          "name": "INFINITY CARDS, S.L.",
          "href": "https://api.euskadi.eus/procurements/companies/04323"
        }
      }
    },
    {
      "name": "ABELTZAIN, S. COOP. DE SERVICIOS VETERINARIOS",
      "registrationNumber": "02119",
      "identificationNumber": "F01048735",
      "address": "PL. SIMÓN BOLÍVAR, Nº 14 - BAJO",
      "location": {
        "postalCode": "01003",
        "municipality": "Vitoria-Gasteiz",
        "county": "Araba/Álava",
        "municipalityId": "059",
        "countyId": "01"
      },
      "economicActivities": [
        {
          "id": "1.843.9",
          "name": "Otros servicios técnicos n.c.o.p",
          "_links": {
            "self": {
              "name": "Otros servicios técnicos n.c.o.p",
              "href": "https://api.euskadi.eus/procurements/companies/economic-activities/1.843.9"
            }
          }
        },
        {
          "id": "1.945",
          "name": "Consultas y clínicas veterinarias",
          "_links": {
            "self": {
              "name": "Consultas y clínicas veterinarias",
              "href": "https://api.euskadi.eus/procurements/companies/economic-activities/1.945"
            }
          }
        }
      ],
      "certificateStartDate": "2010-03-31",
      "certificateEndDate": "2010-09-23",
      "object": "GARANTIZAR LA ATENCIÓN VETERINARIA A TODOS LOS GANADEROS QUE TENGAN LA SEDE DE SU EXPLOTACIÓN EN EL TERRITORIO HISTÓRICO DE ÁLAVA, INCLUIDAS LAS ACTUACIONES DERIVADAS DE LOS PROGRAMAS SANITARIOS O DE MEJORA PROMOVIDA POR LAS ADMINISTRACIONES PÚBLICAS",
      "mainEntityOfPage": "https://www.contratacion.euskadi.eus/webkpe00-kperoc/es/ac71aBusquedaRegistrosWar/empresa/02119",
      "_links": {
        "self": {
          "name": "ABELTZAIN, S. COOP. DE SERVICIOS VETERINARIOS",
          "href": "https://api.euskadi.eus/procurements/companies/02119"
        }
      }
    },
    {
      "name": "MORKAITZ, S.A.",
      "registrationNumber": "02735",
      "identificationNumber": "A48169270",
      "address": "Plaza Circular, 4-5º",
      "location": {
        "postalCode": "48011",
        "municipality": "Bilbao",
        "county": "Bizkaia",
        "municipalityId": "020",
        "countyId": "48"
      },
      "economicActivities": [
        {
          "id": "1.501.2",
          "name": "Construcción completa, reparación y conservación obras civiles",
          "_links": {
            "self": {
              "name": "Construcción completa, reparación y conservación obras civiles",
              "href": "https://api.euskadi.eus/procurements/companies/economic-activities/1.501.2"
            }
          }
        }
      ],
      "certificateStartDate": "2010-03-30",
      "certificateEndDate": "2010-09-02",
      "object": "A) EL ESTUDIO, CONCESIÓN, CONSTRUCCIÓN Y EXPLOTACIÓN DE TODA CLASE DE OBRAS, SEAN PÚBLICAS O PRIVADAS PUDIENDO ACUDIR PARA CONTRATARLAS A CONCURSOS, SUBASTAS Y HACER, SIGUIENDO LOS TRÁMITES, OFERTAS PRIVADAMENTE HASTA OBTENER LAS ADJUDICACIONES.\r\nB) LA ADQUISICIÓN, POR COMPRA, DENUNCIA O CONCESIÓN Y SU EXLOTACIÓN Y VENTA DE TERRENOS, MINAS, CANTERAS,  APROVECHAMIENTOS DE AGUAS, TALLERES INDUSTRIAS ANEJAS AL RAMO DE CONSTRUCCIÓN.\r\nC) LA COMPRAVENTA, MANUFACTURA, IMPORTACIÓN Y EXPORTACIÓN DE TODA CLASE DE MATERIALES Y EQUIPOS DE CONSTRUCCIÓN, INCLUYENDO EL TRANSPORTE, ALMACENAMIENTO Y DISTRIBUCIÓN DE LOS MISMOS, EN TODAS SUS MODALIDADES.\r\nD) LA REALIZACIÓN DE ESTUDIOS, PROYECTOS, DISEÑOS, CÁLCULOS Y CUALESQUIERA OTROS SERVICIOS TÉCNICOS EN FAVOR DE LA PROPIA SOCIEDAD DE TERCEROS RELACIONADOS CON TODO TIPO DE OBRAS Y CONSTRUCCIÓNES, DESARROLLANDO LA TECNOLOGÍA QUE SEA PRECISA.\r\n",
      "mainEntityOfPage": "https://www.contratacion.euskadi.eus/webkpe00-kperoc/es/ac71aBusquedaRegistrosWar/empresa/02735",
      "_links": {
        "self": {
          "name": "MORKAITZ, S.A.",
          "href": "https://api.euskadi.eus/procurements/companies/02735"
        }
      }
    },
    {
      "name": "MOLLERGUI CONSTRUCCIONES, S.L.",
      "registrationNumber": "04223",
      "identificationNumber": "B01213131",
      "address": "PORTAL DE GAMARRA, 1 OF 133",
      "location": {
        "postalCode": "01013",
        "municipality": "Vitoria-Gasteiz",
        "county": "Araba/Álava",
        "municipalityId": "059",
        "countyId": "01"
      },
      "economicActivities": [
        {
          "id": "1.501.1",
          "name": "Construcción completa, reparación y conservación de edificaciones",
          "_links": {
            "self": {
              "name": "Construcción completa, reparación y conservación de edificaciones",
              "href": "https://api.euskadi.eus/procurements/companies/economic-activities/1.501.1"
            }
          }
        },
        {
          "id": "1.506.0",
          "name": "Instalaciones de andamios, cimbras, encofrados, etc",
          "_links": {
            "self": {
              "name": "Instalaciones de andamios, cimbras, encofrados, etc",
              "href": "https://api.euskadi.eus/procurements/companies/economic-activities/1.506.0"
            }
          }
        }
      ],
      "certificateStartDate": "2010-03-26",
      "certificateEndDate": "2010-07-13",
      "object": "LA ADQUISICIÓN, URBANIZACIÓN, PARCELACIÓN, PROMOCIÓN, CONSTRUCCIÓN, EDIFICACIÓN, CONSTITUCIÓN EN PROPIEDAD HORIZONTAL, REFORMA, AMPLIACIÓN, EXPLOTACIÓN DIRECTA O INDIRECTA, ENAJENACIÓN, Y EN GENERAL, TODA ACTIVIDAD RELATIVA A BIENES INMUEBLES, Y TODA SUERTE DE INVERSIONES Y PROMOCIONES RELACIONADAS CON EL RAMO DE LA CONSTRUCCIÓN.",
      "mainEntityOfPage": "https://www.contratacion.euskadi.eus/webkpe00-kperoc/es/ac71aBusquedaRegistrosWar/empresa/04223",
      "_links": {
        "self": {
          "name": "MOLLERGUI CONSTRUCCIONES, S.L.",
          "href": "https://api.euskadi.eus/procurements/companies/04223"
        }
      }
    },
    {
      "name": "MANIPULADOS ALAVESES, S.L.",
      "registrationNumber": "03354",
      "identificationNumber": "B01170331",
      "address": "C/ZURRUPITIETA, 26. PABELLÓN 5 A",
      "location": {
        "postalCode": "01015",
        "municipality": "Vitoria-Gasteiz",
        "county": "Araba/Álava",
        "municipalityId": "059",
        "countyId": "01"
      },
      "economicActivities": [
        {
          "id": "1.475",
          "name": "Actividades anexas a las artes gráficas",
          "_links": {
            "self": {
              "name": "Actividades anexas a las artes gráficas",
              "href": "https://api.euskadi.eus/procurements/companies/economic-activities/1.475"
            }
          }
        }
      ],
      "certificateStartDate": "2010-03-25",
      "certificateEndDate": "2010-07-13",
      "object": "LA MANIPULACIÓN Y ENCUADERNACIÓN DE PAPEL BLANCO E IMPRESO",
      "mainEntityOfPage": "https://www.contratacion.euskadi.eus/webkpe00-kperoc/es/ac71aBusquedaRegistrosWar/empresa/03354",
      "_links": {
        "self": {
          "name": "MANIPULADOS ALAVESES, S.L.",
          "href": "https://api.euskadi.eus/procurements/companies/03354"
        }
      }
    },
    {
      "name": "SOSTENIBILIDAD Y TRANSPORTE CONSULTORES, S.L.",
      "registrationNumber": "03418",
      "identificationNumber": "B95355236",
      "address": "ITURRIONDO  18/PAE IBARRABARRI. EDIFICIO A1-2ºA",
      "location": {
        "postalCode": "48940",
        "municipality": "Leioa",
        "county": "Bizkaia",
        "municipalityId": "054",
        "countyId": "48"
      },
      "economicActivities": [
        {
          "id": "1.843.1",
          "name": "Servicios técnicos de ingeniería",
          "_links": {
            "self": {
              "name": "Servicios técnicos de ingeniería",
              "href": "https://api.euskadi.eus/procurements/companies/economic-activities/1.843.1"
            }
          }
        }
      ],
      "certificateStartDate": "2010-03-25",
      "certificateEndDate": "2010-08-05",
      "object": "LA REALIZACIÓN Y EJECUCIÓN DE TODO TIPO DE ESTUDIOS, INFORMES Y PROYECTOS RELACIONADOS CON  LA COMPAÑÍA, PLANTEAMIENTO URBANÍSTICO, MEDIO-AMBIENTAL O DE ORDENACIÓN DEL TERRITORIO, LA CONSTRUCCIÓN, OBRAS PÚBLICAS Y TRANSPORTES, ASÍ COMO LA APLICACIÓN DE MÉTODOS  CUANTITATIVOS, PROSPECTIVOS O INFORMÁTICOS, EL ANÁLISIS Y RESOLUCIÓN DE PROBLEMAS RELACIONADOS CON LA ECONOMÍA, EL TRANSPORTE, EL TERRITORIO Y LA SOCIEDAD EN GENERAL",
      "mainEntityOfPage": "https://www.contratacion.euskadi.eus/webkpe00-kperoc/es/ac71aBusquedaRegistrosWar/empresa/03418",
      "_links": {
        "self": {
          "name": "SOSTENIBILIDAD Y TRANSPORTE CONSULTORES, S.L.",
          "href": "https://api.euskadi.eus/procurements/companies/03418"
        }
      }
    }
  ]
}