{
  "totalItems": 9042,
  "totalPages": 905,
  "currentPage": 156,
  "itemsOfPage": 10,
  "items": [
    {
      "name": "JESUS GOICOECHEA DE MIGUEL",
      "registrationNumber": "10429",
      "identificationNumber": "30555714F",
      "address": "Kareaga Goikoa, 48 - 2.º C",
      "location": {
        "postalCode": "48970",
        "municipality": "Basauri",
        "county": "Bizkaia",
        "municipalityId": "015",
        "countyId": "48"
      },
      "economicActivities": [
        {
          "id": "1.475",
          "name": "Actividades anexas a las artes gráficas",
          "_links": {
            "self": {
              "name": "Actividades anexas a las artes gráficas",
              "href": "https://api.euskadi.eus/procurements/companies/economic-activities/1.475"
            }
          }
        }
      ],
      "certificateStartDate": "2025-11-18",
      "certificateEndDate": "2026-05-17",
      "object": "ACTIVIDADES ANEXAS A LAS ARTES GRÁFICAS.",
      "mainEntityOfPage": "https://www.contratacion.euskadi.eus/webkpe00-kperoc/es/ac71aBusquedaRegistrosWar/empresa/10429",
      "_links": {
        "self": {
          "name": "JESUS GOICOECHEA DE MIGUEL",
          "href": "https://api.euskadi.eus/procurements/companies/10429"
        }
      }
    },
    {
      "name": "APRENDIZA CONSULTORES, S.L.",
      "registrationNumber": "04650",
      "identificationNumber": "B48307706",
      "address": "AVDA. LENDAKARI AGIRRE, Nº 11- 8ª PLANTA",
      "location": {
        "postalCode": "48014",
        "municipality": "Bilbao",
        "county": "Bizkaia",
        "municipalityId": "020",
        "countyId": "48"
      },
      "economicActivities": [
        {
          "id": "1.847",
          "name": "Servicios de consultoría",
          "_links": {
            "self": {
              "name": "Servicios de consultoría",
              "href": "https://api.euskadi.eus/procurements/companies/economic-activities/1.847"
            }
          }
        },
        {
          "id": "1.934",
          "name": "Enseñanza fuera de establecimiento permanente",
          "_links": {
            "self": {
              "name": "Enseñanza fuera de establecimiento permanente",
              "href": "https://api.euskadi.eus/procurements/companies/economic-activities/1.934"
            }
          }
        }
      ],
      "certificateStartDate": "2025-11-18",
      "certificateEndDate": "2026-05-13",
      "object": "LA ADQUISICIÓN, VENTA, CESIÓN, INVERSIÓN, TENENCIA, IDSFRUTE, ADMINISTRACIÓN, GESTIÓN Y NEGOCIACIÓN EN GENERAL DE TODA CLASE DE TÍTULOS Y VALORES MOBILIARIOS, COTIZADOS EN BOLSA U OTROS MERCADOS O NO, SIN INCIDIR EN ACTIVIDADES OBJETO DE LEGISLACIÓN ESPECIAL. LA COMPRAVENTA, CESIÓN, DISFRUTE Y ADQUISICIÓN POR CUALQUIER TÍTULO DE FINCAS RÚSTICAS O URBANAS, LA CONSTRUCCIÓN DE ESTAS Y LA ADMINISTRACIÓN, TENENCIA, EXPLOTACIÓN Y ARRENDAMIENTO DE TALES BIENES. EL ASESORAMIENTO DE EMPRESAS, EL ESTUDIO, INVESTIGACIÓN, PROMOCIÓN Y PRESTACIÓN DE TODA CLASE DE SERVICIOS DE ASISTENCIA Y GESTIÓN TÉCNICA, ADMINISTRATIVA, COMERCIAL, CONTABLE, FINANCIERA, ECONÓMICA, FISCAL Y JURÍDICA, TODO ELLO POR PERSONAS CON TITULACIÓN ESPECIAL. LA FORMACIÓN E INFORMACIÓN DE TODO TIPO DE PERSONAS MEDIANTE CURSOS, SEMINARIOS, JORNADAS, TANDO DE PRESENCIA COMO A DISTANCIA, EN CUALQUIER MATERIA, ASÍ COMO LA EDICIÓN DE LOS TEXTOS Y LIBROS ENCAMINADOS A TAL FIN, REVISTAS, Y CUALQUIER OTRO MEDIO DE DIFUSIÓN, QUE CONSIDERE IDÓNEO PARA SUS FINES, LA GESTIÓN, CREACIÓN, TOMA DE PARTICIPACIONES Y ASESORAMIENTO DE TODO TIPO DE EMPRESAS, CONSULTORÍA, GESTIÓN, DISTRIBUCIÓN, IMPORTACIÓN Y EXPORTACIÓN DE TODO TIPO DE PRODUCTOS CONEXOS CON DICHAS ACTIVIDADES DE FORMACIÓN, INFORMACIÓN Y ASESORAMIENTO. Y EN ESPECIAL, LA ELABORACIÓN, IMPORTACIÓN, ANÁLISIS Y SEGUIMIENTO DE CURSOS DE FORMACIÓN PARA DESEMPLEADOS Y EMPLEADOS DEL SECTOR PÚBLICO Y PRIVADO",
      "mainEntityOfPage": "https://www.contratacion.euskadi.eus/webkpe00-kperoc/es/ac71aBusquedaRegistrosWar/empresa/04650",
      "_links": {
        "self": {
          "name": "APRENDIZA CONSULTORES, S.L.",
          "href": "https://api.euskadi.eus/procurements/companies/04650"
        }
      }
    },
    {
      "name": "IÑIGO VALLEJO LOZANO",
      "registrationNumber": "10428",
      "identificationNumber": "14939913X",
      "address": "Calle Bekolasa 4, bajo",
      "location": {
        "postalCode": "01194",
        "municipality": "Vitoria-Gasteiz",
        "county": "Araba/Álava",
        "municipalityId": "059",
        "countyId": "01"
      },
      "economicActivities": [
        {
          "id": "2.776",
          "name": "Doctores y licenciados en ciencias políticas y sociales",
          "_links": {
            "self": {
              "name": "Doctores y licenciados en ciencias políticas y sociales",
              "href": "https://api.euskadi.eus/procurements/companies/economic-activities/2.776"
            }
          }
        }
      ],
      "certificateStartDate": "2025-11-18",
      "certificateEndDate": "2026-05-18",
      "object": "DOCTORES Y LICENCIADOS EN CIENCIAS POLÍTICAS Y SOCIALES.",
      "mainEntityOfPage": "https://www.contratacion.euskadi.eus/webkpe00-kperoc/es/ac71aBusquedaRegistrosWar/empresa/10428",
      "_links": {
        "self": {
          "name": "IÑIGO VALLEJO LOZANO",
          "href": "https://api.euskadi.eus/procurements/companies/10428"
        }
      }
    },
    {
      "name": "ZERKI ZERBITZUAK, S.L.",
      "registrationNumber": "10193",
      "identificationNumber": "B75042309",
      "address": "Calle Labeaga 24 bajo",
      "location": {
        "postalCode": "20700",
        "municipality": "Urretxu",
        "county": "Gipuzkoa",
        "municipalityId": "077",
        "countyId": "20"
      },
      "economicActivities": [
        {
          "id": "1.673.2",
          "name": "Otros cafés y bares",
          "_links": {
            "self": {
              "name": "Otros cafés y bares",
              "href": "https://api.euskadi.eus/procurements/companies/economic-activities/1.673.2"
            }
          }
        },
        {
          "id": "1.942.1",
          "name": "Consultorios médicos, centros de socorro sanitarios y urgencias",
          "_links": {
            "self": {
              "name": "Consultorios médicos, centros de socorro sanitarios y urgencias",
              "href": "https://api.euskadi.eus/procurements/companies/economic-activities/1.942.1"
            }
          }
        },
        {
          "id": "1.967.2",
          "name": "Escuelas y servicios de perfeccionamiento del deporte",
          "_links": {
            "self": {
              "name": "Escuelas y servicios de perfeccionamiento del deporte",
              "href": "https://api.euskadi.eus/procurements/companies/economic-activities/1.967.2"
            }
          }
        }
      ],
      "certificateStartDate": "2025-11-18",
      "certificateEndDate": "2026-05-11",
      "object": "ORGANIZACIÓN DE ACTIVIDADES DEPORTIVAS, INCLUYENDO LA ORGANIZACIÓN, GESTIÓN Y DESARROLLO DE EVENTOS Y COMPETICIONES. PUESTA EN MARCHA Y/O GESTIÓN DE INSTALACIONES DEPORTIVAS TANTO PRIVADAS COMO PÚBLICAS. ORGANIZACIÓN Y GESTIÓN DE ACTIVIDADES PARA ALUMNOS EN HORARIO EXTRAESCOLARES. ORGANIZACIÓN E IMPARTICIÓN DE CURSOS DEPORTIVOS. ASESORAMIENTO Y/O AYUDA TANTO EN EL ÁMBITO DEPORTIVO COMO EN ACTIVIDADES LÚDICO-RECREATIVAS. REALIZACIÓN DE ACTIVIDADES CONEXAS A LAS ANTERIORMENTE ENUNCIADAS.",
      "mainEntityOfPage": "https://www.contratacion.euskadi.eus/webkpe00-kperoc/es/ac71aBusquedaRegistrosWar/empresa/10193",
      "_links": {
        "self": {
          "name": "ZERKI ZERBITZUAK, S.L.",
          "href": "https://api.euskadi.eus/procurements/companies/10193"
        }
      }
    },
    {
      "name": "CONSTRUCCIONES AGUILLO, S.A.",
      "registrationNumber": "00859",
      "identificationNumber": "A01046465",
      "address": "AVDA. DE LOS OLMOS, Nº 1- PABELLON 19 B. P.A.E. INBISA",
      "location": {
        "postalCode": "01013",
        "municipality": "Vitoria-Gasteiz",
        "county": "Araba/Álava",
        "municipalityId": "059",
        "countyId": "01"
      },
      "economicActivities": [
        {
          "id": "1.501.2",
          "name": "Construcción completa, reparación y conservación obras civiles",
          "_links": {
            "self": {
              "name": "Construcción completa, reparación y conservación obras civiles",
              "href": "https://api.euskadi.eus/procurements/companies/economic-activities/1.501.2"
            }
          }
        }
      ],
      "certificateStartDate": "2025-11-18",
      "certificateEndDate": "2026-05-15",
      "classification": [
        {
          "id": "O",
          "name": "Obras",
          "groups": [
            {
              "id": "A",
              "name": "MOVIMIENTO DE TIERRAS Y PERFORACIONES",
              "subgroups": [
                {
                  "id": "01",
                  "name": "DESMONTES Y VACIADOS",
                  "categories": [
                    {
                      "id": "2",
                      "name": "Desde 150.001 Hasta 360.000",
                      "_links": {
                        "self": {
                          "name": "Desde 150.001 Hasta 360.000",
                          "href": "https://api.euskadi.eus/procurements/companies/types/O/categories/2"
                        }
                      }
                    }
                  ],
                  "_links": {
                    "self": {
                      "name": "DESMONTES Y VACIADOS",
                      "href": "https://api.euskadi.eus/procurements/companies/types/O/groups/A/subgroups/01"
                    }
                  }
                }
              ],
              "_links": {
                "self": {
                  "name": "MOVIMIENTO DE TIERRAS Y PERFORACIONES",
                  "href": "https://api.euskadi.eus/procurements/companies/types/O/groups/A"
                }
              }
            },
            {
              "id": "E",
              "name": "HIDRAULICAS",
              "subgroups": [
                {
                  "id": "01",
                  "name": "ABASTECIMIENTOS Y SANEAMIENTOS",
                  "categories": [
                    {
                      "id": "3",
                      "name": "Desde 360.001 Hasta 840.000",
                      "_links": {
                        "self": {
                          "name": "Desde 360.001 Hasta 840.000",
                          "href": "https://api.euskadi.eus/procurements/companies/types/O/categories/3"
                        }
                      }
                    }
                  ],
                  "_links": {
                    "self": {
                      "name": "ABASTECIMIENTOS Y SANEAMIENTOS",
                      "href": "https://api.euskadi.eus/procurements/companies/types/O/groups/E/subgroups/01"
                    }
                  }
                },
                {
                  "id": "04",
                  "name": "ACEQUIAS Y DESAGÜES",
                  "categories": [
                    {
                      "id": "3",
                      "name": "Desde 360.001 Hasta 840.000",
                      "_links": {
                        "self": {
                          "name": "Desde 360.001 Hasta 840.000",
                          "href": "https://api.euskadi.eus/procurements/companies/types/O/categories/3"
                        }
                      }
                    }
                  ],
                  "_links": {
                    "self": {
                      "name": "ACEQUIAS Y DESAGÜES",
                      "href": "https://api.euskadi.eus/procurements/companies/types/O/groups/E/subgroups/04"
                    }
                  }
                },
                {
                  "id": "05",
                  "name": "DEFENSAS DE MARGENES Y ENCAUZAMIENTOS",
                  "categories": [
                    {
                      "id": "3",
                      "name": "Desde 360.001 Hasta 840.000",
                      "_links": {
                        "self": {
                          "name": "Desde 360.001 Hasta 840.000",
                          "href": "https://api.euskadi.eus/procurements/companies/types/O/categories/3"
                        }
                      }
                    }
                  ],
                  "_links": {
                    "self": {
                      "name": "DEFENSAS DE MARGENES Y ENCAUZAMIENTOS",
                      "href": "https://api.euskadi.eus/procurements/companies/types/O/groups/E/subgroups/05"
                    }
                  }
                },
                {
                  "id": "07",
                  "name": "OBRAS HIDRAULICAS SIN CUALIFICACION ESPECIFICA",
                  "categories": [
                    {
                      "id": "3",
                      "name": "Desde 360.001 Hasta 840.000",
                      "_links": {
                        "self": {
                          "name": "Desde 360.001 Hasta 840.000",
                          "href": "https://api.euskadi.eus/procurements/companies/types/O/categories/3"
                        }
                      }
                    }
                  ],
                  "_links": {
                    "self": {
                      "name": "OBRAS HIDRAULICAS SIN CUALIFICACION ESPECIFICA",
                      "href": "https://api.euskadi.eus/procurements/companies/types/O/groups/E/subgroups/07"
                    }
                  }
                }
              ],
              "_links": {
                "self": {
                  "name": "HIDRAULICAS",
                  "href": "https://api.euskadi.eus/procurements/companies/types/O/groups/E"
                }
              }
            },
            {
              "id": "G",
              "name": "VIALES Y PISTAS",
              "subgroups": [
                {
                  "id": "06",
                  "name": "Obras viales sin cualificación específica",
                  "categories": [
                    {
                      "id": "5",
                      "name": "Desde 2.400.001 Hasta 5.000.000",
                      "_links": {
                        "self": {
                          "name": "Desde 2.400.001 Hasta 5.000.000",
                          "href": "https://api.euskadi.eus/procurements/companies/types/O/categories/5"
                        }
                      }
                    }
                  ],
                  "_links": {
                    "self": {
                      "name": "Obras viales sin cualificación específica",
                      "href": "https://api.euskadi.eus/procurements/companies/types/O/groups/G/subgroups/06"
                    }
                  }
                }
              ],
              "_links": {
                "self": {
                  "name": "VIALES Y PISTAS",
                  "href": "https://api.euskadi.eus/procurements/companies/types/O/groups/G"
                }
              }
            }
          ],
          "_links": {
            "self": {
              "name": "Obras",
              "href": "https://api.euskadi.eus/procurements/companies/types/O"
            }
          }
        }
      ],
      "object": "LA PROMOCIÓN Y EJECUCIÓN COMPLETA O POR RAMOS DE TODA CLASE DE OBRAS DE CONSTRUCCIÓN, URBANIZACIÓN Y SERVICIOS",
      "mainEntityOfPage": "https://www.contratacion.euskadi.eus/webkpe00-kperoc/es/ac71aBusquedaRegistrosWar/empresa/00859",
      "_links": {
        "self": {
          "name": "CONSTRUCCIONES AGUILLO, S.A.",
          "href": "https://api.euskadi.eus/procurements/companies/00859"
        }
      }
    },
    {
      "name": "JON IÑAKI SOLACHI MARTIN",
      "registrationNumber": "06322",
      "identificationNumber": "30668140D",
      "address": "C.LANDAKO KALEA 9 P02 B",
      "location": {
        "postalCode": "01470",
        "municipality": "Amurrio",
        "county": "Araba/Álava",
        "municipalityId": "002",
        "countyId": "01"
      },
      "economicActivities": [
        {
          "id": "2.731",
          "name": "Abogados",
          "_links": {
            "self": {
              "name": "Abogados",
              "href": "https://api.euskadi.eus/procurements/companies/economic-activities/2.731"
            }
          }
        }
      ],
      "certificateStartDate": "2025-11-18",
      "certificateEndDate": "2026-05-03",
      "object": "ABOGADO",
      "mainEntityOfPage": "https://www.contratacion.euskadi.eus/webkpe00-kperoc/es/ac71aBusquedaRegistrosWar/empresa/06322",
      "_links": {
        "self": {
          "name": "JON IÑAKI SOLACHI MARTIN",
          "href": "https://api.euskadi.eus/procurements/companies/06322"
        }
      }
    },
    {
      "name": "ERAGIN STAC, S.L.",
      "registrationNumber": "10206",
      "identificationNumber": "B20474227",
      "address": "Paseo Ubarburu (20014), 100 - Pab. 19 1º",
      "location": {
        "postalCode": "20014",
        "municipality": "Donostia / San Sebastián",
        "county": "Gipuzkoa",
        "municipalityId": "069",
        "countyId": "20"
      },
      "economicActivities": [
        {
          "id": "3.019",
          "name": "Otras actividades relacionadas con el cine, el teatro y el circo",
          "_links": {
            "self": {
              "name": "Otras actividades relacionadas con el cine, el teatro y el circo",
              "href": "https://api.euskadi.eus/procurements/companies/economic-activities/3.019"
            }
          }
        }
      ],
      "certificateStartDate": "2025-11-18",
      "certificateEndDate": "2026-05-14",
      "object": "LA PRESTACIÓN DE SERVICIOS TÉCNICOS PARA ACTIVIDADES CULTURALES, INCLUSO SERVICIOS DE COLOCACIÓN DE PERSONAL PARA DICHAS ACTIVIDADES. EL ALQUILER E INSTALACIÓN DE EQUIPOS TÉCNICOS Y LA PRODUCCIÓN DE ESPECTÁCULOS, EXCEPTO CINE Y DEPORTE.",
      "mainEntityOfPage": "https://www.contratacion.euskadi.eus/webkpe00-kperoc/es/ac71aBusquedaRegistrosWar/empresa/10206",
      "_links": {
        "self": {
          "name": "ERAGIN STAC, S.L.",
          "href": "https://api.euskadi.eus/procurements/companies/10206"
        }
      }
    },
    {
      "name": "EGUIBASO, S.L.",
      "registrationNumber": "07377",
      "identificationNumber": "B95969911",
      "address": "Carretera Bilba Galdakano nº 2 -1 ",
      "location": {
        "postalCode": "48004",
        "municipality": "Bilbao",
        "county": "Bizkaia",
        "municipalityId": "020",
        "countyId": "48"
      },
      "economicActivities": [
        {
          "id": "1.619.9",
          "name": "Venta al por mayor de otros productos n.c.o.p",
          "_links": {
            "self": {
              "name": "Venta al por mayor de otros productos n.c.o.p",
              "href": "https://api.euskadi.eus/procurements/companies/economic-activities/1.619.9"
            }
          }
        }
      ],
      "certificateStartDate": "2025-11-18",
      "certificateEndDate": "2026-05-15",
      "object": "LA COMPRA, VENTA, DISTRIBUCIÓN AL POR MAYOR Y POR MENO, ALMACENAMIENTO, DEPÓSITO, IMPORTACIÓN Y EXPORTACIÓN DE PRODUCTOS FINALIZADOS, TALES COMO PRODUCTOS SOSTENIBLES MONO USO QUE PUEDAN TENER CONTACTO CON LOS ALIMENTOS O NO. LA FABRICACIÓN Y MANUFACTURA DE TODA CLASE DE PRODUCTOS TALES COMO PRODUCTOS SOSTENIBLES MONO USO. LA IMPORTACIÓN Y EXPORTACIÓN, DISTRIBUCIÓN Y VENTA, AL POR MAYOR Y AL DETALLE, DE LOS PRODUCTOS QUE ELABORE LA SOCIEDAD. INVESTIGACIÓN Y DESARROLLO SOBRE LA VIABILIDAD EN LA CONVERSIÓN DE MATERIA PRIMA EN PRODUCTO FINALIZADO. ESTUDIOS Y SERVICIOS VINCULADOS A LA CORRECTA IMPLANTACIÓN DE LOS PRODUCTOS VENDIDOS. FORMACIÓN AL PERSONAL DE LAS EMPRESAS DIRIGIDA A LA CORRECTA IMPLANTACIÓN DE LOS PRODUCTOS VENDIDOS",
      "mainEntityOfPage": "https://www.contratacion.euskadi.eus/webkpe00-kperoc/es/ac71aBusquedaRegistrosWar/empresa/07377",
      "_links": {
        "self": {
          "name": "EGUIBASO, S.L.",
          "href": "https://api.euskadi.eus/procurements/companies/07377"
        }
      }
    },
    {
      "name": "DOLMEN HOLDS, S. COOP. PEQUEÑA",
      "registrationNumber": "10427",
      "identificationNumber": "F95931812",
      "address": "CALLE GERNIKAKO ARBOLA Nº58 8D",
      "location": {
        "postalCode": "48902",
        "municipality": "Barakaldo",
        "county": "Bizkaia",
        "municipalityId": "013",
        "countyId": "48"
      },
      "economicActivities": [
        {
          "id": "1.494.2",
          "name": "Fabricación de artículos de deporte",
          "_links": {
            "self": {
              "name": "Fabricación de artículos de deporte",
              "href": "https://api.euskadi.eus/procurements/companies/economic-activities/1.494.2"
            }
          }
        },
        {
          "id": "1.501.1",
          "name": "Construcción completa, reparación y conservación de edificaciones",
          "_links": {
            "self": {
              "name": "Construcción completa, reparación y conservación de edificaciones",
              "href": "https://api.euskadi.eus/procurements/companies/economic-activities/1.501.1"
            }
          }
        },
        {
          "id": "1.934",
          "name": "Enseñanza fuera de establecimiento permanente",
          "_links": {
            "self": {
              "name": "Enseñanza fuera de establecimiento permanente",
              "href": "https://api.euskadi.eus/procurements/companies/economic-activities/1.934"
            }
          }
        },
        {
          "id": "1.967.2",
          "name": "Escuelas y servicios de perfeccionamiento del deporte",
          "_links": {
            "self": {
              "name": "Escuelas y servicios de perfeccionamiento del deporte",
              "href": "https://api.euskadi.eus/procurements/companies/economic-activities/1.967.2"
            }
          }
        }
      ],
      "certificateStartDate": "2025-11-18",
      "certificateEndDate": "2026-05-14",
      "object": "EL DISEÑO, LA FABRICACIÓN Y LA VENTA DE MATERIAL DE ESCALADA, ASÍ COMO EL MONTAJE Y LA DINAMIZACIÓN DE ROCÓDROMOS Y LA FORMACIÓN RELACIONADA CON LA ESCALADA.",
      "mainEntityOfPage": "https://www.contratacion.euskadi.eus/webkpe00-kperoc/es/ac71aBusquedaRegistrosWar/empresa/10427",
      "_links": {
        "self": {
          "name": "DOLMEN HOLDS, S. COOP. PEQUEÑA",
          "href": "https://api.euskadi.eus/procurements/companies/10427"
        }
      }
    },
    {
      "name": "SISTEMA TECNICO DE GESTION INTEGRAL, S.L.",
      "registrationNumber": "10217",
      "identificationNumber": "B09411976",
      "address": "C/ CONDESA MENCIA 121 BJ",
      "location": {
        "postalCode": "09006",
        "municipality": "Burgos",
        "county": "Burgos",
        "municipalityId": "059",
        "countyId": "09"
      },
      "economicActivities": [
        {
          "id": "1.843.1",
          "name": "Servicios técnicos de ingeniería",
          "_links": {
            "self": {
              "name": "Servicios técnicos de ingeniería",
              "href": "https://api.euskadi.eus/procurements/companies/economic-activities/1.843.1"
            }
          }
        }
      ],
      "certificateStartDate": "2025-11-18",
      "certificateEndDate": "2026-05-17",
      "object": "A) LA PRESTACIÓN DE SERVICIOS TÉCNICOS DE INGENIERÍA, ARQUITECTURA Y URBANISMO, PROSPECCIONES Y ESTUDIOS GEOLÓGICOS, TOPOGRAFÍA Y DELINEACIÓN. B) LA REALIZACIÓN DE ESTUDIOS DE MERCADO, ESTUDIOS DE OPINIÓN, HÁBITOS DE COMPRA Y OTROS SERVICIOS INDEPENDIENTES DE INFORMACIÓN E INVESTIGACIÓN COMERCIAL. C) EL DESARROLLO Y OPTIMIZACIÓN DE PROCESOS INDUSTRIALES Y AGROALIMENTARIOS.",
      "mainEntityOfPage": "https://www.contratacion.euskadi.eus/webkpe00-kperoc/es/ac71aBusquedaRegistrosWar/empresa/10217",
      "_links": {
        "self": {
          "name": "SISTEMA TECNICO DE GESTION INTEGRAL, S.L.",
          "href": "https://api.euskadi.eus/procurements/companies/10217"
        }
      }
    }
  ]
}