{
  "totalItems": 9042,
  "totalPages": 905,
  "currentPage": 633,
  "itemsOfPage": 10,
  "items": [
    {
      "name": "SUL, S.L.",
      "registrationNumber": "05114",
      "identificationNumber": "B48269195",
      "address": "POL. IND. AURRERÁ (MODULO 36)",
      "location": {
        "postalCode": "48510",
        "municipality": "Valle de Trápaga-Trapagaran",
        "county": "Bizkaia",
        "municipalityId": "080",
        "countyId": "48"
      },
      "economicActivities": [
        {
          "id": "1.616.6",
          "name": "Venta al por mayor de productos químicos industriales",
          "_links": {
            "self": {
              "name": "Venta al por mayor de productos químicos industriales",
              "href": "https://api.euskadi.eus/procurements/companies/economic-activities/1.616.6"
            }
          }
        }
      ],
      "certificateStartDate": "2018-01-12",
      "certificateEndDate": "2018-07-10",
      "object": "LA COMPRA, VENTA, IMPORTACIÓN, EXPORTACIÓN, COMERCIALIZACIÓN, DISTRIBUCIÓN Y ALMACENAMIENTO, DE TODA CLASE DE BIENES Y PRODUCTOS QUÍMICOS Y DE LABORATORIO, ASÍ COMO CUALQUIER OTRA ACTIVIDAD RELACIONADA CON LOS MISMOS, TODO ELLO DENTRO DE LOS LÍMITES MARCADOS POR LA VIGENTE LEGISLACIÓN PARA EL EJERCICIO DE LAS MISMAS",
      "mainEntityOfPage": "https://www.contratacion.euskadi.eus/webkpe00-kperoc/es/ac71aBusquedaRegistrosWar/empresa/05114",
      "_links": {
        "self": {
          "name": "SUL, S.L.",
          "href": "https://api.euskadi.eus/procurements/companies/05114"
        }
      }
    },
    {
      "name": "CAREFUSIÓN IBERIA 308, S.L.",
      "registrationNumber": "01648",
      "identificationNumber": "B80787450",
      "address": "AVDA. DE LA VEGA, Nº 1, EDIFICIO VEGANOVA. BLOQUE 1, 1º",
      "location": {
        "postalCode": "28108",
        "municipality": "Alcobendas",
        "county": "Madrid",
        "municipalityId": "006",
        "countyId": "28"
      },
      "economicActivities": [
        {
          "id": "1.619.2",
          "name": "Venta al por mayor de aparatos e instrumentos médicos, ortopédicos, ópticos",
          "_links": {
            "self": {
              "name": "Venta al por mayor de aparatos e instrumentos médicos, ortopédicos, ópticos",
              "href": "https://api.euskadi.eus/procurements/companies/economic-activities/1.619.2"
            }
          }
        }
      ],
      "certificateStartDate": "2018-01-09",
      "certificateEndDate": "2018-07-02",
      "object": "LA IMPORTACIÓN Y DISTRIBUCIÓN EN ESPAÑA, ASÍ COMO LA VENTA, DISTRIBUCIÓN Y REPRESENTACIÓN DE TODA CLASE DE EQUIPOS MÉDICOS O APARATOS RELACIONADOS CON EL CUIDADO DE LA SALUD, PARA SU VENTA A LOS PROFESIONALES MÉDICOS ESPAÑOLES, INCLUYENDO LAS VENTAS A CUALQUIER TIPO DE AGENCIAS OFICIALES O GUBERNAMENTALES INCLUYENDO EL ESTADO, LAS COMUNIDADES AUTÓNOMAS, PROVINCIAS O MUNICIPIOS, LAS FUERZAS ARMADAS O CUALQUIER POSIBLE USUARIO, Y TAMBIÉN LA EXPORTACIÓN DE DICHOS EQUIPOS DE ESPAÑA A OTROS PAÍSES, ASÍ COMO LA PRESTACIÓN DE DICHOS EQUIPOS DE ESPAÑA A OTROS PAÍSES, ASÍ COMO LA PRESTACIÓN DE SERVICIOS DE MARKETING, INFORMÁTICOS, CONTABLES Y JURÍDICOS O ARRENDAMIENTO DE TODA CLASE DE BIENES MUEBLES E INMUEBLES Y MAQUINARIA INDUSTRIAL",
      "mainEntityOfPage": "https://www.contratacion.euskadi.eus/webkpe00-kperoc/es/ac71aBusquedaRegistrosWar/empresa/01648",
      "_links": {
        "self": {
          "name": "CAREFUSIÓN IBERIA 308, S.L.",
          "href": "https://api.euskadi.eus/procurements/companies/01648"
        }
      }
    },
    {
      "name": "ASCOFI BERRIA S.L.",
      "registrationNumber": "05696",
      "identificationNumber": "B95631453",
      "address": "IBAÑEZ DE BILBAO, 3",
      "location": {
        "postalCode": "48001",
        "municipality": "Bilbao",
        "county": "Bizkaia",
        "municipalityId": "020",
        "countyId": "48"
      },
      "economicActivities": [
        {
          "id": "1.842",
          "name": "Servicios financieros y contables",
          "_links": {
            "self": {
              "name": "Servicios financieros y contables",
              "href": "https://api.euskadi.eus/procurements/companies/economic-activities/1.842"
            }
          }
        },
        {
          "id": "1.861.2",
          "name": "Alquiler de locales industriales y otros alquileres n.c.o.p",
          "_links": {
            "self": {
              "name": "Alquiler de locales industriales y otros alquileres n.c.o.p",
              "href": "https://api.euskadi.eus/procurements/companies/economic-activities/1.861.2"
            }
          }
        }
      ],
      "certificateStartDate": "2018-01-09",
      "certificateEndDate": "2018-06-18",
      "object": "EL ESTUDIO, INVESTIGACIÓN, PROMOCIÓN, GESTIÓN, PRESTACIÓN Y EXPLOTACIÓN DE TODA CLASE DE SERVICIOS DE ASISTENCIA Y GESTIÓN, TÉCNICA, ADMINISTRATIVA, COMERCIAL Y CONTABLE. LA PRESTACIÓN A LA EMPRESA O AL SECTOR PÚBLICO, DE SERVICIOS COMPLETOS DE CONSULTORÍA DE COMUNICACIÓN, CONTABILIDAD Y PUBLICIDAD DE NEGOCIOS, PRODUCTOS, SERVICIOS, AGENCIA DE SEGUROS INICIATIVAS EN INTERNET, EN LA INFORMÁTICA EN GENERAL Y LO QUE CON ELLO SE RELACIONE. LA ADQUISICIÓN POR CUALQUIER TÍTULO DE FINCAS RÚSTICAS Y URBANAS, LA CONSTRUCCIÓN DE ÉSTAS Y LA ADMINISTRACIÓN, TENENCIA, EXPLOTACIÓN Y ARRENDAMIENTO DE TALES BIENES Y SU VENTA TOTAL Y PARCIAL, SEGÚN CONVENGA PARA SU APROVECHAMIENTO AGRÍCOLA, FORESTAL, URBANO, INDUSTRIAL O CUALQUIER OTRO. LA ADQUISICIÓN, CESIÓN, INVERSIÓN, TENENCIA, DISFRUTE, ADMINISTRACIÓN, GESTIÓN Y NEGOCIACIÓN EN GENERAL DE TODA CLASE DE TÍTULOS Y VALORES MOBILIARIOS, COTIZADOS EN BOLSA O NO, SIN INCIDIR EN OPERACIONES A QUE SE REFIERE LA LEY DEL MERCADO DE VALORES Y LEY DE INVERSIONES COLECTIVAS. LA CONTRATA DE OBRAS Y SERVICIOS. LA PROMOCIÓN DE NEGOCIOS Y EMPRESAS, INDUSTRIALES, COMERCIALES E INMOBILIARIAS. LA ADMINISTRACIÓN DE BIENES, DERECHOS Y EMPRESAS Y EL ASESORAMIENTO EN MATERIA DE INVERSIONES Y FINANZAS Y LA COLOCACIÓN Y GESTIÓN DE CAPITALES AJENOS. LA REALIZACIÓN DE ESTUDIOS DE CARÁCTER REECONÓMICO, COMERCIAL, FINANCIERO, ADMINISTRATIVO O DE OTRA ÍNDOLE, CONDUCENTES A MEJORAR LA GESTIÓN Y PRODUCTIVIDAD DE LAS EMPRESAS",
      "mainEntityOfPage": "https://www.contratacion.euskadi.eus/webkpe00-kperoc/es/ac71aBusquedaRegistrosWar/empresa/05696",
      "_links": {
        "self": {
          "name": "ASCOFI BERRIA S.L.",
          "href": "https://api.euskadi.eus/procurements/companies/05696"
        }
      }
    },
    {
      "name": "ICEBA, S.L.",
      "registrationNumber": "01401",
      "identificationNumber": "B48535082",
      "address": "POLÍGONO ARTEAGOITI II. PAB. Nº 2 SAN MIGUEL DE BASAURI",
      "location": {
        "postalCode": "48970",
        "municipality": "Basauri",
        "county": "Bizkaia",
        "municipalityId": "015",
        "countyId": "48"
      },
      "economicActivities": [
        {
          "id": "1.504.1",
          "name": "Instalaciones eléctricas en general",
          "_links": {
            "self": {
              "name": "Instalaciones eléctricas en general",
              "href": "https://api.euskadi.eus/procurements/companies/economic-activities/1.504.1"
            }
          }
        }
      ],
      "certificateStartDate": "2018-01-04",
      "certificateEndDate": "2018-06-01",
      "object": "a) LA COMPRA, VENTA, IMPORTACIÓN, EXPORTACIÓN, SUMINISTRO, TRANSPORTE Y DISTRIBUCIÓN, ASÍ COMO LA INSTALACIÓN, MANTENIMIENTO, REPARACIÓN, CARGA Y RECARGA, DE CUALESQUIERA EQUIPOS, PIEZAS Y PRODUCTOS CONTRA INCENDIOS O DE DETECCIÓN DE LOS MISMOS.\r\n\r\nb) LA COMPRA, VENTA, IMPORTACIÓN, EXPORTACIÓN, SUMINISTRO, TRANSPORTE Y DISTRIBUCIÓN, ASÍ COMO LA INSTALACIÓN, MANTENIMIENTO Y REPARACIÓN, DE CUALESQUIERA EQUIPOS, PIEZAS Y PRODUCTOS ANTIROBO O DESTINADOS A LA SEGURIDAD DE PERSONAS Y BIENES.\r\n\r\nc) LA COMPRA, VENTA, IMPORTACIÓN, EXPORTACIÓN, SUMINISTRO, TRANSPORTE Y DISTRIBUCIÓN, ASÍ COMO EL MANTENIMIENTO Y REPARACIÓN DE CUALESQUIERA EQUIPOS, PIEZAS Y PRODUCTOS RELACIONADOS CON LA DEPURACIÓN, TRATAMIENTO, RECUPERACIÓN O RECICLAJE DE TODO TIPO DE AGUAS.\r\n\r\nd) LA COMPRA, VENTA, IMPORTACIÓN, EXPORTACIÓN, SUMINISTRO, TRANSPORTE Y DISTRIBUCIÓN DE ROPA LABORAL Y DE SEGURIDAD.\r\n\r\ne) LA REALIZACIÓN DE PROYECTOS Y ESTUDIOS, ASÍ COMO LA PRESTACIÓN DE ASESORAMIENTO, EN MATERIAS RELACIONADAS CON LA SEGURIDAD, CLIMATIZACIÓN, CALEFACCIÓN, VENTILACIÓN Y EL TRATAMIENTO DE AGUAS EN GENERAL.\r\n\r\nf) LA COMPRA, VENTA, IMPORTACIÓN, EXPORTACIÓN, SUMINISTRO, TRANSPORTE Y DISTRIBUCIÓN, ASÍ COMO EL MANTENIMIENTO Y REPARACIÓN, DE CUALESQUIERA CLASE DE PIEZAS, RECAMBIOS Y ACCESORIOS SOBRE EL AUTOMÓVIL.\r\n\r\ng) LA REALIZACIÓN DE ACTIVIDADES DE CONSERJERÍA Y JARDINERÍA, Y LA COMPRA, VENTA, IMPORTACIÓN, EXPORTACIÓN, SUMINISTRO, TRANSPORTE Y DISTRIBUCIÓN, ASÍ COMO LA INSTALACIÓN, MANTENIMIENTO Y REPARACIÓN, DE CUALESQUIERA EQUIPOS, PIEZAS Y PRODUCTOS RELACIONADOS CON LA JARDINERÍA.\r\n\r\nh) LA COMPRA, VENTA, IMPORTACIÓN, EXPORTACIÓN, SUMINISTRO, TRANSPORTE Y DISTRIBUCIÓN, ASÍ COMO LA INSTALACIÓN, MANTENIMIENTO Y REPARACIÓN, DE CUALESQUIERA EQUIPOS, PIEZAS Y PRODUCTOS RELACIONADOS CON LA ELECTRÓNICA, ELECTRICIDAD, ELEMENTOS INFORMÁTICOS, ORDENADORES, REDES TELEGRÁFICAS, TELÉFONOS, MATERIAL DE OFICINA, SOPORTES DISCOGRÁFICOS Y ELÉCTRICOS.\r\n\r\ni) SUBCONTRATACIÓN Y CONTRATACIÓN DE PERSONAL DE SEGURIDAD, VIGILANCIA, GUARDERÍA Y JARDINERÍA.\r\n\r\nj) LA REPRESENTACIÓN DE CUALESQUIERA PERSONAS, FÍSICAS O JURÍDICAS, NACIONALES O EXTRANJERAS, QUE REALICEN CUALQUIERA DE LAS ACTIVIDADES COMPRENDIDAS EN LOS APARTADOS ANTERIORES",
      "mainEntityOfPage": "https://www.contratacion.euskadi.eus/webkpe00-kperoc/es/ac71aBusquedaRegistrosWar/empresa/01401",
      "_links": {
        "self": {
          "name": "ICEBA, S.L.",
          "href": "https://api.euskadi.eus/procurements/companies/01401"
        }
      }
    },
    {
      "name": "ASSUT EUROPE IBÉRICA, S.L.",
      "registrationNumber": "05127",
      "identificationNumber": "B63590244",
      "address": "C/ V - NAVE 16 - (POL. IND. MUTILVA BAJA)",
      "location": {
        "postalCode": "31192",
        "municipality": "Aranguren",
        "county": "Navarra",
        "municipalityId": "023",
        "countyId": "31"
      },
      "economicActivities": [
        {
          "id": "1.619.2",
          "name": "Venta al por mayor de aparatos e instrumentos médicos, ortopédicos, ópticos",
          "_links": {
            "self": {
              "name": "Venta al por mayor de aparatos e instrumentos médicos, ortopédicos, ópticos",
              "href": "https://api.euskadi.eus/procurements/companies/economic-activities/1.619.2"
            }
          }
        }
      ],
      "certificateStartDate": "2018-01-04",
      "certificateEndDate": "2018-06-27",
      "object": "EL SUMINISTRO DE MATERIAL MÉDICO-HOSPITALARIO EN GENERAL. EL COMERCIO AL POR MAYOR Y AL MENOR DE APARATOS E INSTRUMENTOS DE MEDICINA, CIRUGÍA, ODONTOLOGÍA Y VETERINARIA; ORTOPÉDICOS, FOTOGRÁFICOS Y CINEMATOGRÁFICOS. SERVICIOS DE ASESORAMIENTO A EMPRESAS EN REFERENCIA AL SUMINISTRO Y TODO AQUELLO RELACIONADO CON EL MATERIAL MÉDICO-HOSPITALARIO",
      "mainEntityOfPage": "https://www.contratacion.euskadi.eus/webkpe00-kperoc/es/ac71aBusquedaRegistrosWar/empresa/05127",
      "_links": {
        "self": {
          "name": "ASSUT EUROPE IBÉRICA, S.L.",
          "href": "https://api.euskadi.eus/procurements/companies/05127"
        }
      }
    },
    {
      "name": "NORTE BATERIAS, S.L.",
      "registrationNumber": "05694",
      "identificationNumber": "B95369096",
      "address": "avenida cervantes 43, pb 21",
      "location": {
        "postalCode": "48970",
        "municipality": "Basauri",
        "county": "Bizkaia",
        "municipalityId": "015",
        "countyId": "48"
      },
      "economicActivities": [
        {
          "id": "1.654.2",
          "name": "Venta al por menor de accesorios, piezas de recambio de vehículos terrestres",
          "_links": {
            "self": {
              "name": "Venta al por menor de accesorios, piezas de recambio de vehículos terrestres",
              "href": "https://api.euskadi.eus/procurements/companies/economic-activities/1.654.2"
            }
          }
        }
      ],
      "certificateStartDate": "2017-12-22",
      "certificateEndDate": "2018-06-01",
      "object": "LA COMERCIALIZACIÓN, DISTRIBUCION, ALMACENAMIENTO, PRODUCCION, IMPORTACION, EXPORTACION VANTA AL POR MAYOR Y AL POR MENOR  DE BATERIAS, ASI COMO COMPONENTES, EQUIPOS, PRODUCTOS Y RECAMBIOS DE TODO TIPO DE VEHICULOS",
      "mainEntityOfPage": "https://www.contratacion.euskadi.eus/webkpe00-kperoc/es/ac71aBusquedaRegistrosWar/empresa/05694",
      "_links": {
        "self": {
          "name": "NORTE BATERIAS, S.L.",
          "href": "https://api.euskadi.eus/procurements/companies/05694"
        }
      }
    },
    {
      "name": "INDUSTRIAS GRÁFICAS MARCAL, S.A.",
      "registrationNumber": "01349",
      "identificationNumber": "A48114292",
      "address": "C/PRESAGANA, 1-1ª PLANTA (P.I. ARTUNDUAGA)",
      "location": {
        "postalCode": "48970",
        "municipality": "Basauri",
        "county": "Bizkaia",
        "municipalityId": "015",
        "countyId": "48"
      },
      "economicActivities": [
        {
          "id": "1.474.1",
          "name": "Impresión de textos o imágenes por cualquier procedimiento",
          "_links": {
            "self": {
              "name": "Impresión de textos o imágenes por cualquier procedimiento",
              "href": "https://api.euskadi.eus/procurements/companies/economic-activities/1.474.1"
            }
          }
        },
        {
          "id": "1.861.2",
          "name": "Alquiler de locales industriales y otros alquileres n.c.o.p",
          "_links": {
            "self": {
              "name": "Alquiler de locales industriales y otros alquileres n.c.o.p",
              "href": "https://api.euskadi.eus/procurements/companies/economic-activities/1.861.2"
            }
          }
        }
      ],
      "certificateStartDate": "2017-12-19",
      "certificateEndDate": "2018-05-28",
      "object": "LA FABRICACIÓN, COMERCIALIZACIÓN, INTERMEDIACIÓN, SUMINISTRO, GESTIÓN, REPRESENTACIÓN, IMPORTACIÓN Y EXPORTACIÓN DE ARTÍCULOS Y PRODUCTOS DE ARTES GRÁFICAS Y DE LA IMPRESIÓN. CUANTAS OPERACIONES DE GESTIÓN, COMERCIALIZACIÓN, ADMINISTRACIÓN, PRESTACIÓN, ARRENDAMIENTO Y EJECUCIÓN DE SERVICIOS, QUE SE RELACIONEN CON EL OBJETO SOCIAL",
      "mainEntityOfPage": "https://www.contratacion.euskadi.eus/webkpe00-kperoc/es/ac71aBusquedaRegistrosWar/empresa/01349",
      "_links": {
        "self": {
          "name": "INDUSTRIAS GRÁFICAS MARCAL, S.A.",
          "href": "https://api.euskadi.eus/procurements/companies/01349"
        }
      }
    },
    {
      "name": "MOZAS AGUIRRE ARQUITECTOS, S.L.P.",
      "registrationNumber": "03709",
      "identificationNumber": "B01380211",
      "address": "BULEVAR DE SALBURUA, 8 - 2ª PLANTA",
      "location": {
        "postalCode": "01002",
        "municipality": "Vitoria-Gasteiz",
        "county": "Araba/Álava",
        "municipalityId": "059",
        "countyId": "01"
      },
      "economicActivities": [
        {
          "id": "1.843.2",
          "name": "Servicios técnicos de arquitectura y urbanismo",
          "_links": {
            "self": {
              "name": "Servicios técnicos de arquitectura y urbanismo",
              "href": "https://api.euskadi.eus/procurements/companies/economic-activities/1.843.2"
            }
          }
        }
      ],
      "certificateStartDate": "2017-12-17",
      "certificateEndDate": "2018-06-17",
      "object": "LA PRESTACIÓN DE SERVICIOS PROFESIONALES EN EL CAMPO DE LA ARQUITECTURA, URBANISMO E INGENIERÍA, ASUMIENDO A SU VEZ TAREAS EN REPRESENTACIÓN DE LOS CLIENTES EN ACTIVIDADES DE GESTIÓN, ASESORAMIENTO, COORDINACIÓN Y ADMINISTRACIÓN QUE SEAN COMPATIBLES  CON LA RELIZACIÓN DE MISIONES PROFESIONALES ENCARGADAS ASÍ COMO LA EXPLOTACIÓN DE DERECHOS DE PROPIEDAD INTELECTUAL O INDUSTRIAL DERIVADOS DE LA ACTIVIDAD DE LOS MIEMBROS DE LA ENTIDAD, DEL MISMO MODO, LA ADQUISICIÓN Y ENAJENACIÓN POR CUALQUIER TÍTULO DE FINCAS RÚSTICAS Y URBANAS, YA SEAN TIERRAS, SOLARES, EDIFICIOS O EN SUS PARTES DETERMINADAS, LA CONSTRUCCIÓN, REHABILITACIÓN Y PROMOCIÓN Y LA TENENCIA, EXPLOTACIÓN Y ARRENDAMIENTO, YA SEA ACTIVO O PASIVO DE TALES BIENES Y SU VENTA TOTAL O PARCIAL, SEGÚN CONVENGA. EL ESTUDIO, PROMOCIÓN Y REALIZACIÓN DE TODA CLASE DE OBRAS DE CONSTRUCCIÓN, MEJORA, CONSERVACIÓN, RESTAURACIÓN, REHABILITACIÓN, TANTO PRIVADAS COMO PÚBLICAS, POR CUENTA PROPIA O AJENA",
      "mainEntityOfPage": "https://www.contratacion.euskadi.eus/webkpe00-kperoc/es/ac71aBusquedaRegistrosWar/empresa/03709",
      "_links": {
        "self": {
          "name": "MOZAS AGUIRRE ARQUITECTOS, S.L.P.",
          "href": "https://api.euskadi.eus/procurements/companies/03709"
        }
      }
    },
    {
      "name": "ELECTRICIDAD BARRUETA, S.L.",
      "registrationNumber": "04752",
      "identificationNumber": "B01032663",
      "address": "POLIGONO INDUSTRIALDEA PABELLON 4 MOD. 3 GARDEA",
      "location": {
        "postalCode": "01400",
        "municipality": "Laudio/Llodio",
        "county": "Araba/Álava",
        "municipalityId": "036",
        "countyId": "01"
      },
      "economicActivities": [
        {
          "id": "1.504.1",
          "name": "Instalaciones eléctricas en general",
          "_links": {
            "self": {
              "name": "Instalaciones eléctricas en general",
              "href": "https://api.euskadi.eus/procurements/companies/economic-activities/1.504.1"
            }
          }
        },
        {
          "id": "1.504.12",
          "name": "Instalaciones eléctricas en toda clase de edificios",
          "_links": {
            "self": {
              "name": "Instalaciones eléctricas en toda clase de edificios",
              "href": "https://api.euskadi.eus/procurements/companies/economic-activities/1.504.12"
            }
          }
        }
      ],
      "certificateStartDate": "2017-12-17",
      "certificateEndDate": "2018-06-17",
      "object": "LA REALIZACIÓN DE INSTALACIONES ELÉCTRICAS DE CUALQUIER CLASE, EL MANTENIMIENTO Y REPARACIÓN DE LAS MISMAS, EL COMERCIO DE APARATOS ELÉCTRICOS Y DE LOS MATERIALES Y ELEMENTOS NECESARIOS PARA INSTALACIONES ELÉCTRICAS TANTO INDUSTRIALES COMO DE USO PARTICULAR, LA EJECUCIÓN DE OBRAS DE ALUMBRADO PÚBLICO",
      "mainEntityOfPage": "https://www.contratacion.euskadi.eus/webkpe00-kperoc/es/ac71aBusquedaRegistrosWar/empresa/04752",
      "_links": {
        "self": {
          "name": "ELECTRICIDAD BARRUETA, S.L.",
          "href": "https://api.euskadi.eus/procurements/companies/04752"
        }
      }
    },
    {
      "name": "GAURSA CARS, S.L.",
      "registrationNumber": "05319",
      "identificationNumber": "B75037234",
      "address": "AVDA. OTAOLA, 22",
      "location": {
        "postalCode": "20600",
        "municipality": "Eibar",
        "county": "Gipuzkoa",
        "municipalityId": "030",
        "countyId": "20"
      },
      "economicActivities": [
        {
          "id": "1.615.1",
          "name": "Venta al por mayor de vehículos, motocicletas, bicicletas y sus accesorios",
          "_links": {
            "self": {
              "name": "Venta al por mayor de vehículos, motocicletas, bicicletas y sus accesorios",
              "href": "https://api.euskadi.eus/procurements/companies/economic-activities/1.615.1"
            }
          }
        },
        {
          "id": "1.691.2",
          "name": "Reparación de vehículos automóviles, bicicletas y otros vehículos",
          "_links": {
            "self": {
              "name": "Reparación de vehículos automóviles, bicicletas y otros vehículos",
              "href": "https://api.euskadi.eus/procurements/companies/economic-activities/1.691.2"
            }
          }
        }
      ],
      "certificateStartDate": "2017-12-14",
      "certificateEndDate": "2017-11-21",
      "object": "LA EXPLOTACIÓN DE UN NEGOCIO DE VENTA DE TODA CLASE DE VEHÍCULOS NUEVOS Y USADOS, DE ACEITES Y LUBRICANTES, NEUMÁTICOS, PIEZAS DE RECAMBIO, ACCESORIOS, ARTÍCULOS RELACIONADOS CON LOS VEHÍCULOS, PRODUCTOS DE BOUTIQUE Y PRODUCTOS INDUSTRIALES PARA PROFESIONALES DE LA AUTOMOCIÓN, LA REPARACIÓN Y MANTENIMIENTO INTEGRAL DE TODA CLASE DE VEHÍCULOS, INCLUYENDO SU LIMPIEZA Y REACONDICIONAMIENTO, LA TRANSFORMACIÓN DE VEHÍCULOS, EL TRANSPORTE DE MERCANCÍAS Y VEHÍCULOS PROPIOS Y AJENOS, LA PRESTACIÓN DE SERVICIOS DE GESTIÓN, ADMINISTRACIÓN E INFORMÁTICOS A OTRAS EMPRESAS, EL ALQUILER DE TODA CLASE DE VEHÍCULOS EN TODAS SUS MODALIDADES Y LA VENTA Y ALQUILER DE INMUEBLES, MAQUINARIA, UTILLAJE Y HERRAMIENTA Y LA REALIZACIÓN POR CUENTA PROPIA O AJENA DE ACTIVIDADES DE AGENCIA DE SEGUROS, SOMETIDAS A LA LEGISLACIÓN ESPECÍFICA DE MEDIACIÓN DE SEGUROS PRIVADOS",
      "mainEntityOfPage": "https://www.contratacion.euskadi.eus/webkpe00-kperoc/es/ac71aBusquedaRegistrosWar/empresa/05319",
      "_links": {
        "self": {
          "name": "GAURSA CARS, S.L.",
          "href": "https://api.euskadi.eus/procurements/companies/05319"
        }
      }
    }
  ]
}