{
  "totalItems": 9042,
  "totalPages": 905,
  "currentPage": 431,
  "itemsOfPage": 10,
  "items": [
    {
      "name": "TROKA ABENTURA, S.L.",
      "registrationNumber": "08472",
      "identificationNumber": "B95030078",
      "address": "Artzetaz Kalea, Manzana 2 Pabellón 6",
      "location": {
        "postalCode": "48630",
        "municipality": "Gorliz",
        "county": "Bizkaia",
        "municipalityId": "043",
        "countyId": "48"
      },
      "economicActivities": [
        {
          "id": "1.659.6",
          "name": "Venta al por menor de juguetes, artículos de deporte",
          "_links": {
            "self": {
              "name": "Venta al por menor de juguetes, artículos de deporte",
              "href": "https://api.euskadi.eus/procurements/companies/economic-activities/1.659.6"
            }
          }
        },
        {
          "id": "1.685",
          "name": "Alojamientos turísticos extrahoteleros",
          "_links": {
            "self": {
              "name": "Alojamientos turísticos extrahoteleros",
              "href": "https://api.euskadi.eus/procurements/companies/economic-activities/1.685"
            }
          }
        },
        {
          "id": "1.755",
          "name": "Agencias de viajes",
          "_links": {
            "self": {
              "name": "Agencias de viajes",
              "href": "https://api.euskadi.eus/procurements/companies/economic-activities/1.755"
            }
          }
        },
        {
          "id": "1.847",
          "name": "Servicios de consultoría",
          "_links": {
            "self": {
              "name": "Servicios de consultoría",
              "href": "https://api.euskadi.eus/procurements/companies/economic-activities/1.847"
            }
          }
        },
        {
          "id": "1.932.2",
          "name": "Enseñanza de formación y perfeccionamiento profesional superior",
          "_links": {
            "self": {
              "name": "Enseñanza de formación y perfeccionamiento profesional superior",
              "href": "https://api.euskadi.eus/procurements/companies/economic-activities/1.932.2"
            }
          }
        },
        {
          "id": "1.966.9",
          "name": "Otros servicios culturales n.c.o.p",
          "_links": {
            "self": {
              "name": "Otros servicios culturales n.c.o.p",
              "href": "https://api.euskadi.eus/procurements/companies/economic-activities/1.966.9"
            }
          }
        },
        {
          "id": "1.967.2",
          "name": "Escuelas y servicios de perfeccionamiento del deporte",
          "_links": {
            "self": {
              "name": "Escuelas y servicios de perfeccionamiento del deporte",
              "href": "https://api.euskadi.eus/procurements/companies/economic-activities/1.967.2"
            }
          }
        },
        {
          "id": "1.989.2",
          "name": "Servicios de organización de congresos, asambleas y similares",
          "_links": {
            "self": {
              "name": "Servicios de organización de congresos, asambleas y similares",
              "href": "https://api.euskadi.eus/procurements/companies/economic-activities/1.989.2"
            }
          }
        }
      ],
      "certificateStartDate": "2024-02-15",
      "certificateEndDate": "2024-07-11",
      "object": "-GESTIÓN DE ACTIVIDADES DE TURISMO ACTIVO Y DEPORTE DE AVENTURA (SENDERISMO, SURF, BODY BOARD, ESCALADA, MONTAÑA, RAFTING, DESCENSO DE CAÑONES Y TODAS AQUELLAS ACTIVIDADES QUE DE MANERA HABITUAL FORMAN PARTE DE LOS DECRETOS DE TURISMO ACTIVO). - GESTIÓN DE ALOJAMIENTOS TURÍSTICOS Y ALBERGUES - CONSULTORÍA, ASESORÍA, FORMACIÓN E INNOVACIÓN, PRINCIPALMENTE DIRIGIDA AL SECTOR TURÍSTICO. - AGENCIAS DE VIAJES - ACTIVIDADES SOCIOCULTURALES. - VENTA DE MATERIAL DEPORTIVO DE PRIMERA Y SEGUNDA MANO.",
      "mainEntityOfPage": "https://www.contratacion.euskadi.eus/webkpe00-kperoc/es/ac71aBusquedaRegistrosWar/empresa/08472",
      "_links": {
        "self": {
          "name": "TROKA ABENTURA, S.L.",
          "href": "https://api.euskadi.eus/procurements/companies/08472"
        }
      }
    },
    {
      "name": "IBAUTO 98 SRL",
      "registrationNumber": "07055",
      "identificationNumber": "B48928824",
      "address": "GABRIEL CELAYA 6",
      "location": {
        "postalCode": "48910",
        "municipality": "Sestao",
        "county": "Bizkaia",
        "municipalityId": "084",
        "countyId": "48"
      },
      "economicActivities": [
        {
          "id": "1.654.1",
          "name": "Venta al por menor de vehículos terrestres",
          "_links": {
            "self": {
              "name": "Venta al por menor de vehículos terrestres",
              "href": "https://api.euskadi.eus/procurements/companies/economic-activities/1.654.1"
            }
          }
        },
        {
          "id": "1.691.2",
          "name": "Reparación de vehículos automóviles, bicicletas y otros vehículos",
          "_links": {
            "self": {
              "name": "Reparación de vehículos automóviles, bicicletas y otros vehículos",
              "href": "https://api.euskadi.eus/procurements/companies/economic-activities/1.691.2"
            }
          }
        },
        {
          "id": "1.854.1",
          "name": "Alquiler de automóviles sin conductor",
          "_links": {
            "self": {
              "name": "Alquiler de automóviles sin conductor",
              "href": "https://api.euskadi.eus/procurements/companies/economic-activities/1.854.1"
            }
          }
        }
      ],
      "certificateStartDate": "2024-02-14",
      "certificateEndDate": "2024-08-09",
      "object": "COMPRA Y VENTA DE VEHICULOS NUEVOS Y USADOS, TANTO DE MARCA NACIONAL COMO EXTRANJERA. TALLER DE REPARACIÓN DE VEHÍCULOS, TANTO DE CHAPA COMO DE MECÁNICA",
      "mainEntityOfPage": "https://www.contratacion.euskadi.eus/webkpe00-kperoc/es/ac71aBusquedaRegistrosWar/empresa/07055",
      "_links": {
        "self": {
          "name": "IBAUTO 98 SRL",
          "href": "https://api.euskadi.eus/procurements/companies/07055"
        }
      }
    },
    {
      "name": "JON UGARTE ZUAZO",
      "registrationNumber": "08905",
      "identificationNumber": "16063418B",
      "address": "Billaondoeta 19 1ºB",
      "location": {
        "postalCode": "48991",
        "municipality": "Getxo",
        "county": "Bizkaia",
        "municipalityId": "044",
        "countyId": "48"
      },
      "economicActivities": [
        {
          "id": "2.899",
          "name": "Otros profesionales",
          "_links": {
            "self": {
              "name": "Otros profesionales",
              "href": "https://api.euskadi.eus/procurements/companies/economic-activities/2.899"
            }
          }
        }
      ],
      "certificateStartDate": "2024-02-09",
      "certificateEndDate": "2024-08-09",
      "object": "OTROS PROFESIONALES.",
      "mainEntityOfPage": "https://www.contratacion.euskadi.eus/webkpe00-kperoc/es/ac71aBusquedaRegistrosWar/empresa/08905",
      "_links": {
        "self": {
          "name": "JON UGARTE ZUAZO",
          "href": "https://api.euskadi.eus/procurements/companies/08905"
        }
      }
    },
    {
      "name": "CENTRO INTERNACIONAL DE IDIOMAS, S.A.",
      "registrationNumber": "08288",
      "identificationNumber": "A28479624",
      "address": "Sancho Dávila 35",
      "location": {
        "postalCode": "28028",
        "municipality": "Madrid",
        "county": "Madrid",
        "municipalityId": "079",
        "countyId": "28"
      },
      "economicActivities": [
        {
          "id": "1.755",
          "name": "Agencias de viajes",
          "_links": {
            "self": {
              "name": "Agencias de viajes",
              "href": "https://api.euskadi.eus/procurements/companies/economic-activities/1.755"
            }
          }
        },
        {
          "id": "1.933.2",
          "name": "Promoción de cursos y estudios en el extranjero",
          "_links": {
            "self": {
              "name": "Promoción de cursos y estudios en el extranjero",
              "href": "https://api.euskadi.eus/procurements/companies/economic-activities/1.933.2"
            }
          }
        }
      ],
      "certificateStartDate": "2024-02-08",
      "certificateEndDate": "2024-08-06",
      "object": "A) LA ENSEÑANZA EN GENERAL, EN CUALQUIERA DE SUS RAMAS, FORMAS, MÉTODOS Y PLANIFICACIÓN A DISTANCIA, EN CENTROS DE ENSEÑANZA, EN RADIO, EN TELEVISIÓN U OTRO MEDIO AUDIOVISUAL. LA CREACIÓN, ADAPTACIÓN, COMPRA Y COMERCIALIZACIÓN DE CURSOS DE CUALQUIER ÍNDOLE Y DE CUALQUIER CLASE DE MATERIAL DE ENSEÑANZA.  B) LA ORGANIZACIÓN, PROMOCIÓN, ASESORAMIENTO Y REALIZACIÓN DE CURSOS DE IDIOMAS Y ESTUDIO EN EL EXTRANJERO; CURSOS DE IDIOMAS PARA EXTRANJEROS EN ESPAÑA; INTERCAMBIOS CULTURALES; CURSOS DE IDIOMAS EN ESPAÑA Y CURSOS CULTURALES; SERVICIOS DE TRADUCCIÓN E INTERPRETACIÓN Y SERVICIOS LINGÜÍSTICOS EN GENERAL, TANTO PARA PERSONAS FÍSICAS COMO PARA TODO TIPO DE EMPRESAS Y ORGANISMOS PÚBLICOS Y PRIVADOS.  C) EDITORIAL: EDICIÓN, DISTRIBUCIÓN Y VENTA DE LIBROS, MULTIMEDIA, FRANQUICIAS (FRANQUICIADOR), ENSEÑANZA FUERA DE ESTABLECIMIENTO PERMANENTE. D) A LAS ACTIVIDADES PROPIAS DE LAS AGENCIA DE VIAJES, CON CLASIFICACIÓN DE MINORISTA. SON OBJETO O FINES PROPIOS DE LAS AGENCIAS DE VIAJES TOS QUE SE ENUMERAN EN EL DECRETO 99/1996 DE 27 DE JUNIO (BOLETÍN OFICIAL DE LA COMUNIDAD DE MADRID, DE 12 DE JULIO DE 1996, POR EL QUE SE REGULA EL EJERCICIO DE LAS ACTIVIDADES PROPIAS DE LAS AGENCIAS DE VIAJES DE LA COMUNIDAD DE MADRID, CON LAS CORRECCIONES PUBLICADAS EN EL BOLETÍN OFICIAL DE LA COMUNIDAD DE MADRID, DE 1 DE AGOSTO DE 1996, O LOS QUE PUDIERAN ESTABLECERSE EN DISPOSICIONES POSTERIORES. DICHO OBJETO ES EL SIGUIENTE: L) LA MEDIACIÓN EN LA VENTA DE BILLETES O RESERVAS DE PLAZAS EN TODA CLASE DE MEDIOS DE TRANSPORTE, ASÍ COMO EN LAS RESERVAS DE HABITACIONES Y SERVICIOS EN LAS EMPRESAS TURÍSTICAS. II) LA ORGANIZACIÓN Y VENTA DE LOS DENOMINADOS VIAJES COMBINADOS, DEFINIDOS EN EL ARTÍCULO 1 DE LA LEY 21/1995, DE 6 DE JULIO, REGULADORA DE LOS VIAJES COMBINADOS, O NORMATIVA QUE LA SUSTITUYA. III) LA ACTUACIÓN COMO REPRESENTANTE DE OTRAS AGENCIAS NACIONALES O EXTRANJERAS PARA LA PRESTACIÓN EN SU NOMBRE Y A LA CLIENTELA DE ÉSTAS, DE LOS SERVICIOS QUE CONSTITUYEN EL OBJETO PROPIO DE SU ACTIVIDAD. IV) LA ORGANIZACIÓN Y LA VENTA DE LAS LLAMADAS \"EXCURSIONES DE UN DÍA\" OFRECIDAS POR LA AGENCIA DE VIAJES O PROYECTADAS A SOLICITUD DEL CLIENTE, A UN PRECIO GLOBAL ESTABLECIDO Y QUE NO INCLUYAN TODOS LOS ELEMENTOS PROPIOS DEL VIAJE COMBINADO. V) CUALESQUIERA OTROS SERVICIOS QUE SE RECONOZCAN COMO PROPIOS DE SU ACTIVIDAD DE ACUERDO CON LA LEGISLACIÓN VIGENTE. ADEMÁS DE LAS ACTIVIDADES ANTERIORMENTE ENUMERADAS, LAS AGENCIAS DE VIAJES PODRÁN PRESTAR A SUS CLIENTES, EN LA FORMA SEÑALADA POR LA LEGISLACIÓN VIGENTE, LOS SIGUIENTES SERVICIOS: 1.- DIFUSIÓN DE MATERIAL PROMOCIONAL Y DE INFORMACIÓN TURÍSTICA. 2.- CAMBIO DE DIVISAS, VENTA Y CAMBIO DE CHEQUES DE VIAJEROS. 3.- EXPEDICIÓN Y TRANSFERENCIA DE EQUIPAJES POR CUALQUIER MEDIO DE TRANSPORTE. 4.- FORMALIZACIÓN DE PÓLIZAS DE SEGUROS TURÍSTICO, DE PÉRDIDA O DETERIORO DE EQUIPAJES Y OTRAS QUE CUBRAN LOS RIESGOS RELACIONADOS CON LOS VIAJES. 5.- ALQUILER DE VEHÍCULOS CON O SIN CONDUCTOR. 6.- RESERVA, ADQUISICIÓN Y VENTA DE BILLETES O ENTRADAS DE TODO TIPO DE ESPECTÁCULOS, MUSEOS Y MONUMENTOS. 7.- ALQUILER DE ÚTILES Y EQUIPOS DESTINADOS A LA PRÁCTICA DEL TURISMO DEPORTIVO. 8.- FLETE DE AVIONES, BARCOS, AUTOBUSES, TRENES ESPECIALES Y OTROS MEDIOS DE TRANSPORTE PARA LA REALIZACIÓN DE SERVICIOS TURÍSTICOS PROPIOS DE SU ACTIVIDAD.  9.- PRESTACIÓN DE CUALESQUIERA OTROS SERVICIOS TURÍSTICOS QUE COMPLEMENTEN LOS ENUMERADOS ANTERIORMENTE. E) ORGANIZACIÓN Y PRESTACIÓN DEL SERVICIO DE ACOMPAÑANTES EN AUTOBUSES PARA EL TRANSPORTE ESCOLAR DE LOS CENTROS PÚBLICOS DE ENSEÑANZA. ",
      "mainEntityOfPage": "https://www.contratacion.euskadi.eus/webkpe00-kperoc/es/ac71aBusquedaRegistrosWar/empresa/08288",
      "_links": {
        "self": {
          "name": "CENTRO INTERNACIONAL DE IDIOMAS, S.A.",
          "href": "https://api.euskadi.eus/procurements/companies/08288"
        }
      }
    },
    {
      "name": "DIAVIDA, S.L.",
      "registrationNumber": "09401",
      "identificationNumber": "B98285877",
      "address": "C/ JUAN BAUTISTA MUÑOZ Y FERRANDIS, 24",
      "location": {
        "postalCode": "46136",
        "municipality": "Museros",
        "county": "Valencia/València",
        "municipalityId": "177",
        "countyId": "46"
      },
      "economicActivities": [
        {
          "id": "1.721.4",
          "name": "Transporte sanitario en ambulancias",
          "_links": {
            "self": {
              "name": "Transporte sanitario en ambulancias",
              "href": "https://api.euskadi.eus/procurements/companies/economic-activities/1.721.4"
            }
          }
        }
      ],
      "certificateStartDate": "2024-02-07",
      "certificateEndDate": "2024-08-07",
      "object": "TRANSPORTE DE ENFERMOS PARA EL TRATAMIENTO DE HEMODIÁLISIS Y OTRAS ENFERMEDADES.",
      "mainEntityOfPage": "https://www.contratacion.euskadi.eus/webkpe00-kperoc/es/ac71aBusquedaRegistrosWar/empresa/09401",
      "_links": {
        "self": {
          "name": "DIAVIDA, S.L.",
          "href": "https://api.euskadi.eus/procurements/companies/09401"
        }
      }
    },
    {
      "name": "SERVICARFRES SOCIEDAD LIMITADA",
      "registrationNumber": "08603",
      "identificationNumber": "B95600342",
      "address": "Calle Marino Archer (48013) 43",
      "location": {
        "postalCode": "48013",
        "municipality": "Bilbao",
        "county": "Bizkaia",
        "municipalityId": "020",
        "countyId": "48"
      },
      "economicActivities": [
        {
          "id": "1.612.4",
          "name": "Venta al por mayor de carnes, huevos, aves y caza",
          "_links": {
            "self": {
              "name": "Venta al por mayor de carnes, huevos, aves y caza",
              "href": "https://api.euskadi.eus/procurements/companies/economic-activities/1.612.4"
            }
          }
        }
      ],
      "certificateStartDate": "2024-02-06",
      "certificateEndDate": "2024-08-06",
      "object": "LA VENTA AL POR MAYOR Y POR MENOR DE TODA CLASE DE PRODUCTOS CÁRNICOS. LA ELABORACIÓN DE TODA CLASE DE PRODUCTOS ALIMENTICIOS. LA COMERCIALIZACIÓN Y VENTA DE TODA CLASE DE PRODUCTOS ALIMENTICIOS, BIEN SEAN ELABORADOS O FRESCOS.",
      "mainEntityOfPage": "https://www.contratacion.euskadi.eus/webkpe00-kperoc/es/ac71aBusquedaRegistrosWar/empresa/08603",
      "_links": {
        "self": {
          "name": "SERVICARFRES SOCIEDAD LIMITADA",
          "href": "https://api.euskadi.eus/procurements/companies/08603"
        }
      }
    },
    {
      "name": "DIEGO OJANGUREN RODRIGUEZ",
      "registrationNumber": "09397",
      "identificationNumber": "16075649Y",
      "address": "PLAZA ERREKALDE 3, LOCAL 6",
      "location": {
        "postalCode": "48940",
        "municipality": "Leioa",
        "county": "Bizkaia",
        "municipalityId": "054",
        "countyId": "48"
      },
      "economicActivities": [
        {
          "id": "1.647.1",
          "name": "Venta al por menor de productos alimenticios y bebidas con vendedor",
          "_links": {
            "self": {
              "name": "Venta al por menor de productos alimenticios y bebidas con vendedor",
              "href": "https://api.euskadi.eus/procurements/companies/economic-activities/1.647.1"
            }
          }
        },
        {
          "id": "1.652.4",
          "name": "Venta al por menor de plantas y hierbas en herbolarios",
          "_links": {
            "self": {
              "name": "Venta al por menor de plantas y hierbas en herbolarios",
              "href": "https://api.euskadi.eus/procurements/companies/economic-activities/1.652.4"
            }
          }
        },
        {
          "id": "1.659.6",
          "name": "Venta al por menor de juguetes, artículos de deporte",
          "_links": {
            "self": {
              "name": "Venta al por menor de juguetes, artículos de deporte",
              "href": "https://api.euskadi.eus/procurements/companies/economic-activities/1.659.6"
            }
          }
        }
      ],
      "certificateStartDate": "2024-02-06",
      "certificateEndDate": "2024-07-22",
      "object": "VENTA AL POR MENOR DE JUGUETES, ARTÍCULOS DE DEPORTE. VENTA AL POR MENOR DE PLANTAS Y HIERBAS EN HERBOLARIOS. VENTA AL POR MENOR DE PRODUCTOS ALIMENTICIOS Y BEBIDAS CON VENDEDOR.",
      "mainEntityOfPage": "https://www.contratacion.euskadi.eus/webkpe00-kperoc/es/ac71aBusquedaRegistrosWar/empresa/09397",
      "_links": {
        "self": {
          "name": "DIEGO OJANGUREN RODRIGUEZ",
          "href": "https://api.euskadi.eus/procurements/companies/09397"
        }
      }
    },
    {
      "name": "ALMUDENA MONTALVO PEREZ",
      "registrationNumber": "09396",
      "identificationNumber": "53452799V",
      "address": "Plaza Errekalde 3, local 6",
      "location": {
        "postalCode": "48940",
        "municipality": "Leioa",
        "county": "Bizkaia",
        "municipalityId": "054",
        "countyId": "48"
      },
      "economicActivities": [
        {
          "id": "2.836",
          "name": "Ayudantes técnicos sanitarios y fisioterapeutas",
          "_links": {
            "self": {
              "name": "Ayudantes técnicos sanitarios y fisioterapeutas",
              "href": "https://api.euskadi.eus/procurements/companies/economic-activities/2.836"
            }
          }
        }
      ],
      "certificateStartDate": "2024-02-06",
      "certificateEndDate": "2024-07-22",
      "object": "AYUDANTES TÉCNICOS SANITARIOS Y FISIOTERAPEUTAS.",
      "mainEntityOfPage": "https://www.contratacion.euskadi.eus/webkpe00-kperoc/es/ac71aBusquedaRegistrosWar/empresa/09396",
      "_links": {
        "self": {
          "name": "ALMUDENA MONTALVO PEREZ",
          "href": "https://api.euskadi.eus/procurements/companies/09396"
        }
      }
    },
    {
      "name": "CRAN ARTE GRÁFICO, S. COOP. PEQUEÑA",
      "registrationNumber": "05130",
      "identificationNumber": "F95702676",
      "address": "GORDONIZ, 11 - BAJO",
      "location": {
        "postalCode": "48010",
        "municipality": "Bilbao",
        "county": "Bizkaia",
        "municipalityId": "020",
        "countyId": "48"
      },
      "economicActivities": [
        {
          "id": "1.474.1",
          "name": "Impresión de textos o imágenes por cualquier procedimiento",
          "_links": {
            "self": {
              "name": "Impresión de textos o imágenes por cualquier procedimiento",
              "href": "https://api.euskadi.eus/procurements/companies/economic-activities/1.474.1"
            }
          }
        }
      ],
      "certificateStartDate": "2024-02-05",
      "certificateEndDate": "2024-07-29",
      "object": "LA PRESTACIÓN DE SERVICIOS INTEGRALES EN EL SECTOR DE ARTES GRÁFICAS, DE DISEÑO GRÁFICO, MAQUETACIÓN, AUTOEDICIÓN, MONTAJE, IMPRESIÓN, PREIMPRESIÓN Y ENCUADERNACIÓN",
      "mainEntityOfPage": "https://www.contratacion.euskadi.eus/webkpe00-kperoc/es/ac71aBusquedaRegistrosWar/empresa/05130",
      "_links": {
        "self": {
          "name": "CRAN ARTE GRÁFICO, S. COOP. PEQUEÑA",
          "href": "https://api.euskadi.eus/procurements/companies/05130"
        }
      }
    },
    {
      "name": "TECNICAS DE MEDIDA Y METALOGRAFIA, S.A.",
      "registrationNumber": "08562",
      "identificationNumber": "A78537982",
      "address": "Camino de Hormigueras 124 6º J Portal 4",
      "location": {
        "postalCode": "28031",
        "municipality": "Madrid",
        "county": "Madrid",
        "municipalityId": "079",
        "countyId": "28"
      },
      "economicActivities": [
        {
          "id": "1.619.7",
          "name": "Venta al por mayor de instrumentos de precisión, medida y similares",
          "_links": {
            "self": {
              "name": "Venta al por mayor de instrumentos de precisión, medida y similares",
              "href": "https://api.euskadi.eus/procurements/companies/economic-activities/1.619.7"
            }
          }
        }
      ],
      "certificateStartDate": "2024-02-02",
      "certificateEndDate": "2024-07-28",
      "object": "LA COMPRA, VENTA, DISTRIBUCIÓN Y COMERCIALIZACIÓN, IMPORTACIÓN Y EXPORTACIÓN DE INSTRUMENTOS DE MEDIDA, ENSAYO Y CONTROL, ASÍ COMO LA REPARACIÓN Y ASESORAMIENTO TÉCNICO DE TALES PRODUCTOS Y CUALQUIER OTRA ACTIVIDAD LÍCITA RELACIONADA DIRECTAMENTE CON DICHO OBJETO SOCIAL.",
      "mainEntityOfPage": "https://www.contratacion.euskadi.eus/webkpe00-kperoc/es/ac71aBusquedaRegistrosWar/empresa/08562",
      "_links": {
        "self": {
          "name": "TECNICAS DE MEDIDA Y METALOGRAFIA, S.A.",
          "href": "https://api.euskadi.eus/procurements/companies/08562"
        }
      }
    }
  ]
}