{
  "totalItems": 9042,
  "totalPages": 905,
  "currentPage": 552,
  "itemsOfPage": 10,
  "items": [
    {
      "name": "INGENIERÍA CIVIL Y ESTUDIOS TÉCNICOS, S.A.",
      "registrationNumber": "01708",
      "identificationNumber": "A48171532",
      "address": "C/ URIBITARTE, 8 - 5º",
      "location": {
        "postalCode": "48001",
        "municipality": "Bilbao",
        "county": "Bizkaia",
        "municipalityId": "020",
        "countyId": "48"
      },
      "economicActivities": [
        {
          "id": "1.843.1",
          "name": "Servicios técnicos de ingeniería",
          "_links": {
            "self": {
              "name": "Servicios técnicos de ingeniería",
              "href": "https://api.euskadi.eus/procurements/companies/economic-activities/1.843.1"
            }
          }
        }
      ],
      "certificateStartDate": "2020-11-24",
      "certificateEndDate": "2021-05-03",
      "object": "LA REALIZACIÓN DE TRABAJOS DE CONSTRUCCIÓN, EN SU ACEPCIÓN MÁS AMPLIA, PARA LA CREACIÓN DE INFRAESTRUCTURA EN ORDEN AL ABASTECIMIENTO DE AGUAS; ALMACENAMIENTO, DEPÓSITO Y DISTRIBUCIÓN DE MERCANCIA, PRODUCTOS, ARTÍCULOS Y MATERIAS DE TODA CLASE Y EN GENERAL DE BIENES MUEBLES. LA ADQUISICIÓN POR CUALQUIER TÍTULO, DE FINCAS RÚSTICAS Y URBANAS, LA CONSTRUCCIÓN DE ÉSTOS Y LA ADMINISTRACIÓN, TENENCIA, EXPLOTACIÓN Y ARRENDAMIENTO, DE TALES BIENES Y SU VENTA TOTAL O PARCIAL, SEGÚN CONVENGA PARA SU APROVECHAMIENTO AGRÍCOLA, FORESTAL, URBANO, INDUSTRIAL O DE CUALQUIER OTRO; LA PROMOCIÓN Y EXPLOTACIÓN DE TODA CLASE DE PRODUCTOS, ELABORADOS, NATURALES, MATERIAS PRIMAS, MANUFACTURADOS, SEMIELABORADOS, RELACIONADOS CON LA AGRICULTURA, GANADERÍA, TRANSPORTE Y AUTOMOCIÓN DE CUALQUIER CLASE Y NATURALEZA, TELECOMUNICACIÓN, INDUSTRIA FORESTAL, SIDEROMETALÚRGICA, MECÁNICA, ELECTROMECÁNICA, QUÍMICA Y ALIMENTACIÓN, TEXTIL, BIOQUÍMICA. EL ESTUDIO, INVESTIGACIÓN, PROMOCIÓN Y PRESTACIÓN DE TODA CLASE DE SERVICIOS DE ASISTENCIAS Y GESTIÓN TÉCNICA, ADMINISTRATIVA Y COMERCIAL. LA ADQUISICIÓN Y CESIÓN, INVERSIÓN, TENENCIA, DISFRUTE, ADMINISTRACIÓN, GESTIÓN Y NEGOCIACIÓN EN GENERAL, DE VALORES MOBILIARIOS, PARTICIPACIONES SOCIALES O EN COPROPIEDAD DE TODA CLASE DE BIENES",
      "mainEntityOfPage": "https://www.contratacion.euskadi.eus/webkpe00-kperoc/es/ac71aBusquedaRegistrosWar/empresa/01708",
      "_links": {
        "self": {
          "name": "INGENIERÍA CIVIL Y ESTUDIOS TÉCNICOS, S.A.",
          "href": "https://api.euskadi.eus/procurements/companies/01708"
        }
      }
    },
    {
      "name": "HEGALDI S.L.",
      "registrationNumber": "03082",
      "identificationNumber": "B95132874",
      "address": "C/ itsasondo, nº 4-1ºB",
      "location": {
        "postalCode": "48993",
        "municipality": "Getxo",
        "county": "Bizkaia",
        "municipalityId": "044",
        "countyId": "48"
      },
      "economicActivities": [
        {
          "id": "1.659.3",
          "name": "Venta al por menor de aparatos médicos, ortopédicos, ópticos y fotográficos",
          "_links": {
            "self": {
              "name": "Venta al por menor de aparatos médicos, ortopédicos, ópticos y fotográficos",
              "href": "https://api.euskadi.eus/procurements/companies/economic-activities/1.659.3"
            }
          }
        }
      ],
      "certificateStartDate": "2020-11-23",
      "certificateEndDate": "2021-05-11",
      "object": "LA REPRESENTACIÓN POR COMISIONES, COMPRAVENTA AL POR MAYOR Y POR MENOR, IMPORTACIÓN Y EXPORTACIÓN DE EQUIPAMIENTO CLÍNICO Y PARA SERVICIOS GENERALES DESTINADOS A ORGANISMOS DE SALUD O BIENESTAR SOCIAL, CENTROS SANITARIOS, RESIDENCIAS GERIÁTRICAS, COMUNIDADES, ENTIDADES COMERCIALES O PARTICULARES.\r\nLAS ACTIVIDADES ENUMERADAS PODRÁN TAMBIÉN SER DESARROLLADAS POR LA SOCIEDAD, TOTAL O PARCIALMENTE, DE MODO INDIRECTO, MEDIANTE LA PARTICIPACIÓN EN  OTRAS SOCIEDADES CON OBJETO ANÁLOGO.\r\nLA SOCIEDAD NO DESARROLLARÁ NINGUNA ACTIVIDAD PARA LA QUE LAS LEYES EXIJAN CONDICIONES O LIMITACIONES ESPECÍFICAS, EN TANTO NO DÉ EXACTO CUMPLIMIENTO A LAS MISMAS   ",
      "mainEntityOfPage": "https://www.contratacion.euskadi.eus/webkpe00-kperoc/es/ac71aBusquedaRegistrosWar/empresa/03082",
      "_links": {
        "self": {
          "name": "HEGALDI S.L.",
          "href": "https://api.euskadi.eus/procurements/companies/03082"
        }
      }
    },
    {
      "name": "DANNERBOOTS, S.L.",
      "registrationNumber": "06778",
      "identificationNumber": "B94129756",
      "address": "poligono industrial area 33",
      "location": {
        "postalCode": "36540",
        "municipality": "Silleda",
        "county": "Pontevedra",
        "municipalityId": "052",
        "countyId": "36"
      },
      "economicActivities": [
        {
          "id": "1.453",
          "name": "Confección en serie de toda clase de prendas de vestir",
          "_links": {
            "self": {
              "name": "Confección en serie de toda clase de prendas de vestir",
              "href": "https://api.euskadi.eus/procurements/companies/economic-activities/1.453"
            }
          }
        },
        {
          "id": "1.613.1",
          "name": "Venta al por mayor de productos textiles, confección calzado y artículos cuero",
          "_links": {
            "self": {
              "name": "Venta al por mayor de productos textiles, confección calzado y artículos cuero",
              "href": "https://api.euskadi.eus/procurements/companies/economic-activities/1.613.1"
            }
          }
        },
        {
          "id": "1.651.6",
          "name": "Venta al por menor de calzado, artículos de piel, cinturones, bolsos, maletas",
          "_links": {
            "self": {
              "name": "Venta al por menor de calzado, artículos de piel, cinturones, bolsos, maletas",
              "href": "https://api.euskadi.eus/procurements/companies/economic-activities/1.651.6"
            }
          }
        }
      ],
      "certificateStartDate": "2020-11-20",
      "certificateEndDate": "2021-05-20",
      "object": "COMERCIO AL POR MAYOR DE PRENDAS DE VESTIR Y CALZADO. (CNAE 4642). COMERCIO AL POR MENOR DE TEXTILES EN ESTABLECIMIENTOS ESPECIALIZADOS (CNAE 4751); COMERCIO AL POR MENOR DE CALZADO Y ARTÍCULOS DE CUERO EN ESTABLECIMIENTOS ESPECIALIZADOS (CNAE 4772)",
      "mainEntityOfPage": "https://www.contratacion.euskadi.eus/webkpe00-kperoc/es/ac71aBusquedaRegistrosWar/empresa/06778",
      "_links": {
        "self": {
          "name": "DANNERBOOTS, S.L.",
          "href": "https://api.euskadi.eus/procurements/companies/06778"
        }
      }
    },
    {
      "name": "LABORATORIOS TECNOLÓGICOS DE LEVANTE S.L",
      "registrationNumber": "06398",
      "identificationNumber": "B97732754",
      "address": "C/Benjamín Franklin nº 16",
      "location": {
        "postalCode": "46980",
        "municipality": "Paterna",
        "county": "Valencia/València",
        "municipalityId": "190",
        "countyId": "46"
      },
      "economicActivities": [
        {
          "id": "1.843.1",
          "name": "Servicios técnicos de ingeniería",
          "_links": {
            "self": {
              "name": "Servicios técnicos de ingeniería",
              "href": "https://api.euskadi.eus/procurements/companies/economic-activities/1.843.1"
            }
          }
        }
      ],
      "certificateStartDate": "2020-11-19",
      "certificateEndDate": "2021-05-18",
      "object": "A) LA PRESTACIÓN DE SERVICIOS DE INGENIERÍA. B) LA INSPECCIÓN, AUDITORÍA Y CONTROLMEDIOAMBIENTAL Y CONTROL TÉCNICO DE CALIDAD",
      "mainEntityOfPage": "https://www.contratacion.euskadi.eus/webkpe00-kperoc/es/ac71aBusquedaRegistrosWar/empresa/06398",
      "_links": {
        "self": {
          "name": "LABORATORIOS TECNOLÓGICOS DE LEVANTE S.L",
          "href": "https://api.euskadi.eus/procurements/companies/06398"
        }
      }
    },
    {
      "name": "QUEZAM VIDEO, S.L.",
      "registrationNumber": "06760",
      "identificationNumber": "B82853557",
      "address": "CORREGIDOR JUAN FRANCISCO DE LUJAN, 19-1º B",
      "location": {
        "postalCode": "28030",
        "municipality": "Madrid",
        "county": "Madrid",
        "municipalityId": "079",
        "countyId": "28"
      },
      "economicActivities": [
        {
          "id": "1.961.2",
          "name": "Doblaje y montaje de películas",
          "_links": {
            "self": {
              "name": "Doblaje y montaje de películas",
              "href": "https://api.euskadi.eus/procurements/companies/economic-activities/1.961.2"
            }
          }
        },
        {
          "id": "1.964.2",
          "name": "Servicios de televisión",
          "_links": {
            "self": {
              "name": "Servicios de televisión",
              "href": "https://api.euskadi.eus/procurements/companies/economic-activities/1.964.2"
            }
          }
        }
      ],
      "certificateStartDate": "2020-11-19",
      "certificateEndDate": "2021-05-19",
      "object": "EL ALQUILER DE EQUIPOS AUDIOVISUALES, VENTA Y ALQUILER DE PELÍCULAS Y VÍDEOS, INCLUSO SU REPRODUCCIÓN",
      "mainEntityOfPage": "https://www.contratacion.euskadi.eus/webkpe00-kperoc/es/ac71aBusquedaRegistrosWar/empresa/06760",
      "_links": {
        "self": {
          "name": "QUEZAM VIDEO, S.L.",
          "href": "https://api.euskadi.eus/procurements/companies/06760"
        }
      }
    },
    {
      "name": "TRES SISTEMAS DE COMUNICACION S.L.",
      "registrationNumber": "06762",
      "identificationNumber": "B85518074",
      "address": "Avda Andalucia Km 9 Ed Todoparking of. nº12",
      "location": {
        "postalCode": "28021",
        "municipality": "Madrid",
        "county": "Madrid",
        "municipalityId": "079",
        "countyId": "28"
      },
      "economicActivities": [
        {
          "id": "1.964.3",
          "name": "Servicios de enlace y transmisión de señales de televisión",
          "_links": {
            "self": {
              "name": "Servicios de enlace y transmisión de señales de televisión",
              "href": "https://api.euskadi.eus/procurements/companies/economic-activities/1.964.3"
            }
          }
        }
      ],
      "certificateStartDate": "2020-11-19",
      "certificateEndDate": "2021-05-19",
      "object": "LA ELABORACIÓN, PRODUCCIÓN, DISTRIBUCIÓN, TRANSPORTE, COMERCIALIZACIÓN, IMPORTACIÓN Y EXPORTACIÓN DE CONTENIDOS AUDIOVISUALES Y MULTIMEDIA. LA PRESTACIÓN DE SERVICIOS DE INSTALACIÓN, MANTENIMIENTO Y, EN GENERAL, CUALQUIER SERVICIO QUE 1A SOCIEDAD PUEDA PRESTAR A TERCEROS. LA DIFUSIÓN Y ENSEÑANZA DE MÉTODOS, SISTEMAS Y TECNOLOGÍAS, TANTO PROPIAS COMO AJENAS. LA IMPORTACIÓN, EXPORTACIÓN, COMERCIALIZACIÓN, ACTUALIZACIÓN, FABRICACIÓN, VENTA Y ARRENDAMIENTO DE PRODUCTOS ELECTRÓNICOS, INFORMÁTICOS Y MAQUINARIA, DESARROLLADOS POR LA PROPIA SOCIEDAD O POR TERCEROS. LA PRESTACIÓN DE ASESORAMIENTO A TERCEROS, INCLUYENDO LA REALIZACIÓN DE INFORMES Y ELABORACIÓN DE PROYECTOS. LA CONSTRUCCIÓN, POR CUENTA PROPIA O AJENA DE INMUEBLES, EDIFICIOS Y OBRA CIVIL. LA REALIZACIÓN DE OBRAS DE REPARACIÓN, CONSERVACIÓN, DERRIBO Y REHABILITACIÓN DE TODA CLASE DE INMUEBLES, ASÍ COMO SU EXPLOTACIÓN EN FORMA DE ARRIENDO",
      "mainEntityOfPage": "https://www.contratacion.euskadi.eus/webkpe00-kperoc/es/ac71aBusquedaRegistrosWar/empresa/06762",
      "_links": {
        "self": {
          "name": "TRES SISTEMAS DE COMUNICACION S.L.",
          "href": "https://api.euskadi.eus/procurements/companies/06762"
        }
      }
    },
    {
      "name": "EUSKOANDAMIOS Y CONSTRUCCIONES S.L.",
      "registrationNumber": "07366",
      "identificationNumber": "B95520805",
      "address": "EGAÑA Nº 17 - 4º",
      "location": {
        "postalCode": "48010",
        "municipality": "Bilbao",
        "county": "Bizkaia",
        "municipalityId": "020",
        "countyId": "48"
      },
      "economicActivities": [
        {
          "id": "1.501.2",
          "name": "Construcción completa, reparación y conservación obras civiles",
          "_links": {
            "self": {
              "name": "Construcción completa, reparación y conservación obras civiles",
              "href": "https://api.euskadi.eus/procurements/companies/economic-activities/1.501.2"
            }
          }
        }
      ],
      "certificateStartDate": "2020-11-18",
      "certificateEndDate": "2021-05-05",
      "object": "MONTAJE Y DESMONTAJE DE ANDAMIOS, MONTACARGAS, EQUIPAMIENTOS ELÉCTRICOS Y TODO TIPO DE PLATAFORMAS ELEVADORAS. ALQUILER DE ANDAMIOS, MONTACARGAS Y TODO TIPO DE ELEVADORES AÉREOS. MONTAJE Y ALQUILER DE ANDAMIOS-APUNTALAMIENTOS, MONTAJES LIGEROS, DE CREMALLERA, TORRES MÓVILES, ETC. MONTAJE, EN LAS ÁREAS TECNOLÓGICAS DE ANDAMIOS, APEO, APUNTALAMIENTOS Y ENCOFRADOS. REALIZACIÓN DE OBRAS Y REFORMAS DE INTERIORES Y EXTERIORES EN GENERAL (ALBAÑILERÍA, FONTANERÍA, CARPINTERÍA, ELECTRICIDAD, PINTURA, ESCAYOLA, PLADUR, ETC.) EN VIVIENDA NUEVA, VIEJA, EN LOCALES COMERCIALES, PABELLONES Y NAVES INDUSTRIALES, CHALETS, CASA DE CAMPO, ORGANISMO PÚBLICOS, ETC. IMPERMEABILIZACIÓN Y RESTAURACIÓN DE TEJADOS Y FACHADAS. SERVICIOS GENERALES DE MANTENIMIENTO A EMPRESAS",
      "mainEntityOfPage": "https://www.contratacion.euskadi.eus/webkpe00-kperoc/es/ac71aBusquedaRegistrosWar/empresa/07366",
      "_links": {
        "self": {
          "name": "EUSKOANDAMIOS Y CONSTRUCCIONES S.L.",
          "href": "https://api.euskadi.eus/procurements/companies/07366"
        }
      }
    },
    {
      "name": "CAYPE OBRAS, S.L.",
      "registrationNumber": "07369",
      "identificationNumber": "B75183863",
      "address": "ORIA HIRIBIDEA, 10 - 5º - OF 512",
      "location": {
        "postalCode": "20160",
        "municipality": "Lasarte-Oria",
        "county": "Gipuzkoa",
        "municipalityId": "902",
        "countyId": "20"
      },
      "economicActivities": [
        {
          "id": "1.501.2",
          "name": "Construcción completa, reparación y conservación obras civiles",
          "_links": {
            "self": {
              "name": "Construcción completa, reparación y conservación obras civiles",
              "href": "https://api.euskadi.eus/procurements/companies/economic-activities/1.501.2"
            }
          }
        },
        {
          "id": "1.834",
          "name": "Servicios relativos a la propiedad inmobiliaria e industrial",
          "_links": {
            "self": {
              "name": "Servicios relativos a la propiedad inmobiliaria e industrial",
              "href": "https://api.euskadi.eus/procurements/companies/economic-activities/1.834"
            }
          }
        }
      ],
      "certificateStartDate": "2020-11-18",
      "certificateEndDate": "2021-03-07",
      "object": "LA CONSTRUCCIÓN, REPARACIÓN Y CONSERVACIÓN DE TODA CLASE DE OBRAS",
      "mainEntityOfPage": "https://www.contratacion.euskadi.eus/webkpe00-kperoc/es/ac71aBusquedaRegistrosWar/empresa/07369",
      "_links": {
        "self": {
          "name": "CAYPE OBRAS, S.L.",
          "href": "https://api.euskadi.eus/procurements/companies/07369"
        }
      }
    },
    {
      "name": "BELABIA MOTOR, S.L.",
      "registrationNumber": "07363",
      "identificationNumber": "B01579036",
      "address": "C/Alto de Armentia Nº8 B1",
      "location": {
        "postalCode": "01007",
        "municipality": "Vitoria-Gasteiz",
        "county": "Araba/Álava",
        "municipalityId": "059",
        "countyId": "01"
      },
      "economicActivities": [
        {
          "id": "1.615.1",
          "name": "Venta al por mayor de vehículos, motocicletas, bicicletas y sus accesorios",
          "_links": {
            "self": {
              "name": "Venta al por mayor de vehículos, motocicletas, bicicletas y sus accesorios",
              "href": "https://api.euskadi.eus/procurements/companies/economic-activities/1.615.1"
            }
          }
        },
        {
          "id": "1.691.2",
          "name": "Reparación de vehículos automóviles, bicicletas y otros vehículos",
          "_links": {
            "self": {
              "name": "Reparación de vehículos automóviles, bicicletas y otros vehículos",
              "href": "https://api.euskadi.eus/procurements/companies/economic-activities/1.691.2"
            }
          }
        },
        {
          "id": "1.854.1",
          "name": "Alquiler de automóviles sin conductor",
          "_links": {
            "self": {
              "name": "Alquiler de automóviles sin conductor",
              "href": "https://api.euskadi.eus/procurements/companies/economic-activities/1.854.1"
            }
          }
        }
      ],
      "certificateStartDate": "2020-11-17",
      "certificateEndDate": "2021-04-28",
      "object": "LA COMPRA VENTA, REPARACIÓN Y REPRESENTACIÓN DE AUTOMÓVILES, CAMIONES, TRACTORES, MOTOCICLETAS, NEUMÁTICOS, ACCESORIOS Y REPUESTOS, ENGRASE Y DEMÁS SERVICIOS Y ACTIVIDADES RELACIONADOS CON LA AUTOMOCIÓN. EL ALQUILER DE TODO TIPO DE VEHÍCULOS A MOTOR, TERRESTRES, MARÍTIMOS, FLUVIALES Y AÉREOS, CON O SIN CONDUCTOR",
      "mainEntityOfPage": "https://www.contratacion.euskadi.eus/webkpe00-kperoc/es/ac71aBusquedaRegistrosWar/empresa/07363",
      "_links": {
        "self": {
          "name": "BELABIA MOTOR, S.L.",
          "href": "https://api.euskadi.eus/procurements/companies/07363"
        }
      }
    },
    {
      "name": "OLM ARQUITECTURA, S.L.P.",
      "registrationNumber": "07360",
      "identificationNumber": "B01416338",
      "address": "CALLE RIOJA 33 BAJO",
      "location": {
        "postalCode": "01005",
        "municipality": "Vitoria-Gasteiz",
        "county": "Araba/Álava",
        "municipalityId": "059",
        "countyId": "01"
      },
      "economicActivities": [
        {
          "id": "1.843.2",
          "name": "Servicios técnicos de arquitectura y urbanismo",
          "_links": {
            "self": {
              "name": "Servicios técnicos de arquitectura y urbanismo",
              "href": "https://api.euskadi.eus/procurements/companies/economic-activities/1.843.2"
            }
          }
        }
      ],
      "certificateStartDate": "2020-11-12",
      "certificateEndDate": "2021-05-04",
      "object": "LA ACTIVIDAD PROPIA DE LA ARQUITECTURA",
      "mainEntityOfPage": "https://www.contratacion.euskadi.eus/webkpe00-kperoc/es/ac71aBusquedaRegistrosWar/empresa/07360",
      "_links": {
        "self": {
          "name": "OLM ARQUITECTURA, S.L.P.",
          "href": "https://api.euskadi.eus/procurements/companies/07360"
        }
      }
    }
  ]
}