{
  "totalItems": 9042,
  "totalPages": 905,
  "currentPage": 392,
  "itemsOfPage": 10,
  "items": [
    {
      "name": "CONSTRUCCIONES GANEKO, S.A.",
      "registrationNumber": "00153",
      "identificationNumber": "A48172837",
      "address": "C/ TENDERÍA, Nº 2 - 1º",
      "location": {
        "postalCode": "48005",
        "municipality": "Bilbao",
        "county": "Bizkaia",
        "municipalityId": "020",
        "countyId": "48"
      },
      "economicActivities": [
        {
          "id": "1.501.1",
          "name": "Construcción completa, reparación y conservación de edificaciones",
          "_links": {
            "self": {
              "name": "Construcción completa, reparación y conservación de edificaciones",
              "href": "https://api.euskadi.eus/procurements/companies/economic-activities/1.501.1"
            }
          }
        }
      ],
      "certificateStartDate": "2024-09-18",
      "certificateEndDate": "2025-03-15",
      "object": "PROMOCIÓN Y CONSTRUCCIÓN DE VIVIENDAS, EDIFICIOS Y OBRAS CIVILES DE TODAS CLASES, PÚBLICAS Y PRIVADAS, MEDIANTE LA ADQUISICIÓN DE TERRENOS, SU PARCELACIÓN Y URBANIZACIÓN, USO Y ARRENDAMIENTO Y VENTA DE AQUELLOS O DE LAS OBRAS TERMINADAS",
      "mainEntityOfPage": "https://www.contratacion.euskadi.eus/webkpe00-kperoc/es/ac71aBusquedaRegistrosWar/empresa/00153",
      "_links": {
        "self": {
          "name": "CONSTRUCCIONES GANEKO, S.A.",
          "href": "https://api.euskadi.eus/procurements/companies/00153"
        }
      }
    },
    {
      "name": "SANOFI-AVENTIS, S.A.",
      "registrationNumber": "03428",
      "identificationNumber": "A08163586",
      "address": "JOSEP PLA Nº 2",
      "location": {
        "postalCode": "08019",
        "municipality": "Barcelona",
        "county": "Barcelona",
        "municipalityId": "019",
        "countyId": "08"
      },
      "economicActivities": [
        {
          "id": "1.614.1",
          "name": "Venta al por mayor de productos farmacéuticos y medicamentos",
          "_links": {
            "self": {
              "name": "Venta al por mayor de productos farmacéuticos y medicamentos",
              "href": "https://api.euskadi.eus/procurements/companies/economic-activities/1.614.1"
            }
          }
        }
      ],
      "certificateStartDate": "2024-09-18",
      "certificateEndDate": "2025-03-15",
      "object": "LA FABRICACIÓN, VENTA, COMERCIALIZACIÓN, DISTRIBUCIÓN, EXPORTACIÓN E IMPORTACIÓN DE ESPECIALIDADES FARMACÉUTICAS, YA SEAN PARA USO HUMANO O ANIMAL; PRODUCTOS QUÍMICOS O BIOLÓGICOS, YA SEAN PARA LAS PROPIAS ESPECIALIDADES FARMACÉUTICAS COMO PARA LA INDUSTRIA EN QUE TENGAN APLICACIÓN; PRODUCTOS SANITARIOS Y SERVICIOS ASOCIADOS, PRODUCTOS PARA LA ALIMENTACIÓN HUMANA O ANIMAL; MATERIAL DE LABORATORIO MÉDICO; PRODUCTOS PARA LA BELLEZA Y COSMÉTICOS; ASÍ COMO LA REPRESENTACIÓN DE FIRMAS NACIONALES Y EXTRANJERAS, CUYA CONCESIÓN DE FABRICACIÓN, DISTRIBUCIÓN O REPRESENTACIÓN OBTENGA LA SOCIEDAD, EN RELACIÓN CON LOS PRODUCTOS RESEÑADOS",
      "mainEntityOfPage": "https://www.contratacion.euskadi.eus/webkpe00-kperoc/es/ac71aBusquedaRegistrosWar/empresa/03428",
      "_links": {
        "self": {
          "name": "SANOFI-AVENTIS, S.A.",
          "href": "https://api.euskadi.eus/procurements/companies/03428"
        }
      }
    },
    {
      "name": "INNOVA NUTRICION VEGETAL, S.L.",
      "registrationNumber": "09516",
      "identificationNumber": "B99476764",
      "address": "C/ GENOVA, 10. 1ª PLANTA.",
      "location": {
        "postalCode": "28004",
        "municipality": "Madrid",
        "county": "Madrid",
        "municipalityId": "079",
        "countyId": "28"
      },
      "economicActivities": [
        {
          "id": "1.612.2",
          "name": "Venta al por mayor de cereales",
          "_links": {
            "self": {
              "name": "Venta al por mayor de cereales",
              "href": "https://api.euskadi.eus/procurements/companies/economic-activities/1.612.2"
            }
          }
        }
      ],
      "certificateStartDate": "2024-09-17",
      "certificateEndDate": "2025-03-17",
      "object": "1.- LA TRANSFORMACIÓN, FABRICACIÓN Y TRATAMIENTO DE TODO TIPO DE FERTILIZANTES QUÍMICOS, MINERALES, ORGÁNICOS, SÓLIDOS Y LÍQUIDOS. 2.- ALMACENAMIENTO Y ENVASADO DE TODO TIPO DE FERTILIZANTES, MINERALES, CEREALES, Y TODA CLASE DE MATERIAS PRIMAS Y PRODUCTOS RELACIONADOS CON LA AGRICULTURA. 3.- IMPORTACIÓN Y EXPORTACIÓN DE TODO TIPO DE MERCANCÍAS, MAQUINARIA Y HERRAMIENTAS AGRÍCOLAS. 4.- LA VENTA AL MAYOR Y MENOR DE TODO TIPO DE FERTILIZANTES, MINERALES, CEREALES, SEMILLAS, MAQUINARIA Y HERRAMIENTAS AGRÍCOLAS. 5.- EL TRANSPORTE DE MERCANCÍAS PROPIAS, EN VEHÍCULOS DE PEQUEÑO TONELAJE Y SIN QUE ELLO SUPONGA INCIDENCIA EN EL TRANSPORTE EN GENERAL.",
      "mainEntityOfPage": "https://www.contratacion.euskadi.eus/webkpe00-kperoc/es/ac71aBusquedaRegistrosWar/empresa/09516",
      "_links": {
        "self": {
          "name": "INNOVA NUTRICION VEGETAL, S.L.",
          "href": "https://api.euskadi.eus/procurements/companies/09516"
        }
      }
    },
    {
      "name": "SANDRA MARTIN SOTO",
      "registrationNumber": "09260",
      "identificationNumber": "72397939B",
      "address": "C/ BALEJO, 5 6C",
      "location": {
        "postalCode": "48903",
        "municipality": "Barakaldo",
        "county": "Bizkaia",
        "municipalityId": "013",
        "countyId": "48"
      },
      "economicActivities": [
        {
          "id": "1.671.5",
          "name": "Restaurante un tenedor",
          "_links": {
            "self": {
              "name": "Restaurante un tenedor",
              "href": "https://api.euskadi.eus/procurements/companies/economic-activities/1.671.5"
            }
          }
        },
        {
          "id": "1.673.2",
          "name": "Otros cafés y bares",
          "_links": {
            "self": {
              "name": "Otros cafés y bares",
              "href": "https://api.euskadi.eus/procurements/companies/economic-activities/1.673.2"
            }
          }
        }
      ],
      "certificateStartDate": "2024-09-17",
      "certificateEndDate": "2025-03-17",
      "mainEntityOfPage": "https://www.contratacion.euskadi.eus/webkpe00-kperoc/es/ac71aBusquedaRegistrosWar/empresa/09260",
      "_links": {
        "self": {
          "name": "SANDRA MARTIN SOTO",
          "href": "https://api.euskadi.eus/procurements/companies/09260"
        }
      }
    },
    {
      "name": "ABBOTT LABORATORIES, S.A.",
      "registrationNumber": "00624",
      "identificationNumber": "A08099681",
      "address": "AVDA. DE BURGOS, 91",
      "location": {
        "postalCode": "28050",
        "municipality": "Madrid",
        "county": "Madrid",
        "municipalityId": "079",
        "countyId": "28"
      },
      "economicActivities": [
        {
          "id": "1.612.9",
          "name": "Venta al por mayor de otros productos alimenticios, helados de todas clases",
          "_links": {
            "self": {
              "name": "Venta al por mayor de otros productos alimenticios, helados de todas clases",
              "href": "https://api.euskadi.eus/procurements/companies/economic-activities/1.612.9"
            }
          }
        },
        {
          "id": "1.619.2",
          "name": "Venta al por mayor de aparatos e instrumentos médicos, ortopédicos, ópticos",
          "_links": {
            "self": {
              "name": "Venta al por mayor de aparatos e instrumentos médicos, ortopédicos, ópticos",
              "href": "https://api.euskadi.eus/procurements/companies/economic-activities/1.619.2"
            }
          }
        },
        {
          "id": "1.861.2",
          "name": "Alquiler de locales industriales y otros alquileres n.c.o.p",
          "_links": {
            "self": {
              "name": "Alquiler de locales industriales y otros alquileres n.c.o.p",
              "href": "https://api.euskadi.eus/procurements/companies/economic-activities/1.861.2"
            }
          }
        }
      ],
      "certificateStartDate": "2024-09-17",
      "certificateEndDate": "2025-03-09",
      "object": "LA IMPORTACIÓN, EXPORTACIÓN, FABRICACIÓN, ELABORACIÓN, TRANSFORMACIÓN, EXPLOTACIÓN, DISTRIBUCIÓN Y COMERCIALIZACIÓN DE TODA CLASE DE MATERIAS PRIMAS, PRODUCTOS Y PREPARADOS QUÍMICOS, DE DIAGNÓSTICO, VETERINARIOS, BIOLÓGICOS, FARMACÉUTICOS, INCLUIDOS TODA CLASE DE ESPECIALIDADES FARMACÉUTICAS, ALIMENTICIOS, DIETÉTICOS, NUTRICIONALES, COSMÉTICOS, SANITARIOS Y/O HOSPITALARIOS, ELABORADOS O SEMI-ELABORADOS Y OTROS EN GENERAL, RELATIVOS AL CUIDADO DE LA SALUD Y DE LA HIGIENE. LA COMPRA, VENTA, TENENCIA, FABRICACIÓN, EXPLOTACIÓN, ARRENDAMIENTO Y COMERCIALIZACIÓN DE TODA CLASE DE BIENES Y EQUIPOS Y DISPOSITIVOS PARA USO SANITARIO, HOSPITALARIO, DE LABORATORIO Y DE PRÁCTICA MÉDICA EN TODAS SUS ESPECIALIDADES Y FASES, ASÍ COMO LA PRESTACIÓN DE TODO TIPO DE SERVICIOS Y LA REALIZACIÓN DE CUANTAS ACTIVIDADES FUERAN NECESARIAS O CONVENIENTES PARA EL CUMPLIMIENTO DE ESTE OBJETO SOCIAL LA PRESTACIÓN DE SERVICIOS O ASISTENCIA DE NATURALEZA ADMINISTRATIVA, OPERATIVA, FINANCIERA ( CON EXCEPCIÓN  DE AQUELLAS QUE REQUIERAN DE AUTORIZACIÓN ADMINISTRATIVA), COMERCIAL, CIENTÍFICA O INDUSTRIAL, INCLUYENDO LA CONCESIÓN DE PRÉSTAMOS, ANTICIPOS O GARANTÍAS, A CUALQUIER TERCERO, ACCIONISTA, FILIAL  A ENTIDAD VINCULADA. LA COMPRA, VENTA, TENENCIA, FABRICACIÓN, EXPLOTACIÓN, DESARROLLO, LICENCIAMIENTO, ARRENDAMIENTO Y COMERCIALIZACIÓN DE SOLUCIONES TECNOLÓGICAS, DIGITALES , SOFTWARE Y/O HARDWARE, DESTINADOS A MEJORAR LA EFICIENCIA OPERATIVA DE LABORATORIOS Y/O HOSPITALES, SEAN ESTOS PÚBLICOS O PRIVADOS, O CUALQUIER OTRA INSTITUCIÓN SANITARIA, QUE PUEDAN TENER IMPACTO EN LA MEJORA DE LA ATENCIÓN A LOS PACIENTES,  LA MEJORA EN LA OPERATIVA FUNCIONAL DE LAS INSTITUCIONES SANITARIA, O EN EL FUNCIONAMIENTO DEL SISTEMA NACIONAL DE SALUD. LA PRESTACIÓN DE SERVICIOS PROFESIONALES DE CONSULTORÍA RELACIONADOS CON LA GESTIÓN DE NEGOCIOS, DE PROCESOS DE GESTIÓN DE LABORATORIO, DE GESTIÓN DE PROCESOS CLÍNICOS, DE GESTIÓN DE NEGOCIOS (COMO POR EJEMPLO, Y SIN LIMITACIÓN ALGUNA, CONSULTORÍAS RELACIONADAS CON LA ARQUITECTURA E IMPLANTACIÓN DE LABORATORIO, DISEÑO DE FLUJOS DE TRABAJO, INGENIERÍA DE INSTALACIONES Y DIRECCIÓN DE OBRA &#8211;COORDINACIÓN Y REDACCIÓN DE ESTUDIO DE SEGURIDAD Y SALUD Y GESTIÓN DE RESIDUOS PARA EL TRASLADO E INPLANTACIÓN DE LABORATORIOS. LA PRESTACIÓN DE SERVICIOS DE MANTENIMIENTO PARA TODOS LOS EQUIPOS, SOLUCIONES TECNOLÓGICAS, DIGITALES, SOFTWARE Y/O HARDWARE, A LOS QUE REFIERE ESTE OBJETO SOCIAL. EL DISEÑO, DESARROLLO E IMPLEMENTACIÓN DE TODO TIPO DE SOFTWARE",
      "mainEntityOfPage": "https://www.contratacion.euskadi.eus/webkpe00-kperoc/es/ac71aBusquedaRegistrosWar/empresa/00624",
      "_links": {
        "self": {
          "name": "ABBOTT LABORATORIES, S.A.",
          "href": "https://api.euskadi.eus/procurements/companies/00624"
        }
      }
    },
    {
      "name": "ALUAR ALUMINIO Y PVC, S.L.",
      "registrationNumber": "09709",
      "identificationNumber": "B01562172",
      "address": "Calle Arana",
      "location": {
        "postalCode": "01002",
        "municipality": "Vitoria-Gasteiz",
        "county": "Araba/Álava",
        "municipalityId": "059",
        "countyId": "01"
      },
      "economicActivities": [
        {
          "id": "1.505.5",
          "name": "Carpintería y cerrajería",
          "_links": {
            "self": {
              "name": "Carpintería y cerrajería",
              "href": "https://api.euskadi.eus/procurements/companies/economic-activities/1.505.5"
            }
          }
        }
      ],
      "certificateStartDate": "2024-09-17",
      "certificateEndDate": "2025-03-17",
      "object": "MONTAJE DE CARPINTERÍA DE ALUMINIO Y PVC.",
      "mainEntityOfPage": "https://www.contratacion.euskadi.eus/webkpe00-kperoc/es/ac71aBusquedaRegistrosWar/empresa/09709",
      "_links": {
        "self": {
          "name": "ALUAR ALUMINIO Y PVC, S.L.",
          "href": "https://api.euskadi.eus/procurements/companies/09709"
        }
      }
    },
    {
      "name": "BZ2 ALAVA, S.L.",
      "registrationNumber": "02657",
      "identificationNumber": "B01305093",
      "address": "C/PORTAL DE GAMARRA, Nº 1-OFICINA 132",
      "location": {
        "postalCode": "01013",
        "municipality": "Vitoria-Gasteiz",
        "county": "Araba/Álava",
        "municipalityId": "059",
        "countyId": "01"
      },
      "economicActivities": [
        {
          "id": "1.659.2",
          "name": "Venta al por menor de muebles de oficina y máquinas y equipos de oficina",
          "_links": {
            "self": {
              "name": "Venta al por menor de muebles de oficina y máquinas y equipos de oficina",
              "href": "https://api.euskadi.eus/procurements/companies/economic-activities/1.659.2"
            }
          }
        }
      ],
      "certificateStartDate": "2024-09-17",
      "certificateEndDate": "2025-03-15",
      "object": "LA COMPRAVENTA DE TERRENOS Y TODA CLASE DE INMUEBLES, ASÍ COMO SU EXPLOTACIÓN DIRECTA, O EN COMISIÓN, O ARRENDAMIENTO A TERCEROS O SU VENTA. LA REALIZACIÓN DE OBRAS Y CONSTRUCCIONES DE TODO TIPO DE OBRAS CIVILES, PÚBLICAS Y PRIVADAS, BIEN POR EJECUCIÓN DIRECTA O POR CONTRATA, TANTO PARA SU APROVECHAMIENTO POROPIO COM PARA SU COMERCIALIZACIÓN Y VENTA. PODRÁ CONTRATAR LAS MISMAS CON TODA CLASE DE PERSONAS FÍSICAS, JURÍDICAS O ENTIDADES PÚBLICAS DE CARÁCTER ESTATAL, EUROPEO, PROVINCIAL, MUNICIPAL O AUTONÓMICO. DISEÑO, ELABORACIÓN, EJECUCIÓN Y CONSULTORÍA DE PROYECTOS PARA DISEÑO DE INTERIORES DE OFICINA, HOGAR Y OTROS ESPACIOS. COMERCIO AL POR MENOR O MAYOR, POR CORRESPONDENCIA O INTERNET. LA COMERCIALIZACIÓN, COMPRA, VENTA, TANTO AL POR MAYOR COMO AL POR MENOR, FABRICACIÓN, DISEÑO, RESTAURACIÓN, DISTRIBUCIÓN, INSTALACIÓN, IMPORTACIÓN, EXPORTACIÓN, SUMINISTRO, REPARACIÓN, ATENCIÓN POSTVENTA, MONTAJE DE TODO TIPO DE MOBILIARIO, (DE OFICINA, EXTERIORES Y HOGAR), COMPLEMENTOS DE MOBILIARIO, ELEMENTOS DE COMPARTIMENTACIONES Y COLECTIVIDADES, (ALFOMBRAS, APARATOS DE ILUMINACIÓN, MOQUETAS, REVESTIMIENTOS DE PAREDES, TECHOS Y SUELOS, MAQUINARIA, EQUIPOS DE OFICINA, ARTÍCULOS DE OFICINA, EXTERIORES Y HOGAR), \r\n\r\n",
      "mainEntityOfPage": "https://www.contratacion.euskadi.eus/webkpe00-kperoc/es/ac71aBusquedaRegistrosWar/empresa/02657",
      "_links": {
        "self": {
          "name": "BZ2 ALAVA, S.L.",
          "href": "https://api.euskadi.eus/procurements/companies/02657"
        }
      }
    },
    {
      "name": "ARANTEK OBRAS Y SERVICIOS, S.L.",
      "registrationNumber": "09264",
      "identificationNumber": "B01952936",
      "address": "CM/TORRE DE MARURI 1 bajo7",
      "location": {
        "postalCode": "48850",
        "municipality": "Zalla",
        "county": "Bizkaia",
        "municipalityId": "096",
        "countyId": "48"
      },
      "economicActivities": [
        {
          "id": "1.501.1",
          "name": "Construcción completa, reparación y conservación de edificaciones",
          "_links": {
            "self": {
              "name": "Construcción completa, reparación y conservación de edificaciones",
              "href": "https://api.euskadi.eus/procurements/companies/economic-activities/1.501.1"
            }
          }
        }
      ],
      "certificateStartDate": "2024-09-16",
      "certificateEndDate": "2025-03-16",
      "object": "LA REALIZACIÓN DE PROYECTOS, DESARROLLO Y EJECUCIÓN, EN TODOS SUS CAMPOS, DE TODA CLASE DE REFORMAS (ALBAÑILERÍA, FONTANERÍA, ELECTRICIDAD, CARPINTERÍA, ETC.), DE CONSTRUCCIONES COMPLETAS O REHABILITACIONES DE EDIFICACIONES, DE REALIZACIÓN DE OBRAS, YA SEAN PÚBLICAS O CIVILES, DE CIMENTACIONES, EXCAVACIONES Y DERRIBOS DE TODA NATURALEZA. CUALQUIER OTRA ACTIVIDAD QUE SEA ANTECEDENTE, COMPLEMENTO O CONSECUENCIA DE LO ANTERIOR O ESTÉ DIRECTAMENTE RELACIONADA CON ELLO.",
      "mainEntityOfPage": "https://www.contratacion.euskadi.eus/webkpe00-kperoc/es/ac71aBusquedaRegistrosWar/empresa/09264",
      "_links": {
        "self": {
          "name": "ARANTEK OBRAS Y SERVICIOS, S.L.",
          "href": "https://api.euskadi.eus/procurements/companies/09264"
        }
      }
    },
    {
      "name": "SERUNION, S.A.",
      "registrationNumber": "05374",
      "identificationNumber": "A59376574",
      "address": "CALLE ESTEBAN TERRADAS,8",
      "location": {
        "postalCode": "28914",
        "municipality": "Leganés",
        "county": "Madrid",
        "municipalityId": "074",
        "countyId": "28"
      },
      "economicActivities": [
        {
          "id": "1.672.3",
          "name": "Cafetería una taza",
          "_links": {
            "self": {
              "name": "Cafetería una taza",
              "href": "https://api.euskadi.eus/procurements/companies/economic-activities/1.672.3"
            }
          }
        },
        {
          "id": "1.677.9",
          "name": "Otros servicios de alimentación propios de la restauración",
          "_links": {
            "self": {
              "name": "Otros servicios de alimentación propios de la restauración",
              "href": "https://api.euskadi.eus/procurements/companies/economic-activities/1.677.9"
            }
          }
        }
      ],
      "certificateStartDate": "2024-09-16",
      "certificateEndDate": "2025-03-03",
      "object": "LA PRESTACIÓN DE SERVICOS DE HOSTELERÍA Y ALIMENTACIÓN A ENTIDADES PÚBLICAS Y PRIVADAS. LA VENTA Y SUMINISTRO DE PRODUCTOS ALIMENTICIOS PREPARADOS, COCINADOS Y ENVASADOS. LA DISTRIBUCIÓN DE PRODUCTOS DE ALIMENTACIÓN. LA GERENCIA, GESTIÓN Y DESARROLLO DE ACTIVIDADES RELATIVAS A LA HOSTELERÍA Y A LA COMERCIALIZACIÓN DE PRODUCTOS DE ALIMENTACIÓN. EL CUIDADO, PROMOCIÓN, ASISTENCIA, REHABILITACIÓN, INSERCIÓN SOCIAL Y TODO TIPO DE TRATAMIENTO A PERSONAS DE LA TERCERA EDAD O CUALESQUIERA OTRAS QUE PADEZCAN ENFERMEDADES, DISCAPACIDADES FÍSICAS, PSÍQUICAS O CARENCIAS ENONÓMICAS; MEDIANTE LA GESTIÓN DE RESIDENCIAS EN RÉGIMEN DE PROPIEDAD O POR MEDIO DE CUALQUIER TIPO DE CONTRATOS O ACUERDOS CON ENTIDADES PÚBLICAS O PRIVADAS, CON EXTENSIÓN EXPRESA A LA ASISTENCIA DOMICILIARIA. LA CONTRATACIÓN Y PRESTACIÓN DE SERVICIOS DE LIMPIEZA DE TODO TIPO DE LOCALES Y EDIFICIOS. LA COMPRA, VENTA, IMPORTACIÓN, EXPORTACIÓN Y EXPLOTACIÓN BAJO CUALQUIER FORMA JURÍDICA DE MÁQUINAS EXPENDEDORAS DE PRODUCTOS ALIMENTICIOS Y DE TABACO",
      "mainEntityOfPage": "https://www.contratacion.euskadi.eus/webkpe00-kperoc/es/ac71aBusquedaRegistrosWar/empresa/05374",
      "_links": {
        "self": {
          "name": "SERUNION, S.A.",
          "href": "https://api.euskadi.eus/procurements/companies/05374"
        }
      }
    },
    {
      "name": "OTEIZA INSTALACIONES, S.L.",
      "registrationNumber": "08710",
      "identificationNumber": "B67786988",
      "address": "C/JOSE ARANA 16-BAJO",
      "location": {
        "postalCode": "20001",
        "municipality": "Donostia / San Sebastián",
        "county": "Gipuzkoa",
        "municipalityId": "069",
        "countyId": "20"
      },
      "economicActivities": [
        {
          "id": "1.659.2",
          "name": "Venta al por menor de muebles de oficina y máquinas y equipos de oficina",
          "_links": {
            "self": {
              "name": "Venta al por menor de muebles de oficina y máquinas y equipos de oficina",
              "href": "https://api.euskadi.eus/procurements/companies/economic-activities/1.659.2"
            }
          }
        }
      ],
      "certificateStartDate": "2024-09-15",
      "certificateEndDate": "2025-03-15",
      "object": "EL DESARROLLO DE LA ACTIVIDAD CORRESPONDIENTE AL SIGUIENTE CÓDIGO Y DESCRIPCIÓN DE LA CLASIFICACIÓN NACIONAL DE ACTIVIDADES ECONÓMICAS: ACTIVIDAD PRINCIPAL: 4615.- INTERMEDIARIOS DEL COMERCIO DE MUEBLES, ARTÍCULOS PARA EL HOGAR Y FERRETERÍA. OTRAS ACTIVIDADES: 4759.- COMERCIO AL POR MENOR DE MUEBLES, APARATOS DE ILUMNICACIÓN Y OTROS ARTÍCULOS DE USO DOMÉSTICO EN ESTABLECIMIENTOS ESPECIALIZADOS.",
      "mainEntityOfPage": "https://www.contratacion.euskadi.eus/webkpe00-kperoc/es/ac71aBusquedaRegistrosWar/empresa/08710",
      "_links": {
        "self": {
          "name": "OTEIZA INSTALACIONES, S.L.",
          "href": "https://api.euskadi.eus/procurements/companies/08710"
        }
      }
    }
  ]
}