{
  "totalItems": 9042,
  "totalPages": 905,
  "currentPage": 224,
  "itemsOfPage": 10,
  "items": [
    {
      "name": "MOMPOL NORTE, S.L.",
      "registrationNumber": "10164",
      "identificationNumber": "B95928156",
      "address": "Calle Aforados (48902) Nº2 BAJO DERECHA",
      "location": {
        "postalCode": "48902",
        "municipality": "Barakaldo",
        "county": "Bizkaia",
        "municipalityId": "013",
        "countyId": "48"
      },
      "economicActivities": [
        {
          "id": "1.613.3",
          "name": "Venta al por mayor de prendas exteriores de vestir",
          "_links": {
            "self": {
              "name": "Venta al por mayor de prendas exteriores de vestir",
              "href": "https://api.euskadi.eus/procurements/companies/economic-activities/1.613.3"
            }
          }
        },
        {
          "id": "1.619.1",
          "name": "Venta al por mayor de juguetes y artículos de deporte",
          "_links": {
            "self": {
              "name": "Venta al por mayor de juguetes y artículos de deporte",
              "href": "https://api.euskadi.eus/procurements/companies/economic-activities/1.619.1"
            }
          }
        },
        {
          "id": "1.651.2",
          "name": "Venta al por menor de prendas de ropa para el vestido y tocado",
          "_links": {
            "self": {
              "name": "Venta al por menor de prendas de ropa para el vestido y tocado",
              "href": "https://api.euskadi.eus/procurements/companies/economic-activities/1.651.2"
            }
          }
        },
        {
          "id": "1.659.6",
          "name": "Venta al por menor de juguetes, artículos de deporte",
          "_links": {
            "self": {
              "name": "Venta al por menor de juguetes, artículos de deporte",
              "href": "https://api.euskadi.eus/procurements/companies/economic-activities/1.659.6"
            }
          }
        }
      ],
      "certificateStartDate": "2025-10-10",
      "certificateEndDate": "2026-04-10",
      "object": "A.- LA DISTRIBUCIÓN Y VENTA DE ACCESORIOS Y EQUIPAMIENTO DIVERSO DE MATERIAL LABORAL. B.- LA FABRICACIÓN, DISTRIBUCIÓN Y COMERCIALIZACIÓN DE VESTUARIO LABORAL Y SUS ACCESORIOS, CON ESPECIALIZACIÓN EN EL CORRESPONDIENTE A LOS CUERPOS Y FUERZAS DE SEGURIDAD Y SERVICIOS DE EMERGENCIAS. C.- LA COMPRA, VENTA U ORGANIZACIÓN EN TERRITORIO ESPAÑOL DE LAS ACTIVIDADES RELACIONADAS CON LAS ARMAS DE FUEGO O ASIMILADAS, SUS PIEZAS FUNDAMENTALES O MUNICIONES, NEGOCIANDO O CONCERTANDO LAS CITADAS TRANSACCIONES COMERCIALES.",
      "mainEntityOfPage": "https://www.contratacion.euskadi.eus/webkpe00-kperoc/es/ac71aBusquedaRegistrosWar/empresa/10164",
      "_links": {
        "self": {
          "name": "MOMPOL NORTE, S.L.",
          "href": "https://api.euskadi.eus/procurements/companies/10164"
        }
      }
    },
    {
      "name": "MARIA ELENA ALONSO MARCOS",
      "registrationNumber": "08103",
      "identificationNumber": "44681268L",
      "address": "c/ paseo de la musica 9A",
      "location": {
        "postalCode": "01213",
        "municipality": "Ribera Baja/Erriberabeitia",
        "county": "Araba/Álava",
        "municipalityId": "047",
        "countyId": "01"
      },
      "economicActivities": [
        {
          "id": "2.826",
          "name": "Personal docente de enseñanzas diversas",
          "_links": {
            "self": {
              "name": "Personal docente de enseñanzas diversas",
              "href": "https://api.euskadi.eus/procurements/companies/economic-activities/2.826"
            }
          }
        }
      ],
      "certificateStartDate": "2025-10-10",
      "certificateEndDate": "2026-04-06",
      "object": "PERSONAL DOCENTE DE ENSEÑANZAS DIVERSAS.",
      "mainEntityOfPage": "https://www.contratacion.euskadi.eus/webkpe00-kperoc/es/ac71aBusquedaRegistrosWar/empresa/08103",
      "_links": {
        "self": {
          "name": "MARIA ELENA ALONSO MARCOS",
          "href": "https://api.euskadi.eus/procurements/companies/08103"
        }
      }
    },
    {
      "name": "CENTRO INDEPENDIENTE DE SUMINISTROS Y ABASTECIMIENTOS, S.L.",
      "registrationNumber": "07637",
      "identificationNumber": "B48582274",
      "address": "POLIGONO IND. KAREAGA GOIKOA C/ JUNQUERAL, 13, PAB-18",
      "location": {
        "postalCode": "48903",
        "municipality": "Barakaldo",
        "county": "Bizkaia",
        "municipalityId": "013",
        "countyId": "48"
      },
      "economicActivities": [
        {
          "id": "1.615.9",
          "name": "Venta al por mayor de otros artículos de consumo duradero n.c.o.p",
          "_links": {
            "self": {
              "name": "Venta al por mayor de otros artículos de consumo duradero n.c.o.p",
              "href": "https://api.euskadi.eus/procurements/companies/economic-activities/1.615.9"
            }
          }
        }
      ],
      "certificateStartDate": "2025-10-10",
      "certificateEndDate": "2026-04-08",
      "object": "LA COMPRA, VENTA, FABRICACIÓN, DISEÑO ARTÍSTICO, DISTRIBUCIÓN, COMERCIALIZACIÓN, IMPORTACIÓN Y EXPORTACIÓN DE TODA CLASE DE ARTÍCULOS DE SEGURIDAD E HIGIENE. LA REALIZACIÓN DE OPERACIONES DE COMERCIO AL POR MAYOR Y MENOR, EN TERRITORIO NACIONAL Y EXTRANJERO, OSTENTANDO TODA CLASE DE REPRESENTACIÓN COMERCIALES, TANTO NACIONALES COMO INTERNACIONALES",
      "mainEntityOfPage": "https://www.contratacion.euskadi.eus/webkpe00-kperoc/es/ac71aBusquedaRegistrosWar/empresa/07637",
      "_links": {
        "self": {
          "name": "CENTRO INDEPENDIENTE DE SUMINISTROS Y ABASTECIMIENTOS, S.L.",
          "href": "https://api.euskadi.eus/procurements/companies/07637"
        }
      }
    },
    {
      "name": "GOROSTI S. COOP.",
      "registrationNumber": "08855",
      "identificationNumber": "F48221717",
      "address": "POLIGONO BILDOSOLA E2",
      "location": {
        "postalCode": "48142",
        "municipality": "Artea",
        "county": "Bizkaia",
        "municipalityId": "023",
        "countyId": "48"
      },
      "certificateStartDate": "2025-10-10",
      "certificateEndDate": "2026-04-09",
      "object": "REALIZAR SERVICIOS DE JARDINERÍA, HORTOFRUTICULTURA Y SILVICULTURA.",
      "mainEntityOfPage": "https://www.contratacion.euskadi.eus/webkpe00-kperoc/es/ac71aBusquedaRegistrosWar/empresa/08855",
      "_links": {
        "self": {
          "name": "GOROSTI S. COOP.",
          "href": "https://api.euskadi.eus/procurements/companies/08855"
        }
      }
    },
    {
      "name": "THE MATHWORKS, S.L.",
      "registrationNumber": "07503",
      "identificationNumber": "B62205745",
      "address": "Calle Enrique Granados, 6 Ed. B",
      "location": {
        "postalCode": "28224",
        "municipality": "Pozuelo de Alarcón",
        "county": "Madrid",
        "municipalityId": "115",
        "countyId": "28"
      },
      "economicActivities": [
        {
          "id": "1.845",
          "name": "Explotación electrónica por cuenta de terceros",
          "_links": {
            "self": {
              "name": "Explotación electrónica por cuenta de terceros",
              "href": "https://api.euskadi.eus/procurements/companies/economic-activities/1.845"
            }
          }
        }
      ],
      "certificateStartDate": "2025-10-10",
      "certificateEndDate": "2026-04-06",
      "object": "DEDICARSE A LA INFORMÁTICA EN CUALQUIERA DE SUS MANIFESTACIONES O MODALIDADES, TANTO EN ENTORNOS DE MACROINFORMÁTICA COMO DE MICROINFORMÁTICA; EL DESARROLLO, IMPLEMENTACIÓN, ADAPTACIÓN Y COMERCIALIZACIÓN DE PROGRAMAS INFORMÁTICOS, ASÍ COMO  DE CUALQUIER ELEMENTO MATERIAL O INMATERIAL ACCESORIO O COMPLEMENTARIO DE DICHOS PROGRAMAS Y, EN PARTICULAR: A) LA FABRICACIÓN, COMPRA, VENTA, IMPORTACIÓN, EXPORTACIÓN Y DISTRIBUCIÓN DE PROGRAMAS INFORMÁTICAS (SOFTWARE) Y SUS EQUIPOS Y MATERIAL (HARDWARE) Y SISTEMAS ELECTRÓNICOS. B) LA PRESTACIÓN DE SERVICIOS DE FORMACIÓN, ASESORÍA Y CONSULTORÍA INFORMÁTICAS",
      "mainEntityOfPage": "https://www.contratacion.euskadi.eus/webkpe00-kperoc/es/ac71aBusquedaRegistrosWar/empresa/07503",
      "_links": {
        "self": {
          "name": "THE MATHWORKS, S.L.",
          "href": "https://api.euskadi.eus/procurements/companies/07503"
        }
      }
    },
    {
      "name": "OFICINA DE REPRESENTACIONES Y PROYECTOS INDUSTRIALES, S.L.",
      "registrationNumber": "09076",
      "identificationNumber": "B50013630",
      "address": "CL JUAN DE LA CIERVA, 23",
      "location": {
        "postalCode": "50014",
        "municipality": "Zaragoza",
        "county": "Zaragoza",
        "municipalityId": "297",
        "countyId": "50"
      },
      "economicActivities": [
        {
          "id": "1.322.1",
          "name": "Construcción de máquinas para trabajar los metales",
          "_links": {
            "self": {
              "name": "Construcción de máquinas para trabajar los metales",
              "href": "https://api.euskadi.eus/procurements/companies/economic-activities/1.322.1"
            }
          }
        },
        {
          "id": "1.617.5",
          "name": "Venta al por mayor de maquinaria para la madera y el metal",
          "_links": {
            "self": {
              "name": "Venta al por mayor de maquinaria para la madera y el metal",
              "href": "https://api.euskadi.eus/procurements/companies/economic-activities/1.617.5"
            }
          }
        }
      ],
      "certificateStartDate": "2025-10-10",
      "certificateEndDate": "2026-04-06",
      "object": "A) EL COMERCIO AL POR MAYOR Y MENOR, INCLUSO DE IMPORTACIÓN Y EXPORTACIÓN DE TODA CLASE DE MAQUINARIA INDUSTRIAL Y AGRÍCOLA, HERRAMIENTAS, ACCESORIOS Y REPUESTOS PARA LAS MISMAS. B) FABRICACIÓN DE MAQUINARIA, HERRAMIENTAS, ACCESORIOS Y REPUESTOS, INCLUSO EL MONTAJE E INSTALACIÓN, ASÍ COMO LA PROYECCIÓN Y MONTAJE DE INSTALACIONES INDUSTRIALES. C) EL OBJETO SOCIAL PODRÁ SER DESARROLLADO TOTAL O PARCIALMENTE, MEDIANTE LA TITULARIDAD DE ACCIONES O PARTICIPACIONES EN OTRAS SOCIEDADES DE IDÉNTICO O ANÁLOGO OBJETO SOCIAL.",
      "mainEntityOfPage": "https://www.contratacion.euskadi.eus/webkpe00-kperoc/es/ac71aBusquedaRegistrosWar/empresa/09076",
      "_links": {
        "self": {
          "name": "OFICINA DE REPRESENTACIONES Y PROYECTOS INDUSTRIALES, S.L.",
          "href": "https://api.euskadi.eus/procurements/companies/09076"
        }
      }
    },
    {
      "name": "IBEROSTATS SOFTWARE ESTADISTICO, S.L.",
      "registrationNumber": "10376",
      "identificationNumber": "B22968234",
      "address": "Américo Vespucio 37, Bajo B",
      "location": {
        "postalCode": "41927",
        "municipality": "Mairena del Aljarafe",
        "county": "Sevilla",
        "municipalityId": "059",
        "countyId": "41"
      },
      "economicActivities": [
        {
          "id": "1.659.2",
          "name": "Venta al por menor de muebles de oficina y máquinas y equipos de oficina",
          "_links": {
            "self": {
              "name": "Venta al por menor de muebles de oficina y máquinas y equipos de oficina",
              "href": "https://api.euskadi.eus/procurements/companies/economic-activities/1.659.2"
            }
          }
        }
      ],
      "certificateStartDate": "2025-10-09",
      "certificateEndDate": "2026-04-09",
      "object": "1. LA COMERCIALIZACIÓN, EXPORTACIÓN E IMPORTACIÓN DE TODA CLASE DE BIENES, PRODUCTOS INFORMÁTICOS TANTO HARDWARE COMO SOFTWARE Y MERCANCÍAS, ASÍ COMO LA VENTA DE LIBROS. 2. ASESORAMIENTO TÉCNICO DE LOS PRODUCTOS COMERCIALIZADOS, ASÍ COMO LA GESTIÓN Y ORGANIZACIÓN DE CURSOS EN COLABORACIÓN CON UNIVERSIDADES Y OTROS CENTROS, TANTO PÚBLICOS COMO PRIVADOS. 3. LA INVESTIGACIÓN Y DESARROLLO DE TODO TIPO DE SOFTWARE POR MEDIOS PROPIOS O DE TERCEROS. SU COMERCIALIZACIÓN Y DISTRIBUCIÓN A TRAVÉS DE CUALQUIER TIPO DE CANAL Y EN CUALQUIER TIPO DE SOPORTE, ASÍ COMO SU IMPLEMENTACIÓN Y SOPORTE TÉCNICO. 4. LA TRADUCCIÓN Y PUBLICACIÓN DE LOS MANUALES REQUERIDOS, ASÍ COMO LA CONSULTORÍA SOLICITADA POR NUESTROS CLIENTES. 5. LA GESTIÓN Y ADMINISTRACIÓN EMPRESARIAL.",
      "mainEntityOfPage": "https://www.contratacion.euskadi.eus/webkpe00-kperoc/es/ac71aBusquedaRegistrosWar/empresa/10376",
      "_links": {
        "self": {
          "name": "IBEROSTATS SOFTWARE ESTADISTICO, S.L.",
          "href": "https://api.euskadi.eus/procurements/companies/10376"
        }
      }
    },
    {
      "name": "MAQUINARIA ELKOR, S.L.",
      "registrationNumber": "10375",
      "identificationNumber": "B75036459",
      "address": "POL.IND.JOXE MARI KORTA, PARC.3",
      "location": {
        "postalCode": "20750",
        "municipality": "Zumaia",
        "county": "Gipuzkoa",
        "municipalityId": "081",
        "countyId": "20"
      },
      "economicActivities": [
        {
          "id": "1.316.1",
          "name": "Fabricación de herramientas manuales",
          "_links": {
            "self": {
              "name": "Fabricación de herramientas manuales",
              "href": "https://api.euskadi.eus/procurements/companies/economic-activities/1.316.1"
            }
          }
        },
        {
          "id": "1.617.5",
          "name": "Venta al por mayor de maquinaria para la madera y el metal",
          "_links": {
            "self": {
              "name": "Venta al por mayor de maquinaria para la madera y el metal",
              "href": "https://api.euskadi.eus/procurements/companies/economic-activities/1.617.5"
            }
          }
        },
        {
          "id": "1.692",
          "name": "Reparación de maquinaria industrial",
          "_links": {
            "self": {
              "name": "Reparación de maquinaria industrial",
              "href": "https://api.euskadi.eus/procurements/companies/economic-activities/1.692"
            }
          }
        }
      ],
      "certificateStartDate": "2025-10-09",
      "certificateEndDate": "2026-04-08",
      "object": "EL AFILADO Y MANTENIMIENTO DE HERRAMIENTAS DE CORTE CON ESPECIAL ÉNFASIS AL SECTOR DE LA MADERA. LA COMPRAVENTA DE MAQUINARIA PARA TRABAJOS DE LA MADERA, TANTO NUEVA COMO USADA.",
      "mainEntityOfPage": "https://www.contratacion.euskadi.eus/webkpe00-kperoc/es/ac71aBusquedaRegistrosWar/empresa/10375",
      "_links": {
        "self": {
          "name": "MAQUINARIA ELKOR, S.L.",
          "href": "https://api.euskadi.eus/procurements/companies/10375"
        }
      }
    },
    {
      "name": "KATEA LEGAIA, S.L.L.",
      "registrationNumber": "09106",
      "identificationNumber": "B20533329",
      "address": "Polígono Epele Bailara, 35",
      "location": {
        "postalCode": "20128",
        "municipality": "Hernani",
        "county": "Gipuzkoa",
        "municipalityId": "040",
        "countyId": "20"
      },
      "economicActivities": [
        {
          "id": "1.342.2",
          "name": "Otro material eléctrico de utilización y equipamiento",
          "_links": {
            "self": {
              "name": "Otro material eléctrico de utilización y equipamiento",
              "href": "https://api.euskadi.eus/procurements/companies/economic-activities/1.342.2"
            }
          }
        },
        {
          "id": "1.345.9",
          "name": "Fabricación de accesorios, partes y piezas sueltas de aparatos electrodomésticos",
          "_links": {
            "self": {
              "name": "Fabricación de accesorios, partes y piezas sueltas de aparatos electrodomésticos",
              "href": "https://api.euskadi.eus/procurements/companies/economic-activities/1.345.9"
            }
          }
        },
        {
          "id": "1.363.2",
          "name": "Fabricación de equipo, componentes, repuestos carrocerías automóviles",
          "_links": {
            "self": {
              "name": "Fabricación de equipo, componentes, repuestos carrocerías automóviles",
              "href": "https://api.euskadi.eus/procurements/companies/economic-activities/1.363.2"
            }
          }
        },
        {
          "id": "1.474.1",
          "name": "Impresión de textos o imágenes por cualquier procedimiento",
          "_links": {
            "self": {
              "name": "Impresión de textos o imágenes por cualquier procedimiento",
              "href": "https://api.euskadi.eus/procurements/companies/economic-activities/1.474.1"
            }
          }
        },
        {
          "id": "1.849.9",
          "name": "Otros servicios independientes n.c.o.p",
          "_links": {
            "self": {
              "name": "Otros servicios independientes n.c.o.p",
              "href": "https://api.euskadi.eus/procurements/companies/economic-activities/1.849.9"
            }
          }
        },
        {
          "id": "1.932.1",
          "name": "Enseñanza de formación y perfeccionamiento profesional no superior",
          "_links": {
            "self": {
              "name": "Enseñanza de formación y perfeccionamiento profesional no superior",
              "href": "https://api.euskadi.eus/procurements/companies/economic-activities/1.932.1"
            }
          }
        },
        {
          "id": "1.999",
          "name": "Otros servicios n.c.o.p",
          "_links": {
            "self": {
              "name": "Otros servicios n.c.o.p",
              "href": "https://api.euskadi.eus/procurements/companies/economic-activities/1.999"
            }
          }
        }
      ],
      "certificateStartDate": "2025-10-09",
      "certificateEndDate": "2026-04-09",
      "object": "EL DESARROLLO DE ACTIVIDADES INDUSTRIALES Y DE SERVICIOS A TRAVÉS DE CUALQUIERA DE LAS FORMAS JURÍDICAS ADMITIDAS EN DERECHO, CONDUCIENDO SUS FINES A LA CREACIÓN DE EMPLEO ESTABLE PARA PERSONAS CON DISCAPACIDAD.",
      "mainEntityOfPage": "https://www.contratacion.euskadi.eus/webkpe00-kperoc/es/ac71aBusquedaRegistrosWar/empresa/09106",
      "_links": {
        "self": {
          "name": "KATEA LEGAIA, S.L.L.",
          "href": "https://api.euskadi.eus/procurements/companies/09106"
        }
      }
    },
    {
      "name": "FIVE FLAMES MOBILE, S.L.",
      "registrationNumber": "09858",
      "identificationNumber": "B47692363",
      "address": "Paseo Obregon 36, 3A",
      "location": {
        "postalCode": "47009",
        "municipality": "Valladolid",
        "county": "Valladolid",
        "municipalityId": "186",
        "countyId": "47"
      },
      "economicActivities": [
        {
          "id": "1.843.9",
          "name": "Otros servicios técnicos n.c.o.p",
          "_links": {
            "self": {
              "name": "Otros servicios técnicos n.c.o.p",
              "href": "https://api.euskadi.eus/procurements/companies/economic-activities/1.843.9"
            }
          }
        },
        {
          "id": "1.845",
          "name": "Explotación electrónica por cuenta de terceros",
          "_links": {
            "self": {
              "name": "Explotación electrónica por cuenta de terceros",
              "href": "https://api.euskadi.eus/procurements/companies/economic-activities/1.845"
            }
          }
        }
      ],
      "certificateStartDate": "2025-10-09",
      "certificateEndDate": "2026-04-09",
      "object": "LA CONSULTORÍA TÉCNICA, FORMACIÓN Y DESARROLLO DE SOFTWARE. LAS ACTIVIDADES ENUMERADAS PODRÁN TAMBIÉN SER DESARROLLADAS POR LA SOCIEDAD, TOTAL O PARCIALMENTE, DE MODO INDIRECTO, MEDIANTE PARTICIPACIÓN EN OTRAS SOCIEDADES CON OBJETO ANÁLOGO O MEDIANTE CUALESQUIERA OTRAS FORMAS ADMITIDAS EN DERECHO.",
      "mainEntityOfPage": "https://www.contratacion.euskadi.eus/webkpe00-kperoc/es/ac71aBusquedaRegistrosWar/empresa/09858",
      "_links": {
        "self": {
          "name": "FIVE FLAMES MOBILE, S.L.",
          "href": "https://api.euskadi.eus/procurements/companies/09858"
        }
      }
    }
  ]
}