{
  "totalItems": 9042,
  "totalPages": 905,
  "currentPage": 686,
  "itemsOfPage": 10,
  "items": [
    {
      "name": "ESTUDIOS GRÁFICOS ZURE, S.A.",
      "registrationNumber": "00262",
      "identificationNumber": "A48141816",
      "address": "C/ CARRETERA ASÚA - LUTXANA, Nº 24 - A.",
      "location": {
        "postalCode": "48950",
        "municipality": "Erandio",
        "county": "Bizkaia",
        "municipalityId": "902",
        "countyId": "48"
      },
      "economicActivities": [
        {
          "id": "1.474",
          "name": "Artes gráficas (impresión gráfica)",
          "_links": {
            "self": {
              "name": "Artes gráficas (impresión gráfica)",
              "href": "https://api.euskadi.eus/procurements/companies/economic-activities/1.474"
            }
          }
        }
      ],
      "certificateStartDate": "2013-02-07",
      "certificateEndDate": "2013-06-20",
      "object": "LA CREACIÓN, FOTOGRAFÍA, FOTOIMPRESIÓN, FOTOMECÁNICA, IMPRESIÓN, ENCUADERNACIÓN Y PUBLICIDAD IMPRESA, Y EN GENERAL, A CUANTO SE RELACIONE DIRECTA O INDIRECTAMENTE CON EL OBJETO EXPRESADO",
      "mainEntityOfPage": "https://www.contratacion.euskadi.eus/webkpe00-kperoc/es/ac71aBusquedaRegistrosWar/empresa/00262",
      "_links": {
        "self": {
          "name": "ESTUDIOS GRÁFICOS ZURE, S.A.",
          "href": "https://api.euskadi.eus/procurements/companies/00262"
        }
      }
    },
    {
      "name": "IDEMA INGENIERÍA DEL MEDIO AMBIENTE, S.L.",
      "registrationNumber": "01322",
      "identificationNumber": "B48545834",
      "address": "P.E. UDONDO. AVDA. AUTONOMÍA, 2 -EDIFICIO A- 2ªPLANTA",
      "location": {
        "postalCode": "48940",
        "municipality": "Leioa",
        "county": "Bizkaia",
        "municipalityId": "054",
        "countyId": "48"
      },
      "economicActivities": [
        {
          "id": "1.843.1",
          "name": "Servicios técnicos de ingeniería",
          "_links": {
            "self": {
              "name": "Servicios técnicos de ingeniería",
              "href": "https://api.euskadi.eus/procurements/companies/economic-activities/1.843.1"
            }
          }
        }
      ],
      "certificateStartDate": "2013-02-07",
      "certificateEndDate": "2013-07-03",
      "object": "INFORMES, ANÁLISIS, DIAGNÓSTICOS, ASESORAMIENTO Y ESTUDIOS DE MEDIO AMBIENTE O INDUSTRIALES, ASÍ COMO TODO TIPO DE PROYETOS Y ESTUDIOS DE INGENIERÍA",
      "mainEntityOfPage": "https://www.contratacion.euskadi.eus/webkpe00-kperoc/es/ac71aBusquedaRegistrosWar/empresa/01322",
      "_links": {
        "self": {
          "name": "IDEMA INGENIERÍA DEL MEDIO AMBIENTE, S.L.",
          "href": "https://api.euskadi.eus/procurements/companies/01322"
        }
      }
    },
    {
      "name": "GALERÍAS SANITARIAS, S.L.",
      "registrationNumber": "01796",
      "identificationNumber": "B46046793",
      "address": "C/ UNIVERSIDAD,  Nº 3.",
      "location": {
        "postalCode": "46003",
        "municipality": "València",
        "county": "Valencia/València",
        "municipalityId": "250",
        "countyId": "46"
      },
      "economicActivities": [
        {
          "id": "1.619.2",
          "name": "Venta al por mayor de aparatos e instrumentos médicos, ortopédicos, ópticos",
          "_links": {
            "self": {
              "name": "Venta al por mayor de aparatos e instrumentos médicos, ortopédicos, ópticos",
              "href": "https://api.euskadi.eus/procurements/companies/economic-activities/1.619.2"
            }
          }
        }
      ],
      "certificateStartDate": "2013-02-07",
      "certificateEndDate": "2013-08-05",
      "object": "EL COMERCIO DE APARATOS E INSTRUMENTOS MÉDICO-QUIRÚRGICOS Y DEMÁS MOBILIARIO Y ACCESORIOS, COMO MATERIAL DE LABORATORIO, ASÍ COMO SU INSTALACIÓN Y REPARACIÓN EN GENERAL",
      "mainEntityOfPage": "https://www.contratacion.euskadi.eus/webkpe00-kperoc/es/ac71aBusquedaRegistrosWar/empresa/01796",
      "_links": {
        "self": {
          "name": "GALERÍAS SANITARIAS, S.L.",
          "href": "https://api.euskadi.eus/procurements/companies/01796"
        }
      }
    },
    {
      "name": "NOROIL, S.A.",
      "registrationNumber": "01523",
      "identificationNumber": "A48302285",
      "address": "C/ LAS DELICIAS, Nº 2.",
      "location": {
        "postalCode": "48510",
        "municipality": "Valle de Trápaga-Trapagaran",
        "county": "Bizkaia",
        "municipalityId": "080",
        "countyId": "48"
      },
      "economicActivities": [
        {
          "id": "1.616.5",
          "name": "Venta al por mayor de petróleo y lubricantes",
          "_links": {
            "self": {
              "name": "Venta al por mayor de petróleo y lubricantes",
              "href": "https://api.euskadi.eus/procurements/companies/economic-activities/1.616.5"
            }
          }
        }
      ],
      "certificateStartDate": "2013-02-06",
      "certificateEndDate": "2013-06-27",
      "object": "EL SUMINISTRO, LA DISTRIBUCIÓN Y COMERCIALIZACIÓN AL POR MAYOR Y POR MENOR DE ACEITES Y GASES DE PETRÓLEO Y SUS DERIVADOS, A CUYO EFECTO PODRÁ ABANDERAR Y CONSTRUIR ESTACIONES DE SERVICIO, EXPLOTÁNDOLAS DIRECTAMENTE, O MEDIANTE TERCEROS, COMERCIALIZAR Y ESTABLECER TIENDAS DE PRODUCTOS DIVERSOS, COMPRAR, VENDER, ALMACENAR PETRÓLEO CRUDO Y SUS DERIVADOS, MEDIANTE LA ADQUISICIÓN O ARRENDAMIENTO DE BIENES MUEBLES, TANTO MARÍTIMOS COMO TERRESTRES, E INMUEBLES QUE SEAN NECESARIOS PARA LA REALIZACIÓN DE LOS FINES EXPRESADOS Y TODAS AQUELLAS ACTIVIDADES COMPLEMENTARIAS O RELACIONADAS DIRECTA, O INDIRECTAMENTE CON LAS QUE PRECEDEN",
      "mainEntityOfPage": "https://www.contratacion.euskadi.eus/webkpe00-kperoc/es/ac71aBusquedaRegistrosWar/empresa/01523",
      "_links": {
        "self": {
          "name": "NOROIL, S.A.",
          "href": "https://api.euskadi.eus/procurements/companies/01523"
        }
      }
    },
    {
      "name": "URBAGAIN, S.L.",
      "registrationNumber": "02009",
      "identificationNumber": "B48537567",
      "address": "ERDOTZA ETORBIDEA, Nº 8- 2ª PLANTA",
      "location": {
        "postalCode": "48270",
        "municipality": "Markina-Xemein",
        "county": "Bizkaia",
        "municipalityId": "060",
        "countyId": "48"
      },
      "economicActivities": [
        {
          "id": "1.501.1",
          "name": "Construcción completa, reparación y conservación de edificaciones",
          "_links": {
            "self": {
              "name": "Construcción completa, reparación y conservación de edificaciones",
              "href": "https://api.euskadi.eus/procurements/companies/economic-activities/1.501.1"
            }
          }
        },
        {
          "id": "1.911",
          "name": "Servicios agrícolas y ganaderos",
          "_links": {
            "self": {
              "name": "Servicios agrícolas y ganaderos",
              "href": "https://api.euskadi.eus/procurements/companies/economic-activities/1.911"
            }
          }
        }
      ],
      "certificateStartDate": "2013-02-04",
      "certificateEndDate": "2013-07-08",
      "object": "LA REALIZACIÓN DE TRABAJOS DE DISEÑO Y  MANTENIMIENTO DE JARDINES. ASIMISMO PODRÁ LLEVAR A CABO LA REALIZACIÓN DE TODO TIPO DE OBRAS E INSTALACIONES  ",
      "mainEntityOfPage": "https://www.contratacion.euskadi.eus/webkpe00-kperoc/es/ac71aBusquedaRegistrosWar/empresa/02009",
      "_links": {
        "self": {
          "name": "URBAGAIN, S.L.",
          "href": "https://api.euskadi.eus/procurements/companies/02009"
        }
      }
    },
    {
      "name": "ETXELAN ARABA, S.L.",
      "registrationNumber": "02345",
      "identificationNumber": "B01278332",
      "address": "EULOGIO SERDAN, 22 - BAJO",
      "location": {
        "postalCode": "01012",
        "municipality": "Vitoria-Gasteiz",
        "county": "Araba/Álava",
        "municipalityId": "059",
        "countyId": "01"
      },
      "economicActivities": [
        {
          "id": "1.654.5",
          "name": "Venta al por menor de toda clase de maquinaría",
          "_links": {
            "self": {
              "name": "Venta al por menor de toda clase de maquinaría",
              "href": "https://api.euskadi.eus/procurements/companies/economic-activities/1.654.5"
            }
          }
        }
      ],
      "certificateStartDate": "2013-02-01",
      "certificateEndDate": "2013-07-10",
      "object": "LA COMPRA-VENTA  Y REPARACIÓN DE MAQUINARIA DE HOSTELERÍA",
      "mainEntityOfPage": "https://www.contratacion.euskadi.eus/webkpe00-kperoc/es/ac71aBusquedaRegistrosWar/empresa/02345",
      "_links": {
        "self": {
          "name": "ETXELAN ARABA, S.L.",
          "href": "https://api.euskadi.eus/procurements/companies/02345"
        }
      }
    },
    {
      "name": "CONFECCIONES ANADE, S.A.",
      "registrationNumber": "03810",
      "identificationNumber": "A79348009",
      "address": "C/GARCÍA MARTÍN, 19",
      "location": {
        "postalCode": "28224",
        "municipality": "Pozuelo de Alarcón",
        "county": "Madrid",
        "municipalityId": "115",
        "countyId": "28"
      },
      "economicActivities": [
        {
          "id": "1.453",
          "name": "Confección en serie de toda clase de prendas de vestir",
          "_links": {
            "self": {
              "name": "Confección en serie de toda clase de prendas de vestir",
              "href": "https://api.euskadi.eus/procurements/companies/economic-activities/1.453"
            }
          }
        }
      ],
      "certificateStartDate": "2013-02-01",
      "certificateEndDate": "2013-07-15",
      "object": "1.- LA FABRICACIÓN, MANIPULACIÓN, IMPORTACIÓN, EXPORTACIÓN, DISTRIBUCIÓN, VENTA Y COMERCIALIZACIÓN TANTO DENTRO COMO FUERA DEL TERRITORIO NACIONAL, DE TODA CLASE DE ARTÍCULOS TEXTILES, MANUFACTURADOS O SEMIFACTURADOS.\r\n2.- LA FABRICACIÓN, MANIPULACIÓN, IMPORTACIÓN, EXPORTACIÓN, DISTRIBUCIÓN, VENTA Y COMERCIALIZACIÓN TANTO DENTRO COMO FUERA DEL TERRITORIO NACIOAL, DE TODA CLASE DE ARTÍCULOS DE CALZADO.\r\n3.- LA FABRICACIÓN, MANIPULACIÓN, IMPORTACIÓN, EXPORTACIÓN, DISTRIBUCIÓN, VENTA Y COMERCIALIZACIÓN TANTO DENTRO COMO FUERA DEL TERRITORIO NACIONAL, DE TODA CLASE DE ARTÍCULOS \"MONOUSO\", ES DECIR, LOS QUE SE UTILIZAN UNA SOLA VEZ Y SE TIRAN",
      "mainEntityOfPage": "https://www.contratacion.euskadi.eus/webkpe00-kperoc/es/ac71aBusquedaRegistrosWar/empresa/03810",
      "_links": {
        "self": {
          "name": "CONFECCIONES ANADE, S.A.",
          "href": "https://api.euskadi.eus/procurements/companies/03810"
        }
      }
    },
    {
      "name": "SERVICAL EUSKADI, S.A. SOCIEDAD UNIPERSONAL",
      "registrationNumber": "02210",
      "identificationNumber": "A95034104",
      "address": "AREETAKO ETORBIDEA, Nº 2 - B, 5ª. DPTO.: 1.",
      "location": {
        "postalCode": "48930",
        "municipality": "Getxo",
        "county": "Bizkaia",
        "municipalityId": "044",
        "countyId": "48"
      },
      "economicActivities": [
        {
          "id": "1.504.3",
          "name": "Instalaciones de frío, calor y acondicionamiento de aire",
          "_links": {
            "self": {
              "name": "Instalaciones de frío, calor y acondicionamiento de aire",
              "href": "https://api.euskadi.eus/procurements/companies/economic-activities/1.504.3"
            }
          }
        }
      ],
      "certificateStartDate": "2013-01-29",
      "certificateEndDate": "2005-03-16",
      "object": "LA INSTALACIÓN, VENTA, REPARACIÓN Y MANTENIMIENTO DE TODA CLASE DE APARATOS Y AUTOMATISMOS DE CALEFACCIÓN Y AIRE ACONDICIONADO",
      "mainEntityOfPage": "https://www.contratacion.euskadi.eus/webkpe00-kperoc/es/ac71aBusquedaRegistrosWar/empresa/02210",
      "_links": {
        "self": {
          "name": "SERVICAL EUSKADI, S.A. SOCIEDAD UNIPERSONAL",
          "href": "https://api.euskadi.eus/procurements/companies/02210"
        }
      }
    },
    {
      "name": "P-3 SEGURIDAD INTEGRAL, S.L.",
      "registrationNumber": "00972",
      "identificationNumber": "B48238190",
      "address": "C/ Huertas de la Villa, nº 17-1º izq.",
      "location": {
        "postalCode": "48007",
        "municipality": "Bilbao",
        "county": "Bizkaia",
        "municipalityId": "020",
        "countyId": "48"
      },
      "economicActivities": [
        {
          "id": "1.849.4",
          "name": "Servicios de custodia, seguridad y protección",
          "_links": {
            "self": {
              "name": "Servicios de custodia, seguridad y protección",
              "href": "https://api.euskadi.eus/procurements/companies/economic-activities/1.849.4"
            }
          }
        }
      ],
      "certificateStartDate": "2013-01-24",
      "certificateEndDate": "2013-07-04",
      "object": "a) LA VIGILANCIA Y PROTECCIÓN DE BIENES, ESTABLECIMIENTOS, ESPECTÁCULOS, CERTÁMENES O CONVENCIONES.\r\n\r\nb) PROTECCIÓN DE PERSONAS DETERMINADAS, PREVIA LA AUTORIZACIÓN CORRESPONDIENTE.\r\n\r\nc) DEPÓSITO, CUSTODIA, RECUENTO Y CLASIFICACIÓN DE MONEDAS Y BILLETES, TÍTULOS-VALORES Y DEMÁS OBJETOS QUE, POR SU PELIGROSIDAD, PUEDAN REQUERIR PROTECCIÓN ESPECIAL, SIN PERJUICIO DE LAS ACTIVIDADES PROPIAS DE LAS ENTIDADES FINANCIERAS.\r\n\r\nd) TRANSPORTE Y DISTRIBUCIÓN DE LOS OBJETOS A QUE SE REFIERE EL APARTADO ANTERIOR A TRAVÉS DE LOS DISTINTOS MEDIOS, REALIZÁNDOLOS, EN SU CASO, MEDIANTE VEHÍCULOS CUYAS CARACTERÍSTICAS SERÁN DETERMINADAS POR EL MINISTERIO DEL INTERIOR, DE FORMA QUE NO PUEDAN CONFUNDIRSE CON LOS DE LAS FUERZAS ARMADAS NI CON LOS DE LAS FUERZAS Y CUERPOS DE SEGURIDAD.\r\n\r\ne) INSTALACIÓN Y MANTENIMIENTO DE APARATOS, DISPOSITIVOS Y SISTEMAS DE SEGURIDAD.\r\n\r\nf) EXPLOTACIÓN DE CENTRALES PARA LA RECEPCIÓN, VERIFICACIÓN Y TRANSMISIÓN DE LAS SEÑALES DE ALARMAS Y SU COMUNICACIÓN A LAS FUERZAS Y CUERPOS DE SEGURIDAD, ASÍ COMO PRESTACIÓN DE SERVICIOS DE RESPUESTA CUYA REALIZACIÓN NO SEA LA COMPETENCIA DE DICHAS FUERZAS Y CUERPOS.\r\n\r\ng) PLANIFICACIÓN Y ASESORAMIENTO DE LAS ACTIVIDADES DE SEGURIDAD CONTEMPLADAS EN LA LEY DE SEGURIDAD PRIVADA",
      "mainEntityOfPage": "https://www.contratacion.euskadi.eus/webkpe00-kperoc/es/ac71aBusquedaRegistrosWar/empresa/00972",
      "_links": {
        "self": {
          "name": "P-3 SEGURIDAD INTEGRAL, S.L.",
          "href": "https://api.euskadi.eus/procurements/companies/00972"
        }
      }
    },
    {
      "name": "EKIBER, S.COOP",
      "registrationNumber": "04308",
      "identificationNumber": "F95324828",
      "address": "C/ HERNANI, 5-BAJO",
      "location": {
        "postalCode": "48003",
        "municipality": "Bilbao",
        "county": "Bizkaia",
        "municipalityId": "020",
        "countyId": "48"
      },
      "economicActivities": [
        {
          "id": "1.622",
          "name": "Venta al por mayor de otros productos de recuperación",
          "_links": {
            "self": {
              "name": "Venta al por mayor de otros productos de recuperación",
              "href": "https://api.euskadi.eus/procurements/companies/economic-activities/1.622"
            }
          }
        },
        {
          "id": "1.921.2",
          "name": "Servicios de recogida de basuras y desechos",
          "_links": {
            "self": {
              "name": "Servicios de recogida de basuras y desechos",
              "href": "https://api.euskadi.eus/procurements/companies/economic-activities/1.921.2"
            }
          }
        }
      ],
      "certificateStartDate": "2013-01-22",
      "certificateEndDate": "2013-01-11",
      "object": "PROMOVER EL DESARROLLO SOCIAL Y ECOLÓGICO, Y EN CONCRETO: A) DENTRO DE LA PROMOCIÓN SOCIAL: A) PROMOVER LA INTEGRACIÓN SOCIAL DE PERSONAS Y COLECTIVOS QUE SUFRAN CUALQUIER CLASE DE EXCLUSIÓN SOCIAL A TRAVÉS DE LOS CONVENIOS DE INSERCIÓN REGULADOS EN EL CAPÍTULO II DE LA LEY 12/1998, DE 22 DE MAYO CONTRA LA EXCLUSIÓN SOCIAL Y EL ARTÍCULO 5 DEL DECRETO 1/2000, DE 11 DE ENERO RESPETANDO LOS PORCENTAJES MÍNIMOS Y MÁXIMOS DE TRABAJADORES EN PROCESO DE INSERCIÓN EXPRESADOS EN EL ARTÍCULO3, APARTADO 2 D, DEL DECRETO 1/2000 DE 11 DE ENERO. QUE A FECHA DE HOY ESTÁN ENTRE EL 40 Y 75% EN COMPUTO ANUAL RESPECTO DE LA PLANTILLA TOTAL (COMPUTANDO TRABAJADORES POR CUENTA AJENA Y SOCIOS TRABAJADORES) Y DESARROLLANDO CUALQUIER ACTIVIDAD ECONÓMICA QUE TENGA POR FINALIDAD SU INTEGRACIÓN LABORAL, MEDIANTE LA FORMACIÓN Y ORIENTACIÓN PARA EL EMPLEO, REALIZANDO ESTUDIOS Y PROYECTOS SOBRE LA SITUACIÓN DE EXCLUSIÓN SOCIAL DE PERSONAS Y COLECTIVOS; PROMOVIENDO LA ECONOMÍA SOCIAL Y SOLIDARIA, EN COLABORACIÓN CON ORGANISMOS, ENTIDADES Y ADMINISTRACIONES DEL ÁMBITO LOCAL, AUTONÓMICO, NACIONAL, EUROPEO E INTERNACIONAL, Y MEDIANTE CUALQUIER OTRA ACCIÓN QUE PSOBILITE DICHA INTEGRACIÓN SOCIAL; B) PRESTAR SERVICIOS ASISTENCIALES Y SOCIALES A LA COMUNIDAD MEDIANTE LA REALIZACIÓN DE ACTIVIDADES EDUCATIVAS, CULTURALES, SANITARIAS U OTRAS DE NATURALEZA SOCIAL; C) FACILITAR LA SENSIBILIZACIÓN, COLABORACIÓN Y PARTICIPACIÓN SOCIAL DEL VOLUNTARIADO Y DE LA SOCIEDAD EN GENERAL EN LA RESOLUCIÓN DE LOS PROBLEMAS SOCIALES DEL ENTORNO; D) BUSCAR UN DESARROLLO SOCIAL GLOBAL E INTEGRAL, MEDIANTE LA COOPERACIÓN PARA EL DESARROLLO CON OTROS PUEBLOS Y EL IMPULSO DE PRÁCTICAS DE COMERCIO JUSTO Y SOLIDARIO.  B) DENTRO DEL DESARROLLO ECOLÓGICO, E) REALIZAR CUALQUIER ACTIVIDAD QUE TENGA POR FINALIDAD LA DEFENSA AL MEDIO AMBIENTE: -DEDICÁNDOSE A LA REDUCCIÓN, LA RECUPERAICÓN Y EL RECICLAJE DE RESIDUOS; - PROMOVIENDO LA DISTRIBUCIÓN DE PRODUCTOS ECÓLÓGICOS, RECICLADOS, Y/O BIOLÓGICOS, -PRESTANDO SERVICIOS DE RECOGIDA, CLASIFICACIÓN Y RECICLAJE DE RESIDUOS URBANOS A EMPRESAS O ENTES PÚBLICOS ASÍ COMO EL FOMENTO DE LA REUTILIZACIÓN A TRAVÉS DE SU VENTA EDUCANDO EN UN CONSUMO MÁS RESPONSABLE DE RECURSOS ESCASOS, COM LA ENERGÍA, EL AGUA Y/O LAS MATEIRAS PRIMAS. REALIZANDO ESTUDIOS Y PROYECTOS TENDENTES A MEJORAR EL ESTADO DEL MEDIO AMBIENTE; -EN COLABORACIÓN CON ORGANISMOS, ENTIDADES Y ADMINISTRACIONES DEL ÁMBITO LOCAL, AUTONÓMICO, NACIONAL, EUROPEO E INTERNACIONAL; -DIFUNDIENDO EL USO DE MEDIOS DE TRANSPORTE MENOS CONTAMINANTES; - PROMOVIENDO LA BIOCONSTRUCCIÓN O REHABILITACIÓN ECOLÓGICA DE VIVIENDAS Y MEDIANTE CUALQUIER OTRA ACCIÓN QUE POSIBILITE DICHO RESPETO AL MEDIO AMBIENTE; F) SENSIBILIZAR A LA POBLACIÓN ESCOLAR Y GENERAL PARA QUE ADOPTE HÁBITOS Y CONDUCTAS RESPETUOSAS CON EL MEDIO AMBIENTE; G) FACILITAR LA COLABORACIÓN Y PARTICIPACIÓN SOCIAL DEL VOLUNTARIADO Y DE LA SOCIEDAD EN GENERAL EN LA RESOLUCIÓN DE LOS PROBLEMAS MEDIOAMBIENTALES DEL ENTORNO",
      "mainEntityOfPage": "https://www.contratacion.euskadi.eus/webkpe00-kperoc/es/ac71aBusquedaRegistrosWar/empresa/04308",
      "_links": {
        "self": {
          "name": "EKIBER, S.COOP",
          "href": "https://api.euskadi.eus/procurements/companies/04308"
        }
      }
    }
  ]
}