{
  "totalItems": 9042,
  "totalPages": 905,
  "currentPage": 770,
  "itemsOfPage": 10,
  "items": [
    {
      "name": "AMBISAT, INGENIERÍA AMBIENTAL, S.L.",
      "registrationNumber": "02827",
      "identificationNumber": "B83699439",
      "address": "C/ ALONSO CANO, 85 - 1ºB",
      "location": {
        "postalCode": "28000",
        "municipality": "Madrid",
        "county": "Madrid",
        "municipalityId": "079",
        "countyId": "28"
      },
      "economicActivities": [
        {
          "id": "1.843.1",
          "name": "Servicios técnicos de ingeniería",
          "_links": {
            "self": {
              "name": "Servicios técnicos de ingeniería",
              "href": "https://api.euskadi.eus/procurements/companies/economic-activities/1.843.1"
            }
          }
        }
      ],
      "certificateStartDate": "2007-08-08",
      "certificateEndDate": "2008-01-17",
      "object": "LAS ACTIVIDADES PROPIAS DE UNA OFICINA TÉCNICA DE INGENIERÍA, COMO SON EL ASESORAMIENTO, GESTIÓN, PLANIFICACIÓN, DISEÑO, REALIZACIÓN DE ESTUDIOS PREVIOS, REDACCIÓN DE PROYECTOS COMPLETOS Y DIRECCIÓN TÉCNICA DE TRABAJOS RELACIONADOS, DIRECTA O INDIRECTAMENTE, CON EL MEDIO AMBIENTE, EL ÁMBITO FORESTAL, DESARROLLO URBANO Y RURAL, EL AGUA Y LA EDUCACIÓN AMBIENTAL. \r\nESPECIALMENTE, TENDRÁ POR OBJETO ESTUDIOS DEL MEDIO FÍSICO, HÍDRICO E IMPACTO AMBIENTAL, ESTUDIOS, PLANES Y PROYECTOS DE RECUPERACIÓN DE ESPACIOS DEGRADADOS, FORESTACIONES Y REFORESTACIONES, RESTAURACIONES HIDROLÓGICO-FORESTALES, MEDIDAS DE CORRECCIÓN DE IMPACTOS Y AHORRO ENERGÉTICO, CON EXTENSÍÓN  A TODA ACTIVIDAD COMPRENDIDA EN EL CAMPO DE LA INGENIERÍA MEDIOAMBIENTAL, PROTECCIÓN DEL MEDIO AMBIENTE, Y A TODO TRABAJO Y ACTIVIDAD PROPIA DE UNA EMPRESA CONSULTORA DE INGENIERÍA.\r\nASÍMISMO PODRÁ  REALIZAR ESTUDIOS, PROYECTOS Y SERVICIOS DE INGENIERÍA RELACIONADOS CON LAS TÉCNICAS DE TELEDETECCIÓN AEROSPACIAL DE LA TIERRA ORIENTADAS A LA GESTIÓN DEL MEDIO AMBIENTE Y LA ORDENACIÓN DEL TERRITORIO, ASÍ COMO EL DISEÑO DE SISTEMAS DE INFORMACIÓN GEOGRÁFICA, SERVICIOS DE MANTENIMIENTO Y REPARACIÓN DE EQUIPOS E  INSTALACIONES, SERVICIOS DE TECNOLOGÍAS DE LA INFORMACIÓN Y LAS COMUNICACIONES Y SERVICIOS DE MANTENIMIENTO Y REPARACIÓN DE EQUIPOS E INSTALACIONES INFORMÁTICAS Y DE TELEDETECCIÓN. ",
      "mainEntityOfPage": "https://www.contratacion.euskadi.eus/webkpe00-kperoc/es/ac71aBusquedaRegistrosWar/empresa/02827",
      "_links": {
        "self": {
          "name": "AMBISAT, INGENIERÍA AMBIENTAL, S.L.",
          "href": "https://api.euskadi.eus/procurements/companies/02827"
        }
      }
    },
    {
      "name": "PROFIT EUSKADI, S.A.",
      "registrationNumber": "02688",
      "identificationNumber": "A01253236",
      "address": "C/ PORTAL DE GAMARRA, 1. OFICINA 402",
      "location": {
        "postalCode": "01013",
        "municipality": "Vitoria-Gasteiz",
        "county": "Araba/Álava",
        "municipalityId": "059",
        "countyId": "01"
      },
      "economicActivities": [
        {
          "id": "1.849.9",
          "name": "Otros servicios independientes n.c.o.p",
          "_links": {
            "self": {
              "name": "Otros servicios independientes n.c.o.p",
              "href": "https://api.euskadi.eus/procurements/companies/economic-activities/1.849.9"
            }
          }
        }
      ],
      "certificateStartDate": "2007-08-06",
      "certificateEndDate": "2007-01-26",
      "object": "AYUDAR  A LAS EMPRESAS A CONSEGUIR PROCESOS DE PRODUCCIÓN DE SOFTWARE GESTIONADOS.\r\nDISEÑAR Y SUPERVISAR PLANES PARA CONSEGUIR HOMOLOGACIONES DE CALIDAD EN LOS PROCESOS DE PRODUCCILÓN DE SOFTWARE.\r\nINVESTIGAR E INTRODUCIR MÉTRICAS QUE AYUDEN A CONTROLAR LA EFECTIVIDAD Y CALIDAD EN LOS PROCESOS DE PRODUCCIÓN DE SOFTWARE.\r\nINVESTIGAR E INTRODUCIR TÉCNICAS Y PROCESOS ORIENTADOS AL INCREMENTO DE PRODUCTIVIDAD Y CALIDAD EN LA PRODUCCIÓN DE SOFTWARE.\r\nDESARROLLAR ACTIVIDADES DE FORMACIÓN EN MATERIA DE PRODUCCIÓN DE SOFTWARE.\r\nADQUIRIR, VENDER Y EXPLOTAR, MEDIANTE ARRENDAMIENTO O CUALQUIER OTRA FORMA JURÍDICA, BIENES INMUEBLES, PROPIOS O AJENOS A LA SOCIEDAD.\r\nLAS ACTIVIDADES ENUMERADAS PODRÁN TAMBIÉN SER DESARROLLADAS POR LA SOCIEDAD, TOTAL O PARCIALMENTE, DE MODO INDIRECTO, MEDIANTE LA PARTICIPACIÓN EN OTRAS SOCIEDADES CON OBJETO ANÁLOGO.\r\nQUEDAN EXCLUÍDAS TODAS AQUELLAS ACTIVIDADES PARA CUYO EJERCICIO LA LEY EXIJA REQUISITOS ESPECIALES QUE NO QUEDEN CUMPLIDOS POR ESTA SOCIEDAD.\r\n ",
      "mainEntityOfPage": "https://www.contratacion.euskadi.eus/webkpe00-kperoc/es/ac71aBusquedaRegistrosWar/empresa/02688",
      "_links": {
        "self": {
          "name": "PROFIT EUSKADI, S.A.",
          "href": "https://api.euskadi.eus/procurements/companies/02688"
        }
      }
    },
    {
      "name": "HEGOTEL INSTALACIONES ELÉCTRICAS, S.L.",
      "registrationNumber": "03413",
      "identificationNumber": "B95440491",
      "address": "ELKARTEGI DE TRABAGA MOD 17.01- Bº UGARTE S/N",
      "location": {
        "postalCode": "48510",
        "municipality": "Valle de Trápaga-Trapagaran",
        "county": "Bizkaia",
        "municipalityId": "080",
        "countyId": "48"
      },
      "economicActivities": [
        {
          "id": "1.504.1",
          "name": "Instalaciones eléctricas en general",
          "_links": {
            "self": {
              "name": "Instalaciones eléctricas en general",
              "href": "https://api.euskadi.eus/procurements/companies/economic-activities/1.504.1"
            }
          }
        }
      ],
      "certificateStartDate": "2007-08-02",
      "certificateEndDate": "2007-12-05",
      "object": "A) TODO TIPO DE INSTALACIONES FOTOVOLTAICAS, DOMÓTICAS, INSTABUS EIB, SISTEMA VÍA RADIO, CORRIENTES PORTADORAS, X 10. B) GESTIÓN Y CONTROL DE EDIFICIOS Y PROYECTOS DE ILUMINACIÓN. C) LA PRESTACIÓN Y EXPLOTACIÓN DE TODA CLASE DE SERVICIOS PÚBLICOS O PRIVADOS DE TELECOMUNICACIÓN, Y A TAL EFECTO, EL DISEÑO, INSTALACIÓN, CONSERVACIÓN, REDACCIÓN, MEJORA, ADQUISICIÓN, ENAJENACIÓN, INTERCONEXIÓN, GESTIÓN, ADMINISTRACIÓN Y CUALQUIER OTRA ACTIVIDAD RESPECTO DE TODA CLASE DE REDES, LÍNEAS, SATÉLITES, EQUIPOS, SISTEMAS E INFRAESTRCTURAS TÉCNICAS, ACTUALES O FUTUROS DE TELECOMUNICACIÓN; LA PRESTACIÓN Y EXPLOTACIÓN DE TODA CLASE DE SERVICIOS AUXILIARES O COMPLEMENTARIOS DERIVADOS DE LA TELECOMUNICACIÓN; LA INVESTIGACIÓN Y DESARROLLO, PROMOCIÓN Y APLICACIÓN DE TODA CLASE DE PRINCIPIOS COMPONENTES, EQUIPOS, Y SISTEMAS UTILIZADOS DIRECTA O INDIRECTAMENTE PARA LAS TELECOMUNICACIONES; LA FABRICACIÓN O PRODUCCIÓN, Y EN GENERAL, LAS DEMÁS FORMAS DE ACTIVIDAD INDUSTRIAL RELACIONADAS CON LAS TELECOMUNICACIONES. D) LA COMPRA, VENTA, IMPORTACIÓN, EXPORTACIÓN DISTRIBUCIÓN, ALMACENAMIENTO FABRICACIÓN, COMERCIALIZACIÓN, INVESTIGACIÓN, INGENIERÍA, DISEÑO, DESARROLLO, INTEGRACIÓN, REALIZACIÓN, INSTALACIÓN, GARANTÍA, MANTENIMIENTO, REPARACIÓN Y PRESTACIÓN DE SERVICIOS DE PROYECTOS DE INGENIERÍA DE SISTEMAS ELECTRÓNICOS E INFORMÁTICOS; APLICACIONES DE SISTEMAS DE ELECTRÓNICA E INFORMÁTICA; PROYECTOS RELACIONADOS CON EL SISTEMA DE CONTROL EN TIEMPO REAL, YA SEA TERRESTRE, MARÍTIMO O AÉREO; PROYECTOS DE SISTEMAS DE CONTROL RELACIONADOS EN COMPLEJOS HIDROELÉCTRICOS, PETROQUÍMICOS, ENERGÉTICOS E INDUSTRIALES EN GENERAL Y DE CUALQUER CLASE; PROYECTOS RELACIONADOS CON LA ROBÓTICA Y AUTOMATIZACIÓN INDUSTRIAL, SISTEMAS DE ENSAYOS DE MOTORES Y RACIONALIZACIÓN DE LA PRODUCCIÓN; SISTEMAS Y PRODUCTOS REFERIDOS AL DISEÑO Y FABRICACIÓN ASISTIDA POR ORDENADORES; PROYECTOS Y SISTEMAS DE SIMULACIÓN, PRESENTACIÓN DE DATOS, INFORMACIÓN E IMÁGENES; VALOR AÑADIDO INFORMÁTICOS Y DE TELECOMUNICACIONES",
      "mainEntityOfPage": "https://www.contratacion.euskadi.eus/webkpe00-kperoc/es/ac71aBusquedaRegistrosWar/empresa/03413",
      "_links": {
        "self": {
          "name": "HEGOTEL INSTALACIONES ELÉCTRICAS, S.L.",
          "href": "https://api.euskadi.eus/procurements/companies/03413"
        }
      }
    },
    {
      "name": "RICARDO RUIZ DE GAUNA RUIZ DE GAUNA",
      "registrationNumber": "01912",
      "identificationNumber": "15343135L",
      "address": "C/ FUEROS, 23-1º",
      "location": {
        "postalCode": "01005",
        "municipality": "Vitoria-Gasteiz",
        "county": "Araba/Álava",
        "municipalityId": "059",
        "countyId": "01"
      },
      "economicActivities": [
        {
          "id": "1.849.9",
          "name": "Otros servicios independientes n.c.o.p",
          "_links": {
            "self": {
              "name": "Otros servicios independientes n.c.o.p",
              "href": "https://api.euskadi.eus/procurements/companies/economic-activities/1.849.9"
            }
          }
        }
      ],
      "certificateStartDate": "2007-07-31",
      "certificateEndDate": "2008-01-11",
      "object": "SELECCIÓN. FORMACIÓN. CONSULTORÍA EN RECURSOS HUMANOS. CALIDAD TOTAL. SERVICIOS DE PREVENCIÓN",
      "mainEntityOfPage": "https://www.contratacion.euskadi.eus/webkpe00-kperoc/es/ac71aBusquedaRegistrosWar/empresa/01912",
      "_links": {
        "self": {
          "name": "RICARDO RUIZ DE GAUNA RUIZ DE GAUNA",
          "href": "https://api.euskadi.eus/procurements/companies/01912"
        }
      }
    },
    {
      "name": "CONSTRUCCIONES Y DISTRIBUCIONES CONSTRU-LABEL, S.L.",
      "registrationNumber": "03409",
      "identificationNumber": "B01371004",
      "address": "ANDALUCIA 12, BAJO",
      "location": {
        "postalCode": "01000",
        "municipality": "Vitoria-Gasteiz",
        "county": "Araba/Álava",
        "municipalityId": "059",
        "countyId": "01"
      },
      "economicActivities": [
        {
          "id": "1.501.3",
          "name": "Albañilería y pequeños trabajos de construcción en general",
          "_links": {
            "self": {
              "name": "Albañilería y pequeños trabajos de construcción en general",
              "href": "https://api.euskadi.eus/procurements/companies/economic-activities/1.501.3"
            }
          }
        },
        {
          "id": "1.617.4",
          "name": "Venta al por mayor de materiales de construcción, vidrio y artículos instalación",
          "_links": {
            "self": {
              "name": "Venta al por mayor de materiales de construcción, vidrio y artículos instalación",
              "href": "https://api.euskadi.eus/procurements/companies/economic-activities/1.617.4"
            }
          }
        },
        {
          "id": "1.631",
          "name": "Intermediarios del comercio",
          "_links": {
            "self": {
              "name": "Intermediarios del comercio",
              "href": "https://api.euskadi.eus/procurements/companies/economic-activities/1.631"
            }
          }
        },
        {
          "id": "1.832.1",
          "name": "Agencias de seguros y corredurías de seguros",
          "_links": {
            "self": {
              "name": "Agencias de seguros y corredurías de seguros",
              "href": "https://api.euskadi.eus/procurements/companies/economic-activities/1.832.1"
            }
          }
        }
      ],
      "certificateStartDate": "2007-07-31",
      "certificateEndDate": "2007-10-26",
      "object": "A) LA CONSTRUCCIÓN, Y LA DISTRIBUCIÓN DE MATERIALES AFECTOS A LA ACTIVIDAD DE LA CONSTRUCCIÓN. B) COMERCIALIZACIÓN DE SEGUROS",
      "mainEntityOfPage": "https://www.contratacion.euskadi.eus/webkpe00-kperoc/es/ac71aBusquedaRegistrosWar/empresa/03409",
      "_links": {
        "self": {
          "name": "CONSTRUCCIONES Y DISTRIBUCIONES CONSTRU-LABEL, S.L.",
          "href": "https://api.euskadi.eus/procurements/companies/03409"
        }
      }
    },
    {
      "name": "VIAJES GALEA, S.A.",
      "registrationNumber": "02901",
      "identificationNumber": "A48212641",
      "address": "C/ RODRÍGUEZ ARIAS, 23 ENTREPLANTA",
      "location": {
        "postalCode": "48011",
        "municipality": "Bilbao",
        "county": "Bizkaia",
        "municipalityId": "020",
        "countyId": "48"
      },
      "economicActivities": [
        {
          "id": "1.755",
          "name": "Agencias de viajes",
          "_links": {
            "self": {
              "name": "Agencias de viajes",
              "href": "https://api.euskadi.eus/procurements/companies/economic-activities/1.755"
            }
          }
        }
      ],
      "certificateStartDate": "2007-07-30",
      "certificateEndDate": "2007-12-27",
      "object": "LA REALIZACIÓN DE LAS ACTIVIDADES ESPECÍFICAMENTE ENMARCADAS EN EL DENOMINADO GRUPO \"A\", DE LA ORDEN DE 9 DE AGOSTO DE 1974 ",
      "mainEntityOfPage": "https://www.contratacion.euskadi.eus/webkpe00-kperoc/es/ac71aBusquedaRegistrosWar/empresa/02901",
      "_links": {
        "self": {
          "name": "VIAJES GALEA, S.A.",
          "href": "https://api.euskadi.eus/procurements/companies/02901"
        }
      }
    },
    {
      "name": "CONSTRUCTORA DE SISTEMAS FERROVIARIOS, S.L.",
      "registrationNumber": "03407",
      "identificationNumber": "B20821823",
      "address": "JM ITURRIOZ 26",
      "location": {
        "postalCode": "20200",
        "municipality": "Beasain",
        "county": "Gipuzkoa",
        "municipalityId": "019",
        "countyId": "20"
      },
      "economicActivities": [
        {
          "id": "1.501.2",
          "name": "Construcción completa, reparación y conservación obras civiles",
          "_links": {
            "self": {
              "name": "Construcción completa, reparación y conservación obras civiles",
              "href": "https://api.euskadi.eus/procurements/companies/economic-activities/1.501.2"
            }
          }
        }
      ],
      "certificateStartDate": "2007-07-26",
      "certificateEndDate": "2007-12-20",
      "object": "A) EL DISEÑO, LA CONSTRUCCIÓN Y EJECUCIÓN COMPLETA, EQUIPAMIENTO, INSTALACIÓN, ADECUACIÓN, PUESTA EN MARCHA, FINANCIACIÓN Y TRANSMISIÓN DE TODO TIPO DE OBRAS PÚBLICAS O PRIVADAS, ASÍ COMO SU MANTENIMIENTO, REPARACIÓN Y CONSERVACIÓN, YA SEA EN RÉGIMEN DE CONTRATACIÓN PÚBLICA O PRIVADA, REALIZADA DE FORMA DIRECTA O MEDIANTE LA SUBCONTRATACIÓN CON TERCEROS; B) LA CONSTRUCCIÓN DE TENDIDO DE VÍAS, ELEVADOS SOBRE CARRIL O CABLE, SEÑALIZACIONES O ENCLAVAMIENTOS, ELECTRIFICACIÓN DE FERROCARRILES; C) EL MANTENIMIENTO DE VÍAS, ELEVADOS SOBRE CARRIL O CABLE, SEÑALIZACIONES , ENCLAVAMIENTOS Y ELECTRIFICACIÓN DE FERROCARRILES; C) EL MANTENIMIENTO DE VÍAS, ELEVADOS SOBRE CARRIL O CABLE, SEÑALIZACIONES, ENCLAVAMIENTOS Y ELECTRIFICACIÓN DE FERROCARRILES; D) LA REALIZACIÓN DE CUALESQUERA TRABAJOS QUE SEAN CONSECUENCIA, COMPLEMENTEN O SE RELACIONEN DIRECTA O INDIRECTAMENTE CON CUALQUIERA DE LAS ACTIVIDADES DESCRITAS EN LOS APARTADOS PRECEDENTES;",
      "mainEntityOfPage": "https://www.contratacion.euskadi.eus/webkpe00-kperoc/es/ac71aBusquedaRegistrosWar/empresa/03407",
      "_links": {
        "self": {
          "name": "CONSTRUCTORA DE SISTEMAS FERROVIARIOS, S.L.",
          "href": "https://api.euskadi.eus/procurements/companies/03407"
        }
      }
    },
    {
      "name": "SIGRID, S.L.",
      "registrationNumber": "02875",
      "identificationNumber": "B81189979",
      "address": "C/ RAFAEL DE RIEGO, 26",
      "location": {
        "postalCode": "28045",
        "municipality": "Madrid",
        "county": "Madrid",
        "municipalityId": "079",
        "countyId": "28"
      },
      "economicActivities": [
        {
          "id": "1.845",
          "name": "Explotación electrónica por cuenta de terceros",
          "_links": {
            "self": {
              "name": "Explotación electrónica por cuenta de terceros",
              "href": "https://api.euskadi.eus/procurements/companies/economic-activities/1.845"
            }
          }
        }
      ],
      "certificateStartDate": "2007-07-18",
      "certificateEndDate": "2007-12-27",
      "object": "EL DISEÑO, DESARROLLO, COMERCIALIZACIÓN, REALIZACIÓN, INSTALACIÓN, ASESORAMIENTO TÉCNICO Y MANTENIMIENTO DE SERVICIOS Y APLICACIONES INFORMÁTICAS Y DE CARTOGRAFÍA.\r\nFABRICACIÓN, REPARACIÓN, MANTENIMIENTO, COMERCIALIZACIÓN Y DISTRIBUCIÓN DE EQUIPOS PARA OFICINA, INFORMÁTICOS Y DE CARTOGRAFÍA.\r\nMANTENIMIENTO, FORMACIÓN DE PERSONAL Y ACTUALIZACIÓN DE PROYECTOS Y DE SOPORTES FÍSICOS Y MAQUINARIA.   ",
      "mainEntityOfPage": "https://www.contratacion.euskadi.eus/webkpe00-kperoc/es/ac71aBusquedaRegistrosWar/empresa/02875",
      "_links": {
        "self": {
          "name": "SIGRID, S.L.",
          "href": "https://api.euskadi.eus/procurements/companies/02875"
        }
      }
    },
    {
      "name": "BAI ESAN, SERVICIOS DE MARKETING, S.A.",
      "registrationNumber": "03296",
      "identificationNumber": "A95140141",
      "address": "PASEO MIKELETEGI, 1-2º",
      "location": {
        "postalCode": "20009",
        "municipality": "Donostia / San Sebastián",
        "county": "Gipuzkoa",
        "municipalityId": "069",
        "countyId": "20"
      },
      "economicActivities": [
        {
          "id": "1.844",
          "name": "Servicios de publicidad, relaciones públicas y similares",
          "_links": {
            "self": {
              "name": "Servicios de publicidad, relaciones públicas y similares",
              "href": "https://api.euskadi.eus/procurements/companies/economic-activities/1.844"
            }
          }
        }
      ],
      "certificateStartDate": "2007-07-17",
      "certificateEndDate": "2007-11-24",
      "object": "1-LA REALIZACIÓN DE SERVICIOS Y TRABAJOS COMERCIALES, DE VENTA, DE PROMOCIÓN Y DE ATENCIÓN  E INFORMACIÓN AL CLIENTE, DE TODA CLASE DE PRODUCTOS DEL COMERCIO Y DE LA INDUSTRIA, UTILIZANDO PARA ELLO LOS DIVERSOS TIPOS DE SISTEMAS DE COMUNICACIÓN MULTICANAL, EXISTENTES EN LA ACTUALIDAD Y QUE PUEDAN UTILIZARSE EN EL FUTURO.\r\n2-LA REALIZACIÓN DE TODO TIPO DE ESTUDIOS Y ENCUESTAS TANTO PARA EMPRESAS O AGRUPACIONES DE EMPRESAS, COMO PARA ENTIDADES DEL SECTOR  PÚBLICO.\r\n3-LA REALIZACIÓN DE SERVICIOS DE FORMACIÓN, ASESORAMIENTO Y CONSULTORÍA PARA TODA CLASE DE EMPRESAS COMERCIALES, INDUSTRIALES Y DE SERVICIOS, ASÍ COMO PARA ENTIDADES PÚBLICAS.\r\n4-EL SEGUIMIENTO DE LOS TRABAJOS Y SERVICIOS COMERCIALES CON REDACCIÓN DE INFORMES, TANTO CUANTITATIVOS COMO CUALITATIVOS, CON SU CORRESPONDIENTE GENERACIÓN DE INFORMACIÓN Y CONOCIMIENTO.\r\n5-LA REALIZACIÓN DE TRABAJOS DE INTRODUCCIÓN DE DATOS, REPROGRAFÍA, DISEÑO, TRADUCCIONES, SECRETARIADO, ASESORAMIENTO O IMAGEN, YA SEA EN DEPENDENCIAS DE LOS CIENTES, EN LAS DE LA PROPIA SOCIEDAD O EN OTRAS UBICACIONES.\r\n6-LA REALIZACIÓN DE CUALQUIER OTRA ACTIVIDAD RELACIONADA CON LA PROMOCIÓN COMERCIAL, INDUSTRIAL Y DE SERVICIOS ",
      "mainEntityOfPage": "https://www.contratacion.euskadi.eus/webkpe00-kperoc/es/ac71aBusquedaRegistrosWar/empresa/03296",
      "_links": {
        "self": {
          "name": "BAI ESAN, SERVICIOS DE MARKETING, S.A.",
          "href": "https://api.euskadi.eus/procurements/companies/03296"
        }
      }
    },
    {
      "name": "ENTREWEBS, S.L.",
      "registrationNumber": "03033",
      "identificationNumber": "B20728648",
      "address": "PASEO ZUBIAURRE, 32 BAJO",
      "location": {
        "postalCode": "20013",
        "municipality": "Donostia / San Sebastián",
        "county": "Gipuzkoa",
        "municipalityId": "069",
        "countyId": "20"
      },
      "economicActivities": [
        {
          "id": "1.844",
          "name": "Servicios de publicidad, relaciones públicas y similares",
          "_links": {
            "self": {
              "name": "Servicios de publicidad, relaciones públicas y similares",
              "href": "https://api.euskadi.eus/procurements/companies/economic-activities/1.844"
            }
          }
        }
      ],
      "certificateStartDate": "2007-07-03",
      "certificateEndDate": "2007-11-03",
      "object": "A) GESTIÓN DE SISTEMAS DE INFORMACIÓN A TRAVÉS DE INTERNET, ADEMÁS DE LA PRESTACIÓN DE SERVICIOS DE PUBLICIDAD MEDIANTE ANUNCIOS, CARTELES, FOLLETOS, PELÍCULAS PUBLICITARIAS, ETC., A TRAVÉS DE DISTINTOS MEDIOS, PRENSA, RADIO, TELEVISIÓN, PUBLICIDAD AÉREA, REDES INFORMÁTICAS Y DE TELECOMUNICACIONES, SISTEMAS MULTIMEDIA U OTROS MEDIOS. IGUALMENTE COMO AGENCIA DE PUBLICIDAD A LA CREACIÓN Y DIFUSIÓN DE ANUNCIOS O CAMPAÑAS DE INFORMACIÓN PUBLICITARIAS, PUBLICIDAD EXTERIOR, PUBLICIDAD DIRECTA Y MARKETING DIRECTO, DISTRIBUIDORES Y CENTRALES DE COMPRAS, ESTUDIOS DE PUBLICIDAD, ETC. TAMBIÉN DEDICACIÓN A LAS RELACIONES PÚBLICAS, PROMOCIÓN DE VENTAS PUBLICITARIAS, REGALOS Y RECLAMOS PUBLICITARIOS Y,  EN GENERAL, CUALQUIER SERVICIO INDEPENDIENTE DE PUBLICIDAD. ADEMÁS LLEVARÁ A CABO ACTIVIDADES EMPRESARIALES DE ARTES GRÁFICAS Y SUS ACTIVIDADES ANEXAS; LA EDICIÓN DE REVISTAS, PERIÓDICOS, LIBROS Y OTRAS EDICIONES.\r\n\r\nB) ASESORAMIENTO EN LA VENTA  Y DISTRIBUCIÓN DE EQUIPOS INFORMÁTICOS\r\n",
      "mainEntityOfPage": "https://www.contratacion.euskadi.eus/webkpe00-kperoc/es/ac71aBusquedaRegistrosWar/empresa/03033",
      "_links": {
        "self": {
          "name": "ENTREWEBS, S.L.",
          "href": "https://api.euskadi.eus/procurements/companies/03033"
        }
      }
    }
  ]
}