{
  "totalItems": 9042,
  "totalPages": 905,
  "currentPage": 432,
  "itemsOfPage": 10,
  "items": [
    {
      "name": "FILTROS DEL NORTE, S.A.",
      "registrationNumber": "02754",
      "identificationNumber": "A48116149",
      "address": "GUDARIEN KALEA, 2",
      "location": {
        "postalCode": "48970",
        "municipality": "Basauri",
        "county": "Bizkaia",
        "municipalityId": "015",
        "countyId": "48"
      },
      "economicActivities": [
        {
          "id": "1.617.5",
          "name": "Venta al por mayor de maquinaria para la madera y el metal",
          "_links": {
            "self": {
              "name": "Venta al por mayor de maquinaria para la madera y el metal",
              "href": "https://api.euskadi.eus/procurements/companies/economic-activities/1.617.5"
            }
          }
        }
      ],
      "certificateStartDate": "2024-02-01",
      "certificateEndDate": "2024-01-26",
      "object": "LA VENTA DE ARTÍCULOS DE AUTOMOCIÓN  E INDUSTRIA. LAS ACTIVIDADES ENUMERADAS PODRÁN TAMBIÉN SER DESARROLLADAS POR LA SOCIEDAD, TOTAL O PARCIALMENTE, DE MODO INDIRECTO, MEDIANTE LA PARTICIPACIÓN EN OTRAS SOCIEDADES CON OBJETO ANÁLOGO",
      "mainEntityOfPage": "https://www.contratacion.euskadi.eus/webkpe00-kperoc/es/ac71aBusquedaRegistrosWar/empresa/02754",
      "_links": {
        "self": {
          "name": "FILTROS DEL NORTE, S.A.",
          "href": "https://api.euskadi.eus/procurements/companies/02754"
        }
      }
    },
    {
      "name": "CENER INGENIERÍA ELECTRÓNICA S.COOP.PEQUEÑA",
      "registrationNumber": "05179",
      "identificationNumber": "F95755559",
      "address": "Avda. Aguirre Lehendakari, 25-2º A",
      "location": {
        "postalCode": "48970",
        "municipality": "Basauri",
        "county": "Bizkaia",
        "municipalityId": "015",
        "countyId": "48"
      },
      "economicActivities": [
        {
          "id": "1.504.12",
          "name": "Instalaciones eléctricas en toda clase de edificios",
          "_links": {
            "self": {
              "name": "Instalaciones eléctricas en toda clase de edificios",
              "href": "https://api.euskadi.eus/procurements/companies/economic-activities/1.504.12"
            }
          }
        }
      ],
      "certificateStartDate": "2024-01-31",
      "certificateEndDate": "2024-07-23",
      "object": "LA REALIZACIÓN Y MANTENIMIENTO DE INSTALACIONES ELÉCTRICAS",
      "mainEntityOfPage": "https://www.contratacion.euskadi.eus/webkpe00-kperoc/es/ac71aBusquedaRegistrosWar/empresa/05179",
      "_links": {
        "self": {
          "name": "CENER INGENIERÍA ELECTRÓNICA S.COOP.PEQUEÑA",
          "href": "https://api.euskadi.eus/procurements/companies/05179"
        }
      }
    },
    {
      "name": "MARIA ESTHER JOSEFINA EDERRA IRURZUN",
      "registrationNumber": "09139",
      "identificationNumber": "15830869S",
      "address": "Calle Koldo Mitxelena",
      "location": {
        "postalCode": "01008",
        "municipality": "Vitoria-Gasteiz",
        "county": "Araba/Álava",
        "municipalityId": "059",
        "countyId": "01"
      },
      "economicActivities": [
        {
          "id": "1.652.1",
          "name": "Farmacias",
          "_links": {
            "self": {
              "name": "Farmacias",
              "href": "https://api.euskadi.eus/procurements/companies/economic-activities/1.652.1"
            }
          }
        }
      ],
      "certificateStartDate": "2024-01-30",
      "certificateEndDate": "2024-07-23",
      "mainEntityOfPage": "https://www.contratacion.euskadi.eus/webkpe00-kperoc/es/ac71aBusquedaRegistrosWar/empresa/09139",
      "_links": {
        "self": {
          "name": "MARIA ESTHER JOSEFINA EDERRA IRURZUN",
          "href": "https://api.euskadi.eus/procurements/companies/09139"
        }
      }
    },
    {
      "name": "PLÁSTICOS ALTA FRECUENCIA, S.L.",
      "registrationNumber": "07630",
      "identificationNumber": "B20924452",
      "address": "Bº Florida, 142 - 2º",
      "location": {
        "postalCode": "20120",
        "municipality": "Hernani",
        "county": "Gipuzkoa",
        "municipalityId": "040",
        "countyId": "20"
      },
      "economicActivities": [
        {
          "id": "1.482.2",
          "name": "Fabricación de artículos acabados de materias plásticas",
          "_links": {
            "self": {
              "name": "Fabricación de artículos acabados de materias plásticas",
              "href": "https://api.euskadi.eus/procurements/companies/economic-activities/1.482.2"
            }
          }
        }
      ],
      "certificateStartDate": "2024-01-29",
      "certificateEndDate": "2024-07-20",
      "object": "LA FABRICACIÓN DE ENVASES DE PLÁSTICOS P.V.C. Y SOLDADO DE ALTA FRECUENCIA",
      "mainEntityOfPage": "https://www.contratacion.euskadi.eus/webkpe00-kperoc/es/ac71aBusquedaRegistrosWar/empresa/07630",
      "_links": {
        "self": {
          "name": "PLÁSTICOS ALTA FRECUENCIA, S.L.",
          "href": "https://api.euskadi.eus/procurements/companies/07630"
        }
      }
    },
    {
      "name": "ARANSA CONSTRUCCION Y OBRA CIVIL, S.A.",
      "registrationNumber": "09373",
      "identificationNumber": "A26011486",
      "address": "CALLE VARA DE REY Nº5 1º ",
      "location": {
        "postalCode": "26003",
        "municipality": "Logroño",
        "county": "Rioja, La",
        "municipalityId": "089",
        "countyId": "26"
      },
      "economicActivities": [
        {
          "id": "1.501.1",
          "name": "Construcción completa, reparación y conservación de edificaciones",
          "_links": {
            "self": {
              "name": "Construcción completa, reparación y conservación de edificaciones",
              "href": "https://api.euskadi.eus/procurements/companies/economic-activities/1.501.1"
            }
          }
        }
      ],
      "certificateStartDate": "2024-01-29",
      "certificateEndDate": "2024-07-29",
      "object": "LA EJECUCIÓN DE CUALQUIER CLASE DE OBRAS, TANTO PARA PARTICULARES COMO PARA ORGANISMOS OFICIALES DEL ESTADO, PROVINCIA O MUNICIPIO, O CUALQUIERA OTRA ENTIDAD PÚBLICA O PRIVADA. COMPRAVENTA DE SOLARES Y TERRENOS URBANOS O RÚSTICOS, SU URBANIZACIÓN Y PARCELACIÓN; PROMOCIÓN DE EDIFICIOS DE TODA CLASE, ASÍ COMO EL ARRENDAMIENTO Y VENTA DE LOS MISMOS, YA SEA EN BLOQUE O POR PARTES.",
      "mainEntityOfPage": "https://www.contratacion.euskadi.eus/webkpe00-kperoc/es/ac71aBusquedaRegistrosWar/empresa/09373",
      "_links": {
        "self": {
          "name": "ARANSA CONSTRUCCION Y OBRA CIVIL, S.A.",
          "href": "https://api.euskadi.eus/procurements/companies/09373"
        }
      }
    },
    {
      "name": "PRYSMA CALIDAD Y MEDIO AMBIENTE, S.A.",
      "registrationNumber": "03551",
      "identificationNumber": "A84251990",
      "address": "C/MANUEL LUNA, Nº 12",
      "location": {
        "postalCode": "28020",
        "municipality": "Madrid",
        "county": "Madrid",
        "municipalityId": "079",
        "countyId": "28"
      },
      "economicActivities": [
        {
          "id": "1.843.9",
          "name": "Otros servicios técnicos n.c.o.p",
          "_links": {
            "self": {
              "name": "Otros servicios técnicos n.c.o.p",
              "href": "https://api.euskadi.eus/procurements/companies/economic-activities/1.843.9"
            }
          }
        }
      ],
      "certificateStartDate": "2024-01-26",
      "certificateEndDate": "2024-07-10",
      "object": "1. LA PRESTACIÓN DE TODO TIPO DE SERVICIOS Y ACTIVIDADES RELACIONADOS CON LA PLANIFICACIÓN, LA ORGANIZACIÓN. LA GESTIÓN DEL CONOCIMIENTO, LA CALIDAD, EL MEDIO AMBIENTE, LA PREVENCIÓN DE RIESGOS LABORALES, LA ÉTICA Y LA RESPONSABILIDAD SOCIAL, LA FIABILIDAD Y LA SEGURIDAD DE PRODUCTOS, PLANTAS INDUSTRIALES, EDIFICACIONES, INFRAESTRUCTURAS E INSTALACIONES FABRILES, DE TRANSPORTES, COMUNICACIONES, SISTEMAS DE INFORMACIÓN, O DE SERVICIOS EN GENERAL. 2. LA REALIZACIÓN DE TODO TIPO DE SERVICIOS Y ACTIVIDADES RELACIONADOS CON LA SUPERVISIÓN, INSPECCIÓN, ENSAYO, CONTROL DE CALIDAD Y CANTIDAD Y, EN GENERAL, CUALQUIER TIPO DE EVALUACIÓN DE CONFORMIDAD DE MATERIAS PRIMAS, ALIMENTOS, BIENES DE CONSUMO, MATERIALES, EQUIPOS, INSTALACIONES E INFRAESTRUCTURAS; DESTINADAS A LA VERIFICACIÓN DEL CUMPLIMIENTO TANTO DE REQUERIMIENTOS LEGALES, COMO DE NORMAS O REFERENCIAS VOLUNTARIAS DE APLICACIÓN",
      "mainEntityOfPage": "https://www.contratacion.euskadi.eus/webkpe00-kperoc/es/ac71aBusquedaRegistrosWar/empresa/03551",
      "_links": {
        "self": {
          "name": "PRYSMA CALIDAD Y MEDIO AMBIENTE, S.A.",
          "href": "https://api.euskadi.eus/procurements/companies/03551"
        }
      }
    },
    {
      "name": "OFITA INTERIORES, S.A.",
      "registrationNumber": "00029",
      "identificationNumber": "A01006568",
      "address": "ESCALMENDI, 3",
      "location": {
        "postalCode": "01013",
        "municipality": "Vitoria-Gasteiz",
        "county": "Araba/Álava",
        "municipalityId": "059",
        "countyId": "01"
      },
      "economicActivities": [
        {
          "id": "1.316.6",
          "name": "Fabricación de mobiliario metálico",
          "_links": {
            "self": {
              "name": "Fabricación de mobiliario metálico",
              "href": "https://api.euskadi.eus/procurements/companies/economic-activities/1.316.6"
            }
          }
        },
        {
          "id": "1.843.2",
          "name": "Servicios técnicos de arquitectura y urbanismo",
          "_links": {
            "self": {
              "name": "Servicios técnicos de arquitectura y urbanismo",
              "href": "https://api.euskadi.eus/procurements/companies/economic-activities/1.843.2"
            }
          }
        }
      ],
      "certificateStartDate": "2024-01-26",
      "certificateEndDate": "2024-07-23",
      "object": "1. LA FABRICACIÓN, COMPRA, VENTA, IMPORTACIÓN, EXPORTACIÓN, ARRENDAMIENTO, ALMACENAMIENTO, DISTRIBUCIÓN DE LOS SIGUIENTES MATERIALES: A. MOBILIARIO DE TODO TIPO DE EMPLAZAMIENTOS DE TRABAJO, YA SEAN COMERCIALES, INDUSTRIALES, PROFESIONALES O PARTICULARES Y DEDICADAS A CUALQUIER TIPO DE ACTIVIDADES. B. MOBILIARIO DE TOD TIPO DE HABITACIONES RESIDENCIALES, YA SEAN DE OCIO, ASISTENCIALES, COMERCIALES, PROFESIONALES O PARTICULARES Y DEDICADAS A CUALQUIER TIPO DE ACTIVIDADES. C. EQUIPAMIENTOS DE TODAS LAS CLASES, INCLUYENDO CUALESQUIERA INSTRUMENTOS Y ACCESORIOS PARA CENTROS DE TRABAJO, RESIDENCIALES O DE CUALQUIER OTRO TIPO. 2. LA PRESTACIÓN DE SERVICIOS Y SOLUCIONES INTEGRALES PARA EL DISEÑO Y EQUIPAMIENTO DE TODO TIPO DE PROYECTOS DE EQUIPAMIENTO Y AMUEBLAMIENTO, DE CUALQUIER CLASE DE CENTRO YA SEA DE TRABAJO, RESIDENCIAL, SANITARIO O EDUCATIVO Y DESTINADO A CUALQUIER ACTIVIDAD, QUE INCLUYEN: A. EL ESTUDIO, BÚSQUEDA Y GESTIÓN DE CENTRO, CEQUIPAMIENTOS E INMUEBLES. B. LA PLANIFICACIÓN Y OPTIMIZACIÓN DE ESPACIOS, MEDIANTE EL DISEÑO DE PROYECTOS Y PERSONALIZADOS, ASÍ COMO LA DIRECCIÓN Y SEGUIMIENTO DE SU EJECUCIÓN. C. EL DISEÑO, CONSULTORÍA, DESARROLLO, GESTIÓN Y EJECUCIÓN DE PROYECTOS (\"LLAVE EN MANO\") DE INTERIORISMO.",
      "mainEntityOfPage": "https://www.contratacion.euskadi.eus/webkpe00-kperoc/es/ac71aBusquedaRegistrosWar/empresa/00029",
      "_links": {
        "self": {
          "name": "OFITA INTERIORES, S.A.",
          "href": "https://api.euskadi.eus/procurements/companies/00029"
        }
      }
    },
    {
      "name": "SUNSTROOM ENGINEERING, S.L.",
      "registrationNumber": "07619",
      "identificationNumber": "B71126619",
      "address": "PLAZA EGUZKI, Nº15",
      "location": {
        "postalCode": "31192",
        "municipality": "Aranguren",
        "county": "Navarra",
        "municipalityId": "023",
        "countyId": "31"
      },
      "economicActivities": [
        {
          "id": "1.843.1",
          "name": "Servicios técnicos de ingeniería",
          "_links": {
            "self": {
              "name": "Servicios técnicos de ingeniería",
              "href": "https://api.euskadi.eus/procurements/companies/economic-activities/1.843.1"
            }
          }
        }
      ],
      "certificateStartDate": "2024-01-25",
      "certificateEndDate": "2024-07-19",
      "object": "A) EL DISEÑO, INSTALACIÓN, MONTAJE, MANTENIMIENTO, COMPRAVENTA, EXPLOTACIÓN EN PROPIEDAD O POR CUENTA DE TERCEROS DE TODO TIPO DE INSTALACIONES DE ENERGÍAS RENOVABLES. B) LA GESTIÓN E INTERMEDIACIÓN EN PROYECTOS PARA LA MATERIALIZACIÓN DE INSTALACIONES IDENTIFICADAS EN EL PUNTO ANTERIOR",
      "mainEntityOfPage": "https://www.contratacion.euskadi.eus/webkpe00-kperoc/es/ac71aBusquedaRegistrosWar/empresa/07619",
      "_links": {
        "self": {
          "name": "SUNSTROOM ENGINEERING, S.L.",
          "href": "https://api.euskadi.eus/procurements/companies/07619"
        }
      }
    },
    {
      "name": "SUNION CALDERON GARCIA MORENO, ABOGADOS, S. L.",
      "registrationNumber": "08018",
      "identificationNumber": "B75179424",
      "address": "PLAZA DEL TXOFRE, 18 BAJO",
      "location": {
        "postalCode": "20001",
        "municipality": "Donostia / San Sebastián",
        "county": "Gipuzkoa",
        "municipalityId": "069",
        "countyId": "20"
      },
      "economicActivities": [
        {
          "id": "1.841",
          "name": "Servicios jurídicos",
          "_links": {
            "self": {
              "name": "Servicios jurídicos",
              "href": "https://api.euskadi.eus/procurements/companies/economic-activities/1.841"
            }
          }
        }
      ],
      "certificateStartDate": "2024-01-24",
      "certificateEndDate": "2024-07-22",
      "object": "PRESTACION DE SERVICIOS JURIDICOS PROPIOS DE LA PROFESIÓN DE ABOGADO, ASÍ COMO EL ASESORAMIENTO EMPRESARIAL EN TODAS SUS FACETAS, BIEN DIRECTAMENTE O A TRAVÉS DE LA PARTICIPACION EN OTRAS SOCIEDADES PROFESIONALES.",
      "mainEntityOfPage": "https://www.contratacion.euskadi.eus/webkpe00-kperoc/es/ac71aBusquedaRegistrosWar/empresa/08018",
      "_links": {
        "self": {
          "name": "SUNION CALDERON GARCIA MORENO, ABOGADOS, S. L.",
          "href": "https://api.euskadi.eus/procurements/companies/08018"
        }
      }
    },
    {
      "name": "MARIA MERCEDES NATIVIDAD ARRATIBEL IBARRURI",
      "registrationNumber": "08873",
      "identificationNumber": "78863287J",
      "address": "C/Zeletabe 8D, 2º A",
      "location": {
        "postalCode": "48220",
        "municipality": "Abadiño",
        "county": "Bizkaia",
        "municipalityId": "001",
        "countyId": "48"
      },
      "economicActivities": [
        {
          "id": "2.826",
          "name": "Personal docente de enseñanzas diversas",
          "_links": {
            "self": {
              "name": "Personal docente de enseñanzas diversas",
              "href": "https://api.euskadi.eus/procurements/companies/economic-activities/2.826"
            }
          }
        },
        {
          "id": "2.863",
          "name": "Periodistas y otros profesionales de la información y la comunicación",
          "_links": {
            "self": {
              "name": "Periodistas y otros profesionales de la información y la comunicación",
              "href": "https://api.euskadi.eus/procurements/companies/economic-activities/2.863"
            }
          }
        },
        {
          "id": "2.899",
          "name": "Otros profesionales",
          "_links": {
            "self": {
              "name": "Otros profesionales",
              "href": "https://api.euskadi.eus/procurements/companies/economic-activities/2.899"
            }
          }
        }
      ],
      "certificateStartDate": "2024-01-23",
      "certificateEndDate": "2024-07-17",
      "object": "OTROS PROFESIONALES. PERIODISTAS Y OTROS PROFESIONALES DE LA INFORMACIÓN Y LA COMUNICACIÓN. PERSONAL DOCENTE DE ENSEÑANZAS DIVERSAS.",
      "mainEntityOfPage": "https://www.contratacion.euskadi.eus/webkpe00-kperoc/es/ac71aBusquedaRegistrosWar/empresa/08873",
      "_links": {
        "self": {
          "name": "MARIA MERCEDES NATIVIDAD ARRATIBEL IBARRURI",
          "href": "https://api.euskadi.eus/procurements/companies/08873"
        }
      }
    }
  ]
}