{
  "totalItems": 9042,
  "totalPages": 905,
  "currentPage": 827,
  "itemsOfPage": 10,
  "items": [
    {
      "name": "COTEGUI, S.A.L.",
      "registrationNumber": "02154",
      "identificationNumber": "A20511804",
      "address": "PL. DE LOS MARINOS, Nº 4 - BAJO",
      "location": {
        "postalCode": "20011",
        "municipality": "Donostia / San Sebastián",
        "county": "Gipuzkoa",
        "municipalityId": "069",
        "countyId": "20"
      },
      "economicActivities": [
        {
          "id": "1.505.4",
          "name": "Colocación y aislamiento fónicos, térmicos y acústicos",
          "_links": {
            "self": {
              "name": "Colocación y aislamiento fónicos, térmicos y acústicos",
              "href": "https://api.euskadi.eus/procurements/companies/economic-activities/1.505.4"
            }
          }
        }
      ],
      "certificateStartDate": "1999-06-28",
      "certificateEndDate": "1999-12-15",
      "object": "EL REVESTIMIENTO DE FACHADAS, COLOCACIÓN DE MATERIAL IMPERMEABILIZANTE EN EDIFICIOS EN GENERAL, VIVIENDAS Y PABELLONES, TANTO DE NUEVA CONSTRUCCIÓN COMO YA CONSTRUÍDOS; COMERCIALIZACIÓN Y VENTA DE PRODUCTOS PARA LA CONSTRUCCIÓN",
      "mainEntityOfPage": "https://www.contratacion.euskadi.eus/webkpe00-kperoc/es/ac71aBusquedaRegistrosWar/empresa/02154",
      "_links": {
        "self": {
          "name": "COTEGUI, S.A.L.",
          "href": "https://api.euskadi.eus/procurements/companies/02154"
        }
      }
    },
    {
      "name": "ASOCIACIÓN ETXEAN LAGUNTZEKO ELKARTEA (E.L.E.)",
      "registrationNumber": "02011",
      "identificationNumber": "G48620223",
      "address": "C/ GORDÓNIZ, Nº 2 - BAJO",
      "location": {
        "postalCode": "48011",
        "municipality": "Bilbao",
        "county": "Bizkaia",
        "municipalityId": "020",
        "countyId": "48"
      },
      "economicActivities": [
        {
          "id": "1.952",
          "name": "Asistencia y servicios sociales en centros no residenciales",
          "_links": {
            "self": {
              "name": "Asistencia y servicios sociales en centros no residenciales",
              "href": "https://api.euskadi.eus/procurements/companies/economic-activities/1.952"
            }
          }
        }
      ],
      "certificateStartDate": "1999-06-25",
      "certificateEndDate": "1999-12-02",
      "object": "LA AYUDA A PERSONAS QUE BIEN POR SU EDAD O CONDICIÓN FÍSICA, NO PUEDEN VALERSE POR SI MISMAS. LA ASOCIACIÓN PARA EL CUMPLIMIENTO DE SUS FINES PODRÁ:\r\n\r\n* DESARROLLAR ACTIVIDADES ECONÓMICAS DE TODO TIPO, ENCAMINADAS A LA REALIZACIÓN DE SUS FINES, O ALLEGAR RECURSOS CON ESE OBJETIVO.\r\n\r\n* ADQUIRIR Y POSEER BIENES DE TODAS CLASES Y POR CUALQUIER TÍTULO ASÍ COMO CELEBRAR ACTOS Y CONTRATOS DE TODO GÉNERO.\r\n\r\n* EJERCITAR TODA CLASE DE ACCIONES CONFORME A LAS LEYES O A SUS ESTATUTOS.\r\n\r\nLa asociación desarrollará su actividad principalmente en el ámbito del Territorio Histórico de Bizkaia.\r\n",
      "mainEntityOfPage": "https://www.contratacion.euskadi.eus/webkpe00-kperoc/es/ac71aBusquedaRegistrosWar/empresa/02011",
      "_links": {
        "self": {
          "name": "ASOCIACIÓN ETXEAN LAGUNTZEKO ELKARTEA (E.L.E.)",
          "href": "https://api.euskadi.eus/procurements/companies/02011"
        }
      }
    },
    {
      "name": "FOTOCOMPOSICIÓN DIDOT, S.A.",
      "registrationNumber": "00856",
      "identificationNumber": "A48120539",
      "address": "C/ NERVIÓN, Nº 3 - 6º.",
      "location": {
        "postalCode": "48001",
        "municipality": "Bilbao",
        "county": "Bizkaia",
        "municipalityId": "020",
        "countyId": "48"
      },
      "economicActivities": [
        {
          "id": "1.476.1",
          "name": "Edición de libros",
          "_links": {
            "self": {
              "name": "Edición de libros",
              "href": "https://api.euskadi.eus/procurements/companies/economic-activities/1.476.1"
            }
          }
        }
      ],
      "certificateStartDate": "1999-06-23",
      "certificateEndDate": "1999-11-24",
      "object": "LA REALIZACIÓN DE TODA CLASE DE TRABAJOS DE FOTOCOMPOSICIÓN, REPRODUCCIÓN, IMPRESIÓN Y ENCUADERNACIÓN",
      "mainEntityOfPage": "https://www.contratacion.euskadi.eus/webkpe00-kperoc/es/ac71aBusquedaRegistrosWar/empresa/00856",
      "_links": {
        "self": {
          "name": "FOTOCOMPOSICIÓN DIDOT, S.A.",
          "href": "https://api.euskadi.eus/procurements/companies/00856"
        }
      }
    },
    {
      "name": "MAQUINARIA, DEPURACIÓN Y SERVICIOS, S.A. (MADESA)",
      "registrationNumber": "01084",
      "identificationNumber": "A08640039",
      "address": "CASA GOTSEMS",
      "location": {
        "postalCode": "08281",
        "municipality": "Sant Pere Sallavinera",
        "county": "Barcelona",
        "municipalityId": "189",
        "countyId": "08"
      },
      "economicActivities": [
        {
          "id": "1.501.1",
          "name": "Construcción completa, reparación y conservación de edificaciones",
          "_links": {
            "self": {
              "name": "Construcción completa, reparación y conservación de edificaciones",
              "href": "https://api.euskadi.eus/procurements/companies/economic-activities/1.501.1"
            }
          }
        },
        {
          "id": "1.501.2",
          "name": "Construcción completa, reparación y conservación obras civiles",
          "_links": {
            "self": {
              "name": "Construcción completa, reparación y conservación obras civiles",
              "href": "https://api.euskadi.eus/procurements/companies/economic-activities/1.501.2"
            }
          }
        },
        {
          "id": "1.843.1",
          "name": "Servicios técnicos de ingeniería",
          "_links": {
            "self": {
              "name": "Servicios técnicos de ingeniería",
              "href": "https://api.euskadi.eus/procurements/companies/economic-activities/1.843.1"
            }
          }
        }
      ],
      "certificateStartDate": "1999-06-07",
      "certificateEndDate": "1999-11-21",
      "object": "LA VENTA Y/O FABRICACIÓN DE MAQUINARIA Y PREFABRICADOS PARA EL TRATAMIENTO Y DEPURACIÓN DE AGUAS RESIDUALES Y BLANCAS, Y EN GENERAL LA MEJORA DEL MEDIO AMBIENTE. LA CONSTRUCCIÓN, COMPRAVENTA Y ARRIENDO DE EDIFICIOS, LOCALES, VIVIENDAS Y TODA CLASE DE FINCAS RÚSTICAS Y URBANAS Y OBRAS PÚBLICAS",
      "mainEntityOfPage": "https://www.contratacion.euskadi.eus/webkpe00-kperoc/es/ac71aBusquedaRegistrosWar/empresa/01084",
      "_links": {
        "self": {
          "name": "MAQUINARIA, DEPURACIÓN Y SERVICIOS, S.A. (MADESA)",
          "href": "https://api.euskadi.eus/procurements/companies/01084"
        }
      }
    },
    {
      "name": "CONSTRUCCIONES ONRO, S.A.",
      "registrationNumber": "00072",
      "identificationNumber": "A48092233",
      "address": "C/ HURTADO DE AMÉZAGA, Nº 27 - 8º. DPTO.: 7.",
      "location": {
        "postalCode": "48008",
        "municipality": "Bilbao",
        "county": "Bizkaia",
        "municipalityId": "020",
        "countyId": "48"
      },
      "economicActivities": [
        {
          "id": "1.501.1",
          "name": "Construcción completa, reparación y conservación de edificaciones",
          "_links": {
            "self": {
              "name": "Construcción completa, reparación y conservación de edificaciones",
              "href": "https://api.euskadi.eus/procurements/companies/economic-activities/1.501.1"
            }
          }
        },
        {
          "id": "1.507",
          "name": "Construcción, reparación y conservación de toda clase obras",
          "_links": {
            "self": {
              "name": "Construcción, reparación y conservación de toda clase obras",
              "href": "https://api.euskadi.eus/procurements/companies/economic-activities/1.507"
            }
          }
        }
      ],
      "certificateStartDate": "1999-06-02",
      "certificateEndDate": "1999-11-14",
      "object": "CONSTRUCCIÓN DE EDIFICIOS, COMPRAVENTA DE FINCAS, CONTRATO Y EJECUCIÓN DE OBRAS PROPIAS O AJENAS Y EN GENERAL TODAS LAS ACTIVIDADES RELACIONADAS CON LA CONSTRUCCIÓN",
      "mainEntityOfPage": "https://www.contratacion.euskadi.eus/webkpe00-kperoc/es/ac71aBusquedaRegistrosWar/empresa/00072",
      "_links": {
        "self": {
          "name": "CONSTRUCCIONES ONRO, S.A.",
          "href": "https://api.euskadi.eus/procurements/companies/00072"
        }
      }
    },
    {
      "name": "ALBIA RESONANCIA, S.A.",
      "registrationNumber": "02142",
      "identificationNumber": "A48270565",
      "address": "C/ RAFAELA YBARRA, Nº 25.",
      "location": {
        "postalCode": "48014",
        "municipality": "Bilbao",
        "county": "Bizkaia",
        "municipalityId": "020",
        "countyId": "48"
      },
      "economicActivities": [
        {
          "id": "1.942.1",
          "name": "Consultorios médicos, centros de socorro sanitarios y urgencias",
          "_links": {
            "self": {
              "name": "Consultorios médicos, centros de socorro sanitarios y urgencias",
              "href": "https://api.euskadi.eus/procurements/companies/economic-activities/1.942.1"
            }
          }
        }
      ],
      "certificateStartDate": "1999-05-20",
      "certificateEndDate": "1999-11-11",
      "object": "\r\n\r\na) LA PRESTACIÓN, SIEMPRE CON EL TITULAR TITULADO ADECUADO Y CONFORME A LAS NORMAS LEGALES, DE TODA CLASE DE SERVICIOS MÉDICOS O SANITARIOS, ASÍ COMO AQUELLOS QUE CON TALES ACTIVIDADES SE RELACIONEN.\r\n\r\nb) LA ADQUISICIÓN, VENTA, ARRENDAMIENTO Y EXPLOTACIÓN DE CUALQUIER MODALIDAD DE CLÍNICAS, RESIDENCIAS Y CUALESQUIERA BIENES INMUEBLES.\r\n\r\nd) LA ADQUISICIÓN, DISFRUTE Y ENAJENACIÓN DE TODA CLASE DE VALORES MOBILIARIOS ",
      "mainEntityOfPage": "https://www.contratacion.euskadi.eus/webkpe00-kperoc/es/ac71aBusquedaRegistrosWar/empresa/02142",
      "_links": {
        "self": {
          "name": "ALBIA RESONANCIA, S.A.",
          "href": "https://api.euskadi.eus/procurements/companies/02142"
        }
      }
    },
    {
      "name": "GAMA-REPROGRAF LASER, S.A.",
      "registrationNumber": "00737",
      "identificationNumber": "A26018507",
      "address": "C/ LABRADORES, Nº 8 - 12.",
      "location": {
        "postalCode": "26005",
        "municipality": "Logroño",
        "county": "Rioja, La",
        "municipalityId": "089",
        "countyId": "26"
      },
      "economicActivities": [
        {
          "id": "1.474",
          "name": "Artes gráficas (impresión gráfica)",
          "_links": {
            "self": {
              "name": "Artes gráficas (impresión gráfica)",
              "href": "https://api.euskadi.eus/procurements/companies/economic-activities/1.474"
            }
          }
        },
        {
          "id": "1.475",
          "name": "Actividades anexas a las artes gráficas",
          "_links": {
            "self": {
              "name": "Actividades anexas a las artes gráficas",
              "href": "https://api.euskadi.eus/procurements/companies/economic-activities/1.475"
            }
          }
        }
      ],
      "certificateStartDate": "1999-05-17",
      "certificateEndDate": "1999-09-30",
      "object": "LA REALIZACIÓN DE TODO TIPO DE ELEMENTOS (FOTOLITOS, CLICHÉS DE ZINC, POLÍMEROS, SEPARACIONES DE COLOR) EMPLEADOS EN LA IMPRESIÓN GRÁFICA, EN SUS DIFERENTES SISTEMAS DE TIPOGRAFÍA, FLEXOGRAFÍA, SERIGRAFÍA, OFFSET Y HUECOGRABADO",
      "mainEntityOfPage": "https://www.contratacion.euskadi.eus/webkpe00-kperoc/es/ac71aBusquedaRegistrosWar/empresa/00737",
      "_links": {
        "self": {
          "name": "GAMA-REPROGRAF LASER, S.A.",
          "href": "https://api.euskadi.eus/procurements/companies/00737"
        }
      }
    },
    {
      "name": "FACTORY PRODUCCIONES MUSICALES, S.L.",
      "registrationNumber": "02138",
      "identificationNumber": "B48810618",
      "address": "PARQUE IND. EL PÁRAMO, PABELLÓN 2",
      "location": {
        "postalCode": "48800",
        "municipality": "Balmaseda",
        "county": "Bizkaia",
        "municipalityId": "090",
        "countyId": "48"
      },
      "economicActivities": [
        {
          "id": "1.982.4",
          "name": "Otras atracciones propias de ferias y verbena fuera de establecimiento",
          "_links": {
            "self": {
              "name": "Otras atracciones propias de ferias y verbena fuera de establecimiento",
              "href": "https://api.euskadi.eus/procurements/companies/economic-activities/1.982.4"
            }
          }
        },
        {
          "id": "1.983",
          "name": "Agencias de colocación de artistas",
          "_links": {
            "self": {
              "name": "Agencias de colocación de artistas",
              "href": "https://api.euskadi.eus/procurements/companies/economic-activities/1.983"
            }
          }
        }
      ],
      "certificateStartDate": "1999-05-14",
      "certificateEndDate": "1999-09-10",
      "object": "EL ALQUILER Y VENTA DE LUZ, SONIDO, EQUIPOS PARA PARQUES INFANTILES, REPRESENTACIONES ARTÍSTICAS Y DEPORTIVAS, EDICIÓN DE DISCOS Y OBRAS MUSICALES CON PARTICIPACIÓN EN ACTOS SOCIALES",
      "mainEntityOfPage": "https://www.contratacion.euskadi.eus/webkpe00-kperoc/es/ac71aBusquedaRegistrosWar/empresa/02138",
      "_links": {
        "self": {
          "name": "FACTORY PRODUCCIONES MUSICALES, S.L.",
          "href": "https://api.euskadi.eus/procurements/companies/02138"
        }
      }
    },
    {
      "name": "CALDERERÍA JUMAN, S.L.",
      "registrationNumber": "02139",
      "identificationNumber": "B48186399",
      "address": "C/ KAREAGA, Nº 103.",
      "location": {
        "postalCode": "48903",
        "municipality": "Barakaldo",
        "county": "Bizkaia",
        "municipalityId": "013",
        "countyId": "48"
      },
      "economicActivities": [
        {
          "id": "1.315",
          "name": "Construcción de grandes depósitos y calderería gruesa",
          "_links": {
            "self": {
              "name": "Construcción de grandes depósitos y calderería gruesa",
              "href": "https://api.euskadi.eus/procurements/companies/economic-activities/1.315"
            }
          }
        }
      ],
      "certificateStartDate": "1999-05-14",
      "certificateEndDate": "1999-10-28",
      "object": "LA ACTIVIDAD DE FABRICACIÓN DE PRODUCTOS SIDERÚRGICOS DE TRANSFORMACIÓN, TUBOS Y ACEROS SOLDADOS Y SIN SOLDADURA, CALDERERÍA, ESTRUCTURAS METÁLICAS, PIEZAS DE HIERRO FUNDIDAS, MONTAJES Y ESTRUCTURAS METÁLICAS  ",
      "mainEntityOfPage": "https://www.contratacion.euskadi.eus/webkpe00-kperoc/es/ac71aBusquedaRegistrosWar/empresa/02139",
      "_links": {
        "self": {
          "name": "CALDERERÍA JUMAN, S.L.",
          "href": "https://api.euskadi.eus/procurements/companies/02139"
        }
      }
    },
    {
      "name": "MARTÍN GARCÉS OTERO",
      "registrationNumber": "01044",
      "identificationNumber": "14944267V",
      "address": "C/ ARABELLA, 44 - 2º D",
      "location": {
        "postalCode": "48007",
        "municipality": "Bilbao",
        "county": "Bizkaia",
        "municipalityId": "020",
        "countyId": "48"
      },
      "economicActivities": [
        {
          "id": "1.619.2",
          "name": "Venta al por mayor de aparatos e instrumentos médicos, ortopédicos, ópticos",
          "_links": {
            "self": {
              "name": "Venta al por mayor de aparatos e instrumentos médicos, ortopédicos, ópticos",
              "href": "https://api.euskadi.eus/procurements/companies/economic-activities/1.619.2"
            }
          }
        }
      ],
      "certificateStartDate": "1999-05-06",
      "certificateEndDate": "1999-10-16",
      "object": "LA VENTA AL POR MAYOR DE APARATOS DE TERAPÉUTICA",
      "mainEntityOfPage": "https://www.contratacion.euskadi.eus/webkpe00-kperoc/es/ac71aBusquedaRegistrosWar/empresa/01044",
      "_links": {
        "self": {
          "name": "MARTÍN GARCÉS OTERO",
          "href": "https://api.euskadi.eus/procurements/companies/01044"
        }
      }
    }
  ]
}