{
  "totalItems": 9042,
  "totalPages": 905,
  "currentPage": 760,
  "itemsOfPage": 10,
  "items": [
    {
      "name": "GRÁFICAS BERRIZ, S.L.",
      "registrationNumber": "00171",
      "identificationNumber": "B48106025",
      "address": "Polígono Ugaldeguren, 2 - Parcela 15, Pabellón 17",
      "location": {
        "postalCode": "48170",
        "municipality": "Zamudio",
        "county": "Bizkaia",
        "municipalityId": "905",
        "countyId": "48"
      },
      "economicActivities": [
        {
          "id": "1.474",
          "name": "Artes gráficas (impresión gráfica)",
          "_links": {
            "self": {
              "name": "Artes gráficas (impresión gráfica)",
              "href": "https://api.euskadi.eus/procurements/companies/economic-activities/1.474"
            }
          }
        },
        {
          "id": "1.476.1",
          "name": "Edición de libros",
          "_links": {
            "self": {
              "name": "Edición de libros",
              "href": "https://api.euskadi.eus/procurements/companies/economic-activities/1.476.1"
            }
          }
        }
      ],
      "certificateStartDate": "2008-08-12",
      "certificateEndDate": "2008-12-24",
      "object": "ARTES GRÁFICAS, IMPRESIÓN DE TODO TIPO Y TODO LO RELACIONADO CON LA IMPRENTA",
      "mainEntityOfPage": "https://www.contratacion.euskadi.eus/webkpe00-kperoc/es/ac71aBusquedaRegistrosWar/empresa/00171",
      "_links": {
        "self": {
          "name": "GRÁFICAS BERRIZ, S.L.",
          "href": "https://api.euskadi.eus/procurements/companies/00171"
        }
      }
    },
    {
      "name": "T.C.C. TÉCNICOS DE CONSTRUCCIONES Y CONTRATAS, S.L.",
      "registrationNumber": "03326",
      "identificationNumber": "B48855761",
      "address": "C/ SAN VICENTE 8, EDIF. ALBIA I, 6ª PLANTA",
      "location": {
        "postalCode": "48001",
        "municipality": "Bilbao",
        "county": "Bizkaia",
        "municipalityId": "020",
        "countyId": "48"
      },
      "economicActivities": [
        {
          "id": "1.501.1",
          "name": "Construcción completa, reparación y conservación de edificaciones",
          "_links": {
            "self": {
              "name": "Construcción completa, reparación y conservación de edificaciones",
              "href": "https://api.euskadi.eus/procurements/companies/economic-activities/1.501.1"
            }
          }
        }
      ],
      "certificateStartDate": "2008-08-11",
      "certificateEndDate": "2009-01-10",
      "object": "A) LA COMPRA , PROMOCIÓN, CONSTRUCCIÓN O EXPLOTACIÓN DE INMUEBLES, ASÍ COMO SU VENTA POSTERIOR; LA CONSTRUCCIÓN O EXPLOTACIÓN DE INMUEBLES; ASÍ COMO SU VENTA POSTERIOR; LA CONSTRUCCIÓN, POR CUENTA PROPIA O AJENA, ASÍ COMO LA URBANIZACIÓN DE TODA CLASE DE TERRENOS. B) LA ADQUISICIÓN, POSESIÓN, EXPLOTACIÓN, CESIÓN, USO, ARRENDAMIENTO, DE ACTIVOS NO FINANCIEROS, DISPOSICIÓN Y TRANSMISIÓN BAJO CUALQUIER FORMA JURÍDICA DE PROPIEDADES YA SEAN RÚSTICAS, URBANAS O INDUSTRIALES Y DE LAS INSTALACIONES QUE SOBRE LAS MISMAS PUDIERAN EXISTIR, TODO ELLO SIN INCIDIR EN ACTIVIDADES U OPERACIONES REGULADAS POR LA LEGISLACIÓN DE INSTITUCIONES DE INVERSIÓN COLECTIVA Y LEY DE MERCADO DE VALORES. C) LA EXPLOTACIÓN, TANTO POR CUENTA PROPIA COMO DE TERCEROS, DE CUALQUIER FINCA O INSTALAICÓN AGROPECUARIA, AGRICOLA O GANADERA. D) LA PROMOCIÓN DE TODA CLASE DE PROYECTOS O EMPRESAS COMERCIALES O INDUSTRIALES EN GENERAL. E) TODA CLASE DE OPERACIONES INMOBILIARIAS SOBRE FINCAS RÚSTICAS O URBANAS, PROMOCIÓN DE CONTRATOS O REALIZACIONES DE PARCELACIONES, URBANIZACIONES, CONSTRUCCIONES Y OBRAS PRIVADAS O PÚBLICAS, LA VENTA, HIPOTECA, ARRENDAMIENTO, TRANSFORMACIÓN, MEJORA, ADMINISTRACIÓN, PUESTA EN EXPLOTACIÓN Y LA EXPLOTACIÓN MISMA, DE FINCAS RÚSTICAS Y URBANAS, LA ORGANIZACIÓN PROMOCIÓN Y ASESORAMIENTO SALVO OPERACIONES RESERVADAS A LA BANCA Y GESTIÓN EN SU CASO DE SOCIEDADES, COOPERATIVAS, COMUNIDADES, ENTIDADES, GRUPOS O EMPRESAS PARTICULARES ORIENTADAS A LA CONSTRUCCIÓN O URBANIZACIÓN, LA PLANIFICACIÓN Y ESTUDIO DE MERCADOS EN MATERIA INMOBILIARIA",
      "mainEntityOfPage": "https://www.contratacion.euskadi.eus/webkpe00-kperoc/es/ac71aBusquedaRegistrosWar/empresa/03326",
      "_links": {
        "self": {
          "name": "T.C.C. TÉCNICOS DE CONSTRUCCIONES Y CONTRATAS, S.L.",
          "href": "https://api.euskadi.eus/procurements/companies/03326"
        }
      }
    },
    {
      "name": "DADE BEHRING, S.A.",
      "registrationNumber": "01970",
      "identificationNumber": "A60805769",
      "address": "C/ QUATRE CAMINS, Nº 17 - 23.",
      "location": {
        "postalCode": "08022",
        "municipality": "Barcelona",
        "county": "Barcelona",
        "municipalityId": "019",
        "countyId": "08"
      },
      "economicActivities": [
        {
          "id": "1.614.1",
          "name": "Venta al por mayor de productos farmacéuticos y medicamentos",
          "_links": {
            "self": {
              "name": "Venta al por mayor de productos farmacéuticos y medicamentos",
              "href": "https://api.euskadi.eus/procurements/companies/economic-activities/1.614.1"
            }
          }
        }
      ],
      "certificateStartDate": "2008-07-18",
      "certificateEndDate": "2008-11-26",
      "object": "\r\n\r\na) LA FABRICACIÓN Y VENTA DE PRODUCTOS QUÍMICOS RELACIONADOS CON LA MEDICINA Y CON LOS ANÁLISIS CLÍNICOS.\r\n\r\nb) EL COMERCIO DE INSTRUMENTACIÓN CIENTÍFICA, APARATOS, UTILLAJE, MATERIAL FUNGIBLE, REACTIVOS Y MOBILIARIO DE USO EN LA INDUSTRIA Y EN LABORATORIOS DE INVESTIGACIÓN, ANÁLISIS, SÍNTESIS Y CONTROL DE CALIDAD, FÍSICOS, CLÍNICOS, FARMACÉUTICOS E INDUSTRIALES.\r\n\r\nc) EL COMERCIO DE SISTEMAS Y EQUIPOS INFORMÁTICOS PARA USO CLÍNICO, GESTIÓN HOSPITALARIA Y DE LABORATORIOS",
      "mainEntityOfPage": "https://www.contratacion.euskadi.eus/webkpe00-kperoc/es/ac71aBusquedaRegistrosWar/empresa/01970",
      "_links": {
        "self": {
          "name": "DADE BEHRING, S.A.",
          "href": "https://api.euskadi.eus/procurements/companies/01970"
        }
      }
    },
    {
      "name": "SARKIS, S.A.",
      "registrationNumber": "02228",
      "identificationNumber": "A01040799",
      "address": "C/ PORTAL DE GAMARRA, 1. OFICINA 112. EDIFICIO DEBA",
      "location": {
        "postalCode": "01013",
        "municipality": "Vitoria-Gasteiz",
        "county": "Araba/Álava",
        "municipalityId": "059",
        "countyId": "01"
      },
      "economicActivities": [
        {
          "id": "1.751.2",
          "name": "Guarda y custodia de vehículos en \"parkings\"",
          "_links": {
            "self": {
              "name": "Guarda y custodia de vehículos en \"parkings\"",
              "href": "https://api.euskadi.eus/procurements/companies/economic-activities/1.751.2"
            }
          }
        },
        {
          "id": "1.833.2",
          "name": "Promoción de edificaciones",
          "_links": {
            "self": {
              "name": "Promoción de edificaciones",
              "href": "https://api.euskadi.eus/procurements/companies/economic-activities/1.833.2"
            }
          }
        },
        {
          "id": "1.834",
          "name": "Servicios relativos a la propiedad inmobiliaria e industrial",
          "_links": {
            "self": {
              "name": "Servicios relativos a la propiedad inmobiliaria e industrial",
              "href": "https://api.euskadi.eus/procurements/companies/economic-activities/1.834"
            }
          }
        },
        {
          "id": "1.861.2",
          "name": "Alquiler de locales industriales y otros alquileres n.c.o.p",
          "_links": {
            "self": {
              "name": "Alquiler de locales industriales y otros alquileres n.c.o.p",
              "href": "https://api.euskadi.eus/procurements/companies/economic-activities/1.861.2"
            }
          }
        }
      ],
      "certificateStartDate": "2008-07-18",
      "certificateEndDate": "2009-01-10",
      "object": "\r\na) LA REALIZACIÓN DE ESTUDIOS, DICTÁMENES, INFORMES, PROYECTOS Y PLANOS TÉCNICOS RELACIONADOS CON LA INGENIERÍA Y ARQUITECTURA CIVIL EN SUS DIVERSAS RAMAS, ASÍ COMO EL ASESORAMIENTO Y LA GESTIÓN DE LOS MEDIOS AUXILIARES Y NECESARIOS PARA LA REALIZACIÓN DE AQUELLAS.\r\n\r\nb) REALIZACIÓN DE DISEÑOS, PROTOTIPOS Y APARATOS TÉCNICOS RELACIONADOS CON LA INGENIERÍA EN GENERAL, ASÍ COMO LA FABRICACIÓN, MONTAJE Y COMERCIALIZACIÓN DE LOS MISMOS Y DE CONSTRUCCIONES METÁLICAS DE TODA CLASE.\r\n\r\nc) CONSTRUCCIÓN Y EDIFICACIÓN DE OBRAS CIVILES, ASÍ COMO DE TODA CLASE DE INMUEBLES.\r\n\r\nd) INFORMACIÓN, ASISTENCIA TÉCNICA, CALIFICACIÓN, PROYECCIÓN INDUSTRIAL, ASESORAMIENTO Y PROMOCIÓN DE EMPRESAS Y NEGOCIOS INDUSTRIALES E INMOBILIARIAS BAJO CUALQUIER MODALIDAD CONTRACTUAL, LA EXPLOTACIÓN DE EDIFICIOS, FINCAS Y CONSTRUCCIÓN DE TODA CLASE.\r\n\r\ne) TRANSPORTE, IMPORTACIÓN Y EXPORTACIÓN DE TODA CLASE DE PRODUCTOS Y MATERIALES QUE ESTÉN RELACIONADOS CON EL SECTOR DE LA ARQUITECTURA E INGENIERÍA CIVIL.\r\n\r\nf) REPRESENTACIÓN EN GENERAL, TANTO DE FIRMAS NACIONALES COMO EXTRANJERAS.\r\n\r\ng) URBANIZACIÓN DE TERRENOS.\r\n\r\nh) PROMOCIÓN INMOBILIARIA, ENTENDIENDO POR TAL LA PRÁCTICA DE CUANTAS GESTIONES DESEMBOQUEN EN LA VENTA DE INMUEBLES, COMO POR EJEMPLO: LA GESTACIÓN DE PROYECTOS, ADQUISICIÓN DE SOLARES, SUBCONTRATACIÓN DE OBRAS Y VENTA DE UNIDADES INMOBILIARIAS.\r\n\r\ni) REALIZACIÓN DE AUDITORÍAS, ESTUDIOS E INFORMES ECONÓMICOS, FINANCIEROS, COMERCIALES, SOCIALES Y LABORALES",
      "mainEntityOfPage": "https://www.contratacion.euskadi.eus/webkpe00-kperoc/es/ac71aBusquedaRegistrosWar/empresa/02228",
      "_links": {
        "self": {
          "name": "SARKIS, S.A.",
          "href": "https://api.euskadi.eus/procurements/companies/02228"
        }
      }
    },
    {
      "name": "FUNDACIÓN ROBOTIKER",
      "registrationNumber": "02323",
      "identificationNumber": "G48870406",
      "address": "PARQUE TECNOLÓGICO DE ZAMUDIO. EDIFICIO 202",
      "location": {
        "postalCode": "48000",
        "municipality": "Zamudio",
        "county": "Bizkaia",
        "municipalityId": "905",
        "countyId": "48"
      },
      "economicActivities": [
        {
          "id": "1.936",
          "name": "Investigación científica y técnica",
          "_links": {
            "self": {
              "name": "Investigación científica y técnica",
              "href": "https://api.euskadi.eus/procurements/companies/economic-activities/1.936"
            }
          }
        }
      ],
      "certificateStartDate": "2008-07-18",
      "certificateEndDate": "2008-02-03",
      "object": "LA PROMOCIÓN Y EL DESARROLLO DE CUANTAS ACTIVIDADES DE INVESTIGACIÓN CIENTÍFICA Y DESARROLLO E IMPULSO A LA INNOVACIÓN TECNOLÓGICA SEAN DE INTERÉS PARA LAS EMPRESAS EN GENERAL.\r\n\r\nPARA LA CONSECUCIÓN PODRÁ ABORDAR LA SIGUIENTE TIPOLOGÍA DE ACTIVIDADES:\r\n\r\nA) CAPTACIÓN, DISEÑO, GESTIÓN, DESARROLLO Y EJECUCIÓN DE PROYECTOS Y PROGRAMAS DE INVESTIGACIÓN Y DESARROLLO TECNOLÓGICO, FUNDAMENTALMENTE EN LOS CAMPOS DE FABRICACIÓN,  PRODUCCIÓN, TECNOLOGÍAS Y SISTEMAS DE INFORMACIÓN, Y COMUNICACIOINES Y TELECOMUNICACIONES.\r\n\r\nB)APOYAR, IMPULSAR Y FACILITAR A LAS EMPRESAS EL USO DE LA TECNOLOGÍA COMO HERRAMIENTA DE MEJORA DE SU COMPETITIVIDAD.\r\n\r\nC) DIFUSIÓN DE LA INNOVACIÓN Y TRANSFERENCIA DE TECNOLOGÍA.\r\n\r\nD) APOYAR, FOMENTAR Y REALIZAR ACCIONES DE FORMACIÓN E INFORMACIÓN, PROSPECTIVA Y ANTENA TECNOLÓGICA, ASÍ COMO SERVICIOS  DE DOCUMENTACIÓN, DISEÑO Y ASISTENCIA TECNOLÓGICA.\r\n\r\nE) CREACIÓN, DESARROLLO, GESTIÓN Y, EN SU CASO, PARTICIPACIÓN EN CUANTAS ENTIDADES, INSTITUTOS, LABORATORIOS Y UNIDADES DE GESTIÓN SEA CONVENIENTE PARA EL ÓPTIMO DESEMPEÑO DE LOS FINES FUNDACIONALES.\r\n\r\nF) Y, EN GENERAL, LA REALIZACIÓN DE CUANTAS ACTIVIDADES LE SEAN ENCOMENDADAS POR SUS ÓRGANOS DE GOBIERNO DENTRO DEL OBJETO Y FINALIDAD GENERAL DE LA FUNDACIÓN    ",
      "mainEntityOfPage": "https://www.contratacion.euskadi.eus/webkpe00-kperoc/es/ac71aBusquedaRegistrosWar/empresa/02323",
      "_links": {
        "self": {
          "name": "FUNDACIÓN ROBOTIKER",
          "href": "https://api.euskadi.eus/procurements/companies/02323"
        }
      }
    },
    {
      "name": "CIUDAD-PARQUE S.L.",
      "registrationNumber": "03567",
      "identificationNumber": "B01276344",
      "address": "Portal de Zurbano, 3. Pab. 3B",
      "location": {
        "postalCode": "01013",
        "municipality": "Vitoria-Gasteiz",
        "county": "Araba/Álava",
        "municipalityId": "059",
        "countyId": "01"
      },
      "economicActivities": [
        {
          "id": "1.619.1",
          "name": "Venta al por mayor de juguetes y artículos de deporte",
          "_links": {
            "self": {
              "name": "Venta al por mayor de juguetes y artículos de deporte",
              "href": "https://api.euskadi.eus/procurements/companies/economic-activities/1.619.1"
            }
          }
        }
      ],
      "certificateStartDate": "2008-07-11",
      "certificateEndDate": "2008-10-03",
      "object": "TANO DIRECTAMENTE COMO DE FORMA INDIRECTA, MEDIANTE LA TITULARIDAD DE ACCIONES O PARTICIPACIONES EN SOCIEDADES CON OBJETO IDÉNTICO, LA REALIZACIÓN DE PROYECTOS, PRODUCCIÓN, COMERCIALIZACIÓN, MONTAJE, INSTALACIÓN, MANTENIMIENTO DE JUEGOS INFANTILES, MOBILIARIO URBANO Y DE ARTÍCULOS DEPORTIVOS O EQUIPAMIENTO DE USO EXTERIOR. ASÍ COMO A SERVICIOS AUXILIARES DE MECANIZACIÓN, TRATAMIENTO Y BARNIZADO DE MADERA Y AFINES",
      "mainEntityOfPage": "https://www.contratacion.euskadi.eus/webkpe00-kperoc/es/ac71aBusquedaRegistrosWar/empresa/03567",
      "_links": {
        "self": {
          "name": "CIUDAD-PARQUE S.L.",
          "href": "https://api.euskadi.eus/procurements/companies/03567"
        }
      }
    },
    {
      "name": "JOMI, S.A.",
      "registrationNumber": "01033",
      "identificationNumber": "A20068359",
      "address": "C/ BARRIO ANAKA. EDIFICIO PAOTXA - LOCAL: 57.",
      "location": {
        "postalCode": "20300",
        "municipality": "Irun",
        "county": "Gipuzkoa",
        "municipalityId": "045",
        "countyId": "20"
      },
      "economicActivities": [
        {
          "id": "1.474.1",
          "name": "Impresión de textos o imágenes por cualquier procedimiento",
          "_links": {
            "self": {
              "name": "Impresión de textos o imágenes por cualquier procedimiento",
              "href": "https://api.euskadi.eus/procurements/companies/economic-activities/1.474.1"
            }
          }
        }
      ],
      "certificateStartDate": "2008-07-07",
      "certificateEndDate": "2008-11-20",
      "object": "LA ACTIVIDAD O TRABAJO RELACIONADO CON LAS ARTES GRÁFICAS, LA IMPRESIÓN CON PRENSA O CON CUALQUIER OTRO SISTEMA DE PRESIÓN, PLANA CILÍNDRICA, PARA PRODUCIR HOJAS IMPRESAS",
      "mainEntityOfPage": "https://www.contratacion.euskadi.eus/webkpe00-kperoc/es/ac71aBusquedaRegistrosWar/empresa/01033",
      "_links": {
        "self": {
          "name": "JOMI, S.A.",
          "href": "https://api.euskadi.eus/procurements/companies/01033"
        }
      }
    },
    {
      "name": "EVAI S.A.",
      "registrationNumber": "01088",
      "identificationNumber": "A20072773",
      "address": "Bº SANTIAGO, S/N",
      "location": {
        "postalCode": "20809",
        "municipality": "Aia",
        "county": "Gipuzkoa",
        "municipalityId": "016",
        "countyId": "20"
      },
      "economicActivities": [
        {
          "id": "1.468.1",
          "name": "Fabricación de mobiliario de madera para el hogar",
          "_links": {
            "self": {
              "name": "Fabricación de mobiliario de madera para el hogar",
              "href": "https://api.euskadi.eus/procurements/companies/economic-activities/1.468.1"
            }
          }
        }
      ],
      "certificateStartDate": "2008-07-07",
      "certificateEndDate": "2008-12-24",
      "object": "FABRICACIÓN, COMPRA-VENTA, COMERCIALIZACIÓN, IMPORTACIÓN, EXPORTACIÓN Y DISTRIBUCIÓN DE MUEBLES",
      "mainEntityOfPage": "https://www.contratacion.euskadi.eus/webkpe00-kperoc/es/ac71aBusquedaRegistrosWar/empresa/01088",
      "_links": {
        "self": {
          "name": "EVAI S.A.",
          "href": "https://api.euskadi.eus/procurements/companies/01088"
        }
      }
    },
    {
      "name": "SOFTEC, S.L. SOFTWARE Y TECNOLOGÍA",
      "registrationNumber": "02680",
      "identificationNumber": "B48153498",
      "address": "AVDA. CERVANTES, 51 EDIF. 10-11 4ªPLANTA",
      "location": {
        "postalCode": "48970",
        "municipality": "Basauri",
        "county": "Bizkaia",
        "municipalityId": "015",
        "countyId": "48"
      },
      "economicActivities": [
        {
          "id": "1.615.4",
          "name": "Venta al por mayor de aparatos y material radioeléctrico y electrónico",
          "_links": {
            "self": {
              "name": "Venta al por mayor de aparatos y material radioeléctrico y electrónico",
              "href": "https://api.euskadi.eus/procurements/companies/economic-activities/1.615.4"
            }
          }
        },
        {
          "id": "1.845",
          "name": "Explotación electrónica por cuenta de terceros",
          "_links": {
            "self": {
              "name": "Explotación electrónica por cuenta de terceros",
              "href": "https://api.euskadi.eus/procurements/companies/economic-activities/1.845"
            }
          }
        },
        {
          "id": "1.932.1",
          "name": "Enseñanza de formación y perfeccionamiento profesional no superior",
          "_links": {
            "self": {
              "name": "Enseñanza de formación y perfeccionamiento profesional no superior",
              "href": "https://api.euskadi.eus/procurements/companies/economic-activities/1.932.1"
            }
          }
        }
      ],
      "certificateStartDate": "2008-07-03",
      "certificateEndDate": "2008-10-01",
      "object": "LA PRESTACILÓN DE TODA CLASE DE SERVICIOS RELACIONADOS CON LA INFORMÁTICA Y LA ELECTRÓNICA, TALES COMO PROGRAMACIÓN, ASESORAMIENTO INFORMÁTICO, AUTOMATIZACIÓN DE SISTEMAS, MONITORIZACIÓN, ENSEÑANZA Y PUBLICACIÓN DE OBRAS DE INFORMÁTICA Y ELECTRÓNICA. PODRÁ TAMBIEN DEDICARSE A LA FABRICACIÓN, COMERCIALIZACIÓN Y MANTENIMIENTO  DE EQUPOS Y SISTEMAS INFORMÁTICOS Y ELECTRÓNICOS. EL ARRENDAMIENTO, RENTING, CESIÓN, DEPÓSITO O POR CUALQUIER OTRO TÍTULO LA EXPLOTACIÓN Y COMERCIALIZACIÓN DE TODA CLASE DE EQUIPOS INFORMÁTICOS, ELECTRÓNICOS Y CUALESQUIERA OTROS ELEMENTOS TECNOLÓGICOS    ",
      "mainEntityOfPage": "https://www.contratacion.euskadi.eus/webkpe00-kperoc/es/ac71aBusquedaRegistrosWar/empresa/02680",
      "_links": {
        "self": {
          "name": "SOFTEC, S.L. SOFTWARE Y TECNOLOGÍA",
          "href": "https://api.euskadi.eus/procurements/companies/02680"
        }
      }
    },
    {
      "name": "ADVANCED DYNAMIC SISTEMS, S.L.",
      "registrationNumber": "02990",
      "identificationNumber": "B01348879",
      "address": "PARQUE TECNOL.ALBERT EINSTEIN,14.OFIC.215. EDIF.CEIA. MIÑANO",
      "location": {
        "postalCode": "01510",
        "municipality": "Vitoria-Gasteiz",
        "county": "Araba/Álava",
        "municipalityId": "059",
        "countyId": "01"
      },
      "economicActivities": [
        {
          "id": "1.936",
          "name": "Investigación científica y técnica",
          "_links": {
            "self": {
              "name": "Investigación científica y técnica",
              "href": "https://api.euskadi.eus/procurements/companies/economic-activities/1.936"
            }
          }
        }
      ],
      "certificateStartDate": "2008-07-01",
      "certificateEndDate": "2008-09-07",
      "object": "INVESTIGACIÓN, DESARROLLO, INDUSTRIALIZACIÓN Y COMERCIALIZACIÓN DE EQUIPOS Y SISTEMAS DINÁMICOS PARA APLICACIONES TERRESTRES, NAVALES Y AEROESPACIALES. CUANDO LAS ACTIVIDADES ANTES CITADAS ASÍ LO REQUIERAN SERÁN EJERCITADAS POR MEDIO DE PERSONAL CON TITULACIÓN ESPECÍFICA PARA ELLO",
      "mainEntityOfPage": "https://www.contratacion.euskadi.eus/webkpe00-kperoc/es/ac71aBusquedaRegistrosWar/empresa/02990",
      "_links": {
        "self": {
          "name": "ADVANCED DYNAMIC SISTEMS, S.L.",
          "href": "https://api.euskadi.eus/procurements/companies/02990"
        }
      }
    }
  ]
}