{
  "totalItems": 9042,
  "totalPages": 905,
  "currentPage": 505,
  "itemsOfPage": 10,
  "items": [
    {
      "name": "INDUSTRY LANGUAGE SERVICES, S.L.",
      "registrationNumber": "08227",
      "identificationNumber": "B20609509",
      "address": "Azkue auzoa 1",
      "location": {
        "postalCode": "20870",
        "municipality": "Elgoibar",
        "county": "Gipuzkoa",
        "municipalityId": "032",
        "countyId": "20"
      },
      "economicActivities": [
        {
          "id": "1.933.9",
          "name": "Otras actividades de enseñanza tales como idiomas, mecanografía",
          "_links": {
            "self": {
              "name": "Otras actividades de enseñanza tales como idiomas, mecanografía",
              "href": "https://api.euskadi.eus/procurements/companies/economic-activities/1.933.9"
            }
          }
        }
      ],
      "certificateStartDate": "2022-03-23",
      "certificateEndDate": "2022-09-08",
      "object": "LA PRESTACIÓN DE SERVICIOS LINGÜÍSTICOS.",
      "mainEntityOfPage": "https://www.contratacion.euskadi.eus/webkpe00-kperoc/es/ac71aBusquedaRegistrosWar/empresa/08227",
      "_links": {
        "self": {
          "name": "INDUSTRY LANGUAGE SERVICES, S.L.",
          "href": "https://api.euskadi.eus/procurements/companies/08227"
        }
      }
    },
    {
      "name": "VANESA RIAL VILCABANA",
      "registrationNumber": "06488",
      "identificationNumber": "71348005G",
      "address": "juntas generales 26 5d",
      "location": {
        "postalCode": "01010",
        "municipality": "Vitoria-Gasteiz",
        "county": "Araba/Álava",
        "municipalityId": "059",
        "countyId": "01"
      },
      "economicActivities": [
        {
          "id": "1.652.1",
          "name": "Farmacias",
          "_links": {
            "self": {
              "name": "Farmacias",
              "href": "https://api.euskadi.eus/procurements/companies/economic-activities/1.652.1"
            }
          }
        },
        {
          "id": "1.922",
          "name": "Servicios de limpieza",
          "_links": {
            "self": {
              "name": "Servicios de limpieza",
              "href": "https://api.euskadi.eus/procurements/companies/economic-activities/1.922"
            }
          }
        },
        {
          "id": "1.965.4",
          "name": "Empresas de espectáculos",
          "_links": {
            "self": {
              "name": "Empresas de espectáculos",
              "href": "https://api.euskadi.eus/procurements/companies/economic-activities/1.965.4"
            }
          }
        },
        {
          "id": "1.999",
          "name": "Otros servicios n.c.o.p",
          "_links": {
            "self": {
              "name": "Otros servicios n.c.o.p",
              "href": "https://api.euskadi.eus/procurements/companies/economic-activities/1.999"
            }
          }
        },
        {
          "id": "2.826",
          "name": "Personal docente de enseñanzas diversas",
          "_links": {
            "self": {
              "name": "Personal docente de enseñanzas diversas",
              "href": "https://api.euskadi.eus/procurements/companies/economic-activities/2.826"
            }
          }
        }
      ],
      "certificateStartDate": "2022-03-16",
      "certificateEndDate": "2022-09-07",
      "object": "EMPRESAS DE ESPECTÁCULOS. OTROS SERVICIOS N.C.O.P.",
      "mainEntityOfPage": "https://www.contratacion.euskadi.eus/webkpe00-kperoc/es/ac71aBusquedaRegistrosWar/empresa/06488",
      "_links": {
        "self": {
          "name": "VANESA RIAL VILCABANA",
          "href": "https://api.euskadi.eus/procurements/companies/06488"
        }
      }
    },
    {
      "name": "EXTERIOR GOMASA, S.L.",
      "registrationNumber": "07852",
      "identificationNumber": "B79189270",
      "address": "AVENIDA ESPARTEROS, 25",
      "location": {
        "postalCode": "28918",
        "municipality": "Leganés",
        "county": "Madrid",
        "municipalityId": "074",
        "countyId": "28"
      },
      "economicActivities": [
        {
          "id": "1.692",
          "name": "Reparación de maquinaria industrial",
          "_links": {
            "self": {
              "name": "Reparación de maquinaria industrial",
              "href": "https://api.euskadi.eus/procurements/companies/economic-activities/1.692"
            }
          }
        },
        {
          "id": "1.699",
          "name": "Otras reparaciones n.c.o.p",
          "_links": {
            "self": {
              "name": "Otras reparaciones n.c.o.p",
              "href": "https://api.euskadi.eus/procurements/companies/economic-activities/1.699"
            }
          }
        },
        {
          "id": "1.852",
          "name": "Alquiler de maquinaria y equipo para la construcción",
          "_links": {
            "self": {
              "name": "Alquiler de maquinaria y equipo para la construcción",
              "href": "https://api.euskadi.eus/procurements/companies/economic-activities/1.852"
            }
          }
        },
        {
          "id": "1.922.2",
          "name": "Servicios especializados de limpiezas (cristales, chimeneas)",
          "_links": {
            "self": {
              "name": "Servicios especializados de limpiezas (cristales, chimeneas)",
              "href": "https://api.euskadi.eus/procurements/companies/economic-activities/1.922.2"
            }
          }
        }
      ],
      "certificateStartDate": "2022-03-09",
      "certificateEndDate": "2022-08-25",
      "object": "- COMPRAR, IMPORTAR, EXPORTAR, FABRICAR Y MANTENER GÓNDOLAS PARA MANTENIMIENTO DE FACHADAS, PUERTAS AUTOMATICAS, ASCENSORES, LÍNEAS DE VIDA. - SERVICIOS DE LIMPIEZA EN GENERAL Y EN ESPECIAL DE FACHADAS, EDIFICIOS, OFICINAS Y ESTABLECIMIENTOS COMERCIALES",
      "mainEntityOfPage": "https://www.contratacion.euskadi.eus/webkpe00-kperoc/es/ac71aBusquedaRegistrosWar/empresa/07852",
      "_links": {
        "self": {
          "name": "EXTERIOR GOMASA, S.L.",
          "href": "https://api.euskadi.eus/procurements/companies/07852"
        }
      }
    },
    {
      "name": "GURUTZE DIEZ RODRIGO",
      "registrationNumber": "08170",
      "identificationNumber": "45818731V",
      "address": "Ibaiondo 2 3 drcha",
      "location": {
        "postalCode": "48930",
        "municipality": "Getxo",
        "county": "Bizkaia",
        "municipalityId": "044",
        "countyId": "48"
      },
      "economicActivities": [
        {
          "id": "2.826",
          "name": "Personal docente de enseñanzas diversas",
          "_links": {
            "self": {
              "name": "Personal docente de enseñanzas diversas",
              "href": "https://api.euskadi.eus/procurements/companies/economic-activities/2.826"
            }
          }
        }
      ],
      "certificateStartDate": "2022-03-03",
      "certificateEndDate": "2022-09-02",
      "object": "PERSONAL DOCENTE DE ENSEÑANZAS DIVERSAS.",
      "mainEntityOfPage": "https://www.contratacion.euskadi.eus/webkpe00-kperoc/es/ac71aBusquedaRegistrosWar/empresa/08170",
      "_links": {
        "self": {
          "name": "GURUTZE DIEZ RODRIGO",
          "href": "https://api.euskadi.eus/procurements/companies/08170"
        }
      }
    },
    {
      "name": "SERVICIO URBANO INTERURBANO DE TRANSPORTE CON AUTOMOVILES LIGEROS (SUITAL) S. COOP.",
      "registrationNumber": "08158",
      "identificationNumber": "F20076808",
      "address": "PASEO UBARBURU Nº 35",
      "location": {
        "postalCode": "20014",
        "municipality": "Donostia / San Sebastián",
        "county": "Gipuzkoa",
        "municipalityId": "069",
        "countyId": "20"
      },
      "economicActivities": [
        {
          "id": "1.722",
          "name": "Transporte de mercancías por carretera",
          "_links": {
            "self": {
              "name": "Transporte de mercancías por carretera",
              "href": "https://api.euskadi.eus/procurements/companies/economic-activities/1.722"
            }
          }
        }
      ],
      "certificateStartDate": "2022-02-28",
      "certificateEndDate": "2022-04-29",
      "object": "LA PRESTACIÓN DE SERVICIOS DE TRANSPORTE URBANO E INTERURBANO COMO TITULAR DE LICENCIAS O CONCESIONES MUNICIPALES O DE OTRO ÁMBITO, TANTO DE AQUELLAS CUYA TITULARIDAD OSTENTE COMO LAS QUE PUEDA ADQUIRIR O LE SEAN CEDIDAS EN EL FUTURO, ASÍ COMO LAS LICENCIAS QUE FUEREN APORTADAS POR LOS SOCIOS COOPERATIVISTAS EN SU CASO CON LA REGLAMENTARIA AUTORIZACIÓN DE LA CORPORACIÓN CORRESPONDIENTE. CONSTITUYE TAMBIÉN EL OBJETO DE ESTA COOPERATIVA LA REALIZACIÓN DE LAS ACTIVIDADES COMPLEMENTARIAS AL OBJETO PRINCIPAL ANTES INDICADO, TALES COMO LA INSTALACIÓN DE TALLERES DE ELECTRICIDAD, MECÁNICA, CARROCERÍA, LAVADO, ENGRASE Y ALMACÉN.",
      "mainEntityOfPage": "https://www.contratacion.euskadi.eus/webkpe00-kperoc/es/ac71aBusquedaRegistrosWar/empresa/08158",
      "_links": {
        "self": {
          "name": "SERVICIO URBANO INTERURBANO DE TRANSPORTE CON AUTOMOVILES LIGEROS (SUITAL) S. COOP.",
          "href": "https://api.euskadi.eus/procurements/companies/08158"
        }
      }
    },
    {
      "name": "HRL MARKETING Y COMUNICACION, S.L.",
      "registrationNumber": "08152",
      "identificationNumber": "B98802812",
      "address": "AV. PUERTO 49 - 2º",
      "location": {
        "postalCode": "46021",
        "municipality": "València",
        "county": "Valencia/València",
        "municipalityId": "250",
        "countyId": "46"
      },
      "economicActivities": [
        {
          "id": "1.844",
          "name": "Servicios de publicidad, relaciones públicas y similares",
          "_links": {
            "self": {
              "name": "Servicios de publicidad, relaciones públicas y similares",
              "href": "https://api.euskadi.eus/procurements/companies/economic-activities/1.844"
            }
          }
        }
      ],
      "certificateStartDate": "2022-02-25",
      "certificateEndDate": "2022-08-16",
      "object": "PUBLICIDAD, MARKETING Y RELACIONES PÚBLICAS ON LINE. CREACIÓN DE CONTENIDOS. ANALÍTICA WEB, POSICIONAMIENTO SEO-SEM. GESTIÓN DE REDES SOCIALES. ESTUDIOS DE MERCADO.",
      "mainEntityOfPage": "https://www.contratacion.euskadi.eus/webkpe00-kperoc/es/ac71aBusquedaRegistrosWar/empresa/08152",
      "_links": {
        "self": {
          "name": "HRL MARKETING Y COMUNICACION, S.L.",
          "href": "https://api.euskadi.eus/procurements/companies/08152"
        }
      }
    },
    {
      "name": "FORESTALES ERLAITZ, S.L.",
      "registrationNumber": "08129",
      "identificationNumber": "B20486999",
      "address": "ALBISTUR BASERRIA",
      "location": {
        "postalCode": "20180",
        "municipality": "Oiartzun",
        "county": "Gipuzkoa",
        "municipalityId": "063",
        "countyId": "20"
      },
      "economicActivities": [
        {
          "id": "1.911",
          "name": "Servicios agrícolas y ganaderos",
          "_links": {
            "self": {
              "name": "Servicios agrícolas y ganaderos",
              "href": "https://api.euskadi.eus/procurements/companies/economic-activities/1.911"
            }
          }
        },
        {
          "id": "1.912",
          "name": "Servicios forestales",
          "_links": {
            "self": {
              "name": "Servicios forestales",
              "href": "https://api.euskadi.eus/procurements/companies/economic-activities/1.912"
            }
          }
        }
      ],
      "certificateStartDate": "2022-02-16",
      "certificateEndDate": "2022-07-27",
      "object": "LA PRODUCCIÓN, COMERCIALIZACIÓN Y REALIZACIÓN DE TODO TIPO DE TRABAJOS FORESTALES, DE JARDINERÍA, HORTÍCOLAS, VIVEROS DE PLANTAS Y VEGETALES EN GENERAL.",
      "mainEntityOfPage": "https://www.contratacion.euskadi.eus/webkpe00-kperoc/es/ac71aBusquedaRegistrosWar/empresa/08129",
      "_links": {
        "self": {
          "name": "FORESTALES ERLAITZ, S.L.",
          "href": "https://api.euskadi.eus/procurements/companies/08129"
        }
      }
    },
    {
      "name": "SUMELEC NAVARRA, S.L.",
      "registrationNumber": "08127",
      "identificationNumber": "B31064082",
      "address": "POLIGONO TALLUNTXE II, CALLE F NAVE 12",
      "location": {
        "postalCode": "31110",
        "municipality": "Noáin (Valle de Elorz)/Noain (Elortzibar)",
        "county": "Navarra",
        "municipalityId": "088",
        "countyId": "31"
      },
      "economicActivities": [
        {
          "id": "1.617.9",
          "name": "Venta al por mayor interindustrial de otros productos n.c.o.p",
          "_links": {
            "self": {
              "name": "Venta al por mayor interindustrial de otros productos n.c.o.p",
              "href": "https://api.euskadi.eus/procurements/companies/economic-activities/1.617.9"
            }
          }
        },
        {
          "id": "1.932.1",
          "name": "Enseñanza de formación y perfeccionamiento profesional no superior",
          "_links": {
            "self": {
              "name": "Enseñanza de formación y perfeccionamiento profesional no superior",
              "href": "https://api.euskadi.eus/procurements/companies/economic-activities/1.932.1"
            }
          }
        }
      ],
      "certificateStartDate": "2022-02-15",
      "certificateEndDate": "2022-08-01",
      "object": "LA COMPRA Y VENTA AL POR MAYOR Y DETALL DE MAQUINARIA Y MATERIAL ELÉCTRICO.",
      "mainEntityOfPage": "https://www.contratacion.euskadi.eus/webkpe00-kperoc/es/ac71aBusquedaRegistrosWar/empresa/08127",
      "_links": {
        "self": {
          "name": "SUMELEC NAVARRA, S.L.",
          "href": "https://api.euskadi.eus/procurements/companies/08127"
        }
      }
    },
    {
      "name": "BARD DE ESPAÑA, S.L.",
      "registrationNumber": "05661",
      "identificationNumber": "B08780249",
      "address": "PLAZA EUROPA 41-43 (5ª PLANTA)",
      "location": {
        "postalCode": "08908",
        "municipality": "Hospitalet de Llobregat, L'",
        "county": "Barcelona",
        "municipalityId": "101",
        "countyId": "08"
      },
      "economicActivities": [
        {
          "id": "1.619.2",
          "name": "Venta al por mayor de aparatos e instrumentos médicos, ortopédicos, ópticos",
          "_links": {
            "self": {
              "name": "Venta al por mayor de aparatos e instrumentos médicos, ortopédicos, ópticos",
              "href": "https://api.euskadi.eus/procurements/companies/economic-activities/1.619.2"
            }
          }
        }
      ],
      "certificateStartDate": "2022-02-15",
      "certificateEndDate": "2022-08-04",
      "object": "LA IMPORTACIÓN, EXPORTACIÓN Y VENTA DE PRODUCTOS MÉDICOS Y ORTOPÉDICOS",
      "mainEntityOfPage": "https://www.contratacion.euskadi.eus/webkpe00-kperoc/es/ac71aBusquedaRegistrosWar/empresa/05661",
      "_links": {
        "self": {
          "name": "BARD DE ESPAÑA, S.L.",
          "href": "https://api.euskadi.eus/procurements/companies/05661"
        }
      }
    },
    {
      "name": "LABIANA PHARMACEUTICALS, S.L.",
      "registrationNumber": "05868",
      "identificationNumber": "B63014856",
      "address": "C/ Serrano 93",
      "location": {
        "postalCode": "28006",
        "municipality": "Madrid",
        "county": "Madrid",
        "municipalityId": "079",
        "countyId": "28"
      },
      "economicActivities": [
        {
          "id": "1.254.2",
          "name": "Fabricación de especialidades y otros productos farmacéuticos",
          "_links": {
            "self": {
              "name": "Fabricación de especialidades y otros productos farmacéuticos",
              "href": "https://api.euskadi.eus/procurements/companies/economic-activities/1.254.2"
            }
          }
        }
      ],
      "certificateStartDate": "2022-02-14",
      "certificateEndDate": "2022-08-10",
      "object": "LA FABRICACIÓN Y COMERCIALIZACIÓN DE PRODUCTOS FARMACÉUTICOS Y VETERINARIOS, ASÍ COMO EL DESARROLLO E LAS SIGUIENTES ACTIVIDADES EN EL CAMPO DE LA INDUSTRIA BIOTECNOLÓGICA, FARMACÉUTICA, VETERINARIA, COSMÉTICA, QUÍMICA Y ALIMENTICIA: 1. LA CREACIÓN, GESTIÓN, CONSULTORÍA, PARTICIPACIÓN Y COMPRAVENTA DE EMPRESAS. 2.EL DESARROLLO Y EJECUCIÓN DE SERVICIOS TÉCNICOS Y COMERCIALES. 3. EL DESARROLLO DE PRODUCTOS, PROGRAMAS Y DOCUMENTACIONES PARA SU COMERCIALIZACIÓN. 4. LA PRESTACIÓN DE SERVICIOS DE CONSULTORÍA Y GESTIÓN PARA ALTOS EJECUTIVOS. 5. LA CREACIÓN, GESTIÓN Y COMPRAVENTA DE MARCAS, REGISTROS Y PATENTES PARA PRODUCTOS Y SERVICIOS",
      "mainEntityOfPage": "https://www.contratacion.euskadi.eus/webkpe00-kperoc/es/ac71aBusquedaRegistrosWar/empresa/05868",
      "_links": {
        "self": {
          "name": "LABIANA PHARMACEUTICALS, S.L.",
          "href": "https://api.euskadi.eus/procurements/companies/05868"
        }
      }
    }
  ]
}