{
  "totalItems": 9042,
  "totalPages": 905,
  "currentPage": 698,
  "itemsOfPage": 10,
  "items": [
    {
      "name": "GESTIÓN TÉCNICA Y EJECUCIÓN DE OBRAS, S.A.",
      "registrationNumber": "02284",
      "identificationNumber": "A20162541",
      "address": "C/ JULIÁN ETXEBERRIA, 9 - 1º",
      "location": {
        "postalCode": "20600",
        "municipality": "Eibar",
        "county": "Gipuzkoa",
        "municipalityId": "030",
        "countyId": "20"
      },
      "economicActivities": [
        {
          "id": "1.501.1",
          "name": "Construcción completa, reparación y conservación de edificaciones",
          "_links": {
            "self": {
              "name": "Construcción completa, reparación y conservación de edificaciones",
              "href": "https://api.euskadi.eus/procurements/companies/economic-activities/1.501.1"
            }
          }
        },
        {
          "id": "1.501.2",
          "name": "Construcción completa, reparación y conservación obras civiles",
          "_links": {
            "self": {
              "name": "Construcción completa, reparación y conservación obras civiles",
              "href": "https://api.euskadi.eus/procurements/companies/economic-activities/1.501.2"
            }
          }
        },
        {
          "id": "1.653.1",
          "name": "Venta al por menor de muebles (excepto los de oficina)",
          "_links": {
            "self": {
              "name": "Venta al por menor de muebles (excepto los de oficina)",
              "href": "https://api.euskadi.eus/procurements/companies/economic-activities/1.653.1"
            }
          }
        }
      ],
      "certificateStartDate": "2012-05-15",
      "certificateEndDate": "2012-11-15",
      "object": "LA CONSTRUCCIÓN COMPLETA, LA CONSERVACIÓN Y REPARACIÓN DE EDIFICIOS.\r\nLA PRESTACIÓN DE SERVICIOS TÉCNICOS RELACIONADOS CON LA CONSTRUCCIÓN.\r\nLA VENTA DE MUEBLES Y ARTÍCULOS DE DECORACIÓN ",
      "mainEntityOfPage": "https://www.contratacion.euskadi.eus/webkpe00-kperoc/es/ac71aBusquedaRegistrosWar/empresa/02284",
      "_links": {
        "self": {
          "name": "GESTIÓN TÉCNICA Y EJECUCIÓN DE OBRAS, S.A.",
          "href": "https://api.euskadi.eus/procurements/companies/02284"
        }
      }
    },
    {
      "name": "SERVICIOS TÉCNICOS KARRANZA, S.A.L.",
      "registrationNumber": "02466",
      "identificationNumber": "A48685317",
      "address": "C/ BEREZIKOETXE, 1 LONJA",
      "location": {
        "postalCode": "48960",
        "municipality": "Galdakao",
        "county": "Bizkaia",
        "municipalityId": "036",
        "countyId": "48"
      },
      "economicActivities": [
        {
          "id": "1.659.3",
          "name": "Venta al por menor de aparatos médicos, ortopédicos, ópticos y fotográficos",
          "_links": {
            "self": {
              "name": "Venta al por menor de aparatos médicos, ortopédicos, ópticos y fotográficos",
              "href": "https://api.euskadi.eus/procurements/companies/economic-activities/1.659.3"
            }
          }
        },
        {
          "id": "1.699",
          "name": "Otras reparaciones n.c.o.p",
          "_links": {
            "self": {
              "name": "Otras reparaciones n.c.o.p",
              "href": "https://api.euskadi.eus/procurements/companies/economic-activities/1.699"
            }
          }
        }
      ],
      "certificateStartDate": "2012-05-15",
      "certificateEndDate": "2012-09-27",
      "object": "LA ASISTENCIA TÉCNICA DE PROCESADORAS DE RAYOS X Y SUMIISTROS RADIOLÓGICOS MÉDICO-HOSPITALARIOS Y LA COMPRA, VENTA, COMERCIALIZACIÓN Y DISTRIBUCIÓN DE EQUIPOS DE REVELAR Y SUS COMPLEMENTOS",
      "mainEntityOfPage": "https://www.contratacion.euskadi.eus/webkpe00-kperoc/es/ac71aBusquedaRegistrosWar/empresa/02466",
      "_links": {
        "self": {
          "name": "SERVICIOS TÉCNICOS KARRANZA, S.A.L.",
          "href": "https://api.euskadi.eus/procurements/companies/02466"
        }
      }
    },
    {
      "name": "MEDICAL TECHNOLOGIES SPAIN, S.L.",
      "registrationNumber": "03719",
      "identificationNumber": "B36567980",
      "address": "GR. SAN ROQUE, 56-1º D",
      "location": {
        "postalCode": "36600",
        "municipality": "Vilagarcía de Arousa",
        "county": "Pontevedra",
        "municipalityId": "060",
        "countyId": "36"
      },
      "economicActivities": [
        {
          "id": "1.504.1",
          "name": "Instalaciones eléctricas en general",
          "_links": {
            "self": {
              "name": "Instalaciones eléctricas en general",
              "href": "https://api.euskadi.eus/procurements/companies/economic-activities/1.504.1"
            }
          }
        },
        {
          "id": "1.504.6",
          "name": "Montaje e instalación de aparatos elevadores de cualquier clase",
          "_links": {
            "self": {
              "name": "Montaje e instalación de aparatos elevadores de cualquier clase",
              "href": "https://api.euskadi.eus/procurements/companies/economic-activities/1.504.6"
            }
          }
        },
        {
          "id": "1.653.2",
          "name": "Venta al por menor de material y aparatos eléctricos, electrodomésticos y cocina",
          "_links": {
            "self": {
              "name": "Venta al por menor de material y aparatos eléctricos, electrodomésticos y cocina",
              "href": "https://api.euskadi.eus/procurements/companies/economic-activities/1.653.2"
            }
          }
        },
        {
          "id": "1.659.2",
          "name": "Venta al por menor de muebles de oficina y máquinas y equipos de oficina",
          "_links": {
            "self": {
              "name": "Venta al por menor de muebles de oficina y máquinas y equipos de oficina",
              "href": "https://api.euskadi.eus/procurements/companies/economic-activities/1.659.2"
            }
          }
        },
        {
          "id": "1.659.3",
          "name": "Venta al por menor de aparatos médicos, ortopédicos, ópticos y fotográficos",
          "_links": {
            "self": {
              "name": "Venta al por menor de aparatos médicos, ortopédicos, ópticos y fotográficos",
              "href": "https://api.euskadi.eus/procurements/companies/economic-activities/1.659.3"
            }
          }
        }
      ],
      "certificateStartDate": "2012-05-14",
      "certificateEndDate": "2012-09-29",
      "object": "1) INSTALACIONES DE FRÍO, CALOR, ACONDICIONAMIENTO DE AIRE E INSTALACIONES DE FONTANERÍA.\r\n2) INSTALACIONES ELÉCTRICAS EN GENERAL.\r\n3) MANTENIMIENTO Y REPARACIÓN DE EQUIPOS E INSTALACIONES ELÉCTRICAS Y ELECTRÓNICAS.\r\n4) MANTENIMIENTO Y REPARACIÓN DE EQUIPOS E INSTALACIONES DE FONTANERÍA, CONDUCCIONES DE AGUA Y GAS.\r\n5) MANTENIMIENTO Y REPARACIÓN DE EQUIPOS E INSTALACIONES DE CALEFACCIÓN Y AIRE ACONDICIONADO.\r\n6) MANTENIMIENTO Y REPARACIÓN DE EQUIPOS E INSTALACIONES DE ELECTROMEDICINA.\r\n7) MANTENIMIENTO Y REPARACIÓN DE EQUIPOS E INSTALACIONES DE SEGURIDAD Y CONTRA INCENDIOS.\r\n8) MANTENIMIENTO Y REPARACIÓN DE EQUIPOS Y MAQUINARIA DE OFICINA.\r\n9) MANTENIMIENTO Y REPARACIÓN DE EQUIPOS E INSTALACIONES DE APARATOS ELEVADORES Y DE TRALACIÓN HORIZONTAL.\r\n10) REPARACIÓN DE MAQUINARIA INDUSTRIAL.\r\n11) COMERCIO AL POR MENOR DE APARATOS E INSTRUMENTOS MÉDICOS.\r\n12) INSTALACIONES DE PRODUCTOS PETROLÍDEROS CATEGORÍA IP-I.\r\n13) CONSERVACIÓN Y MANTENIMIENTO DE EDIFICIOS.\r\n14) LECTURA DE CONTADORES.\r\n15) HIGIENIZACIÓN, DESINFECCIÓN, DESINSECTACIÓN Y DESRATIZACIÓN.\r\n16) HOSTELERÍA Y SERVICIOS DE COMIDA.\r\n17) INSPECCIÓN SANITARIA DE INSTALACIONES.\r\n18) SERVICIOS DE ESTERILIZACIÓN DE MATERIAL SANITARIO.\r\n19) CONSERVACIÓN Y MANTENIMIENTO DE CARRETERAS, PISTAS, AUTOPISTAS, AUTOVÍAS, CALZADAS Y VÍAS FÉRREAS.\r\n20) CONSERVACIÓN Y MANTENIMIENTO DE REDES DE AGUA Y ALCANTARILLADO.\r\n21) CONSERVACIÓN Y MANTENIMIENTO DE ESTACIONES DEPURADORAS.\r\n22) CONSERVACIÓN Y MANTENIMIENTO DE MOBILIARIO URBANO.\r\n23) CONSERVACIÓN Y MANTENIMIENTO DE MONTES Y JARDINES.\r\n24) CONSERVACIÓN Y MANTENIMIENTO DE EDIFICIOS SINGULARES.\r\n25) VENTA, MANTENIMIENTO Y REPARACIÓN DE ELECTRODOMÉSTICOS.\r\n26) INSTALACIÓN Y MANTENIMIENTO DE TODO TIPO DE ANTENAS.\r\n27) MANTENIMIENTO Y REPARACIÓN DE MAQUINARIA.\r\n28) TRALADO DE ENFERMOS POR CUALQUIER MEDIO DE TRANSPORTE.\r\n29) RECOGIDA Y TRANSPORTE DE TODA CLASE DE RESIDUOS.\r\n30) SERVICIOS DE GRÚA.\r\n31) TRATAMIENTO DE RESIDUOS DE CENTROS SANITARIOS Y CLÍNICAS VETERINARIAS.\r\n32) SERVICIOS DE LIMPIEZA EN GENERAL.\r\n33) SERVICIO DE DESARROLLO Y MANTENIMIENTO DE PROGRAMAS DE ORDENADOR.\r\n34) SERVICIOS DE MANTENIMIENTO, SERVICIOS DE VENTA, MANTENIMIENTO Y REPARACIÓN DE EQUIPOS E INSTALACIONES INFORMÁTICAS Y DE TELECOMUNICACIONES, Y OTROS SERVICIOS INFORMÁTICOS O DE TELECOMUNICACIONES.\r\n35) CONSTRUCCIÓN Y PROMOCIÓN DE TODO TIPO DE OBRAS.\r\n36) ALQUILER DE INMUEBLES.\r\n37) ACABADOS DE OBRAS DE FONTANERÍA Y ELECTRICIDAD.\r\n38) MANTENIMIENTO E INSTALACIONES DE BAJA Y ALTA TENSIÓN.\r\n39) ALQUILER DE MAQUINARIA Y EQUIPOS ELECTROMÉDICOS.\r\n40) VENTA DE EQUIPOS INFORMÁTICOS.\r\n41) MANTENIMIENTO DE INSTALACIONES DE ALTO RIESGO (QUIRÓFANOS, UCIS).\r\n42) MANTENIMIENTO DE EQUIPOS ELÉCTRICOS Y ELECTRO MÉDICOS",
      "mainEntityOfPage": "https://www.contratacion.euskadi.eus/webkpe00-kperoc/es/ac71aBusquedaRegistrosWar/empresa/03719",
      "_links": {
        "self": {
          "name": "MEDICAL TECHNOLOGIES SPAIN, S.L.",
          "href": "https://api.euskadi.eus/procurements/companies/03719"
        }
      }
    },
    {
      "name": "G.D.M. 1980 MULTISERVICIOS TECNICOS, S.L.",
      "registrationNumber": "03720",
      "identificationNumber": "B36273787",
      "address": "C/CRUCEIRO ANDRAS, 38-BAJO",
      "location": {
        "postalCode": "36620",
        "municipality": "Vilanova de Arousa",
        "county": "Pontevedra",
        "municipalityId": "061",
        "countyId": "36"
      },
      "economicActivities": [
        {
          "id": "1.501.3",
          "name": "Albañilería y pequeños trabajos de construcción en general",
          "_links": {
            "self": {
              "name": "Albañilería y pequeños trabajos de construcción en general",
              "href": "https://api.euskadi.eus/procurements/companies/economic-activities/1.501.3"
            }
          }
        },
        {
          "id": "1.504.1",
          "name": "Instalaciones eléctricas en general",
          "_links": {
            "self": {
              "name": "Instalaciones eléctricas en general",
              "href": "https://api.euskadi.eus/procurements/companies/economic-activities/1.504.1"
            }
          }
        },
        {
          "id": "1.504.3",
          "name": "Instalaciones de frío, calor y acondicionamiento de aire",
          "_links": {
            "self": {
              "name": "Instalaciones de frío, calor y acondicionamiento de aire",
              "href": "https://api.euskadi.eus/procurements/companies/economic-activities/1.504.3"
            }
          }
        },
        {
          "id": "1.504.6",
          "name": "Montaje e instalación de aparatos elevadores de cualquier clase",
          "_links": {
            "self": {
              "name": "Montaje e instalación de aparatos elevadores de cualquier clase",
              "href": "https://api.euskadi.eus/procurements/companies/economic-activities/1.504.6"
            }
          }
        },
        {
          "id": "1.653.2",
          "name": "Venta al por menor de material y aparatos eléctricos, electrodomésticos y cocina",
          "_links": {
            "self": {
              "name": "Venta al por menor de material y aparatos eléctricos, electrodomésticos y cocina",
              "href": "https://api.euskadi.eus/procurements/companies/economic-activities/1.653.2"
            }
          }
        },
        {
          "id": "1.659.2",
          "name": "Venta al por menor de muebles de oficina y máquinas y equipos de oficina",
          "_links": {
            "self": {
              "name": "Venta al por menor de muebles de oficina y máquinas y equipos de oficina",
              "href": "https://api.euskadi.eus/procurements/companies/economic-activities/1.659.2"
            }
          }
        },
        {
          "id": "1.659.3",
          "name": "Venta al por menor de aparatos médicos, ortopédicos, ópticos y fotográficos",
          "_links": {
            "self": {
              "name": "Venta al por menor de aparatos médicos, ortopédicos, ópticos y fotográficos",
              "href": "https://api.euskadi.eus/procurements/companies/economic-activities/1.659.3"
            }
          }
        },
        {
          "id": "1.692",
          "name": "Reparación de maquinaria industrial",
          "_links": {
            "self": {
              "name": "Reparación de maquinaria industrial",
              "href": "https://api.euskadi.eus/procurements/companies/economic-activities/1.692"
            }
          }
        }
      ],
      "certificateStartDate": "2012-05-14",
      "certificateEndDate": "2012-09-29",
      "object": "- INSTALACIONES DE FRÍO, CALOR, ACONDICIONAMIENTO DE AIRE E INSTALACIONES DE FONTANERÍA.\r\n- INSTALACIONES ELÉCTRICAS EN GENERAL.\r\n- MANTENIMIENTO Y REPARACIÓN DE EQUIPOS E INSTALACIONES ELÉCTRICAS Y ELECTRÓNICAS.\r\n- MANTENIMIENTO Y REPARACIÓN DE EQUIPOS E INSTALACIONES DE FONTANERÍA, CONDUCCIONES DE AGUA Y GAS.\r\n- MANTENIMIENTO Y REPARACIÓN DE EQUIPOS E INSTALACIONES DE CALEFACCIÓN Y AIRE ACONDICIONADO.\r\n- MANTENIMIENTO Y REPARACIÓN DE EQUIPOS E INSTALACIONES DE ELECTROMEDICINA.\r\n- MANTENIMIENTO Y REPARACIÓN DE EQUIPOS E INSTALACIONES DE SEGURIDAD Y CONTRA INCENDIOS.\r\n- MANTENIMIENTO Y REPARACIÓN DE EQUIPOS Y MAQUINARIA DE OFICINA.\r\n- MANTENIMIENTO Y REPARACIÓN DE EQUIPOS E INSTALACIONES DE APARATOS ELEVADORES Y DE TRASLACIÓN HORIZONTAL.\r\n- REPARACIÓN DE MAQUINARIA INDUSTRIAL.\r\n- COMERCIO AL POR MENOR DE APARATOS E INSTRUMENTOS MÉDICOS.\r\n- INSTALACIONES DE PRODUCTOS PETROLÍDEROS CATEGORÍA IP-I.\r\n- CONSERVACIÓN Y MANTENIMIENTO DE EDIFICIOS.\r\n- LECTURA DE CONTADORES.\r\n- HIGIENIZACIÓN, DESINFECCIÓN, DESINSECTACIÓN Y DESRATIZACIÓN.\r\n- HOSTELERÍA Y SERVICIOS DE COMIDA.\r\n- INSPECCIÓN SANITARIA DE INSTALACIONES.\r\n- SERVICIOS DE ESTERILIZACIÓN DE MATERIAL SANITARIO.\r\n- CONSERVACIÓN Y MANTENIMIENTO DE CARRETERAS, PISTAS, AUTOPISTAS, AUTOVÍAS, CALZADAS Y VÍAS FÉRREAS.\r\n- CONSERVACIÓN Y MANTENIMIENTO DE REDES DE AGUA Y ALCANTARILLADO.\r\n- CONSERVACIÓN Y MANTENIMIENTO DE ESTACIONES DEPURADORAS.\r\n- CONSERVACIÓN Y MANTENIMIENTO DE MOBILIARIO URBANO.\r\n- CONSERVACIÓN Y MANTENIMIENTO DE MONTES Y JARDINES.\r\n- CONSERVACIÓN Y MANTENIMIENTO DE EDIFICIOS SINGULARES.\r\n- VENTA, MANTENIMIENTO Y REPARACIÓN DE ELECTRODOMÉSTICOS.\r\n- INSTALACIÓN Y MANTENIMIENTO DE TODO TIPO DE ANTENAS.\r\n- MANTENIMIENTO Y REPARACIÓN DE MAQUINARIA.\r\n- TRASLADO DE ENFERMOS POR CUALQUIER MEDIO DE TRANSPORTE.\r\n- RECOGIDA Y TRANSPORTE DE TODA CLASE DE RESIDUOS.\r\n- SERVICIOS DE GRÚA.\r\n- TRATAMIENTO DE RESIDUOS DE CENTROS SANITARIOS Y CLÍNICAS VETERINARIAS.\r\n- SERVICIOS DE LIMPIEZA EN GENERAL.\r\n- SERVICIO DE DESARROLLO Y MANTENIMIENTO DE PROGRAMAS DE ORDENADOR.\r\n- SERVICIOS DE MANTENIMIENTO, SERVICIOS DE VENTA, MANTENIMIENTO Y REPARACIÓN DE EQUIPOS E INSTALACIONES INFORMÁTICAS Y DE TELECOMUNICACIONES, Y OTROS SERVICIOS INFORMÁTICOS O DE TELECOMUNICACIONES.\r\n- CONSTRUCCIÓN Y PROMOCIÓN DE TODO TIPO DE OBRAS.\r\n- ALQUILER DE INMUEBLES.\r\n- ACABADOS DE OBRAS DE FONTANERÍA Y ELECTRICIDAD.\r\n- MANTENIMIENTO E INSTALACIONES DE BAJA Y ALTA TENSIÓN.\r\n- ALQUILER DE MAQUINARIA Y EQUIPOS ELECTROMÉDICOS.\r\n- VENTA DE EQUIPOS INFORMÁTICOS.\r\n- MANTENIMIENTO DE INSTALACIONES DE ALTO RIESGO (QUIRÓFANOS, UCIS).\r\n- MANTENIMIENTO DE EQUIPOS ELÉCTRICOS Y ELECTRO MÉDICOS.\r\n- INSTALACIONES Y MANTENIMIENTO DE BAJA Y ALTA TENSIÓN",
      "mainEntityOfPage": "https://www.contratacion.euskadi.eus/webkpe00-kperoc/es/ac71aBusquedaRegistrosWar/empresa/03720",
      "_links": {
        "self": {
          "name": "G.D.M. 1980 MULTISERVICIOS TECNICOS, S.L.",
          "href": "https://api.euskadi.eus/procurements/companies/03720"
        }
      }
    },
    {
      "name": "PORTUKO LANAK, S.L.",
      "registrationNumber": "02934",
      "identificationNumber": "B95188504",
      "address": "MUELLE MATXIKORTA, S/N",
      "location": {
        "postalCode": "48370",
        "municipality": "Bermeo",
        "county": "Bizkaia",
        "municipalityId": "017",
        "countyId": "48"
      },
      "economicActivities": [
        {
          "id": "1.501.3",
          "name": "Albañilería y pequeños trabajos de construcción en general",
          "_links": {
            "self": {
              "name": "Albañilería y pequeños trabajos de construcción en general",
              "href": "https://api.euskadi.eus/procurements/companies/economic-activities/1.501.3"
            }
          }
        },
        {
          "id": "1.733.1",
          "name": "Transporte de cabotaje y por vías navegables interiores de viajeros",
          "_links": {
            "self": {
              "name": "Transporte de cabotaje y por vías navegables interiores de viajeros",
              "href": "https://api.euskadi.eus/procurements/companies/economic-activities/1.733.1"
            }
          }
        },
        {
          "id": "1.733.2",
          "name": "Transporte de cabotaje y por vías navegables interiores de mercancías",
          "_links": {
            "self": {
              "name": "Transporte de cabotaje y por vías navegables interiores de mercancías",
              "href": "https://api.euskadi.eus/procurements/companies/economic-activities/1.733.2"
            }
          }
        },
        {
          "id": "1.752.4",
          "name": "Servicio de limpieza y desinfección y similares a cargo de personal ajeno",
          "_links": {
            "self": {
              "name": "Servicio de limpieza y desinfección y similares a cargo de personal ajeno",
              "href": "https://api.euskadi.eus/procurements/companies/economic-activities/1.752.4"
            }
          }
        },
        {
          "id": "1.855.2",
          "name": "Alquiler de embarcaciones",
          "_links": {
            "self": {
              "name": "Alquiler de embarcaciones",
              "href": "https://api.euskadi.eus/procurements/companies/economic-activities/1.855.2"
            }
          }
        }
      ],
      "certificateStartDate": "2012-05-11",
      "certificateEndDate": "2012-10-24",
      "object": "SUMINISTROS Y SERVICIOS A EMBARCACIONES, TRASLADOS, INSPECCIONES, LIMPIEZA, INVERNAJE, INSTALACIÓN DE FONDEOS, PINTADO, SERVICIOS DE VARADA Y SERVICIO DE TRAVELIFT.\r\nSUMINISTROS, INSTALACIONES, LIMPIEZA Y MANTENIMIENTO DE PANTALANES Y ATRAQUES, TRABAJOS DE SUBMARINISMO, SUMINISTRO DE GASÓLEO EN PANTALÁN, MOVIMIENTO, CARGA Y DESCARGA, EN ZONA PORTUARIA.\r\nLAS ACTIVIDADES ENUMERADAS PODRÁN SER TAMBIÉN DESARROLLADAS POR LA SOCIEDAD, TOTAL O PARCIALMENTE, DE MODO INDIRECTO, MEDIANTE LA PARTICIPACIÓN EN OTRAS SOCIEDADES CON OBJETO ANÁLOGO. ",
      "mainEntityOfPage": "https://www.contratacion.euskadi.eus/webkpe00-kperoc/es/ac71aBusquedaRegistrosWar/empresa/02934",
      "_links": {
        "self": {
          "name": "PORTUKO LANAK, S.L.",
          "href": "https://api.euskadi.eus/procurements/companies/02934"
        }
      }
    },
    {
      "name": "CONSTRUCCIONES EXISA, S.A.",
      "registrationNumber": "01442",
      "identificationNumber": "A25035783",
      "address": "Bº BARRONDO-POLIGONO UGARTE, NAVE 2",
      "location": {
        "postalCode": "48480",
        "municipality": "Zaratamo",
        "county": "Bizkaia",
        "municipalityId": "097",
        "countyId": "48"
      },
      "economicActivities": [
        {
          "id": "1.507",
          "name": "Construcción, reparación y conservación de toda clase obras",
          "_links": {
            "self": {
              "name": "Construcción, reparación y conservación de toda clase obras",
              "href": "https://api.euskadi.eus/procurements/companies/economic-activities/1.507"
            }
          }
        }
      ],
      "certificateStartDate": "2012-05-09",
      "certificateEndDate": "2012-09-14",
      "object": "LA FABRICACIÓN, VENTA, COMERCIALIZACIÓN, DISTRIBUCIÓN, APLICACIÓN Y COLOCACIÓN DE PRODUCTOS Y SISTEMAS DESTINADOS A LA CONSTRUCCIÓN, REHABILITACIÓN, RESTAURACIÓN Y PROTECCIÓN DE TODO TIPO DE EDIFICACIONES, OBRAS CIVILES Y CONSTRUCCIONES EN GENERAL; LA COLOCACIÓN Y APLICACIÓN DE IMPERMEABILIZACIONES, REVESTIMIENTOS Y ACABADOS; LA REALIZACIÓN DE OBRAS DE CUALQUIER NATURALEZA, ASÍ COMO CUALQUIERA OTRA OPERACIÓN AUXILIAR O COMPLEMENTARIA A LAS MENCIONADAS EN ESTE ARTÍCULO Y LA EJECUCIÓN DE OBRAS NECESARIAS PARA LA INSTALACIÓN Y COLOCACIÓN DE DICHOS PRODUCTOS",
      "mainEntityOfPage": "https://www.contratacion.euskadi.eus/webkpe00-kperoc/es/ac71aBusquedaRegistrosWar/empresa/01442",
      "_links": {
        "self": {
          "name": "CONSTRUCCIONES EXISA, S.A.",
          "href": "https://api.euskadi.eus/procurements/companies/01442"
        }
      }
    },
    {
      "name": "GABINORTE RP ASESORES EN COMUNICACIÓN, S.L.",
      "registrationNumber": "02528",
      "identificationNumber": "B48099402",
      "address": "AMETZABIDE, 11 LAUKARIZ",
      "location": {
        "postalCode": "48100",
        "municipality": "Mungia",
        "county": "Bizkaia",
        "municipalityId": "069",
        "countyId": "48"
      },
      "economicActivities": [
        {
          "id": "1.844",
          "name": "Servicios de publicidad, relaciones públicas y similares",
          "_links": {
            "self": {
              "name": "Servicios de publicidad, relaciones públicas y similares",
              "href": "https://api.euskadi.eus/procurements/companies/economic-activities/1.844"
            }
          }
        },
        {
          "id": "1.989.2",
          "name": "Servicios de organización de congresos, asambleas y similares",
          "_links": {
            "self": {
              "name": "Servicios de organización de congresos, asambleas y similares",
              "href": "https://api.euskadi.eus/procurements/companies/economic-activities/1.989.2"
            }
          }
        }
      ],
      "certificateStartDate": "2012-05-03",
      "certificateEndDate": "2012-10-10",
      "object": "EL ASESORAMIENTO EN COMUNICACIÓN A EMPRESAS, INSTITUCIONES Y PERSONAS, FÍSICAS Y JURÍDICAS, SIN LIMITACIÓN ALGUNA, INCLUÍDAS LAS ACTIVIDADES ESPECÍFICAS Y LAS QUE PUEDAN DERIVARSE DEL ASESORAMIENTO DE IMAGEN, PUBLICIDAD Y RELACIONES PÚBLICAS A LOS MENCIONADOS ENTES; LA INVESTIGACIÓN, ANÁLISIS, PLANIFICACIÓN, EJECUCIÓN  Y CONTROL DE TODA ACCIÓN FACILITADORES Y/O RELACIONADA CON LA COMUNICACIÓN HUMANA Y SOCIAL.\r\nLA SOCIEDAD PODRÁ REALIZAR LAS ACTIVIDADES QUE CONSTITUYEN SU OBJETO, TOTAL O PARCIALMENTE DE UNA FORMA DIRECTA O MEDIANTE LA PARTICIPACIÓN EN OTRAS SOCIEDADES  O ENTIDADES CON O SIN PERSONALIDAD JURÍDICA.\r\nLA SOCIEDAD NO  REALIZARÁ NINGUNA DE LAS ACTIVIDADES SUJETAS A RÉGIMEN DE AUTORIZACIÓN ESPECIAL Y LEGISLACIÓN ESPECIAL\r\n",
      "mainEntityOfPage": "https://www.contratacion.euskadi.eus/webkpe00-kperoc/es/ac71aBusquedaRegistrosWar/empresa/02528",
      "_links": {
        "self": {
          "name": "GABINORTE RP ASESORES EN COMUNICACIÓN, S.L.",
          "href": "https://api.euskadi.eus/procurements/companies/02528"
        }
      }
    },
    {
      "name": "ZEROVIRTUAL, S.L.",
      "registrationNumber": "02638",
      "identificationNumber": "B95080164",
      "address": "BARRIO SANTIAGO, 6",
      "location": {
        "postalCode": "48002",
        "municipality": "Bilbao",
        "county": "Bizkaia",
        "municipalityId": "020",
        "countyId": "48"
      },
      "economicActivities": [
        {
          "id": "1.844",
          "name": "Servicios de publicidad, relaciones públicas y similares",
          "_links": {
            "self": {
              "name": "Servicios de publicidad, relaciones públicas y similares",
              "href": "https://api.euskadi.eus/procurements/companies/economic-activities/1.844"
            }
          }
        }
      ],
      "certificateStartDate": "2012-05-03",
      "certificateEndDate": "2012-10-10",
      "object": "ASESORAMIENTO Y REALIZACIÓN DE TODO TIPO DE COMUNICACIÓN, TANTO INSTITUCIONAL COMO COMERCIAL Y EN TODO TIPO DE SOPORTES:  IMPRESOS, AUDIOVISUALES E INFORMÁTICOS.\r\nPRODUCCIÓN DE PROGRAMAS DE TELEVISIÓN O ESPACIOS RELACIONADOS CON LA IMAGEN COMO VÍDEO CLIPS O ANUNCIOS PUBLICITARIOS Y DE ESPACIOS RELACIONADOS CON EL SONIDO COMO GRABACIÓN  DE DISCOS EN CUALQUIER  SOPORTE, PROGAMAS DE RADIO, GRABACIONES PUBLICITARIAS, ETC. LA SOCIEDAD PODRÁ REALIZAR LAS ACTIVIDADES QUE CONSTITUYEN SU OBJETO, TOTAL O PARCIALMENTE DE UNA FORMA DIRECTA O MEDIANTE LA PARTICIPACIÓN EN OTRAS SOCIEDADES O ENTIDADES CON O SIN PERSONALIDAD JURÍDICA  ",
      "mainEntityOfPage": "https://www.contratacion.euskadi.eus/webkpe00-kperoc/es/ac71aBusquedaRegistrosWar/empresa/02638",
      "_links": {
        "self": {
          "name": "ZEROVIRTUAL, S.L.",
          "href": "https://api.euskadi.eus/procurements/companies/02638"
        }
      }
    },
    {
      "name": "CONSTRUCCIONES ARRÓNIZ, S.A.",
      "registrationNumber": "00064",
      "identificationNumber": "A01013267",
      "address": "C/ FUEROS, Nº 24 - BAJO.",
      "location": {
        "postalCode": "01200",
        "municipality": "Agurain/Salvatierra",
        "county": "Araba/Álava",
        "municipalityId": "051",
        "countyId": "01"
      },
      "economicActivities": [
        {
          "id": "1.501.1",
          "name": "Construcción completa, reparación y conservación de edificaciones",
          "_links": {
            "self": {
              "name": "Construcción completa, reparación y conservación de edificaciones",
              "href": "https://api.euskadi.eus/procurements/companies/economic-activities/1.501.1"
            }
          }
        },
        {
          "id": "1.722",
          "name": "Transporte de mercancías por carretera",
          "_links": {
            "self": {
              "name": "Transporte de mercancías por carretera",
              "href": "https://api.euskadi.eus/procurements/companies/economic-activities/1.722"
            }
          }
        },
        {
          "id": "1.833.2",
          "name": "Promoción de edificaciones",
          "_links": {
            "self": {
              "name": "Promoción de edificaciones",
              "href": "https://api.euskadi.eus/procurements/companies/economic-activities/1.833.2"
            }
          }
        }
      ],
      "certificateStartDate": "2012-05-02",
      "certificateEndDate": "2012-10-18",
      "object": "LAS PARCELACIONES, REPARCELACIONES Y URBANIZACIONES DE SOLARES DE PROPIEDAD SUYA O AJENA, LA EJECUCIÓN DE OBRAS PÚBLICAS O PRIVADAS, CONTRATADAS O PROPIAS, Y EN ESPECIAL LA PROMOCIÓN, REALIZACIÓN Y VENTA DE TODA CLASE DE CONSTRUCCIONES ACOGIDAS O NO A LA LEGISLACIÓN PROTECTORA ESPECIAL",
      "mainEntityOfPage": "https://www.contratacion.euskadi.eus/webkpe00-kperoc/es/ac71aBusquedaRegistrosWar/empresa/00064",
      "_links": {
        "self": {
          "name": "CONSTRUCCIONES ARRÓNIZ, S.A.",
          "href": "https://api.euskadi.eus/procurements/companies/00064"
        }
      }
    },
    {
      "name": "CONSTRUCCIONES VICTOR ALVARO, S.L.",
      "registrationNumber": "02501",
      "identificationNumber": "B20381240",
      "address": "GRUPO ARRI-ZAR Nº 4 - 3ºA",
      "location": {
        "postalCode": "20017",
        "municipality": "Donostia / San Sebastián",
        "county": "Gipuzkoa",
        "municipalityId": "069",
        "countyId": "20"
      },
      "economicActivities": [
        {
          "id": "1.501.1",
          "name": "Construcción completa, reparación y conservación de edificaciones",
          "_links": {
            "self": {
              "name": "Construcción completa, reparación y conservación de edificaciones",
              "href": "https://api.euskadi.eus/procurements/companies/economic-activities/1.501.1"
            }
          }
        },
        {
          "id": "1.501.3",
          "name": "Albañilería y pequeños trabajos de construcción en general",
          "_links": {
            "self": {
              "name": "Albañilería y pequeños trabajos de construcción en general",
              "href": "https://api.euskadi.eus/procurements/companies/economic-activities/1.501.3"
            }
          }
        }
      ],
      "certificateStartDate": "2012-04-26",
      "certificateEndDate": "2012-10-11",
      "object": "LA REALIZACIÓN DE OBRAS, TRABAJOS DE ALBAÑILERÍA Y CONSTRUCCIÓN EN GENERAL",
      "mainEntityOfPage": "https://www.contratacion.euskadi.eus/webkpe00-kperoc/es/ac71aBusquedaRegistrosWar/empresa/02501",
      "_links": {
        "self": {
          "name": "CONSTRUCCIONES VICTOR ALVARO, S.L.",
          "href": "https://api.euskadi.eus/procurements/companies/02501"
        }
      }
    }
  ]
}