{
  "totalItems": 9042,
  "totalPages": 905,
  "currentPage": 491,
  "itemsOfPage": 10,
  "items": [
    {
      "name": "DE LAPUERTA CAMPO ARQUITECTOS ASOCIADOS, S.L.",
      "registrationNumber": "08104",
      "identificationNumber": "B87920807",
      "address": "VICENTE GACEO 19 LOCAL",
      "location": {
        "postalCode": "28029",
        "municipality": "Madrid",
        "county": "Madrid",
        "municipalityId": "079",
        "countyId": "28"
      },
      "economicActivities": [
        {
          "id": "1.843.2",
          "name": "Servicios técnicos de arquitectura y urbanismo",
          "_links": {
            "self": {
              "name": "Servicios técnicos de arquitectura y urbanismo",
              "href": "https://api.euskadi.eus/procurements/companies/economic-activities/1.843.2"
            }
          }
        }
      ],
      "certificateStartDate": "2022-08-03",
      "certificateEndDate": "2023-01-27",
      "object": "LA PRESTACIÓN DE SERVICIOS PROPIOS DE UN ESTUDIO DE ARQUITECTURA.",
      "mainEntityOfPage": "https://www.contratacion.euskadi.eus/webkpe00-kperoc/es/ac71aBusquedaRegistrosWar/empresa/08104",
      "_links": {
        "self": {
          "name": "DE LAPUERTA CAMPO ARQUITECTOS ASOCIADOS, S.L.",
          "href": "https://api.euskadi.eus/procurements/companies/08104"
        }
      }
    },
    {
      "name": "AUTOREPARACIONES MALLABIENA, S.L.",
      "registrationNumber": "08118",
      "identificationNumber": "B48186308",
      "address": "Bº MALLABIENA S/N",
      "location": {
        "postalCode": "48215",
        "municipality": "Iurreta",
        "county": "Bizkaia",
        "municipalityId": "910",
        "countyId": "48"
      },
      "economicActivities": [
        {
          "id": "1.691.2",
          "name": "Reparación de vehículos automóviles, bicicletas y otros vehículos",
          "_links": {
            "self": {
              "name": "Reparación de vehículos automóviles, bicicletas y otros vehículos",
              "href": "https://api.euskadi.eus/procurements/companies/economic-activities/1.691.2"
            }
          }
        }
      ],
      "certificateStartDate": "2022-08-03",
      "certificateEndDate": "2023-01-04",
      "object": "REPARACIÓN DE AUTOCARES, CAMIONES Y TODA CLASE DE VEHÍCULOS DE CARGA Y AUTOMOCIÓN.",
      "mainEntityOfPage": "https://www.contratacion.euskadi.eus/webkpe00-kperoc/es/ac71aBusquedaRegistrosWar/empresa/08118",
      "_links": {
        "self": {
          "name": "AUTOREPARACIONES MALLABIENA, S.L.",
          "href": "https://api.euskadi.eus/procurements/companies/08118"
        }
      }
    },
    {
      "name": "MAEN SYSTEMS, S.L.",
      "registrationNumber": "08113",
      "identificationNumber": "B64971237",
      "address": "RONDA MAIOLS, 1 EDIFICIO BMC DESPACHO 242-244",
      "location": {
        "postalCode": "08192",
        "municipality": "Sant Quirze del Vallès",
        "county": "Barcelona",
        "municipalityId": "238",
        "countyId": "08"
      },
      "economicActivities": [
        {
          "id": "1.659.2",
          "name": "Venta al por menor de muebles de oficina y máquinas y equipos de oficina",
          "_links": {
            "self": {
              "name": "Venta al por menor de muebles de oficina y máquinas y equipos de oficina",
              "href": "https://api.euskadi.eus/procurements/companies/economic-activities/1.659.2"
            }
          }
        },
        {
          "id": "1.843.9",
          "name": "Otros servicios técnicos n.c.o.p",
          "_links": {
            "self": {
              "name": "Otros servicios técnicos n.c.o.p",
              "href": "https://api.euskadi.eus/procurements/companies/economic-activities/1.843.9"
            }
          }
        },
        {
          "id": "1.845",
          "name": "Explotación electrónica por cuenta de terceros",
          "_links": {
            "self": {
              "name": "Explotación electrónica por cuenta de terceros",
              "href": "https://api.euskadi.eus/procurements/companies/economic-activities/1.845"
            }
          }
        }
      ],
      "certificateStartDate": "2022-08-03",
      "certificateEndDate": "2023-01-27",
      "object": "LA INSTALACIÓN, VENTA, REPARACIÓN Y MANTENIMIENTO DE EQUIPOS INFORMÁTICOS.",
      "mainEntityOfPage": "https://www.contratacion.euskadi.eus/webkpe00-kperoc/es/ac71aBusquedaRegistrosWar/empresa/08113",
      "_links": {
        "self": {
          "name": "MAEN SYSTEMS, S.L.",
          "href": "https://api.euskadi.eus/procurements/companies/08113"
        }
      }
    },
    {
      "name": "FREEDOM FOR KNOWLEDGE AND TECHNOLOGIES SOCIEDAD LIMITADA",
      "registrationNumber": "08204",
      "identificationNumber": "B95669750",
      "address": "Euskal Herria 13, 3º ext izda",
      "location": {
        "postalCode": "48991",
        "municipality": "Getxo",
        "county": "Bizkaia",
        "municipalityId": "044",
        "countyId": "48"
      },
      "economicActivities": [
        {
          "id": "1.845",
          "name": "Explotación electrónica por cuenta de terceros",
          "_links": {
            "self": {
              "name": "Explotación electrónica por cuenta de terceros",
              "href": "https://api.euskadi.eus/procurements/companies/economic-activities/1.845"
            }
          }
        }
      ],
      "certificateStartDate": "2022-08-03",
      "certificateEndDate": "2023-01-31",
      "object": "1. ACTIVIDADES DE CONSULTORÍA, PROYECTOS, ANÁLISIS, DISEÑO, PROGRAMACIÓN, IMPLANTACIÓN DE SISTEMAS Y FORMACIÓN EN EL CAMPO DE LAS TICs (TECNOLOGÍAS DE LA INFORMACIÓN Y LAS COMUNICACIONES), PREFERENTEMENTE CON SOFTWARE Y TECNOLOGÍAS LIBRES. PROMOCIÓN DE LAS TECNOLOGÍAS Y EL CONOCIMIENTO LIBRES MEDIANTE LA ORGANIZACIÓN, PARTICIPACIÓN Y REALIZACIÓN DE EVENTOS Y ACTIVIDADES DE MARKETING RELACIONADAS. COMPRA-VENTA DE MATERIAL RELACIONADO CON TICs (TECNOLOGÍAS DE LA INFORMACIÓN Y LAS COMUNICACIONES), TALES COMO ORDENADORES, SERVIDORES, DISPOSITIVOS DE RED, ANTENAS, CENTRALITAS, ETC.. INSTALACIÓN Y CONFIGURACIÓN DE SISTEMAS DE INFORMACIÓN Y TELECOMUNICACIONES. 2. ADQUIRIR, ENAJENAR Y ARRENDAR BIENES INMUEBLES (CONCRETAMENTE LOS DETERMINADOS EN EL ARTÍCULO 334.1 DEL CÓDIGO CIVIL), ACCIONES PARTICIPACIONES SOCIALES, OBLIGACIONES, BONOS DE CAJA, CERTIFICADOS DE DEPÓSITO Y PAGARÉS DETODA CLASE DE EMPRESAS O NEGOCIOS.\n\n",
      "mainEntityOfPage": "https://www.contratacion.euskadi.eus/webkpe00-kperoc/es/ac71aBusquedaRegistrosWar/empresa/08204",
      "_links": {
        "self": {
          "name": "FREEDOM FOR KNOWLEDGE AND TECHNOLOGIES SOCIEDAD LIMITADA",
          "href": "https://api.euskadi.eus/procurements/companies/08204"
        }
      }
    },
    {
      "name": "CARMELO URRAZA SALCEDO",
      "registrationNumber": "08132",
      "identificationNumber": "30559424Z",
      "address": "SAUTOLABARRI 25 BAJO B",
      "location": {
        "postalCode": "48499",
        "municipality": "Zeberio",
        "county": "Bizkaia",
        "municipalityId": "025",
        "countyId": "48"
      },
      "economicActivities": [
        {
          "id": "1.849.5",
          "name": "Servicios de recadería y reparto y manipulación de correspondencia",
          "_links": {
            "self": {
              "name": "Servicios de recadería y reparto y manipulación de correspondencia",
              "href": "https://api.euskadi.eus/procurements/companies/economic-activities/1.849.5"
            }
          }
        }
      ],
      "certificateStartDate": "2022-08-03",
      "certificateEndDate": "2023-01-27",
      "object": "SERVICIOS DE RECADERÍA Y REPARTO Y MANIPULACIÓN DE CORRESPONDENCIA.",
      "mainEntityOfPage": "https://www.contratacion.euskadi.eus/webkpe00-kperoc/es/ac71aBusquedaRegistrosWar/empresa/08132",
      "_links": {
        "self": {
          "name": "CARMELO URRAZA SALCEDO",
          "href": "https://api.euskadi.eus/procurements/companies/08132"
        }
      }
    },
    {
      "name": "IDOIA GUTIERREZ ARETXABALETA",
      "registrationNumber": "08159",
      "identificationNumber": "78870287K",
      "address": "Calle Barroeta Aldamar",
      "location": {
        "postalCode": "48001",
        "municipality": "Bilbao",
        "county": "Bizkaia",
        "municipalityId": "020",
        "countyId": "48"
      },
      "economicActivities": [
        {
          "id": "2.732",
          "name": "Procuradores",
          "_links": {
            "self": {
              "name": "Procuradores",
              "href": "https://api.euskadi.eus/procurements/companies/economic-activities/2.732"
            }
          }
        }
      ],
      "certificateStartDate": "2022-08-03",
      "certificateEndDate": "2023-01-27",
      "object": "PROCURADORES",
      "mainEntityOfPage": "https://www.contratacion.euskadi.eus/webkpe00-kperoc/es/ac71aBusquedaRegistrosWar/empresa/08159",
      "_links": {
        "self": {
          "name": "IDOIA GUTIERREZ ARETXABALETA",
          "href": "https://api.euskadi.eus/procurements/companies/08159"
        }
      }
    },
    {
      "name": "TECOPLAS, S.L.",
      "registrationNumber": "08120",
      "identificationNumber": "B48468151",
      "address": "POL IND TRAPAGA-CAUSO 16 Y 17",
      "location": {
        "postalCode": "48510",
        "municipality": "Valle de Trápaga-Trapagaran",
        "county": "Bizkaia",
        "municipalityId": "080",
        "countyId": "48"
      },
      "economicActivities": [
        {
          "id": "1.482.2",
          "name": "Fabricación de artículos acabados de materias plásticas",
          "_links": {
            "self": {
              "name": "Fabricación de artículos acabados de materias plásticas",
              "href": "https://api.euskadi.eus/procurements/companies/economic-activities/1.482.2"
            }
          }
        }
      ],
      "certificateStartDate": "2022-08-03",
      "certificateEndDate": "2023-01-27",
      "object": "LA TRANSFORMACIÓN, FABRICACIÓN, SUMINISTRO, MONTAJE Y COMERCIALIZACIÓN DE MATERIALES, PIEZAS Y EQUIPOS DE MATERIAL PLÁSTICO.",
      "mainEntityOfPage": "https://www.contratacion.euskadi.eus/webkpe00-kperoc/es/ac71aBusquedaRegistrosWar/empresa/08120",
      "_links": {
        "self": {
          "name": "TECOPLAS, S.L.",
          "href": "https://api.euskadi.eus/procurements/companies/08120"
        }
      }
    },
    {
      "name": "S.M.K. SUMINISTROS DE MAQUINAS Y PRODUCTOS QUIMICOS S.L.",
      "registrationNumber": "06175",
      "identificationNumber": "B48961916",
      "address": "POLIGONO INDUSTRIAL GRANADA FASE II, PARC. AB6 NAVE 16",
      "location": {
        "postalCode": "48530",
        "municipality": "Ortuella",
        "county": "Bizkaia",
        "municipalityId": "083",
        "countyId": "48"
      },
      "economicActivities": [
        {
          "id": "1.617.9",
          "name": "Venta al por mayor interindustrial de otros productos n.c.o.p",
          "_links": {
            "self": {
              "name": "Venta al por mayor interindustrial de otros productos n.c.o.p",
              "href": "https://api.euskadi.eus/procurements/companies/economic-activities/1.617.9"
            }
          }
        }
      ],
      "certificateStartDate": "2022-08-03",
      "certificateEndDate": "2023-01-27",
      "object": "A) EL SUMINISTRO DE MAQUINARIA Y ÚTILES DE LIMPIEZA E HIGIENE, FABRICACIÓN DE PRODUCTOS DE LIMPIEZA E HIGIENE INDUSTRIAL. B) LA DISTRIBUCIÓN DE TODA CLASE DE PRODUCTOS DE LIMPIEZA E HIGIENE, MAQUINARIA, ACCESORIOS, PRODUCTOS ETC. C) ADQUISICIÓN, ENAJENACIÓN Y GRAVAMEN DE BIENES INMUEBLES",
      "mainEntityOfPage": "https://www.contratacion.euskadi.eus/webkpe00-kperoc/es/ac71aBusquedaRegistrosWar/empresa/06175",
      "_links": {
        "self": {
          "name": "S.M.K. SUMINISTROS DE MAQUINAS Y PRODUCTOS QUIMICOS S.L.",
          "href": "https://api.euskadi.eus/procurements/companies/06175"
        }
      }
    },
    {
      "name": "SERVICIO DE TURISMOS E INDUSTRIALES S.A.",
      "registrationNumber": "06194",
      "identificationNumber": "A48227045",
      "address": "Buen Pastor 46",
      "location": {
        "postalCode": "48903",
        "municipality": "Barakaldo",
        "county": "Bizkaia",
        "municipalityId": "013",
        "countyId": "48"
      },
      "economicActivities": [
        {
          "id": "1.654.1",
          "name": "Venta al por menor de vehículos terrestres",
          "_links": {
            "self": {
              "name": "Venta al por menor de vehículos terrestres",
              "href": "https://api.euskadi.eus/procurements/companies/economic-activities/1.654.1"
            }
          }
        },
        {
          "id": "1.691.2",
          "name": "Reparación de vehículos automóviles, bicicletas y otros vehículos",
          "_links": {
            "self": {
              "name": "Reparación de vehículos automóviles, bicicletas y otros vehículos",
              "href": "https://api.euskadi.eus/procurements/companies/economic-activities/1.691.2"
            }
          }
        },
        {
          "id": "1.854.1",
          "name": "Alquiler de automóviles sin conductor",
          "_links": {
            "self": {
              "name": "Alquiler de automóviles sin conductor",
              "href": "https://api.euskadi.eus/procurements/companies/economic-activities/1.854.1"
            }
          }
        }
      ],
      "certificateStartDate": "2022-08-03",
      "certificateEndDate": "2023-01-07",
      "object": "A) COMPRA Y VENTA DE LUBRICANTES Y ADITIVOS NACIONALES Y EXTRANJEROS. LA FABRICACIÓN Y COMPRA, VENTA, IMPORTACIÓN Y EXPORTACIÓN DE GRASAS, JABONES Y COLORANTES. B) LA IMPORTACIÓN Y EXPORTACIÓN, COMPRA Y VENTA DE TODO TIPO DE BICICLETAS, VEHÍCULOS AUTOMÓVILES Y AUTOPROPULSADOS CAPACES DE DESPLAZARSE POR MAR, TIERRA Y AIRE, CUALQUIERA QUE SEA SU UTILIDAD Y TANTO NUEVOS COMO USADOS. C) LA COMPRA, VENTA, IMPORTACIÓN Y EXPORTACIÓN DE CÁMARAS NEUMÁTICAS, MOTORES, PIEZAS DE REPUESTO, Y RECAMBIOS Y ACCESORIOS DE TODO TIPO RELACIONADO CON LOS VEHÍCULOS AUTOMÓVILES Y AUTOPROPULSADOS. D) LA REPARACIÓN Y MONTAJE DE TODO TIPO DE VEHÍCULOS AUTOMÓVILES Y AUTO-PROPULSADOS, ASÍ COMO LA INSTALACIÓN Y EXPLOTACIÓN DE LOCALES Y MAQUINARIA DESTINADOS AL LAVADO, ENGRASADO Y APARCAMIENTO DE LOS MISMOS. E) LA COMPRA, VENTA, IMPORTACIÓN Y EXPORTACIÓN DE ARTÍCULOS DE DEPORTE Y MATERIAL NÁUTICO DEPORTIVO, TANTO NUEVO COMO USADO. COMPRA Y VENTA DE APARATOS DE BUTANO. F) LA TITULARIDAD DE REPRESENTACIONES A COMISIÓN DE TODO TIPO DE ELEMENTOS MATERIALES Y PRODUCTOS",
      "mainEntityOfPage": "https://www.contratacion.euskadi.eus/webkpe00-kperoc/es/ac71aBusquedaRegistrosWar/empresa/06194",
      "_links": {
        "self": {
          "name": "SERVICIO DE TURISMOS E INDUSTRIALES S.A.",
          "href": "https://api.euskadi.eus/procurements/companies/06194"
        }
      }
    },
    {
      "name": "AGNES GÜELL FABREGAS",
      "registrationNumber": "08094",
      "identificationNumber": "53121176P",
      "address": "Xiprer 58",
      "location": {
        "postalCode": "08230",
        "municipality": "Matadepera",
        "county": "Barcelona",
        "municipalityId": "120",
        "countyId": "08"
      },
      "economicActivities": [
        {
          "id": "2.899",
          "name": "Otros profesionales",
          "_links": {
            "self": {
              "name": "Otros profesionales",
              "href": "https://api.euskadi.eus/procurements/companies/economic-activities/2.899"
            }
          }
        }
      ],
      "certificateStartDate": "2022-08-03",
      "certificateEndDate": "2023-01-27",
      "object": "OTROS PROFESIONALES.",
      "mainEntityOfPage": "https://www.contratacion.euskadi.eus/webkpe00-kperoc/es/ac71aBusquedaRegistrosWar/empresa/08094",
      "_links": {
        "self": {
          "name": "AGNES GÜELL FABREGAS",
          "href": "https://api.euskadi.eus/procurements/companies/08094"
        }
      }
    }
  ]
}