{
  "totalItems": 9042,
  "totalPages": 905,
  "currentPage": 403,
  "itemsOfPage": 10,
  "items": [
    {
      "name": "GIPUZKOAKO BERTSOZALE ELKARTEA",
      "registrationNumber": "06694",
      "identificationNumber": "G20461190",
      "address": "LARRAMENDI 7, BEHEA",
      "location": {
        "postalCode": "20400",
        "municipality": "Tolosa",
        "county": "Gipuzkoa",
        "municipalityId": "071",
        "countyId": "20"
      },
      "economicActivities": [
        {
          "id": "1.476.1",
          "name": "Edición de libros",
          "_links": {
            "self": {
              "name": "Edición de libros",
              "href": "https://api.euskadi.eus/procurements/companies/economic-activities/1.476.1"
            }
          }
        },
        {
          "id": "1.932.1",
          "name": "Enseñanza de formación y perfeccionamiento profesional no superior",
          "_links": {
            "self": {
              "name": "Enseñanza de formación y perfeccionamiento profesional no superior",
              "href": "https://api.euskadi.eus/procurements/companies/economic-activities/1.932.1"
            }
          }
        },
        {
          "id": "1.966.9",
          "name": "Otros servicios culturales n.c.o.p",
          "_links": {
            "self": {
              "name": "Otros servicios culturales n.c.o.p",
              "href": "https://api.euskadi.eus/procurements/companies/economic-activities/1.966.9"
            }
          }
        }
      ],
      "certificateStartDate": "2024-08-11",
      "certificateEndDate": "2025-02-11",
      "object": "PROMOVER Y PROTEGER EL BERTSOLARISMO, Y DESDE EL MISMO, ACTUAR EN DEFENSA Y EN PRO DE LA NORMALIZACIÓN DEL EUSKERA",
      "mainEntityOfPage": "https://www.contratacion.euskadi.eus/webkpe00-kperoc/es/ac71aBusquedaRegistrosWar/empresa/06694",
      "_links": {
        "self": {
          "name": "GIPUZKOAKO BERTSOZALE ELKARTEA",
          "href": "https://api.euskadi.eus/procurements/companies/06694"
        }
      }
    },
    {
      "name": "SAKURA FINETEK SPAIN, S.L.",
      "registrationNumber": "07976",
      "identificationNumber": "B66898552",
      "address": "Ronda Sant Pere 17, 6º 1ª",
      "location": {
        "postalCode": "08010",
        "municipality": "Barcelona",
        "county": "Barcelona",
        "municipalityId": "019",
        "countyId": "08"
      },
      "economicActivities": [
        {
          "id": "1.619.2",
          "name": "Venta al por mayor de aparatos e instrumentos médicos, ortopédicos, ópticos",
          "_links": {
            "self": {
              "name": "Venta al por mayor de aparatos e instrumentos médicos, ortopédicos, ópticos",
              "href": "https://api.euskadi.eus/procurements/companies/economic-activities/1.619.2"
            }
          }
        }
      ],
      "certificateStartDate": "2024-08-11",
      "certificateEndDate": "2025-02-11",
      "object": "LA VENTA AL POR MAYOR DE PRODUCTOS MÉDICOS, EQUIPOS DE LABORATORIO, INCLUYENDO LA PRESTACIÓN DE SERVICIO Y SOPORTE TÉCNICO Y DE APLICACIÓN DE PRIMER NIVEL (\"FIRST LINE\"), ASISTENCIA EN VENTAS, MARKETING TÉCNICO Y SERVICIOS PROMOCIONALES RELACIONADOS.",
      "mainEntityOfPage": "https://www.contratacion.euskadi.eus/webkpe00-kperoc/es/ac71aBusquedaRegistrosWar/empresa/07976",
      "_links": {
        "self": {
          "name": "SAKURA FINETEK SPAIN, S.L.",
          "href": "https://api.euskadi.eus/procurements/companies/07976"
        }
      }
    },
    {
      "name": "SALVADOR HIGUERA CORTA, S.L.",
      "registrationNumber": "09201",
      "identificationNumber": "B11236734",
      "address": "CALLE PARGO, Nº 49",
      "location": {
        "postalCode": "11207",
        "municipality": "Algeciras",
        "county": "Cádiz",
        "municipalityId": "004",
        "countyId": "11"
      },
      "economicActivities": [
        {
          "id": "1.501.2",
          "name": "Construcción completa, reparación y conservación obras civiles",
          "_links": {
            "self": {
              "name": "Construcción completa, reparación y conservación obras civiles",
              "href": "https://api.euskadi.eus/procurements/companies/economic-activities/1.501.2"
            }
          }
        },
        {
          "id": "1.752.7",
          "name": "Servicios de explotación y mantenimiento de puertos, canales, etc",
          "_links": {
            "self": {
              "name": "Servicios de explotación y mantenimiento de puertos, canales, etc",
              "href": "https://api.euskadi.eus/procurements/companies/economic-activities/1.752.7"
            }
          }
        }
      ],
      "certificateStartDate": "2024-08-11",
      "certificateEndDate": "2025-02-11",
      "object": "TODO TIPO DE TRABAJOS Y OBRAS MARÍTIMAS, TALES COMO DRAGADOS DE CANALES, RADAS, PUERTOS, ETC. EXPLOTACIÓN DE EMBARCACIONES EN PROPIEDAD O ARRENDAMIENTO PARA TODO TIPO DE ACTIVIDADES MARÍTIMO-PESQUERAS. TRABAJOS SUBMARINOS DE TODA CLASE, EN OBRAS Y PUERTOS Y EN CUALQUIER LUGAR QUE FUERE NECESARIO. LA DIRECCIÓN Y SUPERVISIÓN DE LAS OBRAS PROPIAS Y SUBCONTRATADAS, PROYECTOS DE ESTUDIO DE LA ACTIVIDAD, ASÍ COMO TRABAJOS DE DRAGAS Y SONDEOS ACUÁTICOS. LA EXPLOTACIÓN ECONÓMICA DE BUQUES MERCANTES BAJO CUALQUIER MODALIDAD QUE ASEGURE LA DISPONIBILIDAD SOBRE LA TOTALIDAD DEL BUQUE.",
      "mainEntityOfPage": "https://www.contratacion.euskadi.eus/webkpe00-kperoc/es/ac71aBusquedaRegistrosWar/empresa/09201",
      "_links": {
        "self": {
          "name": "SALVADOR HIGUERA CORTA, S.L.",
          "href": "https://api.euskadi.eus/procurements/companies/09201"
        }
      }
    },
    {
      "name": "CARLIBUR, S.L.",
      "registrationNumber": "08380",
      "identificationNumber": "B09312505",
      "address": "PENTASA 3, NAVE 187",
      "location": {
        "postalCode": "09007",
        "municipality": "Burgos",
        "county": "Burgos",
        "municipalityId": "059",
        "countyId": "09"
      },
      "economicActivities": [
        {
          "id": "1.619.5",
          "name": "Venta al por mayor de artículos de papelería y escritorios",
          "_links": {
            "self": {
              "name": "Venta al por mayor de artículos de papelería y escritorios",
              "href": "https://api.euskadi.eus/procurements/companies/economic-activities/1.619.5"
            }
          }
        },
        {
          "id": "1.659.2",
          "name": "Venta al por menor de muebles de oficina y máquinas y equipos de oficina",
          "_links": {
            "self": {
              "name": "Venta al por menor de muebles de oficina y máquinas y equipos de oficina",
              "href": "https://api.euskadi.eus/procurements/companies/economic-activities/1.659.2"
            }
          }
        },
        {
          "id": "1.659.4",
          "name": "Venta al por menor de libros, periódicos y artículos de papelería y escritorio",
          "_links": {
            "self": {
              "name": "Venta al por menor de libros, periódicos y artículos de papelería y escritorio",
              "href": "https://api.euskadi.eus/procurements/companies/economic-activities/1.659.4"
            }
          }
        }
      ],
      "certificateStartDate": "2024-08-09",
      "certificateEndDate": "2025-02-04",
      "object": "LA COMPRAVENTA Y COMERCIALIZACIÓN DE TODA CLASE DE ARTÍCULOS Y PRODUCTOS DE PAPELERÍA Y MATERIAL DE OFICINA.",
      "mainEntityOfPage": "https://www.contratacion.euskadi.eus/webkpe00-kperoc/es/ac71aBusquedaRegistrosWar/empresa/08380",
      "_links": {
        "self": {
          "name": "CARLIBUR, S.L.",
          "href": "https://api.euskadi.eus/procurements/companies/08380"
        }
      }
    },
    {
      "name": "AREA 3 CONSULTORÍA SOCIAL, S. L.",
      "registrationNumber": "05744",
      "identificationNumber": "B95685285",
      "address": "Avda. Madariaga, 1 - 4º",
      "location": {
        "postalCode": "48014",
        "municipality": "Bilbao",
        "county": "Bizkaia",
        "municipalityId": "020",
        "countyId": "48"
      },
      "economicActivities": [
        {
          "id": "1.934",
          "name": "Enseñanza fuera de establecimiento permanente",
          "_links": {
            "self": {
              "name": "Enseñanza fuera de establecimiento permanente",
              "href": "https://api.euskadi.eus/procurements/companies/economic-activities/1.934"
            }
          }
        },
        {
          "id": "1.936",
          "name": "Investigación científica y técnica",
          "_links": {
            "self": {
              "name": "Investigación científica y técnica",
              "href": "https://api.euskadi.eus/procurements/companies/economic-activities/1.936"
            }
          }
        }
      ],
      "certificateStartDate": "2024-08-08",
      "certificateEndDate": "2025-02-04",
      "object": "La sociedad tiene por objeto social el desarrollo de actividades tendentes a la promoción y plena integración de los ciudadanos en situación de dificultad.",
      "mainEntityOfPage": "https://www.contratacion.euskadi.eus/webkpe00-kperoc/es/ac71aBusquedaRegistrosWar/empresa/05744",
      "_links": {
        "self": {
          "name": "AREA 3 CONSULTORÍA SOCIAL, S. L.",
          "href": "https://api.euskadi.eus/procurements/companies/05744"
        }
      }
    },
    {
      "name": "AURELIA DIDONA KANASZ",
      "registrationNumber": "09733",
      "identificationNumber": "Y6616019Z",
      "address": "Akilino Arriola 54",
      "location": {
        "postalCode": "48600",
        "municipality": "Sopela",
        "county": "Bizkaia",
        "municipalityId": "085",
        "countyId": "48"
      },
      "economicActivities": [
        {
          "id": "1.647.1",
          "name": "Venta al por menor de productos alimenticios y bebidas con vendedor",
          "_links": {
            "self": {
              "name": "Venta al por menor de productos alimenticios y bebidas con vendedor",
              "href": "https://api.euskadi.eus/procurements/companies/economic-activities/1.647.1"
            }
          }
        }
      ],
      "certificateStartDate": "2024-08-08",
      "certificateEndDate": "2025-01-12",
      "object": "VENTA AL POR MENOR DE PRODUCTOS ALIMENTICIOS Y BEBIDAS CON VENDEDOR.",
      "mainEntityOfPage": "https://www.contratacion.euskadi.eus/webkpe00-kperoc/es/ac71aBusquedaRegistrosWar/empresa/09733",
      "_links": {
        "self": {
          "name": "AURELIA DIDONA KANASZ",
          "href": "https://api.euskadi.eus/procurements/companies/09733"
        }
      }
    },
    {
      "name": "SUMAN INGENIERÍA Y SERVICIOS DE SEGURIDAD, S.L.",
      "registrationNumber": "06777",
      "identificationNumber": "B82109703",
      "address": "C/Santaren, nº 4 Plta 1 oficina 2 B",
      "location": {
        "postalCode": "06011",
        "municipality": "Badajoz",
        "county": "Badajoz",
        "municipalityId": "015",
        "countyId": "06"
      },
      "economicActivities": [
        {
          "id": "1.849.4",
          "name": "Servicios de custodia, seguridad y protección",
          "_links": {
            "self": {
              "name": "Servicios de custodia, seguridad y protección",
              "href": "https://api.euskadi.eus/procurements/companies/economic-activities/1.849.4"
            }
          }
        },
        {
          "id": "1.849.9",
          "name": "Otros servicios independientes n.c.o.p",
          "_links": {
            "self": {
              "name": "Otros servicios independientes n.c.o.p",
              "href": "https://api.euskadi.eus/procurements/companies/economic-activities/1.849.9"
            }
          }
        }
      ],
      "certificateStartDate": "2024-08-04",
      "certificateEndDate": "2025-02-04",
      "object": "A)  VIGILANCIA Y PROTECCIÓN DE BIENES, ESTABLECIMIENTOS, ESPECTÁCULOS, CERTÁMENES O CONVENCIONES. B) PROTECCIÓN DE PERSONAS DETERMINADAS, PREVIA LA AUTORIZACIÓN CORRESPONDIENTE. C) DEPÓSITO, CUSTODIA, RECUENTO Y CLASIFICACIÓN DE MONEDAS Y BILLETES, TÍTULOS-VALORES Y DEMÁS OBJETOS QUE POR SU VALOR ECONÓMICO Y EXPECTATIVAS QUE GENEREN, O POR SU PELIGROSIDAD, PUEDAN REQUERIR PROTECCIÓN ESPECIAL, SIN PERJUICIO DE LAS ACTIVIDADES PROPIAS DE LAS ENTIDADES FINANCIERAS. D) TRANSPORTE Y DISTRIBUCIÓN DE LOS OBJETOS A QUE SE REFIERE EL APARTADO ANTERIOR A TRAVÉS DE LOS DISTINTOS MEDIOS, REALIZÁNDOLOS, EN SU CASO MEDIANTE VEHÍCULOS CUYAS CARACTERÍSTICAS SERÁN DETERMINADAS POR EL MINISTERIO DEL INTERIOR, DE FORMA QUE NO PUEDAN CONFUNDIRSE CON LOS DE LAS FUERZAS ARMADAS NI CON LOS DE LAS FUERZAS Y CUERPOS DE SEGURIDAD. E) INSTALACIÓN Y MANTENIMIENTO DE APARATOS, DISPOSITIVOS Y SISTEMAS DE SEGURIDAD. F) EXPLOTACIÓN DE CENTRALES PARA LA RECEPCIÓN, VERIFICACIÓN Y TRANSMISIÓN DE LAS SEÑALES DE ALARMAS Y SU COMUNICACIÓN A LAS FUERZAS Y CUERPOS DE SEGURIDAD, ASÍ COMO PRESTACIÓN DE SERVICIOS DE RESPUESTA CUYA REALIZACIÓN NO SEA DE COMPETENCIA DE DICHAS FUERZAS Y CUERPOS. G) PLANIFICACIÓN Y ASESORAMIENTO DE LAS ACTIVIDADES DE SEGURIDAD CONTEMPLADAS EN LA LEY 23/1992 DE SEGURIDAD PRIVADA",
      "mainEntityOfPage": "https://www.contratacion.euskadi.eus/webkpe00-kperoc/es/ac71aBusquedaRegistrosWar/empresa/06777",
      "_links": {
        "self": {
          "name": "SUMAN INGENIERÍA Y SERVICIOS DE SEGURIDAD, S.L.",
          "href": "https://api.euskadi.eus/procurements/companies/06777"
        }
      }
    },
    {
      "name": "TWOBECOM IBERICA, S.L.",
      "registrationNumber": "08920",
      "identificationNumber": "B88072657",
      "address": "Ramón y Cajal, 18 nave 14",
      "location": {
        "postalCode": "28914",
        "municipality": "Leganés",
        "county": "Madrid",
        "municipalityId": "074",
        "countyId": "28"
      },
      "economicActivities": [
        {
          "id": "1.505.1",
          "name": "Revestimientos exteriores e interiores de todas clases",
          "_links": {
            "self": {
              "name": "Revestimientos exteriores e interiores de todas clases",
              "href": "https://api.euskadi.eus/procurements/companies/economic-activities/1.505.1"
            }
          }
        }
      ],
      "certificateStartDate": "2024-08-04",
      "certificateEndDate": "2025-02-04",
      "object": "COMERCIALIZACIÓN DE PRODUCTOS DESTINADOS A LA EJECUCIÓN DE OBRAS, CONSERVACIÓN DE LAS MISMAS Y A TODO TIPO DE EDIFICACIONES, ASÍ COMO LA VENTA DE DICHOS PRODUCTOS. EL MANTENIMIENTO, GESTIÓN Y EXPLOTACIÓN DE EDIFICIOS DE INFRAESTRUCTURA U OTROS BIENES INMUEBLES, URBANOS O RÚSTICOS. LA ADQUISICIÓN, COMERCIALIZACIÓN, ADMINISTRACIÓN, ARRENDAMIENTO ACTIVO O PASIVO, ENAJENACIÓN O GRAVAMEN DE BIENES INMUEBLES, ASÍ COMO SU EXPLOTACIÓN, CONSTRUCCIÓN, TRANSFORMACIÓN Y MANTENIMIENTO, CON EXCLUSIÓN DEL ARRENDAMIENTO FINANCIERO O \"LEASING\". LA EJECUCIÓN DE OBRAS PÚBLICAS O PRIVADAS. SE CONSTITUYE COMO SOCIEDAD DE INTERMEDIACIÓN O DE MEDIOS.",
      "mainEntityOfPage": "https://www.contratacion.euskadi.eus/webkpe00-kperoc/es/ac71aBusquedaRegistrosWar/empresa/08920",
      "_links": {
        "self": {
          "name": "TWOBECOM IBERICA, S.L.",
          "href": "https://api.euskadi.eus/procurements/companies/08920"
        }
      }
    },
    {
      "name": "SMARTBRAND, S.L.",
      "registrationNumber": "08923",
      "identificationNumber": "B65353336",
      "address": "Calle Iruña kalea, 1 bis - 5ª planta - Dpto. 7",
      "location": {
        "postalCode": "48014",
        "municipality": "Bilbao",
        "county": "Bizkaia",
        "municipalityId": "020",
        "countyId": "48"
      },
      "economicActivities": [
        {
          "id": "1.844",
          "name": "Servicios de publicidad, relaciones públicas y similares",
          "_links": {
            "self": {
              "name": "Servicios de publicidad, relaciones públicas y similares",
              "href": "https://api.euskadi.eus/procurements/companies/economic-activities/1.844"
            }
          }
        }
      ],
      "certificateStartDate": "2024-08-04",
      "certificateEndDate": "2025-02-04",
      "object": "- LA PRESTACIÓN DE SERVICIOS DE CONSULTORÍA Y ASESORAMIENTO ESTRATÉGICO EN GESTIÓN, MARKETING, VENTAS Y DESARROLLO DE NEGOCIO. - COMERCIALIZACIÓN DE PRODUCTOS ASOCIADOS CON LAS ACTIVIDADES ANTES RELACIONADAS. - LA REPRESENTACIÓN Y LA INTERMEDIACIÓN COMERCIAL.",
      "mainEntityOfPage": "https://www.contratacion.euskadi.eus/webkpe00-kperoc/es/ac71aBusquedaRegistrosWar/empresa/08923",
      "_links": {
        "self": {
          "name": "SMARTBRAND, S.L.",
          "href": "https://api.euskadi.eus/procurements/companies/08923"
        }
      }
    },
    {
      "name": "WELLSPECT, S.L.",
      "registrationNumber": "07711",
      "identificationNumber": "B67482463",
      "address": "Plaza de Europa, 31, planta baja",
      "location": {
        "postalCode": "08908",
        "municipality": "Hospitalet de Llobregat, L'",
        "county": "Barcelona",
        "municipalityId": "101",
        "countyId": "08"
      },
      "economicActivities": [
        {
          "id": "1.619.2",
          "name": "Venta al por mayor de aparatos e instrumentos médicos, ortopédicos, ópticos",
          "_links": {
            "self": {
              "name": "Venta al por mayor de aparatos e instrumentos médicos, ortopédicos, ópticos",
              "href": "https://api.euskadi.eus/procurements/companies/economic-activities/1.619.2"
            }
          }
        },
        {
          "id": "1.659.3",
          "name": "Venta al por menor de aparatos médicos, ortopédicos, ópticos y fotográficos",
          "_links": {
            "self": {
              "name": "Venta al por menor de aparatos médicos, ortopédicos, ópticos y fotográficos",
              "href": "https://api.euskadi.eus/procurements/companies/economic-activities/1.659.3"
            }
          }
        }
      ],
      "certificateStartDate": "2024-08-04",
      "certificateEndDate": "2025-02-04",
      "object": "LA IMPORTACIÓN, EXPORTACIÓN Y DISTRIBUCIÓN DE PRODUCTOS SANITARIOS Y MÉDICOS. EL OBJETO SOCIAL PODRÁ REALIZARSE POR LA SOCIEDAD YA DIRECTAMENTE, YA INDIRECTAMENTE, INCLUSO MEDIANTE LA TITULARIDAD DE ACCIONES O PARTICIPACIONES EN SOCIEDADES CON OBJETO SOCIAL ANÁLOGO",
      "mainEntityOfPage": "https://www.contratacion.euskadi.eus/webkpe00-kperoc/es/ac71aBusquedaRegistrosWar/empresa/07711",
      "_links": {
        "self": {
          "name": "WELLSPECT, S.L.",
          "href": "https://api.euskadi.eus/procurements/companies/07711"
        }
      }
    }
  ]
}