{
  "totalItems": 9042,
  "totalPages": 905,
  "currentPage": 497,
  "itemsOfPage": 10,
  "items": [
    {
      "name": "RAQUEL GOMEZ ARNAIZ-LUIS JULIO GONZALEZ POGGI S.C.",
      "registrationNumber": "08493",
      "identificationNumber": "J95954202",
      "address": "Juan Sebastián Elcano 1",
      "location": {
        "postalCode": "48960",
        "municipality": "Galdakao",
        "county": "Bizkaia",
        "municipalityId": "036",
        "countyId": "48"
      },
      "economicActivities": [
        {
          "id": "1.501.3",
          "name": "Albañilería y pequeños trabajos de construcción en general",
          "_links": {
            "self": {
              "name": "Albañilería y pequeños trabajos de construcción en general",
              "href": "https://api.euskadi.eus/procurements/companies/economic-activities/1.501.3"
            }
          }
        },
        {
          "id": "1.653.2",
          "name": "Venta al por menor de material y aparatos eléctricos, electrodomésticos y cocina",
          "_links": {
            "self": {
              "name": "Venta al por menor de material y aparatos eléctricos, electrodomésticos y cocina",
              "href": "https://api.euskadi.eus/procurements/companies/economic-activities/1.653.2"
            }
          }
        },
        {
          "id": "1.843.2",
          "name": "Servicios técnicos de arquitectura y urbanismo",
          "_links": {
            "self": {
              "name": "Servicios técnicos de arquitectura y urbanismo",
              "href": "https://api.euskadi.eus/procurements/companies/economic-activities/1.843.2"
            }
          }
        }
      ],
      "certificateStartDate": "2022-07-05",
      "certificateEndDate": "2022-11-30",
      "object": "ARQUITECTURA. DECORACIÓN. FABRICACIÓN DE LÁMPARAS. FABRICACIÓN DE ARTICULACIÓN DE DECORACIÓN. CONSTRUCCIÓN.",
      "mainEntityOfPage": "https://www.contratacion.euskadi.eus/webkpe00-kperoc/es/ac71aBusquedaRegistrosWar/empresa/08493",
      "_links": {
        "self": {
          "name": "RAQUEL GOMEZ ARNAIZ-LUIS JULIO GONZALEZ POGGI S.C.",
          "href": "https://api.euskadi.eus/procurements/companies/08493"
        }
      }
    },
    {
      "name": "BILBAO ARCHITECTURE TEAM SLP",
      "registrationNumber": "05383",
      "identificationNumber": "B95721700",
      "address": "C/ GRAN VIA 2, 7ª PLANTA",
      "location": {
        "postalCode": "48001",
        "municipality": "Bilbao",
        "county": "Bizkaia",
        "municipalityId": "020",
        "countyId": "48"
      },
      "economicActivities": [
        {
          "id": "1.843.2",
          "name": "Servicios técnicos de arquitectura y urbanismo",
          "_links": {
            "self": {
              "name": "Servicios técnicos de arquitectura y urbanismo",
              "href": "https://api.euskadi.eus/procurements/companies/economic-activities/1.843.2"
            }
          }
        }
      ],
      "certificateStartDate": "2022-07-05",
      "certificateEndDate": "2022-12-29",
      "object": "LA PRESTACIÓN DE LOS SERVICIOS PROPIOS DE LAS PROFESIONES DE ARQUITECTO Y ARQUITECTO TÉCNICO. ASÍ COMO EL DISEÑO DE TODO TIPO DE BIENES MUEBLES E INMUEBLES. SE ENTENDERÁ INCLUÍDO, EN EL ÁMBITO DE SU OBJETO SOCIAL PROFESIONAL, EL DESARROLLO DE ACTIVIDADES DE INVESTIGACIÓN CIENTÍFICA, DE FORMACIÓN EMPRESARIAL Y PROFESIONAL A TRAVÉS DE CONFERENCIAS, SEMINARIOS, MANUALES, LIBROS Y CUALQUIER OTRO MEDIO AUDIOVISUAL, LA PUBLICACIÓN DE APLICACIONES INFORMÁTICAS, BASES DE DATOS Y OTRAS HERRAMIENTAS INFORMÁTICAS RELACIONADAS CON LA ACTIVIDAD PROFESIONAL DE LA ARQUITECTURA Y EL DISEÑO",
      "mainEntityOfPage": "https://www.contratacion.euskadi.eus/webkpe00-kperoc/es/ac71aBusquedaRegistrosWar/empresa/05383",
      "_links": {
        "self": {
          "name": "BILBAO ARCHITECTURE TEAM SLP",
          "href": "https://api.euskadi.eus/procurements/companies/05383"
        }
      }
    },
    {
      "name": "BERRIZAN2020, S.L.",
      "registrationNumber": "08491",
      "identificationNumber": "B01825553",
      "address": "Pl. Donibane, 4-1º A",
      "location": {
        "postalCode": "20800",
        "municipality": "Zarautz",
        "county": "Gipuzkoa",
        "municipalityId": "079",
        "countyId": "20"
      },
      "economicActivities": [
        {
          "id": "1.653.2",
          "name": "Venta al por menor de material y aparatos eléctricos, electrodomésticos y cocina",
          "_links": {
            "self": {
              "name": "Venta al por menor de material y aparatos eléctricos, electrodomésticos y cocina",
              "href": "https://api.euskadi.eus/procurements/companies/economic-activities/1.653.2"
            }
          }
        },
        {
          "id": "1.691.9",
          "name": "Reparación de otros bienes de consumo n.c.o.p",
          "_links": {
            "self": {
              "name": "Reparación de otros bienes de consumo n.c.o.p",
              "href": "https://api.euskadi.eus/procurements/companies/economic-activities/1.691.9"
            }
          }
        }
      ],
      "certificateStartDate": "2022-07-05",
      "certificateEndDate": "2022-12-22",
      "object": "EL ESTUDIO Y ORGANIZACIÓN DE MERCADOS, ASÍ COMO EL ESTABLECIMIENTO DE CANALES DE DISTRIBUCIÓN, ESTABLECIMIENTO DE ALMACENES Y COMERCIOS, TODO ELLO DEDICADO A LOS TRABAJOS PROPIOS DE LA ACTIVIDAD DE REPARACIÓN Y VENTA DE EQUIPOS INFORMÁTICOS. EL ASESORAMIENTO EN TECNOLOGÍAS DE LA INFORMACIÓN PARA EMPRESAS. LA EXPLOTACIÓN MEDIANTE CESIÓN, ARRENDAMIENTO O CUALQUIER FÓRMULA LEGAL DE LAS INSTALACIONES Y DEMÁS BIENES PROPIOS DE LA SOCIEDAD. LA COMPRA Y VENTA, AL POR MAYOR Y AL POR MENOR, Y POSESIÓN DE TODA CLASE DE PRODUCTOS, MERCANCÍAS, APARATOS, MÁQUINAS, EQUIPOS, INSTALACIONES, ACCESORIOS, TODO ELLO RELACIONADO CON EQUIPOS INFORMÁTICOS, EQUIPOS DE RED Y COMUNICACIONES INFORMÁTICAS Y VEHÍCULOS. LA IMPORTACIÓN Y EXPORTACIÓN DE LOS MISMOS. ASÍ COMO LA OBTENCIÓN Y EXPLOTACIÓN, EN SU CASO, DE PERMISOS, CONCESIONES, PATENTES, MARCAS Y MODELOS. LA VENTA DE SOFTWARE COMERCIAL Y A MEDIDA. LA ELABORACIÓN DE PÁGINAS Y APLICACIONES WEB.\n",
      "mainEntityOfPage": "https://www.contratacion.euskadi.eus/webkpe00-kperoc/es/ac71aBusquedaRegistrosWar/empresa/08491",
      "_links": {
        "self": {
          "name": "BERRIZAN2020, S.L.",
          "href": "https://api.euskadi.eus/procurements/companies/08491"
        }
      }
    },
    {
      "name": "DACHER LOGISTICA VIZCAYA, S.L.",
      "registrationNumber": "08479",
      "identificationNumber": "B20936217",
      "address": "Sector 6-13 Boroa Industrialdea Parcela 25",
      "location": {
        "postalCode": "48340",
        "municipality": "Amorebieta-Etxano",
        "county": "Bizkaia",
        "municipalityId": "003",
        "countyId": "48"
      },
      "economicActivities": [
        {
          "id": "1.756",
          "name": "Intermediarios del transporte",
          "_links": {
            "self": {
              "name": "Intermediarios del transporte",
              "href": "https://api.euskadi.eus/procurements/companies/economic-activities/1.756"
            }
          }
        }
      ],
      "certificateStartDate": "2022-06-30",
      "certificateEndDate": "2022-12-27",
      "object": "A) EL DEPÓSITO Y ALMACENAJE DE TODA CLASE DE MERCADERÍAS, PROPIAS O DE TERCEROS, Y SU RECEPCIÓN Y ENVÍO POR CUALQUIER CLASE DE MEDIO DE TRANSPORTE, INCLUIDA LA EXPLOTACIÓN DE LOS RECINTOS T.I.R. PARA EL DEPÓSITO DE MERCADERÍAS IMPORTADAS EN MODALIDAD DE TRÁNSITO. B) EL TRANSPORTE Y DISTRIBUCIÓN, YA SEA TERRESTRE, MARÍTIMO O AÉREO, NACIONAL O INTERNACIONAL, DE TODA CLASE DE MERCANCÍA. C) LA COMPRA, VENTA, AGENCIA, MEDIACIÓN, ARRENDAMIENTO DE TODA CLASE DE MEDIOS DE TRANSPORTE, NAVES, DEPÓSITOS, ALMACENES, RECINTOS, EDIFICACIONES Y TERRENOS, ASÍ COMO PROMOVER SU CONSTRUCCIÓN O EDIFICACIÓN.",
      "mainEntityOfPage": "https://www.contratacion.euskadi.eus/webkpe00-kperoc/es/ac71aBusquedaRegistrosWar/empresa/08479",
      "_links": {
        "self": {
          "name": "DACHER LOGISTICA VIZCAYA, S.L.",
          "href": "https://api.euskadi.eus/procurements/companies/08479"
        }
      }
    },
    {
      "name": "RESIDENCIA ETXEDER S.L.",
      "registrationNumber": "08478",
      "identificationNumber": "B48969216",
      "address": "C/General Castaños, 139",
      "location": {
        "postalCode": "48920",
        "municipality": "Portugalete",
        "county": "Bizkaia",
        "municipalityId": "078",
        "countyId": "48"
      },
      "economicActivities": [
        {
          "id": "1.951",
          "name": "Asistencia y servicios sociales en centros residenciales",
          "_links": {
            "self": {
              "name": "Asistencia y servicios sociales en centros residenciales",
              "href": "https://api.euskadi.eus/procurements/companies/economic-activities/1.951"
            }
          }
        }
      ],
      "certificateStartDate": "2022-06-30",
      "certificateEndDate": "2022-12-23",
      "object": "LA PRESTACIÓN DE SERVICIOS SOCIALES RESIDENCIALES PARA LA TERCERA EDAD, DE CONFORMIDAD CON LO ESTABLECIDO EN LOS DECRETOS 40/98 Y 41/98 DE 10 DE ABRIL, DEL GOBIERNO VASCO.",
      "mainEntityOfPage": "https://www.contratacion.euskadi.eus/webkpe00-kperoc/es/ac71aBusquedaRegistrosWar/empresa/08478",
      "_links": {
        "self": {
          "name": "RESIDENCIA ETXEDER S.L.",
          "href": "https://api.euskadi.eus/procurements/companies/08478"
        }
      }
    },
    {
      "name": "BIOMEDICAL SUPPLY, S.L.",
      "registrationNumber": "06522",
      "identificationNumber": "B97887319",
      "address": "C/ Luis Buñuel Director C., 1, Oficina 2",
      "location": {
        "postalCode": "46015",
        "municipality": "València",
        "county": "Valencia/València",
        "municipalityId": "250",
        "countyId": "46"
      },
      "economicActivities": [
        {
          "id": "1.614.1",
          "name": "Venta al por mayor de productos farmacéuticos y medicamentos",
          "_links": {
            "self": {
              "name": "Venta al por mayor de productos farmacéuticos y medicamentos",
              "href": "https://api.euskadi.eus/procurements/companies/economic-activities/1.614.1"
            }
          }
        }
      ],
      "certificateStartDate": "2022-06-30",
      "certificateEndDate": "2022-12-30",
      "object": "LA COMPRAVENTA, ADQUISICIÓN Y TRANSMISIÓN, POR CUALQUIER TÍTULO O CAUSA, DE TODA CLASE DE INMUEBLES URBANOS O RÚSTICOS. EL ARRENDAMIENTO O CESIÓN DEL USO Y DISFRUTE POR OTROS TÍTULOS, TANTO ACTIVA COMO PASIVAMENTE, DE TODA CLASE DE INMUEBLES URBANOS O RÚSTICOS, EXCEPTO EL ARRENDAMIENTO FINANCIERO O LEASING. LA PROMOCIÓN Y CONSTRUCCIÓN, DIRECTAMENTE O A TRAVÉS DE CONTRATISTAS, POR CUENTA PROPIA O AJENA, DE TODA CLASE DE EDIFICACIONES DE CUALQUIER TIPO. LA SUSCRIPCIÓN, ADQUISICIÓN DERIVATIVA Y ENAJENACIÓN DE VALORES MOBILIARIOS Y DE ACCIONES Y PARTICIPACIONES SOCIALES, EXCEPTO AQUELLAS ACTIVIDADES A LEGISLACIÓN ESPECIAL. LA PRESTACIÓN DE SERVICIOS DE ASESORAMIENTO Y ASISTENCIA TÉCNICA A EMPRESAS, PROFESIONALES Y PARTICULARES, ASÍ COMO A ORGANISMOS PÚBLICOS, EN MATERIA ECONÓMICA, FINANCIERA Y TÉCNICA; DE GESTIÓN, ORGANIZACIÓN Y ADMINISTRACIÓN, ASÍ COMO DED CARÁCTER CONTABLE, TRIBUTARIO, SOCIAL Y LABORAL, Y JURÍDICO",
      "mainEntityOfPage": "https://www.contratacion.euskadi.eus/webkpe00-kperoc/es/ac71aBusquedaRegistrosWar/empresa/06522",
      "_links": {
        "self": {
          "name": "BIOMEDICAL SUPPLY, S.L.",
          "href": "https://api.euskadi.eus/procurements/companies/06522"
        }
      }
    },
    {
      "name": "ESTUPENDO EVENTOS, S.L.",
      "registrationNumber": "08042",
      "identificationNumber": "B01946631",
      "address": "CL LORETO DE ARRIOLA, 23",
      "location": {
        "postalCode": "01010",
        "municipality": "Vitoria-Gasteiz",
        "county": "Araba/Álava",
        "municipalityId": "059",
        "countyId": "01"
      },
      "economicActivities": [
        {
          "id": "1.966.9",
          "name": "Otros servicios culturales n.c.o.p",
          "_links": {
            "self": {
              "name": "Otros servicios culturales n.c.o.p",
              "href": "https://api.euskadi.eus/procurements/companies/economic-activities/1.966.9"
            }
          }
        }
      ],
      "certificateStartDate": "2022-06-29",
      "certificateEndDate": "2022-12-26",
      "object": "ORGANIZACIÓN DE EVENTOS DEPORTIVOS, CULTURALES Y RECREATIVOS. PRESTACIÓN DE SERVICIOS DE ANIMACIÓN SOCIOCULTURAL. GESTIÓN Y EXPLOTACIÓN DE LUDOTECAS, CENTROS DE OCIO, PARQUES INFANTILES, ALBERGUES JUVENILES, CENTROS JÓVENES Y DEPORTIVOS, ASÍ COMO CUALQUIER OTRO TIPO DE INSTALACIÓN O SERVICIO DESTINADO A SERVICIOS DIRIGIDOS A POBLACIÓN INFANTIL O JUVENIL. CONTRATACIÓN Y PRODUCCIÓN DE ESPECTÁCULOS. ALQUILER, COMPRAVENTA, IMPORTACIÓN Y EXPORTACIÓN DE CUALQUIER TIPO DE MATERIALES E INFRAESTRUCTURAS EN RELACIÓN CON LOS SERVICIOS PRESTADOS. CONTRATACIÓN DE MONITORES, AUXILIARES Y/O PERSONAL DE APOYO PARA EL DESARROLLO DE CUALQUIER TIPO DE ACTIVIDAD CON O SIN APORTACIÓN DE MATERIAL.",
      "mainEntityOfPage": "https://www.contratacion.euskadi.eus/webkpe00-kperoc/es/ac71aBusquedaRegistrosWar/empresa/08042",
      "_links": {
        "self": {
          "name": "ESTUPENDO EVENTOS, S.L.",
          "href": "https://api.euskadi.eus/procurements/companies/08042"
        }
      }
    },
    {
      "name": "MUSIKANAIZ S.L",
      "registrationNumber": "08471",
      "identificationNumber": "B75126797",
      "address": "Xabier Lizardi 1 bajo 2",
      "location": {
        "postalCode": "20018",
        "municipality": "Donostia / San Sebastián",
        "county": "Gipuzkoa",
        "municipalityId": "069",
        "countyId": "20"
      },
      "economicActivities": [
        {
          "id": "1.657",
          "name": "Venta al por menor de instrumentos musicales y sus accesorios",
          "_links": {
            "self": {
              "name": "Venta al por menor de instrumentos musicales y sus accesorios",
              "href": "https://api.euskadi.eus/procurements/companies/economic-activities/1.657"
            }
          }
        },
        {
          "id": "1.932.1",
          "name": "Enseñanza de formación y perfeccionamiento profesional no superior",
          "_links": {
            "self": {
              "name": "Enseñanza de formación y perfeccionamiento profesional no superior",
              "href": "https://api.euskadi.eus/procurements/companies/economic-activities/1.932.1"
            }
          }
        },
        {
          "id": "1.979.9",
          "name": "Otros servicios personales n.c.o.p",
          "_links": {
            "self": {
              "name": "Otros servicios personales n.c.o.p",
              "href": "https://api.euskadi.eus/procurements/companies/economic-activities/1.979.9"
            }
          }
        }
      ],
      "certificateStartDate": "2022-06-28",
      "certificateEndDate": "2022-12-10",
      "object": "LAS ACTIVIDADES RELACIONADAS CON EL ANÁLISIS DE PERSONAS Y PROFESIONAL (CNAE 9609). LAS ACTIVIDADES RELACIONADAS CON LA FORMACIÓN NO REGLADA (CNAE 8559). COMPRAVENTA AL POR MENOR DE INSTRUMENTOS MUSICALES (CNAE 4759).",
      "mainEntityOfPage": "https://www.contratacion.euskadi.eus/webkpe00-kperoc/es/ac71aBusquedaRegistrosWar/empresa/08471",
      "_links": {
        "self": {
          "name": "MUSIKANAIZ S.L",
          "href": "https://api.euskadi.eus/procurements/companies/08471"
        }
      }
    },
    {
      "name": "JAVIER MORCILLO BALLESTEROS",
      "registrationNumber": "08470",
      "identificationNumber": "44688108M",
      "address": "Calle Azilu 15",
      "location": {
        "postalCode": "01240",
        "municipality": "Alegría-Dulantzi",
        "county": "Araba/Álava",
        "municipalityId": "001",
        "countyId": "01"
      },
      "economicActivities": [
        {
          "id": "1.722",
          "name": "Transporte de mercancías por carretera",
          "_links": {
            "self": {
              "name": "Transporte de mercancías por carretera",
              "href": "https://api.euskadi.eus/procurements/companies/economic-activities/1.722"
            }
          }
        }
      ],
      "certificateStartDate": "2022-06-27",
      "certificateEndDate": "2022-12-16",
      "object": "TRANSPORTE DE MERCANCÍAS POR CARRETERA.",
      "mainEntityOfPage": "https://www.contratacion.euskadi.eus/webkpe00-kperoc/es/ac71aBusquedaRegistrosWar/empresa/08470",
      "_links": {
        "self": {
          "name": "JAVIER MORCILLO BALLESTEROS",
          "href": "https://api.euskadi.eus/procurements/companies/08470"
        }
      }
    },
    {
      "name": "SURTECH ENGINEERING, S.L.",
      "registrationNumber": "08035",
      "identificationNumber": "B99510679",
      "address": "Fabla Aragonesa 15",
      "location": {
        "postalCode": "50171",
        "municipality": "Puebla de Alfindén, La",
        "county": "Zaragoza",
        "municipalityId": "219",
        "countyId": "50"
      },
      "economicActivities": [
        {
          "id": "1.324.2",
          "name": "Construcción de máquinas para la industria química",
          "_links": {
            "self": {
              "name": "Construcción de máquinas para la industria química",
              "href": "https://api.euskadi.eus/procurements/companies/economic-activities/1.324.2"
            }
          }
        }
      ],
      "certificateStartDate": "2022-06-27",
      "certificateEndDate": "2022-12-27",
      "object": "EL DISEÑO, FABRICACIÓN Y MONTAJE DE MAQUINARIA E INSTALACIONES PARA EL TRATAMIENTO SUPERFICIAL DE METALES Y PLÁSTICOS.",
      "mainEntityOfPage": "https://www.contratacion.euskadi.eus/webkpe00-kperoc/es/ac71aBusquedaRegistrosWar/empresa/08035",
      "_links": {
        "self": {
          "name": "SURTECH ENGINEERING, S.L.",
          "href": "https://api.euskadi.eus/procurements/companies/08035"
        }
      }
    }
  ]
}