{
  "totalItems": 9042,
  "totalPages": 905,
  "currentPage": 27,
  "itemsOfPage": 10,
  "items": [
    {
      "name": "AFFA ARQUITECTURA TÉCNICA, S.L.",
      "registrationNumber": "10517",
      "identificationNumber": "B01775600",
      "address": "Barrio Tantorta (48340), 10",
      "location": {
        "postalCode": "48340",
        "municipality": "Amorebieta-Etxano",
        "county": "Bizkaia",
        "municipalityId": "003",
        "countyId": "48"
      },
      "economicActivities": [
        {
          "id": "1.843.2",
          "name": "Servicios técnicos de arquitectura y urbanismo",
          "_links": {
            "self": {
              "name": "Servicios técnicos de arquitectura y urbanismo",
              "href": "https://api.euskadi.eus/procurements/companies/economic-activities/1.843.2"
            }
          }
        }
      ],
      "certificateStartDate": "2026-02-03",
      "certificateEndDate": "2026-08-03",
      "object": "1.- LA INTERMEDIACIÓN Y COORDINACIÓN DE ACTIVIDADES RELACIONADAS CON UN ESTUDIO DE ARQUITECTURA, REDACCIÓN DE TODO TIPO DE PROYECTOS DE ARQUITECTURA E INGENIERÍA, EJECUCIÓN DE OBRAS CIVILES, PÚBLICAS, HIDRÁULICAS, TODO TIPO DE EDIFICACIONES, ASÍ COMO LA PRESTACIÓN DE SERVICIOS TÉCNICOS DE ASESORAMIENTO Y DIRECCIÓN DE TODO TIPO DE OBRAS. LA INTERMEDIACIÓN EN EL ASESORAMIENTO TÉCNICO EN MATERIA URBANÍSTICA. 2.- LA COMPRAVENTA, PROMOCIÓN, ARRENDAMIENTO, ADMINISTRACIÓN Y GESTIÓN Y EXPLOTACIÓN DE TODO TIPO DE FINCAS E INMUEBLES Y LA PRESTACIÓN DE TODO TIPO DE SERVICIOS INMOBILIARIOS, Y EN GENERAL LA INTERMEDIACIÓN EN EL SECTOR INMOBILIARIO. 3.- LA ADQUISICIÓN, TENENCIA, DISFRUTE, ADMINISTRACIÓN Y ENAJENACIÓN DE TODA CLASE DE VALORES MOBILIARIOS POR CUENTA PROPIA, QUEDANDO EXCLUIDAS LAS ACTIVIDADES QUE LA LEGISLACIÓN ESPECIAL Y BÁSICAMENTE LA LEY DE MERCADO DE VALORES ATRIBUYE CON CARÁCTER EXCLUSIVO A OTRAS ENTIDADES. 4.- LA PROMOCIÓN, CONSTRUCCIÓN, COMPRA, VENTA, ARRENDAMIENTO Y EXPLOTACIÓN EN CUALQUIER OTRA FORMA DE TODA CLASE DE EDIFICACIONES, SOLARES E INMUEBLES EN GENERAL, TANTO POR CUENTA PROPIA COMO AJENA. LA REALIZACIÓN, GESTIÓN Y EJECUCIÓN, POR CUALQUIER TÍTULO, DE TODO TIPO DE OBRAS, ALBAÑILERÍA, PINTURA, REFORMAS Y OBRAS EN GENERAL, POR CUENTA PROPIA O AJENA; LA REALIZACIÓN DE SONDEOS, PERFORACIONES, ALLANAMIENTOS, DESMONTES Y CIMENTACIONES, Y DE AISLAMIENTOS E IMPERMEABILIZACIONES; LA SUPERVISIÓN, DIRECCIÓN Y ASESORAMIENTO EN LA EJECUCIÓN DE OBRAS Y CONSTRUCCIONES; LA REHABILITACIÓN Y ACONDICIONAMIENTO DE EDIFICIOS Y LAS DEMÁS ACTIVIDADES INMOBILIARIAS. LA PERFORACIÓN PARA ALIMBRAMIENTO Y ABASTECIMIENTO DE AGUAS. LA COMPRA, VENTA, IMPORTACIÓN, EXPORTACIÓN Y COMERCIALIZACIÓN EN GENERAL DE TODA CLASE DE MATERIALES DE LA CONSTRUCCIÓN Y/O COMPLEMENTARIOS Y/O DECORATIVOS, MAQUINARIA INDUSTRIAL, ASÍ COMO CUALQUIERA INSTALACIONES, ELEMENTOS O SERVICIOS DE LAS EDIFICACIONES. 5.- REALIZACIÓN DE ACTIVIDADES DE CONSOLIDACIÓN, RESTAURACIÓN Y PREPARACIÓN DE TERRENOS, MOVIMIENTOS DE TIERRAS, EXCAVACIONES, DERRIBOS, DEMOLICIONES, PERFORACIONES PARA ALUMBRAMIENTO DE AGUAS, CIMENTACIONES Y PAVIMENTACIONES. PREPARACIÓN Y MONTAJE DE ESTRUCTURAS Y CUBIERTAS, POSTES Y TORRES METÁLICAS, CARRILES, COMPUERTAS, GRÚAS. EL RELLENO DE PIEDRA, TIERRA Y RESIDUOS DE CONSTRUCCIÓN NO CONTAMINADOS Y PROCEDENTES DE EXCEDENTES DE OBRAS Y EXCAVACIONES, SU ALMACENAMIENTO, SU TRATAMIENTO, SU CLASIFICACIÓN Y SU RECICLADO PARA SU POSTERIOR COMERCIALIZACIÓN Y VENTA. ESTAS ACTIVIDADES TAMBIÉN PODRÁN SER DESARROLLADAS, DE MODO INDIRECTO, MEDIANTE LA PARTICIPACIÓN EN SOCIEDADES CON ANÁLOGO OBJETO. 6.- EL DISEÑO, FABRICACIÓN, COMERCIALIZACIÓN, COMPRAVENTA DE MÓDULOS INDUSTRIALIZADOS. ",
      "mainEntityOfPage": "https://www.contratacion.euskadi.eus/webkpe00-kperoc/es/ac71aBusquedaRegistrosWar/empresa/10517",
      "_links": {
        "self": {
          "name": "AFFA ARQUITECTURA TÉCNICA, S.L.",
          "href": "https://api.euskadi.eus/procurements/companies/10517"
        }
      }
    },
    {
      "name": "BUEN CREADOR, S.L.",
      "registrationNumber": "09463",
      "identificationNumber": "B56442338",
      "address": "C/ Santiago 27, ppal dcha",
      "location": {
        "postalCode": "50003",
        "municipality": "Zaragoza",
        "county": "Zaragoza",
        "municipalityId": "297",
        "countyId": "50"
      },
      "economicActivities": [
        {
          "id": "1.845",
          "name": "Explotación electrónica por cuenta de terceros",
          "_links": {
            "self": {
              "name": "Explotación electrónica por cuenta de terceros",
              "href": "https://api.euskadi.eus/procurements/companies/economic-activities/1.845"
            }
          }
        }
      ],
      "certificateStartDate": "2026-02-03",
      "certificateEndDate": "2026-07-14",
      "object": "A) LA ADQUISICIÓN Y ARRENDAMIENTO NO FINANCIERO DE BIENES INMUEBLES. B) LA ADQUISICIÓN POR CUALQUIER TÍTULO, ADMINISTRACIÓN, GESTIÓN, DISFRUTE Y ENAJENACIÓN DE ACCIONES Y PARTICIPACIONES REPRESENTATIVAS DEL CAPITAL SOCIAL DE CUALQUIER CLASE DE SOCIEDADES, OBLIGACIONES O CUALQUIER TIPO DE RENTA FIJA, TODO ELLO POR CUENTA PROPIA, CON EXCEPCIÓN DE LAS ACTIVIDADES CONTEMPLADAS EN LA LEY 35/2003, DE 4 DE NOVIEMBRE, DE INSTITUCIONES DE INVERSIÓN COLECTIVA, ASÍ COMO EN LA NORMATIVA QUE DESARROLLA LA REFERIDA DISPOSICIÓN. C) ADMINISTRAR Y GESTIONAR EL CONJUNTO DE LAS ACTIVIDADES EMPRESARIALES DE SUS SOCIEDADES PARTICIPADAS. D) OTRAS ACTIVIDADES DE CONSULTORÍA DE GESTIÓN EMPRESARIAL. E) ACTIVIDADES DE PROGRAMACIÓN INFORMÁTICA. F) ACTIVIDADES DE CONSULTORÍA INFORMÁTICA.",
      "mainEntityOfPage": "https://www.contratacion.euskadi.eus/webkpe00-kperoc/es/ac71aBusquedaRegistrosWar/empresa/09463",
      "_links": {
        "self": {
          "name": "BUEN CREADOR, S.L.",
          "href": "https://api.euskadi.eus/procurements/companies/09463"
        }
      }
    },
    {
      "name": "ALAZNE GARCIA BARCENILLA-MIREN BARRUTIA AREVALO, Sociedad Civil",
      "registrationNumber": "06525",
      "identificationNumber": "J95659785",
      "address": "Lehendakari Aguirre nº 11, piso 1º, despacho nº 13 ",
      "location": {
        "postalCode": "48014",
        "municipality": "Bilbao",
        "county": "Bizkaia",
        "municipalityId": "020",
        "countyId": "48"
      },
      "economicActivities": [
        {
          "id": "1.934",
          "name": "Enseñanza fuera de establecimiento permanente",
          "_links": {
            "self": {
              "name": "Enseñanza fuera de establecimiento permanente",
              "href": "https://api.euskadi.eus/procurements/companies/economic-activities/1.934"
            }
          }
        }
      ],
      "certificateStartDate": "2026-02-03",
      "certificateEndDate": "2026-08-02",
      "object": "SOSTENER UNA INICIATIVA PROFESIONAL CON VOCACIÓN DE AYUDA AL INDIVIDUO, A GRUPOS DE INDIVIDUOS (PAREJAS, FAMILIAS, GRUPOS..), A INSTITUCIONES (MUNICIPALES, ESCOLARES..), A ASOCIACIONES, A FUNDACIONES, ETC.",
      "mainEntityOfPage": "https://www.contratacion.euskadi.eus/webkpe00-kperoc/es/ac71aBusquedaRegistrosWar/empresa/06525",
      "_links": {
        "self": {
          "name": "ALAZNE GARCIA BARCENILLA-MIREN BARRUTIA AREVALO, Sociedad Civil",
          "href": "https://api.euskadi.eus/procurements/companies/06525"
        }
      }
    },
    {
      "name": "LORENZO MARTIN LARRABE",
      "registrationNumber": "10516",
      "identificationNumber": "30622690F",
      "address": "BO MENDOTZA AUZOA 2A",
      "location": {
        "postalCode": "48113",
        "municipality": "Gamiz-Fika",
        "county": "Bizkaia",
        "municipalityId": "038",
        "countyId": "48"
      },
      "economicActivities": [
        {
          "id": "1.659.5",
          "name": "Venta al por menor de artículos de joyería, relojería, platería y bisutería",
          "_links": {
            "self": {
              "name": "Venta al por menor de artículos de joyería, relojería, platería y bisutería",
              "href": "https://api.euskadi.eus/procurements/companies/economic-activities/1.659.5"
            }
          }
        },
        {
          "id": "1.691.9",
          "name": "Reparación de otros bienes de consumo n.c.o.p",
          "_links": {
            "self": {
              "name": "Reparación de otros bienes de consumo n.c.o.p",
              "href": "https://api.euskadi.eus/procurements/companies/economic-activities/1.691.9"
            }
          }
        },
        {
          "id": "1.861.2",
          "name": "Alquiler de locales industriales y otros alquileres n.c.o.p",
          "_links": {
            "self": {
              "name": "Alquiler de locales industriales y otros alquileres n.c.o.p",
              "href": "https://api.euskadi.eus/procurements/companies/economic-activities/1.861.2"
            }
          }
        }
      ],
      "certificateStartDate": "2026-02-03",
      "certificateEndDate": "2026-07-30",
      "object": "VENTA AL POR MENOR DE ARTÍCULOS DE JOYERÍA, RELOJERÍA, PLATERÍA Y BISUTERÍA. REPARACIÓN DE OTROS BIENES DE CONSUMO N.C.O.P. ALQUILER DE LOCALES INDUSTRIALES Y OTROS ALQUILERES N.C.O.P.",
      "mainEntityOfPage": "https://www.contratacion.euskadi.eus/webkpe00-kperoc/es/ac71aBusquedaRegistrosWar/empresa/10516",
      "_links": {
        "self": {
          "name": "LORENZO MARTIN LARRABE",
          "href": "https://api.euskadi.eus/procurements/companies/10516"
        }
      }
    },
    {
      "name": "LETE ITZULPENAK TRADUCCIONES, S.L.",
      "registrationNumber": "01996",
      "identificationNumber": "B20608360",
      "address": "C/ MIGUEL DE ZABALETA, Nº 2. BAJO IZDA.",
      "location": {
        "postalCode": "20100",
        "municipality": "Errenteria",
        "county": "Gipuzkoa",
        "municipalityId": "067",
        "countyId": "20"
      },
      "economicActivities": [
        {
          "id": "1.849.3",
          "name": "Servicios de traducción y similares",
          "_links": {
            "self": {
              "name": "Servicios de traducción y similares",
              "href": "https://api.euskadi.eus/procurements/companies/economic-activities/1.849.3"
            }
          }
        }
      ],
      "certificateStartDate": "2026-02-03",
      "certificateEndDate": "2026-08-03",
      "object": "LA TRADUCCIÓN Y ADAPTACIÓN DE TEXTOS EN DISTINTAS LENGUAS, TANTO PARA LA CREACIÓN DE MEDIOS DE LECTURA, COMO DE MEDIOS AUDIOVISUALES Y OTROS",
      "mainEntityOfPage": "https://www.contratacion.euskadi.eus/webkpe00-kperoc/es/ac71aBusquedaRegistrosWar/empresa/01996",
      "_links": {
        "self": {
          "name": "LETE ITZULPENAK TRADUCCIONES, S.L.",
          "href": "https://api.euskadi.eus/procurements/companies/01996"
        }
      }
    },
    {
      "name": "SEI SOINUA, S.L.",
      "registrationNumber": "10515",
      "identificationNumber": "B75080861",
      "address": "Pol. Industrial Abendaño nº3",
      "location": {
        "postalCode": "20800",
        "municipality": "Zarautz",
        "county": "Gipuzkoa",
        "municipalityId": "079",
        "countyId": "20"
      },
      "economicActivities": [
        {
          "id": "1.843.9",
          "name": "Otros servicios técnicos n.c.o.p",
          "_links": {
            "self": {
              "name": "Otros servicios técnicos n.c.o.p",
              "href": "https://api.euskadi.eus/procurements/companies/economic-activities/1.843.9"
            }
          }
        }
      ],
      "certificateStartDate": "2026-02-03",
      "certificateEndDate": "2026-08-03",
      "object": "EL ALQUILER Y MONTAJE DE TODO TIPO DE EQUIPOS DE SONIDO, AUDIOVISUALES, TANTO EN EXTERIORES COMO INTERIORES, ASÍ COMO LA PREPARACIÓN E INSTALACIÓN DE LOS MISMOS PARA EVENTOS DEPORTIVOS, CULTURALES Y DE CUALQUIER OTRA ÍNDOLE.",
      "mainEntityOfPage": "https://www.contratacion.euskadi.eus/webkpe00-kperoc/es/ac71aBusquedaRegistrosWar/empresa/10515",
      "_links": {
        "self": {
          "name": "SEI SOINUA, S.L.",
          "href": "https://api.euskadi.eus/procurements/companies/10515"
        }
      }
    },
    {
      "name": "KEFREN, S.L.",
      "registrationNumber": "00998",
      "identificationNumber": "B20042586",
      "address": "Pº DUQUE DE MANDAS, Nº 27-29 - BAJO",
      "location": {
        "postalCode": "20012",
        "municipality": "Donostia / San Sebastián",
        "county": "Gipuzkoa",
        "municipalityId": "069",
        "countyId": "20"
      },
      "economicActivities": [
        {
          "id": "1.653.1",
          "name": "Venta al por menor de muebles (excepto los de oficina)",
          "_links": {
            "self": {
              "name": "Venta al por menor de muebles (excepto los de oficina)",
              "href": "https://api.euskadi.eus/procurements/companies/economic-activities/1.653.1"
            }
          }
        },
        {
          "id": "1.659.2",
          "name": "Venta al por menor de muebles de oficina y máquinas y equipos de oficina",
          "_links": {
            "self": {
              "name": "Venta al por menor de muebles de oficina y máquinas y equipos de oficina",
              "href": "https://api.euskadi.eus/procurements/companies/economic-activities/1.659.2"
            }
          }
        },
        {
          "id": "1.843.9",
          "name": "Otros servicios técnicos n.c.o.p",
          "_links": {
            "self": {
              "name": "Otros servicios técnicos n.c.o.p",
              "href": "https://api.euskadi.eus/procurements/companies/economic-activities/1.843.9"
            }
          }
        },
        {
          "id": "1.849.9",
          "name": "Otros servicios independientes n.c.o.p",
          "_links": {
            "self": {
              "name": "Otros servicios independientes n.c.o.p",
              "href": "https://api.euskadi.eus/procurements/companies/economic-activities/1.849.9"
            }
          }
        }
      ],
      "certificateStartDate": "2026-02-03",
      "certificateEndDate": "2026-07-15",
      "object": "LA OBTENCIÓN DE BENEFICIOS POR MEDIO DE LA VENTA E INSTALACIÓN DE MOBILIARIOS Y ELEMENTOS DE DECORACIÓN DE TODAS CLASES",
      "mainEntityOfPage": "https://www.contratacion.euskadi.eus/webkpe00-kperoc/es/ac71aBusquedaRegistrosWar/empresa/00998",
      "_links": {
        "self": {
          "name": "KEFREN, S.L.",
          "href": "https://api.euskadi.eus/procurements/companies/00998"
        }
      }
    },
    {
      "name": "RICARDO FERNANDEZ RODRIGUEZ",
      "registrationNumber": "10514",
      "identificationNumber": "78873824Q",
      "address": "Calle Errekatxu",
      "location": {
        "postalCode": "48902",
        "municipality": "Barakaldo",
        "county": "Bizkaia",
        "municipalityId": "013",
        "countyId": "48"
      },
      "economicActivities": [
        {
          "id": "1.677.9",
          "name": "Otros servicios de alimentación propios de la restauración",
          "_links": {
            "self": {
              "name": "Otros servicios de alimentación propios de la restauración",
              "href": "https://api.euskadi.eus/procurements/companies/economic-activities/1.677.9"
            }
          }
        }
      ],
      "certificateStartDate": "2026-02-03",
      "certificateEndDate": "2026-08-02",
      "object": "OTROS SERVICIOS DE ALIMENTACIÓN PROPIOS DE LA RESTAURACIÓN.",
      "mainEntityOfPage": "https://www.contratacion.euskadi.eus/webkpe00-kperoc/es/ac71aBusquedaRegistrosWar/empresa/10514",
      "_links": {
        "self": {
          "name": "RICARDO FERNANDEZ RODRIGUEZ",
          "href": "https://api.euskadi.eus/procurements/companies/10514"
        }
      }
    },
    {
      "name": "WE ARE CLICKERS, S.L.",
      "registrationNumber": "10513",
      "identificationNumber": "B02808889",
      "address": "C/ Joxe Miel Barandiarán 6, 1ºB",
      "location": {
        "postalCode": "48200",
        "municipality": "Durango",
        "county": "Bizkaia",
        "municipalityId": "027",
        "countyId": "48"
      },
      "economicActivities": [
        {
          "id": "1.651.2",
          "name": "Venta al por menor de prendas de ropa para el vestido y tocado",
          "_links": {
            "self": {
              "name": "Venta al por menor de prendas de ropa para el vestido y tocado",
              "href": "https://api.euskadi.eus/procurements/companies/economic-activities/1.651.2"
            }
          }
        },
        {
          "id": "1.845",
          "name": "Explotación electrónica por cuenta de terceros",
          "_links": {
            "self": {
              "name": "Explotación electrónica por cuenta de terceros",
              "href": "https://api.euskadi.eus/procurements/companies/economic-activities/1.845"
            }
          }
        },
        {
          "id": "1.847",
          "name": "Servicios de consultoría",
          "_links": {
            "self": {
              "name": "Servicios de consultoría",
              "href": "https://api.euskadi.eus/procurements/companies/economic-activities/1.847"
            }
          }
        }
      ],
      "certificateStartDate": "2026-02-03",
      "certificateEndDate": "2026-08-02",
      "object": "ACTIVIDAD PRINCIPAL: CNAE: 7490 OTRAS ACTIVIDADES PROFESIONALES, CIENTÍFICAS Y TÉCNICAS N.C.O.P. OTRAS ACTIVIDADES: CNAE: 4741.- COMERCIO AL POR MENOR DE ORDENADORES, EQUIPOS PERIFÉRICOS Y PROGRAMAS INFORMÁTICOS EN ESTABLECIMIENTOS ESPECIALIZADOS. CNAE: 4771.- COMERCIO AL POR MENOR DE PRENDAS DE VESTIR EN ESTABLECIMIENTOS ESPECIALIZADOS. CNAE: 4791.- COMERCIO AL POR MENOR POR CORRESPONDENCIA O INTERNET. CNAE: 4799.- OTRO COMERCIO AL POR MENOR NO REALIZADO NI EN ESTABLECIMIENTOS, NI EN PUESTOS DE VENTA NI EN MERCADILLOS. CNAE: 5829.- EDICIÓN DE OTROS PROGRAMAS INFORMÁTICOS CNAE: 6201.- ACTIVIDADES DE PROGRAMACIÓN INFORMÁTICA CNAE: 6202.- ACTIVIDADES DE CONSULTORÍA INFORMÁTICA CNAE: 6203.- GESTIÓN DE RECURSOS INFORMÁTICOS CNAE: 6209.- OTROS SERVICIOS RELACIONADOS CON LAS TECNOLOGÍAS DE LA INFORMACIÓN Y LA INFORMÁTICA CNAE: 6311.- PROCESO DE DATOS, HOSTING Y ACTIVIDADES RELACIONADAS CNAE: 6312.- PORTALES WEB CNAE: 6399.- OTROS SERVICIOS DE INFORMACIÓN N.C.O.P. CNAE: 7022.- OTRAS ACTIVIDADES DE CONSULTORÍA DE GESTIÓN EMPRESARIAL CNAE: 7211.- INVESTIGACIÓN Y DESARROLLO EXPERIMENTAL EN BIOTECNOLOGÍA CNAE: 7219.- OTRA INVESTIGACIÓN Y DESARROLLO EXPERIMENTAL EN CIENCIAS NATURALES Y TÉCNICAS CNAE: 8559.- OTRA EDUCACIÓN N.C.O.P.",
      "mainEntityOfPage": "https://www.contratacion.euskadi.eus/webkpe00-kperoc/es/ac71aBusquedaRegistrosWar/empresa/10513",
      "_links": {
        "self": {
          "name": "WE ARE CLICKERS, S.L.",
          "href": "https://api.euskadi.eus/procurements/companies/10513"
        }
      }
    },
    {
      "name": "BITEK SISTEMAS INTEGRALES DE TELECOMUNICACIONES, S.L.",
      "registrationNumber": "06557",
      "identificationNumber": "B01404276",
      "address": "C/ larzabal Nº31, 1º oficina 3A",
      "location": {
        "postalCode": "20100",
        "municipality": "Errenteria",
        "county": "Gipuzkoa",
        "municipalityId": "067",
        "countyId": "20"
      },
      "economicActivities": [
        {
          "id": "1.848.1",
          "name": "SERVICIOS INTEGRALES DE CORREOS Y TELECOMUNICACIONES",
          "_links": {
            "self": {
              "name": "SERVICIOS INTEGRALES DE CORREOS Y TELECOMUNICACIONES",
              "href": "https://api.euskadi.eus/procurements/companies/economic-activities/1.848.1"
            }
          }
        }
      ],
      "certificateStartDate": "2026-02-03",
      "certificateEndDate": "2026-07-23",
      "object": "LA PRESTACIÓN CON CARÁCTER GENERAL DE SERVICIOS RELACIONADOS CON EL SECTOR DE LAS TELECOMUNICACIONES, Y A TAL FIN LA PROMOCIÓN, ADQUISICIÓN Y COMERCIALIZACIÓN DE DICHOS SERVICIOS, LA REALIZACIÓN, DIRECTA O INDIRECTAMENTE A TRAVÉS DE SUBCONTRATACIONES, DE OBRAS DE CONSTRUCCIÓN DE INFRAESTRUCTURAS, REDES E INSTALACIONES PARA LA IMPLANTACIÓN O MANTENIMIENTO DE SERVICIOS DE TELECOMUNICACIONES, LA REALIZACIÓN DE TRABAJOS DE MANTENIMIENTO DE REDES Y SERVICIOS DE TELECOMUNICACIONES, Y ACTIVIDADES CONEXAS DESTINADAS A LA PRESTACIÓN DE SERVICIOS DE TELECOMUNICACIONES",
      "mainEntityOfPage": "https://www.contratacion.euskadi.eus/webkpe00-kperoc/es/ac71aBusquedaRegistrosWar/empresa/06557",
      "_links": {
        "self": {
          "name": "BITEK SISTEMAS INTEGRALES DE TELECOMUNICACIONES, S.L.",
          "href": "https://api.euskadi.eus/procurements/companies/06557"
        }
      }
    }
  ]
}