{
  "totalItems": 9042,
  "totalPages": 905,
  "currentPage": 713,
  "itemsOfPage": 10,
  "items": [
    {
      "name": "INDRA BMB, S.L.",
      "registrationNumber": "04617",
      "identificationNumber": "B84138296",
      "address": "AVDA. BRUSELAS, 35",
      "location": {
        "postalCode": "28108",
        "municipality": "Alcobendas",
        "county": "Madrid",
        "municipalityId": "006",
        "countyId": "28"
      },
      "economicActivities": [
        {
          "id": "1.842",
          "name": "Servicios financieros y contables",
          "_links": {
            "self": {
              "name": "Servicios financieros y contables",
              "href": "https://api.euskadi.eus/procurements/companies/economic-activities/1.842"
            }
          }
        },
        {
          "id": "1.845",
          "name": "Explotación electrónica por cuenta de terceros",
          "_links": {
            "self": {
              "name": "Explotación electrónica por cuenta de terceros",
              "href": "https://api.euskadi.eus/procurements/companies/economic-activities/1.845"
            }
          }
        }
      ],
      "certificateStartDate": "2011-06-01",
      "certificateEndDate": "2011-11-03",
      "object": "1º. LA PRESTACIÓN DE SERVICIOS DE GESTIÓN Y EXTERNALIZACIÓN DE TODA CLASE  DE PROCESOS QUE PUEDAN REQUERIRSE PARA EL ADECUADO DESENVOLVIMIENTO DE UNA ACTIVIDAD EMPRESAL, TALES COMO, A TÍTULO DE EJEMPLO, SERVICIOS GENERALES, CALL CENTERS, BACK OFFICE, ADMINISTRACIÓN DE PERSONAL, GESTIÓN DE NÓMINAS, GESTIÓN DE BENEFICIOS, GESTIÓN CONTABLE, GESTIÓN DE RECLAMACIONES DE CLIENTES, GESTIÓN DE IMPAGADOS, Y ELLO PARA TODO TIPO DE EMPRESAS, ORGANISMOS Y ENTIDADES PÚBLICAS O PRIVADAS. 2º LA PRESTACIÓN DE SERVICIOS DE GESTIÓN DOCUMENTAL, TALES COMO: (I) LA CAPTURA DE INFORMACÓN POR MEDIOS ELECTRÓNICOS, INFORMÁTICOS Y TELEMÁTICOS, INCLUYENDO LOS TRABAJOS DE MECANOGRAFÍA, REPROGRAFÍA, TAQUIGRAFÍA, GRABACIÓN, ACTUALIZACIÓN DE DATOS Y REALIZACIÓN DE ENCUESTAS; (II) LA DIGITALIZACIÓN, ENTRADA DE DATOS Y CONVERSIÓN DE FORMATOS DE DOCUMENTOS POR MEDIOS ELECTRÓNICOS, INFORMÁTICOS Y TELEMÁTICOS; (III) LA MANIPULACIÓN DE DOCUMENTACIÓN, TANTO EN SU FASE DE ELABORACIÓN COMO DE IMPRESIÓN,ACABADOS, DISTRIBUCIÓN, ALMACENAJE Y CUALQUIER OTRA RELACIONADA CON LAS ANTERIORES FUNCIONES, EN ESPECIAL LA GENERACIÓN DE DOCUMENTACIÓN PERSONALIZADA PARA CLIENTES (PRINTING&FINISHING) Y LA TRADUCCIÓN DE DOCUMENTACIÓN. (IV) LA PRESTACIÓN DE SERVICIOS AUXILIARES PARA TRABAJOS ADMINISTRATIVOS DE CATALOGACIÓN, ARCHIVO Y SIMILAES, LA GESTIÓN Y EL FRANQUEO DE CORRESPONDENCIA Y LA PRESTACIÓN DE SERVICIOS DE CONSOLIDACIÓN  DE ENVÍOS POSTALES A TERCEROS. 3º LA REALIZACIÓN DE TODOS LOS TRÁMITES NECESARIOS O CONVENIENTES PARA LA LIQUIDACIÓN E INSCRIPCIÓN EN SU CASO EN LOS REGISTROS PÍBLICOS Y PRIVADOS, EN ESPECIAL, LA REALIZACIÓN DE LAS SIGUIENTES ACTIVIDADES: -PREPARACIÓN, SEGUIMIENTO  DESARROLLO DE PROCEDIMIENTOS, TANTO JUDICIALES, COMO EXTRAJUDICIALES CONTEMPLADOS EN LA NORMATIVA HIPOTECARIA. - REALIZACIÓN DE GESTIONES EN OFICINAS PÚBLICAS O PRIVADAS PARA OBTENER DATOS O ANTECEDENTES SOBRE TITULARIDAD REGISTRAL DE BIENES, ASÍ COMO LA TRAMITACIÓN DE LOS TÍTULOS  PREVIOS O NO, NECESARIOS PARA LA INSCRIPCIÓN DE LA PLENA PROPIEDAD EN LOS REGISTROS CORRESPONDIENTES. - CONSTITUCIÓN DE HIPOTECA LEGAL Y SU AMPLIACIÓN, EXPEDIENTES DE POSESIÓN JUDICIAL, EXPEDIENTES DE CONSIGNACIÓN, EXPEDIENTES DE DOMINIO Y ACTAS DE NOTORIEDAD. - ACTUACIONES, MEDIANTE DECLARACIONES Y AUTOLIQUIDACIONES EN MATERIA DE IMPUESTO DE TRANSMISIONES Y ACTOS JURÍDICOS DOCUMENTADOS, ASÍ COMO ASESORAMIENTO EN CUAQUIER  OTRA ACTUACIÓN TRIBUTARIA O IMPOSITIVA HASTA LA INSCRIPCIÓN DEFINITIVA DE LAS TITULARIDADES CORRESPONDIENTES. - ACTUACIONES RELATIVAS AL IMPUESTO SOBRE BIENES INMUEBLES, EN ESPECIAL, ALTAS, BAJAS, SEGREGACIONES Y TRANSMISIONES. -ESTUDIO Y REALIZACIÓN DE ACTUACIONES EN MATERIA SUCESORIA, TANTO JUDICIALES, PREVIAS O POSTERIORES, COMO EXTRAJUDICIALES, MANIFESTACIONES E BIENES PARA LA OPORTUNA LIQUIDACIÓN DEL IMPUESTO SOBRE SUCESIONES Y DONACIONES. - ASESORAMIENTO A ÓRGANOS ADMINISTRADORES DE SOCIEDADES MERCANTILES, ASÍ COMO A PERSONAS FÍSICAS, SEAN PROFESIONALES Y/O EMPRESARIOS O NO, EN ASPECTOS JURÍDICOS, FISCALES, MERCANTILES E HIPOTECARIOS. 4º LA REALIZACIÓN DE TODAS AQUELLAS ACTIVIDADES COMPLEMENTARIAS Y AUXILIARES QUE SE CONSIDEREN NECESARIAS PARA LA REALIZACIÓN DE LAS ACTIVIDADES PRINCIPALES DE COMPAÑÍA DESCRITAS EN LOS APARTADOS ANTERIORES. EN ESPECIAL, SE INCLUYEN: (I) EL DISEÑO, DESARROLLO, PRODUCCIÓN, INTEGRACIÓN, COMERCIALIZACIÓN, OPERACIÓN, INSTALACIÓN, REPARACIÓN Y MANTENIMIENTO DE SISTEMAS, EQUIPOS, INSTALACIONES, REDES, SOLUCIONES Y PRODUCTOS QUE HAGAN USO DE LA ELECTRÓNICA, ELECTRICIDAD, INFORMÁTICA, COMUNICACIONES U OTRAS TECNOLOGÍAS DE LA INFORMACIÓN, ASÍ COMO CUALQUIER TIPO DE SERVICIOS RELACIONADOS CON TODO ELLO. (II) LA COMPRA-VENTA AL POR MAYOR Y AL POR MENOR, Y LA COMERCIALIZACIÓN DE EQUIPOS FÍSICOS (HARDWARE), PROGRAMAS INFORMÁTICOS, LICENCIAS DE PRODUCTOS, MATERIAL DE OFIMÁTICA, MOBILIARIO Y TELECOMUNICACIONES. (III) LA PRESTACIÓN DE SERVICIOS PROFESIONALES EN LOS ÁMBITOS DE CONSULTORÍA DE NEGOCIO Y DE GESTIÓN; CONSULTORÍA TECNOLÓGICA; ASESORAMIENTO INTEGRAL Y PROMOCIÓN. (IV) LA PRESTACIÓN DE SERVICIOS DE FORMACIÓN, ENTRENAMIENTO DE PROFESIONALES Y ESTABLECIMIENTO DE PLANES DE CARRERA E IMPARTICIÓN Y ORGANIZACIÓN DE CUALQUIER TIPO DE ACTIVIDAD RELACIONADA CON ÁREAS ANTES MENCIONADAS, DESTINADOS A CUALQUIER CAMP O SECTOR, INCLUYENDO LA ELABORACIÓN Y EJECUCIÓN DE TODA CLASE DE ESTUDIOS Y PROYECTOS",
      "mainEntityOfPage": "https://www.contratacion.euskadi.eus/webkpe00-kperoc/es/ac71aBusquedaRegistrosWar/empresa/04617",
      "_links": {
        "self": {
          "name": "INDRA BMB, S.L.",
          "href": "https://api.euskadi.eus/procurements/companies/04617"
        }
      }
    },
    {
      "name": "OBRAS Y SERVICIOS DE CONSTRUCCIÓN DULSA, S.L. (SOC.UNIPERSONAL)",
      "registrationNumber": "02839",
      "identificationNumber": "B95257069",
      "address": "C/AXULAR, 1",
      "location": {
        "postalCode": "48510",
        "municipality": "Valle de Trápaga-Trapagaran",
        "county": "Bizkaia",
        "municipalityId": "080",
        "countyId": "48"
      },
      "economicActivities": [
        {
          "id": "1.501.1",
          "name": "Construcción completa, reparación y conservación de edificaciones",
          "_links": {
            "self": {
              "name": "Construcción completa, reparación y conservación de edificaciones",
              "href": "https://api.euskadi.eus/procurements/companies/economic-activities/1.501.1"
            }
          }
        }
      ],
      "certificateStartDate": "2011-05-26",
      "certificateEndDate": "2011-09-03",
      "object": "LA CONSTRUCCIÓN DE VIVIENDAS, LOCALES COMERCIALES, PABELLONES INDUSTRIALES Y TODA CLASE DE EDIFICIOS, SU VENTA Y ARRENDAMIENTO, ASÍ COMO LA REALIZACIÓN DE TODO TIPO DE OBRAS Y REFORMAS.\r\nLA SOCIEDAD NO REALIZARÁ NINGUNA DE LAS ACTIVIDADES SUJETAS A RÉGIMEN DE AUTORIZACIÓN ESPECIAL O LEGISLACIÓN ESPECIAL, SINGULARMENTE LAS RELATIVAS A INSTITUCIONES DE INVERSIÓN COLECTIVA   Y MERCADO DE VALORES, SIN HABER OBTENIDO PREVIAMENTE LAS CORRESPONDIENTES AUTORIZACIONES. ",
      "mainEntityOfPage": "https://www.contratacion.euskadi.eus/webkpe00-kperoc/es/ac71aBusquedaRegistrosWar/empresa/02839",
      "_links": {
        "self": {
          "name": "OBRAS Y SERVICIOS DE CONSTRUCCIÓN DULSA, S.L. (SOC.UNIPERSONAL)",
          "href": "https://api.euskadi.eus/procurements/companies/02839"
        }
      }
    },
    {
      "name": "GRÚAS TEC, S.L.",
      "registrationNumber": "03011",
      "identificationNumber": "B01350115",
      "address": "POLÍGONO INDUSTRIAL ARZA S/N",
      "location": {
        "postalCode": "01400",
        "municipality": "Laudio/Llodio",
        "county": "Araba/Álava",
        "municipalityId": "036",
        "countyId": "01"
      },
      "economicActivities": [
        {
          "id": "1.999",
          "name": "Otros servicios n.c.o.p",
          "_links": {
            "self": {
              "name": "Otros servicios n.c.o.p",
              "href": "https://api.euskadi.eus/procurements/companies/economic-activities/1.999"
            }
          }
        }
      ],
      "certificateStartDate": "2011-05-26",
      "certificateEndDate": "2011-10-20",
      "object": "LA COMPRAVENTA, ADQUISICIÓN, ENAJENACIÓN, TENECIA, DISFRUTE, ALQUILER Y EXPLOTACIÓN POR TODO MEDIO POSIBLE, PROMOCIÓN, CONSTRUCCIÓN, MANTENIMIENTO, REHABILITACIÓN Y REPARACIÓN, POR CUENTA PROPIA O AJENA, DE VEHÍCULOS, INGENIOS O APARATOS INDUSTRIALES O MECÁNICOS DE TRASNPORTE Y DE ELEVACIÓN.\r\n\r\nLA ADMINISTRACIÓN Y ARRENDAMIENTO DE BIENES MUEBLES E INMUEBLES.",
      "mainEntityOfPage": "https://www.contratacion.euskadi.eus/webkpe00-kperoc/es/ac71aBusquedaRegistrosWar/empresa/03011",
      "_links": {
        "self": {
          "name": "GRÚAS TEC, S.L.",
          "href": "https://api.euskadi.eus/procurements/companies/03011"
        }
      }
    },
    {
      "name": "GUIPUZCOANA DE RESTAURACIONES, S.A.",
      "registrationNumber": "01463",
      "identificationNumber": "A20079653",
      "address": "C/ EASO, 18",
      "location": {
        "postalCode": "20006",
        "municipality": "Donostia / San Sebastián",
        "county": "Gipuzkoa",
        "municipalityId": "069",
        "countyId": "20"
      },
      "economicActivities": [
        {
          "id": "1.501.1",
          "name": "Construcción completa, reparación y conservación de edificaciones",
          "_links": {
            "self": {
              "name": "Construcción completa, reparación y conservación de edificaciones",
              "href": "https://api.euskadi.eus/procurements/companies/economic-activities/1.501.1"
            }
          }
        }
      ],
      "certificateStartDate": "2011-05-24",
      "certificateEndDate": "2011-10-08",
      "object": "LA PROMOCIÓN, CONSTRUCCIÓN Y ENAJENACIÓN DE INMUEBLES TANTO DE CARÁCTER URBANO Y RÚSTICO, COMO DE CARÁCTER INDUSTRIAL.\r\nLA ADQUISICIÓN DE SOLARES PARA EJERCITAR LAS PROMOCIONES INMOBILIARIAS CORRESPONDIENTES SOBRE LOS MISMOS.\r\nRESTAURACIÓN, CONSOLIDACIÓN, EMBELLECIMIENTO, REFORMA Y REPARACIÓN DE TODA CLASE DE INMUEBLES, ESPECIALMENTE LOS DE CARÁCTER HISTÓRICO-ARTÍSTICO.\r\nCUALQUIER OTRA ACTIVIDAD QUE TENGA RELACIÓN DIRECTA, SEA ANTECEDENTE O CONSECUENTE, CON LAS ACTIVIDADES ANTES MENCIONADAS ",
      "mainEntityOfPage": "https://www.contratacion.euskadi.eus/webkpe00-kperoc/es/ac71aBusquedaRegistrosWar/empresa/01463",
      "_links": {
        "self": {
          "name": "GUIPUZCOANA DE RESTAURACIONES, S.A.",
          "href": "https://api.euskadi.eus/procurements/companies/01463"
        }
      }
    },
    {
      "name": "HAMILTON MEDICAL ESPAÑA, S.A.",
      "registrationNumber": "04416",
      "identificationNumber": "A81865693",
      "address": "C/PUERTO DE CANENCIA, 21",
      "location": {
        "postalCode": "28935",
        "municipality": "Móstoles",
        "county": "Madrid",
        "municipalityId": "092",
        "countyId": "28"
      },
      "economicActivities": [
        {
          "id": "1.659.3",
          "name": "Venta al por menor de aparatos médicos, ortopédicos, ópticos y fotográficos",
          "_links": {
            "self": {
              "name": "Venta al por menor de aparatos médicos, ortopédicos, ópticos y fotográficos",
              "href": "https://api.euskadi.eus/procurements/companies/economic-activities/1.659.3"
            }
          }
        }
      ],
      "certificateStartDate": "2011-05-20",
      "certificateEndDate": "2011-10-07",
      "object": "LA COMPRAVENTA, IMPORTACIÓN, EXPORTAICÓN, DISTRIBUCIÓN, ASÍ COMO MONTAJE, ENSAMBLAMIENTO, FABRICACIÓN Y DESARROLLO DE ARTÍCULOS PERTENECIENTES AL SECTOR DE ELECTROMEDICINA, ORDENADORES, APARATOS DE MEDIDA ANALÍTICA, DE LABORATORIO Y EN GENERAL DE MATERIALES Y PRODUCTOS DE CARÁCTER CIENTÍFICO, INFORMÁTICO O PROPIO DE LA ACTIVIDAD ADMINISTRATIVA",
      "mainEntityOfPage": "https://www.contratacion.euskadi.eus/webkpe00-kperoc/es/ac71aBusquedaRegistrosWar/empresa/04416",
      "_links": {
        "self": {
          "name": "HAMILTON MEDICAL ESPAÑA, S.A.",
          "href": "https://api.euskadi.eus/procurements/companies/04416"
        }
      }
    },
    {
      "name": "ALFONSO OLAVE, S.L.",
      "registrationNumber": "03868",
      "identificationNumber": "B01266477",
      "address": "RAIMUNDO OLABIDE, 25-BAJO",
      "location": {
        "postalCode": "01006",
        "municipality": "Vitoria-Gasteiz",
        "county": "Araba/Álava",
        "municipalityId": "059",
        "countyId": "01"
      },
      "economicActivities": [
        {
          "id": "1.501.1",
          "name": "Construcción completa, reparación y conservación de edificaciones",
          "_links": {
            "self": {
              "name": "Construcción completa, reparación y conservación de edificaciones",
              "href": "https://api.euskadi.eus/procurements/companies/economic-activities/1.501.1"
            }
          }
        }
      ],
      "certificateStartDate": "2011-05-19",
      "certificateEndDate": "2011-09-11",
      "object": "LA REALIZACIÓN DE TRABAJOS DE ALBAÑILERÍA, FONTANERÍA, ELECTRICIDAD, MOVIMIENTO, EXCAVACIÓN Y APLANAMIENTO DE TIERRAS Y DERRIBO DE EDIFICACIONES, CONSTRUCCIÓN, PROMOCIÓN, VENTA Y ALQUILER DE EDIFICIOS",
      "mainEntityOfPage": "https://www.contratacion.euskadi.eus/webkpe00-kperoc/es/ac71aBusquedaRegistrosWar/empresa/03868",
      "_links": {
        "self": {
          "name": "ALFONSO OLAVE, S.L.",
          "href": "https://api.euskadi.eus/procurements/companies/03868"
        }
      }
    },
    {
      "name": "BACK STAGE MARKETING, S.L.",
      "registrationNumber": "04614",
      "identificationNumber": "B95639746",
      "address": "RIBERA DE ERANDIO, 9 DTO. 11",
      "location": {
        "postalCode": "48950",
        "municipality": "Erandio",
        "county": "Bizkaia",
        "municipalityId": "902",
        "countyId": "48"
      },
      "economicActivities": [
        {
          "id": "1.844",
          "name": "Servicios de publicidad, relaciones públicas y similares",
          "_links": {
            "self": {
              "name": "Servicios de publicidad, relaciones públicas y similares",
              "href": "https://api.euskadi.eus/procurements/companies/economic-activities/1.844"
            }
          }
        }
      ],
      "certificateStartDate": "2011-05-19",
      "certificateEndDate": "2011-09-10",
      "object": "84400 servicios de publicidad y relaciones públicas",
      "mainEntityOfPage": "https://www.contratacion.euskadi.eus/webkpe00-kperoc/es/ac71aBusquedaRegistrosWar/empresa/04614",
      "_links": {
        "self": {
          "name": "BACK STAGE MARKETING, S.L.",
          "href": "https://api.euskadi.eus/procurements/companies/04614"
        }
      }
    },
    {
      "name": "ESPIRAL, S.L.",
      "registrationNumber": "01221",
      "identificationNumber": "B20023495",
      "address": "C/ SAN MARTÍN, Nº 3 y 5.",
      "location": {
        "postalCode": "20005",
        "municipality": "Donostia / San Sebastián",
        "county": "Gipuzkoa",
        "municipalityId": "069",
        "countyId": "20"
      },
      "economicActivities": [
        {
          "id": "1.653.1",
          "name": "Venta al por menor de muebles (excepto los de oficina)",
          "_links": {
            "self": {
              "name": "Venta al por menor de muebles (excepto los de oficina)",
              "href": "https://api.euskadi.eus/procurements/companies/economic-activities/1.653.1"
            }
          }
        },
        {
          "id": "1.659.2",
          "name": "Venta al por menor de muebles de oficina y máquinas y equipos de oficina",
          "_links": {
            "self": {
              "name": "Venta al por menor de muebles de oficina y máquinas y equipos de oficina",
              "href": "https://api.euskadi.eus/procurements/companies/economic-activities/1.659.2"
            }
          }
        }
      ],
      "certificateStartDate": "2011-05-18",
      "certificateEndDate": "2011-10-06",
      "object": "LA COMPRAVENTA DE MOBILIARIO EN GENERAL, ASÍ COMO LA ELABORACIÓN DE PROYECTOS TÉCNICOS Y ARTÍSTICOS",
      "mainEntityOfPage": "https://www.contratacion.euskadi.eus/webkpe00-kperoc/es/ac71aBusquedaRegistrosWar/empresa/01221",
      "_links": {
        "self": {
          "name": "ESPIRAL, S.L.",
          "href": "https://api.euskadi.eus/procurements/companies/01221"
        }
      }
    },
    {
      "name": "TRACE SOFTWARE, S.L.",
      "registrationNumber": "02857",
      "identificationNumber": "B95234324",
      "address": "MÁXIMO AGUIRRE, 18 BIS - 7º DPTO 5",
      "location": {
        "postalCode": "48011",
        "municipality": "Bilbao",
        "county": "Bizkaia",
        "municipalityId": "020",
        "countyId": "48"
      },
      "economicActivities": [
        {
          "id": "1.845",
          "name": "Explotación electrónica por cuenta de terceros",
          "_links": {
            "self": {
              "name": "Explotación electrónica por cuenta de terceros",
              "href": "https://api.euskadi.eus/procurements/companies/economic-activities/1.845"
            }
          }
        }
      ],
      "certificateStartDate": "2011-05-17",
      "certificateEndDate": "2011-10-11",
      "object": "LA REALIZACIÓN DE SERVICIOS DE INFORMÁTICA, GESTIÓN Y DESARROLLO DE PROGRAMAS INFORMÁTICOS, DE SISTEMAS DE INFORMACIÓN Y SERVICIOS CONEXOS ASÍ COMO EL ASESORAMIENTO EN ESTA MATERIA A TODO TIPO DE ENTIDADES.\r\nDICHA ACTIVIDAD SE EJERCERÁ SIEMPRE QUE, CUANDO SEA NECESARIO, SE CUMPLAN LOS REQUISITOS LEGALES Y SE OBSERVEN LAS AUTORIZACIONES ADMINISTRATIVAS QUE, EN SU CASO SE  PRECISEN.\r\nLAS ACTIVIDADES ENUMERADAS EN EL PRIMER PÁRRAFO DE ESTE ARTÍCULO PODRÁN SER REALIZADAS POR LA SOCIEDAD, TOTAL O PARCIALMENTE, DE MODO INDIRECTO, MEDIANTE SU PARTICIPACIÓN EN OTRAS SOCIEDADES DE OBJETO IDÉNTICO O ANÁLOGO.  ",
      "mainEntityOfPage": "https://www.contratacion.euskadi.eus/webkpe00-kperoc/es/ac71aBusquedaRegistrosWar/empresa/02857",
      "_links": {
        "self": {
          "name": "TRACE SOFTWARE, S.L.",
          "href": "https://api.euskadi.eus/procurements/companies/02857"
        }
      }
    },
    {
      "name": "CONSTRUCCIONES PUBLICAS ARABA, S.L.",
      "registrationNumber": "04603",
      "identificationNumber": "B01477124",
      "address": "Paseo de la UNESCO, 3-5",
      "location": {
        "postalCode": "01015",
        "municipality": "Vitoria-Gasteiz",
        "county": "Araba/Álava",
        "municipalityId": "059",
        "countyId": "01"
      },
      "economicActivities": [
        {
          "id": "1.501.3",
          "name": "Albañilería y pequeños trabajos de construcción en general",
          "_links": {
            "self": {
              "name": "Albañilería y pequeños trabajos de construcción en general",
              "href": "https://api.euskadi.eus/procurements/companies/economic-activities/1.501.3"
            }
          }
        },
        {
          "id": "1.833.2",
          "name": "Promoción de edificaciones",
          "_links": {
            "self": {
              "name": "Promoción de edificaciones",
              "href": "https://api.euskadi.eus/procurements/companies/economic-activities/1.833.2"
            }
          }
        }
      ],
      "certificateStartDate": "2011-05-12",
      "certificateEndDate": "2011-09-25",
      "object": "LA COMPRAVENTA E INTERMEDIACIÓN DE TODA CLASE DE FINCAS RÚSTICAS Y URBANAS, LA PROMOCIÓN Y CONSTRUCCIÓN SOBRE LAS MISMAS DE TODA CLASE DE EDIFICACIONES, SU REHABILITACIÓN, VENTA O ARRENDAMIENTO NO FINANCIERO, Y LA CONSTRUCCIÓN DE TODA CLASE DE OBRAS PÚBLICAS O PRIVADAS. INSTALACIONES DE CUALQUIER NATURALEZA, DECORACIÓN Y ACABADO DE TODO TIPO DE INMUEBLES, ASÍ COMO SUS REPARACIONES Y MANTENIMIENTOS POSTERIORES. COMPRAVENTA, COMERCIO AL POR MAYOR Y MENOR, IMPORTACIÓN Y EXPORTACIÓN DE TODO TIPO DE MATERIALES DE CONSTRUCCIÓN Y MAQUINARIA RELACIONADA SERVICIOS DE CONTROL, CONSERJERÍA Y GUARDERÍA DE INMUEBLES. LA COMPRAVENTA Y COMERCIALIACIÓN DE DERECHOS DE APROVECHAMIENTO POR TURNOS DE BIENES INMUEBLES. EL ESTUDIO, DESARROLLO, COMERCIALIZACIÓN, PLANIFICACIÓN PUBLICITARIA Y MARKETING DE APROVECHAMIENTO POR TURNOS DE BIENES INMUEBLES, OFERTAS Y ESTANCIAS VACACIONALES Y DE TIEMPO COMPARTIDO. GESTIÓN URBANÍSTICA DEL SUELO",
      "mainEntityOfPage": "https://www.contratacion.euskadi.eus/webkpe00-kperoc/es/ac71aBusquedaRegistrosWar/empresa/04603",
      "_links": {
        "self": {
          "name": "CONSTRUCCIONES PUBLICAS ARABA, S.L.",
          "href": "https://api.euskadi.eus/procurements/companies/04603"
        }
      }
    }
  ]
}