{
  "totalItems": 9042,
  "totalPages": 905,
  "currentPage": 427,
  "itemsOfPage": 10,
  "items": [
    {
      "name": "IGUANA INFORMATION TECHNOLOGIES, S.L.",
      "registrationNumber": "08011",
      "identificationNumber": "B83793166",
      "address": "Bulevar del Manzanares, 6 Pta C4",
      "location": {
        "postalCode": "28701",
        "municipality": "San Sebastián de los Reyes",
        "county": "Madrid",
        "municipalityId": "134",
        "countyId": "28"
      },
      "economicActivities": [
        {
          "id": "1.474",
          "name": "Artes gráficas (impresión gráfica)",
          "_links": {
            "self": {
              "name": "Artes gráficas (impresión gráfica)",
              "href": "https://api.euskadi.eus/procurements/companies/economic-activities/1.474"
            }
          }
        },
        {
          "id": "1.845",
          "name": "Explotación electrónica por cuenta de terceros",
          "_links": {
            "self": {
              "name": "Explotación electrónica por cuenta de terceros",
              "href": "https://api.euskadi.eus/procurements/companies/economic-activities/1.845"
            }
          }
        }
      ],
      "certificateStartDate": "2024-04-16",
      "certificateEndDate": "2024-10-09",
      "object": "LA EXPLOTACIÓN ELECTRÓNICA POR CUENTA DE TERCEROS.",
      "mainEntityOfPage": "https://www.contratacion.euskadi.eus/webkpe00-kperoc/es/ac71aBusquedaRegistrosWar/empresa/08011",
      "_links": {
        "self": {
          "name": "IGUANA INFORMATION TECHNOLOGIES, S.L.",
          "href": "https://api.euskadi.eus/procurements/companies/08011"
        }
      }
    },
    {
      "name": "SUMMER BIO, S.L.",
      "registrationNumber": "09010",
      "identificationNumber": "B95963450",
      "address": "Avda. Lopez de Haro 53, 5º drcha",
      "location": {
        "postalCode": "48011",
        "municipality": "Bilbao",
        "county": "Bizkaia",
        "municipalityId": "020",
        "countyId": "48"
      },
      "economicActivities": [
        {
          "id": "1.844",
          "name": "Servicios de publicidad, relaciones públicas y similares",
          "_links": {
            "self": {
              "name": "Servicios de publicidad, relaciones públicas y similares",
              "href": "https://api.euskadi.eus/procurements/companies/economic-activities/1.844"
            }
          }
        }
      ],
      "certificateStartDate": "2024-04-16",
      "certificateEndDate": "2024-10-16",
      "object": "1. LA REALIZACIÓN Y EJECUCIÓN DE PROYECTOS PUBLICITARIOS Y LAS TAREAS RELACIONADAS CON LA CONTRATACIÓN, INTERMEDIACIÓN, Y DIFUSIÓN DE MENSAJES PUBLICITARIOS EN CUALQUIERA DE SUS MODALIDADES POSIBLES, A TRAVÉS DE CUALQUIER MEDIO DE DIFUSIÓN O COMUNICACIÓN SOCIAL. 2. LA REALIZACIÓN DE ACTIVIDADES RELACIONADA, DIRECTA O INDIRECTAMENTE, CON EL MARKETING, EL MERCHANDISING Y CUALESQUIERA OTRAS ACTIVIDADES COMERCIALES. 3. LA CREACIÓN Y REALIZACIÓN DE CAMPAÑAS DE PUBLICIDAD, ANUNCIOS, CREACIÓN Y MONTAJE DE PUBLICIDAD EXTERIOR, CARTELES, PANELES Y BOLETINES. 4. LA CREACIÓN DE STANDS O PUESTOS Y OTRAS ESTRUCTURAS Y SITIOS DE EXHIBICIÓN, CONDUCCIÓN DE CAMPAÑAS DE MARKETING Y OTROS SERVICIOS PUBLICITARIOS. 5. LA INVESTIGACIÓN DE MERCADO, TARGET DEL PÚBLICO OBJETIVO, PRODUCTO Y ACONDICIONAMIENTO, CANALES DE DISTRIBUCIÓN, HÁBITOS Y ACTITUDES DE CONSUMO, ACTIVIDAD DE LA COMPETENCIA Y ANÁLISIS DAFO. 6. EL ESTUDIO DEL ADECUADO SOPORTE DE MEDIOS PARA SU DIFUSIÓN, PLANIFICADORES DE MEDIOS Y ANÁLISIS DEL TARGET, ZONA DE COBERTURA Y TASA DE REPETICIÓN. 7. LA CONCEPCIÓN Y CODIFICACIÓN DEL CONTENIDO DE LA CAMPAÑA PUBLICITARIA Y LA CREACIÓN DE IMÁGENES CORPORATIVAS. 8. LA PRESTACIÓN DE SERVICIOS DE ASESORÍA, CONSULTORÍA, INVESTIGACIÓN, GESTIÓN, ADMINISTRACIÓN, INSTALACIÓN, AGENCIA, REPRESENTACIÓN, Y ESTUDIOS DE MERCADO RELACIONADOS CON LAS ACTIVIDADES ANTES RESEÑADAS. 9. LA GESTIÓN, REALIZACIÓN, COMERCIALIZACIÓN Y DISTRIBUCIÓN DE SERVICIOS DE PUBLICIDAD A TRAVÉS DE UNO O VARIOS MEDIOS DE DIFUSIÓN, ESPECIALMENTE A TRAVÉS DE INTERNET. 10. TODA LA ACTIVAD REFERENTE A LA COMUNICACIÓN EN TODAS SUS FACETAS, ASÍ COMO LA EXPLOTACIÓN DE EXCLUSIVAS PUBLICITARIAS, LOCALES, NACIONALES O EXTRANJERAS; ACTIVIDADES DE DISEÑO, CREACIÓN DE NUEVOS PRODUCTOS, ASESORÍA Y EJECUCIÓN EN ACTIVIDADES DE MARKETING, PUBLICACIONES, TODA LA ACTIVIDAD RELATIVA A LAS RELACIONES PUBLICAS, CURSOS SEMINARIOS, COMUNICACIÓN Y EXPRESIÓN, SECCIÓN Y ADIESTRAMIENTO DE PERSONAL Y EN GENERAL TODAS AQUELLAS ACTIVIDADES CREATIVAS, INVESTIGACIONALES DE PROYECTO, EJECUTIVA Y DE CONTROL. 11. LA INVESTIGACIÓN Y DESARROLLO EXPERIMENTAL EN CIENCIAS NATURALES Y TÉCNICAS; SERVICIOS RELACIONADOS CON LAS TECNOLOGÍAS DE LA INFORMACIÓN Y LA INFORMÁTICA; Y OTRAS ACTIVIDADES DE CONSULTORÍA DE GESTIÓN EMPRESARIAL. 12. LA REALIZACIÓN DE ACTIVIDADES PARA OBTENER CONTRATOS DE ACTUACIÓN EN PELÍCULAS CINEMATOGRÁFICAS, OBRAS TEATRALES Y OTROS ESPECTÁCULOS CULTURALES Y DEPORTIVOS.",
      "mainEntityOfPage": "https://www.contratacion.euskadi.eus/webkpe00-kperoc/es/ac71aBusquedaRegistrosWar/empresa/09010",
      "_links": {
        "self": {
          "name": "SUMMER BIO, S.L.",
          "href": "https://api.euskadi.eus/procurements/companies/09010"
        }
      }
    },
    {
      "name": "VALGO IBERIA, S.L.",
      "registrationNumber": "09270",
      "identificationNumber": "B09992371",
      "address": "Velazquez, 27, 1º Izda",
      "location": {
        "postalCode": "28001",
        "municipality": "Madrid",
        "county": "Madrid",
        "municipalityId": "079",
        "countyId": "28"
      },
      "economicActivities": [
        {
          "id": "1.921.6",
          "name": "Servicios de protección y acondicionamiento ambiental",
          "_links": {
            "self": {
              "name": "Servicios de protección y acondicionamiento ambiental",
              "href": "https://api.euskadi.eus/procurements/companies/economic-activities/1.921.6"
            }
          }
        }
      ],
      "certificateStartDate": "2024-04-15",
      "certificateEndDate": "2024-10-15",
      "object": "A) EL EJERCICIO DE CUALQUIER ACTIVIDAD DE PRESTACIÓN DE SERVICIOS RELACIONADA CON EL MEDIO AMBIENTE, EL AGUA, LA TIERRA, EL SANEAMIENTO, LA INDUSTRIA, LA DESCONTAMINACIÓN, LA ELIMINACIÓN DE AMIANTO, LA DEMOLICIÓN, LA ENERGÍA, LA LIMPIEZA, EL TRANSPORTE, LA LIMPIEZA DE LOS SUELOS, SUBSUELOS, TIERRAS; B) EL DISEÑO Y REALIZACIÓN DE OBRAS DE DEPURACIÓN Y DE VALORIZACIÓN DE SUBPRODUCTOS ORGÁNICOS EXTRAÍDOS DE PROCESOS INDUSTRIALES Y AGRÍCOLAS. C) LA EXPLOTACIÓN, EL ASESORAMIENTO Y CONTROL DE UNIDADES DE TRATAMIENTOS DE EFLUENTES INDUSTRIALES Y URBANOS. D) LA COMERCIALIZACIÓN DE MATERIALES Y EQUIPOS DE TRATAMIENTO DE AGUA. E) LA COMERCIALIZACIÓN, LA EXPLOTACIÓN DE SUBPRODUCTOS Y DESECHOS, BAJO TODAS SUS FORMAS Y EN PARTICULAR, SÓLIDOS, GASEOSOS O LÍQUIDOS, PROVENIENTES DE LOS PROCESOS DE TRATAMIENTO. F) CUALQUIER PRESTACIÓN VINCULADA AL DESARROLLO, COMERCIAL E INDUSTRIAL, Y MONTAJE DE PROYECTOS. G) LA ASUNCIÓN DE COMPROMISOS DE CUALQUIER NATURALEZA POR CUENTA DE EMPRESAS VINCULADAS, DE SUS FILIALES EXISTENTES Y FUTURAS, ESPAÑOLAS O EXTRANJERAS, EN MATERIA BANCARIA (AVALES, CAUCIÓN, SOLICITUD DE EMISIÓN, GARANTÍAS, ENTRE OTRAS), FINANCIERA, COMERCIAL, ESTRATÉGICA, JURÍDICA, SIN QUE ESTA ENUMERACIÓN SEA RESTRICTIVA. H) LA PARTICIPACIÓN EN CUALQUIER SOCIEDAD, LA ADQUISICIÓN DE CUALQUIER VALOR MUEBLE Y TODA OPERACIÓN VINCULADA A LA GESTIÓN DE CARTERA Y AL EJERCICIO DE TODOS LOS DERECHOS POLÍTICOS Y ECONÓMICOS DERIVADOS DE LA PROPIEDAD DE LOS TÍTULOS; I) LA PRESTACIÓN DE SERVICIOS POR CUENTA DE LAS EMPRESAS VINCULADAS, EN PARTICULAR EN LOS ÁMBITOS ADMINISTRATIVO, TÉCNICO, FINANCIERO, COMERCIAL INFORMÁTICO; J) CUALQUIER ACTO DE GESTIÓN Y DE DISPOSICIÓN DEL PATRIMONIO SOCIAL, CUALQUIER INVERSIÓN Y CUALQUIER COLOCACIÓN DE CARÁCTER PROFESIONAL, FINANCIERO U OTRO, COMO POR EJEMPLO Y EN PARTICULAR, LA CREACIÓN, LA LOCACIÓN, LA COMPRA, LA VENTA, EL INTERCAMBIO, EL ALQUILER DE NEGOCIO DE CUALQUIER ESTABLECIMIENTO, FONDO DE COMERCIO O INDUSTRIA, INMUEBLES, DERECHOS SOCIALES, DERECHOS MOBILIARIOS E INMOBILIARIOS Y DERECHOS EN CUALQUIER AGRUPACIÓN O ASOCIACIÓN; K) LA INVERSIÓN Y ADQUISICIÓN DE PARTICIPACIONES EN CUALESQUIERA EMPRESAS, CUALQUIERA QUE SEA SU NATURALEZA JURÍDICA O SU OBJETO, MEDIANTE LA ADQUISICIÓN O SUSCRIPCIÓN DE VALORES, PRÉSTAMOS O DE OTRO MODO, SIEMPRE QUE NO SEAN ACTIVIDADES REGULADAS. L) LA PARTICIPACIÓN ACTIVA EN LA DEFINICIÓN Y DIRECCIÓN DE LA POLÍTICA ESTRATÉGICA DE SUS FILIALES O PARTICIPADAS Y EL CONTROL DE SU EJECUCIÓN, LA PRESTACIÓN DE SERVICIOS A CUALQUIER EMPRESA EN LA QUE LA SOCIEDAD TENGA, DIRECTA O INDIRECTAMENTE, UNA PARTICIPACIÓN Y, EN PARTICULAR, LA PRESTACIÓN DE ASISTENCIA Y ASESORAMIENTO A LAS EMPRESAS DE SU GRUPO EN LOS ÁMBITOS COMERCIAL, ADMINISTRATIVO, JURÍDICO, DE GESTIÓN, DE ESTRATEGIA DE DESARROLLO, DE MARKETING, FINANZAS Y DE NEGOCIACIÓN Y, EN GENERAL, LA PRESTACIÓN DE LOS SERVICIOS PROPIOS DE UNA SOCIEDAD “HOLDING” A LAS ENTIDADES PARTICIPADAS Y A OTRAS QUE PERTENEZCAN AL MISMO GRUPO DE SOCIEDADES EN EL SENTIDO DEL ARTÍCULO 42 DEL CÓDIGO DE COMERCIO. M) Y, EN GENERAL, TODAS LAS OPERACIONES, DE CUALQUIER NATURALEZA, JURÍDICAS, ECONÓMICAS Y FINANCIERAS, FINANCIERAS Y COMERCIALES, RELACIONADAS CON EL OBJETO MENCIONADO O CON CUALQUIER OTRO OBJETO SIMILAR O CONEXO, DE TAL NATURALEZA QUE FAVOREZCAN, DIRECTA O INDIRECTAMENTE, EL OBJETO PERSEGUIDO POR LA SOCIEDAD, SU EXTENSIÓN O SU DESARROLLO.",
      "mainEntityOfPage": "https://www.contratacion.euskadi.eus/webkpe00-kperoc/es/ac71aBusquedaRegistrosWar/empresa/09270",
      "_links": {
        "self": {
          "name": "VALGO IBERIA, S.L.",
          "href": "https://api.euskadi.eus/procurements/companies/09270"
        }
      }
    },
    {
      "name": "ASAKEN S. COOP.",
      "registrationNumber": "08729",
      "identificationNumber": "F95390126",
      "address": "P.A.E. IBARRABARRI 21 E",
      "location": {
        "postalCode": "48940",
        "municipality": "Leioa",
        "county": "Bizkaia",
        "municipalityId": "054",
        "countyId": "48"
      },
      "economicActivities": [
        {
          "id": "1.501.1",
          "name": "Construcción completa, reparación y conservación de edificaciones",
          "_links": {
            "self": {
              "name": "Construcción completa, reparación y conservación de edificaciones",
              "href": "https://api.euskadi.eus/procurements/companies/economic-activities/1.501.1"
            }
          }
        },
        {
          "id": "1.653.3",
          "name": "Venta al por menor de artículos de menaje, ferretería, adorno, regalo",
          "_links": {
            "self": {
              "name": "Venta al por menor de artículos de menaje, ferretería, adorno, regalo",
              "href": "https://api.euskadi.eus/procurements/companies/economic-activities/1.653.3"
            }
          }
        },
        {
          "id": "1.932.1",
          "name": "Enseñanza de formación y perfeccionamiento profesional no superior",
          "_links": {
            "self": {
              "name": "Enseñanza de formación y perfeccionamiento profesional no superior",
              "href": "https://api.euskadi.eus/procurements/companies/economic-activities/1.932.1"
            }
          }
        },
        {
          "id": "1.934",
          "name": "Enseñanza fuera de establecimiento permanente",
          "_links": {
            "self": {
              "name": "Enseñanza fuera de establecimiento permanente",
              "href": "https://api.euskadi.eus/procurements/companies/economic-activities/1.934"
            }
          }
        }
      ],
      "certificateStartDate": "2024-04-15",
      "certificateEndDate": "2024-10-15",
      "object": "LA REALIZACIÓN DE TRABAJOS VERTICALES, TALES COMO LA COLOCACIÓN O REPARACIÓN DE ELEMENTOS, LIMPIEZA, INSPECCIONES Y REHABILITACIONES EN TODO TIPO DE ESTRUCTURAS VERTICALES.",
      "mainEntityOfPage": "https://www.contratacion.euskadi.eus/webkpe00-kperoc/es/ac71aBusquedaRegistrosWar/empresa/08729",
      "_links": {
        "self": {
          "name": "ASAKEN S. COOP.",
          "href": "https://api.euskadi.eus/procurements/companies/08729"
        }
      }
    },
    {
      "name": "JARDUERA FISIKO EGOKITUA HASZTEN ELKARTEA",
      "registrationNumber": "08534",
      "identificationNumber": "G95805099",
      "address": "Luis Lopez de Oses, 4 local trasera 3",
      "location": {
        "postalCode": "48930",
        "municipality": "Getxo",
        "county": "Bizkaia",
        "municipalityId": "044",
        "countyId": "48"
      },
      "economicActivities": [
        {
          "id": "1.645",
          "name": "Venta al por menor de vinos y bebidas de todas clases",
          "_links": {
            "self": {
              "name": "Venta al por menor de vinos y bebidas de todas clases",
              "href": "https://api.euskadi.eus/procurements/companies/economic-activities/1.645"
            }
          }
        },
        {
          "id": "1.968.3",
          "name": "Organización de espectáculos deportivos por federación o clubs no profesionales",
          "_links": {
            "self": {
              "name": "Organización de espectáculos deportivos por federación o clubs no profesionales",
              "href": "https://api.euskadi.eus/procurements/companies/economic-activities/1.968.3"
            }
          }
        }
      ],
      "certificateStartDate": "2024-04-11",
      "certificateEndDate": "2024-10-11",
      "object": "SENSIBILIZACIÓN, SALIDAS, CONFERENCIAS, PUBLICCIONES, ENTREVISTAS, REUNIONES, CAMPAÑAS DE CONCIENCIACIÓN, DEBATES, ACTIVIDADES DE OCIO, TIEMPO LIBRE, ETC. SIN PERJUICIO DE LAS ACTIVIDADES DESCRITAS EN EL APARTADO ANTERIOR, LA ASOCIACIÓN, PARA EL CUMPLIMIENTO DE SUS FINES PODRÁ: -DESARROLLAR ACTIVIDADES ECONÓMICAS DE TODO TIPO, ENCAMINADAS A LA REALIZACIÓN DE SUS FINES O A ALLEGAR RECURSOS CON ESE OBJETIVO. -ADQUIRIR Y POSSER BIENES DE TODAS CLASES Y POR CUALQUIER TÍTULO, ASÍ COMO CELEBRAR ACTOS Y CONTRATOS DE TODO GÉNERO. -EJERCITAR TODA CLASE DE ACCIONES CONFORME A LAS LEYES O A SUS ESTATUTOS.\nSensibilización, salidas, conferencias, publicaciones, entrevistas, reuniones, campañas de concienciación, debates, actividades de ocio, tiempo libre etc\n",
      "mainEntityOfPage": "https://www.contratacion.euskadi.eus/webkpe00-kperoc/es/ac71aBusquedaRegistrosWar/empresa/08534",
      "_links": {
        "self": {
          "name": "JARDUERA FISIKO EGOKITUA HASZTEN ELKARTEA",
          "href": "https://api.euskadi.eus/procurements/companies/08534"
        }
      }
    },
    {
      "name": "INSTALACIONES ILARDUYA, SL",
      "registrationNumber": "06587",
      "identificationNumber": "B01042399",
      "address": "PRUDENCIO MARIA DE VERASTEGI, 14",
      "location": {
        "postalCode": "01002",
        "municipality": "Vitoria-Gasteiz",
        "county": "Araba/Álava",
        "municipalityId": "059",
        "countyId": "01"
      },
      "economicActivities": [
        {
          "id": "1.504.3",
          "name": "Instalaciones de frío, calor y acondicionamiento de aire",
          "_links": {
            "self": {
              "name": "Instalaciones de frío, calor y acondicionamiento de aire",
              "href": "https://api.euskadi.eus/procurements/companies/economic-activities/1.504.3"
            }
          }
        },
        {
          "id": "1.631",
          "name": "Intermediarios del comercio",
          "_links": {
            "self": {
              "name": "Intermediarios del comercio",
              "href": "https://api.euskadi.eus/procurements/companies/economic-activities/1.631"
            }
          }
        }
      ],
      "certificateStartDate": "2024-04-11",
      "certificateEndDate": "2024-09-30",
      "object": "LA COMPRA Y VENTA DE TODA CLASE DE MAQUINARIA Y ELEMENTOS AFINES PARA LA HORTALIZA Y ALIMENTACIÓN, ASÍ COMO TODO TIPO DE MATERIAL FRIGORÍFICO O FRIÓ INDUSTRIAL ",
      "mainEntityOfPage": "https://www.contratacion.euskadi.eus/webkpe00-kperoc/es/ac71aBusquedaRegistrosWar/empresa/06587",
      "_links": {
        "self": {
          "name": "INSTALACIONES ILARDUYA, SL",
          "href": "https://api.euskadi.eus/procurements/companies/06587"
        }
      }
    },
    {
      "name": "SPORTS AND LANDSCAPE, S.L.",
      "registrationNumber": "06908",
      "identificationNumber": "B67037168",
      "address": "Pl. Rabassaires 3 local 7",
      "location": {
        "postalCode": "08174",
        "municipality": "Sant Cugat del Vallès",
        "county": "Barcelona",
        "municipalityId": "205",
        "countyId": "08"
      },
      "economicActivities": [
        {
          "id": "1.501.2",
          "name": "Construcción completa, reparación y conservación obras civiles",
          "_links": {
            "self": {
              "name": "Construcción completa, reparación y conservación obras civiles",
              "href": "https://api.euskadi.eus/procurements/companies/economic-activities/1.501.2"
            }
          }
        }
      ],
      "certificateStartDate": "2024-04-09",
      "certificateEndDate": "2024-10-02",
      "object": "A) EL ASESORAMIENTO DEPORTIVO; FOMENTO, DESARROLLO Y PRÁCTICA CONTINUADA DE LA ACTIVIDAD FÍSICA Y DEPORTIVA; Y EL MANTENIMIENTO DE INSTALACIONES, INSTALACIONES DEPORTIVAS DE CÉSPED ARTIFICIAL NATURAL E INSTALACIONES DEPORTIVAS EN GENERAL. B) LA INTERMEDIACIÓN EN LA PRESTACIÓN DE SERVICIOS DE INGENIERÍA Y ARQUITECTURA EN TODOS LOS ÁMBITOS, LA EJECUCIÓN DE INFORMES Y ESTUDIOS TÉCNICOS Y ECONÓMICOS, PROYECTOS Y SERVICIOS DE OBRAS PÚBLICAS Y PRIVADAS. LA DIRECCIÓN, ADMINISTRACIÓN Y PLANIFICACIÓN DE ESTAS OBRAS Y TODO TIPO DE INSTALACIONES. C) LA PRESTACIÓN DE SERVICIOS DE CONSULTORÍA Y ASESORAMIENTO EMPRESARIAL EN TODOS LOS ÁMBITOS Y EN ESPECIAL, EN LA CONSTRUCCIÓN DE OBRA CIVIL, PÚBLICA Y PRIVADA, EN EL CAMPO DE LA ARQUITECTURA Y LA EDIFICACIÓN, LA CONSTRUCCIÓN INDUSTRIAL, EL ÁMBITO MEDIOAMBIENTAL Y EL DE SEGURIDAD, HIGIENE Y SALUD EN EL TRABAJO. LA ELABORACIÓN DE TRABAJOS, ESTUDIOS Y PROYECTOS DE ORGANIZACIÓN Y MEJORA EMPRESARIAL. D) LA EJECUCIÓN DE TODO TIPO DE OBRAS DE CONSTRUCCIÓN Y EDIFICACIÓN, PÚBLICAS Y PRIVADAS, PROYECTOS Y MONTAJES INDUSTRIALES ASÍ COMO LA REALIZACIÓN DE TODO TIPO DE ACTIVIDADES RELACIONADAS CON LAS ANTERIORES. E) LA GESTIÓN DE PROYECTOS Y OBRAS EN GENERAL Y EN PARTICULAR CON EL SISTEMA \"LLAVE EN MANO\". F) LA FABRICACIÓN DE MATERIAL DEPORTIVO PARA INSTALACIONES DE ESTE TIPO",
      "mainEntityOfPage": "https://www.contratacion.euskadi.eus/webkpe00-kperoc/es/ac71aBusquedaRegistrosWar/empresa/06908",
      "_links": {
        "self": {
          "name": "SPORTS AND LANDSCAPE, S.L.",
          "href": "https://api.euskadi.eus/procurements/companies/06908"
        }
      }
    },
    {
      "name": "FUNDIBIDE, S.A.",
      "registrationNumber": "05753",
      "identificationNumber": "A20169603",
      "address": "OLALDE AREA S/N BARRIO URRESTILLA",
      "location": {
        "postalCode": "20730",
        "municipality": "Azpeitia",
        "county": "Gipuzkoa",
        "municipalityId": "018",
        "countyId": "20"
      },
      "economicActivities": [
        {
          "id": "1.504.2",
          "name": "Instalaciones de fontanería",
          "_links": {
            "self": {
              "name": "Instalaciones de fontanería",
              "href": "https://api.euskadi.eus/procurements/companies/economic-activities/1.504.2"
            }
          }
        },
        {
          "id": "1.617.4",
          "name": "Venta al por mayor de materiales de construcción, vidrio y artículos instalación",
          "_links": {
            "self": {
              "name": "Venta al por mayor de materiales de construcción, vidrio y artículos instalación",
              "href": "https://api.euskadi.eus/procurements/companies/economic-activities/1.617.4"
            }
          }
        },
        {
          "id": "1.659.3",
          "name": "Venta al por menor de aparatos médicos, ortopédicos, ópticos y fotográficos",
          "_links": {
            "self": {
              "name": "Venta al por menor de aparatos médicos, ortopédicos, ópticos y fotográficos",
              "href": "https://api.euskadi.eus/procurements/companies/economic-activities/1.659.3"
            }
          }
        },
        {
          "id": "1.861.2",
          "name": "Alquiler de locales industriales y otros alquileres n.c.o.p",
          "_links": {
            "self": {
              "name": "Alquiler de locales industriales y otros alquileres n.c.o.p",
              "href": "https://api.euskadi.eus/procurements/companies/economic-activities/1.861.2"
            }
          }
        }
      ],
      "certificateStartDate": "2024-04-08",
      "certificateEndDate": "2024-03-27",
      "object": "LA COMPRAVENTA AL POR MAYOR DE PRODUCTOS Y ACCESORIOS DESTINADOS AL SANEAMIENTO, TRAÍDA DE AGUAS, COMO TUBERÍAS, ACCESORIOS Y VÁLVULAS",
      "mainEntityOfPage": "https://www.contratacion.euskadi.eus/webkpe00-kperoc/es/ac71aBusquedaRegistrosWar/empresa/05753",
      "_links": {
        "self": {
          "name": "FUNDIBIDE, S.A.",
          "href": "https://api.euskadi.eus/procurements/companies/05753"
        }
      }
    },
    {
      "name": "GALICIA MULTIGESTION DEPORTIVA, S.L.",
      "registrationNumber": "08984",
      "identificationNumber": "B15726227",
      "address": "AVENIDA EJERCITO Nº21 ENT 5",
      "location": {
        "postalCode": "15006",
        "municipality": "Coruña, A",
        "county": "Coruña, A",
        "municipalityId": "030",
        "countyId": "15"
      },
      "economicActivities": [
        {
          "id": "1.849.9",
          "name": "Otros servicios independientes n.c.o.p",
          "_links": {
            "self": {
              "name": "Otros servicios independientes n.c.o.p",
              "href": "https://api.euskadi.eus/procurements/companies/economic-activities/1.849.9"
            }
          }
        },
        {
          "id": "1.933.9",
          "name": "Otras actividades de enseñanza tales como idiomas, mecanografía",
          "_links": {
            "self": {
              "name": "Otras actividades de enseñanza tales como idiomas, mecanografía",
              "href": "https://api.euskadi.eus/procurements/companies/economic-activities/1.933.9"
            }
          }
        },
        {
          "id": "1.979.9",
          "name": "Otros servicios personales n.c.o.p",
          "_links": {
            "self": {
              "name": "Otros servicios personales n.c.o.p",
              "href": "https://api.euskadi.eus/procurements/companies/economic-activities/1.979.9"
            }
          }
        }
      ],
      "certificateStartDate": "2024-04-04",
      "certificateEndDate": "2024-10-04",
      "object": "LA GESTIÓN Y PROMOCIÓN DE INSTALACIONES DEPORTIVAS, ASÍ COMO LA VENTA DE PRODUCTOS COMPLEMENTARIOS PARA LA GESTIÓN DE LAS INSTALACIONES. COORDINACIÓN DE ACTIVIDADES EXTRAESCOLARES, DEPORTIVAS Y CULTURALES. CURSOS Y ACTIVIDADES DE LA NATURALEZA, AIRE LIBRE, MEDIO AMBIENTE, ACUÁTICAS, ACTIVIDADES DE ANIMACIÓN Y TALLERES CULTURALES.",
      "mainEntityOfPage": "https://www.contratacion.euskadi.eus/webkpe00-kperoc/es/ac71aBusquedaRegistrosWar/empresa/08984",
      "_links": {
        "self": {
          "name": "GALICIA MULTIGESTION DEPORTIVA, S.L.",
          "href": "https://api.euskadi.eus/procurements/companies/08984"
        }
      }
    },
    {
      "name": "EDUKA&NATURE FORMACION,DEPORTE Y ACTIVIDAD LUDICA, S.L.",
      "registrationNumber": "06077",
      "identificationNumber": "B01552561",
      "address": "c/san martin 1 bajo",
      "location": {
        "postalCode": "01130",
        "municipality": "Zuia",
        "county": "Araba/Álava",
        "municipalityId": "063",
        "countyId": "01"
      },
      "economicActivities": [
        {
          "id": "1.932.1",
          "name": "Enseñanza de formación y perfeccionamiento profesional no superior",
          "_links": {
            "self": {
              "name": "Enseñanza de formación y perfeccionamiento profesional no superior",
              "href": "https://api.euskadi.eus/procurements/companies/economic-activities/1.932.1"
            }
          }
        },
        {
          "id": "1.933.9",
          "name": "Otras actividades de enseñanza tales como idiomas, mecanografía",
          "_links": {
            "self": {
              "name": "Otras actividades de enseñanza tales como idiomas, mecanografía",
              "href": "https://api.euskadi.eus/procurements/companies/economic-activities/1.933.9"
            }
          }
        }
      ],
      "certificateStartDate": "2024-03-27",
      "certificateEndDate": "2024-09-24",
      "object": "SERVICIOS EDUCATIVOS, DE OCIO Y ENTRETENIMIENTO, ASÍ COMO LA ORGANIZACIÓN DE ACTIVIDADES DEPORTIVAS, CULTURALES, DE OCIO Y TIEMPO LIBRE, TANTO EN ENTORNO RURAL COMO URBANO. LA ORGANIZACIÓN DE EVENTOS DEPORTIVOS, CHARLAS, SEMINARIOS, CAMPUS, Y ACTIVIDADES CULTURALES Y EDUCATIVAS DEPORTIVAS. IMPLANTACIÓN DE CURSOS Y FORMACIÓN, RELACIONADOS CON ACTIVIDADES LÚDICAS Y DEPORTIVAS, POR CUALQUIER MEDIO DE COMUNICACIÓN. SERVICIOS DE FORMACIÓN Y ENSEÑANZA REGLADA Y NO REGLADA. GESTIÓN Y EXPLOTACIÓN DE PROYECTOS Y ACTIVIDADES DE CARÁCTER DEPORTIVO, CULTURAL, DE OCIO, SOCIOEDUCATIVO, DE EDUCACIÓN MEDIOAMBIENTAL, DE ANIMACIÓN Y ASISTENCIALES. PRESTACIÓN DE SERVICIOS Y ACTIVIDADES DE TURISMO EDUCACIONAL. LA TENENCIA, PROMOCIÓN, CONSTRUCCIÓN, COMPRA, VENTA, ARRENDAMIENTO Y COMERCIALIZACIÓN EN GENERAL DE TODA CLASE DE EDIFICACIONES, TERRENOS, SOLARES, FINCAS RÚSTICAS Y URBANAS",
      "mainEntityOfPage": "https://www.contratacion.euskadi.eus/webkpe00-kperoc/es/ac71aBusquedaRegistrosWar/empresa/06077",
      "_links": {
        "self": {
          "name": "EDUKA&NATURE FORMACION,DEPORTE Y ACTIVIDAD LUDICA, S.L.",
          "href": "https://api.euskadi.eus/procurements/companies/06077"
        }
      }
    }
  ]
}