{
  "totalItems": 9042,
  "totalPages": 905,
  "currentPage": 642,
  "itemsOfPage": 10,
  "items": [
    {
      "name": "CANAL METAL, S.L.",
      "registrationNumber": "05603",
      "identificationNumber": "B01299064",
      "address": "AVDA. LOS OLMOS, 1. EDIF. B. PAB. 10",
      "location": {
        "postalCode": "01013",
        "municipality": "Vitoria-Gasteiz",
        "county": "Araba/Álava",
        "municipalityId": "059",
        "countyId": "01"
      },
      "economicActivities": [
        {
          "id": "1.314.2",
          "name": "Fabricación de estructuras metálicas",
          "_links": {
            "self": {
              "name": "Fabricación de estructuras metálicas",
              "href": "https://api.euskadi.eus/procurements/companies/economic-activities/1.314.2"
            }
          }
        },
        {
          "id": "1.501.3",
          "name": "Albañilería y pequeños trabajos de construcción en general",
          "_links": {
            "self": {
              "name": "Albañilería y pequeños trabajos de construcción en general",
              "href": "https://api.euskadi.eus/procurements/companies/economic-activities/1.501.3"
            }
          }
        }
      ],
      "certificateStartDate": "2017-03-28",
      "certificateEndDate": "2017-07-19",
      "object": "LA FABRICACIÓN E INSTALACIÓN DE CANALONES",
      "mainEntityOfPage": "https://www.contratacion.euskadi.eus/webkpe00-kperoc/es/ac71aBusquedaRegistrosWar/empresa/05603",
      "_links": {
        "self": {
          "name": "CANAL METAL, S.L.",
          "href": "https://api.euskadi.eus/procurements/companies/05603"
        }
      }
    },
    {
      "name": "ZIRRIKITU KOOP. ELK. TXIKIA",
      "registrationNumber": "05604",
      "identificationNumber": "F95831111",
      "address": "BILBAO LA VIEJA 3, 2º D",
      "location": {
        "postalCode": "48003",
        "municipality": "Bilbao",
        "county": "Bizkaia",
        "municipalityId": "020",
        "countyId": "48"
      },
      "economicActivities": [
        {
          "id": "1.847",
          "name": "Servicios de consultoría",
          "_links": {
            "self": {
              "name": "Servicios de consultoría",
              "href": "https://api.euskadi.eus/procurements/companies/economic-activities/1.847"
            }
          }
        }
      ],
      "certificateStartDate": "2017-03-28",
      "certificateEndDate": "2017-09-02",
      "object": "LA PRESTACIÓN DE SERVICIOS ASISTENCIALES MEDIANTE LA REALIZACIÓN DE ACTIVIDADES EDUCATIVAS PARA EL DISEÑO Y DESARROLLO DE POLÍTICAS EN MATERIA DE IGUALDAD Y DE PREVENCIÓN DE LA VIOLENCIA SEXISTA",
      "mainEntityOfPage": "https://www.contratacion.euskadi.eus/webkpe00-kperoc/es/ac71aBusquedaRegistrosWar/empresa/05604",
      "_links": {
        "self": {
          "name": "ZIRRIKITU KOOP. ELK. TXIKIA",
          "href": "https://api.euskadi.eus/procurements/companies/05604"
        }
      }
    },
    {
      "name": "GRUPO NC AUDITORES Y ASESORES DE NEGOCIOS, S.L.",
      "registrationNumber": "05301",
      "identificationNumber": "B14701908",
      "address": "AVDA. GRAN CAPITAN, 46-3º -2",
      "location": {
        "postalCode": "14006",
        "municipality": "Córdoba",
        "county": "Córdoba",
        "municipalityId": "021",
        "countyId": "14"
      },
      "economicActivities": [
        {
          "id": "1.842",
          "name": "Servicios financieros y contables",
          "_links": {
            "self": {
              "name": "Servicios financieros y contables",
              "href": "https://api.euskadi.eus/procurements/companies/economic-activities/1.842"
            }
          }
        }
      ],
      "certificateStartDate": "2017-03-23",
      "certificateEndDate": "2017-09-21",
      "object": "LA PRESTACIÓN A PERSONAS FÍSICAS, ENTIDADES PRIVADAS SEA CUAL SEA SU PERSONALIDAD JURÍDICA, ASÍ COMO A CUALQUIER ORGANISMO PERTENECIENTE A LA ADMINISTRACIÓN PÚBLICA ESPAÑOLA DE LOS SIGUIENTES SERVICIOS: 1.- SERVICIOS DE ASESORAMIENTO LABORAL, MERCANTIL, CONTABLE, FISCAL Y ECONÓMICO. 2.- SERVICIOS DE AUDITORÍA SEA CUAL SEA SU TIPOLOGÍA, OBJETIVO O ALCANCE (CUENTAS ANUALES, DE CUMPLIMIENTO, OPERATIVAS, DE SUBVENCIONES, DE COMPRA, INTERNA). 3.- SERVICIOS DE CONSULTORÍA SEA CUAL SEA SU TIPOLOGÍA, OBJETO ALCANCE (ECONÓMICA, ESTRATÉGICA, CONTROL INTERNO, RECURSOS HUMANOS, REVISIÓN Y REINGENIERÍA DE PROCESOS). 4.- SERVICIOS DE ASESORAMIENTO EN LA IMPLANTACÓN DE CERTIFICACIONES DE CALIDAD, SEA CUAL SEA SU TIPOLOGÍA, OBJETIVO O ALCANCE. 5.- ELABORACIÓN DE INFORMES PERICIALES O DE CUALQUIER TIPO, OBJETIVO O ALCANCE. 6.- ACTUACIÓN EN PROCEDIMIENTOS CONCURSALES. 7.- CUALQUIER ACTIVIDAD QUE PUEDA REALIZAR UN ECONOMISTA O AUDITOR CONFORME A SU NORMATIVA REGULADORA.",
      "mainEntityOfPage": "https://www.contratacion.euskadi.eus/webkpe00-kperoc/es/ac71aBusquedaRegistrosWar/empresa/05301",
      "_links": {
        "self": {
          "name": "GRUPO NC AUDITORES Y ASESORES DE NEGOCIOS, S.L.",
          "href": "https://api.euskadi.eus/procurements/companies/05301"
        }
      }
    },
    {
      "name": "C&P-AVADANTIS, S.L.",
      "registrationNumber": "05597",
      "identificationNumber": "B95795381",
      "address": "Calle Errotalde 17 F",
      "location": {
        "postalCode": "48993",
        "municipality": "Getxo",
        "county": "Bizkaia",
        "municipalityId": "044",
        "countyId": "48"
      },
      "economicActivities": [
        {
          "id": "1.844",
          "name": "Servicios de publicidad, relaciones públicas y similares",
          "_links": {
            "self": {
              "name": "Servicios de publicidad, relaciones públicas y similares",
              "href": "https://api.euskadi.eus/procurements/companies/economic-activities/1.844"
            }
          }
        }
      ],
      "certificateStartDate": "2017-03-16",
      "certificateEndDate": "2017-07-27",
      "object": "PRESTACIÓN DE SERVICIOS. ACTIVIDADES DE GESTIÓN Y ADMINISTRACIÓN. SERVICIOS EDUCATIVOS, SANITARIOS, DE OCIO Y ENTRETENIMIENTO. PRESTACIÓN DE SERVICIOS DE COMUNICACIÓN, PUBLICIDAD, RELACIONES PÚBLICAS, REPRESENTACIÓN, MARKETING Y EDICIÓN DIGITAL, INCLUIDO EL DISEÑO WEB Y CREACIÓN DE LIBROS ELECTRÓNICOS, ASÍ COMO PLANIFICACIÓN ESTRATÉGICA, BRANDING, DESARROLLO DE APPS, EMAIL, MARKETING, COMUNICACIÓN CORPORATIVA, MARKETING COMMUNICATIONS Y CONSULTORÍA EDITORIAL\r\n\r\n\r\n\r\n\r\n\r\n",
      "mainEntityOfPage": "https://www.contratacion.euskadi.eus/webkpe00-kperoc/es/ac71aBusquedaRegistrosWar/empresa/05597",
      "_links": {
        "self": {
          "name": "C&P-AVADANTIS, S.L.",
          "href": "https://api.euskadi.eus/procurements/companies/05597"
        }
      }
    },
    {
      "name": "SERGOFI GUÍAS INTÉRPRETES, S.L.",
      "registrationNumber": "02239",
      "identificationNumber": "B48777544",
      "address": "LAS MERCEDES KALEA, 8 - 1º A",
      "location": {
        "postalCode": "48930",
        "municipality": "Getxo",
        "county": "Bizkaia",
        "municipalityId": "044",
        "countyId": "48"
      },
      "economicActivities": [
        {
          "id": "1.849.3",
          "name": "Servicios de traducción y similares",
          "_links": {
            "self": {
              "name": "Servicios de traducción y similares",
              "href": "https://api.euskadi.eus/procurements/companies/economic-activities/1.849.3"
            }
          }
        },
        {
          "id": "1.989.2",
          "name": "Servicios de organización de congresos, asambleas y similares",
          "_links": {
            "self": {
              "name": "Servicios de organización de congresos, asambleas y similares",
              "href": "https://api.euskadi.eus/procurements/companies/economic-activities/1.989.2"
            }
          }
        }
      ],
      "certificateStartDate": "2017-03-14",
      "certificateEndDate": "2017-08-23",
      "object": "LA REALIZACIÓN DE SERVICIOS DE TRADUCCIÓN E INTERPRETACIÓN, ENTENDIÉNDOSE, ENTRE ELLO, LAS TRADUCCIONES JURADAS, TÉCNICAS Y COMERCIALES Y EL ALQUILER DE EQUIPOS DE TRADUCCIÓN SIMULTÁNEA, MEGAFONÍA Y AUDIOVISUALES.\r\n\r\nLA REALIZACIÓN DE SERVICIOS DE AZAFATAS, RELACIONES PÚBLICAS, GUÍAS TURÍSTICOS Y ENCUESTADORES.\r\n\r\nSERVICIOS DE ORGANIZACIÓN DE EVENTOS, TALES COMO ORGANIZACIÓN DE CONGRESOS, CONFERENCIAS, SIMPOSIUMS, JORNADAS, CURSOS, SEMINARIOS Y REUNIONES; LA ORGANIZACIÓN DE CONVENCIONES Y VIAJES DE INCENTIVO;  LA ORGANIZACIÓN DE ACTIVIDADES TURÍSTICAS Y PROMOCIONALES; LA ORGANIZACIÓN DE ESPECTÁCULOS DEPORTIVOS Y CULTURALES; LA ORGANIZACIÓN DE EVENTOS FERIALES E INSTALACIÓN DE STANDS Y LA ORGANIZACIÓN DE BODAS Y CELEBRACIONES.\r\n\r\nLA REALIZACIÓN DE SERVICIOS ADMINISTRATIVOS, TALES COMO MECANOGRÁFICOS, TAQUIGRÁFICOS, DE REPRODUCCCIÓN DE ESCRITOS, PLANOS Y DOCUMENTOS, ASÍ COMO LA REALIZACIÓN DE MAILINGS Y RECOGIDA DE LLAMADAS TELEFÓNICAS, TRANSCRIPCIÓN DE CINTAS, CONTROL FINANCIERO Y CONTABLE Y EL ASESORAMIENTO FISCAL.\r\n\r\nGESTIÓN DE PERSONAL, TALES COMO SERVICIO DE SELECCIÓN DE PERSONAL, GESTIÓN DE NÓMINAS, SEGUROS SOCIALES, CONTRATOS Y DEMÁS DOCUMENTACIÓN LABORAL.\r\n\r\nSERVICIO DE ALQUILER DE OFICINAS.\r\n    ",
      "mainEntityOfPage": "https://www.contratacion.euskadi.eus/webkpe00-kperoc/es/ac71aBusquedaRegistrosWar/empresa/02239",
      "_links": {
        "self": {
          "name": "SERGOFI GUÍAS INTÉRPRETES, S.L.",
          "href": "https://api.euskadi.eus/procurements/companies/02239"
        }
      }
    },
    {
      "name": "HEMENDIK CONSTRUCCIONES, S.L.",
      "registrationNumber": "03369",
      "identificationNumber": "B95274940",
      "address": "C/ LARRURI 1A, 3ª PLANTA, MÓDULO 16",
      "location": {
        "postalCode": "48160",
        "municipality": "Derio",
        "county": "Bizkaia",
        "municipalityId": "901",
        "countyId": "48"
      },
      "economicActivities": [
        {
          "id": "1.507",
          "name": "Construcción, reparación y conservación de toda clase obras",
          "_links": {
            "self": {
              "name": "Construcción, reparación y conservación de toda clase obras",
              "href": "https://api.euskadi.eus/procurements/companies/economic-activities/1.507"
            }
          }
        }
      ],
      "certificateStartDate": "2017-03-14",
      "certificateEndDate": "2017-09-01",
      "object": "A LA CONSOLIDACIÓN Y REPARACIÓN DE TODA CLASE DE TERRENOS Y SOLARES; DEMOLICIONES DE EDIFICIOS Y CONSTRUCCIONES, PERFORACIONES PARA ALUMBRADOS, AGUAS, CIMENTACIONES Y PAVIMENTACIONES PARA LA REALIZACIÓN  DE EDIFICIOS Y OBRAS CIVILES EN GENERAL, INCLUÍDOS SISTEMAS DE AGOTAMIENTO Y DRAGADOS, ASÍ COMO LA REALIZACIÓN DE LOS ESTUDIOS Y PROYECTOS TÉCNICOS PRECISOS PARA LA EXCAVACIÓN Y DESMONTE, Y SERVICIOS DE TOPOGRAFÍA EN GENERAL",
      "mainEntityOfPage": "https://www.contratacion.euskadi.eus/webkpe00-kperoc/es/ac71aBusquedaRegistrosWar/empresa/03369",
      "_links": {
        "self": {
          "name": "HEMENDIK CONSTRUCCIONES, S.L.",
          "href": "https://api.euskadi.eus/procurements/companies/03369"
        }
      }
    },
    {
      "name": "ASOCIACIÓN KAIPE GIZARTE ZERBITZUAK",
      "registrationNumber": "05596",
      "identificationNumber": "G75083717",
      "address": "Salinas, 07 Bajo",
      "location": {
        "postalCode": "20110",
        "municipality": "Pasaia",
        "county": "Gipuzkoa",
        "municipalityId": "064",
        "countyId": "20"
      },
      "economicActivities": [
        {
          "id": "1.951",
          "name": "Asistencia y servicios sociales en centros residenciales",
          "_links": {
            "self": {
              "name": "Asistencia y servicios sociales en centros residenciales",
              "href": "https://api.euskadi.eus/procurements/companies/economic-activities/1.951"
            }
          }
        }
      ],
      "certificateStartDate": "2017-03-13",
      "certificateEndDate": "2017-08-21",
      "object": "PRESTACIÓN DE SERVICIOS ASISTENCIALES DE HIGIENE, LIMPIEZA, ALIMENTACIÓN Y DEMÁS AYUDAS, A ANCIANOS Y CUANTAS PERSONAS, INGRESADAS EN CENTROS RESIDENCIALES, LO SOLICITEN",
      "mainEntityOfPage": "https://www.contratacion.euskadi.eus/webkpe00-kperoc/es/ac71aBusquedaRegistrosWar/empresa/05596",
      "_links": {
        "self": {
          "name": "ASOCIACIÓN KAIPE GIZARTE ZERBITZUAK",
          "href": "https://api.euskadi.eus/procurements/companies/05596"
        }
      }
    },
    {
      "name": "MEDICA-4, S.L.",
      "registrationNumber": "05593",
      "identificationNumber": "B48434096",
      "address": "LARRONDO GOIKO KALEA, 3. NAVE B. PAB. 20",
      "location": {
        "postalCode": "48180",
        "municipality": "Leioa",
        "county": "Bizkaia",
        "municipalityId": "054",
        "countyId": "48"
      },
      "economicActivities": [
        {
          "id": "1.614.2",
          "name": "Venta al por mayor de productos de perfumería, droguería, higiene y belleza",
          "_links": {
            "self": {
              "name": "Venta al por mayor de productos de perfumería, droguería, higiene y belleza",
              "href": "https://api.euskadi.eus/procurements/companies/economic-activities/1.614.2"
            }
          }
        },
        {
          "id": "1.615.2",
          "name": "Venta al por mayor de muebles",
          "_links": {
            "self": {
              "name": "Venta al por mayor de muebles",
              "href": "https://api.euskadi.eus/procurements/companies/economic-activities/1.615.2"
            }
          }
        },
        {
          "id": "1.619.2",
          "name": "Venta al por mayor de aparatos e instrumentos médicos, ortopédicos, ópticos",
          "_links": {
            "self": {
              "name": "Venta al por mayor de aparatos e instrumentos médicos, ortopédicos, ópticos",
              "href": "https://api.euskadi.eus/procurements/companies/economic-activities/1.619.2"
            }
          }
        }
      ],
      "certificateStartDate": "2017-03-10",
      "certificateEndDate": "2017-07-18",
      "object": "LA ADQUISICIÓN, DISTRIBUCIÓN Y VENTA, ESTO ES LA COMERCIALIZACIÓN EN SU MÁS AMPLIO SENTIDO, DE TODA CLASE DE SUMINISTROS, MATERIALES Y ACCESORIOS CLÍNICOS Y HOSPITALARIOS, Y, ESPECIALMENTE, GERIÁTRICOS. DENTRO DEL OBJETO SOCIAL SE COMPRENDE TODA CLASE DE OPERACIONES Y ACTIVIDADES QUE SEAN ANTECEDENTES, DERIVADAS Y COMPLEMENTARIAS DEL MISMO Y QUE CON DICHA ACTIVIDAD, SE RELACIONAN. NO OBSTANTE, LA CAPACIDAD JURÍDICA DE LA SOCIEDAD NO SE ENTENDERÁ RESTRINGIDA POR SU OBJETO, SINO QUE SERÁ GENERAL PARA TODA CLASE DE ACTOS, CONTRATOS Y RELACIONES JURÍDICAS, TENIENDO, EN CONSECUENCIA, PLENA CAPACIDAD JURÍDICA PARA ADQUIRIR, POSEER, GRAVAR Y ENAJENAR TODA CLASE DE BIENES Y DERECHOS, AUNQUE NO AFECTEN AL OBJETO SOCIAL",
      "mainEntityOfPage": "https://www.contratacion.euskadi.eus/webkpe00-kperoc/es/ac71aBusquedaRegistrosWar/empresa/05593",
      "_links": {
        "self": {
          "name": "MEDICA-4, S.L.",
          "href": "https://api.euskadi.eus/procurements/companies/05593"
        }
      }
    },
    {
      "name": "FACHADAS Y TEJADOS DONOSTI, S.L.U.",
      "registrationNumber": "05586",
      "identificationNumber": "B75149492",
      "address": "AVENIDA NAVARRA 26, 2º DCHA",
      "location": {
        "postalCode": "20110",
        "municipality": "Pasaia",
        "county": "Gipuzkoa",
        "municipalityId": "064",
        "countyId": "20"
      },
      "economicActivities": [
        {
          "id": "1.501.3",
          "name": "Albañilería y pequeños trabajos de construcción en general",
          "_links": {
            "self": {
              "name": "Albañilería y pequeños trabajos de construcción en general",
              "href": "https://api.euskadi.eus/procurements/companies/economic-activities/1.501.3"
            }
          }
        }
      ],
      "certificateStartDate": "2017-02-24",
      "certificateEndDate": "2017-06-28",
      "object": "LA ALBAÑILERÍA EN GENERAL",
      "mainEntityOfPage": "https://www.contratacion.euskadi.eus/webkpe00-kperoc/es/ac71aBusquedaRegistrosWar/empresa/05586",
      "_links": {
        "self": {
          "name": "FACHADAS Y TEJADOS DONOSTI, S.L.U.",
          "href": "https://api.euskadi.eus/procurements/companies/05586"
        }
      }
    },
    {
      "name": "PROYECTOS Y FABRICACIÓN ELECTRÓNICA, S.A.",
      "registrationNumber": "05477",
      "identificationNumber": "A20114575",
      "address": "Paseo Mikeletegi 69, 1º",
      "location": {
        "postalCode": "20011",
        "municipality": "Donostia / San Sebastián",
        "county": "Gipuzkoa",
        "municipalityId": "069",
        "countyId": "20"
      },
      "economicActivities": [
        {
          "id": "2.311",
          "name": "Ingenieros industriales y textiles",
          "_links": {
            "self": {
              "name": "Ingenieros industriales y textiles",
              "href": "https://api.euskadi.eus/procurements/companies/economic-activities/2.311"
            }
          }
        }
      ],
      "certificateStartDate": "2017-02-22",
      "certificateEndDate": "2017-08-02",
      "object": "IMPORTACIÓN, EXPORTACIÓN, FABRICACIÓN, COMPRA-VENTA, ALQUILER, INSTALACIÓN Y MANTENIMIENTO DE TODA CLASE DE APARATOS ELÉCTRICOS, ELECTRÓNICOS, O INFORMÁTICOS Y SUS COMPONENTES",
      "mainEntityOfPage": "https://www.contratacion.euskadi.eus/webkpe00-kperoc/es/ac71aBusquedaRegistrosWar/empresa/05477",
      "_links": {
        "self": {
          "name": "PROYECTOS Y FABRICACIÓN ELECTRÓNICA, S.A.",
          "href": "https://api.euskadi.eus/procurements/companies/05477"
        }
      }
    }
  ]
}