{
  "totalItems": 9042,
  "totalPages": 905,
  "currentPage": 326,
  "itemsOfPage": 10,
  "items": [
    {
      "name": "LABORATORIOS CAIR ESPAÑA, S.L.",
      "registrationNumber": "02940",
      "identificationNumber": "B82665373",
      "address": "C/EDUARDO TORROJA, 22. NAVES 19 Y 20",
      "location": {
        "postalCode": "28823",
        "municipality": "Coslada",
        "county": "Madrid",
        "municipalityId": "049",
        "countyId": "28"
      },
      "economicActivities": [
        {
          "id": "1.619.2",
          "name": "Venta al por mayor de aparatos e instrumentos médicos, ortopédicos, ópticos",
          "_links": {
            "self": {
              "name": "Venta al por mayor de aparatos e instrumentos médicos, ortopédicos, ópticos",
              "href": "https://api.euskadi.eus/procurements/companies/economic-activities/1.619.2"
            }
          }
        }
      ],
      "certificateStartDate": "2025-08-19",
      "certificateEndDate": "2026-02-19",
      "object": "1) LA IMPORTACIÓN, EXPORTACIÓN, COMERCIALIZACIÓN Y DISTRIBUCIÓN DE PRODUCTOS FARMACÉUTICOS, ASÍ COMO DE OTROS PRODUCTOS SANITARIOS, INCLUSO PRODUCTOS PARAFARMACÉUTICOS, DISPOSITIVOS O SISTEMAS DE ADMINISTRACIÓN DE DICHOS PRODUCTOS, PRÓTESIS, IMPLANTES, ALIMENTOS ESPECIALES, COMPLEMENTOS NUTRICIONALES Y CUALQUIER PRODUCTO QUE EN GENERAL SE PUDIERA RELACIONAR CON LA SALUD.\r\n\r\n2) LA ELABORACIÓN Y FABRICACIÓN, POR SÍ O POR MEDIO DE TERCEROS, DE LOS PRODUCTOS REFERIDOS EN EL APARTADO ANTERIOR, ASÍ COMO DE ESPECIALIDADES FARMACÉUTICAS Y MATERIAS PRIMAS DE USO FARMACÉUTICO.\r\n\r\n3) LA ELABORACIÓN, IMPORTACIÓN, EXPORTACIÓN Y COMERCIALIZACIÓN DE PRODUCTOS INFORMÁTICOS INCLUYENDO APLICACIONES INFORMÁTICAS.\r\n\r\n4) LA PRESTACIÓN DE SERVICIOS MÉDICOS O DE ASISTENCIA MÉDICA Y/O SANITARIA A PERSONAS FÍSICAS O ENTIDADES DE CARÁCTER PÚBLICO Ó PRIVADO, INCLUYENDO EN ESTOS SERVICIOS ACTIVIDADES INFORMATIVAS, FORMATIVAS Y/O EXPERIMENTALES, TANTO EN LOS LUGARES ESPECÍFICAMENTE DESTINADOS A TAL EFECTO, COMO EN CLÍNICAS U HOSPITALES, COMO EN LOS QUE SIN SERLO ESPECÍFICAMENTE SEAN APTOS EN DETERMINADAS SITUACIONES COMO DOMICILIOS PARTICULARES Y DEMÁS.\r\n\r\n5) LA PRESTACIÓN DE SERVICIOS DE ASESORÍA Y CONSULTORÍA A EMPRESAS EN CUALQUIERA DE LOS CAMPOS Y MATERIAS PERTINENTES.\r\n\r\n6) LA PRESTACIÓN DE SERVICIOS A OTRAS EMPRESAS EN CUALQUIERA DE LOS FACTORES QUE ENGLOBA LA COMERCIALIZACIÓN  DE CUALQUIER PRODUCTO.\r\n\r\n7) LA ADQUISICIÓN, EXPLOTACIÓN Y ENAJENACIÓN DE INMUEBLES.\r\nLA SOCIEDAD PODRÁ DESARROLLAR LAS ACTIVIDADES QUE INTEGRAN EL OBJETO SOCIAL DE MODO INDIRCTO MEDIANTE LA TITULARIDAD DE ACCIONES O PARTICIPACIONES EN SOCIEDADES CON OBJETO IDÉNTICO O ANÁLOGO.\r\n\r\nSI LAS DISPOSICIONES LEGALES EXIGIESEN PARA EL EJERCICIO DE ALGUNA DE LAS ACTIVIDADES COMPRENDIDAS EN EL OBJETO SOCIAL ALGÚN  TÍTULO PROFESIONAL O AUTORIZACIÓN ADMINISTRATIVA, O LA INSCRIPCIÓN EN REGISTROS PÚBLICOS, DICHAS ACTIVIDADES DEBERÁN REALIZARSE POR MEDIO DE PERSONA QUE OSTENTE LA TITULACIÓN REQUERIDA Y, EN SU CASO, NO PODRÁN INICIARSE ANTES DE QUE SE HAYAN CUMPLIDO LOS REQUISITOS ADMINISTRATIVOS EXIGIDOS\r\n",
      "mainEntityOfPage": "https://www.contratacion.euskadi.eus/webkpe00-kperoc/es/ac71aBusquedaRegistrosWar/empresa/02940",
      "_links": {
        "self": {
          "name": "LABORATORIOS CAIR ESPAÑA, S.L.",
          "href": "https://api.euskadi.eus/procurements/companies/02940"
        }
      }
    },
    {
      "name": "VALUES AND LIFE STYLES, S.L.",
      "registrationNumber": "02547",
      "identificationNumber": "B95112306",
      "address": "ALAMEDA URQUIJO Nº 43 PPAL IZQ",
      "location": {
        "postalCode": "48010",
        "municipality": "Bilbao",
        "county": "Bizkaia",
        "municipalityId": "020",
        "countyId": "48"
      },
      "economicActivities": [
        {
          "id": "1.355.1",
          "name": "Fabricación de receptores de radio y televisión y reproducción",
          "_links": {
            "self": {
              "name": "Fabricación de receptores de radio y televisión y reproducción",
              "href": "https://api.euskadi.eus/procurements/companies/economic-activities/1.355.1"
            }
          }
        },
        {
          "id": "1.844",
          "name": "Servicios de publicidad, relaciones públicas y similares",
          "_links": {
            "self": {
              "name": "Servicios de publicidad, relaciones públicas y similares",
              "href": "https://api.euskadi.eus/procurements/companies/economic-activities/1.844"
            }
          }
        }
      ],
      "certificateStartDate": "2025-08-19",
      "certificateEndDate": "2026-02-19",
      "object": "LA PRESTACIÓN DE SERVICIOS DE PUBLICIDAD, IMAGEN, MULTIMEDIA, INTERNET, PUBLICACIONES, MEDIOS AUDIOVISUALES, RADIOFÓNICOS, IMPRESIÓN GRÁFICA, MARKETING DIRECTO Y EN DEFINITIVA SERVICIOS DE COMUNICACIÓN INTEGRAL.\r\nLAS ACTIVIDADES INTEGRANTES DEL OBJETO SOCIAL PODRÁN SER DESARROLLADAS POR LA SOCIEDAD, TOTAL O PARCIALMENTE, DE MODO INDIRECTO, MEDIANTE LA TITULARIDAD DE ACCIONES O PARTICIPACIONES EN OTRAS SOCIEDADES CON OBJETO IDÉNTICO O ANÁLOGO\r\n",
      "mainEntityOfPage": "https://www.contratacion.euskadi.eus/webkpe00-kperoc/es/ac71aBusquedaRegistrosWar/empresa/02547",
      "_links": {
        "self": {
          "name": "VALUES AND LIFE STYLES, S.L.",
          "href": "https://api.euskadi.eus/procurements/companies/02547"
        }
      }
    },
    {
      "name": "BANTEC CONSULTORES INICIATIVAS EMPRENDEDORAS, S.L.",
      "registrationNumber": "03408",
      "identificationNumber": "B31880370",
      "address": "PARQUE EMPR. ZUATZU - EDIF. BIDASOA, 6 - 1º - LOCAL 2",
      "location": {
        "postalCode": "20018",
        "municipality": "Donostia / San Sebastián",
        "county": "Gipuzkoa",
        "municipalityId": "069",
        "countyId": "20"
      },
      "economicActivities": [
        {
          "id": "1.843.1",
          "name": "Servicios técnicos de ingeniería",
          "_links": {
            "self": {
              "name": "Servicios técnicos de ingeniería",
              "href": "https://api.euskadi.eus/procurements/companies/economic-activities/1.843.1"
            }
          }
        },
        {
          "id": "1.843.9",
          "name": "Otros servicios técnicos n.c.o.p",
          "_links": {
            "self": {
              "name": "Otros servicios técnicos n.c.o.p",
              "href": "https://api.euskadi.eus/procurements/companies/economic-activities/1.843.9"
            }
          }
        }
      ],
      "certificateStartDate": "2025-08-19",
      "certificateEndDate": "2026-02-19",
      "object": "A) LA CONSULTORÍA EN LA CREACIÓN, GENERACIÓN Y DINAMIZACIÓN DE EMPRESAS. B) LA CONSULTORÍA EN GESTIÓN DE LA INNOVACIÓN DE LA ACTIVIDAD EMPRESARIAL, EN TODOS  SUS ASPECTOS, Y EN ESPECIAL, EN LA INNOVACIÓN TECNOLÓGICA, EN ACTIVIDADES COMO: REALIZACIÓN DE REFLEXIONES TECNOLÓGICAS Y, ASISTENCIA A LA DETERMINACIÓN DE LA ESTRATEGIA TECNOLÓGICA, DEFINICIÓN Y PROGRAMACIÓN DE PROYECTOS DE I+D Y SU EVOLUCIÓN FINANCIERA, ASISTENCIA EN EL ESTABLECIMIENTO DE CONTACTOS CON CENTRSO TECNOLOGICOS O LABORATORIOS, ANALISIS DE LAS DIVERSAS FUENTES DE FINANCIACIÓN Y ELABORACIÓN DE MEMORIAS O DOCUMENTOS DE PROYECTOS DE I+D PARA SOLICITAR AYUDAS FINANCIERAS ANTE LAS DISTINTAS ADMINISTRACIONES PUBLICAS, REGIONALES, NACIONALES O COMUNITARIAS, DESARROLLO E IMPLANTACIÓN DE SISTEMAS DE VIGILANCIA TECNOLOGICAS Y GESTIÓN DEL CONOCIMIENTO, DESARROLLO DE PLANES REGIONALES DE I+D, DIFUCIÓN Y FORMACIÓN EN EL AMBITO DE LA INNOVACIÓN, DISEÑO Y DINAMIZACIÓN DE REDES DE BUSINESS ANGELS , Y APLICACIÓN DE TÉCNICAS DE CREATIVIDAD. C) LAS ACTIVIDADES PROPIAS DEL MERCADO INMOBILIARIO TALES COMO COMPRA, VENTA Y ALQUILER DE INMUEBLES DE TODAS CLASES",
      "mainEntityOfPage": "https://www.contratacion.euskadi.eus/webkpe00-kperoc/es/ac71aBusquedaRegistrosWar/empresa/03408",
      "_links": {
        "self": {
          "name": "BANTEC CONSULTORES INICIATIVAS EMPRENDEDORAS, S.L.",
          "href": "https://api.euskadi.eus/procurements/companies/03408"
        }
      }
    },
    {
      "name": "PROMOCIONES RUIZ IGLESIAS Y ARQUITECTURA, S.L.",
      "registrationNumber": "10057",
      "identificationNumber": "B75118554",
      "address": "Anaka  44 tasera bajo",
      "location": {
        "postalCode": "20301",
        "municipality": "Irun",
        "county": "Gipuzkoa",
        "municipalityId": "045",
        "countyId": "20"
      },
      "economicActivities": [
        {
          "id": "1.501.1",
          "name": "Construcción completa, reparación y conservación de edificaciones",
          "_links": {
            "self": {
              "name": "Construcción completa, reparación y conservación de edificaciones",
              "href": "https://api.euskadi.eus/procurements/companies/economic-activities/1.501.1"
            }
          }
        },
        {
          "id": "1.833.2",
          "name": "Promoción de edificaciones",
          "_links": {
            "self": {
              "name": "Promoción de edificaciones",
              "href": "https://api.euskadi.eus/procurements/companies/economic-activities/1.833.2"
            }
          }
        }
      ],
      "certificateStartDate": "2025-08-19",
      "certificateEndDate": "2026-02-19",
      "object": "PROMOCIÓN, CONSTRUCCIÓN, REHABILITACIÓN Y REPARACIÓN Y TRANSMISIÓN Y VENTA DE TODO TIPO DE EDIFICACIONES Y BIENES INMUEBLES, ASÍ COMO LAS OPERACIONES CON ELLO RELACIONADAS, TALES COMO ADQUISICIÓN DE TERRENOS, URBANIZACIÓN Y PARCELACIÓN DE LOS MISMOS, Y SU EXPLOTACIÓN DIRECTA, O EN COMISIÓN, O ARRENDAMIENTO A TERCEROS O SU VENTA.  \n",
      "mainEntityOfPage": "https://www.contratacion.euskadi.eus/webkpe00-kperoc/es/ac71aBusquedaRegistrosWar/empresa/10057",
      "_links": {
        "self": {
          "name": "PROMOCIONES RUIZ IGLESIAS Y ARQUITECTURA, S.L.",
          "href": "https://api.euskadi.eus/procurements/companies/10057"
        }
      }
    },
    {
      "name": "IBERDROLA CLIENTES, S.A.U.",
      "registrationNumber": "05421",
      "identificationNumber": "A95758389",
      "address": "C/ GARDOQUI, Nº 8.",
      "location": {
        "postalCode": "48008",
        "municipality": "Bilbao",
        "county": "Bizkaia",
        "municipalityId": "020",
        "countyId": "48"
      },
      "economicActivities": [
        {
          "id": "1.151.6",
          "name": "Comercialización de energía eléctrica",
          "_links": {
            "self": {
              "name": "Comercialización de energía eléctrica",
              "href": "https://api.euskadi.eus/procurements/companies/economic-activities/1.151.6"
            }
          }
        },
        {
          "id": "1.152.2",
          "name": "COMERCIALIZACION DE GAS",
          "_links": {
            "self": {
              "name": "COMERCIALIZACION DE GAS",
              "href": "https://api.euskadi.eus/procurements/companies/economic-activities/1.152.2"
            }
          }
        },
        {
          "id": "1.507",
          "name": "Construcción, reparación y conservación de toda clase obras",
          "_links": {
            "self": {
              "name": "Construcción, reparación y conservación de toda clase obras",
              "href": "https://api.euskadi.eus/procurements/companies/economic-activities/1.507"
            }
          }
        },
        {
          "id": "1.655.4",
          "name": "Servicios de recarga energética para vehículos eléctricos en el ámbito privado",
          "_links": {
            "self": {
              "name": "Servicios de recarga energética para vehículos eléctricos en el ámbito privado",
              "href": "https://api.euskadi.eus/procurements/companies/economic-activities/1.655.4"
            }
          }
        }
      ],
      "certificateStartDate": "2025-08-19",
      "certificateEndDate": "2026-01-28",
      "object": "A)  LA REALIZACIÓN DE TODA CLASE DE ACTIVIDADES RELACIONADAS CON LA COMERCIALIZACIÓN Y COMPRAVENTA DE PRODUCTOS ENERGÉTICOS Y DE MATERIAS PRIMAS EN LOS MERCADOS INSTITUIDOS AL EFECTO Y BAJO LAS MODALIDADES DE CONTRATACIÓN EXISTENTES, TANTO EN OPERACIONES PROPIAS COMO EN LAS DE INTERMEDIACIÓN CON TERCEROS. B)  LA PRESTACIÓN DE SERVICIOS DE ASISTENCIA O APOYO A LAS SOCIEDADES Y EMPRESAS PARTICIPADAS O COMPRENDIDAS EN EL ÁMBITO DE SU GRUPO DE SOCIEDADES, A CUYO FIN PODRÁ PRESTAR, A SU FAVOR, LAS GARANTÍAS Y AFIANZAMIENTOS QUE RESULTEN OPORTUNOS",
      "mainEntityOfPage": "https://www.contratacion.euskadi.eus/webkpe00-kperoc/es/ac71aBusquedaRegistrosWar/empresa/05421",
      "_links": {
        "self": {
          "name": "IBERDROLA CLIENTES, S.A.U.",
          "href": "https://api.euskadi.eus/procurements/companies/05421"
        }
      }
    },
    {
      "name": "ALICIA SUAREZ, S.L.",
      "registrationNumber": "03764",
      "identificationNumber": "B95038220",
      "address": "C/AMISTAD, 6-8",
      "location": {
        "postalCode": "48001",
        "municipality": "Bilbao",
        "county": "Bizkaia",
        "municipalityId": "020",
        "countyId": "48"
      },
      "economicActivities": [
        {
          "id": "1.652.3",
          "name": "Venta al por menor de perfumería y cosmética y artículos de aseo personal",
          "_links": {
            "self": {
              "name": "Venta al por menor de perfumería y cosmética y artículos de aseo personal",
              "href": "https://api.euskadi.eus/procurements/companies/economic-activities/1.652.3"
            }
          }
        },
        {
          "id": "1.934",
          "name": "Enseñanza fuera de establecimiento permanente",
          "_links": {
            "self": {
              "name": "Enseñanza fuera de establecimiento permanente",
              "href": "https://api.euskadi.eus/procurements/companies/economic-activities/1.934"
            }
          }
        }
      ],
      "certificateStartDate": "2025-08-19",
      "certificateEndDate": "2026-02-10",
      "object": "LA PRESTACIÓN DE TODO TIPO DE SERVICIOS, FUNDAMENTALMENTE DE PELUQUERÍA Y MAQUILLAJE PARA CARACTERIZACIÓN, EN CINE, TEATRO, TELEVISIÓN Y CUALQUIER OTRO MEDIO DE COMUNICACIÓN. COMPRAVENTA DE ARTÍCULOS DE MAQUILLAJE Y PELUQUERÍA, AL POR MAYOR Y MENOR, SU IMPORTACIÓN Y EXPORTACIÓN, ASÍ COMO SU COMERCIALIZACIÓN.\r\nLA COMPRAVENTA DE TODO TIPO DE ARTÍCULOS DE LOS LLAMADOS DE DROGUERÍA",
      "mainEntityOfPage": "https://www.contratacion.euskadi.eus/webkpe00-kperoc/es/ac71aBusquedaRegistrosWar/empresa/03764",
      "_links": {
        "self": {
          "name": "ALICIA SUAREZ, S.L.",
          "href": "https://api.euskadi.eus/procurements/companies/03764"
        }
      }
    },
    {
      "name": "IHEKI, S.L.",
      "registrationNumber": "07193",
      "identificationNumber": "B20411369",
      "address": "c/ auzmendi nº53",
      "location": {
        "postalCode": "20720",
        "municipality": "Azkoitia",
        "county": "Gipuzkoa",
        "municipalityId": "017",
        "countyId": "20"
      },
      "economicActivities": [
        {
          "id": "1.999",
          "name": "Otros servicios n.c.o.p",
          "_links": {
            "self": {
              "name": "Otros servicios n.c.o.p",
              "href": "https://api.euskadi.eus/procurements/companies/economic-activities/1.999"
            }
          }
        }
      ],
      "certificateStartDate": "2025-08-19",
      "certificateEndDate": "2026-02-19",
      "object": "LOS SERVICIOS DE MANTENIMIENTO Y BAR EN INSTALACIONES DEPORTIVAS. LOS SERVICIOS DE MANTENIMIENTO CONSISTIRÁN EN LO SIGUIENTE: MANTENIMIENTO DE INSTALACIONES DEPORTIVAS EN GENERAL, LIMPIEZA DE LAS MISMAS, ASÍ COMO, SERVICIO DE RECEPCIÓN",
      "mainEntityOfPage": "https://www.contratacion.euskadi.eus/webkpe00-kperoc/es/ac71aBusquedaRegistrosWar/empresa/07193",
      "_links": {
        "self": {
          "name": "IHEKI, S.L.",
          "href": "https://api.euskadi.eus/procurements/companies/07193"
        }
      }
    },
    {
      "name": "FUNDACIÓN JOSÉ MATIA CALVO",
      "registrationNumber": "07736",
      "identificationNumber": "G20053583",
      "address": "PINU BIDEA 35",
      "location": {
        "postalCode": "20018",
        "municipality": "Donostia / San Sebastián",
        "county": "Gipuzkoa",
        "municipalityId": "069",
        "countyId": "20"
      },
      "economicActivities": [
        {
          "id": "1.936.9",
          "name": "Otras investigaciones científicas y técnicas n.c.o.p",
          "_links": {
            "self": {
              "name": "Otras investigaciones científicas y técnicas n.c.o.p",
              "href": "https://api.euskadi.eus/procurements/companies/economic-activities/1.936.9"
            }
          }
        },
        {
          "id": "1.941.1",
          "name": "Hospitales generales",
          "_links": {
            "self": {
              "name": "Hospitales generales",
              "href": "https://api.euskadi.eus/procurements/companies/economic-activities/1.941.1"
            }
          }
        },
        {
          "id": "1.942.9",
          "name": "Otros servicios sanitarios sin internados, no clasificados",
          "_links": {
            "self": {
              "name": "Otros servicios sanitarios sin internados, no clasificados",
              "href": "https://api.euskadi.eus/procurements/companies/economic-activities/1.942.9"
            }
          }
        },
        {
          "id": "1.951",
          "name": "Asistencia y servicios sociales en centros residenciales",
          "_links": {
            "self": {
              "name": "Asistencia y servicios sociales en centros residenciales",
              "href": "https://api.euskadi.eus/procurements/companies/economic-activities/1.951"
            }
          }
        },
        {
          "id": "1.952",
          "name": "Asistencia y servicios sociales en centros no residenciales",
          "_links": {
            "self": {
              "name": "Asistencia y servicios sociales en centros no residenciales",
              "href": "https://api.euskadi.eus/procurements/companies/economic-activities/1.952"
            }
          }
        }
      ],
      "certificateStartDate": "2025-08-19",
      "certificateEndDate": "2026-02-13",
      "object": "LA ATENCIÓN A LOS POBRES, A LOS ANCIANOS Y A LOS ENFERMOS, PREFERENTEMENTE EN EL TERRITORIO HISTÓRICO DE GUIPÚZCOA. Y PARA DAR CUMPLIMIENTO MÁS ADECUADO A ESTE OBJETO, LA FUNDACIÓN DESARROLLARÁ LA PRESTACIÓN DE TODOS AQUELLOS SERVICIOS SOCIOSANITARIOS NECESARIOS PARA EL CUMPLIMIENTO DE TALES FINES, TANTO EN INSTITUCIONES COMO EN DOMICILIOS, ASÍ COMO AQUELLOS SERVICIOS DE APOYO A LOS MISMOS COMO SON ALIMENTACIÓN Y NUTRICIÓN, ATENCIÓN FARMACÉUTICA, LAVANDERÍA, LIMPIEZA, MANTENIMIENTO Y TRANSPORTE ENTRE OTROS. ADEMÁS, LA FUNDACIÓN PODRÁ PRESTAR SERVICIOS FARMACÉUTICOS A TODO TIPO DE CENTROS RESIDENCIALES PARA PERSONAS MAYORES Y/O DISCAPACIDAD, ASÍ COMO HOSPITALES, EN PARTICULAR LA COMPRA Y COMERCIALIZACIÓN DE PRODUCTOS SANITARIOS, PRODUCTOS FARMACÉUTICOS Y MEDICAMENTOS. ASIMISMO, PODRÁ DESARROLLAR ACTIVIDADES DE CARÁCTER DE INVESTIGACIÓN, DOCENCIA Y FORMACIÓN, ENCUESTAS Y TOMA DE DATOS LAS CUALES PERMITAN UNA MEJORA CONTINUA EN LA PRESTACIÓN DE SUS SERVICIOS, Y EL PONER EN CONOCIMIENTO DE LA SOCIEDAD LAS INNOVACIONES QUE SE VAYAN PRODUCIENDO, EN ARAS DE CONSEGUIR UNA MEJORA DE LA CALIDAD DE LOS SERVICIOS",
      "mainEntityOfPage": "https://www.contratacion.euskadi.eus/webkpe00-kperoc/es/ac71aBusquedaRegistrosWar/empresa/07736",
      "_links": {
        "self": {
          "name": "FUNDACIÓN JOSÉ MATIA CALVO",
          "href": "https://api.euskadi.eus/procurements/companies/07736"
        }
      }
    },
    {
      "name": "ALDALAN S.L",
      "registrationNumber": "06061",
      "identificationNumber": "B95324588",
      "address": "Edificio Plaza, Ugasko bidea 1 bajo",
      "location": {
        "postalCode": "48014",
        "municipality": "Bilbao",
        "county": "Bizkaia",
        "municipalityId": "020",
        "countyId": "48"
      },
      "economicActivities": [
        {
          "id": "1.845",
          "name": "Explotación electrónica por cuenta de terceros",
          "_links": {
            "self": {
              "name": "Explotación electrónica por cuenta de terceros",
              "href": "https://api.euskadi.eus/procurements/companies/economic-activities/1.845"
            }
          }
        },
        {
          "id": "1.847",
          "name": "Servicios de consultoría",
          "_links": {
            "self": {
              "name": "Servicios de consultoría",
              "href": "https://api.euskadi.eus/procurements/companies/economic-activities/1.847"
            }
          }
        },
        {
          "id": "1.861.2",
          "name": "Alquiler de locales industriales y otros alquileres n.c.o.p",
          "_links": {
            "self": {
              "name": "Alquiler de locales industriales y otros alquileres n.c.o.p",
              "href": "https://api.euskadi.eus/procurements/companies/economic-activities/1.861.2"
            }
          }
        },
        {
          "id": "1.931.4",
          "name": "Enseñanza de varias modalidades regladas",
          "_links": {
            "self": {
              "name": "Enseñanza de varias modalidades regladas",
              "href": "https://api.euskadi.eus/procurements/companies/economic-activities/1.931.4"
            }
          }
        }
      ],
      "certificateStartDate": "2025-08-19",
      "certificateEndDate": "2026-08-03",
      "object": "1.- LA CONSULTORÍA DE RECURSOS HUMANOS, CON LA BASE EN LOS SERVICIOS DE CALIDAD, CONCILIACIÓN E IGUALDAD DE OPORTUNIDADES Y SENSIBILIZACIÓN, COMBINANDO TÉCNICAS TRADICIONALES Y TÉCNICAS INNOVADORAS, Y CON EL USO DE LAS TICS. 2.- EL APOYO A LA INSERCIÓN AL EMPLEO, AL AUTOEMPLEO Y A LA OBTENCIÓN DE UN CAMBIO PROFESIONAL. 3.- LA ORIENTACIÓN FORMATIVA Y LABORAL, FORMACIÓN GRUPAL Y/O INDIVIDUAL, ASESORAMIENTO, ENTRENAMIENTO, INTERMEDIACIÓN, ACOMPAÑAMIENTO Y DEMÁS ACCIONES QUE CONDUZCAN AL EMPLEO Y AL AUTOEMPLEO. 4.- EL DISEÑO Y PUESTA EN MARCHA DE ITINERARIOS GRUPALES E INDIVIDUALES PARA LA INSERCIÓN LABORAL Y SOCIO-LABORAL DE LOS DIFERENTES COLECTIVOS SOCIALES. 5.- LA PROMOCIÓN EMPRESARIAL, SELECCIÓN DE PERSONAL E INTERMEDIACIÓN, EN PROCESOS DE RECOLOCACIÓN Y EXPEDIENTES DE REGULACIÓN DE EMPLEO. 6.- LA PROMOCIÓN DE CENTROS Y ENTIDADES DE FORMACIÓN, GESTIÓN DE PRÁCTICAS Y DE EMPLEO. 7.- EL DIAGNÓSTICO DE NECESIDADES FORMATIVAS, ENTRENAMIENTO, COACHING, FORMACIÓN TEÓRICO - PRÁCTICA Y TURORIZACIÓN A/EN CENTROS, ENTIDADES PÚBLICAS Y PRIVADAS, EMPRESAS Y PARTICULARES. 8.- LA COLABORACIÓN, CON ENTIDADES PÚBLICAS Y PRIVADAS, EN PROGRAMAS PARA LA EMPLEABILIDAD. 9.- LAS ACTIVIDADES RELACIONADAS CON LAS TECNOLOGÍAS DE LA INFORMACIÓN Y LA COMUNICACIÓN",
      "mainEntityOfPage": "https://www.contratacion.euskadi.eus/webkpe00-kperoc/es/ac71aBusquedaRegistrosWar/empresa/06061",
      "_links": {
        "self": {
          "name": "ALDALAN S.L",
          "href": "https://api.euskadi.eus/procurements/companies/06061"
        }
      }
    },
    {
      "name": "MOTOROLA SOLUTIONS ESPAÑA, SA",
      "registrationNumber": "06458",
      "identificationNumber": "A78109592",
      "address": "C/ Martinez Villergas, 52 - bloque 3",
      "location": {
        "postalCode": "28027",
        "municipality": "Madrid",
        "county": "Madrid",
        "municipalityId": "079",
        "countyId": "28"
      },
      "economicActivities": [
        {
          "id": "1.504.1",
          "name": "Instalaciones eléctricas en general",
          "_links": {
            "self": {
              "name": "Instalaciones eléctricas en general",
              "href": "https://api.euskadi.eus/procurements/companies/economic-activities/1.504.1"
            }
          }
        },
        {
          "id": "1.615.4",
          "name": "Venta al por mayor de aparatos y material radioeléctrico y electrónico",
          "_links": {
            "self": {
              "name": "Venta al por mayor de aparatos y material radioeléctrico y electrónico",
              "href": "https://api.euskadi.eus/procurements/companies/economic-activities/1.615.4"
            }
          }
        }
      ],
      "certificateStartDate": "2025-08-18",
      "certificateEndDate": "2026-02-18",
      "object": "LA IMPORTACIÓN, EXPORTACIÓN, PROMOCIÓN, DISTRIBUCIÓN, VENTA, ALMACENAMIENTO, INSTALACIÓN Y MANTENIMIENTO DE APARATOS, EQUIPOS, SISTEMAS Y COMPONENTES ELÉCTRICOS Y ELECTRÓNICOS, EN PARTICULAR COMPONENTES Y SISTEMAS SEMICONDUCTORES, EQUIPOS Y SISTEMAS DE COMUNICACIONES, EQUIPOS Y SISTEMAS DE TRANSMISIÓN DE DATOS Y EQUIPOS Y SISTEMAS DE PROCESOS DE DATOS. CONCESIÓN DE LICENCIAS DE SOFTWARE PARA ORDENADORES. PRESTACIÓN Y DESARROLLO DE ASISTENCIA TÉCNICA A LOS CLIENTES",
      "mainEntityOfPage": "https://www.contratacion.euskadi.eus/webkpe00-kperoc/es/ac71aBusquedaRegistrosWar/empresa/06458",
      "_links": {
        "self": {
          "name": "MOTOROLA SOLUTIONS ESPAÑA, SA",
          "href": "https://api.euskadi.eus/procurements/companies/06458"
        }
      }
    }
  ]
}