{
  "totalItems": 9042,
  "totalPages": 905,
  "currentPage": 791,
  "itemsOfPage": 10,
  "items": [
    {
      "name": "MANAGEMENT ICSA, S.A.",
      "registrationNumber": "01598",
      "identificationNumber": "A48571038",
      "address": "C/ CARDENAL GARDOQUI, Nº 9 - 1º IZDA.",
      "location": {
        "postalCode": "48008",
        "municipality": "Bilbao",
        "county": "Bizkaia",
        "municipalityId": "020",
        "countyId": "48"
      },
      "economicActivities": [
        {
          "id": "1.847",
          "name": "Servicios de consultoría",
          "_links": {
            "self": {
              "name": "Servicios de consultoría",
              "href": "https://api.euskadi.eus/procurements/companies/economic-activities/1.847"
            }
          }
        }
      ],
      "certificateStartDate": "2004-09-21",
      "certificateEndDate": "2005-03-08",
      "object": "EL ASESORAMIENTO INTEGRAL A TODA CLASE DE INSTITUCIONES Y ORGANIZACIONES PÚBLICAS Y PRIVADAS, EMPRESAS Y ENTIDADES CON ÁNIMO DE LUCRO O SIN ÉL Y, EN GENERAL, A CUALQUIER TIPO DE ASOCIACIÓN DE PERSONAS QUE PERSIGA UNOS FINES COMUNES, DISPONGA DE UNOS MEDIOS PARA ALCANZARLOS Y SE DOTE DE UNOS PROCEDIMIENTOS PARA OBTENERLOS. DICHO ASESORAMIENTO SE EXTIENDE A TODOS LOS ÁMBITOS DE ACTUACION DE SUS POTENCIALES CLIENTES, DESDE LA FIJACIÓN Y SEÑALAMIENTO DE SUS MISIONES, FINES Y OBJETIVOS ESTRATÉGICOS, PASANDO POR EL ASESORAMIENTO Y GESTIÓN DE SUS ESTRUCTURAS DE GOBIERNO, LA PLANIFICACIÓN DE SUS ACTIVIDADES, LA DOTACIÓN DE SUS RECURSOS MATERIALES, FINANCIEROS Y HUMANOS, LA DEFINICIÓN, IMPLANTACIÓN, CONTROL Y CORRECCIÓN DE SUS SISTEMAS Y PROCEDIMIENTOS DE FUNCIONAMIENTO, HASTA LA TOMA DE DECISIONES Y LA FORMACIÓN Y ADIESTRAMIENTO DE SUS CUADROS Y ÓRGANOS DE GOBIERNO PARA LOGRAR LA ÓPTIMA UTILIZACIÓN DE SUS MEDIOS Y LA EFICIENCIA DE SUS RECURSOS",
      "mainEntityOfPage": "https://www.contratacion.euskadi.eus/webkpe00-kperoc/es/ac71aBusquedaRegistrosWar/empresa/01598",
      "_links": {
        "self": {
          "name": "MANAGEMENT ICSA, S.A.",
          "href": "https://api.euskadi.eus/procurements/companies/01598"
        }
      }
    },
    {
      "name": "ASOCIACIÓN PARA LA GESTIÓN, DESARROLLO Y DIVULGACIÓN INNOVACIÓN TECN. UNITEC",
      "registrationNumber": "02561",
      "identificationNumber": "G95030698",
      "address": "C/ COLÓN DE LARREÁTEGUI, 26 - 3ºA",
      "location": {
        "postalCode": "48009",
        "municipality": "Bilbao",
        "county": "Bizkaia",
        "municipalityId": "020",
        "countyId": "48"
      },
      "economicActivities": [
        {
          "id": "1.936.9",
          "name": "Otras investigaciones científicas y técnicas n.c.o.p",
          "_links": {
            "self": {
              "name": "Otras investigaciones científicas y técnicas n.c.o.p",
              "href": "https://api.euskadi.eus/procurements/companies/economic-activities/1.936.9"
            }
          }
        }
      ],
      "certificateStartDate": "2004-09-20",
      "certificateEndDate": "2005-02-25",
      "object": "- CREACIÓN Y DESARROLLO DE UN CENTRO TECNOLÓGICO COMO RECURSO DE APOYO COMPARTIDO POR LAS PYMES.\r\n- DESARROLLO, GESTIÓN, DIVULGACIÓN Y TRANSFERENCIA DE LA INNOVACIÓN TECNOLÓGICA.\r\n- FORTALECIMIENTO DE LAS RELACIONES INDUSTRIALES ENTRE LAS PYMES Y LOS CENTROS TECNOLÓGICOS.\r\n- CONTRIBUIR A LAMEJORA DE LA COMPETITIVIDAD DE LAS PYMES.\r\n- FACILITAR LA INCORPORACIÓN DE JÓVENES TITULADOS AL MERCADO LABORAL.\r\n\r\nPARA LA CONSECUCIÓN DE DICHOS FINES SE LLEVARÁN A CABO, PREVIO EL CUMPLIMIENTO DE LOS REQUISITOS LEGALES ESTABLECIDOS, LAS SIGUIENTES ACTIVIDADES:\r\n\r\n- PROSPECCÓN Y ANÁLISIS DE MERCADO.\r\n- PROMOCIÓN Y PARTICIPACIÓN EN TODO TIPO DE PLANES Y PROYECTOS DE CARÁCTER TECNOLÓGICO.\r\n- FOMENTO DEL EMPLEO DE LAS NUEVAS TECNOLOGÍAS EN LAS PYMES.\r\n- PRESTACIÓN DE LA ASISTENCIA TÉCNICA QUE EN RELACIÓN CON LA INNOVACIÓN Y DESARROLLO TECNOLÓGICO DEMANDEN LAS PYMES.\r\n\r\nSIN PERJUICIO DE LAS ACTIVIDADES DESCRITAS EN EL APARTADO ANTERIOR, LA ASOCIACIÓN, PARA EL CUMPLIMIENTO DE SUS FINES PODRÁ:\r\n\r\n- DESARROLLAR ACTIVIDADES ECONÓMICAS DE TODO TIPO, ENCAMINADAS A LA REALIZACIÓN DE SUS FINES O A ALLEGAR RECURSOS CON ESE OBJETIVO.\r\n- ADQUIRIR O POSEER BIENES DE TODAS CLASES Y POR CUALQUIER TÍTULO ASÍ COMO CELEBRAR ACTOS Y CONTRATOS DE TODO GÉNERO.\r\n- EJERCITAR TODA CLASE DE ACCIONES CONFORME A LAS LEYES O A SUS ESTATUTOS.",
      "mainEntityOfPage": "https://www.contratacion.euskadi.eus/webkpe00-kperoc/es/ac71aBusquedaRegistrosWar/empresa/02561",
      "_links": {
        "self": {
          "name": "ASOCIACIÓN PARA LA GESTIÓN, DESARROLLO Y DIVULGACIÓN INNOVACIÓN TECN. UNITEC",
          "href": "https://api.euskadi.eus/procurements/companies/02561"
        }
      }
    },
    {
      "name": "IDEM 4, S.L.",
      "registrationNumber": "02653",
      "identificationNumber": "B48418644",
      "address": "C/SAN VICENTE, 5-1º -IZDA.",
      "location": {
        "postalCode": "48001",
        "municipality": "Bilbao",
        "county": "Bizkaia",
        "municipalityId": "020",
        "countyId": "48"
      },
      "economicActivities": [
        {
          "id": "1.961.1",
          "name": "Producción de películas cinematográficas (incluso vídeos)",
          "_links": {
            "self": {
              "name": "Producción de películas cinematográficas (incluso vídeos)",
              "href": "https://api.euskadi.eus/procurements/companies/economic-activities/1.961.1"
            }
          }
        }
      ],
      "certificateStartDate": "2004-09-09",
      "certificateEndDate": "2005-03-01",
      "object": "LA GESTIÓN PUBLICITARIA Y LA CREACIÓN, PRODUCCIÓN, PROMOCIÓN Y COMERCIALIZACIÓN AUDIOVISUAL EN GENERAL",
      "mainEntityOfPage": "https://www.contratacion.euskadi.eus/webkpe00-kperoc/es/ac71aBusquedaRegistrosWar/empresa/02653",
      "_links": {
        "self": {
          "name": "IDEM 4, S.L.",
          "href": "https://api.euskadi.eus/procurements/companies/02653"
        }
      }
    },
    {
      "name": "REINISCH ESPAÑA, S.L.",
      "registrationNumber": "02022",
      "identificationNumber": "B01238575",
      "address": "P.T. DE ÁLAVA. EDIFICIO E-5.OFICINA 108. MIÑANO",
      "location": {
        "postalCode": "01510",
        "municipality": "Vitoria-Gasteiz",
        "county": "Araba/Álava",
        "municipalityId": "059",
        "countyId": "01"
      },
      "economicActivities": [
        {
          "id": "1.843.9",
          "name": "Otros servicios técnicos n.c.o.p",
          "_links": {
            "self": {
              "name": "Otros servicios técnicos n.c.o.p",
              "href": "https://api.euskadi.eus/procurements/companies/economic-activities/1.843.9"
            }
          }
        }
      ],
      "certificateStartDate": "2004-09-08",
      "certificateEndDate": "2005-02-25",
      "object": "SERVICIOS TÉCNICOS DE INGENIERÍA, TALES COMO DOCUMENTACIÓN  TÉCNICA, GRÁFICOS TÉCNICOS, DESARROLLO DE SOFTWARE, TRADUCCIONES TÉCNICAS Y CONSULTING",
      "mainEntityOfPage": "https://www.contratacion.euskadi.eus/webkpe00-kperoc/es/ac71aBusquedaRegistrosWar/empresa/02022",
      "_links": {
        "self": {
          "name": "REINISCH ESPAÑA, S.L.",
          "href": "https://api.euskadi.eus/procurements/companies/02022"
        }
      }
    },
    {
      "name": "DONOSTIKO LAMIAK ASOCIACIÓN ASISTENCIA A DOMICILIO",
      "registrationNumber": "02356",
      "identificationNumber": "G20396727",
      "address": "C/ SAN FRANCISCO, 46 LOCAL 7",
      "location": {
        "postalCode": "20001",
        "municipality": "Donostia / San Sebastián",
        "county": "Gipuzkoa",
        "municipalityId": "069",
        "countyId": "20"
      },
      "economicActivities": [
        {
          "id": "1.999",
          "name": "Otros servicios n.c.o.p",
          "_links": {
            "self": {
              "name": "Otros servicios n.c.o.p",
              "href": "https://api.euskadi.eus/procurements/companies/economic-activities/1.999"
            }
          }
        }
      ],
      "certificateStartDate": "2004-08-23",
      "certificateEndDate": "2005-02-16",
      "object": "LA PRESTACIÓN DE SERVICIOS ASISTENCIALES DOMICILIARIOS DE HIGIENE, LIMPIEZA, ALIMENTACIÓN Y DEMÁS AYUDAS A ANCIANOS, ENFERMOS Y CUANTAS PERSONAS LO SOLICITEN.  ",
      "mainEntityOfPage": "https://www.contratacion.euskadi.eus/webkpe00-kperoc/es/ac71aBusquedaRegistrosWar/empresa/02356",
      "_links": {
        "self": {
          "name": "DONOSTIKO LAMIAK ASOCIACIÓN ASISTENCIA A DOMICILIO",
          "href": "https://api.euskadi.eus/procurements/companies/02356"
        }
      }
    },
    {
      "name": "SISTEK INFORMATICA Y MICROSISTEMAS, S.L.",
      "registrationNumber": "02888",
      "identificationNumber": "B20613410",
      "address": "EUSTASIO AMILIBIA, 11-BAJO",
      "location": {
        "postalCode": "20011",
        "municipality": "Donostia / San Sebastián",
        "county": "Gipuzkoa",
        "municipalityId": "069",
        "countyId": "20"
      },
      "economicActivities": [
        {
          "id": "1.845",
          "name": "Explotación electrónica por cuenta de terceros",
          "_links": {
            "self": {
              "name": "Explotación electrónica por cuenta de terceros",
              "href": "https://api.euskadi.eus/procurements/companies/economic-activities/1.845"
            }
          }
        }
      ],
      "certificateStartDate": "2004-08-02",
      "certificateEndDate": "2005-01-15",
      "object": "LA IMPORTACIÓN, EXPORTACIÓN, COMPRA, VENTA Y DISTRIBUCIÓN DE PRODUCTOS ELECTRÓNICOS E INFORMÁTICOS.\r\nEL DESARROLLO DE PROGRAMAS INFORMÁTICOS.\r\nEL MANTENIMIENTO Y REPARACIÓN DE TOD CLASE DE EQUIPOS INFORMÁTICOS Y ELECTRÓNICOS.\r\nLA CONSTRUCCIÓN E INSTALACIÓN DE EQUIPOS INFORMÁTICOS. ",
      "mainEntityOfPage": "https://www.contratacion.euskadi.eus/webkpe00-kperoc/es/ac71aBusquedaRegistrosWar/empresa/02888",
      "_links": {
        "self": {
          "name": "SISTEK INFORMATICA Y MICROSISTEMAS, S.L.",
          "href": "https://api.euskadi.eus/procurements/companies/02888"
        }
      }
    },
    {
      "name": "SABICO SERVICIOS AUXILIARES, S.A.",
      "registrationNumber": "01879",
      "identificationNumber": "A20550109",
      "address": "C/ PASEO DE LOS OLMOS, Nº 14 - 13ª.",
      "location": {
        "postalCode": "20016",
        "municipality": "Donostia / San Sebastián",
        "county": "Gipuzkoa",
        "municipalityId": "069",
        "countyId": "20"
      },
      "economicActivities": [
        {
          "id": "1.501.1",
          "name": "Construcción completa, reparación y conservación de edificaciones",
          "_links": {
            "self": {
              "name": "Construcción completa, reparación y conservación de edificaciones",
              "href": "https://api.euskadi.eus/procurements/companies/economic-activities/1.501.1"
            }
          }
        },
        {
          "id": "1.504.1",
          "name": "Instalaciones eléctricas en general",
          "_links": {
            "self": {
              "name": "Instalaciones eléctricas en general",
              "href": "https://api.euskadi.eus/procurements/companies/economic-activities/1.504.1"
            }
          }
        },
        {
          "id": "1.844",
          "name": "Servicios de publicidad, relaciones públicas y similares",
          "_links": {
            "self": {
              "name": "Servicios de publicidad, relaciones públicas y similares",
              "href": "https://api.euskadi.eus/procurements/companies/economic-activities/1.844"
            }
          }
        }
      ],
      "certificateStartDate": "2004-07-28",
      "certificateEndDate": "2004-06-09",
      "object": "COMPLEMENTAR, O EN SU CASO, SUBROGARSE EN LOS SERVICIOS DE AQUELLAS ENTIDADES, QUE DE UNA FORMA O DE OTRA REQUIERAN UNA ATENCIÓN CONTROLADA EN RELACIÓN A SUS FONDOS, DEPÓSITOS ASEGURADOS DE LOS MISMOS, CONTROL DE SU DISPOSICIÓN, ASÍ COMO ATENCIÓN Y MANTENIMIENTO DE LAS INSTALACIONES ADECUADAS PARA SU PUESTA A DISPOSICIÓN DEL PÚBLICO. ASIMISMO COMPLETARÁ TAL FUNCIÓN CON LA ASISTENCIA Y REPARACIÓN DE LAS INSTALACIONES AUTOMATIZADAS, TALES COMO CAJEROS, MÁQUINAS DE CONTABILIDAD O FUNCIONAMIENTO DE LAS QUE REGULAN LOS ASPECTOS INFORMÁTICOS O CANALES DE ELLOS DERIVADOS, ASÍ COMO SU PERFECCIONAMIENTO EN ARAS DEL MEJOR SERVICIO INTERNO O PÚBLICO DE LAS ENTIDADES AFECTADAS. MANTENIMIENTO, CONTROL, SERVICIOS AUXILIARES Y ADMINISTRATIVOS EN GENERAL, EN INDUSTRIAS, ENTIDADES FINANCIERAS, CENTROS COMERCIALES, ORGANISMOS PÚBLICOS O URBANIZACIONES. PRESTACIÓN Y ARRENDAMIENTO DE SERVICIOS DE CONTROLADORES, SERVICIOS DE SECRETARÍA, ATENCIÓN TELEFÓNICA, RELACIONES PÚBLICAS A TRAVÉS DE AZAFATAS, PORTEROS, ORDENANZAS Y CUALQUIER OTRO RELACIONADO CON LOS ANTERIORES",
      "mainEntityOfPage": "https://www.contratacion.euskadi.eus/webkpe00-kperoc/es/ac71aBusquedaRegistrosWar/empresa/01879",
      "_links": {
        "self": {
          "name": "SABICO SERVICIOS AUXILIARES, S.A.",
          "href": "https://api.euskadi.eus/procurements/companies/01879"
        }
      }
    },
    {
      "name": "CESPA CONTEN, S.A.",
      "registrationNumber": "02324",
      "identificationNumber": "A48060057",
      "address": "AVENIDA IPARAGUIRRE, Nº 80-1º IZDA",
      "location": {
        "postalCode": "48940",
        "municipality": "Leioa",
        "county": "Bizkaia",
        "municipalityId": "054",
        "countyId": "48"
      },
      "economicActivities": [
        {
          "id": "1.507",
          "name": "Construcción, reparación y conservación de toda clase obras",
          "_links": {
            "self": {
              "name": "Construcción, reparación y conservación de toda clase obras",
              "href": "https://api.euskadi.eus/procurements/companies/economic-activities/1.507"
            }
          }
        },
        {
          "id": "1.722",
          "name": "Transporte de mercancías por carretera",
          "_links": {
            "self": {
              "name": "Transporte de mercancías por carretera",
              "href": "https://api.euskadi.eus/procurements/companies/economic-activities/1.722"
            }
          }
        },
        {
          "id": "1.921.5",
          "name": "Servicios de incineración y eliminación de basuras y desechos",
          "_links": {
            "self": {
              "name": "Servicios de incineración y eliminación de basuras y desechos",
              "href": "https://api.euskadi.eus/procurements/companies/economic-activities/1.921.5"
            }
          }
        },
        {
          "id": "1.922",
          "name": "Servicios de limpieza",
          "_links": {
            "self": {
              "name": "Servicios de limpieza",
              "href": "https://api.euskadi.eus/procurements/companies/economic-activities/1.922"
            }
          }
        }
      ],
      "certificateStartDate": "2004-07-28",
      "certificateEndDate": "2005-01-01",
      "object": "A) LA RECOGIDA, TRANSPORTE, ALMACENAMIENTO, TRATAMIENTO, ELIMINACIÓN, VALORIZACIÓN, RECICLAJE Y COMERCIALIZACIÓN DE TODO TIPO DE RESIDUOS, SUBPRODUCTOS, ASÍ COMO LA CONSTRUCCIÓN, INSTALACIÓN Y GESTIÓN DE TODA CLASE DE PLANTAS, ESTACIONES DE TRANSFERENCIA Y VERTEDEROS DESTINADOS A FAVORECER EL MEDIO AMBIENTE, EN TODOS LOS ÁMBITOS Y SECTORES Y, EN ESPECIAL, LOS QUE REQUIERAN LA APLICACIÓN DE TECNOLOGÍAS MEDIOAMBIENTALES, QUÍMICAS, TECNOLOGÍAS LIMPIAS, TECNOLOGÍAS DE RECUPERACIÓN, ASÍ COMO TODAS AQUÉLLAS DESTINADAS A LA REDUCCIÓN, MINIMIZACIÓN Y PREVENCIÓN DE LA CONTAMINACIÓN; B) LA EJECUCIÓN DE TODO TIPO DE OBRAS E INSTALACIONES, INCLUSO EN EL DENOMINADO SISTEMA DE \"LLAVE EN MANO\", REFORMAS Y REHABILITACIÓN DE INMUEBLES, ASÍ COMO LA EXPLOTACIÓN Y MANTENIMIENTO SUCESIVO DE LO CONSTRUIDO, EDIFICADO O INSTALADO; C) LA PRESTACIÓN DE SERVICIOS SANITARIOS Y DE SERVICIOS DE LIMPIEZA E HIGIENIZACIÓN, INCLUSO INDUSTRIAL Y ESPECIALIZADA, PUDIENDO REALIZAR Y EJECUTAR LOS MISMOS POR CUENTA PROPIA O AJENA. EN PARTICULAR, LA PRESTACIÓN DE SERVICIOS DE LIMPIEZA VIARIA, DE COLEGIOS Y EDIFICIOS EN GENERAL, DE ALCANTARILLADO Y DE POZOS NEGROS, DESRATIZACIÓN, DESINSECTACIÓN Y DESINFECCIÓN EN GENERAL; MANTENIMIENTO Y LIMPIEZA DE REDES Y ESTACIONES DEPURADORAS DE AGUA, TANTO POTABLES COMO RESIDUALES, ASÍ COMO DE PARQUES Y JARDINES. LA CONSERVACIÓN Y MANTENIMIENTO DE TODA CLASE DE BIENES INMUEBLES, EQUIPOS E INSTALACIONES; D) LA ELABORACIÓN DE INFORMES, ESTUDIOS, PLANES, ANTEPROYECTOS Y PROYECTOS DE CARÁCTER TÉCNICO, ORGANIZATIVO, ECONÓMICO Y SOCIAL, RELATIVOS A CUALQUIERA DE LAS ACTIVIDADES ENUNCIADAS EN LOS APARTADOS ANTERIORES, ASÍ COMO A CUALQUIER TEMA RELACIONADO CON EL MEDIO AMBIENTE. EN PARTICULAR, LA PRESTACIÓN DE SERVICIOS DE ANÁLISIS Y CONSULTORÍA EN RELACIÓN CON EL MEDIO AMBIENTE, TALES COMO ESTUDIOS DE IMPACTO AMBIENTAL, ASEGURAMIENTO DE CALIDAD, CONDICIONES DE PRODUCCIÓN, DE ENVASADO Y EMBALAJE, TRANSPORTE, SELECCIÓN DE LABORATORIOS DE ENSAYOS Y CUALESQUIERA OTROS SERVICIOS TÉCNICOS DE ASESORAMIENTO Y CONTROL RELACIONADOS CON TODO LO EXPUESTO ANTERIORMENTE. LA DIRECCIÓN, SUPERVISIÓN Y CONTROL DE LA EJECUCIÓN Y MANTENIMIENTO DE TODO TIPO DE OBRAS E INSTALACIONES",
      "mainEntityOfPage": "https://www.contratacion.euskadi.eus/webkpe00-kperoc/es/ac71aBusquedaRegistrosWar/empresa/02324",
      "_links": {
        "self": {
          "name": "CESPA CONTEN, S.A.",
          "href": "https://api.euskadi.eus/procurements/companies/02324"
        }
      }
    },
    {
      "name": "ALPIDE, S.L.",
      "registrationNumber": "02242",
      "identificationNumber": "B01107283",
      "address": "Avda. del Cantábrico, 4 -pabellón 1",
      "location": {
        "postalCode": "00000",
        "municipality": "Vitoria-Gasteiz",
        "county": "Araba/Álava",
        "municipalityId": "059",
        "countyId": "01"
      },
      "economicActivities": [
        {
          "id": "1.505.6",
          "name": "Pintura, revestimientos y terminación y decoración de locales",
          "_links": {
            "self": {
              "name": "Pintura, revestimientos y terminación y decoración de locales",
              "href": "https://api.euskadi.eus/procurements/companies/economic-activities/1.505.6"
            }
          }
        },
        {
          "id": "1.653.4",
          "name": "Venta al por menor de material de construcción y mobiliario de saneamiento",
          "_links": {
            "self": {
              "name": "Venta al por menor de material de construcción y mobiliario de saneamiento",
              "href": "https://api.euskadi.eus/procurements/companies/economic-activities/1.653.4"
            }
          }
        }
      ],
      "certificateStartDate": "2004-07-21",
      "certificateEndDate": "2004-12-24",
      "object": "LA COMPRAVENTA Y ARRENDAMIENTO DE INMUEBLES DE TODO TIPO, ASÍ COMO ELEMENTOS DE LOS MISMOS, VIVIENDAS, OFICINAS Y LOCALES. LA PINTURA DE CUALQUIER TIPO Y CLASE Y REVESTIMIENTOS INTERIORES Y EXTERIORES; COMERCIO AL POR MENOR Y MAYOR DE PINTURAS Y BARNICES ASÍ COMO ARTÍCULOS DE DECORACIÓN; INSTALACIONES PARA DECORACIÓN Y CONSTRUCCIÓN",
      "mainEntityOfPage": "https://www.contratacion.euskadi.eus/webkpe00-kperoc/es/ac71aBusquedaRegistrosWar/empresa/02242",
      "_links": {
        "self": {
          "name": "ALPIDE, S.L.",
          "href": "https://api.euskadi.eus/procurements/companies/02242"
        }
      }
    },
    {
      "name": "XABIDE, S. COOP.",
      "registrationNumber": "01688",
      "identificationNumber": "F01036573",
      "address": "C/ MONDRAGÓN, Nº 11.",
      "location": {
        "postalCode": "01013",
        "municipality": "Vitoria-Gasteiz",
        "county": "Araba/Álava",
        "municipalityId": "059",
        "countyId": "01"
      },
      "economicActivities": [
        {
          "id": "1.844",
          "name": "Servicios de publicidad, relaciones públicas y similares",
          "_links": {
            "self": {
              "name": "Servicios de publicidad, relaciones públicas y similares",
              "href": "https://api.euskadi.eus/procurements/companies/economic-activities/1.844"
            }
          }
        },
        {
          "id": "1.847",
          "name": "Servicios de consultoría",
          "_links": {
            "self": {
              "name": "Servicios de consultoría",
              "href": "https://api.euskadi.eus/procurements/companies/economic-activities/1.847"
            }
          }
        },
        {
          "id": "1.966.9",
          "name": "Otros servicios culturales n.c.o.p",
          "_links": {
            "self": {
              "name": "Otros servicios culturales n.c.o.p",
              "href": "https://api.euskadi.eus/procurements/companies/economic-activities/1.966.9"
            }
          }
        }
      ],
      "certificateStartDate": "2004-07-20",
      "certificateEndDate": "2005-01-09",
      "object": "LA GESTIÓN CULTURAL EN TODOS SUS CAMPOS, EXPRESIONES Y DISCIPLINAS; LA COMUNICACIÓN A DIFERENTES NIVELES, TÉCNICAS, MEDIOS Y SOPORTES; LA GESTIÓN DE JORNADAS, CONGRESOS Y ACTOS DE TODO TIPO; LA FORMACIÓN EN CUALQUIER FORMATO, ÁMBITO TEMÁTICO Y DISCIPLINA, DENTRO O FUERA DEL SISTEMA REGLADO DE ENSEÑANZA; LA CONSULTORÍA Y EL ASESORAMIENTO",
      "mainEntityOfPage": "https://www.contratacion.euskadi.eus/webkpe00-kperoc/es/ac71aBusquedaRegistrosWar/empresa/01688",
      "_links": {
        "self": {
          "name": "XABIDE, S. COOP.",
          "href": "https://api.euskadi.eus/procurements/companies/01688"
        }
      }
    }
  ]
}