{
  "totalItems": 9042,
  "totalPages": 905,
  "currentPage": 841,
  "itemsOfPage": 10,
  "items": [
    {
      "name": "ONN ARQUITECTURA INTERIOR",
      "registrationNumber": "02334",
      "identificationNumber": "B48846349",
      "address": "ERCILLA, 1",
      "location": {
        "postalCode": "48009",
        "municipality": "Bilbao",
        "county": "Bizkaia",
        "municipalityId": "020",
        "countyId": "48"
      },
      "object": "CONSTRUCION Y REVESTIMIENTOS",
      "mainEntityOfPage": "https://www.contratacion.euskadi.eus/webkpe00-kperoc/es/ac71aBusquedaRegistrosWar/empresa/02334",
      "_links": {
        "self": {
          "name": "ONN ARQUITECTURA INTERIOR",
          "href": "https://api.euskadi.eus/procurements/companies/02334"
        }
      }
    },
    {
      "name": "DIAMANTINO DOS SANTOS DA LUZ",
      "registrationNumber": "02349",
      "identificationNumber": "72748289W",
      "address": "C/ SEBASTIÁN HURTADO DE CORCUERA, 2 -1º B",
      "location": {
        "postalCode": "01009",
        "municipality": "Vitoria-Gasteiz",
        "county": "Araba/Álava",
        "municipalityId": "059",
        "countyId": "01"
      },
      "object": "PENDIENTE",
      "mainEntityOfPage": "https://www.contratacion.euskadi.eus/webkpe00-kperoc/es/ac71aBusquedaRegistrosWar/empresa/02349",
      "_links": {
        "self": {
          "name": "DIAMANTINO DOS SANTOS DA LUZ",
          "href": "https://api.euskadi.eus/procurements/companies/02349"
        }
      }
    },
    {
      "name": "BELTRÁN ASCENSORES Y MONTACARGAS, S.L.",
      "registrationNumber": "02357",
      "identificationNumber": "B20334835",
      "address": "POLÍGONO INDUSTRIAL MATXARIA, 2-PAB. 9",
      "location": {
        "postalCode": "20600",
        "municipality": "Eibar",
        "county": "Gipuzkoa",
        "municipalityId": "030",
        "countyId": "20"
      },
      "object": "INSTALACION, REPARACION Y MANTENIMIENTO ASCENSORES",
      "mainEntityOfPage": "https://www.contratacion.euskadi.eus/webkpe00-kperoc/es/ac71aBusquedaRegistrosWar/empresa/02357",
      "_links": {
        "self": {
          "name": "BELTRÁN ASCENSORES Y MONTACARGAS, S.L.",
          "href": "https://api.euskadi.eus/procurements/companies/02357"
        }
      }
    },
    {
      "name": "INDUSTRIAS LOINTEK, S.L.",
      "registrationNumber": "02400",
      "identificationNumber": "B48942379",
      "address": "AITA GOTZON, 37",
      "location": {
        "postalCode": "48610",
        "municipality": "Urduliz",
        "county": "Bizkaia",
        "municipalityId": "089",
        "countyId": "48"
      },
      "object": "PENDIENTE",
      "mainEntityOfPage": "https://www.contratacion.euskadi.eus/webkpe00-kperoc/es/ac71aBusquedaRegistrosWar/empresa/02400",
      "_links": {
        "self": {
          "name": "INDUSTRIAS LOINTEK, S.L.",
          "href": "https://api.euskadi.eus/procurements/companies/02400"
        }
      }
    },
    {
      "name": "LIZARDI LORAZAINAK, S.L.",
      "registrationNumber": "02402",
      "identificationNumber": "B20731907",
      "address": "ORERETA, 5 - 2 CENTRO",
      "location": {
        "postalCode": "20100",
        "municipality": "Errenteria",
        "county": "Gipuzkoa",
        "municipalityId": "067",
        "countyId": "20"
      },
      "object": "JARDINERIA Y MONTES",
      "mainEntityOfPage": "https://www.contratacion.euskadi.eus/webkpe00-kperoc/es/ac71aBusquedaRegistrosWar/empresa/02402",
      "_links": {
        "self": {
          "name": "LIZARDI LORAZAINAK, S.L.",
          "href": "https://api.euskadi.eus/procurements/companies/02402"
        }
      }
    },
    {
      "name": "BOSLAN INGENIERÍA Y CONSULTORÍA, S.A.",
      "registrationNumber": "02405",
      "identificationNumber": "A95127825",
      "address": "C/ AUTONOMÍA, 26-8º",
      "location": {
        "postalCode": "48012",
        "municipality": "Bilbao",
        "county": "Bizkaia",
        "municipalityId": "020",
        "countyId": "48"
      },
      "object": ".pte",
      "mainEntityOfPage": "https://www.contratacion.euskadi.eus/webkpe00-kperoc/es/ac71aBusquedaRegistrosWar/empresa/02405",
      "_links": {
        "self": {
          "name": "BOSLAN INGENIERÍA Y CONSULTORÍA, S.A.",
          "href": "https://api.euskadi.eus/procurements/companies/02405"
        }
      }
    },
    {
      "name": "COMPAÑÍA DE INNOVACIÓN Y APLICACIONES TELEMÁTICAS, S.A. (CIDAT)",
      "registrationNumber": "02413",
      "identificationNumber": "A20701751",
      "address": "Pº MIKELETEGI, 56 - B-8 PLANTA 0",
      "location": {
        "postalCode": "20009",
        "municipality": "Donostia / San Sebastián",
        "county": "Gipuzkoa",
        "municipalityId": "069",
        "countyId": "20"
      },
      "object": "PENDIENTE",
      "mainEntityOfPage": "https://www.contratacion.euskadi.eus/webkpe00-kperoc/es/ac71aBusquedaRegistrosWar/empresa/02413",
      "_links": {
        "self": {
          "name": "COMPAÑÍA DE INNOVACIÓN Y APLICACIONES TELEMÁTICAS, S.A. (CIDAT)",
          "href": "https://api.euskadi.eus/procurements/companies/02413"
        }
      }
    },
    {
      "name": "GESMAY, S.A.",
      "registrationNumber": "02414",
      "identificationNumber": "A20171146",
      "address": "ZEZENBIDE, 4-BAJO",
      "location": {
        "postalCode": "20600",
        "municipality": "Eibar",
        "county": "Gipuzkoa",
        "municipalityId": "030",
        "countyId": "20"
      },
      "object": "PENDIENTE",
      "mainEntityOfPage": "https://www.contratacion.euskadi.eus/webkpe00-kperoc/es/ac71aBusquedaRegistrosWar/empresa/02414",
      "_links": {
        "self": {
          "name": "GESMAY, S.A.",
          "href": "https://api.euskadi.eus/procurements/companies/02414"
        }
      }
    },
    {
      "name": "2008EXCAVACIONES BARRUTIETA, S.L.",
      "registrationNumber": "02429",
      "identificationNumber": "B48544332",
      "address": "POLIGONO INDUSTRIAL U.A.I. 1, Nº 10",
      "location": {
        "postalCode": "48215",
        "municipality": "Iurreta",
        "county": "Bizkaia",
        "municipalityId": "910",
        "countyId": "48"
      },
      "object": "pendiente",
      "mainEntityOfPage": "https://www.contratacion.euskadi.eus/webkpe00-kperoc/es/ac71aBusquedaRegistrosWar/empresa/02429",
      "_links": {
        "self": {
          "name": "2008EXCAVACIONES BARRUTIETA, S.L.",
          "href": "https://api.euskadi.eus/procurements/companies/02429"
        }
      }
    },
    {
      "name": "SERVICIOS INTEGRALES METROPOLI 2000, S.R.L.",
      "registrationNumber": "02431",
      "identificationNumber": "B48809958",
      "address": "C/ JOSÉ RUFINO OLASO, Nº 50 - 1º C",
      "location": {
        "postalCode": "48510",
        "municipality": "Valle de Trápaga-Trapagaran",
        "county": "Bizkaia",
        "municipalityId": "080",
        "countyId": "48"
      },
      "object": "PENDIENTE",
      "mainEntityOfPage": "https://www.contratacion.euskadi.eus/webkpe00-kperoc/es/ac71aBusquedaRegistrosWar/empresa/02431",
      "_links": {
        "self": {
          "name": "SERVICIOS INTEGRALES METROPOLI 2000, S.R.L.",
          "href": "https://api.euskadi.eus/procurements/companies/02431"
        }
      }
    }
  ]
}