{
  "totalItems": 9042,
  "totalPages": 905,
  "currentPage": 748,
  "itemsOfPage": 10,
  "items": [
    {
      "name": "CONSTRUCCIONES GULPI, S.L.",
      "registrationNumber": "02250",
      "identificationNumber": "B95022182",
      "address": "B/ OLABARRIETA, 31  BJ. DCHA.",
      "location": {
        "postalCode": "48960",
        "municipality": "Galdakao",
        "county": "Bizkaia",
        "municipalityId": "036",
        "countyId": "48"
      },
      "economicActivities": [
        {
          "id": "1.501.2",
          "name": "Construcción completa, reparación y conservación obras civiles",
          "_links": {
            "self": {
              "name": "Construcción completa, reparación y conservación obras civiles",
              "href": "https://api.euskadi.eus/procurements/companies/economic-activities/1.501.2"
            }
          }
        }
      ],
      "certificateStartDate": "2009-03-23",
      "certificateEndDate": "2009-09-10",
      "object": "a) LA CONSTRUCCIÓN Y PROMOCIÓN, TANTO POR CUENTA PROPIA O DE TERCEROS, DE TODO TIPO DE OBRAS CIVILES O PÚBLICAS.\r\n\r\nb) LA COMPRA, VENTA, REHABILITACIÓN, PROMOCIÓN Y CONSTRUCCIÓN DE TODO TIPO DE VIVIENDAS Y EDIFICIOS DE VIVIENDAS O PABELLONES INDUSTRIALES.\r\n\r\nc)LA ACTUACIÓN URBANÍSTICA  SOBRE TODO TIPO DE FINCAS, RÚSTICAS O URBANAS   ",
      "mainEntityOfPage": "https://www.contratacion.euskadi.eus/webkpe00-kperoc/es/ac71aBusquedaRegistrosWar/empresa/02250",
      "_links": {
        "self": {
          "name": "CONSTRUCCIONES GULPI, S.L.",
          "href": "https://api.euskadi.eus/procurements/companies/02250"
        }
      }
    },
    {
      "name": "CODE SEGURIDAD, S.A.",
      "registrationNumber": "03837",
      "identificationNumber": "A80391857",
      "address": "C/ SAN ROMUALDO, 26 - 7 I",
      "location": {
        "postalCode": "28037",
        "municipality": "Madrid",
        "county": "Madrid",
        "municipalityId": "079",
        "countyId": "28"
      },
      "economicActivities": [
        {
          "id": "1.849.4",
          "name": "Servicios de custodia, seguridad y protección",
          "_links": {
            "self": {
              "name": "Servicios de custodia, seguridad y protección",
              "href": "https://api.euskadi.eus/procurements/companies/economic-activities/1.849.4"
            }
          }
        }
      ],
      "certificateStartDate": "2009-03-17",
      "certificateEndDate": "2009-09-05",
      "object": "LA VIGILANCIA Y PROTECCIÓN DE CERTÁMENES, FERIAS, CONVENCIONES O CUALQUIER OTRO ACTO SIMILAR Y, EN CUANTO LO PERMITIEREN LAS DISPOSICIONES ADMINISTRATIVAS APLICABLES, TAMBIÉN LA VIGILANCIA Y PROTECCIÓN DE TODA CLASE DE BIENES MUEBLES O INMUEBLES ASÍ COMO EL TRASLADO DE PERSONAS, QUE PUDIÉNDOSE ENCONTRAR EN EL RECITO DONDE LA EMPRESA DESARROLLA SU ACTIVIDAD, HUBIERAN DE SERLO A CENTROS HOSPITALARIOS O DE ASISTENCIA SANITARIA EN GENERAL REQUERIDA EN CADA CASO",
      "mainEntityOfPage": "https://www.contratacion.euskadi.eus/webkpe00-kperoc/es/ac71aBusquedaRegistrosWar/empresa/03837",
      "_links": {
        "self": {
          "name": "CODE SEGURIDAD, S.A.",
          "href": "https://api.euskadi.eus/procurements/companies/03837"
        }
      }
    },
    {
      "name": "CONSTRULAN DEBAGOIENEKO ERAINKUNTZAK, S.L.",
      "registrationNumber": "03345",
      "identificationNumber": "B20931895",
      "address": "PG. BASABE 4-EQ-11",
      "location": {
        "postalCode": "20550",
        "municipality": "Aretxabaleta",
        "county": "Gipuzkoa",
        "municipalityId": "013",
        "countyId": "20"
      },
      "economicActivities": [
        {
          "id": "1.501.1",
          "name": "Construcción completa, reparación y conservación de edificaciones",
          "_links": {
            "self": {
              "name": "Construcción completa, reparación y conservación de edificaciones",
              "href": "https://api.euskadi.eus/procurements/companies/economic-activities/1.501.1"
            }
          }
        }
      ],
      "certificateStartDate": "2009-03-13",
      "certificateEndDate": "2009-09-02",
      "object": "TRABAJOS DE CONSTRUCCIÓN EN GENERAL",
      "mainEntityOfPage": "https://www.contratacion.euskadi.eus/webkpe00-kperoc/es/ac71aBusquedaRegistrosWar/empresa/03345",
      "_links": {
        "self": {
          "name": "CONSTRULAN DEBAGOIENEKO ERAINKUNTZAK, S.L.",
          "href": "https://api.euskadi.eus/procurements/companies/03345"
        }
      }
    },
    {
      "name": "MISS BROWN, S.L.",
      "registrationNumber": "03831",
      "identificationNumber": "B95313748",
      "address": "ALDA. MAZARREDO, 19",
      "location": {
        "postalCode": "48001",
        "municipality": "Bilbao",
        "county": "Bizkaia",
        "municipalityId": "020",
        "countyId": "48"
      },
      "economicActivities": [
        {
          "id": "1.844",
          "name": "Servicios de publicidad, relaciones públicas y similares",
          "_links": {
            "self": {
              "name": "Servicios de publicidad, relaciones públicas y similares",
              "href": "https://api.euskadi.eus/procurements/companies/economic-activities/1.844"
            }
          }
        }
      ],
      "certificateStartDate": "2009-03-10",
      "certificateEndDate": "2009-08-05",
      "object": "EL PROYECTAR, EJECUTAR O DISTRIBUIR CAMPAÑAS DE PUBLICIDAD A TRAVÉS DE CUALQUIER MEDIO DE DIFUSIÓN; LA REALIZACIÓN Y PRESTACIÓN DE SERVICIOS DE PUBLICIDAD DE TODA CLASE DE PRODUCTOS, EMPRESAS Y ACTIVIDADES DE CUALQUIER MEDIO DE DIFUSIÓN O POR CUALQUIER OTRO PROCEDIMIENTO, ASILADAMENTE O EN EXCLUSIVA, DIRECTAMENTE POR SÍ O INDIRECTAMENTE A TRAVÉS DE TERCEROS; Y EN GENERAL, A TODO CUANTO SE RELACIONE DIRECTA O INDIRECTAMENTE CON LA FINALIDAD EXPRESADA",
      "mainEntityOfPage": "https://www.contratacion.euskadi.eus/webkpe00-kperoc/es/ac71aBusquedaRegistrosWar/empresa/03831",
      "_links": {
        "self": {
          "name": "MISS BROWN, S.L.",
          "href": "https://api.euskadi.eus/procurements/companies/03831"
        }
      }
    },
    {
      "name": "MONTAJES ELECTRICOS IGOAN, S.L.",
      "registrationNumber": "03834",
      "identificationNumber": "B20991915",
      "address": "POL. TXIRRITA MALEO PABELLÓN 2 C",
      "location": {
        "postalCode": "20100",
        "municipality": "Errenteria",
        "county": "Gipuzkoa",
        "municipalityId": "067",
        "countyId": "20"
      },
      "economicActivities": [
        {
          "id": "1.504.1",
          "name": "Instalaciones eléctricas en general",
          "_links": {
            "self": {
              "name": "Instalaciones eléctricas en general",
              "href": "https://api.euskadi.eus/procurements/companies/economic-activities/1.504.1"
            }
          }
        }
      ],
      "certificateStartDate": "2009-03-10",
      "certificateEndDate": "2009-08-16",
      "object": "LA REALIZACIÓN DE TODO TIPO DE INSTALACIONES ELÉCTRICAS",
      "mainEntityOfPage": "https://www.contratacion.euskadi.eus/webkpe00-kperoc/es/ac71aBusquedaRegistrosWar/empresa/03834",
      "_links": {
        "self": {
          "name": "MONTAJES ELECTRICOS IGOAN, S.L.",
          "href": "https://api.euskadi.eus/procurements/companies/03834"
        }
      }
    },
    {
      "name": "BIZGORRE, S.L. (ADIR)",
      "registrationNumber": "02483",
      "identificationNumber": "B48411789",
      "address": "C/ ARITZ BIDEA, 63",
      "location": {
        "postalCode": "48100",
        "municipality": "Mungia",
        "county": "Bizkaia",
        "municipalityId": "069",
        "countyId": "48"
      },
      "economicActivities": [
        {
          "id": "1.355.1",
          "name": "Fabricación de receptores de radio y televisión y reproducción",
          "_links": {
            "self": {
              "name": "Fabricación de receptores de radio y televisión y reproducción",
              "href": "https://api.euskadi.eus/procurements/companies/economic-activities/1.355.1"
            }
          }
        },
        {
          "id": "1.843.9",
          "name": "Otros servicios técnicos n.c.o.p",
          "_links": {
            "self": {
              "name": "Otros servicios técnicos n.c.o.p",
              "href": "https://api.euskadi.eus/procurements/companies/economic-activities/1.843.9"
            }
          }
        }
      ],
      "certificateStartDate": "2009-03-09",
      "certificateEndDate": "2009-07-19",
      "object": "LA SUBCONTRATACIÓN DE SERVICIOS Y PERSONAL A TERCEROS, DISEÑO VENTA Y DE PRODUCTOS PROPIOS, Y TODO AQUELLO QUE SEA ANTECEDENTE, CONSECUENTE O COMPLEMENTARIO DE LO ANTERIORMENTE EXPUESTO. EL MONTAJE DE CIRCUITOS IMPRESOS Y MONTAJES ELECTRÓNICOS. OFRECER CUALESQUIERA DE LOS PRODUCTOS O SERVICIOS, ASÍ COMO LA REALIZACIÓN DE LAS OBRAS NECESARIAS, ENCAMINADAS A FAVORECER LA ACCESIBILIDAD DE FORMA AUTÓNOMA AL MEDIO FÍSICO Y SOCIAL A CUALQUIER PERSONA, Y TODO QUE ESTUVIERE RELACIONADO CON ELLO DIRECTA O INDIRECTAMENTE. LA SOCIEDAD PODRÁ REALIZAR LAS ACTIVIDADES QUE CONSTITUYEN SU OBJETO TOTAL O PARCIALMENTE, DE FORMA DIRECTA O MEDIANTE LA PARTICIPACIÓN EN SOCIEDADES O ENTIDADES CON O SIN PERSONALIDAD JURÍDICA. LA SOCIEDAD NO DESARROLLARÁ NINGUNA DE LAS ACTIVIDADES SUJETAS A RÉGIMEN DE AUTORIZACIÓN ESPECIAL Y LEGISLACIÓN ESPECIAL.",
      "mainEntityOfPage": "https://www.contratacion.euskadi.eus/webkpe00-kperoc/es/ac71aBusquedaRegistrosWar/empresa/02483",
      "_links": {
        "self": {
          "name": "BIZGORRE, S.L. (ADIR)",
          "href": "https://api.euskadi.eus/procurements/companies/02483"
        }
      }
    },
    {
      "name": "ALZUR INSTALACIONES, S.L.",
      "registrationNumber": "03829",
      "identificationNumber": "B48522163",
      "address": "SANTUTXU, 2",
      "location": {
        "postalCode": "48004",
        "municipality": "Bilbao",
        "county": "Bizkaia",
        "municipalityId": "020",
        "countyId": "48"
      },
      "economicActivities": [
        {
          "id": "1.504.1",
          "name": "Instalaciones eléctricas en general",
          "_links": {
            "self": {
              "name": "Instalaciones eléctricas en general",
              "href": "https://api.euskadi.eus/procurements/companies/economic-activities/1.504.1"
            }
          }
        }
      ],
      "certificateStartDate": "2009-03-09",
      "certificateEndDate": "2009-08-03",
      "object": "A) LAS INSTALACIONES Y MONTAJES POR OBJETO.\r\nB) LA REPARACIÓN Y MANTENIMIENTO DE INSTALACIONES ELÉCTRICAS.\r\nC) LA FABRICACIÓN, COMERCIALIZACIÓN, IMPORTACIÓN, EXPORTACIÓN, DISTRIBUCIÓN Y COMPRAVENTA DE MATERIALES RELACIONADOS CON LA ELECTRICIDAD O CON LAS INSTALACIONES ELÉCTRICAS",
      "mainEntityOfPage": "https://www.contratacion.euskadi.eus/webkpe00-kperoc/es/ac71aBusquedaRegistrosWar/empresa/03829",
      "_links": {
        "self": {
          "name": "ALZUR INSTALACIONES, S.L.",
          "href": "https://api.euskadi.eus/procurements/companies/03829"
        }
      }
    },
    {
      "name": "AUTOESCUELA LAGUNAK, S.A.L.",
      "registrationNumber": "03830",
      "identificationNumber": "A20070157",
      "address": "C/ BERTXOLARI XALBADOR, 16-BAJO",
      "location": {
        "postalCode": "20018",
        "municipality": "Donostia / San Sebastián",
        "county": "Gipuzkoa",
        "municipalityId": "069",
        "countyId": "20"
      },
      "economicActivities": [
        {
          "id": "1.474.1",
          "name": "Impresión de textos o imágenes por cualquier procedimiento",
          "_links": {
            "self": {
              "name": "Impresión de textos o imágenes por cualquier procedimiento",
              "href": "https://api.euskadi.eus/procurements/companies/economic-activities/1.474.1"
            }
          }
        },
        {
          "id": "1.933.1",
          "name": "Enseñanza de conducción de vehículos terrestres, acuáticos, etc",
          "_links": {
            "self": {
              "name": "Enseñanza de conducción de vehículos terrestres, acuáticos, etc",
              "href": "https://api.euskadi.eus/procurements/companies/economic-activities/1.933.1"
            }
          }
        }
      ],
      "certificateStartDate": "2009-03-09",
      "certificateEndDate": "2009-08-16",
      "object": "TODO LO RELACIONADO CON UNA ESCUELA DE CONDUCTORES; ASÍMISMO PODRÁ REALIZAR ADEMÁS, CUANTO SEA PREPARATORIO, AUXILIAR Y COMPLEMENTARIO DE DICHO OBJETO, ASÍ COMO LAS DEMÁS OPERACIONES LÍCITAS QUE POR LOS SOCIOS PUDIERAN ACORDARSE, DENTRO DE LOS LÍMITES PREVISTOS EN LA LEGISLACIÓN VIGENTE Y CORRESPONDAN AL TIPO CONTRIBUTIVO",
      "mainEntityOfPage": "https://www.contratacion.euskadi.eus/webkpe00-kperoc/es/ac71aBusquedaRegistrosWar/empresa/03830",
      "_links": {
        "self": {
          "name": "AUTOESCUELA LAGUNAK, S.A.L.",
          "href": "https://api.euskadi.eus/procurements/companies/03830"
        }
      }
    },
    {
      "name": "GUNNEBO ESPAÑA, S.A.",
      "registrationNumber": "01830",
      "identificationNumber": "A61213989",
      "address": "JOSEP PLA, 2. ED. B2 PLANTAS 11 Y 12",
      "location": {
        "postalCode": "08019",
        "municipality": "Barcelona",
        "county": "Barcelona",
        "municipalityId": "019",
        "countyId": "08"
      },
      "economicActivities": [
        {
          "id": "1.504.1",
          "name": "Instalaciones eléctricas en general",
          "_links": {
            "self": {
              "name": "Instalaciones eléctricas en general",
              "href": "https://api.euskadi.eus/procurements/companies/economic-activities/1.504.1"
            }
          }
        },
        {
          "id": "1.699",
          "name": "Otras reparaciones n.c.o.p",
          "_links": {
            "self": {
              "name": "Otras reparaciones n.c.o.p",
              "href": "https://api.euskadi.eus/procurements/companies/economic-activities/1.699"
            }
          }
        }
      ],
      "certificateStartDate": "2009-03-04",
      "certificateEndDate": "2009-08-19",
      "object": "A) LA INSTALACIÓN Y MANTENIMIENTO DE APARATOS, DISPOSITIVOS Y SISTEMAS DE SEGURIDAD.\r\nB) EXPLOTACIÓN DE CENTRALES PARA LA RECEPCIÓN, VERIFICACIÓN Y TRANSMISIÓN DE LAS SEÑALES DE ALARMA Y SU COMUNICACIÓN A LAS FUERZAS Y CUERPOS DE SEGURIDAD, ASÍ COMO PRESTACIÓN DE SERVICIOS DE RESPUESTA, CUYA REALIZACIÓN NO SEA DE LA COMPETENCIA DE DICHAS FUERZAS Y CUERPOS",
      "mainEntityOfPage": "https://www.contratacion.euskadi.eus/webkpe00-kperoc/es/ac71aBusquedaRegistrosWar/empresa/01830",
      "_links": {
        "self": {
          "name": "GUNNEBO ESPAÑA, S.A.",
          "href": "https://api.euskadi.eus/procurements/companies/01830"
        }
      }
    },
    {
      "name": "ASECOEX, S.L.",
      "registrationNumber": "02208",
      "identificationNumber": "B48426449",
      "address": "C/ COLÓN DE LARREÁTEGUI, Nº 35 - 2º IZDA.",
      "location": {
        "postalCode": "48009",
        "municipality": "Bilbao",
        "county": "Bizkaia",
        "municipalityId": "020",
        "countyId": "48"
      },
      "economicActivities": [
        {
          "id": "1.847",
          "name": "Servicios de consultoría",
          "_links": {
            "self": {
              "name": "Servicios de consultoría",
              "href": "https://api.euskadi.eus/procurements/companies/economic-activities/1.847"
            }
          }
        }
      ],
      "certificateStartDate": "2009-03-04",
      "certificateEndDate": "2009-08-02",
      "object": "LA PRESTACIÓN DE SERVICIOS DE ASESORAMIENTO DE TODO TIPO, MEDIANTE PERSONAL DEBIDAMENTE TITULADO PARA ELLO, LA REALIZACIÓN DE TODA CLASE DE OPERACIONES PREPARATORIAS, COMPLEMENTARIAS O ACCESORIAS, ACTIVIDADES DE MEDIACIÓN, DE COMISIONISTA Y DE REPRESENTACIÓN Y LA IMPORTACIÓN Y EXPORTACIÓN.\r\n\r\nLA COMERCIALIZACIÓN DE TODA CLASE DE TERRENOS, SOLARES, EDIFICIOS, FINCAS RÚSTICAS Y URBANAS, LA EDIFICACIÓN, URBANIZACIÓN, BIEN POR CUENTA PROPIA O POR LA DE UN TERCERO, LA ENAJENACIÓN, VENTA, ARRIENDO O EXPLOTACIÓN EN CUALQUIER FORMA DE TODA CLASE DE INMUEBLES.\r\n\r\nEL ESTUDIO, PROMOCIÓN Y DESARROLLO DE TODA CLASE DE EMPRESAS INDUSTRIALES, COMERCIALES Y DE SERVICIOS",
      "mainEntityOfPage": "https://www.contratacion.euskadi.eus/webkpe00-kperoc/es/ac71aBusquedaRegistrosWar/empresa/02208",
      "_links": {
        "self": {
          "name": "ASECOEX, S.L.",
          "href": "https://api.euskadi.eus/procurements/companies/02208"
        }
      }
    }
  ]
}