{
  "totalItems": 9042,
  "totalPages": 905,
  "currentPage": 580,
  "itemsOfPage": 10,
  "items": [
    {
      "name": "NEW LINK EDUCATION SL",
      "registrationNumber": "06902",
      "identificationNumber": "B22210843",
      "address": "Avda. Monegros 29 ",
      "location": {
        "postalCode": "22005",
        "municipality": "Huesca",
        "county": "Huesca",
        "municipalityId": "125",
        "countyId": "22"
      },
      "economicActivities": [
        {
          "id": "1.755",
          "name": "Agencias de viajes",
          "_links": {
            "self": {
              "name": "Agencias de viajes",
              "href": "https://api.euskadi.eus/procurements/companies/economic-activities/1.755"
            }
          }
        },
        {
          "id": "1.933.2",
          "name": "Promoción de cursos y estudios en el extranjero",
          "_links": {
            "self": {
              "name": "Promoción de cursos y estudios en el extranjero",
              "href": "https://api.euskadi.eus/procurements/companies/economic-activities/1.933.2"
            }
          }
        },
        {
          "id": "1.933.9",
          "name": "Otras actividades de enseñanza tales como idiomas, mecanografía",
          "_links": {
            "self": {
              "name": "Otras actividades de enseñanza tales como idiomas, mecanografía",
              "href": "https://api.euskadi.eus/procurements/companies/economic-activities/1.933.9"
            }
          }
        }
      ],
      "certificateStartDate": "2020-03-12",
      "certificateEndDate": "2020-06-10",
      "object": "LA ENSEÑANZA DE IDIOMAS. LA PREPARACIÓN DE EXÁMENES Y OPOSICIONES. LA ENSEÑANZA EN GENERAL, REGLADA Y NO REGLADA, IMPARTIDA POR MATERIAS O DE FORMA COMPLETA, DE EDUCACIÓN BÁSICA, BACHILLERATO, ORIENTACIÓN UNIVERSITARIA, FORMACIÓN Y PERFECCIONAMIENTO PROFESIONAL EN CUALQUIER GRADO, Y EDUCACIÓN SUPERIOR, TANTO DENTRO COMO FUERA DE ESTABLECIMIENTO PERMANENTE, DE FORMA PRESENCIAL O A DISTANCIA. LA PROMOCIÓN Y ORGANIZACIÓN DE CURSOS Y DE ESTUDIOS EN EL EXTRANJERO. AGENCIA DE VIAJES MINORISTA. AGENCIA DE VIAJES MAYORISTA",
      "mainEntityOfPage": "https://www.contratacion.euskadi.eus/webkpe00-kperoc/es/ac71aBusquedaRegistrosWar/empresa/06902",
      "_links": {
        "self": {
          "name": "NEW LINK EDUCATION SL",
          "href": "https://api.euskadi.eus/procurements/companies/06902"
        }
      }
    },
    {
      "name": "AXOMA 47 HIRUKO SLU",
      "registrationNumber": "06904",
      "identificationNumber": "B75062828",
      "address": "Manzisidor kalea 4 behea",
      "location": {
        "postalCode": "20800",
        "municipality": "Zarautz",
        "county": "Gipuzkoa",
        "municipalityId": "079",
        "countyId": "20"
      },
      "economicActivities": [
        {
          "id": "1.844",
          "name": "Servicios de publicidad, relaciones públicas y similares",
          "_links": {
            "self": {
              "name": "Servicios de publicidad, relaciones públicas y similares",
              "href": "https://api.euskadi.eus/procurements/companies/economic-activities/1.844"
            }
          }
        }
      ],
      "certificateStartDate": "2020-03-12",
      "certificateEndDate": "2020-09-04",
      "object": "SERVICIOS DE COMUNICACIÓN INTEGRAL Y PRODUCCIÓN AUDIOVISUAL: COMUNICACIÓN INTEGRAL: PRESTACIÓN DE SERVICIOS DE COMUNICACIÓN INTEGRAL PARA TODO TIPO DE EMPRESAS Y ENTIDADES. INCLUYE: PRESTACIÓN DE SERVICIOS DE CONSULTORÍA Y COMUNICACIÓN ESTRATÉGICA, DESARROLLO DE LA COMUNICACIÓN, POSICIONAMIENTO DE ENTIDADES, MARCAS Y PRODUCTOS. CREACIÓN, DISEÑO, ELABORACIÓN ASESORÍA Y RENOVACIÓN EN COMUNICACIÓN CORPORATIVA E IMAGEN CORPORATIVA. MERCADOTECNIA, PUBLICIDAD, CAMPAÑAS DE COMUNICACIÓN Y ANÁLOGOS. PRESTACIÓN DE SERVICIOS BASADAS EN NUEVAS TECNOLOGÍAS DE LA INFORMACIÓN Y COMUNICACIÓN. CONSULTORÍA DE ESTRATEGIA DIGITAL. INTEGRACIÓN DE NUEVAS TECNOLOGÍAS. ORGANIZACIÓN DE TODO TIPO DE EVENTOS. DISEÑO Y ELABORACIÓN DE TODO TIPO DE SOPORTE MATERIAL O TECNOLÓGICO PUBLICITARIO. FORMACIÓN Y ASESORAMIENTO EN ESTILISMO PERSONAL Y CORPORATIVO. FORMACIÓN RELACIONADA CON LA COMUNICACIÓN PERSONAL Y/O CORPORATIVA. COACHING. FORMACIÓN EN COMUNICACIÓN AUDIOVISUAL. DISEÑO Y ELABORACIÓN DE TODO TIPO DE ESTUDIOS, ENCUESTAS, SONDEOS, EVALUACIONES O INVESTIGACIONES D MERCADO. PLANIFICACIÓN DE MEDIOS DE COMUNICACIÓN. RELACIONES INSTITUCIONALES. GABINETE DE PRENSA. ASESORÍA Y SEGUIMIENTO DE MEDIOS DE COMUNICACIÓN. SERVICIOS DE TRADUCCIÓN. SERVICIOS DE RELACIONES PÚBLICAS. PRODUCCIÓN AUDIOVISUAL: PRESTACIÓN DE SERVICIOS DE PRODUCCIÓN AUDIOVISUAL PARA TODO TIPO DE ENTIDADES Y EMPRESAS. INCLUYE: SERVICIO DE CONSULTORÍA, CREACIÓN, PRODUCCIÓN, REALIZACIÓN, ALQUILER Y/O COMPRAVENTA DE CUALQUIER TIPOI DE PROGRAMA, REPORTAJE, Y/O PRODUCCIÓN AUDIOVISUAL PARA TODO TIPO DE FINES, EVENTOS Y MEDIOS. DOBLAJE Y EDICIÓN DE CUALQUIER TIPO DE PRODUCCIÓN AUDIOVISUAL. ELABORACIÓN DE CASTINGS",
      "mainEntityOfPage": "https://www.contratacion.euskadi.eus/webkpe00-kperoc/es/ac71aBusquedaRegistrosWar/empresa/06904",
      "_links": {
        "self": {
          "name": "AXOMA 47 HIRUKO SLU",
          "href": "https://api.euskadi.eus/procurements/companies/06904"
        }
      }
    },
    {
      "name": "FORTIER EUROPE, S.L",
      "registrationNumber": "06905",
      "identificationNumber": "B86169554",
      "address": "C/ISLA DE TABARCA 9",
      "location": {
        "postalCode": "28660",
        "municipality": "Boadilla del Monte",
        "county": "Madrid",
        "municipalityId": "022",
        "countyId": "28"
      },
      "economicActivities": [
        {
          "id": "1.615.4",
          "name": "Venta al por mayor de aparatos y material radioeléctrico y electrónico",
          "_links": {
            "self": {
              "name": "Venta al por mayor de aparatos y material radioeléctrico y electrónico",
              "href": "https://api.euskadi.eus/procurements/companies/economic-activities/1.615.4"
            }
          }
        },
        {
          "id": "1.617.8",
          "name": "Venta al por mayor de máquinas y material de oficina",
          "_links": {
            "self": {
              "name": "Venta al por mayor de máquinas y material de oficina",
              "href": "https://api.euskadi.eus/procurements/companies/economic-activities/1.617.8"
            }
          }
        },
        {
          "id": "1.631",
          "name": "Intermediarios del comercio",
          "_links": {
            "self": {
              "name": "Intermediarios del comercio",
              "href": "https://api.euskadi.eus/procurements/companies/economic-activities/1.631"
            }
          }
        },
        {
          "id": "1.849.9",
          "name": "Otros servicios independientes n.c.o.p",
          "_links": {
            "self": {
              "name": "Otros servicios independientes n.c.o.p",
              "href": "https://api.euskadi.eus/procurements/companies/economic-activities/1.849.9"
            }
          }
        }
      ],
      "certificateStartDate": "2020-03-12",
      "certificateEndDate": "2020-08-17",
      "object": "LA REPRESENTACIÓN, INTERMEDIACIÓN, CONSULTORÍA Y DISTRIBUCIÓN DE PRODUCTOS Y SERVICIOS DE SEGURIDAD",
      "mainEntityOfPage": "https://www.contratacion.euskadi.eus/webkpe00-kperoc/es/ac71aBusquedaRegistrosWar/empresa/06905",
      "_links": {
        "self": {
          "name": "FORTIER EUROPE, S.L",
          "href": "https://api.euskadi.eus/procurements/companies/06905"
        }
      }
    },
    {
      "name": "JOSÉ LUIS VILLAGRÁN SÁNCHEZ",
      "registrationNumber": "06899",
      "identificationNumber": "75017257C",
      "address": "C/ Nogal 62",
      "location": {
        "postalCode": "23006",
        "municipality": "Jaén",
        "county": "Jaén",
        "municipalityId": "050",
        "countyId": "23"
      },
      "economicActivities": [
        {
          "id": "2.599",
          "name": "Otros profesionales relacionados con el comercio y hostelería",
          "_links": {
            "self": {
              "name": "Otros profesionales relacionados con el comercio y hostelería",
              "href": "https://api.euskadi.eus/procurements/companies/economic-activities/2.599"
            }
          }
        },
        {
          "id": "2.723",
          "name": "Administradores de fincas",
          "_links": {
            "self": {
              "name": "Administradores de fincas",
              "href": "https://api.euskadi.eus/procurements/companies/economic-activities/2.723"
            }
          }
        },
        {
          "id": "2.747",
          "name": "Auditores de cuentas y censores jurados de cuentas",
          "_links": {
            "self": {
              "name": "Auditores de cuentas y censores jurados de cuentas",
              "href": "https://api.euskadi.eus/procurements/companies/economic-activities/2.747"
            }
          }
        }
      ],
      "certificateStartDate": "2020-03-11",
      "certificateEndDate": "2020-06-30",
      "object": "AUDITORES DE CUENTAS Y CENSORES JURADOS DE CUENTAS; ADMINISTRADORES DE FINCAS; OTROS PROFESIONALES RELACIONADOS CON EL COMERCIO Y HOSTELERÍA",
      "mainEntityOfPage": "https://www.contratacion.euskadi.eus/webkpe00-kperoc/es/ac71aBusquedaRegistrosWar/empresa/06899",
      "_links": {
        "self": {
          "name": "JOSÉ LUIS VILLAGRÁN SÁNCHEZ",
          "href": "https://api.euskadi.eus/procurements/companies/06899"
        }
      }
    },
    {
      "name": "JUAN LUIS URRESTI GOROSTIZAGA",
      "registrationNumber": "06900",
      "identificationNumber": "30573687V",
      "address": "SAN AGUSTINALDE Nº1 ESC IZ 4º DERECHA",
      "location": {
        "postalCode": "48200",
        "municipality": "Durango",
        "county": "Bizkaia",
        "municipalityId": "027",
        "countyId": "48"
      },
      "economicActivities": [
        {
          "id": "2.421",
          "name": "Arquitectos técnicos y aparejadores",
          "_links": {
            "self": {
              "name": "Arquitectos técnicos y aparejadores",
              "href": "https://api.euskadi.eus/procurements/companies/economic-activities/2.421"
            }
          }
        }
      ],
      "certificateStartDate": "2020-03-11",
      "certificateEndDate": "2020-09-10",
      "object": "ARQUITECTOS TÉCNICOS Y APAREJADORES",
      "mainEntityOfPage": "https://www.contratacion.euskadi.eus/webkpe00-kperoc/es/ac71aBusquedaRegistrosWar/empresa/06900",
      "_links": {
        "self": {
          "name": "JUAN LUIS URRESTI GOROSTIZAGA",
          "href": "https://api.euskadi.eus/procurements/companies/06900"
        }
      }
    },
    {
      "name": "VEOLIA WATER SYSTEMS IBERICA, S.L.",
      "registrationNumber": "06893",
      "identificationNumber": "B81502502",
      "address": "CALLE ELECTODO 52, POL IND SANTA ANA",
      "location": {
        "postalCode": "28522",
        "municipality": "Rivas-Vaciamadrid",
        "county": "Madrid",
        "municipalityId": "123",
        "countyId": "28"
      },
      "economicActivities": [
        {
          "id": "1.329.4",
          "name": "Construcción de maquinaria para la manipulación de fluidos",
          "_links": {
            "self": {
              "name": "Construcción de maquinaria para la manipulación de fluidos",
              "href": "https://api.euskadi.eus/procurements/companies/economic-activities/1.329.4"
            }
          }
        },
        {
          "id": "1.843.1",
          "name": "Servicios técnicos de ingeniería",
          "_links": {
            "self": {
              "name": "Servicios técnicos de ingeniería",
              "href": "https://api.euskadi.eus/procurements/companies/economic-activities/1.843.1"
            }
          }
        },
        {
          "id": "1.921.4",
          "name": "Servicios de alcantarillado, evacuación y depuración de aguas residuales",
          "_links": {
            "self": {
              "name": "Servicios de alcantarillado, evacuación y depuración de aguas residuales",
              "href": "https://api.euskadi.eus/procurements/companies/economic-activities/1.921.4"
            }
          }
        }
      ],
      "certificateStartDate": "2020-03-10",
      "certificateEndDate": "2020-09-02",
      "object": "1. EL DISEÑO, FABRICACIÓN, IMPORTACIÓN, EXPORTACIÓN, INSTALACIÓN, VENTA, ALQUILER, LEASING COMO ARRENDATARIO, DISTRIBUCIÓN Y PRESTACIÓN DE SERVICIOS DE MANTENIMIENTO DE EQUIPOS PURIFICADORES DE AGUA, LÍQUIDOS Y AFLUENTES DE PROCESOS INDUSTRIALES, ALIMENTARIOS Y MÉDICOS, ASÍ COMO DE COMPONENTES Y ACCESORIOS PARA TALES EQUIPOS Y PROCESOS, Y DE TODO TIPO DE APARATOS RELATIVOS A LO HIDRÁULICO Y AL SANEAMIENTO, INCLUYENDO LA REALIZACIÓN Y EXPLOTACIÓN DE ESTUDIOS Y TRABAJOS DE INGENIERÍA CON TALES FINES. 2. LA EXPLOTACIÓN DE CUALQUIER MODO DE: A) TODOS LOS SERVICIOS DE ALIMENTACIÓN DE AGUAS Y DEMÁS DEL CICLO INTEGRAL DEL AGUA, A FAVOR DE LAS ENTIDADES PÚBLICOS Y/O PRIVADAS, Y DE LOS CONSUMIDORES PARTICULARES, PARA TODAS LAS NECESIDADES Y USOS, B) TODO TIPO DE SERVICIOS DE SANEAMIENTO, C) TODO TIPO DE SERVICIOS DE PRODUCCIÓN, TRANSPORTE, Y DISTRIBUCIÓN DE CALOR Y FLUIDOS; D) Y, EN GENERAL, DE TODO TIPO DE SERVICIOS PÚBLICOS DE COMPETENCIA MUNICIPAL, PROVINCIAL, AUTONÓMICA, O ESTATAL, SUSCEPTIBLE DE SER PRESTADOS BAJO MODOS DE GESTIÓN INDIRECTA, A FAVOR DE ENTIDADES PÚBLICAS O PRIVADAS, Y DE LOS PARTICULARES. 3. EL ESTUDIO, REDACCIÓN Y EJECUCIÓN DE TODO TIPO DE PROYECTOS Y OBRAS PARA ENTIDADES PÚBLICAS, O PRIVADAS ASÍ COMO DE LOS PARTICULARES. 4. EL RETIRO, LA INCINERACIÓN Y TRATAMIENTO DE RESIDUOS, Y LA VENTA DE LOS SUBPRODUCTOS CORRESPONDIENTES. 5. LA OPERACIÓN Y MANTENIMIENTO DE INSTALACIONES DE TRATAMIENTO DE AGUAS: PLANTAS DEPURADORAS, PLANTAS POTABILIZADORAS Y PLANTAS DESALADORAS, ASÍ COMO DE OTROS BIENES INMUEBLES, EQUIPOS E INSTALACIONES. 6. LA ELABORACIÓN DE ESTUDIOS E INFORMES RELACIONADOS CON OBRAS PÚBLICAS, EDIFICACIÓN, URBANISMO, CARTOGRAFÍA, CATASTROS, GEOTECNIA, HIDROLOGÍA Y MEDIO AMBIENTE, ASÍ COMO ANÁLISIS, ENSAYOS Y CONTROL TÉCNICO. 7. LA REALIZACIÓN DE ASISTENCIAS TÉCNICAS A DIRECCIÓN DE OBRAS. 8. LA REALIZACIÓN, MANTENIMIENTO Y EXPLOTACIÓN DE TODO TIPO DE OBRAS PARA EL ESTADO, LAS COMUNIDADES AUTÓNOMAS, LAS DIPUTACIONES PROVINCIALES, LOS MUNICIPIOS Y DEMÁS ENTES PÚBLICOS, ASÍ COMO PARA CUALQUIER ORGANISMO PRIVADO CON PERSONALIDAD JURÍDICA PROPIA O PARTICULARES.\r\n",
      "mainEntityOfPage": "https://www.contratacion.euskadi.eus/webkpe00-kperoc/es/ac71aBusquedaRegistrosWar/empresa/06893",
      "_links": {
        "self": {
          "name": "VEOLIA WATER SYSTEMS IBERICA, S.L.",
          "href": "https://api.euskadi.eus/procurements/companies/06893"
        }
      }
    },
    {
      "name": "DEX MEDIA PRODUCCIONES, S.L.",
      "registrationNumber": "06891",
      "identificationNumber": "B41771700",
      "address": "C/ CONSTANCIA 22",
      "location": {
        "postalCode": "41806",
        "municipality": "Umbrete",
        "county": "Sevilla",
        "municipalityId": "094",
        "countyId": "41"
      },
      "economicActivities": [
        {
          "id": "1.961.1",
          "name": "Producción de películas cinematográficas (incluso vídeos)",
          "_links": {
            "self": {
              "name": "Producción de películas cinematográficas (incluso vídeos)",
              "href": "https://api.euskadi.eus/procurements/companies/economic-activities/1.961.1"
            }
          }
        }
      ],
      "certificateStartDate": "2020-03-09",
      "certificateEndDate": "2020-08-24",
      "object": "LA CAPTACIÓN DE NOTICIAS PARA DIFUNDIR EN CUALQUIER SOPORTE, MEDIOS DE COMUNICACIÓN O SISTEMA CONFECCIÓN DE PROGRAMAS,   MICROESPACIOS   Y  SPOTS   DE CINE Y TELEVISIÓN; PUBLICITAR  CUALQUIER  IDEA  O IMAGEN;  PLANIFICAR SU EMISIÓN PARA DIFERENTES MEDIOS; DISEÑAR CAMPAÑAS PUBLICITARIAS, DE IDENTIDAD VISUAL, DE MARCAS Y LOGOS; ASESORAR  EN MARKETING  PUBLICITARIO ASÍ COMO EN COMUNICACIÓN INTEGRAL;  EDITAR  BOLETINES INFORMATIVOS, REVISTAS, PERIÓDICOS, DIARIOS,  LIBROS  Y  FOLLETOS, EN CUALQUIER SOPORTE, GRÁFICO O MAGNÉTICO; REALIZACIÓN, PRODUCCIÓN, DISTRIBUCIÓN, DIVULGACIÓN,  COMERCIALIZACIÓN  Y EMISIÓN DE TODA CLASE DE PROGRAMAS, REPORTAJES, DOCUMENTALES, CORTOMETRAJE, EN VÍDEO Y EN CINE, TANTO EN DIRECTO COMO EN  DIFERIDO, ASÍ COMO LA DE IMÁGENES EN O MEDIANTE VIDEOCASETE, COMPAT DISC, DIGITAL O EN ALTA DEFINICIÓN,  PARA  SU DISTRIBUCIÓN, TRANSMISIÓN Y DIFUSIÓN POR CANAL DE TELEVISIÓN, CABLE U OTROS MEDIOS TÉCNICOS A CONTINENTES, PAÍSES, REGIONES, LOCALIDADES, COMUNIDADES, INSTITUCIONES, INDUSTRIAS O  ENTIDADES Y ORGANISMOS PÚBLICOS, DE IGUAL MANERA LA PRESTACIÓN DE SERVICIOS   AUDIOVISUALES,   INSTALACIONES   Y   MANTENIMIENTOS   DE   LAS MISMAS; IMPARTICIÓN DE CURSOS DE FORMACIÓN POR CONVENIO CON ORGANISMOS PÚBLICOS O PRIVADOS; ESTABLECIMIENTO DE ACUERDOS CON EMPRESAS DE TELEVISIONES PÚBLICAS O PRIVADAS DE COPRODUCCIÓN, PRECOMPRA DE DERECHOS, COMPRA DE DERECHOS DE ANTENA, INTERCAMBIO DE PROGRAMAS, ASÍ COMO LA FIRMA DE CONVENIOS DE COMPROMISO DE INVERSIÓN EN MATERIA AUDIOVISUAL, A TRAVÉS DE LAS DIFERENTES EMPRESAS; CESIÓN DE DERECHOS DE EXPLOTACIÓN DE CUALQUIER PROGRAMA O PRODUCCIÓN, TOTAL O PARCIAL; DESARROLLO DE PROYECTOS, GUIONES Y STORY BOARD, DISEÑO GRÁFICO, INFOGRAFÍA Y DIBUJOS ANIMADOS, EN CUALQUIER SISTEMA; ORGANIZACIÓN DE CONGRESOS, FESTIVALES, FOROS Y ENCUENTROS DE TODO TIPO TANTO NACIONALES COMO  INTERNACIONALES,  ASÍ  COMO  CONCURRIR  A  LOS MISMOS; PARTICIPACIÓN EN MERCADOS DE COMPRA Y VENTA DE PROGRAMAS DE TELEVISIÓN Y CINE, Y REPRESENTAR A SOCIEDADES Y PARTICULARES EN ÉSTOS; PRODUCCIÓN PUBLICITARIA; ALQUILER DE MEDIOS AUDIOVISUALES DE PROYECCIÓN Y SONIDO; HOSTELERÍA. PARA CUANDO SEA NECESARIO DICHAS ACTIVIDADES LAS EJERCERÁN PERSONAS CON TITULACIÓN SUFICIENTE",
      "mainEntityOfPage": "https://www.contratacion.euskadi.eus/webkpe00-kperoc/es/ac71aBusquedaRegistrosWar/empresa/06891",
      "_links": {
        "self": {
          "name": "DEX MEDIA PRODUCCIONES, S.L.",
          "href": "https://api.euskadi.eus/procurements/companies/06891"
        }
      }
    },
    {
      "name": "GRAFICAS RIGEL, S.A.",
      "registrationNumber": "06886",
      "identificationNumber": "A33052374",
      "address": "CL MARQUES DE TEVERGA, 7 - BAJO",
      "location": {
        "postalCode": "33401",
        "municipality": "Avilés",
        "county": "Asturias",
        "municipalityId": "004",
        "countyId": "33"
      },
      "economicActivities": [
        {
          "id": "1.474",
          "name": "Artes gráficas (impresión gráfica)",
          "_links": {
            "self": {
              "name": "Artes gráficas (impresión gráfica)",
              "href": "https://api.euskadi.eus/procurements/companies/economic-activities/1.474"
            }
          }
        },
        {
          "id": "1.861.2",
          "name": "Alquiler de locales industriales y otros alquileres n.c.o.p",
          "_links": {
            "self": {
              "name": "Alquiler de locales industriales y otros alquileres n.c.o.p",
              "href": "https://api.euskadi.eus/procurements/companies/economic-activities/1.861.2"
            }
          }
        }
      ],
      "certificateStartDate": "2020-03-05",
      "certificateEndDate": "2020-04-30",
      "object": "LA IMPRESIÓN DE IMÁGENES O TEXTOS POR CUALQUIER SISTEMA O PROCEDIMIENTO, TALES COMO TIPOGRAFÍA, OFFSET, HUECOGRABADO, SERIGRAFÍA, FLEXOGRAFÍA, LITOGRAFÍA, CALCOGRAFÍA Y ESTAMPACIONES EN RELIEVE",
      "mainEntityOfPage": "https://www.contratacion.euskadi.eus/webkpe00-kperoc/es/ac71aBusquedaRegistrosWar/empresa/06886",
      "_links": {
        "self": {
          "name": "GRAFICAS RIGEL, S.A.",
          "href": "https://api.euskadi.eus/procurements/companies/06886"
        }
      }
    },
    {
      "name": "LASER CUTTING PARTNERS,S.L.",
      "registrationNumber": "06883",
      "identificationNumber": "B95844296",
      "address": "Poligono Industrial Zubieta, nº14",
      "location": {
        "postalCode": "48340",
        "municipality": "Amorebieta-Etxano",
        "county": "Bizkaia",
        "municipalityId": "003",
        "countyId": "48"
      },
      "economicActivities": [
        {
          "id": "1.312",
          "name": "Forja, estampado, embutición, troquelado, corte y repulsado",
          "_links": {
            "self": {
              "name": "Forja, estampado, embutición, troquelado, corte y repulsado",
              "href": "https://api.euskadi.eus/procurements/companies/economic-activities/1.312"
            }
          }
        }
      ],
      "certificateStartDate": "2020-03-04",
      "certificateEndDate": "2020-05-18",
      "object": "CON CODIGO CNAE 2410 FABRICACION DE PRODUCTOS BASICOS DE HIERRO, ACERO Y FERROALEACIONES: RESTO DE ACTIVIDADES: FABRICACION DE PRODUCTOS METALICOS, EXCEPTO MAQUINARIA Y EQUIPO. DISEÑO, TRANSFFORMACION Y PRODUCCION DE PIEZAS DE CHAPA METALICA CON MEDIOS PRODUCTIVOS PROPIOS O AJENOS, EN BASE A UNAS ESPECIFICACIONES SUMINISTRADAS POR EL CLIENTE, CUMPLIENDO EN TODO MOMENTO CON UNOS ESTANDARES DE CALIDAD AJUSTADOS A LA NORMATIVA VIGENTE Y MERCADO",
      "mainEntityOfPage": "https://www.contratacion.euskadi.eus/webkpe00-kperoc/es/ac71aBusquedaRegistrosWar/empresa/06883",
      "_links": {
        "self": {
          "name": "LASER CUTTING PARTNERS,S.L.",
          "href": "https://api.euskadi.eus/procurements/companies/06883"
        }
      }
    },
    {
      "name": "TIPOGRAFIKA KOOP. ELK. TXIKIA",
      "registrationNumber": "05510",
      "identificationNumber": "F95730883",
      "address": "Estartetxe kalea 5, 2º - dpto. 217",
      "location": {
        "postalCode": "48940",
        "municipality": "Leioa",
        "county": "Bizkaia",
        "municipalityId": "054",
        "countyId": "48"
      },
      "economicActivities": [
        {
          "id": "1.474.1",
          "name": "Impresión de textos o imágenes por cualquier procedimiento",
          "_links": {
            "self": {
              "name": "Impresión de textos o imágenes por cualquier procedimiento",
              "href": "https://api.euskadi.eus/procurements/companies/economic-activities/1.474.1"
            }
          }
        },
        {
          "id": "1.476.9",
          "name": "Otras ediciones n.c.o.p",
          "_links": {
            "self": {
              "name": "Otras ediciones n.c.o.p",
              "href": "https://api.euskadi.eus/procurements/companies/economic-activities/1.476.9"
            }
          }
        },
        {
          "id": "1.843.9",
          "name": "Otros servicios técnicos n.c.o.p",
          "_links": {
            "self": {
              "name": "Otros servicios técnicos n.c.o.p",
              "href": "https://api.euskadi.eus/procurements/companies/economic-activities/1.843.9"
            }
          }
        },
        {
          "id": "1.845",
          "name": "Explotación electrónica por cuenta de terceros",
          "_links": {
            "self": {
              "name": "Explotación electrónica por cuenta de terceros",
              "href": "https://api.euskadi.eus/procurements/companies/economic-activities/1.845"
            }
          }
        }
      ],
      "certificateStartDate": "2020-03-03",
      "certificateEndDate": "2020-07-31",
      "object": "LA PRESTACIÓN DE SERVICIOS DE DISEÑO GRÁFICO, EDITORIAL E INTERACTIVO. ASÍ MISMO, LA COOPERATIVA OFRECERÁ SERVICIOS DE EDICIÓN, PUBLICIDAD, FORMACIÓN Y ARTES GRÁFICAS",
      "mainEntityOfPage": "https://www.contratacion.euskadi.eus/webkpe00-kperoc/es/ac71aBusquedaRegistrosWar/empresa/05510",
      "_links": {
        "self": {
          "name": "TIPOGRAFIKA KOOP. ELK. TXIKIA",
          "href": "https://api.euskadi.eus/procurements/companies/05510"
        }
      }
    }
  ]
}