{
  "totalItems": 9042,
  "totalPages": 905,
  "currentPage": 303,
  "itemsOfPage": 10,
  "items": [
    {
      "name": "PKF ATTEST SERVICIOS EMPRESARIALES, S.L.",
      "registrationNumber": "02733",
      "identificationNumber": "B95221271",
      "address": "ALAMEDA DE RECALDE, 36 - 8º",
      "location": {
        "postalCode": "48009",
        "municipality": "Bilbao",
        "county": "Bizkaia",
        "municipalityId": "020",
        "countyId": "48"
      },
      "economicActivities": [
        {
          "id": "1.842",
          "name": "Servicios financieros y contables",
          "_links": {
            "self": {
              "name": "Servicios financieros y contables",
              "href": "https://api.euskadi.eus/procurements/companies/economic-activities/1.842"
            }
          }
        },
        {
          "id": "1.932.2",
          "name": "Enseñanza de formación y perfeccionamiento profesional superior",
          "_links": {
            "self": {
              "name": "Enseñanza de formación y perfeccionamiento profesional superior",
              "href": "https://api.euskadi.eus/procurements/companies/economic-activities/1.932.2"
            }
          }
        }
      ],
      "certificateStartDate": "2025-09-03",
      "certificateEndDate": "2026-02-27",
      "object": "LA INTERMEDIACIÓN Y COORDINACIÓN EN LA PRESTACIÓN DE LOS SIGUIENTES SERVICIOS: 1. SERVICIOS DE AUDITORÍA, REVISIÓN, CNESURA, VERIFICACIÓN Y ANÁLISIS EN GENERAL DE CUENTAS, ESTADOS FINANCIEROS Y CUALQUIER OTRA INFORMACIÓN DE ÍNDOLE CONTABLE, ECONÓMICA Y7O FINANCIERA, MEDIANTE LA UTILIZACIÓN DE LAS TÉCNICAS DE REVISIÓN Y VEIRIFACIÓN IDÓNEA. 2. SERVICIOS DE CONSULTORÍA Y ASESORAMIENTO A EMPRESAS Y ORGANIZACIONES PÚBLICAS Y PRIVADAS EN EL ÁMBITO ECONÓMICO-FINANCIERO, ASÍ COMO EN LOS ÁMBITOS INCLUÍDOS DENTRO DEL OBJETO SOCIAL. 3. LA REALIZACIÓN DE TASACIONES, DICTÁMENES FINANCIEROS, VALORACIONES Y PERITAJES. 4. LA ADQUISICIÓN, CESIÓN, TENENCIA, DISFRUTE, ADMINISTRACIÓN, GESTIÓN Y NEGOCIACIÓN EN GENERAL DE VALORES MOBILIARIOS E INMUEBLES, PARTICIPACIONES SOCIALES O EN COPROPIEDAD DE TODA CLASE DE BIENES. 5. LA ADQUISICIÓN Y ENAJENACIÓN POR CUALQUIER TÍTULO DE FINCAS RÚSTICAS Y RUBANAS YA SEAN TIERRAS, SOLARES, EDIFICIOS, LA CONSTRUCICÓN DE ETOS, LA TENENCIA, EXPLOTACIÓN Y ARRENDAMIENTO, YA SEAN ACTIVO O PASIVO, DE TALES BIENES Y SU VENTA TOTAL O PARCIAL, SEGÚN CONVENGA. 6. EL ARRENDAMIENTO Y CUALQUIER OTRA FORMA DE CESIÓN, USO O DISFRUTE QUE ABARQUE TODO O PARTE DE LOS EPÍGRAFES ANTERIORES. 7. LA ENSEÑANZA YFORMACIÓN EN EL ÁMBITO DE LAS ACTIVIDADES INCLUÍDAS EN EL OBJETO SOCIAL",
      "mainEntityOfPage": "https://www.contratacion.euskadi.eus/webkpe00-kperoc/es/ac71aBusquedaRegistrosWar/empresa/02733",
      "_links": {
        "self": {
          "name": "PKF ATTEST SERVICIOS EMPRESARIALES, S.L.",
          "href": "https://api.euskadi.eus/procurements/companies/02733"
        }
      }
    },
    {
      "name": "NURA GIZARTE ELKARTEA",
      "registrationNumber": "07761",
      "identificationNumber": "G20779187",
      "address": "SAN FRANCISCO, 47 BEHEA",
      "location": {
        "postalCode": "20400",
        "municipality": "Tolosa",
        "county": "Gipuzkoa",
        "municipalityId": "071",
        "countyId": "20"
      },
      "economicActivities": [
        {
          "id": "1.942.9",
          "name": "Otros servicios sanitarios sin internados, no clasificados",
          "_links": {
            "self": {
              "name": "Otros servicios sanitarios sin internados, no clasificados",
              "href": "https://api.euskadi.eus/procurements/companies/economic-activities/1.942.9"
            }
          }
        },
        {
          "id": "1.952",
          "name": "Asistencia y servicios sociales en centros no residenciales",
          "_links": {
            "self": {
              "name": "Asistencia y servicios sociales en centros no residenciales",
              "href": "https://api.euskadi.eus/procurements/companies/economic-activities/1.952"
            }
          }
        }
      ],
      "certificateStartDate": "2025-09-03",
      "certificateEndDate": "2026-03-02",
      "object": "LA INTERVENCIÓN SOCIO-EDUCATIVA E INSERCIÓN SOCIAL DE COLECTIVOS EN RIESGO O SITUACIÓN DE EXCLUSIÓN SOCIAL, Y EL APOYO TÉCNICO A PROFESIONALES DE AYUDA. PARA LA CONSECUCIÓN DE DICHOS FINES SE LLEVARÁ A CABO, PREVIO EL CUMPLIMIENTO DE LOS REQUISITOS LEGALES ESTABLECIDOS, LA SIGUIENTE ACTIVIDAD: PROGRAMAS DE INTERVENCIÓN SOCIO-EDUCATIVA CON MENORES Y JÓVENES EN SITUACIÓN DE RIESGO DESDE LOS SERVICIOS SOCIALES COMUNITARIOS. SIN PERJUICIO DE LA ACTIVIDAD DESCRITA EN EL APARTADO ANTERIOR, LA ASOCIACIÓN, PARA EL CUMPLIMIENTO DE SUS FINES PODRÁ: DESARROLLAR ACTIVIDADES ECONÓMICAS DE TODO TIPO, ENCAMINADAS A LA REALIZACIÓN DE SUS FINES O A ALLEGAR RECURSOS CON ESE OBJETIVO. ADQUIRIR Y POSEER BIENES DE TODAS CLASES Y POR CUALQUIER TÍTULO, ASÍ COMO CELEBRAR ACTOS Y CONTRATOS DE TODO GÉNERO. EJERCITAR TODA CLASE DE ACCIONES CONFORME A LAS LEYES O A SUS ESTATUTOS.",
      "mainEntityOfPage": "https://www.contratacion.euskadi.eus/webkpe00-kperoc/es/ac71aBusquedaRegistrosWar/empresa/07761",
      "_links": {
        "self": {
          "name": "NURA GIZARTE ELKARTEA",
          "href": "https://api.euskadi.eus/procurements/companies/07761"
        }
      }
    },
    {
      "name": "INGENIERÍA Y TÉCNICAS DE CALIDAD, S.L.",
      "registrationNumber": "02144",
      "identificationNumber": "B48605521",
      "address": "IDORSOLO 13 DPTOS 6-7",
      "location": {
        "postalCode": "48160",
        "municipality": "Derio",
        "county": "Bizkaia",
        "municipalityId": "901",
        "countyId": "48"
      },
      "economicActivities": [
        {
          "id": "1.843.1",
          "name": "Servicios técnicos de ingeniería",
          "_links": {
            "self": {
              "name": "Servicios técnicos de ingeniería",
              "href": "https://api.euskadi.eus/procurements/companies/economic-activities/1.843.1"
            }
          }
        }
      ],
      "certificateStartDate": "2025-09-03",
      "certificateEndDate": "2026-02-27",
      "object": "LA REALIZACIÓN DE TODO TIPO DE SERVICIOS RELACIONADOS CON LA CALIDAD, LA FIABILIDAD Y LA SEGURIDAD INDUSTRIAL DE PLANTAS INDUSTRIALES, MEDIO AMBIENTE, EDIFICACIONES E INSTALACIONES FABRILES, DE TRANSPORTES, COMUNICACIONES O DE SERVICIOS EN GENERAL Y DEL SOFTWARE Y HARDWARE UTILIZADOS EN LA INFORMÁTICA. LA PRESTACIÓN DE ESTOS SERVICIOS SE REALIZARÁ BAJO LA FORMA DE ASESORÍA LEGAL, ASESORÍA TÉCNICA, ESTUDIOS, SUPERVISIÓN, INSPECCIÓN, CONSULTORÍA, AUDITORÍA, FORMACIÓN Y CUALIFICACIÓN DE PERSONAL TÉCNICO O CUALQUIER OTRO QUE TIENDA A GARANTIZAR UNA MEJOR GESTIÓN DE LA CALIDAD Y DE LA SEGURIDAD; UNA MEJOR GESTIÓN DE LOS PROYECTOS, DE LA PRODUCCIÓN Y DEL MANTENIMIENTO Y UNA MEJOR ORGANIZACIÓN EN GENERAL. LOS SERVICIOS CITADOS SE REALIZARÁN EN CUALQUIER FASE DE LOS PROCESOS PRODUCTIVOS; DISEÑO, COMPRAS, FABRICACIÓN, CONSTRUCCIÓN, MONTAJE, PUESTA EN MARCHA, MANTENIMIENTO Y PRODUCCIÓN Y PODRÁN REFERIRSE A CUALQUIERA DE LAS ÁREAS TÉCNICAS: MECÁNICA, ELÉCTRICA, ELECTRÓNICA, MICROELECTRÓNICA, INFORMÁTICA, CONSTRUCCIÓN CIVIL Y NUEVAS TECNOLOGÍAS EN GENERAL. ESTOS SERVICIOS IRÁN DESTINADOS A TODO TIPO DE EMPRESAS PRIVADAS Y DE ORGANISMOS PÚBLICOS, TALES COMO LA ADMINISTRACIÓN DEL ESTADO, ORGANISMOS AUTÓNOMOS Y LOCALES, ETC., TANTO EN EL TERRITORIO NACIONAL COMO FUERA DEL MISMO. PARA UN MEJOR DESARROLLO DE LO ANTERIOR, LA SOCIEDAD PODRÁ: TOMAR EN ARRENDAMIENTO O ADQUIRIR EN PROPIEDAD LOS INMUEBLES NECESARIOS PARA EL ESTABLECIMIENTO DE SUS OFICINAS, LABORATORIOS Y LOCALES EN GENERAL. FABRICAR, VENDER O ARRENDAR CUALQUIER EQUIPO O INSTALACIÓN NECESARIA PARA LA MEJOR REALIZACIÓN DE LOS SERVICIOS DESCRITOS ANTERIORMENTE. DAR U OBTENER CAPITALES EN PRÉSTAMO CON O SIN GARANTÍAS DE PERSONAS, INSTITUCIONES O EMPRESAS NACIONALES O EXTRANJERAS, PARA DESTINARLOS A LOS FINES ANTES MENCIONADOS.",
      "mainEntityOfPage": "https://www.contratacion.euskadi.eus/webkpe00-kperoc/es/ac71aBusquedaRegistrosWar/empresa/02144",
      "_links": {
        "self": {
          "name": "INGENIERÍA Y TÉCNICAS DE CALIDAD, S.L.",
          "href": "https://api.euskadi.eus/procurements/companies/02144"
        }
      }
    },
    {
      "name": "AREA SUENA, EQUIPAMIENTO Y SERVICIOS AUDIOVISUALES, S.L.",
      "registrationNumber": "09830",
      "identificationNumber": "B85771582",
      "address": "c/ Anastasio Nieto, 11 Oficina 25",
      "location": {
        "postalCode": "28400",
        "municipality": "Collado Villalba",
        "county": "Madrid",
        "municipalityId": "047",
        "countyId": "28"
      },
      "economicActivities": [
        {
          "id": "1.617.8",
          "name": "Venta al por mayor de máquinas y material de oficina",
          "_links": {
            "self": {
              "name": "Venta al por mayor de máquinas y material de oficina",
              "href": "https://api.euskadi.eus/procurements/companies/economic-activities/1.617.8"
            }
          }
        },
        {
          "id": "1.659.2",
          "name": "Venta al por menor de muebles de oficina y máquinas y equipos de oficina",
          "_links": {
            "self": {
              "name": "Venta al por menor de muebles de oficina y máquinas y equipos de oficina",
              "href": "https://api.euskadi.eus/procurements/companies/economic-activities/1.659.2"
            }
          }
        }
      ],
      "certificateStartDate": "2025-09-03",
      "certificateEndDate": "2026-02-28",
      "object": "VENTA Y ALQUILER DE EQUIPOS ELECTRÓNICOS DE SONIDO, VÍDEO, PROGRAMAS INFORMÁTICOS E INSTRUMENTOS MUSICALES. FABRICACIÓN Y VENTA DE MOBILIARIO TÉCNICO ASÍ COMO FABRICACIÓN DE EQUIPOS Y ACCESORIOS ELECTRÓNICOS DE AUDIO Y VÍDEO. DESARROLLO DE APLICACIONES INFORMÁTICAS. DISEÑO DE ACONDICIONAMIENTO ACÚSTICO DE LOCALES. INSTALACIÓN E INGENIERÍA DE EQUIPOS DE AUDIO, VÍDEO E INFORMÁTICA. REPARACIÓN Y MANTENIMIENTO DE AUDIO, VÍDEO E INFORMÁTICA. INTEGRACIÓN DE SISTEMAS AUDIOVISUALES. MANTENIMIENTO TÉCNICO E INFORMÁTICO DE EMPRESAS E INSTITUCIONES. OUTSOURCING O SUBCONTRATACIÓN DE PERSONAL TÉCNICO ESPECIALIZADO Y DE PERSONAL DOCENTE ESPECIALIZADO. SERVICIOS DE ASESORÍA Y CONSULTORÍA AUDIOVISUAL, ASÍ COMO DE FORMACIÓN DE PERSONAL. CREACIÓN DE CONTENIDOS AUDIOVISUALES (MÚSICA, PUBLICIDAD, TV, CINE). SERVICIOS DE PELUQUERÍA Y ESTÉTICA Y VENTA DE PRODUCTOS. TRADUCCIÓN DE DOCUMENTOS TÉCNICOS DEL INGLÉS AL CASTELLANO.",
      "mainEntityOfPage": "https://www.contratacion.euskadi.eus/webkpe00-kperoc/es/ac71aBusquedaRegistrosWar/empresa/09830",
      "_links": {
        "self": {
          "name": "AREA SUENA, EQUIPAMIENTO Y SERVICIOS AUDIOVISUALES, S.L.",
          "href": "https://api.euskadi.eus/procurements/companies/09830"
        }
      }
    },
    {
      "name": "EDUKEIBAR, S.L.",
      "registrationNumber": "05787",
      "identificationNumber": "B75175422",
      "address": "Calle Azitain 3, 1º",
      "location": {
        "postalCode": "20600",
        "municipality": "Eibar",
        "county": "Gipuzkoa",
        "municipalityId": "030",
        "countyId": "20"
      },
      "economicActivities": [
        {
          "id": "1.932.1",
          "name": "Enseñanza de formación y perfeccionamiento profesional no superior",
          "_links": {
            "self": {
              "name": "Enseñanza de formación y perfeccionamiento profesional no superior",
              "href": "https://api.euskadi.eus/procurements/companies/economic-activities/1.932.1"
            }
          }
        }
      ],
      "certificateStartDate": "2025-09-03",
      "certificateEndDate": "2026-03-01",
      "object": "LA PRESTACIÓN DE SERVICIOS DE ENSEÑANZA, EDUCACIÓN, FORMACIÓN Y PREVENCIÓN SOCIAL. CNAE: 8559",
      "mainEntityOfPage": "https://www.contratacion.euskadi.eus/webkpe00-kperoc/es/ac71aBusquedaRegistrosWar/empresa/05787",
      "_links": {
        "self": {
          "name": "EDUKEIBAR, S.L.",
          "href": "https://api.euskadi.eus/procurements/companies/05787"
        }
      }
    },
    {
      "name": "PINTURAS GALDESA, S.L.",
      "registrationNumber": "08420",
      "identificationNumber": "B48252472",
      "address": "Calle Iturriondo, 10",
      "location": {
        "postalCode": "48940",
        "municipality": "Leioa",
        "county": "Bizkaia",
        "municipalityId": "054",
        "countyId": "48"
      },
      "economicActivities": [
        {
          "id": "1.652.2",
          "name": "Venta al por menor de productos de droguería y productos para decoración",
          "_links": {
            "self": {
              "name": "Venta al por menor de productos de droguería y productos para decoración",
              "href": "https://api.euskadi.eus/procurements/companies/economic-activities/1.652.2"
            }
          }
        }
      ],
      "certificateStartDate": "2025-09-03",
      "certificateEndDate": "2026-02-27",
      "object": "LA COMPRA Y VENTA DE PINTURAS, RESINAS Y DERIVADOS, ARTÍCULOS DE DECORACIÓN DE TODO TIPO, PAPELES PINTADOS Y OTROS MATERIALES DE RECUBRIMIENTO DE PAREDES QUE TENGAN COMO OBJETO LA DECORACIÓN; LA REALIZACIÓN POR CUENTA PROPIA O AJENA DE TODO TIPO DE TRABAJOS DE PINTURA Y DECORACIÓN EN CUALQUIER CLASE DE LOCALES Y EDIFICIOS, TANTO INDUSTRIALES COMO DE VIVIENDAS.",
      "mainEntityOfPage": "https://www.contratacion.euskadi.eus/webkpe00-kperoc/es/ac71aBusquedaRegistrosWar/empresa/08420",
      "_links": {
        "self": {
          "name": "PINTURAS GALDESA, S.L.",
          "href": "https://api.euskadi.eus/procurements/companies/08420"
        }
      }
    },
    {
      "name": "ASOCIACIÓN DE PADRES DE AFECTADOS DE AUTISMO Y OTROS TRASTORNOS DEL ESPECTRO AUTISTA DE BIZKAIA/BIZKAIKO AUTISMOA ETA BESTE AUTISMO ESPEKTROAREN NAHASTEAK DITUZTENEN GURASOEN ELKARTEA",
      "registrationNumber": "08684",
      "identificationNumber": "G48094932",
      "address": "Sabino Arana, 69",
      "location": {
        "postalCode": "48012",
        "municipality": "Bilbao",
        "county": "Bizkaia",
        "municipalityId": "020",
        "countyId": "48"
      },
      "economicActivities": [
        {
          "id": "1.931.4",
          "name": "Enseñanza de varias modalidades regladas",
          "_links": {
            "self": {
              "name": "Enseñanza de varias modalidades regladas",
              "href": "https://api.euskadi.eus/procurements/companies/economic-activities/1.931.4"
            }
          }
        },
        {
          "id": "1.942.1",
          "name": "Consultorios médicos, centros de socorro sanitarios y urgencias",
          "_links": {
            "self": {
              "name": "Consultorios médicos, centros de socorro sanitarios y urgencias",
              "href": "https://api.euskadi.eus/procurements/companies/economic-activities/1.942.1"
            }
          }
        },
        {
          "id": "1.942.9",
          "name": "Otros servicios sanitarios sin internados, no clasificados",
          "_links": {
            "self": {
              "name": "Otros servicios sanitarios sin internados, no clasificados",
              "href": "https://api.euskadi.eus/procurements/companies/economic-activities/1.942.9"
            }
          }
        },
        {
          "id": "1.951",
          "name": "Asistencia y servicios sociales en centros residenciales",
          "_links": {
            "self": {
              "name": "Asistencia y servicios sociales en centros residenciales",
              "href": "https://api.euskadi.eus/procurements/companies/economic-activities/1.951"
            }
          }
        },
        {
          "id": "1.952",
          "name": "Asistencia y servicios sociales en centros no residenciales",
          "_links": {
            "self": {
              "name": "Asistencia y servicios sociales en centros no residenciales",
              "href": "https://api.euskadi.eus/procurements/companies/economic-activities/1.952"
            }
          }
        }
      ],
      "certificateStartDate": "2025-09-03",
      "certificateEndDate": "2026-03-02",
      "object": "PROMOVER EL BIEN COMÚN DE NIÑOS, JÓVENES Y ADULTOS, AFECTADAS POR AUTISMO Y OTRAS PSICOSIS DE LA INFANCIA, HIJOS O FAMILIARES DE ASOCIADOS, A TRAVÉS DE ACTIVIDADES ASISTENCIALES, EDUCATIVAS, RECREATIVAS, CULTURALES, DEPORTIVAS, CIENTÍFICAS, REHABILITADORAS, DE EMPLEO Y TUTELARES.",
      "mainEntityOfPage": "https://www.contratacion.euskadi.eus/webkpe00-kperoc/es/ac71aBusquedaRegistrosWar/empresa/08684",
      "_links": {
        "self": {
          "name": "ASOCIACIÓN DE PADRES DE AFECTADOS DE AUTISMO Y OTROS TRASTORNOS DEL ESPECTRO AUTISTA DE BIZKAIA/BIZKAIKO AUTISMOA ETA BESTE AUTISMO ESPEKTROAREN NAHASTEAK DITUZTENEN GURASOEN ELKARTEA",
          "href": "https://api.euskadi.eus/procurements/companies/08684"
        }
      }
    },
    {
      "name": "E. RENTING, S.L.",
      "registrationNumber": "05272",
      "identificationNumber": "B01282490",
      "address": "Alto de Armentia 23",
      "location": {
        "postalCode": "01007",
        "municipality": "Vitoria-Gasteiz",
        "county": "Araba/Álava",
        "municipalityId": "059",
        "countyId": "01"
      },
      "economicActivities": [
        {
          "id": "1.615.1",
          "name": "Venta al por mayor de vehículos, motocicletas, bicicletas y sus accesorios",
          "_links": {
            "self": {
              "name": "Venta al por mayor de vehículos, motocicletas, bicicletas y sus accesorios",
              "href": "https://api.euskadi.eus/procurements/companies/economic-activities/1.615.1"
            }
          }
        },
        {
          "id": "1.722",
          "name": "Transporte de mercancías por carretera",
          "_links": {
            "self": {
              "name": "Transporte de mercancías por carretera",
              "href": "https://api.euskadi.eus/procurements/companies/economic-activities/1.722"
            }
          }
        },
        {
          "id": "1.832.1",
          "name": "Agencias de seguros y corredurías de seguros",
          "_links": {
            "self": {
              "name": "Agencias de seguros y corredurías de seguros",
              "href": "https://api.euskadi.eus/procurements/companies/economic-activities/1.832.1"
            }
          }
        },
        {
          "id": "1.854.1",
          "name": "Alquiler de automóviles sin conductor",
          "_links": {
            "self": {
              "name": "Alquiler de automóviles sin conductor",
              "href": "https://api.euskadi.eus/procurements/companies/economic-activities/1.854.1"
            }
          }
        },
        {
          "id": "1.854.2",
          "name": "Alquiler de automóviles sin conductor en régimen de \"renting\"",
          "_links": {
            "self": {
              "name": "Alquiler de automóviles sin conductor en régimen de \"renting\"",
              "href": "https://api.euskadi.eus/procurements/companies/economic-activities/1.854.2"
            }
          }
        }
      ],
      "certificateStartDate": "2025-09-03",
      "certificateEndDate": "2026-02-27",
      "object": "A) LA COMPRA, FABRICACIÓN, VENTA, DISTRIBUCIÓN, COMERCIALIZACIÓN, PERMUTA, ALQUILER A CORTO, Y LARGO PLAZO, INCLUYENDO EXPRESAMENTE ACTIVIDADES DE RENTING, LEASING, ASÍ COMO LA REPARACIÓN, REPRESENTACIÓN, EXPORTACIÓN, IMPORTACIÓN Y EXPLOTACIÓN DE TODA CLASE DE VEHÍCULOS, SEAN TERRESTRES, MARÍTIMOS O AÉREOS, DE TURISMO O INDUSTRIALES, CON O SIN MOTOR, INCLUYENDO VEHÍCULOS ELÉCTRICOS Y SUS PIEZAS DE RECAMBIO, ASÍ COMO LA PRESTACIÓN DEL SERVICIO DE POSTVENTA Y ASISTENCIA TÉCNICA EN INSTALACIONES O CARRETERA DERIVADA DE LAS ACTIVIDADES ENUNCIADAS. B) LA REALIZACIÓN DE TODO TIPO DE ACTIVIDADES TÉCNICO-ADMINISTRATIVAS LIGADAS A LAS ACTIVIDADES RELACIONADAS EN EL APARTADO A), TALES COMO AGENCIA DE SEGUROS Y GESTORÍA ADMINISTRATIVA, AGENCIA DE ADUANAS, SERVICIOS DE ASESORAMIENTO Y CONSULTORÍA Y CUALESQUIERA OTRA VINCULADAS AL PUNTO A) ANTERIOR, EN CUANTO LO PERMITAN LAS LEGISLACIONES PROPIAS DE CADA MATERIA. C) LA REALIZACIÓN DE ACTIVIDADES INMOBILIARIAS DE PROMOCIÓN, LA CONSTRUCCIÓN Y LA EXPLOTACIÓN DE CUALQUIER TÍTULO, FORMA Y NEGOCIO JURÍDICO DE INMUEBLES TALES COMO LA ADQUISICIÓN, URBANIZACIÓN, PARCELACIÓN, CONSTRUCCIÓN, EDIFICACIÓN, CONSTITUCIÓN EN PROPIEDAD HORIZONTAL, ADMINISTRACIÓN DE FINCAS, REFORMA, AMPLIACIÓN, EXPLOTACIÓN DIRECTA E INDIRECTA, ARRENDAMIENTO Y ENAJENACIÓN Y, EN GENERAL, TODA ACTIVIDAD RELATIVA A LA EXPLOTACIÓN DE ESOS BIENES, ASÍ RÚSTICOS COMO URBANOS Y LA REALIZACIÓN DE OBRAS PÚBLICAS Y PRIVADAS DE TODA SUERTE DE INVERSIONES Y DE PROMOCIONES RELACIONADA CON EL RAMO DE LA CONSTRUCCIÓN Y GESTIÓN DE INMUEBLES. D) LA ADQUISICIÓN, TENENCIA, DISFRUTE, ADMINISTRACIÓN, SUSCRIPCIÓN, PIGNORACIÓN Y ENAJENACIÓN DE TODA CLASE DE VALORES MOBILIARIOS POR CUENTA PROPIA, QUEDANDO EXCLUIDAS LAS ACTIVIDADES QUE LA LEGISLACIÓN ESPECIAL, Y BÁSICAMENTE LA LEY DEL MERCADO DE VALORES, ATRIBUYE CON CARÁCTER EXCLUSIVO A OTRAS ENTIDADES. E) LA ADQUISICIÓN, EXPLOTACIÓN EN CUALQUIER FORMA, COMERCIALIZACIÓN, CESIÓN Y ENAJENACIÓN DE TODO TIPO DE PROPIEDAD INTELECTUAL Y DE PATENTES Y DEMÁS MODALIDADES DE PROPIEDAD INDUSTRIAL. F) LA ASISTENCIA FINANCIERA, ADMINISTRATIVA, TÉCNICA, COMERCIAL O LEGAL A OTRAS SOCIEDADES POR CUALQUIER TÍTULO Y MODALIDAD, INCLUSO CON PARTICIPACIÓN EN SUS FONDOS PROPIOS POR VÍA DE PRÉSTAMOS PARTICIPATIVOS, INCLUYENDO LA PROMOCIÓN O PARTICIPACIÓN, POR SÍ O POR CUENTA DE TERCEROS, EN EL NEGOCIO DE CUALQUIER PERSONA, NATURAL O JURÍDICA, -INCLUYENDO LAS AGRUPACIONES DE INTERÉS ECONÓMICO-, MEDIANTE LA INVERSIÓN EN FONDOS, VALORES, BIENES O DISPOSICIONES SOCIALES, CUALQUIERA QUE SEA LA FÓRMULA QUE SE UTILICE, PUDIENDO PARTICIPAR EN LA CONSTRUCCIÓN Y AMPLIACIÓN DE CAPITAL Y OSTENTAR EN ELLAS CUALESQUIERA CARGOS ADMINISTRATIVOS, DE DIRECCIÓN, ADMINISTRACIÓN Y CONTROL MEDIANTE LA OPORTUNA DESIGNACIÓN DE PERSONA FÍSICA QUE REPRESENTE A LA SOCIEDAD",
      "mainEntityOfPage": "https://www.contratacion.euskadi.eus/webkpe00-kperoc/es/ac71aBusquedaRegistrosWar/empresa/05272",
      "_links": {
        "self": {
          "name": "E. RENTING, S.L.",
          "href": "https://api.euskadi.eus/procurements/companies/05272"
        }
      }
    },
    {
      "name": "ASOCIACIÓN DE AYUDA EN CARRETERA",
      "registrationNumber": "04762",
      "identificationNumber": "G48064760",
      "address": "Alameda San Mamés 33 (Bajo)",
      "location": {
        "postalCode": "48010",
        "municipality": "Bilbao",
        "county": "Bizkaia",
        "municipalityId": "020",
        "countyId": "48"
      },
      "economicActivities": [
        {
          "id": "1.721.4",
          "name": "Transporte sanitario en ambulancias",
          "_links": {
            "self": {
              "name": "Transporte sanitario en ambulancias",
              "href": "https://api.euskadi.eus/procurements/companies/economic-activities/1.721.4"
            }
          }
        },
        {
          "id": "1.849.9",
          "name": "Otros servicios independientes n.c.o.p",
          "_links": {
            "self": {
              "name": "Otros servicios independientes n.c.o.p",
              "href": "https://api.euskadi.eus/procurements/companies/economic-activities/1.849.9"
            }
          }
        },
        {
          "id": "1.861.2",
          "name": "Alquiler de locales industriales y otros alquileres n.c.o.p",
          "_links": {
            "self": {
              "name": "Alquiler de locales industriales y otros alquileres n.c.o.p",
              "href": "https://api.euskadi.eus/procurements/companies/economic-activities/1.861.2"
            }
          }
        },
        {
          "id": "1.933.9",
          "name": "Otras actividades de enseñanza tales como idiomas, mecanografía",
          "_links": {
            "self": {
              "name": "Otras actividades de enseñanza tales como idiomas, mecanografía",
              "href": "https://api.euskadi.eus/procurements/companies/economic-activities/1.933.9"
            }
          }
        },
        {
          "id": "1.934",
          "name": "Enseñanza fuera de establecimiento permanente",
          "_links": {
            "self": {
              "name": "Enseñanza fuera de establecimiento permanente",
              "href": "https://api.euskadi.eus/procurements/companies/economic-activities/1.934"
            }
          }
        },
        {
          "id": "1.952",
          "name": "Asistencia y servicios sociales en centros no residenciales",
          "_links": {
            "self": {
              "name": "Asistencia y servicios sociales en centros no residenciales",
              "href": "https://api.euskadi.eus/procurements/companies/economic-activities/1.952"
            }
          }
        }
      ],
      "certificateStartDate": "2025-09-03",
      "certificateEndDate": "2026-02-25",
      "object": "LA DE ALIVIAR LA SITUACIÓN DE QUIENES POR AVERÍA O ACCIDENTE SE VEAN NECESITADOS DE AUXILIO, DETENIENDOSE Y PRESTANDO LAS AYUDAS NECESARIAS RELACIONADAS CON ESTE FIN. TAMBIÉN LA PRESTACIÓN DE ASISTENCIA SANITARIA Y TRASLADO URGENTE DE ENFERMOS O ACCIDENTADOS DE CUALQUIER ÍNDOLE, Y LA COBERTURA PREVENTIVA DE TODO TIPO DE ACTOS, EVENTOS O CIRCUNSTANCIAS QUE PUEDAN PONER EN PELIGRO LA SEGURIDAD O EL BIENESTAR DE LOS PARTICIPANTES O ASISTENTES. LAS LABORES DE VIGILANCIA Y SALVAMENTO EN MEDIO ACUÁTICO Y SUBACUÁTICO. LA PRESTACIÓN DE AYUDA SOCIAL. EL FOMENTO DE UN MAYOR CONOCIMIENTO EN MATERIAS RELACIONADAS CON LA SANIDAD, LA PREVENCIÓN, LA SEGURIDAD VIAL Y OTROS TEMAS DE INTERÉS SOCIAL. ESTUDIOS Y SERVICIOS DE ASESORÍA Y CONSULTORÍA EN TEMAS SOCIALES, PREVENTIVOS, DE SEGURIDAD Y DE SALUD. LA AYUDA PSICOLÓGICA EN SITUACIONES DE URGENCIA, EMERGENCIA Y CATÁSTROFE. LA COOPERACIÓN INTERNACIONAL EN AYUDA SANITARIA, LOGÍSTICA Y PARA EL DESARROLLO. Y LA COLABORACIÓN CON LOS SERVICIOS DE PROTECCIÓN CIVIL",
      "mainEntityOfPage": "https://www.contratacion.euskadi.eus/webkpe00-kperoc/es/ac71aBusquedaRegistrosWar/empresa/04762",
      "_links": {
        "self": {
          "name": "ASOCIACIÓN DE AYUDA EN CARRETERA",
          "href": "https://api.euskadi.eus/procurements/companies/04762"
        }
      }
    },
    {
      "name": "RCDS VICA SOCIEDAD LIMITADA",
      "registrationNumber": "10310",
      "identificationNumber": "B95907994",
      "address": "Barrio Nocedal, 11",
      "location": {
        "postalCode": "48860",
        "municipality": "Zalla",
        "county": "Bizkaia",
        "municipalityId": "096",
        "countyId": "48"
      },
      "economicActivities": [
        {
          "id": "1.502.1",
          "name": "Demoliciones y derribos en general",
          "_links": {
            "self": {
              "name": "Demoliciones y derribos en general",
              "href": "https://api.euskadi.eus/procurements/companies/economic-activities/1.502.1"
            }
          }
        },
        {
          "id": "1.502.2",
          "name": "Consolidación y preparación de terrenos para la construcción de edificaciones",
          "_links": {
            "self": {
              "name": "Consolidación y preparación de terrenos para la construcción de edificaciones",
              "href": "https://api.euskadi.eus/procurements/companies/economic-activities/1.502.2"
            }
          }
        }
      ],
      "certificateStartDate": "2025-09-03",
      "certificateEndDate": "2026-03-02",
      "object": "ACTIVIDAD PRINCIPAL CNAE 3900: ACTIVIDADES DE DESCONTAMINACIÓN Y OTROS SERVICIOS DE GESTIÓN DE RESIDUOS. OTRAS ACTIVIDADES: CNAE 3822: TRATAMIENTO Y ELIMINACIÓN DE RESIDUOS PELIGROSOS. CNAE 3821: TRATAMIENTO Y ELIMINACIÓN DE RESIDUOS NO PELIGROSOS. CNAE 4312: PREPARACIÓN DE TERRENOS. SI ALGUNA DE LAS ACTIVIDADES ELEGIDAS FUERA DE CARÁCTER PROFESIONAL, LA SOCIEDAD LA EJERCERÁ COMO MERA INTERMEDIADORA ENTRE EL PROFESIONAL PRESTADOR DEL SERVICIO Y EL CONSUMIDOR.\n",
      "mainEntityOfPage": "https://www.contratacion.euskadi.eus/webkpe00-kperoc/es/ac71aBusquedaRegistrosWar/empresa/10310",
      "_links": {
        "self": {
          "name": "RCDS VICA SOCIEDAD LIMITADA",
          "href": "https://api.euskadi.eus/procurements/companies/10310"
        }
      }
    }
  ]
}