{
  "totalItems": 9042,
  "totalPages": 905,
  "currentPage": 833,
  "itemsOfPage": 10,
  "items": [
    {
      "name": "PRODUCTOS Y APARATOS CIENTÍFICOS E INDUSTRIALES, S.A. (P.A.C.I.S.A.)",
      "registrationNumber": "00422",
      "identificationNumber": "A28023596",
      "address": "C/ ARAGONESES, Nº 2. POLÍGONO INDUSTRIAL DE ALCOBENDAS.",
      "location": {
        "postalCode": "28108",
        "municipality": "Alcobendas",
        "county": "Madrid",
        "municipalityId": "006",
        "countyId": "28"
      },
      "economicActivities": [
        {
          "id": "1.619.2",
          "name": "Venta al por mayor de aparatos e instrumentos médicos, ortopédicos, ópticos",
          "_links": {
            "self": {
              "name": "Venta al por mayor de aparatos e instrumentos médicos, ortopédicos, ópticos",
              "href": "https://api.euskadi.eus/procurements/companies/economic-activities/1.619.2"
            }
          }
        },
        {
          "id": "1.619.7",
          "name": "Venta al por mayor de instrumentos de precisión, medida y similares",
          "_links": {
            "self": {
              "name": "Venta al por mayor de instrumentos de precisión, medida y similares",
              "href": "https://api.euskadi.eus/procurements/companies/economic-activities/1.619.7"
            }
          }
        }
      ],
      "certificateStartDate": "1998-10-27",
      "certificateEndDate": "1999-03-29",
      "object": "EL COMERCIO EN GENERAL, INCLUYENDO LA IMPORTACION Y DISTRIBUCION ASI COMO LA COLABORACION DE TODA CLASE DE APARATOS, INSTRUMENTOS Y PRODUCTOS DE USO DE LA CIENCIA, LA INDUSTRIA, LA MEDICINA, LA ENSEÑANZA Y LA INVESTIGACION, TODA CLASE DE MATERIAL PARA LABORATORIOS Y PRODUCTOS QUIMICOS PUROS Y PARA ANALISIS",
      "mainEntityOfPage": "https://www.contratacion.euskadi.eus/webkpe00-kperoc/es/ac71aBusquedaRegistrosWar/empresa/00422",
      "_links": {
        "self": {
          "name": "PRODUCTOS Y APARATOS CIENTÍFICOS E INDUSTRIALES, S.A. (P.A.C.I.S.A.)",
          "href": "https://api.euskadi.eus/procurements/companies/00422"
        }
      }
    },
    {
      "name": "CONSTRUCCIONES DEL NORTE GASTEIZ, S.L.",
      "registrationNumber": "02057",
      "identificationNumber": "B01108372",
      "address": "C/ PARAGUAY, Nº 28 - BAJO.",
      "location": {
        "postalCode": "01012",
        "municipality": "Vitoria-Gasteiz",
        "county": "Araba/Álava",
        "municipalityId": "059",
        "countyId": "01"
      },
      "economicActivities": [
        {
          "id": "1.501.1",
          "name": "Construcción completa, reparación y conservación de edificaciones",
          "_links": {
            "self": {
              "name": "Construcción completa, reparación y conservación de edificaciones",
              "href": "https://api.euskadi.eus/procurements/companies/economic-activities/1.501.1"
            }
          }
        }
      ],
      "certificateStartDate": "1998-10-27",
      "certificateEndDate": "1999-03-28",
      "object": "LOS TRABAJOS DE ALBAÑILERIA, FONTANERIA Y ELECTRICIDAD, MOVIMIENTO, EXCAVACION, APLANAMIENTO DE TIERRAS Y DERRIBO DE EDIFICACIONES; CONSTRUCCION, PROMOCION, VENTA Y ALQUILER DE VIVIENDAS, LOCALES COMERCIALES, PABELLONES INDUSTRIALES, INDUSTRIAS Y NEGOCIOS, PLAZAS DE GARAJE Y SIMILAR, COMPRA-VENTA AL POR MENOR Y MAYOR DE MATERIAL DESTINADO A LA CONSTRUCCION, ASI COMO DE MAQUINARIA, HERRAMIENTAS Y UTILLAJES UTILIZABLE IGUALMENTE EN TALES ACTIVIDADES ",
      "mainEntityOfPage": "https://www.contratacion.euskadi.eus/webkpe00-kperoc/es/ac71aBusquedaRegistrosWar/empresa/02057",
      "_links": {
        "self": {
          "name": "CONSTRUCCIONES DEL NORTE GASTEIZ, S.L.",
          "href": "https://api.euskadi.eus/procurements/companies/02057"
        }
      }
    },
    {
      "name": "BIOBA, S.L.",
      "registrationNumber": "01318",
      "identificationNumber": "B48300909",
      "address": "C/ AVENIDA MIRAFLORES, Nº 115.",
      "location": {
        "postalCode": "48004",
        "municipality": "Bilbao",
        "county": "Bizkaia",
        "municipalityId": "020",
        "countyId": "48"
      },
      "economicActivities": [
        {
          "id": "1.652.2",
          "name": "Venta al por menor de productos de droguería y productos para decoración",
          "_links": {
            "self": {
              "name": "Venta al por menor de productos de droguería y productos para decoración",
              "href": "https://api.euskadi.eus/procurements/companies/economic-activities/1.652.2"
            }
          }
        }
      ],
      "certificateStartDate": "1998-10-21",
      "certificateEndDate": "1999-04-08",
      "object": "LA FABRICACION, COMERCIALIZACION, DISTRIBUCION, EXPORTACION E IMPORTACION DE ESPECIALIDADES Y PRODUCTOS FARMACEUTICOS, QUIMICOS, COSMETICOS, BIOLOGICOS, VETERINARIOS, ALIMENTARIOS, PARAFARMACEUTICOS, APARATOS Y MATERIAL MEDICO, ORTOPEDICO Y DENTAL, GAFAS, OPTICA OCULAR Y MATERIAL PARA OPTICOS, INSTRUMENTOS QUIRURGICOS, JUGUETES, EDUCATIVOS Y MAQUINARIA, ASESORAMIENTO, ASISTENCIA TECNICA Y PROMOCION DE NEGOCIOS, ASI COMO TODO CUANTO SE RELACIONE CON LO EXPRESADO",
      "mainEntityOfPage": "https://www.contratacion.euskadi.eus/webkpe00-kperoc/es/ac71aBusquedaRegistrosWar/empresa/01318",
      "_links": {
        "self": {
          "name": "BIOBA, S.L.",
          "href": "https://api.euskadi.eus/procurements/companies/01318"
        }
      }
    },
    {
      "name": "HEGALA, S. COOP.",
      "registrationNumber": "01798",
      "identificationNumber": "F01126838",
      "address": "C/ DOMINGO MARTÍNEZ DE ARAGÓN, Nº 1 - 3.",
      "location": {
        "postalCode": "01006",
        "municipality": "Vitoria-Gasteiz",
        "county": "Araba/Álava",
        "municipalityId": "059",
        "countyId": "01"
      },
      "economicActivities": [
        {
          "id": "1.933.9",
          "name": "Otras actividades de enseñanza tales como idiomas, mecanografía",
          "_links": {
            "self": {
              "name": "Otras actividades de enseñanza tales como idiomas, mecanografía",
              "href": "https://api.euskadi.eus/procurements/companies/economic-activities/1.933.9"
            }
          }
        }
      ],
      "certificateStartDate": "1998-10-21",
      "certificateEndDate": "1999-04-14",
      "object": " LA PLANIFICACION E IMPARTICION DE ACTIVIDADES EDUCATIVAS PARA LA INSERCION SOCIO-LABORAL DE COLECTIVOS DESFAVORECIDOS O EN RIESGO DE EXCLUSION, ASI COMO EL RECICLAJE PROFESIONAL Y OTRAS DE NATURALEZA ANALOGA",
      "mainEntityOfPage": "https://www.contratacion.euskadi.eus/webkpe00-kperoc/es/ac71aBusquedaRegistrosWar/empresa/01798",
      "_links": {
        "self": {
          "name": "HEGALA, S. COOP.",
          "href": "https://api.euskadi.eus/procurements/companies/01798"
        }
      }
    },
    {
      "name": "VON ZEPPELIN IBÉRICA, S.L.",
      "registrationNumber": "02050",
      "identificationNumber": "B81141772",
      "address": "C/ ENCOMIENDA DE PALACIOS, Nº 141 - BAJO A",
      "location": {
        "postalCode": "28030",
        "municipality": "Madrid",
        "county": "Madrid",
        "municipalityId": "079",
        "countyId": "28"
      },
      "economicActivities": [
        {
          "id": "1.619.2",
          "name": "Venta al por mayor de aparatos e instrumentos médicos, ortopédicos, ópticos",
          "_links": {
            "self": {
              "name": "Venta al por mayor de aparatos e instrumentos médicos, ortopédicos, ópticos",
              "href": "https://api.euskadi.eus/procurements/companies/economic-activities/1.619.2"
            }
          }
        }
      ],
      "certificateStartDate": "1998-10-20",
      "certificateEndDate": "1999-03-03",
      "object": "LA IMPORTACIÓN Y EXPORTACIÓN, PROMOCIÓN, COMERCIALIZACIÓN, VENTA, REPARACIÓN, ASISTENCIA TÉCNICA Y SERVICIO POSTVENTA, DE INSTRUMENTOS, APARATOS, PRODUCTOS Y SERVICIOS RELACIONADOS CON LA MEDICINA EN TODAS SUS ESPECIALIDADES",
      "mainEntityOfPage": "https://www.contratacion.euskadi.eus/webkpe00-kperoc/es/ac71aBusquedaRegistrosWar/empresa/02050",
      "_links": {
        "self": {
          "name": "VON ZEPPELIN IBÉRICA, S.L.",
          "href": "https://api.euskadi.eus/procurements/companies/02050"
        }
      }
    },
    {
      "name": "INDRA SSI, S.A.",
      "registrationNumber": "00345",
      "identificationNumber": "A28111813",
      "address": "C/ PASEO DE LA CASTELLANA, Nº 141.",
      "location": {
        "postalCode": "28046",
        "municipality": "Madrid",
        "county": "Madrid",
        "municipalityId": "079",
        "countyId": "28"
      },
      "economicActivities": [
        {
          "id": "1.615.4",
          "name": "Venta al por mayor de aparatos y material radioeléctrico y electrónico",
          "_links": {
            "self": {
              "name": "Venta al por mayor de aparatos y material radioeléctrico y electrónico",
              "href": "https://api.euskadi.eus/procurements/companies/economic-activities/1.615.4"
            }
          }
        },
        {
          "id": "1.845",
          "name": "Explotación electrónica por cuenta de terceros",
          "_links": {
            "self": {
              "name": "Explotación electrónica por cuenta de terceros",
              "href": "https://api.euskadi.eus/procurements/companies/economic-activities/1.845"
            }
          }
        },
        {
          "id": "1.932.2",
          "name": "Enseñanza de formación y perfeccionamiento profesional superior",
          "_links": {
            "self": {
              "name": "Enseñanza de formación y perfeccionamiento profesional superior",
              "href": "https://api.euskadi.eus/procurements/companies/economic-activities/1.932.2"
            }
          }
        }
      ],
      "certificateStartDate": "1998-10-19",
      "certificateEndDate": "1999-03-23",
      "object": "EL DISEÑO, DESARROLLO, IMPLANTACION Y EXPLOTACION DE SERVICIOS INFORMATICOS Y TELEMATICOS DE TODA CLASE, Y DE SERVICIOS DE TELECOMUNICACION, ASI COMO OTRAS ACTIVIDADES INCLUSO INDUSTRIALES Y COMERCIALES DE TODO ORDEN",
      "mainEntityOfPage": "https://www.contratacion.euskadi.eus/webkpe00-kperoc/es/ac71aBusquedaRegistrosWar/empresa/00345",
      "_links": {
        "self": {
          "name": "INDRA SSI, S.A.",
          "href": "https://api.euskadi.eus/procurements/companies/00345"
        }
      }
    },
    {
      "name": "7-17, S.A.",
      "registrationNumber": "00784",
      "identificationNumber": "A20163192",
      "address": "C/ AZPEITIA, Nº 9 - 1º, E 2",
      "location": {
        "postalCode": "20010",
        "municipality": "Donostia / San Sebastián",
        "county": "Gipuzkoa",
        "municipalityId": "069",
        "countyId": "20"
      },
      "economicActivities": [
        {
          "id": "1.659.9",
          "name": "Venta al por menor de otros productos no especificados en esta agrupación",
          "_links": {
            "self": {
              "name": "Venta al por menor de otros productos no especificados en esta agrupación",
              "href": "https://api.euskadi.eus/procurements/companies/economic-activities/1.659.9"
            }
          }
        }
      ],
      "certificateStartDate": "1998-10-14",
      "certificateEndDate": "1999-04-07",
      "object": "LA PROMOCIÓN, ORGANIZACIÓN Y GESTIÓN DE ACTIVIDADES RELACIONADAS CON EL AHORRO DEL SECTOR INFANTIL Y JUVENIL. LA CREACIÓN Y COMERCIALIZACIÓN DE JUEGOS Y ELEMENTOS DE TODA ÍNDOLE, ESPECIFICAMENTE ORIENTADOS A SU UTILIZACIÓN POR PARTE DEL CITADO SECTOR. LA EDICIÓN Y PRODUCCIÓN DE LIBROS, REVISTAS Y EN GENERAL, MEDIOS DE COMUNICACIÓN ESCRITA Y AUDIO-VISUAL PARA LA INFANCIA Y JUVENTUD",
      "mainEntityOfPage": "https://www.contratacion.euskadi.eus/webkpe00-kperoc/es/ac71aBusquedaRegistrosWar/empresa/00784",
      "_links": {
        "self": {
          "name": "7-17, S.A.",
          "href": "https://api.euskadi.eus/procurements/companies/00784"
        }
      }
    },
    {
      "name": "ISABEL BOYER GELDE",
      "registrationNumber": "02044",
      "identificationNumber": "15377343A",
      "address": "ARAKISTAIN PLAZA, 1-3 ESK",
      "location": {
        "postalCode": "20820",
        "municipality": "Deba",
        "county": "Gipuzkoa",
        "municipalityId": "029",
        "countyId": "20"
      },
      "economicActivities": [
        {
          "id": "1.922.1",
          "name": "Servicios de limpieza de interiores",
          "_links": {
            "self": {
              "name": "Servicios de limpieza de interiores",
              "href": "https://api.euskadi.eus/procurements/companies/economic-activities/1.922.1"
            }
          }
        }
      ],
      "certificateStartDate": "1998-10-14",
      "certificateEndDate": "1999-02-27",
      "object": "SERVICIOS DE LIMPIEZA DE INTERIORES",
      "mainEntityOfPage": "https://www.contratacion.euskadi.eus/webkpe00-kperoc/es/ac71aBusquedaRegistrosWar/empresa/02044",
      "_links": {
        "self": {
          "name": "ISABEL BOYER GELDE",
          "href": "https://api.euskadi.eus/procurements/companies/02044"
        }
      }
    },
    {
      "name": "STAND-7, S.L.",
      "registrationNumber": "01753",
      "identificationNumber": "B48743710",
      "address": "C/ LICENCIADO POZA, Nº 38 - 7º EXT. IZDA.",
      "location": {
        "postalCode": "48011",
        "municipality": "Bilbao",
        "county": "Bizkaia",
        "municipalityId": "020",
        "countyId": "48"
      },
      "economicActivities": [
        {
          "id": "1.505.7",
          "name": "Trabajos en yeso y escayola y decoración de edificios y locales",
          "_links": {
            "self": {
              "name": "Trabajos en yeso y escayola y decoración de edificios y locales",
              "href": "https://api.euskadi.eus/procurements/companies/economic-activities/1.505.7"
            }
          }
        }
      ],
      "certificateStartDate": "1998-10-13",
      "certificateEndDate": "1999-04-09",
      "object": "EL DISEÑO Y DIBUJO PUBLICITARIO. DECORACION Y DISEÑO DE INTERIORES. CARPINTERIA, CERRAJERIA, PINTURA, TRABAJOS DE YESO Y ESCAYOLA Y DECORACION Y TERMINACION DE EDIFICIOS Y LOCALES",
      "mainEntityOfPage": "https://www.contratacion.euskadi.eus/webkpe00-kperoc/es/ac71aBusquedaRegistrosWar/empresa/01753",
      "_links": {
        "self": {
          "name": "STAND-7, S.L.",
          "href": "https://api.euskadi.eus/procurements/companies/01753"
        }
      }
    },
    {
      "name": "JUAN CARLOS MARTÍNEZ DE LAHIDALGA JOCANO",
      "registrationNumber": "00953",
      "identificationNumber": "16232486Y",
      "address": "C/ IRUÑA-PAMPLONA, Nº 13 - BAJO",
      "location": {
        "postalCode": "01010",
        "municipality": "Vitoria-Gasteiz",
        "county": "Araba/Álava",
        "municipalityId": "059",
        "countyId": "01"
      },
      "certificateStartDate": "1998-10-05",
      "certificateEndDate": "1995-06-30",
      "mainEntityOfPage": "https://www.contratacion.euskadi.eus/webkpe00-kperoc/es/ac71aBusquedaRegistrosWar/empresa/00953",
      "_links": {
        "self": {
          "name": "JUAN CARLOS MARTÍNEZ DE LAHIDALGA JOCANO",
          "href": "https://api.euskadi.eus/procurements/companies/00953"
        }
      }
    }
  ]
}