{
  "totalItems": 9042,
  "totalPages": 905,
  "currentPage": 369,
  "itemsOfPage": 10,
  "items": [
    {
      "name": "GUMIL HOSTELEROS, S.L.",
      "registrationNumber": "03164",
      "identificationNumber": "B48994974",
      "address": "ABANDOIBARRA, 4 (PALACIO EUSKALDUNA)",
      "location": {
        "postalCode": "48011",
        "municipality": "Bilbao",
        "county": "Bizkaia",
        "municipalityId": "020",
        "countyId": "48"
      },
      "economicActivities": [
        {
          "id": "1.671.4",
          "name": "Restaurante dos tenedores",
          "_links": {
            "self": {
              "name": "Restaurante dos tenedores",
              "href": "https://api.euskadi.eus/procurements/companies/economic-activities/1.671.4"
            }
          }
        },
        {
          "id": "1.672.3",
          "name": "Cafetería una taza",
          "_links": {
            "self": {
              "name": "Cafetería una taza",
              "href": "https://api.euskadi.eus/procurements/companies/economic-activities/1.672.3"
            }
          }
        },
        {
          "id": "1.673.2",
          "name": "Otros cafés y bares",
          "_links": {
            "self": {
              "name": "Otros cafés y bares",
              "href": "https://api.euskadi.eus/procurements/companies/economic-activities/1.673.2"
            }
          }
        }
      ],
      "certificateStartDate": "2025-02-24",
      "certificateEndDate": "2025-08-04",
      "object": "A) LA PROMOCIÓN, INSTALACIÓN Y EXPLOTACIÓN DIRECTA O INDIRECTA DEL NEGOCIO DE HOSTELERÍA Y RESTAURACIÓN, HOSPEDAJE, CAFETERÍA, RESTAURANTE, BAR, PUBS, WISKERÍAS, ASADORES, CERVECERAS, PASTELERÍAS, HELADERÍAS, PANADERÍAS, AUTOSERVICIO, CATERING, VENDING DE TABACO, REFRESCOS, CAFÉ Y OTRAS BEBIDAS, ESTABLECIMIENTOS EN LOS QUE SE EXPIDAN AL PÚBLICO PRODUCTOS ALIMENTICIOS, ASÍ COMO LA FABRICACIÓN, MANIPULACIÓN, PREPARACIÓN, TRANSFORMACIÓN Y COMERCIO DE LOS MISMOS, REALIZANDO DICHOS SERVICIOS TANTO EN  LOCALES PROPIOS, COMO FUERA DE LOS MISMOS, A INSTITUCIONES, EMPRESAS, CENTROS DE ENSEÑANZA Y PARTICULARES O CONSUMIDORES FINALES. B) LA PRESTACIÓN DE LOS  SERVICIOS ANTERIORMENTE MENCIONADOS EN EL PÁRRAFO ANTERIOR EN INSTALACIONES PERTENECIENTES A ENTIDADES PÚBLICAS O PRIVADAS MEDIANTE CONTRATO DE ADJUDICACIÓN DE DICHA EXPLOTACIÓN. C) LA COMPRAVENTA, IMPORTACIÓN, EXPORTACION Y SUMINISTRO DE ARTÍCULOS DE HOSTELERÍA, RESTAURACIÓN, PASTELERÍA, HELADERÍA, PANADERÍA, FRESCOS O EN CONSERVA, COMO CAFÉS, VINOS, LICORES, AGUARDIENTES, APERITIVOS, BOLLERÍA, PAN, REFRESCOS, EMBUTIDOS, FIAMBRES, PESCADOS Y CARNES DE TODAS CLASES, MANTEQUILLAS, PRODUCTOS DE LIMPIEZA, MENAJES DE COCINA, NEVERAS, CUBERTERÍAS, VAJILLAS, MAQUINARIA DE RESTAURACIÓN Y HOSTELERÍA. D) LA PRODUCCIÓN Y COMERCIALIZACIÓN DE PRODUCTOS DIRCTA O INDIRECTAMENTE RELACIONADOS CON LAS ACTIVIDADES DE HOSTELERÍA, RESTAURACIÓN Y ALIMENTACIÓN O CON LAS ACTUACIONES PROMOCIOINALES QUE PUEDAN DESARROLLARSE DE FORMA ANEXA CON DICHAS ACTIVIDADES. E) EXPLOTACIÓN Y / O CESIÓN DE LICENCIAS Y/O MARCAS Y/O SISTEMAS OPERATIVOS EN EL SECTOR   DE HOSTELERÍA, RESTAURACIÓN, Y ALIMENTACIÓN EN GENERAL. F) EXPLOTACIÓN, COMPRAVENTA, IMPORTACIÓN, EXPORTACIÓN Y MANIPULACIÓN DE ELEMENTOS ESPECÍFICOS DE TRANSPORTE Y CONSERVACIÓN DE ALIMENTOS Y OTROS PRODUCTOS RELACIONADOS CON EL SECTOR DE HOSTELERÍA, RESTAURACIÓN Y ALIMENTACIÓN EN GENERAL. G) LA EXPLOTACIÓN, GERENCIA, CONTROL TÉCNICO, COMERCIAL Y CONTABLE DE EXPLOTACIONES O EMPRESAS DE HOSTELERÍA, RESTAURACIÓN Y ALIMENTACIÓN EN GENERAL. H) LA ADQUISICIÓN Y VENTA, ARRENDAMIENTO, MANTENIEMIENTO, CONSERVACIÓN Y ENTRETENIMIENTO DE INMUEBLES Y LOCALES COMERCIALES",
      "mainEntityOfPage": "https://www.contratacion.euskadi.eus/webkpe00-kperoc/es/ac71aBusquedaRegistrosWar/empresa/03164",
      "_links": {
        "self": {
          "name": "GUMIL HOSTELEROS, S.L.",
          "href": "https://api.euskadi.eus/procurements/companies/03164"
        }
      }
    },
    {
      "name": "DESGUACES LEZO, S.L.",
      "registrationNumber": "10034",
      "identificationNumber": "B20564555",
      "address": "POL. IND 115",
      "location": {
        "postalCode": "20100",
        "municipality": "Lezo",
        "county": "Gipuzkoa",
        "municipalityId": "053",
        "countyId": "20"
      },
      "economicActivities": [
        {
          "id": "1.621",
          "name": "Venta al por mayor de chatarra y metales de desecho férreos y no férreos",
          "_links": {
            "self": {
              "name": "Venta al por mayor de chatarra y metales de desecho férreos y no férreos",
              "href": "https://api.euskadi.eus/procurements/companies/economic-activities/1.621"
            }
          }
        }
      ],
      "certificateStartDate": "2025-02-24",
      "certificateEndDate": "2025-08-24",
      "object": "FORJA, ESTAMPADO, CORTE, TROQUELADO, REPULSADO Y EMBUTICIÓN DE METALES FÉRREOS, NO FÉRREOS Y ALEACIONES Y SU DESBROCE PARA LA COMPRA Y VENTA AL POR MAYOR MENOR DE METALES Y TODO TIPO DE MATERIAL DE DESGUACE. COMPRA, VENTA Y ARRENDAMIENTO DE LOCALES Y PABELLONES. EN GENERAL TODAS LAS OPERACIONES RELACIONADAS CON LOS EPÍGRAFES ANTERIORES.",
      "mainEntityOfPage": "https://www.contratacion.euskadi.eus/webkpe00-kperoc/es/ac71aBusquedaRegistrosWar/empresa/10034",
      "_links": {
        "self": {
          "name": "DESGUACES LEZO, S.L.",
          "href": "https://api.euskadi.eus/procurements/companies/10034"
        }
      }
    },
    {
      "name": "ROBERTO JOSE FERRERO CIFUENTES",
      "registrationNumber": "08405",
      "identificationNumber": "44672866N",
      "address": "Juan II 5 Bajo",
      "location": {
        "postalCode": "01003",
        "municipality": "Vitoria-Gasteiz",
        "county": "Araba/Álava",
        "municipalityId": "059",
        "countyId": "01"
      },
      "economicActivities": [
        {
          "id": "2.411",
          "name": "Arquitectos",
          "_links": {
            "self": {
              "name": "Arquitectos",
              "href": "https://api.euskadi.eus/procurements/companies/economic-activities/2.411"
            }
          }
        }
      ],
      "certificateStartDate": "2025-02-24",
      "certificateEndDate": "2025-08-13",
      "mainEntityOfPage": "https://www.contratacion.euskadi.eus/webkpe00-kperoc/es/ac71aBusquedaRegistrosWar/empresa/08405",
      "_links": {
        "self": {
          "name": "ROBERTO JOSE FERRERO CIFUENTES",
          "href": "https://api.euskadi.eus/procurements/companies/08405"
        }
      }
    },
    {
      "name": "BIDETU, S.L.",
      "registrationNumber": "09783",
      "identificationNumber": "B19769629",
      "address": "Zurriola Hiribidea 6 Bajo Izq.",
      "location": {
        "postalCode": "20002",
        "municipality": "Donostia / San Sebastián",
        "county": "Gipuzkoa",
        "municipalityId": "069",
        "countyId": "20"
      },
      "economicActivities": [
        {
          "id": "1.847",
          "name": "Servicios de consultoría",
          "_links": {
            "self": {
              "name": "Servicios de consultoría",
              "href": "https://api.euskadi.eus/procurements/companies/economic-activities/1.847"
            }
          }
        }
      ],
      "certificateStartDate": "2025-02-23",
      "certificateEndDate": "2025-08-23",
      "object": "ASESORAMIENTO ESPECIALIZADO EN EL SECTOR DE LA RESTAURACIÓN CON EL OBJETIVO DE MEJORAR LOS RENDIMIENTOS Y LA SOSTENIBILIDAD DE LOS ESTABLECIMIENTOS HOTELEROS. EL PROCESO DE MEJORA EMPIEZA CON DEFINIR LA SITUACIÓN REAL DE NEGOCIO MEDIANTE UN DIAGNÓSTICO DIGITAL DONDE SE OBTIENE UN INFORME DE LA SITUACIÓN INICIAL Y EL PLAN DE ACCIÓN CON LOS PUNTOS DEFICITARIOS DE LA AUDITORÍA DIGITAL. SIEMPRE ATENDIENDO LAS INQUIETUDES Y NECESIDADES DE LOS RESPONSABLES DEL ESTABLECIMIENTO SE PLANTEA UN PLAN DE ACCIÓN PERSONALIZADO CON IMPLANTACIÓN DE MEJORAS DE PROCESOS Y SOLUCIONES DIGITALES PARA MEJORAR LAS DISTINTAS ÁREAS DEL NEGOCIO TALES COMO FRONT OFFICE (VENTAS Y RESERVAS), BACK OFFICE (COMPRAS, PEDIDOS, ALBARANES, FOOD COST, ETC). GESTIÓN DE PERSONAL",
      "mainEntityOfPage": "https://www.contratacion.euskadi.eus/webkpe00-kperoc/es/ac71aBusquedaRegistrosWar/empresa/09783",
      "_links": {
        "self": {
          "name": "BIDETU, S.L.",
          "href": "https://api.euskadi.eus/procurements/companies/09783"
        }
      }
    },
    {
      "name": "CORMAX EMPRESA CONSTRUCTORA S.L.",
      "registrationNumber": "06086",
      "identificationNumber": "B95929824",
      "address": "Laubideta 18 - Bajo",
      "location": {
        "postalCode": "48220",
        "municipality": "Abadiño",
        "county": "Bizkaia",
        "municipalityId": "001",
        "countyId": "48"
      },
      "economicActivities": [
        {
          "id": "1.501.1",
          "name": "Construcción completa, reparación y conservación de edificaciones",
          "_links": {
            "self": {
              "name": "Construcción completa, reparación y conservación de edificaciones",
              "href": "https://api.euskadi.eus/procurements/companies/economic-activities/1.501.1"
            }
          }
        }
      ],
      "certificateStartDate": "2025-02-20",
      "certificateEndDate": "2025-08-19",
      "object": "LA ASESORÍA PROFESIONAL RELACIONADA CON LA CONSTRUCCIÓN, GESTIÓN, ELABORACIÓN DE PROYECTOS Y EJECUCIÓN DE OBRAS. CONSTRUCCIÓN COMPLETA, EDIFICACIÓN, REPARACIÓN Y CONSERVACIÓN DE OBRAS CIVILES, ASÍ COMO DE TODA CLASE DE INMUEBLES. ALBAÑILERÍA Y PEQUEÑOS TRABAJOS DE CONSTRUCCIÓN. CONSOLIDACIÓN Y PREPARACIÓN DE TERRENOS, DEMOLICIONES, DERRIBOS, PERFORACIONES PARA ALUMBRAMIENTO DE AGUAS, CIMENTACIONES Y PAVIMENTACIONES SE INCLUYEN LOS SISTEMAS DE AGOTAMIENTO Y DRAGADOS TANTO PARA LA REALIZACIÓN DE OBRAS CIVILES COMO PARA LA CONSTRUCCIÓN DE EDIFICIOS.PREPARACIÓN Y MONTAJE DE ESTRUCTURAS Y CUBIERTAS EN EDIFICACIONES Y OBRAS CIVILES. MONTAJE E INSTALACIÓN DE ESTRUCTURAS METÁLICAS PARA TRANSPORTES, PUERTOS, OBRAS HIDRÁULICAS, PUENTES, POSTES Y TORRES METÁLICAS, CARRILES, COMPUERTAS, GRÚAS. INSTALACIONES ELÉCTRICAS EN GENERAL. INSTALACIONES DE REDES TELEGRÁFICAS, TELEFÓNICAS, TELEFONÍA SIN HILOS Y TELEVISIÓN, INSTALACIONES DE SISTEMAS DE VALIDACIÓN DE PUERTOS Y AEROPUERTOS. ACABADO DE OBRAS DE TODO TIPO EN EDIFICACIONES Y OBRAS CIVILES. SERVICIOS AUXILIARES DE LA CONSTRUCCIÓN Y DRAGADOS. COMPRA-VENTA Y LA EXPLOTACIÓN DE EDIFICIOS, FINCAS Y CONSTRUCCIONES DE TODA CLASE. LA URBANIZACIÓN DE TERRENOS Y LA PROMOCIÓN INMOBILIARIA, ENTENDIENDO POR TAL LA PRÁCTICA DE CUANTAS GESTIONES ESTÉN ENCAMINADAS A LA VENTA DE INMUEBLES",
      "mainEntityOfPage": "https://www.contratacion.euskadi.eus/webkpe00-kperoc/es/ac71aBusquedaRegistrosWar/empresa/06086",
      "_links": {
        "self": {
          "name": "CORMAX EMPRESA CONSTRUCTORA S.L.",
          "href": "https://api.euskadi.eus/procurements/companies/06086"
        }
      }
    },
    {
      "name": "ALMIRALL, S.A.",
      "registrationNumber": "10031",
      "identificationNumber": "A58869389",
      "address": "Ronda General Mitre, 151",
      "location": {
        "postalCode": "08022",
        "municipality": "Barcelona",
        "county": "Barcelona",
        "municipalityId": "019",
        "countyId": "08"
      },
      "economicActivities": [
        {
          "id": "1.614.1",
          "name": "Venta al por mayor de productos farmacéuticos y medicamentos",
          "_links": {
            "self": {
              "name": "Venta al por mayor de productos farmacéuticos y medicamentos",
              "href": "https://api.euskadi.eus/procurements/companies/economic-activities/1.614.1"
            }
          }
        },
        {
          "id": "1.842",
          "name": "Servicios financieros y contables",
          "_links": {
            "self": {
              "name": "Servicios financieros y contables",
              "href": "https://api.euskadi.eus/procurements/companies/economic-activities/1.842"
            }
          }
        },
        {
          "id": "1.849.1",
          "name": "Cobros de deudas y confección de facturas",
          "_links": {
            "self": {
              "name": "Cobros de deudas y confección de facturas",
              "href": "https://api.euskadi.eus/procurements/companies/economic-activities/1.849.1"
            }
          }
        },
        {
          "id": "1.854.2",
          "name": "Alquiler de automóviles sin conductor en régimen de \"renting\"",
          "_links": {
            "self": {
              "name": "Alquiler de automóviles sin conductor en régimen de \"renting\"",
              "href": "https://api.euskadi.eus/procurements/companies/economic-activities/1.854.2"
            }
          }
        },
        {
          "id": "1.859",
          "name": "Alquiler de otros bienes muebles n.c.o.p. (sin personal permanente)",
          "_links": {
            "self": {
              "name": "Alquiler de otros bienes muebles n.c.o.p. (sin personal permanente)",
              "href": "https://api.euskadi.eus/procurements/companies/economic-activities/1.859"
            }
          }
        },
        {
          "id": "1.861.2",
          "name": "Alquiler de locales industriales y otros alquileres n.c.o.p",
          "_links": {
            "self": {
              "name": "Alquiler de locales industriales y otros alquileres n.c.o.p",
              "href": "https://api.euskadi.eus/procurements/companies/economic-activities/1.861.2"
            }
          }
        }
      ],
      "certificateStartDate": "2025-02-19",
      "certificateEndDate": "2025-08-19",
      "object": "A) LA COMPRA, FABRICACIÓN, ALMACENAMIENTO, COMERCIALIZACIÓN Y MEDIACIÓN EN LA VENTA DE ESPECIALIDADES Y PRODUCTOS FARMACÉUTICOS Y DE TODO TIPO DE MATERIAS PRIMAS EMPLEADOS EN LA ELABORACIÓN DE DICHAS ESPECIALIDADES Y PRODUCTOS FARMACÉUTICOS. B) LA COMPRA, FABRICACIÓN, ALMACENAMIENTO, COMERCIALIZACIÓN Y MEDIACIÓN EN LA VENTA DE COSMÉTICOS, PRODUCTOS QUÍMICOS, BIOTECNOLÓGICOS Y DE DIAGNÓSTICO PARA USO HUMANO, VETERINARIO, AGROQUÍMICO Y ALIMENTICIO, ASÍ COMO DE TODA CLASE DE UTENSILIOS, COMPLEMENTOS Y ACCESORIOS PARA LA INDUSTRIA QUÍMICA, FARMACÉUTICA Y CLÍNICA. C) LA INVESTIGACIÓN DE PRINCIPIOS Y PRODUCTOS QUÍMICOS Y FARMACÉUTICOS. D) LA COMPRA, VENTA, ALQUILER, PARCELACIÓN Y URBANIZACIÓN DE SOLARES, TERRENOS Y FINCAS DE CUALQUIER NATURALEZA, PUDIENDO PROCEDER A LA EDIFICACIÓN DE LOS MISMOS Y LA ENAJENACIÓN, ÍNTEGRAMENTE, EN FORMA PARCIAL O EN RÉGIMEN DE PROPIEDAD HORIZONTAL. E) LA PRESTACIÓN DE SERVICIOS DE PREVENCIÓN PROPIOS DE LAS EMPRESAS Y SOCIEDADES PARTÍCIPES DE LA COMPAÑÍA AL AMPARO DE LO ESTABLECIDO EN EL ARTÍCULO 15 DEL REAL DECRETO 39/1997, DE 17 DE ENERO QUE ESTABLECE EL REGLAMENTO DE SERVICIOS DE PREVENCIÓN, Y NORMATIVA DE DESARROLLO. DICHA ACTIVIDAD PODRÁ REGULARSE Y DESARROLLARSE DE FORMA MANCOMUNADA PARA LAS EMPRESAS AFINES Y PARTÍCIPES DE ÉSTA SEGÚN LO ESTABLECIDO EN EL ARTÍCULO 21 DEL PRECITADO TEXTO LEGAL.",
      "mainEntityOfPage": "https://www.contratacion.euskadi.eus/webkpe00-kperoc/es/ac71aBusquedaRegistrosWar/empresa/10031",
      "_links": {
        "self": {
          "name": "ALMIRALL, S.A.",
          "href": "https://api.euskadi.eus/procurements/companies/10031"
        }
      }
    },
    {
      "name": "TESAB SPAIN, S.L.",
      "registrationNumber": "10029",
      "identificationNumber": "B95462222",
      "address": "BO/ GUMUZIO 29A",
      "location": {
        "postalCode": "48960",
        "municipality": "Galdakao",
        "county": "Bizkaia",
        "municipalityId": "036",
        "countyId": "48"
      },
      "economicActivities": [
        {
          "id": "1.617.9",
          "name": "Venta al por mayor interindustrial de otros productos n.c.o.p",
          "_links": {
            "self": {
              "name": "Venta al por mayor interindustrial de otros productos n.c.o.p",
              "href": "https://api.euskadi.eus/procurements/companies/economic-activities/1.617.9"
            }
          }
        },
        {
          "id": "1.859",
          "name": "Alquiler de otros bienes muebles n.c.o.p. (sin personal permanente)",
          "_links": {
            "self": {
              "name": "Alquiler de otros bienes muebles n.c.o.p. (sin personal permanente)",
              "href": "https://api.euskadi.eus/procurements/companies/economic-activities/1.859"
            }
          }
        }
      ],
      "certificateStartDate": "2025-02-19",
      "certificateEndDate": "2025-08-18",
      "object": "IMPORTACIÓN, VENTA Y DISTRIBUCIÓN DE EQUIPAMIENTO Y MAQUINARIA EN EL MERCADO ESPAÑOL.",
      "mainEntityOfPage": "https://www.contratacion.euskadi.eus/webkpe00-kperoc/es/ac71aBusquedaRegistrosWar/empresa/10029",
      "_links": {
        "self": {
          "name": "TESAB SPAIN, S.L.",
          "href": "https://api.euskadi.eus/procurements/companies/10029"
        }
      }
    },
    {
      "name": "DOBLEMENTE MEDIA, S.L.",
      "registrationNumber": "09772",
      "identificationNumber": "B87114054",
      "address": "Travesía de San Mateo, 16 - Bj",
      "location": {
        "postalCode": "28004",
        "municipality": "Madrid",
        "county": "Madrid",
        "municipalityId": "079",
        "countyId": "28"
      },
      "economicActivities": [
        {
          "id": "1.844",
          "name": "Servicios de publicidad, relaciones públicas y similares",
          "_links": {
            "self": {
              "name": "Servicios de publicidad, relaciones públicas y similares",
              "href": "https://api.euskadi.eus/procurements/companies/economic-activities/1.844"
            }
          }
        }
      ],
      "certificateStartDate": "2025-02-18",
      "certificateEndDate": "2025-08-13",
      "object": "A).- LA PRESTACIÓN DE TODA CLASE DE SERVICIOS A EMPRESAS Y PARTICULARES, RELACIONADOS CON LA PUBLICIDAD, MARKETING, COMUNICACIÓN Y DISEÑO. CÓDIGOS C.N.A.E. NÚMEROS 7311, 7312, 7320 Y 7410. B).- LA COMPRAVENTA, IMPORTACIÓN, EXPORTACIÓN Y COMERCIALIZACIÓN, TANTO AL POR MAYOR COMO AL POR MENOR, DE FORMA DIRECTA Y \"ONLINE\", DE TODA CLASE DE PRODUCTOS RELACIONADOS CON LA MODA, TALES COMO PRENDAS DE VESTIR, ZAPATERÍA, COMPLEMENTOS, REGALOS, PERFUMERÍA Y COSMÉTICA. CÓDIGOS C.N.A.E. NÚMEROS 4616, 4641, 4642 Y 4645. C).- LA COMPRAVENTA, COMERCIALIZACIÓN, ARRENDAMIENTO Y EXPLOTACIÓN DE TODA CLASE DE BIENES INMUEBLES, TANTO RÚSTICOS COMO URBANOS. CÓDIGO C.N.A.E. 4110.",
      "mainEntityOfPage": "https://www.contratacion.euskadi.eus/webkpe00-kperoc/es/ac71aBusquedaRegistrosWar/empresa/09772",
      "_links": {
        "self": {
          "name": "DOBLEMENTE MEDIA, S.L.",
          "href": "https://api.euskadi.eus/procurements/companies/09772"
        }
      }
    },
    {
      "name": "KULTUR TOWN, S.L.",
      "registrationNumber": "10028",
      "identificationNumber": "B09786351",
      "address": "Calle Ribera (48005) 22, 3º Dcha.",
      "location": {
        "postalCode": "48005",
        "municipality": "Bilbao",
        "county": "Bizkaia",
        "municipalityId": "020",
        "countyId": "48"
      },
      "economicActivities": [
        {
          "id": "1.965.4",
          "name": "Empresas de espectáculos",
          "_links": {
            "self": {
              "name": "Empresas de espectáculos",
              "href": "https://api.euskadi.eus/procurements/companies/economic-activities/1.965.4"
            }
          }
        }
      ],
      "certificateStartDate": "2025-02-18",
      "certificateEndDate": "2025-08-18",
      "object": "A) LA PROMOCIÓN, PREPARACIÓN, DESARROLLO, CONTRATACIÓN DE ARTISTAS DE CUALQUIER GÉNERO Y GESTIÓN Y DESARROLLO DE TODO TIPO DE FESTIVALES, DE TODA CLASE DE EVENTOS, CONCIERTOS GALAS Y CONCURSOS MUSICALES, TANTO EN EL ESTADO ESPAÑOL, COMUNIDADES AUTÓNOMAS O EN EL EXTRANJERO, ASÍ COMO EL MARKETING DE LAS MISMAS. B) LA PRODUCCIÓN DISCOGRÁFICA, EDICIÓN DE DERECHOS DE AUTOR, EDITORIALES, MUSICALES, PROMOCIONES ARTÍSTICAS, DISCOGRÁFICAS Y DE OTROS PRODUCTOS MUSICALES, TEATRALES, CINEMATOGRÁFICOS, DE TV Y VRT, TANTO NACIONALES COMO EXTRANJEROS. C) GESTIÓN DE TODO TIPO DE DERECHOS DE PROPIEDAD INTELECTUAL, INDUSTRIAL Y DERECHOS DE IMAGEN. D) LA REPRESENTACIÓN DE ARTISTAS, PRODUCCIÓN DE EVENTOS CULTURALES Y MUSICALES Y DE OCIO. E) LA GESTIÓN DE SPONSORS. F) ALQUILER DE ENSERES DE CONCIERTOS Y ALQUILER DE INMUEBLES RELACIONADOS CON OCIO Y CULTURA. G) LA EXPLOTACIÓN DE BARRAS DE HOSTELERÍA, ASÍ COMO EL ALQUILER, VENTA Y EXPLOTACIÓN DE LAS MISMAS, TANTO EN EL ESTADO ESPAÑOL, COMUNIDADES AUTÓNOMAS O EN EL EXTRANJERO. H) LA FORMACIÓN E INFORMACIÓN DE TODO TIPO DE PERSONAS MEDIANTE CURSOS, SEMINARIOS, JORNADAS, TANTO DE PRESENCIA COMO A DISTANCIA EN CUALQUIER MATERIA, ASÍ COMO LA EDICIÓN DE TEXTOS Y LIBROS ENCUADERNADOS A TAL FIN, REVISTAS Y CUALQUIER OTRO MEDIO DE DIFUSIÓN QUE CONSIDERE IDÓNEO PARA SUS FINES; LA GESTIÓN, CREACIÓN, TOMA DE PARTICIPACIONES Y ASESORAMIENTO DE TOTO TIPO DE EMPRESAS, CONSULTORÍA, GESTIÓN, DISTRIBUCIÓN, IMPORTACIÓN Y EXPORTACIÓN DE TODO TIPO DE PRODUCTOS CONEXOS CON DICHAS ACTIVIDADES DE FORMACIÓN, INFORMACIÓN Y ASESORAMIENTO. I) LA DIRECCIÓN Y GESTIÓN COMO SOCIEDAD MATRIZ O HOLDING, DE SUS SOCIEDADES FILIALES Y PARTICIPADAS, EN LOS ASPECTOS INDUSTRIALES TÉCNICOS, COMERCIALES, FINANCIEROS, Y ADMINISTRATIVOS, Y, EN GENERAL, EN TODA SU DINÁMICA EMPRESARIAL.",
      "mainEntityOfPage": "https://www.contratacion.euskadi.eus/webkpe00-kperoc/es/ac71aBusquedaRegistrosWar/empresa/10028",
      "_links": {
        "self": {
          "name": "KULTUR TOWN, S.L.",
          "href": "https://api.euskadi.eus/procurements/companies/10028"
        }
      }
    },
    {
      "name": "SISTEMAS DE OFICINAS DE VIZCAYA DOS, S.A.",
      "registrationNumber": "07561",
      "identificationNumber": "A48142517",
      "address": "POLIGONO INDUSTRIAL URBITARTE, Nº6",
      "location": {
        "postalCode": "48220",
        "municipality": "Abadiño",
        "county": "Bizkaia",
        "municipalityId": "001",
        "countyId": "48"
      },
      "economicActivities": [
        {
          "id": "1.659.2",
          "name": "Venta al por menor de muebles de oficina y máquinas y equipos de oficina",
          "_links": {
            "self": {
              "name": "Venta al por menor de muebles de oficina y máquinas y equipos de oficina",
              "href": "https://api.euskadi.eus/procurements/companies/economic-activities/1.659.2"
            }
          }
        }
      ],
      "certificateStartDate": "2025-02-18",
      "certificateEndDate": "2025-08-18",
      "object": " LA VENTA Y REPRESENTACIÓN DE MAQUINARIA EN GENERAL, ESPECIALMENTE DE EQUIPO DE REPROGRAFIA Y FOTOGRAFIA, Y CUALQUIER OTRO EN RELACIÓN O COMPLEMENTARIO CON LO ANTERIOR",
      "mainEntityOfPage": "https://www.contratacion.euskadi.eus/webkpe00-kperoc/es/ac71aBusquedaRegistrosWar/empresa/07561",
      "_links": {
        "self": {
          "name": "SISTEMAS DE OFICINAS DE VIZCAYA DOS, S.A.",
          "href": "https://api.euskadi.eus/procurements/companies/07561"
        }
      }
    }
  ]
}