{
  "totalItems": 9042,
  "totalPages": 905,
  "currentPage": 347,
  "itemsOfPage": 10,
  "items": [
    {
      "name": "LIBE ROMAÑA LARRAZABAL",
      "registrationNumber": "09952",
      "identificationNumber": "78923278C",
      "address": "MÁXIMO AGUIRRE 26, 1ºIZQ",
      "location": {
        "postalCode": "48009",
        "municipality": "Bilbao",
        "county": "Bizkaia",
        "municipalityId": "020",
        "countyId": "48"
      },
      "economicActivities": [
        {
          "id": "2.751",
          "name": "Profesionales de la publicidad, relaciones públicas y similares",
          "_links": {
            "self": {
              "name": "Profesionales de la publicidad, relaciones públicas y similares",
              "href": "https://api.euskadi.eus/procurements/companies/economic-activities/2.751"
            }
          }
        }
      ],
      "certificateStartDate": "2025-06-24",
      "certificateEndDate": "2025-12-24",
      "object": "PROFESIONALES DE LA PUBLICIDAD, RELACIONES PÚBLICAS Y SIMILARES.",
      "mainEntityOfPage": "https://www.contratacion.euskadi.eus/webkpe00-kperoc/es/ac71aBusquedaRegistrosWar/empresa/09952",
      "_links": {
        "self": {
          "name": "LIBE ROMAÑA LARRAZABAL",
          "href": "https://api.euskadi.eus/procurements/companies/09952"
        }
      }
    },
    {
      "name": "MADDON ADVERTISING, S.L.",
      "registrationNumber": "09404",
      "identificationNumber": "B75194522",
      "address": "Avda Zurriola 32, 2º Izq",
      "location": {
        "postalCode": "20002",
        "municipality": "Donostia / San Sebastián",
        "county": "Gipuzkoa",
        "municipalityId": "069",
        "countyId": "20"
      },
      "economicActivities": [
        {
          "id": "1.844",
          "name": "Servicios de publicidad, relaciones públicas y similares",
          "_links": {
            "self": {
              "name": "Servicios de publicidad, relaciones públicas y similares",
              "href": "https://api.euskadi.eus/procurements/companies/economic-activities/1.844"
            }
          }
        },
        {
          "id": "1.845",
          "name": "Explotación electrónica por cuenta de terceros",
          "_links": {
            "self": {
              "name": "Explotación electrónica por cuenta de terceros",
              "href": "https://api.euskadi.eus/procurements/companies/economic-activities/1.845"
            }
          }
        },
        {
          "id": "1.961.1",
          "name": "Producción de películas cinematográficas (incluso vídeos)",
          "_links": {
            "self": {
              "name": "Producción de películas cinematográficas (incluso vídeos)",
              "href": "https://api.euskadi.eus/procurements/companies/economic-activities/1.961.1"
            }
          }
        }
      ],
      "certificateStartDate": "2025-06-24",
      "certificateEndDate": "2025-12-24",
      "object": "- LA PRODUCCIÓN AUDIOVISUAL, DISEÑO DE PÁGINAS WEB, DISEÑO GRÁFICO Y PUBLICIDAD Y OTRAS ACTIVIDADES RELACIONADAS CON ÉSTAS.",
      "mainEntityOfPage": "https://www.contratacion.euskadi.eus/webkpe00-kperoc/es/ac71aBusquedaRegistrosWar/empresa/09404",
      "_links": {
        "self": {
          "name": "MADDON ADVERTISING, S.L.",
          "href": "https://api.euskadi.eus/procurements/companies/09404"
        }
      }
    },
    {
      "name": "VASY CASAS CANADIENSES, S.L.",
      "registrationNumber": "09949",
      "identificationNumber": "B10904159",
      "address": "ANUCITA 11",
      "location": {
        "postalCode": "01428",
        "municipality": "Erriberagoitia/Ribera Alta",
        "county": "Araba/Álava",
        "municipalityId": "046",
        "countyId": "01"
      },
      "economicActivities": [
        {
          "id": "1.501.3",
          "name": "Albañilería y pequeños trabajos de construcción en general",
          "_links": {
            "self": {
              "name": "Albañilería y pequeños trabajos de construcción en general",
              "href": "https://api.euskadi.eus/procurements/companies/economic-activities/1.501.3"
            }
          }
        }
      ],
      "certificateStartDate": "2025-06-24",
      "certificateEndDate": "2025-12-22",
      "object": "TODO TIPO DE TRABAJOS DE ALBAÑILERÍA Y TRABAJOS DE CONSTRUCCIÓN. CARPINTERÍA, PINTURA, FONTANERÍA, CALEFACCIÓN Y ELECTRICIDAD.",
      "mainEntityOfPage": "https://www.contratacion.euskadi.eus/webkpe00-kperoc/es/ac71aBusquedaRegistrosWar/empresa/09949",
      "_links": {
        "self": {
          "name": "VASY CASAS CANADIENSES, S.L.",
          "href": "https://api.euskadi.eus/procurements/companies/09949"
        }
      }
    },
    {
      "name": "KOTAZERO URPEKARITZA ZERBITZUAK-BUCEO PROFESIONAL, S.L.",
      "registrationNumber": "05630",
      "identificationNumber": "B75174201",
      "address": "PORTUALDEA 6-bajo (zona portuaria)",
      "location": {
        "postalCode": "20110",
        "municipality": "Pasaia",
        "county": "Gipuzkoa",
        "municipalityId": "064",
        "countyId": "20"
      },
      "economicActivities": [
        {
          "id": "1.501.2",
          "name": "Construcción completa, reparación y conservación obras civiles",
          "_links": {
            "self": {
              "name": "Construcción completa, reparación y conservación obras civiles",
              "href": "https://api.euskadi.eus/procurements/companies/economic-activities/1.501.2"
            }
          }
        }
      ],
      "certificateStartDate": "2025-06-24",
      "certificateEndDate": "2025-12-23",
      "object": "LA REALIZACIÓN DE TODO TIPO DE TRABAJOS DE CONSTRUCCIÓN Y OBRAS SUBMARINAS (HORMIGÓN SUMERGIDO, ENRASES, VERTIDOS DE ESCOLLERAS, COLOCACIÓN DE CAJONES FLOTANTES, CORTE Y SOLDADURA, HORMIGONADO, ENCOFRADO SUBMARINO, ESTUDIOS BATIMÉTRICOS, LIMPIEZAS, SERVICIOS DE BUCEO, PREFABRICADOS SUBMARINOS), INSPECCIONES EN MEDIOS ACUÁTICOS TANTO DE BUQUES COMO DE INSTALACIONES, REFLOTAMIENTOS, EXTRACCIÓN DE RECURSOS MARINOS, FORMACIÓN DE SUBMARINISTAS, VENTA Y REPARACIÓN DE PRODUCTOS PARA LA PESCA Y EL BUCEO",
      "mainEntityOfPage": "https://www.contratacion.euskadi.eus/webkpe00-kperoc/es/ac71aBusquedaRegistrosWar/empresa/05630",
      "_links": {
        "self": {
          "name": "KOTAZERO URPEKARITZA ZERBITZUAK-BUCEO PROFESIONAL, S.L.",
          "href": "https://api.euskadi.eus/procurements/companies/05630"
        }
      }
    },
    {
      "name": "SORTZEN CONSULTORÍA, S.L.",
      "registrationNumber": "07329",
      "identificationNumber": "B95289377",
      "address": "Avenida Madariaga 1, 1º. Dptos 1 y 2",
      "location": {
        "postalCode": "48014",
        "municipality": "Bilbao",
        "county": "Bizkaia",
        "municipalityId": "020",
        "countyId": "48"
      },
      "economicActivities": [
        {
          "id": "1.843.9",
          "name": "Otros servicios técnicos n.c.o.p",
          "_links": {
            "self": {
              "name": "Otros servicios técnicos n.c.o.p",
              "href": "https://api.euskadi.eus/procurements/companies/economic-activities/1.843.9"
            }
          }
        },
        {
          "id": "1.932.2",
          "name": "Enseñanza de formación y perfeccionamiento profesional superior",
          "_links": {
            "self": {
              "name": "Enseñanza de formación y perfeccionamiento profesional superior",
              "href": "https://api.euskadi.eus/procurements/companies/economic-activities/1.932.2"
            }
          }
        }
      ],
      "certificateStartDate": "2025-06-23",
      "certificateEndDate": "2025-12-23",
      "object": "LA ASESORÍA A ENTIDADES PÚBLICAS Y PRIVADAS. FORMACIÓN NO REGLADA. REALIZACIÓN DE ESTUDIOS Y EVALUACIONES. ACTIVIDADES DE SENSIBILIZACIÓN Y DIFUSIÓN. ACTIVIDADES DE PROMOCIÓN SOCIAL, ELABORANDO PROGRAMAS Y PROYECTOS",
      "mainEntityOfPage": "https://www.contratacion.euskadi.eus/webkpe00-kperoc/es/ac71aBusquedaRegistrosWar/empresa/07329",
      "_links": {
        "self": {
          "name": "SORTZEN CONSULTORÍA, S.L.",
          "href": "https://api.euskadi.eus/procurements/companies/07329"
        }
      }
    },
    {
      "name": "CONSTRUCCIONES Y EXCAVACIONES AGUIRREZABAL, S.L.",
      "registrationNumber": "05163",
      "identificationNumber": "B95455861",
      "address": "ARRILUZEAGA, 13 BAJO",
      "location": {
        "postalCode": "48200",
        "municipality": "Durango",
        "county": "Bizkaia",
        "municipalityId": "027",
        "countyId": "48"
      },
      "economicActivities": [
        {
          "id": "1.501.1",
          "name": "Construcción completa, reparación y conservación de edificaciones",
          "_links": {
            "self": {
              "name": "Construcción completa, reparación y conservación de edificaciones",
              "href": "https://api.euskadi.eus/procurements/companies/economic-activities/1.501.1"
            }
          }
        },
        {
          "id": "1.722",
          "name": "Transporte de mercancías por carretera",
          "_links": {
            "self": {
              "name": "Transporte de mercancías por carretera",
              "href": "https://api.euskadi.eus/procurements/companies/economic-activities/1.722"
            }
          }
        }
      ],
      "certificateStartDate": "2025-06-23",
      "certificateEndDate": "2025-12-23",
      "object": "LA CONSTRUCCIÓN, EXCAVACIÓN, PROMOCIÓN, COMPRAVENTA Y GESTIÓN DEL SUELO, URBANIZACIÓN, REFORMAS, TRANSPORTE, PROYECTOS TÉCNICOS Y URBANÍSTICOS Y COORDINACIÓN DE LOS RESPECTIVOS GREMIOS",
      "mainEntityOfPage": "https://www.contratacion.euskadi.eus/webkpe00-kperoc/es/ac71aBusquedaRegistrosWar/empresa/05163",
      "_links": {
        "self": {
          "name": "CONSTRUCCIONES Y EXCAVACIONES AGUIRREZABAL, S.L.",
          "href": "https://api.euskadi.eus/procurements/companies/05163"
        }
      }
    },
    {
      "name": "DAR-DAR PRODUKZIOAK KOOP. ELK. TXIKIA DE INICIATIVA SOCIAL",
      "registrationNumber": "10246",
      "identificationNumber": "F20996435",
      "address": "1 Errepide nazionala 24, 4.B.",
      "location": {
        "postalCode": "20250",
        "municipality": "Legorreta",
        "county": "Gipuzkoa",
        "municipalityId": "052",
        "countyId": "20"
      },
      "economicActivities": [
        {
          "id": "1.934",
          "name": "Enseñanza fuera de establecimiento permanente",
          "_links": {
            "self": {
              "name": "Enseñanza fuera de establecimiento permanente",
              "href": "https://api.euskadi.eus/procurements/companies/economic-activities/1.934"
            }
          }
        },
        {
          "id": "1.951",
          "name": "Asistencia y servicios sociales en centros residenciales",
          "_links": {
            "self": {
              "name": "Asistencia y servicios sociales en centros residenciales",
              "href": "https://api.euskadi.eus/procurements/companies/economic-activities/1.951"
            }
          }
        },
        {
          "id": "1.952",
          "name": "Asistencia y servicios sociales en centros no residenciales",
          "_links": {
            "self": {
              "name": "Asistencia y servicios sociales en centros no residenciales",
              "href": "https://api.euskadi.eus/procurements/companies/economic-activities/1.952"
            }
          }
        },
        {
          "id": "1.965.4",
          "name": "Empresas de espectáculos",
          "_links": {
            "self": {
              "name": "Empresas de espectáculos",
              "href": "https://api.euskadi.eus/procurements/companies/economic-activities/1.965.4"
            }
          }
        }
      ],
      "certificateStartDate": "2025-06-23",
      "certificateEndDate": "2025-12-23",
      "object": "PROMOVER EL PROGRESO DE LAS PERSONAS Y EL INTERÉS GENERAL DE LA SOCIEDAD, SIENDO EL EJE DE LA ACTIVIDAD, EL TEATRO EN PARTICULAR, Y EL ARTE Y LA CULTURA EN GENERAL (ARTES PLÁSTICAS, AUDIOVISUALES, LITERATURA, …) CREAR Y GESTIONAR ESPECTÁCULOS, PROYECTOS, PRODUCTOS, PROGRAMAS PARA INVESTIGAR, FORMAR, SENSIBILIZAR, … EN ÁMBITOS Y CAMPOS COMO: - DIVERSIDAD. - DERECHOS HUMANOS. - IGUALDAD. - MEMORIA HISTÓRICA. - AUTONOMÍA PERSONAL. - INTEGRACIÓN DE LAS PERSONAS, GRUPOS Y COLECTIVOS. - EDUCACIÓN AFECTIVO-SEXUAL. - SOCIOEDUCATIVO Y SOCIOLABORAL. - MEDIOAMBIENTE. - CULTURA. - INNOVACIÓN SOCIAL. - OTROS DE CARÁCTER SIMILAR.",
      "mainEntityOfPage": "https://www.contratacion.euskadi.eus/webkpe00-kperoc/es/ac71aBusquedaRegistrosWar/empresa/10246",
      "_links": {
        "self": {
          "name": "DAR-DAR PRODUKZIOAK KOOP. ELK. TXIKIA DE INICIATIVA SOCIAL",
          "href": "https://api.euskadi.eus/procurements/companies/10246"
        }
      }
    },
    {
      "name": "CARNICAS CONCHI S.L.",
      "registrationNumber": "05598",
      "identificationNumber": "B01444595",
      "address": "Becolarra 2,  Pabellón 11-12",
      "location": {
        "postalCode": "01010",
        "municipality": "Vitoria-Gasteiz",
        "county": "Araba/Álava",
        "municipalityId": "059",
        "countyId": "01"
      },
      "economicActivities": [
        {
          "id": "1.413.3",
          "name": "Salas de despiece autónomas",
          "_links": {
            "self": {
              "name": "Salas de despiece autónomas",
              "href": "https://api.euskadi.eus/procurements/companies/economic-activities/1.413.3"
            }
          }
        },
        {
          "id": "1.612.4",
          "name": "Venta al por mayor de carnes, huevos, aves y caza",
          "_links": {
            "self": {
              "name": "Venta al por mayor de carnes, huevos, aves y caza",
              "href": "https://api.euskadi.eus/procurements/companies/economic-activities/1.612.4"
            }
          }
        }
      ],
      "certificateStartDate": "2025-06-22",
      "certificateEndDate": "2025-12-22",
      "object": "LA PREPARACIÓN, COMPRA Y VENTA DE CARNES CRUDAS, CURADAS, SALADAS, EN SALMUERA Y AHUMADAS DE ANIMALES, FABRICACIÓN DE EMBUTIDOS, FIAMBRES Y CONSERVAS, DESHIDRATACIÓN Y LIOFILIZACIÓN DE CARNES, CONSERVA DE CARNES MEDIANTE ENVASADO HERMÉTICO Y ESTERILIZACIÓN",
      "mainEntityOfPage": "https://www.contratacion.euskadi.eus/webkpe00-kperoc/es/ac71aBusquedaRegistrosWar/empresa/05598",
      "_links": {
        "self": {
          "name": "CARNICAS CONCHI S.L.",
          "href": "https://api.euskadi.eus/procurements/companies/05598"
        }
      }
    },
    {
      "name": "JAVIER SERRANO HERNANDO",
      "registrationNumber": "09440",
      "identificationNumber": "44728050L",
      "address": "Calle Isla de cuba, n24, local 2",
      "location": {
        "postalCode": "35007",
        "municipality": "Palmas de Gran Canaria, Las",
        "county": "Palmas, Las",
        "municipalityId": "016",
        "countyId": "35"
      },
      "economicActivities": [
        {
          "id": "2.411",
          "name": "Arquitectos",
          "_links": {
            "self": {
              "name": "Arquitectos",
              "href": "https://api.euskadi.eus/procurements/companies/economic-activities/2.411"
            }
          }
        }
      ],
      "certificateStartDate": "2025-06-22",
      "certificateEndDate": "2025-12-22",
      "object": "ARQUITECTOS.",
      "mainEntityOfPage": "https://www.contratacion.euskadi.eus/webkpe00-kperoc/es/ac71aBusquedaRegistrosWar/empresa/09440",
      "_links": {
        "self": {
          "name": "JAVIER SERRANO HERNANDO",
          "href": "https://api.euskadi.eus/procurements/companies/09440"
        }
      }
    },
    {
      "name": "LANDARRI, S.L.",
      "registrationNumber": "07577",
      "identificationNumber": "B20531448",
      "address": "BIDASOA, 9",
      "location": {
        "postalCode": "20100",
        "municipality": "Errenteria",
        "county": "Gipuzkoa",
        "municipalityId": "067",
        "countyId": "20"
      },
      "economicActivities": [
        {
          "id": "1.503.4",
          "name": "Elaboración de obra en piedra natural",
          "_links": {
            "self": {
              "name": "Elaboración de obra en piedra natural",
              "href": "https://api.euskadi.eus/procurements/companies/economic-activities/1.503.4"
            }
          }
        },
        {
          "id": "1.921.8",
          "name": "Servicios de administración de cementerios",
          "_links": {
            "self": {
              "name": "Servicios de administración de cementerios",
              "href": "https://api.euskadi.eus/procurements/companies/economic-activities/1.921.8"
            }
          }
        },
        {
          "id": "1.979.1",
          "name": "Servicios de pompas fúnebres",
          "_links": {
            "self": {
              "name": "Servicios de pompas fúnebres",
              "href": "https://api.euskadi.eus/procurements/companies/economic-activities/1.979.1"
            }
          }
        }
      ],
      "certificateStartDate": "2025-06-20",
      "certificateEndDate": "2025-12-19",
      "object": "EL FOMENTO Y LA REALIZACIÓN DE CONTRATOS DE CONSTRUCCIÓN EN TODAS SUS MANIFESTACIONES, EL SUMINISTRO, INSTALACIÓN, MANTENIMIENTO DE SUPERFICIES DE OBRA CIVIL, JARDINERÍA Y SIMILARES, DE CARÁCTER PÚBLICO O PRIVADO; LA EXPLOTACIÓN Y GESTIÓN DE CEMENTERIOS Y TRABAJOS EN PIEDRA",
      "mainEntityOfPage": "https://www.contratacion.euskadi.eus/webkpe00-kperoc/es/ac71aBusquedaRegistrosWar/empresa/07577",
      "_links": {
        "self": {
          "name": "LANDARRI, S.L.",
          "href": "https://api.euskadi.eus/procurements/companies/07577"
        }
      }
    }
  ]
}