{
  "totalItems": 9042,
  "totalPages": 905,
  "currentPage": 438,
  "itemsOfPage": 10,
  "items": [
    {
      "name": "UNI SERVIS 2001, S.A.",
      "registrationNumber": "03424",
      "identificationNumber": "A95146569",
      "address": "Poligono Ugaldeguren II nº 14",
      "location": {
        "postalCode": "48170",
        "municipality": "Zamudio",
        "county": "Bizkaia",
        "municipalityId": "905",
        "countyId": "48"
      },
      "economicActivities": [
        {
          "id": "1.504.1",
          "name": "Instalaciones eléctricas en general",
          "_links": {
            "self": {
              "name": "Instalaciones eléctricas en general",
              "href": "https://api.euskadi.eus/procurements/companies/economic-activities/1.504.1"
            }
          }
        },
        {
          "id": "1.504.3",
          "name": "Instalaciones de frío, calor y acondicionamiento de aire",
          "_links": {
            "self": {
              "name": "Instalaciones de frío, calor y acondicionamiento de aire",
              "href": "https://api.euskadi.eus/procurements/companies/economic-activities/1.504.3"
            }
          }
        },
        {
          "id": "1.505.5",
          "name": "Carpintería y cerrajería",
          "_links": {
            "self": {
              "name": "Carpintería y cerrajería",
              "href": "https://api.euskadi.eus/procurements/companies/economic-activities/1.505.5"
            }
          }
        }
      ],
      "certificateStartDate": "2023-10-31",
      "certificateEndDate": "2024-04-26",
      "object": "LA IMPORTACIÓN, EXPORTACIÓN, FABRICACIÓN, CONFECCIÓN, MONTAJE, REPARACIÓN, INSTALACIÓN, COMPRA Y VENTA POR MAYOR Y MENOR; COMERCIALIZACIÓN Y REPRESENTACIÓN DE EMPRESAS NACIONALES Y EXTRAJERAS PRODUCTORAS O DISTRIBUIDORAS DE: A) DISEÑO, DESARROLLO Y FABRICACIÓN DE EQUIPOS PARA EL CONTROL DE PROCESOS INDUSTRIALES. B) MAQUINARIA NUEVA O USADA PARA APLICACIONES DE CUALQUIER CLASE Y ACCESORIOS. APARATOS DE CALEFACCIÓN, AIREACIÓN, AIRE ACONDICIONADO Y REFRIGERACIÓN DE CÁMARAS FRIGORÍFICAS E INSTALACIONES DE FRÍO INDUSTRIAL, VENTILACIÓN Y ACONDICIONAMIENTO DE AIRE DE LOCALES Y ESPACIOS DETERMINADOS Y TODOS SUS ACCESORIOS. C) INSTALACIONES ELÉCTRICAS, HIDRÁULICAS, NEUMÁTICAS, BOBINAJE, ELECTRÓNICA, ESTUDIOS Y PRESUPUESTOS DE TODA CLASE DE MAQUINARIA. D) VEHÍCULOS INDUSTRIALES, ACCESORIOS, PIEZAS DE RECAMBIOS, LUBRICANTES, ÚTILES Y HERRAMIENTAS, MOTORES Y MAQUINARIA PARA DICHOS VEHÍCULOS. E) SERVICIOS DE MANTENIMIENTO INTEGRAL EN EDIFICIOS, RED DE OFICINAS, LOCALES COMERCIALES, COMUNIDADES Y LOGÍSTICA EN PLANTAS. F) LA COMPRA, VENTA Y ARRENDAMIENTO DE TODA CLASE DE FINCAS, TERRENOS, SOLARES, LOCALES INDUSTRIALES, COMERCIALES O DE OFICINAS, VIVIENDAS Y DEMÁS INMUEBLES DE NATURALEZA RÚSTICA Y URBANA. G) LA CLASIFICACIÓN Y DISTRIBUCIÓN DE CORRESPONDENCIA, VALIJAS Y PAQUETERÍA, ENCOMENDADAS POR ORGANISMOS PÚBLICOS Y PRIVADOS QUE NO SUPONGA, EN NINGÚN CASO, EL TRANSPORTE, MANIPULACIÓN O DISTRIBUCIÓN DE EFECTIVO. H) LA ASISTENCIA TÉCNICA A APARATOS MECÁNICOS, ELÉCTRICOS O ELECTRÓNICOS EN GRANDES SUPERFICIES, ESTABLECIMIENTOS COMERCIALES, INCLUSO FINANCIEROS, QUE NO SUPONGA MANIPULACIÓN DE INSTALACIONES DE SEGURIDAD. I) INFORMACIÓN DE ACCESOS A EDIFICIOSY/O INSTALACIONES EN GENERAL. LA CUSTODIA Y COMPROBACIÓN DEL ESTADO Y FUNCIONAMIENTO DE LAS INSTALACIONES EN GENERAL Y DE GESTIÓN AUXILIAR REALIZADAS EN CUALQUIER CLASE DE EDIFICIOS O INMUEBLES, REALIZADOS POR PORTEROS, CONSERJES Y PERSONAL ANÁLOGO. Y, EN GENERAL,  LA COMPROBACIÓN Y CONTROL DEL ESTADO DE CALDERAS E INSTALACIONES GENERALES EN CUALESQUIERA CLASE DE INMUEBLES PARA GARANTIZAR SU FUNCIONAMIENTO Y SEGURIDAD FÍSICA. J) EL CONTROL DE TRÁNSITO EN ZONAS RESERVADAS O DE CIRCULACIÓN RESTRINGIDA, EN EL INTERIOR DE FÁBRICAS, PLANTAS DE PRODUCCIÓN DE ENERGÍA, GRANDES CENTROS DE PROCESO DE DATOS, ÁREAS COMERCIALES Y SIMILARES. K) LAS TAREAS DE RECEPCIÓN, COMPROBACIÓN DE VISITANTES Y ORIENTACIÓN DE LOS MISMOS, ASÍ COMO LAS DE CONTROL DE ENTRADAS, TIKETS O CARNETS PRIVADOS, EN CUALQUIER CLASE DE EDIFICIOS O INMUEBLES. L) CARGA Y DESCARGA DE MATERIALES, EL TRASIEGO Y COLOCACIÓN DE LOS MISMOS, UTILIZANDO LOS MEDIOS MECÁNICOS O DE MOTOR AUXILIAREA QUE SEAN NECESARIOS.",
      "mainEntityOfPage": "https://www.contratacion.euskadi.eus/webkpe00-kperoc/es/ac71aBusquedaRegistrosWar/empresa/03424",
      "_links": {
        "self": {
          "name": "UNI SERVIS 2001, S.A.",
          "href": "https://api.euskadi.eus/procurements/companies/03424"
        }
      }
    },
    {
      "name": "LABORATORIOS NORMON, S.A.",
      "registrationNumber": "03399",
      "identificationNumber": "A28456820",
      "address": "RONDA VALDECARRIZO 6",
      "location": {
        "postalCode": "28760",
        "municipality": "Tres Cantos",
        "county": "Madrid",
        "municipalityId": "903",
        "countyId": "28"
      },
      "economicActivities": [
        {
          "id": "1.254.2",
          "name": "Fabricación de especialidades y otros productos farmacéuticos",
          "_links": {
            "self": {
              "name": "Fabricación de especialidades y otros productos farmacéuticos",
              "href": "https://api.euskadi.eus/procurements/companies/economic-activities/1.254.2"
            }
          }
        },
        {
          "id": "1.722",
          "name": "Transporte de mercancías por carretera",
          "_links": {
            "self": {
              "name": "Transporte de mercancías por carretera",
              "href": "https://api.euskadi.eus/procurements/companies/economic-activities/1.722"
            }
          }
        }
      ],
      "certificateStartDate": "2023-10-30",
      "certificateEndDate": "2024-04-30",
      "object": "1- LA FABRICACIÓN, ELABORACIÓN, DISTRIBUCIÓN, VENTA, IMPORTACIÓN Y EXPORTACIÓN DE PRODUCTOS FARMACÉUTICOS Y ESPECIALIDADES FARMACEÚTICAS DE TODAS CLASES. 2- LA FABRICACIÓN, ELABORACIÓN, DISTRIBUCIÓN, VENTA, IMPORTACIÓN Y EXPORTACIÓN DE TODA CLASE DE PRODUCTOS Y PREPARADOS QUÍMICOS Y BIOLÓGICOS PARA USO INDUSTRIAL O COMESTIBLE. 3- LA FABRICACIÓN, ELABORACIÓN, DESTILACIÓN, DISTRIBUCIÓN, VENTA, IMPORTACIÓN Y EXPORTACIÓN DE TODA SUERTE DE BEBIDAS ALCOHÓLICAS, CUALQUIERA QUE SEA SU GRADUACIÓN LA DE BEBIDAS REFRESCANTES, ZUMOS Y CONCENTRADOS DE TODA CLASE  DE FRUTAS. 4- LA REALIZACIÓN Y VERIFICACIÓN DE TODA CLASE DE ANÁLISIS, SEA CUALQUIERA  EL ELEMENTO DE QUE SE TRATE Y EL PROCEDIMIENTO EMPLEADO. 5- ESTUDIOS DE TODA ÍNDOLE, INVESTIGACIONES DE TODO TIPO, SOBRE PRODUCTOS QUÍMICOS Y BIOLOGICOS, DESCUBRIMIENTOS DE NUEVOS PRODUCTOS TERAPEÚTICOS, SU REGISTRO Y PATENTE Y POSTERIOR COMERCIALIZACIÓN O CESIÓN. 6- LA IMPORTACIÓN DE LAS PRIMERAS MATERIAS NECESARIAS PARA LA FABRICACIÓN DE LOS PRODUCTOS, YA SEA POR CUENTA PROPIA, EN RÉGIMEN DE REPRESENTACIÓN O CON EXCLUSIVA DE VENTA, TANTO EN TERRITORIO NACIONAL COMO EN EL EXTRANJERO. 7- LA ADQUISICIÓN, EXPLOTACIÓN, ENAJENACIÓN O CESIÓN POR CUALQUERA DE LAS FORMAS ADMITIDAS EN DERECHO DE TODA CLASE DE INVENTOS, LICENCIAS, PATENTES O MARCAS, ASÍ NACIONALES COMO EXTRANJERAS, INCLUÍDA LA INVESTIGACIÓN PROPIA EN TODA CLASE DE ACTIVIDADES Y PRODUCTOS. 8- LA ELABORACIÓN Y PRESTACIÓN  A TERCEROS DE ESTUDIOS Y ASESORAMIENTO RELACIONADOS DIRECTA O INDIRECTAMENTE CON LAS MATERIAS INDICADAS",
      "mainEntityOfPage": "https://www.contratacion.euskadi.eus/webkpe00-kperoc/es/ac71aBusquedaRegistrosWar/empresa/03399",
      "_links": {
        "self": {
          "name": "LABORATORIOS NORMON, S.A.",
          "href": "https://api.euskadi.eus/procurements/companies/03399"
        }
      }
    },
    {
      "name": "ANDER CORNEJO FERNANDEZ",
      "registrationNumber": "09272",
      "identificationNumber": "45915908L",
      "address": "AVDA. MINERO, 44 - 1º C",
      "location": {
        "postalCode": "48500",
        "municipality": "Abanto y Ciérvana-Abanto Zierbena",
        "county": "Bizkaia",
        "municipalityId": "002",
        "countyId": "48"
      },
      "economicActivities": [
        {
          "id": "2.861",
          "name": "Pintores, escultores, ceramistas, artesanos, artistas y similares",
          "_links": {
            "self": {
              "name": "Pintores, escultores, ceramistas, artesanos, artistas y similares",
              "href": "https://api.euskadi.eus/procurements/companies/economic-activities/2.861"
            }
          }
        }
      ],
      "certificateStartDate": "2023-10-30",
      "certificateEndDate": "2024-04-17",
      "object": "PINTORES, ESCULTORES, CERAMISTAS, ARTESANOS, ARTISTAS Y SIMILARES.",
      "mainEntityOfPage": "https://www.contratacion.euskadi.eus/webkpe00-kperoc/es/ac71aBusquedaRegistrosWar/empresa/09272",
      "_links": {
        "self": {
          "name": "ANDER CORNEJO FERNANDEZ",
          "href": "https://api.euskadi.eus/procurements/companies/09272"
        }
      }
    },
    {
      "name": "TRANSPORTADORES UNIVERSALES. S.A.",
      "registrationNumber": "09271",
      "identificationNumber": "A50103167",
      "address": "POLIGONO MALPICA, CALLE E, Nº 70",
      "location": {
        "postalCode": "50012",
        "municipality": "Zaragoza",
        "county": "Zaragoza",
        "municipalityId": "297",
        "countyId": "50"
      },
      "economicActivities": [
        {
          "id": "1.325.4",
          "name": "Construcción de maquinaria de elevación y manipulación",
          "_links": {
            "self": {
              "name": "Construcción de maquinaria de elevación y manipulación",
              "href": "https://api.euskadi.eus/procurements/companies/economic-activities/1.325.4"
            }
          }
        }
      ],
      "certificateStartDate": "2023-10-30",
      "certificateEndDate": "2024-04-30",
      "object": "LA FABRICACIÓN, COMERCIALIZACIÓN, DISTRIBUCIÓN Y VENTA DE MATERIAL DE OBRAS PÚBLICAS, ELEVACIÓN, TRANSPORTE Y MAQUINARIA EN GENERAL.",
      "mainEntityOfPage": "https://www.contratacion.euskadi.eus/webkpe00-kperoc/es/ac71aBusquedaRegistrosWar/empresa/09271",
      "_links": {
        "self": {
          "name": "TRANSPORTADORES UNIVERSALES. S.A.",
          "href": "https://api.euskadi.eus/procurements/companies/09271"
        }
      }
    },
    {
      "name": "IDOIA ARTOLA LABORDETA",
      "registrationNumber": "08995",
      "identificationNumber": "72476072J",
      "address": "Avenida Jaizkibel",
      "location": {
        "postalCode": "20100",
        "municipality": "Lezo",
        "county": "Gipuzkoa",
        "municipalityId": "053",
        "countyId": "20"
      },
      "economicActivities": [
        {
          "id": "1.673.2",
          "name": "Otros cafés y bares",
          "_links": {
            "self": {
              "name": "Otros cafés y bares",
              "href": "https://api.euskadi.eus/procurements/companies/economic-activities/1.673.2"
            }
          }
        },
        {
          "id": "1.849.9",
          "name": "Otros servicios independientes n.c.o.p",
          "_links": {
            "self": {
              "name": "Otros servicios independientes n.c.o.p",
              "href": "https://api.euskadi.eus/procurements/companies/economic-activities/1.849.9"
            }
          }
        }
      ],
      "certificateStartDate": "2023-10-26",
      "certificateEndDate": "2024-04-26",
      "object": "OTROS SERVICIOS INDEPENDIENTES N.C.O.P. OTROS CAFÉS Y BARES.",
      "mainEntityOfPage": "https://www.contratacion.euskadi.eus/webkpe00-kperoc/es/ac71aBusquedaRegistrosWar/empresa/08995",
      "_links": {
        "self": {
          "name": "IDOIA ARTOLA LABORDETA",
          "href": "https://api.euskadi.eus/procurements/companies/08995"
        }
      }
    },
    {
      "name": "AGIRI E.Z. LIBURUTEGI ETA DOKUMENTAZIO ZERBITZUAK S. COOP.",
      "registrationNumber": "08997",
      "identificationNumber": "F20485710",
      "address": "Calle Txermin kalea 8, 2 E",
      "location": {
        "postalCode": "20150",
        "municipality": "Villabona",
        "county": "Gipuzkoa",
        "municipalityId": "075",
        "countyId": "20"
      },
      "economicActivities": [
        {
          "id": "1.966.1",
          "name": "Bibliotecas y museos",
          "_links": {
            "self": {
              "name": "Bibliotecas y museos",
              "href": "https://api.euskadi.eus/procurements/companies/economic-activities/1.966.1"
            }
          }
        }
      ],
      "certificateStartDate": "2023-10-26",
      "certificateEndDate": "2024-04-26",
      "object": "OFRECER SERVICIOS BIBLIOTECARIOS Y DOCUMENTALES DE TODO TIPO, PARA LA CREACIÓN, GESTIÓN, MANTENIMIENTO, ASESORÍA, ETC., TANTO DE BIBLIOTECAS COMO DE SERVICIOS Y CENTROS DE DOCUMENTACIÓN QUE DEPENDAN DE INSTITUCIONES PÚBLICAS O PRIVADAS.",
      "mainEntityOfPage": "https://www.contratacion.euskadi.eus/webkpe00-kperoc/es/ac71aBusquedaRegistrosWar/empresa/08997",
      "_links": {
        "self": {
          "name": "AGIRI E.Z. LIBURUTEGI ETA DOKUMENTAZIO ZERBITZUAK S. COOP.",
          "href": "https://api.euskadi.eus/procurements/companies/08997"
        }
      }
    },
    {
      "name": "INSTITUTO DE LOS HERMANOS DE LAS ESCUELAS CRISTIANAS (LA SALLE). DISTRITO ARLEP. COMUNIDAD DE IRUN (IRUNGO LA SALLE)",
      "registrationNumber": "09267",
      "identificationNumber": "R2000194G",
      "address": "Avenida Elizatxo 14-16b.  20303 Irún (Guipúzcoa) España",
      "location": {
        "postalCode": "20303",
        "municipality": "Irun",
        "county": "Gipuzkoa",
        "municipalityId": "045",
        "countyId": "20"
      },
      "economicActivities": [
        {
          "id": "1.151.4",
          "name": "Producción de energía no especificada en otros epígrafes",
          "_links": {
            "self": {
              "name": "Producción de energía no especificada en otros epígrafes",
              "href": "https://api.euskadi.eus/procurements/companies/economic-activities/1.151.4"
            }
          }
        },
        {
          "id": "1.931.3",
          "name": "Enseñanza de bachillerato, formación profesional exclusivamente",
          "_links": {
            "self": {
              "name": "Enseñanza de bachillerato, formación profesional exclusivamente",
              "href": "https://api.euskadi.eus/procurements/companies/economic-activities/1.931.3"
            }
          }
        }
      ],
      "certificateStartDate": "2023-10-26",
      "certificateEndDate": "2024-04-11",
      "object": "LOS HERMANOS \"COOPERADORES DE JESUCRISTO\" CONSAGRAN  TODA SU EXISTENCIA A EDIFICAR EL REINO DE DIOS POR MEDIO DEL SERVICIO EDUCATIVO. FIELES A LA LLAMADA DEL ESPÍRITU Y AL CARISMA DE SU FUNDADOR, LOS HERMANOS SE CONSAGRAN A DIOS PARA CUMPLIR ASOCIADOS EL MINISTERIO APOSTÓLICO DE LA EDUCACIÓN. LA FINALIDAD DEL INSTITUTO DE LOS HERMANOS DE LAS ESCUELAS CRISTIANAS, EXPRESADA EN LA \"REGLA DE LOS HERMANOS DE LAS ESCUELAS CRISTIANAS\" ES PROCURAR EDUCACIÓN HUMANA Y CRISTIANA A LOS JÓVENES, ESPECIALMENTE A LOS POBRES, SEGÚN EL MINISTERIO QUE LA IGLESIA LE CONFÍA. LA ESCUELA CRISTIANA, QE SIEMPRE DEBE RENOVARSE, ES EL INSTRUMENTO PRIVILEGIADO DE LA ACTIVIDAD DE LOS HERMANOS. EL INSTITUTO SE ABRE TAMBIÉN A OTRAS FORMAS DE ENSEÑANZA Y EDUCACIÓN ADAPTADAS A LAS NECESIDADES DE LA ÉPOCA Y DE LOS PAÍSES. (REGLA, ARTÍCULOS 2 A 10).  EL DISTRITO ARLEP ASUME ESTA FINALIDAD PROMOVIENDO, ENTRE OTRAS: 1.- OBRAS DE EDUCACIÓN FORMAL, COMO CENTROS EDUCATIVOS EN NIVELES DE ENSEÑANZA OBLIGATORIA Y NO OBLIGATORIA, CENTROS DE FORMACIÓN UNIVERSITARIA (GRADOS, POSTGRADOS, PARQUES DE INNOVACIÓN), ETC. 2.- OBRAS SOCIOEDUCATIVAS Y DE EDUCACIÓN NO FORMAL QUE ATIENDEN: A) A LA EDUCACIÓN DE LOS MÁS NECESITADOS COMO, POR EJEMPLO, PERSONAS AFECTADAS POR UNA DISCAPACIDAD O MINUSVALÍA DE CUALQUIER TIPO, DROGODEPENDIENTES, PERSONAS MAYORES, JÓVENES EN RIESGO DE EXCLUSIÓN SOCIAL O MARGINACIÓN, CENTROS DE ACOGIDA, ETC. B) A LA EDUCACIÓN MEDIOAMBIENTAL COMO ESCUELAS DE LA NATURALEZA, GRANJAS ESCUELA, COLONIAS, ALBERGUES JUVENILES, ETC. C) A LA EDUCACIÓN FÍSICA, DEPORTIVA, DEL OCIO Y DEL TIEMPO LIBRE COMO CLUBS DEPORTIVOS, POLIDEPORTIVOS, CLUBS CULTURALES, ETC. 3.- ACTIVIDADES E INICIATIVAS EDUCATIVAS Y EVANGELIZADORAS COMO COLEGIOS MAYORES, RESIDENCIAS DE ESTUDIANTES, CENTROS DE ESPIRITUALIDAD Y DE FORMACIÓN DEL PROFESORADO, PUBLICACIONES EDUCATIVAS (EDICIONES), EDUCACIÓN DE ADULTOS, COLABORACIÓN CON LA IGLESIA LOCAL, ETC. 4.- OTRAS ACTIVIDADES PARA RESPONDER A LAS NECESIDADEES EDUCATIVAS EN EL FUTURO, DENTRO DE LA FINALIDAD DEL INSTITUTO DE LOS HERMANOS DE LAS ESCUELAS CRISTIANAS. 5.- ACTIVIDADES DE COOPERACIÓN PARA EL DESARROLLO EN PAÍSES DEL TERCER MUNDO,  RELACIONADAS CON LA EDUCACIÓN Y LA FORMACIÓN INTEGRAL DE LA PERSONA Y TODAS LAS ACTIVIDADES RELACIONADAS CON ELLAS, DIRIGIDAS A NIÑOS, JÓVENES Y ADULTOS. (ESTATUTOS DEL DISTRITO ARLEP,  ARTÍCULO 1B).",
      "mainEntityOfPage": "https://www.contratacion.euskadi.eus/webkpe00-kperoc/es/ac71aBusquedaRegistrosWar/empresa/09267",
      "_links": {
        "self": {
          "name": "INSTITUTO DE LOS HERMANOS DE LAS ESCUELAS CRISTIANAS (LA SALLE). DISTRITO ARLEP. COMUNIDAD DE IRUN (IRUNGO LA SALLE)",
          "href": "https://api.euskadi.eus/procurements/companies/09267"
        }
      }
    },
    {
      "name": "DATUA IA, S.L.",
      "registrationNumber": "08456",
      "identificationNumber": "B67965657",
      "address": "Calle Gran Vía Don Diego López de Haro, nº 17 - Planta 7ª",
      "location": {
        "postalCode": "48001",
        "municipality": "Bilbao",
        "county": "Bizkaia",
        "municipalityId": "020",
        "countyId": "48"
      },
      "economicActivities": [
        {
          "id": "1.845",
          "name": "Explotación electrónica por cuenta de terceros",
          "_links": {
            "self": {
              "name": "Explotación electrónica por cuenta de terceros",
              "href": "https://api.euskadi.eus/procurements/companies/economic-activities/1.845"
            }
          }
        }
      ],
      "certificateStartDate": "2023-10-25",
      "certificateEndDate": "2024-04-23",
      "object": "LA EJECUCIÓN DE PROYECTOS DE CONSULTORÍA RELACIONADOS CON LA CADENA DE VALOR DEL DATO INCLUYENDO DE FORMA ENUNCIATIVA Y NO LIMITATIVA: ESTRATEGIA DEL DATO, GOBERNANZA DEL DATO, ADMINISTRACIÓN Y GESTIÓN DE DATOS Y PLATAFORMAS BIG DATA, SERVICIOS DE ARQUITECTURA E INGENIERÍA DEL DATO, CIENCIA Y ALGORITMIA DEL DATO (INCLUYENDO INTELIGENCIA ARTIFICIAL Y TODAS SUS DERIVADAS), ANALÍTICA DEL DATO, INTELIGENCIA DE NEGOCIO, ESTRATEGIAS DATA DRIVEN Y EN GENERAL TODA LO RELATIVO A LA NUEVA INDUSTRIA DEL DATO. ASIMISMO, LA SOCIEDAD TENDRÁ COMO OBJETO SOCIAL EL DESARROLLO, DISTRIBUCIÓN Y EXPLOTACIÓN DE SOLUCIONES COMO SERVICIO EN INTELIGENCIA ARTIFICIAL ASÍ COMO, EL DESARROLLO, ADMINISTRACIÓN Y COMERCIALIZACIÓN DIRECTA, INDIRECTA Y COMO SERVICIO DE PLATAFORMAS BIG DATA O DE ADMINISTRACIÓN DE ECOSISTEMAS DEL DATO (PAAS). CNAE: 6201.- ACTIVIDADES DE PROGRAMACIÓN.",
      "mainEntityOfPage": "https://www.contratacion.euskadi.eus/webkpe00-kperoc/es/ac71aBusquedaRegistrosWar/empresa/08456",
      "_links": {
        "self": {
          "name": "DATUA IA, S.L.",
          "href": "https://api.euskadi.eus/procurements/companies/08456"
        }
      }
    },
    {
      "name": "MATERLAB S.L.",
      "registrationNumber": "05581",
      "identificationNumber": "B28950525",
      "address": "PASEO PONTONES, 7",
      "location": {
        "postalCode": "28005",
        "municipality": "Madrid",
        "county": "Madrid",
        "municipalityId": "079",
        "countyId": "28"
      },
      "economicActivities": [
        {
          "id": "1.255.9",
          "name": "Fabricación de otros productos químicos de uso final",
          "_links": {
            "self": {
              "name": "Fabricación de otros productos químicos de uso final",
              "href": "https://api.euskadi.eus/procurements/companies/economic-activities/1.255.9"
            }
          }
        },
        {
          "id": "1.619.9",
          "name": "Venta al por mayor de otros productos n.c.o.p",
          "_links": {
            "self": {
              "name": "Venta al por mayor de otros productos n.c.o.p",
              "href": "https://api.euskadi.eus/procurements/companies/economic-activities/1.619.9"
            }
          }
        }
      ],
      "certificateStartDate": "2023-10-25",
      "certificateEndDate": "2024-04-24",
      "object": "EL COMERCIO AL POR MAYOR DE APARATOS E INSTRUMENTOS DE FÍSICA, QUÍMICA Y FISIOQUÍMICA CON DESTINO A LABORATORIOS DE ANÁLISIS, INVESTIGACIÓN O ENSAYO Y DE ACCESORIOS Y PRODUCTOS ESPECIALES PARA USO O EMPLEO EN LOS MISMOS, TALES COMO BALANZAS DE PRECISIÓN, ESTUFAS DE CULTIVO Y DESECACIÓN, TUBOS DE ENSAYO, EMPALMES DE CAUCHO, PAPEL DE FILTRO, SOLUCIONES VALORADAS, ANTIGENES, INDICADORES, ETC, Y, EN GENERAL, CUANTOS POR SUS CARACTERÍSTICAS Y ESPECIFICAS APLICACIONES SEAN DE USO NORMAL Y DEFINIDO EN LOS EXPRESADOS LABORATORIOS",
      "mainEntityOfPage": "https://www.contratacion.euskadi.eus/webkpe00-kperoc/es/ac71aBusquedaRegistrosWar/empresa/05581",
      "_links": {
        "self": {
          "name": "MATERLAB S.L.",
          "href": "https://api.euskadi.eus/procurements/companies/05581"
        }
      }
    },
    {
      "name": "INFORMATICA FEU, S.L.",
      "registrationNumber": "08992",
      "identificationNumber": "B61747648",
      "address": "C/ SOT DELS PRADALS 17B",
      "location": {
        "postalCode": "08500",
        "municipality": "Vic",
        "county": "Barcelona",
        "municipalityId": "298",
        "countyId": "08"
      },
      "economicActivities": [
        {
          "id": "1.659.2",
          "name": "Venta al por menor de muebles de oficina y máquinas y equipos de oficina",
          "_links": {
            "self": {
              "name": "Venta al por menor de muebles de oficina y máquinas y equipos de oficina",
              "href": "https://api.euskadi.eus/procurements/companies/economic-activities/1.659.2"
            }
          }
        },
        {
          "id": "1.845",
          "name": "Explotación electrónica por cuenta de terceros",
          "_links": {
            "self": {
              "name": "Explotación electrónica por cuenta de terceros",
              "href": "https://api.euskadi.eus/procurements/companies/economic-activities/1.845"
            }
          }
        }
      ],
      "certificateStartDate": "2023-10-24",
      "certificateEndDate": "2024-04-24",
      "object": "A) EL COMERCIO AL POR MENOR, ASÍ COMO EL ALQUILER, DE MUEBLES DE OFICINA, MÁQUINAS Y EQUIPOS DE OFICINA. B) EL COMERCIO AL POR MENOR DE LIBROS TÉCNICOS, ARTÍCULOS DE PAPELERÍA, ESCRITORIO Y CONSUMIBLES DE INFORMÁTICA. C) LA PRESTACIÓN DE SERVICIOS DE ESTUDIO Y ANÁLISIS DE PROCESOS PARA SU TRATAMIENTO INFORMÁTICO, ASÍ COMO LA ELABORACIÓN CON MEDIOS PROPIOS DE PROGRAMAS Y APLICACIONES INFORMÁTICAS. D) LA VENTA DE PROGRAMAS Y APLICACIONES INFORMÁTICAS.",
      "mainEntityOfPage": "https://www.contratacion.euskadi.eus/webkpe00-kperoc/es/ac71aBusquedaRegistrosWar/empresa/08992",
      "_links": {
        "self": {
          "name": "INFORMATICA FEU, S.L.",
          "href": "https://api.euskadi.eus/procurements/companies/08992"
        }
      }
    }
  ]
}