{
  "totalItems": 9042,
  "totalPages": 905,
  "currentPage": 714,
  "itemsOfPage": 10,
  "items": [
    {
      "name": "VALVERDE SIG, S.A.",
      "registrationNumber": "04485",
      "identificationNumber": "A78929130",
      "address": "C/BELMONTE DE TAJO, Nº67-3º",
      "location": {
        "postalCode": "28019",
        "municipality": "Madrid",
        "county": "Madrid",
        "municipalityId": "079",
        "countyId": "28"
      },
      "economicActivities": [
        {
          "id": "1.843.4",
          "name": "Servicios técnicos de topografía",
          "_links": {
            "self": {
              "name": "Servicios técnicos de topografía",
              "href": "https://api.euskadi.eus/procurements/companies/economic-activities/1.843.4"
            }
          }
        }
      ],
      "certificateStartDate": "2011-05-06",
      "certificateEndDate": "2011-09-25",
      "object": "A.-) LA PRESTACIÓN DE TODA CLASE DE SERVICIOS DE INGENIERÍA, TOPOGRAFÍA, INFORMATICOS, FOTOGRAMETRICOS Y LA REALIZACIÓN DE PAQUETES DE PROGRAMAS INFORMÁTICOS Y SERVICIOS AUXILIARES A LOS MISMOS.\r\n\r\nB.-) LA REPRESENTACIÓN, GESTIÓN, DISTRIBUCIÓN Y VENTA EN FIRME O A COMISIÓN, EN CUALQUIER PAIS DE PRODUCTOS Y ARTICULOS DE FIRMAS NACIONALES Y EXTRANJERAS RELACIONADAS CON EL CATASTRO, TOPOGRAFÍA, FOTOGRAMETRÍA, CARTOGRAFÍA, INGENIERÍA INFORMÁTICAS Y OPERACIONES SIMILARES.\r\n\r\nC.-) LA ADQUISICIÓN, ENAJENACIÓN Y EXPLOTACIÓN DE TODAS LAS FORMAS PERMITIDAS EN DERECHO, EN ESPAÑA Y EN EL EXTRANJERO, DE PATENTES, PRIVILEGIOS, LICENCIAS, MARCAS Y MODELOS DE UTILIDAD DE CUALQUIER CLASE, RELACIONADO CON EL CATASTRO, TOPOGRAFÍA, FOTOGRAMETRÍA E INGENIERÍA INFORMÁTICA",
      "mainEntityOfPage": "https://www.contratacion.euskadi.eus/webkpe00-kperoc/es/ac71aBusquedaRegistrosWar/empresa/04485",
      "_links": {
        "self": {
          "name": "VALVERDE SIG, S.A.",
          "href": "https://api.euskadi.eus/procurements/companies/04485"
        }
      }
    },
    {
      "name": "AZSE, S.L.",
      "registrationNumber": "03493",
      "identificationNumber": "B20959409",
      "address": "AVDA DE GALICIA 35, BAJO",
      "location": {
        "postalCode": "20015",
        "municipality": "Donostia / San Sebastián",
        "county": "Gipuzkoa",
        "municipalityId": "069",
        "countyId": "20"
      },
      "economicActivities": [
        {
          "id": "1.501.1",
          "name": "Construcción completa, reparación y conservación de edificaciones",
          "_links": {
            "self": {
              "name": "Construcción completa, reparación y conservación de edificaciones",
              "href": "https://api.euskadi.eus/procurements/companies/economic-activities/1.501.1"
            }
          }
        },
        {
          "id": "1.501.2",
          "name": "Construcción completa, reparación y conservación obras civiles",
          "_links": {
            "self": {
              "name": "Construcción completa, reparación y conservación obras civiles",
              "href": "https://api.euskadi.eus/procurements/companies/economic-activities/1.501.2"
            }
          }
        }
      ],
      "certificateStartDate": "2011-05-05",
      "certificateEndDate": "2011-09-01",
      "object": "LA CONSTRUCCIÓN DE TODO TIPO DE OBRAS Y EDIFICACIONES, TANTO CIVILES COMO PÚBLICAS; LA COMPRA Y VENTA DE TERRENOS E INMUEBLES",
      "mainEntityOfPage": "https://www.contratacion.euskadi.eus/webkpe00-kperoc/es/ac71aBusquedaRegistrosWar/empresa/03493",
      "_links": {
        "self": {
          "name": "AZSE, S.L.",
          "href": "https://api.euskadi.eus/procurements/companies/03493"
        }
      }
    },
    {
      "name": "DELTALAB, S.L.",
      "registrationNumber": "02818",
      "identificationNumber": "B60186558",
      "address": "POL.IND. LA LLANA, PLAZA DE LA VERNEDA, 1",
      "location": {
        "postalCode": "08191",
        "municipality": "Rubí",
        "county": "Barcelona",
        "municipalityId": "184",
        "countyId": "08"
      },
      "economicActivities": [
        {
          "id": "1.619.2",
          "name": "Venta al por mayor de aparatos e instrumentos médicos, ortopédicos, ópticos",
          "_links": {
            "self": {
              "name": "Venta al por mayor de aparatos e instrumentos médicos, ortopédicos, ópticos",
              "href": "https://api.euskadi.eus/procurements/companies/economic-activities/1.619.2"
            }
          }
        }
      ],
      "certificateStartDate": "2011-04-20",
      "certificateEndDate": "2011-08-25",
      "object": "LA FABRICACIÓN DE INSTRUMENTOS DE LABORATORIO DE INVESTIGACIÓN Y EL COMERCIO AL POR MAYOR DE APARATOS E INSTRUMENTOS DE FÍSICA, QUÍMICA Y FISIOQUÍMICA CON DESTINO A LABORATORIOS DE ANÁLISIS, INVESTIGACIÓN O ENSAYO Y DE ACCESORIOS Y PRODUCTOS ESPECIALES PARA USO O EMPLEO EN LOS MISMOS, TALES COMO BALANZA DE PRESIÓN, ESTUFAS DE CULTIVOS Y DESECACIÓN, TUBOS DE ENSAYO, EMPALMES DE CAUCHO, PAPEL DE FILTRO, SOLUCIONES  VALORADAS, ANTÍGENOS, INDICADORES Y, EN GENERAL, CUANTOS POR SUS CARACTERÍSTICAS Y ESPECÍFICAS APLICACIONES SEAN DE USO NORMAL Y DEFINIDO EN LOS EXPRESADOS LABORATORIOS ",
      "mainEntityOfPage": "https://www.contratacion.euskadi.eus/webkpe00-kperoc/es/ac71aBusquedaRegistrosWar/empresa/02818",
      "_links": {
        "self": {
          "name": "DELTALAB, S.L.",
          "href": "https://api.euskadi.eus/procurements/companies/02818"
        }
      }
    },
    {
      "name": "LOTURA, S.COOP.",
      "registrationNumber": "02717",
      "identificationNumber": "F20796744",
      "address": "OIALUME BIDEA, 14-1º PISO. LOCAL 7",
      "location": {
        "postalCode": "20115",
        "municipality": "Astigarraga",
        "county": "Gipuzkoa",
        "municipalityId": "903",
        "countyId": "20"
      },
      "economicActivities": [
        {
          "id": "1.844",
          "name": "Servicios de publicidad, relaciones públicas y similares",
          "_links": {
            "self": {
              "name": "Servicios de publicidad, relaciones públicas y similares",
              "href": "https://api.euskadi.eus/procurements/companies/economic-activities/1.844"
            }
          }
        }
      ],
      "certificateStartDate": "2011-04-15",
      "certificateEndDate": "2011-08-10",
      "object": "LA PRESTACION DE SERVICIOS INFORMÁTICOS Y DE INTERNET A EMPRESAS Y PARTICULARES",
      "mainEntityOfPage": "https://www.contratacion.euskadi.eus/webkpe00-kperoc/es/ac71aBusquedaRegistrosWar/empresa/02717",
      "_links": {
        "self": {
          "name": "LOTURA, S.COOP.",
          "href": "https://api.euskadi.eus/procurements/companies/02717"
        }
      }
    },
    {
      "name": "TATIGRAPHICS, S.L.",
      "registrationNumber": "02589",
      "identificationNumber": "B81999666",
      "address": "C/ SAN ROMUALDO, 26-3ª PLANTA. NAVE A-6",
      "location": {
        "postalCode": "28037",
        "municipality": "Madrid",
        "county": "Madrid",
        "municipalityId": "079",
        "countyId": "28"
      },
      "economicActivities": [
        {
          "id": "1.619.2",
          "name": "Venta al por mayor de aparatos e instrumentos médicos, ortopédicos, ópticos",
          "_links": {
            "self": {
              "name": "Venta al por mayor de aparatos e instrumentos médicos, ortopédicos, ópticos",
              "href": "https://api.euskadi.eus/procurements/companies/economic-activities/1.619.2"
            }
          }
        }
      ],
      "certificateStartDate": "2011-04-12",
      "certificateEndDate": "2011-09-14",
      "object": "LA PRODUCCIÓN, VENTA Y COMERCIO (INCLUSIVE EN EL EXTRANJERO) DE PAPELES DE DIAGRAMAS PARA REGISTRADORES GRÁFICOS.\r\nLA PARTICIPACIÓN DIRECTA E INDIRECTA EN TODA AATIVIDAD FINANCIERA O MERCANTIL RELATIVA A OPERACIONES VINCULADAS A DICHO OBJETO SOCIAL, INCLUSIVE MEDIANTE LA CONSTITUCIÓN DE UNA SOCIEDAD CON APORTACIONES EN NATURALEZA Y LA SUBSCRIPCIÓN Y ADQUISICIÓN DE ACCIONES Y PARTICIPACIONES EN LAS GANANCIAS EN OTRAS SOCIEDADES O EMPRESAS MEDIANTE FUSIONES, PARTICIPACIONES U OTRAS.\r\nEL DESARROLLO DE TODAS LAS FINANCIARIAS COMERCIALES Y OPERACIONES DIRECTAMENTE O INDIRECTAMENTE VINCULADAS A DICHO OBJETO SOCIAL",
      "mainEntityOfPage": "https://www.contratacion.euskadi.eus/webkpe00-kperoc/es/ac71aBusquedaRegistrosWar/empresa/02589",
      "_links": {
        "self": {
          "name": "TATIGRAPHICS, S.L.",
          "href": "https://api.euskadi.eus/procurements/companies/02589"
        }
      }
    },
    {
      "name": "FUJIFILM ESPAÑA, S.A.",
      "registrationNumber": "02803",
      "identificationNumber": "A08083941",
      "address": "AV. JUAN CARLOS I, 98-4º A",
      "location": {
        "postalCode": "28916",
        "municipality": "Leganés",
        "county": "Madrid",
        "municipalityId": "074",
        "countyId": "28"
      },
      "economicActivities": [
        {
          "id": "1.615.4",
          "name": "Venta al por mayor de aparatos y material radioeléctrico y electrónico",
          "_links": {
            "self": {
              "name": "Venta al por mayor de aparatos y material radioeléctrico y electrónico",
              "href": "https://api.euskadi.eus/procurements/companies/economic-activities/1.615.4"
            }
          }
        },
        {
          "id": "1.619.2",
          "name": "Venta al por mayor de aparatos e instrumentos médicos, ortopédicos, ópticos",
          "_links": {
            "self": {
              "name": "Venta al por mayor de aparatos e instrumentos médicos, ortopédicos, ópticos",
              "href": "https://api.euskadi.eus/procurements/companies/economic-activities/1.619.2"
            }
          }
        },
        {
          "id": "1.699",
          "name": "Otras reparaciones n.c.o.p",
          "_links": {
            "self": {
              "name": "Otras reparaciones n.c.o.p",
              "href": "https://api.euskadi.eus/procurements/companies/economic-activities/1.699"
            }
          }
        },
        {
          "id": "1.843.9",
          "name": "Otros servicios técnicos n.c.o.p",
          "_links": {
            "self": {
              "name": "Otros servicios técnicos n.c.o.p",
              "href": "https://api.euskadi.eus/procurements/companies/economic-activities/1.843.9"
            }
          }
        }
      ],
      "certificateStartDate": "2011-04-11",
      "certificateEndDate": "2011-09-10",
      "object": "LA FABRICACIÓN, IMPORTACIÓN Y EXPORTACILÓN, INSTALACIÓN Y REPARACIÓN, COMPRA Y VENTA, AL POR MAYOR Y AL DETALLE, DE EQUIPOS Y MATERIALES FOTOGRÁFICOS, RADIOLÓGICOS Y ÓPTICOS, SUS ACCESORIOS Y EL REVELADO Y FOTOACABADO DE MATERIAL FOTOGRÁFICO, LOS ARTÍCULOS DE DIFUSIÓN MAGNÉTICA DE LA IMAGEN Y SONIDO, ASÍ COMO EQUIPOS DE GRABACIÓN Y REPRODUCCIÓN, REPRODUCTORES DE IMAGEN EN PAPEL Y FOTOCOPIADORAS Y SUS ACCESORIOS, Y EN GENERAL, DE TODOS AQUELLOS EQUIPOS O PRODUCTOS RELACIONADOS DIRECTA O INDIRECTAMENTE CON LA FOTOGRAFÍA, LA COMUNICACIÓN O LA IMAGEN.\r\nLA SOCIEDAD PODRÁ ASIMISMO DESARROLLAR LAS ACTIVIDADES INTEGRANTES DEL OBJETO SOCIAL TOTAL O PARCIALMENTE DE MODO INDIRECTO MEDIANTE LA TITULARIDAD DE ACCIONES O PARTICIPACIONES EN SOCIEDADES CON OBJETO IDÉNTICO O ANÁLOGO  ",
      "mainEntityOfPage": "https://www.contratacion.euskadi.eus/webkpe00-kperoc/es/ac71aBusquedaRegistrosWar/empresa/02803",
      "_links": {
        "self": {
          "name": "FUJIFILM ESPAÑA, S.A.",
          "href": "https://api.euskadi.eus/procurements/companies/02803"
        }
      }
    },
    {
      "name": "RENOVACIONES TÉCNICAS DE FRIAS, S.L.",
      "registrationNumber": "03577",
      "identificationNumber": "B20634069",
      "address": "PLAZA MARCELINO SOROA, 9- BAJO",
      "location": {
        "postalCode": "20011",
        "municipality": "Donostia / San Sebastián",
        "county": "Gipuzkoa",
        "municipalityId": "069",
        "countyId": "20"
      },
      "economicActivities": [
        {
          "id": "1.501.1",
          "name": "Construcción completa, reparación y conservación de edificaciones",
          "_links": {
            "self": {
              "name": "Construcción completa, reparación y conservación de edificaciones",
              "href": "https://api.euskadi.eus/procurements/companies/economic-activities/1.501.1"
            }
          }
        }
      ],
      "certificateStartDate": "2011-04-11",
      "certificateEndDate": "2011-09-16",
      "object": "LA RENOVACIÓN Y PROTECCIÓN DE INTERIORES Y EXTERIORES DE EDIFICIOS",
      "mainEntityOfPage": "https://www.contratacion.euskadi.eus/webkpe00-kperoc/es/ac71aBusquedaRegistrosWar/empresa/03577",
      "_links": {
        "self": {
          "name": "RENOVACIONES TÉCNICAS DE FRIAS, S.L.",
          "href": "https://api.euskadi.eus/procurements/companies/03577"
        }
      }
    },
    {
      "name": "CONSTRUCCIONES Y REFORMAS GALDAMES, S.L.",
      "registrationNumber": "03542",
      "identificationNumber": "B48852644",
      "address": "General Castaños, nº 89, bajo-izquierda",
      "location": {
        "postalCode": "48920",
        "municipality": "Portugalete",
        "county": "Bizkaia",
        "municipalityId": "078",
        "countyId": "48"
      },
      "economicActivities": [
        {
          "id": "1.501.1",
          "name": "Construcción completa, reparación y conservación de edificaciones",
          "_links": {
            "self": {
              "name": "Construcción completa, reparación y conservación de edificaciones",
              "href": "https://api.euskadi.eus/procurements/companies/economic-activities/1.501.1"
            }
          }
        },
        {
          "id": "1.501.2",
          "name": "Construcción completa, reparación y conservación obras civiles",
          "_links": {
            "self": {
              "name": "Construcción completa, reparación y conservación obras civiles",
              "href": "https://api.euskadi.eus/procurements/companies/economic-activities/1.501.2"
            }
          }
        }
      ],
      "certificateStartDate": "2011-04-05",
      "certificateEndDate": "2011-09-15",
      "object": "LAS CONSTRUCCIONES Y REFORMAS DE TODO TIPO DE EDIFICACIONES Y DE SOLARES, ASÍ COMO LA COORDINACIÓN DE LOS GREMIOS Y EJECUCIÓN DE LAS OBRAS O REFORMAS. TALES ACTIVIDADES PODRÁN SER DESARROLLADAS POR LA SOCIEDAD EN FORMA DIRECTA, O BIEN EN CUALESQUIERA OTRAS FORMAS ADMITIDAS EN DERECHO, COMO LA PARTICIPACIÓN EN CALIDAD DE SOCIO EN OTRAS ENTIDADES DE OBJETO IDÉNTICO O ANÁLOGO. QUEDAN EXCLUIDAS DEL OBJETO SOCIAL TODAS LAS ACTIVIDADES PARA CUYO EJERCICIO, LA LEY EXIJA REQUISITOS ESPECIALES QUE NO CUMPLA LA SOCIEDAD",
      "mainEntityOfPage": "https://www.contratacion.euskadi.eus/webkpe00-kperoc/es/ac71aBusquedaRegistrosWar/empresa/03542",
      "_links": {
        "self": {
          "name": "CONSTRUCCIONES Y REFORMAS GALDAMES, S.L.",
          "href": "https://api.euskadi.eus/procurements/companies/03542"
        }
      }
    },
    {
      "name": "MANUEL AMARO LORENZO",
      "registrationNumber": "03625",
      "identificationNumber": "15368799S",
      "address": "SAN IGNACIO, 4 - 2 DCHA",
      "location": {
        "postalCode": "20870",
        "municipality": "Elgoibar",
        "county": "Gipuzkoa",
        "municipalityId": "032",
        "countyId": "20"
      },
      "economicActivities": [
        {
          "id": "1.501.1",
          "name": "Construcción completa, reparación y conservación de edificaciones",
          "_links": {
            "self": {
              "name": "Construcción completa, reparación y conservación de edificaciones",
              "href": "https://api.euskadi.eus/procurements/companies/economic-activities/1.501.1"
            }
          }
        },
        {
          "id": "1.501.2",
          "name": "Construcción completa, reparación y conservación obras civiles",
          "_links": {
            "self": {
              "name": "Construcción completa, reparación y conservación obras civiles",
              "href": "https://api.euskadi.eus/procurements/companies/economic-activities/1.501.2"
            }
          }
        }
      ],
      "certificateStartDate": "2011-04-04",
      "certificateEndDate": "2011-09-30",
      "object": "LA CONSTRUCCIÓN, PREPARACIÓN Y CONSERVACIÓN TANTO DE EDFICACIONES COMO DE OBRAS CIVILES",
      "mainEntityOfPage": "https://www.contratacion.euskadi.eus/webkpe00-kperoc/es/ac71aBusquedaRegistrosWar/empresa/03625",
      "_links": {
        "self": {
          "name": "MANUEL AMARO LORENZO",
          "href": "https://api.euskadi.eus/procurements/companies/03625"
        }
      }
    },
    {
      "name": "CONSTRUCCIONES Y REFORMAS LAGUNETXE, S.L.",
      "registrationNumber": "03564",
      "identificationNumber": "B95085643",
      "address": "ARTAZAGANE, 35-LOCAL",
      "location": {
        "postalCode": "48940",
        "county": "Bizkaia",
        "municipalityId": "0-1",
        "countyId": "48"
      },
      "economicActivities": [
        {
          "id": "1.501.1",
          "name": "Construcción completa, reparación y conservación de edificaciones",
          "_links": {
            "self": {
              "name": "Construcción completa, reparación y conservación de edificaciones",
              "href": "https://api.euskadi.eus/procurements/companies/economic-activities/1.501.1"
            }
          }
        }
      ],
      "certificateStartDate": "2011-03-31",
      "certificateEndDate": "2011-08-01",
      "object": "LA PROMOCIÓN Y EJECUCIÓN, COMPLETA O POR RAMOS, DE TODA CLASE DE OBRAS DE CONSTRUCCIÓN, URBANIZACIÓN Y SERVICIOS, REPARACIÓN Y CONSERVACIÓN DE TODA CLASE DE INMUEBLES, POR CUENTA PROPIA Y AJENA, ASÍ COMO LA REALIZACIÓN DE TRABAJOS DE ALBAÑILERÍA, FONTANERÍA CARPINTERÍA, ETC., Y PEQUEÑOS TRABAJOS DE CONSTRUCCIÓN EN GENERAL.",
      "mainEntityOfPage": "https://www.contratacion.euskadi.eus/webkpe00-kperoc/es/ac71aBusquedaRegistrosWar/empresa/03564",
      "_links": {
        "self": {
          "name": "CONSTRUCCIONES Y REFORMAS LAGUNETXE, S.L.",
          "href": "https://api.euskadi.eus/procurements/companies/03564"
        }
      }
    }
  ]
}