{
  "totalItems": 9042,
  "totalPages": 905,
  "currentPage": 420,
  "itemsOfPage": 10,
  "items": [
    {
      "name": "TALDESPORT SERVICIOS DEPORTIVOS, S.L.",
      "registrationNumber": "05390",
      "identificationNumber": "B01295187",
      "address": "MENDI, 2",
      "location": {
        "postalCode": "01470",
        "municipality": "Amurrio",
        "county": "Araba/Álava",
        "municipalityId": "002",
        "countyId": "01"
      },
      "economicActivities": [
        {
          "id": "1.659.6",
          "name": "Venta al por menor de juguetes, artículos de deporte",
          "_links": {
            "self": {
              "name": "Venta al por menor de juguetes, artículos de deporte",
              "href": "https://api.euskadi.eus/procurements/companies/economic-activities/1.659.6"
            }
          }
        },
        {
          "id": "1.922",
          "name": "Servicios de limpieza",
          "_links": {
            "self": {
              "name": "Servicios de limpieza",
              "href": "https://api.euskadi.eus/procurements/companies/economic-activities/1.922"
            }
          }
        },
        {
          "id": "1.967.1",
          "name": "Instalaciones deportivas",
          "_links": {
            "self": {
              "name": "Instalaciones deportivas",
              "href": "https://api.euskadi.eus/procurements/companies/economic-activities/1.967.1"
            }
          }
        }
      ],
      "certificateStartDate": "2024-05-29",
      "certificateEndDate": "2024-11-28",
      "object": "LA EXPLOTACIÓN DE SERVICIOS DEPORTIVOS RELACIONADOS CON LA GESTIÓN PARCIAL O INTEGRAL DE INSTALACIONES DEPORTIVAS, TANTO MUNICIPALES COMO PRIVADAS. ORGANIZACIÓN DE EVENTOS DEPORTIVOS, Y ASESORAMIENTO DEPORTIVO A CLUBS, INSTITUCIONES, ASOCIACIONES Y PARTICULARES. VENTA Y REPARACIÓN DE EQUIPAMIENTOS DEPORTIVOS Y ENSEÑANZA DE LA PRÁCTICA DEPORTIVA EN TODAS SUS DISCIPLINAS MEDIANTE CURSOS O CURSILLOS DE FORMACIÓN. LA ORGANIZACIÓN, ASESORAMIENTO Y PRESTACIÓN DE SERVICIOS TURÍSTICOS, RECREATIVOS, CULTURALES Y GASTRONÓMICOS PARA ENTIDADES PÚBLICAS O PRIVADAS, INCLUYENDO LA ORGANIZACIÓN DE CONGRESOS, CURSOS, CONVENCIONES Y REUNIONES, Y LA PRESTACIÓN PARA TALES ACTOS DE LA INFRAESTRUCTURA NECESARIA, CON MEDIOS PROPIOS O MEDIANTE LA CONTRATACIÓN DE SERVICIOS AJENOS. LA PRESTACIÓN DE SERVICIOS DE LIMPIEZA, CONSERJERÍA, VIGILANCIA Y MANTENIMIENTO EN EDIFICIOS TANTO PÚBLICOS COMO PRIVADOS. LA REALIZACIÓN DE TRABAJOS DE REPARTO Y MENSAJERÍA",
      "mainEntityOfPage": "https://www.contratacion.euskadi.eus/webkpe00-kperoc/es/ac71aBusquedaRegistrosWar/empresa/05390",
      "_links": {
        "self": {
          "name": "TALDESPORT SERVICIOS DEPORTIVOS, S.L.",
          "href": "https://api.euskadi.eus/procurements/companies/05390"
        }
      }
    },
    {
      "name": "ENDARAN ERAIKUNTZA, S.L.",
      "registrationNumber": "08240",
      "identificationNumber": "B75041269",
      "address": "SAGASTI BAILARA N 13",
      "location": {
        "postalCode": "20100",
        "municipality": "Lezo",
        "county": "Gipuzkoa",
        "municipalityId": "053",
        "countyId": "20"
      },
      "economicActivities": [
        {
          "id": "1.501.3",
          "name": "Albañilería y pequeños trabajos de construcción en general",
          "_links": {
            "self": {
              "name": "Albañilería y pequeños trabajos de construcción en general",
              "href": "https://api.euskadi.eus/procurements/companies/economic-activities/1.501.3"
            }
          }
        }
      ],
      "certificateStartDate": "2024-05-28",
      "certificateEndDate": "2024-11-28",
      "object": "LA ALBAÑILERÍA, REALIZACIÓN DE TODO TIPO DE CONSTRUCCIONES POR CUENTA AJENA E INCLUSO PROPIA, ASÍ COMO LA REALIZACIÓN DE TRABAJOS DE REHABILITACIÓN DE VIVIENDAS, EDIFICIOS, PABELLONES Y TODO TIPO DE CONSTRUCCIONES.",
      "mainEntityOfPage": "https://www.contratacion.euskadi.eus/webkpe00-kperoc/es/ac71aBusquedaRegistrosWar/empresa/08240",
      "_links": {
        "self": {
          "name": "ENDARAN ERAIKUNTZA, S.L.",
          "href": "https://api.euskadi.eus/procurements/companies/08240"
        }
      }
    },
    {
      "name": "TXIKERRA, S.L.",
      "registrationNumber": "04575",
      "identificationNumber": "B75020669",
      "address": "PLAZA DE JOSE ANTONIO AGUIRRE, 4-2º DCHA.",
      "location": {
        "postalCode": "20730",
        "municipality": "Azpeitia",
        "county": "Gipuzkoa",
        "municipalityId": "018",
        "countyId": "20"
      },
      "economicActivities": [
        {
          "id": "1.501.1",
          "name": "Construcción completa, reparación y conservación de edificaciones",
          "_links": {
            "self": {
              "name": "Construcción completa, reparación y conservación de edificaciones",
              "href": "https://api.euskadi.eus/procurements/companies/economic-activities/1.501.1"
            }
          }
        }
      ],
      "certificateStartDate": "2024-05-28",
      "certificateEndDate": "2024-11-28",
      "object": "LA INVESTIGACIÓN Y EL TRATAMIENTO DE ROCAS NATURALES Y ARTIFICIALES, EL TRATAMIENTO DE METALES, EL TRATAMIENTO DE MADERAS, EL TRATAMIENTO INTEGRAL DE HORMIGONES, LA CONSTRUCCIÓN, MANTENIMIENTO, AOCNDICIONAMIENTO Y REHABILITACIÓN DE EDIFICIOS Y URBANIZACIONES, LA RESTAURACIÓN, CONSERVACIÓN Y MANTENIMIENTO DE BIENES INMUEBLES HISTÓRICO ARTÍSTICOS, EDIFICIOS SINGULARES, MONUMENTOS Y OBRAS DE ARTE Y LOS ESTUDIOS, PROYECTOS Y DIRECCIÓN DENTRO DEL CAMPO DE LAS ACTIVIDADES QUE ANTECEDEN",
      "mainEntityOfPage": "https://www.contratacion.euskadi.eus/webkpe00-kperoc/es/ac71aBusquedaRegistrosWar/empresa/04575",
      "_links": {
        "self": {
          "name": "TXIKERRA, S.L.",
          "href": "https://api.euskadi.eus/procurements/companies/04575"
        }
      }
    },
    {
      "name": "KIÑUKA, S.L.",
      "registrationNumber": "07375",
      "identificationNumber": "B48265193",
      "address": "OKAMIKAKO INDUSTRIALDEA",
      "location": {
        "postalCode": "48289",
        "municipality": "Gizaburuaga",
        "county": "Bizkaia",
        "municipalityId": "047",
        "countyId": "48"
      },
      "economicActivities": [
        {
          "id": "1.973.1",
          "name": "Servicios fotográficos",
          "_links": {
            "self": {
              "name": "Servicios fotográficos",
              "href": "https://api.euskadi.eus/procurements/companies/economic-activities/1.973.1"
            }
          }
        }
      ],
      "certificateStartDate": "2024-05-28",
      "certificateEndDate": "2024-11-28",
      "object": "LA REALIZACIÓN DE ACTIVIDADES DE FOTOGRAFÍA INDUSTRIAL Y DEMÁS RELACIONADAS CON LA MISMA",
      "mainEntityOfPage": "https://www.contratacion.euskadi.eus/webkpe00-kperoc/es/ac71aBusquedaRegistrosWar/empresa/07375",
      "_links": {
        "self": {
          "name": "KIÑUKA, S.L.",
          "href": "https://api.euskadi.eus/procurements/companies/07375"
        }
      }
    },
    {
      "name": "AGENCIA ARTABE, S.L.",
      "registrationNumber": "06968",
      "identificationNumber": "B95759718",
      "address": "c/ Astillero nº 5",
      "location": {
        "postalCode": "48013",
        "municipality": "Bilbao",
        "county": "Bizkaia",
        "municipalityId": "020",
        "countyId": "48"
      },
      "economicActivities": [
        {
          "id": "1.832.1",
          "name": "Agencias de seguros y corredurías de seguros",
          "_links": {
            "self": {
              "name": "Agencias de seguros y corredurías de seguros",
              "href": "https://api.euskadi.eus/procurements/companies/economic-activities/1.832.1"
            }
          }
        }
      ],
      "certificateStartDate": "2024-05-28",
      "certificateEndDate": "2024-11-28",
      "object": "LAS ACTIVIDADES MERCANTILES DE MEDIACIÓN DE SEGUROS Y REASEGUROS PRIVADOS, COMO AGENCIA DE SEGURO, QUE COMPRENDERÁN LA PROMOCIÓN, MEDIACIÓN Y ASESORAMIENTO PREPARATORIO EN LA FORMALIZACIÓN DE CONTRATOS DE SEGURO PRIVADOS ENTRE PERSONAS FÍSICAS O JURÍDICAS Y ENTIDADES ASEGURADORAS O REASEGURADORES AUTORIZADOS, SOMETIÉNDOSE A LA LEGISLACIÓN ESPECIAL DE MEDIACIÓN DE SEGUROS PRIVADOS",
      "mainEntityOfPage": "https://www.contratacion.euskadi.eus/webkpe00-kperoc/es/ac71aBusquedaRegistrosWar/empresa/06968",
      "_links": {
        "self": {
          "name": "AGENCIA ARTABE, S.L.",
          "href": "https://api.euskadi.eus/procurements/companies/06968"
        }
      }
    },
    {
      "name": "KIROL NAGUSIA, S.L.",
      "registrationNumber": "04851",
      "identificationNumber": "B48978787",
      "address": "ARIZGOITIKO PLAZA, 1",
      "location": {
        "postalCode": "48970",
        "municipality": "Basauri",
        "county": "Bizkaia",
        "municipalityId": "015",
        "countyId": "48"
      },
      "economicActivities": [
        {
          "id": "1.619.1",
          "name": "Venta al por mayor de juguetes y artículos de deporte",
          "_links": {
            "self": {
              "name": "Venta al por mayor de juguetes y artículos de deporte",
              "href": "https://api.euskadi.eus/procurements/companies/economic-activities/1.619.1"
            }
          }
        },
        {
          "id": "1.921.3",
          "name": "Exterminio de animales dañinos y desinfección",
          "_links": {
            "self": {
              "name": "Exterminio de animales dañinos y desinfección",
              "href": "https://api.euskadi.eus/procurements/companies/economic-activities/1.921.3"
            }
          }
        },
        {
          "id": "1.967.2",
          "name": "Escuelas y servicios de perfeccionamiento del deporte",
          "_links": {
            "self": {
              "name": "Escuelas y servicios de perfeccionamiento del deporte",
              "href": "https://api.euskadi.eus/procurements/companies/economic-activities/1.967.2"
            }
          }
        }
      ],
      "certificateStartDate": "2024-05-27",
      "certificateEndDate": "2024-11-22",
      "object": "A) PRESTACIÓN DE SERVICIOS DE ENSEÑANZA Y PERFECCIONAMIENTO DE CUALQUIER ACTIVIDAD RELACIONADA CON EL DEPORTE Y ESPECÍFICAMENTE LAS RELACIONADAS CON EL KÁRATE, OJUDO, AIKIDO, FULL CONTAC, YOGA, AEROBIC, DANZA, JAZZ, GIMNASIA DE MANTENIMIENTO, BALLET, BAILES DE SALON, DEFENSA PERSONAL, FITNESS, MUSCULACIÓN Y CARDIOVASCULARES. B) PRESTACIÓN DE SERVICIOS DE MASAJISTA, ESTETICISMO, SOLARIUM, TERMA Y REHABILITACIÓN. C) VENTA DE LOS ARTÍCULOS NECESARIOS PARA LA PRÁCTICA DE LAS ACTIVIDADES ENUMERADAS EN LOS APARTADOS ANTERIORES. D) VENTA AL MAYOR Y DISTRIBUCIÓN DE MATERIAL PARA EL EQUIPAMIENTO DE INSTALACIONES DEPORTIVAS. E) INSTALACIÓN, MANTENIMIENTO Y REPARACIÓN DE EQUIPAMIENTOS DE PISCINAS Y BALNEARIOS, PÚBLICOS Y PRIVADOS, ASÍ COMO DE COMUNIDADES DE VECINOS, INCLUYENDO LABORES DE FONTANERÍA, ELECTRICIDAD Y CONTROL DE LEGIONELLA. F) REPARACIÓN DE MÁQUINAS DE EQUIPAMIENTO DEPORTIVO",
      "mainEntityOfPage": "https://www.contratacion.euskadi.eus/webkpe00-kperoc/es/ac71aBusquedaRegistrosWar/empresa/04851",
      "_links": {
        "self": {
          "name": "KIROL NAGUSIA, S.L.",
          "href": "https://api.euskadi.eus/procurements/companies/04851"
        }
      }
    },
    {
      "name": "BERDINKIDE S. COOP. PEQUEÑA",
      "registrationNumber": "09612",
      "identificationNumber": "F67939256",
      "address": "BELUNTZABIDEA 59, 2º C",
      "location": {
        "postalCode": "01440",
        "municipality": "Urkabustaiz",
        "county": "Araba/Álava",
        "municipalityId": "054",
        "countyId": "01"
      },
      "economicActivities": [
        {
          "id": "1.849.9",
          "name": "Otros servicios independientes n.c.o.p",
          "_links": {
            "self": {
              "name": "Otros servicios independientes n.c.o.p",
              "href": "https://api.euskadi.eus/procurements/companies/economic-activities/1.849.9"
            }
          }
        }
      ],
      "certificateStartDate": "2024-05-24",
      "certificateEndDate": "2024-11-24",
      "object": "CONSULTORÍA DE IGUALDAD, SERVICIOS PSICOSOCIALES Y DE ASESORÍA A ENTIDADES Y PARTICULARES, ACTIVIDADES DE FORMACIÓN Y REALIZACIÓN DE PROYECTOS Y SUBVENCIONES PARA ENTIDADES.",
      "mainEntityOfPage": "https://www.contratacion.euskadi.eus/webkpe00-kperoc/es/ac71aBusquedaRegistrosWar/empresa/09612",
      "_links": {
        "self": {
          "name": "BERDINKIDE S. COOP. PEQUEÑA",
          "href": "https://api.euskadi.eus/procurements/companies/09612"
        }
      }
    },
    {
      "name": "PABLO CANALES ROMERO",
      "registrationNumber": "06679",
      "identificationNumber": "78908145K",
      "address": "Paseo La Magdalena (48800) 17B-4C",
      "location": {
        "postalCode": "48800",
        "municipality": "Balmaseda",
        "county": "Bizkaia",
        "municipalityId": "090",
        "countyId": "48"
      },
      "economicActivities": [
        {
          "id": "1.912",
          "name": "Servicios forestales",
          "_links": {
            "self": {
              "name": "Servicios forestales",
              "href": "https://api.euskadi.eus/procurements/companies/economic-activities/1.912"
            }
          }
        },
        {
          "id": "2.824",
          "name": "Profesores de formación y perfeccionamiento profesional",
          "_links": {
            "self": {
              "name": "Profesores de formación y perfeccionamiento profesional",
              "href": "https://api.euskadi.eus/procurements/companies/economic-activities/2.824"
            }
          }
        }
      ],
      "certificateStartDate": "2024-05-23",
      "certificateEndDate": "2024-11-23",
      "object": "SERVICIOS FORESTALES, PESCA-ACUICULTURA",
      "mainEntityOfPage": "https://www.contratacion.euskadi.eus/webkpe00-kperoc/es/ac71aBusquedaRegistrosWar/empresa/06679",
      "_links": {
        "self": {
          "name": "PABLO CANALES ROMERO",
          "href": "https://api.euskadi.eus/procurements/companies/06679"
        }
      }
    },
    {
      "name": "ETXEZABAL, S.L.",
      "registrationNumber": "04542",
      "identificationNumber": "B95554457",
      "address": "Avda. Barcelona 4-1ºA",
      "location": {
        "postalCode": "20014",
        "municipality": "Donostia / San Sebastián",
        "county": "Gipuzkoa",
        "municipalityId": "069",
        "countyId": "20"
      },
      "economicActivities": [
        {
          "id": "1.501.1",
          "name": "Construcción completa, reparación y conservación de edificaciones",
          "_links": {
            "self": {
              "name": "Construcción completa, reparación y conservación de edificaciones",
              "href": "https://api.euskadi.eus/procurements/companies/economic-activities/1.501.1"
            }
          }
        }
      ],
      "certificateStartDate": "2024-05-23",
      "certificateEndDate": "2024-11-23",
      "object": "LA REALIZACIÓN DE OBRAS DE CUALQUIER CLASE, ESTRUCTURAS DE HORMIGÓN, ALBAÑILERÍA, FONTANERÍA, CARPINTERÍA, Y OTRAS NECESARIAS PARA LA CONSTRUCCIÓN Y REHABILITACIÓN DE EDIFICIOS RÚSTICOS Y URBANOS, TANTO SI SE DESTINAN A USOS RESIDENCIALES (VIVIENDA), COMO COMERCIALES, INDUSTRIALES, DE SERVICIOS, AGRARIOS",
      "mainEntityOfPage": "https://www.contratacion.euskadi.eus/webkpe00-kperoc/es/ac71aBusquedaRegistrosWar/empresa/04542",
      "_links": {
        "self": {
          "name": "ETXEZABAL, S.L.",
          "href": "https://api.euskadi.eus/procurements/companies/04542"
        }
      }
    },
    {
      "name": "KYNDRYL ESPAÑA, S.A.",
      "registrationNumber": "08827",
      "identificationNumber": "A04975934",
      "address": "Santa Hortensia 26 - 28",
      "location": {
        "postalCode": "28002",
        "municipality": "Madrid",
        "county": "Madrid",
        "municipalityId": "079",
        "countyId": "28"
      },
      "economicActivities": [
        {
          "id": "1.504.1",
          "name": "Instalaciones eléctricas en general",
          "_links": {
            "self": {
              "name": "Instalaciones eléctricas en general",
              "href": "https://api.euskadi.eus/procurements/companies/economic-activities/1.504.1"
            }
          }
        },
        {
          "id": "1.769",
          "name": "Otros servicios de telecomunicaciones",
          "_links": {
            "self": {
              "name": "Otros servicios de telecomunicaciones",
              "href": "https://api.euskadi.eus/procurements/companies/economic-activities/1.769"
            }
          }
        },
        {
          "id": "1.845",
          "name": "Explotación electrónica por cuenta de terceros",
          "_links": {
            "self": {
              "name": "Explotación electrónica por cuenta de terceros",
              "href": "https://api.euskadi.eus/procurements/companies/economic-activities/1.845"
            }
          }
        },
        {
          "id": "1.849.9",
          "name": "Otros servicios independientes n.c.o.p",
          "_links": {
            "self": {
              "name": "Otros servicios independientes n.c.o.p",
              "href": "https://api.euskadi.eus/procurements/companies/economic-activities/1.849.9"
            }
          }
        }
      ],
      "certificateStartDate": "2024-05-23",
      "certificateEndDate": "2024-11-21",
      "object": "EL DISEÑO, DESARROLLO, GESTIÓN Y EXPLOTACIÓN DE SISTEMAS DE INFORMACIÓN BASADOS EN LA TECNOLOGÍA DE LA INFORMACIÓN, ASÍ COMO LA COMERCIALIZACIÓN DE PRODUCTOS Y SERVICIOS INFORMÁTICOS, YA DIRECTAMENTE O MEDIANTE CUALQUIER CONTRATO DE COLABORACIÓN. EL DISEÑO, INGENIERÍA, EJECUCIÓN MANTENIMIENTO, PUESTA EN MARCHA, CONSULTORÍA Y CONTROL DE CALIDAD DE INFRAESTRUCTURAS DE OBRA CIVIL, ELECTRICIDAD, CLIMATIZACIÓN, PROTECCIÓN CONTRA INCENDIOS, TELECOMUNICACIONES Y CONTROL, INCLUYENDO LA GESTIÓN INTEGRADA DE PROYECTOS, ASÍ COMO LA DIRECCIÓN TÉCNICA Y FACULTATIVA DE LAS OBRAS. TAMBIÉN SERÁ OBJETO DE LA COMPAÑÍA LA PRESTACIÓN Y EXPLOTACIÓN DE SERVICIOS PROFESIONALES DE CONSULTORÍA, ASÍ COMO DE INGENIERÍA DE COMUNICACIONES Y, EN GENERAL, TODA CLASE DE SERVICIOS DE OUTSOURCING.",
      "mainEntityOfPage": "https://www.contratacion.euskadi.eus/webkpe00-kperoc/es/ac71aBusquedaRegistrosWar/empresa/08827",
      "_links": {
        "self": {
          "name": "KYNDRYL ESPAÑA, S.A.",
          "href": "https://api.euskadi.eus/procurements/companies/08827"
        }
      }
    }
  ]
}