{
  "totalItems": 9042,
  "totalPages": 905,
  "currentPage": 304,
  "itemsOfPage": 10,
  "items": [
    {
      "name": "SERPOINTEK, S.L.",
      "registrationNumber": "10101",
      "identificationNumber": "B72776834",
      "address": "CL RODRIGUEZ ARIAS, 17 2 ",
      "location": {
        "postalCode": "48011",
        "municipality": "Bilbao",
        "county": "Bizkaia",
        "municipalityId": "020",
        "countyId": "48"
      },
      "economicActivities": [
        {
          "id": "1.849.9",
          "name": "Otros servicios independientes n.c.o.p",
          "_links": {
            "self": {
              "name": "Otros servicios independientes n.c.o.p",
              "href": "https://api.euskadi.eus/procurements/companies/economic-activities/1.849.9"
            }
          }
        }
      ],
      "certificateStartDate": "2025-09-03",
      "certificateEndDate": "2026-02-17",
      "object": "LOS SERVICIOS DE APROVISIONAMIENTO, ASESORAMIENTO, INGENIERÍA Y/O COMERCIALIZACIÓN DE PRODUCTOS SEMIELABORADOS.",
      "mainEntityOfPage": "https://www.contratacion.euskadi.eus/webkpe00-kperoc/es/ac71aBusquedaRegistrosWar/empresa/10101",
      "_links": {
        "self": {
          "name": "SERPOINTEK, S.L.",
          "href": "https://api.euskadi.eus/procurements/companies/10101"
        }
      }
    },
    {
      "name": "GERMÁN ECHEBARRIA, S.A.",
      "registrationNumber": "00719",
      "identificationNumber": "A48282156",
      "address": "POLIGONO MOIORDIN Nº 31",
      "location": {
        "postalCode": "48480",
        "municipality": "Zaratamo",
        "county": "Bizkaia",
        "municipalityId": "097",
        "countyId": "48"
      },
      "economicActivities": [
        {
          "id": "1.501.1",
          "name": "Construcción completa, reparación y conservación de edificaciones",
          "_links": {
            "self": {
              "name": "Construcción completa, reparación y conservación de edificaciones",
              "href": "https://api.euskadi.eus/procurements/companies/economic-activities/1.501.1"
            }
          }
        },
        {
          "id": "1.507",
          "name": "Construcción, reparación y conservación de toda clase obras",
          "_links": {
            "self": {
              "name": "Construcción, reparación y conservación de toda clase obras",
              "href": "https://api.euskadi.eus/procurements/companies/economic-activities/1.507"
            }
          }
        },
        {
          "id": "1.617.4",
          "name": "Venta al por mayor de materiales de construcción, vidrio y artículos instalación",
          "_links": {
            "self": {
              "name": "Venta al por mayor de materiales de construcción, vidrio y artículos instalación",
              "href": "https://api.euskadi.eus/procurements/companies/economic-activities/1.617.4"
            }
          }
        }
      ],
      "certificateStartDate": "2025-09-03",
      "certificateEndDate": "2026-03-02",
      "object": "LA CONSTRUCCIÓN DE OBRAS, URBANIZACIONES, CARRETERAS, EXCAVACIONES, ALQUILER DE MAQUINARIA DE LA CONSTRUCCIÓN, REPARACIÓN Y CONSERVACIÓN POR CUENTA PROPIA O DE TERCEROS. LA COMPRAVENTA Y ALQUILER DE EDIFICACIONES EN SU TOTALIDAD, POR PARTES O PARA LOCALES DE NEGOCIOS O INDUSTRIALES CONSTRUIDOS PARA TAL FIN, DIRECTAMENTE O POR MEDIO DE CONTRATISTAS, SUBCONTRATISTAS O EN CONSTRUCCIÓN, ASÍ COMO COMERCIO, AL POR MAYOR O MENOR DE CEMENTO, FIBROCEMENTO, ASFALTOS Y PRODUCTOS CONSTRUÍDOS A BASE DE ELLOS, TALES COMO VIGAS DE HORMIGÓN ARMADO, TUBOS Y PLANCHAS DE URALITA Y OTRA MATERIA SIMILAR Y DE COLUMNAS O SURTIDORES U OTROS ARTÍCULOS PARA LA ORNAMENTACIÓN DE LAS CONSTRUCCIONES. ASIMISMO LA SOCIEDAD PODRA ADQUIRIR, ENAJENAR, ARRENDAR, TENER, DISFRUTAR Y DISPONER DE CUALQUIER FORMA DE TODA CLASE DE BIENES INMUEBLES, ACCIONES, PARTICIPACIONES SOCIALES, OBLIGACIONES, BONOS DE CAJA, CERTIFICADOS DE DEPÓSITO DE TODA CLASE DE EMPRESAS Y NEGOCIOS.",
      "mainEntityOfPage": "https://www.contratacion.euskadi.eus/webkpe00-kperoc/es/ac71aBusquedaRegistrosWar/empresa/00719",
      "_links": {
        "self": {
          "name": "GERMÁN ECHEBARRIA, S.A.",
          "href": "https://api.euskadi.eus/procurements/companies/00719"
        }
      }
    },
    {
      "name": "EDUARDO ARRONA ECHEVERRIA",
      "registrationNumber": "09824",
      "identificationNumber": "15396770H",
      "address": "SAN ROKE Nº 10-1º A",
      "location": {
        "postalCode": "20870",
        "municipality": "Elgoibar",
        "county": "Gipuzkoa",
        "municipalityId": "032",
        "countyId": "20"
      },
      "economicActivities": [
        {
          "id": "1.722",
          "name": "Transporte de mercancías por carretera",
          "_links": {
            "self": {
              "name": "Transporte de mercancías por carretera",
              "href": "https://api.euskadi.eus/procurements/companies/economic-activities/1.722"
            }
          }
        }
      ],
      "certificateStartDate": "2025-09-02",
      "certificateEndDate": "2026-02-26",
      "object": "TRANSPORTE DE MERCANCÍAS POR CARRETERA.",
      "mainEntityOfPage": "https://www.contratacion.euskadi.eus/webkpe00-kperoc/es/ac71aBusquedaRegistrosWar/empresa/09824",
      "_links": {
        "self": {
          "name": "EDUARDO ARRONA ECHEVERRIA",
          "href": "https://api.euskadi.eus/procurements/companies/09824"
        }
      }
    },
    {
      "name": "KONEKTA COMUNICACION Y MARKETING SOCIAL SL",
      "registrationNumber": "10089",
      "identificationNumber": "B56633563",
      "address": "ZABALBIDE, 73-1D",
      "location": {
        "postalCode": "48007",
        "municipality": "Bilbao",
        "county": "Bizkaia",
        "municipalityId": "020",
        "countyId": "48"
      },
      "economicActivities": [
        {
          "id": "1.844",
          "name": "Servicios de publicidad, relaciones públicas y similares",
          "_links": {
            "self": {
              "name": "Servicios de publicidad, relaciones públicas y similares",
              "href": "https://api.euskadi.eus/procurements/companies/economic-activities/1.844"
            }
          }
        }
      ],
      "certificateStartDate": "2025-09-02",
      "certificateEndDate": "2026-02-28",
      "object": "CONSULTORÍA EXTERNA DE COMUNICACIÓN Y MARKETING SOCIAL. AGENCIA DE PUBLICIDAD Y RELACIONES PÚBLICAS.",
      "mainEntityOfPage": "https://www.contratacion.euskadi.eus/webkpe00-kperoc/es/ac71aBusquedaRegistrosWar/empresa/10089",
      "_links": {
        "self": {
          "name": "KONEKTA COMUNICACION Y MARKETING SOCIAL SL",
          "href": "https://api.euskadi.eus/procurements/companies/10089"
        }
      }
    },
    {
      "name": "IN-KOMUNIKAZIOA GLOBAL COMMUNICATION 2.6, S.L.",
      "registrationNumber": "07634",
      "identificationNumber": "B42736322",
      "address": "Zugatzarte Etorbidea 32",
      "location": {
        "postalCode": "48930",
        "municipality": "Getxo",
        "county": "Bizkaia",
        "municipalityId": "044",
        "countyId": "48"
      },
      "economicActivities": [
        {
          "id": "1.844",
          "name": "Servicios de publicidad, relaciones públicas y similares",
          "_links": {
            "self": {
              "name": "Servicios de publicidad, relaciones públicas y similares",
              "href": "https://api.euskadi.eus/procurements/companies/economic-activities/1.844"
            }
          }
        }
      ],
      "certificateStartDate": "2025-09-02",
      "certificateEndDate": "2026-03-01",
      "object": "REALIZACIÓN DE TAREAS DE COMUNICACIÓN CORPORATIVA (PLANES, DIAGNÓSTICOS, ESTRATEGIAS, GABINETES DE CRISIS, NOTAS Y RUEDAS DE PRENSA). PRODUCCIÓN AUDIOVISUAL (CONFECCIÓN Y DISTRIBUCIÓN DE CONTENIDOS, VÍDEO Y FOTOGRAFÍAS EN GENERAL) CREACIÓN GESTIÓN INTEGRAL DE PÁGINAS WEB, REDES SOCIALES Y OTROS SOPORTES DIGITALES. DISEÑO GRÁFICO. MERCHANDISING. EVENTOS (ORGANIZACIÓN TOTAL O PARCIAL Y RETRANSMISIÓN PÚBLICA Y PRIVADA \"STREAMING\") TRADUCCIÓN. DENTRO DE CUYAS ACTIVIDADES, ES LA PRINCIPAL LA DE \"TAREAS DE COMUNICACIÓN DE CONTENIDOS ESCRITOS Y AUDIOVISUALES POR DIFERENTES CANALES Y EN DIFERENTES SOPORTES\", IDENTIFICADA BAJO EL EPÍGRAFE 7021 DEL CNAE-2009",
      "mainEntityOfPage": "https://www.contratacion.euskadi.eus/webkpe00-kperoc/es/ac71aBusquedaRegistrosWar/empresa/07634",
      "_links": {
        "self": {
          "name": "IN-KOMUNIKAZIOA GLOBAL COMMUNICATION 2.6, S.L.",
          "href": "https://api.euskadi.eus/procurements/companies/07634"
        }
      }
    },
    {
      "name": "ZIENTZIA BIZIRIK, S.L.",
      "registrationNumber": "09540",
      "identificationNumber": "B95711099",
      "address": "Pol. Indus. Pinoa - Local 16 Bis",
      "location": {
        "postalCode": "48170",
        "municipality": "Zamudio",
        "county": "Bizkaia",
        "municipalityId": "905",
        "countyId": "48"
      },
      "economicActivities": [
        {
          "id": "1.934",
          "name": "Enseñanza fuera de establecimiento permanente",
          "_links": {
            "self": {
              "name": "Enseñanza fuera de establecimiento permanente",
              "href": "https://api.euskadi.eus/procurements/companies/economic-activities/1.934"
            }
          }
        }
      ],
      "certificateStartDate": "2025-09-02",
      "certificateEndDate": "2026-02-27",
      "object": "PRESTACIÓN DE SERVICIOS. ACTIVIDADES DE GESTIÓN Y ADMINISTRACIÓN. SERVICIOS EDUCATIVOS, SANITARIOS, DE OCIO Y ENTRETENIMIENTO.",
      "mainEntityOfPage": "https://www.contratacion.euskadi.eus/webkpe00-kperoc/es/ac71aBusquedaRegistrosWar/empresa/09540",
      "_links": {
        "self": {
          "name": "ZIENTZIA BIZIRIK, S.L.",
          "href": "https://api.euskadi.eus/procurements/companies/09540"
        }
      }
    },
    {
      "name": "ANSOLA BASTIDA ARKITEKTOAK, S.L.P.",
      "registrationNumber": "08181",
      "identificationNumber": "B75191924",
      "address": "ERROSARIO 19 BAJO",
      "location": {
        "postalCode": "20870",
        "municipality": "Elgoibar",
        "county": "Gipuzkoa",
        "municipalityId": "032",
        "countyId": "20"
      },
      "economicActivities": [
        {
          "id": "1.843.2",
          "name": "Servicios técnicos de arquitectura y urbanismo",
          "_links": {
            "self": {
              "name": "Servicios técnicos de arquitectura y urbanismo",
              "href": "https://api.euskadi.eus/procurements/companies/economic-activities/1.843.2"
            }
          }
        }
      ],
      "certificateStartDate": "2025-09-02",
      "certificateEndDate": "2026-08-11",
      "object": "LA PRESTACIÓN DE SERVICIOS DE ARQUITECTURA EN GENERAL ASÍ COMO COORDINACIÓN DE GREMIOS Y CONSTRUCCION",
      "mainEntityOfPage": "https://www.contratacion.euskadi.eus/webkpe00-kperoc/es/ac71aBusquedaRegistrosWar/empresa/08181",
      "_links": {
        "self": {
          "name": "ANSOLA BASTIDA ARKITEKTOAK, S.L.P.",
          "href": "https://api.euskadi.eus/procurements/companies/08181"
        }
      }
    },
    {
      "name": "INSTALACIONES Y MONTAJES ELÉCTRICOS DEL VALLE AGUAYO, S.A.",
      "registrationNumber": "00592",
      "identificationNumber": "A01035930",
      "address": "C/ LANDALUCIA, Nº 10 - BAJO.",
      "location": {
        "postalCode": "01015",
        "municipality": "Vitoria-Gasteiz",
        "county": "Araba/Álava",
        "municipalityId": "059",
        "countyId": "01"
      },
      "economicActivities": [
        {
          "id": "1.151.4",
          "name": "Producción de energía no especificada en otros epígrafes",
          "_links": {
            "self": {
              "name": "Producción de energía no especificada en otros epígrafes",
              "href": "https://api.euskadi.eus/procurements/companies/economic-activities/1.151.4"
            }
          }
        },
        {
          "id": "1.504.1",
          "name": "Instalaciones eléctricas en general",
          "_links": {
            "self": {
              "name": "Instalaciones eléctricas en general",
              "href": "https://api.euskadi.eus/procurements/companies/economic-activities/1.504.1"
            }
          }
        },
        {
          "id": "1.936",
          "name": "Investigación científica y técnica",
          "_links": {
            "self": {
              "name": "Investigación científica y técnica",
              "href": "https://api.euskadi.eus/procurements/companies/economic-activities/1.936"
            }
          }
        }
      ],
      "certificateStartDate": "2025-09-02",
      "certificateEndDate": "2026-02-27",
      "object": "LA INSTALACIÓN Y MONTAJE DE APARATOS ELÉCTRICOS Y SUS ACCESORIOS EN SU MÁS AMPLIO SENTIDO, TANTO INDUSTRIALES COMO DOMÉSTICOS. INSTALACIONES ELÉCTRICAS EN GENERAL. INSTALACIÓN DE REDES INFORMÁTICAS, TELEFÓNICAS, TELEFONÍA SIN HILOS Y TELEVISIÓN. INSTALACIONES DE SISTEMAS DE BALIZACIÓN DE PUERTOS Y AEROPUERTOS. INSTALACÍÓN DE CENTROS DE TRASFORMACIÓN, SUBESTACIONES, ALUMBRADOS, LÍNEAS AÉREAS Y SUBTERRÁNEAS, GENERACIÓN ELÉCTRICA. DIRECCIÓN Y EJECUCIÓN DE TODA CLASE DE OBRAS, INSTALACIONES, MONTAJES, MANTENIMIENTOS, TELECOMUNICACIONES, AUTOMATISMOS Y PROGRAMACIÓN, ELABORACIÓN DE PROYECTOS E INGENIERÍA",
      "mainEntityOfPage": "https://www.contratacion.euskadi.eus/webkpe00-kperoc/es/ac71aBusquedaRegistrosWar/empresa/00592",
      "_links": {
        "self": {
          "name": "INSTALACIONES Y MONTAJES ELÉCTRICOS DEL VALLE AGUAYO, S.A.",
          "href": "https://api.euskadi.eus/procurements/companies/00592"
        }
      }
    },
    {
      "name": "PINTURAS DEL NORTE 1963, S.L.",
      "registrationNumber": "07483",
      "identificationNumber": "B01597939",
      "address": "AVENIDA MIRAFLORES, 12",
      "location": {
        "postalCode": "48004",
        "municipality": "Bilbao",
        "county": "Bizkaia",
        "municipalityId": "020",
        "countyId": "48"
      },
      "economicActivities": [
        {
          "id": "1.614.2",
          "name": "Venta al por mayor de productos de perfumería, droguería, higiene y belleza",
          "_links": {
            "self": {
              "name": "Venta al por mayor de productos de perfumería, droguería, higiene y belleza",
              "href": "https://api.euskadi.eus/procurements/companies/economic-activities/1.614.2"
            }
          }
        },
        {
          "id": "1.652.2",
          "name": "Venta al por menor de productos de droguería y productos para decoración",
          "_links": {
            "self": {
              "name": "Venta al por menor de productos de droguería y productos para decoración",
              "href": "https://api.euskadi.eus/procurements/companies/economic-activities/1.652.2"
            }
          }
        }
      ],
      "certificateStartDate": "2025-09-02",
      "certificateEndDate": "2026-02-28",
      "object": "LA COMPRA, VENTA, EXPORTACIÓN, IMPORTACIÓN Y COMERCIALIZACIÓN DE TODA CLASE DE PRODUCTOS QUÍMICOS, PINTURAS, BARNICES Y TODA CLASE DE DISOLVENTES, ASÍ COMO LA REPRESENTACIÓN COMO AGENTE, COMISIONISTA, DELEGADO O CUALQUIER OTRA FORMA DE MEDIACIÓN MERCANTIL DE TODA CLASE DE EMPRESAS NACIONALES Y EXTRANJERAS, EN GENERAL, BIEN DIRECTAMENTE O POR MEDIO DE SUBCONTRATISTAS O DESTAJISTAS",
      "mainEntityOfPage": "https://www.contratacion.euskadi.eus/webkpe00-kperoc/es/ac71aBusquedaRegistrosWar/empresa/07483",
      "_links": {
        "self": {
          "name": "PINTURAS DEL NORTE 1963, S.L.",
          "href": "https://api.euskadi.eus/procurements/companies/07483"
        }
      }
    },
    {
      "name": "TALLERES OLABIDE, S.L.",
      "registrationNumber": "08492",
      "identificationNumber": "B95881801",
      "address": "AITA GOTZON 40-BIS POLIGONO IGELTZERA",
      "location": {
        "postalCode": "48610",
        "municipality": "Urduliz",
        "county": "Bizkaia",
        "municipalityId": "089",
        "countyId": "48"
      },
      "economicActivities": [
        {
          "id": "1.691.2",
          "name": "Reparación de vehículos automóviles, bicicletas y otros vehículos",
          "_links": {
            "self": {
              "name": "Reparación de vehículos automóviles, bicicletas y otros vehículos",
              "href": "https://api.euskadi.eus/procurements/companies/economic-activities/1.691.2"
            }
          }
        }
      ],
      "certificateStartDate": "2025-09-02",
      "certificateEndDate": "2026-02-28",
      "object": "EL DESARROLLO DE LAS ACTIVIDADES CORRESPONDIENTES A LOS SIGUIENTES CÓDIGOS Y DESCRIPCIONES DE LA CLASIFICACIÓN NACIONAL DE ACTIVIDADES ECONÓMICAS: ACTIVIDAD PRINCIPAL: CNAE: 4520.- MANTENIMIENTO Y REPARACIÓN DE VEHÍCULOS DE MOTOR.",
      "mainEntityOfPage": "https://www.contratacion.euskadi.eus/webkpe00-kperoc/es/ac71aBusquedaRegistrosWar/empresa/08492",
      "_links": {
        "self": {
          "name": "TALLERES OLABIDE, S.L.",
          "href": "https://api.euskadi.eus/procurements/companies/08492"
        }
      }
    }
  ]
}