{
  "totalItems": 9042,
  "totalPages": 905,
  "currentPage": 658,
  "itemsOfPage": 10,
  "items": [
    {
      "name": "PCI SECURITY DOCTORS, S.L.",
      "registrationNumber": "03299",
      "identificationNumber": "B01362896",
      "address": "ALBERT EINSTEIN, 46. OF 003. EDIF. E7. MIÑANO",
      "location": {
        "postalCode": "01510",
        "municipality": "Vitoria-Gasteiz",
        "county": "Araba/Álava",
        "municipalityId": "059",
        "countyId": "01"
      },
      "economicActivities": [
        {
          "id": "1.615.4",
          "name": "Venta al por mayor de aparatos y material radioeléctrico y electrónico",
          "_links": {
            "self": {
              "name": "Venta al por mayor de aparatos y material radioeléctrico y electrónico",
              "href": "https://api.euskadi.eus/procurements/companies/economic-activities/1.615.4"
            }
          }
        },
        {
          "id": "1.849.4",
          "name": "Servicios de custodia, seguridad y protección",
          "_links": {
            "self": {
              "name": "Servicios de custodia, seguridad y protección",
              "href": "https://api.euskadi.eus/procurements/companies/economic-activities/1.849.4"
            }
          }
        }
      ],
      "certificateStartDate": "2015-07-15",
      "certificateEndDate": "2015-12-22",
      "object": "A) VIGILANCIA Y PROTECCIÓN DE BIENES, ESTABLECIMIENTOS, ESPECTÁCULOS, CERTÁMENES O CONVENCIONES; B) PROTECCIÓN DE PERSONAS DETERMINADAS, PREVIA LA AUTORIZACIÓN  CORRESPONDIENTE; C) DEPÓSITO, CUSTODIA,  RECUENTO Y CLASIFICACIÓN DE MONEDAS Y BILLETES, TÍTULOS-VALORES Y DEMÁS OBJETOS QUE, POR SU VALOR ECONÓMICO Y EXPECTATIVAS QUE GENEREN, O POR SU PELIGROSIDAD, PUEDAN REQUERIR PROTECCIÓN ESPECIAL, SIN PERJUICIO DE LAS ACTIVIDADES PROPIAS DE LAS ENTIDADES FINANCIERAS; D) TRANSPORTE Y DISTRIBUCIÓN DE LOS OBJETOS A QUE SE REFIERE EL APARTADO ANTERIOR A TRAVÉS DE LOS DISTINTOS MEDIOS, REALIZÁNDOLOS, EN SU CASO, MEDIANTE VEHÍCULOS CUYAS CARACTERÍSTICAS SERÁN DETERMINADAS POR EL MINISTERIO DE INTERIOR, DE FORMA QUE NO PUEDAN CONFUNDIRSE  CON LOS DE LAS FUERZAS ARMADAS NI CON LOS DE LAS FUERZAS Y CUERPOS DE SEGURIDAD; E) LA INSTALACIÓN Y MANTENIMIENTO DE APARATOS, DISPOSITIVOS Y SISTEMAS DE SEGURIDAD E INCENDIOS. F) LA EXPLOTACIÓN DE CENTRALES PARA LA RECEPCIÓN, VERIFICACIÓN Y TRANSMISIÓN DE LAS SEÑALES DE ALARMA Y SU COMUNICACIÓN A LAS FUERZAS Y CUERPOS DE SEGURIDAD, ASÍ COMO PRESTACIÓN DE SERVICIOS DE RESPUESTA CUYA REALIZACIÓN NO SEA DE LA COMPETENCIA DE DICHAS FUERZAS Y CUERPOS; G) PLANIFICACIÓN Y ASESORAMIENTO DE LAS ACTIVIDADES DE SEGURIDAD CONTEMPLADAS EN ESTA LEY",
      "mainEntityOfPage": "https://www.contratacion.euskadi.eus/webkpe00-kperoc/es/ac71aBusquedaRegistrosWar/empresa/03299",
      "_links": {
        "self": {
          "name": "PCI SECURITY DOCTORS, S.L.",
          "href": "https://api.euskadi.eus/procurements/companies/03299"
        }
      }
    },
    {
      "name": "DELFIN REGALOS DE EMPRESA, S.L.",
      "registrationNumber": "02271",
      "identificationNumber": "B01266998",
      "address": "CORRERIA, 75 ",
      "location": {
        "postalCode": "01001",
        "municipality": "Vitoria-Gasteiz",
        "county": "Araba/Álava",
        "municipalityId": "059",
        "countyId": "01"
      },
      "economicActivities": [
        {
          "id": "1.844",
          "name": "Servicios de publicidad, relaciones públicas y similares",
          "_links": {
            "self": {
              "name": "Servicios de publicidad, relaciones públicas y similares",
              "href": "https://api.euskadi.eus/procurements/companies/economic-activities/1.844"
            }
          }
        }
      ],
      "certificateStartDate": "2015-07-13",
      "certificateEndDate": "2015-06-09",
      "object": "LA IMPORTACIÓN, EXPORTACIÓN , DISTRIBUCIÓN, COMPRAVENTA Y FABRICACIÓN DE TODO TIPO DE  ARTÍCULOS DE REGALO, DESTINADOS A EMPRESAS Y PARTICULARES ",
      "mainEntityOfPage": "https://www.contratacion.euskadi.eus/webkpe00-kperoc/es/ac71aBusquedaRegistrosWar/empresa/02271",
      "_links": {
        "self": {
          "name": "DELFIN REGALOS DE EMPRESA, S.L.",
          "href": "https://api.euskadi.eus/procurements/companies/02271"
        }
      }
    },
    {
      "name": "COMAS, AUDITORES-CONSULTORES, S.L.",
      "registrationNumber": "03218",
      "identificationNumber": "B20223079",
      "address": "MIRACRUZ, 4 - 1ºDCHA.",
      "location": {
        "postalCode": "20001",
        "municipality": "Donostia / San Sebastián",
        "county": "Gipuzkoa",
        "municipalityId": "069",
        "countyId": "20"
      },
      "economicActivities": [
        {
          "id": "1.842",
          "name": "Servicios financieros y contables",
          "_links": {
            "self": {
              "name": "Servicios financieros y contables",
              "href": "https://api.euskadi.eus/procurements/companies/economic-activities/1.842"
            }
          }
        }
      ],
      "certificateStartDate": "2015-07-03",
      "certificateEndDate": "2015-12-28",
      "object": "LA PRESTACIÓN DE SERVICIOS PROFESIONALES DE AUDITORÍA DE CUENTAS EN LOS TÉRMINOS EXPUESTOS EN LA LEY 19/1988 Y NORMAS QUE LA DESARROLLAN, LA AUDITORÍA OPERATIVA, INFORMÁTICA Y DE SISTEMAS.\r\nLA ASESORÍA Y GESTIÓN TRIBUTARIA Y FISCAL, ECONÓMICA, FINANCIERA, JURÍDICA Y LABORAL.\r\nEL ASESORAMIENTO, ESTUDIOS Y PROYECTOS DE INVERSIÓN. LA CONSTITUCIÓN, DISOLUCIÓN, FUSIÓN, ABSORCIÓN, TRANSFORMACIÓN Y VALORACIÓN DE EMPRESAS. LA ORGANIZACIÓN, ASESORAMIENTO Y GESTIÓN CONTABLE, ASÍ COMO EL PROCESO DE DATOS Y TRATAMIENTO DE LA INFORMACIÓN EMPRESARIAL. LA ADMINISTRACIÓN Y GESTIÓN DE PATRIMONIOS Y EMPRESAS.\r\nEL CAMPO DE ACTUACIÓN DE LA PRESTACIÓN DE SUS SERVICIOS PROFESIONALES SE AJUSTARÁ EN TODO CASO AL CAMPO DE LA ECONOMÍA GENERAL O DE LA EMPRESA, ASÍ COMO EL ASESORAMIENTO JURÍDICO EMPRESARIAL ",
      "mainEntityOfPage": "https://www.contratacion.euskadi.eus/webkpe00-kperoc/es/ac71aBusquedaRegistrosWar/empresa/03218",
      "_links": {
        "self": {
          "name": "COMAS, AUDITORES-CONSULTORES, S.L.",
          "href": "https://api.euskadi.eus/procurements/companies/03218"
        }
      }
    },
    {
      "name": "CONSTRUCCIONES IÑADI, S.A.L.",
      "registrationNumber": "02315",
      "identificationNumber": "A20703955",
      "address": "PASEO DE LOS OLMOS, 20- BAJO",
      "location": {
        "postalCode": "20000",
        "municipality": "Donostia / San Sebastián",
        "county": "Gipuzkoa",
        "municipalityId": "069",
        "countyId": "20"
      },
      "economicActivities": [
        {
          "id": "1.507",
          "name": "Construcción, reparación y conservación de toda clase obras",
          "_links": {
            "self": {
              "name": "Construcción, reparación y conservación de toda clase obras",
              "href": "https://api.euskadi.eus/procurements/companies/economic-activities/1.507"
            }
          }
        },
        {
          "id": "1.833.2",
          "name": "Promoción de edificaciones",
          "_links": {
            "self": {
              "name": "Promoción de edificaciones",
              "href": "https://api.euskadi.eus/procurements/companies/economic-activities/1.833.2"
            }
          }
        }
      ],
      "certificateStartDate": "2015-06-26",
      "certificateEndDate": "2015-12-26",
      "object": "LA EJECUCIÓN COMPLETA DE OBRAS, POR CUENTA PROPIA Y DE TERCEROS, DE EDIFICACIÓN URBANA, INDUSTRIAL, URBANIZACIÓN, SANEAMIETO Y ABASTECIMIENTO DE AGUA Y OTROS SERVICIOS PÚBLICOS, EXCAVACIONES, MOVIMIENTO DE TIERRAS, CARRETERAS, FERROCARRILES, HIDRÁULICAS, RIEGOS, PUERTOS Y AEROPUERTOS, DRAGADOS Y SIMILARES, TANTO SEAN NUEVAS COMO DE REPARACIÓN Y CONSERVACIÓN DE LAS MISMAS; PROMOCIÓN DE PLANES DE ORDENACIÓN URBANA, PARCELACIÓN Y REPARCELACIÓN; CONSTRUCCIÓN DE OBRAS PÚBLICAS Y PRIVADAS DE TODO GÉNERO Y DEMÁS OPERACIONES CON ELLO RELACIONADAS COMO COMPRA DE TERRENOS Y SOLARES, SU DIVISIÓN Y URBANIZACIÓN, VENTA DE PARCELAS, USO, ARRENDAMIENTO Y VENTA DE VIVIENDAS Y LOCALES COMERCIALES O INDUSTRIALES",
      "mainEntityOfPage": "https://www.contratacion.euskadi.eus/webkpe00-kperoc/es/ac71aBusquedaRegistrosWar/empresa/02315",
      "_links": {
        "self": {
          "name": "CONSTRUCCIONES IÑADI, S.A.L.",
          "href": "https://api.euskadi.eus/procurements/companies/02315"
        }
      }
    },
    {
      "name": "INDESA 2010, S.L.",
      "registrationNumber": "04689",
      "identificationNumber": "B01480334",
      "address": "C/ ARRASATE, 3",
      "location": {
        "postalCode": "01013",
        "municipality": "Vitoria-Gasteiz",
        "county": "Araba/Álava",
        "municipalityId": "059",
        "countyId": "01"
      },
      "economicActivities": [
        {
          "id": "1.677.9",
          "name": "Otros servicios de alimentación propios de la restauración",
          "_links": {
            "self": {
              "name": "Otros servicios de alimentación propios de la restauración",
              "href": "https://api.euskadi.eus/procurements/companies/economic-activities/1.677.9"
            }
          }
        },
        {
          "id": "1.922.1",
          "name": "Servicios de limpieza de interiores",
          "_links": {
            "self": {
              "name": "Servicios de limpieza de interiores",
              "href": "https://api.euskadi.eus/procurements/companies/economic-activities/1.922.1"
            }
          }
        },
        {
          "id": "1.971.1",
          "name": "Tinte, limpieza en seco, lavado y planchado de ropas",
          "_links": {
            "self": {
              "name": "Tinte, limpieza en seco, lavado y planchado de ropas",
              "href": "https://api.euskadi.eus/procurements/companies/economic-activities/1.971.1"
            }
          }
        },
        {
          "id": "1.999",
          "name": "Otros servicios n.c.o.p",
          "_links": {
            "self": {
              "name": "Otros servicios n.c.o.p",
              "href": "https://api.euskadi.eus/procurements/companies/economic-activities/1.999"
            }
          }
        }
      ],
      "certificateStartDate": "2015-06-23",
      "certificateEndDate": "2015-12-20",
      "object": "1. CREAR OPORTUNIDADES DE EMPLEO DE CALIDAD Y SOSTENIBLES, SOCIAL ECONÓMICA Y AMBIENTALMENTE, PARA PERSONAS CON DISCAPACIDAD DE ALAVA, COMO MEDIO DE LOGRAR SU INCLUSIÓN LABORALY SOCIAL. 2. LA SOCIEDAD PROMOCIONARÁ CUALQUIER ACIVIDAD CONTEMPLADA POR LA LEGISLACIÓN ACTUAL O FUTURA, QUE FACILITE LA INCLUSIÓN DE LAS PERSONAS CON DISCAPACIDAD EN EL EMPLEO ORDINARIO, ASÍ COMO ACTIVIDADES DE SERVICIOS DIRIGIDOS A LAS PERSONAS, A LA SOCIEDAD O A LA INDUSTRIA, EN GENERAL, SIN LÍMITE ALGUNO, SALVO LOS EXPRESADOS EN SU OBJETO SOCIAL, QUE SIRVAN DE MEDIO DE EMPLEO DE PERSONAS CON DISCAPACIDAD, E IMPLSARÁ LA COLABORACIÓN CON LOS SERIVCIOS PÚBICOS DE EMPLEO CON EL FIN DE CAPACITAR Y ORIENTAR LABORALMENTE A LAS PERSONAS CON DISCAPACIAD, ASÍ COMO EN LA INTERMEDIACIÓN LABORAL QUE PROCURE UN EMPLEO A COLECTVOS DE DIFÍCIL EMPLEABILIDAD, BIEN EN EL AMBITO DEL EMPLO PROTEGIDO O EN EL ORDINARIO. 3. LA SOCIEDAD TENDRÁ COMO OBJETO SOCIAL EL DESARROLLO DE LAS SIGUIENTES ACTIVIDADES QUE ESTARÁ OBLIGADA A REALIZAR, DE CONFORMIDAD CON EL RÉGIMEN JURÍDICO RECOGIDO EN ESTOS ESTATUTOS, EN LA MEDIDA EN LA QUE LE SEAN ENCOMENDADAS POR LAS ADMINISTRACIONES PUBLICAS O LOS PODERES ADJUDICADORES REFERIDOSEN EL ARTÍCULO PRECEDENTE RESPECTO DE LOS CUALES ES MEDIO PROPIO INSTRUMENTAL Y SERVICIO TECNICO: SERVICIOS A LAS PERSONAS: LIMPIEZA, LAVANDERÍA Y RESTAURACIÓN EN EL ÁMBITO RESIDENCIAL, Y CUALQUIER OTRA ACTIVIDAD QUE, ACTUALMENTE O EN EL FUTURO SEA CONVENIENTE PARA EL CUMPLIMIENTO DE LOS OBJETIVOS DE INDESA; SERVICIOS A LA SOCIEDAD: LIMPIEZA DE EDIFICIOS, LAVANDERÍA DE ROPA RESIDENCIAL U HOSPITALARIA, MANTENIMIENTO DE ZONAS VERDES, RESTAURACIÓN Y CUALQUIER OTRA ACTIVIDAD QUE, ACTUALMENTE O EN EL FUTURO SEA CONVENIENTE PARA EL CUMPLIMIENTO DE LOS OBJETIVOS DE INDESA; SERVICIOS ALA INDUSTRIA, EN GENERAL: ACTIVIDADES ESPECIALIZADAS O PROPIASDE LA INDUSTRIA, TANTO CUANDO FORMEN PARTE DE SU PROCESO PRODUCTIVO, COMO CUANDO SE TRATEN DE ACTIVIDADES O SERVICIOS AUXILIARES, PERO PRECISOS PARA LLEVAR A CABO LA ACTIVIDADINDUSTRIAL, EN SU PLENITUD. (MANIPULADOS, MECANIZADOS, MONTAJES, COMPRA DE MERCADERÍAS, LOGÍSTICA, ADMINISTRACIÓN, EMBALAJES Y CUALQUIER OTRA ACTIVIDAD QUE, ACTUALMENTE O EN EL FUTURO SEA CONVENIENTE PARA EL CUMPLIMIENTO DE LOS OBJETIVOS DE INDESA). 4. LA SOCIEDAD PODRÁ DESARROLLAR LAS ACTIVIDADES INTEGRANTES DE SU OBJETO SOCIAL, TOTAL O PARCIALMENTE, DE MODO INDIRECTO MEDIANTE LA TITULARIDAD DE ACCIONES O DE PARTICIPACIONES EN SOCIEDADES CON OBJETO IDÉNTICO O ANÁLOGO. ASÍ MISMO, PODRÁ COLABORAR CON OTRAS EMPRESAS POR TIEMPO CIERTO, DETERMINADO O INDETERMINADO, A TRAVÉS DE ALIANZAS ESTRATÉGICAS, UNIONES TEMPORALES DE EMPRESAS O AGRUPACIONES DE INTERÉS ECONÓMICO, REGULADAS POR LA LEY 12/1991, DE 30 DE ABRIL. LAS ACTUACIONES RECOGIDAS EN ESTE APARTADO QUEDARÁN CONDICIONADAS, SIN PERJUICIO DEL CUMPLIMIENTO DE LOS TRÁMITES QUE, EN CADA CASO PROCEDAN, A LA AUTORIZACIÓN PREVIA Y EXPRESA DE LAS MISMAS POR EL CONSEJO DE ADMINISTRACIÓN",
      "mainEntityOfPage": "https://www.contratacion.euskadi.eus/webkpe00-kperoc/es/ac71aBusquedaRegistrosWar/empresa/04689",
      "_links": {
        "self": {
          "name": "INDESA 2010, S.L.",
          "href": "https://api.euskadi.eus/procurements/companies/04689"
        }
      }
    },
    {
      "name": "INGENOR INGENIERIA Y ARQUITECTURA, S.L.",
      "registrationNumber": "04311",
      "identificationNumber": "B01407857",
      "address": "SANTIAGO DE COMPOSTELA, 12-2º A",
      "location": {
        "postalCode": "48003",
        "municipality": "Bilbao",
        "county": "Bizkaia",
        "municipalityId": "020",
        "countyId": "48"
      },
      "economicActivities": [
        {
          "id": "1.843.1",
          "name": "Servicios técnicos de ingeniería",
          "_links": {
            "self": {
              "name": "Servicios técnicos de ingeniería",
              "href": "https://api.euskadi.eus/procurements/companies/economic-activities/1.843.1"
            }
          }
        },
        {
          "id": "1.843.2",
          "name": "Servicios técnicos de arquitectura y urbanismo",
          "_links": {
            "self": {
              "name": "Servicios técnicos de arquitectura y urbanismo",
              "href": "https://api.euskadi.eus/procurements/companies/economic-activities/1.843.2"
            }
          }
        }
      ],
      "certificateStartDate": "2015-06-20",
      "certificateEndDate": "2015-12-19",
      "object": "A) ASESORAMIENTO TÉCNICO, ESTUDIOS, INGENIERIA, CONSULTORÍA, SUMINISTROS, MONTAJE Y PUESTA EN MARCHA DE INSTALACIONES Y EDIFICACIONES EN EL SECTOR INDUSTRIAL Y TERCIARIO.\r\n\r\nB)  ESTUDIAR Y ELABORAR INFORMES, ESTUDIOS, PLANES, ANTEPROYECTOS, DE CARACTER TÉCNICO, ORGANIZATIVO O SOCIAL, CONTROL DE LA EJECUCIÓN Y MANTENIMIENTO DE OBRA, INSTALACIONES Y DE LA IMPLANTACIÓN DE SISTEMAS ORGANIZATIVOS.\r\n\r\nC) LLEVAR A CABO EN COLABORACIÓN CON LA ADMINSITRACIÓN Y BAJO SU SUPERVISIÓN LAS SIGUIENTES PRESTACIONES: -) TOMA DE DATOS, INVESTIGACIÓN Y ESTUDIOS PARA LA REALIZACIÓN DE CUALQUIER TRABAJO TÉCNICO; -) ASESORAMIENTO PARA LA GESTIÓN DE BIENES PUBLICOS Y ORGANIZACIÓN DE SERVICIOS DEL MISMO CARÁCTER; -) ESTUDIO Y ASISTENCIA EN LA REDACCIÓN DE PROYECTOS, ANTEPROYECTOS, MODIFICACIÓN DE UNOS Y OTROS, Y CONTROL DE LA EJECUCIÓN Y MANTENIMIENTO DE OBRAS E INSTALACIONES Y DE IMPLANTACIÓN DE SISTEMAS ORGANIZATIVOS; -) CUALQUIERA DE LOS OTROS SERVICIOS DIRECTA O INDIRECTAMENTE RELACIONADOS CON LOS ANTERIORES Y EN LOS QUE TAMBIÉN PREDOMINEN LAS PRESTACIONES DE CARÁCTER INTELECTUAL.\r\n\r\nD)  LA PRESTACIÓN DE SERVICIOS PROFESIONALES EN EL CAMPO DE LA ARQUITECTURA Y EL URBANISMO, SIEMPRE A TRAVÉS DE ARQUITECTOS COLEGIADOS, ASÍ COMO LA REPRESENTACIÓN DE TERCEROS Y POR SU CUENTA EXCLUSIVA, DE LAS ACTIVIDADES DE GESTIÓN, ASESORAMIENTO, COORDINACIÓN Y ADMINISTRACIÓN, RELACIONADAS CON LA CONDICIÓN DE ARQUITECTO; EN ESPECIAL, TRABAJOS DE EDIFICACIÓN, TANTO SEA NUEVA PLANTA, COMO REHABILITACIÓN Y LEGALIZACIÓN, TRABAJOS DE PAISAJISMO Y ESPACIOS LIBRES. TRABAJOS DE URBANISMO, PLANES GENERALES, NORMAS SUBSIDIARIAS, PLANES PARCIALES, ESTUDIOS DE DETALLE, PARCELACIÓN, PROYECTOS DE COMPENSACIÓN, REPARCELACIÓN, URBANIZACIÓN Y PROGRAMAS DE ACTUACIÓN; ASESORÍA Y GESTIÓN A PARTICULARES, EMPRESAS Y PROMOCIÓN, EN ACTIVIDADES PROPIAS DE LAS ACTIVIDADES RELACIONADAS EN EL PRESENTE OBJETO; ELABORACIÓN DE INFORMES, DICTÁMENES Y PERITACIONES, TANTO JUDICIALES COMO EXTRAJUDICIALES; Y PARTICIPAR EN OTRAS SOCIEDADES, A TRAVÉS DE LAS CUALES PUEDA DESARROLLAR EL ANTERIOR OBJETO",
      "mainEntityOfPage": "https://www.contratacion.euskadi.eus/webkpe00-kperoc/es/ac71aBusquedaRegistrosWar/empresa/04311",
      "_links": {
        "self": {
          "name": "INGENOR INGENIERIA Y ARQUITECTURA, S.L.",
          "href": "https://api.euskadi.eus/procurements/companies/04311"
        }
      }
    },
    {
      "name": "CONSTRUCCIONES Y REFORMAS COSGAYA, S.L.",
      "registrationNumber": "03794",
      "identificationNumber": "B95509907",
      "address": "ANDER DEUNA, 28 - BAJO",
      "location": {
        "postalCode": "48960",
        "municipality": "Galdakao",
        "county": "Bizkaia",
        "municipalityId": "036",
        "countyId": "48"
      },
      "economicActivities": [
        {
          "id": "1.501.1",
          "name": "Construcción completa, reparación y conservación de edificaciones",
          "_links": {
            "self": {
              "name": "Construcción completa, reparación y conservación de edificaciones",
              "href": "https://api.euskadi.eus/procurements/companies/economic-activities/1.501.1"
            }
          }
        }
      ],
      "certificateStartDate": "2015-06-19",
      "certificateEndDate": "2015-11-14",
      "object": "ADQUISICIÓN POR CUALQUIER TÍTULO DE BIENES INMUEBLES, TANTO SOLARES PARA SU PARCELACIÓN, CONSTRUCCIÓN Y URBANIZACIÓN, PROMOCIÓN Y VENTA, COMO FINCAS PARA SU REHABILITACIÓN Y REFORMA; DISPOSICIÓN DE LOS TERRENOS O EDIFICIOS CONSTRUIDOS EN BLOQUES O POR PISOS; LA CONSERVACIÓN DE TODO ELLO Y EXPLOTACIÓN EN ARRIENDO O POR CUALQUIER OTRO TÍTULO DE CESIÓN TEMPORAL, TODO ELLO DENTRO DEL MARCO DE LA LEGISLACIÓN GENERAL; MONTAJES DE ESTRUCTURAS DE HORMIGÓN Y ENCOFRADOS Y REALIZACIÓN DE OBRAS DE ALBAÑILERÍA, HOJALATERÍA, EBANISTERÍA, ELECTRICIDAD Y CUALESQUIER OTRAS QUE FUEREN NECESARIAS PARA LA REALIZACIÓN DEL FIN SOCIAL",
      "mainEntityOfPage": "https://www.contratacion.euskadi.eus/webkpe00-kperoc/es/ac71aBusquedaRegistrosWar/empresa/03794",
      "_links": {
        "self": {
          "name": "CONSTRUCCIONES Y REFORMAS COSGAYA, S.L.",
          "href": "https://api.euskadi.eus/procurements/companies/03794"
        }
      }
    },
    {
      "name": "AMAIUR ETXEGINTZA, S.L.",
      "registrationNumber": "04329",
      "identificationNumber": "B20460663",
      "address": "MENDIBURU 15, BAJO",
      "location": {
        "postalCode": "20000",
        "municipality": "Oiartzun",
        "county": "Gipuzkoa",
        "municipalityId": "063",
        "countyId": "20"
      },
      "economicActivities": [
        {
          "id": "1.501.1",
          "name": "Construcción completa, reparación y conservación de edificaciones",
          "_links": {
            "self": {
              "name": "Construcción completa, reparación y conservación de edificaciones",
              "href": "https://api.euskadi.eus/procurements/companies/economic-activities/1.501.1"
            }
          }
        },
        {
          "id": "1.501.2",
          "name": "Construcción completa, reparación y conservación obras civiles",
          "_links": {
            "self": {
              "name": "Construcción completa, reparación y conservación obras civiles",
              "href": "https://api.euskadi.eus/procurements/companies/economic-activities/1.501.2"
            }
          }
        },
        {
          "id": "1.501.3",
          "name": "Albañilería y pequeños trabajos de construcción en general",
          "_links": {
            "self": {
              "name": "Albañilería y pequeños trabajos de construcción en general",
              "href": "https://api.euskadi.eus/procurements/companies/economic-activities/1.501.3"
            }
          }
        },
        {
          "id": "1.833.2",
          "name": "Promoción de edificaciones",
          "_links": {
            "self": {
              "name": "Promoción de edificaciones",
              "href": "https://api.euskadi.eus/procurements/companies/economic-activities/1.833.2"
            }
          }
        }
      ],
      "certificateStartDate": "2015-06-19",
      "certificateEndDate": "2015-12-19",
      "object": "LA PROMOCIÓN, CONSTRUCCIÓN Y EJECUCIÓN DE OBRAS DE TODO TIPO, URBANIZACIÓN, PARCELACIÓN Y REPARCELACIÓN, EL TRÁFICO Y LA EXPLOTACIÓN DE TODA CLASE DE FINCAS, RÚSTICAS Y URBANAS, EDIFICADAS Y SIN EDIFICAR",
      "mainEntityOfPage": "https://www.contratacion.euskadi.eus/webkpe00-kperoc/es/ac71aBusquedaRegistrosWar/empresa/04329",
      "_links": {
        "self": {
          "name": "AMAIUR ETXEGINTZA, S.L.",
          "href": "https://api.euskadi.eus/procurements/companies/04329"
        }
      }
    },
    {
      "name": "ININFOR, S.L.",
      "registrationNumber": "02703",
      "identificationNumber": "B48458756",
      "address": "Pº CAMPO VOLANTÍN, 24 - 4º",
      "location": {
        "postalCode": "48007",
        "municipality": "Bilbao",
        "county": "Bizkaia",
        "municipalityId": "020",
        "countyId": "48"
      },
      "economicActivities": [
        {
          "id": "1.843.1",
          "name": "Servicios técnicos de ingeniería",
          "_links": {
            "self": {
              "name": "Servicios técnicos de ingeniería",
              "href": "https://api.euskadi.eus/procurements/companies/economic-activities/1.843.1"
            }
          }
        }
      ],
      "certificateStartDate": "2015-06-18",
      "certificateEndDate": "2015-12-01",
      "object": "A) LA REALIZACIÓN DE INVESTIGACIONES, ESTUDIOS Y PROYECTOS DENTRO DEL ÁMBITO COMPETENCIAL ESTABLECIDO PARA LAS CARRERAS UNIVERSITARIAS DE INGENIERÍA SUPERIOR, INGENIERÍA TÉCNICA EN TOPOGRAFÍA E INFORMÁTICA, INCLUYENDO ACCIONES DE FORMACIÓN Y DE INFORMACIÓN TERRITORIAL Y GEOGRÁFICA Y TRABAJOS DE CARTOGRAFÍA, TOPOGRAFÍA Y CATASTRO, CON LAS DERIVACIONES QUE DE ESTOS ÚLTIMOS PUEDAN SURGIR.\r\nB) LA ADQUISICIÓN, TENENCIA Y DISFRUTE, EXPLOTACIÓN, ENAJENACIÓN, DE TODA CLASE DE FINCAS RÚSTICAS  O URBANAS CUALQUIERA QUE FUERA SU NATURALEZA.\r\nC) LA PROMOCIÓN, CONSTRUCCIÓN, REHABILITACIÓN, REPARACIÓN POR CUENTA PROPIA O AJENA DE TODA CLASE DE OBRAS, URBANIZACIONES, EDIFICIOS Y CONSTRUCCIONES, TANTO PÚBLICOS COMO PRIVADOS.\r\nD) LA ADMINISTRACIÓN, ASESORAMIENTO, GESTIÓN DE ACTUACIONES URBANÍSTICAS, Y PRESTACIÓN DE SERVICIOS DE TODO TIPO CON RELACIÓN A BIENES INMUEBLES, SEGÚN CONVENGA A SU APROVECHAMIENTO AGRÍCOLA, FORESTAL, URBANO, INDUSTRIAL O DE CUALQUIER NATURALEZA.\r\nE) LA ASISTENCIA, GESTIÓN, DIRECCIÓN, ADMINISTRACIÓN, PROMOCIÓN, INTERVENCIÓN, PARTICIPACIÓN EN EMPRESAS O EN SU CREACIÓN, CONSTITUCIÓN O DESARROLLO.\r\nF) LA PROMOCIÓN, ESTUDIO Y DESARROLLO DE PRODUCTOS Y ACTIVIDADES INDUSTRIALES, COMERCIALES Y DE DISTRIBUCIÓN EN EMPRESAS PROPIAS O PARTICIPADAS Y EXPLOTACIÓN O CESIÓN DE CÁNONES O ROYALTIES, Y DERECHOS DE PROPIEDAD INDUSTRIAL.\r\nG) LOS SERVICIOS DE MEDIACIÓN, GESTIÓN, REPRESENTACIÓN Y COMERCIO INTERIOR Y EXTERIOR, ALMACENAMIENTO, ARRENDAMIENTO, Y EN GENERAL COMERCIALIZACIÓN Y DISTRIBUCIÓN DE TODA CLASE DE PRODUCTOS.\r\nH) LA ADQUISICIÓN TENENCIA DISFRUTE ADMINISTRACIÓN, ENAJENACIÓN DE TODA CLASE DE TÍTULOS COMO VALORES MOBILIARIOS, ACTIVOS FINANCIEROS, DERECHOS VALORES, CUOTAS O PARTICIPACIONES EN EMPRESAS INDIVIDUALES O SOCIALES POR CUENTA PROPIA Y CON EXCEPCIÓN DE LA INTERMEDIACIÓN, NO INCLUYÉNDOSE EN NINGÚN CASO LAS ACTIVIDADES OBJETO DE LA LEGISLACIÓN DE INSTITUCIONES DE INVERSIÓN COLECTIVA Y DE MERCADO DE VALORES",
      "mainEntityOfPage": "https://www.contratacion.euskadi.eus/webkpe00-kperoc/es/ac71aBusquedaRegistrosWar/empresa/02703",
      "_links": {
        "self": {
          "name": "ININFOR, S.L.",
          "href": "https://api.euskadi.eus/procurements/companies/02703"
        }
      }
    },
    {
      "name": "QUIRUMED, S.L.",
      "registrationNumber": "03393",
      "identificationNumber": "B97267405",
      "address": "C/ MORODER, Nº 3",
      "location": {
        "postalCode": "46009",
        "municipality": "Montcada/Moncada",
        "county": "Valencia/València",
        "municipalityId": "171",
        "countyId": "46"
      },
      "economicActivities": [
        {
          "id": "1.619.2",
          "name": "Venta al por mayor de aparatos e instrumentos médicos, ortopédicos, ópticos",
          "_links": {
            "self": {
              "name": "Venta al por mayor de aparatos e instrumentos médicos, ortopédicos, ópticos",
              "href": "https://api.euskadi.eus/procurements/companies/economic-activities/1.619.2"
            }
          }
        },
        {
          "id": "1.654.1",
          "name": "Venta al por menor de vehículos terrestres",
          "_links": {
            "self": {
              "name": "Venta al por menor de vehículos terrestres",
              "href": "https://api.euskadi.eus/procurements/companies/economic-activities/1.654.1"
            }
          }
        },
        {
          "id": "1.659.3",
          "name": "Venta al por menor de aparatos médicos, ortopédicos, ópticos y fotográficos",
          "_links": {
            "self": {
              "name": "Venta al por menor de aparatos médicos, ortopédicos, ópticos y fotográficos",
              "href": "https://api.euskadi.eus/procurements/companies/economic-activities/1.659.3"
            }
          }
        }
      ],
      "certificateStartDate": "2015-06-18",
      "certificateEndDate": "2015-10-28",
      "object": "1) EL COMERCIO AL POR MAYOR Y MENOR, EXPORTACIÓN E IMPORTACIÓN, INCLUIDO POR MEDIO DEL PROCEDIMIENTO DE INTERNET, DE LO SIGUIENTE: - APARATOS E INSTRUMENTOS Y MATERIALES MÉDICOS Y HOSPITALARIOS, ORTOPÉDICOS, ÓPTICOS Y FOTOGRÁFICOS, ASÍ COMO MATERIAL INFORMÁTICO, INCLUIDA LA PROGRAMACIÓN Y MATERIAL DE OFICINA. - ALCOHOLÍMETROS MÓVILES O EN MÁQUINAS FIJAS, Y OTRAS MÁQUINAS EXPENDEDORAS PARA SERVICIOS DE TIPO MÉDICO Y HOSPITALARIO. - MOBILIARIO PARA EL EQUIPAMIENTO DE FINCAS URBANAS Y HOSPITALARIAS. -TESTS RÁPIDOS DE DIAGNÓSTICO PARA LABORATORIOS CLÍNICOS Y VETERINARIOS Y REACTIVOS PARA ANÁLISIS CLÍNICOS. - ELECTRODOMÉSTICOS Y APARATOS ELECTRÓNICOS. - PRODUCTOS TEXTILES. - MATERIAL DE SANEAMIENTO, FREGADEROS Y COCINAS. - MÁQUINAS EXPENDEDORAS DE PROFILÁCTICOS. - PRODUCTOS COSMÉTICOS. 2) LA INTERMEDIACIÓN EN LA COMPRAVENTA O ARRENDAMIENTO NO FINANCIERO DE FINCAS URBANAS Y RÚSTICAS. 3) LA COMPRAVENTA Y ARRENDAMIENTO NO FINANCIERO DE VEHÍCULOS DE MOTOR, INCLUIDAS AMBULANCIAS Y SU EQUIPAMIENTO. 4) LA PRESTACIÓN DE SERVICIOS DE CONSULTORÍA TÉCNICA Y ASESORAMIENTO CIENTÍFICO PARA CENTROS DE SALUD Y HOSPITALES. 5) LA IMPRESIÓN DE TEXTO O IMÁGENES POR CUALQUIER SISTEMA O PROCEDIMIENTO. 6) LA PRESTACIÓN DEL SERVICIO DE AGENCIA DE VIAJES, CON CATEGORÍA MINORISTA CONFORME AL ART. 3 DEL DECRETO 201/97 DE 11 FEBRERO DE LA COMUNIDAD VALENCIANA, CON EL CUMPLIMIENTO DE LAS NORMAS QUE SEAN EXIGIBLES PARA ESTA ACTIVIDAD. 7) LAS ACTIVIDADES DE CREAR, MONTAR, PROYECTAR Y REPARAR INSTALACIONES ELÉCTRICAS. 8) LA VENTA, COMPRA, EXPORTACIÓN, IMPORTACIÓN, DISTRIBUCIÓN, INSTALACIÓN, PRODUCCIÓN Y MONTAJE DE PRODUCTOS ADHESIVOS, PRODUCTOS Y SISTEMAS DE IDENTIFICACIÓN, MATERIALES AISLANTES, SOLUCIONES GRÁFICAS, MATERIAL TROQUELADO, PRODUCTOS DE SEGURIDAD Y PROTECCIÓN. 9) LA IMPORTACIÓN, EXPORTACIÓN, COMPRAVENTA COMERCIO MAYOR Y MENOR DE ARTÍCULOS SANITARIOS, HIGIÉNICOS, DE BELLEZA, PELUQUERÍA, ESTÉTICA, DE HOGAR, JUGUETES, TEXTILES Y ARTÍCULOS DE DEPORTE. 10) LA PRESTACIÓN DE SERVICIOS DE ASESORÍA COMERCIAL Y MRKETING A EMPRESAS ASÍ COMO SERVICIOS DE PROGRAMACIÓN INFORMÁTICA. 11) LA PRESTACIÓN DE SERVICIOS DE PUBLICIDAD Y REALIZACIÓN DE LA IMPRESIÓN DE FOLLETOS Y CATÁLOGOS",
      "mainEntityOfPage": "https://www.contratacion.euskadi.eus/webkpe00-kperoc/es/ac71aBusquedaRegistrosWar/empresa/03393",
      "_links": {
        "self": {
          "name": "QUIRUMED, S.L.",
          "href": "https://api.euskadi.eus/procurements/companies/03393"
        }
      }
    }
  ]
}