{
  "totalItems": 9042,
  "totalPages": 905,
  "currentPage": 457,
  "itemsOfPage": 10,
  "items": [
    {
      "name": "CORPORACION COMUNICACION IBEROAMERICANA BARCELO & ASOCIADOS, S.L.",
      "registrationNumber": "09102",
      "identificationNumber": "B83260588",
      "address": "Velazquez 55",
      "location": {
        "postalCode": "28001",
        "municipality": "Madrid",
        "county": "Madrid",
        "municipalityId": "079",
        "countyId": "28"
      },
      "economicActivities": [
        {
          "id": "1.844",
          "name": "Servicios de publicidad, relaciones públicas y similares",
          "_links": {
            "self": {
              "name": "Servicios de publicidad, relaciones públicas y similares",
              "href": "https://api.euskadi.eus/procurements/companies/economic-activities/1.844"
            }
          }
        }
      ],
      "certificateStartDate": "2023-06-29",
      "certificateEndDate": "2023-12-29",
      "object": "PROGRAMACIÓN, Y SERVICIO INFORMÁTICO A EMPRESA ORIENTADO AL CAMPO DE INTERNET. COMERCIO DE MATERIAL INFORMÁTICO, AL POR MENOR. INSTALACIÓN DE REDES, MANTENIMIENTO Y CONFIGURACIÓN INFORMÁTICA. ORGANIZAR E IMPARTIR CURSOS DE INFORMÁTICA. GABINETE DE PRENSA, RELACIONES PÚBLICAS Y CONSULTORÍA EN COMUNICACIONES A PERSONAS FÍSICAS Y JURÍDICAS, E INSTITUCIONES. CONSULTORÍA Y ASESORAMIENTO EN DESARROLLO DE NEGOCIOS. DESARROLLO Y ORGANIZACIÓN DE EVENTOS. IMPORTACIÓN Y EXPORTACIÓN DE HARDWARE Y SOFTWARE. LAS ACTIVIDADES ENUMERADAS PODRÁN SER DESARROLLADAS POR ESTA SOCIEDAD DE MODO INDIRECTO, TOTAL O PARCIALMENTE, MEDIANTE LA PARTICIPACIÓN EN OTRAS SOCIEDADES CON OBJETO IDÉNTICO O ANÁLOGO.",
      "mainEntityOfPage": "https://www.contratacion.euskadi.eus/webkpe00-kperoc/es/ac71aBusquedaRegistrosWar/empresa/09102",
      "_links": {
        "self": {
          "name": "CORPORACION COMUNICACION IBEROAMERICANA BARCELO & ASOCIADOS, S.L.",
          "href": "https://api.euskadi.eus/procurements/companies/09102"
        }
      }
    },
    {
      "name": "M.R.M. COMERCIAL, S.A.",
      "registrationNumber": "02105",
      "identificationNumber": "A47061536",
      "address": "C/ NELSON MANDELA, Nº 3 y 5 - BAJOS.",
      "location": {
        "postalCode": "47013",
        "municipality": "Valladolid",
        "county": "Valladolid",
        "municipalityId": "186",
        "countyId": "47"
      },
      "economicActivities": [
        {
          "id": "1.619.2",
          "name": "Venta al por mayor de aparatos e instrumentos médicos, ortopédicos, ópticos",
          "_links": {
            "self": {
              "name": "Venta al por mayor de aparatos e instrumentos médicos, ortopédicos, ópticos",
              "href": "https://api.euskadi.eus/procurements/companies/economic-activities/1.619.2"
            }
          }
        }
      ],
      "certificateStartDate": "2023-06-28",
      "certificateEndDate": "2023-12-28",
      "object": "a) LA IMPORTACIÓN, EXPORTACIÓN, COMPRAVENTA, COMERCIALIZACIÓN Y EMBALAJE, VENTA AL POR MAYOR Y MENOR, ASÍ COMO LA PRESTACIÓN DE SERVICIOS DE REPRESENTACIÓN A COMISIÓN, DE TODA CLASE DE PRODUCTOS Y APARATOS O INSTRUMENTOS MÉDICOS Y MÉDICO-QUIRÚGICOS Y DE INVESTIGACIÓN Y SUS PIEZAS DE RECAMBIO, BIEN POR SÍ MISMA O MEDIANTE CONCESIONES COMERCIALES A TERCEROS.\r\n\r\nb) LA PRESTACIÓN, GESTIÓN, ORGANIZACIÓN Y DESARROLLO DE TODA CLASE DE ACTIVIDADES EMPRESARIALES Y DE SERVICIOS RELACIONADOS CON ASESORAMIENTOS, PLANIFICACIÓN, ASISTENCIA TÉCNICA, REPRESENTACIONES, MEDIACIONES, COLABORACIONES Y ENCARGOS DE TODA ÍNDOLE, CONFECCIÓN Y COMERCIALIZACIÓN DE ESTUDIOS Y DOCUMENTACIÓN SOBRE TEMAS DE MATERIA COMERCIAL, LABORAL, TRIBUTARIA, ECONÓMICO FINANCIERA, INMOBILIARIA, INFORMÁTICA Y CUALQUIER OTRO ASESORAMIENTO A PERSONAS FÍSICAS O JURÍDICAS, BIEN DIRECTAMENTE O A COMISIÓN.\r\n\r\nc) LA CREACIÓN, PROMOCIÓN, EXPLOTACIÓN, ARRENDAMIENTO, ADMINISTRACIÓN, SUSCRIPCIÓN Y COMPRA DE ACCIONES, PARTICIPACIONES, TÍTULOS Y DERECHOS DE TODA CLASE DE SOCIEDADES, ASÍ COMO LA PARTICIPACIÓN DIRECTA O INDIRECTA, BAJO CUALQUIER FORMA EN LAS OPERACIONES FINANCIERAS, COMERCIALES, INDUSTRIALES QUE PUEDAN RELACIONARSE O NO, CON EL OBJETO DE LA SOCIEDAD.\r\n\r\nd) ADQUIRIR, POSEER, ADMINISTRAR, PIGNORAR, HIPOTECAR, GRAVAR, VENDER O DISPONER EN CUALQUIER FORMA, VIVIENDAS Y CONSTRUCCIONES DE TODAS CLASES, YA SEAN LIBRES O DE PROTECCIÓN OFICIAL, SOLARES, PARCELAS, TERRENOS Y TODA CLASE DE FINCAS RÚSTICAS Y URBANAS, ASÍ COMO SU ORDENACIÓN, SEGREGACIÓN, DIVISIÓN, AGRUPACIÓN, PARCELACIÓN Y URBANIZACIÓN.\r\nLA EJECUCIÓN COMPLETA Y, EN PARTICULAR, LA CONSTRUCCIÓN, REHABILITACIÓN, REPARACIÓN, CONSERVACIÓN, POR SÍ O MEDIANTE SUBCONTRATACIÓN, DE EDIFICIOS, VIVIENDAS DE CUALQUIER CLASE O DENOMINACIÓN, CONSTRUCCIONES INDUSTRIALES O AGRÍCOLAS Y, EN GENERAL, TODA CLASE DE OBRAS, PÚBLICAS Y PRIVADAS.\r\nPUDIÉNDO A TAL EFECTO ADQUIRIR TERRENOS O SOLARES, APORTARLOS A SOCIEDADES, COOPERATIVAS Y COMUNIDADES DE CONSTRUCCIÓN, CONTRATAR OBRAS, DECLARACIONES DE OBRA NUEVA O DE EDIFICACIÓN, ACTOS DE DESLINDE Y CONSTITUCIONES EN RÉGIMEN DE PROPIEDAD HORIZONTAL, CONCERTAR ANTICIPOS Y PRÉSTAMOS, SIMPLES O HIPOTECARIOS, EN CUALESQUIERA BANCOS, ENTIDADES DE CRÉDITO, CAJAS DE AHORRO, BANCO HIPOTECARIO DE ESPAÑA Y DEMÁS ORGANISMOS SIMILARES, INCLUSO LA BANCA EXTRANJERA, CON LA FINALIDAD DE EDIFICAR, SOLICITAR LAS EXENCIONES Y BONIFICACIONES TRIBUTARIAS QUE, POR RAZÓN DE URBANISMO Y VIVIENDA SE ESTABLECEN, O PUEDAN ESTABLECERSE, EN LA LEGISLACIÓN FISCAL Y DEL SUELO, ASÍ COMO LOS BENEFICIOS TRIBUTARIOS EN MATERIA DE URBANIZACIONES.\r\nCONCURRIR A TODA CLASE DE SUBASTAS, CONCURSOS, U OTRA FORMA CUALESQUIERA DE CONTRATACIÓN DE OBRAS DE TODA ÍNDOLE CON EL ESTADO, PROVINCIA O MUNICIPIO, ENTIDADES REGIONALES O TERRITORIALES, AUTÓNOMAS Y CUALESQUIRA OTROS ORGANISMOS PÚBLICOS O DEPENDENCIAS DE LOS MISMOS, ASÍ COMO SERVICIOS PATRIMONIALIZADOS, DESCENTRALIZADOS O AUTÓNOMOS, SOCIEDADES COOPERATIVAS Y, DE FORMA GENERAL, TODA CLASE DE PERSONAS FÍSICAS O JURÍDICAS, PÚBLICAS O PRIVADAS.\r\nLA EXPLOTACIÓN, EN FORMA DE VENTA, SOCIEDAD, ARRIENDO, SUPERFICIE U OTRAS CUALESQUIERA, DE LAS FINCAS QUE ADQUIERA O CONSTRUYA.\r\nLA EXPLOTACIÓN COMERCIAL O INDUSTRIAL DE TODA CLASE DE FINCAS, RÚSTICAS O URBANAS, SOLARES, TERRENOS, NAVES INDUSTRIALES Y EDIFICACIONES, GARAJES, TALLERES DE REPARACIÓN DE VEHÍCULOS A MOTOR, ESTACIONES DE SERVICIO, APARCAMIENTO DE VEHÍCULOS, EN SU FORMA MÁS AMPLIA Y COMPLETA.\r\nLA PROMOCIÓN, EXPLOTACIÓN, GESTIÓN, DIRECCIÓN, ASESORAMIENTO, POR CUENTA PROPIA Y AJENA, DE NEGOCIOS INMOBILIARIOS; LA REALIZACIÓN DE ESTUDIOS, TRABAJOS Y SERVICIOS PROFESIONALES DE NATURALEZA COMERCIAL, FINANCIERA Y ADMINISTRATIVA.\r\n\r\ne) LA IMPORTACIÓN, EXPORTACIÓN, DISTRIBUCIÓN, COMERCIALIZACIÓN, EXPLOTACIÓN Y VENTA AL POR MAYOR Y MENOR, DE ARTÍCULOS DE ALIMENTACIÓN, CONSERVAS, HELADOS, BEBIDAS Y LICORES, Y CUALQUIER PRODUCTO RELACIONADO CON LA DROGUERÍA, PERFUMERÍA, BAZAR, LIMPIEZA, FERRETERÍA, REGALOS Y OTROS AFINES, ASÍ COMO TODO TIPO DE CONFECCIÓN, ZAPATERÍA Y COMPLEMENTOS, PUDIENDO CONCERTAR FRANQUICIAS CON OTRAS EMPRESAS PARA LA UTILIZACIÓN DE IMAGEN, MARCAS Y TÉCNICAS COMERCIALES, MEDIANTE LA INSTALACIÓN Y GESTIÓN DE LOCALES O ESTABLECIMIENTOS ADECUADOS A DICHOS FINES, ASÍ COMO LOS DEDICADOS A LA HOSTELERÍA, RESTAURACIÓN, ACTIVIDADES DEPORTIVAS, PARQUES DE ATRACCIONES Y, EN GENERAL, DE CUALQUIER ACTIVIDAD RELACIONADA CON EL OCIO, EL DEPORTE Y LA RECREACIÓN.\r\n\r\nf) IMPARTIR ENSEÑANZA EN CUALQUIERA DE SUS FORMAS Y GRADOS, BIEN SEA DIRECTA, A DISTANCIA, A TRAVÉS DE CURSOS PERIÓDICOS, MONOGRÁFICOS, O DE CUALQUIER MANERA QUE RESPONDA A AQUÉL FIN, ASÍ COMO LA AUTOEDICIÓN DE LAS UNIDADES DE ESTUDIO PARA SUS PROPIOS ALUMNOS Y LA REPRODUCIÓN Y EDICIÓN DE FOLLETOS TEXTOS, MATERIAL DE AUDIO Y VIDEO, COMO SOPORTE DE LA ENSEÑANZA QUE IMPARTA O POR ENCARGO DE TERCEROS. TODO ELLO, MEDIANTE LA INSTALACIÓN Y GESTIÓN LOCALES O ESTABLECIMIENTOS ADECUADOS A DICHOS FINES.\r\nPODRÁ CONCERTAR ACUERDOS Y CONVENIOS CON INSTITUCIONES, TANTO PÚBLICAS COMO PRIVADAS PARA EJECUTAR LOS FINES INDICADOS EN ESTE APARTADO.\r\n\r\ng) QUEDAN EXCLUÍDAS LAS ACTIVIDADES SUJETAS A LEGISLACIÓN ESPECIAL Y, POR TANTO, LAS DE LEGISLACIÓN DE INVERSIÓN COLECTIVA Y DEL MERCADO DE VALORES",
      "mainEntityOfPage": "https://www.contratacion.euskadi.eus/webkpe00-kperoc/es/ac71aBusquedaRegistrosWar/empresa/02105",
      "_links": {
        "self": {
          "name": "M.R.M. COMERCIAL, S.A.",
          "href": "https://api.euskadi.eus/procurements/companies/02105"
        }
      }
    },
    {
      "name": "BASQUENET, S.L.",
      "registrationNumber": "09099",
      "identificationNumber": "B95949392",
      "address": "Calle Concepción Arenal (48920), nº 2, 2A",
      "location": {
        "postalCode": "48920",
        "municipality": "Portugalete",
        "county": "Bizkaia",
        "municipalityId": "078",
        "countyId": "48"
      },
      "economicActivities": [
        {
          "id": "1.844",
          "name": "Servicios de publicidad, relaciones públicas y similares",
          "_links": {
            "self": {
              "name": "Servicios de publicidad, relaciones públicas y similares",
              "href": "https://api.euskadi.eus/procurements/companies/economic-activities/1.844"
            }
          }
        },
        {
          "id": "1.845",
          "name": "Explotación electrónica por cuenta de terceros",
          "_links": {
            "self": {
              "name": "Explotación electrónica por cuenta de terceros",
              "href": "https://api.euskadi.eus/procurements/companies/economic-activities/1.845"
            }
          }
        }
      ],
      "certificateStartDate": "2023-06-28",
      "certificateEndDate": "2023-12-27",
      "object": "ACTIVIDAD PRINCIPAL.- 6312.- PORTALES WEB. OTRAS ACTIVIDADES.- 7311.- AGENCIAS DE PUBLICIDAD. 5912.- ACTIVIDADES DE POSTPRODUCCIÓN CINEMATOGRÁFICA, DE VÍDEO Y DE PROGRAMAS DE TELEVISIÓN. 6202.- ACTIVIDADES DE CONSULTORÍA INFORMÁTICA. 6201.- ACTIVIDADES DE PROGRAMACIÓN INFORMÁTICA. 6311.- PROCESO DE DATOS, HOSTING Y ACTIVIDADES RELACIONADAS. 6209.- OTROS SERVICIOS RELACIONADOS CON LAS TECNOLOGÍAS DE LA INFORMACIÓN Y LA INFORMÁTICA. 6203.- GESTIÓN DE RECURSOS INFORMÁTICOS. 7022.- OTRAS ACTIVIDADES DE CONSULTORÍA DE GESTIÓN EMPRESARIAL. 6399.- OTROS SERVICIOS DE INFORMACIÓN N.C.O.P. 4619.- INTERMEDIARIOS DEL COMERCIO DE PRODUCTOS DIVERSOS. 1811.- IMPRESIÓN DE PERIÓDICOS. 1812.- OTRAS ACTIVIDADES DE IMPRESIÓN Y ARTES GRÁFICAS. 7021.- RELACIONES PÚBLICAS Y COMUNICACIÓN.",
      "mainEntityOfPage": "https://www.contratacion.euskadi.eus/webkpe00-kperoc/es/ac71aBusquedaRegistrosWar/empresa/09099",
      "_links": {
        "self": {
          "name": "BASQUENET, S.L.",
          "href": "https://api.euskadi.eus/procurements/companies/09099"
        }
      }
    },
    {
      "name": "ACRE SOLUCIONES TOPOGRAFICAS ALQUILER Y VENTA, S.L.",
      "registrationNumber": "09097",
      "identificationNumber": "B45462629",
      "address": "Polígono Industrial Los Pradillos, nave 13",
      "location": {
        "postalCode": "45200",
        "municipality": "Illescas",
        "county": "Toledo",
        "municipalityId": "081",
        "countyId": "45"
      },
      "economicActivities": [
        {
          "id": "1.617.9",
          "name": "Venta al por mayor interindustrial de otros productos n.c.o.p",
          "_links": {
            "self": {
              "name": "Venta al por mayor interindustrial de otros productos n.c.o.p",
              "href": "https://api.euskadi.eus/procurements/companies/economic-activities/1.617.9"
            }
          }
        },
        {
          "id": "1.843.4",
          "name": "Servicios técnicos de topografía",
          "_links": {
            "self": {
              "name": "Servicios técnicos de topografía",
              "href": "https://api.euskadi.eus/procurements/companies/economic-activities/1.843.4"
            }
          }
        },
        {
          "id": "1.857.1",
          "name": "Alquiler de aparatos de pesar y medir",
          "_links": {
            "self": {
              "name": "Alquiler de aparatos de pesar y medir",
              "href": "https://api.euskadi.eus/procurements/companies/economic-activities/1.857.1"
            }
          }
        }
      ],
      "certificateStartDate": "2023-06-28",
      "certificateEndDate": "2023-12-28",
      "object": "TODO TIPO DE TRABAJOS DE TOPOGRAFÍA Y MEDICIONES. ALQUILER Y COMPRAVENTA DE TODO TIPO DE MATERIAL Y MAQUINARIA RELACIONADA CON LA TOPOGRAFÍA, CONSTRUCCIÓN Y AGRICULTURA (SE EXCEPTÚAN LOS ARRENDAMIENTOS FINANCIEROS). COMPRAVENTA, IMPORTACIÓN, EXPORTACIÓN, INTERMEDIACIÓN Y COMERCIALIZACIÓN POR CUALQUIER MEDIO DE AERONAVES NO TRIPULADAS POR CONTROL REMOTO DE TIPO UAS (AERONAVE NO TRIPULADA), UAV (VEHÍCULO AÉREO NO TRIPULADO), DRON, RPA (AERONAVE NO TRIPULADA A DISTANCIA), RPAS CON CÁMARA PARA LA CAPTURA DE DATOS (SISTEMAS DE AERONAVES PILOTADAS POR CONTROL REMOTO).",
      "mainEntityOfPage": "https://www.contratacion.euskadi.eus/webkpe00-kperoc/es/ac71aBusquedaRegistrosWar/empresa/09097",
      "_links": {
        "self": {
          "name": "ACRE SOLUCIONES TOPOGRAFICAS ALQUILER Y VENTA, S.L.",
          "href": "https://api.euskadi.eus/procurements/companies/09097"
        }
      }
    },
    {
      "name": "BERMIO PRINT S.L.",
      "registrationNumber": "06317",
      "identificationNumber": "B48759393",
      "address": "Askatasun BIdea, 13 bajo",
      "location": {
        "postalCode": "48370",
        "municipality": "Bermeo",
        "county": "Bizkaia",
        "municipalityId": "017",
        "countyId": "48"
      },
      "economicActivities": [
        {
          "id": "1.474",
          "name": "Artes gráficas (impresión gráfica)",
          "_links": {
            "self": {
              "name": "Artes gráficas (impresión gráfica)",
              "href": "https://api.euskadi.eus/procurements/companies/economic-activities/1.474"
            }
          }
        },
        {
          "id": "1.474.1",
          "name": "Impresión de textos o imágenes por cualquier procedimiento",
          "_links": {
            "self": {
              "name": "Impresión de textos o imágenes por cualquier procedimiento",
              "href": "https://api.euskadi.eus/procurements/companies/economic-activities/1.474.1"
            }
          }
        },
        {
          "id": "1.475",
          "name": "Actividades anexas a las artes gráficas",
          "_links": {
            "self": {
              "name": "Actividades anexas a las artes gráficas",
              "href": "https://api.euskadi.eus/procurements/companies/economic-activities/1.475"
            }
          }
        },
        {
          "id": "1.659.2",
          "name": "Venta al por menor de muebles de oficina y máquinas y equipos de oficina",
          "_links": {
            "self": {
              "name": "Venta al por menor de muebles de oficina y máquinas y equipos de oficina",
              "href": "https://api.euskadi.eus/procurements/companies/economic-activities/1.659.2"
            }
          }
        },
        {
          "id": "1.659.4",
          "name": "Venta al por menor de libros, periódicos y artículos de papelería y escritorio",
          "_links": {
            "self": {
              "name": "Venta al por menor de libros, periódicos y artículos de papelería y escritorio",
              "href": "https://api.euskadi.eus/procurements/companies/economic-activities/1.659.4"
            }
          }
        }
      ],
      "certificateStartDate": "2023-06-27",
      "certificateEndDate": "2023-12-27",
      "object": "A) LA IMPRESIÓN DE TEXTOS O IMÁGENES POR CUALQUIER PROCEDIMIENTO O SISTEMA. B) LA IMPRESIÓN DE PRENSA PERIÓDICA POR CUALQUIER PROCEDIMIENTO. C) LA REPRODUCCIÓN DE TEXTOS O IMÁGENES POR PROCEDIMIENTOS TALES COMO MULTICOPISTA, FOTOCOPIAS POR PROCEDIMIENTOS FOTOGRÁFICOS Y ELECTROESTÁTICOS, SISTEMAS DE REPRODUCCIÓN DE PLANOS ETC. D) LA ESTEROTIPIA, GALVANOTIPIA Y GALVANOPLASTIA, FABRICADOS EN GOMA Y CAUCHO, FABRICACIÓN DE RODILLOS Y DE OTROS ELEMENTOS DEDICADOS A LOS PROCESOS DE IMPRESIÓN. E) LA COMPOSICIÓN DE TEXTOS POR CUALQUIER PROCEDIMIENTO. F) LA REPRODUCCIÓN DE TEXTOS O IMÁGENES DESTINADOS A LA IMPRESIÓN. G) LA ENCUADERNACIÓN. H) LA EDICIÓN DE LIBROS, PERIÓDICOS Y REVISTAS, ASÍ COMO LA EDICIÓN DE IMÁGENES, GRABADOS, TARJETAS POSTALES, ETC. EDICIÓN DE FOLLETOS, Y EDICIÓN MUSICAL IMPRESA O MANUSCRITA",
      "mainEntityOfPage": "https://www.contratacion.euskadi.eus/webkpe00-kperoc/es/ac71aBusquedaRegistrosWar/empresa/06317",
      "_links": {
        "self": {
          "name": "BERMIO PRINT S.L.",
          "href": "https://api.euskadi.eus/procurements/companies/06317"
        }
      }
    },
    {
      "name": "MADERAS MURGA, S.L.",
      "registrationNumber": "08130",
      "identificationNumber": "B01521830",
      "address": "Poligono Industrial Murga nº 14",
      "location": {
        "postalCode": "01479",
        "municipality": "Ayala/Aiara",
        "county": "Araba/Álava",
        "municipalityId": "010",
        "countyId": "01"
      },
      "economicActivities": [
        {
          "id": "1.461",
          "name": "Aserrado y preparación industrial de la madera",
          "_links": {
            "self": {
              "name": "Aserrado y preparación industrial de la madera",
              "href": "https://api.euskadi.eus/procurements/companies/economic-activities/1.461"
            }
          }
        }
      ],
      "certificateStartDate": "2023-06-27",
      "certificateEndDate": "2023-12-27",
      "object": "LA ACTIVIDAD DE ASERRADERO Y PREPARACIÓN INDUSTRIAL DE LA MADERA, QUE COMPRENDE EL ASERRADERO MECÁNICO DE LA MADERA PARA PRODUCIR PLANCHAS, TABLONES, TABLAS, LISTONES, TRAVIESAS, ETC, ASÍ COMO EL CEPILLADO, LAVADO, PULIDO, SECADO, ESTUFADO, CREOSOTADO Y LOS TRATAMIENTOS DE LA MADERA. ADEMÁS DE LA EXPLOTACIÓN FORESTAL DE FINCAS, TERRENOS Y MONTES Y LA COMPRA, VENTA, ALQUILER O ARRENDAMIENTO DE LAS MISMAS.",
      "mainEntityOfPage": "https://www.contratacion.euskadi.eus/webkpe00-kperoc/es/ac71aBusquedaRegistrosWar/empresa/08130",
      "_links": {
        "self": {
          "name": "MADERAS MURGA, S.L.",
          "href": "https://api.euskadi.eus/procurements/companies/08130"
        }
      }
    },
    {
      "name": "SONMÉDICA, S.L.",
      "registrationNumber": "06102",
      "identificationNumber": "B62011093",
      "address": "Congost, 28",
      "location": {
        "postalCode": "08024",
        "municipality": "Barcelona",
        "county": "Barcelona",
        "municipalityId": "019",
        "countyId": "08"
      },
      "economicActivities": [
        {
          "id": "1.659.3",
          "name": "Venta al por menor de aparatos médicos, ortopédicos, ópticos y fotográficos",
          "_links": {
            "self": {
              "name": "Venta al por menor de aparatos médicos, ortopédicos, ópticos y fotográficos",
              "href": "https://api.euskadi.eus/procurements/companies/economic-activities/1.659.3"
            }
          }
        }
      ],
      "certificateStartDate": "2023-06-27",
      "certificateEndDate": "2023-12-27",
      "object": "LA COMERCIALIZACIÓN DE TODA CLASE DE ACCESORIOS Y RECAMBIOS PARA ELECTRICIDAD, ELECTRÓNICA E INFORMÁTICA",
      "mainEntityOfPage": "https://www.contratacion.euskadi.eus/webkpe00-kperoc/es/ac71aBusquedaRegistrosWar/empresa/06102",
      "_links": {
        "self": {
          "name": "SONMÉDICA, S.L.",
          "href": "https://api.euskadi.eus/procurements/companies/06102"
        }
      }
    },
    {
      "name": "AMINAPARK, S.L.",
      "registrationNumber": "08119",
      "identificationNumber": "B42738526",
      "address": "CALLE DE LA VIA NUMERO 4",
      "location": {
        "postalCode": "08290",
        "municipality": "Cerdanyola del Vallès",
        "county": "Barcelona",
        "municipalityId": "266",
        "countyId": "08"
      },
      "economicActivities": [
        {
          "id": "1.501.1",
          "name": "Construcción completa, reparación y conservación de edificaciones",
          "_links": {
            "self": {
              "name": "Construcción completa, reparación y conservación de edificaciones",
              "href": "https://api.euskadi.eus/procurements/companies/economic-activities/1.501.1"
            }
          }
        }
      ],
      "certificateStartDate": "2023-06-27",
      "certificateEndDate": "2023-12-27",
      "object": "EL DESARROLLO DE LAS ACTIVIDADES CORRESPONDIENTES A LOS SIGUIENTES CÓDIGOS Y DESCRIPCIONES DE LA CLASIFICACIÓN NACIONAL DE ACTIVIDADES ECONÓMICAS: ACTIVIDAD PRINCIPAL: 4333 REVESTIMIENTO DE SUELOS Y PAREDES. OTRAS ACTIVIDADES: 4121 CONSTRUCCIÓN DE EDIFICIOS Y RESIDENCIALES; 4122 CONSTRUCCIÓN DE EDIFICIOS NO RESIDENCIALES; 4211 CONSTRUCCIÓN DE CARRETERAS Y AUTOPISTAS; 4212 CONSTRUCCIÓN DE VÍAS FÉRREAS DE SUPERFICIE Y SUBTERRÁNEAS; 4213 CONSTRUCCIÓN DE PUENTES Y TÚNELES; 4221 CONSTRUCCIÓN DE REDES PARA FLUIDOS; 4222 CONSTRUCCIÓN DE REDES ELÉCTRICAS Y DE TELECOMUNICACIONES; 4299 CONSTRUCCIÓN DE OTROS PROYECTOS DE INGENIERÍA CIVIL N.C.O.P.; 4329 OTRAS INSTALACIONES EN OBRAS DE CONSTRUCCIÓN; 4391 CONSTRUCCIÓN DE CUBIERTAS; 4399 OTRAS ACTIVIDADES DE CONSTRUCCIÓN ESPECIALIZADA N.C.O.P.; 4339 OTROS ACABADO DE EDIFICIOS; 8121 LIMPIEZA GENERAL DE EDIFICIOS; 8122 OTRAS ACTIVIDADES DE LIMPIEZA INDUSTRIAL Y DE EDIFICIOS; 4334 PINTURA Y ACRISTALAMIENTO; 4322 FONTANERÍA, INSTALACIONES DE SISTEMAS DE CALEFACCIÓN Y AIRE ACONDICIONADO; 5610 RESTAURANTES Y PUESTOS DE COMIDAS; 4321 INSTALACIONES ELÉCTRICAS; 4332 INSTALACIÓN DE CARPINTERÍA; 8110 SERVICIOS INTEGRALES A EDIFICIOS E INSTALACIONES; 4752 COMERCIO AL POR MENOR DE FERRETERÍA, PINTURA Y VIDRIO EN ESTABLECIMIENTOS ESPECIALIZADOS; 4674 COMERCIO AL POR MAYOR DE FERRETERÍA, FONTANERÍA Y CALEFACCIÓN; 4312 PREPARACIÓN DE TERRENOS; 4333 REVESTIMIENTO DE SUELOS Y PAREDES; 8130 ACTIVIDADES DE JARDINERÍA; 4941 TRANSPORTE DE MERCANCÍAS POR CARRETERA.",
      "mainEntityOfPage": "https://www.contratacion.euskadi.eus/webkpe00-kperoc/es/ac71aBusquedaRegistrosWar/empresa/08119",
      "_links": {
        "self": {
          "name": "AMINAPARK, S.L.",
          "href": "https://api.euskadi.eus/procurements/companies/08119"
        }
      }
    },
    {
      "name": "MANUEL CABALLERO MUÑOZ",
      "registrationNumber": "09093",
      "identificationNumber": "09190868E",
      "address": "C/ LANDABERDE, 7, 4ºC",
      "location": {
        "postalCode": "01010",
        "municipality": "Vitoria-Gasteiz",
        "county": "Araba/Álava",
        "municipalityId": "059",
        "countyId": "01"
      },
      "economicActivities": [
        {
          "id": "1.501.3",
          "name": "Albañilería y pequeños trabajos de construcción en general",
          "_links": {
            "self": {
              "name": "Albañilería y pequeños trabajos de construcción en general",
              "href": "https://api.euskadi.eus/procurements/companies/economic-activities/1.501.3"
            }
          }
        }
      ],
      "certificateStartDate": "2023-06-26",
      "certificateEndDate": "2023-12-26",
      "object": "ALBAÑILERÍA Y PEQUEÑOS TRABAJOS DE CONSTRUCCIÓN EN GENERAL.",
      "mainEntityOfPage": "https://www.contratacion.euskadi.eus/webkpe00-kperoc/es/ac71aBusquedaRegistrosWar/empresa/09093",
      "_links": {
        "self": {
          "name": "MANUEL CABALLERO MUÑOZ",
          "href": "https://api.euskadi.eus/procurements/companies/09093"
        }
      }
    },
    {
      "name": "ISECOTEC INGENIERIA S.L.",
      "registrationNumber": "08811",
      "identificationNumber": "B01583525",
      "address": "Jerónimo Roure, 22 Bajo",
      "location": {
        "postalCode": "01010",
        "municipality": "Vitoria-Gasteiz",
        "county": "Araba/Álava",
        "municipalityId": "059",
        "countyId": "01"
      },
      "economicActivities": [
        {
          "id": "1.843.1",
          "name": "Servicios técnicos de ingeniería",
          "_links": {
            "self": {
              "name": "Servicios técnicos de ingeniería",
              "href": "https://api.euskadi.eus/procurements/companies/economic-activities/1.843.1"
            }
          }
        }
      ],
      "certificateStartDate": "2023-06-20",
      "certificateEndDate": "2023-12-20",
      "object": "INTERMEDIACIÓN EN LA REALIZACIÓN DE PROYECTOS, ESTUDIOS DE CONSULTORÍA, AUDITORIA, PROGRAMAS INFORMÁTICOS, DISEÑO, FABRICACIÓN Y ASESORAMIENTO EN INGENIERÍA ENERGÉTICA, ASÍ COMO LA FABRICACIÓN Y COMERCIALIZACIÓN DE EQUIPOS ELÉCTRICOS Y MAQUINARIA, ASÍ COMO LA TRANSFORMACIÓN DIGITAL DE EMPRESAS Y NEGOCIOS, DESARROLLO E IMPLANTACIÓN DE SISTEMAS DE AHORRO Y PRODUCCIÓN DE ENERGÍA, ASÍ COMO LA MEJORA DE PROCESOS PARA ADAPTARLOS A LA TRANSICIÓN ENERGÉTICA. INTERMEDIACIÓN EN SERVICIOS DE INGENIERÍA Y ARQUITECTURA. IMPLANTACIÓN Y COMERCIALIZACIÓN, ASESORAMIENTO Y PRESTACIÓN DE TODO TIPO DE SERVICIOS RELACIONADOS CON EL SOFTWARE Y APLICACIONES INFORMÁTICAS. SERVICIOS DE PROGRAMACIÓN Y ANALISTA INFORMÁTICO. COMERCIALIZACIÓN Y MONTAJE DE TODO TIPO DE EQUIPOS Y SISTEMAS PARA EL DESARROLLO DE ESTAS ACTIVIDADES Y OTRAS RELACIONADAS CON ELLAS. EJECUCIÓN TODO TIPO DE OBRAS CIVILES E INSTALACIONES TÉCNICAS Y SUS LEGALIZACIONES. SERVICIOS COMO SOCIEDAD DE MEDIACIÓN, INTERMEDIACIÓN Y COMERCIO. COMPRA VENTA DE EQUIPOS ELÉCTRICOS, ELECTRÓNICOS Y MAQUINARIA, Y SIMILARES, ASÍ COMO DE BIENES INMUEBLES. LA SOCIEDAD ACTUARÁ COMO MEDIADORA O INTERMEDIADORA EN AQUELLAS ACTIVIDADES PROPIAS DE LAS SOCIEDADES PROFESIONALES.",
      "mainEntityOfPage": "https://www.contratacion.euskadi.eus/webkpe00-kperoc/es/ac71aBusquedaRegistrosWar/empresa/08811",
      "_links": {
        "self": {
          "name": "ISECOTEC INGENIERIA S.L.",
          "href": "https://api.euskadi.eus/procurements/companies/08811"
        }
      }
    }
  ]
}