{
  "totalItems": 9042,
  "totalPages": 905,
  "currentPage": 239,
  "itemsOfPage": 10,
  "items": [
    {
      "name": "FUNDACIÓN \"FABRIKA\" CENTRO DE ALTO RENDIMIENTO PARA LA TRANSFORMACIÓN DE LA CULTURA EMPRESARIAL- \"FABRIKA\" FUNDAZIOA, ENPRESEN KULTURA ERALDATZEKO ERRENDIMENDU HANDIKO ZENTROA",
      "registrationNumber": "09064",
      "identificationNumber": "G20549713",
      "address": "Paseo Miramón, 181",
      "location": {
        "postalCode": "20014",
        "municipality": "Donostia / San Sebastián",
        "county": "Gipuzkoa",
        "municipalityId": "069",
        "countyId": "20"
      },
      "economicActivities": [
        {
          "id": "1.674.5",
          "name": "Servicio de restaurante y cafetería en sociedades, casinos, clubs",
          "_links": {
            "self": {
              "name": "Servicio de restaurante y cafetería en sociedades, casinos, clubs",
              "href": "https://api.euskadi.eus/procurements/companies/economic-activities/1.674.5"
            }
          }
        },
        {
          "id": "1.861.2",
          "name": "Alquiler de locales industriales y otros alquileres n.c.o.p",
          "_links": {
            "self": {
              "name": "Alquiler de locales industriales y otros alquileres n.c.o.p",
              "href": "https://api.euskadi.eus/procurements/companies/economic-activities/1.861.2"
            }
          }
        },
        {
          "id": "1.933.9",
          "name": "Otras actividades de enseñanza tales como idiomas, mecanografía",
          "_links": {
            "self": {
              "name": "Otras actividades de enseñanza tales como idiomas, mecanografía",
              "href": "https://api.euskadi.eus/procurements/companies/economic-activities/1.933.9"
            }
          }
        }
      ],
      "certificateStartDate": "2025-09-30",
      "certificateEndDate": "2026-03-30",
      "object": "LOS FINES DE INTERÉS GENERAL QUE PERSIGUE LA FUNDACIÓN SON: LA ASISTENCIA, FORMACIÓN, TRANSFORMACIÓN CULTURAL, PROMOCIÓN Y PERFECCIONAMIENTO CIENTÍFICO, TÉCNICO Y PROFESIONAL DE LAS EMPRESAS Y LAS PERSONAS QUE COMPONEN O PUEDAN EN UN FUTURO COMPONER LA ESTRUCTURA DE LAS EMPRESAS, MEDIANTE LOS CAUCES DE ACTUACIÓN QUE SE CONSIDEREN ADECUADOS, DIRECTAMENTE O MEDIANTE RELACIONES O COLABORACIONES CON ORGANISMOS DE CUALQUIER CONDICIÓN NACIONALES O EXTRANJEROS.\n\n\n",
      "mainEntityOfPage": "https://www.contratacion.euskadi.eus/webkpe00-kperoc/es/ac71aBusquedaRegistrosWar/empresa/09064",
      "_links": {
        "self": {
          "name": "FUNDACIÓN \"FABRIKA\" CENTRO DE ALTO RENDIMIENTO PARA LA TRANSFORMACIÓN DE LA CULTURA EMPRESARIAL- \"FABRIKA\" FUNDAZIOA, ENPRESEN KULTURA ERALDATZEKO ERRENDIMENDU HANDIKO ZENTROA",
          "href": "https://api.euskadi.eus/procurements/companies/09064"
        }
      }
    },
    {
      "name": "PROMOCIONES ETXABARRI-IBIÑA, S.L.",
      "registrationNumber": "09591",
      "identificationNumber": "B01389592",
      "address": "c/ aldabe nº 34 -1º derecha",
      "location": {
        "postalCode": "01012",
        "municipality": "Vitoria-Gasteiz",
        "county": "Araba/Álava",
        "municipalityId": "059",
        "countyId": "01"
      },
      "economicActivities": [
        {
          "id": "1.965.1",
          "name": "Espectáculos en salas y locales (excepto los taurinos)",
          "_links": {
            "self": {
              "name": "Espectáculos en salas y locales (excepto los taurinos)",
              "href": "https://api.euskadi.eus/procurements/companies/economic-activities/1.965.1"
            }
          }
        },
        {
          "id": "1.969.1",
          "name": "Salas de baile y discotecas",
          "_links": {
            "self": {
              "name": "Salas de baile y discotecas",
              "href": "https://api.euskadi.eus/procurements/companies/economic-activities/1.969.1"
            }
          }
        }
      ],
      "certificateStartDate": "2025-09-30",
      "certificateEndDate": "2026-03-30",
      "object": "LA EXPLOTACIÓN DE TODA CLASE DE NEGOCIOS DE HOSTELERÍA, INCLUIDOS BARES, DISCOTECAS Y SALAS DE FIESTA, ASÍ COMO LA PROMOCIÓN Y CONTRATACIÓN DE CONCIERTOS MUSICALES, ESPECTÁCULOS, EXPOSICIONES Y ACTOS CULTURALES.",
      "mainEntityOfPage": "https://www.contratacion.euskadi.eus/webkpe00-kperoc/es/ac71aBusquedaRegistrosWar/empresa/09591",
      "_links": {
        "self": {
          "name": "PROMOCIONES ETXABARRI-IBIÑA, S.L.",
          "href": "https://api.euskadi.eus/procurements/companies/09591"
        }
      }
    },
    {
      "name": "INTERPRET SOLUTIONS, S.L.",
      "registrationNumber": "06276",
      "identificationNumber": "B85004349",
      "address": "Avenida de Europa nº 5, 4º B",
      "location": {
        "postalCode": "45005",
        "municipality": "Toledo",
        "county": "Toledo",
        "municipalityId": "168",
        "countyId": "45"
      },
      "economicActivities": [
        {
          "id": "1.849.3",
          "name": "Servicios de traducción y similares",
          "_links": {
            "self": {
              "name": "Servicios de traducción y similares",
              "href": "https://api.euskadi.eus/procurements/companies/economic-activities/1.849.3"
            }
          }
        }
      ],
      "certificateStartDate": "2025-09-30",
      "certificateEndDate": "2026-03-30",
      "object": "PRESTACIÓN DE SERVICIOS DE TRADUCCIÓN DE IDIOMA, CLAVES Y CÓDIGOS Y EN PARTICULAR DE LENGUAS OFICIALES. LA TRADUCCIÓN DE IDIOMAS EN FORMA ORAL Y DE TEXTO, GRABACIÓN Y REPRODUCCIÓN DE LOS MISMOS EN CUALQUIER FORMATO Y/O SOPORTE IMPRESO O AUDIOVISUAL. EL ASESORAMIENTO EN MATERIA DE IDIOMAS, LA EXPLOTACIÓN DE CENTROS DE FORMACIÓN Y ENSEÑANZA DE LENGUAS O IDIOMAS, INCLUSO LA IMPARTICIÓN DE CLASES. LA IMPORTACIÓN, EXPORTACIÓN Y COMERCIALIZACIÓN TANTO MAYOR COMO MENOR ASÍ COMO LA DISTRIBUCIÓN DE MATERIAL DE TEXTO, AUDIOVISUAL O EN CUALQUIER SOPORTE Y FORMATO DE CUALQUIER PRODUCTO RELACIONADO CON ESTE OBJETO SOCIAL",
      "mainEntityOfPage": "https://www.contratacion.euskadi.eus/webkpe00-kperoc/es/ac71aBusquedaRegistrosWar/empresa/06276",
      "_links": {
        "self": {
          "name": "INTERPRET SOLUTIONS, S.L.",
          "href": "https://api.euskadi.eus/procurements/companies/06276"
        }
      }
    },
    {
      "name": "IBARRA ARGI-LANAK SL",
      "registrationNumber": "07541",
      "identificationNumber": "B20646089",
      "address": "APATTA INDUSTRIALDEA, BARATZONDO KALEA, C-12",
      "location": {
        "postalCode": "20400",
        "municipality": "Ibarra",
        "county": "Gipuzkoa",
        "municipalityId": "042",
        "countyId": "20"
      },
      "economicActivities": [
        {
          "id": "1.504.1",
          "name": "Instalaciones eléctricas en general",
          "_links": {
            "self": {
              "name": "Instalaciones eléctricas en general",
              "href": "https://api.euskadi.eus/procurements/companies/economic-activities/1.504.1"
            }
          }
        }
      ],
      "certificateStartDate": "2025-09-30",
      "certificateEndDate": "2026-03-30",
      "object": "TODO TIPO DE INSTALACIONES ELÉCTRICAS; LA REPARACIÓN, REPRESENTACIÓN, DISTRIBUCIÓN Y COMPRA-VENTA DE MATERIAL Y APARATOS ELÉCTRICOS, ELECTRÓNICOS Y ELECTRODOMÉSTICOS DE TODO TIPO",
      "mainEntityOfPage": "https://www.contratacion.euskadi.eus/webkpe00-kperoc/es/ac71aBusquedaRegistrosWar/empresa/07541",
      "_links": {
        "self": {
          "name": "IBARRA ARGI-LANAK SL",
          "href": "https://api.euskadi.eus/procurements/companies/07541"
        }
      }
    },
    {
      "name": "ARTARRIA OBRA Y REHABILITACION, S.L.",
      "registrationNumber": "09040",
      "identificationNumber": "B01565753",
      "address": "Paseo Los Arquillos",
      "location": {
        "postalCode": "01001",
        "municipality": "Vitoria-Gasteiz",
        "county": "Araba/Álava",
        "municipalityId": "059",
        "countyId": "01"
      },
      "economicActivities": [
        {
          "id": "1.501.1",
          "name": "Construcción completa, reparación y conservación de edificaciones",
          "_links": {
            "self": {
              "name": "Construcción completa, reparación y conservación de edificaciones",
              "href": "https://api.euskadi.eus/procurements/companies/economic-activities/1.501.1"
            }
          }
        }
      ],
      "certificateStartDate": "2025-09-30",
      "certificateEndDate": "2026-03-30",
      "object": "- COMPRAVENTA, ARRENDAMIENTO, ADMINISTRACIÓN, GESTIÓN Y EXPLOTACIÓN DE TODO TIPO DE BIENES INMUEBLES POR CUALQUIER TÍTULO. LA PROMOCIÓN Y REALIZACIÓN DE TODA CLASE DE OBRAS DE CONSTRUCCIÓN, MEJORA, CONSERVACIÓN, RESTAURACIÓN, REHABILITACIÓN, TANTO PRIVADAS COMO PÚBLICAS, POR CUENTA PROPIA O AJENA. - TRABAJOS DE CANTERÍA. - LA TENENCIA, PROMOCIÓN, CONSTRUCCIÓN, COMPRA, VENTA, ARRENDAMIENTO Y COMERCIALIZACIÓN EN GENERAL DE TODA CLASE DE EDIFICACIONES, TERRENOS, SOLARES, FINCAS RÚSTICAS Y URBANAS.",
      "mainEntityOfPage": "https://www.contratacion.euskadi.eus/webkpe00-kperoc/es/ac71aBusquedaRegistrosWar/empresa/09040",
      "_links": {
        "self": {
          "name": "ARTARRIA OBRA Y REHABILITACION, S.L.",
          "href": "https://api.euskadi.eus/procurements/companies/09040"
        }
      }
    },
    {
      "name": "GENELEK SISTEMAS, S.L.",
      "registrationNumber": "05576",
      "identificationNumber": "B75057778",
      "address": "Pol. Ind. A.D.U. 21, Plaza Urola, s/n",
      "location": {
        "postalCode": "20750",
        "municipality": "Zumaia",
        "county": "Gipuzkoa",
        "municipalityId": "081",
        "countyId": "20"
      },
      "economicActivities": [
        {
          "id": "1.504.1",
          "name": "Instalaciones eléctricas en general",
          "_links": {
            "self": {
              "name": "Instalaciones eléctricas en general",
              "href": "https://api.euskadi.eus/procurements/companies/economic-activities/1.504.1"
            }
          }
        },
        {
          "id": "1.843.1",
          "name": "Servicios técnicos de ingeniería",
          "_links": {
            "self": {
              "name": "Servicios técnicos de ingeniería",
              "href": "https://api.euskadi.eus/procurements/companies/economic-activities/1.843.1"
            }
          }
        }
      ],
      "certificateStartDate": "2025-09-30",
      "certificateEndDate": "2026-03-30",
      "classification": [
        {
          "id": "O",
          "name": "Obras",
          "groups": [
            {
              "id": "I",
              "name": "INSTALACIONES ELÉCTRICAS",
              "subgroups": [
                {
                  "id": "06",
                  "name": "Distribución en baja tensión",
                  "categories": [
                    {
                      "id": "4",
                      "name": "Desde 840.001 Hasta 2.400.000",
                      "_links": {
                        "self": {
                          "name": "Desde 840.001 Hasta 2.400.000",
                          "href": "https://api.euskadi.eus/procurements/companies/types/O/categories/4"
                        }
                      }
                    }
                  ],
                  "_links": {
                    "self": {
                      "name": "Distribución en baja tensión",
                      "href": "https://api.euskadi.eus/procurements/companies/types/O/groups/I/subgroups/06"
                    }
                  }
                },
                {
                  "id": "09",
                  "name": "Instalaciones eléctricas sin cualificación específica",
                  "categories": [
                    {
                      "id": "4",
                      "name": "Desde 840.001 Hasta 2.400.000",
                      "_links": {
                        "self": {
                          "name": "Desde 840.001 Hasta 2.400.000",
                          "href": "https://api.euskadi.eus/procurements/companies/types/O/categories/4"
                        }
                      }
                    }
                  ],
                  "_links": {
                    "self": {
                      "name": "Instalaciones eléctricas sin cualificación específica",
                      "href": "https://api.euskadi.eus/procurements/companies/types/O/groups/I/subgroups/09"
                    }
                  }
                }
              ],
              "_links": {
                "self": {
                  "name": "INSTALACIONES ELÉCTRICAS",
                  "href": "https://api.euskadi.eus/procurements/companies/types/O/groups/I"
                }
              }
            }
          ],
          "_links": {
            "self": {
              "name": "Obras",
              "href": "https://api.euskadi.eus/procurements/companies/types/O"
            }
          }
        }
      ],
      "object": "A) LA PRESTACIÓN DE SERVICIOS ENERGÉTICOS E INGENIERÍA ENERGÉTICA. COMPRENDE INGENIERÍA DE DISEÑO, PROYECTOS  Y SUMINISTROS DE CUADROS ELÉCTRICOS DE CONTROL INDUSTRIAL, INCLUYENDO SERVICIOS DE ASISTENCIA TÉCNICA Y MANTENIMIENTO, ASÍ COMO LA DISTRIBUCIÓN Y VENTA DE EQUIPOS RELACIONADOS CON LA GENERACIÓN ELÉCTRICA Y ELECTRÓNICA. B) TODO TIPO DE INSTALACIÓN ELÉCTRICA Y ELECTRÓNICA, ASÍ COMO SU MANTENIMIENTO Y REPARACIÓN; LA CONSTRUCCIÓN DE INSTALACIONES PRODUCTORAS DE ENERGÍA ELÉCTRICA INTERCONECTADAS A LA RED DE DISTRIBUCIÓN PÚBLICA; LA INSTALACIÓN DE ELEMENTOS ELÉCTRICOS NECESARIOS PARA REALIZAR ALGUNA DE LAS FUNCIONES SIGUIENTES EN UNA SUBESTACIÓN ELÉCTRICA; TRANSFORMACIÓN DE LA TENSIÓN, DE LA FRECUENCIA, DEL NÚMERO DE FASES, RECTIFICACIÓN, COMPENSACIÓN DEL FACTOR DE POTENCIA Y CONEXIÓN DE DOS O MÁS CIRCUITOS; Y LAS INSTALACIONES DE DISTRIBUCIÓN EN BAJA TENSIÓN",
      "mainEntityOfPage": "https://www.contratacion.euskadi.eus/webkpe00-kperoc/es/ac71aBusquedaRegistrosWar/empresa/05576",
      "_links": {
        "self": {
          "name": "GENELEK SISTEMAS, S.L.",
          "href": "https://api.euskadi.eus/procurements/companies/05576"
        }
      }
    },
    {
      "name": "ASTEGI ERAIKUNTZAK, S.L.",
      "registrationNumber": "10137",
      "identificationNumber": "B75819748",
      "address": "CL ELIZMENDI, 199",
      "location": {
        "postalCode": "20159",
        "municipality": "Asteasu",
        "county": "Gipuzkoa",
        "municipalityId": "014",
        "countyId": "20"
      },
      "economicActivities": [
        {
          "id": "1.501.1",
          "name": "Construcción completa, reparación y conservación de edificaciones",
          "_links": {
            "self": {
              "name": "Construcción completa, reparación y conservación de edificaciones",
              "href": "https://api.euskadi.eus/procurements/companies/economic-activities/1.501.1"
            }
          }
        }
      ],
      "certificateStartDate": "2025-09-30",
      "certificateEndDate": "2026-03-30",
      "object": "LAS ACTIVIDADES DE CONSTRUCCIÓN, URBANIZACIÓN Y OBRAS EN EDIFICACIONES DE USO INDUSTRIAL Y RESIDENCIAL, OBRAS DE ASFALTADO Y PAVIMENTADO, ASÍ COMO LA COMPRAVENTA DE MATERIALES DE CONSTRUCCIÓN. CNAE 4101: CONSTRUCCIÓN DE EDIFICIOS RESIDENCIALES.",
      "mainEntityOfPage": "https://www.contratacion.euskadi.eus/webkpe00-kperoc/es/ac71aBusquedaRegistrosWar/empresa/10137",
      "_links": {
        "self": {
          "name": "ASTEGI ERAIKUNTZAK, S.L.",
          "href": "https://api.euskadi.eus/procurements/companies/10137"
        }
      }
    },
    {
      "name": "DATASPURS, S.L.",
      "registrationNumber": "10135",
      "identificationNumber": "B87916631",
      "address": "Av. Ramón y Cajal 29",
      "location": {
        "postalCode": "28016",
        "municipality": "Madrid",
        "county": "Madrid",
        "municipalityId": "079",
        "countyId": "28"
      },
      "economicActivities": [
        {
          "id": "1.845",
          "name": "Explotación electrónica por cuenta de terceros",
          "_links": {
            "self": {
              "name": "Explotación electrónica por cuenta de terceros",
              "href": "https://api.euskadi.eus/procurements/companies/economic-activities/1.845"
            }
          }
        }
      ],
      "certificateStartDate": "2025-09-30",
      "certificateEndDate": "2026-03-30",
      "object": "LA PROGRAMACIÓN INFORMÁTICA.",
      "mainEntityOfPage": "https://www.contratacion.euskadi.eus/webkpe00-kperoc/es/ac71aBusquedaRegistrosWar/empresa/10135",
      "_links": {
        "self": {
          "name": "DATASPURS, S.L.",
          "href": "https://api.euskadi.eus/procurements/companies/10135"
        }
      }
    },
    {
      "name": "GUEDAN SERVICIOS DEPORTIVOS, S.A.",
      "registrationNumber": "03522",
      "identificationNumber": "A48224224",
      "address": "ANDRES ISASI, 11 bajo dcha.",
      "location": {
        "postalCode": "48012",
        "municipality": "Bilbao",
        "county": "Bizkaia",
        "municipalityId": "020",
        "countyId": "48"
      },
      "economicActivities": [
        {
          "id": "1.967.1",
          "name": "Instalaciones deportivas",
          "_links": {
            "self": {
              "name": "Instalaciones deportivas",
              "href": "https://api.euskadi.eus/procurements/companies/economic-activities/1.967.1"
            }
          }
        }
      ],
      "certificateStartDate": "2025-09-30",
      "certificateEndDate": "2026-03-30",
      "object": "I) GESTIÓN INTEGRAL DE INSTALACIONES DEPORTIVAS. II) GESTIÓN INTEGRAL DE ORGANIZACIÓN E IMPARTICIÓN DE CURSOS EN INSTALACIONES DEPORTIVAS. III) PRESTACIÓN DE SERVICIOS DE ENSEÑANZA DEPORTIVA, MEDIANTE CURSOS IMPARTIDOS POR MONITORES DEPORTIVOS. IV) SOCORRISMO ACUÁTICO. V) LIMPIEZA DE INSTALACIONES DEPORTIVAS. VI) MANTENIMIENTO DE EQUIPOS E INSTALACIONES, SITOS EN INSTALACIONES DEPORTIVAS. VII) SERVICIOS DE ADMINISTRACIÓN, TAQUILLAJE Y DE GESTIÓN DE COBROS EN INSTALACIONES DEPORTIVAS. VIII) SERVICIOS DE PORTERÍA Y CONTROL DE ACCESOS E INSTALACIONES DEPORTIVAS. IX) PRESTACIÓN DE SERVICIOS DE CONSULTORÍA Y ASESORAMIENTO EN CUANTONO ESTÉN RESERVADAS POR LEY, A ENTIDADES PÚBLICAS, PERSONAS FÍSICAS Y JURÍDICAS EN TODO LO RELACIONADO CON LAS MATERIAS Y DERECHOS ARTÍSTICOS Y DEPORTIVOS. X) REPRESENTACIÓN , DISTRIBUCIÓN Y COMERCIALIZACIÓN DE MATERIAL DEPORTIVO. XI) ORGANIZACIÓN Y GESTIÓN DE CALQUIER EVENTO DEPORTIVO O ARTÍSTICO",
      "mainEntityOfPage": "https://www.contratacion.euskadi.eus/webkpe00-kperoc/es/ac71aBusquedaRegistrosWar/empresa/03522",
      "_links": {
        "self": {
          "name": "GUEDAN SERVICIOS DEPORTIVOS, S.A.",
          "href": "https://api.euskadi.eus/procurements/companies/03522"
        }
      }
    },
    {
      "name": "AR CONSULTORES EN MEDIOAMBIENTE, S.L.",
      "registrationNumber": "07984",
      "identificationNumber": "B20876967",
      "address": "C/ Portuetxe nº 45 A, planta 3ª, oficina 4",
      "location": {
        "postalCode": "20018",
        "municipality": "Donostia / San Sebastián",
        "county": "Gipuzkoa",
        "municipalityId": "069",
        "countyId": "20"
      },
      "economicActivities": [
        {
          "id": "1.847",
          "name": "Servicios de consultoría",
          "_links": {
            "self": {
              "name": "Servicios de consultoría",
              "href": "https://api.euskadi.eus/procurements/companies/economic-activities/1.847"
            }
          }
        }
      ],
      "certificateStartDate": "2025-09-30",
      "certificateEndDate": "2026-03-30",
      "object": "LA REALIZACIÓN DE TRABAJOS DE ANÁLISIS, ASESORAMIENTO Y CONTROL DE ASPECTOS MEDIOAMBIENTALES PARA TODO TIPO DE EMPRESAS, ADMINISTRACIONES PÚBLICAS O PARTICULARES, COMO ESTUDIOS DEL MEDIO, ESTUDIOS DE IMPACTO O AFECCIONES MEDIOAMBIENTALES DE TODO TIPO DE PROYECTOS O ACTUACIONES, DISEÑO Y APLICACIÓN DE MEDIDAS CORRECTORAS O COMPENSATORIAS DE IMPACTOS O AFECCIONES MEDIOAMBIENTALES, CONTROL DE VARIABLES AMBIENTALES DE OBRAS Y/O PROYECTOS, ESTUDIOS, ANÁLISIS, IMPLEMENTACIÓN, PUESTA EN MARCHA Y CERTIFICACIÓN DE PROCEDIMIENTOS Y SISTEMAS DE GESTIÓN MEDIOAMBIENTAL, ASÍ COMO COMERCIALIZACIÓN DE EQUIPOS ESPECÍFICOS Y NECESARIOS PARAS LAS LABORES ANTES RESEÑADAS.",
      "mainEntityOfPage": "https://www.contratacion.euskadi.eus/webkpe00-kperoc/es/ac71aBusquedaRegistrosWar/empresa/07984",
      "_links": {
        "self": {
          "name": "AR CONSULTORES EN MEDIOAMBIENTE, S.L.",
          "href": "https://api.euskadi.eus/procurements/companies/07984"
        }
      }
    }
  ]
}