{
  "totalItems": 9042,
  "totalPages": 905,
  "currentPage": 826,
  "itemsOfPage": 10,
  "items": [
    {
      "name": "ERAIKI, S.L.",
      "registrationNumber": "01715",
      "identificationNumber": "B20040424",
      "address": "GOLF ENPARANTZA, Nº 1 - BAJO.",
      "location": {
        "postalCode": "20160",
        "municipality": "Lasarte-Oria",
        "county": "Gipuzkoa",
        "municipalityId": "902",
        "countyId": "20"
      },
      "economicActivities": [
        {
          "id": "1.843.1",
          "name": "Servicios técnicos de ingeniería",
          "_links": {
            "self": {
              "name": "Servicios técnicos de ingeniería",
              "href": "https://api.euskadi.eus/procurements/companies/economic-activities/1.843.1"
            }
          }
        }
      ],
      "certificateStartDate": "1999-09-02",
      "certificateEndDate": "2000-02-09",
      "object": "LAS ACTIVIDADES DE INFRAESTRUCTURA, URBANISMO, INGENIERÍA Y DEMÁS OPERACIONES RELACIONADAS CON ELLA",
      "mainEntityOfPage": "https://www.contratacion.euskadi.eus/webkpe00-kperoc/es/ac71aBusquedaRegistrosWar/empresa/01715",
      "_links": {
        "self": {
          "name": "ERAIKI, S.L.",
          "href": "https://api.euskadi.eus/procurements/companies/01715"
        }
      }
    },
    {
      "name": "JAUREGUIZAHAR, S.A.",
      "registrationNumber": "01956",
      "identificationNumber": "A48168579",
      "address": "C/ REKAKOETXE, Nº 4 - 1º",
      "location": {
        "postalCode": "48010",
        "municipality": "Bilbao",
        "county": "Bizkaia",
        "municipalityId": "020",
        "countyId": "48"
      },
      "economicActivities": [
        {
          "id": "1.501.1",
          "name": "Construcción completa, reparación y conservación de edificaciones",
          "_links": {
            "self": {
              "name": "Construcción completa, reparación y conservación de edificaciones",
              "href": "https://api.euskadi.eus/procurements/companies/economic-activities/1.501.1"
            }
          }
        }
      ],
      "certificateStartDate": "1999-08-02",
      "certificateEndDate": "2000-01-19",
      "object": "\r\n\r\na) LAS ACTIVIDADES POR CUENTA PROPIA O DE TERCEROS, DE PREPARACIÓN, URBANIZACIÓN Y PARCELACIÓN DE TERRENOS, RÚSTICOS, URBANOS E INDUSTRIALES; COMPRAVENTA Y ADMINISTRACIÓN DE INMUEBLES DE TODAS CLASES; Y DE CONSTRUCCIÓN Y PROMOCIÓN DE EDIFICACIONES, OBRAS, INSTALACIONES Y DECORACIONES INMOBILIARIAS DE CUALQUIER ÍNDOLE PARA SU VENTA, ALQUILER O CUALQUIER OTRA FORMA DE EXPLOTACIÓN.\r\n\r\nb) LA REFORMA, REHABILITACIÓN Y MANTENIMIENTO DE INSTALACIONES INDUSTRIALES Y EDIFICIOS DE CUALQUIER CLASE Y CONDICIÓN, TANTO EN SU ESTRUCTURA INTERNA COMO EXTERNA.\r\n\r\nc) EL ESTUDIO Y CONFECCIÓN, POR CUENTA PROPIA O DE TERCEROS, DE CÁLCULOS, ESTUDIOS, PLANOS Y PROYECTOS TÉCNICOS, COMERCIALES, FINANCIEROS, CONTABLES, JURÍDICOS O DE CUALQUIER OTRA NATURALEZA, NECESARIOS O CONVENIENTES PARA EL DESARROLLO DE ACTIVIDADES DE CONSTRUCCIÓN, PROMOCIÓN Y ADMINISTRACIÓN INMOBILIARIAS.\r\n\r\nd) LA PROMOCIÓN, CONSTITUCIÓN, PARTICIPACIÓN Y PRESTACIÓN DE SERVICIOS DE ASESORAMIENTO Y ASISTENCIA TÉCNICA DE SOCIEDADES, COOPERATIVAS, COMUNIDADES O CUALESQUIERA OTRAS FIGURAS ASOCIATIVAS QUE TENGAN POR OBJETO LA INVERSIÓN, DISFRUTE, CONSTRUCCIÓN, PROMOCIÓN O CUALQUIER OTRA OPERACIÓN RELACIONADA CON EL ÁMBITO INMOBILIARIO.\r\n\r\ne) LA FABRICACIÓN, COMPRAVENTA, IMPORTACIÓN, EXPORTACIÓN Y REPRESENTACIÓN COMERCIAL DE TODO TIPO DE MAQUINARIA, BIENES, INSTALACIONES Y SERVICIOS EMPLEADOS O RELACIONADOS CON LA ACTIVIDAD DE CONSTRUCCIÓN INMOBILIARIA.\r\n\r\nf) LA PROMOCIÓN DE NEGOCIOS COMERCIALES DE SERVICIOS ORIENTADOS A SATISFACER LAS NECESIDADES O FACILITAR EL ESPARCIMIENTO Y COMODIDAD DE LOS USUARIOS DE LAS VIVIENDAS PERTENECIENTES AL GRUPO O COMPLEJO INMOBILIARIO URBANO EN QUE TALES NEGOCIOS SE ESTABLEZCAN, CON EL OBJETO PRIMORDIAL DE PROCEDER A SU POSTERIOR VENTA, O CESIÓN EN RÉGIMEN DE ARRENDAMIENTO O EXPLOTACIIÓN EN COPARTICIPACIÓN CON OTRAS PERSONAS FÍSICAS O JURÍDICAS",
      "mainEntityOfPage": "https://www.contratacion.euskadi.eus/webkpe00-kperoc/es/ac71aBusquedaRegistrosWar/empresa/01956",
      "_links": {
        "self": {
          "name": "JAUREGUIZAHAR, S.A.",
          "href": "https://api.euskadi.eus/procurements/companies/01956"
        }
      }
    },
    {
      "name": "AUTOCARES LOYOLA, S.L.",
      "registrationNumber": "02030",
      "identificationNumber": "B20615142",
      "address": "C/ PASEO BERA-BERA, Nº 49 - 1º B.",
      "location": {
        "postalCode": "20009",
        "municipality": "Donostia / San Sebastián",
        "county": "Gipuzkoa",
        "municipalityId": "069",
        "countyId": "20"
      },
      "economicActivities": [
        {
          "id": "1.721.3",
          "name": "Transporte de viajeros por carretera",
          "_links": {
            "self": {
              "name": "Transporte de viajeros por carretera",
              "href": "https://api.euskadi.eus/procurements/companies/economic-activities/1.721.3"
            }
          }
        }
      ],
      "certificateStartDate": "1999-07-28",
      "certificateEndDate": "1999-12-25",
      "object": "EL TRANSPORTE POR CUALQUIER MEDIO, POR CUENTA PROPIA O AJENA, PÚBLICO O PRIVADO, NACIONAL E INTERNACIONAL, TANTO DE PERSONAS COMO DE MERCANCÍAS Y COSAS O MIXTOS",
      "mainEntityOfPage": "https://www.contratacion.euskadi.eus/webkpe00-kperoc/es/ac71aBusquedaRegistrosWar/empresa/02030",
      "_links": {
        "self": {
          "name": "AUTOCARES LOYOLA, S.L.",
          "href": "https://api.euskadi.eus/procurements/companies/02030"
        }
      }
    },
    {
      "name": "BUREAU BATERÍAS, S.L.",
      "registrationNumber": "02102",
      "identificationNumber": "B20547725",
      "address": "C/ BARRIO DE LA FLORIDA, Nº 27.",
      "location": {
        "postalCode": "20120",
        "municipality": "Hernani",
        "county": "Gipuzkoa",
        "municipalityId": "040",
        "countyId": "20"
      },
      "economicActivities": [
        {
          "id": "1.615.9",
          "name": "Venta al por mayor de otros artículos de consumo duradero n.c.o.p",
          "_links": {
            "self": {
              "name": "Venta al por mayor de otros artículos de consumo duradero n.c.o.p",
              "href": "https://api.euskadi.eus/procurements/companies/economic-activities/1.615.9"
            }
          }
        }
      ],
      "certificateStartDate": "1999-07-28",
      "certificateEndDate": "2000-01-22",
      "object": "\r\n\r\na) LA COMERCIALIZACIÓN DE PRODUCTOS DE TODO TIPO, TANTO EN ESPAÑA COMO EN EL EXTRANJERO, ACTUANDO BAJO CUALQUIERA DE LAS FORMAS ADMITIDAS EN DERECHO.\r\n\r\nb) LA FABRICACIÓN, COMPRA, VENTA, DISTRIBUCIÓN, IMPORTACIÓN, EXPORTACIÓN, MANTENIMIENTO Y COMERCIALIZACIÓN EN GENERAL DE ACUMULADORES Y BATERÍAS PARA TODO TIPO DE APLICACIONES DE ARRANQUE, DE TRACCIÓN, DE EMERGENCIA, ESTACIONARIAS, ETC., ASÍ COMO TODO TIPO DE DERIVADOS Y MATERIAL COMPLEMENTARIO DE LAS BATERÍAS, COMO CARGADORES DE BATERÍAS, RECTIFICADORES DE CORRIENTE, LIMITADORES DE DESCARGA, CONDUCTORES ELÉCTRICOS, ETC.\r\n\r\nc) EL EJERCICIO POR CUENTA PROPIA, EN PARTICIPACIÓN O POR CUENTA DE TERCEROS, DE TODA CLASE DE OPERACIONES EN RELACIÓN CON LA ADQUISICIÓN, ENAJENACIÓN Y ARRENDAMIENTOS DE INMUEBLES DE TODAS CLASES Y, EN GENERAL, CUANTO SE REFIERA A OPERACIONES DE TODO TIPO INMOBILIARIO, SALVO AQUÉLLAS PARA CUYO DESARROLLO EXIJA LA NORMATIVA ESPECIAL APLICABLE DETERMINADOS REQUISITOS DE LOS QUE CAREZCA LA SOCIEDAD",
      "mainEntityOfPage": "https://www.contratacion.euskadi.eus/webkpe00-kperoc/es/ac71aBusquedaRegistrosWar/empresa/02102",
      "_links": {
        "self": {
          "name": "BUREAU BATERÍAS, S.L.",
          "href": "https://api.euskadi.eus/procurements/companies/02102"
        }
      }
    },
    {
      "name": "SERVICIO DE MANTENIMIENTO INTEGRAL EVOHE, S.L.",
      "registrationNumber": "01751",
      "identificationNumber": "B20572871",
      "address": "C/ URBIETA, Nº 36 - 1º",
      "location": {
        "postalCode": "20006",
        "municipality": "Donostia / San Sebastián",
        "county": "Gipuzkoa",
        "municipalityId": "069",
        "countyId": "20"
      },
      "economicActivities": [
        {
          "id": "1.922",
          "name": "Servicios de limpieza",
          "_links": {
            "self": {
              "name": "Servicios de limpieza",
              "href": "https://api.euskadi.eus/procurements/companies/economic-activities/1.922"
            }
          }
        }
      ],
      "certificateStartDate": "1999-07-21",
      "certificateEndDate": "2000-01-01",
      "object": "LA LIMPIEZA E HIGIENIZACIÓN PRESTADOS CON CARÁCTER ESTABLE Y GENERAL DE OFICINAS, CENTROS SANITARIOS Y DE ENSEÑANZA, BANCOS Y CAJAS DE AHORRO, EMPRESAS Y LOCALES COMERCIALES, CENTROS OFICIALES Y SIMILARES. LA DESRATIZACIÓN, DESINSECCIÓN Y DESINFECCIÓN. LA CONSERVACIÓN Y MANTENIMIENTO DE PARQUES Y JARDINES. EL MANTENIMIENTO DE EQUIPOS E INSTALACIONES DE AIRE ACONDICIONADO, CALEFACCIÓN, VENTILACIÓN, SANEAMIENTO, ELECTRICIDAD E ILUMINACIÓN, CARPINTERÍA, ALBAÑILERÍA, ESCAYOLA, SISTEMAS DE INCENDIOS Y DE RIEGO AUTOMÁTICO, CONSERVACIÓN DE REDES DE INFORMÁTICA, OFIMÁTICA Y TELECOMUNICACIÓN",
      "mainEntityOfPage": "https://www.contratacion.euskadi.eus/webkpe00-kperoc/es/ac71aBusquedaRegistrosWar/empresa/01751",
      "_links": {
        "self": {
          "name": "SERVICIO DE MANTENIMIENTO INTEGRAL EVOHE, S.L.",
          "href": "https://api.euskadi.eus/procurements/companies/01751"
        }
      }
    },
    {
      "name": "I.C.T. INSTRUMENTACIÓN CIENTÍFICA TÉCNICA, S.L.",
      "registrationNumber": "02015",
      "identificationNumber": "B20568309",
      "address": "C/ AVENIDA REKALDE, Nº 35.",
      "location": {
        "postalCode": "20009",
        "municipality": "Donostia / San Sebastián",
        "county": "Gipuzkoa",
        "municipalityId": "069",
        "countyId": "20"
      },
      "economicActivities": [
        {
          "id": "1.659.3",
          "name": "Venta al por menor de aparatos médicos, ortopédicos, ópticos y fotográficos",
          "_links": {
            "self": {
              "name": "Venta al por menor de aparatos médicos, ortopédicos, ópticos y fotográficos",
              "href": "https://api.euskadi.eus/procurements/companies/economic-activities/1.659.3"
            }
          }
        }
      ],
      "certificateStartDate": "1999-07-14",
      "certificateEndDate": "1999-12-23",
      "object": "LA COMERCIALIZACIÓN Y FABRICACIÓN DE INSTRUMENTACIÓN Y REACTIVOS CIENTÍFICO-TÉCNICOS",
      "mainEntityOfPage": "https://www.contratacion.euskadi.eus/webkpe00-kperoc/es/ac71aBusquedaRegistrosWar/empresa/02015",
      "_links": {
        "self": {
          "name": "I.C.T. INSTRUMENTACIÓN CIENTÍFICA TÉCNICA, S.L.",
          "href": "https://api.euskadi.eus/procurements/companies/02015"
        }
      }
    },
    {
      "name": "SERVICIOS TÉCNICOS GORBEA, S.L.",
      "registrationNumber": "01425",
      "identificationNumber": "B01149913",
      "address": "C/ FEDERICO BARAIBAR, 2 - 3º",
      "location": {
        "postalCode": "01003",
        "municipality": "Vitoria-Gasteiz",
        "county": "Araba/Álava",
        "municipalityId": "059",
        "countyId": "01"
      },
      "economicActivities": [
        {
          "id": "1.619.7",
          "name": "Venta al por mayor de instrumentos de precisión, medida y similares",
          "_links": {
            "self": {
              "name": "Venta al por mayor de instrumentos de precisión, medida y similares",
              "href": "https://api.euskadi.eus/procurements/companies/economic-activities/1.619.7"
            }
          }
        }
      ],
      "certificateStartDate": "1999-07-09",
      "certificateEndDate": "1999-12-22",
      "object": "EL ESTUDIO DE LA TIERRA; ELABORACIÓN DE CARTOGRAFÍA, PLANOS Y MAPAS; SEGUIMIENTO Y CONTROL GEOMÉTRICO DE OBRAS PÚBLICAS Y PRIVADAS; PRESTACIÓN DE SERVICIOS DE TRATAMIENTOS ANALÍTICOS DE INFORMACIÓN CARTOGRÁFICA Y DIBUJO ASISTIDO POR ORDENADOR; ESTABLECIMIENTO DE REDES GEODÉSICAS; PROYECTO, DESARROLLO Y VENTA DE SOFTWARE, IMPORTACIÓN, EXPORTACIÓN Y COMERCIALIZACIÓN DE INSTRUMENTOS DE DIBUJO, MEDIDA E INFORMÁTICOS",
      "mainEntityOfPage": "https://www.contratacion.euskadi.eus/webkpe00-kperoc/es/ac71aBusquedaRegistrosWar/empresa/01425",
      "_links": {
        "self": {
          "name": "SERVICIOS TÉCNICOS GORBEA, S.L.",
          "href": "https://api.euskadi.eus/procurements/companies/01425"
        }
      }
    },
    {
      "name": "ESTUDIO ATLAS, S.L.",
      "registrationNumber": "00816",
      "identificationNumber": "B01056209",
      "address": "PARQUE TECNOLÓGICO DE ÁLAVA.",
      "location": {
        "postalCode": "01510",
        "municipality": "Vitoria-Gasteiz",
        "county": "Araba/Álava",
        "municipalityId": "059",
        "countyId": "01"
      },
      "economicActivities": [
        {
          "id": "1.843.1",
          "name": "Servicios técnicos de ingeniería",
          "_links": {
            "self": {
              "name": "Servicios técnicos de ingeniería",
              "href": "https://api.euskadi.eus/procurements/companies/economic-activities/1.843.1"
            }
          }
        }
      ],
      "certificateStartDate": "1999-07-05",
      "certificateEndDate": "1999-12-22",
      "object": "EL ESTUDIO DE LA TIERRA; ELABORACIÓN DE CARTOGRAFÍA, PLANOS Y MAPAS; SEGUIMIENTO Y CONTROL GEOMÉTRICO DE OBRAS PÚBLICAS Y PRIVADAS. PRESTACIÓN DE SERVICIOS DE TRATAMIENTO ANALÍTICO DE INFORMACIÓN CARTOGRÓFICA Y DIBUJO ASISTIDO POR ORDENADOR. ESTABLECIMIENTO DE REDES GEODÉSICAS. IMPORTACIÓN, EXPORTACIÓN Y COMERCIALIZACIÓN DE INSTRUMENTOS DE DIBUJO Y MEDIDA",
      "mainEntityOfPage": "https://www.contratacion.euskadi.eus/webkpe00-kperoc/es/ac71aBusquedaRegistrosWar/empresa/00816",
      "_links": {
        "self": {
          "name": "ESTUDIO ATLAS, S.L.",
          "href": "https://api.euskadi.eus/procurements/companies/00816"
        }
      }
    },
    {
      "name": "ELWE SISTEMAS DE ENSEÑANZA, S.L.",
      "registrationNumber": "00822",
      "identificationNumber": "B78801537",
      "address": "C/ ABEL, Nº 26.",
      "location": {
        "postalCode": "28039",
        "municipality": "Madrid",
        "county": "Madrid",
        "municipalityId": "079",
        "countyId": "28"
      },
      "economicActivities": [
        {
          "id": "1.615.2",
          "name": "Venta al por mayor de muebles",
          "_links": {
            "self": {
              "name": "Venta al por mayor de muebles",
              "href": "https://api.euskadi.eus/procurements/companies/economic-activities/1.615.2"
            }
          }
        },
        {
          "id": "1.615.4",
          "name": "Venta al por mayor de aparatos y material radioeléctrico y electrónico",
          "_links": {
            "self": {
              "name": "Venta al por mayor de aparatos y material radioeléctrico y electrónico",
              "href": "https://api.euskadi.eus/procurements/companies/economic-activities/1.615.4"
            }
          }
        },
        {
          "id": "1.659.3",
          "name": "Venta al por menor de aparatos médicos, ortopédicos, ópticos y fotográficos",
          "_links": {
            "self": {
              "name": "Venta al por menor de aparatos médicos, ortopédicos, ópticos y fotográficos",
              "href": "https://api.euskadi.eus/procurements/companies/economic-activities/1.659.3"
            }
          }
        }
      ],
      "certificateStartDate": "1999-06-29",
      "certificateEndDate": "1999-12-14",
      "object": "LA PLANIFICACIÓN, EL DESARROLLO, LA PRODUCCIÓN Y COMERCIALIZACIÓN DE PRODUCTOS CIENTÍFICOS, TÉCNICOS Y SISTEMAS DIDÁCTICOS ASÍ COMO COMERCIALIZACIÓN DE MOBILIARIO ESCOLAR Y DE LABORATORIO, INCLUIDAS LAS INSTALACIONES Y AULAS DIDÁCTICAS",
      "mainEntityOfPage": "https://www.contratacion.euskadi.eus/webkpe00-kperoc/es/ac71aBusquedaRegistrosWar/empresa/00822",
      "_links": {
        "self": {
          "name": "ELWE SISTEMAS DE ENSEÑANZA, S.L.",
          "href": "https://api.euskadi.eus/procurements/companies/00822"
        }
      }
    },
    {
      "name": "MANUEL GUILLERMO FUENTES (COCINA CENTRAL, M.G.)",
      "registrationNumber": "01538",
      "identificationNumber": "16232221V",
      "address": "C/ OÑATE, Nº 20. PABELLÓN: 107 - 108.",
      "location": {
        "postalCode": "01013",
        "municipality": "Vitoria-Gasteiz",
        "county": "Araba/Álava",
        "municipalityId": "059",
        "countyId": "01"
      },
      "economicActivities": [
        {
          "id": "1.677.9",
          "name": "Otros servicios de alimentación propios de la restauración",
          "_links": {
            "self": {
              "name": "Otros servicios de alimentación propios de la restauración",
              "href": "https://api.euskadi.eus/procurements/companies/economic-activities/1.677.9"
            }
          }
        }
      ],
      "certificateStartDate": "1999-06-28",
      "certificateEndDate": "1999-04-21",
      "object": "OTROS SERVICIOS DE ALIMENTACIÓN PROPIOS DE LA RESTAURACIÓN",
      "mainEntityOfPage": "https://www.contratacion.euskadi.eus/webkpe00-kperoc/es/ac71aBusquedaRegistrosWar/empresa/01538",
      "_links": {
        "self": {
          "name": "MANUEL GUILLERMO FUENTES (COCINA CENTRAL, M.G.)",
          "href": "https://api.euskadi.eus/procurements/companies/01538"
        }
      }
    }
  ]
}