{
  "totalItems": 9042,
  "totalPages": 905,
  "currentPage": 582,
  "itemsOfPage": 10,
  "items": [
    {
      "name": "FERNANDO REINARES ENCINA",
      "registrationNumber": "06855",
      "identificationNumber": "44152761Y",
      "address": "PASEO DE LA CRUZ ROJA, 2 3 A",
      "location": {
        "postalCode": "01015",
        "municipality": "Vitoria-Gasteiz",
        "county": "Araba/Álava",
        "municipalityId": "059",
        "countyId": "01"
      },
      "economicActivities": [
        {
          "id": "1.721.2",
          "name": "Transporte por autotaxis",
          "_links": {
            "self": {
              "name": "Transporte por autotaxis",
              "href": "https://api.euskadi.eus/procurements/companies/economic-activities/1.721.2"
            }
          }
        }
      ],
      "certificateStartDate": "2020-02-21",
      "certificateEndDate": "2020-08-17",
      "object": "TRANSPORTE POR AUTOTAXIS",
      "mainEntityOfPage": "https://www.contratacion.euskadi.eus/webkpe00-kperoc/es/ac71aBusquedaRegistrosWar/empresa/06855",
      "_links": {
        "self": {
          "name": "FERNANDO REINARES ENCINA",
          "href": "https://api.euskadi.eus/procurements/companies/06855"
        }
      }
    },
    {
      "name": "ANTONIO QUIJANO GONZÁLEZ",
      "registrationNumber": "06850",
      "identificationNumber": "26223112F",
      "address": "TRAVESÍA MONJES BERNARDOS",
      "location": {
        "postalCode": "26142",
        "municipality": "Villamediana de Iregua",
        "county": "Rioja, La",
        "municipalityId": "168",
        "countyId": "26"
      },
      "economicActivities": [
        {
          "id": "2.012",
          "name": "Ingenieros agrónomos y de montes",
          "_links": {
            "self": {
              "name": "Ingenieros agrónomos y de montes",
              "href": "https://api.euskadi.eus/procurements/companies/economic-activities/2.012"
            }
          }
        }
      ],
      "certificateStartDate": "2020-02-20",
      "certificateEndDate": "2020-06-05",
      "object": "TRABAJOS DE INGENIEROS AGRÓNOMOS Y DE MONTES",
      "mainEntityOfPage": "https://www.contratacion.euskadi.eus/webkpe00-kperoc/es/ac71aBusquedaRegistrosWar/empresa/06850",
      "_links": {
        "self": {
          "name": "ANTONIO QUIJANO GONZÁLEZ",
          "href": "https://api.euskadi.eus/procurements/companies/06850"
        }
      }
    },
    {
      "name": "AUDITORIZA DIAGNÓSTICO DE SISTEMAS, S.L.",
      "registrationNumber": "06845",
      "identificationNumber": "B06586085",
      "address": "CALLE CASTILLO PUEBLA DE ALCOCER, 10 ",
      "location": {
        "postalCode": "06006",
        "municipality": "Badajoz",
        "county": "Badajoz",
        "municipalityId": "015",
        "countyId": "06"
      },
      "economicActivities": [
        {
          "id": "1.843.1",
          "name": "Servicios técnicos de ingeniería",
          "_links": {
            "self": {
              "name": "Servicios técnicos de ingeniería",
              "href": "https://api.euskadi.eus/procurements/companies/economic-activities/1.843.1"
            }
          }
        }
      ],
      "certificateStartDate": "2020-02-18",
      "certificateEndDate": "2019-07-23",
      "object": "-LA REALIZACIÓN DE TODA CLASE DE CONSULTORÍA Y AUDITORÍA DE 1ª, 2ª O 3ª PARTE, RELATIVAS A SISTEMA DE CALIDAD, MEDIOAMBIENTE, AGROALIMENTARIOS, TECNOLÓGICOS Y DE PREVENCIÓN DE RIESGOS LABORALES, EN CUANTO AL CUMPLIMIENTO DE TODO TIPO DE ESQUEMAS NORMATIVOS O REGLAMENTARIOS, TANTO EN EL ÁMBITO PÚBLICO COMO PRIVADO, NACIONAL E INTERNACIONAL, DE FORMA DOCUMENTAL O PRESENCIAL. ESTA ACTIVIDAD SERÁ LA PRINCIPAL DE LA SOCIEDAD (CNAE 6202). -LA REALIZACIÓN DE CONSULTORÍA ORGANIZATIVA, ADMINISTRATIVA, PLANIFICACIÓN ESTRATÉGICA, REINGENIERÍA DE PROCESOS Y DE ESTUDIOS DE MERCADO EN TODAS LAS CITADAS MEMORIAS. (CNAE 7022). -LA REALIZACIÓN DE TODA CLASE DE DICTÁMENES, PROYECTOS DE INNOVACIÓN EMPRESARIAL, GESTIÓN DE LA INNOVACIÓN, GESTIÓN DEL CAMBIO Y GESTIÓN DEL TALENTO. (CNAE7490). -DISEÑO CREACIÓN, EJECUCIÓN, EXPLOTACIÓN, USO Y CESIÓN DE ACTIVIDADES DE AUDITORÍAS TECNOLÓGICAS. (CNAE 7490). -LA REALIZACIÓN DE SERVICIOS DE GESTIÓN INTEGRADA DE PROYECTOS, DIRECCIÓN DE OBRAS Y SUMINISTROS TÉCNICOS, ACTIVIDADES DE ASESORAMIENTO Y CONSULTORÍA DE PROYECTOS ARQUITECTÓNICOS, ASÍ COMO LOS SERVICIOS DE CONSULTORÍA TÉCNICA EN ARQUITECTURA, INGENIERÍA Y SECTORES AFINES. (CNAE 7111). -COMERCIO DE MUEBLES, ORDENADORES, EQUIPOS INFORMÁTICOS Y ELECTRÓNICOS, EQUIPOS DE TELEFONÍA, MAQUINARIA Y MATERIAL DE OFICINA. (CNAE 4741). -CONSULTORÍA EN INFORMÁTICA Y NUEVAS TECNOLOGÍAS. (CNAE 6202). -EXPLOTACIÓN DE ELECTRÓNICA POR TERCEROS. (CNAE 6209). -SERVICIO DE PROTECCIÓN DE DATOS (CNAE 7022). -ELABORACIÓN, DISTRIBUCIÓN Y COMERCIALIZACIÓN DE PROGRAMAS INFORMÁTICOS. (CNAE 5829). -INSTALACIONES DE REDES Y EQUIPOS INFORMÁTICOS. (CNAE 6209). -LA ENSEÑANZA EN CUALQUIERA DE SUS GRADOS Y NIVELES EDUCATIVOS, CONCERTADOS Y SIN CONCERTAR, INCLUSO FORMACIÓN PROFESIONAL U OCUPACIONAL. (CNAE 8352). -LA IMPARTICIÓN DE CURSOS PARA ACCESO O RECICLAJE DE PROFESIONES ESPECIALIZADAS O NO, O PARA OBTENCIÓN DE LICENCIAS O PERMISOS DE ORDEN GUBERNATIVO. (CNAE 8532). -LA FORMACIÓN OCUPACIONAL Y, EN ESPECIAL, LA IMPARTICIÓN DE CURSOS DE LA JUNTA DE EXTREMADURA (PLAN FIP). (CNAE 8559). -LA PARTICIPACIÓN EN OTRAS SOCIEDADES DE IDÉNTICO O ANÁLOGO OBJETO, MEDIANTE LA SUSCRIPCIÓN DE ACCIONES O PARTICIPACIONES EN LA FUNDACIÓN O AUMENTO DE CAPITAL SOCIAL DE LAS MISMAS O LA ADQUISICIÓN DE ELLAS POR CUALQUIER TÍTULO. (CNAE 6420)",
      "mainEntityOfPage": "https://www.contratacion.euskadi.eus/webkpe00-kperoc/es/ac71aBusquedaRegistrosWar/empresa/06845",
      "_links": {
        "self": {
          "name": "AUDITORIZA DIAGNÓSTICO DE SISTEMAS, S.L.",
          "href": "https://api.euskadi.eus/procurements/companies/06845"
        }
      }
    },
    {
      "name": "IZASKUN BENITO ECHEVERRIA",
      "registrationNumber": "06441",
      "identificationNumber": "72737929S",
      "address": "gabriela mistral 22-7ºA",
      "location": {
        "postalCode": "01003",
        "municipality": "Vitoria-Gasteiz",
        "county": "Araba/Álava",
        "municipalityId": "059",
        "countyId": "01"
      },
      "economicActivities": [
        {
          "id": "2.862",
          "name": "Restauradores de obras de arte",
          "_links": {
            "self": {
              "name": "Restauradores de obras de arte",
              "href": "https://api.euskadi.eus/procurements/companies/economic-activities/2.862"
            }
          }
        }
      ],
      "certificateStartDate": "2020-02-15",
      "certificateEndDate": "2020-08-15",
      "object": "RESTAURADOR DE OBRAS DE ARTE",
      "mainEntityOfPage": "https://www.contratacion.euskadi.eus/webkpe00-kperoc/es/ac71aBusquedaRegistrosWar/empresa/06441",
      "_links": {
        "self": {
          "name": "IZASKUN BENITO ECHEVERRIA",
          "href": "https://api.euskadi.eus/procurements/companies/06441"
        }
      }
    },
    {
      "name": "TORQUEMADA GESTIÓN, S.L.",
      "registrationNumber": "06841",
      "identificationNumber": "B01510601",
      "address": "PORTAL DE CASTILLA, 6",
      "location": {
        "postalCode": "01008",
        "municipality": "Vitoria-Gasteiz",
        "county": "Araba/Álava",
        "municipalityId": "059",
        "countyId": "01"
      },
      "economicActivities": [
        {
          "id": "1.842",
          "name": "Servicios financieros y contables",
          "_links": {
            "self": {
              "name": "Servicios financieros y contables",
              "href": "https://api.euskadi.eus/procurements/companies/economic-activities/1.842"
            }
          }
        }
      ],
      "certificateStartDate": "2020-02-14",
      "certificateEndDate": "2020-07-31",
      "object": "LA PRESTACIÓN DE SERVICIOS, EN CONCRETO, DE ASESORÍA DE EMPRESAS EN EL ÁMBITO FISCAL, LABORAL, CONTABLE Y MERCANTIL, CONSULTORÍA EN EL ÁMBITO DE LA DIRECCIÓN DE EMPRESA, APOYO A LA GERENCIA, MEJORA EN SISTEMAS ORGANIZATIVOS, DESARROLLO Y PLANIFICACIÓN DE LOS RECURSOS HUMANOS",
      "mainEntityOfPage": "https://www.contratacion.euskadi.eus/webkpe00-kperoc/es/ac71aBusquedaRegistrosWar/empresa/06841",
      "_links": {
        "self": {
          "name": "TORQUEMADA GESTIÓN, S.L.",
          "href": "https://api.euskadi.eus/procurements/companies/06841"
        }
      }
    },
    {
      "name": "AGERBIDE, S.L.",
      "registrationNumber": "04227",
      "identificationNumber": "B95488813",
      "address": "POLG. IND. EL ARBOL, PARCELA 13, PABELLÓN 1",
      "location": {
        "postalCode": "48980",
        "municipality": "Santurtzi",
        "county": "Bizkaia",
        "municipalityId": "082",
        "countyId": "48"
      },
      "economicActivities": [
        {
          "id": "1.501.1",
          "name": "Construcción completa, reparación y conservación de edificaciones",
          "_links": {
            "self": {
              "name": "Construcción completa, reparación y conservación de edificaciones",
              "href": "https://api.euskadi.eus/procurements/companies/economic-activities/1.501.1"
            }
          }
        },
        {
          "id": "1.504.12",
          "name": "Instalaciones eléctricas en toda clase de edificios",
          "_links": {
            "self": {
              "name": "Instalaciones eléctricas en toda clase de edificios",
              "href": "https://api.euskadi.eus/procurements/companies/economic-activities/1.504.12"
            }
          }
        },
        {
          "id": "1.615.4",
          "name": "Venta al por mayor de aparatos y material radioeléctrico y electrónico",
          "_links": {
            "self": {
              "name": "Venta al por mayor de aparatos y material radioeléctrico y electrónico",
              "href": "https://api.euskadi.eus/procurements/companies/economic-activities/1.615.4"
            }
          }
        }
      ],
      "certificateStartDate": "2020-02-13",
      "certificateEndDate": "2020-08-03",
      "classification": [
        {
          "id": "O",
          "name": "Obras",
          "groups": [
            {
              "id": "C",
              "name": "EDIFICACIONES",
              "subgroups": [
                {
                  "id": "04",
                  "name": "ALBAÑILERIA, REVOCOS Y REVESTIDOS",
                  "categories": [
                    {
                      "id": "1",
                      "name": "Desde 0 Hasta 150.000",
                      "_links": {
                        "self": {
                          "name": "Desde 0 Hasta 150.000",
                          "href": "https://api.euskadi.eus/procurements/companies/types/O/categories/1"
                        }
                      }
                    }
                  ],
                  "_links": {
                    "self": {
                      "name": "ALBAÑILERIA, REVOCOS Y REVESTIDOS",
                      "href": "https://api.euskadi.eus/procurements/companies/types/O/groups/C/subgroups/04"
                    }
                  }
                }
              ],
              "_links": {
                "self": {
                  "name": "EDIFICACIONES",
                  "href": "https://api.euskadi.eus/procurements/companies/types/O/groups/C"
                }
              }
            },
            {
              "id": "I",
              "name": "INSTALACIONES ELÉCTRICAS",
              "subgroups": [
                {
                  "id": "01",
                  "name": "Alumbrados, iluminaciones y balizamientos",
                  "categories": [
                    {
                      "id": "3",
                      "name": "Desde 360.001 Hasta 840.000",
                      "_links": {
                        "self": {
                          "name": "Desde 360.001 Hasta 840.000",
                          "href": "https://api.euskadi.eus/procurements/companies/types/O/categories/3"
                        }
                      }
                    }
                  ],
                  "_links": {
                    "self": {
                      "name": "Alumbrados, iluminaciones y balizamientos",
                      "href": "https://api.euskadi.eus/procurements/companies/types/O/groups/I/subgroups/01"
                    }
                  }
                },
                {
                  "id": "06",
                  "name": "Distribución en baja tensión",
                  "categories": [
                    {
                      "id": "3",
                      "name": "Desde 360.001 Hasta 840.000",
                      "_links": {
                        "self": {
                          "name": "Desde 360.001 Hasta 840.000",
                          "href": "https://api.euskadi.eus/procurements/companies/types/O/categories/3"
                        }
                      }
                    }
                  ],
                  "_links": {
                    "self": {
                      "name": "Distribución en baja tensión",
                      "href": "https://api.euskadi.eus/procurements/companies/types/O/groups/I/subgroups/06"
                    }
                  }
                },
                {
                  "id": "09",
                  "name": "Instalaciones eléctricas sin cualificación específica",
                  "categories": [
                    {
                      "id": "3",
                      "name": "Desde 360.001 Hasta 840.000",
                      "_links": {
                        "self": {
                          "name": "Desde 360.001 Hasta 840.000",
                          "href": "https://api.euskadi.eus/procurements/companies/types/O/categories/3"
                        }
                      }
                    }
                  ],
                  "_links": {
                    "self": {
                      "name": "Instalaciones eléctricas sin cualificación específica",
                      "href": "https://api.euskadi.eus/procurements/companies/types/O/groups/I/subgroups/09"
                    }
                  }
                }
              ],
              "_links": {
                "self": {
                  "name": "INSTALACIONES ELÉCTRICAS",
                  "href": "https://api.euskadi.eus/procurements/companies/types/O/groups/I"
                }
              }
            },
            {
              "id": "J",
              "name": "INSTALACIONES MECANICAS",
              "subgroups": [
                {
                  "id": "04",
                  "name": "De fontanería y sanitarias",
                  "categories": [
                    {
                      "id": "1",
                      "name": "Desde 0 Hasta 150.000",
                      "_links": {
                        "self": {
                          "name": "Desde 0 Hasta 150.000",
                          "href": "https://api.euskadi.eus/procurements/companies/types/O/categories/1"
                        }
                      }
                    }
                  ],
                  "_links": {
                    "self": {
                      "name": "De fontanería y sanitarias",
                      "href": "https://api.euskadi.eus/procurements/companies/types/O/groups/J/subgroups/04"
                    }
                  }
                }
              ],
              "_links": {
                "self": {
                  "name": "INSTALACIONES MECANICAS",
                  "href": "https://api.euskadi.eus/procurements/companies/types/O/groups/J"
                }
              }
            }
          ],
          "_links": {
            "self": {
              "name": "Obras",
              "href": "https://api.euskadi.eus/procurements/companies/types/O"
            }
          }
        },
        {
          "id": "S",
          "name": "Servicios",
          "groups": [
            {
              "id": "O",
              "subgroups": [
                {
                  "id": "01",
                  "name": "Conservación y mantenimiento de edificios",
                  "categories": [
                    {
                      "id": "1",
                      "name": "Desde 0 Hasta 150.000",
                      "_links": {
                        "self": {
                          "name": "Desde 0 Hasta 150.000",
                          "href": "https://api.euskadi.eus/procurements/companies/types/S/categories/1"
                        }
                      }
                    }
                  ],
                  "_links": {
                    "self": {
                      "name": "Conservación y mantenimiento de edificios",
                      "href": "https://api.euskadi.eus/procurements/companies/types/S/groups/O/subgroups/01"
                    }
                  }
                }
              ],
              "_links": {
                "self": {
                  "href": "https://api.euskadi.eus/procurements/companies/types/S/groups/O"
                }
              }
            },
            {
              "id": "P",
              "subgroups": [
                {
                  "id": "01",
                  "name": "Mantenimiento y reparación de equipos e instalaciones eléctricas y electrónicas",
                  "categories": [
                    {
                      "id": "3",
                      "name": "Desde 300.001 Hasta 600.000",
                      "_links": {
                        "self": {
                          "name": "Desde 300.001 Hasta 600.000",
                          "href": "https://api.euskadi.eus/procurements/companies/types/S/categories/3"
                        }
                      }
                    }
                  ],
                  "_links": {
                    "self": {
                      "name": "Mantenimiento y reparación de equipos e instalaciones eléctricas y electrónicas",
                      "href": "https://api.euskadi.eus/procurements/companies/types/S/groups/P/subgroups/01"
                    }
                  }
                }
              ],
              "_links": {
                "self": {
                  "href": "https://api.euskadi.eus/procurements/companies/types/S/groups/P"
                }
              }
            }
          ],
          "_links": {
            "self": {
              "name": "Servicios",
              "href": "https://api.euskadi.eus/procurements/companies/types/S"
            }
          }
        }
      ],
      "object": "El mantenimiento de instalaciones y obra civil, instalaciones eléctricas en todo tipo de inmuebles, tanto por cuenta propia como ajena, la compraventa de todo tipo de materiales relacionados con las actividades citadas.",
      "mainEntityOfPage": "https://www.contratacion.euskadi.eus/webkpe00-kperoc/es/ac71aBusquedaRegistrosWar/empresa/04227",
      "_links": {
        "self": {
          "name": "AGERBIDE, S.L.",
          "href": "https://api.euskadi.eus/procurements/companies/04227"
        }
      }
    },
    {
      "name": "JON SAMPEDRO CERVERA",
      "registrationNumber": "06837",
      "identificationNumber": "44557008M",
      "address": "PUIANA Nº21",
      "location": {
        "postalCode": "20305",
        "municipality": "Irun",
        "county": "Gipuzkoa",
        "municipalityId": "045",
        "countyId": "20"
      },
      "economicActivities": [
        {
          "id": "1.844",
          "name": "Servicios de publicidad, relaciones públicas y similares",
          "_links": {
            "self": {
              "name": "Servicios de publicidad, relaciones públicas y similares",
              "href": "https://api.euskadi.eus/procurements/companies/economic-activities/1.844"
            }
          }
        }
      ],
      "certificateStartDate": "2020-02-13",
      "certificateEndDate": "2020-08-07",
      "object": "SERVICIOS DE PUBLICIDAD, RELACIONES PUBLICAS Y SIMILARES",
      "mainEntityOfPage": "https://www.contratacion.euskadi.eus/webkpe00-kperoc/es/ac71aBusquedaRegistrosWar/empresa/06837",
      "_links": {
        "self": {
          "name": "JON SAMPEDRO CERVERA",
          "href": "https://api.euskadi.eus/procurements/companies/06837"
        }
      }
    },
    {
      "name": "ESTIBALIZ EGUSQUIZA SANTOS",
      "registrationNumber": "06838",
      "identificationNumber": "72315893Y",
      "address": "ZUBIAUR TAR KEPA, 32- BAJO",
      "location": {
        "postalCode": "48370",
        "municipality": "Bermeo",
        "county": "Bizkaia",
        "municipalityId": "017",
        "countyId": "48"
      },
      "economicActivities": [
        {
          "id": "1.849.5",
          "name": "Servicios de recadería y reparto y manipulación de correspondencia",
          "_links": {
            "self": {
              "name": "Servicios de recadería y reparto y manipulación de correspondencia",
              "href": "https://api.euskadi.eus/procurements/companies/economic-activities/1.849.5"
            }
          }
        },
        {
          "id": "1.963.1",
          "name": "Exhibición de películas cinematográficas y vídeos en cines",
          "_links": {
            "self": {
              "name": "Exhibición de películas cinematográficas y vídeos en cines",
              "href": "https://api.euskadi.eus/procurements/companies/economic-activities/1.963.1"
            }
          }
        },
        {
          "id": "1.989.2",
          "name": "Servicios de organización de congresos, asambleas y similares",
          "_links": {
            "self": {
              "name": "Servicios de organización de congresos, asambleas y similares",
              "href": "https://api.euskadi.eus/procurements/companies/economic-activities/1.989.2"
            }
          }
        }
      ],
      "certificateStartDate": "2020-02-13",
      "certificateEndDate": "2020-07-23",
      "object": "LOS SERVICIOS DE RECADERÍA Y REPARTO Y MANIPULACIÓN DE CORRESPONDENCIA, EXHIBICIÓN DE PELÍCULAS CINEMATOGRÁFICAS Y VÍDEOS EN CINES Y SERVICIOS DE ORGANIZACIÓN DE CONGEROS, ASAMBLEAS Y SIMILARES",
      "mainEntityOfPage": "https://www.contratacion.euskadi.eus/webkpe00-kperoc/es/ac71aBusquedaRegistrosWar/empresa/06838",
      "_links": {
        "self": {
          "name": "ESTIBALIZ EGUSQUIZA SANTOS",
          "href": "https://api.euskadi.eus/procurements/companies/06838"
        }
      }
    },
    {
      "name": "MONTAJES INDUSTRIALES OGOÑO S.L.L.",
      "registrationNumber": "06118",
      "identificationNumber": "B95712915",
      "address": "C/GENERAL SALAZAR Nº12 BAJO",
      "location": {
        "postalCode": "48012",
        "municipality": "Bilbao",
        "county": "Bizkaia",
        "municipalityId": "020",
        "countyId": "48"
      },
      "economicActivities": [
        {
          "id": "1.503.1",
          "name": "Preparación y montaje de estructuras y cubiertas en edificaciones",
          "_links": {
            "self": {
              "name": "Preparación y montaje de estructuras y cubiertas en edificaciones",
              "href": "https://api.euskadi.eus/procurements/companies/economic-activities/1.503.1"
            }
          }
        }
      ],
      "certificateStartDate": "2020-02-11",
      "certificateEndDate": "2020-07-30",
      "object": "LA CONSTRUCCIÓN, COMPRA, VENTA, REPRESENTACIÓN, DISTRIBUCIÓN Y MONTAJE, DE TODO TIPO DE ESTRUCTURAS METÁLICAS Y CERRAMIENTOS, ASÍ COMO LA REALIZACIÓN DE LA ACTIVIDAD DE REVESTIMIENTO EXTERIOR E INTERIOR EN TODO TIPO DE OBRAS",
      "mainEntityOfPage": "https://www.contratacion.euskadi.eus/webkpe00-kperoc/es/ac71aBusquedaRegistrosWar/empresa/06118",
      "_links": {
        "self": {
          "name": "MONTAJES INDUSTRIALES OGOÑO S.L.L.",
          "href": "https://api.euskadi.eus/procurements/companies/06118"
        }
      }
    },
    {
      "name": "MIÑANA BELTRAN ECONOMISTAS-ABOGADOS, S.L.",
      "registrationNumber": "06826",
      "identificationNumber": "B97417471",
      "address": "CL. COLADORES Nº 23 BJ",
      "location": {
        "postalCode": "46960",
        "municipality": "Aldaia",
        "county": "Valencia/València",
        "municipalityId": "021",
        "countyId": "46"
      },
      "economicActivities": [
        {
          "id": "1.861.2",
          "name": "Alquiler de locales industriales y otros alquileres n.c.o.p",
          "_links": {
            "self": {
              "name": "Alquiler de locales industriales y otros alquileres n.c.o.p",
              "href": "https://api.euskadi.eus/procurements/companies/economic-activities/1.861.2"
            }
          }
        }
      ],
      "certificateStartDate": "2020-02-11",
      "certificateEndDate": "2020-04-18",
      "object": "EL EJERCICIO DE LA ACTIVIDAD PROFESIONAL PROPIA DE EL ASESORAMIENTO FISCAL, FINANCIERO, LABORAL Y JURÍDICO, A TRAVÉS DE LOS OPORTUNOS PROFESIONALES TITULADOS",
      "mainEntityOfPage": "https://www.contratacion.euskadi.eus/webkpe00-kperoc/es/ac71aBusquedaRegistrosWar/empresa/06826",
      "_links": {
        "self": {
          "name": "MIÑANA BELTRAN ECONOMISTAS-ABOGADOS, S.L.",
          "href": "https://api.euskadi.eus/procurements/companies/06826"
        }
      }
    }
  ]
}