{
  "totalItems": 9042,
  "totalPages": 905,
  "currentPage": 494,
  "itemsOfPage": 10,
  "items": [
    {
      "name": "BETTERGY, S.L.",
      "registrationNumber": "06498",
      "identificationNumber": "B93149870",
      "address": "Avenida Juan López Peñalver 17, Planta 3",
      "location": {
        "postalCode": "29590",
        "municipality": "Málaga",
        "county": "Málaga",
        "municipalityId": "067",
        "countyId": "29"
      },
      "economicActivities": [
        {
          "id": "1.504.1",
          "name": "Instalaciones eléctricas en general",
          "_links": {
            "self": {
              "name": "Instalaciones eléctricas en general",
              "href": "https://api.euskadi.eus/procurements/companies/economic-activities/1.504.1"
            }
          }
        },
        {
          "id": "1.631",
          "name": "Intermediarios del comercio",
          "_links": {
            "self": {
              "name": "Intermediarios del comercio",
              "href": "https://api.euskadi.eus/procurements/companies/economic-activities/1.631"
            }
          }
        },
        {
          "id": "1.699",
          "name": "Otras reparaciones n.c.o.p",
          "_links": {
            "self": {
              "name": "Otras reparaciones n.c.o.p",
              "href": "https://api.euskadi.eus/procurements/companies/economic-activities/1.699"
            }
          }
        },
        {
          "id": "1.843.1",
          "name": "Servicios técnicos de ingeniería",
          "_links": {
            "self": {
              "name": "Servicios técnicos de ingeniería",
              "href": "https://api.euskadi.eus/procurements/companies/economic-activities/1.843.1"
            }
          }
        },
        {
          "id": "1.845",
          "name": "Explotación electrónica por cuenta de terceros",
          "_links": {
            "self": {
              "name": "Explotación electrónica por cuenta de terceros",
              "href": "https://api.euskadi.eus/procurements/companies/economic-activities/1.845"
            }
          }
        },
        {
          "id": "1.859",
          "name": "Alquiler de otros bienes muebles n.c.o.p. (sin personal permanente)",
          "_links": {
            "self": {
              "name": "Alquiler de otros bienes muebles n.c.o.p. (sin personal permanente)",
              "href": "https://api.euskadi.eus/procurements/companies/economic-activities/1.859"
            }
          }
        }
      ],
      "certificateStartDate": "2022-08-03",
      "certificateEndDate": "2023-01-27",
      "object": "LA FABRICACIÓN, IMPORTACIÓN, EXPORTACIÓN INTERMEDIACIÓN Y COMERCIO, AL POR MAYOR Y MENOR, DE TODO TIPO DE MATERIALES Y APARATOS ELÉCTRICOS Y ELECTRÓNICOS; SERVICIOS DE INGENIERÍA, CONSULTORÍA, DESARROLLO Y FABRICACIÓN DE PRODUCTOS DE NUEVAS INGENIERÍAS EN MATERIA DE ELECTRÓNICA Y ELECTRICIDAD; SERVICIOS DE CONSULTORÍA EMPRESARIAL DE INGENIERÍA Y DE GESTIÓN DE RECURSOS TECNOLÓGICOS; DOCENCIA Y DIFUSIÓN DE CONOCIMIENTOS CIENTÍFICOS Y LA REALIZACIÓN DE ESTUDIOS DE MERCADO; INGENIERÍA, INSTALACIÓN, FINANCIACIÓN Y EXPLOTACIÓN DE PROYECTOS DISEÑADOS PARA MEJORAR LA EFICIENCIA EN EL USO DE LA ENERGÍA; ESTUDIO, CONSTRUCCIÓN, INSTALACIÓN, REPARACIÓN, MODIFICACIÓN, MANTENIMIENTO, EXPLOTACIÓN, ARRIENDO, COMPRA Y VENTA, TANTO EN ESPAÑA COMO EN EL EXTRANJERO, DE INSTALACIONES ELÉCTRICAS",
      "mainEntityOfPage": "https://www.contratacion.euskadi.eus/webkpe00-kperoc/es/ac71aBusquedaRegistrosWar/empresa/06498",
      "_links": {
        "self": {
          "name": "BETTERGY, S.L.",
          "href": "https://api.euskadi.eus/procurements/companies/06498"
        }
      }
    },
    {
      "name": "INSTRUNET HOSPITAL S.L.U.",
      "registrationNumber": "05524",
      "identificationNumber": "B66479395",
      "address": "CTRA. SABADELL A GRANOLLERS, KM. 14,5",
      "location": {
        "postalCode": "08185",
        "municipality": "Lliçà de Vall",
        "county": "Barcelona",
        "municipalityId": "108",
        "countyId": "08"
      },
      "economicActivities": [
        {
          "id": "1.614.1",
          "name": "Venta al por mayor de productos farmacéuticos y medicamentos",
          "_links": {
            "self": {
              "name": "Venta al por mayor de productos farmacéuticos y medicamentos",
              "href": "https://api.euskadi.eus/procurements/companies/economic-activities/1.614.1"
            }
          }
        }
      ],
      "certificateStartDate": "2022-08-03",
      "certificateEndDate": "2023-01-11",
      "object": "LA FABRICACIÓN, EL COMERCIO, IMPORTACIÓN Y EXPORTACIÓN, DE ARTÍCULOS O PRODUCTOS MÉDICOS, FARMACÉUTICOS, SANITARIOS, QUÍMICOS Y DERIVADOS, LA ELABORACIÓN Y TRANSFORMACIÓN DE LOS MISMOS, ASÍ COMO LA INVESTIGACIÓN Y LA EXPLORACIÓN DE TODA CLASE DE LICENCIAS O PATENTES",
      "mainEntityOfPage": "https://www.contratacion.euskadi.eus/webkpe00-kperoc/es/ac71aBusquedaRegistrosWar/empresa/05524",
      "_links": {
        "self": {
          "name": "INSTRUNET HOSPITAL S.L.U.",
          "href": "https://api.euskadi.eus/procurements/companies/05524"
        }
      }
    },
    {
      "name": "INGENIERÍA TELCO, S.L.L.",
      "registrationNumber": "02335",
      "identificationNumber": "B01298330",
      "address": "C/ MANUEL IRADIER, Nº 1, BAJO IZDA.",
      "location": {
        "postalCode": "01005",
        "municipality": "Vitoria-Gasteiz",
        "county": "Araba/Álava",
        "municipalityId": "059",
        "countyId": "01"
      },
      "economicActivities": [
        {
          "id": "1.843.1",
          "name": "Servicios técnicos de ingeniería",
          "_links": {
            "self": {
              "name": "Servicios técnicos de ingeniería",
              "href": "https://api.euskadi.eus/procurements/companies/economic-activities/1.843.1"
            }
          }
        }
      ],
      "certificateStartDate": "2022-08-03",
      "certificateEndDate": "2023-01-27",
      "object": "LA ASESORÍA, CONSULTORÍA Y DEMÁS ACTIVIDADES AFINES CON LA INGENIERÍA EN EL SECTOR DE  LAS TELECOMUNICACIONES, ASÍ COMO LA INVESTIGACIÓN, DESARROLLO Y COMERCIALIZACIÓN DE PRODUCTOS Y APLICACIONES EN EL CAMPO DE LAS TELECOMUNICACIONES. ",
      "mainEntityOfPage": "https://www.contratacion.euskadi.eus/webkpe00-kperoc/es/ac71aBusquedaRegistrosWar/empresa/02335",
      "_links": {
        "self": {
          "name": "INGENIERÍA TELCO, S.L.L.",
          "href": "https://api.euskadi.eus/procurements/companies/02335"
        }
      }
    },
    {
      "name": "LEICEA GLOBAL SERVICES, S.L.",
      "registrationNumber": "07972",
      "identificationNumber": "B95875951",
      "address": "Bº ESTARTA S/N",
      "location": {
        "postalCode": "48840",
        "municipality": "Güeñes",
        "county": "Bizkaia",
        "municipalityId": "045",
        "countyId": "48"
      },
      "economicActivities": [
        {
          "id": "1.501.1",
          "name": "Construcción completa, reparación y conservación de edificaciones",
          "_links": {
            "self": {
              "name": "Construcción completa, reparación y conservación de edificaciones",
              "href": "https://api.euskadi.eus/procurements/companies/economic-activities/1.501.1"
            }
          }
        },
        {
          "id": "1.692",
          "name": "Reparación de maquinaria industrial",
          "_links": {
            "self": {
              "name": "Reparación de maquinaria industrial",
              "href": "https://api.euskadi.eus/procurements/companies/economic-activities/1.692"
            }
          }
        }
      ],
      "certificateStartDate": "2022-08-03",
      "certificateEndDate": "2023-01-27",
      "object": "ACTIVIDAD PRINCIPAL, CUYO CNAE ES 4121.- CONSTRUCCIÓN DE EDIFICIOS RESIDENCIALES. OTRAS ACTIVIDADES: CNAE 2221: INDUSTRIAS TRANSFORMACIÓN DEL CAUCHO Y MATERIAS PLÁSTICAS.",
      "mainEntityOfPage": "https://www.contratacion.euskadi.eus/webkpe00-kperoc/es/ac71aBusquedaRegistrosWar/empresa/07972",
      "_links": {
        "self": {
          "name": "LEICEA GLOBAL SERVICES, S.L.",
          "href": "https://api.euskadi.eus/procurements/companies/07972"
        }
      }
    },
    {
      "name": "JOSE GUTIERREZ SANCHEZ",
      "registrationNumber": "08143",
      "identificationNumber": "20170512H",
      "address": "LARRABARRI IBILBIDEA 15 2D",
      "location": {
        "postalCode": "48160",
        "municipality": "Derio",
        "county": "Bizkaia",
        "municipalityId": "901",
        "countyId": "48"
      },
      "economicActivities": [
        {
          "id": "1.721.2",
          "name": "Transporte por autotaxis",
          "_links": {
            "self": {
              "name": "Transporte por autotaxis",
              "href": "https://api.euskadi.eus/procurements/companies/economic-activities/1.721.2"
            }
          }
        }
      ],
      "certificateStartDate": "2022-08-03",
      "certificateEndDate": "2023-02-01",
      "object": "TRANSPORTE POR AUTOTAXIS.",
      "mainEntityOfPage": "https://www.contratacion.euskadi.eus/webkpe00-kperoc/es/ac71aBusquedaRegistrosWar/empresa/08143",
      "_links": {
        "self": {
          "name": "JOSE GUTIERREZ SANCHEZ",
          "href": "https://api.euskadi.eus/procurements/companies/08143"
        }
      }
    },
    {
      "name": "BAYER HISPANIA, S.L.",
      "registrationNumber": "04659",
      "identificationNumber": "B08193013",
      "address": "AV. BAIX LLOBREGAT 3-5",
      "location": {
        "postalCode": "08970",
        "municipality": "Sant Joan Despí",
        "county": "Barcelona",
        "municipalityId": "217",
        "countyId": "08"
      },
      "economicActivities": [
        {
          "id": "1.612.9",
          "name": "Venta al por mayor de otros productos alimenticios, helados de todas clases",
          "_links": {
            "self": {
              "name": "Venta al por mayor de otros productos alimenticios, helados de todas clases",
              "href": "https://api.euskadi.eus/procurements/companies/economic-activities/1.612.9"
            }
          }
        },
        {
          "id": "1.614.1",
          "name": "Venta al por mayor de productos farmacéuticos y medicamentos",
          "_links": {
            "self": {
              "name": "Venta al por mayor de productos farmacéuticos y medicamentos",
              "href": "https://api.euskadi.eus/procurements/companies/economic-activities/1.614.1"
            }
          }
        },
        {
          "id": "1.614.2",
          "name": "Venta al por mayor de productos de perfumería, droguería, higiene y belleza",
          "_links": {
            "self": {
              "name": "Venta al por mayor de productos de perfumería, droguería, higiene y belleza",
              "href": "https://api.euskadi.eus/procurements/companies/economic-activities/1.614.2"
            }
          }
        },
        {
          "id": "1.849.9",
          "name": "Otros servicios independientes n.c.o.p",
          "_links": {
            "self": {
              "name": "Otros servicios independientes n.c.o.p",
              "href": "https://api.euskadi.eus/procurements/companies/economic-activities/1.849.9"
            }
          }
        }
      ],
      "certificateStartDate": "2022-08-03",
      "certificateEndDate": "2023-01-30",
      "object": "LA INDUSTRIA, FABRICACIÓN, DISTRIBUCIÓN Y EL COMERCIO EN GENERAL, INCLUSO DE IMPORTACIÓN Y EXPORTACIÓN, DE TODA CLASE DE PRODUCTOS QUÍMICOS O PARAQUÍMICOS, ASÍ ORGÁNICOS, INORGÁNICOS, NATURALES, ARTIFICIALES O SINTÉTICOS, CUALESQUIERA QUE SEAN LOS PROCEDIMIENTOS DE FORMULACIÓN, GENERACIÓN Y OBTENCIÓN, TANTO CLÁSICOS COMO PETROQUÍMICOS O DE OTRA NATURALEZA. Y POR VÍA DE EJEMPLO, A TÍTULO MERAMENTE ENUNCIATIVIO PERO EN MODO ALGUNO LIMITATIVO NI EXHAUSTIVO, LOS SIGUIENTES: PRODUCTOS QUÍMICOS PROPIAMENTE DICHOS, RESINAS SINTÉTICAS, MATERIAS PLÁSTICAS, CAUCHO SINTÉTICO, LÁTICES, ADHESIVOS, PLASTIFICANTES, DISOLVENTES, CATALIZADORES, ACELERANTES, ESTABILIZADORES, COLORANTES, LACAS, BARNICES, ESMALTES, SUSTANCIAS PARA PERFUMERÍA Y COSMÉTICA, DETERGENTES, DISPERSANTES, PRODUCTOS AUXILIARES PARA LA INDUSTRIA TEXTIL, SILICONAS, FIBRAS SINTÉTICAS, PRODUCTOS BÁSICOS Y ESPECIALIDADES FARMACÉUTICAS Y VETERINARIAS, PRODUCTOS BIOLÓGICOS, ODONTOLÓGICOS, COSMÉTICOS Y DE DIAGNÓSTICO, HERBICIDAS, FUNGICIDAS, INSECTICIDAS Y PRODUCTOS FITOSANITARIOS EN GENERAL, PRODUCTOS AGROPECUARIOS, FERTILIZANTES, TODA CLASE DE PRODUCTOS AUXILIARES PARA LA AGRICULTURA Y LA INDUSTRIA. SE INCLUYEN TODAS LAS MATERIAS Y PRODUCTOS PRINCIPALES O BÁSICOS, AUXILIARES O ACCESORIOS, Y POR TANTO LAS MATERIAS PRIMAS, PRODUCTOS INTERMEDIOS, COMPUESTOS, MANUFACTURADOS O SEMI MANUFACTURADOS QUE GUARDEN RELACIÓN CON LOS PRECITADOS RAMOS O SECTORES Y, EN GENERAL, AQUELLOS EN CUYA COMPOSICIÓN INTERVENGAN PRODUCTOS QUÍMICOS. COMPRENDIÉNDOSE TAMBIÉN, LA MAQUINARIA, INSTRUMENTAL, UTENSILIOS Y ACCESORIOS\r\n NECESARIOS PARA SU PRODUCCIÓN, TRANSFORMACIÓN, MANIPULACIÓN, TRASVASE, APLICACIÓN Y UTILIZACIÓN EN GENERAL ASÍ COMO MATERIAL ESTÉRIL, INSTRUMENTOS, APARATOS Y MATERIALES DE USO EN EL CAMPO DE LA SALUD, DIETÉTICA E HIGIENE. LAS PRECEDENTEMENTE ENUNCIADAS ACTIVIDADES PODRÁ REALIZARLAS LA SOCIEDAD DIRECTAMENTE, SEA EN NOMBRE PROPIO O EN CONSORCIO; EN NOMBRE DE TERCEROS, SEA EN GESTIÓN, REPRESENTACIÓN O COMISIÓN. ADEMÁS CONSTITUYE OBJETO DE LA SOCIEDAD LA COMPRA, VENTA, ALQUILER, IMPORTACIÓN, EXPORTACIÓN Y MANTENIMIENTO DE EQUIPOS Y APARATOS DE LABORATORIO, ORDENADORES, Y LA INVESTIGACIÓN DE NUEVAS TECNOLOGÍAS EN RELACIÓN CON LOS MISMOS. IGUALMENTE FORMA PARTE DEL OBJETO SOCIAL LA PRESTACIÓN A TERCEROS DE SERVICIOS ADMINISTRATIVOS, TÉCNICOS, LOGÍSTICOS E INFORMÁTICOS Y LA GESTIÓN Y ADMINISTRACIÓN DE VALORES REPRESENTATIVOS DE LOS FONDOS PROPIOS DE ENTIDADES NO RESIDENTES EN TERRITORIO ESPAÑOL CON EXPRESA EXCLUSIÓN DE LAS ACTIVIDADES PROPIAS DE LAS ENTIDADES FINANCIERAS Y DE INVERSIÓN COLECTIVA, ASÍ COMO LA REALIZACIÓN DE ESTUIDOS E INVESTIGACIONES, CREACIÓN DE CENTROS DE ESTUDIO, INVESTIGACIÓN Y ANÁLISIS PARA LA CREACIÓN Y DESARROLLO DE PRODUCTOS QUÍMICOS, PREPARADOS DE USO EN MEDICINA HUMANA Y VETERINARIA, DROGAS, PRODUCTOS BIOLÓGICOS, ODONTOLÓGICOS, COSMÉTICOS Y DE DIAGNÓSTICO",
      "mainEntityOfPage": "https://www.contratacion.euskadi.eus/webkpe00-kperoc/es/ac71aBusquedaRegistrosWar/empresa/04659",
      "_links": {
        "self": {
          "name": "BAYER HISPANIA, S.L.",
          "href": "https://api.euskadi.eus/procurements/companies/04659"
        }
      }
    },
    {
      "name": "AVENET IT S.L.",
      "registrationNumber": "08141",
      "identificationNumber": "B47645312",
      "address": "Calle Doctrinos 6 3º",
      "location": {
        "postalCode": "47001",
        "municipality": "Valladolid",
        "county": "Valladolid",
        "municipalityId": "186",
        "countyId": "47"
      },
      "economicActivities": [
        {
          "id": "1.845",
          "name": "Explotación electrónica por cuenta de terceros",
          "_links": {
            "self": {
              "name": "Explotación electrónica por cuenta de terceros",
              "href": "https://api.euskadi.eus/procurements/companies/economic-activities/1.845"
            }
          }
        }
      ],
      "certificateStartDate": "2022-08-03",
      "certificateEndDate": "2023-01-31",
      "object": "EL SERVICIO INFORMÁTICO INTEGRAL A LA EMPRESA, PARTICULARES, Y A LAS ADMINISTRACIONES Y ORGANISMOS PÚBLICOS. ASÍ COMO LA ENSEÑANZA DE FORMACIÓN Y PERFECCIONAMIENTO PROFESIONAL. SERVICIOS TELEMÁTICOS, DE TELECOMUNICACIONES, DE COMERCIO ELECTRÓNICO Y CONTENIDOS EN INTERNET. LA PARTICIPACIÓN Y TENENCIA DE ACCIONES O PARTICIPACIONES EN TODO TIPO DE SOCIEDADES MERCANTILES, EJERCITANDO LA ADMINISTRACIÓN DE LAS MISMAS, QUEDANDO A SALVO LAS LIMITACIONES QUE ESTABLECE LA VIGENTE LEGISLACIÓN DEL MERCADO DE VALORES. LA TENENCIA, COMPRA VENTA Y EXPLOTACIÓN DE TERRENOS, SOLARES, EDIFICIOS, Y TODA CLASE DE BIENES INMUEBLES, INCLUSO EL ARRENDAMIENTO DE LOS MISMOS, SU URBANIZACIÓN, PROMOCIÓN Y EDIFICACIÓN, CON MEDIOS PROPIOS, PARTICIPADAS O DE TERCEROS.",
      "mainEntityOfPage": "https://www.contratacion.euskadi.eus/webkpe00-kperoc/es/ac71aBusquedaRegistrosWar/empresa/08141",
      "_links": {
        "self": {
          "name": "AVENET IT S.L.",
          "href": "https://api.euskadi.eus/procurements/companies/08141"
        }
      }
    },
    {
      "name": "BITART NEW MEDIA, SOCIEDAD LIMITADA",
      "registrationNumber": "08080",
      "identificationNumber": "B95510731",
      "address": "Tivoli 24 Bilbao",
      "location": {
        "postalCode": "48007",
        "municipality": "Bilbao",
        "county": "Bizkaia",
        "municipalityId": "020",
        "countyId": "48"
      },
      "economicActivities": [
        {
          "id": "1.961.1",
          "name": "Producción de películas cinematográficas (incluso vídeos)",
          "_links": {
            "self": {
              "name": "Producción de películas cinematográficas (incluso vídeos)",
              "href": "https://api.euskadi.eus/procurements/companies/economic-activities/1.961.1"
            }
          }
        }
      ],
      "certificateStartDate": "2022-08-03",
      "certificateEndDate": "2023-01-06",
      "object": "1).- PRODUCCIÓN, REALIZACIÓN Y POSTPRODUCCIÓN DE CONTENIDOS AUDIOVISUALES. -SERVICIOS INTEGRALES DE PRODUCCIÓN (GRABACIÓN, GRÚA, PLATÓ, AUDIO). -SERVICIOS DE GRABACIÓN CON Y SIN GRÚA. -SERVICIOS DE POSTPRODUCCIÓN, GRAFISMO, COPIAJE Y CONVERSIÓN DE VIDEO. -FOTOGRAFÍA. REALIZACIÓN, PLATÓ, ATREZZO, FIGURACIÓN. AUDIO.-SONORIZACIÓN, DOBLAJE, LIBRERÍAS DE MÚSICA Y EFECTOS. -PRODUCCIÓN, REALIZACIÓN Y POSTPRODUCCIÓN DE CONTENIDOS CINEMATOGRÁFICOS, TV, RADIO E INTERNET. 2).- PRODUCCIÓN Y DESARROLLO DE CONTENIDOS, APLICACIONES Y HERRAMIENTAS MULTIMEDIA. -PRODUCCIÓN DE CONTENIDOS Y SERVICIOS PAR TV-INTERNET Y WEB. -PROGRAMACIÓN MULTIMEDIA PARA PROYECTOS: WEB, CD, DVD U OTROS FORMATOS FUTUROS. 3).- DISTRIBUCIÓN DE MATERIAL TECNOLÓGICO. -COMERCIO DE MATERIAL TECNOLÓGICO (HARDWARE Y SOFTWARE) POR INTERNET, DIRECTO O POSTAL. -ALQUILER DE INSTALACIONES, MAQUINARIA Y EQUIPOS (CON SOFTWARE EX PROFESO) CON O SIN OPERARIO; EQUIPOS INFORMÁTICOS, DE EDICIÓN, DE BROADCAST, SALAS DE EDICIÓN AUDIO-VIDEO Y OTROS. 4).- CONSULTORÍA TÉCNICA Y PROFESIONAL. -ASESORÍA DE BROADCAST, EQUIPOS, REALIZACIÓN, GRABACIONES, MERCADO (TENDENCIAS TECNOLÓGICAS, ESTÁNDARES, NUEVOS SOPORTES, ESTÁNDARES Y FORMATOS). 5).- AGENTE DE VENTAS-GESTIÓN DE CONTENIDOS. AUDIOVISUALES, MULTIMEDIA Y DERECHOS. 6).- REPRODUCCIÓN DE SOPORTES DE VIDEO E INFORMÁTICAS GRABADOS. REPRODUCCIÓN INDUSTRIAL Y COPIAJE. 7).- SERVICIOS AUXILIARES DE MARKETING Y MERCHANDISING. -GESTIÓN DE SOPORTES PUBLICITARIOS. -DISEÑO PARA EL MERCHANDISING: PROMOCIÓN Y PUBLICIDAD EN PUNTO DE VENTA. DISPLAYS (AUDIOVISUALES), CARTELERÍA. -MERCHANDISING PARA TERCEROS Y PROPIO. PROMOCIONES. JUEGOS. DISEÑO DE MAQUETAS EN 3D Y RESINA-EPÓXI. 8).- SERVICIOS AUXILIARES PARA LAS PRODUCTORAS O PRODUCCIONES. -TRADUCCIÓN, DOBLAJE, MODELOS PUBLICITARIOS, PLATÓ GRABACIÓN. 9.- ARTES GRÁFICAS: DISEÑO, IMPRESIÓN, COLOCACIÓN. -DISEÑO Y ACTIVIDADES DE PREIMPRESIÓN. -SOBRE PAPEL Y OTROS SOPORTES: CARTELERÍA, VALLAS, VINILOS, VIDRIO, CERÁMICA, TEXTIL, METAL, MADERA, ENVASES. 10.- SERVICIOS PARA ESTUDIOS MEDIOAMBIENTALES. IMPACTO AMBIENTAL-IMPACTO VISUAL. REMODELACIÓN PAISAJÍSTICA. 11).- INFOGRAFÍA-INFOARQUITECTURA. ANIMACIÓN 3D/2D SIMULACIÓN POR ORDENADOR. PREVISUALIZACIÓN TÉCNICAS DE RECREACIÓN VIRTUAL. -FOTOMONTAJES (IMPLANTACIONES DE INFOGRAFÍAS SOBRE IMAGEN REAL (FOTO AÉREA). -ILUSTRACIÓN TÉCNICA. -PROYECTOS DE INGENIERÍA Y URBANISMO. 12).- GESTIÓN DE ARCHIVOS AUDIOVISUALES. ALMACENAMIENTO Y DISTRIBUCIÓN. 13).- DIRECCIÓN DE ARTE, PROTOCOLO, ASESORAMIENTO Y DESARROLLO DE PLANES DE COMUNICACIÓN.",
      "mainEntityOfPage": "https://www.contratacion.euskadi.eus/webkpe00-kperoc/es/ac71aBusquedaRegistrosWar/empresa/08080",
      "_links": {
        "self": {
          "name": "BITART NEW MEDIA, SOCIEDAD LIMITADA",
          "href": "https://api.euskadi.eus/procurements/companies/08080"
        }
      }
    },
    {
      "name": "MARIA PILAR RAMIREZ AMURRIO",
      "registrationNumber": "07648",
      "identificationNumber": "30651112R",
      "address": "NICOLAS ALCORTA, 2 - 11C",
      "location": {
        "postalCode": "48003",
        "municipality": "Bilbao",
        "county": "Bizkaia",
        "municipalityId": "020",
        "countyId": "48"
      },
      "economicActivities": [
        {
          "id": "2.778",
          "name": "Diplomados en biblioteconomía y documentación",
          "_links": {
            "self": {
              "name": "Diplomados en biblioteconomía y documentación",
              "href": "https://api.euskadi.eus/procurements/companies/economic-activities/2.778"
            }
          }
        }
      ],
      "certificateStartDate": "2022-08-03",
      "certificateEndDate": "2023-01-11",
      "object": "BIBLIOTEKONOMIA ETA DOKUMENTAZIOAN DIPLOMATUAK",
      "mainEntityOfPage": "https://www.contratacion.euskadi.eus/webkpe00-kperoc/es/ac71aBusquedaRegistrosWar/empresa/07648",
      "_links": {
        "self": {
          "name": "MARIA PILAR RAMIREZ AMURRIO",
          "href": "https://api.euskadi.eus/procurements/companies/07648"
        }
      }
    },
    {
      "name": "COBAETXE, S.L.",
      "registrationNumber": "04831",
      "identificationNumber": "B48579098",
      "address": "IBERRE, MODULO 2. PABELLON 22",
      "location": {
        "postalCode": "48150",
        "municipality": "Sondika",
        "county": "Bizkaia",
        "municipalityId": "904",
        "countyId": "48"
      },
      "economicActivities": [
        {
          "id": "1.501.1",
          "name": "Construcción completa, reparación y conservación de edificaciones",
          "_links": {
            "self": {
              "name": "Construcción completa, reparación y conservación de edificaciones",
              "href": "https://api.euskadi.eus/procurements/companies/economic-activities/1.501.1"
            }
          }
        },
        {
          "id": "1.501.2",
          "name": "Construcción completa, reparación y conservación obras civiles",
          "_links": {
            "self": {
              "name": "Construcción completa, reparación y conservación obras civiles",
              "href": "https://api.euskadi.eus/procurements/companies/economic-activities/1.501.2"
            }
          }
        }
      ],
      "certificateStartDate": "2022-08-03",
      "certificateEndDate": "2023-01-12",
      "object": "LA CONSTRUCCIÓN, POR CUENTA PROPIA O AJENA, DE TODA CLASE DE INMUEBLES, Y REPARACIÓN Y CONSERVACIÓN DE TODA CLASE DE EDIFICACIONES Y OBRAS CIVILES",
      "mainEntityOfPage": "https://www.contratacion.euskadi.eus/webkpe00-kperoc/es/ac71aBusquedaRegistrosWar/empresa/04831",
      "_links": {
        "self": {
          "name": "COBAETXE, S.L.",
          "href": "https://api.euskadi.eus/procurements/companies/04831"
        }
      }
    }
  ]
}