{
  "totalItems": 9042,
  "totalPages": 905,
  "currentPage": 396,
  "itemsOfPage": 10,
  "items": [
    {
      "name": "EVA MARIA MOLINA MEJIAS",
      "registrationNumber": "09513",
      "identificationNumber": "44970103C",
      "address": "Calle Miguel de Unamuno (48920) Nº 43",
      "location": {
        "postalCode": "48920",
        "municipality": "Portugalete",
        "county": "Bizkaia",
        "municipalityId": "078",
        "countyId": "48"
      },
      "economicActivities": [
        {
          "id": "2.839",
          "name": "Masajistas, bromatólogos, dietistas y auxiliares de enfermería",
          "_links": {
            "self": {
              "name": "Masajistas, bromatólogos, dietistas y auxiliares de enfermería",
              "href": "https://api.euskadi.eus/procurements/companies/economic-activities/2.839"
            }
          }
        }
      ],
      "certificateStartDate": "2024-09-06",
      "certificateEndDate": "2025-03-05",
      "object": "MASAJISTAS, BROMATÓLOGOS, DIETISTAS Y AUXILIARES DE ENFERMERÍA.",
      "mainEntityOfPage": "https://www.contratacion.euskadi.eus/webkpe00-kperoc/es/ac71aBusquedaRegistrosWar/empresa/09513",
      "_links": {
        "self": {
          "name": "EVA MARIA MOLINA MEJIAS",
          "href": "https://api.euskadi.eus/procurements/companies/09513"
        }
      }
    },
    {
      "name": "CLUB DE ESGRIMA SAARVI",
      "registrationNumber": "08508",
      "identificationNumber": "G01513142",
      "address": "SIERRA DE ARALAR 3-4ºA",
      "location": {
        "postalCode": "01010",
        "municipality": "Vitoria-Gasteiz",
        "county": "Araba/Álava",
        "municipalityId": "059",
        "countyId": "01"
      },
      "economicActivities": [
        {
          "id": "1.967.2",
          "name": "Escuelas y servicios de perfeccionamiento del deporte",
          "_links": {
            "self": {
              "name": "Escuelas y servicios de perfeccionamiento del deporte",
              "href": "https://api.euskadi.eus/procurements/companies/economic-activities/1.967.2"
            }
          }
        }
      ],
      "certificateStartDate": "2024-09-06",
      "certificateEndDate": "2025-03-04",
      "object": "FOMENTAR LA PRÁCTICA DE LA/S MODALIDAD/ES DEPORTIVA/S DE ESGRIMA.",
      "mainEntityOfPage": "https://www.contratacion.euskadi.eus/webkpe00-kperoc/es/ac71aBusquedaRegistrosWar/empresa/08508",
      "_links": {
        "self": {
          "name": "CLUB DE ESGRIMA SAARVI",
          "href": "https://api.euskadi.eus/procurements/companies/08508"
        }
      }
    },
    {
      "name": "NERA HOMES, S.L.",
      "registrationNumber": "08702",
      "identificationNumber": "B95346862",
      "address": "ESTARTETXE Nº 5, 2ª PLANTA, DPTO. 205",
      "location": {
        "postalCode": "48940",
        "municipality": "Leioa",
        "county": "Bizkaia",
        "municipalityId": "054",
        "countyId": "48"
      },
      "economicActivities": [
        {
          "id": "1.861.1",
          "name": "Alquiler de viviendas",
          "_links": {
            "self": {
              "name": "Alquiler de viviendas",
              "href": "https://api.euskadi.eus/procurements/companies/economic-activities/1.861.1"
            }
          }
        },
        {
          "id": "1.861.2",
          "name": "Alquiler de locales industriales y otros alquileres n.c.o.p",
          "_links": {
            "self": {
              "name": "Alquiler de locales industriales y otros alquileres n.c.o.p",
              "href": "https://api.euskadi.eus/procurements/companies/economic-activities/1.861.2"
            }
          }
        }
      ],
      "certificateStartDate": "2024-09-05",
      "certificateEndDate": "2025-03-05",
      "object": "1) LA PROMOCIÓN Y EJECUCIÓN, COMPLETA O POR RAMOS, DE TODA CLASE DE OBRAS DE CONSTRUCCIÓN, ACONDICIONAMIENTO, URBANIZACIÓN, PARCELACIÓN, SERVICIOS, REPARACIÓN, REHABILITACIÓN, DECORACIÓN Y CONSERVACIÓN, POR CUENTA PROPÌA O AJENA, YA SEA POR SÍ O POR MEDIO DE TERCEROS, DE TODA CLASE DE EDIFICACIONES, VIVIENDAS Y LOCALES COMERCIALES O INDUSTRIALES, E INCLUSO, DE VIVIENDAS DE PROTECCIÓN OFICIAL. 2) LA ADQUISICIÓN Y ENAJENACIÓN, POR CUALQUIER TÍTULO, DE INMUEBLES, FINCAS URBANAS Y RÚSTICAS, YA SEAN TIERRAS, SOLARES Y EDIFICIOS, Y LA ADMINISTRACIÓN, TENENCIA, EXPLOTACIÓN Y ARRENDAMIENTO, YA SEA ACTIVO O PASIVO, MEDIANTE ARRIENDO U OTRO MODO CUALQUIERA, DE TALES BIENES, Y SU VENTA O ENAJENACIÓN TOTAL O PARCIAL, Y PROCEDER A SU APROVECHAMIENTO, URBANO, INDUSTRIAL O CUALQUIER OTRO. 3) EL ASESORAMIENTO DE EMPRESAS, COOPERATIVAS DE VIVIENDAS, ORGANISMOS Y PARTICULARES, TANTO DESDE UN PUNTO DE VISTA FISCAL COMO JURÍDICO, FINANCIERO O DE CUALQUIER OTRO TIPO; EL ESTUDIO, INVESTIGACIÓN, PROMOCIÓN Y PRESTACIÓN DE TODA CLASE DE SERVICIOS DE ASISTENCIA Y GESTIÓN TÉCNICA, ADMINISTRATIVA, COMERCIAL, CONTABLE, FINANCIERA, FISCAL, JURÍDICA Y DE OTROS SERVICIOS INDEPENDIENTES RELACIONADOS CON LA GESTIÓN INTEGRAL DE DICHAS EMPRESAS, COOPERATIVAS DE VIVIENDAS, ORGANISMOS Y PARTICULARES. 4) LA ADQUISICIÓN, VENTA, CESIÓN, INVERSIÓN, TENENCIA, DISFRUTE, ADMINISTRACIÓN, GESTIÓN, ESTUDIOS Y NEGOCIACIÓN EN GENERAL DE TODA CLASE DE TÍTULOS VALORES MOBILIARIOS, DE ACCIONES Y DE PARTICIPACIONES EN EL CAPITAL DE OTRAS COMPAÑIAS, ENTIDADES O SOCIEDADES, COTIZADOS EN BOLSA Y OTROS MERCADOS, O NO, TANTO NACIONALES COMO EXTRANJEROS, POR CUENTA PROPIA, CON EXCEPCIÓN DE LA INTERMEDIACIÓN, Y DEJANDO SIEMPRE FUERA LAS ACTIVIDADES OBJETO DE LA LEGISLACIÓN DE INSTITUCIONES DE INVERSIÓN COLECTIVA Y DEL MERCADO DE VALORES.",
      "mainEntityOfPage": "https://www.contratacion.euskadi.eus/webkpe00-kperoc/es/ac71aBusquedaRegistrosWar/empresa/08702",
      "_links": {
        "self": {
          "name": "NERA HOMES, S.L.",
          "href": "https://api.euskadi.eus/procurements/companies/08702"
        }
      }
    },
    {
      "name": "TRAPAGA SISTEMAS Y TELECOMUNICACIONES, S.L.",
      "registrationNumber": "08954",
      "identificationNumber": "B95192670",
      "address": "C/Funikukar, 4 bajo",
      "location": {
        "postalCode": "48510",
        "municipality": "Valle de Trápaga-Trapagaran",
        "county": "Bizkaia",
        "municipalityId": "080",
        "countyId": "48"
      },
      "economicActivities": [
        {
          "id": "1.504.11",
          "name": "Instalaciones eléctricas en general, redes telegráficas, telefonía, tv, etc",
          "_links": {
            "self": {
              "name": "Instalaciones eléctricas en general, redes telegráficas, telefonía, tv, etc",
              "href": "https://api.euskadi.eus/procurements/companies/economic-activities/1.504.11"
            }
          }
        }
      ],
      "certificateStartDate": "2024-09-05",
      "certificateEndDate": "2025-03-05",
      "object": "LA COMPRAVENTA, INSTALACIÓN, MONTAJE Y MANTENIMIENTO DE EQUIPOS RELACIONADOS CON LA ELECTRÓNICA, TELECOMUNICACIÓN Y TELEFONÍA FIJA Y MÓVIL.",
      "mainEntityOfPage": "https://www.contratacion.euskadi.eus/webkpe00-kperoc/es/ac71aBusquedaRegistrosWar/empresa/08954",
      "_links": {
        "self": {
          "name": "TRAPAGA SISTEMAS Y TELECOMUNICACIONES, S.L.",
          "href": "https://api.euskadi.eus/procurements/companies/08954"
        }
      }
    },
    {
      "name": "GARAJE SAN MIGUEL DE IURRETA,SL",
      "registrationNumber": "04977",
      "identificationNumber": "B48540223",
      "address": "DANTZARI AUZUNEA 8",
      "location": {
        "postalCode": "48215",
        "municipality": "Iurreta",
        "county": "Bizkaia",
        "municipalityId": "910",
        "countyId": "48"
      },
      "economicActivities": [
        {
          "id": "1.691.2",
          "name": "Reparación de vehículos automóviles, bicicletas y otros vehículos",
          "_links": {
            "self": {
              "name": "Reparación de vehículos automóviles, bicicletas y otros vehículos",
              "href": "https://api.euskadi.eus/procurements/companies/economic-activities/1.691.2"
            }
          }
        }
      ],
      "certificateStartDate": "2024-09-05",
      "certificateEndDate": "2025-03-05",
      "object": "LA REPARACIÓN DE AUTOMÓVILES, CAMIONES Y OTROS VEHÍCULOS DE TRACCIÓN",
      "mainEntityOfPage": "https://www.contratacion.euskadi.eus/webkpe00-kperoc/es/ac71aBusquedaRegistrosWar/empresa/04977",
      "_links": {
        "self": {
          "name": "GARAJE SAN MIGUEL DE IURRETA,SL",
          "href": "https://api.euskadi.eus/procurements/companies/04977"
        }
      }
    },
    {
      "name": "TAOM PRODUCCIONES, S.L.",
      "registrationNumber": "08370",
      "identificationNumber": "B95826699",
      "address": "Pau Casals 21",
      "location": {
        "postalCode": "48004",
        "municipality": "Bilbao",
        "county": "Bizkaia",
        "municipalityId": "020",
        "countyId": "48"
      },
      "economicActivities": [
        {
          "id": "1.961.1",
          "name": "Producción de películas cinematográficas (incluso vídeos)",
          "_links": {
            "self": {
              "name": "Producción de películas cinematográficas (incluso vídeos)",
              "href": "https://api.euskadi.eus/procurements/companies/economic-activities/1.961.1"
            }
          }
        },
        {
          "id": "3.039",
          "name": "Otras actividades relacionadas con la música n.c.o.p",
          "_links": {
            "self": {
              "name": "Otras actividades relacionadas con la música n.c.o.p",
              "href": "https://api.euskadi.eus/procurements/companies/economic-activities/3.039"
            }
          }
        }
      ],
      "certificateStartDate": "2024-09-05",
      "certificateEndDate": "2025-03-05",
      "object": "EL DESARROLLO DE LAS ACTIVIDADES CORRESPONDIENTES A LOS SIGUIENTES CÓDIGOS Y DESCRIPCIONES DE LA CLASIFICACIÓN NACIONAL DE ACTIVIDADES ECONÓMICAS: ACTIVIDAD PRINCIPAL: CNAE 5915.- ACTIVIDADES DE PRODUCCIÓN CINEMATOGRÁFICA Y DE VÍDEO.",
      "mainEntityOfPage": "https://www.contratacion.euskadi.eus/webkpe00-kperoc/es/ac71aBusquedaRegistrosWar/empresa/08370",
      "_links": {
        "self": {
          "name": "TAOM PRODUCCIONES, S.L.",
          "href": "https://api.euskadi.eus/procurements/companies/08370"
        }
      }
    },
    {
      "name": "IBAIN CONSULTORIA, S.L.",
      "registrationNumber": "09777",
      "identificationNumber": "B71275481",
      "address": "Calle Santa María, 7",
      "location": {
        "postalCode": "31300",
        "municipality": "Tafalla",
        "county": "Navarra",
        "municipalityId": "227",
        "countyId": "31"
      },
      "economicActivities": [
        {
          "id": "1.932.2",
          "name": "Enseñanza de formación y perfeccionamiento profesional superior",
          "_links": {
            "self": {
              "name": "Enseñanza de formación y perfeccionamiento profesional superior",
              "href": "https://api.euskadi.eus/procurements/companies/economic-activities/1.932.2"
            }
          }
        },
        {
          "id": "1.936.4",
          "name": "Investigaciones en ciencias sociales, humanidades y jurídicas",
          "_links": {
            "self": {
              "name": "Investigaciones en ciencias sociales, humanidades y jurídicas",
              "href": "https://api.euskadi.eus/procurements/companies/economic-activities/1.936.4"
            }
          }
        }
      ],
      "certificateStartDate": "2024-09-05",
      "certificateEndDate": "2025-03-05",
      "object": "COMO ACTIVIDAD PRINCIPAL: ASESORAMIENTO, CONSULTORÍA, FORMACIÓN Y REALIZACIÓN DE ESTUDIOS EN MATERIAS DE SOCIOLOGÍA, PLANIFICACIÓN Y ESTRATEGIAS DE INTERVENCIÓN PÚBLICA, PROGRAMACIÓN Y PROMOCIÓN DE ACTUACIONES EN MATERIA DE IGUALDAD, MUJER, INFANCIA Y MINORÍAS. CNAE: 7220.- INVESTIGACIÓN Y DESARROLLO EXPERIMENTAL EN CIENCIAS SOCIALES Y HUMANIDADES. Y COMO ACTIVIDADES SECUNDARIAS: ACTIVIDADES DE EDICIÓN Y DISTRIBUCIÓN DE PUIBLICACIONES, LIBROS, VIDEOS Y CUALESQUIERA OTROS SOPORTES QUE PERMITAN LA DIFUSIÓN GRÁFICA O AUDIOVISUAL. CNAE: 5811.- EDICIÓN DE LIBROS. PROMOCIÓN Y ORGANIZACIÓN DE CONGRESOS, EXPOSICIONES, SIMPOSIOS, CICLOS, PONENCIAS, CONFERENCIAS, CONCIERTOS Y OBRAS TEATRALES. CNAE: 8230.- ORGANIZACIÓN DE CONVENCIONES Y FERIAS DE MUESTRAS. ACTIVIDADES DE BIBLIOTECONOMÍA, DOCUMENTACIÓN Y ARCHIVÍSTICA. CNAE: 9106.- ACTIVIDADES DE ARCHIVOS.",
      "mainEntityOfPage": "https://www.contratacion.euskadi.eus/webkpe00-kperoc/es/ac71aBusquedaRegistrosWar/empresa/09777",
      "_links": {
        "self": {
          "name": "IBAIN CONSULTORIA, S.L.",
          "href": "https://api.euskadi.eus/procurements/companies/09777"
        }
      }
    },
    {
      "name": "TOURS VIRTUALES DONOSTI, S.L.",
      "registrationNumber": "09776",
      "identificationNumber": "B75209627",
      "address": "Tomás Gros, 5 bjo",
      "location": {
        "postalCode": "20001",
        "municipality": "Donostia / San Sebastián",
        "county": "Gipuzkoa",
        "municipalityId": "069",
        "countyId": "20"
      },
      "economicActivities": [
        {
          "id": "1.849.9",
          "name": "Otros servicios independientes n.c.o.p",
          "_links": {
            "self": {
              "name": "Otros servicios independientes n.c.o.p",
              "href": "https://api.euskadi.eus/procurements/companies/economic-activities/1.849.9"
            }
          }
        }
      ],
      "certificateStartDate": "2024-09-05",
      "certificateEndDate": "2025-03-05",
      "object": "TOURS VIRTUALES, MARKETING DIGITAL, FOTOGRAFÍA, GESTORES DE WEBS, REALIDAD VIRTUAL, REALIDADA AUMENTADA, ESCANEOS DIGITALES E INTERNET.",
      "mainEntityOfPage": "https://www.contratacion.euskadi.eus/webkpe00-kperoc/es/ac71aBusquedaRegistrosWar/empresa/09776",
      "_links": {
        "self": {
          "name": "TOURS VIRTUALES DONOSTI, S.L.",
          "href": "https://api.euskadi.eus/procurements/companies/09776"
        }
      }
    },
    {
      "name": "DAVID RODRIGUEZ CARRASCO",
      "registrationNumber": "09482",
      "identificationNumber": "28929633A",
      "address": "C/FRANCISCO JOSE RUIZ ESPARTACO",
      "location": {
        "postalCode": "41807",
        "municipality": "Espartinas",
        "county": "Sevilla",
        "municipalityId": "040",
        "countyId": "41"
      },
      "economicActivities": [
        {
          "id": "1.933.1",
          "name": "Enseñanza de conducción de vehículos terrestres, acuáticos, etc",
          "_links": {
            "self": {
              "name": "Enseñanza de conducción de vehículos terrestres, acuáticos, etc",
              "href": "https://api.euskadi.eus/procurements/companies/economic-activities/1.933.1"
            }
          }
        }
      ],
      "certificateStartDate": "2024-09-04",
      "certificateEndDate": "2025-03-04",
      "object": "ENSEÑANZA DE CONDUCCIÓN DE VEHÍCULOS TERRESTRES, ACUÁTICOS, ETC.",
      "mainEntityOfPage": "https://www.contratacion.euskadi.eus/webkpe00-kperoc/es/ac71aBusquedaRegistrosWar/empresa/09482",
      "_links": {
        "self": {
          "name": "DAVID RODRIGUEZ CARRASCO",
          "href": "https://api.euskadi.eus/procurements/companies/09482"
        }
      }
    },
    {
      "name": "CAJA BLANCA DATOS, S.L.",
      "registrationNumber": "08001",
      "identificationNumber": "B42874172",
      "address": "C/Carretas 14, 4ºB-1",
      "location": {
        "postalCode": "28012",
        "municipality": "Madrid",
        "county": "Madrid",
        "municipalityId": "079",
        "countyId": "28"
      },
      "economicActivities": [
        {
          "id": "1.845",
          "name": "Explotación electrónica por cuenta de terceros",
          "_links": {
            "self": {
              "name": "Explotación electrónica por cuenta de terceros",
              "href": "https://api.euskadi.eus/procurements/companies/economic-activities/1.845"
            }
          }
        },
        {
          "id": "1.933.9",
          "name": "Otras actividades de enseñanza tales como idiomas, mecanografía",
          "_links": {
            "self": {
              "name": "Otras actividades de enseñanza tales como idiomas, mecanografía",
              "href": "https://api.euskadi.eus/procurements/companies/economic-activities/1.933.9"
            }
          }
        }
      ],
      "certificateStartDate": "2024-09-04",
      "certificateEndDate": "2025-03-04",
      "object": "- EL DISEÑO, DESARROLLO, PRODUCCIÓN, INTEGRACIÓN, OPERACIÓN, MANTENIMIENTO, REPARACIÓN Y COMERCIALIZACIÓN DE SISTEMAS, SOLUCIONES Y PRODUCTOS QUE HAGAN USO DE LAS TECNOLOGÍAS DE LA INFORMACIÓN, ASÍ COMO DE CUALQUIER PARTE O COMPONENTE DE LOS MISMOS Y CUALQUIER TIPO DE SERVICIOS RELACIONADOS CON TODO ELLO, SIENDO DE APLICACIÓN A CUALQUIER CAMPO O SECTOR. - LA PRESTACIÓN DE SERVICIOS EN LOS ÁMBITOS DE CONSULTORÍA DE NEGOCIO Y DE GESTIÓN, CONSULTORÍA TECNOLÓGICA Y FORMACIÓN DESTINADOS A CUALQUIER CAMPO O SECTOR, LA ELABORACIÓN Y EJECUCIÓN DE TODA CLASE DE ESTUDIOS Y PROYECTOS, ASÍ COMO LA DIRECCIÓN, ASISTENCIA, TRANSFERENCIA DE TECNOLOGÍA, COMERCIALIZACIÓN Y ADMINISTRACIÓN DE TALES ESTUDIOS, PROYECTOS Y ACTIVIDADES. - LA PRESTACIÓN DE SERVICIOS DE EXTERNALIZACIÓN DE ACTIVIDADES Y PROCESOS PERTENECIENTES A CUALQUIER CAMPO O SECTOR. - LA COMPRAVENTA DE DATOS DE MÚLTIPLES SECTORES ASÍ COMO CÁLCULOS ANALÍTICOS SOBRE LOS MISMOS.",
      "mainEntityOfPage": "https://www.contratacion.euskadi.eus/webkpe00-kperoc/es/ac71aBusquedaRegistrosWar/empresa/08001",
      "_links": {
        "self": {
          "name": "CAJA BLANCA DATOS, S.L.",
          "href": "https://api.euskadi.eus/procurements/companies/08001"
        }
      }
    }
  ]
}