{
  "totalItems": 9042,
  "totalPages": 905,
  "currentPage": 509,
  "itemsOfPage": 10,
  "items": [
    {
      "name": "CONSTRUCCIONES Y REHABILITACIONES PRADA 2017 S.L.",
      "registrationNumber": "07023",
      "identificationNumber": "B01553791",
      "address": "Calle Madrid nº 56-5ºA",
      "location": {
        "postalCode": "01002",
        "municipality": "Vitoria-Gasteiz",
        "county": "Araba/Álava",
        "municipalityId": "059",
        "countyId": "01"
      },
      "economicActivities": [
        {
          "id": "1.501.3",
          "name": "Albañilería y pequeños trabajos de construcción en general",
          "_links": {
            "self": {
              "name": "Albañilería y pequeños trabajos de construcción en general",
              "href": "https://api.euskadi.eus/procurements/companies/economic-activities/1.501.3"
            }
          }
        }
      ],
      "certificateStartDate": "2021-11-15",
      "certificateEndDate": "2022-05-13",
      "object": "REALIZACIÓN DE TODA CLASE DE OBRAS Y TRABAJOS DE ALBAÑILERÍA, AISLAMIENTOS, CONSTRUCCIONES Y REHABILITACIONES.",
      "mainEntityOfPage": "https://www.contratacion.euskadi.eus/webkpe00-kperoc/es/ac71aBusquedaRegistrosWar/empresa/07023",
      "_links": {
        "self": {
          "name": "CONSTRUCCIONES Y REHABILITACIONES PRADA 2017 S.L.",
          "href": "https://api.euskadi.eus/procurements/companies/07023"
        }
      }
    },
    {
      "name": "SAREWORK ENGINEERING, S.L.",
      "registrationNumber": "07535",
      "identificationNumber": "B95725974",
      "address": "AVD. Ribera de Axpe, 11 Edificio B Oficina 106",
      "location": {
        "postalCode": "48950",
        "municipality": "Erandio",
        "county": "Bizkaia",
        "municipalityId": "902",
        "countyId": "48"
      },
      "economicActivities": [
        {
          "id": "1.845",
          "name": "Explotación electrónica por cuenta de terceros",
          "_links": {
            "self": {
              "name": "Explotación electrónica por cuenta de terceros",
              "href": "https://api.euskadi.eus/procurements/companies/economic-activities/1.845"
            }
          }
        }
      ],
      "certificateStartDate": "2021-11-11",
      "certificateEndDate": "2022-03-23",
      "object": "1. COMERCIO AL POR MAYOR Y AL POR MENOR. DISTRIBUCIÓN COMERCIAL. IMPORTACIÓN Y EXPORTACIÓN. 2. ACTIVIDADES PROFESIONALES. 3. PRESTACIÓN DE SERVICIOS. ACTIVIDADES DE GESTIÓN Y ADMINISTRACIÓN. SERVICIOS EDUCATIVOS, SANITARIOS, DE OCIO Y ENTRETENIMIENTO. 4. INFORMACIÓN Y COMUNICACIONES. 5. INFORMÁTICA, TELECOMUNICACIONES Y OFIMÁTICA. 6. ENERGÍAS ALTERNATIVAS",
      "mainEntityOfPage": "https://www.contratacion.euskadi.eus/webkpe00-kperoc/es/ac71aBusquedaRegistrosWar/empresa/07535",
      "_links": {
        "self": {
          "name": "SAREWORK ENGINEERING, S.L.",
          "href": "https://api.euskadi.eus/procurements/companies/07535"
        }
      }
    },
    {
      "name": "ATELIER80 ARQUITECTOS S. COOP. PEQUEÑA. P.",
      "registrationNumber": "06637",
      "identificationNumber": "F95837225",
      "address": "JUAN DE GARAY 57, 4ID",
      "location": {
        "postalCode": "48003",
        "municipality": "Bilbao",
        "county": "Bizkaia",
        "municipalityId": "020",
        "countyId": "48"
      },
      "economicActivities": [
        {
          "id": "1.843.2",
          "name": "Servicios técnicos de arquitectura y urbanismo",
          "_links": {
            "self": {
              "name": "Servicios técnicos de arquitectura y urbanismo",
              "href": "https://api.euskadi.eus/procurements/companies/economic-activities/1.843.2"
            }
          }
        }
      ],
      "certificateStartDate": "2021-11-09",
      "certificateEndDate": "2022-04-29",
      "object": "EL EJERCER EN COMÚN LAS ACTIVIDADES PROPIAS DE NUESTRA COMPETENCIA PROFESIONAL EN LOS CAMPOS DE LA ARQUITECTURA Y EL URBANISMO. ASÍ COMO EL DISEÑO Y DECORACIÓN DE INTERIORES, DISEÑO GRÁFICO, FOTOGRAFÍA Y PUBLICIDAD Y ACTIVIDADES DOCENTES",
      "mainEntityOfPage": "https://www.contratacion.euskadi.eus/webkpe00-kperoc/es/ac71aBusquedaRegistrosWar/empresa/06637",
      "_links": {
        "self": {
          "name": "ATELIER80 ARQUITECTOS S. COOP. PEQUEÑA. P.",
          "href": "https://api.euskadi.eus/procurements/companies/06637"
        }
      }
    },
    {
      "name": "SUR AEROSPACE SPAIN, S.L.",
      "registrationNumber": "07961",
      "identificationNumber": "B67372243",
      "address": "Passeig de Garcia Fária 49",
      "location": {
        "postalCode": "08019",
        "municipality": "Barcelona",
        "county": "Barcelona",
        "municipalityId": "019",
        "countyId": "08"
      },
      "economicActivities": [
        {
          "id": "1.631",
          "name": "Intermediarios del comercio",
          "_links": {
            "self": {
              "name": "Intermediarios del comercio",
              "href": "https://api.euskadi.eus/procurements/companies/economic-activities/1.631"
            }
          }
        },
        {
          "id": "1.659.2",
          "name": "Venta al por menor de muebles de oficina y máquinas y equipos de oficina",
          "_links": {
            "self": {
              "name": "Venta al por menor de muebles de oficina y máquinas y equipos de oficina",
              "href": "https://api.euskadi.eus/procurements/companies/economic-activities/1.659.2"
            }
          }
        },
        {
          "id": "1.843.1",
          "name": "Servicios técnicos de ingeniería",
          "_links": {
            "self": {
              "name": "Servicios técnicos de ingeniería",
              "href": "https://api.euskadi.eus/procurements/companies/economic-activities/1.843.1"
            }
          }
        },
        {
          "id": "1.845",
          "name": "Explotación electrónica por cuenta de terceros",
          "_links": {
            "self": {
              "name": "Explotación electrónica por cuenta de terceros",
              "href": "https://api.euskadi.eus/procurements/companies/economic-activities/1.845"
            }
          }
        },
        {
          "id": "1.849.9",
          "name": "Otros servicios independientes n.c.o.p",
          "_links": {
            "self": {
              "name": "Otros servicios independientes n.c.o.p",
              "href": "https://api.euskadi.eus/procurements/companies/economic-activities/1.849.9"
            }
          }
        },
        {
          "id": "1.933.9",
          "name": "Otras actividades de enseñanza tales como idiomas, mecanografía",
          "_links": {
            "self": {
              "name": "Otras actividades de enseñanza tales como idiomas, mecanografía",
              "href": "https://api.euskadi.eus/procurements/companies/economic-activities/1.933.9"
            }
          }
        }
      ],
      "certificateStartDate": "2021-11-08",
      "certificateEndDate": "2022-05-08",
      "object": "71.12 / SERVICIOS TÉCNICOS DE INGENIERÍA Y OTRAS ACTIVIDADES RELACIONADAS CON EL ASESORAMIENTO TÉCNICO. OTRAS ACTIVIDADES: 62.01 / ACTIVIDADES DE PROGRAMACIÓN INFORMÁTICA. 82.30 / ORGANIZACIÓN DE CONVENCIONES Y FERIAS DE MUESTRAS. 46.19 / INTERMEDIARIOS DEL COMERCIO DE PRODUCTOS DIVERSOS. 62.09 / OTROS SERVICIOS RELACIONADOS CON LAS TECNOLOGÍAS DE LA INFORMACIÓN Y LA INFORMÁTICA. 62.03 / GESTIÓN DE RECURSOS INFORMÁTICOS. 62.02 / ACTIVIDADES DE CONSULTORÍA INFORMÁTICA. 85.59 / OTRA EDUCACIÓN. 46.51 / COMERCIO AL POR MAYOR DE ORDENADORES, EQUIPOS PERIFÉRICOS Y PROGRAMAS INFORMÁTICOS. 63.12 / PORTALES WEB. 63.99 / OTROS SERVICIOS DE INFORMACIÓN. 47.41 / COMERCIO AL POR MENOR DE ORDENADORES, EQUIPOS PERIFÉRICOS Y PROGRAMAS INFORMÁTICOS EN ESTABLECIMIENTOS ESPECIALIZADOS.",
      "mainEntityOfPage": "https://www.contratacion.euskadi.eus/webkpe00-kperoc/es/ac71aBusquedaRegistrosWar/empresa/07961",
      "_links": {
        "self": {
          "name": "SUR AEROSPACE SPAIN, S.L.",
          "href": "https://api.euskadi.eus/procurements/companies/07961"
        }
      }
    },
    {
      "name": "COMPAÑIA GENERAL DE CONSTRUCCION ABALDO, S.A.",
      "registrationNumber": "07958",
      "identificationNumber": "A45589595",
      "address": "Avda. de Europa, 34",
      "location": {
        "postalCode": "28023",
        "municipality": "Madrid",
        "county": "Madrid",
        "municipalityId": "079",
        "countyId": "28"
      },
      "economicActivities": [
        {
          "id": "1.507",
          "name": "Construcción, reparación y conservación de toda clase obras",
          "_links": {
            "self": {
              "name": "Construcción, reparación y conservación de toda clase obras",
              "href": "https://api.euskadi.eus/procurements/companies/economic-activities/1.507"
            }
          }
        }
      ],
      "certificateStartDate": "2021-11-08",
      "certificateEndDate": "2022-05-08",
      "object": "1) LA REALIZACIÓN BAJO CUALQUIER FORMA Y MODALIDAD, Y LA EJECUCIÓN DE TODA CLASE DE OBRAS PÚBLICAS Y PARTICULARES, LA COMPRAVENTA, TRANSFORMACIÓN, DISTRIBUCIÓN, FABRICACIÓN, INSTALACIÓN Y MONTAJE DE CUALQUIER CLASE DE MATERIALES DE CONSTRUCCIÓN Y DE PRODUCTOS DERIVADOS DE LA MISMA. 2) REDACCIÓN DE TODO TIPO DE PROYECTOS DE CONSTRUCCIÓN, ASISTENCIAS TÉCNICAS, REDACCIÓN DE INFORMES Y ASESORAMIENTOS EN MATERIAS RELACIONADOS CON LAS OBRAS PÚBLICAS O PRIVADAS, TANTO EN EL SEGUIMIENTO TÉCNICO DE SU PROYECTO DE DISEÑO, EJECUCIÓN Y CONTROL DE CALIDAD DE LAS OBRAS. 3) LA PRESTACIÓN DE SERVICIOS RELACIONADOS CON LA CONSERVACIÓN, REPARACIÓN, MANTENIMIENTO, SANEAMIENTO, LIMPIEZA DE TODA CLASE DE OBRAS, INSTALACIONES Y SERVICIOS, TANTO A ENTIDADES PÚBLICAS COMO PRIVADAS. 4) PRESTACIÓN DE SERVICIOS RELACIONADOS CON EL MEDIO AMBIENTE, TALES COMO EL CONTROL DE HUMOS Y RESIDUOS, Y LA GESTIÓN INTEGRAL DE BASURAS, TANTO EN LO QUE SE REFIERE A SU RECOGIDA COMO A SU DEPURACIÓN, TRASFORMACIÓN Y TRATAMIENTO. 5) CONSTRUCCIÓN, EJECUCIÓN, EXPLOTACIÓN Y PRESTACIÓN DE TODO TIPO DE SERVICIOS PÚBLICOS O COMUNITARIOS RELACIONADOS CON LA INFRAESTRUCTURA DE TRANSPORTE, URBANO O INTERURBANO, YA SEA POR VÍA TERRESTRE, MARÍTIMA O AÉREA. 6) LA INVESTIGACIÓN, EXPLOTACIÓN Y APROVECHAMIENTO DE YACIMIENTOS MINERALES, ASÍ COMO LA ADQUISICIÓN, USO Y DISFRUTE DE PERMISOS, CONCESIONES, LICENCIAS, AUTORIZACIONES Y DEMÁS DERECHOS DE CARÁCTER MINERO, LA INDUSTRIALIZACIÓN, DISTRIBUCIÓN Y COMERCIALIZACIÓN DE PRODUCTOS MINERALES. 7) LA TITULARIDAD DE TODA CLASE DE CONCESIONES, SUBCONCESIONES, AUTORIZACIONES Y LICENCIAS ADMINISTRATIVAS DE OBRAS, SERVICIOS Y MIXTAS DEL ESTADO, COMUNIDADES AUTÓNOMAS, PROVINCIALES, MUNICIPALES, ORGANISMOS AUTÓNOMOS, ENTIDADES AUTÓNOMAS Y, EN GENERAL CUALQUIER ESTADO EXTRANJERO O INSTITUCIONES INTERNACIONALES. 8) ACTIVIDADES RELACIONADAS CON LA ARQUEOLOGÍA TALES COMO LOCALIZACIÓN, EXCAVACIÓN, RECUPERACIÓN Y TRATAMIENTO DE RESTOS ARQUEOLÓGICOS. 9) PROMOCIÓN, DISEÑO, CONSTRUCCIÓN, TRATAMIENTO, EXPLOTACIÓN Y MANTENIMIENTO DE: A) PLANTAS POTABILIZADORAS DE AGUA. B) PLANTAS DEPURADORAS DE AGUA. C) APARCAMIENTOS PÚBLICOS Y PRIVADOS. D) PLANTAS DE TRATAMIENTO DE RESIDUOS SÓLIDOS URBANOS. E) PLANTAS DE ALMACENAJE Y TRANSFERENCIAS DE RESIDUOS SÓLIDOS URBANOS. F) REDES DE CAPTACIÓN Y DISTRIBUCIÓN DE AGUA Y SANEAMIENTO. G) TRATAMIENTOS MEDIOAMBIENTALES. 10) REHABILITACIÓN DE BIENES INMUEBLES, HISTÓRICO-ARTÍSTICOS O DE RECIENTE CONSTRUCCIÓN, BIEN SEAN PRIVADOS O PÚBLICOS. 11) LA ADQUISICIÓN DE TERRENOS, FINCAS O PARCELAS, TANTO RÚSTICAS COMO URBANAS PARA SU POSTERIOR RECONSTRUCCIÓN O PARA SU VENTA O ADMINISTRACIÓN. EJECUCIÓN COMPLETA O PARCIAL POR CUENTA PROPIA O DE TERCEROS CONTRATISTAS, SUBCONTRATISTAS O DESTAJISTAS EN SU SENTIDO MÁS AMPLIO, DE OBRAS URBANAS, INDUSTRIALES, COMERCIALES, DE ESPARCIMIENTO Y DE RECREO, HOTELES Y VIVIENDA TANTO DE CARÁCTER DE RENTA LIMITADA, SUBVENCIONADA, RENTA LIBRE O CUALQUIER OTRA MODALIDAD, BIEN PARA EXPLOTACIÓN COMO TALES EN FORMA DE ARRENDAMIENTO O PARA SU VENTA. 12) LA COMPRAVENTA DE FINCAS, TERRENOS SOLARES Y EDIFICIOS Y LA CONSTRUCCIÓN DE ESTOS, LA EXPLOTACIÓN DE LOS INMUEBLES DIRECTAMENTE, DÁNDOLOS EN ARRENDAMIENTO O CEDIÉNDOLOS EN CUALQUIER OTRA FORMA, LOS SUMINISTROS Y CONTRATOS REFERENTES A BIENES DE TAL CLASE, LA URBANIZACIÓN DE ZONAS DE TERRENO.",
      "mainEntityOfPage": "https://www.contratacion.euskadi.eus/webkpe00-kperoc/es/ac71aBusquedaRegistrosWar/empresa/07958",
      "_links": {
        "self": {
          "name": "COMPAÑIA GENERAL DE CONSTRUCCION ABALDO, S.A.",
          "href": "https://api.euskadi.eus/procurements/companies/07958"
        }
      }
    },
    {
      "name": "GESTION PARA  INSTALACIONES  DE CLIMATIZACION Y FONTANERIA, S.L.",
      "registrationNumber": "07957",
      "identificationNumber": "B95480497",
      "address": "SANTIAGO GRASSA 5",
      "location": {
        "postalCode": "48910",
        "municipality": "Sestao",
        "county": "Bizkaia",
        "municipalityId": "084",
        "countyId": "48"
      },
      "economicActivities": [
        {
          "id": "1.504.3",
          "name": "Instalaciones de frío, calor y acondicionamiento de aire",
          "_links": {
            "self": {
              "name": "Instalaciones de frío, calor y acondicionamiento de aire",
              "href": "https://api.euskadi.eus/procurements/companies/economic-activities/1.504.3"
            }
          }
        },
        {
          "id": "1.934",
          "name": "Enseñanza fuera de establecimiento permanente",
          "_links": {
            "self": {
              "name": "Enseñanza fuera de establecimiento permanente",
              "href": "https://api.euskadi.eus/procurements/companies/economic-activities/1.934"
            }
          }
        }
      ],
      "certificateStartDate": "2021-11-05",
      "certificateEndDate": "2022-05-05",
      "object": "A) MANTENIMIENTO Y REPARACIÓN DE INSTALACIONES DE CLIMATIZACIÓN Y FONTANERÍA. B) INSTALACIÓN DE CONDUCCIONES Y ELEMENTOS DE ALMACENAMIENTO PARA AGUA Y AIRE. C) COMPRAVENTA DE APARATOS DE SUMINISTRO, ALMACENAMIENTO, CONDUCCIÓN Y TRATAMIENTO DE AGUA Y AIRE. D) EL ESTUDIO Y RESOLUCIÓN DE TODAS CUANTAS CUESTIONES TÉCNICAS Y DE CUALQUIER ORDEN, RELACIONADAS CON EL OBJETO Y OBJETOS PRINCIPALES PUEDAN PLANTEARSE.",
      "mainEntityOfPage": "https://www.contratacion.euskadi.eus/webkpe00-kperoc/es/ac71aBusquedaRegistrosWar/empresa/07957",
      "_links": {
        "self": {
          "name": "GESTION PARA  INSTALACIONES  DE CLIMATIZACION Y FONTANERIA, S.L.",
          "href": "https://api.euskadi.eus/procurements/companies/07957"
        }
      }
    },
    {
      "name": "BASTIDA SUKALDEAK DONOSTIA, S.L.",
      "registrationNumber": "07956",
      "identificationNumber": "B75215731",
      "address": "CALLE BERGARA 23",
      "location": {
        "postalCode": "2005",
        "municipality": "Donostia / San Sebastián",
        "county": "Gipuzkoa",
        "municipalityId": "069",
        "countyId": "20"
      },
      "economicActivities": [
        {
          "id": "1.653.2",
          "name": "Venta al por menor de material y aparatos eléctricos, electrodomésticos y cocina",
          "_links": {
            "self": {
              "name": "Venta al por menor de material y aparatos eléctricos, electrodomésticos y cocina",
              "href": "https://api.euskadi.eus/procurements/companies/economic-activities/1.653.2"
            }
          }
        }
      ],
      "certificateStartDate": "2021-11-05",
      "certificateEndDate": "2022-05-05",
      "object": "VENTA DE ELECTRODOMÉSTICOS Y MOBILIARIO DE COCINA, BAÑO, ARMARIOS A MEDIDA, REALIZACIÓN DE OBRAS DE CONSTRUCCIÓN, COORDINACIÓN DE GREMIOS Y ACTIVIDADES INMOBILIARIAS. CNAE: 4759.",
      "mainEntityOfPage": "https://www.contratacion.euskadi.eus/webkpe00-kperoc/es/ac71aBusquedaRegistrosWar/empresa/07956",
      "_links": {
        "self": {
          "name": "BASTIDA SUKALDEAK DONOSTIA, S.L.",
          "href": "https://api.euskadi.eus/procurements/companies/07956"
        }
      }
    },
    {
      "name": "ZEBERIO GARBI SA",
      "registrationNumber": "05669",
      "identificationNumber": "A95875431",
      "address": "PASEO URGOITI, Nº 7, BAJO",
      "location": {
        "postalCode": "48480",
        "municipality": "Arrigorriaga",
        "county": "Bizkaia",
        "municipalityId": "011",
        "countyId": "48"
      },
      "economicActivities": [
        {
          "id": "1.921.1",
          "name": "Servicios de limpieza en calles, vías públicas y jardines",
          "_links": {
            "self": {
              "name": "Servicios de limpieza en calles, vías públicas y jardines",
              "href": "https://api.euskadi.eus/procurements/companies/economic-activities/1.921.1"
            }
          }
        },
        {
          "id": "1.922",
          "name": "Servicios de limpieza",
          "_links": {
            "self": {
              "name": "Servicios de limpieza",
              "href": "https://api.euskadi.eus/procurements/companies/economic-activities/1.922"
            }
          }
        }
      ],
      "certificateStartDate": "2021-11-05",
      "certificateEndDate": "2022-04-26",
      "object": "SERVICIOS DE LIMPIEZA DE INTERIOR DE TODO TIPO DE EDIFICACIONES Y LOCALES",
      "mainEntityOfPage": "https://www.contratacion.euskadi.eus/webkpe00-kperoc/es/ac71aBusquedaRegistrosWar/empresa/05669",
      "_links": {
        "self": {
          "name": "ZEBERIO GARBI SA",
          "href": "https://api.euskadi.eus/procurements/companies/05669"
        }
      }
    },
    {
      "name": "PRO-LITE TECHNOLOGY IBERIA, S.L.",
      "registrationNumber": "07953",
      "identificationNumber": "B66812470",
      "address": "ENRIQUE GRANADOS, 111",
      "location": {
        "postalCode": "08008",
        "municipality": "Barcelona",
        "county": "Barcelona",
        "municipalityId": "019",
        "countyId": "08"
      },
      "economicActivities": [
        {
          "id": "1.617.9",
          "name": "Venta al por mayor interindustrial de otros productos n.c.o.p",
          "_links": {
            "self": {
              "name": "Venta al por mayor interindustrial de otros productos n.c.o.p",
              "href": "https://api.euskadi.eus/procurements/companies/economic-activities/1.617.9"
            }
          }
        }
      ],
      "certificateStartDate": "2021-11-05",
      "certificateEndDate": "2022-04-17",
      "object": "LA DISTRIBUCIÓN, INSTALACIÓN Y MANTENIMIENTO DE EQUIPAMIENTO CIENTÍFICO E INDUSTRIAL",
      "mainEntityOfPage": "https://www.contratacion.euskadi.eus/webkpe00-kperoc/es/ac71aBusquedaRegistrosWar/empresa/07953",
      "_links": {
        "self": {
          "name": "PRO-LITE TECHNOLOGY IBERIA, S.L.",
          "href": "https://api.euskadi.eus/procurements/companies/07953"
        }
      }
    },
    {
      "name": "FIELDEAS, S.L.",
      "registrationNumber": "05879",
      "identificationNumber": "B39803325",
      "address": "C/ Isabel Torres, 3",
      "location": {
        "postalCode": "39011",
        "municipality": "Santander",
        "county": "Cantabria",
        "municipalityId": "075",
        "countyId": "39"
      },
      "economicActivities": [
        {
          "id": "1.845",
          "name": "Explotación electrónica por cuenta de terceros",
          "_links": {
            "self": {
              "name": "Explotación electrónica por cuenta de terceros",
              "href": "https://api.euskadi.eus/procurements/companies/economic-activities/1.845"
            }
          }
        }
      ],
      "certificateStartDate": "2021-11-03",
      "certificateEndDate": "2022-04-28",
      "object": "LA INVESTIGACIÓN CIENTÍFICO-TÉCNICA, Y LA APLICACIÓN DE NUEVAS TECNOLOGÍAS Y PRODUCTOS DEL SECTOR DE LA INFORMÁTICA, EL ASESORAMIENTO E INTERMEDIACIÓN DE PRODUCTOS Y SERVICIOS RELACIONADOS CON LOS SECTORES DE: TELECOMUNICACIÓN, INTERNET, BANDA ANCHA, CONENIDOS, APLICACIONES DE INTERNET, SOFTWARE, SERVICIOS PARA EMPRESA",
      "mainEntityOfPage": "https://www.contratacion.euskadi.eus/webkpe00-kperoc/es/ac71aBusquedaRegistrosWar/empresa/05879",
      "_links": {
        "self": {
          "name": "FIELDEAS, S.L.",
          "href": "https://api.euskadi.eus/procurements/companies/05879"
        }
      }
    }
  ]
}