{
  "totalItems": 9042,
  "totalPages": 905,
  "currentPage": 487,
  "itemsOfPage": 10,
  "items": [
    {
      "name": "CONSTRUCCIONES ARABOLAZA, S.L.",
      "registrationNumber": "05827",
      "identificationNumber": "B20184552",
      "address": "BORROKA ZELAIETA, 14",
      "location": {
        "postalCode": "20180",
        "municipality": "Oiartzun",
        "county": "Gipuzkoa",
        "municipalityId": "063",
        "countyId": "20"
      },
      "economicActivities": [
        {
          "id": "1.501.3",
          "name": "Albañilería y pequeños trabajos de construcción en general",
          "_links": {
            "self": {
              "name": "Albañilería y pequeños trabajos de construcción en general",
              "href": "https://api.euskadi.eus/procurements/companies/economic-activities/1.501.3"
            }
          }
        }
      ],
      "certificateStartDate": "2022-08-30",
      "certificateEndDate": "2023-02-28",
      "object": "LA CONSTRUCCIÓN DE TODO TIPO DE INMUEBLES Y LA RELIZACIÓN DE OBRAS DE ALBAÑILERÍA, ASÍ COMO CUANTAS OPERACIONES AUXILIARES O COMPLEMENTARIAS DE LAS ANTERIORMENTE CITADAS",
      "mainEntityOfPage": "https://www.contratacion.euskadi.eus/webkpe00-kperoc/es/ac71aBusquedaRegistrosWar/empresa/05827",
      "_links": {
        "self": {
          "name": "CONSTRUCCIONES ARABOLAZA, S.L.",
          "href": "https://api.euskadi.eus/procurements/companies/05827"
        }
      }
    },
    {
      "name": "HEALTH IN CODE, S.L.",
      "registrationNumber": "08251",
      "identificationNumber": "B98165723",
      "address": "C/ Catedrático Agustín Escardino, 9",
      "location": {
        "postalCode": "46980",
        "municipality": "Paterna",
        "county": "Valencia/València",
        "municipalityId": "190",
        "countyId": "46"
      },
      "economicActivities": [
        {
          "id": "1.936",
          "name": "Investigación científica y técnica",
          "_links": {
            "self": {
              "name": "Investigación científica y técnica",
              "href": "https://api.euskadi.eus/procurements/companies/economic-activities/1.936"
            }
          }
        },
        {
          "id": "1.942.9",
          "name": "Otros servicios sanitarios sin internados, no clasificados",
          "_links": {
            "self": {
              "name": "Otros servicios sanitarios sin internados, no clasificados",
              "href": "https://api.euskadi.eus/procurements/companies/economic-activities/1.942.9"
            }
          }
        }
      ],
      "certificateStartDate": "2022-08-30",
      "certificateEndDate": "2023-02-28",
      "object": "(I) EL DESARROLLO Y LA PRESTACIÓN DE SERVICIOS DE ANÁLISIS Y DIAGNÓSTICO GENÉTICO; (II) LA COMERCIALIZACIÓN DE PRODUCTOS BASADOS EN TECNOLOGÍAS DE ADN Y ARN PARA EL DIAGNÓSTICO DE ENFERMEDADES HUMANAS Y PARA LA DETECCIÓN DE ALÉRGENOS Y MATERIAL TRANSGÉNICO EN EL SECTOR AGROALIMENTARIO; Y (III) LA CESIÓN DE EQUIPAMIENTO TÉCNICO DE DIAGNÓSTICO GENÉTICO DE TERCEROS; TODO ELLO A TRAVÉS DE LOS CORRESPONDIENTES PROFESIONALES, APLICADOS, ENTRE OTROS, A LAS ACTIVIDADES MÉDICAS Y SANITARIAS EN FORMA DE SERVICIOS DE DIAGNÓSTICO MOLECULAR Y EN FORMA DE CONSULTAS MÉDICAS (C.N.A.E. DE LA ACTIVIDAD PRINCIPAL: 8690 - OTRAS ACTIVIDADES SANITARIAS).",
      "mainEntityOfPage": "https://www.contratacion.euskadi.eus/webkpe00-kperoc/es/ac71aBusquedaRegistrosWar/empresa/08251",
      "_links": {
        "self": {
          "name": "HEALTH IN CODE, S.L.",
          "href": "https://api.euskadi.eus/procurements/companies/08251"
        }
      }
    },
    {
      "name": "MANUEL MURILLO MESA",
      "registrationNumber": "03605",
      "identificationNumber": "15383445X",
      "address": "Bustindui Tarren 4 4º Izda",
      "location": {
        "postalCode": "20600",
        "municipality": "Eibar",
        "county": "Gipuzkoa",
        "municipalityId": "030",
        "countyId": "20"
      },
      "economicActivities": [
        {
          "id": "1.504.1",
          "name": "Instalaciones eléctricas en general",
          "_links": {
            "self": {
              "name": "Instalaciones eléctricas en general",
              "href": "https://api.euskadi.eus/procurements/companies/economic-activities/1.504.1"
            }
          }
        }
      ],
      "certificateStartDate": "2022-08-30",
      "certificateEndDate": "2023-02-24",
      "object": "LAS INSTALACIONES ELÉCTRICAS EN GENERAL",
      "mainEntityOfPage": "https://www.contratacion.euskadi.eus/webkpe00-kperoc/es/ac71aBusquedaRegistrosWar/empresa/03605",
      "_links": {
        "self": {
          "name": "MANUEL MURILLO MESA",
          "href": "https://api.euskadi.eus/procurements/companies/03605"
        }
      }
    },
    {
      "name": "MAINRAIL, S.L.",
      "registrationNumber": "08039",
      "identificationNumber": "B02715878",
      "address": "POLIGONO MUTILVA CALLE E 11 1ª 31192",
      "location": {
        "postalCode": "31192",
        "municipality": "Aranguren",
        "county": "Navarra",
        "municipalityId": "023",
        "countyId": "31"
      },
      "economicActivities": [
        {
          "id": "1.843.9",
          "name": "Otros servicios técnicos n.c.o.p",
          "_links": {
            "self": {
              "name": "Otros servicios técnicos n.c.o.p",
              "href": "https://api.euskadi.eus/procurements/companies/economic-activities/1.843.9"
            }
          }
        }
      ],
      "certificateStartDate": "2022-08-30",
      "certificateEndDate": "2023-02-28",
      "object": "VENTA, LICENCIA, O EXPLOTACIÓN POR CUALQUIER MEDIO, DE SOLUCIONES, SERVICIOS E INTEGRACIÓN QUE, EMPLEANDO LAS TECNOLOGÍAS DE LA INFORMACIÓN PARA APLICAR LOS CONOCIMIENTOS CIENTÍFICOS Y DE INGENIERÍA FERROVIARIA, FACILITE, OPTIMICE, Y AUMENTE LA CALIDAD DE LOS SERVICIOS DE MANTENIMIENTO PREVENTIVO Y CORRECTIVO DE LAS INFRAESTRUCTURAS FERROVIARIAS.",
      "mainEntityOfPage": "https://www.contratacion.euskadi.eus/webkpe00-kperoc/es/ac71aBusquedaRegistrosWar/empresa/08039",
      "_links": {
        "self": {
          "name": "MAINRAIL, S.L.",
          "href": "https://api.euskadi.eus/procurements/companies/08039"
        }
      }
    },
    {
      "name": "JOAQUÍN GÁÑEZ ALCOLEA",
      "registrationNumber": "08550",
      "identificationNumber": "46613079Z",
      "address": "Aizkorri 75 3ºA",
      "location": {
        "postalCode": "20018",
        "municipality": "Donostia / San Sebastián",
        "county": "Gipuzkoa",
        "municipalityId": "069",
        "countyId": "20"
      },
      "economicActivities": [
        {
          "id": "2.399",
          "name": "Otros profesionales relacionados con otras industrias manufactureras",
          "_links": {
            "self": {
              "name": "Otros profesionales relacionados con otras industrias manufactureras",
              "href": "https://api.euskadi.eus/procurements/companies/economic-activities/2.399"
            }
          }
        }
      ],
      "certificateStartDate": "2022-08-29",
      "certificateEndDate": "2023-02-26",
      "object": "OTROS PROFESIONALES RELACIONADOS CON OTRAS INDUSTRIAS MANUFACTURERAS.",
      "mainEntityOfPage": "https://www.contratacion.euskadi.eus/webkpe00-kperoc/es/ac71aBusquedaRegistrosWar/empresa/08550",
      "_links": {
        "self": {
          "name": "JOAQUÍN GÁÑEZ ALCOLEA",
          "href": "https://api.euskadi.eus/procurements/companies/08550"
        }
      }
    },
    {
      "name": "PRO LIFTS, S.L.",
      "registrationNumber": "08179",
      "identificationNumber": "B98299902",
      "address": "C/ Ciudad de Barcelona Nº 19 (Pol. Ind. Fuente del Jarro)",
      "location": {
        "postalCode": "46988",
        "municipality": "Paterna",
        "county": "Valencia/València",
        "municipalityId": "190",
        "countyId": "46"
      },
      "economicActivities": [
        {
          "id": "1.617.5",
          "name": "Venta al por mayor de maquinaria para la madera y el metal",
          "_links": {
            "self": {
              "name": "Venta al por mayor de maquinaria para la madera y el metal",
              "href": "https://api.euskadi.eus/procurements/companies/economic-activities/1.617.5"
            }
          }
        }
      ],
      "certificateStartDate": "2022-08-23",
      "certificateEndDate": "2023-02-23",
      "object": "LA FABRICACIÓN, COMERCIALIZACIÓN Y VENTA, TANTO EN EXPORTACIÓN COMO EN EL MERCADO ESPAÑOL DE TODO TIPO DE TORRES ELEVADORAS, ESTRUCTURAS METÁLICAS, ACCESORIOS, SOPORTES Y COMPONENTES. ASÍ COMO LA INVESTIGACIÓN Y DESARROLLO DE LAS MISMAS.",
      "mainEntityOfPage": "https://www.contratacion.euskadi.eus/webkpe00-kperoc/es/ac71aBusquedaRegistrosWar/empresa/08179",
      "_links": {
        "self": {
          "name": "PRO LIFTS, S.L.",
          "href": "https://api.euskadi.eus/procurements/companies/08179"
        }
      }
    },
    {
      "name": "CIMA INGENIEROS, S.L.",
      "registrationNumber": "08182",
      "identificationNumber": "B31252463",
      "address": "calle Francisco Bergamín, 11 - 1º",
      "location": {
        "postalCode": "31003",
        "municipality": "Pamplona/Iruña",
        "county": "Navarra",
        "municipalityId": "201",
        "countyId": "31"
      },
      "economicActivities": [
        {
          "id": "1.843.1",
          "name": "Servicios técnicos de ingeniería",
          "_links": {
            "self": {
              "name": "Servicios técnicos de ingeniería",
              "href": "https://api.euskadi.eus/procurements/companies/economic-activities/1.843.1"
            }
          }
        }
      ],
      "certificateStartDate": "2022-08-23",
      "certificateEndDate": "2023-02-23",
      "object": "LA REALIZACIÓN DE INFORMES, ANÁLISIS, ENSAYOS, ESTUDIOS Y PROYECTOS, ASÍ COMO LA ASESORÍA, JEFATURA, CONTROL DE CALIDAD Y DIRECCIÓN DE OBRAS DENTRO DE CAMPO DE LA INGENIERÍA, ARQUITECTURA Y URBANISMO.",
      "mainEntityOfPage": "https://www.contratacion.euskadi.eus/webkpe00-kperoc/es/ac71aBusquedaRegistrosWar/empresa/08182",
      "_links": {
        "self": {
          "name": "CIMA INGENIEROS, S.L.",
          "href": "https://api.euskadi.eus/procurements/companies/08182"
        }
      }
    },
    {
      "name": "LEYTON IBERIA, S.L.",
      "registrationNumber": "08214",
      "identificationNumber": "B66286188",
      "address": "Plaza Xavier Cugat (ed d), 2 - P 4",
      "location": {
        "postalCode": "08174",
        "municipality": "Sant Cugat del Vallès",
        "county": "Barcelona",
        "municipalityId": "205",
        "countyId": "08"
      },
      "economicActivities": [
        {
          "id": "1.849.9",
          "name": "Otros servicios independientes n.c.o.p",
          "_links": {
            "self": {
              "name": "Otros servicios independientes n.c.o.p",
              "href": "https://api.euskadi.eus/procurements/companies/economic-activities/1.849.9"
            }
          }
        }
      ],
      "certificateStartDate": "2022-08-23",
      "certificateEndDate": "2023-02-22",
      "object": "EL ASESORAMIENTO, DIRECTO O INDIRECTO, EN MATERIA DE OPTIMIZACIÓN DE INGRESOS Y GASTOS EMPRESARIALES, COMO POR EJEMPLO EN MATERIA DE CARGAS SOCIALES Y DE TARIFICACIÓN DE ACCIDENTES DEL TRABAJO, DE CARGAS FISCALES Y DE GESTIÓN DE BIENES INMOVILIZADOS, DE FINANCIACIÓN DE LA INNOVACIÓN Y DE OPTIMIZACIÓN DE COMPRAS, Y, DE FORMA MÁS GENÉRICA, DE CUALQUIER OPERACIÓN DE CUALQUIER ÍNDOLE, SEA FINANCIERA, COMERCIAL, INDUSTRIAL, MOBILIARIA O INMOBILIARIA DIRECTA O INDIRECTAMENTE VINCULADA CON EL PRESENTE OBJETO SOCIAL O SUSCEPTIBLE DE FAVORECER SU EXTENSIÓN O SU DESARROLLO BAJO LA FORMA QUE SEA.",
      "mainEntityOfPage": "https://www.contratacion.euskadi.eus/webkpe00-kperoc/es/ac71aBusquedaRegistrosWar/empresa/08214",
      "_links": {
        "self": {
          "name": "LEYTON IBERIA, S.L.",
          "href": "https://api.euskadi.eus/procurements/companies/08214"
        }
      }
    },
    {
      "name": "NORMADAT, S.A.",
      "registrationNumber": "07374",
      "identificationNumber": "A80465792",
      "address": "C/ Fuerteventura 13",
      "location": {
        "postalCode": "28703",
        "municipality": "San Sebastián de los Reyes",
        "county": "Madrid",
        "municipalityId": "134",
        "countyId": "28"
      },
      "economicActivities": [
        {
          "id": "1.754.9",
          "name": "Otros depósitos y almacenes especiales n.c.o.p",
          "_links": {
            "self": {
              "name": "Otros depósitos y almacenes especiales n.c.o.p",
              "href": "https://api.euskadi.eus/procurements/companies/economic-activities/1.754.9"
            }
          }
        },
        {
          "id": "1.849.7",
          "name": "Servicios de gestión administrativa",
          "_links": {
            "self": {
              "name": "Servicios de gestión administrativa",
              "href": "https://api.euskadi.eus/procurements/companies/economic-activities/1.849.7"
            }
          }
        }
      ],
      "certificateStartDate": "2022-08-23",
      "certificateEndDate": "2023-02-22",
      "object": "A) EL ALMACENAJE, DEPÓSITO, CUSTODIA, MANIPULACIÓN, EMBALAJE TRANSPORTE, DISTRIBUCIÓN, REPRESENTACIÓN Y GESTIÓN DE ARCHIVOS DE DOCUMENTOS IMPRESOS EN SOPORTES MAGNÉTICOS, ÓPTICOS. MICROFILMADOS E INFORMÁTICOS. B) EL DESARROLLO, GESTIÓN Y COMERCIALIZACIÓN DE PROYECTOS INFORMÁTICOS; LA PRESTACIÓN DE SERVICIOS RELACIONADOS CON LA DOCUMENTACIÓN, INFORMACIÓN E INFORMATIZACIÓN MEDIANTE LOS PROCESOS QUE PERMITAN EL TRATAMIENTO DE LOS DATOS Y LA INFORMACIÓN, ASÍ COMO SU COMERCIALIZACIÓN, LA REALIZACIÓN Y TRATAMIENTO DE COPIAS DE SEGURIDAD, LA DIGITALIZACIÓN DE TODO TIPO DE DOCUMENTACIÓN. C) LA CONSULTORÍA, ASESORAMIENTO Y ASISTENCIA TÉCNICA RELACIONADA CON LAS ACTIVIDADES ANTERIORES. D) LA DISTRIBUCIÓN Y COMERCIALIZACIÓN DE LOS EQUIPOS Y MEDIOS TÉCNICOS RELACIONADOS CON LAS ACTIVIDADES ANTERIORES. E). EL ARRENDAMIENTO DE BIENES INMUEBLES",
      "mainEntityOfPage": "https://www.contratacion.euskadi.eus/webkpe00-kperoc/es/ac71aBusquedaRegistrosWar/empresa/07374",
      "_links": {
        "self": {
          "name": "NORMADAT, S.A.",
          "href": "https://api.euskadi.eus/procurements/companies/07374"
        }
      }
    },
    {
      "name": "ERREZ. KOOP. ELK. TXIKIA",
      "registrationNumber": "07903",
      "identificationNumber": "F01566132",
      "address": "Barrio Errotabarri (01160) 5",
      "location": {
        "postalCode": "01160",
        "municipality": "Aramaio",
        "county": "Araba/Álava",
        "municipalityId": "003",
        "countyId": "01"
      },
      "economicActivities": [
        {
          "id": "1.936",
          "name": "Investigación científica y técnica",
          "_links": {
            "self": {
              "name": "Investigación científica y técnica",
              "href": "https://api.euskadi.eus/procurements/companies/economic-activities/1.936"
            }
          }
        }
      ],
      "certificateStartDate": "2022-08-23",
      "certificateEndDate": "2023-02-22",
      "object": "LA INVESTIGACIÓN, GESTIÓN Y FORMACIÓN EN EL ÁMBITO DEL MEDIOAMBIENTE",
      "mainEntityOfPage": "https://www.contratacion.euskadi.eus/webkpe00-kperoc/es/ac71aBusquedaRegistrosWar/empresa/07903",
      "_links": {
        "self": {
          "name": "ERREZ. KOOP. ELK. TXIKIA",
          "href": "https://api.euskadi.eus/procurements/companies/07903"
        }
      }
    }
  ]
}