{
  "totalItems": 9042,
  "totalPages": 905,
  "currentPage": 446,
  "itemsOfPage": 10,
  "items": [
    {
      "name": "OKT ELKARTEA-BARRUNDIAKO KONTSUMITZAILE TALDEA",
      "registrationNumber": "09224",
      "identificationNumber": "G01466713",
      "address": "EUSKALDUNBERRI PLAZA",
      "location": {
        "postalCode": "01206",
        "municipality": "Barrundia",
        "county": "Araba/Álava",
        "municipalityId": "013",
        "countyId": "01"
      },
      "economicActivities": [
        {
          "id": "1.647.1",
          "name": "Venta al por menor de productos alimenticios y bebidas con vendedor",
          "_links": {
            "self": {
              "name": "Venta al por menor de productos alimenticios y bebidas con vendedor",
              "href": "https://api.euskadi.eus/procurements/companies/economic-activities/1.647.1"
            }
          }
        }
      ],
      "certificateStartDate": "2023-09-21",
      "certificateEndDate": "2024-02-01",
      "object": "- PROMOVER LA PRODUCCIÓN LOCAL Y AGROECOLÓGICA DE LOS ALIMENTOS. - PROMOVER UN MODELO DE AGRICULTURA DE CARÁCTER NO PRODUCTIVISTA, SINO SOCIAL Y SOLIDARIO, GENERADOR DE EMPLEO, PROTECTOR DEL MEDIO Y LIGADO A LA TIERRA.- PROMOVER EL CONSUMO RESPONSABLE DE PRODUCTOS LOCALES, DE TEMPORADA Y PRODUCTOS BAJO LOS CRITERIOS DE LA AGRICULTURA ECOLÓGICA.- IMPULSAR Y FACILITAR LAS RELACIONES DIRECTAS Y JUSTAS ENTRE PERSONAS PRODUCTORAS Y CONSUMIDORAS, Y LOS CANALES CORTOS DE COMERCIALIZACIÓN.- TRABAJAR PARA LA CREACIÓN DE UN SISTEMA DE CERTIFICACIÓN PARTICIPATIVO. - CONTRIBUIR A LA PRESERVACIÓN MEDIANTE EL CONSUMO RESPONSABLE, DE LA CULTURA, TRADICIONES, POBLACIÓN Y, EN DEFINITIVA, LA VIDA DE NUESTRO ENTORNO RURAL. - POTENCIAR LA PARTICIPACIÓN DE LA MUJER EN TODOS LOS FOROS Y ESTAMENTOS RELACIONADOS CON EL SECTOR AGRARIO Y EL MEDIO RURAL. - DEFENDER Y PROMOVER, EN SU ÁMBITO DE ACTUACIÓN, EL DESARROLLO PROFESIONAL, HUMANO Y SOCIAL DE LAS MUJERES, EN ESPECIAL, EL DE LAS MUJERES RURALES, TENIENDO EN CUENTA SU PROBLEMÁTICA ESPECÍFICA. - DEFENDER E IMPULSAR ACTIVIDADES DE PROMOCIÓN TURÍSTICA SOSTENIBLE EN EL MUNICIPIO DE BARRUNDIA Y EN LA LAUTADA, BUSCANDO LA COORDINACIÓN CON LOS AGENTES PÚBLICOS Y PRIVADOS QUE ESTÁN TRABAJANDO EN ESTA LÍNEA EN LA COMARCA. - PROMOVER LA NORMALIZACIÓN LINGÜÍSTICA EN EL ÁMBITO PERSONAL Y SOCIAL ENTRE LAS PERSONAS SOCIAS. PARA LA CONSECUCIÓN DE DICHO FINES SE LLEVARÁN A CABO, PREVIO EL CUMPLIMIENTO DE LOS REQUISITOS LEGALES ESTABLECIDOS, LAS SIGUIENTES ACTIVIDADES: - DESARROLLAR ACTIVIDADES QUE DEN A CONOCER CONCEPTOS COMO EL CONSUMO RESPONSABLE, LA SOBERANÍA ALIMENTARIA, EL COMERCIO JUSTO, LOS MODELOS DE PRODUCCIÓN SOSTENIBLES DEL NORTE Y EL SUR. – ORGANIZAR VISITAS A LAS PERSONAS PRODUCTORAS DE LA ZONA Y CATAS DE LOS PRODUCTOS LOCALES – ORGANIZAR VISITAS A PRODUCTORES DE OTRAS ZONAS QUE PRODUZCAN ALIMENTOS QUE NO SE PRODUCEN EN LA ZONA Y QUE SE PRODUZCAN BAJO UN MODELO DE PRODUCCIÓN AGROECOLÓGICA. – PARTICIPAR EN LOS DIFERENTES EVENTOS Y ACTOS QUE SE DESARROLLEN EN LAS LOCALIDADES DE LA COMARCA DANDO A CONOCER LOS FINES DE LA ASOCIACIÓN, Y ORGANIZANDO ACTOS EN LOS QUE SE CONSUMA PRODUCTOS DE PRODUCCIÓN LOCAL. PARTICIPAR EN PROYECTOS DE INVESTIGACIÓN QUE TENGAN COMO FINALIDAD EL MANTENIMIENTO Y RECUPERACIÓN DE LA BIODIVERSIDAD. – IMPULSAR ACCIONES DE SENSIBILIZACIÓN Y EDUCACIÓN MEDIOAMBIENTAL. – PARTICIPAR EN PROYECTOS DE INVESTIGACIÓN DE MODELOS SOSTENIBLES DE PRODUCCIÓN. – IMPULSAR ACCIONES DE SENSIBILIZACIÓN Y EDUCACIÓN AL DESARROLLO. -  IMPULSAR ACCIONES DE SENSIBILIZACIÓN Y EDUCACIÓN EN TEMAS DE INMIGRACIÓN. -  PROMOCIÓN DE CUANTOS PROGRAMAS DE COOPERACIÓN Y VOLUNTARIADO SOCIAL SEAN PRECISOS, CON LA PRETENSIÓN DE ATENDER A SITUACIÓN DE NECESIDAD Y/0 MARGINACIÓN, DE EXCLUSIÓN SOCIAL Y DE POBREZA, ASÍ COMO ACTUACIONES DEC SOLIDARIDAD SOCIAL PARA CUBRIR NECESIDADES DE INTERÉS GENERAL. – DESARROLLO Y PROMOCIÓN DE ACTIVIDADES FORMATIVAS DE DIVERSA ÍNDOLE PARA LOGRAR UNA MAYOR PREPARACIÓN CULTURAL Y PROFESIONAL DE LA MUJER IMPULSANDO Y LLEVANDO A CABO ACTUACIONES DE INSERCIÓN SOCIAL Y LABORAL. – DESARROLLO DE ACTIVIDADES PARA DAR A CONOCER, SIEMPRE DE UNA MANERA ECOLOGISTA, LA RIQUEZA PAISAJISTA Y CULTURAL DE BARRUNDIA. – PROMOCIÓN, ADECUACIÓN Y PROPUESTA DE ACCIONES EN FAVOR DEL EUSKERA. – COLABORACIÓN Y ACCIÓN CONJUNTA CON INSTITUCIONES PÚBLICAS Y PRIVADAS EN ACTIVIDADES ORIENTADAS A LA CONSECUCIÓN DE LOS FINES DE LA ASOCIACIÓN.",
      "mainEntityOfPage": "https://www.contratacion.euskadi.eus/webkpe00-kperoc/es/ac71aBusquedaRegistrosWar/empresa/09224",
      "_links": {
        "self": {
          "name": "OKT ELKARTEA-BARRUNDIAKO KONTSUMITZAILE TALDEA",
          "href": "https://api.euskadi.eus/procurements/companies/09224"
        }
      }
    },
    {
      "name": "BIOSERVICE S. COOP. PEQUEÑA",
      "registrationNumber": "08336",
      "identificationNumber": "F95578092",
      "address": "POL. TXAKO, EDIF. 3 PLANTA BAJA",
      "location": {
        "postalCode": "48480",
        "municipality": "Arrigorriaga",
        "county": "Bizkaia",
        "municipalityId": "011",
        "countyId": "48"
      },
      "economicActivities": [
        {
          "id": "1.622",
          "name": "Venta al por mayor de otros productos de recuperación",
          "_links": {
            "self": {
              "name": "Venta al por mayor de otros productos de recuperación",
              "href": "https://api.euskadi.eus/procurements/companies/economic-activities/1.622"
            }
          }
        }
      ],
      "certificateStartDate": "2023-09-20",
      "certificateEndDate": "2024-03-20",
      "object": "- LA GESTIÓN INTEGRAL DE RESIDUOS PELIGROS Y NO PELIGROSOS. - LA RECUPERACIÓN, GESTIÓN Y VENTA DE CONSUMIBLES Y MATERIAL DE OFICINA. - LA RECUPERACIÓN, GESTIÓN Y VENTA DE EQUIPOS ELECTRÓNICOS. - SUMINISTRO DE ENVASES. - LOGÍSTICA INTEGRAL. - FACILITY MANAGEMENT.",
      "mainEntityOfPage": "https://www.contratacion.euskadi.eus/webkpe00-kperoc/es/ac71aBusquedaRegistrosWar/empresa/08336",
      "_links": {
        "self": {
          "name": "BIOSERVICE S. COOP. PEQUEÑA",
          "href": "https://api.euskadi.eus/procurements/companies/08336"
        }
      }
    },
    {
      "name": "JAURETXEA XXI, S.L.",
      "registrationNumber": "08342",
      "identificationNumber": "B95654240",
      "address": "c/ Artza nº7 bajo Izda",
      "location": {
        "postalCode": "48370",
        "municipality": "Bermeo",
        "county": "Bizkaia",
        "municipalityId": "017",
        "countyId": "48"
      },
      "economicActivities": [
        {
          "id": "1.833.21",
          "name": "Promoción de edificaciones - Cuota fija",
          "_links": {
            "self": {
              "name": "Promoción de edificaciones - Cuota fija",
              "href": "https://api.euskadi.eus/procurements/companies/economic-activities/1.833.21"
            }
          }
        }
      ],
      "certificateStartDate": "2023-09-20",
      "certificateEndDate": "2024-03-20",
      "object": "- COMPRA O VENTA EN NOMBRE Y POR CUENTA PROPIA, ASÍ CON LA URBANIZACIÓN Y PARCELACIÓN DE TERRENOS, TODO ELLO CON EL FIN DE VENDERLOS O ADJUDICARLOS. - COMPRA O VENTA DE EDIFICACIONES TOTALES O PARCIALES EN NOMBRE Y POR CUENTA PROPIA CONSTRUIDAS DIRECTAMENTE O POR MEDIO DE TERCEROS, TODO ELLO CON EL FIN VENDERLAS O ADJUDICARLAS. - ALQUILER DE VIVIENDAS Y ALQUILER DE LOCALES INDUSTRIALES Y OTROS BIENES INMUEBLES DE NATURALEZA URBANA. - EL ASESORAMIENTO, REPRESENTACIÓN Y GESTIÓN EN CUALQUIER FACETA EMPRESARIAL, PRESTANDO TODO TIPO DE SERVICIOS Y ESTUDIOS TÉCNICOS Y PROFESIONALES LEGALMENTE PERMITIDOS, TANTO A PERSONA FÍSICAS COMO A ENTIDADES Y PERSONAS JURÍDICAS ESPECIALMENTE LA ORDENACIÓN, CONSTITUCIÓN, PARTICIPACIÓN, ESTUDIO Y ASESORAMIENTO QUE SE ENCAMINEN A LA VENTA, ADQUISICIÓN, CONSTRUCCIÓN Y UTILIZACIÓN DE BIENES INMUEBLES Y OBRAS INDUSTRIALES. - TODA CLASE DE OPERACIONES INMOBILIARIAS SOBRE FINCAS RÚSTICAS Y URBANAS, PROMOCIÓN DE CONTRATOS O REALIZACIONES DE PARCELARIAS, URBANIZACIONES, CONSTRUCCIONES Y OBRAS PRIVADAS O PÚBLICAS, LA VENTA, HIPOTECA, ARRENDAMIENTO, TRASFORMACIÓN, MEJORA, ADMINISTRACIÓN, PUESTA EN EXPLOTACIÓN Y LA EXPLOTACIÓN MISMA, DE FINCAS RÚSTICAS Y URBANAS, LA ORGANIZACIÓN, PROMOCIÓN, ASESORAMIENTO Y GESTIÓN EN TODO CASO DE SOCIEDADES, COOPERATIVAS, COMUNIDADES, ENTIDADES, GRUPOS O EMPRESAS PARTICULARES ORIENTADAS A LA CONSTRUCCIÓN O URBANIZACIÓN, LA PLANIFICACIÓN Y ESTUDIO DE MERCADOS EN MATERIA INMOBILIARIA.",
      "mainEntityOfPage": "https://www.contratacion.euskadi.eus/webkpe00-kperoc/es/ac71aBusquedaRegistrosWar/empresa/08342",
      "_links": {
        "self": {
          "name": "JAURETXEA XXI, S.L.",
          "href": "https://api.euskadi.eus/procurements/companies/08342"
        }
      }
    },
    {
      "name": "HAZEN DISTRIBUIDORA GENERAL DE PIANOS, S.A.",
      "registrationNumber": "08658",
      "identificationNumber": "A28179836",
      "address": "CTRA CORUÑA KM 17,200",
      "location": {
        "postalCode": "28231",
        "municipality": "Rozas de Madrid, Las",
        "county": "Madrid",
        "municipalityId": "127",
        "countyId": "28"
      },
      "economicActivities": [
        {
          "id": "1.657",
          "name": "Venta al por menor de instrumentos musicales y sus accesorios",
          "_links": {
            "self": {
              "name": "Venta al por menor de instrumentos musicales y sus accesorios",
              "href": "https://api.euskadi.eus/procurements/companies/economic-activities/1.657"
            }
          }
        },
        {
          "id": "1.856.1",
          "name": "Alquiler de bienes de consumo",
          "_links": {
            "self": {
              "name": "Alquiler de bienes de consumo",
              "href": "https://api.euskadi.eus/procurements/companies/economic-activities/1.856.1"
            }
          }
        },
        {
          "id": "1.933.9",
          "name": "Otras actividades de enseñanza tales como idiomas, mecanografía",
          "_links": {
            "self": {
              "name": "Otras actividades de enseñanza tales como idiomas, mecanografía",
              "href": "https://api.euskadi.eus/procurements/companies/economic-activities/1.933.9"
            }
          }
        }
      ],
      "certificateStartDate": "2023-09-20",
      "certificateEndDate": "2024-03-20",
      "object": "A) LA IMPORTACIÓN, DISTRIBUCIÓN, EXPORTACIÓN, VENTA AL POR MAYOR Y AL POR MENOR, Y EN GENERAL LA COMERCIALIZACIÓN Y EXPLOTACIÓN POR CUENTA PROPIA O AJENA DE PIANOS E INSTRUMENTOS MUSICALES DE TODO TIPO, ASÍ COMO DE PIEZAS, MECANISMOS, ACCESORIOS PARA LOS MISMOS, ASÍ COMO DE CUALQUIER OTRO TIPO DE MATERIAL U OBJETO PARA LA INTERPRETACIÓN O REPRODUCCIÓN O ENSEÑANZA DE MÚSICA. B) EL ALQUILER, TRANSPORTE, PRESTACIÓN DE ASISTENCIA TÉCNICA, Y LA REPARACIÓN DE PIANOS E INSTRUMENTOS MUSICALES. C) LA PROMOCIÓN DE TODO TIPO DE ACTIVIDADES RELACIONADAS CON LA MÚSICA. D) LA ADQUISICIÓN, TENENCIA Y ENAJENACIÓN DE ACCIONES Y PARTICIPACIONES EN OTRAS COMPAÑÍAS Y NEGOCIOS DEDICADOS A LA FABRICACIÓN, COMERCIALIZACIÓN Y VENTA DE PIANOS E INSTRUMENTOS MUSICALES Y DEMÁS NEGOCIOS RELACIONADOS CON LA MÚSICA. E) LA PROMOCIÓN, EDIFICACIÓN, ADQUISICIÓN, VENTA Y ARRENDAMIENTO Y CUALQUIER TIPO DE COMERCIALIZACIÓN Y EXPLOTACIÓN DE BIENES INMUEBLES.",
      "mainEntityOfPage": "https://www.contratacion.euskadi.eus/webkpe00-kperoc/es/ac71aBusquedaRegistrosWar/empresa/08658",
      "_links": {
        "self": {
          "name": "HAZEN DISTRIBUIDORA GENERAL DE PIANOS, S.A.",
          "href": "https://api.euskadi.eus/procurements/companies/08658"
        }
      }
    },
    {
      "name": "PORTICO GESTIÓN E INGENERÍA S.L.",
      "registrationNumber": "06185",
      "identificationNumber": "B06585897",
      "address": "Calle Valencia, 28",
      "location": {
        "postalCode": "06800",
        "municipality": "Mérida",
        "county": "Badajoz",
        "municipalityId": "083",
        "countyId": "06"
      },
      "economicActivities": [
        {
          "id": "1.314.2",
          "name": "Fabricación de estructuras metálicas",
          "_links": {
            "self": {
              "name": "Fabricación de estructuras metálicas",
              "href": "https://api.euskadi.eus/procurements/companies/economic-activities/1.314.2"
            }
          }
        }
      ],
      "certificateStartDate": "2023-09-20",
      "certificateEndDate": "2024-03-13",
      "object": "FABRICACIÓN DE ESTRUCTURAS METÁLICAS Y SUS COMPONENTES. TRANSFORMADOS METÁLICOS. CONSULTORÍA Y ASESORAMIENTO INTEGRAL QUE CONSISTE EN EL ASESORAMIENTO, ESTUDIO, REALIZACIÓN, IMPLEMENTACIÓN, GESTIÓN Y/O CONTROL DE PROYECTOS, POR SÍ O MEDIANTE LA CONTRATACIÓN O COLABORACIÓN DE EMPRESAS EN MATERIAS LEGALES, ADMINISTRATIVAS, CONTABLES, FISCALES, ORGANIZATIVO FAMILIAR, EMPRESARIAL, INMOBILIARIO, URBANÍSTICO, RECURSOS, OREDENACIÓN DEL TERRITORIO Y DESARROLLO SOSTENIBLE, COMERCIO EXTERIOR, AGRÍCOLA, GANADERO, APROVECHAMIENTO CINEGÉTICO, ALIMENTARIOS Y/O NUTRICIONALES, INGENIERÍAS, ENERGÍAS DE TODO TIPO, SISTEMAS DE CALIDAD, INVESTIGACIÓN MÁS DESARROLLO MÁS INNOVACIÓN, INVERSIONES E INFORMÁTICA, AUDITORÍAS DE CUMPLIMIENTO, OPERATIVA, ESTATUTARIA, DE VIABILIDAD Y EXAMEN DE PROCEDIMIENTOS, PARA EMPRESAS Y/O PERSONAS FÍSICAS QUE SOLICITEN ALGUNO O TODOS LOS SERVICIOS CON INDEPENDENCIA DE SU NACIONALIDAD. LA COMPRAVENTA, TENENCIA DE TÍTULOS VALORES, ACCIONES O PARTICIPACIONES MERCANTILES O CUALQUIER TÍTULO O ACTIVO FINANCIERO QUE PERMITA UNA GESTIÓN PATRIMONIAL Y/U ORGANIZATIVO DE EMPRESAS, PARA LO QUE SE CONTARÁ CON LOS MEDIOS MATERIALES Y HUMANOS NECESARIOS PARA HACER UNA GESTIÓN EFECTIVA DE LAS MISMAS, SIN QUE EN NINGÚN CASO CONSTITUYA ACTIVIDAD SUJETA A LA LEGISLACIÓN ESPECIAL DE INVERSIÓN COLECTIVA NI A LA DEL MERCADO DE VALORES. EL OUTSOURCING, RENTING Y/O LEASING, POR CUENTA PROPIA O DE TERCEROS, DE TODO TIPO DE SERVICIOS COMERCIALES, MODELOS DE GESTIÓN EMPRESARIAL, SOLUCIONES EMPRESARIALES, VEHÍCULOS A MOTOR DE CUALQUIER CLASE, EQUIPOS INFORMÁTICOS, SOFTWARE, INMUEBLES, Y DEMÁS BIENES MUEBLES COMERCIALIZABLES EN EL MERCADO. SERVICIOS EN FUSIONES Y ADQUISICIONES DE EMPRESAS; 'DUE DILLIGENCE', REVISIÓN Y ASISTENCIA EN LA PREPARACIÓN DE PRESUPUESTOS, ASESORAMIENTO SOBRE POLÍTICAS Y SISTEMAS DE CONSOLIDACIÓN, ASISTENCIA EN LA PREPARACIÓN Y REVISIÓN DE INFORMACIÓN FINANCIERA. TESTIFICACIONES Y PROCEDIMIENTOS PERICIALES, EVALUACIÓN DE SITUACIONES INSOLVENCIA ASÍ COMO EL ASESORAMIENTO A LOS AFECTADOS POR UN PROCEDIMIENTO CONCURSAL, ASÍ COMO EJECUCIÓN DE CONVENIOS Y PLANES DE LIQUIDACIÓN. VENTA Y/O INTERMEDIACIÓN PARA LA VENTA DE VEHÍCULOS DE MOTOR, MAQUINARIA DE CUALQUIER TIPO, ALQUILER DE AUTOMÓVILES Y OTROS MEDIOS DE TRANSPORTE TERRESTRE, MARÍTIMO O AÉREO. EXPLOTACIÓN DE BARES, CAFETERÍAS, PUBS, RESTAURANTES Y DEMÁS ESTABLECIMIENTOS ANÁLOGOS Y TODO TIPO DE ACTIVIDADES RELACIONADAS CON LA HOSTELERÍA. EL COMERCIO AL POR MAYOR Y AL POR MENOR DE ORDENADORES, PERIFÉRICOS Y PROGRAMAS INFORMÁTICOS; OTRAS ACTIVIDADES DE CONSULTORÍA Y SUMINISTRO DE PROGRAMAS INFORMÁTICOS; ELABORACIÓN E IMPLEMENTACIÓN DE SOFTWARE PARA EMPRESAS Y CUALQUIER TIPO DE PERSONAS FÍSICAS Y/O JURÍDICAS; PROGRAMACIÓN DE PÁGINAS WEB Y DESARROLLO DE IMAGEN CORPORATIVA DE EMPRESAS; CONSULTA DE EQUIPOS, APLICACIONES INFORMÁTICAS Y SUMINISTRO DE PROGRAMAS DE INFORMÁTICA; COMERCIO AL POR MAYOR Y AL POR MENOR DE OTRAS MÁQUINAS Y BIENES DE EQUIPOS DE OFICINA; COMERCIO AL POR MAYOR Y POR MENOR DE MÁQUINAS, ACCESORIOS Y ÚTILES AGRÍCOLAS, INCLUIDOS LOS TRACTORES; COMERCIO AL POR MAYOR Y AL POR MENOR DE MAQUINARIA Y BIENES DE EQUIPO DE CUALQUIER OTRO TIPO QUE SE COMERCIALICE EN EL MERCADO. CONSULTORES DE PUBLICIDAD Y MARKETING POR CUENTA PROPIA O AJENA; SELECCIÓN, FORMACIÓN Y COLOCACIÓN DEL PERSONAL. LA CONSTRUCCIÓN DE TODA CLASE DE OBRAS, LO QUE INCLUYE EN TODO CASO EL ESTUDIO, PROMOCIÓN Y EJECUCIÓN DE TODA CLASE DE OBRAS DE CONSTRUCCIÓN, MEJORAS Y CONSERVACIÓN, TANTO PRIVADAS COMO PÚBLICAS, INCLUYENDO TODA CLASE DE CONSTRUCCIONES INDUSTRIALES, OBRAS DE INGENIERIA CIVIL Y CARRETERAS; EL AFIRMADO, URBANIZACIÓN Y PAVIMENTACIONES DE CUALQUIER CLASE, INCLUIDOS LOS MOVIMIENTOS DE TIERRA, Y LA EJECUCIÓN DE OBRAS HIDRÁULICAS, DE DEPURACIÓN Y TRATAMIENTO DE AGUAS, ASÍ COMO LA RESTAURACIÓN DE BIENES INMUEBLES HISTÓRICOS ARTÍSTICOS. LA FORESTACIÓN Y MEJORAS AGRARIAS, CAPACITACIÓN Y REALIZACIÓN DE PROYECTOS TÉCNICOS, DIRECCIÓN DE OBRAS Y TRABAJOS SELVÍCOLAS. LA PROMOCIÓN DE TODA CLASE DE EDIFICACIONES, URBANIZACIONES Y TERRENOS, CUALESQUIERA QUE SEAN SU ORIGEN Y DESTINO, LO QUE INCLUIRÁ EL ESTUDIO, PROMOCIÓN, REALIZACIÓN Y EJECUCIÓN DE TODA CLASE DE EDIFICIOS ACOGIDOS O NO, A LA LEGISLACIÓN DE VIVIENDAS DE PROTECCIÓN OFICIAL Y AQUELLAS OPERACIONES CON ELLO RELACIONADO, COMO ADQUISICIÓN DE TERRENOS, SU URBANIZACIÓN Y PARCELACIÓN, EL USO, ARRENDAMIENTO Y VENTA DE VIVIENDAS, LOCALES COMERCIALES Y GARAJES, ASÍ COMO A LA COMPRA Y VENTA DE SUELO, SU URBANIZACIÓN, PARCELACIÓN, REPARCELACIÓN Y LAS ACTUACIONES RELACIONADAS CON LA CREACIÓN DEL MISMO, PUDIENDO AL EFECTO INTEGRARSE EN JUNTAS DE COMPENSACIÓN, ASOCIACIONES DE COLABORACIÓN, SER CONCESIONARIOS DE OBRAS Y SERVICIOS EN LA URBANIZACIÓN Y REALIZAR TODAS LAS TAREAS NECESARIAS PARA LA PROMOCIÓN Y CREACIÓN DE SUELO. LA EXTRACCIÓN, FABRICACIÓN Y COMERCIALIZACIÓN DE TODA CLASE DE MATERIALES PARA LA CONSTRUCCIÓN. LA PROMOCIÓN Y REALIZACIÓN DE TODA CLASE DE PROYECTOS DE ARQUITECTURA O INGENIERÍA, INCLUYENDO COMO TALES, ENTRE OTRAS, LA EJECUCIÓN DE TODO TIPO DE INSTALACIONES ELÉCTRICAS Y DE TELECOMUNICACIÓN, ASÍ COMO TODO TIPO DE INSTALACIONES MECÁNICAS. EL TRANSPORTE PÚBLICO DE MERCANCÍAS DE CUALQUIER CLASE POR CARRETERA. LA PRESTACIÓN DE TODA CLASE DE SERVICIOS DE CONSULTORÍA, ASESORÍA Y ADMINISTRACIÓN A EMPRESAS Y PARTICULARES Y OBRAS. EN PARTICULAR LA CONSERVACIÓN Y MANTENIMIENTO DE EDIFICIOS, TANTO PÚBLICOS COMO PRIVADOS, CARRETERAS, PISTAS, AUTOPISTAS, AUTOVÍAS, CALZADAS, REDES DE AGUA Y ALCANTARILLADO, ESTACIONES DEPURADORAS, DE MOBILIARIO URBANO, DE MONTES Y JARDINES Y DE MONUMENTOS Y EDIFICIOS SINGULARES. LA FABRICACIÓN, COMERCIALIZACIÓN, REPARACIÓN, ARRENDAMIENTO Y MANTENIMIENTO DE MAQUINARIA Y VEHÍCULOS. LA PRESTACIÓN DE SERVICIOS RELACIONADOS CON LA CONSERVACIÓN Y PROTECCIÓN DE LA NATURALEZA Y EL MEDIO AMBIENTE.",
      "mainEntityOfPage": "https://www.contratacion.euskadi.eus/webkpe00-kperoc/es/ac71aBusquedaRegistrosWar/empresa/06185",
      "_links": {
        "self": {
          "name": "PORTICO GESTIÓN E INGENERÍA S.L.",
          "href": "https://api.euskadi.eus/procurements/companies/06185"
        }
      }
    },
    {
      "name": "MAKAI, S. COOP. PEQUEÑA",
      "registrationNumber": "09219",
      "identificationNumber": "F20149910",
      "address": "POLIGONO BASABE, D-2-1",
      "location": {
        "postalCode": "20550",
        "municipality": "Aretxabaleta",
        "county": "Gipuzkoa",
        "municipalityId": "013",
        "countyId": "20"
      },
      "economicActivities": [
        {
          "id": "1.911",
          "name": "Servicios agrícolas y ganaderos",
          "_links": {
            "self": {
              "name": "Servicios agrícolas y ganaderos",
              "href": "https://api.euskadi.eus/procurements/companies/economic-activities/1.911"
            }
          }
        }
      ],
      "certificateStartDate": "2023-09-20",
      "certificateEndDate": "2024-03-20",
      "object": "LA PRESTACIÓN DE SERVICIOS RELACIONADOS CON LA FLORICULTURA TANTO PARA PARTICULARES COMO PARA LA ADMINISTRACIÓN, CON UNA ESPECIAL DEDICACIÓN A TAREAS DESTINADAS A LA EJECUCIÓN Y CONSERVACIÓN DE SERVICIOS DE JARDINERÍA.",
      "mainEntityOfPage": "https://www.contratacion.euskadi.eus/webkpe00-kperoc/es/ac71aBusquedaRegistrosWar/empresa/09219",
      "_links": {
        "self": {
          "name": "MAKAI, S. COOP. PEQUEÑA",
          "href": "https://api.euskadi.eus/procurements/companies/09219"
        }
      }
    },
    {
      "name": "PARASITEC SL",
      "registrationNumber": "06141",
      "identificationNumber": "B48762942",
      "address": "CALLE BEREZIKOETXE 3",
      "location": {
        "postalCode": "48960",
        "municipality": "Galdakao",
        "county": "Bizkaia",
        "municipalityId": "036",
        "countyId": "48"
      },
      "economicActivities": [
        {
          "id": "1.921.3",
          "name": "Exterminio de animales dañinos y desinfección",
          "_links": {
            "self": {
              "name": "Exterminio de animales dañinos y desinfección",
              "href": "https://api.euskadi.eus/procurements/companies/economic-activities/1.921.3"
            }
          }
        }
      ],
      "certificateStartDate": "2023-09-19",
      "certificateEndDate": "2024-03-19",
      "object": "EL EXTERMINIO DE ANIMALES DAÑINOS Y DESINFECCIÓN DE CUALQUIER CLASE. DESINFECCIÓN, DESINSECTACIÓN Y DESRATIZACIÓN DE CUALQUIER CLASE. EXTERMINIO DE PARÁSITOS EN ÁRBOLES Y PLANTAS POR LOS SISTEMAS DE PULVERIZACIÓN, ESPOLVORIZACIÓN Y FUMIGACIÓN, CON EMPLEO DE MEDIOS MECÁNICOS DE CUALQUIER TIPO, VEHÍCULOS, TURBINAS, NEBULIZADORES, AVIONETAS, HELICÓPTEROS Y ANÁLOGOS, CON UTILIZACIÓN DE PRODUCTOS ANTIPARASITARIOS, RATICIDAS, DESINFECTANTES Y PRODUCTOS FITOSANITARIOS DE CUALQUIER CLASE. REALIZACIÓN DE CAMPAÑAS PÚBLICAS DE PUBLICIDAD, ORIENTACIÓN SOBRE LOS TRABAJOS DE DESRATIZACIÓN, DESINSECTACIÓN Y DESINFECCIÓN, CON EMPLEO DE TODO TIPO DE SISTEMAS DE PUBLICIDAD PÚBLICOS Y PRIVADOS. SERVICIOS DE RECOGIDA DE BASURAS Y DESPERDICIOS CON EMPLEO DE CUALQUIER TIPO DE VEHÍCULO PREPARADO PARA TAL FIN Y SU TRATAMIENTO DE LAS MATERIAS ORGÁNICAS. LOS SERVICIOS DE LIMPIEZA DE POZOS SÉPTICOS, FOSOS, CONDUCCIONES, CANALES, RÍOS, ACEQUIAS, CON EMPLEO DE VEHÍCULOS Y PRODUCTOS PREPARADOS PARA TAL EFECTO. SERVICIO DE LIMPIEZA DE OFICINAS, LOCALES COMERCIALES Y LUGARES PÚBLICOS Y PRIVADOS. LA VENTA Y COMERCIALIZACIÓN DE PRODUCTOS DE LIMPIEZA Y SU CORRESPONDIENTE MAQUINARIA",
      "mainEntityOfPage": "https://www.contratacion.euskadi.eus/webkpe00-kperoc/es/ac71aBusquedaRegistrosWar/empresa/06141",
      "_links": {
        "self": {
          "name": "PARASITEC SL",
          "href": "https://api.euskadi.eus/procurements/companies/06141"
        }
      }
    },
    {
      "name": "GRUPO INMOTECHNIA GESTIONES ENERGETICAS, S.L.",
      "registrationNumber": "09215",
      "identificationNumber": "B83512913",
      "address": "Calle Mónaco, 9. Polígono Industrial Európolis",
      "location": {
        "postalCode": "28232",
        "municipality": "Rozas de Madrid, Las",
        "county": "Madrid",
        "municipalityId": "127",
        "countyId": "28"
      },
      "economicActivities": [
        {
          "id": "1.504.1",
          "name": "Instalaciones eléctricas en general",
          "_links": {
            "self": {
              "name": "Instalaciones eléctricas en general",
              "href": "https://api.euskadi.eus/procurements/companies/economic-activities/1.504.1"
            }
          }
        },
        {
          "id": "1.504.3",
          "name": "Instalaciones de frío, calor y acondicionamiento de aire",
          "_links": {
            "self": {
              "name": "Instalaciones de frío, calor y acondicionamiento de aire",
              "href": "https://api.euskadi.eus/procurements/companies/economic-activities/1.504.3"
            }
          }
        }
      ],
      "certificateStartDate": "2023-09-18",
      "certificateEndDate": "2024-01-26",
      "object": "INSTALACIÓN, MANTENIMIENTO, REGULACIÓN Y CONTROL, REPARACIÓN Y ENTRETENIMIENTO DE TODO TIPO DE INSTALACIONES ELÉCTRICAS EN GENERAL, ASÍ COMO LA REALIZACIÓN DE CUALQUIER TIPO DE ACTIVIDAD RELACIONADA CON GESTIONES ENERGÉTICAS QUE SE REALICEN TANTO EN INMUEBLES URBANOS, RÚSTICOS E INDUSTRIALES. INSTALACIÓN DE FRÍO, CALOR O ACONDICIONAMIENTO DE AIRE, INSTALACIÓN DE PARARRAYOS Y SIMILARES, INSTALACIONES TELEFÓNICAS, TELEGRÁFICAS SIN HILOS Y DE TELEVISIONES EN EDIFICIOS Y CONSTRUCCIONES DE CUALQUIER CLASE. MONTAJES METÁLICOS E INSTALACIONES COMPLETAS, VENTA Y APORTACIÓN DE MAQUINARIA Y/O LOS COMPLEMENTOS OBJETO DE INSTALACIÓN Y MONTAJE. REVESTIMIENTOS EXTERIORES E INTERIORES DE TODAS CLASES Y EN TODO TIPO DE OBRAS, COLOCACIÓN DE AISLAMIENTOS FÓNICOS, TÉRMICOS O ACÚSTICOS, DE CUALQUIER CLASE Y PARA CUALQUIER TIPO DE OBRAS, EN CUALQUIER TIPO DE EDIFICIO Y SUS CONSTRUCCIONES POR CUALQUIER PROCEDIMIENTO.\n",
      "mainEntityOfPage": "https://www.contratacion.euskadi.eus/webkpe00-kperoc/es/ac71aBusquedaRegistrosWar/empresa/09215",
      "_links": {
        "self": {
          "name": "GRUPO INMOTECHNIA GESTIONES ENERGETICAS, S.L.",
          "href": "https://api.euskadi.eus/procurements/companies/09215"
        }
      }
    },
    {
      "name": "SERVICIOS TECNICOS SERYMAN SL",
      "registrationNumber": "08385",
      "identificationNumber": "B95346615",
      "address": "CALLE LEZAMA LEGUIZAMON N13 LOCAL 3 TRASERA",
      "location": {
        "postalCode": "48450",
        "municipality": "Etxebarri",
        "county": "Bizkaia",
        "municipalityId": "029",
        "countyId": "48"
      },
      "economicActivities": [
        {
          "id": "1.504.3",
          "name": "Instalaciones de frío, calor y acondicionamiento de aire",
          "_links": {
            "self": {
              "name": "Instalaciones de frío, calor y acondicionamiento de aire",
              "href": "https://api.euskadi.eus/procurements/companies/economic-activities/1.504.3"
            }
          }
        },
        {
          "id": "1.692",
          "name": "Reparación de maquinaria industrial",
          "_links": {
            "self": {
              "name": "Reparación de maquinaria industrial",
              "href": "https://api.euskadi.eus/procurements/companies/economic-activities/1.692"
            }
          }
        }
      ],
      "certificateStartDate": "2023-09-16",
      "certificateEndDate": "2024-03-14",
      "object": "LA COMPRA, VENTA, IMPORTACIÓN, EXPORTACIÓN, COMERCIALIZACIÓN, DISTRIBUCIÓN, AL POR MAYOR Y AL POR MENOR, INSTALACIÓN, MANTENIMIENTO Y REPARACIÓN DE TODA CLASE DE PIEZAS, EQUIPOS Y ELEMENTOS INDUSTRIALES Y MAQUINARIA INDUSTRIAL.",
      "mainEntityOfPage": "https://www.contratacion.euskadi.eus/webkpe00-kperoc/es/ac71aBusquedaRegistrosWar/empresa/08385",
      "_links": {
        "self": {
          "name": "SERVICIOS TECNICOS SERYMAN SL",
          "href": "https://api.euskadi.eus/procurements/companies/08385"
        }
      }
    },
    {
      "name": "3TB CLEAR DESK, SOCIEDAD LIMITADA",
      "registrationNumber": "08343",
      "identificationNumber": "B95816344",
      "address": "ALAMEDA DE URQUIJO, 74, 1ºIZ, DPTO.1",
      "location": {
        "postalCode": "48013",
        "municipality": "Bilbao",
        "county": "Bizkaia",
        "municipalityId": "020",
        "countyId": "48"
      },
      "economicActivities": [
        {
          "id": "1.847",
          "name": "Servicios de consultoría",
          "_links": {
            "self": {
              "name": "Servicios de consultoría",
              "href": "https://api.euskadi.eus/procurements/companies/economic-activities/1.847"
            }
          }
        }
      ],
      "certificateStartDate": "2023-09-15",
      "certificateEndDate": "2024-03-15",
      "object": "A) DISTRIBUCIÓN COMERCIAL DE SOFTWARE Y HARDWARE, INCLUYENDO LA IMPORTACIÓN Y EXPORTACIÓN. B) LA PRESTACIÓN, TANTO A PERSONAS FÍSICAS COMO JURÍDICAS, DE SERVICIOS DE INGENIERÍA, CONSULTORÍA, ASESORAMIENTO, COACHING, FORMACIÓN INTEGRAL EMPRESARIAL Y, EN GENERAL, CUALQUIER TIPO DE SERVICIO REFERIDO A LA GESTIÓN EMPRESARIAL. C) SUBCONTRATACIÓN DE ACTIVIDADES PROFESIONALES. Y LA PROMOCIÓN, ADMINISTRACIÓN Y MANEJO O SOCIEDADES. CNAE DE LA ACTIVIDAD PRINCIPAL: 7022.- OTRAS ACTIVIDADES DE CONSULTORÍA DE GESTIÓN EMPRESARIAL.",
      "mainEntityOfPage": "https://www.contratacion.euskadi.eus/webkpe00-kperoc/es/ac71aBusquedaRegistrosWar/empresa/08343",
      "_links": {
        "self": {
          "name": "3TB CLEAR DESK, SOCIEDAD LIMITADA",
          "href": "https://api.euskadi.eus/procurements/companies/08343"
        }
      }
    }
  ]
}