{
  "totalItems": 9042,
  "totalPages": 905,
  "currentPage": 459,
  "itemsOfPage": 10,
  "items": [
    {
      "name": "MUNGUICOLOR, S.L.",
      "registrationNumber": "08761",
      "identificationNumber": "B95001608",
      "address": "POL. IND. LUISENE",
      "location": {
        "postalCode": "48100",
        "municipality": "Mungia",
        "county": "Bizkaia",
        "municipalityId": "069",
        "countyId": "48"
      },
      "economicActivities": [
        {
          "id": "1.501.1",
          "name": "Construcción completa, reparación y conservación de edificaciones",
          "_links": {
            "self": {
              "name": "Construcción completa, reparación y conservación de edificaciones",
              "href": "https://api.euskadi.eus/procurements/companies/economic-activities/1.501.1"
            }
          }
        },
        {
          "id": "1.505.6",
          "name": "Pintura, revestimientos y terminación y decoración de locales",
          "_links": {
            "self": {
              "name": "Pintura, revestimientos y terminación y decoración de locales",
              "href": "https://api.euskadi.eus/procurements/companies/economic-activities/1.505.6"
            }
          }
        }
      ],
      "certificateStartDate": "2023-06-05",
      "certificateEndDate": "2023-12-05",
      "object": "LA REALIZACIÓN DE ACTIVIDADES RELACIONADAS CON LA DECORACIÓN, PINTURA, OBRAS DE REFORMA Y CONSTRUCCIÓN.",
      "mainEntityOfPage": "https://www.contratacion.euskadi.eus/webkpe00-kperoc/es/ac71aBusquedaRegistrosWar/empresa/08761",
      "_links": {
        "self": {
          "name": "MUNGUICOLOR, S.L.",
          "href": "https://api.euskadi.eus/procurements/companies/08761"
        }
      }
    },
    {
      "name": "ANGEL GARCIA ARMENTIA",
      "registrationNumber": "09050",
      "identificationNumber": "16290425P",
      "address": "c/ Fueros, 3, 4º izda",
      "location": {
        "postalCode": "01001",
        "municipality": "Vitoria-Gasteiz",
        "county": "Araba/Álava",
        "municipalityId": "059",
        "countyId": "01"
      },
      "economicActivities": [
        {
          "id": "2.411",
          "name": "Arquitectos",
          "_links": {
            "self": {
              "name": "Arquitectos",
              "href": "https://api.euskadi.eus/procurements/companies/economic-activities/2.411"
            }
          }
        }
      ],
      "certificateStartDate": "2023-06-05",
      "certificateEndDate": "2023-12-04",
      "mainEntityOfPage": "https://www.contratacion.euskadi.eus/webkpe00-kperoc/es/ac71aBusquedaRegistrosWar/empresa/09050",
      "_links": {
        "self": {
          "name": "ANGEL GARCIA ARMENTIA",
          "href": "https://api.euskadi.eus/procurements/companies/09050"
        }
      }
    },
    {
      "name": "SERVINDUSTRIA 360, S.L.",
      "registrationNumber": "07187",
      "identificationNumber": "B01584358",
      "address": "Plaza de España, 13 -2º",
      "location": {
        "postalCode": "01001",
        "municipality": "Vitoria-Gasteiz",
        "county": "Araba/Álava",
        "municipalityId": "059",
        "countyId": "01"
      },
      "economicActivities": [
        {
          "id": "1.507",
          "name": "Construcción, reparación y conservación de toda clase obras",
          "_links": {
            "self": {
              "name": "Construcción, reparación y conservación de toda clase obras",
              "href": "https://api.euskadi.eus/procurements/companies/economic-activities/1.507"
            }
          }
        }
      ],
      "certificateStartDate": "2023-06-05",
      "certificateEndDate": "2023-11-30",
      "object": "1. SERVICIOS TÉCNICOS DE INGENIERÍA. 2. CONSTRUCCIÓN DE TODO TIPO DE OBRAS. 3. DEMOLICIONES Y DERRIBOS EN GENERAL. 4. SERVICIOS DE LIMPIEZA Y MANTENIMIENTOS INTERIORES (EDIFICIOS, OFICINAS, ESTABLECIMIENTOS COMERCIALES, RESIDENCIAS, CENTROS SANITARIOS Y ESTABLECIMIENTOS INDUSTRIALES)",
      "mainEntityOfPage": "https://www.contratacion.euskadi.eus/webkpe00-kperoc/es/ac71aBusquedaRegistrosWar/empresa/07187",
      "_links": {
        "self": {
          "name": "SERVINDUSTRIA 360, S.L.",
          "href": "https://api.euskadi.eus/procurements/companies/07187"
        }
      }
    },
    {
      "name": "AGIARAN 2020 S.L.",
      "registrationNumber": "06129",
      "identificationNumber": "B95844999",
      "address": "Aita Elorriaga 29 Bis 4 ezk.",
      "location": {
        "postalCode": "48100",
        "municipality": "Mungia",
        "county": "Bizkaia",
        "municipalityId": "069",
        "countyId": "48"
      },
      "economicActivities": [
        {
          "id": "1.847",
          "name": "Servicios de consultoría",
          "_links": {
            "self": {
              "name": "Servicios de consultoría",
              "href": "https://api.euskadi.eus/procurements/companies/economic-activities/1.847"
            }
          }
        }
      ],
      "certificateStartDate": "2023-06-04",
      "certificateEndDate": "2023-12-04",
      "object": "A) LA PRESTACIÓN INDIRECTA, COMO SOCIEDAD DE MEDIACIÓN, DE TODA CLASE DE SERVICIOS DE ASESORÍA Y CONSULTORÍA EN GENERAL, PARA EMPRESAS PRIVADAS O PÚBLICAS, ADMINISTRACIONES Y CUALESQUIERA PERSONAS FÍSICAS O JURÍDICAS, EN MATERIA LABORAL, ADMINISTRATIVA, DE GESTIÓN EMPRESARIAL, RECURSOS HUMANOS, PROGRAMAS DE GESTIÓN DE CALIDAD Y MEDIO AMBIENTE EN PROCESOS Y ESPACIOS, SERVICIOS O INFRAESTRUCTURAS PÚBLICAS Y PRIVADAS, CAMPAÑAS DE CONCIENCIACIÓN Y PROCESOS DE PARTICIPACIÓN Y TRANSPARENCIA, GESTIÓN Y DESARROLLO DE POLÍTICAS DE JUVENTUD E IGUALDAD DE GÉNERO. B) LA REALIZACIÓN DE PROYECTOS Y EJECUCIÓN DE PROGRAMAS DE NORMALIZACIÓN ADMINISTRATIVA",
      "mainEntityOfPage": "https://www.contratacion.euskadi.eus/webkpe00-kperoc/es/ac71aBusquedaRegistrosWar/empresa/06129",
      "_links": {
        "self": {
          "name": "AGIARAN 2020 S.L.",
          "href": "https://api.euskadi.eus/procurements/companies/06129"
        }
      }
    },
    {
      "name": "CONSULTORÍA Y FORMACIÓN MARGUBE, S.L.",
      "registrationNumber": "06274",
      "identificationNumber": "B20977807",
      "address": "Edificio Izarra Centr C/ Zearkale nº 36 piso 8",
      "location": {
        "postalCode": "48260",
        "municipality": "Ermua",
        "county": "Bizkaia",
        "municipalityId": "034",
        "countyId": "48"
      },
      "economicActivities": [
        {
          "id": "1.843.9",
          "name": "Otros servicios técnicos n.c.o.p",
          "_links": {
            "self": {
              "name": "Otros servicios técnicos n.c.o.p",
              "href": "https://api.euskadi.eus/procurements/companies/economic-activities/1.843.9"
            }
          }
        },
        {
          "id": "1.932.1",
          "name": "Enseñanza de formación y perfeccionamiento profesional no superior",
          "_links": {
            "self": {
              "name": "Enseñanza de formación y perfeccionamiento profesional no superior",
              "href": "https://api.euskadi.eus/procurements/companies/economic-activities/1.932.1"
            }
          }
        }
      ],
      "certificateStartDate": "2023-06-04",
      "certificateEndDate": "2023-12-04",
      "object": "CENTRO DE FORMACIÓN E INTEGRACIÓN DE SISTEMAS",
      "mainEntityOfPage": "https://www.contratacion.euskadi.eus/webkpe00-kperoc/es/ac71aBusquedaRegistrosWar/empresa/06274",
      "_links": {
        "self": {
          "name": "CONSULTORÍA Y FORMACIÓN MARGUBE, S.L.",
          "href": "https://api.euskadi.eus/procurements/companies/06274"
        }
      }
    },
    {
      "name": "EXCAVACIONES JULEN SL",
      "registrationNumber": "06335",
      "identificationNumber": "B95792313",
      "address": "BARRIO GALLARDI 12",
      "location": {
        "postalCode": "48860",
        "municipality": "Zalla",
        "county": "Bizkaia",
        "municipalityId": "096",
        "countyId": "48"
      },
      "economicActivities": [
        {
          "id": "1.502.2",
          "name": "Consolidación y preparación de terrenos para la construcción de edificaciones",
          "_links": {
            "self": {
              "name": "Consolidación y preparación de terrenos para la construcción de edificaciones",
              "href": "https://api.euskadi.eus/procurements/companies/economic-activities/1.502.2"
            }
          }
        },
        {
          "id": "1.912",
          "name": "Servicios forestales",
          "_links": {
            "self": {
              "name": "Servicios forestales",
              "href": "https://api.euskadi.eus/procurements/companies/economic-activities/1.912"
            }
          }
        }
      ],
      "certificateStartDate": "2023-06-02",
      "certificateEndDate": "2023-12-02",
      "object": "LAS EXCAVACIONES. MOVIMIENTO DE TIERRAS; OBRAS CIVILES; COMPRA, VENTA, PERMUTA Y ARRENDAMIENTOS DE BIENES INMUEBLES. ALQUILER DE MAQUINARIA PARA LA CONSTRUCCIÓN. LA CONSTRUCCIÓN DE TODA CLASE DE EDIFICIOS U OBRAS, INCLUYENDO TODA CLASE DE CONSTRUCCIONES, YA SEAN PARA LA PROPIA SOCIEDAD O POR ENCARGO O CONTRATA CON TERCERAS PERSONAS, INCLUSO ORGANISMOS OFICIALES, SINDICALES O PARAESTATALES. LA PROMOCIÓN, COMPRA, URBANIZACIÓN, EDIFICACIÓN, VENTA, ENAJENACIÓN Y ALQUILER DE TODO TIPO DE INMUEBLES, YA SEA DE PARCELAS URBANIZADAS O NO, EDIFICIOS COMPLETOS, PISOS, LOCALES, CHALETS, APARTAMENTOS, GARAJES, EDIFICIOS COMERCIALES O INDUSTRIALES, O CUALQUIER OTRO TIPO DE FINCAS, TANTO RÚSTICAS COMO URBANAS. SERVICIOS FORESTALES Y DE JARDINERÍA. COMPRA Y VENTA DE MADERA",
      "mainEntityOfPage": "https://www.contratacion.euskadi.eus/webkpe00-kperoc/es/ac71aBusquedaRegistrosWar/empresa/06335",
      "_links": {
        "self": {
          "name": "EXCAVACIONES JULEN SL",
          "href": "https://api.euskadi.eus/procurements/companies/06335"
        }
      }
    },
    {
      "name": "INNERSPEC TECHNOLOGIES EUROPE, S.L.",
      "registrationNumber": "09043",
      "identificationNumber": "B99182321",
      "address": "Cl. Sanglas 13",
      "location": {
        "postalCode": "28890",
        "municipality": "Loeches",
        "county": "Madrid",
        "municipalityId": "075",
        "countyId": "28"
      },
      "economicActivities": [
        {
          "id": "1.619.7",
          "name": "Venta al por mayor de instrumentos de precisión, medida y similares",
          "_links": {
            "self": {
              "name": "Venta al por mayor de instrumentos de precisión, medida y similares",
              "href": "https://api.euskadi.eus/procurements/companies/economic-activities/1.619.7"
            }
          }
        }
      ],
      "certificateStartDate": "2023-06-01",
      "certificateEndDate": "2023-12-01",
      "object": "DISEÑO, FABRICACIÓN Y COMERCIALIZACIÓN DE EQUIPOS DE ULTRASONIDOS PARA ENSAYOS NO DESTRUCTIVOS INCLUYENDO EL SERVICIO TÉCNICO.",
      "mainEntityOfPage": "https://www.contratacion.euskadi.eus/webkpe00-kperoc/es/ac71aBusquedaRegistrosWar/empresa/09043",
      "_links": {
        "self": {
          "name": "INNERSPEC TECHNOLOGIES EUROPE, S.L.",
          "href": "https://api.euskadi.eus/procurements/companies/09043"
        }
      }
    },
    {
      "name": "BETAZUL, S.A.",
      "registrationNumber": "09042",
      "identificationNumber": "A81493603",
      "address": "Islas Aleutianas 2, Local 1-2",
      "location": {
        "postalCode": "28035",
        "municipality": "Madrid",
        "county": "Madrid",
        "municipalityId": "079",
        "countyId": "28"
      },
      "economicActivities": [
        {
          "id": "1.501.1",
          "name": "Construcción completa, reparación y conservación de edificaciones",
          "_links": {
            "self": {
              "name": "Construcción completa, reparación y conservación de edificaciones",
              "href": "https://api.euskadi.eus/procurements/companies/economic-activities/1.501.1"
            }
          }
        }
      ],
      "certificateStartDate": "2023-06-01",
      "certificateEndDate": "2023-12-01",
      "object": "1) LA CONSTRUCCIÓN Y EJECUCIÓN DE OBRAS DE CARÁCTER PÚBLICO Y PRIVADO. 2) LA PRESTACIÓN DE SERVICIOS DE SANEAMIENTO, LIMPIEZA Y MANTENIMIENTO, TANTO A ENTIDADES DE CARÁCTER PÚBLICO COMO PRIVADO. 3) EL ESTUDIO, PROMOCIÓN, ASESORAMIENTO, ADMINISTRACIÓN, GESTIÓN, ADQUISICIÓN, VENTA Y EXPLOTACIÓN EN CUALQUIER FORMA DE SOLARES, TERRENOS, CONJUNTOS RESIDENCIALES, URBANIZACIONES O PROMOCIONES INMOBILIARIAS Y, EN GENERAL, DE TODA CLASE DE BIENES INMUEBLES. 4) EL DISEÑO, FABRICACIÓN, COMPRA, VENTA, SUMINISTRO, IMPORTACIÓN, EXPORTACIÓN, ALQUILER, MANTENIMIENTO, DISTRIBUCIÓN, REPRESENTACIÓN Y EXPLOTACIÓN, INCLUSO PUBLICITARIA, DE MAQUINARIA, HERRAMIENTAS, VEHÍCULOS -INCLUIDOS LOS DE NAVEGACIÓN-, INSTALACIONES, MATERIALES Y EQUIPOS, MOBILIARIO Y EQUIPAMIENTO URBANO ENTENDIDO EN SU MÁS AMPLIA ACEPCIÓN ASÍ COMO ELEMENTOS DE SEÑALIZACIÓN, TANTO EN POBLACIONES COMO EN VÍAS INTERURBANAS DE COMUNICACIÓN. 5) COMPRA, VENTA, EXPLOTACIÓN Y CESIÓN, EN CUALQUIER FORMA, DE PATENTES, MODELOS, MARCAS, LICENCIAS Y DEMÁS MODALIDADES DE LA PROPIEDAD INDUSTRIAL O INTELECTUAL RELACIONADOS CON ALGUNA O ALGUNAS DE LAS DEMÁS ACTIVIDADES EL OBJETO SOCIAL. 6) EL DISEÑO, INVESTIGACIÓN, DESARROLLO, CONSTRUCCIÓN, EXPLOTACIÓN, MANTENIMIENTO Y COMERCIALIZACIÓN DE PLANTAS E INSTALACIONES DE TRATAMIENTO Y DEPURACIÓN DE AGUAS Y RESIDUOS, LA RECUPERACIÓN Y ELIMINACIÓN DE RESIDUOS, ASÍ COMO LA COMPRAVENTA DE LOS SUBPRODUCTOS QUE SE ORIGINEN DE DICHOS TRATAMIENTOS. APROVECHAMIENTO, TRANSFORMACIÓN Y COMERCIALIZACIÓN DE TODA CLASE DE AGUAS. 7) EL ESTUDIO, PROYECTO, ADQUISICIÓN, CESIÓN, ENAJENACIÓN, CONSTRUCCIÓN, PROMOCIÓN, ASESORAMIENTO, ADMINISTRACIÓN, GESTIÓN, EXPLOTACIÓN EN ARREDRAMIENTO O EN CUALQUIER OTRA FORMA DE CENTROS COMERCIALES O LOCALES, ASÍ COMO SU REHABILITACIÓN Y DECORACIÓN. 8) LA ADQUISICIÓN, CESIÓN, ENAJENACIÓN, CONSTRUCCIÓN, PROMOCIÓN, ASESORAMIENTO, ADMINISTRACIÓN, GESTIÓN, EXPLOTACIÓN EN ARRENDAMIENTO O EN CUALQUIER OTRA FORMA, DE CENTROS RESIDENCIALES GERIÁTRICOS. 9) LA INVESTIGACIÓN Y APROVECHAMIENTO DE YACIMIENTOS MINERALES ASÍ COMO LA ADQUISICIÓN, USO Y DISFRUTE DE PERMISOS, CONCESIONES Y DEMÁS DERECHOS E INTERESES MINEROS; LA INDUSTRIALIZACIÓN Y COMERCIALIZACIÓN DE LOS PRODUCTOS MINEROS DERIVADOS DE AQUELLOS DERECHOS. 10) LA CREACIÓN, DESARROLLO Y EXPLOTACIÓN DE INDUSTRIAS DEL SECTOR MINERO. 11) LA PRESTACIÓN DE SERVICIOS TÉCNICOS DE INGENIERÍA, INCLUIDOS PROYECTOS, ESTUDIOS E INFORMES, ASÍ COMO LA REALIZACIÓN DE ESTUDIOS DE PREINVERSIÓN, CONTROLES DE CALIDAD, AUDITORÍAS INTERNAS Y EXPLOTACIÓN ELECTRÓNICA DE DATOS. 12) SERVICIOS DE INSTALACIÓN Y MONTAJES ELÉCTRICOS, ELECTRÓNICOS Y DE TELECOMUNICACIÓN, ASÍ COMO EL DISEÑO, INVESTIGACIÓN, DESARROLLO Y COMERCIALIZACIÓN DE PRODUCTOS RELACIONADOS CON DICHOS SERVICIOS. 13) LA ADQUISICIÓN, TENENCIA Y ENAJENACIÓN DE ACCIONES, PARTICIPACIONES Y CUALESQUIERA OTROS TÍTULOS, YA SEAN DE RENTA FIJA O VARIABLE, SIEMPRE POR CUENTA PROPIA. 14) LA COMERCIALIZACIÓN DE APARATOS DE AIRE ACONDICIONADOS. 15) LA COMERCIALIZACIÓN DE ELECTRODOMÉSTICOS DE LÍNEA BLANCA TALES COMO LAVADORAS, FRIGORÍFICOS, SECADORAS, LAVAVAJILLAS, COCINAS Y HORNOS.",
      "mainEntityOfPage": "https://www.contratacion.euskadi.eus/webkpe00-kperoc/es/ac71aBusquedaRegistrosWar/empresa/09042",
      "_links": {
        "self": {
          "name": "BETAZUL, S.A.",
          "href": "https://api.euskadi.eus/procurements/companies/09042"
        }
      }
    },
    {
      "name": "CONSTRUCCIONES VENTOSO 2020 SL",
      "registrationNumber": "06135",
      "identificationNumber": "B95914636",
      "address": "BARRIO EL BAULAR 13 BAJO",
      "location": {
        "postalCode": "48860",
        "municipality": "Zalla",
        "county": "Bizkaia",
        "municipalityId": "096",
        "countyId": "48"
      },
      "economicActivities": [
        {
          "id": "1.501.1",
          "name": "Construcción completa, reparación y conservación de edificaciones",
          "_links": {
            "self": {
              "name": "Construcción completa, reparación y conservación de edificaciones",
              "href": "https://api.euskadi.eus/procurements/companies/economic-activities/1.501.1"
            }
          }
        }
      ],
      "certificateStartDate": "2023-06-01",
      "certificateEndDate": "2023-12-01",
      "object": "DESARROLLO DE ACTIVIDADES  DE PROMOCIÓN INMOBILIARIA , CONSTRUCCIÓN DE EDIFICIOS RESIDENCIALES, CONSTRUCCIÓN DE EDIFICIOS NO RESIDENCIALES, CONSTRUCCIÓN DE CARRETERAS Y AUTOPISTAS, CONSTRUCCIÓN DE REDES PARA FLUIDOS, OBRAS HIDRÁULICAS ,  CONTRUCCIÓN DE OTROS PROYECTOS DE INGENIERÍA CIVIL, DEMOLICIÓN, PREPARACIÓN DE TERRENOS, FABRICACIÓN DE PRODUCTOS BÁSICOS DE HIERRO, ACERO Y FERROALEACIONES, FABRICACIÓN DE ESTRUCTURAS METÁLICAS Y SUS COMPETENTES, FABRICACIÓN DE CARPINTERÍA METÁLICA, REPARACIÓN DE PRODUCTOS METÁLICOS Y REPARACIÓN DE MAQUINARIA",
      "mainEntityOfPage": "https://www.contratacion.euskadi.eus/webkpe00-kperoc/es/ac71aBusquedaRegistrosWar/empresa/06135",
      "_links": {
        "self": {
          "name": "CONSTRUCCIONES VENTOSO 2020 SL",
          "href": "https://api.euskadi.eus/procurements/companies/06135"
        }
      }
    },
    {
      "name": "EGOIN, S.A.",
      "registrationNumber": "03494",
      "identificationNumber": "A48427074",
      "address": "ASTEI, s/n. NATXITUA.",
      "location": {
        "postalCode": "48287",
        "municipality": "Ea",
        "county": "Bizkaia",
        "municipalityId": "028",
        "countyId": "48"
      },
      "economicActivities": [
        {
          "id": "1.461",
          "name": "Aserrado y preparación industrial de la madera",
          "_links": {
            "self": {
              "name": "Aserrado y preparación industrial de la madera",
              "href": "https://api.euskadi.eus/procurements/companies/economic-activities/1.461"
            }
          }
        },
        {
          "id": "1.463",
          "name": "Fabricación en serie de piezas de carpintería y parquet",
          "_links": {
            "self": {
              "name": "Fabricación en serie de piezas de carpintería y parquet",
              "href": "https://api.euskadi.eus/procurements/companies/economic-activities/1.463"
            }
          }
        },
        {
          "id": "1.501.1",
          "name": "Construcción completa, reparación y conservación de edificaciones",
          "_links": {
            "self": {
              "name": "Construcción completa, reparación y conservación de edificaciones",
              "href": "https://api.euskadi.eus/procurements/companies/economic-activities/1.501.1"
            }
          }
        }
      ],
      "certificateStartDate": "2023-06-01",
      "certificateEndDate": "2023-11-30",
      "object": "LA INDUSTRIA DE LA MADERA, SUS DERIVADOS Y AFINES, INCLUÍDOS LOS MATERIALES SINTÉTICOS Y LOS DE FIBRA, EN TODAS SUS MANIFESTACIONES Y POR TANTO, LA EXTRACCIÓN, FABRICACIÓN, TRANSFORMACIÓN, MANUFACTURA, BARNIZADO, COMPRAVENTA, IMPORTACIÓN, EXPORTACIÓN, ALMACENAJE Y DISTRITUCIÓN, CONSTRUCCIÓN DE MOBILIARIO Y ELEMENTOS DE DICHOS MATERIALES PARA OBRAS, LAS EDIFICACIONES, EL HOGAR Y EL COMERCIO Y LA INDUSTRIA. LA PROMOCIÓN Y CONSTRUCCIÓN DE VIVIENDAS, EDIFICIOS Y OBRAS CIVILES, MEDIANTE LA ADQUISICIÓN DE TERRENOS, SU PARCELACIÓN Y URBANIZACIÓN, USO, ARRENDAMIENTO Y VENTA DE AQUELLOS, O DE LAS OBRAS TERMINADAS",
      "mainEntityOfPage": "https://www.contratacion.euskadi.eus/webkpe00-kperoc/es/ac71aBusquedaRegistrosWar/empresa/03494",
      "_links": {
        "self": {
          "name": "EGOIN, S.A.",
          "href": "https://api.euskadi.eus/procurements/companies/03494"
        }
      }
    }
  ]
}