{
  "totalItems": 9042,
  "totalPages": 905,
  "currentPage": 849,
  "itemsOfPage": 10,
  "items": [
    {
      "name": "TEKNOLUR, S.L.",
      "registrationNumber": "03054",
      "identificationNumber": "B95277323",
      "address": "ZABALGUNEKO PLAZA, 9 2º D.",
      "location": {
        "postalCode": "48009",
        "municipality": "Bilbao",
        "county": "Bizkaia",
        "municipalityId": "020",
        "countyId": "48"
      },
      "object": "PTE",
      "mainEntityOfPage": "https://www.contratacion.euskadi.eus/webkpe00-kperoc/es/ac71aBusquedaRegistrosWar/empresa/03054",
      "_links": {
        "self": {
          "name": "TEKNOLUR, S.L.",
          "href": "https://api.euskadi.eus/procurements/companies/03054"
        }
      }
    },
    {
      "name": "BADAYA OBRAS Y CONSTRUCCIONES, S.L.",
      "registrationNumber": "03068",
      "identificationNumber": "B95097820",
      "address": "C/ IPARRAGUIRRE, 26-1º DCHA.",
      "location": {
        "postalCode": "48011",
        "municipality": "Bilbao",
        "county": "Bizkaia",
        "municipalityId": "020",
        "countyId": "48"
      },
      "object": "pte",
      "mainEntityOfPage": "https://www.contratacion.euskadi.eus/webkpe00-kperoc/es/ac71aBusquedaRegistrosWar/empresa/03068",
      "_links": {
        "self": {
          "name": "BADAYA OBRAS Y CONSTRUCCIONES, S.L.",
          "href": "https://api.euskadi.eus/procurements/companies/03068"
        }
      }
    },
    {
      "name": "MONTAJES ELÉCTRICOS HERNANI, S.L.",
      "registrationNumber": "03075",
      "identificationNumber": "B20502589",
      "address": "DONOSTI IBILBIDEA, 66- Nº 12",
      "location": {
        "postalCode": "20115",
        "municipality": "Astigarraga",
        "county": "Gipuzkoa",
        "municipalityId": "903",
        "countyId": "20"
      },
      "object": "pte",
      "mainEntityOfPage": "https://www.contratacion.euskadi.eus/webkpe00-kperoc/es/ac71aBusquedaRegistrosWar/empresa/03075",
      "_links": {
        "self": {
          "name": "MONTAJES ELÉCTRICOS HERNANI, S.L.",
          "href": "https://api.euskadi.eus/procurements/companies/03075"
        }
      }
    },
    {
      "name": "CLAVE URBANA, S.A.U.",
      "registrationNumber": "03095",
      "identificationNumber": "A48850150",
      "address": "GRAN VÍA, 29 - 5º",
      "location": {
        "postalCode": "48009",
        "municipality": "Bilbao",
        "county": "Bizkaia",
        "municipalityId": "020",
        "countyId": "48"
      },
      "object": "pte",
      "mainEntityOfPage": "https://www.contratacion.euskadi.eus/webkpe00-kperoc/es/ac71aBusquedaRegistrosWar/empresa/03095",
      "_links": {
        "self": {
          "name": "CLAVE URBANA, S.A.U.",
          "href": "https://api.euskadi.eus/procurements/companies/03095"
        }
      }
    },
    {
      "name": "VIDAL OBREGON CRESPO",
      "registrationNumber": "03096",
      "identificationNumber": "14575910M",
      "address": "ZIZERUENE, 22-2º DCHA.",
      "location": {
        "postalCode": "48004",
        "municipality": "Bilbao",
        "county": "Bizkaia",
        "municipalityId": "020",
        "countyId": "48"
      },
      "object": "pte",
      "mainEntityOfPage": "https://www.contratacion.euskadi.eus/webkpe00-kperoc/es/ac71aBusquedaRegistrosWar/empresa/03096",
      "_links": {
        "self": {
          "name": "VIDAL OBREGON CRESPO",
          "href": "https://api.euskadi.eus/procurements/companies/03096"
        }
      }
    },
    {
      "name": "JUAN JOSE GUTIERREZ ZARZUELO",
      "registrationNumber": "03097",
      "identificationNumber": "14638491S",
      "address": "AIXE-ONA, 1-8º A",
      "location": {
        "postalCode": "48004",
        "municipality": "Bilbao",
        "county": "Bizkaia",
        "municipalityId": "020",
        "countyId": "48"
      },
      "object": "pte",
      "mainEntityOfPage": "https://www.contratacion.euskadi.eus/webkpe00-kperoc/es/ac71aBusquedaRegistrosWar/empresa/03097",
      "_links": {
        "self": {
          "name": "JUAN JOSE GUTIERREZ ZARZUELO",
          "href": "https://api.euskadi.eus/procurements/companies/03097"
        }
      }
    },
    {
      "name": "OTXAR III, S.L.",
      "registrationNumber": "03115",
      "identificationNumber": "B95388252",
      "address": "ZIZERUENE, 22 - 2ºDCHA.",
      "location": {
        "postalCode": "48004",
        "municipality": "Bilbao",
        "county": "Bizkaia",
        "municipalityId": "020",
        "countyId": "48"
      },
      "object": "pte",
      "mainEntityOfPage": "https://www.contratacion.euskadi.eus/webkpe00-kperoc/es/ac71aBusquedaRegistrosWar/empresa/03115",
      "_links": {
        "self": {
          "name": "OTXAR III, S.L.",
          "href": "https://api.euskadi.eus/procurements/companies/03115"
        }
      }
    },
    {
      "name": "REHABILITACIONES MATIKO CONSTRUCCIONES, S.L.",
      "registrationNumber": "03119",
      "identificationNumber": "B48829477",
      "address": "MATIKO, 32  (BAJO)",
      "location": {
        "postalCode": "48007",
        "municipality": "Bilbao",
        "county": "Bizkaia",
        "municipalityId": "020",
        "countyId": "48"
      },
      "object": "pte.",
      "mainEntityOfPage": "https://www.contratacion.euskadi.eus/webkpe00-kperoc/es/ac71aBusquedaRegistrosWar/empresa/03119",
      "_links": {
        "self": {
          "name": "REHABILITACIONES MATIKO CONSTRUCCIONES, S.L.",
          "href": "https://api.euskadi.eus/procurements/companies/03119"
        }
      }
    },
    {
      "name": "ET MERINO MIGUEL, S.L.",
      "registrationNumber": "03126",
      "identificationNumber": "B48591341",
      "address": "AVDA. ENCARTACIONES 24-1º",
      "location": {
        "postalCode": "48800",
        "municipality": "Balmaseda",
        "county": "Bizkaia",
        "municipalityId": "090",
        "countyId": "48"
      },
      "object": ".",
      "mainEntityOfPage": "https://www.contratacion.euskadi.eus/webkpe00-kperoc/es/ac71aBusquedaRegistrosWar/empresa/03126",
      "_links": {
        "self": {
          "name": "ET MERINO MIGUEL, S.L.",
          "href": "https://api.euskadi.eus/procurements/companies/03126"
        }
      }
    },
    {
      "name": "CESAR GARNACHO AREITIO",
      "registrationNumber": "03128",
      "identificationNumber": "15990267T",
      "address": "ZEMORIA, 47-3º IZDA.",
      "location": {
        "postalCode": "20013",
        "municipality": "Donostia / San Sebastián",
        "county": "Gipuzkoa",
        "municipalityId": "069",
        "countyId": "20"
      },
      "object": "producción de videos",
      "mainEntityOfPage": "https://www.contratacion.euskadi.eus/webkpe00-kperoc/es/ac71aBusquedaRegistrosWar/empresa/03128",
      "_links": {
        "self": {
          "name": "CESAR GARNACHO AREITIO",
          "href": "https://api.euskadi.eus/procurements/companies/03128"
        }
      }
    }
  ]
}