{
  "totalItems": 9042,
  "totalPages": 905,
  "currentPage": 766,
  "itemsOfPage": 10,
  "items": [
    {
      "name": "MUTUALIA, MUTUALIDAD DE ACCIDENTES DE TRABAJO Y ENFERMEDADES Nº 20",
      "registrationNumber": "03234",
      "identificationNumber": "G95413498",
      "address": "PZA DOCTOR CAMINO Nº 1, PLANTA 1 Y 2",
      "location": {
        "postalCode": "20000",
        "municipality": "Donostia / San Sebastián",
        "county": "Gipuzkoa",
        "municipalityId": "069",
        "countyId": "20"
      },
      "economicActivities": [
        {
          "id": "1.823",
          "name": "Otras entidades aseguradoras (montepíos, cajas de pensiones)",
          "_links": {
            "self": {
              "name": "Otras entidades aseguradoras (montepíos, cajas de pensiones)",
              "href": "https://api.euskadi.eus/procurements/companies/economic-activities/1.823"
            }
          }
        }
      ],
      "certificateStartDate": "2007-11-30",
      "certificateEndDate": "2006-12-07",
      "object": "1.- COLABORAR, BAJO LA DIRECCIÓN Y TUTELA DEL MINISTERIO DE TRABAJO Y ASUNTOS SOCIALES, EN LA GESTIÓN  DE LAS CONTINGENCIAS DE ACCIDENTES DE TRABAJO Y ENFERMEDADES PROFESIONALES DEL PERSONAL AL SERVICIO DE LOS EMPRESARIOS ASOCIADOS, Y EN LA GESTIÓN DE LA PRESTACIÓN ECONÓMICA POR INCAPACIDAD TEMPORAL DERIVADA DE CONTINGENCIAS COMUNES, TANTO DEL PERSONAL AL SERVICIO DE SUS EMPRESARIOS ASOCIADOS, COMO DE LOS TRABAJADORES DEL RÉGIMEN ESPECIAL DE TRABAJADORES POR CUENTA PROPIA O AUTÓNOMOS Y DE LOS TRABAJADORES POR CUENTA PROPIA DEL RÉGIMEN ESPECIAL AGRARIO DE LA SEGURIDAD SOCIAL, CON SUJECIÓN A LA NORMATIVA VIGENTE Y LIMITANDO SUS OPERACIONES A AQUELLAS QUE TENGA POR FINALIDAD LA COLABORACIÓN EN LAS GESTIÓN DE LA SEGURIDAD SOCIAL.\r\n2.- DE IGUAL FORMA PODRÁ ASUMIR LA PROTECCIÓN DE LAS CONTINGENCIAS DE ACCIDENTES DE TRABAJO Y ENFERMEDADES PROFESIONALES DE LOS TRABAJADORES POR CUENTA PROPIA INCLUIDOS EN EL RÉGIMEN ESPECIAL DE TRABAJADORES POR CUENTA PROPIA O AUTÓNOMOS RESPECTO DE LOS QUE PREVIA O SIMULTÁNEAMENTE, ASUMA LA GESTIÓN DEL SUBSIDIO POR INCAPACIDAD TEMPORAL EN VIRTUD DE LO PREVISTO EN EL PUNTO ANTERIOR Y QUE HAYAN OPTADO POR MEJORAR LA ACCIÓN PROTECTORA QUE DICHO RÉGIMEN LES DISPENSA, INCORPORANDO LA COBERTURA CORRESPONDIENTE A LAS CONTINGENCIAS PROFESIONALES, CONFORME A LA NORMATIVA DE APLICACIÓN.\r\n3.- ASIMISMO PODRÁ ASUMIR LA PROTECCIÓN DE LAS CONTINGENCIAS DE ACCIDENTES DE TRABAJO Y ENFERMEDADES PROFESIONALES DE LOS TRABAJADORES POR CUENTA PROPIA INCLUIDOS EN EL RÉGIMEN ESPECIAL AGRARIO DE LA SEGURIDAD SOCIAL Y EN EL RÉGIMEN ESPECIAL DE LA SEGURIDAD SOCIAL DE LOS TRABAJADORES DEL MAR, CON SUJECIÓN A LAS NORMAS REGULADORES DE APLICACIÓN.\r\n4.- DEDICA ESPECIAL ATENCIÓN, COMO ENTIDAD  COLABORADORA DE LA SEGURIDAD SOCIAL, A LA REALIZACIÓN DE ACTIVIDADES DE PREVENCIÓN A LA RECUPERACIÓN Y REHABILITACIÓN PROFESIONAL Y DEMÁS ACTIVIDADES DE NATURALEZA SIMILAR DERIVADAS DE DICHA COLABORACIÓN CONFORME A LO PREVISTO EN EL ARTÍCULO 13.1 DEL REGLAMENTO SOBRE COLABORACIÓN, A CUYO EFECTO PODRÁ ESTABLECER, PREVIA AUTORIZACIÓN DEL ÓRGANO ADMINISTRATIVO COMPETENTE, LAS INSTALACIONES Y SERVICIOS NECESARIOS.\r\n5.- DENTRO DE SU OBJETO SOCIAL Y DE ACUERDO CON LO ESTABLECIDO EN EL ARTÍCULO 32 DE LA LEY DE PREVENCIÓN DE RIESGOS LABORALES DE 8 DE NOVIEMBRE DE 1995 Y EN EL ARTÍCULO 13.2 DEL REGLAMENTO SOBRE COLABORACIÓN, PODRÁ DESARROLLAR PARA LAS EMPRESAS A ELLA ASOCIADAS Y SUS TRABAJADORES DEPENDIENTES, LAS FUNCIONES CORRESPONDIENTES A LOS SERVICIOS DE PREVENCIÓN QUE SE ESTABLECEN FUNCIONES CORRESPONDIENTES A LOS SERVICIOS DE PREVENCIÓN QUE SE ESTABLECEN EN EL ARTÍCULO 31 DE DICHA LEY, DE CONFORMIDAD CON EL RÉGIMEN JURÍDICO, ECONÓMICO Y DE FUNCIONAMIENTO QUE ESTÉ DETERMINADO POR LAS DISPOSICIONES ESPECÍFICAS EN LA MATERIA, EN ESPECIAL POR EL REAL DECRTEO 688/2005, DE 10 DE JUNIO, POR EL QUE SE REGULA EL RÉGIMEN DE FUNCIONAMIENTO DE LAS MUTUAS DE ACCIDENTES DE TRABAJO Y ENFERMEDADES PROFESIONALES DE LA SEGURIDAD SOCIAL COMO SERVICIO DE PREVENCIÓN AJENO Y CON LOS REQUISITOS ESTABLECIDOS EN EL ARTÍCULO 55 DE ESTOS ESTATUTOS.\r\nLAS ACTIVIDADES MENCIONADAS EN EL PÁRRFO ANTERIOR SERÁN COMPATIBLES Y TOTALMENTE INDEPENDIENTES DE LAS MENCIONADAS EN EL APARTADO 4 ANTERIOR, SIENDO DESARROLLADAS POR MEDIO D EUNA SOCIEDAD MERCANTIL ÍNTEGRAMENTE PARTICIPADA POR LA MUTIA , DENOMINADA SOCIEDAD DE PREVENCIÓN, QUE SE REGIRÁ POR LA LEGISLACIÓN MERCANTIL Y DEMÁS NORMATIVA QUE SE A APLICABLE DE CONFORMIDAD CON LO ESTABLECIDO EN EL ARTÍCULO 13.2 DEL REAL DECRETO 1993/1995, DE 7 DE DICIEMBRE, POR EL QUE SE APRUEBA EL REGLAMENTO GENERAL SOBRE COLABORACIÓN EN LA GESTIÓN DE LAS MUTUAS DE ACCIDENTES DE TRABAJO Y ENFERMEDADES PROFESIONALES DE LA SEGURIDAD SOCIAL, SEGÚN LA REDACCIÓN DADA AL MISMO POR EL REAL DECRETO 688/2005.",
      "mainEntityOfPage": "https://www.contratacion.euskadi.eus/webkpe00-kperoc/es/ac71aBusquedaRegistrosWar/empresa/03234",
      "_links": {
        "self": {
          "name": "MUTUALIA, MUTUALIDAD DE ACCIDENTES DE TRABAJO Y ENFERMEDADES Nº 20",
          "href": "https://api.euskadi.eus/procurements/companies/03234"
        }
      }
    },
    {
      "name": "ARROW IBERIA, S.A.",
      "registrationNumber": "01742",
      "identificationNumber": "A80792302",
      "address": "C/ AVENIDA DE VALGRANDE, Nº 14.",
      "location": {
        "postalCode": "28108",
        "municipality": "Alcobendas",
        "county": "Madrid",
        "municipalityId": "006",
        "countyId": "28"
      },
      "economicActivities": [
        {
          "id": "1.619.2",
          "name": "Venta al por mayor de aparatos e instrumentos médicos, ortopédicos, ópticos",
          "_links": {
            "self": {
              "name": "Venta al por mayor de aparatos e instrumentos médicos, ortopédicos, ópticos",
              "href": "https://api.euskadi.eus/procurements/companies/economic-activities/1.619.2"
            }
          }
        }
      ],
      "certificateStartDate": "2007-11-26",
      "certificateEndDate": "2008-05-05",
      "object": "LA IMPORTACIÓN, ALMACENAMIENTO, COMERCIALIZACIÓN, TRANSPORTE, PROMOCIÓN DE PRODUCTOS MÉDICOS, FARMACÉUTICOS, QUÍMICOS Y PARAFARMACÉUTICOS",
      "mainEntityOfPage": "https://www.contratacion.euskadi.eus/webkpe00-kperoc/es/ac71aBusquedaRegistrosWar/empresa/01742",
      "_links": {
        "self": {
          "name": "ARROW IBERIA, S.A.",
          "href": "https://api.euskadi.eus/procurements/companies/01742"
        }
      }
    },
    {
      "name": "CRISTALUX LIMPIEZAS, S.L.",
      "registrationNumber": "02196",
      "identificationNumber": "B20613659",
      "address": "C/ INDALECIO OJANGUREN, Nº 1 - BAJO",
      "location": {
        "postalCode": "20600",
        "municipality": "Eibar",
        "county": "Gipuzkoa",
        "municipalityId": "030",
        "countyId": "20"
      },
      "economicActivities": [
        {
          "id": "1.922.1",
          "name": "Servicios de limpieza de interiores",
          "_links": {
            "self": {
              "name": "Servicios de limpieza de interiores",
              "href": "https://api.euskadi.eus/procurements/companies/economic-activities/1.922.1"
            }
          }
        }
      ],
      "certificateStartDate": "2007-11-19",
      "certificateEndDate": "2008-05-06",
      "object": "SERVICIOS DE LIMPIEZA DE EDIFICIOS, OFICINAS, ESTABLECIMIENTOS COMERCIALES, RESIDENCIAS, CENTROS SANITARIOS Y ESTABLECIMIENTOS INDUSTRIALES, DE CRISTALES Y CHIMENEAS",
      "mainEntityOfPage": "https://www.contratacion.euskadi.eus/webkpe00-kperoc/es/ac71aBusquedaRegistrosWar/empresa/02196",
      "_links": {
        "self": {
          "name": "CRISTALUX LIMPIEZAS, S.L.",
          "href": "https://api.euskadi.eus/procurements/companies/02196"
        }
      }
    },
    {
      "name": "PAVIAL NORTE, S.L.",
      "registrationNumber": "03463",
      "identificationNumber": "B01273580",
      "address": "C/ ZUAZOBIDEA, Nº  32 (POL IND JUNDIZ)",
      "location": {
        "postalCode": "01015",
        "municipality": "Vitoria-Gasteiz",
        "county": "Araba/Álava",
        "municipalityId": "059",
        "countyId": "01"
      },
      "economicActivities": [
        {
          "id": "1.505.2",
          "name": "Solados y pavimentos de todas clases en cualquier tipo de obra",
          "_links": {
            "self": {
              "name": "Solados y pavimentos de todas clases en cualquier tipo de obra",
              "href": "https://api.euskadi.eus/procurements/companies/economic-activities/1.505.2"
            }
          }
        }
      ],
      "certificateStartDate": "2007-11-14",
      "certificateEndDate": "2008-04-11",
      "object": "LA ADQUISICIÓN, URBANIZACIÓN, PARCELACIÓN, PROMOCIÓN, CONSTRUCCIÓN, EDIFICACIÓN, CONSTITUCIÓN EN PROPIEDAD HORIZONTAL, REFORMA, AMPLIACIÓN, EXPLOTACIÓN DIRECTA O INDIRECTA, ENAJENACIÓN Y, EN GENERAL, TODA ACTIVIDAD RELATIVA A BIENES INMUEBLES Y TODA SUERTE DE INVERSIONES Y PROMOCIONES RELACIONADAS CON EL RAMO DE LA CONSTRUCCIÓN",
      "mainEntityOfPage": "https://www.contratacion.euskadi.eus/webkpe00-kperoc/es/ac71aBusquedaRegistrosWar/empresa/03463",
      "_links": {
        "self": {
          "name": "PAVIAL NORTE, S.L.",
          "href": "https://api.euskadi.eus/procurements/companies/03463"
        }
      }
    },
    {
      "name": "NACIL SUMINISTROS QUIRÚRGICOS, S.L.",
      "registrationNumber": "03336",
      "identificationNumber": "B95135471",
      "address": "LARRONDO GOIKO KALEA, Nº 3 N-B. PAB. 20",
      "location": {
        "postalCode": "48180",
        "municipality": "Loiu",
        "county": "Bizkaia",
        "municipalityId": "903",
        "countyId": "48"
      },
      "economicActivities": [
        {
          "id": "1.659.3",
          "name": "Venta al por menor de aparatos médicos, ortopédicos, ópticos y fotográficos",
          "_links": {
            "self": {
              "name": "Venta al por menor de aparatos médicos, ortopédicos, ópticos y fotográficos",
              "href": "https://api.euskadi.eus/procurements/companies/economic-activities/1.659.3"
            }
          }
        }
      ],
      "certificateStartDate": "2007-11-08",
      "certificateEndDate": "2008-03-11",
      "object": "LA COMERCIALIZIÓN DE MATERIAL MÉDICO, QUIRÚRGICO Y ORTOPÉDICO, DE PRODUCTOS DE FARMACIA Y PARAFARMACIA, LA COMPRA Y VENTA DE TODO TIPO DE MATERIALES E UTENSILIOS SANITARIOS RELACIONADOS CON LA SALUD, MATERIAL DE SOCORRISMO, Y TODOS LOS PRODUCTOS RELACIONADOS CON DICHA ACTIVIDAD",
      "mainEntityOfPage": "https://www.contratacion.euskadi.eus/webkpe00-kperoc/es/ac71aBusquedaRegistrosWar/empresa/03336",
      "_links": {
        "self": {
          "name": "NACIL SUMINISTROS QUIRÚRGICOS, S.L.",
          "href": "https://api.euskadi.eus/procurements/companies/03336"
        }
      }
    },
    {
      "name": "AMEBIL, S.A.",
      "registrationNumber": "00338",
      "identificationNumber": "A48130082",
      "address": "C/ AVENIDA CERVANTES, S/N. POLÍGONO INDUSTRIAL AZBARREN.",
      "location": {
        "postalCode": "48970",
        "municipality": "Basauri",
        "county": "Bizkaia",
        "municipalityId": "015",
        "countyId": "48"
      },
      "economicActivities": [
        {
          "id": "1.619.2",
          "name": "Venta al por mayor de aparatos e instrumentos médicos, ortopédicos, ópticos",
          "_links": {
            "self": {
              "name": "Venta al por mayor de aparatos e instrumentos médicos, ortopédicos, ópticos",
              "href": "https://api.euskadi.eus/procurements/companies/economic-activities/1.619.2"
            }
          }
        }
      ],
      "certificateStartDate": "2007-10-29",
      "certificateEndDate": "2008-01-03",
      "object": "LA COMPRA Y VENTA DE MOBILIARIO, ÚTILES, MATERIAL DIVERSO Y TODA CLASE DE ACCESORIOS MÉDICOS-QUIRÚRGICOS; LA TRANSFORMACIÓN, MODIFICACIÓN, REPARACIÓN Y MONTAJE RELACIONADOS CON LOS ARTÍCULOS QUE COMERCIALIZA; ASIMISMO PODRÁ DEDICARSE A LA IMPORTACIÓN Y EXPORTACIÓN DE TODOS LOS ARTÍCULOS PROPIOS DE LA ACTIVIDAD A LA QUE SE DEDIQUE",
      "mainEntityOfPage": "https://www.contratacion.euskadi.eus/webkpe00-kperoc/es/ac71aBusquedaRegistrosWar/empresa/00338",
      "_links": {
        "self": {
          "name": "AMEBIL, S.A.",
          "href": "https://api.euskadi.eus/procurements/companies/00338"
        }
      }
    },
    {
      "name": "ALCYONE, CENTRO DE SISTEMAS CAD, S.L.",
      "registrationNumber": "03452",
      "identificationNumber": "B84238286",
      "address": "C/ San Romualdo, 12/14, 2º B",
      "location": {
        "postalCode": "28037",
        "municipality": "Madrid",
        "county": "Madrid",
        "municipalityId": "079",
        "countyId": "28"
      },
      "economicActivities": [
        {
          "id": "1.659.2",
          "name": "Venta al por menor de muebles de oficina y máquinas y equipos de oficina",
          "_links": {
            "self": {
              "name": "Venta al por menor de muebles de oficina y máquinas y equipos de oficina",
              "href": "https://api.euskadi.eus/procurements/companies/economic-activities/1.659.2"
            }
          }
        },
        {
          "id": "1.845",
          "name": "Explotación electrónica por cuenta de terceros",
          "_links": {
            "self": {
              "name": "Explotación electrónica por cuenta de terceros",
              "href": "https://api.euskadi.eus/procurements/companies/economic-activities/1.845"
            }
          }
        }
      ],
      "certificateStartDate": "2007-10-26",
      "certificateEndDate": "2008-03-04",
      "object": "LA VENTA, COMERCIALIZACIÓN Y DISTRIBUCIÓN DE PROGRAMAS Y PRODUCTOS INFORMÁTICOS, ASÍ COMO DE LOS ELEMENTOS ACCESORIOS NECESARIOS PARA COMPLETAR LA UTILIZACIÓN DEL SOFTWARE INFORMÁTICO SUMINISTRADO. - LA VENTA DE SERVICIOS DE CONSULTORÍA Y ASESORÍA INFORMÁTICA CON EL FIN DE PODER OFRECER SOLUCIONES EN MATERIA DE FORMACIÓN, CONSULTORÍA INFORMÁTICA, SOPORTE TÉCNICO, DESARROLLO E INGENIERÍA PARA LOS PROGRAMAS Y PRODUCTOS DEFINIDOS EN EL APARTADO ANTERIOR. - LA FABRICACIÓN, VENTA, COMPRA, IMPORTACIÓN, EXPORTACIÓN Y REPRESENTACIÓN DE INSTRUMENTOS Y MATERIAL ELECTRÓNICO, ELECTROQUÍMICO, ELÉCTRICO MECÁNICO, HACIÉNDOLO EXTENSIVO INCLUSO A BIENES DE EQUIPO. - OPERACIONES DE COMPENSACIONES Y ARBITRAJES RELATIVOAS AL COMERCIO EXTERIOR. - COMPRA, VENTA, ARRENDAMIENTO, REPRESENTACIÓN, PRODUCCIÓN, ENSAMBLAJE, MODIFICACIÓN, ENTRETENIMIENTO REPARACIÓN, CONSERVACIÓN, IMPORTACIÓN, EXPORTACIÓN, MONTAJE, RECAMBIOS, ACCESORIOS, DISPOSITIVOS, DISEÑOS, ESTUDIOS, ANÁLISIS, PROGRAMACIÓN, COMERCIALIZACIÓN DE PRODUCTOS INFORMÁTICOS, MANTENIMIENTO DE EQUIPOS E INSTALACIONES INFORMÁTICAS, OFIMÁTICA Y TELECOMUNICACIÓN Y REDES, PRESTACIÓN DE SERVICIOS DE ASISTENCIA TÉCNICA Y ASESORAMIENTO EN RELACIÓN CON TALES ACTIVIDADES. - EL ESTUDIO Y ASESORAMIENTO, LA MEDIACIÓN EN TODA CLASE DE CUESTIONES ECONÓMICAS Y LA REALIZACIÓN POR CUENTA PROPIA O DE TERCEROS EN ESPAÑA O EN EL EXTRANJERO DE TODA CLASE DE OPERACIONES COMERCIALES EN LA FORMA QUE FUERE, TODO ELLO EN EL MERCADO INMOBILIARIO. - EL ASESORAMIENTO EN OPERACIONES INMOBILIARIAS REALIZADAS POR CUENTA \r\nDE TERCEROS Y SU POSTERIOR DESARROLLO, BIEN SEAN PARA LA PREPARACIÓN DEL SUELO RESIDENCIAL O INDUSTRIAL, URBANO Y NO URBANO, INDEPENDIENTEMENTE DE SU DESTINO FINAL, O BIEN EN FASE DE CONSTRUCCIÓN, VENTA Y ALQUILER DE INMUEBLES. - LA GESTIÓN Y PLANEAMIENTO URBANÍSTICO  E INFRAESTRUCTURA. - LA PROMOCIÓN Y CONSTRUCCIÓN DE TODA CLASE DE OBRAS, PÚBLICAS O PRIVADAS, DE LA NATURALEZA QUE FUEREN, BIEN POR SÍ O POR CUENTA DE TERCEROS, INCLUSO EXCAVACIONES DE TIERRAS, DERRIBOS, TRANSPORTES Y OBRAS DE SANEAMIENTO, URBANIZACIONES, CARRETERAS Y SIMILARES Y CUALQUIER OTRA OPERACIÓN REALIZADO CON TODO ELLO; LA COMPRA, VENTA, COMERCIALIZACIÓN Y REPRESENTACIÓN DE CUALQUIER CLASE DE MATERIALES Y BIENES DE EQUIPO DESTINADOS A LA CONSTRUCCIÓN EN GENERAL; LA EXPLOTACIÓN EN RÉGIMEN DE ALQUILER DE LAS EDIFICACIONES DE SU PROPIEDAD O VENTA D ELAS MISMAS; LA CONTRATACIÓN DE OBRAS PARTICULARES Y OFICINAS DEL ESTADO, PROVINCIA, MUNICIPIOS Y ENTES O COMUNIDADES AUTÓNOMAS",
      "mainEntityOfPage": "https://www.contratacion.euskadi.eus/webkpe00-kperoc/es/ac71aBusquedaRegistrosWar/empresa/03452",
      "_links": {
        "self": {
          "name": "ALCYONE, CENTRO DE SISTEMAS CAD, S.L.",
          "href": "https://api.euskadi.eus/procurements/companies/03452"
        }
      }
    },
    {
      "name": "CONSTRUCCIONES BIKANI, S.L.",
      "registrationNumber": "01061",
      "identificationNumber": "B48467963",
      "address": "POLÍGONO IGELTZERA, Nº 6.",
      "location": {
        "postalCode": "48610",
        "municipality": "Urduliz",
        "county": "Bizkaia",
        "municipalityId": "089",
        "countyId": "48"
      },
      "economicActivities": [
        {
          "id": "1.507",
          "name": "Construcción, reparación y conservación de toda clase obras",
          "_links": {
            "self": {
              "name": "Construcción, reparación y conservación de toda clase obras",
              "href": "https://api.euskadi.eus/procurements/companies/economic-activities/1.507"
            }
          }
        }
      ],
      "certificateStartDate": "2007-10-24",
      "certificateEndDate": "2008-04-01",
      "object": "LA CONSTRUCCIÓN DE OBRAS NUEVAS DE EDIFICACION URBANA E INDUSTRIAL. TRATAMIENTO DE VERTEDEROS Y ESCOMBRERAS. URBANIZACIÓN, SANEAMIENTO, ABASTECIMIENTO DE AGUAS Y OBRA CIVIL EN GENERAL, TRABAJOS DE REPARACIÓN Y CONSERVACIÓN DE OBRAS Y EDIFICIOS TANTO COMERCIALES COMO INDUSTRIALES E INCLUSO VIVIENDAS. OBRAS NUEVAS DE CARRETERAS, FERROCARRILES, HIDRÁULICAS, RIEGOS, PUERTOS AEROPUERTOS, DRAGADOS Y SIMILARES. LA PRESTACIÓN DE SERVICIOS TÉCNICOS DE ARQUITECTURA E INGENIERÍA, ASÍ COMO AL ASESORAMIENTO Y ASISTENCIA TÉCNICOS EN DICHAS ACTIVIDADES. REALIZACIÓN DE ESTUDIOS-PROYECTOS, TANTO DE OBRA CIVIL, COMO DE EDIFICACIÓN Y URBANIZACIÓN.\r\n",
      "mainEntityOfPage": "https://www.contratacion.euskadi.eus/webkpe00-kperoc/es/ac71aBusquedaRegistrosWar/empresa/01061",
      "_links": {
        "self": {
          "name": "CONSTRUCCIONES BIKANI, S.L.",
          "href": "https://api.euskadi.eus/procurements/companies/01061"
        }
      }
    },
    {
      "name": "DIPSA NORTE, S.L.",
      "registrationNumber": "01365",
      "identificationNumber": "B48213078",
      "address": "POLÍGONO TXAKO, PABELLÓN: 2.",
      "location": {
        "postalCode": "48480",
        "municipality": "Arrigorriaga",
        "county": "Bizkaia",
        "municipalityId": "011",
        "countyId": "48"
      },
      "economicActivities": [
        {
          "id": "1.614.2",
          "name": "Venta al por mayor de productos de perfumería, droguería, higiene y belleza",
          "_links": {
            "self": {
              "name": "Venta al por mayor de productos de perfumería, droguería, higiene y belleza",
              "href": "https://api.euskadi.eus/procurements/companies/economic-activities/1.614.2"
            }
          }
        },
        {
          "id": "1.617.9",
          "name": "Venta al por mayor interindustrial de otros productos n.c.o.p",
          "_links": {
            "self": {
              "name": "Venta al por mayor interindustrial de otros productos n.c.o.p",
              "href": "https://api.euskadi.eus/procurements/companies/economic-activities/1.617.9"
            }
          }
        },
        {
          "id": "1.619.4",
          "name": "Venta al por mayor de productos de papel y cartón",
          "_links": {
            "self": {
              "name": "Venta al por mayor de productos de papel y cartón",
              "href": "https://api.euskadi.eus/procurements/companies/economic-activities/1.619.4"
            }
          }
        }
      ],
      "certificateStartDate": "2007-10-23",
      "certificateEndDate": "2008-04-08",
      "object": "LA EXPLOTACIÓN DEL NEGOCIO DE COMPRAVENTA, IMPORTACIÓN, EXPORTACIÓN, REPRESENTACIÓN, ALMACENAJE, TRANSFORMACIÓN, DISTRIBUCIÓN Y COMERCIO DE ARTÍCULOS, ÚTILES, PERTRECHOS, HERRAMIENTAS, MÁQUINAS Y VEHÍCULOS PARA ALIMENTACIÓN, VESTIDO, CALZADO, EL HOGAR, LA LIMPIEZA DOMÉSTICA E INDUSTRIAL, EL TALLER, LOS TRANSPORTES, LA NAVEGACIÓN MARÍTIMA Y AÉREA, LA DECORACIÓN, LA CULTURA, EL DEPORTE Y EL OCIO EN TODAS SUS MANIFESTACIONES",
      "mainEntityOfPage": "https://www.contratacion.euskadi.eus/webkpe00-kperoc/es/ac71aBusquedaRegistrosWar/empresa/01365",
      "_links": {
        "self": {
          "name": "DIPSA NORTE, S.L.",
          "href": "https://api.euskadi.eus/procurements/companies/01365"
        }
      }
    },
    {
      "name": "BIURRARENA, S. COOP.",
      "registrationNumber": "02168",
      "identificationNumber": "F20030185",
      "address": "POLÍGONO BIDEBITARTE - DONOSTIA IBILBIDEA, Nº 28.",
      "location": {
        "postalCode": "20115",
        "municipality": "Astigarraga",
        "county": "Gipuzkoa",
        "municipalityId": "903",
        "countyId": "20"
      },
      "economicActivities": [
        {
          "id": "1.371",
          "name": "Construcción naval",
          "_links": {
            "self": {
              "name": "Construcción naval",
              "href": "https://api.euskadi.eus/procurements/companies/economic-activities/1.371"
            }
          }
        },
        {
          "id": "1.372",
          "name": "Reparación y mantenimiento de buques",
          "_links": {
            "self": {
              "name": "Reparación y mantenimiento de buques",
              "href": "https://api.euskadi.eus/procurements/companies/economic-activities/1.372"
            }
          }
        },
        {
          "id": "1.501.1",
          "name": "Construcción completa, reparación y conservación de edificaciones",
          "_links": {
            "self": {
              "name": "Construcción completa, reparación y conservación de edificaciones",
              "href": "https://api.euskadi.eus/procurements/companies/economic-activities/1.501.1"
            }
          }
        },
        {
          "id": "1.503.1",
          "name": "Preparación y montaje de estructuras y cubiertas en edificaciones",
          "_links": {
            "self": {
              "name": "Preparación y montaje de estructuras y cubiertas en edificaciones",
              "href": "https://api.euskadi.eus/procurements/companies/economic-activities/1.503.1"
            }
          }
        },
        {
          "id": "1.617.9",
          "name": "Venta al por mayor interindustrial de otros productos n.c.o.p",
          "_links": {
            "self": {
              "name": "Venta al por mayor interindustrial de otros productos n.c.o.p",
              "href": "https://api.euskadi.eus/procurements/companies/economic-activities/1.617.9"
            }
          }
        },
        {
          "id": "1.692",
          "name": "Reparación de maquinaria industrial",
          "_links": {
            "self": {
              "name": "Reparación de maquinaria industrial",
              "href": "https://api.euskadi.eus/procurements/companies/economic-activities/1.692"
            }
          }
        },
        {
          "id": "1.852",
          "name": "Alquiler de maquinaria y equipo para la construcción",
          "_links": {
            "self": {
              "name": "Alquiler de maquinaria y equipo para la construcción",
              "href": "https://api.euskadi.eus/procurements/companies/economic-activities/1.852"
            }
          }
        },
        {
          "id": "1.921.5",
          "name": "Servicios de incineración y eliminación de basuras y desechos",
          "_links": {
            "self": {
              "name": "Servicios de incineración y eliminación de basuras y desechos",
              "href": "https://api.euskadi.eus/procurements/companies/economic-activities/1.921.5"
            }
          }
        }
      ],
      "certificateStartDate": "2007-10-23",
      "certificateEndDate": "2008-03-11",
      "object": "LA COMERCIALIZACIÓN, ALQUILER, SERVICIO DE ASISTENCIA TÉCNICA Y POST-VENTA DE MAQUINARIA PARA OBRAS PÚBLICAS, CONSTRUCCIÓN E INDUSTRIA EN GENERAL.\r\n\r\n EL DISEÑO, LA CONSTRUCCIÓN, LA FABRICACIÓN, EL MONTAJE Y LA COMERCIALIZACIÓN DE  CONTENEDORES DE RESIDUOS (SOTERRADOS O NO), DE PLANTAS INDUSTRIALES    DE TRATAMIENTOS DE RESIDUOS Y DE PRODUCTOS RELACIONADOS CON LA ACTIVIDAD DE MEDIO AMBIENTE.   \r\n         \r\nTRATAMIENTO, RECICLAJE Y VALORIZACIÓN DE TODO TIPO DE RESIDUOS URBANOS, ASIMILABLES A URBANOS E INDUSTRIALES Y SANITARIOS. TRATAMIENTO Y VENTA DE PRODUCTOS RESIDUALES. GESTIÓN Y EXPLOTACIÓN DE PLANTAS DE TRATAMIENTO Y TRANSFERENCIA DE RESIDUOS. \r\n\r\n  CONSTRUCCIÓN DE ESTRUCTURAS Y MANTENIMIENTO EN GENERAL; ASÍ COMO CUANTAS ACTIVIDADES COMPLEMENTARIAS A LAS CITADAS ANTERIORMENTE SEAN NECESARIAS PARA SU DESARROLLO",
      "mainEntityOfPage": "https://www.contratacion.euskadi.eus/webkpe00-kperoc/es/ac71aBusquedaRegistrosWar/empresa/02168",
      "_links": {
        "self": {
          "name": "BIURRARENA, S. COOP.",
          "href": "https://api.euskadi.eus/procurements/companies/02168"
        }
      }
    }
  ]
}