{
  "totalItems": 9042,
  "totalPages": 905,
  "currentPage": 114,
  "itemsOfPage": 10,
  "items": [
    {
      "name": "FREYSSINET, S.A.",
      "registrationNumber": "03022",
      "identificationNumber": "A48037592",
      "address": "C/ MELCHOR FERNÁNDEZ ALMAGRO, 23",
      "location": {
        "postalCode": "28029",
        "municipality": "Madrid",
        "county": "Madrid",
        "municipalityId": "079",
        "countyId": "28"
      },
      "economicActivities": [
        {
          "id": "1.243.3",
          "name": "Fabricación otros artículos derivados del cemento, excepto pavimentos",
          "_links": {
            "self": {
              "name": "Fabricación otros artículos derivados del cemento, excepto pavimentos",
              "href": "https://api.euskadi.eus/procurements/companies/economic-activities/1.243.3"
            }
          }
        },
        {
          "id": "1.507",
          "name": "Construcción, reparación y conservación de toda clase obras",
          "_links": {
            "self": {
              "name": "Construcción, reparación y conservación de toda clase obras",
              "href": "https://api.euskadi.eus/procurements/companies/economic-activities/1.507"
            }
          }
        }
      ],
      "certificateStartDate": "2025-12-17",
      "certificateEndDate": "2026-06-05",
      "object": "EL ESTUDIO, EJECUCIÓN, CONCESIÓN Y EXPLOTACIÓN DE TODO TIPO DE OBRAS  DE INGENIERÍA, ARQUITECTURA, EDIFICACIÓN Y CONSTRUCCIÓN, TANTO PÚBLICAS COMO PRIVADAS, DE NUEVA CONSTRUCCIÓN, DE REPARACIÓN, DE CONSERVACIÓN O DE MEJORA, Y ESPECIALMENTE LAS OBRAS DE PRETENSADO, ESTRUCTURAS DE HORMIGÓN O METÁLICAS, LA PROYECCIÓN, INYECCIÓN Y APLICACIÓN DE HORMIGÓN Y MATERIAS PLÁSTICAS, EL SUMINISTRO Y COLOCACIÓN DE APOYOS Y JUNTAS PARA ESTRUCTURAS, ASÍ COMO LA REALIZACIÓN DE OPERACIONES DE IZADO Y DESPLAZAMIENTO DE ENSAMBLAJES DE ESTRUCTURAS Y EQUIPOS.\n\nLA COMPRAVENTA, ARRENDAMIENTO, CESIÓN, PERMUTA, Y EL ESTABLECIMIENTO DE HIPOTECAS U OTROS DERECHOS REALES SOBRE MAQUINARIA, ÚTILES, ACCESORIOS, VEHÍCULOS, EMBARCACIONES, SEMOVIENTES, MATERIALES, INSTALACIONES, VIVIENDAS, OFICINAS, LOCALES COMERCIALES, EDIFICIOS, TERRENOS, Y EN GENERAL BIENES INMUEBLES, Y LA PRESTACIÓN DE SERVICIOS DE ASESORAMIENTO, ASISTENCIA Y CONSULTA RELACIONADOS CON SU OBJETO. \n\nLA REPARACIÓN Y RESTAURACIÓN DE TODA CLASE DE BIENES MUEBLES",
      "mainEntityOfPage": "https://www.contratacion.euskadi.eus/webkpe00-kperoc/es/ac71aBusquedaRegistrosWar/empresa/03022",
      "_links": {
        "self": {
          "name": "FREYSSINET, S.A.",
          "href": "https://api.euskadi.eus/procurements/companies/03022"
        }
      }
    },
    {
      "name": "HISPANO SUECA DE INGENIERÍA, S.A.U.",
      "registrationNumber": "05263",
      "identificationNumber": "A28140572",
      "address": "ISLA GRACIOSA Nº 1 PLANTA 2 OFICINA 4",
      "location": {
        "postalCode": "28703",
        "municipality": "San Sebastián de los Reyes",
        "county": "Madrid",
        "municipalityId": "134",
        "countyId": "28"
      },
      "economicActivities": [
        {
          "id": "1.501.2",
          "name": "Construcción completa, reparación y conservación obras civiles",
          "_links": {
            "self": {
              "name": "Construcción completa, reparación y conservación obras civiles",
              "href": "https://api.euskadi.eus/procurements/companies/economic-activities/1.501.2"
            }
          }
        }
      ],
      "certificateStartDate": "2025-12-17",
      "certificateEndDate": "2026-06-09",
      "object": "EL ASESORAMIENTO, CONSULTA Y COLABORACIÓN EN TODAS SUS FORMAS, ASÍ COMO LA  REALIZACIÓN DE OBRAS HIDRÁULICAS, TENDIDO DE LÍNEAS DE CONDUCCIÓN, EXCAVACIONES, TÚNELES, CARRETERAS, Y OTROS TRABAJOS PÚBLICOS O PRIVADOS DE CARÁCTER ANÁLOGO, RELACIONADOS CON LA CONSTRUCCIÓN. LA EDIFICACIÓN, CONSTRUCCIÓN Y PROMOCIÓN DE INMUEBLES Y LA CONTRATACIÓN Y EJECUCIÓN DE OBRAS DE TODA CLASE, PÚBLICAS O PRIVADAS, POR CUENTA PROPIA O AJENA. LA COMPRAVENTA DE MADERAS Y OTROS MATERIALES Y ELEMENTOS PARA LA CONSTRUCCIÓN. LA EXPLOTACIÓN DE MINAS. LA ADQUISICIÓN Y ENAJENACIÓN DE INMUEBLES, SU ARRENDAMIENTO Y EXPLOTACIÓN. LA PROMOCIÓN, ORGANIZACIÓN Y ASESORAMIENTO DE URBANIZACIONES, COMUNIDADES DE CONSTRUCCIÓN Y DE NEGOCIOS Y ACTIVIDADES INMOBILIARIAS; LA REHABILITACIÓN Y RESTAURACIÓN DE INMUEBLES. LA PARTICIPACION EN CONCURSOS Y LICITACIONES Y LA TITULARIDAD DE TODA CLASE DE CONCESIONES, SUBCONCESIONES, AUTORIZACIONES Y LICENCIAS ADMINISTRATIVAS DE OBRAS, SERVICIOS Y MIXTOS DEL ESTADO, COMUNIDADES AUTÓNOMAS, PROVINCIAS, MUNICIPIOS, ORGANISMOS AUTÓNOMOS, ENTIDADES AUTÓNOMAS, ASÍ COMO DE CUALQUIER ESTADO EXTRANJERO Y ADMINISTRACIÓN PÚBLICA, ORGANISMO O INSTITUCIÓN INTERNACIONAL. LA FABRICACIÓN, REPARACIÓN Y COMERCIALIZACIÓN DE MAQUINARIA PARA LA EJECUCIÓN DE OBRAS. LA EXPLOTACIÓN DE FINCAS RÚSTICAS EN CUALQUIERA DE SUS APROVECHAMIENTOS Y UTILIDADES, COMO SON LOS AGRÍCOLAS, GANADEROS, FORESTALES Y DE CAZA. LA VENTA DE LOS PRODUCTOS ASÍ OBTENIDOS, ASÍ COMO SU TRANSFORMACIÓN Y COMERCIALIZACIÓN LA INVESTIGACIÓN Y ELABORACIÓN DE ESTUDIOS Y PROYECTOS, DE FINALIDAD MINERA, AGRÍCOLA, GANADERA, FORESTAL Y CINERGÉTICA. EL ASESORAMIENTO Y LA ELABORACIÓN DE ESTUDIOS Y PROYECTOS INDUSTRIALES Y DE INGENIERÍA. LA ADQUISICIÓN, ENAJENACIÓN DE TODA CLASE DE VALORES MOBILIARIOS Y OTRAS ACTIVIDADES FINANCIERAS POR CUENTA PROPIA",
      "mainEntityOfPage": "https://www.contratacion.euskadi.eus/webkpe00-kperoc/es/ac71aBusquedaRegistrosWar/empresa/05263",
      "_links": {
        "self": {
          "name": "HISPANO SUECA DE INGENIERÍA, S.A.U.",
          "href": "https://api.euskadi.eus/procurements/companies/05263"
        }
      }
    },
    {
      "name": "BITAN GLOBAL 2.0. ARKITEKTA TEKNIKOAK, S.L.",
      "registrationNumber": "10481",
      "identificationNumber": "B42819698",
      "address": "ANTONIO LEKUONA nº2 1ºPUERTA 5",
      "location": {
        "postalCode": "20400",
        "municipality": "Tolosa",
        "county": "Gipuzkoa",
        "municipalityId": "071",
        "countyId": "20"
      },
      "economicActivities": [
        {
          "id": "1.843.2",
          "name": "Servicios técnicos de arquitectura y urbanismo",
          "_links": {
            "self": {
              "name": "Servicios técnicos de arquitectura y urbanismo",
              "href": "https://api.euskadi.eus/procurements/companies/economic-activities/1.843.2"
            }
          }
        }
      ],
      "certificateStartDate": "2025-12-17",
      "certificateEndDate": "2026-06-17",
      "object": "LA ACTIVIDAD PROPIA DEL EJERCICIO DE SERVICIOS DE LA ARQUITECTURA TÉCNICA, COLABORACIONES Y ASESORAMIENTO TÉCNICO.",
      "mainEntityOfPage": "https://www.contratacion.euskadi.eus/webkpe00-kperoc/es/ac71aBusquedaRegistrosWar/empresa/10481",
      "_links": {
        "self": {
          "name": "BITAN GLOBAL 2.0. ARKITEKTA TEKNIKOAK, S.L.",
          "href": "https://api.euskadi.eus/procurements/companies/10481"
        }
      }
    },
    {
      "name": "ROTULOSMALLORCA, S.L.",
      "registrationNumber": "09160",
      "identificationNumber": "B16512360",
      "address": "CALLE MANACOR 85 BAJOS",
      "location": {
        "postalCode": "07007",
        "municipality": "Palma",
        "county": "Balears, Illes",
        "municipalityId": "040",
        "countyId": "07"
      },
      "economicActivities": [
        {
          "id": "1.474",
          "name": "Artes gráficas (impresión gráfica)",
          "_links": {
            "self": {
              "name": "Artes gráficas (impresión gráfica)",
              "href": "https://api.euskadi.eus/procurements/companies/economic-activities/1.474"
            }
          }
        },
        {
          "id": "1.844",
          "name": "Servicios de publicidad, relaciones públicas y similares",
          "_links": {
            "self": {
              "name": "Servicios de publicidad, relaciones públicas y similares",
              "href": "https://api.euskadi.eus/procurements/companies/economic-activities/1.844"
            }
          }
        }
      ],
      "certificateStartDate": "2025-12-16",
      "certificateEndDate": "2026-06-10",
      "object": "INDUSTRIA GRÁFICA, DISEÑO DIGITAL, TODO TIPO DE IMPRESIÓN DIGITAL Y RÁPIDA DE TEXTOS E IMÁGENES, FABRICACIÓN DE TODO TIPO DE RÓTULOS Y OTROS SOPORTES PUBLICITARIOS, VENTA Y COMERCIALIZACIÓN ONLINE DE TODO TIPO DE ROTULACIÓN, SOPORTES PUBLICITARIOS E IMPRESIÓN. REALIZACIÓN DE TODO TIPO DE CURSOS DE FORMACIÓN EN EL ÁMBITO DEL MARKETING E INFORMÁTICO.",
      "mainEntityOfPage": "https://www.contratacion.euskadi.eus/webkpe00-kperoc/es/ac71aBusquedaRegistrosWar/empresa/09160",
      "_links": {
        "self": {
          "name": "ROTULOSMALLORCA, S.L.",
          "href": "https://api.euskadi.eus/procurements/companies/09160"
        }
      }
    },
    {
      "name": "SONRÍA POR FAVOR SOCIEDAD, S.L.",
      "registrationNumber": "08285",
      "identificationNumber": "B39420104",
      "address": "C/ Estartetxe nº 5 - 3º DP-320",
      "location": {
        "postalCode": "48940",
        "municipality": "Leioa",
        "county": "Bizkaia",
        "municipalityId": "054",
        "countyId": "48"
      },
      "economicActivities": [
        {
          "id": "1.619.2",
          "name": "Venta al por mayor de aparatos e instrumentos médicos, ortopédicos, ópticos",
          "_links": {
            "self": {
              "name": "Venta al por mayor de aparatos e instrumentos médicos, ortopédicos, ópticos",
              "href": "https://api.euskadi.eus/procurements/companies/economic-activities/1.619.2"
            }
          }
        }
      ],
      "certificateStartDate": "2025-12-16",
      "certificateEndDate": "2026-06-08",
      "object": "1º.- EL MANTENIMIENTO, REPARACIÓN, FABRICACIÓN, COMPRAVENTA, DISTRIBUCIÓN, ALMACENAJE Y COMERCIALIZACIÓN EN GENERAL DE MATERIAL SANITARIO ODONTOLÓGICO Y DE SUS COMPLEMENTOS, PRÓTESIS, APARATOS, SISTEMAS Y MÉTODOS DE APLICACIÓN. 2º.- LA PROMOCIÓN, INSTALACIÓN, GESTIÓN Y EXPLOTACIÓN EN GENERAL DE CENTROS DE ASISTENCIA ESTOMATOLÓGICA Y ODONTOLÓGICA. 3º.- LA INVESTIGACIÓN Y DOCENCIA SANITARIAS. 4º.- LA REALIZACIÓN DE ANÁLISIS CLÍNICOS, DE RECONOCIMIENTOS MÉDICOS, DE INTERVENCIONES QUIRÚRGICAS Y DE TRATAMIENTOS PREVENTIVOS Y DE RECUPERACIÓN. 5º.- LA REALIZACIÓN DE TODO TIPO DE ACTIVIDAD ECONÓMICA, RELACIONADA CON LA FRANQUICIA, Y DE FORMA CONCRETA Y NO EXHAUSTIVA: LA CONSTITUCIÓN, PUESTA EN MARCHA, SEGUIMIENTO Y EXPLOTACIÓN DE NEGOCIOS EN RÉGIMEN DE FRANQUICIA, MÁS TODAS LAS ACTIVIDADES ANEXAS A ESTA. 6º.- RECIBIR U OTORGAR REPRESENTACIONES, LICENCIAS, EXCLUSIVAS Y DERECHOS DE OPCIÓN. 7º.- LA REPRESENTACIÓN COMO AGENTE, COMISIONISTA, DELEGADO O CUALQUIER OTRA FORMA DE MEDIACIÓN MERCANTIL DE EMPRESAS NACIONALES O EXTRANJERAS, DE TODA ÍNDOLE, ASÍ COMO LA EXPLOTACIÓN DE PATENTES, Y DEMÁS DERECHOS DE PROPIEDAD, INDUSTRIA, INCLUIDOS LOS MÉTODOS, PROCEDIMIENTOS Y ORGANIZACIÓN DE TRABAJOS INDUSTRIALES, COMERCIALES O DE OTRA ÍNDOLE. 8º.- LA FORMACIÓN E INFORMACIÓN DE TODO TIPO DE PERSONAS MEDIANTE CURSOS, SEMINARIOS, JORNADAS, TANTO DE PRESENCIA COMO A DISTANCIA EN CUALQUIER MATERIA, ASÍ COMO LA EDICIÓN DE LOS TEXTOS Y LIBROS ENCAMINADOS A TAL FIN, REVISTAS Y CUALQUIER OTRO MEDO DE DIFUSIÓN QUE CONSIDERE IDÓNEO PARA SUS FINES. 9º.- ASESORÍA, CONSULTORÍA Y FORMACIÓN EN LOCALES PROPIOS O AJENOS SOBRE ASPECTOS RELACIONADOS CON LOS SISTEMAS DE INFORMACIÓN. 10º.- CONTRATAR OBRAS Y SERVICIOS CON CUALQUIER ORGANISMO DE LAS ADMINISTRACIONES PÚBLICAS Y CON ENTIDADES Y PARTICULARES. 11º.- ADQUIRIR POR CUALQUIER TÍTULO, ADMINISTRAR, ENAJENAR, ARRENDAR, CONSTRUIR, MANTENER, REPARAR, PROMOVER, URBANIZAR, ORDENAR URBANÍSTICAMENTE Y, EN GENERAL, EXPLOTAR MERCANTIL E INDUSTRIALMENTE TODA CLASE DE BIENES INMUEBLES, TERRENOS Y FINCAS RÚSTICAS, ASÍ COMO PRESTAR TODA CLASE DE SERVICIOS Y ACTIVIDADES RELACIONADAS CON EL TRÁFICO, PROMOCIÓN Y GESTIÓN INMOBILIARIAS, REALIZANDO TODOS AQUELLOS ASUNTOS PARA LOS QUE NO EXISTIENDO PROHIBICIÓN LEGAL, SE RELACIONEN, DIRECTA O INDIRECTAMENTE CON LOS FINES ENUNCIADOS. 12º.- LA ADQUISICIÓN, CESIÓN, INVERSIÓN, TENENCIA, DISFRUTE, ADMINISTRACIÓN, GESTIÓN Y NEGOCIACIÓN DE TODA CLASE DE TÍTULOS Y VALORES MOBILIARIOS, COTIZADOS EN BOLSA O NO, SIN INCIDIR EN LAS OPERACIONES A QUE SE REFIERE LA LEY 46/84 DE INVERSIONES COLECTIVAS. 13º.- LA PROMOCIÓN Y PARTICIPACIÓN EN TODO TIPO DE CAMPAÑAS RELACIONADAS CON LOS PRODUCTOS, ACTIVIDADES Y ARTÍCULOS SEÑALADOS.",
      "mainEntityOfPage": "https://www.contratacion.euskadi.eus/webkpe00-kperoc/es/ac71aBusquedaRegistrosWar/empresa/08285",
      "_links": {
        "self": {
          "name": "SONRÍA POR FAVOR SOCIEDAD, S.L.",
          "href": "https://api.euskadi.eus/procurements/companies/08285"
        }
      }
    },
    {
      "name": "INTERSURGICAL ESPAÑA, S.L.",
      "registrationNumber": "04533",
      "identificationNumber": "B80957889",
      "address": "PLASENCIA 39. P.I. LAS NIEVES.",
      "location": {
        "postalCode": "28935",
        "municipality": "Móstoles",
        "county": "Madrid",
        "municipalityId": "092",
        "countyId": "28"
      },
      "economicActivities": [
        {
          "id": "1.619.2",
          "name": "Venta al por mayor de aparatos e instrumentos médicos, ortopédicos, ópticos",
          "_links": {
            "self": {
              "name": "Venta al por mayor de aparatos e instrumentos médicos, ortopédicos, ópticos",
              "href": "https://api.euskadi.eus/procurements/companies/economic-activities/1.619.2"
            }
          }
        }
      ],
      "certificateStartDate": "2025-12-16",
      "certificateEndDate": "2026-06-10",
      "object": "LA IMPORTACIÓN, EXPORTACIÓN, FABRICACIÓN, DISTRIBUCIÓN Y ALMACENAMIENTO DE TODO TIPO DE PRODUCTOS, EQUIPOS Y SISTEMAS HOSPITALARIOS, VENTA DE LOS MISMOS EN TODO EL TERRITORIO NACIONAL Y EN RÉGIMEN DE DISTRIBUCIÓN EXCLUSIVA O BAJO CUALQUIER OTRA MODALIDAD, INCLUYENDO EL RÉGIMEN DE AGENCIA",
      "mainEntityOfPage": "https://www.contratacion.euskadi.eus/webkpe00-kperoc/es/ac71aBusquedaRegistrosWar/empresa/04533",
      "_links": {
        "self": {
          "name": "INTERSURGICAL ESPAÑA, S.L.",
          "href": "https://api.euskadi.eus/procurements/companies/04533"
        }
      }
    },
    {
      "name": "UR NOMADE, S.L.",
      "registrationNumber": "08304",
      "identificationNumber": "B95415998",
      "address": "B  Laida- Arketa s/n",
      "location": {
        "postalCode": "48311",
        "municipality": "Ibarrangelu",
        "county": "Bizkaia",
        "municipalityId": "048",
        "countyId": "48"
      },
      "economicActivities": [
        {
          "id": "1.659.6",
          "name": "Venta al por menor de juguetes, artículos de deporte",
          "_links": {
            "self": {
              "name": "Venta al por menor de juguetes, artículos de deporte",
              "href": "https://api.euskadi.eus/procurements/companies/economic-activities/1.659.6"
            }
          }
        },
        {
          "id": "1.843.9",
          "name": "Otros servicios técnicos n.c.o.p",
          "_links": {
            "self": {
              "name": "Otros servicios técnicos n.c.o.p",
              "href": "https://api.euskadi.eus/procurements/companies/economic-activities/1.843.9"
            }
          }
        },
        {
          "id": "1.967.1",
          "name": "Instalaciones deportivas",
          "_links": {
            "self": {
              "name": "Instalaciones deportivas",
              "href": "https://api.euskadi.eus/procurements/companies/economic-activities/1.967.1"
            }
          }
        }
      ],
      "certificateStartDate": "2025-12-16",
      "certificateEndDate": "2026-06-09",
      "object": "1.- LA PRESTACIÓN DE SERVICIOS RELACIONADOS CON EL TURISMO ACTIVO, LOS DEPORTES DE AVENTURA Y LOS EVENTOS DEPORTIVOS. ASÍ COMO LA ORGANIZACIÓN DE CAMPAMENTOS, VIAJES DE AVENTURA Y EXPEDICIONES. 2.- LA ENSEÑANZA Y EL FOMENTO DE ACTIVIDADES DEPORTIVO RECREATIVAS, ASÍ COMO EL ESTUDIO DE RUTAS TURÍSTICAS. 3.- LA COMERCIALIZACIÓN Y VENTA DE PRODUCTOS Y MATERIAL DEPORTIVO. 4.- LA PARTICIPACIÓN EN ENTIDADES MERCANTILES CUALESQUIERA QUE SEAN LA FORMA SOCIETARIA QUE ADOPTEN.",
      "mainEntityOfPage": "https://www.contratacion.euskadi.eus/webkpe00-kperoc/es/ac71aBusquedaRegistrosWar/empresa/08304",
      "_links": {
        "self": {
          "name": "UR NOMADE, S.L.",
          "href": "https://api.euskadi.eus/procurements/companies/08304"
        }
      }
    },
    {
      "name": "JOSE RAMON DE LA PARTE ORTEGA",
      "registrationNumber": "07888",
      "identificationNumber": "14605277R",
      "address": "CALLE IGNACIO ZULOAGA, 10 - 5º B",
      "location": {
        "postalCode": "48910",
        "municipality": "Sestao",
        "county": "Bizkaia",
        "municipalityId": "084",
        "countyId": "48"
      },
      "economicActivities": [
        {
          "id": "1.922",
          "name": "Servicios de limpieza",
          "_links": {
            "self": {
              "name": "Servicios de limpieza",
              "href": "https://api.euskadi.eus/procurements/companies/economic-activities/1.922"
            }
          }
        }
      ],
      "certificateStartDate": "2025-12-16",
      "certificateEndDate": "2026-05-27",
      "object": "SERVICIOS DE LIMPIEZA",
      "mainEntityOfPage": "https://www.contratacion.euskadi.eus/webkpe00-kperoc/es/ac71aBusquedaRegistrosWar/empresa/07888",
      "_links": {
        "self": {
          "name": "JOSE RAMON DE LA PARTE ORTEGA",
          "href": "https://api.euskadi.eus/procurements/companies/07888"
        }
      }
    },
    {
      "name": "LANKU BERTSO ZERBITZUAK, S.L.",
      "registrationNumber": "09759",
      "identificationNumber": "B20810693",
      "address": "Subijana etxea, Kale Nagusia 70",
      "location": {
        "postalCode": "20150",
        "municipality": "Villabona",
        "county": "Gipuzkoa",
        "municipalityId": "075",
        "countyId": "20"
      },
      "economicActivities": [
        {
          "id": "1.355.2",
          "name": "Edición de soportes grabados de sonido, vídeo y de informática",
          "_links": {
            "self": {
              "name": "Edición de soportes grabados de sonido, vídeo y de informática",
              "href": "https://api.euskadi.eus/procurements/companies/economic-activities/1.355.2"
            }
          }
        },
        {
          "id": "1.932.1",
          "name": "Enseñanza de formación y perfeccionamiento profesional no superior",
          "_links": {
            "self": {
              "name": "Enseñanza de formación y perfeccionamiento profesional no superior",
              "href": "https://api.euskadi.eus/procurements/companies/economic-activities/1.932.1"
            }
          }
        },
        {
          "id": "1.965.4",
          "name": "Empresas de espectáculos",
          "_links": {
            "self": {
              "name": "Empresas de espectáculos",
              "href": "https://api.euskadi.eus/procurements/companies/economic-activities/1.965.4"
            }
          }
        }
      ],
      "certificateStartDate": "2025-12-16",
      "certificateEndDate": "2026-06-09",
      "object": "LA PRODUCCIÓN, REALIZACIÓN, DIFUSIÓN Y FOMENTO DE ACTIVIDADES CULTURALES, DE OCIO Y EDUCATIVAS, PRINCIPALMENTE LAS RELACIONADAS CON EL BERSOLARISMO VASCO Y LA IMPROVISACIÓN ORAL Y SERVICIOS PARA LA CONTRATACIÓN DE MEDIOS HUMASNO Y MATERIALES PARA ORGANIZAR DICHAS ACTIVIDADES. DISEÑO Y PRODUCCIÓN DE PUBLICIDAD DE LOS ACTOS ORGANIZADOS Y DE CUALQUIER OTRO QUE REQUIERA DICHO SERVICIO. PRODUCCIÓN, EDICIÓN, DISTRIBUCIÓN Y COMUNICACIÓN PÚBLICA EN CUALQUIERA DE SUS FORMAS, SOPORTES Y PLATAFORMAS PRESENTES Y FUTURAS, INCLUIDA LA DIFUSIÓN VÍA INTERNET. LA REPRESENTACIÓN Y GESTIÓN DE DERECHOS DE IMAGEN Y AUTOR DERIVADOS DE LA ACTUACIÓN PÚBLICAS Y DE LAS OBRAS PUBLICADAS EN CUALQUIERA DE SUS FORMAS, SOPORTES Y PLATAFORMAS, ASÍ COMO TODAS AQUELLAS ACTIVIDADES COMPLEMENTARIAS PARA LA CONSECUCIÓN DEL OBJETIVO SOCIAL.",
      "mainEntityOfPage": "https://www.contratacion.euskadi.eus/webkpe00-kperoc/es/ac71aBusquedaRegistrosWar/empresa/09759",
      "_links": {
        "self": {
          "name": "LANKU BERTSO ZERBITZUAK, S.L.",
          "href": "https://api.euskadi.eus/procurements/companies/09759"
        }
      }
    },
    {
      "name": "SAITEC, S.A.",
      "registrationNumber": "00668",
      "identificationNumber": "A48264725",
      "address": "PARQUE EMPRESARIAL IBARRABARRI. EDIFICIO A-2",
      "location": {
        "postalCode": "48940",
        "municipality": "Leioa",
        "county": "Bizkaia",
        "municipalityId": "054",
        "countyId": "48"
      },
      "economicActivities": [
        {
          "id": "1.151.4",
          "name": "Producción de energía no especificada en otros epígrafes",
          "_links": {
            "self": {
              "name": "Producción de energía no especificada en otros epígrafes",
              "href": "https://api.euskadi.eus/procurements/companies/economic-activities/1.151.4"
            }
          }
        },
        {
          "id": "1.843.1",
          "name": "Servicios técnicos de ingeniería",
          "_links": {
            "self": {
              "name": "Servicios técnicos de ingeniería",
              "href": "https://api.euskadi.eus/procurements/companies/economic-activities/1.843.1"
            }
          }
        }
      ],
      "certificateStartDate": "2025-12-16",
      "certificateEndDate": "2026-05-26",
      "object": "EL DESARROLLO DE ESTUDIOS, PROYECTOS Y SERVICIOS DE INGENIERIA DE TODO TIPO INCLUYENDO TELECOMUNICACIONES, DESARROLLO APLICACIONES INFORMATICAS, INSTALACIONES DE SEGURIDAD Y COMUNICACIONES, COMERCIALIZACIÓN DE PRODUCTOS INFORMÁTICOS Y LA PRESTACIÓN DE PERSONAL Y SERVICIOS A TERCEROS, ELABORACIÓN DE EXPEDIENTES TÉCNICOS DE OBRAS, SUPERVISIÓN DE OBRAS, ELABORACIÓN DE ESTUDIOS DE PREINVERSION, DISEÑO DE PROYECTOS, PERITAJES, INVESTIGACIONES, ESTUDIOS BASICOS, PRELIMINARES Y DEFINITIVOS, ASESORAMIENTO EN LA EJECUCIÓN DE PROYECTOS Y EN LA ELABORACIÓN DE TÉRMINOS DE REFERENCIA, ESPECIFICACIONES TÉCNICAS Y BASES DE DISTINTOS PROCESOS DE SELECCIÓN, ENTRE OTROS.",
      "mainEntityOfPage": "https://www.contratacion.euskadi.eus/webkpe00-kperoc/es/ac71aBusquedaRegistrosWar/empresa/00668",
      "_links": {
        "self": {
          "name": "SAITEC, S.A.",
          "href": "https://api.euskadi.eus/procurements/companies/00668"
        }
      }
    }
  ]
}