{
  "totalItems": 9042,
  "totalPages": 905,
  "currentPage": 423,
  "itemsOfPage": 10,
  "items": [
    {
      "name": "ERROTU TALDEA, SOCIEDAD LIMITADA PROFESIONAL",
      "registrationNumber": "07987",
      "identificationNumber": "B75108431",
      "address": "Bera Bera Pasealekua 75-1 eskubi",
      "location": {
        "postalCode": "20009",
        "municipality": "Donostia / San Sebastián",
        "county": "Gipuzkoa",
        "municipalityId": "069",
        "countyId": "20"
      },
      "economicActivities": [
        {
          "id": "1.843.2",
          "name": "Servicios técnicos de arquitectura y urbanismo",
          "_links": {
            "self": {
              "name": "Servicios técnicos de arquitectura y urbanismo",
              "href": "https://api.euskadi.eus/procurements/companies/economic-activities/1.843.2"
            }
          }
        },
        {
          "id": "1.932.2",
          "name": "Enseñanza de formación y perfeccionamiento profesional superior",
          "_links": {
            "self": {
              "name": "Enseñanza de formación y perfeccionamiento profesional superior",
              "href": "https://api.euskadi.eus/procurements/companies/economic-activities/1.932.2"
            }
          }
        }
      ],
      "certificateStartDate": "2024-05-17",
      "certificateEndDate": "2024-11-04",
      "object": "EJERCICIO EN COMÚN DE LA SIGUIENTE ACTIVIDAD, DE CARÁCTER PROFESIONAL: ARQUITECTURA.",
      "mainEntityOfPage": "https://www.contratacion.euskadi.eus/webkpe00-kperoc/es/ac71aBusquedaRegistrosWar/empresa/07987",
      "_links": {
        "self": {
          "name": "ERROTU TALDEA, SOCIEDAD LIMITADA PROFESIONAL",
          "href": "https://api.euskadi.eus/procurements/companies/07987"
        }
      }
    },
    {
      "name": "TERESA AMELIA MENENDEZ UNZUETA",
      "registrationNumber": "09588",
      "identificationNumber": "15364624A",
      "address": "C/ Marques de valdespina 6 Bajo",
      "location": {
        "postalCode": "48260",
        "municipality": "Ermua",
        "county": "Bizkaia",
        "municipalityId": "034",
        "countyId": "48"
      },
      "economicActivities": [
        {
          "id": "1.659.2",
          "name": "Venta al por menor de muebles de oficina y máquinas y equipos de oficina",
          "_links": {
            "self": {
              "name": "Venta al por menor de muebles de oficina y máquinas y equipos de oficina",
              "href": "https://api.euskadi.eus/procurements/companies/economic-activities/1.659.2"
            }
          }
        }
      ],
      "certificateStartDate": "2024-05-14",
      "certificateEndDate": "2024-11-08",
      "object": "VENTA AL POR MENOR DE MUEBLES DE OFICINA Y MÁQUINAS Y EQUIPOS DE OFICINA.",
      "mainEntityOfPage": "https://www.contratacion.euskadi.eus/webkpe00-kperoc/es/ac71aBusquedaRegistrosWar/empresa/09588",
      "_links": {
        "self": {
          "name": "TERESA AMELIA MENENDEZ UNZUETA",
          "href": "https://api.euskadi.eus/procurements/companies/09588"
        }
      }
    },
    {
      "name": "ERLANTZ BARANDIARAN GARCIA",
      "registrationNumber": "08792",
      "identificationNumber": "16081625W",
      "address": "Avenida Euzko Gudariak 15, 5ºA",
      "location": {
        "postalCode": "48940",
        "municipality": "Leioa",
        "county": "Bizkaia",
        "municipalityId": "054",
        "countyId": "48"
      },
      "economicActivities": [
        {
          "id": "1.474",
          "name": "Artes gráficas (impresión gráfica)",
          "_links": {
            "self": {
              "name": "Artes gráficas (impresión gráfica)",
              "href": "https://api.euskadi.eus/procurements/companies/economic-activities/1.474"
            }
          }
        },
        {
          "id": "1.849.9",
          "name": "Otros servicios independientes n.c.o.p",
          "_links": {
            "self": {
              "name": "Otros servicios independientes n.c.o.p",
              "href": "https://api.euskadi.eus/procurements/companies/economic-activities/1.849.9"
            }
          }
        },
        {
          "id": "1.973.3",
          "name": "Servicios de copias de documentos con máquina fotocopiadora",
          "_links": {
            "self": {
              "name": "Servicios de copias de documentos con máquina fotocopiadora",
              "href": "https://api.euskadi.eus/procurements/companies/economic-activities/1.973.3"
            }
          }
        }
      ],
      "certificateStartDate": "2024-05-14",
      "certificateEndDate": "2024-11-14",
      "object": "SERVICIOS DE COPIAS DE DOCUMENTOS CON MÁQUINA FOTOCOPIADORA. OTROS SERVICIOS INDEPENDIENTES N.C.O.P. SERVICIOS INTEGRALES DE CORREOS Y TELECOMUNICACIONES. ARTES GRÁFICAS (IMPRESIÓN GRÁFICA).",
      "mainEntityOfPage": "https://www.contratacion.euskadi.eus/webkpe00-kperoc/es/ac71aBusquedaRegistrosWar/empresa/08792",
      "_links": {
        "self": {
          "name": "ERLANTZ BARANDIARAN GARCIA",
          "href": "https://api.euskadi.eus/procurements/companies/08792"
        }
      }
    },
    {
      "name": "AAF, S.A.",
      "registrationNumber": "08797",
      "identificationNumber": "A01007756",
      "address": "Calle Urartea 11",
      "location": {
        "postalCode": "01010",
        "municipality": "Vitoria-Gasteiz",
        "county": "Araba/Álava",
        "municipalityId": "059",
        "countyId": "01"
      },
      "economicActivities": [
        {
          "id": "1.313",
          "name": "Tratamiento y recubrimiento de los metales",
          "_links": {
            "self": {
              "name": "Tratamiento y recubrimiento de los metales",
              "href": "https://api.euskadi.eus/procurements/companies/economic-activities/1.313"
            }
          }
        },
        {
          "id": "1.329.9",
          "name": "Construcción de otras máquinas y equipos mecánicos n.c.o.p",
          "_links": {
            "self": {
              "name": "Construcción de otras máquinas y equipos mecánicos n.c.o.p",
              "href": "https://api.euskadi.eus/procurements/companies/economic-activities/1.329.9"
            }
          }
        }
      ],
      "certificateStartDate": "2024-05-13",
      "certificateEndDate": "2024-11-13",
      "object": "LA FABRICACIÓN Y VENTA DE SISTEMAS DE CONTROL DE AMBIENTE, INCLUYENDO LOS CUATRO AMPLIOS CAMPOS DE FILTRACIÓN DE AIRE, CONTROL DE LA CONTAMINACIÓN DEL AIRE, DISPOSITIVOS DE MANEJO DEL AIRE, Y DISPOSITIVOS DE CONTROL DE RUIDOS Y CONTROL DE HUMIDIFICACIÓN; DISEÑO, FABRICACIÓN, MONTAJE Y PUESTA EN MARCHA DE VÁLVULAS INDUSTRIALES PARA CONDUCTOS DE GASES.",
      "mainEntityOfPage": "https://www.contratacion.euskadi.eus/webkpe00-kperoc/es/ac71aBusquedaRegistrosWar/empresa/08797",
      "_links": {
        "self": {
          "name": "AAF, S.A.",
          "href": "https://api.euskadi.eus/procurements/companies/08797"
        }
      }
    },
    {
      "name": "BETI GARBI GARBIKETAK, S.L.",
      "registrationNumber": "09584",
      "identificationNumber": "B16874794",
      "address": "CL ANDRA MARI 3-A",
      "location": {
        "postalCode": "20259",
        "municipality": "Baliarrain",
        "county": "Gipuzkoa",
        "municipalityId": "904",
        "countyId": "20"
      },
      "economicActivities": [
        {
          "id": "1.922.1",
          "name": "Servicios de limpieza de interiores",
          "_links": {
            "self": {
              "name": "Servicios de limpieza de interiores",
              "href": "https://api.euskadi.eus/procurements/companies/economic-activities/1.922.1"
            }
          }
        }
      ],
      "certificateStartDate": "2024-05-13",
      "certificateEndDate": "2024-11-13",
      "object": "ACTIVIDAD DE LIMPIEZA EN GENERAL.",
      "mainEntityOfPage": "https://www.contratacion.euskadi.eus/webkpe00-kperoc/es/ac71aBusquedaRegistrosWar/empresa/09584",
      "_links": {
        "self": {
          "name": "BETI GARBI GARBIKETAK, S.L.",
          "href": "https://api.euskadi.eus/procurements/companies/09584"
        }
      }
    },
    {
      "name": "ANTI ENTERTAINMENT, S.L.",
      "registrationNumber": "09581",
      "identificationNumber": "B87870721",
      "address": "CALLE ESPEJO S/N, PORTAL 2,PLANTA 1,PUERTA DCH",
      "location": {
        "postalCode": "28013",
        "municipality": "Madrid",
        "county": "Madrid",
        "municipalityId": "079",
        "countyId": "28"
      },
      "economicActivities": [
        {
          "id": "1.961.1",
          "name": "Producción de películas cinematográficas (incluso vídeos)",
          "_links": {
            "self": {
              "name": "Producción de películas cinematográficas (incluso vídeos)",
              "href": "https://api.euskadi.eus/procurements/companies/economic-activities/1.961.1"
            }
          }
        }
      ],
      "certificateStartDate": "2024-05-13",
      "certificateEndDate": "2024-11-13",
      "object": "A) . - ACTIVIDAD PRINCIPAL: LA CREACIÓN, ORGANIZACIÓN Y EXPLOTACIÓN DE ACTIVIDADES CULTURALES, LÚDICAS, DEPORTIVAS, EVENTOS, CONGRESOS, SEMINARIOS, FERIAS Y EXPOSICIONES, PERMANENTE U OCASIONALMENTE; Y LAS ACTIVIDADES DE RELACIONES PÚBLICAS, PRODUCCIÓN AUDIOVISUAL, ALQUILER DE EQUIPOS AUDIOVISUALES, SERVICIOS LOGÍSTICOS, DISEÑO, PRODUCCIÓN, COMERCIALIZACIÓN DE PRODUCTOS TECNOLÓGICOS, DISEÑO DE ESTRATEGIAS DE MARKETING Y CREATIVAS, Y ONLINE, CONTRATACIÓN DE TALENTO, COMERCIALIZACIÓN, ORGANIZACIÓN, PRODUCCIÓN Y DIFUSIÓN DE ESPECTÁCULOS. B) . - OTRAS ACTIVIDADES:  A) . - EN GENERAL, LA ENSEÑANZA. B) . - TODA CLASE DE ACTIVIDADES EN LOS RAMOS DE LA MEDICINA, LA ODONTOLOGÍA, LA PSIQUIATRÍA, LA PSICOLOGÍA, EL DERECHO, LA INGENIERÍA Y LA ARQUITECTURA, MEDIANTE LA CONTRATACIÓN AL EFECTO DE LOS PROFESIONALES, YA SEAN PERSONAS FÍSICAS O JURÍDICAS, QUE LEGAL O REGLAMENTARIAMENTE TENGAN ATRIBUIDA COMPETENCIA PARA EL EJERCICIO DE TALES ACTIVIDADES. C) . - LA REALIZACIÓN DE ESTUDIOS ECONÓMICOS, FINANCIEROS, FISCALES, CONTABLES, JURÍDICOS, DE MERCADO, SOCIOLÓGICOS, TECNOLÓGICOS, DE MERCADOTECNIA Y SOBRE ASUNTOS RELACIONADOS CON EL DESARROLLO DE PROYECTOS O SOCIEDADES EMPRESARIALES, MERCANTILES E INDUSTRIALES. D) . - EL ASESORAMIENTO A TERCEROS SOBRES LAS MATERIAS DEL EPÍGRAFE ANTERIOR, CONTRATANDO AL EFECTO, SI FUERE NECESARIO, LOS PROFESIONALES, YA SEAN PERSONAS FÍSICAS O JURÍDICAS, QUE LEGAL O REGLAMENTARIAMENTE TENGAN ATRIBUIDA COMPETENCIA PARA EL EJERCICIO DE TALES ACTIVIDADES. E) . - LA CREACIÓN, MANTENIMIENTO Y EXPLOTACIÓN DE PÁGINAS Y PORTALES EN INTERNET; OFRECER SERVICIOS DE HOSPEDAJE Y MANTENIMIENTO DE PÁGINAS Y PORTALES, DE INTERMEDIACIÓN EN EL REGISTRO DE DOMINIOS Y DE CORREO ELECTRÓNICO Y DE COMUNICACIÓN MEDIANTE INTERNET; Y LAS ACTIVIDADES DE LOS RAMOS DEL DISEÑO CONVENCIONAL Y TECNOLÓGICO Y DE LA PUBLICIDAD Y LA INTERMEDIACIÓN COMERCIAL EN ESTOS RAMOS DE ACTIVIDAD. F) . - PROMOVER Y GESTIONAR, PARA SÍ Y PARA TERCEROS, PROYECTOS TECNOLÓGICOS, MERCANTILES E INDUSTRIALES POR LOS QUE SE VIENE OBLIGADO EN ESPAÑA AL PAGO DEL IMPUESTO SOBRE ACTIVIDADES ECONÓMICAS. G) . - LA COMPRA, VENTA, AL POR MAYOR Y AL POR MENOR, DE AQUELLOS BIENES MUEBLES PARA CUYA COMPRA Y VENTA CON CARÁCTE4R MERCANTIL SE VIENE OBLIGADO AL PAGO, EN ESPAÑA, DEL IMPUESTO SOBRE ACTIVIDADES ECONÓMICAS. H) . - LA COMPRA, VENTA, POR CUENTA E INTERÉS PROPIO, DE ACCIONES, PARTICIPACIONES Y, EN GENERAL, DE ACTIVOS Y VALORES FINANCIEROS, EMPRESARIALES O DE CUALQUIER OTRA CLASE, CON INTERVENCIÓN, EN SU CASO, DE LOS MEDIADORES QUE LEGAL O REGLAMENTARIAMENTE DEBAN HACERLO. I) . - LA CREACIÓN, DIRECCIÓN Y APROVECHAMIENTO COMERCIAL DE REDES DE DISTRIBUCIÓN Y VENTA. J) . - EL ALMACENAMIENTO Y DISTRIBUCIÓN DE TODA CLASE DE MERCANCÍAS. K) . - LA INSTALACIÓN Y EXPLOTACIÓN COMERCIAL DE COMERCIOS MAYORISTAS Y MINORISTAS CON ACTIVIDADES POR CUYO EJERCICIO SE VIENE OBLIGO, EN ESPAÑA, AL PAGO DEL IMPUESTO SOBRE ACTIVIDADES ECONÓMICAS. L) . - LAS ACTIVIDADES DEL RAMO DE LAS TELECOMUNICACIONES, INCLUIDA LA FABRICACIÓN, IMPORTACIÓN, EXPORTACIÓN, DISTRIBUCIÓN, VENTA E INSTALACIÓN DE MATERIALES Y ELEMENTOS, LA CREACIÓN E INSTALACIÓN DE REDES, EL ASESORAMIENTO A TERCEROS Y LA INTERMEDIACIÓN COMERCIAL EN EL SECTOR. M) . - LAS ACTIVIDADES PROPIAS DEL RAMO DE LA INFORMÁTICA, INCLUIDA LA FABRICACIÓN, IMPORTACIÓN, EXPORTACIÓN, DISTRIBUCIÓN, VENTA E INSTALACIÓN DE MATERIALES Y ELEMENTOS, EL ASESORAMIENTO A TERCEROS Y LA INTERMEDIACIÓN COMERCIAL EN EL SECTOR. N) . - EL DESARROLLO DE ACTIVIDADES COMERCIALES PROPIAS DE LAS GRANDES SUPERFICIES, GRANDES ALMACENES E HIPERMERCADOS LO MISMO DESARROLLÁNDOLAS CONJUNTAMENTE EN UN SOLO ESTABLECIMIENTO QUE CADA UNA DE TALES ACTIVIDADES POR SEPARADO. O) . - LA IMPORTACIÓN Y LA EXPORTACIÓN DE MERCADERÍAS APTAS PARA EL DESARROLLO DE LAS ACTIVIDADES DEL EPÍGRAFE ANTERIOR. P) . - LA PRESTACIÓN DE SERVICIOS DE LAS CLASES POR CUYA PRESTACIÓN SE VIENE OBLIGO, EN ESPAÑA, AL PAGO DEL IMPUESTO SOBRE ACTIVIDADES ECONÓMICAS. Q) . - LAS ACTIVIDADES PROPIAS DEL RAMO DE HOSTELERÍA, INCLUSO EXPLOTAR ESTABLECIMIENTOS DE DICHO RAMO, DIRECTAMENTE O POR CONTRATA O CONCESIÓN DE ENTIDADES PÚBLICAS Y PRIVADAS; Y LAS DEL RAMO DE LA ALIMENTACIÓN, INCLUIDA LA IMPORTACIÓN, EXPORTACIÓN, DISTRIBUCIÓN Y VENTA, AL POR MAYOR Y AL POR MENOR. R) . - LA EDICIÓN DE LIBROS Y PUBLICACIONES PERIÓDICAS O UNITARIAS, Y LAS ACTIVIDADES DEL RAMO DE LAS ARTES GRÁFICAS; LA PRODUCCIÓN DE PELÍCULAS Y SU COMERCIALIZACIÓN, EXHIBICIÓN Y EXPLOTACIÓN; LA REPRESENTACIÓN DE CREADORES, ARTISTAS Y MODELOS; Y LA CREACIÓN Y PRODUCCIÓN DE PROGRAMAS PARA RADIO, TELEVISIÓN Y CUALQUIER OTRO MEDIO DE DIFUSIÓN GENERAL; Y LA ADQUISICIÓN Y EXPLOTACIÓN E INTERMEDIACIÓN EN SU COMPRAVENTA DE DERECHOS DE PROPIEDAD INTELECTUAL E INDUSTRIAL. S) . - EL TRANSPORTE DE VIAJEROS Y MERCANCÍAS Y LAS ACTIVIDADES DEL RAMO DE LA AUTOMOCIÓN, AÉREA, TERRESTRE Y MARÍTIMA, INCLUIDA LA INTERMEDIACIÓN Y REPRESENTACIÓN, LA FABRICACIÓN DE COMPONENTES Y ACCESORIOS, LAS TAREAS DE REPARACIÓN Y MANTENIMIENTO Y LA COMPRA, VENTA, IMPORTACIÓN Y EXPORTACIÓN DE TODA CLASE DE VEHÍCULOS, COMPONENTES Y ACCESORIOS. - LA COMPRAVENTA Y ALQUILER DE TODO TIPO DE MAQUINARIA. T) . - LA PROMOCIÓN INMOBILIARIA, CONSTRUCCIÓN Y OFICIOS PROPIOS DE LA MISMA, LAS INSTALACIONES ELÉCTRICAS Y DE GAS Y LOS MONTAJES ELÉCTRICOS A CUALQUIER NIVEL (ALTA, MEDIA Y BAJA TENSIÓN); LAS OBRAS PÚBLICAS Y EL URBANISMO; Y EL ASESORAMIENTO A COOPERATIVAS Y COMUNIDADES DE VIVIENDAS EN LAS ACTIVIDADES PROPIAS DE LAS MISMAS Y LA GESTIÓN DE SUS PROMOCIONES Y CONSTRUCCIONES. U) . - LA ADQUISICIÓN Y LA CESIÓN Y TRANSMISIÓN Y LA EXPLOTACIÓN EN CUALQUIER FORMA LEGAL DE BIENES INMUEBLES RÚSTICOS Y URBANOS; Y LAS ACTIVIDADES AGRÍCOLAS Y GANADERAS. V) . - PRESTAR A TERCEROS SERVICIOS DE GESTIÓN DE LAS DIVERSAS ACTIVIDADES QUE INTEGRAL EL OBJETO SOCIAL DE LA COMPAÑÍA, RELACIONADAS ANTERIORMENTE.",
      "mainEntityOfPage": "https://www.contratacion.euskadi.eus/webkpe00-kperoc/es/ac71aBusquedaRegistrosWar/empresa/09581",
      "_links": {
        "self": {
          "name": "ANTI ENTERTAINMENT, S.L.",
          "href": "https://api.euskadi.eus/procurements/companies/09581"
        }
      }
    },
    {
      "name": "GISLAN GEOGRAPHIC APPLICATIONS KOOP ELK",
      "registrationNumber": "09073",
      "identificationNumber": "F75006577",
      "address": "Gudairen etorbidea 29",
      "location": {
        "postalCode": "20140",
        "municipality": "Andoain",
        "county": "Gipuzkoa",
        "municipalityId": "009",
        "countyId": "20"
      },
      "economicActivities": [
        {
          "id": "1.843.1",
          "name": "Servicios técnicos de ingeniería",
          "_links": {
            "self": {
              "name": "Servicios técnicos de ingeniería",
              "href": "https://api.euskadi.eus/procurements/companies/economic-activities/1.843.1"
            }
          }
        }
      ],
      "certificateStartDate": "2024-05-12",
      "certificateEndDate": "2024-11-12",
      "object": "GEOGRAFIA ETA DATUEN ZIENTZIA OSAGARRIA DUTEN AHOLKULARITZA ZERBITZUAK EMATEA EZAGUTZA SORTZEKO HELBURUEKIN. ZERBITZU HORIEK HONAKOAK IZAN DAITEZKE: TEKNOLOGIA-PROIEKTUEN GARAPENA, IKERKETAK BURUTZEA DATUEN USTIAPEN ETA ANALISIAREN BIDEZ, PRESTAKUNTZA ETA AHOLKULARITZA, I+G.",
      "mainEntityOfPage": "https://www.contratacion.euskadi.eus/webkpe00-kperoc/es/ac71aBusquedaRegistrosWar/empresa/09073",
      "_links": {
        "self": {
          "name": "GISLAN GEOGRAPHIC APPLICATIONS KOOP ELK",
          "href": "https://api.euskadi.eus/procurements/companies/09073"
        }
      }
    },
    {
      "name": "M. J. KENDALL, S.L.",
      "registrationNumber": "09322",
      "identificationNumber": "B81383226",
      "address": "CALLE MAR DE ALBORAN, 4",
      "location": {
        "postalCode": "28221",
        "municipality": "Majadahonda",
        "county": "Madrid",
        "municipalityId": "080",
        "countyId": "28"
      },
      "economicActivities": [
        {
          "id": "1.844",
          "name": "Servicios de publicidad, relaciones públicas y similares",
          "_links": {
            "self": {
              "name": "Servicios de publicidad, relaciones públicas y similares",
              "href": "https://api.euskadi.eus/procurements/companies/economic-activities/1.844"
            }
          }
        }
      ],
      "certificateStartDate": "2024-05-12",
      "certificateEndDate": "2024-11-12",
      "object": "A) EDICIÓN DE LIBROS, GUÍAS Y CATÁLOGOS. B) INTERMEDIARIOS DE COMERCIO, PONIENDO EN RELACIÓN A COMPRADOR Y VENDEDOR, O BIEN REALIZAR ACTOS DE COMERCIO POR CUENTA DE SUS COMITENTES, EN TODAS LAS FASES DE LA COMERCIALIZACIÓN DE TODA CLASE DE LOS PRODUCTOS Y SERVICIOS INTEGRALES QUE SIRVAN COMO COMPLEMENTO A LAS EMPRESAS, TALES COMO SERVICIOS DE ARTES GRÁFICAS, MENSAJERÍA, PROMOCIONES Y REGALOS PUBLICITARIOS, MANTENIMIENTO Y LIMPIEZA DE OFICIAS, SERVICIO DE CATERING Y DECORACIÓN. C) PRESTACIÓN DE SERVICIOS DE PUBLICIDAD, MEDIANTE ANUNCIOS, CARTELES, PELÍCULAS PUBLICITARIAS, A TRAVÉS DE PRENSA, RADIO, TELEVISIÓN, PUBLICIDAD AÉREA U OTROS MEDIOS; CREACIÓN Y DIFUSIÓN DE ANUNCIOS O CAMPAÑAS DE INFORMACIÓN PUBLICITARIA, PROPAGANDA ELECTORAL, COMUNICACIÓN INSTITUCIONAL O PÚBLICA E IMAGEN CORPORATIVA, EXCLUSIVISTAS DE MEDIOS PUBLICITARIOS, PUBLICIDAD EXTERIOR, PUBLICIDAD DIRECTA Y MARKETING DIRECTO, DISTRIBUIDORAS Y CENTRALES DE COMPRAS, ESTUDIOS DE PUBLICIDAD, RELACIONES PÚBLICAS, PROMOCIÓN DE VENTAS PUBLICITARIAS, REGALOS Y RECLAMOS PUBLICITARIOS. D) REALIZACIÓN DE ESTUDIOS DE MERCADO, ESTUDIOS DE OPINIÓN, DE HÁBITOS DE CO9MPRA Y SERVICIOS DE INFOR5MACIÓN E INVESTIGACIÓN COMERCIAL.",
      "mainEntityOfPage": "https://www.contratacion.euskadi.eus/webkpe00-kperoc/es/ac71aBusquedaRegistrosWar/empresa/09322",
      "_links": {
        "self": {
          "name": "M. J. KENDALL, S.L.",
          "href": "https://api.euskadi.eus/procurements/companies/09322"
        }
      }
    },
    {
      "name": "JONE EPELDE CIARAN Y OTRO",
      "registrationNumber": "07014",
      "identificationNumber": "J75235101",
      "address": "Herrikobarra 15, behea",
      "location": {
        "postalCode": "20800",
        "municipality": "Zarautz",
        "county": "Gipuzkoa",
        "municipalityId": "079",
        "countyId": "20"
      },
      "economicActivities": [
        {
          "id": "1.843.9",
          "name": "Otros servicios técnicos n.c.o.p",
          "_links": {
            "self": {
              "name": "Otros servicios técnicos n.c.o.p",
              "href": "https://api.euskadi.eus/procurements/companies/economic-activities/1.843.9"
            }
          }
        },
        {
          "id": "1.847",
          "name": "Servicios de consultoría",
          "_links": {
            "self": {
              "name": "Servicios de consultoría",
              "href": "https://api.euskadi.eus/procurements/companies/economic-activities/1.847"
            }
          }
        }
      ],
      "certificateStartDate": "2024-05-09",
      "certificateEndDate": "2024-11-09",
      "object": "LA ELABORACIÓN DE PROYECTOS DE SEÑALIZACIÓN, SERVICIOS DE EDICIÓN Y EDITORIAL Y LABORES DE FORMACIÓN MEDIOAMBIENTAL",
      "mainEntityOfPage": "https://www.contratacion.euskadi.eus/webkpe00-kperoc/es/ac71aBusquedaRegistrosWar/empresa/07014",
      "_links": {
        "self": {
          "name": "JONE EPELDE CIARAN Y OTRO",
          "href": "https://api.euskadi.eus/procurements/companies/07014"
        }
      }
    },
    {
      "name": "MARTA GATELL ALBALADEJO",
      "registrationNumber": "04634",
      "identificationNumber": "51368984W",
      "address": "Ctra. Bilbao-Galdakao, 30-3º",
      "location": {
        "postalCode": "48004",
        "municipality": "Bilbao",
        "county": "Bizkaia",
        "municipalityId": "020",
        "countyId": "48"
      },
      "economicActivities": [
        {
          "id": "1.475",
          "name": "Actividades anexas a las artes gráficas",
          "_links": {
            "self": {
              "name": "Actividades anexas a las artes gráficas",
              "href": "https://api.euskadi.eus/procurements/companies/economic-activities/1.475"
            }
          }
        },
        {
          "id": "2.826",
          "name": "Personal docente de enseñanzas diversas",
          "_links": {
            "self": {
              "name": "Personal docente de enseñanzas diversas",
              "href": "https://api.euskadi.eus/procurements/companies/economic-activities/2.826"
            }
          }
        },
        {
          "id": "2.862",
          "name": "Restauradores de obras de arte",
          "_links": {
            "self": {
              "name": "Restauradores de obras de arte",
              "href": "https://api.euskadi.eus/procurements/companies/economic-activities/2.862"
            }
          }
        }
      ],
      "certificateStartDate": "2024-05-09",
      "certificateEndDate": "2024-10-29",
      "object": "CONSERVACIÓN Y RESTAURACIÓN DE DOCUMENTOS Y ENCUADERNACIONES HISTÓRICAS",
      "mainEntityOfPage": "https://www.contratacion.euskadi.eus/webkpe00-kperoc/es/ac71aBusquedaRegistrosWar/empresa/04634",
      "_links": {
        "self": {
          "name": "MARTA GATELL ALBALADEJO",
          "href": "https://api.euskadi.eus/procurements/companies/04634"
        }
      }
    }
  ]
}