{
  "totalItems": 9042,
  "totalPages": 905,
  "currentPage": 578,
  "itemsOfPage": 10,
  "items": [
    {
      "name": "ALTALINGUA, S.L.",
      "registrationNumber": "06956",
      "identificationNumber": "B84470020",
      "address": "Plaza de Pedro Zerolo, 11. 1ºA",
      "location": {
        "postalCode": "28004",
        "municipality": "Madrid",
        "county": "Madrid",
        "municipalityId": "079",
        "countyId": "28"
      },
      "economicActivities": [
        {
          "id": "1.849.3",
          "name": "Servicios de traducción y similares",
          "_links": {
            "self": {
              "name": "Servicios de traducción y similares",
              "href": "https://api.euskadi.eus/procurements/companies/economic-activities/1.849.3"
            }
          }
        }
      ],
      "certificateStartDate": "2020-04-17",
      "certificateEndDate": "2020-07-20",
      "object": "LA PRESTACIÓN DE SERVICIOS DE TRADUCCIONES EN TODAS SUS MODALIDADES E IDIOMAS, YA SEA DE MANERA PRESENCIAL O A DISTANCIA, A TRAVÉS DE CUALQUIER MEDIO, INCLUSO AUDIOVISUALES, INFORMÁTICOS, TELEMÁTICOS Y DEMÁS TECNOLOGÍAS DE LA INFORMACIÓN, INCLUIDA LA RED INTERNET",
      "mainEntityOfPage": "https://www.contratacion.euskadi.eus/webkpe00-kperoc/es/ac71aBusquedaRegistrosWar/empresa/06956",
      "_links": {
        "self": {
          "name": "ALTALINGUA, S.L.",
          "href": "https://api.euskadi.eus/procurements/companies/06956"
        }
      }
    },
    {
      "name": "BORCHERS, S.A.",
      "registrationNumber": "06958",
      "identificationNumber": "A48049415",
      "address": "POLIGONO INDUSTRIAL TXAPORTA, 22-B",
      "location": {
        "postalCode": "48300",
        "municipality": "Gernika-Lumo",
        "county": "Bizkaia",
        "municipalityId": "046",
        "countyId": "48"
      },
      "economicActivities": [
        {
          "id": "1.619.1",
          "name": "Venta al por mayor de juguetes y artículos de deporte",
          "_links": {
            "self": {
              "name": "Venta al por mayor de juguetes y artículos de deporte",
              "href": "https://api.euskadi.eus/procurements/companies/economic-activities/1.619.1"
            }
          }
        }
      ],
      "certificateStartDate": "2020-04-17",
      "certificateEndDate": "2020-07-29",
      "object": "LA COMPRAVENTA, IMPORTACIÓN Y EXPORTACIÓN DE ARTÍCULOS DEPORTIVOS, ARMAS Y MUNICIONES, INSTRUMENTOS DE ÓPTICA, MARROQUINERÍA, JUGUETERÍA Y MAQUINARIA PEQUEÑA, Y DEMÁS ARTÍCULOS COMPLEMENTARIOS\r\n",
      "mainEntityOfPage": "https://www.contratacion.euskadi.eus/webkpe00-kperoc/es/ac71aBusquedaRegistrosWar/empresa/06958",
      "_links": {
        "self": {
          "name": "BORCHERS, S.A.",
          "href": "https://api.euskadi.eus/procurements/companies/06958"
        }
      }
    },
    {
      "name": "CONSTRUCCIONES IRURETA, S.L.",
      "registrationNumber": "02700",
      "identificationNumber": "B20083853",
      "address": "AVENIDA DE ORIA, 10 - PLANTA 5 - OFICINA 503",
      "location": {
        "postalCode": "20160",
        "municipality": "Lasarte-Oria",
        "county": "Gipuzkoa",
        "municipalityId": "902",
        "countyId": "20"
      },
      "economicActivities": [
        {
          "id": "1.501.1",
          "name": "Construcción completa, reparación y conservación de edificaciones",
          "_links": {
            "self": {
              "name": "Construcción completa, reparación y conservación de edificaciones",
              "href": "https://api.euskadi.eus/procurements/companies/economic-activities/1.501.1"
            }
          }
        },
        {
          "id": "1.833.2",
          "name": "Promoción de edificaciones",
          "_links": {
            "self": {
              "name": "Promoción de edificaciones",
              "href": "https://api.euskadi.eus/procurements/companies/economic-activities/1.833.2"
            }
          }
        }
      ],
      "certificateStartDate": "2020-04-14",
      "certificateEndDate": "2020-06-19",
      "classification": [
        {
          "id": "O",
          "name": "Obras",
          "groups": [
            {
              "id": "A",
              "name": "MOVIMIENTO DE TIERRAS Y PERFORACIONES",
              "subgroups": [
                {
                  "id": "01",
                  "name": "DESMONTES Y VACIADOS",
                  "categories": [
                    {
                      "id": "4",
                      "name": "Desde 840.001 Hasta 2.400.000",
                      "_links": {
                        "self": {
                          "name": "Desde 840.001 Hasta 2.400.000",
                          "href": "https://api.euskadi.eus/procurements/companies/types/O/categories/4"
                        }
                      }
                    }
                  ],
                  "_links": {
                    "self": {
                      "name": "DESMONTES Y VACIADOS",
                      "href": "https://api.euskadi.eus/procurements/companies/types/O/groups/A/subgroups/01"
                    }
                  }
                }
              ],
              "_links": {
                "self": {
                  "name": "MOVIMIENTO DE TIERRAS Y PERFORACIONES",
                  "href": "https://api.euskadi.eus/procurements/companies/types/O/groups/A"
                }
              }
            },
            {
              "id": "C",
              "name": "EDIFICACIONES",
              "subgroups": [
                {
                  "id": "01",
                  "name": "DEMOLICIONES",
                  "categories": [
                    {
                      "id": "6",
                      "name": "Mas de 5.000.000",
                      "_links": {
                        "self": {
                          "name": "Mas de 5.000.000",
                          "href": "https://api.euskadi.eus/procurements/companies/types/O/categories/6"
                        }
                      }
                    }
                  ],
                  "_links": {
                    "self": {
                      "name": "DEMOLICIONES",
                      "href": "https://api.euskadi.eus/procurements/companies/types/O/groups/C/subgroups/01"
                    }
                  }
                },
                {
                  "id": "02",
                  "name": "ESTRUCTURAS DE FABRICA U HORMIGÓN",
                  "categories": [
                    {
                      "id": "6",
                      "name": "Mas de 5.000.000",
                      "_links": {
                        "self": {
                          "name": "Mas de 5.000.000",
                          "href": "https://api.euskadi.eus/procurements/companies/types/O/categories/6"
                        }
                      }
                    }
                  ],
                  "_links": {
                    "self": {
                      "name": "ESTRUCTURAS DE FABRICA U HORMIGÓN",
                      "href": "https://api.euskadi.eus/procurements/companies/types/O/groups/C/subgroups/02"
                    }
                  }
                },
                {
                  "id": "03",
                  "name": "ESTRUCTURAS METALICAS",
                  "categories": [
                    {
                      "id": "6",
                      "name": "Mas de 5.000.000",
                      "_links": {
                        "self": {
                          "name": "Mas de 5.000.000",
                          "href": "https://api.euskadi.eus/procurements/companies/types/O/categories/6"
                        }
                      }
                    }
                  ],
                  "_links": {
                    "self": {
                      "name": "ESTRUCTURAS METALICAS",
                      "href": "https://api.euskadi.eus/procurements/companies/types/O/groups/C/subgroups/03"
                    }
                  }
                },
                {
                  "id": "04",
                  "name": "ALBAÑILERIA, REVOCOS Y REVESTIDOS",
                  "categories": [
                    {
                      "id": "6",
                      "name": "Mas de 5.000.000",
                      "_links": {
                        "self": {
                          "name": "Mas de 5.000.000",
                          "href": "https://api.euskadi.eus/procurements/companies/types/O/categories/6"
                        }
                      }
                    }
                  ],
                  "_links": {
                    "self": {
                      "name": "ALBAÑILERIA, REVOCOS Y REVESTIDOS",
                      "href": "https://api.euskadi.eus/procurements/companies/types/O/groups/C/subgroups/04"
                    }
                  }
                },
                {
                  "id": "05",
                  "name": "CANTERIA Y MARMOLERIA",
                  "categories": [
                    {
                      "id": "6",
                      "name": "Mas de 5.000.000",
                      "_links": {
                        "self": {
                          "name": "Mas de 5.000.000",
                          "href": "https://api.euskadi.eus/procurements/companies/types/O/categories/6"
                        }
                      }
                    }
                  ],
                  "_links": {
                    "self": {
                      "name": "CANTERIA Y MARMOLERIA",
                      "href": "https://api.euskadi.eus/procurements/companies/types/O/groups/C/subgroups/05"
                    }
                  }
                },
                {
                  "id": "06",
                  "name": "PAVIMENTOS, SOLADOS Y ALICATADOS",
                  "categories": [
                    {
                      "id": "6",
                      "name": "Mas de 5.000.000",
                      "_links": {
                        "self": {
                          "name": "Mas de 5.000.000",
                          "href": "https://api.euskadi.eus/procurements/companies/types/O/categories/6"
                        }
                      }
                    }
                  ],
                  "_links": {
                    "self": {
                      "name": "PAVIMENTOS, SOLADOS Y ALICATADOS",
                      "href": "https://api.euskadi.eus/procurements/companies/types/O/groups/C/subgroups/06"
                    }
                  }
                },
                {
                  "id": "07",
                  "name": "AISLAMIENTOS E IMPERMEABILIZACIONES",
                  "categories": [
                    {
                      "id": "6",
                      "name": "Mas de 5.000.000",
                      "_links": {
                        "self": {
                          "name": "Mas de 5.000.000",
                          "href": "https://api.euskadi.eus/procurements/companies/types/O/categories/6"
                        }
                      }
                    }
                  ],
                  "_links": {
                    "self": {
                      "name": "AISLAMIENTOS E IMPERMEABILIZACIONES",
                      "href": "https://api.euskadi.eus/procurements/companies/types/O/groups/C/subgroups/07"
                    }
                  }
                },
                {
                  "id": "08",
                  "name": "CARPINTERIA DE MADERA",
                  "categories": [
                    {
                      "id": "6",
                      "name": "Mas de 5.000.000",
                      "_links": {
                        "self": {
                          "name": "Mas de 5.000.000",
                          "href": "https://api.euskadi.eus/procurements/companies/types/O/categories/6"
                        }
                      }
                    }
                  ],
                  "_links": {
                    "self": {
                      "name": "CARPINTERIA DE MADERA",
                      "href": "https://api.euskadi.eus/procurements/companies/types/O/groups/C/subgroups/08"
                    }
                  }
                },
                {
                  "id": "09",
                  "name": "CARPINTERIA METALICA",
                  "categories": [
                    {
                      "id": "6",
                      "name": "Mas de 5.000.000",
                      "_links": {
                        "self": {
                          "name": "Mas de 5.000.000",
                          "href": "https://api.euskadi.eus/procurements/companies/types/O/categories/6"
                        }
                      }
                    }
                  ],
                  "_links": {
                    "self": {
                      "name": "CARPINTERIA METALICA",
                      "href": "https://api.euskadi.eus/procurements/companies/types/O/groups/C/subgroups/09"
                    }
                  }
                }
              ],
              "_links": {
                "self": {
                  "name": "EDIFICACIONES",
                  "href": "https://api.euskadi.eus/procurements/companies/types/O/groups/C"
                }
              }
            }
          ],
          "_links": {
            "self": {
              "name": "Obras",
              "href": "https://api.euskadi.eus/procurements/companies/types/O"
            }
          }
        }
      ],
      "object": "REALIZACION DE OBRAS Y TRABAJOS DE ALBAÑILERIA, CONSTRUCCION, REPARACION Y MODIFICACION DE EDIFICIOS Y EN GENERAL LAS REALIZACION DE TODAS LAS OBRAS Y TRABAJOS PROPIAS DEL RAMO DE LA CONSTRUCCION, ASI COMO ACTIVIDADES DERIVADAS DE LAS ANTERIORES O RELACIONADAS CON LAS MISMAS.\n",
      "mainEntityOfPage": "https://www.contratacion.euskadi.eus/webkpe00-kperoc/es/ac71aBusquedaRegistrosWar/empresa/02700",
      "_links": {
        "self": {
          "name": "CONSTRUCCIONES IRURETA, S.L.",
          "href": "https://api.euskadi.eus/procurements/companies/02700"
        }
      }
    },
    {
      "name": "QUARTAN IRUDI ZERBITZUAK, S.L.",
      "registrationNumber": "06947",
      "identificationNumber": "B75150235",
      "address": "Donostia ibilbidea 88-1. Póligono Bidebitarte",
      "location": {
        "postalCode": "20115",
        "municipality": "Astigarraga",
        "county": "Gipuzkoa",
        "municipalityId": "903",
        "countyId": "20"
      },
      "economicActivities": [
        {
          "id": "1.961.1",
          "name": "Producción de películas cinematográficas (incluso vídeos)",
          "_links": {
            "self": {
              "name": "Producción de películas cinematográficas (incluso vídeos)",
              "href": "https://api.euskadi.eus/procurements/companies/economic-activities/1.961.1"
            }
          }
        }
      ],
      "certificateStartDate": "2020-04-14",
      "certificateEndDate": "2020-09-16",
      "object": "PRODUCCIÓN, REALIZACIÓN Y POSTPRODUCCIÓN DE VÍDEO Y AUDIO",
      "mainEntityOfPage": "https://www.contratacion.euskadi.eus/webkpe00-kperoc/es/ac71aBusquedaRegistrosWar/empresa/06947",
      "_links": {
        "self": {
          "name": "QUARTAN IRUDI ZERBITZUAK, S.L.",
          "href": "https://api.euskadi.eus/procurements/companies/06947"
        }
      }
    },
    {
      "name": "TENATALDE, S.L.",
      "registrationNumber": "06935",
      "identificationNumber": "B20773891",
      "address": "MATEO ERROTA, 3 PLANTA ALTA PABELLON 3",
      "location": {
        "postalCode": "20014",
        "municipality": "Donostia / San Sebastián",
        "county": "Gipuzkoa",
        "municipalityId": "069",
        "countyId": "20"
      },
      "economicActivities": [
        {
          "id": "1.501.1",
          "name": "Construcción completa, reparación y conservación de edificaciones",
          "_links": {
            "self": {
              "name": "Construcción completa, reparación y conservación de edificaciones",
              "href": "https://api.euskadi.eus/procurements/companies/economic-activities/1.501.1"
            }
          }
        }
      ],
      "certificateStartDate": "2020-04-06",
      "certificateEndDate": "2020-09-03",
      "object": "LA PROMOCIÓN INMOBILIARIA, LA REALIZACIÓN DE OBRAS DE CONSTRUCCIÓN Y REFORMA DE INMUEBLES Y LA ADQUISICIÓN, TENENCIA, DISFRUTE, ADMINISTRACIÓN, CESIÓN Y ENAJENACIÓN, EN NOMBRE PROPIO Y POR CUALQUIER TÍTULO, DE TODA CLASE DE VALORES MOBILIARIOS E INMUEBLES.",
      "mainEntityOfPage": "https://www.contratacion.euskadi.eus/webkpe00-kperoc/es/ac71aBusquedaRegistrosWar/empresa/06935",
      "_links": {
        "self": {
          "name": "TENATALDE, S.L.",
          "href": "https://api.euskadi.eus/procurements/companies/06935"
        }
      }
    },
    {
      "name": "MARIA JOSE URTEAGA PEÑA",
      "registrationNumber": "06937",
      "identificationNumber": "15959361Y",
      "address": "MENDILAUTA 7A 1B",
      "location": {
        "postalCode": "20800",
        "municipality": "Zarautz",
        "county": "Gipuzkoa",
        "municipalityId": "079",
        "countyId": "20"
      },
      "economicActivities": [
        {
          "id": "2.899",
          "name": "Otros profesionales",
          "_links": {
            "self": {
              "name": "Otros profesionales",
              "href": "https://api.euskadi.eus/procurements/companies/economic-activities/2.899"
            }
          }
        }
      ],
      "certificateStartDate": "2020-04-06",
      "certificateEndDate": "2020-06-26",
      "object": "OTROS PROFESIONALES",
      "mainEntityOfPage": "https://www.contratacion.euskadi.eus/webkpe00-kperoc/es/ac71aBusquedaRegistrosWar/empresa/06937",
      "_links": {
        "self": {
          "name": "MARIA JOSE URTEAGA PEÑA",
          "href": "https://api.euskadi.eus/procurements/companies/06937"
        }
      }
    },
    {
      "name": "INSTITUTO SR PARA LA GESTIÓN, FORMACIÓN Y CONSULTORIA Y CONSULTORÍA DE SERVICIOS",
      "registrationNumber": "06939",
      "identificationNumber": "B65947046",
      "address": "Via de las dos Castillas, 33",
      "location": {
        "postalCode": "28224",
        "municipality": "Pozuelo de Alarcón",
        "county": "Madrid",
        "municipalityId": "115",
        "countyId": "28"
      },
      "economicActivities": [
        {
          "id": "1.846",
          "name": "Empresas de estudios de mercado",
          "_links": {
            "self": {
              "name": "Empresas de estudios de mercado",
              "href": "https://api.euskadi.eus/procurements/companies/economic-activities/1.846"
            }
          }
        }
      ],
      "certificateStartDate": "2020-04-06",
      "certificateEndDate": "2020-09-06",
      "object": "1. CONSTRUCCIÓN, INSTALACIONES Y MANTENIMIENTO. 2. COMERCIO AL POR MAYOR Y  AL  POR  MENOR. DISTRIBUCIÓN  COMERCIAL. IMPORTACIÓN Y EXPORTACIÓN. 3. ACTIVIDADES INMOBILIARIAS. 4. ACTIVIDADES PROFESIONALES 5. INDUSTRIAS MANUFACTURERAS Y TEXTILES. 6. TURISMO, HOSTELERÍA Y RESTAURACIÓN. 7. PRESTACIÓN DE SERVICIOS. ACTIVIDADES DE GESTIÓN Y ADMINISTRACIÓN. SERVICIOS EDUCATIVOS, SANITARIOS DE OCIO Y ENTRETENIMIENTO. 8. TRANSPORTE Y ALMACENAMIENTO. 9. INFORMACIÓN Y COMUNICACIONES. 10. AGRICULTURA, GANADERÍA Y PESCA. 11. INFORMÁTICA, TELECOMUNICACIONES Y OFIMÁTICA. 12. ENERGÍAS ALTERNATIVAS.  13. COMPRAVENTA Y REPARACIÓN DE VEHÍCULOS. REPARACIÓN Y MANTENIMIENTO\tDE INSTALACIONES Y MAQUINARIA. 14. INVESTIGACIÓN, DESARROLLO E INNOVACIÓN. 15. ACTIVIDADES CIENTÍFICAS Y TÉCNICAS\r\n",
      "mainEntityOfPage": "https://www.contratacion.euskadi.eus/webkpe00-kperoc/es/ac71aBusquedaRegistrosWar/empresa/06939",
      "_links": {
        "self": {
          "name": "INSTITUTO SR PARA LA GESTIÓN, FORMACIÓN Y CONSULTORIA Y CONSULTORÍA DE SERVICIOS",
          "href": "https://api.euskadi.eus/procurements/companies/06939"
        }
      }
    },
    {
      "name": "INTEK INGENIERIA Y MONTAJES SL",
      "registrationNumber": "06940",
      "identificationNumber": "B95959482",
      "address": "AVDA AGIRRE LEHENDAKARIA 25 2-A",
      "location": {
        "postalCode": "48970",
        "municipality": "Basauri",
        "county": "Bizkaia",
        "municipalityId": "015",
        "countyId": "48"
      },
      "economicActivities": [
        {
          "id": "1.504.11",
          "name": "Instalaciones eléctricas en general, redes telegráficas, telefonía, tv, etc",
          "_links": {
            "self": {
              "name": "Instalaciones eléctricas en general, redes telegráficas, telefonía, tv, etc",
              "href": "https://api.euskadi.eus/procurements/companies/economic-activities/1.504.11"
            }
          }
        }
      ],
      "certificateStartDate": "2020-04-06",
      "certificateEndDate": "2020-09-11",
      "object": "4321.-INSTALACIONES ELÉCTRICAS. 711.-SERVICIOS TÉCNICOS DE ARQUITECTURA E INGENIERÍA Y OTRAS ACTIVIDADES RELACIONADAS CON EL ASESORAMIENTO TÉCNICO. CÓDIGO DE LA ACTIVIDAD PRINCIPAL: 4321-INSTALACIONES ELÉCTRICAS",
      "mainEntityOfPage": "https://www.contratacion.euskadi.eus/webkpe00-kperoc/es/ac71aBusquedaRegistrosWar/empresa/06940",
      "_links": {
        "self": {
          "name": "INTEK INGENIERIA Y MONTAJES SL",
          "href": "https://api.euskadi.eus/procurements/companies/06940"
        }
      }
    },
    {
      "name": "IGNACIO MARTÍNEZ GARCÍA",
      "registrationNumber": "06942",
      "identificationNumber": "13764671E",
      "address": "Centro empresarial Zoco Santander, ofic.144",
      "location": {
        "postalCode": "39011",
        "municipality": "Santander",
        "county": "Cantabria",
        "municipalityId": "075",
        "countyId": "39"
      },
      "economicActivities": [
        {
          "id": "1.961.1",
          "name": "Producción de películas cinematográficas (incluso vídeos)",
          "_links": {
            "self": {
              "name": "Producción de películas cinematográficas (incluso vídeos)",
              "href": "https://api.euskadi.eus/procurements/companies/economic-activities/1.961.1"
            }
          }
        },
        {
          "id": "1.964.3",
          "name": "Servicios de enlace y transmisión de señales de televisión",
          "_links": {
            "self": {
              "name": "Servicios de enlace y transmisión de señales de televisión",
              "href": "https://api.euskadi.eus/procurements/companies/economic-activities/1.964.3"
            }
          }
        },
        {
          "id": "2.899",
          "name": "Otros profesionales",
          "_links": {
            "self": {
              "name": "Otros profesionales",
              "href": "https://api.euskadi.eus/procurements/companies/economic-activities/2.899"
            }
          }
        }
      ],
      "certificateStartDate": "2020-04-06",
      "certificateEndDate": "2020-07-13",
      "object": "PRODUCCIÓN DE PELÍCULAS CINEMATOGRÁFICAS (INCLUSO VÍDEOS) Y SERVICIOS DE ENLACE Y TRANSMISIÓN DE SEÑALES DE TELEVISIÓN",
      "mainEntityOfPage": "https://www.contratacion.euskadi.eus/webkpe00-kperoc/es/ac71aBusquedaRegistrosWar/empresa/06942",
      "_links": {
        "self": {
          "name": "IGNACIO MARTÍNEZ GARCÍA",
          "href": "https://api.euskadi.eus/procurements/companies/06942"
        }
      }
    },
    {
      "name": "BIZILAN, S.A.",
      "registrationNumber": "00610",
      "identificationNumber": "A48281554",
      "address": "AVDA. LEHENDAKARI AGIRRE, 85 - ENTREPLANTA",
      "location": {
        "postalCode": "48015",
        "municipality": "Bilbao",
        "county": "Bizkaia",
        "municipalityId": "020",
        "countyId": "48"
      },
      "economicActivities": [
        {
          "id": "1.846",
          "name": "Empresas de estudios de mercado",
          "_links": {
            "self": {
              "name": "Empresas de estudios de mercado",
              "href": "https://api.euskadi.eus/procurements/companies/economic-activities/1.846"
            }
          }
        }
      ],
      "certificateStartDate": "2020-04-04",
      "certificateEndDate": "2020-10-03",
      "object": "LA CONSULTORÍA ESPECIALIZADA EN DIVERSOS CAMPOS DE LA ECONOMÍA APLICADA, LA ELABORACIÓN DE ESTUDIOS DE MERCADO Y DE VIABILIDAD; ESTUDIOS DE RACIONALIZACIÓN Y MEJORA DE LOS NIVELES DE EFICIENCIA DE LA ADMINISTRACIÓN; ACTUACIONES ANTE LAS INSTANCIAS COMUNITARIAS Y OTROS ORGANISMOS COMUNITARIOS EUROPEOS; LA PROMOCIÓN DE ACTIVIDADES ECONÓMICAS INDUSTRIALES, COMERCIALES Y DE SERVICIOS; ACTUACIONES ECONÓMICAS DESTINADAS A LA CAPTACIÓN DE CAPITALES CON VISTAS A LA CAPTACIÓN DE NUEVAS INDUSTRIAS; TODAS AQUELLAS ACTIVIDADES RELACIONADAS TANTO CON LA VENTA DE BIENES Y SERVICIOS EN EL MERCADO INTERIOR COMO LAS RELACIONADAS CON EL MERCADO EXTERIOR",
      "mainEntityOfPage": "https://www.contratacion.euskadi.eus/webkpe00-kperoc/es/ac71aBusquedaRegistrosWar/empresa/00610",
      "_links": {
        "self": {
          "name": "BIZILAN, S.A.",
          "href": "https://api.euskadi.eus/procurements/companies/00610"
        }
      }
    }
  ]
}