{
  "totalItems": 9042,
  "totalPages": 905,
  "currentPage": 689,
  "itemsOfPage": 10,
  "items": [
    {
      "name": "BIDAILAN CONSTRUCCIONES, S.L.",
      "registrationNumber": "03133",
      "identificationNumber": "B01154400",
      "address": "PORTAL DE GAMARRA, 37 PAB. 10",
      "location": {
        "postalCode": "01013",
        "municipality": "Vitoria-Gasteiz",
        "county": "Araba/Álava",
        "municipalityId": "059",
        "countyId": "01"
      },
      "economicActivities": [
        {
          "id": "1.501.1",
          "name": "Construcción completa, reparación y conservación de edificaciones",
          "_links": {
            "self": {
              "name": "Construcción completa, reparación y conservación de edificaciones",
              "href": "https://api.euskadi.eus/procurements/companies/economic-activities/1.501.1"
            }
          }
        }
      ],
      "certificateStartDate": "2012-11-26",
      "certificateEndDate": "2013-05-06",
      "object": "LA ADQUISICIÓN, URBANIZACIÓN, PARCELACIÓN, CONSTRUCCIÓN, EDIFICACIÓN, CONSTITUCIÓN EN PROPIEDAD HORIZONTAL, REFORMA, REHABILITACIÓN, AMPLIACIÓN, REPARACIÓN, EXPLOTACIÓN DIRECTA O INDIRECTA DE TODA CLASE DE BIENES INMUEBLES, TANTO URBANOS COMO RÚSTICOS Y LA REALIZACIÓN DE OBRAS PÚBLICAS Y PRIVADAS ",
      "mainEntityOfPage": "https://www.contratacion.euskadi.eus/webkpe00-kperoc/es/ac71aBusquedaRegistrosWar/empresa/03133",
      "_links": {
        "self": {
          "name": "BIDAILAN CONSTRUCCIONES, S.L.",
          "href": "https://api.euskadi.eus/procurements/companies/03133"
        }
      }
    },
    {
      "name": "FINCAS LANDA, S.L.",
      "registrationNumber": "03554",
      "identificationNumber": "B01153972",
      "address": "GORBEA 24 BAJO",
      "location": {
        "postalCode": "01012",
        "municipality": "Vitoria-Gasteiz",
        "county": "Araba/Álava",
        "municipalityId": "059",
        "countyId": "01"
      },
      "economicActivities": [
        {
          "id": "1.501.1",
          "name": "Construcción completa, reparación y conservación de edificaciones",
          "_links": {
            "self": {
              "name": "Construcción completa, reparación y conservación de edificaciones",
              "href": "https://api.euskadi.eus/procurements/companies/economic-activities/1.501.1"
            }
          }
        },
        {
          "id": "1.833.2",
          "name": "Promoción de edificaciones",
          "_links": {
            "self": {
              "name": "Promoción de edificaciones",
              "href": "https://api.euskadi.eus/procurements/companies/economic-activities/1.833.2"
            }
          }
        }
      ],
      "certificateStartDate": "2012-11-19",
      "certificateEndDate": "2013-04-09",
      "object": "A) CONSTRUCCIÓN, REHABILITACIÓN Y REALIZACIÓN DE TODO TIPO DE REFORMAS, POR CUENTA PROPIA O POR ENCARGO DE TERCEROS, DE VIVIENDAS, APARTAMENTOS, INSTALACIONES HOSTELERAS, LOCALES COMERCIALES, PABELLONES INDUSTRIALES Y EN GENERAL BIENES INMUEBLES. B) LA PROMOCIÓN, ADQUISICIÓN, VENTA Y EXPLOTACIÓN, MEDIANTE ARRENDAMIENTO O CUALQUIER OTRA FORMA JURÍDICA, DE OTODO TIPO DE SOLARES, VIVIENDAS, APARTAMENTOS, LOCALES COMERCIALES, PABELLONES INDUSTRIALES Y EN GENERAL BIENES INMUEBLES, PROPIOS O AJENOS A LA SOCIEDAD. C) ADMINISTRACIÓN DE FINCAS. D) TRABAJOS DE ALBAÑILERÍA, FONTANERÍA Y ELECTRICIDAD, MOVIMIENTO, EXCAVACIÓN, APLANAMIENTO DE TIERRAS Y DERRIBO DE TODO TIPO DE SUELOS Y EDIFICACIONES. E) GESTIÓN, ASESORAMIENTO Y REDACIÓN DE PLANES DE PARCELACIÓN Y URBANIZACIÓN, EJECUCIÓN DE LOS TRABAJOS DE URBANIZACIÓN Y GESTIÓN DE LAS JUNTAS DE COMPENSACIÓN. F) LA PROMOCIÓN INMOBILIARIA. G) INTERMEDIACIÓN EN EL MERCADO INMOBILIARIO. H) SERVICIOS Y PREPARACIÓN DE ESTUDIOS INMOBILIARIOS. I) GERENCIAS EXTERNAS DE SOCIEDADES DE PROMOCIÓN Y GESTIÓN INMOBILIARIA. J) GESTIÓN Y ASESORAMIENTO DE SOCIEDADES COOPERATIVAS",
      "mainEntityOfPage": "https://www.contratacion.euskadi.eus/webkpe00-kperoc/es/ac71aBusquedaRegistrosWar/empresa/03554",
      "_links": {
        "self": {
          "name": "FINCAS LANDA, S.L.",
          "href": "https://api.euskadi.eus/procurements/companies/03554"
        }
      }
    },
    {
      "name": "SUBTEK INGENIERÍA, S.L.",
      "registrationNumber": "04889",
      "identificationNumber": "B95687687",
      "address": "SANTIAGO DE COMPOSTELA, 12 - 1ª Planta",
      "location": {
        "postalCode": "48003",
        "municipality": "Bilbao",
        "county": "Bizkaia",
        "municipalityId": "020",
        "countyId": "48"
      },
      "economicActivities": [
        {
          "id": "1.501.2",
          "name": "Construcción completa, reparación y conservación obras civiles",
          "_links": {
            "self": {
              "name": "Construcción completa, reparación y conservación obras civiles",
              "href": "https://api.euskadi.eus/procurements/companies/economic-activities/1.501.2"
            }
          }
        }
      ],
      "certificateStartDate": "2012-11-19",
      "certificateEndDate": "2012-04-05",
      "object": "LA EJECUCIÓN DE OBRAS, PÚBLICAS O PRIVADAS, QUE INCLUYAN LA CONSTRUCCIÓN, E REPARACIÓN DE TÚNELES Y OTRAS SUBTERRÁNEAS Y PARTICULARMENTE, EN VÍAS, AUTOVÍAS, AUTOPISTAS O CARRETERAS DE CUALQUIER CLASE, ASÍ COMO EN FERROCARRILES Y EN PLANTAS, CENTRALES O INSTALACIONES MINERAS, ENERGÉTICAS O INDUSTRIALES. A ESTOS EFECTOS, LA CONSTRUCCIÓN O REPARACIÓN PODRÁ INCLUIR TODAS O ALGUNA DE LAS SIGUIENTES ACTIVIDADES: A) EXCAVACIÓN Y SOSTENIMIENTO; B) IMPERMEABILIZACIÓN; C) REVESTIMIENTO DE HORMIGÓN; D) ESTABILIZACIÓN DE TALUDES; E) LABORES DE DESESCOMBRO EN TÚNELES",
      "mainEntityOfPage": "https://www.contratacion.euskadi.eus/webkpe00-kperoc/es/ac71aBusquedaRegistrosWar/empresa/04889",
      "_links": {
        "self": {
          "name": "SUBTEK INGENIERÍA, S.L.",
          "href": "https://api.euskadi.eus/procurements/companies/04889"
        }
      }
    },
    {
      "name": "TRANSITIA APARCAMIENTOS, S.L.",
      "registrationNumber": "03958",
      "identificationNumber": "B95571691",
      "address": "ALAMEDA DE RECALDE 36, 8º PISO",
      "location": {
        "postalCode": "48009",
        "municipality": "Bilbao",
        "county": "Bizkaia",
        "municipalityId": "020",
        "countyId": "48"
      },
      "economicActivities": [
        {
          "id": "1.501.3",
          "name": "Albañilería y pequeños trabajos de construcción en general",
          "_links": {
            "self": {
              "name": "Albañilería y pequeños trabajos de construcción en general",
              "href": "https://api.euskadi.eus/procurements/companies/economic-activities/1.501.3"
            }
          }
        },
        {
          "id": "1.849.7",
          "name": "Servicios de gestión administrativa",
          "_links": {
            "self": {
              "name": "Servicios de gestión administrativa",
              "href": "https://api.euskadi.eus/procurements/companies/economic-activities/1.849.7"
            }
          }
        }
      ],
      "certificateStartDate": "2012-11-08",
      "certificateEndDate": "2013-05-06",
      "object": "1. PROMOCIÓN, CONSTRUCCIÓN, GESTIÓN, ADMINISTRACIÓN, Y EXPLOTACIÓN DE TODO TIPO DE APARCAMIENTOS Y ESTACIONAMIENTOS PARA VEHÍCULOS, YA SEAN PROPIOS, ADQUIRIDOS, EN RÉGIMEN DE CONCESIÓN ADMINISTRATIVA, O AJENOS. 2. LA REALIZACIÓN DE PROYECTOS, PROMOCIÓN, CONSTITUCIÓN Y PARTICIPACIÓN EN OTRAS SOCIEDADES Y EMPRESAS MEDIANTE LA SUSCRIPCIÓN, ADQUISICIÓN Y POSESIÓN DE ACCIONES, PARTICIPACIONES Y CUALESQUIERA OTROS TÍTULOS Y VALORES, ASÍ COMO TODA CLASE DE NEGOCIOS RELACIONADOS CON LA COMPRAVENTA Y SUSCRIPCIÓN DE VALORES MOBILIARIOS, TANTO DE RENTA FIJA COMO VARIABLE, POR CUENTA PROPIA, EXCLUYENDO LA INTERMEDIACIÓN FINANCIERA Y LA CAPTACIÓN DE AHORRO PÚBLICO Y LAS ACTIVIDADES PROPIAS DE LAS INSTITUCIONES DE INVERSIÓN COLECTIVA Y DE LOS MIEMBROS DE LAS BOLSAS DE VALORES. 3. LA TITULARIDAD DE TODA CLASE DE CONCESIONES, AUTORIZACIONES Y LICENCIAS ADMINISTRATIVAS DE OBRAS, SERVICIOS Y MIXTAS, DEL ESTADO, COMUNIDADES AUTÓNOMAS, PROVINCIAS, MUNICIPIOS, ORGANISMOS AUTÓNOMOS, ENTIDADES AUTÓNOMAS O CUALQUIER OTRO ORGANISMO O EMPRESA PÚBLICO O PRIVADO. 4. LA PARTICIPACIÓN EN CONCURSOS Y SUBASTAS QUE SE CONVOQUEN Y RESUELVAN POR PARTE DE CUALESQUIERA PERSONAS FÍSICAS O JURÍDICAS, PÚBLICAS O PRIVADAS, U ORGANISMOS, CUYA FINALIDAD SEA LA ADJUDICACIÓN DE OBRAS O CONTRATOS CUYO CONTENIDO ESTÉ INCLUÍDO O SE RELACIONE CON EL OBJETO SOCIAL PREVISTO EN ESTE ARTÍCULO. 5. LA CONSTRUCCIÓNM, GESTIÓN O EXPLOTACIÓN DE CUALQUIER EDIFICACIÓN, INSTALACIÓN, EXTRUCTURA, OBRA CIVIL U OTROS ELEMENTOS RELACIONADOS CON EL SECTOR DEL TRANSPORTE DE PERSONASY/O MERCANCÍAS DE CUALQUIER MODALIDAD Y POR CUALQUIER MEDIO TERRESTRE, MARÍTIMO O AÉREO",
      "mainEntityOfPage": "https://www.contratacion.euskadi.eus/webkpe00-kperoc/es/ac71aBusquedaRegistrosWar/empresa/03958",
      "_links": {
        "self": {
          "name": "TRANSITIA APARCAMIENTOS, S.L.",
          "href": "https://api.euskadi.eus/procurements/companies/03958"
        }
      }
    },
    {
      "name": "PROFINSA PRODUCTOS DE OFICINA E INFORMÁTICA, S.A.",
      "registrationNumber": "01025",
      "identificationNumber": "A48170419",
      "address": "CR BILBAO ASUA POL IND. FATIMA, A-6",
      "location": {
        "postalCode": "48950",
        "municipality": "Erandio",
        "county": "Bizkaia",
        "municipalityId": "902",
        "countyId": "48"
      },
      "economicActivities": [
        {
          "id": "1.617.8",
          "name": "Venta al por mayor de máquinas y material de oficina",
          "_links": {
            "self": {
              "name": "Venta al por mayor de máquinas y material de oficina",
              "href": "https://api.euskadi.eus/procurements/companies/economic-activities/1.617.8"
            }
          }
        }
      ],
      "certificateStartDate": "2012-11-07",
      "certificateEndDate": "2013-04-08",
      "object": "LA VENTA DE MATERIAL DE OFICINA E INFORMÁTICA",
      "mainEntityOfPage": "https://www.contratacion.euskadi.eus/webkpe00-kperoc/es/ac71aBusquedaRegistrosWar/empresa/01025",
      "_links": {
        "self": {
          "name": "PROFINSA PRODUCTOS DE OFICINA E INFORMÁTICA, S.A.",
          "href": "https://api.euskadi.eus/procurements/companies/01025"
        }
      }
    },
    {
      "name": "CONSTRUCCIONES CANAS ESTEBAN, S.L",
      "registrationNumber": "03743",
      "identificationNumber": "B20353645",
      "address": "OLARAN, 22-3º I",
      "location": {
        "postalCode": "20500",
        "municipality": "Arrasate / Mondragón",
        "county": "Gipuzkoa",
        "municipalityId": "055",
        "countyId": "20"
      },
      "economicActivities": [
        {
          "id": "1.501.1",
          "name": "Construcción completa, reparación y conservación de edificaciones",
          "_links": {
            "self": {
              "name": "Construcción completa, reparación y conservación de edificaciones",
              "href": "https://api.euskadi.eus/procurements/companies/economic-activities/1.501.1"
            }
          }
        },
        {
          "id": "1.501.3",
          "name": "Albañilería y pequeños trabajos de construcción en general",
          "_links": {
            "self": {
              "name": "Albañilería y pequeños trabajos de construcción en general",
              "href": "https://api.euskadi.eus/procurements/companies/economic-activities/1.501.3"
            }
          }
        }
      ],
      "certificateStartDate": "2012-11-07",
      "certificateEndDate": "2013-04-18",
      "object": "CONSTRUCCIÓN COMPLETA, REPARACIÓN Y CONSERVACION DE EDIFICACIONES; PROMOCIÓN INMOBILIARIA, CONCRETAMENTE PROMOCIÓN DE EDIFICACIONES TOTALES O PARCIALES EN NOMBRE Y POR CUENTA PROPIA, CONSTRUIDOS DIRECTAMENTE O POR MEDIO DE TERCEROS, TODO ELLO A FIN DE VENDERLAS, ASÍ COMO LA COMPRAVENTA, ARRIENDO Y EXPLOTACIÓN DE FINCAS RÚSTICAS Y URBANAS, LA ADQUISICIÓN Y EXPLOTACIÓN DE CONCESIONES ADMINISTRATIVAS, LA EXPLOTACIÓN DE NEGOCIOS AGROPECUARIOS, LA URBANIZACIÓN DE FINCAS EN GENERAL Y LA CONSTRUCCIÓN DE INMUEBLES Y LA EXPLOTACIÓN DE LOS MISMOS",
      "mainEntityOfPage": "https://www.contratacion.euskadi.eus/webkpe00-kperoc/es/ac71aBusquedaRegistrosWar/empresa/03743",
      "_links": {
        "self": {
          "name": "CONSTRUCCIONES CANAS ESTEBAN, S.L",
          "href": "https://api.euskadi.eus/procurements/companies/03743"
        }
      }
    },
    {
      "name": "AZYSA GIPUZKOA OBRAS Y PROYECTOS, S.A.",
      "registrationNumber": "03784",
      "identificationNumber": "A31391964",
      "address": "PORTUETXE, 45 - C, 3ª PLANTA, OFICINA 4",
      "location": {
        "postalCode": "20018",
        "municipality": "Donostia / San Sebastián",
        "county": "Gipuzkoa",
        "municipalityId": "069",
        "countyId": "20"
      },
      "economicActivities": [
        {
          "id": "1.507",
          "name": "Construcción, reparación y conservación de toda clase obras",
          "_links": {
            "self": {
              "name": "Construcción, reparación y conservación de toda clase obras",
              "href": "https://api.euskadi.eus/procurements/companies/economic-activities/1.507"
            }
          }
        }
      ],
      "certificateStartDate": "2012-10-30",
      "certificateEndDate": "2013-03-17",
      "object": "A) LA REALIZACIÓN DE LAS ACTIVIDADES PROPIAS DEL MERCADO INMOBILIARIO.\r\nB) LA PROMOCIÓN, CONSTRUCCIÓN Y VENTA DE TODO TIPO DE EDIFICACIONES, YA SEAN PARA USOS RESIDENCIALES, INDUSTRIALES O DE SERVICIOS, ASÍ COMO LA REHABILITACIÓN Y EL ACONDICIONAMIENTO DE EDIFICIOS YA EXISTENTES PARA LOS ANTERIORES USOS.\r\nC) LA COMPRA, VENTA Y ACONDICIONAMIENTO DE TERRENOS Y SOLARES, YA SEAN URBANIZADOS O NO, PARA USOS RESIDENCIALES O INDUSTRIALES.\r\nD) LA CONSTRUCCIÓN DE TODO TIPO DE OBRA CIVIL Y DE INGENIERÍA, TANTO PARA PARTICULARES COMO PARA INSTITUCIONES, YA SEAN ESTAS PÚBLICAS O PRIVADAS.\r\nE) LA COMPRA, COMERCIALIZACIÓN, VENTA Y DISTRIBUCIÓN DE TODO TIPO DE MATERIALES, ÚTILES, MAQUINARIA Y ACCESORIOS CUYO DESTINO SEA LA CONSTRUCCIÓN EN GENERAL, SEAN ESTOS DE PROCEDENCIA NARIONAL O DE IMPORTACIÓN.\r\nF) EL ALQUILER DE TODO TIPO DE MAQUINARIA Y ÚTILES PARA LA CONSTRUCCIÓN.\r\nG) LA PROSPECCIÓN Y EXPLOTACIÓN, YA SEA DIRECTAMENTE O POR EL SISTEMA DE CONCESIONES ADMINISTRATIVAS, DE MINAS, CANTERAS Y GRAVERAS, ASÍ COMO LA COMERCIALIZACIÓN Y VENTA DE LOS PRODUCTOS, ELABORADOS O NO, EXTRAÍDOS DE LAS MISMAS.\r\nH) LA PARTICIPACIÓN EN TODA CLASE DE EMPRESAS Y SOCIEDADES CIVILES, MERCANTILES Y DE OTRA NATURALEZA, EXISTENTES O QUE SE CREEN, EXCLUSIVAMENTE CON CAPITAL PROPIO O A TRAVÉS DE SUSCRIPCIÓN, ADQUISICIÓN, POSESIÓN O PARTICIPACIÓN EN SUS TÍTULOS-VALORES, OBLIGACIONES Y PARTICIPACIONES SOCIALES.\r\nI) EL MANTENIMIENTO, EXPLOTACIÓN Y CONSERVACIÓN DE EDIFICIOS PÚBLICOS O PRIVADOS, CARRETERAS, VÍAS PÚBLICAS Y URBANIZACIONES, LA REDACCIÓN Y ELABORACIÓN DE PROYECTOS RELACIONADOS CON LAS ACTIVIDADES DE LA EMPRESA.\r\nJ) LA CONSTRUCCIÓN Y PROMOCIÓN DE PARQUES EÓLICOS",
      "mainEntityOfPage": "https://www.contratacion.euskadi.eus/webkpe00-kperoc/es/ac71aBusquedaRegistrosWar/empresa/03784",
      "_links": {
        "self": {
          "name": "AZYSA GIPUZKOA OBRAS Y PROYECTOS, S.A.",
          "href": "https://api.euskadi.eus/procurements/companies/03784"
        }
      }
    },
    {
      "name": "CONSTRUCCIONES AROSA, S.L.",
      "registrationNumber": "04694",
      "identificationNumber": "B01101310",
      "address": "PEDRO ASÚA, 39 BAJO",
      "location": {
        "postalCode": "01008",
        "municipality": "Vitoria-Gasteiz",
        "county": "Araba/Álava",
        "municipalityId": "059",
        "countyId": "01"
      },
      "economicActivities": [
        {
          "id": "1.501.1",
          "name": "Construcción completa, reparación y conservación de edificaciones",
          "_links": {
            "self": {
              "name": "Construcción completa, reparación y conservación de edificaciones",
              "href": "https://api.euskadi.eus/procurements/companies/economic-activities/1.501.1"
            }
          }
        }
      ],
      "certificateStartDate": "2012-10-26",
      "certificateEndDate": "2013-04-09",
      "object": "LA PROMOCIÓN, CONSTRUCCIÓN Y VENTA DE VIVIENDAS, LOCALES Y EDIFICACIONES DE TODAS CLASES Y LA EJECUCIÓN DE OBRAS DE CUALQUIER NATURALEZA POR CUENTA PROPIA O DE TERCEROS",
      "mainEntityOfPage": "https://www.contratacion.euskadi.eus/webkpe00-kperoc/es/ac71aBusquedaRegistrosWar/empresa/04694",
      "_links": {
        "self": {
          "name": "CONSTRUCCIONES AROSA, S.L.",
          "href": "https://api.euskadi.eus/procurements/companies/04694"
        }
      }
    },
    {
      "name": "ELECTROINGENIERÍA 2008, S.A.",
      "registrationNumber": "04882",
      "identificationNumber": "A85371276",
      "address": "MAYOR, 23 ENTREPLANTA-OF. 2",
      "location": {
        "postalCode": "48930",
        "municipality": "Getxo",
        "county": "Bizkaia",
        "municipalityId": "044",
        "countyId": "48"
      },
      "economicActivities": [
        {
          "id": "1.843.1",
          "name": "Servicios técnicos de ingeniería",
          "_links": {
            "self": {
              "name": "Servicios técnicos de ingeniería",
              "href": "https://api.euskadi.eus/procurements/companies/economic-activities/1.843.1"
            }
          }
        }
      ],
      "certificateStartDate": "2012-10-24",
      "certificateEndDate": "2013-03-17",
      "object": "LA PRESTACIÓN DE SERVICIOS EN MATERIA DE INGENIERÍA Y DESARROLLO TECNOLÓGICO, Y EN ESPECIAL LA PRESTACIÓN DE SERVICIOS DE GESTIÓN, APOYO Y ASISTENCIA TÉCNICA A LA DIRECCIÓN DE GRANDES OBRAS INFRAESTRUCTURA -COMO CARRETERAS, FERROCARRILES, ABASTECIMIENTO DE AGUAS, OBRAS MARÍTIMAS Y PORTUARIAS, ETC.-, APROVECHAMIENTO DE RESIDUOS SÓLIDOS URBANOS, INSTALACIONES ELÉCTRICAS -DE COGENERACIÓN AUTOGENERACION, CENTRALES HIDRÁULICAS, TÉRMICAS, NUCLEARES, ETC.-PROYECTOS Y DE SEGURIDAD Y CONTROL DE INSTALACIONES, OBRAS Y CONSTRUCCIONES DE SEMEJANTES CARACTERÍSTICAS. LA PROMOCIÓN, ASESORAMIENTO, AUDITORÍA, CONSULTORÍA, INVESTIGACIÓN Y ESTUDIOS DE SERVICIOS DE INGENIERÍA, TÉCNICOS, FINANCIEROS, INFORMÁTICOS, INDUSTRIALES Y DE MERCADOS, Y EN ESPECIAL LOS RELACIONADOS CON LA TECNOLOGÍA DE INSPECCIÓN MANTENIMIENTO, SEGURIDAD Y CONTROL DE CALIDAD DE PRODUCTOS Y EQUIPOS APLICADA A OBRAS CONSTRUCCIONES E INSTALACIONES DE LAS CARACTERÍSTICAS RELACIONADAS EN EL APARTADO ANTERIOR. LA PROMOCIÓN, CREACIÓN ORGANIZACIÓN, ADMINISTRACIÓN, GESTIÓN, REPRESENTACIÓN Y PARTICIPACIÓN EN EMPRESAS INDUSTRIALES, COMERCIALES O DE SERVICIOS, ASÍ COMO LA PARTICIPACIÓN EN CONCURSO Y SUBASTAS QUE TENGAN POR OBJETO ALGUNA DE LAS ACTIVIDADES SEÑALADAS EN LOS APARTADOS ANTERIORES. LA ADQUISICIÓN, REISTRO, INTRODUCCIÓN, POSESÓN, CESIÓN, USO, EXPLOTACIÓN O DISPONIBILIDAD DE DERECHOS DE PROPIEDAD INDUSTRIAL, PROPIOS O DE TERCEROS BAJO RÉGIMEN DE DERECHOS A SU FAVOR, NACIONALES O EXTRANJEROS, SIN PERJUICIO DE BENEFICIARSE, EN SU CASO, CON LAS APLICACIONES PRÁCTICAS DE LASTECNOLOGÍAS GENERADAS EN CUALESQUIERA DE ESTOS DERECHOS Y MANIFESTACIONES DE LA PROPIEDAD INDUSTRIAL. LA REPRESENTACIÓN, ADMINISTRACIÓN, GESTIÓN O APOYO A LA GESTIÓN Y DIRECCIÓN Y LA REALIZACIÓN DE SERVICIOS A FAVOR DE COMPAÑÍAS ELÉCTRICAS EXTRANJERAS QUE OPEREN EN EL TERRITORIO NACIONAL, YA SEA EN LA ACTIVIDAD PROPIA O PECULIAR DE LAS MISMAS, COMO EN LA REALIZACIÓN DE ACTIVIDADES Y SERVICIOS COMPRENDIDOS EN LOS APARTADOS ANTERIORES",
      "mainEntityOfPage": "https://www.contratacion.euskadi.eus/webkpe00-kperoc/es/ac71aBusquedaRegistrosWar/empresa/04882",
      "_links": {
        "self": {
          "name": "ELECTROINGENIERÍA 2008, S.A.",
          "href": "https://api.euskadi.eus/procurements/companies/04882"
        }
      }
    },
    {
      "name": "MASANA MÉDICA, S.L.",
      "registrationNumber": "01756",
      "identificationNumber": "B59105247",
      "address": "LIBERTAD, 33",
      "location": {
        "postalCode": "08226",
        "municipality": "Terrassa",
        "county": "Barcelona",
        "municipalityId": "279",
        "countyId": "08"
      },
      "economicActivities": [
        {
          "id": "1.619.2",
          "name": "Venta al por mayor de aparatos e instrumentos médicos, ortopédicos, ópticos",
          "_links": {
            "self": {
              "name": "Venta al por mayor de aparatos e instrumentos médicos, ortopédicos, ópticos",
              "href": "https://api.euskadi.eus/procurements/companies/economic-activities/1.619.2"
            }
          }
        }
      ],
      "certificateStartDate": "2012-10-23",
      "certificateEndDate": "2013-04-23",
      "object": "LA VENTA AL MAYOR DE ARTÍCULOS MÉDICOS, IMPORTACIÓN Y EXPORTACIÓN DE ARTÍCULOS MÉDICOS",
      "mainEntityOfPage": "https://www.contratacion.euskadi.eus/webkpe00-kperoc/es/ac71aBusquedaRegistrosWar/empresa/01756",
      "_links": {
        "self": {
          "name": "MASANA MÉDICA, S.L.",
          "href": "https://api.euskadi.eus/procurements/companies/01756"
        }
      }
    }
  ]
}