{
  "totalItems": 9042,
  "totalPages": 905,
  "currentPage": 131,
  "itemsOfPage": 10,
  "items": [
    {
      "name": "ARNAITZ RUBIO APREA",
      "registrationNumber": "10461",
      "identificationNumber": "72504771P",
      "address": "Julio Beobide pasealekua 31 3D",
      "location": {
        "postalCode": "20750",
        "municipality": "Zumaia",
        "county": "Gipuzkoa",
        "municipalityId": "081",
        "countyId": "20"
      },
      "economicActivities": [
        {
          "id": "2.899",
          "name": "Otros profesionales",
          "_links": {
            "self": {
              "name": "Otros profesionales",
              "href": "https://api.euskadi.eus/procurements/companies/economic-activities/2.899"
            }
          }
        }
      ],
      "certificateStartDate": "2025-12-04",
      "certificateEndDate": "2026-06-04",
      "object": "OTROS PROFESIONALES.",
      "mainEntityOfPage": "https://www.contratacion.euskadi.eus/webkpe00-kperoc/es/ac71aBusquedaRegistrosWar/empresa/10461",
      "_links": {
        "self": {
          "name": "ARNAITZ RUBIO APREA",
          "href": "https://api.euskadi.eus/procurements/companies/10461"
        }
      }
    },
    {
      "name": "JG GOLF 18.0, S.L.",
      "registrationNumber": "10242",
      "identificationNumber": "B86672540",
      "address": "Calle Julio Caro Baroja número 118, 1º izquierda",
      "location": {
        "postalCode": "28055",
        "municipality": "Madrid",
        "county": "Madrid",
        "municipalityId": "079",
        "countyId": "28"
      },
      "economicActivities": [
        {
          "id": "1.968.2",
          "name": "Organización de espectáculos deportivos",
          "_links": {
            "self": {
              "name": "Organización de espectáculos deportivos",
              "href": "https://api.euskadi.eus/procurements/companies/economic-activities/1.968.2"
            }
          }
        }
      ],
      "certificateStartDate": "2025-12-04",
      "certificateEndDate": "2026-06-02",
      "object": "A)LA ORGANIZACIÓN DE TODA CLASE DE EVENTOS Y TORNEOS DEPORTIVOS, ASÍ COMO LA CONSULTORÍA Y ASESORAMIENTO TÉCNICO EN MATERIAS RELACIONADAS CON LOS MISMOS, OSTENTANDO TODO TIPO DE REPRESENTACIONES. B)LA ORGANIZACIÓN DE FERIAS, CONGRESOS Y PRODUCCIONES AUDIOVISUALES. C)LA REALIZACIÓN DE ESTUDIOS, PROYECTOS, EJECUCIÓN Y CONSTRUCCIÓN DE TODO TIPO DE INSTALACIONES DEPORTIVAS, ASÍ COMO SU EXPLOTACIÓN. C)LA PRESTACIÓN DE SERVICIO PROPIS DE CONSULTORÍA INMOBILIARIA, ASÍ COMO LA REALIZACIÓN DE TODA CLASE DE ACTIVIDADES INMOBILIARIAS COMO LA PROMOCIÓN, TENENCIA Y VENTA DE SOLARES, PARCELAS, EDIFICIOS, VIVIENDAS Y LOCALES. LA COMPRAVENTA DE FINCAS, TERRENOS, SOLARES Y EDIFICIOS Y LA CONSTRUCCIÓN DE ÉSTOS; LA EXPLOTACIÓN DE LOS INMUEBLES DIRECTAMENTE, DÁNDOLOS EN ARRENDAMIENTO O CEDIÉNDOLOS EN CUALQUIER OTRA FORMA.",
      "mainEntityOfPage": "https://www.contratacion.euskadi.eus/webkpe00-kperoc/es/ac71aBusquedaRegistrosWar/empresa/10242",
      "_links": {
        "self": {
          "name": "JG GOLF 18.0, S.L.",
          "href": "https://api.euskadi.eus/procurements/companies/10242"
        }
      }
    },
    {
      "name": "MUP-ARQ SERVICIOS INTEGRALES DE ARQUITECTURA, S.L.",
      "registrationNumber": "09713",
      "identificationNumber": "B01377522",
      "address": "Juan Pablo II, 32-bajo.",
      "location": {
        "postalCode": "01015",
        "municipality": "Vitoria-Gasteiz",
        "county": "Araba/Álava",
        "municipalityId": "059",
        "countyId": "01"
      },
      "economicActivities": [
        {
          "id": "1.843.2",
          "name": "Servicios técnicos de arquitectura y urbanismo",
          "_links": {
            "self": {
              "name": "Servicios técnicos de arquitectura y urbanismo",
              "href": "https://api.euskadi.eus/procurements/companies/economic-activities/1.843.2"
            }
          }
        }
      ],
      "certificateStartDate": "2025-12-04",
      "certificateEndDate": "2026-05-27",
      "object": "LA ACTIVIDAD PROPIA DE LOS PROFESIONALES DE LA ARQUITECTURA.",
      "mainEntityOfPage": "https://www.contratacion.euskadi.eus/webkpe00-kperoc/es/ac71aBusquedaRegistrosWar/empresa/09713",
      "_links": {
        "self": {
          "name": "MUP-ARQ SERVICIOS INTEGRALES DE ARQUITECTURA, S.L.",
          "href": "https://api.euskadi.eus/procurements/companies/09713"
        }
      }
    },
    {
      "name": "PIROTECNIA DE ALTO PALANCIA, S.L.",
      "registrationNumber": "10243",
      "identificationNumber": "B19863620",
      "address": "AVDA:SANTUARIO,Nº1",
      "location": {
        "postalCode": "12410",
        "municipality": "Altura",
        "county": "Castellón/Castelló",
        "municipalityId": "012",
        "countyId": "12"
      },
      "economicActivities": [
        {
          "id": "1.255.5",
          "name": "Fabricación de artículos pirotécnicos, cerillas y fósforos",
          "_links": {
            "self": {
              "name": "Fabricación de artículos pirotécnicos, cerillas y fósforos",
              "href": "https://api.euskadi.eus/procurements/companies/economic-activities/1.255.5"
            }
          }
        }
      ],
      "certificateStartDate": "2025-12-04",
      "certificateEndDate": "2026-06-04",
      "object": "- LA FABRICACIÓN DE PÓLVORAS DE PROYECCIÓN. - LA FABRICACIÓN DE EXPLOSIVOS Y PRODUCTOS PIROTÉCNICOS, INCLUIDOS CEBOS Y CÁPSULAS FULMINANTES, DETONADORES, COHETES DE SEÑALES, ETC. - LA FABRICACIÓN DE CERILLAS.",
      "mainEntityOfPage": "https://www.contratacion.euskadi.eus/webkpe00-kperoc/es/ac71aBusquedaRegistrosWar/empresa/10243",
      "_links": {
        "self": {
          "name": "PIROTECNIA DE ALTO PALANCIA, S.L.",
          "href": "https://api.euskadi.eus/procurements/companies/10243"
        }
      }
    },
    {
      "name": "WALDEMAR LINK ESPAÑA, S.A.",
      "registrationNumber": "02903",
      "identificationNumber": "A60946696",
      "address": "CALLE FONTSANTA 46, PLANTA 5",
      "location": {
        "postalCode": "08970",
        "municipality": "Sant Joan Despí",
        "county": "Barcelona",
        "municipalityId": "217",
        "countyId": "08"
      },
      "economicActivities": [
        {
          "id": "1.619.2",
          "name": "Venta al por mayor de aparatos e instrumentos médicos, ortopédicos, ópticos",
          "_links": {
            "self": {
              "name": "Venta al por mayor de aparatos e instrumentos médicos, ortopédicos, ópticos",
              "href": "https://api.euskadi.eus/procurements/companies/economic-activities/1.619.2"
            }
          }
        }
      ],
      "certificateStartDate": "2025-12-04",
      "certificateEndDate": "2026-05-30",
      "object": "LA COMPRA-VENTA, PROMOCIÓN, DISTRIBUCIÓN, IMPORTACIÓN Y EXPORTACIÓN EN ESPAÑA DE PROTESIS, IMPLANTES Y OTROS PRODUCTOS Y SUMINISTROS CLÍNICOS O SANITARIOS ",
      "mainEntityOfPage": "https://www.contratacion.euskadi.eus/webkpe00-kperoc/es/ac71aBusquedaRegistrosWar/empresa/02903",
      "_links": {
        "self": {
          "name": "WALDEMAR LINK ESPAÑA, S.A.",
          "href": "https://api.euskadi.eus/procurements/companies/02903"
        }
      }
    },
    {
      "name": "URKIZU AGIRRETXE EGUR LANAK, S.L.",
      "registrationNumber": "10241",
      "identificationNumber": "B22475198",
      "address": "Landeta Etorbidea 4",
      "location": {
        "postalCode": "20730",
        "municipality": "Azpeitia",
        "county": "Gipuzkoa",
        "municipalityId": "018",
        "countyId": "20"
      },
      "economicActivities": [
        {
          "id": "1.461",
          "name": "Aserrado y preparación industrial de la madera",
          "_links": {
            "self": {
              "name": "Aserrado y preparación industrial de la madera",
              "href": "https://api.euskadi.eus/procurements/companies/economic-activities/1.461"
            }
          }
        }
      ],
      "certificateStartDate": "2025-12-04",
      "certificateEndDate": "2026-05-28",
      "object": "LA EXPLOTACIÓN DE SERRERÍAS, ASERRADO, SECADO, CEPILLADO Y TRANSFORMACIÓN DE MADERA. LA FABRICACIÓN, ELABORACIÓN, COMERCIALIZACIÓN, IMPORTACIÓN, EXPORTACIÓN, DISTRIBUCIÓN Y VENTA AL POR MAYOR Y AL POR MENOR DE PRODUCTOS DERIVADOS DE LA MADERA, TALES COMO TABLONES, VIGAS, PANELES, TARIMAS, LISTONES Y SIMILARES. LA REALIZACIÓN DE TRABAJOS DE CARPINTERÍA Y EBANISTERÍA TANTO ESTRUCTURAL COMO DECORATIVA. EL DISEÑO, FABRICACIÓN E INSTALACIÓN DE ESTRUCTURAS Y EQUIPAMIENTOS EN MADERA PARA USO RECREATIVO, DEPORTIVO O ARQUITECTÓNICO. LA CONSTRUCCIÓN, MONTAJE Y MANTENIMIENTO DE ROCÓDROMOS, TANTO INTERIORES COMO EXTERIORES, ASÍ COMO LA FABRICACIÓN DE SUS COMPONENTES (PRESAS, PANELES, ESTRUCTURAS METÁLICAS O DE MADERA). LA PROMOCIÓN, CONSTRUCCIÓN, REHABILITACIÓN Y REFORMA DE TODA CLASE DE EDIFICACIONES, TANTO PÚBLICAS COMO PRIVADAS, RELACIONADAS CON INSTALACIONES DEPORTIVAS, CENTROS DE OCIO Y SIMILARES. LA PRESTACIÓN DE SERVICIOS DE ASESORAMIENTO TÉCNICO Y DISEÑO EN PROYECTOS RELACIONADOS CON LA MADERA, ESTRUCTURAS Y CONSTRUCCIÓN DEPORTIVA.  ",
      "mainEntityOfPage": "https://www.contratacion.euskadi.eus/webkpe00-kperoc/es/ac71aBusquedaRegistrosWar/empresa/10241",
      "_links": {
        "self": {
          "name": "URKIZU AGIRRETXE EGUR LANAK, S.L.",
          "href": "https://api.euskadi.eus/procurements/companies/10241"
        }
      }
    },
    {
      "name": "NORVALIA SOLUCIONES MULTISERVICIOS, S.L.",
      "registrationNumber": "07898",
      "identificationNumber": "B27479476",
      "address": "Avenida de Madrid 7 3ºA",
      "location": {
        "postalCode": "27002",
        "municipality": "Lugo",
        "county": "Lugo",
        "municipalityId": "028",
        "countyId": "27"
      },
      "economicActivities": [
        {
          "id": "1.843.1",
          "name": "Servicios técnicos de ingeniería",
          "_links": {
            "self": {
              "name": "Servicios técnicos de ingeniería",
              "href": "https://api.euskadi.eus/procurements/companies/economic-activities/1.843.1"
            }
          }
        }
      ],
      "certificateStartDate": "2025-12-04",
      "certificateEndDate": "2026-05-30",
      "object": "INGENIERÍA Y CONSULTORÍA MULTISERVICIOS; SERVICIOS DE PREVENCIÓN DE RIESGOS LABORALES, CALIDAD Y MEDIO AMBIENTE",
      "mainEntityOfPage": "https://www.contratacion.euskadi.eus/webkpe00-kperoc/es/ac71aBusquedaRegistrosWar/empresa/07898",
      "_links": {
        "self": {
          "name": "NORVALIA SOLUCIONES MULTISERVICIOS, S.L.",
          "href": "https://api.euskadi.eus/procurements/companies/07898"
        }
      }
    },
    {
      "name": "SAGRES, S.L.",
      "registrationNumber": "06541",
      "identificationNumber": "B36028991",
      "address": "Prego de Montaos 7",
      "location": {
        "postalCode": "36800",
        "municipality": "Redondela",
        "county": "Pontevedra",
        "municipalityId": "045",
        "countyId": "36"
      },
      "economicActivities": [
        {
          "id": "1.453",
          "name": "Confección en serie de toda clase de prendas de vestir",
          "_links": {
            "self": {
              "name": "Confección en serie de toda clase de prendas de vestir",
              "href": "https://api.euskadi.eus/procurements/companies/economic-activities/1.453"
            }
          }
        }
      ],
      "certificateStartDate": "2025-12-04",
      "certificateEndDate": "2026-05-15",
      "object": "LA CONFECCIÓN EN SERIE Y COMERCIALIZACIÓN DE PRENDAS DE CUALQUIER CLASE, ASÍ COMO SUS COMPLEMENTOS",
      "mainEntityOfPage": "https://www.contratacion.euskadi.eus/webkpe00-kperoc/es/ac71aBusquedaRegistrosWar/empresa/06541",
      "_links": {
        "self": {
          "name": "SAGRES, S.L.",
          "href": "https://api.euskadi.eus/procurements/companies/06541"
        }
      }
    },
    {
      "name": "IRAITZ ORBEGOZO MENDIOLA",
      "registrationNumber": "09636",
      "identificationNumber": "72490139G",
      "address": "ELOSIAGA AUZOA - ELORRIAGA BAS 376 - BJ",
      "location": {
        "postalCode": "20730",
        "municipality": "Azpeitia",
        "county": "Gipuzkoa",
        "municipalityId": "018",
        "countyId": "20"
      },
      "certificateStartDate": "2025-12-04",
      "certificateEndDate": "2026-04-15",
      "object": "TRANSPORTE DE MERCANCÍAS POR CARRETERA.",
      "mainEntityOfPage": "https://www.contratacion.euskadi.eus/webkpe00-kperoc/es/ac71aBusquedaRegistrosWar/empresa/09636",
      "_links": {
        "self": {
          "name": "IRAITZ ORBEGOZO MENDIOLA",
          "href": "https://api.euskadi.eus/procurements/companies/09636"
        }
      }
    },
    {
      "name": "EXCAVACIONES PRIORSA, S.L.",
      "registrationNumber": "06802",
      "identificationNumber": "B48635296",
      "address": "C/ ARTEAGABEITIA, Nº 15 4º IZDA.",
      "location": {
        "postalCode": "48902",
        "municipality": "Barakaldo",
        "county": "Bizkaia",
        "municipalityId": "013",
        "countyId": "48"
      },
      "economicActivities": [
        {
          "id": "1.501.2",
          "name": "Construcción completa, reparación y conservación obras civiles",
          "_links": {
            "self": {
              "name": "Construcción completa, reparación y conservación obras civiles",
              "href": "https://api.euskadi.eus/procurements/companies/economic-activities/1.501.2"
            }
          }
        }
      ],
      "certificateStartDate": "2025-12-04",
      "certificateEndDate": "2026-05-22",
      "object": "1.-EXCAVACIÓN, CONSOLIDACIÓN Y REPARACIÓN DE TERRENOS, DEMOLICIONES, PERFORACIONES PARA ALUMBRAMIENTO DE AGUAS, CIMENTACIONES, PAVIMENTACIONES Y OBRAS DE JARDINERÍA; DERRIBO, CONSTRUCCIÓN, REPARACIÓN Y CONSERVACIÓN DE EDIFICACIONES URBANAS, INDUSTRIALES, RÚSTICAS Y OBRAS PÚBLICAS. 2.-PREPARACIÓN Y MONTAJE DE ESTRUCTURAS, CUBIERTAS, POSTES, TORRES METÁLICAS, CARRILES, COMPUERTAS, GRÚAS;  Y, EL ALQUILER DE MAQUINARIA DE OBRAS PÚBLICAS. 3.-LA TRANSFORMACIÓN, COMPRA Y VENTA DE LOS MATERIALES EMPLEADOS EN LOS TRABAJOS INCLUIDOS EN LOS APARTADOS ANTERIORES",
      "mainEntityOfPage": "https://www.contratacion.euskadi.eus/webkpe00-kperoc/es/ac71aBusquedaRegistrosWar/empresa/06802",
      "_links": {
        "self": {
          "name": "EXCAVACIONES PRIORSA, S.L.",
          "href": "https://api.euskadi.eus/procurements/companies/06802"
        }
      }
    }
  ]
}