{
  "totalItems": 9042,
  "totalPages": 905,
  "currentPage": 640,
  "itemsOfPage": 10,
  "items": [
    {
      "name": "COMPAREX ESPAÑA, S.A.",
      "registrationNumber": "05385",
      "identificationNumber": "A58282096",
      "address": "Calle Vïa de los Poblados, 1",
      "location": {
        "postalCode": "28033",
        "municipality": "Madrid",
        "county": "Madrid",
        "municipalityId": "079",
        "countyId": "28"
      },
      "economicActivities": [
        {
          "id": "1.617.8",
          "name": "Venta al por mayor de máquinas y material de oficina",
          "_links": {
            "self": {
              "name": "Venta al por mayor de máquinas y material de oficina",
              "href": "https://api.euskadi.eus/procurements/companies/economic-activities/1.617.8"
            }
          }
        },
        {
          "id": "1.845",
          "name": "Explotación electrónica por cuenta de terceros",
          "_links": {
            "self": {
              "name": "Explotación electrónica por cuenta de terceros",
              "href": "https://api.euskadi.eus/procurements/companies/economic-activities/1.845"
            }
          }
        },
        {
          "id": "1.932.1",
          "name": "Enseñanza de formación y perfeccionamiento profesional no superior",
          "_links": {
            "self": {
              "name": "Enseñanza de formación y perfeccionamiento profesional no superior",
              "href": "https://api.euskadi.eus/procurements/companies/economic-activities/1.932.1"
            }
          }
        }
      ],
      "certificateStartDate": "2017-06-21",
      "certificateEndDate": "2017-12-21",
      "object": "COMPRA, VENTA, ARRENDAMIENTO (SALVO ACTIVO FINANCIERO) Y MANTENIMIENTO DE EQUIPOS INFORMÁTICOS (HARDWARE) Y PROGRAMAS PARA ORDENAODRES (SOFTWARE)",
      "mainEntityOfPage": "https://www.contratacion.euskadi.eus/webkpe00-kperoc/es/ac71aBusquedaRegistrosWar/empresa/05385",
      "_links": {
        "self": {
          "name": "COMPAREX ESPAÑA, S.A.",
          "href": "https://api.euskadi.eus/procurements/companies/05385"
        }
      }
    },
    {
      "name": "TECNOCOM TELECOMUNICACIONES Y ENERGÍA, S.A.",
      "registrationNumber": "04508",
      "identificationNumber": "A28191179",
      "address": "JOSEFA VALCARCEL, 26",
      "location": {
        "postalCode": "28027",
        "municipality": "Madrid",
        "county": "Madrid",
        "municipalityId": "079",
        "countyId": "28"
      },
      "economicActivities": [
        {
          "id": "1.617.8",
          "name": "Venta al por mayor de máquinas y material de oficina",
          "_links": {
            "self": {
              "name": "Venta al por mayor de máquinas y material de oficina",
              "href": "https://api.euskadi.eus/procurements/companies/economic-activities/1.617.8"
            }
          }
        },
        {
          "id": "1.845",
          "name": "Explotación electrónica por cuenta de terceros",
          "_links": {
            "self": {
              "name": "Explotación electrónica por cuenta de terceros",
              "href": "https://api.euskadi.eus/procurements/companies/economic-activities/1.845"
            }
          }
        }
      ],
      "certificateStartDate": "2017-06-19",
      "certificateEndDate": "2017-11-16",
      "object": "1.- LA CONSULTORÍA E INGENIERÍA TECNOLÓGICA EN TELECOMUNICACIONES, EN INFORMÁTICA Y EN SISTEMAS DE LA INFORMACIÓN Y EL ASESORAMIENTO, COMERCIALIZACIÓN, IMPLEMENTACIÓN Y MANTENIMIENTO DE PROYECTOS EN LAS MATERIAS ANTERIORMENTE INDICADAS.  2.- LA PRESTACIÓN, CONTRATACIÓN, SUBCONTRATACIÓN, ELABORACIÓN, DESARROLLO, CONTROL Y EJECUCIÓN DE TODO TIPO DE SERVICIOS INFORMÁTICOS, DE TELECOMUNICACIÓNES Y DE CONSULTORÍA E INTEGRACIÓN DE TECNOLOGIAS  DE LA  INFORMACIÓN Y DE LAS COMUNICACIONES Y LA ELABORACIÓN, EDICIÓN, PRODUCCIÓN, PUBLICACIÓN Y COMERCIALIZACIÓN DE PRODUCTOS AUDIOVISUALES.   3.- EL ASESORAMIENTO, COMERCIALIZACIÓN, INSTALACIÓN, DESARROLLO Y SERVICIOS DE MANTENIMIENTO EN INTEGRACIÓN DE SISTEMAS Y SERVICIOS DE DISEÑO E IMPLEMENTACIÓN PARA APLICACIONES DE BANDA ANCHA Y NEWORKING, ASÍ COMO INTEGRACIÓN DE REDES Y SERVCIOS DE OPERACIÓN Y MANTENIMIENTO PARA OPERADORAS DE TELECOMUNICACIONES, COMPAÑÍAS ELÉCTRICAS Y TODO TIPO DE EMPRESAS.   4.- EL ASESORAMIENTO, COMERCIALIZACIÓN, INSTALACIÓN, DESARROLLO Y MANTENIMIENTO DE SOLUCIONES PARA REDES DE TELECOMUNICACIONES EN LAS TECNOLOGÍAS PLC, WI-MAX, COAXIAL E IP.  ASIMISMO, EL OFRECIMIENTO DE SOLUCIONES TALES COMO ACCESO A INTERNET DE ALTA VELOCIDAD, SEGURIDAD, GESTIÓN Y MANTENIMIENTO DE REDES.   5.- LA EXPORTACIÓN, IMPORTACIÓN, ASESORAMIENTO, COMERCIALIZACIÓN, INSTALACIÓN, SOPORTE Y MANTENIMIENTO (HELP DESK) DE CUALQUIER CLASE DE EQUIPO DE TELECOMUNICACIONES O INFORMÁTICOS, HARDWARE Y DE APLICACIONES INSTALADAS EN LOS EQUIPOS ESPECIFICADOS. EL ANÁLISIS, PROGRAMACIÓN, PREPARACIÓN Y APLICACIÓN DE SISTEMAS INFORMÁTICOS PARA TODA CLASE DE ACTIVIDADES, SU SUMINISTRO, IMPLANTACIÓN E INTEGRACIÓN, ASÍ COMO LA FORMACIÓN Y EL ASESORAMIENTO DE PERSONAS Y EMPRESAS.   6.- LAS SOLUCIONES INTEGRALES PARA REDES DE TELEFONÍA, CONSTRUCCIÓN E INSTALACIÓN DE INFRAESTRUCTURAS PARA TELECOMUNICACIONES, LA INGENIERÍA Y FABRICACIÓN DE SOLUCIONES PARA REDUCCIÓN DE IMPACTO VISUAL, ASÍ COMO EL DESARROLLO DE REDES PARA TELEFONÍA MÓVIL Y FIJA.   7.- LA PRESTACION DE SERVICIOS DE EXTERNALIZACIÓN DE OPERACIONES DE SISTEMAS, COMUNICACIONES Y RELACIONADOS CON LAS TECNOLOGÍAS DE LA INFORMACIÓN. LA CONSULTORÍA ESTRATÉGICA, TECNOLÓGICA, ORGANIZATIVA, FORMATIVA Y DE PROCESOS TANTO PARA LAS DIFERENTES ADMINISTRACIONES PÚBLICAS COMO PARA ENTIDADES MIXTAS, PRIVADAS Y PERSONAS FÍSICAS.    8.- LA REALIZACIÓN DE SERVICIOS DE GESTIÓN INTEGRADA DE PROYECTOS, DIRECCIÓN DE OBRAS Y SUMINISTROS TÉCNICOS, ACTIVIDADES DE ASESORAMIENTO Y CONSULTORÍA DE PROYECTOS ARQUITECTÓNICOS Y MUSEOLÓGICOS, ASI COMO LOS SERVICIOS DE CONSULTORÍA TÉCNICA  EN ARQUITECTURA, INGENIERÍA Y SECTORES AFINES   9.- LA REALIZACIÓN DE CONSULTORÍA ORGANIZATIVA, ADMINISTRATIVA, PLANIFICACIÓN ESTRATÉGICA, REINGENIERÍA DE PROCESOS Y DE ESTUDIOS DE MERCADO EN TODAS LAS CITADAS MATERIAS    10.- LA PROMOCIÓN, CREACIÓN Y PARTICIPACIÓN EN EMPRESAS Y SOCIEDADES, INDUSTRIALES, COMERCIALES, INMOBILIARIAS, DE SERVICIOS Y DE CUALQUIER OTRO TIPO\r\n\r\n ",
      "mainEntityOfPage": "https://www.contratacion.euskadi.eus/webkpe00-kperoc/es/ac71aBusquedaRegistrosWar/empresa/04508",
      "_links": {
        "self": {
          "name": "TECNOCOM TELECOMUNICACIONES Y ENERGÍA, S.A.",
          "href": "https://api.euskadi.eus/procurements/companies/04508"
        }
      }
    },
    {
      "name": "IMF INTERNATIONAL BUSINESS SCHOOL",
      "registrationNumber": "05636",
      "identificationNumber": "B83074146",
      "address": "BERNARDINO OBREGÓN, 25",
      "location": {
        "postalCode": "28005",
        "municipality": "Madrid",
        "county": "Madrid",
        "municipalityId": "079",
        "countyId": "28"
      },
      "economicActivities": [
        {
          "id": "1.932.2",
          "name": "Enseñanza de formación y perfeccionamiento profesional superior",
          "_links": {
            "self": {
              "name": "Enseñanza de formación y perfeccionamiento profesional superior",
              "href": "https://api.euskadi.eus/procurements/companies/economic-activities/1.932.2"
            }
          }
        },
        {
          "id": "1.936",
          "name": "Investigación científica y técnica",
          "_links": {
            "self": {
              "name": "Investigación científica y técnica",
              "href": "https://api.euskadi.eus/procurements/companies/economic-activities/1.936"
            }
          }
        }
      ],
      "certificateStartDate": "2017-06-19",
      "certificateEndDate": "2017-10-26",
      "object": "FORMACIÓN A DISTANCIA Y PRESENCIAL DE CURSOS, MÁSTER, CONGRESOS, EXPOSICIONES, MONOGRÁFICOS, SEMINARIOS Y SIMILARES. DESARROLLO Y ORGANIZACIÓN DE CONFERENCIAS Y COLOQUIOS. CONSULTORÍA Y ASESORÍA JURÍDICA Y DE PREVENCIÓN DE RIESGOS LABORALES. TASK-FORCE, FUERZA DE VENTAS. SERVICIO DE IMPRENTA. AGENCIA DE PUBLICIDAD Y RELACIONES PÚBLICAS. SELECCIÓN DE PERSONAL. TELEMARKETING Y TELEVENTA. ALQUILER DE AULAS. ELABORACIÓN DE CONVENIOS PARA LA REALIZACIÓN DE PRÁCTICAS. COMPRAVENTA DE INMUEBLES",
      "mainEntityOfPage": "https://www.contratacion.euskadi.eus/webkpe00-kperoc/es/ac71aBusquedaRegistrosWar/empresa/05636",
      "_links": {
        "self": {
          "name": "IMF INTERNATIONAL BUSINESS SCHOOL",
          "href": "https://api.euskadi.eus/procurements/companies/05636"
        }
      }
    },
    {
      "name": "MONTAJES ELECTRICOS NERVIÓN, S.A.U.",
      "registrationNumber": "04498",
      "identificationNumber": "A48122931",
      "address": "AZETA 13 BAJO",
      "location": {
        "postalCode": "48920",
        "municipality": "Portugalete",
        "county": "Bizkaia",
        "municipalityId": "078",
        "countyId": "48"
      },
      "economicActivities": [
        {
          "id": "1.504.12",
          "name": "Instalaciones eléctricas en toda clase de edificios",
          "_links": {
            "self": {
              "name": "Instalaciones eléctricas en toda clase de edificios",
              "href": "https://api.euskadi.eus/procurements/companies/economic-activities/1.504.12"
            }
          }
        }
      ],
      "certificateStartDate": "2017-06-16",
      "certificateEndDate": "2017-12-29",
      "object": "EL MANTENIMIENTO, MONTAJE, REPARACIÓN, INSTRUMENTALIZACIÓN DE MAQUINARIA E INSTALACIONES ELÉCTRICAS EN GENERAL, LA COMPRA Y VENTA DE UTENSILIOS CON DICHAS ACTIVIDADES RELACIONADAS",
      "mainEntityOfPage": "https://www.contratacion.euskadi.eus/webkpe00-kperoc/es/ac71aBusquedaRegistrosWar/empresa/04498",
      "_links": {
        "self": {
          "name": "MONTAJES ELECTRICOS NERVIÓN, S.A.U.",
          "href": "https://api.euskadi.eus/procurements/companies/04498"
        }
      }
    },
    {
      "name": "CONSTRUCCIONES BARACONS, S.L.",
      "registrationNumber": "01516",
      "identificationNumber": "B48510010",
      "address": "C/ECONOMÍA, Nº 42 -LONJA",
      "location": {
        "postalCode": "48902",
        "municipality": "Barakaldo",
        "county": "Bizkaia",
        "municipalityId": "013",
        "countyId": "48"
      },
      "economicActivities": [
        {
          "id": "1.501.1",
          "name": "Construcción completa, reparación y conservación de edificaciones",
          "_links": {
            "self": {
              "name": "Construcción completa, reparación y conservación de edificaciones",
              "href": "https://api.euskadi.eus/procurements/companies/economic-activities/1.501.1"
            }
          }
        }
      ],
      "certificateStartDate": "2017-06-15",
      "certificateEndDate": "2017-12-01",
      "object": "LA REALIZACIÓN DE ACTIVIDADES DE ALBAÑILERÍA, PINTURA, CARPINTERÍA Y DECORACIÓN EN TODAS SUS VARIANTES Y FORMAS, TANTO EN EXTERIORES COMO EN INTERIORES; INSTALACIONESDE PAPELES PINTADOS, MOQUETAS, MADERAS Y OTROS MATERIALES ANÁLOGOS; COMPRA-VENTA AL POR MAYOR Y MENOR DE PINTURAS, PAPELES PINTADOS, MOQUETAS, MADERAS Y OTROS MATERIALES, PARA DECORACIÓN, ALBAÑILERÍA, CARPINTERÍA Y PINTURA, SU COMERCIALIZACIÓN Y ALMACENAMIENTO; LA EJECUCIÓN COMPLETA O POR TRAMOS DE TODA CLASE DE OBRAS DE CONSTRUCCIÓN, REPARACIÓN, IMPERMEABILIZACIÓN, LIMPIEZA O CONSERVACIÓN POR CUENTA PROPIA O AJENA DE TODA CLASE DE EDIFICACIONES POR PARTES O POR PISOS, BIEN PARA VIVIENDAS O PARA LOCALES DE NEGOCIOS, LA COMPRA, VENTA, PERMUTA O ALQUILER DE EDIFICACIONES, EN SU TOTALIDAD, POR PARTES O POR PISOS; LA LIMPIEZA EN TODA CLASE DE FACHADAS; ASÍ COMO LA COMPRA-VENTA DE TODA CLASE DE MATERIALES AUXILIARES O ANEJOS PARA LA CONSTRUCCIÓN",
      "mainEntityOfPage": "https://www.contratacion.euskadi.eus/webkpe00-kperoc/es/ac71aBusquedaRegistrosWar/empresa/01516",
      "_links": {
        "self": {
          "name": "CONSTRUCCIONES BARACONS, S.L.",
          "href": "https://api.euskadi.eus/procurements/companies/01516"
        }
      }
    },
    {
      "name": "ADOLFO MARTÍNEZ DE SANTOS AGUAYO",
      "registrationNumber": "05635",
      "identificationNumber": "16253664R",
      "address": "REAL, 15",
      "location": {
        "postalCode": "01427",
        "municipality": "Valdegovía/Gaubea",
        "county": "Araba/Álava",
        "municipalityId": "055",
        "countyId": "01"
      },
      "economicActivities": [
        {
          "id": "2.612",
          "name": "Conductores de vehículos terrestres",
          "_links": {
            "self": {
              "name": "Conductores de vehículos terrestres",
              "href": "https://api.euskadi.eus/procurements/companies/economic-activities/2.612"
            }
          }
        }
      ],
      "certificateStartDate": "2017-06-15",
      "certificateEndDate": "2017-12-05",
      "object": "CONDUCTOR DE VEHÍCULO TERRESTRE",
      "mainEntityOfPage": "https://www.contratacion.euskadi.eus/webkpe00-kperoc/es/ac71aBusquedaRegistrosWar/empresa/05635",
      "_links": {
        "self": {
          "name": "ADOLFO MARTÍNEZ DE SANTOS AGUAYO",
          "href": "https://api.euskadi.eus/procurements/companies/05635"
        }
      }
    },
    {
      "name": "TOKIOTA, S.L.",
      "registrationNumber": "05631",
      "identificationNumber": "B65909889",
      "address": "CARRER MERIDIONAL 9",
      "location": {
        "postalCode": "08018",
        "municipality": "Barcelona",
        "county": "Barcelona",
        "municipalityId": "019",
        "countyId": "08"
      },
      "economicActivities": [
        {
          "id": "1.845",
          "name": "Explotación electrónica por cuenta de terceros",
          "_links": {
            "self": {
              "name": "Explotación electrónica por cuenta de terceros",
              "href": "https://api.euskadi.eus/procurements/companies/economic-activities/1.845"
            }
          }
        }
      ],
      "certificateStartDate": "2017-05-30",
      "certificateEndDate": "2017-11-17",
      "object": "INFORMATICA, TELECOMUNICACIONES Y OFIMATICA",
      "mainEntityOfPage": "https://www.contratacion.euskadi.eus/webkpe00-kperoc/es/ac71aBusquedaRegistrosWar/empresa/05631",
      "_links": {
        "self": {
          "name": "TOKIOTA, S.L.",
          "href": "https://api.euskadi.eus/procurements/companies/05631"
        }
      }
    },
    {
      "name": "AKARLANDA CONSTRUCCIONES, S.A.",
      "registrationNumber": "04943",
      "identificationNumber": "A95679254",
      "address": "CAMINO DE APERRIBAI. 16-18",
      "location": {
        "postalCode": "48960",
        "municipality": "Galdakao",
        "county": "Bizkaia",
        "municipalityId": "036",
        "countyId": "48"
      },
      "economicActivities": [
        {
          "id": "1.507",
          "name": "Construcción, reparación y conservación de toda clase obras",
          "_links": {
            "self": {
              "name": "Construcción, reparación y conservación de toda clase obras",
              "href": "https://api.euskadi.eus/procurements/companies/economic-activities/1.507"
            }
          }
        }
      ],
      "certificateStartDate": "2017-05-24",
      "certificateEndDate": "2017-11-21",
      "object": "LA ADQUISICIÓN Y ENAJENACIÓN POR CUALQUIER TÍTULO, DE FINCAS RÚSTICAS Y URBANAS, YA SEAN TIERRAS, SOLARES O EDICIÓN, TENENCIA, EXPLOTACIÓN Y ARRENDAMIENTO, YA SEA ACTIVO O PASIVO DE TALES BIENES Y ASU VENTA, TOTAL O PARCIAL, SEGÚN CONVENGA, PARA SU APROVECHAMIENTO AGRÍCOLA, FORESTAL, URBANO, INDUSTRIAL O CUALQUIER OTRO, LA PROMOCIÓN URBANÍSTICA Y LA REALIZACIÓN DE TODA CLASE DE OBRAS DE CONSTRUCCIÓN Y URBANIZACIÓN POR CUENTA PROPIA O DE TERCEROS, SEAN ENTIDADES PÚBLICAS O PARTICULARES",
      "mainEntityOfPage": "https://www.contratacion.euskadi.eus/webkpe00-kperoc/es/ac71aBusquedaRegistrosWar/empresa/04943",
      "_links": {
        "self": {
          "name": "AKARLANDA CONSTRUCCIONES, S.A.",
          "href": "https://api.euskadi.eus/procurements/companies/04943"
        }
      }
    },
    {
      "name": "GRUPO TAPER, S.A.",
      "registrationNumber": "01832",
      "identificationNumber": "A78980273",
      "address": "CTRA. FUENCARRAL M-603, KM. 3,8 (P.EMPR. ARBEA-EDIF. 5)",
      "location": {
        "postalCode": "28100",
        "municipality": "Alcobendas",
        "county": "Madrid",
        "municipalityId": "006",
        "countyId": "28"
      },
      "economicActivities": [
        {
          "id": "1.495.9",
          "name": "Fabricación de otros artículos n.c.o.p",
          "_links": {
            "self": {
              "name": "Fabricación de otros artículos n.c.o.p",
              "href": "https://api.euskadi.eus/procurements/companies/economic-activities/1.495.9"
            }
          }
        },
        {
          "id": "1.619.2",
          "name": "Venta al por mayor de aparatos e instrumentos médicos, ortopédicos, ópticos",
          "_links": {
            "self": {
              "name": "Venta al por mayor de aparatos e instrumentos médicos, ortopédicos, ópticos",
              "href": "https://api.euskadi.eus/procurements/companies/economic-activities/1.619.2"
            }
          }
        },
        {
          "id": "1.619.7",
          "name": "Venta al por mayor de instrumentos de precisión, medida y similares",
          "_links": {
            "self": {
              "name": "Venta al por mayor de instrumentos de precisión, medida y similares",
              "href": "https://api.euskadi.eus/procurements/companies/economic-activities/1.619.7"
            }
          }
        },
        {
          "id": "1.699",
          "name": "Otras reparaciones n.c.o.p",
          "_links": {
            "self": {
              "name": "Otras reparaciones n.c.o.p",
              "href": "https://api.euskadi.eus/procurements/companies/economic-activities/1.699"
            }
          }
        },
        {
          "id": "1.841",
          "name": "Servicios jurídicos",
          "_links": {
            "self": {
              "name": "Servicios jurídicos",
              "href": "https://api.euskadi.eus/procurements/companies/economic-activities/1.841"
            }
          }
        }
      ],
      "certificateStartDate": "2017-05-15",
      "certificateEndDate": "2017-10-25",
      "object": "LA CONSTRUCCIÓN, PROMOCIÓN Y VENTA POR CUENTA PROPIA O AJENA, DE EDIFICACIONES PARA VIVIENDA O USOS INDUSTRIALES Y COMERCIALES, ASÍ COMO LA REALIZACIÓN DE TODA CLASE DE OBRAS, TANTO PÚBLICAS COMO PRIVADAS Y LA URBANIZACIÓN Y PARCELACIÓN DE TODA CLASE DE TERRENOS. LA COMPRA, VENTA, SUMINISTRO, MONTAJE, FABRICACIÓN, INSTALACIÓN, ARRENDAMIENTO DE TODA CLASE DE MATERIAL, ENSERES Y MUEBLES DESTINADOS A SERVICIO MÉDICO-QUIRÚRGICO Y ORTOPEDIA, ASÍ COMO INSTRUMENTAL Y APARATOS. LA PRESTACIÓN DE SERVICIOS A PERSONAS FÍSICAS O JURÍDICAS, PÚBLICAS O PRIVADAS, DE ASESORAMIENTO PROFESIONAL EN LOS CAMPOS JURÍDICOS, LABORAL, CONTABLE, FISCAL Y ADMINISTRATIVO, CON TODO CUANTO A TAL OBJETO SEA INHERENTE O COMPLEMENTARIO",
      "mainEntityOfPage": "https://www.contratacion.euskadi.eus/webkpe00-kperoc/es/ac71aBusquedaRegistrosWar/empresa/01832",
      "_links": {
        "self": {
          "name": "GRUPO TAPER, S.A.",
          "href": "https://api.euskadi.eus/procurements/companies/01832"
        }
      }
    },
    {
      "name": "URIKER, S.L.",
      "registrationNumber": "01929",
      "identificationNumber": "A48473516",
      "address": "LARRONDO BEHEKO ETORBIDEA, NAVE 3. PABELLÓN 27",
      "location": {
        "postalCode": "48180",
        "municipality": "Loiu",
        "county": "Bizkaia",
        "municipalityId": "903",
        "countyId": "48"
      },
      "economicActivities": [
        {
          "id": "1.843.9",
          "name": "Otros servicios técnicos n.c.o.p",
          "_links": {
            "self": {
              "name": "Otros servicios técnicos n.c.o.p",
              "href": "https://api.euskadi.eus/procurements/companies/economic-activities/1.843.9"
            }
          }
        }
      ],
      "certificateStartDate": "2017-05-08",
      "certificateEndDate": "2016-12-11",
      "object": "LAS ACTIVIDADES DE LABORATORIO DE ANÁLISIS Y ESTUDIOS MEDIOAMBIENTALES, CURSOS DE FORMACIÓN Y ASISTENCIA TÉCNICA, ASÍ COMO EL ASESORAMIENTO EN DICHOS TEMAS MEDIOAMBIENTALES. LOS SERVICIOS DE MANTENIMIENTO DE LAS REDES DE AGUAS, TANTO DE ABASTECIMIENTO COMO DE SANEAMIENTO, ASÍ COMO EL MANTENIMIENTO DE ESTACIONES DEPURADORAS, EN MATERIA DE CONTROLES ANALÍTICOS EN SUS ASPECTOS QUÍMICOS, FÍSICOS Y MICROBIOLÓGICOS, ASÍ COMO A LOS SERVICIOS DE CONTROL DE AGUAS DE CUALQUIER TIPO (DE PROCESO, ABASTECIMIENTO, VERTIDO, ETC.), LAS EMISIONES ATMOSFÉRICAS, EL CONTROL Y CARACTERIZACIÓN DE RESIDUOS, TIERRAS O SÓLIDOS, A CUALQUIER TIPO DE ENTIDAD PÚBLICA O PRIVADA",
      "mainEntityOfPage": "https://www.contratacion.euskadi.eus/webkpe00-kperoc/es/ac71aBusquedaRegistrosWar/empresa/01929",
      "_links": {
        "self": {
          "name": "URIKER, S.L.",
          "href": "https://api.euskadi.eus/procurements/companies/01929"
        }
      }
    }
  ]
}