{
  "totalItems": 9042,
  "totalPages": 905,
  "currentPage": 832,
  "itemsOfPage": 10,
  "items": [
    {
      "name": "MINTEGUI Y SERVICIOS, S.A.",
      "registrationNumber": "00293",
      "identificationNumber": "A48191811",
      "address": "C/ PÉREZ GALDÓS, Nº 24",
      "location": {
        "postalCode": "48010",
        "municipality": "Bilbao",
        "county": "Bizkaia",
        "municipalityId": "020",
        "countyId": "48"
      },
      "economicActivities": [
        {
          "id": "1.654.1",
          "name": "Venta al por menor de vehículos terrestres",
          "_links": {
            "self": {
              "name": "Venta al por menor de vehículos terrestres",
              "href": "https://api.euskadi.eus/procurements/companies/economic-activities/1.654.1"
            }
          }
        },
        {
          "id": "1.691.2",
          "name": "Reparación de vehículos automóviles, bicicletas y otros vehículos",
          "_links": {
            "self": {
              "name": "Reparación de vehículos automóviles, bicicletas y otros vehículos",
              "href": "https://api.euskadi.eus/procurements/companies/economic-activities/1.691.2"
            }
          }
        }
      ],
      "certificateStartDate": "1998-11-18",
      "certificateEndDate": "1997-12-02",
      "object": "EL COMERCIO AL POR MAYOR Y AL POR MENOR, IMPORTACION Y EXPORTACION DE AUTOMOVILES DE TODAS CLASES, CUALESQUIERA OTROS MATERIALES DE TRANSPORTE; ASI COMO DE LOS ACCESORIOS, RECAMBIOS, COMBUSTIBLES, LUBRICANTES, HERRAMIENTAS Y DEMAS ARTICULOS O PRODUCTOS RELACIONADOS CON AQUELLOS BIENES",
      "mainEntityOfPage": "https://www.contratacion.euskadi.eus/webkpe00-kperoc/es/ac71aBusquedaRegistrosWar/empresa/00293",
      "_links": {
        "self": {
          "name": "MINTEGUI Y SERVICIOS, S.A.",
          "href": "https://api.euskadi.eus/procurements/companies/00293"
        }
      }
    },
    {
      "name": "COBE IBÉRICA, S.A.",
      "registrationNumber": "01024",
      "identificationNumber": "A59195453",
      "address": "C/ CABALLEROS, Nº 61- 4º",
      "location": {
        "postalCode": "08014",
        "municipality": "Barcelona",
        "county": "Barcelona",
        "municipalityId": "019",
        "countyId": "08"
      },
      "economicActivities": [
        {
          "id": "1.619.2",
          "name": "Venta al por mayor de aparatos e instrumentos médicos, ortopédicos, ópticos",
          "_links": {
            "self": {
              "name": "Venta al por mayor de aparatos e instrumentos médicos, ortopédicos, ópticos",
              "href": "https://api.euskadi.eus/procurements/companies/economic-activities/1.619.2"
            }
          }
        },
        {
          "id": "1.859",
          "name": "Alquiler de otros bienes muebles n.c.o.p. (sin personal permanente)",
          "_links": {
            "self": {
              "name": "Alquiler de otros bienes muebles n.c.o.p. (sin personal permanente)",
              "href": "https://api.euskadi.eus/procurements/companies/economic-activities/1.859"
            }
          }
        }
      ],
      "certificateStartDate": "1998-11-18",
      "certificateEndDate": "1998-04-03",
      "object": "LA FABRICACIÓN, COMERCIALIZACIÓN, IMPORTACIÓN Y EXPORTACIÓN DE PRODUCTOS HOSPITALARIOS, FARMACEUTICOS Y QUÍMICOS, TANTO NACIONALES COMO EXTRANJEROS, ASI COMO DE PUBLICIDAD DE LOS MISMOS",
      "mainEntityOfPage": "https://www.contratacion.euskadi.eus/webkpe00-kperoc/es/ac71aBusquedaRegistrosWar/empresa/01024",
      "_links": {
        "self": {
          "name": "COBE IBÉRICA, S.A.",
          "href": "https://api.euskadi.eus/procurements/companies/01024"
        }
      }
    },
    {
      "name": "TELEFÓNICA, S.A.",
      "registrationNumber": "01290",
      "identificationNumber": "A28015865",
      "address": "C/ GRAN VÍA, Nº 28 - 5º. ",
      "location": {
        "postalCode": "28013",
        "municipality": "Madrid",
        "county": "Madrid",
        "municipalityId": "079",
        "countyId": "28"
      },
      "certificateStartDate": "1998-11-18",
      "certificateEndDate": "1999-05-02",
      "object": "LA INSTALACION, REFACCION, MEJORA, ADQUISICION, ENAJENACION, EXPLOTACION Y ADMINISTRACION DE TODA CLASE DE REDES, LINEAS Y SERVICIOS DE TELEFONIA Y DE CUALQUIER OTRO PROCEDIMIENTO DE TELECOMUNICACION EMPLEADO EN LA ACTUALIDAD O QUE PUEDA DESCUBRIRSE EN LO SUCESIVO; LA PRESTACION DE OTROS SERVICIOS AUXILIARES DE DICHAS TELECOMUNICACIONES; LA ADQUISICION, ENAJENACION Y GRAVAMEN DE TODA CLASE DE BIENES MUEBLES, INMUEBLES, DERECHOS Y CONCESIONES; Y LA FABRICACION, ARREGLO, COMPRAVENTA, NEGOCIACION, IMPORTACION Y EXPLOTACION DE MATERIALES ADECUADOS, MAQUINAS Y UTENSILIOS SIN EXCEPCION ALGUNA, QUE PUEDAN SER UTILES PARA LA REALIZACION DE LOS EXPRESADOS FINES",
      "mainEntityOfPage": "https://www.contratacion.euskadi.eus/webkpe00-kperoc/es/ac71aBusquedaRegistrosWar/empresa/01290",
      "_links": {
        "self": {
          "name": "TELEFÓNICA, S.A.",
          "href": "https://api.euskadi.eus/procurements/companies/01290"
        }
      }
    },
    {
      "name": "LABOLAN MATERIAL E INSTRUMENTACIÓN DE LABORATORIO, S.L.",
      "registrationNumber": "02066",
      "identificationNumber": "B31129604",
      "address": "POL. IND. IPERTEGUI, Nº 28",
      "location": {
        "postalCode": "31160",
        "municipality": "Orkoien",
        "county": "Navarra",
        "municipalityId": "906",
        "countyId": "31"
      },
      "economicActivities": [
        {
          "id": "1.352",
          "name": "Fabricación de aparatos y equipo electromédico y de uso profesional",
          "_links": {
            "self": {
              "name": "Fabricación de aparatos y equipo electromédico y de uso profesional",
              "href": "https://api.euskadi.eus/procurements/companies/economic-activities/1.352"
            }
          }
        },
        {
          "id": "1.619.7",
          "name": "Venta al por mayor de instrumentos de precisión, medida y similares",
          "_links": {
            "self": {
              "name": "Venta al por mayor de instrumentos de precisión, medida y similares",
              "href": "https://api.euskadi.eus/procurements/companies/economic-activities/1.619.7"
            }
          }
        }
      ],
      "certificateStartDate": "1998-11-17",
      "certificateEndDate": "1999-04-27",
      "object": "LA FABRICACIÓN, IMPORTACIÓN, COMPRA Y VENTA DE MOBILIARIO DE LABORATORIO INDUSTRIAL, DE ENSEÑANZA Y CLÍNICO; APARATOS RELACIONADOS CON TÉCNICAS DE ANÁLISIS QUÍMICOS, FÍSICOS Y CLÍNICOS; PRODUCTOS QUÍMICOS RELACIONADOS CON ANÁLISIS QUÍMICOS, FÍSICOS Y CLÍNICOS, PRODUCTOS QUÍMICAMENTE PUROS E INDUSTRIALES; APARATOS DE MEDIDA, PESO Y CONTROL DE PROCESOS; EQUIPOS INDUSTRIALES DE DESENGRASE, LIMPIEZA Y LAVADO; VIDRIO DE IMPORTACIÓN, TERMOMETRÍA INDUSTRIAL; PORTAOBJETOS, CUBREOBJETOS, BARRETAS CARBORUNDUN, BARÓMETROS, MANÓMETROS, TERMOSTATOS Y PREOSTATOS, REGULADORES DE TIEMPO Y TEMPERATURA",
      "mainEntityOfPage": "https://www.contratacion.euskadi.eus/webkpe00-kperoc/es/ac71aBusquedaRegistrosWar/empresa/02066",
      "_links": {
        "self": {
          "name": "LABOLAN MATERIAL E INSTRUMENTACIÓN DE LABORATORIO, S.L.",
          "href": "https://api.euskadi.eus/procurements/companies/02066"
        }
      }
    },
    {
      "name": "CONSULTING CREATIVO, S.L.",
      "registrationNumber": "01489",
      "identificationNumber": "B48480578",
      "address": "C/ JUAN DE AJURIAGUERRA, Nº 9 - 5º I.",
      "location": {
        "postalCode": "48009",
        "municipality": "Bilbao",
        "county": "Bizkaia",
        "municipalityId": "020",
        "countyId": "48"
      },
      "economicActivities": [
        {
          "id": "1.844",
          "name": "Servicios de publicidad, relaciones públicas y similares",
          "_links": {
            "self": {
              "name": "Servicios de publicidad, relaciones públicas y similares",
              "href": "https://api.euskadi.eus/procurements/companies/economic-activities/1.844"
            }
          }
        }
      ],
      "certificateStartDate": "1998-11-12",
      "certificateEndDate": "1999-05-11",
      "object": "SERVICIOS DE ASESORAMIENTO COMERCIAL, ESTUDIO O INVESTIGACION DE MERCADOS, REALIZACION DE CAMPAÑAS PUBLICITARIAS Y SERVICIOS GENERALES DE PUBLICIDAD",
      "mainEntityOfPage": "https://www.contratacion.euskadi.eus/webkpe00-kperoc/es/ac71aBusquedaRegistrosWar/empresa/01489",
      "_links": {
        "self": {
          "name": "CONSULTING CREATIVO, S.L.",
          "href": "https://api.euskadi.eus/procurements/companies/01489"
        }
      }
    },
    {
      "name": "CIERRES Y MONTAJES, S.A. (CIMONSA)",
      "registrationNumber": "02064",
      "identificationNumber": "A48073746",
      "address": "POLÍGONO ERLETXE. PLATAFORMA: 112. NAVE: 29 - C.",
      "location": {
        "postalCode": "48960",
        "municipality": "Galdakao",
        "county": "Bizkaia",
        "municipalityId": "036",
        "countyId": "48"
      },
      "economicActivities": [
        {
          "id": "1.316.2",
          "name": "Fabricación de artículos de ferretería y cerrajería",
          "_links": {
            "self": {
              "name": "Fabricación de artículos de ferretería y cerrajería",
              "href": "https://api.euskadi.eus/procurements/companies/economic-activities/1.316.2"
            }
          }
        }
      ],
      "certificateStartDate": "1998-11-12",
      "certificateEndDate": "1999-05-10",
      "object": "LA EXPLOTACIÓN DEL NEGOCIO DE FABRICACIÓN, CONSTRUCCIÓN, MONTAJE, MANTENIMIENTO, REPARACIÓN E INSTALACIÓN DE CIERRES, VERJAS Y PASARELAS METÁLICAS, DEFENSAS Y TODO TIPO DE PROTECCIONES Y SUS ACCESORIOS Y COMPONENTES",
      "mainEntityOfPage": "https://www.contratacion.euskadi.eus/webkpe00-kperoc/es/ac71aBusquedaRegistrosWar/empresa/02064",
      "_links": {
        "self": {
          "name": "CIERRES Y MONTAJES, S.A. (CIMONSA)",
          "href": "https://api.euskadi.eus/procurements/companies/02064"
        }
      }
    },
    {
      "name": "ROTACAST, S.A.",
      "registrationNumber": "01983",
      "identificationNumber": "A60512159",
      "address": "C/ AVENIDA CATALUNYA, Nº 4.",
      "location": {
        "postalCode": "08185",
        "municipality": "Lliçà de Vall",
        "county": "Barcelona",
        "municipalityId": "108",
        "countyId": "08"
      },
      "economicActivities": [
        {
          "id": "1.392.1",
          "name": "Fabricación de material médico-quirúrgico",
          "_links": {
            "self": {
              "name": "Fabricación de material médico-quirúrgico",
              "href": "https://api.euskadi.eus/procurements/companies/economic-activities/1.392.1"
            }
          }
        }
      ],
      "certificateStartDate": "1998-11-10",
      "certificateEndDate": "1999-04-26",
      "object": "LA FABRICACIÓN, COMERCIALIZACIÓN, IMPORTACIÓN, EXPORTACIÓN, REPRESENTACIÓN, COMPRA, VENTA Y TRANSFORMACIÓN DE TODA CLASE DE ARTÍCULOS MÉDICO-QUIRÚRGICOS, HOSPITALARIOS Y SANITARIOS",
      "mainEntityOfPage": "https://www.contratacion.euskadi.eus/webkpe00-kperoc/es/ac71aBusquedaRegistrosWar/empresa/01983",
      "_links": {
        "self": {
          "name": "ROTACAST, S.A.",
          "href": "https://api.euskadi.eus/procurements/companies/01983"
        }
      }
    },
    {
      "name": "FOREGEST-2000, S.L.",
      "registrationNumber": "02061",
      "identificationNumber": "B48798383",
      "address": "C/ BARRIO MARTIARTU, Nº 11. ",
      "location": {
        "postalCode": "48480",
        "municipality": "Arrigorriaga",
        "county": "Bizkaia",
        "municipalityId": "011",
        "countyId": "48"
      },
      "economicActivities": [
        {
          "id": "1.912",
          "name": "Servicios forestales",
          "_links": {
            "self": {
              "name": "Servicios forestales",
              "href": "https://api.euskadi.eus/procurements/companies/economic-activities/1.912"
            }
          }
        }
      ],
      "certificateStartDate": "1998-11-04",
      "certificateEndDate": "1999-04-19",
      "object": "LA COMERCIALIZACIÓN Y APROVECHAMIENTO, INCLUÍDO COMERCIO EXTERIOR E INTERIOR, DE PRODUCTOS FORESTALES, COMPRA, VENTA Y REVENTA, DE TODO TIPO DE MADERAS Y EXPLOTACIONES FORESTALES, ASÍ COMO A TRABAJOS FORESTALES, COMO PLANTACIÓN, LIMPIEZA, PODA, PISTAS FORESTALES Y TRABAJOS SELVÍCOLAS, ASÍ COMO ESTUDIOS Y PLANES DE GESTIÓN   ",
      "mainEntityOfPage": "https://www.contratacion.euskadi.eus/webkpe00-kperoc/es/ac71aBusquedaRegistrosWar/empresa/02061",
      "_links": {
        "self": {
          "name": "FOREGEST-2000, S.L.",
          "href": "https://api.euskadi.eus/procurements/companies/02061"
        }
      }
    },
    {
      "name": "PRICE WATERHOUSE & CO Y CÍA, S.R.C.",
      "registrationNumber": "00406",
      "identificationNumber": "C28061935",
      "address": "C/ PASEO DE LA CASTELLANA, Nº 43.",
      "location": {
        "postalCode": "28046",
        "municipality": "Madrid",
        "county": "Madrid",
        "municipalityId": "079",
        "countyId": "28"
      },
      "economicActivities": [
        {
          "id": "1.842",
          "name": "Servicios financieros y contables",
          "_links": {
            "self": {
              "name": "Servicios financieros y contables",
              "href": "https://api.euskadi.eus/procurements/companies/economic-activities/1.842"
            }
          }
        }
      ],
      "certificateStartDate": "1998-10-29",
      "certificateEndDate": "1999-03-25",
      "object": "LA REVISION Y CENSURAS DE CUENTAS QUE LE SEAN ENCOMENDADAS POR SUS CLIENTES, LA EMISION DE INFORMES Y PRESTACION DE SERVICIOS DE CUALQUIER CLASE EN RELACION CON LA CONTABILIDAD DE TALES CLIENTES; LA ADMINISTRACION Y GESTION DE EMPRESAS ASI COMO SU ASESORAMIENTO; LA PRESTACION DE TODO TIPO DE SERVICIOS DE CONSULTORIA, ASESORAMIENTO FINANCIERO Y FISCAL, MARKETING, MANUFATURING, ESTUDIOS DE MERCADO, SONDEOS DE OPINION, ESTUDIOS DE VIABILIDAD, PLANIFICACION ESTRATEGICA, RECURSOS HUMANOS, RETAILING, ESTUDIOS SOBRE PRODUCCION, VALORACION DE BIENES Y GESTION DE PATRIMONIOS",
      "mainEntityOfPage": "https://www.contratacion.euskadi.eus/webkpe00-kperoc/es/ac71aBusquedaRegistrosWar/empresa/00406",
      "_links": {
        "self": {
          "name": "PRICE WATERHOUSE & CO Y CÍA, S.R.C.",
          "href": "https://api.euskadi.eus/procurements/companies/00406"
        }
      }
    },
    {
      "name": "CONSTRUCCIONES URQUIZAR, S.L.",
      "registrationNumber": "01198",
      "identificationNumber": "B20080495",
      "address": "C/ CASA PLAZA - AURRE, 1º DCHA.",
      "location": {
        "postalCode": "20490",
        "municipality": "Lizartza",
        "county": "Gipuzkoa",
        "municipalityId": "054",
        "countyId": "20"
      },
      "economicActivities": [
        {
          "id": "1.501.1",
          "name": "Construcción completa, reparación y conservación de edificaciones",
          "_links": {
            "self": {
              "name": "Construcción completa, reparación y conservación de edificaciones",
              "href": "https://api.euskadi.eus/procurements/companies/economic-activities/1.501.1"
            }
          }
        }
      ],
      "certificateStartDate": "1998-10-28",
      "certificateEndDate": "1999-04-05",
      "object": "LA CONSTRUCCIÓN DE EDIFICIOS Y LOCALES, VIVIENDAS, ALBAÑILERÍA, TANTO PRIVADAS COMO PÚBLICAS, CARRETERAS, CALLES, ETC., LA CONSTRUCCIÓN EN SU MÁS AMPLIO SENTIDO, Y TODO LO QUE CON ELLA ESTE RELACIONADO",
      "mainEntityOfPage": "https://www.contratacion.euskadi.eus/webkpe00-kperoc/es/ac71aBusquedaRegistrosWar/empresa/01198",
      "_links": {
        "self": {
          "name": "CONSTRUCCIONES URQUIZAR, S.L.",
          "href": "https://api.euskadi.eus/procurements/companies/01198"
        }
      }
    }
  ]
}