{
  "totalItems": 9042,
  "totalPages": 905,
  "currentPage": 397,
  "itemsOfPage": 10,
  "items": [
    {
      "name": "BIDEA AVANT, S.L.",
      "registrationNumber": "07113",
      "identificationNumber": "B64602881",
      "address": "PASEO MIRAMÓN, 170",
      "location": {
        "postalCode": "20014",
        "municipality": "Donostia / San Sebastián",
        "county": "Gipuzkoa",
        "municipalityId": "069",
        "countyId": "20"
      },
      "economicActivities": [
        {
          "id": "1.845",
          "name": "Explotación electrónica por cuenta de terceros",
          "_links": {
            "self": {
              "name": "Explotación electrónica por cuenta de terceros",
              "href": "https://api.euskadi.eus/procurements/companies/economic-activities/1.845"
            }
          }
        }
      ],
      "certificateStartDate": "2024-09-03",
      "certificateEndDate": "2025-03-03",
      "object": "1. EL DESARROLLO, FABRICACIÓN, COMPRAVENTA, ALQUILER, INSTALACIÓN, MANTENIMIENTO Y REPARACIÓN DE TODA CLASE DE APLICACIONES SOFTWARE, PRODUCTOS Y EQUIPOS INFORMÁTICOS, TELEFÓNICOS Y DE TELECOMUNICACIONES FIJAS Y MÓVILES. 2.LA PRESTACIÓN DE SERVICIOS DE ASESORÍA, CONSULTARÍA Y SOPORTE TÉCNICO A TODO TIPO DE EMPRESAS Y ORGANISMOS PARA LA OPERACIÓN DE APLICACIONES SOFTWARE, EQUIPOS DISPOSITIVOS Y SISTEMAS INFORMÁTICOS, TELEFÓNICOS Y DE TELECOMUNICACIONES FIJAS O MÓVILES. 3. LA COMPRAVENTA, ARRENDAMIENTO, INSTALACIÓN MANTENIMIENTO DE REDES INFORMÁTICAS Y DE REDES Y LÍNEAS DE TELEFONÍA Y DE TELECOMUNICACIONES TANTO FIJAS COMO MÓVILES",
      "mainEntityOfPage": "https://www.contratacion.euskadi.eus/webkpe00-kperoc/es/ac71aBusquedaRegistrosWar/empresa/07113",
      "_links": {
        "self": {
          "name": "BIDEA AVANT, S.L.",
          "href": "https://api.euskadi.eus/procurements/companies/07113"
        }
      }
    },
    {
      "name": "ISARDVDI, S.L.",
      "registrationNumber": "08398",
      "identificationNumber": "B01600261",
      "address": "CALLE MARQUÉS DEL CAMPO SAGRADO, 24, Piso 7, Puerta 4,",
      "location": {
        "postalCode": "08015",
        "municipality": "Barcelona",
        "county": "Barcelona",
        "municipalityId": "019",
        "countyId": "08"
      },
      "economicActivities": [
        {
          "id": "1.845",
          "name": "Explotación electrónica por cuenta de terceros",
          "_links": {
            "self": {
              "name": "Explotación electrónica por cuenta de terceros",
              "href": "https://api.euskadi.eus/procurements/companies/economic-activities/1.845"
            }
          }
        },
        {
          "id": "1.849.9",
          "name": "Otros servicios independientes n.c.o.p",
          "_links": {
            "self": {
              "name": "Otros servicios independientes n.c.o.p",
              "href": "https://api.euskadi.eus/procurements/companies/economic-activities/1.849.9"
            }
          }
        }
      ],
      "certificateStartDate": "2024-09-03",
      "certificateEndDate": "2025-03-03",
      "object": "EL DESARROLLO DE LAS ACTIVIDADES CORRESPONDIENTES A LOS SIGUIENTES CÓDIGOS Y DESCRIPCIONES DE CLASIFICACIÓN NACIONAL DE ACTIVIDADES ECONÓMICAS: ACTIVIDAD PRINCIPAL: 62.01/ACTIVIDADES DE PROGRAMACIÓN INFORMÁTICA. OTRAS ACTIVIDADES: 47.42/ COMERCIO AL POR MENOR DE EQUIPOS DE TELECOMUNICACIONES EN ESTABLECIMIENTOS ESPECIALIZADOS. 26.20/ FABRICACIÓN DE ORDENADORES Y EQUIPOS PERIFÉRICOS, 63.12/ PORTALES WEB, 63.11/ PROCESO DE DATOS, HOSTING Y ACTIVIDADES RELACIONADAS, 62.03/ GESTIÓN DE RECURSOS INFORMÁTICOS, 47.43/ COMERCIO AL POR MENOR DE EQUIPOS DE AUDIO Y VIDEO EN ESTABLECIMIENTOS ESPECIALIZADOS, 58.29/ EDICIÓN DE OTROS PROGRAMAS INFORMÁTICOS, 47.41/ COMERCIO AL POR MENOR DE ORDENADORES, EQUIPOS PERIFÉRICOS Y PROGRAMAS INFORMÁTICOS EN ESTABLECIMIENTOS ESPECIALIZADOS, 46.52/ COMERCIO AL POR MAYOR DE EQUIPOS ELECTRÓNICOS Y DE TELECOMUNICACIONES Y SUS COMPONENTES, 46.51/ COMERCIO AL POR MAYOR DE ORDENADORES, EQUIPOS PERIFÉRICOS Y PROGRAMAS INFORMÁTICOS, 63.02/ ACTIVIDADES DE CONSULTORÍA INFORMÁTICA.",
      "mainEntityOfPage": "https://www.contratacion.euskadi.eus/webkpe00-kperoc/es/ac71aBusquedaRegistrosWar/empresa/08398",
      "_links": {
        "self": {
          "name": "ISARDVDI, S.L.",
          "href": "https://api.euskadi.eus/procurements/companies/08398"
        }
      }
    },
    {
      "name": "GUREA ARQ., S. COOP. PEQUEÑA",
      "registrationNumber": "09242",
      "identificationNumber": "F09987538",
      "address": "C/ Matiko 6, 3º",
      "location": {
        "postalCode": "48007",
        "municipality": "Bilbao",
        "county": "Bizkaia",
        "municipalityId": "020",
        "countyId": "48"
      },
      "economicActivities": [
        {
          "id": "1.843.2",
          "name": "Servicios técnicos de arquitectura y urbanismo",
          "_links": {
            "self": {
              "name": "Servicios técnicos de arquitectura y urbanismo",
              "href": "https://api.euskadi.eus/procurements/companies/economic-activities/1.843.2"
            }
          }
        }
      ],
      "certificateStartDate": "2024-09-03",
      "certificateEndDate": "2025-03-03",
      "object": "EL DESARROLLO, REDACCIÓN, PROMOCIÓN Y FOMENTO DE PROYECTOS DE ARQUITECTURA Y URBANISMO. FORMAN PARTE ASIMISMO LAS ACTIVIDADES DE DIVULGACIÓN Y FORMACIÓN DE LA ARQUITECTURA Y EL URBANISMO, ASÍ COMO EL ACOMPAÑAMIENTO, ORGANIZACIÓN Y GESTIÓN DE GRUPOS HUMANOS RELACIONADOS CON EL DESARROLLO DE PROYECTOS Y LA PROMOCIÓN INMOBILIARIA, HACIENDO CONSTAR QUE PARA EL EJERCICIO DE SU ACTIVIDAD LABORAL DENTRO DE LA COOPERATIVA LA MAYORÍA DE SOCIOS NO NECESITAN ESTAR COLEGIADOS NI PERTENECER A NINGÚN COLEGIO PROFESIONAL.",
      "mainEntityOfPage": "https://www.contratacion.euskadi.eus/webkpe00-kperoc/es/ac71aBusquedaRegistrosWar/empresa/09242",
      "_links": {
        "self": {
          "name": "GUREA ARQ., S. COOP. PEQUEÑA",
          "href": "https://api.euskadi.eus/procurements/companies/09242"
        }
      }
    },
    {
      "name": "MOYPE SPORT SA",
      "registrationNumber": "09545",
      "identificationNumber": "A78111549",
      "address": "calle Galileo Galilei 116",
      "location": {
        "postalCode": "28939",
        "municipality": "Arroyomolinos",
        "county": "Madrid",
        "municipalityId": "015",
        "countyId": "28"
      },
      "economicActivities": [
        {
          "id": "1.619.1",
          "name": "Venta al por mayor de juguetes y artículos de deporte",
          "_links": {
            "self": {
              "name": "Venta al por mayor de juguetes y artículos de deporte",
              "href": "https://api.euskadi.eus/procurements/companies/economic-activities/1.619.1"
            }
          }
        }
      ],
      "certificateStartDate": "2024-09-03",
      "certificateEndDate": "2025-03-03",
      "object": "COMPRA, VENTA, DISTRIBUCIÓN, IMPORTACIÓN, EXPORTACIÓN, FABRICACIÓN DE TODO TIPO DE MATERIAL DEPORTIVO, ASÍ COMO EL MONTAJE Y VENTA DE INSTALACIONES DEPORTIVAS Y REPRESENTACIÓN DE MARCAS Y ARTÍCULOS DEPORTIVOS. EL MANTENIMIENTO DE INSTALACIONES DEPORTIVAS DE CUALQUIER TIPO, INCLUYENDO LAS TAREAS DE MANTENIMIENTO DE CESPED ARTIFICIAL, UTILIZADO EN LAS DIFERENTES DISCIPLINAS DEPORTIVAS. ASESORAMIENTO, ELABORACIÓN DE PROYECTOS DEPORTIVOS. VENTA E INSTALACIÓN DE PUNTOS DE RECARGA CON LUZ SOLAR PARA VEHÍCULOS ELÉCTRICOS, ETC. VENTA, INSTALACIÓN Y MONTAJE DE TODO TIPO DE PAVIMENTOS DEPORTIVOS Y CIVILES. ALQUILER DE ESCENARIOS, GRADERÍOS PARA EVENTOS DEPORTIVOS.",
      "mainEntityOfPage": "https://www.contratacion.euskadi.eus/webkpe00-kperoc/es/ac71aBusquedaRegistrosWar/empresa/09545",
      "_links": {
        "self": {
          "name": "MOYPE SPORT SA",
          "href": "https://api.euskadi.eus/procurements/companies/09545"
        }
      }
    },
    {
      "name": "GM NORTE INSTALACIONES, S.L.",
      "registrationNumber": "09481",
      "identificationNumber": "B10779585",
      "address": "Calle Praxedes Porres 11 Bajo",
      "location": {
        "postalCode": "39800",
        "municipality": "Ramales de la Victoria",
        "county": "Cantabria",
        "municipalityId": "057",
        "countyId": "39"
      },
      "economicActivities": [
        {
          "id": "1.501.1",
          "name": "Construcción completa, reparación y conservación de edificaciones",
          "_links": {
            "self": {
              "name": "Construcción completa, reparación y conservación de edificaciones",
              "href": "https://api.euskadi.eus/procurements/companies/economic-activities/1.501.1"
            }
          }
        },
        {
          "id": "1.501.2",
          "name": "Construcción completa, reparación y conservación obras civiles",
          "_links": {
            "self": {
              "name": "Construcción completa, reparación y conservación obras civiles",
              "href": "https://api.euskadi.eus/procurements/companies/economic-activities/1.501.2"
            }
          }
        },
        {
          "id": "1.504.1",
          "name": "Instalaciones eléctricas en general",
          "_links": {
            "self": {
              "name": "Instalaciones eléctricas en general",
              "href": "https://api.euskadi.eus/procurements/companies/economic-activities/1.504.1"
            }
          }
        },
        {
          "id": "1.504.3",
          "name": "Instalaciones de frío, calor y acondicionamiento de aire",
          "_links": {
            "self": {
              "name": "Instalaciones de frío, calor y acondicionamiento de aire",
              "href": "https://api.euskadi.eus/procurements/companies/economic-activities/1.504.3"
            }
          }
        },
        {
          "id": "1.504.4",
          "name": "Instalación de pararrayos y similares",
          "_links": {
            "self": {
              "name": "Instalación de pararrayos y similares",
              "href": "https://api.euskadi.eus/procurements/companies/economic-activities/1.504.4"
            }
          }
        },
        {
          "id": "1.843.1",
          "name": "Servicios técnicos de ingeniería",
          "_links": {
            "self": {
              "name": "Servicios técnicos de ingeniería",
              "href": "https://api.euskadi.eus/procurements/companies/economic-activities/1.843.1"
            }
          }
        },
        {
          "id": "1.843.9",
          "name": "Otros servicios técnicos n.c.o.p",
          "_links": {
            "self": {
              "name": "Otros servicios técnicos n.c.o.p",
              "href": "https://api.euskadi.eus/procurements/companies/economic-activities/1.843.9"
            }
          }
        }
      ],
      "certificateStartDate": "2024-09-03",
      "certificateEndDate": "2025-03-03",
      "object": "SERVICIOS TÉCNICOS DE INGENIERÍA Y OTRAS ACTIVIDADES RELACIONADAS CON EL ASESORAMIENTO TÉCNICO. INSTALACIONES ELÉCTRICAS. OTRAS INSTALACIONES EN OBRAS DE CONSTRUCCIÓN. CONSTRUCCIÓN DE REDES ELÉCTRICAS Y DE TELECOMUNICACIONES. CONSTRUCCIÓN DE OTROS PROYECTOS DE INGENIERÍA CIVIL. OTRAS ACTIVIDADES DE CONSTRUCCIÓN ESPECIALIZADA.",
      "mainEntityOfPage": "https://www.contratacion.euskadi.eus/webkpe00-kperoc/es/ac71aBusquedaRegistrosWar/empresa/09481",
      "_links": {
        "self": {
          "name": "GM NORTE INSTALACIONES, S.L.",
          "href": "https://api.euskadi.eus/procurements/companies/09481"
        }
      }
    },
    {
      "name": "BOLSAS CASTRESANA S.L.",
      "registrationNumber": "06148",
      "identificationNumber": "B95511598",
      "address": "Polígono Industrial Belako - C/ Torroto Bidea, 3",
      "location": {
        "postalCode": "48100",
        "municipality": "Mungia",
        "county": "Bizkaia",
        "municipalityId": "069",
        "countyId": "48"
      },
      "economicActivities": [
        {
          "id": "1.482.2",
          "name": "Fabricación de artículos acabados de materias plásticas",
          "_links": {
            "self": {
              "name": "Fabricación de artículos acabados de materias plásticas",
              "href": "https://api.euskadi.eus/procurements/companies/economic-activities/1.482.2"
            }
          }
        }
      ],
      "certificateStartDate": "2024-09-03",
      "certificateEndDate": "2025-03-03",
      "object": "LA CONFECCIÓN EN SERIE DE SACOS DE EMBALAR, TELAS, FILTROS Y BOLSAS CENTRIFUGADAS. LA FABRICACIÓN, TRANSFORMACIÓN, RECICLAJE, DISTRIBUCIÓN Y COMERCIALIZACIÓN EN GENERAL DE PLÁSTICOS, PAPEL, CELULOSAS, CAUCHO, ALUMINIO Y MATERIALES SUSTITUTIVOS, Y DE PRODUCTOS TERMINADOS, SEMITERMINADOS Y ENSERES FABRICADOS CON DICHOS ELEMENTOS; Y LA REPRESENTACIÓN O CUALQUIER OTRA FORMA DE MEDIACIÓN MERCANTIL DE TODA CLASE DE EMPRESAS, NACIONALES Y EXTRANJERAS, CON ELLOS RELACIONADAS. LA FABRICACIÓN Y COMERCIALIZACIÓN DE PRODUCTOS TEXTILES, DE CALZADO, UNIFORMES, PRENDAS DE TRABAJO Y PRENDAS PARA LA LLUVIA Y DE OTRAS CLASES, CON TODO TIPO DE MATERIALES, COMO PIELES, PLÁSTICOS, FIBRAS Y DEMÁS PROPIOS DE CONFECCIÓN EN GENERAL. Y LA ADQUISICIÓN, TENENCIA, ADMINISTRACIÓN, GESTIÓN, PROMOCIÓN, EXPLOTACIÓN EN ARRENDAMIENTO O EN CUALQUIER OTRA FORMA Y CONSTRUCCIÓN, DE TODA CLASE DE INMUEBLES, ASÍ COMO EL ASESORAMIENTO RESPECTO A ESTAS OPERACIONES INMOBILIARIAS",
      "mainEntityOfPage": "https://www.contratacion.euskadi.eus/webkpe00-kperoc/es/ac71aBusquedaRegistrosWar/empresa/06148",
      "_links": {
        "self": {
          "name": "BOLSAS CASTRESANA S.L.",
          "href": "https://api.euskadi.eus/procurements/companies/06148"
        }
      }
    },
    {
      "name": "DORNIER MEDTECH ESPAÑA, S.L.",
      "registrationNumber": "09235",
      "identificationNumber": "B61513024",
      "address": "Avenida Alcalde Barnils, 64-68 Módulo-A 1º 3ª",
      "location": {
        "postalCode": "08174",
        "municipality": "Sant Cugat del Vallès",
        "county": "Barcelona",
        "municipalityId": "205",
        "countyId": "08"
      },
      "economicActivities": [
        {
          "id": "1.619.2",
          "name": "Venta al por mayor de aparatos e instrumentos médicos, ortopédicos, ópticos",
          "_links": {
            "self": {
              "name": "Venta al por mayor de aparatos e instrumentos médicos, ortopédicos, ópticos",
              "href": "https://api.euskadi.eus/procurements/companies/economic-activities/1.619.2"
            }
          }
        },
        {
          "id": "1.699",
          "name": "Otras reparaciones n.c.o.p",
          "_links": {
            "self": {
              "name": "Otras reparaciones n.c.o.p",
              "href": "https://api.euskadi.eus/procurements/companies/economic-activities/1.699"
            }
          }
        }
      ],
      "certificateStartDate": "2024-09-03",
      "certificateEndDate": "2025-03-03",
      "object": "LA COMERCIALIZACIÓN, EXPLOTACIÓN, ARRENDAMIENTO, IMPORTACIÓN Y EXPORTACIÓN DE TODO TIPO DE EQUIPOS MÉDICOS PARA SU EMPLEO EN HOSPITALES Y CENTROS SANITARIOS, TANTO PÚBLICOS COMO PRIVADOS, Y EL MANTENIMIENTO DE TALES EQUIPOS, INCLUYENDO LA IMPORTACIÓN Y VENTA DE PIEZAS DE RECAMBIO.",
      "mainEntityOfPage": "https://www.contratacion.euskadi.eus/webkpe00-kperoc/es/ac71aBusquedaRegistrosWar/empresa/09235",
      "_links": {
        "self": {
          "name": "DORNIER MEDTECH ESPAÑA, S.L.",
          "href": "https://api.euskadi.eus/procurements/companies/09235"
        }
      }
    },
    {
      "name": "UGALDEBERRI ERAIKUNTZAK, S.L.",
      "registrationNumber": "09774",
      "identificationNumber": "B56656283",
      "address": "PLAZA ARTIKUTZA Nº5 BAJO",
      "location": {
        "postalCode": "20015",
        "municipality": "Donostia / San Sebastián",
        "county": "Gipuzkoa",
        "municipalityId": "069",
        "countyId": "20"
      },
      "economicActivities": [
        {
          "id": "1.501.1",
          "name": "Construcción completa, reparación y conservación de edificaciones",
          "_links": {
            "self": {
              "name": "Construcción completa, reparación y conservación de edificaciones",
              "href": "https://api.euskadi.eus/procurements/companies/economic-activities/1.501.1"
            }
          }
        }
      ],
      "certificateStartDate": "2024-09-02",
      "certificateEndDate": "2025-03-02",
      "object": "LOS TRABAJOS DE CONSTRUCCIÓN COMPLETA, REPARACIÓN, CONSERVACIÓN Y REFORMAS DE INMUEBLES EN GENERAL. REHABILITACIÓN Y MANTENIMIENTO DE EDIFICIOS, TEJADOS Y FACHADAS. COORDINACIÓN DE GREMIOS. TRABAJOS DE ALBAÑILERÍA, REPARACIÓN Y REHABILITACIÓN POR CUENTA PROPIA O AJENA DE TODA CLASE DE OBRAS, CORRESPONDIÉNDOLE EL SIGUIENTE CÓDIGO Y DESCRIPCIÓN DE LA CLASIFICACIÓN NACIONAL DE ACTIVIDADES ECONÓMICAS: - ACTIVIDAD PRINCIPAL: 45211. - CONSTRUCCIÓN DE EDIFICIOS.",
      "mainEntityOfPage": "https://www.contratacion.euskadi.eus/webkpe00-kperoc/es/ac71aBusquedaRegistrosWar/empresa/09774",
      "_links": {
        "self": {
          "name": "UGALDEBERRI ERAIKUNTZAK, S.L.",
          "href": "https://api.euskadi.eus/procurements/companies/09774"
        }
      }
    },
    {
      "name": "GERALVEZ PROYECTOS CONTRAC, S.L.",
      "registrationNumber": "08674",
      "identificationNumber": "B88404538",
      "address": "AVENIDA DE LA CANTUEÑA, 2",
      "location": {
        "postalCode": "28947",
        "municipality": "Fuenlabrada",
        "county": "Madrid",
        "municipalityId": "058",
        "countyId": "28"
      },
      "economicActivities": [
        {
          "id": "1.615.2",
          "name": "Venta al por mayor de muebles",
          "_links": {
            "self": {
              "name": "Venta al por mayor de muebles",
              "href": "https://api.euskadi.eus/procurements/companies/economic-activities/1.615.2"
            }
          }
        },
        {
          "id": "1.631",
          "name": "Intermediarios del comercio",
          "_links": {
            "self": {
              "name": "Intermediarios del comercio",
              "href": "https://api.euskadi.eus/procurements/companies/economic-activities/1.631"
            }
          }
        },
        {
          "id": "1.849.9",
          "name": "Otros servicios independientes n.c.o.p",
          "_links": {
            "self": {
              "name": "Otros servicios independientes n.c.o.p",
              "href": "https://api.euskadi.eus/procurements/companies/economic-activities/1.849.9"
            }
          }
        }
      ],
      "certificateStartDate": "2024-08-31",
      "certificateEndDate": "2025-02-28",
      "object": "LA FABRICACIÓN, COMERCIALIZACIÓN, COMPRAVENTA, REPRESENTACIÓN, DISTRIBUCIÓN, EXPORTACIÓN, IMPORTACIÓN, REPARACIÓN, MANTENIMIENTO Y EXPLOTACIÓN EN CUALQUIER FORMA, DE MOBILIARIO, TANTO DE USO DOMÉSTICO COMO INDUSTRIAL, Y DE PRODUCTOS DE LÍCITO COMERCIO, FABRICADOS EN MADERA, PIEDRA, METAL, PLÁSTICO, VIDRIO, CERÁMICA, CRISTAL, CUERO, PAPEL, CARTÓN Y TEXTIL. EL DISEÑO, INVESTIGACIÓN, DESARROLLO, FABRICACIÓN EXPLOTACIÓN, SUMINISTRO, MANTENIMIENTO, REPARACIÓN, INSTALACIÓN, MONTAJE, DISTRIBUCIÓN, REPRESENTACIÓN EXPORTACIÓN E IMPORTACIÓN, COMERCIALIZACIÓN, COMPRA Y VENTA AL POR MAYOR Y AL POR MENOR DE TODO TIPO DE ELECTRODOMÉSTICOS, MAQUINARIA MANUAL, ELÉCTRICA, HIDRÁULICA Y ELECTRÓNICA, HERRAMIENTAS, VEHÍCULOS, EQUIPOS INFORMÁTICOS, ELECTRÓNICOS, ELÉCTRICOS, DE TELECOMUNICACIÓN, TELEFONÍA, SONIDO, IMAGEN, ORDENADORES, PROGRAMAS INFORMÁTICOS, MOBILIARIO, ASÍ COMO TODO TIPO DE PRODUCTOS INFORMÁTICOS, OFIMÁTICOS, CONSUMIBLES Y PRODUCTOS AFINES. LA PRESTACIÓN DE SERVICIOS RELACIONADOS CON LA CONSERVACIÓN, SANEAMIENTO, LIMPIEZA Y MANTENIMIENTO DE PISOS, LOCALES, URBANIZACIONES, OBRAS, E INSTALACIONES, INCLUIDA LA DECORACIÓN DE INTERIORES Y EXTERIORES Y LOS TRABAJOS DE FONTANERÍA, JARDINERÍA, ALBAÑILERÍA, CARPINTERÍA, ELECTRICIDAD, CERRAJERÍA Y PINTURA, TANTO EN ENTIDADES PÚBLICAS COMO PRIVADAS.",
      "mainEntityOfPage": "https://www.contratacion.euskadi.eus/webkpe00-kperoc/es/ac71aBusquedaRegistrosWar/empresa/08674",
      "_links": {
        "self": {
          "name": "GERALVEZ PROYECTOS CONTRAC, S.L.",
          "href": "https://api.euskadi.eus/procurements/companies/08674"
        }
      }
    },
    {
      "name": "THE FLIGHT OF IRWIN, S.L.",
      "registrationNumber": "09773",
      "identificationNumber": "B44953230",
      "address": "Plaza Iribar - 2 - BAJO 8",
      "location": {
        "postalCode": "20018",
        "municipality": "Donostia / San Sebastián",
        "county": "Gipuzkoa",
        "municipalityId": "069",
        "countyId": "20"
      },
      "economicActivities": [
        {
          "id": "1.653.2",
          "name": "Venta al por menor de material y aparatos eléctricos, electrodomésticos y cocina",
          "_links": {
            "self": {
              "name": "Venta al por menor de material y aparatos eléctricos, electrodomésticos y cocina",
              "href": "https://api.euskadi.eus/procurements/companies/economic-activities/1.653.2"
            }
          }
        },
        {
          "id": "1.843.1",
          "name": "Servicios técnicos de ingeniería",
          "_links": {
            "self": {
              "name": "Servicios técnicos de ingeniería",
              "href": "https://api.euskadi.eus/procurements/companies/economic-activities/1.843.1"
            }
          }
        }
      ],
      "certificateStartDate": "2024-08-30",
      "certificateEndDate": "2025-02-28",
      "object": "LA INNOVACIÓN, DESARROLLO, ASESORÍA Y APLICACIÓN DE SOLUCIONES TECNOLÓGICAS INTERACTIVAS, ASÍ COMO LA PRESTACIÓN DE SERVICIOS DE PUBLICIDAD Y MARKETING.",
      "mainEntityOfPage": "https://www.contratacion.euskadi.eus/webkpe00-kperoc/es/ac71aBusquedaRegistrosWar/empresa/09773",
      "_links": {
        "self": {
          "name": "THE FLIGHT OF IRWIN, S.L.",
          "href": "https://api.euskadi.eus/procurements/companies/09773"
        }
      }
    }
  ]
}