{
  "totalItems": 9042,
  "totalPages": 905,
  "currentPage": 245,
  "itemsOfPage": 10,
  "items": [
    {
      "name": "CAF POWER  AUTOMATION, S. L.",
      "registrationNumber": "09866",
      "identificationNumber": "B20935805",
      "address": "Paseo Mikeletegi 58 2º",
      "location": {
        "postalCode": "20009",
        "municipality": "Donostia / San Sebastián",
        "county": "Gipuzkoa",
        "municipalityId": "069",
        "countyId": "20"
      },
      "economicActivities": [
        {
          "id": "1.353",
          "name": "Fabricación de aparatos y equipo electrónico de señalización, control",
          "_links": {
            "self": {
              "name": "Fabricación de aparatos y equipo electrónico de señalización, control",
              "href": "https://api.euskadi.eus/procurements/companies/economic-activities/1.353"
            }
          }
        },
        {
          "id": "1.843.1",
          "name": "Servicios técnicos de ingeniería",
          "_links": {
            "self": {
              "name": "Servicios técnicos de ingeniería",
              "href": "https://api.euskadi.eus/procurements/companies/economic-activities/1.843.1"
            }
          }
        }
      ],
      "certificateStartDate": "2025-09-29",
      "certificateEndDate": "2026-03-24",
      "object": "1- EL DISEÑO, FABRICACIÓN Y COMERCIALIZACIÓN DE TODA CLASE DE EQUIPOS ELECTRÓNICOS DE CONTROL, MULTIMEDIA Y COMUNICACIONES Y SISTEMAS DE PROPULSIÓN Y POTENCIA PARA EL SECTOR FERROVIARIO Y SECTORES CONEXOS Y ACCESORIOS, Y EN GENERAL, PARA TODO TIPO DE EMPRESAS DEL SECTOR DEL TRANSPORTE, SIN CARÁCTER EXCLUYENTE. 2- LA PRESTACIÓN EN GENERAL DE SERVICIOS DE INGENIERÍA ELECTRÓNICA, INCLUYENDO ENTRE OTRAS, Y SIN CARÁCTER EXCLUYENTE, LAS SIGUIENTES ACTIVIDADES: - DISEÑO DE EQUIPOS ELECTRÓNICOS DE CONTROL, MULTIMEDIA Y COMUNICACIONES Y SISTEMAS DE PROPULSIÓN Y POTENCIA. - DISEÑO DE EQUIPOS COMPLEMENTARIOS PARA OFICINA TÉCNICA. - COLABORACIÓN EN EL DISEÑO DE NUEVOS EQUIPOS ELECTRÓNICOS Y SU INDUSTRIALIZACIÓN. - COLABORACIÓN CON LOS FABRICANTES DE EQUIPOS AUXILIARES EN LOS INTERFACES. - MANTENIMIENTO PREVENTIVO SOBRE PRODUCTOS ELECTRÓNICOS. - MANTENIMIENTO SOBRE EQUIPOS ELECTRÓNICOS DE CONTROL, MULTIMEDIA Y COMUNICACIONES Y SISTEMAS DE PROPULSIÓN Y POTENCIA. - APOYO A SERVICIOS DE ASISTENCIA TÉCNICA PARA MANTENIMIENTO Y GARANTÍA. - ACTIVIDADES RELACIONADAS CON LAS PRUEBAS Y ENSAYOS. - HOMOLOGACIONES DE LOS EQUIPOS SEGÚN NORMATIVAS NACIONALES E INTERNACIONALES DE APLICACIÓN. 3- LA PRESTACIÓN DE SERVICIOS, DESARROLLO Y EJECUCIÓN DE PROYECTOS DE SOFTWARE TÉCNICO-INDUSTRIAL EN LAS ÁREAS DE AUTOMATIZACIÓN Y CONTROL DE EQUIPOS ELECTRÓNICOS, MECÁNICOS Y DE LOCOMOCIÓN, SISTEMAS DE SEÑALIZACIÓN Y LOCALIZACIÓN, ELECTRÓNICA INDUSTRIAL, SISTEMAS EMPOTRADOS, APARATOS ELÉCTRICOS Y ELECTRÓNICOS PROGRAMABLES, SISTEMAS DE MEDIDA Y SISTEMAS DE MOTORIZACIÓN E INTERFAZ HOMBRE - MÁQUINA Y CUALQUIER OTRA ÁREA ANÁLOGA O SIMILAR A LAS ANTERIORES. 4- LA PRESTACIÓN DE SERVICIOS, DESARROLLO Y EJECUCIÓN DE PROYECTOS DE SOFTWARE PARA TECNOLOGÍAS DE LA INFORMACIÓN, ASÍ COMO LA ASESORÍA EN INGENIERÍA DE SOFTWARE Y COMPUTACIÓN, SISTEMAS DE CALIDAD DE SOFTWARE, ORGANIZACIÓN DE PROYECTOS COMPLEJOS DE SOFTWARE, METODOLOGÍA, ORGANIZACIÓN DE EQUIPOS HUMANOS DE DESARROLLO DE PROYECTOS DE SOFTWARE, Y EN GENERAL HERRAMIENTAS DE DESARROLLO RELACIONADAS CON LAS ANTERIORES. 5- LA INSTALACIÓN, PUESTA A PUNTO REALIZACIÓN DE PRUEBAS Y MANTENIMIENTO EN GENERAL DE TODA CLASE DE EQUIPOS DE CONTROL MULTIMEDIA Y COMUNICACIONES Y SISTEMAS DE PROPULSIÓN Y POTENCIA. 6- LA PRESTACIÓN DE ASISTENCIA TÉCNICA A LO LARGO DE TODO EL PROCESO DE FABRICACIÓN, COMERCIALIZACIÓN Y ENTREGA DE ESTOS EQUIPOS ELECTRÓNICOS DE CONTROL, MULTIMEDIA Y COMUNICACIONES Y SISTEMAS DE PROPULSIÓN Y POTENCIA, INCLUYENDO LAS FASES DE MANTENIMIENTO Y GARANTÍA. 7- LA PRESTACIÓN DE GARANTÍA DE COMPONENTES Y EQUIPOS COMPATIBLES CON ESTOS EQUIPOS ELECTRÓNICOS DE CONTROL, MULTIMEDIA Y COMUNICACIONES Y SISTEMAS DE PROPULSIÓN Y POTENCIA. 8- SUMINISTRO DE REPUESTOS EN GARANTÍA Y CONTRACTUALES DE LOS PRODUCTOS Y SERVICIOS OBJETO DE LA SOCIEDAD. 9- ELABORACIÓN DE BASES DE DATOS Y DOCUMENTACIÓN RELACIONADA CON LOS PRODUCTOS Y SERVICIOS OBJETO DE LA SOCIEDAD. 10- ACTIVIDADES DE FORMACIÓN SOBRE LAS MATERIAS ANTERIORMENTE RELACIONADAS. 11- LA REALIZACIÓN DE ACTIVIDADES DE INVESTIGACIÓN, DESARROLLO E INNOVACIÓN EN LAS ACTIVIDADES DESCRITAS. 12- LA REALIZACIÓN DE CUALESQUIERA TRABAJOS QUE SEAN CONSECUENCIA, COMPLEMENTEN O SE RELACIONEN DIRECTA O INDIRECTAMENTE CON CUALQUIERA DE LAS ACTIVIDADES DESCRITAS EN LOS APARTADOS ANTERIORES.",
      "mainEntityOfPage": "https://www.contratacion.euskadi.eus/webkpe00-kperoc/es/ac71aBusquedaRegistrosWar/empresa/09866",
      "_links": {
        "self": {
          "name": "CAF POWER  AUTOMATION, S. L.",
          "href": "https://api.euskadi.eus/procurements/companies/09866"
        }
      }
    },
    {
      "name": "BOINAS ELOSEGUI, S.A.",
      "registrationNumber": "00683",
      "identificationNumber": "A20004578",
      "address": "C/ AVENIDA PAMPLONA, Nº 10.",
      "location": {
        "postalCode": "20400",
        "municipality": "Tolosa",
        "county": "Gipuzkoa",
        "municipalityId": "071",
        "countyId": "20"
      },
      "economicActivities": [
        {
          "id": "1.453",
          "name": "Confección en serie de toda clase de prendas de vestir",
          "_links": {
            "self": {
              "name": "Confección en serie de toda clase de prendas de vestir",
              "href": "https://api.euskadi.eus/procurements/companies/economic-activities/1.453"
            }
          }
        }
      ],
      "certificateStartDate": "2025-09-29",
      "certificateEndDate": "2026-03-15",
      "object": "EL OBJETO SOCIAL SERÁ LA EXPLOTACIÓN DE UN NEGOCIO DEDICADO A LA FABRICACIÓN  Y VENTA DE BOINAS, GORRAS Y PRENDAS DE CABEZA EN GENERAL; FABRICACIÓN Y VENTA DE GÉNEROS DE PUNTO Y COMERCIALIZACIÓN DE PRODUCTOS TEXTILES EN GENERAL.",
      "mainEntityOfPage": "https://www.contratacion.euskadi.eus/webkpe00-kperoc/es/ac71aBusquedaRegistrosWar/empresa/00683",
      "_links": {
        "self": {
          "name": "BOINAS ELOSEGUI, S.A.",
          "href": "https://api.euskadi.eus/procurements/companies/00683"
        }
      }
    },
    {
      "name": "ALYSAT, S.L.",
      "registrationNumber": "10128",
      "identificationNumber": "B10625523",
      "address": "C\\ OÑATE, 1",
      "location": {
        "postalCode": "01013",
        "municipality": "Vitoria-Gasteiz",
        "county": "Araba/Álava",
        "municipalityId": "059",
        "countyId": "01"
      },
      "economicActivities": [
        {
          "id": "1.504.3",
          "name": "Instalaciones de frío, calor y acondicionamiento de aire",
          "_links": {
            "self": {
              "name": "Instalaciones de frío, calor y acondicionamiento de aire",
              "href": "https://api.euskadi.eus/procurements/companies/economic-activities/1.504.3"
            }
          }
        },
        {
          "id": "1.921.4",
          "name": "Servicios de alcantarillado, evacuación y depuración de aguas residuales",
          "_links": {
            "self": {
              "name": "Servicios de alcantarillado, evacuación y depuración de aguas residuales",
              "href": "https://api.euskadi.eus/procurements/companies/economic-activities/1.921.4"
            }
          }
        }
      ],
      "certificateStartDate": "2025-09-29",
      "certificateEndDate": "2026-03-25",
      "object": "DISEÑO, MONTAJE Y MANTENIMIENTO DE INSTALACIONES DE CALEFACCIÓN, CLIMATIZACIÓN, AGUA CALIENTE SANITARIA, INSTALACIONES DE VAPOR, AGUA SOBRECALIENTE, AIRE COMPRIMIDO, INSTALACIONES DE COMBUSTIBLES LÍQUIDOS Y GASEOSOS; ADEMÁS DE LA LIMPIEZA Y DESATASCOS DE TUBERÍAS, BAJANTES, COLECTORES, DEPÓSITOS, POZOS SÉPTICOS Y RECIPIENTES EN GENERAL; LA LIMPIEZA DE EQUIPOS DE PRESIÓN Y EL TRANSPORTE DE DETERMINADOS RESIDUOS PELIGROSOS.",
      "mainEntityOfPage": "https://www.contratacion.euskadi.eus/webkpe00-kperoc/es/ac71aBusquedaRegistrosWar/empresa/10128",
      "_links": {
        "self": {
          "name": "ALYSAT, S.L.",
          "href": "https://api.euskadi.eus/procurements/companies/10128"
        }
      }
    },
    {
      "name": "ERGOACTIV SPORT, S.L.",
      "registrationNumber": "03860",
      "identificationNumber": "B01397488",
      "address": "MANUEL IRADIER, 70-BAJO",
      "location": {
        "postalCode": "01005",
        "municipality": "Vitoria-Gasteiz",
        "county": "Araba/Álava",
        "municipalityId": "059",
        "countyId": "01"
      },
      "economicActivities": [
        {
          "id": "1.933.9",
          "name": "Otras actividades de enseñanza tales como idiomas, mecanografía",
          "_links": {
            "self": {
              "name": "Otras actividades de enseñanza tales como idiomas, mecanografía",
              "href": "https://api.euskadi.eus/procurements/companies/economic-activities/1.933.9"
            }
          }
        },
        {
          "id": "1.942.9",
          "name": "Otros servicios sanitarios sin internados, no clasificados",
          "_links": {
            "self": {
              "name": "Otros servicios sanitarios sin internados, no clasificados",
              "href": "https://api.euskadi.eus/procurements/companies/economic-activities/1.942.9"
            }
          }
        },
        {
          "id": "1.967.1",
          "name": "Instalaciones deportivas",
          "_links": {
            "self": {
              "name": "Instalaciones deportivas",
              "href": "https://api.euskadi.eus/procurements/companies/economic-activities/1.967.1"
            }
          }
        }
      ],
      "certificateStartDate": "2025-09-29",
      "certificateEndDate": "2026-03-27",
      "object": "EL ANÁLISIS, TRATAMIENTO Y PREVENCIÓN DE LAS LESIONES Y DESCOMPENSACIONES DE LA ESPALDA Y LA MUSCULATURA HUMANA. LA PRESTACIÓN DE SERVICIOS DE ENTRENAMIENTO FÍSICO PERSONALIZADO DESARROLLADO POR PERSONAL ESPECIALIZADO DE CARA AL TRATAMIENTO Y PREVENCIÓN DE LAS LESIONES Y DESCOMPENSACIONES DE LA ESPALDA Y LA MUSCULATURA HUMANA. LA REALIZACIÓN DE SERVICIOS DE FORMACIÓN PARA LA PREVENCIÓN Y EL TRATAMIENTO DE LAS LESIONES Y DESCOMPENSACIONES DE LA ESPALDA Y LA MUSCULATURA HUMANA. LA REALIZACIÓN DE ACTIVIDADES DE INVESTIGACIÓN Y DESARROLLO SOBRE LA PREVENCIÓN Y EL TRATAMIENTO DE LAS LESIONES Y DESCOMPENSACIONES DE LA ESPALDA Y LA MUSCULATURA HUMANA",
      "mainEntityOfPage": "https://www.contratacion.euskadi.eus/webkpe00-kperoc/es/ac71aBusquedaRegistrosWar/empresa/03860",
      "_links": {
        "self": {
          "name": "ERGOACTIV SPORT, S.L.",
          "href": "https://api.euskadi.eus/procurements/companies/03860"
        }
      }
    },
    {
      "name": "OREKA INFORMATION TECHNOLOGIES, S.L.",
      "registrationNumber": "04245",
      "identificationNumber": "B01451756",
      "address": "Avda. de Los Olmos 1, Edificio D IV, Oficina 243",
      "location": {
        "postalCode": "01013",
        "municipality": "Vitoria-Gasteiz",
        "county": "Araba/Álava",
        "municipalityId": "059",
        "countyId": "01"
      },
      "economicActivities": [
        {
          "id": "1.659.2",
          "name": "Venta al por menor de muebles de oficina y máquinas y equipos de oficina",
          "_links": {
            "self": {
              "name": "Venta al por menor de muebles de oficina y máquinas y equipos de oficina",
              "href": "https://api.euskadi.eus/procurements/companies/economic-activities/1.659.2"
            }
          }
        },
        {
          "id": "1.845",
          "name": "Explotación electrónica por cuenta de terceros",
          "_links": {
            "self": {
              "name": "Explotación electrónica por cuenta de terceros",
              "href": "https://api.euskadi.eus/procurements/companies/economic-activities/1.845"
            }
          }
        },
        {
          "id": "1.847",
          "name": "Servicios de consultoría",
          "_links": {
            "self": {
              "name": "Servicios de consultoría",
              "href": "https://api.euskadi.eus/procurements/companies/economic-activities/1.847"
            }
          }
        },
        {
          "id": "1.933.9",
          "name": "Otras actividades de enseñanza tales como idiomas, mecanografía",
          "_links": {
            "self": {
              "name": "Otras actividades de enseñanza tales como idiomas, mecanografía",
              "href": "https://api.euskadi.eus/procurements/companies/economic-activities/1.933.9"
            }
          }
        }
      ],
      "certificateStartDate": "2025-09-29",
      "certificateEndDate": "2026-03-28",
      "object": "Consultoría y Servicios Informáticos",
      "mainEntityOfPage": "https://www.contratacion.euskadi.eus/webkpe00-kperoc/es/ac71aBusquedaRegistrosWar/empresa/04245",
      "_links": {
        "self": {
          "name": "OREKA INFORMATION TECHNOLOGIES, S.L.",
          "href": "https://api.euskadi.eus/procurements/companies/04245"
        }
      }
    },
    {
      "name": "EASO MOTOR S.A.",
      "registrationNumber": "06267",
      "identificationNumber": "A20680005",
      "address": "CTRA N-1 KM 469",
      "location": {
        "postalCode": "20180",
        "municipality": "Oiartzun",
        "county": "Gipuzkoa",
        "municipalityId": "063",
        "countyId": "20"
      },
      "economicActivities": [
        {
          "id": "1.615.1",
          "name": "Venta al por mayor de vehículos, motocicletas, bicicletas y sus accesorios",
          "_links": {
            "self": {
              "name": "Venta al por mayor de vehículos, motocicletas, bicicletas y sus accesorios",
              "href": "https://api.euskadi.eus/procurements/companies/economic-activities/1.615.1"
            }
          }
        },
        {
          "id": "1.654.1",
          "name": "Venta al por menor de vehículos terrestres",
          "_links": {
            "self": {
              "name": "Venta al por menor de vehículos terrestres",
              "href": "https://api.euskadi.eus/procurements/companies/economic-activities/1.654.1"
            }
          }
        },
        {
          "id": "1.691.2",
          "name": "Reparación de vehículos automóviles, bicicletas y otros vehículos",
          "_links": {
            "self": {
              "name": "Reparación de vehículos automóviles, bicicletas y otros vehículos",
              "href": "https://api.euskadi.eus/procurements/companies/economic-activities/1.691.2"
            }
          }
        },
        {
          "id": "1.832.1",
          "name": "Agencias de seguros y corredurías de seguros",
          "_links": {
            "self": {
              "name": "Agencias de seguros y corredurías de seguros",
              "href": "https://api.euskadi.eus/procurements/companies/economic-activities/1.832.1"
            }
          }
        }
      ],
      "certificateStartDate": "2025-09-29",
      "certificateEndDate": "2026-03-21",
      "object": "LA EXPLOTACIÓN DE LA CONCESIÓN DE FORD ESPAÑA S.A., EN SAN SEBASTIÁN Y SUS ZONAS DE INFLUENCIA",
      "mainEntityOfPage": "https://www.contratacion.euskadi.eus/webkpe00-kperoc/es/ac71aBusquedaRegistrosWar/empresa/06267",
      "_links": {
        "self": {
          "name": "EASO MOTOR S.A.",
          "href": "https://api.euskadi.eus/procurements/companies/06267"
        }
      }
    },
    {
      "name": "ESLABAN OBRAS Y SERVICIOS, S.L.",
      "registrationNumber": "04830",
      "identificationNumber": "B20683470",
      "address": "Avda Otaola, nº 27 escalera derecha, 3º izquierda",
      "location": {
        "postalCode": "20600",
        "municipality": "Eibar",
        "county": "Gipuzkoa",
        "municipalityId": "030",
        "countyId": "20"
      },
      "economicActivities": [
        {
          "id": "1.501.1",
          "name": "Construcción completa, reparación y conservación de edificaciones",
          "_links": {
            "self": {
              "name": "Construcción completa, reparación y conservación de edificaciones",
              "href": "https://api.euskadi.eus/procurements/companies/economic-activities/1.501.1"
            }
          }
        }
      ],
      "certificateStartDate": "2025-09-29",
      "certificateEndDate": "2026-03-25",
      "object": "LA REALIZACIÓN DE TRABAJOS DE ALBAÑILERÍA Y CONSTRUCCIÓN DE TODA CLASE DE OBRAS TANTO PÚBLICAS COMO PRIVADAS, ASÍ COMO LA COORDINACIÓN, GESTIÓN, DIRECCIÓN Y ADMINISTRACIÓN DE GREMIOS EN TODO TIPO DE OBRAS DE REHABILITACIÓN, REPARACIÓN,PROMOCIÓN Y CONSTRUCCIÓN",
      "mainEntityOfPage": "https://www.contratacion.euskadi.eus/webkpe00-kperoc/es/ac71aBusquedaRegistrosWar/empresa/04830",
      "_links": {
        "self": {
          "name": "ESLABAN OBRAS Y SERVICIOS, S.L.",
          "href": "https://api.euskadi.eus/procurements/companies/04830"
        }
      }
    },
    {
      "name": "MILLENIAL EXPERT SERVICES, S.L.",
      "registrationNumber": "09987",
      "identificationNumber": "B95939781",
      "address": "Calle Ugaldeguren 1, 5, 11A",
      "location": {
        "postalCode": "48160",
        "municipality": "Derio",
        "county": "Bizkaia",
        "municipalityId": "901",
        "countyId": "48"
      },
      "economicActivities": [
        {
          "id": "1.615.4",
          "name": "Venta al por mayor de aparatos y material radioeléctrico y electrónico",
          "_links": {
            "self": {
              "name": "Venta al por mayor de aparatos y material radioeléctrico y electrónico",
              "href": "https://api.euskadi.eus/procurements/companies/economic-activities/1.615.4"
            }
          }
        },
        {
          "id": "1.659.9",
          "name": "Venta al por menor de otros productos no especificados en esta agrupación",
          "_links": {
            "self": {
              "name": "Venta al por menor de otros productos no especificados en esta agrupación",
              "href": "https://api.euskadi.eus/procurements/companies/economic-activities/1.659.9"
            }
          }
        },
        {
          "id": "1.844",
          "name": "Servicios de publicidad, relaciones públicas y similares",
          "_links": {
            "self": {
              "name": "Servicios de publicidad, relaciones públicas y similares",
              "href": "https://api.euskadi.eus/procurements/companies/economic-activities/1.844"
            }
          }
        },
        {
          "id": "1.859",
          "name": "Alquiler de otros bienes muebles n.c.o.p. (sin personal permanente)",
          "_links": {
            "self": {
              "name": "Alquiler de otros bienes muebles n.c.o.p. (sin personal permanente)",
              "href": "https://api.euskadi.eus/procurements/companies/economic-activities/1.859"
            }
          }
        }
      ],
      "certificateStartDate": "2025-09-29",
      "certificateEndDate": "2026-03-25",
      "object": "- LA COMPRA, VENTA, IMPORTACIÓN, EXPORTACIÓN, ALQUILER, MANTENIMIENTO, REPARACIÓN, PUESTA EN MARCHA, SERVICIOS POST-VENTA, INSTALACIÓN, MONTAJE, DESMONTAJE, CONFIGURACIÓN DE HARDWARE Y SOFTWARE DE EQUIPOS ELECTRÓNICOS, SISTEMAS AUDIOVISUALES, VISUALES Y DE ILUMINACIÓN. - ALQUILER DE OTRA MAQUINARIA, EQUIPOS Y BIENES TANGIBLES. - OTRAS INSTALACIONES EN OBRAS DE CONSTRUCCIÓN. - SERVICIOS DE PUBLICIDAD, RELACIONES PÚBLICAS Y SIMILARES.",
      "mainEntityOfPage": "https://www.contratacion.euskadi.eus/webkpe00-kperoc/es/ac71aBusquedaRegistrosWar/empresa/09987",
      "_links": {
        "self": {
          "name": "MILLENIAL EXPERT SERVICES, S.L.",
          "href": "https://api.euskadi.eus/procurements/companies/09987"
        }
      }
    },
    {
      "name": "ALBIA NETWORKING, S.L.",
      "registrationNumber": "10348",
      "identificationNumber": "B95631438",
      "address": "AVDA. LEHENDAKARI AGUIRRE 29, 4ºD-DCHA",
      "location": {
        "postalCode": "48014",
        "municipality": "Bilbao",
        "county": "Bizkaia",
        "municipalityId": "020",
        "countyId": "48"
      },
      "economicActivities": [
        {
          "id": "1.847",
          "name": "Servicios de consultoría",
          "_links": {
            "self": {
              "name": "Servicios de consultoría",
              "href": "https://api.euskadi.eus/procurements/companies/economic-activities/1.847"
            }
          }
        },
        {
          "id": "1.932.2",
          "name": "Enseñanza de formación y perfeccionamiento profesional superior",
          "_links": {
            "self": {
              "name": "Enseñanza de formación y perfeccionamiento profesional superior",
              "href": "https://api.euskadi.eus/procurements/companies/economic-activities/1.932.2"
            }
          }
        },
        {
          "id": "1.934",
          "name": "Enseñanza fuera de establecimiento permanente",
          "_links": {
            "self": {
              "name": "Enseñanza fuera de establecimiento permanente",
              "href": "https://api.euskadi.eus/procurements/companies/economic-activities/1.934"
            }
          }
        }
      ],
      "certificateStartDate": "2025-09-29",
      "certificateEndDate": "2026-03-18",
      "object": "LA IMPLANTACIÓN DE PROGRAMAS, CREACIÓN Y EXPLOTACIÓN DE REDES SOCIALES, CREACIÓN DE APLICACIONES INFORMÁTICAS Y OTROS TRABAJOS DE CONSULTORÍA INFORMÁTICA.",
      "mainEntityOfPage": "https://www.contratacion.euskadi.eus/webkpe00-kperoc/es/ac71aBusquedaRegistrosWar/empresa/10348",
      "_links": {
        "self": {
          "name": "ALBIA NETWORKING, S.L.",
          "href": "https://api.euskadi.eus/procurements/companies/10348"
        }
      }
    },
    {
      "name": "CANTERA CARRANZA-KARRANTZA HARROBI, S.L.",
      "registrationNumber": "06598",
      "identificationNumber": "B95780920",
      "address": "Pol. Ind. El Campillo, 19",
      "location": {
        "postalCode": "48500",
        "municipality": "Abanto y Ciérvana-Abanto Zierbena",
        "county": "Bizkaia",
        "municipalityId": "002",
        "countyId": "48"
      },
      "economicActivities": [
        {
          "id": "1.231.3",
          "name": "Extracción de arenas y gravas para la construcción",
          "_links": {
            "self": {
              "name": "Extracción de arenas y gravas para la construcción",
              "href": "https://api.euskadi.eus/procurements/companies/economic-activities/1.231.3"
            }
          }
        },
        {
          "id": "1.243.1",
          "name": "Fabricación de hormigones preparados",
          "_links": {
            "self": {
              "name": "Fabricación de hormigones preparados",
              "href": "https://api.euskadi.eus/procurements/companies/economic-activities/1.243.1"
            }
          }
        }
      ],
      "certificateStartDate": "2025-09-28",
      "certificateEndDate": "2026-03-28",
      "object": "LA EXPLOTACIÓN, FABRICACIÓN, TRANSFORMACIÓN, DISTRIBUCIÓN, COMERCIALIZACIÓN Y VENTA AL POR MAYOR Y AL POR MENOR DE TODA CLASE DE MINERALES, DE ARTÍCULOS Y PRODUCTOS DE CANTERAS, MINAS Y EXPLOTACIONES SIMILARES, DE TODA CLASE DE CEMENTOS, HORMIGONES Y PREMEZCLADOS, ASÍ COMO DE PRODUCTOS EN LOS QUE SE EMPLEE EL CEMENTO O SUSTANCIAS SIMILARES, INCLUYENDO LAS PLANTAS DE AGLOMERADO TANTO EN FRÍO COMO EN CALIENTE. LA PARTICIPACIÓN EN NEGOCIOS EN QUE SE EXPLOTEN, TRANSFORMEN, DISTRIBUYAN, COMERCIALICEN Y VENDAN O USEN MATERIALES DE CANTERAS, MINAS ASÍ COMO LA EXPLOTACIÓN DE PLANTAS DE HORMIGÓN O MORTEROS. LA EJECUCIÓN, PROYECTO Y EJECUCIÓN DE OBRAS PÚBLICAS Y PRIVADAS DE TODA CLASE Y EN CUALQUIER LUGAR DEL TERRITORIO NACIONAL O DE LOS PAÍSES MIEMBROS DE LA COMUNIDAD ECONÓMICA EUROPEA; LAS ACTIVIDADES POR CUENTA PROPIA O DE TERCEROS, DE PREPARACIÓN, URBANIZACIÓN Y PARCELACIÓN DE TERRENOS, RÚSTICOS, URBANOS E INDUSTRIALES, Y DE CONSTRUCCIÓN Y PROMOCIÓN DE EDIFICACIONES, OBRAS, INSTALACIONES Y DECORACIONES INMOBILIARIAS DE CUALQUIER ÍNDOLE PARA SU VENTA, ALQUILER O CUALQUIER OTRA FORMA DE EXPLOTACIÓN. LA PRESTACIÓN DE SERVICIOS DE TRANSPORTE NACIONAL E INTERNACIONAL DE MERCANCÍAS Y CUALQUIER OTRO BIEN MUEBLE, ASÍ COMO DE VIAJEROS Y MATERIAS PELIGROSAS, TODO ELLO POR CUENTA PROPIA O AJENA. LA PROMOCIÓN, EJECUCIÓN Y EXPLOTACIÓN DE ACTIVIDADES RELACIONADAS CON LA MINERA, DE LA CONSTRUCCIÓN, INMOBILIARIA Y DEL TRANSPORTE EN GENERAL, ASÍ COMO DE ACTIVIDADES DE MEDIACIÓN Y REPRESENTACIÓN, GESTIÓN Y SUMINISTROS RELACIONADAS CON LAS ANTERIORES. LA ADQUISICIÓN, COMPRA, ENAJENACIÓN, INVERSIÓN, TENENCIA, DISFRUTE, ADMINISTRACIÓN, GESTIÓN, NEGOCIACIÓN Y ARRENDAMIENTO DE SOCIEDADES, DE CONCESIONES Y LICENCIAS ADMINISTRATIVAS, TARJETAS DE TRANSPORTE, AUTORIZACIONES, PERMISOS, DE VALORES MOBILIARIOS, DE BIENES INMUEBLES, DE PATENTES, DE MARCAS, DE REGISTROS, DE PARTICIPACIONES SOCIALES, CON EXCLUSIÓN DE LAS ACTIVIDADES PREVISTAS EN LA LEY DEL MERCADO DE VALORES Y EN LAS REGULADORAS DE LAS INSTITUCIONES DE INVERSIÓN COLECTIVA",
      "mainEntityOfPage": "https://www.contratacion.euskadi.eus/webkpe00-kperoc/es/ac71aBusquedaRegistrosWar/empresa/06598",
      "_links": {
        "self": {
          "name": "CANTERA CARRANZA-KARRANTZA HARROBI, S.L.",
          "href": "https://api.euskadi.eus/procurements/companies/06598"
        }
      }
    }
  ]
}