{
  "totalItems": 9042,
  "totalPages": 905,
  "currentPage": 335,
  "itemsOfPage": 10,
  "items": [
    {
      "name": "LANIT SOLUCIONES TECNOLOGICAS, S.L.",
      "registrationNumber": "03795",
      "identificationNumber": "B95454062",
      "address": "SECTOR Nº 18 DE IGELTZERA, PABELLÓN 4º IZD., PLANTA 2ª,C 2-D",
      "location": {
        "postalCode": "48610",
        "municipality": "Urduliz",
        "county": "Bizkaia",
        "municipalityId": "089",
        "countyId": "48"
      },
      "economicActivities": [
        {
          "id": "1.615.4",
          "name": "Venta al por mayor de aparatos y material radioeléctrico y electrónico",
          "_links": {
            "self": {
              "name": "Venta al por mayor de aparatos y material radioeléctrico y electrónico",
              "href": "https://api.euskadi.eus/procurements/companies/economic-activities/1.615.4"
            }
          }
        }
      ],
      "certificateStartDate": "2025-07-28",
      "certificateEndDate": "2026-01-28",
      "object": "1.- VENTA DE PRODUCTOS INFORMÁTICOS EN GENERAL Y PRESTACIÓN DE SERVICIOS PARA LA GESTIÓN DE LAS INFRAESTRUCTURAS INFORMÁTICAS.\r\n2.- ADQUIRIR ENAJENAR Y ARRENDAR BIENES INMUEBLES (CONCRETAMENTE LOS DETERMINADOS EN EL ARTÍCULO 334.1 DEL CÓDIGO CIVIL), ACCIONES PARTICIPACIONES SOCIALES, OBLIGACIONES, BONOS DE CAJA, CERTIFICADOS DE DEPÓSITO Y PAGARÉS DE TODA CLASE DE EMPRESAS O NEGOCIOS",
      "mainEntityOfPage": "https://www.contratacion.euskadi.eus/webkpe00-kperoc/es/ac71aBusquedaRegistrosWar/empresa/03795",
      "_links": {
        "self": {
          "name": "LANIT SOLUCIONES TECNOLOGICAS, S.L.",
          "href": "https://api.euskadi.eus/procurements/companies/03795"
        }
      }
    },
    {
      "name": "ZINGERLE GROUP IBERICA, S.L.",
      "registrationNumber": "10019",
      "identificationNumber": "B61384657",
      "address": "VÍA TRAJANA, 50-56 NAVE 35",
      "location": {
        "postalCode": "08020",
        "municipality": "Barcelona",
        "county": "Barcelona",
        "municipalityId": "019",
        "countyId": "08"
      },
      "economicActivities": [
        {
          "id": "1.617.9",
          "name": "Venta al por mayor interindustrial de otros productos n.c.o.p",
          "_links": {
            "self": {
              "name": "Venta al por mayor interindustrial de otros productos n.c.o.p",
              "href": "https://api.euskadi.eus/procurements/companies/economic-activities/1.617.9"
            }
          }
        }
      ],
      "certificateStartDate": "2025-07-27",
      "certificateEndDate": "2026-01-27",
      "object": "ALQUILER, MANTENIMIENTO, MONTAJE Y/O INSTALACIÓN DE CARPAS, LONAS, MOBILIARIO, KIOSCOS Y DEMÁS ELEMENTOS PUBLICITARIOS, ASÍ COMO ORGANIZACIÓN DE EVENTOS, FERIAS, CELEBRACIONES, CONVENCIONES Y FESTEJOS.",
      "mainEntityOfPage": "https://www.contratacion.euskadi.eus/webkpe00-kperoc/es/ac71aBusquedaRegistrosWar/empresa/10019",
      "_links": {
        "self": {
          "name": "ZINGERLE GROUP IBERICA, S.L.",
          "href": "https://api.euskadi.eus/procurements/companies/10019"
        }
      }
    },
    {
      "name": "TALLERES MECANICOS ENBATA, S.L.",
      "registrationNumber": "07210",
      "identificationNumber": "B20885943",
      "address": "ZONA PORTUARIA LA HERRERA 6 BAJO 9",
      "location": {
        "postalCode": "20110",
        "municipality": "Pasaia",
        "county": "Gipuzkoa",
        "municipalityId": "064",
        "countyId": "20"
      },
      "economicActivities": [
        {
          "id": "1.315.1",
          "name": "Construcción de grandes calderas",
          "_links": {
            "self": {
              "name": "Construcción de grandes calderas",
              "href": "https://api.euskadi.eus/procurements/companies/economic-activities/1.315.1"
            }
          }
        }
      ],
      "certificateStartDate": "2025-07-27",
      "certificateEndDate": "2026-01-27",
      "object": "CALDERERÍA Y REPARACIÓN DE MECÁNICA EN GENERAL",
      "mainEntityOfPage": "https://www.contratacion.euskadi.eus/webkpe00-kperoc/es/ac71aBusquedaRegistrosWar/empresa/07210",
      "_links": {
        "self": {
          "name": "TALLERES MECANICOS ENBATA, S.L.",
          "href": "https://api.euskadi.eus/procurements/companies/07210"
        }
      }
    },
    {
      "name": "MOVISAT TECNOMOVILIDAD, S.L.",
      "registrationNumber": "09464",
      "identificationNumber": "B86522828",
      "address": "C/ Fernando Alonso Navarro, 12 7ª Planta",
      "location": {
        "postalCode": "30009",
        "municipality": "Murcia",
        "county": "Murcia",
        "municipalityId": "030",
        "countyId": "30"
      },
      "economicActivities": [
        {
          "id": "1.843.9",
          "name": "Otros servicios técnicos n.c.o.p",
          "_links": {
            "self": {
              "name": "Otros servicios técnicos n.c.o.p",
              "href": "https://api.euskadi.eus/procurements/companies/economic-activities/1.843.9"
            }
          }
        }
      ],
      "certificateStartDate": "2025-07-25",
      "certificateEndDate": "2026-01-25",
      "object": "EL DESARROLLO Y FABRICACIÓN DE APLICACIONES INFORMÁTICAS Y DE TELECOMUNICACIONES, ASÍ COMO DE EQUIPOS ELECTRÓNICOS, POSICIONAMIENTO Y TELECOMUNICACIONES. SU COMERCIALIZACIÓN E IMPLANTACIÓN EN PROYECTOS DE MOVILIDAD TECNOLÓGICA, TANTO A NIVEL DE CONSULTORÍA COMO DE INSTALACIÓN, IMPLANTACIÓN Y REPARACIÓN, EN TODO EL CAMPO TECNOLÓGICO DE LA INFORMÁTICA, ELECTRÓNICA, TELECOMUNICACIONES, CARTOGRAFÍA, POSICIONAMIENTO Y GESTIÓN DE PROCESOS.",
      "mainEntityOfPage": "https://www.contratacion.euskadi.eus/webkpe00-kperoc/es/ac71aBusquedaRegistrosWar/empresa/09464",
      "_links": {
        "self": {
          "name": "MOVISAT TECNOMOVILIDAD, S.L.",
          "href": "https://api.euskadi.eus/procurements/companies/09464"
        }
      }
    },
    {
      "name": "TALLER VICTOR GONZALEZ E HIJO, S.L.",
      "registrationNumber": "09131",
      "identificationNumber": "B09299702",
      "address": "Pgno. Ind. Bayas - C/ Suzana, 133",
      "location": {
        "postalCode": "09200",
        "municipality": "Miranda de Ebro",
        "county": "Burgos",
        "municipalityId": "219",
        "countyId": "09"
      },
      "economicActivities": [
        {
          "id": "1.617.6",
          "name": "Venta al por mayor de maquinaria agrícola",
          "_links": {
            "self": {
              "name": "Venta al por mayor de maquinaria agrícola",
              "href": "https://api.euskadi.eus/procurements/companies/economic-activities/1.617.6"
            }
          }
        },
        {
          "id": "1.691.2",
          "name": "Reparación de vehículos automóviles, bicicletas y otros vehículos",
          "_links": {
            "self": {
              "name": "Reparación de vehículos automóviles, bicicletas y otros vehículos",
              "href": "https://api.euskadi.eus/procurements/companies/economic-activities/1.691.2"
            }
          }
        },
        {
          "id": "1.852",
          "name": "Alquiler de maquinaria y equipo para la construcción",
          "_links": {
            "self": {
              "name": "Alquiler de maquinaria y equipo para la construcción",
              "href": "https://api.euskadi.eus/procurements/companies/economic-activities/1.852"
            }
          }
        }
      ],
      "certificateStartDate": "2025-07-25",
      "certificateEndDate": "2026-01-23",
      "object": "LA REPARACIÓN DE MAQUINARIA AGRÍCOLA, VEHÍCULOS INDUSTRIALES, TURISMOS Y MOTOS.",
      "mainEntityOfPage": "https://www.contratacion.euskadi.eus/webkpe00-kperoc/es/ac71aBusquedaRegistrosWar/empresa/09131",
      "_links": {
        "self": {
          "name": "TALLER VICTOR GONZALEZ E HIJO, S.L.",
          "href": "https://api.euskadi.eus/procurements/companies/09131"
        }
      }
    },
    {
      "name": "SERVIGRIFFEN S.L.",
      "registrationNumber": "09530",
      "identificationNumber": "B44981181",
      "address": "Pol. Ind. Arriandi B, parc. 4 A, naves 3-4",
      "location": {
        "postalCode": "48215",
        "municipality": "Iurreta",
        "county": "Bizkaia",
        "municipalityId": "910",
        "countyId": "48"
      },
      "economicActivities": [
        {
          "id": "1.319.9",
          "name": "Talleres mecánicos n.c.o.p",
          "_links": {
            "self": {
              "name": "Talleres mecánicos n.c.o.p",
              "href": "https://api.euskadi.eus/procurements/companies/economic-activities/1.319.9"
            }
          }
        }
      ],
      "certificateStartDate": "2025-07-24",
      "certificateEndDate": "2026-01-24",
      "object": "A) LA REALIZACIÓN DE SERVICIOS DE GESTIÓN A TERCEROS EN TODAS LAS ÁREAS CUYA DEMANDA PUEDA SER REQUERIDA. SERVICIOS DE SECRETARIA Y TRADUCCIONES Y ATENCIÓN TELEFÓNICA. B) LA REALIZACIÓN DE TODA CLASE DE ACTIVIDADES RELACIONADAS CON EL MARKETING, MERCHANDISING, LAS RELACIONES PÚBLICAS, EL PATROCINIO, LA IMAGEN Y LA COMUNICACIÓN ASÍ COMO LAS PREPARATORIAS, COMPLEMENTARIAS O DERIVADAS DE LAS ANTERIORES. LA REALIZACIÓN DE ESTUDIOS Y EL ASESORAMIENTO PROFESIONAL, CONSULTORÍA Y FORMACIÓN EN SU MÁS AMPLIO SENTIDO, INCLUSO TECNOLÓGICO Y DE INVESTIGACIÓN, DESARROLLO E INNOVACIÓN, PRESTADO A TODO TIPO DE PERSONAS FÍSICAS O JURÍDICAS Y TANTO PÚBLICAS COMO PRIVADAS. C) LA ORGANIZACIÓN, DIRECCIÓN Y GESTIÓN DE EMPRESAS. ASUMIR COMISIONES Y REPRESENTACIONES DE PERSONAS, ENTIDADES, RAZONES SOCIALES Y SOCIEDADES NACIONALES Y EXTRANJERAS. D) LA PROMOCIÓN DE NUEVAS EMPRESAS MEDIANTE LA REALIZACIÓN DE ESTUDIOS DE VIABILIDAD DE CARÁCTER TÉCNICO-FINANCIERO. LA INTERMEDIACIÓN Y PUESTA EN COMÚN DE MEDIOS EN LA PRESTACIÓN DE SERVICIOS DE ASESORÍA DE CARÁCTER CONTABLE, FISCAL, Y LABORAL, SIEMPRE EN RÉGIMEN DE INTERMEDIACIÓN ENTRE EL CLIENTE Y EL PROFESIONAL PERSONA FÍSICA, Y TODO ELLO CON ESPECIAL EXCLUSIÓN DE LA FORMA DE PRESTACIÓN PROPIA DE LAS SOCIEDADES PROFESIONALES REGULADAS EN LA LEY 2/2007 DE 15 DE MARZO, LA ADQUISICIÓN Y REORGANIZACIÓN DE EMPRESAS YA EXISTENTES PARA SU VENTA O EXPLOTACIÓN DIRECTA O A TRAVÉS DE TERCEROS.  E) EL ESTUDIO, ASESORAMIENTO CAPTACIÓN Y ADQUISICIÓN DE TODA CLASE DE PUBLICIDAD PARA SU TENENCIA Y EXPLOTACIÓN Y, EN SU CASO, CESIÓN A TERCEROS, PRO CUALQUIER FORMA ADMITIDA EN DERECHO. F) REDACCIÓN Y CONFECCIÓN DE PROYECTOS TÉCNICOS DE TODO TIPO, DIRECCIÓN, INSTALACIÓN, REPARACIÓN Y SERVICIO DE ASISTENCIA TÉCNICA DE LOS MISMOS, CONTROL DE CALIDAD, VALORACIÓN DE ESTUDIOS E INFORMES Y ASESORAMIENTO TÉCNICO CON RELACIÓN A LAS ACTIVIDADES ANTERIORMENTE MENCIONADAS. G) LA COMPRA, VENTA, FABRICACIÓN, IMPORTACIÓN, EXPORTACIÓN, PROMOCIÓN, DISTRIBUCIÓN Y COMERCIALIZACIÓN DE TODO TIPO DE ARTÍCULOS RELACIONADAS CON LA DECORACIÓN, REGALOS, INFANTIL, PUERICULTURA, TEXTIL, CONFECCIÓN, CALZADO, ELECTRÓNICA, INFORMÁTICA, TELEFONÍA, TELECOMUNICACIONES, MOBILIARIO, PERFUMERÍA, COSMÉTICA, AUTOMÓVILES Y TODO TIPO DE VEHÍCULOS A MOTOR, DEPORTE, MAQUINARIA, BIENES DE EQUIPO Y MATERIALES DE LA CONSTRUCCIÓN. H) LA INSTALACIÓN, REPARACIÓN Y SERVICIO DE ASISTENCIA TÉCNICA DE LOS PRODUCTOS RELACIONADOS EN LOS APARTADOS ANTERIORES. I) TRANSPORTE NACIONAL E INTERNACIONAL DE MERCANCÍAS, SERVICIOS DE LOGÍSTICA Y MENSAJERÍA. J) LAS OPERACIONES TÍPICAS DEL TRÁFICO INMOBILIARIO, INCLUIDAS LA PROMOCIÓN, CONSTRUCCIÓN, MOVIMIENTOS DE TIERRAS, COMERCIALIZACIÓN Y ARRENDAMIENTO (CON EXCLUSIÓN DEL ARRENDAMIENTO ACTIVO FINANCIERO). EL ASESORAMIENTO E INTERMEDIACIÓN INMOBILIARIA. K) LAS REPARACIONES, LAS REHABILITACIONES, LA ALBAÑILERÍA, PEQUEÑOS TRABAJOS DE CONSTRUCCIÓN, LAS REFORMAS, IMPERMEABILIZACIÓN, COLOCACIÓN DE PARQUET, FONTANERÍA, CARPINTERÍA, INSTALACIÓN DE PLADUR, CERRAJERÍA, PINTURA, TRABAJOS DE ESCAYOLA, ELECTRICIDAD, MANTENIMIENTO, INSTALACIÓN DE CALEFACCIÓN, COLOCACIÓN DE SUELOS/ALICATADOS, INSTALACIÓN DE AIRE ACONDICIONADO, TRABAJOS VERTICALES Y AFINES. L) LA PARTICIPACIÓN POR CUENTA PROPIA EN OTRAS SOCIEDADES Y EMPRESAS NACIONALES O EXTRANJERAS, MEDIANTE LA SUSCRIPCIÓN, ADQUISICIÓN Y TENENCIA DE ACCIONES, PARTICIPACIONES O CUALESQUIERA OTROS TÍTULOS, YA SEAN DE RENTA FIJA O VARIABLE, CON EXCLUSIÓN DE LAS ACTIVIDADES RESERVADAS A LAS EMPRESAS DE SERVICIOS DE INVERSIÓN, A LAS INSTITUCIONES DE INVERSIÓN COLECTIVA Y LAS SUJETAS A LA LEY DEL MERCADO DE VALORES Y SU NORMATIVA DE DESARROLLO. M) LA EXPLOTACIÓN, ADMINISTRACIÓN Y GESTIÓN DE CUALESQUIERA TIPOS DE NEGOCIO RELACIONADOS CON LA HOSTELERÍA Y LA ALIMENTACIÓN. ",
      "mainEntityOfPage": "https://www.contratacion.euskadi.eus/webkpe00-kperoc/es/ac71aBusquedaRegistrosWar/empresa/09530",
      "_links": {
        "self": {
          "name": "SERVIGRIFFEN S.L.",
          "href": "https://api.euskadi.eus/procurements/companies/09530"
        }
      }
    },
    {
      "name": "TERESA JUSTA MARTINEZ",
      "registrationNumber": "09410",
      "identificationNumber": "16266415X",
      "address": "Calle Francia (01002) 35",
      "location": {
        "postalCode": "01002",
        "municipality": "Vitoria-Gasteiz",
        "county": "Araba/Álava",
        "municipalityId": "059",
        "countyId": "01"
      },
      "economicActivities": [
        {
          "id": "1.972.1",
          "name": "Servicios de peluquería de señoras y caballeros",
          "_links": {
            "self": {
              "name": "Servicios de peluquería de señoras y caballeros",
              "href": "https://api.euskadi.eus/procurements/companies/economic-activities/1.972.1"
            }
          }
        }
      ],
      "certificateStartDate": "2025-07-23",
      "certificateEndDate": "2026-01-23",
      "object": "SERVICIOS DE PELUQUERÍA DE SEÑORAS Y CABALLEROS.",
      "mainEntityOfPage": "https://www.contratacion.euskadi.eus/webkpe00-kperoc/es/ac71aBusquedaRegistrosWar/empresa/09410",
      "_links": {
        "self": {
          "name": "TERESA JUSTA MARTINEZ",
          "href": "https://api.euskadi.eus/procurements/companies/09410"
        }
      }
    },
    {
      "name": "EDITORIAL ITXAROPENA, S.A.",
      "registrationNumber": "00102",
      "identificationNumber": "A20038527",
      "address": "ARABA KALEA, Nº 45",
      "location": {
        "postalCode": "20800",
        "municipality": "Zarautz",
        "county": "Gipuzkoa",
        "municipalityId": "079",
        "countyId": "20"
      },
      "economicActivities": [
        {
          "id": "1.474.1",
          "name": "Impresión de textos o imágenes por cualquier procedimiento",
          "_links": {
            "self": {
              "name": "Impresión de textos o imágenes por cualquier procedimiento",
              "href": "https://api.euskadi.eus/procurements/companies/economic-activities/1.474.1"
            }
          }
        },
        {
          "id": "1.475.2",
          "name": "Composición de textos por cualquier procedimiento",
          "_links": {
            "self": {
              "name": "Composición de textos por cualquier procedimiento",
              "href": "https://api.euskadi.eus/procurements/companies/economic-activities/1.475.2"
            }
          }
        },
        {
          "id": "1.476.1",
          "name": "Edición de libros",
          "_links": {
            "self": {
              "name": "Edición de libros",
              "href": "https://api.euskadi.eus/procurements/companies/economic-activities/1.476.1"
            }
          }
        },
        {
          "id": "1.859",
          "name": "Alquiler de otros bienes muebles n.c.o.p. (sin personal permanente)",
          "_links": {
            "self": {
              "name": "Alquiler de otros bienes muebles n.c.o.p. (sin personal permanente)",
              "href": "https://api.euskadi.eus/procurements/companies/economic-activities/1.859"
            }
          }
        }
      ],
      "certificateStartDate": "2025-07-23",
      "certificateEndDate": "2026-01-21",
      "classification": [
        {
          "id": "S",
          "name": "Servicios",
          "groups": [
            {
              "id": "M",
              "subgroups": [
                {
                  "id": "04",
                  "name": "Artes gráficas",
                  "categories": [
                    {
                      "id": "1",
                      "name": "Desde 0 Hasta 150.000",
                      "_links": {
                        "self": {
                          "name": "Desde 0 Hasta 150.000",
                          "href": "https://api.euskadi.eus/procurements/companies/types/S/categories/1"
                        }
                      }
                    }
                  ],
                  "_links": {
                    "self": {
                      "name": "Artes gráficas",
                      "href": "https://api.euskadi.eus/procurements/companies/types/S/groups/M/subgroups/04"
                    }
                  }
                }
              ],
              "_links": {
                "self": {
                  "href": "https://api.euskadi.eus/procurements/companies/types/S/groups/M"
                }
              }
            }
          ],
          "_links": {
            "self": {
              "name": "Servicios",
              "href": "https://api.euskadi.eus/procurements/companies/types/S"
            }
          }
        }
      ],
      "object": "ARTES GRÁFICAS",
      "mainEntityOfPage": "https://www.contratacion.euskadi.eus/webkpe00-kperoc/es/ac71aBusquedaRegistrosWar/empresa/00102",
      "_links": {
        "self": {
          "name": "EDITORIAL ITXAROPENA, S.A.",
          "href": "https://api.euskadi.eus/procurements/companies/00102"
        }
      }
    },
    {
      "name": "IMPERIAL BILBAINA, S.A.",
      "registrationNumber": "01762",
      "identificationNumber": "A48171771",
      "address": "Escurce, 1",
      "location": {
        "postalCode": "48012",
        "municipality": "Bilbao",
        "county": "Bizkaia",
        "municipalityId": "020",
        "countyId": "48"
      },
      "economicActivities": [
        {
          "id": "1.922",
          "name": "Servicios de limpieza",
          "_links": {
            "self": {
              "name": "Servicios de limpieza",
              "href": "https://api.euskadi.eus/procurements/companies/economic-activities/1.922"
            }
          }
        }
      ],
      "certificateStartDate": "2025-07-23",
      "certificateEndDate": "2026-01-21",
      "object": "LIMPIEZAS DE TODO TIPO; GENERALES, INDUSTRIALES, BARCOS, FACHADAS, CRISTALES, MATENIMIENTO DE EDIFICIOS Y LOCALES, INTEGRALES, APARATOS TÉCNICOS, JARDINERÍA Y AMBIENTES FLORALES, LIMPIEZA DE MOQUETAS, ALFOMBRAS, DESINFECCIÓN, DESRATIZACIÓN, DESINSECTACIÓN, ETC., ASÍ COMO A LA PRESTACIÓN DE SERVICIOS RELACIONADOS CON LAS ACTIVIDADES RESEÑADAS Y A CUANTOS SEAN ANTECEDENTES O CONSECUENTES CON LAS MISMAS, O TENGAN RELACIÓN CON ELLAS",
      "mainEntityOfPage": "https://www.contratacion.euskadi.eus/webkpe00-kperoc/es/ac71aBusquedaRegistrosWar/empresa/01762",
      "_links": {
        "self": {
          "name": "IMPERIAL BILBAINA, S.A.",
          "href": "https://api.euskadi.eus/procurements/companies/01762"
        }
      }
    },
    {
      "name": "OREKA SAREA SL",
      "registrationNumber": "08418",
      "identificationNumber": "B95463071",
      "address": "BARRIO EROSO-UGARTE 13",
      "location": {
        "postalCode": "48390",
        "municipality": "Bedia",
        "county": "Bizkaia",
        "municipalityId": "092",
        "countyId": "48"
      },
      "economicActivities": [
        {
          "id": "1.849.9",
          "name": "Otros servicios independientes n.c.o.p",
          "_links": {
            "self": {
              "name": "Otros servicios independientes n.c.o.p",
              "href": "https://api.euskadi.eus/procurements/companies/economic-activities/1.849.9"
            }
          }
        }
      ],
      "certificateStartDate": "2025-07-23",
      "certificateEndDate": "2025-08-07",
      "object": "ASESORÍA Y FORMACIÓN A ORGANIZACIONES PÚBLICAS O PRIVADAS EN TEMAS DE GÉNERO, CULTURA DE PAZ, SOSTENIBILIDAD Y PARTICIPACIÓN SOCIO-POLÍTICA.",
      "mainEntityOfPage": "https://www.contratacion.euskadi.eus/webkpe00-kperoc/es/ac71aBusquedaRegistrosWar/empresa/08418",
      "_links": {
        "self": {
          "name": "OREKA SAREA SL",
          "href": "https://api.euskadi.eus/procurements/companies/08418"
        }
      }
    }
  ]
}