{
  "totalItems": 9042,
  "totalPages": 905,
  "currentPage": 456,
  "itemsOfPage": 10,
  "items": [
    {
      "name": "AIRESTUDIO GEOINFORMATION TECHNOLOGIES, S.COOP.",
      "registrationNumber": "07104",
      "identificationNumber": "F01509710",
      "address": "C/ALBERT EINSTEIN, 44 Edificio E6 Oficina 8",
      "location": {
        "postalCode": "01510",
        "municipality": "Vitoria-Gasteiz",
        "county": "Araba/Álava",
        "municipalityId": "059",
        "countyId": "01"
      },
      "economicActivities": [
        {
          "id": "1.843.4",
          "name": "Servicios técnicos de topografía",
          "_links": {
            "self": {
              "name": "Servicios técnicos de topografía",
              "href": "https://api.euskadi.eus/procurements/companies/economic-activities/1.843.4"
            }
          }
        }
      ],
      "certificateStartDate": "2023-07-06",
      "certificateEndDate": "2024-01-06",
      "object": "LA PRESTACIÓN DE SERVICIOS DE INGENIERÍA DE INVESTIGACIÓN, DESARROLLO, FORMACIÓN Y SERVICIOS DE CONSULTORÍA DE TOPOGRAFÍA, CARTOGRAFÍA Y SERVICIOS DE CAPTURA DE INFORMACIÓN GEOGRÁFICA POR MEDIOS TERRESTRES, AÉREOS Y MARÍTIMOS. TRATAMIENTO, ANÁLISIS, GESTIÓN Y EXPLOTACIÓN DE LOS DATOS, MEDIANTE SISTEMAS DE INFORMACIÓN GEOGRÁFICA Y/O DESARROLLO DE APLICACIONES A MEDIDA Y/O APLICACIONES EXISTENTES, ORIENTADAS A MODELOS 3D, NUBES DE PUNTOS, PROYECTOS, CATASTRO, CARTOGRAFÍA, INVENTARIOS DE ELEMENTOS, GESTIÓN DEL MEDIO AMBIENTE, CONTAMINACIÓN, EFICIENCIA ENERGÉTICA, HIDROLOGÍA, AGRICULTURA Y PROTECCIÓN CIVIL A NIVEL MUNDIAL PARA LA DIFUSIÓN, DISTRIBUCIÓN Y EXPLOTACIÓN DE LOS RESULTADOS EN PLATAFORMAS LOCALES Y/O WEB. INVESTIGACIÓN Y DESARROLLO DE SENSORES DE CAPTURA DE GEOINFORMACIÓN BASADOS EN FOTOGRAFÍA, SISTEMAS LÁSER PARA SU EXPLOTACIÓN AISLADA O INTEGRADA EN OTROS SISTEMAS DE DESARROLLO PROPIO O EXISTENTE PARA LA CAPTURA DE INFORMACIÓN GEOGRÁFICA. INVESTIGACIÓN Y DESARROLLO DE SOLUCIONES EN COLABORACIÓN CON OTRAS EMPRESAS O ENTIDADES LOCALES Y/O PRIVADAS",
      "mainEntityOfPage": "https://www.contratacion.euskadi.eus/webkpe00-kperoc/es/ac71aBusquedaRegistrosWar/empresa/07104",
      "_links": {
        "self": {
          "name": "AIRESTUDIO GEOINFORMATION TECHNOLOGIES, S.COOP.",
          "href": "https://api.euskadi.eus/procurements/companies/07104"
        }
      }
    },
    {
      "name": "ELETIOPE, S.L.",
      "registrationNumber": "08825",
      "identificationNumber": "B39456397",
      "address": "Araneko 17",
      "location": {
        "postalCode": "48014",
        "municipality": "Bilbao",
        "county": "Bizkaia",
        "municipalityId": "020",
        "countyId": "48"
      },
      "economicActivities": [
        {
          "id": "1.504.11",
          "name": "Instalaciones eléctricas en general, redes telegráficas, telefonía, tv, etc",
          "_links": {
            "self": {
              "name": "Instalaciones eléctricas en general, redes telegráficas, telefonía, tv, etc",
              "href": "https://api.euskadi.eus/procurements/companies/economic-activities/1.504.11"
            }
          }
        },
        {
          "id": "1.843.5",
          "name": "Servicios técnicos de delineación",
          "_links": {
            "self": {
              "name": "Servicios técnicos de delineación",
              "href": "https://api.euskadi.eus/procurements/companies/economic-activities/1.843.5"
            }
          }
        },
        {
          "id": "1.934",
          "name": "Enseñanza fuera de establecimiento permanente",
          "_links": {
            "self": {
              "name": "Enseñanza fuera de establecimiento permanente",
              "href": "https://api.euskadi.eus/procurements/companies/economic-activities/1.934"
            }
          }
        }
      ],
      "certificateStartDate": "2023-07-05",
      "certificateEndDate": "2024-01-05",
      "object": "EL DISEÑO E ILUMINACIÓN DE ESPECTÁCULOS; LA CONTRATACIÓN DE ARTISTAS; LA ORGANIZACIÓN DE ESPECTÁCULOS; LA PROMOCIÓN Y ORGANIZACIÓN, EN GENERAL, DE CUALESQUIERA OTRAS ACTIVIDADES CULTURALES Y ARTÍSTICAS.",
      "mainEntityOfPage": "https://www.contratacion.euskadi.eus/webkpe00-kperoc/es/ac71aBusquedaRegistrosWar/empresa/08825",
      "_links": {
        "self": {
          "name": "ELETIOPE, S.L.",
          "href": "https://api.euskadi.eus/procurements/companies/08825"
        }
      }
    },
    {
      "name": "EUSLAN LANAK ETA ZERBITZUAK, S.L.",
      "registrationNumber": "06631",
      "identificationNumber": "B95955704",
      "address": "Axgane Auzoa",
      "location": {
        "postalCode": "48640",
        "municipality": "Berango",
        "county": "Bizkaia",
        "municipalityId": "016",
        "countyId": "48"
      },
      "economicActivities": [
        {
          "id": "1.501.2",
          "name": "Construcción completa, reparación y conservación obras civiles",
          "_links": {
            "self": {
              "name": "Construcción completa, reparación y conservación obras civiles",
              "href": "https://api.euskadi.eus/procurements/companies/economic-activities/1.501.2"
            }
          }
        }
      ],
      "certificateStartDate": "2023-07-05",
      "certificateEndDate": "2024-01-05",
      "object": "EJECUCIÓN DE OBRAS CIVILES Y EDIFICACIÓN NO RESIDENCIAL",
      "mainEntityOfPage": "https://www.contratacion.euskadi.eus/webkpe00-kperoc/es/ac71aBusquedaRegistrosWar/empresa/06631",
      "_links": {
        "self": {
          "name": "EUSLAN LANAK ETA ZERBITZUAK, S.L.",
          "href": "https://api.euskadi.eus/procurements/companies/06631"
        }
      }
    },
    {
      "name": "CENTRO PARA LA CULTURA Y EL CONOCIMIENTO, S.A.",
      "registrationNumber": "08140",
      "identificationNumber": "A20052031",
      "address": "parque empresarial zuatzu-edificio zuriola,1",
      "location": {
        "postalCode": "20018",
        "municipality": "Donostia / San Sebastián",
        "county": "Gipuzkoa",
        "municipalityId": "069",
        "countyId": "20"
      },
      "economicActivities": [
        {
          "id": "1.476.1",
          "name": "Edición de libros",
          "_links": {
            "self": {
              "name": "Edición de libros",
              "href": "https://api.euskadi.eus/procurements/companies/economic-activities/1.476.1"
            }
          }
        },
        {
          "id": "1.933.9",
          "name": "Otras actividades de enseñanza tales como idiomas, mecanografía",
          "_links": {
            "self": {
              "name": "Otras actividades de enseñanza tales como idiomas, mecanografía",
              "href": "https://api.euskadi.eus/procurements/companies/economic-activities/1.933.9"
            }
          }
        },
        {
          "id": "1.934",
          "name": "Enseñanza fuera de establecimiento permanente",
          "_links": {
            "self": {
              "name": "Enseñanza fuera de establecimiento permanente",
              "href": "https://api.euskadi.eus/procurements/companies/economic-activities/1.934"
            }
          }
        }
      ],
      "certificateStartDate": "2023-07-05",
      "certificateEndDate": "2024-01-01",
      "object": "LA ACTIVIDAD DE LA ENSEÑANZA DE TODOS SUS GRADOS CON ACOMODACIÓN A LAS EXIGENCIAS LEGALES Y ADMINISTRATIVAS EN CADA CASO, INCLUIDAS LA ENSEÑANZA A DISTANCIA O POR CORRESPONDENCIA, DE TODA CLASE DE CURSOS, MATERIAS, DISCIPLINAS AUTORIZADAS POR EL MINISTERIO DE EDUCACIÓN Y CIENCIA U OTROS ORGANISMOS QUE TENGAN COMPETENCIA EN LA MATERIA.",
      "mainEntityOfPage": "https://www.contratacion.euskadi.eus/webkpe00-kperoc/es/ac71aBusquedaRegistrosWar/empresa/08140",
      "_links": {
        "self": {
          "name": "CENTRO PARA LA CULTURA Y EL CONOCIMIENTO, S.A.",
          "href": "https://api.euskadi.eus/procurements/companies/08140"
        }
      }
    },
    {
      "name": "ASG GRAFICOS DONOSTI, S.L.",
      "registrationNumber": "08821",
      "identificationNumber": "B75179010",
      "address": "portuetxe 23B",
      "location": {
        "postalCode": "20018",
        "municipality": "Donostia / San Sebastián",
        "county": "Gipuzkoa",
        "municipalityId": "069",
        "countyId": "20"
      },
      "economicActivities": [
        {
          "id": "1.475.3",
          "name": "Reproducción de textos, imágenes destinados a la impresión",
          "_links": {
            "self": {
              "name": "Reproducción de textos, imágenes destinados a la impresión",
              "href": "https://api.euskadi.eus/procurements/companies/economic-activities/1.475.3"
            }
          }
        }
      ],
      "certificateStartDate": "2023-07-04",
      "certificateEndDate": "2024-01-04",
      "object": "- ARTES GRÁFICAS, ACTIVIDADES DE IMPRESIÓN, LA COMERCIALIZACIÓN INTERMEDIACIÓN, MANIPULACIÓN Y DISTRIBUCIÓN DE TODA CLASE DE PRODUCTOS O ARTÍCULOS RELACIONADOS CON LAS ARTES GRÁFICAS, LA FABRICACIÓN Y REALIZACIÓN DE CUALQUIER TIPO Y ACTIVIDADES VINCULADAS.",
      "mainEntityOfPage": "https://www.contratacion.euskadi.eus/webkpe00-kperoc/es/ac71aBusquedaRegistrosWar/empresa/08821",
      "_links": {
        "self": {
          "name": "ASG GRAFICOS DONOSTI, S.L.",
          "href": "https://api.euskadi.eus/procurements/companies/08821"
        }
      }
    },
    {
      "name": "INNOVAHEALTH, S.L.",
      "registrationNumber": "08813",
      "identificationNumber": "B90286170",
      "address": "C/ JOSE GALAN MERINO 6, MÓDULO 7",
      "location": {
        "postalCode": "41015",
        "municipality": "Sevilla",
        "county": "Sevilla",
        "municipalityId": "091",
        "countyId": "41"
      },
      "economicActivities": [
        {
          "id": "1.942.9",
          "name": "Otros servicios sanitarios sin internados, no clasificados",
          "_links": {
            "self": {
              "name": "Otros servicios sanitarios sin internados, no clasificados",
              "href": "https://api.euskadi.eus/procurements/companies/economic-activities/1.942.9"
            }
          }
        }
      ],
      "certificateStartDate": "2023-07-02",
      "certificateEndDate": "2024-01-02",
      "object": "EL DESARROLLO, DISTRIBUCIÓN, Y COMERCIALIZACIÓN DE PRODUCTOS SANITARIOS CREADOS DESDE LA BASE DE LA TECNOLOGÍA E INNOVACIÓN. EL DESARROLLO, APLICACIÓN Y COMERCIALIZACIÓN DE SOFTWARE Y APLICACIONES INFORMÁTICAS. CNAE DE LA ACTIVIDAD PRINCIPAL 6209: OTROS SERVICIOS RELACIONADOS CON LAS TECNOLOGÍAS DE LA INFORMACIÓN Y LA INFORMÁTICA.",
      "mainEntityOfPage": "https://www.contratacion.euskadi.eus/webkpe00-kperoc/es/ac71aBusquedaRegistrosWar/empresa/08813",
      "_links": {
        "self": {
          "name": "INNOVAHEALTH, S.L.",
          "href": "https://api.euskadi.eus/procurements/companies/08813"
        }
      }
    },
    {
      "name": "BE ON SPORTS SL",
      "registrationNumber": "08843",
      "identificationNumber": "B42780114",
      "address": "Calle Hondarribia 39 bajo derecha",
      "location": {
        "postalCode": "20301",
        "municipality": "Irun",
        "county": "Gipuzkoa",
        "municipalityId": "045",
        "countyId": "20"
      },
      "economicActivities": [
        {
          "id": "1.844",
          "name": "Servicios de publicidad, relaciones públicas y similares",
          "_links": {
            "self": {
              "name": "Servicios de publicidad, relaciones públicas y similares",
              "href": "https://api.euskadi.eus/procurements/companies/economic-activities/1.844"
            }
          }
        },
        {
          "id": "1.968.2",
          "name": "Organización de espectáculos deportivos",
          "_links": {
            "self": {
              "name": "Organización de espectáculos deportivos",
              "href": "https://api.euskadi.eus/procurements/companies/economic-activities/1.968.2"
            }
          }
        }
      ],
      "certificateStartDate": "2023-07-02",
      "certificateEndDate": "2024-01-02",
      "object": "-LA PROMOCIÓN Y EL FOMENTO DE LA PRÁCTICA DEL DEPORTE Y DE LA CULTURA FÍSICA Y SALUDABLE DANDO VISIBILIDAD A TODA LA OFERTA DE SERVICIOS E INICIATIVAS PÚBLICAS Y PRIVADAS ENCAMINADAS A TALES FINES. -FACILITAR A LOS CIUDADANOS EL ACCESO A ESA OFERTA DE ACTIVIDADES RELACIONADAS CON EL DEPORTE, LA SALUD, EL BIENESTAR Y LA EDUCACIÓN. -PROMOVER SINERGIAS ENTRE LOS DIFERENTES ACTORES QUE CONTRIBUYEN A TALES FINES. - PROMOVER Y ORGANIZAR LA CELEBRACIÓN DE TODA CLASE DE EVENTOS DEPORTIVOS DE CARÁCTER SOCIAL, CULTURAL, RECREATIVO, FORMATIVO Y COMPETITIVO. - CUALQUIER OTRA ACTIVIDAD QUE COMPLEMENTE LAS ANTERIORES, DE ACUERDO CON LOS FINES Y OBJETIVOS DESCRITOS.\n",
      "mainEntityOfPage": "https://www.contratacion.euskadi.eus/webkpe00-kperoc/es/ac71aBusquedaRegistrosWar/empresa/08843",
      "_links": {
        "self": {
          "name": "BE ON SPORTS SL",
          "href": "https://api.euskadi.eus/procurements/companies/08843"
        }
      }
    },
    {
      "name": "ASISTENCIA TÉCNICA RECAUDATORIA, S.L.",
      "registrationNumber": "07657",
      "identificationNumber": "B20467288",
      "address": "Esteban Lasa, 7 -B",
      "location": {
        "postalCode": "20200",
        "municipality": "Beasain",
        "county": "Gipuzkoa",
        "municipalityId": "019",
        "countyId": "20"
      },
      "economicActivities": [
        {
          "id": "1.843.9",
          "name": "Otros servicios técnicos n.c.o.p",
          "_links": {
            "self": {
              "name": "Otros servicios técnicos n.c.o.p",
              "href": "https://api.euskadi.eus/procurements/companies/economic-activities/1.843.9"
            }
          }
        }
      ],
      "certificateStartDate": "2023-07-02",
      "certificateEndDate": "2024-01-02",
      "object": "LA PRESTACIÓN DE SERVICIOS DE ASESORAMIENTO Y GESTIÓN EN MATERIA DE COBRANZA DE TRIBUTOS",
      "mainEntityOfPage": "https://www.contratacion.euskadi.eus/webkpe00-kperoc/es/ac71aBusquedaRegistrosWar/empresa/07657",
      "_links": {
        "self": {
          "name": "ASISTENCIA TÉCNICA RECAUDATORIA, S.L.",
          "href": "https://api.euskadi.eus/procurements/companies/07657"
        }
      }
    },
    {
      "name": "IZ4 GUIPUZCOA, S.L.",
      "registrationNumber": "07227",
      "identificationNumber": "B71042907",
      "address": "PLAZA IRUN 4, 1ºA",
      "location": {
        "postalCode": "20011",
        "municipality": "Donostia / San Sebastián",
        "county": "Gipuzkoa",
        "municipalityId": "069",
        "countyId": "20"
      },
      "economicActivities": [
        {
          "id": "1.501.1",
          "name": "Construcción completa, reparación y conservación de edificaciones",
          "_links": {
            "self": {
              "name": "Construcción completa, reparación y conservación de edificaciones",
              "href": "https://api.euskadi.eus/procurements/companies/economic-activities/1.501.1"
            }
          }
        }
      ],
      "certificateStartDate": "2023-06-30",
      "certificateEndDate": "2023-12-30",
      "object": "LA PROMOCIÓN, CONSTRUCCIÓN, REHABILITACIÓN Y MANTENIMIENTO DE TODO TIPO DE EDIFICACIONES",
      "mainEntityOfPage": "https://www.contratacion.euskadi.eus/webkpe00-kperoc/es/ac71aBusquedaRegistrosWar/empresa/07227",
      "_links": {
        "self": {
          "name": "IZ4 GUIPUZCOA, S.L.",
          "href": "https://api.euskadi.eus/procurements/companies/07227"
        }
      }
    },
    {
      "name": "LUIS YAÑEZ VALVERDE",
      "registrationNumber": "09104",
      "identificationNumber": "13144332Q",
      "address": "CALLE OÑATI 20; Nº 9 Y 10",
      "location": {
        "postalCode": "01013",
        "municipality": "Vitoria-Gasteiz",
        "county": "Araba/Álava",
        "municipalityId": "059",
        "countyId": "01"
      },
      "economicActivities": [
        {
          "id": "1.989.2",
          "name": "Servicios de organización de congresos, asambleas y similares",
          "_links": {
            "self": {
              "name": "Servicios de organización de congresos, asambleas y similares",
              "href": "https://api.euskadi.eus/procurements/companies/economic-activities/1.989.2"
            }
          }
        }
      ],
      "certificateStartDate": "2023-06-29",
      "certificateEndDate": "2023-12-29",
      "object": "SERVICIOS DE ORGANIZACIÓN DE CONGRESOS, ASAMBLEAS Y SIMILARES.",
      "mainEntityOfPage": "https://www.contratacion.euskadi.eus/webkpe00-kperoc/es/ac71aBusquedaRegistrosWar/empresa/09104",
      "_links": {
        "self": {
          "name": "LUIS YAÑEZ VALVERDE",
          "href": "https://api.euskadi.eus/procurements/companies/09104"
        }
      }
    }
  ]
}