{
  "totalItems": 9042,
  "totalPages": 905,
  "currentPage": 434,
  "itemsOfPage": 10,
  "items": [
    {
      "name": "DISPORT EKI, S.L.",
      "registrationNumber": "02236",
      "identificationNumber": "B01278571",
      "address": "PASEO DE LA ZUMAQUERA, Nº 12 - BAJO",
      "location": {
        "postalCode": "01006",
        "municipality": "Vitoria-Gasteiz",
        "county": "Araba/Álava",
        "municipalityId": "059",
        "countyId": "01"
      },
      "economicActivities": [
        {
          "id": "1.849.9",
          "name": "Otros servicios independientes n.c.o.p",
          "_links": {
            "self": {
              "name": "Otros servicios independientes n.c.o.p",
              "href": "https://api.euskadi.eus/procurements/companies/economic-activities/1.849.9"
            }
          }
        },
        {
          "id": "1.911",
          "name": "Servicios agrícolas y ganaderos",
          "_links": {
            "self": {
              "name": "Servicios agrícolas y ganaderos",
              "href": "https://api.euskadi.eus/procurements/companies/economic-activities/1.911"
            }
          }
        },
        {
          "id": "1.922",
          "name": "Servicios de limpieza",
          "_links": {
            "self": {
              "name": "Servicios de limpieza",
              "href": "https://api.euskadi.eus/procurements/companies/economic-activities/1.922"
            }
          }
        },
        {
          "id": "1.967.1",
          "name": "Instalaciones deportivas",
          "_links": {
            "self": {
              "name": "Instalaciones deportivas",
              "href": "https://api.euskadi.eus/procurements/companies/economic-activities/1.967.1"
            }
          }
        },
        {
          "id": "1.967.2",
          "name": "Escuelas y servicios de perfeccionamiento del deporte",
          "_links": {
            "self": {
              "name": "Escuelas y servicios de perfeccionamiento del deporte",
              "href": "https://api.euskadi.eus/procurements/companies/economic-activities/1.967.2"
            }
          }
        }
      ],
      "certificateStartDate": "2024-01-11",
      "certificateEndDate": "2024-07-03",
      "object": "LA PRESTACION DE SERVICIOS RELATIVOS A INSTALACIONES  DEPORTIVAS, ASÍ COMO SU MANTENIMIENTO Y GESTIÓN. CONSULTORÍA EN SISTEMAS DE GESTIÓN PARA TODO TIPO DE ORGANIZACIONES, ORGANIZACIÓN DE EVENTOS, ALQUILER DE INFRAESTRUCTURAS Y SERVICIOS DEPORTIVOS Y CULTURALES. LA GESTIÓN, CONTRATACIÓN, REALIZACIÓN, COORDINACIÓN Y FORMACIÓN PARA TODO TIPO DE ACTIVIDADES CULTURALES, TURÍSTICAS, DEPORTIVAS, EDUCATIVAS, COMEDORES, ALBERGUES Y DE OCIO Y TIEMPO LIBRE, INCLUSO LA CONTRATACIÓN DE TERCEROS PARA LA REALIZACIÓN DE DICHAS ACTIVIDADES. LA REPRESENTACIÓN, GESTIÓN, COORDINACIÓN Y CONTRATACIÓN DE TODO TIPO DE ESPECTÁCULOS DE TIPO TEATRAL O MUSICAL. LA GESTIÓN, DIRECCIÓN Y COORDINACIÓN DE CENTROS DE DÍA PARA PERSONAS DE TERCERA EDAD. LA REALIZACIÓN DE SERVICIOS DE PORTERÍA, CONTROL DE ACCESOS E INFORMACIÓN Y ATENCIÓN AL PÚBLICO. LA PRESTACIÓN DE SERVICIOS A LA AGRICULTURA, CON O SIN MAQUINARIA QUE SE REALIZAN EN LA MISMA EXPLOTACIÓN, TALES COMO SERVICIOS DE PLANTACIÓN, CONSERVACIÓN Y MANTENIMIENTO DE MONTES, JARDINES Y PARQUES, SERVICIOS DE PRODUCCIÓN DE CULTIVOS, COMO PREPARACIÓN DE LA TIERRA, PODA, RIEGO, SERVICIOS DE RECOLECCIÓN Y PREPARACIÓN DE COSECHAS; CREACIÓN DE ZONAS VERDES TANTO EN NÚCLEOS URBANOS COMO EN LA PROPIA NATURALEZA; Y OTROS SERVICIOS AGRÍCOLAS. LA PRESTACIÓN DE SERVICIOS DE LIMPIEZA Y MANTENIMIENTO EN GENERAL; LIMPIEZA DE EDIFICIOS Y LOCALES, INCLUYENDO SUPERFICIES CUBIERTAS Y AL AIRE LIBRE. LA REALIZACIÓN DE TRABAJOS DE INFORMÁTICA Y DE COMUNICACIÓN PUBLICITARIA, ASÍ COMO LA COMERCIALIZACIÓN DE TODO TIPO DE APLICACIONES INFORMÁTICAS A MEDIDA PARA EL ENTORNO INTERNET, INTRANET Y EXTRANET, VENTA DE MATERIAL INFORMÁTICO Y TRABAJOS DE PUBLICIDAD, MARKETING Y COMUNICACIÓN ON Y OFF-LINE, VENTA ON-LINE Y LA INTERMEDIACIÓN EN TODA CLASE DE TRABAJOS DE CONSULTORÍA INFORMÁTICA Y DE DESARROLLO DE TODA CLASE DE APLICACIONES INFORMÁTICAS",
      "mainEntityOfPage": "https://www.contratacion.euskadi.eus/webkpe00-kperoc/es/ac71aBusquedaRegistrosWar/empresa/02236",
      "_links": {
        "self": {
          "name": "DISPORT EKI, S.L.",
          "href": "https://api.euskadi.eus/procurements/companies/02236"
        }
      }
    },
    {
      "name": "DELOITTE, S.L.",
      "registrationNumber": "01131",
      "identificationNumber": "B79104469",
      "address": "PLAZA PABLO RUIZ PICASSO, 1 EDIFICIO TORRE PICASSO",
      "location": {
        "postalCode": "28020",
        "municipality": "Madrid",
        "county": "Madrid",
        "municipalityId": "079",
        "countyId": "28"
      },
      "economicActivities": [
        {
          "id": "1.842",
          "name": "Servicios financieros y contables",
          "_links": {
            "self": {
              "name": "Servicios financieros y contables",
              "href": "https://api.euskadi.eus/procurements/companies/economic-activities/1.842"
            }
          }
        },
        {
          "id": "1.932.1",
          "name": "Enseñanza de formación y perfeccionamiento profesional no superior",
          "_links": {
            "self": {
              "name": "Enseñanza de formación y perfeccionamiento profesional no superior",
              "href": "https://api.euskadi.eus/procurements/companies/economic-activities/1.932.1"
            }
          }
        }
      ],
      "certificateStartDate": "2024-01-10",
      "certificateEndDate": "2024-07-03",
      "object": "A.- REALIZAR TODA CLASE DE AUDITORÍAS, TOTALES O PARCIALES, DE CUENTAS, ECONÓMICAS, FINANCIERAS, INFORMÁTICAS DE TRASACCIONES Y SALDOS EN INTERNET, DE GESTIÓN, OPERATIVAS, EN EL ÁMBITO NACIONAL E INTERNACIONAL, PARA CUALQUIER PERSONA FÍSICA O JURÍDICA, DEL SECTOR PRIVADO, ASÍ COMO PARA CUALQUIER ADMINISTRACIÓN PÚBLICA, AJUSTÁNDOSE, EN SU CASO, A LA LEY 19/1988, DE 12 DE JULIO.\r\n\r\nB.- REALIZAR AQUELLOS TRABAJOS QUE CORRESPONDE A LOS AUDITORES DE CUENTAS, CONFORME A LO DISPUESTO EN EL RDL 1564/1989, DE 22 DE DICIEMBRE, POR EL QUE SE APRUEBA EL TEXTO REFUNDIDO DE LA LEY DE SOCIEDADES ANÓNIMAS.\r\n\r\nC.- EFECTUAR AUDITORÍAS Y ASESORÍAS MEDIOAMBIENTALES Y CONSULTORÍA EN GESTIÓN DE PATRIMONIOS Y PROYECTOS INMOBILIARIOS, ASÍ COMO AUDITORÍAS Y EVALUACIONES EXTERNAS DE SISTEMAS DE PREVENCIÓN DE RIESGOS LABORALES.\r\n\r\nD.- REALIZAR TODA CLASE DETRABAJOS DE CONSULTORÍA, ASESORAMIENTO Y ESTUDIOS, SECTORIALES O EMPRESARIALES Y CONSULTORÍA EN EL ÁMBITO NACIONAL E INTERNACIONAL TANTO EN ENTIDADES PÚBLICAS COMO PRIVADAS, SOBRE TEMAS ECONÓMICOS, FINANCIEROS, CONTABLES, SECTORIALES,   DE GESTIÓN DE LA EMPRESA  Y,  EN GENERAL, SOBRE TODOS AQUELLOS ASUNTOS RELACIONADOS CON LA INFORMACIÓN, ORGANIZACIÓN YPLANIFICACIÓN EMPRESARIAL Y D E INSTITUCIONES,  INCLUIDOS LOS SERVICIOS DE CONULTORÍA Y ASESORAMIENTO RELATIVOS AL DISEÑO Y MEJORA DE LOS PREOCESOS DE GESTIÓN, ANÁLISIS Y ESTRUCTURA DE COSTES, VALORACIÓN DE PUESTOS DE TRABAJO, GESTIÓN DE RECURSOS HUMANOS, PLANIFICACIÓN ESTRATÉGICA, GESTIÓN DE CALIDAD, GESTIÓN MEDIOAMBIENTAL, MEJORA DEL CONOCIMIENTO ORGANIZATIVO, DISEÑO E IMPLANTACIÓN DE SISTEMAS DE INFORMACIÓN, GESTIÓN Y CONTROL DE TESORERÍA Y DERIVADOS FINANCIEROS, EXTERNALIZACIÓN DE LOS DEPARTAMENTOS DE AUDITORÍA INTERNA Y MEJORA DE SU FUNCIONAMIENTO, ANÁLISIS SOBRE LA VIABILIDAD DE LAS EMPRESAS ,  GESTIÓN DEL RIESGO INFORMÁTICO Y ANÁLISIS DE SEGURIDAD EN EL TRATAMIENTO INFORMATIZADO DE DATOS, O EN EL TRATAMIENTO DE INFORMACIÓN EN INTERNET Y EN SU TRANSIMISIÓN Y COMUNICACIÓN, DISEÑO DE SISTEMAS DE CONTROL INTERNO Y PARA EL CONTROL DE RIESGOS DE TODO TIPO (FINANCIEROS, DE MATERIAS PRIMAS, DERIVADOS) Y ANÁLISIS FINANCIEROS.\r\n\t\r\nE.- REALIZAR ACTIVIDADES DE FORMACIÓN EMPRESARIAL Y PROFESIONAL, ASÍ COMO DISEÑAR, CREAR, EDITAR Y DISTRIBUIR CURSOS, MANUALES, LIBROS, VÍDEOS, SOFTWARES, Y EN GENERAL CUALQUIER PRODUCTO AUDIOVISUAL DESTINADO A LA FORMACIÓN Y DESARROLLO PROFESIONAL DE DIRECTIVOS, EMPRESARIOS, EMPLEADOS Y PERSONAS RELACIONADAS CON EL ÁMBITO EMPRESARIAL.\r\n\r\n",
      "mainEntityOfPage": "https://www.contratacion.euskadi.eus/webkpe00-kperoc/es/ac71aBusquedaRegistrosWar/empresa/01131",
      "_links": {
        "self": {
          "name": "DELOITTE, S.L.",
          "href": "https://api.euskadi.eus/procurements/companies/01131"
        }
      }
    },
    {
      "name": "ACUÑA Y FOMBONA, S.A.",
      "registrationNumber": "01578",
      "identificationNumber": "A33620485",
      "address": "C/ MARQUÉS DE CASA VALDÉS, Nº 103.",
      "location": {
        "postalCode": "33202",
        "municipality": "Gijón",
        "county": "Asturias",
        "municipalityId": "024",
        "countyId": "33"
      },
      "economicActivities": [
        {
          "id": "1.619.2",
          "name": "Venta al por mayor de aparatos e instrumentos médicos, ortopédicos, ópticos",
          "_links": {
            "self": {
              "name": "Venta al por mayor de aparatos e instrumentos médicos, ortopédicos, ópticos",
              "href": "https://api.euskadi.eus/procurements/companies/economic-activities/1.619.2"
            }
          }
        }
      ],
      "certificateStartDate": "2024-01-10",
      "certificateEndDate": "2024-07-05",
      "object": "LA COMPRA, VENTA, IMPORTACIÓN Y EXPORTACIÓN DE TODA CLASE DE APARATOS E INSTRUMENTOS MÉDICO-QUIRÚRGICOS",
      "mainEntityOfPage": "https://www.contratacion.euskadi.eus/webkpe00-kperoc/es/ac71aBusquedaRegistrosWar/empresa/01578",
      "_links": {
        "self": {
          "name": "ACUÑA Y FOMBONA, S.A.",
          "href": "https://api.euskadi.eus/procurements/companies/01578"
        }
      }
    },
    {
      "name": "BIZIN S COOP PEQUEÑA DE INICIATIVA SOCIAL",
      "registrationNumber": "08137",
      "identificationNumber": "F42877589",
      "address": "C/Doctor Ornilla Nº3, 1ºD",
      "location": {
        "postalCode": "48004",
        "municipality": "Bilbao",
        "county": "Bizkaia",
        "municipalityId": "020",
        "countyId": "48"
      },
      "economicActivities": [
        {
          "id": "1.849.9",
          "name": "Otros servicios independientes n.c.o.p",
          "_links": {
            "self": {
              "name": "Otros servicios independientes n.c.o.p",
              "href": "https://api.euskadi.eus/procurements/companies/economic-activities/1.849.9"
            }
          }
        },
        {
          "id": "1.934",
          "name": "Enseñanza fuera de establecimiento permanente",
          "_links": {
            "self": {
              "name": "Enseñanza fuera de establecimiento permanente",
              "href": "https://api.euskadi.eus/procurements/companies/economic-activities/1.934"
            }
          }
        }
      ],
      "certificateStartDate": "2024-01-08",
      "certificateEndDate": "2024-06-19",
      "object": "REALIZAR ASESORAMIENTOS Y ACOMPAÑAMIENTOS A TODO TIPO DE ENTIDADES PÚBLICAS Y/O PRIVADAS PARA GENERAR OPORTUNIDADES Y EXPERIENCIAS ACCESIBLES E INCLUSIVAS, SATISFACIENDO ASÍ LAS NECESIDADES NO ATENDIDAS POR EL MERCADO. SE REALIZARÁN ACTIVIDADES EDUCATIVAS, CULTURALES, OTRAS DE NATURALEZA SOCIAL Y ECONÓMICAS, PARA LA INCLUSIÓN SOCIAL Y LABORAL DE LAS PERSONAS QUE SUFRAN CUALQUIER CLASE DE EXCLUSIÓN SOCIAL. TODO ELLO MEDIANTE ACOMPAÑAMIENTOS ESPECÍFICOS QUE FOMENTEN LA INCLUSIÓN, ASÍ COMO LA PRODUCCIÓN, DISEÑO, EDICIÓN, COMERCIALIZACIÓN Y VENTA DE DIFERENTES TIPOS DE PRODUCTOS Y SERVICIOS QUE GENEREN OPORTUNIDADES NO DISCRIMINATORIAS.",
      "mainEntityOfPage": "https://www.contratacion.euskadi.eus/webkpe00-kperoc/es/ac71aBusquedaRegistrosWar/empresa/08137",
      "_links": {
        "self": {
          "name": "BIZIN S COOP PEQUEÑA DE INICIATIVA SOCIAL",
          "href": "https://api.euskadi.eus/procurements/companies/08137"
        }
      }
    },
    {
      "name": "DECORACIONES MAESO, S.L.",
      "registrationNumber": "09162",
      "identificationNumber": "B48137111",
      "address": "CALLE SAN JOSE, 11 BAJO",
      "location": {
        "postalCode": "48510",
        "municipality": "Valle de Trápaga-Trapagaran",
        "county": "Bizkaia",
        "municipalityId": "080",
        "countyId": "48"
      },
      "economicActivities": [
        {
          "id": "1.505.1",
          "name": "Revestimientos exteriores e interiores de todas clases",
          "_links": {
            "self": {
              "name": "Revestimientos exteriores e interiores de todas clases",
              "href": "https://api.euskadi.eus/procurements/companies/economic-activities/1.505.1"
            }
          }
        },
        {
          "id": "1.651.1",
          "name": "Venta al por menor de productos textiles, de hogar, alfombras y similares",
          "_links": {
            "self": {
              "name": "Venta al por menor de productos textiles, de hogar, alfombras y similares",
              "href": "https://api.euskadi.eus/procurements/companies/economic-activities/1.651.1"
            }
          }
        }
      ],
      "certificateStartDate": "2024-01-06",
      "certificateEndDate": "2024-07-06",
      "object": "LA COMPRAVENTA E INSTALACIONES DE TODO TIPO DE ARTÍCULOS PARA LA DECORACIÓN DE INTERIORES Y EXTERIORES.",
      "mainEntityOfPage": "https://www.contratacion.euskadi.eus/webkpe00-kperoc/es/ac71aBusquedaRegistrosWar/empresa/09162",
      "_links": {
        "self": {
          "name": "DECORACIONES MAESO, S.L.",
          "href": "https://api.euskadi.eus/procurements/companies/09162"
        }
      }
    },
    {
      "name": "THINK ON MARKETING, S.COOP. PEQUEÑA",
      "registrationNumber": "05716",
      "identificationNumber": "F95767208",
      "address": "C/ Navarra, 6-6º-1º",
      "location": {
        "postalCode": "48001",
        "municipality": "Bilbao",
        "county": "Bizkaia",
        "municipalityId": "020",
        "countyId": "48"
      },
      "economicActivities": [
        {
          "id": "1.844",
          "name": "Servicios de publicidad, relaciones públicas y similares",
          "_links": {
            "self": {
              "name": "Servicios de publicidad, relaciones públicas y similares",
              "href": "https://api.euskadi.eus/procurements/companies/economic-activities/1.844"
            }
          }
        },
        {
          "id": "1.934",
          "name": "Enseñanza fuera de establecimiento permanente",
          "_links": {
            "self": {
              "name": "Enseñanza fuera de establecimiento permanente",
              "href": "https://api.euskadi.eus/procurements/companies/economic-activities/1.934"
            }
          }
        }
      ],
      "certificateStartDate": "2024-01-04",
      "certificateEndDate": "2024-06-28",
      "object": "PRESTAR SERVICIOS DE CONSULTORÍA, FORMACIÓN, AGENCIA DE PUBLICIDAD, MARKETING, DISEÑO Y DESARROLLO WEB   ",
      "mainEntityOfPage": "https://www.contratacion.euskadi.eus/webkpe00-kperoc/es/ac71aBusquedaRegistrosWar/empresa/05716",
      "_links": {
        "self": {
          "name": "THINK ON MARKETING, S.COOP. PEQUEÑA",
          "href": "https://api.euskadi.eus/procurements/companies/05716"
        }
      }
    },
    {
      "name": "PIMOGA 2, S.L.",
      "registrationNumber": "09124",
      "identificationNumber": "B20532669",
      "address": "PG 27 PS.UBARBURU LC 10",
      "location": {
        "postalCode": "20115",
        "municipality": "Astigarraga",
        "county": "Gipuzkoa",
        "municipalityId": "903",
        "countyId": "20"
      },
      "economicActivities": [
        {
          "id": "1.505.6",
          "name": "Pintura, revestimientos y terminación y decoración de locales",
          "_links": {
            "self": {
              "name": "Pintura, revestimientos y terminación y decoración de locales",
              "href": "https://api.euskadi.eus/procurements/companies/economic-activities/1.505.6"
            }
          }
        }
      ],
      "certificateStartDate": "2024-01-03",
      "certificateEndDate": "2024-06-22",
      "object": "LA REALIZACIÓN DE TODA CLASE DE TRABAJOS DE PINTURA DECORATIVA, INDUSTRIAL, Y REVESTIMIENTOS EN GENERAL.",
      "mainEntityOfPage": "https://www.contratacion.euskadi.eus/webkpe00-kperoc/es/ac71aBusquedaRegistrosWar/empresa/09124",
      "_links": {
        "self": {
          "name": "PIMOGA 2, S.L.",
          "href": "https://api.euskadi.eus/procurements/companies/09124"
        }
      }
    },
    {
      "name": "IDEIN IT, S.L.",
      "registrationNumber": "08853",
      "identificationNumber": "B09701509",
      "address": "Calle María Diaz de Haro",
      "location": {
        "postalCode": "48920",
        "municipality": "Portugalete",
        "county": "Bizkaia",
        "municipalityId": "078",
        "countyId": "48"
      },
      "economicActivities": [
        {
          "id": "1.845",
          "name": "Explotación electrónica por cuenta de terceros",
          "_links": {
            "self": {
              "name": "Explotación electrónica por cuenta de terceros",
              "href": "https://api.euskadi.eus/procurements/companies/economic-activities/1.845"
            }
          }
        }
      ],
      "certificateStartDate": "2024-01-02",
      "certificateEndDate": "2024-07-02",
      "object": "6312.- PORTALES WEB. 6311.- PROCESO DE DATOS, HOSTING Y ACTIVIDADES RELACIONADAS.",
      "mainEntityOfPage": "https://www.contratacion.euskadi.eus/webkpe00-kperoc/es/ac71aBusquedaRegistrosWar/empresa/08853",
      "_links": {
        "self": {
          "name": "IDEIN IT, S.L.",
          "href": "https://api.euskadi.eus/procurements/companies/08853"
        }
      }
    },
    {
      "name": "JORGE INCHAURBE MARTÍNEZ DE MURGUÍA",
      "registrationNumber": "06133",
      "identificationNumber": "16299599M",
      "address": "HERRERÍA Nº 26 1º",
      "location": {
        "postalCode": "01001",
        "municipality": "Vitoria-Gasteiz",
        "county": "Araba/Álava",
        "municipalityId": "059",
        "countyId": "01"
      },
      "economicActivities": [
        {
          "id": "2.411",
          "name": "Arquitectos",
          "_links": {
            "self": {
              "name": "Arquitectos",
              "href": "https://api.euskadi.eus/procurements/companies/economic-activities/2.411"
            }
          }
        }
      ],
      "certificateStartDate": "2023-12-21",
      "certificateEndDate": "2024-06-21",
      "object": "ARQUITECTO",
      "mainEntityOfPage": "https://www.contratacion.euskadi.eus/webkpe00-kperoc/es/ac71aBusquedaRegistrosWar/empresa/06133",
      "_links": {
        "self": {
          "name": "JORGE INCHAURBE MARTÍNEZ DE MURGUÍA",
          "href": "https://api.euskadi.eus/procurements/companies/06133"
        }
      }
    },
    {
      "name": "PUERTAS SECADES, S.L.",
      "registrationNumber": "06839",
      "identificationNumber": "B09562414",
      "address": "C/ Villasante. Polígono Industrial de la Sierra. Parcela, 35",
      "location": {
        "postalCode": "09569",
        "municipality": "Merindad de Montija",
        "county": "Burgos",
        "municipalityId": "214",
        "countyId": "09"
      },
      "economicActivities": [
        {
          "id": "1.314.1",
          "name": "Carpintería metálica",
          "_links": {
            "self": {
              "name": "Carpintería metálica",
              "href": "https://api.euskadi.eus/procurements/companies/economic-activities/1.314.1"
            }
          }
        },
        {
          "id": "1.615.2",
          "name": "Venta al por mayor de muebles",
          "_links": {
            "self": {
              "name": "Venta al por mayor de muebles",
              "href": "https://api.euskadi.eus/procurements/companies/economic-activities/1.615.2"
            }
          }
        }
      ],
      "certificateStartDate": "2023-12-20",
      "certificateEndDate": "2024-05-21",
      "object": "LA FABRICACIÓN, DISTRIBUCIÓN, INSTALACIÓN Y MANTENIMIENTO DE PUERTAS Y TODO TIPO DE AUTOMATISMOS, SECCIONALES, BASCULANTES, PERSIANAS, CORREDERAS, CORTAFUEGOS, ABATIBLES, GUILLOTINAS, PEATONALES, MUELLES DE CARGA, ABRIGOS, RÁPIDAS, PUERTAS DE CRISTAL",
      "mainEntityOfPage": "https://www.contratacion.euskadi.eus/webkpe00-kperoc/es/ac71aBusquedaRegistrosWar/empresa/06839",
      "_links": {
        "self": {
          "name": "PUERTAS SECADES, S.L.",
          "href": "https://api.euskadi.eus/procurements/companies/06839"
        }
      }
    }
  ]
}