{
  "totalItems": 9042,
  "totalPages": 905,
  "currentPage": 661,
  "itemsOfPage": 10,
  "items": [
    {
      "name": "GAMMA SOLUTIONS S.L.",
      "registrationNumber": "05343",
      "identificationNumber": "B83239335",
      "address": "Benjamin Outram nº4",
      "location": {
        "postalCode": "28919",
        "municipality": "Leganés",
        "county": "Madrid",
        "municipalityId": "074",
        "countyId": "28"
      },
      "economicActivities": [
        {
          "id": "1.843.1",
          "name": "Servicios técnicos de ingeniería",
          "_links": {
            "self": {
              "name": "Servicios técnicos de ingeniería",
              "href": "https://api.euskadi.eus/procurements/companies/economic-activities/1.843.1"
            }
          }
        }
      ],
      "certificateStartDate": "2015-04-16",
      "certificateEndDate": "2015-09-04",
      "object": "ESTUDIO Y CERTIFICACIÓN DE EMISIONES ELECTROMAGNÉTICAS. INGENIERÍA, CONSULTORÍA Y AUDITORÍA MEDIOAMBIENTAL, DE CALIDAD Y DE NEGOCIOS. DESARROLLO DE SOFTWARE Y HARDWARE. INSTALACIÓN Y DISTRIBUCIÓN DE SISTEMAS DE TELECOMUNICACIONES.\tFABRICACIÓN, COMERCIALIZACIÓN, DISTRIBUCIÓN, EXPORTACIÓN E IMPORTACIÓN DE PRODUCTOS RELACIONADOS CON LA ALIMENTACIÓN, INFORMÁTICA, MENAJE, HOGAR, TEXTIL, PAPELERÍA, FARMACIA Y DIETÉTICA. EXPLOTACIÓN, TANTO DIRECTA COMO INDIRECTA, DE HOTELES, RESTAURANTES, CAFETERÍAS, BARES, PUBS, MESONES, SALONES PARA BODAS, BANQUETES Y TODA CLASE DE ACTIVIDADES CARACTERÍSTICAS DEL NEGOCIO DE HOSTELERÍA, EN LOCALES PROPIOS O AJENOS. LA ADQUISICIÓN Y CONCESIÓN DE FRANQUICIAS RELACIONADAS CON LO ANTERIOR. COMRAVENTA, EXPLOTACIÓN, CONSTRUCCIÓN Y ARRENDAMIENTO DE BIENES INMUEBLES. REALIZACIÓN DE ACTIVIDADES RELACIONADAS CON LA ENSEÑANZA, DOCENCIA, EDUCACIÓN Y FORMACIÓN. ATENCIÓN Y CUIDADO DE PERSONAS DE LA TERCERA EDAD, GRUPOS MARGINALES Y ENFERMOS \r\n",
      "mainEntityOfPage": "https://www.contratacion.euskadi.eus/webkpe00-kperoc/es/ac71aBusquedaRegistrosWar/empresa/05343",
      "_links": {
        "self": {
          "name": "GAMMA SOLUTIONS S.L.",
          "href": "https://api.euskadi.eus/procurements/companies/05343"
        }
      }
    },
    {
      "name": "ZUREK TÉCNICAS QUIRÚRGICAS, S.L.",
      "registrationNumber": "04490",
      "identificationNumber": "B75026872",
      "address": "LOPE DE IRIGOYEN, 4 BAJO",
      "location": {
        "postalCode": "20301",
        "municipality": "Irun",
        "county": "Gipuzkoa",
        "municipalityId": "045",
        "countyId": "20"
      },
      "economicActivities": [
        {
          "id": "1.619.2",
          "name": "Venta al por mayor de aparatos e instrumentos médicos, ortopédicos, ópticos",
          "_links": {
            "self": {
              "name": "Venta al por mayor de aparatos e instrumentos médicos, ortopédicos, ópticos",
              "href": "https://api.euskadi.eus/procurements/companies/economic-activities/1.619.2"
            }
          }
        }
      ],
      "certificateStartDate": "2015-04-10",
      "certificateEndDate": "2015-10-08",
      "object": "LA REALIZACIÓN DE ACTIVIDADES DE REPRESENTACIÓN Y COMPRAVENTA AL POR MAYOR DE MATERIAL MÉDICO QUIRÚRGICO",
      "mainEntityOfPage": "https://www.contratacion.euskadi.eus/webkpe00-kperoc/es/ac71aBusquedaRegistrosWar/empresa/04490",
      "_links": {
        "self": {
          "name": "ZUREK TÉCNICAS QUIRÚRGICAS, S.L.",
          "href": "https://api.euskadi.eus/procurements/companies/04490"
        }
      }
    },
    {
      "name": "VISITS & EVENTS SERVICES, S.L.",
      "registrationNumber": "03856",
      "identificationNumber": "B95447629",
      "address": "COLÓN DE LARREATEGI, 3 - 1º D",
      "location": {
        "postalCode": "48001",
        "municipality": "Bilbao",
        "county": "Bizkaia",
        "municipalityId": "020",
        "countyId": "48"
      },
      "economicActivities": [
        {
          "id": "1.844",
          "name": "Servicios de publicidad, relaciones públicas y similares",
          "_links": {
            "self": {
              "name": "Servicios de publicidad, relaciones públicas y similares",
              "href": "https://api.euskadi.eus/procurements/companies/economic-activities/1.844"
            }
          }
        },
        {
          "id": "1.989.2",
          "name": "Servicios de organización de congresos, asambleas y similares",
          "_links": {
            "self": {
              "name": "Servicios de organización de congresos, asambleas y similares",
              "href": "https://api.euskadi.eus/procurements/companies/economic-activities/1.989.2"
            }
          }
        }
      ],
      "certificateStartDate": "2015-03-26",
      "certificateEndDate": "2015-09-25",
      "object": "ORGANIZACIÓN DE TODO TIPO DE SERVICIOS TURÍSTICOS PARA PARTICULARES Y EMPRESAS. ORGANIZACIÓN DE EVENTOS CORPORATIVOS, DEPORTIVOS CULTURALES Y BENÉFICOS. SERVICIOS DE RECEPTIVO, AGENCIA DE VIAJES Y PROMOCIONES VARIAS. AGENCIA DE PUBLICIDAD Y MARKETING. INTERMEDIADOR PROFESIONAL",
      "mainEntityOfPage": "https://www.contratacion.euskadi.eus/webkpe00-kperoc/es/ac71aBusquedaRegistrosWar/empresa/03856",
      "_links": {
        "self": {
          "name": "VISITS & EVENTS SERVICES, S.L.",
          "href": "https://api.euskadi.eus/procurements/companies/03856"
        }
      }
    },
    {
      "name": "S.L. ESTABILIZACIÓN Y CONTROL DE LA EROSIÓN",
      "registrationNumber": "04328",
      "identificationNumber": "B20503512",
      "address": "OIALUME BIDEA 28 (ED. LIBASCON,  PAB 30-32)",
      "location": {
        "postalCode": "20115",
        "municipality": "Astigarraga",
        "county": "Gipuzkoa",
        "municipalityId": "903",
        "countyId": "20"
      },
      "economicActivities": [
        {
          "id": "1.501.2",
          "name": "Construcción completa, reparación y conservación obras civiles",
          "_links": {
            "self": {
              "name": "Construcción completa, reparación y conservación obras civiles",
              "href": "https://api.euskadi.eus/procurements/companies/economic-activities/1.501.2"
            }
          }
        }
      ],
      "certificateStartDate": "2015-03-26",
      "certificateEndDate": "2015-06-23",
      "object": "LA CONSTRUCCIÓN COMPLETA, CONSERVACIÓN Y REPARACIÓN DE TODA CLASE DE OBRAS E INSTALACIÓNES",
      "mainEntityOfPage": "https://www.contratacion.euskadi.eus/webkpe00-kperoc/es/ac71aBusquedaRegistrosWar/empresa/04328",
      "_links": {
        "self": {
          "name": "S.L. ESTABILIZACIÓN Y CONTROL DE LA EROSIÓN",
          "href": "https://api.euskadi.eus/procurements/companies/04328"
        }
      }
    },
    {
      "name": "TALLERES ELEZARRE, S.L.",
      "registrationNumber": "03117",
      "identificationNumber": "B48158356",
      "address": "LEHENDAKARI AGIRRE, 22",
      "location": {
        "postalCode": "48140",
        "municipality": "Igorre",
        "county": "Bizkaia",
        "municipalityId": "094",
        "countyId": "48"
      },
      "economicActivities": [
        {
          "id": "1.654.1",
          "name": "Venta al por menor de vehículos terrestres",
          "_links": {
            "self": {
              "name": "Venta al por menor de vehículos terrestres",
              "href": "https://api.euskadi.eus/procurements/companies/economic-activities/1.654.1"
            }
          }
        },
        {
          "id": "1.691.2",
          "name": "Reparación de vehículos automóviles, bicicletas y otros vehículos",
          "_links": {
            "self": {
              "name": "Reparación de vehículos automóviles, bicicletas y otros vehículos",
              "href": "https://api.euskadi.eus/procurements/companies/economic-activities/1.691.2"
            }
          }
        }
      ],
      "certificateStartDate": "2015-03-23",
      "certificateEndDate": "2015-09-11",
      "object": "LA REPARACIÓN DE TODO TIPO DE VEHÍCULOS A MOTOR Y VENTA MENOR DE COCHES NUEVOS Y USADOS",
      "mainEntityOfPage": "https://www.contratacion.euskadi.eus/webkpe00-kperoc/es/ac71aBusquedaRegistrosWar/empresa/03117",
      "_links": {
        "self": {
          "name": "TALLERES ELEZARRE, S.L.",
          "href": "https://api.euskadi.eus/procurements/companies/03117"
        }
      }
    },
    {
      "name": "CONSTRUCCIONES ALBOKA, S.L.",
      "registrationNumber": "04232",
      "identificationNumber": "B20616520",
      "address": "C/ IRIBARREN, NAVE 18, POLIGONO 110",
      "location": {
        "postalCode": "20100",
        "municipality": "Lezo",
        "county": "Gipuzkoa",
        "municipalityId": "053",
        "countyId": "20"
      },
      "economicActivities": [
        {
          "id": "1.501.1",
          "name": "Construcción completa, reparación y conservación de edificaciones",
          "_links": {
            "self": {
              "name": "Construcción completa, reparación y conservación de edificaciones",
              "href": "https://api.euskadi.eus/procurements/companies/economic-activities/1.501.1"
            }
          }
        }
      ],
      "certificateStartDate": "2015-03-18",
      "certificateEndDate": "2015-09-13",
      "object": "LA PROMOCIÓN Y CONSTRUCCIÓN DE TODO TIPO DE CONSTRUCCIONES INMOBILIARIAS, TANTO DE VIVIENDAS, EQUIPAMIENTOS Y CONSTRUCCIONES",
      "mainEntityOfPage": "https://www.contratacion.euskadi.eus/webkpe00-kperoc/es/ac71aBusquedaRegistrosWar/empresa/04232",
      "_links": {
        "self": {
          "name": "CONSTRUCCIONES ALBOKA, S.L.",
          "href": "https://api.euskadi.eus/procurements/companies/04232"
        }
      }
    },
    {
      "name": "IRUZUBI, S.L.",
      "registrationNumber": "03870",
      "identificationNumber": "B48773733",
      "address": "POLG. IND. GALARZA, S/N",
      "location": {
        "postalCode": "48277",
        "municipality": "Etxebarria",
        "county": "Bizkaia",
        "municipalityId": "030",
        "countyId": "48"
      },
      "economicActivities": [
        {
          "id": "1.501.1",
          "name": "Construcción completa, reparación y conservación de edificaciones",
          "_links": {
            "self": {
              "name": "Construcción completa, reparación y conservación de edificaciones",
              "href": "https://api.euskadi.eus/procurements/companies/economic-activities/1.501.1"
            }
          }
        },
        {
          "id": "1.501.2",
          "name": "Construcción completa, reparación y conservación obras civiles",
          "_links": {
            "self": {
              "name": "Construcción completa, reparación y conservación obras civiles",
              "href": "https://api.euskadi.eus/procurements/companies/economic-activities/1.501.2"
            }
          }
        },
        {
          "id": "1.722",
          "name": "Transporte de mercancías por carretera",
          "_links": {
            "self": {
              "name": "Transporte de mercancías por carretera",
              "href": "https://api.euskadi.eus/procurements/companies/economic-activities/1.722"
            }
          }
        }
      ],
      "certificateStartDate": "2015-03-17",
      "certificateEndDate": "2015-08-28",
      "object": "A) LA ACTIVIDAD DE TRANSPORTES EN GENERAL, PUDIENDO EXPLOTAR LÍNEAS REGULARES Y DISCRECIONALES DE ÁMBITO INTERNACIONAL, NACIONAL, COMARCAL, PROVINCIAL Y LOCAL, ASÍ COMO EL ESTABLECIMIENTO Y EXPLOTACIÓN DE AGENCIAS DE TRANSPORTE, APARCAMIENTOS, GARAJES, CENTROS DE ESTACIONES DE SERVICIOS O DE ASISTENCIA A VEHÍCULOS. B) LA PROMOCIÓN Y EJECUCIÓN COMPLETA O POR RAMOS DE TODA CLASE DE OBRAS DE CONSTRUCCIÓN, PARA SÍ O PARA TERCEROS, SEAN ORGANISMOS PÚBLICOS DEL ESTADO, PROVINCIA, MUNICIPIO, ENTES AUTONÓMICOS O PERSONAS FÍSICAS, POR CUENTA PROPIA O AJENA, INCLUSO VIVIENDAS Y LOCALES DE LOS DENOMINADOS DE PROTECCIÓN OFICIAL; LA COMPRAVENTA Y ALQUILER DE EDIFICACIONES, EN SU TOTALIDAD, POR PARTES O POR PISOS, BIEN PARA VIVIENDAS O PARA LOCALES DE OFICINAS, DE NEGOCIO O INDUSTRIALES, CONSTRUIDAS PARA TAL FÍN, DIRECTAMENTE O OPOR MEDIO DE CONTRATISTAS, SUBCONTRATISTAS Y DESTAJISTAS O BIEN ADQUIRIDAS YA CONSTRUÍDAS O EN CONSTRUCCIÓN; LA COMPRA, VENTA, PERMUTA Y ALQUILER DE TERRENOS RÚSTICOS O URBANOS, SU EDIFICACIÓN, URBANIZACIÓN Y PARCELACIÓN; ASÍ COMO LA EXCAVACIÓN DE TODA CLASE DE TERRENOS. C) LAS ACTIVIDADES RELACIONADAS CON LA INDUSTRIA FORESTAL Y DE LA MADERA, COMPRENDIENDO ESPECIALMENTE LA REPOBLACIÓN, CORTE, TRANSPORTE, MANIPULADO Y VENTA DE ESPECIES ARBÓREAS ",
      "mainEntityOfPage": "https://www.contratacion.euskadi.eus/webkpe00-kperoc/es/ac71aBusquedaRegistrosWar/empresa/03870",
      "_links": {
        "self": {
          "name": "IRUZUBI, S.L.",
          "href": "https://api.euskadi.eus/procurements/companies/03870"
        }
      }
    },
    {
      "name": "ALICIA RODRIGUEZ GIL",
      "registrationNumber": "05331",
      "identificationNumber": "14266708S",
      "address": "C/BILBAO LA VIEJA, 3-2º D",
      "location": {
        "postalCode": "48003",
        "municipality": "Bilbao",
        "county": "Bizkaia",
        "municipalityId": "020",
        "countyId": "48"
      },
      "economicActivities": [
        {
          "id": "2.776",
          "name": "Doctores y licenciados en ciencias políticas y sociales",
          "_links": {
            "self": {
              "name": "Doctores y licenciados en ciencias políticas y sociales",
              "href": "https://api.euskadi.eus/procurements/companies/economic-activities/2.776"
            }
          }
        }
      ],
      "certificateStartDate": "2015-03-13",
      "certificateEndDate": "2015-08-20",
      "object": "ACTIVIDADES RELACIONADAS CON LA PSICOLOGÍA Y LA SOCIOLOGÍA",
      "mainEntityOfPage": "https://www.contratacion.euskadi.eus/webkpe00-kperoc/es/ac71aBusquedaRegistrosWar/empresa/05331",
      "_links": {
        "self": {
          "name": "ALICIA RODRIGUEZ GIL",
          "href": "https://api.euskadi.eus/procurements/companies/05331"
        }
      }
    },
    {
      "name": "3M ESPAÑA, S.A.",
      "registrationNumber": "00242",
      "identificationNumber": "A28078020",
      "address": "C/ JUAN IGNACIO LUCA DE TENA, Nº 19-25",
      "location": {
        "postalCode": "28027",
        "municipality": "Madrid",
        "county": "Madrid",
        "municipalityId": "079",
        "countyId": "28"
      },
      "economicActivities": [
        {
          "id": "1.614.1",
          "name": "Venta al por mayor de productos farmacéuticos y medicamentos",
          "_links": {
            "self": {
              "name": "Venta al por mayor de productos farmacéuticos y medicamentos",
              "href": "https://api.euskadi.eus/procurements/companies/economic-activities/1.614.1"
            }
          }
        },
        {
          "id": "1.614.2",
          "name": "Venta al por mayor de productos de perfumería, droguería, higiene y belleza",
          "_links": {
            "self": {
              "name": "Venta al por mayor de productos de perfumería, droguería, higiene y belleza",
              "href": "https://api.euskadi.eus/procurements/companies/economic-activities/1.614.2"
            }
          }
        },
        {
          "id": "1.619.2",
          "name": "Venta al por mayor de aparatos e instrumentos médicos, ortopédicos, ópticos",
          "_links": {
            "self": {
              "name": "Venta al por mayor de aparatos e instrumentos médicos, ortopédicos, ópticos",
              "href": "https://api.euskadi.eus/procurements/companies/economic-activities/1.619.2"
            }
          }
        },
        {
          "id": "1.619.9",
          "name": "Venta al por mayor de otros productos n.c.o.p",
          "_links": {
            "self": {
              "name": "Venta al por mayor de otros productos n.c.o.p",
              "href": "https://api.euskadi.eus/procurements/companies/economic-activities/1.619.9"
            }
          }
        },
        {
          "id": "1.845",
          "name": "Explotación electrónica por cuenta de terceros",
          "_links": {
            "self": {
              "name": "Explotación electrónica por cuenta de terceros",
              "href": "https://api.euskadi.eus/procurements/companies/economic-activities/1.845"
            }
          }
        }
      ],
      "certificateStartDate": "2015-03-10",
      "certificateEndDate": "2014-09-21",
      "object": "1º.- LA PRODUCCIÓN, ELABORACIÓN, FABRICACIÓN, CREACIÓN, CONVERSIÓN, TRATAMIENTO, ACABADO, MANIPULACIÓN, COMPRAVENTA, ARRENDAMIENTO, IMPORTACIÓN Y EXPORTACIÓN Y EN GENERAL LA COMERCIALIZACIÓN POR CUALQUIER PROCEDIMIENTO DE LOS SIGUIENTES PRODUCTOS Y SERVICIOS Y DE SUS MATERIAS PRIMAS O SEMIELABORADAS:\r\n\r\nINDUSTRIAL Y ELECTRÓNICO.\r\n\r\n- CINTAS SENSIBLES A LA PRESIÓN.\r\n- ABRASIVOS PARA REVESTIMIENTOS.\r\n- ABRASIVOS DE BAJA DENSIDAD.\r\n- ADHESIVOS, REVESTIMIENTOS Y SELLANTES.\r\n- PRODUCTOS FLUOROQUÍMICOS.\r\n- ESPECIALIDADES PELÍCULAS Y QUÍMICOS.\r\n- GRÁNULOS PARA CUBIERTAS.\r\n- SISTEMAS DE SEGURIDAD.\r\n- ALMOHADILLAS PARA SUELO.\r\n- PRODUCTOS PARA EL MANTENIMIENTO DEL SUELO.\r\n- MATERIALES NO DESLIZANTES PARA SUPERFICIES.\r\n- MATERIALES CERÁMICOS AVANZADOS.\r\n- PRODUCTOS PARA EL CONTROL DE LA ENERGÍA.\r\n- LÁMINAS DECORATIVAS PARA MARCAR.\r\n- SUMINISTRADORES DE VENTAS Y EQUIPOS DE APLICACIÓN.\r\n- CONECTORES ELÉCTRICOS Y ELECTRÓNICOS.\r\n- PRODUCTOS DE CABLES Y ALAMBRES.\r\n- MATERIALES AISLANTES Y CONDUCTORES.\r\n- MATERIALES DE COMBUSTIÓN LENTA.\r\n- PRODUCTOS PROTECTORES.\r\n- PRODUCTOS PARA PRUEBAS Y MEDIDAS.\r\n- PRODUCTOS Y SISTEMAS DE FIBRA ÓPTICA.\r\n\r\nTECNOLOGÍA DE INFORMACIÓN Y DE IMAGEN.\r\n\r\n- LÁMINAS Y PLACAS DE LITOGRAFÍA.\r\n- SISTEMAS PARA PRUEBAS DE COLOR.\r\n- PELÍCULAS FOTOGRÁFICAS.\r\n- PELÍCULAS DE RAYOS X Y PANTALLAS.\r\n- SISTEMAS DE PROYECTORES.\r\n- PELÍCULAS GRÁFICAS.\r\n- SISTEMAS DE PROCESO DE IMAGEN DIGITAL.\r\n- PRODUCTOS MICOGRÁFICOS.\r\n- CINTAS COMPUTADORAS DE AUDIO Y DE VÍDEO.\r\n- \"DISKETTES\" Y CARTUCHOS PARA DATOS.\r\n- PELÍCULAS DE PLATA EN SECO.\r\n- SISTEMAS ÓPTICOS DE \"LÁSER\".\r\n\r\nCIENCIAS MÉDICAS Y BIOLÓGICAS\r\n\r\n- CINTAS DE CIERRE PARA PAÑALES.\r\n- AISLAMIENTOS PARA TEJIDOS.\r\n- PRODUCTOS DE PROTECCIÓN PARA LA RESPIRACIÓN.\r\n- MATERIALES Y SISTEMAS PARA EL CONTROL DEL TRÁFICO.\r\n- APARATOS PARA VIGILANCIA Y CONTROL.\r\n- LÁMINAS DE SEGURIDAD.\r\n- SISTEMAS DE FILTRACIÓN.\r\n- COMPONENTES ÓPTICOS.\r\n- ESPECIALIDADES FARMACÉUTICAS.\r\n- PAÑOS QUIRÚRGICOS Y MASCARILLAS.\r\n- ESPARADRAPOS Y APÓSITOS.\r\n- SUTURAS.\r\n- PRODUCTOS OFTALMOLÓGICOS.\r\n- MATERIALES DE ESCAYOLA.\r\n- MOTORES NEUMÁTICOS.\r\n- MATERIALES DENTALES.\r\n- PRODUCTOS DE ORTODONCIA.\r\n- ELECTRODOS.\r\n- MÁQUINAS PARA PULMÓN-CORAZÓN.\r\n- OXIGENADORES.\r\n- SISTEMAS DE INFUSIÓN INTRAVENOSA.\r\n- SISTEMAS DE ADMINISTRACIÓN DE MEDICAMENTOS.\r\n- PRODUCTOS DE ESTERILIZACIÓN.\r\n- APARATOS PARA EL CONTROL ELECTRÓNICO DEL DOLOR.\r\n- PRODUCTOS VETERINARIOS.\r\n- PRODUCTOS PARA DIAGNÓSTICO.\r\n- SISTEMAS INFORMÁTICOS DE HOSPITAL.\r\n- SOLUCIONES PARA PREPARACIÓN DE LA PIEL.\r\n- GRAPAS PARA UTILIZACIÓN INTERNA Y EXTERNA.\r\n- FONENDOSCOPIOS.\r\n\r\nCOMERCIAL Y CONSUMO.\r\n\r\n- PRODUCTOS PARA LA LIMPIEZA DOMÉSTICA.\r\n- PROTECTORES Y LIMPIADORES QUÍMICOS.\r\n- SISTEMAS PARA AISLAMIENTOS EN VENTANAS.\r\n- MATERIALES PARA MARCAJES.\r\n- CINTAS SENSIBLES A LA PRESIÓN.\r\n- PRODUCTOS DE PAPEL RECAMBIABLE.\r\n- PAPEL COPIA SIN CALCO.\r\n- ABRASIVOS PARA REVESTIMIENTO.\r\n- PRODUCTOS PARA EL CUIDADO PERSONAL.\r\n- PUBLICIDAD EXTERIOR.\r\n- MEDIOS DE PUBLICIDAD IMPRESA.\r\n- LISTADOS PARA COMPRAS.\r\n- \"SOFTWARE\" DE COMPUTADORES PARA ANUNCIANTES.\r\n- SISTEMAS DE MÚSICA Y DE MENSAJES.\r\n\r\n2º.- LA PRODUCCIÓN, ELABORACIÓN, FABRICACIÓN, CREACIÓN, CONVERSIÓN, TRATAMIENTO, ACABADO, MANIPULACIÓN, COMPRAVENTA, ARRENDAMIENTO, IMPORTACIÓN Y EXPORTACIÓN Y EN GENERAL LA COMERCIALIZACIÓN POR CUALQUIER PROCEDIMIENTO DE PRODUCTOS ANÁLOGOS A LOS DESCRITOS QUE PUEDA CREAR, DESARROLLAR Y PRODUCIR LA COMPAÑÍA \"MINNESOTA MINING AND MANUFACTURING CO.\" (DE ST. PAUL, MINNESOTA, ESTADOS UNIDOS) SOBRE LA BASE DE PATENTES, PROCEDIMIENTOS, TÉCNICAS O SISTEMAS DE FABRICACIÓN DE LA CITADA COMPAÑÍA O CUALQUIERA DE SUS FILIALES ASOCIADAS",
      "mainEntityOfPage": "https://www.contratacion.euskadi.eus/webkpe00-kperoc/es/ac71aBusquedaRegistrosWar/empresa/00242",
      "_links": {
        "self": {
          "name": "3M ESPAÑA, S.A.",
          "href": "https://api.euskadi.eus/procurements/companies/00242"
        }
      }
    },
    {
      "name": "PROYECTOS Y OBRAS MARCOS, S.L.",
      "registrationNumber": "04757",
      "identificationNumber": "B95263869",
      "address": "VEINTIDOS DE ENERO, 5",
      "location": {
        "postalCode": "48902",
        "municipality": "Barakaldo",
        "county": "Bizkaia",
        "municipalityId": "013",
        "countyId": "48"
      },
      "economicActivities": [
        {
          "id": "1.501.1",
          "name": "Construcción completa, reparación y conservación de edificaciones",
          "_links": {
            "self": {
              "name": "Construcción completa, reparación y conservación de edificaciones",
              "href": "https://api.euskadi.eus/procurements/companies/economic-activities/1.501.1"
            }
          }
        }
      ],
      "certificateStartDate": "2015-03-10",
      "certificateEndDate": "2015-08-28",
      "object": "EL ESTUDIO, PROYECCIÓN, DIRECCIÓN, EJECUCIÓN, CONSTRUCCIÓN, REPARACIÓN, PROMOCIÓN Y REHABILITACIÓN DE EDIFICACIONES URBANAS, RÚSTICAS, OBRAS DE ALBAÑILERÍA, MOVIMIENTO DE TIERRAS, EXCAVACIONES, DEMOLICIONES. ADQUIRIR, ENAJENAR Y ARRENDAR BIENES INMUEBLES (CONCRETAMENTE LOS DETERMINADOS EN EL ARTÍCULO 334.1 DEL CÓGIDO CIVIL), ACCIONES, PARTICIPACIONES SOCIALES, OBLIGACIONES, BONOS DE CAJA, CERTIFICADOS DE DEPÓSITO Y PAGARÉS DE TODA CLASE DE EMPRESAS O NEGOCIOS\r\n",
      "mainEntityOfPage": "https://www.contratacion.euskadi.eus/webkpe00-kperoc/es/ac71aBusquedaRegistrosWar/empresa/04757",
      "_links": {
        "self": {
          "name": "PROYECTOS Y OBRAS MARCOS, S.L.",
          "href": "https://api.euskadi.eus/procurements/companies/04757"
        }
      }
    }
  ]
}