{
  "totalItems": 9042,
  "totalPages": 905,
  "currentPage": 814,
  "itemsOfPage": 10,
  "items": [
    {
      "name": "CONVEX SUPERCOMPUTER, S.A.E.",
      "registrationNumber": "01776",
      "identificationNumber": "A33109489",
      "address": "C/ GENERAL ZUBILLAGA, Nº 6.",
      "location": {
        "postalCode": "33005",
        "municipality": "Oviedo",
        "county": "Asturias",
        "municipalityId": "044",
        "countyId": "33"
      },
      "economicActivities": [
        {
          "id": "1.617.8",
          "name": "Venta al por mayor de máquinas y material de oficina",
          "_links": {
            "self": {
              "name": "Venta al por mayor de máquinas y material de oficina",
              "href": "https://api.euskadi.eus/procurements/companies/economic-activities/1.617.8"
            }
          }
        },
        {
          "id": "1.659.2",
          "name": "Venta al por menor de muebles de oficina y máquinas y equipos de oficina",
          "_links": {
            "self": {
              "name": "Venta al por menor de muebles de oficina y máquinas y equipos de oficina",
              "href": "https://api.euskadi.eus/procurements/companies/economic-activities/1.659.2"
            }
          }
        },
        {
          "id": "1.691.9",
          "name": "Reparación de otros bienes de consumo n.c.o.p",
          "_links": {
            "self": {
              "name": "Reparación de otros bienes de consumo n.c.o.p",
              "href": "https://api.euskadi.eus/procurements/companies/economic-activities/1.691.9"
            }
          }
        },
        {
          "id": "1.699",
          "name": "Otras reparaciones n.c.o.p",
          "_links": {
            "self": {
              "name": "Otras reparaciones n.c.o.p",
              "href": "https://api.euskadi.eus/procurements/companies/economic-activities/1.699"
            }
          }
        },
        {
          "id": "1.843.1",
          "name": "Servicios técnicos de ingeniería",
          "_links": {
            "self": {
              "name": "Servicios técnicos de ingeniería",
              "href": "https://api.euskadi.eus/procurements/companies/economic-activities/1.843.1"
            }
          }
        },
        {
          "id": "1.845",
          "name": "Explotación electrónica por cuenta de terceros",
          "_links": {
            "self": {
              "name": "Explotación electrónica por cuenta de terceros",
              "href": "https://api.euskadi.eus/procurements/companies/economic-activities/1.845"
            }
          }
        }
      ],
      "certificateStartDate": "2001-07-04",
      "certificateEndDate": "2001-11-29",
      "object": "LA COMERCIALIZACIÓN DE EQUIPOS Y SERVICIOS INFORMÁTICOS Y PRODUCTOS LIGADOS A DICHOS EQUIPOS Y SERVICIOS, ASÍ COMO LOS SERVICIOS DE MANTENIMIENTO RELATIVOS A LOS MISMOS. PRESTACIÓN DE SERVICIOS DE CONSULTORÍA Y ASESORÍA",
      "mainEntityOfPage": "https://www.contratacion.euskadi.eus/webkpe00-kperoc/es/ac71aBusquedaRegistrosWar/empresa/01776",
      "_links": {
        "self": {
          "name": "CONVEX SUPERCOMPUTER, S.A.E.",
          "href": "https://api.euskadi.eus/procurements/companies/01776"
        }
      }
    },
    {
      "name": "CONSULTING AND DEVELOPMENT, S.A.",
      "registrationNumber": "02415",
      "identificationNumber": "A01143718",
      "address": "C/ LOS HERRÁN, 7 BAJO",
      "location": {
        "postalCode": "01000",
        "municipality": "Vitoria-Gasteiz",
        "county": "Araba/Álava",
        "municipalityId": "059",
        "countyId": "01"
      },
      "economicActivities": [
        {
          "id": "1.845",
          "name": "Explotación electrónica por cuenta de terceros",
          "_links": {
            "self": {
              "name": "Explotación electrónica por cuenta de terceros",
              "href": "https://api.euskadi.eus/procurements/companies/economic-activities/1.845"
            }
          }
        }
      ],
      "certificateStartDate": "2001-06-29",
      "certificateEndDate": "2001-12-21",
      "object": "LA COMPRAVENTA, IMPORTACIÓN Y EXPORTACIÓN, DE ORDENADORES, ASÍ COMO DE ACCESORIOS Y COMPLEMENTOS DE DICHO ELEMENTO PARA SU INSTALACIÓN, REPARACIÓN  CONSERVACIÓN; LA COMERCIALIZACIÓN Y DESARROLLO DE APLICACIONES INFORMÁTICAS; LA ENSEÑANZA DE TODA CLASE DE PROGRAMAS Y APLICACIONES INFORMÁTICAS; ASESORAMIENTO, CONSULTAS E INFORMACIÓN SOBRE TEMAS FISCALES, LABORALES, CONTABLES E INFORMÁTICOS",
      "mainEntityOfPage": "https://www.contratacion.euskadi.eus/webkpe00-kperoc/es/ac71aBusquedaRegistrosWar/empresa/02415",
      "_links": {
        "self": {
          "name": "CONSULTING AND DEVELOPMENT, S.A.",
          "href": "https://api.euskadi.eus/procurements/companies/02415"
        }
      }
    },
    {
      "name": "VIVIENDAS Y CONTRATAS, S. COOP.",
      "registrationNumber": "00026",
      "identificationNumber": "F20021341",
      "address": "PASEO TXOMIN AGIRRE, 6",
      "location": {
        "postalCode": "20018",
        "municipality": "Donostia / San Sebastián",
        "county": "Gipuzkoa",
        "municipalityId": "069",
        "countyId": "20"
      },
      "economicActivities": [
        {
          "id": "1.501.1",
          "name": "Construcción completa, reparación y conservación de edificaciones",
          "_links": {
            "self": {
              "name": "Construcción completa, reparación y conservación de edificaciones",
              "href": "https://api.euskadi.eus/procurements/companies/economic-activities/1.501.1"
            }
          }
        },
        {
          "id": "1.833.2",
          "name": "Promoción de edificaciones",
          "_links": {
            "self": {
              "name": "Promoción de edificaciones",
              "href": "https://api.euskadi.eus/procurements/companies/economic-activities/1.833.2"
            }
          }
        }
      ],
      "certificateStartDate": "2001-06-28",
      "certificateEndDate": "2001-12-20",
      "object": "LA PREPARACIÓN Y URBANIZACIÓN DE TERRENOS, PROMOCIÓN Y CONSTRUCCIÓN DE VIVIENDAS Y DE TODA CLASE DE OBRAS, ASÍ COMO LA FABRICACIÓN DE MATERIALES Y MEDIOS AUXILIARES DE ESTA INDUSTRIA Y CUANTAS ACTIVIDADES INDUSTRIALES, COMERCIALES O DE SERVICIOS-AFINES, COMPLEMENTARIOS O DERIVADOS DE LAS CITADAS DECIDA EMPRENDER EN EL FUTURO",
      "mainEntityOfPage": "https://www.contratacion.euskadi.eus/webkpe00-kperoc/es/ac71aBusquedaRegistrosWar/empresa/00026",
      "_links": {
        "self": {
          "name": "VIVIENDAS Y CONTRATAS, S. COOP.",
          "href": "https://api.euskadi.eus/procurements/companies/00026"
        }
      }
    },
    {
      "name": "SERVICIOS GENERALES DE TELEDIFUSIÓN, S.A.",
      "registrationNumber": "01398",
      "identificationNumber": "A28823045",
      "address": "Pº MIKELETEGI, Nº 55 - PTA. BAJA, PARQUE TECNOLÓGICO MIRAMÓN",
      "location": {
        "postalCode": "20009",
        "municipality": "Donostia / San Sebastián",
        "county": "Gipuzkoa",
        "municipalityId": "069",
        "countyId": "20"
      },
      "economicActivities": [
        {
          "id": "1.504.7",
          "name": "Instalaciones telefónicas, telegráficas, televisión, etc",
          "_links": {
            "self": {
              "name": "Instalaciones telefónicas, telegráficas, televisión, etc",
              "href": "https://api.euskadi.eus/procurements/companies/economic-activities/1.504.7"
            }
          }
        },
        {
          "id": "1.615.4",
          "name": "Venta al por mayor de aparatos y material radioeléctrico y electrónico",
          "_links": {
            "self": {
              "name": "Venta al por mayor de aparatos y material radioeléctrico y electrónico",
              "href": "https://api.euskadi.eus/procurements/companies/economic-activities/1.615.4"
            }
          }
        },
        {
          "id": "1.843.1",
          "name": "Servicios técnicos de ingeniería",
          "_links": {
            "self": {
              "name": "Servicios técnicos de ingeniería",
              "href": "https://api.euskadi.eus/procurements/companies/economic-activities/1.843.1"
            }
          }
        },
        {
          "id": "1.845",
          "name": "Explotación electrónica por cuenta de terceros",
          "_links": {
            "self": {
              "name": "Explotación electrónica por cuenta de terceros",
              "href": "https://api.euskadi.eus/procurements/companies/economic-activities/1.845"
            }
          }
        }
      ],
      "certificateStartDate": "2001-06-28",
      "certificateEndDate": "2001-11-28",
      "object": "EL DISEÑO, DESARROLLO, FABRICACIÓN, VENTA, ALQUILER, CONSULTORÍA E INGENIERÍA, INSTALACIÓN Y MANTENIMIENTO DE LOS SIGUIENTES BIENES Y SERVICIOS: PRODUCTOS Y SISTEMAS DE RADIOCOMUNICACIONES, PRODUCTOS Y SISTEMAS DE RADIODIFUSIÓN Y TELEVISIÓN, VÍA RADIO O VÍA CABLE, PRODUCTOS Y SISTEMAS DE TELEFONÍA Y RADIOTELEFONÍA, PRODUCTOS Y SISTEMAS AUDIOVISUALES, PRODUCTOS Y SISTEMAS INFORMÁTICOS Y PROGRAMAS Y APLICACIONES INFORMÁTICAS",
      "mainEntityOfPage": "https://www.contratacion.euskadi.eus/webkpe00-kperoc/es/ac71aBusquedaRegistrosWar/empresa/01398",
      "_links": {
        "self": {
          "name": "SERVICIOS GENERALES DE TELEDIFUSIÓN, S.A.",
          "href": "https://api.euskadi.eus/procurements/companies/01398"
        }
      }
    },
    {
      "name": "Mª PURIFICACIÓN URKIZA MONASTERIO",
      "registrationNumber": "02409",
      "identificationNumber": "22732803V",
      "address": "AVDA. EL MINERO, 54 - 6º DCHA.",
      "location": {
        "postalCode": "48500",
        "municipality": "Abanto y Ciérvana-Abanto Zierbena",
        "county": "Bizkaia",
        "municipalityId": "002",
        "countyId": "48"
      },
      "economicActivities": [
        {
          "id": "1.652.1",
          "name": "Farmacias",
          "_links": {
            "self": {
              "name": "Farmacias",
              "href": "https://api.euskadi.eus/procurements/companies/economic-activities/1.652.1"
            }
          }
        }
      ],
      "certificateStartDate": "2001-06-28",
      "certificateEndDate": "2001-10-19",
      "object": "COMERCIO AL POR MENOR  DE MEDICAMENTOS, PRODUCTOS SANITARIOS Y DE HIGIENE PERSONAL",
      "mainEntityOfPage": "https://www.contratacion.euskadi.eus/webkpe00-kperoc/es/ac71aBusquedaRegistrosWar/empresa/02409",
      "_links": {
        "self": {
          "name": "Mª PURIFICACIÓN URKIZA MONASTERIO",
          "href": "https://api.euskadi.eus/procurements/companies/02409"
        }
      }
    },
    {
      "name": "CENTRO DE INVESTIGACIÓN Y DESARROLLO DE EXPECTATIVAS SOCIALES, S.L.",
      "registrationNumber": "00392",
      "identificationNumber": "B48176861",
      "address": "C/ PARTICULAR ESTRAUNZA, Nº 10 - 4º D.",
      "location": {
        "postalCode": "48011",
        "municipality": "Bilbao",
        "county": "Bizkaia",
        "municipalityId": "020",
        "countyId": "48"
      },
      "economicActivities": [
        {
          "id": "1.936",
          "name": "Investigación científica y técnica",
          "_links": {
            "self": {
              "name": "Investigación científica y técnica",
              "href": "https://api.euskadi.eus/procurements/companies/economic-activities/1.936"
            }
          }
        }
      ],
      "certificateStartDate": "2001-06-07",
      "certificateEndDate": "2001-12-04",
      "object": "EL ASESORAMIENTO INDUSTRIAL, COMERCIAL, MERCANTIL Y DE CUALQUIER OTRA ACTIVIDAD DE LAS EMPRESAS; SONDEOS DE OPINIÓN PÚBLICA Y ESTRATEGIA DE IMAGEN Y CUALQUIER OTRA ACTIVIDAD ACCESORIA O COMPLEMENTARIA DE LAS PRINCIPALES",
      "mainEntityOfPage": "https://www.contratacion.euskadi.eus/webkpe00-kperoc/es/ac71aBusquedaRegistrosWar/empresa/00392",
      "_links": {
        "self": {
          "name": "CENTRO DE INVESTIGACIÓN Y DESARROLLO DE EXPECTATIVAS SOCIALES, S.L.",
          "href": "https://api.euskadi.eus/procurements/companies/00392"
        }
      }
    },
    {
      "name": "CONSTRUCCIONES IZORIA, S. COOP.",
      "registrationNumber": "01848",
      "identificationNumber": "F01027242",
      "address": "Bº IBARRA, Nº 19",
      "location": {
        "postalCode": "01479",
        "municipality": "Ayala/Aiara",
        "county": "Araba/Álava",
        "municipalityId": "010",
        "countyId": "01"
      },
      "economicActivities": [
        {
          "id": "1.501.1",
          "name": "Construcción completa, reparación y conservación de edificaciones",
          "_links": {
            "self": {
              "name": "Construcción completa, reparación y conservación de edificaciones",
              "href": "https://api.euskadi.eus/procurements/companies/economic-activities/1.501.1"
            }
          }
        }
      ],
      "certificateStartDate": "2001-06-05",
      "certificateEndDate": "2001-10-10",
      "object": "\r\na) LA COMPRA-VENTA, PERMUTA, ADQUISICIÓN Y ENAJENACIÓN, POR CUALQUIER TÍTULO, DE TERRENOS, SOLARES Y FINCAS RÚSTICAS O URBANAS DE CUALQUIER NATURALEZA, ASÍ COMO SU ORDENACIÓN, PARCELACIÓN Y URBANIZACIÓN.\r\nb) LA PROMOCIÓN DE POLÍGONOS INDUSTRIALES Y URBANOS, Y SU ORDENACIÓN, PLANIFICACIÓN, PARCELACIÓN Y URBANIZACIÓN O INSTALACIÓN DE TODOS O PARTE DE LOS SERVICIOS ADECUADOS.\r\nc) LA EXPLOTACIÓN EN FORMA DE VENTA, SOCIEDAD, ARRIENDO, SUPERFICIE U OTRAS CUALESQUIERA, DE POLÍGONOS, SOLARES, PARCELAS O TERRENOS QUE ADQUIERA, PROMUEVA O CONSTRUYA.\r\nd) LAS ACTIVIDADES RELACIONADAS CON LAS INDUSTRIAS DE LA CONSTRUCCIÓN DE CARRETERAS, CAMINOS, EDIFICIOS, FINCAS URBANAS, POR CUENTA PROPIA O AJENA, VEHÍCULOS, MAQUINARIAS O ELEMENTOS DE CONSTRUCCIÓN, SANEAMIENTO Y URBANIZACIÓN, CARPINTERÍA, INCLUSO METÁLICA Y TUBULAR, APARATOS, HERRAMIENTAS Y MUEBLES",
      "mainEntityOfPage": "https://www.contratacion.euskadi.eus/webkpe00-kperoc/es/ac71aBusquedaRegistrosWar/empresa/01848",
      "_links": {
        "self": {
          "name": "CONSTRUCCIONES IZORIA, S. COOP.",
          "href": "https://api.euskadi.eus/procurements/companies/01848"
        }
      }
    },
    {
      "name": "CLARA SALAZAR BRACERAS",
      "registrationNumber": "02406",
      "identificationNumber": "13286477K",
      "address": "ALAMEDA URKIJO, 34 - 4º E",
      "location": {
        "postalCode": "48011",
        "municipality": "Bilbao",
        "county": "Bizkaia",
        "municipalityId": "020",
        "countyId": "48"
      },
      "economicActivities": [
        {
          "id": "1.983",
          "name": "Agencias de colocación de artistas",
          "_links": {
            "self": {
              "name": "Agencias de colocación de artistas",
              "href": "https://api.euskadi.eus/procurements/companies/economic-activities/1.983"
            }
          }
        }
      ],
      "certificateStartDate": "2001-06-05",
      "certificateEndDate": "2001-09-29",
      "object": "AGENCIA DE COLOCACIÓN DE ARTISTAS",
      "mainEntityOfPage": "https://www.contratacion.euskadi.eus/webkpe00-kperoc/es/ac71aBusquedaRegistrosWar/empresa/02406",
      "_links": {
        "self": {
          "name": "CLARA SALAZAR BRACERAS",
          "href": "https://api.euskadi.eus/procurements/companies/02406"
        }
      }
    },
    {
      "name": "CARPINTERÍA METÁLICA DEKAL, S.L.",
      "registrationNumber": "01418",
      "identificationNumber": "B48540652",
      "address": "C/ BARRIO SAN MARTÍN, Nº 88.",
      "location": {
        "postalCode": "48170",
        "municipality": "Zamudio",
        "county": "Bizkaia",
        "municipalityId": "905",
        "countyId": "48"
      },
      "economicActivities": [
        {
          "id": "1.314.1",
          "name": "Carpintería metálica",
          "_links": {
            "self": {
              "name": "Carpintería metálica",
              "href": "https://api.euskadi.eus/procurements/companies/economic-activities/1.314.1"
            }
          }
        },
        {
          "id": "1.314.2",
          "name": "Fabricación de estructuras metálicas",
          "_links": {
            "self": {
              "name": "Fabricación de estructuras metálicas",
              "href": "https://api.euskadi.eus/procurements/companies/economic-activities/1.314.2"
            }
          }
        },
        {
          "id": "1.503.1",
          "name": "Preparación y montaje de estructuras y cubiertas en edificaciones",
          "_links": {
            "self": {
              "name": "Preparación y montaje de estructuras y cubiertas en edificaciones",
              "href": "https://api.euskadi.eus/procurements/companies/economic-activities/1.503.1"
            }
          }
        }
      ],
      "certificateStartDate": "2001-06-04",
      "certificateEndDate": "2001-11-02",
      "object": "LA REALIZACIÓN DE TODA CLASE DE TRABAJOS DE CARPINTERÍA METÁLICA, HERRERÍA Y OTROS RELACIONADOS CON LA CONSTRUCCIÓN. LA FABRICACIÓN Y VENTA DE VENTANAS, MAMPARAS, SEPARADORES, CIERRES, PUERTAS, PERSIANAS Y CUALQUIER OTRO ELEMENTO ASIMILABLE A LOS ANTERIORES ASÍ COMO LA COMPRA-VENTA Y COMERCIALIZACIÓN DE LOS ACCESORIOS Y PIEZAS DE RECAMBIO Y CRISTALES DE DICHOS ELEMENTOS. EL MONTAJE DE VENTANAS, MAMPARAS, PUERTAS, BALCONES Y CRISTALES, PUDIENDO IMPORTAR Y EXPORTAR DICHOS ELEMENTOS Y PROCEDER A SU COMERCIALIZACIÓN POR CUENTA PROPIA O DE TERCEROS",
      "mainEntityOfPage": "https://www.contratacion.euskadi.eus/webkpe00-kperoc/es/ac71aBusquedaRegistrosWar/empresa/01418",
      "_links": {
        "self": {
          "name": "CARPINTERÍA METÁLICA DEKAL, S.L.",
          "href": "https://api.euskadi.eus/procurements/companies/01418"
        }
      }
    },
    {
      "name": "COCA Y SÁNCHEZ ARQUITECTURA, S.L.",
      "registrationNumber": "02399",
      "identificationNumber": "B82336298",
      "address": "AVDA. DE LA VEGA, 8 - PORTAL 1 -1ºA",
      "location": {
        "postalCode": "28100",
        "municipality": "Alcobendas",
        "county": "Madrid",
        "municipalityId": "006",
        "countyId": "28"
      },
      "economicActivities": [
        {
          "id": "1.843.2",
          "name": "Servicios técnicos de arquitectura y urbanismo",
          "_links": {
            "self": {
              "name": "Servicios técnicos de arquitectura y urbanismo",
              "href": "https://api.euskadi.eus/procurements/companies/economic-activities/1.843.2"
            }
          }
        }
      ],
      "certificateStartDate": "2001-05-21",
      "certificateEndDate": "2001-10-26",
      "object": "ESTUDIO TÉCNICO DE ARQUITECTURA",
      "mainEntityOfPage": "https://www.contratacion.euskadi.eus/webkpe00-kperoc/es/ac71aBusquedaRegistrosWar/empresa/02399",
      "_links": {
        "self": {
          "name": "COCA Y SÁNCHEZ ARQUITECTURA, S.L.",
          "href": "https://api.euskadi.eus/procurements/companies/02399"
        }
      }
    }
  ]
}