{
  "totalItems": 9042,
  "totalPages": 905,
  "currentPage": 514,
  "itemsOfPage": 10,
  "items": [
    {
      "name": "CONTRATAS GARAIOLTZA, S.L.",
      "registrationNumber": "03224",
      "identificationNumber": "B95221818",
      "address": "Bº GARAIOLTZA, 128 - BAJO",
      "location": {
        "postalCode": "48916",
        "municipality": "Lezama",
        "county": "Bizkaia",
        "municipalityId": "081",
        "countyId": "48"
      },
      "economicActivities": [
        {
          "id": "1.501.1",
          "name": "Construcción completa, reparación y conservación de edificaciones",
          "_links": {
            "self": {
              "name": "Construcción completa, reparación y conservación de edificaciones",
              "href": "https://api.euskadi.eus/procurements/companies/economic-activities/1.501.1"
            }
          }
        }
      ],
      "certificateStartDate": "2021-09-21",
      "certificateEndDate": "2022-03-21",
      "object": "a)  LA PRESTACIÓN DE SERVICIOS TÉCNICOS DE INGENIERÍA CIVIL E INDUSTRIAL.\r\nb) LA COMPRAVENTA, IMPORTACIÓN, EXPORTACIÓN, COMERCIALIZACIÓN Y EN GENERAL LA DISTRIBUCIÓN, Y EN SU CASO LA FABRICACIÓN, MONTAJE, MANTENIMIENTO, REPARACIÓN Y MEJORA DE TODO TIPO DE MAQUINARIA, INSTALACIONES Y EQUIPIOS INDUSTRIALES.\r\nc) LA PROMOCIÓN Y EJECUCIÓN, COMPLETA O POR RAMOS, DE TODA CLASE DE OBRAS DE CONSTRUCCIÓN CIVILES, YA SEAN PÚBLICAS O PRIVADAS, URBANIZACIÓN Y SERVICIOS, REPARACIÓN Y CONSERVACIÓN, POR CUENTA PROPIA O AJENA, DE VIVIENDAS Y LOCALES COMERCIALES O INDUSTRIALES, INCLUSO DE VIVIENDAS DE PROTECCIÓN OFICIAL Y OBRAS PÚBLICAS.\r\nd) LA ADQUISICIÓN Y ENAJENACIÓN, POR CUALQUIER TÍTULO DE TERRENOS, FINCAS Y EDIFICIOS DE CUALQUIER NATURALEZA; LA ADMINISTRACIÓN, TENENCIA, EXPLOTACIÓN Y ARRENDAMIENTO, YA SEA ACTIVO O PASIVO DE TALES BIENES; PROCEDER A SU APROVECHAMIENTO, URBANO, INDUSTRIAL O CUALQUIER OTRO, Y  A LA CONSTRUCCIÓN DE EDIFICACIONES EN GENERAL, BIEN DIRECTAMENTE O POR MEDIO DEW SUBCONTRATISTAS O DESTAJISTAS, PUDIENDO REALIZAR SU VENTA TOTAL O PARCIAL, E INCLUSO LA URBANIZACIÓN, PARCELACIÓN Y REPARCELACIÓN DE LOS MISMOS, CONFORME A PLANES DE ORDENACIÓN URBANÍSTICA, APROBADOS POR LAS AUTORIDADES  COMPETENTES EN LOS POLÍGONOS Y ZONAS DE ACTUACIÓN QUE, AL EFECTO, SEAN DESIGNADOS, Y PARA SU DESARROLLO, PODRÁ FORMAR PARTE DE ASOCIACIONES DE PROPIETARIOS, EMPRESAS MIXTAS Y ENTIDADES URBANÍSTICAS COLABORADORAS, QUE PUEDAN REGLAMENTARSE A LOS EXPRESADOS FINES",
      "mainEntityOfPage": "https://www.contratacion.euskadi.eus/webkpe00-kperoc/es/ac71aBusquedaRegistrosWar/empresa/03224",
      "_links": {
        "self": {
          "name": "CONTRATAS GARAIOLTZA, S.L.",
          "href": "https://api.euskadi.eus/procurements/companies/03224"
        }
      }
    },
    {
      "name": "LORENZO MUÑOZ, S.A.",
      "registrationNumber": "07905",
      "identificationNumber": "A28341956",
      "address": "C/Luis I nº 21",
      "location": {
        "postalCode": "28031",
        "municipality": "Madrid",
        "county": "Madrid",
        "municipalityId": "079",
        "countyId": "28"
      },
      "economicActivities": [
        {
          "id": "1.617.5",
          "name": "Venta al por mayor de maquinaria para la madera y el metal",
          "_links": {
            "self": {
              "name": "Venta al por mayor de maquinaria para la madera y el metal",
              "href": "https://api.euskadi.eus/procurements/companies/economic-activities/1.617.5"
            }
          }
        },
        {
          "id": "1.692",
          "name": "Reparación de maquinaria industrial",
          "_links": {
            "self": {
              "name": "Reparación de maquinaria industrial",
              "href": "https://api.euskadi.eus/procurements/companies/economic-activities/1.692"
            }
          }
        }
      ],
      "certificateStartDate": "2021-09-21",
      "certificateEndDate": "2022-01-30",
      "object": "LA REPRESENTACIÓN DE MAQUINAS, HERRAMIENTAS Y UTENSILIOS ESPECIALES, SU PUESTA EN MARCHA Y SERVICIO DE ASISTENCIA TÉCNICA POST-VENTA, FABRICACIÓN ,REPARACIÓN Y COMPRA-VENTA",
      "mainEntityOfPage": "https://www.contratacion.euskadi.eus/webkpe00-kperoc/es/ac71aBusquedaRegistrosWar/empresa/07905",
      "_links": {
        "self": {
          "name": "LORENZO MUÑOZ, S.A.",
          "href": "https://api.euskadi.eus/procurements/companies/07905"
        }
      }
    },
    {
      "name": "LANSEGUR CORREDURÍA DE SEGUROS, S.L.",
      "registrationNumber": "03282",
      "identificationNumber": "B48900856",
      "address": "Mª DÍAZ DE HARO, 10 BIS, 7º",
      "location": {
        "postalCode": "48013",
        "municipality": "Bilbao",
        "county": "Bizkaia",
        "municipalityId": "020",
        "countyId": "48"
      },
      "economicActivities": [
        {
          "id": "1.832.1",
          "name": "Agencias de seguros y corredurías de seguros",
          "_links": {
            "self": {
              "name": "Agencias de seguros y corredurías de seguros",
              "href": "https://api.euskadi.eus/procurements/companies/economic-activities/1.832.1"
            }
          }
        }
      ],
      "certificateStartDate": "2021-09-20",
      "certificateEndDate": "2022-03-19",
      "object": "EXCLUSIVAMENTE LA REALIZACIÓN DE ACTIVIDADES DE CORREDURÍA DE SEGUROS, CON EXPRESO SOMETIMIENTO A LA LEGISLACIÓN ESPECIAL DE MEDIACIÓN EN SEGUROS PRIVADOS, A LAS NUEVAS LEYES O DISPOSICIONES QUE PUEDAN PROMULGARSE SOBRE LA MATERIA",
      "mainEntityOfPage": "https://www.contratacion.euskadi.eus/webkpe00-kperoc/es/ac71aBusquedaRegistrosWar/empresa/03282",
      "_links": {
        "self": {
          "name": "LANSEGUR CORREDURÍA DE SEGUROS, S.L.",
          "href": "https://api.euskadi.eus/procurements/companies/03282"
        }
      }
    },
    {
      "name": "BEREZI99 GARBIKETAK-LOREZAINTZA, S.L.",
      "registrationNumber": "07899",
      "identificationNumber": "B01446392",
      "address": "C/URARTEA 15A, PABELLÓN 6",
      "location": {
        "postalCode": "01010",
        "municipality": "Vitoria-Gasteiz",
        "county": "Araba/Álava",
        "municipalityId": "059",
        "countyId": "01"
      },
      "economicActivities": [
        {
          "id": "1.501.3",
          "name": "Albañilería y pequeños trabajos de construcción en general",
          "_links": {
            "self": {
              "name": "Albañilería y pequeños trabajos de construcción en general",
              "href": "https://api.euskadi.eus/procurements/companies/economic-activities/1.501.3"
            }
          }
        },
        {
          "id": "1.922",
          "name": "Servicios de limpieza",
          "_links": {
            "self": {
              "name": "Servicios de limpieza",
              "href": "https://api.euskadi.eus/procurements/companies/economic-activities/1.922"
            }
          }
        },
        {
          "id": "1.932.1",
          "name": "Enseñanza de formación y perfeccionamiento profesional no superior",
          "_links": {
            "self": {
              "name": "Enseñanza de formación y perfeccionamiento profesional no superior",
              "href": "https://api.euskadi.eus/procurements/companies/economic-activities/1.932.1"
            }
          }
        }
      ],
      "certificateStartDate": "2021-09-16",
      "certificateEndDate": "2022-02-27",
      "object": "LA INTERPRETACIÓN SOCIO LABORAL DE PERSONAS EN SITUACIÓN O GRAVE RIESGO DE EXCLUSIÓN SOCIAL. SERVICIO DE LIMPIEZA DE INTERIORES; EDIFICIOS DE OFICINAS, ESTABLECIMIENTOS COMERCIALES , RESIDENCIAS, GARAJES, PABELLONES, PISOS, PORTALES, CENTROS SANITARIOS Y ESTABLECIMIENTOS INDUSTRIALES. LIMPIEZA DE EXTERIORES, FACHADAS, CRISTALES, PATIOS. MANTENIMIENTO DE INSTALACIONES RELACIONADAS CON URBANIZACIONES; PISCINAS. JARDINERÍA Y HORTICULTURA. SERVICIOS DE JARDINERÍA, MANTENIMIENTOS DE ZONAS VERDES, ACTIVIDADES AUXILIARES Y COMPLEMENTARIAS. HIGIENIZACIÓN, DESINFECCIÓN DESRATIZACIÓN. LIMPIEZA DE SUMIDEROS. SERVICIOS DE SANEAMIENTO. PEQUEÑAS REPARACIONES. INTERMEDIACIÓN ENTRE CLIENTES Y GREMIOS PARA LA REPARACIÓN DE BIENES INMUEBLES. SEGURIDAD PORTEROS/PORTERÍAS. SERVICIO DE LAVANDERÍA, PLANCHADO Y LIMPIEZA DE TEXTILES. TRATAMIENTOS SUELOS. LIMPIEZA DE COCHES. COMPRAVENTA DE INMUEBLES, ALQUILER DE INMUEBLES. CONSTRUCCIÓN, REHABILITACIÓN Y REPARACIÓN DE TODO TIPO DE EDIFICACIONES. GESTIÓN Y REALIZACIÓN DE CURSOS DE FORMACIÓN QUE TENGAN COMO OBJETIVO FAVORECER LA INCORPORACIÓN SOCIO-LABORAL DE PERSONAS EN SITUACIÓN O RIESGO DE EXCLUSIÓN Y/O LA MEJORA DE LA EMPLEABILIDAD",
      "mainEntityOfPage": "https://www.contratacion.euskadi.eus/webkpe00-kperoc/es/ac71aBusquedaRegistrosWar/empresa/07899",
      "_links": {
        "self": {
          "name": "BEREZI99 GARBIKETAK-LOREZAINTZA, S.L.",
          "href": "https://api.euskadi.eus/procurements/companies/07899"
        }
      }
    },
    {
      "name": "DESAMIANTADOS DESNOR, S.L.",
      "registrationNumber": "07897",
      "identificationNumber": "B95557385",
      "address": "Zabalbide73 - Entreplanta ",
      "location": {
        "postalCode": "48007",
        "municipality": "Bilbao",
        "county": "Bizkaia",
        "municipalityId": "020",
        "countyId": "48"
      },
      "economicActivities": [
        {
          "id": "1.501.1",
          "name": "Construcción completa, reparación y conservación de edificaciones",
          "_links": {
            "self": {
              "name": "Construcción completa, reparación y conservación de edificaciones",
              "href": "https://api.euskadi.eus/procurements/companies/economic-activities/1.501.1"
            }
          }
        },
        {
          "id": "1.631",
          "name": "Intermediarios del comercio",
          "_links": {
            "self": {
              "name": "Intermediarios del comercio",
              "href": "https://api.euskadi.eus/procurements/companies/economic-activities/1.631"
            }
          }
        }
      ],
      "certificateStartDate": "2021-09-16",
      "certificateEndDate": "2022-02-16",
      "object": "A) DESMONTAJE DE AISLANTE CON CONTENIDO DE AMIANTO, SERVICIOS DE ASESORAMIENTO AL SECTOR DE LA CONSTRUCCIÓN. B) LA REALIZACIÓN DE TODA CLASE DE OBRAS DE CONSTRUCCIÓN, REHABILITACIÓN Y REFORMAS DE INMUEBLES, TANTO INTERIORES CJOMO EXTERIORES, PUDIENDO DEDICARSE A LA COORDINACIÓN, CONTRATACIÓN Y SUBCONTRATACIÓN DE GREMIOS, TANTO PÚBLICAS COMO PRIVADAS. C) LA COMPRAVENTA Y ALQUILER DE EDIFICACIONES EN SU TOTALIDAD, POR PARTES, O POR PISOS, BIEN PARA VIVIENDAS O PARA LOCALES DE OFICINAS DE NEGOCIO O INDUSTRIALES, ASÍ COMO LA COMPRAVENTA, EXPLOTACIÓN, PERMUTA Y ALQUILER DE TERRENOS RÚSTICOS O URBANOS",
      "mainEntityOfPage": "https://www.contratacion.euskadi.eus/webkpe00-kperoc/es/ac71aBusquedaRegistrosWar/empresa/07897",
      "_links": {
        "self": {
          "name": "DESAMIANTADOS DESNOR, S.L.",
          "href": "https://api.euskadi.eus/procurements/companies/07897"
        }
      }
    },
    {
      "name": "INGENIERÍA ARTAZA, S.L.",
      "registrationNumber": "01550",
      "identificationNumber": "B48564041",
      "address": "IPARRAGUIRRE, 55-1º DPTO. 23",
      "location": {
        "postalCode": "48010",
        "municipality": "Bilbao",
        "county": "Bizkaia",
        "municipalityId": "020",
        "countyId": "48"
      },
      "economicActivities": [
        {
          "id": "1.843.1",
          "name": "Servicios técnicos de ingeniería",
          "_links": {
            "self": {
              "name": "Servicios técnicos de ingeniería",
              "href": "https://api.euskadi.eus/procurements/companies/economic-activities/1.843.1"
            }
          }
        }
      ],
      "certificateStartDate": "2021-09-15",
      "certificateEndDate": "2022-03-15",
      "object": "LA PRESTACIÓN DE SERVICIOS TÉCNICOS DE INGENIERÍA, INCLUIDOS PROYECTOS, ESTUDIOS E INFORMES, ASÍ COMO LA REALIZACIÓN DE ESTUDIOS DE PRE-INVERSIÓN, CONTROL DE CALIDAD, DIRECCIONES DE OBRAS Y ASISTENCIA TÉCNICA EN OBRAS",
      "mainEntityOfPage": "https://www.contratacion.euskadi.eus/webkpe00-kperoc/es/ac71aBusquedaRegistrosWar/empresa/01550",
      "_links": {
        "self": {
          "name": "INGENIERÍA ARTAZA, S.L.",
          "href": "https://api.euskadi.eus/procurements/companies/01550"
        }
      }
    },
    {
      "name": "ELECTRICIDAD URDAIBAI, S.L.",
      "registrationNumber": "03726",
      "identificationNumber": "B48441430",
      "address": "POL. IND. LA VEGA, 17 - 9",
      "location": {
        "postalCode": "48300",
        "municipality": "Gernika-Lumo",
        "county": "Bizkaia",
        "municipalityId": "046",
        "countyId": "48"
      },
      "economicActivities": [
        {
          "id": "1.504.12",
          "name": "Instalaciones eléctricas en toda clase de edificios",
          "_links": {
            "self": {
              "name": "Instalaciones eléctricas en toda clase de edificios",
              "href": "https://api.euskadi.eus/procurements/companies/economic-activities/1.504.12"
            }
          }
        }
      ],
      "certificateStartDate": "2021-09-15",
      "certificateEndDate": "2022-03-15",
      "object": "LA VENTA DE MATERIAL ELÉCTRICO Y ELECTRODOMÉSTICOS DE TODO TIPO, INSTALACIONES ELÉCTRICAS EN GENERAL. EL ESTUDIO, PROMOCIÓN Y ASESORAMIENTO DE TODA CLASE DE SERVICIOS DE ASISTENCIA Y GESTIÓN TÉCNICA, ADMINISTRATIVA, COMERCIAL, CONTABLE Y FISCAL, ASÍ COMO LA EXPLOTACIÓN O PARTICIPACIÓN EN NEGOCIOS. LA ADQUISICIÓN Y CESIÓN, INVERSIÓN Y TENENCIA, DISFRUTE, ADMINISTRACIÓN, GESTIÓN, ARRENDAMIENTO Y NEGOCIACIÓN EN GENERAL, DE VALORES MOBILIARIOS E INMUEBLES, PARTICIPACIONES SOCIALES O EN COOPROPIEDAD, DE TODA CLASE DE BIENES, EXCEPTUÁNDOSE LOS VALORES MOBILIARIOS SUJETOS A LEGISLACIÓN ESPECIAL",
      "mainEntityOfPage": "https://www.contratacion.euskadi.eus/webkpe00-kperoc/es/ac71aBusquedaRegistrosWar/empresa/03726",
      "_links": {
        "self": {
          "name": "ELECTRICIDAD URDAIBAI, S.L.",
          "href": "https://api.euskadi.eus/procurements/companies/03726"
        }
      }
    },
    {
      "name": "PKF ATTEST SERVICIOS PROFESIONALES, S.L.",
      "registrationNumber": "07895",
      "identificationNumber": "B95529343",
      "address": "C/ Alameda Recalde nº 36",
      "location": {
        "postalCode": "48009",
        "municipality": "Bilbao",
        "county": "Bizkaia",
        "municipalityId": "020",
        "countyId": "48"
      },
      "economicActivities": [
        {
          "id": "1.849.7",
          "name": "Servicios de gestión administrativa",
          "_links": {
            "self": {
              "name": "Servicios de gestión administrativa",
              "href": "https://api.euskadi.eus/procurements/companies/economic-activities/1.849.7"
            }
          }
        },
        {
          "id": "1.861.20 ",
          "_links": {
            "self": {
              "href": "https://api.euskadi.eus/procurements/companies/economic-activities/1.861.20"
            }
          }
        }
      ],
      "certificateStartDate": "2021-09-15",
      "certificateEndDate": "2022-03-02",
      "object": "LA PRESTACIÓN DE SERVICIOS DE ASESORAMIENTO DE EMPRESAS, TANTO CONTABLE COMO ECONÓMICO, FISCAL, JURÍDICO, FINANCIERO, MERCANTIL O DE CUALQUIER OTRO TIPO, EL ESTUDIO, ANÁLISIS, INVESTIGACIÓN, PROMOCIÓN Y PRESTACIÓN DE TODA CLASE DE SERVICIOS DE ASISTENCIA Y GESTIÓN TÉCNICA, ADMINISTRATIVA Y COMERCIAL, ASÍ COMO DE CONSULTORÍA, ORGANIZACIÓN, PLANIFICACIÓN, INFORMACIÓN Y MECANIZACIÓN Y CUALQUIER OTRO TIPO DE SERVICIO RELACIONADOS CON SISTEMAS DE INFORMACIÓN, CONTROL Y GESTIÓN. LA PRESTACIÓN DE SERVICIOS DE ASESORAMIENTO EN ESTRATEGIA, ORGANIZACIÓN Y GESTIÓN DE EMPRESAS. LA PRESTACIÓN DE SERVICIOS DE ESTUDIO Y ANÁLISIS DE PROCESOS PARA SU TRATAMIENTO MECÁNICO, DE PROGRAMACIÓN INFORMÁTICA Y DE REGISTRO DE DATOS EN SOPORTE DE ENTRADA PARA ORDENADORES; LA VENTA DE PROGRAMAS, EL PROCESO DE DATOS POR CUENTA DE TERCEROS Y OTROS SERVICIOS INDEPENDIENTES DE ELABORAICÓ DE DATOS Y TABULACIÓN, ASÍ COMO OTRAS ACTIVIDADES ANÁLOGAS Y COMPLEMENTARIAS DE PROGRAMACIÓN Y ANÁLISIS INFORMÁTICOS. LA PRESTACIÓN DE SERVICIOS DE CONSULTORÍA Y ASESORAMIENTO A EMPRESAS Y ORGANIZACIONES PÚBLICAS Y PRIVADAS EN EL ÁMBITO DE LA INGENIERÍA Y MEDIO AMBIENTE. LA PROMOCIÓN, DIFUSIÓN Y PRESTACIÓN DE SERVICIOS AVANZADOS DE TELECOMUNICACIONES Y TRATAMIENTO DE LA INFORMACIÓN. LA INVESTIGACIÓN, PROYECTO, DESARROLLO, REALIZACIÓN, COMERCIALIZACIÓN, ASESORÍA, FABRICACIÓN, SUMINISTRO, INSTALAICÓN MONTAJE Y OPERACIÓ DE TODA CLASE DE QUIPOS, SISTEMAS Y PROGRAMAS INFORMÁTICOS Y DE TELECOMUNICACIONES PARA COMUNICACIÓN DE VOZ, DATOS, IMÁGENES O CUALQUIER TIPO DE INFORMACIÓN Y LA PRESTACIÓN DE TODA CLASE DE SERVICIOS CON ELLA RELACIONADA, INCLUIDOS, LA FORMACIÓN DE PERSONAL ESPECIALISTA, LA REALIZACIÓN DE ANÁLISIS, CONSULTORÍA, PROYECTOS Y ESTUDIOS DE TODO GÉNERO, ASÍ COMO LA CONFECCIÓN, APLICACIÓN Y COMERCIALIZACIÓN DE PROGRAMAS. EL ESTUDIO, DEFINICIÓN DE PROYECTOS DE INGENIERÍA DE TELECOMUNICACIONES Y SU EJECUCIÓN, COMERCIALIZACIÓN, ALMACENAJE, EXPORTACIÓN, REPARACIÓN, FORMACIÓN, ADMINISTRACIÓN, MANTENIMIENTO O ASISTENCIA DE LOS PRODUCTOS OFRECIDOS POR LA SOCIEDAD, ASÍ COMO SUS ELEMENTOS AUXILIARES Y DE LOS SERVICIOS PROPORCIONADOS POR LA MISMA O RELACIONADOS CON SU ACTIVIDAD. LA REALIZACIÓN DE ESTUDIOS, CONSULTORÍA E IMPLANTACIÓN DE SISTEMAS DE TELECOMUNICACIONES, INFORMÁTICOS Y ELECTRÓNICOS. LA PRESTACIÓN DE SERVICIOS DE ASESORAMIENTO A EMPRESAS EN LAS ÁREAS DE RECURSOS HUMANOS, DE TECNOLOGÍAS DE LA INFORMACIÓN (INFORMÁTICA) Y FORMACIÓN, ASÍ COMO LAS ÁREAS DE GESTIÓN PROPIA DE UNA COMPAÑÍA. LA PRESTACIÓN DE SERVICIOS DE CONSULTORÍA Y ASESORAMIENTO A EMPRESAS Y ORGANIZACIONES PÚBLICAS Y PRIVADAS EN EL ÁMBITO ECONÓMICO-FINANCIERO, ASÍ COMO EN LOS ÁMBITOS INCLUÍDOS DENTRO DEL OBJETO SOCIAL. LA REALIZACIÓN DE TASACIONES, DICTÁMENES FINANCIEROS, VALORACIONES Y PERITAJES. LA PRESTACIÓN DE SERVICIOS DE ASESORAMIENTO PARA LA FORMULACIÓN Y RELAIZACIÓN DE ESTUDIOS DE VIABILIDAD EMPRESARIAL, ASESORAMIENTO Y ASISTENCIA EN PROCEDIMIENTOS CONCURSALES EN TODAS LAS FASES DEL MISMO, OCUPANDO, EN SU CASO, EL CARGO DE ADMINISTRADOR CONCURSAL. LA MEDIACIÓN EN CONFLICTOS MERCANTILES, ACTUANDO COMO MEDIADORES INDEPENDIENTES. LA PRESTACIÓN DE SERVICIOS DE ASESORAMIENTO EN EL ÁMBITO DE LA NEGOCIACIÓN COLECTIVA Y RELACIONES LABORALES, TOMANDO PARTE EN SU CASO, EN LA NEGOCIACIÓN DIRECTA DE CONVENIOS COLECTIVOS Y PACTOS COLECTIVOS. EL ASESORAMIENTO Y LLEVANZA DE PROCEDIMIENTOS DE REESTRUCTURACIONES Y REORGANIZACIONES EMPRESARIALES, INCLUYENDO LOS EXPEDIENTES DE REGULACIÓ DE EMPLEO. EL ASESORAMIENTO Y TOMA DE PARTICIPACIÓN EN PROCEDIMIENTOS DE ARBITRAJE LABORAL, MEDIACIÓN, Y CONCILIACIÓN Y EN GENERAL EN LA SOLUCIÓN EXTRAJUDICIAL DE CONFLICTOS EN EL ÁMBITO SOCIAL. LA ENSEÑANZA Y FORMACIÓN EN EL ÁMBITO DE LAS ACTIVIDADES INCLUÍDAS DENTRO DEL OBJETO SOCIAL. EL ASESORAMIENTO EN MATERIAS DE RESPONSABILIDAD SOCIAL A EMPRESAS Y ORGANISMO PÚBLICOS Y PRIVADOS. LA ADQUISICIÓN, CESIÓN, TENENCIA, DISFRUTE, ADMINISTRACIÓN, GESTIÓN Y NEGOCIACIÓN EN GENERAL DE VALORES MOBILIARIOS E INMUEBLES, PARTICIPACIONES SOCIALES O EN COPROPIEDAD DE TODA CLASE DE BIENES. LA ADQUISICIÓN Y ENAJENACIÓN POR CUALQUIER TÍTULO DE FINCAS RÚSTICAS Y URBANAS YA SEAN TIERRAS, SOLARES, EDIFICIOS, LA CONSTRUCCIÓN DE ESTOS LA TENENCIA, EXPLOTACIÓN Y ARRENDAMIENTO, YA SEAN ACTIVO O PASIVO, DE TALES BIENES Y DE SU VENTA TOTAL O PARCIAL, SEGÚN CONVENGA. EL ARRENDAMIENTO Y CUALQUIER OTRA FORMA DE CESIÓN, USO O DISFRUTE QUE ABARQUE TODO O PARTE DE LOS EPÍGRAFES ANTERIORES",
      "mainEntityOfPage": "https://www.contratacion.euskadi.eus/webkpe00-kperoc/es/ac71aBusquedaRegistrosWar/empresa/07895",
      "_links": {
        "self": {
          "name": "PKF ATTEST SERVICIOS PROFESIONALES, S.L.",
          "href": "https://api.euskadi.eus/procurements/companies/07895"
        }
      }
    },
    {
      "name": "FRANCO CES E HIJOS, S.A.",
      "registrationNumber": "06619",
      "identificationNumber": "A20565222",
      "address": "ORIA ETORBIDEA Nº 4 - SOTANO -7",
      "location": {
        "postalCode": "20160",
        "municipality": "Lasarte-Oria",
        "county": "Gipuzkoa",
        "municipalityId": "902",
        "countyId": "20"
      },
      "economicActivities": [
        {
          "id": "1.654.5",
          "name": "Venta al por menor de toda clase de maquinaría",
          "_links": {
            "self": {
              "name": "Venta al por menor de toda clase de maquinaría",
              "href": "https://api.euskadi.eus/procurements/companies/economic-activities/1.654.5"
            }
          }
        },
        {
          "id": "1.699",
          "name": "Otras reparaciones n.c.o.p",
          "_links": {
            "self": {
              "name": "Otras reparaciones n.c.o.p",
              "href": "https://api.euskadi.eus/procurements/companies/economic-activities/1.699"
            }
          }
        }
      ],
      "certificateStartDate": "2021-09-15",
      "certificateEndDate": "2022-03-14",
      "object": "LA COMPRA-VENTA, INSTALACIÓN, MONTAJE, MANTENIMIENTO Y REPARACIÓN DE ESTACIONES DE SERVICIO, DE LAVADO, DE ENGRASE DE VEHÍCULOS Y DE COMBUSTIBLES LÍQUIDOS, ASÍ COMO ACTIVIDADES COMPLEMENTARIAS DE LAS MISMAS",
      "mainEntityOfPage": "https://www.contratacion.euskadi.eus/webkpe00-kperoc/es/ac71aBusquedaRegistrosWar/empresa/06619",
      "_links": {
        "self": {
          "name": "FRANCO CES E HIJOS, S.A.",
          "href": "https://api.euskadi.eus/procurements/companies/06619"
        }
      }
    },
    {
      "name": "CREARA CONSULTORES, S.L.",
      "registrationNumber": "07889",
      "identificationNumber": "B84433424",
      "address": "Calle Marqués de Ahumada, 5 (planta 3)",
      "location": {
        "postalCode": "28028",
        "municipality": "Madrid",
        "county": "Madrid",
        "municipalityId": "079",
        "countyId": "28"
      },
      "economicActivities": [
        {
          "id": "1.504.1",
          "name": "Instalaciones eléctricas en general",
          "_links": {
            "self": {
              "name": "Instalaciones eléctricas en general",
              "href": "https://api.euskadi.eus/procurements/companies/economic-activities/1.504.1"
            }
          }
        }
      ],
      "certificateStartDate": "2021-09-13",
      "certificateEndDate": "2022-01-26",
      "object": "SERVICIO DE CONSULTORÍA. EJECUCIÓN DE INSTALACIONES ENERGÉTICAS. PROYECTOS DE INGENIERÍA. PROMOCIÓN Y DIVULGACIÓN. SERVICIOS DE COMPRAVENTA. SERVICIOS Y PROYECTOS DE CONSTRUCCIÓN. VENTA Y COMPRA DE ENERGÍA ELÉCTRICA",
      "mainEntityOfPage": "https://www.contratacion.euskadi.eus/webkpe00-kperoc/es/ac71aBusquedaRegistrosWar/empresa/07889",
      "_links": {
        "self": {
          "name": "CREARA CONSULTORES, S.L.",
          "href": "https://api.euskadi.eus/procurements/companies/07889"
        }
      }
    }
  ]
}