{
  "totalItems": 9042,
  "totalPages": 905,
  "currentPage": 610,
  "itemsOfPage": 10,
  "items": [
    {
      "name": "CAMARA OFICIAL DE COMERCIO, INDUSTRIA, SERVICIOS Y NAVEGACIÓN DE BILBAO",
      "registrationNumber": "06271",
      "identificationNumber": "Q4873001D",
      "address": "Alameda de Recalde 50",
      "location": {
        "postalCode": "48008",
        "municipality": "Bilbao",
        "county": "Bizkaia",
        "municipalityId": "020",
        "countyId": "48"
      },
      "economicActivities": [
        {
          "id": "1.932.2",
          "name": "Enseñanza de formación y perfeccionamiento profesional superior",
          "_links": {
            "self": {
              "name": "Enseñanza de formación y perfeccionamiento profesional superior",
              "href": "https://api.euskadi.eus/procurements/companies/economic-activities/1.932.2"
            }
          }
        }
      ],
      "certificateStartDate": "2019-05-29",
      "certificateEndDate": "2019-11-17",
      "object": "FUNCIONES DE CARÁCTER PÚBLICO-ADMINISTRATIVO: EXPEDIR CERTIFICADOS DE ORIGEN Y DEMÁS CERTIFICACIONES RELACIONADAS CON EL TRÁFICO MERCANTIL, NACIONAL E INTERNACIONAL, EN LOS SUPUESTOS PREVISTOS EN LA NORMATIVA VIGENTE. RECOPILAR LAS COSTUMBRES Y USOS MERCANTILES, ASÍ COMO LAS PRÁCTICAS Y USOS DE LOS NEGOCIOS, Y EMITIR CERTIFICACIONES ACERCA DE SU EXISTENCIA. SER ÓRGANO DE ASESORAMIENTO DE LAS ADMINISTRACIONES PÚBLICAS, EN LOS TÉRMINOS QUE LAS MISMAS ESTABLEZCAN, PARA EL DESARROLLO DEL COMERCIO, LA INDUSTRIA, LOS SERVICIOS Y LA NAVEGACIÓN. DESARROLLAR ACTIVIDADES DE APOYO Y ESTÍMULO AL COMERCIO EXTERIOR. PARTICIPAR CON LAS ADMINISTRACIONES COMPETENTES EN LA ORGANIZACIÓN DE LA FORMACIÓN PRÁCTICA EN LOS CENTROS DE TRABAJO INCLUÍDA EN LAS ENSEÑANZAS DE FORMACIÓN PROFESIONAL Y EN LAS ACCIONES E INICIATIVAS FORMATIVAS DE LA FORMACIÓN PROFESIONAL DUAL, EN ESPECIAL EN LA SELECCIÓN Y VALIDACIÓN DE CENTROS DE TRABAJO Y EMPRESAS, EN LA DESIGNACIÓN Y FORMACIÓN DE TUTORES DEL ALUMNADO Y EN EL CONTROL Y EVALUACIÓN DEL CUMPLIMIENTO DE LA PROGRAMACIÓN, SIN PERJUICIO DE LAS FUNCIONES QUE PUEDAN ATRIBUIRSE A LAS ORGANIZACIONES EMPRESARIALES EN ESTE ÁMBITO. TRAMITAR, EN LOS CASOS EN QUE ASÍ SEAN REQUERIDAS POR LA ADMINISTRACIÓN GENERAL DEL ESTADO, LOS PROGRAMAS PÚBLICOS DE AYUDAS A LAS EMPRESAS EN LOS TÉRMINOS EN QUE SE ESTABLEZCAN EN CADA CASO, ASÍ COMO GESTIONAR LOS SERVICIOS PÚBLICOS RELACIONADOS CON LAS MISMAS CUANDO SU GESTIÓN LA CORRESPONDA A LA ADMINISTRACIÓN DEL ESTADO. GESTIONAR, EN LOS TÉRMINOS DEL ARTÍCULO 8 DE ESTA LEY, UN CENSO PÚBLICO DE TODAS LAS EMPRESAS, ASÍ COMO DE SUS ESTABLECIMIENTOS, DELEGACIONES Y AGENCIAS RADICADOS EN SU DEMARCACIÓN. ACTUAR DE VENTANILLAS ÚNICAS EMPRESARIALES CUANDO SEAN REQUERIDAS PARA ELLO POR LAS ADMINISTRACIONES PÚBLICAS COMPETENTES. COLABORAR CON LAS ADMINISTRACIONES PÚBLICAS EN LA SIMPLIFICACIÓN ADMINISTRATIVA DE LOS PROCEDIMIENTOS PARA EL INICIO Y DESARROLLO DE ACTIVIDADES ECONÓMICAS Y EMPRESARIALES, ASÍ COMO EN LA MEJORA DE LA REGULACIÓN ECONÓMICO-EMPRESARIAL. IMPULSAR ACTUACIONES DIRIGIDAS AL INCREMENTO DE LA COMPETITIVIDAD DE LAS PEQUEÑAS Y MEDIANAS EMPRESAS, Y FORMENTAR LA INNOVACIÓN Y TRANSFERENCIA TECNOLÓGICA A LAS EMPRESAS. IMPULSAR Y COLABORAR CON LAS ADMINISTRACIONES PÚBLICAS EN LA IMPLANTACIÓN DE LA ECONOMÍA DIGITAL DE LAS EMPRESAS. EN CASO DE QUE LA AUTORIDAD DE GESTIÓN DE LOS FONDOS DE LA UNIÓN EUROPEA LO CONSIDERE PROCEDENTE, LAS CÁMARAS PODRÁN PARTICIPAR EN LA GESTIÓN DE FONDOS DIRIGIDOS A LA MEJORA DE LA COMPETITIVIDAD EN LAS EMPRESAS",
      "mainEntityOfPage": "https://www.contratacion.euskadi.eus/webkpe00-kperoc/es/ac71aBusquedaRegistrosWar/empresa/06271",
      "_links": {
        "self": {
          "name": "CAMARA OFICIAL DE COMERCIO, INDUSTRIA, SERVICIOS Y NAVEGACIÓN DE BILBAO",
          "href": "https://api.euskadi.eus/procurements/companies/06271"
        }
      }
    },
    {
      "name": "ZURIA ARZUA CEBOLLA",
      "registrationNumber": "06272",
      "identificationNumber": "78884774H",
      "address": "MARTZANA KALEA 6, BH EZK",
      "location": {
        "postalCode": "48003",
        "municipality": "Bilbao",
        "county": "Bizkaia",
        "municipalityId": "020",
        "countyId": "48"
      },
      "economicActivities": [
        {
          "id": "2.798",
          "name": "Otros profesionales relacionados con actividades financieras y jurídicas",
          "_links": {
            "self": {
              "name": "Otros profesionales relacionados con actividades financieras y jurídicas",
              "href": "https://api.euskadi.eus/procurements/companies/economic-activities/2.798"
            }
          }
        }
      ],
      "certificateStartDate": "2019-05-29",
      "certificateEndDate": "2019-08-26",
      "object": "OTROS PROFESIONALES RELACIONADOS CON ACTIVIDADES FINANCIERAS Y JURÍDICAS\r\n\r\n",
      "mainEntityOfPage": "https://www.contratacion.euskadi.eus/webkpe00-kperoc/es/ac71aBusquedaRegistrosWar/empresa/06272",
      "_links": {
        "self": {
          "name": "ZURIA ARZUA CEBOLLA",
          "href": "https://api.euskadi.eus/procurements/companies/06272"
        }
      }
    },
    {
      "name": "GEOGARAPEN, ASOCIACIÓN PARA LA GESTIÓN DEL GEOPARQUE DE LA COSTA VASCA",
      "registrationNumber": "06262",
      "identificationNumber": "G75018705",
      "address": "IFAR KALEA, 4",
      "location": {
        "postalCode": "20820",
        "municipality": "Deba",
        "county": "Gipuzkoa",
        "municipalityId": "029",
        "countyId": "20"
      },
      "economicActivities": [
        {
          "id": "1.966.9",
          "name": "Otros servicios culturales n.c.o.p",
          "_links": {
            "self": {
              "name": "Otros servicios culturales n.c.o.p",
              "href": "https://api.euskadi.eus/procurements/companies/economic-activities/1.966.9"
            }
          }
        }
      ],
      "certificateStartDate": "2019-05-28",
      "certificateEndDate": "2019-09-20",
      "object": "-EL DESARROLLO SOSTENIBLE Y EQUILIBRADO DEL TERRITORIO DEL GEOPARQUE DE LA COSTA VASCA, CON ESPECIAL APOYO EN SUS VALORES GEOLÓGICOS Y CULTURALES MEDIANTE EL DESARROLLO DE ACCIONES Y LA PUESTA EN MARCHA DE ACTIVIDADES CUYO EFECTO REDUNDE EN BENEFICIO DE LAS PERSONAS QUE HABITAN DICHO TERRITORIO. -LA PROTECCIÓN Y CONSERVACIÓN DEL PATRIMONIO NATURAL DE DICHO TERRITORIO, CON UN ÉNFASIS ESPECIAL EN SU PATRIMONIO GEOLÓGICO, Y SU PUESTA EN VALOR COMO RECURSO, CON LA FINALIDAD DEL DESARROLLO ECONÓMICO Y SOCIAL DE SU POBLACIÓN. -EL FOMENTO DE LAS CIENCIAS DE LA TIERRA EN DICHO TERRITORIO, EN LOS ÁMBITOS DE LA INVESTIGACIÓN, EDUCACIÓN (REGLADA Y NO REGLADA) Y DIFUSIÓN, Y EL IMPULSO DE LAS OTRAS CIENCIAS NATURALES Y AMBIENTALES. -LA PUESTA EN VALOR, DINAMIZACIÓN, RECUPERACIÓN Y DIFUSIÓN DEL PATRIMONIO CULTURAL. -LA PROMOCIÓN Y REALIZACIÓN DE ACTIVIDADES VINCULADAS AL PATRIMONIO CULTURAL MATERIAL E INMATERIAL (TRADICIONES, COSTUMBRES, OFICIOS, MEMORIA ORAL, CREACIÓN ARTÍSTICA, ETC.) DANDO PRIORIDAD A AQUELLAS ACTIVIDADES MÁS VINCULADAS CON EL PATRIMONIO GEOLÓGICO, PALEONTOLÓGICO Y ARQUEOLÓGICO. -EL FOMENTO DE LA EDUCACIÓN AMBIENTAL, CON ESPECIAL ATENCIÓN A LOS VALORES PROPIOS DEL TERRITORIO. -EL FOMENTO DEL TURISMO DE NATURALEZA, CON ATENCIÓN ESPECIAL A SUS VALORES GEOLÓGICOS, ASÍ COMO DEL TURISMO CULTURAL, TODO ELLO DENTRO DE UN MARCO DE SOSTENIBILIDAD. -LA MEJORA DE LA CALIDAD TURÍSTICA Y DE LA OFERTA DEL TERRITORIO. -LA DINAMIZACIÓN DE ACTIVIDADES ECONÓMICAS COMPATIBLES CON LOS OBJETIVOS DE LOS GEOPARQUES, APOYANDO ESPECIALMENTE LAS INICIATIVAS RELACIONADAS CON LOS PRODUCTOS LOCALES. -Y PROMOVER Y REALIZAR ACCIONES DE COOPERACIÓN CON OTRAS ENTIDADES QUE PUEDAN CONTRIBUIR AL IMPULSO DE LOS FINES DE LA ASOCIACIÓN",
      "mainEntityOfPage": "https://www.contratacion.euskadi.eus/webkpe00-kperoc/es/ac71aBusquedaRegistrosWar/empresa/06262",
      "_links": {
        "self": {
          "name": "GEOGARAPEN, ASOCIACIÓN PARA LA GESTIÓN DEL GEOPARQUE DE LA COSTA VASCA",
          "href": "https://api.euskadi.eus/procurements/companies/06262"
        }
      }
    },
    {
      "name": "AFI CONSULTORES DE LAS ADMINISTRACIONES PÚBLICAS S.A.",
      "registrationNumber": "06265",
      "identificationNumber": "A81062820",
      "address": "C/ MARQUES DE VILLAMEJOR, 5",
      "location": {
        "postalCode": "28006",
        "municipality": "Madrid",
        "county": "Madrid",
        "municipalityId": "079",
        "countyId": "28"
      },
      "economicActivities": [
        {
          "id": "1.842",
          "name": "Servicios financieros y contables",
          "_links": {
            "self": {
              "name": "Servicios financieros y contables",
              "href": "https://api.euskadi.eus/procurements/companies/economic-activities/1.842"
            }
          }
        },
        {
          "id": "1.843.9",
          "name": "Otros servicios técnicos n.c.o.p",
          "_links": {
            "self": {
              "name": "Otros servicios técnicos n.c.o.p",
              "href": "https://api.euskadi.eus/procurements/companies/economic-activities/1.843.9"
            }
          }
        }
      ],
      "certificateStartDate": "2019-05-28",
      "certificateEndDate": "2019-11-21",
      "object": "A) REALIZACIÓN DE ESTUDIOS, INFORMES Y ASISTENCIAS TÉCNICAS DE CARÁCTER ECONÓMICO, FINANCIERO, COMERCIAL, SOCIAL Y LABORAL A LAS ADMINISTRACIONES PÚBLICAS-  ESTADO, COMUNIDADES AUTÓNOMAS, CORPORACIONES LOCALES, ETC Y SUS ORGANISMOS. B) ASESORAMIENTO, DIRECCIÓN, DISEÑO, ORGANIZACIÓN Y PROMOCIÓN DE SEMINARIOS Y CURSOS. C) EDICIÓN Y DISTRIBUCIÓN DE PUBLICACIONES Y MATERIAL AUDIOVISUAL RELACIONADOS CON EL ASESORAMIENTO Y LAS ENSEÑANZAS REALIZADAS. D) INSTALACIÓN Y EXPLOTACIÓN DE AULAS EN LAS QUE SE IMPARTAN ENSEÑANZAS RELACIONADAS CON LA ADMINISTRACIÓN PÚBLICA, LAS FINANZAS Y LAS TÉCNICAS DE GESTIÓN DE EMPRESAS Y SERVICIOS PÚBLICOS, SIN OTRAS LIMITACIONES QUE LAS QUE SE DERIVEN DE LA LEGISLACIÓN VIGENTE SOBRE TÍTULOS Y ENSEÑANZAS DE CARÁCTER OFICIAL. E) ADQUIRIR, POSEER, USAR, CEDER, VENDER, YA SEA COMO PRINCIPAL O COMO REPRESENTANTE O AGENTE, PATENTES, MARCAS Y NOMBRES COMERCIALES Y CUALESQUIERA OTROS DERECHOS DE PROPIEDAD INDUSTRIAL, ASÍ COMO DE PROPIEDAD INTELECTUAL",
      "mainEntityOfPage": "https://www.contratacion.euskadi.eus/webkpe00-kperoc/es/ac71aBusquedaRegistrosWar/empresa/06265",
      "_links": {
        "self": {
          "name": "AFI CONSULTORES DE LAS ADMINISTRACIONES PÚBLICAS S.A.",
          "href": "https://api.euskadi.eus/procurements/companies/06265"
        }
      }
    },
    {
      "name": "ALBERTIA ETXEA S.L.",
      "registrationNumber": "06254",
      "identificationNumber": "B01487412",
      "address": "Avd. General Aviles 67",
      "location": {
        "postalCode": "46015",
        "municipality": "València",
        "county": "Valencia/València",
        "municipalityId": "250",
        "countyId": "46"
      },
      "economicActivities": [
        {
          "id": "1.951",
          "name": "Asistencia y servicios sociales en centros residenciales",
          "_links": {
            "self": {
              "name": "Asistencia y servicios sociales en centros residenciales",
              "href": "https://api.euskadi.eus/procurements/companies/economic-activities/1.951"
            }
          }
        }
      ],
      "certificateStartDate": "2019-05-27",
      "certificateEndDate": "2019-09-26",
      "object": "EL CUIDADO, PROMOCIÓN Y ASISTENCIA EN LA REHABILITACIÓN, INSERCIÓN SOCIAL Y TRATAMIENTO DE TODO TIPO DE PERSONAS DE TERCERA EDAD O CUALQUIER OTRA CON ALGUNA CARENCIA, ENFERMEDAD O MINUSVALÍA PSÍQUICA, FÍSICA Y/O ECONÓMICA; REGENTANDO EXPLOTANDO O GESTIONANDO A TAL EFECTO CENTROS O INMUEBLES PROPIOS O AJENOS EN VIRTUD DE CONTRATO DE ARRENDAMIENTO DE CUALQUIER CLASE, INCLUIDO EL FINANCIERO, CESIÓN, CONCESIÓN, DE CUALQUIER TIPO, TANTO GRATUITA COMO ONEROSA, HACIENDO EXPRESA EXTENSIÓN A LA ASISTENCIA DOMICILIARIA, INSTALACIÓN, MANTENIMIENTO Y REPARACIÓN DE APARATOS DE INTERCOMUNICACIÓN Y TELEFONÍA INSTALADOS EN DOMICILIOS, Y TRANSPORTE, TODO ELLO, COMO AYUDA A ESTOS COLECTIVOS, CONCERTANDO CUALQUIER TIPO DE CONTRATOS O PACTOS CON INSTITUCIONES PÚBLICAS O PRIVADAS. LA EXPLOTACIÓN EN GENERAL DE RESIDENCIA, EN LOCALES PROPIOS O ARRENDADOS O CONCEDIENDO SU EXPLOTACIÓN A TERCERAS PERSONAS. LA COMPRAVENTA DE BIENES INMUEBLES. LA URBANIZACIÓN Y PARCELACIÓN DE TERRENOS EN GENERAL Y LA PROMOCIÓN DE NEGOCIOS INMOBILIARIOS. LA CONSTRUCCIÓN DE INMUEBLES O EDIFICIOS, BIEN PARA USOS RESIDENCIALES O PARA USOS COMERCIALES E INDUSTRIALES, EN CUALQUIER FORMA ADMITIDA POR LAS LEYES EN VIGOR. LA PROMOCIÓN, VENTA, GRAVAMEN O EXPLOTACIÓN EN RÉGIMEN DE ARRENDAMIENTO (NO FINANCIERO), DE EDIFICIOS BIEN COMPLETA O POR PISOS Y LOCALES",
      "mainEntityOfPage": "https://www.contratacion.euskadi.eus/webkpe00-kperoc/es/ac71aBusquedaRegistrosWar/empresa/06254",
      "_links": {
        "self": {
          "name": "ALBERTIA ETXEA S.L.",
          "href": "https://api.euskadi.eus/procurements/companies/06254"
        }
      }
    },
    {
      "name": "MEDICAL SELECTION S.L.",
      "registrationNumber": "06259",
      "identificationNumber": "B81922692",
      "address": "Infanta Maria Teresa 13 5º DCHA",
      "location": {
        "postalCode": "28016",
        "municipality": "Madrid",
        "county": "Madrid",
        "municipalityId": "079",
        "countyId": "28"
      },
      "economicActivities": [
        {
          "id": "1.619.2",
          "name": "Venta al por mayor de aparatos e instrumentos médicos, ortopédicos, ópticos",
          "_links": {
            "self": {
              "name": "Venta al por mayor de aparatos e instrumentos médicos, ortopédicos, ópticos",
              "href": "https://api.euskadi.eus/procurements/companies/economic-activities/1.619.2"
            }
          }
        }
      ],
      "certificateStartDate": "2019-05-27",
      "certificateEndDate": "2019-07-24",
      "object": "LA COMPRA, VENTA, IMPORTACIÓN Y EXPORTACIÓN DE PRODUCTOS MÉDICOS-SANITARIOS, MATERIAL FUNGIBLE, EQUIPOS, APARATOS, ACCESORIOS, Y CUALQUIER OTRO MATERIAL DE USO EN CENTROS HOSPITALARIOS Y EN LAS DIVERSAS ESPECIALIDADES MÉDICAS",
      "mainEntityOfPage": "https://www.contratacion.euskadi.eus/webkpe00-kperoc/es/ac71aBusquedaRegistrosWar/empresa/06259",
      "_links": {
        "self": {
          "name": "MEDICAL SELECTION S.L.",
          "href": "https://api.euskadi.eus/procurements/companies/06259"
        }
      }
    },
    {
      "name": "HIRUKOTE ERREMENTERIA, S.L.",
      "registrationNumber": "06249",
      "identificationNumber": "B95472833",
      "address": "Pol. Ind. Erletxe Plat. K Edif. 2 Pab. 4-5",
      "location": {
        "postalCode": "48960",
        "municipality": "Galdakao",
        "county": "Bizkaia",
        "municipalityId": "036",
        "countyId": "48"
      },
      "economicActivities": [
        {
          "id": "1.314.1",
          "name": "Carpintería metálica",
          "_links": {
            "self": {
              "name": "Carpintería metálica",
              "href": "https://api.euskadi.eus/procurements/companies/economic-activities/1.314.1"
            }
          }
        },
        {
          "id": "1.505.5",
          "name": "Carpintería y cerrajería",
          "_links": {
            "self": {
              "name": "Carpintería y cerrajería",
              "href": "https://api.euskadi.eus/procurements/companies/economic-activities/1.505.5"
            }
          }
        }
      ],
      "certificateStartDate": "2019-05-22",
      "certificateEndDate": "2019-09-06",
      "object": "LA REALIZACIÓN DE TODA CLASE DE TRABAJOS, EN HIERRO, FORJA Y CARPINTERÍA METÁLICA",
      "mainEntityOfPage": "https://www.contratacion.euskadi.eus/webkpe00-kperoc/es/ac71aBusquedaRegistrosWar/empresa/06249",
      "_links": {
        "self": {
          "name": "HIRUKOTE ERREMENTERIA, S.L.",
          "href": "https://api.euskadi.eus/procurements/companies/06249"
        }
      }
    },
    {
      "name": "VIAJES BIDASOA, S.A.",
      "registrationNumber": "01694",
      "identificationNumber": "A20215067",
      "address": "C/ ESCORIAZA, 5",
      "location": {
        "postalCode": "01013",
        "municipality": "Vitoria-Gasteiz",
        "county": "Araba/Álava",
        "municipalityId": "059",
        "countyId": "01"
      },
      "economicActivities": [
        {
          "id": "1.721.2",
          "name": "Transporte por autotaxis",
          "_links": {
            "self": {
              "name": "Transporte por autotaxis",
              "href": "https://api.euskadi.eus/procurements/companies/economic-activities/1.721.2"
            }
          }
        },
        {
          "id": "1.721.3",
          "name": "Transporte de viajeros por carretera",
          "_links": {
            "self": {
              "name": "Transporte de viajeros por carretera",
              "href": "https://api.euskadi.eus/procurements/companies/economic-activities/1.721.3"
            }
          }
        },
        {
          "id": "1.755",
          "name": "Agencias de viajes",
          "_links": {
            "self": {
              "name": "Agencias de viajes",
              "href": "https://api.euskadi.eus/procurements/companies/economic-activities/1.755"
            }
          }
        }
      ],
      "certificateStartDate": "2019-05-21",
      "certificateEndDate": "2019-10-02",
      "object": "EL DESARROLLO DE LAS ACTIVIDADES PROPIAS DE UNA AGENCIA DE VIAJES; ENTRE LAS QUE SE PUEDEN CONSIDERAR, A TÍTULO ENUNCIATIVO PERO NO LIMITATIVO, LAS SIGUIENTES:\r\n\r\na) LA MEDIACIÓN EN LA VENTA DE BILLETES Y RESERVAS DE PLAZAS, EN TODA CLASE DE MEDIOS DE TRANSPORTE.\r\n\r\nb) LA RESERVA DE HABITACIONES Y SERVICIOS EN ESTABLECIMIENTOS HOTELEROS Y DEMÁS ALOJAMIENTOS TURÍSTICOS.\r\n\r\nc) LA ORGANIZACIÓN, VENTA Y REALIZACIÓN DE SERVICIOS COMBINADOS Y DE VIAJES ¿A FORFAIT¿, TAMBIÉN LLAMADOS ¿PAQUETES DE SERVICIOS TURÍSTICOS¿; INCLUYENDO LA RECEPCIÓN, ASISTENCIA Y TRASLADO DE LOS CLIENTES.\r\n\r\nd) LA ACTUACIÓN POR DELEGACIÓN Y CORRESPONSALÍA DE OTRAS AGENCIAS DE VIAJES NACIONALES O EXTRANJERAS, PARA LA PRESTACIÓN EN SU NOMBRE Y A LA CLIENTELA DE ÉSTAS DE CUALQUIERA DE LOS SERVICIOS ENUMERADOS EN EL PRESENTE ARTÍCULO, CON LAS LIMITACIONES QUE DETERMINA LA VIGENTE NORMATIVA SOBRE AGENCIAS DE VIAJES.\r\n\r\ne) INFORMACIÓN TURÍSTICA Y DIFUSIÓN DE MATERIAL DE PROMOCIÓN TURÍSTICA, ASÍ COMO LA VENTA DE GUÍAS TURÍSTICAS Y DE CARRETERAS, HORARIOS Y PUBLICACIONES DEL MISMO GÉNERO.\r\n\r\nf) EL CAMBIO DE DIVISAS, ASÍ COMO LA VENTA Y CAMBIO DE LOS DENOMINADOS ¿CHEQUES DE VIAJEROS¿.\r\n\r\ng) LA EXPEDICIÓN Y TRANSFERENCIA DE EQUIPAJES POR CUALQUIERA DE LOS MEDIOS DE TRANSPORTE RELACIONADOS CON LOS TÍTULOS DE TRANSPORTE POR ELLA EMITIDOS O VENDIDOS.\r\n\r\nh) LA FORMALIZACIÓN, A FAVOR DE SUS CLIENTES, DE PÓLIZAS DE ¿SEGURO TURÍSTICO¿, ASÍ COMO DE OTRAS PÓLIZAS DE SEGURO QUE CUBRAN LOS RIESGOS DE PÉRDIDA O DETERIORO DE EQUIPAJES Y CUANTOS OTROS SINIESTROS PUEDAN DERIVARSE DE LOS VIAJES.\r\n\r\ni) EL ALQUILER DE VEHÍCULOS CON O SIN CONDUCTOR, ASÍ COMO EL FLETAMIENTO DE AVIONES, TRENES ESPECIALES U OTROS MEDIOS DE TRANSPORTE.\r\n\r\nj) LA RESERVA Y ADQUISICIÓN PARA SUS PROPIOS CLIENTES DE BILLETES O ENTRADAS A CUALQUIER TIPO DE ESPECTÁCULOS.\r\n\r\nk) LA ORGANIZACIÓN DE CONGRESOS Y CONVENCIONES, EN AQUELLOS ASPECTOS RELACIONADOS CON EL ALOJAMIENTO DE LOS ASISTENTES, EL TRANSPORTE Y LA MANUTENCIÓN DE LOS MISMOS, ASÍ COMO CON ACTIVIDADES DE INDOLE RECREATIVA QUE PUDIERAN PRECISARSE. LA PRESTACION DE CUALQUIER OTRO SERVICIO DE ÍNDOLE TURÍSTICA, QUE COMPLEMENTE LOS ANTERIORMENTE ENUMERADOS",
      "mainEntityOfPage": "https://www.contratacion.euskadi.eus/webkpe00-kperoc/es/ac71aBusquedaRegistrosWar/empresa/01694",
      "_links": {
        "self": {
          "name": "VIAJES BIDASOA, S.A.",
          "href": "https://api.euskadi.eus/procurements/companies/01694"
        }
      }
    },
    {
      "name": "ELECPASAIA, S.L.",
      "registrationNumber": "05507",
      "identificationNumber": "B75145391",
      "address": "Pol. Ind. Txirrita-Maleo - Pab. 7-c",
      "location": {
        "postalCode": "20100",
        "municipality": "Errenteria",
        "county": "Gipuzkoa",
        "municipalityId": "067",
        "countyId": "20"
      },
      "economicActivities": [
        {
          "id": "1.504.1",
          "name": "Instalaciones eléctricas en general",
          "_links": {
            "self": {
              "name": "Instalaciones eléctricas en general",
              "href": "https://api.euskadi.eus/procurements/companies/economic-activities/1.504.1"
            }
          }
        },
        {
          "id": "1.504.11",
          "name": "Instalaciones eléctricas en general, redes telegráficas, telefonía, tv, etc",
          "_links": {
            "self": {
              "name": "Instalaciones eléctricas en general, redes telegráficas, telefonía, tv, etc",
              "href": "https://api.euskadi.eus/procurements/companies/economic-activities/1.504.11"
            }
          }
        },
        {
          "id": "1.507",
          "name": "Construcción, reparación y conservación de toda clase obras",
          "_links": {
            "self": {
              "name": "Construcción, reparación y conservación de toda clase obras",
              "href": "https://api.euskadi.eus/procurements/companies/economic-activities/1.507"
            }
          }
        }
      ],
      "certificateStartDate": "2019-05-21",
      "certificateEndDate": "2019-11-20",
      "object": "LA EXPLOTACIÓN DE UN NEGOCIO DEDICADO AL DISEÑO Y EJECUCIÓN DE PROYECTOS DE AUTOMATIZACIÓN, CONTROL Y GESTIÓN DE PLANTAS INDUSTRIALES, AUTOMATIZACIÓN DE BUQUES Y DE TODO TIPO DE INSTALACIONES, REPARACIÓN DE INSTALACIONES, MONTAJES ELÉCTRICOS Y ELECTRÓNICOS, NAVALES E INDUSTRIALES, ASÍ COMO LA EJECUCIÓN DE TODO TIPO DE OBRAS E INSTALACIONES HIDRÁULICAS CON SU EQUIPAMIENTO Y LA COMERCIALIZACIÓN Y ENAJENACIÓN DE SUS TRABAJOS",
      "mainEntityOfPage": "https://www.contratacion.euskadi.eus/webkpe00-kperoc/es/ac71aBusquedaRegistrosWar/empresa/05507",
      "_links": {
        "self": {
          "name": "ELECPASAIA, S.L.",
          "href": "https://api.euskadi.eus/procurements/companies/05507"
        }
      }
    },
    {
      "name": "SISTEMAS DE GESTION SANITARIA, S.A.",
      "registrationNumber": "06247",
      "identificationNumber": "A80572449",
      "address": "Calle Colombia, 64  3ºA",
      "location": {
        "postalCode": "28016",
        "municipality": "Madrid",
        "county": "Madrid",
        "municipalityId": "079",
        "countyId": "28"
      },
      "economicActivities": [
        {
          "id": "1.843.9",
          "name": "Otros servicios técnicos n.c.o.p",
          "_links": {
            "self": {
              "name": "Otros servicios técnicos n.c.o.p",
              "href": "https://api.euskadi.eus/procurements/companies/economic-activities/1.843.9"
            }
          }
        }
      ],
      "certificateStartDate": "2019-05-21",
      "certificateEndDate": "2019-10-23",
      "object": "A) LA ELABORACIÓN, PRODUCCIÓN, REPRODUCCIÓN, CONSECUCIÓN DE LICENCICAS DE USO, ADQUISICIÓN, ARRENDAMIENTO Y VENTA DE SOPORTES INFORMÁTICOS, Y PROGRAMAS DE GESTIÓN Y TECNOLOGÍA RELACIONADA CON EL ENTORNO SANITARIO. B) LA PLANIFICACIÓN, ANÁLISIS, DISEÑO, CONSTRUCCIÓN, PRUEBAS Y MANTENIMIENTO DE SISTEMAS  DE INFORMACIÓN (PROGRAMAS Y APLICACIONES INFORMÁTICAS). C) LA PUESTA EN FUNCIONAMIENTO, EL SEGUIMIENTO, LA GESTIÓN Y CONTROL DE EQUIPOS Y SISTEMAS INFORMÁTICOS Y DE LAS INFRAESTRUCTURAS TELEMÁTICAS, NECESARIAS PARA LA ADECUADA EXPLOTACIÓN DE PROGRAMAS Y APLICACIONES INFORMÁTICAS. D) LA CONSULTORÍA DE EMPRESAS PÚBLICAS O PRIVADAS, DE LA ADMINISTRACIÓN CENTRAL, AUTONÓMICA O LOCAL DE CORPORACIONES PÚBLICAS Y DE ORGANISMOS DEPENDIENTES DE LOS CITADOS, EN MATERIAS RELACIONADAS CON TECNOLOGÍA SANITARIA Y PRODUCTOS PARA USO SANITARIO. E) LA EDUCACIÓN Y FORMACIÓN EN LA GESTIÓN DE COMPAÑÍAS Y ENTIDADES VINCULADAS CON EL ENTORNO SANITARIO, ASÍ COMO LA FORMACIÓN Y EDUCACIÓN EN TECNOLOGÍA SANITARIA. F) MEDIACIÓN Y ASESORAMIENTO EN LA ADQUISICIÓN DE PRODUCTOS PARA USO EN INSTALACIONES SANITARIAS",
      "mainEntityOfPage": "https://www.contratacion.euskadi.eus/webkpe00-kperoc/es/ac71aBusquedaRegistrosWar/empresa/06247",
      "_links": {
        "self": {
          "name": "SISTEMAS DE GESTION SANITARIA, S.A.",
          "href": "https://api.euskadi.eus/procurements/companies/06247"
        }
      }
    }
  ]
}