{
  "totalItems": 9042,
  "totalPages": 905,
  "currentPage": 414,
  "itemsOfPage": 10,
  "items": [
    {
      "name": "ACADEMIA TRINIDAD, S.L.",
      "registrationNumber": "09163",
      "identificationNumber": "B32379125",
      "address": "Avenida Buenos Aires, 61",
      "location": {
        "postalCode": "32004",
        "municipality": "Ourense",
        "county": "Ourense",
        "municipalityId": "054",
        "countyId": "32"
      },
      "economicActivities": [
        {
          "id": "1.933.9",
          "name": "Otras actividades de enseñanza tales como idiomas, mecanografía",
          "_links": {
            "self": {
              "name": "Otras actividades de enseñanza tales como idiomas, mecanografía",
              "href": "https://api.euskadi.eus/procurements/companies/economic-activities/1.933.9"
            }
          }
        },
        {
          "id": "1.943",
          "name": "Consultas y clínicas de estomatología y odontología",
          "_links": {
            "self": {
              "name": "Consultas y clínicas de estomatología y odontología",
              "href": "https://api.euskadi.eus/procurements/companies/economic-activities/1.943"
            }
          }
        },
        {
          "id": "1.952",
          "name": "Asistencia y servicios sociales en centros no residenciales",
          "_links": {
            "self": {
              "name": "Asistencia y servicios sociales en centros no residenciales",
              "href": "https://api.euskadi.eus/procurements/companies/economic-activities/1.952"
            }
          }
        }
      ],
      "certificateStartDate": "2024-07-02",
      "certificateEndDate": "2025-01-02",
      "object": "CENTRO PRIVADO DE ENSEÑANZA PARA IMPARTICIÓN DE TODO TIPO DE CURSOS Y CLASES PARTICULARES, FORMACIÓN OCUPACIONAL Y CONTINUA TANTO REGLADA COMO NO REGLADA. SERVICIOS DE ASESORÍA EMPRESARIAL.",
      "mainEntityOfPage": "https://www.contratacion.euskadi.eus/webkpe00-kperoc/es/ac71aBusquedaRegistrosWar/empresa/09163",
      "_links": {
        "self": {
          "name": "ACADEMIA TRINIDAD, S.L.",
          "href": "https://api.euskadi.eus/procurements/companies/09163"
        }
      }
    },
    {
      "name": "AFTER ESTUDIO, S.L.",
      "registrationNumber": "09158",
      "identificationNumber": "B13784939",
      "address": "Calle Gandía 17, bajo derecha",
      "location": {
        "postalCode": "46007",
        "municipality": "València",
        "county": "Valencia/València",
        "municipalityId": "250",
        "countyId": "46"
      },
      "economicActivities": [
        {
          "id": "1.843.2",
          "name": "Servicios técnicos de arquitectura y urbanismo",
          "_links": {
            "self": {
              "name": "Servicios técnicos de arquitectura y urbanismo",
              "href": "https://api.euskadi.eus/procurements/companies/economic-activities/1.843.2"
            }
          }
        }
      ],
      "certificateStartDate": "2024-07-02",
      "certificateEndDate": "2025-01-02",
      "object": "EL EJERCICIO EN COMÚN DE LA ACTIVIDAD PROFESIONAL DE LA ARQUITECTURA.",
      "mainEntityOfPage": "https://www.contratacion.euskadi.eus/webkpe00-kperoc/es/ac71aBusquedaRegistrosWar/empresa/09158",
      "_links": {
        "self": {
          "name": "AFTER ESTUDIO, S.L.",
          "href": "https://api.euskadi.eus/procurements/companies/09158"
        }
      }
    },
    {
      "name": "SILVIA TUBIA TREVIÑO",
      "registrationNumber": "08196",
      "identificationNumber": "15397110J",
      "address": "Calle Estaziño",
      "location": {
        "postalCode": "20600",
        "municipality": "Eibar",
        "county": "Gipuzkoa",
        "municipalityId": "030",
        "countyId": "20"
      },
      "economicActivities": [
        {
          "id": "2.399",
          "name": "Otros profesionales relacionados con otras industrias manufactureras",
          "_links": {
            "self": {
              "name": "Otros profesionales relacionados con otras industrias manufactureras",
              "href": "https://api.euskadi.eus/procurements/companies/economic-activities/2.399"
            }
          }
        }
      ],
      "certificateStartDate": "2024-07-01",
      "certificateEndDate": "2025-01-01",
      "object": "VENTA AL POR MAYOR DE CAMISERÍA, LENCERÍA, MERCERÍA Y GÉNEROS DE PUNTO. FABRICACIÓN DE RELOJES Y OTROS INSTRUMENTOS N.C.O.P.",
      "mainEntityOfPage": "https://www.contratacion.euskadi.eus/webkpe00-kperoc/es/ac71aBusquedaRegistrosWar/empresa/08196",
      "_links": {
        "self": {
          "name": "SILVIA TUBIA TREVIÑO",
          "href": "https://api.euskadi.eus/procurements/companies/08196"
        }
      }
    },
    {
      "name": "ECOPAJA BIOCONSTRUCCION MODULAR S.L.",
      "registrationNumber": "09691",
      "identificationNumber": "B01547454",
      "address": "Calle Mendigorritxu (01015) 138 pab 3",
      "location": {
        "postalCode": "01015",
        "municipality": "Vitoria-Gasteiz",
        "county": "Araba/Álava",
        "municipalityId": "059",
        "countyId": "01"
      },
      "economicActivities": [
        {
          "id": "1.463",
          "name": "Fabricación en serie de piezas de carpintería y parquet",
          "_links": {
            "self": {
              "name": "Fabricación en serie de piezas de carpintería y parquet",
              "href": "https://api.euskadi.eus/procurements/companies/economic-activities/1.463"
            }
          }
        },
        {
          "id": "1.501.1",
          "name": "Construcción completa, reparación y conservación de edificaciones",
          "_links": {
            "self": {
              "name": "Construcción completa, reparación y conservación de edificaciones",
              "href": "https://api.euskadi.eus/procurements/companies/economic-activities/1.501.1"
            }
          }
        },
        {
          "id": "1.653.4",
          "name": "Venta al por menor de material de construcción y mobiliario de saneamiento",
          "_links": {
            "self": {
              "name": "Venta al por menor de material de construcción y mobiliario de saneamiento",
              "href": "https://api.euskadi.eus/procurements/companies/economic-activities/1.653.4"
            }
          }
        }
      ],
      "certificateStartDate": "2024-07-01",
      "certificateEndDate": "2024-12-12",
      "object": "FABRICACIÓN DE PIEZAS Y ESTRUCTURAS DE MADERA. CONSTRUCCIÓN, REPARACIÓN Y CONSERVACIÓN DE EDIFICACIONES. COMPRAVENTA, IMPORTACIÓN Y EXPORTACIÓN DE MATERIALES PARA LA CONSTRUCIÓN DE EDIFICIOS. LA ADQUISICIÓN DE FINCAS, SOLARES O INMUEBLES, VENTA, ALQUILER, CESIÓN O TRANSMISICÓN DE LAS MISMAS POR CUALQUIER TÍTULO; LA PROMOCIÓN Y CONSTRUCCIÓN DIRECTA O A TRAVÉS DE CONTRATOS QUE SE SUSCRIBAN CON TERCEROS DE INMUEBLES.",
      "mainEntityOfPage": "https://www.contratacion.euskadi.eus/webkpe00-kperoc/es/ac71aBusquedaRegistrosWar/empresa/09691",
      "_links": {
        "self": {
          "name": "ECOPAJA BIOCONSTRUCCION MODULAR S.L.",
          "href": "https://api.euskadi.eus/procurements/companies/09691"
        }
      }
    },
    {
      "name": "ENVIRONMENT AND SYSTEMS, S.A.",
      "registrationNumber": "01411",
      "identificationNumber": "A48174429",
      "address": "C/ LUIS BRIÑAS, Nº 9 - 1º IZDA.",
      "location": {
        "postalCode": "48013",
        "municipality": "Bilbao",
        "county": "Bizkaia",
        "municipalityId": "020",
        "countyId": "48"
      },
      "economicActivities": [
        {
          "id": "1.699",
          "name": "Otras reparaciones n.c.o.p",
          "_links": {
            "self": {
              "name": "Otras reparaciones n.c.o.p",
              "href": "https://api.euskadi.eus/procurements/companies/economic-activities/1.699"
            }
          }
        },
        {
          "id": "1.843.1",
          "name": "Servicios técnicos de ingeniería",
          "_links": {
            "self": {
              "name": "Servicios técnicos de ingeniería",
              "href": "https://api.euskadi.eus/procurements/companies/economic-activities/1.843.1"
            }
          }
        }
      ],
      "certificateStartDate": "2024-07-01",
      "certificateEndDate": "2025-01-01",
      "object": "LA PRESTACIÓN Y SUMINISTRO DE TODA CLASE DE SERVICIOS DE CONSULTORÍA Y ASISTENCIA TÉCNICA EN LAS ÁREAS DE MEDIO AMBIENTE, ENERGÍA, SIMULACIÓN Y CONTROL DE PROCESOS, Y APLICACIONES INFORMÁTICAS RELACIONADAS, EN SUS DIFERENTES MODALIDADES Y FORMAS. EL DISEÑO, DESARROLLO, MONTAJE, IMPORTACIÓN, COMPRA, VENTA Y EXPLOTACIÓN DE COMPONENTES, EQUIPOS Y SISTEMAS DE MEDIDA, CÁLCULO Y CONTROL RELACIONADOS CON LAS ÁREAS ANTERIORES. LA ADQUISICIÓN POR CUALQUIER TÍTULO DE DERECHOS DE PATENTE, MARCAS, CERTIFICADOS DE INVENCIÓN, DISEÑOS INDUSTRIALES, NOMBRES COMERCIALES, DERECHOS DE AUTOR Y SOLICITUDES RESPECTO A LOS MISMOS",
      "mainEntityOfPage": "https://www.contratacion.euskadi.eus/webkpe00-kperoc/es/ac71aBusquedaRegistrosWar/empresa/01411",
      "_links": {
        "self": {
          "name": "ENVIRONMENT AND SYSTEMS, S.A.",
          "href": "https://api.euskadi.eus/procurements/companies/01411"
        }
      }
    },
    {
      "name": "LORAITZ, S.C.",
      "registrationNumber": "09390",
      "identificationNumber": "J01497379",
      "address": "los chocolateros 28 bajo",
      "location": {
        "postalCode": "01300",
        "municipality": "Laguardia",
        "county": "Araba/Álava",
        "municipalityId": "031",
        "countyId": "01"
      },
      "economicActivities": [
        {
          "id": "1.952",
          "name": "Asistencia y servicios sociales en centros no residenciales",
          "_links": {
            "self": {
              "name": "Asistencia y servicios sociales en centros no residenciales",
              "href": "https://api.euskadi.eus/procurements/companies/economic-activities/1.952"
            }
          }
        }
      ],
      "certificateStartDate": "2024-07-01",
      "certificateEndDate": "2025-01-01",
      "object": "LA EXPLOTACIÓN COMÚN DE UN NEGOCIO DESTINADO A LA ACTIVIDAD DE ASISTENCIA Y SERVICIOS SOCIALES PARA ANCIANOS (CENTRO DE DÍA).",
      "mainEntityOfPage": "https://www.contratacion.euskadi.eus/webkpe00-kperoc/es/ac71aBusquedaRegistrosWar/empresa/09390",
      "_links": {
        "self": {
          "name": "LORAITZ, S.C.",
          "href": "https://api.euskadi.eus/procurements/companies/09390"
        }
      }
    },
    {
      "name": "DAIRI MARTÍNEZ BROWN",
      "registrationNumber": "09687",
      "identificationNumber": "24542653C",
      "address": "CALLE SARACHO 42A",
      "location": {
        "postalCode": "39798",
        "municipality": "Castro-Urdiales",
        "county": "Cantabria",
        "municipalityId": "020",
        "countyId": "39"
      },
      "economicActivities": [
        {
          "id": "2.826",
          "name": "Personal docente de enseñanzas diversas",
          "_links": {
            "self": {
              "name": "Personal docente de enseñanzas diversas",
              "href": "https://api.euskadi.eus/procurements/companies/economic-activities/2.826"
            }
          }
        },
        {
          "id": "3.022",
          "name": "Bailarines",
          "_links": {
            "self": {
              "name": "Bailarines",
              "href": "https://api.euskadi.eus/procurements/companies/economic-activities/3.022"
            }
          }
        }
      ],
      "certificateStartDate": "2024-07-01",
      "certificateEndDate": "2024-12-19",
      "object": "PERSONAL DOCENTE DE ENSEÑANZAS DIVERSAS. BAILARINES.",
      "mainEntityOfPage": "https://www.contratacion.euskadi.eus/webkpe00-kperoc/es/ac71aBusquedaRegistrosWar/empresa/09687",
      "_links": {
        "self": {
          "name": "DAIRI MARTÍNEZ BROWN",
          "href": "https://api.euskadi.eus/procurements/companies/09687"
        }
      }
    },
    {
      "name": "MOTOR GORBEA, S.A.U.",
      "registrationNumber": "08239",
      "identificationNumber": "A01204411",
      "address": "Calle Alto de Armentia (01007), Nº 14",
      "location": {
        "postalCode": "01007",
        "municipality": "Vitoria-Gasteiz",
        "county": "Araba/Álava",
        "municipalityId": "059",
        "countyId": "01"
      },
      "economicActivities": [
        {
          "id": "1.654.1",
          "name": "Venta al por menor de vehículos terrestres",
          "_links": {
            "self": {
              "name": "Venta al por menor de vehículos terrestres",
              "href": "https://api.euskadi.eus/procurements/companies/economic-activities/1.654.1"
            }
          }
        }
      ],
      "certificateStartDate": "2024-06-30",
      "certificateEndDate": "2024-12-30",
      "object": "LA REPRESENTACIÓN, COMPRAVENTA, ALQUILER Y REPARACIÓN DE AUTOMÓVILES, MOTOCICLETAS Y TODA CLASE DE VEHÍCULOS DE MOTOR; SUMINISTRO DE REPUESTO ACCESORIOS, LUBRICANTES Y COMBUSTIBLES PARA ELLOS.\n",
      "mainEntityOfPage": "https://www.contratacion.euskadi.eus/webkpe00-kperoc/es/ac71aBusquedaRegistrosWar/empresa/08239",
      "_links": {
        "self": {
          "name": "MOTOR GORBEA, S.A.U.",
          "href": "https://api.euskadi.eus/procurements/companies/08239"
        }
      }
    },
    {
      "name": "ABANDO 2000 CORREDURÍA DE SEGUROS",
      "registrationNumber": "08203",
      "identificationNumber": "B95122479",
      "address": "Plaza Errekalde, nº 3 - Lonja 6",
      "location": {
        "postalCode": "48940",
        "municipality": "Leioa",
        "county": "Bizkaia",
        "municipalityId": "054",
        "countyId": "48"
      },
      "economicActivities": [
        {
          "id": "1.832.1",
          "name": "Agencias de seguros y corredurías de seguros",
          "_links": {
            "self": {
              "name": "Agencias de seguros y corredurías de seguros",
              "href": "https://api.euskadi.eus/procurements/companies/economic-activities/1.832.1"
            }
          }
        }
      ],
      "certificateStartDate": "2024-06-29",
      "certificateEndDate": "2024-12-29",
      "object": "LA CORREDURÍA DE SEGUROS, PUDIENDO PRODUCIR, GESTIONAR Y PROPONER LA CONTRATACIÓN DE TODA CLASE, PROMOCIÓN, MEDIACIÓN Y ASESORAMIENTO EN SEGUROS Y QUE SE RELACIONE CON LA CORREDURÍA DE SEGUROS, QUE EXISTA O SE CREE EN EL FUTURO DE ACUERDO CON LAS DISPOSICIONES LEGALES VIGENTES EN SU MOMENTO. DESARROLLAR ACTIVIDADES DE AGENCIA CON EL CARÁCTER DE AGENTE DE ENTIDAD DE CRÉDITO AL AMPARO DEL ART. 22 RD 1245/95 Y REPRESENTANTE DE SOCIEDAD DE VALORES.",
      "mainEntityOfPage": "https://www.contratacion.euskadi.eus/webkpe00-kperoc/es/ac71aBusquedaRegistrosWar/empresa/08203",
      "_links": {
        "self": {
          "name": "ABANDO 2000 CORREDURÍA DE SEGUROS",
          "href": "https://api.euskadi.eus/procurements/companies/08203"
        }
      }
    },
    {
      "name": "SELCANSA SA",
      "registrationNumber": "08198",
      "identificationNumber": "A39482385",
      "address": "Calle Marie Curie Parcelas 25-26",
      "location": {
        "postalCode": "39011",
        "municipality": "Santander",
        "county": "Cantabria",
        "municipalityId": "075",
        "countyId": "39"
      },
      "economicActivities": [
        {
          "id": "1.615.4",
          "name": "Venta al por mayor de aparatos y material radioeléctrico y electrónico",
          "_links": {
            "self": {
              "name": "Venta al por mayor de aparatos y material radioeléctrico y electrónico",
              "href": "https://api.euskadi.eus/procurements/companies/economic-activities/1.615.4"
            }
          }
        }
      ],
      "certificateStartDate": "2024-06-29",
      "certificateEndDate": "2024-12-29",
      "object": "LA COMERCIALIZACIÓN DE TODO TIPO DE MATERIAL Y COMPONENTES ELÉCTRICOS, ELECTRÓNICOS Y ELECTRODOMÉSTICOS.",
      "mainEntityOfPage": "https://www.contratacion.euskadi.eus/webkpe00-kperoc/es/ac71aBusquedaRegistrosWar/empresa/08198",
      "_links": {
        "self": {
          "name": "SELCANSA SA",
          "href": "https://api.euskadi.eus/procurements/companies/08198"
        }
      }
    }
  ]
}