{
  "totalItems": 9042,
  "totalPages": 905,
  "currentPage": 871,
  "itemsOfPage": 10,
  "items": [
    {
      "name": "ALDAMA GIL TECHNOLOGY, S.L.",
      "registrationNumber": "04724",
      "identificationNumber": "B01385889",
      "address": "VIRGEN DEL CARMEN, 37, BAJO",
      "location": {
        "postalCode": "01400",
        "municipality": "Laudio/Llodio",
        "county": "Araba/Álava",
        "municipalityId": "036",
        "countyId": "01"
      },
      "object": ".",
      "mainEntityOfPage": "https://www.contratacion.euskadi.eus/webkpe00-kperoc/es/ac71aBusquedaRegistrosWar/empresa/04724",
      "_links": {
        "self": {
          "name": "ALDAMA GIL TECHNOLOGY, S.L.",
          "href": "https://api.euskadi.eus/procurements/companies/04724"
        }
      }
    },
    {
      "name": "LIMPIEZAS DE LA MANCOMUNIDAD DE LA LLANADA, S.L.",
      "registrationNumber": "04725",
      "identificationNumber": "B01312834",
      "address": "C/ TRES DE MARZO, 7 BAJO",
      "location": {
        "postalCode": "01200",
        "municipality": "Agurain/Salvatierra",
        "county": "Araba/Álava",
        "municipalityId": "051",
        "countyId": "01"
      },
      "object": ".",
      "mainEntityOfPage": "https://www.contratacion.euskadi.eus/webkpe00-kperoc/es/ac71aBusquedaRegistrosWar/empresa/04725",
      "_links": {
        "self": {
          "name": "LIMPIEZAS DE LA MANCOMUNIDAD DE LA LLANADA, S.L.",
          "href": "https://api.euskadi.eus/procurements/companies/04725"
        }
      }
    },
    {
      "name": "LABORATORIOS BUSTURIA, S.A.",
      "registrationNumber": "04726",
      "identificationNumber": "A79809331",
      "address": "DR. ACHUCARRO, 10 - 5º IZDA",
      "location": {
        "postalCode": "48011",
        "municipality": "Bilbao",
        "county": "Bizkaia",
        "municipalityId": "020",
        "countyId": "48"
      },
      "object": ".",
      "mainEntityOfPage": "https://www.contratacion.euskadi.eus/webkpe00-kperoc/es/ac71aBusquedaRegistrosWar/empresa/04726",
      "_links": {
        "self": {
          "name": "LABORATORIOS BUSTURIA, S.A.",
          "href": "https://api.euskadi.eus/procurements/companies/04726"
        }
      }
    },
    {
      "name": "FORINVEST EUROPEA,  S.L.",
      "registrationNumber": "04739",
      "identificationNumber": "B98046451",
      "address": "BARRIO MENDIONDO",
      "location": {
        "postalCode": "48610",
        "municipality": "Urduliz",
        "county": "Bizkaia",
        "municipalityId": "089",
        "countyId": "48"
      },
      "object": ".",
      "mainEntityOfPage": "https://www.contratacion.euskadi.eus/webkpe00-kperoc/es/ac71aBusquedaRegistrosWar/empresa/04739",
      "_links": {
        "self": {
          "name": "FORINVEST EUROPEA,  S.L.",
          "href": "https://api.euskadi.eus/procurements/companies/04739"
        }
      }
    },
    {
      "name": "SISTEMAS DE OFICINA DE GIPUZKOA, S.L.",
      "registrationNumber": "04741",
      "identificationNumber": "B-20719696",
      "address": "PASEO DE BERIO, 11 BAJO IZQ.",
      "location": {
        "postalCode": "20018",
        "municipality": "Donostia / San Sebastián",
        "county": "Gipuzkoa",
        "municipalityId": "069",
        "countyId": "20"
      },
      "object": "1",
      "mainEntityOfPage": "https://www.contratacion.euskadi.eus/webkpe00-kperoc/es/ac71aBusquedaRegistrosWar/empresa/04741",
      "_links": {
        "self": {
          "name": "SISTEMAS DE OFICINA DE GIPUZKOA, S.L.",
          "href": "https://api.euskadi.eus/procurements/companies/04741"
        }
      }
    },
    {
      "name": "URKIE 76, S.L.",
      "registrationNumber": "04742",
      "identificationNumber": "B95253480",
      "address": "C/ITXINA, 3 BAJO",
      "location": {
        "postalCode": "48410",
        "municipality": "Orozko",
        "county": "Bizkaia",
        "municipalityId": "075",
        "countyId": "48"
      },
      "object": ".",
      "mainEntityOfPage": "https://www.contratacion.euskadi.eus/webkpe00-kperoc/es/ac71aBusquedaRegistrosWar/empresa/04742",
      "_links": {
        "self": {
          "name": "URKIE 76, S.L.",
          "href": "https://api.euskadi.eus/procurements/companies/04742"
        }
      }
    },
    {
      "name": "SERVICIOS INTEGRALES DE LIMPIEZA ZULENE, S.L.",
      "registrationNumber": "04750",
      "identificationNumber": "B01303247",
      "address": "C/PARAGUAY, 34 BAJO",
      "location": {
        "postalCode": "01012",
        "municipality": "Vitoria-Gasteiz",
        "county": "Araba/Álava",
        "municipalityId": "059",
        "countyId": "01"
      },
      "object": ".",
      "mainEntityOfPage": "https://www.contratacion.euskadi.eus/webkpe00-kperoc/es/ac71aBusquedaRegistrosWar/empresa/04750",
      "_links": {
        "self": {
          "name": "SERVICIOS INTEGRALES DE LIMPIEZA ZULENE, S.L.",
          "href": "https://api.euskadi.eus/procurements/companies/04750"
        }
      }
    },
    {
      "name": "ALEBOST, S.L.",
      "registrationNumber": "04751",
      "identificationNumber": "B01306869",
      "address": "C/ZUMETA, BLOQUE 2 PAB.6",
      "location": {
        "postalCode": "01200",
        "municipality": "Agurain/Salvatierra",
        "county": "Araba/Álava",
        "municipalityId": "051",
        "countyId": "01"
      },
      "object": ".",
      "mainEntityOfPage": "https://www.contratacion.euskadi.eus/webkpe00-kperoc/es/ac71aBusquedaRegistrosWar/empresa/04751",
      "_links": {
        "self": {
          "name": "ALEBOST, S.L.",
          "href": "https://api.euskadi.eus/procurements/companies/04751"
        }
      }
    },
    {
      "name": "REDLINE ASESORES, S.L.",
      "registrationNumber": "04753",
      "identificationNumber": "B48582233",
      "address": "MUELLE TOMAS OLABARRI, 4 1º iZDA.",
      "location": {
        "postalCode": "48930",
        "municipality": "Getxo",
        "county": "Bizkaia",
        "municipalityId": "044",
        "countyId": "48"
      },
      "object": ".",
      "mainEntityOfPage": "https://www.contratacion.euskadi.eus/webkpe00-kperoc/es/ac71aBusquedaRegistrosWar/empresa/04753",
      "_links": {
        "self": {
          "name": "REDLINE ASESORES, S.L.",
          "href": "https://api.euskadi.eus/procurements/companies/04753"
        }
      }
    },
    {
      "name": "SERVICIO DE ACTIVIDADES FISICAS Y DEPORTES., S.L.",
      "registrationNumber": "04754",
      "identificationNumber": "B01309988",
      "address": "C/ LABURDI, Nº 3",
      "location": {
        "postalCode": "01400",
        "municipality": "Laudio/Llodio",
        "county": "Araba/Álava",
        "municipalityId": "036",
        "countyId": "01"
      },
      "object": ".",
      "mainEntityOfPage": "https://www.contratacion.euskadi.eus/webkpe00-kperoc/es/ac71aBusquedaRegistrosWar/empresa/04754",
      "_links": {
        "self": {
          "name": "SERVICIO DE ACTIVIDADES FISICAS Y DEPORTES., S.L.",
          "href": "https://api.euskadi.eus/procurements/companies/04754"
        }
      }
    }
  ]
}