{
  "totalItems": 9042,
  "totalPages": 905,
  "currentPage": 415,
  "itemsOfPage": 10,
  "items": [
    {
      "name": "GOODLINK CONSULTING, S.L.",
      "registrationNumber": "09146",
      "identificationNumber": "B13733316",
      "address": "Avenida Mar Mediterraneo, 85.4D",
      "location": {
        "postalCode": "28341",
        "municipality": "Valdemoro",
        "county": "Madrid",
        "municipalityId": "161",
        "countyId": "28"
      },
      "economicActivities": [
        {
          "id": "1.936.1",
          "name": "Investigación en ciencias exactas y naturales",
          "_links": {
            "self": {
              "name": "Investigación en ciencias exactas y naturales",
              "href": "https://api.euskadi.eus/procurements/companies/economic-activities/1.936.1"
            }
          }
        }
      ],
      "certificateStartDate": "2024-06-28",
      "certificateEndDate": "2024-12-28",
      "object": "ACTIVIDAD PRINCIPAL: 70.21 / RELACIONES PÚBLICAS Y COMUNICACIÓN. OTRAS ACTIVIDADES: 60.20 / ACTIVIDADES DE PROGRAMACIÓN Y EMISIÓN DE TELEVISIÓN, 70.22 / OTRAS ACTIVIDADES DE CONSULTORÍA DE GESTIÓN EMPRESARIAL, 62.01 / ACTIVIDADES DE PROGRAMACIÓN INFORMÁTICA, 60.10 / ACTIVIDADES DE RADIODIFUSIÓN, 59.17 / ACTIVIDADES DE DISTRIBUCIÓN CINEMATOGRÁFICA Y DE VÍDEO, 71.20 / ENSAYOS Y ANÁLISIS TÉCNICOS, 72.19 / OTRA INVESTIGACIÓN Y DESARROLLO EXPERIMENTAL EN CIENCIAS NATURALES Y TÉCNICAS.",
      "mainEntityOfPage": "https://www.contratacion.euskadi.eus/webkpe00-kperoc/es/ac71aBusquedaRegistrosWar/empresa/09146",
      "_links": {
        "self": {
          "name": "GOODLINK CONSULTING, S.L.",
          "href": "https://api.euskadi.eus/procurements/companies/09146"
        }
      }
    },
    {
      "name": "EMARGI KOOP. ELK. TXIKIA",
      "registrationNumber": "09152",
      "identificationNumber": "F09778754",
      "address": "C/Barrenkale 34 1º",
      "location": {
        "postalCode": "48005",
        "municipality": "Bilbao",
        "county": "Bizkaia",
        "municipalityId": "020",
        "countyId": "48"
      },
      "economicActivities": [
        {
          "id": "1.847",
          "name": "Servicios de consultoría",
          "_links": {
            "self": {
              "name": "Servicios de consultoría",
              "href": "https://api.euskadi.eus/procurements/companies/economic-activities/1.847"
            }
          }
        },
        {
          "id": "1.932.1",
          "name": "Enseñanza de formación y perfeccionamiento profesional no superior",
          "_links": {
            "self": {
              "name": "Enseñanza de formación y perfeccionamiento profesional no superior",
              "href": "https://api.euskadi.eus/procurements/companies/economic-activities/1.932.1"
            }
          }
        }
      ],
      "certificateStartDate": "2024-06-28",
      "certificateEndDate": "2024-12-28",
      "object": "-DISEÑAR E IMPLEMENTAR PROGRAMAS, PROYECTOS, PROTOCOLOS Y CAMPAÑAS DE PREVENCIÓN, SENSIBILIZACIÓN E INTERVENCIÓN EN MATERIA DE IGUALDAD. -DISEÑAR E IMPLEMENTAR FORMACIÓN FUERA Y DENTRO DEL ESTABLECIMIENTO, PRESENCIAL Y ON-LINE. -ACTIVIDADES CULTURALES. -FORMULACIÓN E IMPLEMENTACIÓN DE PLANES DE IGUALDAD. -INCIDENCIA POLÍTICA (PARTICIPACIÓN EN MESAS DE TRABAJO CON LOS AGENTES Y LAS INSTITUCIONES IMPLICADAS EN LA IGUALDAD ENTRE MUJERES Y HOMBRES). -CREACIÓN DE ESPACIO DE ENCUENTRO ENTRE MUJERES. ATENCIÓN E INTERVENCIÓN CON MUJERES DESDE UNA PERSPECTIVA BIOPSICOSOCIAL. -ELABORACIÓN DE INFORMES DE INVESTIGACIÓN. -CREACIÓN Y PUBLICACIÓN DE MATERIALES DIDÁCTICOS (CULTURALES, TEÓRICOS Y PEDAGÓGICOS. -CONSULTORÍA EN MATERIA DE IGUALDAD. -CLASES DE ACTIVIDADES FÍSICAS (YOGA, PILATES, DANZA, ETC.).-VENTA DE PRODUCTOS RELACIONADOS CON TODO LO ANTERIOR.",
      "mainEntityOfPage": "https://www.contratacion.euskadi.eus/webkpe00-kperoc/es/ac71aBusquedaRegistrosWar/empresa/09152",
      "_links": {
        "self": {
          "name": "EMARGI KOOP. ELK. TXIKIA",
          "href": "https://api.euskadi.eus/procurements/companies/09152"
        }
      }
    },
    {
      "name": "AIALME 1973 INGENIEROS, S.L.",
      "registrationNumber": "09169",
      "identificationNumber": "B95550067",
      "address": "RODRIGUEZ ARIAS 46-3D",
      "location": {
        "postalCode": "48011",
        "municipality": "Bilbao",
        "county": "Bizkaia",
        "municipalityId": "020",
        "countyId": "48"
      },
      "economicActivities": [
        {
          "id": "1.843.1",
          "name": "Servicios técnicos de ingeniería",
          "_links": {
            "self": {
              "name": "Servicios técnicos de ingeniería",
              "href": "https://api.euskadi.eus/procurements/companies/economic-activities/1.843.1"
            }
          }
        }
      ],
      "certificateStartDate": "2024-06-27",
      "certificateEndDate": "2024-12-27",
      "object": "LA ACTIVIDAD PROPIA DEL EJERCICIO DE LA INGENIERÍA INDUSTRIAL",
      "mainEntityOfPage": "https://www.contratacion.euskadi.eus/webkpe00-kperoc/es/ac71aBusquedaRegistrosWar/empresa/09169",
      "_links": {
        "self": {
          "name": "AIALME 1973 INGENIEROS, S.L.",
          "href": "https://api.euskadi.eus/procurements/companies/09169"
        }
      }
    },
    {
      "name": "RITMAS INFORMATICA SOCIEDAD LIMITADA",
      "registrationNumber": "08612",
      "identificationNumber": "B95223350",
      "address": "c/ María Vallejo 4 lonja",
      "location": {
        "postalCode": "48920",
        "municipality": "Portugalete",
        "county": "Bizkaia",
        "municipalityId": "078",
        "countyId": "48"
      },
      "economicActivities": [
        {
          "id": "1.845",
          "name": "Explotación electrónica por cuenta de terceros",
          "_links": {
            "self": {
              "name": "Explotación electrónica por cuenta de terceros",
              "href": "https://api.euskadi.eus/procurements/companies/economic-activities/1.845"
            }
          }
        }
      ],
      "certificateStartDate": "2024-06-27",
      "certificateEndDate": "2024-12-27",
      "object": "A) LA PRESTACIÓN DE SERVICIOS DE CONSULTORÍA INFORMÁTICA, DISEÑO DE REDES Y ASESORAMIENTO EN TODOS LOS ELEMENTOS QUE COMPONEN LAS INSTALACIONES INFORMÁTICAS EN LA EMPRESA CON EL FIN DE LOGRAR LA OPTIMIZACIÓN DE LOS RECURSOS INFORMÁTICOS DE LA MISMA. B) LA VENTA Y MANTENIMIENTO DE EQUIPOS INFORMÁTICOS Y SOFTWARE, CREACIÓN Y MANTENIMIENTO DE PÁGINAS WEBS, ELABORACIÓN DE SOFTWARE A MEDIDA, DISEÑO DE REDES, SISTEMAS OPERATIVOS DEDICADOS A LOS SERVIDORES, CURSOS DE FORMACIÓN ESPECIALIZADOS Y ASESORAMIENTO INFORMÁTICO. C) LA PRESTACIÓN DE TODA CLASE DE SERVICIOS DE PLANTIFICACIÓN, PROMOCIÓN, ADMINISTRACIÓN, GESTIÓN, REPRESENTACIÓN Y ASESORAMIENTO DE CARÁCTER ECONÓMICO, FINANCIERO, TRIBUTARIO, JURÍDICO Y CONTABLE, TODO ELLO EN SU MÁS AMPLIA ACEPCIÓN, A FAVOR DE TODA CLASE DE EMPRESAS Y PERSONAS FÍSICAS O JURÍDICAS, Y EN GENERAL, LA PRESENTACIÓN DE TODOS LOS SERVICIOS DE ASESORAMIENTO PROFESIONAL RELACIONADOS CON LA EMPRESA, CONTANDO AL EFECTO CON PERSONAL HABILITADO LEGALMENTE PARA EL EJERCICIO DE DICHAS ACTIVIDADES, EN AQUELLOS SUPUESTOS EN QUE TAL HABILITACIÓN SEA EXIGIDO POR LAS LEYES. D) LA ADQUISICIÓN, POSESIÓN, ADMINISTRACIÓN, GRAVAMEN EXPLOTACIÓN Y ENAJENACIÓN DE TODA CLASE DE BIENES Y DERECHOS, INCLUIDOS TODA CLASE DE VALORES MOBILIARIOS, PARTICIPACIONES SOCIALES, EFECTOS DE COMERCIO, BIENES MUEBLES E INMUEBLES, EN GENERAL Y DERECHOS DE PROPIEDAD INDUSTRIAL O INTELECTUAL, TODOS ELLOS POR CUENTA PROPIA Y SIN EJERCER LA INTERMEDIACIÓN.\n",
      "mainEntityOfPage": "https://www.contratacion.euskadi.eus/webkpe00-kperoc/es/ac71aBusquedaRegistrosWar/empresa/08612",
      "_links": {
        "self": {
          "name": "RITMAS INFORMATICA SOCIEDAD LIMITADA",
          "href": "https://api.euskadi.eus/procurements/companies/08612"
        }
      }
    },
    {
      "name": "AQUACORP, S.L.",
      "registrationNumber": "09677",
      "identificationNumber": "B24719577",
      "address": "Calle Principal 4 ",
      "location": {
        "postalCode": "24125",
        "municipality": "Soto y Amío",
        "county": "León",
        "municipalityId": "167",
        "countyId": "24"
      },
      "economicActivities": [
        {
          "id": "1.999",
          "name": "Otros servicios n.c.o.p",
          "_links": {
            "self": {
              "name": "Otros servicios n.c.o.p",
              "href": "https://api.euskadi.eus/procurements/companies/economic-activities/1.999"
            }
          }
        }
      ],
      "certificateStartDate": "2024-06-27",
      "certificateEndDate": "2024-12-27",
      "object": "EL DESARROLLO DE SOLUCIONES TECNOLÓGICAS INNOVADORAS QUE RESUELVEN NECESIDADES RELACIONADAS CON LOS ECOSISTEMAS FLUVIALES Y MARINOS Y LA CALIDAD DE SUS AGUAS, PROGRAMACIÓN INFORMÁTICA, FABRICACIÓN DE CIRCUITOS IMPRESOS ENSAMBLADOS Y CONSULTORÍA INFORMÁTICA.",
      "mainEntityOfPage": "https://www.contratacion.euskadi.eus/webkpe00-kperoc/es/ac71aBusquedaRegistrosWar/empresa/09677",
      "_links": {
        "self": {
          "name": "AQUACORP, S.L.",
          "href": "https://api.euskadi.eus/procurements/companies/09677"
        }
      }
    },
    {
      "name": "PAVIMENTOS DE HORMIGON GERNIKA, S.L.",
      "registrationNumber": "09676",
      "identificationNumber": "B95599775",
      "address": "URRENGOERROTA, 5",
      "location": {
        "postalCode": "48300",
        "municipality": "Gernika-Lumo",
        "county": "Bizkaia",
        "municipalityId": "046",
        "countyId": "48"
      },
      "economicActivities": [
        {
          "id": "1.505.2",
          "name": "Solados y pavimentos de todas clases en cualquier tipo de obra",
          "_links": {
            "self": {
              "name": "Solados y pavimentos de todas clases en cualquier tipo de obra",
              "href": "https://api.euskadi.eus/procurements/companies/economic-activities/1.505.2"
            }
          }
        }
      ],
      "certificateStartDate": "2024-06-27",
      "certificateEndDate": "2024-12-19",
      "object": "LA FABRICACIÓN, IMPORTACIÓN, EXPORTACIÓN, VENTA, DISTRIBUCIÓN AL POR MAYOR Y MENOR DE TODA CLASE DE PAVIMENTOS, ASÍ COMO SU INSTALACIÓN, TANTO POR CUENTA PROPIA O AJENA, ASÍ COMO EN OBRA PÚBLICA O PRIVADA.",
      "mainEntityOfPage": "https://www.contratacion.euskadi.eus/webkpe00-kperoc/es/ac71aBusquedaRegistrosWar/empresa/09676",
      "_links": {
        "self": {
          "name": "PAVIMENTOS DE HORMIGON GERNIKA, S.L.",
          "href": "https://api.euskadi.eus/procurements/companies/09676"
        }
      }
    },
    {
      "name": "ESVEU MEDIA SYSTEMS, S.L.",
      "registrationNumber": "09675",
      "identificationNumber": "B97630636",
      "address": "Felix Rodriguez de la Fuente, 3",
      "location": {
        "postalCode": "46185",
        "municipality": "Pobla de Vallbona, la",
        "county": "Valencia/València",
        "municipalityId": "202",
        "countyId": "46"
      },
      "economicActivities": [
        {
          "id": "1.845",
          "name": "Explotación electrónica por cuenta de terceros",
          "_links": {
            "self": {
              "name": "Explotación electrónica por cuenta de terceros",
              "href": "https://api.euskadi.eus/procurements/companies/economic-activities/1.845"
            }
          }
        },
        {
          "id": "1.961.1",
          "name": "Producción de películas cinematográficas (incluso vídeos)",
          "_links": {
            "self": {
              "name": "Producción de películas cinematográficas (incluso vídeos)",
              "href": "https://api.euskadi.eus/procurements/companies/economic-activities/1.961.1"
            }
          }
        }
      ],
      "certificateStartDate": "2024-06-27",
      "certificateEndDate": "2024-12-07",
      "object": "PRODUCCIONES Y SERVICIOS AUDIOVISUALES.",
      "mainEntityOfPage": "https://www.contratacion.euskadi.eus/webkpe00-kperoc/es/ac71aBusquedaRegistrosWar/empresa/09675",
      "_links": {
        "self": {
          "name": "ESVEU MEDIA SYSTEMS, S.L.",
          "href": "https://api.euskadi.eus/procurements/companies/09675"
        }
      }
    },
    {
      "name": "ASOCIACION EKOALDE ELKARTEA",
      "registrationNumber": "09116",
      "identificationNumber": "G71361455",
      "address": "Carretera de Salinas, s/n, polígono Motxoli",
      "location": {
        "postalCode": "31110",
        "municipality": "Noáin (Valle de Elorz)/Noain (Elortzibar)",
        "county": "Navarra",
        "municipalityId": "088",
        "countyId": "31"
      },
      "economicActivities": [
        {
          "id": "1.612.1",
          "name": "Venta al por mayor de toda clase de productos alimenticios, bebidas, tabaco",
          "_links": {
            "self": {
              "name": "Venta al por mayor de toda clase de productos alimenticios, bebidas, tabaco",
              "href": "https://api.euskadi.eus/procurements/companies/economic-activities/1.612.1"
            }
          }
        }
      ],
      "certificateStartDate": "2024-06-26",
      "certificateEndDate": "2024-12-26",
      "object": "- POTENCIAR LA ECONOMÍA LOCAL Y SOLIDARIA Y EL CONSUMO RESPONSABLE DE ALIMENTACIÓN ECOLÓGICA DE PRODUCTORES Y ELABORADORES DE NAVARRA. - PROMOVER Y FACILITAR LA COOPERACIÓN Y LA COLABORACIÓN ENTRE PRODUCTORES Y ELABORADORES DE ALIMENTACIÓN ECOLÓGICA DE NAVARRA PARA MEJORAR SU SOSTENIBILIDAD ECONÓMICA, SOCIAL Y AMBIENTAL. - CUALQUIER OTRO FIN APROBADO VÁLIDAMENTE POR LA ASOCIACIÓN.",
      "mainEntityOfPage": "https://www.contratacion.euskadi.eus/webkpe00-kperoc/es/ac71aBusquedaRegistrosWar/empresa/09116",
      "_links": {
        "self": {
          "name": "ASOCIACION EKOALDE ELKARTEA",
          "href": "https://api.euskadi.eus/procurements/companies/09116"
        }
      }
    },
    {
      "name": "SISTEMAS Y TRATAMIENTOS AUTOMÁTICOS, S.L.",
      "registrationNumber": "01397",
      "identificationNumber": "B48589477",
      "address": "C/ Gran Vía Don Diego López de Haro, Nº 17 - 7ª Planta. ",
      "location": {
        "postalCode": "48001",
        "municipality": "Bilbao",
        "county": "Bizkaia",
        "municipalityId": "020",
        "countyId": "48"
      },
      "economicActivities": [
        {
          "id": "1.845",
          "name": "Explotación electrónica por cuenta de terceros",
          "_links": {
            "self": {
              "name": "Explotación electrónica por cuenta de terceros",
              "href": "https://api.euskadi.eus/procurements/companies/economic-activities/1.845"
            }
          }
        },
        {
          "id": "1.931.4",
          "name": "Enseñanza de varias modalidades regladas",
          "_links": {
            "self": {
              "name": "Enseñanza de varias modalidades regladas",
              "href": "https://api.euskadi.eus/procurements/companies/economic-activities/1.931.4"
            }
          }
        }
      ],
      "certificateStartDate": "2024-06-26",
      "certificateEndDate": "2024-06-23",
      "object": "LAS ACTIVIDADES DE CONSULTORÍA Y ASESORAMIENTO EN EL ÁMBITO DE LAS TECNOLOGÍAS DE LA INFORMÁTICA (ELECTRÓNICA, INFORMÁTICA, TELECOMUNICACIONES Y SISTEMAS MULTIMEDIA), EN RELACIÓN CON LA ESTRATEGIA, GESTIÓN, ORGANIZACIÓN, PRODUCCIÓN Y RECURSOS HUMANOS, DE ENTIDADES PÚBLICAS, PRIVADAS Y PERSONAS FÍSICAS; ACTIVIDADES EDUCATIVAS EN EL ÁMBITO REFERIDO, A TRAVÉS DE LA ORGANIZACIÓN E IMPARTICIÓN DE PLANES DE FORMACIÓN, CURSOS, SEMINARIOS, CONGRESOS Y ENSEÑANZA A DISTANCIA, ASÍ COMO EL ESTABLECIMIENTO DE CENTROS FIJOS O MÓVILES Y SU GESTIÓN DIRECTA O EN FAVOR DE TERCEROS, Y A LA PRODUCCIÓN Y VENTA DE MATERIALES DIDÁCTICOS; ACTIVIDADES DE INGENIERÍA, DISEÑO, DESARROLLO, INSTALACIÓN, DISTRIBUCIÓN Y COMERCIALIZACIÓN DE SISTEMAS DE INFORMACIÓN EMPRESARIAL BASADOS EN TECNOLOGÍAS AVANZADAS; ACTIVIDADES DE VENTA, ALQUILER O CESIÓN DE EQUIPOS Y DE PERSONAL E INSTALACIONES; ACTIVIDADES DE ANÁLISIS Y DESARROLLO DE PROGRAMAS DE ORDENADOR, ASÍ COMO SERVICIOS DE MANTENIMIENTO Y SOPORTE DE LOS MISMOS; ACTIVIDADES DE DISEÑO, DESARROLLO, PRODUCCIÓN Y COMERCIALIZACIÓN DE PUBLICACIONES, MATERIAL AUDIOVISUAL Y OTROS SISTEMAS MULTIMEDIA PARA FORMACIÓN E INFORMACIÓN Y COMUNICACIÓN, TAMBIÉN REFERIDO A TODOS LOS ELEMENTOS NECESARIOS PARA LA TRANSMISIÓN DE DATOS VÍA RADIO",
      "mainEntityOfPage": "https://www.contratacion.euskadi.eus/webkpe00-kperoc/es/ac71aBusquedaRegistrosWar/empresa/01397",
      "_links": {
        "self": {
          "name": "SISTEMAS Y TRATAMIENTOS AUTOMÁTICOS, S.L.",
          "href": "https://api.euskadi.eus/procurements/companies/01397"
        }
      }
    },
    {
      "name": "IDENTIFICACIÓN VISUAL ABEZETA, S.L.",
      "registrationNumber": "08215",
      "identificationNumber": "B33708223",
      "address": "Pol. Ind. Porceyo sector I-13 c/ Galileo Galilei nº 770",
      "location": {
        "postalCode": "33211",
        "municipality": "Gijón",
        "county": "Asturias",
        "municipalityId": "024",
        "countyId": "33"
      },
      "economicActivities": [
        {
          "id": "1.316.9",
          "name": "Fabricación de otros artículos acabados en metales n.c.o.p",
          "_links": {
            "self": {
              "name": "Fabricación de otros artículos acabados en metales n.c.o.p",
              "href": "https://api.euskadi.eus/procurements/companies/economic-activities/1.316.9"
            }
          }
        }
      ],
      "certificateStartDate": "2024-06-25",
      "certificateEndDate": "2024-12-25",
      "object": "LA FABRICACIÓN DE RÓTULOS LUMINOSOS Y DE TODO TIPO, ASÍ COMO LA REALIZACIÓN DE TRABAJOS DE METALISTERÍA, SEÑALIZACIONES, ILUMINACIONES, DECORACIÓN DE LOCALES COMERCIALES Y LA FABRICACIÓN DE OBJETOS PARA DECORACIÓN.",
      "mainEntityOfPage": "https://www.contratacion.euskadi.eus/webkpe00-kperoc/es/ac71aBusquedaRegistrosWar/empresa/08215",
      "_links": {
        "self": {
          "name": "IDENTIFICACIÓN VISUAL ABEZETA, S.L.",
          "href": "https://api.euskadi.eus/procurements/companies/08215"
        }
      }
    }
  ]
}