{
  "totalItems": 9042,
  "totalPages": 905,
  "currentPage": 641,
  "itemsOfPage": 10,
  "items": [
    {
      "name": "BAXTER, S.L.",
      "registrationNumber": "00354",
      "identificationNumber": "B46012696",
      "address": "P.E. SAN FERNANDO, EDIF LONDRES, AVENIDA DE CASTILLA, 2",
      "location": {
        "postalCode": "28830",
        "municipality": "San Fernando de Henares",
        "county": "Madrid",
        "municipalityId": "130",
        "countyId": "28"
      },
      "economicActivities": [
        {
          "id": "1.151.4",
          "name": "Producción de energía no especificada en otros epígrafes",
          "_links": {
            "self": {
              "name": "Producción de energía no especificada en otros epígrafes",
              "href": "https://api.euskadi.eus/procurements/companies/economic-activities/1.151.4"
            }
          }
        },
        {
          "id": "1.614.1",
          "name": "Venta al por mayor de productos farmacéuticos y medicamentos",
          "_links": {
            "self": {
              "name": "Venta al por mayor de productos farmacéuticos y medicamentos",
              "href": "https://api.euskadi.eus/procurements/companies/economic-activities/1.614.1"
            }
          }
        },
        {
          "id": "1.617.8",
          "name": "Venta al por mayor de máquinas y material de oficina",
          "_links": {
            "self": {
              "name": "Venta al por mayor de máquinas y material de oficina",
              "href": "https://api.euskadi.eus/procurements/companies/economic-activities/1.617.8"
            }
          }
        },
        {
          "id": "1.619.2",
          "name": "Venta al por mayor de aparatos e instrumentos médicos, ortopédicos, ópticos",
          "_links": {
            "self": {
              "name": "Venta al por mayor de aparatos e instrumentos médicos, ortopédicos, ópticos",
              "href": "https://api.euskadi.eus/procurements/companies/economic-activities/1.619.2"
            }
          }
        },
        {
          "id": "1.845",
          "name": "Explotación electrónica por cuenta de terceros",
          "_links": {
            "self": {
              "name": "Explotación electrónica por cuenta de terceros",
              "href": "https://api.euskadi.eus/procurements/companies/economic-activities/1.845"
            }
          }
        },
        {
          "id": "1.942.9",
          "name": "Otros servicios sanitarios sin internados, no clasificados",
          "_links": {
            "self": {
              "name": "Otros servicios sanitarios sin internados, no clasificados",
              "href": "https://api.euskadi.eus/procurements/companies/economic-activities/1.942.9"
            }
          }
        }
      ],
      "certificateStartDate": "2017-04-26",
      "certificateEndDate": "2017-10-03",
      "object": "LA FABRICACIÓN, COMERCIALIZACIÓN, IMPORTACIÓN, EXPORTACIÓN Y DISTRIBUCIÓN DE SOLUCIONES, EQUIPOS, Y CATÉTERES INTRAVENOSOS, MATERIAL DESECHABLE Y REUTILIZABLE DE USO HOSPITALARIO, BOLSAS, APARATOS, MÁQUINAS Y SISTEMAS PARA RECOLECCIÓN, ALMACENAMIENTO, TRANSFORMACIÓN, FRACCIONAMIENTO Y TRATAMIENTO DE SANGRE Y/O SUS COMPONENTES; MAQUINARIA, SOLUCIONES, EQUIPOS Y SISTEMAS PARA EL TRATAMIENTO DE LA INSUFICIENCIA RENAL; HEMODERIVADOS Y GAMMAGLOBULINAS; APARATOS, DISPOSITIVOS Y REACTIVOS PARA ANÁLISIS CLÍNICOS Y DE DIAGNÓSTICOS; APARATOS, DISPOSITIVOS, IMPLANTES E INSTRUMENTAL PARA APLICACIONES CARDIOVASCULARES, ASÍ COMO OTROS PRODUCTOS, COMPLEMENTARIOS DE LOS ANTERIORES, CON EXPRESA INCLUSIÓN DE LAS REPARACIONES E INFORMÁTICA PARA GESTIÓN HOSPITALARIA; Y LA ASISTENCIA SANITARIA DE HEMODIALISIS, TANTO DOMICILIARIA COMO EN HOSPITALES Y CENTROS, PRESTADA POR MEDIO DE PROFESIONALES SANITARIOS EN POSESIÓN DE LA ADECUADA TITULACIÓN. LA FABRICACIÓN, IMPORTACIÓN, EXPORTACIÓN, VENTA, DISTRIBUCIÓN, SUMINISTRO Y MANIPULACIÓN DE TODA CLASE DE PRODUCTOS DE USO EN ANESTESIA. LA FABRICACIÓN, IMPORTACIÓN, EXPORTACIÓN, VENTA , DISTRIBUCIÓN, SUMINISTRO Y MANIPULACIÓN DE TODO TIPO DE VACUNAS PARA USO HUMANO Y/O VETERINARIO. LA FABRICACIÓN, IMPORTACIÓN, EXPORTACIÓN, VENTA, DISTRIBUCIÓN Y SUMINISTRO DE TODA CLASE DE PRODUCTOS DE ONCOLOGÍA. LA SEPARACIÓN CELULAR, TANTO PARA TRATAMIENTO DEL CÁNCER COMO LA PRESTACIÓN DE LOS SERVICIOS RELACIONADOS CON SU TRATAMIENTO, PRESTADOS EN SU CASO, POR MEDIO DE PROFESIONALES SANITARIOS, EN POSESIÓN DE LA IDÓNEA TITULACIÓN. LA IMPORTACIÓN, DISTRIBUCIÓN Y COMERCIALIZACIÓN DE TODA CLASE DE ALIMENTOS DESTINADOS AL CONSUMO HUMANO, TANTO FUEREN DIETOTERÁPICOS, COMO DE CUALQUIER OTRO TIPO. Y LA FABRICACIÓN, IMPORTACIÓN, EXPORTACIÓN, VENTA, DISTRIBUCIÓN, SUMINISTRO Y MANIPULACIÓN DE TODA CLASE DE SOLUCIONES INTRAVENOSAS PARA USO VETERINARIO. LA PRODUCCIÓN DE NERGÍA SOLAR, EN LOS TÉRMINOS ESTABLECIDOS EN LA LEY 54/1997, DE 27 DE NOVIEMBRE, DEL SECTOR ELÉCTRICO",
      "mainEntityOfPage": "https://www.contratacion.euskadi.eus/webkpe00-kperoc/es/ac71aBusquedaRegistrosWar/empresa/00354",
      "_links": {
        "self": {
          "name": "BAXTER, S.L.",
          "href": "https://api.euskadi.eus/procurements/companies/00354"
        }
      }
    },
    {
      "name": "GEDI , GRUPO DE PROMOCIÓN E INFRAESTRUCTURAS, S.A.",
      "registrationNumber": "01812",
      "identificationNumber": "A20557294",
      "address": "AVDA. TOLOSA, 121",
      "location": {
        "postalCode": "20018",
        "municipality": "Donostia / San Sebastián",
        "county": "Gipuzkoa",
        "municipalityId": "069",
        "countyId": "20"
      },
      "economicActivities": [
        {
          "id": "1.507",
          "name": "Construcción, reparación y conservación de toda clase obras",
          "_links": {
            "self": {
              "name": "Construcción, reparación y conservación de toda clase obras",
              "href": "https://api.euskadi.eus/procurements/companies/economic-activities/1.507"
            }
          }
        },
        {
          "id": "1.833.2",
          "name": "Promoción de edificaciones",
          "_links": {
            "self": {
              "name": "Promoción de edificaciones",
              "href": "https://api.euskadi.eus/procurements/companies/economic-activities/1.833.2"
            }
          }
        }
      ],
      "certificateStartDate": "2017-04-26",
      "certificateEndDate": "2017-09-30",
      "object": "LA REALIZACIÓN Y/O EJECUCIÓN DE TODO TIPO DE TRABAJOS DE CONSTRUCCIÓN O REPARACIÓN, POR MEDIOS PROPIOS O AJENOS, DE TODA CLASE DE INFRAESTRUCTURAS Y EDIFICACIONES Y LA PRESTACIÓN DE TODO TIPO DE SERVICIOS RELACIONADOS CON DICHOS TRABAJOS, ASÍ COMO TODAS LAS ACTIVIDADES CONEXAS Y/O COMPLEMENTARIAS A LA PRINCIPAL",
      "mainEntityOfPage": "https://www.contratacion.euskadi.eus/webkpe00-kperoc/es/ac71aBusquedaRegistrosWar/empresa/01812",
      "_links": {
        "self": {
          "name": "GEDI , GRUPO DE PROMOCIÓN E INFRAESTRUCTURAS, S.A.",
          "href": "https://api.euskadi.eus/procurements/companies/01812"
        }
      }
    },
    {
      "name": "AUDIOTEC INGENEIRÍA ACÚSCTICA, S.A.",
      "registrationNumber": "05183",
      "identificationNumber": "A47237516",
      "address": "C/JUANELO TURRIANO, 4",
      "location": {
        "postalCode": "47151",
        "municipality": "Boecillo",
        "county": "Valladolid",
        "municipalityId": "023",
        "countyId": "47"
      },
      "economicActivities": [
        {
          "id": "1.936.9",
          "name": "Otras investigaciones científicas y técnicas n.c.o.p",
          "_links": {
            "self": {
              "name": "Otras investigaciones científicas y técnicas n.c.o.p",
              "href": "https://api.euskadi.eus/procurements/companies/economic-activities/1.936.9"
            }
          }
        }
      ],
      "certificateStartDate": "2017-04-20",
      "certificateEndDate": "2017-10-20",
      "object": "LA REALIZACIÓN DE TODO TIPO DE REHABILITACIÓN Y REVESTIMIENTOS DE SUPERFICIES EN VIVIENDAS, LOCALES, EN EDIFICIOS DE NUEVA Y VIEJA CONSTRUCCIÓN, CON TODO TIPO DE MATERIALES; Y COMPRAVENTA E INSTALACIÓN DE MATERIALES INSONORIZANTES,  TÉRMICOS, AMORTIGÜANTES, ANTIVIBRATORIOS, IMPERMEABILIZANTES, ACÚSTICOS, DECORATIVOS, DE SONIDO E IMAGEN. LA PARTICIPACIÓN EN OTRAS SOCIEDADES DE IDÉNTICO O ANÁLOGO OBJETO, PARA EL DESARROLLO DEL PROPIO DE ESTA SOCIEDAD, MEDIANTE LA SUSCRIPCIÓN DE ACCIONES O PARTICIPACIONES EN LA FUNDACIÓN O AUMENTO DE CAPITAL DE LAS MISMAS O LA ADQUISICIÓN DE ELLAS POR CUALQUIER TÍTULO. DISEÑO, DESARROLLO E INVESTIGACIÓN EN EL CAMPO DE LA ACÚSTICA Y LAS VIBRACIONES. LA INSTALACIÓN DE SISTEMAS Y TRATAMIENTOS PARA LA PREVENCIÓN, MEJORA Y SOLUCIÓN DE PROBLEMAS GENERADOS POR EL RUIDO Y LAS VIBRACIONES. LA COMERCIALIZACIÓN DE TODO TIPO DE EQUIPOS, PRODUCTOS Y MATERIALES RELACIONADOS CON EL AISLAMIENTO ACÚSTICO Y TÉRMICO. LA REALIZACIÓN DE INFORMES, CERTIFICACIONES DE MEDIDAS ACÚSTICAS EN EDIFICACIÓN, INDUSTRIA Y MEDIO AMBIENTE UTILIZANDO LABORATORIOS DE ENSAYOS FIJOS Y MÓVILES. ACTIVIDADES CORRESPONDIENTES A PROMOCIÓN, REALIZACIÓN Y COMERCIALIZACIÓN DE TODA CLASE DE OBRAS Y CONSTRUCCIONES INMOBILIARIAS, ASÍ COMO TODO TIPO DE OBRAS DE REFORMA, ADAPTACIÓN, REPARACIÓN, CONSERVACIÓN, AISLAMIENTO, MANTENIMIENTO, RESTAURACIÓN, ALBAÑILERÍA, FONTANERÍA, CARPINTERÍA, ELECTRICIDAD, Y PINTURA, EN EDIFICIOS, NAVES Y LOCALES. EJECUCIÓN DE TODO TIPO DE OBRA CIVIL, TANTO EN CALLES, PLAZAS, PLANES PARCIALES, INCLUYENDO LA INSTALACIÓN DE BARRERAS DE SONIDO EN MUNICIPIOS Y CARRETERAS",
      "mainEntityOfPage": "https://www.contratacion.euskadi.eus/webkpe00-kperoc/es/ac71aBusquedaRegistrosWar/empresa/05183",
      "_links": {
        "self": {
          "name": "AUDIOTEC INGENEIRÍA ACÚSCTICA, S.A.",
          "href": "https://api.euskadi.eus/procurements/companies/05183"
        }
      }
    },
    {
      "name": "AISLAMIENTO AISLEKO S.C.",
      "registrationNumber": "05608",
      "identificationNumber": "J01522267",
      "address": "C/ VOLUNTARIA ENTREGA, 48-5ºA",
      "location": {
        "postalCode": "01010",
        "municipality": "Vitoria-Gasteiz",
        "county": "Araba/Álava",
        "municipalityId": "059",
        "countyId": "01"
      },
      "economicActivities": [
        {
          "id": "1.501.1",
          "name": "Construcción completa, reparación y conservación de edificaciones",
          "_links": {
            "self": {
              "name": "Construcción completa, reparación y conservación de edificaciones",
              "href": "https://api.euskadi.eus/procurements/companies/economic-activities/1.501.1"
            }
          }
        }
      ],
      "certificateStartDate": "2017-04-19",
      "certificateEndDate": "2017-09-02",
      "object": "TRABAJOS RELACIONADOS CON LA CONSTRUCCIÓN",
      "mainEntityOfPage": "https://www.contratacion.euskadi.eus/webkpe00-kperoc/es/ac71aBusquedaRegistrosWar/empresa/05608",
      "_links": {
        "self": {
          "name": "AISLAMIENTO AISLEKO S.C.",
          "href": "https://api.euskadi.eus/procurements/companies/05608"
        }
      }
    },
    {
      "name": "SAREIN SISTEMAS, S.L.",
      "registrationNumber": "03562",
      "identificationNumber": "B48804108",
      "address": "RIBERA DE AXPE, 11-C 2 POLÍGONO AXPE",
      "location": {
        "postalCode": "48950",
        "municipality": "Erandio",
        "county": "Bizkaia",
        "municipalityId": "902",
        "countyId": "48"
      },
      "economicActivities": [
        {
          "id": "1.845",
          "name": "Explotación electrónica por cuenta de terceros",
          "_links": {
            "self": {
              "name": "Explotación electrónica por cuenta de terceros",
              "href": "https://api.euskadi.eus/procurements/companies/economic-activities/1.845"
            }
          }
        }
      ],
      "certificateStartDate": "2017-04-11",
      "certificateEndDate": "2017-10-10",
      "object": "LA CREACIÓN, COMERCIALIZACIÓN Y VENTA O CUALESQUIERA OTRO NEGOCIO DE PRODUCTOS Y SERVICIOS INFORMÁTICOS, LA REALIZACIÓN E IMPARTICIÓN DE CURSOS DE DIVULGACIÓN Y FORMACIÓN EN INFORMÁTICA, Y LA REALIZACIÓN DE CUALESQUIERA OTROS NEGOCIOS JURÍDICOS ÍNTIMAMENTE RELACIONADOS CON LA INFORMÁTICA",
      "mainEntityOfPage": "https://www.contratacion.euskadi.eus/webkpe00-kperoc/es/ac71aBusquedaRegistrosWar/empresa/03562",
      "_links": {
        "self": {
          "name": "SAREIN SISTEMAS, S.L.",
          "href": "https://api.euskadi.eus/procurements/companies/03562"
        }
      }
    },
    {
      "name": "IGNACIO RUIZ DE AZÚA NAVARRO",
      "registrationNumber": "04988",
      "identificationNumber": "16283640P",
      "address": "C/ Vicente Goicoechea, nº 8 -1º dcha.",
      "location": {
        "postalCode": "01008",
        "municipality": "Vitoria-Gasteiz",
        "county": "Araba/Álava",
        "municipalityId": "059",
        "countyId": "01"
      },
      "economicActivities": [
        {
          "id": "1.844",
          "name": "Servicios de publicidad, relaciones públicas y similares",
          "_links": {
            "self": {
              "name": "Servicios de publicidad, relaciones públicas y similares",
              "href": "https://api.euskadi.eus/procurements/companies/economic-activities/1.844"
            }
          }
        }
      ],
      "certificateStartDate": "2017-04-11",
      "certificateEndDate": "2017-09-10",
      "object": "SERVICIOS DE PUBLICIDAD, RELACIONES PÚBLICAS Y SIMILARES",
      "mainEntityOfPage": "https://www.contratacion.euskadi.eus/webkpe00-kperoc/es/ac71aBusquedaRegistrosWar/empresa/04988",
      "_links": {
        "self": {
          "name": "IGNACIO RUIZ DE AZÚA NAVARRO",
          "href": "https://api.euskadi.eus/procurements/companies/04988"
        }
      }
    },
    {
      "name": "AZUL MULTIMEDIA, S.L.",
      "registrationNumber": "03403",
      "identificationNumber": "B01266931",
      "address": "LEONARDO DA VINCI, Nº 9. OFICINA 107. EDIFICIO E-5. MIÑANO",
      "location": {
        "postalCode": "01510",
        "municipality": "Vitoria-Gasteiz",
        "county": "Araba/Álava",
        "municipalityId": "059",
        "countyId": "01"
      },
      "economicActivities": [
        {
          "id": "1.844",
          "name": "Servicios de publicidad, relaciones públicas y similares",
          "_links": {
            "self": {
              "name": "Servicios de publicidad, relaciones públicas y similares",
              "href": "https://api.euskadi.eus/procurements/companies/economic-activities/1.844"
            }
          }
        }
      ],
      "certificateStartDate": "2017-04-06",
      "certificateEndDate": "2017-09-20",
      "object": "LA COMUNICACIÓN INTEGRAL DE EMPRESAS MULTIMEDIA, DESARROLLO DE SOFTWARE. ASESORÍA INFORMÁTICA, COMUNICACIÓN GLOBAL, DISEÑO, PUBLICACIONES, DISTRIBUCIÓN DE SOFTWARE, MARKETING, SERVICIOS ONLINE, 3D, INTERNET, VIDEO, FORMACIÓN, NUEVAS TECNOLOGÍAS, GESTIÓN CULTURAL Y DESARROLLOS I+D",
      "mainEntityOfPage": "https://www.contratacion.euskadi.eus/webkpe00-kperoc/es/ac71aBusquedaRegistrosWar/empresa/03403",
      "_links": {
        "self": {
          "name": "AZUL MULTIMEDIA, S.L.",
          "href": "https://api.euskadi.eus/procurements/companies/03403"
        }
      }
    },
    {
      "name": "ESTRATEGIAS EMPRESARIALES EUROPEAS, E-3, S.A.",
      "registrationNumber": "00351",
      "identificationNumber": "A48177554",
      "address": "RODRÍGUEZ ARIAS, 23 - 6º / DPTO. 13",
      "location": {
        "postalCode": "48011",
        "municipality": "Bilbao",
        "county": "Bizkaia",
        "municipalityId": "020",
        "countyId": "48"
      },
      "economicActivities": [
        {
          "id": "1.847",
          "name": "Servicios de consultoría",
          "_links": {
            "self": {
              "name": "Servicios de consultoría",
              "href": "https://api.euskadi.eus/procurements/companies/economic-activities/1.847"
            }
          }
        }
      ],
      "certificateStartDate": "2017-03-30",
      "certificateEndDate": "2017-03-27",
      "object": "LA REALIZACIÓN DE TODO TIPO DE ESTUDIOS, ANÁLISIS Y ASESORAMIENTOS A PARTICULARES, COMPAÑÍAS MERCANTILES, ENTIDADES PÚBLICAS, INSTITUCIONALES, Y DE MANERA ESPECIAL CUANTO SE DERIVE DEL INGRESO DE ESPAÑA EN LA C.E.E.; LA ACTUACIÓN COMO INTERMEDIARIA Y DE FORMA DIRECTA, EN LA REALIZACIÓN DE OPERACIONES COMERCIALES DE IMPORTACIÓN Y EXPORTACIÓN; EN EL APOYO Y AYUDA PARA FIJAR LAS NUEVAS ESTRATEGIAS EMPRESARIALES; LA PREPARACIÓN, ORGANIZACIÓN Y REALIZACIÓN DE CURSOS, SEMINARIOS Y CONVENCIONES, RELACIONADOS PREFERENTEMENTE CON LA PROBLEMÁTICA COMUNITARIA",
      "mainEntityOfPage": "https://www.contratacion.euskadi.eus/webkpe00-kperoc/es/ac71aBusquedaRegistrosWar/empresa/00351",
      "_links": {
        "self": {
          "name": "ESTRATEGIAS EMPRESARIALES EUROPEAS, E-3, S.A.",
          "href": "https://api.euskadi.eus/procurements/companies/00351"
        }
      }
    },
    {
      "name": "CONSTRUCCIONES NORBISCA, S.L.",
      "registrationNumber": "04991",
      "identificationNumber": "B48508394",
      "address": "LARRONDO GOIKO, 2 - PAB. 2",
      "location": {
        "postalCode": "48180",
        "municipality": "Loiu",
        "county": "Bizkaia",
        "municipalityId": "903",
        "countyId": "48"
      },
      "economicActivities": [
        {
          "id": "1.501.1",
          "name": "Construcción completa, reparación y conservación de edificaciones",
          "_links": {
            "self": {
              "name": "Construcción completa, reparación y conservación de edificaciones",
              "href": "https://api.euskadi.eus/procurements/companies/economic-activities/1.501.1"
            }
          }
        },
        {
          "id": "1.501.3",
          "name": "Albañilería y pequeños trabajos de construcción en general",
          "_links": {
            "self": {
              "name": "Albañilería y pequeños trabajos de construcción en general",
              "href": "https://api.euskadi.eus/procurements/companies/economic-activities/1.501.3"
            }
          }
        }
      ],
      "certificateStartDate": "2017-03-29",
      "certificateEndDate": "2017-09-08",
      "object": "A) LA CONSTRUCCIÓN Y/O PROMOCIÓN DE VIVIENDAS, LOCALES COMERCIALE,S PABELLONES INDUSTRIALES Y TODA CLASE DE EDIFICIOS, SU VENTA Y ARRENDAMIENTO, ASÍ OCMO LA REALIZACIÓN DE TODO TIPO DE OBRAS Y REFORMAS. B) LA ADQUISICIÓN POR CUALQUIER TÍTULO, DE FINCAS RÚSTICAS O URBANAS, LA ADMINISTRACIÓN, EXPLOTACIÓN Y ARRENDAMIENTO DE TALES BIENES, SU VENTA, TOTAL O PARCIAL, SEGÚN CONVENGA, PARA SU APROVECHAMIENTO FORETAL, AGRÍCOLA, URBANO O INDUSTRIAL. C) LA PLANIFICACIÓN Y GESTIÓN URBANÍSTICA, Y EN GENERAL LA GESTIÓN DE TODO TIPO DE FINCAS Y LA REALIZACIÓN DE SERVICIOS INMOBILIARIOS, ASÍ COMO LA INTERMEDIACIÓN EN EL SECTOR INMOBILIARIO",
      "mainEntityOfPage": "https://www.contratacion.euskadi.eus/webkpe00-kperoc/es/ac71aBusquedaRegistrosWar/empresa/04991",
      "_links": {
        "self": {
          "name": "CONSTRUCCIONES NORBISCA, S.L.",
          "href": "https://api.euskadi.eus/procurements/companies/04991"
        }
      }
    },
    {
      "name": "DGM DE ARQUITECTOS, S.L.P.",
      "registrationNumber": "04538",
      "identificationNumber": "B95568713",
      "address": "Iturriondo 10 3ºI",
      "location": {
        "postalCode": "48940",
        "municipality": "Leioa",
        "county": "Bizkaia",
        "municipalityId": "054",
        "countyId": "48"
      },
      "economicActivities": [
        {
          "id": "1.501.1",
          "name": "Construcción completa, reparación y conservación de edificaciones",
          "_links": {
            "self": {
              "name": "Construcción completa, reparación y conservación de edificaciones",
              "href": "https://api.euskadi.eus/procurements/companies/economic-activities/1.501.1"
            }
          }
        },
        {
          "id": "1.843.2",
          "name": "Servicios técnicos de arquitectura y urbanismo",
          "_links": {
            "self": {
              "name": "Servicios técnicos de arquitectura y urbanismo",
              "href": "https://api.euskadi.eus/procurements/companies/economic-activities/1.843.2"
            }
          }
        }
      ],
      "certificateStartDate": "2017-03-28",
      "certificateEndDate": "2017-09-26",
      "object": "EL EJERCICIO EN COMÚN DE LA ACTIVIDAD PROFESIONAL DE LA ARQUITECTURA, QUE EJERCERÁ A TRAVÉS DE PERSONAS COLEGIADAS EN EL COLEGIO PROFESIONAL CORRESPONDIENTE PARA EL EJERCICIO DE LAS MISMAS",
      "mainEntityOfPage": "https://www.contratacion.euskadi.eus/webkpe00-kperoc/es/ac71aBusquedaRegistrosWar/empresa/04538",
      "_links": {
        "self": {
          "name": "DGM DE ARQUITECTOS, S.L.P.",
          "href": "https://api.euskadi.eus/procurements/companies/04538"
        }
      }
    }
  ]
}