{
  "totalItems": 9042,
  "totalPages": 905,
  "currentPage": 246,
  "itemsOfPage": 10,
  "items": [
    {
      "name": "LINVESTIC, S.L.",
      "registrationNumber": "06352",
      "identificationNumber": "B75066779",
      "address": "Paseo Sagastieder, 6 - 3º Izda",
      "location": {
        "postalCode": "20015",
        "municipality": "Donostia / San Sebastián",
        "county": "Gipuzkoa",
        "municipalityId": "069",
        "countyId": "20"
      },
      "economicActivities": [
        {
          "id": "1.846",
          "name": "Empresas de estudios de mercado",
          "_links": {
            "self": {
              "name": "Empresas de estudios de mercado",
              "href": "https://api.euskadi.eus/procurements/companies/economic-activities/1.846"
            }
          }
        }
      ],
      "certificateStartDate": "2025-09-28",
      "certificateEndDate": "2026-03-28",
      "object": "LA CONSULTA Y EL TRATAMIENTO DE INFORMACIÓN SOBRE INVSTIGACIÓN EN EL ÁMBITO ESTADÍSTICO, INFORMÁTICO, ECONÓMICO, ORGANIZATIVO, DEMOGRÁFICO Y DE GESTIÓN Y FORMACIÓN",
      "mainEntityOfPage": "https://www.contratacion.euskadi.eus/webkpe00-kperoc/es/ac71aBusquedaRegistrosWar/empresa/06352",
      "_links": {
        "self": {
          "name": "LINVESTIC, S.L.",
          "href": "https://api.euskadi.eus/procurements/companies/06352"
        }
      }
    },
    {
      "name": "ESPACIOS VERDES DEL NORTE, S.L.",
      "registrationNumber": "08091",
      "identificationNumber": "B95273462",
      "address": "Calle Kareabi (48610) 19",
      "location": {
        "postalCode": "48610",
        "municipality": "Urduliz",
        "county": "Bizkaia",
        "municipalityId": "089",
        "countyId": "48"
      },
      "economicActivities": [
        {
          "id": "1.911",
          "name": "Servicios agrícolas y ganaderos",
          "_links": {
            "self": {
              "name": "Servicios agrícolas y ganaderos",
              "href": "https://api.euskadi.eus/procurements/companies/economic-activities/1.911"
            }
          }
        }
      ],
      "certificateStartDate": "2025-09-28",
      "certificateEndDate": "2026-03-28",
      "object": "LA REALIZACIÓN DE SERVICIOS, PROYECTOS Y MANTENIMIENTO DE JARDINERÍA Y AGRICULTURA, COMPRA-VENTA DE MAQUINARIA AGRÍCOLA, DE PLANTAS Y ÁRBOLES, Y EXPLOTACIONES AGRARIAS.",
      "mainEntityOfPage": "https://www.contratacion.euskadi.eus/webkpe00-kperoc/es/ac71aBusquedaRegistrosWar/empresa/08091",
      "_links": {
        "self": {
          "name": "ESPACIOS VERDES DEL NORTE, S.L.",
          "href": "https://api.euskadi.eus/procurements/companies/08091"
        }
      }
    },
    {
      "name": "DOITU OFIMATIKA, S.L.",
      "registrationNumber": "03503",
      "identificationNumber": "B01418698",
      "address": "C/BEKOLARRA, 4 PABELLÓN 15-2",
      "location": {
        "postalCode": "01010",
        "municipality": "Vitoria-Gasteiz",
        "county": "Araba/Álava",
        "municipalityId": "059",
        "countyId": "01"
      },
      "economicActivities": [
        {
          "id": "1.662.2",
          "name": "Venta al por menor de toda clase de artículos, pequeños establecimientos",
          "_links": {
            "self": {
              "name": "Venta al por menor de toda clase de artículos, pequeños establecimientos",
              "href": "https://api.euskadi.eus/procurements/companies/economic-activities/1.662.2"
            }
          }
        },
        {
          "id": "1.699",
          "name": "Otras reparaciones n.c.o.p",
          "_links": {
            "self": {
              "name": "Otras reparaciones n.c.o.p",
              "href": "https://api.euskadi.eus/procurements/companies/economic-activities/1.699"
            }
          }
        },
        {
          "id": "1.843.9",
          "name": "Otros servicios técnicos n.c.o.p",
          "_links": {
            "self": {
              "name": "Otros servicios técnicos n.c.o.p",
              "href": "https://api.euskadi.eus/procurements/companies/economic-activities/1.843.9"
            }
          }
        }
      ],
      "certificateStartDate": "2025-09-28",
      "certificateEndDate": "2026-03-28",
      "object": "EL MANTENIMIENTO, REPARACIÓN, VENTA Y ALQUILER DE SISTEMAS OFIMÁTICOS Y  EQUIPOS DE IMPRESIÓN.",
      "mainEntityOfPage": "https://www.contratacion.euskadi.eus/webkpe00-kperoc/es/ac71aBusquedaRegistrosWar/empresa/03503",
      "_links": {
        "self": {
          "name": "DOITU OFIMATIKA, S.L.",
          "href": "https://api.euskadi.eus/procurements/companies/03503"
        }
      }
    },
    {
      "name": "ZEROLAB, S.L.",
      "registrationNumber": "06897",
      "identificationNumber": "B95682969",
      "address": "C/URIBITARTE 6, 2º PLANTA",
      "location": {
        "postalCode": "48001",
        "municipality": "Bilbao",
        "county": "Bizkaia",
        "municipalityId": "020",
        "countyId": "48"
      },
      "economicActivities": [
        {
          "id": "1.843.2",
          "name": "Servicios técnicos de arquitectura y urbanismo",
          "_links": {
            "self": {
              "name": "Servicios técnicos de arquitectura y urbanismo",
              "href": "https://api.euskadi.eus/procurements/companies/economic-activities/1.843.2"
            }
          }
        },
        {
          "id": "1.847",
          "name": "Servicios de consultoría",
          "_links": {
            "self": {
              "name": "Servicios de consultoría",
              "href": "https://api.euskadi.eus/procurements/companies/economic-activities/1.847"
            }
          }
        },
        {
          "id": "1.934",
          "name": "Enseñanza fuera de establecimiento permanente",
          "_links": {
            "self": {
              "name": "Enseñanza fuera de establecimiento permanente",
              "href": "https://api.euskadi.eus/procurements/companies/economic-activities/1.934"
            }
          }
        }
      ],
      "certificateStartDate": "2025-09-28",
      "certificateEndDate": "2026-03-28",
      "object": "1.CONSTRUCCIÓN, INSTALACIONES Y MANTENIMIENTO. 2.COMERCIO AL POR MAYOR Y AL POR MENOR. DISTRIBUCIÓN. IMPORTACIÓN Y EXPORTACIÓN. 3.ACTIVIDADES INMOBILIARIAS. 4.ACTIVIDADES PROFESIONALES. 5.INDUSTRIAS MANUFACTURERAS Y TEXTILES. 6.TURISMO, HOSTELERÍA Y RESTAURACIÓN. 7.PRESTACIÓN DE SERVICIOS. ACTIVIDADES DE GESTIÓN Y ADMINISTRACIÓN. SERVICIOS EDUCATIVOS, SANITARIOS, DE OCIO Y ENTRETENIMIENTO. 8.TRANSPORTE Y ALMACENAMIENTO. 9.INFORMACIÓN Y COMUNICACIONES. 10.AGRICULTURA, GANADERÍA Y PESCA. 11.INFORMÁTICA, TELECOMUNICACIONES Y OFIMÁTICA. 12.ENERGÍAS ALTERNATIVAS. 13.COMPRAVENTA Y REPARACIÓN DE VEHÍCULOS. REPARACIÓN Y MANTENIMIENTO DE INSTALACIONES Y MAQUINARIA. 14.INVESTIGACIÓN, DESARROLLO E INNOVACIÓN. 15.ACTIVIDADES CIENTÍFICAS Y TÉCNICAS",
      "mainEntityOfPage": "https://www.contratacion.euskadi.eus/webkpe00-kperoc/es/ac71aBusquedaRegistrosWar/empresa/06897",
      "_links": {
        "self": {
          "name": "ZEROLAB, S.L.",
          "href": "https://api.euskadi.eus/procurements/companies/06897"
        }
      }
    },
    {
      "name": "HIRUKI PRODUKZIOAK, S.L.",
      "registrationNumber": "04856",
      "identificationNumber": "B95687000",
      "address": "Pz. Celestino Maria del Arenal, 13-7º C",
      "location": {
        "postalCode": "48015",
        "municipality": "Bilbao",
        "county": "Bizkaia",
        "municipalityId": "020",
        "countyId": "48"
      },
      "economicActivities": [
        {
          "id": "1.965.3",
          "name": "Espectáculos fuera de establecimiento permanente (excepto los taurinos)",
          "_links": {
            "self": {
              "name": "Espectáculos fuera de establecimiento permanente (excepto los taurinos)",
              "href": "https://api.euskadi.eus/procurements/companies/economic-activities/1.965.3"
            }
          }
        },
        {
          "id": "1.983",
          "name": "Agencias de colocación de artistas",
          "_links": {
            "self": {
              "name": "Agencias de colocación de artistas",
              "href": "https://api.euskadi.eus/procurements/companies/economic-activities/1.983"
            }
          }
        }
      ],
      "certificateStartDate": "2025-09-28",
      "certificateEndDate": "2026-03-28",
      "object": "LA ORGANIZACIÓN DE: TODO TIPO DE CONCIERTOS LOCALES, NACIONALES E INTERNACIONALES. FIESTAS POPULARES, LOCALES, NACIONALES E INTERNACIONALES. CAMPAÑAS, FERIAS, MODA, VIDEO WALL, CONVENCIONES, CONGRESOS, CONCENTRACIONES, INAUGURACIONES, CARRERAS, EXPOSICIONES, EVENTOS DEPORTIVOS, EVENTOS CULTURALES, GIRAS MUSICALES, NACIONALES E INTERNACIONALES. ORQUESTAS, HERRI KIROLAK, PARQUES Y ATRACCIONES INFANTILES, DESFILES, EXHIBICIONES. PRODUCCIÓN DE ESPECTÁCULOS, SERVCIOS GENERALES PARA TODO TIPO DE ACTOS, PRODUCCIÓN DE TODO TIPO DE PARQUES INFANTILES, PRODUCCIÓN DE TODO TIPO DE CONCIERTOS, PRODUCCIÓN DE TODO TIPO DE EVENTOS (CULTURALES, DEPORTIVOS, SOCIALES). LA REPRESENTACIÓN DE: ARTISTAS, CANTANTES, GRUPOS MUSICALES, GRUPOS SOCIALES, GRUPOS TEATRALES, CANTAUTORES, HUMORISTAS, ORQUESTAS, VARIEDADES. LA CONTRATACIÓN DE: GRUPOS DE ROCK, SKA, PUNK, REGGAE, JAZZ, FOLK, CANTAUTORES, CANTANTES, INSTRUMENTOS AUTÓCTONOS, TRIKITRIXA, GAITEROS, DULZAINEROS, ZANPAZAR, BERTSOLARIS, JOTAS, FANFARRIAS, TXARANGAS, ORQUESTAS DE VERBENA, CORALES, MÚSICA CLÁSICA, BANDAS MUSICALES, HUMOR, ZARZUELA, GRUPOS DE TEATRO, BALLET, DANZA, ANIMACIÓN INFANTIL, ANIMACIÓN DE CALLE, PAYASOS, APARATOS RECREATIVOS, VERBENAS INFANTILES, MAGIA, ILUSIONISMO, TÍTERES, GUIÑOL, COMPARSAS DE GIGANTES, REPORTAJE FOTOGRÁFICO, REPORTAJE DE VIDEO, EQUIPOS DE SONIDO, EQUIPOS DE ILUMINACIÓN, EFECTOS ESPECIALES, AUDIOVISUALES, ESCENARIOS, GRADAS, CAMERINOS, TORRETAS, SILLAS, MESAS, VALLAS, TXOZNAS, CUBERTERÍAS, COMIDAS POPULARES, INODOROS QUÍMICOS, SANITARIOS, NAVES, PIROTECNIA, HERRI-KIROLAK, SOKA-MUTURRA, ANIMALES PARA NIÑOS, KARS, CAMAS ELÁSTICAS, CAMIONES, UNIDADES ESPECIALES,CASITAS DE PELOTAS, CASTILLO Y FORMAS HINCHABLES, COLCHÓN DE OBSTÁCULOS, EDUCACIÓN VIAL, FIESTA DE LA ESPUMA, PONEYS, GARGANTUAS, PISCINA DE PELOTAS, PISTA DE MONOPATÍN, PISTA DE MOTOS, PROYECCIÓN DE CINE Y VIDEO, TORO MECÁNICO, TREN NEUMÁTICO; TREN SIN VÍAS, TREN CON VÍAS, PARQUES INFANTILES, TALLER DE CHAPAS, MIMO, VARIEDADES, KARAOKE, DISCOTECA MÓVIL, ORQUESTAS Y GRUPOS, CARPAS, JAIMAS, RECITALES DE MÚSICA, GRUPOS ELECTRÓGENOS, SEGURIDAD DE ESPECTÁCULOS, CARGA Y DESCARGA, TRADUCCIÓN SIMULTÁNEA, TRIBUNAS Y GRADAS DESMONTABLES, ZANCOS, ARTISTAS, GRUPOS NACIONALES E INTERNACIONALES, AZAFATAS",
      "mainEntityOfPage": "https://www.contratacion.euskadi.eus/webkpe00-kperoc/es/ac71aBusquedaRegistrosWar/empresa/04856",
      "_links": {
        "self": {
          "name": "HIRUKI PRODUKZIOAK, S.L.",
          "href": "https://api.euskadi.eus/procurements/companies/04856"
        }
      }
    },
    {
      "name": "EUDAN KOOP ELK TXIKIA",
      "registrationNumber": "09062",
      "identificationNumber": "F10924108",
      "address": "Avenida Gasteiz 95, 1º Izda.",
      "location": {
        "postalCode": "01009",
        "municipality": "Vitoria-Gasteiz",
        "county": "Araba/Álava",
        "municipalityId": "059",
        "countyId": "01"
      },
      "economicActivities": [
        {
          "id": "1.849.9",
          "name": "Otros servicios independientes n.c.o.p",
          "_links": {
            "self": {
              "name": "Otros servicios independientes n.c.o.p",
              "href": "https://api.euskadi.eus/procurements/companies/economic-activities/1.849.9"
            }
          }
        }
      ],
      "certificateStartDate": "2025-09-28",
      "certificateEndDate": "2026-03-28",
      "object": "ANÁLISIS DE DATOS, LA FORMACIÓN, CONSULTORÍA, INVESTIGACIÓN CIENTÍFICA, TRADUCCIÓN DE TEXTOS, ELABORACIÓN DE SOFTWARE Y SOLUCIONES BASADAS EN CÓDIGO, COMERCIALIZACIÓN DE SOFTWARE Y SERVICIOS DE TERCEROS.",
      "mainEntityOfPage": "https://www.contratacion.euskadi.eus/webkpe00-kperoc/es/ac71aBusquedaRegistrosWar/empresa/09062",
      "_links": {
        "self": {
          "name": "EUDAN KOOP ELK TXIKIA",
          "href": "https://api.euskadi.eus/procurements/companies/09062"
        }
      }
    },
    {
      "name": "GESTIONET MULTIMEDIA, S.L.",
      "registrationNumber": "03560",
      "identificationNumber": "B95189932",
      "address": "POLÍGONO INDUSTRIAL AXPE, AVDA. RIBERA DE AXPE, Nº 11 EDIFICIO A LOCAL 209",
      "location": {
        "postalCode": "48950",
        "municipality": "Erandio",
        "county": "Bizkaia",
        "municipalityId": "902",
        "countyId": "48"
      },
      "economicActivities": [
        {
          "id": "1.845",
          "name": "Explotación electrónica por cuenta de terceros",
          "_links": {
            "self": {
              "name": "Explotación electrónica por cuenta de terceros",
              "href": "https://api.euskadi.eus/procurements/companies/economic-activities/1.845"
            }
          }
        },
        {
          "id": "1.931.5",
          "name": "Enseñanza de educación superior",
          "_links": {
            "self": {
              "name": "Enseñanza de educación superior",
              "href": "https://api.euskadi.eus/procurements/companies/economic-activities/1.931.5"
            }
          }
        },
        {
          "id": "1.936",
          "name": "Investigación científica y técnica",
          "_links": {
            "self": {
              "name": "Investigación científica y técnica",
              "href": "https://api.euskadi.eus/procurements/companies/economic-activities/1.936"
            }
          }
        }
      ],
      "certificateStartDate": "2025-09-28",
      "certificateEndDate": "2026-03-28",
      "object": "ACTIVIDADES DE INVESTIGACIÓN, DESARROLLO, INNOVACIÓN, PRODUCCIÓN, MANTENIMIENTO Y COMERCIALIZACIÓN DE SOFTWARE DE ENTRETENIMIENTO Y DE GESTIÓN. DENTRO DE ESTE TIPO DE DESARROLLO SE ENGLOBA LA PRODUCCIÓN DE VIDEOJUEGOS, VIDEOJUEGOS EDUCATIVOS, SERIOUS GAMES, SIMULADORES, PROYECTOS Y HERRAMIENTAS DE GAMIFICACIÓN, Y FORMACIÓN, Y CUALQUIER OTRO DE CARÁCTER ANÁLOGO, PARA TODO TIPO DE FORMATOS Y CONTENIDOS, ASÍ COMO LOS PROCESOS DE INVESTIGACIÓN Y DESARROLLO NECESARIOS PARA LA PRODUCCIÓN DE LOS MISMOS. LA CONCEPTUALIZACIÓN, DESARROLLO E IMPLEMENTACIÓN DE CONTENIDOS DIGITALES PARA LA FORMACIÓN Y EL SECTOR EDUCATIVO. FORMACIÓN EN COMPETENCIAS Y HABILIDADES DIRECTIVAS. LA REALIZACIÓN, COMERCIALIZACIÓN Y DIFUSIÓN DE CURSOS FORMATIVOS EN LAS INDICADAS MATERIAS, INCLUYENDO LA EDICIÓN, PUBLICACIÓN Y DISTRIBUCIÓN DE MATERIAL PARA LOS MISMOS, CUALQUIERA QUE SEA SU SOPORTE FÍSICO, Y EN GENERAL, EL SUMINISTRO DE TODA CLASE DE ELEMENTOS PRECISOS PARA TAL FIN",
      "mainEntityOfPage": "https://www.contratacion.euskadi.eus/webkpe00-kperoc/es/ac71aBusquedaRegistrosWar/empresa/03560",
      "_links": {
        "self": {
          "name": "GESTIONET MULTIMEDIA, S.L.",
          "href": "https://api.euskadi.eus/procurements/companies/03560"
        }
      }
    },
    {
      "name": "JON EGUIA SOLAUN",
      "registrationNumber": "05886",
      "identificationNumber": "72717265M",
      "address": "JOSÉ MADINABEITIA, 3- BAJO",
      "location": {
        "postalCode": "01470",
        "municipality": "Amurrio",
        "county": "Araba/Álava",
        "municipalityId": "002",
        "countyId": "01"
      },
      "economicActivities": [
        {
          "id": "2.411",
          "name": "Arquitectos",
          "_links": {
            "self": {
              "name": "Arquitectos",
              "href": "https://api.euskadi.eus/procurements/companies/economic-activities/2.411"
            }
          }
        }
      ],
      "certificateStartDate": "2025-09-28",
      "certificateEndDate": "2026-03-28",
      "object": "SERVICIOS DE ARQUITECTURA",
      "mainEntityOfPage": "https://www.contratacion.euskadi.eus/webkpe00-kperoc/es/ac71aBusquedaRegistrosWar/empresa/05886",
      "_links": {
        "self": {
          "name": "JON EGUIA SOLAUN",
          "href": "https://api.euskadi.eus/procurements/companies/05886"
        }
      }
    },
    {
      "name": "SMARTHEALTH LOGISTICS, S.L.",
      "registrationNumber": "09063",
      "identificationNumber": "B72548183",
      "address": "POLIGONO MUGITEGI VIAL B, Nº44",
      "location": {
        "postalCode": "20700",
        "municipality": "Urretxu",
        "county": "Gipuzkoa",
        "municipalityId": "077",
        "countyId": "20"
      },
      "economicActivities": [
        {
          "id": "1.843.1",
          "name": "Servicios técnicos de ingeniería",
          "_links": {
            "self": {
              "name": "Servicios técnicos de ingeniería",
              "href": "https://api.euskadi.eus/procurements/companies/economic-activities/1.843.1"
            }
          }
        }
      ],
      "certificateStartDate": "2025-09-28",
      "certificateEndDate": "2026-03-28",
      "object": "A. DESARROLLO Y FABRICACIÓN DE SISTEMAS LOGÍSTICOS Y DE AUTOMATIZACIÓN QUE FACILITEN LOS PROCESOS DE DISTRIBUCIÓN Y ALMACENAJE.\nB. EL DESARROLLO Y FABRICACIÓN DE SOLUCIONES AVANZADAS RELACIONADAS CON LA LOGÍSTICA Y ALMACENAJE.\nC. LA FABRICACIÓN, PROMOCIÓN, DISTRIBUCIÓN, COMERCIALIZACIÓN Y VENTA DE LAS SOLUCIONES Y APLICACIONES QUE DESARROLLE LA SOCIEDAD.\nD. COMPRA, VENTA, IMPORTACIÓN Y EXPORTACIÓN TODA CLASE DE SOFTWARE Y HARDWARE RELACIONADOS CON LAS SOLUCIONES Y APLICACIONES QUE DESARROLLE LA SOCIEDAD. \nE. LA REALIZACIÓN DE ACTIVIDADES DE INVESTIGACIÓN, DISEÑO, ESTUDIO, DESARROLLO, INNOVACIÓN TECNOLÓGICA, PRODUCCIÓN, INTEGRACIÓN, OPERACIÓN, MANTENIMIENTO, REPARACIÓN, DISTRIBUCIÓN Y COMERCIALIZACIÓN DE SISTEMAS, SOLUCIONES Y PRODUCTOS QUE HAGAN USO DE LAS TECNOLOGÍAS DE LA INFORMACIÓN (INFORMÁTICA, ELECTRÓNICA Y TELECOMUNICACIONES), ASÍ COMO CUALQUIER SERVICIO RELACIONADO CON LOS MISMOS, SIENDO DE APLICACIÓN PRINCIPALMENTE AL SECTOR DE LA LOGÍSTICA Y EL ALMACENAJE.\nF. LA VENTA Y MANTENIMIENTO DE SOFTWARE, ELABORACIÓN DE SOFTWARE A MEDIDA, DISEÑO DE REDES, SISTEMAS OPERATIVOS DEDICADOS A LOS SISTEMAS LOGÍSTICOS, CURSOS DE FORMACIÓN ESPECIALIZADOS Y ASESORAMIENTO.\nG. LA REALIZACIÓN DE PROYECTOS DE INVESTIGACIÓN Y DESARROLLO DE INNOVACIÓN TECNOLÓGICA EN COOPERACIÓN CON EMPRESAS PÚBICAS Y/O PRIVADAS, UNIVERSIDADES Y OTRAS ENTIDADES CON EL OBJETO DE GENERAR Y DIFUNDIR CONOCIMIENTO TECNOLÓGICO, ASÍ COMO COLABORAR EN LA TRANSFERENCIA DE RESULTADOS DE INVESTIGACIÓN ENTRE LOS ENTES COLABORADORES, QUE PERMITAN MAXIMIZAR LA APLICACIÓN DEL CONOCIMIENTO GENERADO POR LA SOCIEDAD.\nH. LA FORMACIÓN Y CAPACITACIÓN EN MATERIAS RELACIONADAS CON EL OBJETO SOCIAL Y LA PRESTACIÓN DE SERVICIOS VINCULADOS A LA GESTIÓN DEL CONOCIMIENTO, LA TECNOLOGÍA Y LA INNOVACIÓN EN EL ÁMBITO DE ACTUACIÓN DE LA SOCIEDAD.\nI. LA TENENCIA, LICENCIA, EXPLOTACIÓN, GESTIÓN, DESARROLLO, ADMINISTRACIÓN, MANTENIMIENTO Y PROTECCIÓN DE DERECHOS DE PROPIEDAD INTELECTUAL E INDUSTRIAL Y DE LOS ACTIVOS QUE ÉSTOS AMPAREN.\nJ. LA PRESTACIÓN DE SERVICIOS DE ASISTENCIA TÉCNICA, DE GESTIÓN EMPRESARIAL Y DE APOYO A LAS SOCIEDADES PERTENECIENTES A SU MISMO GRUPO.\nK. LA PROMOCIÓN, CREACIÓN Y PARTICIPACIÓN EN EMPRESAS Y SOCIEDADES, INDUSTRIALES, COMERCIALES, INMOBILIARIAS, DE SERVICIOS Y DE CUALQUIER OTRO TIPO.\nL. LA PRESTACIÓN DE TODA CLASE DE SERVICIOS DE PLANIFICACIÓN, PROMOCIÓN, ADMINISTRACIÓN, GESTIÓN, REPRESENTACIÓN Y ASESORAMIENTO DE CARÁCTER ECONÓMICO, FINANCIERO, TRIBUTARIO, JURÍDICO Y CONTABLE, A FAVOR DE TODA CLASE DE EMPRESAS Y PERSONAS, FÍSICAS O JURÍDICAS, Y EN GENERAL, LA PRESTACIÓN DE TODOS LOS SERVICIOS DE ASESORAMIENTO PROFESIONAL RELACIONADOS CON LA EMPRESA, CONTANDO AL EFECTO CON PERSONAL HABILITADO LEGALMENTE PARA EL EJERCICIO DE DICHAS ACTIVIDADES, EN AQUELLOS SUPUESTOS EN QUE TAL HABILITACIÓN SEA EXIGIDA POR LAS LEYES.\n",
      "mainEntityOfPage": "https://www.contratacion.euskadi.eus/webkpe00-kperoc/es/ac71aBusquedaRegistrosWar/empresa/09063",
      "_links": {
        "self": {
          "name": "SMARTHEALTH LOGISTICS, S.L.",
          "href": "https://api.euskadi.eus/procurements/companies/09063"
        }
      }
    },
    {
      "name": "INGEK INGENIERIA GEOLOGICA Y GEOTECNICA, S.L.",
      "registrationNumber": "06828",
      "identificationNumber": "B95591541",
      "address": "Polig. Empre Boroa, 19-8",
      "location": {
        "postalCode": "48340",
        "municipality": "Amorebieta-Etxano",
        "county": "Bizkaia",
        "municipalityId": "003",
        "countyId": "48"
      },
      "economicActivities": [
        {
          "id": "1.843.1",
          "name": "Servicios técnicos de ingeniería",
          "_links": {
            "self": {
              "name": "Servicios técnicos de ingeniería",
              "href": "https://api.euskadi.eus/procurements/companies/economic-activities/1.843.1"
            }
          }
        }
      ],
      "certificateStartDate": "2025-09-28",
      "certificateEndDate": "2026-03-28",
      "object": "EL EJERCICIO EN COMÚN DE LA ACTIVIDAD PROFESIONAL DE LA GEOLOGÍA, QUE EJERCERÁ A TRAVÉS DE PERSONAS COLEGIADAS EN EL COLEGIO PROFESIONAL CORRESPONDIENTE PARA EL EJERCICIO DE LAS MISMAS",
      "mainEntityOfPage": "https://www.contratacion.euskadi.eus/webkpe00-kperoc/es/ac71aBusquedaRegistrosWar/empresa/06828",
      "_links": {
        "self": {
          "name": "INGEK INGENIERIA GEOLOGICA Y GEOTECNICA, S.L.",
          "href": "https://api.euskadi.eus/procurements/companies/06828"
        }
      }
    }
  ]
}