{
  "totalItems": 9042,
  "totalPages": 905,
  "currentPage": 794,
  "itemsOfPage": 10,
  "items": [
    {
      "name": "KRAPE, S.A.",
      "registrationNumber": "02491",
      "identificationNumber": "A28347417",
      "address": "C/ EDUARDO TORROJA, 31",
      "location": {
        "postalCode": "28914",
        "municipality": "Leganés",
        "county": "Madrid",
        "municipalityId": "074",
        "countyId": "28"
      },
      "economicActivities": [
        {
          "id": "1.619.9",
          "name": "Venta al por mayor de otros productos n.c.o.p",
          "_links": {
            "self": {
              "name": "Venta al por mayor de otros productos n.c.o.p",
              "href": "https://api.euskadi.eus/procurements/companies/economic-activities/1.619.9"
            }
          }
        }
      ],
      "certificateStartDate": "2004-06-03",
      "certificateEndDate": "2004-04-16",
      "object": "LA IMPORTACIÓN Y VENTA DE TODA CLASE DE PRODUCTOS QUÍMICOS Y FARMACEUTICOS Y MATERIAL DE LABORATORIO EN GENERAL",
      "mainEntityOfPage": "https://www.contratacion.euskadi.eus/webkpe00-kperoc/es/ac71aBusquedaRegistrosWar/empresa/02491",
      "_links": {
        "self": {
          "name": "KRAPE, S.A.",
          "href": "https://api.euskadi.eus/procurements/companies/02491"
        }
      }
    },
    {
      "name": "OBRAS Y CONTRATAS INDAUTXU, S.L.",
      "registrationNumber": "01094",
      "identificationNumber": "B48283618",
      "address": "C/ ALAMEDA SAN MAMÉS, Nº 37 - 7º. DPTO.: 3.",
      "location": {
        "postalCode": "48010",
        "municipality": "Bilbao",
        "county": "Bizkaia",
        "municipalityId": "020",
        "countyId": "48"
      },
      "economicActivities": [
        {
          "id": "1.501.1",
          "name": "Construcción completa, reparación y conservación de edificaciones",
          "_links": {
            "self": {
              "name": "Construcción completa, reparación y conservación de edificaciones",
              "href": "https://api.euskadi.eus/procurements/companies/economic-activities/1.501.1"
            }
          }
        }
      ],
      "certificateStartDate": "2004-05-27",
      "certificateEndDate": "2004-10-20",
      "object": "LA CONSTRUCCIÓN Y EDIFICACIÓN POR CUENTA PROPIA O AJENA DE TODA CLASE DE OBRAS PRIVADAS O PÚBLICAS, REALIZACIÓN DE PROYECTOS DE CONSTRUCCIÓN, PROYECTOS DE DECORACIÓN DE LOCALES, INTERMEDIACIÓN EN LA PROMOCIÓN DE EDIFICACIONES, ASÍ COMO CUALQUIER OTRA DE LÍCITO COMERCIO Y QUE SEA ACORDE CON LAS ACTIVIDADES ANTERIORES",
      "mainEntityOfPage": "https://www.contratacion.euskadi.eus/webkpe00-kperoc/es/ac71aBusquedaRegistrosWar/empresa/01094",
      "_links": {
        "self": {
          "name": "OBRAS Y CONTRATAS INDAUTXU, S.L.",
          "href": "https://api.euskadi.eus/procurements/companies/01094"
        }
      }
    },
    {
      "name": "C.D. PHARMA, S.A.",
      "registrationNumber": "02262",
      "identificationNumber": "A80995475",
      "address": "CAMINO DE VINATEROS, 53 posterior - LOCAL 6",
      "location": {
        "postalCode": "28030",
        "municipality": "Madrid",
        "county": "Madrid",
        "municipalityId": "079",
        "countyId": "28"
      },
      "economicActivities": [
        {
          "id": "1.619.2",
          "name": "Venta al por mayor de aparatos e instrumentos médicos, ortopédicos, ópticos",
          "_links": {
            "self": {
              "name": "Venta al por mayor de aparatos e instrumentos médicos, ortopédicos, ópticos",
              "href": "https://api.euskadi.eus/procurements/companies/economic-activities/1.619.2"
            }
          }
        }
      ],
      "certificateStartDate": "2004-05-27",
      "certificateEndDate": "2004-11-24",
      "object": "LA DISTRIBUCIÓN, COMERCIALIZACIÓN, IMPORTACIÓN, EXPORTACIÓN Y VENTA TANTO AL POR MAYOR COMO AL POR MENOR, DE TODA CLASE DE PRODUCTOS DE COSMÉTICA, DE  PARAFARMACIA Y HOSPITALARIOS",
      "mainEntityOfPage": "https://www.contratacion.euskadi.eus/webkpe00-kperoc/es/ac71aBusquedaRegistrosWar/empresa/02262",
      "_links": {
        "self": {
          "name": "C.D. PHARMA, S.A.",
          "href": "https://api.euskadi.eus/procurements/companies/02262"
        }
      }
    },
    {
      "name": "LA CASA DEL MÉDICO, S.L.",
      "registrationNumber": "00395",
      "identificationNumber": "B28036051",
      "address": "C/ ARAGONESES, Nº 2. POLÍGONO INDUSTRIAL DE ALCOBENDAS.",
      "location": {
        "postalCode": "28108",
        "municipality": "Alcobendas",
        "county": "Madrid",
        "municipalityId": "006",
        "countyId": "28"
      },
      "economicActivities": [
        {
          "id": "1.619.2",
          "name": "Venta al por mayor de aparatos e instrumentos médicos, ortopédicos, ópticos",
          "_links": {
            "self": {
              "name": "Venta al por mayor de aparatos e instrumentos médicos, ortopédicos, ópticos",
              "href": "https://api.euskadi.eus/procurements/companies/economic-activities/1.619.2"
            }
          }
        }
      ],
      "certificateStartDate": "2004-05-14",
      "certificateEndDate": "2004-11-05",
      "object": "LA VENTA DE MOBILIARIO, MATERIAL E INSTRUMENTAL QUIRÚRGICO, SANITARIO Y CLÍNICO. LA SOCIEDAD TENDRÁ CAPACIDAD PARA OPERAR SOBRE BIENES INMUEBLES",
      "mainEntityOfPage": "https://www.contratacion.euskadi.eus/webkpe00-kperoc/es/ac71aBusquedaRegistrosWar/empresa/00395",
      "_links": {
        "self": {
          "name": "LA CASA DEL MÉDICO, S.L.",
          "href": "https://api.euskadi.eus/procurements/companies/00395"
        }
      }
    },
    {
      "name": "ÁNGEL MARÍA GUERECA OZAETA",
      "registrationNumber": "00027",
      "identificationNumber": "15092211W",
      "address": "C/ HERRERIETA, Nº 26 - 2º D",
      "location": {
        "postalCode": "20808",
        "municipality": "Getaria",
        "county": "Gipuzkoa",
        "municipalityId": "039",
        "countyId": "20"
      },
      "economicActivities": [
        {
          "id": "1.501.2",
          "name": "Construcción completa, reparación y conservación obras civiles",
          "_links": {
            "self": {
              "name": "Construcción completa, reparación y conservación obras civiles",
              "href": "https://api.euskadi.eus/procurements/companies/economic-activities/1.501.2"
            }
          }
        }
      ],
      "certificateStartDate": "2004-05-13",
      "certificateEndDate": "2003-04-28",
      "object": "LOS TRABAJOS SUBMARINOS EN OBRAS MARÍTIMAS, CONSTRUCCIÓN Y REPARACIÓN DE PUERTOS, PANTANOS, ETC.",
      "mainEntityOfPage": "https://www.contratacion.euskadi.eus/webkpe00-kperoc/es/ac71aBusquedaRegistrosWar/empresa/00027",
      "_links": {
        "self": {
          "name": "ÁNGEL MARÍA GUERECA OZAETA",
          "href": "https://api.euskadi.eus/procurements/companies/00027"
        }
      }
    },
    {
      "name": "DAKOCYTOMATION, S.A.U.",
      "registrationNumber": "01759",
      "identificationNumber": "A60947942",
      "address": "C/ FEDERICO MOMPOU, Nº 5 - BAJOS A, 1º",
      "location": {
        "postalCode": "08960",
        "municipality": "Sant Just Desvern",
        "county": "Barcelona",
        "municipalityId": "221",
        "countyId": "08"
      },
      "economicActivities": [
        {
          "id": "1.616.6",
          "name": "Venta al por mayor de productos químicos industriales",
          "_links": {
            "self": {
              "name": "Venta al por mayor de productos químicos industriales",
              "href": "https://api.euskadi.eus/procurements/companies/economic-activities/1.616.6"
            }
          }
        },
        {
          "id": "1.659.3",
          "name": "Venta al por menor de aparatos médicos, ortopédicos, ópticos y fotográficos",
          "_links": {
            "self": {
              "name": "Venta al por menor de aparatos médicos, ortopédicos, ópticos y fotográficos",
              "href": "https://api.euskadi.eus/procurements/companies/economic-activities/1.659.3"
            }
          }
        },
        {
          "id": "1.699",
          "name": "Otras reparaciones n.c.o.p",
          "_links": {
            "self": {
              "name": "Otras reparaciones n.c.o.p",
              "href": "https://api.euskadi.eus/procurements/companies/economic-activities/1.699"
            }
          }
        },
        {
          "id": "1.859",
          "name": "Alquiler de otros bienes muebles n.c.o.p. (sin personal permanente)",
          "_links": {
            "self": {
              "name": "Alquiler de otros bienes muebles n.c.o.p. (sin personal permanente)",
              "href": "https://api.euskadi.eus/procurements/companies/economic-activities/1.859"
            }
          }
        }
      ],
      "certificateStartDate": "2004-05-12",
      "certificateEndDate": "2004-10-21",
      "object": "COMPRAVENTA, IMPORTACIÓN, EXPORTACIÓN Y DISTRIBUCIÓN DE AGENTES REACTIVOS PARA DIAGNÓSTICO MÉDICO, APARATOS, MÁQUINAS, INSTRUMENTOS Y ACCESORIOS PARA LOS SECTORES DE LA SALUD Y VETERINARIO, INCLUYENDO CLÍNICAS U HOSPITALES PÚBLICOS Y PRIVADOS, LABORATORIOS E INDUSTRIAS RELACIONADAS CON LOS MENCIONADOS SECTORES",
      "mainEntityOfPage": "https://www.contratacion.euskadi.eus/webkpe00-kperoc/es/ac71aBusquedaRegistrosWar/empresa/01759",
      "_links": {
        "self": {
          "name": "DAKOCYTOMATION, S.A.U.",
          "href": "https://api.euskadi.eus/procurements/companies/01759"
        }
      }
    },
    {
      "name": "EUROPEAN VIRTUAL ENGINEERING, S.A.",
      "registrationNumber": "02337",
      "identificationNumber": "A48980437",
      "address": "AVDA. DE LOS HUETOS, 79",
      "location": {
        "postalCode": "01010",
        "municipality": "Vitoria-Gasteiz",
        "county": "Araba/Álava",
        "municipalityId": "059",
        "countyId": "01"
      },
      "economicActivities": [
        {
          "id": "1.849.9",
          "name": "Otros servicios independientes n.c.o.p",
          "_links": {
            "self": {
              "name": "Otros servicios independientes n.c.o.p",
              "href": "https://api.euskadi.eus/procurements/companies/economic-activities/1.849.9"
            }
          }
        }
      ],
      "certificateStartDate": "2004-05-10",
      "certificateEndDate": "2004-09-30",
      "object": "LA IDENTIFICACIÓN Y SELECCIÓN DE PROYECTOS DE INVESTIGACIÓN Y DESARROLLO, PARA SU POSTERIOR REALIZACIÓN TANTO EN CENTROS PROPIOS DE LA SOCIEDAD COMO EN OTROS ESPECIALIZADOS.\r\nLA FORMACIÓN DE EXPERTOS EN LAS DIFERENTES ÁREASA TECNOLÓGICAS Y DE LOS CUADROS DIRECTIVOS DE LAS EMPRESAS.\r\nLA ADQUISICIÓN, COMPRA, ALQUILER Y VENTA DE INMUEBLES RÚSTICOS Y/O URBANOS.\r\nLA REALIZACIÓN DE ACTIVIDADES DE ASESORAMIENTO A TERCEROS PARA FACILITAR EL ACCESO A TECNOLÓGICAS INFORMÁTICAS AVANZADAS EN LAS ÁREAS DE DISEÑO DE PRODUCTO Y DESARROLLO DE PROCESO.\r\nLA PROMOCIÓN Y ESTUDIO DE IMPLANTACIÓN DE NUEVAS TECNOLOGÍAS.\r\n",
      "mainEntityOfPage": "https://www.contratacion.euskadi.eus/webkpe00-kperoc/es/ac71aBusquedaRegistrosWar/empresa/02337",
      "_links": {
        "self": {
          "name": "EUROPEAN VIRTUAL ENGINEERING, S.A.",
          "href": "https://api.euskadi.eus/procurements/companies/02337"
        }
      }
    },
    {
      "name": "TEKOLUR, S.L.",
      "registrationNumber": "02428",
      "identificationNumber": "B20593133",
      "address": "ERREGENEA, CAMINO DE MARBIL Nº 20",
      "location": {
        "postalCode": "20008",
        "municipality": "Donostia / San Sebastián",
        "county": "Gipuzkoa",
        "municipalityId": "069",
        "countyId": "20"
      },
      "economicActivities": [
        {
          "id": "1.843.1",
          "name": "Servicios técnicos de ingeniería",
          "_links": {
            "self": {
              "name": "Servicios técnicos de ingeniería",
              "href": "https://api.euskadi.eus/procurements/companies/economic-activities/1.843.1"
            }
          }
        }
      ],
      "certificateStartDate": "2004-05-10",
      "certificateEndDate": "2004-10-07",
      "object": "LA EJECUCIÓN DE TODA CLASE DE ESTUDIOS Y PROYECTOS DE INGENIERÍA, INDUSTRIALES, ECONÓMICOS, COMERCIALES Y FINANCIEROS. LA PRESTACIÓN DE TODA CLASE DE ASESORAMIENTO TÉCNICO, ASÍ COMO LA PLANIFICACIÓN Y EJECUCIÓN DE TODA CLASE DE OBRAS, DE INSTALACIONES MECÁNICAS DE SEGURIDAD, DE CLIMATIZACIÓN Y ELÉCTRICAS. LA DIRECCIÓN Y SUPERVISIÓN DE OBRAS. LA ELABORACIÓN DE ENSAYOS DE LABORATORIO E INFORMES SOBRE CONTROL DE CALIDAD DE LA CONSTRUCCIÓN. TODO ELLO TANTO EN ESPAÑA COMO EN EL EXTRANJERO",
      "mainEntityOfPage": "https://www.contratacion.euskadi.eus/webkpe00-kperoc/es/ac71aBusquedaRegistrosWar/empresa/02428",
      "_links": {
        "self": {
          "name": "TEKOLUR, S.L.",
          "href": "https://api.euskadi.eus/procurements/companies/02428"
        }
      }
    },
    {
      "name": "XXI INVESLAN, S.L.",
      "registrationNumber": "02836",
      "identificationNumber": "B95224317",
      "address": "CAMINO UGASKO, 3 - 2º",
      "location": {
        "postalCode": "48014",
        "municipality": "Bilbao",
        "county": "Bizkaia",
        "municipalityId": "020",
        "countyId": "48"
      },
      "economicActivities": [
        {
          "id": "1.846",
          "name": "Empresas de estudios de mercado",
          "_links": {
            "self": {
              "name": "Empresas de estudios de mercado",
              "href": "https://api.euskadi.eus/procurements/companies/economic-activities/1.846"
            }
          }
        }
      ],
      "certificateStartDate": "2004-05-06",
      "certificateEndDate": "2004-08-25",
      "object": "REALIZACIÓN Y EJECUCIÓN DE PROYECTOS DE INVESTIGACIÓN, DESARROLLO DE ESTUDIOS DE INVESTIGACIÓN SOCIAL Y DE MERCADOS, INCLUYENDO LA REALIZACIÓN DE \"TRABAJO CAMPO CUALITATIVO\" Y \"TRABAJO CAMPO CUANTITATIVO\"; ELABORACIÓN, DESARROLLO Y EJECUCIÓN DE HERRAMIENTAS DE EVALUACIÓN Y DIAGNÓSTICO Y LA ELABORACIÓN, DESARROLLO, PRESENTACIÓN Y EJECUCIÓN DE PROYECTOS DE ÁMBITO EUROPEO",
      "mainEntityOfPage": "https://www.contratacion.euskadi.eus/webkpe00-kperoc/es/ac71aBusquedaRegistrosWar/empresa/02836",
      "_links": {
        "self": {
          "name": "XXI INVESLAN, S.L.",
          "href": "https://api.euskadi.eus/procurements/companies/02836"
        }
      }
    },
    {
      "name": "INGENIERÍA Y ECONOMÍA DEL TRANSPORTE, S.A. (INECO)",
      "registrationNumber": "00796",
      "identificationNumber": "A28220168",
      "address": "PASEO DE LA HABANA, 138",
      "location": {
        "postalCode": "28036",
        "municipality": "Madrid",
        "county": "Madrid",
        "municipalityId": "079",
        "countyId": "28"
      },
      "economicActivities": [
        {
          "id": "1.843.1",
          "name": "Servicios técnicos de ingeniería",
          "_links": {
            "self": {
              "name": "Servicios técnicos de ingeniería",
              "href": "https://api.euskadi.eus/procurements/companies/economic-activities/1.843.1"
            }
          }
        }
      ],
      "certificateStartDate": "2004-05-04",
      "certificateEndDate": "2004-09-30",
      "object": "LA REALIZACION DE TODO TIPO DE ESTUDIOS, PROYECTOS  Y TRABAJOS DE CONSULTORIA E INGENIERIA PARA TODA CLASE DE ENTIDADES, EMPRESAS Y PERSONAS NATURALES O JURIDICAS, NACIONALES O EXTRANJERAS, CON POSIBILIDAD DE ACTUACION EN TODOS LOS CAMPOS DE ESTUDIOS ECONOMICOS Y EMPRESARIALES,CONSULTORÍA INGENIERIA CIVIL, INGENIERIA AERONAUTICA, INGENIERIA INDUSTRIAL, DE TELECOMUNICACIONES, INGENIERIA MEDIOAMBIENTAL, INGENIERIA DE SISTEMAS, DE EDIFICACIÓN, DE URBANISMO Y ORDENACIÓN DEL TERRITORIO; ASI COMO LA GESTION INTEGRADA DE PROYECTOS (PROYECT MANAGEMENTE); LA DIRECCIÓN DE OBRAS E INSTALACIONES; LAREALIZACIÓN DE OBRAS, EL MANTENIMIEINTO  Y LA CONSERVACIÓN TANTO EN INFRAESTRUCTURA COMO EN EDIFICACIONES; LA PRESTACIÓN DE SERVICIOS DE LA SOCIEDAD DE LA INFORMACIÓN, LA GESTIÓN, GERENCIA, Y EXPLOTACIÓN DE CONCESIONES ADMINISTRATIVAS DE CARRETERAS, AUTOPISTAS, FERROCARRILES, AEROPUERTOS, SISTEMAS DE NAVEGACIÓN Y LOGALIZACIÓN GEOGRÁFICA, TELECOMUNICACIONES Y SERVICIOS DE LA SOCIEDAD DE INFORMACIÓN; Y EN GENERAL, DE TODAS AQUELLAS ACTIVIDADES RELACIONADAS CON EL TRANSPORTE, LAS INFRAESTRUCTURAS, LAS TELECOMUNICACIONES Y LOS SERVICIOS DE SOCIEDAD DE LA INFORMACIÓN   ",
      "mainEntityOfPage": "https://www.contratacion.euskadi.eus/webkpe00-kperoc/es/ac71aBusquedaRegistrosWar/empresa/00796",
      "_links": {
        "self": {
          "name": "INGENIERÍA Y ECONOMÍA DEL TRANSPORTE, S.A. (INECO)",
          "href": "https://api.euskadi.eus/procurements/companies/00796"
        }
      }
    }
  ]
}