{
  "totalItems": 9042,
  "totalPages": 905,
  "currentPage": 852,
  "itemsOfPage": 10,
  "items": [
    {
      "name": "GESTLAB 98, S.L.",
      "registrationNumber": "03327",
      "identificationNumber": "B48984876",
      "address": "GRAN VÍA, Nº 53-2º DCHA.",
      "location": {
        "postalCode": "48011",
        "municipality": "Bilbao",
        "county": "Bizkaia",
        "municipalityId": "020",
        "countyId": "48"
      },
      "object": ".pte",
      "mainEntityOfPage": "https://www.contratacion.euskadi.eus/webkpe00-kperoc/es/ac71aBusquedaRegistrosWar/empresa/03327",
      "_links": {
        "self": {
          "name": "GESTLAB 98, S.L.",
          "href": "https://api.euskadi.eus/procurements/companies/03327"
        }
      }
    },
    {
      "name": "MAXIMO HOLGUIN GALINDO (ZALDIGRAF)",
      "registrationNumber": "03329",
      "identificationNumber": "12230515N",
      "address": "POL. IND. EITOA, 37",
      "location": {
        "postalCode": "48240",
        "municipality": "Berriz",
        "county": "Bizkaia",
        "municipalityId": "019",
        "countyId": "48"
      },
      "mainEntityOfPage": "https://www.contratacion.euskadi.eus/webkpe00-kperoc/es/ac71aBusquedaRegistrosWar/empresa/03329",
      "_links": {
        "self": {
          "name": "MAXIMO HOLGUIN GALINDO (ZALDIGRAF)",
          "href": "https://api.euskadi.eus/procurements/companies/03329"
        }
      }
    },
    {
      "name": "CANAL EUSKADI, S.L.",
      "registrationNumber": "03335",
      "identificationNumber": "B95236683",
      "address": "C/ KAREAGA, Nº 55",
      "location": {
        "postalCode": "48903",
        "municipality": "Barakaldo",
        "county": "Bizkaia",
        "municipalityId": "013",
        "countyId": "48"
      },
      "object": "pte",
      "mainEntityOfPage": "https://www.contratacion.euskadi.eus/webkpe00-kperoc/es/ac71aBusquedaRegistrosWar/empresa/03335",
      "_links": {
        "self": {
          "name": "CANAL EUSKADI, S.L.",
          "href": "https://api.euskadi.eus/procurements/companies/03335"
        }
      }
    },
    {
      "name": "INMOGROUP, GRUPO DE PROMOCIONES INMOBILIARIAS S.A.",
      "registrationNumber": "03380",
      "identificationNumber": "11905168T",
      "address": "GRAN VIA 29, 1",
      "location": {
        "postalCode": "48009",
        "municipality": "Bilbao",
        "county": "Bizkaia",
        "municipalityId": "020",
        "countyId": "48"
      },
      "object": "pte",
      "mainEntityOfPage": "https://www.contratacion.euskadi.eus/webkpe00-kperoc/es/ac71aBusquedaRegistrosWar/empresa/03380",
      "_links": {
        "self": {
          "name": "INMOGROUP, GRUPO DE PROMOCIONES INMOBILIARIAS S.A.",
          "href": "https://api.euskadi.eus/procurements/companies/03380"
        }
      }
    },
    {
      "name": "VIAJES GANTOUR, S.A.",
      "registrationNumber": "03381",
      "identificationNumber": "A20601704",
      "address": "AUTONOMIA, 15 BAJO",
      "location": {
        "postalCode": "20000",
        "municipality": "Donostia / San Sebastián",
        "county": "Gipuzkoa",
        "municipalityId": "069",
        "countyId": "20"
      },
      "object": "pte",
      "mainEntityOfPage": "https://www.contratacion.euskadi.eus/webkpe00-kperoc/es/ac71aBusquedaRegistrosWar/empresa/03381",
      "_links": {
        "self": {
          "name": "VIAJES GANTOUR, S.A.",
          "href": "https://api.euskadi.eus/procurements/companies/03381"
        }
      }
    },
    {
      "name": "TEJAS Y CUBIERTAS LOPETEGUI, S.L.U.",
      "registrationNumber": "03387",
      "identificationNumber": "B20713566",
      "address": "ETXEBERRI 22, BARRIO OLARRAIN, APTDO CORREOS 173",
      "location": {
        "postalCode": "20400",
        "municipality": "Tolosa",
        "county": "Gipuzkoa",
        "municipalityId": "071",
        "countyId": "20"
      },
      "object": ".",
      "mainEntityOfPage": "https://www.contratacion.euskadi.eus/webkpe00-kperoc/es/ac71aBusquedaRegistrosWar/empresa/03387",
      "_links": {
        "self": {
          "name": "TEJAS Y CUBIERTAS LOPETEGUI, S.L.U.",
          "href": "https://api.euskadi.eus/procurements/companies/03387"
        }
      }
    },
    {
      "name": "AFER SERVICIO Y MANTENIMIENTO, S.A.",
      "registrationNumber": "03388",
      "identificationNumber": "A95469771",
      "address": "BARRIO BAÑALES, S/N",
      "location": {
        "postalCode": "48000",
        "municipality": "Ortuella",
        "county": "Bizkaia",
        "municipalityId": "083",
        "countyId": "48"
      },
      "object": ".",
      "mainEntityOfPage": "https://www.contratacion.euskadi.eus/webkpe00-kperoc/es/ac71aBusquedaRegistrosWar/empresa/03388",
      "_links": {
        "self": {
          "name": "AFER SERVICIO Y MANTENIMIENTO, S.A.",
          "href": "https://api.euskadi.eus/procurements/companies/03388"
        }
      }
    },
    {
      "name": "GARBIKETA, S.A.",
      "registrationNumber": "03389",
      "identificationNumber": "A48107247",
      "address": "RIBERA DE AXPE, 49. P.A.E. UDONDO NAVE 5B",
      "location": {
        "postalCode": "48950",
        "municipality": "Erandio",
        "county": "Bizkaia",
        "municipalityId": "902",
        "countyId": "48"
      },
      "object": "pte",
      "mainEntityOfPage": "https://www.contratacion.euskadi.eus/webkpe00-kperoc/es/ac71aBusquedaRegistrosWar/empresa/03389",
      "_links": {
        "self": {
          "name": "GARBIKETA, S.A.",
          "href": "https://api.euskadi.eus/procurements/companies/03389"
        }
      }
    },
    {
      "name": "IBERKONZERT, S.L.",
      "registrationNumber": "03390",
      "identificationNumber": "B48648638",
      "address": "RODRIGUEZ ARIAS 23-2º DPTO. 2",
      "location": {
        "postalCode": "48011",
        "municipality": "Bilbao",
        "county": "Bizkaia",
        "municipalityId": "020",
        "countyId": "48"
      },
      "object": "pte",
      "mainEntityOfPage": "https://www.contratacion.euskadi.eus/webkpe00-kperoc/es/ac71aBusquedaRegistrosWar/empresa/03390",
      "_links": {
        "self": {
          "name": "IBERKONZERT, S.L.",
          "href": "https://api.euskadi.eus/procurements/companies/03390"
        }
      }
    },
    {
      "name": "CONSTRUCTORA DE SISTEMAS FERROVIARIOS, S.L.",
      "registrationNumber": "03394",
      "identificationNumber": "20821823S",
      "address": "JOSE MIGUEL ITURRIOZ, 26",
      "location": {
        "postalCode": "20200",
        "municipality": "Beasain",
        "county": "Gipuzkoa",
        "municipalityId": "019",
        "countyId": "20"
      },
      "object": "pte",
      "mainEntityOfPage": "https://www.contratacion.euskadi.eus/webkpe00-kperoc/es/ac71aBusquedaRegistrosWar/empresa/03394",
      "_links": {
        "self": {
          "name": "CONSTRUCTORA DE SISTEMAS FERROVIARIOS, S.L.",
          "href": "https://api.euskadi.eus/procurements/companies/03394"
        }
      }
    }
  ]
}