{
  "totalItems": 9042,
  "totalPages": 905,
  "currentPage": 197,
  "itemsOfPage": 10,
  "items": [
    {
      "name": "EDUARDO PRIETO SABUGO",
      "registrationNumber": "10167",
      "identificationNumber": "30650952W",
      "address": "Máximo Aguirre 28, piso bajo",
      "location": {
        "postalCode": "48011",
        "municipality": "Bilbao",
        "county": "Bizkaia",
        "municipalityId": "020",
        "countyId": "48"
      },
      "economicActivities": [
        {
          "id": "2.773",
          "name": "Detectives privados y profesionales de vigilancia",
          "_links": {
            "self": {
              "name": "Detectives privados y profesionales de vigilancia",
              "href": "https://api.euskadi.eus/procurements/companies/economic-activities/2.773"
            }
          }
        }
      ],
      "certificateStartDate": "2025-10-23",
      "certificateEndDate": "2026-04-22",
      "object": "DETECTIVES PRIVADOS Y PROFESIONALES DE VIGILANCIA.",
      "mainEntityOfPage": "https://www.contratacion.euskadi.eus/webkpe00-kperoc/es/ac71aBusquedaRegistrosWar/empresa/10167",
      "_links": {
        "self": {
          "name": "EDUARDO PRIETO SABUGO",
          "href": "https://api.euskadi.eus/procurements/companies/10167"
        }
      }
    },
    {
      "name": "JAVIER DE PRADO DIEZ",
      "registrationNumber": "07523",
      "identificationNumber": "45815308K",
      "address": "GOIKO 52",
      "location": {
        "postalCode": "48360",
        "municipality": "Mundaka",
        "county": "Bizkaia",
        "municipalityId": "068",
        "countyId": "48"
      },
      "economicActivities": [
        {
          "id": "2.411",
          "name": "Arquitectos",
          "_links": {
            "self": {
              "name": "Arquitectos",
              "href": "https://api.euskadi.eus/procurements/companies/economic-activities/2.411"
            }
          }
        }
      ],
      "certificateStartDate": "2025-10-23",
      "certificateEndDate": "2026-04-21",
      "object": "ARQUITECTURA",
      "mainEntityOfPage": "https://www.contratacion.euskadi.eus/webkpe00-kperoc/es/ac71aBusquedaRegistrosWar/empresa/07523",
      "_links": {
        "self": {
          "name": "JAVIER DE PRADO DIEZ",
          "href": "https://api.euskadi.eus/procurements/companies/07523"
        }
      }
    },
    {
      "name": "MADERAS PORTILLO, S.A.",
      "registrationNumber": "06859",
      "identificationNumber": "A48118764",
      "address": "Oribe, nº 1 - Aranguren",
      "location": {
        "postalCode": "48850",
        "municipality": "Zalla",
        "county": "Bizkaia",
        "municipalityId": "096",
        "countyId": "48"
      },
      "economicActivities": [
        {
          "id": "1.754.9",
          "name": "Otros depósitos y almacenes especiales n.c.o.p",
          "_links": {
            "self": {
              "name": "Otros depósitos y almacenes especiales n.c.o.p",
              "href": "https://api.euskadi.eus/procurements/companies/economic-activities/1.754.9"
            }
          }
        },
        {
          "id": "1.912",
          "name": "Servicios forestales",
          "_links": {
            "self": {
              "name": "Servicios forestales",
              "href": "https://api.euskadi.eus/procurements/companies/economic-activities/1.912"
            }
          }
        }
      ],
      "certificateStartDate": "2025-10-23",
      "certificateEndDate": "2026-04-17",
      "object": "LA COMPRAVENTA, AL POR MAYOR O AL DETALLE, Y LA ADQUISICIÓN POR CUALQUIER TÍTULO LEGAL, DE MADERAS, MATERIAS PRIMAS DE CERÁMICA, PAPEL, PINTURAS, BARNICES Y EN GENERAL TODO PARA LA CONSTRUCCIÓN, ELABORACIÓN, TRANSFORMACIÓN, COLOCACIÓN Y COMERCIALIZACIÓN DE TALES MATERIAS. EL TRANSPORTE, GESTIÓN, ACOPIO, TRATAMIENTO DE TIERRA Y PIEDRA PROVENIENTES DE EXCAVACIONES Y DESMONTES",
      "mainEntityOfPage": "https://www.contratacion.euskadi.eus/webkpe00-kperoc/es/ac71aBusquedaRegistrosWar/empresa/06859",
      "_links": {
        "self": {
          "name": "MADERAS PORTILLO, S.A.",
          "href": "https://api.euskadi.eus/procurements/companies/06859"
        }
      }
    },
    {
      "name": "LAVANDERIA INDUSTRIAL ARRIAUNDI, S.L.",
      "registrationNumber": "05209",
      "identificationNumber": "B95719837",
      "address": "POL.IND. ARRIAUNDI (U.A.I.), 7B",
      "location": {
        "postalCode": "48215",
        "municipality": "Iurreta",
        "county": "Bizkaia",
        "municipalityId": "910",
        "countyId": "48"
      },
      "economicActivities": [
        {
          "id": "1.971.1",
          "name": "Tinte, limpieza en seco, lavado y planchado de ropas",
          "_links": {
            "self": {
              "name": "Tinte, limpieza en seco, lavado y planchado de ropas",
              "href": "https://api.euskadi.eus/procurements/companies/economic-activities/1.971.1"
            }
          }
        }
      ],
      "certificateStartDate": "2025-10-23",
      "certificateEndDate": "2026-04-22",
      "object": "LA PRESTACIÓN DE SERVICIOS DE LAVANDERÍA, LAVANDERÍA INDUSTRIAL, TINTORERÍA Y PLANCHADO DE TODO TIPO DE PRENDAS TEXTILES",
      "mainEntityOfPage": "https://www.contratacion.euskadi.eus/webkpe00-kperoc/es/ac71aBusquedaRegistrosWar/empresa/05209",
      "_links": {
        "self": {
          "name": "LAVANDERIA INDUSTRIAL ARRIAUNDI, S.L.",
          "href": "https://api.euskadi.eus/procurements/companies/05209"
        }
      }
    },
    {
      "name": "ESETEK SMART ENERGY, S.L.",
      "registrationNumber": "06371",
      "identificationNumber": "B95721577",
      "address": "CALLE BIZKAIA 2 2ºC ",
      "location": {
        "postalCode": "48300",
        "municipality": "Gernika-Lumo",
        "county": "Bizkaia",
        "municipalityId": "046",
        "countyId": "48"
      },
      "economicActivities": [
        {
          "id": "1.353",
          "name": "Fabricación de aparatos y equipo electrónico de señalización, control",
          "_links": {
            "self": {
              "name": "Fabricación de aparatos y equipo electrónico de señalización, control",
              "href": "https://api.euskadi.eus/procurements/companies/economic-activities/1.353"
            }
          }
        },
        {
          "id": "1.843.1",
          "name": "Servicios técnicos de ingeniería",
          "_links": {
            "self": {
              "name": "Servicios técnicos de ingeniería",
              "href": "https://api.euskadi.eus/procurements/companies/economic-activities/1.843.1"
            }
          }
        }
      ],
      "certificateStartDate": "2025-10-23",
      "certificateEndDate": "2026-04-21",
      "object": "- EL DISEÑO, ELABORACIÓN, FABRICACIÓN, MONTAJE, COMPRA, VENTA Y/O ALQUILER DE TODO TIPO DE MATERIAL Y EQUIPOS ELÉCTRICOS, ELECTRÓNICO, DE SONIDO E ILUMINACIÓN, DE TELECOMUNICACIONES, INSTRUMENTACIÓN, CABLES Y CONECTORES Y DEMÁS ELECTRÓNICA DE CONSUMO, Y REPUESTOS Y ACCESORIOS PARA LOS MISMOS. - EL ANÁLISIS, DESARROLLO, PROMOCIÓN, CONSTRUCCIÓN, ALQUILER Y MANTENIMIENTO DE INSTALACIONES ELÉCTRICAS DE TODO TIPO, INCLUIDAS LAS DE PRODUCCIÓN ELÉCTRICA POR EL SISTEMA FOTOVOLTAICO, O PANELES SOLARES, Y ELLO DE CONFORMIDAD CON LAS DISPOSICIONES CONTENIDAS EN LA NORMATIVA DEL SECTOR ELÉCTRICO. - LA REALIZACIÓN DE PROYECTOS, Y EJECUCIÓN DEL MATERIAL Y DESARROLLO DE TODO TIPO DE SISTEMAS E INSTALACIONES ELÉCTRICAS Y ELECTRÓNICAS, DE ALTA Y BAJA TENSIÓN, DE ILUMINACIÓN Y SONIDO, AUTOMATIZACIÓN DE MAQUINARIA Y PROCESOS, CABLEADOS ESTRUCTURADOS E INSTALACIONES DE TELECOMUNICACIONES. - LA REALIZACIÓN, CONSERVACIÓN, REPARACIÓN Y MEJORAR DE TODA CLASE DE INSTALACIONES ELÉCTRICAS INDUSTRIALES Y DOMÉSTICAS, EN TODA CLASE DE EDIFICIOS, ASÍ COMO LA REPARACIÓN DE MÁQUINAS Y APARATOS ELÉCTRICOS Y DE ILUMINACIÓN. - SERVICIOS DE ASESORAMIENTO, CONSULTORÍA, INTERMEDIACIÓN, DESARROLLO DE PROYECTOS, FORMACIÓN, REALIZACIÓN DE ESTUDIOS Y AUDITORÍAS EN MATERIA DE EFICIENCIA ENERGÉTICA. -LA IMPORTACIÓN, EXPORTACIÓN, ALQUILER, COMERCIALIZACIÓN E INSTALACIÓN DE EQUIPOS INDUSTRIALES. -CERTIFICACIÓN ENERGÉTICA DE EDIFICIOS",
      "mainEntityOfPage": "https://www.contratacion.euskadi.eus/webkpe00-kperoc/es/ac71aBusquedaRegistrosWar/empresa/06371",
      "_links": {
        "self": {
          "name": "ESETEK SMART ENERGY, S.L.",
          "href": "https://api.euskadi.eus/procurements/companies/06371"
        }
      }
    },
    {
      "name": "JOSE LUIS FALCON GAZAPO",
      "registrationNumber": "10402",
      "identificationNumber": "44127449V",
      "address": "Calle Pinutegi (20160) 6 Bajo C",
      "location": {
        "postalCode": "20160",
        "municipality": "Lasarte-Oria",
        "county": "Gipuzkoa",
        "municipalityId": "902",
        "countyId": "20"
      },
      "economicActivities": [
        {
          "id": "2.411",
          "name": "Arquitectos",
          "_links": {
            "self": {
              "name": "Arquitectos",
              "href": "https://api.euskadi.eus/procurements/companies/economic-activities/2.411"
            }
          }
        }
      ],
      "certificateStartDate": "2025-10-23",
      "certificateEndDate": "2026-04-22",
      "object": "ARQUITECTOS.",
      "mainEntityOfPage": "https://www.contratacion.euskadi.eus/webkpe00-kperoc/es/ac71aBusquedaRegistrosWar/empresa/10402",
      "_links": {
        "self": {
          "name": "JOSE LUIS FALCON GAZAPO",
          "href": "https://api.euskadi.eus/procurements/companies/10402"
        }
      }
    },
    {
      "name": "SARENET, S.A.",
      "registrationNumber": "03114",
      "identificationNumber": "A48714489",
      "address": "PARQUE TECNOLÓGICO, 103",
      "location": {
        "postalCode": "48170",
        "municipality": "Zamudio",
        "county": "Bizkaia",
        "municipalityId": "905",
        "countyId": "48"
      },
      "economicActivities": [
        {
          "id": "1.769",
          "name": "Otros servicios de telecomunicaciones",
          "_links": {
            "self": {
              "name": "Otros servicios de telecomunicaciones",
              "href": "https://api.euskadi.eus/procurements/companies/economic-activities/1.769"
            }
          }
        },
        {
          "id": "1.845",
          "name": "Explotación electrónica por cuenta de terceros",
          "_links": {
            "self": {
              "name": "Explotación electrónica por cuenta de terceros",
              "href": "https://api.euskadi.eus/procurements/companies/economic-activities/1.845"
            }
          }
        },
        {
          "id": "1.861.2",
          "name": "Alquiler de locales industriales y otros alquileres n.c.o.p",
          "_links": {
            "self": {
              "name": "Alquiler de locales industriales y otros alquileres n.c.o.p",
              "href": "https://api.euskadi.eus/procurements/companies/economic-activities/1.861.2"
            }
          }
        }
      ],
      "certificateStartDate": "2025-10-23",
      "certificateEndDate": "2026-04-15",
      "object": "LA PROVISIÓN DE PRODUCTOS Y SERVICIOS EN EL ÁMBITO DE LAS TECNOLOGÍAS DE LA INFORMACIÓN, PARTICULARMENTE LA TELEMÁTICA (LIGADA A LA INFORMÁTICA Y LAS TELECOMUNICACIONES), DIRIGIDA A PERSONAS FÍSICAS Y JURÍDICAS; EXPLOTACIÓN DE REDES TELEMÁTICAS DE VALOR AÑADIDO QUE PERMITEN EL ACCESO A SERVICIOS DE INFORMACIÓN ELECTRÓNICA (BASES DE DATOS Y SIMILARES), ACTIVIDADES RELACIONADAS CON LA TRANSMISIÓN, TRATAMIENTO Y DIFUSIÓN DE TODO TIPO DE DATOS Y ASESORAMIENTO Y FORMACIÓN ASOCIADOS A LA PROVISIÓN DE LOS SERVICIOS TELEMÁTICOS; ELABORACIÓN, PRODUCCIÓN, DIFUSIÓN Y VENTA DE INFORMACIONES QUE SEAN SUSCEPTIBLES DE TRANSMITIR A TRAVÉS DE LAS REDES TELEMÁTICAS CREADAS AL EFECTO; DISTRIBUCIÓN DE INFORMACIONES DE TERCEROS ALBERGADAS BIEN EN SUS PROPIOS EQUIPOS INFORMÁTICOS O EN MEDIOS EXPRESAMENTE CREADOS POR LA SOCIEDAD; VENTA, ALQUILER O CESIÓN DE EQUIPAMIENTO TELEMÁTICO ASÍ COMO EL MANTENIMIENTO Y CONSULTORÍA ASOCIADOS",
      "mainEntityOfPage": "https://www.contratacion.euskadi.eus/webkpe00-kperoc/es/ac71aBusquedaRegistrosWar/empresa/03114",
      "_links": {
        "self": {
          "name": "SARENET, S.A.",
          "href": "https://api.euskadi.eus/procurements/companies/03114"
        }
      }
    },
    {
      "name": "FORESTAL ZALLO, S.L.",
      "registrationNumber": "09660",
      "identificationNumber": "B95934394",
      "address": "B/ SRA. LUCIA 5",
      "location": {
        "postalCode": "48340",
        "municipality": "Amorebieta-Etxano",
        "county": "Bizkaia",
        "municipalityId": "003",
        "countyId": "48"
      },
      "economicActivities": [
        {
          "id": "1.912",
          "name": "Servicios forestales",
          "_links": {
            "self": {
              "name": "Servicios forestales",
              "href": "https://api.euskadi.eus/procurements/companies/economic-activities/1.912"
            }
          }
        }
      ],
      "certificateStartDate": "2025-10-23",
      "certificateEndDate": "2026-04-22",
      "object": "A) PLANIFICACIÓN, PROYECTO Y EJECUCIÓN DE TODA CLASE DE TRABAJOS DE EXPLOTACIÓN FORESTAL Y DE CONSERVACIÓN DE LA NATURALEZA, TALES COMO LA TALA, LA LIMPIEZA Y LA REPOBLACIÓN FORESTAL, ASÍ COMO EL ASESORAMIENTO Y CONSULTORIA DE DICHAS MATERIAS. B) EL COMERCIO, AL POR MAYOR Y AL POR MENOR, DE MADERAS EN GENERAL. C) EL COMERCIO DE MAQUINARIA EN GENERAL.",
      "mainEntityOfPage": "https://www.contratacion.euskadi.eus/webkpe00-kperoc/es/ac71aBusquedaRegistrosWar/empresa/09660",
      "_links": {
        "self": {
          "name": "FORESTAL ZALLO, S.L.",
          "href": "https://api.euskadi.eus/procurements/companies/09660"
        }
      }
    },
    {
      "name": "RECICLAJES Y DEMOLICIONES DEL NORTE, S.L.",
      "registrationNumber": "02860",
      "identificationNumber": "B20539300",
      "address": "TROIA IBILBIDEA  20, NAVE 7-B6",
      "location": {
        "postalCode": "20115",
        "municipality": "Astigarraga",
        "county": "Gipuzkoa",
        "municipalityId": "903",
        "countyId": "20"
      },
      "economicActivities": [
        {
          "id": "1.502.1",
          "name": "Demoliciones y derribos en general",
          "_links": {
            "self": {
              "name": "Demoliciones y derribos en general",
              "href": "https://api.euskadi.eus/procurements/companies/economic-activities/1.502.1"
            }
          }
        }
      ],
      "certificateStartDate": "2025-10-23",
      "certificateEndDate": "2026-04-14",
      "classification": [
        {
          "id": "O",
          "name": "Obras",
          "groups": [
            {
              "id": "A",
              "name": "MOVIMIENTO DE TIERRAS Y PERFORACIONES",
              "subgroups": [
                {
                  "id": "01",
                  "name": "DESMONTES Y VACIADOS",
                  "categories": [
                    {
                      "id": "2",
                      "name": "Desde 150.001 Hasta 360.000",
                      "_links": {
                        "self": {
                          "name": "Desde 150.001 Hasta 360.000",
                          "href": "https://api.euskadi.eus/procurements/companies/types/O/categories/2"
                        }
                      }
                    }
                  ],
                  "_links": {
                    "self": {
                      "name": "DESMONTES Y VACIADOS",
                      "href": "https://api.euskadi.eus/procurements/companies/types/O/groups/A/subgroups/01"
                    }
                  }
                }
              ],
              "_links": {
                "self": {
                  "name": "MOVIMIENTO DE TIERRAS Y PERFORACIONES",
                  "href": "https://api.euskadi.eus/procurements/companies/types/O/groups/A"
                }
              }
            },
            {
              "id": "C",
              "name": "EDIFICACIONES",
              "subgroups": [
                {
                  "id": "01",
                  "name": "DEMOLICIONES",
                  "categories": [
                    {
                      "id": "4",
                      "name": "Desde 840.001 Hasta 2.400.000",
                      "_links": {
                        "self": {
                          "name": "Desde 840.001 Hasta 2.400.000",
                          "href": "https://api.euskadi.eus/procurements/companies/types/O/categories/4"
                        }
                      }
                    }
                  ],
                  "_links": {
                    "self": {
                      "name": "DEMOLICIONES",
                      "href": "https://api.euskadi.eus/procurements/companies/types/O/groups/C/subgroups/01"
                    }
                  }
                }
              ],
              "_links": {
                "self": {
                  "name": "EDIFICACIONES",
                  "href": "https://api.euskadi.eus/procurements/companies/types/O/groups/C"
                }
              }
            }
          ],
          "_links": {
            "self": {
              "name": "Obras",
              "href": "https://api.euskadi.eus/procurements/companies/types/O"
            }
          }
        }
      ],
      "object": "ARRENDAMIENTO DE MAQUINARIA Y EQUIPOS PARA LA CONSTRUCCIÓN; EXPLANACIONES Y DEMONTES DE TERRENOS; REALIZACIÓN DE PEQUEÑOS TRABAJOS, DERRIBOS Y DEMOLICIONES, CANALIZACIONES DE MUROS DE CONTENCIÓN Y TODO LO RELACIONADO CON LA CONSOLIDACIÓN Y PREPARACIÓN DE TERRENOS; EL TRANSPORTE DE MERCANCÍAS POR CARRETERA INCLUIDOS LOS TRANSPORTES DE TIERRAS DE EXCAVACIONES Y OTROS MOVIMIENTOS PRODUCIDOS POR TRABAJOS DE OBRAS PÚBLICAS Y DE PROMOTORES PRIVADOS",
      "mainEntityOfPage": "https://www.contratacion.euskadi.eus/webkpe00-kperoc/es/ac71aBusquedaRegistrosWar/empresa/02860",
      "_links": {
        "self": {
          "name": "RECICLAJES Y DEMOLICIONES DEL NORTE, S.L.",
          "href": "https://api.euskadi.eus/procurements/companies/02860"
        }
      }
    },
    {
      "name": "BLAZQUEZ ESPACIOS, S.L.",
      "registrationNumber": "06527",
      "identificationNumber": "B75114348",
      "address": "POLIGONO KATAIDE, 23",
      "location": {
        "postalCode": "20500",
        "municipality": "Arrasate / Mondragón",
        "county": "Gipuzkoa",
        "municipalityId": "055",
        "countyId": "20"
      },
      "economicActivities": [
        {
          "id": "1.659.2",
          "name": "Venta al por menor de muebles de oficina y máquinas y equipos de oficina",
          "_links": {
            "self": {
              "name": "Venta al por menor de muebles de oficina y máquinas y equipos de oficina",
              "href": "https://api.euskadi.eus/procurements/companies/economic-activities/1.659.2"
            }
          }
        },
        {
          "id": "1.843.2",
          "name": "Servicios técnicos de arquitectura y urbanismo",
          "_links": {
            "self": {
              "name": "Servicios técnicos de arquitectura y urbanismo",
              "href": "https://api.euskadi.eus/procurements/companies/economic-activities/1.843.2"
            }
          }
        }
      ],
      "certificateStartDate": "2025-10-23",
      "certificateEndDate": "2026-04-22",
      "object": "LA VENTA DE MOBILIARIO DE OFICINA Y SUS COMPLEMENTOS. LA EJECUCIÓN DE OBRAS DE REFORMAS DE INMUEBLES TANTO EN ESPACIOS INTERIORES COMO EXTERIORES. LA PRESTACIÓN DE SERVICIOS TÉCNICOS DE ARQUITECTURA Y URBANISMO. LA GESTIÓN Y ADMINISTRACIÓN DE OTRAS SOCIEDADES O PATRIMONIOS; ADMINISTRACIÓN, EXPLOTACIÓN, ADQUISICIÓN Y DISPOSICIÓN DE TÍTULOS VALORES U OTROS BIENES MUEBLES E INMUEBLES",
      "mainEntityOfPage": "https://www.contratacion.euskadi.eus/webkpe00-kperoc/es/ac71aBusquedaRegistrosWar/empresa/06527",
      "_links": {
        "self": {
          "name": "BLAZQUEZ ESPACIOS, S.L.",
          "href": "https://api.euskadi.eus/procurements/companies/06527"
        }
      }
    }
  ]
}