{
  "totalItems": 9042,
  "totalPages": 905,
  "currentPage": 516,
  "itemsOfPage": 10,
  "items": [
    {
      "name": "AVANTI21 SISTEMAS Y TELECOMUNICACIONES, S.L.",
      "registrationNumber": "05403",
      "identificationNumber": "B33486895",
      "address": "C/ GONZÁLEZ BESADA, 31-Bajo",
      "location": {
        "postalCode": "33007",
        "municipality": "Oviedo",
        "county": "Asturias",
        "municipalityId": "044",
        "countyId": "33"
      },
      "economicActivities": [
        {
          "id": "1.659.2",
          "name": "Venta al por menor de muebles de oficina y máquinas y equipos de oficina",
          "_links": {
            "self": {
              "name": "Venta al por menor de muebles de oficina y máquinas y equipos de oficina",
              "href": "https://api.euskadi.eus/procurements/companies/economic-activities/1.659.2"
            }
          }
        },
        {
          "id": "1.933.9",
          "name": "Otras actividades de enseñanza tales como idiomas, mecanografía",
          "_links": {
            "self": {
              "name": "Otras actividades de enseñanza tales como idiomas, mecanografía",
              "href": "https://api.euskadi.eus/procurements/companies/economic-activities/1.933.9"
            }
          }
        }
      ],
      "certificateStartDate": "2021-09-07",
      "certificateEndDate": "2022-03-06",
      "object": "LA PRESTACIÓN DE CUALQUIER TIPO DE SERVICIO INFORMÁTICO, MEDIANTE LA UTILIZACIÓN DE EQUIPOS DE PROCESO DE INFORMACIÓN, APLICACIONES Y PROGRAMAS, EN TODO ÁMBITO Y COMBINACIÓN. LA REALIZACIÓN DE TRABAJOS DE ENCUESTACIÓN, INVENTARIO, MEDICIÓN, VALORACIÓN, CODIFICACIÓN, CLASIFICACIÓN Y CAPTURA DE DATOS EN TODAS SUS MODALIDADES Y CAMPOS DE APLICACIÓN, CIENTÍFICO, TÉCNICO, COMERCIAL, CATASTRAL, O DE CUALQUIER OTRO ÁMBITO. EL MANEJO Y TRASPADO DE DATOS E INFORMACIÓN SOBRE PLANOS, FOTOGRAFÍAS, SOPORTES MAGNÉTICOS, PANTALLAS Y CUALQUIER OTRO MEDIO EN GENERAL. LA ELABORACIÓN Y DISTRIBUCIÓN DE BASES DE DATOS DE INFORMACIÓN, CONSULTAS Y PRESTACIÓN DE SERVICIOS DE VALOR AÑADIDO TELEMÁTICO Y TELEFÓNICO. EL DISEÑO, FABRICACIÓN Y DESARROLLO DE PROGRAMAS Y APLICACIONES INFORMÁTICAS DE CUALQUIER ÍNDOLE. LA DISTRIBUCIÓN, ARRENDAMIENTO, ALQUILER Y VENTA DE PROGRAMAS Y APLICACIONES INFORMÁTICOS, PROPIOS O DE TERCEROS. LA FABRICACIÓN Y DESARROLLO DE EQUIPOS, APARATOS Y COMPONENTES  INFORMÁTICOS, INCLUSO SU ENSAMBLAJE. LA DISTRIBUCIÓN, ARRENDAMIENTO, ALQUILER, VENTA Y MANTENIMIENTO TÉCNICO DE EQUIPOS Y COMPONENTES INFORMÁTICOS PROPIOS O DE TERCEROS. LA ORGANIZACIÓN, ASESORAMIENTO, AUDITORÍA Y EVALUACIÓN DE EMPRESAS Y ORGANISMOS EN LOS ÁMBITOS ECONÓMICO, LABORAL, FISCAL, INFORMÁTICO, TÉCNICO Y JURÍDICO. LA FORMACIÓN DE PERSONAL EN GENERAL. LA ENSEÑANZA REGLADA EN TODOS SUS NIVELES, CON PREFERENCIAL DEDICACIÓN A LA FORMACIÓN PROFESIONAL EN EL CAMPO DE LA INFORMÁTICA DE GESTIÓN",
      "mainEntityOfPage": "https://www.contratacion.euskadi.eus/webkpe00-kperoc/es/ac71aBusquedaRegistrosWar/empresa/05403",
      "_links": {
        "self": {
          "name": "AVANTI21 SISTEMAS Y TELECOMUNICACIONES, S.L.",
          "href": "https://api.euskadi.eus/procurements/companies/05403"
        }
      }
    },
    {
      "name": "VALNERA CONSULTORÍA Y SISTEMAS S.L.",
      "registrationNumber": "05585",
      "identificationNumber": "B39505367",
      "address": "Ctro. Empresarial Zoco Gran Santander, Local 145B",
      "location": {
        "postalCode": "39011",
        "municipality": "Santander",
        "county": "Cantabria",
        "municipalityId": "075",
        "countyId": "39"
      },
      "economicActivities": [
        {
          "id": "1.659.2",
          "name": "Venta al por menor de muebles de oficina y máquinas y equipos de oficina",
          "_links": {
            "self": {
              "name": "Venta al por menor de muebles de oficina y máquinas y equipos de oficina",
              "href": "https://api.euskadi.eus/procurements/companies/economic-activities/1.659.2"
            }
          }
        },
        {
          "id": "1.691.9",
          "name": "Reparación de otros bienes de consumo n.c.o.p",
          "_links": {
            "self": {
              "name": "Reparación de otros bienes de consumo n.c.o.p",
              "href": "https://api.euskadi.eus/procurements/companies/economic-activities/1.691.9"
            }
          }
        },
        {
          "id": "1.845",
          "name": "Explotación electrónica por cuenta de terceros",
          "_links": {
            "self": {
              "name": "Explotación electrónica por cuenta de terceros",
              "href": "https://api.euskadi.eus/procurements/companies/economic-activities/1.845"
            }
          }
        },
        {
          "id": "1.932.1",
          "name": "Enseñanza de formación y perfeccionamiento profesional no superior",
          "_links": {
            "self": {
              "name": "Enseñanza de formación y perfeccionamiento profesional no superior",
              "href": "https://api.euskadi.eus/procurements/companies/economic-activities/1.932.1"
            }
          }
        }
      ],
      "certificateStartDate": "2021-09-07",
      "certificateEndDate": "2022-03-06",
      "object": "EL ESTUDIO, DESARROLLO Y PUESTA EN SERVICIO DE PROYECTOS DE INFORMÁTICA Y TELECOMUNICACIONES. EL MANTENIMIENTO DE EQUIPOS E INSTALACIONES DE INFORMÁTICA, OFIMÁTICA, TELECOMUNICACIÓN, ELECTRICIDAD Y MAQUINARIA EN GENERAL Y SU COMERCIALIZACIÓN. LA COMERCIALIZACIÓN Y VENTA DE EQUIPOS INFORMÁTICOS. Y LA CREACIÓN, REPRESENTACIÓN, DISTRIBUCIÓN, IMPORTACIÓN, EXPORTACIÓN, COMERCIALIZACIÓN Y VENTA DE PROGRAMAS INFORMÁTICOS",
      "mainEntityOfPage": "https://www.contratacion.euskadi.eus/webkpe00-kperoc/es/ac71aBusquedaRegistrosWar/empresa/05585",
      "_links": {
        "self": {
          "name": "VALNERA CONSULTORÍA Y SISTEMAS S.L.",
          "href": "https://api.euskadi.eus/procurements/companies/05585"
        }
      }
    },
    {
      "name": "ELABORA AGENCIA PARA LA CALIDAD EN LA CONSTRUCCIÓN, S.L.",
      "registrationNumber": "07873",
      "identificationNumber": "B91433888",
      "address": "calle Pino Central nº44",
      "location": {
        "postalCode": "41016",
        "municipality": "Sevilla",
        "county": "Sevilla",
        "municipalityId": "091",
        "countyId": "41"
      },
      "economicActivities": [
        {
          "id": "1.843.9",
          "name": "Otros servicios técnicos n.c.o.p",
          "_links": {
            "self": {
              "name": "Otros servicios técnicos n.c.o.p",
              "href": "https://api.euskadi.eus/procurements/companies/economic-activities/1.843.9"
            }
          }
        }
      ],
      "certificateStartDate": "2021-09-06",
      "certificateEndDate": "2022-03-01",
      "object": "RECONOCIMIENTOS GEOLÓGICOS, HIDROGEOLÓGICOS, GEOTÉCNICOS Y GEOFÍSICOS MEDIANTE LA EJECUCIÓN DE PROSPECCIONES EN EL CAMPO Y DE ENSAYOS Y PRUEBAS \"IN SITU\" Y TOMA DE MUESTRAS. INSTRUMENTACIÓN Y AUSCULTACIÓN DE PROSPECCIONES GEOTÉCNICAS, EDIFICACIONES, ESTRUCTURAS Y FIRMES DE CARRETERAS. EXAMEN, ANÁLISIS E INVESTIGACIÓN MEDIANTE ENSAYOS, PRUEBAS Y CONTROLES, TANTO FÍSICOS COMO QUÍMICOS Y MECÁNICOS, DE MATERIALES, EQUIPOS Y ELEMENTOS CONSTRUCTIVOS, INCLUYENDO LA TOMA Y FABRICACIÓN DE MUESTRAS Y PROBETAS. ENSAYOS Y PRUEBAS DE SERVICIO Y DE FUNCIONAMIENTO DE ESTRUCTURAS, MATERIALES, UNIDADES, EQUIPOS E INSTALACIONES. ESTUDIOS PREVIOS DE TOPOGRAFÍA PARA TODO TIPO DE OBRAS Y CONSTRUCCIONES. ESTUDIOS PREVIOS DE RECONOCIMIENTO Y DIAGNOSIS DE DAÑOS PARA REHABILITACIÓN DE CONSTRUCCIONES. REALIZACIÓN DE CÁLCULOS, COMPROBACIONES Y ESTUDIOS DE ELEMENTOS, ESTRUCTURAS, CIMENTACIONES, FIRMES, ESTRUCTURAS DE TIERRA E INSTALACIONES. ESTUDIOS, PROYECTOS, DIRECCIÓN DE OBRAS Y GESTIÓN DE EXPLOTACIÓN, EN OBRAS DE EDIFICACIÓN, DE CONSTRUCCIONES INDUSTRIALES Y DEPORTIVAS; DE CONSTRUCCIÓN DE INFRAESTRUCTURAS DE CARRETERAS, FERROCARRILES Y OBRAS HIDRÁULICAS Y MARÍTIMAS; URBANIZACIONES; INSTALACIONES INDUSTRIALES; DE TRATAMIENTO DE RESIDUOS Y DE RESTAURACIÓN AMBIENTAL. INCLUYE LA REALIZACIÓN TOTAL DE LAS ACTIVIDADES, LA ASISTENCIA TÉCNICA A LAS MISMAS, LA CONSULTORÍA O LA REALIZACIÓN DE ACTIVIDADES PARCIALES. CONTROL TÉCNICO DE PROYECTOS, DE EJECUCIÓN O PUESTA EN OBRA DE MATERIALES, ASÍ COMO DE ENSAYOS DE MATERIALES REALIZADOS POR OTROS LABORATORIOS. AUDITORÍAS, INSPECCIONES Y ASEGURAMIENTO DE SISTEMAS DE CALIDAD EN CONSTRUCCIÓN. EMISIÓN DE INFORMES, DICTÁMENES Y PERITACIONES SOBRE TODAS LAS ACTIVIDADES ANTERIORES. ESTUDIOS Y ACTIVIDADES DE COORDINACIÓN EN MATERIA DE SEGURIDAD Y SALUD LABORAL EN OBRAS DE CONSTRUCCIÓN. ORGANIZACIÓN, GESTIÓN E IMPARTICIÓN DE FORMACIÓN TÉCNICA EN CUALQUIERA DE LOS ÁMBITOS ANTERIORES, TANTO EN RÉGIMEN PRIVADO COMO OFICIAL. LOS ACTOS PROFESIONALES QUE ASÍ LO REQUIERAN DEBERÁN SER REALIZADOS POR PROFESIONALES AL EFECTO LEGITIMADO POR EL CORRESPONDIENTE TÍTULO OFICIAL.",
      "mainEntityOfPage": "https://www.contratacion.euskadi.eus/webkpe00-kperoc/es/ac71aBusquedaRegistrosWar/empresa/07873",
      "_links": {
        "self": {
          "name": "ELABORA AGENCIA PARA LA CALIDAD EN LA CONSTRUCCIÓN, S.L.",
          "href": "https://api.euskadi.eus/procurements/companies/07873"
        }
      }
    },
    {
      "name": "ARGA TECHNICAL SALES SL",
      "registrationNumber": "07869",
      "identificationNumber": "B42828392",
      "address": "POLIGONO ZERRADI 1",
      "location": {
        "postalCode": "20180",
        "municipality": "Oiartzun",
        "county": "Gipuzkoa",
        "municipalityId": "063",
        "countyId": "20"
      },
      "economicActivities": [
        {
          "id": "1.617.9",
          "name": "Venta al por mayor interindustrial de otros productos n.c.o.p",
          "_links": {
            "self": {
              "name": "Venta al por mayor interindustrial de otros productos n.c.o.p",
              "href": "https://api.euskadi.eus/procurements/companies/economic-activities/1.617.9"
            }
          }
        }
      ],
      "certificateStartDate": "2021-09-03",
      "certificateEndDate": "2022-02-28",
      "object": "INTERMEDIACIÓN Y VENTA DIRECTA DE MAQUINARIA EN GENERAL",
      "mainEntityOfPage": "https://www.contratacion.euskadi.eus/webkpe00-kperoc/es/ac71aBusquedaRegistrosWar/empresa/07869",
      "_links": {
        "self": {
          "name": "ARGA TECHNICAL SALES SL",
          "href": "https://api.euskadi.eus/procurements/companies/07869"
        }
      }
    },
    {
      "name": "ELECTROSISTEMAS BACH, S.A.",
      "registrationNumber": "07866",
      "identificationNumber": "A08513749",
      "address": "calle Mar Mediterraneo, 9. Polígono Industrial La Torre del Rector",
      "location": {
        "postalCode": "08130",
        "municipality": "Santa Perpètua de Mogoda",
        "county": "Barcelona",
        "municipalityId": "260",
        "countyId": "08"
      },
      "economicActivities": [
        {
          "id": "1.504.1",
          "name": "Instalaciones eléctricas en general",
          "_links": {
            "self": {
              "name": "Instalaciones eléctricas en general",
              "href": "https://api.euskadi.eus/procurements/companies/economic-activities/1.504.1"
            }
          }
        }
      ],
      "certificateStartDate": "2021-09-01",
      "certificateEndDate": "2022-01-30",
      "object": "DESARROLLAR, FABRICAR, SISTEMATIZAR, SUMINISTRAR, INSTALAR, MANTENER Y COMERCIALIZAR EQUIPOS ELECTRÓNICOS Y ELECTROMECÁNICOS DESTINADOS AL FERROCARRIL Y TRANSPORTES, ASÍ COMO LA REALIZACIÓN DE EDIFICIOS Y OBRAS DE CUALQUIER CLASE NECESARIOS PARA EL FUNCIONAMIENTO DE AQUELLOS SISTEMAS",
      "mainEntityOfPage": "https://www.contratacion.euskadi.eus/webkpe00-kperoc/es/ac71aBusquedaRegistrosWar/empresa/07866",
      "_links": {
        "self": {
          "name": "ELECTROSISTEMAS BACH, S.A.",
          "href": "https://api.euskadi.eus/procurements/companies/07866"
        }
      }
    },
    {
      "name": "PARRIZA PREMIUM, S.L.",
      "registrationNumber": "07865",
      "identificationNumber": "B45861465",
      "address": "CALLE DINAMARCA 4 - PLANTA 2, OFC. 3",
      "location": {
        "postalCode": "45005",
        "municipality": "Toledo",
        "county": "Toledo",
        "municipalityId": "168",
        "countyId": "45"
      },
      "economicActivities": [
        {
          "id": "1.612.1",
          "name": "Venta al por mayor de toda clase de productos alimenticios, bebidas, tabaco",
          "_links": {
            "self": {
              "name": "Venta al por mayor de toda clase de productos alimenticios, bebidas, tabaco",
              "href": "https://api.euskadi.eus/procurements/companies/economic-activities/1.612.1"
            }
          }
        },
        {
          "id": "1.615.9",
          "name": "Venta al por mayor de otros artículos de consumo duradero n.c.o.p",
          "_links": {
            "self": {
              "name": "Venta al por mayor de otros artículos de consumo duradero n.c.o.p",
              "href": "https://api.euskadi.eus/procurements/companies/economic-activities/1.615.9"
            }
          }
        }
      ],
      "certificateStartDate": "2021-09-01",
      "certificateEndDate": "2022-02-21",
      "object": "COMERCIO AL POR MAYOR NO ESPECIALIZADO. COMERCIO AL POR MAYOR, NO ESPECIALIZADO, DE PRODUCTOS ALIMENTICIOS, BEBIDAS Y TABACO. PROVEER Y GESTIONAR LOS MEDIOS NECESARIOS PARA LA PRESTACIÓN DE SERVICIOS DE GESTIÓN Y ADMINISTRACIÓN DE LA PROPIEDAD INMOBILIARIA SIRVIENDO LA SOCIEDAD DE INTERMEDIARIA PARA QUE SEAN LOS PROFESIONALES PERSONAS FÍSICAS QUIENES REALICEN LAS INDICADAS ACTIVIDADES, ASÍ COMO LA COORDINADORA DE LAS DIFERENTES PRESTACIONES ESPECÍFICAS SEGUIDAS. COMERCIO AL POR MAYOR DE MUEBLES, ALFOMBRAS Y APARATOS DE ILUMINACIÓN.OTRAS ACTIVIDADES DE LIMPIEZA. OTRAS ACTIVIDADES RECREATIVAS Y DE ENTRETENIMIENTO. OTRAS ACTIVIDADES DE CONSTRUCCIÓN ESPECIALIZADA",
      "mainEntityOfPage": "https://www.contratacion.euskadi.eus/webkpe00-kperoc/es/ac71aBusquedaRegistrosWar/empresa/07865",
      "_links": {
        "self": {
          "name": "PARRIZA PREMIUM, S.L.",
          "href": "https://api.euskadi.eus/procurements/companies/07865"
        }
      }
    },
    {
      "name": "TAK LEARNING, S.L.",
      "registrationNumber": "07864",
      "identificationNumber": "B75001743",
      "address": "Calle Juan Fermin Gilisagasti, nº 2-3 oficina 313",
      "location": {
        "postalCode": "20018",
        "municipality": "Donostia / San Sebastián",
        "county": "Gipuzkoa",
        "municipalityId": "069",
        "countyId": "20"
      },
      "economicActivities": [
        {
          "id": "1.847",
          "name": "Servicios de consultoría",
          "_links": {
            "self": {
              "name": "Servicios de consultoría",
              "href": "https://api.euskadi.eus/procurements/companies/economic-activities/1.847"
            }
          }
        }
      ],
      "certificateStartDate": "2021-09-01",
      "certificateEndDate": "2022-02-22",
      "object": "LA PRESTACIÓN DE SERVICIOS DE DESARROLLO Y MANTENIMIENTO INFORMÁTICOS, TELEMÁTICOS, AUDIOVISUALES Y MULTIMEDIA, LA CREACIÓN DE MATERIALES Y CONTENIDOS TANTO EN FORMATO PAPEL COMO EN FORMATO DIGITAL O AUDIOVISUAL Y LA IMPARTICIÓN Y TUTORIZACIÓN DE CURSOS DE FORMACIÓN PRESENCIAL Y ONLINE, TODO ELLO EN EL ÁMBITO DE LA FORMACIÓN",
      "mainEntityOfPage": "https://www.contratacion.euskadi.eus/webkpe00-kperoc/es/ac71aBusquedaRegistrosWar/empresa/07864",
      "_links": {
        "self": {
          "name": "TAK LEARNING, S.L.",
          "href": "https://api.euskadi.eus/procurements/companies/07864"
        }
      }
    },
    {
      "name": "TUNSTALL IBÉRICA, S.A.",
      "registrationNumber": "07863",
      "identificationNumber": "A84076264",
      "address": "AVENIDA CASTILLA, 2 PE SAN FERNANDO EDIF MÚNICH 2ª PL.",
      "location": {
        "postalCode": "28830",
        "municipality": "San Fernando de Henares",
        "county": "Madrid",
        "municipalityId": "130",
        "countyId": "28"
      },
      "economicActivities": [
        {
          "id": "1.615.4",
          "name": "Venta al por mayor de aparatos y material radioeléctrico y electrónico",
          "_links": {
            "self": {
              "name": "Venta al por mayor de aparatos y material radioeléctrico y electrónico",
              "href": "https://api.euskadi.eus/procurements/companies/economic-activities/1.615.4"
            }
          }
        },
        {
          "id": "1.849.7",
          "name": "Servicios de gestión administrativa",
          "_links": {
            "self": {
              "name": "Servicios de gestión administrativa",
              "href": "https://api.euskadi.eus/procurements/companies/economic-activities/1.849.7"
            }
          }
        },
        {
          "id": "1.942.9",
          "name": "Otros servicios sanitarios sin internados, no clasificados",
          "_links": {
            "self": {
              "name": "Otros servicios sanitarios sin internados, no clasificados",
              "href": "https://api.euskadi.eus/procurements/companies/economic-activities/1.942.9"
            }
          }
        }
      ],
      "certificateStartDate": "2021-09-01",
      "certificateEndDate": "2021-12-11",
      "object": "1.- LA COMERCIALIZACIÓN, ADQUISICIÓN, FABRICACIÓN, IMPORTACIÓN, EXPORTACIÓN, REPRESENTACIÓN PROMOCIÓN, VENTA Y DISTRIBUCIÓN DE TODA CLASE DE SERVICIOS, ARTÍCULOS, PRODUCTOS, DISPOSITIVOS Y MERCANCÍAS PRIMORDIALMENTE EN LOS CAMPOS DE TELEASISTENCIA LLAMADA DE ENFERMERAS Y ATENCIÓN A PERSONAS MAYORES. 2.- SUMINISTRO, SERVICIOS DE MANTENIMIENTO Y REPARACIÓN DE EQUIPOS E INSTALACIONES INFORMÁTICOS Y DE TELECOMUNICACIONES. 3.- SUMINISTRO, DESARROLLO, DISEÑO Y MANTENIMIENTO DE PROGRAMAS DE ORDENADOR, PÁGINAS WEB Y PLATAFORMAS INFORMÁTICAS. 4.- SERVICIOS DE CAPTURA DE INFORMACIÓN POR MEDIO ELECTRÓNICO, INFORMÁTICO Y TELEMÁTICOS. 5.- LA INVERSIÓN, ADQUISICIÓN, ENAJENACIÓN Y/O PARTICIPACIÓN, DIRECTA O INDIRECTAMENTE EN CUALESQUIERA NEGOCIOS, OPERACIONES Y/O ACTIVIDADES RELACIONADAS CON LA TELEASISTENCIA Y EN GENERAL LA OPERACIÓN DE NEGOCIOS MERCANTILES DE TODAS CLASES RELACIONADOS CON EL CUMPLIMIENTO DE LOS ANTERIORES OBJETIVOS",
      "mainEntityOfPage": "https://www.contratacion.euskadi.eus/webkpe00-kperoc/es/ac71aBusquedaRegistrosWar/empresa/07863",
      "_links": {
        "self": {
          "name": "TUNSTALL IBÉRICA, S.A.",
          "href": "https://api.euskadi.eus/procurements/companies/07863"
        }
      }
    },
    {
      "name": "ARMONIA LIMPIEZA SOFT FACILITIES SOLUTIONS ESPAÑA, S.L.",
      "registrationNumber": "07861",
      "identificationNumber": "B65257719",
      "address": "GRAN VIA CORTS CATALANES 866 3A",
      "location": {
        "postalCode": "08018",
        "municipality": "Barcelona",
        "county": "Barcelona",
        "municipalityId": "019",
        "countyId": "08"
      },
      "economicActivities": [
        {
          "id": "1.922",
          "name": "Servicios de limpieza",
          "_links": {
            "self": {
              "name": "Servicios de limpieza",
              "href": "https://api.euskadi.eus/procurements/companies/economic-activities/1.922"
            }
          }
        }
      ],
      "certificateStartDate": "2021-08-31",
      "certificateEndDate": "2022-02-05",
      "object": "1.- PRESTACIÓN DE SERVICIOS DE ORDENANZAS, CONSERJES, PORTEROS, CONDUCTORES Y SIMILARES. 2.- SERVICIOS DE INSPECCIÓN, CONTROL Y MANTENIMIENTO DE EDIFICIOS, LOCALES COMERCIALES, INSTALACIONES INDUSTRIALES, APARCAMIENTOS Y OBRAS. 3.- PRESTACIÓN DE SERVICIOS DE ASESORAMIENTO, ASISTENCIA TÉCNICA, COMERCIAL Y EJECUCIÓN DE TRABAJOS ADMINISTRATIVOS, TÉCNICOS, JURÍDICOS, ORGANIZATIVOS E INFORMÁTICOS (INCLUIDO EL DESARROLLO DE APLICACIONES INFORMÁTICAS), A TRAVÉS DE ESPECIALISTAS EN LAS CITADAS MATERIAS. SERVICIOS DE TRADUCTORES, INTÉRPRETES, PROYECTISTAS, MECANÓGRAFOS, TELEFONISTAS, ESTENOTIPISTAS, OPERADORES DE ORDENADOR, PROGRAMADORES, SECRETARIAS, ACOMODADORES, COBRADORES, CUIDADORES, SOCORRISTAS, PERSONAL DE SALA, TAQUILLEROS (INCLUYENDO RECOGIDA DE ENTRADAS) Y PROFESIONALES AFINES QUE COMPLEMENTEN SUS FUNCIONES, ASÍ COMO EN LA ATENCIÓN Y SERVICIOS A VECINOS, OCUPANTES, VISITANTES Y USUARIOS. 4.- PRESTACIÓN DE SERVICIOS DE LIMPIEZA, MANTENIMIENTO Y CONSERVACIÓN DE BIENES INMUEBLES Y BIENES MUEBLES DE USO PARTICULAR, COMERCIAL E INDUSTRIAL, CON INCLUSIÓN DE INSTALACIONES INDUSTRIALES, HOSPITALARIAS, GRANDES SUPERFICIES, VÍAS URBANAS, PARQUES Y JARDINES. 5.- PRESTACIÓN DE SERVICIOS DE COMIDAS PREPARADAS Y EN GENERAL CUALQUIER SERVICIO RELACIONADO CON LA ACTIVIDAD DE CATERING DESDE LA ELABORACIÓN DE COMIDAS HASTA LA EXPEDICIÓN DE LAS MISMAS. 6.- PRESTACIÓN DE SERVICIOS DE RECEPCIÓN, ASISTENCIA Y ATENCIÓN EN VIAJES Y HOSPEDERÍAS. 7.- SERVICIOS DE ALMACENAMIENTO, TRANSPORTE Y DISTRIBUCIÓN DE BIENES, ASÍ COMO SERVICIOS RELACIONADOS CON LA ACTIVIDAD LOGÍSTICA, INCLUYENDO SERVICIOS DE CARGA, DESCARGA, ESTIBA, DESESTIBA, TRANSPORTE, DISTRIBUCIÓN, COLOCACIÓN, CLASIFICACIÓN, CONTROL DE ALMACÉN, PREPARACIÓN DE INVENTARIOS, REPOSICIÓN Y CONTROL DE EXISTENCIAS EN ALMACENES. 8.- PRESTACIÓN DE SERVICIOS DE INSPECCIÓN Y CONTROL DE CALIDAD, INSPECCIONES TÉCNICAS Y CONTROL DE PASAJEROS EN TRANSPORTE MARÍTIMO, AÉREO Y TERRESTRE. 9.- PRESTACIÓN DE SERVICIOS EN LÍNEAS DE PRODUCCIÓN Y CADENAS DE MONTAJE DE INSTALACIONES FABRILES E INDUSTRIALES, INCLUSO ROBÓTICAS, ASÍ COMO EN LÍNEAS DE ALMACENAMIENTO DE GRANDES SUPERFICIES DE VENTA. 10.- PRESTACIÓN DE SERVICIOS DE MANTENIMIENTO DE ELECTRICIDAD, FONTANERÍA, ALBAÑILERÍA, AIRE ACONDICIONADO, CALEFACCIÓN, PINTURA, ASCENSORES, ESCALERAS MECÁNICAS, LAVANDERÍA Y EN GENERAL TODO TIPO DE PRESTACIÓN DE SERVICIOS DE CONSERVACIÓN Y MANTENIMIENTO DE BIENES MUEBLES E INMUEBLES. A TÍTULO ENUNCIATIVO, LA REALIZACIÓN DE DICHAS PRESTACIONES DE SERVICIOS DE CONSERVACIÓN Y MANTENIMIENTO, ASÍ COMO LAS RELATIVAS A LA ELABORACIÓN DE PROYECTOS, INSTALACIONES, SU REPARACIÓN, MONTAJE, DESMONTAJE Y TRASLADO, EN LAS ACTIVIDADES Y PRODUCTOS SIGUIENTES: A) APARATOS DE INDUSTRIA DEL FRÍO Y DEL CALOR, TALES COMO VENTILACIÓN, CALDERERÍA, CALEFACCIÓN Y CLIMATIZACIÓN. B) MONTAJE DE INSTALACIONES ELÉCTRICAS DE BAJA Y ALTA TENSIÓN EN EXTERIORES O INTERIORES DE EDIFICIOS CUALQUIERA QUE SEA SU FINALIDAD. C) CANALIZACIONES, CENTRALIZACIONES DE CONTRATOS Y ACOMETIDAS A MEDIA Y BAJA PRESIÓN PARA GAS NATURAL Y PROPANO. D) INSTALACIONES ESPECIALES TALES COMO CIRCUITOS CERRADOS DE TELEVISIÓN, MEGAFONÍA, INTERPONÍA Y VOZ DE DATOS. E) ROBÓTICA E INFORMÁTICA. F) INSTALACIONES MECÁNICAS, ELEVADORAS, TRANSPORTADORAS FRIGORÍFICAS, DE FONTANERÍA, SANITARIAS Y DEPURADORAS. G) TRANSPORTE DE RESIDUOS URBANOS E INDUSTRIALES. 11.- PRESTACIÓN DE SERVICIOS DE ATENCIÓN Y ASISTENCIA A LA INFANCIA Y A LA TERCERA EDAD. 12.- PRESTACIÓN DE SERVICIOS DE IMPLANTACIÓN, CUIDADO Y MANTENIMIENTO DE JARDINES, ZONAS VERDES Y ÁREAS DE EXPLOTACIÓN FORESTALES, ASÍ COMO CUALQUIER OBRA O SERVICIO QUE TENGA POR OBJETO SU CONSERVACIÓN (RED DE RIEGO, ILUMINACIÓN Y FUENTES), LA EJECUCIÓN Y MANTENIMIENTO DE CAMINOS FORESTALES, VÍAS DE SACA Y CONSTRUCCIÓN DE DIQUES PARA LA PREVENCIÓN DE LA EROSIÓN. 13.- PRESTACIÓN DE SERVICIOS DE EXPLOTACIÓN DE SISTEMAS DE COMUNICACIÓN RÁPIDA DE SERVICIOS PÚBLICOS O ASISTENCIALES, POLICÍA, BOMBEROS, SERVICIO D URGENCIA, HOSPITALES Y CENTROS MÉDICOS. 14.- PRESTACIÓN DE SERVICIOS DE MARKETING, TELEVENTA Y OTRAS FORMAS DE VENTA DE ARTÍCULOS O SERVICIOS Y REALIZACIÓN DE ESTUDIOS DE MERCADO. 15.- PRESTACIÓN DE SERVICIOS DE FORMACIÓN Y RECICLAJE PROFESIONAL",
      "mainEntityOfPage": "https://www.contratacion.euskadi.eus/webkpe00-kperoc/es/ac71aBusquedaRegistrosWar/empresa/07861",
      "_links": {
        "self": {
          "name": "ARMONIA LIMPIEZA SOFT FACILITIES SOLUTIONS ESPAÑA, S.L.",
          "href": "https://api.euskadi.eus/procurements/companies/07861"
        }
      }
    },
    {
      "name": "QR4EVENTS 2020, S.L.",
      "registrationNumber": "07859",
      "identificationNumber": "B71392674",
      "address": "C/ MEDIAVILLA Nº 9 1º A",
      "location": {
        "postalCode": "31500",
        "municipality": "Tudela",
        "county": "Navarra",
        "municipalityId": "232",
        "countyId": "31"
      },
      "economicActivities": [
        {
          "id": "1.845",
          "name": "Explotación electrónica por cuenta de terceros",
          "_links": {
            "self": {
              "name": "Explotación electrónica por cuenta de terceros",
              "href": "https://api.euskadi.eus/procurements/companies/economic-activities/1.845"
            }
          }
        },
        {
          "id": "1.961.1",
          "name": "Producción de películas cinematográficas (incluso vídeos)",
          "_links": {
            "self": {
              "name": "Producción de películas cinematográficas (incluso vídeos)",
              "href": "https://api.euskadi.eus/procurements/companies/economic-activities/1.961.1"
            }
          }
        }
      ],
      "certificateStartDate": "2021-08-31",
      "certificateEndDate": "2022-02-23",
      "object": "- EXPLOTACIÓN ELECTRÓNICA POR CUENTA DE TERCEROS. - GESTIÓN DE COBROS Y PAGOS ELECTRÓNICOS. - GESTIÓN INTEGRAL DE EVENTOS MUSICALES O DE OTRA ÍNDOLE: SERVICIO DE VENTA DE ENTRADAS, CONTROL DE ACCESOS, ADQUISICIÓN DE PRODUCTOS, GENERACIÓN DE DATOS ESTADÍSTICOS Y OTROS SERVICIOS RELACIONADOS. - GESTIÓN INTEGRAL DE DISCOTECAS, SALAS DE FIESTA, BARES Y RESTO DE ESTABLECIMIENTOS DE OCIO, HOSTELERÍA U OTROS SERVICIOS, SEAN AL AIRE LIBRE O A CUBIERTO: SERVICIO DE VENTA DE ENTRADAS, CONTROL DE ACCESOS, ADQUISICIÓN DE PRODUCTOS, GENERACIÓN DE DATOS ESTADÍSTICOS Y OTROS SERVICIOS RELACIONADOS. - ALQUILER O VENTA AL POR MENOR DE HARDWARE Y SOFTWARE DE INFORMÁTICA Y TELECOMUNICACIONES. - PRODUCCIÓN, EXHIBICIÓN Y DISTRIBUCIÓN DE ACTIVIDADES CINEMATOGRÁFICAS",
      "mainEntityOfPage": "https://www.contratacion.euskadi.eus/webkpe00-kperoc/es/ac71aBusquedaRegistrosWar/empresa/07859",
      "_links": {
        "self": {
          "name": "QR4EVENTS 2020, S.L.",
          "href": "https://api.euskadi.eus/procurements/companies/07859"
        }
      }
    }
  ]
}