{
  "totalItems": 9042,
  "totalPages": 905,
  "currentPage": 136,
  "itemsOfPage": 10,
  "items": [
    {
      "name": "SERCONTROL 2000, S.L.",
      "registrationNumber": "05551",
      "identificationNumber": "B48993000",
      "address": "Pol. Ind. El Campillo, parcela 10-2",
      "location": {
        "postalCode": "48500",
        "municipality": "Abanto y Ciérvana-Abanto Zierbena",
        "county": "Bizkaia",
        "municipalityId": "002",
        "countyId": "48"
      },
      "economicActivities": [
        {
          "id": "1.843.9",
          "name": "Otros servicios técnicos n.c.o.p",
          "_links": {
            "self": {
              "name": "Otros servicios técnicos n.c.o.p",
              "href": "https://api.euskadi.eus/procurements/companies/economic-activities/1.843.9"
            }
          }
        },
        {
          "id": "1.921.5",
          "name": "Servicios de incineración y eliminación de basuras y desechos",
          "_links": {
            "self": {
              "name": "Servicios de incineración y eliminación de basuras y desechos",
              "href": "https://api.euskadi.eus/procurements/companies/economic-activities/1.921.5"
            }
          }
        }
      ],
      "certificateStartDate": "2025-11-27",
      "certificateEndDate": "2026-05-15",
      "object": "CONSULTORÍA, DESARROLLO Y SEGUIMIENTO DE ESTUDIOS DE ASEGURAMIENTO DE LA CALIDAD, MEDIO AMBIENTE Y SEGURIDAD E HIGIENE. INSPECCIÓN Y CONTROL DE CALIDAD. OPERADOR DE TRANSPORTES. GESTIÓN, ALMACENAMIENTO Y TRANSPORTES DE RESIDUOS. TRANSPORTE PÚBLICO DE MERCANCÍAS. TRATAMIENTO DE RESIDUOS ESPECIALES, SEAN PELIGROSOS O NO. GESTIÓN Y DESTRUCCIÓN CONFIDENCIAL DE DOCUMENTACIÓN, SEA CUAL SEA EL FORMATO DE ALMACENAMIENTO DE LA MISMA. COMPRA, VENTA Y COMERCIALIZACIÓN DE MATERIAS PRIMAS SECUNDARIAS, SUBPRODUCTOS Y OTROS DESECHOS, SUSCEPTIBLES DE VALORIZACIÓN O NO. COMPRA, VENTA Y ARRENDAMIENTO DE MAQUINARIA Y OTROS BIENES DE EQUIPO RELACIONADOS CON EL TRANSPORTE, ALMACENAMIENTO Y LA GESTIÓN DE LA CALIDAD,  MEDIO AMBIENTE O DE  SEGURIDAD E HIGIENE. DISEÑO, FABRICACIÓN Y COMERCIALIZACIÓN DE ENVASES Y EMBALAJES PARA EL TRANSPORTE DE MERCANCÍAS PELIGROSAS. COMPRA, VENTA Y FABRICACIÓN DE PRODUCTOS QUÍMICOS, PARTICULARMENTE DESENGRASANTES Y JABONES, BIOCIDAS, FLOCULANTES Y ANTIESPUMANTES. EL TRATAMIENTO DE AGUAS EN GENERAL Y EN PARTICULAR LA GESTIÓN DE LAS INSTALACIONES DE DEPURACIÓN DE AGUAS, LIMPIEZAS QUÍMICAS, TRATAMIENTO DE LEGIONELLA, TRATAMIENTOS BIOCIDAS Y FUNGICIDAS\r\n",
      "mainEntityOfPage": "https://www.contratacion.euskadi.eus/webkpe00-kperoc/es/ac71aBusquedaRegistrosWar/empresa/05551",
      "_links": {
        "self": {
          "name": "SERCONTROL 2000, S.L.",
          "href": "https://api.euskadi.eus/procurements/companies/05551"
        }
      }
    },
    {
      "name": "DISMED, S.A.",
      "registrationNumber": "10457",
      "identificationNumber": "A33640517",
      "address": "AVDA. ECONOMIA SOCIAL 990",
      "location": {
        "postalCode": "33211",
        "municipality": "Gijón",
        "county": "Asturias",
        "municipalityId": "024",
        "countyId": "33"
      },
      "economicActivities": [
        {
          "id": "1.619.7",
          "name": "Venta al por mayor de instrumentos de precisión, medida y similares",
          "_links": {
            "self": {
              "name": "Venta al por mayor de instrumentos de precisión, medida y similares",
              "href": "https://api.euskadi.eus/procurements/companies/economic-activities/1.619.7"
            }
          }
        },
        {
          "id": "1.652.2",
          "name": "Venta al por menor de productos de droguería y productos para decoración",
          "_links": {
            "self": {
              "name": "Venta al por menor de productos de droguería y productos para decoración",
              "href": "https://api.euskadi.eus/procurements/companies/economic-activities/1.652.2"
            }
          }
        },
        {
          "id": "1.659.3",
          "name": "Venta al por menor de aparatos médicos, ortopédicos, ópticos y fotográficos",
          "_links": {
            "self": {
              "name": "Venta al por menor de aparatos médicos, ortopédicos, ópticos y fotográficos",
              "href": "https://api.euskadi.eus/procurements/companies/economic-activities/1.659.3"
            }
          }
        }
      ],
      "certificateStartDate": "2025-11-27",
      "certificateEndDate": "2026-05-27",
      "object": "LA VENTA AL POR MENOR O AL POR MAYOR DE APARATOS E INSTRUMENTOS MÉDICO-QUIRÚRGICOS, TALES COMO APARTAOS DE TERAPÉUTICA, INVESTIGACIÓN CLÍNICA, RADIOLÓGICA, ASÍ COMO DE SUS ACCESORIOS Y COMPLEMENTOS.",
      "mainEntityOfPage": "https://www.contratacion.euskadi.eus/webkpe00-kperoc/es/ac71aBusquedaRegistrosWar/empresa/10457",
      "_links": {
        "self": {
          "name": "DISMED, S.A.",
          "href": "https://api.euskadi.eus/procurements/companies/10457"
        }
      }
    },
    {
      "name": "GUNKA STUDIOS SOCIEDAD LIMITADA",
      "registrationNumber": "08602",
      "identificationNumber": "B02778223",
      "address": "Calle Juan XXIII",
      "location": {
        "postalCode": "48980",
        "municipality": "Santurtzi",
        "county": "Bizkaia",
        "municipalityId": "082",
        "countyId": "48"
      },
      "economicActivities": [
        {
          "id": "1.844",
          "name": "Servicios de publicidad, relaciones públicas y similares",
          "_links": {
            "self": {
              "name": "Servicios de publicidad, relaciones públicas y similares",
              "href": "https://api.euskadi.eus/procurements/companies/economic-activities/1.844"
            }
          }
        },
        {
          "id": "1.845",
          "name": "Explotación electrónica por cuenta de terceros",
          "_links": {
            "self": {
              "name": "Explotación electrónica por cuenta de terceros",
              "href": "https://api.euskadi.eus/procurements/companies/economic-activities/1.845"
            }
          }
        }
      ],
      "certificateStartDate": "2025-11-27",
      "certificateEndDate": "2026-05-15",
      "object": "EL DESARROLLO DE LAS ACTIVIDADES CORRESPONDIENTES A LOS SIGUIENTES CÓDIGOS Y DESCRIPCIONES DE LA CLASIFICACIÓN NACIONAL DE ACTIVIDADES ECONÓMICAS: ACTIVIDAD PRINCIPAL: CNAE: 6201.- ACTIVIDADES DE PROGRAMACIÓN INFORMÁTICA.",
      "mainEntityOfPage": "https://www.contratacion.euskadi.eus/webkpe00-kperoc/es/ac71aBusquedaRegistrosWar/empresa/08602",
      "_links": {
        "self": {
          "name": "GUNKA STUDIOS SOCIEDAD LIMITADA",
          "href": "https://api.euskadi.eus/procurements/companies/08602"
        }
      }
    },
    {
      "name": "INSTITUTO EUROPA, S.L.",
      "registrationNumber": "01430",
      "identificationNumber": "B01117480",
      "address": "DOMINGO BELTRAN, 64-66 BAJO",
      "location": {
        "postalCode": "01012",
        "municipality": "Vitoria-Gasteiz",
        "county": "Araba/Álava",
        "municipalityId": "059",
        "countyId": "01"
      },
      "economicActivities": [
        {
          "id": "1.931.3",
          "name": "Enseñanza de bachillerato, formación profesional exclusivamente",
          "_links": {
            "self": {
              "name": "Enseñanza de bachillerato, formación profesional exclusivamente",
              "href": "https://api.euskadi.eus/procurements/companies/economic-activities/1.931.3"
            }
          }
        },
        {
          "id": "1.933.9",
          "name": "Otras actividades de enseñanza tales como idiomas, mecanografía",
          "_links": {
            "self": {
              "name": "Otras actividades de enseñanza tales como idiomas, mecanografía",
              "href": "https://api.euskadi.eus/procurements/companies/economic-activities/1.933.9"
            }
          }
        }
      ],
      "certificateStartDate": "2025-11-27",
      "certificateEndDate": "2026-05-20",
      "object": "LA ENSEÑANZA POR MÉTODOS GENERALES O POR SISTEMAS AVANZADOS COMO LOS AUDIOVISUALES O INFORMÁTICOS. -SERVICIOS PROFESIONALES DE SUMINISTRO DE PERSONAL.-LA PROMOCIÓN DE CURSOS Y ESTUDIOS EN EL EXTRANJERO.-EL ASESORAMIENTO A EMPRESAS, PARTICULARES, ENTIDADES O CORPORACIONES EN MATERIA DE FORMACIÓN, GESTIÓN DE LOS RECURSOS HUMANOS, EMPRENDIMIENTO E INTERNACIONALIZACIÓN.-ESTUDIOS EN GENERAL Y DIAGNÓSTICOS DE NECESIDADES FORMATIVAS.-LA ORIENTACIÓN PROFESIONAL.-LA INTERMEDIACIÓN LABORAL, MEDIANTE LA GESTIÓN DE OFERTAS Y DEMANDAS DE EMPLEO, ASÍ COMO LA REALIZACIÓN DE ACCIONES DE INSERCIÓN LABORAL TANTO A DESEMPLEADOS, EN GENERAL COMO A COLECTIVOS EN RIESGO DE EXCLUSIÓN SOCIAL, O DESVENTAJA SOCIAL O LABORAL, RECLUSAS O EX RECLUSAS, PERSONAS PERTENECIENTES A LA COMUNIDAD GITANA, Y/O PERSONAS CON DISCAPACIDAD Y EL DESARROLLO/PROMOCIÓN DE ACCIONES PARA EL EMPLEO. -AGENCIA DE COLOCACIÓN Y RECOLOCACIÓN.",
      "mainEntityOfPage": "https://www.contratacion.euskadi.eus/webkpe00-kperoc/es/ac71aBusquedaRegistrosWar/empresa/01430",
      "_links": {
        "self": {
          "name": "INSTITUTO EUROPA, S.L.",
          "href": "https://api.euskadi.eus/procurements/companies/01430"
        }
      }
    },
    {
      "name": "GARDA SERVICIOS DE SEGURIDAD S.A.",
      "registrationNumber": "06596",
      "identificationNumber": "A50595305",
      "address": "MAESTRO ESTREMIANA, 22",
      "location": {
        "postalCode": "50006",
        "municipality": "Zaragoza",
        "county": "Zaragoza",
        "municipalityId": "297",
        "countyId": "50"
      },
      "economicActivities": [
        {
          "id": "1.849.4",
          "name": "Servicios de custodia, seguridad y protección",
          "_links": {
            "self": {
              "name": "Servicios de custodia, seguridad y protección",
              "href": "https://api.euskadi.eus/procurements/companies/economic-activities/1.849.4"
            }
          }
        }
      ],
      "certificateStartDate": "2025-11-27",
      "certificateEndDate": "2026-05-24",
      "object": "A) LA VIGILANCIA Y PROTECCIÓN DE BIENES, ESTABLECIMIENTOS, ESPECTÁCULOS, CERTÁMENES O CONVENCIONES. B) LA PROTECCIÓN DE PERSONAS DETERMINADAS, PREVIA LA AUTORIZACIÓN CORRESPONDIENTE. C) EL DEPÓSITO, CUSTODIA, RECUENTO Y CLASIFICACIÓN DE MONEDAS Y BILLETES, TÍTULOS-VALORES Y DEMÁS OBJETOS QUE, POR SU VALOR ECONÓMICO Y EXPECTATIVAS QUE GENEREN, O POR SU PELIGROSIDAD, PUEDAN REQUERIR PROTECCIÓN ESPECIAL, SIN PERJUICIO DE LAS ACTIVIDADES PROPIAS DE LAS ENTIDADES FINANCIERAS. D) EL TRASPORTE Y DISTRIBUCIÓN DE LOS OBJETOS A QUE SE REFIERE EL APARTADO ANTERIOR, A TRAVÉS DE LOS DISTINTOS MEDIOS, REALIZÁNDOLOS, EN SU CASO, MEDIANTE VEHÍCULOS CUYAS CARACTERÍSTICAS SERÁN DETERMINADAS POR EL MINISTERIO DE INTERIOR, DE FORMA QUE NO PUEDAN CONFUNDIRSE CON LOS DE LAS FUERZAS ARMADAS NI CON LOS DE LAS FUERZAS Y CUERPOS DE SEGURIDAD. E) LA INSTALACIÓN Y MANTENIMIENTO DE APARATOS, DISPOSITIVOS Y SISTEMAS DE SEGURIDAD. F) LA EXPLOTACIÓN DE CENTRALES PARA LA RECEPCIÓN, VERIFICACIÓN Y TRANSMISIÓN DE LAS SEÑALES DE ALARMA Y SU COMUNICACIÓN A LAS FUERZAS Y CUERPOS DE SEGURIDAD, ASÍ COMO PRESTACIÓN DE SERVICIOS DE RESPUESTA CUYA REALIZACIÓN NO SEA DE LA COMPETENCIA DE DICHAS FUERZAS Y CUERPOS. G) PLANIFICACIÓN Y ASESORAMIENTO DE LAS ACTIVIDADES DE SEGURIDAD (ARTÍCULO 5.1. DE LA LEY DE S.P.)",
      "mainEntityOfPage": "https://www.contratacion.euskadi.eus/webkpe00-kperoc/es/ac71aBusquedaRegistrosWar/empresa/06596",
      "_links": {
        "self": {
          "name": "GARDA SERVICIOS DE SEGURIDAD S.A.",
          "href": "https://api.euskadi.eus/procurements/companies/06596"
        }
      }
    },
    {
      "name": "GUREAK OSTALARITZA, S.L.U.",
      "registrationNumber": "02943",
      "identificationNumber": "B20629408",
      "address": "ILLARRA BIDEA, 4",
      "location": {
        "postalCode": "20018",
        "municipality": "Donostia / San Sebastián",
        "county": "Gipuzkoa",
        "municipalityId": "069",
        "countyId": "20"
      },
      "economicActivities": [
        {
          "id": "1.419.1",
          "name": "Industria del pan y de la bollería",
          "_links": {
            "self": {
              "name": "Industria del pan y de la bollería",
              "href": "https://api.euskadi.eus/procurements/companies/economic-activities/1.419.1"
            }
          }
        },
        {
          "id": "1.671.5",
          "name": "Restaurante un tenedor",
          "_links": {
            "self": {
              "name": "Restaurante un tenedor",
              "href": "https://api.euskadi.eus/procurements/companies/economic-activities/1.671.5"
            }
          }
        },
        {
          "id": "1.672.3",
          "name": "Cafetería una taza",
          "_links": {
            "self": {
              "name": "Cafetería una taza",
              "href": "https://api.euskadi.eus/procurements/companies/economic-activities/1.672.3"
            }
          }
        },
        {
          "id": "1.673.2",
          "name": "Otros cafés y bares",
          "_links": {
            "self": {
              "name": "Otros cafés y bares",
              "href": "https://api.euskadi.eus/procurements/companies/economic-activities/1.673.2"
            }
          }
        },
        {
          "id": "1.677.9",
          "name": "Otros servicios de alimentación propios de la restauración",
          "_links": {
            "self": {
              "name": "Otros servicios de alimentación propios de la restauración",
              "href": "https://api.euskadi.eus/procurements/companies/economic-activities/1.677.9"
            }
          }
        }
      ],
      "certificateStartDate": "2025-11-27",
      "certificateEndDate": "2026-05-16",
      "classification": [
        {
          "id": "S",
          "name": "Servicios",
          "groups": [
            {
              "id": "M",
              "subgroups": [
                {
                  "id": "06",
                  "name": "Hostelería y servicios de comida",
                  "categories": [
                    {
                      "id": "5",
                      "name": "Mas de 1.200.000",
                      "_links": {
                        "self": {
                          "name": "Mas de 1.200.000",
                          "href": "https://api.euskadi.eus/procurements/companies/types/S/categories/5"
                        }
                      }
                    }
                  ],
                  "_links": {
                    "self": {
                      "name": "Hostelería y servicios de comida",
                      "href": "https://api.euskadi.eus/procurements/companies/types/S/groups/M/subgroups/06"
                    }
                  }
                }
              ],
              "_links": {
                "self": {
                  "href": "https://api.euskadi.eus/procurements/companies/types/S/groups/M"
                }
              }
            }
          ],
          "_links": {
            "self": {
              "name": "Servicios",
              "href": "https://api.euskadi.eus/procurements/companies/types/S"
            }
          }
        }
      ],
      "object": "LOS SERVICIOS DE HOSTELERÍA (ACTIVIDAD PRINCIPAL CÓDIGO CNAE 5610); LOS SERVICIOS EN RESTAURANTES, CAFETERÍAS Y BARES, LOS SERVICIOS DE HOSPEDAJE EN HOTELES, MOTELES, ALBERGUES Y CAMPAMENTOS, LA EXPLOTACIÓN DE SERVICIOS DE HOSTELERÍA SITUADOS EN POLIDEPORTIVOS, ASILOS, HOSPITALES, AYUNTAMIENTOS, Y OTROS LOCALES PÚBLICOS, EL ARRENDAMIENTO DE SERVICIOS DE HOSTELERÍA",
      "mainEntityOfPage": "https://www.contratacion.euskadi.eus/webkpe00-kperoc/es/ac71aBusquedaRegistrosWar/empresa/02943",
      "_links": {
        "self": {
          "name": "GUREAK OSTALARITZA, S.L.U.",
          "href": "https://api.euskadi.eus/procurements/companies/02943"
        }
      }
    },
    {
      "name": "AUDINFOR, S.L.",
      "registrationNumber": "07380",
      "identificationNumber": "B48269146",
      "address": "Calle Cardenal Gardoqui, 9-3º izda.",
      "location": {
        "postalCode": "48008",
        "municipality": "Bilbao",
        "county": "Bizkaia",
        "municipalityId": "020",
        "countyId": "48"
      },
      "economicActivities": [
        {
          "id": "1.842",
          "name": "Servicios financieros y contables",
          "_links": {
            "self": {
              "name": "Servicios financieros y contables",
              "href": "https://api.euskadi.eus/procurements/companies/economic-activities/1.842"
            }
          }
        },
        {
          "id": "1.845",
          "name": "Explotación electrónica por cuenta de terceros",
          "_links": {
            "self": {
              "name": "Explotación electrónica por cuenta de terceros",
              "href": "https://api.euskadi.eus/procurements/companies/economic-activities/1.845"
            }
          }
        },
        {
          "id": "1.932.1",
          "name": "Enseñanza de formación y perfeccionamiento profesional no superior",
          "_links": {
            "self": {
              "name": "Enseñanza de formación y perfeccionamiento profesional no superior",
              "href": "https://api.euskadi.eus/procurements/companies/economic-activities/1.932.1"
            }
          }
        }
      ],
      "certificateStartDate": "2025-11-27",
      "certificateEndDate": "2026-05-17",
      "object": "LA ELABORACIÓN DE ESTUDIOS ECONÓMICOS SOLICITADOS POR LOS CLIENTES, ASÍ COMO LA PRESTACIÓN DE SERVICIOS DE ASESORAMIENTO SOBRE MATERIAS RELACIONADAS CON LA DIRECCIÓN, ADMINISTRACIÓN, PLANIFICACIÓN, CONTROL, CONTABILIDAD, FINANCIACIÓN EN SU MÁS AMPLIO SENTIDO. TAMBIÉN PRESTARÁ SERVICIOS DE ASESORAMIENTO EN EL ÁREA INFORMÁTICA, TANTO EN LA REVISIÓN DE LOS SISTEMAS INFORMATIZADOS, COMO EN EL DESARROLLO, EXPLOTACIÓN Y COMERCIALIZACIÓN DE APLICACIONES INFORMÁTICAS",
      "mainEntityOfPage": "https://www.contratacion.euskadi.eus/webkpe00-kperoc/es/ac71aBusquedaRegistrosWar/empresa/07380",
      "_links": {
        "self": {
          "name": "AUDINFOR, S.L.",
          "href": "https://api.euskadi.eus/procurements/companies/07380"
        }
      }
    },
    {
      "name": "VENTICLIMA, S.A.",
      "registrationNumber": "00855",
      "identificationNumber": "A01011550",
      "address": "C/ PORTAL DE GAMARRA, Nº 36.",
      "location": {
        "postalCode": "01013",
        "municipality": "Vitoria-Gasteiz",
        "county": "Araba/Álava",
        "municipalityId": "059",
        "countyId": "01"
      },
      "economicActivities": [
        {
          "id": "1.504.3",
          "name": "Instalaciones de frío, calor y acondicionamiento de aire",
          "_links": {
            "self": {
              "name": "Instalaciones de frío, calor y acondicionamiento de aire",
              "href": "https://api.euskadi.eus/procurements/companies/economic-activities/1.504.3"
            }
          }
        }
      ],
      "certificateStartDate": "2025-11-27",
      "certificateEndDate": "2026-05-18",
      "object": "TANTO DIRECTAMENTE COMO DE FORMA INDIRECTA, MEDIANTE LA TITULARIDAD DE ACCIONES O PARTICIPACIONES EN SOCIEDADES CON OBJETO IDÉNTICO, EL DISEÑO, EJECUCIÓN Y MANTENIMIENTO DE INSTALACIONES DE: VENTILACIÓN, CLIMATIZACIÓN, REFRIGERACIÓN, CALEFACCIÓN, ENERGÍA SOLAR, BOMBA DE CALOR, RECUPERACIÓN DE ENERGÍA, HUMIDFICACIÓN, SECADO, FILTRACIÓN, SALAS BLANCAS Y CUANTOS ASUNTOS ESTÉN RELACIONADOS CON ESTAS ESPECIALIDADES           ",
      "mainEntityOfPage": "https://www.contratacion.euskadi.eus/webkpe00-kperoc/es/ac71aBusquedaRegistrosWar/empresa/00855",
      "_links": {
        "self": {
          "name": "VENTICLIMA, S.A.",
          "href": "https://api.euskadi.eus/procurements/companies/00855"
        }
      }
    },
    {
      "name": "ASISTENCIA SOCIAL Y DEPORTIVA, S.L.",
      "registrationNumber": "07124",
      "identificationNumber": "B48938898",
      "address": "Barrio Goitioltza, 42",
      "location": {
        "postalCode": "48196",
        "municipality": "Lezama",
        "county": "Bizkaia",
        "municipalityId": "081",
        "countyId": "48"
      },
      "economicActivities": [
        {
          "id": "1.847",
          "name": "Servicios de consultoría",
          "_links": {
            "self": {
              "name": "Servicios de consultoría",
              "href": "https://api.euskadi.eus/procurements/companies/economic-activities/1.847"
            }
          }
        },
        {
          "id": "1.932.1",
          "name": "Enseñanza de formación y perfeccionamiento profesional no superior",
          "_links": {
            "self": {
              "name": "Enseñanza de formación y perfeccionamiento profesional no superior",
              "href": "https://api.euskadi.eus/procurements/companies/economic-activities/1.932.1"
            }
          }
        },
        {
          "id": "1.966.9",
          "name": "Otros servicios culturales n.c.o.p",
          "_links": {
            "self": {
              "name": "Otros servicios culturales n.c.o.p",
              "href": "https://api.euskadi.eus/procurements/companies/economic-activities/1.966.9"
            }
          }
        },
        {
          "id": "1.967.1",
          "name": "Instalaciones deportivas",
          "_links": {
            "self": {
              "name": "Instalaciones deportivas",
              "href": "https://api.euskadi.eus/procurements/companies/economic-activities/1.967.1"
            }
          }
        }
      ],
      "certificateStartDate": "2025-11-26",
      "certificateEndDate": "2026-05-24",
      "object": "A). - LA ADQUISICIÓN, TENENCIA Y DISFRUTE, EXPLOTACIÓN Y ENAJENACIÓN DE TODA CLASE DE INSTALACIONES DEPORTIVAS, TANTO EN LOCALES CERRADOS COMO AL AIRE LIBRE. B). - LA PROMOCIÓN, CONSTRUCCIÓN, REHABILITACIÓN, LIMPIEZA, MANTENIMIENTO Y REPARACIÓN, POR CUENTA PROPIA O AJENA, DE TODA CLASE DE INSTALACIONES DEPORTIVAS, TANTO EN LOCALES CERRADOS COMO AL AIRE LIBRE. C). -   LA PROMOCIÓN, ESTUDIO, DESARROLLO, ADMINISTRACIÓN, ASESORAMIENTO Y GESTIÓN DE ACTUACIONES DEPORTIVAS DE TODO TIPO, TANTO EN LOCALES CERRADOS COMO AL AIRE LIBRE Y LA PRESTACIÓN DE SERVICIOS DE CUALQUIER CLASE A TERCEROS RELACIONADOS CON EL DEPORTE EN CUALQUIERA DE SUS MANIFESTACIONES Y CON LAS INSTALACIONES DONDE SE DESARROLLEN LOS MISMOS. D). - LA ASISTENCIA, GESTIÓN, DIRECCIÓN, ADMINISTRACIÓN, PROMOCIÓN, INTERVENCIÓN Y PARTICIPACIÓN EN OTRAS EMPRESAS O ENTIDADES DE CUALQUIER TIPO DEL ÁMBITO DEPORTIVO, TANTO PÚBLICAS COMO PRIVADAS, O EN SU CREACIÓN, CONSTITUCIÓN Y DESARROLLO. E). - LOS SERVICIOS DE MEDIACIÓN Y REPRESENTACIÓN RELACIONADOS CON LOS DEPORTES, LOS DEPORTISTAS Y LAS INSTALACIONES DEPORTIVAS. F). -  LA   GESTIÓN, ADMINISTRACIÓN, LIMPIEZA, MANTENIMIENTO, CONSERVACIÓN, REHABILITACIÓN Y REPARACIÓN DE CENTROS DE ASISTENCIA A LA TERCERA EDAD, TANTO PRIVADOS COMO PÚBLICOS Y SEAN ÉSTOS MUNICIPALES, PROVINCIALES, ESTATALES O AUTONÓMICOS. G). -  LA PROMOCIÓN, GESTIÓN, ADMINISTRACIÓN   Y ASESORAMIENTO DE ACTIVIDADES CULTURALES, DEPORTIVAS Y RECREATIVAS, INCLUSO LAS PATROCINADAS O    PROPICIADAS    POR    AYUNTAMIENTOS, DIPUTACIONES, ASOCIACIONES, COMISIONES DE FIESTAS Y CUALQUIER OTRO ENTIDAD U ORGANISMO, PÚBLICO O PRIVADO, TANTO EN LOCALES CERRADOS COMO AL AIRE LIBRE. H). -  LA EXPLOTACIÓN EN LAS INSTALACIONES EN QUE DESARROLLE SU ACTIVIDAD, DE LOS SERVICIOS DE BAR, CAFETERÍA O RESTAURANTE O SIMILARES O AFINES DEL RAMO DE HOSTELERÍA, TANTO PARA EL PÚBLICO EN GENERAL COMO PARA SU PROPIO PERSONAL, O CEDER A TERCEROS DICHA EXPLOTACIÓN. I). - LA LIMPIEZA DE EDIFICIOS, OFICINAS, ESTABLECIMIENTOS COMERCIALES, RESIDENCIAS, CENTROS SANITARIOS Y ESTABLECIMIENTOS INDUSTRIALES. J). - LOS SERVICIOS DE LIMPIEZA DE CALLES, VÍAS PÚBLICAS Y JARDINES, INCLUSO LA RECOGIDA DE BASURAS Y DESECHOS. K). - LA IMPLANTACIÓN, CUIDADO, MANTENIMIENTO Y RENOVACIÓN DE JARDINES, TANTO PÚBLICOS COMO PRIVADOS. L). - LA COMPRA -VENTA DE ARTÍCULOS, PRODUCTOS Y ÚTILES DE LIMPIEZA Y AFINES, INCLUSO MAQUINARIA Y VEHÍCULOS ESPECIALES. LL). - LA REPRESENTACIÓN   DE EMPRESAS, TANTO NACIONALES COMO EXTRANJERAS, RELACIONADAS CON EL RAMO DE LA LIMPIEZA, LA RECOGIDA DE BASURAS Y LA JARDINERÍA. M). -  LA PARTICIPACIÓN EN E L DESARROLLO, PROMOCIÓN Y PUESTA EN MARCHA DE NUEVAS OPORTUNIDADES DE NEGOCIO, MEDIANTE LA PARTICIPACIÓN ACCIONARIAL Y/O EN LOS ÓRGANOS DE GESTIÓN EN EMPRESAS DE NUEVA CREACIÓN O EN OTRAS YA EXISTENTES. N). - COMERCIALIZACIÓN Y VENTA DE EQUIPAMIENTOS DEPORTIVOS O DE OCIO. O). - DISEÑO, CONFECCIÓN Y VENTA DE ROPA DEPORTIVA EN SU GAMA MÁS AMPLIA. P). - LA CONSULTORÍA DE GESTIÓN, CALIDAD, ORGANIZACIÓN, PRODUCCIÓN, LOGÍSTICA, ADMINISTRACIÓN, SOFTWARE, PERSONAL, MARKETING, DISTRIBUCIÓN, PUBLICIDAD, DESARROLLO TECNOLÓGICO, GERENCIA, DIRECCIÓN DE DEPARTAMENTOS, ETC., ASÍ COMO LA COMERCIALIZACIÓN DE ESTOS SERVICIOS Y POSIBLES PRODUCTOS ANEXOS A LOS SERVICIOS. Q). - LA GESTIÓN DE CALIDAD DE TODA CLASE DE EMPRESAS, TANTO INDIVIDUALES COMO SOCIEDADES MERCANTILES, O CUALESQUIERA OTRAS ENTIDADES, ASÍ COMO EL ASESORAMIENTO, LA INFORMACIÓN Y LA FORMACIÓN EN DICHA MATERIA. R) REALIZAR TODO TIPO DE PROYECTOS, ESTUDIOS, ASESORAMIENTOS, EMISIÓN DE DICTÁMENES E INFORMES, SOBRE LA PREVENCIÓN DE RIESGOS LABORALES. S). - LA INVESTIGACIÓN, ESTUDIO Y EVALUACIÓN SOBRE CONTAMINANTES FÍSICOS, QUÍMICOS Y BIOLÓGICOS DEL AIRE, AGUA Y SUPERFICIE. T). - LA FORMACIÓN TEÓRICA Y PRÁCTICA, DE CUALQUIER TIPO DE CURSOS DIRIGIDOS A LA GESTIÓN, ORIENTACIÓN Y FORMACIÓN DE TEMAS EDUCATIVOS. U). - EL DESARROLLO, REALIZACIÓN Y COMERCIALIZACIÓN EN GENERAL DE SISTEMAS INFORMÁTICOS Y DE TELEFONÍA; LA ACTIVIDAD INFORMÁTICA EN GENERAL Y LAS PRESTACIONES DE TODOS LOS SERVICIOS CON ELLA RELACIONADOS, INCLUIDOS LA ENSEÑANZA, LA FORMACIÓN DE PERSONAL ESPECIALISTA, LA LLEVANZA DE CONTABILIDADES, LA REALIZACIÓN DE ANÁLISIS, PROYECTOS Y ESTUDIOS DE TODO GÉNERO, ASÍ COMO LA CONFECCIÓN, APLICACIÓN Y COMERCIALIZACIÓN DE PROGRAMAS. V). - EL DESARROLLO DE TODA ACTIVIDAD INDUSTRIAL Y COMERCIAL RELATIVA AL TRATAMIENTO DE AGUAS Y, POR TANTO, TAMBIÉN A LOS APARATOS DESTINADOS A LA PURIFICACIÓN DE AGUAS Y SU INSTALACIÓN, ASÍ COMO LA CONSTRUCCIÓN DE ARTÍCULOS O ELEMENTOS SIMILARES Y COMPLEMENTARIOS Y CUALESQUIERA OTROS RELACIONADOS CON LAS AGUAS Y SU TRATAMIENTO\r\n\r\n",
      "mainEntityOfPage": "https://www.contratacion.euskadi.eus/webkpe00-kperoc/es/ac71aBusquedaRegistrosWar/empresa/07124",
      "_links": {
        "self": {
          "name": "ASISTENCIA SOCIAL Y DEPORTIVA, S.L.",
          "href": "https://api.euskadi.eus/procurements/companies/07124"
        }
      }
    },
    {
      "name": "TALANTIA, S.L.",
      "registrationNumber": "07479",
      "identificationNumber": "B87866661",
      "address": "GRAN VIA DON DIEGO LOPEZ DE HARO 17 DPT 509",
      "location": {
        "postalCode": "48001",
        "municipality": "Bilbao",
        "county": "Bizkaia",
        "municipalityId": "020",
        "countyId": "48"
      },
      "economicActivities": [
        {
          "id": "1.843.1",
          "name": "Servicios técnicos de ingeniería",
          "_links": {
            "self": {
              "name": "Servicios técnicos de ingeniería",
              "href": "https://api.euskadi.eus/procurements/companies/economic-activities/1.843.1"
            }
          }
        }
      ],
      "certificateStartDate": "2025-11-26",
      "certificateEndDate": "2026-05-18",
      "object": "LA PRESTACIÓN DE SERVICIOS DE INGENIERÍA Y CONSULTORÍA EN TODOS LOS CAMPOS DE INGENIERÍA DE CUALQUIER NATURALEZA INCLUYENDO LA INGENIERÍA Y CONSULTORÍA AMBIENTAL, LA INVESTIGACIÓN Y DESCONTAMINACIÓN DE SUELOS Y AGUAS SUBTERRÁNEAS, LOS ESTUDIOS DE IMPACTO AMBIENTAL Y SOCIAL, LOS ESTUDIOS DE RECURSOS HÍDRICOS SUPERFICIALES Y SUBTERRÁNEOS, LOS ESTUDIOS HIDROGEOLÓGICOS, LA INGENIERÍA GEOTÉCNICA, HIDROLÓGICA, CIVIL, OCEANOGRÁFICA Y DE TRATAMIENTO DE RESIDUOS, Y TODAS LAS DEMÁS ACTIVIDADES RELACIONADAS CON LA CONSULTORÍA E INGENIERÍA; ACTUANDO EN LA REALIZACIÓN MATERIAL DE DICHAS ACTIVIDADES CON LA UTILIZACIÓN DE APARTADOS Y ELEMENTOS DE TODO TIPO EMPLEADOS EN LOS CAMPOS MENCIONADOS, YA SEA MEDIANTE LA CONTRATACIÓN DIRECTA DE PERSONAL O SUBCONTRATÁNDOLO; EL DESARROLLO DE PROYECTOS DE I+D Y ACTIVIDADES DE FORMACIÓN EN TODOS LOS CAMPOS DE INGENIERÍA Y CONSULTORÍA MENCIONADOS",
      "mainEntityOfPage": "https://www.contratacion.euskadi.eus/webkpe00-kperoc/es/ac71aBusquedaRegistrosWar/empresa/07479",
      "_links": {
        "self": {
          "name": "TALANTIA, S.L.",
          "href": "https://api.euskadi.eus/procurements/companies/07479"
        }
      }
    }
  ]
}