{
  "totalItems": 9042,
  "totalPages": 905,
  "currentPage": 653,
  "itemsOfPage": 10,
  "items": [
    {
      "name": "IÑAKI SÁEZ II, S.L.",
      "registrationNumber": "05462",
      "identificationNumber": "B95277547",
      "address": "C/ Estartetxe 5-2º -202 ",
      "location": {
        "postalCode": "48940",
        "municipality": "Leioa",
        "county": "Bizkaia",
        "municipalityId": "054",
        "countyId": "48"
      },
      "economicActivities": [
        {
          "id": "1.501.1",
          "name": "Construcción completa, reparación y conservación de edificaciones",
          "_links": {
            "self": {
              "name": "Construcción completa, reparación y conservación de edificaciones",
              "href": "https://api.euskadi.eus/procurements/companies/economic-activities/1.501.1"
            }
          }
        },
        {
          "id": "1.659.2",
          "name": "Venta al por menor de muebles de oficina y máquinas y equipos de oficina",
          "_links": {
            "self": {
              "name": "Venta al por menor de muebles de oficina y máquinas y equipos de oficina",
              "href": "https://api.euskadi.eus/procurements/companies/economic-activities/1.659.2"
            }
          }
        }
      ],
      "certificateStartDate": "2016-01-22",
      "certificateEndDate": "2016-06-03",
      "object": "Contratación ejecución y promoción completa o por ramos de toda clase de obras en edificios o vías públicas, incluyendo la urbanización y acondicionamiento de terrenos.",
      "mainEntityOfPage": "https://www.contratacion.euskadi.eus/webkpe00-kperoc/es/ac71aBusquedaRegistrosWar/empresa/05462",
      "_links": {
        "self": {
          "name": "IÑAKI SÁEZ II, S.L.",
          "href": "https://api.euskadi.eus/procurements/companies/05462"
        }
      }
    },
    {
      "name": "ADOS CONSULTING IKERTALDEA, S.L.",
      "registrationNumber": "02387",
      "identificationNumber": "B95134839",
      "address": "C/ GIMNASIO, Nº 8 - LONJA 1ª IZDA.",
      "location": {
        "postalCode": "48003",
        "municipality": "Bilbao",
        "county": "Bizkaia",
        "municipalityId": "020",
        "countyId": "48"
      },
      "economicActivities": [
        {
          "id": "1.936.4",
          "name": "Investigaciones en ciencias sociales, humanidades y jurídicas",
          "_links": {
            "self": {
              "name": "Investigaciones en ciencias sociales, humanidades y jurídicas",
              "href": "https://api.euskadi.eus/procurements/companies/economic-activities/1.936.4"
            }
          }
        }
      ],
      "certificateStartDate": "2016-01-20",
      "certificateEndDate": "2016-06-20",
      "object": "LA REALIZACIÓN DE ESTUDIOS SOCIOLÓGICOS QUE INCLUYEN TRABAJO DE CAMPO (RECOGIDA DE INFORMACIÓN), TRATAMIENTO ESTADÍSTICO Y/O ANÁLISIS CUALITATIVO Y REDACCIÓN DE INFORMES EN LOS QUE SE APORTEN RECOMENDACIONES AL CLIENTE.\r\n\r\nEL DISEÑO Y COMUNICACIÓN DE CURSOS DE FORMACIÓN ADAPTADOS A LAS NECESIDADES CONCRETAS DE CADA CLIENTE. CREAR UNA OFERTA DE FORMACIÓN SOBRE LA BASE DE LA EXPERIENCIA PROFESIONAL  PROPIA ORIENTADA A APORTAR CONOCIMIENTOS A ENTIDADES QUE MÁS ALLÁ DEL BAGAJE TEÓRICO AL USO, DESEEN UN ACERCAMIENTO A SU APLICACIÓN PRÁCTICA.\r\n ",
      "mainEntityOfPage": "https://www.contratacion.euskadi.eus/webkpe00-kperoc/es/ac71aBusquedaRegistrosWar/empresa/02387",
      "_links": {
        "self": {
          "name": "ADOS CONSULTING IKERTALDEA, S.L.",
          "href": "https://api.euskadi.eus/procurements/companies/02387"
        }
      }
    },
    {
      "name": "ANTZIBAR, S.A.",
      "registrationNumber": "01787",
      "identificationNumber": "A20095295",
      "address": "Bº LANDETA, S/N",
      "location": {
        "postalCode": "20730",
        "municipality": "Azpeitia",
        "county": "Gipuzkoa",
        "municipalityId": "018",
        "countyId": "20"
      },
      "economicActivities": [
        {
          "id": "1.507",
          "name": "Construcción, reparación y conservación de toda clase obras",
          "_links": {
            "self": {
              "name": "Construcción, reparación y conservación de toda clase obras",
              "href": "https://api.euskadi.eus/procurements/companies/economic-activities/1.507"
            }
          }
        }
      ],
      "certificateStartDate": "2016-01-14",
      "certificateEndDate": "2016-06-28",
      "object": "LA PROMOCIÓN, CONSTRUCCIÓN, EJECUCIÓN DE OBRAS DE TODO TIPO TANTO PÚBLICAS COMO PRIVADAS, OBRAS NUEVAS DE EDIFICACIÓN URBANA, INCLUSO DE PROTECCIÓN OFICIAL, INDUSTRIAL, URBANIZACIONES, DERRIBOS, EXCAVACIONES, TRANSPORTE PÚBLICO O PRIVADO. REHABILITACIÓN. REALIZACIÓN DE PROYECTOS, Y EN GENERAL DESARROLLAR EN TODOS SUS CAMPOS TODA CLASE DE OPERACIONES INMOBILIARIAS, DE CONSTRUCCIÓN, ADQUISICIÓN, COMERCIALIZACIÓN, VENTA, ARRENDAMIENTO Y EXPLOTACIÓN DE TERRENOS Y TODA CLASE DE INMUEBLES",
      "mainEntityOfPage": "https://www.contratacion.euskadi.eus/webkpe00-kperoc/es/ac71aBusquedaRegistrosWar/empresa/01787",
      "_links": {
        "self": {
          "name": "ANTZIBAR, S.A.",
          "href": "https://api.euskadi.eus/procurements/companies/01787"
        }
      }
    },
    {
      "name": "RECUPERATIONS STEEL GALINDO, S.A.",
      "registrationNumber": "04723",
      "identificationNumber": "A48212922",
      "address": "C/ ERCILLA, nº 18-2º izda.",
      "location": {
        "postalCode": "48009",
        "municipality": "Bilbao",
        "county": "Bizkaia",
        "municipalityId": "020",
        "countyId": "48"
      },
      "economicActivities": [
        {
          "id": "1.502.1",
          "name": "Demoliciones y derribos en general",
          "_links": {
            "self": {
              "name": "Demoliciones y derribos en general",
              "href": "https://api.euskadi.eus/procurements/companies/economic-activities/1.502.1"
            }
          }
        }
      ],
      "certificateStartDate": "2016-01-13",
      "certificateEndDate": "2016-06-14",
      "object": "CUANTAS OPERACIONES GUARDEN RELACIÓN CON LA ACTIVIDAD DE RECUPERACIÓN DE HIERROS, ESCORIAS, ESCARPAS, METALES FÉRRICOS Y MINERALES, ASÍ COMO LOS PROCESOS DE RECOGIDA, TRANSFORMACIÓN, MEZCLAS, TRANSPORTE, ALMACENAMIENTO DE DICHAS MATERIAS Y COMERCIALIZACIÓN DE LOS PRODUCTOS DETENIDOS Y EN GENERAL CUALQUIER OTRA OPERACIÓN DE LÍCITO COMERCIO, TANTO INTERIOR COMO EXTERIOR",
      "mainEntityOfPage": "https://www.contratacion.euskadi.eus/webkpe00-kperoc/es/ac71aBusquedaRegistrosWar/empresa/04723",
      "_links": {
        "self": {
          "name": "RECUPERATIONS STEEL GALINDO, S.A.",
          "href": "https://api.euskadi.eus/procurements/companies/04723"
        }
      }
    },
    {
      "name": "ENRIQUE OTADUY, S.L.",
      "registrationNumber": "00290",
      "identificationNumber": "B48081392",
      "address": "C/ GRAN VÍA, 81 - 3º",
      "location": {
        "postalCode": "48001",
        "municipality": "Bilbao",
        "county": "Bizkaia",
        "municipalityId": "020",
        "countyId": "48"
      },
      "economicActivities": [
        {
          "id": "1.502.3",
          "name": "Consolidación y preparación de terrenos para la realización de obras civiles",
          "_links": {
            "self": {
              "name": "Consolidación y preparación de terrenos para la realización de obras civiles",
              "href": "https://api.euskadi.eus/procurements/companies/economic-activities/1.502.3"
            }
          }
        },
        {
          "id": "1.722",
          "name": "Transporte de mercancías por carretera",
          "_links": {
            "self": {
              "name": "Transporte de mercancías por carretera",
              "href": "https://api.euskadi.eus/procurements/companies/economic-activities/1.722"
            }
          }
        }
      ],
      "certificateStartDate": "2016-01-08",
      "certificateEndDate": "2016-06-01",
      "object": "LA CONSTRUCCION DE OBRAS DE TODAS CLASES, ASÍ COMO EL MOVIMIENTO Y TRANSPORTES DE TIERRAS Y ROCAS. LA EXPLOTACIÓN DIRECTA O INDIRECTA, DE VIVIENDAS, LOCALES COMERCIALES, NAVES INDUSTRIALES, APARCAMIENTOS, VERTEDEROS Y DEMÁS INSTALACIONES Y EQUIPAMIENTOS URBANOS. LA PREPARACIÓN Y URBANIZACIÓN DE SUELOS. LA PROMOCIÓN DE CONSTRUCCIONES, EDIFICACIONES O CONJUNTOS URBANÍSTICOS, TANTO RESIDENCIALES COMO INDUSTRIALES.",
      "mainEntityOfPage": "https://www.contratacion.euskadi.eus/webkpe00-kperoc/es/ac71aBusquedaRegistrosWar/empresa/00290",
      "_links": {
        "self": {
          "name": "ENRIQUE OTADUY, S.L.",
          "href": "https://api.euskadi.eus/procurements/companies/00290"
        }
      }
    },
    {
      "name": "CORSÁN-CORVIAM CONSTRUCCIÓN, S.A.",
      "registrationNumber": "00965",
      "identificationNumber": "A79222709",
      "address": "C/ CABALLERO ANDANTE, 8  ",
      "location": {
        "postalCode": "28021",
        "municipality": "Humanes de Madrid",
        "county": "Madrid",
        "municipalityId": "073",
        "countyId": "28"
      },
      "economicActivities": [
        {
          "id": "1.507",
          "name": "Construcción, reparación y conservación de toda clase obras",
          "_links": {
            "self": {
              "name": "Construcción, reparación y conservación de toda clase obras",
              "href": "https://api.euskadi.eus/procurements/companies/economic-activities/1.507"
            }
          }
        }
      ],
      "certificateStartDate": "2016-01-07",
      "certificateEndDate": "2016-06-01",
      "object": "A) LA CONTRATACIÓN, GESTIÓN Y EJECUCIÓN, DIRECTA O INDIRECTAMENTE, CON MEDIOS PROPIOS O AJENOS, DE OBRAS TERRESTRES  MARÍTIMAS, Y PÚBLICAS Y PRIVADAS, DE MOVIMIENTO DE TIERRAS Y PERFORACIONES, DE PUENTES, VIADUCTOS Y GRANDES ESTRUCTURAS, DE CONSTRUCCIÓN, REHABILITACIÓN Y MANTENIMIENTO DE EDIFICIOS, DE FERROCARRILES, HIDRÁULICAS, MARÍTIMAS, DE VIALES DECARRETERAS, DE AUTOVÍAS Y AUTOPISTAS, DE PISTAS DE AEROPUERTOS, DE OLEODUCTOS Y GASODUCTOS, DE INSTALACIONES ELÉCTRICAS, ELECTRÓNICAS Y MECÁNICAS, DE CIMENTACIONES, SONDEOS, IINYECCIONES, PILOTAJES, TABLESTACADOS, PINTURAS, METALIZACIONES, ORNAMENTACIONES Y DECORACIONES, DE JARDINERÍA Y PLANTACIONES, DE RESTAURACIONES DE BIENES INMUEBLES HISTÓRICO ARTÍSTICOS, DE ESTACONES DE TRATAMIENTO DE AGUAS, DE INSTALACIONES CONTRA INCENDIOS, Y AQUELLAS ORDENADAS A LA CONSERVACIÓN Y MEJORA DEL MEDIO AMBIENTE, INCLUSO LAS DE CONSERVACIÓN INTEGRAL DE TODAS ELLAS Y TODA OTRA CLASE DE OBRAS Y CONSTRUCCIONES; B) LA EXPLOTACIÓN DEMINAS Y CANTERAS Y LA COMERCIALIZACIÓN DE SUS PRODUCTOS; C) LA ADQUISICIÓN, FABRICACIÓN, VENTA, SUMINISTRO, IMPORTACIÓN, EXPORTACIÓN, ARRENDAMIENTO, INSTALACIONES, MANTENIMIENTO, DISTRIBUCIÓN Y EXPLOTACIÓN DE MAQUINARIA, HERRAMIENTAS, VEHÍCULOS, INSTALACIONES, EQUIPOS Y MATERIALES DESTINADOS A LA CONSTRUCCIÓN Y AL EQUIPAMIENTO Y AMUEBLAMIENTO URBANO Y DE EDIFICIOS, CON DISTINO A LAS ADMINISTRACIONES PÚBLICAS Y A PERSONAS DE DERECHO PRIVADO; D) LA ELABORACIÓN DE PROYECTOS Y DIRECCIÓN DE OBRAS DE INGENIERÍA, ARQUITECTURA, AGRICULTURA, GANADERÍA, PESCA, INDUSTRIA, ENERGÍA, MINERÍA, CIVILES, EDIFICACIÓN, URBANISMO, INSTALACIONES ELECTRÓNICAS, Y DE TODA OTRA CLASE DE OBRAS; LA SUPERVISIÓN, ASESORAMIENTO Y REPRESENTACIÓN EN LA EJECUCIÓN DE TODAS LAS OBRAS ANTES MENCIONADAS; LA REALIZACIÓN DE ESTUDIOS E INFORMES DE OBRAS CIVILES, DE EDIFICACIÓN, URBANIZACIÓN, CARTOGRAFÍA, CATASTROS, GEOTÉCNICA, HIDROLOGÍA Y MEDIO AMBIENTE, ECONÓMICOS, FINANCIEROS, COMERCIALES, SOCIALES, LABORALES, Y LA DE ANÁLISIS, ENSAYOS Y CONTROL TÉCNICOS, Y AUDITORÍAS; E) LA PRESTACIÓN A LAS ADMINISTRACIONES PÚBLICAS Y A LAS PERSONAS DE DERECHO PRIVADO, DE LOS SIGUIENTES SERVICIOS, INCLUYENDO SU GESTIÓN INTEGRAL, LA EXPLOTACIÓN DE LAS OBRAS E INSTALACIONES RELACIONADAS CON ELLOS Y LA COMERCIALIZACIÓN TANTO DE DICHOS SERVICIOS, COMO DE LOS PRODUCTOS Y SUBPRODUCTOS QUE GENEREN: E.1.-SERVICIOS SANITARIOS, INCLUYENBDO LAS ACTIVIDADES MÉDICAS Y SANITARIAS PRESTADAS EN HOSPITALES, CLÍNICAS, SANATORIOS, CONSULTORIOS MÉDICOS, CENTROS DE SOCORRO, ETC. Y EL TRASLADO DE ENFERMOS POR CUALQUIER MEDIO DE TRANSPORTE; LAS ACTIVIDADES DE REHABILITACIÓN Y FISIOTERAPIA; LA INSPECCIÓN SANITARIA DE MATADEROS Y GRANJAS Y, EN GENERAL AQUELLAS ACTIVIDADES QUE TENGAN POR OBJETO LA PROMOCIÓN DE LA SALUD, LA PREVENCIÓN DE ENFERMEDAD Y EL DIAGNÓSTICO Y TRATAMIENTO POR PROFESIONALES DE LAS ENFERMEDADES HUMANAS; E.2.- SERVICIOS DE INFORMACIÓN, INCLUYENDO LAS ACTIVIDADES DE DESARROLLO, SUMINISTRO, EXPLOTACIÓN Y MANTENIMIENTO DE EQUIPOS PARA EL TRATAMIENTO DE LA INFORMACIÓN DE PROGRAMAS DE ORDENADOR, DE PROGRAMACIÓN Y DE SISTEMAS PARA EL TRATAMIENTO DE LA INFORMACIÓN, ASÍ COMO ACTIVIDADES DE INFORMACIÓN AL PÚBLICO Y SERVICIOS DE PUBLICIDAD, INCLUYENDO ACTIVIDADES DE PROPAGANDA E IMAGEN CORPORATIVA, REALIZADAS MEDIANTE CUALQUIER SISTEMA Y SU DIFUSIÓN EN MEDIOS DE COMUNICACIÓN SOCIAL; SERVICIOS ADMINISTRATIVOS, INCLUYENDO ACTIVIDADES AUXILIARES ADMINISTRATIVAS COMO ARCHIVOS, TRABAJOS DE MECANOGRAFÍA, GRABACIÓN DE DATOS, TRATAMIENTO DE TEXTOS, MICROFILMACIÓN Y GESTIÓN DE COBROS Y OTRAS, COMO ORGANIZACIÓN DE CONGRESOS, CONVENCIONES, EOXPOSICIONES, FERIAS Y RELACIONES PÚBLICAS; Y SERVICIOS DE COMUNICACIONES, INCLUYENDO ACTIVIDADES DE TELECOMUNICACIONES, ATENCIÓN A CENTRALITAS TELEFÓNICAS Y SIMILARES, ACTIVIDADES DE MENSAJERÍA, REPARTO Y MANIPULACIÓN DE CORRESPONDENCIA; E.3.- SERVICIOS DE CONSERVACIÓN Y MATENIMIENTO DE TODA CLASE DE OBRAS Y BIENES INMUEBLES, INCLUYENDO EDIFICIOS, TRATAMIENTOS DE FACHADAS, JARDINES Y MONTES, REDES DE AGUA Y ALCANTARILLADO; DE CARRETERAS Y VIALES; DE CONJUNTOS MONUMENTALES; DE MOBILIARIO URBANO; SERVICIOS DE ADMINISTRACIÓN DE COMUNIDADES DE PROPIETARIOS; E.4.- SERVICIOS DE LIMPIEZA E HIGIENIZACIÓN DE TODA CLASE OBRAS, BIENES INMUEBLES, EQUIPOS E INSTALACIONES, INCLUYENDO LAS ACTIVIDADES DE LIMPIEZA DE EDIFICIOS Y LOCALES; LIMPIEZA DE CALLES, VIALES Y PISTAS; LIMPIEZA DE MONTES Y JARDINES; LIMPIEZA DE PLAYAS; LIMPIEZA DE ALCANTARILLADO, REDES DE AGUA Y ESTACIONES DEPURADORAS; LAVANDERÍA; SANEAMIENTO; HIGIENIZACIÓN, DESRATIZACIÓN, DESINFECCIÓN Y DESINSECTACIÓN; CONTROL DE HUMOS Y RUIDOS; E.5.- SERVICIOS DE MONTAJE, INSTALACIÓN, MANTENIMIENTO Y REPARACIÓN DE TODA CLASE DE EQUIPOS E INSTALACIONES, INCLUYENDO; EQUIPOS E INSTALACIONES ELÉCTRICA Y ELECTRÓNICAS, DE CALEFACCIÓN, DE AGUA CALIENTE SANITARIA, DE CLIMATIZACIÓN, DE GAS Y DE FONTANERÍA, DE CENTRALES DE PRODUCCIÓN DE ENERGÍA, DE INSTALACIONES FRIGORÍFICAS Y DE RECIPIENTES A PRESIÓN; EQUIPOS E INSTALACIONES EN PISCINAS, EN FUENTES PÚBLICAS, EN ESTACIONES DEPURADORAS Y EN CONDUCCIONES URBANAS; EQUIPOS E INSTALACIONES DE TELECOMUNICACIÓN, DE ELECTROMEDICINA; DE ARMAS Y SISTEMAS DE ARMAS; EQUIPOS E INSTALACIONES DE INFORMÁTICA, CÁLCULO Y MAQUINARIA DE OFICINA; EQUIPOS E INSTALACIONES DE APARATOS ELEVADORES Y DE TRASLACIÓN HORIZONTAL; EQUIPOS E INSTALACIONES DE SEGURIDAD, PROTECCIÓN, DETECCIÓN Y EXTINCIÓN DE INDENDIOS; DE BUQUES, AERONAVES Y CUALQUIER OTRO TIPO DE VEHÍCULOS AUTOMOTORES, ASÍ COMO DE SUS CORRESPONDIENTES EQUIPOS E INSTALACIONES; DE TODO TIPO DE MAQUINARIA INDUSTRIAL Y MÁQUINAS HERRAMIENTA, COMO MAQUINARIA PARA OBRAS PÚBLICAS, MAQUINARIA AGRÍCOLA Y MAQUINARIA PARA LA CONSTRUCCIÓN; DEL ALUMBRADO PÚBLICO Y DE LOS EQUIPOS E INSTALACIONES ELÉCTRICAS Y ELECTRÓNICAS DE CARÁCTER URBANO (SEMÁFOROS, RELOJES, PANELES INDICADORES; ETC.); E.6.- SERVICIOS DE AGENCIA DE VIAJES, HOSTELERÍA Y ACTIVIDADES DE COMIDAS, BANQUETES Y ÁGAPES; ARTES GRÁFICAS, ACTIVIDADES EDITORIALES Y DE DISTRIBUCIÓN; TRADUCCIONES; RESTAURACIÓN DE OBRAS DE ARTE; GUARDERÍA INFANTIL; TRATAMIENTO, RECICLAJE E INCINERACIÓN DE TODO TIPO DE RESIDUOS, ASÍ COMO LA TRANSFORMACIÓN Y COMERCIALIZACIÓN DE SUBPRODUCTOS APROVECHABLES DERIVADOS DE LOS MISMOS, YA SEAN URBANOS O DE OTRA NATURALEZA; PORTERÍA, CONSERJERÍA, CONTROL DE ACCESOS Y VIGILANCIA Y SEGURIDAD PERMITIDOS A LAS PERSONAS JURÍDICAS PRIVADAS POR LA LEGISLACIÓN DE APLICACIÓN; LECTURA DE CONTADORES; VETERINARIOS; VIGILANCIA PARA PREVENCIÓN DE INCENDIOS FORESTALES; PROTECCIÓN DE ESPECIES; DESMONTAJE; TRASLADO INTERIOR Y MONTAJE DE BIENES MUEBLES; RECOGIDA DE CARRITOS PORTAEQUIPAJES EN ESTACIONES Y AEROPUERTOS; DESMONTAJE DE ARMAMENTO Y DESTRUCCCIÓN DE MUNICIÓN; E.7.- SERVICIOS DE TRANSPORTES POR CUALQUIER MEDIO DE MERCANCÍAS, CARGAS, PASAJEROS Y VIAJEROS; ACTIVIDADES AÉREAS DE FUMIGACIÓN Y ACTIVIDADES DE CONTROL Y EXTINCIÓN DE INCENDIOS; RECOGIDA Y TRANSPORTE DE TODO TIPO DE RESIDUOS, YA SEAN URBANOS O DE OTRA NATURALEZA, DESECHOS CONTENEDORES Y LODOS; TRANSPORTES MEDIANTE GRÚAS, MUDANZAS; F) LA PROMOCIÓN, GESTIÓN Y EJECUCIÓN DIRECTA O INDIRECTA Y CON MEDIOS PROPIOS O AJENOS DE TODO TIPO DE NEGOCIOS INMOBILIARIOS, TANTO EN SU VERTIENTE URBANÍSTICA COMO DE LA PROPIA CONSTRUCCIÓN, PARA SU EXPLOTACIÓN EN RÉGIMEN DE VENTA, ALQUILER O CUAQUIER OTRO PERMITIDO EN DERECHO; G) LA ADQUISICIÓN, EN PROPIEDAD O USO Y SU EXPLOTACIÓN EN VENTA, ARRENDAMIENTO O CUALQUIER OTRO PERMITIDO EN DERECHO, DE TODA CLASE DE BIENES INMUEBLES, SU ADMINISTRACIÓN Y PROMOCIÓN, ASÍ COMO EL ASESORAMIENTO RESPECTO A DICHAS OPERACIONES; H) LA ADQUSICIÓN, TENENCIA, DISFRUTE, ADMINISTRACIÓN Y ENAJENACIÓN DE TODA CLASE DE VALORES MOBILIARIOS POR CUENTA PROPIA, QUEDANDO EXCLUÍDAS LAS ACTIVIDADES QUE LA LEGISLACIÓN ESPECIAL Y BÁSICAMENTE LA LEY DEL MERCADO DE VALORES ATRIBUYE CON CARÁCTER EXCLUSIVO A OTRAS ENTIDADES; I) LA TITULARIDAD DE TODA CLASE DE CONCESIONES, SUBCONCESIONES , AUTORIZACIÓN Y LICENCIAS ADMINISTRATIVAS DE OBRAS, SERVICIOS Y MIXTAS DEL ESTADO, COMUNIDADES AUTÓNOMAS, PROVINCIAS, MUNICIPIOS, ORGANISMOS AUTÓNOMOS, ENTIDADES AUTÓNOMAS Y DE CUALQUIER ESTADO EXTRANJERO E INSTITUCIONES INTERNACIONALES; J) LA ADQUISICIÓN, EXPLOTACIÓN EN CUALQUIER FORMA, COMERCIALIZACIÓN CESIÓN Y ENAJENACIÓN DE TODO TIPO DE PROPIEDAD INTELECTUAL, Y DE PATENTES Y DEMÁS MODALIDADES DE PROPIEDAD INDUSTRIAL",
      "mainEntityOfPage": "https://www.contratacion.euskadi.eus/webkpe00-kperoc/es/ac71aBusquedaRegistrosWar/empresa/00965",
      "_links": {
        "self": {
          "name": "CORSÁN-CORVIAM CONSTRUCCIÓN, S.A.",
          "href": "https://api.euskadi.eus/procurements/companies/00965"
        }
      }
    },
    {
      "name": "NOSKI CONSULTING TOUR, S.L.",
      "registrationNumber": "03659",
      "identificationNumber": "B01325455",
      "address": "C/ JUAN PABLO II, 18-bajo",
      "location": {
        "postalCode": "01015",
        "municipality": "Vitoria-Gasteiz",
        "county": "Araba/Álava",
        "municipalityId": "059",
        "countyId": "01"
      },
      "economicActivities": [
        {
          "id": "1.846",
          "name": "Empresas de estudios de mercado",
          "_links": {
            "self": {
              "name": "Empresas de estudios de mercado",
              "href": "https://api.euskadi.eus/procurements/companies/economic-activities/1.846"
            }
          }
        }
      ],
      "certificateStartDate": "2015-12-29",
      "certificateEndDate": "2016-06-23",
      "object": "LA REALIZACIÓN DE ESTUDIOS DE MERCADO, ESTUDIOS DE OPINIÓN, DE HÁBITOS DE COMPRA Y OTROS SERVICIOS INDEPENDIENTES DE INFORMACIÓN E INVESTIGACIÓN COMERCIAL, ASÍ COMO DE CONSULTORÍA EN GENERAL RELACIONADOS CON EL SECTOR DEL TURISMO",
      "mainEntityOfPage": "https://www.contratacion.euskadi.eus/webkpe00-kperoc/es/ac71aBusquedaRegistrosWar/empresa/03659",
      "_links": {
        "self": {
          "name": "NOSKI CONSULTING TOUR, S.L.",
          "href": "https://api.euskadi.eus/procurements/companies/03659"
        }
      }
    },
    {
      "name": "ALAVA-LASCARAY, S.A.",
      "registrationNumber": "01190",
      "identificationNumber": "A01008457",
      "address": "C/ PORTAL DE ELORRIAGA, Nº 4.",
      "location": {
        "postalCode": "01192",
        "municipality": "Vitoria-Gasteiz",
        "county": "Araba/Álava",
        "municipalityId": "059",
        "countyId": "01"
      },
      "economicActivities": [
        {
          "id": "1.615.1",
          "name": "Venta al por mayor de vehículos, motocicletas, bicicletas y sus accesorios",
          "_links": {
            "self": {
              "name": "Venta al por mayor de vehículos, motocicletas, bicicletas y sus accesorios",
              "href": "https://api.euskadi.eus/procurements/companies/economic-activities/1.615.1"
            }
          }
        },
        {
          "id": "1.691.2",
          "name": "Reparación de vehículos automóviles, bicicletas y otros vehículos",
          "_links": {
            "self": {
              "name": "Reparación de vehículos automóviles, bicicletas y otros vehículos",
              "href": "https://api.euskadi.eus/procurements/companies/economic-activities/1.691.2"
            }
          }
        }
      ],
      "certificateStartDate": "2015-12-22",
      "certificateEndDate": "2016-06-15",
      "object": "LA COMPRA-VENTA Y REPARACIÓN DE AUTOMÓVILES, ASÍ COMO DE ACCESORIOS Y RECAMBIOS PARA LOS MISMOS Y, EN GENERAL, TODA CLASE DE ACTIVIDADES RELACIONADAS CON EL SECTOR DE LA AUTOMOCIÓN",
      "mainEntityOfPage": "https://www.contratacion.euskadi.eus/webkpe00-kperoc/es/ac71aBusquedaRegistrosWar/empresa/01190",
      "_links": {
        "self": {
          "name": "ALAVA-LASCARAY, S.A.",
          "href": "https://api.euskadi.eus/procurements/companies/01190"
        }
      }
    },
    {
      "name": "IKUS-ENTZUNEZKO SISTEMEN INTEGRAZIOA, S.L.",
      "registrationNumber": "05185",
      "identificationNumber": "B95661989",
      "address": "Parque Tecnológico de Zamudio, Edifico 208-B, Bajo",
      "location": {
        "postalCode": "48170",
        "municipality": "Zamudio",
        "county": "Bizkaia",
        "municipalityId": "905",
        "countyId": "48"
      },
      "economicActivities": [
        {
          "id": "1.653.2",
          "name": "Venta al por menor de material y aparatos eléctricos, electrodomésticos y cocina",
          "_links": {
            "self": {
              "name": "Venta al por menor de material y aparatos eléctricos, electrodomésticos y cocina",
              "href": "https://api.euskadi.eus/procurements/companies/economic-activities/1.653.2"
            }
          }
        },
        {
          "id": "1.856.1",
          "name": "Alquiler de bienes de consumo",
          "_links": {
            "self": {
              "name": "Alquiler de bienes de consumo",
              "href": "https://api.euskadi.eus/procurements/companies/economic-activities/1.856.1"
            }
          }
        }
      ],
      "certificateStartDate": "2015-12-21",
      "certificateEndDate": "2016-05-18",
      "object": "DISEÑO, INTEGRACIÓN, PROGRAMACIÓN, AUTOMATIZACIÓN E INSTALACIONES ELÉCTRICAS Y ELECTRÓNICAS DE MATERIAL AUDIOVISUAL (CNAE 6399). VENTA DE MATERIAL AUDIOVISUAL (CNAE 4743). ALQUILER DE MATERIAL AUDIOVISUAL (CNAE 7739). ORGANIZACIÓN, COORDINACIÓN Y EJECUCIÓN DE EVENTOS SOCIALES, CULTURALES Y EMPRESARIALES (CNAE 7430, 8230, 9004 Y 9102).",
      "mainEntityOfPage": "https://www.contratacion.euskadi.eus/webkpe00-kperoc/es/ac71aBusquedaRegistrosWar/empresa/05185",
      "_links": {
        "self": {
          "name": "IKUS-ENTZUNEZKO SISTEMEN INTEGRAZIOA, S.L.",
          "href": "https://api.euskadi.eus/procurements/companies/05185"
        }
      }
    },
    {
      "name": "PA CONSULTING SERVICES LIMITED",
      "registrationNumber": "05453",
      "identificationNumber": "N8264571D",
      "address": "123 Buckingham Palace Road. SW1W9SR LONDRES",
      "economicActivities": [
        {
          "id": "1.849.7",
          "name": "Servicios de gestión administrativa",
          "_links": {
            "self": {
              "name": "Servicios de gestión administrativa",
              "href": "https://api.euskadi.eus/procurements/companies/economic-activities/1.849.7"
            }
          }
        }
      ],
      "certificateStartDate": "2015-12-16",
      "certificateEndDate": "2016-05-21",
      "object": "SUMINISTRO DE CONSULTORÍA DE GESTIÓN Y ACTIVIDADES RELACIONADAS",
      "mainEntityOfPage": "https://www.contratacion.euskadi.eus/webkpe00-kperoc/es/ac71aBusquedaRegistrosWar/empresa/05453",
      "_links": {
        "self": {
          "name": "PA CONSULTING SERVICES LIMITED",
          "href": "https://api.euskadi.eus/procurements/companies/05453"
        }
      }
    }
  ]
}