{
  "totalItems": 9042,
  "totalPages": 905,
  "currentPage": 856,
  "itemsOfPage": 10,
  "items": [
    {
      "name": "ZUBARA ERAIKUNTZA, S.L.",
      "registrationNumber": "03697",
      "identificationNumber": "B20799490",
      "address": "CASA ETXE-ALAI 1 - BO. OTAMENDI",
      "location": {
        "postalCode": "20269",
        "municipality": "Abaltzisketa",
        "county": "Gipuzkoa",
        "municipalityId": "001",
        "countyId": "20"
      },
      "object": ".",
      "mainEntityOfPage": "https://www.contratacion.euskadi.eus/webkpe00-kperoc/es/ac71aBusquedaRegistrosWar/empresa/03697",
      "_links": {
        "self": {
          "name": "ZUBARA ERAIKUNTZA, S.L.",
          "href": "https://api.euskadi.eus/procurements/companies/03697"
        }
      }
    },
    {
      "name": "NEOFIS NUEVAS TECNOLOGÍAS, S.L.",
      "registrationNumber": "03715",
      "identificationNumber": "B20704748",
      "address": "PASEO ARRIOLA, 15",
      "location": {
        "postalCode": "20018",
        "municipality": "Donostia / San Sebastián",
        "county": "Gipuzkoa",
        "municipalityId": "069",
        "countyId": "20"
      },
      "object": ".",
      "mainEntityOfPage": "https://www.contratacion.euskadi.eus/webkpe00-kperoc/es/ac71aBusquedaRegistrosWar/empresa/03715",
      "_links": {
        "self": {
          "name": "NEOFIS NUEVAS TECNOLOGÍAS, S.L.",
          "href": "https://api.euskadi.eus/procurements/companies/03715"
        }
      }
    },
    {
      "name": "IKUSNET, S.L.L.",
      "registrationNumber": "03716",
      "identificationNumber": "B01303155",
      "address": "C/ LANDAVERDE, 15-BAJO",
      "location": {
        "postalCode": "01010",
        "municipality": "Vitoria-Gasteiz",
        "county": "Araba/Álava",
        "municipalityId": "059",
        "countyId": "01"
      },
      "object": ".",
      "mainEntityOfPage": "https://www.contratacion.euskadi.eus/webkpe00-kperoc/es/ac71aBusquedaRegistrosWar/empresa/03716",
      "_links": {
        "self": {
          "name": "IKUSNET, S.L.L.",
          "href": "https://api.euskadi.eus/procurements/companies/03716"
        }
      }
    },
    {
      "name": "ABARTIA TEAM, S.L.",
      "registrationNumber": "03717",
      "identificationNumber": "B95271946",
      "address": "AVDA. MADARIAGA, 19-4º",
      "location": {
        "postalCode": "48014",
        "municipality": "Bilbao",
        "county": "Bizkaia",
        "municipalityId": "020",
        "countyId": "48"
      },
      "object": ".",
      "mainEntityOfPage": "https://www.contratacion.euskadi.eus/webkpe00-kperoc/es/ac71aBusquedaRegistrosWar/empresa/03717",
      "_links": {
        "self": {
          "name": "ABARTIA TEAM, S.L.",
          "href": "https://api.euskadi.eus/procurements/companies/03717"
        }
      }
    },
    {
      "name": "ELECTRICIDAD J.BLANCO E HIJOS S.L",
      "registrationNumber": "03734",
      "identificationNumber": "B48808257",
      "address": "AVDA CERVANTES 49 MODULO 28",
      "location": {
        "postalCode": "48970",
        "municipality": "Basauri",
        "county": "Bizkaia",
        "municipalityId": "015",
        "countyId": "48"
      },
      "classification": [
        {
          "id": "O",
          "name": "Obras",
          "groups": [
            {
              "id": "I",
              "name": "INSTALACIONES ELÉCTRICAS",
              "subgroups": [
                {
                  "id": "06",
                  "name": "Distribución en baja tensión",
                  "categories": [
                    {
                      "id": "3",
                      "name": "Desde 360.001 Hasta 840.000",
                      "_links": {
                        "self": {
                          "name": "Desde 360.001 Hasta 840.000",
                          "href": "https://api.euskadi.eus/procurements/companies/types/O/categories/3"
                        }
                      }
                    }
                  ],
                  "_links": {
                    "self": {
                      "name": "Distribución en baja tensión",
                      "href": "https://api.euskadi.eus/procurements/companies/types/O/groups/I/subgroups/06"
                    }
                  }
                },
                {
                  "id": "09",
                  "name": "Instalaciones eléctricas sin cualificación específica",
                  "categories": [
                    {
                      "id": "3",
                      "name": "Desde 360.001 Hasta 840.000",
                      "_links": {
                        "self": {
                          "name": "Desde 360.001 Hasta 840.000",
                          "href": "https://api.euskadi.eus/procurements/companies/types/O/categories/3"
                        }
                      }
                    }
                  ],
                  "_links": {
                    "self": {
                      "name": "Instalaciones eléctricas sin cualificación específica",
                      "href": "https://api.euskadi.eus/procurements/companies/types/O/groups/I/subgroups/09"
                    }
                  }
                }
              ],
              "_links": {
                "self": {
                  "name": "INSTALACIONES ELÉCTRICAS",
                  "href": "https://api.euskadi.eus/procurements/companies/types/O/groups/I"
                }
              }
            }
          ],
          "_links": {
            "self": {
              "name": "Obras",
              "href": "https://api.euskadi.eus/procurements/companies/types/O"
            }
          }
        }
      ],
      "object": "MANTENIMIENTO CONSERVACION, MONTAJES Y REPARACIONES ELECTRICAS Y ELECTRONICAS, EN GENERAL, EN VIVIENDAS, EDIFICIOS [-] INDUSTRIALES Y EN TODA CLASE DE LOCALES",
      "mainEntityOfPage": "https://www.contratacion.euskadi.eus/webkpe00-kperoc/es/ac71aBusquedaRegistrosWar/empresa/03734",
      "_links": {
        "self": {
          "name": "ELECTRICIDAD J.BLANCO E HIJOS S.L",
          "href": "https://api.euskadi.eus/procurements/companies/03734"
        }
      }
    },
    {
      "name": "ARABA ANBULANTZIAK, S.L.",
      "registrationNumber": "03736",
      "identificationNumber": "B20960597",
      "address": "C/ URUNE, 35 - POL. IND. 103",
      "location": {
        "postalCode": "20100",
        "municipality": "Lezo",
        "county": "Gipuzkoa",
        "municipalityId": "053",
        "countyId": "20"
      },
      "object": ".",
      "mainEntityOfPage": "https://www.contratacion.euskadi.eus/webkpe00-kperoc/es/ac71aBusquedaRegistrosWar/empresa/03736",
      "_links": {
        "self": {
          "name": "ARABA ANBULANTZIAK, S.L.",
          "href": "https://api.euskadi.eus/procurements/companies/03736"
        }
      }
    },
    {
      "name": "SERVICIO DE ASISTENCIA A INSTALACIONES DE CALEFACCION SL",
      "registrationNumber": "03737",
      "identificationNumber": "B48081715",
      "address": "C/ LAS MERCEDES, Nº 31-º1 -Dptos. 9-11",
      "location": {
        "postalCode": "48930",
        "municipality": "Getxo",
        "county": "Bizkaia",
        "municipalityId": "044",
        "countyId": "48"
      },
      "classification": [
        {
          "id": "S",
          "name": "Servicios",
          "groups": [
            {
              "id": "P",
              "subgroups": [
                {
                  "id": "02",
                  "name": "Mtto. y reparación equipos e instalac.de fontanería, conducciones de agua y gas",
                  "categories": [
                    {
                      "id": "2",
                      "name": "Desde 150.001 Hasta 300.000",
                      "_links": {
                        "self": {
                          "name": "Desde 150.001 Hasta 300.000",
                          "href": "https://api.euskadi.eus/procurements/companies/types/S/categories/2"
                        }
                      }
                    }
                  ],
                  "_links": {
                    "self": {
                      "name": "Mtto. y reparación equipos e instalac.de fontanería, conducciones de agua y gas",
                      "href": "https://api.euskadi.eus/procurements/companies/types/S/groups/P/subgroups/02"
                    }
                  }
                },
                {
                  "id": "03",
                  "name": "Mtto. y reparación equipos e instalaciones de calefacción y aire acondicionado",
                  "categories": [
                    {
                      "id": "2",
                      "name": "Desde 150.001 Hasta 300.000",
                      "_links": {
                        "self": {
                          "name": "Desde 150.001 Hasta 300.000",
                          "href": "https://api.euskadi.eus/procurements/companies/types/S/categories/2"
                        }
                      }
                    }
                  ],
                  "_links": {
                    "self": {
                      "name": "Mtto. y reparación equipos e instalaciones de calefacción y aire acondicionado",
                      "href": "https://api.euskadi.eus/procurements/companies/types/S/groups/P/subgroups/03"
                    }
                  }
                }
              ],
              "_links": {
                "self": {
                  "href": "https://api.euskadi.eus/procurements/companies/types/S/groups/P"
                }
              }
            }
          ],
          "_links": {
            "self": {
              "name": "Servicios",
              "href": "https://api.euskadi.eus/procurements/companies/types/S"
            }
          }
        }
      ],
      "object": "Actividad principal con código CNAE 4322 - Fontanería, instalaciones de sistemas de calefacción  y aire acondicionado.\nLa realización de estudios, asistencia y suministros para instalaciones de calefacción, refrigeración industrial, aire acondicionado, electricidad y tratamiento de aguas.\nResto de actividades:\nServicios técnico de ingeniería y otras actividades relacionadas con el asesoramiento técnico.\nActividades propias de la prestación de servicios energéticos o de mejora de la eficiencia energética en instalaciones, locales y edificios.",
      "mainEntityOfPage": "https://www.contratacion.euskadi.eus/webkpe00-kperoc/es/ac71aBusquedaRegistrosWar/empresa/03737",
      "_links": {
        "self": {
          "name": "SERVICIO DE ASISTENCIA A INSTALACIONES DE CALEFACCION SL",
          "href": "https://api.euskadi.eus/procurements/companies/03737"
        }
      }
    },
    {
      "name": "TALLERES ELECTRICOS OCER, S.L.",
      "registrationNumber": "03739",
      "identificationNumber": "B48137434",
      "address": "NEMESIO BIKANDI, 1",
      "location": {
        "postalCode": "48000",
        "municipality": "Amorebieta-Etxano",
        "county": "Bizkaia",
        "municipalityId": "003",
        "countyId": "48"
      },
      "object": "pte",
      "mainEntityOfPage": "https://www.contratacion.euskadi.eus/webkpe00-kperoc/es/ac71aBusquedaRegistrosWar/empresa/03739",
      "_links": {
        "self": {
          "name": "TALLERES ELECTRICOS OCER, S.L.",
          "href": "https://api.euskadi.eus/procurements/companies/03739"
        }
      }
    },
    {
      "name": "MEDICAL DOM, S.L.",
      "registrationNumber": "03741",
      "identificationNumber": "B48618318",
      "address": "GRAN VÍA, 53 - 2 DHCA.",
      "location": {
        "postalCode": "48011",
        "municipality": "Bilbao",
        "county": "Bizkaia",
        "municipalityId": "020",
        "countyId": "48"
      },
      "object": "pte",
      "mainEntityOfPage": "https://www.contratacion.euskadi.eus/webkpe00-kperoc/es/ac71aBusquedaRegistrosWar/empresa/03741",
      "_links": {
        "self": {
          "name": "MEDICAL DOM, S.L.",
          "href": "https://api.euskadi.eus/procurements/companies/03741"
        }
      }
    },
    {
      "name": "LIMPIEZAS TXINDOKI 2001, S.L.",
      "registrationNumber": "03742",
      "identificationNumber": "B20739686",
      "address": "C/ITTURRIN, 21- POL. INDUSTRIAL 108",
      "location": {
        "postalCode": "20100",
        "municipality": "Lezo",
        "county": "Gipuzkoa",
        "municipalityId": "053",
        "countyId": "20"
      },
      "object": "pte",
      "mainEntityOfPage": "https://www.contratacion.euskadi.eus/webkpe00-kperoc/es/ac71aBusquedaRegistrosWar/empresa/03742",
      "_links": {
        "self": {
          "name": "LIMPIEZAS TXINDOKI 2001, S.L.",
          "href": "https://api.euskadi.eus/procurements/companies/03742"
        }
      }
    }
  ]
}