{
  "totalItems": 9042,
  "totalPages": 905,
  "currentPage": 364,
  "itemsOfPage": 10,
  "items": [
    {
      "name": "MUNKUN, S.L.",
      "registrationNumber": "09293",
      "identificationNumber": "B72876402",
      "address": "Calle Mi Tío 18, bajo derecha ",
      "location": {
        "postalCode": "50019",
        "municipality": "Zaragoza",
        "county": "Zaragoza",
        "municipalityId": "297",
        "countyId": "50"
      },
      "economicActivities": [
        {
          "id": "1.845",
          "name": "Explotación electrónica por cuenta de terceros",
          "_links": {
            "self": {
              "name": "Explotación electrónica por cuenta de terceros",
              "href": "https://api.euskadi.eus/procurements/companies/economic-activities/1.845"
            }
          }
        }
      ],
      "certificateStartDate": "2025-03-25",
      "certificateEndDate": "2025-09-25",
      "object": "A) . - LA CREACIÓN Y CONSULTORÍA DE CONTENIDOS DE COMUNICACIÓN VISUAL MEDIANTE VÍDEOS, SITIOS WEB, APLICACIONES INFORMÁTICAS Y RECURSOS DIDÁCTICOS. B) . - LA FORMACIÓN PROFESIONAL EN EL ÁMBITO DE LA SOSTENIBILIDAD. C) . - LA ORGANIZACIÓN Y PRODUCCIÓN DE EVENTOS CULTURALES, ARTÍSTICOS Y CIENTÍFICOS.",
      "mainEntityOfPage": "https://www.contratacion.euskadi.eus/webkpe00-kperoc/es/ac71aBusquedaRegistrosWar/empresa/09293",
      "_links": {
        "self": {
          "name": "MUNKUN, S.L.",
          "href": "https://api.euskadi.eus/procurements/companies/09293"
        }
      }
    },
    {
      "name": "IMANOL AGIRRE ZUBIAUR",
      "registrationNumber": "06085",
      "identificationNumber": "78916002N",
      "address": "PLAZA SAGRADO CORAZON 4 DEPT 9",
      "location": {
        "postalCode": "48011",
        "municipality": "Bilbao",
        "county": "Bizkaia",
        "municipalityId": "020",
        "countyId": "48"
      },
      "economicActivities": [
        {
          "id": "2.199",
          "name": "Otros profesionales relacionados con las actividades propias de energía",
          "_links": {
            "self": {
              "name": "Otros profesionales relacionados con las actividades propias de energía",
              "href": "https://api.euskadi.eus/procurements/companies/economic-activities/2.199"
            }
          }
        }
      ],
      "certificateStartDate": "2025-03-25",
      "certificateEndDate": "2025-09-12",
      "object": "MUESTREOS Y ANALISIS AMBIENTALES E INDUSTRIALES",
      "mainEntityOfPage": "https://www.contratacion.euskadi.eus/webkpe00-kperoc/es/ac71aBusquedaRegistrosWar/empresa/06085",
      "_links": {
        "self": {
          "name": "IMANOL AGIRRE ZUBIAUR",
          "href": "https://api.euskadi.eus/procurements/companies/06085"
        }
      }
    },
    {
      "name": "CONSUELO HERVIAS FERNANDEZ",
      "registrationNumber": "08910",
      "identificationNumber": "72252498E",
      "address": "Calle Baiona,43 -3º D",
      "location": {
        "postalCode": "01010",
        "municipality": "Vitoria-Gasteiz",
        "county": "Araba/Álava",
        "municipalityId": "059",
        "countyId": "01"
      },
      "economicActivities": [
        {
          "id": "1.673.2",
          "name": "Otros cafés y bares",
          "_links": {
            "self": {
              "name": "Otros cafés y bares",
              "href": "https://api.euskadi.eus/procurements/companies/economic-activities/1.673.2"
            }
          }
        }
      ],
      "certificateStartDate": "2025-03-25",
      "certificateEndDate": "2025-09-25",
      "object": "OTROS CAFÉS Y BARES.",
      "mainEntityOfPage": "https://www.contratacion.euskadi.eus/webkpe00-kperoc/es/ac71aBusquedaRegistrosWar/empresa/08910",
      "_links": {
        "self": {
          "name": "CONSUELO HERVIAS FERNANDEZ",
          "href": "https://api.euskadi.eus/procurements/companies/08910"
        }
      }
    },
    {
      "name": "ZORAGARRI SL",
      "registrationNumber": "09265",
      "identificationNumber": "B48628820",
      "address": "REGALES 20, 1º",
      "location": {
        "postalCode": "48980",
        "municipality": "Santurtzi",
        "county": "Bizkaia",
        "municipalityId": "082",
        "countyId": "48"
      },
      "economicActivities": [
        {
          "id": "1.951",
          "name": "Asistencia y servicios sociales en centros residenciales",
          "_links": {
            "self": {
              "name": "Asistencia y servicios sociales en centros residenciales",
              "href": "https://api.euskadi.eus/procurements/companies/economic-activities/1.951"
            }
          }
        }
      ],
      "certificateStartDate": "2025-03-24",
      "certificateEndDate": "2025-09-12",
      "object": "EL CUIDADO Y ATENCIÓN DE PERSONAS INVÁLIDAS, TANTO FÍSICAS COMO SÍQUICAS, ANCIANOS, ETC. DENTRO DEL DOMICILIO SOCIAL COMO FUERA DE ÉL.",
      "mainEntityOfPage": "https://www.contratacion.euskadi.eus/webkpe00-kperoc/es/ac71aBusquedaRegistrosWar/empresa/09265",
      "_links": {
        "self": {
          "name": "ZORAGARRI SL",
          "href": "https://api.euskadi.eus/procurements/companies/09265"
        }
      }
    },
    {
      "name": "ADURIZ LUJANBIO, S.L.",
      "registrationNumber": "09831",
      "identificationNumber": "B20992764",
      "address": "DONIBANE KALEA, 2 - DRCHA.",
      "location": {
        "postalCode": "20100",
        "municipality": "Lezo",
        "county": "Gipuzkoa",
        "municipalityId": "053",
        "countyId": "20"
      },
      "economicActivities": [
        {
          "id": "1.501.3",
          "name": "Albañilería y pequeños trabajos de construcción en general",
          "_links": {
            "self": {
              "name": "Albañilería y pequeños trabajos de construcción en general",
              "href": "https://api.euskadi.eus/procurements/companies/economic-activities/1.501.3"
            }
          }
        }
      ],
      "certificateStartDate": "2025-03-24",
      "certificateEndDate": "2025-09-15",
      "object": "LA ALBAÑILERÍA GENERAL Y OBRAS INTEGRALES.",
      "mainEntityOfPage": "https://www.contratacion.euskadi.eus/webkpe00-kperoc/es/ac71aBusquedaRegistrosWar/empresa/09831",
      "_links": {
        "self": {
          "name": "ADURIZ LUJANBIO, S.L.",
          "href": "https://api.euskadi.eus/procurements/companies/09831"
        }
      }
    },
    {
      "name": "PAPELERIA GOYA SL",
      "registrationNumber": "07390",
      "identificationNumber": "B95349296",
      "address": "COLON DE LARREATEGUI 36",
      "location": {
        "postalCode": "48009",
        "municipality": "Bilbao",
        "county": "Bizkaia",
        "municipalityId": "020",
        "countyId": "48"
      },
      "economicActivities": [
        {
          "id": "1.659.4",
          "name": "Venta al por menor de libros, periódicos y artículos de papelería y escritorio",
          "_links": {
            "self": {
              "name": "Venta al por menor de libros, periódicos y artículos de papelería y escritorio",
              "href": "https://api.euskadi.eus/procurements/companies/economic-activities/1.659.4"
            }
          }
        }
      ],
      "certificateStartDate": "2025-03-21",
      "certificateEndDate": "2025-09-12",
      "object": "A) LA REALIZACIÓN DE TRABAJOS DE IMPRENTA, ARTES GRÁFICAS Y DE PAPELERÍA, CONFECCIÓN Y REALIZACIÓN DE FOTOCOPIAS, DISEÑO GRÁFICO Y DE PUBLICIDAD. B) LA COMPRA-VENTA, COMERCIALIZACION, IMPORTACIÓN Y EXPORTACIÓN DE MATERIAL DE PAPELERÍA Y LIBRERÍA, UTILES Y ENSERES DE OFICINA, ASÍ COMO MOBILIARIO DE OFICINA. C) IMPORTACIÓN, EXPORTACIÓN, COMPRA, VENTA Y COMERCIO, EN GENERAL, AL POR MAYOR Y MENOR, DE ARTÍCULOS Y PRODUCTOS TÍPICOS DE UN NEGOCIO DE BAZAR Y DE ESCRITORIO, PAPELERÍA, LIBRERÍA Y SUS ACCESORIOS. D) DISEÑO, REALIZACIÓN Y EJECUCIÓN DE PROYECTOS DE DECORACIÓN Y DISEÑO DE INTERIORES, ASI COMO LA COMPRA, VENTA, DE TODO TIPO DE MOBILIARIO\n",
      "mainEntityOfPage": "https://www.contratacion.euskadi.eus/webkpe00-kperoc/es/ac71aBusquedaRegistrosWar/empresa/07390",
      "_links": {
        "self": {
          "name": "PAPELERIA GOYA SL",
          "href": "https://api.euskadi.eus/procurements/companies/07390"
        }
      }
    },
    {
      "name": "SOCIEDAD DE CIENCIAS ARANZADI ZIENTZIA ELKARTEA",
      "registrationNumber": "07261",
      "identificationNumber": "G20059135",
      "address": "ZORROAGAGAINA 11",
      "location": {
        "postalCode": "20014",
        "municipality": "Donostia / San Sebastián",
        "county": "Gipuzkoa",
        "municipalityId": "069",
        "countyId": "20"
      },
      "economicActivities": [
        {
          "id": "1.685",
          "name": "Alojamientos turísticos extrahoteleros",
          "_links": {
            "self": {
              "name": "Alojamientos turísticos extrahoteleros",
              "href": "https://api.euskadi.eus/procurements/companies/economic-activities/1.685"
            }
          }
        },
        {
          "id": "1.932.2",
          "name": "Enseñanza de formación y perfeccionamiento profesional superior",
          "_links": {
            "self": {
              "name": "Enseñanza de formación y perfeccionamiento profesional superior",
              "href": "https://api.euskadi.eus/procurements/companies/economic-activities/1.932.2"
            }
          }
        },
        {
          "id": "1.936",
          "name": "Investigación científica y técnica",
          "_links": {
            "self": {
              "name": "Investigación científica y técnica",
              "href": "https://api.euskadi.eus/procurements/companies/economic-activities/1.936"
            }
          }
        },
        {
          "id": "1.936.9",
          "name": "Otras investigaciones científicas y técnicas n.c.o.p",
          "_links": {
            "self": {
              "name": "Otras investigaciones científicas y técnicas n.c.o.p",
              "href": "https://api.euskadi.eus/procurements/companies/economic-activities/1.936.9"
            }
          }
        }
      ],
      "certificateStartDate": "2025-03-20",
      "certificateEndDate": "2025-08-26",
      "object": "LA INVESTIGACIÓN Y CONOCIMIENTO DE PROBLEMAS Y CUESTIONES PROPIAS DEL MEDIO NATURAL Y HUMANO, TANTO EN SU VERTIENTE PURA COMO APLICADA. LA DIVULGACIÓN DE TALES CONOCIMIENTOS Y DE LOS RESULTADOS DE LAS INVESTIGACIONES REALIZADAS INCLUYENDO ENTRE OTROS: - LAS ACTUACIONES ENCAMINADAS AL TURISMO SOSTENIBLE. - EL FOMENTO DE LAS NUEVAS TECNOLOGÍAS. - EL FOMENTO Y DIVULGACIÓN DEL EUSKARA Y LENGUAS MINORIZADAS. - LA FORMACIÓN EN LOS ÁMBITOS ESCOLARES, UNIVERSITARIOS Y DE FORMACIÓN CONTINUA. - PROGRAMAS DE INSERCIÓN LABORAL Y REINSERCIÓN SOCIAL. - DESARROLLO DE I+D, APLICADAS A LOS MEDIOS DE COMUNICACIÓN, ASÍ COMO A TODAS AQUELLAS DISCIPLINAS AFINES A LA SOCIEDAD. - LA INVESTIGACIÓN MEDIANTE METODOLOGÍAS CIENTÍFICAS EN PRO DE LA RECUPERACIÓN DE LAS FUENTES ESCRITAS Y ORALES ENEL CONTEXTO DE LA HISTORIA DE LA MEMORIA Y EL RECUERDO. - ASÍ COMO DE TODAS AQUELLAS OTRAS ACTUACIONES EN CONSONANCIA CON EL DESARROLLO DE LOS OBJETIVOS DE LA SCA. LA PROTECCIÓN Y CONSERVACIÓN DEL PATRIMONIO ARQUEOLÓGICO, ETNOGRÁFICO Y NATURAL, INCLUYENDO ENTRE OTROS: - LA CUSTODIA DEL TERRITORIO, SEA DE TITULARIDAD PÚBLICA O PRIVADA DE CARA A LA PROTECCIÓN DE LA BIODIVERSIDAD. - LA COOPERACIÓN INTERNACIONAL EN MATERIAS DE MEDIO AMBIENTE, PATRIMONIO CULTURAL Y HUMANO. - EL DESARROLLO DEL MEDIO RURAL EN EQUILIBRIO CON LA SOSTENIBILIDAD DEL TERRITORIO, Y LA CONSERVACIÓN DE LA BIODIVERSIDAD. - LA REHABILITACIÓN Y RESTAURACIÓN DEL PATRIMONIO CULTURAL. - ASI COMO DE TODAS AQUELLAS OTRAS ACTUACIONES EN CONSONANCIA CON EL DESARROLLO DE LOS OBJETIVOS DE LA SCA",
      "mainEntityOfPage": "https://www.contratacion.euskadi.eus/webkpe00-kperoc/es/ac71aBusquedaRegistrosWar/empresa/07261",
      "_links": {
        "self": {
          "name": "SOCIEDAD DE CIENCIAS ARANZADI ZIENTZIA ELKARTEA",
          "href": "https://api.euskadi.eus/procurements/companies/07261"
        }
      }
    },
    {
      "name": "MCR INTERNATIONAL EXECUTIVE SEARCH CONSULTING, S.L.",
      "registrationNumber": "10098",
      "identificationNumber": "B82272535",
      "address": "RAIMUNDO FERNANDEZ VILLAVERDE 45, 7A",
      "location": {
        "postalCode": "28003",
        "municipality": "Madrid",
        "county": "Madrid",
        "municipalityId": "079",
        "countyId": "28"
      },
      "economicActivities": [
        {
          "id": "1.849.6",
          "name": "Servicios de colocación y suministro de personal",
          "_links": {
            "self": {
              "name": "Servicios de colocación y suministro de personal",
              "href": "https://api.euskadi.eus/procurements/companies/economic-activities/1.849.6"
            }
          }
        }
      ],
      "certificateStartDate": "2025-03-20",
      "certificateEndDate": "2025-09-20",
      "object": "PRESTACIÓN DE SERVICIOS DE ASESORAMIENTO Y CONSULTORÍA, EN EL ÁMBITO DE LOS RECURSOS HUMANOS, INCLUIDA LA SELECCIÓN Y CONTRATACIÓN DE PERSONAL.",
      "mainEntityOfPage": "https://www.contratacion.euskadi.eus/webkpe00-kperoc/es/ac71aBusquedaRegistrosWar/empresa/10098",
      "_links": {
        "self": {
          "name": "MCR INTERNATIONAL EXECUTIVE SEARCH CONSULTING, S.L.",
          "href": "https://api.euskadi.eus/procurements/companies/10098"
        }
      }
    },
    {
      "name": "KNOW MEDIA, S.L.",
      "registrationNumber": "09836",
      "identificationNumber": "B83700765",
      "address": "CL ENEBRO, 1",
      "location": {
        "postalCode": "28023",
        "municipality": "Madrid",
        "county": "Madrid",
        "municipalityId": "079",
        "countyId": "28"
      },
      "economicActivities": [
        {
          "id": "1.844",
          "name": "Servicios de publicidad, relaciones públicas y similares",
          "_links": {
            "self": {
              "name": "Servicios de publicidad, relaciones públicas y similares",
              "href": "https://api.euskadi.eus/procurements/companies/economic-activities/1.844"
            }
          }
        },
        {
          "id": "1.846",
          "name": "Empresas de estudios de mercado",
          "_links": {
            "self": {
              "name": "Empresas de estudios de mercado",
              "href": "https://api.euskadi.eus/procurements/companies/economic-activities/1.846"
            }
          }
        },
        {
          "id": "1.849.9",
          "name": "Otros servicios independientes n.c.o.p",
          "_links": {
            "self": {
              "name": "Otros servicios independientes n.c.o.p",
              "href": "https://api.euskadi.eus/procurements/companies/economic-activities/1.849.9"
            }
          }
        }
      ],
      "certificateStartDate": "2025-03-19",
      "certificateEndDate": "2025-09-19",
      "object": "1) AGENCIA DE COMUNICACIÓN, PUBLICIDAD Y RELACIONES PÚBLICAS EN TODA CLASE DE MEDIOS DE COMUNICACIÓN (TELEVISIÓN, PRENSA, REVISTAS, PUBLICIDAD EXTERIOR, SOPORTES, IMPRESOS, RADIO Y CINE). 2) REALIZACIÓN DE TODO TIPO DE ACTIVIDADES Y PRESTACIONES DE SERVICIOS PROFESIONALES RELACIONADOS PRINCIPALMENTE CON LA COMUNICACIÓN Y LA INFORMACIÓN. 3) LA REPRESENTACIÓN, FORMACIÓN, ASESORÍA, ORGANIZACIÓN, CONSULTING Y DIRECCIÓN DE SERVICIOS PROFESIONALES Y EN ESPECIAL A TODO LO REFERENTE A LOS SERVICIOS RADIOFÓNICOS; ASÍ COMO TODO TIPO DE ACTIVIDADES RELACIONADAS CON LA PRODUCCIÓN DE PROGRAMAS AUDIOVISUALES Y ORGANIZACIÓN DE EVENTOS, CONCIERTOS, ETC. 4) LA PRESTACIÓN DE TODA CLASE DE SERVICIOS DE PROPAGANDA, MARKETING Y COMERCIALIZACIÓN. 5) ESTUDIOS DE MERCADO Y ANÁLISIS SOCIOLÓGICOS Y DE COMPORTAMIENTO, ENCUESTAS, ESTADÍSTICAS Y CONSUMOS.",
      "mainEntityOfPage": "https://www.contratacion.euskadi.eus/webkpe00-kperoc/es/ac71aBusquedaRegistrosWar/empresa/09836",
      "_links": {
        "self": {
          "name": "KNOW MEDIA, S.L.",
          "href": "https://api.euskadi.eus/procurements/companies/09836"
        }
      }
    },
    {
      "name": "ECHEVARRI TURISMOS, S.A.",
      "registrationNumber": "05325",
      "identificationNumber": "A48128938",
      "address": "IBAIZABAL 75",
      "location": {
        "postalCode": "48960",
        "municipality": "Galdakao",
        "county": "Bizkaia",
        "municipalityId": "036",
        "countyId": "48"
      },
      "economicActivities": [
        {
          "id": "1.654.1",
          "name": "Venta al por menor de vehículos terrestres",
          "_links": {
            "self": {
              "name": "Venta al por menor de vehículos terrestres",
              "href": "https://api.euskadi.eus/procurements/companies/economic-activities/1.654.1"
            }
          }
        },
        {
          "id": "1.691.2",
          "name": "Reparación de vehículos automóviles, bicicletas y otros vehículos",
          "_links": {
            "self": {
              "name": "Reparación de vehículos automóviles, bicicletas y otros vehículos",
              "href": "https://api.euskadi.eus/procurements/companies/economic-activities/1.691.2"
            }
          }
        },
        {
          "id": "1.854.1",
          "name": "Alquiler de automóviles sin conductor",
          "_links": {
            "self": {
              "name": "Alquiler de automóviles sin conductor",
              "href": "https://api.euskadi.eus/procurements/companies/economic-activities/1.854.1"
            }
          }
        }
      ],
      "certificateStartDate": "2025-03-19",
      "certificateEndDate": "2025-09-17",
      "object": "LA COMPRAVENTA; COMISIONES ACTIVAS Y PASIVAS DE MAQUINARIA Y VEHÍCULOS MECÁNICOS, NUEVOS O USADOS, ACCESORIOS Y RECAMBIOS, LA REPARACIÓN Y SU REFORMA EN TALLERES PROPIOS Y AJENOS.",
      "mainEntityOfPage": "https://www.contratacion.euskadi.eus/webkpe00-kperoc/es/ac71aBusquedaRegistrosWar/empresa/05325",
      "_links": {
        "self": {
          "name": "ECHEVARRI TURISMOS, S.A.",
          "href": "https://api.euskadi.eus/procurements/companies/05325"
        }
      }
    }
  ]
}