{
  "totalItems": 9042,
  "totalPages": 905,
  "currentPage": 880,
  "itemsOfPage": 10,
  "items": [
    {
      "name": "IURRETA MOTOR SPORT, S.L.",
      "registrationNumber": "05365",
      "identificationNumber": "B95692372",
      "address": "POLÍGONO DE ERTZILLA, PARCELA 5, PABELLÓN 9",
      "location": {
        "postalCode": "48215",
        "municipality": "Iurreta",
        "county": "Bizkaia",
        "municipalityId": "910",
        "countyId": "48"
      },
      "object": "REPARACIÓN DE VEHÍCULOS AUTOMÓVILES, BICICLETAS Y OTROS VEHÍCULOS",
      "mainEntityOfPage": "https://www.contratacion.euskadi.eus/webkpe00-kperoc/es/ac71aBusquedaRegistrosWar/empresa/05365",
      "_links": {
        "self": {
          "name": "IURRETA MOTOR SPORT, S.L.",
          "href": "https://api.euskadi.eus/procurements/companies/05365"
        }
      }
    },
    {
      "name": "BIGAR, S.L.",
      "registrationNumber": "05376",
      "identificationNumber": "B75086108",
      "address": "Poligono Ibaiondo nº 9",
      "location": {
        "postalCode": "20150",
        "municipality": "Aduna",
        "county": "Gipuzkoa",
        "municipalityId": "002",
        "countyId": "20"
      },
      "object": "Mantenimiento e Instalaciones Electricas",
      "mainEntityOfPage": "https://www.contratacion.euskadi.eus/webkpe00-kperoc/es/ac71aBusquedaRegistrosWar/empresa/05376",
      "_links": {
        "self": {
          "name": "BIGAR, S.L.",
          "href": "https://api.euskadi.eus/procurements/companies/05376"
        }
      }
    },
    {
      "name": "OCECON XXI, S.A.",
      "registrationNumber": "05391",
      "identificationNumber": "A95796918",
      "address": "Barrio Mendiondo, 17-A izq",
      "location": {
        "postalCode": "48111",
        "municipality": "Laukiz",
        "county": "Bizkaia",
        "municipalityId": "053",
        "countyId": "48"
      },
      "economicActivities": [
        {
          "id": "1.501.1",
          "name": "Construcción completa, reparación y conservación de edificaciones",
          "_links": {
            "self": {
              "name": "Construcción completa, reparación y conservación de edificaciones",
              "href": "https://api.euskadi.eus/procurements/companies/economic-activities/1.501.1"
            }
          }
        }
      ],
      "object": "La adquisición, enajenación, arrendamiento, explotación, parcelación y urbanización de toda clase de fincas rústicas, urbanas y solares. La construcción de toda clase de viviendas, oficinas, locales de negocio, naves o instalaciones industriales o deportivas, garajes, parkings, etc.. por cuenta propia o ajena, para su uso propio o para vender o arrendar con protección oficial o sin ella, la ejecución de obras civiles. \r\nAsímismo, podrá desarrollar las siguientes actividades:\r\nLa construcción de puentes, viaductos y grandes estructuras qeu podrán ser de fábrica, de hormigón en masa, de hormigón pretensado, metálicos o de madera, los desmontes y vaciados, las explanaciones, las canteras, los pozos y galerías y los túneles.\r\nLas demoliciones, las estructuras de fábrica, hormigón, metálicas o las de madera, la albañilería, los revocos y revestidos, la cantería y los mármoles, los pavimentos, solados y alicatados, los aislamientos y las impermeabilizaciones, la carpintería tanto de madera como la metálica\r\nLas obras de abastecimiento y saneamiento, las presas, los canales, las acequias y desagües, las defensas de márgenes y encauzamientos, las conducciones de tubería de presión en gran diámetro, resto de obras hidráulicas sin cualificación específica.\r\netc....",
      "mainEntityOfPage": "https://www.contratacion.euskadi.eus/webkpe00-kperoc/es/ac71aBusquedaRegistrosWar/empresa/05391",
      "_links": {
        "self": {
          "name": "OCECON XXI, S.A.",
          "href": "https://api.euskadi.eus/procurements/companies/05391"
        }
      }
    },
    {
      "name": "JOSE MARIA VIDAL CALLEJO",
      "registrationNumber": "05395",
      "identificationNumber": "29036252V",
      "address": "ARRATIA IBARRA, 2- 6ºB",
      "location": {
        "postalCode": "48970",
        "municipality": "Basauri",
        "county": "Bizkaia",
        "municipalityId": "015",
        "countyId": "48"
      },
      "object": "TRANSPORTE POR AUTOTAXIS ",
      "mainEntityOfPage": "https://www.contratacion.euskadi.eus/webkpe00-kperoc/es/ac71aBusquedaRegistrosWar/empresa/05395",
      "_links": {
        "self": {
          "name": "JOSE MARIA VIDAL CALLEJO",
          "href": "https://api.euskadi.eus/procurements/companies/05395"
        }
      }
    },
    {
      "name": "ALBERTO LOPEZ PEREDA",
      "registrationNumber": "05397",
      "identificationNumber": "14588947R",
      "address": "Asturias, 18 1º B",
      "location": {
        "postalCode": "48970",
        "municipality": "Basauri",
        "county": "Bizkaia",
        "municipalityId": "015",
        "countyId": "48"
      },
      "object": "TRANSPORTE POR CARRETERA",
      "mainEntityOfPage": "https://www.contratacion.euskadi.eus/webkpe00-kperoc/es/ac71aBusquedaRegistrosWar/empresa/05397",
      "_links": {
        "self": {
          "name": "ALBERTO LOPEZ PEREDA",
          "href": "https://api.euskadi.eus/procurements/companies/05397"
        }
      }
    },
    {
      "name": "PREMIATSU S.L.",
      "registrationNumber": "05399",
      "identificationNumber": "B95345153",
      "address": "FERRERIAS, 40 bajo",
      "location": {
        "postalCode": "48901",
        "municipality": "Barakaldo",
        "county": "Bizkaia",
        "municipalityId": "013",
        "countyId": "48"
      },
      "object": "Información en los accesos,  custodia y comprobación de instalaciones realizadas en edificios y/o empresas tanto públicas como privadas. por auxiliares de servicio, porteros, conserjes y personal análogo. Control de tránsito en zonas reservadas o de circulación restringida en el interior de fábrica, plantas de producción ... Tareas de recepción, comprobación de visitas yorientación de los mismos ... Vigilancia mediante vigilantes de seguridad integral de empresas y/o particulares, incluyendo los estudios de seguridad en locales, plantas de producción, seguridad de directivos ... Compraventa, permuta, administración, gestión y explotación bien directamente o en arrendamiento(...)Promoción, parcelación, reparcelación, planificación, construcción y edificación, por si misma o a través de terceros, tanto en suelo rústico como urbano, llevando a efecto urbanizaciones, sus instalaciones, adecuaciones al medio ambiente,  zonas deportivas, comerciales y de servicios. Realización de negocios y actividades relacionadas con los gremios de hosteleria y hostería en general (...) Tomar parte en negocios de otras sociedades cuyo objeto esté relacionado con las actividades descritas en los apartados anteriores y todo ello mediante la compra de acciones o participaciones, suscripción de obligaciones y ampliación de capital. Prestación de servicios profesionales a través de otras empresas colaboradoras o mediante su própio personal de limpieza de edificios, despachos, oficinas (...) Las actividades enumeradas podrán también ser desarroladas por la Sociedad total o parcialmente, de modo indirecto, mediante la participación en otras sociedades con objeto análogo. Tales actividades podrán ser realizadas por la Sociedad, total o parcialmente, de modo indirecto, mediante la titularidad de acciones o participaciones en sociedades de objeto análogo o identico.",
      "mainEntityOfPage": "https://www.contratacion.euskadi.eus/webkpe00-kperoc/es/ac71aBusquedaRegistrosWar/empresa/05399",
      "_links": {
        "self": {
          "name": "PREMIATSU S.L.",
          "href": "https://api.euskadi.eus/procurements/companies/05399"
        }
      }
    },
    {
      "name": "AUTOS MUGARRA, S.L.",
      "registrationNumber": "05401",
      "identificationNumber": "B48425284",
      "address": "MIKELDI,13 BAJO",
      "location": {
        "postalCode": "48200",
        "municipality": "Durango",
        "county": "Bizkaia",
        "municipalityId": "027",
        "countyId": "48"
      },
      "object": "LA COMPRAVENTA DE VEHÍCULOS, REPRESENTACIÓNY CONCESIÓN DE REPRESENTACIÓN DE MARCAS COMERCIALES DE VEHÍCULOS AUTOMOTORES; EL MANTENIMIENTO Y REPARACIÓN DE VEHÍCULOS AUTOMOTORES; EL ALQUILER DE VEHÍCULOS AUTOMOTORES.",
      "mainEntityOfPage": "https://www.contratacion.euskadi.eus/webkpe00-kperoc/es/ac71aBusquedaRegistrosWar/empresa/05401",
      "_links": {
        "self": {
          "name": "AUTOS MUGARRA, S.L.",
          "href": "https://api.euskadi.eus/procurements/companies/05401"
        }
      }
    },
    {
      "name": "AGIN LORAZAINTZA SL",
      "registrationNumber": "05428",
      "identificationNumber": "B75130955",
      "address": "Izpira Berri, 26",
      "location": {
        "postalCode": "20170",
        "municipality": "Usurbil",
        "county": "Gipuzkoa",
        "municipalityId": "073",
        "countyId": "20"
      },
      "object": "El diseño, plantación y mantenimiento e jardines, parques y vías pública, poda de árboles y plantas, preparación de tierras, riego, instalación de viveros y su mantenimiento, viveros y plantas alpinas.",
      "mainEntityOfPage": "https://www.contratacion.euskadi.eus/webkpe00-kperoc/es/ac71aBusquedaRegistrosWar/empresa/05428",
      "_links": {
        "self": {
          "name": "AGIN LORAZAINTZA SL",
          "href": "https://api.euskadi.eus/procurements/companies/05428"
        }
      }
    },
    {
      "name": "DISEÑO E IMAGEN OMA 3 S.L.",
      "registrationNumber": "05443",
      "identificationNumber": "B95010070",
      "address": "ELKARTEGI BOROA, OFICINA 17, POL. IND. BOROA, Nº19",
      "location": {
        "postalCode": "48340",
        "municipality": "Amorebieta-Etxano",
        "county": "Bizkaia",
        "municipalityId": "003",
        "countyId": "48"
      },
      "object": "DISEÑO GRÁFICO E IMAGEN",
      "mainEntityOfPage": "https://www.contratacion.euskadi.eus/webkpe00-kperoc/es/ac71aBusquedaRegistrosWar/empresa/05443",
      "_links": {
        "self": {
          "name": "DISEÑO E IMAGEN OMA 3 S.L.",
          "href": "https://api.euskadi.eus/procurements/companies/05443"
        }
      }
    },
    {
      "name": "ALDAIA CONSTRUYE, S.L.U.",
      "registrationNumber": "05456",
      "identificationNumber": "B01515295",
      "address": "Barratxi, 41 - Pabellón 5",
      "location": {
        "postalCode": "01013",
        "municipality": "Vitoria-Gasteiz",
        "county": "Araba/Álava",
        "municipalityId": "059",
        "countyId": "01"
      },
      "object": "Promoción, construcción, reparación, rehabilitación, demolición y derribo por cuenta propia o ajena, de toda clase de edificaciones y obras civiles, tanto públicas como privadas;  la consolidación y preparación de terrenos, así como la realización de todo tipo de trabajos de albañilería y la coordinación de gremios.",
      "mainEntityOfPage": "https://www.contratacion.euskadi.eus/webkpe00-kperoc/es/ac71aBusquedaRegistrosWar/empresa/05456",
      "_links": {
        "self": {
          "name": "ALDAIA CONSTRUYE, S.L.U.",
          "href": "https://api.euskadi.eus/procurements/companies/05456"
        }
      }
    }
  ]
}