{
  "totalItems": 9042,
  "totalPages": 905,
  "currentPage": 47,
  "itemsOfPage": 10,
  "items": [
    {
      "name": "FEGEMU AUTOMATISMOS, S.L.",
      "registrationNumber": "07847",
      "identificationNumber": "B75017434",
      "address": "C/ ZUATZU 2 LOCALES 4,6,12 Y 13",
      "location": {
        "postalCode": "20018",
        "municipality": "Donostia / San Sebastián",
        "county": "Gipuzkoa",
        "municipalityId": "069",
        "countyId": "20"
      },
      "economicActivities": [
        {
          "id": "1.617.9",
          "name": "Venta al por mayor interindustrial de otros productos n.c.o.p",
          "_links": {
            "self": {
              "name": "Venta al por mayor interindustrial de otros productos n.c.o.p",
              "href": "https://api.euskadi.eus/procurements/companies/economic-activities/1.617.9"
            }
          }
        }
      ],
      "certificateStartDate": "2026-01-27",
      "certificateEndDate": "2026-07-18",
      "object": "COMERCIALIZACIÓN, COMPRA Y VENTA AL MAYOR Y MENOR DE TODA CLASE DE PIEZAS, HERRAMIENTAS, MAQUINARIA, ETC. ",
      "mainEntityOfPage": "https://www.contratacion.euskadi.eus/webkpe00-kperoc/es/ac71aBusquedaRegistrosWar/empresa/07847",
      "_links": {
        "self": {
          "name": "FEGEMU AUTOMATISMOS, S.L.",
          "href": "https://api.euskadi.eus/procurements/companies/07847"
        }
      }
    },
    {
      "name": "EKOLAN OBRAS Y SERVICIOS, S.L.",
      "registrationNumber": "03790",
      "identificationNumber": "B20668786",
      "address": "EDIFICIO IRUBIDE. OFICINA Nº 48-Bº REKALDE",
      "location": {
        "postalCode": "20160",
        "municipality": "Donostia / San Sebastián",
        "county": "Gipuzkoa",
        "municipalityId": "069",
        "countyId": "20"
      },
      "economicActivities": [
        {
          "id": "1.501.1",
          "name": "Construcción completa, reparación y conservación de edificaciones",
          "_links": {
            "self": {
              "name": "Construcción completa, reparación y conservación de edificaciones",
              "href": "https://api.euskadi.eus/procurements/companies/economic-activities/1.501.1"
            }
          }
        },
        {
          "id": "1.722",
          "name": "Transporte de mercancías por carretera",
          "_links": {
            "self": {
              "name": "Transporte de mercancías por carretera",
              "href": "https://api.euskadi.eus/procurements/companies/economic-activities/1.722"
            }
          }
        }
      ],
      "certificateStartDate": "2026-01-27",
      "certificateEndDate": "2026-07-18",
      "object": "- EL NEGOCIO DE LA CONSTRUCCIÓN DE OBRAS PÚBLICAS Y PRIVADAS MEDIANTE CONTRATA CON LA ADMINISTRACIÓN DEL ESTADO, COMUNIDAD AUTÓNOMA, TERRITORIO HISTÓRICO, MUNICIPIO, ORGANISMOS PÚBLICOS, ENTIDADES PRIVADAS Y PARTICULARES.\r\n- LA PROMOCIÓN DE OBRA PROPIA, MEDIANTE EJECUCIÓN DIRECTA O MEDIANTE CONTRATA, EN CUALQUIERA DE SUS MODALIDADES, PARA SU VENTA, ARRENDAMIENTO U OTRA FORMA DE EXPLOTACIÓN, O PARA APROVECHAMIENTO DIRECTO.\r\n- EL TRANSPORTE PÚBLICO DE MERCANCIAS POR CARRETERA.\r\n- Y CUANTAS ACTIVIDADES SEAN COMPLEMENTARIAS O CONEXAS CON EL OBJETO PRINCIPAL",
      "mainEntityOfPage": "https://www.contratacion.euskadi.eus/webkpe00-kperoc/es/ac71aBusquedaRegistrosWar/empresa/03790",
      "_links": {
        "self": {
          "name": "EKOLAN OBRAS Y SERVICIOS, S.L.",
          "href": "https://api.euskadi.eus/procurements/companies/03790"
        }
      }
    },
    {
      "name": "DATUA IA, S. A.",
      "registrationNumber": "09262",
      "identificationNumber": "A67965657",
      "address": "C/ Gran Vía Don Diego López de Haro, Nº 17 - 7ª Planta",
      "location": {
        "postalCode": "48001",
        "municipality": "Bilbao",
        "county": "Bizkaia",
        "municipalityId": "020",
        "countyId": "48"
      },
      "economicActivities": [
        {
          "id": "1.845",
          "name": "Explotación electrónica por cuenta de terceros",
          "_links": {
            "self": {
              "name": "Explotación electrónica por cuenta de terceros",
              "href": "https://api.euskadi.eus/procurements/companies/economic-activities/1.845"
            }
          }
        }
      ],
      "certificateStartDate": "2026-01-27",
      "certificateEndDate": "2026-07-18",
      "object": "LA EJECUCIÓN DE PROYECTOS DE CONSULTORÍA RELACIONADOS CON LA CADENA DE VALOR DEL DATO INCLUYENDO DE FORMA ENUNCIATIVA Y NO LIMITATIVA: ESTRATEGIA DEL DATO, GOBERNANZA DEL DATO, ADMINISTRACIÓN Y GESTIÓN DE DATOS Y PLATAFORMAS BIG DATA, SERVICIOS DE ARQUITECTURA E INGENIERÍA DELDATO, CIENCIA Y ALGORITMIA DEL DATO (INCLUYENDO INTELIGENCIA ARTIFICIAL Y TODAS SUS DERIVADAS), ANALÍTICA DEL DATO, INTELIGENCIA DE NEGOCIO, ESTRATEGIAS &quot;DATA DRIVEN&quot; Y EN GENERAL TODA LO RELATIVO A LA NUEVA INDUSTRIA DEL DATO. ASIMISMO, LA SOCIEDAD TENDRÁ COMO OBJETO SOCIAL EL DESARROLLO, DISTRIBUCIÓN Y EXPLOTACIÓN DE SOLUCIONES COMO SERVICIO EN INTELIGENCIA ARTIFICIAL ASÍ COMO, EL DESARROLLO, ADMINISTRACIÓN Y COMERCIALIZACIÓN DIRECTA, INDIRECTA Y COMO SERVICIO DE PLATAFORMAS BIG DATA O DE ADMINISTRACIÓN DE ECOSISTEMAS DEL DATO (PAAS). ",
      "mainEntityOfPage": "https://www.contratacion.euskadi.eus/webkpe00-kperoc/es/ac71aBusquedaRegistrosWar/empresa/09262",
      "_links": {
        "self": {
          "name": "DATUA IA, S. A.",
          "href": "https://api.euskadi.eus/procurements/companies/09262"
        }
      }
    },
    {
      "name": "AVINCIS AVIATION IBERIA, S.L.",
      "registrationNumber": "10007",
      "identificationNumber": "B79223624",
      "address": "La Almania 92",
      "location": {
        "postalCode": "03110",
        "municipality": "Mutxamel",
        "county": "Alicante/Alacant",
        "municipalityId": "090",
        "countyId": "03"
      },
      "economicActivities": [
        {
          "id": "1.742.1",
          "name": "Transporte aéreo nacional de viajeros (servicios no regulares)",
          "_links": {
            "self": {
              "name": "Transporte aéreo nacional de viajeros (servicios no regulares)",
              "href": "https://api.euskadi.eus/procurements/companies/economic-activities/1.742.1"
            }
          }
        },
        {
          "id": "1.912",
          "name": "Servicios forestales",
          "_links": {
            "self": {
              "name": "Servicios forestales",
              "href": "https://api.euskadi.eus/procurements/companies/economic-activities/1.912"
            }
          }
        }
      ],
      "certificateStartDate": "2026-01-27",
      "certificateEndDate": "2026-07-04",
      "object": "A) LA ADQUISICIÓN, ARRENDAMIENTO, FLETAMENTO, CESIÓN POR CUALQUIER TÍTULO, VENTA Y EXPLOTACIÓN DE TODO TIPO DE AERONAVES. B) LA REALIZACIÓN DE TRABAJOS AÉREOS TALES COMO EL TRANSPORTE CON AERONAVES DE PERSONAS Y MERCANCÍA, FUMIGACIÓN, ABONOS, FOTOGRAFÍA, PUBLICIDAD, SALVAMENTOS, APLICACIONES AGRÍCOLAS Y OTRAS ACTIVIDADES RELACIONADAS CON EL TRANSPORTE Y TRÁFICO AÉREOS, ASÍ COMO TODA CLASE DE TRABAJOS EN TIERRA QUE TENGAN RELACIÓN O SEAN COMPLEMENTARIOS CON LOS ANTERIORES. C) LA REPARACIÓN, MANTENIMIENTO Y ASISTENCIA TÉCNICA DE AERONAVES, ASÍ COMO DE SUS EQUIPOS Y ACCESORIOS, LA ATENCIÓN DE PASAJEROS Y MERCANCÍAS EN LOS AEROPUERTOS, LA MANIPULACIÓN DE MERCANCÍAS, ALMACENAMIENTO Y CONSIGNACIÓN EN LOS AEROPUERTOS, TERMINALES DE AERONAVES Y EN DIFERENTES LUGARES DE TIERRA. EL ASESORAMIENTO TÉCNICO, COMERCIAL Y ECONÓMICO Y REDACCIÓN DE PROYECTOS EN MATERIA AERONÁUTICA. D) LA EXPLOTACIÓN COMERCIAL DE HELIPUERTOS, AERÓDROMOS O AEROPUERTOS CON TODAS SUS INSTALACIONES E INFRAESTRUCTURA, PRINCIPALES Y ACCESORIAS. E) LA REALIZACIÓN DE OTRAS ACTIVIDADES DE SERVICIOS ANEJAS, AFINES O COMPLEMENTARIAS A LA ACTIVIDAD PRINCIPAL, SIN LIMITACIÓN, ASÍ COMO OPERACIONES COMERCIALES, INDUSTRIALES, QUE SE REFIERAN DIRECTA O INDIRECTAMENTE AL OBJETO ANTES MENCIONADO. F) LA PARTICIPACIÓN EN OTRAS SOCIEDADES DE IDÉNTICO O ANÁLOGO OBJETO, PARA EL DESARROLLO DEL PROPIO DE ESTA SOCIEDAD, MEDIANTE LA SUSCRIPCIÓN DE ACCIONES O PARTICIPACIONES EN LA FUNDACIÓN O AUMENTO DE CAPITAL DE LAS MISMAS O LA ADQUISICIÓN DE ELLAS POR CUALQUIER TÍTULO.",
      "mainEntityOfPage": "https://www.contratacion.euskadi.eus/webkpe00-kperoc/es/ac71aBusquedaRegistrosWar/empresa/10007",
      "_links": {
        "self": {
          "name": "AVINCIS AVIATION IBERIA, S.L.",
          "href": "https://api.euskadi.eus/procurements/companies/10007"
        }
      }
    },
    {
      "name": "SERVIFILMS EL CINE DONDE QUIERAS, S.L.",
      "registrationNumber": "07509",
      "identificationNumber": "B95801353",
      "address": "Calle Lizarre 8 3C",
      "location": {
        "postalCode": "48600",
        "municipality": "Sopela",
        "county": "Bizkaia",
        "municipalityId": "085",
        "countyId": "48"
      },
      "economicActivities": [
        {
          "id": "1.653.2",
          "name": "Venta al por menor de material y aparatos eléctricos, electrodomésticos y cocina",
          "_links": {
            "self": {
              "name": "Venta al por menor de material y aparatos eléctricos, electrodomésticos y cocina",
              "href": "https://api.euskadi.eus/procurements/companies/economic-activities/1.653.2"
            }
          }
        },
        {
          "id": "1.962.1",
          "name": "Distribución y venta de películas",
          "_links": {
            "self": {
              "name": "Distribución y venta de películas",
              "href": "https://api.euskadi.eus/procurements/companies/economic-activities/1.962.1"
            }
          }
        },
        {
          "id": "1.963.2",
          "name": "Exhibición de películas y vídeos y vídeos al aire libre",
          "_links": {
            "self": {
              "name": "Exhibición de películas y vídeos y vídeos al aire libre",
              "href": "https://api.euskadi.eus/procurements/companies/economic-activities/1.963.2"
            }
          }
        },
        {
          "id": "1.963.3",
          "name": "Exhibición de películas y vídeos fuera de establecimiento permanente",
          "_links": {
            "self": {
              "name": "Exhibición de películas y vídeos fuera de establecimiento permanente",
              "href": "https://api.euskadi.eus/procurements/companies/economic-activities/1.963.3"
            }
          }
        },
        {
          "id": "1.963.4",
          "name": "Exhibición de películas en establecimientos no especificados anteriormente",
          "_links": {
            "self": {
              "name": "Exhibición de películas en establecimientos no especificados anteriormente",
              "href": "https://api.euskadi.eus/procurements/companies/economic-activities/1.963.4"
            }
          }
        },
        {
          "id": "3.019",
          "name": "Otras actividades relacionadas con el cine, el teatro y el circo",
          "_links": {
            "self": {
              "name": "Otras actividades relacionadas con el cine, el teatro y el circo",
              "href": "https://api.euskadi.eus/procurements/companies/economic-activities/3.019"
            }
          }
        }
      ],
      "certificateStartDate": "2026-01-27",
      "certificateEndDate": "2026-07-11",
      "object": "1. PROYECCIONES DE CINE AL AIRE LIBRE O EN INTERIORES, CON EQUIPOS PARA PROYECTAR EN CUALQUIER FORMATO DE CINE PROFESIONAL O VIDEO-DIGITAL, CON FINES NO COMERCIALES O COMERCIALES. LOS EQUIPOS SE OFERTAN EN MODO ALQUILER EN ESTOS SERVICIOS. EQUIPOS TODO TIPO DE PROYECTORES DE CINE Y VIDEO, EQUIPOS DE AUDIO (ETAPAS DE POTENCIA, AMPLIFICADORES, MESA DE MEZCLAS, PANTALLAS DE SONIDO, ETC.), PANTALLAS DE CINE, ETC., ASÍ COMO TODOS LOS ACCESORIOS, REPUESTOS Y CONSUMIBLES NECESARIOS PARA SU USO. 2. OFERTAR SERVICIOS DE TÉCNICOS PROYECCIONISTAS, REALIZADO POR EL PERSONAL ADMINISTRATIVO DE LA EMPRESA O PERSONAL CONTRATADO. FORMACIÓN DE NUEVOS TÉCNICOS. 3. VENTA O ALQUILER DE OBRAS AUDIOVISUALES EN CUALQUIER FORMATO, CINE O VIDEO-DIGITAL. LA VENTA PUEDE SER DIRECTA O MEDIANTE PLATAFORMAS DE INTERNET. 4. GESTIÓN DE LICENCIAS DE EXHIBICIÓN PÚBLICA PARA TODO TIPO DE OBRAS AUDIOVISUALES (LARGOMETRAJES, CORTOMETRAJES, DOCUMENTALES, VIDEOS DE KARAOKE, ETC.), EN CUALQUIER FORMATO, CINE O VIDEO-DIGITAL, E IDIOMA. 5. PROGRAMACIÓN DE LOS TÍTULOS FÍLMICOS A EXHIBIR Y OBTENCIÓN DE LOS DERECHOS DE EXHIBICIÓN PARA LAS CARTELERAS DE LOCALES MUNICIPALES SIN ÁNIMO DE LUCRO Y TAMBIÉN PARA SALAS COMERCIALES. 5. DISTRIBUCIÓN Y PRODUCCIÓN DE OBRAS AUDIOVISUALES. 6. IMPARTICIÓN DE TALLERES (CINE, FÓRUMS CON FINES EDUCATIVOS, DE CONCIENCIACIÓN E INNOVACIÓN). SE INCLUYEN AQUÍ TODO TIPO DE TALLERES, CURSOS, EN RELACIÓN A LA CREACIÓN, EXHIBICIÓN Y PROYECCIÓN DE OBRAS AUDIOVISUALES, ASÍ COMO LA ELABORACIÓN Y VENTA DE MATERIAL DIDÁCTICO PARA LLEVAR A CABO ESTA ACTIVIDAD. 7. COMPRA Y VENTA DEL EQUIPAMIENTO DE SONIDO E IMAGEN Y TODO TIPO DE MOBILIARIO NECESARIO PARA EQUIPAR UN CINE, UNA SALA DE REUNIONES, LOCAL, SALÓN, ETC. ASÍ COMO LA COMPRA, ALQUILER Y TRANSPORTE DE TODO TIPO DE EQUIPOS, MATERIAL AUDIOVISUAL Y OTRO TIPO DE MATERIAL RELACIONADO CON LOS SERVICIOS QUE PRESTA LA EMPRESA. 8. COMPRA O ALQUILER DE LOCALES, OFICINAS, ALMACENES O GARAJES, CON EL FIN DE REALIZAR LAS GESTIONES DEL NEGOCIO, ALMACENAR LOS EQUIPOS DE LA EMPRESA O DE REALIZAR ALGÚN EVENTO",
      "mainEntityOfPage": "https://www.contratacion.euskadi.eus/webkpe00-kperoc/es/ac71aBusquedaRegistrosWar/empresa/07509",
      "_links": {
        "self": {
          "name": "SERVIFILMS EL CINE DONDE QUIERAS, S.L.",
          "href": "https://api.euskadi.eus/procurements/companies/07509"
        }
      }
    },
    {
      "name": "SOCIEDAD VASCA DE MINUSVALIDOS BIDAIDEAK, S.L.",
      "registrationNumber": "05155",
      "identificationNumber": "B95398939",
      "address": "LEHENDAKARI AGIRRE, 5 - 7",
      "location": {
        "postalCode": "48014",
        "municipality": "Bilbao",
        "county": "Bizkaia",
        "municipalityId": "020",
        "countyId": "48"
      },
      "economicActivities": [
        {
          "id": "1.721.3",
          "name": "Transporte de viajeros por carretera",
          "_links": {
            "self": {
              "name": "Transporte de viajeros por carretera",
              "href": "https://api.euskadi.eus/procurements/companies/economic-activities/1.721.3"
            }
          }
        }
      ],
      "certificateStartDate": "2026-01-27",
      "certificateEndDate": "2026-07-18",
      "object": "SERVICIOS DE TRANSPORTE DE VIAJEROS POR CARRETERA MEDIANTE DISTINTAS CLASES DE VEHÍCULOS ADAPTADOS A DISTINTAS DISCAPACIDADES FÍSICAS O DE CUALQUIER OTRO ORDEN DE LOS VIAJEROS. SERVICIOS DE TRANSPORTE DE VIAJEROS POR CARRETERA EN GENERAL. TRANSPORTE DE MERCANCÍAS POR CARRETERA. ESCUELA DE FORMACIÓN EN EL TRANSPORTE CON ESPECIAL ATENCIÓN AL TRASLADO Y CUIDADO DE LOS DISMINUIDOS FÍSICOS EN EL TRANSPORTE DE LOS MISMOS. SERVICIOS ASISTENCIALES A PERSONAS CON DISCAPACIDAD",
      "mainEntityOfPage": "https://www.contratacion.euskadi.eus/webkpe00-kperoc/es/ac71aBusquedaRegistrosWar/empresa/05155",
      "_links": {
        "self": {
          "name": "SOCIEDAD VASCA DE MINUSVALIDOS BIDAIDEAK, S.L.",
          "href": "https://api.euskadi.eus/procurements/companies/05155"
        }
      }
    },
    {
      "name": "EDP CLIENTES, S. A.",
      "registrationNumber": "07453",
      "identificationNumber": "A74472911",
      "address": "Plaza del Fresno, 2",
      "location": {
        "postalCode": "33007",
        "municipality": "Oviedo",
        "county": "Asturias",
        "municipalityId": "044",
        "countyId": "33"
      },
      "economicActivities": [
        {
          "id": "1.151.6",
          "name": "Comercialización de energía eléctrica",
          "_links": {
            "self": {
              "name": "Comercialización de energía eléctrica",
              "href": "https://api.euskadi.eus/procurements/companies/economic-activities/1.151.6"
            }
          }
        },
        {
          "id": "1.152.2",
          "name": "COMERCIALIZACION DE GAS",
          "_links": {
            "self": {
              "name": "COMERCIALIZACION DE GAS",
              "href": "https://api.euskadi.eus/procurements/companies/economic-activities/1.152.2"
            }
          }
        }
      ],
      "certificateStartDate": "2026-01-27",
      "certificateEndDate": "2026-07-12",
      "object": "LAS ACTIVIDADES DE COMERCIALIZACIÓN DE ELECTRICIDAD, AGUA E HIDROCARBUROS Y CUALESQUIERA OTRAS MATERIAS PRIMAS Y COMBUSTIBLES EN CUALQUIERA DE SUS ESTADOS, MEDIANTE COMPRA, VENTA, INTERMEDIACIÓN, AGENCIA O BAJO CUALQUIER OTRA MODALIDAD DE CONTRATACIÓN QUE PERMITA LA ADQUISICIÓN Y ENAJENACIÓN DE DICHAS ENERGÍAS POR CUENTA PROPIA O AJENA, BIEN SEA MEDIANTE SU PARTICIPACIÓN EN LOS MERCADOS ORGANIZADOS O MEDIANTE SU CONTRATACIÓN ENTRE PRODUCTORES O SUMINISTRADORES NACIONALES O EXTRANJEROS Y LOS DISTRIBUIDORES O CONSUMIDORES DE DICHAS ENERGÍAS, MATERIAS Y COMBUSTIBLES. LA SOCIEDAD PRESTARÁ Y DESARROLLARÁ TODA CLASE DE OBRAS, SERVICIOS Y ACTIVIDADES RELACIONADAS CON LAS OPERACIONES ANTERIORES, EFECTUANDO INFORMES TÉCNICOS, AUDITORÍAS ENERGÉTICAS, PROYECTOS RELACIONADOS CON DICHAS ACTIVIDADES Y SERVICIOS DE MANTENIMIENTO. ASIMISMO PODRÁ DESARROLLAR TODA CLASE DE ACTIVIDADES COMPLEMENTARIAS O ACCESORIAS DE LAS ANTERIORES QUE LE SEAN EXPRESAMENTE CONTRATADAS",
      "mainEntityOfPage": "https://www.contratacion.euskadi.eus/webkpe00-kperoc/es/ac71aBusquedaRegistrosWar/empresa/07453",
      "_links": {
        "self": {
          "name": "EDP CLIENTES, S. A.",
          "href": "https://api.euskadi.eus/procurements/companies/07453"
        }
      }
    },
    {
      "name": "EFFECTIA INNOVATION SOLUTIONS, S.L.",
      "registrationNumber": "08583",
      "identificationNumber": "B85706265",
      "address": "Pez Volador 14 1C",
      "location": {
        "postalCode": "28007",
        "municipality": "Madrid",
        "county": "Madrid",
        "municipalityId": "079",
        "countyId": "28"
      },
      "economicActivities": [
        {
          "id": "1.849.9",
          "name": "Otros servicios independientes n.c.o.p",
          "_links": {
            "self": {
              "name": "Otros servicios independientes n.c.o.p",
              "href": "https://api.euskadi.eus/procurements/companies/economic-activities/1.849.9"
            }
          }
        },
        {
          "id": "1.932.1",
          "name": "Enseñanza de formación y perfeccionamiento profesional no superior",
          "_links": {
            "self": {
              "name": "Enseñanza de formación y perfeccionamiento profesional no superior",
              "href": "https://api.euskadi.eus/procurements/companies/economic-activities/1.932.1"
            }
          }
        }
      ],
      "certificateStartDate": "2026-01-27",
      "certificateEndDate": "2026-07-18",
      "object": "SERVICIOS DE ASESORIA Y CONSULTORÍA A PERSONAS FÍSICAS Y/O JURÍDICAS Y ADMINISTRACIONES PÚBLICAS EN TEMAS RELACIONADOS CON DISEÑO, EVALUACIÓN DE POLÍTICAS, INNOVACIÓN, ESTRATEGIA, INFORMÁTICA Y NUEVAS TECNOLOGÍAS, INTERNET, COMUNICACIÓN. MARKETING EN TODOS LOS SECTORES DE LA ECONOMÍA DE LA UNIÓN EUROPEA Y LATINOAMÉRICA. AUDITORÍAS DE LA CALIDAD Y TÉCNICA. EVALUACIÓN DE PROYECTOS. ESTUDIOS Y ELABORACIÓN DE INFORMES, PROYECTOS Y DICTÁMENES DE MERCADO, ECONÓMICOS Y OCUPACIONALES. CENTRO DE DOCUMENTACIÓN. PROVEEDOR DE CONTENIDOS DE INTERNET Y OTROS MEDIOS. PROYECTOS DE INVESTIGACIÓN, DESARROLLO E INNOVACIÓN EN MEDIO AMBIENTE. TECNOLOGÍA, PROCESOS DE NEGOCIO, CIENCIAS DE LA SALUD, DESARROLLO DE SOFTWARE, ORGANIZACIÓN DE COOPERACIÓN Y DESARROLLO. CENTRO DE FORMACIÓN PARA DIRECTIVOS Y TÉCNICOS. ELABORACIÓN DE PLANES DE FORMACIÓN PARA INSTITUCIONES PRIVADAS Y PÚBLICAS. COMPRA, VENTA Y PARTICIPACIÓN EN LICITACIONES PÚBLICAS DE TODOS AQUELLOS PRODUCTOS, EQUIPAMIENTO Y SERVICIOS RELACIONADOS AL GIRO DEL NEGOCIO, COMO TAMBIÉN TODOS AQUELLOS ACTOS RELACIONADOS CON ESTE OBJETO SOCIAL Y EL COMERCIO EN GENERAL. LA ADQUISICIÓN, ENAJENACIÓN Y EXPLOTACIÓN (EXCEPTO LEASING) DE TODO TIPO DE INMUEBLES.",
      "mainEntityOfPage": "https://www.contratacion.euskadi.eus/webkpe00-kperoc/es/ac71aBusquedaRegistrosWar/empresa/08583",
      "_links": {
        "self": {
          "name": "EFFECTIA INNOVATION SOLUTIONS, S.L.",
          "href": "https://api.euskadi.eus/procurements/companies/08583"
        }
      }
    },
    {
      "name": "CANON MEDICAL SYSTEMS, S.A.",
      "registrationNumber": "00678",
      "identificationNumber": "A28206712",
      "address": "CAMINO DE LA ZARZUELA, 19",
      "location": {
        "postalCode": "28023",
        "municipality": "Madrid",
        "county": "Madrid",
        "municipalityId": "079",
        "countyId": "28"
      },
      "economicActivities": [
        {
          "id": "1.619.2",
          "name": "Venta al por mayor de aparatos e instrumentos médicos, ortopédicos, ópticos",
          "_links": {
            "self": {
              "name": "Venta al por mayor de aparatos e instrumentos médicos, ortopédicos, ópticos",
              "href": "https://api.euskadi.eus/procurements/companies/economic-activities/1.619.2"
            }
          }
        },
        {
          "id": "1.691.9",
          "name": "Reparación de otros bienes de consumo n.c.o.p",
          "_links": {
            "self": {
              "name": "Reparación de otros bienes de consumo n.c.o.p",
              "href": "https://api.euskadi.eus/procurements/companies/economic-activities/1.691.9"
            }
          }
        }
      ],
      "certificateStartDate": "2026-01-27",
      "certificateEndDate": "2026-07-02",
      "object": "LA FABRICACIÓN, VENTA Y COMERCIALIZACIÓN DE INSTRUMENTAL MÉDICO QUIRÚRGICO, TÉCNICO RADIOLÓGICO, DE PRECISIÓN Y ÓPTICO",
      "mainEntityOfPage": "https://www.contratacion.euskadi.eus/webkpe00-kperoc/es/ac71aBusquedaRegistrosWar/empresa/00678",
      "_links": {
        "self": {
          "name": "CANON MEDICAL SYSTEMS, S.A.",
          "href": "https://api.euskadi.eus/procurements/companies/00678"
        }
      }
    },
    {
      "name": "EDUARDO PARRA SANCHEZ",
      "registrationNumber": "08773",
      "identificationNumber": "30695622Y",
      "address": "COLON LARREATEGUI 32, 1º PISO",
      "location": {
        "postalCode": "48009",
        "municipality": "Bilbao",
        "county": "Bizkaia",
        "municipalityId": "020",
        "countyId": "48"
      },
      "economicActivities": [
        {
          "id": "2.723",
          "name": "Administradores de fincas",
          "_links": {
            "self": {
              "name": "Administradores de fincas",
              "href": "https://api.euskadi.eus/procurements/companies/economic-activities/2.723"
            }
          }
        },
        {
          "id": "2.731",
          "name": "Abogados",
          "_links": {
            "self": {
              "name": "Abogados",
              "href": "https://api.euskadi.eus/procurements/companies/economic-activities/2.731"
            }
          }
        }
      ],
      "certificateStartDate": "2026-01-27",
      "certificateEndDate": "2026-07-02",
      "object": "ADMINISTRADORES DE FINCAS. ABOGADOS.",
      "mainEntityOfPage": "https://www.contratacion.euskadi.eus/webkpe00-kperoc/es/ac71aBusquedaRegistrosWar/empresa/08773",
      "_links": {
        "self": {
          "name": "EDUARDO PARRA SANCHEZ",
          "href": "https://api.euskadi.eus/procurements/companies/08773"
        }
      }
    }
  ]
}