{
  "totalItems": 9042,
  "totalPages": 905,
  "currentPage": 376,
  "itemsOfPage": 10,
  "items": [
    {
      "name": "JOSE ANTONIO ACEBEDO REBOREDO",
      "registrationNumber": "09187",
      "identificationNumber": "16257749S",
      "address": "Calle Biguillano",
      "location": {
        "postalCode": "01130",
        "municipality": "Zuia",
        "county": "Araba/Álava",
        "municipalityId": "063",
        "countyId": "01"
      },
      "economicActivities": [
        {
          "id": "2.826",
          "name": "Personal docente de enseñanzas diversas",
          "_links": {
            "self": {
              "name": "Personal docente de enseñanzas diversas",
              "href": "https://api.euskadi.eus/procurements/companies/economic-activities/2.826"
            }
          }
        }
      ],
      "certificateStartDate": "2025-01-08",
      "certificateEndDate": "2025-06-30",
      "object": "PERSONAL DOCENTE DE ENSEÑANZAS DIVERSAS.",
      "mainEntityOfPage": "https://www.contratacion.euskadi.eus/webkpe00-kperoc/es/ac71aBusquedaRegistrosWar/empresa/09187",
      "_links": {
        "self": {
          "name": "JOSE ANTONIO ACEBEDO REBOREDO",
          "href": "https://api.euskadi.eus/procurements/companies/09187"
        }
      }
    },
    {
      "name": "ALAZNE CONDE LIZARRALDE",
      "registrationNumber": "09752",
      "identificationNumber": "72606646Q",
      "address": "Calle Donibane (20100) 22 4 ",
      "location": {
        "postalCode": "20100",
        "municipality": "Lezo",
        "county": "Gipuzkoa",
        "municipalityId": "053",
        "countyId": "20"
      },
      "economicActivities": [
        {
          "id": "2.013",
          "name": "Veterinarios",
          "_links": {
            "self": {
              "name": "Veterinarios",
              "href": "https://api.euskadi.eus/procurements/companies/economic-activities/2.013"
            }
          }
        }
      ],
      "certificateStartDate": "2025-01-02",
      "certificateEndDate": "2025-07-02",
      "object": "VETERINARIOS.",
      "mainEntityOfPage": "https://www.contratacion.euskadi.eus/webkpe00-kperoc/es/ac71aBusquedaRegistrosWar/empresa/09752",
      "_links": {
        "self": {
          "name": "ALAZNE CONDE LIZARRALDE",
          "href": "https://api.euskadi.eus/procurements/companies/09752"
        }
      }
    },
    {
      "name": "T. OLABARRI, S.L.",
      "registrationNumber": "07837",
      "identificationNumber": "B95142642",
      "address": "TELESFORO ARANZADI, 6, 1º DRCH, DEP.2",
      "location": {
        "postalCode": "48008",
        "municipality": "Bilbao",
        "county": "Bizkaia",
        "municipalityId": "020",
        "countyId": "48"
      },
      "economicActivities": [
        {
          "id": "1.751.1",
          "name": "Guarda y custodia de vehículos en garajes y locales cubiertos",
          "_links": {
            "self": {
              "name": "Guarda y custodia de vehículos en garajes y locales cubiertos",
              "href": "https://api.euskadi.eus/procurements/companies/economic-activities/1.751.1"
            }
          }
        },
        {
          "id": "1.832.1",
          "name": "Agencias de seguros y corredurías de seguros",
          "_links": {
            "self": {
              "name": "Agencias de seguros y corredurías de seguros",
              "href": "https://api.euskadi.eus/procurements/companies/economic-activities/1.832.1"
            }
          }
        }
      ],
      "certificateStartDate": "2024-12-30",
      "certificateEndDate": "2025-06-15",
      "object": "LA REALIZACIÓN DE ACTIVIDADES DE CORREDURÍA DE SEGUROS, CON EXPRESO SOMETIMIENTO A LA LEGISLACIÓN ESPECÍFICA DE MEDIACIÓN EN SEGUROS PRIVADOS, A LAS NUEVAS LEYES O DISPOSICIONES QUE PUEDAN PROMULGARSE SOBRE LA MATERIA, Y, ADEMÁS, LA INTERMEDIACIÓN INMOBILIARIA EN SU MÁS AMPLIO SENTIDO",
      "mainEntityOfPage": "https://www.contratacion.euskadi.eus/webkpe00-kperoc/es/ac71aBusquedaRegistrosWar/empresa/07837",
      "_links": {
        "self": {
          "name": "T. OLABARRI, S.L.",
          "href": "https://api.euskadi.eus/procurements/companies/07837"
        }
      }
    },
    {
      "name": "BIEKIN HVAC, S.L.",
      "registrationNumber": "09947",
      "identificationNumber": "B10788446",
      "address": "SANGRONIZ BIDEA 6 - MODULO 4W-4I",
      "location": {
        "postalCode": "48150",
        "municipality": "Sondika",
        "county": "Bizkaia",
        "municipalityId": "904",
        "countyId": "48"
      },
      "economicActivities": [
        {
          "id": "1.504.3",
          "name": "Instalaciones de frío, calor y acondicionamiento de aire",
          "_links": {
            "self": {
              "name": "Instalaciones de frío, calor y acondicionamiento de aire",
              "href": "https://api.euskadi.eus/procurements/companies/economic-activities/1.504.3"
            }
          }
        }
      ],
      "certificateStartDate": "2024-12-30",
      "certificateEndDate": "2025-06-01",
      "object": "DISEÑO, INSTALACIÓN, REPARACIÓN Y MANTENIMIENTO DE TODO TIPO DE SISTEMAS DE CLIMATIZACIÓN Y VENTILACIÓN.",
      "mainEntityOfPage": "https://www.contratacion.euskadi.eus/webkpe00-kperoc/es/ac71aBusquedaRegistrosWar/empresa/09947",
      "_links": {
        "self": {
          "name": "BIEKIN HVAC, S.L.",
          "href": "https://api.euskadi.eus/procurements/companies/09947"
        }
      }
    },
    {
      "name": "INTELIGENCIA SOLAGUA, S.L.",
      "registrationNumber": "09732",
      "identificationNumber": "B47768296",
      "address": "calle metano 34",
      "location": {
        "postalCode": "47012",
        "municipality": "Valladolid",
        "county": "Valladolid",
        "municipalityId": "186",
        "countyId": "47"
      },
      "economicActivities": [
        {
          "id": "1.504.1",
          "name": "Instalaciones eléctricas en general",
          "_links": {
            "self": {
              "name": "Instalaciones eléctricas en general",
              "href": "https://api.euskadi.eus/procurements/companies/economic-activities/1.504.1"
            }
          }
        },
        {
          "id": "1.504.8",
          "name": "Montajes metálicos e instalaciones industriales completas",
          "_links": {
            "self": {
              "name": "Montajes metálicos e instalaciones industriales completas",
              "href": "https://api.euskadi.eus/procurements/companies/economic-activities/1.504.8"
            }
          }
        }
      ],
      "certificateStartDate": "2024-12-28",
      "certificateEndDate": "2025-06-28",
      "object": "A) EL MONTAJE, LA INSTALACIÓN MANTENIMIENTO Y COMERCIALIZACIÓN DE ESTRUCTURAS DESMONTABLES DE TODO TIPO. B) OTROS SERVICIOS TÉCNICOS DE ARQUITECTURA E INGENIERÍA, ENSAYOS Y ANÁLISIS TÉNCIOS Y OTRAS ACTIVIDADES RELACIONADAS CON EL ASESORAMIENTO TÉCNICO. C)LA ELABORACIÓN Y REALIZACIÓN DE ESTUDIOS, PROYECTOS Y TODO TIPO DE GESTIONES RELATIVAS A PROYECTOS ESTRUCTURALES. ACTIVIDADES DE PROJECT MANAGEMENT. D) INSTALACIONES ELÉCTRICAS DE BAJA TENSIÓN, FOTOVOLTAICAS E INSTALACIÓN DE RIEGO. E) LA PROMOCIÓN, REALIZACIÓN Y COMERCIALIZACIÓN DE TODA CLASE DE OBRAS Y CONSTRUCCIÓN INMOBILIARIAS, ASÍ COMO TODO TIPO DE OBRAS DE REFORMA, ADAPTACIÓN, REPARACIÓN, CONSERVACIÓN, MANTENIMIENTO, RESTAURACIÓN, ALBAÑILERÍA, FONTANERÍA, CARPINTERÍA, ELECTRICIDAD Y PINTURA, EN EDIFICIOS, NAVES, LOCALES, VÍAS PÚBLICAS, MONUMENTOS Y OTRAS INSTALACIONES. COMPRA, VENTA, TENENCIA, REHABILITACIÓN Y ARRENDAMIENTO DE TERRENOS, FINCAS RÚSTICAS Y URBANAS Y CUALESQUIERA BIENES INMUEBLES EN GENERAL. INTERMEDIACIÓN INMOBILIARIA. F) DESARROLLOS ELECTRÓNICOS E INFORMÁTICOS Y DE TODA CLASE DE TECNOLOGÍAS EN GENERAL. G) FORMACIÓN RESPECTO DE CUALQUIERA DE LAS MATERIAS COMPRENDIDAS EN LOS EPÍGRAFES ANTERIORES DEL OBJETO SOCIAL.",
      "mainEntityOfPage": "https://www.contratacion.euskadi.eus/webkpe00-kperoc/es/ac71aBusquedaRegistrosWar/empresa/09732",
      "_links": {
        "self": {
          "name": "INTELIGENCIA SOLAGUA, S.L.",
          "href": "https://api.euskadi.eus/procurements/companies/09732"
        }
      }
    },
    {
      "name": "JAVIER GONZALEZ ALVAREZ",
      "registrationNumber": "09750",
      "identificationNumber": "45662967D",
      "address": "Barrio Zurbaran 62",
      "location": {
        "postalCode": "48007",
        "municipality": "Bilbao",
        "county": "Bizkaia",
        "municipalityId": "020",
        "countyId": "48"
      },
      "economicActivities": [
        {
          "id": "1.663.9",
          "name": "Venta al por menor de otra clase de mercancías fuera de establecimiento",
          "_links": {
            "self": {
              "name": "Venta al por menor de otra clase de mercancías fuera de establecimiento",
              "href": "https://api.euskadi.eus/procurements/companies/economic-activities/1.663.9"
            }
          }
        },
        {
          "id": "2.861",
          "name": "Pintores, escultores, ceramistas, artesanos, artistas y similares",
          "_links": {
            "self": {
              "name": "Pintores, escultores, ceramistas, artesanos, artistas y similares",
              "href": "https://api.euskadi.eus/procurements/companies/economic-activities/2.861"
            }
          }
        },
        {
          "id": "2.899",
          "name": "Otros profesionales",
          "_links": {
            "self": {
              "name": "Otros profesionales",
              "href": "https://api.euskadi.eus/procurements/companies/economic-activities/2.899"
            }
          }
        }
      ],
      "certificateStartDate": "2024-12-28",
      "certificateEndDate": "2025-06-28",
      "object": "PINTORES, ESCULTORES, CERAMISTAS, ARTESANOS, ARTISTAS Y SIMILIARES. OTROS PROFESIOANALES. VENTA AL PORMENOR DE OTRA CLASE DE MERCANCÍAS FUERA DE ESTABLECIMIENTO.",
      "mainEntityOfPage": "https://www.contratacion.euskadi.eus/webkpe00-kperoc/es/ac71aBusquedaRegistrosWar/empresa/09750",
      "_links": {
        "self": {
          "name": "JAVIER GONZALEZ ALVAREZ",
          "href": "https://api.euskadi.eus/procurements/companies/09750"
        }
      }
    },
    {
      "name": "ECOGRAS RECUPERACIÓN Y RECICLADO, S.L.",
      "registrationNumber": "05238",
      "identificationNumber": "B20621264",
      "address": "PASEO UBARBURU 20F",
      "location": {
        "postalCode": "20014",
        "municipality": "Donostia / San Sebastián",
        "county": "Gipuzkoa",
        "municipalityId": "069",
        "countyId": "20"
      },
      "economicActivities": [
        {
          "id": "1.617.9",
          "name": "Venta al por mayor interindustrial de otros productos n.c.o.p",
          "_links": {
            "self": {
              "name": "Venta al por mayor interindustrial de otros productos n.c.o.p",
              "href": "https://api.euskadi.eus/procurements/companies/economic-activities/1.617.9"
            }
          }
        },
        {
          "id": "1.622",
          "name": "Venta al por mayor de otros productos de recuperación",
          "_links": {
            "self": {
              "name": "Venta al por mayor de otros productos de recuperación",
              "href": "https://api.euskadi.eus/procurements/companies/economic-activities/1.622"
            }
          }
        },
        {
          "id": "1.663.9",
          "name": "Venta al por menor de otra clase de mercancías fuera de establecimiento",
          "_links": {
            "self": {
              "name": "Venta al por menor de otra clase de mercancías fuera de establecimiento",
              "href": "https://api.euskadi.eus/procurements/companies/economic-activities/1.663.9"
            }
          }
        },
        {
          "id": "1.722",
          "name": "Transporte de mercancías por carretera",
          "_links": {
            "self": {
              "name": "Transporte de mercancías por carretera",
              "href": "https://api.euskadi.eus/procurements/companies/economic-activities/1.722"
            }
          }
        },
        {
          "id": "1.854.1",
          "name": "Alquiler de automóviles sin conductor",
          "_links": {
            "self": {
              "name": "Alquiler de automóviles sin conductor",
              "href": "https://api.euskadi.eus/procurements/companies/economic-activities/1.854.1"
            }
          }
        },
        {
          "id": "1.921.2",
          "name": "Servicios de recogida de basuras y desechos",
          "_links": {
            "self": {
              "name": "Servicios de recogida de basuras y desechos",
              "href": "https://api.euskadi.eus/procurements/companies/economic-activities/1.921.2"
            }
          }
        }
      ],
      "certificateStartDate": "2024-12-27",
      "certificateEndDate": "2025-06-10",
      "object": "LA RECOGIDA, TRANSPORTE, RECUPERACIÓN Y RECICLADO DE RESIDUOS",
      "mainEntityOfPage": "https://www.contratacion.euskadi.eus/webkpe00-kperoc/es/ac71aBusquedaRegistrosWar/empresa/05238",
      "_links": {
        "self": {
          "name": "ECOGRAS RECUPERACIÓN Y RECICLADO, S.L.",
          "href": "https://api.euskadi.eus/procurements/companies/05238"
        }
      }
    },
    {
      "name": "CRISTINA BURGOS VILLANUEVA Y OTRO SC",
      "registrationNumber": "06453",
      "identificationNumber": "J71240873",
      "address": "PASEO GALICIA 5 BAJO",
      "location": {
        "postalCode": "20003",
        "municipality": "Donostia / San Sebastián",
        "county": "Gipuzkoa",
        "municipalityId": "069",
        "countyId": "20"
      },
      "economicActivities": [
        {
          "id": "1.843.9",
          "name": "Otros servicios técnicos n.c.o.p",
          "_links": {
            "self": {
              "name": "Otros servicios técnicos n.c.o.p",
              "href": "https://api.euskadi.eus/procurements/companies/economic-activities/1.843.9"
            }
          }
        },
        {
          "id": "1.861.2",
          "name": "Alquiler de locales industriales y otros alquileres n.c.o.p",
          "_links": {
            "self": {
              "name": "Alquiler de locales industriales y otros alquileres n.c.o.p",
              "href": "https://api.euskadi.eus/procurements/companies/economic-activities/1.861.2"
            }
          }
        }
      ],
      "certificateStartDate": "2024-12-26",
      "certificateEndDate": "2025-06-09",
      "object": "EL ESTUDIO DE ARQUITECTURA Y DISEÑO",
      "mainEntityOfPage": "https://www.contratacion.euskadi.eus/webkpe00-kperoc/es/ac71aBusquedaRegistrosWar/empresa/06453",
      "_links": {
        "self": {
          "name": "CRISTINA BURGOS VILLANUEVA Y OTRO SC",
          "href": "https://api.euskadi.eus/procurements/companies/06453"
        }
      }
    },
    {
      "name": "MARITTIPI KOMUNIKAZIO DIGITALA, S.L.",
      "registrationNumber": "06385",
      "identificationNumber": "B95945374",
      "address": "Jose Luis Goioaga, 32 P2 D209",
      "location": {
        "postalCode": "48950",
        "municipality": "Erandio",
        "county": "Bizkaia",
        "municipalityId": "902",
        "countyId": "48"
      },
      "economicActivities": [
        {
          "id": "1.844",
          "name": "Servicios de publicidad, relaciones públicas y similares",
          "_links": {
            "self": {
              "name": "Servicios de publicidad, relaciones públicas y similares",
              "href": "https://api.euskadi.eus/procurements/companies/economic-activities/1.844"
            }
          }
        }
      ],
      "certificateStartDate": "2024-12-26",
      "certificateEndDate": "2025-06-08",
      "object": "LA ACTIVIDAD PRINCIPAL: AGENCIAS DE PUBLICIDAD. OTRAS ACTIVIDADES: EDICIÓN DE DIRECTORIOS Y GUÍAS DE DIRECCIONES POSTALES. EDICIÓN DE PERIÓDICOS. EDICIÓN DE REVISTAS. RELACIONES PÚBLICAS Y COMUNICACIÓN. OTRAS ACTIVIDADES EDITORIALES. PORTALES WEB. EDICIÓN DE LIBROS. PROCESO DE DATOS, HOSTING Y ACTIVIDADES RELACIONADAS. OTROS SERVICIOS DE INFORMACIÓN N.C.O.P. SERVICIOS DE REPRESENTACIÓN DE MEDIOS DE COMUNICACIÓN",
      "mainEntityOfPage": "https://www.contratacion.euskadi.eus/webkpe00-kperoc/es/ac71aBusquedaRegistrosWar/empresa/06385",
      "_links": {
        "self": {
          "name": "MARITTIPI KOMUNIKAZIO DIGITALA, S.L.",
          "href": "https://api.euskadi.eus/procurements/companies/06385"
        }
      }
    },
    {
      "name": "IVAN GOMEZ SALGUERO",
      "registrationNumber": "09696",
      "identificationNumber": "44976404L",
      "address": "Avenida Euskadi",
      "location": {
        "postalCode": "48903",
        "municipality": "Barakaldo",
        "county": "Bizkaia",
        "municipalityId": "013",
        "countyId": "48"
      },
      "economicActivities": [
        {
          "id": "1.617.8",
          "name": "Venta al por mayor de máquinas y material de oficina",
          "_links": {
            "self": {
              "name": "Venta al por mayor de máquinas y material de oficina",
              "href": "https://api.euskadi.eus/procurements/companies/economic-activities/1.617.8"
            }
          }
        }
      ],
      "certificateStartDate": "2024-12-18",
      "certificateEndDate": "2025-06-18",
      "object": "VENTA AL POR MAYOR DE MÁQUINAS Y MATERIAL DE OFICINA.",
      "mainEntityOfPage": "https://www.contratacion.euskadi.eus/webkpe00-kperoc/es/ac71aBusquedaRegistrosWar/empresa/09696",
      "_links": {
        "self": {
          "name": "IVAN GOMEZ SALGUERO",
          "href": "https://api.euskadi.eus/procurements/companies/09696"
        }
      }
    }
  ]
}