{
  "totalItems": 9042,
  "totalPages": 905,
  "currentPage": 822,
  "itemsOfPage": 10,
  "items": [
    {
      "name": "SISTEMAS INTEGRALES DE ESTERILIZACION S.A.",
      "registrationNumber": "02247",
      "identificationNumber": "A61933081",
      "address": "C/ SANT ANTONI, 32",
      "location": {
        "postalCode": "08000",
        "municipality": "Terrassa",
        "county": "Barcelona",
        "municipalityId": "279",
        "countyId": "08"
      },
      "economicActivities": [
        {
          "id": "1.999",
          "name": "Otros servicios n.c.o.p",
          "_links": {
            "self": {
              "name": "Otros servicios n.c.o.p",
              "href": "https://api.euskadi.eus/procurements/companies/economic-activities/1.999"
            }
          }
        }
      ],
      "certificateStartDate": "2000-03-13",
      "certificateEndDate": "2000-08-18",
      "object": "LA INDUSTRIA DE LAVANDERIA, DESINFECCION, ESTERILIZACION, ALMACENAJE Y ELIMINACION, ASI COMO CUALQUIER OTRO PROCESO COMPLEMENTARIO, DE ROPA Y UTILLAJE SANITARIO, PROPIEDAD DE LA SOCIEDAD O DE TERCEROS.\r\nASIMISMO, PODRA OPERAR EN LA DISTRIBUCION, RECOGIDA Y TRANSPORTE DE CUALQUIERA DE LAS ACTIVIDADES EXPRESADAS.",
      "mainEntityOfPage": "https://www.contratacion.euskadi.eus/webkpe00-kperoc/es/ac71aBusquedaRegistrosWar/empresa/02247",
      "_links": {
        "self": {
          "name": "SISTEMAS INTEGRALES DE ESTERILIZACION S.A.",
          "href": "https://api.euskadi.eus/procurements/companies/02247"
        }
      }
    },
    {
      "name": "EDUCTRADE, S.A.",
      "registrationNumber": "00322",
      "identificationNumber": "A28435931",
      "address": "C/ MARCELINO ÁLVAREZ, Nº 21.",
      "location": {
        "postalCode": "28017",
        "municipality": "Madrid",
        "county": "Madrid",
        "municipalityId": "079",
        "countyId": "28"
      },
      "economicActivities": [
        {
          "id": "1.476.1",
          "name": "Edición de libros",
          "_links": {
            "self": {
              "name": "Edición de libros",
              "href": "https://api.euskadi.eus/procurements/companies/economic-activities/1.476.1"
            }
          }
        },
        {
          "id": "1.615.2",
          "name": "Venta al por mayor de muebles",
          "_links": {
            "self": {
              "name": "Venta al por mayor de muebles",
              "href": "https://api.euskadi.eus/procurements/companies/economic-activities/1.615.2"
            }
          }
        },
        {
          "id": "1.615.3",
          "name": "Venta al por mayor de aparatos electrodomésticos y ferretería",
          "_links": {
            "self": {
              "name": "Venta al por mayor de aparatos electrodomésticos y ferretería",
              "href": "https://api.euskadi.eus/procurements/companies/economic-activities/1.615.3"
            }
          }
        },
        {
          "id": "1.617.5",
          "name": "Venta al por mayor de maquinaria para la madera y el metal",
          "_links": {
            "self": {
              "name": "Venta al por mayor de maquinaria para la madera y el metal",
              "href": "https://api.euskadi.eus/procurements/companies/economic-activities/1.617.5"
            }
          }
        },
        {
          "id": "1.619.5",
          "name": "Venta al por mayor de artículos de papelería y escritorios",
          "_links": {
            "self": {
              "name": "Venta al por mayor de artículos de papelería y escritorios",
              "href": "https://api.euskadi.eus/procurements/companies/economic-activities/1.619.5"
            }
          }
        },
        {
          "id": "1.619.7",
          "name": "Venta al por mayor de instrumentos de precisión, medida y similares",
          "_links": {
            "self": {
              "name": "Venta al por mayor de instrumentos de precisión, medida y similares",
              "href": "https://api.euskadi.eus/procurements/companies/economic-activities/1.619.7"
            }
          }
        }
      ],
      "certificateStartDate": "2000-03-06",
      "certificateEndDate": "2000-08-03",
      "object": "CONSTRUCCIONES PREFABRICADAS, PARA CENTROS DOCENTES, VIVIENDAS Y HOSPITALES; INSTALACIÓN DE MOBILIARIOS; FABRICACIÓN, PROMOCIÓN, FINANCIACIÓN Y COMERCIALIZACIÓN DE MATERIALES; REALIZACIÓN DE SERVICIOS DE ASISTENCIA TÉCNICA",
      "mainEntityOfPage": "https://www.contratacion.euskadi.eus/webkpe00-kperoc/es/ac71aBusquedaRegistrosWar/empresa/00322",
      "_links": {
        "self": {
          "name": "EDUCTRADE, S.A.",
          "href": "https://api.euskadi.eus/procurements/companies/00322"
        }
      }
    },
    {
      "name": "LIZARRA SERVICIOS, S.L.",
      "registrationNumber": "01594",
      "identificationNumber": "B48256101",
      "address": "C/ MORGAN, Nº 4 - LONJA.",
      "location": {
        "postalCode": "48014",
        "municipality": "Bilbao",
        "county": "Bizkaia",
        "municipalityId": "020",
        "countyId": "48"
      },
      "economicActivities": [
        {
          "id": "1.922.1",
          "name": "Servicios de limpieza de interiores",
          "_links": {
            "self": {
              "name": "Servicios de limpieza de interiores",
              "href": "https://api.euskadi.eus/procurements/companies/economic-activities/1.922.1"
            }
          }
        }
      ],
      "certificateStartDate": "2000-02-17",
      "certificateEndDate": "2000-08-02",
      "object": "LIMPIEZA DE EDIFICIOS, LOCALES Y VÍAS PÚBLICAS, INCLUSO RECOGIDA DE BASURAS. IMPLANTACIÓN, CUIDADO, MANTENIMIENTO Y RENOVACIÓN DE JARDINERÍA, TANTO PÚBLICA COMO PRIVADA. COMPRA-VENTA DE ARTÍCULOS, PRODUCTOS Y ÚTILES DE LIMPIEZA Y AFINES, INCLUSO MAQUINARIA. REPRESENTACIÓN DE EMPRESAS, TANTO NACIONALES COMO EXTRANJERAS, RELACIONADAS CON LAS ACTIVIDADES DE REFERENCIA",
      "mainEntityOfPage": "https://www.contratacion.euskadi.eus/webkpe00-kperoc/es/ac71aBusquedaRegistrosWar/empresa/01594",
      "_links": {
        "self": {
          "name": "LIZARRA SERVICIOS, S.L.",
          "href": "https://api.euskadi.eus/procurements/companies/01594"
        }
      }
    },
    {
      "name": "BOSS MEDICAL, S.L.",
      "registrationNumber": "02229",
      "identificationNumber": "B13223201",
      "address": "C/ MONTCABRER, Nº 12. POLÍGONO INDUSTRIAL P. P. 2 - A.",
      "location": {
        "postalCode": "46960",
        "municipality": "Aldaia",
        "county": "Valencia/València",
        "municipalityId": "021",
        "countyId": "46"
      },
      "economicActivities": [
        {
          "id": "1.482.2",
          "name": "Fabricación de artículos acabados de materias plásticas",
          "_links": {
            "self": {
              "name": "Fabricación de artículos acabados de materias plásticas",
              "href": "https://api.euskadi.eus/procurements/companies/economic-activities/1.482.2"
            }
          }
        }
      ],
      "certificateStartDate": "2000-02-09",
      "certificateEndDate": "2000-06-15",
      "object": "LA FABRICACIÓN Y COMERCIALIZACIÓN DE ARTÍCULOS ACABADOS DE MATERIAS PLÁSTICAS",
      "mainEntityOfPage": "https://www.contratacion.euskadi.eus/webkpe00-kperoc/es/ac71aBusquedaRegistrosWar/empresa/02229",
      "_links": {
        "self": {
          "name": "BOSS MEDICAL, S.L.",
          "href": "https://api.euskadi.eus/procurements/companies/02229"
        }
      }
    },
    {
      "name": "LOURDES AZCOAGA BASTIDA",
      "registrationNumber": "02226",
      "identificationNumber": "15353096K",
      "address": "C/ AVENIDA ALAVA, Nº 3 - 1º.",
      "location": {
        "postalCode": "20500",
        "municipality": "Arrasate / Mondragón",
        "county": "Gipuzkoa",
        "municipalityId": "055",
        "countyId": "20"
      },
      "economicActivities": [
        {
          "id": "1.933.9",
          "name": "Otras actividades de enseñanza tales como idiomas, mecanografía",
          "_links": {
            "self": {
              "name": "Otras actividades de enseñanza tales como idiomas, mecanografía",
              "href": "https://api.euskadi.eus/procurements/companies/economic-activities/1.933.9"
            }
          }
        }
      ],
      "certificateStartDate": "2000-02-04",
      "certificateEndDate": "2000-07-04",
      "object": "OTRAS ACTIVIDADES DE ENSEÑANZA, TALES COMO IDIOMAS, CORTE Y CONFECCIÓN, MECANOGRAFÍA, TAQUIGRAFÍA, PREPARACIÓN DE EXÁMENES Y OPOSICIONES Y SIMILARES, N.C.O.P.  ",
      "mainEntityOfPage": "https://www.contratacion.euskadi.eus/webkpe00-kperoc/es/ac71aBusquedaRegistrosWar/empresa/02226",
      "_links": {
        "self": {
          "name": "LOURDES AZCOAGA BASTIDA",
          "href": "https://api.euskadi.eus/procurements/companies/02226"
        }
      }
    },
    {
      "name": "COOK & SERVICES HOSTELERÍA, S.L.",
      "registrationNumber": "02223",
      "identificationNumber": "B20535233",
      "address": "PARQUE EMPRESARIAL ZUATZU. EDIFICIO ULÍA, Nº 13.",
      "location": {
        "postalCode": "20018",
        "municipality": "Donostia / San Sebastián",
        "county": "Gipuzkoa",
        "municipalityId": "069",
        "countyId": "20"
      },
      "economicActivities": [
        {
          "id": "1.849.9",
          "name": "Otros servicios independientes n.c.o.p",
          "_links": {
            "self": {
              "name": "Otros servicios independientes n.c.o.p",
              "href": "https://api.euskadi.eus/procurements/companies/economic-activities/1.849.9"
            }
          }
        }
      ],
      "certificateStartDate": "2000-01-31",
      "certificateEndDate": "2000-07-26",
      "object": "EL DESARROLLO Y EXPLOTACIÓN DE TODO TIPO DE ESTABLECIMIENTOS Y EVENTOS RELACIONADOS CON ACTIVIDADES DE HOSTELERÍA, EL DESARROLLO Y PRESTACIÓN DE SERVICIOS DE ASESORAMIENTO, FORMACIÓN, ENSEÑANZA, SELECCIÓN DE PERSONAL E INSTRUCCIÓN A TERCEROS RESPECTO DE DICHAS ACTIVIDADES RELACIONADAS CON LA HOSTELERÍA, ASÍ COMO LA COMERCIALIZACIÓN, IMPORTACIÓN Y EXPORTACIÓN DE TODA CLASE DE PRODUCTOS RELACIONADOS CON LA ALIMENTACIÓN, HOSTELERÍA Y RESTAURACIÓN",
      "mainEntityOfPage": "https://www.contratacion.euskadi.eus/webkpe00-kperoc/es/ac71aBusquedaRegistrosWar/empresa/02223",
      "_links": {
        "self": {
          "name": "COOK & SERVICES HOSTELERÍA, S.L.",
          "href": "https://api.euskadi.eus/procurements/companies/02223"
        }
      }
    },
    {
      "name": "CONSTRUCCIONES DOLMEN, S.A.",
      "registrationNumber": "00053",
      "identificationNumber": "A48013809",
      "address": "C/ ALAMEDA DE URQUIJO, Nº 12 - ENTR. DCHA.",
      "location": {
        "postalCode": "48008",
        "municipality": "Bilbao",
        "county": "Bizkaia",
        "municipalityId": "020",
        "countyId": "48"
      },
      "economicActivities": [
        {
          "id": "1.501.2",
          "name": "Construcción completa, reparación y conservación obras civiles",
          "_links": {
            "self": {
              "name": "Construcción completa, reparación y conservación obras civiles",
              "href": "https://api.euskadi.eus/procurements/companies/economic-activities/1.501.2"
            }
          }
        }
      ],
      "certificateStartDate": "2000-01-26",
      "certificateEndDate": "2000-07-11",
      "object": "CONSTRUCCIÓN EN GENERAL, PRINCIPALMENTE LA CONSTRUCCIÓN INDUSTRIAL",
      "mainEntityOfPage": "https://www.contratacion.euskadi.eus/webkpe00-kperoc/es/ac71aBusquedaRegistrosWar/empresa/00053",
      "_links": {
        "self": {
          "name": "CONSTRUCCIONES DOLMEN, S.A.",
          "href": "https://api.euskadi.eus/procurements/companies/00053"
        }
      }
    },
    {
      "name": "SISTEMAS E INSTALACIONES DE TELECOMUNICACIÓN, S.A.",
      "registrationNumber": "00483",
      "identificationNumber": "A28048502",
      "address": "C/ ARTE, Nº 21",
      "location": {
        "postalCode": "28033",
        "municipality": "Madrid",
        "county": "Madrid",
        "municipalityId": "079",
        "countyId": "28"
      },
      "economicActivities": [
        {
          "id": "1.507",
          "name": "Construcción, reparación y conservación de toda clase obras",
          "_links": {
            "self": {
              "name": "Construcción, reparación y conservación de toda clase obras",
              "href": "https://api.euskadi.eus/procurements/companies/economic-activities/1.507"
            }
          }
        }
      ],
      "certificateStartDate": "2000-01-21",
      "certificateEndDate": "2000-06-10",
      "object": "LA REALIZACIÓN DE LOS TRABAJOS Y OPERACIONES RELACIONADOS CON LAS REDES Y SISTEMAS DE TELECOMUNICACIÓN Y ELÉCTRICOS, INCLUIDOS EL ESTUDIO, ANTEPROYECTO, PROYECTO, SU EJECUCIÓN TANTO RESPECTO A LA OBRA CIVIL, COMO A LA INSTALACIÓN Y/O COMPRA VENTA DE CABLES Y EQUIPOS INTEGRANTES DE CUALQUIER NATURALEZA Y EL MANTENIMIENTO DE LAS REDES, EQUIPOS Y SISTEMAS, ASÍ COMO EL SUMINISTRO DE SISTEMAS COMPLEJOS DE TELECOMUNICACIÓN Y ELECTRÓNICA",
      "mainEntityOfPage": "https://www.contratacion.euskadi.eus/webkpe00-kperoc/es/ac71aBusquedaRegistrosWar/empresa/00483",
      "_links": {
        "self": {
          "name": "SISTEMAS E INSTALACIONES DE TELECOMUNICACIÓN, S.A.",
          "href": "https://api.euskadi.eus/procurements/companies/00483"
        }
      }
    },
    {
      "name": "CAMPO JARDÍN MANTENIMIENTO Y SERVICIOS PÚBLICOS, S.L.",
      "registrationNumber": "01690",
      "identificationNumber": "B01114776",
      "address": "ABERASTURI - ALAVA",
      "location": {
        "postalCode": "01000",
        "municipality": "Vitoria-Gasteiz",
        "county": "Araba/Álava",
        "municipalityId": "059",
        "countyId": "01"
      },
      "economicActivities": [
        {
          "id": "1.911",
          "name": "Servicios agrícolas y ganaderos",
          "_links": {
            "self": {
              "name": "Servicios agrícolas y ganaderos",
              "href": "https://api.euskadi.eus/procurements/companies/economic-activities/1.911"
            }
          }
        }
      ],
      "certificateStartDate": "2000-01-21",
      "certificateEndDate": "2000-07-10",
      "object": "LA CONSTRUCCIÓN, CREACIÓN, MANTENIMIENTO Y CONSERVACIÓN DE PARQUES Y JARDINES",
      "mainEntityOfPage": "https://www.contratacion.euskadi.eus/webkpe00-kperoc/es/ac71aBusquedaRegistrosWar/empresa/01690",
      "_links": {
        "self": {
          "name": "CAMPO JARDÍN MANTENIMIENTO Y SERVICIOS PÚBLICOS, S.L.",
          "href": "https://api.euskadi.eus/procurements/companies/01690"
        }
      }
    },
    {
      "name": "ULMA MANUTENCIÓN, S. COOP.",
      "registrationNumber": "02222",
      "identificationNumber": "F20091443",
      "address": "C/ PASEO OBISPO OTADUI, Nº 8.",
      "location": {
        "postalCode": "20560",
        "municipality": "Oñati",
        "county": "Gipuzkoa",
        "municipalityId": "059",
        "countyId": "20"
      },
      "economicActivities": [
        {
          "id": "1.329.9",
          "name": "Construcción de otras máquinas y equipos mecánicos n.c.o.p",
          "_links": {
            "self": {
              "name": "Construcción de otras máquinas y equipos mecánicos n.c.o.p",
              "href": "https://api.euskadi.eus/procurements/companies/economic-activities/1.329.9"
            }
          }
        }
      ],
      "certificateStartDate": "2000-01-21",
      "certificateEndDate": "2000-05-08",
      "object": "LA FABRICACIÓN, COMERCIALIZACIÓN Y SERVICIO DE ASISTENCIA TÉCNICA DE CARRETILLAS ELEVADORAS Y SISTEMAS Y ELEMENTOS DE MANUTENCIÓN Y CUANTAS ACTIVIDADES INDUSTRIALES, COMERCIALES O DE SERVICIOS, AFINES O COMPLEMENTARIAS A LAS CITADAS DECIDA EMPRENDER",
      "mainEntityOfPage": "https://www.contratacion.euskadi.eus/webkpe00-kperoc/es/ac71aBusquedaRegistrosWar/empresa/02222",
      "_links": {
        "self": {
          "name": "ULMA MANUTENCIÓN, S. COOP.",
          "href": "https://api.euskadi.eus/procurements/companies/02222"
        }
      }
    }
  ]
}