{
  "totalItems": 9042,
  "totalPages": 905,
  "currentPage": 818,
  "itemsOfPage": 10,
  "items": [
    {
      "name": "ARBORA & AUSONIA, S.L",
      "registrationNumber": "02326",
      "identificationNumber": "B59927103",
      "address": "PASSEIG DELS TIL.LERS, 2-6",
      "location": {
        "postalCode": "08034",
        "municipality": "Barcelona",
        "county": "Barcelona",
        "municipalityId": "019",
        "countyId": "08"
      },
      "economicActivities": [
        {
          "id": "1.614.1",
          "name": "Venta al por mayor de productos farmacéuticos y medicamentos",
          "_links": {
            "self": {
              "name": "Venta al por mayor de productos farmacéuticos y medicamentos",
              "href": "https://api.euskadi.eus/procurements/companies/economic-activities/1.614.1"
            }
          }
        }
      ],
      "certificateStartDate": "2000-11-15",
      "certificateEndDate": "2001-02-03",
      "object": "LA FABRICACIÓN Y/O DISTRIBUCIÓN DE PRODUCTOS PERTENECIENTES A CUALQUIERA DE LAS CATEGORÍAS SIGUIENTES:\r\nA) PRODUCTOS PARA PROTECCIÓN SANITARIA FEMENINA Y PRODUCTOS HIGIÉNICOS FEMENINOS, INCLUYENDO COMPRESAS, PROTECTORES, TAMPONES, JABÓN \"ÍNTIMO\", TOALLITAS HÚMEDAS \"ÍNTIMAS\", BRAGUITAS DESECHABLES Y CUALQUIER OTRO PRODUCTO PERTENECIENTE A ESTA CATEGORÍA.\r\n\r\nB) PRODUCTOS ESPECÍFICAMENTE PARA EL CUIDADO DEL BEBÉ, INCLUYENDO PAÑALES INFANTILES, BRAGUITAS, PERFUMERÍA Y PRODUCTOS PARA EL CUIDADO DE LA PIEL, CHAMPÚ, ESPUMA PARA EL BAÑO, TOALLITAS HÚMEDAS, LECHE CORPORAL, CREMA HIDRATANTE Y BALSÁMICA, POLVOS DE TALCO, ACEITIE Y CUALQUIER OTRO PRODUCTO PERTENECIENTE A ESTA CATEGORÍA.\r\n\r\nC) PRODUCTOS DE INCONTINENCIA PARA ADULTOS DE USO EXTERNO.\r\n\r\nD) TOALLITAS HÚMEDAS PARA USO PERSONAL, INCLUYENDO TOALLITAS HÚMEAS MULTIUSO.\r\n\r\nE) PRODUCTOS DE TELA SIN TEJER, INCLUYENDO ROLLOS DE TELA SIN TEJER Y PRODUCTOS ACABADOS DE TELA SIN TEJER.\r\n    ",
      "mainEntityOfPage": "https://www.contratacion.euskadi.eus/webkpe00-kperoc/es/ac71aBusquedaRegistrosWar/empresa/02326",
      "_links": {
        "self": {
          "name": "ARBORA & AUSONIA, S.L",
          "href": "https://api.euskadi.eus/procurements/companies/02326"
        }
      }
    },
    {
      "name": "SALICRU, S.A.",
      "registrationNumber": "00954",
      "identificationNumber": "A08435356",
      "address": "AVDA. DE LA SERRA, Nº 100",
      "location": {
        "postalCode": "08460",
        "municipality": "Santa Maria de Palautordera",
        "county": "Barcelona",
        "municipalityId": "259",
        "countyId": "08"
      },
      "economicActivities": [
        {
          "id": "1.342",
          "name": "Fabricación de material eléctrico de utilización y equipamiento",
          "_links": {
            "self": {
              "name": "Fabricación de material eléctrico de utilización y equipamiento",
              "href": "https://api.euskadi.eus/procurements/companies/economic-activities/1.342"
            }
          }
        }
      ],
      "certificateStartDate": "2000-11-14",
      "certificateEndDate": "2001-04-18",
      "object": "LA CONSTRUCCIÓN Y REPARACIÓN DE APARATOS ELÉCTRICOS, MAQUINARIA ELÉCTRICA, CONDUCTORES, LÁMPARAS Y ACCESORIOS, REALIZACIÓN DE OBRAS POR CUENTA PROPIA O AJENA, CONSTRUCCIONES DE EDIFICACIONES PARA USO PROPIO O AJENO Y ENAJENACIÓN DE LOS MISMOS; ASÍ COMO CUALQUIER ACTIVIDAD INDUSTRIAL O MERCANTIL LÍCITA",
      "mainEntityOfPage": "https://www.contratacion.euskadi.eus/webkpe00-kperoc/es/ac71aBusquedaRegistrosWar/empresa/00954",
      "_links": {
        "self": {
          "name": "SALICRU, S.A.",
          "href": "https://api.euskadi.eus/procurements/companies/00954"
        }
      }
    },
    {
      "name": "GARBIPAR, S.A.",
      "registrationNumber": "02133",
      "identificationNumber": "A01253780",
      "address": "C/ SAN PRUDENCIO, 27- 4º OFICINA 1",
      "location": {
        "postalCode": "01005",
        "municipality": "Vitoria-Gasteiz",
        "county": "Araba/Álava",
        "municipalityId": "059",
        "countyId": "01"
      },
      "economicActivities": [
        {
          "id": "1.921.1",
          "name": "Servicios de limpieza en calles, vías públicas y jardines",
          "_links": {
            "self": {
              "name": "Servicios de limpieza en calles, vías públicas y jardines",
              "href": "https://api.euskadi.eus/procurements/companies/economic-activities/1.921.1"
            }
          }
        }
      ],
      "certificateStartDate": "2000-11-08",
      "certificateEndDate": "2001-05-06",
      "object": "LA FABRICACIÓN, REPRESENTACIÓN, IMPORTACIÓN, Y EXPORTACIÓN, COMPRA Y VENTA AL POR MAYOR O MENOR, DE MAQUINARIA DE CUALQUIER TIPO, INCLUSO PARA MINERÍA, PLANTAS PETROQUÍMICAS, CARRETERAS, FERROCARRILES, PUERTOS Y AEROPUERTOS. LA FABRICACIÓN, REPRESENTACIÓN, IMPORTACIÓN Y EXPORTACIÓN PARA USO PROPIO, INSTALACIÓN O VENTA DE TODO TIPO DE MATERIALES, INCLUSO AGLOMERADOS ASFÁLTICOS, FIRMES Y PRODUCTOS ANTIDESLIZANTES, JUNTAS DE DILATACIÓN, BETUNES Y PRODUCTOS PARA EL SELLADO DE GRIETAS, CAPTAFAROS DE CUALQUIER TIPO, SEÑALES VERTICALES DE TODAS CLASES, PINTURAS, COLORANTES, RESINAS, TERMOPLÁSTICOS, PLÁSTICOS EN FRÍO Y VINILOS, MATERIALES ACRÍLICOS DE UNO O MÁS COMPONENETES, MICROESFERAS DE VIDRIO Y EN GENERAL TODA CLASE DE PRODUCTOS, MATERIALES Y MAQUINARIA PARA LA CONSTRUCCIÓN, EXPLOTACIÓN, REPARACIÓN, CONSERVACIÓN Y SEÑALIZACIÓN DE CARRETERAS, PUENTES, AEROPUESTOS, AUTOPISTAS. LA CONSERVACIÓN INTEGRAL Y MANTENIMIENTO DE POLÍGONOS INDUSTRIALES, URBANIZACIONES, NÚCLEOS DE POBLACIÓN, PARQUES TECNOLÓGICOS, Y CUALQUIER OTRA AGRUPACIÓN SUSCEPTIBLE DE MANTENIMIENTO Y CONSERVACIÓN",
      "mainEntityOfPage": "https://www.contratacion.euskadi.eus/webkpe00-kperoc/es/ac71aBusquedaRegistrosWar/empresa/02133",
      "_links": {
        "self": {
          "name": "GARBIPAR, S.A.",
          "href": "https://api.euskadi.eus/procurements/companies/02133"
        }
      }
    },
    {
      "name": "ONTEX PENINSULAR, S.A.",
      "registrationNumber": "02320",
      "identificationNumber": "A40103855",
      "address": "POLÍGONO INDUSTRIAL HONTORIA, PARCELA Nº 13",
      "location": {
        "postalCode": "40195",
        "municipality": "Segovia",
        "county": "Segovia",
        "municipalityId": "194",
        "countyId": "40"
      },
      "economicActivities": [
        {
          "id": "1.254.2",
          "name": "Fabricación de especialidades y otros productos farmacéuticos",
          "_links": {
            "self": {
              "name": "Fabricación de especialidades y otros productos farmacéuticos",
              "href": "https://api.euskadi.eus/procurements/companies/economic-activities/1.254.2"
            }
          }
        }
      ],
      "certificateStartDate": "2000-11-02",
      "certificateEndDate": "2001-04-03",
      "object": "1) PRODUCCIÓN, TRANSFORMACIÓN, ENVASADO, CONSERVACIÓN, COMERCIALIZACIÓN, ALMACENAMIENTO, MEDIACIÓN, DISTRIBUCIÓN, TRANSPORTE, IMPORTACIÓN Y EXPORTACIÓN DE LOS PRODUCTOS Y MAQUINARIAS E INSTALACIONES NECESARIOS PARA SU OBTENCIÓN Y EJERCICIO DE CUALQUIER ACTIVIDAD  ECONÓMICA RELACIONADA CON LOS SIGUIENTES PRODUCTOS:\r\nHIGIÉNICOS, SANITARIOS E HIGIENICO-SANITARIOS.\r\nDROGUERÍA Y PERFUMERÍA\r\nQUÍMICO\r\nPAPELES, TEJIDOS Y NO TEJIDOS\r\nPRENDAS, VESTIMENTAS Y OTROS OBJETOS DE CONFECCIÓN\r\nALIMENTOS Y BEBIDAS\r\nJUGUETES Y MATERIAL DEPORTIVO\r\nCALZADOS\r\nDE PAPELERÍA, ESCRITORIO, LIBROS, PUBLICACIONES, ARTES GRÁFICAS, MATERIAL Y MÁQUINAS DE OFICINA.\r\nMUEBLES, OBJETOS DECORATIVOS Y OBJETOS ARTÍSTICOS\r\nDE JOYERÍA Y BISUTERÍA\r\nMENAJE Y ELECTRODOMÉSTICOS\r\nMATERIALES, APARATOS E INSTALACIONES PARA CONSTRUCCIÓN Y DECORACIÓN\r\nHERRAMIENTAS, APARATOS DE CONTROL Y MEDIDA\r\nAPARATOS, INSTRUMENTOS Y DEMÁS PRODUCTOS DE RELOJERÍA, ÓPTICA, FOTOGRAFÍA, CINE, TELEVISIÓN, ILUMINACIÓN, MUSICALES, INFORMÁTICA, VÍDEO Y AUDIO.\r\nREPUESTOS, RECAMBIOS, ACCESORIOS Y CONSUMIBLES  PARA VEHÍCULOS\r\nPLANTAS, PRODUCTOS Y APARATOS DE JARDINERÍA Y HORTOFRUTICULTURA\r\n\r\n2) OBTENCIÓN Y EXPLOTACIÓN, POR CUALQUIER TÍTULO, DE PATENTES Y MARCAS NACIONALES, EXTRANJERAS E INTERNACIONALES.    ",
      "mainEntityOfPage": "https://www.contratacion.euskadi.eus/webkpe00-kperoc/es/ac71aBusquedaRegistrosWar/empresa/02320",
      "_links": {
        "self": {
          "name": "ONTEX PENINSULAR, S.A.",
          "href": "https://api.euskadi.eus/procurements/companies/02320"
        }
      }
    },
    {
      "name": "EMILIO CARREÑO, S.L.",
      "registrationNumber": "02321",
      "identificationNumber": "B18252338",
      "address": "C/ MORAL DE LA MAGDALENA, 3 ",
      "location": {
        "postalCode": "18002",
        "municipality": "Granada",
        "county": "Granada",
        "municipalityId": "087",
        "countyId": "18"
      },
      "economicActivities": [
        {
          "id": "1.453",
          "name": "Confección en serie de toda clase de prendas de vestir",
          "_links": {
            "self": {
              "name": "Confección en serie de toda clase de prendas de vestir",
              "href": "https://api.euskadi.eus/procurements/companies/economic-activities/1.453"
            }
          }
        },
        {
          "id": "1.651.1",
          "name": "Venta al por menor de productos textiles, de hogar, alfombras y similares",
          "_links": {
            "self": {
              "name": "Venta al por menor de productos textiles, de hogar, alfombras y similares",
              "href": "https://api.euskadi.eus/procurements/companies/economic-activities/1.651.1"
            }
          }
        },
        {
          "id": "1.651.2",
          "name": "Venta al por menor de prendas de ropa para el vestido y tocado",
          "_links": {
            "self": {
              "name": "Venta al por menor de prendas de ropa para el vestido y tocado",
              "href": "https://api.euskadi.eus/procurements/companies/economic-activities/1.651.2"
            }
          }
        },
        {
          "id": "1.651.5",
          "name": "Venta al por menor de prendas especiales",
          "_links": {
            "self": {
              "name": "Venta al por menor de prendas especiales",
              "href": "https://api.euskadi.eus/procurements/companies/economic-activities/1.651.5"
            }
          }
        }
      ],
      "certificateStartDate": "2000-11-02",
      "certificateEndDate": "2001-03-25",
      "object": " LA FABRICACIÓN, CONFECCIÓN, COMERCIALIZACIÓN Y VENTA DE TODO TIPO DE PRENDAS DE VESTIR, INCLUIDAS LAS PRENDAS DEPORTIVAS, CON TODO TIPO DE TEJIDOS, LOS ACCESORIOS Y COMPLEMENTOS",
      "mainEntityOfPage": "https://www.contratacion.euskadi.eus/webkpe00-kperoc/es/ac71aBusquedaRegistrosWar/empresa/02321",
      "_links": {
        "self": {
          "name": "EMILIO CARREÑO, S.L.",
          "href": "https://api.euskadi.eus/procurements/companies/02321"
        }
      }
    },
    {
      "name": "ELCOAR, S. COOP.",
      "registrationNumber": "00609",
      "identificationNumber": "F01042712",
      "address": "C/ HERACLIO ALFARO, Nº 8 - BAJO",
      "location": {
        "postalCode": "01002",
        "municipality": "Vitoria-Gasteiz",
        "county": "Araba/Álava",
        "municipalityId": "059",
        "countyId": "01"
      },
      "economicActivities": [
        {
          "id": "1.504.1",
          "name": "Instalaciones eléctricas en general",
          "_links": {
            "self": {
              "name": "Instalaciones eléctricas en general",
              "href": "https://api.euskadi.eus/procurements/companies/economic-activities/1.504.1"
            }
          }
        }
      ],
      "certificateStartDate": "2000-10-13",
      "certificateEndDate": "2001-03-28",
      "object": "REPARACIONES, INSTALACIONES Y MONTAJES ELÉCTRICOS EN GENERAL, EN BAJA TENSIÓN",
      "mainEntityOfPage": "https://www.contratacion.euskadi.eus/webkpe00-kperoc/es/ac71aBusquedaRegistrosWar/empresa/00609",
      "_links": {
        "self": {
          "name": "ELCOAR, S. COOP.",
          "href": "https://api.euskadi.eus/procurements/companies/00609"
        }
      }
    },
    {
      "name": "ZUTITU, S.L.",
      "registrationNumber": "02189",
      "identificationNumber": "B48675524",
      "address": "C/ PASEO CAMPO VOLANTÍN, Nº 10 - 1º.",
      "location": {
        "postalCode": "48007",
        "municipality": "Bilbao",
        "county": "Bizkaia",
        "municipalityId": "020",
        "countyId": "48"
      },
      "economicActivities": [
        {
          "id": "1.952",
          "name": "Asistencia y servicios sociales en centros no residenciales",
          "_links": {
            "self": {
              "name": "Asistencia y servicios sociales en centros no residenciales",
              "href": "https://api.euskadi.eus/procurements/companies/economic-activities/1.952"
            }
          }
        }
      ],
      "certificateStartDate": "2000-10-10",
      "certificateEndDate": "2001-04-04",
      "object": "EL TRATAMIENTO PSICOLÓGICO, (PSICOLOGÍA CLÍNICA).\r\n\r\nASÍMISMO LA SOCIEDAD PODRÁ ADQUIRIR, ENAJENAR Y ARRENDAR, TENER Y DISFRUTAR, BIENES INMUEBLES Y ACTIVOS Y EFECTOS FINANCIEROS, PERO SIEMPRE QUE NO IMPLIQUE LA INTERMEDIACIÓN EN OPERACIONES SOBRE TÍTULOS VALORES Y TAMBIÉN QUE NO SEAN NEGOCIOS ATRIBUIDOS A ENTIDADES SUJETAS A REGULACIÓN ESPECIAL, NI AQUELLOS OTROS REGIDOS POR LAS LEYES SOBRE MERCADO DE VALORES Y DE SOCIEDADES DE INVERSIÓN COLECTIVA",
      "mainEntityOfPage": "https://www.contratacion.euskadi.eus/webkpe00-kperoc/es/ac71aBusquedaRegistrosWar/empresa/02189",
      "_links": {
        "self": {
          "name": "ZUTITU, S.L.",
          "href": "https://api.euskadi.eus/procurements/companies/02189"
        }
      }
    },
    {
      "name": "REPRODUCCIONES L'ARTE, S.A.",
      "registrationNumber": "00687",
      "identificationNumber": "A01051002",
      "address": "C/ VENTA DE LA ESTRELLA, Nº 6. PABELLÓN: 102.",
      "location": {
        "postalCode": "01006",
        "municipality": "Vitoria-Gasteiz",
        "county": "Araba/Álava",
        "municipalityId": "059",
        "countyId": "01"
      },
      "economicActivities": [
        {
          "id": "1.475",
          "name": "Actividades anexas a las artes gráficas",
          "_links": {
            "self": {
              "name": "Actividades anexas a las artes gráficas",
              "href": "https://api.euskadi.eus/procurements/companies/economic-activities/1.475"
            }
          }
        }
      ],
      "certificateStartDate": "2000-09-29",
      "certificateEndDate": "2001-03-21",
      "object": "LA REPRODUCCIÓN DE TEXTOS O IMÁGENES DESTINADOS A LA IMPRESIÓN POR PROCEDIMIENTOS NORMALES, FOTOMECÁNICOS Y ELECTRÓNICOS",
      "mainEntityOfPage": "https://www.contratacion.euskadi.eus/webkpe00-kperoc/es/ac71aBusquedaRegistrosWar/empresa/00687",
      "_links": {
        "self": {
          "name": "REPRODUCCIONES L'ARTE, S.A.",
          "href": "https://api.euskadi.eus/procurements/companies/00687"
        }
      }
    },
    {
      "name": "ANTONIO GARCÍA DÍEZ (ANGARDI)",
      "registrationNumber": "00585",
      "identificationNumber": "14866583G",
      "address": "C/ AVENIDA ATEGORRIETA, Nº 25 - 7º.",
      "location": {
        "postalCode": "20013",
        "municipality": "Donostia / San Sebastián",
        "county": "Gipuzkoa",
        "municipalityId": "069",
        "countyId": "20"
      },
      "economicActivities": [
        {
          "id": "2.751",
          "name": "Profesionales de la publicidad, relaciones públicas y similares",
          "_links": {
            "self": {
              "name": "Profesionales de la publicidad, relaciones públicas y similares",
              "href": "https://api.euskadi.eus/procurements/companies/economic-activities/2.751"
            }
          }
        }
      ],
      "certificateStartDate": "2000-09-28",
      "certificateEndDate": "2001-03-25",
      "object": "SERVICIOS GENERALES DE PUBLICIDAD",
      "mainEntityOfPage": "https://www.contratacion.euskadi.eus/webkpe00-kperoc/es/ac71aBusquedaRegistrosWar/empresa/00585",
      "_links": {
        "self": {
          "name": "ANTONIO GARCÍA DÍEZ (ANGARDI)",
          "href": "https://api.euskadi.eus/procurements/companies/00585"
        }
      }
    },
    {
      "name": "ECOKIROL, S.L.",
      "registrationNumber": "01991",
      "identificationNumber": "B01262740",
      "address": "BARRATXI, Nº 17",
      "location": {
        "postalCode": "01013",
        "municipality": "Vitoria-Gasteiz",
        "county": "Araba/Álava",
        "municipalityId": "059",
        "countyId": "01"
      },
      "economicActivities": [
        {
          "id": "1.494.2",
          "name": "Fabricación de artículos de deporte",
          "_links": {
            "self": {
              "name": "Fabricación de artículos de deporte",
              "href": "https://api.euskadi.eus/procurements/companies/economic-activities/1.494.2"
            }
          }
        }
      ],
      "certificateStartDate": "2000-09-28",
      "certificateEndDate": "2001-02-22",
      "object": "\r\na) LA FABRICACIÓN, CONFECCIÓN COMERCIALIZACIÓN, REPRESENTACIÓN COMERCIAL, IMPORTACIÓN Y EXPORTACIÓN DE TODO TIPO DE PRENDAS DE VESTIR, INCLUIDAS LAS DEPORTIVAS E INDUSTRIALES.\r\nb) LA FABRICACIÓN, COMERCIALIZACIÓN, REPRESENTACIÓN COMERCIAL, IMPORTACIÓN Y EXPORTACIÓN DE TODO TIPO DE ELEMENTOS PARA EL DEPORTE, COMO PORTERÍAS, CANASTAS, SUELOS Y PAVIMENTOS, TANTO INDUSTRIALES COMO DEPORTIVOS, HIERBA SINTÉTICA O ARTIFICIAL PARA LA PRÁCTICA DE DEPORTES Y APARATOS DE GIMNASIA.\r\nc) LOS TRABAJOS DE CONSTRUCCIÓN, REPARACIÓN Y CONSERVACIÓN DE OBRAS PÚBLICAS Y PRIVADAS DE CUALQUIER CLASE; PROMOCIÓN, REPARCELACIÓN Y URBANIZACIÓN; COMPRA-VENTA Y ARRENDAMIENTO DE TERRENOS, EDIFICIOS, LONJAS Y APARTAMENTOS; LA GESTIÓN Y EJECUCIÓN DE TODO TIPO Y CLASE DE PROYECTOS DE URBANIZACIÓN Y PLANES URBANÍSTICOS, ASÍ COMO LA PROMOCIÓN Y CONSTRUCCIÓN DE TODO TIPO DE EDIFICACIONES Y DE OBRAS, TANTO PÚBLICAS COMO PRIVADAS, Y ARRENDAMIENTO DE UNAS Y OTRAS; OBRAS DE ABASTECIMIENTO Y SANEAMIENTO DE AGUAS; TRANSMISIÓN, EXPLOTACIÓN Y ARRENDAMIENTO DE TODO TIPO Y CLASE DE FINCAS, RÚSTICAS Y URBANAS, Y EN GENERAL, TODOS LOS TRABAJOS Y NEGOCIOS RELACIONADOS CON LA ACTIVIDAD URBANÍSTICA Y LA INDUSTRIA DE CONSTRUCCIÓN.\r\nd)  EL DISEÑO, DESARROLLO, IMPLANTACIÓN, EXPLOTACIÓN Y MANTENIMIENTO DE SISTEMAS Y EQUIPOS INFORMÁTICOS, TELEMÁTICOS Y OFIMÁTICOS O AUTOMÁTICOS PROPIOS O DE TERCEROS, Y LA CESIÓN DE DERECHOS SOBRE DICHOS EQUIPOS Y SISTEMAS, ASÍ COMO LA PRESTACIÓN DE SERVICIOS RELACIONADOS CON LOS MISMOS.\r\ne) LA PRESTACIÓN DE SERVICIOS DE CONSULTORÍA, ASESORAMIENTO Y GESTIÓN EMPRESARIAL.\r\nf) LA FORMACIÓN SOBRE EL USO DE ORDENADORES ASÍ COMO LA DE APLICACIONES INFORMÁTICAS EXISTENTES EN EL MERCADO",
      "mainEntityOfPage": "https://www.contratacion.euskadi.eus/webkpe00-kperoc/es/ac71aBusquedaRegistrosWar/empresa/01991",
      "_links": {
        "self": {
          "name": "ECOKIROL, S.L.",
          "href": "https://api.euskadi.eus/procurements/companies/01991"
        }
      }
    }
  ]
}