{
  "totalItems": 9042,
  "totalPages": 905,
  "currentPage": 557,
  "itemsOfPage": 10,
  "items": [
    {
      "name": "SOCIEDAD ESPAÑOLA DE MEDICINA DE FAMILIA Y COMUNITARIA",
      "registrationNumber": "07311",
      "identificationNumber": "G78829579",
      "address": "C/ Diputación. 320, bajo",
      "location": {
        "postalCode": "08009",
        "municipality": "Barcelona",
        "county": "Barcelona",
        "municipalityId": "019",
        "countyId": "08"
      },
      "economicActivities": [
        {
          "id": "1.659.4",
          "name": "Venta al por menor de libros, periódicos y artículos de papelería y escritorio",
          "_links": {
            "self": {
              "name": "Venta al por menor de libros, periódicos y artículos de papelería y escritorio",
              "href": "https://api.euskadi.eus/procurements/companies/economic-activities/1.659.4"
            }
          }
        },
        {
          "id": "1.999",
          "name": "Otros servicios n.c.o.p",
          "_links": {
            "self": {
              "name": "Otros servicios n.c.o.p",
              "href": "https://api.euskadi.eus/procurements/companies/economic-activities/1.999"
            }
          }
        }
      ],
      "certificateStartDate": "2020-10-19",
      "certificateEndDate": "2021-04-07",
      "object": "EL FOMENTO, EL DESARROLLO, LA PROMOCIÓN Y LA DIVULGACIÓN DE LA MEDICINA DE FAMILIA Y COMUNITARIA Y DE LA ATENCIÓN PRIMARIA, EN CUALQUIERA DE SUS ÁMBITOS O QUE CON ELLOS PUEDAN RELACIONARSE. ASIMISMO, CONSTITUYE EL OBJETO SOCIAL EL DESARROLLO PROFESIONAL DE SUS MIEMBROS Y DEL CONJUNTO DE LOS PROFESIONALES QUE TRABAJAN EN EL PRIMER NIVEL DE SALUD, REALIZADO EN COLABORACIÓN CON LAS ORGANIZACIONES SANITARIAS, POLÍTICAS, CIENTÍFICAS Y DOCENTES; LA DEFENSA DE LOS INTERESES PROFESIONALES DE SUS MIEMBROS; LA FORMACIÓN CONTINUA DE LOS MISMOS; EL DESARROLLO DE LA INVESTIGACIÓN EN EL ÁMBITO DE LA SALUD, Y LA PROMOCIÓN DE LA MEJORA DE LA SALUD DE LOS CIUDADANOS. LA SOCIEDAD ESPAÑOLA DE MEDICINA DE FAMILIA Y COMUNITARIA TIENE COMO FINALIDADES GENERALES: 1) PROMOCIONAR Y FOMENTAR EL PROGRESO DE LA MEDICINA DE FAMILIA Y COMUNITARIA COMO ESPECIALIDAD MÉDICA Y COMO DISCIPLINA ACADÉMICA. 2) DESARROLLAR Y DIVULGAR EL PERFIL PROFESIONAL DEL MÉDICO DE FAMILIA, SUS VALORES, SUS PRINCIPIOS Y SUS COMPETENCIAS. 3) MEJORAR LA CALIDAD DE LA ATENCIÓN PRIMARIA Y DE TODOS LOS ÁMBITOS PROFESIONALES DE LA MEDICINA DE FAMILIA Y COMUNITARIA, DANDO RESPUESTA A LAS NECESIDADES DE SALUD DE LOS CIUDADANOS, Y CON ESTE OBJETIVO, TRABAJAR PARA CONSTITUIRSE EN UN REFERENTE SOCIAL EN ESTOS ÁMBITOS. 4) PROMOCIONAR LA ATENCIÓN PRIMARIA DE SALUD COMO EL NIVEL ASISTENCIAL QUE REGULE, COORDINE Y COHESIONE EL SISTEMA SANITARIO EN TODO EL ESTADO ESPAÑOL. 5) CONSOLIDAR LA COMUNICACIÓN, LA PARTICIPACIÓN Y LA COLABORACIÓN, DESDE LA PERSPECTIVA DE LA COMPLEMENTARIEDAD, ENTRE LA SEMFYC Y LAS SOCIEDADES FEDERADAS Y SUS SOCIOS.6) FOMENTAR LA INTERACCIÓN ENTRE LOS MÉDICOS DE FAMILIA Y OTROS ESPECIALISTAS CON TODOS LOS SECTORES DE LA SOCIEDAD QUE CON ESTOS PUEDAN ESTAR RELACIONADOS, ASÍ COMO PROMOVER ACTIVIDADES DE APLICACIÓN COMUNITARIA DESTINADAS A MEJORAR LA SALUD DE LOS CIUDADANOS. 7) REPRESENTAR Y DEFENDER LOS INTERESES DE SUS MIEMBROS EN EL MARCO DE LAS LEYES Y ANTE LOS ORGANISMOS DE LAS ADMINISTRACIONES PÚBLICAS, SANITARIAS Y DOCENTES, Y ANTE OTROS ÓRGANOS O ENTIDADES, NACIONALES E INTERNACIONALES, PÚBLICOS O PRIVADOS. 8) SERVIR DE ÓRGANO INFORMATIVO CON RESPECTO A LAS FUNCIONES Y FINES DE LA ESPECIALIDAD; COLABORAR CON ENTIDADES PÚBLICAS O PRIVADAS MEDIANTE LA ELABORACIÓN DE ESTUDIOS, INFORMES, PROPUESTAS O SIMILARES. 9) PROCURAR LA RESOLUCIÓN DE CONFLICTOS ENTRE SUS MIEMBROS POR ASPECTOS RELACIONADOS CON LA DISCIPLINA Y DEFENDER LOS INTERESES DE LOS MIEMBROS EN SITUACIONES RELACIONADAS CON LA MISMA",
      "mainEntityOfPage": "https://www.contratacion.euskadi.eus/webkpe00-kperoc/es/ac71aBusquedaRegistrosWar/empresa/07311",
      "_links": {
        "self": {
          "name": "SOCIEDAD ESPAÑOLA DE MEDICINA DE FAMILIA Y COMUNITARIA",
          "href": "https://api.euskadi.eus/procurements/companies/07311"
        }
      }
    },
    {
      "name": "EPTISA TECNOLOGÍAS DE LA INFORMACIÓN, S.A.",
      "registrationNumber": "02910",
      "identificationNumber": "A79851341",
      "address": "C/EMILIO MUÑOZ Nº 35",
      "location": {
        "postalCode": "28037",
        "municipality": "Madrid",
        "county": "Madrid",
        "municipalityId": "079",
        "countyId": "28"
      },
      "economicActivities": [
        {
          "id": "1.845",
          "name": "Explotación electrónica por cuenta de terceros",
          "_links": {
            "self": {
              "name": "Explotación electrónica por cuenta de terceros",
              "href": "https://api.euskadi.eus/procurements/companies/economic-activities/1.845"
            }
          }
        }
      ],
      "certificateStartDate": "2020-10-16",
      "certificateEndDate": "2021-03-07",
      "object": "A.) CONSULTORÍA, DESARROLLO, INSTALACIÓN, COMERCIALIZACIÓN, DISTRIBUCIÓN, SUMINISTRO Y EXPLOTACIÓN DE BIENES, DERECHOS Y SERVICIOS INFORMÁTICOS (HARDWARE Y SOFWARE); TANTO PROPIOS COMO CEDIDOS POR TERCEROS. B.) CONSULTORÍA Y DESARROLLO DE SISTEMAS DE INFORMACIÓN PARA EL TRATAMIENTO DE INFORMACIÓN GEOGRÁFICA Y CARTOGRÁFICA CATASTRAL, CON UTILIDADES DE GESTIÓN DIRECTA O DERIVADA. C.) LA INVESTIGACIÓN Y APLICACIÓN DE NUEVAS TECNOLOGÍAS DE LA INFORMACIÓN, EN LAS ÁREAS ANTES MENCIONADAS. D.) LA PRODUCCIÓN, COMERCIALIZACIÓN Y VENTA DE LOS DESARROLLOS Y APLICACIONES CITADAS. E) EL SOPORTE, ASISTENCIA TÉCNICA, MANTENIMIENTO Y FORMACIÓN RELATIVOS TANTO A LA MATERIA TÉCNICA COMO A LOS PRODUCTOS SOFWARE DESARROLLADOS. F.) EL ASESORAMIENTO A ORGANISMOS PÚBLICOS Y PRIVADOS EN MATERIA DE TECNOLOGÍA DE TRATAMIENTO Y PRODUCCIÓN DE CARTOGRAFÍA NUMERIZADA",
      "mainEntityOfPage": "https://www.contratacion.euskadi.eus/webkpe00-kperoc/es/ac71aBusquedaRegistrosWar/empresa/02910",
      "_links": {
        "self": {
          "name": "EPTISA TECNOLOGÍAS DE LA INFORMACIÓN, S.A.",
          "href": "https://api.euskadi.eus/procurements/companies/02910"
        }
      }
    },
    {
      "name": "KENKO GLOVES, S.L.",
      "registrationNumber": "07305",
      "identificationNumber": "B95922514",
      "address": "Bº EITUA 10 C PABELLON INDUSTRIAL 1º PLANTA LETRA A",
      "location": {
        "postalCode": "48240",
        "municipality": "Berriz",
        "county": "Bizkaia",
        "municipalityId": "019",
        "countyId": "48"
      },
      "economicActivities": [
        {
          "id": "1.439.9",
          "name": "Otras industrias textiles n.c.o.p",
          "_links": {
            "self": {
              "name": "Otras industrias textiles n.c.o.p",
              "href": "https://api.euskadi.eus/procurements/companies/economic-activities/1.439.9"
            }
          }
        }
      ],
      "certificateStartDate": "2020-10-16",
      "certificateEndDate": "2021-04-05",
      "object": "FABRICACIÓN DE GUANTES TEXTILES Y DEMÁS PRODUCTOS TEXTILES DESTINADOS A LA PROTECCIÓN LABORAL CNAE: 1399. FORMAN TAMBIÉN PARTE DEL OBJETO SOCIAL, LAS SIGUIENTES ACTIVIDADES: COMERCIALIZACIÓN, DISTRIBUCIÓN Y FABRICACIÓN DE EQUIPOS DE PROTECCIÓN INDIVIDUAL EN EL ÁMBITO LABORAL",
      "mainEntityOfPage": "https://www.contratacion.euskadi.eus/webkpe00-kperoc/es/ac71aBusquedaRegistrosWar/empresa/07305",
      "_links": {
        "self": {
          "name": "KENKO GLOVES, S.L.",
          "href": "https://api.euskadi.eus/procurements/companies/07305"
        }
      }
    },
    {
      "name": "TERRITORIO Y CIUDAD, S. L.",
      "registrationNumber": "07297",
      "identificationNumber": "B11712015",
      "address": "Santo Domingo 7 duplicado",
      "location": {
        "postalCode": "11402",
        "municipality": "Jerez de la Frontera",
        "county": "Cádiz",
        "municipalityId": "020",
        "countyId": "11"
      },
      "economicActivities": [
        {
          "id": "1.843.2",
          "name": "Servicios técnicos de arquitectura y urbanismo",
          "_links": {
            "self": {
              "name": "Servicios técnicos de arquitectura y urbanismo",
              "href": "https://api.euskadi.eus/procurements/companies/economic-activities/1.843.2"
            }
          }
        }
      ],
      "certificateStartDate": "2020-10-15",
      "certificateEndDate": "2021-03-25",
      "object": "A) LA EJECUCIÓN DE SERVICIOS TÉCNICOS Y JURÍDICOS RELACIONADOS CON LOS INSTRUMENTOS DE PLANIFICACIÓN, GESTIÓN Y EJECUCIÓN DE LA ORDENACIÓN DEL TERRITORIO Y URBANÍSTICA. B) EL ANÁLISIS MEDIOAMBIENTAL, INFRAESTRUCTURAL, DE ACCESIBILIDAD Y MOVILIDAD, ASÍ COMO VALORACIÓN ESTRATÉGICA DE LAS ACTUACIONES EN EL TERRITORIO. C) LAS INTERVENCIONES PROFESIONALES EN EDIFICACIÓN Y URBANIZACIÓN. D) EL ASESORAMIENTO TÉCNICO Y JURÍDICO EN LA GESTIÓN URBANÍSTICA Y TERRITORIAL DE LAS ADMINISTRACIONES PÚBLICAS Y DE LOS PARTICULARES, INCLUIDA LA EMISIÓN DE INFORMES, DICTÁMENES, PERITAJES, SUGERENCIAS, ALEGACIONES, ESTUDIOS DE VIABILIDAD, PLANES, PROYECTOS, ASÍ COMO LA FORMULACIÓN Y DIRECCIÓN DE RECURSOS ADMINISTRATIVOS Y JUDICIALES, Y, E) EN GENERAL, TODAS LAS ACTUACIONES PROFESIONALES RELACIONADAS CON LA ARQUITECTURA, ARQUITECTURA TÉCNICA Y LA ABOGACÍA",
      "mainEntityOfPage": "https://www.contratacion.euskadi.eus/webkpe00-kperoc/es/ac71aBusquedaRegistrosWar/empresa/07297",
      "_links": {
        "self": {
          "name": "TERRITORIO Y CIUDAD, S. L.",
          "href": "https://api.euskadi.eus/procurements/companies/07297"
        }
      }
    },
    {
      "name": "FRANCISCO CHINER, S.L.",
      "registrationNumber": "05523",
      "identificationNumber": "B96558499",
      "address": "POL. IND. LA TARONJA. C/ La Taronja, nº 5 A",
      "location": {
        "postalCode": "46210",
        "municipality": "Picanya",
        "county": "Valencia/València",
        "municipalityId": "193",
        "countyId": "46"
      },
      "economicActivities": [
        {
          "id": "1.392.1",
          "name": "Fabricación de material médico-quirúrgico",
          "_links": {
            "self": {
              "name": "Fabricación de material médico-quirúrgico",
              "href": "https://api.euskadi.eus/procurements/companies/economic-activities/1.392.1"
            }
          }
        }
      ],
      "certificateStartDate": "2020-10-14",
      "certificateEndDate": "2021-04-14",
      "object": "LA FABRICACIÓN DE MATERIAL MÉDICO-QUIRÚRGICO",
      "mainEntityOfPage": "https://www.contratacion.euskadi.eus/webkpe00-kperoc/es/ac71aBusquedaRegistrosWar/empresa/05523",
      "_links": {
        "self": {
          "name": "FRANCISCO CHINER, S.L.",
          "href": "https://api.euskadi.eus/procurements/companies/05523"
        }
      }
    },
    {
      "name": "ISIDRO LASKIBAR ZABALA",
      "registrationNumber": "06266",
      "identificationNumber": "15998517Q",
      "address": "Santa Marina 8-4",
      "location": {
        "postalCode": "20800",
        "municipality": "Zarautz",
        "county": "Gipuzkoa",
        "municipalityId": "079",
        "countyId": "20"
      },
      "economicActivities": [
        {
          "id": "1.979.9",
          "name": "Otros servicios personales n.c.o.p",
          "_links": {
            "self": {
              "name": "Otros servicios personales n.c.o.p",
              "href": "https://api.euskadi.eus/procurements/companies/economic-activities/1.979.9"
            }
          }
        }
      ],
      "certificateStartDate": "2020-10-14",
      "certificateEndDate": "2021-04-14",
      "object": "OTROS SERVICIOS PERSONALES\r\n",
      "mainEntityOfPage": "https://www.contratacion.euskadi.eus/webkpe00-kperoc/es/ac71aBusquedaRegistrosWar/empresa/06266",
      "_links": {
        "self": {
          "name": "ISIDRO LASKIBAR ZABALA",
          "href": "https://api.euskadi.eus/procurements/companies/06266"
        }
      }
    },
    {
      "name": "XPERT UNIDAD TÉCNICA DE PROTECCIÓN RADIOLÓGICA, S.L.",
      "registrationNumber": "07298",
      "identificationNumber": "B15518830",
      "address": "c/ Industrial, 1- Entreplanta, Local 4",
      "location": {
        "postalCode": "15005",
        "municipality": "Coruña, A",
        "county": "Coruña, A",
        "municipalityId": "030",
        "countyId": "15"
      },
      "economicActivities": [
        {
          "id": "1.653.2",
          "name": "Venta al por menor de material y aparatos eléctricos, electrodomésticos y cocina",
          "_links": {
            "self": {
              "name": "Venta al por menor de material y aparatos eléctricos, electrodomésticos y cocina",
              "href": "https://api.euskadi.eus/procurements/companies/economic-activities/1.653.2"
            }
          }
        },
        {
          "id": "1.843.9",
          "name": "Otros servicios técnicos n.c.o.p",
          "_links": {
            "self": {
              "name": "Otros servicios técnicos n.c.o.p",
              "href": "https://api.euskadi.eus/procurements/companies/economic-activities/1.843.9"
            }
          }
        },
        {
          "id": "1.932.1",
          "name": "Enseñanza de formación y perfeccionamiento profesional no superior",
          "_links": {
            "self": {
              "name": "Enseñanza de formación y perfeccionamiento profesional no superior",
              "href": "https://api.euskadi.eus/procurements/companies/economic-activities/1.932.1"
            }
          }
        }
      ],
      "certificateStartDate": "2020-10-14",
      "certificateEndDate": "2021-03-18",
      "object": "LA PRESTACIÓN DE LOS SERVICIOS PROPIOS DE UNA UNIDAD TÉCNICA DE PROTECCIÓN RADIOLÓGICA (U.T.P.R.), EFECTUANDO REVISIONES DE APARATOS DE RAYOS X, EL ASESORAMIENTO, MEDICIÓN Y FORMACIÓN DE TODO TIPO DE RADIACIÓN ELECTROMAGNÉTICA Y EQUIPAMIENTO DE ELECTROMEDICINA, EL COMERCIO AL POR MAYOR Y MENOR DE TODO TIPO DE DISPOSITIVOS DE TELEFONÍA MÓVIL, LA DISTRIBUCCIÓN, VENTA, EXPORTACIÓN E IMPORTACIÓN DE ARTÍCULOS ELECTRÓNICOS E INFORMÁTICOS, ASÍ COMO SUS ACCESORIOS Y RESTO DE COMPONENTES.",
      "mainEntityOfPage": "https://www.contratacion.euskadi.eus/webkpe00-kperoc/es/ac71aBusquedaRegistrosWar/empresa/07298",
      "_links": {
        "self": {
          "name": "XPERT UNIDAD TÉCNICA DE PROTECCIÓN RADIOLÓGICA, S.L.",
          "href": "https://api.euskadi.eus/procurements/companies/07298"
        }
      }
    },
    {
      "name": "PROYECTOS E INSTALACIÓN DE MATERIAL URBANO S.A.U.",
      "registrationNumber": "07299",
      "identificationNumber": "A33754870",
      "address": "Avda. Los Campones, 266",
      "location": {
        "postalCode": "33211",
        "municipality": "Gijón",
        "county": "Asturias",
        "municipalityId": "024",
        "countyId": "33"
      },
      "economicActivities": [
        {
          "id": "1.314.1",
          "name": "Carpintería metálica",
          "_links": {
            "self": {
              "name": "Carpintería metálica",
              "href": "https://api.euskadi.eus/procurements/companies/economic-activities/1.314.1"
            }
          }
        },
        {
          "id": "1.505.5",
          "name": "Carpintería y cerrajería",
          "_links": {
            "self": {
              "name": "Carpintería y cerrajería",
              "href": "https://api.euskadi.eus/procurements/companies/economic-activities/1.505.5"
            }
          }
        }
      ],
      "certificateStartDate": "2020-10-14",
      "certificateEndDate": "2021-03-03",
      "object": "A.- DISEÑO Y DESARROLLO DE MODELOS Y PATENTES EN ESTRUCTURAS METÁLICAS, ELEMENTOS DE SERVICIO PÚBLICO Y MATERIAL URBANO PARA SU EXPLOTACIÓN PROPIA O POR TERCEROS. B.- CESIÓN Y EXPLOTACIÓN DELICENCIAS DE DISEÑO Y PROPIEDAD INTELECTUAL. C.-PRESTACIÓN DE SERVICIOS DE INTERMEDIACIÓN POR LOS CORRESPONDIENTES  PROFESIONALES EN EL ÁMBITO DE LA ARQUITECTURA, ASISTENCIA TÉCNICA, INGENIERÍA Y SERVICIOS D ENATURALEZA TÉCNICA. D.- PRESTACIÓN DE SERVICIOS DE INTERMEDIACIÓN POR LOS CORRESPONDIENTES  PROFESIONALES EN EL ÁMBITO DE LA ELABORACIÓN DE PROYECTOS, EJECUCIÓN Y DIRECCIÓN DE OBRAS DE ARQUITECTURA, ARQUITECTURA MODULAR, EQUIPAMIENTOS PÚBLICOS, PAISAJISMO Y MOBILIARIO URBANO. E.- PRODUCCIÓN Y CONSTRUCCIÓN DE ESTRUCTURAS METÁLICAS, MATERIAL METÁLICO DE CONSTRUCCIÓN, EQUIPAMIENTOS DE SERVICIOS PÚBLICOS Y ELEMENTOS DE MATERIAL URBANO. F.- COMERCIALIZACIÓN DE ESTRUCTURAS METÁLICAS, ,MATERIAL METÁLICO DE CONSTRUCCIÓN, EQUIPAMIENTOS DE SERVICIOS PÚBLICOS Y ELEMENTOS DE MATERIAL URBANO EN RÉGIMEN DE VENTA, ALQUILER, ARRENDAMIENTO FINANCIERO U OTRAS FÓRMULAS SUJETAS A LEY. G.- CONSERVACIÓN MANTENIMIENTO INDUSTRIAL DE ESTRUCTURAS METÁLICAS, ,MATERIAL METÁLICO DE CONSTRUCCIÓN, EQUIPAMIENTOS DE SERVICIOS PÚBLICOS Y ELEMENTOS DE MATERIAL URBANO. H.-PRODUCCIÓN, COMERCIALIZACIÓN, EXPLOTACIÓN DE ELEMENTOS DE PUBLICIDAD ESTÁTICA, DINÁMICOS, ELECTRÓNICOS O AUDIOVISUALES EN RÉGIMEN DE VENTA, ALQUILER, ARRENDAMIENTO FINANCIERO U OTRAS FÓRMULAS SUJETAS A LEY. I.-MANTENIMIENTO Y REPARACIÓN DE INSTALACIONES Y EQUIPOS ELÉCTRICOS Y ELECTRÓNICOS. J.- SERVICIOS DE LIMPIEZA DE MOBILIARIO URBANO Y DE ESPACIOS PÚBLICOS Y PRIVADOS. K.- EXPLOTACIÓN Y PRESTACIÓN DE SERVICIOS PUBLICITARIOS\r\n",
      "mainEntityOfPage": "https://www.contratacion.euskadi.eus/webkpe00-kperoc/es/ac71aBusquedaRegistrosWar/empresa/07299",
      "_links": {
        "self": {
          "name": "PROYECTOS E INSTALACIÓN DE MATERIAL URBANO S.A.U.",
          "href": "https://api.euskadi.eus/procurements/companies/07299"
        }
      }
    },
    {
      "name": "CENTRO DE ENSAYOS Y ANÁLISIS CETEST. SL.",
      "registrationNumber": "07301",
      "identificationNumber": "B20960738",
      "address": "Lazkaibar s/n, Edificio CETEST",
      "location": {
        "postalCode": "20200",
        "municipality": "Beasain",
        "county": "Gipuzkoa",
        "municipalityId": "019",
        "countyId": "20"
      },
      "economicActivities": [
        {
          "id": "1.843.1",
          "name": "Servicios técnicos de ingeniería",
          "_links": {
            "self": {
              "name": "Servicios técnicos de ingeniería",
              "href": "https://api.euskadi.eus/procurements/companies/economic-activities/1.843.1"
            }
          }
        }
      ],
      "certificateStartDate": "2020-10-14",
      "certificateEndDate": "2021-02-24",
      "object": "ESTUDIOS TEÓRICOS DE LOS FUNDAMENTOS SUBYACENTES DE LOS FENÓMENOS Y HECHOS OBSERVABLES EN EL SECTOR FERROVIARIO Y CONEXOS, E INVESTIGACIÓN ENCAMINADA A ADQUIRIR NUEVOS CONOCIMIENTOS PARA EL DESARROLLO DE NUEVOS PRODUCTOS, PROCESOS O SERVICIOS O MEJORA DE LOS YA EXISTENTES, ASÍ COMO LA DIFUSIÓN DE DICHOS ESTUDIOS Y RESULTADOS DE LAS INVESTIGACIONES. DEFINICIÓN Y EJECUCIÓN DE ENSAYOS PARA LA VERIFICACIÓN, VALIDACIÓN Y HOMOLOGACIÓN DEL DISEÑO, MEDIANTE EL ANÁLISIS TEÓRICO Y/O EXPERIMENTAL, ASÍ COMO LA REALIZACIÓN DE SERVICIOS DE ASESORAMIENTO, CERTIFICACIÓN, CONSULTORÍA E INGENIERÍA SOBRE DISEÑOS ESPECÍFICOS",
      "mainEntityOfPage": "https://www.contratacion.euskadi.eus/webkpe00-kperoc/es/ac71aBusquedaRegistrosWar/empresa/07301",
      "_links": {
        "self": {
          "name": "CENTRO DE ENSAYOS Y ANÁLISIS CETEST. SL.",
          "href": "https://api.euskadi.eus/procurements/companies/07301"
        }
      }
    },
    {
      "name": "PABLO JOSE CARRETÓN GIL",
      "registrationNumber": "07291",
      "identificationNumber": "16235281H",
      "address": "San Antonio 13 1ºizq",
      "location": {
        "postalCode": "01005",
        "municipality": "Vitoria-Gasteiz",
        "county": "Araba/Álava",
        "municipalityId": "059",
        "countyId": "01"
      },
      "economicActivities": [
        {
          "id": "2.411",
          "name": "Arquitectos",
          "_links": {
            "self": {
              "name": "Arquitectos",
              "href": "https://api.euskadi.eus/procurements/companies/economic-activities/2.411"
            }
          }
        }
      ],
      "certificateStartDate": "2020-10-13",
      "certificateEndDate": "2021-03-16",
      "object": "ARQUITECTOS",
      "mainEntityOfPage": "https://www.contratacion.euskadi.eus/webkpe00-kperoc/es/ac71aBusquedaRegistrosWar/empresa/07291",
      "_links": {
        "self": {
          "name": "PABLO JOSE CARRETÓN GIL",
          "href": "https://api.euskadi.eus/procurements/companies/07291"
        }
      }
    }
  ]
}