{
  "totalItems": 9042,
  "totalPages": 905,
  "currentPage": 122,
  "itemsOfPage": 10,
  "items": [
    {
      "name": "AUDIOVISUALES EXTREMIANA, S.L.",
      "registrationNumber": "02010",
      "identificationNumber": "B48967921",
      "address": "POLIGONO UGALDEGUREN 3, NAVE 26-1",
      "location": {
        "postalCode": "48170",
        "municipality": "Zamudio",
        "county": "Bizkaia",
        "municipalityId": "905",
        "countyId": "48"
      },
      "economicActivities": [
        {
          "id": "1.615.4",
          "name": "Venta al por mayor de aparatos y material radioeléctrico y electrónico",
          "_links": {
            "self": {
              "name": "Venta al por mayor de aparatos y material radioeléctrico y electrónico",
              "href": "https://api.euskadi.eus/procurements/companies/economic-activities/1.615.4"
            }
          }
        },
        {
          "id": "1.859",
          "name": "Alquiler de otros bienes muebles n.c.o.p. (sin personal permanente)",
          "_links": {
            "self": {
              "name": "Alquiler de otros bienes muebles n.c.o.p. (sin personal permanente)",
              "href": "https://api.euskadi.eus/procurements/companies/economic-activities/1.859"
            }
          }
        }
      ],
      "certificateStartDate": "2025-12-10",
      "certificateEndDate": "2026-05-17",
      "object": "a) EL DESARROLLO DE TODAS AQUELLAS ACTIVIDADES QUE, DIRECTA O INDIRECTAMENTE, SE RELACIONAN CON EL CINE, EL VÍDEO, LA INFORMÁTICA, LA TELEVISIÓN Y EN GENERAL CON TODOS AQUELLOS MEDIOS QUE, ACTUALMENTE O EN EL FUTURO TENGAN POR OBJETO LA REPRODUCCIÓN DE IMÁGENES Y/O SONIDO, CUALQUIERA QUE SEA LA FINALIDAD DE LAS MISMAS; LA PRODUCCIÓN, COMPRA, VENTA, IMPORTACIÓN, EXPORTACIÓN, ALMACENAMIENTO, FABRICACIÓN Y COMERCIALIZACIÓN DE TODA CLASE DE APARATOS, ACCESORIOS, COMPLEMENTOS O BIENES QUE CON AQUELLAS ACTIVIDADES SE RELACIONEN, INCLUIDA SU REPARACIÓN, MANTENIMIENTO, \"LEASING\" O ARRENDAMIENTO; LA PRESTACIÓN DE ASISTENCIA TÉCNICA O DE CUALQUIER OTRA NATURALEZA EN RELACIÓN CON LAS ACTIVIDADES PROPIAS DE ESTE OBJETO; LA EXPLOTACIÓN DE PATENTES Y DEMÁS DERECHOS O PRIVILEGIOS COMPRENDIDOS EN EL ESTATUTO DE LA PROPIEDAD INDUSTRIAL, ASÍ COMO LA EXPLOTACIÓN DE MÉTODOS O PROCEDIMIENTOS DE TRABAJOS INDUSTRIALES O COMERCIALES.\r\n\r\nb) LA COMPRA, VENTA, IMPORTACIÓN, EXPORTACIÓN, DISTRIBUCIÓN, ALMACENAMIENTO, FABRICACIÓN, COMERCIALIZACIÓN, INVESTIGACIÓN, INGENIERÍA, DISEÑO, DESARROLLO, INTEGRACIÓN, REALIZACIÓN, INSTALACIÓN, GARANTÍA, MANTENIMIENTO, REPARACIÓN Y PRESTACIÓN DE SERVICIOS DE PROYECTOS DE INGENIERÍA DE SISTEMAS ELECTRÓNICOS E INFORMÁTICOS; APLICACIONES DE SISTEMAS DE ELECTRÓNICA E INFORMÁTICA; PROYECTOS RELACIONADOS CON EL SISTEMA DE CONTROL EN TIEMPO REAL, YA SEA TERRESTRE, MARÍTIMO O AÉREO; PROYECTOS DE SISTEMAS DE CONTROL RELACIONADOS EN COMPLEJOS HIDROELÉCTRICOS, PETROQUÍMICOS, ENERGÉTICOS E INDUSTRIALES EN GENERAL Y DE CUALQUIER CLASE; PROYECTOS RELACIONADOS CON LA ROBÓTICA Y AUTOMATIZACIÓN INDUSTRIAL, SISTEMAS DE ENSAYOS DE MOTORES Y RACIONALIZACIÓN DE LA PRODUCCIÓN; SISTEMAS Y PRODUCTOS REFERIDOS AL DISEÑO Y FABRICACIÓN ASISTIDA POR ORDENADOR; PROYECTOS Y SISTEMAS DE SIMULACIÓN, PRESENTACIÓN DE DATOS, INFORMACIÓN E IMÁGENES; VALOR AÑADIDO INFORMÁTICOS Y DE TELECOMUNICACIONES.\r\n\r\nc) LA PRESTACIÓN Y EXPLOTACIÓN DE TODA CLASE DE SERVICIOS PÚBLICOS O PRIVADOS DE TELECOMUNICACIÓN, Y A TAL EFECTO, EL DISEÑO, INSTALACIÓN, CONSERVACIÓN, REFACCIÓN, MEJORA, ADQUISICIÓN, ENAJENACIÓN, INTERCONEXIÓN, GESTIÓN, ADMINISTRACIÓN Y CUALQUIER OTRA ACTIVIDAD RESPECTO DE TODA CLASE DE REDES, LÍNEAS, SATÉLITES, EQUIPOS, SISTEMAS E INFRAESTRUCTURAS TÉCNICAS, ACTUALES O FUTURAS DE TELECOMUNICACIÓN; LA PRESTACIÓN Y EXPLOTACIÓN DE TODA CLASE DE SERVICIOS AUXILIARES O COMPLEMENTARIOS DERIVADOS DE LA TELECOMUNICACIÓN; LA INVESTIGACIÓN Y DESARROLLO, PROMOCIÓN Y APLICACIÓN DE TODA CLASE DE PRINCIPIOS COMPONENTES, EQUIPOS, Y SISTEMAS UTILIZADOS DIRECTA O INDIRECTAMENTE PARA LAS TELECOMUNICACIONES; LA FABRICACIÓN O PRODUCCIÓN, Y EN GENERAL, LAS DEMÁS FORMAS DE ACTIVIDAD INDUSTRIAL RELACIONADAS CON LAS TELECOMUNICACIONES",
      "mainEntityOfPage": "https://www.contratacion.euskadi.eus/webkpe00-kperoc/es/ac71aBusquedaRegistrosWar/empresa/02010",
      "_links": {
        "self": {
          "name": "AUDIOVISUALES EXTREMIANA, S.L.",
          "href": "https://api.euskadi.eus/procurements/companies/02010"
        }
      }
    },
    {
      "name": "NERAIKER MOBILIARIO DE OFICINA",
      "registrationNumber": "05833",
      "identificationNumber": "B95386785",
      "address": "FRANCISCO MACIA 7",
      "location": {
        "postalCode": "48014",
        "municipality": "Bilbao",
        "county": "Bizkaia",
        "municipalityId": "020",
        "countyId": "48"
      },
      "economicActivities": [
        {
          "id": "1.659.2",
          "name": "Venta al por menor de muebles de oficina y máquinas y equipos de oficina",
          "_links": {
            "self": {
              "name": "Venta al por menor de muebles de oficina y máquinas y equipos de oficina",
              "href": "https://api.euskadi.eus/procurements/companies/economic-activities/1.659.2"
            }
          }
        }
      ],
      "certificateStartDate": "2025-12-10",
      "certificateEndDate": "2026-06-04",
      "object": "LA COMPRAVENTA, INCLUSO IMPORTACION Y EXPORTACION, DE TODO TIPO DE MUEBLES DE OFICINA, MOBILIARIO PARA CASA O PARA LOCALES CORMECIALES, BARES O RESTAURANTES. LA REPARACIÓN Y MANTENIMIENTO DE DICHOS MUEBLES. FABRICACIÓN Y COLOCACIÓN DE MAMPARAS DE TODO TIPO DE MATERIALES. LA COMPRAVENTA DE MAQUINARIA DE OFICINA, INCLUSO IMPORTACIÓN Y EXPORTACIÓN, ASÍ COMO SUS REPUESTOS, REPARACIONES Y MANTENIMIENTO",
      "mainEntityOfPage": "https://www.contratacion.euskadi.eus/webkpe00-kperoc/es/ac71aBusquedaRegistrosWar/empresa/05833",
      "_links": {
        "self": {
          "name": "NERAIKER MOBILIARIO DE OFICINA",
          "href": "https://api.euskadi.eus/procurements/companies/05833"
        }
      }
    },
    {
      "name": "AIARTEC SERVICIOS INDUSTRIALES 2019, S.L.",
      "registrationNumber": "07513",
      "identificationNumber": "B01577410",
      "address": "POLIGONO INDUSTRIALDEAL LAUDIOKO Nº2-3",
      "location": {
        "postalCode": "01400",
        "municipality": "Laudio/Llodio",
        "county": "Araba/Álava",
        "municipalityId": "036",
        "countyId": "01"
      },
      "economicActivities": [
        {
          "id": "1.504.1",
          "name": "Instalaciones eléctricas en general",
          "_links": {
            "self": {
              "name": "Instalaciones eléctricas en general",
              "href": "https://api.euskadi.eus/procurements/companies/economic-activities/1.504.1"
            }
          }
        }
      ],
      "certificateStartDate": "2025-12-10",
      "certificateEndDate": "2026-06-03",
      "object": "LAS INSTALACIONES ELÉCTRICAS, EL MANTENIMIENTO ELÉCTRICO Y LOS SERVICIOS INDUSTRIALES",
      "mainEntityOfPage": "https://www.contratacion.euskadi.eus/webkpe00-kperoc/es/ac71aBusquedaRegistrosWar/empresa/07513",
      "_links": {
        "self": {
          "name": "AIARTEC SERVICIOS INDUSTRIALES 2019, S.L.",
          "href": "https://api.euskadi.eus/procurements/companies/07513"
        }
      }
    },
    {
      "name": "SADEKOSA, S.A.",
      "registrationNumber": "01775",
      "identificationNumber": "A48127229",
      "address": "MAZUSTEGUI, 21-23 LONJAS TRASERAS",
      "location": {
        "postalCode": "48006",
        "municipality": "Bilbao",
        "county": "Bizkaia",
        "municipalityId": "020",
        "countyId": "48"
      },
      "economicActivities": [
        {
          "id": "1.505.4",
          "name": "Colocación y aislamiento fónicos, térmicos y acústicos",
          "_links": {
            "self": {
              "name": "Colocación y aislamiento fónicos, térmicos y acústicos",
              "href": "https://api.euskadi.eus/procurements/companies/economic-activities/1.505.4"
            }
          }
        }
      ],
      "certificateStartDate": "2025-12-10",
      "certificateEndDate": "2026-06-02",
      "object": "LA FABRICACIÓN, COMPRA, VENTA Y COMERCIALIZACIÓN DE TODA CLASE DE MATERIALES PARA LA CONSTRUCCIÓN. LA PROMOCIÓN Y EJECUCIÓN COMPLETA O POR RAMOS, DE OBRAS DE CONSTRUCCIÓN, URBANIZACIÓN Y SERVICIOS; REPARACIÓN Y CONSERVACIÓN POR CUENTA PROPIA O AJENA, INCLUSO DE VIVIENDAS Y LOCALES COMERCIALES, LIBRES O DE LAS LLAMADAS DE PROTECCIÓN OFICIAL",
      "mainEntityOfPage": "https://www.contratacion.euskadi.eus/webkpe00-kperoc/es/ac71aBusquedaRegistrosWar/empresa/01775",
      "_links": {
        "self": {
          "name": "SADEKOSA, S.A.",
          "href": "https://api.euskadi.eus/procurements/companies/01775"
        }
      }
    },
    {
      "name": "ZERTIA TELECOMUNICACIONES, S.L.",
      "registrationNumber": "10248",
      "identificationNumber": "B84458140",
      "address": "Calle de la Granja, 30",
      "location": {
        "postalCode": "28108",
        "municipality": "Alcobendas",
        "county": "Madrid",
        "municipalityId": "006",
        "countyId": "28"
      },
      "economicActivities": [
        {
          "id": "1.769",
          "name": "Otros servicios de telecomunicaciones",
          "_links": {
            "self": {
              "name": "Otros servicios de telecomunicaciones",
              "href": "https://api.euskadi.eus/procurements/companies/economic-activities/1.769"
            }
          }
        }
      ],
      "certificateStartDate": "2025-12-10",
      "certificateEndDate": "2026-06-08",
      "object": "A) .- PRESTACIÓN, COMERCIALIZACIÓN, INSTALACIÓN Y VENTA EN DESARROLLOS DE SOLUCIÓN EN LOS DE SERVICIOS DE TELECOMUNICACIONES E INFORMÁTICA, TANTO DE VOZ COMO DATOS, A TODO TIPO DE EMPRESAS. B) .- Y LA ADQUISICIÓN, EXPLOTACIÓN Y ENAJENACIÓN DE BIENES INMUEBLES.",
      "mainEntityOfPage": "https://www.contratacion.euskadi.eus/webkpe00-kperoc/es/ac71aBusquedaRegistrosWar/empresa/10248",
      "_links": {
        "self": {
          "name": "ZERTIA TELECOMUNICACIONES, S.L.",
          "href": "https://api.euskadi.eus/procurements/companies/10248"
        }
      }
    },
    {
      "name": "EXOLA 2007, S.L.",
      "registrationNumber": "10247",
      "identificationNumber": "B20930574",
      "address": "Calle Lavanderas",
      "location": {
        "postalCode": "20303",
        "municipality": "Irun",
        "county": "Gipuzkoa",
        "municipalityId": "045",
        "countyId": "20"
      },
      "economicActivities": [
        {
          "id": "1.501.3",
          "name": "Albañilería y pequeños trabajos de construcción en general",
          "_links": {
            "self": {
              "name": "Albañilería y pequeños trabajos de construcción en general",
              "href": "https://api.euskadi.eus/procurements/companies/economic-activities/1.501.3"
            }
          }
        }
      ],
      "certificateStartDate": "2025-12-10",
      "certificateEndDate": "2026-06-08",
      "object": "TODO TIPO DE TRABAJOS DE ALBAÑILERÍA Y CONSTRUCCIÓN EN GENERAL.",
      "mainEntityOfPage": "https://www.contratacion.euskadi.eus/webkpe00-kperoc/es/ac71aBusquedaRegistrosWar/empresa/10247",
      "_links": {
        "self": {
          "name": "EXOLA 2007, S.L.",
          "href": "https://api.euskadi.eus/procurements/companies/10247"
        }
      }
    },
    {
      "name": "DELSA IRÚN S.L.",
      "registrationNumber": "06353",
      "identificationNumber": "B75104752",
      "address": "AVENIDA ELIZATXO 6, Bajo",
      "location": {
        "postalCode": "20303",
        "municipality": "Irun",
        "county": "Gipuzkoa",
        "municipalityId": "045",
        "countyId": "20"
      },
      "economicActivities": [
        {
          "id": "1.501.2",
          "name": "Construcción completa, reparación y conservación obras civiles",
          "_links": {
            "self": {
              "name": "Construcción completa, reparación y conservación obras civiles",
              "href": "https://api.euskadi.eus/procurements/companies/economic-activities/1.501.2"
            }
          }
        }
      ],
      "certificateStartDate": "2025-12-10",
      "certificateEndDate": "2026-06-08",
      "object": "LA CONSTRUCCIÓN, INSTALACIONES Y MANTENIMIENTO",
      "mainEntityOfPage": "https://www.contratacion.euskadi.eus/webkpe00-kperoc/es/ac71aBusquedaRegistrosWar/empresa/06353",
      "_links": {
        "self": {
          "name": "DELSA IRÚN S.L.",
          "href": "https://api.euskadi.eus/procurements/companies/06353"
        }
      }
    },
    {
      "name": "BURMAN COMUNICACIÓN, S.L.",
      "registrationNumber": "04651",
      "identificationNumber": "B01480060",
      "address": "AVDA. ZABALGANA Nº1 OFIC 5",
      "location": {
        "postalCode": "01015",
        "municipality": "Vitoria-Gasteiz",
        "county": "Araba/Álava",
        "municipalityId": "059",
        "countyId": "01"
      },
      "economicActivities": [
        {
          "id": "1.843.9",
          "name": "Otros servicios técnicos n.c.o.p",
          "_links": {
            "self": {
              "name": "Otros servicios técnicos n.c.o.p",
              "href": "https://api.euskadi.eus/procurements/companies/economic-activities/1.843.9"
            }
          }
        },
        {
          "id": "1.844",
          "name": "Servicios de publicidad, relaciones públicas y similares",
          "_links": {
            "self": {
              "name": "Servicios de publicidad, relaciones públicas y similares",
              "href": "https://api.euskadi.eus/procurements/companies/economic-activities/1.844"
            }
          }
        },
        {
          "id": "1.961.1",
          "name": "Producción de películas cinematográficas (incluso vídeos)",
          "_links": {
            "self": {
              "name": "Producción de películas cinematográficas (incluso vídeos)",
              "href": "https://api.euskadi.eus/procurements/companies/economic-activities/1.961.1"
            }
          }
        }
      ],
      "certificateStartDate": "2025-12-10",
      "certificateEndDate": "2026-05-26",
      "object": "CREACIÓN, DESARROLLO Y COMERCIALIZACIÓN DE CAMPAÑAS, PRODUCTOS Y SERVICIOS DE COMUNICACIÓN Y PUBLICIDAD. PRODUCCIONES AUDIOVISUALES, LITERARIAS, EN CUALQUIER TIPO DE SOPORTE INVENTADO O POR INVENTAR.",
      "mainEntityOfPage": "https://www.contratacion.euskadi.eus/webkpe00-kperoc/es/ac71aBusquedaRegistrosWar/empresa/04651",
      "_links": {
        "self": {
          "name": "BURMAN COMUNICACIÓN, S.L.",
          "href": "https://api.euskadi.eus/procurements/companies/04651"
        }
      }
    },
    {
      "name": "ABBVIE SPAIN, S.L.",
      "registrationNumber": "04958",
      "identificationNumber": "B86418787",
      "address": "Avda.de Burgos,91",
      "location": {
        "postalCode": "28050",
        "municipality": "Madrid",
        "county": "Madrid",
        "municipalityId": "079",
        "countyId": "28"
      },
      "economicActivities": [
        {
          "id": "1.614.1",
          "name": "Venta al por mayor de productos farmacéuticos y medicamentos",
          "_links": {
            "self": {
              "name": "Venta al por mayor de productos farmacéuticos y medicamentos",
              "href": "https://api.euskadi.eus/procurements/companies/economic-activities/1.614.1"
            }
          }
        },
        {
          "id": "1.614.2",
          "name": "Venta al por mayor de productos de perfumería, droguería, higiene y belleza",
          "_links": {
            "self": {
              "name": "Venta al por mayor de productos de perfumería, droguería, higiene y belleza",
              "href": "https://api.euskadi.eus/procurements/companies/economic-activities/1.614.2"
            }
          }
        },
        {
          "id": "1.619.2",
          "name": "Venta al por mayor de aparatos e instrumentos médicos, ortopédicos, ópticos",
          "_links": {
            "self": {
              "name": "Venta al por mayor de aparatos e instrumentos médicos, ortopédicos, ópticos",
              "href": "https://api.euskadi.eus/procurements/companies/economic-activities/1.619.2"
            }
          }
        },
        {
          "id": "1.849.9",
          "name": "Otros servicios independientes n.c.o.p",
          "_links": {
            "self": {
              "name": "Otros servicios independientes n.c.o.p",
              "href": "https://api.euskadi.eus/procurements/companies/economic-activities/1.849.9"
            }
          }
        }
      ],
      "certificateStartDate": "2025-12-10",
      "certificateEndDate": "2026-06-03",
      "object": "LA IMPORTACIÓN, EXPORTACIÓN, FABRICACIÓN, ELABORACIÓN, TRANSFORMACIÓN, EXPLOTACIÓN, DISTRIBUCIÓN Y COMERCIALIZACIÓN DE TODA CLASE DE MATERIAS PRIMAS, PRODUCTOS Y PREPARADOS QUÍMICOS, DE DIAGNÓSTICO, VETERINARIOS, BIOLÓGICOS, FARMACÉUTICOS, INCLUIDOS TODA CLASE DE ESPECIALIDADES FARMACÉUTICAS, ALIMENTICIOS, DIETÉTICOS, NUTRICIONALES, COSMÉTICOS, SANITARIOS Y/O HOSPITALARIOS, ELABORADOS O SEMI-ELABORADOS Y OTROS EN GENERAL, RELATIVOS AL CUIDADO DE LA SALUD Y DE LA HIGIENE. LA COMPRA, VENTA, TENENCIA, FABRICACIÓN, EXPLOTACIÓN, ARRENDAMIENTO Y COMERCIALIZACIÓN DE TODA CLASE DE BIENES Y EQUIPOS PARA USO SANITARIO, HOSPITALARIO Y DE PRÁCTICA MÉDICA EN TODAS SUS ESPECIALIDADES Y FASES, ASÍ COMO LA PRESTACIÓN DE TODO TIPO DE SERVICIOS Y LA REALIZACIÓN DE CUANTAS ACTIVIDADES FUERAN NECESARIAS O CONVENIENTES PARA EL CUMPLIMIENTO DE ESTE OBJETO SOCIAL. LA PRESTACIÓN DE SERVICIOS O ASISTENCIA DE NATURALEZA ADMINISTRATIVA, OPERATIVA, FINANCIERA (CON EXCEPCIÓN DE AQUELLAS QUE REQUIERAN DE AUTORIZACIÓN ADMINISTRATIVA), COMERCIAL, CIENTÍFICA O INDUSTRIAL, INCLUYENDO LA CONCESIÓN DE PRÉSTAMOS, ANTICIPOS O GARANTÍAS, A CUALQUIER TERCERO, ACCIONISTA, FILIAL O ENTIDAD VINCULADA",
      "mainEntityOfPage": "https://www.contratacion.euskadi.eus/webkpe00-kperoc/es/ac71aBusquedaRegistrosWar/empresa/04958",
      "_links": {
        "self": {
          "name": "ABBVIE SPAIN, S.L.",
          "href": "https://api.euskadi.eus/procurements/companies/04958"
        }
      }
    },
    {
      "name": "FONDO FORMACIÓN EUSKADI, S.L.L.",
      "registrationNumber": "02976",
      "identificationNumber": "B95237053",
      "address": "CTRA. SAN VICENTE, KM. 10",
      "location": {
        "postalCode": "48510",
        "municipality": "Valle de Trápaga-Trapagaran",
        "county": "Bizkaia",
        "municipalityId": "080",
        "countyId": "48"
      },
      "economicActivities": [
        {
          "id": "1.932.1",
          "name": "Enseñanza de formación y perfeccionamiento profesional no superior",
          "_links": {
            "self": {
              "name": "Enseñanza de formación y perfeccionamiento profesional no superior",
              "href": "https://api.euskadi.eus/procurements/companies/economic-activities/1.932.1"
            }
          }
        }
      ],
      "certificateStartDate": "2025-12-10",
      "certificateEndDate": "2026-06-05",
      "object": "TODO TIPO DE SERVICIOS Y PRESTACIONES RELACIONADAS CON LA FORMACIÓN OCUPACIONAL Y CONTINUA, EN CUALQUIERA DE SUS VARIEDADES (PRESENCIAL, A DISTANCIA O CUALQIUER OTRA. CONSULTORÍA DE EMPLEO Y FORMACIÓN. REALIZACIÓN Y GESTIÓN DE TODO TIPO DE PROYECTOS DE EMPLEO Y FORMACIÓN, TANTO PARA INSTITUCIONES PÚBLICAS COMO PRIVADAS DE CUALQUIER NATURALEZA. REALIZACIÓN Y GESTIÓN DE POLÍTICAS ACTIVAS DE EMPLEO EN COLABORACIÓN CON LAS ADMINISTRACIONES PÚBLICAS O INSTITUCIONES PRIVADAS. REALIZACIÓN Y GESTIÓN DE POLÍTICAS DE INSERCIÓN CON COLECTIVOS EN SITUACIÓN O RIESGO DE EXCLUSIÓN SOCIAL. RELALIZACIÓN DE FUNCIONES DE ORIENTACIÓN E INTERMEDIACIÓN EN EL MERCADO LABORAL EN LOS TÉRMINOS PREVISTOS   EN LAS LEYES. ELABORACIÓN Y COMERCIALIZACIÓN DE MATERIAL DIDÁCTICO EN EL ÁMBITO DEL EMPLEO Y LA FORMACIÓN. CUALQUIER OTRA ACTIVIDAD LÍCITA PROFESIONAL O MERCANTIL RELACIONADA CON LOS OBJETOS ANTERIORMENTE RESEÑADOS\r\n",
      "mainEntityOfPage": "https://www.contratacion.euskadi.eus/webkpe00-kperoc/es/ac71aBusquedaRegistrosWar/empresa/02976",
      "_links": {
        "self": {
          "name": "FONDO FORMACIÓN EUSKADI, S.L.L.",
          "href": "https://api.euskadi.eus/procurements/companies/02976"
        }
      }
    }
  ]
}