{
  "totalItems": 9042,
  "totalPages": 905,
  "currentPage": 667,
  "itemsOfPage": 10,
  "items": [
    {
      "name": "STRUNOR CONSTRUCCIONES METALICAS, S.L.",
      "registrationNumber": "05249",
      "identificationNumber": "B09451238",
      "address": "C/ ALCALDE FERNANDO DANCAUSA, 7",
      "location": {
        "postalCode": "09007",
        "municipality": "Burgos",
        "county": "Burgos",
        "municipalityId": "059",
        "countyId": "09"
      },
      "economicActivities": [
        {
          "id": "1.314.2",
          "name": "Fabricación de estructuras metálicas",
          "_links": {
            "self": {
              "name": "Fabricación de estructuras metálicas",
              "href": "https://api.euskadi.eus/procurements/companies/economic-activities/1.314.2"
            }
          }
        },
        {
          "id": "1.503.3",
          "name": "Montajes de estructuras metálicas para transportes, puertos",
          "_links": {
            "self": {
              "name": "Montajes de estructuras metálicas para transportes, puertos",
              "href": "https://api.euskadi.eus/procurements/companies/economic-activities/1.503.3"
            }
          }
        },
        {
          "id": "1.833.2",
          "name": "Promoción de edificaciones",
          "_links": {
            "self": {
              "name": "Promoción de edificaciones",
              "href": "https://api.euskadi.eus/procurements/companies/economic-activities/1.833.2"
            }
          }
        }
      ],
      "certificateStartDate": "2014-09-24",
      "certificateEndDate": "2014-12-05",
      "object": "A) PRESTACIÓN DE TODO TIPO DE SERVICIOS TÉCNICOS DE INGENIERÍA Y ARQUITECTURA, ADEMÁS DE LOS DE GESTIÓN Y EJECUCIÓN DESTINADOS A LA INDUSTRIA, CONSTRUCCIÓN DE EDIFICIOS INDUSTRIALES, AGRÍCOLAS, COMERCIALES, SANITARIOS, RESIDENCIAL Y TODO TIPO DE OBRAS. B) LA FABRICACIÓN, MONTAJE, COMERCIALIZACIÓN, TRANSFORMACIÓN, IMPORTACIÓN Y EXPORTACIÓN DE TODO TIPO DE MATERIALES PARA LA REALIZACIÓN DE ESTRUCTURAS ARQUITECTÓNICAS Y EDIFICIOS INDUSTRIALES, SANITARIOS, RESIDENCIAL Y PARA TODO TIPO DE CONSTRUCCIONES. C) EL DESARROLLO Y PROMOCIÓN DE TÉCNICAS DE INVESTIGACIÓN Y LA EXPLOTACIÓN, ADQUISICIÓN Y ENAJENACÓN, POR CUALQUIER TÍTULO DE LICENCIAS, PERMISOS, MARCAS, PATENTES Y EXCLUSIVAS YA SEAN NACIONALES O EXTRANJERAS. D) LA PRODUCCIÓN Y COMERCIALIZACIÓN DE TODO TIPO DE PRODUCTOS O MANUFACTURAS, ESPECIALMENTE LOS RELATIVOS A LA INDUSTRIA Y A LA CONSTRUCCIÓN. E) LA REPRESENTACIÓN DE COMPAÑÍAS INDUSTRIALES NACIONALES O EXTRANJERAS, EN CUALQUIER CLASE DE ACTO O NEGOCIO JURÍDICO, RELACIONADO CON EL TRÁFICO O GIRO PROPIO DE LAS MISMAS. F) LOS SERVICIOS DE MEDIACÓN, ASÍCOMO LOS DE CONSIGNACÓN, REPRESENTACIÓN Y GESTIÓN, INCLUSO DE TODA CLASE DE SUMINISTROS Y DE PRODUCTOS NACIONALES O EXTRANJEROS DE IMPORTACIÓN O EXPORTACIÓN. G) TRÁFICO SOBRE BIENES INMUEBLES. H) LA PARTICIPACIÓN EN OTRAS SOCIEDADES QUE TENGAN OBJETO SOCIAL IDÉNTICO O ANÁLOGO PARA EL DESARROLLO DEL PROPIO DE ESTA SOCIEDAD, MEDIANTE LA SUSCRIPCIÓN DE ACCIONES Y PARTICIPACIONES EN LA FUNDACIÓN, AUMENTO DEL CAPITAL DE LOS MISMOS O LA ADQUISICIÓN DE ELLAS POR CUALQUIER TÍTULO",
      "mainEntityOfPage": "https://www.contratacion.euskadi.eus/webkpe00-kperoc/es/ac71aBusquedaRegistrosWar/empresa/05249",
      "_links": {
        "self": {
          "name": "STRUNOR CONSTRUCCIONES METALICAS, S.L.",
          "href": "https://api.euskadi.eus/procurements/companies/05249"
        }
      }
    },
    {
      "name": "JOSÉ ANTONIO OLABARRI CONSTRUCCIONES, S.L.",
      "registrationNumber": "02582",
      "identificationNumber": "B48151344",
      "address": "UDIARRAGA, 1 BAJO ",
      "location": {
        "postalCode": "48490",
        "municipality": "Ugao-Miraballes",
        "county": "Bizkaia",
        "municipalityId": "065",
        "countyId": "48"
      },
      "economicActivities": [
        {
          "id": "1.501.1",
          "name": "Construcción completa, reparación y conservación de edificaciones",
          "_links": {
            "self": {
              "name": "Construcción completa, reparación y conservación de edificaciones",
              "href": "https://api.euskadi.eus/procurements/companies/economic-activities/1.501.1"
            }
          }
        },
        {
          "id": "1.501.2",
          "name": "Construcción completa, reparación y conservación obras civiles",
          "_links": {
            "self": {
              "name": "Construcción completa, reparación y conservación obras civiles",
              "href": "https://api.euskadi.eus/procurements/companies/economic-activities/1.501.2"
            }
          }
        },
        {
          "id": "1.504.1",
          "name": "Instalaciones eléctricas en general",
          "_links": {
            "self": {
              "name": "Instalaciones eléctricas en general",
              "href": "https://api.euskadi.eus/procurements/companies/economic-activities/1.504.1"
            }
          }
        },
        {
          "id": "1.504.3",
          "name": "Instalaciones de frío, calor y acondicionamiento de aire",
          "_links": {
            "self": {
              "name": "Instalaciones de frío, calor y acondicionamiento de aire",
              "href": "https://api.euskadi.eus/procurements/companies/economic-activities/1.504.3"
            }
          }
        },
        {
          "id": "1.833.2",
          "name": "Promoción de edificaciones",
          "_links": {
            "self": {
              "name": "Promoción de edificaciones",
              "href": "https://api.euskadi.eus/procurements/companies/economic-activities/1.833.2"
            }
          }
        },
        {
          "id": "1.859",
          "name": "Alquiler de otros bienes muebles n.c.o.p. (sin personal permanente)",
          "_links": {
            "self": {
              "name": "Alquiler de otros bienes muebles n.c.o.p. (sin personal permanente)",
              "href": "https://api.euskadi.eus/procurements/companies/economic-activities/1.859"
            }
          }
        },
        {
          "id": "1.861.2",
          "name": "Alquiler de locales industriales y otros alquileres n.c.o.p",
          "_links": {
            "self": {
              "name": "Alquiler de locales industriales y otros alquileres n.c.o.p",
              "href": "https://api.euskadi.eus/procurements/companies/economic-activities/1.861.2"
            }
          }
        }
      ],
      "certificateStartDate": "2014-09-23",
      "certificateEndDate": "2015-03-18",
      "object": "LA ADQUISICIÓN, ENAJENACIÓN, ARRENDAMIENTO, EXPLOTACIÓN, PARCELACIÓN Y URBANIZACIÓN DE TODA CLASE DE FINCAS RÚSTICAS, URBANAS Y SOOLARES; LA CONSTRUCCIÓN DE TODA CLASE DE VIVIENDAS, OFICINAS, LOCALES DE NEGOCIO, NAVES O INSTALACIONES INDUSTRIALES O DEPORTIVAS, GARAJES, PARKINGS, ETC., POR CUENTA PROPIA O AJENA, PARA SU USO PROPIO O PARA VENDER O ARRENDAR CON PROTECCIÓN OFICIAL O SIN ELLA; LA EJECUCIÓN DE OBRAS CIVILES.\r\nASIMISMO, PODRÁ DESARROLLAR LAS SIGUIENTES ACTIVIDADES: LA CONSTRUCCIÓN DE PUENTES, VIADUCTOS Y GRANDES ESTRUCTURAS QUE PODRÁN SER DE FÁBRICA, DE HORMIGÓN EN MASA, DE HORMIGÓN PRETENSADO, METÁLICOS O DE MADERA; LOS DESMONTES Y VACIADOS, LAS EXPLANACIONES, LAS CANTERAS, LOS POZOS Y GALERIAS Y LOS TÚNELES.\r\nLAS DEMOLICIONES; LAS ESTRUCTURAS DE FÁBRICA, HORMIGÓN, METÁLICAS O LAS DE MADERA; LA ALBAÑILERÍA, LOS REVOCOS Y REVESTIDO; LA CANTERÍA Y LOS MÁRMOLES; LOS PAVIMENTOS, SOLADOS Y ALICATADOS; LOS AISLAMIENTOS Y LAS IMPERMEABILIZACIONES; LA CARPINTERÍA TANTO DE MADERA COMO LA METÁLICA.\r\nEL TENDIDO DE VÍAS, LOS FERROCARRILES ELEVADOS SOBRE CARRIL O CABLE; LAS SEÑALIZACIONES Y ENCLAVAMIENTOS; LA ELECTRIFICACIÓN DE FERROCARRILES; Y RESTO DE OBRAS DE FERROCARRILES SIN CALIFICACIÓN ESPECÍFICA.\r\nLAS OBRAS DE ABASTECIMIENTO Y SANEAMIENTO; LAS PRESAS; LOS CANALES; LAS ACEQUIAS Y DESAGÜES; LA DEFENSAS DE MÁRGENES Y ENCAUZAMIENTOS; LAS CONDUCCIONES CON TUBERÍA DE PRESIÓN EN GRAN DIÁMETRO; RESTO DE OBRAS HIDRÁULICAS SIN CALIFICACIÓN ESPECÍFICA.\r\nEL DRAGADO; LAS ESCOLLERAS CON BLOQUES DE PIEDRA O DE HORMIGÓN, CON CAJONES DE HORMIGÓN ARMADO; LOS PILOTES Y TABLESTACAS; LOS FAROS, RADIOFAROS Y SEÑALIZACIONES MARÍTICA; LOS EMISARIOS SUBMARINOS; Y RESTO DE OBRAS MARÍTIMAS SIN CALIFICACIÓN ESPECÍFICA.\r\nLA CONSTRUCCIÓN DE AUTOPISTAS Y AUTOVÍAS; PISTAS DE ATERRIZAJE CON FIRMES DE HORMIGÓN HIDRÁULICO O CON FIRMES DE MEZCLAS BITUMINOSAS; LAS SEÑALIZACIONES Y BALIZAMIENTOS VIALES; Y RESTO DE OBRAS DE VIALES SIN CALIFICACIÓN ESPECÍFICA.\r\nEL ALUMBRADO, LA ILUMINACIÓN Y BALIZAMIENTOS LUMINOSOS; LAS CENTRALES DE PRODUCCIÓN DE ENERGÍA; LAS LÍNEAS ELÉCTRICAS DE TRANSPORTE; LAS SUBESTACIONES; LOS CENTROS DE TRANSFORMACIÓN Y DISTRIBUCIÓN EN ALTA TENSIÓN; LA DISTRIBUCIÓN EN BAJA TENSIÓN; LAS TELECOMUNICACIONES E INSTALACIONES RADIOELÉCTRICAS; LAS INSTALACIONES ELECTRÓNICAS; Y RESTO DE INSTALACIONES ELÉCTRICAS SIN CALIFICACIÓN ESPECÍFICA.\r\nLOS ELEVADORES O TRANSPORTADORES; LAS INSTALACIONES MECÁNICAS DE VENTILACIÓN, CALEFACCIÓN Y CLIMATIZACIÓN; LAS INSTALACIONES FRIGORÍFICAS; LAS INSTALACIONES DE FONTANERÍA Y SANITARIAS; RESTO DE INSTALACIONES MECÁNICAS SIN CALIFICACIÓN ESPECÍFICA.\r\nLAS CIMENTACIONES ESPECIALES; LOS SONDEOS, INYECCIONES Y PILOTAJES; LOS TABLESTACADOS; LAS PINTURAS Y METALIZACIONES; LAS ORNAMENTACIONES Y DECORACIONES; LA JARDINERÍA Y PLANTACIONES; LA RESTAURACIÓN DE BIENES INMUEBLES HISTÓRICOS, ARTÍSTICOS; ESTACIONES DE TRATAMIENTOS DE AGUAS; INSTALACIONES CONTRA INCENDIOS.\r\nLA INSTALACIÓN O CONSTRUCCIÓN DE ELEMENTOS O MECANISMOS QUE SUPONGAN EL APROVECHAMIENTO DE CUALQUIERA DE LAS ENERGÍAS RENOVABLES.\r\nLA VENTA DE MATERIALES RELACIONADOS CON LA CONSTRUCCIÓN.\r\nLA CONSERVACIÓN Y EL MANTENIMIENTO DE EDIFICIOS; LA CONSERVACIÓN Y EL MANTENIMIENTO DE CARRETERAS, PISTAS, AUTOPISTAS, AUTOVÍAS, CALZADAS Y VÍAS FÉRREAS; LA CONSERVACIÓN Y EL MANTENIMIENTO DE REDES DE AGUA Y ALACANTARILLADO; LA CONSERVACIÓN Y EL MANTENIMIENTO DE MOBILIARIO URBANO; LA CONSERVACIÓN Y EL MANTENIMIENTO DE MONTES Y JARDINES; LA CONSERVACIÓN Y EL MANTENIMIENTO DE MONUMENTOS Y EDIFICIOS SINGULARES.\r\nEL TRANSPORTE EN GENERAL.\r\nLOS SERVICIOS DE PUBLICIDAD; LOS SERVICIOS DE RADIO Y TELEVISIÓN; LAS AGENCIAS DE NOTICIAS; REALIZACIÓN DE MATERIAL AUDIOVISUAL; LOS SERVICIOS DE TRADUCTORES E INTÉRPRETES.\r\nLOS SERVICIOS DE LIMPIEZA EN GENERAL.\r\nESTUDIOS E INFORMES DE TRABAJOS CATASTRALES, TOPOGRAFÍA Y FOTOGRAMETRÍA.\r\nESTUDIOS E INFORMES CORRESPONDIENTES A ANÁLISIS Y ENSAYOS.\r\nESTUDIOS E INFORMES CORRESPONDIENTES A CONTROL TÉCNICO.\r\nPROYECTOS Y DIRECCIÓN DE OBRA.\r\nOBRAS PÚBLICAS.\r\nEDIFICACIÓN.\r\nURBANISMO",
      "mainEntityOfPage": "https://www.contratacion.euskadi.eus/webkpe00-kperoc/es/ac71aBusquedaRegistrosWar/empresa/02582",
      "_links": {
        "self": {
          "name": "JOSÉ ANTONIO OLABARRI CONSTRUCCIONES, S.L.",
          "href": "https://api.euskadi.eus/procurements/companies/02582"
        }
      }
    },
    {
      "name": "UNITRONICS COMUNICACIONES, S.A.",
      "registrationNumber": "02081",
      "identificationNumber": "A81356313",
      "address": "AVENIDA DE LA FUENTE NUEVA, 5 ",
      "location": {
        "postalCode": "28709",
        "municipality": "San Sebastián de los Reyes",
        "county": "Madrid",
        "municipalityId": "134",
        "countyId": "28"
      },
      "economicActivities": [
        {
          "id": "1.617.9",
          "name": "Venta al por mayor interindustrial de otros productos n.c.o.p",
          "_links": {
            "self": {
              "name": "Venta al por mayor interindustrial de otros productos n.c.o.p",
              "href": "https://api.euskadi.eus/procurements/companies/economic-activities/1.617.9"
            }
          }
        },
        {
          "id": "1.699",
          "name": "Otras reparaciones n.c.o.p",
          "_links": {
            "self": {
              "name": "Otras reparaciones n.c.o.p",
              "href": "https://api.euskadi.eus/procurements/companies/economic-activities/1.699"
            }
          }
        },
        {
          "id": "1.845",
          "name": "Explotación electrónica por cuenta de terceros",
          "_links": {
            "self": {
              "name": "Explotación electrónica por cuenta de terceros",
              "href": "https://api.euskadi.eus/procurements/companies/economic-activities/1.845"
            }
          }
        }
      ],
      "certificateStartDate": "2014-09-22",
      "certificateEndDate": "2015-02-22",
      "object": "I) LA COMPRA,  VENTA, IMPORTACIÓN, EXPORTACIÓN, COMERCIALIZACIÓN Y DISTRIBUCIÓN DE SISTEMAS DE COMUNICACIONES, VOZ, DATO, VÍDEO Y MULTIMEDIA.\r\n\r\nII) LA INTEGRACIÓN DE SISTEMAS DE COMUNICACIONES Y DE SERVICIOS MULTIMEDIA INCLUYENDO DISEÑO, INSTALACIÓN, SERVICIO POST-VENTA, SERVICIO DE VALOR AÑADIDO, GESTIÓN DE REDES Y FORMACIÓN DE USUARIOS.\r\n\r\nIII) LA REALIZACIÓN DE CUALESQUIERA DE DICHAS ACTIVIDADES DE MODO INDIRECTO, MEDIANTE LA PARTICIPACIÓN EN SOCIEDADES O EMPRESAS CON OBJETO ANÁLOGO AL DE LA SOCIEDAD",
      "mainEntityOfPage": "https://www.contratacion.euskadi.eus/webkpe00-kperoc/es/ac71aBusquedaRegistrosWar/empresa/02081",
      "_links": {
        "self": {
          "name": "UNITRONICS COMUNICACIONES, S.A.",
          "href": "https://api.euskadi.eus/procurements/companies/02081"
        }
      }
    },
    {
      "name": "ELIER BUS, S.L.",
      "registrationNumber": "04327",
      "identificationNumber": "B33490244",
      "address": "POLG. INSD. UGALDEGUREN, SECTOR 1 P5-P5",
      "location": {
        "postalCode": "48160",
        "municipality": "Derio",
        "county": "Bizkaia",
        "municipalityId": "901",
        "countyId": "48"
      },
      "economicActivities": [
        {
          "id": "1.721.3",
          "name": "Transporte de viajeros por carretera",
          "_links": {
            "self": {
              "name": "Transporte de viajeros por carretera",
              "href": "https://api.euskadi.eus/procurements/companies/economic-activities/1.721.3"
            }
          }
        },
        {
          "id": "1.855.9",
          "name": "Alquiler de otros medios de transporte n.c.o.p",
          "_links": {
            "self": {
              "name": "Alquiler de otros medios de transporte n.c.o.p",
              "href": "https://api.euskadi.eus/procurements/companies/economic-activities/1.855.9"
            }
          }
        }
      ],
      "certificateStartDate": "2014-09-17",
      "certificateEndDate": "2015-03-17",
      "object": "EL TRANSPORTE DE VIAJEROS POR MEDIOS PROPIOS O DE TERCEROS, YA SEAN EN TRAYECTOS NACIONALES O INTERNACIONALES, TURÍSTICOS, ESCOLARES, REGULARES O DE CUALQUIER NATURALEZA; EL TRANSPORTE DE MERCANCÍAS DE TODAS CLASES POR MEDIOS PROPIOS O DE TERCEROS;  LA COMPRAVENTA, IMPORTACIÓN Y ALQUILER DE VEHÍCULOS A MOTOR, TANTO NUEVOS COMO USADOS, ASÍ COMO DE SUS ACCESORIOS, RECAMBIOS Y COMPLEMENTARIOS;  LOS SERVICIOS DE MEDIACIÓN O AGENCIA DE TRANSPORTES",
      "mainEntityOfPage": "https://www.contratacion.euskadi.eus/webkpe00-kperoc/es/ac71aBusquedaRegistrosWar/empresa/04327",
      "_links": {
        "self": {
          "name": "ELIER BUS, S.L.",
          "href": "https://api.euskadi.eus/procurements/companies/04327"
        }
      }
    },
    {
      "name": "BILBOMICRO INFORMÁTICA, S.A.",
      "registrationNumber": "01919",
      "identificationNumber": "A48409346",
      "address": "C/ JOSÉ MARÍA ESCUZA, Nº 11 - 1º.",
      "location": {
        "postalCode": "48013",
        "municipality": "Bilbao",
        "county": "Bizkaia",
        "municipalityId": "020",
        "countyId": "48"
      },
      "economicActivities": [
        {
          "id": "1.659.2",
          "name": "Venta al por menor de muebles de oficina y máquinas y equipos de oficina",
          "_links": {
            "self": {
              "name": "Venta al por menor de muebles de oficina y máquinas y equipos de oficina",
              "href": "https://api.euskadi.eus/procurements/companies/economic-activities/1.659.2"
            }
          }
        }
      ],
      "certificateStartDate": "2014-09-15",
      "certificateEndDate": "2015-03-04",
      "object": "a) LA COMPRA Y VENTA, IMPORTACIÓN, EXPORTACIÓN, DISTRIBUCIÓN, PUBLICACIÓN, MONTAJE Y COMERCIALIZACIÓN, ASÍ COMO LA ASISTENCIA TÉCNICA Y EL MANTENIMIENTO, TANTO POR CUENTA PROPIA COMO POR CUENTA DE TERCEROS, DE CUALESQUIERA TIPO DE MICRO-ORDENADORES.\r\n\r\nb) LA REALIZACIÓN DE ESTUDIOS TÉCNICOS, INFORMES Y ASESORAMIENTOS SOBRE EL FUNCIONAMIENTO, CONSUMO, VIABILIDAD Y CUALESQUIERA OTROS ASPECTOS SOBRE MICRO-ORDENADORES.\r\n\r\nc) LA REPRESENTACIÓN DE EMPRESAS NACIONALES O EXTRANJERAS DEDICADAS A LA FABRICACIÓN DE MICRO-ORDENADORES, ACTUANDO COMO REPRESENTANTES, DISTRIBUIDORES, AGENTES O EN CUALQUIER OTRA FORMA DE MEDIACIÓN MERCANTIL.\r\n\r\nd) CUANTAS ACTIVIDADES SEAN PREPARATIVAS, AUXILIARES, DERIVADAS O COMPLEMENTARIAS DE LAS ANTERIORES O EN CUALQUIER MODO CON ELLAS SE RELACIONEN",
      "mainEntityOfPage": "https://www.contratacion.euskadi.eus/webkpe00-kperoc/es/ac71aBusquedaRegistrosWar/empresa/01919",
      "_links": {
        "self": {
          "name": "BILBOMICRO INFORMÁTICA, S.A.",
          "href": "https://api.euskadi.eus/procurements/companies/01919"
        }
      }
    },
    {
      "name": "FUNDACIÓN CANÓNICA AUTÓNOMA EDE",
      "registrationNumber": "04850",
      "identificationNumber": "R4800602G",
      "address": "SIMÓN BOLÍVAR, 8B",
      "location": {
        "postalCode": "48010",
        "municipality": "Bilbao",
        "county": "Bizkaia",
        "municipalityId": "020",
        "countyId": "48"
      },
      "economicActivities": [
        {
          "id": "1.476.1",
          "name": "Edición de libros",
          "_links": {
            "self": {
              "name": "Edición de libros",
              "href": "https://api.euskadi.eus/procurements/companies/economic-activities/1.476.1"
            }
          }
        },
        {
          "id": "1.849.9",
          "name": "Otros servicios independientes n.c.o.p",
          "_links": {
            "self": {
              "name": "Otros servicios independientes n.c.o.p",
              "href": "https://api.euskadi.eus/procurements/companies/economic-activities/1.849.9"
            }
          }
        },
        {
          "id": "1.932.1",
          "name": "Enseñanza de formación y perfeccionamiento profesional no superior",
          "_links": {
            "self": {
              "name": "Enseñanza de formación y perfeccionamiento profesional no superior",
              "href": "https://api.euskadi.eus/procurements/companies/economic-activities/1.932.1"
            }
          }
        },
        {
          "id": "1.966.9",
          "name": "Otros servicios culturales n.c.o.p",
          "_links": {
            "self": {
              "name": "Otros servicios culturales n.c.o.p",
              "href": "https://api.euskadi.eus/procurements/companies/economic-activities/1.966.9"
            }
          }
        }
      ],
      "certificateStartDate": "2014-09-15",
      "certificateEndDate": "2015-03-08",
      "object": "LA FORMACIÓN Y CAPACITACIÓN DE EDUCADORES Y ANIMADORES CRISTIANOS QUE DESARROLLAN SU TAREA EN EL ÁMBITO DE LA DENOMINADA EDUCACIÓN \"NO FORMAL\"; REALIZADA EN PLATAFORMAS DE GRAN DIVERSIDAD DE ORIENTACIÓN, TANTO EN INSTITUCIONES ECLESIALES COMO CIVILES, TANTO ENTIDADES PÚBLICAS COMO EN CUALQUIER UNIDAD PASTORAL. ESTE FIN GENERAL SE ESPECIFICA EN LOS SIGUIENTES ASPECTOS: LA FORMACIÓN Y CAPACITACIÓN DE EDUCADORES DE TIEMPO LIBRE, INFANTIL Y JUVENIL (DIRECTORES Y MONITORES). LA FORMACIÓN Y CAPACITACIÓN DE ANIMADORES SOCIOCULTURALES. LA ACTUACIÓN Y FORMACIÓN PERMANENTE DE LOS EDUCADORES ANIMADORES. LA FORMACIÓN Y CAPACITACIÓN DE PERSONAS APTAS PARA SER DESIGNADAS AGENTES DE PASTORAL EN AQUELLOS CAMPOS QUE LE SEAN SEÑALADOS POR LOS RESPONSABLES DIOCESANOS. LA PROMOCIÓN DEL ESTUDIO Y DE LA INVESTIGACIÓN EN LOS CAMPOS OBJETO DE LAS FINALIDADES DE LA FUNDACIÓN.\r\nTODA LA TAREA FORMATIVA Y DE CAPACITACIÓN QUE SE REALICE EN LA FUNDACIÓN ESTARÁ INSPIRADA EN EL SENTIDO HUMANO-CRISTIANO DE LA VIDA Y SEGUIRÁ LAS ORIENTACIONES QUE DICE EL MAGISTERIO DE LA IGLESIA CATÓLICA Y, EN ESPECIAL, EL OBISPO DE BILBAO Y SUS ORGANISMOS PASTORALES DIOCESANOS\r\n",
      "mainEntityOfPage": "https://www.contratacion.euskadi.eus/webkpe00-kperoc/es/ac71aBusquedaRegistrosWar/empresa/04850",
      "_links": {
        "self": {
          "name": "FUNDACIÓN CANÓNICA AUTÓNOMA EDE",
          "href": "https://api.euskadi.eus/procurements/companies/04850"
        }
      }
    },
    {
      "name": "CANDIDO IRURETA GURRUCHAGA",
      "registrationNumber": "05147",
      "identificationNumber": "15090411L",
      "address": "Loiola Auzoa, 21",
      "location": {
        "postalCode": "20730",
        "municipality": "Azpeitia",
        "county": "Gipuzkoa",
        "municipalityId": "018",
        "countyId": "20"
      },
      "economicActivities": [
        {
          "id": "1.653.1",
          "name": "Venta al por menor de muebles (excepto los de oficina)",
          "_links": {
            "self": {
              "name": "Venta al por menor de muebles (excepto los de oficina)",
              "href": "https://api.euskadi.eus/procurements/companies/economic-activities/1.653.1"
            }
          }
        },
        {
          "id": "1.659.2",
          "name": "Venta al por menor de muebles de oficina y máquinas y equipos de oficina",
          "_links": {
            "self": {
              "name": "Venta al por menor de muebles de oficina y máquinas y equipos de oficina",
              "href": "https://api.euskadi.eus/procurements/companies/economic-activities/1.659.2"
            }
          }
        },
        {
          "id": "1.861.2",
          "name": "Alquiler de locales industriales y otros alquileres n.c.o.p",
          "_links": {
            "self": {
              "name": "Alquiler de locales industriales y otros alquileres n.c.o.p",
              "href": "https://api.euskadi.eus/procurements/companies/economic-activities/1.861.2"
            }
          }
        }
      ],
      "certificateStartDate": "2014-09-12",
      "certificateEndDate": "2015-02-28",
      "object": "VENTA DE MUEBLES EN GENERAL",
      "mainEntityOfPage": "https://www.contratacion.euskadi.eus/webkpe00-kperoc/es/ac71aBusquedaRegistrosWar/empresa/05147",
      "_links": {
        "self": {
          "name": "CANDIDO IRURETA GURRUCHAGA",
          "href": "https://api.euskadi.eus/procurements/companies/05147"
        }
      }
    },
    {
      "name": "GESALTZA CONSTRUCCIONES, S.A.",
      "registrationNumber": "03396",
      "identificationNumber": "A01418458",
      "address": "C/ PINTOR OBDULIO LÓPEZ DE URALDE 18, 1A",
      "location": {
        "postalCode": "01008",
        "municipality": "Vitoria-Gasteiz",
        "county": "Araba/Álava",
        "municipalityId": "059",
        "countyId": "01"
      },
      "economicActivities": [
        {
          "id": "1.501.2",
          "name": "Construcción completa, reparación y conservación obras civiles",
          "_links": {
            "self": {
              "name": "Construcción completa, reparación y conservación obras civiles",
              "href": "https://api.euskadi.eus/procurements/companies/economic-activities/1.501.2"
            }
          }
        }
      ],
      "certificateStartDate": "2014-09-08",
      "certificateEndDate": "2015-02-28",
      "object": "EL NEGOCIO DE CONSTRUCCIÓN, PROMOCIÓN, SERVICIOS, MANTENIMIENTO, VENTA DE MATERIAL PARA DICHO FIN Y OTROS PREPARATORIOS, ACCESORIOS Y COMPLEMENTARIOS",
      "mainEntityOfPage": "https://www.contratacion.euskadi.eus/webkpe00-kperoc/es/ac71aBusquedaRegistrosWar/empresa/03396",
      "_links": {
        "self": {
          "name": "GESALTZA CONSTRUCCIONES, S.A.",
          "href": "https://api.euskadi.eus/procurements/companies/03396"
        }
      }
    },
    {
      "name": "AREA-3D MOBILIARIO, S.L.",
      "registrationNumber": "03680",
      "identificationNumber": "B95151965",
      "address": "POL. UGALDEGUREN 3 - PARCELA 32-34 - LOCAL 1",
      "location": {
        "postalCode": "48170",
        "municipality": "Zamudio",
        "county": "Bizkaia",
        "municipalityId": "905",
        "countyId": "48"
      },
      "economicActivities": [
        {
          "id": "1.615.2",
          "name": "Venta al por mayor de muebles",
          "_links": {
            "self": {
              "name": "Venta al por mayor de muebles",
              "href": "https://api.euskadi.eus/procurements/companies/economic-activities/1.615.2"
            }
          }
        },
        {
          "id": "1.653.1",
          "name": "Venta al por menor de muebles (excepto los de oficina)",
          "_links": {
            "self": {
              "name": "Venta al por menor de muebles (excepto los de oficina)",
              "href": "https://api.euskadi.eus/procurements/companies/economic-activities/1.653.1"
            }
          }
        },
        {
          "id": "1.856.1",
          "name": "Alquiler de bienes de consumo",
          "_links": {
            "self": {
              "name": "Alquiler de bienes de consumo",
              "href": "https://api.euskadi.eus/procurements/companies/economic-activities/1.856.1"
            }
          }
        }
      ],
      "certificateStartDate": "2014-09-08",
      "certificateEndDate": "2015-02-05",
      "object": "LA COMPRA, VENTA, ALMACENAMIENTO, DISTRIBUCIÓN, MONTAJE, INSTALACIÓN, IMPORTACIÓN, EXPORTACIÓN Y COMERCIALIZACIÓN DE MOBILIARIO DE OFICINAS Y COMPLEMENTOS PARA LA DECORACIÓN DE INTERIORES, ASÍ COMO LA EJECUCIÓN DE TODA CLASE DE OBRAS DE ALBAÑILERÍA Y DE CONSTRUCCIÓN, REFORMA, REHABILITACIÓN, AMPLIACIÓN, DECORACIÓN O ADAPTACIÓN EN GENERAL, DE INMUEBLES, SEAN PÚBLICAS O PRIVADAS, NECESARIAS PARA LA INSTALACIÓN DE LOS CITADOS BIENES Y EQUIPOS, Y LA ELABORACIÓN DE PROYECTOS, ESTUDIOS Y PRESUPUESTOS PARA DICHAS OBRAS",
      "mainEntityOfPage": "https://www.contratacion.euskadi.eus/webkpe00-kperoc/es/ac71aBusquedaRegistrosWar/empresa/03680",
      "_links": {
        "self": {
          "name": "AREA-3D MOBILIARIO, S.L.",
          "href": "https://api.euskadi.eus/procurements/companies/03680"
        }
      }
    },
    {
      "name": "ARLAN, S.A.",
      "registrationNumber": "00944",
      "identificationNumber": "A48107221",
      "address": "AVANZADA ERREPIDEA, 7",
      "location": {
        "postalCode": "48950",
        "municipality": "Erandio",
        "county": "Bizkaia",
        "municipalityId": "902",
        "countyId": "48"
      },
      "economicActivities": [
        {
          "id": "1.617.9",
          "name": "Venta al por mayor interindustrial de otros productos n.c.o.p",
          "_links": {
            "self": {
              "name": "Venta al por mayor interindustrial de otros productos n.c.o.p",
              "href": "https://api.euskadi.eus/procurements/companies/economic-activities/1.617.9"
            }
          }
        },
        {
          "id": "1.852",
          "name": "Alquiler de maquinaria y equipo para la construcción",
          "_links": {
            "self": {
              "name": "Alquiler de maquinaria y equipo para la construcción",
              "href": "https://api.euskadi.eus/procurements/companies/economic-activities/1.852"
            }
          }
        },
        {
          "id": "1.921.4",
          "name": "Servicios de alcantarillado, evacuación y depuración de aguas residuales",
          "_links": {
            "self": {
              "name": "Servicios de alcantarillado, evacuación y depuración de aguas residuales",
              "href": "https://api.euskadi.eus/procurements/companies/economic-activities/1.921.4"
            }
          }
        }
      ],
      "certificateStartDate": "2014-09-01",
      "certificateEndDate": "2015-02-28",
      "object": "LA COMPRA Y VENTA DE MEDIOS AUXILIARES PARA LA CONSTRUCCIÓN, ALQUILER DE LOS MISMOS Y REPRESENTACIONES INDUSTRIALES Y ALMACENISTAS QUE FABRICAN Y VENDEN TALES MEDIOS DE CONSTRUCCIÓN",
      "mainEntityOfPage": "https://www.contratacion.euskadi.eus/webkpe00-kperoc/es/ac71aBusquedaRegistrosWar/empresa/00944",
      "_links": {
        "self": {
          "name": "ARLAN, S.A.",
          "href": "https://api.euskadi.eus/procurements/companies/00944"
        }
      }
    }
  ]
}