{
  "totalItems": 9042,
  "totalPages": 905,
  "currentPage": 736,
  "itemsOfPage": 10,
  "items": [
    {
      "name": "I.B.K. INTERNATIONAL BASK CONSULTING, S.L.",
      "registrationNumber": "04349",
      "identificationNumber": "B20473377",
      "address": "AVDA. DE LA LIBERTAD 1, 1º A",
      "location": {
        "postalCode": "20004",
        "municipality": "Donostia / San Sebastián",
        "county": "Gipuzkoa",
        "municipalityId": "069",
        "countyId": "20"
      },
      "economicActivities": [
        {
          "id": "1.841",
          "name": "Servicios jurídicos",
          "_links": {
            "self": {
              "name": "Servicios jurídicos",
              "href": "https://api.euskadi.eus/procurements/companies/economic-activities/1.841"
            }
          }
        }
      ],
      "certificateStartDate": "2010-01-20",
      "certificateEndDate": "2010-04-21",
      "object": "LAS ACTIVIDADES QUE SEGUIDAMENTE SE DETELLAN, QUE PODRÁN SER REALIZADAS POR LA SOCIEDAD, YA DIRECTAMENTE, YA INDIRECTAMENTE, INCLUSO MEDIANTE SU PARTICIPACIÓN EN OTRAS SOCIEDADES, DE OBJETO IDÉNTICO O ANÁLOGO: EL ASESORAMIENTO JURÍDICO, FISCAL, ECONÓMICO, RELACIONADO CON LA GESTIÓN EMPRESARIAL Y EL DESARROLLO ECONÓMICO",
      "mainEntityOfPage": "https://www.contratacion.euskadi.eus/webkpe00-kperoc/es/ac71aBusquedaRegistrosWar/empresa/04349",
      "_links": {
        "self": {
          "name": "I.B.K. INTERNATIONAL BASK CONSULTING, S.L.",
          "href": "https://api.euskadi.eus/procurements/companies/04349"
        }
      }
    },
    {
      "name": "COMERCIAL INDUSTRIAL DE AUTOMÓVILES Y RECAMBIOS, S.A. \"CIARSA\"",
      "registrationNumber": "03043",
      "identificationNumber": "A01005594",
      "address": "C/ ALTO DE ARMENTIA, 4",
      "location": {
        "postalCode": "01007",
        "municipality": "Vitoria-Gasteiz",
        "county": "Araba/Álava",
        "municipalityId": "059",
        "countyId": "01"
      },
      "economicActivities": [
        {
          "id": "1.615.1",
          "name": "Venta al por mayor de vehículos, motocicletas, bicicletas y sus accesorios",
          "_links": {
            "self": {
              "name": "Venta al por mayor de vehículos, motocicletas, bicicletas y sus accesorios",
              "href": "https://api.euskadi.eus/procurements/companies/economic-activities/1.615.1"
            }
          }
        },
        {
          "id": "1.691.2",
          "name": "Reparación de vehículos automóviles, bicicletas y otros vehículos",
          "_links": {
            "self": {
              "name": "Reparación de vehículos automóviles, bicicletas y otros vehículos",
              "href": "https://api.euskadi.eus/procurements/companies/economic-activities/1.691.2"
            }
          }
        }
      ],
      "certificateStartDate": "2010-01-19",
      "certificateEndDate": "2010-06-10",
      "object": "LA COMPRAVENTA, ALQUILER Y REPARACIÓN DE AUTOMÓVILES, MOTOCICLETAS Y TODA CLASE DE VEHÍCULOS DE MOTOR;; EL SUMINISTRO DE REPUESTOS, ACCESORIOS, LUBRIFICANTES Y COMBUSTIBLES PARA ELLOS",
      "mainEntityOfPage": "https://www.contratacion.euskadi.eus/webkpe00-kperoc/es/ac71aBusquedaRegistrosWar/empresa/03043",
      "_links": {
        "self": {
          "name": "COMERCIAL INDUSTRIAL DE AUTOMÓVILES Y RECAMBIOS, S.A. \"CIARSA\"",
          "href": "https://api.euskadi.eus/procurements/companies/03043"
        }
      }
    },
    {
      "name": "OLARTZA ERAIKUNTZAK, S.L.",
      "registrationNumber": "03344",
      "identificationNumber": "B20781357",
      "address": "C/ JUAN XXIII, 16. PORTAL B - LOCAL 1",
      "location": {
        "postalCode": "20730",
        "municipality": "Azpeitia",
        "county": "Gipuzkoa",
        "municipalityId": "018",
        "countyId": "20"
      },
      "economicActivities": [
        {
          "id": "1.501.1",
          "name": "Construcción completa, reparación y conservación de edificaciones",
          "_links": {
            "self": {
              "name": "Construcción completa, reparación y conservación de edificaciones",
              "href": "https://api.euskadi.eus/procurements/companies/economic-activities/1.501.1"
            }
          }
        }
      ],
      "certificateStartDate": "2010-01-19",
      "certificateEndDate": "2010-06-14",
      "object": "A) LA ADQUISICIÓN, TENENCIA, ADMINISTRACIÓN, DISFRUTE Y ENAJENACIÓN DE VALORES MOBILIARIOS, CRÉDITOS Y DERECHOS, ACCIONES Y PARTICIPACIONES SOCIALES, BONOS Y OBLIGACIONES, SEAN DEL ESTADO, CORPORACIONES LOCALES, ORGANISMOS AUTONÓMICOS O EMPRESAS PRIVADAS, ESTÉN O NO COTIZADAS EN BOLSA, POR CUENTA PROPIA O CON EXCEPCIÓN DE LA INTERMEDIACIÓN Y DEJANDO SIEMPRE FUERA LAS ACTIVIDADES OBJETO DE LA LEGISLACIÓN DE INSTITUCIONES DE INVERSIÓN COLECTIVA Y DE MERCADO DE VALORES. B) LA ADQUISICIÓN, TENENCIA, ADMINISTRACIÓN Y EXPLOTACIÓN EN FORMA DE ARRIENDO, SUBARRIENDO, TRASPASO O CESIÓN, DE TODA CLASE DE VIVIENDAS, LOCALES INDUSTRIALES Y DE NEGOCIO, GARAJES Y, EN GENERAL, DE TODA CLASE DE INMUEBLES, TANTO URBANOS COMO RÚSTICOS, ASÍ COMO DE BIENES MUEBLES, MAQUINARIA Y VEHÍCULOS, INDUSTRIAS O NEGOCIOS, EMPRESAS O ESTABLECIMIENTOS MERCANTILES, Y TODA CLASE DE CESIÓN POR PRECIO DEL USO O DISFRUTE DE TODA CLASE DE BIENES Y DERECHOS, INCLUSO DE PROPIEDAD INTELECTUAL O INDUSTRIAL. C) LA REALIZACIÓN DE SERVICIOS DE GESTIÓN DE BIENES INMOBILIARIOS, TALES COMO VALORACIÓN, TASACIÓN, INVENTARIOS ASÍ COMO INTERMEDIACIÓN EN TRANSACCIONES, COMPRAS, VENTAS, ARRENDAMIENTOS, Y OTRAS GESTIONES INMOBILIARIAS POR CUENTA DE TERCEROS. D) LA REALIZACIÓN DE OBRA Y CONSTRUCCIONES DE TODO TIPO, PÚBLICAS Y PRIVADAS, BIEN POR EJECUCIÓN DIRECTA O POR CONTRATA, TANTO PARA SU APROVECHAMIENTO PROPIO COMO PARA SU COMERCIALIZACIÓN Y VENTA.",
      "mainEntityOfPage": "https://www.contratacion.euskadi.eus/webkpe00-kperoc/es/ac71aBusquedaRegistrosWar/empresa/03344",
      "_links": {
        "self": {
          "name": "OLARTZA ERAIKUNTZAK, S.L.",
          "href": "https://api.euskadi.eus/procurements/companies/03344"
        }
      }
    },
    {
      "name": "SERVIGESTIÓN Y CONTROL DE SERVICIOS AUXILIARES, S.L.",
      "registrationNumber": "04342",
      "identificationNumber": "B20998803",
      "address": "PASEO DE FRANCIA 5, 1ºA",
      "location": {
        "postalCode": "20012",
        "municipality": "Donostia / San Sebastián",
        "county": "Gipuzkoa",
        "municipalityId": "069",
        "countyId": "20"
      },
      "economicActivities": [
        {
          "id": "1.849.1",
          "name": "Cobros de deudas y confección de facturas",
          "_links": {
            "self": {
              "name": "Cobros de deudas y confección de facturas",
              "href": "https://api.euskadi.eus/procurements/companies/economic-activities/1.849.1"
            }
          }
        }
      ],
      "certificateStartDate": "2010-01-15",
      "certificateEndDate": "2010-04-19",
      "object": "LA INTERMEDIACIÓN, COORDINACIÓN Y PRESTACIÓN DE SERVICIOS AUXILIARES Y DE CONTRATACIÓN MERCANTIL Y LABORAL, CON EXCLUSIÓN DE LAS ACTIVIDADES SOMETIDAS A LEGISLACIÓN ESPECIAL Y A LA LEGISLACIÓN DE INSTITUCIONES DE INVERSIÓN COLECTIVA Y DE VALORES DE MERCADO",
      "mainEntityOfPage": "https://www.contratacion.euskadi.eus/webkpe00-kperoc/es/ac71aBusquedaRegistrosWar/empresa/04342",
      "_links": {
        "self": {
          "name": "SERVIGESTIÓN Y CONTROL DE SERVICIOS AUXILIARES, S.L.",
          "href": "https://api.euskadi.eus/procurements/companies/04342"
        }
      }
    },
    {
      "name": "COORDINACIÓN SAN MARCIAL, S.L.",
      "registrationNumber": "04344",
      "identificationNumber": "B20914438",
      "address": "SAN MARCIAL, 10-BAJO",
      "location": {
        "postalCode": "20304",
        "municipality": "Irun",
        "county": "Gipuzkoa",
        "municipalityId": "045",
        "countyId": "20"
      },
      "economicActivities": [
        {
          "id": "1.504.6",
          "name": "Montaje e instalación de aparatos elevadores de cualquier clase",
          "_links": {
            "self": {
              "name": "Montaje e instalación de aparatos elevadores de cualquier clase",
              "href": "https://api.euskadi.eus/procurements/companies/economic-activities/1.504.6"
            }
          }
        },
        {
          "id": "1.507",
          "name": "Construcción, reparación y conservación de toda clase obras",
          "_links": {
            "self": {
              "name": "Construcción, reparación y conservación de toda clase obras",
              "href": "https://api.euskadi.eus/procurements/companies/economic-activities/1.507"
            }
          }
        }
      ],
      "certificateStartDate": "2010-01-15",
      "certificateEndDate": "2010-03-23",
      "mainEntityOfPage": "https://www.contratacion.euskadi.eus/webkpe00-kperoc/es/ac71aBusquedaRegistrosWar/empresa/04344",
      "_links": {
        "self": {
          "name": "COORDINACIÓN SAN MARCIAL, S.L.",
          "href": "https://api.euskadi.eus/procurements/companies/04344"
        }
      }
    },
    {
      "name": "SERCONST CANTÁBRICOS, S.L.",
      "registrationNumber": "04338",
      "identificationNumber": "B39669825",
      "address": "BIDEZABAL 8, POLG. IND. GOROSIBAI",
      "location": {
        "postalCode": "48960",
        "municipality": "Galdakao",
        "county": "Bizkaia",
        "municipalityId": "036",
        "countyId": "48"
      },
      "economicActivities": [
        {
          "id": "1.501.1",
          "name": "Construcción completa, reparación y conservación de edificaciones",
          "_links": {
            "self": {
              "name": "Construcción completa, reparación y conservación de edificaciones",
              "href": "https://api.euskadi.eus/procurements/companies/economic-activities/1.501.1"
            }
          }
        }
      ],
      "certificateStartDate": "2010-01-13",
      "certificateEndDate": "2010-05-20",
      "object": "LA CONSTRUCCIÓN, REHABILITACIÓN Y RESTAURACIÓN DE INMUEBLES Y LA ADQUISICIÓN, TENENCIA Y ARRENDAMIENTO DE BIENES INMUEBLES, ASÍ COMO LAS ACTIVIDADES CONEXAS Y COMPLEMENTARIAS CON LAS QUE CONSTITUYEN EL OBJETO SOCIAL.",
      "mainEntityOfPage": "https://www.contratacion.euskadi.eus/webkpe00-kperoc/es/ac71aBusquedaRegistrosWar/empresa/04338",
      "_links": {
        "self": {
          "name": "SERCONST CANTÁBRICOS, S.L.",
          "href": "https://api.euskadi.eus/procurements/companies/04338"
        }
      }
    },
    {
      "name": "BBDO ESPAÑA, S.A.",
      "registrationNumber": "04339",
      "identificationNumber": "A28673036",
      "address": "TUSET, 5",
      "location": {
        "postalCode": "08006",
        "municipality": "Barcelona",
        "county": "Barcelona",
        "municipalityId": "019",
        "countyId": "08"
      },
      "economicActivities": [
        {
          "id": "1.842",
          "name": "Servicios financieros y contables",
          "_links": {
            "self": {
              "name": "Servicios financieros y contables",
              "href": "https://api.euskadi.eus/procurements/companies/economic-activities/1.842"
            }
          }
        }
      ],
      "certificateStartDate": "2010-01-13",
      "certificateEndDate": "2010-04-26",
      "object": "1) SUSCRIBIR, COMPRAR, VENDER, PIGNORAR, PERMUTAR, Y EN GENERAL REALIZAR TODA CLASE DE ACTOS DE DISPOSICIÓN, GRAVAMEN, DOMINIO, ADMINISTRACIÓN Y REPRESENTACIÓN DE TODA CLASE DE VALORES MOBILIARIOS, PARTICIPACIONES Y OTROS TÍTULOS EQUIVALENTES, REPRESENTATIVOS DE LA PROPIEDAD DEL CAPITAL Y DE EMPRÉSTITOS EN EMPRESAS MERCANTILES AJENAS, SEA CUAL SEA EL OBJETO SOCIAL DE LAS MISMAS Y LA FORMA JURÍDICA QUE ADOPTEN. TODO ELLO CON EXCLUSIÓN DE AQUELLAS ACTIVIDADES RESERVADAS CON CARÁCTER EXCLUSIVO A LAS INSTITUCIONES DE INVERSIÓN COLECTIVA Y A LA LEY DE MERCADO DE VALORES.\r\n2) ACEPTAR CARGOS DE ADMINISTRACIÓN Y PRESTAR SERVICIOS CONTABLES Y SERVICIOS DE ASESORÍA FINANCIERA Y DE DIRECCIÓN DE DICHAS PARTICIPADAS, CON EXCLUSIÓN DE AQUELLAS ACTIVIDADES RESERVADAS CON CARÁCTER EXCLUSIVO A LAS INSTITUCIONES DE INVERSIÓN COLECTIVA Y A LA LEY DE MERCADO DE VALORES.\r\n3) LA PRESTACIÓN DE SERVICIOS DE CONSULTORÍA DE MARCA.\r\n4) ACTIVIDADES PROPIAS DE LAS AGENCIAS DE PUBLICIDAD, MARKETING DIRECTO, PATRONICIO Y PROMOCIÓN DE VENTAS, ASESORÍA Y/O DESARROLLO DE ACTIVIDADES DE RELACIONES PÚBLICAS COMPRENDIENDO LA ELABORACIÓN DE ESTRATEGIAS Y PLANES DE ACTUACIÓN Y ASISTENCIA TÉCNICA COMPLETA EN MATERIA DE INVESTIGACIÓN DE MERCADOS.\r\n5) ANÁLISIS, CONCEPCIÓN Y DESARROLLO DE PROYECTOS DE IDENTIDAD Y COMUNICACIÓN CORPORATIVA INCLUYENDO TANTO LA IMAGEN GRÁFICA (LOGOTIPOS Y SU APLICACIÓN EN PAPELERÍA, FOLLETOS Y TODO TIPO DE MATERIALES PUBLICITARIOS) Y LA IMAGEN FÍSICA (PROYECTO DE DISEÑO DE OFICINAS, SEÑALIZACIONES, ETC.) COMO EL ESTABLECIMIENTO Y DESARROLLO PRÁCTICO DE LOS OBJETIVOS DE COMUNICACIÓN.\r\n6) PLANIFICACIÓN DE MEDIOS, NEGOCIACIÓN, CONTRATACIÓN Y EXPLOTACIÓN DE ESPACIOS Y TIEMPOS DE CUALQUIER MEDIO DE COMUNICACIÓN EN EL ENTORNO MULTIMEDIA MEDIANTE LA UTILIZACIÓN DE NUEVAS TECNOLOGÍAS.\r\n7) EL ANÁLISIS Y DESARROLLO DE SISTEMAS INFORMÁTICOS Y EN ESPECIAL DE BASES DE DATOS, LA SESORÍA DE MERCADO DE MARKETING Y ESTRATEGIAS; Y LA EXPLOTACIÓN DE FRANQUICIAS COMERCIALES.\r\n8) LA CREACIÓN Y GESTIÓN DE CENTROS DE COMUNICACIONES DIRIGIDOS A LA PRESTACIÓN DE SERVICIOS DE TELEMARKETING, DE INFORMACIÓN, DE ASISTENCIA TÉCNICA, DE ATENCIÓN AL CLIENTE, Y EN GENERAL DE CUALQUIER TIPO DE SERVICIOS DE SOPORTE",
      "mainEntityOfPage": "https://www.contratacion.euskadi.eus/webkpe00-kperoc/es/ac71aBusquedaRegistrosWar/empresa/04339",
      "_links": {
        "self": {
          "name": "BBDO ESPAÑA, S.A.",
          "href": "https://api.euskadi.eus/procurements/companies/04339"
        }
      }
    },
    {
      "name": "TIEMPO BBDO MADRID, S.A.",
      "registrationNumber": "04340",
      "identificationNumber": "A79281689",
      "address": "TUSET 5",
      "location": {
        "postalCode": "08006",
        "municipality": "Barcelona",
        "county": "Barcelona",
        "municipalityId": "019",
        "countyId": "08"
      },
      "economicActivities": [
        {
          "id": "1.844",
          "name": "Servicios de publicidad, relaciones públicas y similares",
          "_links": {
            "self": {
              "name": "Servicios de publicidad, relaciones públicas y similares",
              "href": "https://api.euskadi.eus/procurements/companies/economic-activities/1.844"
            }
          }
        }
      ],
      "certificateStartDate": "2010-01-13",
      "certificateEndDate": "2010-04-22",
      "object": "DEDICARSE A LA REALIZACIÓN Y EJECUCUÓN DE ACTIVIDADES PUBLICITARIAS Y DE MARKETING COMPLEMENTARIO INCLUYENDO LA COMPRA, TRANSFORMACIÓN Y POSTERIOR VENTA DE OBJETOS Y REGALOS DESTINADOS A LA PROMOCIÓN DE VENTAS REALIZADAS POR TERCEROS, ASÍ COMO EL ASESORAMIENTO Y SUPERVISIÓN EN LA ADQUISICIÓN DE DICHOS OBJETOS. ADEMÁS, SE DEDICARÁ AL ASESORAMIENTO A TERCEROS EN MARKETING, ELABORACIÓN DE ENCUESTAS Y SONDEOS DE MERCADO, ASESORAMIENTO EN IMAGEN Y EN LA INTERMEDIACIÓN ENTRE CASAS Y MARCAS COMERCIALES PARA EL ATROCINIO DE ACTIVIDADES DEPORTIVAS, MUSICALES, CULTURALES Y BENÉFICAS, ENTRE OTROS ÓRDENES, PUDIENDO AMPLIAR SUS FINES CUANDO LO ESTIME CONVENIENTE, AUNQUE SEA PARA DEDICARSE A OTROS NEGOCIOS O EMPRESAS QUE NO TENGAN RELACIÓN ALGUNA CON EL OBJETO INDICADO ",
      "mainEntityOfPage": "https://www.contratacion.euskadi.eus/webkpe00-kperoc/es/ac71aBusquedaRegistrosWar/empresa/04340",
      "_links": {
        "self": {
          "name": "TIEMPO BBDO MADRID, S.A.",
          "href": "https://api.euskadi.eus/procurements/companies/04340"
        }
      }
    },
    {
      "name": "SOCIEDAD PARA INVESTIGACIONES Y APLICACIONES INDUSTRIALES, S.A. (SIAISA)",
      "registrationNumber": "01738",
      "identificationNumber": "A28037240",
      "address": "C/ ALCALÁ, Nº 52.",
      "location": {
        "postalCode": "28014",
        "municipality": "Madrid",
        "county": "Madrid",
        "municipalityId": "079",
        "countyId": "28"
      },
      "economicActivities": [
        {
          "id": "1.504.1",
          "name": "Instalaciones eléctricas en general",
          "_links": {
            "self": {
              "name": "Instalaciones eléctricas en general",
              "href": "https://api.euskadi.eus/procurements/companies/economic-activities/1.504.1"
            }
          }
        },
        {
          "id": "1.617.9",
          "name": "Venta al por mayor interindustrial de otros productos n.c.o.p",
          "_links": {
            "self": {
              "name": "Venta al por mayor interindustrial de otros productos n.c.o.p",
              "href": "https://api.euskadi.eus/procurements/companies/economic-activities/1.617.9"
            }
          }
        },
        {
          "id": "1.699",
          "name": "Otras reparaciones n.c.o.p",
          "_links": {
            "self": {
              "name": "Otras reparaciones n.c.o.p",
              "href": "https://api.euskadi.eus/procurements/companies/economic-activities/1.699"
            }
          }
        }
      ],
      "certificateStartDate": "2010-01-08",
      "certificateEndDate": "2010-04-01",
      "object": "LA ADQUISICIÓN, EXPLOTACIÓN Y ENAJENACIÓN DE PATENTES, MARCAS Y PROCEDIMIENTOS INDUSTRIALES, EN NOMBRE PROPIO O DE TERCEROS. LA IMPORTACIÓN, EXPORTACIÓN, VENTA, ADQUISICIÓN, DISTRIBUCIÓN, EXPLOTACIÓN, COMERCIALIZACIÓN E INSTALACIÓN, EN NOMBRE PROPIO O DE TERCEROS, TANTO DE SUS COMPONENTES PRINCIPALES COMO ACCESORIOS, DE BIENES DE EQUIPO, MÁQUINAS HERRAMIENTA E INSTALACIONES INDUSTRIALES; MATERIAL Y EQUIPOS DE ELECTRÓNICA PROFESIONAL, SISTEMAS E INSTALACIONES RELACIONADOS CON LA SEGURIDAD Y APARCAMIENTOS AUTOMATIZADOS, ASÍ COMO LA PRESTACIÓN DE LOS SERVICIOS DE ASISTENCIA TÉCNICA, MANTENIMIENTO, REPARACIÓN Y FORMACIÓN EN EL USO Y MANEJO, TODO ELLO RESPECTO A TALES PRODUCTOS, SISTEMAS, EQUIPOS E INSTALACIONES. \r\n\r\nLA REPRESENTACION Y DISTRIBUCION DE MARCAS, PRODUCTOS Y FIRMAS NACIONALES Y EXTRANJERAS Y, EN GENERAL, LA REPRESENTACIÓN DE INTERESES AJENOS, ESPECIALMENTE, DE LOS DE PERSONAS FÍSICAS O JURÍDICAS EXTRANJERAS EN ESPAÑA",
      "mainEntityOfPage": "https://www.contratacion.euskadi.eus/webkpe00-kperoc/es/ac71aBusquedaRegistrosWar/empresa/01738",
      "_links": {
        "self": {
          "name": "SOCIEDAD PARA INVESTIGACIONES Y APLICACIONES INDUSTRIALES, S.A. (SIAISA)",
          "href": "https://api.euskadi.eus/procurements/companies/01738"
        }
      }
    },
    {
      "name": "LURLAN EXCAVACIONES Y CONSTRUCCIONES, S.L.",
      "registrationNumber": "03102",
      "identificationNumber": "B95183299",
      "address": "LAUAXETA BLOQOUE L, LOCAL L 2",
      "location": {
        "postalCode": "48980",
        "municipality": "Santurtzi",
        "county": "Bizkaia",
        "municipalityId": "082",
        "countyId": "48"
      },
      "economicActivities": [
        {
          "id": "1.502.2",
          "name": "Consolidación y preparación de terrenos para la construcción de edificaciones",
          "_links": {
            "self": {
              "name": "Consolidación y preparación de terrenos para la construcción de edificaciones",
              "href": "https://api.euskadi.eus/procurements/companies/economic-activities/1.502.2"
            }
          }
        }
      ],
      "certificateStartDate": "2010-01-05",
      "certificateEndDate": "2010-04-13",
      "object": "a) LA ADQUISICIÓN POR CUALQUIER TÍGULO DE FINCAS RÚSTICAS O URBANAS, LA CONSTRUCCIÓN DE ÉSTAS SU URBANIZACIÓN Y PARCELACIÓN, Y LA ADMINISTRACIÓN, TENENCIA, SU EXPLOTACIÓN Y ARRENDAMIENTO DE TALES BIENES Y SU VENTA TOTAL O PARCIAL, SEGÚN CONVENGA PARA SU APROVECHAMIENTO AGRÍCOLA, FORESTAL, URBANO, INDUSTRIAL O CUALQUIER OTRO.  LA PROMOCIÓN Y EJECUCIÓN,  COMPLETA O POR TRAMOS DE TODA CLASE DE OBRAS DE CONSTRUCCIÓN, PARA SÍ O PARA TERCEROS, SEAN ORGANISMOS PÚBLICOS DEL ESTADO, PROVINCIA, MUNICIPIO, ENTES AUTONÓMICOS O PERSONAS FÍSICAS, POR CUENTA PROPIA O AJENA, INCLUSO VIVIENDAS Y LOCALES DE LOS DENOMINADOS DE PROTECCIÓN OFICIAL. LA COMPRA, VENTA Y ALQUILER DE EDIFICACIONES EN SU TOTALIDAD, POR PARTES O POR PISOS, BIEN PARA VIVIENDAS O PARA LOCALES DE OFICINAS, DE NEGOCIO O INDUSTRIALES, CONSTRUIDAS PAR TAL FÍN, DIRECTAMENTE O POR MEDIO DE CONTRATISTAS, SUBCONTRATISTAS Y DESTAJISTAS O BIEN ADQUIRIDAS YA CONSTRUÍDAS O EN COSNTRUCCIÓN.  LA REPARACIÓN, LIMPIEZA O CONSERVACIÓN POR CUENTA PROPIA O AJENA DE TODA CLASE DE EDIFICACIONES, POR PARTES O POR PISOS, BIEN PARA VIVIENDAS O PARA LOCALES DE NEGOCIOS Y LA LIMPIEZA EN TODA CLASE DE FACHADAS.\r\n\r\nB) EL ESTUDIO, PROYECCIÓN,  DIRECCIÓN, EJECUCIÓN, CONSTRUCCIÓN, REHABILITACIÓN, REPARACIÓN Y CONSERVACIÓN DE EDIFICACIONES URBANAS, RÚSTICAS, INDUSTRIALES Y URBANIZACIONES, SANEAMIENTO Y ABASTECIMIENTO D EAGUAS, MOVIVIMIENTOS DE TIERRA, CONSTRUCCIÓN DE CARRETERAS, OBRAS HIDRÁULICAS Y DE RIEGOS, OBRAS DE ALBAÑILERÍA, EXCAVACIONES, DEMOLICIONES Y DERRIBOS, CONSOLIDACIÓN Y PREPARACIÓN DE TERRENOS, CIMENTACIÓN Y PAVIMENTACIÓN DE CUALQUIER CLASE, PREPARACIÓN Y  MONTAJE DE CUALQUIER  TIPO DE ESTRUCTURA (INCLUSO GRÚA), Y CUBIERTAS DE HORMIGÓN EN MASA, ARMADO Y PRETENSADO, ASÍ COMO SU GESTIÓN, EXPLOTACIÓN, FINANCIACIÓN Y MANTENIMIENTO INTEGRAL.\r\n\r\nc) LA INTERMEDIACIÓN EN TODO TIPO DE OPERACIONES INMOBILIARIAS, COMO COMPRA, VENTA, ARRIEN DO O EXPLOTACIÓN EN CUALQUIER FORMA DE EDIFICIOS, PISOS, APARTAMENTOS, OFICINAS, LOCALES COMERCIALES, CHALETS O FINCAS RÚSTICAS O URBANAS; ASÍ COMO LA GESTIÓN URBANÍSTICA.\r\n\r\nd) LA REALIZACIÓN DE ACTIVIDADES DE PINTURA, CARPINTERÍA, ALBAÑILERÍA Y DECORACIÓN EN TODAS SUS VARIANTES Y FORMAS, TANTO EN EXTERIORES COMO EN INTERIORES, INSTALACIONES DE PAPELES PINTADOS, MOQUETAS, MADERAS Y OTROS MATERIALES ANÁLOGOS, LA COMPRA, VENTA, IMPORTACIÓN, EXPORTACIÓN, ALMACENAMIENTO, DEPÓSITO Y COMERCIALIZACIÓN AL POR MAYOR O MENOR DE PINTURAS, PAPELES PINTADOS, MOQUETAS, MADERAS Y OTROS MATERIALES Y OBJETOS PARA DECORACIÓN, ALBAÑILERÍA, CARPINTERÍA Y PINTURA, ASÍ COMO DE TODA CLASE DE MATERIALES AUXILIARES O ANEJOS PARA LA CONSTRUCCIÓN.\r\nTALES ACTIVIDADES PODRÁN SER DESARROLLADAS POR LA SOCIEDAD EN FORMA DIRECTA, O BIEN EN CUALESQUIERA OTRAS FORMAS ADMITIDAS EN DERECHO, COMO LA PARTICIPACÓN EN CALIDAD DE SOCIO EN OTRAS ENTIDADES DE OBJETO IDÉNTICO O ANÁLOGO",
      "mainEntityOfPage": "https://www.contratacion.euskadi.eus/webkpe00-kperoc/es/ac71aBusquedaRegistrosWar/empresa/03102",
      "_links": {
        "self": {
          "name": "LURLAN EXCAVACIONES Y CONSTRUCCIONES, S.L.",
          "href": "https://api.euskadi.eus/procurements/companies/03102"
        }
      }
    }
  ]
}