{
  "totalItems": 9042,
  "totalPages": 905,
  "currentPage": 473,
  "itemsOfPage": 10,
  "items": [
    {
      "name": "MARKEL URTIAGA ALBERDI",
      "registrationNumber": "07168",
      "identificationNumber": "16093512K",
      "address": "IBAIGANE 9, 3B",
      "location": {
        "postalCode": "48970",
        "municipality": "Basauri",
        "county": "Bizkaia",
        "municipalityId": "015",
        "countyId": "48"
      },
      "economicActivities": [
        {
          "id": "2.411",
          "name": "Arquitectos",
          "_links": {
            "self": {
              "name": "Arquitectos",
              "href": "https://api.euskadi.eus/procurements/companies/economic-activities/2.411"
            }
          }
        }
      ],
      "certificateStartDate": "2022-12-26",
      "certificateEndDate": "2023-06-26",
      "object": "ARQUITECTOS",
      "mainEntityOfPage": "https://www.contratacion.euskadi.eus/webkpe00-kperoc/es/ac71aBusquedaRegistrosWar/empresa/07168",
      "_links": {
        "self": {
          "name": "MARKEL URTIAGA ALBERDI",
          "href": "https://api.euskadi.eus/procurements/companies/07168"
        }
      }
    },
    {
      "name": "ROBERTO SAINZ-AJA MARAÑON",
      "registrationNumber": "05505",
      "identificationNumber": "14609182L",
      "address": "C/ ASTURIAS, 6-2º DCHA.",
      "location": {
        "postalCode": "48015",
        "municipality": "Bilbao",
        "county": "Bizkaia",
        "municipalityId": "020",
        "countyId": "48"
      },
      "economicActivities": [
        {
          "id": "1.721.2",
          "name": "Transporte por autotaxis",
          "_links": {
            "self": {
              "name": "Transporte por autotaxis",
              "href": "https://api.euskadi.eus/procurements/companies/economic-activities/1.721.2"
            }
          }
        }
      ],
      "certificateStartDate": "2022-12-25",
      "certificateEndDate": "2023-06-22",
      "object": "TRANSPORTE POR AUTOTAXI",
      "mainEntityOfPage": "https://www.contratacion.euskadi.eus/webkpe00-kperoc/es/ac71aBusquedaRegistrosWar/empresa/05505",
      "_links": {
        "self": {
          "name": "ROBERTO SAINZ-AJA MARAÑON",
          "href": "https://api.euskadi.eus/procurements/companies/05505"
        }
      }
    },
    {
      "name": "MP4 AUDITORES, S.L.",
      "registrationNumber": "08771",
      "identificationNumber": "B48989388",
      "address": "c/ Marqués del Puerto,  Nº 4, 4º derecha",
      "location": {
        "postalCode": "48009",
        "municipality": "Bilbao",
        "county": "Bizkaia",
        "municipalityId": "020",
        "countyId": "48"
      },
      "economicActivities": [
        {
          "id": "1.842",
          "name": "Servicios financieros y contables",
          "_links": {
            "self": {
              "name": "Servicios financieros y contables",
              "href": "https://api.euskadi.eus/procurements/companies/economic-activities/1.842"
            }
          }
        }
      ],
      "certificateStartDate": "2022-12-23",
      "certificateEndDate": "2023-06-23",
      "object": "A. LA PRESTACIÓN DE SERVICIOS PROFESIONALES EN EL ÁMBITO DE LA AUDITORÍA DE CUENTAS EN SU MÁS AMPLIO SENTIDO, PUDIENDO POR TANTO REALIZAR TODAS AQUELLAS FUNCIONES ATRIBUIDAS Y RECONOCIDAS POR LAS LEYES A LOS MIEMBROS DEL INSTITUTO DE CENSORES DE CUENTAS DE ESPAÑA Y CON EL ALCANCE Y CONTENIDO QUE LA LEY 19/88 CONCEPTÚA Y TODAS AQUELLAS FUNCIONES Y TRABAJOS RECONOCIDOS A LOS MIEMBROS DEL REGISTRO OFICIAL DE AUDITORES DE CUENTAS. B. ESTUDIOS Y TRABAJOS DE CONSULTORÍA Y ASESORÍA SOBRE TEMAS TRIBUTARIOS, FINANCIEROS, ECONÓMICOS, JURÍDICOS Y AFINES, YA SEAN REALIZADOS BIEN DIRECTAMENTE O MEDIANTE TERCEROS. C. LA ADQUISICIÓN DE BIENES MUEBLES E INMUEBLES. D. LA INTERMEDIACIÓN Y ASESORAMIENTO EN LA COMPRAVENTA DE SOCIEDADES Y EMPRESAS.",
      "mainEntityOfPage": "https://www.contratacion.euskadi.eus/webkpe00-kperoc/es/ac71aBusquedaRegistrosWar/empresa/08771",
      "_links": {
        "self": {
          "name": "MP4 AUDITORES, S.L.",
          "href": "https://api.euskadi.eus/procurements/companies/08771"
        }
      }
    },
    {
      "name": "MARCOS CONTRERAS CABADO",
      "registrationNumber": "08770",
      "identificationNumber": "52622761A",
      "address": "Calle Independentzia 104A B",
      "location": {
        "postalCode": "48940",
        "municipality": "Leioa",
        "county": "Bizkaia",
        "municipalityId": "054",
        "countyId": "48"
      },
      "economicActivities": [
        {
          "id": "1.671.1",
          "name": "Restaurante cinco tenedores",
          "_links": {
            "self": {
              "name": "Restaurante cinco tenedores",
              "href": "https://api.euskadi.eus/procurements/companies/economic-activities/1.671.1"
            }
          }
        }
      ],
      "certificateStartDate": "2022-12-22",
      "certificateEndDate": "2023-05-24",
      "object": "RESTAURANTE CINCO TENEDORES.",
      "mainEntityOfPage": "https://www.contratacion.euskadi.eus/webkpe00-kperoc/es/ac71aBusquedaRegistrosWar/empresa/08770",
      "_links": {
        "self": {
          "name": "MARCOS CONTRERAS CABADO",
          "href": "https://api.euskadi.eus/procurements/companies/08770"
        }
      }
    },
    {
      "name": "SILVIA RODRIGUEZ SANCHEZ",
      "registrationNumber": "08760",
      "identificationNumber": "78902769G",
      "address": "TRAVESIA ITURRIAGA 3 LOCAL 2",
      "location": {
        "postalCode": "48004",
        "municipality": "Bilbao",
        "county": "Bizkaia",
        "municipalityId": "020",
        "countyId": "48"
      },
      "economicActivities": [
        {
          "id": "2.723",
          "name": "Administradores de fincas",
          "_links": {
            "self": {
              "name": "Administradores de fincas",
              "href": "https://api.euskadi.eus/procurements/companies/economic-activities/2.723"
            }
          }
        }
      ],
      "certificateStartDate": "2022-12-20",
      "certificateEndDate": "2023-05-15",
      "object": "ADMINISTRADORES DE FINCAS.",
      "mainEntityOfPage": "https://www.contratacion.euskadi.eus/webkpe00-kperoc/es/ac71aBusquedaRegistrosWar/empresa/08760",
      "_links": {
        "self": {
          "name": "SILVIA RODRIGUEZ SANCHEZ",
          "href": "https://api.euskadi.eus/procurements/companies/08760"
        }
      }
    },
    {
      "name": "MARIA LUISA GARCIA LADERO",
      "registrationNumber": "08504",
      "identificationNumber": "44332256D",
      "address": "Erdikale Kalea",
      "location": {
        "postalCode": "20730",
        "municipality": "Azpeitia",
        "county": "Gipuzkoa",
        "municipalityId": "018",
        "countyId": "20"
      },
      "economicActivities": [
        {
          "id": "3.016",
          "name": "Humoristas, caricatos, excentr., charlistas, recitadores",
          "_links": {
            "self": {
              "name": "Humoristas, caricatos, excentr., charlistas, recitadores",
              "href": "https://api.euskadi.eus/procurements/companies/economic-activities/3.016"
            }
          }
        }
      ],
      "certificateStartDate": "2022-12-20",
      "certificateEndDate": "2023-06-20",
      "object": "HUMORISTAS, CARICATOS, EXCENTR., CHARLISTAS, RECITADORES.",
      "mainEntityOfPage": "https://www.contratacion.euskadi.eus/webkpe00-kperoc/es/ac71aBusquedaRegistrosWar/empresa/08504",
      "_links": {
        "self": {
          "name": "MARIA LUISA GARCIA LADERO",
          "href": "https://api.euskadi.eus/procurements/companies/08504"
        }
      }
    },
    {
      "name": "OLYMPUS IBERIA, S.A.",
      "registrationNumber": "00518",
      "identificationNumber": "A08214157",
      "address": "PLAZA EUROPA, 29-31 / 4ª PLANTA",
      "location": {
        "postalCode": "08908",
        "municipality": "Hospitalet de Llobregat, L'",
        "county": "Barcelona",
        "municipalityId": "101",
        "countyId": "08"
      },
      "economicActivities": [
        {
          "id": "1.614.1",
          "name": "Venta al por mayor de productos farmacéuticos y medicamentos",
          "_links": {
            "self": {
              "name": "Venta al por mayor de productos farmacéuticos y medicamentos",
              "href": "https://api.euskadi.eus/procurements/companies/economic-activities/1.614.1"
            }
          }
        },
        {
          "id": "1.619.2",
          "name": "Venta al por mayor de aparatos e instrumentos médicos, ortopédicos, ópticos",
          "_links": {
            "self": {
              "name": "Venta al por mayor de aparatos e instrumentos médicos, ortopédicos, ópticos",
              "href": "https://api.euskadi.eus/procurements/companies/economic-activities/1.619.2"
            }
          }
        }
      ],
      "certificateStartDate": "2022-12-20",
      "certificateEndDate": "2023-06-14",
      "object": "COMPRAVENTA, CUALQUIER TIPO DE ARRENDAMIENTO, EXCLUIDO EL FINANCIERO O &quot;LEASING&quot; Y REPARACIÓN DE MATERIAL MÉDICO, DENTAL Y FARMACÉUTICO Y LOS SERVICIOS POR CUENTA DE TERCEROS RELACIONADOS CON LAS ACTIVIDADES DE LA COMPAÑÍA. COMPRAVENTA, ALQUILER Y REPARACIÓN DE MATERIAL FOTOGRÁFICO, ASÍ COMO PRESTACIÓN DE SERVICIOS DE ASISTENCIA AL RELEVADO FOTOGRÁFICO POR CUENTA DE TERCEROS. COMPRAVENTA, ALQUILER Y REPARACIÓN DE MATERIAL PARA EL PROCESAMIENTO Y ALMACENAMIENTO DE VOZ Y SONIDOS, EQUIPOS DE PROCESAMIENTO DE IMAGEN, MATERIAL ÓPTICO Y DIGITAL DE AUMENTO PARA EL SECTOR DE LA INVESTIGACIÓN Y EL SECTOR CLÍNICO Y MÉDICO, SISTEMAS DE DIAGNÓSTICO MÉDICO, SISTEMAS DE AUTOMATIZACIÓN Y SISTEMAS DE INFORMACIÓN DE HOSPITALES, ASÍ COMO ACCESORIOS PARA LA UTILIZACIÓN DE DICHOS EQUIPOS Y PRESTACIÓN DEL SERVICIO DE MANTENINIMIENTO PREVENTIVO Y REACTIVO. COMPRAVENTA DE REACTIVOS PARA LA REALIZACIÓN DE ANÁLISIS CLÍNICOS. ALMACENAJE  POR CUENTA AJENA DE CUALQUIER TIPO DE PRODUCTO MÉDICO, CIENTÍFICO Y PRODUCTOS DE ELECTRÓNICA DE CONSUMO. ALQUILER Y VENTA DE EQUIPOS DE MEDICIÓN INDUSTRIAL. DESARROLLO, ALQUILER Y VENTA DE SISTEMAS Y PROGRAMAS INFORMÁTICOS\n",
      "mainEntityOfPage": "https://www.contratacion.euskadi.eus/webkpe00-kperoc/es/ac71aBusquedaRegistrosWar/empresa/00518",
      "_links": {
        "self": {
          "name": "OLYMPUS IBERIA, S.A.",
          "href": "https://api.euskadi.eus/procurements/companies/00518"
        }
      }
    },
    {
      "name": "CERAMICAS NOGALES SL",
      "registrationNumber": "05873",
      "identificationNumber": "B20569984",
      "address": "C/Belandi 6",
      "location": {
        "postalCode": "20130",
        "municipality": "Urnieta",
        "county": "Gipuzkoa",
        "municipalityId": "072",
        "countyId": "20"
      },
      "economicActivities": [
        {
          "id": "1.501.3",
          "name": "Albañilería y pequeños trabajos de construcción en general",
          "_links": {
            "self": {
              "name": "Albañilería y pequeños trabajos de construcción en general",
              "href": "https://api.euskadi.eus/procurements/companies/economic-activities/1.501.3"
            }
          }
        },
        {
          "id": "1.653.4",
          "name": "Venta al por menor de material de construcción y mobiliario de saneamiento",
          "_links": {
            "self": {
              "name": "Venta al por menor de material de construcción y mobiliario de saneamiento",
              "href": "https://api.euskadi.eus/procurements/companies/economic-activities/1.653.4"
            }
          }
        }
      ],
      "certificateStartDate": "2022-12-16",
      "certificateEndDate": "2023-06-14",
      "object": "VENTA Y DISTRIBUCIÓN COMERCIAL DE CERÁMICAS, GRES, MATERIALES DE CONSTRUCCIÓN Y ACCESORIOS DE BAÑO, ASÍ COMO LA EJECUCIÓN DE ALBAÑILERÍA Y CONSTRUCCIÓN",
      "mainEntityOfPage": "https://www.contratacion.euskadi.eus/webkpe00-kperoc/es/ac71aBusquedaRegistrosWar/empresa/05873",
      "_links": {
        "self": {
          "name": "CERAMICAS NOGALES SL",
          "href": "https://api.euskadi.eus/procurements/companies/05873"
        }
      }
    },
    {
      "name": "BURUTXAGA 2021, S.L.",
      "registrationNumber": "07909",
      "identificationNumber": "B05484001",
      "address": "MARINO ARCHER, 43",
      "location": {
        "postalCode": "48013",
        "municipality": "Bilbao",
        "county": "Bizkaia",
        "municipalityId": "020",
        "countyId": "48"
      },
      "economicActivities": [
        {
          "id": "1.413.2",
          "name": "Fabricación de productos cárnicos de todas clases",
          "_links": {
            "self": {
              "name": "Fabricación de productos cárnicos de todas clases",
              "href": "https://api.euskadi.eus/procurements/companies/economic-activities/1.413.2"
            }
          }
        },
        {
          "id": "1.612.4",
          "name": "Venta al por mayor de carnes, huevos, aves y caza",
          "_links": {
            "self": {
              "name": "Venta al por mayor de carnes, huevos, aves y caza",
              "href": "https://api.euskadi.eus/procurements/companies/economic-activities/1.612.4"
            }
          }
        }
      ],
      "certificateStartDate": "2022-12-14",
      "certificateEndDate": "2023-06-14",
      "object": "LA EXPLOTACIÓN DE ANIMALES VIVOS, SU SACRIFICIO, DESPIECE Y PREPARACIÓN DE CARNES DE GANADO; VACUNO, OVINO, CAPRINO, PORCINO, CONEJOS, AVES Y EQUINO ASÍ COMO SU COMERCIALIZACIÓN, ELABORACIÓN, PROMOCIÓN, COMPRA-VENTA, ALMACENAMIENTO Y LA DISTRIBUCIÓN DE ESTOS PRODUCTOS, SUS TRANSFORMADOS Y DERIVADOS. LA EXPLOTACIÓN DE SALAS DE DESPIECE ASÍ COMO LA FABRICACIÓN Y COMERCIALIZACIÓN DE EMBUTIDOS, FIAMBRES Y MORCILLAS.",
      "mainEntityOfPage": "https://www.contratacion.euskadi.eus/webkpe00-kperoc/es/ac71aBusquedaRegistrosWar/empresa/07909",
      "_links": {
        "self": {
          "name": "BURUTXAGA 2021, S.L.",
          "href": "https://api.euskadi.eus/procurements/companies/07909"
        }
      }
    },
    {
      "name": "COMUNICACIONES Y OCIO INTERACTIVO",
      "registrationNumber": "04335",
      "identificationNumber": "B95279964",
      "address": "GRAN VIA 81 - 5ª DPTO. 6",
      "location": {
        "postalCode": "48011",
        "municipality": "Bilbao",
        "county": "Bizkaia",
        "municipalityId": "020",
        "countyId": "48"
      },
      "economicActivities": [
        {
          "id": "1.615.4",
          "name": "Venta al por mayor de aparatos y material radioeléctrico y electrónico",
          "_links": {
            "self": {
              "name": "Venta al por mayor de aparatos y material radioeléctrico y electrónico",
              "href": "https://api.euskadi.eus/procurements/companies/economic-activities/1.615.4"
            }
          }
        },
        {
          "id": "1.844",
          "name": "Servicios de publicidad, relaciones públicas y similares",
          "_links": {
            "self": {
              "name": "Servicios de publicidad, relaciones públicas y similares",
              "href": "https://api.euskadi.eus/procurements/companies/economic-activities/1.844"
            }
          }
        }
      ],
      "certificateStartDate": "2022-12-13",
      "certificateEndDate": "2023-06-02",
      "object": "-) COMPRA, VENTA, CREACIÓN, DISTRIBUCIÓN Y ALQUILER DE SOFWARE INFORMÁTICO Y TELECOMUNICACIONES; MONTAJE, COMPRA, VENTA, CREACIÓN, DISTRIBUCIÓN Y ALQUILER DE HARDWARE INFORMÁTICO Y DE TELECOMUNICACIONES, ASÍ COMO EMPRESA FRANQUICIADORA DE ESTAS ACTIVIDADES.. -) PRODUCCIÓN, POSTPRODUCCIÓN Y DISTRIBUCIÓN DE PRODUCTOS Y SERVICIOS AUDIOVISUALES EN CUALQUIER SOPORTE O VÍA QUE LO PERMITA. -) COMPRA, VENTA, CREACIÓN, DISTRIBUCIÓN Y ALQUILER DE TODA CLASE DE SERVCIOS Y PRODUCTOS DE TELECOMUNICACIONES.   -) COMPRA, VENTA, CREACIÓN, DISTRIBUCIÓN Y ALQUILER DE TODO TIPO DE EQUIPAMIENTO AUDIOVISUAL.   -) FABRICACIÓN Y EXPLOTACIÓN DE PLATAFORMAS VIRTUALES, AUDIOVISUALES, O DE CUALQUIER OTRA NATURALEZA QUE PERMITAN JUEGO O JUEGOS ELECTRÓNICOS, A TRAVÉS DE REDES DE COMUNICACIÓN.   -) INTERMEDIACIÓN DE PRODUCTOS Y SERVICIOS INMOBILIARIOS.   -) AGENCIA DE PUBLICIDAD Y AGENCIA DE MEDIOS. COMPRA, VENTA, CREACIÓN, DISTRIBUCIÓN Y ALQUILER DE PUBLICIDAD EN CUALQUIER SOPORTE O VÍA, ASÍ COMO LA COMPRA, VENTA, CREACIÓN, DISTRIBUCIÓN Y ALQUILER DE DICHOS SOPORTES.    -) FORMACIÓN REGLADA Y NO REGLADA SOBRE TÉCNICAS INMOBILIARIAS, AUDIOVISUALES, DE SOFWARE Y HARWARE.   -) EMPRESA FRANQUICIADORA DE TODO TIPO DE SERVICIOS Y PRODUCTOS INMOBILIARIOS, PUBLICIDAD Y TELECOMUNICACIONES.   -) EL EJERCICIO DE LAS ACTIVIDADES PROPIAS DE LAS AGENCIAS DE VIAJES MINORISTAS, TALES COMO LA MEDIACIÓN EN LA VENTA DE BILLETES Y RESERVAS DE PLAZAS EN TODA CLASE DE MEDIOS Y TRANSPORTES; LA RESERVA DE HABITACIONES Y SERVICIOS EN LOS ESTABLECIMIENTOS HOSTELEROS Y DEMÁS ALOJAMIENTOS TURÍSTICOS; LA ORGANIZACIÓN, VENTA Y REALIZACIÓN DE SERVICIOS COMBINADOS Y VIAJES A &quot;FORFAIT&quot;, INCLUYENDO LA RECEPCIÓN, ASISTENCIA Y TRASLADO DE CLIENTES Y LAS DEMÁS DEFINIDAS EN LAS DISPOSICIONES NORMATIVAS VIGENTES EN MATERIA DE AGENCIAS DE VIAJES",
      "mainEntityOfPage": "https://www.contratacion.euskadi.eus/webkpe00-kperoc/es/ac71aBusquedaRegistrosWar/empresa/04335",
      "_links": {
        "self": {
          "name": "COMUNICACIONES Y OCIO INTERACTIVO",
          "href": "https://api.euskadi.eus/procurements/companies/04335"
        }
      }
    }
  ]
}